<?xml version="1.0" encoding="UTF-8" standalone="no"?>
<!-- Created with CurveBenchmark -->
<svg
	xmlns:dc="http://purl.org/dc/elements/1.1/"
	xmlns:cc="http://creativecommons.org/ns#"
	xmlns:rdf="http://www.w3.org/1999/02/22-rdf-syntax-ns#"
	xmlns:svg="http://www.w3.org/2000/svg"
	xmlns="http://www.w3.org/2000/svg"
	xmlns:sodipodi="http://sodipodi.sourceforge.net/DTD/sodipodi-0.dtd"
	xmlns:inkscape="http://www.inkscape.org/namespaces/inkscape"
	width="1000"
	height="1000"
	id="svg2"
	version="1.1"
	sodipodi:docname="manifold/nncrust-car-14.png.txt">
<defs
	id="defs4" />
<metadata
	id="metadata7">
	<rdf:RDF>
		<cc:Work
			rdf:about="">
			<dc:format>image/svg+xml</dc:format>
			<dc:type
				rdf:resource="http://purl.org/dc/dcmitype/StillImage" />
			<dc:title></dc:title>
		</cc:Work>
	</rdf:RDF>
</metadata>
<g
	inkscape:label="Layer 1"
	inkscape:groupmode="layer"
	id="layer1">
	<path style="fill:none;stroke:red;stroke-width:1px;stroke-linecap:butt;stroke-linejoin:miter;stroke-opacity:1" d="M 154.957,183.71 145.714,188.845 z" id="boundary" inkscape:connector-curvature="0" />
	<path style="fill:none;stroke:red;stroke-width:1px;stroke-linecap:butt;stroke-linejoin:miter;stroke-opacity:1" d="M 145.714,188.845 135.445,188.845 z" id="boundary" inkscape:connector-curvature="0" />
	<path style="fill:none;stroke:red;stroke-width:1px;stroke-linecap:butt;stroke-linejoin:miter;stroke-opacity:1" d="M 164.199,178.576 154.957,183.71 z" id="boundary" inkscape:connector-curvature="0" />
	<path style="fill:none;stroke:red;stroke-width:1px;stroke-linecap:butt;stroke-linejoin:miter;stroke-opacity:1" d="M 164.199,178.576 173.441,173.441 z" id="boundary" inkscape:connector-curvature="0" />
	<path style="fill:none;stroke:red;stroke-width:1px;stroke-linecap:butt;stroke-linejoin:miter;stroke-opacity:1" d="M 173.441,173.441 183.71,173.441 z" id="boundary" inkscape:connector-curvature="0" />
	<path style="fill:none;stroke:red;stroke-width:1px;stroke-linecap:butt;stroke-linejoin:miter;stroke-opacity:1" d="M 104.638,204.248 114.907,199.114 z" id="boundary" inkscape:connector-curvature="0" />
	<path style="fill:none;stroke:red;stroke-width:1px;stroke-linecap:butt;stroke-linejoin:miter;stroke-opacity:1" d="M 114.907,199.114 125.176,193.979 z" id="boundary" inkscape:connector-curvature="0" />
	<path style="fill:none;stroke:red;stroke-width:1px;stroke-linecap:butt;stroke-linejoin:miter;stroke-opacity:1" d="M 125.176,193.979 135.445,188.845 z" id="boundary" inkscape:connector-curvature="0" />
	<path style="fill:none;stroke:red;stroke-width:1px;stroke-linecap:butt;stroke-linejoin:miter;stroke-opacity:1" d="M 94.3685,209.383 104.638,204.248 z" id="boundary" inkscape:connector-curvature="0" />
	<path style="fill:none;stroke:red;stroke-width:1px;stroke-linecap:butt;stroke-linejoin:miter;stroke-opacity:1" d="M 183.71,173.441 193.979,173.441 z" id="boundary" inkscape:connector-curvature="0" />
	<path style="fill:none;stroke:red;stroke-width:1px;stroke-linecap:butt;stroke-linejoin:miter;stroke-opacity:1" d="M 204.248,173.441 214.518,173.441 z" id="boundary" inkscape:connector-curvature="0" />
	<path style="fill:none;stroke:red;stroke-width:1px;stroke-linecap:butt;stroke-linejoin:miter;stroke-opacity:1" d="M 204.248,173.441 193.979,173.441 z" id="boundary" inkscape:connector-curvature="0" />
	<path style="fill:none;stroke:red;stroke-width:1px;stroke-linecap:butt;stroke-linejoin:miter;stroke-opacity:1" d="M 214.518,173.441 224.787,173.441 z" id="boundary" inkscape:connector-curvature="0" />
	<path style="fill:none;stroke:red;stroke-width:1px;stroke-linecap:butt;stroke-linejoin:miter;stroke-opacity:1" d="M 235.056,173.441 224.787,173.441 z" id="boundary" inkscape:connector-curvature="0" />
	<path style="fill:none;stroke:red;stroke-width:1px;stroke-linecap:butt;stroke-linejoin:miter;stroke-opacity:1" d="M 255.594,173.441 245.325,173.441 z" id="boundary" inkscape:connector-curvature="0" />
	<path style="fill:none;stroke:red;stroke-width:1px;stroke-linecap:butt;stroke-linejoin:miter;stroke-opacity:1" d="M 260.729,161.118 255.594,173.441 z" id="boundary" inkscape:connector-curvature="0" />
	<path style="fill:none;stroke:red;stroke-width:1px;stroke-linecap:butt;stroke-linejoin:miter;stroke-opacity:1" d="M 245.325,173.441 235.056,173.441 z" id="boundary" inkscape:connector-curvature="0" />
	<path style="fill:none;stroke:red;stroke-width:1px;stroke-linecap:butt;stroke-linejoin:miter;stroke-opacity:1" d="M 4,274.079 4,263.81 z" id="boundary" inkscape:connector-curvature="0" />
	<path style="fill:none;stroke:red;stroke-width:1px;stroke-linecap:butt;stroke-linejoin:miter;stroke-opacity:1" d="M 4,263.81 9.13458,253.54 z" id="boundary" inkscape:connector-curvature="0" />
	<path style="fill:none;stroke:red;stroke-width:1px;stroke-linecap:butt;stroke-linejoin:miter;stroke-opacity:1" d="M 9.13458,253.54 17.3499,245.325 z" id="boundary" inkscape:connector-curvature="0" />
	<path style="fill:none;stroke:red;stroke-width:1px;stroke-linecap:butt;stroke-linejoin:miter;stroke-opacity:1" d="M 4,284.348 4,274.079 z" id="boundary" inkscape:connector-curvature="0" />
	<path style="fill:none;stroke:red;stroke-width:1px;stroke-linecap:butt;stroke-linejoin:miter;stroke-opacity:1" d="M 4,294.617 4,284.348 z" id="boundary" inkscape:connector-curvature="0" />
	<path style="fill:none;stroke:red;stroke-width:1px;stroke-linecap:butt;stroke-linejoin:miter;stroke-opacity:1" d="M 4,304.886 9.13458,314.128 z" id="boundary" inkscape:connector-curvature="0" />
	<path style="fill:none;stroke:red;stroke-width:1px;stroke-linecap:butt;stroke-linejoin:miter;stroke-opacity:1" d="M 4,304.886 4,294.617 z" id="boundary" inkscape:connector-curvature="0" />
	<path style="fill:none;stroke:red;stroke-width:1px;stroke-linecap:butt;stroke-linejoin:miter;stroke-opacity:1" d="M 14.2692,323.371 9.13458,314.128 z" id="boundary" inkscape:connector-curvature="0" />
	<path style="fill:none;stroke:red;stroke-width:1px;stroke-linecap:butt;stroke-linejoin:miter;stroke-opacity:1" d="M 17.3499,245.325 26.5921,240.19 z" id="boundary" inkscape:connector-curvature="0" />
	<path style="fill:none;stroke:red;stroke-width:1px;stroke-linecap:butt;stroke-linejoin:miter;stroke-opacity:1" d="M 65.6149,222.733 75.8841,219.652 z" id="boundary" inkscape:connector-curvature="0" />
	<path style="fill:none;stroke:red;stroke-width:1px;stroke-linecap:butt;stroke-linejoin:miter;stroke-opacity:1" d="M 55.3458,227.867 65.6149,222.733 z" id="boundary" inkscape:connector-curvature="0" />
	<path style="fill:none;stroke:red;stroke-width:1px;stroke-linecap:butt;stroke-linejoin:miter;stroke-opacity:1" d="M 85.1263,214.518 75.8841,219.652 z" id="boundary" inkscape:connector-curvature="0" />
	<path style="fill:none;stroke:red;stroke-width:1px;stroke-linecap:butt;stroke-linejoin:miter;stroke-opacity:1" d="M 94.3685,209.383 85.1263,214.518 z" id="boundary" inkscape:connector-curvature="0" />
	<path style="fill:none;stroke:red;stroke-width:1px;stroke-linecap:butt;stroke-linejoin:miter;stroke-opacity:1" d="M 45.0766,229.921 55.3458,227.867 z" id="boundary" inkscape:connector-curvature="0" />
	<path style="fill:none;stroke:red;stroke-width:1px;stroke-linecap:butt;stroke-linejoin:miter;stroke-opacity:1" d="M 35.8344,235.056 45.0766,229.921 z" id="boundary" inkscape:connector-curvature="0" />
	<path style="fill:none;stroke:red;stroke-width:1px;stroke-linecap:butt;stroke-linejoin:miter;stroke-opacity:1" d="M 26.5921,240.19 35.8344,235.056 z" id="boundary" inkscape:connector-curvature="0" />
	<path style="fill:none;stroke:red;stroke-width:1px;stroke-linecap:butt;stroke-linejoin:miter;stroke-opacity:1" d="M 425.035,73.8302 425.035,84.0994 z" id="boundary" inkscape:connector-curvature="0" />
	<path style="fill:none;stroke:red;stroke-width:1px;stroke-linecap:butt;stroke-linejoin:miter;stroke-opacity:1" d="M 425.035,73.8302 430.17,63.5611 z" id="boundary" inkscape:connector-curvature="0" />
	<path style="fill:none;stroke:red;stroke-width:1px;stroke-linecap:butt;stroke-linejoin:miter;stroke-opacity:1" d="M 394.228,122.095 384.986,116.961 z" id="boundary" inkscape:connector-curvature="0" />
	<path style="fill:none;stroke:red;stroke-width:1px;stroke-linecap:butt;stroke-linejoin:miter;stroke-opacity:1" d="M 425.035,104.638 425.035,94.3685 z" id="boundary" inkscape:connector-curvature="0" />
	<path style="fill:none;stroke:red;stroke-width:1px;stroke-linecap:butt;stroke-linejoin:miter;stroke-opacity:1" d="M 425.035,94.3685 425.035,84.0994 z" id="boundary" inkscape:connector-curvature="0" />
	<path style="fill:none;stroke:red;stroke-width:1px;stroke-linecap:butt;stroke-linejoin:miter;stroke-opacity:1" d="M 354.178,116.961 364.447,116.961 z" id="boundary" inkscape:connector-curvature="0" />
	<path style="fill:none;stroke:red;stroke-width:1px;stroke-linecap:butt;stroke-linejoin:miter;stroke-opacity:1" d="M 374.716,116.961 384.986,116.961 z" id="boundary" inkscape:connector-curvature="0" />
	<path style="fill:none;stroke:red;stroke-width:1px;stroke-linecap:butt;stroke-linejoin:miter;stroke-opacity:1" d="M 374.716,116.961 364.447,116.961 z" id="boundary" inkscape:connector-curvature="0" />
	<path style="fill:none;stroke:red;stroke-width:1px;stroke-linecap:butt;stroke-linejoin:miter;stroke-opacity:1" d="M 446.6,47.1304 451.735,36.8613 z" id="boundary" inkscape:connector-curvature="0" />
	<path style="fill:none;stroke:red;stroke-width:1px;stroke-linecap:butt;stroke-linejoin:miter;stroke-opacity:1" d="M 451.735,36.8613 459.95,29.6729 z" id="boundary" inkscape:connector-curvature="0" />
	<path style="fill:none;stroke:red;stroke-width:1px;stroke-linecap:butt;stroke-linejoin:miter;stroke-opacity:1" d="M 459.95,29.6729 469.193,24.5383 z" id="boundary" inkscape:connector-curvature="0" />
	<path style="fill:none;stroke:red;stroke-width:1px;stroke-linecap:butt;stroke-linejoin:miter;stroke-opacity:1" d="M 486.65,12.2153 478.435,19.4037 z" id="boundary" inkscape:connector-curvature="0" />
	<path style="fill:none;stroke:red;stroke-width:1px;stroke-linecap:butt;stroke-linejoin:miter;stroke-opacity:1" d="M 478.435,19.4037 469.193,24.5383 z" id="boundary" inkscape:connector-curvature="0" />
	<path style="fill:none;stroke:red;stroke-width:1px;stroke-linecap:butt;stroke-linejoin:miter;stroke-opacity:1" d="M 438.385,55.3458 446.6,47.1304 z" id="boundary" inkscape:connector-curvature="0" />
	<path style="fill:none;stroke:red;stroke-width:1px;stroke-linecap:butt;stroke-linejoin:miter;stroke-opacity:1" d="M 430.17,63.5611 438.385,55.3458 z" id="boundary" inkscape:connector-curvature="0" />
	<path style="fill:none;stroke:red;stroke-width:1px;stroke-linecap:butt;stroke-linejoin:miter;stroke-opacity:1" d="M 425.035,114.907 425.035,104.638 z" id="boundary" inkscape:connector-curvature="0" />
	<path style="fill:none;stroke:red;stroke-width:1px;stroke-linecap:butt;stroke-linejoin:miter;stroke-opacity:1" d="M 425.035,125.176 425.035,114.907 z" id="boundary" inkscape:connector-curvature="0" />
	<path style="fill:none;stroke:red;stroke-width:1px;stroke-linecap:butt;stroke-linejoin:miter;stroke-opacity:1" d="M 354.178,116.961 343.909,119.014 z" id="boundary" inkscape:connector-curvature="0" />
	<path style="fill:none;stroke:red;stroke-width:1px;stroke-linecap:butt;stroke-linejoin:miter;stroke-opacity:1" d="M 287.429,152.903 278.186,147.768 z" id="boundary" inkscape:connector-curvature="0" />
	<path style="fill:none;stroke:red;stroke-width:1px;stroke-linecap:butt;stroke-linejoin:miter;stroke-opacity:1" d="M 315.155,137.499 306.94,145.714 z" id="boundary" inkscape:connector-curvature="0" />
	<path style="fill:none;stroke:red;stroke-width:1px;stroke-linecap:butt;stroke-linejoin:miter;stroke-opacity:1" d="M 315.155,137.499 323.371,129.284 z" id="boundary" inkscape:connector-curvature="0" />
	<path style="fill:none;stroke:red;stroke-width:1px;stroke-linecap:butt;stroke-linejoin:miter;stroke-opacity:1" d="M 323.371,129.284 333.64,124.149 z" id="boundary" inkscape:connector-curvature="0" />
	<path style="fill:none;stroke:red;stroke-width:1px;stroke-linecap:butt;stroke-linejoin:miter;stroke-opacity:1" d="M 260.729,161.118 268.944,152.903 z" id="boundary" inkscape:connector-curvature="0" />
	<path style="fill:none;stroke:red;stroke-width:1px;stroke-linecap:butt;stroke-linejoin:miter;stroke-opacity:1" d="M 287.429,152.903 297.698,152.903 z" id="boundary" inkscape:connector-curvature="0" />
	<path style="fill:none;stroke:red;stroke-width:1px;stroke-linecap:butt;stroke-linejoin:miter;stroke-opacity:1" d="M 306.94,145.714 297.698,152.903 z" id="boundary" inkscape:connector-curvature="0" />
	<path style="fill:none;stroke:red;stroke-width:1px;stroke-linecap:butt;stroke-linejoin:miter;stroke-opacity:1" d="M 268.944,152.903 278.186,147.768 z" id="boundary" inkscape:connector-curvature="0" />
	<path style="fill:none;stroke:red;stroke-width:1px;stroke-linecap:butt;stroke-linejoin:miter;stroke-opacity:1" d="M 333.64,124.149 343.909,119.014 z" id="boundary" inkscape:connector-curvature="0" />
	<path style="fill:none;stroke:red;stroke-width:1px;stroke-linecap:butt;stroke-linejoin:miter;stroke-opacity:1" d="M 400.389,130.311 405.524,139.553 z" id="boundary" inkscape:connector-curvature="0" />
	<path style="fill:none;stroke:red;stroke-width:1px;stroke-linecap:butt;stroke-linejoin:miter;stroke-opacity:1" d="M 394.228,122.095 400.389,130.311 z" id="boundary" inkscape:connector-curvature="0" />
	<path style="fill:none;stroke:red;stroke-width:1px;stroke-linecap:butt;stroke-linejoin:miter;stroke-opacity:1" d="M 446.6,441.466 411.685,147.768 z" id="boundary" inkscape:connector-curvature="0" />
	<path style="fill:none;stroke:red;stroke-width:1px;stroke-linecap:butt;stroke-linejoin:miter;stroke-opacity:1" d="M 419.901,135.445 411.685,147.768 z" id="boundary" inkscape:connector-curvature="0" />
	<path style="fill:none;stroke:red;stroke-width:1px;stroke-linecap:butt;stroke-linejoin:miter;stroke-opacity:1" d="M 411.685,147.768 405.524,139.553 z" id="boundary" inkscape:connector-curvature="0" />
	<path style="fill:none;stroke:red;stroke-width:1px;stroke-linecap:butt;stroke-linejoin:miter;stroke-opacity:1" d="M 425.035,125.176 419.901,135.445 z" id="boundary" inkscape:connector-curvature="0" />
	<path style="fill:none;stroke:red;stroke-width:1px;stroke-linecap:butt;stroke-linejoin:miter;stroke-opacity:1" d="M 14.2692,333.64 14.2692,343.909 z" id="boundary" inkscape:connector-curvature="0" />
	<path style="fill:none;stroke:red;stroke-width:1px;stroke-linecap:butt;stroke-linejoin:miter;stroke-opacity:1" d="M 14.2692,354.178 14.2692,343.909 z" id="boundary" inkscape:connector-curvature="0" />
	<path style="fill:none;stroke:red;stroke-width:1px;stroke-linecap:butt;stroke-linejoin:miter;stroke-opacity:1" d="M 199.114,467.139 189.872,472.273 z" id="boundary" inkscape:connector-curvature="0" />
	<path style="fill:none;stroke:red;stroke-width:1px;stroke-linecap:butt;stroke-linejoin:miter;stroke-opacity:1" d="M 14.2692,364.447 14.2692,354.178 z" id="boundary" inkscape:connector-curvature="0" />
	<path style="fill:none;stroke:red;stroke-width:1px;stroke-linecap:butt;stroke-linejoin:miter;stroke-opacity:1" d="M 9.13458,387.039 9.13458,397.308 z" id="boundary" inkscape:connector-curvature="0" />
	<path style="fill:none;stroke:red;stroke-width:1px;stroke-linecap:butt;stroke-linejoin:miter;stroke-opacity:1" d="M 9.13458,387.039 14.2692,374.716 z" id="boundary" inkscape:connector-curvature="0" />
	<path style="fill:none;stroke:red;stroke-width:1px;stroke-linecap:butt;stroke-linejoin:miter;stroke-opacity:1" d="M 14.2692,364.447 14.2692,374.716 z" id="boundary" inkscape:connector-curvature="0" />
	<path style="fill:none;stroke:red;stroke-width:1px;stroke-linecap:butt;stroke-linejoin:miter;stroke-opacity:1" d="M 14.2692,416.82 9.13458,407.578 z" id="boundary" inkscape:connector-curvature="0" />
	<path style="fill:none;stroke:red;stroke-width:1px;stroke-linecap:butt;stroke-linejoin:miter;stroke-opacity:1" d="M 9.13458,407.578 9.13458,397.308 z" id="boundary" inkscape:connector-curvature="0" />
	<path style="fill:none;stroke:red;stroke-width:1px;stroke-linecap:butt;stroke-linejoin:miter;stroke-opacity:1" d="M 14.2692,323.371 14.2692,333.64 z" id="boundary" inkscape:connector-curvature="0" />
	<path style="fill:none;stroke:red;stroke-width:1px;stroke-linecap:butt;stroke-linejoin:miter;stroke-opacity:1" d="M 19.4037,426.062 14.2692,416.82 z" id="boundary" inkscape:connector-curvature="0" />
	<path style="fill:none;stroke:red;stroke-width:1px;stroke-linecap:butt;stroke-linejoin:miter;stroke-opacity:1" d="M 19.4037,426.062 19.4037,436.331 z" id="boundary" inkscape:connector-curvature="0" />
	<path style="fill:none;stroke:red;stroke-width:1px;stroke-linecap:butt;stroke-linejoin:miter;stroke-opacity:1" d="M 25.5652,444.547 19.4037,436.331 z" id="boundary" inkscape:connector-curvature="0" />
	<path style="fill:none;stroke:red;stroke-width:1px;stroke-linecap:butt;stroke-linejoin:miter;stroke-opacity:1" d="M 25.5652,444.547 33.7805,451.735 z" id="boundary" inkscape:connector-curvature="0" />
	<path style="fill:none;stroke:red;stroke-width:1px;stroke-linecap:butt;stroke-linejoin:miter;stroke-opacity:1" d="M 43.0228,456.87 51.2381,464.058 z" id="boundary" inkscape:connector-curvature="0" />
	<path style="fill:none;stroke:red;stroke-width:1px;stroke-linecap:butt;stroke-linejoin:miter;stroke-opacity:1" d="M 33.7805,451.735 43.0228,456.87 z" id="boundary" inkscape:connector-curvature="0" />
	<path style="fill:none;stroke:red;stroke-width:1px;stroke-linecap:butt;stroke-linejoin:miter;stroke-opacity:1" d="M 51.2381,464.058 58.4265,472.273 z" id="boundary" inkscape:connector-curvature="0" />
	<path style="fill:none;stroke:red;stroke-width:1px;stroke-linecap:butt;stroke-linejoin:miter;stroke-opacity:1" d="M 58.4265,472.273 66.6418,479.462 z" id="boundary" inkscape:connector-curvature="0" />
	<path style="fill:none;stroke:red;stroke-width:1px;stroke-linecap:butt;stroke-linejoin:miter;stroke-opacity:1" d="M 66.6418,479.462 73.8302,487.677 z" id="boundary" inkscape:connector-curvature="0" />
	<path style="fill:none;stroke:red;stroke-width:1px;stroke-linecap:butt;stroke-linejoin:miter;stroke-opacity:1" d="M 82.0455,494.865 73.8302,487.677 z" id="boundary" inkscape:connector-curvature="0" />
	<path style="fill:none;stroke:red;stroke-width:1px;stroke-linecap:butt;stroke-linejoin:miter;stroke-opacity:1" d="M 101.557,503.081 91.2878,500 z" id="boundary" inkscape:connector-curvature="0" />
	<path style="fill:none;stroke:red;stroke-width:1px;stroke-linecap:butt;stroke-linejoin:miter;stroke-opacity:1" d="M 111.826,503.081 101.557,503.081 z" id="boundary" inkscape:connector-curvature="0" />
	<path style="fill:none;stroke:red;stroke-width:1px;stroke-linecap:butt;stroke-linejoin:miter;stroke-opacity:1" d="M 111.826,503.081 122.095,503.081 z" id="boundary" inkscape:connector-curvature="0" />
	<path style="fill:none;stroke:red;stroke-width:1px;stroke-linecap:butt;stroke-linejoin:miter;stroke-opacity:1" d="M 91.2878,500 82.0455,494.865 z" id="boundary" inkscape:connector-curvature="0" />
	<path style="fill:none;stroke:red;stroke-width:1px;stroke-linecap:butt;stroke-linejoin:miter;stroke-opacity:1" d="M 172.414,497.946 179.602,487.677 z" id="boundary" inkscape:connector-curvature="0" />
	<path style="fill:none;stroke:red;stroke-width:1px;stroke-linecap:butt;stroke-linejoin:miter;stroke-opacity:1" d="M 179.602,487.677 188.845,482.542 z" id="boundary" inkscape:connector-curvature="0" />
	<path style="fill:none;stroke:red;stroke-width:1px;stroke-linecap:butt;stroke-linejoin:miter;stroke-opacity:1" d="M 188.845,482.542 189.872,472.273 z" id="boundary" inkscape:connector-curvature="0" />
	<path style="fill:none;stroke:red;stroke-width:1px;stroke-linecap:butt;stroke-linejoin:miter;stroke-opacity:1" d="M 132.364,503.081 142.634,503.081 z" id="boundary" inkscape:connector-curvature="0" />
	<path style="fill:none;stroke:red;stroke-width:1px;stroke-linecap:butt;stroke-linejoin:miter;stroke-opacity:1" d="M 152.903,503.081 163.172,503.081 z" id="boundary" inkscape:connector-curvature="0" />
	<path style="fill:none;stroke:red;stroke-width:1px;stroke-linecap:butt;stroke-linejoin:miter;stroke-opacity:1" d="M 172.414,497.946 163.172,503.081 z" id="boundary" inkscape:connector-curvature="0" />
	<path style="fill:none;stroke:red;stroke-width:1px;stroke-linecap:butt;stroke-linejoin:miter;stroke-opacity:1" d="M 152.903,503.081 142.634,503.081 z" id="boundary" inkscape:connector-curvature="0" />
	<path style="fill:none;stroke:red;stroke-width:1px;stroke-linecap:butt;stroke-linejoin:miter;stroke-opacity:1" d="M 132.364,503.081 122.095,503.081 z" id="boundary" inkscape:connector-curvature="0" />
	<path style="fill:none;stroke:red;stroke-width:1px;stroke-linecap:butt;stroke-linejoin:miter;stroke-opacity:1" d="M 209.383,467.139 218.625,472.273 z" id="boundary" inkscape:connector-curvature="0" />
	<path style="fill:none;stroke:red;stroke-width:1px;stroke-linecap:butt;stroke-linejoin:miter;stroke-opacity:1" d="M 228.894,472.273 239.164,472.273 z" id="boundary" inkscape:connector-curvature="0" />
	<path style="fill:none;stroke:red;stroke-width:1px;stroke-linecap:butt;stroke-linejoin:miter;stroke-opacity:1" d="M 228.894,472.273 218.625,472.273 z" id="boundary" inkscape:connector-curvature="0" />
	<path style="fill:none;stroke:red;stroke-width:1px;stroke-linecap:butt;stroke-linejoin:miter;stroke-opacity:1" d="M 199.114,467.139 209.383,467.139 z" id="boundary" inkscape:connector-curvature="0" />
	<path style="fill:none;stroke:red;stroke-width:1px;stroke-linecap:butt;stroke-linejoin:miter;stroke-opacity:1" d="M 249.433,472.273 259.702,472.273 z" id="boundary" inkscape:connector-curvature="0" />
	<path style="fill:none;stroke:red;stroke-width:1px;stroke-linecap:butt;stroke-linejoin:miter;stroke-opacity:1" d="M 249.433,472.273 239.164,472.273 z" id="boundary" inkscape:connector-curvature="0" />
	<path style="fill:none;stroke:red;stroke-width:1px;stroke-linecap:butt;stroke-linejoin:miter;stroke-opacity:1" d="M 269.971,472.273 280.24,472.273 z" id="boundary" inkscape:connector-curvature="0" />
	<path style="fill:none;stroke:red;stroke-width:1px;stroke-linecap:butt;stroke-linejoin:miter;stroke-opacity:1" d="M 259.702,472.273 269.971,472.273 z" id="boundary" inkscape:connector-curvature="0" />
	<path style="fill:none;stroke:red;stroke-width:1px;stroke-linecap:butt;stroke-linejoin:miter;stroke-opacity:1" d="M 446.6,441.466 452.762,449.681 z" id="boundary" inkscape:connector-curvature="0" />
	<path style="fill:none;stroke:red;stroke-width:1px;stroke-linecap:butt;stroke-linejoin:miter;stroke-opacity:1" d="M 452.762,449.681 441.466,456.87 z" id="boundary" inkscape:connector-curvature="0" />
	<path style="fill:none;stroke:red;stroke-width:1px;stroke-linecap:butt;stroke-linejoin:miter;stroke-opacity:1" d="M 452.762,449.681 455.843,459.95 z" id="boundary" inkscape:connector-curvature="0" />
	<path style="fill:none;stroke:red;stroke-width:1px;stroke-linecap:butt;stroke-linejoin:miter;stroke-opacity:1" d="M 455.843,459.95 455.843,470.219 z" id="boundary" inkscape:connector-curvature="0" />
	<path style="fill:none;stroke:red;stroke-width:1px;stroke-linecap:butt;stroke-linejoin:miter;stroke-opacity:1" d="M 403.47,472.273 446.6,441.466 z" id="boundary" inkscape:connector-curvature="0" />
	<path style="fill:none;stroke:red;stroke-width:1px;stroke-linecap:butt;stroke-linejoin:miter;stroke-opacity:1" d="M 422.981,467.139 433.251,466.112 z" id="boundary" inkscape:connector-curvature="0" />
	<path style="fill:none;stroke:red;stroke-width:1px;stroke-linecap:butt;stroke-linejoin:miter;stroke-opacity:1" d="M 413.739,472.273 422.981,467.139 z" id="boundary" inkscape:connector-curvature="0" />
	<path style="fill:none;stroke:red;stroke-width:1px;stroke-linecap:butt;stroke-linejoin:miter;stroke-opacity:1" d="M 433.251,466.112 441.466,456.87 z" id="boundary" inkscape:connector-curvature="0" />
	<path style="fill:none;stroke:red;stroke-width:1px;stroke-linecap:butt;stroke-linejoin:miter;stroke-opacity:1" d="M 455.843,470.219 456.87,480.489 z" id="boundary" inkscape:connector-curvature="0" />
	<path style="fill:none;stroke:red;stroke-width:1px;stroke-linecap:butt;stroke-linejoin:miter;stroke-opacity:1" d="M 300.778,472.273 290.509,472.273 z" id="boundary" inkscape:connector-curvature="0" />
	<path style="fill:none;stroke:red;stroke-width:1px;stroke-linecap:butt;stroke-linejoin:miter;stroke-opacity:1" d="M 280.24,472.273 290.509,472.273 z" id="boundary" inkscape:connector-curvature="0" />
	<path style="fill:none;stroke:red;stroke-width:1px;stroke-linecap:butt;stroke-linejoin:miter;stroke-opacity:1" d="M 300.778,472.273 311.048,472.273 z" id="boundary" inkscape:connector-curvature="0" />
	<path style="fill:none;stroke:red;stroke-width:1px;stroke-linecap:butt;stroke-linejoin:miter;stroke-opacity:1" d="M 311.048,472.273 321.317,472.273 z" id="boundary" inkscape:connector-curvature="0" />
	<path style="fill:none;stroke:red;stroke-width:1px;stroke-linecap:butt;stroke-linejoin:miter;stroke-opacity:1" d="M 331.586,472.273 341.855,472.273 z" id="boundary" inkscape:connector-curvature="0" />
	<path style="fill:none;stroke:red;stroke-width:1px;stroke-linecap:butt;stroke-linejoin:miter;stroke-opacity:1" d="M 352.124,472.273 362.393,472.273 z" id="boundary" inkscape:connector-curvature="0" />
	<path style="fill:none;stroke:red;stroke-width:1px;stroke-linecap:butt;stroke-linejoin:miter;stroke-opacity:1" d="M 352.124,472.273 341.855,472.273 z" id="boundary" inkscape:connector-curvature="0" />
	<path style="fill:none;stroke:red;stroke-width:1px;stroke-linecap:butt;stroke-linejoin:miter;stroke-opacity:1" d="M 331.586,472.273 321.317,472.273 z" id="boundary" inkscape:connector-curvature="0" />
	<path style="fill:none;stroke:red;stroke-width:1px;stroke-linecap:butt;stroke-linejoin:miter;stroke-opacity:1" d="M 372.663,472.273 382.932,472.273 z" id="boundary" inkscape:connector-curvature="0" />
	<path style="fill:none;stroke:red;stroke-width:1px;stroke-linecap:butt;stroke-linejoin:miter;stroke-opacity:1" d="M 393.201,472.273 403.47,472.273 z" id="boundary" inkscape:connector-curvature="0" />
	<path style="fill:none;stroke:red;stroke-width:1px;stroke-linecap:butt;stroke-linejoin:miter;stroke-opacity:1" d="M 393.201,472.273 382.932,472.273 z" id="boundary" inkscape:connector-curvature="0" />
	<path style="fill:none;stroke:red;stroke-width:1px;stroke-linecap:butt;stroke-linejoin:miter;stroke-opacity:1" d="M 456.87,480.489 460.977,490.758 z" id="boundary" inkscape:connector-curvature="0" />
	<path style="fill:none;stroke:red;stroke-width:1px;stroke-linecap:butt;stroke-linejoin:miter;stroke-opacity:1" d="M 466.112,500 460.977,490.758 z" id="boundary" inkscape:connector-curvature="0" />
	<path style="fill:none;stroke:red;stroke-width:1px;stroke-linecap:butt;stroke-linejoin:miter;stroke-opacity:1" d="M 466.112,500 472.273,508.215 z" id="boundary" inkscape:connector-curvature="0" />
	<path style="fill:none;stroke:red;stroke-width:1px;stroke-linecap:butt;stroke-linejoin:miter;stroke-opacity:1" d="M 403.47,472.273 413.739,472.273 z" id="boundary" inkscape:connector-curvature="0" />
	<path style="fill:none;stroke:red;stroke-width:1px;stroke-linecap:butt;stroke-linejoin:miter;stroke-opacity:1" d="M 362.393,472.273 372.663,472.273 z" id="boundary" inkscape:connector-curvature="0" />
	<path style="fill:none;stroke:red;stroke-width:1px;stroke-linecap:butt;stroke-linejoin:miter;stroke-opacity:1" d="M 472.273,508.215 481.516,513.35 z" id="boundary" inkscape:connector-curvature="0" />
	<path style="fill:none;stroke:red;stroke-width:1px;stroke-linecap:butt;stroke-linejoin:miter;stroke-opacity:1" d="M 507.188,4 517.458,4 z" id="boundary" inkscape:connector-curvature="0" />
	<path style="fill:none;stroke:red;stroke-width:1px;stroke-linecap:butt;stroke-linejoin:miter;stroke-opacity:1" d="M 496.919,7.08075 507.188,4 z" id="boundary" inkscape:connector-curvature="0" />
	<path style="fill:none;stroke:red;stroke-width:1px;stroke-linecap:butt;stroke-linejoin:miter;stroke-opacity:1" d="M 527.727,4 537.996,4 z" id="boundary" inkscape:connector-curvature="0" />
	<path style="fill:none;stroke:red;stroke-width:1px;stroke-linecap:butt;stroke-linejoin:miter;stroke-opacity:1" d="M 517.458,4 527.727,4 z" id="boundary" inkscape:connector-curvature="0" />
	<path style="fill:none;stroke:red;stroke-width:1px;stroke-linecap:butt;stroke-linejoin:miter;stroke-opacity:1" d="M 548.265,4 558.534,4 z" id="boundary" inkscape:connector-curvature="0" />
	<path style="fill:none;stroke:red;stroke-width:1px;stroke-linecap:butt;stroke-linejoin:miter;stroke-opacity:1" d="M 579.072,4 589.342,4 z" id="boundary" inkscape:connector-curvature="0" />
	<path style="fill:none;stroke:red;stroke-width:1px;stroke-linecap:butt;stroke-linejoin:miter;stroke-opacity:1" d="M 558.534,4 568.803,4 z" id="boundary" inkscape:connector-curvature="0" />
	<path style="fill:none;stroke:red;stroke-width:1px;stroke-linecap:butt;stroke-linejoin:miter;stroke-opacity:1" d="M 537.996,4 548.265,4 z" id="boundary" inkscape:connector-curvature="0" />
	<path style="fill:none;stroke:red;stroke-width:1px;stroke-linecap:butt;stroke-linejoin:miter;stroke-opacity:1" d="M 609.88,4 620.149,4 z" id="boundary" inkscape:connector-curvature="0" />
	<path style="fill:none;stroke:red;stroke-width:1px;stroke-linecap:butt;stroke-linejoin:miter;stroke-opacity:1" d="M 599.611,4 609.88,4 z" id="boundary" inkscape:connector-curvature="0" />
	<path style="fill:none;stroke:red;stroke-width:1px;stroke-linecap:butt;stroke-linejoin:miter;stroke-opacity:1" d="M 630.418,4 640.687,4 z" id="boundary" inkscape:connector-curvature="0" />
	<path style="fill:none;stroke:red;stroke-width:1px;stroke-linecap:butt;stroke-linejoin:miter;stroke-opacity:1" d="M 650.957,4 661.226,4 z" id="boundary" inkscape:connector-curvature="0" />
	<path style="fill:none;stroke:red;stroke-width:1px;stroke-linecap:butt;stroke-linejoin:miter;stroke-opacity:1" d="M 640.687,4 650.957,4 z" id="boundary" inkscape:connector-curvature="0" />
	<path style="fill:none;stroke:red;stroke-width:1px;stroke-linecap:butt;stroke-linejoin:miter;stroke-opacity:1" d="M 620.149,4 630.418,4 z" id="boundary" inkscape:connector-curvature="0" />
	<path style="fill:none;stroke:red;stroke-width:1px;stroke-linecap:butt;stroke-linejoin:miter;stroke-opacity:1" d="M 589.342,4 599.611,4 z" id="boundary" inkscape:connector-curvature="0" />
	<path style="fill:none;stroke:red;stroke-width:1px;stroke-linecap:butt;stroke-linejoin:miter;stroke-opacity:1" d="M 671.495,4 681.764,4 z" id="boundary" inkscape:connector-curvature="0" />
	<path style="fill:none;stroke:red;stroke-width:1px;stroke-linecap:butt;stroke-linejoin:miter;stroke-opacity:1" d="M 692.033,4 702.302,4 z" id="boundary" inkscape:connector-curvature="0" />
	<path style="fill:none;stroke:red;stroke-width:1px;stroke-linecap:butt;stroke-linejoin:miter;stroke-opacity:1" d="M 681.764,4 692.033,4 z" id="boundary" inkscape:connector-curvature="0" />
	<path style="fill:none;stroke:red;stroke-width:1px;stroke-linecap:butt;stroke-linejoin:miter;stroke-opacity:1" d="M 496.919,7.08075 486.65,12.2153 z" id="boundary" inkscape:connector-curvature="0" />
	<path style="fill:none;stroke:red;stroke-width:1px;stroke-linecap:butt;stroke-linejoin:miter;stroke-opacity:1" d="M 568.803,4 579.072,4 z" id="boundary" inkscape:connector-curvature="0" />
	<path style="fill:none;stroke:red;stroke-width:1px;stroke-linecap:butt;stroke-linejoin:miter;stroke-opacity:1" d="M 702.302,4 712.571,4 z" id="boundary" inkscape:connector-curvature="0" />
	<path style="fill:none;stroke:red;stroke-width:1px;stroke-linecap:butt;stroke-linejoin:miter;stroke-opacity:1" d="M 712.571,4 722.841,6.05383 z" id="boundary" inkscape:connector-curvature="0" />
	<path style="fill:none;stroke:red;stroke-width:1px;stroke-linecap:butt;stroke-linejoin:miter;stroke-opacity:1" d="M 661.226,4 671.495,4 z" id="boundary" inkscape:connector-curvature="0" />
	<path style="fill:none;stroke:red;stroke-width:1px;stroke-linecap:butt;stroke-linejoin:miter;stroke-opacity:1" d="M 739.271,19.4037 744.406,28.646 z" id="boundary" inkscape:connector-curvature="0" />
	<path style="fill:none;stroke:red;stroke-width:1px;stroke-linecap:butt;stroke-linejoin:miter;stroke-opacity:1" d="M 739.271,19.4037 732.083,11.1884 z" id="boundary" inkscape:connector-curvature="0" />
	<path style="fill:none;stroke:red;stroke-width:1px;stroke-linecap:butt;stroke-linejoin:miter;stroke-opacity:1" d="M 744.406,28.646 749.54,37.8882 z" id="boundary" inkscape:connector-curvature="0" />
	<path style="fill:none;stroke:red;stroke-width:1px;stroke-linecap:butt;stroke-linejoin:miter;stroke-opacity:1" d="M 756.729,46.1035 749.54,37.8882 z" id="boundary" inkscape:connector-curvature="0" />
	<path style="fill:none;stroke:red;stroke-width:1px;stroke-linecap:butt;stroke-linejoin:miter;stroke-opacity:1" d="M 722.841,6.05383 732.083,11.1884 z" id="boundary" inkscape:connector-curvature="0" />
	<path style="fill:none;stroke:red;stroke-width:1px;stroke-linecap:butt;stroke-linejoin:miter;stroke-opacity:1" d="M 756.729,46.1035 764.944,53.2919 z" id="boundary" inkscape:connector-curvature="0" />
	<path style="fill:none;stroke:red;stroke-width:1px;stroke-linecap:butt;stroke-linejoin:miter;stroke-opacity:1" d="M 764.944,53.2919 770.079,62.5342 z" id="boundary" inkscape:connector-curvature="0" />
	<path style="fill:none;stroke:red;stroke-width:1px;stroke-linecap:butt;stroke-linejoin:miter;stroke-opacity:1" d="M 775.213,71.7764 770.079,62.5342 z" id="boundary" inkscape:connector-curvature="0" />
	<path style="fill:none;stroke:red;stroke-width:1px;stroke-linecap:butt;stroke-linejoin:miter;stroke-opacity:1" d="M 775.213,71.7764 775.213,82.0455 z" id="boundary" inkscape:connector-curvature="0" />
	<path style="fill:none;stroke:red;stroke-width:1px;stroke-linecap:butt;stroke-linejoin:miter;stroke-opacity:1" d="M 775.213,82.0455 775.213,92.3147 z" id="boundary" inkscape:connector-curvature="0" />
	<path style="fill:none;stroke:red;stroke-width:1px;stroke-linecap:butt;stroke-linejoin:miter;stroke-opacity:1" d="M 775.213,102.584 775.213,92.3147 z" id="boundary" inkscape:connector-curvature="0" />
	<path style="fill:none;stroke:red;stroke-width:1px;stroke-linecap:butt;stroke-linejoin:miter;stroke-opacity:1" d="M 775.213,102.584 775.213,112.853 z" id="boundary" inkscape:connector-curvature="0" />
	<path style="fill:none;stroke:red;stroke-width:1px;stroke-linecap:butt;stroke-linejoin:miter;stroke-opacity:1" d="M 775.213,123.122 780.348,132.364 z" id="boundary" inkscape:connector-curvature="0" />
	<path style="fill:none;stroke:red;stroke-width:1px;stroke-linecap:butt;stroke-linejoin:miter;stroke-opacity:1" d="M 775.213,123.122 775.213,112.853 z" id="boundary" inkscape:connector-curvature="0" />
	<path style="fill:none;stroke:red;stroke-width:1px;stroke-linecap:butt;stroke-linejoin:miter;stroke-opacity:1" d="M 780.348,132.364 785.482,141.607 z" id="boundary" inkscape:connector-curvature="0" />
	<path style="fill:none;stroke:red;stroke-width:1px;stroke-linecap:butt;stroke-linejoin:miter;stroke-opacity:1" d="M 793.698,148.795 785.482,141.607 z" id="boundary" inkscape:connector-curvature="0" />
	<path style="fill:none;stroke:red;stroke-width:1px;stroke-linecap:butt;stroke-linejoin:miter;stroke-opacity:1" d="M 802.94,153.93 793.698,148.795 z" id="boundary" inkscape:connector-curvature="0" />
	<path style="fill:none;stroke:red;stroke-width:1px;stroke-linecap:butt;stroke-linejoin:miter;stroke-opacity:1" d="M 802.94,153.93 811.155,161.118 z" id="boundary" inkscape:connector-curvature="0" />
	<path style="fill:none;stroke:red;stroke-width:1px;stroke-linecap:butt;stroke-linejoin:miter;stroke-opacity:1" d="M 828.613,173.441 819.371,168.306 z" id="boundary" inkscape:connector-curvature="0" />
	<path style="fill:none;stroke:red;stroke-width:1px;stroke-linecap:butt;stroke-linejoin:miter;stroke-opacity:1" d="M 819.371,168.306 811.155,161.118 z" id="boundary" inkscape:connector-curvature="0" />
	<path style="fill:none;stroke:red;stroke-width:1px;stroke-linecap:butt;stroke-linejoin:miter;stroke-opacity:1" d="M 828.613,173.441 837.855,178.576 z" id="boundary" inkscape:connector-curvature="0" />
	<path style="fill:none;stroke:red;stroke-width:1px;stroke-linecap:butt;stroke-linejoin:miter;stroke-opacity:1" d="M 847.097,183.71 837.855,178.576 z" id="boundary" inkscape:connector-curvature="0" />
	<path style="fill:none;stroke:red;stroke-width:1px;stroke-linecap:butt;stroke-linejoin:miter;stroke-opacity:1" d="M 857.366,183.71 847.097,183.71 z" id="boundary" inkscape:connector-curvature="0" />
	<path style="fill:none;stroke:red;stroke-width:1px;stroke-linecap:butt;stroke-linejoin:miter;stroke-opacity:1" d="M 857.366,183.71 867.636,183.71 z" id="boundary" inkscape:connector-curvature="0" />
	<path style="fill:none;stroke:red;stroke-width:1px;stroke-linecap:butt;stroke-linejoin:miter;stroke-opacity:1" d="M 877.905,183.71 867.636,183.71 z" id="boundary" inkscape:connector-curvature="0" />
	<path style="fill:none;stroke:red;stroke-width:1px;stroke-linecap:butt;stroke-linejoin:miter;stroke-opacity:1" d="M 877.905,183.71 888.174,183.71 z" id="boundary" inkscape:connector-curvature="0" />
	<path style="fill:none;stroke:red;stroke-width:1px;stroke-linecap:butt;stroke-linejoin:miter;stroke-opacity:1" d="M 898.443,183.71 908.712,183.71 z" id="boundary" inkscape:connector-curvature="0" />
	<path style="fill:none;stroke:red;stroke-width:1px;stroke-linecap:butt;stroke-linejoin:miter;stroke-opacity:1" d="M 898.443,183.71 888.174,183.71 z" id="boundary" inkscape:connector-curvature="0" />
	<path style="fill:none;stroke:red;stroke-width:1px;stroke-linecap:butt;stroke-linejoin:miter;stroke-opacity:1" d="M 918.981,183.71 929.251,183.71 z" id="boundary" inkscape:connector-curvature="0" />
	<path style="fill:none;stroke:red;stroke-width:1px;stroke-linecap:butt;stroke-linejoin:miter;stroke-opacity:1" d="M 918.981,183.71 908.712,183.71 z" id="boundary" inkscape:connector-curvature="0" />
	<path style="fill:none;stroke:red;stroke-width:1px;stroke-linecap:butt;stroke-linejoin:miter;stroke-opacity:1" d="M 939.52,183.71 949.789,183.71 z" id="boundary" inkscape:connector-curvature="0" />
	<path style="fill:none;stroke:red;stroke-width:1px;stroke-linecap:butt;stroke-linejoin:miter;stroke-opacity:1" d="M 939.52,183.71 929.251,183.71 z" id="boundary" inkscape:connector-curvature="0" />
	<path style="fill:none;stroke:red;stroke-width:1px;stroke-linecap:butt;stroke-linejoin:miter;stroke-opacity:1" d="M 960.058,183.71 970.327,183.71 z" id="boundary" inkscape:connector-curvature="0" />
	<path style="fill:none;stroke:red;stroke-width:1px;stroke-linecap:butt;stroke-linejoin:miter;stroke-opacity:1" d="M 960.058,183.71 949.789,183.71 z" id="boundary" inkscape:connector-curvature="0" />
	<path style="fill:none;stroke:red;stroke-width:1px;stroke-linecap:butt;stroke-linejoin:miter;stroke-opacity:1" d="M 980.596,183.71 988.812,189.872 z" id="boundary" inkscape:connector-curvature="0" />
	<path style="fill:none;stroke:red;stroke-width:1px;stroke-linecap:butt;stroke-linejoin:miter;stroke-opacity:1" d="M 970.327,183.71 980.596,183.71 z" id="boundary" inkscape:connector-curvature="0" />
	<path style="fill:none;stroke:red;stroke-width:1px;stroke-linecap:butt;stroke-linejoin:miter;stroke-opacity:1" d="M 996,198.087 996,208.356 z" id="boundary" inkscape:connector-curvature="0" />
	<path style="fill:none;stroke:red;stroke-width:1px;stroke-linecap:butt;stroke-linejoin:miter;stroke-opacity:1" d="M 988.812,189.872 996,198.087 z" id="boundary" inkscape:connector-curvature="0" />
	<path style="fill:none;stroke:red;stroke-width:1px;stroke-linecap:butt;stroke-linejoin:miter;stroke-opacity:1" d="M 996,208.356 996,218.625 z" id="boundary" inkscape:connector-curvature="0" />
	<path style="fill:none;stroke:red;stroke-width:1px;stroke-linecap:butt;stroke-linejoin:miter;stroke-opacity:1" d="M 996,218.625 996,228.894 z" id="boundary" inkscape:connector-curvature="0" />
	<path style="fill:none;stroke:red;stroke-width:1px;stroke-linecap:butt;stroke-linejoin:miter;stroke-opacity:1" d="M 996,228.894 990.865,241.217 z" id="boundary" inkscape:connector-curvature="0" />
	<path style="fill:none;stroke:red;stroke-width:1px;stroke-linecap:butt;stroke-linejoin:miter;stroke-opacity:1" d="M 609.88,441.466 620.149,441.466 z" id="boundary" inkscape:connector-curvature="0" />
	<path style="fill:none;stroke:red;stroke-width:1px;stroke-linecap:butt;stroke-linejoin:miter;stroke-opacity:1" d="M 603.718,449.681 609.88,441.466 z" id="boundary" inkscape:connector-curvature="0" />
	<path style="fill:none;stroke:red;stroke-width:1px;stroke-linecap:butt;stroke-linejoin:miter;stroke-opacity:1" d="M 630.418,441.466 640.687,441.466 z" id="boundary" inkscape:connector-curvature="0" />
	<path style="fill:none;stroke:red;stroke-width:1px;stroke-linecap:butt;stroke-linejoin:miter;stroke-opacity:1" d="M 630.418,441.466 620.149,441.466 z" id="boundary" inkscape:connector-curvature="0" />
	<path style="fill:none;stroke:red;stroke-width:1px;stroke-linecap:butt;stroke-linejoin:miter;stroke-opacity:1" d="M 650.957,441.466 661.226,441.466 z" id="boundary" inkscape:connector-curvature="0" />
	<path style="fill:none;stroke:red;stroke-width:1px;stroke-linecap:butt;stroke-linejoin:miter;stroke-opacity:1" d="M 671.495,441.466 681.764,441.466 z" id="boundary" inkscape:connector-curvature="0" />
	<path style="fill:none;stroke:red;stroke-width:1px;stroke-linecap:butt;stroke-linejoin:miter;stroke-opacity:1" d="M 671.495,441.466 661.226,441.466 z" id="boundary" inkscape:connector-curvature="0" />
	<path style="fill:none;stroke:red;stroke-width:1px;stroke-linecap:butt;stroke-linejoin:miter;stroke-opacity:1" d="M 650.957,441.466 640.687,441.466 z" id="boundary" inkscape:connector-curvature="0" />
	<path style="fill:none;stroke:red;stroke-width:1px;stroke-linecap:butt;stroke-linejoin:miter;stroke-opacity:1" d="M 692.033,441.466 702.302,441.466 z" id="boundary" inkscape:connector-curvature="0" />
	<path style="fill:none;stroke:red;stroke-width:1px;stroke-linecap:butt;stroke-linejoin:miter;stroke-opacity:1" d="M 712.571,441.466 722.841,441.466 z" id="boundary" inkscape:connector-curvature="0" />
	<path style="fill:none;stroke:red;stroke-width:1px;stroke-linecap:butt;stroke-linejoin:miter;stroke-opacity:1" d="M 712.571,441.466 702.302,441.466 z" id="boundary" inkscape:connector-curvature="0" />
	<path style="fill:none;stroke:red;stroke-width:1px;stroke-linecap:butt;stroke-linejoin:miter;stroke-opacity:1" d="M 743.379,441.466 733.11,441.466 z" id="boundary" inkscape:connector-curvature="0" />
	<path style="fill:none;stroke:red;stroke-width:1px;stroke-linecap:butt;stroke-linejoin:miter;stroke-opacity:1" d="M 743.379,441.466 753.648,441.466 z" id="boundary" inkscape:connector-curvature="0" />
	<path style="fill:none;stroke:red;stroke-width:1px;stroke-linecap:butt;stroke-linejoin:miter;stroke-opacity:1" d="M 763.917,441.466 753.648,441.466 z" id="boundary" inkscape:connector-curvature="0" />
	<path style="fill:none;stroke:red;stroke-width:1px;stroke-linecap:butt;stroke-linejoin:miter;stroke-opacity:1" d="M 733.11,441.466 722.841,441.466 z" id="boundary" inkscape:connector-curvature="0" />
	<path style="fill:none;stroke:red;stroke-width:1px;stroke-linecap:butt;stroke-linejoin:miter;stroke-opacity:1" d="M 692.033,441.466 681.764,441.466 z" id="boundary" inkscape:connector-curvature="0" />
	<path style="fill:none;stroke:red;stroke-width:1px;stroke-linecap:butt;stroke-linejoin:miter;stroke-opacity:1" d="M 481.516,513.35 491.785,513.35 z" id="boundary" inkscape:connector-curvature="0" />
	<path style="fill:none;stroke:red;stroke-width:1px;stroke-linecap:butt;stroke-linejoin:miter;stroke-opacity:1" d="M 491.785,513.35 501.027,518.484 z" id="boundary" inkscape:connector-curvature="0" />
	<path style="fill:none;stroke:red;stroke-width:1px;stroke-linecap:butt;stroke-linejoin:miter;stroke-opacity:1" d="M 542.104,513.35 551.346,508.215 z" id="boundary" inkscape:connector-curvature="0" />
	<path style="fill:none;stroke:red;stroke-width:1px;stroke-linecap:butt;stroke-linejoin:miter;stroke-opacity:1" d="M 542.104,513.35 531.834,516.431 z" id="boundary" inkscape:connector-curvature="0" />
	<path style="fill:none;stroke:red;stroke-width:1px;stroke-linecap:butt;stroke-linejoin:miter;stroke-opacity:1" d="M 511.296,518.484 501.027,518.484 z" id="boundary" inkscape:connector-curvature="0" />
	<path style="fill:none;stroke:red;stroke-width:1px;stroke-linecap:butt;stroke-linejoin:miter;stroke-opacity:1" d="M 521.565,518.484 531.834,516.431 z" id="boundary" inkscape:connector-curvature="0" />
	<path style="fill:none;stroke:red;stroke-width:1px;stroke-linecap:butt;stroke-linejoin:miter;stroke-opacity:1" d="M 521.565,518.484 511.296,518.484 z" id="boundary" inkscape:connector-curvature="0" />
	<path style="fill:none;stroke:red;stroke-width:1px;stroke-linecap:butt;stroke-linejoin:miter;stroke-opacity:1" d="M 593.449,470.219 598.584,459.95 z" id="boundary" inkscape:connector-curvature="0" />
	<path style="fill:none;stroke:red;stroke-width:1px;stroke-linecap:butt;stroke-linejoin:miter;stroke-opacity:1" d="M 593.449,470.219 585.234,477.408 z" id="boundary" inkscape:connector-curvature="0" />
	<path style="fill:none;stroke:red;stroke-width:1px;stroke-linecap:butt;stroke-linejoin:miter;stroke-opacity:1" d="M 598.584,459.95 603.718,449.681 z" id="boundary" inkscape:connector-curvature="0" />
	<path style="fill:none;stroke:red;stroke-width:1px;stroke-linecap:butt;stroke-linejoin:miter;stroke-opacity:1" d="M 560.588,503.081 569.83,497.946 z" id="boundary" inkscape:connector-curvature="0" />
	<path style="fill:none;stroke:red;stroke-width:1px;stroke-linecap:butt;stroke-linejoin:miter;stroke-opacity:1" d="M 578.046,490.758 585.234,477.408 z" id="boundary" inkscape:connector-curvature="0" />
	<path style="fill:none;stroke:red;stroke-width:1px;stroke-linecap:butt;stroke-linejoin:miter;stroke-opacity:1" d="M 578.046,490.758 569.83,497.946 z" id="boundary" inkscape:connector-curvature="0" />
	<path style="fill:none;stroke:red;stroke-width:1px;stroke-linecap:butt;stroke-linejoin:miter;stroke-opacity:1" d="M 560.588,503.081 551.346,508.215 z" id="boundary" inkscape:connector-curvature="0" />
	<path style="fill:none;stroke:red;stroke-width:1px;stroke-linecap:butt;stroke-linejoin:miter;stroke-opacity:1" d="M 763.917,441.466 774.186,441.466 z" id="boundary" inkscape:connector-curvature="0" />
	<path style="fill:none;stroke:red;stroke-width:1px;stroke-linecap:butt;stroke-linejoin:miter;stroke-opacity:1" d="M 953.896,361.366 964.166,356.232 z" id="boundary" inkscape:connector-curvature="0" />
	<path style="fill:none;stroke:red;stroke-width:1px;stroke-linecap:butt;stroke-linejoin:miter;stroke-opacity:1" d="M 969.3,345.963 964.166,356.232 z" id="boundary" inkscape:connector-curvature="0" />
	<path style="fill:none;stroke:red;stroke-width:1px;stroke-linecap:butt;stroke-linejoin:miter;stroke-opacity:1" d="M 975.462,323.371 974.435,335.694 z" id="boundary" inkscape:connector-curvature="0" />
	<path style="fill:none;stroke:red;stroke-width:1px;stroke-linecap:butt;stroke-linejoin:miter;stroke-opacity:1" d="M 974.435,335.694 969.3,345.963 z" id="boundary" inkscape:connector-curvature="0" />
	<path style="fill:none;stroke:red;stroke-width:1px;stroke-linecap:butt;stroke-linejoin:miter;stroke-opacity:1" d="M 953.896,361.366 943.627,364.447 z" id="boundary" inkscape:connector-curvature="0" />
	<path style="fill:none;stroke:red;stroke-width:1px;stroke-linecap:butt;stroke-linejoin:miter;stroke-opacity:1" d="M 934.385,369.582 934.385,379.851 z" id="boundary" inkscape:connector-curvature="0" />
	<path style="fill:none;stroke:red;stroke-width:1px;stroke-linecap:butt;stroke-linejoin:miter;stroke-opacity:1" d="M 934.385,369.582 943.627,364.447 z" id="boundary" inkscape:connector-curvature="0" />
	<path style="fill:none;stroke:red;stroke-width:1px;stroke-linecap:butt;stroke-linejoin:miter;stroke-opacity:1" d="M 934.385,390.12 934.385,379.851 z" id="boundary" inkscape:connector-curvature="0" />
	<path style="fill:none;stroke:red;stroke-width:1px;stroke-linecap:butt;stroke-linejoin:miter;stroke-opacity:1" d="M 934.385,390.12 929.251,405.524 z" id="boundary" inkscape:connector-curvature="0" />
	<path style="fill:none;stroke:red;stroke-width:1px;stroke-linecap:butt;stroke-linejoin:miter;stroke-opacity:1" d="M 985.731,272.025 985.731,261.756 z" id="boundary" inkscape:connector-curvature="0" />
	<path style="fill:none;stroke:red;stroke-width:1px;stroke-linecap:butt;stroke-linejoin:miter;stroke-opacity:1" d="M 985.731,261.756 990.865,251.487 z" id="boundary" inkscape:connector-curvature="0" />
	<path style="fill:none;stroke:red;stroke-width:1px;stroke-linecap:butt;stroke-linejoin:miter;stroke-opacity:1" d="M 990.865,241.217 990.865,251.487 z" id="boundary" inkscape:connector-curvature="0" />
	<path style="fill:none;stroke:red;stroke-width:1px;stroke-linecap:butt;stroke-linejoin:miter;stroke-opacity:1" d="M 985.731,282.294 985.731,272.025 z" id="boundary" inkscape:connector-curvature="0" />
	<path style="fill:none;stroke:red;stroke-width:1px;stroke-linecap:butt;stroke-linejoin:miter;stroke-opacity:1" d="M 980.596,297.698 980.596,307.967 z" id="boundary" inkscape:connector-curvature="0" />
	<path style="fill:none;stroke:red;stroke-width:1px;stroke-linecap:butt;stroke-linejoin:miter;stroke-opacity:1" d="M 980.596,307.967 975.462,323.371 z" id="boundary" inkscape:connector-curvature="0" />
	<path style="fill:none;stroke:red;stroke-width:1px;stroke-linecap:butt;stroke-linejoin:miter;stroke-opacity:1" d="M 980.596,297.698 985.731,282.294 z" id="boundary" inkscape:connector-curvature="0" />
	<path style="fill:none;stroke:red;stroke-width:1px;stroke-linecap:butt;stroke-linejoin:miter;stroke-opacity:1" d="M 784.455,441.466 774.186,441.466 z" id="boundary" inkscape:connector-curvature="0" />
	<path style="fill:none;stroke:red;stroke-width:1px;stroke-linecap:butt;stroke-linejoin:miter;stroke-opacity:1" d="M 784.455,441.466 794.725,441.466 z" id="boundary" inkscape:connector-curvature="0" />
	<path style="fill:none;stroke:red;stroke-width:1px;stroke-linecap:butt;stroke-linejoin:miter;stroke-opacity:1" d="M 794.725,441.466 803.967,446.6 z" id="boundary" inkscape:connector-curvature="0" />
	<path style="fill:none;stroke:red;stroke-width:1px;stroke-linecap:butt;stroke-linejoin:miter;stroke-opacity:1" d="M 803.967,446.6 813.209,451.735 z" id="boundary" inkscape:connector-curvature="0" />
	<path style="fill:none;stroke:red;stroke-width:1px;stroke-linecap:butt;stroke-linejoin:miter;stroke-opacity:1" d="M 813.209,451.735 823.478,455.843 z" id="boundary" inkscape:connector-curvature="0" />
	<path style="fill:none;stroke:red;stroke-width:1px;stroke-linecap:butt;stroke-linejoin:miter;stroke-opacity:1" d="M 823.478,455.843 833.747,456.87 z" id="boundary" inkscape:connector-curvature="0" />
	<path style="fill:none;stroke:red;stroke-width:1px;stroke-linecap:butt;stroke-linejoin:miter;stroke-opacity:1" d="M 844.017,456.87 854.286,456.87 z" id="boundary" inkscape:connector-curvature="0" />
	<path style="fill:none;stroke:red;stroke-width:1px;stroke-linecap:butt;stroke-linejoin:miter;stroke-opacity:1" d="M 844.017,456.87 833.747,456.87 z" id="boundary" inkscape:connector-curvature="0" />
	<path style="fill:none;stroke:red;stroke-width:1px;stroke-linecap:butt;stroke-linejoin:miter;stroke-opacity:1" d="M 913.847,436.331 922.062,429.143 z" id="boundary" inkscape:connector-curvature="0" />
	<path style="fill:none;stroke:red;stroke-width:1px;stroke-linecap:butt;stroke-linejoin:miter;stroke-opacity:1" d="M 905.631,450.708 913.847,436.331 z" id="boundary" inkscape:connector-curvature="0" />
	<path style="fill:none;stroke:red;stroke-width:1px;stroke-linecap:butt;stroke-linejoin:miter;stroke-opacity:1" d="M 927.197,418.874 922.062,429.143 z" id="boundary" inkscape:connector-curvature="0" />
	<path style="fill:none;stroke:red;stroke-width:1px;stroke-linecap:butt;stroke-linejoin:miter;stroke-opacity:1" d="M 927.197,418.874 929.251,405.524 z" id="boundary" inkscape:connector-curvature="0" />
	<path style="fill:none;stroke:red;stroke-width:1px;stroke-linecap:butt;stroke-linejoin:miter;stroke-opacity:1" d="M 864.555,456.87 874.824,456.87 z" id="boundary" inkscape:connector-curvature="0" />
	<path style="fill:none;stroke:red;stroke-width:1px;stroke-linecap:butt;stroke-linejoin:miter;stroke-opacity:1" d="M 895.362,455.843 885.093,456.87 z" id="boundary" inkscape:connector-curvature="0" />
	<path style="fill:none;stroke:red;stroke-width:1px;stroke-linecap:butt;stroke-linejoin:miter;stroke-opacity:1" d="M 885.093,456.87 874.824,456.87 z" id="boundary" inkscape:connector-curvature="0" />
	<path style="fill:none;stroke:red;stroke-width:1px;stroke-linecap:butt;stroke-linejoin:miter;stroke-opacity:1" d="M 905.631,450.708 895.362,455.843 z" id="boundary" inkscape:connector-curvature="0" />
	<path style="fill:none;stroke:red;stroke-width:1px;stroke-linecap:butt;stroke-linejoin:miter;stroke-opacity:1" d="M 864.555,456.87 854.286,456.87 z" id="boundary" inkscape:connector-curvature="0" />
	<circle cx="4" cy="263.81" r="4" fill="#0" id="circle0"/>
	<circle cx="4" cy="274.079" r="4" fill="#0" id="circle1"/>
	<circle cx="4" cy="284.348" r="4" fill="#0" id="circle2"/>
	<circle cx="4" cy="294.617" r="4" fill="#0" id="circle3"/>
	<circle cx="4" cy="304.886" r="4" fill="#0" id="circle4"/>
	<circle cx="9.13458" cy="253.54" r="4" fill="#0" id="circle5"/>
	<circle cx="9.13458" cy="314.128" r="4" fill="#0" id="circle6"/>
	<circle cx="9.13458" cy="387.039" r="4" fill="#0" id="circle7"/>
	<circle cx="9.13458" cy="397.308" r="4" fill="#0" id="circle8"/>
	<circle cx="9.13458" cy="407.578" r="4" fill="#0" id="circle9"/>
	<circle cx="14.2692" cy="323.371" r="4" fill="#0" id="circle10"/>
	<circle cx="14.2692" cy="333.64" r="4" fill="#0" id="circle11"/>
	<circle cx="14.2692" cy="343.909" r="4" fill="#0" id="circle12"/>
	<circle cx="14.2692" cy="354.178" r="4" fill="#0" id="circle13"/>
	<circle cx="14.2692" cy="364.447" r="4" fill="#0" id="circle14"/>
	<circle cx="14.2692" cy="374.716" r="4" fill="#0" id="circle15"/>
	<circle cx="14.2692" cy="416.82" r="4" fill="#0" id="circle16"/>
	<circle cx="17.3499" cy="245.325" r="4" fill="#0" id="circle17"/>
	<circle cx="19.4037" cy="426.062" r="4" fill="#0" id="circle18"/>
	<circle cx="19.4037" cy="436.331" r="4" fill="#0" id="circle19"/>
	<circle cx="25.5652" cy="444.547" r="4" fill="#0" id="circle20"/>
	<circle cx="26.5921" cy="240.19" r="4" fill="#0" id="circle21"/>
	<circle cx="33.7805" cy="451.735" r="4" fill="#0" id="circle22"/>
	<circle cx="35.8344" cy="235.056" r="4" fill="#0" id="circle23"/>
	<circle cx="43.0228" cy="456.87" r="4" fill="#0" id="circle24"/>
	<circle cx="45.0766" cy="229.921" r="4" fill="#0" id="circle25"/>
	<circle cx="51.2381" cy="464.058" r="4" fill="#0" id="circle26"/>
	<circle cx="55.3458" cy="227.867" r="4" fill="#0" id="circle27"/>
	<circle cx="58.4265" cy="472.273" r="4" fill="#0" id="circle28"/>
	<circle cx="65.6149" cy="222.733" r="4" fill="#0" id="circle29"/>
	<circle cx="66.6418" cy="479.462" r="4" fill="#0" id="circle30"/>
	<circle cx="73.8302" cy="487.677" r="4" fill="#0" id="circle31"/>
	<circle cx="75.8841" cy="219.652" r="4" fill="#0" id="circle32"/>
	<circle cx="82.0455" cy="494.865" r="4" fill="#0" id="circle33"/>
	<circle cx="85.1263" cy="214.518" r="4" fill="#0" id="circle34"/>
	<circle cx="91.2878" cy="500" r="4" fill="#0" id="circle35"/>
	<circle cx="94.3685" cy="209.383" r="4" fill="#0" id="circle36"/>
	<circle cx="101.557" cy="503.081" r="4" fill="#0" id="circle37"/>
	<circle cx="104.638" cy="204.248" r="4" fill="#0" id="circle38"/>
	<circle cx="111.826" cy="503.081" r="4" fill="#0" id="circle39"/>
	<circle cx="114.907" cy="199.114" r="4" fill="#0" id="circle40"/>
	<circle cx="122.095" cy="503.081" r="4" fill="#0" id="circle41"/>
	<circle cx="125.176" cy="193.979" r="4" fill="#0" id="circle42"/>
	<circle cx="132.364" cy="503.081" r="4" fill="#0" id="circle43"/>
	<circle cx="135.445" cy="188.845" r="4" fill="#0" id="circle44"/>
	<circle cx="142.634" cy="503.081" r="4" fill="#0" id="circle45"/>
	<circle cx="145.714" cy="188.845" r="4" fill="#0" id="circle46"/>
	<circle cx="152.903" cy="503.081" r="4" fill="#0" id="circle47"/>
	<circle cx="154.957" cy="183.71" r="4" fill="#0" id="circle48"/>
	<circle cx="163.172" cy="503.081" r="4" fill="#0" id="circle49"/>
	<circle cx="164.199" cy="178.576" r="4" fill="#0" id="circle50"/>
	<circle cx="172.414" cy="497.946" r="4" fill="#0" id="circle51"/>
	<circle cx="173.441" cy="173.441" r="4" fill="#0" id="circle52"/>
	<circle cx="179.602" cy="487.677" r="4" fill="#0" id="circle53"/>
	<circle cx="183.71" cy="173.441" r="4" fill="#0" id="circle54"/>
	<circle cx="188.845" cy="482.542" r="4" fill="#0" id="circle55"/>
	<circle cx="189.872" cy="472.273" r="4" fill="#0" id="circle56"/>
	<circle cx="193.979" cy="173.441" r="4" fill="#0" id="circle57"/>
	<circle cx="199.114" cy="467.139" r="4" fill="#0" id="circle58"/>
	<circle cx="204.248" cy="173.441" r="4" fill="#0" id="circle59"/>
	<circle cx="209.383" cy="467.139" r="4" fill="#0" id="circle60"/>
	<circle cx="214.518" cy="173.441" r="4" fill="#0" id="circle61"/>
	<circle cx="218.625" cy="472.273" r="4" fill="#0" id="circle62"/>
	<circle cx="224.787" cy="173.441" r="4" fill="#0" id="circle63"/>
	<circle cx="228.894" cy="472.273" r="4" fill="#0" id="circle64"/>
	<circle cx="235.056" cy="173.441" r="4" fill="#0" id="circle65"/>
	<circle cx="239.164" cy="472.273" r="4" fill="#0" id="circle66"/>
	<circle cx="245.325" cy="173.441" r="4" fill="#0" id="circle67"/>
	<circle cx="249.433" cy="472.273" r="4" fill="#0" id="circle68"/>
	<circle cx="255.594" cy="173.441" r="4" fill="#0" id="circle69"/>
	<circle cx="259.702" cy="472.273" r="4" fill="#0" id="circle70"/>
	<circle cx="260.729" cy="161.118" r="4" fill="#0" id="circle71"/>
	<circle cx="268.944" cy="152.903" r="4" fill="#0" id="circle72"/>
	<circle cx="269.971" cy="472.273" r="4" fill="#0" id="circle73"/>
	<circle cx="278.186" cy="147.768" r="4" fill="#0" id="circle74"/>
	<circle cx="280.24" cy="472.273" r="4" fill="#0" id="circle75"/>
	<circle cx="287.429" cy="152.903" r="4" fill="#0" id="circle76"/>
	<circle cx="290.509" cy="472.273" r="4" fill="#0" id="circle77"/>
	<circle cx="297.698" cy="152.903" r="4" fill="#0" id="circle78"/>
	<circle cx="300.778" cy="472.273" r="4" fill="#0" id="circle79"/>
	<circle cx="306.94" cy="145.714" r="4" fill="#0" id="circle80"/>
	<circle cx="311.048" cy="472.273" r="4" fill="#0" id="circle81"/>
	<circle cx="315.155" cy="137.499" r="4" fill="#0" id="circle82"/>
	<circle cx="321.317" cy="472.273" r="4" fill="#0" id="circle83"/>
	<circle cx="323.371" cy="129.284" r="4" fill="#0" id="circle84"/>
	<circle cx="331.586" cy="472.273" r="4" fill="#0" id="circle85"/>
	<circle cx="333.64" cy="124.149" r="4" fill="#0" id="circle86"/>
	<circle cx="341.855" cy="472.273" r="4" fill="#0" id="circle87"/>
	<circle cx="343.909" cy="119.014" r="4" fill="#0" id="circle88"/>
	<circle cx="352.124" cy="472.273" r="4" fill="#0" id="circle89"/>
	<circle cx="354.178" cy="116.961" r="4" fill="#0" id="circle90"/>
	<circle cx="362.393" cy="472.273" r="4" fill="#0" id="circle91"/>
	<circle cx="364.447" cy="116.961" r="4" fill="#0" id="circle92"/>
	<circle cx="372.663" cy="472.273" r="4" fill="#0" id="circle93"/>
	<circle cx="374.716" cy="116.961" r="4" fill="#0" id="circle94"/>
	<circle cx="382.932" cy="472.273" r="4" fill="#0" id="circle95"/>
	<circle cx="384.986" cy="116.961" r="4" fill="#0" id="circle96"/>
	<circle cx="393.201" cy="472.273" r="4" fill="#0" id="circle97"/>
	<circle cx="394.228" cy="122.095" r="4" fill="#0" id="circle98"/>
	<circle cx="400.389" cy="130.311" r="4" fill="#0" id="circle99"/>
	<circle cx="403.47" cy="472.273" r="4" fill="#0" id="circle100"/>
	<circle cx="405.524" cy="139.553" r="4" fill="#0" id="circle101"/>
	<circle cx="411.685" cy="147.768" r="4" fill="#0" id="circle102"/>
	<circle cx="413.739" cy="472.273" r="4" fill="#0" id="circle103"/>
	<circle cx="419.901" cy="135.445" r="4" fill="#0" id="circle104"/>
	<circle cx="422.981" cy="467.139" r="4" fill="#0" id="circle105"/>
	<circle cx="425.035" cy="73.8302" r="4" fill="#0" id="circle106"/>
	<circle cx="425.035" cy="84.0994" r="4" fill="#0" id="circle107"/>
	<circle cx="425.035" cy="94.3685" r="4" fill="#0" id="circle108"/>
	<circle cx="425.035" cy="104.638" r="4" fill="#0" id="circle109"/>
	<circle cx="425.035" cy="114.907" r="4" fill="#0" id="circle110"/>
	<circle cx="425.035" cy="125.176" r="4" fill="#0" id="circle111"/>
	<circle cx="430.17" cy="63.5611" r="4" fill="#0" id="circle112"/>
	<circle cx="433.251" cy="466.112" r="4" fill="#0" id="circle113"/>
	<circle cx="438.385" cy="55.3458" r="4" fill="#0" id="circle114"/>
	<circle cx="441.466" cy="456.87" r="4" fill="#0" id="circle115"/>
	<circle cx="446.6" cy="47.1304" r="4" fill="#0" id="circle116"/>
	<circle cx="446.6" cy="441.466" r="4" fill="#0" id="circle117"/>
	<circle cx="451.735" cy="36.8613" r="4" fill="#0" id="circle118"/>
	<circle cx="452.762" cy="449.681" r="4" fill="#0" id="circle119"/>
	<circle cx="455.843" cy="459.95" r="4" fill="#0" id="circle120"/>
	<circle cx="455.843" cy="470.219" r="4" fill="#0" id="circle121"/>
	<circle cx="456.87" cy="480.489" r="4" fill="#0" id="circle122"/>
	<circle cx="459.95" cy="29.6729" r="4" fill="#0" id="circle123"/>
	<circle cx="460.977" cy="490.758" r="4" fill="#0" id="circle124"/>
	<circle cx="466.112" cy="500" r="4" fill="#0" id="circle125"/>
	<circle cx="469.193" cy="24.5383" r="4" fill="#0" id="circle126"/>
	<circle cx="472.273" cy="508.215" r="4" fill="#0" id="circle127"/>
	<circle cx="478.435" cy="19.4037" r="4" fill="#0" id="circle128"/>
	<circle cx="481.516" cy="513.35" r="4" fill="#0" id="circle129"/>
	<circle cx="486.65" cy="12.2153" r="4" fill="#0" id="circle130"/>
	<circle cx="491.785" cy="513.35" r="4" fill="#0" id="circle131"/>
	<circle cx="496.919" cy="7.08075" r="4" fill="#0" id="circle132"/>
	<circle cx="501.027" cy="518.484" r="4" fill="#0" id="circle133"/>
	<circle cx="507.188" cy="4" r="4" fill="#0" id="circle134"/>
	<circle cx="511.296" cy="518.484" r="4" fill="#0" id="circle135"/>
	<circle cx="517.458" cy="4" r="4" fill="#0" id="circle136"/>
	<circle cx="521.565" cy="518.484" r="4" fill="#0" id="circle137"/>
	<circle cx="527.727" cy="4" r="4" fill="#0" id="circle138"/>
	<circle cx="531.834" cy="516.431" r="4" fill="#0" id="circle139"/>
	<circle cx="537.996" cy="4" r="4" fill="#0" id="circle140"/>
	<circle cx="542.104" cy="513.35" r="4" fill="#0" id="circle141"/>
	<circle cx="548.265" cy="4" r="4" fill="#0" id="circle142"/>
	<circle cx="551.346" cy="508.215" r="4" fill="#0" id="circle143"/>
	<circle cx="558.534" cy="4" r="4" fill="#0" id="circle144"/>
	<circle cx="560.588" cy="503.081" r="4" fill="#0" id="circle145"/>
	<circle cx="568.803" cy="4" r="4" fill="#0" id="circle146"/>
	<circle cx="569.83" cy="497.946" r="4" fill="#0" id="circle147"/>
	<circle cx="578.046" cy="490.758" r="4" fill="#0" id="circle148"/>
	<circle cx="579.072" cy="4" r="4" fill="#0" id="circle149"/>
	<circle cx="585.234" cy="477.408" r="4" fill="#0" id="circle150"/>
	<circle cx="589.342" cy="4" r="4" fill="#0" id="circle151"/>
	<circle cx="593.449" cy="470.219" r="4" fill="#0" id="circle152"/>
	<circle cx="598.584" cy="459.95" r="4" fill="#0" id="circle153"/>
	<circle cx="599.611" cy="4" r="4" fill="#0" id="circle154"/>
	<circle cx="603.718" cy="449.681" r="4" fill="#0" id="circle155"/>
	<circle cx="609.88" cy="4" r="4" fill="#0" id="circle156"/>
	<circle cx="609.88" cy="441.466" r="4" fill="#0" id="circle157"/>
	<circle cx="620.149" cy="4" r="4" fill="#0" id="circle158"/>
	<circle cx="620.149" cy="441.466" r="4" fill="#0" id="circle159"/>
	<circle cx="630.418" cy="4" r="4" fill="#0" id="circle160"/>
	<circle cx="630.418" cy="441.466" r="4" fill="#0" id="circle161"/>
	<circle cx="640.687" cy="4" r="4" fill="#0" id="circle162"/>
	<circle cx="640.687" cy="441.466" r="4" fill="#0" id="circle163"/>
	<circle cx="650.957" cy="4" r="4" fill="#0" id="circle164"/>
	<circle cx="650.957" cy="441.466" r="4" fill="#0" id="circle165"/>
	<circle cx="661.226" cy="4" r="4" fill="#0" id="circle166"/>
	<circle cx="661.226" cy="441.466" r="4" fill="#0" id="circle167"/>
	<circle cx="671.495" cy="4" r="4" fill="#0" id="circle168"/>
	<circle cx="671.495" cy="441.466" r="4" fill="#0" id="circle169"/>
	<circle cx="681.764" cy="4" r="4" fill="#0" id="circle170"/>
	<circle cx="681.764" cy="441.466" r="4" fill="#0" id="circle171"/>
	<circle cx="692.033" cy="4" r="4" fill="#0" id="circle172"/>
	<circle cx="692.033" cy="441.466" r="4" fill="#0" id="circle173"/>
	<circle cx="702.302" cy="4" r="4" fill="#0" id="circle174"/>
	<circle cx="702.302" cy="441.466" r="4" fill="#0" id="circle175"/>
	<circle cx="712.571" cy="4" r="4" fill="#0" id="circle176"/>
	<circle cx="712.571" cy="441.466" r="4" fill="#0" id="circle177"/>
	<circle cx="722.841" cy="6.05383" r="4" fill="#0" id="circle178"/>
	<circle cx="722.841" cy="441.466" r="4" fill="#0" id="circle179"/>
	<circle cx="732.083" cy="11.1884" r="4" fill="#0" id="circle180"/>
	<circle cx="733.11" cy="441.466" r="4" fill="#0" id="circle181"/>
	<circle cx="739.271" cy="19.4037" r="4" fill="#0" id="circle182"/>
	<circle cx="743.379" cy="441.466" r="4" fill="#0" id="circle183"/>
	<circle cx="744.406" cy="28.646" r="4" fill="#0" id="circle184"/>
	<circle cx="749.54" cy="37.8882" r="4" fill="#0" id="circle185"/>
	<circle cx="753.648" cy="441.466" r="4" fill="#0" id="circle186"/>
	<circle cx="756.729" cy="46.1035" r="4" fill="#0" id="circle187"/>
	<circle cx="763.917" cy="441.466" r="4" fill="#0" id="circle188"/>
	<circle cx="764.944" cy="53.2919" r="4" fill="#0" id="circle189"/>
	<circle cx="770.079" cy="62.5342" r="4" fill="#0" id="circle190"/>
	<circle cx="774.186" cy="441.466" r="4" fill="#0" id="circle191"/>
	<circle cx="775.213" cy="71.7764" r="4" fill="#0" id="circle192"/>
	<circle cx="775.213" cy="82.0455" r="4" fill="#0" id="circle193"/>
	<circle cx="775.213" cy="92.3147" r="4" fill="#0" id="circle194"/>
	<circle cx="775.213" cy="102.584" r="4" fill="#0" id="circle195"/>
	<circle cx="775.213" cy="112.853" r="4" fill="#0" id="circle196"/>
	<circle cx="775.213" cy="123.122" r="4" fill="#0" id="circle197"/>
	<circle cx="780.348" cy="132.364" r="4" fill="#0" id="circle198"/>
	<circle cx="784.455" cy="441.466" r="4" fill="#0" id="circle199"/>
	<circle cx="785.482" cy="141.607" r="4" fill="#0" id="circle200"/>
	<circle cx="793.698" cy="148.795" r="4" fill="#0" id="circle201"/>
	<circle cx="794.725" cy="441.466" r="4" fill="#0" id="circle202"/>
	<circle cx="802.94" cy="153.93" r="4" fill="#0" id="circle203"/>
	<circle cx="803.967" cy="446.6" r="4" fill="#0" id="circle204"/>
	<circle cx="811.155" cy="161.118" r="4" fill="#0" id="circle205"/>
	<circle cx="813.209" cy="451.735" r="4" fill="#0" id="circle206"/>
	<circle cx="819.371" cy="168.306" r="4" fill="#0" id="circle207"/>
	<circle cx="823.478" cy="455.843" r="4" fill="#0" id="circle208"/>
	<circle cx="828.613" cy="173.441" r="4" fill="#0" id="circle209"/>
	<circle cx="833.747" cy="456.87" r="4" fill="#0" id="circle210"/>
	<circle cx="837.855" cy="178.576" r="4" fill="#0" id="circle211"/>
	<circle cx="844.017" cy="456.87" r="4" fill="#0" id="circle212"/>
	<circle cx="847.097" cy="183.71" r="4" fill="#0" id="circle213"/>
	<circle cx="854.286" cy="456.87" r="4" fill="#0" id="circle214"/>
	<circle cx="857.366" cy="183.71" r="4" fill="#0" id="circle215"/>
	<circle cx="864.555" cy="456.87" r="4" fill="#0" id="circle216"/>
	<circle cx="867.636" cy="183.71" r="4" fill="#0" id="circle217"/>
	<circle cx="874.824" cy="456.87" r="4" fill="#0" id="circle218"/>
	<circle cx="877.905" cy="183.71" r="4" fill="#0" id="circle219"/>
	<circle cx="885.093" cy="456.87" r="4" fill="#0" id="circle220"/>
	<circle cx="888.174" cy="183.71" r="4" fill="#0" id="circle221"/>
	<circle cx="895.362" cy="455.843" r="4" fill="#0" id="circle222"/>
	<circle cx="898.443" cy="183.71" r="4" fill="#0" id="circle223"/>
	<circle cx="905.631" cy="450.708" r="4" fill="#0" id="circle224"/>
	<circle cx="908.712" cy="183.71" r="4" fill="#0" id="circle225"/>
	<circle cx="913.847" cy="436.331" r="4" fill="#0" id="circle226"/>
	<circle cx="918.981" cy="183.71" r="4" fill="#0" id="circle227"/>
	<circle cx="922.062" cy="429.143" r="4" fill="#0" id="circle228"/>
	<circle cx="927.197" cy="418.874" r="4" fill="#0" id="circle229"/>
	<circle cx="929.251" cy="183.71" r="4" fill="#0" id="circle230"/>
	<circle cx="929.251" cy="405.524" r="4" fill="#0" id="circle231"/>
	<circle cx="934.385" cy="369.582" r="4" fill="#0" id="circle232"/>
	<circle cx="934.385" cy="379.851" r="4" fill="#0" id="circle233"/>
	<circle cx="934.385" cy="390.12" r="4" fill="#0" id="circle234"/>
	<circle cx="939.52" cy="183.71" r="4" fill="#0" id="circle235"/>
	<circle cx="943.627" cy="364.447" r="4" fill="#0" id="circle236"/>
	<circle cx="949.789" cy="183.71" r="4" fill="#0" id="circle237"/>
	<circle cx="953.896" cy="361.366" r="4" fill="#0" id="circle238"/>
	<circle cx="960.058" cy="183.71" r="4" fill="#0" id="circle239"/>
	<circle cx="964.166" cy="356.232" r="4" fill="#0" id="circle240"/>
	<circle cx="969.3" cy="345.963" r="4" fill="#0" id="circle241"/>
	<circle cx="970.327" cy="183.71" r="4" fill="#0" id="circle242"/>
	<circle cx="974.435" cy="335.694" r="4" fill="#0" id="circle243"/>
	<circle cx="975.462" cy="323.371" r="4" fill="#0" id="circle244"/>
	<circle cx="980.596" cy="183.71" r="4" fill="#0" id="circle245"/>
	<circle cx="980.596" cy="297.698" r="4" fill="#0" id="circle246"/>
	<circle cx="980.596" cy="307.967" r="4" fill="#0" id="circle247"/>
	<circle cx="985.731" cy="261.756" r="4" fill="#0" id="circle248"/>
	<circle cx="985.731" cy="272.025" r="4" fill="#0" id="circle249"/>
	<circle cx="985.731" cy="282.294" r="4" fill="#0" id="circle250"/>
	<circle cx="988.812" cy="189.872" r="4" fill="#0" id="circle251"/>
	<circle cx="990.865" cy="241.217" r="4" fill="#0" id="circle252"/>
	<circle cx="990.865" cy="251.487" r="4" fill="#0" id="circle253"/>
	<circle cx="996" cy="198.087" r="4" fill="#0" id="circle254"/>
	<circle cx="996" cy="208.356" r="4" fill="#0" id="circle255"/>
	<circle cx="996" cy="218.625" r="4" fill="#0" id="circle256"/>
	<circle cx="996" cy="228.894" r="4" fill="#0" id="circle257"/>
	</g>
</svg>