<?xml version="1.0" encoding="UTF-8" standalone="no"?>
<!-- Created with CurveBenchmark -->
<svg
	xmlns:dc="http://purl.org/dc/elements/1.1/"
	xmlns:cc="http://creativecommons.org/ns#"
	xmlns:rdf="http://www.w3.org/1999/02/22-rdf-syntax-ns#"
	xmlns:svg="http://www.w3.org/2000/svg"
	xmlns="http://www.w3.org/2000/svg"
	xmlns:sodipodi="http://sodipodi.sourceforge.net/DTD/sodipodi-0.dtd"
	xmlns:inkscape="http://www.inkscape.org/namespaces/inkscape"
	width="1000"
	height="1000"
	id="svg2"
	version="1.1"
	sodipodi:docname="manifold/nncrust-tree-7.png.txt">
<defs
	id="defs4" />
<metadata
	id="metadata7">
	<rdf:RDF>
		<cc:Work
			rdf:about="">
			<dc:format>image/svg+xml</dc:format>
			<dc:type
				rdf:resource="http://purl.org/dc/dcmitype/StillImage" />
			<dc:title></dc:title>
		</cc:Work>
	</rdf:RDF>
</metadata>
<g
	inkscape:label="Layer 1"
	inkscape:groupmode="layer"
	id="layer1">
	<path style="fill:none;stroke:red;stroke-width:1px;stroke-linecap:butt;stroke-linejoin:miter;stroke-opacity:1" d="M 74.168,383.784 74.168,392.555 z" id="boundary" inkscape:connector-curvature="0" />
	<path style="fill:none;stroke:red;stroke-width:1px;stroke-linecap:butt;stroke-linejoin:miter;stroke-opacity:1" d="M 74.168,383.784 78.5535,375.013 z" id="boundary" inkscape:connector-curvature="0" />
	<path style="fill:none;stroke:red;stroke-width:1px;stroke-linecap:butt;stroke-linejoin:miter;stroke-opacity:1" d="M 74.168,401.326 74.168,410.097 z" id="boundary" inkscape:connector-curvature="0" />
	<path style="fill:none;stroke:red;stroke-width:1px;stroke-linecap:butt;stroke-linejoin:miter;stroke-opacity:1" d="M 74.168,401.326 74.168,392.555 z" id="boundary" inkscape:connector-curvature="0" />
	<path style="fill:none;stroke:red;stroke-width:1px;stroke-linecap:butt;stroke-linejoin:miter;stroke-opacity:1" d="M 74.168,418.868 74.168,427.639 z" id="boundary" inkscape:connector-curvature="0" />
	<path style="fill:none;stroke:red;stroke-width:1px;stroke-linecap:butt;stroke-linejoin:miter;stroke-opacity:1" d="M 74.168,436.41 74.168,445.181 z" id="boundary" inkscape:connector-curvature="0" />
	<path style="fill:none;stroke:red;stroke-width:1px;stroke-linecap:butt;stroke-linejoin:miter;stroke-opacity:1" d="M 78.5535,453.075 74.168,445.181 z" id="boundary" inkscape:connector-curvature="0" />
	<path style="fill:none;stroke:red;stroke-width:1px;stroke-linecap:butt;stroke-linejoin:miter;stroke-opacity:1" d="M 74.168,436.41 74.168,427.639 z" id="boundary" inkscape:connector-curvature="0" />
	<path style="fill:none;stroke:red;stroke-width:1px;stroke-linecap:butt;stroke-linejoin:miter;stroke-opacity:1" d="M 74.168,418.868 74.168,410.097 z" id="boundary" inkscape:connector-curvature="0" />
	<path style="fill:none;stroke:red;stroke-width:1px;stroke-linecap:butt;stroke-linejoin:miter;stroke-opacity:1" d="M 85.5703,367.996 89.9558,359.225 z" id="boundary" inkscape:connector-curvature="0" />
	<path style="fill:none;stroke:red;stroke-width:1px;stroke-linecap:butt;stroke-linejoin:miter;stroke-opacity:1" d="M 89.9558,359.225 96.9726,352.209 z" id="boundary" inkscape:connector-curvature="0" />
	<path style="fill:none;stroke:red;stroke-width:1px;stroke-linecap:butt;stroke-linejoin:miter;stroke-opacity:1" d="M 110.129,339.052 103.989,346.069 z" id="boundary" inkscape:connector-curvature="0" />
	<path style="fill:none;stroke:red;stroke-width:1px;stroke-linecap:butt;stroke-linejoin:miter;stroke-opacity:1" d="M 103.989,346.069 96.9726,352.209 z" id="boundary" inkscape:connector-curvature="0" />
	<path style="fill:none;stroke:red;stroke-width:1px;stroke-linecap:butt;stroke-linejoin:miter;stroke-opacity:1" d="M 78.5535,375.013 85.5703,367.996 z" id="boundary" inkscape:connector-curvature="0" />
	<path style="fill:none;stroke:red;stroke-width:1px;stroke-linecap:butt;stroke-linejoin:miter;stroke-opacity:1" d="M 82.939,460.969 78.5535,453.075 z" id="boundary" inkscape:connector-curvature="0" />
	<path style="fill:none;stroke:red;stroke-width:1px;stroke-linecap:butt;stroke-linejoin:miter;stroke-opacity:1" d="M 82.939,469.74 82.939,460.969 z" id="boundary" inkscape:connector-curvature="0" />
	<path style="fill:none;stroke:red;stroke-width:1px;stroke-linecap:butt;stroke-linejoin:miter;stroke-opacity:1" d="M 87.3245,477.634 82.939,469.74 z" id="boundary" inkscape:connector-curvature="0" />
	<path style="fill:none;stroke:red;stroke-width:1px;stroke-linecap:butt;stroke-linejoin:miter;stroke-opacity:1" d="M 91.71,485.528 87.3245,477.634 z" id="boundary" inkscape:connector-curvature="0" />
	<path style="fill:none;stroke:red;stroke-width:1px;stroke-linecap:butt;stroke-linejoin:miter;stroke-opacity:1" d="M 91.71,485.528 96.0955,493.422 z" id="boundary" inkscape:connector-curvature="0" />
	<path style="fill:none;stroke:red;stroke-width:1px;stroke-linecap:butt;stroke-linejoin:miter;stroke-opacity:1" d="M 96.9726,593.411 92.5871,602.182 z" id="boundary" inkscape:connector-curvature="0" />
	<path style="fill:none;stroke:red;stroke-width:1px;stroke-linecap:butt;stroke-linejoin:miter;stroke-opacity:1" d="M 100.481,576.746 96.9726,593.411 z" id="boundary" inkscape:connector-curvature="0" />
	<path style="fill:none;stroke:red;stroke-width:1px;stroke-linecap:butt;stroke-linejoin:miter;stroke-opacity:1" d="M 79.4306,628.495 83.8161,619.724 z" id="boundary" inkscape:connector-curvature="0" />
	<path style="fill:none;stroke:red;stroke-width:1px;stroke-linecap:butt;stroke-linejoin:miter;stroke-opacity:1" d="M 88.2016,610.953 83.8161,619.724 z" id="boundary" inkscape:connector-curvature="0" />
	<path style="fill:none;stroke:red;stroke-width:1px;stroke-linecap:butt;stroke-linejoin:miter;stroke-opacity:1" d="M 88.2016,610.953 92.5871,602.182 z" id="boundary" inkscape:connector-curvature="0" />
	<path style="fill:none;stroke:red;stroke-width:1px;stroke-linecap:butt;stroke-linejoin:miter;stroke-opacity:1" d="M 100.481,501.316 100.481,510.087 z" id="boundary" inkscape:connector-curvature="0" />
	<path style="fill:none;stroke:red;stroke-width:1px;stroke-linecap:butt;stroke-linejoin:miter;stroke-opacity:1" d="M 96.0955,493.422 100.481,501.316 z" id="boundary" inkscape:connector-curvature="0" />
	<path style="fill:none;stroke:red;stroke-width:1px;stroke-linecap:butt;stroke-linejoin:miter;stroke-opacity:1" d="M 104.866,517.981 100.481,510.087 z" id="boundary" inkscape:connector-curvature="0" />
	<path style="fill:none;stroke:red;stroke-width:1px;stroke-linecap:butt;stroke-linejoin:miter;stroke-opacity:1" d="M 104.866,517.981 104.866,526.752 z" id="boundary" inkscape:connector-curvature="0" />
	<path style="fill:none;stroke:red;stroke-width:1px;stroke-linecap:butt;stroke-linejoin:miter;stroke-opacity:1" d="M 104.866,535.523 104.866,526.752 z" id="boundary" inkscape:connector-curvature="0" />
	<path style="fill:none;stroke:red;stroke-width:1px;stroke-linecap:butt;stroke-linejoin:miter;stroke-opacity:1" d="M 104.866,535.523 104.866,544.294 z" id="boundary" inkscape:connector-curvature="0" />
	<path style="fill:none;stroke:red;stroke-width:1px;stroke-linecap:butt;stroke-linejoin:miter;stroke-opacity:1" d="M 104.866,544.294 104.866,553.065 z" id="boundary" inkscape:connector-curvature="0" />
	<path style="fill:none;stroke:red;stroke-width:1px;stroke-linecap:butt;stroke-linejoin:miter;stroke-opacity:1" d="M 104.866,561.836 104.866,553.065 z" id="boundary" inkscape:connector-curvature="0" />
	<path style="fill:none;stroke:red;stroke-width:1px;stroke-linecap:butt;stroke-linejoin:miter;stroke-opacity:1" d="M 100.481,576.746 104.866,561.836 z" id="boundary" inkscape:connector-curvature="0" />
	<path style="fill:none;stroke:red;stroke-width:1px;stroke-linecap:butt;stroke-linejoin:miter;stroke-opacity:1" d="M 110.129,339.052 117.146,332.912 z" id="boundary" inkscape:connector-curvature="0" />
	<path style="fill:none;stroke:red;stroke-width:1px;stroke-linecap:butt;stroke-linejoin:miter;stroke-opacity:1" d="M 79.4306,628.495 73.2909,635.512 z" id="boundary" inkscape:connector-curvature="0" />
	<path style="fill:none;stroke:red;stroke-width:1px;stroke-linecap:butt;stroke-linejoin:miter;stroke-opacity:1" d="M 155.738,153.107 160.124,144.336 z" id="boundary" inkscape:connector-curvature="0" />
	<path style="fill:none;stroke:red;stroke-width:1px;stroke-linecap:butt;stroke-linejoin:miter;stroke-opacity:1" d="M 164.509,135.565 160.124,144.336 z" id="boundary" inkscape:connector-curvature="0" />
	<path style="fill:none;stroke:red;stroke-width:1px;stroke-linecap:butt;stroke-linejoin:miter;stroke-opacity:1" d="M 166.263,125.04 164.509,135.565 z" id="boundary" inkscape:connector-curvature="0" />
	<path style="fill:none;stroke:red;stroke-width:1px;stroke-linecap:butt;stroke-linejoin:miter;stroke-opacity:1" d="M 166.263,125.04 173.28,118.023 z" id="boundary" inkscape:connector-curvature="0" />
	<path style="fill:none;stroke:red;stroke-width:1px;stroke-linecap:butt;stroke-linejoin:miter;stroke-opacity:1" d="M 179.42,107.498 173.28,118.023 z" id="boundary" inkscape:connector-curvature="0" />
	<path style="fill:none;stroke:red;stroke-width:1px;stroke-linecap:butt;stroke-linejoin:miter;stroke-opacity:1" d="M 139.95,182.051 144.336,168.895 z" id="boundary" inkscape:connector-curvature="0" />
	<path style="fill:none;stroke:red;stroke-width:1px;stroke-linecap:butt;stroke-linejoin:miter;stroke-opacity:1" d="M 144.336,168.895 151.353,161.878 z" id="boundary" inkscape:connector-curvature="0" />
	<path style="fill:none;stroke:red;stroke-width:1px;stroke-linecap:butt;stroke-linejoin:miter;stroke-opacity:1" d="M 139.95,182.051 135.565,190.822 z" id="boundary" inkscape:connector-curvature="0" />
	<path style="fill:none;stroke:red;stroke-width:1px;stroke-linecap:butt;stroke-linejoin:miter;stroke-opacity:1" d="M 155.738,153.107 151.353,161.878 z" id="boundary" inkscape:connector-curvature="0" />
	<path style="fill:none;stroke:red;stroke-width:1px;stroke-linecap:butt;stroke-linejoin:miter;stroke-opacity:1" d="M 203.979,74.168 205.733,63.6428 z" id="boundary" inkscape:connector-curvature="0" />
	<path style="fill:none;stroke:red;stroke-width:1px;stroke-linecap:butt;stroke-linejoin:miter;stroke-opacity:1" d="M 210.118,54.8718 205.733,63.6428 z" id="boundary" inkscape:connector-curvature="0" />
	<path style="fill:none;stroke:red;stroke-width:1px;stroke-linecap:butt;stroke-linejoin:miter;stroke-opacity:1" d="M 214.504,37.3298 214.504,46.1008 z" id="boundary" inkscape:connector-curvature="0" />
	<path style="fill:none;stroke:red;stroke-width:1px;stroke-linecap:butt;stroke-linejoin:miter;stroke-opacity:1" d="M 214.504,46.1008 210.118,54.8718 z" id="boundary" inkscape:connector-curvature="0" />
	<path style="fill:none;stroke:red;stroke-width:1px;stroke-linecap:butt;stroke-linejoin:miter;stroke-opacity:1" d="M 179.42,107.498 186.437,100.481 z" id="boundary" inkscape:connector-curvature="0" />
	<path style="fill:none;stroke:red;stroke-width:1px;stroke-linecap:butt;stroke-linejoin:miter;stroke-opacity:1" d="M 192.576,89.9558 186.437,100.481 z" id="boundary" inkscape:connector-curvature="0" />
	<path style="fill:none;stroke:red;stroke-width:1px;stroke-linecap:butt;stroke-linejoin:miter;stroke-opacity:1" d="M 192.576,89.9558 196.962,81.1848 z" id="boundary" inkscape:connector-curvature="0" />
	<path style="fill:none;stroke:red;stroke-width:1px;stroke-linecap:butt;stroke-linejoin:miter;stroke-opacity:1" d="M 196.962,81.1848 203.979,74.168 z" id="boundary" inkscape:connector-curvature="0" />
	<path style="fill:none;stroke:red;stroke-width:1px;stroke-linecap:butt;stroke-linejoin:miter;stroke-opacity:1" d="M 218.889,28.5588 214.504,37.3298 z" id="boundary" inkscape:connector-curvature="0" />
	<path style="fill:none;stroke:red;stroke-width:1px;stroke-linecap:butt;stroke-linejoin:miter;stroke-opacity:1" d="M 135.565,199.593 135.565,208.364 z" id="boundary" inkscape:connector-curvature="0" />
	<path style="fill:none;stroke:red;stroke-width:1px;stroke-linecap:butt;stroke-linejoin:miter;stroke-opacity:1" d="M 146.09,223.275 139.95,216.258 z" id="boundary" inkscape:connector-curvature="0" />
	<path style="fill:none;stroke:red;stroke-width:1px;stroke-linecap:butt;stroke-linejoin:miter;stroke-opacity:1" d="M 135.565,208.364 139.95,216.258 z" id="boundary" inkscape:connector-curvature="0" />
	<path style="fill:none;stroke:red;stroke-width:1px;stroke-linecap:butt;stroke-linejoin:miter;stroke-opacity:1" d="M 135.565,199.593 135.565,190.822 z" id="boundary" inkscape:connector-curvature="0" />
	<path style="fill:none;stroke:red;stroke-width:1px;stroke-linecap:butt;stroke-linejoin:miter;stroke-opacity:1" d="M 117.146,332.912 123.286,325.896 z" id="boundary" inkscape:connector-curvature="0" />
	<path style="fill:none;stroke:red;stroke-width:1px;stroke-linecap:butt;stroke-linejoin:miter;stroke-opacity:1" d="M 123.286,325.896 130.302,319.756 z" id="boundary" inkscape:connector-curvature="0" />
	<path style="fill:none;stroke:red;stroke-width:1px;stroke-linecap:butt;stroke-linejoin:miter;stroke-opacity:1" d="M 140.828,303.968 136.442,312.739 z" id="boundary" inkscape:connector-curvature="0" />
	<path style="fill:none;stroke:red;stroke-width:1px;stroke-linecap:butt;stroke-linejoin:miter;stroke-opacity:1" d="M 136.442,312.739 130.302,319.756 z" id="boundary" inkscape:connector-curvature="0" />
	<path style="fill:none;stroke:red;stroke-width:1px;stroke-linecap:butt;stroke-linejoin:miter;stroke-opacity:1" d="M 145.213,295.197 140.828,303.968 z" id="boundary" inkscape:connector-curvature="0" />
	<path style="fill:none;stroke:red;stroke-width:1px;stroke-linecap:butt;stroke-linejoin:miter;stroke-opacity:1" d="M 146.09,223.275 153.107,228.538 z" id="boundary" inkscape:connector-curvature="0" />
	<path style="fill:none;stroke:red;stroke-width:1px;stroke-linecap:butt;stroke-linejoin:miter;stroke-opacity:1" d="M 157.492,236.431 157.492,245.202 z" id="boundary" inkscape:connector-curvature="0" />
	<path style="fill:none;stroke:red;stroke-width:1px;stroke-linecap:butt;stroke-linejoin:miter;stroke-opacity:1" d="M 153.107,228.538 157.492,236.431 z" id="boundary" inkscape:connector-curvature="0" />
	<path style="fill:none;stroke:red;stroke-width:1px;stroke-linecap:butt;stroke-linejoin:miter;stroke-opacity:1" d="M 157.492,245.202 157.492,253.973 z" id="boundary" inkscape:connector-curvature="0" />
	<path style="fill:none;stroke:red;stroke-width:1px;stroke-linecap:butt;stroke-linejoin:miter;stroke-opacity:1" d="M 149.599,286.426 145.213,295.197 z" id="boundary" inkscape:connector-curvature="0" />
	<path style="fill:none;stroke:red;stroke-width:1px;stroke-linecap:butt;stroke-linejoin:miter;stroke-opacity:1" d="M 157.492,253.973 157.492,262.744 z" id="boundary" inkscape:connector-curvature="0" />
	<path style="fill:none;stroke:red;stroke-width:1px;stroke-linecap:butt;stroke-linejoin:miter;stroke-opacity:1" d="M 157.492,262.744 153.984,277.655 z" id="boundary" inkscape:connector-curvature="0" />
	<path style="fill:none;stroke:red;stroke-width:1px;stroke-linecap:butt;stroke-linejoin:miter;stroke-opacity:1" d="M 153.984,277.655 149.599,286.426 z" id="boundary" inkscape:connector-curvature="0" />
	<path style="fill:none;stroke:red;stroke-width:1px;stroke-linecap:butt;stroke-linejoin:miter;stroke-opacity:1" d="M 44.3466,685.507 48.7321,676.736 z" id="boundary" inkscape:connector-curvature="0" />
	<path style="fill:none;stroke:red;stroke-width:1px;stroke-linecap:butt;stroke-linejoin:miter;stroke-opacity:1" d="M 44.3466,685.507 37.3298,692.523 z" id="boundary" inkscape:connector-curvature="0" />
	<path style="fill:none;stroke:red;stroke-width:1px;stroke-linecap:butt;stroke-linejoin:miter;stroke-opacity:1" d="M 53.1176,667.965 57.5031,659.194 z" id="boundary" inkscape:connector-curvature="0" />
	<path style="fill:none;stroke:red;stroke-width:1px;stroke-linecap:butt;stroke-linejoin:miter;stroke-opacity:1" d="M 53.1176,667.965 48.7321,676.736 z" id="boundary" inkscape:connector-curvature="0" />
	<path style="fill:none;stroke:red;stroke-width:1px;stroke-linecap:butt;stroke-linejoin:miter;stroke-opacity:1" d="M 21.542,717.082 25.9275,708.311 z" id="boundary" inkscape:connector-curvature="0" />
	<path style="fill:none;stroke:red;stroke-width:1px;stroke-linecap:butt;stroke-linejoin:miter;stroke-opacity:1" d="M 30.313,699.54 37.3298,692.523 z" id="boundary" inkscape:connector-curvature="0" />
	<path style="fill:none;stroke:red;stroke-width:1px;stroke-linecap:butt;stroke-linejoin:miter;stroke-opacity:1" d="M 25.9275,708.311 30.313,699.54 z" id="boundary" inkscape:connector-curvature="0" />
	<path style="fill:none;stroke:red;stroke-width:1px;stroke-linecap:butt;stroke-linejoin:miter;stroke-opacity:1" d="M 61.8886,650.423 57.5031,659.194 z" id="boundary" inkscape:connector-curvature="0" />
	<path style="fill:none;stroke:red;stroke-width:1px;stroke-linecap:butt;stroke-linejoin:miter;stroke-opacity:1" d="M 61.8886,650.423 66.2741,641.652 z" id="boundary" inkscape:connector-curvature="0" />
	<path style="fill:none;stroke:red;stroke-width:1px;stroke-linecap:butt;stroke-linejoin:miter;stroke-opacity:1" d="M 66.2741,641.652 73.2909,635.512 z" id="boundary" inkscape:connector-curvature="0" />
	<path style="fill:none;stroke:red;stroke-width:1px;stroke-linecap:butt;stroke-linejoin:miter;stroke-opacity:1" d="M 139.95,697.786 132.057,702.172 z" id="boundary" inkscape:connector-curvature="0" />
	<path style="fill:none;stroke:red;stroke-width:1px;stroke-linecap:butt;stroke-linejoin:miter;stroke-opacity:1" d="M 118.9,719.714 125.917,713.574 z" id="boundary" inkscape:connector-curvature="0" />
	<path style="fill:none;stroke:red;stroke-width:1px;stroke-linecap:butt;stroke-linejoin:miter;stroke-opacity:1" d="M 132.057,702.172 125.917,713.574 z" id="boundary" inkscape:connector-curvature="0" />
	<path style="fill:none;stroke:red;stroke-width:1px;stroke-linecap:butt;stroke-linejoin:miter;stroke-opacity:1" d="M 145.213,704.803 149.599,712.697 z" id="boundary" inkscape:connector-curvature="0" />
	<path style="fill:none;stroke:red;stroke-width:1px;stroke-linecap:butt;stroke-linejoin:miter;stroke-opacity:1" d="M 139.95,697.786 145.213,704.803 z" id="boundary" inkscape:connector-curvature="0" />
	<path style="fill:none;stroke:red;stroke-width:1px;stroke-linecap:butt;stroke-linejoin:miter;stroke-opacity:1" d="M 155.738,719.714 149.599,712.697 z" id="boundary" inkscape:connector-curvature="0" />
	<path style="fill:none;stroke:red;stroke-width:1px;stroke-linecap:butt;stroke-linejoin:miter;stroke-opacity:1" d="M 118.9,719.714 110.129,724.099 z" id="boundary" inkscape:connector-curvature="0" />
	<path style="fill:none;stroke:red;stroke-width:1px;stroke-linecap:butt;stroke-linejoin:miter;stroke-opacity:1" d="M 9.2626,750.412 4,743.395 z" id="boundary" inkscape:connector-curvature="0" />
	<path style="fill:none;stroke:red;stroke-width:1px;stroke-linecap:butt;stroke-linejoin:miter;stroke-opacity:1" d="M 4,743.395 11.0168,736.378 z" id="boundary" inkscape:connector-curvature="0" />
	<path style="fill:none;stroke:red;stroke-width:1px;stroke-linecap:butt;stroke-linejoin:miter;stroke-opacity:1" d="M 18.0336,750.412 9.2626,750.412 z" id="boundary" inkscape:connector-curvature="0" />
	<path style="fill:none;stroke:red;stroke-width:1px;stroke-linecap:butt;stroke-linejoin:miter;stroke-opacity:1" d="M 17.1565,725.853 11.0168,736.378 z" id="boundary" inkscape:connector-curvature="0" />
	<path style="fill:none;stroke:red;stroke-width:1px;stroke-linecap:butt;stroke-linejoin:miter;stroke-opacity:1" d="M 21.542,717.082 17.1565,725.853 z" id="boundary" inkscape:connector-curvature="0" />
	<path style="fill:none;stroke:red;stroke-width:1px;stroke-linecap:butt;stroke-linejoin:miter;stroke-opacity:1" d="M 18.0336,750.412 26.8046,750.412 z" id="boundary" inkscape:connector-curvature="0" />
	<path style="fill:none;stroke:red;stroke-width:1px;stroke-linecap:butt;stroke-linejoin:miter;stroke-opacity:1" d="M 35.5756,750.412 44.3466,750.412 z" id="boundary" inkscape:connector-curvature="0" />
	<path style="fill:none;stroke:red;stroke-width:1px;stroke-linecap:butt;stroke-linejoin:miter;stroke-opacity:1" d="M 35.5756,750.412 26.8046,750.412 z" id="boundary" inkscape:connector-curvature="0" />
	<path style="fill:none;stroke:red;stroke-width:1px;stroke-linecap:butt;stroke-linejoin:miter;stroke-opacity:1" d="M 95.2184,735.501 101.358,728.485 z" id="boundary" inkscape:connector-curvature="0" />
	<path style="fill:none;stroke:red;stroke-width:1px;stroke-linecap:butt;stroke-linejoin:miter;stroke-opacity:1" d="M 101.358,728.485 110.129,724.099 z" id="boundary" inkscape:connector-curvature="0" />
	<path style="fill:none;stroke:red;stroke-width:1px;stroke-linecap:butt;stroke-linejoin:miter;stroke-opacity:1" d="M 95.2184,735.501 86.4474,737.256 z" id="boundary" inkscape:connector-curvature="0" />
	<path style="fill:none;stroke:red;stroke-width:1px;stroke-linecap:butt;stroke-linejoin:miter;stroke-opacity:1" d="M 86.4474,737.256 78.5535,741.641 z" id="boundary" inkscape:connector-curvature="0" />
	<path style="fill:none;stroke:red;stroke-width:1px;stroke-linecap:butt;stroke-linejoin:miter;stroke-opacity:1" d="M 53.1176,750.412 61.8886,750.412 z" id="boundary" inkscape:connector-curvature="0" />
	<path style="fill:none;stroke:red;stroke-width:1px;stroke-linecap:butt;stroke-linejoin:miter;stroke-opacity:1" d="M 70.6596,746.027 61.8886,750.412 z" id="boundary" inkscape:connector-curvature="0" />
	<path style="fill:none;stroke:red;stroke-width:1px;stroke-linecap:butt;stroke-linejoin:miter;stroke-opacity:1" d="M 70.6596,746.027 78.5535,741.641 z" id="boundary" inkscape:connector-curvature="0" />
	<path style="fill:none;stroke:red;stroke-width:1px;stroke-linecap:butt;stroke-linejoin:miter;stroke-opacity:1" d="M 53.1176,750.412 44.3466,750.412 z" id="boundary" inkscape:connector-curvature="0" />
	<path style="fill:none;stroke:red;stroke-width:1px;stroke-linecap:butt;stroke-linejoin:miter;stroke-opacity:1" d="M 155.738,719.714 160.124,727.607 z" id="boundary" inkscape:connector-curvature="0" />
	<path style="fill:none;stroke:red;stroke-width:1px;stroke-linecap:butt;stroke-linejoin:miter;stroke-opacity:1" d="M 224.152,750.412 215.381,750.412 z" id="boundary" inkscape:connector-curvature="0" />
	<path style="fill:none;stroke:red;stroke-width:1px;stroke-linecap:butt;stroke-linejoin:miter;stroke-opacity:1" d="M 173.28,740.764 166.263,734.624 z" id="boundary" inkscape:connector-curvature="0" />
	<path style="fill:none;stroke:red;stroke-width:1px;stroke-linecap:butt;stroke-linejoin:miter;stroke-opacity:1" d="M 173.28,740.764 175.034,749.535 z" id="boundary" inkscape:connector-curvature="0" />
	<path style="fill:none;stroke:red;stroke-width:1px;stroke-linecap:butt;stroke-linejoin:miter;stroke-opacity:1" d="M 215.381,750.412 175.034,749.535 z" id="boundary" inkscape:connector-curvature="0" />
	<path style="fill:none;stroke:red;stroke-width:1px;stroke-linecap:butt;stroke-linejoin:miter;stroke-opacity:1" d="M 166.263,734.624 160.124,727.607 z" id="boundary" inkscape:connector-curvature="0" />
	<path style="fill:none;stroke:red;stroke-width:1px;stroke-linecap:butt;stroke-linejoin:miter;stroke-opacity:1" d="M 175.034,749.535 175.034,758.306 z" id="boundary" inkscape:connector-curvature="0" />
	<path style="fill:none;stroke:red;stroke-width:1px;stroke-linecap:butt;stroke-linejoin:miter;stroke-opacity:1" d="M 175.034,758.306 175.034,767.077 z" id="boundary" inkscape:connector-curvature="0" />
	<path style="fill:none;stroke:red;stroke-width:1px;stroke-linecap:butt;stroke-linejoin:miter;stroke-opacity:1" d="M 175.034,775.848 175.034,784.619 z" id="boundary" inkscape:connector-curvature="0" />
	<path style="fill:none;stroke:red;stroke-width:1px;stroke-linecap:butt;stroke-linejoin:miter;stroke-opacity:1" d="M 175.034,775.848 175.034,767.077 z" id="boundary" inkscape:connector-curvature="0" />
	<path style="fill:none;stroke:red;stroke-width:1px;stroke-linecap:butt;stroke-linejoin:miter;stroke-opacity:1" d="M 175.034,784.619 175.034,793.39 z" id="boundary" inkscape:connector-curvature="0" />
	<path style="fill:none;stroke:red;stroke-width:1px;stroke-linecap:butt;stroke-linejoin:miter;stroke-opacity:1" d="M 175.034,793.39 175.034,802.161 z" id="boundary" inkscape:connector-curvature="0" />
	<path style="fill:none;stroke:red;stroke-width:1px;stroke-linecap:butt;stroke-linejoin:miter;stroke-opacity:1" d="M 215.381,759.183 215.381,750.412 z" id="boundary" inkscape:connector-curvature="0" />
	<path style="fill:none;stroke:red;stroke-width:1px;stroke-linecap:butt;stroke-linejoin:miter;stroke-opacity:1" d="M 176.789,810.932 175.034,802.161 z" id="boundary" inkscape:connector-curvature="0" />
	<path style="fill:none;stroke:red;stroke-width:1px;stroke-linecap:butt;stroke-linejoin:miter;stroke-opacity:1" d="M 176.789,810.932 179.42,819.703 z" id="boundary" inkscape:connector-curvature="0" />
	<path style="fill:none;stroke:red;stroke-width:1px;stroke-linecap:butt;stroke-linejoin:miter;stroke-opacity:1" d="M 179.42,819.703 179.42,828.474 z" id="boundary" inkscape:connector-curvature="0" />
	<path style="fill:none;stroke:red;stroke-width:1px;stroke-linecap:butt;stroke-linejoin:miter;stroke-opacity:1" d="M 179.42,828.474 179.42,837.245 z" id="boundary" inkscape:connector-curvature="0" />
	<path style="fill:none;stroke:red;stroke-width:1px;stroke-linecap:butt;stroke-linejoin:miter;stroke-opacity:1" d="M 179.42,837.245 179.42,846.016 z" id="boundary" inkscape:connector-curvature="0" />
	<path style="fill:none;stroke:red;stroke-width:1px;stroke-linecap:butt;stroke-linejoin:miter;stroke-opacity:1" d="M 179.42,846.016 179.42,854.787 z" id="boundary" inkscape:connector-curvature="0" />
	<path style="fill:none;stroke:red;stroke-width:1px;stroke-linecap:butt;stroke-linejoin:miter;stroke-opacity:1" d="M 179.42,854.787 183.805,862.681 z" id="boundary" inkscape:connector-curvature="0" />
	<path style="fill:none;stroke:red;stroke-width:1px;stroke-linecap:butt;stroke-linejoin:miter;stroke-opacity:1" d="M 183.805,862.681 183.805,871.452 z" id="boundary" inkscape:connector-curvature="0" />
	<path style="fill:none;stroke:red;stroke-width:1px;stroke-linecap:butt;stroke-linejoin:miter;stroke-opacity:1" d="M 183.805,871.452 183.805,880.223 z" id="boundary" inkscape:connector-curvature="0" />
	<path style="fill:none;stroke:red;stroke-width:1px;stroke-linecap:butt;stroke-linejoin:miter;stroke-opacity:1" d="M 183.805,888.994 183.805,880.223 z" id="boundary" inkscape:connector-curvature="0" />
	<path style="fill:none;stroke:red;stroke-width:1px;stroke-linecap:butt;stroke-linejoin:miter;stroke-opacity:1" d="M 183.805,888.994 183.805,897.765 z" id="boundary" inkscape:connector-curvature="0" />
	<path style="fill:none;stroke:red;stroke-width:1px;stroke-linecap:butt;stroke-linejoin:miter;stroke-opacity:1" d="M 183.805,906.536 183.805,897.765 z" id="boundary" inkscape:connector-curvature="0" />
	<path style="fill:none;stroke:red;stroke-width:1px;stroke-linecap:butt;stroke-linejoin:miter;stroke-opacity:1" d="M 188.191,924.078 184.683,915.307 z" id="boundary" inkscape:connector-curvature="0" />
	<path style="fill:none;stroke:red;stroke-width:1px;stroke-linecap:butt;stroke-linejoin:miter;stroke-opacity:1" d="M 184.683,915.307 183.805,906.536 z" id="boundary" inkscape:connector-curvature="0" />
	<path style="fill:none;stroke:red;stroke-width:1px;stroke-linecap:butt;stroke-linejoin:miter;stroke-opacity:1" d="M 188.191,924.078 188.191,932.849 z" id="boundary" inkscape:connector-curvature="0" />
	<path style="fill:none;stroke:red;stroke-width:1px;stroke-linecap:butt;stroke-linejoin:miter;stroke-opacity:1" d="M 188.191,932.849 188.191,941.62 z" id="boundary" inkscape:connector-curvature="0" />
	<path style="fill:none;stroke:red;stroke-width:1px;stroke-linecap:butt;stroke-linejoin:miter;stroke-opacity:1" d="M 188.191,950.391 188.191,941.62 z" id="boundary" inkscape:connector-curvature="0" />
	<path style="fill:none;stroke:red;stroke-width:1px;stroke-linecap:butt;stroke-linejoin:miter;stroke-opacity:1" d="M 188.191,950.391 188.191,959.162 z" id="boundary" inkscape:connector-curvature="0" />
	<path style="fill:none;stroke:red;stroke-width:1px;stroke-linecap:butt;stroke-linejoin:miter;stroke-opacity:1" d="M 188.191,967.933 188.191,959.162 z" id="boundary" inkscape:connector-curvature="0" />
	<path style="fill:none;stroke:red;stroke-width:1px;stroke-linecap:butt;stroke-linejoin:miter;stroke-opacity:1" d="M 188.191,967.933 189.068,976.704 z" id="boundary" inkscape:connector-curvature="0" />
	<path style="fill:none;stroke:red;stroke-width:1px;stroke-linecap:butt;stroke-linejoin:miter;stroke-opacity:1" d="M 193.454,984.598 189.068,976.704 z" id="boundary" inkscape:connector-curvature="0" />
	<path style="fill:none;stroke:red;stroke-width:1px;stroke-linecap:butt;stroke-linejoin:miter;stroke-opacity:1" d="M 207.487,996 199.593,991.615 z" id="boundary" inkscape:connector-curvature="0" />
	<path style="fill:none;stroke:red;stroke-width:1px;stroke-linecap:butt;stroke-linejoin:miter;stroke-opacity:1" d="M 199.593,991.615 193.454,984.598 z" id="boundary" inkscape:connector-curvature="0" />
	<path style="fill:none;stroke:red;stroke-width:1px;stroke-linecap:butt;stroke-linejoin:miter;stroke-opacity:1" d="M 215.381,759.183 215.381,767.954 z" id="boundary" inkscape:connector-curvature="0" />
	<path style="fill:none;stroke:red;stroke-width:1px;stroke-linecap:butt;stroke-linejoin:miter;stroke-opacity:1" d="M 227.66,11.0168 234.677,4 z" id="boundary" inkscape:connector-curvature="0" />
	<path style="fill:none;stroke:red;stroke-width:1px;stroke-linecap:butt;stroke-linejoin:miter;stroke-opacity:1" d="M 234.677,4 241.694,9.2626 z" id="boundary" inkscape:connector-curvature="0" />
	<path style="fill:none;stroke:red;stroke-width:1px;stroke-linecap:butt;stroke-linejoin:miter;stroke-opacity:1" d="M 241.694,9.2626 241.694,18.0336 z" id="boundary" inkscape:connector-curvature="0" />
	<path style="fill:none;stroke:red;stroke-width:1px;stroke-linecap:butt;stroke-linejoin:miter;stroke-opacity:1" d="M 246.08,25.9275 241.694,18.0336 z" id="boundary" inkscape:connector-curvature="0" />
	<path style="fill:none;stroke:red;stroke-width:1px;stroke-linecap:butt;stroke-linejoin:miter;stroke-opacity:1" d="M 223.275,19.7878 227.66,11.0168 z" id="boundary" inkscape:connector-curvature="0" />
	<path style="fill:none;stroke:red;stroke-width:1px;stroke-linecap:butt;stroke-linejoin:miter;stroke-opacity:1" d="M 218.889,28.5588 223.275,19.7878 z" id="boundary" inkscape:connector-curvature="0" />
	<path style="fill:none;stroke:red;stroke-width:1px;stroke-linecap:butt;stroke-linejoin:miter;stroke-opacity:1" d="M 253.096,31.1901 246.08,25.9275 z" id="boundary" inkscape:connector-curvature="0" />
	<path style="fill:none;stroke:red;stroke-width:1px;stroke-linecap:butt;stroke-linejoin:miter;stroke-opacity:1" d="M 253.096,31.1901 256.605,39.9611 z" id="boundary" inkscape:connector-curvature="0" />
	<path style="fill:none;stroke:red;stroke-width:1px;stroke-linecap:butt;stroke-linejoin:miter;stroke-opacity:1" d="M 260.99,47.855 263.622,56.626 z" id="boundary" inkscape:connector-curvature="0" />
	<path style="fill:none;stroke:red;stroke-width:1px;stroke-linecap:butt;stroke-linejoin:miter;stroke-opacity:1" d="M 260.99,47.855 256.605,39.9611 z" id="boundary" inkscape:connector-curvature="0" />
	<path style="fill:none;stroke:red;stroke-width:1px;stroke-linecap:butt;stroke-linejoin:miter;stroke-opacity:1" d="M 263.622,56.626 268.007,64.5199 z" id="boundary" inkscape:connector-curvature="0" />
	<path style="fill:none;stroke:red;stroke-width:1px;stroke-linecap:butt;stroke-linejoin:miter;stroke-opacity:1" d="M 272.393,72.4138 268.007,64.5199 z" id="boundary" inkscape:connector-curvature="0" />
	<path style="fill:none;stroke:red;stroke-width:1px;stroke-linecap:butt;stroke-linejoin:miter;stroke-opacity:1" d="M 272.393,72.4138 276.778,80.3077 z" id="boundary" inkscape:connector-curvature="0" />
	<path style="fill:none;stroke:red;stroke-width:1px;stroke-linecap:butt;stroke-linejoin:miter;stroke-opacity:1" d="M 281.164,88.2016 285.549,96.0955 z" id="boundary" inkscape:connector-curvature="0" />
	<path style="fill:none;stroke:red;stroke-width:1px;stroke-linecap:butt;stroke-linejoin:miter;stroke-opacity:1" d="M 289.935,103.989 285.549,96.0955 z" id="boundary" inkscape:connector-curvature="0" />
	<path style="fill:none;stroke:red;stroke-width:1px;stroke-linecap:butt;stroke-linejoin:miter;stroke-opacity:1" d="M 281.164,88.2016 276.778,80.3077 z" id="boundary" inkscape:connector-curvature="0" />
	<path style="fill:none;stroke:red;stroke-width:1px;stroke-linecap:butt;stroke-linejoin:miter;stroke-opacity:1" d="M 294.32,111.883 289.935,103.989 z" id="boundary" inkscape:connector-curvature="0" />
	<path style="fill:none;stroke:red;stroke-width:1px;stroke-linecap:butt;stroke-linejoin:miter;stroke-opacity:1" d="M 281.164,246.08 281.164,254.851 z" id="boundary" inkscape:connector-curvature="0" />
	<path style="fill:none;stroke:red;stroke-width:1px;stroke-linecap:butt;stroke-linejoin:miter;stroke-opacity:1" d="M 281.164,263.622 281.164,254.851 z" id="boundary" inkscape:connector-curvature="0" />
	<path style="fill:none;stroke:red;stroke-width:1px;stroke-linecap:butt;stroke-linejoin:miter;stroke-opacity:1" d="M 281.164,263.622 281.164,272.393 z" id="boundary" inkscape:connector-curvature="0" />
	<path style="fill:none;stroke:red;stroke-width:1px;stroke-linecap:butt;stroke-linejoin:miter;stroke-opacity:1" d="M 281.164,281.164 281.164,272.393 z" id="boundary" inkscape:connector-curvature="0" />
	<path style="fill:none;stroke:red;stroke-width:1px;stroke-linecap:butt;stroke-linejoin:miter;stroke-opacity:1" d="M 281.164,281.164 281.164,289.935 z" id="boundary" inkscape:connector-curvature="0" />
	<path style="fill:none;stroke:red;stroke-width:1px;stroke-linecap:butt;stroke-linejoin:miter;stroke-opacity:1" d="M 281.164,298.706 285.549,306.599 z" id="boundary" inkscape:connector-curvature="0" />
	<path style="fill:none;stroke:red;stroke-width:1px;stroke-linecap:butt;stroke-linejoin:miter;stroke-opacity:1" d="M 281.164,298.706 281.164,289.935 z" id="boundary" inkscape:connector-curvature="0" />
	<path style="fill:none;stroke:red;stroke-width:1px;stroke-linecap:butt;stroke-linejoin:miter;stroke-opacity:1" d="M 289.935,314.493 285.549,306.599 z" id="boundary" inkscape:connector-curvature="0" />
	<path style="fill:none;stroke:red;stroke-width:1px;stroke-linecap:butt;stroke-linejoin:miter;stroke-opacity:1" d="M 281.164,246.08 288.18,239.94 z" id="boundary" inkscape:connector-curvature="0" />
	<path style="fill:none;stroke:red;stroke-width:1px;stroke-linecap:butt;stroke-linejoin:miter;stroke-opacity:1" d="M 289.935,314.493 289.935,323.264 z" id="boundary" inkscape:connector-curvature="0" />
	<path style="fill:none;stroke:red;stroke-width:1px;stroke-linecap:butt;stroke-linejoin:miter;stroke-opacity:1" d="M 294.32,232.923 288.18,239.94 z" id="boundary" inkscape:connector-curvature="0" />
	<path style="fill:none;stroke:red;stroke-width:1px;stroke-linecap:butt;stroke-linejoin:miter;stroke-opacity:1" d="M 294.32,232.923 301.337,226.783 z" id="boundary" inkscape:connector-curvature="0" />
	<path style="fill:none;stroke:red;stroke-width:1px;stroke-linecap:butt;stroke-linejoin:miter;stroke-opacity:1" d="M 294.32,526.752 289.935,535.523 z" id="boundary" inkscape:connector-curvature="0" />
	<path style="fill:none;stroke:red;stroke-width:1px;stroke-linecap:butt;stroke-linejoin:miter;stroke-opacity:1" d="M 289.935,544.294 289.935,535.523 z" id="boundary" inkscape:connector-curvature="0" />
	<path style="fill:none;stroke:red;stroke-width:1px;stroke-linecap:butt;stroke-linejoin:miter;stroke-opacity:1" d="M 298.706,517.981 294.32,526.752 z" id="boundary" inkscape:connector-curvature="0" />
	<path style="fill:none;stroke:red;stroke-width:1px;stroke-linecap:butt;stroke-linejoin:miter;stroke-opacity:1" d="M 289.935,323.264 296.951,329.404 z" id="boundary" inkscape:connector-curvature="0" />
	<path style="fill:none;stroke:red;stroke-width:1px;stroke-linecap:butt;stroke-linejoin:miter;stroke-opacity:1" d="M 296.951,329.404 298.706,338.175 z" id="boundary" inkscape:connector-curvature="0" />
	<path style="fill:none;stroke:red;stroke-width:1px;stroke-linecap:butt;stroke-linejoin:miter;stroke-opacity:1" d="M 289.935,553.065 289.935,544.294 z" id="boundary" inkscape:connector-curvature="0" />
	<path style="fill:none;stroke:red;stroke-width:1px;stroke-linecap:butt;stroke-linejoin:miter;stroke-opacity:1" d="M 294.32,111.883 297.828,120.654 z" id="boundary" inkscape:connector-curvature="0" />
	<path style="fill:none;stroke:red;stroke-width:1px;stroke-linecap:butt;stroke-linejoin:miter;stroke-opacity:1" d="M 297.828,120.654 302.214,128.548 z" id="boundary" inkscape:connector-curvature="0" />
	<path style="fill:none;stroke:red;stroke-width:1px;stroke-linecap:butt;stroke-linejoin:miter;stroke-opacity:1" d="M 302.214,128.548 305.722,137.319 z" id="boundary" inkscape:connector-curvature="0" />
	<path style="fill:none;stroke:red;stroke-width:1px;stroke-linecap:butt;stroke-linejoin:miter;stroke-opacity:1" d="M 307.477,146.09 307.477,154.861 z" id="boundary" inkscape:connector-curvature="0" />
	<path style="fill:none;stroke:red;stroke-width:1px;stroke-linecap:butt;stroke-linejoin:miter;stroke-opacity:1" d="M 305.722,137.319 307.477,146.09 z" id="boundary" inkscape:connector-curvature="0" />
	<path style="fill:none;stroke:red;stroke-width:1px;stroke-linecap:butt;stroke-linejoin:miter;stroke-opacity:1" d="M 303.091,346.069 298.706,338.175 z" id="boundary" inkscape:connector-curvature="0" />
	<path style="fill:none;stroke:red;stroke-width:1px;stroke-linecap:butt;stroke-linejoin:miter;stroke-opacity:1" d="M 301.337,226.783 307.477,219.767 z" id="boundary" inkscape:connector-curvature="0" />
	<path style="fill:none;stroke:red;stroke-width:1px;stroke-linecap:butt;stroke-linejoin:miter;stroke-opacity:1" d="M 311.862,181.174 311.862,189.945 z" id="boundary" inkscape:connector-curvature="0" />
	<path style="fill:none;stroke:red;stroke-width:1px;stroke-linecap:butt;stroke-linejoin:miter;stroke-opacity:1" d="M 303.091,346.069 307.477,353.963 z" id="boundary" inkscape:connector-curvature="0" />
	<path style="fill:none;stroke:red;stroke-width:1px;stroke-linecap:butt;stroke-linejoin:miter;stroke-opacity:1" d="M 310.108,163.632 307.477,154.861 z" id="boundary" inkscape:connector-curvature="0" />
	<path style="fill:none;stroke:red;stroke-width:1px;stroke-linecap:butt;stroke-linejoin:miter;stroke-opacity:1" d="M 310.108,163.632 311.862,172.403 z" id="boundary" inkscape:connector-curvature="0" />
	<path style="fill:none;stroke:red;stroke-width:1px;stroke-linecap:butt;stroke-linejoin:miter;stroke-opacity:1" d="M 311.862,172.403 311.862,181.174 z" id="boundary" inkscape:connector-curvature="0" />
	<path style="fill:none;stroke:red;stroke-width:1px;stroke-linecap:butt;stroke-linejoin:miter;stroke-opacity:1" d="M 311.862,189.945 311.862,198.716 z" id="boundary" inkscape:connector-curvature="0" />
	<path style="fill:none;stroke:red;stroke-width:1px;stroke-linecap:butt;stroke-linejoin:miter;stroke-opacity:1" d="M 311.862,361.857 307.477,353.963 z" id="boundary" inkscape:connector-curvature="0" />
	<path style="fill:none;stroke:red;stroke-width:1px;stroke-linecap:butt;stroke-linejoin:miter;stroke-opacity:1" d="M 311.862,207.487 307.477,219.767 z" id="boundary" inkscape:connector-curvature="0" />
	<path style="fill:none;stroke:red;stroke-width:1px;stroke-linecap:butt;stroke-linejoin:miter;stroke-opacity:1" d="M 311.862,207.487 311.862,198.716 z" id="boundary" inkscape:connector-curvature="0" />
	<path style="fill:none;stroke:red;stroke-width:1px;stroke-linecap:butt;stroke-linejoin:miter;stroke-opacity:1" d="M 316.248,369.751 321.51,376.767 z" id="boundary" inkscape:connector-curvature="0" />
	<path style="fill:none;stroke:red;stroke-width:1px;stroke-linecap:butt;stroke-linejoin:miter;stroke-opacity:1" d="M 328.527,382.907 321.51,376.767 z" id="boundary" inkscape:connector-curvature="0" />
	<path style="fill:none;stroke:red;stroke-width:1px;stroke-linecap:butt;stroke-linejoin:miter;stroke-opacity:1" d="M 332.035,459.215 327.65,467.986 z" id="boundary" inkscape:connector-curvature="0" />
	<path style="fill:none;stroke:red;stroke-width:1px;stroke-linecap:butt;stroke-linejoin:miter;stroke-opacity:1" d="M 327.65,467.986 323.264,476.757 z" id="boundary" inkscape:connector-curvature="0" />
	<path style="fill:none;stroke:red;stroke-width:1px;stroke-linecap:butt;stroke-linejoin:miter;stroke-opacity:1" d="M 323.264,476.757 316.248,482.897 z" id="boundary" inkscape:connector-curvature="0" />
	<path style="fill:none;stroke:red;stroke-width:1px;stroke-linecap:butt;stroke-linejoin:miter;stroke-opacity:1" d="M 298.706,517.981 303.091,509.21 z" id="boundary" inkscape:connector-curvature="0" />
	<path style="fill:none;stroke:red;stroke-width:1px;stroke-linecap:butt;stroke-linejoin:miter;stroke-opacity:1" d="M 307.477,500.439 311.862,491.668 z" id="boundary" inkscape:connector-curvature="0" />
	<path style="fill:none;stroke:red;stroke-width:1px;stroke-linecap:butt;stroke-linejoin:miter;stroke-opacity:1" d="M 316.248,482.897 311.862,491.668 z" id="boundary" inkscape:connector-curvature="0" />
	<path style="fill:none;stroke:red;stroke-width:1px;stroke-linecap:butt;stroke-linejoin:miter;stroke-opacity:1" d="M 307.477,500.439 303.091,509.21 z" id="boundary" inkscape:connector-curvature="0" />
	<path style="fill:none;stroke:red;stroke-width:1px;stroke-linecap:butt;stroke-linejoin:miter;stroke-opacity:1" d="M 311.862,361.857 316.248,369.751 z" id="boundary" inkscape:connector-curvature="0" />
	<path style="fill:none;stroke:red;stroke-width:1px;stroke-linecap:butt;stroke-linejoin:miter;stroke-opacity:1" d="M 332.035,391.678 333.79,400.449 z" id="boundary" inkscape:connector-curvature="0" />
	<path style="fill:none;stroke:red;stroke-width:1px;stroke-linecap:butt;stroke-linejoin:miter;stroke-opacity:1" d="M 332.035,391.678 328.527,382.907 z" id="boundary" inkscape:connector-curvature="0" />
	<path style="fill:none;stroke:red;stroke-width:1px;stroke-linecap:butt;stroke-linejoin:miter;stroke-opacity:1" d="M 333.79,400.449 336.421,409.22 z" id="boundary" inkscape:connector-curvature="0" />
	<path style="fill:none;stroke:red;stroke-width:1px;stroke-linecap:butt;stroke-linejoin:miter;stroke-opacity:1" d="M 340.806,417.114 336.421,409.22 z" id="boundary" inkscape:connector-curvature="0" />
	<path style="fill:none;stroke:red;stroke-width:1px;stroke-linecap:butt;stroke-linejoin:miter;stroke-opacity:1" d="M 336.421,450.444 332.035,459.215 z" id="boundary" inkscape:connector-curvature="0" />
	<path style="fill:none;stroke:red;stroke-width:1px;stroke-linecap:butt;stroke-linejoin:miter;stroke-opacity:1" d="M 338.175,434.656 336.421,450.444 z" id="boundary" inkscape:connector-curvature="0" />
	<path style="fill:none;stroke:red;stroke-width:1px;stroke-linecap:butt;stroke-linejoin:miter;stroke-opacity:1" d="M 340.806,417.114 342.561,425.885 z" id="boundary" inkscape:connector-curvature="0" />
	<path style="fill:none;stroke:red;stroke-width:1px;stroke-linecap:butt;stroke-linejoin:miter;stroke-opacity:1" d="M 342.561,425.885 338.175,434.656 z" id="boundary" inkscape:connector-curvature="0" />
	<path style="fill:none;stroke:red;stroke-width:1px;stroke-linecap:butt;stroke-linejoin:miter;stroke-opacity:1" d="M 215.381,767.954 215.381,776.725 z" id="boundary" inkscape:connector-curvature="0" />
	<path style="fill:none;stroke:red;stroke-width:1px;stroke-linecap:butt;stroke-linejoin:miter;stroke-opacity:1" d="M 215.381,785.496 215.381,776.725 z" id="boundary" inkscape:connector-curvature="0" />
	<path style="fill:none;stroke:red;stroke-width:1px;stroke-linecap:butt;stroke-linejoin:miter;stroke-opacity:1" d="M 215.381,785.496 215.381,794.267 z" id="boundary" inkscape:connector-curvature="0" />
	<path style="fill:none;stroke:red;stroke-width:1px;stroke-linecap:butt;stroke-linejoin:miter;stroke-opacity:1" d="M 219.767,802.161 215.381,794.267 z" id="boundary" inkscape:connector-curvature="0" />
	<path style="fill:none;stroke:red;stroke-width:1px;stroke-linecap:butt;stroke-linejoin:miter;stroke-opacity:1" d="M 219.767,802.161 219.767,810.932 z" id="boundary" inkscape:connector-curvature="0" />
	<path style="fill:none;stroke:red;stroke-width:1px;stroke-linecap:butt;stroke-linejoin:miter;stroke-opacity:1" d="M 219.767,819.703 219.767,828.474 z" id="boundary" inkscape:connector-curvature="0" />
	<path style="fill:none;stroke:red;stroke-width:1px;stroke-linecap:butt;stroke-linejoin:miter;stroke-opacity:1" d="M 219.767,819.703 219.767,810.932 z" id="boundary" inkscape:connector-curvature="0" />
	<path style="fill:none;stroke:red;stroke-width:1px;stroke-linecap:butt;stroke-linejoin:miter;stroke-opacity:1" d="M 219.767,828.474 219.767,837.245 z" id="boundary" inkscape:connector-curvature="0" />
	<path style="fill:none;stroke:red;stroke-width:1px;stroke-linecap:butt;stroke-linejoin:miter;stroke-opacity:1" d="M 232.923,750.412 241.694,750.412 z" id="boundary" inkscape:connector-curvature="0" />
	<path style="fill:none;stroke:red;stroke-width:1px;stroke-linecap:butt;stroke-linejoin:miter;stroke-opacity:1" d="M 232.923,750.412 224.152,750.412 z" id="boundary" inkscape:connector-curvature="0" />
	<path style="fill:none;stroke:red;stroke-width:1px;stroke-linecap:butt;stroke-linejoin:miter;stroke-opacity:1" d="M 241.694,750.412 250.465,750.412 z" id="boundary" inkscape:connector-curvature="0" />
	<path style="fill:none;stroke:red;stroke-width:1px;stroke-linecap:butt;stroke-linejoin:miter;stroke-opacity:1" d="M 250.465,750.412 258.359,754.798 z" id="boundary" inkscape:connector-curvature="0" />
	<path style="fill:none;stroke:red;stroke-width:1px;stroke-linecap:butt;stroke-linejoin:miter;stroke-opacity:1" d="M 219.767,837.245 219.767,846.016 z" id="boundary" inkscape:connector-curvature="0" />
	<path style="fill:none;stroke:red;stroke-width:1px;stroke-linecap:butt;stroke-linejoin:miter;stroke-opacity:1" d="M 224.152,853.91 219.767,846.016 z" id="boundary" inkscape:connector-curvature="0" />
	<path style="fill:none;stroke:red;stroke-width:1px;stroke-linecap:butt;stroke-linejoin:miter;stroke-opacity:1" d="M 267.13,754.798 258.359,754.798 z" id="boundary" inkscape:connector-curvature="0" />
	<path style="fill:none;stroke:red;stroke-width:1px;stroke-linecap:butt;stroke-linejoin:miter;stroke-opacity:1" d="M 224.152,862.681 224.152,853.91 z" id="boundary" inkscape:connector-curvature="0" />
	<path style="fill:none;stroke:red;stroke-width:1px;stroke-linecap:butt;stroke-linejoin:miter;stroke-opacity:1" d="M 275.901,754.798 267.13,754.798 z" id="boundary" inkscape:connector-curvature="0" />
	<path style="fill:none;stroke:red;stroke-width:1px;stroke-linecap:butt;stroke-linejoin:miter;stroke-opacity:1" d="M 224.152,871.452 224.152,880.223 z" id="boundary" inkscape:connector-curvature="0" />
	<path style="fill:none;stroke:red;stroke-width:1px;stroke-linecap:butt;stroke-linejoin:miter;stroke-opacity:1" d="M 224.152,871.452 224.152,862.681 z" id="boundary" inkscape:connector-curvature="0" />
	<path style="fill:none;stroke:red;stroke-width:1px;stroke-linecap:butt;stroke-linejoin:miter;stroke-opacity:1" d="M 224.152,888.994 224.152,897.765 z" id="boundary" inkscape:connector-curvature="0" />
	<path style="fill:none;stroke:red;stroke-width:1px;stroke-linecap:butt;stroke-linejoin:miter;stroke-opacity:1" d="M 224.152,888.994 224.152,880.223 z" id="boundary" inkscape:connector-curvature="0" />
	<path style="fill:none;stroke:red;stroke-width:1px;stroke-linecap:butt;stroke-linejoin:miter;stroke-opacity:1" d="M 228.538,931.972 228.538,940.743 z" id="boundary" inkscape:connector-curvature="0" />
	<path style="fill:none;stroke:red;stroke-width:1px;stroke-linecap:butt;stroke-linejoin:miter;stroke-opacity:1" d="M 228.538,905.659 228.538,914.43 z" id="boundary" inkscape:connector-curvature="0" />
	<path style="fill:none;stroke:red;stroke-width:1px;stroke-linecap:butt;stroke-linejoin:miter;stroke-opacity:1" d="M 224.152,897.765 228.538,905.659 z" id="boundary" inkscape:connector-curvature="0" />
	<path style="fill:none;stroke:red;stroke-width:1px;stroke-linecap:butt;stroke-linejoin:miter;stroke-opacity:1" d="M 224.152,991.615 216.258,996 z" id="boundary" inkscape:connector-curvature="0" />
	<path style="fill:none;stroke:red;stroke-width:1px;stroke-linecap:butt;stroke-linejoin:miter;stroke-opacity:1" d="M 216.258,996 207.487,996 z" id="boundary" inkscape:connector-curvature="0" />
	<path style="fill:none;stroke:red;stroke-width:1px;stroke-linecap:butt;stroke-linejoin:miter;stroke-opacity:1" d="M 228.538,914.43 228.538,923.201 z" id="boundary" inkscape:connector-curvature="0" />
	<path style="fill:none;stroke:red;stroke-width:1px;stroke-linecap:butt;stroke-linejoin:miter;stroke-opacity:1" d="M 228.538,931.972 228.538,923.201 z" id="boundary" inkscape:connector-curvature="0" />
	<path style="fill:none;stroke:red;stroke-width:1px;stroke-linecap:butt;stroke-linejoin:miter;stroke-opacity:1" d="M 228.538,940.743 228.538,949.514 z" id="boundary" inkscape:connector-curvature="0" />
	<path style="fill:none;stroke:red;stroke-width:1px;stroke-linecap:butt;stroke-linejoin:miter;stroke-opacity:1" d="M 228.538,958.285 232.046,967.056 z" id="boundary" inkscape:connector-curvature="0" />
	<path style="fill:none;stroke:red;stroke-width:1px;stroke-linecap:butt;stroke-linejoin:miter;stroke-opacity:1" d="M 228.538,958.285 228.538,949.514 z" id="boundary" inkscape:connector-curvature="0" />
	<path style="fill:none;stroke:red;stroke-width:1px;stroke-linecap:butt;stroke-linejoin:miter;stroke-opacity:1" d="M 232.923,975.827 231.169,985.475 z" id="boundary" inkscape:connector-curvature="0" />
	<path style="fill:none;stroke:red;stroke-width:1px;stroke-linecap:butt;stroke-linejoin:miter;stroke-opacity:1" d="M 231.169,985.475 224.152,991.615 z" id="boundary" inkscape:connector-curvature="0" />
	<path style="fill:none;stroke:red;stroke-width:1px;stroke-linecap:butt;stroke-linejoin:miter;stroke-opacity:1" d="M 232.046,967.056 232.923,975.827 z" id="boundary" inkscape:connector-curvature="0" />
	<path style="fill:none;stroke:red;stroke-width:1px;stroke-linecap:butt;stroke-linejoin:miter;stroke-opacity:1" d="M 289.935,570.607 291.689,579.378 z" id="boundary" inkscape:connector-curvature="0" />
	<path style="fill:none;stroke:red;stroke-width:1px;stroke-linecap:butt;stroke-linejoin:miter;stroke-opacity:1" d="M 289.935,570.607 289.935,561.836 z" id="boundary" inkscape:connector-curvature="0" />
	<path style="fill:none;stroke:red;stroke-width:1px;stroke-linecap:butt;stroke-linejoin:miter;stroke-opacity:1" d="M 311.862,619.724 314.493,628.495 z" id="boundary" inkscape:connector-curvature="0" />
	<path style="fill:none;stroke:red;stroke-width:1px;stroke-linecap:butt;stroke-linejoin:miter;stroke-opacity:1" d="M 298.706,585.517 291.689,579.378 z" id="boundary" inkscape:connector-curvature="0" />
	<path style="fill:none;stroke:red;stroke-width:1px;stroke-linecap:butt;stroke-linejoin:miter;stroke-opacity:1" d="M 289.935,561.836 289.935,553.065 z" id="boundary" inkscape:connector-curvature="0" />
	<path style="fill:none;stroke:red;stroke-width:1px;stroke-linecap:butt;stroke-linejoin:miter;stroke-opacity:1" d="M 298.706,585.517 302.214,594.288 z" id="boundary" inkscape:connector-curvature="0" />
	<path style="fill:none;stroke:red;stroke-width:1px;stroke-linecap:butt;stroke-linejoin:miter;stroke-opacity:1" d="M 306.599,602.182 302.214,594.288 z" id="boundary" inkscape:connector-curvature="0" />
	<path style="fill:none;stroke:red;stroke-width:1px;stroke-linecap:butt;stroke-linejoin:miter;stroke-opacity:1" d="M 310.108,610.953 306.599,602.182 z" id="boundary" inkscape:connector-curvature="0" />
	<path style="fill:none;stroke:red;stroke-width:1px;stroke-linecap:butt;stroke-linejoin:miter;stroke-opacity:1" d="M 310.108,610.953 311.862,619.724 z" id="boundary" inkscape:connector-curvature="0" />
	<path style="fill:none;stroke:red;stroke-width:1px;stroke-linecap:butt;stroke-linejoin:miter;stroke-opacity:1" d="M 320.633,635.512 314.493,628.495 z" id="boundary" inkscape:connector-curvature="0" />
	<path style="fill:none;stroke:red;stroke-width:1px;stroke-linecap:butt;stroke-linejoin:miter;stroke-opacity:1" d="M 320.633,635.512 320.633,644.283 z" id="boundary" inkscape:connector-curvature="0" />
	<path style="fill:none;stroke:red;stroke-width:1px;stroke-linecap:butt;stroke-linejoin:miter;stroke-opacity:1" d="M 325.019,652.177 320.633,644.283 z" id="boundary" inkscape:connector-curvature="0" />
	<path style="fill:none;stroke:red;stroke-width:1px;stroke-linecap:butt;stroke-linejoin:miter;stroke-opacity:1" d="M 329.404,660.071 332.912,668.842 z" id="boundary" inkscape:connector-curvature="0" />
	<path style="fill:none;stroke:red;stroke-width:1px;stroke-linecap:butt;stroke-linejoin:miter;stroke-opacity:1" d="M 329.404,660.071 325.019,652.177 z" id="boundary" inkscape:connector-curvature="0" />
	<path style="fill:none;stroke:red;stroke-width:1px;stroke-linecap:butt;stroke-linejoin:miter;stroke-opacity:1" d="M 349.577,689.015 342.561,683.752 z" id="boundary" inkscape:connector-curvature="0" />
	<path style="fill:none;stroke:red;stroke-width:1px;stroke-linecap:butt;stroke-linejoin:miter;stroke-opacity:1" d="M 342.561,683.752 337.298,676.736 z" id="boundary" inkscape:connector-curvature="0" />
	<path style="fill:none;stroke:red;stroke-width:1px;stroke-linecap:butt;stroke-linejoin:miter;stroke-opacity:1" d="M 337.298,676.736 332.912,668.842 z" id="boundary" inkscape:connector-curvature="0" />
	<path style="fill:none;stroke:red;stroke-width:1px;stroke-linecap:butt;stroke-linejoin:miter;stroke-opacity:1" d="M 275.901,754.798 283.795,759.183 z" id="boundary" inkscape:connector-curvature="0" />
	<path style="fill:none;stroke:red;stroke-width:1px;stroke-linecap:butt;stroke-linejoin:miter;stroke-opacity:1" d="M 332.035,757.429 340.806,753.043 z" id="boundary" inkscape:connector-curvature="0" />
	<path style="fill:none;stroke:red;stroke-width:1px;stroke-linecap:butt;stroke-linejoin:miter;stroke-opacity:1" d="M 325.019,763.569 332.035,757.429 z" id="boundary" inkscape:connector-curvature="0" />
	<path style="fill:none;stroke:red;stroke-width:1px;stroke-linecap:butt;stroke-linejoin:miter;stroke-opacity:1" d="M 346.946,746.027 340.806,753.043 z" id="boundary" inkscape:connector-curvature="0" />
	<path style="fill:none;stroke:red;stroke-width:1px;stroke-linecap:butt;stroke-linejoin:miter;stroke-opacity:1" d="M 291.689,763.569 300.46,763.569 z" id="boundary" inkscape:connector-curvature="0" />
	<path style="fill:none;stroke:red;stroke-width:1px;stroke-linecap:butt;stroke-linejoin:miter;stroke-opacity:1" d="M 300.46,763.569 308.354,767.954 z" id="boundary" inkscape:connector-curvature="0" />
	<path style="fill:none;stroke:red;stroke-width:1px;stroke-linecap:butt;stroke-linejoin:miter;stroke-opacity:1" d="M 291.689,763.569 283.795,759.183 z" id="boundary" inkscape:connector-curvature="0" />
	<path style="fill:none;stroke:red;stroke-width:1px;stroke-linecap:butt;stroke-linejoin:miter;stroke-opacity:1" d="M 308.354,767.954 316.248,763.569 z" id="boundary" inkscape:connector-curvature="0" />
	<path style="fill:none;stroke:red;stroke-width:1px;stroke-linecap:butt;stroke-linejoin:miter;stroke-opacity:1" d="M 316.248,763.569 325.019,763.569 z" id="boundary" inkscape:connector-curvature="0" />
	<path style="fill:none;stroke:red;stroke-width:1px;stroke-linecap:butt;stroke-linejoin:miter;stroke-opacity:1" d="M 357.471,705.68 353.086,697.786 z" id="boundary" inkscape:connector-curvature="0" />
	<path style="fill:none;stroke:red;stroke-width:1px;stroke-linecap:butt;stroke-linejoin:miter;stroke-opacity:1" d="M 357.471,705.68 363.611,712.697 z" id="boundary" inkscape:connector-curvature="0" />
	<path style="fill:none;stroke:red;stroke-width:1px;stroke-linecap:butt;stroke-linejoin:miter;stroke-opacity:1" d="M 372.382,716.205 363.611,712.697 z" id="boundary" inkscape:connector-curvature="0" />
	<path style="fill:none;stroke:red;stroke-width:1px;stroke-linecap:butt;stroke-linejoin:miter;stroke-opacity:1" d="M 353.086,697.786 349.577,689.015 z" id="boundary" inkscape:connector-curvature="0" />
	<path style="fill:none;stroke:red;stroke-width:1px;stroke-linecap:butt;stroke-linejoin:miter;stroke-opacity:1" d="M 346.946,746.027 353.963,739.887 z" id="boundary" inkscape:connector-curvature="0" />
	<path style="fill:none;stroke:red;stroke-width:1px;stroke-linecap:butt;stroke-linejoin:miter;stroke-opacity:1" d="M 366.242,727.607 359.225,732.87 z" id="boundary" inkscape:connector-curvature="0" />
	<path style="fill:none;stroke:red;stroke-width:1px;stroke-linecap:butt;stroke-linejoin:miter;stroke-opacity:1" d="M 359.225,732.87 353.963,739.887 z" id="boundary" inkscape:connector-curvature="0" />
	<path style="fill:none;stroke:red;stroke-width:1px;stroke-linecap:butt;stroke-linejoin:miter;stroke-opacity:1" d="M 366.242,727.607 372.382,716.205 z" id="boundary" inkscape:connector-curvature="0" />
	<circle cx="4" cy="743.395" r="4" fill="#0" id="circle0"/>
	<circle cx="9.2626" cy="750.412" r="4" fill="#0" id="circle1"/>
	<circle cx="11.0168" cy="736.378" r="4" fill="#0" id="circle2"/>
	<circle cx="17.1565" cy="725.853" r="4" fill="#0" id="circle3"/>
	<circle cx="18.0336" cy="750.412" r="4" fill="#0" id="circle4"/>
	<circle cx="21.542" cy="717.082" r="4" fill="#0" id="circle5"/>
	<circle cx="25.9275" cy="708.311" r="4" fill="#0" id="circle6"/>
	<circle cx="26.8046" cy="750.412" r="4" fill="#0" id="circle7"/>
	<circle cx="30.313" cy="699.54" r="4" fill="#0" id="circle8"/>
	<circle cx="35.5756" cy="750.412" r="4" fill="#0" id="circle9"/>
	<circle cx="37.3298" cy="692.523" r="4" fill="#0" id="circle10"/>
	<circle cx="44.3466" cy="685.507" r="4" fill="#0" id="circle11"/>
	<circle cx="44.3466" cy="750.412" r="4" fill="#0" id="circle12"/>
	<circle cx="48.7321" cy="676.736" r="4" fill="#0" id="circle13"/>
	<circle cx="53.1176" cy="667.965" r="4" fill="#0" id="circle14"/>
	<circle cx="53.1176" cy="750.412" r="4" fill="#0" id="circle15"/>
	<circle cx="57.5031" cy="659.194" r="4" fill="#0" id="circle16"/>
	<circle cx="61.8886" cy="650.423" r="4" fill="#0" id="circle17"/>
	<circle cx="61.8886" cy="750.412" r="4" fill="#0" id="circle18"/>
	<circle cx="66.2741" cy="641.652" r="4" fill="#0" id="circle19"/>
	<circle cx="70.6596" cy="746.027" r="4" fill="#0" id="circle20"/>
	<circle cx="73.2909" cy="635.512" r="4" fill="#0" id="circle21"/>
	<circle cx="74.168" cy="383.784" r="4" fill="#0" id="circle22"/>
	<circle cx="74.168" cy="392.555" r="4" fill="#0" id="circle23"/>
	<circle cx="74.168" cy="401.326" r="4" fill="#0" id="circle24"/>
	<circle cx="74.168" cy="410.097" r="4" fill="#0" id="circle25"/>
	<circle cx="74.168" cy="418.868" r="4" fill="#0" id="circle26"/>
	<circle cx="74.168" cy="427.639" r="4" fill="#0" id="circle27"/>
	<circle cx="74.168" cy="436.41" r="4" fill="#0" id="circle28"/>
	<circle cx="74.168" cy="445.181" r="4" fill="#0" id="circle29"/>
	<circle cx="78.5535" cy="375.013" r="4" fill="#0" id="circle30"/>
	<circle cx="78.5535" cy="453.075" r="4" fill="#0" id="circle31"/>
	<circle cx="78.5535" cy="741.641" r="4" fill="#0" id="circle32"/>
	<circle cx="79.4306" cy="628.495" r="4" fill="#0" id="circle33"/>
	<circle cx="82.939" cy="460.969" r="4" fill="#0" id="circle34"/>
	<circle cx="82.939" cy="469.74" r="4" fill="#0" id="circle35"/>
	<circle cx="83.8161" cy="619.724" r="4" fill="#0" id="circle36"/>
	<circle cx="85.5703" cy="367.996" r="4" fill="#0" id="circle37"/>
	<circle cx="86.4474" cy="737.256" r="4" fill="#0" id="circle38"/>
	<circle cx="87.3245" cy="477.634" r="4" fill="#0" id="circle39"/>
	<circle cx="88.2016" cy="610.953" r="4" fill="#0" id="circle40"/>
	<circle cx="89.9558" cy="359.225" r="4" fill="#0" id="circle41"/>
	<circle cx="91.71" cy="485.528" r="4" fill="#0" id="circle42"/>
	<circle cx="92.5871" cy="602.182" r="4" fill="#0" id="circle43"/>
	<circle cx="95.2184" cy="735.501" r="4" fill="#0" id="circle44"/>
	<circle cx="96.0955" cy="493.422" r="4" fill="#0" id="circle45"/>
	<circle cx="96.9726" cy="352.209" r="4" fill="#0" id="circle46"/>
	<circle cx="96.9726" cy="593.411" r="4" fill="#0" id="circle47"/>
	<circle cx="100.481" cy="501.316" r="4" fill="#0" id="circle48"/>
	<circle cx="100.481" cy="510.087" r="4" fill="#0" id="circle49"/>
	<circle cx="100.481" cy="576.746" r="4" fill="#0" id="circle50"/>
	<circle cx="101.358" cy="728.485" r="4" fill="#0" id="circle51"/>
	<circle cx="103.989" cy="346.069" r="4" fill="#0" id="circle52"/>
	<circle cx="104.866" cy="517.981" r="4" fill="#0" id="circle53"/>
	<circle cx="104.866" cy="526.752" r="4" fill="#0" id="circle54"/>
	<circle cx="104.866" cy="535.523" r="4" fill="#0" id="circle55"/>
	<circle cx="104.866" cy="544.294" r="4" fill="#0" id="circle56"/>
	<circle cx="104.866" cy="553.065" r="4" fill="#0" id="circle57"/>
	<circle cx="104.866" cy="561.836" r="4" fill="#0" id="circle58"/>
	<circle cx="110.129" cy="339.052" r="4" fill="#0" id="circle59"/>
	<circle cx="110.129" cy="724.099" r="4" fill="#0" id="circle60"/>
	<circle cx="117.146" cy="332.912" r="4" fill="#0" id="circle61"/>
	<circle cx="118.9" cy="719.714" r="4" fill="#0" id="circle62"/>
	<circle cx="123.286" cy="325.896" r="4" fill="#0" id="circle63"/>
	<circle cx="125.917" cy="713.574" r="4" fill="#0" id="circle64"/>
	<circle cx="130.302" cy="319.756" r="4" fill="#0" id="circle65"/>
	<circle cx="132.057" cy="702.172" r="4" fill="#0" id="circle66"/>
	<circle cx="135.565" cy="190.822" r="4" fill="#0" id="circle67"/>
	<circle cx="135.565" cy="199.593" r="4" fill="#0" id="circle68"/>
	<circle cx="135.565" cy="208.364" r="4" fill="#0" id="circle69"/>
	<circle cx="136.442" cy="312.739" r="4" fill="#0" id="circle70"/>
	<circle cx="139.95" cy="182.051" r="4" fill="#0" id="circle71"/>
	<circle cx="139.95" cy="216.258" r="4" fill="#0" id="circle72"/>
	<circle cx="139.95" cy="697.786" r="4" fill="#0" id="circle73"/>
	<circle cx="140.828" cy="303.968" r="4" fill="#0" id="circle74"/>
	<circle cx="144.336" cy="168.895" r="4" fill="#0" id="circle75"/>
	<circle cx="145.213" cy="295.197" r="4" fill="#0" id="circle76"/>
	<circle cx="145.213" cy="704.803" r="4" fill="#0" id="circle77"/>
	<circle cx="146.09" cy="223.275" r="4" fill="#0" id="circle78"/>
	<circle cx="149.599" cy="286.426" r="4" fill="#0" id="circle79"/>
	<circle cx="149.599" cy="712.697" r="4" fill="#0" id="circle80"/>
	<circle cx="151.353" cy="161.878" r="4" fill="#0" id="circle81"/>
	<circle cx="153.107" cy="228.538" r="4" fill="#0" id="circle82"/>
	<circle cx="153.984" cy="277.655" r="4" fill="#0" id="circle83"/>
	<circle cx="155.738" cy="153.107" r="4" fill="#0" id="circle84"/>
	<circle cx="155.738" cy="719.714" r="4" fill="#0" id="circle85"/>
	<circle cx="157.492" cy="236.431" r="4" fill="#0" id="circle86"/>
	<circle cx="157.492" cy="245.202" r="4" fill="#0" id="circle87"/>
	<circle cx="157.492" cy="253.973" r="4" fill="#0" id="circle88"/>
	<circle cx="157.492" cy="262.744" r="4" fill="#0" id="circle89"/>
	<circle cx="160.124" cy="144.336" r="4" fill="#0" id="circle90"/>
	<circle cx="160.124" cy="727.607" r="4" fill="#0" id="circle91"/>
	<circle cx="164.509" cy="135.565" r="4" fill="#0" id="circle92"/>
	<circle cx="166.263" cy="125.04" r="4" fill="#0" id="circle93"/>
	<circle cx="166.263" cy="734.624" r="4" fill="#0" id="circle94"/>
	<circle cx="173.28" cy="118.023" r="4" fill="#0" id="circle95"/>
	<circle cx="173.28" cy="740.764" r="4" fill="#0" id="circle96"/>
	<circle cx="175.034" cy="749.535" r="4" fill="#0" id="circle97"/>
	<circle cx="175.034" cy="758.306" r="4" fill="#0" id="circle98"/>
	<circle cx="175.034" cy="767.077" r="4" fill="#0" id="circle99"/>
	<circle cx="175.034" cy="775.848" r="4" fill="#0" id="circle100"/>
	<circle cx="175.034" cy="784.619" r="4" fill="#0" id="circle101"/>
	<circle cx="175.034" cy="793.39" r="4" fill="#0" id="circle102"/>
	<circle cx="175.034" cy="802.161" r="4" fill="#0" id="circle103"/>
	<circle cx="176.789" cy="810.932" r="4" fill="#0" id="circle104"/>
	<circle cx="179.42" cy="107.498" r="4" fill="#0" id="circle105"/>
	<circle cx="179.42" cy="819.703" r="4" fill="#0" id="circle106"/>
	<circle cx="179.42" cy="828.474" r="4" fill="#0" id="circle107"/>
	<circle cx="179.42" cy="837.245" r="4" fill="#0" id="circle108"/>
	<circle cx="179.42" cy="846.016" r="4" fill="#0" id="circle109"/>
	<circle cx="179.42" cy="854.787" r="4" fill="#0" id="circle110"/>
	<circle cx="183.805" cy="862.681" r="4" fill="#0" id="circle111"/>
	<circle cx="183.805" cy="871.452" r="4" fill="#0" id="circle112"/>
	<circle cx="183.805" cy="880.223" r="4" fill="#0" id="circle113"/>
	<circle cx="183.805" cy="888.994" r="4" fill="#0" id="circle114"/>
	<circle cx="183.805" cy="897.765" r="4" fill="#0" id="circle115"/>
	<circle cx="183.805" cy="906.536" r="4" fill="#0" id="circle116"/>
	<circle cx="184.683" cy="915.307" r="4" fill="#0" id="circle117"/>
	<circle cx="186.437" cy="100.481" r="4" fill="#0" id="circle118"/>
	<circle cx="188.191" cy="924.078" r="4" fill="#0" id="circle119"/>
	<circle cx="188.191" cy="932.849" r="4" fill="#0" id="circle120"/>
	<circle cx="188.191" cy="941.62" r="4" fill="#0" id="circle121"/>
	<circle cx="188.191" cy="950.391" r="4" fill="#0" id="circle122"/>
	<circle cx="188.191" cy="959.162" r="4" fill="#0" id="circle123"/>
	<circle cx="188.191" cy="967.933" r="4" fill="#0" id="circle124"/>
	<circle cx="189.068" cy="976.704" r="4" fill="#0" id="circle125"/>
	<circle cx="192.576" cy="89.9558" r="4" fill="#0" id="circle126"/>
	<circle cx="193.454" cy="984.598" r="4" fill="#0" id="circle127"/>
	<circle cx="196.962" cy="81.1848" r="4" fill="#0" id="circle128"/>
	<circle cx="199.593" cy="991.615" r="4" fill="#0" id="circle129"/>
	<circle cx="203.979" cy="74.168" r="4" fill="#0" id="circle130"/>
	<circle cx="205.733" cy="63.6428" r="4" fill="#0" id="circle131"/>
	<circle cx="207.487" cy="996" r="4" fill="#0" id="circle132"/>
	<circle cx="210.118" cy="54.8718" r="4" fill="#0" id="circle133"/>
	<circle cx="214.504" cy="37.3298" r="4" fill="#0" id="circle134"/>
	<circle cx="214.504" cy="46.1008" r="4" fill="#0" id="circle135"/>
	<circle cx="215.381" cy="750.412" r="4" fill="#0" id="circle136"/>
	<circle cx="215.381" cy="759.183" r="4" fill="#0" id="circle137"/>
	<circle cx="215.381" cy="767.954" r="4" fill="#0" id="circle138"/>
	<circle cx="215.381" cy="776.725" r="4" fill="#0" id="circle139"/>
	<circle cx="215.381" cy="785.496" r="4" fill="#0" id="circle140"/>
	<circle cx="215.381" cy="794.267" r="4" fill="#0" id="circle141"/>
	<circle cx="216.258" cy="996" r="4" fill="#0" id="circle142"/>
	<circle cx="218.889" cy="28.5588" r="4" fill="#0" id="circle143"/>
	<circle cx="219.767" cy="802.161" r="4" fill="#0" id="circle144"/>
	<circle cx="219.767" cy="810.932" r="4" fill="#0" id="circle145"/>
	<circle cx="219.767" cy="819.703" r="4" fill="#0" id="circle146"/>
	<circle cx="219.767" cy="828.474" r="4" fill="#0" id="circle147"/>
	<circle cx="219.767" cy="837.245" r="4" fill="#0" id="circle148"/>
	<circle cx="219.767" cy="846.016" r="4" fill="#0" id="circle149"/>
	<circle cx="223.275" cy="19.7878" r="4" fill="#0" id="circle150"/>
	<circle cx="224.152" cy="750.412" r="4" fill="#0" id="circle151"/>
	<circle cx="224.152" cy="853.91" r="4" fill="#0" id="circle152"/>
	<circle cx="224.152" cy="862.681" r="4" fill="#0" id="circle153"/>
	<circle cx="224.152" cy="871.452" r="4" fill="#0" id="circle154"/>
	<circle cx="224.152" cy="880.223" r="4" fill="#0" id="circle155"/>
	<circle cx="224.152" cy="888.994" r="4" fill="#0" id="circle156"/>
	<circle cx="224.152" cy="897.765" r="4" fill="#0" id="circle157"/>
	<circle cx="224.152" cy="991.615" r="4" fill="#0" id="circle158"/>
	<circle cx="227.66" cy="11.0168" r="4" fill="#0" id="circle159"/>
	<circle cx="228.538" cy="905.659" r="4" fill="#0" id="circle160"/>
	<circle cx="228.538" cy="914.43" r="4" fill="#0" id="circle161"/>
	<circle cx="228.538" cy="923.201" r="4" fill="#0" id="circle162"/>
	<circle cx="228.538" cy="931.972" r="4" fill="#0" id="circle163"/>
	<circle cx="228.538" cy="940.743" r="4" fill="#0" id="circle164"/>
	<circle cx="228.538" cy="949.514" r="4" fill="#0" id="circle165"/>
	<circle cx="228.538" cy="958.285" r="4" fill="#0" id="circle166"/>
	<circle cx="231.169" cy="985.475" r="4" fill="#0" id="circle167"/>
	<circle cx="232.046" cy="967.056" r="4" fill="#0" id="circle168"/>
	<circle cx="232.923" cy="750.412" r="4" fill="#0" id="circle169"/>
	<circle cx="232.923" cy="975.827" r="4" fill="#0" id="circle170"/>
	<circle cx="234.677" cy="4" r="4" fill="#0" id="circle171"/>
	<circle cx="241.694" cy="9.2626" r="4" fill="#0" id="circle172"/>
	<circle cx="241.694" cy="18.0336" r="4" fill="#0" id="circle173"/>
	<circle cx="241.694" cy="750.412" r="4" fill="#0" id="circle174"/>
	<circle cx="246.08" cy="25.9275" r="4" fill="#0" id="circle175"/>
	<circle cx="250.465" cy="750.412" r="4" fill="#0" id="circle176"/>
	<circle cx="253.096" cy="31.1901" r="4" fill="#0" id="circle177"/>
	<circle cx="256.605" cy="39.9611" r="4" fill="#0" id="circle178"/>
	<circle cx="258.359" cy="754.798" r="4" fill="#0" id="circle179"/>
	<circle cx="260.99" cy="47.855" r="4" fill="#0" id="circle180"/>
	<circle cx="263.622" cy="56.626" r="4" fill="#0" id="circle181"/>
	<circle cx="267.13" cy="754.798" r="4" fill="#0" id="circle182"/>
	<circle cx="268.007" cy="64.5199" r="4" fill="#0" id="circle183"/>
	<circle cx="272.393" cy="72.4138" r="4" fill="#0" id="circle184"/>
	<circle cx="275.901" cy="754.798" r="4" fill="#0" id="circle185"/>
	<circle cx="276.778" cy="80.3077" r="4" fill="#0" id="circle186"/>
	<circle cx="281.164" cy="88.2016" r="4" fill="#0" id="circle187"/>
	<circle cx="281.164" cy="246.08" r="4" fill="#0" id="circle188"/>
	<circle cx="281.164" cy="254.851" r="4" fill="#0" id="circle189"/>
	<circle cx="281.164" cy="263.622" r="4" fill="#0" id="circle190"/>
	<circle cx="281.164" cy="272.393" r="4" fill="#0" id="circle191"/>
	<circle cx="281.164" cy="281.164" r="4" fill="#0" id="circle192"/>
	<circle cx="281.164" cy="289.935" r="4" fill="#0" id="circle193"/>
	<circle cx="281.164" cy="298.706" r="4" fill="#0" id="circle194"/>
	<circle cx="283.795" cy="759.183" r="4" fill="#0" id="circle195"/>
	<circle cx="285.549" cy="96.0955" r="4" fill="#0" id="circle196"/>
	<circle cx="285.549" cy="306.599" r="4" fill="#0" id="circle197"/>
	<circle cx="288.18" cy="239.94" r="4" fill="#0" id="circle198"/>
	<circle cx="289.935" cy="103.989" r="4" fill="#0" id="circle199"/>
	<circle cx="289.935" cy="314.493" r="4" fill="#0" id="circle200"/>
	<circle cx="289.935" cy="323.264" r="4" fill="#0" id="circle201"/>
	<circle cx="289.935" cy="535.523" r="4" fill="#0" id="circle202"/>
	<circle cx="289.935" cy="544.294" r="4" fill="#0" id="circle203"/>
	<circle cx="289.935" cy="553.065" r="4" fill="#0" id="circle204"/>
	<circle cx="289.935" cy="561.836" r="4" fill="#0" id="circle205"/>
	<circle cx="289.935" cy="570.607" r="4" fill="#0" id="circle206"/>
	<circle cx="291.689" cy="579.378" r="4" fill="#0" id="circle207"/>
	<circle cx="291.689" cy="763.569" r="4" fill="#0" id="circle208"/>
	<circle cx="294.32" cy="111.883" r="4" fill="#0" id="circle209"/>
	<circle cx="294.32" cy="232.923" r="4" fill="#0" id="circle210"/>
	<circle cx="294.32" cy="526.752" r="4" fill="#0" id="circle211"/>
	<circle cx="296.951" cy="329.404" r="4" fill="#0" id="circle212"/>
	<circle cx="297.828" cy="120.654" r="4" fill="#0" id="circle213"/>
	<circle cx="298.706" cy="338.175" r="4" fill="#0" id="circle214"/>
	<circle cx="298.706" cy="517.981" r="4" fill="#0" id="circle215"/>
	<circle cx="298.706" cy="585.517" r="4" fill="#0" id="circle216"/>
	<circle cx="300.46" cy="763.569" r="4" fill="#0" id="circle217"/>
	<circle cx="301.337" cy="226.783" r="4" fill="#0" id="circle218"/>
	<circle cx="302.214" cy="128.548" r="4" fill="#0" id="circle219"/>
	<circle cx="302.214" cy="594.288" r="4" fill="#0" id="circle220"/>
	<circle cx="303.091" cy="346.069" r="4" fill="#0" id="circle221"/>
	<circle cx="303.091" cy="509.21" r="4" fill="#0" id="circle222"/>
	<circle cx="305.722" cy="137.319" r="4" fill="#0" id="circle223"/>
	<circle cx="306.599" cy="602.182" r="4" fill="#0" id="circle224"/>
	<circle cx="307.477" cy="146.09" r="4" fill="#0" id="circle225"/>
	<circle cx="307.477" cy="154.861" r="4" fill="#0" id="circle226"/>
	<circle cx="307.477" cy="219.767" r="4" fill="#0" id="circle227"/>
	<circle cx="307.477" cy="353.963" r="4" fill="#0" id="circle228"/>
	<circle cx="307.477" cy="500.439" r="4" fill="#0" id="circle229"/>
	<circle cx="308.354" cy="767.954" r="4" fill="#0" id="circle230"/>
	<circle cx="310.108" cy="163.632" r="4" fill="#0" id="circle231"/>
	<circle cx="310.108" cy="610.953" r="4" fill="#0" id="circle232"/>
	<circle cx="311.862" cy="172.403" r="4" fill="#0" id="circle233"/>
	<circle cx="311.862" cy="181.174" r="4" fill="#0" id="circle234"/>
	<circle cx="311.862" cy="189.945" r="4" fill="#0" id="circle235"/>
	<circle cx="311.862" cy="198.716" r="4" fill="#0" id="circle236"/>
	<circle cx="311.862" cy="207.487" r="4" fill="#0" id="circle237"/>
	<circle cx="311.862" cy="361.857" r="4" fill="#0" id="circle238"/>
	<circle cx="311.862" cy="491.668" r="4" fill="#0" id="circle239"/>
	<circle cx="311.862" cy="619.724" r="4" fill="#0" id="circle240"/>
	<circle cx="314.493" cy="628.495" r="4" fill="#0" id="circle241"/>
	<circle cx="316.248" cy="369.751" r="4" fill="#0" id="circle242"/>
	<circle cx="316.248" cy="482.897" r="4" fill="#0" id="circle243"/>
	<circle cx="316.248" cy="763.569" r="4" fill="#0" id="circle244"/>
	<circle cx="320.633" cy="635.512" r="4" fill="#0" id="circle245"/>
	<circle cx="320.633" cy="644.283" r="4" fill="#0" id="circle246"/>
	<circle cx="321.51" cy="376.767" r="4" fill="#0" id="circle247"/>
	<circle cx="323.264" cy="476.757" r="4" fill="#0" id="circle248"/>
	<circle cx="325.019" cy="652.177" r="4" fill="#0" id="circle249"/>
	<circle cx="325.019" cy="763.569" r="4" fill="#0" id="circle250"/>
	<circle cx="327.65" cy="467.986" r="4" fill="#0" id="circle251"/>
	<circle cx="328.527" cy="382.907" r="4" fill="#0" id="circle252"/>
	<circle cx="329.404" cy="660.071" r="4" fill="#0" id="circle253"/>
	<circle cx="332.035" cy="391.678" r="4" fill="#0" id="circle254"/>
	<circle cx="332.035" cy="459.215" r="4" fill="#0" id="circle255"/>
	<circle cx="332.035" cy="757.429" r="4" fill="#0" id="circle256"/>
	<circle cx="332.912" cy="668.842" r="4" fill="#0" id="circle257"/>
	<circle cx="333.79" cy="400.449" r="4" fill="#0" id="circle258"/>
	<circle cx="336.421" cy="409.22" r="4" fill="#0" id="circle259"/>
	<circle cx="336.421" cy="450.444" r="4" fill="#0" id="circle260"/>
	<circle cx="337.298" cy="676.736" r="4" fill="#0" id="circle261"/>
	<circle cx="338.175" cy="434.656" r="4" fill="#0" id="circle262"/>
	<circle cx="340.806" cy="417.114" r="4" fill="#0" id="circle263"/>
	<circle cx="340.806" cy="753.043" r="4" fill="#0" id="circle264"/>
	<circle cx="342.561" cy="425.885" r="4" fill="#0" id="circle265"/>
	<circle cx="342.561" cy="683.752" r="4" fill="#0" id="circle266"/>
	<circle cx="346.946" cy="746.027" r="4" fill="#0" id="circle267"/>
	<circle cx="349.577" cy="689.015" r="4" fill="#0" id="circle268"/>
	<circle cx="353.086" cy="697.786" r="4" fill="#0" id="circle269"/>
	<circle cx="353.963" cy="739.887" r="4" fill="#0" id="circle270"/>
	<circle cx="357.471" cy="705.68" r="4" fill="#0" id="circle271"/>
	<circle cx="359.225" cy="732.87" r="4" fill="#0" id="circle272"/>
	<circle cx="363.611" cy="712.697" r="4" fill="#0" id="circle273"/>
	<circle cx="366.242" cy="727.607" r="4" fill="#0" id="circle274"/>
	<circle cx="372.382" cy="716.205" r="4" fill="#0" id="circle275"/>
	</g>
</svg>