<?xml version="1.0" encoding="UTF-8" standalone="no"?>
<!-- Created with CurveBenchmark -->
<svg
	xmlns:dc="http://purl.org/dc/elements/1.1/"
	xmlns:cc="http://creativecommons.org/ns#"
	xmlns:rdf="http://www.w3.org/1999/02/22-rdf-syntax-ns#"
	xmlns:svg="http://www.w3.org/2000/svg"
	xmlns="http://www.w3.org/2000/svg"
	xmlns:sodipodi="http://sodipodi.sourceforge.net/DTD/sodipodi-0.dtd"
	xmlns:inkscape="http://www.inkscape.org/namespaces/inkscape"
	width="1000"
	height="1000"
	id="svg2"
	version="1.1"
	sodipodi:docname="manifold/nncrust-fish-16.png.txt">
<defs
	id="defs4" />
<metadata
	id="metadata7">
	<rdf:RDF>
		<cc:Work
			rdf:about="">
			<dc:format>image/svg+xml</dc:format>
			<dc:type
				rdf:resource="http://purl.org/dc/dcmitype/StillImage" />
			<dc:title></dc:title>
		</cc:Work>
	</rdf:RDF>
</metadata>
<g
	inkscape:label="Layer 1"
	inkscape:groupmode="layer"
	id="layer1">
	<path style="fill:none;stroke:red;stroke-width:1px;stroke-linecap:butt;stroke-linejoin:miter;stroke-opacity:1" d="M 41.8375,147.947 50.063,145.479 z" id="boundary" inkscape:connector-curvature="0" />
	<path style="fill:none;stroke:red;stroke-width:1px;stroke-linecap:butt;stroke-linejoin:miter;stroke-opacity:1" d="M 50.063,145.479 58.2886,146.302 z" id="boundary" inkscape:connector-curvature="0" />
	<path style="fill:none;stroke:red;stroke-width:1px;stroke-linecap:butt;stroke-linejoin:miter;stroke-opacity:1" d="M 34.4345,152.06 41.8375,147.947 z" id="boundary" inkscape:connector-curvature="0" />
	<path style="fill:none;stroke:red;stroke-width:1px;stroke-linecap:butt;stroke-linejoin:miter;stroke-opacity:1" d="M 66.5141,147.947 58.2886,146.302 z" id="boundary" inkscape:connector-curvature="0" />
	<path style="fill:none;stroke:red;stroke-width:1px;stroke-linecap:butt;stroke-linejoin:miter;stroke-opacity:1" d="M 74.7396,147.947 66.5141,147.947 z" id="boundary" inkscape:connector-curvature="0" />
	<path style="fill:none;stroke:red;stroke-width:1px;stroke-linecap:butt;stroke-linejoin:miter;stroke-opacity:1" d="M 27.0315,156.172 34.4345,152.06 z" id="boundary" inkscape:connector-curvature="0" />
	<path style="fill:none;stroke:red;stroke-width:1px;stroke-linecap:butt;stroke-linejoin:miter;stroke-opacity:1" d="M 20.4511,162.753 27.0315,156.172 z" id="boundary" inkscape:connector-curvature="0" />
	<path style="fill:none;stroke:red;stroke-width:1px;stroke-linecap:butt;stroke-linejoin:miter;stroke-opacity:1" d="M 91.1907,152.06 82.9652,150.415 z" id="boundary" inkscape:connector-curvature="0" />
	<path style="fill:none;stroke:red;stroke-width:1px;stroke-linecap:butt;stroke-linejoin:miter;stroke-opacity:1" d="M 82.9652,150.415 74.7396,147.947 z" id="boundary" inkscape:connector-curvature="0" />
	<path style="fill:none;stroke:red;stroke-width:1px;stroke-linecap:butt;stroke-linejoin:miter;stroke-opacity:1" d="M 91.1907,152.06 98.5937,156.172 z" id="boundary" inkscape:connector-curvature="0" />
	<path style="fill:none;stroke:red;stroke-width:1px;stroke-linecap:butt;stroke-linejoin:miter;stroke-opacity:1" d="M 168.511,125.738 172.624,113.4 z" id="boundary" inkscape:connector-curvature="0" />
	<path style="fill:none;stroke:red;stroke-width:1px;stroke-linecap:butt;stroke-linejoin:miter;stroke-opacity:1" d="M 172.624,113.4 180.849,109.287 z" id="boundary" inkscape:connector-curvature="0" />
	<path style="fill:none;stroke:red;stroke-width:1px;stroke-linecap:butt;stroke-linejoin:miter;stroke-opacity:1" d="M 180.849,109.287 189.075,105.174 z" id="boundary" inkscape:connector-curvature="0" />
	<path style="fill:none;stroke:red;stroke-width:1px;stroke-linecap:butt;stroke-linejoin:miter;stroke-opacity:1" d="M 204.703,98.5937 197.3,102.706 z" id="boundary" inkscape:connector-curvature="0" />
	<path style="fill:none;stroke:red;stroke-width:1px;stroke-linecap:butt;stroke-linejoin:miter;stroke-opacity:1" d="M 197.3,102.706 189.075,105.174 z" id="boundary" inkscape:connector-curvature="0" />
	<path style="fill:none;stroke:red;stroke-width:1px;stroke-linecap:butt;stroke-linejoin:miter;stroke-opacity:1" d="M 168.511,133.964 168.511,125.738 z" id="boundary" inkscape:connector-curvature="0" />
	<path style="fill:none;stroke:red;stroke-width:1px;stroke-linecap:butt;stroke-linejoin:miter;stroke-opacity:1" d="M 105.997,160.285 98.5937,156.172 z" id="boundary" inkscape:connector-curvature="0" />
	<path style="fill:none;stroke:red;stroke-width:1px;stroke-linecap:butt;stroke-linejoin:miter;stroke-opacity:1" d="M 168.511,133.964 168.511,142.189 z" id="boundary" inkscape:connector-curvature="0" />
	<path style="fill:none;stroke:red;stroke-width:1px;stroke-linecap:butt;stroke-linejoin:miter;stroke-opacity:1" d="M 172.624,149.592 168.511,142.189 z" id="boundary" inkscape:connector-curvature="0" />
	<path style="fill:none;stroke:red;stroke-width:1px;stroke-linecap:butt;stroke-linejoin:miter;stroke-opacity:1" d="M 176.736,156.995 172.624,149.592 z" id="boundary" inkscape:connector-curvature="0" />
	<path style="fill:none;stroke:red;stroke-width:1px;stroke-linecap:butt;stroke-linejoin:miter;stroke-opacity:1" d="M 14.6932,172.624 20.4511,162.753 z" id="boundary" inkscape:connector-curvature="0" />
	<path style="fill:none;stroke:red;stroke-width:1px;stroke-linecap:butt;stroke-linejoin:miter;stroke-opacity:1" d="M 113.4,164.398 121.625,164.398 z" id="boundary" inkscape:connector-curvature="0" />
	<path style="fill:none;stroke:red;stroke-width:1px;stroke-linecap:butt;stroke-linejoin:miter;stroke-opacity:1" d="M 121.625,164.398 129.028,168.511 z" id="boundary" inkscape:connector-curvature="0" />
	<path style="fill:none;stroke:red;stroke-width:1px;stroke-linecap:butt;stroke-linejoin:miter;stroke-opacity:1" d="M 113.4,164.398 105.997,160.285 z" id="boundary" inkscape:connector-curvature="0" />
	<path style="fill:none;stroke:red;stroke-width:1px;stroke-linecap:butt;stroke-linejoin:miter;stroke-opacity:1" d="M 137.254,168.511 129.028,168.511 z" id="boundary" inkscape:connector-curvature="0" />
	<path style="fill:none;stroke:red;stroke-width:1px;stroke-linecap:butt;stroke-linejoin:miter;stroke-opacity:1" d="M 4,195.655 4,187.43 z" id="boundary" inkscape:connector-curvature="0" />
	<path style="fill:none;stroke:red;stroke-width:1px;stroke-linecap:butt;stroke-linejoin:miter;stroke-opacity:1" d="M 4,187.43 10.5804,180.849 z" id="boundary" inkscape:connector-curvature="0" />
	<path style="fill:none;stroke:red;stroke-width:1px;stroke-linecap:butt;stroke-linejoin:miter;stroke-opacity:1" d="M 10.5804,180.849 14.6932,172.624 z" id="boundary" inkscape:connector-curvature="0" />
	<path style="fill:none;stroke:red;stroke-width:1px;stroke-linecap:butt;stroke-linejoin:miter;stroke-opacity:1" d="M 4,203.881 4,195.655 z" id="boundary" inkscape:connector-curvature="0" />
	<path style="fill:none;stroke:red;stroke-width:1px;stroke-linecap:butt;stroke-linejoin:miter;stroke-opacity:1" d="M 137.254,168.511 144.657,172.624 z" id="boundary" inkscape:connector-curvature="0" />
	<path style="fill:none;stroke:red;stroke-width:1px;stroke-linecap:butt;stroke-linejoin:miter;stroke-opacity:1" d="M 144.657,172.624 152.882,172.624 z" id="boundary" inkscape:connector-curvature="0" />
	<path style="fill:none;stroke:red;stroke-width:1px;stroke-linecap:butt;stroke-linejoin:miter;stroke-opacity:1" d="M 152.882,172.624 160.285,176.736 z" id="boundary" inkscape:connector-curvature="0" />
	<path style="fill:none;stroke:red;stroke-width:1px;stroke-linecap:butt;stroke-linejoin:miter;stroke-opacity:1" d="M 167.688,180.849 160.285,176.736 z" id="boundary" inkscape:connector-curvature="0" />
	<path style="fill:none;stroke:red;stroke-width:1px;stroke-linecap:butt;stroke-linejoin:miter;stroke-opacity:1" d="M 187.43,168.511 179.204,165.221 z" id="boundary" inkscape:connector-curvature="0" />
	<path style="fill:none;stroke:red;stroke-width:1px;stroke-linecap:butt;stroke-linejoin:miter;stroke-opacity:1" d="M 179.204,165.221 176.736,156.995 z" id="boundary" inkscape:connector-curvature="0" />
	<path style="fill:none;stroke:red;stroke-width:1px;stroke-linecap:butt;stroke-linejoin:miter;stroke-opacity:1" d="M 167.688,180.849 175.914,181.672 z" id="boundary" inkscape:connector-curvature="0" />
	<path style="fill:none;stroke:red;stroke-width:1px;stroke-linecap:butt;stroke-linejoin:miter;stroke-opacity:1" d="M 175.914,181.672 184.139,184.962 z" id="boundary" inkscape:connector-curvature="0" />
	<path style="fill:none;stroke:red;stroke-width:1px;stroke-linecap:butt;stroke-linejoin:miter;stroke-opacity:1" d="M 190.72,176.736 192.365,184.962 z" id="boundary" inkscape:connector-curvature="0" />
	<path style="fill:none;stroke:red;stroke-width:1px;stroke-linecap:butt;stroke-linejoin:miter;stroke-opacity:1" d="M 192.365,184.962 184.139,184.962 z" id="boundary" inkscape:connector-curvature="0" />
	<path style="fill:none;stroke:red;stroke-width:1px;stroke-linecap:butt;stroke-linejoin:miter;stroke-opacity:1" d="M 276.265,82.1426 192.365,184.962 z" id="boundary" inkscape:connector-curvature="0" />
	<path style="fill:none;stroke:red;stroke-width:1px;stroke-linecap:butt;stroke-linejoin:miter;stroke-opacity:1" d="M 184.139,184.962 183.317,243.363 z" id="boundary" inkscape:connector-curvature="0" />
	<path style="fill:none;stroke:red;stroke-width:1px;stroke-linecap:butt;stroke-linejoin:miter;stroke-opacity:1" d="M 187.43,168.511 190.72,176.736 z" id="boundary" inkscape:connector-curvature="0" />
	<path style="fill:none;stroke:red;stroke-width:1px;stroke-linecap:butt;stroke-linejoin:miter;stroke-opacity:1" d="M 314.925,69.8043 323.151,69.8043 z" id="boundary" inkscape:connector-curvature="0" />
	<path style="fill:none;stroke:red;stroke-width:1px;stroke-linecap:butt;stroke-linejoin:miter;stroke-opacity:1" d="M 307.522,73.9171 314.925,69.8043 z" id="boundary" inkscape:connector-curvature="0" />
	<path style="fill:none;stroke:red;stroke-width:1px;stroke-linecap:butt;stroke-linejoin:miter;stroke-opacity:1" d="M 331.376,69.8043 339.602,69.8043 z" id="boundary" inkscape:connector-curvature="0" />
	<path style="fill:none;stroke:red;stroke-width:1px;stroke-linecap:butt;stroke-linejoin:miter;stroke-opacity:1" d="M 331.376,69.8043 323.151,69.8043 z" id="boundary" inkscape:connector-curvature="0" />
	<path style="fill:none;stroke:red;stroke-width:1px;stroke-linecap:butt;stroke-linejoin:miter;stroke-opacity:1" d="M 339.602,69.8043 347.828,69.8043 z" id="boundary" inkscape:connector-curvature="0" />
	<path style="fill:none;stroke:red;stroke-width:1px;stroke-linecap:butt;stroke-linejoin:miter;stroke-opacity:1" d="M 356.053,69.8043 347.828,69.8043 z" id="boundary" inkscape:connector-curvature="0" />
	<path style="fill:none;stroke:red;stroke-width:1px;stroke-linecap:butt;stroke-linejoin:miter;stroke-opacity:1" d="M 356.053,69.8043 364.279,69.8043 z" id="boundary" inkscape:connector-curvature="0" />
	<path style="fill:none;stroke:red;stroke-width:1px;stroke-linecap:butt;stroke-linejoin:miter;stroke-opacity:1" d="M 372.504,69.8043 364.279,69.8043 z" id="boundary" inkscape:connector-curvature="0" />
	<path style="fill:none;stroke:red;stroke-width:1px;stroke-linecap:butt;stroke-linejoin:miter;stroke-opacity:1" d="M 380.73,69.8043 372.504,69.8043 z" id="boundary" inkscape:connector-curvature="0" />
	<path style="fill:none;stroke:red;stroke-width:1px;stroke-linecap:butt;stroke-linejoin:miter;stroke-opacity:1" d="M 380.73,69.8043 388.955,69.8043 z" id="boundary" inkscape:connector-curvature="0" />
	<path style="fill:none;stroke:red;stroke-width:1px;stroke-linecap:butt;stroke-linejoin:miter;stroke-opacity:1" d="M 397.181,69.8043 388.955,69.8043 z" id="boundary" inkscape:connector-curvature="0" />
	<path style="fill:none;stroke:red;stroke-width:1px;stroke-linecap:butt;stroke-linejoin:miter;stroke-opacity:1" d="M 397.181,69.8043 405.406,69.8043 z" id="boundary" inkscape:connector-curvature="0" />
	<path style="fill:none;stroke:red;stroke-width:1px;stroke-linecap:butt;stroke-linejoin:miter;stroke-opacity:1" d="M 413.632,69.8043 405.406,69.8043 z" id="boundary" inkscape:connector-curvature="0" />
	<path style="fill:none;stroke:red;stroke-width:1px;stroke-linecap:butt;stroke-linejoin:miter;stroke-opacity:1" d="M 421.857,69.8043 413.632,69.8043 z" id="boundary" inkscape:connector-curvature="0" />
	<path style="fill:none;stroke:red;stroke-width:1px;stroke-linecap:butt;stroke-linejoin:miter;stroke-opacity:1" d="M 430.083,69.8043 438.308,69.8043 z" id="boundary" inkscape:connector-curvature="0" />
	<path style="fill:none;stroke:red;stroke-width:1px;stroke-linecap:butt;stroke-linejoin:miter;stroke-opacity:1" d="M 446.534,69.8043 454.76,69.8043 z" id="boundary" inkscape:connector-curvature="0" />
	<path style="fill:none;stroke:red;stroke-width:1px;stroke-linecap:butt;stroke-linejoin:miter;stroke-opacity:1" d="M 462.985,69.8043 454.76,69.8043 z" id="boundary" inkscape:connector-curvature="0" />
	<path style="fill:none;stroke:red;stroke-width:1px;stroke-linecap:butt;stroke-linejoin:miter;stroke-opacity:1" d="M 446.534,69.8043 438.308,69.8043 z" id="boundary" inkscape:connector-curvature="0" />
	<path style="fill:none;stroke:red;stroke-width:1px;stroke-linecap:butt;stroke-linejoin:miter;stroke-opacity:1" d="M 430.083,69.8043 421.857,69.8043 z" id="boundary" inkscape:connector-curvature="0" />
	<path style="fill:none;stroke:red;stroke-width:1px;stroke-linecap:butt;stroke-linejoin:miter;stroke-opacity:1" d="M 243.363,86.2554 235.138,86.2554 z" id="boundary" inkscape:connector-curvature="0" />
	<path style="fill:none;stroke:red;stroke-width:1px;stroke-linecap:butt;stroke-linejoin:miter;stroke-opacity:1" d="M 251.589,83.7877 243.363,86.2554 z" id="boundary" inkscape:connector-curvature="0" />
	<path style="fill:none;stroke:red;stroke-width:1px;stroke-linecap:butt;stroke-linejoin:miter;stroke-opacity:1" d="M 259.814,82.1426 251.589,83.7877 z" id="boundary" inkscape:connector-curvature="0" />
	<path style="fill:none;stroke:red;stroke-width:1px;stroke-linecap:butt;stroke-linejoin:miter;stroke-opacity:1" d="M 259.814,82.1426 268.04,82.1426 z" id="boundary" inkscape:connector-curvature="0" />
	<path style="fill:none;stroke:red;stroke-width:1px;stroke-linecap:butt;stroke-linejoin:miter;stroke-opacity:1" d="M 276.265,82.1426 268.04,82.1426 z" id="boundary" inkscape:connector-curvature="0" />
	<path style="fill:none;stroke:red;stroke-width:1px;stroke-linecap:butt;stroke-linejoin:miter;stroke-opacity:1" d="M 283.668,78.0299 276.265,82.1426 z" id="boundary" inkscape:connector-curvature="0" />
	<path style="fill:none;stroke:red;stroke-width:1px;stroke-linecap:butt;stroke-linejoin:miter;stroke-opacity:1" d="M 204.703,98.5937 212.106,94.4809 z" id="boundary" inkscape:connector-curvature="0" />
	<path style="fill:none;stroke:red;stroke-width:1px;stroke-linecap:butt;stroke-linejoin:miter;stroke-opacity:1" d="M 235.138,86.2554 227.735,90.3682 z" id="boundary" inkscape:connector-curvature="0" />
	<path style="fill:none;stroke:red;stroke-width:1px;stroke-linecap:butt;stroke-linejoin:miter;stroke-opacity:1" d="M 227.735,90.3682 219.509,90.3682 z" id="boundary" inkscape:connector-curvature="0" />
	<path style="fill:none;stroke:red;stroke-width:1px;stroke-linecap:butt;stroke-linejoin:miter;stroke-opacity:1" d="M 212.106,94.4809 219.509,90.3682 z" id="boundary" inkscape:connector-curvature="0" />
	<path style="fill:none;stroke:red;stroke-width:1px;stroke-linecap:butt;stroke-linejoin:miter;stroke-opacity:1" d="M 299.297,73.9171 307.522,73.9171 z" id="boundary" inkscape:connector-curvature="0" />
	<path style="fill:none;stroke:red;stroke-width:1px;stroke-linecap:butt;stroke-linejoin:miter;stroke-opacity:1" d="M 291.894,78.0299 299.297,73.9171 z" id="boundary" inkscape:connector-curvature="0" />
	<path style="fill:none;stroke:red;stroke-width:1px;stroke-linecap:butt;stroke-linejoin:miter;stroke-opacity:1" d="M 471.211,69.8043 479.436,69.8043 z" id="boundary" inkscape:connector-curvature="0" />
	<path style="fill:none;stroke:red;stroke-width:1px;stroke-linecap:butt;stroke-linejoin:miter;stroke-opacity:1" d="M 479.436,69.8043 486.839,73.9171 z" id="boundary" inkscape:connector-curvature="0" />
	<path style="fill:none;stroke:red;stroke-width:1px;stroke-linecap:butt;stroke-linejoin:miter;stroke-opacity:1" d="M 495.065,73.9171 486.839,73.9171 z" id="boundary" inkscape:connector-curvature="0" />
	<path style="fill:none;stroke:red;stroke-width:1px;stroke-linecap:butt;stroke-linejoin:miter;stroke-opacity:1" d="M 462.985,69.8043 471.211,69.8043 z" id="boundary" inkscape:connector-curvature="0" />
	<path style="fill:none;stroke:red;stroke-width:1px;stroke-linecap:butt;stroke-linejoin:miter;stroke-opacity:1" d="M 283.668,78.0299 291.894,78.0299 z" id="boundary" inkscape:connector-curvature="0" />
	<path style="fill:none;stroke:red;stroke-width:1px;stroke-linecap:butt;stroke-linejoin:miter;stroke-opacity:1" d="M 503.29,73.9171 495.065,73.9171 z" id="boundary" inkscape:connector-curvature="0" />
	<path style="fill:none;stroke:red;stroke-width:1px;stroke-linecap:butt;stroke-linejoin:miter;stroke-opacity:1" d="M 511.516,73.9171 503.29,73.9171 z" id="boundary" inkscape:connector-curvature="0" />
	<path style="fill:none;stroke:red;stroke-width:1px;stroke-linecap:butt;stroke-linejoin:miter;stroke-opacity:1" d="M 4,212.106 4,203.881 z" id="boundary" inkscape:connector-curvature="0" />
	<path style="fill:none;stroke:red;stroke-width:1px;stroke-linecap:butt;stroke-linejoin:miter;stroke-opacity:1" d="M 4,228.557 4,220.332 z" id="boundary" inkscape:connector-curvature="0" />
	<path style="fill:none;stroke:red;stroke-width:1px;stroke-linecap:butt;stroke-linejoin:miter;stroke-opacity:1" d="M 8.11277,235.96 4,228.557 z" id="boundary" inkscape:connector-curvature="0" />
	<path style="fill:none;stroke:red;stroke-width:1px;stroke-linecap:butt;stroke-linejoin:miter;stroke-opacity:1" d="M 4,220.332 4,212.106 z" id="boundary" inkscape:connector-curvature="0" />
	<path style="fill:none;stroke:red;stroke-width:1px;stroke-linecap:butt;stroke-linejoin:miter;stroke-opacity:1" d="M 8.11277,235.96 8.11277,244.186 z" id="boundary" inkscape:connector-curvature="0" />
	<path style="fill:none;stroke:red;stroke-width:1px;stroke-linecap:butt;stroke-linejoin:miter;stroke-opacity:1" d="M 12.2255,251.589 8.11277,244.186 z" id="boundary" inkscape:connector-curvature="0" />
	<path style="fill:none;stroke:red;stroke-width:1px;stroke-linecap:butt;stroke-linejoin:miter;stroke-opacity:1" d="M 12.2255,259.814 12.2255,251.589 z" id="boundary" inkscape:connector-curvature="0" />
	<path style="fill:none;stroke:red;stroke-width:1px;stroke-linecap:butt;stroke-linejoin:miter;stroke-opacity:1" d="M 17.1609,266.395 12.2255,259.814 z" id="boundary" inkscape:connector-curvature="0" />
	<path style="fill:none;stroke:red;stroke-width:1px;stroke-linecap:butt;stroke-linejoin:miter;stroke-opacity:1" d="M 160.285,251.589 152.06,251.589 z" id="boundary" inkscape:connector-curvature="0" />
	<path style="fill:none;stroke:red;stroke-width:1px;stroke-linecap:butt;stroke-linejoin:miter;stroke-opacity:1" d="M 167.688,247.476 160.285,251.589 z" id="boundary" inkscape:connector-curvature="0" />
	<path style="fill:none;stroke:red;stroke-width:1px;stroke-linecap:butt;stroke-linejoin:miter;stroke-opacity:1" d="M 183.317,251.589 175.914,247.476 z" id="boundary" inkscape:connector-curvature="0" />
	<path style="fill:none;stroke:red;stroke-width:1px;stroke-linecap:butt;stroke-linejoin:miter;stroke-opacity:1" d="M 183.317,243.363 183.317,251.589 z" id="boundary" inkscape:connector-curvature="0" />
	<path style="fill:none;stroke:red;stroke-width:1px;stroke-linecap:butt;stroke-linejoin:miter;stroke-opacity:1" d="M 175.914,247.476 167.688,247.476 z" id="boundary" inkscape:connector-curvature="0" />
	<path style="fill:none;stroke:red;stroke-width:1px;stroke-linecap:butt;stroke-linejoin:miter;stroke-opacity:1" d="M 183.317,243.363 191.542,243.363 z" id="boundary" inkscape:connector-curvature="0" />
	<path style="fill:none;stroke:red;stroke-width:1px;stroke-linecap:butt;stroke-linejoin:miter;stroke-opacity:1" d="M 121.625,267.217 128.206,259.814 z" id="boundary" inkscape:connector-curvature="0" />
	<path style="fill:none;stroke:red;stroke-width:1px;stroke-linecap:butt;stroke-linejoin:miter;stroke-opacity:1" d="M 152.06,251.589 144.657,255.701 z" id="boundary" inkscape:connector-curvature="0" />
	<path style="fill:none;stroke:red;stroke-width:1px;stroke-linecap:butt;stroke-linejoin:miter;stroke-opacity:1" d="M 144.657,255.701 136.431,255.701 z" id="boundary" inkscape:connector-curvature="0" />
	<path style="fill:none;stroke:red;stroke-width:1px;stroke-linecap:butt;stroke-linejoin:miter;stroke-opacity:1" d="M 183.317,251.589 176.736,257.347 z" id="boundary" inkscape:connector-curvature="0" />
	<path style="fill:none;stroke:red;stroke-width:1px;stroke-linecap:butt;stroke-linejoin:miter;stroke-opacity:1" d="M 176.736,265.572 176.736,257.347 z" id="boundary" inkscape:connector-curvature="0" />
	<path style="fill:none;stroke:red;stroke-width:1px;stroke-linecap:butt;stroke-linejoin:miter;stroke-opacity:1" d="M 128.206,259.814 136.431,255.701 z" id="boundary" inkscape:connector-curvature="0" />
	<path style="fill:none;stroke:red;stroke-width:1px;stroke-linecap:butt;stroke-linejoin:miter;stroke-opacity:1" d="M 17.1609,266.395 21.2736,273.798 z" id="boundary" inkscape:connector-curvature="0" />
	<path style="fill:none;stroke:red;stroke-width:1px;stroke-linecap:butt;stroke-linejoin:miter;stroke-opacity:1" d="M 27.0315,280.378 21.2736,273.798 z" id="boundary" inkscape:connector-curvature="0" />
	<path style="fill:none;stroke:red;stroke-width:1px;stroke-linecap:butt;stroke-linejoin:miter;stroke-opacity:1" d="M 34.4345,284.491 27.0315,280.378 z" id="boundary" inkscape:connector-curvature="0" />
	<path style="fill:none;stroke:red;stroke-width:1px;stroke-linecap:butt;stroke-linejoin:miter;stroke-opacity:1" d="M 81.3201,278.733 73.0945,280.378 z" id="boundary" inkscape:connector-curvature="0" />
	<path style="fill:none;stroke:red;stroke-width:1px;stroke-linecap:butt;stroke-linejoin:miter;stroke-opacity:1" d="M 65.6915,284.491 73.0945,280.378 z" id="boundary" inkscape:connector-curvature="0" />
	<path style="fill:none;stroke:red;stroke-width:1px;stroke-linecap:butt;stroke-linejoin:miter;stroke-opacity:1" d="M 41.8375,288.604 34.4345,284.491 z" id="boundary" inkscape:connector-curvature="0" />
	<path style="fill:none;stroke:red;stroke-width:1px;stroke-linecap:butt;stroke-linejoin:miter;stroke-opacity:1" d="M 50.063,288.604 57.466,284.491 z" id="boundary" inkscape:connector-curvature="0" />
	<path style="fill:none;stroke:red;stroke-width:1px;stroke-linecap:butt;stroke-linejoin:miter;stroke-opacity:1" d="M 57.466,284.491 65.6915,284.491 z" id="boundary" inkscape:connector-curvature="0" />
	<path style="fill:none;stroke:red;stroke-width:1px;stroke-linecap:butt;stroke-linejoin:miter;stroke-opacity:1" d="M 50.063,288.604 41.8375,288.604 z" id="boundary" inkscape:connector-curvature="0" />
	<path style="fill:none;stroke:red;stroke-width:1px;stroke-linecap:butt;stroke-linejoin:miter;stroke-opacity:1" d="M 89.5456,276.265 96.9486,272.153 z" id="boundary" inkscape:connector-curvature="0" />
	<path style="fill:none;stroke:red;stroke-width:1px;stroke-linecap:butt;stroke-linejoin:miter;stroke-opacity:1" d="M 96.9486,272.153 105.174,271.33 z" id="boundary" inkscape:connector-curvature="0" />
	<path style="fill:none;stroke:red;stroke-width:1px;stroke-linecap:butt;stroke-linejoin:miter;stroke-opacity:1" d="M 113.4,268.04 105.174,271.33 z" id="boundary" inkscape:connector-curvature="0" />
	<path style="fill:none;stroke:red;stroke-width:1px;stroke-linecap:butt;stroke-linejoin:miter;stroke-opacity:1" d="M 121.625,267.217 113.4,268.04 z" id="boundary" inkscape:connector-curvature="0" />
	<path style="fill:none;stroke:red;stroke-width:1px;stroke-linecap:butt;stroke-linejoin:miter;stroke-opacity:1" d="M 183.317,279.556 189.897,284.491 z" id="boundary" inkscape:connector-curvature="0" />
	<path style="fill:none;stroke:red;stroke-width:1px;stroke-linecap:butt;stroke-linejoin:miter;stroke-opacity:1" d="M 176.736,273.798 183.317,279.556 z" id="boundary" inkscape:connector-curvature="0" />
	<path style="fill:none;stroke:red;stroke-width:1px;stroke-linecap:butt;stroke-linejoin:miter;stroke-opacity:1" d="M 176.736,273.798 176.736,265.572 z" id="boundary" inkscape:connector-curvature="0" />
	<path style="fill:none;stroke:red;stroke-width:1px;stroke-linecap:butt;stroke-linejoin:miter;stroke-opacity:1" d="M 189.897,284.491 197.3,288.604 z" id="boundary" inkscape:connector-curvature="0" />
	<path style="fill:none;stroke:red;stroke-width:1px;stroke-linecap:butt;stroke-linejoin:miter;stroke-opacity:1" d="M 81.3201,278.733 89.5456,276.265 z" id="boundary" inkscape:connector-curvature="0" />
	<path style="fill:none;stroke:red;stroke-width:1px;stroke-linecap:butt;stroke-linejoin:miter;stroke-opacity:1" d="M 191.542,243.363 197.3,288.604 z" id="boundary" inkscape:connector-curvature="0" />
	<path style="fill:none;stroke:red;stroke-width:1px;stroke-linecap:butt;stroke-linejoin:miter;stroke-opacity:1" d="M 197.3,288.604 204.703,292.716 z" id="boundary" inkscape:connector-curvature="0" />
	<path style="fill:none;stroke:red;stroke-width:1px;stroke-linecap:butt;stroke-linejoin:miter;stroke-opacity:1" d="M 204.703,292.716 212.106,296.829 z" id="boundary" inkscape:connector-curvature="0" />
	<path style="fill:none;stroke:red;stroke-width:1px;stroke-linecap:butt;stroke-linejoin:miter;stroke-opacity:1" d="M 235.138,305.055 226.912,305.055 z" id="boundary" inkscape:connector-curvature="0" />
	<path style="fill:none;stroke:red;stroke-width:1px;stroke-linecap:butt;stroke-linejoin:miter;stroke-opacity:1" d="M 226.912,305.055 219.509,300.942 z" id="boundary" inkscape:connector-curvature="0" />
	<path style="fill:none;stroke:red;stroke-width:1px;stroke-linecap:butt;stroke-linejoin:miter;stroke-opacity:1" d="M 219.509,300.942 212.106,296.829 z" id="boundary" inkscape:connector-curvature="0" />
	<path style="fill:none;stroke:red;stroke-width:1px;stroke-linecap:butt;stroke-linejoin:miter;stroke-opacity:1" d="M 235.138,305.055 242.541,309.167 z" id="boundary" inkscape:connector-curvature="0" />
	<path style="fill:none;stroke:red;stroke-width:1px;stroke-linecap:butt;stroke-linejoin:miter;stroke-opacity:1" d="M 242.541,309.167 250.766,309.167 z" id="boundary" inkscape:connector-curvature="0" />
	<path style="fill:none;stroke:red;stroke-width:1px;stroke-linecap:butt;stroke-linejoin:miter;stroke-opacity:1" d="M 250.766,309.167 258.169,313.28 z" id="boundary" inkscape:connector-curvature="0" />
	<path style="fill:none;stroke:red;stroke-width:1px;stroke-linecap:butt;stroke-linejoin:miter;stroke-opacity:1" d="M 258.169,313.28 266.395,313.28 z" id="boundary" inkscape:connector-curvature="0" />
	<path style="fill:none;stroke:red;stroke-width:1px;stroke-linecap:butt;stroke-linejoin:miter;stroke-opacity:1" d="M 274.62,313.28 266.395,313.28 z" id="boundary" inkscape:connector-curvature="0" />
	<path style="fill:none;stroke:red;stroke-width:1px;stroke-linecap:butt;stroke-linejoin:miter;stroke-opacity:1" d="M 274.62,313.28 282.023,317.393 z" id="boundary" inkscape:connector-curvature="0" />
	<path style="fill:none;stroke:red;stroke-width:1px;stroke-linecap:butt;stroke-linejoin:miter;stroke-opacity:1" d="M 282.023,317.393 289.426,321.506 z" id="boundary" inkscape:connector-curvature="0" />
	<path style="fill:none;stroke:red;stroke-width:1px;stroke-linecap:butt;stroke-linejoin:miter;stroke-opacity:1" d="M 297.652,323.973 289.426,321.506 z" id="boundary" inkscape:connector-curvature="0" />
	<path style="fill:none;stroke:red;stroke-width:1px;stroke-linecap:butt;stroke-linejoin:miter;stroke-opacity:1" d="M 314.103,325.619 305.877,325.619 z" id="boundary" inkscape:connector-curvature="0" />
	<path style="fill:none;stroke:red;stroke-width:1px;stroke-linecap:butt;stroke-linejoin:miter;stroke-opacity:1" d="M 305.877,325.619 297.652,323.973 z" id="boundary" inkscape:connector-curvature="0" />
	<path style="fill:none;stroke:red;stroke-width:1px;stroke-linecap:butt;stroke-linejoin:miter;stroke-opacity:1" d="M 322.328,325.619 330.554,328.086 z" id="boundary" inkscape:connector-curvature="0" />
	<path style="fill:none;stroke:red;stroke-width:1px;stroke-linecap:butt;stroke-linejoin:miter;stroke-opacity:1" d="M 314.103,325.619 322.328,325.619 z" id="boundary" inkscape:connector-curvature="0" />
	<path style="fill:none;stroke:red;stroke-width:1px;stroke-linecap:butt;stroke-linejoin:miter;stroke-opacity:1" d="M 338.779,329.731 330.554,328.086 z" id="boundary" inkscape:connector-curvature="0" />
	<path style="fill:none;stroke:red;stroke-width:1px;stroke-linecap:butt;stroke-linejoin:miter;stroke-opacity:1" d="M 347.005,329.731 338.779,329.731 z" id="boundary" inkscape:connector-curvature="0" />
	<path style="fill:none;stroke:red;stroke-width:1px;stroke-linecap:butt;stroke-linejoin:miter;stroke-opacity:1" d="M 502.468,329.731 509.871,325.619 z" id="boundary" inkscape:connector-curvature="0" />
	<path style="fill:none;stroke:red;stroke-width:1px;stroke-linecap:butt;stroke-linejoin:miter;stroke-opacity:1" d="M 509.871,325.619 518.096,325.619 z" id="boundary" inkscape:connector-curvature="0" />
	<path style="fill:none;stroke:red;stroke-width:1px;stroke-linecap:butt;stroke-linejoin:miter;stroke-opacity:1" d="M 347.005,329.731 355.231,329.731 z" id="boundary" inkscape:connector-curvature="0" />
	<path style="fill:none;stroke:red;stroke-width:1px;stroke-linecap:butt;stroke-linejoin:miter;stroke-opacity:1" d="M 355.231,329.731 363.456,332.199 z" id="boundary" inkscape:connector-curvature="0" />
	<path style="fill:none;stroke:red;stroke-width:1px;stroke-linecap:butt;stroke-linejoin:miter;stroke-opacity:1" d="M 379.907,333.844 371.682,333.844 z" id="boundary" inkscape:connector-curvature="0" />
	<path style="fill:none;stroke:red;stroke-width:1px;stroke-linecap:butt;stroke-linejoin:miter;stroke-opacity:1" d="M 371.682,333.844 363.456,332.199 z" id="boundary" inkscape:connector-curvature="0" />
	<path style="fill:none;stroke:red;stroke-width:1px;stroke-linecap:butt;stroke-linejoin:miter;stroke-opacity:1" d="M 388.133,333.844 379.907,333.844 z" id="boundary" inkscape:connector-curvature="0" />
	<path style="fill:none;stroke:red;stroke-width:1px;stroke-linecap:butt;stroke-linejoin:miter;stroke-opacity:1" d="M 388.133,333.844 396.358,333.844 z" id="boundary" inkscape:connector-curvature="0" />
	<path style="fill:none;stroke:red;stroke-width:1px;stroke-linecap:butt;stroke-linejoin:miter;stroke-opacity:1" d="M 404.584,333.844 412.809,333.844 z" id="boundary" inkscape:connector-curvature="0" />
	<path style="fill:none;stroke:red;stroke-width:1px;stroke-linecap:butt;stroke-linejoin:miter;stroke-opacity:1" d="M 421.035,333.844 412.809,333.844 z" id="boundary" inkscape:connector-curvature="0" />
	<path style="fill:none;stroke:red;stroke-width:1px;stroke-linecap:butt;stroke-linejoin:miter;stroke-opacity:1" d="M 396.358,333.844 404.584,333.844 z" id="boundary" inkscape:connector-curvature="0" />
	<path style="fill:none;stroke:red;stroke-width:1px;stroke-linecap:butt;stroke-linejoin:miter;stroke-opacity:1" d="M 453.114,329.731 461.34,329.731 z" id="boundary" inkscape:connector-curvature="0" />
	<path style="fill:none;stroke:red;stroke-width:1px;stroke-linecap:butt;stroke-linejoin:miter;stroke-opacity:1" d="M 445.711,333.844 453.114,329.731 z" id="boundary" inkscape:connector-curvature="0" />
	<path style="fill:none;stroke:red;stroke-width:1px;stroke-linecap:butt;stroke-linejoin:miter;stroke-opacity:1" d="M 469.566,329.731 477.791,329.731 z" id="boundary" inkscape:connector-curvature="0" />
	<path style="fill:none;stroke:red;stroke-width:1px;stroke-linecap:butt;stroke-linejoin:miter;stroke-opacity:1" d="M 486.017,329.731 477.791,329.731 z" id="boundary" inkscape:connector-curvature="0" />
	<path style="fill:none;stroke:red;stroke-width:1px;stroke-linecap:butt;stroke-linejoin:miter;stroke-opacity:1" d="M 469.566,329.731 461.34,329.731 z" id="boundary" inkscape:connector-curvature="0" />
	<path style="fill:none;stroke:red;stroke-width:1px;stroke-linecap:butt;stroke-linejoin:miter;stroke-opacity:1" d="M 429.26,333.844 437.486,333.844 z" id="boundary" inkscape:connector-curvature="0" />
	<path style="fill:none;stroke:red;stroke-width:1px;stroke-linecap:butt;stroke-linejoin:miter;stroke-opacity:1" d="M 494.242,329.731 502.468,329.731 z" id="boundary" inkscape:connector-curvature="0" />
	<path style="fill:none;stroke:red;stroke-width:1px;stroke-linecap:butt;stroke-linejoin:miter;stroke-opacity:1" d="M 445.711,333.844 437.486,333.844 z" id="boundary" inkscape:connector-curvature="0" />
	<path style="fill:none;stroke:red;stroke-width:1px;stroke-linecap:butt;stroke-linejoin:miter;stroke-opacity:1" d="M 486.017,329.731 494.242,329.731 z" id="boundary" inkscape:connector-curvature="0" />
	<path style="fill:none;stroke:red;stroke-width:1px;stroke-linecap:butt;stroke-linejoin:miter;stroke-opacity:1" d="M 429.26,333.844 421.035,333.844 z" id="boundary" inkscape:connector-curvature="0" />
	<path style="fill:none;stroke:red;stroke-width:1px;stroke-linecap:butt;stroke-linejoin:miter;stroke-opacity:1" d="M 518.096,325.619 526.322,325.619 z" id="boundary" inkscape:connector-curvature="0" />
	<path style="fill:none;stroke:red;stroke-width:1px;stroke-linecap:butt;stroke-linejoin:miter;stroke-opacity:1" d="M 689.187,8.11277 697.413,8.11277 z" id="boundary" inkscape:connector-curvature="0" />
	<path style="fill:none;stroke:red;stroke-width:1px;stroke-linecap:butt;stroke-linejoin:miter;stroke-opacity:1" d="M 680.962,12.2255 689.187,8.11277 z" id="boundary" inkscape:connector-curvature="0" />
	<path style="fill:none;stroke:red;stroke-width:1px;stroke-linecap:butt;stroke-linejoin:miter;stroke-opacity:1" d="M 705.638,8.11277 713.864,8.11277 z" id="boundary" inkscape:connector-curvature="0" />
	<path style="fill:none;stroke:red;stroke-width:1px;stroke-linecap:butt;stroke-linejoin:miter;stroke-opacity:1" d="M 705.638,8.11277 697.413,8.11277 z" id="boundary" inkscape:connector-curvature="0" />
	<path style="fill:none;stroke:red;stroke-width:1px;stroke-linecap:butt;stroke-linejoin:miter;stroke-opacity:1" d="M 649.705,20.4511 641.479,20.4511 z" id="boundary" inkscape:connector-curvature="0" />
	<path style="fill:none;stroke:red;stroke-width:1px;stroke-linecap:butt;stroke-linejoin:miter;stroke-opacity:1" d="M 673.559,16.3383 680.962,12.2255 z" id="boundary" inkscape:connector-curvature="0" />
	<path style="fill:none;stroke:red;stroke-width:1px;stroke-linecap:butt;stroke-linejoin:miter;stroke-opacity:1" d="M 673.559,16.3383 665.333,16.3383 z" id="boundary" inkscape:connector-curvature="0" />
	<path style="fill:none;stroke:red;stroke-width:1px;stroke-linecap:butt;stroke-linejoin:miter;stroke-opacity:1" d="M 713.864,8.11277 722.09,8.11277 z" id="boundary" inkscape:connector-curvature="0" />
	<path style="fill:none;stroke:red;stroke-width:1px;stroke-linecap:butt;stroke-linejoin:miter;stroke-opacity:1" d="M 657.93,20.4511 665.333,16.3383 z" id="boundary" inkscape:connector-curvature="0" />
	<path style="fill:none;stroke:red;stroke-width:1px;stroke-linecap:butt;stroke-linejoin:miter;stroke-opacity:1" d="M 730.315,8.11277 737.718,4 z" id="boundary" inkscape:connector-curvature="0" />
	<path style="fill:none;stroke:red;stroke-width:1px;stroke-linecap:butt;stroke-linejoin:miter;stroke-opacity:1" d="M 737.718,4 745.944,4 z" id="boundary" inkscape:connector-curvature="0" />
	<path style="fill:none;stroke:red;stroke-width:1px;stroke-linecap:butt;stroke-linejoin:miter;stroke-opacity:1" d="M 730.315,8.11277 722.09,8.11277 z" id="boundary" inkscape:connector-curvature="0" />
	<path style="fill:none;stroke:red;stroke-width:1px;stroke-linecap:butt;stroke-linejoin:miter;stroke-opacity:1" d="M 761.572,8.11277 753.347,8.11277 z" id="boundary" inkscape:connector-curvature="0" />
	<path style="fill:none;stroke:red;stroke-width:1px;stroke-linecap:butt;stroke-linejoin:miter;stroke-opacity:1" d="M 753.347,8.11277 745.944,4 z" id="boundary" inkscape:connector-curvature="0" />
	<path style="fill:none;stroke:red;stroke-width:1px;stroke-linecap:butt;stroke-linejoin:miter;stroke-opacity:1" d="M 769.798,8.11277 761.572,8.11277 z" id="boundary" inkscape:connector-curvature="0" />
	<path style="fill:none;stroke:red;stroke-width:1px;stroke-linecap:butt;stroke-linejoin:miter;stroke-opacity:1" d="M 769.798,8.11277 778.023,8.11277 z" id="boundary" inkscape:connector-curvature="0" />
	<path style="fill:none;stroke:red;stroke-width:1px;stroke-linecap:butt;stroke-linejoin:miter;stroke-opacity:1" d="M 786.249,8.11277 793.652,12.2255 z" id="boundary" inkscape:connector-curvature="0" />
	<path style="fill:none;stroke:red;stroke-width:1px;stroke-linecap:butt;stroke-linejoin:miter;stroke-opacity:1" d="M 778.023,8.11277 786.249,8.11277 z" id="boundary" inkscape:connector-curvature="0" />
	<path style="fill:none;stroke:red;stroke-width:1px;stroke-linecap:butt;stroke-linejoin:miter;stroke-opacity:1" d="M 793.652,12.2255 801.055,16.3383 z" id="boundary" inkscape:connector-curvature="0" />
	<path style="fill:none;stroke:red;stroke-width:1px;stroke-linecap:butt;stroke-linejoin:miter;stroke-opacity:1" d="M 559.224,59.9337 563.337,51.7081 z" id="boundary" inkscape:connector-curvature="0" />
	<path style="fill:none;stroke:red;stroke-width:1px;stroke-linecap:butt;stroke-linejoin:miter;stroke-opacity:1" d="M 563.337,51.7081 571.562,47.5954 z" id="boundary" inkscape:connector-curvature="0" />
	<path style="fill:none;stroke:red;stroke-width:1px;stroke-linecap:butt;stroke-linejoin:miter;stroke-opacity:1" d="M 559.224,59.9337 550.998,64.0464 z" id="boundary" inkscape:connector-curvature="0" />
	<path style="fill:none;stroke:red;stroke-width:1px;stroke-linecap:butt;stroke-linejoin:miter;stroke-opacity:1" d="M 587.191,41.0149 579.788,45.1277 z" id="boundary" inkscape:connector-curvature="0" />
	<path style="fill:none;stroke:red;stroke-width:1px;stroke-linecap:butt;stroke-linejoin:miter;stroke-opacity:1" d="M 579.788,45.1277 571.562,47.5954 z" id="boundary" inkscape:connector-curvature="0" />
	<path style="fill:none;stroke:red;stroke-width:1px;stroke-linecap:butt;stroke-linejoin:miter;stroke-opacity:1" d="M 594.594,36.9022 587.191,41.0149 z" id="boundary" inkscape:connector-curvature="0" />
	<path style="fill:none;stroke:red;stroke-width:1px;stroke-linecap:butt;stroke-linejoin:miter;stroke-opacity:1" d="M 519.741,73.9171 527.967,73.9171 z" id="boundary" inkscape:connector-curvature="0" />
	<path style="fill:none;stroke:red;stroke-width:1px;stroke-linecap:butt;stroke-linejoin:miter;stroke-opacity:1" d="M 536.192,70.6269 527.967,73.9171 z" id="boundary" inkscape:connector-curvature="0" />
	<path style="fill:none;stroke:red;stroke-width:1px;stroke-linecap:butt;stroke-linejoin:miter;stroke-opacity:1" d="M 550.998,64.0464 544.418,69.8043 z" id="boundary" inkscape:connector-curvature="0" />
	<path style="fill:none;stroke:red;stroke-width:1px;stroke-linecap:butt;stroke-linejoin:miter;stroke-opacity:1" d="M 544.418,69.8043 536.192,70.6269 z" id="boundary" inkscape:connector-curvature="0" />
	<path style="fill:none;stroke:red;stroke-width:1px;stroke-linecap:butt;stroke-linejoin:miter;stroke-opacity:1" d="M 519.741,73.9171 511.516,73.9171 z" id="boundary" inkscape:connector-curvature="0" />
	<path style="fill:none;stroke:red;stroke-width:1px;stroke-linecap:butt;stroke-linejoin:miter;stroke-opacity:1" d="M 625.851,24.5638 634.076,24.5638 z" id="boundary" inkscape:connector-curvature="0" />
	<path style="fill:none;stroke:red;stroke-width:1px;stroke-linecap:butt;stroke-linejoin:miter;stroke-opacity:1" d="M 618.448,28.6766 625.851,24.5638 z" id="boundary" inkscape:connector-curvature="0" />
	<path style="fill:none;stroke:red;stroke-width:1px;stroke-linecap:butt;stroke-linejoin:miter;stroke-opacity:1" d="M 641.479,20.4511 634.076,24.5638 z" id="boundary" inkscape:connector-curvature="0" />
	<path style="fill:none;stroke:red;stroke-width:1px;stroke-linecap:butt;stroke-linejoin:miter;stroke-opacity:1" d="M 649.705,20.4511 657.93,20.4511 z" id="boundary" inkscape:connector-curvature="0" />
	<path style="fill:none;stroke:red;stroke-width:1px;stroke-linecap:butt;stroke-linejoin:miter;stroke-opacity:1" d="M 801.055,16.3383 808.458,20.4511 z" id="boundary" inkscape:connector-curvature="0" />
	<path style="fill:none;stroke:red;stroke-width:1px;stroke-linecap:butt;stroke-linejoin:miter;stroke-opacity:1" d="M 594.594,36.9022 602.819,32.7894 z" id="boundary" inkscape:connector-curvature="0" />
	<path style="fill:none;stroke:red;stroke-width:1px;stroke-linecap:butt;stroke-linejoin:miter;stroke-opacity:1" d="M 610.222,28.6766 602.819,32.7894 z" id="boundary" inkscape:connector-curvature="0" />
	<path style="fill:none;stroke:red;stroke-width:1px;stroke-linecap:butt;stroke-linejoin:miter;stroke-opacity:1" d="M 618.448,28.6766 610.222,28.6766 z" id="boundary" inkscape:connector-curvature="0" />
	<path style="fill:none;stroke:red;stroke-width:1px;stroke-linecap:butt;stroke-linejoin:miter;stroke-opacity:1" d="M 808.458,20.4511 815.861,24.5638 z" id="boundary" inkscape:connector-curvature="0" />
	<path style="fill:none;stroke:red;stroke-width:1px;stroke-linecap:butt;stroke-linejoin:miter;stroke-opacity:1" d="M 815.861,24.5638 822.441,30.3217 z" id="boundary" inkscape:connector-curvature="0" />
	<path style="fill:none;stroke:red;stroke-width:1px;stroke-linecap:butt;stroke-linejoin:miter;stroke-opacity:1" d="M 827.376,36.9022 831.489,44.3051 z" id="boundary" inkscape:connector-curvature="0" />
	<path style="fill:none;stroke:red;stroke-width:1px;stroke-linecap:butt;stroke-linejoin:miter;stroke-opacity:1" d="M 827.376,36.9022 822.441,30.3217 z" id="boundary" inkscape:connector-curvature="0" />
	<path style="fill:none;stroke:red;stroke-width:1px;stroke-linecap:butt;stroke-linejoin:miter;stroke-opacity:1" d="M 831.489,44.3051 835.602,51.7081 z" id="boundary" inkscape:connector-curvature="0" />
	<path style="fill:none;stroke:red;stroke-width:1px;stroke-linecap:butt;stroke-linejoin:miter;stroke-opacity:1" d="M 839.715,59.1111 835.602,51.7081 z" id="boundary" inkscape:connector-curvature="0" />
	<path style="fill:none;stroke:red;stroke-width:1px;stroke-linecap:butt;stroke-linejoin:miter;stroke-opacity:1" d="M 839.715,59.1111 843.828,66.5141 z" id="boundary" inkscape:connector-curvature="0" />
	<path style="fill:none;stroke:red;stroke-width:1px;stroke-linecap:butt;stroke-linejoin:miter;stroke-opacity:1" d="M 843.828,66.5141 845.473,74.7396 z" id="boundary" inkscape:connector-curvature="0" />
	<path style="fill:none;stroke:red;stroke-width:1px;stroke-linecap:butt;stroke-linejoin:miter;stroke-opacity:1" d="M 845.473,74.7396 853.698,78.0299 z" id="boundary" inkscape:connector-curvature="0" />
	<path style="fill:none;stroke:red;stroke-width:1px;stroke-linecap:butt;stroke-linejoin:miter;stroke-opacity:1" d="M 853.698,78.0299 861.101,82.1426 z" id="boundary" inkscape:connector-curvature="0" />
	<path style="fill:none;stroke:red;stroke-width:1px;stroke-linecap:butt;stroke-linejoin:miter;stroke-opacity:1" d="M 869.327,82.1426 861.101,82.1426 z" id="boundary" inkscape:connector-curvature="0" />
	<path style="fill:none;stroke:red;stroke-width:1px;stroke-linecap:butt;stroke-linejoin:miter;stroke-opacity:1" d="M 869.327,82.1426 877.552,82.1426 z" id="boundary" inkscape:connector-curvature="0" />
	<path style="fill:none;stroke:red;stroke-width:1px;stroke-linecap:butt;stroke-linejoin:miter;stroke-opacity:1" d="M 901.406,86.2554 893.181,86.2554 z" id="boundary" inkscape:connector-curvature="0" />
	<path style="fill:none;stroke:red;stroke-width:1px;stroke-linecap:butt;stroke-linejoin:miter;stroke-opacity:1" d="M 893.181,86.2554 885.778,82.1426 z" id="boundary" inkscape:connector-curvature="0" />
	<path style="fill:none;stroke:red;stroke-width:1px;stroke-linecap:butt;stroke-linejoin:miter;stroke-opacity:1" d="M 901.406,86.2554 908.809,90.3682 z" id="boundary" inkscape:connector-curvature="0" />
	<path style="fill:none;stroke:red;stroke-width:1px;stroke-linecap:butt;stroke-linejoin:miter;stroke-opacity:1" d="M 877.552,82.1426 885.778,82.1426 z" id="boundary" inkscape:connector-curvature="0" />
	<path style="fill:none;stroke:red;stroke-width:1px;stroke-linecap:butt;stroke-linejoin:miter;stroke-opacity:1" d="M 908.809,90.3682 917.035,92.0133 z" id="boundary" inkscape:connector-curvature="0" />
	<path style="fill:none;stroke:red;stroke-width:1px;stroke-linecap:butt;stroke-linejoin:miter;stroke-opacity:1" d="M 917.035,92.0133 921.97,98.5937 z" id="boundary" inkscape:connector-curvature="0" />
	<path style="fill:none;stroke:red;stroke-width:1px;stroke-linecap:butt;stroke-linejoin:miter;stroke-opacity:1" d="M 929.373,102.706 921.97,98.5937 z" id="boundary" inkscape:connector-curvature="0" />
	<path style="fill:none;stroke:red;stroke-width:1px;stroke-linecap:butt;stroke-linejoin:miter;stroke-opacity:1" d="M 937.599,104.352 929.373,102.706 z" id="boundary" inkscape:connector-curvature="0" />
	<path style="fill:none;stroke:red;stroke-width:1px;stroke-linecap:butt;stroke-linejoin:miter;stroke-opacity:1" d="M 945.002,108.464 937.599,104.352 z" id="boundary" inkscape:connector-curvature="0" />
	<path style="fill:none;stroke:red;stroke-width:1px;stroke-linecap:butt;stroke-linejoin:miter;stroke-opacity:1" d="M 950.76,115.045 954.872,122.448 z" id="boundary" inkscape:connector-curvature="0" />
	<path style="fill:none;stroke:red;stroke-width:1px;stroke-linecap:butt;stroke-linejoin:miter;stroke-opacity:1" d="M 950.76,115.045 945.002,108.464 z" id="boundary" inkscape:connector-curvature="0" />
	<path style="fill:none;stroke:red;stroke-width:1px;stroke-linecap:butt;stroke-linejoin:miter;stroke-opacity:1" d="M 954.872,122.448 963.098,125.738 z" id="boundary" inkscape:connector-curvature="0" />
	<path style="fill:none;stroke:red;stroke-width:1px;stroke-linecap:butt;stroke-linejoin:miter;stroke-opacity:1" d="M 963.098,125.738 968.856,132.318 z" id="boundary" inkscape:connector-curvature="0" />
	<path style="fill:none;stroke:red;stroke-width:1px;stroke-linecap:butt;stroke-linejoin:miter;stroke-opacity:1" d="M 975.436,138.076 968.856,132.318 z" id="boundary" inkscape:connector-curvature="0" />
	<path style="fill:none;stroke:red;stroke-width:1px;stroke-linecap:butt;stroke-linejoin:miter;stroke-opacity:1" d="M 965.566,231.847 958.985,226.912 z" id="boundary" inkscape:connector-curvature="0" />
	<path style="fill:none;stroke:red;stroke-width:1px;stroke-linecap:butt;stroke-linejoin:miter;stroke-opacity:1" d="M 958.985,226.912 967.211,222.799 z" id="boundary" inkscape:connector-curvature="0" />
	<path style="fill:none;stroke:red;stroke-width:1px;stroke-linecap:butt;stroke-linejoin:miter;stroke-opacity:1" d="M 971.323,214.574 967.211,222.799 z" id="boundary" inkscape:connector-curvature="0" />
	<path style="fill:none;stroke:red;stroke-width:1px;stroke-linecap:butt;stroke-linejoin:miter;stroke-opacity:1" d="M 982.017,230.202 973.791,230.202 z" id="boundary" inkscape:connector-curvature="0" />
	<path style="fill:none;stroke:red;stroke-width:1px;stroke-linecap:butt;stroke-linejoin:miter;stroke-opacity:1" d="M 975.436,138.076 978.726,146.302 z" id="boundary" inkscape:connector-curvature="0" />
	<path style="fill:none;stroke:red;stroke-width:1px;stroke-linecap:butt;stroke-linejoin:miter;stroke-opacity:1" d="M 973.791,230.202 965.566,231.847 z" id="boundary" inkscape:connector-curvature="0" />
	<path style="fill:none;stroke:red;stroke-width:1px;stroke-linecap:butt;stroke-linejoin:miter;stroke-opacity:1" d="M 978.726,146.302 985.307,152.06 z" id="boundary" inkscape:connector-curvature="0" />
	<path style="fill:none;stroke:red;stroke-width:1px;stroke-linecap:butt;stroke-linejoin:miter;stroke-opacity:1" d="M 985.307,152.06 987.774,160.285 z" id="boundary" inkscape:connector-curvature="0" />
	<path style="fill:none;stroke:red;stroke-width:1px;stroke-linecap:butt;stroke-linejoin:miter;stroke-opacity:1" d="M 987.774,160.285 991.887,167.688 z" id="boundary" inkscape:connector-curvature="0" />
	<path style="fill:none;stroke:red;stroke-width:1px;stroke-linecap:butt;stroke-linejoin:miter;stroke-opacity:1" d="M 996,175.091 991.887,167.688 z" id="boundary" inkscape:connector-curvature="0" />
	<path style="fill:none;stroke:red;stroke-width:1px;stroke-linecap:butt;stroke-linejoin:miter;stroke-opacity:1" d="M 979.549,210.461 971.323,214.574 z" id="boundary" inkscape:connector-curvature="0" />
	<path style="fill:none;stroke:red;stroke-width:1px;stroke-linecap:butt;stroke-linejoin:miter;stroke-opacity:1" d="M 996,175.091 996,183.317 z" id="boundary" inkscape:connector-curvature="0" />
	<path style="fill:none;stroke:red;stroke-width:1px;stroke-linecap:butt;stroke-linejoin:miter;stroke-opacity:1" d="M 987.774,206.348 979.549,210.461 z" id="boundary" inkscape:connector-curvature="0" />
	<path style="fill:none;stroke:red;stroke-width:1px;stroke-linecap:butt;stroke-linejoin:miter;stroke-opacity:1" d="M 996,191.542 994.355,200.59 z" id="boundary" inkscape:connector-curvature="0" />
	<path style="fill:none;stroke:red;stroke-width:1px;stroke-linecap:butt;stroke-linejoin:miter;stroke-opacity:1" d="M 994.355,200.59 987.774,206.348 z" id="boundary" inkscape:connector-curvature="0" />
	<path style="fill:none;stroke:red;stroke-width:1px;stroke-linecap:butt;stroke-linejoin:miter;stroke-opacity:1" d="M 996,183.317 996,191.542 z" id="boundary" inkscape:connector-curvature="0" />
	<path style="fill:none;stroke:red;stroke-width:1px;stroke-linecap:butt;stroke-linejoin:miter;stroke-opacity:1" d="M 591.303,307.522 597.061,300.942 z" id="boundary" inkscape:connector-curvature="0" />
	<path style="fill:none;stroke:red;stroke-width:1px;stroke-linecap:butt;stroke-linejoin:miter;stroke-opacity:1" d="M 601.174,292.716 597.061,300.942 z" id="boundary" inkscape:connector-curvature="0" />
	<path style="fill:none;stroke:red;stroke-width:1px;stroke-linecap:butt;stroke-linejoin:miter;stroke-opacity:1" d="M 601.174,292.716 608.577,288.604 z" id="boundary" inkscape:connector-curvature="0" />
	<path style="fill:none;stroke:red;stroke-width:1px;stroke-linecap:butt;stroke-linejoin:miter;stroke-opacity:1" d="M 591.303,307.522 583.078,309.167 z" id="boundary" inkscape:connector-curvature="0" />
	<path style="fill:none;stroke:red;stroke-width:1px;stroke-linecap:butt;stroke-linejoin:miter;stroke-opacity:1" d="M 608.577,288.604 616.803,288.604 z" id="boundary" inkscape:connector-curvature="0" />
	<path style="fill:none;stroke:red;stroke-width:1px;stroke-linecap:butt;stroke-linejoin:miter;stroke-opacity:1" d="M 537.015,313.28 544.418,309.167 z" id="boundary" inkscape:connector-curvature="0" />
	<path style="fill:none;stroke:red;stroke-width:1px;stroke-linecap:butt;stroke-linejoin:miter;stroke-opacity:1" d="M 544.418,309.167 550.998,314.103 z" id="boundary" inkscape:connector-curvature="0" />
	<path style="fill:none;stroke:red;stroke-width:1px;stroke-linecap:butt;stroke-linejoin:miter;stroke-opacity:1" d="M 567.449,313.28 559.224,310.813 z" id="boundary" inkscape:connector-curvature="0" />
	<path style="fill:none;stroke:red;stroke-width:1px;stroke-linecap:butt;stroke-linejoin:miter;stroke-opacity:1" d="M 574.852,309.167 567.449,313.28 z" id="boundary" inkscape:connector-curvature="0" />
	<path style="fill:none;stroke:red;stroke-width:1px;stroke-linecap:butt;stroke-linejoin:miter;stroke-opacity:1" d="M 583.078,309.167 574.852,309.167 z" id="boundary" inkscape:connector-curvature="0" />
	<path style="fill:none;stroke:red;stroke-width:1px;stroke-linecap:butt;stroke-linejoin:miter;stroke-opacity:1" d="M 559.224,310.813 550.998,314.103 z" id="boundary" inkscape:connector-curvature="0" />
	<path style="fill:none;stroke:red;stroke-width:1px;stroke-linecap:butt;stroke-linejoin:miter;stroke-opacity:1" d="M 616.803,288.604 624.206,292.716 z" id="boundary" inkscape:connector-curvature="0" />
	<path style="fill:none;stroke:red;stroke-width:1px;stroke-linecap:butt;stroke-linejoin:miter;stroke-opacity:1" d="M 639.834,300.119 647.237,304.232 z" id="boundary" inkscape:connector-curvature="0" />
	<path style="fill:none;stroke:red;stroke-width:1px;stroke-linecap:butt;stroke-linejoin:miter;stroke-opacity:1" d="M 639.834,300.119 631.609,296.829 z" id="boundary" inkscape:connector-curvature="0" />
	<path style="fill:none;stroke:red;stroke-width:1px;stroke-linecap:butt;stroke-linejoin:miter;stroke-opacity:1" d="M 631.609,296.829 624.206,292.716 z" id="boundary" inkscape:connector-curvature="0" />
	<path style="fill:none;stroke:red;stroke-width:1px;stroke-linecap:butt;stroke-linejoin:miter;stroke-opacity:1" d="M 655.463,305.055 647.237,304.232 z" id="boundary" inkscape:connector-curvature="0" />
	<path style="fill:none;stroke:red;stroke-width:1px;stroke-linecap:butt;stroke-linejoin:miter;stroke-opacity:1" d="M 655.463,305.055 663.688,307.522 z" id="boundary" inkscape:connector-curvature="0" />
	<path style="fill:none;stroke:red;stroke-width:1px;stroke-linecap:butt;stroke-linejoin:miter;stroke-opacity:1" d="M 671.914,309.167 680.139,309.167 z" id="boundary" inkscape:connector-curvature="0" />
	<path style="fill:none;stroke:red;stroke-width:1px;stroke-linecap:butt;stroke-linejoin:miter;stroke-opacity:1" d="M 680.139,309.167 688.365,311.635 z" id="boundary" inkscape:connector-curvature="0" />
	<path style="fill:none;stroke:red;stroke-width:1px;stroke-linecap:butt;stroke-linejoin:miter;stroke-opacity:1" d="M 671.914,309.167 663.688,307.522 z" id="boundary" inkscape:connector-curvature="0" />
	<path style="fill:none;stroke:red;stroke-width:1px;stroke-linecap:butt;stroke-linejoin:miter;stroke-opacity:1" d="M 688.365,311.635 696.59,313.28 z" id="boundary" inkscape:connector-curvature="0" />
	<path style="fill:none;stroke:red;stroke-width:1px;stroke-linecap:butt;stroke-linejoin:miter;stroke-opacity:1" d="M 696.59,313.28 704.816,313.28 z" id="boundary" inkscape:connector-curvature="0" />
	<path style="fill:none;stroke:red;stroke-width:1px;stroke-linecap:butt;stroke-linejoin:miter;stroke-opacity:1" d="M 713.041,313.28 704.816,313.28 z" id="boundary" inkscape:connector-curvature="0" />
	<path style="fill:none;stroke:red;stroke-width:1px;stroke-linecap:butt;stroke-linejoin:miter;stroke-opacity:1" d="M 526.322,325.619 532.902,320.683 z" id="boundary" inkscape:connector-curvature="0" />
	<path style="fill:none;stroke:red;stroke-width:1px;stroke-linecap:butt;stroke-linejoin:miter;stroke-opacity:1" d="M 721.267,313.28 729.493,313.28 z" id="boundary" inkscape:connector-curvature="0" />
	<path style="fill:none;stroke:red;stroke-width:1px;stroke-linecap:butt;stroke-linejoin:miter;stroke-opacity:1" d="M 713.041,313.28 721.267,313.28 z" id="boundary" inkscape:connector-curvature="0" />
	<path style="fill:none;stroke:red;stroke-width:1px;stroke-linecap:butt;stroke-linejoin:miter;stroke-opacity:1" d="M 532.902,320.683 537.015,313.28 z" id="boundary" inkscape:connector-curvature="0" />
	<path style="fill:none;stroke:red;stroke-width:1px;stroke-linecap:butt;stroke-linejoin:miter;stroke-opacity:1" d="M 729.493,313.28 737.718,313.28 z" id="boundary" inkscape:connector-curvature="0" />
	<path style="fill:none;stroke:red;stroke-width:1px;stroke-linecap:butt;stroke-linejoin:miter;stroke-opacity:1" d="M 745.944,313.28 754.169,313.28 z" id="boundary" inkscape:connector-curvature="0" />
	<path style="fill:none;stroke:red;stroke-width:1px;stroke-linecap:butt;stroke-linejoin:miter;stroke-opacity:1" d="M 762.395,313.28 770.62,313.28 z" id="boundary" inkscape:connector-curvature="0" />
	<path style="fill:none;stroke:red;stroke-width:1px;stroke-linecap:butt;stroke-linejoin:miter;stroke-opacity:1" d="M 778.846,313.28 770.62,313.28 z" id="boundary" inkscape:connector-curvature="0" />
	<path style="fill:none;stroke:red;stroke-width:1px;stroke-linecap:butt;stroke-linejoin:miter;stroke-opacity:1" d="M 787.894,341.247 781.313,347.828 z" id="boundary" inkscape:connector-curvature="0" />
	<path style="fill:none;stroke:red;stroke-width:1px;stroke-linecap:butt;stroke-linejoin:miter;stroke-opacity:1" d="M 762.395,313.28 754.169,313.28 z" id="boundary" inkscape:connector-curvature="0" />
	<path style="fill:none;stroke:red;stroke-width:1px;stroke-linecap:butt;stroke-linejoin:miter;stroke-opacity:1" d="M 777.201,360.166 777.201,372.504 z" id="boundary" inkscape:connector-curvature="0" />
	<path style="fill:none;stroke:red;stroke-width:1px;stroke-linecap:butt;stroke-linejoin:miter;stroke-opacity:1" d="M 777.201,360.166 783.781,365.924 z" id="boundary" inkscape:connector-curvature="0" />
	<path style="fill:none;stroke:red;stroke-width:1px;stroke-linecap:butt;stroke-linejoin:miter;stroke-opacity:1" d="M 783.781,378.262 777.201,372.504 z" id="boundary" inkscape:connector-curvature="0" />
	<path style="fill:none;stroke:red;stroke-width:1px;stroke-linecap:butt;stroke-linejoin:miter;stroke-opacity:1" d="M 783.781,365.924 792.007,374.149 z" id="boundary" inkscape:connector-curvature="0" />
	<path style="fill:none;stroke:red;stroke-width:1px;stroke-linecap:butt;stroke-linejoin:miter;stroke-opacity:1" d="M 792.007,374.149 783.781,378.262 z" id="boundary" inkscape:connector-curvature="0" />
	<path style="fill:none;stroke:red;stroke-width:1px;stroke-linecap:butt;stroke-linejoin:miter;stroke-opacity:1" d="M 777.201,360.166 781.313,347.828 z" id="boundary" inkscape:connector-curvature="0" />
	<path style="fill:none;stroke:red;stroke-width:1px;stroke-linecap:butt;stroke-linejoin:miter;stroke-opacity:1" d="M 737.718,313.28 745.944,313.28 z" id="boundary" inkscape:connector-curvature="0" />
	<path style="fill:none;stroke:red;stroke-width:1px;stroke-linecap:butt;stroke-linejoin:miter;stroke-opacity:1" d="M 915.39,287.781 923.615,284.491 z" id="boundary" inkscape:connector-curvature="0" />
	<path style="fill:none;stroke:red;stroke-width:1px;stroke-linecap:butt;stroke-linejoin:miter;stroke-opacity:1" d="M 931.018,280.378 923.615,284.491 z" id="boundary" inkscape:connector-curvature="0" />
	<path style="fill:none;stroke:red;stroke-width:1px;stroke-linecap:butt;stroke-linejoin:miter;stroke-opacity:1" d="M 946.647,276.265 939.244,280.378 z" id="boundary" inkscape:connector-curvature="0" />
	<path style="fill:none;stroke:red;stroke-width:1px;stroke-linecap:butt;stroke-linejoin:miter;stroke-opacity:1" d="M 939.244,280.378 931.018,280.378 z" id="boundary" inkscape:connector-curvature="0" />
	<path style="fill:none;stroke:red;stroke-width:1px;stroke-linecap:butt;stroke-linejoin:miter;stroke-opacity:1" d="M 915.39,287.781 907.164,288.604 z" id="boundary" inkscape:connector-curvature="0" />
	<path style="fill:none;stroke:red;stroke-width:1px;stroke-linecap:butt;stroke-linejoin:miter;stroke-opacity:1" d="M 875.085,296.829 882.488,292.716 z" id="boundary" inkscape:connector-curvature="0" />
	<path style="fill:none;stroke:red;stroke-width:1px;stroke-linecap:butt;stroke-linejoin:miter;stroke-opacity:1" d="M 882.488,292.716 890.713,292.716 z" id="boundary" inkscape:connector-curvature="0" />
	<path style="fill:none;stroke:red;stroke-width:1px;stroke-linecap:butt;stroke-linejoin:miter;stroke-opacity:1" d="M 907.164,288.604 898.939,291.894 z" id="boundary" inkscape:connector-curvature="0" />
	<path style="fill:none;stroke:red;stroke-width:1px;stroke-linecap:butt;stroke-linejoin:miter;stroke-opacity:1" d="M 898.939,291.894 890.713,292.716 z" id="boundary" inkscape:connector-curvature="0" />
	<path style="fill:none;stroke:red;stroke-width:1px;stroke-linecap:butt;stroke-linejoin:miter;stroke-opacity:1" d="M 867.682,300.942 875.085,296.829 z" id="boundary" inkscape:connector-curvature="0" />
	<path style="fill:none;stroke:red;stroke-width:1px;stroke-linecap:butt;stroke-linejoin:miter;stroke-opacity:1" d="M 907.164,288.604 958.985,226.912 z" id="boundary" inkscape:connector-curvature="0" />
	<path style="fill:none;stroke:red;stroke-width:1px;stroke-linecap:butt;stroke-linejoin:miter;stroke-opacity:1" d="M 983.662,251.589 975.436,255.701 z" id="boundary" inkscape:connector-curvature="0" />
	<path style="fill:none;stroke:red;stroke-width:1px;stroke-linecap:butt;stroke-linejoin:miter;stroke-opacity:1" d="M 993.532,239.25 990.242,231.025 z" id="boundary" inkscape:connector-curvature="0" />
	<path style="fill:none;stroke:red;stroke-width:1px;stroke-linecap:butt;stroke-linejoin:miter;stroke-opacity:1" d="M 982.017,230.202 990.242,231.025 z" id="boundary" inkscape:connector-curvature="0" />
	<path style="fill:none;stroke:red;stroke-width:1px;stroke-linecap:butt;stroke-linejoin:miter;stroke-opacity:1" d="M 991.887,247.476 983.662,251.589 z" id="boundary" inkscape:connector-curvature="0" />
	<path style="fill:none;stroke:red;stroke-width:1px;stroke-linecap:butt;stroke-linejoin:miter;stroke-opacity:1" d="M 993.532,239.25 991.887,247.476 z" id="boundary" inkscape:connector-curvature="0" />
	<path style="fill:none;stroke:red;stroke-width:1px;stroke-linecap:butt;stroke-linejoin:miter;stroke-opacity:1" d="M 954.05,272.153 961.453,268.04 z" id="boundary" inkscape:connector-curvature="0" />
	<path style="fill:none;stroke:red;stroke-width:1px;stroke-linecap:butt;stroke-linejoin:miter;stroke-opacity:1" d="M 968.856,263.104 975.436,255.701 z" id="boundary" inkscape:connector-curvature="0" />
	<path style="fill:none;stroke:red;stroke-width:1px;stroke-linecap:butt;stroke-linejoin:miter;stroke-opacity:1" d="M 968.856,263.104 961.453,268.04 z" id="boundary" inkscape:connector-curvature="0" />
	<path style="fill:none;stroke:red;stroke-width:1px;stroke-linecap:butt;stroke-linejoin:miter;stroke-opacity:1" d="M 954.05,272.153 946.647,276.265 z" id="boundary" inkscape:connector-curvature="0" />
	<path style="fill:none;stroke:red;stroke-width:1px;stroke-linecap:butt;stroke-linejoin:miter;stroke-opacity:1" d="M 787.071,313.28 795.297,313.28 z" id="boundary" inkscape:connector-curvature="0" />
	<path style="fill:none;stroke:red;stroke-width:1px;stroke-linecap:butt;stroke-linejoin:miter;stroke-opacity:1" d="M 806.813,322.328 800.232,328.909 z" id="boundary" inkscape:connector-curvature="0" />
	<path style="fill:none;stroke:red;stroke-width:1px;stroke-linecap:butt;stroke-linejoin:miter;stroke-opacity:1" d="M 795.297,313.28 803.522,313.28 z" id="boundary" inkscape:connector-curvature="0" />
	<path style="fill:none;stroke:red;stroke-width:1px;stroke-linecap:butt;stroke-linejoin:miter;stroke-opacity:1" d="M 803.522,313.28 806.813,322.328 z" id="boundary" inkscape:connector-curvature="0" />
	<path style="fill:none;stroke:red;stroke-width:1px;stroke-linecap:butt;stroke-linejoin:miter;stroke-opacity:1" d="M 792.007,333.022 800.232,328.909 z" id="boundary" inkscape:connector-curvature="0" />
	<path style="fill:none;stroke:red;stroke-width:1px;stroke-linecap:butt;stroke-linejoin:miter;stroke-opacity:1" d="M 787.894,341.247 792.007,333.022 z" id="boundary" inkscape:connector-curvature="0" />
	<path style="fill:none;stroke:red;stroke-width:1px;stroke-linecap:butt;stroke-linejoin:miter;stroke-opacity:1" d="M 800.232,370.036 792.007,374.149 z" id="boundary" inkscape:connector-curvature="0" />
	<path style="fill:none;stroke:red;stroke-width:1px;stroke-linecap:butt;stroke-linejoin:miter;stroke-opacity:1" d="M 806.813,362.633 800.232,370.036 z" id="boundary" inkscape:connector-curvature="0" />
	<path style="fill:none;stroke:red;stroke-width:1px;stroke-linecap:butt;stroke-linejoin:miter;stroke-opacity:1" d="M 810.925,354.408 806.813,362.633 z" id="boundary" inkscape:connector-curvature="0" />
	<path style="fill:none;stroke:red;stroke-width:1px;stroke-linecap:butt;stroke-linejoin:miter;stroke-opacity:1" d="M 778.846,313.28 787.071,313.28 z" id="boundary" inkscape:connector-curvature="0" />
	<path style="fill:none;stroke:red;stroke-width:1px;stroke-linecap:butt;stroke-linejoin:miter;stroke-opacity:1" d="M 839.715,317.393 843.828,309.167 z" id="boundary" inkscape:connector-curvature="0" />
	<path style="fill:none;stroke:red;stroke-width:1px;stroke-linecap:butt;stroke-linejoin:miter;stroke-opacity:1" d="M 843.828,309.167 852.053,305.055 z" id="boundary" inkscape:connector-curvature="0" />
	<path style="fill:none;stroke:red;stroke-width:1px;stroke-linecap:butt;stroke-linejoin:miter;stroke-opacity:1" d="M 839.715,317.393 833.957,328.086 z" id="boundary" inkscape:connector-curvature="0" />
	<path style="fill:none;stroke:red;stroke-width:1px;stroke-linecap:butt;stroke-linejoin:miter;stroke-opacity:1" d="M 867.682,300.942 860.279,305.055 z" id="boundary" inkscape:connector-curvature="0" />
	<path style="fill:none;stroke:red;stroke-width:1px;stroke-linecap:butt;stroke-linejoin:miter;stroke-opacity:1" d="M 860.279,305.055 852.053,305.055 z" id="boundary" inkscape:connector-curvature="0" />
	<path style="fill:none;stroke:red;stroke-width:1px;stroke-linecap:butt;stroke-linejoin:miter;stroke-opacity:1" d="M 810.925,354.408 819.151,350.295 z" id="boundary" inkscape:connector-curvature="0" />
	<path style="fill:none;stroke:red;stroke-width:1px;stroke-linecap:butt;stroke-linejoin:miter;stroke-opacity:1" d="M 825.731,344.537 827.376,333.844 z" id="boundary" inkscape:connector-curvature="0" />
	<path style="fill:none;stroke:red;stroke-width:1px;stroke-linecap:butt;stroke-linejoin:miter;stroke-opacity:1" d="M 827.376,333.844 833.957,328.086 z" id="boundary" inkscape:connector-curvature="0" />
	<path style="fill:none;stroke:red;stroke-width:1px;stroke-linecap:butt;stroke-linejoin:miter;stroke-opacity:1" d="M 825.731,344.537 819.151,350.295 z" id="boundary" inkscape:connector-curvature="0" />
	<circle cx="4" cy="187.43" r="4" fill="#0" id="circle0"/>
	<circle cx="4" cy="195.655" r="4" fill="#0" id="circle1"/>
	<circle cx="4" cy="203.881" r="4" fill="#0" id="circle2"/>
	<circle cx="4" cy="212.106" r="4" fill="#0" id="circle3"/>
	<circle cx="4" cy="220.332" r="4" fill="#0" id="circle4"/>
	<circle cx="4" cy="228.557" r="4" fill="#0" id="circle5"/>
	<circle cx="8.11277" cy="235.96" r="4" fill="#0" id="circle6"/>
	<circle cx="8.11277" cy="244.186" r="4" fill="#0" id="circle7"/>
	<circle cx="10.5804" cy="180.849" r="4" fill="#0" id="circle8"/>
	<circle cx="12.2255" cy="251.589" r="4" fill="#0" id="circle9"/>
	<circle cx="12.2255" cy="259.814" r="4" fill="#0" id="circle10"/>
	<circle cx="14.6932" cy="172.624" r="4" fill="#0" id="circle11"/>
	<circle cx="17.1609" cy="266.395" r="4" fill="#0" id="circle12"/>
	<circle cx="20.4511" cy="162.753" r="4" fill="#0" id="circle13"/>
	<circle cx="21.2736" cy="273.798" r="4" fill="#0" id="circle14"/>
	<circle cx="27.0315" cy="156.172" r="4" fill="#0" id="circle15"/>
	<circle cx="27.0315" cy="280.378" r="4" fill="#0" id="circle16"/>
	<circle cx="34.4345" cy="152.06" r="4" fill="#0" id="circle17"/>
	<circle cx="34.4345" cy="284.491" r="4" fill="#0" id="circle18"/>
	<circle cx="41.8375" cy="147.947" r="4" fill="#0" id="circle19"/>
	<circle cx="41.8375" cy="288.604" r="4" fill="#0" id="circle20"/>
	<circle cx="50.063" cy="145.479" r="4" fill="#0" id="circle21"/>
	<circle cx="50.063" cy="288.604" r="4" fill="#0" id="circle22"/>
	<circle cx="57.466" cy="284.491" r="4" fill="#0" id="circle23"/>
	<circle cx="58.2886" cy="146.302" r="4" fill="#0" id="circle24"/>
	<circle cx="65.6915" cy="284.491" r="4" fill="#0" id="circle25"/>
	<circle cx="66.5141" cy="147.947" r="4" fill="#0" id="circle26"/>
	<circle cx="73.0945" cy="280.378" r="4" fill="#0" id="circle27"/>
	<circle cx="74.7396" cy="147.947" r="4" fill="#0" id="circle28"/>
	<circle cx="81.3201" cy="278.733" r="4" fill="#0" id="circle29"/>
	<circle cx="82.9652" cy="150.415" r="4" fill="#0" id="circle30"/>
	<circle cx="89.5456" cy="276.265" r="4" fill="#0" id="circle31"/>
	<circle cx="91.1907" cy="152.06" r="4" fill="#0" id="circle32"/>
	<circle cx="96.9486" cy="272.153" r="4" fill="#0" id="circle33"/>
	<circle cx="98.5937" cy="156.172" r="4" fill="#0" id="circle34"/>
	<circle cx="105.174" cy="271.33" r="4" fill="#0" id="circle35"/>
	<circle cx="105.997" cy="160.285" r="4" fill="#0" id="circle36"/>
	<circle cx="113.4" cy="164.398" r="4" fill="#0" id="circle37"/>
	<circle cx="113.4" cy="268.04" r="4" fill="#0" id="circle38"/>
	<circle cx="121.625" cy="164.398" r="4" fill="#0" id="circle39"/>
	<circle cx="121.625" cy="267.217" r="4" fill="#0" id="circle40"/>
	<circle cx="128.206" cy="259.814" r="4" fill="#0" id="circle41"/>
	<circle cx="129.028" cy="168.511" r="4" fill="#0" id="circle42"/>
	<circle cx="136.431" cy="255.701" r="4" fill="#0" id="circle43"/>
	<circle cx="137.254" cy="168.511" r="4" fill="#0" id="circle44"/>
	<circle cx="144.657" cy="172.624" r="4" fill="#0" id="circle45"/>
	<circle cx="144.657" cy="255.701" r="4" fill="#0" id="circle46"/>
	<circle cx="152.06" cy="251.589" r="4" fill="#0" id="circle47"/>
	<circle cx="152.882" cy="172.624" r="4" fill="#0" id="circle48"/>
	<circle cx="160.285" cy="176.736" r="4" fill="#0" id="circle49"/>
	<circle cx="160.285" cy="251.589" r="4" fill="#0" id="circle50"/>
	<circle cx="167.688" cy="180.849" r="4" fill="#0" id="circle51"/>
	<circle cx="167.688" cy="247.476" r="4" fill="#0" id="circle52"/>
	<circle cx="168.511" cy="125.738" r="4" fill="#0" id="circle53"/>
	<circle cx="168.511" cy="133.964" r="4" fill="#0" id="circle54"/>
	<circle cx="168.511" cy="142.189" r="4" fill="#0" id="circle55"/>
	<circle cx="172.624" cy="113.4" r="4" fill="#0" id="circle56"/>
	<circle cx="172.624" cy="149.592" r="4" fill="#0" id="circle57"/>
	<circle cx="175.914" cy="181.672" r="4" fill="#0" id="circle58"/>
	<circle cx="175.914" cy="247.476" r="4" fill="#0" id="circle59"/>
	<circle cx="176.736" cy="156.995" r="4" fill="#0" id="circle60"/>
	<circle cx="176.736" cy="257.347" r="4" fill="#0" id="circle61"/>
	<circle cx="176.736" cy="265.572" r="4" fill="#0" id="circle62"/>
	<circle cx="176.736" cy="273.798" r="4" fill="#0" id="circle63"/>
	<circle cx="179.204" cy="165.221" r="4" fill="#0" id="circle64"/>
	<circle cx="180.849" cy="109.287" r="4" fill="#0" id="circle65"/>
	<circle cx="183.317" cy="243.363" r="4" fill="#0" id="circle66"/>
	<circle cx="183.317" cy="251.589" r="4" fill="#0" id="circle67"/>
	<circle cx="183.317" cy="279.556" r="4" fill="#0" id="circle68"/>
	<circle cx="184.139" cy="184.962" r="4" fill="#0" id="circle69"/>
	<circle cx="187.43" cy="168.511" r="4" fill="#0" id="circle70"/>
	<circle cx="189.075" cy="105.174" r="4" fill="#0" id="circle71"/>
	<circle cx="189.897" cy="284.491" r="4" fill="#0" id="circle72"/>
	<circle cx="190.72" cy="176.736" r="4" fill="#0" id="circle73"/>
	<circle cx="191.542" cy="243.363" r="4" fill="#0" id="circle74"/>
	<circle cx="192.365" cy="184.962" r="4" fill="#0" id="circle75"/>
	<circle cx="197.3" cy="102.706" r="4" fill="#0" id="circle76"/>
	<circle cx="197.3" cy="288.604" r="4" fill="#0" id="circle77"/>
	<circle cx="204.703" cy="98.5937" r="4" fill="#0" id="circle78"/>
	<circle cx="204.703" cy="292.716" r="4" fill="#0" id="circle79"/>
	<circle cx="212.106" cy="94.4809" r="4" fill="#0" id="circle80"/>
	<circle cx="212.106" cy="296.829" r="4" fill="#0" id="circle81"/>
	<circle cx="219.509" cy="90.3682" r="4" fill="#0" id="circle82"/>
	<circle cx="219.509" cy="300.942" r="4" fill="#0" id="circle83"/>
	<circle cx="226.912" cy="305.055" r="4" fill="#0" id="circle84"/>
	<circle cx="227.735" cy="90.3682" r="4" fill="#0" id="circle85"/>
	<circle cx="235.138" cy="86.2554" r="4" fill="#0" id="circle86"/>
	<circle cx="235.138" cy="305.055" r="4" fill="#0" id="circle87"/>
	<circle cx="242.541" cy="309.167" r="4" fill="#0" id="circle88"/>
	<circle cx="243.363" cy="86.2554" r="4" fill="#0" id="circle89"/>
	<circle cx="250.766" cy="309.167" r="4" fill="#0" id="circle90"/>
	<circle cx="251.589" cy="83.7877" r="4" fill="#0" id="circle91"/>
	<circle cx="258.169" cy="313.28" r="4" fill="#0" id="circle92"/>
	<circle cx="259.814" cy="82.1426" r="4" fill="#0" id="circle93"/>
	<circle cx="266.395" cy="313.28" r="4" fill="#0" id="circle94"/>
	<circle cx="268.04" cy="82.1426" r="4" fill="#0" id="circle95"/>
	<circle cx="274.62" cy="313.28" r="4" fill="#0" id="circle96"/>
	<circle cx="276.265" cy="82.1426" r="4" fill="#0" id="circle97"/>
	<circle cx="282.023" cy="317.393" r="4" fill="#0" id="circle98"/>
	<circle cx="283.668" cy="78.0299" r="4" fill="#0" id="circle99"/>
	<circle cx="289.426" cy="321.506" r="4" fill="#0" id="circle100"/>
	<circle cx="291.894" cy="78.0299" r="4" fill="#0" id="circle101"/>
	<circle cx="297.652" cy="323.973" r="4" fill="#0" id="circle102"/>
	<circle cx="299.297" cy="73.9171" r="4" fill="#0" id="circle103"/>
	<circle cx="305.877" cy="325.619" r="4" fill="#0" id="circle104"/>
	<circle cx="307.522" cy="73.9171" r="4" fill="#0" id="circle105"/>
	<circle cx="314.103" cy="325.619" r="4" fill="#0" id="circle106"/>
	<circle cx="314.925" cy="69.8043" r="4" fill="#0" id="circle107"/>
	<circle cx="322.328" cy="325.619" r="4" fill="#0" id="circle108"/>
	<circle cx="323.151" cy="69.8043" r="4" fill="#0" id="circle109"/>
	<circle cx="330.554" cy="328.086" r="4" fill="#0" id="circle110"/>
	<circle cx="331.376" cy="69.8043" r="4" fill="#0" id="circle111"/>
	<circle cx="338.779" cy="329.731" r="4" fill="#0" id="circle112"/>
	<circle cx="339.602" cy="69.8043" r="4" fill="#0" id="circle113"/>
	<circle cx="347.005" cy="329.731" r="4" fill="#0" id="circle114"/>
	<circle cx="347.828" cy="69.8043" r="4" fill="#0" id="circle115"/>
	<circle cx="355.231" cy="329.731" r="4" fill="#0" id="circle116"/>
	<circle cx="356.053" cy="69.8043" r="4" fill="#0" id="circle117"/>
	<circle cx="363.456" cy="332.199" r="4" fill="#0" id="circle118"/>
	<circle cx="364.279" cy="69.8043" r="4" fill="#0" id="circle119"/>
	<circle cx="371.682" cy="333.844" r="4" fill="#0" id="circle120"/>
	<circle cx="372.504" cy="69.8043" r="4" fill="#0" id="circle121"/>
	<circle cx="379.907" cy="333.844" r="4" fill="#0" id="circle122"/>
	<circle cx="380.73" cy="69.8043" r="4" fill="#0" id="circle123"/>
	<circle cx="388.133" cy="333.844" r="4" fill="#0" id="circle124"/>
	<circle cx="388.955" cy="69.8043" r="4" fill="#0" id="circle125"/>
	<circle cx="396.358" cy="333.844" r="4" fill="#0" id="circle126"/>
	<circle cx="397.181" cy="69.8043" r="4" fill="#0" id="circle127"/>
	<circle cx="404.584" cy="333.844" r="4" fill="#0" id="circle128"/>
	<circle cx="405.406" cy="69.8043" r="4" fill="#0" id="circle129"/>
	<circle cx="412.809" cy="333.844" r="4" fill="#0" id="circle130"/>
	<circle cx="413.632" cy="69.8043" r="4" fill="#0" id="circle131"/>
	<circle cx="421.035" cy="333.844" r="4" fill="#0" id="circle132"/>
	<circle cx="421.857" cy="69.8043" r="4" fill="#0" id="circle133"/>
	<circle cx="429.26" cy="333.844" r="4" fill="#0" id="circle134"/>
	<circle cx="430.083" cy="69.8043" r="4" fill="#0" id="circle135"/>
	<circle cx="437.486" cy="333.844" r="4" fill="#0" id="circle136"/>
	<circle cx="438.308" cy="69.8043" r="4" fill="#0" id="circle137"/>
	<circle cx="445.711" cy="333.844" r="4" fill="#0" id="circle138"/>
	<circle cx="446.534" cy="69.8043" r="4" fill="#0" id="circle139"/>
	<circle cx="453.114" cy="329.731" r="4" fill="#0" id="circle140"/>
	<circle cx="454.76" cy="69.8043" r="4" fill="#0" id="circle141"/>
	<circle cx="461.34" cy="329.731" r="4" fill="#0" id="circle142"/>
	<circle cx="462.985" cy="69.8043" r="4" fill="#0" id="circle143"/>
	<circle cx="469.566" cy="329.731" r="4" fill="#0" id="circle144"/>
	<circle cx="471.211" cy="69.8043" r="4" fill="#0" id="circle145"/>
	<circle cx="477.791" cy="329.731" r="4" fill="#0" id="circle146"/>
	<circle cx="479.436" cy="69.8043" r="4" fill="#0" id="circle147"/>
	<circle cx="486.017" cy="329.731" r="4" fill="#0" id="circle148"/>
	<circle cx="486.839" cy="73.9171" r="4" fill="#0" id="circle149"/>
	<circle cx="494.242" cy="329.731" r="4" fill="#0" id="circle150"/>
	<circle cx="495.065" cy="73.9171" r="4" fill="#0" id="circle151"/>
	<circle cx="502.468" cy="329.731" r="4" fill="#0" id="circle152"/>
	<circle cx="503.29" cy="73.9171" r="4" fill="#0" id="circle153"/>
	<circle cx="509.871" cy="325.619" r="4" fill="#0" id="circle154"/>
	<circle cx="511.516" cy="73.9171" r="4" fill="#0" id="circle155"/>
	<circle cx="518.096" cy="325.619" r="4" fill="#0" id="circle156"/>
	<circle cx="519.741" cy="73.9171" r="4" fill="#0" id="circle157"/>
	<circle cx="526.322" cy="325.619" r="4" fill="#0" id="circle158"/>
	<circle cx="527.967" cy="73.9171" r="4" fill="#0" id="circle159"/>
	<circle cx="532.902" cy="320.683" r="4" fill="#0" id="circle160"/>
	<circle cx="536.192" cy="70.6269" r="4" fill="#0" id="circle161"/>
	<circle cx="537.015" cy="313.28" r="4" fill="#0" id="circle162"/>
	<circle cx="544.418" cy="69.8043" r="4" fill="#0" id="circle163"/>
	<circle cx="544.418" cy="309.167" r="4" fill="#0" id="circle164"/>
	<circle cx="550.998" cy="64.0464" r="4" fill="#0" id="circle165"/>
	<circle cx="550.998" cy="314.103" r="4" fill="#0" id="circle166"/>
	<circle cx="559.224" cy="59.9337" r="4" fill="#0" id="circle167"/>
	<circle cx="559.224" cy="310.813" r="4" fill="#0" id="circle168"/>
	<circle cx="563.337" cy="51.7081" r="4" fill="#0" id="circle169"/>
	<circle cx="567.449" cy="313.28" r="4" fill="#0" id="circle170"/>
	<circle cx="571.562" cy="47.5954" r="4" fill="#0" id="circle171"/>
	<circle cx="574.852" cy="309.167" r="4" fill="#0" id="circle172"/>
	<circle cx="579.788" cy="45.1277" r="4" fill="#0" id="circle173"/>
	<circle cx="583.078" cy="309.167" r="4" fill="#0" id="circle174"/>
	<circle cx="587.191" cy="41.0149" r="4" fill="#0" id="circle175"/>
	<circle cx="591.303" cy="307.522" r="4" fill="#0" id="circle176"/>
	<circle cx="594.594" cy="36.9022" r="4" fill="#0" id="circle177"/>
	<circle cx="597.061" cy="300.942" r="4" fill="#0" id="circle178"/>
	<circle cx="601.174" cy="292.716" r="4" fill="#0" id="circle179"/>
	<circle cx="602.819" cy="32.7894" r="4" fill="#0" id="circle180"/>
	<circle cx="608.577" cy="288.604" r="4" fill="#0" id="circle181"/>
	<circle cx="610.222" cy="28.6766" r="4" fill="#0" id="circle182"/>
	<circle cx="616.803" cy="288.604" r="4" fill="#0" id="circle183"/>
	<circle cx="618.448" cy="28.6766" r="4" fill="#0" id="circle184"/>
	<circle cx="624.206" cy="292.716" r="4" fill="#0" id="circle185"/>
	<circle cx="625.851" cy="24.5638" r="4" fill="#0" id="circle186"/>
	<circle cx="631.609" cy="296.829" r="4" fill="#0" id="circle187"/>
	<circle cx="634.076" cy="24.5638" r="4" fill="#0" id="circle188"/>
	<circle cx="639.834" cy="300.119" r="4" fill="#0" id="circle189"/>
	<circle cx="641.479" cy="20.4511" r="4" fill="#0" id="circle190"/>
	<circle cx="647.237" cy="304.232" r="4" fill="#0" id="circle191"/>
	<circle cx="649.705" cy="20.4511" r="4" fill="#0" id="circle192"/>
	<circle cx="655.463" cy="305.055" r="4" fill="#0" id="circle193"/>
	<circle cx="657.93" cy="20.4511" r="4" fill="#0" id="circle194"/>
	<circle cx="663.688" cy="307.522" r="4" fill="#0" id="circle195"/>
	<circle cx="665.333" cy="16.3383" r="4" fill="#0" id="circle196"/>
	<circle cx="671.914" cy="309.167" r="4" fill="#0" id="circle197"/>
	<circle cx="673.559" cy="16.3383" r="4" fill="#0" id="circle198"/>
	<circle cx="680.139" cy="309.167" r="4" fill="#0" id="circle199"/>
	<circle cx="680.962" cy="12.2255" r="4" fill="#0" id="circle200"/>
	<circle cx="688.365" cy="311.635" r="4" fill="#0" id="circle201"/>
	<circle cx="689.187" cy="8.11277" r="4" fill="#0" id="circle202"/>
	<circle cx="696.59" cy="313.28" r="4" fill="#0" id="circle203"/>
	<circle cx="697.413" cy="8.11277" r="4" fill="#0" id="circle204"/>
	<circle cx="704.816" cy="313.28" r="4" fill="#0" id="circle205"/>
	<circle cx="705.638" cy="8.11277" r="4" fill="#0" id="circle206"/>
	<circle cx="713.041" cy="313.28" r="4" fill="#0" id="circle207"/>
	<circle cx="713.864" cy="8.11277" r="4" fill="#0" id="circle208"/>
	<circle cx="721.267" cy="313.28" r="4" fill="#0" id="circle209"/>
	<circle cx="722.09" cy="8.11277" r="4" fill="#0" id="circle210"/>
	<circle cx="729.493" cy="313.28" r="4" fill="#0" id="circle211"/>
	<circle cx="730.315" cy="8.11277" r="4" fill="#0" id="circle212"/>
	<circle cx="737.718" cy="4" r="4" fill="#0" id="circle213"/>
	<circle cx="737.718" cy="313.28" r="4" fill="#0" id="circle214"/>
	<circle cx="745.944" cy="4" r="4" fill="#0" id="circle215"/>
	<circle cx="745.944" cy="313.28" r="4" fill="#0" id="circle216"/>
	<circle cx="753.347" cy="8.11277" r="4" fill="#0" id="circle217"/>
	<circle cx="754.169" cy="313.28" r="4" fill="#0" id="circle218"/>
	<circle cx="761.572" cy="8.11277" r="4" fill="#0" id="circle219"/>
	<circle cx="762.395" cy="313.28" r="4" fill="#0" id="circle220"/>
	<circle cx="769.798" cy="8.11277" r="4" fill="#0" id="circle221"/>
	<circle cx="770.62" cy="313.28" r="4" fill="#0" id="circle222"/>
	<circle cx="777.201" cy="360.166" r="4" fill="#0" id="circle223"/>
	<circle cx="777.201" cy="372.504" r="4" fill="#0" id="circle224"/>
	<circle cx="778.023" cy="8.11277" r="4" fill="#0" id="circle225"/>
	<circle cx="778.846" cy="313.28" r="4" fill="#0" id="circle226"/>
	<circle cx="781.313" cy="347.828" r="4" fill="#0" id="circle227"/>
	<circle cx="783.781" cy="365.924" r="4" fill="#0" id="circle228"/>
	<circle cx="783.781" cy="378.262" r="4" fill="#0" id="circle229"/>
	<circle cx="786.249" cy="8.11277" r="4" fill="#0" id="circle230"/>
	<circle cx="787.071" cy="313.28" r="4" fill="#0" id="circle231"/>
	<circle cx="787.894" cy="341.247" r="4" fill="#0" id="circle232"/>
	<circle cx="792.007" cy="333.022" r="4" fill="#0" id="circle233"/>
	<circle cx="792.007" cy="374.149" r="4" fill="#0" id="circle234"/>
	<circle cx="793.652" cy="12.2255" r="4" fill="#0" id="circle235"/>
	<circle cx="795.297" cy="313.28" r="4" fill="#0" id="circle236"/>
	<circle cx="800.232" cy="328.909" r="4" fill="#0" id="circle237"/>
	<circle cx="800.232" cy="370.036" r="4" fill="#0" id="circle238"/>
	<circle cx="801.055" cy="16.3383" r="4" fill="#0" id="circle239"/>
	<circle cx="803.522" cy="313.28" r="4" fill="#0" id="circle240"/>
	<circle cx="806.813" cy="322.328" r="4" fill="#0" id="circle241"/>
	<circle cx="806.813" cy="362.633" r="4" fill="#0" id="circle242"/>
	<circle cx="808.458" cy="20.4511" r="4" fill="#0" id="circle243"/>
	<circle cx="810.925" cy="354.408" r="4" fill="#0" id="circle244"/>
	<circle cx="815.861" cy="24.5638" r="4" fill="#0" id="circle245"/>
	<circle cx="819.151" cy="350.295" r="4" fill="#0" id="circle246"/>
	<circle cx="822.441" cy="30.3217" r="4" fill="#0" id="circle247"/>
	<circle cx="825.731" cy="344.537" r="4" fill="#0" id="circle248"/>
	<circle cx="827.376" cy="36.9022" r="4" fill="#0" id="circle249"/>
	<circle cx="827.376" cy="333.844" r="4" fill="#0" id="circle250"/>
	<circle cx="831.489" cy="44.3051" r="4" fill="#0" id="circle251"/>
	<circle cx="833.957" cy="328.086" r="4" fill="#0" id="circle252"/>
	<circle cx="835.602" cy="51.7081" r="4" fill="#0" id="circle253"/>
	<circle cx="839.715" cy="59.1111" r="4" fill="#0" id="circle254"/>
	<circle cx="839.715" cy="317.393" r="4" fill="#0" id="circle255"/>
	<circle cx="843.828" cy="66.5141" r="4" fill="#0" id="circle256"/>
	<circle cx="843.828" cy="309.167" r="4" fill="#0" id="circle257"/>
	<circle cx="845.473" cy="74.7396" r="4" fill="#0" id="circle258"/>
	<circle cx="852.053" cy="305.055" r="4" fill="#0" id="circle259"/>
	<circle cx="853.698" cy="78.0299" r="4" fill="#0" id="circle260"/>
	<circle cx="860.279" cy="305.055" r="4" fill="#0" id="circle261"/>
	<circle cx="861.101" cy="82.1426" r="4" fill="#0" id="circle262"/>
	<circle cx="867.682" cy="300.942" r="4" fill="#0" id="circle263"/>
	<circle cx="869.327" cy="82.1426" r="4" fill="#0" id="circle264"/>
	<circle cx="875.085" cy="296.829" r="4" fill="#0" id="circle265"/>
	<circle cx="877.552" cy="82.1426" r="4" fill="#0" id="circle266"/>
	<circle cx="882.488" cy="292.716" r="4" fill="#0" id="circle267"/>
	<circle cx="885.778" cy="82.1426" r="4" fill="#0" id="circle268"/>
	<circle cx="890.713" cy="292.716" r="4" fill="#0" id="circle269"/>
	<circle cx="893.181" cy="86.2554" r="4" fill="#0" id="circle270"/>
	<circle cx="898.939" cy="291.894" r="4" fill="#0" id="circle271"/>
	<circle cx="901.406" cy="86.2554" r="4" fill="#0" id="circle272"/>
	<circle cx="907.164" cy="288.604" r="4" fill="#0" id="circle273"/>
	<circle cx="908.809" cy="90.3682" r="4" fill="#0" id="circle274"/>
	<circle cx="915.39" cy="287.781" r="4" fill="#0" id="circle275"/>
	<circle cx="917.035" cy="92.0133" r="4" fill="#0" id="circle276"/>
	<circle cx="921.97" cy="98.5937" r="4" fill="#0" id="circle277"/>
	<circle cx="923.615" cy="284.491" r="4" fill="#0" id="circle278"/>
	<circle cx="929.373" cy="102.706" r="4" fill="#0" id="circle279"/>
	<circle cx="931.018" cy="280.378" r="4" fill="#0" id="circle280"/>
	<circle cx="937.599" cy="104.352" r="4" fill="#0" id="circle281"/>
	<circle cx="939.244" cy="280.378" r="4" fill="#0" id="circle282"/>
	<circle cx="945.002" cy="108.464" r="4" fill="#0" id="circle283"/>
	<circle cx="946.647" cy="276.265" r="4" fill="#0" id="circle284"/>
	<circle cx="950.76" cy="115.045" r="4" fill="#0" id="circle285"/>
	<circle cx="954.05" cy="272.153" r="4" fill="#0" id="circle286"/>
	<circle cx="954.872" cy="122.448" r="4" fill="#0" id="circle287"/>
	<circle cx="958.985" cy="226.912" r="4" fill="#0" id="circle288"/>
	<circle cx="961.453" cy="268.04" r="4" fill="#0" id="circle289"/>
	<circle cx="963.098" cy="125.738" r="4" fill="#0" id="circle290"/>
	<circle cx="965.566" cy="231.847" r="4" fill="#0" id="circle291"/>
	<circle cx="967.211" cy="222.799" r="4" fill="#0" id="circle292"/>
	<circle cx="968.856" cy="132.318" r="4" fill="#0" id="circle293"/>
	<circle cx="968.856" cy="263.104" r="4" fill="#0" id="circle294"/>
	<circle cx="971.323" cy="214.574" r="4" fill="#0" id="circle295"/>
	<circle cx="973.791" cy="230.202" r="4" fill="#0" id="circle296"/>
	<circle cx="975.436" cy="138.076" r="4" fill="#0" id="circle297"/>
	<circle cx="975.436" cy="255.701" r="4" fill="#0" id="circle298"/>
	<circle cx="978.726" cy="146.302" r="4" fill="#0" id="circle299"/>
	<circle cx="979.549" cy="210.461" r="4" fill="#0" id="circle300"/>
	<circle cx="982.017" cy="230.202" r="4" fill="#0" id="circle301"/>
	<circle cx="983.662" cy="251.589" r="4" fill="#0" id="circle302"/>
	<circle cx="985.307" cy="152.06" r="4" fill="#0" id="circle303"/>
	<circle cx="987.774" cy="160.285" r="4" fill="#0" id="circle304"/>
	<circle cx="987.774" cy="206.348" r="4" fill="#0" id="circle305"/>
	<circle cx="990.242" cy="231.025" r="4" fill="#0" id="circle306"/>
	<circle cx="991.887" cy="167.688" r="4" fill="#0" id="circle307"/>
	<circle cx="991.887" cy="247.476" r="4" fill="#0" id="circle308"/>
	<circle cx="993.532" cy="239.25" r="4" fill="#0" id="circle309"/>
	<circle cx="994.355" cy="200.59" r="4" fill="#0" id="circle310"/>
	<circle cx="996" cy="175.091" r="4" fill="#0" id="circle311"/>
	<circle cx="996" cy="183.317" r="4" fill="#0" id="circle312"/>
	<circle cx="996" cy="191.542" r="4" fill="#0" id="circle313"/>
	</g>
</svg>