<?xml version="1.0" encoding="UTF-8" standalone="no"?>
<!-- Created with CurveBenchmark -->
<svg
	xmlns:dc="http://purl.org/dc/elements/1.1/"
	xmlns:cc="http://creativecommons.org/ns#"
	xmlns:rdf="http://www.w3.org/1999/02/22-rdf-syntax-ns#"
	xmlns:svg="http://www.w3.org/2000/svg"
	xmlns="http://www.w3.org/2000/svg"
	xmlns:sodipodi="http://sodipodi.sourceforge.net/DTD/sodipodi-0.dtd"
	xmlns:inkscape="http://www.inkscape.org/namespaces/inkscape"
	width="1000"
	height="1000"
	id="svg2"
	version="1.1"
	sodipodi:docname="manifold/nncrust-fish345.png.txt">
<defs
	id="defs4" />
<metadata
	id="metadata7">
	<rdf:RDF>
		<cc:Work
			rdf:about="">
			<dc:format>image/svg+xml</dc:format>
			<dc:type
				rdf:resource="http://purl.org/dc/dcmitype/StillImage" />
			<dc:title></dc:title>
		</cc:Work>
	</rdf:RDF>
</metadata>
<g
	inkscape:label="Layer 1"
	inkscape:groupmode="layer"
	id="layer1">
	<path style="fill:none;stroke:red;stroke-width:1px;stroke-linecap:butt;stroke-linejoin:miter;stroke-opacity:1" d="M 56.0583,174.636 84.9796,163.067 z" id="boundary" inkscape:connector-curvature="0" />
	<path style="fill:none;stroke:red;stroke-width:1px;stroke-linecap:butt;stroke-linejoin:miter;stroke-opacity:1" d="M 113.901,151.499 84.9796,163.067 z" id="boundary" inkscape:connector-curvature="0" />
	<path style="fill:none;stroke:red;stroke-width:1px;stroke-linecap:butt;stroke-linejoin:miter;stroke-opacity:1" d="M 139.93,137.038 113.901,151.499 z" id="boundary" inkscape:connector-curvature="0" />
	<path style="fill:none;stroke:red;stroke-width:1px;stroke-linecap:butt;stroke-linejoin:miter;stroke-opacity:1" d="M 197.773,116.793 168.851,128.362 z" id="boundary" inkscape:connector-curvature="0" />
	<path style="fill:none;stroke:red;stroke-width:1px;stroke-linecap:butt;stroke-linejoin:miter;stroke-opacity:1" d="M 168.851,128.362 139.93,137.038 z" id="boundary" inkscape:connector-curvature="0" />
	<path style="fill:none;stroke:red;stroke-width:1px;stroke-linecap:butt;stroke-linejoin:miter;stroke-opacity:1" d="M 12.6764,232.478 4,203.557 z" id="boundary" inkscape:connector-curvature="0" />
	<path style="fill:none;stroke:red;stroke-width:1px;stroke-linecap:butt;stroke-linejoin:miter;stroke-opacity:1" d="M 4,203.557 30.0292,189.096 z" id="boundary" inkscape:connector-curvature="0" />
	<path style="fill:none;stroke:red;stroke-width:1px;stroke-linecap:butt;stroke-linejoin:miter;stroke-opacity:1" d="M 30.0292,189.096 56.0583,174.636 z" id="boundary" inkscape:connector-curvature="0" />
	<path style="fill:none;stroke:red;stroke-width:1px;stroke-linecap:butt;stroke-linejoin:miter;stroke-opacity:1" d="M 56.0583,275.86 35.8134,252.723 z" id="boundary" inkscape:connector-curvature="0" />
	<path style="fill:none;stroke:red;stroke-width:1px;stroke-linecap:butt;stroke-linejoin:miter;stroke-opacity:1" d="M 35.8134,252.723 12.6764,232.478 z" id="boundary" inkscape:connector-curvature="0" />
	<path style="fill:none;stroke:red;stroke-width:1px;stroke-linecap:butt;stroke-linejoin:miter;stroke-opacity:1" d="M 342.379,4 371.3,9.78426 z" id="boundary" inkscape:connector-curvature="0" />
	<path style="fill:none;stroke:red;stroke-width:1px;stroke-linecap:butt;stroke-linejoin:miter;stroke-opacity:1" d="M 327.918,30.0292 342.379,4 z" id="boundary" inkscape:connector-curvature="0" />
	<path style="fill:none;stroke:red;stroke-width:1px;stroke-linecap:butt;stroke-linejoin:miter;stroke-opacity:1" d="M 400.222,6.89213 371.3,9.78426 z" id="boundary" inkscape:connector-curvature="0" />
	<path style="fill:none;stroke:red;stroke-width:1px;stroke-linecap:butt;stroke-linejoin:miter;stroke-opacity:1" d="M 458.064,24.2449 429.143,18.4606 z" id="boundary" inkscape:connector-curvature="0" />
	<path style="fill:none;stroke:red;stroke-width:1px;stroke-linecap:butt;stroke-linejoin:miter;stroke-opacity:1" d="M 429.143,18.4606 400.222,6.89213 z" id="boundary" inkscape:connector-curvature="0" />
	<path style="fill:none;stroke:red;stroke-width:1px;stroke-linecap:butt;stroke-linejoin:miter;stroke-opacity:1" d="M 458.064,24.2449 484.093,38.7055 z" id="boundary" inkscape:connector-curvature="0" />
	<path style="fill:none;stroke:red;stroke-width:1px;stroke-linecap:butt;stroke-linejoin:miter;stroke-opacity:1" d="M 226.694,108.117 255.615,99.4402 z" id="boundary" inkscape:connector-curvature="0" />
	<path style="fill:none;stroke:red;stroke-width:1px;stroke-linecap:butt;stroke-linejoin:miter;stroke-opacity:1" d="M 284.536,93.656 255.615,99.4402 z" id="boundary" inkscape:connector-curvature="0" />
	<path style="fill:none;stroke:red;stroke-width:1px;stroke-linecap:butt;stroke-linejoin:miter;stroke-opacity:1" d="M 298.997,47.3819 284.536,93.656 z" id="boundary" inkscape:connector-curvature="0" />
	<path style="fill:none;stroke:red;stroke-width:1px;stroke-linecap:butt;stroke-linejoin:miter;stroke-opacity:1" d="M 197.773,116.793 226.694,108.117 z" id="boundary" inkscape:connector-curvature="0" />
	<path style="fill:none;stroke:red;stroke-width:1px;stroke-linecap:butt;stroke-linejoin:miter;stroke-opacity:1" d="M 327.918,30.0292 298.997,47.3819 z" id="boundary" inkscape:connector-curvature="0" />
	<path style="fill:none;stroke:red;stroke-width:1px;stroke-linecap:butt;stroke-linejoin:miter;stroke-opacity:1" d="M 79.1953,293.213 56.0583,275.86 z" id="boundary" inkscape:connector-curvature="0" />
	<path style="fill:none;stroke:red;stroke-width:1px;stroke-linecap:butt;stroke-linejoin:miter;stroke-opacity:1" d="M 102.332,310.566 79.1953,293.213 z" id="boundary" inkscape:connector-curvature="0" />
	<path style="fill:none;stroke:red;stroke-width:1px;stroke-linecap:butt;stroke-linejoin:miter;stroke-opacity:1" d="M 131.254,322.134 102.332,310.566 z" id="boundary" inkscape:connector-curvature="0" />
	<path style="fill:none;stroke:red;stroke-width:1px;stroke-linecap:butt;stroke-linejoin:miter;stroke-opacity:1" d="M 131.254,322.134 160.175,330.81 z" id="boundary" inkscape:connector-curvature="0" />
	<path style="fill:none;stroke:red;stroke-width:1px;stroke-linecap:butt;stroke-linejoin:miter;stroke-opacity:1" d="M 160.175,330.81 189.096,342.379 z" id="boundary" inkscape:connector-curvature="0" />
	<path style="fill:none;stroke:red;stroke-width:1px;stroke-linecap:butt;stroke-linejoin:miter;stroke-opacity:1" d="M 189.096,342.379 218.017,353.948 z" id="boundary" inkscape:connector-curvature="0" />
	<path style="fill:none;stroke:red;stroke-width:1px;stroke-linecap:butt;stroke-linejoin:miter;stroke-opacity:1" d="M 246.939,362.624 275.86,362.624 z" id="boundary" inkscape:connector-curvature="0" />
	<path style="fill:none;stroke:red;stroke-width:1px;stroke-linecap:butt;stroke-linejoin:miter;stroke-opacity:1" d="M 275.86,362.624 293.213,385.761 z" id="boundary" inkscape:connector-curvature="0" />
	<path style="fill:none;stroke:red;stroke-width:1px;stroke-linecap:butt;stroke-linejoin:miter;stroke-opacity:1" d="M 246.939,362.624 218.017,353.948 z" id="boundary" inkscape:connector-curvature="0" />
	<path style="fill:none;stroke:red;stroke-width:1px;stroke-linecap:butt;stroke-linejoin:miter;stroke-opacity:1" d="M 293.213,385.761 307.673,411.79 z" id="boundary" inkscape:connector-curvature="0" />
	<path style="fill:none;stroke:red;stroke-width:1px;stroke-linecap:butt;stroke-linejoin:miter;stroke-opacity:1" d="M 325.026,434.927 307.673,411.79 z" id="boundary" inkscape:connector-curvature="0" />
	<path style="fill:none;stroke:red;stroke-width:1px;stroke-linecap:butt;stroke-linejoin:miter;stroke-opacity:1" d="M 443.603,356.84 325.026,434.927 z" id="boundary" inkscape:connector-curvature="0" />
	<path style="fill:none;stroke:red;stroke-width:1px;stroke-linecap:butt;stroke-linejoin:miter;stroke-opacity:1" d="M 472.525,356.84 501.446,356.84 z" id="boundary" inkscape:connector-curvature="0" />
	<path style="fill:none;stroke:red;stroke-width:1px;stroke-linecap:butt;stroke-linejoin:miter;stroke-opacity:1" d="M 452.28,385.761 443.603,356.84 z" id="boundary" inkscape:connector-curvature="0" />
	<path style="fill:none;stroke:red;stroke-width:1px;stroke-linecap:butt;stroke-linejoin:miter;stroke-opacity:1" d="M 443.603,356.84 472.525,356.84 z" id="boundary" inkscape:connector-curvature="0" />
	<path style="fill:none;stroke:red;stroke-width:1px;stroke-linecap:butt;stroke-linejoin:miter;stroke-opacity:1" d="M 452.28,414.682 452.28,385.761 z" id="boundary" inkscape:connector-curvature="0" />
	<path style="fill:none;stroke:red;stroke-width:1px;stroke-linecap:butt;stroke-linejoin:miter;stroke-opacity:1" d="M 406.006,460.956 377.085,466.741 z" id="boundary" inkscape:connector-curvature="0" />
	<path style="fill:none;stroke:red;stroke-width:1px;stroke-linecap:butt;stroke-linejoin:miter;stroke-opacity:1" d="M 377.085,466.741 348.163,455.172 z" id="boundary" inkscape:connector-curvature="0" />
	<path style="fill:none;stroke:red;stroke-width:1px;stroke-linecap:butt;stroke-linejoin:miter;stroke-opacity:1" d="M 348.163,455.172 325.026,434.927 z" id="boundary" inkscape:connector-curvature="0" />
	<path style="fill:none;stroke:red;stroke-width:1px;stroke-linecap:butt;stroke-linejoin:miter;stroke-opacity:1" d="M 452.28,414.682 434.927,458.064 z" id="boundary" inkscape:connector-curvature="0" />
	<path style="fill:none;stroke:red;stroke-width:1px;stroke-linecap:butt;stroke-linejoin:miter;stroke-opacity:1" d="M 434.927,458.064 406.006,460.956 z" id="boundary" inkscape:connector-curvature="0" />
	<path style="fill:none;stroke:red;stroke-width:1px;stroke-linecap:butt;stroke-linejoin:miter;stroke-opacity:1" d="M 501.446,356.84 530.367,351.055 z" id="boundary" inkscape:connector-curvature="0" />
	<path style="fill:none;stroke:red;stroke-width:1px;stroke-linecap:butt;stroke-linejoin:miter;stroke-opacity:1" d="M 484.093,38.7055 510.122,53.1662 z" id="boundary" inkscape:connector-curvature="0" />
	<path style="fill:none;stroke:red;stroke-width:1px;stroke-linecap:butt;stroke-linejoin:miter;stroke-opacity:1" d="M 536.152,67.6268 562.181,82.0875 z" id="boundary" inkscape:connector-curvature="0" />
	<path style="fill:none;stroke:red;stroke-width:1px;stroke-linecap:butt;stroke-linejoin:miter;stroke-opacity:1" d="M 536.152,67.6268 510.122,53.1662 z" id="boundary" inkscape:connector-curvature="0" />
	<path style="fill:none;stroke:red;stroke-width:1px;stroke-linecap:butt;stroke-linejoin:miter;stroke-opacity:1" d="M 672.082,70.519 643.16,76.3032 z" id="boundary" inkscape:connector-curvature="0" />
	<path style="fill:none;stroke:red;stroke-width:1px;stroke-linecap:butt;stroke-linejoin:miter;stroke-opacity:1" d="M 672.082,70.519 701.003,82.0875 z" id="boundary" inkscape:connector-curvature="0" />
	<path style="fill:none;stroke:red;stroke-width:1px;stroke-linecap:butt;stroke-linejoin:miter;stroke-opacity:1" d="M 643.16,76.3032 614.239,87.8717 z" id="boundary" inkscape:connector-curvature="0" />
	<path style="fill:none;stroke:red;stroke-width:1px;stroke-linecap:butt;stroke-linejoin:miter;stroke-opacity:1" d="M 562.181,82.0875 585.318,99.4402 z" id="boundary" inkscape:connector-curvature="0" />
	<path style="fill:none;stroke:red;stroke-width:1px;stroke-linecap:butt;stroke-linejoin:miter;stroke-opacity:1" d="M 585.318,99.4402 614.239,87.8717 z" id="boundary" inkscape:connector-curvature="0" />
	<path style="fill:none;stroke:red;stroke-width:1px;stroke-linecap:butt;stroke-linejoin:miter;stroke-opacity:1" d="M 724.14,99.4402 701.003,82.0875 z" id="boundary" inkscape:connector-curvature="0" />
	<path style="fill:none;stroke:red;stroke-width:1px;stroke-linecap:butt;stroke-linejoin:miter;stroke-opacity:1" d="M 747.277,116.793 724.14,99.4402 z" id="boundary" inkscape:connector-curvature="0" />
	<path style="fill:none;stroke:red;stroke-width:1px;stroke-linecap:butt;stroke-linejoin:miter;stroke-opacity:1" d="M 767.522,139.93 747.277,116.793 z" id="boundary" inkscape:connector-curvature="0" />
	<path style="fill:none;stroke:red;stroke-width:1px;stroke-linecap:butt;stroke-linejoin:miter;stroke-opacity:1" d="M 894.776,145.714 865.854,157.283 z" id="boundary" inkscape:connector-curvature="0" />
	<path style="fill:none;stroke:red;stroke-width:1px;stroke-linecap:butt;stroke-linejoin:miter;stroke-opacity:1" d="M 923.697,134.146 952.618,122.577 z" id="boundary" inkscape:connector-curvature="0" />
	<path style="fill:none;stroke:red;stroke-width:1px;stroke-linecap:butt;stroke-linejoin:miter;stroke-opacity:1" d="M 923.697,134.146 894.776,145.714 z" id="boundary" inkscape:connector-curvature="0" />
	<path style="fill:none;stroke:red;stroke-width:1px;stroke-linecap:butt;stroke-linejoin:miter;stroke-opacity:1" d="M 981.539,116.793 952.618,122.577 z" id="boundary" inkscape:connector-curvature="0" />
	<path style="fill:none;stroke:red;stroke-width:1px;stroke-linecap:butt;stroke-linejoin:miter;stroke-opacity:1" d="M 981.539,116.793 996,145.714 z" id="boundary" inkscape:connector-curvature="0" />
	<path style="fill:none;stroke:red;stroke-width:1px;stroke-linecap:butt;stroke-linejoin:miter;stroke-opacity:1" d="M 836.933,168.851 808.012,180.42 z" id="boundary" inkscape:connector-curvature="0" />
	<path style="fill:none;stroke:red;stroke-width:1px;stroke-linecap:butt;stroke-linejoin:miter;stroke-opacity:1" d="M 808.012,180.42 784.875,163.067 z" id="boundary" inkscape:connector-curvature="0" />
	<path style="fill:none;stroke:red;stroke-width:1px;stroke-linecap:butt;stroke-linejoin:miter;stroke-opacity:1" d="M 784.875,163.067 767.522,139.93 z" id="boundary" inkscape:connector-curvature="0" />
	<path style="fill:none;stroke:red;stroke-width:1px;stroke-linecap:butt;stroke-linejoin:miter;stroke-opacity:1" d="M 865.854,157.283 836.933,168.851 z" id="boundary" inkscape:connector-curvature="0" />
	<path style="fill:none;stroke:red;stroke-width:1px;stroke-linecap:butt;stroke-linejoin:miter;stroke-opacity:1" d="M 984.431,186.204 996,145.714 z" id="boundary" inkscape:connector-curvature="0" />
	<path style="fill:none;stroke:red;stroke-width:1px;stroke-linecap:butt;stroke-linejoin:miter;stroke-opacity:1" d="M 984.431,186.204 981.539,223.802 z" id="boundary" inkscape:connector-curvature="0" />
	<path style="fill:none;stroke:red;stroke-width:1px;stroke-linecap:butt;stroke-linejoin:miter;stroke-opacity:1" d="M 559.289,351.055 588.21,351.055 z" id="boundary" inkscape:connector-curvature="0" />
	<path style="fill:none;stroke:red;stroke-width:1px;stroke-linecap:butt;stroke-linejoin:miter;stroke-opacity:1" d="M 559.289,351.055 530.367,351.055 z" id="boundary" inkscape:connector-curvature="0" />
	<path style="fill:none;stroke:red;stroke-width:1px;stroke-linecap:butt;stroke-linejoin:miter;stroke-opacity:1" d="M 646.052,353.948 617.131,345.271 z" id="boundary" inkscape:connector-curvature="0" />
	<path style="fill:none;stroke:red;stroke-width:1px;stroke-linecap:butt;stroke-linejoin:miter;stroke-opacity:1" d="M 617.131,345.271 588.21,351.055 z" id="boundary" inkscape:connector-curvature="0" />
	<path style="fill:none;stroke:red;stroke-width:1px;stroke-linecap:butt;stroke-linejoin:miter;stroke-opacity:1" d="M 776.198,325.026 787.767,278.752 z" id="boundary" inkscape:connector-curvature="0" />
	<path style="fill:none;stroke:red;stroke-width:1px;stroke-linecap:butt;stroke-linejoin:miter;stroke-opacity:1" d="M 787.767,278.752 816.688,275.86 z" id="boundary" inkscape:connector-curvature="0" />
	<path style="fill:none;stroke:red;stroke-width:1px;stroke-linecap:butt;stroke-linejoin:miter;stroke-opacity:1" d="M 646.052,353.948 674.974,362.624 z" id="boundary" inkscape:connector-curvature="0" />
	<path style="fill:none;stroke:red;stroke-width:1px;stroke-linecap:butt;stroke-linejoin:miter;stroke-opacity:1" d="M 674.974,362.624 703.895,368.408 z" id="boundary" inkscape:connector-curvature="0" />
	<path style="fill:none;stroke:red;stroke-width:1px;stroke-linecap:butt;stroke-linejoin:miter;stroke-opacity:1" d="M 732.816,368.408 703.895,368.408 z" id="boundary" inkscape:connector-curvature="0" />
	<path style="fill:none;stroke:red;stroke-width:1px;stroke-linecap:butt;stroke-linejoin:miter;stroke-opacity:1" d="M 732.816,368.408 761.738,356.84 z" id="boundary" inkscape:connector-curvature="0" />
	<path style="fill:none;stroke:red;stroke-width:1px;stroke-linecap:butt;stroke-linejoin:miter;stroke-opacity:1" d="M 776.198,325.026 761.738,356.84 z" id="boundary" inkscape:connector-curvature="0" />
	<path style="fill:none;stroke:red;stroke-width:1px;stroke-linecap:butt;stroke-linejoin:miter;stroke-opacity:1" d="M 845.609,287.429 868.746,304.781 z" id="boundary" inkscape:connector-curvature="0" />
	<path style="fill:none;stroke:red;stroke-width:1px;stroke-linecap:butt;stroke-linejoin:miter;stroke-opacity:1" d="M 845.609,287.429 816.688,275.86 z" id="boundary" inkscape:connector-curvature="0" />
	<path style="fill:none;stroke:red;stroke-width:1px;stroke-linecap:butt;stroke-linejoin:miter;stroke-opacity:1" d="M 984.431,252.723 981.539,223.802 z" id="boundary" inkscape:connector-curvature="0" />
	<path style="fill:none;stroke:red;stroke-width:1px;stroke-linecap:butt;stroke-linejoin:miter;stroke-opacity:1" d="M 990.216,281.644 984.431,252.723 z" id="boundary" inkscape:connector-curvature="0" />
	<path style="fill:none;stroke:red;stroke-width:1px;stroke-linecap:butt;stroke-linejoin:miter;stroke-opacity:1" d="M 923.697,330.81 894.776,319.242 z" id="boundary" inkscape:connector-curvature="0" />
	<path style="fill:none;stroke:red;stroke-width:1px;stroke-linecap:butt;stroke-linejoin:miter;stroke-opacity:1" d="M 894.776,319.242 868.746,304.781 z" id="boundary" inkscape:connector-curvature="0" />
	<path style="fill:none;stroke:red;stroke-width:1px;stroke-linecap:butt;stroke-linejoin:miter;stroke-opacity:1" d="M 996,310.566 981.539,339.487 z" id="boundary" inkscape:connector-curvature="0" />
	<path style="fill:none;stroke:red;stroke-width:1px;stroke-linecap:butt;stroke-linejoin:miter;stroke-opacity:1" d="M 981.539,339.487 952.618,339.487 z" id="boundary" inkscape:connector-curvature="0" />
	<path style="fill:none;stroke:red;stroke-width:1px;stroke-linecap:butt;stroke-linejoin:miter;stroke-opacity:1" d="M 952.618,339.487 923.697,330.81 z" id="boundary" inkscape:connector-curvature="0" />
	<path style="fill:none;stroke:red;stroke-width:1px;stroke-linecap:butt;stroke-linejoin:miter;stroke-opacity:1" d="M 990.216,281.644 996,310.566 z" id="boundary" inkscape:connector-curvature="0" />
	<circle cx="4" cy="203.557" r="4" fill="#0" id="circle0"/>
	<circle cx="12.6764" cy="232.478" r="4" fill="#0" id="circle1"/>
	<circle cx="30.0292" cy="189.096" r="4" fill="#0" id="circle2"/>
	<circle cx="35.8134" cy="252.723" r="4" fill="#0" id="circle3"/>
	<circle cx="56.0583" cy="174.636" r="4" fill="#0" id="circle4"/>
	<circle cx="56.0583" cy="275.86" r="4" fill="#0" id="circle5"/>
	<circle cx="79.1953" cy="293.213" r="4" fill="#0" id="circle6"/>
	<circle cx="84.9796" cy="163.067" r="4" fill="#0" id="circle7"/>
	<circle cx="102.332" cy="310.566" r="4" fill="#0" id="circle8"/>
	<circle cx="113.901" cy="151.499" r="4" fill="#0" id="circle9"/>
	<circle cx="131.254" cy="322.134" r="4" fill="#0" id="circle10"/>
	<circle cx="139.93" cy="137.038" r="4" fill="#0" id="circle11"/>
	<circle cx="160.175" cy="330.81" r="4" fill="#0" id="circle12"/>
	<circle cx="168.851" cy="128.362" r="4" fill="#0" id="circle13"/>
	<circle cx="189.096" cy="342.379" r="4" fill="#0" id="circle14"/>
	<circle cx="197.773" cy="116.793" r="4" fill="#0" id="circle15"/>
	<circle cx="218.017" cy="353.948" r="4" fill="#0" id="circle16"/>
	<circle cx="226.694" cy="108.117" r="4" fill="#0" id="circle17"/>
	<circle cx="246.939" cy="362.624" r="4" fill="#0" id="circle18"/>
	<circle cx="255.615" cy="99.4402" r="4" fill="#0" id="circle19"/>
	<circle cx="275.86" cy="362.624" r="4" fill="#0" id="circle20"/>
	<circle cx="284.536" cy="93.656" r="4" fill="#0" id="circle21"/>
	<circle cx="293.213" cy="385.761" r="4" fill="#0" id="circle22"/>
	<circle cx="298.997" cy="47.3819" r="4" fill="#0" id="circle23"/>
	<circle cx="307.673" cy="411.79" r="4" fill="#0" id="circle24"/>
	<circle cx="325.026" cy="434.927" r="4" fill="#0" id="circle25"/>
	<circle cx="327.918" cy="30.0292" r="4" fill="#0" id="circle26"/>
	<circle cx="342.379" cy="4" r="4" fill="#0" id="circle27"/>
	<circle cx="348.163" cy="455.172" r="4" fill="#0" id="circle28"/>
	<circle cx="371.3" cy="9.78426" r="4" fill="#0" id="circle29"/>
	<circle cx="377.085" cy="466.741" r="4" fill="#0" id="circle30"/>
	<circle cx="400.222" cy="6.89213" r="4" fill="#0" id="circle31"/>
	<circle cx="406.006" cy="460.956" r="4" fill="#0" id="circle32"/>
	<circle cx="429.143" cy="18.4606" r="4" fill="#0" id="circle33"/>
	<circle cx="434.927" cy="458.064" r="4" fill="#0" id="circle34"/>
	<circle cx="443.603" cy="356.84" r="4" fill="#0" id="circle35"/>
	<circle cx="452.28" cy="385.761" r="4" fill="#0" id="circle36"/>
	<circle cx="452.28" cy="414.682" r="4" fill="#0" id="circle37"/>
	<circle cx="458.064" cy="24.2449" r="4" fill="#0" id="circle38"/>
	<circle cx="472.525" cy="356.84" r="4" fill="#0" id="circle39"/>
	<circle cx="484.093" cy="38.7055" r="4" fill="#0" id="circle40"/>
	<circle cx="501.446" cy="356.84" r="4" fill="#0" id="circle41"/>
	<circle cx="510.122" cy="53.1662" r="4" fill="#0" id="circle42"/>
	<circle cx="530.367" cy="351.055" r="4" fill="#0" id="circle43"/>
	<circle cx="536.152" cy="67.6268" r="4" fill="#0" id="circle44"/>
	<circle cx="559.289" cy="351.055" r="4" fill="#0" id="circle45"/>
	<circle cx="562.181" cy="82.0875" r="4" fill="#0" id="circle46"/>
	<circle cx="585.318" cy="99.4402" r="4" fill="#0" id="circle47"/>
	<circle cx="588.21" cy="351.055" r="4" fill="#0" id="circle48"/>
	<circle cx="614.239" cy="87.8717" r="4" fill="#0" id="circle49"/>
	<circle cx="617.131" cy="345.271" r="4" fill="#0" id="circle50"/>
	<circle cx="643.16" cy="76.3032" r="4" fill="#0" id="circle51"/>
	<circle cx="646.052" cy="353.948" r="4" fill="#0" id="circle52"/>
	<circle cx="672.082" cy="70.519" r="4" fill="#0" id="circle53"/>
	<circle cx="674.974" cy="362.624" r="4" fill="#0" id="circle54"/>
	<circle cx="701.003" cy="82.0875" r="4" fill="#0" id="circle55"/>
	<circle cx="703.895" cy="368.408" r="4" fill="#0" id="circle56"/>
	<circle cx="724.14" cy="99.4402" r="4" fill="#0" id="circle57"/>
	<circle cx="732.816" cy="368.408" r="4" fill="#0" id="circle58"/>
	<circle cx="747.277" cy="116.793" r="4" fill="#0" id="circle59"/>
	<circle cx="761.738" cy="356.84" r="4" fill="#0" id="circle60"/>
	<circle cx="767.522" cy="139.93" r="4" fill="#0" id="circle61"/>
	<circle cx="776.198" cy="325.026" r="4" fill="#0" id="circle62"/>
	<circle cx="784.875" cy="163.067" r="4" fill="#0" id="circle63"/>
	<circle cx="787.767" cy="278.752" r="4" fill="#0" id="circle64"/>
	<circle cx="808.012" cy="180.42" r="4" fill="#0" id="circle65"/>
	<circle cx="816.688" cy="275.86" r="4" fill="#0" id="circle66"/>
	<circle cx="836.933" cy="168.851" r="4" fill="#0" id="circle67"/>
	<circle cx="845.609" cy="287.429" r="4" fill="#0" id="circle68"/>
	<circle cx="865.854" cy="157.283" r="4" fill="#0" id="circle69"/>
	<circle cx="868.746" cy="304.781" r="4" fill="#0" id="circle70"/>
	<circle cx="894.776" cy="145.714" r="4" fill="#0" id="circle71"/>
	<circle cx="894.776" cy="319.242" r="4" fill="#0" id="circle72"/>
	<circle cx="923.697" cy="134.146" r="4" fill="#0" id="circle73"/>
	<circle cx="923.697" cy="330.81" r="4" fill="#0" id="circle74"/>
	<circle cx="952.618" cy="122.577" r="4" fill="#0" id="circle75"/>
	<circle cx="952.618" cy="339.487" r="4" fill="#0" id="circle76"/>
	<circle cx="981.539" cy="116.793" r="4" fill="#0" id="circle77"/>
	<circle cx="981.539" cy="223.802" r="4" fill="#0" id="circle78"/>
	<circle cx="981.539" cy="339.487" r="4" fill="#0" id="circle79"/>
	<circle cx="984.431" cy="186.204" r="4" fill="#0" id="circle80"/>
	<circle cx="984.431" cy="252.723" r="4" fill="#0" id="circle81"/>
	<circle cx="990.216" cy="281.644" r="4" fill="#0" id="circle82"/>
	<circle cx="996" cy="145.714" r="4" fill="#0" id="circle83"/>
	<circle cx="996" cy="310.566" r="4" fill="#0" id="circle84"/>
	</g>
</svg>