<?xml version="1.0" encoding="UTF-8" standalone="no"?>
<!-- Created with CurveBenchmark -->
<svg
	xmlns:dc="http://purl.org/dc/elements/1.1/"
	xmlns:cc="http://creativecommons.org/ns#"
	xmlns:rdf="http://www.w3.org/1999/02/22-rdf-syntax-ns#"
	xmlns:svg="http://www.w3.org/2000/svg"
	xmlns="http://www.w3.org/2000/svg"
	xmlns:sodipodi="http://sodipodi.sourceforge.net/DTD/sodipodi-0.dtd"
	xmlns:inkscape="http://www.inkscape.org/namespaces/inkscape"
	width="1000"
	height="1000"
	id="svg2"
	version="1.1"
	sodipodi:docname="manifold/peel-fish225.png.txt">
<defs
	id="defs4" />
<metadata
	id="metadata7">
	<rdf:RDF>
		<cc:Work
			rdf:about="">
			<dc:format>image/svg+xml</dc:format>
			<dc:type
				rdf:resource="http://purl.org/dc/dcmitype/StillImage" />
			<dc:title></dc:title>
		</cc:Work>
	</rdf:RDF>
</metadata>
<g
	inkscape:label="Layer 1"
	inkscape:groupmode="layer"
	id="layer1">
	<path style="fill:none;stroke:red;stroke-width:1px;stroke-linecap:butt;stroke-linejoin:miter;stroke-opacity:1" d="M 11.7804,252.973 4,214.071 z" id="boundary" inkscape:connector-curvature="0" />
	<path style="fill:none;stroke:red;stroke-width:1px;stroke-linecap:butt;stroke-linejoin:miter;stroke-opacity:1" d="M 4,214.071 4,175.169 z" id="boundary" inkscape:connector-curvature="0" />
	<path style="fill:none;stroke:red;stroke-width:1px;stroke-linecap:butt;stroke-linejoin:miter;stroke-opacity:1" d="M 4,175.169 42.902,171.278 z" id="boundary" inkscape:connector-curvature="0" />
	<path style="fill:none;stroke:red;stroke-width:1px;stroke-linecap:butt;stroke-linejoin:miter;stroke-opacity:1" d="M 11.7804,385.239 4,424.141 z" id="boundary" inkscape:connector-curvature="0" />
	<path style="fill:none;stroke:red;stroke-width:1px;stroke-linecap:butt;stroke-linejoin:miter;stroke-opacity:1" d="M 19.5608,330.776 11.7804,385.239 z" id="boundary" inkscape:connector-curvature="0" />
	<path style="fill:none;stroke:red;stroke-width:1px;stroke-linecap:butt;stroke-linejoin:miter;stroke-opacity:1" d="M 19.5608,291.875 19.5608,330.776 z" id="boundary" inkscape:connector-curvature="0" />
	<path style="fill:none;stroke:red;stroke-width:1px;stroke-linecap:butt;stroke-linejoin:miter;stroke-opacity:1" d="M 19.5608,291.875 11.7804,252.973 z" id="boundary" inkscape:connector-curvature="0" />
	<path style="fill:none;stroke:red;stroke-width:1px;stroke-linecap:butt;stroke-linejoin:miter;stroke-opacity:1" d="M 42.902,171.278 81.8039,186.839 z" id="boundary" inkscape:connector-curvature="0" />
	<path style="fill:none;stroke:red;stroke-width:1px;stroke-linecap:butt;stroke-linejoin:miter;stroke-opacity:1" d="M 81.8039,186.839 116.816,206.29 z" id="boundary" inkscape:connector-curvature="0" />
	<path style="fill:none;stroke:red;stroke-width:1px;stroke-linecap:butt;stroke-linejoin:miter;stroke-opacity:1" d="M 42.902,466.933 4,463.043 z" id="boundary" inkscape:connector-curvature="0" />
	<path style="fill:none;stroke:red;stroke-width:1px;stroke-linecap:butt;stroke-linejoin:miter;stroke-opacity:1" d="M 4,463.043 4,424.141 z" id="boundary" inkscape:connector-curvature="0" />
	<path style="fill:none;stroke:red;stroke-width:1px;stroke-linecap:butt;stroke-linejoin:miter;stroke-opacity:1" d="M 116.816,206.29 147.937,229.631 z" id="boundary" inkscape:connector-curvature="0" />
	<path style="fill:none;stroke:red;stroke-width:1px;stroke-linecap:butt;stroke-linejoin:miter;stroke-opacity:1" d="M 260.753,505.835 299.655,505.835 z" id="boundary" inkscape:connector-curvature="0" />
	<path style="fill:none;stroke:red;stroke-width:1px;stroke-linecap:butt;stroke-linejoin:miter;stroke-opacity:1" d="M 260.753,159.608 237.412,190.729 z" id="boundary" inkscape:connector-curvature="0" />
	<path style="fill:none;stroke:red;stroke-width:1px;stroke-linecap:butt;stroke-linejoin:miter;stroke-opacity:1" d="M 81.8039,451.373 42.902,466.933 z" id="boundary" inkscape:connector-curvature="0" />
	<path style="fill:none;stroke:red;stroke-width:1px;stroke-linecap:butt;stroke-linejoin:miter;stroke-opacity:1" d="M 221.851,443.592 229.631,482.494 z" id="boundary" inkscape:connector-curvature="0" />
	<path style="fill:none;stroke:red;stroke-width:1px;stroke-linecap:butt;stroke-linejoin:miter;stroke-opacity:1" d="M 120.706,435.812 81.8039,451.373 z" id="boundary" inkscape:connector-curvature="0" />
	<path style="fill:none;stroke:red;stroke-width:1px;stroke-linecap:butt;stroke-linejoin:miter;stroke-opacity:1" d="M 151.827,404.69 120.706,435.812 z" id="boundary" inkscape:connector-curvature="0" />
	<path style="fill:none;stroke:red;stroke-width:1px;stroke-linecap:butt;stroke-linejoin:miter;stroke-opacity:1" d="M 182.949,249.082 147.937,229.631 z" id="boundary" inkscape:connector-curvature="0" />
	<path style="fill:none;stroke:red;stroke-width:1px;stroke-linecap:butt;stroke-linejoin:miter;stroke-opacity:1" d="M 182.949,381.349 214.071,404.69 z" id="boundary" inkscape:connector-curvature="0" />
	<path style="fill:none;stroke:red;stroke-width:1px;stroke-linecap:butt;stroke-linejoin:miter;stroke-opacity:1" d="M 182.949,381.349 151.827,404.69 z" id="boundary" inkscape:connector-curvature="0" />
	<path style="fill:none;stroke:red;stroke-width:1px;stroke-linecap:butt;stroke-linejoin:miter;stroke-opacity:1" d="M 214.071,221.851 182.949,249.082 z" id="boundary" inkscape:connector-curvature="0" />
	<path style="fill:none;stroke:red;stroke-width:1px;stroke-linecap:butt;stroke-linejoin:miter;stroke-opacity:1" d="M 214.071,404.69 221.851,443.592 z" id="boundary" inkscape:connector-curvature="0" />
	<path style="fill:none;stroke:red;stroke-width:1px;stroke-linecap:butt;stroke-linejoin:miter;stroke-opacity:1" d="M 237.412,190.729 214.071,221.851 z" id="boundary" inkscape:connector-curvature="0" />
	<path style="fill:none;stroke:red;stroke-width:1px;stroke-linecap:butt;stroke-linejoin:miter;stroke-opacity:1" d="M 393.02,132.376 358.008,112.925 z" id="boundary" inkscape:connector-curvature="0" />
	<path style="fill:none;stroke:red;stroke-width:1px;stroke-linecap:butt;stroke-linejoin:miter;stroke-opacity:1" d="M 260.753,505.835 229.631,482.494 z" id="boundary" inkscape:connector-curvature="0" />
	<path style="fill:none;stroke:red;stroke-width:1px;stroke-linecap:butt;stroke-linejoin:miter;stroke-opacity:1" d="M 284.094,128.486 319.106,109.035 z" id="boundary" inkscape:connector-curvature="0" />
	<path style="fill:none;stroke:red;stroke-width:1px;stroke-linecap:butt;stroke-linejoin:miter;stroke-opacity:1" d="M 319.106,109.035 358.008,112.925 z" id="boundary" inkscape:connector-curvature="0" />
	<path style="fill:none;stroke:red;stroke-width:1px;stroke-linecap:butt;stroke-linejoin:miter;stroke-opacity:1" d="M 299.655,505.835 338.557,498.055 z" id="boundary" inkscape:connector-curvature="0" />
	<path style="fill:none;stroke:red;stroke-width:1px;stroke-linecap:butt;stroke-linejoin:miter;stroke-opacity:1" d="M 260.753,159.608 284.094,128.486 z" id="boundary" inkscape:connector-curvature="0" />
	<path style="fill:none;stroke:red;stroke-width:1px;stroke-linecap:butt;stroke-linejoin:miter;stroke-opacity:1" d="M 494.165,587.529 498.055,626.431 z" id="boundary" inkscape:connector-curvature="0" />
	<path style="fill:none;stroke:red;stroke-width:1px;stroke-linecap:butt;stroke-linejoin:miter;stroke-opacity:1" d="M 408.58,482.494 447.482,482.494 z" id="boundary" inkscape:connector-curvature="0" />
	<path style="fill:none;stroke:red;stroke-width:1px;stroke-linecap:butt;stroke-linejoin:miter;stroke-opacity:1" d="M 369.678,474.714 338.557,498.055 z" id="boundary" inkscape:connector-curvature="0" />
	<path style="fill:none;stroke:red;stroke-width:1px;stroke-linecap:butt;stroke-linejoin:miter;stroke-opacity:1" d="M 408.58,482.494 369.678,474.714 z" id="boundary" inkscape:connector-curvature="0" />
	<path style="fill:none;stroke:red;stroke-width:1px;stroke-linecap:butt;stroke-linejoin:miter;stroke-opacity:1" d="M 431.922,120.706 393.02,132.376 z" id="boundary" inkscape:connector-curvature="0" />
	<path style="fill:none;stroke:red;stroke-width:1px;stroke-linecap:butt;stroke-linejoin:miter;stroke-opacity:1" d="M 447.482,482.494 486.384,490.275 z" id="boundary" inkscape:connector-curvature="0" />
	<path style="fill:none;stroke:red;stroke-width:1px;stroke-linecap:butt;stroke-linejoin:miter;stroke-opacity:1" d="M 463.043,89.5843 501.945,74.0235 z" id="boundary" inkscape:connector-curvature="0" />
	<path style="fill:none;stroke:red;stroke-width:1px;stroke-linecap:butt;stroke-linejoin:miter;stroke-opacity:1" d="M 463.043,89.5843 431.922,120.706 z" id="boundary" inkscape:connector-curvature="0" />
	<path style="fill:none;stroke:red;stroke-width:1px;stroke-linecap:butt;stroke-linejoin:miter;stroke-opacity:1" d="M 494.165,548.627 494.165,587.529 z" id="boundary" inkscape:connector-curvature="0" />
	<path style="fill:none;stroke:red;stroke-width:1px;stroke-linecap:butt;stroke-linejoin:miter;stroke-opacity:1" d="M 700.345,109.035 719.796,144.047 z" id="boundary" inkscape:connector-curvature="0" />
	<path style="fill:none;stroke:red;stroke-width:1px;stroke-linecap:butt;stroke-linejoin:miter;stroke-opacity:1" d="M 517.506,513.616 494.165,548.627 z" id="boundary" inkscape:connector-curvature="0" />
	<path style="fill:none;stroke:red;stroke-width:1px;stroke-linecap:butt;stroke-linejoin:miter;stroke-opacity:1" d="M 486.384,490.275 517.506,513.616 z" id="boundary" inkscape:connector-curvature="0" />
	<path style="fill:none;stroke:red;stroke-width:1px;stroke-linecap:butt;stroke-linejoin:miter;stroke-opacity:1" d="M 568.078,31.2314 533.067,50.6824 z" id="boundary" inkscape:connector-curvature="0" />
	<path style="fill:none;stroke:red;stroke-width:1px;stroke-linecap:butt;stroke-linejoin:miter;stroke-opacity:1" d="M 700.345,109.035 684.784,70.1333 z" id="boundary" inkscape:connector-curvature="0" />
	<path style="fill:none;stroke:red;stroke-width:1px;stroke-linecap:butt;stroke-linejoin:miter;stroke-opacity:1" d="M 536.957,630.322 498.055,626.431 z" id="boundary" inkscape:connector-curvature="0" />
	<path style="fill:none;stroke:red;stroke-width:1px;stroke-linecap:butt;stroke-linejoin:miter;stroke-opacity:1" d="M 501.945,74.0235 533.067,50.6824 z" id="boundary" inkscape:connector-curvature="0" />
	<path style="fill:none;stroke:red;stroke-width:1px;stroke-linecap:butt;stroke-linejoin:miter;stroke-opacity:1" d="M 661.443,39.0118 641.992,4 z" id="boundary" inkscape:connector-curvature="0" />
	<path style="fill:none;stroke:red;stroke-width:1px;stroke-linecap:butt;stroke-linejoin:miter;stroke-opacity:1" d="M 641.992,4 603.09,11.7804 z" id="boundary" inkscape:connector-curvature="0" />
	<path style="fill:none;stroke:red;stroke-width:1px;stroke-linecap:butt;stroke-linejoin:miter;stroke-opacity:1" d="M 684.784,70.1333 661.443,39.0118 z" id="boundary" inkscape:connector-curvature="0" />
	<path style="fill:none;stroke:red;stroke-width:1px;stroke-linecap:butt;stroke-linejoin:miter;stroke-opacity:1" d="M 571.969,606.98 536.957,630.322 z" id="boundary" inkscape:connector-curvature="0" />
	<path style="fill:none;stroke:red;stroke-width:1px;stroke-linecap:butt;stroke-linejoin:miter;stroke-opacity:1" d="M 568.078,31.2314 603.09,11.7804 z" id="boundary" inkscape:connector-curvature="0" />
	<path style="fill:none;stroke:red;stroke-width:1px;stroke-linecap:butt;stroke-linejoin:miter;stroke-opacity:1" d="M 634.212,606.98 665.333,630.322 z" id="boundary" inkscape:connector-curvature="0" />
	<path style="fill:none;stroke:red;stroke-width:1px;stroke-linecap:butt;stroke-linejoin:miter;stroke-opacity:1" d="M 603.09,583.639 571.969,606.98 z" id="boundary" inkscape:connector-curvature="0" />
	<path style="fill:none;stroke:red;stroke-width:1px;stroke-linecap:butt;stroke-linejoin:miter;stroke-opacity:1" d="M 634.212,606.98 603.09,583.639 z" id="boundary" inkscape:connector-curvature="0" />
	<path style="fill:none;stroke:red;stroke-width:1px;stroke-linecap:butt;stroke-linejoin:miter;stroke-opacity:1" d="M 723.686,587.529 704.235,622.541 z" id="boundary" inkscape:connector-curvature="0" />
	<path style="fill:none;stroke:red;stroke-width:1px;stroke-linecap:butt;stroke-linejoin:miter;stroke-opacity:1" d="M 704.235,622.541 665.333,630.322 z" id="boundary" inkscape:connector-curvature="0" />
	<path style="fill:none;stroke:red;stroke-width:1px;stroke-linecap:butt;stroke-linejoin:miter;stroke-opacity:1" d="M 739.247,501.945 739.247,540.847 z" id="boundary" inkscape:connector-curvature="0" />
	<path style="fill:none;stroke:red;stroke-width:1px;stroke-linecap:butt;stroke-linejoin:miter;stroke-opacity:1" d="M 817.051,470.824 852.063,451.373 z" id="boundary" inkscape:connector-curvature="0" />
	<path style="fill:none;stroke:red;stroke-width:1px;stroke-linecap:butt;stroke-linejoin:miter;stroke-opacity:1" d="M 852.063,451.373 890.965,443.592 z" id="boundary" inkscape:connector-curvature="0" />
	<path style="fill:none;stroke:red;stroke-width:1px;stroke-linecap:butt;stroke-linejoin:miter;stroke-opacity:1" d="M 719.796,144.047 758.698,151.827 z" id="boundary" inkscape:connector-curvature="0" />
	<path style="fill:none;stroke:red;stroke-width:1px;stroke-linecap:butt;stroke-linejoin:miter;stroke-opacity:1" d="M 739.247,540.847 723.686,587.529 z" id="boundary" inkscape:connector-curvature="0" />
	<path style="fill:none;stroke:red;stroke-width:1px;stroke-linecap:butt;stroke-linejoin:miter;stroke-opacity:1" d="M 778.149,486.384 739.247,501.945 z" id="boundary" inkscape:connector-curvature="0" />
	<path style="fill:none;stroke:red;stroke-width:1px;stroke-linecap:butt;stroke-linejoin:miter;stroke-opacity:1" d="M 778.149,486.384 817.051,470.824 z" id="boundary" inkscape:connector-curvature="0" />
	<path style="fill:none;stroke:red;stroke-width:1px;stroke-linecap:butt;stroke-linejoin:miter;stroke-opacity:1" d="M 797.6,163.498 758.698,151.827 z" id="boundary" inkscape:connector-curvature="0" />
	<path style="fill:none;stroke:red;stroke-width:1px;stroke-linecap:butt;stroke-linejoin:miter;stroke-opacity:1" d="M 832.612,182.949 797.6,163.498 z" id="boundary" inkscape:connector-curvature="0" />
	<path style="fill:none;stroke:red;stroke-width:1px;stroke-linecap:butt;stroke-linejoin:miter;stroke-opacity:1" d="M 871.514,190.729 832.612,182.949 z" id="boundary" inkscape:connector-curvature="0" />
	<path style="fill:none;stroke:red;stroke-width:1px;stroke-linecap:butt;stroke-linejoin:miter;stroke-opacity:1" d="M 871.514,190.729 910.416,206.29 z" id="boundary" inkscape:connector-curvature="0" />
	<path style="fill:none;stroke:red;stroke-width:1px;stroke-linecap:butt;stroke-linejoin:miter;stroke-opacity:1" d="M 910.416,206.29 933.757,237.412 z" id="boundary" inkscape:connector-curvature="0" />
	<path style="fill:none;stroke:red;stroke-width:1px;stroke-linecap:butt;stroke-linejoin:miter;stroke-opacity:1" d="M 922.086,420.251 890.965,443.592 z" id="boundary" inkscape:connector-curvature="0" />
	<path style="fill:none;stroke:red;stroke-width:1px;stroke-linecap:butt;stroke-linejoin:miter;stroke-opacity:1" d="M 953.208,389.129 922.086,420.251 z" id="boundary" inkscape:connector-curvature="0" />
	<path style="fill:none;stroke:red;stroke-width:1px;stroke-linecap:butt;stroke-linejoin:miter;stroke-opacity:1" d="M 968.769,256.863 933.757,237.412 z" id="boundary" inkscape:connector-curvature="0" />
	<path style="fill:none;stroke:red;stroke-width:1px;stroke-linecap:butt;stroke-linejoin:miter;stroke-opacity:1" d="M 972.659,354.118 953.208,389.129 z" id="boundary" inkscape:connector-curvature="0" />
	<path style="fill:none;stroke:red;stroke-width:1px;stroke-linecap:butt;stroke-linejoin:miter;stroke-opacity:1" d="M 996,287.984 972.659,354.118 z" id="boundary" inkscape:connector-curvature="0" />
	<path style="fill:none;stroke:red;stroke-width:1px;stroke-linecap:butt;stroke-linejoin:miter;stroke-opacity:1" d="M 996,287.984 968.769,256.863 z" id="boundary" inkscape:connector-curvature="0" />
	<circle cx="4" cy="175.169" r="4" fill="#0" id="circle0"/>
	<circle cx="4" cy="214.071" r="4" fill="#0" id="circle1"/>
	<circle cx="4" cy="424.141" r="4" fill="#0" id="circle2"/>
	<circle cx="4" cy="463.043" r="4" fill="#0" id="circle3"/>
	<circle cx="11.7804" cy="252.973" r="4" fill="#0" id="circle4"/>
	<circle cx="11.7804" cy="385.239" r="4" fill="#0" id="circle5"/>
	<circle cx="19.5608" cy="291.875" r="4" fill="#0" id="circle6"/>
	<circle cx="19.5608" cy="330.776" r="4" fill="#0" id="circle7"/>
	<circle cx="42.902" cy="171.278" r="4" fill="#0" id="circle8"/>
	<circle cx="42.902" cy="466.933" r="4" fill="#0" id="circle9"/>
	<circle cx="81.8039" cy="186.839" r="4" fill="#0" id="circle10"/>
	<circle cx="81.8039" cy="451.373" r="4" fill="#0" id="circle11"/>
	<circle cx="116.816" cy="206.29" r="4" fill="#0" id="circle12"/>
	<circle cx="120.706" cy="435.812" r="4" fill="#0" id="circle13"/>
	<circle cx="147.937" cy="229.631" r="4" fill="#0" id="circle14"/>
	<circle cx="151.827" cy="404.69" r="4" fill="#0" id="circle15"/>
	<circle cx="182.949" cy="249.082" r="4" fill="#0" id="circle16"/>
	<circle cx="182.949" cy="381.349" r="4" fill="#0" id="circle17"/>
	<circle cx="214.071" cy="221.851" r="4" fill="#0" id="circle18"/>
	<circle cx="214.071" cy="404.69" r="4" fill="#0" id="circle19"/>
	<circle cx="221.851" cy="443.592" r="4" fill="#0" id="circle20"/>
	<circle cx="229.631" cy="482.494" r="4" fill="#0" id="circle21"/>
	<circle cx="237.412" cy="190.729" r="4" fill="#0" id="circle22"/>
	<circle cx="260.753" cy="159.608" r="4" fill="#0" id="circle23"/>
	<circle cx="260.753" cy="505.835" r="4" fill="#0" id="circle24"/>
	<circle cx="284.094" cy="128.486" r="4" fill="#0" id="circle25"/>
	<circle cx="299.655" cy="505.835" r="4" fill="#0" id="circle26"/>
	<circle cx="319.106" cy="109.035" r="4" fill="#0" id="circle27"/>
	<circle cx="338.557" cy="498.055" r="4" fill="#0" id="circle28"/>
	<circle cx="358.008" cy="112.925" r="4" fill="#0" id="circle29"/>
	<circle cx="369.678" cy="474.714" r="4" fill="#0" id="circle30"/>
	<circle cx="393.02" cy="132.376" r="4" fill="#0" id="circle31"/>
	<circle cx="408.58" cy="482.494" r="4" fill="#0" id="circle32"/>
	<circle cx="431.922" cy="120.706" r="4" fill="#0" id="circle33"/>
	<circle cx="447.482" cy="482.494" r="4" fill="#0" id="circle34"/>
	<circle cx="463.043" cy="89.5843" r="4" fill="#0" id="circle35"/>
	<circle cx="486.384" cy="490.275" r="4" fill="#0" id="circle36"/>
	<circle cx="494.165" cy="548.627" r="4" fill="#0" id="circle37"/>
	<circle cx="494.165" cy="587.529" r="4" fill="#0" id="circle38"/>
	<circle cx="498.055" cy="626.431" r="4" fill="#0" id="circle39"/>
	<circle cx="501.945" cy="74.0235" r="4" fill="#0" id="circle40"/>
	<circle cx="517.506" cy="513.616" r="4" fill="#0" id="circle41"/>
	<circle cx="533.067" cy="50.6824" r="4" fill="#0" id="circle42"/>
	<circle cx="536.957" cy="630.322" r="4" fill="#0" id="circle43"/>
	<circle cx="568.078" cy="31.2314" r="4" fill="#0" id="circle44"/>
	<circle cx="571.969" cy="606.98" r="4" fill="#0" id="circle45"/>
	<circle cx="603.09" cy="11.7804" r="4" fill="#0" id="circle46"/>
	<circle cx="603.09" cy="583.639" r="4" fill="#0" id="circle47"/>
	<circle cx="634.212" cy="606.98" r="4" fill="#0" id="circle48"/>
	<circle cx="641.992" cy="4" r="4" fill="#0" id="circle49"/>
	<circle cx="661.443" cy="39.0118" r="4" fill="#0" id="circle50"/>
	<circle cx="665.333" cy="630.322" r="4" fill="#0" id="circle51"/>
	<circle cx="684.784" cy="70.1333" r="4" fill="#0" id="circle52"/>
	<circle cx="700.345" cy="109.035" r="4" fill="#0" id="circle53"/>
	<circle cx="704.235" cy="622.541" r="4" fill="#0" id="circle54"/>
	<circle cx="719.796" cy="144.047" r="4" fill="#0" id="circle55"/>
	<circle cx="723.686" cy="587.529" r="4" fill="#0" id="circle56"/>
	<circle cx="739.247" cy="501.945" r="4" fill="#0" id="circle57"/>
	<circle cx="739.247" cy="540.847" r="4" fill="#0" id="circle58"/>
	<circle cx="758.698" cy="151.827" r="4" fill="#0" id="circle59"/>
	<circle cx="778.149" cy="486.384" r="4" fill="#0" id="circle60"/>
	<circle cx="797.6" cy="163.498" r="4" fill="#0" id="circle61"/>
	<circle cx="817.051" cy="470.824" r="4" fill="#0" id="circle62"/>
	<circle cx="832.612" cy="182.949" r="4" fill="#0" id="circle63"/>
	<circle cx="852.063" cy="451.373" r="4" fill="#0" id="circle64"/>
	<circle cx="871.514" cy="190.729" r="4" fill="#0" id="circle65"/>
	<circle cx="890.965" cy="443.592" r="4" fill="#0" id="circle66"/>
	<circle cx="910.416" cy="206.29" r="4" fill="#0" id="circle67"/>
	<circle cx="922.086" cy="420.251" r="4" fill="#0" id="circle68"/>
	<circle cx="933.757" cy="237.412" r="4" fill="#0" id="circle69"/>
	<circle cx="953.208" cy="389.129" r="4" fill="#0" id="circle70"/>
	<circle cx="968.769" cy="256.863" r="4" fill="#0" id="circle71"/>
	<circle cx="972.659" cy="354.118" r="4" fill="#0" id="circle72"/>
	<circle cx="996" cy="287.984" r="4" fill="#0" id="circle73"/>
	</g>
</svg>