<?xml version="1.0" encoding="UTF-8" standalone="no"?>
<!-- Created with CurveBenchmark -->
<svg
	xmlns:dc="http://purl.org/dc/elements/1.1/"
	xmlns:cc="http://creativecommons.org/ns#"
	xmlns:rdf="http://www.w3.org/1999/02/22-rdf-syntax-ns#"
	xmlns:svg="http://www.w3.org/2000/svg"
	xmlns="http://www.w3.org/2000/svg"
	xmlns:sodipodi="http://sodipodi.sourceforge.net/DTD/sodipodi-0.dtd"
	xmlns:inkscape="http://www.inkscape.org/namespaces/inkscape"
	width="1000"
	height="1000"
	id="svg2"
	version="1.1"
	sodipodi:docname="manifold/peel-cat33.png.txt">
<defs
	id="defs4" />
<metadata
	id="metadata7">
	<rdf:RDF>
		<cc:Work
			rdf:about="">
			<dc:format>image/svg+xml</dc:format>
			<dc:type
				rdf:resource="http://purl.org/dc/dcmitype/StillImage" />
			<dc:title></dc:title>
		</cc:Work>
	</rdf:RDF>
</metadata>
<g
	inkscape:label="Layer 1"
	inkscape:groupmode="layer"
	id="layer1">
	<path style="fill:none;stroke:red;stroke-width:1px;stroke-linecap:butt;stroke-linejoin:miter;stroke-opacity:1" d="M 4,409.967 4,393.597 z" id="boundary" inkscape:connector-curvature="0" />
	<path style="fill:none;stroke:red;stroke-width:1px;stroke-linecap:butt;stroke-linejoin:miter;stroke-opacity:1" d="M 4,409.967 12.1848,424.7 z" id="boundary" inkscape:connector-curvature="0" />
	<path style="fill:none;stroke:red;stroke-width:1px;stroke-linecap:butt;stroke-linejoin:miter;stroke-opacity:1" d="M 4,393.597 4,377.228 z" id="boundary" inkscape:connector-curvature="0" />
	<path style="fill:none;stroke:red;stroke-width:1px;stroke-linecap:butt;stroke-linejoin:miter;stroke-opacity:1" d="M 4,377.228 17.0957,364.132 z" id="boundary" inkscape:connector-curvature="0" />
	<path style="fill:none;stroke:red;stroke-width:1px;stroke-linecap:butt;stroke-linejoin:miter;stroke-opacity:1" d="M 20.3696,439.432 12.1848,424.7 z" id="boundary" inkscape:connector-curvature="0" />
	<path style="fill:none;stroke:red;stroke-width:1px;stroke-linecap:butt;stroke-linejoin:miter;stroke-opacity:1" d="M 97.3069,472.172 110.403,481.993 z" id="boundary" inkscape:connector-curvature="0" />
	<path style="fill:none;stroke:red;stroke-width:1px;stroke-linecap:butt;stroke-linejoin:miter;stroke-opacity:1" d="M 17.0957,364.132 30.1914,351.036 z" id="boundary" inkscape:connector-curvature="0" />
	<path style="fill:none;stroke:red;stroke-width:1px;stroke-linecap:butt;stroke-linejoin:miter;stroke-opacity:1" d="M 35.1023,447.617 20.3696,439.432 z" id="boundary" inkscape:connector-curvature="0" />
	<path style="fill:none;stroke:red;stroke-width:1px;stroke-linecap:butt;stroke-linejoin:miter;stroke-opacity:1" d="M 43.2871,339.578 44.9241,319.934 z" id="boundary" inkscape:connector-curvature="0" />
	<path style="fill:none;stroke:red;stroke-width:1px;stroke-linecap:butt;stroke-linejoin:miter;stroke-opacity:1" d="M 44.9241,319.934 53.1089,303.564 z" id="boundary" inkscape:connector-curvature="0" />
	<path style="fill:none;stroke:red;stroke-width:1px;stroke-linecap:butt;stroke-linejoin:miter;stroke-opacity:1" d="M 30.1914,351.036 43.2871,339.578 z" id="boundary" inkscape:connector-curvature="0" />
	<path style="fill:none;stroke:red;stroke-width:1px;stroke-linecap:butt;stroke-linejoin:miter;stroke-opacity:1" d="M 49.835,455.802 35.1023,447.617 z" id="boundary" inkscape:connector-curvature="0" />
	<path style="fill:none;stroke:red;stroke-width:1px;stroke-linecap:butt;stroke-linejoin:miter;stroke-opacity:1" d="M 131.683,504.911 139.868,519.644 z" id="boundary" inkscape:connector-curvature="0" />
	<path style="fill:none;stroke:red;stroke-width:1px;stroke-linecap:butt;stroke-linejoin:miter;stroke-opacity:1" d="M 53.1089,303.564 69.4785,287.195 z" id="boundary" inkscape:connector-curvature="0" />
	<path style="fill:none;stroke:red;stroke-width:1px;stroke-linecap:butt;stroke-linejoin:miter;stroke-opacity:1" d="M 82.5743,463.987 97.3069,472.172 z" id="boundary" inkscape:connector-curvature="0" />
	<path style="fill:none;stroke:red;stroke-width:1px;stroke-linecap:butt;stroke-linejoin:miter;stroke-opacity:1" d="M 82.5743,463.987 66.2046,462.35 z" id="boundary" inkscape:connector-curvature="0" />
	<path style="fill:none;stroke:red;stroke-width:1px;stroke-linecap:butt;stroke-linejoin:miter;stroke-opacity:1" d="M 128.409,192.251 136.594,206.983 z" id="boundary" inkscape:connector-curvature="0" />
	<path style="fill:none;stroke:red;stroke-width:1px;stroke-linecap:butt;stroke-linejoin:miter;stroke-opacity:1" d="M 69.4785,287.195 77.6634,270.825 z" id="boundary" inkscape:connector-curvature="0" />
	<path style="fill:none;stroke:red;stroke-width:1px;stroke-linecap:butt;stroke-linejoin:miter;stroke-opacity:1" d="M 49.835,455.802 66.2046,462.35 z" id="boundary" inkscape:connector-curvature="0" />
	<path style="fill:none;stroke:red;stroke-width:1px;stroke-linecap:butt;stroke-linejoin:miter;stroke-opacity:1" d="M 85.8482,238.086 85.8482,221.716 z" id="boundary" inkscape:connector-curvature="0" />
	<path style="fill:none;stroke:red;stroke-width:1px;stroke-linecap:butt;stroke-linejoin:miter;stroke-opacity:1" d="M 77.6634,270.825 85.8482,254.455 z" id="boundary" inkscape:connector-curvature="0" />
	<path style="fill:none;stroke:red;stroke-width:1px;stroke-linecap:butt;stroke-linejoin:miter;stroke-opacity:1" d="M 85.8482,254.455 85.8482,238.086 z" id="boundary" inkscape:connector-curvature="0" />
	<path style="fill:none;stroke:red;stroke-width:1px;stroke-linecap:butt;stroke-linejoin:miter;stroke-opacity:1" d="M 102.218,180.792 94.033,197.162 z" id="boundary" inkscape:connector-curvature="0" />
	<path style="fill:none;stroke:red;stroke-width:1px;stroke-linecap:butt;stroke-linejoin:miter;stroke-opacity:1" d="M 118.587,179.155 128.409,192.251 z" id="boundary" inkscape:connector-curvature="0" />
	<path style="fill:none;stroke:red;stroke-width:1px;stroke-linecap:butt;stroke-linejoin:miter;stroke-opacity:1" d="M 118.587,179.155 102.218,180.792 z" id="boundary" inkscape:connector-curvature="0" />
	<path style="fill:none;stroke:red;stroke-width:1px;stroke-linecap:butt;stroke-linejoin:miter;stroke-opacity:1" d="M 85.8482,221.716 94.033,197.162 z" id="boundary" inkscape:connector-curvature="0" />
	<path style="fill:none;stroke:red;stroke-width:1px;stroke-linecap:butt;stroke-linejoin:miter;stroke-opacity:1" d="M 102.218,941.98 110.403,956.713 z" id="boundary" inkscape:connector-curvature="0" />
	<path style="fill:none;stroke:red;stroke-width:1px;stroke-linecap:butt;stroke-linejoin:miter;stroke-opacity:1" d="M 102.218,909.241 102.218,925.611 z" id="boundary" inkscape:connector-curvature="0" />
	<path style="fill:none;stroke:red;stroke-width:1px;stroke-linecap:butt;stroke-linejoin:miter;stroke-opacity:1" d="M 102.218,925.611 102.218,941.98 z" id="boundary" inkscape:connector-curvature="0" />
	<path style="fill:none;stroke:red;stroke-width:1px;stroke-linecap:butt;stroke-linejoin:miter;stroke-opacity:1" d="M 102.218,909.241 115.314,896.145 z" id="boundary" inkscape:connector-curvature="0" />
	<path style="fill:none;stroke:red;stroke-width:1px;stroke-linecap:butt;stroke-linejoin:miter;stroke-opacity:1" d="M 123.498,879.776 136.594,866.68 z" id="boundary" inkscape:connector-curvature="0" />
	<path style="fill:none;stroke:red;stroke-width:1px;stroke-linecap:butt;stroke-linejoin:miter;stroke-opacity:1" d="M 110.403,481.993 126.772,488.541 z" id="boundary" inkscape:connector-curvature="0" />
	<path style="fill:none;stroke:red;stroke-width:1px;stroke-linecap:butt;stroke-linejoin:miter;stroke-opacity:1" d="M 136.594,206.983 144.779,221.716 z" id="boundary" inkscape:connector-curvature="0" />
	<path style="fill:none;stroke:red;stroke-width:1px;stroke-linecap:butt;stroke-linejoin:miter;stroke-opacity:1" d="M 115.314,896.145 123.498,879.776 z" id="boundary" inkscape:connector-curvature="0" />
	<path style="fill:none;stroke:red;stroke-width:1px;stroke-linecap:butt;stroke-linejoin:miter;stroke-opacity:1" d="M 126.772,488.541 131.683,504.911 z" id="boundary" inkscape:connector-curvature="0" />
	<path style="fill:none;stroke:red;stroke-width:1px;stroke-linecap:butt;stroke-linejoin:miter;stroke-opacity:1" d="M 146.416,536.013 139.868,519.644 z" id="boundary" inkscape:connector-curvature="0" />
	<path style="fill:none;stroke:red;stroke-width:1px;stroke-linecap:butt;stroke-linejoin:miter;stroke-opacity:1" d="M 110.403,956.713 126.772,963.261 z" id="boundary" inkscape:connector-curvature="0" />
	<path style="fill:none;stroke:red;stroke-width:1px;stroke-linecap:butt;stroke-linejoin:miter;stroke-opacity:1" d="M 126.772,963.261 141.505,955.076 z" id="boundary" inkscape:connector-curvature="0" />
	<path style="fill:none;stroke:red;stroke-width:1px;stroke-linecap:butt;stroke-linejoin:miter;stroke-opacity:1" d="M 226.627,218.442 234.812,233.175 z" id="boundary" inkscape:connector-curvature="0" />
	<path style="fill:none;stroke:red;stroke-width:1px;stroke-linecap:butt;stroke-linejoin:miter;stroke-opacity:1" d="M 218.442,930.521 234.812,930.521 z" id="boundary" inkscape:connector-curvature="0" />
	<path style="fill:none;stroke:red;stroke-width:1px;stroke-linecap:butt;stroke-linejoin:miter;stroke-opacity:1" d="M 156.238,945.254 169.333,930.521 z" id="boundary" inkscape:connector-curvature="0" />
	<path style="fill:none;stroke:red;stroke-width:1px;stroke-linecap:butt;stroke-linejoin:miter;stroke-opacity:1" d="M 136.594,866.68 143.142,843.762 z" id="boundary" inkscape:connector-curvature="0" />
	<path style="fill:none;stroke:red;stroke-width:1px;stroke-linecap:butt;stroke-linejoin:miter;stroke-opacity:1" d="M 159.512,588.396 151.327,573.663 z" id="boundary" inkscape:connector-curvature="0" />
	<path style="fill:none;stroke:red;stroke-width:1px;stroke-linecap:butt;stroke-linejoin:miter;stroke-opacity:1" d="M 156.238,830.667 143.142,843.762 z" id="boundary" inkscape:connector-curvature="0" />
	<path style="fill:none;stroke:red;stroke-width:1px;stroke-linecap:butt;stroke-linejoin:miter;stroke-opacity:1" d="M 184.066,180.792 200.436,179.155 z" id="boundary" inkscape:connector-curvature="0" />
	<path style="fill:none;stroke:red;stroke-width:1px;stroke-linecap:butt;stroke-linejoin:miter;stroke-opacity:1" d="M 200.436,179.155 210.257,192.251 z" id="boundary" inkscape:connector-curvature="0" />
	<path style="fill:none;stroke:red;stroke-width:1px;stroke-linecap:butt;stroke-linejoin:miter;stroke-opacity:1" d="M 167.696,188.977 159.512,205.347 z" id="boundary" inkscape:connector-curvature="0" />
	<path style="fill:none;stroke:red;stroke-width:1px;stroke-linecap:butt;stroke-linejoin:miter;stroke-opacity:1" d="M 292.106,329.756 300.29,344.488 z" id="boundary" inkscape:connector-curvature="0" />
	<path style="fill:none;stroke:red;stroke-width:1px;stroke-linecap:butt;stroke-linejoin:miter;stroke-opacity:1" d="M 159.512,545.835 146.416,536.013 z" id="boundary" inkscape:connector-curvature="0" />
	<path style="fill:none;stroke:red;stroke-width:1px;stroke-linecap:butt;stroke-linejoin:miter;stroke-opacity:1" d="M 141.505,955.076 156.238,945.254 z" id="boundary" inkscape:connector-curvature="0" />
	<path style="fill:none;stroke:red;stroke-width:1px;stroke-linecap:butt;stroke-linejoin:miter;stroke-opacity:1" d="M 151.327,573.663 159.512,545.835 z" id="boundary" inkscape:connector-curvature="0" />
	<path style="fill:none;stroke:red;stroke-width:1px;stroke-linecap:butt;stroke-linejoin:miter;stroke-opacity:1" d="M 144.779,221.716 159.512,205.347 z" id="boundary" inkscape:connector-curvature="0" />
	<path style="fill:none;stroke:red;stroke-width:1px;stroke-linecap:butt;stroke-linejoin:miter;stroke-opacity:1" d="M 156.238,830.667 159.512,811.023 z" id="boundary" inkscape:connector-curvature="0" />
	<path style="fill:none;stroke:red;stroke-width:1px;stroke-linecap:butt;stroke-linejoin:miter;stroke-opacity:1" d="M 208.62,917.426 218.442,930.521 z" id="boundary" inkscape:connector-curvature="0" />
	<path style="fill:none;stroke:red;stroke-width:1px;stroke-linecap:butt;stroke-linejoin:miter;stroke-opacity:1" d="M 159.512,811.023 167.696,786.469 z" id="boundary" inkscape:connector-curvature="0" />
	<path style="fill:none;stroke:red;stroke-width:1px;stroke-linecap:butt;stroke-linejoin:miter;stroke-opacity:1" d="M 159.512,588.396 167.696,603.129 z" id="boundary" inkscape:connector-curvature="0" />
	<path style="fill:none;stroke:red;stroke-width:1px;stroke-linecap:butt;stroke-linejoin:miter;stroke-opacity:1" d="M 226.627,218.442 223.353,202.073 z" id="boundary" inkscape:connector-curvature="0" />
	<path style="fill:none;stroke:red;stroke-width:1px;stroke-linecap:butt;stroke-linejoin:miter;stroke-opacity:1" d="M 223.353,202.073 210.257,192.251 z" id="boundary" inkscape:connector-curvature="0" />
	<path style="fill:none;stroke:red;stroke-width:1px;stroke-linecap:butt;stroke-linejoin:miter;stroke-opacity:1" d="M 184.066,180.792 167.696,188.977 z" id="boundary" inkscape:connector-curvature="0" />
	<path style="fill:none;stroke:red;stroke-width:1px;stroke-linecap:butt;stroke-linejoin:miter;stroke-opacity:1" d="M 167.696,603.129 167.696,619.498 z" id="boundary" inkscape:connector-curvature="0" />
	<path style="fill:none;stroke:red;stroke-width:1px;stroke-linecap:butt;stroke-linejoin:miter;stroke-opacity:1" d="M 182.429,902.693 193.888,889.597 z" id="boundary" inkscape:connector-curvature="0" />
	<path style="fill:none;stroke:red;stroke-width:1px;stroke-linecap:butt;stroke-linejoin:miter;stroke-opacity:1" d="M 316.66,373.954 308.475,359.221 z" id="boundary" inkscape:connector-curvature="0" />
	<path style="fill:none;stroke:red;stroke-width:1px;stroke-linecap:butt;stroke-linejoin:miter;stroke-opacity:1" d="M 167.696,786.469 175.881,770.099 z" id="boundary" inkscape:connector-curvature="0" />
	<path style="fill:none;stroke:red;stroke-width:1px;stroke-linecap:butt;stroke-linejoin:miter;stroke-opacity:1" d="M 167.696,619.498 172.607,635.868 z" id="boundary" inkscape:connector-curvature="0" />
	<path style="fill:none;stroke:red;stroke-width:1px;stroke-linecap:butt;stroke-linejoin:miter;stroke-opacity:1" d="M 169.333,914.152 169.333,930.521 z" id="boundary" inkscape:connector-curvature="0" />
	<path style="fill:none;stroke:red;stroke-width:1px;stroke-linecap:butt;stroke-linejoin:miter;stroke-opacity:1" d="M 187.34,666.97 180.792,650.601 z" id="boundary" inkscape:connector-curvature="0" />
	<path style="fill:none;stroke:red;stroke-width:1px;stroke-linecap:butt;stroke-linejoin:miter;stroke-opacity:1" d="M 169.333,914.152 182.429,902.693 z" id="boundary" inkscape:connector-curvature="0" />
	<path style="fill:none;stroke:red;stroke-width:1px;stroke-linecap:butt;stroke-linejoin:miter;stroke-opacity:1" d="M 172.607,635.868 180.792,650.601 z" id="boundary" inkscape:connector-curvature="0" />
	<path style="fill:none;stroke:red;stroke-width:1px;stroke-linecap:butt;stroke-linejoin:miter;stroke-opacity:1" d="M 184.066,753.729 192.251,737.36 z" id="boundary" inkscape:connector-curvature="0" />
	<path style="fill:none;stroke:red;stroke-width:1px;stroke-linecap:butt;stroke-linejoin:miter;stroke-opacity:1" d="M 175.881,770.099 184.066,753.729 z" id="boundary" inkscape:connector-curvature="0" />
	<path style="fill:none;stroke:red;stroke-width:1px;stroke-linecap:butt;stroke-linejoin:miter;stroke-opacity:1" d="M 200.436,676.792 187.34,666.97 z" id="boundary" inkscape:connector-curvature="0" />
	<path style="fill:none;stroke:red;stroke-width:1px;stroke-linecap:butt;stroke-linejoin:miter;stroke-opacity:1" d="M 193.888,873.228 193.888,889.597 z" id="boundary" inkscape:connector-curvature="0" />
	<path style="fill:none;stroke:red;stroke-width:1px;stroke-linecap:butt;stroke-linejoin:miter;stroke-opacity:1" d="M 202.073,856.858 215.168,845.399 z" id="boundary" inkscape:connector-curvature="0" />
	<path style="fill:none;stroke:red;stroke-width:1px;stroke-linecap:butt;stroke-linejoin:miter;stroke-opacity:1" d="M 200.436,720.99 192.251,737.36 z" id="boundary" inkscape:connector-curvature="0" />
	<path style="fill:none;stroke:red;stroke-width:1px;stroke-linecap:butt;stroke-linejoin:miter;stroke-opacity:1" d="M 200.436,676.792 205.347,693.162 z" id="boundary" inkscape:connector-curvature="0" />
	<path style="fill:none;stroke:red;stroke-width:1px;stroke-linecap:butt;stroke-linejoin:miter;stroke-opacity:1" d="M 193.888,873.228 202.073,856.858 z" id="boundary" inkscape:connector-curvature="0" />
	<path style="fill:none;stroke:red;stroke-width:1px;stroke-linecap:butt;stroke-linejoin:miter;stroke-opacity:1" d="M 242.997,247.908 242.997,264.277 z" id="boundary" inkscape:connector-curvature="0" />
	<path style="fill:none;stroke:red;stroke-width:1px;stroke-linecap:butt;stroke-linejoin:miter;stroke-opacity:1" d="M 242.997,247.908 234.812,233.175 z" id="boundary" inkscape:connector-curvature="0" />
	<path style="fill:none;stroke:red;stroke-width:1px;stroke-linecap:butt;stroke-linejoin:miter;stroke-opacity:1" d="M 200.436,720.99 205.347,693.162 z" id="boundary" inkscape:connector-curvature="0" />
	<path style="fill:none;stroke:red;stroke-width:1px;stroke-linecap:butt;stroke-linejoin:miter;stroke-opacity:1" d="M 234.812,930.521 251.182,930.521 z" id="boundary" inkscape:connector-curvature="0" />
	<path style="fill:none;stroke:red;stroke-width:1px;stroke-linecap:butt;stroke-linejoin:miter;stroke-opacity:1" d="M 242.997,264.277 251.182,279.01 z" id="boundary" inkscape:connector-curvature="0" />
	<path style="fill:none;stroke:red;stroke-width:1px;stroke-linecap:butt;stroke-linejoin:miter;stroke-opacity:1" d="M 539.287,930.521 522.917,930.521 z" id="boundary" inkscape:connector-curvature="0" />
	<path style="fill:none;stroke:red;stroke-width:1px;stroke-linecap:butt;stroke-linejoin:miter;stroke-opacity:1" d="M 221.716,904.33 229.901,887.96 z" id="boundary" inkscape:connector-curvature="0" />
	<path style="fill:none;stroke:red;stroke-width:1px;stroke-linecap:butt;stroke-linejoin:miter;stroke-opacity:1" d="M 208.62,917.426 221.716,904.33 z" id="boundary" inkscape:connector-curvature="0" />
	<path style="fill:none;stroke:red;stroke-width:1px;stroke-linecap:butt;stroke-linejoin:miter;stroke-opacity:1" d="M 215.168,845.399 226.627,832.304 z" id="boundary" inkscape:connector-curvature="0" />
	<path style="fill:none;stroke:red;stroke-width:1px;stroke-linecap:butt;stroke-linejoin:miter;stroke-opacity:1" d="M 265.914,287.195 279.01,298.653 z" id="boundary" inkscape:connector-curvature="0" />
	<path style="fill:none;stroke:red;stroke-width:1px;stroke-linecap:butt;stroke-linejoin:miter;stroke-opacity:1" d="M 279.01,298.653 283.921,315.023 z" id="boundary" inkscape:connector-curvature="0" />
	<path style="fill:none;stroke:red;stroke-width:1px;stroke-linecap:butt;stroke-linejoin:miter;stroke-opacity:1" d="M 226.627,832.304 241.36,824.119 z" id="boundary" inkscape:connector-curvature="0" />
	<path style="fill:none;stroke:red;stroke-width:1px;stroke-linecap:butt;stroke-linejoin:miter;stroke-opacity:1" d="M 241.36,868.317 249.545,851.947 z" id="boundary" inkscape:connector-curvature="0" />
	<path style="fill:none;stroke:red;stroke-width:1px;stroke-linecap:butt;stroke-linejoin:miter;stroke-opacity:1" d="M 229.901,887.96 241.36,868.317 z" id="boundary" inkscape:connector-curvature="0" />
	<path style="fill:none;stroke:red;stroke-width:1px;stroke-linecap:butt;stroke-linejoin:miter;stroke-opacity:1" d="M 265.914,287.195 251.182,279.01 z" id="boundary" inkscape:connector-curvature="0" />
	<path style="fill:none;stroke:red;stroke-width:1px;stroke-linecap:butt;stroke-linejoin:miter;stroke-opacity:1" d="M 292.106,329.756 283.921,315.023 z" id="boundary" inkscape:connector-curvature="0" />
	<path style="fill:none;stroke:red;stroke-width:1px;stroke-linecap:butt;stroke-linejoin:miter;stroke-opacity:1" d="M 251.182,930.521 267.551,930.521 z" id="boundary" inkscape:connector-curvature="0" />
	<path style="fill:none;stroke:red;stroke-width:1px;stroke-linecap:butt;stroke-linejoin:miter;stroke-opacity:1" d="M 241.36,824.119 257.729,824.119 z" id="boundary" inkscape:connector-curvature="0" />
	<path style="fill:none;stroke:red;stroke-width:1px;stroke-linecap:butt;stroke-linejoin:miter;stroke-opacity:1" d="M 316.66,848.673 316.66,832.304 z" id="boundary" inkscape:connector-curvature="0" />
	<path style="fill:none;stroke:red;stroke-width:1px;stroke-linecap:butt;stroke-linejoin:miter;stroke-opacity:1" d="M 490.178,928.884 478.719,915.789 z" id="boundary" inkscape:connector-curvature="0" />
	<path style="fill:none;stroke:red;stroke-width:1px;stroke-linecap:butt;stroke-linejoin:miter;stroke-opacity:1" d="M 308.475,359.221 300.29,344.488 z" id="boundary" inkscape:connector-curvature="0" />
	<path style="fill:none;stroke:red;stroke-width:1px;stroke-linecap:butt;stroke-linejoin:miter;stroke-opacity:1" d="M 283.921,914.152 300.29,897.782 z" id="boundary" inkscape:connector-curvature="0" />
	<path style="fill:none;stroke:red;stroke-width:1px;stroke-linecap:butt;stroke-linejoin:miter;stroke-opacity:1" d="M 329.756,383.776 341.215,396.871 z" id="boundary" inkscape:connector-curvature="0" />
	<path style="fill:none;stroke:red;stroke-width:1px;stroke-linecap:butt;stroke-linejoin:miter;stroke-opacity:1" d="M 329.756,383.776 316.66,373.954 z" id="boundary" inkscape:connector-curvature="0" />
	<path style="fill:none;stroke:red;stroke-width:1px;stroke-linecap:butt;stroke-linejoin:miter;stroke-opacity:1" d="M 773.373,58.0198 773.373,41.6502 z" id="boundary" inkscape:connector-curvature="0" />
	<path style="fill:none;stroke:red;stroke-width:1px;stroke-linecap:butt;stroke-linejoin:miter;stroke-opacity:1" d="M 267.551,930.521 283.921,914.152 z" id="boundary" inkscape:connector-curvature="0" />
	<path style="fill:none;stroke:red;stroke-width:1px;stroke-linecap:butt;stroke-linejoin:miter;stroke-opacity:1" d="M 470.535,901.056 478.719,915.789 z" id="boundary" inkscape:connector-curvature="0" />
	<path style="fill:none;stroke:red;stroke-width:1px;stroke-linecap:butt;stroke-linejoin:miter;stroke-opacity:1" d="M 468.898,693.162 452.528,693.162 z" id="boundary" inkscape:connector-curvature="0" />
	<path style="fill:none;stroke:red;stroke-width:1px;stroke-linecap:butt;stroke-linejoin:miter;stroke-opacity:1" d="M 308.475,881.413 300.29,897.782 z" id="boundary" inkscape:connector-curvature="0" />
	<path style="fill:none;stroke:red;stroke-width:1px;stroke-linecap:butt;stroke-linejoin:miter;stroke-opacity:1" d="M 316.66,815.934 316.66,799.564 z" id="boundary" inkscape:connector-curvature="0" />
	<path style="fill:none;stroke:red;stroke-width:1px;stroke-linecap:butt;stroke-linejoin:miter;stroke-opacity:1" d="M 333.03,766.825 341.215,742.271 z" id="boundary" inkscape:connector-curvature="0" />
	<path style="fill:none;stroke:red;stroke-width:1px;stroke-linecap:butt;stroke-linejoin:miter;stroke-opacity:1" d="M 341.215,742.271 354.31,730.812 z" id="boundary" inkscape:connector-curvature="0" />
	<path style="fill:none;stroke:red;stroke-width:1px;stroke-linecap:butt;stroke-linejoin:miter;stroke-opacity:1" d="M 316.66,832.304 316.66,815.934 z" id="boundary" inkscape:connector-curvature="0" />
	<path style="fill:none;stroke:red;stroke-width:1px;stroke-linecap:butt;stroke-linejoin:miter;stroke-opacity:1" d="M 316.66,799.564 324.845,783.195 z" id="boundary" inkscape:connector-curvature="0" />
	<path style="fill:none;stroke:red;stroke-width:1px;stroke-linecap:butt;stroke-linejoin:miter;stroke-opacity:1" d="M 403.419,693.162 419.789,693.162 z" id="boundary" inkscape:connector-curvature="0" />
	<path style="fill:none;stroke:red;stroke-width:1px;stroke-linecap:butt;stroke-linejoin:miter;stroke-opacity:1" d="M 316.66,848.673 316.66,865.043 z" id="boundary" inkscape:connector-curvature="0" />
	<path style="fill:none;stroke:red;stroke-width:1px;stroke-linecap:butt;stroke-linejoin:miter;stroke-opacity:1" d="M 324.845,783.195 333.03,766.825 z" id="boundary" inkscape:connector-curvature="0" />
	<path style="fill:none;stroke:red;stroke-width:1px;stroke-linecap:butt;stroke-linejoin:miter;stroke-opacity:1" d="M 308.475,881.413 316.66,865.043 z" id="boundary" inkscape:connector-curvature="0" />
	<path style="fill:none;stroke:red;stroke-width:1px;stroke-linecap:butt;stroke-linejoin:miter;stroke-opacity:1" d="M 419.789,693.162 436.158,693.162 z" id="boundary" inkscape:connector-curvature="0" />
	<path style="fill:none;stroke:red;stroke-width:1px;stroke-linecap:butt;stroke-linejoin:miter;stroke-opacity:1" d="M 387.05,693.162 403.419,693.162 z" id="boundary" inkscape:connector-curvature="0" />
	<path style="fill:none;stroke:red;stroke-width:1px;stroke-linecap:butt;stroke-linejoin:miter;stroke-opacity:1" d="M 387.05,693.162 372.317,701.347 z" id="boundary" inkscape:connector-curvature="0" />
	<path style="fill:none;stroke:red;stroke-width:1px;stroke-linecap:butt;stroke-linejoin:miter;stroke-opacity:1" d="M 362.495,714.442 354.31,730.812 z" id="boundary" inkscape:connector-curvature="0" />
	<path style="fill:none;stroke:red;stroke-width:1px;stroke-linecap:butt;stroke-linejoin:miter;stroke-opacity:1" d="M 341.215,396.871 357.584,396.871 z" id="boundary" inkscape:connector-curvature="0" />
	<path style="fill:none;stroke:red;stroke-width:1px;stroke-linecap:butt;stroke-linejoin:miter;stroke-opacity:1" d="M 436.158,693.162 452.528,693.162 z" id="boundary" inkscape:connector-curvature="0" />
	<path style="fill:none;stroke:red;stroke-width:1px;stroke-linecap:butt;stroke-linejoin:miter;stroke-opacity:1" d="M 372.317,701.347 362.495,714.442 z" id="boundary" inkscape:connector-curvature="0" />
	<path style="fill:none;stroke:red;stroke-width:1px;stroke-linecap:butt;stroke-linejoin:miter;stroke-opacity:1" d="M 357.584,396.871 373.954,396.871 z" id="boundary" inkscape:connector-curvature="0" />
	<path style="fill:none;stroke:red;stroke-width:1px;stroke-linecap:butt;stroke-linejoin:miter;stroke-opacity:1" d="M 373.954,396.871 388.686,405.056 z" id="boundary" inkscape:connector-curvature="0" />
	<path style="fill:none;stroke:red;stroke-width:1px;stroke-linecap:butt;stroke-linejoin:miter;stroke-opacity:1" d="M 388.686,405.056 405.056,405.056 z" id="boundary" inkscape:connector-curvature="0" />
	<path style="fill:none;stroke:red;stroke-width:1px;stroke-linecap:butt;stroke-linejoin:miter;stroke-opacity:1" d="M 405.056,405.056 421.426,405.056 z" id="boundary" inkscape:connector-curvature="0" />
	<path style="fill:none;stroke:red;stroke-width:1px;stroke-linecap:butt;stroke-linejoin:miter;stroke-opacity:1" d="M 421.426,405.056 437.795,405.056 z" id="boundary" inkscape:connector-curvature="0" />
	<path style="fill:none;stroke:red;stroke-width:1px;stroke-linecap:butt;stroke-linejoin:miter;stroke-opacity:1" d="M 437.795,405.056 454.165,405.056 z" id="boundary" inkscape:connector-curvature="0" />
	<path style="fill:none;stroke:red;stroke-width:1px;stroke-linecap:butt;stroke-linejoin:miter;stroke-opacity:1" d="M 454.165,405.056 470.535,405.056 z" id="boundary" inkscape:connector-curvature="0" />
	<path style="fill:none;stroke:red;stroke-width:1px;stroke-linecap:butt;stroke-linejoin:miter;stroke-opacity:1" d="M 468.898,693.162 485.267,693.162 z" id="boundary" inkscape:connector-curvature="0" />
	<path style="fill:none;stroke:red;stroke-width:1px;stroke-linecap:butt;stroke-linejoin:miter;stroke-opacity:1" d="M 483.63,887.96 498.363,879.776 z" id="boundary" inkscape:connector-curvature="0" />
	<path style="fill:none;stroke:red;stroke-width:1px;stroke-linecap:butt;stroke-linejoin:miter;stroke-opacity:1" d="M 470.535,901.056 483.63,887.96 z" id="boundary" inkscape:connector-curvature="0" />
	<path style="fill:none;stroke:red;stroke-width:1px;stroke-linecap:butt;stroke-linejoin:miter;stroke-opacity:1" d="M 490.178,928.884 506.548,930.521 z" id="boundary" inkscape:connector-curvature="0" />
	<path style="fill:none;stroke:red;stroke-width:1px;stroke-linecap:butt;stroke-linejoin:miter;stroke-opacity:1" d="M 470.535,405.056 486.904,401.782 z" id="boundary" inkscape:connector-curvature="0" />
	<path style="fill:none;stroke:red;stroke-width:1px;stroke-linecap:butt;stroke-linejoin:miter;stroke-opacity:1" d="M 485.267,693.162 501.637,693.162 z" id="boundary" inkscape:connector-curvature="0" />
	<path style="fill:none;stroke:red;stroke-width:1px;stroke-linecap:butt;stroke-linejoin:miter;stroke-opacity:1" d="M 486.904,401.782 503.274,396.871 z" id="boundary" inkscape:connector-curvature="0" />
	<path style="fill:none;stroke:red;stroke-width:1px;stroke-linecap:butt;stroke-linejoin:miter;stroke-opacity:1" d="M 503.274,396.871 519.644,396.871 z" id="boundary" inkscape:connector-curvature="0" />
	<path style="fill:none;stroke:red;stroke-width:1px;stroke-linecap:butt;stroke-linejoin:miter;stroke-opacity:1" d="M 501.637,693.162 518.007,693.162 z" id="boundary" inkscape:connector-curvature="0" />
	<path style="fill:none;stroke:red;stroke-width:1px;stroke-linecap:butt;stroke-linejoin:miter;stroke-opacity:1" d="M 506.548,930.521 522.917,930.521 z" id="boundary" inkscape:connector-curvature="0" />
	<path style="fill:none;stroke:red;stroke-width:1px;stroke-linecap:butt;stroke-linejoin:miter;stroke-opacity:1" d="M 498.363,879.776 514.733,879.776 z" id="boundary" inkscape:connector-curvature="0" />
	<path style="fill:none;stroke:red;stroke-width:1px;stroke-linecap:butt;stroke-linejoin:miter;stroke-opacity:1" d="M 518.007,693.162 529.465,706.257 z" id="boundary" inkscape:connector-curvature="0" />
	<path style="fill:none;stroke:red;stroke-width:1px;stroke-linecap:butt;stroke-linejoin:miter;stroke-opacity:1" d="M 740.634,955.076 725.901,946.891 z" id="boundary" inkscape:connector-curvature="0" />
	<path style="fill:none;stroke:red;stroke-width:1px;stroke-linecap:butt;stroke-linejoin:miter;stroke-opacity:1" d="M 519.644,396.871 536.013,396.871 z" id="boundary" inkscape:connector-curvature="0" />
	<path style="fill:none;stroke:red;stroke-width:1px;stroke-linecap:butt;stroke-linejoin:miter;stroke-opacity:1" d="M 514.733,879.776 529.465,871.591 z" id="boundary" inkscape:connector-curvature="0" />
	<path style="fill:none;stroke:red;stroke-width:1px;stroke-linecap:butt;stroke-linejoin:miter;stroke-opacity:1" d="M 585.122,914.152 570.389,922.337 z" id="boundary" inkscape:connector-curvature="0" />
	<path style="fill:none;stroke:red;stroke-width:1px;stroke-linecap:butt;stroke-linejoin:miter;stroke-opacity:1" d="M 529.465,706.257 545.835,712.805 z" id="boundary" inkscape:connector-curvature="0" />
	<path style="fill:none;stroke:red;stroke-width:1px;stroke-linecap:butt;stroke-linejoin:miter;stroke-opacity:1" d="M 536.013,396.871 552.383,396.871 z" id="boundary" inkscape:connector-curvature="0" />
	<path style="fill:none;stroke:red;stroke-width:1px;stroke-linecap:butt;stroke-linejoin:miter;stroke-opacity:1" d="M 529.465,871.591 544.198,851.947 z" id="boundary" inkscape:connector-curvature="0" />
	<path style="fill:none;stroke:red;stroke-width:1px;stroke-linecap:butt;stroke-linejoin:miter;stroke-opacity:1" d="M 539.287,930.521 554.02,922.337 z" id="boundary" inkscape:connector-curvature="0" />
	<path style="fill:none;stroke:red;stroke-width:1px;stroke-linecap:butt;stroke-linejoin:miter;stroke-opacity:1" d="M 545.835,712.805 557.294,725.901 z" id="boundary" inkscape:connector-curvature="0" />
	<path style="fill:none;stroke:red;stroke-width:1px;stroke-linecap:butt;stroke-linejoin:miter;stroke-opacity:1" d="M 554.02,922.337 570.389,922.337 z" id="boundary" inkscape:connector-curvature="0" />
	<path style="fill:none;stroke:red;stroke-width:1px;stroke-linecap:butt;stroke-linejoin:miter;stroke-opacity:1" d="M 552.383,396.871 568.752,396.871 z" id="boundary" inkscape:connector-curvature="0" />
	<path style="fill:none;stroke:red;stroke-width:1px;stroke-linecap:butt;stroke-linejoin:miter;stroke-opacity:1" d="M 725.901,946.891 716.079,933.795 z" id="boundary" inkscape:connector-curvature="0" />
	<path style="fill:none;stroke:red;stroke-width:1px;stroke-linecap:butt;stroke-linejoin:miter;stroke-opacity:1" d="M 544.198,851.947 560.568,843.762 z" id="boundary" inkscape:connector-curvature="0" />
	<path style="fill:none;stroke:red;stroke-width:1px;stroke-linecap:butt;stroke-linejoin:miter;stroke-opacity:1" d="M 583.485,388.686 599.855,388.686 z" id="boundary" inkscape:connector-curvature="0" />
	<path style="fill:none;stroke:red;stroke-width:1px;stroke-linecap:butt;stroke-linejoin:miter;stroke-opacity:1" d="M 583.485,388.686 568.752,396.871 z" id="boundary" inkscape:connector-curvature="0" />
	<path style="fill:none;stroke:red;stroke-width:1px;stroke-linecap:butt;stroke-linejoin:miter;stroke-opacity:1" d="M 557.294,725.901 573.663,732.449 z" id="boundary" inkscape:connector-curvature="0" />
	<path style="fill:none;stroke:red;stroke-width:1px;stroke-linecap:butt;stroke-linejoin:miter;stroke-opacity:1" d="M 573.663,732.449 585.122,745.545 z" id="boundary" inkscape:connector-curvature="0" />
	<path style="fill:none;stroke:red;stroke-width:1px;stroke-linecap:butt;stroke-linejoin:miter;stroke-opacity:1" d="M 573.663,830.667 586.759,817.571 z" id="boundary" inkscape:connector-curvature="0" />
	<path style="fill:none;stroke:red;stroke-width:1px;stroke-linecap:butt;stroke-linejoin:miter;stroke-opacity:1" d="M 560.568,843.762 573.663,830.667 z" id="boundary" inkscape:connector-curvature="0" />
	<path style="fill:none;stroke:red;stroke-width:1px;stroke-linecap:butt;stroke-linejoin:miter;stroke-opacity:1" d="M 585.122,914.152 598.218,904.33 z" id="boundary" inkscape:connector-curvature="0" />
	<path style="fill:none;stroke:red;stroke-width:1px;stroke-linecap:butt;stroke-linejoin:miter;stroke-opacity:1" d="M 598.218,904.33 611.314,889.597 z" id="boundary" inkscape:connector-curvature="0" />
	<path style="fill:none;stroke:red;stroke-width:1px;stroke-linecap:butt;stroke-linejoin:miter;stroke-opacity:1" d="M 614.587,380.502 599.855,388.686 z" id="boundary" inkscape:connector-curvature="0" />
	<path style="fill:none;stroke:red;stroke-width:1px;stroke-linecap:butt;stroke-linejoin:miter;stroke-opacity:1" d="M 601.492,783.195 601.492,766.825 z" id="boundary" inkscape:connector-curvature="0" />
	<path style="fill:none;stroke:red;stroke-width:1px;stroke-linecap:butt;stroke-linejoin:miter;stroke-opacity:1" d="M 585.122,745.545 601.492,750.455 z" id="boundary" inkscape:connector-curvature="0" />
	<path style="fill:none;stroke:red;stroke-width:1px;stroke-linecap:butt;stroke-linejoin:miter;stroke-opacity:1" d="M 586.759,817.571 599.855,806.112 z" id="boundary" inkscape:connector-curvature="0" />
	<path style="fill:none;stroke:red;stroke-width:1px;stroke-linecap:butt;stroke-linejoin:miter;stroke-opacity:1" d="M 716.079,933.795 716.079,917.426 z" id="boundary" inkscape:connector-curvature="0" />
	<path style="fill:none;stroke:red;stroke-width:1px;stroke-linecap:butt;stroke-linejoin:miter;stroke-opacity:1" d="M 601.492,750.455 601.492,766.825 z" id="boundary" inkscape:connector-curvature="0" />
	<path style="fill:none;stroke:red;stroke-width:1px;stroke-linecap:butt;stroke-linejoin:miter;stroke-opacity:1" d="M 611.314,889.597 624.409,878.139 z" id="boundary" inkscape:connector-curvature="0" />
	<path style="fill:none;stroke:red;stroke-width:1px;stroke-linecap:butt;stroke-linejoin:miter;stroke-opacity:1" d="M 599.855,806.112 601.492,783.195 z" id="boundary" inkscape:connector-curvature="0" />
	<path style="fill:none;stroke:red;stroke-width:1px;stroke-linecap:butt;stroke-linejoin:miter;stroke-opacity:1" d="M 645.69,372.317 662.059,372.317 z" id="boundary" inkscape:connector-curvature="0" />
	<path style="fill:none;stroke:red;stroke-width:1px;stroke-linecap:butt;stroke-linejoin:miter;stroke-opacity:1" d="M 696.436,750.455 693.162,734.086 z" id="boundary" inkscape:connector-curvature="0" />
	<path style="fill:none;stroke:red;stroke-width:1px;stroke-linecap:butt;stroke-linejoin:miter;stroke-opacity:1" d="M 701.347,766.825 696.436,750.455 z" id="boundary" inkscape:connector-curvature="0" />
	<path style="fill:none;stroke:red;stroke-width:1px;stroke-linecap:butt;stroke-linejoin:miter;stroke-opacity:1" d="M 645.69,372.317 629.32,372.317 z" id="boundary" inkscape:connector-curvature="0" />
	<path style="fill:none;stroke:red;stroke-width:1px;stroke-linecap:butt;stroke-linejoin:miter;stroke-opacity:1" d="M 629.32,372.317 614.587,380.502 z" id="boundary" inkscape:connector-curvature="0" />
	<path style="fill:none;stroke:red;stroke-width:1px;stroke-linecap:butt;stroke-linejoin:miter;stroke-opacity:1" d="M 635.868,865.043 648.964,853.584 z" id="boundary" inkscape:connector-curvature="0" />
	<path style="fill:none;stroke:red;stroke-width:1px;stroke-linecap:butt;stroke-linejoin:miter;stroke-opacity:1" d="M 662.059,372.317 678.429,372.317 z" id="boundary" inkscape:connector-curvature="0" />
	<path style="fill:none;stroke:red;stroke-width:1px;stroke-linecap:butt;stroke-linejoin:miter;stroke-opacity:1" d="M 624.409,878.139 635.868,865.043 z" id="boundary" inkscape:connector-curvature="0" />
	<path style="fill:none;stroke:red;stroke-width:1px;stroke-linecap:butt;stroke-linejoin:miter;stroke-opacity:1" d="M 660.422,840.488 673.518,829.03 z" id="boundary" inkscape:connector-curvature="0" />
	<path style="fill:none;stroke:red;stroke-width:1px;stroke-linecap:butt;stroke-linejoin:miter;stroke-opacity:1" d="M 648.964,853.584 660.422,840.488 z" id="boundary" inkscape:connector-curvature="0" />
	<path style="fill:none;stroke:red;stroke-width:1px;stroke-linecap:butt;stroke-linejoin:miter;stroke-opacity:1" d="M 684.977,815.934 698.073,804.475 z" id="boundary" inkscape:connector-curvature="0" />
	<path style="fill:none;stroke:red;stroke-width:1px;stroke-linecap:butt;stroke-linejoin:miter;stroke-opacity:1" d="M 773.373,58.0198 781.558,72.7525 z" id="boundary" inkscape:connector-curvature="0" />
	<path style="fill:none;stroke:red;stroke-width:1px;stroke-linecap:butt;stroke-linejoin:miter;stroke-opacity:1" d="M 673.518,829.03 684.977,815.934 z" id="boundary" inkscape:connector-curvature="0" />
	<path style="fill:none;stroke:red;stroke-width:1px;stroke-linecap:butt;stroke-linejoin:miter;stroke-opacity:1" d="M 678.429,372.317 694.799,372.317 z" id="boundary" inkscape:connector-curvature="0" />
	<path style="fill:none;stroke:red;stroke-width:1px;stroke-linecap:butt;stroke-linejoin:miter;stroke-opacity:1" d="M 693.162,734.086 707.894,725.901 z" id="boundary" inkscape:connector-curvature="0" />
	<path style="fill:none;stroke:red;stroke-width:1px;stroke-linecap:butt;stroke-linejoin:miter;stroke-opacity:1" d="M 747.182,758.64 734.086,747.182 z" id="boundary" inkscape:connector-curvature="0" />
	<path style="fill:none;stroke:red;stroke-width:1px;stroke-linecap:butt;stroke-linejoin:miter;stroke-opacity:1" d="M 701.347,783.195 701.347,766.825 z" id="boundary" inkscape:connector-curvature="0" />
	<path style="fill:none;stroke:red;stroke-width:1px;stroke-linecap:butt;stroke-linejoin:miter;stroke-opacity:1" d="M 698.073,804.475 701.347,783.195 z" id="boundary" inkscape:connector-curvature="0" />
	<path style="fill:none;stroke:red;stroke-width:1px;stroke-linecap:butt;stroke-linejoin:miter;stroke-opacity:1" d="M 734.086,747.182 722.627,734.086 z" id="boundary" inkscape:connector-curvature="0" />
	<path style="fill:none;stroke:red;stroke-width:1px;stroke-linecap:butt;stroke-linejoin:miter;stroke-opacity:1" d="M 707.894,725.901 722.627,734.086 z" id="boundary" inkscape:connector-curvature="0" />
	<path style="fill:none;stroke:red;stroke-width:1px;stroke-linecap:butt;stroke-linejoin:miter;stroke-opacity:1" d="M 711.168,372.317 727.538,372.317 z" id="boundary" inkscape:connector-curvature="0" />
	<path style="fill:none;stroke:red;stroke-width:1px;stroke-linecap:butt;stroke-linejoin:miter;stroke-opacity:1" d="M 716.079,917.426 729.175,904.33 z" id="boundary" inkscape:connector-curvature="0" />
	<path style="fill:none;stroke:red;stroke-width:1px;stroke-linecap:butt;stroke-linejoin:miter;stroke-opacity:1" d="M 760.277,372.317 743.908,372.317 z" id="boundary" inkscape:connector-curvature="0" />
	<path style="fill:none;stroke:red;stroke-width:1px;stroke-linecap:butt;stroke-linejoin:miter;stroke-opacity:1" d="M 743.908,372.317 727.538,372.317 z" id="boundary" inkscape:connector-curvature="0" />
	<path style="fill:none;stroke:red;stroke-width:1px;stroke-linecap:butt;stroke-linejoin:miter;stroke-opacity:1" d="M 740.634,955.076 757.003,955.076 z" id="boundary" inkscape:connector-curvature="0" />
	<path style="fill:none;stroke:red;stroke-width:1px;stroke-linecap:butt;stroke-linejoin:miter;stroke-opacity:1" d="M 761.914,766.825 747.182,758.64 z" id="boundary" inkscape:connector-curvature="0" />
	<path style="fill:none;stroke:red;stroke-width:1px;stroke-linecap:butt;stroke-linejoin:miter;stroke-opacity:1" d="M 729.175,904.33 745.545,896.145 z" id="boundary" inkscape:connector-curvature="0" />
	<path style="fill:none;stroke:red;stroke-width:1px;stroke-linecap:butt;stroke-linejoin:miter;stroke-opacity:1" d="M 760.277,372.317 776.647,372.317 z" id="boundary" inkscape:connector-curvature="0" />
	<path style="fill:none;stroke:red;stroke-width:1px;stroke-linecap:butt;stroke-linejoin:miter;stroke-opacity:1" d="M 757.003,955.076 773.373,955.076 z" id="boundary" inkscape:connector-curvature="0" />
	<path style="fill:none;stroke:red;stroke-width:1px;stroke-linecap:butt;stroke-linejoin:miter;stroke-opacity:1" d="M 778.284,773.373 761.914,766.825 z" id="boundary" inkscape:connector-curvature="0" />
	<path style="fill:none;stroke:red;stroke-width:1px;stroke-linecap:butt;stroke-linejoin:miter;stroke-opacity:1" d="M 776.647,372.317 793.017,372.317 z" id="boundary" inkscape:connector-curvature="0" />
	<path style="fill:none;stroke:red;stroke-width:1px;stroke-linecap:butt;stroke-linejoin:miter;stroke-opacity:1" d="M 848.673,660.422 851.947,676.792 z" id="boundary" inkscape:connector-curvature="0" />
	<path style="fill:none;stroke:red;stroke-width:1px;stroke-linecap:butt;stroke-linejoin:miter;stroke-opacity:1" d="M 694.799,372.317 711.168,372.317 z" id="boundary" inkscape:connector-curvature="0" />
	<path style="fill:none;stroke:red;stroke-width:1px;stroke-linecap:butt;stroke-linejoin:miter;stroke-opacity:1" d="M 781.558,72.7525 797.927,79.3003 z" id="boundary" inkscape:connector-curvature="0" />
	<path style="fill:none;stroke:red;stroke-width:1px;stroke-linecap:butt;stroke-linejoin:miter;stroke-opacity:1" d="M 745.545,896.145 761.914,896.145 z" id="boundary" inkscape:connector-curvature="0" />
	<path style="fill:none;stroke:red;stroke-width:1px;stroke-linecap:butt;stroke-linejoin:miter;stroke-opacity:1" d="M 848.673,486.904 848.673,470.535 z" id="boundary" inkscape:connector-curvature="0" />
	<path style="fill:none;stroke:red;stroke-width:1px;stroke-linecap:butt;stroke-linejoin:miter;stroke-opacity:1" d="M 848.673,470.535 840.488,455.802 z" id="boundary" inkscape:connector-curvature="0" />
	<path style="fill:none;stroke:red;stroke-width:1px;stroke-linecap:butt;stroke-linejoin:miter;stroke-opacity:1" d="M 791.38,783.195 778.284,773.373 z" id="boundary" inkscape:connector-curvature="0" />
	<path style="fill:none;stroke:red;stroke-width:1px;stroke-linecap:butt;stroke-linejoin:miter;stroke-opacity:1" d="M 778.284,887.96 789.743,868.317 z" id="boundary" inkscape:connector-curvature="0" />
	<path style="fill:none;stroke:red;stroke-width:1px;stroke-linecap:butt;stroke-linejoin:miter;stroke-opacity:1" d="M 848.673,644.053 848.673,660.422 z" id="boundary" inkscape:connector-curvature="0" />
	<path style="fill:none;stroke:red;stroke-width:1px;stroke-linecap:butt;stroke-linejoin:miter;stroke-opacity:1" d="M 773.373,41.6502 786.469,28.5545 z" id="boundary" inkscape:connector-curvature="0" />
	<path style="fill:none;stroke:red;stroke-width:1px;stroke-linecap:butt;stroke-linejoin:miter;stroke-opacity:1" d="M 761.914,896.145 778.284,887.96 z" id="boundary" inkscape:connector-curvature="0" />
	<path style="fill:none;stroke:red;stroke-width:1px;stroke-linecap:butt;stroke-linejoin:miter;stroke-opacity:1" d="M 789.743,868.317 797.927,851.947 z" id="boundary" inkscape:connector-curvature="0" />
	<path style="fill:none;stroke:red;stroke-width:1px;stroke-linecap:butt;stroke-linejoin:miter;stroke-opacity:1" d="M 773.373,955.076 789.743,950.165 z" id="boundary" inkscape:connector-curvature="0" />
	<path style="fill:none;stroke:red;stroke-width:1px;stroke-linecap:butt;stroke-linejoin:miter;stroke-opacity:1" d="M 814.297,79.3003 797.927,79.3003 z" id="boundary" inkscape:connector-curvature="0" />
	<path style="fill:none;stroke:red;stroke-width:1px;stroke-linecap:butt;stroke-linejoin:miter;stroke-opacity:1" d="M 824.119,364.132 807.749,364.132 z" id="boundary" inkscape:connector-curvature="0" />
	<path style="fill:none;stroke:red;stroke-width:1px;stroke-linecap:butt;stroke-linejoin:miter;stroke-opacity:1" d="M 807.749,364.132 793.017,372.317 z" id="boundary" inkscape:connector-curvature="0" />
	<path style="fill:none;stroke:red;stroke-width:1px;stroke-linecap:butt;stroke-linejoin:miter;stroke-opacity:1" d="M 802.838,938.706 789.743,950.165 z" id="boundary" inkscape:connector-curvature="0" />
	<path style="fill:none;stroke:red;stroke-width:1px;stroke-linecap:butt;stroke-linejoin:miter;stroke-opacity:1" d="M 797.927,819.208 806.112,833.941 z" id="boundary" inkscape:connector-curvature="0" />
	<path style="fill:none;stroke:red;stroke-width:1px;stroke-linecap:butt;stroke-linejoin:miter;stroke-opacity:1" d="M 806.112,833.941 797.927,851.947 z" id="boundary" inkscape:connector-curvature="0" />
	<path style="fill:none;stroke:red;stroke-width:1px;stroke-linecap:butt;stroke-linejoin:miter;stroke-opacity:1" d="M 797.927,819.208 801.201,796.29 z" id="boundary" inkscape:connector-curvature="0" />
	<path style="fill:none;stroke:red;stroke-width:1px;stroke-linecap:butt;stroke-linejoin:miter;stroke-opacity:1" d="M 791.38,783.195 801.201,796.29 z" id="boundary" inkscape:connector-curvature="0" />
	<path style="fill:none;stroke:red;stroke-width:1px;stroke-linecap:butt;stroke-linejoin:miter;stroke-opacity:1" d="M 802.838,938.706 817.571,930.521 z" id="boundary" inkscape:connector-curvature="0" />
	<path style="fill:none;stroke:red;stroke-width:1px;stroke-linecap:butt;stroke-linejoin:miter;stroke-opacity:1" d="M 786.469,28.5545 802.838,20.3696 z" id="boundary" inkscape:connector-curvature="0" />
	<path style="fill:none;stroke:red;stroke-width:1px;stroke-linecap:butt;stroke-linejoin:miter;stroke-opacity:1" d="M 838.851,355.947 824.119,364.132 z" id="boundary" inkscape:connector-curvature="0" />
	<path style="fill:none;stroke:red;stroke-width:1px;stroke-linecap:butt;stroke-linejoin:miter;stroke-opacity:1" d="M 802.838,20.3696 817.571,12.1848 z" id="boundary" inkscape:connector-curvature="0" />
	<path style="fill:none;stroke:red;stroke-width:1px;stroke-linecap:butt;stroke-linejoin:miter;stroke-opacity:1" d="M 830.667,79.3003 814.297,79.3003 z" id="boundary" inkscape:connector-curvature="0" />
	<path style="fill:none;stroke:red;stroke-width:1px;stroke-linecap:butt;stroke-linejoin:miter;stroke-opacity:1" d="M 873.228,100.581 886.323,112.04 z" id="boundary" inkscape:connector-curvature="0" />
	<path style="fill:none;stroke:red;stroke-width:1px;stroke-linecap:butt;stroke-linejoin:miter;stroke-opacity:1" d="M 830.667,79.3003 847.036,79.3003 z" id="boundary" inkscape:connector-curvature="0" />
	<path style="fill:none;stroke:red;stroke-width:1px;stroke-linecap:butt;stroke-linejoin:miter;stroke-opacity:1" d="M 873.228,100.581 861.769,87.4851 z" id="boundary" inkscape:connector-curvature="0" />
	<path style="fill:none;stroke:red;stroke-width:1px;stroke-linecap:butt;stroke-linejoin:miter;stroke-opacity:1" d="M 817.571,12.1848 832.304,4 z" id="boundary" inkscape:connector-curvature="0" />
	<path style="fill:none;stroke:red;stroke-width:1px;stroke-linecap:butt;stroke-linejoin:miter;stroke-opacity:1" d="M 832.304,4 848.673,4 z" id="boundary" inkscape:connector-curvature="0" />
	<path style="fill:none;stroke:red;stroke-width:1px;stroke-linecap:butt;stroke-linejoin:miter;stroke-opacity:1" d="M 817.571,930.521 832.304,914.152 z" id="boundary" inkscape:connector-curvature="0" />
	<path style="fill:none;stroke:red;stroke-width:1px;stroke-linecap:butt;stroke-linejoin:miter;stroke-opacity:1" d="M 848.673,644.053 848.673,627.683 z" id="boundary" inkscape:connector-curvature="0" />
	<path style="fill:none;stroke:red;stroke-width:1px;stroke-linecap:butt;stroke-linejoin:miter;stroke-opacity:1" d="M 840.488,897.782 832.304,914.152 z" id="boundary" inkscape:connector-curvature="0" />
	<path style="fill:none;stroke:red;stroke-width:1px;stroke-linecap:butt;stroke-linejoin:miter;stroke-opacity:1" d="M 853.584,347.762 838.851,355.947 z" id="boundary" inkscape:connector-curvature="0" />
	<path style="fill:none;stroke:red;stroke-width:1px;stroke-linecap:butt;stroke-linejoin:miter;stroke-opacity:1" d="M 847.036,79.3003 861.769,87.4851 z" id="boundary" inkscape:connector-curvature="0" />
	<path style="fill:none;stroke:red;stroke-width:1px;stroke-linecap:butt;stroke-linejoin:miter;stroke-opacity:1" d="M 865.043,8.91089 848.673,4 z" id="boundary" inkscape:connector-curvature="0" />
	<path style="fill:none;stroke:red;stroke-width:1px;stroke-linecap:butt;stroke-linejoin:miter;stroke-opacity:1" d="M 855.221,447.617 840.488,455.802 z" id="boundary" inkscape:connector-curvature="0" />
	<path style="fill:none;stroke:red;stroke-width:1px;stroke-linecap:butt;stroke-linejoin:miter;stroke-opacity:1" d="M 851.947,676.792 865.043,688.251 z" id="boundary" inkscape:connector-curvature="0" />
	<path style="fill:none;stroke:red;stroke-width:1px;stroke-linecap:butt;stroke-linejoin:miter;stroke-opacity:1" d="M 861.769,496.726 848.673,486.904 z" id="boundary" inkscape:connector-curvature="0" />
	<path style="fill:none;stroke:red;stroke-width:1px;stroke-linecap:butt;stroke-linejoin:miter;stroke-opacity:1" d="M 848.673,627.683 856.858,603.129 z" id="boundary" inkscape:connector-curvature="0" />
	<path style="fill:none;stroke:red;stroke-width:1px;stroke-linecap:butt;stroke-linejoin:miter;stroke-opacity:1" d="M 840.488,897.782 848.673,881.413 z" id="boundary" inkscape:connector-curvature="0" />
	<path style="fill:none;stroke:red;stroke-width:1px;stroke-linecap:butt;stroke-linejoin:miter;stroke-opacity:1" d="M 876.502,701.347 865.043,688.251 z" id="boundary" inkscape:connector-curvature="0" />
	<path style="fill:none;stroke:red;stroke-width:1px;stroke-linecap:butt;stroke-linejoin:miter;stroke-opacity:1" d="M 855.221,447.617 865.043,431.248 z" id="boundary" inkscape:connector-curvature="0" />
	<path style="fill:none;stroke:red;stroke-width:1px;stroke-linecap:butt;stroke-linejoin:miter;stroke-opacity:1" d="M 865.043,334.667 853.584,347.762 z" id="boundary" inkscape:connector-curvature="0" />
	<path style="fill:none;stroke:red;stroke-width:1px;stroke-linecap:butt;stroke-linejoin:miter;stroke-opacity:1" d="M 848.673,881.413 856.858,865.043 z" id="boundary" inkscape:connector-curvature="0" />
	<path style="fill:none;stroke:red;stroke-width:1px;stroke-linecap:butt;stroke-linejoin:miter;stroke-opacity:1" d="M 865.043,513.096 861.769,496.726 z" id="boundary" inkscape:connector-curvature="0" />
	<path style="fill:none;stroke:red;stroke-width:1px;stroke-linecap:butt;stroke-linejoin:miter;stroke-opacity:1" d="M 865.043,529.465 865.043,513.096 z" id="boundary" inkscape:connector-curvature="0" />
	<path style="fill:none;stroke:red;stroke-width:1px;stroke-linecap:butt;stroke-linejoin:miter;stroke-opacity:1" d="M 881.413,799.564 889.597,783.195 z" id="boundary" inkscape:connector-curvature="0" />
	<path style="fill:none;stroke:red;stroke-width:1px;stroke-linecap:butt;stroke-linejoin:miter;stroke-opacity:1" d="M 896.145,20.3696 881.413,12.1848 z" id="boundary" inkscape:connector-curvature="0" />
	<path style="fill:none;stroke:red;stroke-width:1px;stroke-linecap:butt;stroke-linejoin:miter;stroke-opacity:1" d="M 881.413,12.1848 865.043,8.91089 z" id="boundary" inkscape:connector-curvature="0" />
	<path style="fill:none;stroke:red;stroke-width:1px;stroke-linecap:butt;stroke-linejoin:miter;stroke-opacity:1" d="M 865.043,840.488 856.858,865.043 z" id="boundary" inkscape:connector-curvature="0" />
	<path style="fill:none;stroke:red;stroke-width:1px;stroke-linecap:butt;stroke-linejoin:miter;stroke-opacity:1" d="M 865.043,431.248 881.413,414.878 z" id="boundary" inkscape:connector-curvature="0" />
	<path style="fill:none;stroke:red;stroke-width:1px;stroke-linecap:butt;stroke-linejoin:miter;stroke-opacity:1" d="M 865.043,545.835 865.043,529.465 z" id="boundary" inkscape:connector-curvature="0" />
	<path style="fill:none;stroke:red;stroke-width:1px;stroke-linecap:butt;stroke-linejoin:miter;stroke-opacity:1" d="M 879.776,319.934 865.043,334.667 z" id="boundary" inkscape:connector-curvature="0" />
	<path style="fill:none;stroke:red;stroke-width:1px;stroke-linecap:butt;stroke-linejoin:miter;stroke-opacity:1" d="M 865.043,562.205 865.043,545.835 z" id="boundary" inkscape:connector-curvature="0" />
	<path style="fill:none;stroke:red;stroke-width:1px;stroke-linecap:butt;stroke-linejoin:miter;stroke-opacity:1" d="M 865.043,578.574 856.858,603.129 z" id="boundary" inkscape:connector-curvature="0" />
	<path style="fill:none;stroke:red;stroke-width:1px;stroke-linecap:butt;stroke-linejoin:miter;stroke-opacity:1" d="M 865.043,578.574 865.043,562.205 z" id="boundary" inkscape:connector-curvature="0" />
	<path style="fill:none;stroke:red;stroke-width:1px;stroke-linecap:butt;stroke-linejoin:miter;stroke-opacity:1" d="M 873.228,815.934 881.413,799.564 z" id="boundary" inkscape:connector-curvature="0" />
	<path style="fill:none;stroke:red;stroke-width:1px;stroke-linecap:butt;stroke-linejoin:miter;stroke-opacity:1" d="M 873.228,815.934 865.043,840.488 z" id="boundary" inkscape:connector-curvature="0" />
	<path style="fill:none;stroke:red;stroke-width:1px;stroke-linecap:butt;stroke-linejoin:miter;stroke-opacity:1" d="M 897.782,398.508 914.152,382.139 z" id="boundary" inkscape:connector-curvature="0" />
	<path style="fill:none;stroke:red;stroke-width:1px;stroke-linecap:butt;stroke-linejoin:miter;stroke-opacity:1" d="M 914.152,382.139 930.521,365.769 z" id="boundary" inkscape:connector-curvature="0" />
	<path style="fill:none;stroke:red;stroke-width:1px;stroke-linecap:butt;stroke-linejoin:miter;stroke-opacity:1" d="M 884.686,716.079 876.502,701.347 z" id="boundary" inkscape:connector-curvature="0" />
	<path style="fill:none;stroke:red;stroke-width:1px;stroke-linecap:butt;stroke-linejoin:miter;stroke-opacity:1" d="M 943.617,354.31 930.521,365.769 z" id="boundary" inkscape:connector-curvature="0" />
	<path style="fill:none;stroke:red;stroke-width:1px;stroke-linecap:butt;stroke-linejoin:miter;stroke-opacity:1" d="M 881.413,414.878 897.782,398.508 z" id="boundary" inkscape:connector-curvature="0" />
	<path style="fill:none;stroke:red;stroke-width:1px;stroke-linecap:butt;stroke-linejoin:miter;stroke-opacity:1" d="M 910.878,28.5545 896.145,20.3696 z" id="boundary" inkscape:connector-curvature="0" />
	<path style="fill:none;stroke:red;stroke-width:1px;stroke-linecap:butt;stroke-linejoin:miter;stroke-opacity:1" d="M 905.967,139.868 897.782,125.135 z" id="boundary" inkscape:connector-curvature="0" />
	<path style="fill:none;stroke:red;stroke-width:1px;stroke-linecap:butt;stroke-linejoin:miter;stroke-opacity:1" d="M 897.782,125.135 886.323,112.04 z" id="boundary" inkscape:connector-curvature="0" />
	<path style="fill:none;stroke:red;stroke-width:1px;stroke-linecap:butt;stroke-linejoin:miter;stroke-opacity:1" d="M 930.521,53.1089 925.611,36.7393 z" id="boundary" inkscape:connector-curvature="0" />
	<path style="fill:none;stroke:red;stroke-width:1px;stroke-linecap:butt;stroke-linejoin:miter;stroke-opacity:1" d="M 925.611,36.7393 910.878,28.5545 z" id="boundary" inkscape:connector-curvature="0" />
	<path style="fill:none;stroke:red;stroke-width:1px;stroke-linecap:butt;stroke-linejoin:miter;stroke-opacity:1" d="M 884.686,716.079 897.782,725.901 z" id="boundary" inkscape:connector-curvature="0" />
	<path style="fill:none;stroke:red;stroke-width:1px;stroke-linecap:butt;stroke-linejoin:miter;stroke-opacity:1" d="M 879.776,319.934 896.145,303.564 z" id="boundary" inkscape:connector-curvature="0" />
	<path style="fill:none;stroke:red;stroke-width:1px;stroke-linecap:butt;stroke-linejoin:miter;stroke-opacity:1" d="M 896.145,303.564 904.33,287.195 z" id="boundary" inkscape:connector-curvature="0" />
	<path style="fill:none;stroke:red;stroke-width:1px;stroke-linecap:butt;stroke-linejoin:miter;stroke-opacity:1" d="M 904.33,287.195 912.515,270.825 z" id="boundary" inkscape:connector-curvature="0" />
	<path style="fill:none;stroke:red;stroke-width:1px;stroke-linecap:butt;stroke-linejoin:miter;stroke-opacity:1" d="M 897.782,725.901 897.782,742.271 z" id="boundary" inkscape:connector-curvature="0" />
	<path style="fill:none;stroke:red;stroke-width:1px;stroke-linecap:butt;stroke-linejoin:miter;stroke-opacity:1" d="M 897.782,742.271 897.782,758.64 z" id="boundary" inkscape:connector-curvature="0" />
	<path style="fill:none;stroke:red;stroke-width:1px;stroke-linecap:butt;stroke-linejoin:miter;stroke-opacity:1" d="M 889.597,783.195 897.782,758.64 z" id="boundary" inkscape:connector-curvature="0" />
	<path style="fill:none;stroke:red;stroke-width:1px;stroke-linecap:butt;stroke-linejoin:miter;stroke-opacity:1" d="M 928.884,238.086 920.7,254.455 z" id="boundary" inkscape:connector-curvature="0" />
	<path style="fill:none;stroke:red;stroke-width:1px;stroke-linecap:butt;stroke-linejoin:miter;stroke-opacity:1" d="M 920.7,169.333 917.426,152.964 z" id="boundary" inkscape:connector-curvature="0" />
	<path style="fill:none;stroke:red;stroke-width:1px;stroke-linecap:butt;stroke-linejoin:miter;stroke-opacity:1" d="M 917.426,152.964 905.967,139.868 z" id="boundary" inkscape:connector-curvature="0" />
	<path style="fill:none;stroke:red;stroke-width:1px;stroke-linecap:butt;stroke-linejoin:miter;stroke-opacity:1" d="M 951.802,337.941 963.261,324.845 z" id="boundary" inkscape:connector-curvature="0" />
	<path style="fill:none;stroke:red;stroke-width:1px;stroke-linecap:butt;stroke-linejoin:miter;stroke-opacity:1" d="M 951.802,337.941 943.617,354.31 z" id="boundary" inkscape:connector-curvature="0" />
	<path style="fill:none;stroke:red;stroke-width:1px;stroke-linecap:butt;stroke-linejoin:miter;stroke-opacity:1" d="M 925.611,185.703 920.7,169.333 z" id="boundary" inkscape:connector-curvature="0" />
	<path style="fill:none;stroke:red;stroke-width:1px;stroke-linecap:butt;stroke-linejoin:miter;stroke-opacity:1" d="M 930.521,53.1089 946.891,58.0198 z" id="boundary" inkscape:connector-curvature="0" />
	<path style="fill:none;stroke:red;stroke-width:1px;stroke-linecap:butt;stroke-linejoin:miter;stroke-opacity:1" d="M 946.891,58.0198 958.35,71.1155 z" id="boundary" inkscape:connector-curvature="0" />
	<path style="fill:none;stroke:red;stroke-width:1px;stroke-linecap:butt;stroke-linejoin:miter;stroke-opacity:1" d="M 912.515,270.825 920.7,254.455 z" id="boundary" inkscape:connector-curvature="0" />
	<path style="fill:none;stroke:red;stroke-width:1px;stroke-linecap:butt;stroke-linejoin:miter;stroke-opacity:1" d="M 966.535,85.8482 958.35,71.1155 z" id="boundary" inkscape:connector-curvature="0" />
	<path style="fill:none;stroke:red;stroke-width:1px;stroke-linecap:butt;stroke-linejoin:miter;stroke-opacity:1" d="M 987.815,148.053 979.63,133.32 z" id="boundary" inkscape:connector-curvature="0" />
	<path style="fill:none;stroke:red;stroke-width:1px;stroke-linecap:butt;stroke-linejoin:miter;stroke-opacity:1" d="M 979.63,283.921 971.446,300.29 z" id="boundary" inkscape:connector-curvature="0" />
	<path style="fill:none;stroke:red;stroke-width:1px;stroke-linecap:butt;stroke-linejoin:miter;stroke-opacity:1" d="M 971.446,300.29 963.261,324.845 z" id="boundary" inkscape:connector-curvature="0" />
	<path style="fill:none;stroke:red;stroke-width:1px;stroke-linecap:butt;stroke-linejoin:miter;stroke-opacity:1" d="M 925.611,185.703 937.069,198.799 z" id="boundary" inkscape:connector-curvature="0" />
	<path style="fill:none;stroke:red;stroke-width:1px;stroke-linecap:butt;stroke-linejoin:miter;stroke-opacity:1" d="M 937.069,198.799 937.069,215.168 z" id="boundary" inkscape:connector-curvature="0" />
	<path style="fill:none;stroke:red;stroke-width:1px;stroke-linecap:butt;stroke-linejoin:miter;stroke-opacity:1" d="M 979.63,283.921 987.815,267.551 z" id="boundary" inkscape:connector-curvature="0" />
	<path style="fill:none;stroke:red;stroke-width:1px;stroke-linecap:butt;stroke-linejoin:miter;stroke-opacity:1" d="M 928.884,238.086 937.069,215.168 z" id="boundary" inkscape:connector-curvature="0" />
	<path style="fill:none;stroke:red;stroke-width:1px;stroke-linecap:butt;stroke-linejoin:miter;stroke-opacity:1" d="M 966.535,85.8482 971.446,102.218 z" id="boundary" inkscape:connector-curvature="0" />
	<path style="fill:none;stroke:red;stroke-width:1px;stroke-linecap:butt;stroke-linejoin:miter;stroke-opacity:1" d="M 996,244.634 996,228.264 z" id="boundary" inkscape:connector-curvature="0" />
	<path style="fill:none;stroke:red;stroke-width:1px;stroke-linecap:butt;stroke-linejoin:miter;stroke-opacity:1" d="M 979.63,133.32 979.63,116.95 z" id="boundary" inkscape:connector-curvature="0" />
	<path style="fill:none;stroke:red;stroke-width:1px;stroke-linecap:butt;stroke-linejoin:miter;stroke-opacity:1" d="M 979.63,116.95 971.446,102.218 z" id="boundary" inkscape:connector-curvature="0" />
	<path style="fill:none;stroke:red;stroke-width:1px;stroke-linecap:butt;stroke-linejoin:miter;stroke-opacity:1" d="M 996,162.785 996,179.155 z" id="boundary" inkscape:connector-curvature="0" />
	<path style="fill:none;stroke:red;stroke-width:1px;stroke-linecap:butt;stroke-linejoin:miter;stroke-opacity:1" d="M 996,162.785 987.815,148.053 z" id="boundary" inkscape:connector-curvature="0" />
	<path style="fill:none;stroke:red;stroke-width:1px;stroke-linecap:butt;stroke-linejoin:miter;stroke-opacity:1" d="M 987.815,267.551 996,244.634 z" id="boundary" inkscape:connector-curvature="0" />
	<path style="fill:none;stroke:red;stroke-width:1px;stroke-linecap:butt;stroke-linejoin:miter;stroke-opacity:1" d="M 996,195.525 996,179.155 z" id="boundary" inkscape:connector-curvature="0" />
	<path style="fill:none;stroke:red;stroke-width:1px;stroke-linecap:butt;stroke-linejoin:miter;stroke-opacity:1" d="M 996,211.894 996,195.525 z" id="boundary" inkscape:connector-curvature="0" />
	<path style="fill:none;stroke:red;stroke-width:1px;stroke-linecap:butt;stroke-linejoin:miter;stroke-opacity:1" d="M 996,211.894 996,228.264 z" id="boundary" inkscape:connector-curvature="0" />
	<circle cx="4" cy="377.228" r="4" fill="#0" id="circle0"/>
	<circle cx="4" cy="393.597" r="4" fill="#0" id="circle1"/>
	<circle cx="4" cy="409.967" r="4" fill="#0" id="circle2"/>
	<circle cx="12.1848" cy="424.7" r="4" fill="#0" id="circle3"/>
	<circle cx="17.0957" cy="364.132" r="4" fill="#0" id="circle4"/>
	<circle cx="20.3696" cy="439.432" r="4" fill="#0" id="circle5"/>
	<circle cx="30.1914" cy="351.036" r="4" fill="#0" id="circle6"/>
	<circle cx="35.1023" cy="447.617" r="4" fill="#0" id="circle7"/>
	<circle cx="43.2871" cy="339.578" r="4" fill="#0" id="circle8"/>
	<circle cx="44.9241" cy="319.934" r="4" fill="#0" id="circle9"/>
	<circle cx="49.835" cy="455.802" r="4" fill="#0" id="circle10"/>
	<circle cx="53.1089" cy="303.564" r="4" fill="#0" id="circle11"/>
	<circle cx="66.2046" cy="462.35" r="4" fill="#0" id="circle12"/>
	<circle cx="69.4785" cy="287.195" r="4" fill="#0" id="circle13"/>
	<circle cx="77.6634" cy="270.825" r="4" fill="#0" id="circle14"/>
	<circle cx="82.5743" cy="463.987" r="4" fill="#0" id="circle15"/>
	<circle cx="85.8482" cy="221.716" r="4" fill="#0" id="circle16"/>
	<circle cx="85.8482" cy="238.086" r="4" fill="#0" id="circle17"/>
	<circle cx="85.8482" cy="254.455" r="4" fill="#0" id="circle18"/>
	<circle cx="94.033" cy="197.162" r="4" fill="#0" id="circle19"/>
	<circle cx="97.3069" cy="472.172" r="4" fill="#0" id="circle20"/>
	<circle cx="102.218" cy="180.792" r="4" fill="#0" id="circle21"/>
	<circle cx="102.218" cy="909.241" r="4" fill="#0" id="circle22"/>
	<circle cx="102.218" cy="925.611" r="4" fill="#0" id="circle23"/>
	<circle cx="102.218" cy="941.98" r="4" fill="#0" id="circle24"/>
	<circle cx="110.403" cy="481.993" r="4" fill="#0" id="circle25"/>
	<circle cx="110.403" cy="956.713" r="4" fill="#0" id="circle26"/>
	<circle cx="115.314" cy="896.145" r="4" fill="#0" id="circle27"/>
	<circle cx="118.587" cy="179.155" r="4" fill="#0" id="circle28"/>
	<circle cx="123.498" cy="879.776" r="4" fill="#0" id="circle29"/>
	<circle cx="126.772" cy="488.541" r="4" fill="#0" id="circle30"/>
	<circle cx="126.772" cy="963.261" r="4" fill="#0" id="circle31"/>
	<circle cx="128.409" cy="192.251" r="4" fill="#0" id="circle32"/>
	<circle cx="131.683" cy="504.911" r="4" fill="#0" id="circle33"/>
	<circle cx="136.594" cy="206.983" r="4" fill="#0" id="circle34"/>
	<circle cx="136.594" cy="866.68" r="4" fill="#0" id="circle35"/>
	<circle cx="139.868" cy="519.644" r="4" fill="#0" id="circle36"/>
	<circle cx="141.505" cy="955.076" r="4" fill="#0" id="circle37"/>
	<circle cx="143.142" cy="843.762" r="4" fill="#0" id="circle38"/>
	<circle cx="144.779" cy="221.716" r="4" fill="#0" id="circle39"/>
	<circle cx="146.416" cy="536.013" r="4" fill="#0" id="circle40"/>
	<circle cx="151.327" cy="573.663" r="4" fill="#0" id="circle41"/>
	<circle cx="156.238" cy="830.667" r="4" fill="#0" id="circle42"/>
	<circle cx="156.238" cy="945.254" r="4" fill="#0" id="circle43"/>
	<circle cx="159.512" cy="205.347" r="4" fill="#0" id="circle44"/>
	<circle cx="159.512" cy="545.835" r="4" fill="#0" id="circle45"/>
	<circle cx="159.512" cy="588.396" r="4" fill="#0" id="circle46"/>
	<circle cx="159.512" cy="811.023" r="4" fill="#0" id="circle47"/>
	<circle cx="167.696" cy="188.977" r="4" fill="#0" id="circle48"/>
	<circle cx="167.696" cy="603.129" r="4" fill="#0" id="circle49"/>
	<circle cx="167.696" cy="619.498" r="4" fill="#0" id="circle50"/>
	<circle cx="167.696" cy="786.469" r="4" fill="#0" id="circle51"/>
	<circle cx="169.333" cy="914.152" r="4" fill="#0" id="circle52"/>
	<circle cx="169.333" cy="930.521" r="4" fill="#0" id="circle53"/>
	<circle cx="172.607" cy="635.868" r="4" fill="#0" id="circle54"/>
	<circle cx="175.881" cy="770.099" r="4" fill="#0" id="circle55"/>
	<circle cx="180.792" cy="650.601" r="4" fill="#0" id="circle56"/>
	<circle cx="182.429" cy="902.693" r="4" fill="#0" id="circle57"/>
	<circle cx="184.066" cy="180.792" r="4" fill="#0" id="circle58"/>
	<circle cx="184.066" cy="753.729" r="4" fill="#0" id="circle59"/>
	<circle cx="187.34" cy="666.97" r="4" fill="#0" id="circle60"/>
	<circle cx="192.251" cy="737.36" r="4" fill="#0" id="circle61"/>
	<circle cx="193.888" cy="873.228" r="4" fill="#0" id="circle62"/>
	<circle cx="193.888" cy="889.597" r="4" fill="#0" id="circle63"/>
	<circle cx="200.436" cy="179.155" r="4" fill="#0" id="circle64"/>
	<circle cx="200.436" cy="676.792" r="4" fill="#0" id="circle65"/>
	<circle cx="200.436" cy="720.99" r="4" fill="#0" id="circle66"/>
	<circle cx="202.073" cy="856.858" r="4" fill="#0" id="circle67"/>
	<circle cx="205.347" cy="693.162" r="4" fill="#0" id="circle68"/>
	<circle cx="208.62" cy="917.426" r="4" fill="#0" id="circle69"/>
	<circle cx="210.257" cy="192.251" r="4" fill="#0" id="circle70"/>
	<circle cx="215.168" cy="845.399" r="4" fill="#0" id="circle71"/>
	<circle cx="218.442" cy="930.521" r="4" fill="#0" id="circle72"/>
	<circle cx="221.716" cy="904.33" r="4" fill="#0" id="circle73"/>
	<circle cx="223.353" cy="202.073" r="4" fill="#0" id="circle74"/>
	<circle cx="226.627" cy="218.442" r="4" fill="#0" id="circle75"/>
	<circle cx="226.627" cy="832.304" r="4" fill="#0" id="circle76"/>
	<circle cx="229.901" cy="887.96" r="4" fill="#0" id="circle77"/>
	<circle cx="234.812" cy="233.175" r="4" fill="#0" id="circle78"/>
	<circle cx="234.812" cy="930.521" r="4" fill="#0" id="circle79"/>
	<circle cx="241.36" cy="824.119" r="4" fill="#0" id="circle80"/>
	<circle cx="241.36" cy="868.317" r="4" fill="#0" id="circle81"/>
	<circle cx="242.997" cy="247.908" r="4" fill="#0" id="circle82"/>
	<circle cx="242.997" cy="264.277" r="4" fill="#0" id="circle83"/>
	<circle cx="249.545" cy="851.947" r="4" fill="#0" id="circle84"/>
	<circle cx="251.182" cy="279.01" r="4" fill="#0" id="circle85"/>
	<circle cx="251.182" cy="930.521" r="4" fill="#0" id="circle86"/>
	<circle cx="257.729" cy="824.119" r="4" fill="#0" id="circle87"/>
	<circle cx="265.914" cy="287.195" r="4" fill="#0" id="circle88"/>
	<circle cx="267.551" cy="930.521" r="4" fill="#0" id="circle89"/>
	<circle cx="279.01" cy="298.653" r="4" fill="#0" id="circle90"/>
	<circle cx="283.921" cy="315.023" r="4" fill="#0" id="circle91"/>
	<circle cx="283.921" cy="914.152" r="4" fill="#0" id="circle92"/>
	<circle cx="292.106" cy="329.756" r="4" fill="#0" id="circle93"/>
	<circle cx="300.29" cy="344.488" r="4" fill="#0" id="circle94"/>
	<circle cx="300.29" cy="897.782" r="4" fill="#0" id="circle95"/>
	<circle cx="308.475" cy="359.221" r="4" fill="#0" id="circle96"/>
	<circle cx="308.475" cy="881.413" r="4" fill="#0" id="circle97"/>
	<circle cx="316.66" cy="373.954" r="4" fill="#0" id="circle98"/>
	<circle cx="316.66" cy="799.564" r="4" fill="#0" id="circle99"/>
	<circle cx="316.66" cy="815.934" r="4" fill="#0" id="circle100"/>
	<circle cx="316.66" cy="832.304" r="4" fill="#0" id="circle101"/>
	<circle cx="316.66" cy="848.673" r="4" fill="#0" id="circle102"/>
	<circle cx="316.66" cy="865.043" r="4" fill="#0" id="circle103"/>
	<circle cx="324.845" cy="783.195" r="4" fill="#0" id="circle104"/>
	<circle cx="329.756" cy="383.776" r="4" fill="#0" id="circle105"/>
	<circle cx="333.03" cy="766.825" r="4" fill="#0" id="circle106"/>
	<circle cx="341.215" cy="396.871" r="4" fill="#0" id="circle107"/>
	<circle cx="341.215" cy="742.271" r="4" fill="#0" id="circle108"/>
	<circle cx="354.31" cy="730.812" r="4" fill="#0" id="circle109"/>
	<circle cx="357.584" cy="396.871" r="4" fill="#0" id="circle110"/>
	<circle cx="362.495" cy="714.442" r="4" fill="#0" id="circle111"/>
	<circle cx="372.317" cy="701.347" r="4" fill="#0" id="circle112"/>
	<circle cx="373.954" cy="396.871" r="4" fill="#0" id="circle113"/>
	<circle cx="387.05" cy="693.162" r="4" fill="#0" id="circle114"/>
	<circle cx="388.686" cy="405.056" r="4" fill="#0" id="circle115"/>
	<circle cx="403.419" cy="693.162" r="4" fill="#0" id="circle116"/>
	<circle cx="405.056" cy="405.056" r="4" fill="#0" id="circle117"/>
	<circle cx="419.789" cy="693.162" r="4" fill="#0" id="circle118"/>
	<circle cx="421.426" cy="405.056" r="4" fill="#0" id="circle119"/>
	<circle cx="436.158" cy="693.162" r="4" fill="#0" id="circle120"/>
	<circle cx="437.795" cy="405.056" r="4" fill="#0" id="circle121"/>
	<circle cx="452.528" cy="693.162" r="4" fill="#0" id="circle122"/>
	<circle cx="454.165" cy="405.056" r="4" fill="#0" id="circle123"/>
	<circle cx="468.898" cy="693.162" r="4" fill="#0" id="circle124"/>
	<circle cx="470.535" cy="405.056" r="4" fill="#0" id="circle125"/>
	<circle cx="470.535" cy="901.056" r="4" fill="#0" id="circle126"/>
	<circle cx="478.719" cy="915.789" r="4" fill="#0" id="circle127"/>
	<circle cx="483.63" cy="887.96" r="4" fill="#0" id="circle128"/>
	<circle cx="485.267" cy="693.162" r="4" fill="#0" id="circle129"/>
	<circle cx="486.904" cy="401.782" r="4" fill="#0" id="circle130"/>
	<circle cx="490.178" cy="928.884" r="4" fill="#0" id="circle131"/>
	<circle cx="498.363" cy="879.776" r="4" fill="#0" id="circle132"/>
	<circle cx="501.637" cy="693.162" r="4" fill="#0" id="circle133"/>
	<circle cx="503.274" cy="396.871" r="4" fill="#0" id="circle134"/>
	<circle cx="506.548" cy="930.521" r="4" fill="#0" id="circle135"/>
	<circle cx="514.733" cy="879.776" r="4" fill="#0" id="circle136"/>
	<circle cx="518.007" cy="693.162" r="4" fill="#0" id="circle137"/>
	<circle cx="519.644" cy="396.871" r="4" fill="#0" id="circle138"/>
	<circle cx="522.917" cy="930.521" r="4" fill="#0" id="circle139"/>
	<circle cx="529.465" cy="706.257" r="4" fill="#0" id="circle140"/>
	<circle cx="529.465" cy="871.591" r="4" fill="#0" id="circle141"/>
	<circle cx="536.013" cy="396.871" r="4" fill="#0" id="circle142"/>
	<circle cx="539.287" cy="930.521" r="4" fill="#0" id="circle143"/>
	<circle cx="544.198" cy="851.947" r="4" fill="#0" id="circle144"/>
	<circle cx="545.835" cy="712.805" r="4" fill="#0" id="circle145"/>
	<circle cx="552.383" cy="396.871" r="4" fill="#0" id="circle146"/>
	<circle cx="554.02" cy="922.337" r="4" fill="#0" id="circle147"/>
	<circle cx="557.294" cy="725.901" r="4" fill="#0" id="circle148"/>
	<circle cx="560.568" cy="843.762" r="4" fill="#0" id="circle149"/>
	<circle cx="568.752" cy="396.871" r="4" fill="#0" id="circle150"/>
	<circle cx="570.389" cy="922.337" r="4" fill="#0" id="circle151"/>
	<circle cx="573.663" cy="732.449" r="4" fill="#0" id="circle152"/>
	<circle cx="573.663" cy="830.667" r="4" fill="#0" id="circle153"/>
	<circle cx="583.485" cy="388.686" r="4" fill="#0" id="circle154"/>
	<circle cx="585.122" cy="745.545" r="4" fill="#0" id="circle155"/>
	<circle cx="585.122" cy="914.152" r="4" fill="#0" id="circle156"/>
	<circle cx="586.759" cy="817.571" r="4" fill="#0" id="circle157"/>
	<circle cx="598.218" cy="904.33" r="4" fill="#0" id="circle158"/>
	<circle cx="599.855" cy="388.686" r="4" fill="#0" id="circle159"/>
	<circle cx="599.855" cy="806.112" r="4" fill="#0" id="circle160"/>
	<circle cx="601.492" cy="750.455" r="4" fill="#0" id="circle161"/>
	<circle cx="601.492" cy="766.825" r="4" fill="#0" id="circle162"/>
	<circle cx="601.492" cy="783.195" r="4" fill="#0" id="circle163"/>
	<circle cx="611.314" cy="889.597" r="4" fill="#0" id="circle164"/>
	<circle cx="614.587" cy="380.502" r="4" fill="#0" id="circle165"/>
	<circle cx="624.409" cy="878.139" r="4" fill="#0" id="circle166"/>
	<circle cx="629.32" cy="372.317" r="4" fill="#0" id="circle167"/>
	<circle cx="635.868" cy="865.043" r="4" fill="#0" id="circle168"/>
	<circle cx="645.69" cy="372.317" r="4" fill="#0" id="circle169"/>
	<circle cx="648.964" cy="853.584" r="4" fill="#0" id="circle170"/>
	<circle cx="660.422" cy="840.488" r="4" fill="#0" id="circle171"/>
	<circle cx="662.059" cy="372.317" r="4" fill="#0" id="circle172"/>
	<circle cx="673.518" cy="829.03" r="4" fill="#0" id="circle173"/>
	<circle cx="678.429" cy="372.317" r="4" fill="#0" id="circle174"/>
	<circle cx="684.977" cy="815.934" r="4" fill="#0" id="circle175"/>
	<circle cx="693.162" cy="734.086" r="4" fill="#0" id="circle176"/>
	<circle cx="694.799" cy="372.317" r="4" fill="#0" id="circle177"/>
	<circle cx="696.436" cy="750.455" r="4" fill="#0" id="circle178"/>
	<circle cx="698.073" cy="804.475" r="4" fill="#0" id="circle179"/>
	<circle cx="701.347" cy="766.825" r="4" fill="#0" id="circle180"/>
	<circle cx="701.347" cy="783.195" r="4" fill="#0" id="circle181"/>
	<circle cx="707.894" cy="725.901" r="4" fill="#0" id="circle182"/>
	<circle cx="711.168" cy="372.317" r="4" fill="#0" id="circle183"/>
	<circle cx="716.079" cy="917.426" r="4" fill="#0" id="circle184"/>
	<circle cx="716.079" cy="933.795" r="4" fill="#0" id="circle185"/>
	<circle cx="722.627" cy="734.086" r="4" fill="#0" id="circle186"/>
	<circle cx="725.901" cy="946.891" r="4" fill="#0" id="circle187"/>
	<circle cx="727.538" cy="372.317" r="4" fill="#0" id="circle188"/>
	<circle cx="729.175" cy="904.33" r="4" fill="#0" id="circle189"/>
	<circle cx="734.086" cy="747.182" r="4" fill="#0" id="circle190"/>
	<circle cx="740.634" cy="955.076" r="4" fill="#0" id="circle191"/>
	<circle cx="743.908" cy="372.317" r="4" fill="#0" id="circle192"/>
	<circle cx="745.545" cy="896.145" r="4" fill="#0" id="circle193"/>
	<circle cx="747.182" cy="758.64" r="4" fill="#0" id="circle194"/>
	<circle cx="757.003" cy="955.076" r="4" fill="#0" id="circle195"/>
	<circle cx="760.277" cy="372.317" r="4" fill="#0" id="circle196"/>
	<circle cx="761.914" cy="766.825" r="4" fill="#0" id="circle197"/>
	<circle cx="761.914" cy="896.145" r="4" fill="#0" id="circle198"/>
	<circle cx="773.373" cy="41.6502" r="4" fill="#0" id="circle199"/>
	<circle cx="773.373" cy="58.0198" r="4" fill="#0" id="circle200"/>
	<circle cx="773.373" cy="955.076" r="4" fill="#0" id="circle201"/>
	<circle cx="776.647" cy="372.317" r="4" fill="#0" id="circle202"/>
	<circle cx="778.284" cy="773.373" r="4" fill="#0" id="circle203"/>
	<circle cx="778.284" cy="887.96" r="4" fill="#0" id="circle204"/>
	<circle cx="781.558" cy="72.7525" r="4" fill="#0" id="circle205"/>
	<circle cx="786.469" cy="28.5545" r="4" fill="#0" id="circle206"/>
	<circle cx="789.743" cy="868.317" r="4" fill="#0" id="circle207"/>
	<circle cx="789.743" cy="950.165" r="4" fill="#0" id="circle208"/>
	<circle cx="791.38" cy="783.195" r="4" fill="#0" id="circle209"/>
	<circle cx="793.017" cy="372.317" r="4" fill="#0" id="circle210"/>
	<circle cx="797.927" cy="79.3003" r="4" fill="#0" id="circle211"/>
	<circle cx="797.927" cy="819.208" r="4" fill="#0" id="circle212"/>
	<circle cx="797.927" cy="851.947" r="4" fill="#0" id="circle213"/>
	<circle cx="801.201" cy="796.29" r="4" fill="#0" id="circle214"/>
	<circle cx="802.838" cy="20.3696" r="4" fill="#0" id="circle215"/>
	<circle cx="802.838" cy="938.706" r="4" fill="#0" id="circle216"/>
	<circle cx="806.112" cy="833.941" r="4" fill="#0" id="circle217"/>
	<circle cx="807.749" cy="364.132" r="4" fill="#0" id="circle218"/>
	<circle cx="814.297" cy="79.3003" r="4" fill="#0" id="circle219"/>
	<circle cx="817.571" cy="12.1848" r="4" fill="#0" id="circle220"/>
	<circle cx="817.571" cy="930.521" r="4" fill="#0" id="circle221"/>
	<circle cx="824.119" cy="364.132" r="4" fill="#0" id="circle222"/>
	<circle cx="830.667" cy="79.3003" r="4" fill="#0" id="circle223"/>
	<circle cx="832.304" cy="4" r="4" fill="#0" id="circle224"/>
	<circle cx="832.304" cy="914.152" r="4" fill="#0" id="circle225"/>
	<circle cx="838.851" cy="355.947" r="4" fill="#0" id="circle226"/>
	<circle cx="840.488" cy="455.802" r="4" fill="#0" id="circle227"/>
	<circle cx="840.488" cy="897.782" r="4" fill="#0" id="circle228"/>
	<circle cx="847.036" cy="79.3003" r="4" fill="#0" id="circle229"/>
	<circle cx="848.673" cy="4" r="4" fill="#0" id="circle230"/>
	<circle cx="848.673" cy="470.535" r="4" fill="#0" id="circle231"/>
	<circle cx="848.673" cy="486.904" r="4" fill="#0" id="circle232"/>
	<circle cx="848.673" cy="627.683" r="4" fill="#0" id="circle233"/>
	<circle cx="848.673" cy="644.053" r="4" fill="#0" id="circle234"/>
	<circle cx="848.673" cy="660.422" r="4" fill="#0" id="circle235"/>
	<circle cx="848.673" cy="881.413" r="4" fill="#0" id="circle236"/>
	<circle cx="851.947" cy="676.792" r="4" fill="#0" id="circle237"/>
	<circle cx="853.584" cy="347.762" r="4" fill="#0" id="circle238"/>
	<circle cx="855.221" cy="447.617" r="4" fill="#0" id="circle239"/>
	<circle cx="856.858" cy="603.129" r="4" fill="#0" id="circle240"/>
	<circle cx="856.858" cy="865.043" r="4" fill="#0" id="circle241"/>
	<circle cx="861.769" cy="87.4851" r="4" fill="#0" id="circle242"/>
	<circle cx="861.769" cy="496.726" r="4" fill="#0" id="circle243"/>
	<circle cx="865.043" cy="8.91089" r="4" fill="#0" id="circle244"/>
	<circle cx="865.043" cy="334.667" r="4" fill="#0" id="circle245"/>
	<circle cx="865.043" cy="431.248" r="4" fill="#0" id="circle246"/>
	<circle cx="865.043" cy="513.096" r="4" fill="#0" id="circle247"/>
	<circle cx="865.043" cy="529.465" r="4" fill="#0" id="circle248"/>
	<circle cx="865.043" cy="545.835" r="4" fill="#0" id="circle249"/>
	<circle cx="865.043" cy="562.205" r="4" fill="#0" id="circle250"/>
	<circle cx="865.043" cy="578.574" r="4" fill="#0" id="circle251"/>
	<circle cx="865.043" cy="688.251" r="4" fill="#0" id="circle252"/>
	<circle cx="865.043" cy="840.488" r="4" fill="#0" id="circle253"/>
	<circle cx="873.228" cy="100.581" r="4" fill="#0" id="circle254"/>
	<circle cx="873.228" cy="815.934" r="4" fill="#0" id="circle255"/>
	<circle cx="876.502" cy="701.347" r="4" fill="#0" id="circle256"/>
	<circle cx="879.776" cy="319.934" r="4" fill="#0" id="circle257"/>
	<circle cx="881.413" cy="12.1848" r="4" fill="#0" id="circle258"/>
	<circle cx="881.413" cy="414.878" r="4" fill="#0" id="circle259"/>
	<circle cx="881.413" cy="799.564" r="4" fill="#0" id="circle260"/>
	<circle cx="884.686" cy="716.079" r="4" fill="#0" id="circle261"/>
	<circle cx="886.323" cy="112.04" r="4" fill="#0" id="circle262"/>
	<circle cx="889.597" cy="783.195" r="4" fill="#0" id="circle263"/>
	<circle cx="896.145" cy="20.3696" r="4" fill="#0" id="circle264"/>
	<circle cx="896.145" cy="303.564" r="4" fill="#0" id="circle265"/>
	<circle cx="897.782" cy="125.135" r="4" fill="#0" id="circle266"/>
	<circle cx="897.782" cy="398.508" r="4" fill="#0" id="circle267"/>
	<circle cx="897.782" cy="725.901" r="4" fill="#0" id="circle268"/>
	<circle cx="897.782" cy="742.271" r="4" fill="#0" id="circle269"/>
	<circle cx="897.782" cy="758.64" r="4" fill="#0" id="circle270"/>
	<circle cx="904.33" cy="287.195" r="4" fill="#0" id="circle271"/>
	<circle cx="905.967" cy="139.868" r="4" fill="#0" id="circle272"/>
	<circle cx="910.878" cy="28.5545" r="4" fill="#0" id="circle273"/>
	<circle cx="912.515" cy="270.825" r="4" fill="#0" id="circle274"/>
	<circle cx="914.152" cy="382.139" r="4" fill="#0" id="circle275"/>
	<circle cx="917.426" cy="152.964" r="4" fill="#0" id="circle276"/>
	<circle cx="920.7" cy="169.333" r="4" fill="#0" id="circle277"/>
	<circle cx="920.7" cy="254.455" r="4" fill="#0" id="circle278"/>
	<circle cx="925.611" cy="36.7393" r="4" fill="#0" id="circle279"/>
	<circle cx="925.611" cy="185.703" r="4" fill="#0" id="circle280"/>
	<circle cx="928.884" cy="238.086" r="4" fill="#0" id="circle281"/>
	<circle cx="930.521" cy="53.1089" r="4" fill="#0" id="circle282"/>
	<circle cx="930.521" cy="365.769" r="4" fill="#0" id="circle283"/>
	<circle cx="937.069" cy="198.799" r="4" fill="#0" id="circle284"/>
	<circle cx="937.069" cy="215.168" r="4" fill="#0" id="circle285"/>
	<circle cx="943.617" cy="354.31" r="4" fill="#0" id="circle286"/>
	<circle cx="946.891" cy="58.0198" r="4" fill="#0" id="circle287"/>
	<circle cx="951.802" cy="337.941" r="4" fill="#0" id="circle288"/>
	<circle cx="958.35" cy="71.1155" r="4" fill="#0" id="circle289"/>
	<circle cx="963.261" cy="324.845" r="4" fill="#0" id="circle290"/>
	<circle cx="966.535" cy="85.8482" r="4" fill="#0" id="circle291"/>
	<circle cx="971.446" cy="102.218" r="4" fill="#0" id="circle292"/>
	<circle cx="971.446" cy="300.29" r="4" fill="#0" id="circle293"/>
	<circle cx="979.63" cy="116.95" r="4" fill="#0" id="circle294"/>
	<circle cx="979.63" cy="133.32" r="4" fill="#0" id="circle295"/>
	<circle cx="979.63" cy="283.921" r="4" fill="#0" id="circle296"/>
	<circle cx="987.815" cy="148.053" r="4" fill="#0" id="circle297"/>
	<circle cx="987.815" cy="267.551" r="4" fill="#0" id="circle298"/>
	<circle cx="996" cy="162.785" r="4" fill="#0" id="circle299"/>
	<circle cx="996" cy="179.155" r="4" fill="#0" id="circle300"/>
	<circle cx="996" cy="195.525" r="4" fill="#0" id="circle301"/>
	<circle cx="996" cy="211.894" r="4" fill="#0" id="circle302"/>
	<circle cx="996" cy="228.264" r="4" fill="#0" id="circle303"/>
	<circle cx="996" cy="244.634" r="4" fill="#0" id="circle304"/>
	</g>
</svg>