<?xml version="1.0" encoding="UTF-8" standalone="no"?>
<!-- Created with CurveBenchmark -->
<svg
	xmlns:dc="http://purl.org/dc/elements/1.1/"
	xmlns:cc="http://creativecommons.org/ns#"
	xmlns:rdf="http://www.w3.org/1999/02/22-rdf-syntax-ns#"
	xmlns:svg="http://www.w3.org/2000/svg"
	xmlns="http://www.w3.org/2000/svg"
	xmlns:sodipodi="http://sodipodi.sourceforge.net/DTD/sodipodi-0.dtd"
	xmlns:inkscape="http://www.inkscape.org/namespaces/inkscape"
	width="1000"
	height="1000"
	id="svg2"
	version="1.1"
	sodipodi:docname="manifold/peel-chopper01.png.txt">
<defs
	id="defs4" />
<metadata
	id="metadata7">
	<rdf:RDF>
		<cc:Work
			rdf:about="">
			<dc:format>image/svg+xml</dc:format>
			<dc:type
				rdf:resource="http://purl.org/dc/dcmitype/StillImage" />
			<dc:title></dc:title>
		</cc:Work>
	</rdf:RDF>
</metadata>
<g
	inkscape:label="Layer 1"
	inkscape:groupmode="layer"
	id="layer1">
	<path style="fill:none;stroke:red;stroke-width:1px;stroke-linecap:butt;stroke-linejoin:miter;stroke-opacity:1" d="M 12.9693,323.306 4,341.244 z" id="boundary" inkscape:connector-curvature="0" />
	<path style="fill:none;stroke:red;stroke-width:1px;stroke-linecap:butt;stroke-linejoin:miter;stroke-opacity:1" d="M 4,341.244 4,368.152 z" id="boundary" inkscape:connector-curvature="0" />
	<path style="fill:none;stroke:red;stroke-width:1px;stroke-linecap:butt;stroke-linejoin:miter;stroke-opacity:1" d="M 12.9693,323.306 12.9693,305.367 z" id="boundary" inkscape:connector-curvature="0" />
	<path style="fill:none;stroke:red;stroke-width:1px;stroke-linecap:butt;stroke-linejoin:miter;stroke-opacity:1" d="M 4,368.152 4,386.09 z" id="boundary" inkscape:connector-curvature="0" />
	<path style="fill:none;stroke:red;stroke-width:1px;stroke-linecap:butt;stroke-linejoin:miter;stroke-opacity:1" d="M 4,386.09 4,404.029 z" id="boundary" inkscape:connector-curvature="0" />
	<path style="fill:none;stroke:red;stroke-width:1px;stroke-linecap:butt;stroke-linejoin:miter;stroke-opacity:1" d="M 4,404.029 4,421.967 z" id="boundary" inkscape:connector-curvature="0" />
	<path style="fill:none;stroke:red;stroke-width:1px;stroke-linecap:butt;stroke-linejoin:miter;stroke-opacity:1" d="M 4,421.967 12.9693,438.112 z" id="boundary" inkscape:connector-curvature="0" />
	<path style="fill:none;stroke:red;stroke-width:1px;stroke-linecap:butt;stroke-linejoin:miter;stroke-opacity:1" d="M 12.9693,305.367 21.9385,278.459 z" id="boundary" inkscape:connector-curvature="0" />
	<path style="fill:none;stroke:red;stroke-width:1px;stroke-linecap:butt;stroke-linejoin:miter;stroke-opacity:1" d="M 12.9693,511.66 4,529.599 z" id="boundary" inkscape:connector-curvature="0" />
	<path style="fill:none;stroke:red;stroke-width:1px;stroke-linecap:butt;stroke-linejoin:miter;stroke-opacity:1" d="M 12.9693,545.743 4,529.599 z" id="boundary" inkscape:connector-curvature="0" />
	<path style="fill:none;stroke:red;stroke-width:1px;stroke-linecap:butt;stroke-linejoin:miter;stroke-opacity:1" d="M 12.9693,438.112 21.9385,454.257 z" id="boundary" inkscape:connector-curvature="0" />
	<path style="fill:none;stroke:red;stroke-width:1px;stroke-linecap:butt;stroke-linejoin:miter;stroke-opacity:1" d="M 12.9693,563.682 12.9693,545.743 z" id="boundary" inkscape:connector-curvature="0" />
	<path style="fill:none;stroke:red;stroke-width:1px;stroke-linecap:butt;stroke-linejoin:miter;stroke-opacity:1" d="M 27.3201,472.195 21.9385,454.257 z" id="boundary" inkscape:connector-curvature="0" />
	<path style="fill:none;stroke:red;stroke-width:1px;stroke-linecap:butt;stroke-linejoin:miter;stroke-opacity:1" d="M 48.8463,242.582 30.9078,260.521 z" id="boundary" inkscape:connector-curvature="0" />
	<path style="fill:none;stroke:red;stroke-width:1px;stroke-linecap:butt;stroke-linejoin:miter;stroke-opacity:1" d="M 30.9078,260.521 21.9385,278.459 z" id="boundary" inkscape:connector-curvature="0" />
	<path style="fill:none;stroke:red;stroke-width:1px;stroke-linecap:butt;stroke-linejoin:miter;stroke-opacity:1" d="M 12.9693,511.66 30.9078,506.278 z" id="boundary" inkscape:connector-curvature="0" />
	<path style="fill:none;stroke:red;stroke-width:1px;stroke-linecap:butt;stroke-linejoin:miter;stroke-opacity:1" d="M 30.9078,506.278 48.8463,509.866 z" id="boundary" inkscape:connector-curvature="0" />
	<path style="fill:none;stroke:red;stroke-width:1px;stroke-linecap:butt;stroke-linejoin:miter;stroke-opacity:1" d="M 48.8463,509.866 59.6094,524.217 z" id="boundary" inkscape:connector-curvature="0" />
	<path style="fill:none;stroke:red;stroke-width:1px;stroke-linecap:butt;stroke-linejoin:miter;stroke-opacity:1" d="M 45.2586,479.371 27.3201,472.195 z" id="boundary" inkscape:connector-curvature="0" />
	<path style="fill:none;stroke:red;stroke-width:1px;stroke-linecap:butt;stroke-linejoin:miter;stroke-opacity:1" d="M 48.8463,242.582 63.1971,228.231 z" id="boundary" inkscape:connector-curvature="0" />
	<path style="fill:none;stroke:red;stroke-width:1px;stroke-linecap:butt;stroke-linejoin:miter;stroke-opacity:1" d="M 63.1971,228.231 81.1356,219.262 z" id="boundary" inkscape:connector-curvature="0" />
	<path style="fill:none;stroke:red;stroke-width:1px;stroke-linecap:butt;stroke-linejoin:miter;stroke-opacity:1" d="M 30.9078,570.857 12.9693,563.682 z" id="boundary" inkscape:connector-curvature="0" />
	<path style="fill:none;stroke:red;stroke-width:1px;stroke-linecap:butt;stroke-linejoin:miter;stroke-opacity:1" d="M 45.2586,479.371 63.1971,481.165 z" id="boundary" inkscape:connector-curvature="0" />
	<path style="fill:none;stroke:red;stroke-width:1px;stroke-linecap:butt;stroke-linejoin:miter;stroke-opacity:1" d="M 48.8463,570.857 30.9078,570.857 z" id="boundary" inkscape:connector-curvature="0" />
	<path style="fill:none;stroke:red;stroke-width:1px;stroke-linecap:butt;stroke-linejoin:miter;stroke-opacity:1" d="M 66.7848,570.857 48.8463,570.857 z" id="boundary" inkscape:connector-curvature="0" />
	<path style="fill:none;stroke:red;stroke-width:1px;stroke-linecap:butt;stroke-linejoin:miter;stroke-opacity:1" d="M 63.1971,481.165 81.1356,488.34 z" id="boundary" inkscape:connector-curvature="0" />
	<path style="fill:none;stroke:red;stroke-width:1px;stroke-linecap:butt;stroke-linejoin:miter;stroke-opacity:1" d="M 77.5479,524.217 59.6094,524.217 z" id="boundary" inkscape:connector-curvature="0" />
	<path style="fill:none;stroke:red;stroke-width:1px;stroke-linecap:butt;stroke-linejoin:miter;stroke-opacity:1" d="M 84.7233,570.857 66.7848,570.857 z" id="boundary" inkscape:connector-curvature="0" />
	<path style="fill:none;stroke:red;stroke-width:1px;stroke-linecap:butt;stroke-linejoin:miter;stroke-opacity:1" d="M 95.4864,204.911 113.425,201.324 z" id="boundary" inkscape:connector-curvature="0" />
	<path style="fill:none;stroke:red;stroke-width:1px;stroke-linecap:butt;stroke-linejoin:miter;stroke-opacity:1" d="M 95.4864,204.911 81.1356,219.262 z" id="boundary" inkscape:connector-curvature="0" />
	<path style="fill:none;stroke:red;stroke-width:1px;stroke-linecap:butt;stroke-linejoin:miter;stroke-opacity:1" d="M 97.2803,497.309 81.1356,488.34 z" id="boundary" inkscape:connector-curvature="0" />
	<path style="fill:none;stroke:red;stroke-width:1px;stroke-linecap:butt;stroke-linejoin:miter;stroke-opacity:1" d="M 95.4864,524.217 77.5479,524.217 z" id="boundary" inkscape:connector-curvature="0" />
	<path style="fill:none;stroke:red;stroke-width:1px;stroke-linecap:butt;stroke-linejoin:miter;stroke-opacity:1" d="M 102.662,570.857 84.7233,570.857 z" id="boundary" inkscape:connector-curvature="0" />
	<path style="fill:none;stroke:red;stroke-width:1px;stroke-linecap:butt;stroke-linejoin:miter;stroke-opacity:1" d="M 113.425,524.217 95.4864,524.217 z" id="boundary" inkscape:connector-curvature="0" />
	<path style="fill:none;stroke:red;stroke-width:1px;stroke-linecap:butt;stroke-linejoin:miter;stroke-opacity:1" d="M 97.2803,497.309 115.219,490.134 z" id="boundary" inkscape:connector-curvature="0" />
	<path style="fill:none;stroke:red;stroke-width:1px;stroke-linecap:butt;stroke-linejoin:miter;stroke-opacity:1" d="M 120.6,570.857 102.662,570.857 z" id="boundary" inkscape:connector-curvature="0" />
	<path style="fill:none;stroke:red;stroke-width:1px;stroke-linecap:butt;stroke-linejoin:miter;stroke-opacity:1" d="M 129.57,188.767 147.508,179.797 z" id="boundary" inkscape:connector-curvature="0" />
	<path style="fill:none;stroke:red;stroke-width:1px;stroke-linecap:butt;stroke-linejoin:miter;stroke-opacity:1" d="M 129.57,188.767 113.425,201.324 z" id="boundary" inkscape:connector-curvature="0" />
	<path style="fill:none;stroke:red;stroke-width:1px;stroke-linecap:butt;stroke-linejoin:miter;stroke-opacity:1" d="M 131.363,499.103 115.219,490.134 z" id="boundary" inkscape:connector-curvature="0" />
	<path style="fill:none;stroke:red;stroke-width:1px;stroke-linecap:butt;stroke-linejoin:miter;stroke-opacity:1" d="M 131.363,524.217 113.425,524.217 z" id="boundary" inkscape:connector-curvature="0" />
	<path style="fill:none;stroke:red;stroke-width:1px;stroke-linecap:butt;stroke-linejoin:miter;stroke-opacity:1" d="M 131.363,499.103 149.302,499.103 z" id="boundary" inkscape:connector-curvature="0" />
	<path style="fill:none;stroke:red;stroke-width:1px;stroke-linecap:butt;stroke-linejoin:miter;stroke-opacity:1" d="M 138.539,570.857 120.6,570.857 z" id="boundary" inkscape:connector-curvature="0" />
	<path style="fill:none;stroke:red;stroke-width:1px;stroke-linecap:butt;stroke-linejoin:miter;stroke-opacity:1" d="M 149.302,524.217 131.363,524.217 z" id="boundary" inkscape:connector-curvature="0" />
	<path style="fill:none;stroke:red;stroke-width:1px;stroke-linecap:butt;stroke-linejoin:miter;stroke-opacity:1" d="M 149.302,499.103 167.241,499.103 z" id="boundary" inkscape:connector-curvature="0" />
	<path style="fill:none;stroke:red;stroke-width:1px;stroke-linecap:butt;stroke-linejoin:miter;stroke-opacity:1" d="M 156.477,570.857 138.539,570.857 z" id="boundary" inkscape:connector-curvature="0" />
	<path style="fill:none;stroke:red;stroke-width:1px;stroke-linecap:butt;stroke-linejoin:miter;stroke-opacity:1" d="M 147.508,179.797 165.447,170.828 z" id="boundary" inkscape:connector-curvature="0" />
	<path style="fill:none;stroke:red;stroke-width:1px;stroke-linecap:butt;stroke-linejoin:miter;stroke-opacity:1" d="M 167.241,524.217 149.302,524.217 z" id="boundary" inkscape:connector-curvature="0" />
	<path style="fill:none;stroke:red;stroke-width:1px;stroke-linecap:butt;stroke-linejoin:miter;stroke-opacity:1" d="M 183.385,508.072 167.241,499.103 z" id="boundary" inkscape:connector-curvature="0" />
	<path style="fill:none;stroke:red;stroke-width:1px;stroke-linecap:butt;stroke-linejoin:miter;stroke-opacity:1" d="M 174.416,570.857 156.477,570.857 z" id="boundary" inkscape:connector-curvature="0" />
	<path style="fill:none;stroke:red;stroke-width:1px;stroke-linecap:butt;stroke-linejoin:miter;stroke-opacity:1" d="M 165.447,170.828 183.385,161.859 z" id="boundary" inkscape:connector-curvature="0" />
	<path style="fill:none;stroke:red;stroke-width:1px;stroke-linecap:butt;stroke-linejoin:miter;stroke-opacity:1" d="M 183.385,161.859 201.324,156.477 z" id="boundary" inkscape:connector-curvature="0" />
	<path style="fill:none;stroke:red;stroke-width:1px;stroke-linecap:butt;stroke-linejoin:miter;stroke-opacity:1" d="M 183.385,508.072 201.324,508.072 z" id="boundary" inkscape:connector-curvature="0" />
	<path style="fill:none;stroke:red;stroke-width:1px;stroke-linecap:butt;stroke-linejoin:miter;stroke-opacity:1" d="M 192.354,570.857 174.416,570.857 z" id="boundary" inkscape:connector-curvature="0" />
	<path style="fill:none;stroke:red;stroke-width:1px;stroke-linecap:butt;stroke-linejoin:miter;stroke-opacity:1" d="M 192.354,524.217 210.293,524.217 z" id="boundary" inkscape:connector-curvature="0" />
	<path style="fill:none;stroke:red;stroke-width:1px;stroke-linecap:butt;stroke-linejoin:miter;stroke-opacity:1" d="M 217.468,147.508 235.407,147.508 z" id="boundary" inkscape:connector-curvature="0" />
	<path style="fill:none;stroke:red;stroke-width:1px;stroke-linecap:butt;stroke-linejoin:miter;stroke-opacity:1" d="M 217.468,147.508 201.324,156.477 z" id="boundary" inkscape:connector-curvature="0" />
	<path style="fill:none;stroke:red;stroke-width:1px;stroke-linecap:butt;stroke-linejoin:miter;stroke-opacity:1" d="M 210.293,565.476 192.354,570.857 z" id="boundary" inkscape:connector-curvature="0" />
	<path style="fill:none;stroke:red;stroke-width:1px;stroke-linecap:butt;stroke-linejoin:miter;stroke-opacity:1" d="M 201.324,508.072 217.468,499.103 z" id="boundary" inkscape:connector-curvature="0" />
	<path style="fill:none;stroke:red;stroke-width:1px;stroke-linecap:butt;stroke-linejoin:miter;stroke-opacity:1" d="M 228.231,561.888 246.17,561.888 z" id="boundary" inkscape:connector-curvature="0" />
	<path style="fill:none;stroke:red;stroke-width:1px;stroke-linecap:butt;stroke-linejoin:miter;stroke-opacity:1" d="M 228.231,561.888 210.293,565.476 z" id="boundary" inkscape:connector-curvature="0" />
	<path style="fill:none;stroke:red;stroke-width:1px;stroke-linecap:butt;stroke-linejoin:miter;stroke-opacity:1" d="M 235.407,147.508 251.552,138.539 z" id="boundary" inkscape:connector-curvature="0" />
	<path style="fill:none;stroke:red;stroke-width:1px;stroke-linecap:butt;stroke-linejoin:miter;stroke-opacity:1" d="M 251.552,138.539 269.49,138.539 z" id="boundary" inkscape:connector-curvature="0" />
	<path style="fill:none;stroke:red;stroke-width:1px;stroke-linecap:butt;stroke-linejoin:miter;stroke-opacity:1" d="M 269.49,138.539 287.429,138.539 z" id="boundary" inkscape:connector-curvature="0" />
	<path style="fill:none;stroke:red;stroke-width:1px;stroke-linecap:butt;stroke-linejoin:miter;stroke-opacity:1" d="M 262.315,552.919 246.17,561.888 z" id="boundary" inkscape:connector-curvature="0" />
	<path style="fill:none;stroke:red;stroke-width:1px;stroke-linecap:butt;stroke-linejoin:miter;stroke-opacity:1" d="M 280.253,552.919 262.315,552.919 z" id="boundary" inkscape:connector-curvature="0" />
	<path style="fill:none;stroke:red;stroke-width:1px;stroke-linecap:butt;stroke-linejoin:miter;stroke-opacity:1" d="M 308.955,45.2586 308.955,27.3201 z" id="boundary" inkscape:connector-curvature="0" />
	<path style="fill:none;stroke:red;stroke-width:1px;stroke-linecap:butt;stroke-linejoin:miter;stroke-opacity:1" d="M 287.429,138.539 305.367,138.539 z" id="boundary" inkscape:connector-curvature="0" />
	<path style="fill:none;stroke:red;stroke-width:1px;stroke-linecap:butt;stroke-linejoin:miter;stroke-opacity:1" d="M 298.192,552.919 280.253,552.919 z" id="boundary" inkscape:connector-curvature="0" />
	<path style="fill:none;stroke:red;stroke-width:1px;stroke-linecap:butt;stroke-linejoin:miter;stroke-opacity:1" d="M 305.367,138.539 323.306,138.539 z" id="boundary" inkscape:connector-curvature="0" />
	<path style="fill:none;stroke:red;stroke-width:1px;stroke-linecap:butt;stroke-linejoin:miter;stroke-opacity:1" d="M 308.955,63.1971 308.955,45.2586 z" id="boundary" inkscape:connector-curvature="0" />
	<path style="fill:none;stroke:red;stroke-width:1px;stroke-linecap:butt;stroke-linejoin:miter;stroke-opacity:1" d="M 323.306,75.7541 308.955,63.1971 z" id="boundary" inkscape:connector-curvature="0" />
	<path style="fill:none;stroke:red;stroke-width:1px;stroke-linecap:butt;stroke-linejoin:miter;stroke-opacity:1" d="M 308.955,27.3201 323.306,12.9693 z" id="boundary" inkscape:connector-curvature="0" />
	<path style="fill:none;stroke:red;stroke-width:1px;stroke-linecap:butt;stroke-linejoin:miter;stroke-opacity:1" d="M 314.336,543.949 298.192,552.919 z" id="boundary" inkscape:connector-curvature="0" />
	<path style="fill:none;stroke:red;stroke-width:1px;stroke-linecap:butt;stroke-linejoin:miter;stroke-opacity:1" d="M 332.275,543.949 314.336,543.949 z" id="boundary" inkscape:connector-curvature="0" />
	<path style="fill:none;stroke:red;stroke-width:1px;stroke-linecap:butt;stroke-linejoin:miter;stroke-opacity:1" d="M 323.306,75.7541 341.244,68.5787 z" id="boundary" inkscape:connector-curvature="0" />
	<path style="fill:none;stroke:red;stroke-width:1px;stroke-linecap:butt;stroke-linejoin:miter;stroke-opacity:1" d="M 341.244,68.5787 344.832,86.5172 z" id="boundary" inkscape:connector-curvature="0" />
	<path style="fill:none;stroke:red;stroke-width:1px;stroke-linecap:butt;stroke-linejoin:miter;stroke-opacity:1" d="M 323.306,138.539 341.244,138.539 z" id="boundary" inkscape:connector-curvature="0" />
	<path style="fill:none;stroke:red;stroke-width:1px;stroke-linecap:butt;stroke-linejoin:miter;stroke-opacity:1" d="M 323.306,12.9693 339.45,4 z" id="boundary" inkscape:connector-curvature="0" />
	<path style="fill:none;stroke:red;stroke-width:1px;stroke-linecap:butt;stroke-linejoin:miter;stroke-opacity:1" d="M 344.832,86.5172 350.213,104.456 z" id="boundary" inkscape:connector-curvature="0" />
	<path style="fill:none;stroke:red;stroke-width:1px;stroke-linecap:butt;stroke-linejoin:miter;stroke-opacity:1" d="M 393.266,4 375.327,4 z" id="boundary" inkscape:connector-curvature="0" />
	<path style="fill:none;stroke:red;stroke-width:1px;stroke-linecap:butt;stroke-linejoin:miter;stroke-opacity:1" d="M 339.45,4 357.389,4 z" id="boundary" inkscape:connector-curvature="0" />
	<path style="fill:none;stroke:red;stroke-width:1px;stroke-linecap:butt;stroke-linejoin:miter;stroke-opacity:1" d="M 348.42,534.98 332.275,543.949 z" id="boundary" inkscape:connector-curvature="0" />
	<path style="fill:none;stroke:red;stroke-width:1px;stroke-linecap:butt;stroke-linejoin:miter;stroke-opacity:1" d="M 350.213,104.456 359.183,129.57 z" id="boundary" inkscape:connector-curvature="0" />
	<path style="fill:none;stroke:red;stroke-width:1px;stroke-linecap:butt;stroke-linejoin:miter;stroke-opacity:1" d="M 359.183,129.57 341.244,138.539 z" id="boundary" inkscape:connector-curvature="0" />
	<path style="fill:none;stroke:red;stroke-width:1px;stroke-linecap:butt;stroke-linejoin:miter;stroke-opacity:1" d="M 357.389,4 375.327,4 z" id="boundary" inkscape:connector-curvature="0" />
	<path style="fill:none;stroke:red;stroke-width:1px;stroke-linecap:butt;stroke-linejoin:miter;stroke-opacity:1" d="M 409.41,120.6 418.38,136.745 z" id="boundary" inkscape:connector-curvature="0" />
	<path style="fill:none;stroke:red;stroke-width:1px;stroke-linecap:butt;stroke-linejoin:miter;stroke-opacity:1" d="M 364.564,526.011 348.42,534.98 z" id="boundary" inkscape:connector-curvature="0" />
	<path style="fill:none;stroke:red;stroke-width:1px;stroke-linecap:butt;stroke-linejoin:miter;stroke-opacity:1" d="M 400.441,86.5172 400.441,59.6094 z" id="boundary" inkscape:connector-curvature="0" />
	<path style="fill:none;stroke:red;stroke-width:1px;stroke-linecap:butt;stroke-linejoin:miter;stroke-opacity:1" d="M 382.503,526.011 364.564,526.011 z" id="boundary" inkscape:connector-curvature="0" />
	<path style="fill:none;stroke:red;stroke-width:1px;stroke-linecap:butt;stroke-linejoin:miter;stroke-opacity:1" d="M 418.38,517.042 436.318,517.042 z" id="boundary" inkscape:connector-curvature="0" />
	<path style="fill:none;stroke:red;stroke-width:1px;stroke-linecap:butt;stroke-linejoin:miter;stroke-opacity:1" d="M 400.441,104.456 400.441,86.5172 z" id="boundary" inkscape:connector-curvature="0" />
	<path style="fill:none;stroke:red;stroke-width:1px;stroke-linecap:butt;stroke-linejoin:miter;stroke-opacity:1" d="M 393.266,4 411.204,4 z" id="boundary" inkscape:connector-curvature="0" />
	<path style="fill:none;stroke:red;stroke-width:1px;stroke-linecap:butt;stroke-linejoin:miter;stroke-opacity:1" d="M 400.441,104.456 409.41,120.6 z" id="boundary" inkscape:connector-curvature="0" />
	<path style="fill:none;stroke:red;stroke-width:1px;stroke-linecap:butt;stroke-linejoin:miter;stroke-opacity:1" d="M 400.441,59.6094 418.38,59.6094 z" id="boundary" inkscape:connector-curvature="0" />
	<path style="fill:none;stroke:red;stroke-width:1px;stroke-linecap:butt;stroke-linejoin:miter;stroke-opacity:1" d="M 400.441,517.042 382.503,526.011 z" id="boundary" inkscape:connector-curvature="0" />
	<path style="fill:none;stroke:red;stroke-width:1px;stroke-linecap:butt;stroke-linejoin:miter;stroke-opacity:1" d="M 418.38,517.042 400.441,517.042 z" id="boundary" inkscape:connector-curvature="0" />
	<path style="fill:none;stroke:red;stroke-width:1px;stroke-linecap:butt;stroke-linejoin:miter;stroke-opacity:1" d="M 418.38,59.6094 432.731,47.0524 z" id="boundary" inkscape:connector-curvature="0" />
	<path style="fill:none;stroke:red;stroke-width:1px;stroke-linecap:butt;stroke-linejoin:miter;stroke-opacity:1" d="M 411.204,4 429.143,4 z" id="boundary" inkscape:connector-curvature="0" />
	<path style="fill:none;stroke:red;stroke-width:1px;stroke-linecap:butt;stroke-linejoin:miter;stroke-opacity:1" d="M 436.318,138.539 418.38,136.745 z" id="boundary" inkscape:connector-curvature="0" />
	<path style="fill:none;stroke:red;stroke-width:1px;stroke-linecap:butt;stroke-linejoin:miter;stroke-opacity:1" d="M 429.143,4 445.288,12.9693 z" id="boundary" inkscape:connector-curvature="0" />
	<path style="fill:none;stroke:red;stroke-width:1px;stroke-linecap:butt;stroke-linejoin:miter;stroke-opacity:1" d="M 432.731,47.0524 450.669,38.0832 z" id="boundary" inkscape:connector-curvature="0" />
	<path style="fill:none;stroke:red;stroke-width:1px;stroke-linecap:butt;stroke-linejoin:miter;stroke-opacity:1" d="M 450.669,38.0832 445.288,12.9693 z" id="boundary" inkscape:connector-curvature="0" />
	<path style="fill:none;stroke:red;stroke-width:1px;stroke-linecap:butt;stroke-linejoin:miter;stroke-opacity:1" d="M 436.318,138.539 452.463,125.982 z" id="boundary" inkscape:connector-curvature="0" />
	<path style="fill:none;stroke:red;stroke-width:1px;stroke-linecap:butt;stroke-linejoin:miter;stroke-opacity:1" d="M 540.362,120.6 552.919,134.951 z" id="boundary" inkscape:connector-curvature="0" />
	<path style="fill:none;stroke:red;stroke-width:1px;stroke-linecap:butt;stroke-linejoin:miter;stroke-opacity:1" d="M 540.362,120.6 524.217,111.631 z" id="boundary" inkscape:connector-curvature="0" />
	<path style="fill:none;stroke:red;stroke-width:1px;stroke-linecap:butt;stroke-linejoin:miter;stroke-opacity:1" d="M 454.257,499.103 436.318,517.042 z" id="boundary" inkscape:connector-curvature="0" />
	<path style="fill:none;stroke:red;stroke-width:1px;stroke-linecap:butt;stroke-linejoin:miter;stroke-opacity:1" d="M 499.103,463.226 517.042,463.226 z" id="boundary" inkscape:connector-curvature="0" />
	<path style="fill:none;stroke:red;stroke-width:1px;stroke-linecap:butt;stroke-linejoin:miter;stroke-opacity:1" d="M 452.463,125.982 470.401,117.013 z" id="boundary" inkscape:connector-curvature="0" />
	<path style="fill:none;stroke:red;stroke-width:1px;stroke-linecap:butt;stroke-linejoin:miter;stroke-opacity:1" d="M 463.226,481.165 454.257,499.103 z" id="boundary" inkscape:connector-curvature="0" />
	<path style="fill:none;stroke:red;stroke-width:1px;stroke-linecap:butt;stroke-linejoin:miter;stroke-opacity:1" d="M 463.226,481.165 463.226,463.226 z" id="boundary" inkscape:connector-curvature="0" />
	<path style="fill:none;stroke:red;stroke-width:1px;stroke-linecap:butt;stroke-linejoin:miter;stroke-opacity:1" d="M 481.165,463.226 499.103,463.226 z" id="boundary" inkscape:connector-curvature="0" />
	<path style="fill:none;stroke:red;stroke-width:1px;stroke-linecap:butt;stroke-linejoin:miter;stroke-opacity:1" d="M 481.165,463.226 463.226,463.226 z" id="boundary" inkscape:connector-curvature="0" />
	<path style="fill:none;stroke:red;stroke-width:1px;stroke-linecap:butt;stroke-linejoin:miter;stroke-opacity:1" d="M 488.34,108.043 506.278,108.043 z" id="boundary" inkscape:connector-curvature="0" />
	<path style="fill:none;stroke:red;stroke-width:1px;stroke-linecap:butt;stroke-linejoin:miter;stroke-opacity:1" d="M 488.34,108.043 470.401,117.013 z" id="boundary" inkscape:connector-curvature="0" />
	<path style="fill:none;stroke:red;stroke-width:1px;stroke-linecap:butt;stroke-linejoin:miter;stroke-opacity:1" d="M 524.217,111.631 506.278,108.043 z" id="boundary" inkscape:connector-curvature="0" />
	<path style="fill:none;stroke:red;stroke-width:1px;stroke-linecap:butt;stroke-linejoin:miter;stroke-opacity:1" d="M 517.042,463.226 534.98,466.814 z" id="boundary" inkscape:connector-curvature="0" />
	<path style="fill:none;stroke:red;stroke-width:1px;stroke-linecap:butt;stroke-linejoin:miter;stroke-opacity:1" d="M 552.919,463.226 570.857,463.226 z" id="boundary" inkscape:connector-curvature="0" />
	<path style="fill:none;stroke:red;stroke-width:1px;stroke-linecap:butt;stroke-linejoin:miter;stroke-opacity:1" d="M 552.919,463.226 534.98,466.814 z" id="boundary" inkscape:connector-curvature="0" />
	<path style="fill:none;stroke:red;stroke-width:1px;stroke-linecap:butt;stroke-linejoin:miter;stroke-opacity:1" d="M 570.857,138.539 552.919,134.951 z" id="boundary" inkscape:connector-curvature="0" />
	<path style="fill:none;stroke:red;stroke-width:1px;stroke-linecap:butt;stroke-linejoin:miter;stroke-opacity:1" d="M 570.857,463.226 588.796,466.814 z" id="boundary" inkscape:connector-curvature="0" />
	<path style="fill:none;stroke:red;stroke-width:1px;stroke-linecap:butt;stroke-linejoin:miter;stroke-opacity:1" d="M 561.888,203.118 579.826,203.118 z" id="boundary" inkscape:connector-curvature="0" />
	<path style="fill:none;stroke:red;stroke-width:1px;stroke-linecap:butt;stroke-linejoin:miter;stroke-opacity:1" d="M 588.796,138.539 570.857,138.539 z" id="boundary" inkscape:connector-curvature="0" />
	<path style="fill:none;stroke:red;stroke-width:1px;stroke-linecap:butt;stroke-linejoin:miter;stroke-opacity:1" d="M 597.765,371.74 597.765,389.678 z" id="boundary" inkscape:connector-curvature="0" />
	<path style="fill:none;stroke:red;stroke-width:1px;stroke-linecap:butt;stroke-linejoin:miter;stroke-opacity:1" d="M 570.857,219.262 588.796,219.262 z" id="boundary" inkscape:connector-curvature="0" />
	<path style="fill:none;stroke:red;stroke-width:1px;stroke-linecap:butt;stroke-linejoin:miter;stroke-opacity:1" d="M 579.826,203.118 597.765,203.118 z" id="boundary" inkscape:connector-curvature="0" />
	<path style="fill:none;stroke:red;stroke-width:1px;stroke-linecap:butt;stroke-linejoin:miter;stroke-opacity:1" d="M 588.796,138.539 606.734,138.539 z" id="boundary" inkscape:connector-curvature="0" />
	<path style="fill:none;stroke:red;stroke-width:1px;stroke-linecap:butt;stroke-linejoin:miter;stroke-opacity:1" d="M 588.796,219.262 606.734,219.262 z" id="boundary" inkscape:connector-curvature="0" />
	<path style="fill:none;stroke:red;stroke-width:1px;stroke-linecap:butt;stroke-linejoin:miter;stroke-opacity:1" d="M 606.734,463.226 588.796,466.814 z" id="boundary" inkscape:connector-curvature="0" />
	<path style="fill:none;stroke:red;stroke-width:1px;stroke-linecap:butt;stroke-linejoin:miter;stroke-opacity:1" d="M 615.703,194.148 597.765,203.118 z" id="boundary" inkscape:connector-curvature="0" />
	<path style="fill:none;stroke:red;stroke-width:1px;stroke-linecap:butt;stroke-linejoin:miter;stroke-opacity:1" d="M 588.796,355.595 606.734,355.595 z" id="boundary" inkscape:connector-curvature="0" />
	<path style="fill:none;stroke:red;stroke-width:1px;stroke-linecap:butt;stroke-linejoin:miter;stroke-opacity:1" d="M 606.734,219.262 624.673,219.262 z" id="boundary" inkscape:connector-curvature="0" />
	<path style="fill:none;stroke:red;stroke-width:1px;stroke-linecap:butt;stroke-linejoin:miter;stroke-opacity:1" d="M 613.91,380.709 630.054,371.74 z" id="boundary" inkscape:connector-curvature="0" />
	<path style="fill:none;stroke:red;stroke-width:1px;stroke-linecap:butt;stroke-linejoin:miter;stroke-opacity:1" d="M 624.673,138.539 606.734,138.539 z" id="boundary" inkscape:connector-curvature="0" />
	<path style="fill:none;stroke:red;stroke-width:1px;stroke-linecap:butt;stroke-linejoin:miter;stroke-opacity:1" d="M 615.703,194.148 633.642,194.148 z" id="boundary" inkscape:connector-curvature="0" />
	<path style="fill:none;stroke:red;stroke-width:1px;stroke-linecap:butt;stroke-linejoin:miter;stroke-opacity:1" d="M 606.734,355.595 624.673,346.626 z" id="boundary" inkscape:connector-curvature="0" />
	<path style="fill:none;stroke:red;stroke-width:1px;stroke-linecap:butt;stroke-linejoin:miter;stroke-opacity:1" d="M 624.673,219.262 642.611,213.881 z" id="boundary" inkscape:connector-curvature="0" />
	<path style="fill:none;stroke:red;stroke-width:1px;stroke-linecap:butt;stroke-linejoin:miter;stroke-opacity:1" d="M 624.673,454.257 606.734,463.226 z" id="boundary" inkscape:connector-curvature="0" />
	<path style="fill:none;stroke:red;stroke-width:1px;stroke-linecap:butt;stroke-linejoin:miter;stroke-opacity:1" d="M 630.054,371.74 646.199,380.709 z" id="boundary" inkscape:connector-curvature="0" />
	<path style="fill:none;stroke:red;stroke-width:1px;stroke-linecap:butt;stroke-linejoin:miter;stroke-opacity:1" d="M 642.611,454.257 624.673,454.257 z" id="boundary" inkscape:connector-curvature="0" />
	<path style="fill:none;stroke:red;stroke-width:1px;stroke-linecap:butt;stroke-linejoin:miter;stroke-opacity:1" d="M 624.673,346.626 642.611,346.626 z" id="boundary" inkscape:connector-curvature="0" />
	<path style="fill:none;stroke:red;stroke-width:1px;stroke-linecap:butt;stroke-linejoin:miter;stroke-opacity:1" d="M 642.611,138.539 624.673,138.539 z" id="boundary" inkscape:connector-curvature="0" />
	<path style="fill:none;stroke:red;stroke-width:1px;stroke-linecap:butt;stroke-linejoin:miter;stroke-opacity:1" d="M 651.58,185.179 633.642,194.148 z" id="boundary" inkscape:connector-curvature="0" />
	<path style="fill:none;stroke:red;stroke-width:1px;stroke-linecap:butt;stroke-linejoin:miter;stroke-opacity:1" d="M 642.611,346.626 658.756,337.656 z" id="boundary" inkscape:connector-curvature="0" />
	<path style="fill:none;stroke:red;stroke-width:1px;stroke-linecap:butt;stroke-linejoin:miter;stroke-opacity:1" d="M 646.199,380.709 651.58,398.647 z" id="boundary" inkscape:connector-curvature="0" />
	<path style="fill:none;stroke:red;stroke-width:1px;stroke-linecap:butt;stroke-linejoin:miter;stroke-opacity:1" d="M 642.611,213.881 660.55,210.293 z" id="boundary" inkscape:connector-curvature="0" />
	<path style="fill:none;stroke:red;stroke-width:1px;stroke-linecap:butt;stroke-linejoin:miter;stroke-opacity:1" d="M 660.55,143.92 642.611,138.539 z" id="boundary" inkscape:connector-curvature="0" />
	<path style="fill:none;stroke:red;stroke-width:1px;stroke-linecap:butt;stroke-linejoin:miter;stroke-opacity:1" d="M 658.756,337.656 676.694,341.244 z" id="boundary" inkscape:connector-curvature="0" />
	<path style="fill:none;stroke:red;stroke-width:1px;stroke-linecap:butt;stroke-linejoin:miter;stroke-opacity:1" d="M 651.58,436.318 642.611,454.257 z" id="boundary" inkscape:connector-curvature="0" />
	<path style="fill:none;stroke:red;stroke-width:1px;stroke-linecap:butt;stroke-linejoin:miter;stroke-opacity:1" d="M 730.51,323.306 748.448,319.718 z" id="boundary" inkscape:connector-curvature="0" />
	<path style="fill:none;stroke:red;stroke-width:1px;stroke-linecap:butt;stroke-linejoin:miter;stroke-opacity:1" d="M 660.55,143.92 669.519,167.241 z" id="boundary" inkscape:connector-curvature="0" />
	<path style="fill:none;stroke:red;stroke-width:1px;stroke-linecap:butt;stroke-linejoin:miter;stroke-opacity:1" d="M 669.519,167.241 651.58,185.179 z" id="boundary" inkscape:connector-curvature="0" />
	<path style="fill:none;stroke:red;stroke-width:1px;stroke-linecap:butt;stroke-linejoin:miter;stroke-opacity:1" d="M 660.55,414.792 651.58,436.318 z" id="boundary" inkscape:connector-curvature="0" />
	<path style="fill:none;stroke:red;stroke-width:1px;stroke-linecap:butt;stroke-linejoin:miter;stroke-opacity:1" d="M 660.55,414.792 651.58,398.647 z" id="boundary" inkscape:connector-curvature="0" />
	<path style="fill:none;stroke:red;stroke-width:1px;stroke-linecap:butt;stroke-linejoin:miter;stroke-opacity:1" d="M 660.55,210.293 678.488,210.293 z" id="boundary" inkscape:connector-curvature="0" />
	<path style="fill:none;stroke:red;stroke-width:1px;stroke-linecap:butt;stroke-linejoin:miter;stroke-opacity:1" d="M 712.571,328.687 730.51,323.306 z" id="boundary" inkscape:connector-curvature="0" />
	<path style="fill:none;stroke:red;stroke-width:1px;stroke-linecap:butt;stroke-linejoin:miter;stroke-opacity:1" d="M 694.633,332.275 676.694,341.244 z" id="boundary" inkscape:connector-curvature="0" />
	<path style="fill:none;stroke:red;stroke-width:1px;stroke-linecap:butt;stroke-linejoin:miter;stroke-opacity:1" d="M 696.427,210.293 678.488,210.293 z" id="boundary" inkscape:connector-curvature="0" />
	<path style="fill:none;stroke:red;stroke-width:1px;stroke-linecap:butt;stroke-linejoin:miter;stroke-opacity:1" d="M 712.571,328.687 694.633,332.275 z" id="boundary" inkscape:connector-curvature="0" />
	<path style="fill:none;stroke:red;stroke-width:1px;stroke-linecap:butt;stroke-linejoin:miter;stroke-opacity:1" d="M 714.365,210.293 696.427,210.293 z" id="boundary" inkscape:connector-curvature="0" />
	<path style="fill:none;stroke:red;stroke-width:1px;stroke-linecap:butt;stroke-linejoin:miter;stroke-opacity:1" d="M 732.304,210.293 714.365,210.293 z" id="boundary" inkscape:connector-curvature="0" />
	<path style="fill:none;stroke:red;stroke-width:1px;stroke-linecap:butt;stroke-linejoin:miter;stroke-opacity:1" d="M 748.448,319.718 764.593,310.749 z" id="boundary" inkscape:connector-curvature="0" />
	<path style="fill:none;stroke:red;stroke-width:1px;stroke-linecap:butt;stroke-linejoin:miter;stroke-opacity:1" d="M 750.242,210.293 732.304,210.293 z" id="boundary" inkscape:connector-curvature="0" />
	<path style="fill:none;stroke:red;stroke-width:1px;stroke-linecap:butt;stroke-linejoin:miter;stroke-opacity:1" d="M 768.181,210.293 750.242,210.293 z" id="boundary" inkscape:connector-curvature="0" />
	<path style="fill:none;stroke:red;stroke-width:1px;stroke-linecap:butt;stroke-linejoin:miter;stroke-opacity:1" d="M 780.738,299.986 798.676,292.81 z" id="boundary" inkscape:connector-curvature="0" />
	<path style="fill:none;stroke:red;stroke-width:1px;stroke-linecap:butt;stroke-linejoin:miter;stroke-opacity:1" d="M 780.738,299.986 764.593,310.749 z" id="boundary" inkscape:connector-curvature="0" />
	<path style="fill:none;stroke:red;stroke-width:1px;stroke-linecap:butt;stroke-linejoin:miter;stroke-opacity:1" d="M 786.119,204.911 768.181,210.293 z" id="boundary" inkscape:connector-curvature="0" />
	<path style="fill:none;stroke:red;stroke-width:1px;stroke-linecap:butt;stroke-linejoin:miter;stroke-opacity:1" d="M 804.058,201.324 786.119,204.911 z" id="boundary" inkscape:connector-curvature="0" />
	<path style="fill:none;stroke:red;stroke-width:1px;stroke-linecap:butt;stroke-linejoin:miter;stroke-opacity:1" d="M 814.821,283.841 832.759,283.841 z" id="boundary" inkscape:connector-curvature="0" />
	<path style="fill:none;stroke:red;stroke-width:1px;stroke-linecap:butt;stroke-linejoin:miter;stroke-opacity:1" d="M 814.821,283.841 798.676,292.81 z" id="boundary" inkscape:connector-curvature="0" />
	<path style="fill:none;stroke:red;stroke-width:1px;stroke-linecap:butt;stroke-linejoin:miter;stroke-opacity:1" d="M 821.996,201.324 804.058,201.324 z" id="boundary" inkscape:connector-curvature="0" />
	<path style="fill:none;stroke:red;stroke-width:1px;stroke-linecap:butt;stroke-linejoin:miter;stroke-opacity:1" d="M 839.935,201.324 821.996,201.324 z" id="boundary" inkscape:connector-curvature="0" />
	<path style="fill:none;stroke:red;stroke-width:1px;stroke-linecap:butt;stroke-linejoin:miter;stroke-opacity:1" d="M 848.904,274.872 866.843,265.902 z" id="boundary" inkscape:connector-curvature="0" />
	<path style="fill:none;stroke:red;stroke-width:1px;stroke-linecap:butt;stroke-linejoin:miter;stroke-opacity:1" d="M 848.904,274.872 832.759,283.841 z" id="boundary" inkscape:connector-curvature="0" />
	<path style="fill:none;stroke:red;stroke-width:1px;stroke-linecap:butt;stroke-linejoin:miter;stroke-opacity:1" d="M 857.873,201.324 839.935,201.324 z" id="boundary" inkscape:connector-curvature="0" />
	<path style="fill:none;stroke:red;stroke-width:1px;stroke-linecap:butt;stroke-linejoin:miter;stroke-opacity:1" d="M 874.018,192.354 857.873,201.324 z" id="boundary" inkscape:connector-curvature="0" />
	<path style="fill:none;stroke:red;stroke-width:1px;stroke-linecap:butt;stroke-linejoin:miter;stroke-opacity:1" d="M 884.781,256.933 902.72,256.933 z" id="boundary" inkscape:connector-curvature="0" />
	<path style="fill:none;stroke:red;stroke-width:1px;stroke-linecap:butt;stroke-linejoin:miter;stroke-opacity:1" d="M 884.781,256.933 866.843,265.902 z" id="boundary" inkscape:connector-curvature="0" />
	<path style="fill:none;stroke:red;stroke-width:1px;stroke-linecap:butt;stroke-linejoin:miter;stroke-opacity:1" d="M 891.957,188.767 874.018,192.354 z" id="boundary" inkscape:connector-curvature="0" />
	<path style="fill:none;stroke:red;stroke-width:1px;stroke-linecap:butt;stroke-linejoin:miter;stroke-opacity:1" d="M 954.741,247.964 972.68,247.964 z" id="boundary" inkscape:connector-curvature="0" />
	<path style="fill:none;stroke:red;stroke-width:1px;stroke-linecap:butt;stroke-linejoin:miter;stroke-opacity:1" d="M 906.307,174.416 924.246,174.416 z" id="boundary" inkscape:connector-curvature="0" />
	<path style="fill:none;stroke:red;stroke-width:1px;stroke-linecap:butt;stroke-linejoin:miter;stroke-opacity:1" d="M 906.307,174.416 891.957,188.767 z" id="boundary" inkscape:connector-curvature="0" />
	<path style="fill:none;stroke:red;stroke-width:1px;stroke-linecap:butt;stroke-linejoin:miter;stroke-opacity:1" d="M 918.864,247.964 936.803,247.964 z" id="boundary" inkscape:connector-curvature="0" />
	<path style="fill:none;stroke:red;stroke-width:1px;stroke-linecap:butt;stroke-linejoin:miter;stroke-opacity:1" d="M 918.864,247.964 902.72,256.933 z" id="boundary" inkscape:connector-curvature="0" />
	<path style="fill:none;stroke:red;stroke-width:1px;stroke-linecap:butt;stroke-linejoin:miter;stroke-opacity:1" d="M 936.803,247.964 954.741,247.964 z" id="boundary" inkscape:connector-curvature="0" />
	<path style="fill:none;stroke:red;stroke-width:1px;stroke-linecap:butt;stroke-linejoin:miter;stroke-opacity:1" d="M 942.184,174.416 924.246,174.416 z" id="boundary" inkscape:connector-curvature="0" />
	<path style="fill:none;stroke:red;stroke-width:1px;stroke-linecap:butt;stroke-linejoin:miter;stroke-opacity:1" d="M 960.123,174.416 976.268,183.385 z" id="boundary" inkscape:connector-curvature="0" />
	<path style="fill:none;stroke:red;stroke-width:1px;stroke-linecap:butt;stroke-linejoin:miter;stroke-opacity:1" d="M 960.123,174.416 942.184,174.416 z" id="boundary" inkscape:connector-curvature="0" />
	<path style="fill:none;stroke:red;stroke-width:1px;stroke-linecap:butt;stroke-linejoin:miter;stroke-opacity:1" d="M 987.031,237.201 972.68,247.964 z" id="boundary" inkscape:connector-curvature="0" />
	<path style="fill:none;stroke:red;stroke-width:1px;stroke-linecap:butt;stroke-linejoin:miter;stroke-opacity:1" d="M 990.618,195.942 976.268,183.385 z" id="boundary" inkscape:connector-curvature="0" />
	<path style="fill:none;stroke:red;stroke-width:1px;stroke-linecap:butt;stroke-linejoin:miter;stroke-opacity:1" d="M 996,219.262 987.031,237.201 z" id="boundary" inkscape:connector-curvature="0" />
	<path style="fill:none;stroke:red;stroke-width:1px;stroke-linecap:butt;stroke-linejoin:miter;stroke-opacity:1" d="M 996,219.262 990.618,195.942 z" id="boundary" inkscape:connector-curvature="0" />
	<circle cx="4" cy="341.244" r="4" fill="#0" id="circle0"/>
	<circle cx="4" cy="368.152" r="4" fill="#0" id="circle1"/>
	<circle cx="4" cy="386.09" r="4" fill="#0" id="circle2"/>
	<circle cx="4" cy="404.029" r="4" fill="#0" id="circle3"/>
	<circle cx="4" cy="421.967" r="4" fill="#0" id="circle4"/>
	<circle cx="4" cy="529.599" r="4" fill="#0" id="circle5"/>
	<circle cx="12.9693" cy="305.367" r="4" fill="#0" id="circle6"/>
	<circle cx="12.9693" cy="323.306" r="4" fill="#0" id="circle7"/>
	<circle cx="12.9693" cy="438.112" r="4" fill="#0" id="circle8"/>
	<circle cx="12.9693" cy="511.66" r="4" fill="#0" id="circle9"/>
	<circle cx="12.9693" cy="545.743" r="4" fill="#0" id="circle10"/>
	<circle cx="12.9693" cy="563.682" r="4" fill="#0" id="circle11"/>
	<circle cx="21.9385" cy="278.459" r="4" fill="#0" id="circle12"/>
	<circle cx="21.9385" cy="454.257" r="4" fill="#0" id="circle13"/>
	<circle cx="27.3201" cy="472.195" r="4" fill="#0" id="circle14"/>
	<circle cx="30.9078" cy="260.521" r="4" fill="#0" id="circle15"/>
	<circle cx="30.9078" cy="506.278" r="4" fill="#0" id="circle16"/>
	<circle cx="30.9078" cy="570.857" r="4" fill="#0" id="circle17"/>
	<circle cx="45.2586" cy="479.371" r="4" fill="#0" id="circle18"/>
	<circle cx="48.8463" cy="242.582" r="4" fill="#0" id="circle19"/>
	<circle cx="48.8463" cy="509.866" r="4" fill="#0" id="circle20"/>
	<circle cx="48.8463" cy="570.857" r="4" fill="#0" id="circle21"/>
	<circle cx="59.6094" cy="524.217" r="4" fill="#0" id="circle22"/>
	<circle cx="63.1971" cy="228.231" r="4" fill="#0" id="circle23"/>
	<circle cx="63.1971" cy="481.165" r="4" fill="#0" id="circle24"/>
	<circle cx="66.7848" cy="570.857" r="4" fill="#0" id="circle25"/>
	<circle cx="77.5479" cy="524.217" r="4" fill="#0" id="circle26"/>
	<circle cx="81.1356" cy="219.262" r="4" fill="#0" id="circle27"/>
	<circle cx="81.1356" cy="488.34" r="4" fill="#0" id="circle28"/>
	<circle cx="84.7233" cy="570.857" r="4" fill="#0" id="circle29"/>
	<circle cx="95.4864" cy="204.911" r="4" fill="#0" id="circle30"/>
	<circle cx="95.4864" cy="524.217" r="4" fill="#0" id="circle31"/>
	<circle cx="97.2803" cy="497.309" r="4" fill="#0" id="circle32"/>
	<circle cx="102.662" cy="570.857" r="4" fill="#0" id="circle33"/>
	<circle cx="113.425" cy="201.324" r="4" fill="#0" id="circle34"/>
	<circle cx="113.425" cy="524.217" r="4" fill="#0" id="circle35"/>
	<circle cx="115.219" cy="490.134" r="4" fill="#0" id="circle36"/>
	<circle cx="120.6" cy="570.857" r="4" fill="#0" id="circle37"/>
	<circle cx="129.57" cy="188.767" r="4" fill="#0" id="circle38"/>
	<circle cx="131.363" cy="499.103" r="4" fill="#0" id="circle39"/>
	<circle cx="131.363" cy="524.217" r="4" fill="#0" id="circle40"/>
	<circle cx="138.539" cy="570.857" r="4" fill="#0" id="circle41"/>
	<circle cx="147.508" cy="179.797" r="4" fill="#0" id="circle42"/>
	<circle cx="149.302" cy="499.103" r="4" fill="#0" id="circle43"/>
	<circle cx="149.302" cy="524.217" r="4" fill="#0" id="circle44"/>
	<circle cx="156.477" cy="570.857" r="4" fill="#0" id="circle45"/>
	<circle cx="165.447" cy="170.828" r="4" fill="#0" id="circle46"/>
	<circle cx="167.241" cy="499.103" r="4" fill="#0" id="circle47"/>
	<circle cx="167.241" cy="524.217" r="4" fill="#0" id="circle48"/>
	<circle cx="174.416" cy="570.857" r="4" fill="#0" id="circle49"/>
	<circle cx="183.385" cy="161.859" r="4" fill="#0" id="circle50"/>
	<circle cx="183.385" cy="508.072" r="4" fill="#0" id="circle51"/>
	<circle cx="192.354" cy="524.217" r="4" fill="#0" id="circle52"/>
	<circle cx="192.354" cy="570.857" r="4" fill="#0" id="circle53"/>
	<circle cx="201.324" cy="156.477" r="4" fill="#0" id="circle54"/>
	<circle cx="201.324" cy="508.072" r="4" fill="#0" id="circle55"/>
	<circle cx="210.293" cy="524.217" r="4" fill="#0" id="circle56"/>
	<circle cx="210.293" cy="565.476" r="4" fill="#0" id="circle57"/>
	<circle cx="217.468" cy="147.508" r="4" fill="#0" id="circle58"/>
	<circle cx="217.468" cy="499.103" r="4" fill="#0" id="circle59"/>
	<circle cx="228.231" cy="561.888" r="4" fill="#0" id="circle60"/>
	<circle cx="235.407" cy="147.508" r="4" fill="#0" id="circle61"/>
	<circle cx="246.17" cy="561.888" r="4" fill="#0" id="circle62"/>
	<circle cx="251.552" cy="138.539" r="4" fill="#0" id="circle63"/>
	<circle cx="262.315" cy="552.919" r="4" fill="#0" id="circle64"/>
	<circle cx="269.49" cy="138.539" r="4" fill="#0" id="circle65"/>
	<circle cx="280.253" cy="552.919" r="4" fill="#0" id="circle66"/>
	<circle cx="287.429" cy="138.539" r="4" fill="#0" id="circle67"/>
	<circle cx="298.192" cy="552.919" r="4" fill="#0" id="circle68"/>
	<circle cx="305.367" cy="138.539" r="4" fill="#0" id="circle69"/>
	<circle cx="308.955" cy="27.3201" r="4" fill="#0" id="circle70"/>
	<circle cx="308.955" cy="45.2586" r="4" fill="#0" id="circle71"/>
	<circle cx="308.955" cy="63.1971" r="4" fill="#0" id="circle72"/>
	<circle cx="314.336" cy="543.949" r="4" fill="#0" id="circle73"/>
	<circle cx="323.306" cy="12.9693" r="4" fill="#0" id="circle74"/>
	<circle cx="323.306" cy="75.7541" r="4" fill="#0" id="circle75"/>
	<circle cx="323.306" cy="138.539" r="4" fill="#0" id="circle76"/>
	<circle cx="332.275" cy="543.949" r="4" fill="#0" id="circle77"/>
	<circle cx="339.45" cy="4" r="4" fill="#0" id="circle78"/>
	<circle cx="341.244" cy="68.5787" r="4" fill="#0" id="circle79"/>
	<circle cx="341.244" cy="138.539" r="4" fill="#0" id="circle80"/>
	<circle cx="344.832" cy="86.5172" r="4" fill="#0" id="circle81"/>
	<circle cx="348.42" cy="534.98" r="4" fill="#0" id="circle82"/>
	<circle cx="350.213" cy="104.456" r="4" fill="#0" id="circle83"/>
	<circle cx="357.389" cy="4" r="4" fill="#0" id="circle84"/>
	<circle cx="359.183" cy="129.57" r="4" fill="#0" id="circle85"/>
	<circle cx="364.564" cy="526.011" r="4" fill="#0" id="circle86"/>
	<circle cx="375.327" cy="4" r="4" fill="#0" id="circle87"/>
	<circle cx="382.503" cy="526.011" r="4" fill="#0" id="circle88"/>
	<circle cx="393.266" cy="4" r="4" fill="#0" id="circle89"/>
	<circle cx="400.441" cy="59.6094" r="4" fill="#0" id="circle90"/>
	<circle cx="400.441" cy="86.5172" r="4" fill="#0" id="circle91"/>
	<circle cx="400.441" cy="104.456" r="4" fill="#0" id="circle92"/>
	<circle cx="400.441" cy="517.042" r="4" fill="#0" id="circle93"/>
	<circle cx="409.41" cy="120.6" r="4" fill="#0" id="circle94"/>
	<circle cx="411.204" cy="4" r="4" fill="#0" id="circle95"/>
	<circle cx="418.38" cy="59.6094" r="4" fill="#0" id="circle96"/>
	<circle cx="418.38" cy="136.745" r="4" fill="#0" id="circle97"/>
	<circle cx="418.38" cy="517.042" r="4" fill="#0" id="circle98"/>
	<circle cx="429.143" cy="4" r="4" fill="#0" id="circle99"/>
	<circle cx="432.731" cy="47.0524" r="4" fill="#0" id="circle100"/>
	<circle cx="436.318" cy="138.539" r="4" fill="#0" id="circle101"/>
	<circle cx="436.318" cy="517.042" r="4" fill="#0" id="circle102"/>
	<circle cx="445.288" cy="12.9693" r="4" fill="#0" id="circle103"/>
	<circle cx="450.669" cy="38.0832" r="4" fill="#0" id="circle104"/>
	<circle cx="452.463" cy="125.982" r="4" fill="#0" id="circle105"/>
	<circle cx="454.257" cy="499.103" r="4" fill="#0" id="circle106"/>
	<circle cx="463.226" cy="463.226" r="4" fill="#0" id="circle107"/>
	<circle cx="463.226" cy="481.165" r="4" fill="#0" id="circle108"/>
	<circle cx="470.401" cy="117.013" r="4" fill="#0" id="circle109"/>
	<circle cx="481.165" cy="463.226" r="4" fill="#0" id="circle110"/>
	<circle cx="488.34" cy="108.043" r="4" fill="#0" id="circle111"/>
	<circle cx="499.103" cy="463.226" r="4" fill="#0" id="circle112"/>
	<circle cx="506.278" cy="108.043" r="4" fill="#0" id="circle113"/>
	<circle cx="517.042" cy="463.226" r="4" fill="#0" id="circle114"/>
	<circle cx="524.217" cy="111.631" r="4" fill="#0" id="circle115"/>
	<circle cx="534.98" cy="466.814" r="4" fill="#0" id="circle116"/>
	<circle cx="540.362" cy="120.6" r="4" fill="#0" id="circle117"/>
	<circle cx="552.919" cy="134.951" r="4" fill="#0" id="circle118"/>
	<circle cx="552.919" cy="463.226" r="4" fill="#0" id="circle119"/>
	<circle cx="561.888" cy="203.118" r="4" fill="#0" id="circle120"/>
	<circle cx="570.857" cy="138.539" r="4" fill="#0" id="circle121"/>
	<circle cx="570.857" cy="219.262" r="4" fill="#0" id="circle122"/>
	<circle cx="570.857" cy="463.226" r="4" fill="#0" id="circle123"/>
	<circle cx="579.826" cy="203.118" r="4" fill="#0" id="circle124"/>
	<circle cx="588.796" cy="138.539" r="4" fill="#0" id="circle125"/>
	<circle cx="588.796" cy="219.262" r="4" fill="#0" id="circle126"/>
	<circle cx="588.796" cy="355.595" r="4" fill="#0" id="circle127"/>
	<circle cx="588.796" cy="466.814" r="4" fill="#0" id="circle128"/>
	<circle cx="597.765" cy="203.118" r="4" fill="#0" id="circle129"/>
	<circle cx="597.765" cy="371.74" r="4" fill="#0" id="circle130"/>
	<circle cx="597.765" cy="389.678" r="4" fill="#0" id="circle131"/>
	<circle cx="606.734" cy="138.539" r="4" fill="#0" id="circle132"/>
	<circle cx="606.734" cy="219.262" r="4" fill="#0" id="circle133"/>
	<circle cx="606.734" cy="355.595" r="4" fill="#0" id="circle134"/>
	<circle cx="606.734" cy="463.226" r="4" fill="#0" id="circle135"/>
	<circle cx="613.91" cy="380.709" r="4" fill="#0" id="circle136"/>
	<circle cx="615.703" cy="194.148" r="4" fill="#0" id="circle137"/>
	<circle cx="624.673" cy="138.539" r="4" fill="#0" id="circle138"/>
	<circle cx="624.673" cy="219.262" r="4" fill="#0" id="circle139"/>
	<circle cx="624.673" cy="346.626" r="4" fill="#0" id="circle140"/>
	<circle cx="624.673" cy="454.257" r="4" fill="#0" id="circle141"/>
	<circle cx="630.054" cy="371.74" r="4" fill="#0" id="circle142"/>
	<circle cx="633.642" cy="194.148" r="4" fill="#0" id="circle143"/>
	<circle cx="642.611" cy="138.539" r="4" fill="#0" id="circle144"/>
	<circle cx="642.611" cy="213.881" r="4" fill="#0" id="circle145"/>
	<circle cx="642.611" cy="346.626" r="4" fill="#0" id="circle146"/>
	<circle cx="642.611" cy="454.257" r="4" fill="#0" id="circle147"/>
	<circle cx="646.199" cy="380.709" r="4" fill="#0" id="circle148"/>
	<circle cx="651.58" cy="185.179" r="4" fill="#0" id="circle149"/>
	<circle cx="651.58" cy="398.647" r="4" fill="#0" id="circle150"/>
	<circle cx="651.58" cy="436.318" r="4" fill="#0" id="circle151"/>
	<circle cx="658.756" cy="337.656" r="4" fill="#0" id="circle152"/>
	<circle cx="660.55" cy="143.92" r="4" fill="#0" id="circle153"/>
	<circle cx="660.55" cy="210.293" r="4" fill="#0" id="circle154"/>
	<circle cx="660.55" cy="414.792" r="4" fill="#0" id="circle155"/>
	<circle cx="669.519" cy="167.241" r="4" fill="#0" id="circle156"/>
	<circle cx="676.694" cy="341.244" r="4" fill="#0" id="circle157"/>
	<circle cx="678.488" cy="210.293" r="4" fill="#0" id="circle158"/>
	<circle cx="694.633" cy="332.275" r="4" fill="#0" id="circle159"/>
	<circle cx="696.427" cy="210.293" r="4" fill="#0" id="circle160"/>
	<circle cx="712.571" cy="328.687" r="4" fill="#0" id="circle161"/>
	<circle cx="714.365" cy="210.293" r="4" fill="#0" id="circle162"/>
	<circle cx="730.51" cy="323.306" r="4" fill="#0" id="circle163"/>
	<circle cx="732.304" cy="210.293" r="4" fill="#0" id="circle164"/>
	<circle cx="748.448" cy="319.718" r="4" fill="#0" id="circle165"/>
	<circle cx="750.242" cy="210.293" r="4" fill="#0" id="circle166"/>
	<circle cx="764.593" cy="310.749" r="4" fill="#0" id="circle167"/>
	<circle cx="768.181" cy="210.293" r="4" fill="#0" id="circle168"/>
	<circle cx="780.738" cy="299.986" r="4" fill="#0" id="circle169"/>
	<circle cx="786.119" cy="204.911" r="4" fill="#0" id="circle170"/>
	<circle cx="798.676" cy="292.81" r="4" fill="#0" id="circle171"/>
	<circle cx="804.058" cy="201.324" r="4" fill="#0" id="circle172"/>
	<circle cx="814.821" cy="283.841" r="4" fill="#0" id="circle173"/>
	<circle cx="821.996" cy="201.324" r="4" fill="#0" id="circle174"/>
	<circle cx="832.759" cy="283.841" r="4" fill="#0" id="circle175"/>
	<circle cx="839.935" cy="201.324" r="4" fill="#0" id="circle176"/>
	<circle cx="848.904" cy="274.872" r="4" fill="#0" id="circle177"/>
	<circle cx="857.873" cy="201.324" r="4" fill="#0" id="circle178"/>
	<circle cx="866.843" cy="265.902" r="4" fill="#0" id="circle179"/>
	<circle cx="874.018" cy="192.354" r="4" fill="#0" id="circle180"/>
	<circle cx="884.781" cy="256.933" r="4" fill="#0" id="circle181"/>
	<circle cx="891.957" cy="188.767" r="4" fill="#0" id="circle182"/>
	<circle cx="902.72" cy="256.933" r="4" fill="#0" id="circle183"/>
	<circle cx="906.307" cy="174.416" r="4" fill="#0" id="circle184"/>
	<circle cx="918.864" cy="247.964" r="4" fill="#0" id="circle185"/>
	<circle cx="924.246" cy="174.416" r="4" fill="#0" id="circle186"/>
	<circle cx="936.803" cy="247.964" r="4" fill="#0" id="circle187"/>
	<circle cx="942.184" cy="174.416" r="4" fill="#0" id="circle188"/>
	<circle cx="954.741" cy="247.964" r="4" fill="#0" id="circle189"/>
	<circle cx="960.123" cy="174.416" r="4" fill="#0" id="circle190"/>
	<circle cx="972.68" cy="247.964" r="4" fill="#0" id="circle191"/>
	<circle cx="976.268" cy="183.385" r="4" fill="#0" id="circle192"/>
	<circle cx="987.031" cy="237.201" r="4" fill="#0" id="circle193"/>
	<circle cx="990.618" cy="195.942" r="4" fill="#0" id="circle194"/>
	<circle cx="996" cy="219.262" r="4" fill="#0" id="circle195"/>
	</g>
</svg>