<?xml version="1.0" encoding="UTF-8" standalone="no"?>
<!-- Created with CurveBenchmark -->
<svg
	xmlns:dc="http://purl.org/dc/elements/1.1/"
	xmlns:cc="http://creativecommons.org/ns#"
	xmlns:rdf="http://www.w3.org/1999/02/22-rdf-syntax-ns#"
	xmlns:svg="http://www.w3.org/2000/svg"
	xmlns="http://www.w3.org/2000/svg"
	xmlns:sodipodi="http://sodipodi.sourceforge.net/DTD/sodipodi-0.dtd"
	xmlns:inkscape="http://www.inkscape.org/namespaces/inkscape"
	width="1000"
	height="1000"
	id="svg2"
	version="1.1"
	sodipodi:docname="manifold/peel-flatfish01.png.txt">
<defs
	id="defs4" />
<metadata
	id="metadata7">
	<rdf:RDF>
		<cc:Work
			rdf:about="">
			<dc:format>image/svg+xml</dc:format>
			<dc:type
				rdf:resource="http://purl.org/dc/dcmitype/StillImage" />
			<dc:title></dc:title>
		</cc:Work>
	</rdf:RDF>
</metadata>
<g
	inkscape:label="Layer 1"
	inkscape:groupmode="layer"
	id="layer1">
	<path style="fill:none;stroke:red;stroke-width:1px;stroke-linecap:butt;stroke-linejoin:miter;stroke-opacity:1" d="M 12.6111,515.5 4,500 z" id="boundary" inkscape:connector-curvature="0" />
	<path style="fill:none;stroke:red;stroke-width:1px;stroke-linecap:butt;stroke-linejoin:miter;stroke-opacity:1" d="M 4,500 4,482.778 z" id="boundary" inkscape:connector-curvature="0" />
	<path style="fill:none;stroke:red;stroke-width:1px;stroke-linecap:butt;stroke-linejoin:miter;stroke-opacity:1" d="M 4,482.778 12.6111,456.944 z" id="boundary" inkscape:connector-curvature="0" />
	<path style="fill:none;stroke:red;stroke-width:1px;stroke-linecap:butt;stroke-linejoin:miter;stroke-opacity:1" d="M 21.2222,439.722 35,425.944 z" id="boundary" inkscape:connector-curvature="0" />
	<path style="fill:none;stroke:red;stroke-width:1px;stroke-linecap:butt;stroke-linejoin:miter;stroke-opacity:1" d="M 21.2222,439.722 12.6111,456.944 z" id="boundary" inkscape:connector-curvature="0" />
	<path style="fill:none;stroke:red;stroke-width:1px;stroke-linecap:butt;stroke-linejoin:miter;stroke-opacity:1" d="M 52.2222,391.5 43.6111,408.722 z" id="boundary" inkscape:connector-curvature="0" />
	<path style="fill:none;stroke:red;stroke-width:1px;stroke-linecap:butt;stroke-linejoin:miter;stroke-opacity:1" d="M 41.8889,536.167 24.6667,529.278 z" id="boundary" inkscape:connector-curvature="0" />
	<path style="fill:none;stroke:red;stroke-width:1px;stroke-linecap:butt;stroke-linejoin:miter;stroke-opacity:1" d="M 24.6667,529.278 12.6111,515.5 z" id="boundary" inkscape:connector-curvature="0" />
	<path style="fill:none;stroke:red;stroke-width:1px;stroke-linecap:butt;stroke-linejoin:miter;stroke-opacity:1" d="M 43.6111,408.722 35,425.944 z" id="boundary" inkscape:connector-curvature="0" />
	<path style="fill:none;stroke:red;stroke-width:1px;stroke-linecap:butt;stroke-linejoin:miter;stroke-opacity:1" d="M 59.1111,539.611 41.8889,536.167 z" id="boundary" inkscape:connector-curvature="0" />
	<path style="fill:none;stroke:red;stroke-width:1px;stroke-linecap:butt;stroke-linejoin:miter;stroke-opacity:1" d="M 64.2778,370.833 78.0556,357.056 z" id="boundary" inkscape:connector-curvature="0" />
	<path style="fill:none;stroke:red;stroke-width:1px;stroke-linecap:butt;stroke-linejoin:miter;stroke-opacity:1" d="M 78.0556,357.056 95.2778,348.444 z" id="boundary" inkscape:connector-curvature="0" />
	<path style="fill:none;stroke:red;stroke-width:1px;stroke-linecap:butt;stroke-linejoin:miter;stroke-opacity:1" d="M 74.6111,548.222 59.1111,539.611 z" id="boundary" inkscape:connector-curvature="0" />
	<path style="fill:none;stroke:red;stroke-width:1px;stroke-linecap:butt;stroke-linejoin:miter;stroke-opacity:1" d="M 52.2222,391.5 64.2778,370.833 z" id="boundary" inkscape:connector-curvature="0" />
	<path style="fill:none;stroke:red;stroke-width:1px;stroke-linecap:butt;stroke-linejoin:miter;stroke-opacity:1" d="M 90.1111,556.833 74.6111,548.222 z" id="boundary" inkscape:connector-curvature="0" />
	<path style="fill:none;stroke:red;stroke-width:1px;stroke-linecap:butt;stroke-linejoin:miter;stroke-opacity:1" d="M 107.333,310.556 107.333,327.778 z" id="boundary" inkscape:connector-curvature="0" />
	<path style="fill:none;stroke:red;stroke-width:1px;stroke-linecap:butt;stroke-linejoin:miter;stroke-opacity:1" d="M 95.2778,348.444 107.333,327.778 z" id="boundary" inkscape:connector-curvature="0" />
	<path style="fill:none;stroke:red;stroke-width:1px;stroke-linecap:butt;stroke-linejoin:miter;stroke-opacity:1" d="M 107.333,556.833 90.1111,556.833 z" id="boundary" inkscape:connector-curvature="0" />
	<path style="fill:none;stroke:red;stroke-width:1px;stroke-linecap:butt;stroke-linejoin:miter;stroke-opacity:1" d="M 122.833,565.444 107.333,556.833 z" id="boundary" inkscape:connector-curvature="0" />
	<path style="fill:none;stroke:red;stroke-width:1px;stroke-linecap:butt;stroke-linejoin:miter;stroke-opacity:1" d="M 107.333,310.556 121.111,296.778 z" id="boundary" inkscape:connector-curvature="0" />
	<path style="fill:none;stroke:red;stroke-width:1px;stroke-linecap:butt;stroke-linejoin:miter;stroke-opacity:1" d="M 129.722,279.556 146.944,270.944 z" id="boundary" inkscape:connector-curvature="0" />
	<path style="fill:none;stroke:red;stroke-width:1px;stroke-linecap:butt;stroke-linejoin:miter;stroke-opacity:1" d="M 129.722,279.556 121.111,296.778 z" id="boundary" inkscape:connector-curvature="0" />
	<path style="fill:none;stroke:red;stroke-width:1px;stroke-linecap:butt;stroke-linejoin:miter;stroke-opacity:1" d="M 138.333,574.056 122.833,565.444 z" id="boundary" inkscape:connector-curvature="0" />
	<path style="fill:none;stroke:red;stroke-width:1px;stroke-linecap:butt;stroke-linejoin:miter;stroke-opacity:1" d="M 167.611,224.444 159,250.278 z" id="boundary" inkscape:connector-curvature="0" />
	<path style="fill:none;stroke:red;stroke-width:1px;stroke-linecap:butt;stroke-linejoin:miter;stroke-opacity:1" d="M 155.556,574.056 138.333,574.056 z" id="boundary" inkscape:connector-curvature="0" />
	<path style="fill:none;stroke:red;stroke-width:1px;stroke-linecap:butt;stroke-linejoin:miter;stroke-opacity:1" d="M 159,250.278 146.944,270.944 z" id="boundary" inkscape:connector-curvature="0" />
	<path style="fill:none;stroke:red;stroke-width:1px;stroke-linecap:butt;stroke-linejoin:miter;stroke-opacity:1" d="M 167.611,224.444 181.389,210.667 z" id="boundary" inkscape:connector-curvature="0" />
	<path style="fill:none;stroke:red;stroke-width:1px;stroke-linecap:butt;stroke-linejoin:miter;stroke-opacity:1" d="M 172.778,574.056 155.556,574.056 z" id="boundary" inkscape:connector-curvature="0" />
	<path style="fill:none;stroke:red;stroke-width:1px;stroke-linecap:butt;stroke-linejoin:miter;stroke-opacity:1" d="M 221,171.056 238.222,162.444 z" id="boundary" inkscape:connector-curvature="0" />
	<path style="fill:none;stroke:red;stroke-width:1px;stroke-linecap:butt;stroke-linejoin:miter;stroke-opacity:1" d="M 190,193.444 181.389,210.667 z" id="boundary" inkscape:connector-curvature="0" />
	<path style="fill:none;stroke:red;stroke-width:1px;stroke-linecap:butt;stroke-linejoin:miter;stroke-opacity:1" d="M 190,193.444 203.778,179.667 z" id="boundary" inkscape:connector-curvature="0" />
	<path style="fill:none;stroke:red;stroke-width:1px;stroke-linecap:butt;stroke-linejoin:miter;stroke-opacity:1" d="M 190,574.056 172.778,574.056 z" id="boundary" inkscape:connector-curvature="0" />
	<path style="fill:none;stroke:red;stroke-width:1px;stroke-linecap:butt;stroke-linejoin:miter;stroke-opacity:1" d="M 203.778,179.667 221,171.056 z" id="boundary" inkscape:connector-curvature="0" />
	<path style="fill:none;stroke:red;stroke-width:1px;stroke-linecap:butt;stroke-linejoin:miter;stroke-opacity:1" d="M 207.222,574.056 190,574.056 z" id="boundary" inkscape:connector-curvature="0" />
	<path style="fill:none;stroke:red;stroke-width:1px;stroke-linecap:butt;stroke-linejoin:miter;stroke-opacity:1" d="M 222.722,582.667 207.222,574.056 z" id="boundary" inkscape:connector-curvature="0" />
	<path style="fill:none;stroke:red;stroke-width:1px;stroke-linecap:butt;stroke-linejoin:miter;stroke-opacity:1" d="M 324.333,93.5556 312.278,107.333 z" id="boundary" inkscape:connector-curvature="0" />
	<path style="fill:none;stroke:red;stroke-width:1px;stroke-linecap:butt;stroke-linejoin:miter;stroke-opacity:1" d="M 312.278,107.333 298.5,119.389 z" id="boundary" inkscape:connector-curvature="0" />
	<path style="fill:none;stroke:red;stroke-width:1px;stroke-linecap:butt;stroke-linejoin:miter;stroke-opacity:1" d="M 239.944,582.667 222.722,582.667 z" id="boundary" inkscape:connector-curvature="0" />
	<path style="fill:none;stroke:red;stroke-width:1px;stroke-linecap:butt;stroke-linejoin:miter;stroke-opacity:1" d="M 253.722,146.944 270.944,141.778 z" id="boundary" inkscape:connector-curvature="0" />
	<path style="fill:none;stroke:red;stroke-width:1px;stroke-linecap:butt;stroke-linejoin:miter;stroke-opacity:1" d="M 253.722,146.944 238.222,162.444 z" id="boundary" inkscape:connector-curvature="0" />
	<path style="fill:none;stroke:red;stroke-width:1px;stroke-linecap:butt;stroke-linejoin:miter;stroke-opacity:1" d="M 257.167,582.667 239.944,582.667 z" id="boundary" inkscape:connector-curvature="0" />
	<path style="fill:none;stroke:red;stroke-width:1px;stroke-linecap:butt;stroke-linejoin:miter;stroke-opacity:1" d="M 274.389,587.833 257.167,582.667 z" id="boundary" inkscape:connector-curvature="0" />
	<path style="fill:none;stroke:red;stroke-width:1px;stroke-linecap:butt;stroke-linejoin:miter;stroke-opacity:1" d="M 286.444,133.167 270.944,141.778 z" id="boundary" inkscape:connector-curvature="0" />
	<path style="fill:none;stroke:red;stroke-width:1px;stroke-linecap:butt;stroke-linejoin:miter;stroke-opacity:1" d="M 291.611,591.278 307.111,599.889 z" id="boundary" inkscape:connector-curvature="0" />
	<path style="fill:none;stroke:red;stroke-width:1px;stroke-linecap:butt;stroke-linejoin:miter;stroke-opacity:1" d="M 291.611,591.278 274.389,587.833 z" id="boundary" inkscape:connector-curvature="0" />
	<path style="fill:none;stroke:red;stroke-width:1px;stroke-linecap:butt;stroke-linejoin:miter;stroke-opacity:1" d="M 298.5,119.389 286.444,133.167 z" id="boundary" inkscape:connector-curvature="0" />
	<path style="fill:none;stroke:red;stroke-width:1px;stroke-linecap:butt;stroke-linejoin:miter;stroke-opacity:1" d="M 324.333,93.5556 341.556,84.9444 z" id="boundary" inkscape:connector-curvature="0" />
	<path style="fill:none;stroke:red;stroke-width:1px;stroke-linecap:butt;stroke-linejoin:miter;stroke-opacity:1" d="M 324.333,591.278 307.111,599.889 z" id="boundary" inkscape:connector-curvature="0" />
	<path style="fill:none;stroke:red;stroke-width:1px;stroke-linecap:butt;stroke-linejoin:miter;stroke-opacity:1" d="M 341.556,591.278 324.333,591.278 z" id="boundary" inkscape:connector-curvature="0" />
	<path style="fill:none;stroke:red;stroke-width:1px;stroke-linecap:butt;stroke-linejoin:miter;stroke-opacity:1" d="M 355.333,72.8889 370.833,64.2778 z" id="boundary" inkscape:connector-curvature="0" />
	<path style="fill:none;stroke:red;stroke-width:1px;stroke-linecap:butt;stroke-linejoin:miter;stroke-opacity:1" d="M 355.333,72.8889 341.556,84.9444 z" id="boundary" inkscape:connector-curvature="0" />
	<path style="fill:none;stroke:red;stroke-width:1px;stroke-linecap:butt;stroke-linejoin:miter;stroke-opacity:1" d="M 358.778,594.722 341.556,591.278 z" id="boundary" inkscape:connector-curvature="0" />
	<path style="fill:none;stroke:red;stroke-width:1px;stroke-linecap:butt;stroke-linejoin:miter;stroke-opacity:1" d="M 370.833,64.2778 388.056,55.6667 z" id="boundary" inkscape:connector-curvature="0" />
	<path style="fill:none;stroke:red;stroke-width:1px;stroke-linecap:butt;stroke-linejoin:miter;stroke-opacity:1" d="M 376,599.889 358.778,594.722 z" id="boundary" inkscape:connector-curvature="0" />
	<path style="fill:none;stroke:red;stroke-width:1px;stroke-linecap:butt;stroke-linejoin:miter;stroke-opacity:1" d="M 598.167,47.0556 611.944,57.3889 z" id="boundary" inkscape:connector-curvature="0" />
	<path style="fill:none;stroke:red;stroke-width:1px;stroke-linecap:butt;stroke-linejoin:miter;stroke-opacity:1" d="M 598.167,47.0556 582.667,38.4444 z" id="boundary" inkscape:connector-curvature="0" />
	<path style="fill:none;stroke:red;stroke-width:1px;stroke-linecap:butt;stroke-linejoin:miter;stroke-opacity:1" d="M 393.222,599.889 376,599.889 z" id="boundary" inkscape:connector-curvature="0" />
	<path style="fill:none;stroke:red;stroke-width:1px;stroke-linecap:butt;stroke-linejoin:miter;stroke-opacity:1" d="M 410.444,603.333 425.944,611.944 z" id="boundary" inkscape:connector-curvature="0" />
	<path style="fill:none;stroke:red;stroke-width:1px;stroke-linecap:butt;stroke-linejoin:miter;stroke-opacity:1" d="M 410.444,603.333 393.222,599.889 z" id="boundary" inkscape:connector-curvature="0" />
	<path style="fill:none;stroke:red;stroke-width:1px;stroke-linecap:butt;stroke-linejoin:miter;stroke-opacity:1" d="M 388.056,55.6667 405.278,47.0556 z" id="boundary" inkscape:connector-curvature="0" />
	<path style="fill:none;stroke:red;stroke-width:1px;stroke-linecap:butt;stroke-linejoin:miter;stroke-opacity:1" d="M 434.556,26.3889 451.778,17.7778 z" id="boundary" inkscape:connector-curvature="0" />
	<path style="fill:none;stroke:red;stroke-width:1px;stroke-linecap:butt;stroke-linejoin:miter;stroke-opacity:1" d="M 434.556,26.3889 420.778,38.4444 z" id="boundary" inkscape:connector-curvature="0" />
	<path style="fill:none;stroke:red;stroke-width:1px;stroke-linecap:butt;stroke-linejoin:miter;stroke-opacity:1" d="M 443.167,617.111 425.944,611.944 z" id="boundary" inkscape:connector-curvature="0" />
	<path style="fill:none;stroke:red;stroke-width:1px;stroke-linecap:butt;stroke-linejoin:miter;stroke-opacity:1" d="M 405.278,47.0556 420.778,38.4444 z" id="boundary" inkscape:connector-curvature="0" />
	<path style="fill:none;stroke:red;stroke-width:1px;stroke-linecap:butt;stroke-linejoin:miter;stroke-opacity:1" d="M 503.444,4 518.944,12.6111 z" id="boundary" inkscape:connector-curvature="0" />
	<path style="fill:none;stroke:red;stroke-width:1px;stroke-linecap:butt;stroke-linejoin:miter;stroke-opacity:1" d="M 503.444,4 486.222,4 z" id="boundary" inkscape:connector-curvature="0" />
	<path style="fill:none;stroke:red;stroke-width:1px;stroke-linecap:butt;stroke-linejoin:miter;stroke-opacity:1" d="M 460.389,617.111 443.167,617.111 z" id="boundary" inkscape:connector-curvature="0" />
	<path style="fill:none;stroke:red;stroke-width:1px;stroke-linecap:butt;stroke-linejoin:miter;stroke-opacity:1" d="M 486.222,4 469,9.16667 z" id="boundary" inkscape:connector-curvature="0" />
	<path style="fill:none;stroke:red;stroke-width:1px;stroke-linecap:butt;stroke-linejoin:miter;stroke-opacity:1" d="M 477.611,617.111 460.389,617.111 z" id="boundary" inkscape:connector-curvature="0" />
	<path style="fill:none;stroke:red;stroke-width:1px;stroke-linecap:butt;stroke-linejoin:miter;stroke-opacity:1" d="M 451.778,17.7778 469,9.16667 z" id="boundary" inkscape:connector-curvature="0" />
	<path style="fill:none;stroke:red;stroke-width:1px;stroke-linecap:butt;stroke-linejoin:miter;stroke-opacity:1" d="M 518.944,12.6111 534.444,21.2222 z" id="boundary" inkscape:connector-curvature="0" />
	<path style="fill:none;stroke:red;stroke-width:1px;stroke-linecap:butt;stroke-linejoin:miter;stroke-opacity:1" d="M 494.833,617.111 477.611,617.111 z" id="boundary" inkscape:connector-curvature="0" />
	<path style="fill:none;stroke:red;stroke-width:1px;stroke-linecap:butt;stroke-linejoin:miter;stroke-opacity:1" d="M 582.667,38.4444 567.167,29.8333 z" id="boundary" inkscape:connector-curvature="0" />
	<path style="fill:none;stroke:red;stroke-width:1px;stroke-linecap:butt;stroke-linejoin:miter;stroke-opacity:1" d="M 529.278,611.944 512.056,617.111 z" id="boundary" inkscape:connector-curvature="0" />
	<path style="fill:none;stroke:red;stroke-width:1px;stroke-linecap:butt;stroke-linejoin:miter;stroke-opacity:1" d="M 512.056,617.111 494.833,617.111 z" id="boundary" inkscape:connector-curvature="0" />
	<path style="fill:none;stroke:red;stroke-width:1px;stroke-linecap:butt;stroke-linejoin:miter;stroke-opacity:1" d="M 546.5,608.5 529.278,611.944 z" id="boundary" inkscape:connector-curvature="0" />
	<path style="fill:none;stroke:red;stroke-width:1px;stroke-linecap:butt;stroke-linejoin:miter;stroke-opacity:1" d="M 551.667,21.2222 567.167,29.8333 z" id="boundary" inkscape:connector-curvature="0" />
	<path style="fill:none;stroke:red;stroke-width:1px;stroke-linecap:butt;stroke-linejoin:miter;stroke-opacity:1" d="M 551.667,21.2222 534.444,21.2222 z" id="boundary" inkscape:connector-curvature="0" />
	<path style="fill:none;stroke:red;stroke-width:1px;stroke-linecap:butt;stroke-linejoin:miter;stroke-opacity:1" d="M 837.556,107.333 823.778,119.389 z" id="boundary" inkscape:connector-curvature="0" />
	<path style="fill:none;stroke:red;stroke-width:1px;stroke-linecap:butt;stroke-linejoin:miter;stroke-opacity:1" d="M 577.5,589.556 563.722,603.333 z" id="boundary" inkscape:connector-curvature="0" />
	<path style="fill:none;stroke:red;stroke-width:1px;stroke-linecap:butt;stroke-linejoin:miter;stroke-opacity:1" d="M 563.722,603.333 546.5,608.5 z" id="boundary" inkscape:connector-curvature="0" />
	<path style="fill:none;stroke:red;stroke-width:1px;stroke-linecap:butt;stroke-linejoin:miter;stroke-opacity:1" d="M 586.111,574.056 577.5,589.556 z" id="boundary" inkscape:connector-curvature="0" />
	<path style="fill:none;stroke:red;stroke-width:1px;stroke-linecap:butt;stroke-linejoin:miter;stroke-opacity:1" d="M 603.333,574.056 586.111,574.056 z" id="boundary" inkscape:connector-curvature="0" />
	<path style="fill:none;stroke:red;stroke-width:1px;stroke-linecap:butt;stroke-linejoin:miter;stroke-opacity:1" d="M 617.111,556.833 603.333,574.056 z" id="boundary" inkscape:connector-curvature="0" />
	<path style="fill:none;stroke:red;stroke-width:1px;stroke-linecap:butt;stroke-linejoin:miter;stroke-opacity:1" d="M 629.167,64.2778 644.667,72.8889 z" id="boundary" inkscape:connector-curvature="0" />
	<path style="fill:none;stroke:red;stroke-width:1px;stroke-linecap:butt;stroke-linejoin:miter;stroke-opacity:1" d="M 629.167,64.2778 611.944,57.3889 z" id="boundary" inkscape:connector-curvature="0" />
	<path style="fill:none;stroke:red;stroke-width:1px;stroke-linecap:butt;stroke-linejoin:miter;stroke-opacity:1" d="M 630.889,544.778 648.111,536.167 z" id="boundary" inkscape:connector-curvature="0" />
	<path style="fill:none;stroke:red;stroke-width:1px;stroke-linecap:butt;stroke-linejoin:miter;stroke-opacity:1" d="M 630.889,544.778 617.111,556.833 z" id="boundary" inkscape:connector-curvature="0" />
	<path style="fill:none;stroke:red;stroke-width:1px;stroke-linecap:butt;stroke-linejoin:miter;stroke-opacity:1" d="M 660.167,81.5 644.667,72.8889 z" id="boundary" inkscape:connector-curvature="0" />
	<path style="fill:none;stroke:red;stroke-width:1px;stroke-linecap:butt;stroke-linejoin:miter;stroke-opacity:1" d="M 954.667,298.5 971.889,298.5 z" id="boundary" inkscape:connector-curvature="0" />
	<path style="fill:none;stroke:red;stroke-width:1px;stroke-linecap:butt;stroke-linejoin:miter;stroke-opacity:1" d="M 660.167,513.778 648.111,536.167 z" id="boundary" inkscape:connector-curvature="0" />
	<path style="fill:none;stroke:red;stroke-width:1px;stroke-linecap:butt;stroke-linejoin:miter;stroke-opacity:1" d="M 673.944,501.722 660.167,513.778 z" id="boundary" inkscape:connector-curvature="0" />
	<path style="fill:none;stroke:red;stroke-width:1px;stroke-linecap:butt;stroke-linejoin:miter;stroke-opacity:1" d="M 677.389,86.6667 689.444,100.444 z" id="boundary" inkscape:connector-curvature="0" />
	<path style="fill:none;stroke:red;stroke-width:1px;stroke-linecap:butt;stroke-linejoin:miter;stroke-opacity:1" d="M 677.389,86.6667 660.167,81.5 z" id="boundary" inkscape:connector-curvature="0" />
	<path style="fill:none;stroke:red;stroke-width:1px;stroke-linecap:butt;stroke-linejoin:miter;stroke-opacity:1" d="M 686,487.944 673.944,501.722 z" id="boundary" inkscape:connector-curvature="0" />
	<path style="fill:none;stroke:red;stroke-width:1px;stroke-linecap:butt;stroke-linejoin:miter;stroke-opacity:1" d="M 689.444,100.444 703.222,112.5 z" id="boundary" inkscape:connector-curvature="0" />
	<path style="fill:none;stroke:red;stroke-width:1px;stroke-linecap:butt;stroke-linejoin:miter;stroke-opacity:1" d="M 686,487.944 686,470.722 z" id="boundary" inkscape:connector-curvature="0" />
	<path style="fill:none;stroke:red;stroke-width:1px;stroke-linecap:butt;stroke-linejoin:miter;stroke-opacity:1" d="M 686,470.722 694.611,453.5 z" id="boundary" inkscape:connector-curvature="0" />
	<path style="fill:none;stroke:red;stroke-width:1px;stroke-linecap:butt;stroke-linejoin:miter;stroke-opacity:1" d="M 904.722,289.889 920.222,298.5 z" id="boundary" inkscape:connector-curvature="0" />
	<path style="fill:none;stroke:red;stroke-width:1px;stroke-linecap:butt;stroke-linejoin:miter;stroke-opacity:1" d="M 904.722,289.889 887.5,289.889 z" id="boundary" inkscape:connector-curvature="0" />
	<path style="fill:none;stroke:red;stroke-width:1px;stroke-linecap:butt;stroke-linejoin:miter;stroke-opacity:1" d="M 708.389,441.444 694.611,453.5 z" id="boundary" inkscape:connector-curvature="0" />
	<path style="fill:none;stroke:red;stroke-width:1px;stroke-linecap:butt;stroke-linejoin:miter;stroke-opacity:1" d="M 718.722,121.111 703.222,112.5 z" id="boundary" inkscape:connector-curvature="0" />
	<path style="fill:none;stroke:red;stroke-width:1px;stroke-linecap:butt;stroke-linejoin:miter;stroke-opacity:1" d="M 854.778,281.278 870.278,289.889 z" id="boundary" inkscape:connector-curvature="0" />
	<path style="fill:none;stroke:red;stroke-width:1px;stroke-linecap:butt;stroke-linejoin:miter;stroke-opacity:1" d="M 854.778,281.278 837.556,281.278 z" id="boundary" inkscape:connector-curvature="0" />
	<path style="fill:none;stroke:red;stroke-width:1px;stroke-linecap:butt;stroke-linejoin:miter;stroke-opacity:1" d="M 720.444,419.056 708.389,441.444 z" id="boundary" inkscape:connector-curvature="0" />
	<path style="fill:none;stroke:red;stroke-width:1px;stroke-linecap:butt;stroke-linejoin:miter;stroke-opacity:1" d="M 729.056,393.222 720.444,419.056 z" id="boundary" inkscape:connector-curvature="0" />
	<path style="fill:none;stroke:red;stroke-width:1px;stroke-linecap:butt;stroke-linejoin:miter;stroke-opacity:1" d="M 760.056,346.722 763.5,315.722 z" id="boundary" inkscape:connector-curvature="0" />
	<path style="fill:none;stroke:red;stroke-width:1px;stroke-linecap:butt;stroke-linejoin:miter;stroke-opacity:1" d="M 735.944,128 746.278,141.778 z" id="boundary" inkscape:connector-curvature="0" />
	<path style="fill:none;stroke:red;stroke-width:1px;stroke-linecap:butt;stroke-linejoin:miter;stroke-opacity:1" d="M 735.944,128 718.722,121.111 z" id="boundary" inkscape:connector-curvature="0" />
	<path style="fill:none;stroke:red;stroke-width:1px;stroke-linecap:butt;stroke-linejoin:miter;stroke-opacity:1" d="M 737.667,376 729.056,393.222 z" id="boundary" inkscape:connector-curvature="0" />
	<path style="fill:none;stroke:red;stroke-width:1px;stroke-linecap:butt;stroke-linejoin:miter;stroke-opacity:1" d="M 746.278,358.778 760.056,346.722 z" id="boundary" inkscape:connector-curvature="0" />
	<path style="fill:none;stroke:red;stroke-width:1px;stroke-linecap:butt;stroke-linejoin:miter;stroke-opacity:1" d="M 746.278,358.778 737.667,376 z" id="boundary" inkscape:connector-curvature="0" />
	<path style="fill:none;stroke:red;stroke-width:1px;stroke-linecap:butt;stroke-linejoin:miter;stroke-opacity:1" d="M 763.5,146.944 746.278,141.778 z" id="boundary" inkscape:connector-curvature="0" />
	<path style="fill:none;stroke:red;stroke-width:1px;stroke-linecap:butt;stroke-linejoin:miter;stroke-opacity:1" d="M 820.333,281.278 837.556,281.278 z" id="boundary" inkscape:connector-curvature="0" />
	<path style="fill:none;stroke:red;stroke-width:1px;stroke-linecap:butt;stroke-linejoin:miter;stroke-opacity:1" d="M 772.111,298.5 763.5,315.722 z" id="boundary" inkscape:connector-curvature="0" />
	<path style="fill:none;stroke:red;stroke-width:1px;stroke-linecap:butt;stroke-linejoin:miter;stroke-opacity:1" d="M 772.111,298.5 785.889,286.444 z" id="boundary" inkscape:connector-curvature="0" />
	<path style="fill:none;stroke:red;stroke-width:1px;stroke-linecap:butt;stroke-linejoin:miter;stroke-opacity:1" d="M 785.889,286.444 803.111,281.278 z" id="boundary" inkscape:connector-curvature="0" />
	<path style="fill:none;stroke:red;stroke-width:1px;stroke-linecap:butt;stroke-linejoin:miter;stroke-opacity:1" d="M 780.722,150.389 763.5,146.944 z" id="boundary" inkscape:connector-curvature="0" />
	<path style="fill:none;stroke:red;stroke-width:1px;stroke-linecap:butt;stroke-linejoin:miter;stroke-opacity:1" d="M 796.222,141.778 780.722,150.389 z" id="boundary" inkscape:connector-curvature="0" />
	<path style="fill:none;stroke:red;stroke-width:1px;stroke-linecap:butt;stroke-linejoin:miter;stroke-opacity:1" d="M 803.111,281.278 820.333,281.278 z" id="boundary" inkscape:connector-curvature="0" />
	<path style="fill:none;stroke:red;stroke-width:1px;stroke-linecap:butt;stroke-linejoin:miter;stroke-opacity:1" d="M 811.722,133.167 796.222,141.778 z" id="boundary" inkscape:connector-curvature="0" />
	<path style="fill:none;stroke:red;stroke-width:1px;stroke-linecap:butt;stroke-linejoin:miter;stroke-opacity:1" d="M 823.778,119.389 811.722,133.167 z" id="boundary" inkscape:connector-curvature="0" />
	<path style="fill:none;stroke:red;stroke-width:1px;stroke-linecap:butt;stroke-linejoin:miter;stroke-opacity:1" d="M 887.5,289.889 870.278,289.889 z" id="boundary" inkscape:connector-curvature="0" />
	<path style="fill:none;stroke:red;stroke-width:1px;stroke-linecap:butt;stroke-linejoin:miter;stroke-opacity:1" d="M 837.556,107.333 853.056,98.7222 z" id="boundary" inkscape:connector-curvature="0" />
	<path style="fill:none;stroke:red;stroke-width:1px;stroke-linecap:butt;stroke-linejoin:miter;stroke-opacity:1" d="M 944.333,74.6111 947.778,91.8333 z" id="boundary" inkscape:connector-curvature="0" />
	<path style="fill:none;stroke:red;stroke-width:1px;stroke-linecap:butt;stroke-linejoin:miter;stroke-opacity:1" d="M 944.333,74.6111 930.556,64.2778 z" id="boundary" inkscape:connector-curvature="0" />
	<path style="fill:none;stroke:red;stroke-width:1px;stroke-linecap:butt;stroke-linejoin:miter;stroke-opacity:1" d="M 853.056,98.7222 866.833,84.9444 z" id="boundary" inkscape:connector-curvature="0" />
	<path style="fill:none;stroke:red;stroke-width:1px;stroke-linecap:butt;stroke-linejoin:miter;stroke-opacity:1" d="M 880.611,72.8889 896.111,64.2778 z" id="boundary" inkscape:connector-curvature="0" />
	<path style="fill:none;stroke:red;stroke-width:1px;stroke-linecap:butt;stroke-linejoin:miter;stroke-opacity:1" d="M 896.111,64.2778 913.333,64.2778 z" id="boundary" inkscape:connector-curvature="0" />
	<path style="fill:none;stroke:red;stroke-width:1px;stroke-linecap:butt;stroke-linejoin:miter;stroke-opacity:1" d="M 978.778,153.833 977.056,136.611 z" id="boundary" inkscape:connector-curvature="0" />
	<path style="fill:none;stroke:red;stroke-width:1px;stroke-linecap:butt;stroke-linejoin:miter;stroke-opacity:1" d="M 977.056,136.611 968.444,121.111 z" id="boundary" inkscape:connector-curvature="0" />
	<path style="fill:none;stroke:red;stroke-width:1px;stroke-linecap:butt;stroke-linejoin:miter;stroke-opacity:1" d="M 937.444,298.5 920.222,298.5 z" id="boundary" inkscape:connector-curvature="0" />
	<path style="fill:none;stroke:red;stroke-width:1px;stroke-linecap:butt;stroke-linejoin:miter;stroke-opacity:1" d="M 866.833,84.9444 880.611,72.8889 z" id="boundary" inkscape:connector-curvature="0" />
	<path style="fill:none;stroke:red;stroke-width:1px;stroke-linecap:butt;stroke-linejoin:miter;stroke-opacity:1" d="M 930.556,64.2778 913.333,64.2778 z" id="boundary" inkscape:connector-curvature="0" />
	<path style="fill:none;stroke:red;stroke-width:1px;stroke-linecap:butt;stroke-linejoin:miter;stroke-opacity:1" d="M 983.944,171.056 978.778,153.833 z" id="boundary" inkscape:connector-curvature="0" />
	<path style="fill:none;stroke:red;stroke-width:1px;stroke-linecap:butt;stroke-linejoin:miter;stroke-opacity:1" d="M 937.444,298.5 954.667,298.5 z" id="boundary" inkscape:connector-curvature="0" />
	<path style="fill:none;stroke:red;stroke-width:1px;stroke-linecap:butt;stroke-linejoin:miter;stroke-opacity:1" d="M 956.389,107.333 947.778,91.8333 z" id="boundary" inkscape:connector-curvature="0" />
	<path style="fill:none;stroke:red;stroke-width:1px;stroke-linecap:butt;stroke-linejoin:miter;stroke-opacity:1" d="M 968.444,121.111 956.389,107.333 z" id="boundary" inkscape:connector-curvature="0" />
	<path style="fill:none;stroke:red;stroke-width:1px;stroke-linecap:butt;stroke-linejoin:miter;stroke-opacity:1" d="M 971.889,298.5 987.389,289.889 z" id="boundary" inkscape:connector-curvature="0" />
	<path style="fill:none;stroke:red;stroke-width:1px;stroke-linecap:butt;stroke-linejoin:miter;stroke-opacity:1" d="M 987.389,188.278 983.944,171.056 z" id="boundary" inkscape:connector-curvature="0" />
	<path style="fill:none;stroke:red;stroke-width:1px;stroke-linecap:butt;stroke-linejoin:miter;stroke-opacity:1" d="M 987.389,238.222 987.389,221 z" id="boundary" inkscape:connector-curvature="0" />
	<path style="fill:none;stroke:red;stroke-width:1px;stroke-linecap:butt;stroke-linejoin:miter;stroke-opacity:1" d="M 987.389,255.444 987.389,238.222 z" id="boundary" inkscape:connector-curvature="0" />
	<path style="fill:none;stroke:red;stroke-width:1px;stroke-linecap:butt;stroke-linejoin:miter;stroke-opacity:1" d="M 987.389,188.278 996,203.778 z" id="boundary" inkscape:connector-curvature="0" />
	<path style="fill:none;stroke:red;stroke-width:1px;stroke-linecap:butt;stroke-linejoin:miter;stroke-opacity:1" d="M 996,203.778 987.389,221 z" id="boundary" inkscape:connector-curvature="0" />
	<path style="fill:none;stroke:red;stroke-width:1px;stroke-linecap:butt;stroke-linejoin:miter;stroke-opacity:1" d="M 987.389,255.444 987.389,272.667 z" id="boundary" inkscape:connector-curvature="0" />
	<path style="fill:none;stroke:red;stroke-width:1px;stroke-linecap:butt;stroke-linejoin:miter;stroke-opacity:1" d="M 987.389,289.889 987.389,272.667 z" id="boundary" inkscape:connector-curvature="0" />
	<circle cx="4" cy="482.778" r="4" fill="#0" id="circle0"/>
	<circle cx="4" cy="500" r="4" fill="#0" id="circle1"/>
	<circle cx="12.6111" cy="456.944" r="4" fill="#0" id="circle2"/>
	<circle cx="12.6111" cy="515.5" r="4" fill="#0" id="circle3"/>
	<circle cx="21.2222" cy="439.722" r="4" fill="#0" id="circle4"/>
	<circle cx="24.6667" cy="529.278" r="4" fill="#0" id="circle5"/>
	<circle cx="35" cy="425.944" r="4" fill="#0" id="circle6"/>
	<circle cx="41.8889" cy="536.167" r="4" fill="#0" id="circle7"/>
	<circle cx="43.6111" cy="408.722" r="4" fill="#0" id="circle8"/>
	<circle cx="52.2222" cy="391.5" r="4" fill="#0" id="circle9"/>
	<circle cx="59.1111" cy="539.611" r="4" fill="#0" id="circle10"/>
	<circle cx="64.2778" cy="370.833" r="4" fill="#0" id="circle11"/>
	<circle cx="74.6111" cy="548.222" r="4" fill="#0" id="circle12"/>
	<circle cx="78.0556" cy="357.056" r="4" fill="#0" id="circle13"/>
	<circle cx="90.1111" cy="556.833" r="4" fill="#0" id="circle14"/>
	<circle cx="95.2778" cy="348.444" r="4" fill="#0" id="circle15"/>
	<circle cx="107.333" cy="310.556" r="4" fill="#0" id="circle16"/>
	<circle cx="107.333" cy="327.778" r="4" fill="#0" id="circle17"/>
	<circle cx="107.333" cy="556.833" r="4" fill="#0" id="circle18"/>
	<circle cx="121.111" cy="296.778" r="4" fill="#0" id="circle19"/>
	<circle cx="122.833" cy="565.444" r="4" fill="#0" id="circle20"/>
	<circle cx="129.722" cy="279.556" r="4" fill="#0" id="circle21"/>
	<circle cx="138.333" cy="574.056" r="4" fill="#0" id="circle22"/>
	<circle cx="146.944" cy="270.944" r="4" fill="#0" id="circle23"/>
	<circle cx="155.556" cy="574.056" r="4" fill="#0" id="circle24"/>
	<circle cx="159" cy="250.278" r="4" fill="#0" id="circle25"/>
	<circle cx="167.611" cy="224.444" r="4" fill="#0" id="circle26"/>
	<circle cx="172.778" cy="574.056" r="4" fill="#0" id="circle27"/>
	<circle cx="181.389" cy="210.667" r="4" fill="#0" id="circle28"/>
	<circle cx="190" cy="193.444" r="4" fill="#0" id="circle29"/>
	<circle cx="190" cy="574.056" r="4" fill="#0" id="circle30"/>
	<circle cx="203.778" cy="179.667" r="4" fill="#0" id="circle31"/>
	<circle cx="207.222" cy="574.056" r="4" fill="#0" id="circle32"/>
	<circle cx="221" cy="171.056" r="4" fill="#0" id="circle33"/>
	<circle cx="222.722" cy="582.667" r="4" fill="#0" id="circle34"/>
	<circle cx="238.222" cy="162.444" r="4" fill="#0" id="circle35"/>
	<circle cx="239.944" cy="582.667" r="4" fill="#0" id="circle36"/>
	<circle cx="253.722" cy="146.944" r="4" fill="#0" id="circle37"/>
	<circle cx="257.167" cy="582.667" r="4" fill="#0" id="circle38"/>
	<circle cx="270.944" cy="141.778" r="4" fill="#0" id="circle39"/>
	<circle cx="274.389" cy="587.833" r="4" fill="#0" id="circle40"/>
	<circle cx="286.444" cy="133.167" r="4" fill="#0" id="circle41"/>
	<circle cx="291.611" cy="591.278" r="4" fill="#0" id="circle42"/>
	<circle cx="298.5" cy="119.389" r="4" fill="#0" id="circle43"/>
	<circle cx="307.111" cy="599.889" r="4" fill="#0" id="circle44"/>
	<circle cx="312.278" cy="107.333" r="4" fill="#0" id="circle45"/>
	<circle cx="324.333" cy="93.5556" r="4" fill="#0" id="circle46"/>
	<circle cx="324.333" cy="591.278" r="4" fill="#0" id="circle47"/>
	<circle cx="341.556" cy="84.9444" r="4" fill="#0" id="circle48"/>
	<circle cx="341.556" cy="591.278" r="4" fill="#0" id="circle49"/>
	<circle cx="355.333" cy="72.8889" r="4" fill="#0" id="circle50"/>
	<circle cx="358.778" cy="594.722" r="4" fill="#0" id="circle51"/>
	<circle cx="370.833" cy="64.2778" r="4" fill="#0" id="circle52"/>
	<circle cx="376" cy="599.889" r="4" fill="#0" id="circle53"/>
	<circle cx="388.056" cy="55.6667" r="4" fill="#0" id="circle54"/>
	<circle cx="393.222" cy="599.889" r="4" fill="#0" id="circle55"/>
	<circle cx="405.278" cy="47.0556" r="4" fill="#0" id="circle56"/>
	<circle cx="410.444" cy="603.333" r="4" fill="#0" id="circle57"/>
	<circle cx="420.778" cy="38.4444" r="4" fill="#0" id="circle58"/>
	<circle cx="425.944" cy="611.944" r="4" fill="#0" id="circle59"/>
	<circle cx="434.556" cy="26.3889" r="4" fill="#0" id="circle60"/>
	<circle cx="443.167" cy="617.111" r="4" fill="#0" id="circle61"/>
	<circle cx="451.778" cy="17.7778" r="4" fill="#0" id="circle62"/>
	<circle cx="460.389" cy="617.111" r="4" fill="#0" id="circle63"/>
	<circle cx="469" cy="9.16667" r="4" fill="#0" id="circle64"/>
	<circle cx="477.611" cy="617.111" r="4" fill="#0" id="circle65"/>
	<circle cx="486.222" cy="4" r="4" fill="#0" id="circle66"/>
	<circle cx="494.833" cy="617.111" r="4" fill="#0" id="circle67"/>
	<circle cx="503.444" cy="4" r="4" fill="#0" id="circle68"/>
	<circle cx="512.056" cy="617.111" r="4" fill="#0" id="circle69"/>
	<circle cx="518.944" cy="12.6111" r="4" fill="#0" id="circle70"/>
	<circle cx="529.278" cy="611.944" r="4" fill="#0" id="circle71"/>
	<circle cx="534.444" cy="21.2222" r="4" fill="#0" id="circle72"/>
	<circle cx="546.5" cy="608.5" r="4" fill="#0" id="circle73"/>
	<circle cx="551.667" cy="21.2222" r="4" fill="#0" id="circle74"/>
	<circle cx="563.722" cy="603.333" r="4" fill="#0" id="circle75"/>
	<circle cx="567.167" cy="29.8333" r="4" fill="#0" id="circle76"/>
	<circle cx="577.5" cy="589.556" r="4" fill="#0" id="circle77"/>
	<circle cx="582.667" cy="38.4444" r="4" fill="#0" id="circle78"/>
	<circle cx="586.111" cy="574.056" r="4" fill="#0" id="circle79"/>
	<circle cx="598.167" cy="47.0556" r="4" fill="#0" id="circle80"/>
	<circle cx="603.333" cy="574.056" r="4" fill="#0" id="circle81"/>
	<circle cx="611.944" cy="57.3889" r="4" fill="#0" id="circle82"/>
	<circle cx="617.111" cy="556.833" r="4" fill="#0" id="circle83"/>
	<circle cx="629.167" cy="64.2778" r="4" fill="#0" id="circle84"/>
	<circle cx="630.889" cy="544.778" r="4" fill="#0" id="circle85"/>
	<circle cx="644.667" cy="72.8889" r="4" fill="#0" id="circle86"/>
	<circle cx="648.111" cy="536.167" r="4" fill="#0" id="circle87"/>
	<circle cx="660.167" cy="81.5" r="4" fill="#0" id="circle88"/>
	<circle cx="660.167" cy="513.778" r="4" fill="#0" id="circle89"/>
	<circle cx="673.944" cy="501.722" r="4" fill="#0" id="circle90"/>
	<circle cx="677.389" cy="86.6667" r="4" fill="#0" id="circle91"/>
	<circle cx="686" cy="470.722" r="4" fill="#0" id="circle92"/>
	<circle cx="686" cy="487.944" r="4" fill="#0" id="circle93"/>
	<circle cx="689.444" cy="100.444" r="4" fill="#0" id="circle94"/>
	<circle cx="694.611" cy="453.5" r="4" fill="#0" id="circle95"/>
	<circle cx="703.222" cy="112.5" r="4" fill="#0" id="circle96"/>
	<circle cx="708.389" cy="441.444" r="4" fill="#0" id="circle97"/>
	<circle cx="718.722" cy="121.111" r="4" fill="#0" id="circle98"/>
	<circle cx="720.444" cy="419.056" r="4" fill="#0" id="circle99"/>
	<circle cx="729.056" cy="393.222" r="4" fill="#0" id="circle100"/>
	<circle cx="735.944" cy="128" r="4" fill="#0" id="circle101"/>
	<circle cx="737.667" cy="376" r="4" fill="#0" id="circle102"/>
	<circle cx="746.278" cy="141.778" r="4" fill="#0" id="circle103"/>
	<circle cx="746.278" cy="358.778" r="4" fill="#0" id="circle104"/>
	<circle cx="760.056" cy="346.722" r="4" fill="#0" id="circle105"/>
	<circle cx="763.5" cy="146.944" r="4" fill="#0" id="circle106"/>
	<circle cx="763.5" cy="315.722" r="4" fill="#0" id="circle107"/>
	<circle cx="772.111" cy="298.5" r="4" fill="#0" id="circle108"/>
	<circle cx="780.722" cy="150.389" r="4" fill="#0" id="circle109"/>
	<circle cx="785.889" cy="286.444" r="4" fill="#0" id="circle110"/>
	<circle cx="796.222" cy="141.778" r="4" fill="#0" id="circle111"/>
	<circle cx="803.111" cy="281.278" r="4" fill="#0" id="circle112"/>
	<circle cx="811.722" cy="133.167" r="4" fill="#0" id="circle113"/>
	<circle cx="820.333" cy="281.278" r="4" fill="#0" id="circle114"/>
	<circle cx="823.778" cy="119.389" r="4" fill="#0" id="circle115"/>
	<circle cx="837.556" cy="107.333" r="4" fill="#0" id="circle116"/>
	<circle cx="837.556" cy="281.278" r="4" fill="#0" id="circle117"/>
	<circle cx="853.056" cy="98.7222" r="4" fill="#0" id="circle118"/>
	<circle cx="854.778" cy="281.278" r="4" fill="#0" id="circle119"/>
	<circle cx="866.833" cy="84.9444" r="4" fill="#0" id="circle120"/>
	<circle cx="870.278" cy="289.889" r="4" fill="#0" id="circle121"/>
	<circle cx="880.611" cy="72.8889" r="4" fill="#0" id="circle122"/>
	<circle cx="887.5" cy="289.889" r="4" fill="#0" id="circle123"/>
	<circle cx="896.111" cy="64.2778" r="4" fill="#0" id="circle124"/>
	<circle cx="904.722" cy="289.889" r="4" fill="#0" id="circle125"/>
	<circle cx="913.333" cy="64.2778" r="4" fill="#0" id="circle126"/>
	<circle cx="920.222" cy="298.5" r="4" fill="#0" id="circle127"/>
	<circle cx="930.556" cy="64.2778" r="4" fill="#0" id="circle128"/>
	<circle cx="937.444" cy="298.5" r="4" fill="#0" id="circle129"/>
	<circle cx="944.333" cy="74.6111" r="4" fill="#0" id="circle130"/>
	<circle cx="947.778" cy="91.8333" r="4" fill="#0" id="circle131"/>
	<circle cx="954.667" cy="298.5" r="4" fill="#0" id="circle132"/>
	<circle cx="956.389" cy="107.333" r="4" fill="#0" id="circle133"/>
	<circle cx="968.444" cy="121.111" r="4" fill="#0" id="circle134"/>
	<circle cx="971.889" cy="298.5" r="4" fill="#0" id="circle135"/>
	<circle cx="977.056" cy="136.611" r="4" fill="#0" id="circle136"/>
	<circle cx="978.778" cy="153.833" r="4" fill="#0" id="circle137"/>
	<circle cx="983.944" cy="171.056" r="4" fill="#0" id="circle138"/>
	<circle cx="987.389" cy="188.278" r="4" fill="#0" id="circle139"/>
	<circle cx="987.389" cy="221" r="4" fill="#0" id="circle140"/>
	<circle cx="987.389" cy="238.222" r="4" fill="#0" id="circle141"/>
	<circle cx="987.389" cy="255.444" r="4" fill="#0" id="circle142"/>
	<circle cx="987.389" cy="272.667" r="4" fill="#0" id="circle143"/>
	<circle cx="987.389" cy="289.889" r="4" fill="#0" id="circle144"/>
	<circle cx="996" cy="203.778" r="4" fill="#0" id="circle145"/>
	</g>
</svg>