<?xml version="1.0" encoding="UTF-8" standalone="no"?>
<!-- Created with CurveBenchmark -->
<svg
	xmlns:dc="http://purl.org/dc/elements/1.1/"
	xmlns:cc="http://creativecommons.org/ns#"
	xmlns:rdf="http://www.w3.org/1999/02/22-rdf-syntax-ns#"
	xmlns:svg="http://www.w3.org/2000/svg"
	xmlns="http://www.w3.org/2000/svg"
	xmlns:sodipodi="http://sodipodi.sourceforge.net/DTD/sodipodi-0.dtd"
	xmlns:inkscape="http://www.inkscape.org/namespaces/inkscape"
	width="1000"
	height="1000"
	id="svg2"
	version="1.1"
	sodipodi:docname="manifold/peel-sink190.png.txt">
<defs
	id="defs4" />
<metadata
	id="metadata7">
	<rdf:RDF>
		<cc:Work
			rdf:about="">
			<dc:format>image/svg+xml</dc:format>
			<dc:type
				rdf:resource="http://purl.org/dc/dcmitype/StillImage" />
			<dc:title></dc:title>
		</cc:Work>
	</rdf:RDF>
</metadata>
<g
	inkscape:label="Layer 1"
	inkscape:groupmode="layer"
	id="layer1">
	<path style="fill:none;stroke:red;stroke-width:1px;stroke-linecap:butt;stroke-linejoin:miter;stroke-opacity:1" d="M 4,287.429 43.0936,258.108 z" id="boundary" inkscape:connector-curvature="0" />
	<path style="fill:none;stroke:red;stroke-width:1px;stroke-linecap:butt;stroke-linejoin:miter;stroke-opacity:1" d="M 4,287.429 47.9803,311.862 z" id="boundary" inkscape:connector-curvature="0" />
	<path style="fill:none;stroke:red;stroke-width:1px;stroke-linecap:butt;stroke-linejoin:miter;stroke-opacity:1" d="M 179.921,482.897 179.921,531.764 z" id="boundary" inkscape:connector-curvature="0" />
	<path style="fill:none;stroke:red;stroke-width:1px;stroke-linecap:butt;stroke-linejoin:miter;stroke-opacity:1" d="M 43.0936,258.108 91.9606,258.108 z" id="boundary" inkscape:connector-curvature="0" />
	<path style="fill:none;stroke:red;stroke-width:1px;stroke-linecap:butt;stroke-linejoin:miter;stroke-opacity:1" d="M 96.8473,311.862 47.9803,311.862 z" id="boundary" inkscape:connector-curvature="0" />
	<path style="fill:none;stroke:red;stroke-width:1px;stroke-linecap:butt;stroke-linejoin:miter;stroke-opacity:1" d="M 150.601,922.7 121.281,961.793 z" id="boundary" inkscape:connector-curvature="0" />
	<path style="fill:none;stroke:red;stroke-width:1px;stroke-linecap:butt;stroke-linejoin:miter;stroke-opacity:1" d="M 121.281,961.793 160.374,996 z" id="boundary" inkscape:connector-curvature="0" />
	<path style="fill:none;stroke:red;stroke-width:1px;stroke-linecap:butt;stroke-linejoin:miter;stroke-opacity:1" d="M 96.8473,311.862 140.828,336.296 z" id="boundary" inkscape:connector-curvature="0" />
	<path style="fill:none;stroke:red;stroke-width:1px;stroke-linecap:butt;stroke-linejoin:miter;stroke-opacity:1" d="M 140.828,336.296 160.374,385.163 z" id="boundary" inkscape:connector-curvature="0" />
	<path style="fill:none;stroke:red;stroke-width:1px;stroke-linecap:butt;stroke-linejoin:miter;stroke-opacity:1" d="M 91.9606,258.108 140.828,258.108 z" id="boundary" inkscape:connector-curvature="0" />
	<path style="fill:none;stroke:red;stroke-width:1px;stroke-linecap:butt;stroke-linejoin:miter;stroke-opacity:1" d="M 140.828,258.108 189.695,258.108 z" id="boundary" inkscape:connector-curvature="0" />
	<path style="fill:none;stroke:red;stroke-width:1px;stroke-linecap:butt;stroke-linejoin:miter;stroke-opacity:1" d="M 179.921,482.897 179.921,434.03 z" id="boundary" inkscape:connector-curvature="0" />
	<path style="fill:none;stroke:red;stroke-width:1px;stroke-linecap:butt;stroke-linejoin:miter;stroke-opacity:1" d="M 179.921,434.03 160.374,385.163 z" id="boundary" inkscape:connector-curvature="0" />
	<path style="fill:none;stroke:red;stroke-width:1px;stroke-linecap:butt;stroke-linejoin:miter;stroke-opacity:1" d="M 150.601,922.7 170.148,873.833 z" id="boundary" inkscape:connector-curvature="0" />
	<path style="fill:none;stroke:red;stroke-width:1px;stroke-linecap:butt;stroke-linejoin:miter;stroke-opacity:1" d="M 170.148,873.833 179.921,824.966 z" id="boundary" inkscape:connector-curvature="0" />
	<path style="fill:none;stroke:red;stroke-width:1px;stroke-linecap:butt;stroke-linejoin:miter;stroke-opacity:1" d="M 160.374,996 209.241,996 z" id="boundary" inkscape:connector-curvature="0" />
	<path style="fill:none;stroke:red;stroke-width:1px;stroke-linecap:butt;stroke-linejoin:miter;stroke-opacity:1" d="M 179.921,580.631 179.921,531.764 z" id="boundary" inkscape:connector-curvature="0" />
	<path style="fill:none;stroke:red;stroke-width:1px;stroke-linecap:butt;stroke-linejoin:miter;stroke-opacity:1" d="M 238.562,248.335 189.695,258.108 z" id="boundary" inkscape:connector-curvature="0" />
	<path style="fill:none;stroke:red;stroke-width:1px;stroke-linecap:butt;stroke-linejoin:miter;stroke-opacity:1" d="M 179.921,629.498 179.921,580.631 z" id="boundary" inkscape:connector-curvature="0" />
	<path style="fill:none;stroke:red;stroke-width:1px;stroke-linecap:butt;stroke-linejoin:miter;stroke-opacity:1" d="M 179.921,678.365 179.921,629.498 z" id="boundary" inkscape:connector-curvature="0" />
	<path style="fill:none;stroke:red;stroke-width:1px;stroke-linecap:butt;stroke-linejoin:miter;stroke-opacity:1" d="M 375.389,160.374 326.522,160.374 z" id="boundary" inkscape:connector-curvature="0" />
	<path style="fill:none;stroke:red;stroke-width:1px;stroke-linecap:butt;stroke-linejoin:miter;stroke-opacity:1" d="M 179.921,727.232 179.921,678.365 z" id="boundary" inkscape:connector-curvature="0" />
	<path style="fill:none;stroke:red;stroke-width:1px;stroke-linecap:butt;stroke-linejoin:miter;stroke-opacity:1" d="M 238.562,248.335 267.882,209.241 z" id="boundary" inkscape:connector-curvature="0" />
	<path style="fill:none;stroke:red;stroke-width:1px;stroke-linecap:butt;stroke-linejoin:miter;stroke-opacity:1" d="M 179.921,776.099 179.921,727.232 z" id="boundary" inkscape:connector-curvature="0" />
	<path style="fill:none;stroke:red;stroke-width:1px;stroke-linecap:butt;stroke-linejoin:miter;stroke-opacity:1" d="M 350.956,512.217 350.956,463.35 z" id="boundary" inkscape:connector-curvature="0" />
	<path style="fill:none;stroke:red;stroke-width:1px;stroke-linecap:butt;stroke-linejoin:miter;stroke-opacity:1" d="M 179.921,824.966 179.921,776.099 z" id="boundary" inkscape:connector-curvature="0" />
	<path style="fill:none;stroke:red;stroke-width:1px;stroke-linecap:butt;stroke-linejoin:miter;stroke-opacity:1" d="M 350.956,561.084 350.956,609.951 z" id="boundary" inkscape:connector-curvature="0" />
	<path style="fill:none;stroke:red;stroke-width:1px;stroke-linecap:butt;stroke-linejoin:miter;stroke-opacity:1" d="M 350.956,854.286 350.956,805.419 z" id="boundary" inkscape:connector-curvature="0" />
	<path style="fill:none;stroke:red;stroke-width:1px;stroke-linecap:butt;stroke-linejoin:miter;stroke-opacity:1" d="M 350.956,609.951 350.956,658.818 z" id="boundary" inkscape:connector-curvature="0" />
	<path style="fill:none;stroke:red;stroke-width:1px;stroke-linecap:butt;stroke-linejoin:miter;stroke-opacity:1" d="M 209.241,996 258.108,996 z" id="boundary" inkscape:connector-curvature="0" />
	<path style="fill:none;stroke:red;stroke-width:1px;stroke-linecap:butt;stroke-linejoin:miter;stroke-opacity:1" d="M 267.882,209.241 277.655,160.374 z" id="boundary" inkscape:connector-curvature="0" />
	<path style="fill:none;stroke:red;stroke-width:1px;stroke-linecap:butt;stroke-linejoin:miter;stroke-opacity:1" d="M 277.655,160.374 326.522,160.374 z" id="boundary" inkscape:connector-curvature="0" />
	<path style="fill:none;stroke:red;stroke-width:1px;stroke-linecap:butt;stroke-linejoin:miter;stroke-opacity:1" d="M 350.956,512.217 350.956,561.084 z" id="boundary" inkscape:connector-curvature="0" />
	<path style="fill:none;stroke:red;stroke-width:1px;stroke-linecap:butt;stroke-linejoin:miter;stroke-opacity:1" d="M 258.108,996 306.975,996 z" id="boundary" inkscape:connector-curvature="0" />
	<path style="fill:none;stroke:red;stroke-width:1px;stroke-linecap:butt;stroke-linejoin:miter;stroke-opacity:1" d="M 380.276,77.3005 355.842,33.3202 z" id="boundary" inkscape:connector-curvature="0" />
	<path style="fill:none;stroke:red;stroke-width:1px;stroke-linecap:butt;stroke-linejoin:miter;stroke-opacity:1" d="M 350.956,658.818 350.956,707.685 z" id="boundary" inkscape:connector-curvature="0" />
	<path style="fill:none;stroke:red;stroke-width:1px;stroke-linecap:butt;stroke-linejoin:miter;stroke-opacity:1" d="M 350.956,707.685 350.956,756.552 z" id="boundary" inkscape:connector-curvature="0" />
	<path style="fill:none;stroke:red;stroke-width:1px;stroke-linecap:butt;stroke-linejoin:miter;stroke-opacity:1" d="M 350.956,463.35 399.823,448.69 z" id="boundary" inkscape:connector-curvature="0" />
	<path style="fill:none;stroke:red;stroke-width:1px;stroke-linecap:butt;stroke-linejoin:miter;stroke-opacity:1" d="M 350.956,805.419 350.956,756.552 z" id="boundary" inkscape:connector-curvature="0" />
	<path style="fill:none;stroke:red;stroke-width:1px;stroke-linecap:butt;stroke-linejoin:miter;stroke-opacity:1" d="M 365.616,903.153 350.956,854.286 z" id="boundary" inkscape:connector-curvature="0" />
	<path style="fill:none;stroke:red;stroke-width:1px;stroke-linecap:butt;stroke-linejoin:miter;stroke-opacity:1" d="M 365.616,903.153 390.049,947.133 z" id="boundary" inkscape:connector-curvature="0" />
	<path style="fill:none;stroke:red;stroke-width:1px;stroke-linecap:butt;stroke-linejoin:miter;stroke-opacity:1" d="M 390.049,947.133 355.842,996 z" id="boundary" inkscape:connector-curvature="0" />
	<path style="fill:none;stroke:red;stroke-width:1px;stroke-linecap:butt;stroke-linejoin:miter;stroke-opacity:1" d="M 306.975,996 355.842,996 z" id="boundary" inkscape:connector-curvature="0" />
	<path style="fill:none;stroke:red;stroke-width:1px;stroke-linecap:butt;stroke-linejoin:miter;stroke-opacity:1" d="M 438.916,28.4335 394.936,4 z" id="boundary" inkscape:connector-curvature="0" />
	<path style="fill:none;stroke:red;stroke-width:1px;stroke-linecap:butt;stroke-linejoin:miter;stroke-opacity:1" d="M 448.69,438.916 399.823,448.69 z" id="boundary" inkscape:connector-curvature="0" />
	<path style="fill:none;stroke:red;stroke-width:1px;stroke-linecap:butt;stroke-linejoin:miter;stroke-opacity:1" d="M 355.842,33.3202 394.936,4 z" id="boundary" inkscape:connector-curvature="0" />
	<path style="fill:none;stroke:red;stroke-width:1px;stroke-linecap:butt;stroke-linejoin:miter;stroke-opacity:1" d="M 375.389,160.374 424.256,160.374 z" id="boundary" inkscape:connector-curvature="0" />
	<path style="fill:none;stroke:red;stroke-width:1px;stroke-linecap:butt;stroke-linejoin:miter;stroke-opacity:1" d="M 487.783,404.709 448.69,438.916 z" id="boundary" inkscape:connector-curvature="0" />
	<path style="fill:none;stroke:red;stroke-width:1px;stroke-linecap:butt;stroke-linejoin:miter;stroke-opacity:1" d="M 502.443,101.734 487.783,52.867 z" id="boundary" inkscape:connector-curvature="0" />
	<path style="fill:none;stroke:red;stroke-width:1px;stroke-linecap:butt;stroke-linejoin:miter;stroke-opacity:1" d="M 644.158,311.862 693.025,311.862 z" id="boundary" inkscape:connector-curvature="0" />
	<path style="fill:none;stroke:red;stroke-width:1px;stroke-linecap:butt;stroke-linejoin:miter;stroke-opacity:1" d="M 473.123,160.374 424.256,160.374 z" id="boundary" inkscape:connector-curvature="0" />
	<path style="fill:none;stroke:red;stroke-width:1px;stroke-linecap:butt;stroke-linejoin:miter;stroke-opacity:1" d="M 595.291,311.862 546.424,311.862 z" id="boundary" inkscape:connector-curvature="0" />
	<path style="fill:none;stroke:red;stroke-width:1px;stroke-linecap:butt;stroke-linejoin:miter;stroke-opacity:1" d="M 546.424,311.862 507.33,346.069 z" id="boundary" inkscape:connector-curvature="0" />
	<path style="fill:none;stroke:red;stroke-width:1px;stroke-linecap:butt;stroke-linejoin:miter;stroke-opacity:1" d="M 438.916,28.4335 482.897,4 z" id="boundary" inkscape:connector-curvature="0" />
	<path style="fill:none;stroke:red;stroke-width:1px;stroke-linecap:butt;stroke-linejoin:miter;stroke-opacity:1" d="M 482.897,4 487.783,52.867 z" id="boundary" inkscape:connector-curvature="0" />
	<path style="fill:none;stroke:red;stroke-width:1px;stroke-linecap:butt;stroke-linejoin:miter;stroke-opacity:1" d="M 487.783,404.709 507.33,346.069 z" id="boundary" inkscape:connector-curvature="0" />
	<path style="fill:none;stroke:red;stroke-width:1px;stroke-linecap:butt;stroke-linejoin:miter;stroke-opacity:1" d="M 502.443,101.734 536.65,140.828 z" id="boundary" inkscape:connector-curvature="0" />
	<path style="fill:none;stroke:red;stroke-width:1px;stroke-linecap:butt;stroke-linejoin:miter;stroke-opacity:1" d="M 536.65,140.828 585.517,160.374 z" id="boundary" inkscape:connector-curvature="0" />
	<path style="fill:none;stroke:red;stroke-width:1px;stroke-linecap:butt;stroke-linejoin:miter;stroke-opacity:1" d="M 595.291,311.862 644.158,311.862 z" id="boundary" inkscape:connector-curvature="0" />
	<path style="fill:none;stroke:red;stroke-width:1px;stroke-linecap:butt;stroke-linejoin:miter;stroke-opacity:1" d="M 585.517,160.374 634.384,160.374 z" id="boundary" inkscape:connector-curvature="0" />
	<path style="fill:none;stroke:red;stroke-width:1px;stroke-linecap:butt;stroke-linejoin:miter;stroke-opacity:1" d="M 634.384,160.374 683.251,160.374 z" id="boundary" inkscape:connector-curvature="0" />
	<path style="fill:none;stroke:red;stroke-width:1px;stroke-linecap:butt;stroke-linejoin:miter;stroke-opacity:1" d="M 683.251,160.374 693.025,209.241 z" id="boundary" inkscape:connector-curvature="0" />
	<path style="fill:none;stroke:red;stroke-width:1px;stroke-linecap:butt;stroke-linejoin:miter;stroke-opacity:1" d="M 693.025,209.241 693.025,258.108 z" id="boundary" inkscape:connector-curvature="0" />
	<path style="fill:none;stroke:red;stroke-width:1px;stroke-linecap:butt;stroke-linejoin:miter;stroke-opacity:1" d="M 693.025,311.862 693.025,258.108 z" id="boundary" inkscape:connector-curvature="0" />
	<circle cx="4" cy="287.429" r="4" fill="#0" id="circle0"/>
	<circle cx="43.0936" cy="258.108" r="4" fill="#0" id="circle1"/>
	<circle cx="47.9803" cy="311.862" r="4" fill="#0" id="circle2"/>
	<circle cx="91.9606" cy="258.108" r="4" fill="#0" id="circle3"/>
	<circle cx="96.8473" cy="311.862" r="4" fill="#0" id="circle4"/>
	<circle cx="121.281" cy="961.793" r="4" fill="#0" id="circle5"/>
	<circle cx="140.828" cy="258.108" r="4" fill="#0" id="circle6"/>
	<circle cx="140.828" cy="336.296" r="4" fill="#0" id="circle7"/>
	<circle cx="150.601" cy="922.7" r="4" fill="#0" id="circle8"/>
	<circle cx="160.374" cy="385.163" r="4" fill="#0" id="circle9"/>
	<circle cx="160.374" cy="996" r="4" fill="#0" id="circle10"/>
	<circle cx="170.148" cy="873.833" r="4" fill="#0" id="circle11"/>
	<circle cx="179.921" cy="434.03" r="4" fill="#0" id="circle12"/>
	<circle cx="179.921" cy="482.897" r="4" fill="#0" id="circle13"/>
	<circle cx="179.921" cy="531.764" r="4" fill="#0" id="circle14"/>
	<circle cx="179.921" cy="580.631" r="4" fill="#0" id="circle15"/>
	<circle cx="179.921" cy="629.498" r="4" fill="#0" id="circle16"/>
	<circle cx="179.921" cy="678.365" r="4" fill="#0" id="circle17"/>
	<circle cx="179.921" cy="727.232" r="4" fill="#0" id="circle18"/>
	<circle cx="179.921" cy="776.099" r="4" fill="#0" id="circle19"/>
	<circle cx="179.921" cy="824.966" r="4" fill="#0" id="circle20"/>
	<circle cx="189.695" cy="258.108" r="4" fill="#0" id="circle21"/>
	<circle cx="209.241" cy="996" r="4" fill="#0" id="circle22"/>
	<circle cx="238.562" cy="248.335" r="4" fill="#0" id="circle23"/>
	<circle cx="258.108" cy="996" r="4" fill="#0" id="circle24"/>
	<circle cx="267.882" cy="209.241" r="4" fill="#0" id="circle25"/>
	<circle cx="277.655" cy="160.374" r="4" fill="#0" id="circle26"/>
	<circle cx="306.975" cy="996" r="4" fill="#0" id="circle27"/>
	<circle cx="326.522" cy="160.374" r="4" fill="#0" id="circle28"/>
	<circle cx="350.956" cy="463.35" r="4" fill="#0" id="circle29"/>
	<circle cx="350.956" cy="512.217" r="4" fill="#0" id="circle30"/>
	<circle cx="350.956" cy="561.084" r="4" fill="#0" id="circle31"/>
	<circle cx="350.956" cy="609.951" r="4" fill="#0" id="circle32"/>
	<circle cx="350.956" cy="658.818" r="4" fill="#0" id="circle33"/>
	<circle cx="350.956" cy="707.685" r="4" fill="#0" id="circle34"/>
	<circle cx="350.956" cy="756.552" r="4" fill="#0" id="circle35"/>
	<circle cx="350.956" cy="805.419" r="4" fill="#0" id="circle36"/>
	<circle cx="350.956" cy="854.286" r="4" fill="#0" id="circle37"/>
	<circle cx="355.842" cy="33.3202" r="4" fill="#0" id="circle38"/>
	<circle cx="355.842" cy="996" r="4" fill="#0" id="circle39"/>
	<circle cx="365.616" cy="903.153" r="4" fill="#0" id="circle40"/>
	<circle cx="375.389" cy="160.374" r="4" fill="#0" id="circle41"/>
	<circle cx="380.276" cy="77.3005" r="4" fill="#0" id="circle42"/>
	<circle cx="390.049" cy="947.133" r="4" fill="#0" id="circle43"/>
	<circle cx="394.936" cy="4" r="4" fill="#0" id="circle44"/>
	<circle cx="399.823" cy="448.69" r="4" fill="#0" id="circle45"/>
	<circle cx="424.256" cy="160.374" r="4" fill="#0" id="circle46"/>
	<circle cx="438.916" cy="28.4335" r="4" fill="#0" id="circle47"/>
	<circle cx="448.69" cy="438.916" r="4" fill="#0" id="circle48"/>
	<circle cx="473.123" cy="160.374" r="4" fill="#0" id="circle49"/>
	<circle cx="482.897" cy="4" r="4" fill="#0" id="circle50"/>
	<circle cx="487.783" cy="52.867" r="4" fill="#0" id="circle51"/>
	<circle cx="487.783" cy="404.709" r="4" fill="#0" id="circle52"/>
	<circle cx="502.443" cy="101.734" r="4" fill="#0" id="circle53"/>
	<circle cx="507.33" cy="346.069" r="4" fill="#0" id="circle54"/>
	<circle cx="536.65" cy="140.828" r="4" fill="#0" id="circle55"/>
	<circle cx="546.424" cy="311.862" r="4" fill="#0" id="circle56"/>
	<circle cx="585.517" cy="160.374" r="4" fill="#0" id="circle57"/>
	<circle cx="595.291" cy="311.862" r="4" fill="#0" id="circle58"/>
	<circle cx="634.384" cy="160.374" r="4" fill="#0" id="circle59"/>
	<circle cx="644.158" cy="311.862" r="4" fill="#0" id="circle60"/>
	<circle cx="683.251" cy="160.374" r="4" fill="#0" id="circle61"/>
	<circle cx="693.025" cy="209.241" r="4" fill="#0" id="circle62"/>
	<circle cx="693.025" cy="258.108" r="4" fill="#0" id="circle63"/>
	<circle cx="693.025" cy="311.862" r="4" fill="#0" id="circle64"/>
	</g>
</svg>