<?xml version="1.0" encoding="UTF-8" standalone="no"?>
<!-- Created with CurveBenchmark -->
<svg
	xmlns:dc="http://purl.org/dc/elements/1.1/"
	xmlns:cc="http://creativecommons.org/ns#"
	xmlns:rdf="http://www.w3.org/1999/02/22-rdf-syntax-ns#"
	xmlns:svg="http://www.w3.org/2000/svg"
	xmlns="http://www.w3.org/2000/svg"
	xmlns:sodipodi="http://sodipodi.sourceforge.net/DTD/sodipodi-0.dtd"
	xmlns:inkscape="http://www.inkscape.org/namespaces/inkscape"
	width="1000"
	height="1000"
	id="svg2"
	version="1.1"
	sodipodi:docname="manifold/peel-textbox43.png.txt">
<defs
	id="defs4" />
<metadata
	id="metadata7">
	<rdf:RDF>
		<cc:Work
			rdf:about="">
			<dc:format>image/svg+xml</dc:format>
			<dc:type
				rdf:resource="http://purl.org/dc/dcmitype/StillImage" />
			<dc:title></dc:title>
		</cc:Work>
	</rdf:RDF>
</metadata>
<g
	inkscape:label="Layer 1"
	inkscape:groupmode="layer"
	id="layer1">
	<path style="fill:none;stroke:red;stroke-width:1px;stroke-linecap:butt;stroke-linejoin:miter;stroke-opacity:1" d="M 24.8403,93.6134 4,104.034 z" id="boundary" inkscape:connector-curvature="0" />
	<path style="fill:none;stroke:red;stroke-width:1px;stroke-linecap:butt;stroke-linejoin:miter;stroke-opacity:1" d="M 4,104.034 4,124.874 z" id="boundary" inkscape:connector-curvature="0" />
	<path style="fill:none;stroke:red;stroke-width:1px;stroke-linecap:butt;stroke-linejoin:miter;stroke-opacity:1" d="M 24.8403,93.6134 24.8403,72.7731 z" id="boundary" inkscape:connector-curvature="0" />
	<path style="fill:none;stroke:red;stroke-width:1px;stroke-linecap:butt;stroke-linejoin:miter;stroke-opacity:1" d="M 4,124.874 4,145.714 z" id="boundary" inkscape:connector-curvature="0" />
	<path style="fill:none;stroke:red;stroke-width:1px;stroke-linecap:butt;stroke-linejoin:miter;stroke-opacity:1" d="M 4,145.714 4,166.555 z" id="boundary" inkscape:connector-curvature="0" />
	<path style="fill:none;stroke:red;stroke-width:1px;stroke-linecap:butt;stroke-linejoin:miter;stroke-opacity:1" d="M 120.706,24.8403 99.8655,24.8403 z" id="boundary" inkscape:connector-curvature="0" />
	<path style="fill:none;stroke:red;stroke-width:1px;stroke-linecap:butt;stroke-linejoin:miter;stroke-opacity:1" d="M 41.5126,56.1008 62.3529,45.6807 z" id="boundary" inkscape:connector-curvature="0" />
	<path style="fill:none;stroke:red;stroke-width:1px;stroke-linecap:butt;stroke-linejoin:miter;stroke-opacity:1" d="M 120.706,24.8403 141.546,24.8403 z" id="boundary" inkscape:connector-curvature="0" />
	<path style="fill:none;stroke:red;stroke-width:1px;stroke-linecap:butt;stroke-linejoin:miter;stroke-opacity:1" d="M 79.0252,29.0084 99.8655,24.8403 z" id="boundary" inkscape:connector-curvature="0" />
	<path style="fill:none;stroke:red;stroke-width:1px;stroke-linecap:butt;stroke-linejoin:miter;stroke-opacity:1" d="M 79.0252,29.0084 62.3529,45.6807 z" id="boundary" inkscape:connector-curvature="0" />
	<path style="fill:none;stroke:red;stroke-width:1px;stroke-linecap:butt;stroke-linejoin:miter;stroke-opacity:1" d="M 4,333.277 4,312.437 z" id="boundary" inkscape:connector-curvature="0" />
	<path style="fill:none;stroke:red;stroke-width:1px;stroke-linecap:butt;stroke-linejoin:miter;stroke-opacity:1" d="M 4,354.118 4,333.277 z" id="boundary" inkscape:connector-curvature="0" />
	<path style="fill:none;stroke:red;stroke-width:1px;stroke-linecap:butt;stroke-linejoin:miter;stroke-opacity:1" d="M 4,374.958 4,354.118 z" id="boundary" inkscape:connector-curvature="0" />
	<path style="fill:none;stroke:red;stroke-width:1px;stroke-linecap:butt;stroke-linejoin:miter;stroke-opacity:1" d="M 4,395.798 4,374.958 z" id="boundary" inkscape:connector-curvature="0" />
	<path style="fill:none;stroke:red;stroke-width:1px;stroke-linecap:butt;stroke-linejoin:miter;stroke-opacity:1" d="M 4,416.639 4,395.798 z" id="boundary" inkscape:connector-curvature="0" />
	<path style="fill:none;stroke:red;stroke-width:1px;stroke-linecap:butt;stroke-linejoin:miter;stroke-opacity:1" d="M 4,437.479 4,416.639 z" id="boundary" inkscape:connector-curvature="0" />
	<path style="fill:none;stroke:red;stroke-width:1px;stroke-linecap:butt;stroke-linejoin:miter;stroke-opacity:1" d="M 4,458.319 4,437.479 z" id="boundary" inkscape:connector-curvature="0" />
	<path style="fill:none;stroke:red;stroke-width:1px;stroke-linecap:butt;stroke-linejoin:miter;stroke-opacity:1" d="M 4,479.16 4,458.319 z" id="boundary" inkscape:connector-curvature="0" />
	<path style="fill:none;stroke:red;stroke-width:1px;stroke-linecap:butt;stroke-linejoin:miter;stroke-opacity:1" d="M 4,479.16 16.5042,495.832 z" id="boundary" inkscape:connector-curvature="0" />
	<path style="fill:none;stroke:red;stroke-width:1px;stroke-linecap:butt;stroke-linejoin:miter;stroke-opacity:1" d="M 24.8403,516.672 16.5042,495.832 z" id="boundary" inkscape:connector-curvature="0" />
	<path style="fill:none;stroke:red;stroke-width:1px;stroke-linecap:butt;stroke-linejoin:miter;stroke-opacity:1" d="M 4,187.395 4,166.555 z" id="boundary" inkscape:connector-curvature="0" />
	<path style="fill:none;stroke:red;stroke-width:1px;stroke-linecap:butt;stroke-linejoin:miter;stroke-opacity:1" d="M 181.143,14.4202 201.983,14.4202 z" id="boundary" inkscape:connector-curvature="0" />
	<path style="fill:none;stroke:red;stroke-width:1px;stroke-linecap:butt;stroke-linejoin:miter;stroke-opacity:1" d="M 56.1008,543.765 66.521,562.521 z" id="boundary" inkscape:connector-curvature="0" />
	<path style="fill:none;stroke:red;stroke-width:1px;stroke-linecap:butt;stroke-linejoin:miter;stroke-opacity:1" d="M 56.1008,543.765 37.3445,533.345 z" id="boundary" inkscape:connector-curvature="0" />
	<path style="fill:none;stroke:red;stroke-width:1px;stroke-linecap:butt;stroke-linejoin:miter;stroke-opacity:1" d="M 24.8403,72.7731 41.5126,56.1008 z" id="boundary" inkscape:connector-curvature="0" />
	<path style="fill:none;stroke:red;stroke-width:1px;stroke-linecap:butt;stroke-linejoin:miter;stroke-opacity:1" d="M 4,187.395 4,208.235 z" id="boundary" inkscape:connector-curvature="0" />
	<path style="fill:none;stroke:red;stroke-width:1px;stroke-linecap:butt;stroke-linejoin:miter;stroke-opacity:1" d="M 24.8403,516.672 37.3445,533.345 z" id="boundary" inkscape:connector-curvature="0" />
	<path style="fill:none;stroke:red;stroke-width:1px;stroke-linecap:butt;stroke-linejoin:miter;stroke-opacity:1" d="M 87.3613,568.773 99.8655,585.445 z" id="boundary" inkscape:connector-curvature="0" />
	<path style="fill:none;stroke:red;stroke-width:1px;stroke-linecap:butt;stroke-linejoin:miter;stroke-opacity:1" d="M 87.3613,568.773 66.521,562.521 z" id="boundary" inkscape:connector-curvature="0" />
	<path style="fill:none;stroke:red;stroke-width:1px;stroke-linecap:butt;stroke-linejoin:miter;stroke-opacity:1" d="M 4,208.235 4,229.076 z" id="boundary" inkscape:connector-curvature="0" />
	<path style="fill:none;stroke:red;stroke-width:1px;stroke-linecap:butt;stroke-linejoin:miter;stroke-opacity:1" d="M 141.546,24.8403 160.303,14.4202 z" id="boundary" inkscape:connector-curvature="0" />
	<path style="fill:none;stroke:red;stroke-width:1px;stroke-linecap:butt;stroke-linejoin:miter;stroke-opacity:1" d="M 160.303,14.4202 181.143,14.4202 z" id="boundary" inkscape:connector-curvature="0" />
	<path style="fill:none;stroke:red;stroke-width:1px;stroke-linecap:butt;stroke-linejoin:miter;stroke-opacity:1" d="M 118.622,595.866 135.294,610.454 z" id="boundary" inkscape:connector-curvature="0" />
	<path style="fill:none;stroke:red;stroke-width:1px;stroke-linecap:butt;stroke-linejoin:miter;stroke-opacity:1" d="M 118.622,595.866 99.8655,585.445 z" id="boundary" inkscape:connector-curvature="0" />
	<path style="fill:none;stroke:red;stroke-width:1px;stroke-linecap:butt;stroke-linejoin:miter;stroke-opacity:1" d="M 222.824,14.4202 201.983,14.4202 z" id="boundary" inkscape:connector-curvature="0" />
	<path style="fill:none;stroke:red;stroke-width:1px;stroke-linecap:butt;stroke-linejoin:miter;stroke-opacity:1" d="M 381.21,589.613 402.05,589.613 z" id="boundary" inkscape:connector-curvature="0" />
	<path style="fill:none;stroke:red;stroke-width:1px;stroke-linecap:butt;stroke-linejoin:miter;stroke-opacity:1" d="M 4,249.916 4,229.076 z" id="boundary" inkscape:connector-curvature="0" />
	<path style="fill:none;stroke:red;stroke-width:1px;stroke-linecap:butt;stroke-linejoin:miter;stroke-opacity:1" d="M 135.294,610.454 156.134,610.454 z" id="boundary" inkscape:connector-curvature="0" />
	<path style="fill:none;stroke:red;stroke-width:1px;stroke-linecap:butt;stroke-linejoin:miter;stroke-opacity:1" d="M 610.454,652.134 618.79,672.975 z" id="boundary" inkscape:connector-curvature="0" />
	<path style="fill:none;stroke:red;stroke-width:1px;stroke-linecap:butt;stroke-linejoin:miter;stroke-opacity:1" d="M 610.454,652.134 589.613,647.966 z" id="boundary" inkscape:connector-curvature="0" />
	<path style="fill:none;stroke:red;stroke-width:1px;stroke-linecap:butt;stroke-linejoin:miter;stroke-opacity:1" d="M 222.824,14.4202 243.664,14.4202 z" id="boundary" inkscape:connector-curvature="0" />
	<path style="fill:none;stroke:red;stroke-width:1px;stroke-linecap:butt;stroke-linejoin:miter;stroke-opacity:1" d="M 156.134,610.454 176.975,610.454 z" id="boundary" inkscape:connector-curvature="0" />
	<path style="fill:none;stroke:red;stroke-width:1px;stroke-linecap:butt;stroke-linejoin:miter;stroke-opacity:1" d="M 422.891,589.613 402.05,589.613 z" id="boundary" inkscape:connector-curvature="0" />
	<path style="fill:none;stroke:red;stroke-width:1px;stroke-linecap:butt;stroke-linejoin:miter;stroke-opacity:1" d="M 4,249.916 4,270.756 z" id="boundary" inkscape:connector-curvature="0" />
	<path style="fill:none;stroke:red;stroke-width:1px;stroke-linecap:butt;stroke-linejoin:miter;stroke-opacity:1" d="M 639.63,731.328 641.714,752.168 z" id="boundary" inkscape:connector-curvature="0" />
	<path style="fill:none;stroke:red;stroke-width:1px;stroke-linecap:butt;stroke-linejoin:miter;stroke-opacity:1" d="M 639.63,731.328 629.21,712.571 z" id="boundary" inkscape:connector-curvature="0" />
	<path style="fill:none;stroke:red;stroke-width:1px;stroke-linecap:butt;stroke-linejoin:miter;stroke-opacity:1" d="M 243.664,14.4202 264.504,14.4202 z" id="boundary" inkscape:connector-curvature="0" />
	<path style="fill:none;stroke:red;stroke-width:1px;stroke-linecap:butt;stroke-linejoin:miter;stroke-opacity:1" d="M 176.975,610.454 197.815,610.454 z" id="boundary" inkscape:connector-curvature="0" />
	<path style="fill:none;stroke:red;stroke-width:1px;stroke-linecap:butt;stroke-linejoin:miter;stroke-opacity:1" d="M 629.21,712.571 618.79,693.815 z" id="boundary" inkscape:connector-curvature="0" />
	<path style="fill:none;stroke:red;stroke-width:1px;stroke-linecap:butt;stroke-linejoin:miter;stroke-opacity:1" d="M 4,270.756 4,291.597 z" id="boundary" inkscape:connector-curvature="0" />
	<path style="fill:none;stroke:red;stroke-width:1px;stroke-linecap:butt;stroke-linejoin:miter;stroke-opacity:1" d="M 197.815,610.454 218.655,610.454 z" id="boundary" inkscape:connector-curvature="0" />
	<path style="fill:none;stroke:red;stroke-width:1px;stroke-linecap:butt;stroke-linejoin:miter;stroke-opacity:1" d="M 256.168,589.613 277.008,589.613 z" id="boundary" inkscape:connector-curvature="0" />
	<path style="fill:none;stroke:red;stroke-width:1px;stroke-linecap:butt;stroke-linejoin:miter;stroke-opacity:1" d="M 256.168,589.613 239.496,610.454 z" id="boundary" inkscape:connector-curvature="0" />
	<path style="fill:none;stroke:red;stroke-width:1px;stroke-linecap:butt;stroke-linejoin:miter;stroke-opacity:1" d="M 285.345,14.4202 264.504,14.4202 z" id="boundary" inkscape:connector-curvature="0" />
	<path style="fill:none;stroke:red;stroke-width:1px;stroke-linecap:butt;stroke-linejoin:miter;stroke-opacity:1" d="M 218.655,610.454 239.496,610.454 z" id="boundary" inkscape:connector-curvature="0" />
	<path style="fill:none;stroke:red;stroke-width:1px;stroke-linecap:butt;stroke-linejoin:miter;stroke-opacity:1" d="M 277.008,589.613 297.849,589.613 z" id="boundary" inkscape:connector-curvature="0" />
	<path style="fill:none;stroke:red;stroke-width:1px;stroke-linecap:butt;stroke-linejoin:miter;stroke-opacity:1" d="M 4,312.437 4,291.597 z" id="boundary" inkscape:connector-curvature="0" />
	<path style="fill:none;stroke:red;stroke-width:1px;stroke-linecap:butt;stroke-linejoin:miter;stroke-opacity:1" d="M 297.849,589.613 318.689,589.613 z" id="boundary" inkscape:connector-curvature="0" />
	<path style="fill:none;stroke:red;stroke-width:1px;stroke-linecap:butt;stroke-linejoin:miter;stroke-opacity:1" d="M 318.689,589.613 339.529,589.613 z" id="boundary" inkscape:connector-curvature="0" />
	<path style="fill:none;stroke:red;stroke-width:1px;stroke-linecap:butt;stroke-linejoin:miter;stroke-opacity:1" d="M 285.345,14.4202 306.185,14.4202 z" id="boundary" inkscape:connector-curvature="0" />
	<path style="fill:none;stroke:red;stroke-width:1px;stroke-linecap:butt;stroke-linejoin:miter;stroke-opacity:1" d="M 339.529,589.613 360.37,589.613 z" id="boundary" inkscape:connector-curvature="0" />
	<path style="fill:none;stroke:red;stroke-width:1px;stroke-linecap:butt;stroke-linejoin:miter;stroke-opacity:1" d="M 306.185,14.4202 327.025,14.4202 z" id="boundary" inkscape:connector-curvature="0" />
	<path style="fill:none;stroke:red;stroke-width:1px;stroke-linecap:butt;stroke-linejoin:miter;stroke-opacity:1" d="M 422.891,589.613 443.731,589.613 z" id="boundary" inkscape:connector-curvature="0" />
	<path style="fill:none;stroke:red;stroke-width:1px;stroke-linecap:butt;stroke-linejoin:miter;stroke-opacity:1" d="M 327.025,14.4202 347.866,14.4202 z" id="boundary" inkscape:connector-curvature="0" />
	<path style="fill:none;stroke:red;stroke-width:1px;stroke-linecap:butt;stroke-linejoin:miter;stroke-opacity:1" d="M 618.79,672.975 618.79,693.815 z" id="boundary" inkscape:connector-curvature="0" />
	<path style="fill:none;stroke:red;stroke-width:1px;stroke-linecap:butt;stroke-linejoin:miter;stroke-opacity:1" d="M 347.866,14.4202 368.706,14.4202 z" id="boundary" inkscape:connector-curvature="0" />
	<path style="fill:none;stroke:red;stroke-width:1px;stroke-linecap:butt;stroke-linejoin:miter;stroke-opacity:1" d="M 360.37,589.613 381.21,589.613 z" id="boundary" inkscape:connector-curvature="0" />
	<path style="fill:none;stroke:red;stroke-width:1px;stroke-linecap:butt;stroke-linejoin:miter;stroke-opacity:1" d="M 464.571,589.613 443.731,589.613 z" id="boundary" inkscape:connector-curvature="0" />
	<path style="fill:none;stroke:red;stroke-width:1px;stroke-linecap:butt;stroke-linejoin:miter;stroke-opacity:1" d="M 368.706,14.4202 389.546,14.4202 z" id="boundary" inkscape:connector-curvature="0" />
	<path style="fill:none;stroke:red;stroke-width:1px;stroke-linecap:butt;stroke-linejoin:miter;stroke-opacity:1" d="M 485.412,589.613 464.571,589.613 z" id="boundary" inkscape:connector-curvature="0" />
	<path style="fill:none;stroke:red;stroke-width:1px;stroke-linecap:butt;stroke-linejoin:miter;stroke-opacity:1" d="M 389.546,14.4202 410.387,14.4202 z" id="boundary" inkscape:connector-curvature="0" />
	<path style="fill:none;stroke:red;stroke-width:1px;stroke-linecap:butt;stroke-linejoin:miter;stroke-opacity:1" d="M 506.252,589.613 485.412,589.613 z" id="boundary" inkscape:connector-curvature="0" />
	<path style="fill:none;stroke:red;stroke-width:1px;stroke-linecap:butt;stroke-linejoin:miter;stroke-opacity:1" d="M 410.387,14.4202 431.227,14.4202 z" id="boundary" inkscape:connector-curvature="0" />
	<path style="fill:none;stroke:red;stroke-width:1px;stroke-linecap:butt;stroke-linejoin:miter;stroke-opacity:1" d="M 527.092,589.613 506.252,589.613 z" id="boundary" inkscape:connector-curvature="0" />
	<path style="fill:none;stroke:red;stroke-width:1px;stroke-linecap:butt;stroke-linejoin:miter;stroke-opacity:1" d="M 431.227,14.4202 452.067,14.4202 z" id="boundary" inkscape:connector-curvature="0" />
	<path style="fill:none;stroke:red;stroke-width:1px;stroke-linecap:butt;stroke-linejoin:miter;stroke-opacity:1" d="M 587.529,627.126 589.613,647.966 z" id="boundary" inkscape:connector-curvature="0" />
	<path style="fill:none;stroke:red;stroke-width:1px;stroke-linecap:butt;stroke-linejoin:miter;stroke-opacity:1" d="M 452.067,14.4202 470.824,4 z" id="boundary" inkscape:connector-curvature="0" />
	<path style="fill:none;stroke:red;stroke-width:1px;stroke-linecap:butt;stroke-linejoin:miter;stroke-opacity:1" d="M 470.824,4 491.664,4 z" id="boundary" inkscape:connector-curvature="0" />
	<path style="fill:none;stroke:red;stroke-width:1px;stroke-linecap:butt;stroke-linejoin:miter;stroke-opacity:1" d="M 547.933,589.613 527.092,589.613 z" id="boundary" inkscape:connector-curvature="0" />
	<path style="fill:none;stroke:red;stroke-width:1px;stroke-linecap:butt;stroke-linejoin:miter;stroke-opacity:1" d="M 491.664,4 512.504,4 z" id="boundary" inkscape:connector-curvature="0" />
	<path style="fill:none;stroke:red;stroke-width:1px;stroke-linecap:butt;stroke-linejoin:miter;stroke-opacity:1" d="M 587.529,627.126 581.277,606.286 z" id="boundary" inkscape:connector-curvature="0" />
	<path style="fill:none;stroke:red;stroke-width:1px;stroke-linecap:butt;stroke-linejoin:miter;stroke-opacity:1" d="M 512.504,4 533.345,4 z" id="boundary" inkscape:connector-curvature="0" />
	<path style="fill:none;stroke:red;stroke-width:1px;stroke-linecap:butt;stroke-linejoin:miter;stroke-opacity:1" d="M 547.933,589.613 568.773,589.613 z" id="boundary" inkscape:connector-curvature="0" />
	<path style="fill:none;stroke:red;stroke-width:1px;stroke-linecap:butt;stroke-linejoin:miter;stroke-opacity:1" d="M 568.773,589.613 581.277,606.286 z" id="boundary" inkscape:connector-curvature="0" />
	<path style="fill:none;stroke:red;stroke-width:1px;stroke-linecap:butt;stroke-linejoin:miter;stroke-opacity:1" d="M 533.345,4 554.185,4 z" id="boundary" inkscape:connector-curvature="0" />
	<path style="fill:none;stroke:red;stroke-width:1px;stroke-linecap:butt;stroke-linejoin:miter;stroke-opacity:1" d="M 554.185,4 575.025,4 z" id="boundary" inkscape:connector-curvature="0" />
	<path style="fill:none;stroke:red;stroke-width:1px;stroke-linecap:butt;stroke-linejoin:miter;stroke-opacity:1" d="M 575.025,4 595.866,4 z" id="boundary" inkscape:connector-curvature="0" />
	<path style="fill:none;stroke:red;stroke-width:1px;stroke-linecap:butt;stroke-linejoin:miter;stroke-opacity:1" d="M 616.706,4 595.866,4 z" id="boundary" inkscape:connector-curvature="0" />
	<path style="fill:none;stroke:red;stroke-width:1px;stroke-linecap:butt;stroke-linejoin:miter;stroke-opacity:1" d="M 616.706,4 637.546,4 z" id="boundary" inkscape:connector-curvature="0" />
	<path style="fill:none;stroke:red;stroke-width:1px;stroke-linecap:butt;stroke-linejoin:miter;stroke-opacity:1" d="M 658.387,4 637.546,4 z" id="boundary" inkscape:connector-curvature="0" />
	<path style="fill:none;stroke:red;stroke-width:1px;stroke-linecap:butt;stroke-linejoin:miter;stroke-opacity:1" d="M 679.227,4 658.387,4 z" id="boundary" inkscape:connector-curvature="0" />
	<path style="fill:none;stroke:red;stroke-width:1px;stroke-linecap:butt;stroke-linejoin:miter;stroke-opacity:1" d="M 641.714,752.168 660.471,762.588 z" id="boundary" inkscape:connector-curvature="0" />
	<path style="fill:none;stroke:red;stroke-width:1px;stroke-linecap:butt;stroke-linejoin:miter;stroke-opacity:1" d="M 660.471,762.588 660.471,783.429 z" id="boundary" inkscape:connector-curvature="0" />
	<path style="fill:none;stroke:red;stroke-width:1px;stroke-linecap:butt;stroke-linejoin:miter;stroke-opacity:1" d="M 670.891,802.185 670.891,823.025 z" id="boundary" inkscape:connector-curvature="0" />
	<path style="fill:none;stroke:red;stroke-width:1px;stroke-linecap:butt;stroke-linejoin:miter;stroke-opacity:1" d="M 670.891,802.185 660.471,783.429 z" id="boundary" inkscape:connector-curvature="0" />
	<path style="fill:none;stroke:red;stroke-width:1px;stroke-linecap:butt;stroke-linejoin:miter;stroke-opacity:1" d="M 700.067,4 679.227,4 z" id="boundary" inkscape:connector-curvature="0" />
	<path style="fill:none;stroke:red;stroke-width:1px;stroke-linecap:butt;stroke-linejoin:miter;stroke-opacity:1" d="M 741.748,4 762.588,4 z" id="boundary" inkscape:connector-curvature="0" />
	<path style="fill:none;stroke:red;stroke-width:1px;stroke-linecap:butt;stroke-linejoin:miter;stroke-opacity:1" d="M 985.58,197.815 985.58,218.655 z" id="boundary" inkscape:connector-curvature="0" />
	<path style="fill:none;stroke:red;stroke-width:1px;stroke-linecap:butt;stroke-linejoin:miter;stroke-opacity:1" d="M 985.58,176.975 985.58,197.815 z" id="boundary" inkscape:connector-curvature="0" />
	<path style="fill:none;stroke:red;stroke-width:1px;stroke-linecap:butt;stroke-linejoin:miter;stroke-opacity:1" d="M 670.891,823.025 691.731,829.277 z" id="boundary" inkscape:connector-curvature="0" />
	<path style="fill:none;stroke:red;stroke-width:1px;stroke-linecap:butt;stroke-linejoin:miter;stroke-opacity:1" d="M 691.731,829.277 710.487,818.857 z" id="boundary" inkscape:connector-curvature="0" />
	<path style="fill:none;stroke:red;stroke-width:1px;stroke-linecap:butt;stroke-linejoin:miter;stroke-opacity:1" d="M 725.076,798.017 725.076,777.176 z" id="boundary" inkscape:connector-curvature="0" />
	<path style="fill:none;stroke:red;stroke-width:1px;stroke-linecap:butt;stroke-linejoin:miter;stroke-opacity:1" d="M 710.487,818.857 725.076,798.017 z" id="boundary" inkscape:connector-curvature="0" />
	<path style="fill:none;stroke:red;stroke-width:1px;stroke-linecap:butt;stroke-linejoin:miter;stroke-opacity:1" d="M 725.076,777.176 735.496,756.336 z" id="boundary" inkscape:connector-curvature="0" />
	<path style="fill:none;stroke:red;stroke-width:1px;stroke-linecap:butt;stroke-linejoin:miter;stroke-opacity:1" d="M 735.496,756.336 756.336,745.916 z" id="boundary" inkscape:connector-curvature="0" />
	<path style="fill:none;stroke:red;stroke-width:1px;stroke-linecap:butt;stroke-linejoin:miter;stroke-opacity:1" d="M 766.756,714.655 777.176,693.815 z" id="boundary" inkscape:connector-curvature="0" />
	<path style="fill:none;stroke:red;stroke-width:1px;stroke-linecap:butt;stroke-linejoin:miter;stroke-opacity:1" d="M 766.756,714.655 756.336,745.916 z" id="boundary" inkscape:connector-curvature="0" />
	<path style="fill:none;stroke:red;stroke-width:1px;stroke-linecap:butt;stroke-linejoin:miter;stroke-opacity:1" d="M 808.437,610.454 798.017,631.294 z" id="boundary" inkscape:connector-curvature="0" />
	<path style="fill:none;stroke:red;stroke-width:1px;stroke-linecap:butt;stroke-linejoin:miter;stroke-opacity:1" d="M 777.176,672.975 777.176,652.134 z" id="boundary" inkscape:connector-curvature="0" />
	<path style="fill:none;stroke:red;stroke-width:1px;stroke-linecap:butt;stroke-linejoin:miter;stroke-opacity:1" d="M 985.58,176.975 985.58,156.134 z" id="boundary" inkscape:connector-curvature="0" />
	<path style="fill:none;stroke:red;stroke-width:1px;stroke-linecap:butt;stroke-linejoin:miter;stroke-opacity:1" d="M 777.176,672.975 777.176,693.815 z" id="boundary" inkscape:connector-curvature="0" />
	<path style="fill:none;stroke:red;stroke-width:1px;stroke-linecap:butt;stroke-linejoin:miter;stroke-opacity:1" d="M 818.857,589.613 808.437,610.454 z" id="boundary" inkscape:connector-curvature="0" />
	<path style="fill:none;stroke:red;stroke-width:1px;stroke-linecap:butt;stroke-linejoin:miter;stroke-opacity:1" d="M 777.176,652.134 798.017,631.294 z" id="boundary" inkscape:connector-curvature="0" />
	<path style="fill:none;stroke:red;stroke-width:1px;stroke-linecap:butt;stroke-linejoin:miter;stroke-opacity:1" d="M 860.538,568.773 839.697,568.773 z" id="boundary" inkscape:connector-curvature="0" />
	<path style="fill:none;stroke:red;stroke-width:1px;stroke-linecap:butt;stroke-linejoin:miter;stroke-opacity:1" d="M 881.378,568.773 860.538,568.773 z" id="boundary" inkscape:connector-curvature="0" />
	<path style="fill:none;stroke:red;stroke-width:1px;stroke-linecap:butt;stroke-linejoin:miter;stroke-opacity:1" d="M 818.857,568.773 818.857,589.613 z" id="boundary" inkscape:connector-curvature="0" />
	<path style="fill:none;stroke:red;stroke-width:1px;stroke-linecap:butt;stroke-linejoin:miter;stroke-opacity:1" d="M 985.58,114.454 985.58,135.294 z" id="boundary" inkscape:connector-curvature="0" />
	<path style="fill:none;stroke:red;stroke-width:1px;stroke-linecap:butt;stroke-linejoin:miter;stroke-opacity:1" d="M 825.109,4 804.269,4 z" id="boundary" inkscape:connector-curvature="0" />
	<path style="fill:none;stroke:red;stroke-width:1px;stroke-linecap:butt;stroke-linejoin:miter;stroke-opacity:1" d="M 818.857,568.773 839.697,568.773 z" id="boundary" inkscape:connector-curvature="0" />
	<path style="fill:none;stroke:red;stroke-width:1px;stroke-linecap:butt;stroke-linejoin:miter;stroke-opacity:1" d="M 923.059,558.353 902.218,558.353 z" id="boundary" inkscape:connector-curvature="0" />
	<path style="fill:none;stroke:red;stroke-width:1px;stroke-linecap:butt;stroke-linejoin:miter;stroke-opacity:1" d="M 902.218,558.353 881.378,568.773 z" id="boundary" inkscape:connector-curvature="0" />
	<path style="fill:none;stroke:red;stroke-width:1px;stroke-linecap:butt;stroke-linejoin:miter;stroke-opacity:1" d="M 825.109,4 845.95,4 z" id="boundary" inkscape:connector-curvature="0" />
	<path style="fill:none;stroke:red;stroke-width:1px;stroke-linecap:butt;stroke-linejoin:miter;stroke-opacity:1" d="M 845.95,4 864.706,14.4202 z" id="boundary" inkscape:connector-curvature="0" />
	<path style="fill:none;stroke:red;stroke-width:1px;stroke-linecap:butt;stroke-linejoin:miter;stroke-opacity:1" d="M 985.58,93.6134 985.58,114.454 z" id="boundary" inkscape:connector-curvature="0" />
	<path style="fill:none;stroke:red;stroke-width:1px;stroke-linecap:butt;stroke-linejoin:miter;stroke-opacity:1" d="M 973.076,516.672 954.319,527.092 z" id="boundary" inkscape:connector-curvature="0" />
	<path style="fill:none;stroke:red;stroke-width:1px;stroke-linecap:butt;stroke-linejoin:miter;stroke-opacity:1" d="M 954.319,45.6807 964.739,64.437 z" id="boundary" inkscape:connector-curvature="0" />
	<path style="fill:none;stroke:red;stroke-width:1px;stroke-linecap:butt;stroke-linejoin:miter;stroke-opacity:1" d="M 864.706,14.4202 885.546,14.4202 z" id="boundary" inkscape:connector-curvature="0" />
	<path style="fill:none;stroke:red;stroke-width:1px;stroke-linecap:butt;stroke-linejoin:miter;stroke-opacity:1" d="M 885.546,14.4202 906.387,14.4202 z" id="boundary" inkscape:connector-curvature="0" />
	<path style="fill:none;stroke:red;stroke-width:1px;stroke-linecap:butt;stroke-linejoin:miter;stroke-opacity:1" d="M 906.387,14.4202 925.143,24.8403 z" id="boundary" inkscape:connector-curvature="0" />
	<path style="fill:none;stroke:red;stroke-width:1px;stroke-linecap:butt;stroke-linejoin:miter;stroke-opacity:1" d="M 933.479,537.513 954.319,527.092 z" id="boundary" inkscape:connector-curvature="0" />
	<path style="fill:none;stroke:red;stroke-width:1px;stroke-linecap:butt;stroke-linejoin:miter;stroke-opacity:1" d="M 933.479,537.513 923.059,558.353 z" id="boundary" inkscape:connector-curvature="0" />
	<path style="fill:none;stroke:red;stroke-width:1px;stroke-linecap:butt;stroke-linejoin:miter;stroke-opacity:1" d="M 925.143,24.8403 945.983,24.8403 z" id="boundary" inkscape:connector-curvature="0" />
	<path style="fill:none;stroke:red;stroke-width:1px;stroke-linecap:butt;stroke-linejoin:miter;stroke-opacity:1" d="M 945.983,24.8403 954.319,45.6807 z" id="boundary" inkscape:connector-curvature="0" />
	<path style="fill:none;stroke:red;stroke-width:1px;stroke-linecap:butt;stroke-linejoin:miter;stroke-opacity:1" d="M 985.58,135.294 985.58,156.134 z" id="boundary" inkscape:connector-curvature="0" />
	<path style="fill:none;stroke:red;stroke-width:1px;stroke-linecap:butt;stroke-linejoin:miter;stroke-opacity:1" d="M 804.269,4 783.429,4 z" id="boundary" inkscape:connector-curvature="0" />
	<path style="fill:none;stroke:red;stroke-width:1px;stroke-linecap:butt;stroke-linejoin:miter;stroke-opacity:1" d="M 964.739,64.437 985.58,72.7731 z" id="boundary" inkscape:connector-curvature="0" />
	<path style="fill:none;stroke:red;stroke-width:1px;stroke-linecap:butt;stroke-linejoin:miter;stroke-opacity:1" d="M 985.58,72.7731 985.58,93.6134 z" id="boundary" inkscape:connector-curvature="0" />
	<path style="fill:none;stroke:red;stroke-width:1px;stroke-linecap:butt;stroke-linejoin:miter;stroke-opacity:1" d="M 783.429,4 762.588,4 z" id="boundary" inkscape:connector-curvature="0" />
	<path style="fill:none;stroke:red;stroke-width:1px;stroke-linecap:butt;stroke-linejoin:miter;stroke-opacity:1" d="M 985.58,218.655 985.58,239.496 z" id="boundary" inkscape:connector-curvature="0" />
	<path style="fill:none;stroke:red;stroke-width:1px;stroke-linecap:butt;stroke-linejoin:miter;stroke-opacity:1" d="M 741.748,4 720.908,4 z" id="boundary" inkscape:connector-curvature="0" />
	<path style="fill:none;stroke:red;stroke-width:1px;stroke-linecap:butt;stroke-linejoin:miter;stroke-opacity:1" d="M 700.067,4 720.908,4 z" id="boundary" inkscape:connector-curvature="0" />
	<path style="fill:none;stroke:red;stroke-width:1px;stroke-linecap:butt;stroke-linejoin:miter;stroke-opacity:1" d="M 985.58,239.496 993.916,260.336 z" id="boundary" inkscape:connector-curvature="0" />
	<path style="fill:none;stroke:red;stroke-width:1px;stroke-linecap:butt;stroke-linejoin:miter;stroke-opacity:1" d="M 993.916,260.336 996,281.176 z" id="boundary" inkscape:connector-curvature="0" />
	<path style="fill:none;stroke:red;stroke-width:1px;stroke-linecap:butt;stroke-linejoin:miter;stroke-opacity:1" d="M 996,281.176 996,302.017 z" id="boundary" inkscape:connector-curvature="0" />
	<path style="fill:none;stroke:red;stroke-width:1px;stroke-linecap:butt;stroke-linejoin:miter;stroke-opacity:1" d="M 996,427.059 996,406.218 z" id="boundary" inkscape:connector-curvature="0" />
	<path style="fill:none;stroke:red;stroke-width:1px;stroke-linecap:butt;stroke-linejoin:miter;stroke-opacity:1" d="M 973.076,516.672 985.58,495.832 z" id="boundary" inkscape:connector-curvature="0" />
	<path style="fill:none;stroke:red;stroke-width:1px;stroke-linecap:butt;stroke-linejoin:miter;stroke-opacity:1" d="M 996,302.017 996,322.857 z" id="boundary" inkscape:connector-curvature="0" />
	<path style="fill:none;stroke:red;stroke-width:1px;stroke-linecap:butt;stroke-linejoin:miter;stroke-opacity:1" d="M 996,322.857 996,343.697 z" id="boundary" inkscape:connector-curvature="0" />
	<path style="fill:none;stroke:red;stroke-width:1px;stroke-linecap:butt;stroke-linejoin:miter;stroke-opacity:1" d="M 996,343.697 996,364.538 z" id="boundary" inkscape:connector-curvature="0" />
	<path style="fill:none;stroke:red;stroke-width:1px;stroke-linecap:butt;stroke-linejoin:miter;stroke-opacity:1" d="M 996,364.538 996,385.378 z" id="boundary" inkscape:connector-curvature="0" />
	<path style="fill:none;stroke:red;stroke-width:1px;stroke-linecap:butt;stroke-linejoin:miter;stroke-opacity:1" d="M 996,385.378 996,406.218 z" id="boundary" inkscape:connector-curvature="0" />
	<path style="fill:none;stroke:red;stroke-width:1px;stroke-linecap:butt;stroke-linejoin:miter;stroke-opacity:1" d="M 996,447.899 996,427.059 z" id="boundary" inkscape:connector-curvature="0" />
	<path style="fill:none;stroke:red;stroke-width:1px;stroke-linecap:butt;stroke-linejoin:miter;stroke-opacity:1" d="M 996,447.899 996,468.739 z" id="boundary" inkscape:connector-curvature="0" />
	<path style="fill:none;stroke:red;stroke-width:1px;stroke-linecap:butt;stroke-linejoin:miter;stroke-opacity:1" d="M 996,468.739 985.58,495.832 z" id="boundary" inkscape:connector-curvature="0" />
	<circle cx="4" cy="104.034" r="4" fill="#0" id="circle0"/>
	<circle cx="4" cy="124.874" r="4" fill="#0" id="circle1"/>
	<circle cx="4" cy="145.714" r="4" fill="#0" id="circle2"/>
	<circle cx="4" cy="166.555" r="4" fill="#0" id="circle3"/>
	<circle cx="4" cy="187.395" r="4" fill="#0" id="circle4"/>
	<circle cx="4" cy="208.235" r="4" fill="#0" id="circle5"/>
	<circle cx="4" cy="229.076" r="4" fill="#0" id="circle6"/>
	<circle cx="4" cy="249.916" r="4" fill="#0" id="circle7"/>
	<circle cx="4" cy="270.756" r="4" fill="#0" id="circle8"/>
	<circle cx="4" cy="291.597" r="4" fill="#0" id="circle9"/>
	<circle cx="4" cy="312.437" r="4" fill="#0" id="circle10"/>
	<circle cx="4" cy="333.277" r="4" fill="#0" id="circle11"/>
	<circle cx="4" cy="354.118" r="4" fill="#0" id="circle12"/>
	<circle cx="4" cy="374.958" r="4" fill="#0" id="circle13"/>
	<circle cx="4" cy="395.798" r="4" fill="#0" id="circle14"/>
	<circle cx="4" cy="416.639" r="4" fill="#0" id="circle15"/>
	<circle cx="4" cy="437.479" r="4" fill="#0" id="circle16"/>
	<circle cx="4" cy="458.319" r="4" fill="#0" id="circle17"/>
	<circle cx="4" cy="479.16" r="4" fill="#0" id="circle18"/>
	<circle cx="16.5042" cy="495.832" r="4" fill="#0" id="circle19"/>
	<circle cx="24.8403" cy="72.7731" r="4" fill="#0" id="circle20"/>
	<circle cx="24.8403" cy="93.6134" r="4" fill="#0" id="circle21"/>
	<circle cx="24.8403" cy="516.672" r="4" fill="#0" id="circle22"/>
	<circle cx="37.3445" cy="533.345" r="4" fill="#0" id="circle23"/>
	<circle cx="41.5126" cy="56.1008" r="4" fill="#0" id="circle24"/>
	<circle cx="56.1008" cy="543.765" r="4" fill="#0" id="circle25"/>
	<circle cx="62.3529" cy="45.6807" r="4" fill="#0" id="circle26"/>
	<circle cx="66.521" cy="562.521" r="4" fill="#0" id="circle27"/>
	<circle cx="79.0252" cy="29.0084" r="4" fill="#0" id="circle28"/>
	<circle cx="87.3613" cy="568.773" r="4" fill="#0" id="circle29"/>
	<circle cx="99.8655" cy="24.8403" r="4" fill="#0" id="circle30"/>
	<circle cx="99.8655" cy="585.445" r="4" fill="#0" id="circle31"/>
	<circle cx="118.622" cy="595.866" r="4" fill="#0" id="circle32"/>
	<circle cx="120.706" cy="24.8403" r="4" fill="#0" id="circle33"/>
	<circle cx="135.294" cy="610.454" r="4" fill="#0" id="circle34"/>
	<circle cx="141.546" cy="24.8403" r="4" fill="#0" id="circle35"/>
	<circle cx="156.134" cy="610.454" r="4" fill="#0" id="circle36"/>
	<circle cx="160.303" cy="14.4202" r="4" fill="#0" id="circle37"/>
	<circle cx="176.975" cy="610.454" r="4" fill="#0" id="circle38"/>
	<circle cx="181.143" cy="14.4202" r="4" fill="#0" id="circle39"/>
	<circle cx="197.815" cy="610.454" r="4" fill="#0" id="circle40"/>
	<circle cx="201.983" cy="14.4202" r="4" fill="#0" id="circle41"/>
	<circle cx="218.655" cy="610.454" r="4" fill="#0" id="circle42"/>
	<circle cx="222.824" cy="14.4202" r="4" fill="#0" id="circle43"/>
	<circle cx="239.496" cy="610.454" r="4" fill="#0" id="circle44"/>
	<circle cx="243.664" cy="14.4202" r="4" fill="#0" id="circle45"/>
	<circle cx="256.168" cy="589.613" r="4" fill="#0" id="circle46"/>
	<circle cx="264.504" cy="14.4202" r="4" fill="#0" id="circle47"/>
	<circle cx="277.008" cy="589.613" r="4" fill="#0" id="circle48"/>
	<circle cx="285.345" cy="14.4202" r="4" fill="#0" id="circle49"/>
	<circle cx="297.849" cy="589.613" r="4" fill="#0" id="circle50"/>
	<circle cx="306.185" cy="14.4202" r="4" fill="#0" id="circle51"/>
	<circle cx="318.689" cy="589.613" r="4" fill="#0" id="circle52"/>
	<circle cx="327.025" cy="14.4202" r="4" fill="#0" id="circle53"/>
	<circle cx="339.529" cy="589.613" r="4" fill="#0" id="circle54"/>
	<circle cx="347.866" cy="14.4202" r="4" fill="#0" id="circle55"/>
	<circle cx="360.37" cy="589.613" r="4" fill="#0" id="circle56"/>
	<circle cx="368.706" cy="14.4202" r="4" fill="#0" id="circle57"/>
	<circle cx="381.21" cy="589.613" r="4" fill="#0" id="circle58"/>
	<circle cx="389.546" cy="14.4202" r="4" fill="#0" id="circle59"/>
	<circle cx="402.05" cy="589.613" r="4" fill="#0" id="circle60"/>
	<circle cx="410.387" cy="14.4202" r="4" fill="#0" id="circle61"/>
	<circle cx="422.891" cy="589.613" r="4" fill="#0" id="circle62"/>
	<circle cx="431.227" cy="14.4202" r="4" fill="#0" id="circle63"/>
	<circle cx="443.731" cy="589.613" r="4" fill="#0" id="circle64"/>
	<circle cx="452.067" cy="14.4202" r="4" fill="#0" id="circle65"/>
	<circle cx="464.571" cy="589.613" r="4" fill="#0" id="circle66"/>
	<circle cx="470.824" cy="4" r="4" fill="#0" id="circle67"/>
	<circle cx="485.412" cy="589.613" r="4" fill="#0" id="circle68"/>
	<circle cx="491.664" cy="4" r="4" fill="#0" id="circle69"/>
	<circle cx="506.252" cy="589.613" r="4" fill="#0" id="circle70"/>
	<circle cx="512.504" cy="4" r="4" fill="#0" id="circle71"/>
	<circle cx="527.092" cy="589.613" r="4" fill="#0" id="circle72"/>
	<circle cx="533.345" cy="4" r="4" fill="#0" id="circle73"/>
	<circle cx="547.933" cy="589.613" r="4" fill="#0" id="circle74"/>
	<circle cx="554.185" cy="4" r="4" fill="#0" id="circle75"/>
	<circle cx="568.773" cy="589.613" r="4" fill="#0" id="circle76"/>
	<circle cx="575.025" cy="4" r="4" fill="#0" id="circle77"/>
	<circle cx="581.277" cy="606.286" r="4" fill="#0" id="circle78"/>
	<circle cx="587.529" cy="627.126" r="4" fill="#0" id="circle79"/>
	<circle cx="589.613" cy="647.966" r="4" fill="#0" id="circle80"/>
	<circle cx="595.866" cy="4" r="4" fill="#0" id="circle81"/>
	<circle cx="610.454" cy="652.134" r="4" fill="#0" id="circle82"/>
	<circle cx="616.706" cy="4" r="4" fill="#0" id="circle83"/>
	<circle cx="618.79" cy="672.975" r="4" fill="#0" id="circle84"/>
	<circle cx="618.79" cy="693.815" r="4" fill="#0" id="circle85"/>
	<circle cx="629.21" cy="712.571" r="4" fill="#0" id="circle86"/>
	<circle cx="637.546" cy="4" r="4" fill="#0" id="circle87"/>
	<circle cx="639.63" cy="731.328" r="4" fill="#0" id="circle88"/>
	<circle cx="641.714" cy="752.168" r="4" fill="#0" id="circle89"/>
	<circle cx="658.387" cy="4" r="4" fill="#0" id="circle90"/>
	<circle cx="660.471" cy="762.588" r="4" fill="#0" id="circle91"/>
	<circle cx="660.471" cy="783.429" r="4" fill="#0" id="circle92"/>
	<circle cx="670.891" cy="802.185" r="4" fill="#0" id="circle93"/>
	<circle cx="670.891" cy="823.025" r="4" fill="#0" id="circle94"/>
	<circle cx="679.227" cy="4" r="4" fill="#0" id="circle95"/>
	<circle cx="691.731" cy="829.277" r="4" fill="#0" id="circle96"/>
	<circle cx="700.067" cy="4" r="4" fill="#0" id="circle97"/>
	<circle cx="710.487" cy="818.857" r="4" fill="#0" id="circle98"/>
	<circle cx="720.908" cy="4" r="4" fill="#0" id="circle99"/>
	<circle cx="725.076" cy="777.176" r="4" fill="#0" id="circle100"/>
	<circle cx="725.076" cy="798.017" r="4" fill="#0" id="circle101"/>
	<circle cx="735.496" cy="756.336" r="4" fill="#0" id="circle102"/>
	<circle cx="741.748" cy="4" r="4" fill="#0" id="circle103"/>
	<circle cx="756.336" cy="745.916" r="4" fill="#0" id="circle104"/>
	<circle cx="762.588" cy="4" r="4" fill="#0" id="circle105"/>
	<circle cx="766.756" cy="714.655" r="4" fill="#0" id="circle106"/>
	<circle cx="777.176" cy="652.134" r="4" fill="#0" id="circle107"/>
	<circle cx="777.176" cy="672.975" r="4" fill="#0" id="circle108"/>
	<circle cx="777.176" cy="693.815" r="4" fill="#0" id="circle109"/>
	<circle cx="783.429" cy="4" r="4" fill="#0" id="circle110"/>
	<circle cx="798.017" cy="631.294" r="4" fill="#0" id="circle111"/>
	<circle cx="804.269" cy="4" r="4" fill="#0" id="circle112"/>
	<circle cx="808.437" cy="610.454" r="4" fill="#0" id="circle113"/>
	<circle cx="818.857" cy="568.773" r="4" fill="#0" id="circle114"/>
	<circle cx="818.857" cy="589.613" r="4" fill="#0" id="circle115"/>
	<circle cx="825.109" cy="4" r="4" fill="#0" id="circle116"/>
	<circle cx="839.697" cy="568.773" r="4" fill="#0" id="circle117"/>
	<circle cx="845.95" cy="4" r="4" fill="#0" id="circle118"/>
	<circle cx="860.538" cy="568.773" r="4" fill="#0" id="circle119"/>
	<circle cx="864.706" cy="14.4202" r="4" fill="#0" id="circle120"/>
	<circle cx="881.378" cy="568.773" r="4" fill="#0" id="circle121"/>
	<circle cx="885.546" cy="14.4202" r="4" fill="#0" id="circle122"/>
	<circle cx="902.218" cy="558.353" r="4" fill="#0" id="circle123"/>
	<circle cx="906.387" cy="14.4202" r="4" fill="#0" id="circle124"/>
	<circle cx="923.059" cy="558.353" r="4" fill="#0" id="circle125"/>
	<circle cx="925.143" cy="24.8403" r="4" fill="#0" id="circle126"/>
	<circle cx="933.479" cy="537.513" r="4" fill="#0" id="circle127"/>
	<circle cx="945.983" cy="24.8403" r="4" fill="#0" id="circle128"/>
	<circle cx="954.319" cy="45.6807" r="4" fill="#0" id="circle129"/>
	<circle cx="954.319" cy="527.092" r="4" fill="#0" id="circle130"/>
	<circle cx="964.739" cy="64.437" r="4" fill="#0" id="circle131"/>
	<circle cx="973.076" cy="516.672" r="4" fill="#0" id="circle132"/>
	<circle cx="985.58" cy="72.7731" r="4" fill="#0" id="circle133"/>
	<circle cx="985.58" cy="93.6134" r="4" fill="#0" id="circle134"/>
	<circle cx="985.58" cy="114.454" r="4" fill="#0" id="circle135"/>
	<circle cx="985.58" cy="135.294" r="4" fill="#0" id="circle136"/>
	<circle cx="985.58" cy="156.134" r="4" fill="#0" id="circle137"/>
	<circle cx="985.58" cy="176.975" r="4" fill="#0" id="circle138"/>
	<circle cx="985.58" cy="197.815" r="4" fill="#0" id="circle139"/>
	<circle cx="985.58" cy="218.655" r="4" fill="#0" id="circle140"/>
	<circle cx="985.58" cy="239.496" r="4" fill="#0" id="circle141"/>
	<circle cx="985.58" cy="495.832" r="4" fill="#0" id="circle142"/>
	<circle cx="993.916" cy="260.336" r="4" fill="#0" id="circle143"/>
	<circle cx="996" cy="281.176" r="4" fill="#0" id="circle144"/>
	<circle cx="996" cy="302.017" r="4" fill="#0" id="circle145"/>
	<circle cx="996" cy="322.857" r="4" fill="#0" id="circle146"/>
	<circle cx="996" cy="343.697" r="4" fill="#0" id="circle147"/>
	<circle cx="996" cy="364.538" r="4" fill="#0" id="circle148"/>
	<circle cx="996" cy="385.378" r="4" fill="#0" id="circle149"/>
	<circle cx="996" cy="406.218" r="4" fill="#0" id="circle150"/>
	<circle cx="996" cy="427.059" r="4" fill="#0" id="circle151"/>
	<circle cx="996" cy="447.899" r="4" fill="#0" id="circle152"/>
	<circle cx="996" cy="468.739" r="4" fill="#0" id="circle153"/>
	</g>
</svg>