<?xml version="1.0" encoding="UTF-8" standalone="no"?>
<!-- Created with CurveBenchmark -->
<svg
	xmlns:dc="http://purl.org/dc/elements/1.1/"
	xmlns:cc="http://creativecommons.org/ns#"
	xmlns:rdf="http://www.w3.org/1999/02/22-rdf-syntax-ns#"
	xmlns:svg="http://www.w3.org/2000/svg"
	xmlns="http://www.w3.org/2000/svg"
	xmlns:sodipodi="http://sodipodi.sourceforge.net/DTD/sodipodi-0.dtd"
	xmlns:inkscape="http://www.inkscape.org/namespaces/inkscape"
	width="1000"
	height="1000"
	id="svg2"
	version="1.1"
	sodipodi:docname="manifold/peel-television355.png.txt">
<defs
	id="defs4" />
<metadata
	id="metadata7">
	<rdf:RDF>
		<cc:Work
			rdf:about="">
			<dc:format>image/svg+xml</dc:format>
			<dc:type
				rdf:resource="http://purl.org/dc/dcmitype/StillImage" />
			<dc:title></dc:title>
		</cc:Work>
	</rdf:RDF>
</metadata>
<g
	inkscape:label="Layer 1"
	inkscape:groupmode="layer"
	id="layer1">
	<path style="fill:none;stroke:red;stroke-width:1px;stroke-linecap:butt;stroke-linejoin:miter;stroke-opacity:1" d="M 4,809.584 4,776.295 z" id="boundary" inkscape:connector-curvature="0" />
	<path style="fill:none;stroke:red;stroke-width:1px;stroke-linecap:butt;stroke-linejoin:miter;stroke-opacity:1" d="M 4,776.295 37.2886,762.98 z" id="boundary" inkscape:connector-curvature="0" />
	<path style="fill:none;stroke:red;stroke-width:1px;stroke-linecap:butt;stroke-linejoin:miter;stroke-opacity:1" d="M 4,809.584 27.302,836.215 z" id="boundary" inkscape:connector-curvature="0" />
	<path style="fill:none;stroke:red;stroke-width:1px;stroke-linecap:butt;stroke-linejoin:miter;stroke-opacity:1" d="M 37.2886,762.98 70.5772,762.98 z" id="boundary" inkscape:connector-curvature="0" />
	<path style="fill:none;stroke:red;stroke-width:1px;stroke-linecap:butt;stroke-linejoin:miter;stroke-opacity:1" d="M 70.5772,762.98 103.866,762.98 z" id="boundary" inkscape:connector-curvature="0" />
	<path style="fill:none;stroke:red;stroke-width:1px;stroke-linecap:butt;stroke-linejoin:miter;stroke-opacity:1" d="M 90.5503,693.074 63.9195,669.772 z" id="boundary" inkscape:connector-curvature="0" />
	<path style="fill:none;stroke:red;stroke-width:1px;stroke-linecap:butt;stroke-linejoin:miter;stroke-opacity:1" d="M 93.8792,832.886 60.5906,846.201 z" id="boundary" inkscape:connector-curvature="0" />
	<path style="fill:none;stroke:red;stroke-width:1px;stroke-linecap:butt;stroke-linejoin:miter;stroke-opacity:1" d="M 27.302,836.215 60.5906,846.201 z" id="boundary" inkscape:connector-curvature="0" />
	<path style="fill:none;stroke:red;stroke-width:1px;stroke-linecap:butt;stroke-linejoin:miter;stroke-opacity:1" d="M 93.8792,586.55 63.9195,569.906 z" id="boundary" inkscape:connector-curvature="0" />
	<path style="fill:none;stroke:red;stroke-width:1px;stroke-linecap:butt;stroke-linejoin:miter;stroke-opacity:1" d="M 93.8792,832.886 127.168,832.886 z" id="boundary" inkscape:connector-curvature="0" />
	<path style="fill:none;stroke:red;stroke-width:1px;stroke-linecap:butt;stroke-linejoin:miter;stroke-opacity:1" d="M 103.866,762.98 137.154,762.98 z" id="boundary" inkscape:connector-curvature="0" />
	<path style="fill:none;stroke:red;stroke-width:1px;stroke-linecap:butt;stroke-linejoin:miter;stroke-opacity:1" d="M 97.2081,77.2349 97.2081,110.523 z" id="boundary" inkscape:connector-curvature="0" />
	<path style="fill:none;stroke:red;stroke-width:1px;stroke-linecap:butt;stroke-linejoin:miter;stroke-opacity:1" d="M 97.2081,77.2349 97.2081,43.9463 z" id="boundary" inkscape:connector-curvature="0" />
	<path style="fill:none;stroke:red;stroke-width:1px;stroke-linecap:butt;stroke-linejoin:miter;stroke-opacity:1" d="M 97.2081,43.9463 97.2081,10.6577 z" id="boundary" inkscape:connector-curvature="0" />
	<path style="fill:none;stroke:red;stroke-width:1px;stroke-linecap:butt;stroke-linejoin:miter;stroke-opacity:1" d="M 97.2081,110.523 97.2081,143.812 z" id="boundary" inkscape:connector-curvature="0" />
	<path style="fill:none;stroke:red;stroke-width:1px;stroke-linecap:butt;stroke-linejoin:miter;stroke-opacity:1" d="M 90.5503,693.074 123.839,693.074 z" id="boundary" inkscape:connector-curvature="0" />
	<path style="fill:none;stroke:red;stroke-width:1px;stroke-linecap:butt;stroke-linejoin:miter;stroke-opacity:1" d="M 97.2081,143.812 97.2081,177.101 z" id="boundary" inkscape:connector-curvature="0" />
	<path style="fill:none;stroke:red;stroke-width:1px;stroke-linecap:butt;stroke-linejoin:miter;stroke-opacity:1" d="M 97.2081,10.6577 130.497,4 z" id="boundary" inkscape:connector-curvature="0" />
	<path style="fill:none;stroke:red;stroke-width:1px;stroke-linecap:butt;stroke-linejoin:miter;stroke-opacity:1" d="M 97.2081,177.101 97.2081,210.389 z" id="boundary" inkscape:connector-curvature="0" />
	<path style="fill:none;stroke:red;stroke-width:1px;stroke-linecap:butt;stroke-linejoin:miter;stroke-opacity:1" d="M 163.785,4 130.497,4 z" id="boundary" inkscape:connector-curvature="0" />
	<path style="fill:none;stroke:red;stroke-width:1px;stroke-linecap:butt;stroke-linejoin:miter;stroke-opacity:1" d="M 97.2081,210.389 97.2081,243.678 z" id="boundary" inkscape:connector-curvature="0" />
	<path style="fill:none;stroke:red;stroke-width:1px;stroke-linecap:butt;stroke-linejoin:miter;stroke-opacity:1" d="M 163.785,4 197.074,4 z" id="boundary" inkscape:connector-curvature="0" />
	<path style="fill:none;stroke:red;stroke-width:1px;stroke-linecap:butt;stroke-linejoin:miter;stroke-opacity:1" d="M 97.2081,276.966 97.2081,243.678 z" id="boundary" inkscape:connector-curvature="0" />
	<path style="fill:none;stroke:red;stroke-width:1px;stroke-linecap:butt;stroke-linejoin:miter;stroke-opacity:1" d="M 97.2081,310.255 97.2081,276.966 z" id="boundary" inkscape:connector-curvature="0" />
	<path style="fill:none;stroke:red;stroke-width:1px;stroke-linecap:butt;stroke-linejoin:miter;stroke-opacity:1" d="M 197.074,4 230.362,4 z" id="boundary" inkscape:connector-curvature="0" />
	<path style="fill:none;stroke:red;stroke-width:1px;stroke-linecap:butt;stroke-linejoin:miter;stroke-opacity:1" d="M 97.2081,343.544 97.2081,310.255 z" id="boundary" inkscape:connector-curvature="0" />
	<path style="fill:none;stroke:red;stroke-width:1px;stroke-linecap:butt;stroke-linejoin:miter;stroke-opacity:1" d="M 97.2081,376.832 97.2081,343.544 z" id="boundary" inkscape:connector-curvature="0" />
	<path style="fill:none;stroke:red;stroke-width:1px;stroke-linecap:butt;stroke-linejoin:miter;stroke-opacity:1" d="M 263.651,4 230.362,4 z" id="boundary" inkscape:connector-curvature="0" />
	<path style="fill:none;stroke:red;stroke-width:1px;stroke-linecap:butt;stroke-linejoin:miter;stroke-opacity:1" d="M 97.2081,410.121 97.2081,376.832 z" id="boundary" inkscape:connector-curvature="0" />
	<path style="fill:none;stroke:red;stroke-width:1px;stroke-linecap:butt;stroke-linejoin:miter;stroke-opacity:1" d="M 100.537,443.409 97.2081,410.121 z" id="boundary" inkscape:connector-curvature="0" />
	<path style="fill:none;stroke:red;stroke-width:1px;stroke-linecap:butt;stroke-linejoin:miter;stroke-opacity:1" d="M 100.537,443.409 133.826,446.738 z" id="boundary" inkscape:connector-curvature="0" />
	<path style="fill:none;stroke:red;stroke-width:1px;stroke-linecap:butt;stroke-linejoin:miter;stroke-opacity:1" d="M 93.8792,586.55 127.168,586.55 z" id="boundary" inkscape:connector-curvature="0" />
	<path style="fill:none;stroke:red;stroke-width:1px;stroke-linecap:butt;stroke-linejoin:miter;stroke-opacity:1" d="M 127.168,832.886 160.456,832.886 z" id="boundary" inkscape:connector-curvature="0" />
	<path style="fill:none;stroke:red;stroke-width:1px;stroke-linecap:butt;stroke-linejoin:miter;stroke-opacity:1" d="M 107.195,663.114 140.483,663.114 z" id="boundary" inkscape:connector-curvature="0" />
	<path style="fill:none;stroke:red;stroke-width:1px;stroke-linecap:butt;stroke-linejoin:miter;stroke-opacity:1" d="M 137.154,762.98 170.443,762.98 z" id="boundary" inkscape:connector-curvature="0" />
	<path style="fill:none;stroke:red;stroke-width:1px;stroke-linecap:butt;stroke-linejoin:miter;stroke-opacity:1" d="M 143.812,556.591 110.523,556.591 z" id="boundary" inkscape:connector-curvature="0" />
	<path style="fill:none;stroke:red;stroke-width:1px;stroke-linecap:butt;stroke-linejoin:miter;stroke-opacity:1" d="M 123.839,693.074 157.128,693.074 z" id="boundary" inkscape:connector-curvature="0" />
	<path style="fill:none;stroke:red;stroke-width:1px;stroke-linecap:butt;stroke-linejoin:miter;stroke-opacity:1" d="M 127.168,586.55 160.456,586.55 z" id="boundary" inkscape:connector-curvature="0" />
	<path style="fill:none;stroke:red;stroke-width:1px;stroke-linecap:butt;stroke-linejoin:miter;stroke-opacity:1" d="M 160.456,832.886 193.745,832.886 z" id="boundary" inkscape:connector-curvature="0" />
	<path style="fill:none;stroke:red;stroke-width:1px;stroke-linecap:butt;stroke-linejoin:miter;stroke-opacity:1" d="M 133.826,446.738 167.114,446.738 z" id="boundary" inkscape:connector-curvature="0" />
	<path style="fill:none;stroke:red;stroke-width:1px;stroke-linecap:butt;stroke-linejoin:miter;stroke-opacity:1" d="M 140.483,663.114 173.772,663.114 z" id="boundary" inkscape:connector-curvature="0" />
	<path style="fill:none;stroke:red;stroke-width:1px;stroke-linecap:butt;stroke-linejoin:miter;stroke-opacity:1" d="M 170.443,762.98 203.732,762.98 z" id="boundary" inkscape:connector-curvature="0" />
	<path style="fill:none;stroke:red;stroke-width:1px;stroke-linecap:butt;stroke-linejoin:miter;stroke-opacity:1" d="M 177.101,556.591 143.812,556.591 z" id="boundary" inkscape:connector-curvature="0" />
	<path style="fill:none;stroke:red;stroke-width:1px;stroke-linecap:butt;stroke-linejoin:miter;stroke-opacity:1" d="M 157.128,693.074 190.416,693.074 z" id="boundary" inkscape:connector-curvature="0" />
	<path style="fill:none;stroke:red;stroke-width:1px;stroke-linecap:butt;stroke-linejoin:miter;stroke-opacity:1" d="M 263.651,4 296.94,4 z" id="boundary" inkscape:connector-curvature="0" />
	<path style="fill:none;stroke:red;stroke-width:1px;stroke-linecap:butt;stroke-linejoin:miter;stroke-opacity:1" d="M 160.456,586.55 193.745,586.55 z" id="boundary" inkscape:connector-curvature="0" />
	<path style="fill:none;stroke:red;stroke-width:1px;stroke-linecap:butt;stroke-linejoin:miter;stroke-opacity:1" d="M 193.745,832.886 227.034,832.886 z" id="boundary" inkscape:connector-curvature="0" />
	<path style="fill:none;stroke:red;stroke-width:1px;stroke-linecap:butt;stroke-linejoin:miter;stroke-opacity:1" d="M 167.114,446.738 200.403,446.738 z" id="boundary" inkscape:connector-curvature="0" />
	<path style="fill:none;stroke:red;stroke-width:1px;stroke-linecap:butt;stroke-linejoin:miter;stroke-opacity:1" d="M 173.772,663.114 207.06,663.114 z" id="boundary" inkscape:connector-curvature="0" />
	<path style="fill:none;stroke:red;stroke-width:1px;stroke-linecap:butt;stroke-linejoin:miter;stroke-opacity:1" d="M 203.732,762.98 237.02,762.98 z" id="boundary" inkscape:connector-curvature="0" />
	<path style="fill:none;stroke:red;stroke-width:1px;stroke-linecap:butt;stroke-linejoin:miter;stroke-opacity:1" d="M 210.389,556.591 177.101,556.591 z" id="boundary" inkscape:connector-curvature="0" />
	<path style="fill:none;stroke:red;stroke-width:1px;stroke-linecap:butt;stroke-linejoin:miter;stroke-opacity:1" d="M 190.416,693.074 223.705,693.074 z" id="boundary" inkscape:connector-curvature="0" />
	<path style="fill:none;stroke:red;stroke-width:1px;stroke-linecap:butt;stroke-linejoin:miter;stroke-opacity:1" d="M 193.745,586.55 227.034,586.55 z" id="boundary" inkscape:connector-curvature="0" />
	<path style="fill:none;stroke:red;stroke-width:1px;stroke-linecap:butt;stroke-linejoin:miter;stroke-opacity:1" d="M 227.034,832.886 260.322,832.886 z" id="boundary" inkscape:connector-curvature="0" />
	<path style="fill:none;stroke:red;stroke-width:1px;stroke-linecap:butt;stroke-linejoin:miter;stroke-opacity:1" d="M 200.403,446.738 233.691,446.738 z" id="boundary" inkscape:connector-curvature="0" />
	<path style="fill:none;stroke:red;stroke-width:1px;stroke-linecap:butt;stroke-linejoin:miter;stroke-opacity:1" d="M 207.06,663.114 240.349,663.114 z" id="boundary" inkscape:connector-curvature="0" />
	<path style="fill:none;stroke:red;stroke-width:1px;stroke-linecap:butt;stroke-linejoin:miter;stroke-opacity:1" d="M 237.02,762.98 270.309,762.98 z" id="boundary" inkscape:connector-curvature="0" />
	<path style="fill:none;stroke:red;stroke-width:1px;stroke-linecap:butt;stroke-linejoin:miter;stroke-opacity:1" d="M 243.678,556.591 210.389,556.591 z" id="boundary" inkscape:connector-curvature="0" />
	<path style="fill:none;stroke:red;stroke-width:1px;stroke-linecap:butt;stroke-linejoin:miter;stroke-opacity:1" d="M 223.705,693.074 256.993,693.074 z" id="boundary" inkscape:connector-curvature="0" />
	<path style="fill:none;stroke:red;stroke-width:1px;stroke-linecap:butt;stroke-linejoin:miter;stroke-opacity:1" d="M 296.94,4 330.228,4 z" id="boundary" inkscape:connector-curvature="0" />
	<path style="fill:none;stroke:red;stroke-width:1px;stroke-linecap:butt;stroke-linejoin:miter;stroke-opacity:1" d="M 227.034,586.55 260.322,586.55 z" id="boundary" inkscape:connector-curvature="0" />
	<path style="fill:none;stroke:red;stroke-width:1px;stroke-linecap:butt;stroke-linejoin:miter;stroke-opacity:1" d="M 260.322,832.886 293.611,832.886 z" id="boundary" inkscape:connector-curvature="0" />
	<path style="fill:none;stroke:red;stroke-width:1px;stroke-linecap:butt;stroke-linejoin:miter;stroke-opacity:1" d="M 233.691,446.738 266.98,446.738 z" id="boundary" inkscape:connector-curvature="0" />
	<path style="fill:none;stroke:red;stroke-width:1px;stroke-linecap:butt;stroke-linejoin:miter;stroke-opacity:1" d="M 240.349,663.114 273.638,663.114 z" id="boundary" inkscape:connector-curvature="0" />
	<path style="fill:none;stroke:red;stroke-width:1px;stroke-linecap:butt;stroke-linejoin:miter;stroke-opacity:1" d="M 270.309,762.98 303.597,762.98 z" id="boundary" inkscape:connector-curvature="0" />
	<path style="fill:none;stroke:red;stroke-width:1px;stroke-linecap:butt;stroke-linejoin:miter;stroke-opacity:1" d="M 276.966,556.591 243.678,556.591 z" id="boundary" inkscape:connector-curvature="0" />
	<path style="fill:none;stroke:red;stroke-width:1px;stroke-linecap:butt;stroke-linejoin:miter;stroke-opacity:1" d="M 256.993,693.074 290.282,693.074 z" id="boundary" inkscape:connector-curvature="0" />
	<path style="fill:none;stroke:red;stroke-width:1px;stroke-linecap:butt;stroke-linejoin:miter;stroke-opacity:1" d="M 260.322,586.55 293.611,586.55 z" id="boundary" inkscape:connector-curvature="0" />
	<path style="fill:none;stroke:red;stroke-width:1px;stroke-linecap:butt;stroke-linejoin:miter;stroke-opacity:1" d="M 293.611,832.886 326.899,832.886 z" id="boundary" inkscape:connector-curvature="0" />
	<path style="fill:none;stroke:red;stroke-width:1px;stroke-linecap:butt;stroke-linejoin:miter;stroke-opacity:1" d="M 266.98,446.738 300.268,446.738 z" id="boundary" inkscape:connector-curvature="0" />
	<path style="fill:none;stroke:red;stroke-width:1px;stroke-linecap:butt;stroke-linejoin:miter;stroke-opacity:1" d="M 273.638,663.114 306.926,663.114 z" id="boundary" inkscape:connector-curvature="0" />
	<path style="fill:none;stroke:red;stroke-width:1px;stroke-linecap:butt;stroke-linejoin:miter;stroke-opacity:1" d="M 303.597,762.98 336.886,762.98 z" id="boundary" inkscape:connector-curvature="0" />
	<path style="fill:none;stroke:red;stroke-width:1px;stroke-linecap:butt;stroke-linejoin:miter;stroke-opacity:1" d="M 310.255,556.591 276.966,556.591 z" id="boundary" inkscape:connector-curvature="0" />
	<path style="fill:none;stroke:red;stroke-width:1px;stroke-linecap:butt;stroke-linejoin:miter;stroke-opacity:1" d="M 290.282,693.074 323.57,693.074 z" id="boundary" inkscape:connector-curvature="0" />
	<path style="fill:none;stroke:red;stroke-width:1px;stroke-linecap:butt;stroke-linejoin:miter;stroke-opacity:1" d="M 293.611,586.55 326.899,586.55 z" id="boundary" inkscape:connector-curvature="0" />
	<path style="fill:none;stroke:red;stroke-width:1px;stroke-linecap:butt;stroke-linejoin:miter;stroke-opacity:1" d="M 326.899,832.886 360.188,832.886 z" id="boundary" inkscape:connector-curvature="0" />
	<path style="fill:none;stroke:red;stroke-width:1px;stroke-linecap:butt;stroke-linejoin:miter;stroke-opacity:1" d="M 300.268,446.738 333.557,446.738 z" id="boundary" inkscape:connector-curvature="0" />
	<path style="fill:none;stroke:red;stroke-width:1px;stroke-linecap:butt;stroke-linejoin:miter;stroke-opacity:1" d="M 306.926,663.114 340.215,663.114 z" id="boundary" inkscape:connector-curvature="0" />
	<path style="fill:none;stroke:red;stroke-width:1px;stroke-linecap:butt;stroke-linejoin:miter;stroke-opacity:1" d="M 336.886,762.98 370.174,762.98 z" id="boundary" inkscape:connector-curvature="0" />
	<path style="fill:none;stroke:red;stroke-width:1px;stroke-linecap:butt;stroke-linejoin:miter;stroke-opacity:1" d="M 343.544,556.591 310.255,556.591 z" id="boundary" inkscape:connector-curvature="0" />
	<path style="fill:none;stroke:red;stroke-width:1px;stroke-linecap:butt;stroke-linejoin:miter;stroke-opacity:1" d="M 323.57,693.074 356.859,693.074 z" id="boundary" inkscape:connector-curvature="0" />
	<path style="fill:none;stroke:red;stroke-width:1px;stroke-linecap:butt;stroke-linejoin:miter;stroke-opacity:1" d="M 330.228,4 363.517,4 z" id="boundary" inkscape:connector-curvature="0" />
	<path style="fill:none;stroke:red;stroke-width:1px;stroke-linecap:butt;stroke-linejoin:miter;stroke-opacity:1" d="M 326.899,586.55 360.188,586.55 z" id="boundary" inkscape:connector-curvature="0" />
	<path style="fill:none;stroke:red;stroke-width:1px;stroke-linecap:butt;stroke-linejoin:miter;stroke-opacity:1" d="M 360.188,832.886 393.477,832.886 z" id="boundary" inkscape:connector-curvature="0" />
	<path style="fill:none;stroke:red;stroke-width:1px;stroke-linecap:butt;stroke-linejoin:miter;stroke-opacity:1" d="M 366.846,446.738 333.557,446.738 z" id="boundary" inkscape:connector-curvature="0" />
	<path style="fill:none;stroke:red;stroke-width:1px;stroke-linecap:butt;stroke-linejoin:miter;stroke-opacity:1" d="M 340.215,663.114 373.503,663.114 z" id="boundary" inkscape:connector-curvature="0" />
	<path style="fill:none;stroke:red;stroke-width:1px;stroke-linecap:butt;stroke-linejoin:miter;stroke-opacity:1" d="M 370.174,762.98 396.805,726.362 z" id="boundary" inkscape:connector-curvature="0" />
	<path style="fill:none;stroke:red;stroke-width:1px;stroke-linecap:butt;stroke-linejoin:miter;stroke-opacity:1" d="M 396.805,463.383 396.805,496.671 z" id="boundary" inkscape:connector-curvature="0" />
	<path style="fill:none;stroke:red;stroke-width:1px;stroke-linecap:butt;stroke-linejoin:miter;stroke-opacity:1" d="M 396.805,463.383 366.846,446.738 z" id="boundary" inkscape:connector-curvature="0" />
	<path style="fill:none;stroke:red;stroke-width:1px;stroke-linecap:butt;stroke-linejoin:miter;stroke-opacity:1" d="M 376.832,556.591 343.544,556.591 z" id="boundary" inkscape:connector-curvature="0" />
	<path style="fill:none;stroke:red;stroke-width:1px;stroke-linecap:butt;stroke-linejoin:miter;stroke-opacity:1" d="M 356.859,693.074 390.148,693.074 z" id="boundary" inkscape:connector-curvature="0" />
	<path style="fill:none;stroke:red;stroke-width:1px;stroke-linecap:butt;stroke-linejoin:miter;stroke-opacity:1" d="M 390.148,693.074 396.805,726.362 z" id="boundary" inkscape:connector-curvature="0" />
	<path style="fill:none;stroke:red;stroke-width:1px;stroke-linecap:butt;stroke-linejoin:miter;stroke-opacity:1" d="M 363.517,4 396.805,4 z" id="boundary" inkscape:connector-curvature="0" />
	<path style="fill:none;stroke:red;stroke-width:1px;stroke-linecap:butt;stroke-linejoin:miter;stroke-opacity:1" d="M 360.188,586.55 393.477,586.55 z" id="boundary" inkscape:connector-curvature="0" />
	<path style="fill:none;stroke:red;stroke-width:1px;stroke-linecap:butt;stroke-linejoin:miter;stroke-opacity:1" d="M 393.477,832.886 426.765,832.886 z" id="boundary" inkscape:connector-curvature="0" />
	<path style="fill:none;stroke:red;stroke-width:1px;stroke-linecap:butt;stroke-linejoin:miter;stroke-opacity:1" d="M 393.477,586.55 396.805,619.839 z" id="boundary" inkscape:connector-curvature="0" />
	<path style="fill:none;stroke:red;stroke-width:1px;stroke-linecap:butt;stroke-linejoin:miter;stroke-opacity:1" d="M 373.503,663.114 396.805,619.839 z" id="boundary" inkscape:connector-curvature="0" />
	<path style="fill:none;stroke:red;stroke-width:1px;stroke-linecap:butt;stroke-linejoin:miter;stroke-opacity:1" d="M 426.765,832.886 460.054,832.886 z" id="boundary" inkscape:connector-curvature="0" />
	<path style="fill:none;stroke:red;stroke-width:1px;stroke-linecap:butt;stroke-linejoin:miter;stroke-opacity:1" d="M 396.805,496.671 396.805,529.96 z" id="boundary" inkscape:connector-curvature="0" />
	<path style="fill:none;stroke:red;stroke-width:1px;stroke-linecap:butt;stroke-linejoin:miter;stroke-opacity:1" d="M 396.805,4 430.094,4 z" id="boundary" inkscape:connector-curvature="0" />
	<path style="fill:none;stroke:red;stroke-width:1px;stroke-linecap:butt;stroke-linejoin:miter;stroke-opacity:1" d="M 396.805,529.96 376.832,556.591 z" id="boundary" inkscape:connector-curvature="0" />
	<path style="fill:none;stroke:red;stroke-width:1px;stroke-linecap:butt;stroke-linejoin:miter;stroke-opacity:1" d="M 460.054,832.886 493.342,832.886 z" id="boundary" inkscape:connector-curvature="0" />
	<path style="fill:none;stroke:red;stroke-width:1px;stroke-linecap:butt;stroke-linejoin:miter;stroke-opacity:1" d="M 463.383,4 430.094,4 z" id="boundary" inkscape:connector-curvature="0" />
	<path style="fill:none;stroke:red;stroke-width:1px;stroke-linecap:butt;stroke-linejoin:miter;stroke-opacity:1" d="M 593.208,483.356 593.208,516.644 z" id="boundary" inkscape:connector-curvature="0" />
	<path style="fill:none;stroke:red;stroke-width:1px;stroke-linecap:butt;stroke-linejoin:miter;stroke-opacity:1" d="M 593.208,483.356 593.208,450.067 z" id="boundary" inkscape:connector-curvature="0" />
	<path style="fill:none;stroke:red;stroke-width:1px;stroke-linecap:butt;stroke-linejoin:miter;stroke-opacity:1" d="M 593.208,589.879 593.208,623.168 z" id="boundary" inkscape:connector-curvature="0" />
	<path style="fill:none;stroke:red;stroke-width:1px;stroke-linecap:butt;stroke-linejoin:miter;stroke-opacity:1" d="M 496.671,4 463.383,4 z" id="boundary" inkscape:connector-curvature="0" />
	<path style="fill:none;stroke:red;stroke-width:1px;stroke-linecap:butt;stroke-linejoin:miter;stroke-opacity:1" d="M 493.342,832.886 526.631,832.886 z" id="boundary" inkscape:connector-curvature="0" />
	<path style="fill:none;stroke:red;stroke-width:1px;stroke-linecap:butt;stroke-linejoin:miter;stroke-opacity:1" d="M 526.631,832.886 559.919,832.886 z" id="boundary" inkscape:connector-curvature="0" />
	<path style="fill:none;stroke:red;stroke-width:1px;stroke-linecap:butt;stroke-linejoin:miter;stroke-opacity:1" d="M 529.96,4 496.671,4 z" id="boundary" inkscape:connector-curvature="0" />
	<path style="fill:none;stroke:red;stroke-width:1px;stroke-linecap:butt;stroke-linejoin:miter;stroke-opacity:1" d="M 559.919,832.886 593.208,832.886 z" id="boundary" inkscape:connector-curvature="0" />
	<path style="fill:none;stroke:red;stroke-width:1px;stroke-linecap:butt;stroke-linejoin:miter;stroke-opacity:1" d="M 563.248,4 529.96,4 z" id="boundary" inkscape:connector-curvature="0" />
	<path style="fill:none;stroke:red;stroke-width:1px;stroke-linecap:butt;stroke-linejoin:miter;stroke-opacity:1" d="M 593.208,623.168 593.208,656.456 z" id="boundary" inkscape:connector-curvature="0" />
	<path style="fill:none;stroke:red;stroke-width:1px;stroke-linecap:butt;stroke-linejoin:miter;stroke-opacity:1" d="M 593.208,832.886 626.497,832.886 z" id="boundary" inkscape:connector-curvature="0" />
	<path style="fill:none;stroke:red;stroke-width:1px;stroke-linecap:butt;stroke-linejoin:miter;stroke-opacity:1" d="M 593.208,516.644 593.208,549.933 z" id="boundary" inkscape:connector-curvature="0" />
	<path style="fill:none;stroke:red;stroke-width:1px;stroke-linecap:butt;stroke-linejoin:miter;stroke-opacity:1" d="M 596.537,4 563.248,4 z" id="boundary" inkscape:connector-curvature="0" />
	<path style="fill:none;stroke:red;stroke-width:1px;stroke-linecap:butt;stroke-linejoin:miter;stroke-opacity:1" d="M 626.497,446.738 593.208,450.067 z" id="boundary" inkscape:connector-curvature="0" />
	<path style="fill:none;stroke:red;stroke-width:1px;stroke-linecap:butt;stroke-linejoin:miter;stroke-opacity:1" d="M 626.497,446.738 659.785,446.738 z" id="boundary" inkscape:connector-curvature="0" />
	<path style="fill:none;stroke:red;stroke-width:1px;stroke-linecap:butt;stroke-linejoin:miter;stroke-opacity:1" d="M 593.208,696.403 593.208,729.691 z" id="boundary" inkscape:connector-curvature="0" />
	<path style="fill:none;stroke:red;stroke-width:1px;stroke-linecap:butt;stroke-linejoin:miter;stroke-opacity:1" d="M 593.208,549.933 626.497,556.591 z" id="boundary" inkscape:connector-curvature="0" />
	<path style="fill:none;stroke:red;stroke-width:1px;stroke-linecap:butt;stroke-linejoin:miter;stroke-opacity:1" d="M 596.537,762.98 593.208,729.691 z" id="boundary" inkscape:connector-curvature="0" />
	<path style="fill:none;stroke:red;stroke-width:1px;stroke-linecap:butt;stroke-linejoin:miter;stroke-opacity:1" d="M 626.497,663.114 593.208,656.456 z" id="boundary" inkscape:connector-curvature="0" />
	<path style="fill:none;stroke:red;stroke-width:1px;stroke-linecap:butt;stroke-linejoin:miter;stroke-opacity:1" d="M 626.497,832.886 659.785,832.886 z" id="boundary" inkscape:connector-curvature="0" />
	<path style="fill:none;stroke:red;stroke-width:1px;stroke-linecap:butt;stroke-linejoin:miter;stroke-opacity:1" d="M 596.537,762.98 629.826,762.98 z" id="boundary" inkscape:connector-curvature="0" />
	<path style="fill:none;stroke:red;stroke-width:1px;stroke-linecap:butt;stroke-linejoin:miter;stroke-opacity:1" d="M 629.826,4 596.537,4 z" id="boundary" inkscape:connector-curvature="0" />
	<path style="fill:none;stroke:red;stroke-width:1px;stroke-linecap:butt;stroke-linejoin:miter;stroke-opacity:1" d="M 659.785,663.114 626.497,663.114 z" id="boundary" inkscape:connector-curvature="0" />
	<path style="fill:none;stroke:red;stroke-width:1px;stroke-linecap:butt;stroke-linejoin:miter;stroke-opacity:1" d="M 659.785,832.886 693.074,832.886 z" id="boundary" inkscape:connector-curvature="0" />
	<path style="fill:none;stroke:red;stroke-width:1px;stroke-linecap:butt;stroke-linejoin:miter;stroke-opacity:1" d="M 676.43,693.074 643.141,693.074 z" id="boundary" inkscape:connector-curvature="0" />
	<path style="fill:none;stroke:red;stroke-width:1px;stroke-linecap:butt;stroke-linejoin:miter;stroke-opacity:1" d="M 659.785,556.591 626.497,556.591 z" id="boundary" inkscape:connector-curvature="0" />
	<path style="fill:none;stroke:red;stroke-width:1px;stroke-linecap:butt;stroke-linejoin:miter;stroke-opacity:1" d="M 643.141,586.55 676.43,586.55 z" id="boundary" inkscape:connector-curvature="0" />
	<path style="fill:none;stroke:red;stroke-width:1px;stroke-linecap:butt;stroke-linejoin:miter;stroke-opacity:1" d="M 659.785,446.738 693.074,446.738 z" id="boundary" inkscape:connector-curvature="0" />
	<path style="fill:none;stroke:red;stroke-width:1px;stroke-linecap:butt;stroke-linejoin:miter;stroke-opacity:1" d="M 629.826,762.98 663.114,762.98 z" id="boundary" inkscape:connector-curvature="0" />
	<path style="fill:none;stroke:red;stroke-width:1px;stroke-linecap:butt;stroke-linejoin:miter;stroke-opacity:1" d="M 629.826,4 663.114,4 z" id="boundary" inkscape:connector-curvature="0" />
	<path style="fill:none;stroke:red;stroke-width:1px;stroke-linecap:butt;stroke-linejoin:miter;stroke-opacity:1" d="M 693.074,663.114 659.785,663.114 z" id="boundary" inkscape:connector-curvature="0" />
	<path style="fill:none;stroke:red;stroke-width:1px;stroke-linecap:butt;stroke-linejoin:miter;stroke-opacity:1" d="M 693.074,832.886 726.362,832.886 z" id="boundary" inkscape:connector-curvature="0" />
	<path style="fill:none;stroke:red;stroke-width:1px;stroke-linecap:butt;stroke-linejoin:miter;stroke-opacity:1" d="M 709.718,693.074 676.43,693.074 z" id="boundary" inkscape:connector-curvature="0" />
	<path style="fill:none;stroke:red;stroke-width:1px;stroke-linecap:butt;stroke-linejoin:miter;stroke-opacity:1" d="M 693.074,556.591 659.785,556.591 z" id="boundary" inkscape:connector-curvature="0" />
	<path style="fill:none;stroke:red;stroke-width:1px;stroke-linecap:butt;stroke-linejoin:miter;stroke-opacity:1" d="M 676.43,586.55 709.718,586.55 z" id="boundary" inkscape:connector-curvature="0" />
	<path style="fill:none;stroke:red;stroke-width:1px;stroke-linecap:butt;stroke-linejoin:miter;stroke-opacity:1" d="M 899.463,147.141 899.463,180.43 z" id="boundary" inkscape:connector-curvature="0" />
	<path style="fill:none;stroke:red;stroke-width:1px;stroke-linecap:butt;stroke-linejoin:miter;stroke-opacity:1" d="M 663.114,762.98 696.403,762.98 z" id="boundary" inkscape:connector-curvature="0" />
	<path style="fill:none;stroke:red;stroke-width:1px;stroke-linecap:butt;stroke-linejoin:miter;stroke-opacity:1" d="M 693.074,446.738 726.362,446.738 z" id="boundary" inkscape:connector-curvature="0" />
	<path style="fill:none;stroke:red;stroke-width:1px;stroke-linecap:butt;stroke-linejoin:miter;stroke-opacity:1" d="M 663.114,4 696.403,4 z" id="boundary" inkscape:connector-curvature="0" />
	<path style="fill:none;stroke:red;stroke-width:1px;stroke-linecap:butt;stroke-linejoin:miter;stroke-opacity:1" d="M 726.362,663.114 693.074,663.114 z" id="boundary" inkscape:connector-curvature="0" />
	<path style="fill:none;stroke:red;stroke-width:1px;stroke-linecap:butt;stroke-linejoin:miter;stroke-opacity:1" d="M 726.362,832.886 759.651,832.886 z" id="boundary" inkscape:connector-curvature="0" />
	<path style="fill:none;stroke:red;stroke-width:1px;stroke-linecap:butt;stroke-linejoin:miter;stroke-opacity:1" d="M 743.007,693.074 709.718,693.074 z" id="boundary" inkscape:connector-curvature="0" />
	<path style="fill:none;stroke:red;stroke-width:1px;stroke-linecap:butt;stroke-linejoin:miter;stroke-opacity:1" d="M 726.362,556.591 693.074,556.591 z" id="boundary" inkscape:connector-curvature="0" />
	<path style="fill:none;stroke:red;stroke-width:1px;stroke-linecap:butt;stroke-linejoin:miter;stroke-opacity:1" d="M 709.718,586.55 743.007,586.55 z" id="boundary" inkscape:connector-curvature="0" />
	<path style="fill:none;stroke:red;stroke-width:1px;stroke-linecap:butt;stroke-linejoin:miter;stroke-opacity:1" d="M 899.463,113.852 899.463,147.141 z" id="boundary" inkscape:connector-curvature="0" />
	<path style="fill:none;stroke:red;stroke-width:1px;stroke-linecap:butt;stroke-linejoin:miter;stroke-opacity:1" d="M 696.403,762.98 729.691,762.98 z" id="boundary" inkscape:connector-curvature="0" />
	<path style="fill:none;stroke:red;stroke-width:1px;stroke-linecap:butt;stroke-linejoin:miter;stroke-opacity:1" d="M 726.362,446.738 759.651,446.738 z" id="boundary" inkscape:connector-curvature="0" />
	<path style="fill:none;stroke:red;stroke-width:1px;stroke-linecap:butt;stroke-linejoin:miter;stroke-opacity:1" d="M 762.98,4 729.691,4 z" id="boundary" inkscape:connector-curvature="0" />
	<path style="fill:none;stroke:red;stroke-width:1px;stroke-linecap:butt;stroke-linejoin:miter;stroke-opacity:1" d="M 759.651,663.114 726.362,663.114 z" id="boundary" inkscape:connector-curvature="0" />
	<path style="fill:none;stroke:red;stroke-width:1px;stroke-linecap:butt;stroke-linejoin:miter;stroke-opacity:1" d="M 759.651,832.886 792.94,832.886 z" id="boundary" inkscape:connector-curvature="0" />
	<path style="fill:none;stroke:red;stroke-width:1px;stroke-linecap:butt;stroke-linejoin:miter;stroke-opacity:1" d="M 776.295,693.074 743.007,693.074 z" id="boundary" inkscape:connector-curvature="0" />
	<path style="fill:none;stroke:red;stroke-width:1px;stroke-linecap:butt;stroke-linejoin:miter;stroke-opacity:1" d="M 759.651,556.591 726.362,556.591 z" id="boundary" inkscape:connector-curvature="0" />
	<path style="fill:none;stroke:red;stroke-width:1px;stroke-linecap:butt;stroke-linejoin:miter;stroke-opacity:1" d="M 743.007,586.55 776.295,586.55 z" id="boundary" inkscape:connector-curvature="0" />
	<path style="fill:none;stroke:red;stroke-width:1px;stroke-linecap:butt;stroke-linejoin:miter;stroke-opacity:1" d="M 899.463,80.5638 899.463,113.852 z" id="boundary" inkscape:connector-curvature="0" />
	<path style="fill:none;stroke:red;stroke-width:1px;stroke-linecap:butt;stroke-linejoin:miter;stroke-opacity:1" d="M 729.691,762.98 762.98,762.98 z" id="boundary" inkscape:connector-curvature="0" />
	<path style="fill:none;stroke:red;stroke-width:1px;stroke-linecap:butt;stroke-linejoin:miter;stroke-opacity:1" d="M 759.651,446.738 792.94,446.738 z" id="boundary" inkscape:connector-curvature="0" />
	<path style="fill:none;stroke:red;stroke-width:1px;stroke-linecap:butt;stroke-linejoin:miter;stroke-opacity:1" d="M 796.268,4 762.98,4 z" id="boundary" inkscape:connector-curvature="0" />
	<path style="fill:none;stroke:red;stroke-width:1px;stroke-linecap:butt;stroke-linejoin:miter;stroke-opacity:1" d="M 792.94,663.114 759.651,663.114 z" id="boundary" inkscape:connector-curvature="0" />
	<path style="fill:none;stroke:red;stroke-width:1px;stroke-linecap:butt;stroke-linejoin:miter;stroke-opacity:1" d="M 792.94,832.886 826.228,832.886 z" id="boundary" inkscape:connector-curvature="0" />
	<path style="fill:none;stroke:red;stroke-width:1px;stroke-linecap:butt;stroke-linejoin:miter;stroke-opacity:1" d="M 809.584,693.074 776.295,693.074 z" id="boundary" inkscape:connector-curvature="0" />
	<path style="fill:none;stroke:red;stroke-width:1px;stroke-linecap:butt;stroke-linejoin:miter;stroke-opacity:1" d="M 792.94,556.591 759.651,556.591 z" id="boundary" inkscape:connector-curvature="0" />
	<path style="fill:none;stroke:red;stroke-width:1px;stroke-linecap:butt;stroke-linejoin:miter;stroke-opacity:1" d="M 776.295,586.55 809.584,586.55 z" id="boundary" inkscape:connector-curvature="0" />
	<path style="fill:none;stroke:red;stroke-width:1px;stroke-linecap:butt;stroke-linejoin:miter;stroke-opacity:1" d="M 729.691,4 696.403,4 z" id="boundary" inkscape:connector-curvature="0" />
	<path style="fill:none;stroke:red;stroke-width:1px;stroke-linecap:butt;stroke-linejoin:miter;stroke-opacity:1" d="M 762.98,762.98 796.268,762.98 z" id="boundary" inkscape:connector-curvature="0" />
	<path style="fill:none;stroke:red;stroke-width:1px;stroke-linecap:butt;stroke-linejoin:miter;stroke-opacity:1" d="M 792.94,446.738 826.228,446.738 z" id="boundary" inkscape:connector-curvature="0" />
	<path style="fill:none;stroke:red;stroke-width:1px;stroke-linecap:butt;stroke-linejoin:miter;stroke-opacity:1" d="M 829.557,4 796.268,4 z" id="boundary" inkscape:connector-curvature="0" />
	<path style="fill:none;stroke:red;stroke-width:1px;stroke-linecap:butt;stroke-linejoin:miter;stroke-opacity:1" d="M 826.228,663.114 792.94,663.114 z" id="boundary" inkscape:connector-curvature="0" />
	<path style="fill:none;stroke:red;stroke-width:1px;stroke-linecap:butt;stroke-linejoin:miter;stroke-opacity:1" d="M 826.228,832.886 859.517,832.886 z" id="boundary" inkscape:connector-curvature="0" />
	<path style="fill:none;stroke:red;stroke-width:1px;stroke-linecap:butt;stroke-linejoin:miter;stroke-opacity:1" d="M 842.872,693.074 809.584,693.074 z" id="boundary" inkscape:connector-curvature="0" />
	<path style="fill:none;stroke:red;stroke-width:1px;stroke-linecap:butt;stroke-linejoin:miter;stroke-opacity:1" d="M 826.228,556.591 792.94,556.591 z" id="boundary" inkscape:connector-curvature="0" />
	<path style="fill:none;stroke:red;stroke-width:1px;stroke-linecap:butt;stroke-linejoin:miter;stroke-opacity:1" d="M 809.584,586.55 842.872,586.55 z" id="boundary" inkscape:connector-curvature="0" />
	<path style="fill:none;stroke:red;stroke-width:1px;stroke-linecap:butt;stroke-linejoin:miter;stroke-opacity:1" d="M 899.463,180.43 899.463,213.718 z" id="boundary" inkscape:connector-curvature="0" />
	<path style="fill:none;stroke:red;stroke-width:1px;stroke-linecap:butt;stroke-linejoin:miter;stroke-opacity:1" d="M 796.268,762.98 829.557,762.98 z" id="boundary" inkscape:connector-curvature="0" />
	<path style="fill:none;stroke:red;stroke-width:1px;stroke-linecap:butt;stroke-linejoin:miter;stroke-opacity:1" d="M 826.228,446.738 859.517,446.738 z" id="boundary" inkscape:connector-curvature="0" />
	<path style="fill:none;stroke:red;stroke-width:1px;stroke-linecap:butt;stroke-linejoin:miter;stroke-opacity:1" d="M 899.463,80.5638 899.463,47.2752 z" id="boundary" inkscape:connector-curvature="0" />
	<path style="fill:none;stroke:red;stroke-width:1px;stroke-linecap:butt;stroke-linejoin:miter;stroke-opacity:1" d="M 859.517,663.114 826.228,663.114 z" id="boundary" inkscape:connector-curvature="0" />
	<path style="fill:none;stroke:red;stroke-width:1px;stroke-linecap:butt;stroke-linejoin:miter;stroke-opacity:1" d="M 859.517,832.886 892.805,832.886 z" id="boundary" inkscape:connector-curvature="0" />
	<path style="fill:none;stroke:red;stroke-width:1px;stroke-linecap:butt;stroke-linejoin:miter;stroke-opacity:1" d="M 876.161,693.074 842.872,693.074 z" id="boundary" inkscape:connector-curvature="0" />
	<path style="fill:none;stroke:red;stroke-width:1px;stroke-linecap:butt;stroke-linejoin:miter;stroke-opacity:1" d="M 859.517,556.591 826.228,556.591 z" id="boundary" inkscape:connector-curvature="0" />
	<path style="fill:none;stroke:red;stroke-width:1px;stroke-linecap:butt;stroke-linejoin:miter;stroke-opacity:1" d="M 842.872,586.55 876.161,586.55 z" id="boundary" inkscape:connector-curvature="0" />
	<path style="fill:none;stroke:red;stroke-width:1px;stroke-linecap:butt;stroke-linejoin:miter;stroke-opacity:1" d="M 829.557,762.98 862.846,762.98 z" id="boundary" inkscape:connector-curvature="0" />
	<path style="fill:none;stroke:red;stroke-width:1px;stroke-linecap:butt;stroke-linejoin:miter;stroke-opacity:1" d="M 859.517,446.738 892.805,436.752 z" id="boundary" inkscape:connector-curvature="0" />
	<path style="fill:none;stroke:red;stroke-width:1px;stroke-linecap:butt;stroke-linejoin:miter;stroke-opacity:1" d="M 899.463,47.2752 896.134,13.9866 z" id="boundary" inkscape:connector-curvature="0" />
	<path style="fill:none;stroke:red;stroke-width:1px;stroke-linecap:butt;stroke-linejoin:miter;stroke-opacity:1" d="M 896.134,13.9866 862.846,4 z" id="boundary" inkscape:connector-curvature="0" />
	<path style="fill:none;stroke:red;stroke-width:1px;stroke-linecap:butt;stroke-linejoin:miter;stroke-opacity:1" d="M 892.805,663.114 859.517,663.114 z" id="boundary" inkscape:connector-curvature="0" />
	<path style="fill:none;stroke:red;stroke-width:1px;stroke-linecap:butt;stroke-linejoin:miter;stroke-opacity:1" d="M 892.805,832.886 926.094,832.886 z" id="boundary" inkscape:connector-curvature="0" />
	<path style="fill:none;stroke:red;stroke-width:1px;stroke-linecap:butt;stroke-linejoin:miter;stroke-opacity:1" d="M 926.094,832.886 959.383,846.201 z" id="boundary" inkscape:connector-curvature="0" />
	<path style="fill:none;stroke:red;stroke-width:1px;stroke-linecap:butt;stroke-linejoin:miter;stroke-opacity:1" d="M 909.45,693.074 876.161,693.074 z" id="boundary" inkscape:connector-curvature="0" />
	<path style="fill:none;stroke:red;stroke-width:1px;stroke-linecap:butt;stroke-linejoin:miter;stroke-opacity:1" d="M 892.805,556.591 859.517,556.591 z" id="boundary" inkscape:connector-curvature="0" />
	<path style="fill:none;stroke:red;stroke-width:1px;stroke-linecap:butt;stroke-linejoin:miter;stroke-opacity:1" d="M 876.161,586.55 909.45,586.55 z" id="boundary" inkscape:connector-curvature="0" />
	<path style="fill:none;stroke:red;stroke-width:1px;stroke-linecap:butt;stroke-linejoin:miter;stroke-opacity:1" d="M 862.846,762.98 896.134,762.98 z" id="boundary" inkscape:connector-curvature="0" />
	<path style="fill:none;stroke:red;stroke-width:1px;stroke-linecap:butt;stroke-linejoin:miter;stroke-opacity:1" d="M 829.557,4 862.846,4 z" id="boundary" inkscape:connector-curvature="0" />
	<path style="fill:none;stroke:red;stroke-width:1px;stroke-linecap:butt;stroke-linejoin:miter;stroke-opacity:1" d="M 926.094,663.114 892.805,663.114 z" id="boundary" inkscape:connector-curvature="0" />
	<path style="fill:none;stroke:red;stroke-width:1px;stroke-linecap:butt;stroke-linejoin:miter;stroke-opacity:1" d="M 899.463,213.718 899.463,247.007 z" id="boundary" inkscape:connector-curvature="0" />
	<path style="fill:none;stroke:red;stroke-width:1px;stroke-linecap:butt;stroke-linejoin:miter;stroke-opacity:1" d="M 899.463,280.295 899.463,247.007 z" id="boundary" inkscape:connector-curvature="0" />
	<path style="fill:none;stroke:red;stroke-width:1px;stroke-linecap:butt;stroke-linejoin:miter;stroke-opacity:1" d="M 899.463,313.584 899.463,280.295 z" id="boundary" inkscape:connector-curvature="0" />
	<path style="fill:none;stroke:red;stroke-width:1px;stroke-linecap:butt;stroke-linejoin:miter;stroke-opacity:1" d="M 899.463,346.872 899.463,313.584 z" id="boundary" inkscape:connector-curvature="0" />
	<path style="fill:none;stroke:red;stroke-width:1px;stroke-linecap:butt;stroke-linejoin:miter;stroke-opacity:1" d="M 899.463,380.161 899.463,346.872 z" id="boundary" inkscape:connector-curvature="0" />
	<path style="fill:none;stroke:red;stroke-width:1px;stroke-linecap:butt;stroke-linejoin:miter;stroke-opacity:1" d="M 899.463,380.161 892.805,436.752 z" id="boundary" inkscape:connector-curvature="0" />
	<path style="fill:none;stroke:red;stroke-width:1px;stroke-linecap:butt;stroke-linejoin:miter;stroke-opacity:1" d="M 892.805,556.591 926.094,556.591 z" id="boundary" inkscape:connector-curvature="0" />
	<path style="fill:none;stroke:red;stroke-width:1px;stroke-linecap:butt;stroke-linejoin:miter;stroke-opacity:1" d="M 909.45,586.55 942.738,586.55 z" id="boundary" inkscape:connector-curvature="0" />
	<path style="fill:none;stroke:red;stroke-width:1px;stroke-linecap:butt;stroke-linejoin:miter;stroke-opacity:1" d="M 896.134,762.98 929.423,762.98 z" id="boundary" inkscape:connector-curvature="0" />
	<path style="fill:none;stroke:red;stroke-width:1px;stroke-linecap:butt;stroke-linejoin:miter;stroke-opacity:1" d="M 929.423,762.98 962.711,762.98 z" id="boundary" inkscape:connector-curvature="0" />
	<path style="fill:none;stroke:red;stroke-width:1px;stroke-linecap:butt;stroke-linejoin:miter;stroke-opacity:1" d="M 992.671,829.557 959.383,846.201 z" id="boundary" inkscape:connector-curvature="0" />
	<path style="fill:none;stroke:red;stroke-width:1px;stroke-linecap:butt;stroke-linejoin:miter;stroke-opacity:1" d="M 962.711,762.98 996,769.638 z" id="boundary" inkscape:connector-curvature="0" />
	<path style="fill:none;stroke:red;stroke-width:1px;stroke-linecap:butt;stroke-linejoin:miter;stroke-opacity:1" d="M 996,769.638 992.671,829.557 z" id="boundary" inkscape:connector-curvature="0" />
	<circle cx="4" cy="776.295" r="4" fill="#0" id="circle0"/>
	<circle cx="4" cy="809.584" r="4" fill="#0" id="circle1"/>
	<circle cx="27.302" cy="836.215" r="4" fill="#0" id="circle2"/>
	<circle cx="37.2886" cy="762.98" r="4" fill="#0" id="circle3"/>
	<circle cx="60.5906" cy="846.201" r="4" fill="#0" id="circle4"/>
	<circle cx="63.9195" cy="569.906" r="4" fill="#0" id="circle5"/>
	<circle cx="63.9195" cy="669.772" r="4" fill="#0" id="circle6"/>
	<circle cx="70.5772" cy="762.98" r="4" fill="#0" id="circle7"/>
	<circle cx="90.5503" cy="693.074" r="4" fill="#0" id="circle8"/>
	<circle cx="93.8792" cy="586.55" r="4" fill="#0" id="circle9"/>
	<circle cx="93.8792" cy="832.886" r="4" fill="#0" id="circle10"/>
	<circle cx="97.2081" cy="10.6577" r="4" fill="#0" id="circle11"/>
	<circle cx="97.2081" cy="43.9463" r="4" fill="#0" id="circle12"/>
	<circle cx="97.2081" cy="77.2349" r="4" fill="#0" id="circle13"/>
	<circle cx="97.2081" cy="110.523" r="4" fill="#0" id="circle14"/>
	<circle cx="97.2081" cy="143.812" r="4" fill="#0" id="circle15"/>
	<circle cx="97.2081" cy="177.101" r="4" fill="#0" id="circle16"/>
	<circle cx="97.2081" cy="210.389" r="4" fill="#0" id="circle17"/>
	<circle cx="97.2081" cy="243.678" r="4" fill="#0" id="circle18"/>
	<circle cx="97.2081" cy="276.966" r="4" fill="#0" id="circle19"/>
	<circle cx="97.2081" cy="310.255" r="4" fill="#0" id="circle20"/>
	<circle cx="97.2081" cy="343.544" r="4" fill="#0" id="circle21"/>
	<circle cx="97.2081" cy="376.832" r="4" fill="#0" id="circle22"/>
	<circle cx="97.2081" cy="410.121" r="4" fill="#0" id="circle23"/>
	<circle cx="100.537" cy="443.409" r="4" fill="#0" id="circle24"/>
	<circle cx="103.866" cy="762.98" r="4" fill="#0" id="circle25"/>
	<circle cx="107.195" cy="663.114" r="4" fill="#0" id="circle26"/>
	<circle cx="110.523" cy="556.591" r="4" fill="#0" id="circle27"/>
	<circle cx="123.839" cy="693.074" r="4" fill="#0" id="circle28"/>
	<circle cx="127.168" cy="586.55" r="4" fill="#0" id="circle29"/>
	<circle cx="127.168" cy="832.886" r="4" fill="#0" id="circle30"/>
	<circle cx="130.497" cy="4" r="4" fill="#0" id="circle31"/>
	<circle cx="133.826" cy="446.738" r="4" fill="#0" id="circle32"/>
	<circle cx="137.154" cy="762.98" r="4" fill="#0" id="circle33"/>
	<circle cx="140.483" cy="663.114" r="4" fill="#0" id="circle34"/>
	<circle cx="143.812" cy="556.591" r="4" fill="#0" id="circle35"/>
	<circle cx="157.128" cy="693.074" r="4" fill="#0" id="circle36"/>
	<circle cx="160.456" cy="586.55" r="4" fill="#0" id="circle37"/>
	<circle cx="160.456" cy="832.886" r="4" fill="#0" id="circle38"/>
	<circle cx="163.785" cy="4" r="4" fill="#0" id="circle39"/>
	<circle cx="167.114" cy="446.738" r="4" fill="#0" id="circle40"/>
	<circle cx="170.443" cy="762.98" r="4" fill="#0" id="circle41"/>
	<circle cx="173.772" cy="663.114" r="4" fill="#0" id="circle42"/>
	<circle cx="177.101" cy="556.591" r="4" fill="#0" id="circle43"/>
	<circle cx="190.416" cy="693.074" r="4" fill="#0" id="circle44"/>
	<circle cx="193.745" cy="586.55" r="4" fill="#0" id="circle45"/>
	<circle cx="193.745" cy="832.886" r="4" fill="#0" id="circle46"/>
	<circle cx="197.074" cy="4" r="4" fill="#0" id="circle47"/>
	<circle cx="200.403" cy="446.738" r="4" fill="#0" id="circle48"/>
	<circle cx="203.732" cy="762.98" r="4" fill="#0" id="circle49"/>
	<circle cx="207.06" cy="663.114" r="4" fill="#0" id="circle50"/>
	<circle cx="210.389" cy="556.591" r="4" fill="#0" id="circle51"/>
	<circle cx="223.705" cy="693.074" r="4" fill="#0" id="circle52"/>
	<circle cx="227.034" cy="586.55" r="4" fill="#0" id="circle53"/>
	<circle cx="227.034" cy="832.886" r="4" fill="#0" id="circle54"/>
	<circle cx="230.362" cy="4" r="4" fill="#0" id="circle55"/>
	<circle cx="233.691" cy="446.738" r="4" fill="#0" id="circle56"/>
	<circle cx="237.02" cy="762.98" r="4" fill="#0" id="circle57"/>
	<circle cx="240.349" cy="663.114" r="4" fill="#0" id="circle58"/>
	<circle cx="243.678" cy="556.591" r="4" fill="#0" id="circle59"/>
	<circle cx="256.993" cy="693.074" r="4" fill="#0" id="circle60"/>
	<circle cx="260.322" cy="586.55" r="4" fill="#0" id="circle61"/>
	<circle cx="260.322" cy="832.886" r="4" fill="#0" id="circle62"/>
	<circle cx="263.651" cy="4" r="4" fill="#0" id="circle63"/>
	<circle cx="266.98" cy="446.738" r="4" fill="#0" id="circle64"/>
	<circle cx="270.309" cy="762.98" r="4" fill="#0" id="circle65"/>
	<circle cx="273.638" cy="663.114" r="4" fill="#0" id="circle66"/>
	<circle cx="276.966" cy="556.591" r="4" fill="#0" id="circle67"/>
	<circle cx="290.282" cy="693.074" r="4" fill="#0" id="circle68"/>
	<circle cx="293.611" cy="586.55" r="4" fill="#0" id="circle69"/>
	<circle cx="293.611" cy="832.886" r="4" fill="#0" id="circle70"/>
	<circle cx="296.94" cy="4" r="4" fill="#0" id="circle71"/>
	<circle cx="300.268" cy="446.738" r="4" fill="#0" id="circle72"/>
	<circle cx="303.597" cy="762.98" r="4" fill="#0" id="circle73"/>
	<circle cx="306.926" cy="663.114" r="4" fill="#0" id="circle74"/>
	<circle cx="310.255" cy="556.591" r="4" fill="#0" id="circle75"/>
	<circle cx="323.57" cy="693.074" r="4" fill="#0" id="circle76"/>
	<circle cx="326.899" cy="586.55" r="4" fill="#0" id="circle77"/>
	<circle cx="326.899" cy="832.886" r="4" fill="#0" id="circle78"/>
	<circle cx="330.228" cy="4" r="4" fill="#0" id="circle79"/>
	<circle cx="333.557" cy="446.738" r="4" fill="#0" id="circle80"/>
	<circle cx="336.886" cy="762.98" r="4" fill="#0" id="circle81"/>
	<circle cx="340.215" cy="663.114" r="4" fill="#0" id="circle82"/>
	<circle cx="343.544" cy="556.591" r="4" fill="#0" id="circle83"/>
	<circle cx="356.859" cy="693.074" r="4" fill="#0" id="circle84"/>
	<circle cx="360.188" cy="586.55" r="4" fill="#0" id="circle85"/>
	<circle cx="360.188" cy="832.886" r="4" fill="#0" id="circle86"/>
	<circle cx="363.517" cy="4" r="4" fill="#0" id="circle87"/>
	<circle cx="366.846" cy="446.738" r="4" fill="#0" id="circle88"/>
	<circle cx="370.174" cy="762.98" r="4" fill="#0" id="circle89"/>
	<circle cx="373.503" cy="663.114" r="4" fill="#0" id="circle90"/>
	<circle cx="376.832" cy="556.591" r="4" fill="#0" id="circle91"/>
	<circle cx="390.148" cy="693.074" r="4" fill="#0" id="circle92"/>
	<circle cx="393.477" cy="586.55" r="4" fill="#0" id="circle93"/>
	<circle cx="393.477" cy="832.886" r="4" fill="#0" id="circle94"/>
	<circle cx="396.805" cy="4" r="4" fill="#0" id="circle95"/>
	<circle cx="396.805" cy="463.383" r="4" fill="#0" id="circle96"/>
	<circle cx="396.805" cy="496.671" r="4" fill="#0" id="circle97"/>
	<circle cx="396.805" cy="529.96" r="4" fill="#0" id="circle98"/>
	<circle cx="396.805" cy="619.839" r="4" fill="#0" id="circle99"/>
	<circle cx="396.805" cy="726.362" r="4" fill="#0" id="circle100"/>
	<circle cx="426.765" cy="832.886" r="4" fill="#0" id="circle101"/>
	<circle cx="430.094" cy="4" r="4" fill="#0" id="circle102"/>
	<circle cx="460.054" cy="832.886" r="4" fill="#0" id="circle103"/>
	<circle cx="463.383" cy="4" r="4" fill="#0" id="circle104"/>
	<circle cx="493.342" cy="832.886" r="4" fill="#0" id="circle105"/>
	<circle cx="496.671" cy="4" r="4" fill="#0" id="circle106"/>
	<circle cx="526.631" cy="832.886" r="4" fill="#0" id="circle107"/>
	<circle cx="529.96" cy="4" r="4" fill="#0" id="circle108"/>
	<circle cx="559.919" cy="832.886" r="4" fill="#0" id="circle109"/>
	<circle cx="563.248" cy="4" r="4" fill="#0" id="circle110"/>
	<circle cx="593.208" cy="450.067" r="4" fill="#0" id="circle111"/>
	<circle cx="593.208" cy="483.356" r="4" fill="#0" id="circle112"/>
	<circle cx="593.208" cy="516.644" r="4" fill="#0" id="circle113"/>
	<circle cx="593.208" cy="549.933" r="4" fill="#0" id="circle114"/>
	<circle cx="593.208" cy="589.879" r="4" fill="#0" id="circle115"/>
	<circle cx="593.208" cy="623.168" r="4" fill="#0" id="circle116"/>
	<circle cx="593.208" cy="656.456" r="4" fill="#0" id="circle117"/>
	<circle cx="593.208" cy="696.403" r="4" fill="#0" id="circle118"/>
	<circle cx="593.208" cy="729.691" r="4" fill="#0" id="circle119"/>
	<circle cx="593.208" cy="832.886" r="4" fill="#0" id="circle120"/>
	<circle cx="596.537" cy="4" r="4" fill="#0" id="circle121"/>
	<circle cx="596.537" cy="762.98" r="4" fill="#0" id="circle122"/>
	<circle cx="626.497" cy="446.738" r="4" fill="#0" id="circle123"/>
	<circle cx="626.497" cy="556.591" r="4" fill="#0" id="circle124"/>
	<circle cx="626.497" cy="663.114" r="4" fill="#0" id="circle125"/>
	<circle cx="626.497" cy="832.886" r="4" fill="#0" id="circle126"/>
	<circle cx="629.826" cy="4" r="4" fill="#0" id="circle127"/>
	<circle cx="629.826" cy="762.98" r="4" fill="#0" id="circle128"/>
	<circle cx="643.141" cy="586.55" r="4" fill="#0" id="circle129"/>
	<circle cx="643.141" cy="693.074" r="4" fill="#0" id="circle130"/>
	<circle cx="659.785" cy="446.738" r="4" fill="#0" id="circle131"/>
	<circle cx="659.785" cy="556.591" r="4" fill="#0" id="circle132"/>
	<circle cx="659.785" cy="663.114" r="4" fill="#0" id="circle133"/>
	<circle cx="659.785" cy="832.886" r="4" fill="#0" id="circle134"/>
	<circle cx="663.114" cy="4" r="4" fill="#0" id="circle135"/>
	<circle cx="663.114" cy="762.98" r="4" fill="#0" id="circle136"/>
	<circle cx="676.43" cy="586.55" r="4" fill="#0" id="circle137"/>
	<circle cx="676.43" cy="693.074" r="4" fill="#0" id="circle138"/>
	<circle cx="693.074" cy="446.738" r="4" fill="#0" id="circle139"/>
	<circle cx="693.074" cy="556.591" r="4" fill="#0" id="circle140"/>
	<circle cx="693.074" cy="663.114" r="4" fill="#0" id="circle141"/>
	<circle cx="693.074" cy="832.886" r="4" fill="#0" id="circle142"/>
	<circle cx="696.403" cy="4" r="4" fill="#0" id="circle143"/>
	<circle cx="696.403" cy="762.98" r="4" fill="#0" id="circle144"/>
	<circle cx="709.718" cy="586.55" r="4" fill="#0" id="circle145"/>
	<circle cx="709.718" cy="693.074" r="4" fill="#0" id="circle146"/>
	<circle cx="726.362" cy="446.738" r="4" fill="#0" id="circle147"/>
	<circle cx="726.362" cy="556.591" r="4" fill="#0" id="circle148"/>
	<circle cx="726.362" cy="663.114" r="4" fill="#0" id="circle149"/>
	<circle cx="726.362" cy="832.886" r="4" fill="#0" id="circle150"/>
	<circle cx="729.691" cy="4" r="4" fill="#0" id="circle151"/>
	<circle cx="729.691" cy="762.98" r="4" fill="#0" id="circle152"/>
	<circle cx="743.007" cy="586.55" r="4" fill="#0" id="circle153"/>
	<circle cx="743.007" cy="693.074" r="4" fill="#0" id="circle154"/>
	<circle cx="759.651" cy="446.738" r="4" fill="#0" id="circle155"/>
	<circle cx="759.651" cy="556.591" r="4" fill="#0" id="circle156"/>
	<circle cx="759.651" cy="663.114" r="4" fill="#0" id="circle157"/>
	<circle cx="759.651" cy="832.886" r="4" fill="#0" id="circle158"/>
	<circle cx="762.98" cy="4" r="4" fill="#0" id="circle159"/>
	<circle cx="762.98" cy="762.98" r="4" fill="#0" id="circle160"/>
	<circle cx="776.295" cy="586.55" r="4" fill="#0" id="circle161"/>
	<circle cx="776.295" cy="693.074" r="4" fill="#0" id="circle162"/>
	<circle cx="792.94" cy="446.738" r="4" fill="#0" id="circle163"/>
	<circle cx="792.94" cy="556.591" r="4" fill="#0" id="circle164"/>
	<circle cx="792.94" cy="663.114" r="4" fill="#0" id="circle165"/>
	<circle cx="792.94" cy="832.886" r="4" fill="#0" id="circle166"/>
	<circle cx="796.268" cy="4" r="4" fill="#0" id="circle167"/>
	<circle cx="796.268" cy="762.98" r="4" fill="#0" id="circle168"/>
	<circle cx="809.584" cy="586.55" r="4" fill="#0" id="circle169"/>
	<circle cx="809.584" cy="693.074" r="4" fill="#0" id="circle170"/>
	<circle cx="826.228" cy="446.738" r="4" fill="#0" id="circle171"/>
	<circle cx="826.228" cy="556.591" r="4" fill="#0" id="circle172"/>
	<circle cx="826.228" cy="663.114" r="4" fill="#0" id="circle173"/>
	<circle cx="826.228" cy="832.886" r="4" fill="#0" id="circle174"/>
	<circle cx="829.557" cy="4" r="4" fill="#0" id="circle175"/>
	<circle cx="829.557" cy="762.98" r="4" fill="#0" id="circle176"/>
	<circle cx="842.872" cy="586.55" r="4" fill="#0" id="circle177"/>
	<circle cx="842.872" cy="693.074" r="4" fill="#0" id="circle178"/>
	<circle cx="859.517" cy="446.738" r="4" fill="#0" id="circle179"/>
	<circle cx="859.517" cy="556.591" r="4" fill="#0" id="circle180"/>
	<circle cx="859.517" cy="663.114" r="4" fill="#0" id="circle181"/>
	<circle cx="859.517" cy="832.886" r="4" fill="#0" id="circle182"/>
	<circle cx="862.846" cy="4" r="4" fill="#0" id="circle183"/>
	<circle cx="862.846" cy="762.98" r="4" fill="#0" id="circle184"/>
	<circle cx="876.161" cy="586.55" r="4" fill="#0" id="circle185"/>
	<circle cx="876.161" cy="693.074" r="4" fill="#0" id="circle186"/>
	<circle cx="892.805" cy="436.752" r="4" fill="#0" id="circle187"/>
	<circle cx="892.805" cy="556.591" r="4" fill="#0" id="circle188"/>
	<circle cx="892.805" cy="663.114" r="4" fill="#0" id="circle189"/>
	<circle cx="892.805" cy="832.886" r="4" fill="#0" id="circle190"/>
	<circle cx="896.134" cy="13.9866" r="4" fill="#0" id="circle191"/>
	<circle cx="896.134" cy="762.98" r="4" fill="#0" id="circle192"/>
	<circle cx="899.463" cy="47.2752" r="4" fill="#0" id="circle193"/>
	<circle cx="899.463" cy="80.5638" r="4" fill="#0" id="circle194"/>
	<circle cx="899.463" cy="113.852" r="4" fill="#0" id="circle195"/>
	<circle cx="899.463" cy="147.141" r="4" fill="#0" id="circle196"/>
	<circle cx="899.463" cy="180.43" r="4" fill="#0" id="circle197"/>
	<circle cx="899.463" cy="213.718" r="4" fill="#0" id="circle198"/>
	<circle cx="899.463" cy="247.007" r="4" fill="#0" id="circle199"/>
	<circle cx="899.463" cy="280.295" r="4" fill="#0" id="circle200"/>
	<circle cx="899.463" cy="313.584" r="4" fill="#0" id="circle201"/>
	<circle cx="899.463" cy="346.872" r="4" fill="#0" id="circle202"/>
	<circle cx="899.463" cy="380.161" r="4" fill="#0" id="circle203"/>
	<circle cx="909.45" cy="586.55" r="4" fill="#0" id="circle204"/>
	<circle cx="909.45" cy="693.074" r="4" fill="#0" id="circle205"/>
	<circle cx="926.094" cy="556.591" r="4" fill="#0" id="circle206"/>
	<circle cx="926.094" cy="663.114" r="4" fill="#0" id="circle207"/>
	<circle cx="926.094" cy="832.886" r="4" fill="#0" id="circle208"/>
	<circle cx="929.423" cy="762.98" r="4" fill="#0" id="circle209"/>
	<circle cx="942.738" cy="586.55" r="4" fill="#0" id="circle210"/>
	<circle cx="959.383" cy="846.201" r="4" fill="#0" id="circle211"/>
	<circle cx="962.711" cy="762.98" r="4" fill="#0" id="circle212"/>
	<circle cx="992.671" cy="829.557" r="4" fill="#0" id="circle213"/>
	<circle cx="996" cy="769.638" r="4" fill="#0" id="circle214"/>
	</g>
</svg>