<?xml version="1.0" encoding="UTF-8" standalone="no"?>
<!-- Created with CurveBenchmark -->
<svg
	xmlns:dc="http://purl.org/dc/elements/1.1/"
	xmlns:cc="http://creativecommons.org/ns#"
	xmlns:rdf="http://www.w3.org/1999/02/22-rdf-syntax-ns#"
	xmlns:svg="http://www.w3.org/2000/svg"
	xmlns="http://www.w3.org/2000/svg"
	xmlns:sodipodi="http://sodipodi.sourceforge.net/DTD/sodipodi-0.dtd"
	xmlns:inkscape="http://www.inkscape.org/namespaces/inkscape"
	width="1000"
	height="1000"
	id="svg2"
	version="1.1"
	sodipodi:docname="manifold/peel-bird46.png.txt">
<defs
	id="defs4" />
<metadata
	id="metadata7">
	<rdf:RDF>
		<cc:Work
			rdf:about="">
			<dc:format>image/svg+xml</dc:format>
			<dc:type
				rdf:resource="http://purl.org/dc/dcmitype/StillImage" />
			<dc:title></dc:title>
		</cc:Work>
	</rdf:RDF>
</metadata>
<g
	inkscape:label="Layer 1"
	inkscape:groupmode="layer"
	id="layer1">
	<path style="fill:none;stroke:red;stroke-width:1px;stroke-linecap:butt;stroke-linejoin:miter;stroke-opacity:1" d="M 20.7851,39.2487 4,34.2132 z" id="boundary" inkscape:connector-curvature="0" />
	<path style="fill:none;stroke:red;stroke-width:1px;stroke-linecap:butt;stroke-linejoin:miter;stroke-opacity:1" d="M 4,34.2132 4,17.4281 z" id="boundary" inkscape:connector-curvature="0" />
	<path style="fill:none;stroke:red;stroke-width:1px;stroke-linecap:butt;stroke-linejoin:miter;stroke-opacity:1" d="M 4,17.4281 17.4281,4 z" id="boundary" inkscape:connector-curvature="0" />
	<path style="fill:none;stroke:red;stroke-width:1px;stroke-linecap:butt;stroke-linejoin:miter;stroke-opacity:1" d="M 34.2132,4 17.4281,4 z" id="boundary" inkscape:connector-curvature="0" />
	<path style="fill:none;stroke:red;stroke-width:1px;stroke-linecap:butt;stroke-linejoin:miter;stroke-opacity:1" d="M 37.5702,39.2487 20.7851,39.2487 z" id="boundary" inkscape:connector-curvature="0" />
	<path style="fill:none;stroke:red;stroke-width:1px;stroke-linecap:butt;stroke-linejoin:miter;stroke-opacity:1" d="M 71.1404,445.448 71.1404,462.234 z" id="boundary" inkscape:connector-curvature="0" />
	<path style="fill:none;stroke:red;stroke-width:1px;stroke-linecap:butt;stroke-linejoin:miter;stroke-opacity:1" d="M 54.3553,39.2487 37.5702,39.2487 z" id="boundary" inkscape:connector-curvature="0" />
	<path style="fill:none;stroke:red;stroke-width:1px;stroke-linecap:butt;stroke-linejoin:miter;stroke-opacity:1" d="M 42.6058,197.029 29.1777,185.279 z" id="boundary" inkscape:connector-curvature="0" />
	<path style="fill:none;stroke:red;stroke-width:1px;stroke-linecap:butt;stroke-linejoin:miter;stroke-opacity:1" d="M 29.1777,185.279 42.6058,171.851 z" id="boundary" inkscape:connector-curvature="0" />
	<path style="fill:none;stroke:red;stroke-width:1px;stroke-linecap:butt;stroke-linejoin:miter;stroke-opacity:1" d="M 76.176,64.4264 69.4619,47.6413 z" id="boundary" inkscape:connector-curvature="0" />
	<path style="fill:none;stroke:red;stroke-width:1px;stroke-linecap:butt;stroke-linejoin:miter;stroke-opacity:1" d="M 69.4619,47.6413 54.3553,39.2487 z" id="boundary" inkscape:connector-curvature="0" />
	<path style="fill:none;stroke:red;stroke-width:1px;stroke-linecap:butt;stroke-linejoin:miter;stroke-opacity:1" d="M 34.2132,4 50.9983,4 z" id="boundary" inkscape:connector-curvature="0" />
	<path style="fill:none;stroke:red;stroke-width:1px;stroke-linecap:butt;stroke-linejoin:miter;stroke-opacity:1" d="M 42.6058,171.851 54.3553,151.709 z" id="boundary" inkscape:connector-curvature="0" />
	<path style="fill:none;stroke:red;stroke-width:1px;stroke-linecap:butt;stroke-linejoin:miter;stroke-opacity:1" d="M 66.1049,12.3926 79.533,24.1421 z" id="boundary" inkscape:connector-curvature="0" />
	<path style="fill:none;stroke:red;stroke-width:1px;stroke-linecap:butt;stroke-linejoin:miter;stroke-opacity:1" d="M 56.0338,207.1 42.6058,197.029 z" id="boundary" inkscape:connector-curvature="0" />
	<path style="fill:none;stroke:red;stroke-width:1px;stroke-linecap:butt;stroke-linejoin:miter;stroke-opacity:1" d="M 50.9983,4 66.1049,12.3926 z" id="boundary" inkscape:connector-curvature="0" />
	<path style="fill:none;stroke:red;stroke-width:1px;stroke-linecap:butt;stroke-linejoin:miter;stroke-opacity:1" d="M 67.7834,138.281 54.3553,151.709 z" id="boundary" inkscape:connector-curvature="0" />
	<path style="fill:none;stroke:red;stroke-width:1px;stroke-linecap:butt;stroke-linejoin:miter;stroke-opacity:1" d="M 71.1404,215.492 56.0338,207.1 z" id="boundary" inkscape:connector-curvature="0" />
	<path style="fill:none;stroke:red;stroke-width:1px;stroke-linecap:butt;stroke-linejoin:miter;stroke-opacity:1" d="M 79.533,24.1421 89.6041,37.5702 z" id="boundary" inkscape:connector-curvature="0" />
	<path style="fill:none;stroke:red;stroke-width:1px;stroke-linecap:butt;stroke-linejoin:miter;stroke-opacity:1" d="M 81.2115,228.92 71.1404,215.492 z" id="boundary" inkscape:connector-curvature="0" />
	<path style="fill:none;stroke:red;stroke-width:1px;stroke-linecap:butt;stroke-linejoin:miter;stroke-opacity:1" d="M 67.7834,138.281 76.176,121.496 z" id="boundary" inkscape:connector-curvature="0" />
	<path style="fill:none;stroke:red;stroke-width:1px;stroke-linecap:butt;stroke-linejoin:miter;stroke-opacity:1" d="M 71.1404,378.308 71.1404,361.523 z" id="boundary" inkscape:connector-curvature="0" />
	<path style="fill:none;stroke:red;stroke-width:1px;stroke-linecap:butt;stroke-linejoin:miter;stroke-opacity:1" d="M 118.139,97.9966 134.924,104.711 z" id="boundary" inkscape:connector-curvature="0" />
	<path style="fill:none;stroke:red;stroke-width:1px;stroke-linecap:butt;stroke-linejoin:miter;stroke-opacity:1" d="M 71.1404,395.093 71.1404,378.308 z" id="boundary" inkscape:connector-curvature="0" />
	<path style="fill:none;stroke:red;stroke-width:1px;stroke-linecap:butt;stroke-linejoin:miter;stroke-opacity:1" d="M 71.1404,411.878 71.1404,395.093 z" id="boundary" inkscape:connector-curvature="0" />
	<path style="fill:none;stroke:red;stroke-width:1px;stroke-linecap:butt;stroke-linejoin:miter;stroke-opacity:1" d="M 79.533,336.345 71.1404,361.523 z" id="boundary" inkscape:connector-curvature="0" />
	<path style="fill:none;stroke:red;stroke-width:1px;stroke-linecap:butt;stroke-linejoin:miter;stroke-opacity:1" d="M 71.1404,428.663 71.1404,411.878 z" id="boundary" inkscape:connector-curvature="0" />
	<path style="fill:none;stroke:red;stroke-width:1px;stroke-linecap:butt;stroke-linejoin:miter;stroke-opacity:1" d="M 71.1404,445.448 71.1404,428.663 z" id="boundary" inkscape:connector-curvature="0" />
	<path style="fill:none;stroke:red;stroke-width:1px;stroke-linecap:butt;stroke-linejoin:miter;stroke-opacity:1" d="M 79.533,336.345 87.9255,311.168 z" id="boundary" inkscape:connector-curvature="0" />
	<path style="fill:none;stroke:red;stroke-width:1px;stroke-linecap:butt;stroke-linejoin:miter;stroke-opacity:1" d="M 272.562,210.457 280.954,225.563 z" id="boundary" inkscape:connector-curvature="0" />
	<path style="fill:none;stroke:red;stroke-width:1px;stroke-linecap:butt;stroke-linejoin:miter;stroke-opacity:1" d="M 280.954,225.563 291.025,238.992 z" id="boundary" inkscape:connector-curvature="0" />
	<path style="fill:none;stroke:red;stroke-width:1px;stroke-linecap:butt;stroke-linejoin:miter;stroke-opacity:1" d="M 89.6041,37.5702 97.9966,52.6768 z" id="boundary" inkscape:connector-curvature="0" />
	<path style="fill:none;stroke:red;stroke-width:1px;stroke-linecap:butt;stroke-linejoin:miter;stroke-opacity:1" d="M 76.176,64.4264 84.5685,79.533 z" id="boundary" inkscape:connector-curvature="0" />
	<path style="fill:none;stroke:red;stroke-width:1px;stroke-linecap:butt;stroke-linejoin:miter;stroke-opacity:1" d="M 81.2115,228.92 87.9255,245.706 z" id="boundary" inkscape:connector-curvature="0" />
	<path style="fill:none;stroke:red;stroke-width:1px;stroke-linecap:butt;stroke-linejoin:miter;stroke-opacity:1" d="M 79.533,477.34 71.1404,462.234 z" id="boundary" inkscape:connector-curvature="0" />
	<path style="fill:none;stroke:red;stroke-width:1px;stroke-linecap:butt;stroke-linejoin:miter;stroke-opacity:1" d="M 87.9255,96.3181 84.5685,79.533 z" id="boundary" inkscape:connector-curvature="0" />
	<path style="fill:none;stroke:red;stroke-width:1px;stroke-linecap:butt;stroke-linejoin:miter;stroke-opacity:1" d="M 118.139,97.9966 106.389,84.5685 z" id="boundary" inkscape:connector-curvature="0" />
	<path style="fill:none;stroke:red;stroke-width:1px;stroke-linecap:butt;stroke-linejoin:miter;stroke-opacity:1" d="M 96.3181,277.597 96.3181,294.382 z" id="boundary" inkscape:connector-curvature="0" />
	<path style="fill:none;stroke:red;stroke-width:1px;stroke-linecap:butt;stroke-linejoin:miter;stroke-opacity:1" d="M 106.389,67.7834 97.9966,52.6768 z" id="boundary" inkscape:connector-curvature="0" />
	<path style="fill:none;stroke:red;stroke-width:1px;stroke-linecap:butt;stroke-linejoin:miter;stroke-opacity:1" d="M 87.9255,492.447 79.533,477.34 z" id="boundary" inkscape:connector-curvature="0" />
	<path style="fill:none;stroke:red;stroke-width:1px;stroke-linecap:butt;stroke-linejoin:miter;stroke-opacity:1" d="M 87.9255,245.706 96.3181,260.812 z" id="boundary" inkscape:connector-curvature="0" />
	<path style="fill:none;stroke:red;stroke-width:1px;stroke-linecap:butt;stroke-linejoin:miter;stroke-opacity:1" d="M 96.3181,260.812 96.3181,277.597 z" id="boundary" inkscape:connector-curvature="0" />
	<path style="fill:none;stroke:red;stroke-width:1px;stroke-linecap:butt;stroke-linejoin:miter;stroke-opacity:1" d="M 87.9255,509.232 87.9255,492.447 z" id="boundary" inkscape:connector-curvature="0" />
	<path style="fill:none;stroke:red;stroke-width:1px;stroke-linecap:butt;stroke-linejoin:miter;stroke-opacity:1" d="M 87.9255,311.168 96.3181,294.382 z" id="boundary" inkscape:connector-curvature="0" />
	<path style="fill:none;stroke:red;stroke-width:1px;stroke-linecap:butt;stroke-linejoin:miter;stroke-opacity:1" d="M 106.389,84.5685 106.389,67.7834 z" id="boundary" inkscape:connector-curvature="0" />
	<path style="fill:none;stroke:red;stroke-width:1px;stroke-linecap:butt;stroke-linejoin:miter;stroke-opacity:1" d="M 252.42,181.922 265.848,193.672 z" id="boundary" inkscape:connector-curvature="0" />
	<path style="fill:none;stroke:red;stroke-width:1px;stroke-linecap:butt;stroke-linejoin:miter;stroke-opacity:1" d="M 265.848,193.672 272.562,210.457 z" id="boundary" inkscape:connector-curvature="0" />
	<path style="fill:none;stroke:red;stroke-width:1px;stroke-linecap:butt;stroke-linejoin:miter;stroke-opacity:1" d="M 96.3181,524.338 87.9255,509.232 z" id="boundary" inkscape:connector-curvature="0" />
	<path style="fill:none;stroke:red;stroke-width:1px;stroke-linecap:butt;stroke-linejoin:miter;stroke-opacity:1" d="M 166.816,113.103 151.709,104.711 z" id="boundary" inkscape:connector-curvature="0" />
	<path style="fill:none;stroke:red;stroke-width:1px;stroke-linecap:butt;stroke-linejoin:miter;stroke-opacity:1" d="M 151.709,104.711 134.924,104.711 z" id="boundary" inkscape:connector-curvature="0" />
	<path style="fill:none;stroke:red;stroke-width:1px;stroke-linecap:butt;stroke-linejoin:miter;stroke-opacity:1" d="M 99.6751,541.124 96.3181,524.338 z" id="boundary" inkscape:connector-curvature="0" />
	<path style="fill:none;stroke:red;stroke-width:1px;stroke-linecap:butt;stroke-linejoin:miter;stroke-opacity:1" d="M 213.814,129.888 198.707,121.496 z" id="boundary" inkscape:connector-curvature="0" />
	<path style="fill:none;stroke:red;stroke-width:1px;stroke-linecap:butt;stroke-linejoin:miter;stroke-opacity:1" d="M 113.103,551.195 99.6751,541.124 z" id="boundary" inkscape:connector-curvature="0" />
	<path style="fill:none;stroke:red;stroke-width:1px;stroke-linecap:butt;stroke-linejoin:miter;stroke-opacity:1" d="M 118.139,567.98 113.103,551.195 z" id="boundary" inkscape:connector-curvature="0" />
	<path style="fill:none;stroke:red;stroke-width:1px;stroke-linecap:butt;stroke-linejoin:miter;stroke-opacity:1" d="M 126.531,583.086 118.139,567.98 z" id="boundary" inkscape:connector-curvature="0" />
	<path style="fill:none;stroke:red;stroke-width:1px;stroke-linecap:butt;stroke-linejoin:miter;stroke-opacity:1" d="M 126.531,583.086 133.245,599.871 z" id="boundary" inkscape:connector-curvature="0" />
	<path style="fill:none;stroke:red;stroke-width:1px;stroke-linecap:butt;stroke-linejoin:miter;stroke-opacity:1" d="M 183.601,113.103 198.707,121.496 z" id="boundary" inkscape:connector-curvature="0" />
	<path style="fill:none;stroke:red;stroke-width:1px;stroke-linecap:butt;stroke-linejoin:miter;stroke-opacity:1" d="M 183.601,113.103 166.816,113.103 z" id="boundary" inkscape:connector-curvature="0" />
	<path style="fill:none;stroke:red;stroke-width:1px;stroke-linecap:butt;stroke-linejoin:miter;stroke-opacity:1" d="M 146.673,609.942 133.245,599.871 z" id="boundary" inkscape:connector-curvature="0" />
	<path style="fill:none;stroke:red;stroke-width:1px;stroke-linecap:butt;stroke-linejoin:miter;stroke-opacity:1" d="M 155.066,625.049 146.673,609.942 z" id="boundary" inkscape:connector-curvature="0" />
	<path style="fill:none;stroke:red;stroke-width:1px;stroke-linecap:butt;stroke-linejoin:miter;stroke-opacity:1" d="M 213.814,129.888 227.242,139.959 z" id="boundary" inkscape:connector-curvature="0" />
	<path style="fill:none;stroke:red;stroke-width:1px;stroke-linecap:butt;stroke-linejoin:miter;stroke-opacity:1" d="M 163.459,640.156 155.066,625.049 z" id="boundary" inkscape:connector-curvature="0" />
	<path style="fill:none;stroke:red;stroke-width:1px;stroke-linecap:butt;stroke-linejoin:miter;stroke-opacity:1" d="M 240.67,168.494 240.67,151.709 z" id="boundary" inkscape:connector-curvature="0" />
	<path style="fill:none;stroke:red;stroke-width:1px;stroke-linecap:butt;stroke-linejoin:miter;stroke-opacity:1" d="M 240.67,151.709 227.242,139.959 z" id="boundary" inkscape:connector-curvature="0" />
	<path style="fill:none;stroke:red;stroke-width:1px;stroke-linecap:butt;stroke-linejoin:miter;stroke-opacity:1" d="M 171.851,655.262 171.851,672.047 z" id="boundary" inkscape:connector-curvature="0" />
	<path style="fill:none;stroke:red;stroke-width:1px;stroke-linecap:butt;stroke-linejoin:miter;stroke-opacity:1" d="M 171.851,655.262 163.459,640.156 z" id="boundary" inkscape:connector-curvature="0" />
	<path style="fill:none;stroke:red;stroke-width:1px;stroke-linecap:butt;stroke-linejoin:miter;stroke-opacity:1" d="M 240.67,168.494 252.42,181.922 z" id="boundary" inkscape:connector-curvature="0" />
	<path style="fill:none;stroke:red;stroke-width:1px;stroke-linecap:butt;stroke-linejoin:miter;stroke-opacity:1" d="M 291.025,238.992 299.418,254.098 z" id="boundary" inkscape:connector-curvature="0" />
	<path style="fill:none;stroke:red;stroke-width:1px;stroke-linecap:butt;stroke-linejoin:miter;stroke-opacity:1" d="M 185.279,683.797 171.851,672.047 z" id="boundary" inkscape:connector-curvature="0" />
	<path style="fill:none;stroke:red;stroke-width:1px;stroke-linecap:butt;stroke-linejoin:miter;stroke-opacity:1" d="M 321.239,280.954 312.846,265.848 z" id="boundary" inkscape:connector-curvature="0" />
	<path style="fill:none;stroke:red;stroke-width:1px;stroke-linecap:butt;stroke-linejoin:miter;stroke-opacity:1" d="M 312.846,265.848 299.418,254.098 z" id="boundary" inkscape:connector-curvature="0" />
	<path style="fill:none;stroke:red;stroke-width:1px;stroke-linecap:butt;stroke-linejoin:miter;stroke-opacity:1" d="M 191.993,700.582 185.279,683.797 z" id="boundary" inkscape:connector-curvature="0" />
	<path style="fill:none;stroke:red;stroke-width:1px;stroke-linecap:butt;stroke-linejoin:miter;stroke-opacity:1" d="M 205.421,710.653 191.993,700.582 z" id="boundary" inkscape:connector-curvature="0" />
	<path style="fill:none;stroke:red;stroke-width:1px;stroke-linecap:butt;stroke-linejoin:miter;stroke-opacity:1" d="M 215.492,724.081 205.421,710.653 z" id="boundary" inkscape:connector-curvature="0" />
	<path style="fill:none;stroke:red;stroke-width:1px;stroke-linecap:butt;stroke-linejoin:miter;stroke-opacity:1" d="M 228.92,735.831 215.492,724.081 z" id="boundary" inkscape:connector-curvature="0" />
	<path style="fill:none;stroke:red;stroke-width:1px;stroke-linecap:butt;stroke-linejoin:miter;stroke-opacity:1" d="M 238.992,749.259 228.92,735.831 z" id="boundary" inkscape:connector-curvature="0" />
	<path style="fill:none;stroke:red;stroke-width:1px;stroke-linecap:butt;stroke-linejoin:miter;stroke-opacity:1" d="M 252.42,761.008 238.992,749.259 z" id="boundary" inkscape:connector-curvature="0" />
	<path style="fill:none;stroke:red;stroke-width:1px;stroke-linecap:butt;stroke-linejoin:miter;stroke-opacity:1" d="M 252.42,893.611 238.992,907.039 z" id="boundary" inkscape:connector-curvature="0" />
	<path style="fill:none;stroke:red;stroke-width:1px;stroke-linecap:butt;stroke-linejoin:miter;stroke-opacity:1" d="M 252.42,761.008 269.205,767.723 z" id="boundary" inkscape:connector-curvature="0" />
	<path style="fill:none;stroke:red;stroke-width:1px;stroke-linecap:butt;stroke-linejoin:miter;stroke-opacity:1" d="M 238.992,907.039 247.384,922.146 z" id="boundary" inkscape:connector-curvature="0" />
	<path style="fill:none;stroke:red;stroke-width:1px;stroke-linecap:butt;stroke-linejoin:miter;stroke-opacity:1" d="M 269.205,885.218 252.42,893.611 z" id="boundary" inkscape:connector-curvature="0" />
	<path style="fill:none;stroke:red;stroke-width:1px;stroke-linecap:butt;stroke-linejoin:miter;stroke-opacity:1" d="M 336.345,289.347 351.452,297.739 z" id="boundary" inkscape:connector-curvature="0" />
	<path style="fill:none;stroke:red;stroke-width:1px;stroke-linecap:butt;stroke-linejoin:miter;stroke-opacity:1" d="M 259.134,935.574 247.384,922.146 z" id="boundary" inkscape:connector-curvature="0" />
	<path style="fill:none;stroke:red;stroke-width:1px;stroke-linecap:butt;stroke-linejoin:miter;stroke-opacity:1" d="M 321.239,280.954 336.345,289.347 z" id="boundary" inkscape:connector-curvature="0" />
	<path style="fill:none;stroke:red;stroke-width:1px;stroke-linecap:butt;stroke-linejoin:miter;stroke-opacity:1" d="M 269.205,767.723 285.99,769.401 z" id="boundary" inkscape:connector-curvature="0" />
	<path style="fill:none;stroke:red;stroke-width:1px;stroke-linecap:butt;stroke-linejoin:miter;stroke-opacity:1" d="M 285.99,769.401 299.418,781.151 z" id="boundary" inkscape:connector-curvature="0" />
	<path style="fill:none;stroke:red;stroke-width:1px;stroke-linecap:butt;stroke-linejoin:miter;stroke-opacity:1" d="M 406.843,974.179 415.235,989.286 z" id="boundary" inkscape:connector-curvature="0" />
	<path style="fill:none;stroke:red;stroke-width:1px;stroke-linecap:butt;stroke-linejoin:miter;stroke-opacity:1" d="M 282.633,920.467 275.919,937.252 z" id="boundary" inkscape:connector-curvature="0" />
	<path style="fill:none;stroke:red;stroke-width:1px;stroke-linecap:butt;stroke-linejoin:miter;stroke-opacity:1" d="M 275.919,937.252 259.134,935.574 z" id="boundary" inkscape:connector-curvature="0" />
	<path style="fill:none;stroke:red;stroke-width:1px;stroke-linecap:butt;stroke-linejoin:miter;stroke-opacity:1" d="M 299.418,912.074 282.633,920.467 z" id="boundary" inkscape:connector-curvature="0" />
	<path style="fill:none;stroke:red;stroke-width:1px;stroke-linecap:butt;stroke-linejoin:miter;stroke-opacity:1" d="M 285.99,885.218 269.205,885.218 z" id="boundary" inkscape:connector-curvature="0" />
	<path style="fill:none;stroke:red;stroke-width:1px;stroke-linecap:butt;stroke-linejoin:miter;stroke-opacity:1" d="M 366.558,306.132 351.452,297.739 z" id="boundary" inkscape:connector-curvature="0" />
	<path style="fill:none;stroke:red;stroke-width:1px;stroke-linecap:butt;stroke-linejoin:miter;stroke-opacity:1" d="M 297.739,865.076 285.99,885.218 z" id="boundary" inkscape:connector-curvature="0" />
	<path style="fill:none;stroke:red;stroke-width:1px;stroke-linecap:butt;stroke-linejoin:miter;stroke-opacity:1" d="M 314.525,860.041 297.739,865.076 z" id="boundary" inkscape:connector-curvature="0" />
	<path style="fill:none;stroke:red;stroke-width:1px;stroke-linecap:butt;stroke-linejoin:miter;stroke-opacity:1" d="M 299.418,781.151 316.203,786.186 z" id="boundary" inkscape:connector-curvature="0" />
	<path style="fill:none;stroke:red;stroke-width:1px;stroke-linecap:butt;stroke-linejoin:miter;stroke-opacity:1" d="M 312.846,900.325 329.631,895.289 z" id="boundary" inkscape:connector-curvature="0" />
	<path style="fill:none;stroke:red;stroke-width:1px;stroke-linecap:butt;stroke-linejoin:miter;stroke-opacity:1" d="M 312.846,900.325 299.418,912.074 z" id="boundary" inkscape:connector-curvature="0" />
	<path style="fill:none;stroke:red;stroke-width:1px;stroke-linecap:butt;stroke-linejoin:miter;stroke-opacity:1" d="M 383.343,311.168 396.772,322.917 z" id="boundary" inkscape:connector-curvature="0" />
	<path style="fill:none;stroke:red;stroke-width:1px;stroke-linecap:butt;stroke-linejoin:miter;stroke-opacity:1" d="M 383.343,311.168 366.558,306.132 z" id="boundary" inkscape:connector-curvature="0" />
	<path style="fill:none;stroke:red;stroke-width:1px;stroke-linecap:butt;stroke-linejoin:miter;stroke-opacity:1" d="M 329.631,851.648 314.525,860.041 z" id="boundary" inkscape:connector-curvature="0" />
	<path style="fill:none;stroke:red;stroke-width:1px;stroke-linecap:butt;stroke-linejoin:miter;stroke-opacity:1" d="M 411.878,331.31 423.628,344.738 z" id="boundary" inkscape:connector-curvature="0" />
	<path style="fill:none;stroke:red;stroke-width:1px;stroke-linecap:butt;stroke-linejoin:miter;stroke-opacity:1" d="M 411.878,331.31 396.772,322.917 z" id="boundary" inkscape:connector-curvature="0" />
	<path style="fill:none;stroke:red;stroke-width:1px;stroke-linecap:butt;stroke-linejoin:miter;stroke-opacity:1" d="M 329.631,851.648 346.416,851.648 z" id="boundary" inkscape:connector-curvature="0" />
	<path style="fill:none;stroke:red;stroke-width:1px;stroke-linecap:butt;stroke-linejoin:miter;stroke-opacity:1" d="M 344.738,886.897 361.523,885.218 z" id="boundary" inkscape:connector-curvature="0" />
	<path style="fill:none;stroke:red;stroke-width:1px;stroke-linecap:butt;stroke-linejoin:miter;stroke-opacity:1" d="M 344.738,886.897 329.631,895.289 z" id="boundary" inkscape:connector-curvature="0" />
	<path style="fill:none;stroke:red;stroke-width:1px;stroke-linecap:butt;stroke-linejoin:miter;stroke-opacity:1" d="M 316.203,786.186 331.31,794.579 z" id="boundary" inkscape:connector-curvature="0" />
	<path style="fill:none;stroke:red;stroke-width:1px;stroke-linecap:butt;stroke-linejoin:miter;stroke-opacity:1" d="M 331.31,794.579 348.095,794.579 z" id="boundary" inkscape:connector-curvature="0" />
	<path style="fill:none;stroke:red;stroke-width:1px;stroke-linecap:butt;stroke-linejoin:miter;stroke-opacity:1" d="M 348.095,794.579 363.201,802.971 z" id="boundary" inkscape:connector-curvature="0" />
	<path style="fill:none;stroke:red;stroke-width:1px;stroke-linecap:butt;stroke-linejoin:miter;stroke-opacity:1" d="M 437.056,356.487 423.628,344.738 z" id="boundary" inkscape:connector-curvature="0" />
	<path style="fill:none;stroke:red;stroke-width:1px;stroke-linecap:butt;stroke-linejoin:miter;stroke-opacity:1" d="M 363.201,851.648 346.416,851.648 z" id="boundary" inkscape:connector-curvature="0" />
	<path style="fill:none;stroke:red;stroke-width:1px;stroke-linecap:butt;stroke-linejoin:miter;stroke-opacity:1" d="M 363.201,802.971 379.986,802.971 z" id="boundary" inkscape:connector-curvature="0" />
	<path style="fill:none;stroke:red;stroke-width:1px;stroke-linecap:butt;stroke-linejoin:miter;stroke-opacity:1" d="M 374.951,870.112 361.523,885.218 z" id="boundary" inkscape:connector-curvature="0" />
	<path style="fill:none;stroke:red;stroke-width:1px;stroke-linecap:butt;stroke-linejoin:miter;stroke-opacity:1" d="M 378.308,843.255 363.201,851.648 z" id="boundary" inkscape:connector-curvature="0" />
	<path style="fill:none;stroke:red;stroke-width:1px;stroke-linecap:butt;stroke-linejoin:miter;stroke-opacity:1" d="M 391.736,861.719 408.521,861.719 z" id="boundary" inkscape:connector-curvature="0" />
	<path style="fill:none;stroke:red;stroke-width:1px;stroke-linecap:butt;stroke-linejoin:miter;stroke-opacity:1" d="M 391.736,861.719 374.951,870.112 z" id="boundary" inkscape:connector-curvature="0" />
	<path style="fill:none;stroke:red;stroke-width:1px;stroke-linecap:butt;stroke-linejoin:miter;stroke-opacity:1" d="M 379.986,802.971 386.701,819.756 z" id="boundary" inkscape:connector-curvature="0" />
	<path style="fill:none;stroke:red;stroke-width:1px;stroke-linecap:butt;stroke-linejoin:miter;stroke-opacity:1" d="M 458.876,381.665 452.162,364.88 z" id="boundary" inkscape:connector-curvature="0" />
	<path style="fill:none;stroke:red;stroke-width:1px;stroke-linecap:butt;stroke-linejoin:miter;stroke-opacity:1" d="M 452.162,364.88 437.056,356.487 z" id="boundary" inkscape:connector-curvature="0" />
	<path style="fill:none;stroke:red;stroke-width:1px;stroke-linecap:butt;stroke-linejoin:miter;stroke-opacity:1" d="M 458.876,381.665 472.305,391.736 z" id="boundary" inkscape:connector-curvature="0" />
	<path style="fill:none;stroke:red;stroke-width:1px;stroke-linecap:butt;stroke-linejoin:miter;stroke-opacity:1" d="M 408.521,861.719 423.628,853.327 z" id="boundary" inkscape:connector-curvature="0" />
	<path style="fill:none;stroke:red;stroke-width:1px;stroke-linecap:butt;stroke-linejoin:miter;stroke-opacity:1" d="M 432.02,996 415.235,989.286 z" id="boundary" inkscape:connector-curvature="0" />
	<path style="fill:none;stroke:red;stroke-width:1px;stroke-linecap:butt;stroke-linejoin:miter;stroke-opacity:1" d="M 406.843,974.179 423.628,965.787 z" id="boundary" inkscape:connector-curvature="0" />
	<path style="fill:none;stroke:red;stroke-width:1px;stroke-linecap:butt;stroke-linejoin:miter;stroke-opacity:1" d="M 437.056,952.359 423.628,965.787 z" id="boundary" inkscape:connector-curvature="0" />
	<path style="fill:none;stroke:red;stroke-width:1px;stroke-linecap:butt;stroke-linejoin:miter;stroke-opacity:1" d="M 433.699,836.541 448.805,828.149 z" id="boundary" inkscape:connector-curvature="0" />
	<path style="fill:none;stroke:red;stroke-width:1px;stroke-linecap:butt;stroke-linejoin:miter;stroke-opacity:1" d="M 423.628,853.327 433.699,836.541 z" id="boundary" inkscape:connector-curvature="0" />
	<path style="fill:none;stroke:red;stroke-width:1px;stroke-linecap:butt;stroke-linejoin:miter;stroke-opacity:1" d="M 445.448,935.574 437.056,952.359 z" id="boundary" inkscape:connector-curvature="0" />
	<path style="fill:none;stroke:red;stroke-width:1px;stroke-linecap:butt;stroke-linejoin:miter;stroke-opacity:1" d="M 448.805,996 432.02,996 z" id="boundary" inkscape:connector-curvature="0" />
	<path style="fill:none;stroke:red;stroke-width:1px;stroke-linecap:butt;stroke-linejoin:miter;stroke-opacity:1" d="M 458.876,922.146 445.448,935.574 z" id="boundary" inkscape:connector-curvature="0" />
	<path style="fill:none;stroke:red;stroke-width:1px;stroke-linecap:butt;stroke-linejoin:miter;stroke-opacity:1" d="M 472.305,391.736 487.411,400.129 z" id="boundary" inkscape:connector-curvature="0" />
	<path style="fill:none;stroke:red;stroke-width:1px;stroke-linecap:butt;stroke-linejoin:miter;stroke-opacity:1" d="M 448.805,828.149 463.912,819.756 z" id="boundary" inkscape:connector-curvature="0" />
	<path style="fill:none;stroke:red;stroke-width:1px;stroke-linecap:butt;stroke-linejoin:miter;stroke-opacity:1" d="M 463.912,819.756 480.697,819.756 z" id="boundary" inkscape:connector-curvature="0" />
	<path style="fill:none;stroke:red;stroke-width:1px;stroke-linecap:butt;stroke-linejoin:miter;stroke-opacity:1" d="M 462.234,985.929 448.805,996 z" id="boundary" inkscape:connector-curvature="0" />
	<path style="fill:none;stroke:red;stroke-width:1px;stroke-linecap:butt;stroke-linejoin:miter;stroke-opacity:1" d="M 467.269,905.36 458.876,922.146 z" id="boundary" inkscape:connector-curvature="0" />
	<path style="fill:none;stroke:red;stroke-width:1px;stroke-linecap:butt;stroke-linejoin:miter;stroke-opacity:1" d="M 479.019,977.536 462.234,985.929 z" id="boundary" inkscape:connector-curvature="0" />
	<path style="fill:none;stroke:red;stroke-width:1px;stroke-linecap:butt;stroke-linejoin:miter;stroke-opacity:1" d="M 532.731,445.448 541.124,460.555 z" id="boundary" inkscape:connector-curvature="0" />
	<path style="fill:none;stroke:red;stroke-width:1px;stroke-linecap:butt;stroke-linejoin:miter;stroke-opacity:1" d="M 492.447,903.682 492.447,920.467 z" id="boundary" inkscape:connector-curvature="0" />
	<path style="fill:none;stroke:red;stroke-width:1px;stroke-linecap:butt;stroke-linejoin:miter;stroke-opacity:1" d="M 509.232,423.628 504.196,406.843 z" id="boundary" inkscape:connector-curvature="0" />
	<path style="fill:none;stroke:red;stroke-width:1px;stroke-linecap:butt;stroke-linejoin:miter;stroke-opacity:1" d="M 504.196,406.843 487.411,400.129 z" id="boundary" inkscape:connector-curvature="0" />
	<path style="fill:none;stroke:red;stroke-width:1px;stroke-linecap:butt;stroke-linejoin:miter;stroke-opacity:1" d="M 475.662,888.575 489.09,876.826 z" id="boundary" inkscape:connector-curvature="0" />
	<path style="fill:none;stroke:red;stroke-width:1px;stroke-linecap:butt;stroke-linejoin:miter;stroke-opacity:1" d="M 475.662,888.575 467.269,905.36 z" id="boundary" inkscape:connector-curvature="0" />
	<path style="fill:none;stroke:red;stroke-width:1px;stroke-linecap:butt;stroke-linejoin:miter;stroke-opacity:1" d="M 717.367,898.646 702.261,890.254 z" id="boundary" inkscape:connector-curvature="0" />
	<path style="fill:none;stroke:red;stroke-width:1px;stroke-linecap:butt;stroke-linejoin:miter;stroke-opacity:1" d="M 702.261,890.254 685.475,883.54 z" id="boundary" inkscape:connector-curvature="0" />
	<path style="fill:none;stroke:red;stroke-width:1px;stroke-linecap:butt;stroke-linejoin:miter;stroke-opacity:1" d="M 526.017,428.663 532.731,445.448 z" id="boundary" inkscape:connector-curvature="0" />
	<path style="fill:none;stroke:red;stroke-width:1px;stroke-linecap:butt;stroke-linejoin:miter;stroke-opacity:1" d="M 526.017,428.663 509.232,423.628 z" id="boundary" inkscape:connector-curvature="0" />
	<path style="fill:none;stroke:red;stroke-width:1px;stroke-linecap:butt;stroke-linejoin:miter;stroke-opacity:1" d="M 495.804,828.149 480.697,819.756 z" id="boundary" inkscape:connector-curvature="0" />
	<path style="fill:none;stroke:red;stroke-width:1px;stroke-linecap:butt;stroke-linejoin:miter;stroke-opacity:1" d="M 551.195,473.983 541.124,460.555 z" id="boundary" inkscape:connector-curvature="0" />
	<path style="fill:none;stroke:red;stroke-width:1px;stroke-linecap:butt;stroke-linejoin:miter;stroke-opacity:1" d="M 492.447,920.467 495.804,937.252 z" id="boundary" inkscape:connector-curvature="0" />
	<path style="fill:none;stroke:red;stroke-width:1px;stroke-linecap:butt;stroke-linejoin:miter;stroke-opacity:1" d="M 489.09,876.826 495.804,860.041 z" id="boundary" inkscape:connector-curvature="0" />
	<path style="fill:none;stroke:red;stroke-width:1px;stroke-linecap:butt;stroke-linejoin:miter;stroke-opacity:1" d="M 492.447,962.43 479.019,977.536 z" id="boundary" inkscape:connector-curvature="0" />
	<path style="fill:none;stroke:red;stroke-width:1px;stroke-linecap:butt;stroke-linejoin:miter;stroke-opacity:1" d="M 492.447,903.682 505.875,891.932 z" id="boundary" inkscape:connector-curvature="0" />
	<path style="fill:none;stroke:red;stroke-width:1px;stroke-linecap:butt;stroke-linejoin:miter;stroke-opacity:1" d="M 509.232,949.002 492.447,962.43 z" id="boundary" inkscape:connector-curvature="0" />
	<path style="fill:none;stroke:red;stroke-width:1px;stroke-linecap:butt;stroke-linejoin:miter;stroke-opacity:1" d="M 495.804,828.149 507.553,841.577 z" id="boundary" inkscape:connector-curvature="0" />
	<path style="fill:none;stroke:red;stroke-width:1px;stroke-linecap:butt;stroke-linejoin:miter;stroke-opacity:1" d="M 507.553,841.577 495.804,860.041 z" id="boundary" inkscape:connector-curvature="0" />
	<path style="fill:none;stroke:red;stroke-width:1px;stroke-linecap:butt;stroke-linejoin:miter;stroke-opacity:1" d="M 495.804,937.252 509.232,949.002 z" id="boundary" inkscape:connector-curvature="0" />
	<path style="fill:none;stroke:red;stroke-width:1px;stroke-linecap:butt;stroke-linejoin:miter;stroke-opacity:1" d="M 576.372,497.482 584.765,512.589 z" id="boundary" inkscape:connector-curvature="0" />
	<path style="fill:none;stroke:red;stroke-width:1px;stroke-linecap:butt;stroke-linejoin:miter;stroke-opacity:1" d="M 576.372,497.482 564.623,484.054 z" id="boundary" inkscape:connector-curvature="0" />
	<path style="fill:none;stroke:red;stroke-width:1px;stroke-linecap:butt;stroke-linejoin:miter;stroke-opacity:1" d="M 522.66,883.54 505.875,891.932 z" id="boundary" inkscape:connector-curvature="0" />
	<path style="fill:none;stroke:red;stroke-width:1px;stroke-linecap:butt;stroke-linejoin:miter;stroke-opacity:1" d="M 626.728,853.327 643.513,856.684 z" id="boundary" inkscape:connector-curvature="0" />
	<path style="fill:none;stroke:red;stroke-width:1px;stroke-linecap:butt;stroke-linejoin:miter;stroke-opacity:1" d="M 643.513,856.684 658.619,865.076 z" id="boundary" inkscape:connector-curvature="0" />
	<path style="fill:none;stroke:red;stroke-width:1px;stroke-linecap:butt;stroke-linejoin:miter;stroke-opacity:1" d="M 596.514,836.541 581.408,828.149 z" id="boundary" inkscape:connector-curvature="0" />
	<path style="fill:none;stroke:red;stroke-width:1px;stroke-linecap:butt;stroke-linejoin:miter;stroke-opacity:1" d="M 581.408,828.149 564.623,828.149 z" id="boundary" inkscape:connector-curvature="0" />
	<path style="fill:none;stroke:red;stroke-width:1px;stroke-linecap:butt;stroke-linejoin:miter;stroke-opacity:1" d="M 531.052,866.755 522.66,883.54 z" id="boundary" inkscape:connector-curvature="0" />
	<path style="fill:none;stroke:red;stroke-width:1px;stroke-linecap:butt;stroke-linejoin:miter;stroke-opacity:1" d="M 564.623,484.054 551.195,473.983 z" id="boundary" inkscape:connector-curvature="0" />
	<path style="fill:none;stroke:red;stroke-width:1px;stroke-linecap:butt;stroke-linejoin:miter;stroke-opacity:1" d="M 547.838,824.792 564.623,828.149 z" id="boundary" inkscape:connector-curvature="0" />
	<path style="fill:none;stroke:red;stroke-width:1px;stroke-linecap:butt;stroke-linejoin:miter;stroke-opacity:1" d="M 547.838,824.792 534.409,836.541 z" id="boundary" inkscape:connector-curvature="0" />
	<path style="fill:none;stroke:red;stroke-width:1px;stroke-linecap:butt;stroke-linejoin:miter;stroke-opacity:1" d="M 596.514,526.017 601.55,542.802 z" id="boundary" inkscape:connector-curvature="0" />
	<path style="fill:none;stroke:red;stroke-width:1px;stroke-linecap:butt;stroke-linejoin:miter;stroke-opacity:1" d="M 596.514,526.017 584.765,512.589 z" id="boundary" inkscape:connector-curvature="0" />
	<path style="fill:none;stroke:red;stroke-width:1px;stroke-linecap:butt;stroke-linejoin:miter;stroke-opacity:1" d="M 601.55,542.802 609.942,557.909 z" id="boundary" inkscape:connector-curvature="0" />
	<path style="fill:none;stroke:red;stroke-width:1px;stroke-linecap:butt;stroke-linejoin:miter;stroke-opacity:1" d="M 609.942,557.909 609.942,574.694 z" id="boundary" inkscape:connector-curvature="0" />
	<path style="fill:none;stroke:red;stroke-width:1px;stroke-linecap:butt;stroke-linejoin:miter;stroke-opacity:1" d="M 596.514,836.541 613.299,843.255 z" id="boundary" inkscape:connector-curvature="0" />
	<path style="fill:none;stroke:red;stroke-width:1px;stroke-linecap:butt;stroke-linejoin:miter;stroke-opacity:1" d="M 613.299,843.255 626.728,853.327 z" id="boundary" inkscape:connector-curvature="0" />
	<path style="fill:none;stroke:red;stroke-width:1px;stroke-linecap:butt;stroke-linejoin:miter;stroke-opacity:1" d="M 618.335,589.8 609.942,574.694 z" id="boundary" inkscape:connector-curvature="0" />
	<path style="fill:none;stroke:red;stroke-width:1px;stroke-linecap:butt;stroke-linejoin:miter;stroke-opacity:1" d="M 638.477,618.335 631.763,601.55 z" id="boundary" inkscape:connector-curvature="0" />
	<path style="fill:none;stroke:red;stroke-width:1px;stroke-linecap:butt;stroke-linejoin:miter;stroke-opacity:1" d="M 631.763,601.55 618.335,589.8 z" id="boundary" inkscape:connector-curvature="0" />
	<path style="fill:none;stroke:red;stroke-width:1px;stroke-linecap:butt;stroke-linejoin:miter;stroke-opacity:1" d="M 646.87,633.442 651.905,650.227 z" id="boundary" inkscape:connector-curvature="0" />
	<path style="fill:none;stroke:red;stroke-width:1px;stroke-linecap:butt;stroke-linejoin:miter;stroke-opacity:1" d="M 646.87,633.442 638.477,618.335 z" id="boundary" inkscape:connector-curvature="0" />
	<path style="fill:none;stroke:red;stroke-width:1px;stroke-linecap:butt;stroke-linejoin:miter;stroke-opacity:1" d="M 651.905,650.227 660.298,665.333 z" id="boundary" inkscape:connector-curvature="0" />
	<path style="fill:none;stroke:red;stroke-width:1px;stroke-linecap:butt;stroke-linejoin:miter;stroke-opacity:1" d="M 660.298,665.333 660.298,682.118 z" id="boundary" inkscape:connector-curvature="0" />
	<path style="fill:none;stroke:red;stroke-width:1px;stroke-linecap:butt;stroke-linejoin:miter;stroke-opacity:1" d="M 658.619,865.076 675.404,870.112 z" id="boundary" inkscape:connector-curvature="0" />
	<path style="fill:none;stroke:red;stroke-width:1px;stroke-linecap:butt;stroke-linejoin:miter;stroke-opacity:1" d="M 675.404,870.112 685.475,883.54 z" id="boundary" inkscape:connector-curvature="0" />
	<path style="fill:none;stroke:red;stroke-width:1px;stroke-linecap:butt;stroke-linejoin:miter;stroke-opacity:1" d="M 668.69,697.225 668.69,714.01 z" id="boundary" inkscape:connector-curvature="0" />
	<path style="fill:none;stroke:red;stroke-width:1px;stroke-linecap:butt;stroke-linejoin:miter;stroke-opacity:1" d="M 668.69,697.225 660.298,682.118 z" id="boundary" inkscape:connector-curvature="0" />
	<path style="fill:none;stroke:red;stroke-width:1px;stroke-linecap:butt;stroke-linejoin:miter;stroke-opacity:1" d="M 668.69,714.01 677.083,729.117 z" id="boundary" inkscape:connector-curvature="0" />
	<path style="fill:none;stroke:red;stroke-width:1px;stroke-linecap:butt;stroke-linejoin:miter;stroke-opacity:1" d="M 677.083,729.117 677.083,745.902 z" id="boundary" inkscape:connector-curvature="0" />
	<path style="fill:none;stroke:red;stroke-width:1px;stroke-linecap:butt;stroke-linejoin:miter;stroke-opacity:1" d="M 687.154,759.33 677.083,745.902 z" id="boundary" inkscape:connector-curvature="0" />
	<path style="fill:none;stroke:red;stroke-width:1px;stroke-linecap:butt;stroke-linejoin:miter;stroke-opacity:1" d="M 693.868,776.115 687.154,759.33 z" id="boundary" inkscape:connector-curvature="0" />
	<path style="fill:none;stroke:red;stroke-width:1px;stroke-linecap:butt;stroke-linejoin:miter;stroke-opacity:1" d="M 749.259,912.074 761.008,925.503 z" id="boundary" inkscape:connector-curvature="0" />
	<path style="fill:none;stroke:red;stroke-width:1px;stroke-linecap:butt;stroke-linejoin:miter;stroke-opacity:1" d="M 749.259,912.074 734.152,903.682 z" id="boundary" inkscape:connector-curvature="0" />
	<path style="fill:none;stroke:red;stroke-width:1px;stroke-linecap:butt;stroke-linejoin:miter;stroke-opacity:1" d="M 693.868,776.115 710.653,781.151 z" id="boundary" inkscape:connector-curvature="0" />
	<path style="fill:none;stroke:red;stroke-width:1px;stroke-linecap:butt;stroke-linejoin:miter;stroke-opacity:1" d="M 710.653,781.151 724.081,792.9 z" id="boundary" inkscape:connector-curvature="0" />
	<path style="fill:none;stroke:red;stroke-width:1px;stroke-linecap:butt;stroke-linejoin:miter;stroke-opacity:1" d="M 734.152,903.682 717.367,898.646 z" id="boundary" inkscape:connector-curvature="0" />
	<path style="fill:none;stroke:red;stroke-width:1px;stroke-linecap:butt;stroke-linejoin:miter;stroke-opacity:1" d="M 750.937,814.721 739.188,801.293 z" id="boundary" inkscape:connector-curvature="0" />
	<path style="fill:none;stroke:red;stroke-width:1px;stroke-linecap:butt;stroke-linejoin:miter;stroke-opacity:1" d="M 724.081,792.9 739.188,801.293 z" id="boundary" inkscape:connector-curvature="0" />
	<path style="fill:none;stroke:red;stroke-width:1px;stroke-linecap:butt;stroke-linejoin:miter;stroke-opacity:1" d="M 759.33,829.827 750.937,814.721 z" id="boundary" inkscape:connector-curvature="0" />
	<path style="fill:none;stroke:red;stroke-width:1px;stroke-linecap:butt;stroke-linejoin:miter;stroke-opacity:1" d="M 769.401,843.255 759.33,829.827 z" id="boundary" inkscape:connector-curvature="0" />
	<path style="fill:none;stroke:red;stroke-width:1px;stroke-linecap:butt;stroke-linejoin:miter;stroke-opacity:1" d="M 761.008,925.503 777.794,932.217 z" id="boundary" inkscape:connector-curvature="0" />
	<path style="fill:none;stroke:red;stroke-width:1px;stroke-linecap:butt;stroke-linejoin:miter;stroke-opacity:1" d="M 769.401,843.255 782.829,853.327 z" id="boundary" inkscape:connector-curvature="0" />
	<path style="fill:none;stroke:red;stroke-width:1px;stroke-linecap:butt;stroke-linejoin:miter;stroke-opacity:1" d="M 782.829,853.327 794.579,866.755 z" id="boundary" inkscape:connector-curvature="0" />
	<path style="fill:none;stroke:red;stroke-width:1px;stroke-linecap:butt;stroke-linejoin:miter;stroke-opacity:1" d="M 794.579,866.755 808.007,878.504 z" id="boundary" inkscape:connector-curvature="0" />
	<path style="fill:none;stroke:red;stroke-width:1px;stroke-linecap:butt;stroke-linejoin:miter;stroke-opacity:1" d="M 794.579,928.86 777.794,932.217 z" id="boundary" inkscape:connector-curvature="0" />
	<path style="fill:none;stroke:red;stroke-width:1px;stroke-linecap:butt;stroke-linejoin:miter;stroke-opacity:1" d="M 811.364,928.86 794.579,928.86 z" id="boundary" inkscape:connector-curvature="0" />
	<path style="fill:none;stroke:red;stroke-width:1px;stroke-linecap:butt;stroke-linejoin:miter;stroke-opacity:1" d="M 814.721,895.289 808.007,878.504 z" id="boundary" inkscape:connector-curvature="0" />
	<path style="fill:none;stroke:red;stroke-width:1px;stroke-linecap:butt;stroke-linejoin:miter;stroke-opacity:1" d="M 824.792,917.11 811.364,928.86 z" id="boundary" inkscape:connector-curvature="0" />
	<path style="fill:none;stroke:red;stroke-width:1px;stroke-linecap:butt;stroke-linejoin:miter;stroke-opacity:1" d="M 824.792,917.11 814.721,895.289 z" id="boundary" inkscape:connector-curvature="0" />
	<circle cx="4" cy="17.4281" r="4" fill="#0" id="circle0"/>
	<circle cx="4" cy="34.2132" r="4" fill="#0" id="circle1"/>
	<circle cx="17.4281" cy="4" r="4" fill="#0" id="circle2"/>
	<circle cx="20.7851" cy="39.2487" r="4" fill="#0" id="circle3"/>
	<circle cx="29.1777" cy="185.279" r="4" fill="#0" id="circle4"/>
	<circle cx="34.2132" cy="4" r="4" fill="#0" id="circle5"/>
	<circle cx="37.5702" cy="39.2487" r="4" fill="#0" id="circle6"/>
	<circle cx="42.6058" cy="171.851" r="4" fill="#0" id="circle7"/>
	<circle cx="42.6058" cy="197.029" r="4" fill="#0" id="circle8"/>
	<circle cx="50.9983" cy="4" r="4" fill="#0" id="circle9"/>
	<circle cx="54.3553" cy="39.2487" r="4" fill="#0" id="circle10"/>
	<circle cx="54.3553" cy="151.709" r="4" fill="#0" id="circle11"/>
	<circle cx="56.0338" cy="207.1" r="4" fill="#0" id="circle12"/>
	<circle cx="66.1049" cy="12.3926" r="4" fill="#0" id="circle13"/>
	<circle cx="67.7834" cy="138.281" r="4" fill="#0" id="circle14"/>
	<circle cx="69.4619" cy="47.6413" r="4" fill="#0" id="circle15"/>
	<circle cx="71.1404" cy="215.492" r="4" fill="#0" id="circle16"/>
	<circle cx="71.1404" cy="361.523" r="4" fill="#0" id="circle17"/>
	<circle cx="71.1404" cy="378.308" r="4" fill="#0" id="circle18"/>
	<circle cx="71.1404" cy="395.093" r="4" fill="#0" id="circle19"/>
	<circle cx="71.1404" cy="411.878" r="4" fill="#0" id="circle20"/>
	<circle cx="71.1404" cy="428.663" r="4" fill="#0" id="circle21"/>
	<circle cx="71.1404" cy="445.448" r="4" fill="#0" id="circle22"/>
	<circle cx="71.1404" cy="462.234" r="4" fill="#0" id="circle23"/>
	<circle cx="76.176" cy="64.4264" r="4" fill="#0" id="circle24"/>
	<circle cx="76.176" cy="121.496" r="4" fill="#0" id="circle25"/>
	<circle cx="79.533" cy="24.1421" r="4" fill="#0" id="circle26"/>
	<circle cx="79.533" cy="336.345" r="4" fill="#0" id="circle27"/>
	<circle cx="79.533" cy="477.34" r="4" fill="#0" id="circle28"/>
	<circle cx="81.2115" cy="228.92" r="4" fill="#0" id="circle29"/>
	<circle cx="84.5685" cy="79.533" r="4" fill="#0" id="circle30"/>
	<circle cx="87.9255" cy="96.3181" r="4" fill="#0" id="circle31"/>
	<circle cx="87.9255" cy="245.706" r="4" fill="#0" id="circle32"/>
	<circle cx="87.9255" cy="311.168" r="4" fill="#0" id="circle33"/>
	<circle cx="87.9255" cy="492.447" r="4" fill="#0" id="circle34"/>
	<circle cx="87.9255" cy="509.232" r="4" fill="#0" id="circle35"/>
	<circle cx="89.6041" cy="37.5702" r="4" fill="#0" id="circle36"/>
	<circle cx="96.3181" cy="260.812" r="4" fill="#0" id="circle37"/>
	<circle cx="96.3181" cy="277.597" r="4" fill="#0" id="circle38"/>
	<circle cx="96.3181" cy="294.382" r="4" fill="#0" id="circle39"/>
	<circle cx="96.3181" cy="524.338" r="4" fill="#0" id="circle40"/>
	<circle cx="97.9966" cy="52.6768" r="4" fill="#0" id="circle41"/>
	<circle cx="99.6751" cy="541.124" r="4" fill="#0" id="circle42"/>
	<circle cx="106.389" cy="67.7834" r="4" fill="#0" id="circle43"/>
	<circle cx="106.389" cy="84.5685" r="4" fill="#0" id="circle44"/>
	<circle cx="113.103" cy="551.195" r="4" fill="#0" id="circle45"/>
	<circle cx="118.139" cy="97.9966" r="4" fill="#0" id="circle46"/>
	<circle cx="118.139" cy="567.98" r="4" fill="#0" id="circle47"/>
	<circle cx="126.531" cy="583.086" r="4" fill="#0" id="circle48"/>
	<circle cx="133.245" cy="599.871" r="4" fill="#0" id="circle49"/>
	<circle cx="134.924" cy="104.711" r="4" fill="#0" id="circle50"/>
	<circle cx="146.673" cy="609.942" r="4" fill="#0" id="circle51"/>
	<circle cx="151.709" cy="104.711" r="4" fill="#0" id="circle52"/>
	<circle cx="155.066" cy="625.049" r="4" fill="#0" id="circle53"/>
	<circle cx="163.459" cy="640.156" r="4" fill="#0" id="circle54"/>
	<circle cx="166.816" cy="113.103" r="4" fill="#0" id="circle55"/>
	<circle cx="171.851" cy="655.262" r="4" fill="#0" id="circle56"/>
	<circle cx="171.851" cy="672.047" r="4" fill="#0" id="circle57"/>
	<circle cx="183.601" cy="113.103" r="4" fill="#0" id="circle58"/>
	<circle cx="185.279" cy="683.797" r="4" fill="#0" id="circle59"/>
	<circle cx="191.993" cy="700.582" r="4" fill="#0" id="circle60"/>
	<circle cx="198.707" cy="121.496" r="4" fill="#0" id="circle61"/>
	<circle cx="205.421" cy="710.653" r="4" fill="#0" id="circle62"/>
	<circle cx="213.814" cy="129.888" r="4" fill="#0" id="circle63"/>
	<circle cx="215.492" cy="724.081" r="4" fill="#0" id="circle64"/>
	<circle cx="227.242" cy="139.959" r="4" fill="#0" id="circle65"/>
	<circle cx="228.92" cy="735.831" r="4" fill="#0" id="circle66"/>
	<circle cx="238.992" cy="749.259" r="4" fill="#0" id="circle67"/>
	<circle cx="238.992" cy="907.039" r="4" fill="#0" id="circle68"/>
	<circle cx="240.67" cy="151.709" r="4" fill="#0" id="circle69"/>
	<circle cx="240.67" cy="168.494" r="4" fill="#0" id="circle70"/>
	<circle cx="247.384" cy="922.146" r="4" fill="#0" id="circle71"/>
	<circle cx="252.42" cy="181.922" r="4" fill="#0" id="circle72"/>
	<circle cx="252.42" cy="761.008" r="4" fill="#0" id="circle73"/>
	<circle cx="252.42" cy="893.611" r="4" fill="#0" id="circle74"/>
	<circle cx="259.134" cy="935.574" r="4" fill="#0" id="circle75"/>
	<circle cx="265.848" cy="193.672" r="4" fill="#0" id="circle76"/>
	<circle cx="269.205" cy="767.723" r="4" fill="#0" id="circle77"/>
	<circle cx="269.205" cy="885.218" r="4" fill="#0" id="circle78"/>
	<circle cx="272.562" cy="210.457" r="4" fill="#0" id="circle79"/>
	<circle cx="275.919" cy="937.252" r="4" fill="#0" id="circle80"/>
	<circle cx="280.954" cy="225.563" r="4" fill="#0" id="circle81"/>
	<circle cx="282.633" cy="920.467" r="4" fill="#0" id="circle82"/>
	<circle cx="285.99" cy="769.401" r="4" fill="#0" id="circle83"/>
	<circle cx="285.99" cy="885.218" r="4" fill="#0" id="circle84"/>
	<circle cx="291.025" cy="238.992" r="4" fill="#0" id="circle85"/>
	<circle cx="297.739" cy="865.076" r="4" fill="#0" id="circle86"/>
	<circle cx="299.418" cy="254.098" r="4" fill="#0" id="circle87"/>
	<circle cx="299.418" cy="781.151" r="4" fill="#0" id="circle88"/>
	<circle cx="299.418" cy="912.074" r="4" fill="#0" id="circle89"/>
	<circle cx="312.846" cy="265.848" r="4" fill="#0" id="circle90"/>
	<circle cx="312.846" cy="900.325" r="4" fill="#0" id="circle91"/>
	<circle cx="314.525" cy="860.041" r="4" fill="#0" id="circle92"/>
	<circle cx="316.203" cy="786.186" r="4" fill="#0" id="circle93"/>
	<circle cx="321.239" cy="280.954" r="4" fill="#0" id="circle94"/>
	<circle cx="329.631" cy="851.648" r="4" fill="#0" id="circle95"/>
	<circle cx="329.631" cy="895.289" r="4" fill="#0" id="circle96"/>
	<circle cx="331.31" cy="794.579" r="4" fill="#0" id="circle97"/>
	<circle cx="336.345" cy="289.347" r="4" fill="#0" id="circle98"/>
	<circle cx="344.738" cy="886.897" r="4" fill="#0" id="circle99"/>
	<circle cx="346.416" cy="851.648" r="4" fill="#0" id="circle100"/>
	<circle cx="348.095" cy="794.579" r="4" fill="#0" id="circle101"/>
	<circle cx="351.452" cy="297.739" r="4" fill="#0" id="circle102"/>
	<circle cx="361.523" cy="885.218" r="4" fill="#0" id="circle103"/>
	<circle cx="363.201" cy="802.971" r="4" fill="#0" id="circle104"/>
	<circle cx="363.201" cy="851.648" r="4" fill="#0" id="circle105"/>
	<circle cx="366.558" cy="306.132" r="4" fill="#0" id="circle106"/>
	<circle cx="374.951" cy="870.112" r="4" fill="#0" id="circle107"/>
	<circle cx="378.308" cy="843.255" r="4" fill="#0" id="circle108"/>
	<circle cx="379.986" cy="802.971" r="4" fill="#0" id="circle109"/>
	<circle cx="383.343" cy="311.168" r="4" fill="#0" id="circle110"/>
	<circle cx="386.701" cy="819.756" r="4" fill="#0" id="circle111"/>
	<circle cx="391.736" cy="861.719" r="4" fill="#0" id="circle112"/>
	<circle cx="396.772" cy="322.917" r="4" fill="#0" id="circle113"/>
	<circle cx="406.843" cy="974.179" r="4" fill="#0" id="circle114"/>
	<circle cx="408.521" cy="861.719" r="4" fill="#0" id="circle115"/>
	<circle cx="411.878" cy="331.31" r="4" fill="#0" id="circle116"/>
	<circle cx="415.235" cy="989.286" r="4" fill="#0" id="circle117"/>
	<circle cx="423.628" cy="344.738" r="4" fill="#0" id="circle118"/>
	<circle cx="423.628" cy="853.327" r="4" fill="#0" id="circle119"/>
	<circle cx="423.628" cy="965.787" r="4" fill="#0" id="circle120"/>
	<circle cx="432.02" cy="996" r="4" fill="#0" id="circle121"/>
	<circle cx="433.699" cy="836.541" r="4" fill="#0" id="circle122"/>
	<circle cx="437.056" cy="356.487" r="4" fill="#0" id="circle123"/>
	<circle cx="437.056" cy="952.359" r="4" fill="#0" id="circle124"/>
	<circle cx="445.448" cy="935.574" r="4" fill="#0" id="circle125"/>
	<circle cx="448.805" cy="828.149" r="4" fill="#0" id="circle126"/>
	<circle cx="448.805" cy="996" r="4" fill="#0" id="circle127"/>
	<circle cx="452.162" cy="364.88" r="4" fill="#0" id="circle128"/>
	<circle cx="458.876" cy="381.665" r="4" fill="#0" id="circle129"/>
	<circle cx="458.876" cy="922.146" r="4" fill="#0" id="circle130"/>
	<circle cx="462.234" cy="985.929" r="4" fill="#0" id="circle131"/>
	<circle cx="463.912" cy="819.756" r="4" fill="#0" id="circle132"/>
	<circle cx="467.269" cy="905.36" r="4" fill="#0" id="circle133"/>
	<circle cx="472.305" cy="391.736" r="4" fill="#0" id="circle134"/>
	<circle cx="475.662" cy="888.575" r="4" fill="#0" id="circle135"/>
	<circle cx="479.019" cy="977.536" r="4" fill="#0" id="circle136"/>
	<circle cx="480.697" cy="819.756" r="4" fill="#0" id="circle137"/>
	<circle cx="487.411" cy="400.129" r="4" fill="#0" id="circle138"/>
	<circle cx="489.09" cy="876.826" r="4" fill="#0" id="circle139"/>
	<circle cx="492.447" cy="903.682" r="4" fill="#0" id="circle140"/>
	<circle cx="492.447" cy="920.467" r="4" fill="#0" id="circle141"/>
	<circle cx="492.447" cy="962.43" r="4" fill="#0" id="circle142"/>
	<circle cx="495.804" cy="828.149" r="4" fill="#0" id="circle143"/>
	<circle cx="495.804" cy="860.041" r="4" fill="#0" id="circle144"/>
	<circle cx="495.804" cy="937.252" r="4" fill="#0" id="circle145"/>
	<circle cx="504.196" cy="406.843" r="4" fill="#0" id="circle146"/>
	<circle cx="505.875" cy="891.932" r="4" fill="#0" id="circle147"/>
	<circle cx="507.553" cy="841.577" r="4" fill="#0" id="circle148"/>
	<circle cx="509.232" cy="423.628" r="4" fill="#0" id="circle149"/>
	<circle cx="509.232" cy="949.002" r="4" fill="#0" id="circle150"/>
	<circle cx="522.66" cy="883.54" r="4" fill="#0" id="circle151"/>
	<circle cx="526.017" cy="428.663" r="4" fill="#0" id="circle152"/>
	<circle cx="531.052" cy="866.755" r="4" fill="#0" id="circle153"/>
	<circle cx="532.731" cy="445.448" r="4" fill="#0" id="circle154"/>
	<circle cx="534.409" cy="836.541" r="4" fill="#0" id="circle155"/>
	<circle cx="541.124" cy="460.555" r="4" fill="#0" id="circle156"/>
	<circle cx="547.838" cy="824.792" r="4" fill="#0" id="circle157"/>
	<circle cx="551.195" cy="473.983" r="4" fill="#0" id="circle158"/>
	<circle cx="564.623" cy="484.054" r="4" fill="#0" id="circle159"/>
	<circle cx="564.623" cy="828.149" r="4" fill="#0" id="circle160"/>
	<circle cx="576.372" cy="497.482" r="4" fill="#0" id="circle161"/>
	<circle cx="581.408" cy="828.149" r="4" fill="#0" id="circle162"/>
	<circle cx="584.765" cy="512.589" r="4" fill="#0" id="circle163"/>
	<circle cx="596.514" cy="526.017" r="4" fill="#0" id="circle164"/>
	<circle cx="596.514" cy="836.541" r="4" fill="#0" id="circle165"/>
	<circle cx="601.55" cy="542.802" r="4" fill="#0" id="circle166"/>
	<circle cx="609.942" cy="557.909" r="4" fill="#0" id="circle167"/>
	<circle cx="609.942" cy="574.694" r="4" fill="#0" id="circle168"/>
	<circle cx="613.299" cy="843.255" r="4" fill="#0" id="circle169"/>
	<circle cx="618.335" cy="589.8" r="4" fill="#0" id="circle170"/>
	<circle cx="626.728" cy="853.327" r="4" fill="#0" id="circle171"/>
	<circle cx="631.763" cy="601.55" r="4" fill="#0" id="circle172"/>
	<circle cx="638.477" cy="618.335" r="4" fill="#0" id="circle173"/>
	<circle cx="643.513" cy="856.684" r="4" fill="#0" id="circle174"/>
	<circle cx="646.87" cy="633.442" r="4" fill="#0" id="circle175"/>
	<circle cx="651.905" cy="650.227" r="4" fill="#0" id="circle176"/>
	<circle cx="658.619" cy="865.076" r="4" fill="#0" id="circle177"/>
	<circle cx="660.298" cy="665.333" r="4" fill="#0" id="circle178"/>
	<circle cx="660.298" cy="682.118" r="4" fill="#0" id="circle179"/>
	<circle cx="668.69" cy="697.225" r="4" fill="#0" id="circle180"/>
	<circle cx="668.69" cy="714.01" r="4" fill="#0" id="circle181"/>
	<circle cx="675.404" cy="870.112" r="4" fill="#0" id="circle182"/>
	<circle cx="677.083" cy="729.117" r="4" fill="#0" id="circle183"/>
	<circle cx="677.083" cy="745.902" r="4" fill="#0" id="circle184"/>
	<circle cx="685.475" cy="883.54" r="4" fill="#0" id="circle185"/>
	<circle cx="687.154" cy="759.33" r="4" fill="#0" id="circle186"/>
	<circle cx="693.868" cy="776.115" r="4" fill="#0" id="circle187"/>
	<circle cx="702.261" cy="890.254" r="4" fill="#0" id="circle188"/>
	<circle cx="710.653" cy="781.151" r="4" fill="#0" id="circle189"/>
	<circle cx="717.367" cy="898.646" r="4" fill="#0" id="circle190"/>
	<circle cx="724.081" cy="792.9" r="4" fill="#0" id="circle191"/>
	<circle cx="734.152" cy="903.682" r="4" fill="#0" id="circle192"/>
	<circle cx="739.188" cy="801.293" r="4" fill="#0" id="circle193"/>
	<circle cx="749.259" cy="912.074" r="4" fill="#0" id="circle194"/>
	<circle cx="750.937" cy="814.721" r="4" fill="#0" id="circle195"/>
	<circle cx="759.33" cy="829.827" r="4" fill="#0" id="circle196"/>
	<circle cx="761.008" cy="925.503" r="4" fill="#0" id="circle197"/>
	<circle cx="769.401" cy="843.255" r="4" fill="#0" id="circle198"/>
	<circle cx="777.794" cy="932.217" r="4" fill="#0" id="circle199"/>
	<circle cx="782.829" cy="853.327" r="4" fill="#0" id="circle200"/>
	<circle cx="794.579" cy="866.755" r="4" fill="#0" id="circle201"/>
	<circle cx="794.579" cy="928.86" r="4" fill="#0" id="circle202"/>
	<circle cx="808.007" cy="878.504" r="4" fill="#0" id="circle203"/>
	<circle cx="811.364" cy="928.86" r="4" fill="#0" id="circle204"/>
	<circle cx="814.721" cy="895.289" r="4" fill="#0" id="circle205"/>
	<circle cx="824.792" cy="917.11" r="4" fill="#0" id="circle206"/>
	</g>
</svg>