<?xml version="1.0" encoding="UTF-8" standalone="no"?>
<!-- Created with CurveBenchmark -->
<svg
	xmlns:dc="http://purl.org/dc/elements/1.1/"
	xmlns:cc="http://creativecommons.org/ns#"
	xmlns:rdf="http://www.w3.org/1999/02/22-rdf-syntax-ns#"
	xmlns:svg="http://www.w3.org/2000/svg"
	xmlns="http://www.w3.org/2000/svg"
	xmlns:sodipodi="http://sodipodi.sourceforge.net/DTD/sodipodi-0.dtd"
	xmlns:inkscape="http://www.inkscape.org/namespaces/inkscape"
	width="1000"
	height="1000"
	id="svg2"
	version="1.1"
	sodipodi:docname="manifold/peel-guitar235.png.txt">
<defs
	id="defs4" />
<metadata
	id="metadata7">
	<rdf:RDF>
		<cc:Work
			rdf:about="">
			<dc:format>image/svg+xml</dc:format>
			<dc:type
				rdf:resource="http://purl.org/dc/dcmitype/StillImage" />
			<dc:title></dc:title>
		</cc:Work>
	</rdf:RDF>
</metadata>
<g
	inkscape:label="Layer 1"
	inkscape:groupmode="layer"
	id="layer1">
	<path style="fill:none;stroke:red;stroke-width:1px;stroke-linecap:butt;stroke-linejoin:miter;stroke-opacity:1" d="M 32.242,710.05 18.121,752.413 z" id="boundary" inkscape:connector-curvature="0" />
	<path style="fill:none;stroke:red;stroke-width:1px;stroke-linecap:butt;stroke-linejoin:miter;stroke-opacity:1" d="M 4,830.078 4,794.776 z" id="boundary" inkscape:connector-curvature="0" />
	<path style="fill:none;stroke:red;stroke-width:1px;stroke-linecap:butt;stroke-linejoin:miter;stroke-opacity:1" d="M 4,794.776 18.121,752.413 z" id="boundary" inkscape:connector-curvature="0" />
	<path style="fill:none;stroke:red;stroke-width:1px;stroke-linecap:butt;stroke-linejoin:miter;stroke-opacity:1" d="M 88.726,519.416 60.484,547.658 z" id="boundary" inkscape:connector-curvature="0" />
	<path style="fill:none;stroke:red;stroke-width:1px;stroke-linecap:butt;stroke-linejoin:miter;stroke-opacity:1" d="M 4,865.381 4,830.078 z" id="boundary" inkscape:connector-curvature="0" />
	<path style="fill:none;stroke:red;stroke-width:1px;stroke-linecap:butt;stroke-linejoin:miter;stroke-opacity:1" d="M 4,865.381 7.53025,900.683 z" id="boundary" inkscape:connector-curvature="0" />
	<path style="fill:none;stroke:red;stroke-width:1px;stroke-linecap:butt;stroke-linejoin:miter;stroke-opacity:1" d="M 25.1815,597.082 25.1815,561.779 z" id="boundary" inkscape:connector-curvature="0" />
	<path style="fill:none;stroke:red;stroke-width:1px;stroke-linecap:butt;stroke-linejoin:miter;stroke-opacity:1" d="M 32.242,632.384 25.1815,597.082 z" id="boundary" inkscape:connector-curvature="0" />
	<path style="fill:none;stroke:red;stroke-width:1px;stroke-linecap:butt;stroke-linejoin:miter;stroke-opacity:1" d="M 25.1815,561.779 60.484,547.658 z" id="boundary" inkscape:connector-curvature="0" />
	<path style="fill:none;stroke:red;stroke-width:1px;stroke-linecap:butt;stroke-linejoin:miter;stroke-opacity:1" d="M 268.769,702.989 261.708,667.687 z" id="boundary" inkscape:connector-curvature="0" />
	<path style="fill:none;stroke:red;stroke-width:1px;stroke-linecap:butt;stroke-linejoin:miter;stroke-opacity:1" d="M 32.242,632.384 39.3025,667.687 z" id="boundary" inkscape:connector-curvature="0" />
	<path style="fill:none;stroke:red;stroke-width:1px;stroke-linecap:butt;stroke-linejoin:miter;stroke-opacity:1" d="M 39.3025,667.687 32.242,710.05 z" id="boundary" inkscape:connector-curvature="0" />
	<path style="fill:none;stroke:red;stroke-width:1px;stroke-linecap:butt;stroke-linejoin:miter;stroke-opacity:1" d="M 7.53025,900.683 21.6512,935.986 z" id="boundary" inkscape:connector-curvature="0" />
	<path style="fill:none;stroke:red;stroke-width:1px;stroke-linecap:butt;stroke-linejoin:miter;stroke-opacity:1" d="M 88.726,519.416 88.726,484.114 z" id="boundary" inkscape:connector-curvature="0" />
	<path style="fill:none;stroke:red;stroke-width:1px;stroke-linecap:butt;stroke-linejoin:miter;stroke-opacity:1" d="M 42.8327,964.228 71.0747,988.94 z" id="boundary" inkscape:connector-curvature="0" />
	<path style="fill:none;stroke:red;stroke-width:1px;stroke-linecap:butt;stroke-linejoin:miter;stroke-opacity:1" d="M 71.0747,988.94 106.377,996 z" id="boundary" inkscape:connector-curvature="0" />
	<path style="fill:none;stroke:red;stroke-width:1px;stroke-linecap:butt;stroke-linejoin:miter;stroke-opacity:1" d="M 21.6512,935.986 42.8327,964.228 z" id="boundary" inkscape:connector-curvature="0" />
	<path style="fill:none;stroke:red;stroke-width:1px;stroke-linecap:butt;stroke-linejoin:miter;stroke-opacity:1" d="M 88.726,448.811 88.726,413.509 z" id="boundary" inkscape:connector-curvature="0" />
	<path style="fill:none;stroke:red;stroke-width:1px;stroke-linecap:butt;stroke-linejoin:miter;stroke-opacity:1" d="M 88.726,484.114 88.726,448.811 z" id="boundary" inkscape:connector-curvature="0" />
	<path style="fill:none;stroke:red;stroke-width:1px;stroke-linecap:butt;stroke-linejoin:miter;stroke-opacity:1" d="M 95.7865,138.149 95.7865,102.847 z" id="boundary" inkscape:connector-curvature="0" />
	<path style="fill:none;stroke:red;stroke-width:1px;stroke-linecap:butt;stroke-linejoin:miter;stroke-opacity:1" d="M 134.619,332.313 134.619,297.011 z" id="boundary" inkscape:connector-curvature="0" />
	<path style="fill:none;stroke:red;stroke-width:1px;stroke-linecap:butt;stroke-linejoin:miter;stroke-opacity:1" d="M 95.7865,244.057 95.7865,208.754 z" id="boundary" inkscape:connector-curvature="0" />
	<path style="fill:none;stroke:red;stroke-width:1px;stroke-linecap:butt;stroke-linejoin:miter;stroke-opacity:1" d="M 184.043,484.114 148.74,473.523 z" id="boundary" inkscape:connector-curvature="0" />
	<path style="fill:none;stroke:red;stroke-width:1px;stroke-linecap:butt;stroke-linejoin:miter;stroke-opacity:1" d="M 95.7865,279.359 95.7865,244.057 z" id="boundary" inkscape:connector-curvature="0" />
	<path style="fill:none;stroke:red;stroke-width:1px;stroke-linecap:butt;stroke-linejoin:miter;stroke-opacity:1" d="M 95.7865,173.452 95.7865,208.754 z" id="boundary" inkscape:connector-curvature="0" />
	<path style="fill:none;stroke:red;stroke-width:1px;stroke-linecap:butt;stroke-linejoin:miter;stroke-opacity:1" d="M 95.7865,138.149 95.7865,173.452 z" id="boundary" inkscape:connector-curvature="0" />
	<path style="fill:none;stroke:red;stroke-width:1px;stroke-linecap:butt;stroke-linejoin:miter;stroke-opacity:1" d="M 95.7865,314.662 95.7865,279.359 z" id="boundary" inkscape:connector-curvature="0" />
	<path style="fill:none;stroke:red;stroke-width:1px;stroke-linecap:butt;stroke-linejoin:miter;stroke-opacity:1" d="M 102.847,67.5445 95.7865,102.847 z" id="boundary" inkscape:connector-curvature="0" />
	<path style="fill:none;stroke:red;stroke-width:1px;stroke-linecap:butt;stroke-linejoin:miter;stroke-opacity:1" d="M 134.619,261.708 134.619,297.011 z" id="boundary" inkscape:connector-curvature="0" />
	<path style="fill:none;stroke:red;stroke-width:1px;stroke-linecap:butt;stroke-linejoin:miter;stroke-opacity:1" d="M 116.968,11.0605 152.27,4 z" id="boundary" inkscape:connector-curvature="0" />
	<path style="fill:none;stroke:red;stroke-width:1px;stroke-linecap:butt;stroke-linejoin:miter;stroke-opacity:1" d="M 152.27,4 162.861,46.363 z" id="boundary" inkscape:connector-curvature="0" />
	<path style="fill:none;stroke:red;stroke-width:1px;stroke-linecap:butt;stroke-linejoin:miter;stroke-opacity:1" d="M 134.619,261.708 134.619,226.406 z" id="boundary" inkscape:connector-curvature="0" />
	<path style="fill:none;stroke:red;stroke-width:1px;stroke-linecap:butt;stroke-linejoin:miter;stroke-opacity:1" d="M 127.559,155.801 134.619,191.103 z" id="boundary" inkscape:connector-curvature="0" />
	<path style="fill:none;stroke:red;stroke-width:1px;stroke-linecap:butt;stroke-linejoin:miter;stroke-opacity:1" d="M 134.619,191.103 134.619,226.406 z" id="boundary" inkscape:connector-curvature="0" />
	<path style="fill:none;stroke:red;stroke-width:1px;stroke-linecap:butt;stroke-linejoin:miter;stroke-opacity:1" d="M 134.619,367.616 134.619,332.313 z" id="boundary" inkscape:connector-curvature="0" />
	<path style="fill:none;stroke:red;stroke-width:1px;stroke-linecap:butt;stroke-linejoin:miter;stroke-opacity:1" d="M 127.559,155.801 145.21,120.498 z" id="boundary" inkscape:connector-curvature="0" />
	<path style="fill:none;stroke:red;stroke-width:1px;stroke-linecap:butt;stroke-linejoin:miter;stroke-opacity:1" d="M 134.619,402.918 134.619,367.616 z" id="boundary" inkscape:connector-curvature="0" />
	<path style="fill:none;stroke:red;stroke-width:1px;stroke-linecap:butt;stroke-linejoin:miter;stroke-opacity:1" d="M 148.74,473.523 141.68,438.221 z" id="boundary" inkscape:connector-curvature="0" />
	<path style="fill:none;stroke:red;stroke-width:1px;stroke-linecap:butt;stroke-linejoin:miter;stroke-opacity:1" d="M 134.619,402.918 141.68,438.221 z" id="boundary" inkscape:connector-curvature="0" />
	<path style="fill:none;stroke:red;stroke-width:1px;stroke-linecap:butt;stroke-linejoin:miter;stroke-opacity:1" d="M 152.27,85.1957 145.21,120.498 z" id="boundary" inkscape:connector-curvature="0" />
	<path style="fill:none;stroke:red;stroke-width:1px;stroke-linecap:butt;stroke-linejoin:miter;stroke-opacity:1" d="M 152.27,85.1957 162.861,46.363 z" id="boundary" inkscape:connector-curvature="0" />
	<path style="fill:none;stroke:red;stroke-width:1px;stroke-linecap:butt;stroke-linejoin:miter;stroke-opacity:1" d="M 106.377,996 141.68,996 z" id="boundary" inkscape:connector-curvature="0" />
	<path style="fill:none;stroke:red;stroke-width:1px;stroke-linecap:butt;stroke-linejoin:miter;stroke-opacity:1" d="M 215.815,501.765 184.043,484.114 z" id="boundary" inkscape:connector-curvature="0" />
	<path style="fill:none;stroke:red;stroke-width:1px;stroke-linecap:butt;stroke-linejoin:miter;stroke-opacity:1" d="M 297.011,773.594 304.071,808.897 z" id="boundary" inkscape:connector-curvature="0" />
	<path style="fill:none;stroke:red;stroke-width:1px;stroke-linecap:butt;stroke-linejoin:miter;stroke-opacity:1" d="M 251.117,515.886 272.299,544.128 z" id="boundary" inkscape:connector-curvature="0" />
	<path style="fill:none;stroke:red;stroke-width:1px;stroke-linecap:butt;stroke-linejoin:miter;stroke-opacity:1" d="M 272.299,544.128 275.829,579.431 z" id="boundary" inkscape:connector-curvature="0" />
	<path style="fill:none;stroke:red;stroke-width:1px;stroke-linecap:butt;stroke-linejoin:miter;stroke-opacity:1" d="M 297.011,773.594 282.89,738.292 z" id="boundary" inkscape:connector-curvature="0" />
	<path style="fill:none;stroke:red;stroke-width:1px;stroke-linecap:butt;stroke-linejoin:miter;stroke-opacity:1" d="M 176.982,996 212.285,996 z" id="boundary" inkscape:connector-curvature="0" />
	<path style="fill:none;stroke:red;stroke-width:1px;stroke-linecap:butt;stroke-linejoin:miter;stroke-opacity:1" d="M 212.285,996 247.587,978.349 z" id="boundary" inkscape:connector-curvature="0" />
	<path style="fill:none;stroke:red;stroke-width:1px;stroke-linecap:butt;stroke-linejoin:miter;stroke-opacity:1" d="M 261.708,667.687 268.769,632.384 z" id="boundary" inkscape:connector-curvature="0" />
	<path style="fill:none;stroke:red;stroke-width:1px;stroke-linecap:butt;stroke-linejoin:miter;stroke-opacity:1" d="M 215.815,501.765 251.117,515.886 z" id="boundary" inkscape:connector-curvature="0" />
	<path style="fill:none;stroke:red;stroke-width:1px;stroke-linecap:butt;stroke-linejoin:miter;stroke-opacity:1" d="M 282.89,738.292 268.769,702.989 z" id="boundary" inkscape:connector-curvature="0" />
	<path style="fill:none;stroke:red;stroke-width:1px;stroke-linecap:butt;stroke-linejoin:miter;stroke-opacity:1" d="M 247.587,978.349 275.829,950.107 z" id="boundary" inkscape:connector-curvature="0" />
	<path style="fill:none;stroke:red;stroke-width:1px;stroke-linecap:butt;stroke-linejoin:miter;stroke-opacity:1" d="M 268.769,632.384 275.829,579.431 z" id="boundary" inkscape:connector-curvature="0" />
	<path style="fill:none;stroke:red;stroke-width:1px;stroke-linecap:butt;stroke-linejoin:miter;stroke-opacity:1" d="M 275.829,950.107 293.48,918.335 z" id="boundary" inkscape:connector-curvature="0" />
	<path style="fill:none;stroke:red;stroke-width:1px;stroke-linecap:butt;stroke-linejoin:miter;stroke-opacity:1" d="M 304.071,844.199 304.071,808.897 z" id="boundary" inkscape:connector-curvature="0" />
	<path style="fill:none;stroke:red;stroke-width:1px;stroke-linecap:butt;stroke-linejoin:miter;stroke-opacity:1" d="M 176.982,996 141.68,996 z" id="boundary" inkscape:connector-curvature="0" />
	<path style="fill:none;stroke:red;stroke-width:1px;stroke-linecap:butt;stroke-linejoin:miter;stroke-opacity:1" d="M 304.071,879.502 304.071,844.199 z" id="boundary" inkscape:connector-curvature="0" />
	<path style="fill:none;stroke:red;stroke-width:1px;stroke-linecap:butt;stroke-linejoin:miter;stroke-opacity:1" d="M 293.48,918.335 304.071,879.502 z" id="boundary" inkscape:connector-curvature="0" />
	<circle cx="4" cy="794.776" r="4" fill="#0" id="circle0"/>
	<circle cx="4" cy="830.078" r="4" fill="#0" id="circle1"/>
	<circle cx="4" cy="865.381" r="4" fill="#0" id="circle2"/>
	<circle cx="7.53025" cy="900.683" r="4" fill="#0" id="circle3"/>
	<circle cx="18.121" cy="752.413" r="4" fill="#0" id="circle4"/>
	<circle cx="21.6512" cy="935.986" r="4" fill="#0" id="circle5"/>
	<circle cx="25.1815" cy="561.779" r="4" fill="#0" id="circle6"/>
	<circle cx="25.1815" cy="597.082" r="4" fill="#0" id="circle7"/>
	<circle cx="32.242" cy="632.384" r="4" fill="#0" id="circle8"/>
	<circle cx="32.242" cy="710.05" r="4" fill="#0" id="circle9"/>
	<circle cx="39.3025" cy="667.687" r="4" fill="#0" id="circle10"/>
	<circle cx="42.8327" cy="964.228" r="4" fill="#0" id="circle11"/>
	<circle cx="60.484" cy="547.658" r="4" fill="#0" id="circle12"/>
	<circle cx="71.0747" cy="988.94" r="4" fill="#0" id="circle13"/>
	<circle cx="88.726" cy="364.085" r="4" fill="#0" id="circle14"/>
	<circle cx="88.726" cy="413.509" r="4" fill="#0" id="circle15"/>
	<circle cx="88.726" cy="448.811" r="4" fill="#0" id="circle16"/>
	<circle cx="88.726" cy="484.114" r="4" fill="#0" id="circle17"/>
	<circle cx="88.726" cy="519.416" r="4" fill="#0" id="circle18"/>
	<circle cx="95.7865" cy="102.847" r="4" fill="#0" id="circle19"/>
	<circle cx="95.7865" cy="138.149" r="4" fill="#0" id="circle20"/>
	<circle cx="95.7865" cy="173.452" r="4" fill="#0" id="circle21"/>
	<circle cx="95.7865" cy="208.754" r="4" fill="#0" id="circle22"/>
	<circle cx="95.7865" cy="244.057" r="4" fill="#0" id="circle23"/>
	<circle cx="95.7865" cy="279.359" r="4" fill="#0" id="circle24"/>
	<circle cx="95.7865" cy="314.662" r="4" fill="#0" id="circle25"/>
	<circle cx="102.847" cy="67.5445" r="4" fill="#0" id="circle26"/>
	<circle cx="106.377" cy="996" r="4" fill="#0" id="circle27"/>
	<circle cx="116.968" cy="11.0605" r="4" fill="#0" id="circle28"/>
	<circle cx="127.559" cy="155.801" r="4" fill="#0" id="circle29"/>
	<circle cx="134.619" cy="191.103" r="4" fill="#0" id="circle30"/>
	<circle cx="134.619" cy="226.406" r="4" fill="#0" id="circle31"/>
	<circle cx="134.619" cy="261.708" r="4" fill="#0" id="circle32"/>
	<circle cx="134.619" cy="297.011" r="4" fill="#0" id="circle33"/>
	<circle cx="134.619" cy="332.313" r="4" fill="#0" id="circle34"/>
	<circle cx="134.619" cy="367.616" r="4" fill="#0" id="circle35"/>
	<circle cx="134.619" cy="402.918" r="4" fill="#0" id="circle36"/>
	<circle cx="141.68" cy="438.221" r="4" fill="#0" id="circle37"/>
	<circle cx="141.68" cy="996" r="4" fill="#0" id="circle38"/>
	<circle cx="145.21" cy="120.498" r="4" fill="#0" id="circle39"/>
	<circle cx="148.74" cy="473.523" r="4" fill="#0" id="circle40"/>
	<circle cx="152.27" cy="4" r="4" fill="#0" id="circle41"/>
	<circle cx="152.27" cy="85.1957" r="4" fill="#0" id="circle42"/>
	<circle cx="162.861" cy="46.363" r="4" fill="#0" id="circle43"/>
	<circle cx="176.982" cy="996" r="4" fill="#0" id="circle44"/>
	<circle cx="184.043" cy="484.114" r="4" fill="#0" id="circle45"/>
	<circle cx="212.285" cy="996" r="4" fill="#0" id="circle46"/>
	<circle cx="215.815" cy="501.765" r="4" fill="#0" id="circle47"/>
	<circle cx="247.587" cy="978.349" r="4" fill="#0" id="circle48"/>
	<circle cx="251.117" cy="515.886" r="4" fill="#0" id="circle49"/>
	<circle cx="261.708" cy="667.687" r="4" fill="#0" id="circle50"/>
	<circle cx="268.769" cy="632.384" r="4" fill="#0" id="circle51"/>
	<circle cx="268.769" cy="702.989" r="4" fill="#0" id="circle52"/>
	<circle cx="272.299" cy="544.128" r="4" fill="#0" id="circle53"/>
	<circle cx="275.829" cy="579.431" r="4" fill="#0" id="circle54"/>
	<circle cx="275.829" cy="950.107" r="4" fill="#0" id="circle55"/>
	<circle cx="282.89" cy="738.292" r="4" fill="#0" id="circle56"/>
	<circle cx="293.48" cy="918.335" r="4" fill="#0" id="circle57"/>
	<circle cx="297.011" cy="773.594" r="4" fill="#0" id="circle58"/>
	<circle cx="304.071" cy="808.897" r="4" fill="#0" id="circle59"/>
	<circle cx="304.071" cy="844.199" r="4" fill="#0" id="circle60"/>
	<circle cx="304.071" cy="879.502" r="4" fill="#0" id="circle61"/>
	</g>
</svg>