<?xml version="1.0" encoding="UTF-8" standalone="no"?>
<!-- Created with CurveBenchmark -->
<svg
	xmlns:dc="http://purl.org/dc/elements/1.1/"
	xmlns:cc="http://creativecommons.org/ns#"
	xmlns:rdf="http://www.w3.org/1999/02/22-rdf-syntax-ns#"
	xmlns:svg="http://www.w3.org/2000/svg"
	xmlns="http://www.w3.org/2000/svg"
	xmlns:sodipodi="http://sodipodi.sourceforge.net/DTD/sodipodi-0.dtd"
	xmlns:inkscape="http://www.inkscape.org/namespaces/inkscape"
	width="1000"
	height="1000"
	id="svg2"
	version="1.1"
	sodipodi:docname="manifold/peel-teddy035.png.txt">
<defs
	id="defs4" />
<metadata
	id="metadata7">
	<rdf:RDF>
		<cc:Work
			rdf:about="">
			<dc:format>image/svg+xml</dc:format>
			<dc:type
				rdf:resource="http://purl.org/dc/dcmitype/StillImage" />
			<dc:title></dc:title>
		</cc:Work>
	</rdf:RDF>
</metadata>
<g
	inkscape:label="Layer 1"
	inkscape:groupmode="layer"
	id="layer1">
	<path style="fill:none;stroke:red;stroke-width:1px;stroke-linecap:butt;stroke-linejoin:miter;stroke-opacity:1" d="M 15.3048,557.937 4,529.675 z" id="boundary" inkscape:connector-curvature="0" />
	<path style="fill:none;stroke:red;stroke-width:1px;stroke-linecap:butt;stroke-linejoin:miter;stroke-opacity:1" d="M 4,529.675 4,501.413 z" id="boundary" inkscape:connector-curvature="0" />
	<path style="fill:none;stroke:red;stroke-width:1px;stroke-linecap:butt;stroke-linejoin:miter;stroke-opacity:1" d="M 4,501.413 18.1311,475.977 z" id="boundary" inkscape:connector-curvature="0" />
	<path style="fill:none;stroke:red;stroke-width:1px;stroke-linecap:butt;stroke-linejoin:miter;stroke-opacity:1" d="M 18.1311,475.977 40.7407,453.368 z" id="boundary" inkscape:connector-curvature="0" />
	<path style="fill:none;stroke:red;stroke-width:1px;stroke-linecap:butt;stroke-linejoin:miter;stroke-opacity:1" d="M 40.7407,453.368 69.0028,444.889 z" id="boundary" inkscape:connector-curvature="0" />
	<path style="fill:none;stroke:red;stroke-width:1px;stroke-linecap:butt;stroke-linejoin:miter;stroke-opacity:1" d="M 20.9573,846.211 20.9573,874.473 z" id="boundary" inkscape:connector-curvature="0" />
	<path style="fill:none;stroke:red;stroke-width:1px;stroke-linecap:butt;stroke-linejoin:miter;stroke-opacity:1" d="M 20.9573,846.211 32.2621,806.644 z" id="boundary" inkscape:connector-curvature="0" />
	<path style="fill:none;stroke:red;stroke-width:1px;stroke-linecap:butt;stroke-linejoin:miter;stroke-opacity:1" d="M 29.4359,583.373 15.3048,557.937 z" id="boundary" inkscape:connector-curvature="0" />
	<path style="fill:none;stroke:red;stroke-width:1px;stroke-linecap:butt;stroke-linejoin:miter;stroke-opacity:1" d="M 26.6097,902.735 26.6097,930.997 z" id="boundary" inkscape:connector-curvature="0" />
	<path style="fill:none;stroke:red;stroke-width:1px;stroke-linecap:butt;stroke-linejoin:miter;stroke-opacity:1" d="M 26.6097,902.735 20.9573,874.473 z" id="boundary" inkscape:connector-curvature="0" />
	<path style="fill:none;stroke:red;stroke-width:1px;stroke-linecap:butt;stroke-linejoin:miter;stroke-opacity:1" d="M 26.6097,930.997 40.7407,956.433 z" id="boundary" inkscape:connector-curvature="0" />
	<path style="fill:none;stroke:red;stroke-width:1px;stroke-linecap:butt;stroke-linejoin:miter;stroke-opacity:1" d="M 43.567,772.729 32.2621,806.644 z" id="boundary" inkscape:connector-curvature="0" />
	<path style="fill:none;stroke:red;stroke-width:1px;stroke-linecap:butt;stroke-linejoin:miter;stroke-opacity:1" d="M 43.567,772.729 66.1766,750.12 z" id="boundary" inkscape:connector-curvature="0" />
	<path style="fill:none;stroke:red;stroke-width:1px;stroke-linecap:butt;stroke-linejoin:miter;stroke-opacity:1" d="M 29.4359,583.373 49.2194,605.983 z" id="boundary" inkscape:connector-curvature="0" />
	<path style="fill:none;stroke:red;stroke-width:1px;stroke-linecap:butt;stroke-linejoin:miter;stroke-opacity:1" d="M 40.7407,956.433 63.3504,973.39 z" id="boundary" inkscape:connector-curvature="0" />
	<path style="fill:none;stroke:red;stroke-width:1px;stroke-linecap:butt;stroke-linejoin:miter;stroke-opacity:1" d="M 66.1766,750.12 88.7863,733.162 z" id="boundary" inkscape:connector-curvature="0" />
	<path style="fill:none;stroke:red;stroke-width:1px;stroke-linecap:butt;stroke-linejoin:miter;stroke-opacity:1" d="M 117.048,727.51 88.7863,733.162 z" id="boundary" inkscape:connector-curvature="0" />
	<path style="fill:none;stroke:red;stroke-width:1px;stroke-linecap:butt;stroke-linejoin:miter;stroke-opacity:1" d="M 69.0028,444.889 97.265,433.584 z" id="boundary" inkscape:connector-curvature="0" />
	<path style="fill:none;stroke:red;stroke-width:1px;stroke-linecap:butt;stroke-linejoin:miter;stroke-opacity:1" d="M 201.835,721.858 230.097,716.205 z" id="boundary" inkscape:connector-curvature="0" />
	<path style="fill:none;stroke:red;stroke-width:1px;stroke-linecap:butt;stroke-linejoin:miter;stroke-opacity:1" d="M 49.2194,605.983 71.8291,622.94 z" id="boundary" inkscape:connector-curvature="0" />
	<path style="fill:none;stroke:red;stroke-width:1px;stroke-linecap:butt;stroke-linejoin:miter;stroke-opacity:1" d="M 97.265,637.071 71.8291,622.94 z" id="boundary" inkscape:connector-curvature="0" />
	<path style="fill:none;stroke:red;stroke-width:1px;stroke-linecap:butt;stroke-linejoin:miter;stroke-opacity:1" d="M 97.265,433.584 125.527,430.758 z" id="boundary" inkscape:connector-curvature="0" />
	<path style="fill:none;stroke:red;stroke-width:1px;stroke-linecap:butt;stroke-linejoin:miter;stroke-opacity:1" d="M 201.835,77.4815 201.835,49.2194 z" id="boundary" inkscape:connector-curvature="0" />
	<path style="fill:none;stroke:red;stroke-width:1px;stroke-linecap:butt;stroke-linejoin:miter;stroke-opacity:1" d="M 125.527,645.55 97.265,637.071 z" id="boundary" inkscape:connector-curvature="0" />
	<path style="fill:none;stroke:red;stroke-width:1px;stroke-linecap:butt;stroke-linejoin:miter;stroke-opacity:1" d="M 63.3504,973.39 85.9601,990.348 z" id="boundary" inkscape:connector-curvature="0" />
	<path style="fill:none;stroke:red;stroke-width:1px;stroke-linecap:butt;stroke-linejoin:miter;stroke-opacity:1" d="M 85.9601,990.348 114.222,996 z" id="boundary" inkscape:connector-curvature="0" />
	<path style="fill:none;stroke:red;stroke-width:1px;stroke-linecap:butt;stroke-linejoin:miter;stroke-opacity:1" d="M 117.048,727.51 145.311,727.51 z" id="boundary" inkscape:connector-curvature="0" />
	<path style="fill:none;stroke:red;stroke-width:1px;stroke-linecap:butt;stroke-linejoin:miter;stroke-opacity:1" d="M 201.835,77.4815 201.835,105.744 z" id="boundary" inkscape:connector-curvature="0" />
	<path style="fill:none;stroke:red;stroke-width:1px;stroke-linecap:butt;stroke-linejoin:miter;stroke-opacity:1" d="M 153.789,656.855 125.527,645.55 z" id="boundary" inkscape:connector-curvature="0" />
	<path style="fill:none;stroke:red;stroke-width:1px;stroke-linecap:butt;stroke-linejoin:miter;stroke-opacity:1" d="M 125.527,430.758 142.484,408.148 z" id="boundary" inkscape:connector-curvature="0" />
	<path style="fill:none;stroke:red;stroke-width:1px;stroke-linecap:butt;stroke-linejoin:miter;stroke-opacity:1" d="M 142.484,408.148 170.746,396.843 z" id="boundary" inkscape:connector-curvature="0" />
	<path style="fill:none;stroke:red;stroke-width:1px;stroke-linecap:butt;stroke-linejoin:miter;stroke-opacity:1" d="M 114.222,996 142.484,996 z" id="boundary" inkscape:connector-curvature="0" />
	<path style="fill:none;stroke:red;stroke-width:1px;stroke-linecap:butt;stroke-linejoin:miter;stroke-opacity:1" d="M 145.311,727.51 173.573,727.51 z" id="boundary" inkscape:connector-curvature="0" />
	<path style="fill:none;stroke:red;stroke-width:1px;stroke-linecap:butt;stroke-linejoin:miter;stroke-opacity:1" d="M 153.789,656.855 182.051,656.855 z" id="boundary" inkscape:connector-curvature="0" />
	<path style="fill:none;stroke:red;stroke-width:1px;stroke-linecap:butt;stroke-linejoin:miter;stroke-opacity:1" d="M 170.746,396.843 199.009,388.365 z" id="boundary" inkscape:connector-curvature="0" />
	<path style="fill:none;stroke:red;stroke-width:1px;stroke-linecap:butt;stroke-linejoin:miter;stroke-opacity:1" d="M 142.484,996 170.746,996 z" id="boundary" inkscape:connector-curvature="0" />
	<path style="fill:none;stroke:red;stroke-width:1px;stroke-linecap:butt;stroke-linejoin:miter;stroke-opacity:1" d="M 207.487,670.986 182.051,656.855 z" id="boundary" inkscape:connector-curvature="0" />
	<path style="fill:none;stroke:red;stroke-width:1px;stroke-linecap:butt;stroke-linejoin:miter;stroke-opacity:1" d="M 199.009,388.365 227.271,382.712 z" id="boundary" inkscape:connector-curvature="0" />
	<path style="fill:none;stroke:red;stroke-width:1px;stroke-linecap:butt;stroke-linejoin:miter;stroke-opacity:1" d="M 221.618,162.268 210.313,134.006 z" id="boundary" inkscape:connector-curvature="0" />
	<path style="fill:none;stroke:red;stroke-width:1px;stroke-linecap:butt;stroke-linejoin:miter;stroke-opacity:1" d="M 201.835,105.744 210.313,134.006 z" id="boundary" inkscape:connector-curvature="0" />
	<path style="fill:none;stroke:red;stroke-width:1px;stroke-linecap:butt;stroke-linejoin:miter;stroke-opacity:1" d="M 207.487,670.986 235.749,668.16 z" id="boundary" inkscape:connector-curvature="0" />
	<path style="fill:none;stroke:red;stroke-width:1px;stroke-linecap:butt;stroke-linejoin:miter;stroke-opacity:1" d="M 221.618,162.268 230.097,190.53 z" id="boundary" inkscape:connector-curvature="0" />
	<path style="fill:none;stroke:red;stroke-width:1px;stroke-linecap:butt;stroke-linejoin:miter;stroke-opacity:1" d="M 230.097,190.53 230.097,218.792 z" id="boundary" inkscape:connector-curvature="0" />
	<path style="fill:none;stroke:red;stroke-width:1px;stroke-linecap:butt;stroke-linejoin:miter;stroke-opacity:1" d="M 201.835,49.2194 224.444,26.6097 z" id="boundary" inkscape:connector-curvature="0" />
	<path style="fill:none;stroke:red;stroke-width:1px;stroke-linecap:butt;stroke-linejoin:miter;stroke-opacity:1" d="M 173.573,727.51 201.835,721.858 z" id="boundary" inkscape:connector-curvature="0" />
	<path style="fill:none;stroke:red;stroke-width:1px;stroke-linecap:butt;stroke-linejoin:miter;stroke-opacity:1" d="M 230.097,247.054 230.097,218.792 z" id="boundary" inkscape:connector-curvature="0" />
	<path style="fill:none;stroke:red;stroke-width:1px;stroke-linecap:butt;stroke-linejoin:miter;stroke-opacity:1" d="M 309.231,979.043 337.493,984.695 z" id="boundary" inkscape:connector-curvature="0" />
	<path style="fill:none;stroke:red;stroke-width:1px;stroke-linecap:butt;stroke-linejoin:miter;stroke-opacity:1" d="M 252.707,15.3048 224.444,26.6097 z" id="boundary" inkscape:connector-curvature="0" />
	<path style="fill:none;stroke:red;stroke-width:1px;stroke-linecap:butt;stroke-linejoin:miter;stroke-opacity:1" d="M 309.231,4 280.969,4 z" id="boundary" inkscape:connector-curvature="0" />
	<path style="fill:none;stroke:red;stroke-width:1px;stroke-linecap:butt;stroke-linejoin:miter;stroke-opacity:1" d="M 280.969,4 252.707,15.3048 z" id="boundary" inkscape:connector-curvature="0" />
	<path style="fill:none;stroke:red;stroke-width:1px;stroke-linecap:butt;stroke-linejoin:miter;stroke-opacity:1" d="M 685.117,690.769 682.291,662.507 z" id="boundary" inkscape:connector-curvature="0" />
	<path style="fill:none;stroke:red;stroke-width:1px;stroke-linecap:butt;stroke-linejoin:miter;stroke-opacity:1" d="M 170.746,996 199.009,996 z" id="boundary" inkscape:connector-curvature="0" />
	<path style="fill:none;stroke:red;stroke-width:1px;stroke-linecap:butt;stroke-linejoin:miter;stroke-opacity:1" d="M 230.097,247.054 230.097,275.316 z" id="boundary" inkscape:connector-curvature="0" />
	<path style="fill:none;stroke:red;stroke-width:1px;stroke-linecap:butt;stroke-linejoin:miter;stroke-opacity:1" d="M 252.707,973.39 280.969,973.39 z" id="boundary" inkscape:connector-curvature="0" />
	<path style="fill:none;stroke:red;stroke-width:1px;stroke-linecap:butt;stroke-linejoin:miter;stroke-opacity:1" d="M 252.707,973.39 227.271,990.348 z" id="boundary" inkscape:connector-curvature="0" />
	<path style="fill:none;stroke:red;stroke-width:1px;stroke-linecap:butt;stroke-linejoin:miter;stroke-opacity:1" d="M 230.097,275.316 232.923,303.578 z" id="boundary" inkscape:connector-curvature="0" />
	<path style="fill:none;stroke:red;stroke-width:1px;stroke-linecap:butt;stroke-linejoin:miter;stroke-opacity:1" d="M 309.231,4 337.493,9.65242 z" id="boundary" inkscape:connector-curvature="0" />
	<path style="fill:none;stroke:red;stroke-width:1px;stroke-linecap:butt;stroke-linejoin:miter;stroke-opacity:1" d="M 238.575,331.84 232.923,303.578 z" id="boundary" inkscape:connector-curvature="0" />
	<path style="fill:none;stroke:red;stroke-width:1px;stroke-linecap:butt;stroke-linejoin:miter;stroke-opacity:1" d="M 235.749,668.16 230.097,716.205 z" id="boundary" inkscape:connector-curvature="0" />
	<path style="fill:none;stroke:red;stroke-width:1px;stroke-linecap:butt;stroke-linejoin:miter;stroke-opacity:1" d="M 238.575,331.84 252.707,357.276 z" id="boundary" inkscape:connector-curvature="0" />
	<path style="fill:none;stroke:red;stroke-width:1px;stroke-linecap:butt;stroke-linejoin:miter;stroke-opacity:1" d="M 227.271,382.712 252.707,357.276 z" id="boundary" inkscape:connector-curvature="0" />
	<path style="fill:none;stroke:red;stroke-width:1px;stroke-linecap:butt;stroke-linejoin:miter;stroke-opacity:1" d="M 280.969,973.39 309.231,979.043 z" id="boundary" inkscape:connector-curvature="0" />
	<path style="fill:none;stroke:red;stroke-width:1px;stroke-linecap:butt;stroke-linejoin:miter;stroke-opacity:1" d="M 199.009,996 227.271,990.348 z" id="boundary" inkscape:connector-curvature="0" />
	<path style="fill:none;stroke:red;stroke-width:1px;stroke-linecap:butt;stroke-linejoin:miter;stroke-opacity:1" d="M 365.755,20.9573 388.365,37.9145 z" id="boundary" inkscape:connector-curvature="0" />
	<path style="fill:none;stroke:red;stroke-width:1px;stroke-linecap:butt;stroke-linejoin:miter;stroke-opacity:1" d="M 337.493,9.65242 365.755,20.9573 z" id="boundary" inkscape:connector-curvature="0" />
	<path style="fill:none;stroke:red;stroke-width:1px;stroke-linecap:butt;stroke-linejoin:miter;stroke-opacity:1" d="M 337.493,984.695 365.755,990.348 z" id="boundary" inkscape:connector-curvature="0" />
	<path style="fill:none;stroke:red;stroke-width:1px;stroke-linecap:butt;stroke-linejoin:miter;stroke-opacity:1" d="M 388.365,37.9145 416.627,43.567 z" id="boundary" inkscape:connector-curvature="0" />
	<path style="fill:none;stroke:red;stroke-width:1px;stroke-linecap:butt;stroke-linejoin:miter;stroke-opacity:1" d="M 365.755,990.348 394.017,990.348 z" id="boundary" inkscape:connector-curvature="0" />
	<path style="fill:none;stroke:red;stroke-width:1px;stroke-linecap:butt;stroke-linejoin:miter;stroke-opacity:1" d="M 394.017,990.348 422.279,996 z" id="boundary" inkscape:connector-curvature="0" />
	<path style="fill:none;stroke:red;stroke-width:1px;stroke-linecap:butt;stroke-linejoin:miter;stroke-opacity:1" d="M 444.889,43.567 416.627,43.567 z" id="boundary" inkscape:connector-curvature="0" />
	<path style="fill:none;stroke:red;stroke-width:1px;stroke-linecap:butt;stroke-linejoin:miter;stroke-opacity:1" d="M 501.413,43.567 473.151,37.9145 z" id="boundary" inkscape:connector-curvature="0" />
	<path style="fill:none;stroke:red;stroke-width:1px;stroke-linecap:butt;stroke-linejoin:miter;stroke-opacity:1" d="M 473.151,37.9145 444.889,43.567 z" id="boundary" inkscape:connector-curvature="0" />
	<path style="fill:none;stroke:red;stroke-width:1px;stroke-linecap:butt;stroke-linejoin:miter;stroke-opacity:1" d="M 422.279,996 450.541,996 z" id="boundary" inkscape:connector-curvature="0" />
	<path style="fill:none;stroke:red;stroke-width:1px;stroke-linecap:butt;stroke-linejoin:miter;stroke-opacity:1" d="M 713.379,224.444 713.379,252.707 z" id="boundary" inkscape:connector-curvature="0" />
	<path style="fill:none;stroke:red;stroke-width:1px;stroke-linecap:butt;stroke-linejoin:miter;stroke-opacity:1" d="M 557.937,37.9145 529.675,43.567 z" id="boundary" inkscape:connector-curvature="0" />
	<path style="fill:none;stroke:red;stroke-width:1px;stroke-linecap:butt;stroke-linejoin:miter;stroke-opacity:1" d="M 478.803,996 450.541,996 z" id="boundary" inkscape:connector-curvature="0" />
	<path style="fill:none;stroke:red;stroke-width:1px;stroke-linecap:butt;stroke-linejoin:miter;stroke-opacity:1" d="M 563.59,990.348 591.852,990.348 z" id="boundary" inkscape:connector-curvature="0" />
	<path style="fill:none;stroke:red;stroke-width:1px;stroke-linecap:butt;stroke-linejoin:miter;stroke-opacity:1" d="M 563.59,990.348 535.328,996 z" id="boundary" inkscape:connector-curvature="0" />
	<path style="fill:none;stroke:red;stroke-width:1px;stroke-linecap:butt;stroke-linejoin:miter;stroke-opacity:1" d="M 529.675,43.567 501.413,43.567 z" id="boundary" inkscape:connector-curvature="0" />
	<path style="fill:none;stroke:red;stroke-width:1px;stroke-linecap:butt;stroke-linejoin:miter;stroke-opacity:1" d="M 507.066,996 535.328,996 z" id="boundary" inkscape:connector-curvature="0" />
	<path style="fill:none;stroke:red;stroke-width:1px;stroke-linecap:butt;stroke-linejoin:miter;stroke-opacity:1" d="M 608.809,9.65242 580.547,20.9573 z" id="boundary" inkscape:connector-curvature="0" />
	<path style="fill:none;stroke:red;stroke-width:1px;stroke-linecap:butt;stroke-linejoin:miter;stroke-opacity:1" d="M 557.937,37.9145 580.547,20.9573 z" id="boundary" inkscape:connector-curvature="0" />
	<path style="fill:none;stroke:red;stroke-width:1px;stroke-linecap:butt;stroke-linejoin:miter;stroke-opacity:1" d="M 507.066,996 478.803,996 z" id="boundary" inkscape:connector-curvature="0" />
	<path style="fill:none;stroke:red;stroke-width:1px;stroke-linecap:butt;stroke-linejoin:miter;stroke-opacity:1" d="M 620.114,979.043 648.376,979.043 z" id="boundary" inkscape:connector-curvature="0" />
	<path style="fill:none;stroke:red;stroke-width:1px;stroke-linecap:butt;stroke-linejoin:miter;stroke-opacity:1" d="M 648.376,979.043 673.812,993.174 z" id="boundary" inkscape:connector-curvature="0" />
	<path style="fill:none;stroke:red;stroke-width:1px;stroke-linecap:butt;stroke-linejoin:miter;stroke-opacity:1" d="M 665.333,4 637.071,4 z" id="boundary" inkscape:connector-curvature="0" />
	<path style="fill:none;stroke:red;stroke-width:1px;stroke-linecap:butt;stroke-linejoin:miter;stroke-opacity:1" d="M 591.852,990.348 620.114,979.043 z" id="boundary" inkscape:connector-curvature="0" />
	<path style="fill:none;stroke:red;stroke-width:1px;stroke-linecap:butt;stroke-linejoin:miter;stroke-opacity:1" d="M 693.595,12.4786 665.333,4 z" id="boundary" inkscape:connector-curvature="0" />
	<path style="fill:none;stroke:red;stroke-width:1px;stroke-linecap:butt;stroke-linejoin:miter;stroke-opacity:1" d="M 608.809,9.65242 637.071,4 z" id="boundary" inkscape:connector-curvature="0" />
	<path style="fill:none;stroke:red;stroke-width:1px;stroke-linecap:butt;stroke-linejoin:miter;stroke-opacity:1" d="M 673.812,993.174 702.074,996 z" id="boundary" inkscape:connector-curvature="0" />
	<path style="fill:none;stroke:red;stroke-width:1px;stroke-linecap:butt;stroke-linejoin:miter;stroke-opacity:1" d="M 727.51,724.684 699.248,716.205 z" id="boundary" inkscape:connector-curvature="0" />
	<path style="fill:none;stroke:red;stroke-width:1px;stroke-linecap:butt;stroke-linejoin:miter;stroke-opacity:1" d="M 685.117,690.769 699.248,716.205 z" id="boundary" inkscape:connector-curvature="0" />
	<path style="fill:none;stroke:red;stroke-width:1px;stroke-linecap:butt;stroke-linejoin:miter;stroke-opacity:1" d="M 707.726,382.712 682.291,368.581 z" id="boundary" inkscape:connector-curvature="0" />
	<path style="fill:none;stroke:red;stroke-width:1px;stroke-linecap:butt;stroke-linejoin:miter;stroke-opacity:1" d="M 682.291,368.581 696.422,343.145 z" id="boundary" inkscape:connector-curvature="0" />
	<path style="fill:none;stroke:red;stroke-width:1px;stroke-linecap:butt;stroke-linejoin:miter;stroke-opacity:1" d="M 682.291,662.507 710.553,668.16 z" id="boundary" inkscape:connector-curvature="0" />
	<path style="fill:none;stroke:red;stroke-width:1px;stroke-linecap:butt;stroke-linejoin:miter;stroke-opacity:1" d="M 696.422,343.145 707.726,309.231 z" id="boundary" inkscape:connector-curvature="0" />
	<path style="fill:none;stroke:red;stroke-width:1px;stroke-linecap:butt;stroke-linejoin:miter;stroke-opacity:1" d="M 735.989,382.712 764.251,394.017 z" id="boundary" inkscape:connector-curvature="0" />
	<path style="fill:none;stroke:red;stroke-width:1px;stroke-linecap:butt;stroke-linejoin:miter;stroke-opacity:1" d="M 735.989,382.712 707.726,382.712 z" id="boundary" inkscape:connector-curvature="0" />
	<path style="fill:none;stroke:red;stroke-width:1px;stroke-linecap:butt;stroke-linejoin:miter;stroke-opacity:1" d="M 713.379,224.444 713.379,196.182 z" id="boundary" inkscape:connector-curvature="0" />
	<path style="fill:none;stroke:red;stroke-width:1px;stroke-linecap:butt;stroke-linejoin:miter;stroke-opacity:1" d="M 713.379,280.969 707.726,309.231 z" id="boundary" inkscape:connector-curvature="0" />
	<path style="fill:none;stroke:red;stroke-width:1px;stroke-linecap:butt;stroke-linejoin:miter;stroke-opacity:1" d="M 713.379,280.969 713.379,252.707 z" id="boundary" inkscape:connector-curvature="0" />
	<path style="fill:none;stroke:red;stroke-width:1px;stroke-linecap:butt;stroke-linejoin:miter;stroke-opacity:1" d="M 738.815,49.2194 719.031,26.6097 z" id="boundary" inkscape:connector-curvature="0" />
	<path style="fill:none;stroke:red;stroke-width:1px;stroke-linecap:butt;stroke-linejoin:miter;stroke-opacity:1" d="M 738.815,142.484 724.684,167.92 z" id="boundary" inkscape:connector-curvature="0" />
	<path style="fill:none;stroke:red;stroke-width:1px;stroke-linecap:butt;stroke-linejoin:miter;stroke-opacity:1" d="M 713.379,196.182 724.684,167.92 z" id="boundary" inkscape:connector-curvature="0" />
	<path style="fill:none;stroke:red;stroke-width:1px;stroke-linecap:butt;stroke-linejoin:miter;stroke-opacity:1" d="M 727.51,724.684 755.772,727.51 z" id="boundary" inkscape:connector-curvature="0" />
	<path style="fill:none;stroke:red;stroke-width:1px;stroke-linecap:butt;stroke-linejoin:miter;stroke-opacity:1" d="M 738.815,142.484 747.293,105.744 z" id="boundary" inkscape:connector-curvature="0" />
	<path style="fill:none;stroke:red;stroke-width:1px;stroke-linecap:butt;stroke-linejoin:miter;stroke-opacity:1" d="M 730.336,996 702.074,996 z" id="boundary" inkscape:connector-curvature="0" />
	<path style="fill:none;stroke:red;stroke-width:1px;stroke-linecap:butt;stroke-linejoin:miter;stroke-opacity:1" d="M 738.815,668.16 710.553,668.16 z" id="boundary" inkscape:connector-curvature="0" />
	<path style="fill:none;stroke:red;stroke-width:1px;stroke-linecap:butt;stroke-linejoin:miter;stroke-opacity:1" d="M 719.031,26.6097 693.595,12.4786 z" id="boundary" inkscape:connector-curvature="0" />
	<path style="fill:none;stroke:red;stroke-width:1px;stroke-linecap:butt;stroke-linejoin:miter;stroke-opacity:1" d="M 747.293,105.744 752.946,74.6553 z" id="boundary" inkscape:connector-curvature="0" />
	<path style="fill:none;stroke:red;stroke-width:1px;stroke-linecap:butt;stroke-linejoin:miter;stroke-opacity:1" d="M 752.946,74.6553 738.815,49.2194 z" id="boundary" inkscape:connector-curvature="0" />
	<path style="fill:none;stroke:red;stroke-width:1px;stroke-linecap:butt;stroke-linejoin:miter;stroke-opacity:1" d="M 849.037,781.208 860.342,809.47 z" id="boundary" inkscape:connector-curvature="0" />
	<path style="fill:none;stroke:red;stroke-width:1px;stroke-linecap:butt;stroke-linejoin:miter;stroke-opacity:1" d="M 738.815,668.16 767.077,662.507 z" id="boundary" inkscape:connector-curvature="0" />
	<path style="fill:none;stroke:red;stroke-width:1px;stroke-linecap:butt;stroke-linejoin:miter;stroke-opacity:1" d="M 755.772,727.51 784.034,727.51 z" id="boundary" inkscape:connector-curvature="0" />
	<path style="fill:none;stroke:red;stroke-width:1px;stroke-linecap:butt;stroke-linejoin:miter;stroke-opacity:1" d="M 764.251,394.017 792.513,405.322 z" id="boundary" inkscape:connector-curvature="0" />
	<path style="fill:none;stroke:red;stroke-width:1px;stroke-linecap:butt;stroke-linejoin:miter;stroke-opacity:1" d="M 784.034,727.51 809.47,741.641 z" id="boundary" inkscape:connector-curvature="0" />
	<path style="fill:none;stroke:red;stroke-width:1px;stroke-linecap:butt;stroke-linejoin:miter;stroke-opacity:1" d="M 809.47,427.932 792.513,405.322 z" id="boundary" inkscape:connector-curvature="0" />
	<path style="fill:none;stroke:red;stroke-width:1px;stroke-linecap:butt;stroke-linejoin:miter;stroke-opacity:1" d="M 767.077,662.507 792.513,648.376 z" id="boundary" inkscape:connector-curvature="0" />
	<path style="fill:none;stroke:red;stroke-width:1px;stroke-linecap:butt;stroke-linejoin:miter;stroke-opacity:1" d="M 849.037,781.208 834.906,755.772 z" id="boundary" inkscape:connector-curvature="0" />
	<path style="fill:none;stroke:red;stroke-width:1px;stroke-linecap:butt;stroke-linejoin:miter;stroke-opacity:1" d="M 834.906,755.772 809.47,741.641 z" id="boundary" inkscape:connector-curvature="0" />
	<path style="fill:none;stroke:red;stroke-width:1px;stroke-linecap:butt;stroke-linejoin:miter;stroke-opacity:1" d="M 786.86,996 815.123,990.348 z" id="boundary" inkscape:connector-curvature="0" />
	<path style="fill:none;stroke:red;stroke-width:1px;stroke-linecap:butt;stroke-linejoin:miter;stroke-opacity:1" d="M 815.123,990.348 837.732,970.564 z" id="boundary" inkscape:connector-curvature="0" />
	<path style="fill:none;stroke:red;stroke-width:1px;stroke-linecap:butt;stroke-linejoin:miter;stroke-opacity:1" d="M 860.342,809.47 865.994,837.732 z" id="boundary" inkscape:connector-curvature="0" />
	<path style="fill:none;stroke:red;stroke-width:1px;stroke-linecap:butt;stroke-linejoin:miter;stroke-opacity:1" d="M 792.513,648.376 820.775,637.071 z" id="boundary" inkscape:connector-curvature="0" />
	<path style="fill:none;stroke:red;stroke-width:1px;stroke-linecap:butt;stroke-linejoin:miter;stroke-opacity:1" d="M 837.732,970.564 860.342,953.607 z" id="boundary" inkscape:connector-curvature="0" />
	<path style="fill:none;stroke:red;stroke-width:1px;stroke-linecap:butt;stroke-linejoin:miter;stroke-opacity:1" d="M 786.86,996 758.598,996 z" id="boundary" inkscape:connector-curvature="0" />
	<path style="fill:none;stroke:red;stroke-width:1px;stroke-linecap:butt;stroke-linejoin:miter;stroke-opacity:1" d="M 837.732,439.236 809.47,427.932 z" id="boundary" inkscape:connector-curvature="0" />
	<path style="fill:none;stroke:red;stroke-width:1px;stroke-linecap:butt;stroke-linejoin:miter;stroke-opacity:1" d="M 820.775,637.071 843.385,620.114 z" id="boundary" inkscape:connector-curvature="0" />
	<path style="fill:none;stroke:red;stroke-width:1px;stroke-linecap:butt;stroke-linejoin:miter;stroke-opacity:1" d="M 843.385,620.114 865.994,603.157 z" id="boundary" inkscape:connector-curvature="0" />
	<path style="fill:none;stroke:red;stroke-width:1px;stroke-linecap:butt;stroke-linejoin:miter;stroke-opacity:1" d="M 837.732,439.236 865.994,450.541 z" id="boundary" inkscape:connector-curvature="0" />
	<path style="fill:none;stroke:red;stroke-width:1px;stroke-linecap:butt;stroke-linejoin:miter;stroke-opacity:1" d="M 758.598,996 730.336,996 z" id="boundary" inkscape:connector-curvature="0" />
	<path style="fill:none;stroke:red;stroke-width:1px;stroke-linecap:butt;stroke-linejoin:miter;stroke-opacity:1" d="M 871.647,865.994 865.994,837.732 z" id="boundary" inkscape:connector-curvature="0" />
	<path style="fill:none;stroke:red;stroke-width:1px;stroke-linecap:butt;stroke-linejoin:miter;stroke-opacity:1" d="M 888.604,580.547 865.994,603.157 z" id="boundary" inkscape:connector-curvature="0" />
	<path style="fill:none;stroke:red;stroke-width:1px;stroke-linecap:butt;stroke-linejoin:miter;stroke-opacity:1" d="M 902.735,555.111 911.214,518.37 z" id="boundary" inkscape:connector-curvature="0" />
	<path style="fill:none;stroke:red;stroke-width:1px;stroke-linecap:butt;stroke-linejoin:miter;stroke-opacity:1" d="M 888.604,467.499 865.994,450.541 z" id="boundary" inkscape:connector-curvature="0" />
	<path style="fill:none;stroke:red;stroke-width:1px;stroke-linecap:butt;stroke-linejoin:miter;stroke-opacity:1" d="M 860.342,953.607 865.994,914.04 z" id="boundary" inkscape:connector-curvature="0" />
	<path style="fill:none;stroke:red;stroke-width:1px;stroke-linecap:butt;stroke-linejoin:miter;stroke-opacity:1" d="M 865.994,914.04 871.647,865.994 z" id="boundary" inkscape:connector-curvature="0" />
	<path style="fill:none;stroke:red;stroke-width:1px;stroke-linecap:butt;stroke-linejoin:miter;stroke-opacity:1" d="M 902.735,555.111 888.604,580.547 z" id="boundary" inkscape:connector-curvature="0" />
	<path style="fill:none;stroke:red;stroke-width:1px;stroke-linecap:butt;stroke-linejoin:miter;stroke-opacity:1" d="M 888.604,467.499 905.561,490.108 z" id="boundary" inkscape:connector-curvature="0" />
	<path style="fill:none;stroke:red;stroke-width:1px;stroke-linecap:butt;stroke-linejoin:miter;stroke-opacity:1" d="M 905.561,490.108 911.214,518.37 z" id="boundary" inkscape:connector-curvature="0" />
	<circle cx="4" cy="501.413" r="4" fill="#0" id="circle0"/>
	<circle cx="4" cy="529.675" r="4" fill="#0" id="circle1"/>
	<circle cx="15.3048" cy="557.937" r="4" fill="#0" id="circle2"/>
	<circle cx="18.1311" cy="475.977" r="4" fill="#0" id="circle3"/>
	<circle cx="20.9573" cy="846.211" r="4" fill="#0" id="circle4"/>
	<circle cx="20.9573" cy="874.473" r="4" fill="#0" id="circle5"/>
	<circle cx="26.6097" cy="902.735" r="4" fill="#0" id="circle6"/>
	<circle cx="26.6097" cy="930.997" r="4" fill="#0" id="circle7"/>
	<circle cx="29.4359" cy="583.373" r="4" fill="#0" id="circle8"/>
	<circle cx="32.2621" cy="806.644" r="4" fill="#0" id="circle9"/>
	<circle cx="40.7407" cy="453.368" r="4" fill="#0" id="circle10"/>
	<circle cx="40.7407" cy="956.433" r="4" fill="#0" id="circle11"/>
	<circle cx="43.567" cy="772.729" r="4" fill="#0" id="circle12"/>
	<circle cx="49.2194" cy="605.983" r="4" fill="#0" id="circle13"/>
	<circle cx="63.3504" cy="973.39" r="4" fill="#0" id="circle14"/>
	<circle cx="66.1766" cy="750.12" r="4" fill="#0" id="circle15"/>
	<circle cx="69.0028" cy="444.889" r="4" fill="#0" id="circle16"/>
	<circle cx="71.8291" cy="622.94" r="4" fill="#0" id="circle17"/>
	<circle cx="85.9601" cy="990.348" r="4" fill="#0" id="circle18"/>
	<circle cx="88.7863" cy="733.162" r="4" fill="#0" id="circle19"/>
	<circle cx="97.265" cy="433.584" r="4" fill="#0" id="circle20"/>
	<circle cx="97.265" cy="637.071" r="4" fill="#0" id="circle21"/>
	<circle cx="114.222" cy="996" r="4" fill="#0" id="circle22"/>
	<circle cx="117.048" cy="727.51" r="4" fill="#0" id="circle23"/>
	<circle cx="125.527" cy="430.758" r="4" fill="#0" id="circle24"/>
	<circle cx="125.527" cy="645.55" r="4" fill="#0" id="circle25"/>
	<circle cx="142.484" cy="408.148" r="4" fill="#0" id="circle26"/>
	<circle cx="142.484" cy="996" r="4" fill="#0" id="circle27"/>
	<circle cx="145.311" cy="727.51" r="4" fill="#0" id="circle28"/>
	<circle cx="153.789" cy="656.855" r="4" fill="#0" id="circle29"/>
	<circle cx="170.746" cy="396.843" r="4" fill="#0" id="circle30"/>
	<circle cx="170.746" cy="996" r="4" fill="#0" id="circle31"/>
	<circle cx="173.573" cy="727.51" r="4" fill="#0" id="circle32"/>
	<circle cx="182.051" cy="656.855" r="4" fill="#0" id="circle33"/>
	<circle cx="199.009" cy="388.365" r="4" fill="#0" id="circle34"/>
	<circle cx="199.009" cy="996" r="4" fill="#0" id="circle35"/>
	<circle cx="201.835" cy="49.2194" r="4" fill="#0" id="circle36"/>
	<circle cx="201.835" cy="77.4815" r="4" fill="#0" id="circle37"/>
	<circle cx="201.835" cy="105.744" r="4" fill="#0" id="circle38"/>
	<circle cx="201.835" cy="721.858" r="4" fill="#0" id="circle39"/>
	<circle cx="207.487" cy="670.986" r="4" fill="#0" id="circle40"/>
	<circle cx="210.313" cy="134.006" r="4" fill="#0" id="circle41"/>
	<circle cx="221.618" cy="162.268" r="4" fill="#0" id="circle42"/>
	<circle cx="224.444" cy="26.6097" r="4" fill="#0" id="circle43"/>
	<circle cx="227.271" cy="382.712" r="4" fill="#0" id="circle44"/>
	<circle cx="227.271" cy="990.348" r="4" fill="#0" id="circle45"/>
	<circle cx="230.097" cy="190.53" r="4" fill="#0" id="circle46"/>
	<circle cx="230.097" cy="218.792" r="4" fill="#0" id="circle47"/>
	<circle cx="230.097" cy="247.054" r="4" fill="#0" id="circle48"/>
	<circle cx="230.097" cy="275.316" r="4" fill="#0" id="circle49"/>
	<circle cx="230.097" cy="716.205" r="4" fill="#0" id="circle50"/>
	<circle cx="232.923" cy="303.578" r="4" fill="#0" id="circle51"/>
	<circle cx="235.749" cy="668.16" r="4" fill="#0" id="circle52"/>
	<circle cx="238.575" cy="331.84" r="4" fill="#0" id="circle53"/>
	<circle cx="252.707" cy="15.3048" r="4" fill="#0" id="circle54"/>
	<circle cx="252.707" cy="357.276" r="4" fill="#0" id="circle55"/>
	<circle cx="252.707" cy="973.39" r="4" fill="#0" id="circle56"/>
	<circle cx="280.969" cy="4" r="4" fill="#0" id="circle57"/>
	<circle cx="280.969" cy="973.39" r="4" fill="#0" id="circle58"/>
	<circle cx="309.231" cy="4" r="4" fill="#0" id="circle59"/>
	<circle cx="309.231" cy="979.043" r="4" fill="#0" id="circle60"/>
	<circle cx="337.493" cy="9.65242" r="4" fill="#0" id="circle61"/>
	<circle cx="337.493" cy="984.695" r="4" fill="#0" id="circle62"/>
	<circle cx="365.755" cy="20.9573" r="4" fill="#0" id="circle63"/>
	<circle cx="365.755" cy="990.348" r="4" fill="#0" id="circle64"/>
	<circle cx="388.365" cy="37.9145" r="4" fill="#0" id="circle65"/>
	<circle cx="394.017" cy="990.348" r="4" fill="#0" id="circle66"/>
	<circle cx="416.627" cy="43.567" r="4" fill="#0" id="circle67"/>
	<circle cx="422.279" cy="996" r="4" fill="#0" id="circle68"/>
	<circle cx="444.889" cy="43.567" r="4" fill="#0" id="circle69"/>
	<circle cx="450.541" cy="996" r="4" fill="#0" id="circle70"/>
	<circle cx="473.151" cy="37.9145" r="4" fill="#0" id="circle71"/>
	<circle cx="478.803" cy="996" r="4" fill="#0" id="circle72"/>
	<circle cx="501.413" cy="43.567" r="4" fill="#0" id="circle73"/>
	<circle cx="507.066" cy="996" r="4" fill="#0" id="circle74"/>
	<circle cx="529.675" cy="43.567" r="4" fill="#0" id="circle75"/>
	<circle cx="535.328" cy="996" r="4" fill="#0" id="circle76"/>
	<circle cx="557.937" cy="37.9145" r="4" fill="#0" id="circle77"/>
	<circle cx="563.59" cy="990.348" r="4" fill="#0" id="circle78"/>
	<circle cx="580.547" cy="20.9573" r="4" fill="#0" id="circle79"/>
	<circle cx="591.852" cy="990.348" r="4" fill="#0" id="circle80"/>
	<circle cx="608.809" cy="9.65242" r="4" fill="#0" id="circle81"/>
	<circle cx="620.114" cy="979.043" r="4" fill="#0" id="circle82"/>
	<circle cx="637.071" cy="4" r="4" fill="#0" id="circle83"/>
	<circle cx="648.376" cy="979.043" r="4" fill="#0" id="circle84"/>
	<circle cx="665.333" cy="4" r="4" fill="#0" id="circle85"/>
	<circle cx="673.812" cy="993.174" r="4" fill="#0" id="circle86"/>
	<circle cx="682.291" cy="368.581" r="4" fill="#0" id="circle87"/>
	<circle cx="682.291" cy="662.507" r="4" fill="#0" id="circle88"/>
	<circle cx="685.117" cy="690.769" r="4" fill="#0" id="circle89"/>
	<circle cx="693.595" cy="12.4786" r="4" fill="#0" id="circle90"/>
	<circle cx="696.422" cy="343.145" r="4" fill="#0" id="circle91"/>
	<circle cx="699.248" cy="716.205" r="4" fill="#0" id="circle92"/>
	<circle cx="702.074" cy="996" r="4" fill="#0" id="circle93"/>
	<circle cx="707.726" cy="309.231" r="4" fill="#0" id="circle94"/>
	<circle cx="707.726" cy="382.712" r="4" fill="#0" id="circle95"/>
	<circle cx="710.553" cy="668.16" r="4" fill="#0" id="circle96"/>
	<circle cx="713.379" cy="196.182" r="4" fill="#0" id="circle97"/>
	<circle cx="713.379" cy="224.444" r="4" fill="#0" id="circle98"/>
	<circle cx="713.379" cy="252.707" r="4" fill="#0" id="circle99"/>
	<circle cx="713.379" cy="280.969" r="4" fill="#0" id="circle100"/>
	<circle cx="719.031" cy="26.6097" r="4" fill="#0" id="circle101"/>
	<circle cx="724.684" cy="167.92" r="4" fill="#0" id="circle102"/>
	<circle cx="727.51" cy="724.684" r="4" fill="#0" id="circle103"/>
	<circle cx="730.336" cy="996" r="4" fill="#0" id="circle104"/>
	<circle cx="735.989" cy="382.712" r="4" fill="#0" id="circle105"/>
	<circle cx="738.815" cy="49.2194" r="4" fill="#0" id="circle106"/>
	<circle cx="738.815" cy="142.484" r="4" fill="#0" id="circle107"/>
	<circle cx="738.815" cy="668.16" r="4" fill="#0" id="circle108"/>
	<circle cx="747.293" cy="105.744" r="4" fill="#0" id="circle109"/>
	<circle cx="752.946" cy="74.6553" r="4" fill="#0" id="circle110"/>
	<circle cx="755.772" cy="727.51" r="4" fill="#0" id="circle111"/>
	<circle cx="758.598" cy="996" r="4" fill="#0" id="circle112"/>
	<circle cx="764.251" cy="394.017" r="4" fill="#0" id="circle113"/>
	<circle cx="767.077" cy="662.507" r="4" fill="#0" id="circle114"/>
	<circle cx="784.034" cy="727.51" r="4" fill="#0" id="circle115"/>
	<circle cx="786.86" cy="996" r="4" fill="#0" id="circle116"/>
	<circle cx="792.513" cy="405.322" r="4" fill="#0" id="circle117"/>
	<circle cx="792.513" cy="648.376" r="4" fill="#0" id="circle118"/>
	<circle cx="809.47" cy="427.932" r="4" fill="#0" id="circle119"/>
	<circle cx="809.47" cy="741.641" r="4" fill="#0" id="circle120"/>
	<circle cx="815.123" cy="990.348" r="4" fill="#0" id="circle121"/>
	<circle cx="820.775" cy="637.071" r="4" fill="#0" id="circle122"/>
	<circle cx="834.906" cy="755.772" r="4" fill="#0" id="circle123"/>
	<circle cx="837.732" cy="439.236" r="4" fill="#0" id="circle124"/>
	<circle cx="837.732" cy="970.564" r="4" fill="#0" id="circle125"/>
	<circle cx="843.385" cy="620.114" r="4" fill="#0" id="circle126"/>
	<circle cx="849.037" cy="781.208" r="4" fill="#0" id="circle127"/>
	<circle cx="860.342" cy="809.47" r="4" fill="#0" id="circle128"/>
	<circle cx="860.342" cy="953.607" r="4" fill="#0" id="circle129"/>
	<circle cx="865.994" cy="450.541" r="4" fill="#0" id="circle130"/>
	<circle cx="865.994" cy="603.157" r="4" fill="#0" id="circle131"/>
	<circle cx="865.994" cy="837.732" r="4" fill="#0" id="circle132"/>
	<circle cx="865.994" cy="914.04" r="4" fill="#0" id="circle133"/>
	<circle cx="871.647" cy="865.994" r="4" fill="#0" id="circle134"/>
	<circle cx="888.604" cy="467.499" r="4" fill="#0" id="circle135"/>
	<circle cx="888.604" cy="580.547" r="4" fill="#0" id="circle136"/>
	<circle cx="902.735" cy="555.111" r="4" fill="#0" id="circle137"/>
	<circle cx="905.561" cy="490.108" r="4" fill="#0" id="circle138"/>
	<circle cx="911.214" cy="518.37" r="4" fill="#0" id="circle139"/>
	</g>
</svg>