<?xml version="1.0" encoding="UTF-8" standalone="no"?>
<!-- Created with CurveBenchmark -->
<svg
	xmlns:dc="http://purl.org/dc/elements/1.1/"
	xmlns:cc="http://creativecommons.org/ns#"
	xmlns:rdf="http://www.w3.org/1999/02/22-rdf-syntax-ns#"
	xmlns:svg="http://www.w3.org/2000/svg"
	xmlns="http://www.w3.org/2000/svg"
	xmlns:sodipodi="http://sodipodi.sourceforge.net/DTD/sodipodi-0.dtd"
	xmlns:inkscape="http://www.inkscape.org/namespaces/inkscape"
	width="1000"
	height="1000"
	id="svg2"
	version="1.1"
	sodipodi:docname="manifold/peel-chopper14.png.txt">
<defs
	id="defs4" />
<metadata
	id="metadata7">
	<rdf:RDF>
		<cc:Work
			rdf:about="">
			<dc:format>image/svg+xml</dc:format>
			<dc:type
				rdf:resource="http://purl.org/dc/dcmitype/StillImage" />
			<dc:title></dc:title>
		</cc:Work>
	</rdf:RDF>
</metadata>
<g
	inkscape:label="Layer 1"
	inkscape:groupmode="layer"
	id="layer1">
	<path style="fill:none;stroke:red;stroke-width:1px;stroke-linecap:butt;stroke-linejoin:miter;stroke-opacity:1" d="M 4,342.468 13.0018,315.463 z" id="boundary" inkscape:connector-curvature="0" />
	<path style="fill:none;stroke:red;stroke-width:1px;stroke-linecap:butt;stroke-linejoin:miter;stroke-opacity:1" d="M 13.0018,315.463 13.0018,297.459 z" id="boundary" inkscape:connector-curvature="0" />
	<path style="fill:none;stroke:red;stroke-width:1px;stroke-linecap:butt;stroke-linejoin:miter;stroke-opacity:1" d="M 13.0018,376.675 13.0018,358.672 z" id="boundary" inkscape:connector-curvature="0" />
	<path style="fill:none;stroke:red;stroke-width:1px;stroke-linecap:butt;stroke-linejoin:miter;stroke-opacity:1" d="M 13.0018,358.672 4,342.468 z" id="boundary" inkscape:connector-curvature="0" />
	<path style="fill:none;stroke:red;stroke-width:1px;stroke-linecap:butt;stroke-linejoin:miter;stroke-opacity:1" d="M 13.0018,297.459 27.4047,283.056 z" id="boundary" inkscape:connector-curvature="0" />
	<path style="fill:none;stroke:red;stroke-width:1px;stroke-linecap:butt;stroke-linejoin:miter;stroke-opacity:1" d="M 13.0018,394.679 13.0018,376.675 z" id="boundary" inkscape:connector-curvature="0" />
	<path style="fill:none;stroke:red;stroke-width:1px;stroke-linecap:butt;stroke-linejoin:miter;stroke-opacity:1" d="M 13.0018,412.682 13.0018,394.679 z" id="boundary" inkscape:connector-curvature="0" />
	<path style="fill:none;stroke:red;stroke-width:1px;stroke-linecap:butt;stroke-linejoin:miter;stroke-opacity:1" d="M 31.0054,261.452 40.0073,243.448 z" id="boundary" inkscape:connector-curvature="0" />
	<path style="fill:none;stroke:red;stroke-width:1px;stroke-linecap:butt;stroke-linejoin:miter;stroke-opacity:1" d="M 31.0054,261.452 27.4047,283.056 z" id="boundary" inkscape:connector-curvature="0" />
	<path style="fill:none;stroke:red;stroke-width:1px;stroke-linecap:butt;stroke-linejoin:miter;stroke-opacity:1" d="M 13.0018,412.682 31.0054,419.884 z" id="boundary" inkscape:connector-curvature="0" />
	<path style="fill:none;stroke:red;stroke-width:1px;stroke-linecap:butt;stroke-linejoin:miter;stroke-opacity:1" d="M 63.412,202.04 79.6152,193.038 z" id="boundary" inkscape:connector-curvature="0" />
	<path style="fill:none;stroke:red;stroke-width:1px;stroke-linecap:butt;stroke-linejoin:miter;stroke-opacity:1" d="M 31.0054,486.497 31.0054,504.501 z" id="boundary" inkscape:connector-curvature="0" />
	<path style="fill:none;stroke:red;stroke-width:1px;stroke-linecap:butt;stroke-linejoin:miter;stroke-opacity:1" d="M 47.2087,428.886 31.0054,419.884 z" id="boundary" inkscape:connector-curvature="0" />
	<path style="fill:none;stroke:red;stroke-width:1px;stroke-linecap:butt;stroke-linejoin:miter;stroke-opacity:1" d="M 31.0054,486.497 49.0091,481.096 z" id="boundary" inkscape:connector-curvature="0" />
	<path style="fill:none;stroke:red;stroke-width:1px;stroke-linecap:butt;stroke-linejoin:miter;stroke-opacity:1" d="M 40.0073,243.448 49.0091,216.443 z" id="boundary" inkscape:connector-curvature="0" />
	<path style="fill:none;stroke:red;stroke-width:1px;stroke-linecap:butt;stroke-linejoin:miter;stroke-opacity:1" d="M 49.0091,216.443 63.412,202.04 z" id="boundary" inkscape:connector-curvature="0" />
	<path style="fill:none;stroke:red;stroke-width:1px;stroke-linecap:butt;stroke-linejoin:miter;stroke-opacity:1" d="M 76.0145,518.904 94.0181,518.904 z" id="boundary" inkscape:connector-curvature="0" />
	<path style="fill:none;stroke:red;stroke-width:1px;stroke-linecap:butt;stroke-linejoin:miter;stroke-opacity:1" d="M 76.0145,518.904 58.0109,522.505 z" id="boundary" inkscape:connector-curvature="0" />
	<path style="fill:none;stroke:red;stroke-width:1px;stroke-linecap:butt;stroke-linejoin:miter;stroke-opacity:1" d="M 31.0054,504.501 40.0073,520.704 z" id="boundary" inkscape:connector-curvature="0" />
	<path style="fill:none;stroke:red;stroke-width:1px;stroke-linecap:butt;stroke-linejoin:miter;stroke-opacity:1" d="M 40.0073,520.704 58.0109,522.505 z" id="boundary" inkscape:connector-curvature="0" />
	<path style="fill:none;stroke:red;stroke-width:1px;stroke-linecap:butt;stroke-linejoin:miter;stroke-opacity:1" d="M 63.412,437.887 47.2087,428.886 z" id="boundary" inkscape:connector-curvature="0" />
	<path style="fill:none;stroke:red;stroke-width:1px;stroke-linecap:butt;stroke-linejoin:miter;stroke-opacity:1" d="M 63.412,437.887 79.6152,446.889 z" id="boundary" inkscape:connector-curvature="0" />
	<path style="fill:none;stroke:red;stroke-width:1px;stroke-linecap:butt;stroke-linejoin:miter;stroke-opacity:1" d="M 49.0091,481.096 67.0127,484.697 z" id="boundary" inkscape:connector-curvature="0" />
	<path style="fill:none;stroke:red;stroke-width:1px;stroke-linecap:butt;stroke-linejoin:miter;stroke-opacity:1" d="M 67.0127,484.697 85.0163,490.098 z" id="boundary" inkscape:connector-curvature="0" />
	<path style="fill:none;stroke:red;stroke-width:1px;stroke-linecap:butt;stroke-linejoin:miter;stroke-opacity:1" d="M 94.0181,518.904 112.022,518.904 z" id="boundary" inkscape:connector-curvature="0" />
	<path style="fill:none;stroke:red;stroke-width:1px;stroke-linecap:butt;stroke-linejoin:miter;stroke-opacity:1" d="M 103.02,162.432 121.024,153.43 z" id="boundary" inkscape:connector-curvature="0" />
	<path style="fill:none;stroke:red;stroke-width:1px;stroke-linecap:butt;stroke-linejoin:miter;stroke-opacity:1" d="M 103.02,162.432 88.6171,176.835 z" id="boundary" inkscape:connector-curvature="0" />
	<path style="fill:none;stroke:red;stroke-width:1px;stroke-linecap:butt;stroke-linejoin:miter;stroke-opacity:1" d="M 79.6152,446.889 97.6189,452.29 z" id="boundary" inkscape:connector-curvature="0" />
	<path style="fill:none;stroke:red;stroke-width:1px;stroke-linecap:butt;stroke-linejoin:miter;stroke-opacity:1" d="M 79.6152,193.038 88.6171,176.835 z" id="boundary" inkscape:connector-curvature="0" />
	<path style="fill:none;stroke:red;stroke-width:1px;stroke-linecap:butt;stroke-linejoin:miter;stroke-opacity:1" d="M 97.6189,452.29 115.623,455.891 z" id="boundary" inkscape:connector-curvature="0" />
	<path style="fill:none;stroke:red;stroke-width:1px;stroke-linecap:butt;stroke-linejoin:miter;stroke-opacity:1" d="M 112.022,518.904 130.025,518.904 z" id="boundary" inkscape:connector-curvature="0" />
	<path style="fill:none;stroke:red;stroke-width:1px;stroke-linecap:butt;stroke-linejoin:miter;stroke-opacity:1" d="M 85.0163,490.098 101.22,499.1 z" id="boundary" inkscape:connector-curvature="0" />
	<path style="fill:none;stroke:red;stroke-width:1px;stroke-linecap:butt;stroke-linejoin:miter;stroke-opacity:1" d="M 101.22,499.1 119.223,499.1 z" id="boundary" inkscape:connector-curvature="0" />
	<path style="fill:none;stroke:red;stroke-width:1px;stroke-linecap:butt;stroke-linejoin:miter;stroke-opacity:1" d="M 130.025,518.904 148.029,518.904 z" id="boundary" inkscape:connector-curvature="0" />
	<path style="fill:none;stroke:red;stroke-width:1px;stroke-linecap:butt;stroke-linejoin:miter;stroke-opacity:1" d="M 148.029,518.904 166.033,518.904 z" id="boundary" inkscape:connector-curvature="0" />
	<path style="fill:none;stroke:red;stroke-width:1px;stroke-linecap:butt;stroke-linejoin:miter;stroke-opacity:1" d="M 115.623,455.891 131.826,464.893 z" id="boundary" inkscape:connector-curvature="0" />
	<path style="fill:none;stroke:red;stroke-width:1px;stroke-linecap:butt;stroke-linejoin:miter;stroke-opacity:1" d="M 119.223,499.1 137.227,499.1 z" id="boundary" inkscape:connector-curvature="0" />
	<path style="fill:none;stroke:red;stroke-width:1px;stroke-linecap:butt;stroke-linejoin:miter;stroke-opacity:1" d="M 121.024,153.43 135.426,139.027 z" id="boundary" inkscape:connector-curvature="0" />
	<path style="fill:none;stroke:red;stroke-width:1px;stroke-linecap:butt;stroke-linejoin:miter;stroke-opacity:1" d="M 135.426,139.027 153.43,130.025 z" id="boundary" inkscape:connector-curvature="0" />
	<path style="fill:none;stroke:red;stroke-width:1px;stroke-linecap:butt;stroke-linejoin:miter;stroke-opacity:1" d="M 131.826,464.893 149.829,464.893 z" id="boundary" inkscape:connector-curvature="0" />
	<path style="fill:none;stroke:red;stroke-width:1px;stroke-linecap:butt;stroke-linejoin:miter;stroke-opacity:1" d="M 137.227,499.1 155.23,499.1 z" id="boundary" inkscape:connector-curvature="0" />
	<path style="fill:none;stroke:red;stroke-width:1px;stroke-linecap:butt;stroke-linejoin:miter;stroke-opacity:1" d="M 166.033,518.904 184.036,518.904 z" id="boundary" inkscape:connector-curvature="0" />
	<path style="fill:none;stroke:red;stroke-width:1px;stroke-linecap:butt;stroke-linejoin:miter;stroke-opacity:1" d="M 184.036,518.904 202.04,522.505 z" id="boundary" inkscape:connector-curvature="0" />
	<path style="fill:none;stroke:red;stroke-width:1px;stroke-linecap:butt;stroke-linejoin:miter;stroke-opacity:1" d="M 149.829,464.893 167.833,464.893 z" id="boundary" inkscape:connector-curvature="0" />
	<path style="fill:none;stroke:red;stroke-width:1px;stroke-linecap:butt;stroke-linejoin:miter;stroke-opacity:1" d="M 155.23,499.1 171.434,490.098 z" id="boundary" inkscape:connector-curvature="0" />
	<path style="fill:none;stroke:red;stroke-width:1px;stroke-linecap:butt;stroke-linejoin:miter;stroke-opacity:1" d="M 153.43,130.025 169.633,121.024 z" id="boundary" inkscape:connector-curvature="0" />
	<path style="fill:none;stroke:red;stroke-width:1px;stroke-linecap:butt;stroke-linejoin:miter;stroke-opacity:1" d="M 169.633,121.024 185.837,112.022 z" id="boundary" inkscape:connector-curvature="0" />
	<path style="fill:none;stroke:red;stroke-width:1px;stroke-linecap:butt;stroke-linejoin:miter;stroke-opacity:1" d="M 185.837,112.022 203.84,112.022 z" id="boundary" inkscape:connector-curvature="0" />
	<path style="fill:none;stroke:red;stroke-width:1px;stroke-linecap:butt;stroke-linejoin:miter;stroke-opacity:1" d="M 189.437,490.098 207.441,481.096 z" id="boundary" inkscape:connector-curvature="0" />
	<path style="fill:none;stroke:red;stroke-width:1px;stroke-linecap:butt;stroke-linejoin:miter;stroke-opacity:1" d="M 167.833,464.893 185.837,464.893 z" id="boundary" inkscape:connector-curvature="0" />
	<path style="fill:none;stroke:red;stroke-width:1px;stroke-linecap:butt;stroke-linejoin:miter;stroke-opacity:1" d="M 171.434,490.098 189.437,490.098 z" id="boundary" inkscape:connector-curvature="0" />
	<path style="fill:none;stroke:red;stroke-width:1px;stroke-linecap:butt;stroke-linejoin:miter;stroke-opacity:1" d="M 185.837,464.893 202.04,455.891 z" id="boundary" inkscape:connector-curvature="0" />
	<path style="fill:none;stroke:red;stroke-width:1px;stroke-linecap:butt;stroke-linejoin:miter;stroke-opacity:1" d="M 202.04,455.891 207.441,481.096 z" id="boundary" inkscape:connector-curvature="0" />
	<path style="fill:none;stroke:red;stroke-width:1px;stroke-linecap:butt;stroke-linejoin:miter;stroke-opacity:1" d="M 220.044,518.904 202.04,522.505 z" id="boundary" inkscape:connector-curvature="0" />
	<path style="fill:none;stroke:red;stroke-width:1px;stroke-linecap:butt;stroke-linejoin:miter;stroke-opacity:1" d="M 238.047,103.02 220.044,103.02 z" id="boundary" inkscape:connector-curvature="0" />
	<path style="fill:none;stroke:red;stroke-width:1px;stroke-linecap:butt;stroke-linejoin:miter;stroke-opacity:1" d="M 220.044,103.02 203.84,112.022 z" id="boundary" inkscape:connector-curvature="0" />
	<path style="fill:none;stroke:red;stroke-width:1px;stroke-linecap:butt;stroke-linejoin:miter;stroke-opacity:1" d="M 274.054,509.902 292.058,509.902 z" id="boundary" inkscape:connector-curvature="0" />
	<path style="fill:none;stroke:red;stroke-width:1px;stroke-linecap:butt;stroke-linejoin:miter;stroke-opacity:1" d="M 256.051,103.02 238.047,103.02 z" id="boundary" inkscape:connector-curvature="0" />
	<path style="fill:none;stroke:red;stroke-width:1px;stroke-linecap:butt;stroke-linejoin:miter;stroke-opacity:1" d="M 238.047,513.503 256.051,509.902 z" id="boundary" inkscape:connector-curvature="0" />
	<path style="fill:none;stroke:red;stroke-width:1px;stroke-linecap:butt;stroke-linejoin:miter;stroke-opacity:1" d="M 256.051,509.902 274.054,509.902 z" id="boundary" inkscape:connector-curvature="0" />
	<path style="fill:none;stroke:red;stroke-width:1px;stroke-linecap:butt;stroke-linejoin:miter;stroke-opacity:1" d="M 220.044,518.904 238.047,513.503 z" id="boundary" inkscape:connector-curvature="0" />
	<path style="fill:none;stroke:red;stroke-width:1px;stroke-linecap:butt;stroke-linejoin:miter;stroke-opacity:1" d="M 256.051,103.02 274.054,103.02 z" id="boundary" inkscape:connector-curvature="0" />
	<path style="fill:none;stroke:red;stroke-width:1px;stroke-linecap:butt;stroke-linejoin:miter;stroke-opacity:1" d="M 292.058,509.902 310.062,509.902 z" id="boundary" inkscape:connector-curvature="0" />
	<path style="fill:none;stroke:red;stroke-width:1px;stroke-linecap:butt;stroke-linejoin:miter;stroke-opacity:1" d="M 274.054,103.02 292.058,103.02 z" id="boundary" inkscape:connector-curvature="0" />
	<path style="fill:none;stroke:red;stroke-width:1px;stroke-linecap:butt;stroke-linejoin:miter;stroke-opacity:1" d="M 310.062,509.902 328.065,509.902 z" id="boundary" inkscape:connector-curvature="0" />
	<path style="fill:none;stroke:red;stroke-width:1px;stroke-linecap:butt;stroke-linejoin:miter;stroke-opacity:1" d="M 292.058,103.02 310.062,103.02 z" id="boundary" inkscape:connector-curvature="0" />
	<path style="fill:none;stroke:red;stroke-width:1px;stroke-linecap:butt;stroke-linejoin:miter;stroke-opacity:1" d="M 328.065,103.02 310.062,103.02 z" id="boundary" inkscape:connector-curvature="0" />
	<path style="fill:none;stroke:red;stroke-width:1px;stroke-linecap:butt;stroke-linejoin:miter;stroke-opacity:1" d="M 328.065,509.902 346.069,509.902 z" id="boundary" inkscape:connector-curvature="0" />
	<path style="fill:none;stroke:red;stroke-width:1px;stroke-linecap:butt;stroke-linejoin:miter;stroke-opacity:1" d="M 346.069,103.02 328.065,103.02 z" id="boundary" inkscape:connector-curvature="0" />
	<path style="fill:none;stroke:red;stroke-width:1px;stroke-linecap:butt;stroke-linejoin:miter;stroke-opacity:1" d="M 346.069,34.6062 337.067,18.4029 z" id="boundary" inkscape:connector-curvature="0" />
	<path style="fill:none;stroke:red;stroke-width:1px;stroke-linecap:butt;stroke-linejoin:miter;stroke-opacity:1" d="M 362.272,500.9 378.475,509.902 z" id="boundary" inkscape:connector-curvature="0" />
	<path style="fill:none;stroke:red;stroke-width:1px;stroke-linecap:butt;stroke-linejoin:miter;stroke-opacity:1" d="M 362.272,500.9 346.069,509.902 z" id="boundary" inkscape:connector-curvature="0" />
	<path style="fill:none;stroke:red;stroke-width:1px;stroke-linecap:butt;stroke-linejoin:miter;stroke-opacity:1" d="M 351.47,4 369.474,4 z" id="boundary" inkscape:connector-curvature="0" />
	<path style="fill:none;stroke:red;stroke-width:1px;stroke-linecap:butt;stroke-linejoin:miter;stroke-opacity:1" d="M 337.067,18.4029 351.47,4 z" id="boundary" inkscape:connector-curvature="0" />
	<path style="fill:none;stroke:red;stroke-width:1px;stroke-linecap:butt;stroke-linejoin:miter;stroke-opacity:1" d="M 373.074,68.8131 355.071,63.412 z" id="boundary" inkscape:connector-curvature="0" />
	<path style="fill:none;stroke:red;stroke-width:1px;stroke-linecap:butt;stroke-linejoin:miter;stroke-opacity:1" d="M 355.071,63.412 364.073,41.8076 z" id="boundary" inkscape:connector-curvature="0" />
	<path style="fill:none;stroke:red;stroke-width:1px;stroke-linecap:butt;stroke-linejoin:miter;stroke-opacity:1" d="M 378.475,509.902 396.479,509.902 z" id="boundary" inkscape:connector-curvature="0" />
	<path style="fill:none;stroke:red;stroke-width:1px;stroke-linecap:butt;stroke-linejoin:miter;stroke-opacity:1" d="M 346.069,103.02 364.073,103.02 z" id="boundary" inkscape:connector-curvature="0" />
	<path style="fill:none;stroke:red;stroke-width:1px;stroke-linecap:butt;stroke-linejoin:miter;stroke-opacity:1" d="M 364.073,41.8076 346.069,34.6062 z" id="boundary" inkscape:connector-curvature="0" />
	<path style="fill:none;stroke:red;stroke-width:1px;stroke-linecap:butt;stroke-linejoin:miter;stroke-opacity:1" d="M 369.474,4 387.477,4 z" id="boundary" inkscape:connector-curvature="0" />
	<path style="fill:none;stroke:red;stroke-width:1px;stroke-linecap:butt;stroke-linejoin:miter;stroke-opacity:1" d="M 364.073,103.02 382.076,103.02 z" id="boundary" inkscape:connector-curvature="0" />
	<path style="fill:none;stroke:red;stroke-width:1px;stroke-linecap:butt;stroke-linejoin:miter;stroke-opacity:1" d="M 405.481,4 410.882,22.0036 z" id="boundary" inkscape:connector-curvature="0" />
	<path style="fill:none;stroke:red;stroke-width:1px;stroke-linecap:butt;stroke-linejoin:miter;stroke-opacity:1" d="M 405.481,4 387.477,4 z" id="boundary" inkscape:connector-curvature="0" />
	<path style="fill:none;stroke:red;stroke-width:1px;stroke-linecap:butt;stroke-linejoin:miter;stroke-opacity:1" d="M 382.076,103.02 389.278,77.8149 z" id="boundary" inkscape:connector-curvature="0" />
	<path style="fill:none;stroke:red;stroke-width:1px;stroke-linecap:butt;stroke-linejoin:miter;stroke-opacity:1" d="M 389.278,77.8149 373.074,68.8131 z" id="boundary" inkscape:connector-curvature="0" />
	<path style="fill:none;stroke:red;stroke-width:1px;stroke-linecap:butt;stroke-linejoin:miter;stroke-opacity:1" d="M 410.882,22.0036 410.882,40.0073 z" id="boundary" inkscape:connector-curvature="0" />
	<path style="fill:none;stroke:red;stroke-width:1px;stroke-linecap:butt;stroke-linejoin:miter;stroke-opacity:1" d="M 419.884,56.2105 410.882,40.0073 z" id="boundary" inkscape:connector-curvature="0" />
	<path style="fill:none;stroke:red;stroke-width:1px;stroke-linecap:butt;stroke-linejoin:miter;stroke-opacity:1" d="M 896.98,239.848 884.377,254.25 z" id="boundary" inkscape:connector-curvature="0" />
	<path style="fill:none;stroke:red;stroke-width:1px;stroke-linecap:butt;stroke-linejoin:miter;stroke-opacity:1" d="M 419.884,74.2142 419.884,56.2105 z" id="boundary" inkscape:connector-curvature="0" />
	<path style="fill:none;stroke:red;stroke-width:1px;stroke-linecap:butt;stroke-linejoin:miter;stroke-opacity:1" d="M 634.127,419.884 652.131,419.884 z" id="boundary" inkscape:connector-curvature="0" />
	<path style="fill:none;stroke:red;stroke-width:1px;stroke-linecap:butt;stroke-linejoin:miter;stroke-opacity:1" d="M 455.891,455.891 455.891,428.886 z" id="boundary" inkscape:connector-curvature="0" />
	<path style="fill:none;stroke:red;stroke-width:1px;stroke-linecap:butt;stroke-linejoin:miter;stroke-opacity:1" d="M 428.886,90.4174 419.884,74.2142 z" id="boundary" inkscape:connector-curvature="0" />
	<path style="fill:none;stroke:red;stroke-width:1px;stroke-linecap:butt;stroke-linejoin:miter;stroke-opacity:1" d="M 428.886,90.4174 443.289,103.02 z" id="boundary" inkscape:connector-curvature="0" />
	<path style="fill:none;stroke:red;stroke-width:1px;stroke-linecap:butt;stroke-linejoin:miter;stroke-opacity:1" d="M 396.479,509.902 414.483,508.102 z" id="boundary" inkscape:connector-curvature="0" />
	<path style="fill:none;stroke:red;stroke-width:1px;stroke-linecap:butt;stroke-linejoin:miter;stroke-opacity:1" d="M 414.483,508.102 432.486,499.1 z" id="boundary" inkscape:connector-curvature="0" />
	<path style="fill:none;stroke:red;stroke-width:1px;stroke-linecap:butt;stroke-linejoin:miter;stroke-opacity:1" d="M 634.127,419.884 616.123,419.884 z" id="boundary" inkscape:connector-curvature="0" />
	<path style="fill:none;stroke:red;stroke-width:1px;stroke-linecap:butt;stroke-linejoin:miter;stroke-opacity:1" d="M 616.123,419.884 598.12,423.485 z" id="boundary" inkscape:connector-curvature="0" />
	<path style="fill:none;stroke:red;stroke-width:1px;stroke-linecap:butt;stroke-linejoin:miter;stroke-opacity:1" d="M 508.102,419.884 490.098,419.884 z" id="boundary" inkscape:connector-curvature="0" />
	<path style="fill:none;stroke:red;stroke-width:1px;stroke-linecap:butt;stroke-linejoin:miter;stroke-opacity:1" d="M 490.098,419.884 473.895,428.886 z" id="boundary" inkscape:connector-curvature="0" />
	<path style="fill:none;stroke:red;stroke-width:1px;stroke-linecap:butt;stroke-linejoin:miter;stroke-opacity:1" d="M 432.486,499.1 450.49,490.098 z" id="boundary" inkscape:connector-curvature="0" />
	<path style="fill:none;stroke:red;stroke-width:1px;stroke-linecap:butt;stroke-linejoin:miter;stroke-opacity:1" d="M 450.49,490.098 455.891,455.891 z" id="boundary" inkscape:connector-curvature="0" />
	<path style="fill:none;stroke:red;stroke-width:1px;stroke-linecap:butt;stroke-linejoin:miter;stroke-opacity:1" d="M 443.289,103.02 461.292,103.02 z" id="boundary" inkscape:connector-curvature="0" />
	<path style="fill:none;stroke:red;stroke-width:1px;stroke-linecap:butt;stroke-linejoin:miter;stroke-opacity:1" d="M 455.891,428.886 473.895,428.886 z" id="boundary" inkscape:connector-curvature="0" />
	<path style="fill:none;stroke:red;stroke-width:1px;stroke-linecap:butt;stroke-linejoin:miter;stroke-opacity:1" d="M 461.292,103.02 479.296,103.02 z" id="boundary" inkscape:connector-curvature="0" />
	<path style="fill:none;stroke:red;stroke-width:1px;stroke-linecap:butt;stroke-linejoin:miter;stroke-opacity:1" d="M 508.102,419.884 526.105,419.884 z" id="boundary" inkscape:connector-curvature="0" />
	<path style="fill:none;stroke:red;stroke-width:1px;stroke-linecap:butt;stroke-linejoin:miter;stroke-opacity:1" d="M 479.296,103.02 497.299,103.02 z" id="boundary" inkscape:connector-curvature="0" />
	<path style="fill:none;stroke:red;stroke-width:1px;stroke-linecap:butt;stroke-linejoin:miter;stroke-opacity:1" d="M 526.105,419.884 544.109,419.884 z" id="boundary" inkscape:connector-curvature="0" />
	<path style="fill:none;stroke:red;stroke-width:1px;stroke-linecap:butt;stroke-linejoin:miter;stroke-opacity:1" d="M 497.299,103.02 515.303,103.02 z" id="boundary" inkscape:connector-curvature="0" />
	<path style="fill:none;stroke:red;stroke-width:1px;stroke-linecap:butt;stroke-linejoin:miter;stroke-opacity:1" d="M 590.918,202.04 581.917,185.837 z" id="boundary" inkscape:connector-curvature="0" />
	<path style="fill:none;stroke:red;stroke-width:1px;stroke-linecap:butt;stroke-linejoin:miter;stroke-opacity:1" d="M 544.109,419.884 562.113,419.884 z" id="boundary" inkscape:connector-curvature="0" />
	<path style="fill:none;stroke:red;stroke-width:1px;stroke-linecap:butt;stroke-linejoin:miter;stroke-opacity:1" d="M 515.303,103.02 533.307,103.02 z" id="boundary" inkscape:connector-curvature="0" />
	<path style="fill:none;stroke:red;stroke-width:1px;stroke-linecap:butt;stroke-linejoin:miter;stroke-opacity:1" d="M 562.113,419.884 580.116,419.884 z" id="boundary" inkscape:connector-curvature="0" />
	<path style="fill:none;stroke:red;stroke-width:1px;stroke-linecap:butt;stroke-linejoin:miter;stroke-opacity:1" d="M 580.116,419.884 598.12,423.485 z" id="boundary" inkscape:connector-curvature="0" />
	<path style="fill:none;stroke:red;stroke-width:1px;stroke-linecap:butt;stroke-linejoin:miter;stroke-opacity:1" d="M 533.307,103.02 549.51,94.0181 z" id="boundary" inkscape:connector-curvature="0" />
	<path style="fill:none;stroke:red;stroke-width:1px;stroke-linecap:butt;stroke-linejoin:miter;stroke-opacity:1" d="M 549.51,94.0181 565.713,103.02 z" id="boundary" inkscape:connector-curvature="0" />
	<path style="fill:none;stroke:red;stroke-width:1px;stroke-linecap:butt;stroke-linejoin:miter;stroke-opacity:1" d="M 581.917,112.022 565.713,103.02 z" id="boundary" inkscape:connector-curvature="0" />
	<path style="fill:none;stroke:red;stroke-width:1px;stroke-linecap:butt;stroke-linejoin:miter;stroke-opacity:1" d="M 607.122,211.042 590.918,202.04 z" id="boundary" inkscape:connector-curvature="0" />
	<path style="fill:none;stroke:red;stroke-width:1px;stroke-linecap:butt;stroke-linejoin:miter;stroke-opacity:1" d="M 608.922,329.866 608.922,347.869 z" id="boundary" inkscape:connector-curvature="0" />
	<path style="fill:none;stroke:red;stroke-width:1px;stroke-linecap:butt;stroke-linejoin:miter;stroke-opacity:1" d="M 581.917,185.837 596.319,173.234 z" id="boundary" inkscape:connector-curvature="0" />
	<path style="fill:none;stroke:red;stroke-width:1px;stroke-linecap:butt;stroke-linejoin:miter;stroke-opacity:1" d="M 581.917,112.022 598.12,121.024 z" id="boundary" inkscape:connector-curvature="0" />
	<path style="fill:none;stroke:red;stroke-width:1px;stroke-linecap:butt;stroke-linejoin:miter;stroke-opacity:1" d="M 598.12,121.024 614.323,112.022 z" id="boundary" inkscape:connector-curvature="0" />
	<path style="fill:none;stroke:red;stroke-width:1px;stroke-linecap:butt;stroke-linejoin:miter;stroke-opacity:1" d="M 614.323,167.833 596.319,173.234 z" id="boundary" inkscape:connector-curvature="0" />
	<path style="fill:none;stroke:red;stroke-width:1px;stroke-linecap:butt;stroke-linejoin:miter;stroke-opacity:1" d="M 617.924,364.073 608.922,347.869 z" id="boundary" inkscape:connector-curvature="0" />
	<path style="fill:none;stroke:red;stroke-width:1px;stroke-linecap:butt;stroke-linejoin:miter;stroke-opacity:1" d="M 623.325,220.044 607.122,211.042 z" id="boundary" inkscape:connector-curvature="0" />
	<path style="fill:none;stroke:red;stroke-width:1px;stroke-linecap:butt;stroke-linejoin:miter;stroke-opacity:1" d="M 608.922,329.866 625.125,320.864 z" id="boundary" inkscape:connector-curvature="0" />
	<path style="fill:none;stroke:red;stroke-width:1px;stroke-linecap:butt;stroke-linejoin:miter;stroke-opacity:1" d="M 614.323,167.833 630.526,158.831 z" id="boundary" inkscape:connector-curvature="0" />
	<path style="fill:none;stroke:red;stroke-width:1px;stroke-linecap:butt;stroke-linejoin:miter;stroke-opacity:1" d="M 630.526,158.831 648.53,157.031 z" id="boundary" inkscape:connector-curvature="0" />
	<path style="fill:none;stroke:red;stroke-width:1px;stroke-linecap:butt;stroke-linejoin:miter;stroke-opacity:1" d="M 617.924,364.073 635.927,360.472 z" id="boundary" inkscape:connector-curvature="0" />
	<path style="fill:none;stroke:red;stroke-width:1px;stroke-linecap:butt;stroke-linejoin:miter;stroke-opacity:1" d="M 623.325,220.044 639.528,211.042 z" id="boundary" inkscape:connector-curvature="0" />
	<path style="fill:none;stroke:red;stroke-width:1px;stroke-linecap:butt;stroke-linejoin:miter;stroke-opacity:1" d="M 614.323,112.022 632.327,112.022 z" id="boundary" inkscape:connector-curvature="0" />
	<path style="fill:none;stroke:red;stroke-width:1px;stroke-linecap:butt;stroke-linejoin:miter;stroke-opacity:1" d="M 639.528,211.042 657.532,211.042 z" id="boundary" inkscape:connector-curvature="0" />
	<path style="fill:none;stroke:red;stroke-width:1px;stroke-linecap:butt;stroke-linejoin:miter;stroke-opacity:1" d="M 635.927,360.472 653.931,360.472 z" id="boundary" inkscape:connector-curvature="0" />
	<path style="fill:none;stroke:red;stroke-width:1px;stroke-linecap:butt;stroke-linejoin:miter;stroke-opacity:1" d="M 625.125,320.864 643.129,320.864 z" id="boundary" inkscape:connector-curvature="0" />
	<path style="fill:none;stroke:red;stroke-width:1px;stroke-linecap:butt;stroke-linejoin:miter;stroke-opacity:1" d="M 648.53,157.031 662.933,128.225 z" id="boundary" inkscape:connector-curvature="0" />
	<path style="fill:none;stroke:red;stroke-width:1px;stroke-linecap:butt;stroke-linejoin:miter;stroke-opacity:1" d="M 662.933,128.225 650.33,113.822 z" id="boundary" inkscape:connector-curvature="0" />
	<path style="fill:none;stroke:red;stroke-width:1px;stroke-linecap:butt;stroke-linejoin:miter;stroke-opacity:1" d="M 632.327,112.022 650.33,113.822 z" id="boundary" inkscape:connector-curvature="0" />
	<path style="fill:none;stroke:red;stroke-width:1px;stroke-linecap:butt;stroke-linejoin:miter;stroke-opacity:1" d="M 653.931,360.472 671.935,360.472 z" id="boundary" inkscape:connector-curvature="0" />
	<path style="fill:none;stroke:red;stroke-width:1px;stroke-linecap:butt;stroke-linejoin:miter;stroke-opacity:1" d="M 668.334,410.882 652.131,419.884 z" id="boundary" inkscape:connector-curvature="0" />
	<path style="fill:none;stroke:red;stroke-width:1px;stroke-linecap:butt;stroke-linejoin:miter;stroke-opacity:1" d="M 668.334,410.882 686.338,407.281 z" id="boundary" inkscape:connector-curvature="0" />
	<path style="fill:none;stroke:red;stroke-width:1px;stroke-linecap:butt;stroke-linejoin:miter;stroke-opacity:1" d="M 643.129,320.864 661.132,320.864 z" id="boundary" inkscape:connector-curvature="0" />
	<path style="fill:none;stroke:red;stroke-width:1px;stroke-linecap:butt;stroke-linejoin:miter;stroke-opacity:1" d="M 657.532,211.042 675.535,211.042 z" id="boundary" inkscape:connector-curvature="0" />
	<path style="fill:none;stroke:red;stroke-width:1px;stroke-linecap:butt;stroke-linejoin:miter;stroke-opacity:1" d="M 711.543,302.86 693.539,302.86 z" id="boundary" inkscape:connector-curvature="0" />
	<path style="fill:none;stroke:red;stroke-width:1px;stroke-linecap:butt;stroke-linejoin:miter;stroke-opacity:1" d="M 693.539,302.86 677.336,311.862 z" id="boundary" inkscape:connector-curvature="0" />
	<path style="fill:none;stroke:red;stroke-width:1px;stroke-linecap:butt;stroke-linejoin:miter;stroke-opacity:1" d="M 671.935,360.472 684.537,374.875 z" id="boundary" inkscape:connector-curvature="0" />
	<path style="fill:none;stroke:red;stroke-width:1px;stroke-linecap:butt;stroke-linejoin:miter;stroke-opacity:1" d="M 661.132,320.864 677.336,311.862 z" id="boundary" inkscape:connector-curvature="0" />
	<path style="fill:none;stroke:red;stroke-width:1px;stroke-linecap:butt;stroke-linejoin:miter;stroke-opacity:1" d="M 684.537,374.875 686.338,407.281 z" id="boundary" inkscape:connector-curvature="0" />
	<path style="fill:none;stroke:red;stroke-width:1px;stroke-linecap:butt;stroke-linejoin:miter;stroke-opacity:1" d="M 711.543,202.04 693.539,202.04 z" id="boundary" inkscape:connector-curvature="0" />
	<path style="fill:none;stroke:red;stroke-width:1px;stroke-linecap:butt;stroke-linejoin:miter;stroke-opacity:1" d="M 693.539,202.04 675.535,211.042 z" id="boundary" inkscape:connector-curvature="0" />
	<path style="fill:none;stroke:red;stroke-width:1px;stroke-linecap:butt;stroke-linejoin:miter;stroke-opacity:1" d="M 745.75,293.858 727.746,293.858 z" id="boundary" inkscape:connector-curvature="0" />
	<path style="fill:none;stroke:red;stroke-width:1px;stroke-linecap:butt;stroke-linejoin:miter;stroke-opacity:1" d="M 727.746,293.858 711.543,302.86 z" id="boundary" inkscape:connector-curvature="0" />
	<path style="fill:none;stroke:red;stroke-width:1px;stroke-linecap:butt;stroke-linejoin:miter;stroke-opacity:1" d="M 745.75,293.858 761.953,284.857 z" id="boundary" inkscape:connector-curvature="0" />
	<path style="fill:none;stroke:red;stroke-width:1px;stroke-linecap:butt;stroke-linejoin:miter;stroke-opacity:1" d="M 711.543,202.04 729.546,202.04 z" id="boundary" inkscape:connector-curvature="0" />
	<path style="fill:none;stroke:red;stroke-width:1px;stroke-linecap:butt;stroke-linejoin:miter;stroke-opacity:1" d="M 761.953,284.857 776.356,272.254 z" id="boundary" inkscape:connector-curvature="0" />
	<path style="fill:none;stroke:red;stroke-width:1px;stroke-linecap:butt;stroke-linejoin:miter;stroke-opacity:1" d="M 776.356,272.254 794.359,272.254 z" id="boundary" inkscape:connector-curvature="0" />
	<path style="fill:none;stroke:red;stroke-width:1px;stroke-linecap:butt;stroke-linejoin:miter;stroke-opacity:1" d="M 729.546,202.04 747.55,202.04 z" id="boundary" inkscape:connector-curvature="0" />
	<path style="fill:none;stroke:red;stroke-width:1px;stroke-linecap:butt;stroke-linejoin:miter;stroke-opacity:1" d="M 747.55,202.04 765.554,202.04 z" id="boundary" inkscape:connector-curvature="0" />
	<path style="fill:none;stroke:red;stroke-width:1px;stroke-linecap:butt;stroke-linejoin:miter;stroke-opacity:1" d="M 794.359,272.254 812.363,266.853 z" id="boundary" inkscape:connector-curvature="0" />
	<path style="fill:none;stroke:red;stroke-width:1px;stroke-linecap:butt;stroke-linejoin:miter;stroke-opacity:1" d="M 765.554,202.04 783.557,202.04 z" id="boundary" inkscape:connector-curvature="0" />
	<path style="fill:none;stroke:red;stroke-width:1px;stroke-linecap:butt;stroke-linejoin:miter;stroke-opacity:1" d="M 812.363,266.853 830.367,263.252 z" id="boundary" inkscape:connector-curvature="0" />
	<path style="fill:none;stroke:red;stroke-width:1px;stroke-linecap:butt;stroke-linejoin:miter;stroke-opacity:1" d="M 830.367,263.252 848.37,263.252 z" id="boundary" inkscape:connector-curvature="0" />
	<path style="fill:none;stroke:red;stroke-width:1px;stroke-linecap:butt;stroke-linejoin:miter;stroke-opacity:1" d="M 783.557,202.04 801.561,202.04 z" id="boundary" inkscape:connector-curvature="0" />
	<path style="fill:none;stroke:red;stroke-width:1px;stroke-linecap:butt;stroke-linejoin:miter;stroke-opacity:1" d="M 801.561,202.04 819.564,202.04 z" id="boundary" inkscape:connector-curvature="0" />
	<path style="fill:none;stroke:red;stroke-width:1px;stroke-linecap:butt;stroke-linejoin:miter;stroke-opacity:1" d="M 848.37,263.252 866.374,254.25 z" id="boundary" inkscape:connector-curvature="0" />
	<path style="fill:none;stroke:red;stroke-width:1px;stroke-linecap:butt;stroke-linejoin:miter;stroke-opacity:1" d="M 866.374,254.25 884.377,254.25 z" id="boundary" inkscape:connector-curvature="0" />
	<path style="fill:none;stroke:red;stroke-width:1px;stroke-linecap:butt;stroke-linejoin:miter;stroke-opacity:1" d="M 819.564,202.04 837.568,202.04 z" id="boundary" inkscape:connector-curvature="0" />
	<path style="fill:none;stroke:red;stroke-width:1px;stroke-linecap:butt;stroke-linejoin:miter;stroke-opacity:1" d="M 837.568,202.04 853.771,193.038 z" id="boundary" inkscape:connector-curvature="0" />
	<path style="fill:none;stroke:red;stroke-width:1px;stroke-linecap:butt;stroke-linejoin:miter;stroke-opacity:1" d="M 853.771,193.038 871.775,185.837 z" id="boundary" inkscape:connector-curvature="0" />
	<path style="fill:none;stroke:red;stroke-width:1px;stroke-linecap:butt;stroke-linejoin:miter;stroke-opacity:1" d="M 896.98,239.848 913.183,230.846 z" id="boundary" inkscape:connector-curvature="0" />
	<path style="fill:none;stroke:red;stroke-width:1px;stroke-linecap:butt;stroke-linejoin:miter;stroke-opacity:1" d="M 913.183,230.846 931.187,230.846 z" id="boundary" inkscape:connector-curvature="0" />
	<path style="fill:none;stroke:red;stroke-width:1px;stroke-linecap:butt;stroke-linejoin:miter;stroke-opacity:1" d="M 871.775,185.837 889.779,184.036 z" id="boundary" inkscape:connector-curvature="0" />
	<path style="fill:none;stroke:red;stroke-width:1px;stroke-linecap:butt;stroke-linejoin:miter;stroke-opacity:1" d="M 889.779,184.036 907.782,176.835 z" id="boundary" inkscape:connector-curvature="0" />
	<path style="fill:none;stroke:red;stroke-width:1px;stroke-linecap:butt;stroke-linejoin:miter;stroke-opacity:1" d="M 931.187,230.846 947.39,221.844 z" id="boundary" inkscape:connector-curvature="0" />
	<path style="fill:none;stroke:red;stroke-width:1px;stroke-linecap:butt;stroke-linejoin:miter;stroke-opacity:1" d="M 947.39,221.844 965.394,221.844 z" id="boundary" inkscape:connector-curvature="0" />
	<path style="fill:none;stroke:red;stroke-width:1px;stroke-linecap:butt;stroke-linejoin:miter;stroke-opacity:1" d="M 907.782,176.835 925.786,175.034 z" id="boundary" inkscape:connector-curvature="0" />
	<path style="fill:none;stroke:red;stroke-width:1px;stroke-linecap:butt;stroke-linejoin:miter;stroke-opacity:1" d="M 925.786,175.034 943.789,167.833 z" id="boundary" inkscape:connector-curvature="0" />
	<path style="fill:none;stroke:red;stroke-width:1px;stroke-linecap:butt;stroke-linejoin:miter;stroke-opacity:1" d="M 943.789,167.833 961.793,166.033 z" id="boundary" inkscape:connector-curvature="0" />
	<path style="fill:none;stroke:red;stroke-width:1px;stroke-linecap:butt;stroke-linejoin:miter;stroke-opacity:1" d="M 961.793,166.033 979.797,166.033 z" id="boundary" inkscape:connector-curvature="0" />
	<path style="fill:none;stroke:red;stroke-width:1px;stroke-linecap:butt;stroke-linejoin:miter;stroke-opacity:1" d="M 981.597,211.042 965.394,221.844 z" id="boundary" inkscape:connector-curvature="0" />
	<path style="fill:none;stroke:red;stroke-width:1px;stroke-linecap:butt;stroke-linejoin:miter;stroke-opacity:1" d="M 979.797,166.033 996,176.835 z" id="boundary" inkscape:connector-curvature="0" />
	<path style="fill:none;stroke:red;stroke-width:1px;stroke-linecap:butt;stroke-linejoin:miter;stroke-opacity:1" d="M 996,176.835 996,194.838 z" id="boundary" inkscape:connector-curvature="0" />
	<path style="fill:none;stroke:red;stroke-width:1px;stroke-linecap:butt;stroke-linejoin:miter;stroke-opacity:1" d="M 996,194.838 981.597,211.042 z" id="boundary" inkscape:connector-curvature="0" />
	<circle cx="4" cy="342.468" r="4" fill="#0" id="circle0"/>
	<circle cx="13.0018" cy="297.459" r="4" fill="#0" id="circle1"/>
	<circle cx="13.0018" cy="315.463" r="4" fill="#0" id="circle2"/>
	<circle cx="13.0018" cy="358.672" r="4" fill="#0" id="circle3"/>
	<circle cx="13.0018" cy="376.675" r="4" fill="#0" id="circle4"/>
	<circle cx="13.0018" cy="394.679" r="4" fill="#0" id="circle5"/>
	<circle cx="13.0018" cy="412.682" r="4" fill="#0" id="circle6"/>
	<circle cx="27.4047" cy="283.056" r="4" fill="#0" id="circle7"/>
	<circle cx="31.0054" cy="261.452" r="4" fill="#0" id="circle8"/>
	<circle cx="31.0054" cy="419.884" r="4" fill="#0" id="circle9"/>
	<circle cx="31.0054" cy="486.497" r="4" fill="#0" id="circle10"/>
	<circle cx="31.0054" cy="504.501" r="4" fill="#0" id="circle11"/>
	<circle cx="40.0073" cy="243.448" r="4" fill="#0" id="circle12"/>
	<circle cx="40.0073" cy="520.704" r="4" fill="#0" id="circle13"/>
	<circle cx="47.2087" cy="428.886" r="4" fill="#0" id="circle14"/>
	<circle cx="49.0091" cy="216.443" r="4" fill="#0" id="circle15"/>
	<circle cx="49.0091" cy="481.096" r="4" fill="#0" id="circle16"/>
	<circle cx="58.0109" cy="522.505" r="4" fill="#0" id="circle17"/>
	<circle cx="63.412" cy="202.04" r="4" fill="#0" id="circle18"/>
	<circle cx="63.412" cy="437.887" r="4" fill="#0" id="circle19"/>
	<circle cx="67.0127" cy="484.697" r="4" fill="#0" id="circle20"/>
	<circle cx="76.0145" cy="518.904" r="4" fill="#0" id="circle21"/>
	<circle cx="79.6152" cy="193.038" r="4" fill="#0" id="circle22"/>
	<circle cx="79.6152" cy="446.889" r="4" fill="#0" id="circle23"/>
	<circle cx="85.0163" cy="490.098" r="4" fill="#0" id="circle24"/>
	<circle cx="88.6171" cy="176.835" r="4" fill="#0" id="circle25"/>
	<circle cx="94.0181" cy="518.904" r="4" fill="#0" id="circle26"/>
	<circle cx="97.6189" cy="452.29" r="4" fill="#0" id="circle27"/>
	<circle cx="101.22" cy="499.1" r="4" fill="#0" id="circle28"/>
	<circle cx="103.02" cy="162.432" r="4" fill="#0" id="circle29"/>
	<circle cx="112.022" cy="518.904" r="4" fill="#0" id="circle30"/>
	<circle cx="115.623" cy="455.891" r="4" fill="#0" id="circle31"/>
	<circle cx="119.223" cy="499.1" r="4" fill="#0" id="circle32"/>
	<circle cx="121.024" cy="153.43" r="4" fill="#0" id="circle33"/>
	<circle cx="130.025" cy="518.904" r="4" fill="#0" id="circle34"/>
	<circle cx="131.826" cy="464.893" r="4" fill="#0" id="circle35"/>
	<circle cx="135.426" cy="139.027" r="4" fill="#0" id="circle36"/>
	<circle cx="137.227" cy="499.1" r="4" fill="#0" id="circle37"/>
	<circle cx="148.029" cy="518.904" r="4" fill="#0" id="circle38"/>
	<circle cx="149.829" cy="464.893" r="4" fill="#0" id="circle39"/>
	<circle cx="153.43" cy="130.025" r="4" fill="#0" id="circle40"/>
	<circle cx="155.23" cy="499.1" r="4" fill="#0" id="circle41"/>
	<circle cx="166.033" cy="518.904" r="4" fill="#0" id="circle42"/>
	<circle cx="167.833" cy="464.893" r="4" fill="#0" id="circle43"/>
	<circle cx="169.633" cy="121.024" r="4" fill="#0" id="circle44"/>
	<circle cx="171.434" cy="490.098" r="4" fill="#0" id="circle45"/>
	<circle cx="184.036" cy="518.904" r="4" fill="#0" id="circle46"/>
	<circle cx="185.837" cy="112.022" r="4" fill="#0" id="circle47"/>
	<circle cx="185.837" cy="464.893" r="4" fill="#0" id="circle48"/>
	<circle cx="189.437" cy="490.098" r="4" fill="#0" id="circle49"/>
	<circle cx="202.04" cy="455.891" r="4" fill="#0" id="circle50"/>
	<circle cx="202.04" cy="522.505" r="4" fill="#0" id="circle51"/>
	<circle cx="203.84" cy="112.022" r="4" fill="#0" id="circle52"/>
	<circle cx="207.441" cy="481.096" r="4" fill="#0" id="circle53"/>
	<circle cx="220.044" cy="103.02" r="4" fill="#0" id="circle54"/>
	<circle cx="220.044" cy="518.904" r="4" fill="#0" id="circle55"/>
	<circle cx="238.047" cy="103.02" r="4" fill="#0" id="circle56"/>
	<circle cx="238.047" cy="513.503" r="4" fill="#0" id="circle57"/>
	<circle cx="256.051" cy="103.02" r="4" fill="#0" id="circle58"/>
	<circle cx="256.051" cy="509.902" r="4" fill="#0" id="circle59"/>
	<circle cx="274.054" cy="103.02" r="4" fill="#0" id="circle60"/>
	<circle cx="274.054" cy="509.902" r="4" fill="#0" id="circle61"/>
	<circle cx="292.058" cy="103.02" r="4" fill="#0" id="circle62"/>
	<circle cx="292.058" cy="509.902" r="4" fill="#0" id="circle63"/>
	<circle cx="310.062" cy="103.02" r="4" fill="#0" id="circle64"/>
	<circle cx="310.062" cy="509.902" r="4" fill="#0" id="circle65"/>
	<circle cx="328.065" cy="103.02" r="4" fill="#0" id="circle66"/>
	<circle cx="328.065" cy="509.902" r="4" fill="#0" id="circle67"/>
	<circle cx="337.067" cy="18.4029" r="4" fill="#0" id="circle68"/>
	<circle cx="346.069" cy="34.6062" r="4" fill="#0" id="circle69"/>
	<circle cx="346.069" cy="103.02" r="4" fill="#0" id="circle70"/>
	<circle cx="346.069" cy="509.902" r="4" fill="#0" id="circle71"/>
	<circle cx="351.47" cy="4" r="4" fill="#0" id="circle72"/>
	<circle cx="355.071" cy="63.412" r="4" fill="#0" id="circle73"/>
	<circle cx="362.272" cy="500.9" r="4" fill="#0" id="circle74"/>
	<circle cx="364.073" cy="41.8076" r="4" fill="#0" id="circle75"/>
	<circle cx="364.073" cy="103.02" r="4" fill="#0" id="circle76"/>
	<circle cx="369.474" cy="4" r="4" fill="#0" id="circle77"/>
	<circle cx="373.074" cy="68.8131" r="4" fill="#0" id="circle78"/>
	<circle cx="378.475" cy="509.902" r="4" fill="#0" id="circle79"/>
	<circle cx="382.076" cy="103.02" r="4" fill="#0" id="circle80"/>
	<circle cx="387.477" cy="4" r="4" fill="#0" id="circle81"/>
	<circle cx="389.278" cy="77.8149" r="4" fill="#0" id="circle82"/>
	<circle cx="396.479" cy="509.902" r="4" fill="#0" id="circle83"/>
	<circle cx="405.481" cy="4" r="4" fill="#0" id="circle84"/>
	<circle cx="410.882" cy="22.0036" r="4" fill="#0" id="circle85"/>
	<circle cx="410.882" cy="40.0073" r="4" fill="#0" id="circle86"/>
	<circle cx="414.483" cy="508.102" r="4" fill="#0" id="circle87"/>
	<circle cx="419.884" cy="56.2105" r="4" fill="#0" id="circle88"/>
	<circle cx="419.884" cy="74.2142" r="4" fill="#0" id="circle89"/>
	<circle cx="428.886" cy="90.4174" r="4" fill="#0" id="circle90"/>
	<circle cx="432.486" cy="499.1" r="4" fill="#0" id="circle91"/>
	<circle cx="443.289" cy="103.02" r="4" fill="#0" id="circle92"/>
	<circle cx="450.49" cy="490.098" r="4" fill="#0" id="circle93"/>
	<circle cx="455.891" cy="428.886" r="4" fill="#0" id="circle94"/>
	<circle cx="455.891" cy="455.891" r="4" fill="#0" id="circle95"/>
	<circle cx="461.292" cy="103.02" r="4" fill="#0" id="circle96"/>
	<circle cx="473.895" cy="428.886" r="4" fill="#0" id="circle97"/>
	<circle cx="479.296" cy="103.02" r="4" fill="#0" id="circle98"/>
	<circle cx="490.098" cy="419.884" r="4" fill="#0" id="circle99"/>
	<circle cx="497.299" cy="103.02" r="4" fill="#0" id="circle100"/>
	<circle cx="508.102" cy="419.884" r="4" fill="#0" id="circle101"/>
	<circle cx="515.303" cy="103.02" r="4" fill="#0" id="circle102"/>
	<circle cx="526.105" cy="419.884" r="4" fill="#0" id="circle103"/>
	<circle cx="533.307" cy="103.02" r="4" fill="#0" id="circle104"/>
	<circle cx="544.109" cy="419.884" r="4" fill="#0" id="circle105"/>
	<circle cx="549.51" cy="94.0181" r="4" fill="#0" id="circle106"/>
	<circle cx="562.113" cy="419.884" r="4" fill="#0" id="circle107"/>
	<circle cx="565.713" cy="103.02" r="4" fill="#0" id="circle108"/>
	<circle cx="580.116" cy="419.884" r="4" fill="#0" id="circle109"/>
	<circle cx="581.917" cy="112.022" r="4" fill="#0" id="circle110"/>
	<circle cx="581.917" cy="185.837" r="4" fill="#0" id="circle111"/>
	<circle cx="590.918" cy="202.04" r="4" fill="#0" id="circle112"/>
	<circle cx="596.319" cy="173.234" r="4" fill="#0" id="circle113"/>
	<circle cx="598.12" cy="121.024" r="4" fill="#0" id="circle114"/>
	<circle cx="598.12" cy="423.485" r="4" fill="#0" id="circle115"/>
	<circle cx="607.122" cy="211.042" r="4" fill="#0" id="circle116"/>
	<circle cx="608.922" cy="329.866" r="4" fill="#0" id="circle117"/>
	<circle cx="608.922" cy="347.869" r="4" fill="#0" id="circle118"/>
	<circle cx="614.323" cy="112.022" r="4" fill="#0" id="circle119"/>
	<circle cx="614.323" cy="167.833" r="4" fill="#0" id="circle120"/>
	<circle cx="616.123" cy="419.884" r="4" fill="#0" id="circle121"/>
	<circle cx="617.924" cy="364.073" r="4" fill="#0" id="circle122"/>
	<circle cx="623.325" cy="220.044" r="4" fill="#0" id="circle123"/>
	<circle cx="625.125" cy="320.864" r="4" fill="#0" id="circle124"/>
	<circle cx="630.526" cy="158.831" r="4" fill="#0" id="circle125"/>
	<circle cx="632.327" cy="112.022" r="4" fill="#0" id="circle126"/>
	<circle cx="634.127" cy="419.884" r="4" fill="#0" id="circle127"/>
	<circle cx="635.927" cy="360.472" r="4" fill="#0" id="circle128"/>
	<circle cx="639.528" cy="211.042" r="4" fill="#0" id="circle129"/>
	<circle cx="643.129" cy="320.864" r="4" fill="#0" id="circle130"/>
	<circle cx="648.53" cy="157.031" r="4" fill="#0" id="circle131"/>
	<circle cx="650.33" cy="113.822" r="4" fill="#0" id="circle132"/>
	<circle cx="652.131" cy="419.884" r="4" fill="#0" id="circle133"/>
	<circle cx="653.931" cy="360.472" r="4" fill="#0" id="circle134"/>
	<circle cx="657.532" cy="211.042" r="4" fill="#0" id="circle135"/>
	<circle cx="661.132" cy="320.864" r="4" fill="#0" id="circle136"/>
	<circle cx="662.933" cy="128.225" r="4" fill="#0" id="circle137"/>
	<circle cx="668.334" cy="410.882" r="4" fill="#0" id="circle138"/>
	<circle cx="671.935" cy="360.472" r="4" fill="#0" id="circle139"/>
	<circle cx="675.535" cy="211.042" r="4" fill="#0" id="circle140"/>
	<circle cx="677.336" cy="311.862" r="4" fill="#0" id="circle141"/>
	<circle cx="684.537" cy="374.875" r="4" fill="#0" id="circle142"/>
	<circle cx="686.338" cy="407.281" r="4" fill="#0" id="circle143"/>
	<circle cx="693.539" cy="202.04" r="4" fill="#0" id="circle144"/>
	<circle cx="693.539" cy="302.86" r="4" fill="#0" id="circle145"/>
	<circle cx="711.543" cy="202.04" r="4" fill="#0" id="circle146"/>
	<circle cx="711.543" cy="302.86" r="4" fill="#0" id="circle147"/>
	<circle cx="727.746" cy="293.858" r="4" fill="#0" id="circle148"/>
	<circle cx="729.546" cy="202.04" r="4" fill="#0" id="circle149"/>
	<circle cx="745.75" cy="293.858" r="4" fill="#0" id="circle150"/>
	<circle cx="747.55" cy="202.04" r="4" fill="#0" id="circle151"/>
	<circle cx="761.953" cy="284.857" r="4" fill="#0" id="circle152"/>
	<circle cx="765.554" cy="202.04" r="4" fill="#0" id="circle153"/>
	<circle cx="776.356" cy="272.254" r="4" fill="#0" id="circle154"/>
	<circle cx="783.557" cy="202.04" r="4" fill="#0" id="circle155"/>
	<circle cx="794.359" cy="272.254" r="4" fill="#0" id="circle156"/>
	<circle cx="801.561" cy="202.04" r="4" fill="#0" id="circle157"/>
	<circle cx="812.363" cy="266.853" r="4" fill="#0" id="circle158"/>
	<circle cx="819.564" cy="202.04" r="4" fill="#0" id="circle159"/>
	<circle cx="830.367" cy="263.252" r="4" fill="#0" id="circle160"/>
	<circle cx="837.568" cy="202.04" r="4" fill="#0" id="circle161"/>
	<circle cx="848.37" cy="263.252" r="4" fill="#0" id="circle162"/>
	<circle cx="853.771" cy="193.038" r="4" fill="#0" id="circle163"/>
	<circle cx="866.374" cy="254.25" r="4" fill="#0" id="circle164"/>
	<circle cx="871.775" cy="185.837" r="4" fill="#0" id="circle165"/>
	<circle cx="884.377" cy="254.25" r="4" fill="#0" id="circle166"/>
	<circle cx="889.779" cy="184.036" r="4" fill="#0" id="circle167"/>
	<circle cx="896.98" cy="239.848" r="4" fill="#0" id="circle168"/>
	<circle cx="907.782" cy="176.835" r="4" fill="#0" id="circle169"/>
	<circle cx="913.183" cy="230.846" r="4" fill="#0" id="circle170"/>
	<circle cx="925.786" cy="175.034" r="4" fill="#0" id="circle171"/>
	<circle cx="931.187" cy="230.846" r="4" fill="#0" id="circle172"/>
	<circle cx="943.789" cy="167.833" r="4" fill="#0" id="circle173"/>
	<circle cx="947.39" cy="221.844" r="4" fill="#0" id="circle174"/>
	<circle cx="961.793" cy="166.033" r="4" fill="#0" id="circle175"/>
	<circle cx="965.394" cy="221.844" r="4" fill="#0" id="circle176"/>
	<circle cx="979.797" cy="166.033" r="4" fill="#0" id="circle177"/>
	<circle cx="981.597" cy="211.042" r="4" fill="#0" id="circle178"/>
	<circle cx="996" cy="176.835" r="4" fill="#0" id="circle179"/>
	<circle cx="996" cy="194.838" r="4" fill="#0" id="circle180"/>
	</g>
</svg>