<?xml version="1.0" encoding="UTF-8" standalone="no"?>
<!-- Created with CurveBenchmark -->
<svg
	xmlns:dc="http://purl.org/dc/elements/1.1/"
	xmlns:cc="http://creativecommons.org/ns#"
	xmlns:rdf="http://www.w3.org/1999/02/22-rdf-syntax-ns#"
	xmlns:svg="http://www.w3.org/2000/svg"
	xmlns="http://www.w3.org/2000/svg"
	xmlns:sodipodi="http://sodipodi.sourceforge.net/DTD/sodipodi-0.dtd"
	xmlns:inkscape="http://www.inkscape.org/namespaces/inkscape"
	width="1000"
	height="1000"
	id="svg2"
	version="1.1"
	sodipodi:docname="manifold/peel-fork04.png.txt">
<defs
	id="defs4" />
<metadata
	id="metadata7">
	<rdf:RDF>
		<cc:Work
			rdf:about="">
			<dc:format>image/svg+xml</dc:format>
			<dc:type
				rdf:resource="http://purl.org/dc/dcmitype/StillImage" />
			<dc:title></dc:title>
		</cc:Work>
	</rdf:RDF>
</metadata>
<g
	inkscape:label="Layer 1"
	inkscape:groupmode="layer"
	id="layer1">
	<path style="fill:none;stroke:red;stroke-width:1px;stroke-linecap:butt;stroke-linejoin:miter;stroke-opacity:1" d="M 22.3364,225.871 4,220.37 z" id="boundary" inkscape:connector-curvature="0" />
	<path style="fill:none;stroke:red;stroke-width:1px;stroke-linecap:butt;stroke-linejoin:miter;stroke-opacity:1" d="M 4,220.37 4,202.033 z" id="boundary" inkscape:connector-curvature="0" />
	<path style="fill:none;stroke:red;stroke-width:1px;stroke-linecap:butt;stroke-linejoin:miter;stroke-opacity:1" d="M 4,202.033 13.1682,183.697 z" id="boundary" inkscape:connector-curvature="0" />
	<path style="fill:none;stroke:red;stroke-width:1px;stroke-linecap:butt;stroke-linejoin:miter;stroke-opacity:1" d="M 13.1682,257.043 4,275.379 z" id="boundary" inkscape:connector-curvature="0" />
	<path style="fill:none;stroke:red;stroke-width:1px;stroke-linecap:butt;stroke-linejoin:miter;stroke-opacity:1" d="M 18.6691,288.214 4,275.379 z" id="boundary" inkscape:connector-curvature="0" />
	<path style="fill:none;stroke:red;stroke-width:1px;stroke-linecap:butt;stroke-linejoin:miter;stroke-opacity:1" d="M 22.3364,137.856 22.3364,119.519 z" id="boundary" inkscape:connector-curvature="0" />
	<path style="fill:none;stroke:red;stroke-width:1px;stroke-linecap:butt;stroke-linejoin:miter;stroke-opacity:1" d="M 22.3364,137.856 33.3383,152.525 z" id="boundary" inkscape:connector-curvature="0" />
	<path style="fill:none;stroke:red;stroke-width:1px;stroke-linecap:butt;stroke-linejoin:miter;stroke-opacity:1" d="M 31.5046,255.209 13.1682,257.043 z" id="boundary" inkscape:connector-curvature="0" />
	<path style="fill:none;stroke:red;stroke-width:1px;stroke-linecap:butt;stroke-linejoin:miter;stroke-opacity:1" d="M 22.3364,119.519 37.0055,104.85 z" id="boundary" inkscape:connector-curvature="0" />
	<path style="fill:none;stroke:red;stroke-width:1px;stroke-linecap:butt;stroke-linejoin:miter;stroke-opacity:1" d="M 22.3364,225.871 40.6728,225.871 z" id="boundary" inkscape:connector-curvature="0" />
	<path style="fill:none;stroke:red;stroke-width:1px;stroke-linecap:butt;stroke-linejoin:miter;stroke-opacity:1" d="M 31.5046,178.196 13.1682,183.697 z" id="boundary" inkscape:connector-curvature="0" />
	<path style="fill:none;stroke:red;stroke-width:1px;stroke-linecap:butt;stroke-linejoin:miter;stroke-opacity:1" d="M 40.6728,37.0055 31.5046,55.342 z" id="boundary" inkscape:connector-curvature="0" />
	<path style="fill:none;stroke:red;stroke-width:1px;stroke-linecap:butt;stroke-linejoin:miter;stroke-opacity:1" d="M 31.5046,55.342 42.5065,70.0111 z" id="boundary" inkscape:connector-curvature="0" />
	<path style="fill:none;stroke:red;stroke-width:1px;stroke-linecap:butt;stroke-linejoin:miter;stroke-opacity:1" d="M 31.5046,178.196 49.841,178.196 z" id="boundary" inkscape:connector-curvature="0" />
	<path style="fill:none;stroke:red;stroke-width:1px;stroke-linecap:butt;stroke-linejoin:miter;stroke-opacity:1" d="M 49.841,260.71 31.5046,255.209 z" id="boundary" inkscape:connector-curvature="0" />
	<path style="fill:none;stroke:red;stroke-width:1px;stroke-linecap:butt;stroke-linejoin:miter;stroke-opacity:1" d="M 33.3383,152.525 51.6747,152.525 z" id="boundary" inkscape:connector-curvature="0" />
	<path style="fill:none;stroke:red;stroke-width:1px;stroke-linecap:butt;stroke-linejoin:miter;stroke-opacity:1" d="M 37.0055,104.85 55.342,104.85 z" id="boundary" inkscape:connector-curvature="0" />
	<path style="fill:none;stroke:red;stroke-width:1px;stroke-linecap:butt;stroke-linejoin:miter;stroke-opacity:1" d="M 49.841,178.196 66.3438,187.364 z" id="boundary" inkscape:connector-curvature="0" />
	<path style="fill:none;stroke:red;stroke-width:1px;stroke-linecap:butt;stroke-linejoin:miter;stroke-opacity:1" d="M 49.841,18.6691 40.6728,37.0055 z" id="boundary" inkscape:connector-curvature="0" />
	<path style="fill:none;stroke:red;stroke-width:1px;stroke-linecap:butt;stroke-linejoin:miter;stroke-opacity:1" d="M 42.5065,70.0111 60.8429,73.6784 z" id="boundary" inkscape:connector-curvature="0" />
	<path style="fill:none;stroke:red;stroke-width:1px;stroke-linecap:butt;stroke-linejoin:miter;stroke-opacity:1" d="M 64.5102,4 82.8466,4 z" id="boundary" inkscape:connector-curvature="0" />
	<path style="fill:none;stroke:red;stroke-width:1px;stroke-linecap:butt;stroke-linejoin:miter;stroke-opacity:1" d="M 64.5102,4 49.841,18.6691 z" id="boundary" inkscape:connector-curvature="0" />
	<path style="fill:none;stroke:red;stroke-width:1px;stroke-linecap:butt;stroke-linejoin:miter;stroke-opacity:1" d="M 35.1719,297.383 18.6691,288.214 z" id="boundary" inkscape:connector-curvature="0" />
	<path style="fill:none;stroke:red;stroke-width:1px;stroke-linecap:butt;stroke-linejoin:miter;stroke-opacity:1" d="M 51.6747,152.525 70.0111,156.192 z" id="boundary" inkscape:connector-curvature="0" />
	<path style="fill:none;stroke:red;stroke-width:1px;stroke-linecap:butt;stroke-linejoin:miter;stroke-opacity:1" d="M 53.5083,299.216 35.1719,297.383 z" id="boundary" inkscape:connector-curvature="0" />
	<path style="fill:none;stroke:red;stroke-width:1px;stroke-linecap:butt;stroke-linejoin:miter;stroke-opacity:1" d="M 55.342,104.85 73.6784,104.85 z" id="boundary" inkscape:connector-curvature="0" />
	<path style="fill:none;stroke:red;stroke-width:1px;stroke-linecap:butt;stroke-linejoin:miter;stroke-opacity:1" d="M 40.6728,225.871 59.0092,225.871 z" id="boundary" inkscape:connector-curvature="0" />
	<path style="fill:none;stroke:red;stroke-width:1px;stroke-linecap:butt;stroke-linejoin:miter;stroke-opacity:1" d="M 158.026,326.721 174.529,335.889 z" id="boundary" inkscape:connector-curvature="0" />
	<path style="fill:none;stroke:red;stroke-width:1px;stroke-linecap:butt;stroke-linejoin:miter;stroke-opacity:1" d="M 59.0092,225.871 75.512,235.039 z" id="boundary" inkscape:connector-curvature="0" />
	<path style="fill:none;stroke:red;stroke-width:1px;stroke-linecap:butt;stroke-linejoin:miter;stroke-opacity:1" d="M 66.3438,187.364 84.6802,187.364 z" id="boundary" inkscape:connector-curvature="0" />
	<path style="fill:none;stroke:red;stroke-width:1px;stroke-linecap:butt;stroke-linejoin:miter;stroke-opacity:1" d="M 82.8466,4 99.3494,13.1682 z" id="boundary" inkscape:connector-curvature="0" />
	<path style="fill:none;stroke:red;stroke-width:1px;stroke-linecap:butt;stroke-linejoin:miter;stroke-opacity:1" d="M 68.1774,264.377 49.841,260.71 z" id="boundary" inkscape:connector-curvature="0" />
	<path style="fill:none;stroke:red;stroke-width:1px;stroke-linecap:butt;stroke-linejoin:miter;stroke-opacity:1" d="M 70.0111,156.192 88.3475,161.693 z" id="boundary" inkscape:connector-curvature="0" />
	<path style="fill:none;stroke:red;stroke-width:1px;stroke-linecap:butt;stroke-linejoin:miter;stroke-opacity:1" d="M 71.8447,299.216 53.5083,299.216 z" id="boundary" inkscape:connector-curvature="0" />
	<path style="fill:none;stroke:red;stroke-width:1px;stroke-linecap:butt;stroke-linejoin:miter;stroke-opacity:1" d="M 79.1793,79.1793 97.5157,79.1793 z" id="boundary" inkscape:connector-curvature="0" />
	<path style="fill:none;stroke:red;stroke-width:1px;stroke-linecap:butt;stroke-linejoin:miter;stroke-opacity:1" d="M 68.1774,264.377 86.5139,264.377 z" id="boundary" inkscape:connector-curvature="0" />
	<path style="fill:none;stroke:red;stroke-width:1px;stroke-linecap:butt;stroke-linejoin:miter;stroke-opacity:1" d="M 73.6784,104.85 90.1811,114.018 z" id="boundary" inkscape:connector-curvature="0" />
	<path style="fill:none;stroke:red;stroke-width:1px;stroke-linecap:butt;stroke-linejoin:miter;stroke-opacity:1" d="M 84.6802,187.364 101.183,196.532 z" id="boundary" inkscape:connector-curvature="0" />
	<path style="fill:none;stroke:red;stroke-width:1px;stroke-linecap:butt;stroke-linejoin:miter;stroke-opacity:1" d="M 60.8429,73.6784 79.1793,79.1793 z" id="boundary" inkscape:connector-curvature="0" />
	<path style="fill:none;stroke:red;stroke-width:1px;stroke-linecap:butt;stroke-linejoin:miter;stroke-opacity:1" d="M 88.3475,161.693 106.684,161.693 z" id="boundary" inkscape:connector-curvature="0" />
	<path style="fill:none;stroke:red;stroke-width:1px;stroke-linecap:butt;stroke-linejoin:miter;stroke-opacity:1" d="M 90.1811,299.216 71.8447,299.216 z" id="boundary" inkscape:connector-curvature="0" />
	<path style="fill:none;stroke:red;stroke-width:1px;stroke-linecap:butt;stroke-linejoin:miter;stroke-opacity:1" d="M 90.1811,114.018 108.518,114.018 z" id="boundary" inkscape:connector-curvature="0" />
	<path style="fill:none;stroke:red;stroke-width:1px;stroke-linecap:butt;stroke-linejoin:miter;stroke-opacity:1" d="M 92.0148,244.207 75.512,235.039 z" id="boundary" inkscape:connector-curvature="0" />
	<path style="fill:none;stroke:red;stroke-width:1px;stroke-linecap:butt;stroke-linejoin:miter;stroke-opacity:1" d="M 86.5139,264.377 104.85,269.878 z" id="boundary" inkscape:connector-curvature="0" />
	<path style="fill:none;stroke:red;stroke-width:1px;stroke-linecap:butt;stroke-linejoin:miter;stroke-opacity:1" d="M 106.684,308.384 90.1811,299.216 z" id="boundary" inkscape:connector-curvature="0" />
	<path style="fill:none;stroke:red;stroke-width:1px;stroke-linecap:butt;stroke-linejoin:miter;stroke-opacity:1" d="M 92.0148,244.207 110.351,244.207 z" id="boundary" inkscape:connector-curvature="0" />
	<path style="fill:none;stroke:red;stroke-width:1px;stroke-linecap:butt;stroke-linejoin:miter;stroke-opacity:1" d="M 99.3494,13.1682 117.686,13.1682 z" id="boundary" inkscape:connector-curvature="0" />
	<path style="fill:none;stroke:red;stroke-width:1px;stroke-linecap:butt;stroke-linejoin:miter;stroke-opacity:1" d="M 106.684,161.693 123.187,170.861 z" id="boundary" inkscape:connector-curvature="0" />
	<path style="fill:none;stroke:red;stroke-width:1px;stroke-linecap:butt;stroke-linejoin:miter;stroke-opacity:1" d="M 97.5157,79.1793 115.852,82.8466 z" id="boundary" inkscape:connector-curvature="0" />
	<path style="fill:none;stroke:red;stroke-width:1px;stroke-linecap:butt;stroke-linejoin:miter;stroke-opacity:1" d="M 108.518,114.018 126.854,114.018 z" id="boundary" inkscape:connector-curvature="0" />
	<path style="fill:none;stroke:red;stroke-width:1px;stroke-linecap:butt;stroke-linejoin:miter;stroke-opacity:1" d="M 141.523,317.553 158.026,326.721 z" id="boundary" inkscape:connector-curvature="0" />
	<path style="fill:none;stroke:red;stroke-width:1px;stroke-linecap:butt;stroke-linejoin:miter;stroke-opacity:1" d="M 104.85,269.878 123.187,269.878 z" id="boundary" inkscape:connector-curvature="0" />
	<path style="fill:none;stroke:red;stroke-width:1px;stroke-linecap:butt;stroke-linejoin:miter;stroke-opacity:1" d="M 119.519,196.532 136.022,205.701 z" id="boundary" inkscape:connector-curvature="0" />
	<path style="fill:none;stroke:red;stroke-width:1px;stroke-linecap:butt;stroke-linejoin:miter;stroke-opacity:1" d="M 119.519,196.532 101.183,196.532 z" id="boundary" inkscape:connector-curvature="0" />
	<path style="fill:none;stroke:red;stroke-width:1px;stroke-linecap:butt;stroke-linejoin:miter;stroke-opacity:1" d="M 134.189,82.8466 115.852,82.8466 z" id="boundary" inkscape:connector-curvature="0" />
	<path style="fill:none;stroke:red;stroke-width:1px;stroke-linecap:butt;stroke-linejoin:miter;stroke-opacity:1" d="M 123.187,170.861 141.523,170.861 z" id="boundary" inkscape:connector-curvature="0" />
	<path style="fill:none;stroke:red;stroke-width:1px;stroke-linecap:butt;stroke-linejoin:miter;stroke-opacity:1" d="M 136.022,13.1682 117.686,13.1682 z" id="boundary" inkscape:connector-curvature="0" />
	<path style="fill:none;stroke:red;stroke-width:1px;stroke-linecap:butt;stroke-linejoin:miter;stroke-opacity:1" d="M 126.854,114.018 145.19,114.018 z" id="boundary" inkscape:connector-curvature="0" />
	<path style="fill:none;stroke:red;stroke-width:1px;stroke-linecap:butt;stroke-linejoin:miter;stroke-opacity:1" d="M 125.02,308.384 106.684,308.384 z" id="boundary" inkscape:connector-curvature="0" />
	<path style="fill:none;stroke:red;stroke-width:1px;stroke-linecap:butt;stroke-linejoin:miter;stroke-opacity:1" d="M 110.351,244.207 128.688,244.207 z" id="boundary" inkscape:connector-curvature="0" />
	<path style="fill:none;stroke:red;stroke-width:1px;stroke-linecap:butt;stroke-linejoin:miter;stroke-opacity:1" d="M 141.523,317.553 125.02,308.384 z" id="boundary" inkscape:connector-curvature="0" />
	<path style="fill:none;stroke:red;stroke-width:1px;stroke-linecap:butt;stroke-linejoin:miter;stroke-opacity:1" d="M 123.187,269.878 141.523,269.878 z" id="boundary" inkscape:connector-curvature="0" />
	<path style="fill:none;stroke:red;stroke-width:1px;stroke-linecap:butt;stroke-linejoin:miter;stroke-opacity:1" d="M 136.022,205.701 154.359,205.701 z" id="boundary" inkscape:connector-curvature="0" />
	<path style="fill:none;stroke:red;stroke-width:1px;stroke-linecap:butt;stroke-linejoin:miter;stroke-opacity:1" d="M 154.359,13.1682 136.022,13.1682 z" id="boundary" inkscape:connector-curvature="0" />
	<path style="fill:none;stroke:red;stroke-width:1px;stroke-linecap:butt;stroke-linejoin:miter;stroke-opacity:1" d="M 134.189,82.8466 152.525,88.3475 z" id="boundary" inkscape:connector-curvature="0" />
	<path style="fill:none;stroke:red;stroke-width:1px;stroke-linecap:butt;stroke-linejoin:miter;stroke-opacity:1" d="M 145.19,114.018 161.693,123.187 z" id="boundary" inkscape:connector-curvature="0" />
	<path style="fill:none;stroke:red;stroke-width:1px;stroke-linecap:butt;stroke-linejoin:miter;stroke-opacity:1" d="M 158.026,279.046 141.523,269.878 z" id="boundary" inkscape:connector-curvature="0" />
	<path style="fill:none;stroke:red;stroke-width:1px;stroke-linecap:butt;stroke-linejoin:miter;stroke-opacity:1" d="M 147.024,251.542 165.36,251.542 z" id="boundary" inkscape:connector-curvature="0" />
	<path style="fill:none;stroke:red;stroke-width:1px;stroke-linecap:butt;stroke-linejoin:miter;stroke-opacity:1" d="M 170.861,88.3475 152.525,88.3475 z" id="boundary" inkscape:connector-curvature="0" />
	<path style="fill:none;stroke:red;stroke-width:1px;stroke-linecap:butt;stroke-linejoin:miter;stroke-opacity:1" d="M 159.86,170.861 141.523,170.861 z" id="boundary" inkscape:connector-curvature="0" />
	<path style="fill:none;stroke:red;stroke-width:1px;stroke-linecap:butt;stroke-linejoin:miter;stroke-opacity:1" d="M 154.359,205.701 172.695,205.701 z" id="boundary" inkscape:connector-curvature="0" />
	<path style="fill:none;stroke:red;stroke-width:1px;stroke-linecap:butt;stroke-linejoin:miter;stroke-opacity:1" d="M 180.03,123.187 161.693,123.187 z" id="boundary" inkscape:connector-curvature="0" />
	<path style="fill:none;stroke:red;stroke-width:1px;stroke-linecap:butt;stroke-linejoin:miter;stroke-opacity:1" d="M 172.695,13.1682 154.359,13.1682 z" id="boundary" inkscape:connector-curvature="0" />
	<path style="fill:none;stroke:red;stroke-width:1px;stroke-linecap:butt;stroke-linejoin:miter;stroke-opacity:1" d="M 158.026,279.046 176.362,279.046 z" id="boundary" inkscape:connector-curvature="0" />
	<path style="fill:none;stroke:red;stroke-width:1px;stroke-linecap:butt;stroke-linejoin:miter;stroke-opacity:1" d="M 159.86,170.861 178.196,170.861 z" id="boundary" inkscape:connector-curvature="0" />
	<path style="fill:none;stroke:red;stroke-width:1px;stroke-linecap:butt;stroke-linejoin:miter;stroke-opacity:1" d="M 165.36,251.542 183.697,251.542 z" id="boundary" inkscape:connector-curvature="0" />
	<path style="fill:none;stroke:red;stroke-width:1px;stroke-linecap:butt;stroke-linejoin:miter;stroke-opacity:1" d="M 191.031,15.0018 172.695,13.1682 z" id="boundary" inkscape:connector-curvature="0" />
	<path style="fill:none;stroke:red;stroke-width:1px;stroke-linecap:butt;stroke-linejoin:miter;stroke-opacity:1" d="M 172.695,205.701 191.031,205.701 z" id="boundary" inkscape:connector-curvature="0" />
	<path style="fill:none;stroke:red;stroke-width:1px;stroke-linecap:butt;stroke-linejoin:miter;stroke-opacity:1" d="M 176.362,279.046 194.699,279.046 z" id="boundary" inkscape:connector-curvature="0" />
	<path style="fill:none;stroke:red;stroke-width:1px;stroke-linecap:butt;stroke-linejoin:miter;stroke-opacity:1" d="M 180.03,123.187 196.532,132.355 z" id="boundary" inkscape:connector-curvature="0" />
	<path style="fill:none;stroke:red;stroke-width:1px;stroke-linecap:butt;stroke-linejoin:miter;stroke-opacity:1" d="M 191.031,15.0018 209.368,22.3364 z" id="boundary" inkscape:connector-curvature="0" />
	<path style="fill:none;stroke:red;stroke-width:1px;stroke-linecap:butt;stroke-linejoin:miter;stroke-opacity:1" d="M 183.697,251.542 202.033,251.542 z" id="boundary" inkscape:connector-curvature="0" />
	<path style="fill:none;stroke:red;stroke-width:1px;stroke-linecap:butt;stroke-linejoin:miter;stroke-opacity:1" d="M 170.861,88.3475 187.364,97.5157 z" id="boundary" inkscape:connector-curvature="0" />
	<path style="fill:none;stroke:red;stroke-width:1px;stroke-linecap:butt;stroke-linejoin:miter;stroke-opacity:1" d="M 187.364,97.5157 205.701,97.5157 z" id="boundary" inkscape:connector-curvature="0" />
	<path style="fill:none;stroke:red;stroke-width:1px;stroke-linecap:butt;stroke-linejoin:miter;stroke-opacity:1" d="M 196.532,170.861 178.196,170.861 z" id="boundary" inkscape:connector-curvature="0" />
	<path style="fill:none;stroke:red;stroke-width:1px;stroke-linecap:butt;stroke-linejoin:miter;stroke-opacity:1" d="M 192.865,334.055 174.529,335.889 z" id="boundary" inkscape:connector-curvature="0" />
	<path style="fill:none;stroke:red;stroke-width:1px;stroke-linecap:butt;stroke-linejoin:miter;stroke-opacity:1" d="M 194.699,279.046 213.035,279.046 z" id="boundary" inkscape:connector-curvature="0" />
	<path style="fill:none;stroke:red;stroke-width:1px;stroke-linecap:butt;stroke-linejoin:miter;stroke-opacity:1" d="M 196.532,170.861 213.035,180.03 z" id="boundary" inkscape:connector-curvature="0" />
	<path style="fill:none;stroke:red;stroke-width:1px;stroke-linecap:butt;stroke-linejoin:miter;stroke-opacity:1" d="M 196.532,132.355 214.869,132.355 z" id="boundary" inkscape:connector-curvature="0" />
	<path style="fill:none;stroke:red;stroke-width:1px;stroke-linecap:butt;stroke-linejoin:miter;stroke-opacity:1" d="M 202.033,251.542 220.37,253.375 z" id="boundary" inkscape:connector-curvature="0" />
	<path style="fill:none;stroke:red;stroke-width:1px;stroke-linecap:butt;stroke-linejoin:miter;stroke-opacity:1" d="M 205.701,97.5157 224.037,97.5157 z" id="boundary" inkscape:connector-curvature="0" />
	<path style="fill:none;stroke:red;stroke-width:1px;stroke-linecap:butt;stroke-linejoin:miter;stroke-opacity:1" d="M 209.368,205.701 191.031,205.701 z" id="boundary" inkscape:connector-curvature="0" />
	<path style="fill:none;stroke:red;stroke-width:1px;stroke-linecap:butt;stroke-linejoin:miter;stroke-opacity:1" d="M 211.201,326.721 192.865,334.055 z" id="boundary" inkscape:connector-curvature="0" />
	<path style="fill:none;stroke:red;stroke-width:1px;stroke-linecap:butt;stroke-linejoin:miter;stroke-opacity:1" d="M 209.368,205.701 227.704,207.534 z" id="boundary" inkscape:connector-curvature="0" />
	<path style="fill:none;stroke:red;stroke-width:1px;stroke-linecap:butt;stroke-linejoin:miter;stroke-opacity:1" d="M 227.704,335.889 211.201,326.721 z" id="boundary" inkscape:connector-curvature="0" />
	<path style="fill:none;stroke:red;stroke-width:1px;stroke-linecap:butt;stroke-linejoin:miter;stroke-opacity:1" d="M 225.871,13.1682 244.207,13.1682 z" id="boundary" inkscape:connector-curvature="0" />
	<path style="fill:none;stroke:red;stroke-width:1px;stroke-linecap:butt;stroke-linejoin:miter;stroke-opacity:1" d="M 225.871,13.1682 209.368,22.3364 z" id="boundary" inkscape:connector-curvature="0" />
	<path style="fill:none;stroke:red;stroke-width:1px;stroke-linecap:butt;stroke-linejoin:miter;stroke-opacity:1" d="M 214.869,132.355 233.205,126.854 z" id="boundary" inkscape:connector-curvature="0" />
	<path style="fill:none;stroke:red;stroke-width:1px;stroke-linecap:butt;stroke-linejoin:miter;stroke-opacity:1" d="M 213.035,279.046 231.372,279.046 z" id="boundary" inkscape:connector-curvature="0" />
	<path style="fill:none;stroke:red;stroke-width:1px;stroke-linecap:butt;stroke-linejoin:miter;stroke-opacity:1" d="M 213.035,180.03 231.372,180.03 z" id="boundary" inkscape:connector-curvature="0" />
	<path style="fill:none;stroke:red;stroke-width:1px;stroke-linecap:butt;stroke-linejoin:miter;stroke-opacity:1" d="M 227.704,207.534 246.041,214.869 z" id="boundary" inkscape:connector-curvature="0" />
	<path style="fill:none;stroke:red;stroke-width:1px;stroke-linecap:butt;stroke-linejoin:miter;stroke-opacity:1" d="M 224.037,97.5157 242.373,97.5157 z" id="boundary" inkscape:connector-curvature="0" />
	<path style="fill:none;stroke:red;stroke-width:1px;stroke-linecap:butt;stroke-linejoin:miter;stroke-opacity:1" d="M 231.372,180.03 249.708,180.03 z" id="boundary" inkscape:connector-curvature="0" />
	<path style="fill:none;stroke:red;stroke-width:1px;stroke-linecap:butt;stroke-linejoin:miter;stroke-opacity:1" d="M 242.373,97.5157 258.876,106.684 z" id="boundary" inkscape:connector-curvature="0" />
	<path style="fill:none;stroke:red;stroke-width:1px;stroke-linecap:butt;stroke-linejoin:miter;stroke-opacity:1" d="M 238.706,253.375 231.372,279.046 z" id="boundary" inkscape:connector-curvature="0" />
	<path style="fill:none;stroke:red;stroke-width:1px;stroke-linecap:butt;stroke-linejoin:miter;stroke-opacity:1" d="M 238.706,253.375 220.37,253.375 z" id="boundary" inkscape:connector-curvature="0" />
	<path style="fill:none;stroke:red;stroke-width:1px;stroke-linecap:butt;stroke-linejoin:miter;stroke-opacity:1" d="M 233.205,126.854 251.542,132.355 z" id="boundary" inkscape:connector-curvature="0" />
	<path style="fill:none;stroke:red;stroke-width:1px;stroke-linecap:butt;stroke-linejoin:miter;stroke-opacity:1" d="M 244.207,326.721 227.704,335.889 z" id="boundary" inkscape:connector-curvature="0" />
	<path style="fill:none;stroke:red;stroke-width:1px;stroke-linecap:butt;stroke-linejoin:miter;stroke-opacity:1" d="M 262.543,18.6691 244.207,13.1682 z" id="boundary" inkscape:connector-curvature="0" />
	<path style="fill:none;stroke:red;stroke-width:1px;stroke-linecap:butt;stroke-linejoin:miter;stroke-opacity:1" d="M 308.384,216.702 308.384,198.366 z" id="boundary" inkscape:connector-curvature="0" />
	<path style="fill:none;stroke:red;stroke-width:1px;stroke-linecap:butt;stroke-linejoin:miter;stroke-opacity:1" d="M 249.708,180.03 260.71,194.699 z" id="boundary" inkscape:connector-curvature="0" />
	<path style="fill:none;stroke:red;stroke-width:1px;stroke-linecap:butt;stroke-linejoin:miter;stroke-opacity:1" d="M 246.041,214.869 260.71,194.699 z" id="boundary" inkscape:connector-curvature="0" />
	<path style="fill:none;stroke:red;stroke-width:1px;stroke-linecap:butt;stroke-linejoin:miter;stroke-opacity:1" d="M 313.885,70.0111 317.553,88.3475 z" id="boundary" inkscape:connector-curvature="0" />
	<path style="fill:none;stroke:red;stroke-width:1px;stroke-linecap:butt;stroke-linejoin:miter;stroke-opacity:1" d="M 313.885,70.0111 299.216,59.0092 z" id="boundary" inkscape:connector-curvature="0" />
	<path style="fill:none;stroke:red;stroke-width:1px;stroke-linecap:butt;stroke-linejoin:miter;stroke-opacity:1" d="M 258.876,106.684 251.542,132.355 z" id="boundary" inkscape:connector-curvature="0" />
	<path style="fill:none;stroke:red;stroke-width:1px;stroke-linecap:butt;stroke-linejoin:miter;stroke-opacity:1" d="M 262.543,18.6691 279.046,27.8373 z" id="boundary" inkscape:connector-curvature="0" />
	<path style="fill:none;stroke:red;stroke-width:1px;stroke-linecap:butt;stroke-linejoin:miter;stroke-opacity:1" d="M 299.216,59.0092 293.715,40.6728 z" id="boundary" inkscape:connector-curvature="0" />
	<path style="fill:none;stroke:red;stroke-width:1px;stroke-linecap:butt;stroke-linejoin:miter;stroke-opacity:1" d="M 293.715,40.6728 279.046,27.8373 z" id="boundary" inkscape:connector-curvature="0" />
	<path style="fill:none;stroke:red;stroke-width:1px;stroke-linecap:butt;stroke-linejoin:miter;stroke-opacity:1" d="M 262.543,308.384 244.207,326.721 z" id="boundary" inkscape:connector-curvature="0" />
	<path style="fill:none;stroke:red;stroke-width:1px;stroke-linecap:butt;stroke-linejoin:miter;stroke-opacity:1" d="M 277.213,295.549 262.543,308.384 z" id="boundary" inkscape:connector-curvature="0" />
	<path style="fill:none;stroke:red;stroke-width:1px;stroke-linecap:butt;stroke-linejoin:miter;stroke-opacity:1" d="M 277.213,295.549 295.549,286.381 z" id="boundary" inkscape:connector-curvature="0" />
	<path style="fill:none;stroke:red;stroke-width:1px;stroke-linecap:butt;stroke-linejoin:miter;stroke-opacity:1" d="M 317.553,106.684 317.553,88.3475 z" id="boundary" inkscape:connector-curvature="0" />
	<path style="fill:none;stroke:red;stroke-width:1px;stroke-linecap:butt;stroke-linejoin:miter;stroke-opacity:1" d="M 396.399,216.702 414.736,216.702 z" id="boundary" inkscape:connector-curvature="0" />
	<path style="fill:none;stroke:red;stroke-width:1px;stroke-linecap:butt;stroke-linejoin:miter;stroke-opacity:1" d="M 414.736,216.702 431.238,225.871 z" id="boundary" inkscape:connector-curvature="0" />
	<path style="fill:none;stroke:red;stroke-width:1px;stroke-linecap:butt;stroke-linejoin:miter;stroke-opacity:1" d="M 304.717,268.044 295.549,286.381 z" id="boundary" inkscape:connector-curvature="0" />
	<path style="fill:none;stroke:red;stroke-width:1px;stroke-linecap:butt;stroke-linejoin:miter;stroke-opacity:1" d="M 308.384,216.702 308.384,235.039 z" id="boundary" inkscape:connector-curvature="0" />
	<path style="fill:none;stroke:red;stroke-width:1px;stroke-linecap:butt;stroke-linejoin:miter;stroke-opacity:1" d="M 308.384,235.039 304.717,268.044 z" id="boundary" inkscape:connector-curvature="0" />
	<path style="fill:none;stroke:red;stroke-width:1px;stroke-linecap:butt;stroke-linejoin:miter;stroke-opacity:1" d="M 335.889,114.018 317.553,106.684 z" id="boundary" inkscape:connector-curvature="0" />
	<path style="fill:none;stroke:red;stroke-width:1px;stroke-linecap:butt;stroke-linejoin:miter;stroke-opacity:1" d="M 308.384,198.366 326.721,198.366 z" id="boundary" inkscape:connector-curvature="0" />
	<path style="fill:none;stroke:red;stroke-width:1px;stroke-linecap:butt;stroke-linejoin:miter;stroke-opacity:1" d="M 326.721,198.366 343.224,207.534 z" id="boundary" inkscape:connector-curvature="0" />
	<path style="fill:none;stroke:red;stroke-width:1px;stroke-linecap:butt;stroke-linejoin:miter;stroke-opacity:1" d="M 343.224,207.534 361.56,207.534 z" id="boundary" inkscape:connector-curvature="0" />
	<path style="fill:none;stroke:red;stroke-width:1px;stroke-linecap:butt;stroke-linejoin:miter;stroke-opacity:1" d="M 361.56,207.534 378.063,216.702 z" id="boundary" inkscape:connector-curvature="0" />
	<path style="fill:none;stroke:red;stroke-width:1px;stroke-linecap:butt;stroke-linejoin:miter;stroke-opacity:1" d="M 354.226,114.018 335.889,114.018 z" id="boundary" inkscape:connector-curvature="0" />
	<path style="fill:none;stroke:red;stroke-width:1px;stroke-linecap:butt;stroke-linejoin:miter;stroke-opacity:1" d="M 372.562,108.518 354.226,114.018 z" id="boundary" inkscape:connector-curvature="0" />
	<path style="fill:none;stroke:red;stroke-width:1px;stroke-linecap:butt;stroke-linejoin:miter;stroke-opacity:1" d="M 378.063,216.702 396.399,216.702 z" id="boundary" inkscape:connector-curvature="0" />
	<path style="fill:none;stroke:red;stroke-width:1px;stroke-linecap:butt;stroke-linejoin:miter;stroke-opacity:1" d="M 390.898,104.85 407.401,114.018 z" id="boundary" inkscape:connector-curvature="0" />
	<path style="fill:none;stroke:red;stroke-width:1px;stroke-linecap:butt;stroke-linejoin:miter;stroke-opacity:1" d="M 390.898,104.85 372.562,108.518 z" id="boundary" inkscape:connector-curvature="0" />
	<path style="fill:none;stroke:red;stroke-width:1px;stroke-linecap:butt;stroke-linejoin:miter;stroke-opacity:1" d="M 425.738,117.686 407.401,114.018 z" id="boundary" inkscape:connector-curvature="0" />
	<path style="fill:none;stroke:red;stroke-width:1px;stroke-linecap:butt;stroke-linejoin:miter;stroke-opacity:1" d="M 431.238,225.871 449.575,225.871 z" id="boundary" inkscape:connector-curvature="0" />
	<path style="fill:none;stroke:red;stroke-width:1px;stroke-linecap:butt;stroke-linejoin:miter;stroke-opacity:1" d="M 449.575,225.871 466.078,235.039 z" id="boundary" inkscape:connector-curvature="0" />
	<path style="fill:none;stroke:red;stroke-width:1px;stroke-linecap:butt;stroke-linejoin:miter;stroke-opacity:1" d="M 444.074,123.187 460.577,132.355 z" id="boundary" inkscape:connector-curvature="0" />
	<path style="fill:none;stroke:red;stroke-width:1px;stroke-linecap:butt;stroke-linejoin:miter;stroke-opacity:1" d="M 425.738,117.686 444.074,123.187 z" id="boundary" inkscape:connector-curvature="0" />
	<path style="fill:none;stroke:red;stroke-width:1px;stroke-linecap:butt;stroke-linejoin:miter;stroke-opacity:1" d="M 466.078,235.039 484.414,235.039 z" id="boundary" inkscape:connector-curvature="0" />
	<path style="fill:none;stroke:red;stroke-width:1px;stroke-linecap:butt;stroke-linejoin:miter;stroke-opacity:1" d="M 484.414,235.039 500.917,244.207 z" id="boundary" inkscape:connector-curvature="0" />
	<path style="fill:none;stroke:red;stroke-width:1px;stroke-linecap:butt;stroke-linejoin:miter;stroke-opacity:1" d="M 478.913,134.189 495.416,143.357 z" id="boundary" inkscape:connector-curvature="0" />
	<path style="fill:none;stroke:red;stroke-width:1px;stroke-linecap:butt;stroke-linejoin:miter;stroke-opacity:1" d="M 478.913,134.189 460.577,132.355 z" id="boundary" inkscape:connector-curvature="0" />
	<path style="fill:none;stroke:red;stroke-width:1px;stroke-linecap:butt;stroke-linejoin:miter;stroke-opacity:1" d="M 500.917,244.207 519.253,244.207 z" id="boundary" inkscape:connector-curvature="0" />
	<path style="fill:none;stroke:red;stroke-width:1px;stroke-linecap:butt;stroke-linejoin:miter;stroke-opacity:1" d="M 519.253,244.207 535.756,253.375 z" id="boundary" inkscape:connector-curvature="0" />
	<path style="fill:none;stroke:red;stroke-width:1px;stroke-linecap:butt;stroke-linejoin:miter;stroke-opacity:1" d="M 513.752,150.691 495.416,143.357 z" id="boundary" inkscape:connector-curvature="0" />
	<path style="fill:none;stroke:red;stroke-width:1px;stroke-linecap:butt;stroke-linejoin:miter;stroke-opacity:1" d="M 532.089,150.691 548.591,159.86 z" id="boundary" inkscape:connector-curvature="0" />
	<path style="fill:none;stroke:red;stroke-width:1px;stroke-linecap:butt;stroke-linejoin:miter;stroke-opacity:1" d="M 532.089,150.691 513.752,150.691 z" id="boundary" inkscape:connector-curvature="0" />
	<path style="fill:none;stroke:red;stroke-width:1px;stroke-linecap:butt;stroke-linejoin:miter;stroke-opacity:1" d="M 548.591,159.86 565.094,169.028 z" id="boundary" inkscape:connector-curvature="0" />
	<path style="fill:none;stroke:red;stroke-width:1px;stroke-linecap:butt;stroke-linejoin:miter;stroke-opacity:1" d="M 554.092,253.375 535.756,253.375 z" id="boundary" inkscape:connector-curvature="0" />
	<path style="fill:none;stroke:red;stroke-width:1px;stroke-linecap:butt;stroke-linejoin:miter;stroke-opacity:1" d="M 572.429,253.375 588.932,262.543 z" id="boundary" inkscape:connector-curvature="0" />
	<path style="fill:none;stroke:red;stroke-width:1px;stroke-linecap:butt;stroke-linejoin:miter;stroke-opacity:1" d="M 572.429,253.375 554.092,253.375 z" id="boundary" inkscape:connector-curvature="0" />
	<path style="fill:none;stroke:red;stroke-width:1px;stroke-linecap:butt;stroke-linejoin:miter;stroke-opacity:1" d="M 583.431,169.028 599.933,178.196 z" id="boundary" inkscape:connector-curvature="0" />
	<path style="fill:none;stroke:red;stroke-width:1px;stroke-linecap:butt;stroke-linejoin:miter;stroke-opacity:1" d="M 583.431,169.028 565.094,169.028 z" id="boundary" inkscape:connector-curvature="0" />
	<path style="fill:none;stroke:red;stroke-width:1px;stroke-linecap:butt;stroke-linejoin:miter;stroke-opacity:1" d="M 607.268,262.543 623.771,271.712 z" id="boundary" inkscape:connector-curvature="0" />
	<path style="fill:none;stroke:red;stroke-width:1px;stroke-linecap:butt;stroke-linejoin:miter;stroke-opacity:1" d="M 607.268,262.543 588.932,262.543 z" id="boundary" inkscape:connector-curvature="0" />
	<path style="fill:none;stroke:red;stroke-width:1px;stroke-linecap:butt;stroke-linejoin:miter;stroke-opacity:1" d="M 618.27,178.196 599.933,178.196 z" id="boundary" inkscape:connector-curvature="0" />
	<path style="fill:none;stroke:red;stroke-width:1px;stroke-linecap:butt;stroke-linejoin:miter;stroke-opacity:1" d="M 618.27,178.196 636.606,178.196 z" id="boundary" inkscape:connector-curvature="0" />
	<path style="fill:none;stroke:red;stroke-width:1px;stroke-linecap:butt;stroke-linejoin:miter;stroke-opacity:1" d="M 642.107,271.712 660.444,279.046 z" id="boundary" inkscape:connector-curvature="0" />
	<path style="fill:none;stroke:red;stroke-width:1px;stroke-linecap:butt;stroke-linejoin:miter;stroke-opacity:1" d="M 642.107,271.712 623.771,271.712 z" id="boundary" inkscape:connector-curvature="0" />
	<path style="fill:none;stroke:red;stroke-width:1px;stroke-linecap:butt;stroke-linejoin:miter;stroke-opacity:1" d="M 654.943,181.863 636.606,178.196 z" id="boundary" inkscape:connector-curvature="0" />
	<path style="fill:none;stroke:red;stroke-width:1px;stroke-linecap:butt;stroke-linejoin:miter;stroke-opacity:1" d="M 673.279,187.364 689.782,196.532 z" id="boundary" inkscape:connector-curvature="0" />
	<path style="fill:none;stroke:red;stroke-width:1px;stroke-linecap:butt;stroke-linejoin:miter;stroke-opacity:1" d="M 654.943,181.863 673.279,187.364 z" id="boundary" inkscape:connector-curvature="0" />
	<path style="fill:none;stroke:red;stroke-width:1px;stroke-linecap:butt;stroke-linejoin:miter;stroke-opacity:1" d="M 678.78,280.88 697.116,288.214 z" id="boundary" inkscape:connector-curvature="0" />
	<path style="fill:none;stroke:red;stroke-width:1px;stroke-linecap:butt;stroke-linejoin:miter;stroke-opacity:1" d="M 678.78,280.88 660.444,279.046 z" id="boundary" inkscape:connector-curvature="0" />
	<path style="fill:none;stroke:red;stroke-width:1px;stroke-linecap:butt;stroke-linejoin:miter;stroke-opacity:1" d="M 708.118,196.532 689.782,196.532 z" id="boundary" inkscape:connector-curvature="0" />
	<path style="fill:none;stroke:red;stroke-width:1px;stroke-linecap:butt;stroke-linejoin:miter;stroke-opacity:1" d="M 715.453,290.048 731.956,299.216 z" id="boundary" inkscape:connector-curvature="0" />
	<path style="fill:none;stroke:red;stroke-width:1px;stroke-linecap:butt;stroke-linejoin:miter;stroke-opacity:1" d="M 715.453,290.048 697.116,288.214 z" id="boundary" inkscape:connector-curvature="0" />
	<path style="fill:none;stroke:red;stroke-width:1px;stroke-linecap:butt;stroke-linejoin:miter;stroke-opacity:1" d="M 726.455,196.532 708.118,196.532 z" id="boundary" inkscape:connector-curvature="0" />
	<path style="fill:none;stroke:red;stroke-width:1px;stroke-linecap:butt;stroke-linejoin:miter;stroke-opacity:1" d="M 726.455,196.532 744.791,198.366 z" id="boundary" inkscape:connector-curvature="0" />
	<path style="fill:none;stroke:red;stroke-width:1px;stroke-linecap:butt;stroke-linejoin:miter;stroke-opacity:1" d="M 750.292,299.216 766.795,308.384 z" id="boundary" inkscape:connector-curvature="0" />
	<path style="fill:none;stroke:red;stroke-width:1px;stroke-linecap:butt;stroke-linejoin:miter;stroke-opacity:1" d="M 750.292,299.216 731.956,299.216 z" id="boundary" inkscape:connector-curvature="0" />
	<path style="fill:none;stroke:red;stroke-width:1px;stroke-linecap:butt;stroke-linejoin:miter;stroke-opacity:1" d="M 763.128,198.366 744.791,198.366 z" id="boundary" inkscape:connector-curvature="0" />
	<path style="fill:none;stroke:red;stroke-width:1px;stroke-linecap:butt;stroke-linejoin:miter;stroke-opacity:1" d="M 763.128,198.366 781.464,198.366 z" id="boundary" inkscape:connector-curvature="0" />
	<path style="fill:none;stroke:red;stroke-width:1px;stroke-linecap:butt;stroke-linejoin:miter;stroke-opacity:1" d="M 785.131,308.384 803.468,312.052 z" id="boundary" inkscape:connector-curvature="0" />
	<path style="fill:none;stroke:red;stroke-width:1px;stroke-linecap:butt;stroke-linejoin:miter;stroke-opacity:1" d="M 785.131,308.384 766.795,308.384 z" id="boundary" inkscape:connector-curvature="0" />
	<path style="fill:none;stroke:red;stroke-width:1px;stroke-linecap:butt;stroke-linejoin:miter;stroke-opacity:1" d="M 799.8,198.366 818.137,205.701 z" id="boundary" inkscape:connector-curvature="0" />
	<path style="fill:none;stroke:red;stroke-width:1px;stroke-linecap:butt;stroke-linejoin:miter;stroke-opacity:1" d="M 799.8,198.366 781.464,198.366 z" id="boundary" inkscape:connector-curvature="0" />
	<path style="fill:none;stroke:red;stroke-width:1px;stroke-linecap:butt;stroke-linejoin:miter;stroke-opacity:1" d="M 803.468,312.052 821.804,317.553 z" id="boundary" inkscape:connector-curvature="0" />
	<path style="fill:none;stroke:red;stroke-width:1px;stroke-linecap:butt;stroke-linejoin:miter;stroke-opacity:1" d="M 836.473,205.701 818.137,205.701 z" id="boundary" inkscape:connector-curvature="0" />
	<path style="fill:none;stroke:red;stroke-width:1px;stroke-linecap:butt;stroke-linejoin:miter;stroke-opacity:1" d="M 840.14,317.553 856.643,326.721 z" id="boundary" inkscape:connector-curvature="0" />
	<path style="fill:none;stroke:red;stroke-width:1px;stroke-linecap:butt;stroke-linejoin:miter;stroke-opacity:1" d="M 840.14,317.553 821.804,317.553 z" id="boundary" inkscape:connector-curvature="0" />
	<path style="fill:none;stroke:red;stroke-width:1px;stroke-linecap:butt;stroke-linejoin:miter;stroke-opacity:1" d="M 854.81,205.701 836.473,205.701 z" id="boundary" inkscape:connector-curvature="0" />
	<path style="fill:none;stroke:red;stroke-width:1px;stroke-linecap:butt;stroke-linejoin:miter;stroke-opacity:1" d="M 854.81,205.701 873.146,205.701 z" id="boundary" inkscape:connector-curvature="0" />
	<path style="fill:none;stroke:red;stroke-width:1px;stroke-linecap:butt;stroke-linejoin:miter;stroke-opacity:1" d="M 874.98,326.721 856.643,326.721 z" id="boundary" inkscape:connector-curvature="0" />
	<path style="fill:none;stroke:red;stroke-width:1px;stroke-linecap:butt;stroke-linejoin:miter;stroke-opacity:1" d="M 891.482,205.701 907.985,214.869 z" id="boundary" inkscape:connector-curvature="0" />
	<path style="fill:none;stroke:red;stroke-width:1px;stroke-linecap:butt;stroke-linejoin:miter;stroke-opacity:1" d="M 891.482,205.701 873.146,205.701 z" id="boundary" inkscape:connector-curvature="0" />
	<path style="fill:none;stroke:red;stroke-width:1px;stroke-linecap:butt;stroke-linejoin:miter;stroke-opacity:1" d="M 893.316,326.721 909.819,335.889 z" id="boundary" inkscape:connector-curvature="0" />
	<path style="fill:none;stroke:red;stroke-width:1px;stroke-linecap:butt;stroke-linejoin:miter;stroke-opacity:1" d="M 893.316,326.721 874.98,326.721 z" id="boundary" inkscape:connector-curvature="0" />
	<path style="fill:none;stroke:red;stroke-width:1px;stroke-linecap:butt;stroke-linejoin:miter;stroke-opacity:1" d="M 926.322,214.869 907.985,214.869 z" id="boundary" inkscape:connector-curvature="0" />
	<path style="fill:none;stroke:red;stroke-width:1px;stroke-linecap:butt;stroke-linejoin:miter;stroke-opacity:1" d="M 928.155,335.889 909.819,335.889 z" id="boundary" inkscape:connector-curvature="0" />
	<path style="fill:none;stroke:red;stroke-width:1px;stroke-linecap:butt;stroke-linejoin:miter;stroke-opacity:1" d="M 944.658,214.869 961.161,224.037 z" id="boundary" inkscape:connector-curvature="0" />
	<path style="fill:none;stroke:red;stroke-width:1px;stroke-linecap:butt;stroke-linejoin:miter;stroke-opacity:1" d="M 944.658,214.869 926.322,214.869 z" id="boundary" inkscape:connector-curvature="0" />
	<path style="fill:none;stroke:red;stroke-width:1px;stroke-linecap:butt;stroke-linejoin:miter;stroke-opacity:1" d="M 946.492,332.222 928.155,335.889 z" id="boundary" inkscape:connector-curvature="0" />
	<path style="fill:none;stroke:red;stroke-width:1px;stroke-linecap:butt;stroke-linejoin:miter;stroke-opacity:1" d="M 975.83,236.872 961.161,224.037 z" id="boundary" inkscape:connector-curvature="0" />
	<path style="fill:none;stroke:red;stroke-width:1px;stroke-linecap:butt;stroke-linejoin:miter;stroke-opacity:1" d="M 983.165,323.054 964.828,326.721 z" id="boundary" inkscape:connector-curvature="0" />
	<path style="fill:none;stroke:red;stroke-width:1px;stroke-linecap:butt;stroke-linejoin:miter;stroke-opacity:1" d="M 964.828,326.721 946.492,332.222 z" id="boundary" inkscape:connector-curvature="0" />
	<path style="fill:none;stroke:red;stroke-width:1px;stroke-linecap:butt;stroke-linejoin:miter;stroke-opacity:1" d="M 986.832,299.216 983.165,323.054 z" id="boundary" inkscape:connector-curvature="0" />
	<path style="fill:none;stroke:red;stroke-width:1px;stroke-linecap:butt;stroke-linejoin:miter;stroke-opacity:1" d="M 992.333,246.041 996,264.377 z" id="boundary" inkscape:connector-curvature="0" />
	<path style="fill:none;stroke:red;stroke-width:1px;stroke-linecap:butt;stroke-linejoin:miter;stroke-opacity:1" d="M 992.333,246.041 975.83,236.872 z" id="boundary" inkscape:connector-curvature="0" />
	<path style="fill:none;stroke:red;stroke-width:1px;stroke-linecap:butt;stroke-linejoin:miter;stroke-opacity:1" d="M 996,264.377 996,282.713 z" id="boundary" inkscape:connector-curvature="0" />
	<path style="fill:none;stroke:red;stroke-width:1px;stroke-linecap:butt;stroke-linejoin:miter;stroke-opacity:1" d="M 996,282.713 986.832,299.216 z" id="boundary" inkscape:connector-curvature="0" />
	<circle cx="4" cy="202.033" r="4" fill="#0" id="circle0"/>
	<circle cx="4" cy="220.37" r="4" fill="#0" id="circle1"/>
	<circle cx="4" cy="275.379" r="4" fill="#0" id="circle2"/>
	<circle cx="13.1682" cy="183.697" r="4" fill="#0" id="circle3"/>
	<circle cx="13.1682" cy="257.043" r="4" fill="#0" id="circle4"/>
	<circle cx="18.6691" cy="288.214" r="4" fill="#0" id="circle5"/>
	<circle cx="22.3364" cy="119.519" r="4" fill="#0" id="circle6"/>
	<circle cx="22.3364" cy="137.856" r="4" fill="#0" id="circle7"/>
	<circle cx="22.3364" cy="225.871" r="4" fill="#0" id="circle8"/>
	<circle cx="31.5046" cy="55.342" r="4" fill="#0" id="circle9"/>
	<circle cx="31.5046" cy="178.196" r="4" fill="#0" id="circle10"/>
	<circle cx="31.5046" cy="255.209" r="4" fill="#0" id="circle11"/>
	<circle cx="33.3383" cy="152.525" r="4" fill="#0" id="circle12"/>
	<circle cx="35.1719" cy="297.383" r="4" fill="#0" id="circle13"/>
	<circle cx="37.0055" cy="104.85" r="4" fill="#0" id="circle14"/>
	<circle cx="40.6728" cy="37.0055" r="4" fill="#0" id="circle15"/>
	<circle cx="40.6728" cy="225.871" r="4" fill="#0" id="circle16"/>
	<circle cx="42.5065" cy="70.0111" r="4" fill="#0" id="circle17"/>
	<circle cx="49.841" cy="18.6691" r="4" fill="#0" id="circle18"/>
	<circle cx="49.841" cy="178.196" r="4" fill="#0" id="circle19"/>
	<circle cx="49.841" cy="260.71" r="4" fill="#0" id="circle20"/>
	<circle cx="51.6747" cy="152.525" r="4" fill="#0" id="circle21"/>
	<circle cx="53.5083" cy="299.216" r="4" fill="#0" id="circle22"/>
	<circle cx="55.342" cy="104.85" r="4" fill="#0" id="circle23"/>
	<circle cx="59.0092" cy="225.871" r="4" fill="#0" id="circle24"/>
	<circle cx="60.8429" cy="73.6784" r="4" fill="#0" id="circle25"/>
	<circle cx="64.5102" cy="4" r="4" fill="#0" id="circle26"/>
	<circle cx="66.3438" cy="187.364" r="4" fill="#0" id="circle27"/>
	<circle cx="68.1774" cy="264.377" r="4" fill="#0" id="circle28"/>
	<circle cx="70.0111" cy="156.192" r="4" fill="#0" id="circle29"/>
	<circle cx="71.8447" cy="299.216" r="4" fill="#0" id="circle30"/>
	<circle cx="73.6784" cy="104.85" r="4" fill="#0" id="circle31"/>
	<circle cx="75.512" cy="235.039" r="4" fill="#0" id="circle32"/>
	<circle cx="79.1793" cy="79.1793" r="4" fill="#0" id="circle33"/>
	<circle cx="82.8466" cy="4" r="4" fill="#0" id="circle34"/>
	<circle cx="84.6802" cy="187.364" r="4" fill="#0" id="circle35"/>
	<circle cx="86.5139" cy="264.377" r="4" fill="#0" id="circle36"/>
	<circle cx="88.3475" cy="161.693" r="4" fill="#0" id="circle37"/>
	<circle cx="90.1811" cy="114.018" r="4" fill="#0" id="circle38"/>
	<circle cx="90.1811" cy="299.216" r="4" fill="#0" id="circle39"/>
	<circle cx="92.0148" cy="244.207" r="4" fill="#0" id="circle40"/>
	<circle cx="97.5157" cy="79.1793" r="4" fill="#0" id="circle41"/>
	<circle cx="99.3494" cy="13.1682" r="4" fill="#0" id="circle42"/>
	<circle cx="101.183" cy="196.532" r="4" fill="#0" id="circle43"/>
	<circle cx="104.85" cy="269.878" r="4" fill="#0" id="circle44"/>
	<circle cx="106.684" cy="161.693" r="4" fill="#0" id="circle45"/>
	<circle cx="106.684" cy="308.384" r="4" fill="#0" id="circle46"/>
	<circle cx="108.518" cy="114.018" r="4" fill="#0" id="circle47"/>
	<circle cx="110.351" cy="244.207" r="4" fill="#0" id="circle48"/>
	<circle cx="115.852" cy="82.8466" r="4" fill="#0" id="circle49"/>
	<circle cx="117.686" cy="13.1682" r="4" fill="#0" id="circle50"/>
	<circle cx="119.519" cy="196.532" r="4" fill="#0" id="circle51"/>
	<circle cx="123.187" cy="170.861" r="4" fill="#0" id="circle52"/>
	<circle cx="123.187" cy="269.878" r="4" fill="#0" id="circle53"/>
	<circle cx="125.02" cy="308.384" r="4" fill="#0" id="circle54"/>
	<circle cx="126.854" cy="114.018" r="4" fill="#0" id="circle55"/>
	<circle cx="128.688" cy="244.207" r="4" fill="#0" id="circle56"/>
	<circle cx="134.189" cy="82.8466" r="4" fill="#0" id="circle57"/>
	<circle cx="136.022" cy="13.1682" r="4" fill="#0" id="circle58"/>
	<circle cx="136.022" cy="205.701" r="4" fill="#0" id="circle59"/>
	<circle cx="141.523" cy="170.861" r="4" fill="#0" id="circle60"/>
	<circle cx="141.523" cy="269.878" r="4" fill="#0" id="circle61"/>
	<circle cx="141.523" cy="317.553" r="4" fill="#0" id="circle62"/>
	<circle cx="145.19" cy="114.018" r="4" fill="#0" id="circle63"/>
	<circle cx="147.024" cy="251.542" r="4" fill="#0" id="circle64"/>
	<circle cx="152.525" cy="88.3475" r="4" fill="#0" id="circle65"/>
	<circle cx="154.359" cy="13.1682" r="4" fill="#0" id="circle66"/>
	<circle cx="154.359" cy="205.701" r="4" fill="#0" id="circle67"/>
	<circle cx="158.026" cy="279.046" r="4" fill="#0" id="circle68"/>
	<circle cx="158.026" cy="326.721" r="4" fill="#0" id="circle69"/>
	<circle cx="159.86" cy="170.861" r="4" fill="#0" id="circle70"/>
	<circle cx="161.693" cy="123.187" r="4" fill="#0" id="circle71"/>
	<circle cx="165.36" cy="251.542" r="4" fill="#0" id="circle72"/>
	<circle cx="170.861" cy="88.3475" r="4" fill="#0" id="circle73"/>
	<circle cx="172.695" cy="13.1682" r="4" fill="#0" id="circle74"/>
	<circle cx="172.695" cy="205.701" r="4" fill="#0" id="circle75"/>
	<circle cx="174.529" cy="335.889" r="4" fill="#0" id="circle76"/>
	<circle cx="176.362" cy="279.046" r="4" fill="#0" id="circle77"/>
	<circle cx="178.196" cy="170.861" r="4" fill="#0" id="circle78"/>
	<circle cx="180.03" cy="123.187" r="4" fill="#0" id="circle79"/>
	<circle cx="183.697" cy="251.542" r="4" fill="#0" id="circle80"/>
	<circle cx="187.364" cy="97.5157" r="4" fill="#0" id="circle81"/>
	<circle cx="191.031" cy="15.0018" r="4" fill="#0" id="circle82"/>
	<circle cx="191.031" cy="205.701" r="4" fill="#0" id="circle83"/>
	<circle cx="192.865" cy="334.055" r="4" fill="#0" id="circle84"/>
	<circle cx="194.699" cy="279.046" r="4" fill="#0" id="circle85"/>
	<circle cx="196.532" cy="132.355" r="4" fill="#0" id="circle86"/>
	<circle cx="196.532" cy="170.861" r="4" fill="#0" id="circle87"/>
	<circle cx="202.033" cy="251.542" r="4" fill="#0" id="circle88"/>
	<circle cx="205.701" cy="97.5157" r="4" fill="#0" id="circle89"/>
	<circle cx="209.368" cy="22.3364" r="4" fill="#0" id="circle90"/>
	<circle cx="209.368" cy="205.701" r="4" fill="#0" id="circle91"/>
	<circle cx="211.201" cy="326.721" r="4" fill="#0" id="circle92"/>
	<circle cx="213.035" cy="180.03" r="4" fill="#0" id="circle93"/>
	<circle cx="213.035" cy="279.046" r="4" fill="#0" id="circle94"/>
	<circle cx="214.869" cy="132.355" r="4" fill="#0" id="circle95"/>
	<circle cx="220.37" cy="253.375" r="4" fill="#0" id="circle96"/>
	<circle cx="224.037" cy="97.5157" r="4" fill="#0" id="circle97"/>
	<circle cx="225.871" cy="13.1682" r="4" fill="#0" id="circle98"/>
	<circle cx="227.704" cy="207.534" r="4" fill="#0" id="circle99"/>
	<circle cx="227.704" cy="335.889" r="4" fill="#0" id="circle100"/>
	<circle cx="231.372" cy="180.03" r="4" fill="#0" id="circle101"/>
	<circle cx="231.372" cy="279.046" r="4" fill="#0" id="circle102"/>
	<circle cx="233.205" cy="126.854" r="4" fill="#0" id="circle103"/>
	<circle cx="238.706" cy="253.375" r="4" fill="#0" id="circle104"/>
	<circle cx="242.373" cy="97.5157" r="4" fill="#0" id="circle105"/>
	<circle cx="244.207" cy="13.1682" r="4" fill="#0" id="circle106"/>
	<circle cx="244.207" cy="326.721" r="4" fill="#0" id="circle107"/>
	<circle cx="246.041" cy="214.869" r="4" fill="#0" id="circle108"/>
	<circle cx="249.708" cy="180.03" r="4" fill="#0" id="circle109"/>
	<circle cx="251.542" cy="132.355" r="4" fill="#0" id="circle110"/>
	<circle cx="258.876" cy="106.684" r="4" fill="#0" id="circle111"/>
	<circle cx="260.71" cy="194.699" r="4" fill="#0" id="circle112"/>
	<circle cx="262.543" cy="18.6691" r="4" fill="#0" id="circle113"/>
	<circle cx="262.543" cy="308.384" r="4" fill="#0" id="circle114"/>
	<circle cx="277.213" cy="295.549" r="4" fill="#0" id="circle115"/>
	<circle cx="279.046" cy="27.8373" r="4" fill="#0" id="circle116"/>
	<circle cx="293.715" cy="40.6728" r="4" fill="#0" id="circle117"/>
	<circle cx="295.549" cy="286.381" r="4" fill="#0" id="circle118"/>
	<circle cx="299.216" cy="59.0092" r="4" fill="#0" id="circle119"/>
	<circle cx="304.717" cy="268.044" r="4" fill="#0" id="circle120"/>
	<circle cx="308.384" cy="198.366" r="4" fill="#0" id="circle121"/>
	<circle cx="308.384" cy="216.702" r="4" fill="#0" id="circle122"/>
	<circle cx="308.384" cy="235.039" r="4" fill="#0" id="circle123"/>
	<circle cx="313.885" cy="70.0111" r="4" fill="#0" id="circle124"/>
	<circle cx="317.553" cy="88.3475" r="4" fill="#0" id="circle125"/>
	<circle cx="317.553" cy="106.684" r="4" fill="#0" id="circle126"/>
	<circle cx="326.721" cy="198.366" r="4" fill="#0" id="circle127"/>
	<circle cx="335.889" cy="114.018" r="4" fill="#0" id="circle128"/>
	<circle cx="343.224" cy="207.534" r="4" fill="#0" id="circle129"/>
	<circle cx="354.226" cy="114.018" r="4" fill="#0" id="circle130"/>
	<circle cx="361.56" cy="207.534" r="4" fill="#0" id="circle131"/>
	<circle cx="372.562" cy="108.518" r="4" fill="#0" id="circle132"/>
	<circle cx="378.063" cy="216.702" r="4" fill="#0" id="circle133"/>
	<circle cx="390.898" cy="104.85" r="4" fill="#0" id="circle134"/>
	<circle cx="396.399" cy="216.702" r="4" fill="#0" id="circle135"/>
	<circle cx="407.401" cy="114.018" r="4" fill="#0" id="circle136"/>
	<circle cx="414.736" cy="216.702" r="4" fill="#0" id="circle137"/>
	<circle cx="425.738" cy="117.686" r="4" fill="#0" id="circle138"/>
	<circle cx="431.238" cy="225.871" r="4" fill="#0" id="circle139"/>
	<circle cx="444.074" cy="123.187" r="4" fill="#0" id="circle140"/>
	<circle cx="449.575" cy="225.871" r="4" fill="#0" id="circle141"/>
	<circle cx="460.577" cy="132.355" r="4" fill="#0" id="circle142"/>
	<circle cx="466.078" cy="235.039" r="4" fill="#0" id="circle143"/>
	<circle cx="478.913" cy="134.189" r="4" fill="#0" id="circle144"/>
	<circle cx="484.414" cy="235.039" r="4" fill="#0" id="circle145"/>
	<circle cx="495.416" cy="143.357" r="4" fill="#0" id="circle146"/>
	<circle cx="500.917" cy="244.207" r="4" fill="#0" id="circle147"/>
	<circle cx="513.752" cy="150.691" r="4" fill="#0" id="circle148"/>
	<circle cx="519.253" cy="244.207" r="4" fill="#0" id="circle149"/>
	<circle cx="532.089" cy="150.691" r="4" fill="#0" id="circle150"/>
	<circle cx="535.756" cy="253.375" r="4" fill="#0" id="circle151"/>
	<circle cx="548.591" cy="159.86" r="4" fill="#0" id="circle152"/>
	<circle cx="554.092" cy="253.375" r="4" fill="#0" id="circle153"/>
	<circle cx="565.094" cy="169.028" r="4" fill="#0" id="circle154"/>
	<circle cx="572.429" cy="253.375" r="4" fill="#0" id="circle155"/>
	<circle cx="583.431" cy="169.028" r="4" fill="#0" id="circle156"/>
	<circle cx="588.932" cy="262.543" r="4" fill="#0" id="circle157"/>
	<circle cx="599.933" cy="178.196" r="4" fill="#0" id="circle158"/>
	<circle cx="607.268" cy="262.543" r="4" fill="#0" id="circle159"/>
	<circle cx="618.27" cy="178.196" r="4" fill="#0" id="circle160"/>
	<circle cx="623.771" cy="271.712" r="4" fill="#0" id="circle161"/>
	<circle cx="636.606" cy="178.196" r="4" fill="#0" id="circle162"/>
	<circle cx="642.107" cy="271.712" r="4" fill="#0" id="circle163"/>
	<circle cx="654.943" cy="181.863" r="4" fill="#0" id="circle164"/>
	<circle cx="660.444" cy="279.046" r="4" fill="#0" id="circle165"/>
	<circle cx="673.279" cy="187.364" r="4" fill="#0" id="circle166"/>
	<circle cx="678.78" cy="280.88" r="4" fill="#0" id="circle167"/>
	<circle cx="689.782" cy="196.532" r="4" fill="#0" id="circle168"/>
	<circle cx="697.116" cy="288.214" r="4" fill="#0" id="circle169"/>
	<circle cx="708.118" cy="196.532" r="4" fill="#0" id="circle170"/>
	<circle cx="715.453" cy="290.048" r="4" fill="#0" id="circle171"/>
	<circle cx="726.455" cy="196.532" r="4" fill="#0" id="circle172"/>
	<circle cx="731.956" cy="299.216" r="4" fill="#0" id="circle173"/>
	<circle cx="744.791" cy="198.366" r="4" fill="#0" id="circle174"/>
	<circle cx="750.292" cy="299.216" r="4" fill="#0" id="circle175"/>
	<circle cx="763.128" cy="198.366" r="4" fill="#0" id="circle176"/>
	<circle cx="766.795" cy="308.384" r="4" fill="#0" id="circle177"/>
	<circle cx="781.464" cy="198.366" r="4" fill="#0" id="circle178"/>
	<circle cx="785.131" cy="308.384" r="4" fill="#0" id="circle179"/>
	<circle cx="799.8" cy="198.366" r="4" fill="#0" id="circle180"/>
	<circle cx="803.468" cy="312.052" r="4" fill="#0" id="circle181"/>
	<circle cx="818.137" cy="205.701" r="4" fill="#0" id="circle182"/>
	<circle cx="821.804" cy="317.553" r="4" fill="#0" id="circle183"/>
	<circle cx="836.473" cy="205.701" r="4" fill="#0" id="circle184"/>
	<circle cx="840.14" cy="317.553" r="4" fill="#0" id="circle185"/>
	<circle cx="854.81" cy="205.701" r="4" fill="#0" id="circle186"/>
	<circle cx="856.643" cy="326.721" r="4" fill="#0" id="circle187"/>
	<circle cx="873.146" cy="205.701" r="4" fill="#0" id="circle188"/>
	<circle cx="874.98" cy="326.721" r="4" fill="#0" id="circle189"/>
	<circle cx="891.482" cy="205.701" r="4" fill="#0" id="circle190"/>
	<circle cx="893.316" cy="326.721" r="4" fill="#0" id="circle191"/>
	<circle cx="907.985" cy="214.869" r="4" fill="#0" id="circle192"/>
	<circle cx="909.819" cy="335.889" r="4" fill="#0" id="circle193"/>
	<circle cx="926.322" cy="214.869" r="4" fill="#0" id="circle194"/>
	<circle cx="928.155" cy="335.889" r="4" fill="#0" id="circle195"/>
	<circle cx="944.658" cy="214.869" r="4" fill="#0" id="circle196"/>
	<circle cx="946.492" cy="332.222" r="4" fill="#0" id="circle197"/>
	<circle cx="961.161" cy="224.037" r="4" fill="#0" id="circle198"/>
	<circle cx="964.828" cy="326.721" r="4" fill="#0" id="circle199"/>
	<circle cx="975.83" cy="236.872" r="4" fill="#0" id="circle200"/>
	<circle cx="983.165" cy="323.054" r="4" fill="#0" id="circle201"/>
	<circle cx="986.832" cy="299.216" r="4" fill="#0" id="circle202"/>
	<circle cx="992.333" cy="246.041" r="4" fill="#0" id="circle203"/>
	<circle cx="996" cy="264.377" r="4" fill="#0" id="circle204"/>
	<circle cx="996" cy="282.713" r="4" fill="#0" id="circle205"/>
	</g>
</svg>