<?xml version="1.0" encoding="UTF-8" standalone="no"?>
<!-- Created with CurveBenchmark -->
<svg
	xmlns:dc="http://purl.org/dc/elements/1.1/"
	xmlns:cc="http://creativecommons.org/ns#"
	xmlns:rdf="http://www.w3.org/1999/02/22-rdf-syntax-ns#"
	xmlns:svg="http://www.w3.org/2000/svg"
	xmlns="http://www.w3.org/2000/svg"
	xmlns:sodipodi="http://sodipodi.sourceforge.net/DTD/sodipodi-0.dtd"
	xmlns:inkscape="http://www.inkscape.org/namespaces/inkscape"
	width="1000"
	height="1000"
	id="svg2"
	version="1.1"
	sodipodi:docname="manifold/peel-bed000.png.txt">
<defs
	id="defs4" />
<metadata
	id="metadata7">
	<rdf:RDF>
		<cc:Work
			rdf:about="">
			<dc:format>image/svg+xml</dc:format>
			<dc:type
				rdf:resource="http://purl.org/dc/dcmitype/StillImage" />
			<dc:title></dc:title>
		</cc:Work>
	</rdf:RDF>
</metadata>
<g
	inkscape:label="Layer 1"
	inkscape:groupmode="layer"
	id="layer1">
	<path style="fill:none;stroke:red;stroke-width:1px;stroke-linecap:butt;stroke-linejoin:miter;stroke-opacity:1" d="M 11.5725,529.028 4,503.786 z" id="boundary" inkscape:connector-curvature="0" />
	<path style="fill:none;stroke:red;stroke-width:1px;stroke-linecap:butt;stroke-linejoin:miter;stroke-opacity:1" d="M 4,503.786 4,478.545 z" id="boundary" inkscape:connector-curvature="0" />
	<path style="fill:none;stroke:red;stroke-width:1px;stroke-linecap:butt;stroke-linejoin:miter;stroke-opacity:1" d="M 4,478.545 24.1934,458.351 z" id="boundary" inkscape:connector-curvature="0" />
	<path style="fill:none;stroke:red;stroke-width:1px;stroke-linecap:butt;stroke-linejoin:miter;stroke-opacity:1" d="M 19.145,730.962 19.145,705.72 z" id="boundary" inkscape:connector-curvature="0" />
	<path style="fill:none;stroke:red;stroke-width:1px;stroke-linecap:butt;stroke-linejoin:miter;stroke-opacity:1" d="M 62.056,730.962 57.0076,756.204 z" id="boundary" inkscape:connector-curvature="0" />
	<path style="fill:none;stroke:red;stroke-width:1px;stroke-linecap:butt;stroke-linejoin:miter;stroke-opacity:1" d="M 11.5725,529.028 24.1934,551.746 z" id="boundary" inkscape:connector-curvature="0" />
	<path style="fill:none;stroke:red;stroke-width:1px;stroke-linecap:butt;stroke-linejoin:miter;stroke-opacity:1" d="M 24.1934,551.746 29.2417,576.987 z" id="boundary" inkscape:connector-curvature="0" />
	<path style="fill:none;stroke:red;stroke-width:1px;stroke-linecap:butt;stroke-linejoin:miter;stroke-opacity:1" d="M 19.145,766.3 19.145,730.962 z" id="boundary" inkscape:connector-curvature="0" />
	<path style="fill:none;stroke:red;stroke-width:1px;stroke-linecap:butt;stroke-linejoin:miter;stroke-opacity:1" d="M 19.145,705.72 24.1934,680.478 z" id="boundary" inkscape:connector-curvature="0" />
	<path style="fill:none;stroke:red;stroke-width:1px;stroke-linecap:butt;stroke-linejoin:miter;stroke-opacity:1" d="M 24.1934,458.351 49.4351,448.254 z" id="boundary" inkscape:connector-curvature="0" />
	<path style="fill:none;stroke:red;stroke-width:1px;stroke-linecap:butt;stroke-linejoin:miter;stroke-opacity:1" d="M 29.2417,627.471 29.2417,652.712 z" id="boundary" inkscape:connector-curvature="0" />
	<path style="fill:none;stroke:red;stroke-width:1px;stroke-linecap:butt;stroke-linejoin:miter;stroke-opacity:1" d="M 29.2417,576.987 29.2417,602.229 z" id="boundary" inkscape:connector-curvature="0" />
	<path style="fill:none;stroke:red;stroke-width:1px;stroke-linecap:butt;stroke-linejoin:miter;stroke-opacity:1" d="M 29.2417,602.229 29.2417,627.471 z" id="boundary" inkscape:connector-curvature="0" />
	<path style="fill:none;stroke:red;stroke-width:1px;stroke-linecap:butt;stroke-linejoin:miter;stroke-opacity:1" d="M 49.4351,448.254 74.6768,438.158 z" id="boundary" inkscape:connector-curvature="0" />
	<path style="fill:none;stroke:red;stroke-width:1px;stroke-linecap:butt;stroke-linejoin:miter;stroke-opacity:1" d="M 29.2417,652.712 24.1934,680.478 z" id="boundary" inkscape:connector-curvature="0" />
	<path style="fill:none;stroke:red;stroke-width:1px;stroke-linecap:butt;stroke-linejoin:miter;stroke-opacity:1" d="M 39.3384,783.969 19.145,766.3 z" id="boundary" inkscape:connector-curvature="0" />
	<path style="fill:none;stroke:red;stroke-width:1px;stroke-linecap:butt;stroke-linejoin:miter;stroke-opacity:1" d="M 84.7735,266.514 77.201,241.272 z" id="boundary" inkscape:connector-curvature="0" />
	<path style="fill:none;stroke:red;stroke-width:1px;stroke-linecap:butt;stroke-linejoin:miter;stroke-opacity:1" d="M 77.201,241.272 62.056,221.079 z" id="boundary" inkscape:connector-curvature="0" />
	<path style="fill:none;stroke:red;stroke-width:1px;stroke-linecap:butt;stroke-linejoin:miter;stroke-opacity:1" d="M 72.1527,776.397 57.0076,756.204 z" id="boundary" inkscape:connector-curvature="0" />
	<path style="fill:none;stroke:red;stroke-width:1px;stroke-linecap:butt;stroke-linejoin:miter;stroke-opacity:1" d="M 62.056,221.079 59.5318,195.837 z" id="boundary" inkscape:connector-curvature="0" />
	<path style="fill:none;stroke:red;stroke-width:1px;stroke-linecap:butt;stroke-linejoin:miter;stroke-opacity:1" d="M 72.1527,776.397 97.3944,776.397 z" id="boundary" inkscape:connector-curvature="0" />
	<path style="fill:none;stroke:red;stroke-width:1px;stroke-linecap:butt;stroke-linejoin:miter;stroke-opacity:1" d="M 62.056,730.962 62.056,705.72 z" id="boundary" inkscape:connector-curvature="0" />
	<path style="fill:none;stroke:red;stroke-width:1px;stroke-linecap:butt;stroke-linejoin:miter;stroke-opacity:1" d="M 84.7735,266.514 84.7735,291.756 z" id="boundary" inkscape:connector-curvature="0" />
	<path style="fill:none;stroke:red;stroke-width:1px;stroke-linecap:butt;stroke-linejoin:miter;stroke-opacity:1" d="M 59.5318,195.837 72.1527,173.12 z" id="boundary" inkscape:connector-curvature="0" />
	<path style="fill:none;stroke:red;stroke-width:1px;stroke-linecap:butt;stroke-linejoin:miter;stroke-opacity:1" d="M 84.7735,291.756 89.8219,316.997 z" id="boundary" inkscape:connector-curvature="0" />
	<path style="fill:none;stroke:red;stroke-width:1px;stroke-linecap:butt;stroke-linejoin:miter;stroke-opacity:1" d="M 89.8219,316.997 89.8219,342.239 z" id="boundary" inkscape:connector-curvature="0" />
	<path style="fill:none;stroke:red;stroke-width:1px;stroke-linecap:butt;stroke-linejoin:miter;stroke-opacity:1" d="M 74.6768,438.158 84.7735,402.819 z" id="boundary" inkscape:connector-curvature="0" />
	<path style="fill:none;stroke:red;stroke-width:1px;stroke-linecap:butt;stroke-linejoin:miter;stroke-opacity:1" d="M 89.8219,367.481 89.8219,342.239 z" id="boundary" inkscape:connector-curvature="0" />
	<path style="fill:none;stroke:red;stroke-width:1px;stroke-linecap:butt;stroke-linejoin:miter;stroke-opacity:1" d="M 72.1527,173.12 94.8702,160.499 z" id="boundary" inkscape:connector-curvature="0" />
	<path style="fill:none;stroke:red;stroke-width:1px;stroke-linecap:butt;stroke-linejoin:miter;stroke-opacity:1" d="M 117.588,147.878 94.8702,160.499 z" id="boundary" inkscape:connector-curvature="0" />
	<path style="fill:none;stroke:red;stroke-width:1px;stroke-linecap:butt;stroke-linejoin:miter;stroke-opacity:1" d="M 84.7735,402.819 89.8219,367.481 z" id="boundary" inkscape:connector-curvature="0" />
	<path style="fill:none;stroke:red;stroke-width:1px;stroke-linecap:butt;stroke-linejoin:miter;stroke-opacity:1" d="M 460.875,733.486 486.117,738.534 z" id="boundary" inkscape:connector-curvature="0" />
	<path style="fill:none;stroke:red;stroke-width:1px;stroke-linecap:butt;stroke-linejoin:miter;stroke-opacity:1" d="M 142.83,140.305 168.071,130.209 z" id="boundary" inkscape:connector-curvature="0" />
	<path style="fill:none;stroke:red;stroke-width:1px;stroke-linecap:butt;stroke-linejoin:miter;stroke-opacity:1" d="M 117.588,147.878 142.83,140.305 z" id="boundary" inkscape:connector-curvature="0" />
	<path style="fill:none;stroke:red;stroke-width:1px;stroke-linecap:butt;stroke-linejoin:miter;stroke-opacity:1" d="M 168.071,130.209 193.313,122.636 z" id="boundary" inkscape:connector-curvature="0" />
	<path style="fill:none;stroke:red;stroke-width:1px;stroke-linecap:butt;stroke-linejoin:miter;stroke-opacity:1" d="M 102.443,746.107 102.443,720.865 z" id="boundary" inkscape:connector-curvature="0" />
	<path style="fill:none;stroke:red;stroke-width:1px;stroke-linecap:butt;stroke-linejoin:miter;stroke-opacity:1" d="M 132.733,693.099 157.975,698.148 z" id="boundary" inkscape:connector-curvature="0" />
	<path style="fill:none;stroke:red;stroke-width:1px;stroke-linecap:butt;stroke-linejoin:miter;stroke-opacity:1" d="M 97.3944,776.397 102.443,746.107 z" id="boundary" inkscape:connector-curvature="0" />
	<path style="fill:none;stroke:red;stroke-width:1px;stroke-linecap:butt;stroke-linejoin:miter;stroke-opacity:1" d="M 102.443,720.865 107.491,695.623 z" id="boundary" inkscape:connector-curvature="0" />
	<path style="fill:none;stroke:red;stroke-width:1px;stroke-linecap:butt;stroke-linejoin:miter;stroke-opacity:1" d="M 107.491,695.623 132.733,693.099 z" id="boundary" inkscape:connector-curvature="0" />
	<path style="fill:none;stroke:red;stroke-width:1px;stroke-linecap:butt;stroke-linejoin:miter;stroke-opacity:1" d="M 157.975,698.148 183.216,703.196 z" id="boundary" inkscape:connector-curvature="0" />
	<path style="fill:none;stroke:red;stroke-width:1px;stroke-linecap:butt;stroke-linejoin:miter;stroke-opacity:1" d="M 193.313,122.636 218.555,115.064 z" id="boundary" inkscape:connector-curvature="0" />
	<path style="fill:none;stroke:red;stroke-width:1px;stroke-linecap:butt;stroke-linejoin:miter;stroke-opacity:1" d="M 183.216,703.196 208.458,713.293 z" id="boundary" inkscape:connector-curvature="0" />
	<path style="fill:none;stroke:red;stroke-width:1px;stroke-linecap:butt;stroke-linejoin:miter;stroke-opacity:1" d="M 218.555,115.064 243.796,110.015 z" id="boundary" inkscape:connector-curvature="0" />
	<path style="fill:none;stroke:red;stroke-width:1px;stroke-linecap:butt;stroke-linejoin:miter;stroke-opacity:1" d="M 284.183,688.051 258.941,690.575 z" id="boundary" inkscape:connector-curvature="0" />
	<path style="fill:none;stroke:red;stroke-width:1px;stroke-linecap:butt;stroke-linejoin:miter;stroke-opacity:1" d="M 258.941,690.575 233.7,700.672 z" id="boundary" inkscape:connector-curvature="0" />
	<path style="fill:none;stroke:red;stroke-width:1px;stroke-linecap:butt;stroke-linejoin:miter;stroke-opacity:1" d="M 243.796,110.015 269.038,104.967 z" id="boundary" inkscape:connector-curvature="0" />
	<path style="fill:none;stroke:red;stroke-width:1px;stroke-linecap:butt;stroke-linejoin:miter;stroke-opacity:1" d="M 536.601,738.534 511.359,738.534 z" id="boundary" inkscape:connector-curvature="0" />
	<path style="fill:none;stroke:red;stroke-width:1px;stroke-linecap:butt;stroke-linejoin:miter;stroke-opacity:1" d="M 309.425,688.051 334.667,698.148 z" id="boundary" inkscape:connector-curvature="0" />
	<path style="fill:none;stroke:red;stroke-width:1px;stroke-linecap:butt;stroke-linejoin:miter;stroke-opacity:1" d="M 309.425,688.051 284.183,688.051 z" id="boundary" inkscape:connector-curvature="0" />
	<path style="fill:none;stroke:red;stroke-width:1px;stroke-linecap:butt;stroke-linejoin:miter;stroke-opacity:1" d="M 208.458,713.293 233.7,700.672 z" id="boundary" inkscape:connector-curvature="0" />
	<path style="fill:none;stroke:red;stroke-width:1px;stroke-linecap:butt;stroke-linejoin:miter;stroke-opacity:1" d="M 294.28,99.9186 269.038,104.967 z" id="boundary" inkscape:connector-curvature="0" />
	<path style="fill:none;stroke:red;stroke-width:1px;stroke-linecap:butt;stroke-linejoin:miter;stroke-opacity:1" d="M 410.392,723.389 435.634,728.438 z" id="boundary" inkscape:connector-curvature="0" />
	<path style="fill:none;stroke:red;stroke-width:1px;stroke-linecap:butt;stroke-linejoin:miter;stroke-opacity:1" d="M 385.15,713.293 359.908,703.196 z" id="boundary" inkscape:connector-curvature="0" />
	<path style="fill:none;stroke:red;stroke-width:1px;stroke-linecap:butt;stroke-linejoin:miter;stroke-opacity:1" d="M 359.908,703.196 334.667,698.148 z" id="boundary" inkscape:connector-curvature="0" />
	<path style="fill:none;stroke:red;stroke-width:1px;stroke-linecap:butt;stroke-linejoin:miter;stroke-opacity:1" d="M 344.763,92.3461 319.522,94.8702 z" id="boundary" inkscape:connector-curvature="0" />
	<path style="fill:none;stroke:red;stroke-width:1px;stroke-linecap:butt;stroke-linejoin:miter;stroke-opacity:1" d="M 319.522,94.8702 294.28,99.9186 z" id="boundary" inkscape:connector-curvature="0" />
	<path style="fill:none;stroke:red;stroke-width:1px;stroke-linecap:butt;stroke-linejoin:miter;stroke-opacity:1" d="M 385.15,713.293 410.392,723.389 z" id="boundary" inkscape:connector-curvature="0" />
	<path style="fill:none;stroke:red;stroke-width:1px;stroke-linecap:butt;stroke-linejoin:miter;stroke-opacity:1" d="M 344.763,92.3461 370.005,82.2494 z" id="boundary" inkscape:connector-curvature="0" />
	<path style="fill:none;stroke:red;stroke-width:1px;stroke-linecap:butt;stroke-linejoin:miter;stroke-opacity:1" d="M 370.005,82.2494 390.198,64.5802 z" id="boundary" inkscape:connector-curvature="0" />
	<path style="fill:none;stroke:red;stroke-width:1px;stroke-linecap:butt;stroke-linejoin:miter;stroke-opacity:1" d="M 390.198,64.5802 415.44,57.0076 z" id="boundary" inkscape:connector-curvature="0" />
	<path style="fill:none;stroke:red;stroke-width:1px;stroke-linecap:butt;stroke-linejoin:miter;stroke-opacity:1" d="M 511.359,738.534 486.117,738.534 z" id="boundary" inkscape:connector-curvature="0" />
	<path style="fill:none;stroke:red;stroke-width:1px;stroke-linecap:butt;stroke-linejoin:miter;stroke-opacity:1" d="M 435.634,728.438 460.875,733.486 z" id="boundary" inkscape:connector-curvature="0" />
	<path style="fill:none;stroke:red;stroke-width:1px;stroke-linecap:butt;stroke-linejoin:miter;stroke-opacity:1" d="M 415.44,57.0076 440.682,49.4351 z" id="boundary" inkscape:connector-curvature="0" />
	<path style="fill:none;stroke:red;stroke-width:1px;stroke-linecap:butt;stroke-linejoin:miter;stroke-opacity:1" d="M 478.545,9.04835 460.875,31.7659 z" id="boundary" inkscape:connector-curvature="0" />
	<path style="fill:none;stroke:red;stroke-width:1px;stroke-linecap:butt;stroke-linejoin:miter;stroke-opacity:1" d="M 566.891,49.4351 546.697,31.7659 z" id="boundary" inkscape:connector-curvature="0" />
	<path style="fill:none;stroke:red;stroke-width:1px;stroke-linecap:butt;stroke-linejoin:miter;stroke-opacity:1" d="M 440.682,49.4351 460.875,31.7659 z" id="boundary" inkscape:connector-curvature="0" />
	<path style="fill:none;stroke:red;stroke-width:1px;stroke-linecap:butt;stroke-linejoin:miter;stroke-opacity:1" d="M 526.504,16.6209 503.786,4 z" id="boundary" inkscape:connector-curvature="0" />
	<path style="fill:none;stroke:red;stroke-width:1px;stroke-linecap:butt;stroke-linejoin:miter;stroke-opacity:1" d="M 503.786,4 478.545,9.04835 z" id="boundary" inkscape:connector-curvature="0" />
	<path style="fill:none;stroke:red;stroke-width:1px;stroke-linecap:butt;stroke-linejoin:miter;stroke-opacity:1" d="M 587.084,725.913 561.842,733.486 z" id="boundary" inkscape:connector-curvature="0" />
	<path style="fill:none;stroke:red;stroke-width:1px;stroke-linecap:butt;stroke-linejoin:miter;stroke-opacity:1" d="M 546.697,31.7659 526.504,16.6209 z" id="boundary" inkscape:connector-curvature="0" />
	<path style="fill:none;stroke:red;stroke-width:1px;stroke-linecap:butt;stroke-linejoin:miter;stroke-opacity:1" d="M 612.326,718.341 587.084,725.913 z" id="boundary" inkscape:connector-curvature="0" />
	<path style="fill:none;stroke:red;stroke-width:1px;stroke-linecap:butt;stroke-linejoin:miter;stroke-opacity:1" d="M 897.557,766.3 917.751,783.969 z" id="boundary" inkscape:connector-curvature="0" />
	<path style="fill:none;stroke:red;stroke-width:1px;stroke-linecap:butt;stroke-linejoin:miter;stroke-opacity:1" d="M 897.557,741.059 897.557,766.3 z" id="boundary" inkscape:connector-curvature="0" />
	<path style="fill:none;stroke:red;stroke-width:1px;stroke-linecap:butt;stroke-linejoin:miter;stroke-opacity:1" d="M 592.132,59.5318 566.891,49.4351 z" id="boundary" inkscape:connector-curvature="0" />
	<path style="fill:none;stroke:red;stroke-width:1px;stroke-linecap:butt;stroke-linejoin:miter;stroke-opacity:1" d="M 536.601,738.534 561.842,733.486 z" id="boundary" inkscape:connector-curvature="0" />
	<path style="fill:none;stroke:red;stroke-width:1px;stroke-linecap:butt;stroke-linejoin:miter;stroke-opacity:1" d="M 637.567,708.244 612.326,718.341 z" id="boundary" inkscape:connector-curvature="0" />
	<path style="fill:none;stroke:red;stroke-width:1px;stroke-linecap:butt;stroke-linejoin:miter;stroke-opacity:1" d="M 662.809,700.672 637.567,708.244 z" id="boundary" inkscape:connector-curvature="0" />
	<path style="fill:none;stroke:red;stroke-width:1px;stroke-linecap:butt;stroke-linejoin:miter;stroke-opacity:1" d="M 637.567,84.7735 617.374,69.6285 z" id="boundary" inkscape:connector-curvature="0" />
	<path style="fill:none;stroke:red;stroke-width:1px;stroke-linecap:butt;stroke-linejoin:miter;stroke-opacity:1" d="M 617.374,69.6285 592.132,59.5318 z" id="boundary" inkscape:connector-curvature="0" />
	<path style="fill:none;stroke:red;stroke-width:1px;stroke-linecap:butt;stroke-linejoin:miter;stroke-opacity:1" d="M 688.051,693.099 662.809,700.672 z" id="boundary" inkscape:connector-curvature="0" />
	<path style="fill:none;stroke:red;stroke-width:1px;stroke-linecap:butt;stroke-linejoin:miter;stroke-opacity:1" d="M 738.534,688.051 713.293,688.051 z" id="boundary" inkscape:connector-curvature="0" />
	<path style="fill:none;stroke:red;stroke-width:1px;stroke-linecap:butt;stroke-linejoin:miter;stroke-opacity:1" d="M 637.567,84.7735 662.809,94.8702 z" id="boundary" inkscape:connector-curvature="0" />
	<path style="fill:none;stroke:red;stroke-width:1px;stroke-linecap:butt;stroke-linejoin:miter;stroke-opacity:1" d="M 763.776,693.099 783.969,708.244 z" id="boundary" inkscape:connector-curvature="0" />
	<path style="fill:none;stroke:red;stroke-width:1px;stroke-linecap:butt;stroke-linejoin:miter;stroke-opacity:1" d="M 763.776,693.099 738.534,688.051 z" id="boundary" inkscape:connector-curvature="0" />
	<path style="fill:none;stroke:red;stroke-width:1px;stroke-linecap:butt;stroke-linejoin:miter;stroke-opacity:1" d="M 713.293,104.967 688.051,99.9186 z" id="boundary" inkscape:connector-curvature="0" />
	<path style="fill:none;stroke:red;stroke-width:1px;stroke-linecap:butt;stroke-linejoin:miter;stroke-opacity:1" d="M 662.809,94.8702 688.051,99.9186 z" id="boundary" inkscape:connector-curvature="0" />
	<path style="fill:none;stroke:red;stroke-width:1px;stroke-linecap:butt;stroke-linejoin:miter;stroke-opacity:1" d="M 713.293,688.051 688.051,693.099 z" id="boundary" inkscape:connector-curvature="0" />
	<path style="fill:none;stroke:red;stroke-width:1px;stroke-linecap:butt;stroke-linejoin:miter;stroke-opacity:1" d="M 738.534,110.015 713.293,104.967 z" id="boundary" inkscape:connector-curvature="0" />
	<path style="fill:none;stroke:red;stroke-width:1px;stroke-linecap:butt;stroke-linejoin:miter;stroke-opacity:1" d="M 910.178,352.336 910.178,327.094 z" id="boundary" inkscape:connector-curvature="0" />
	<path style="fill:none;stroke:red;stroke-width:1px;stroke-linecap:butt;stroke-linejoin:miter;stroke-opacity:1" d="M 910.178,327.094 910.178,301.852 z" id="boundary" inkscape:connector-curvature="0" />
	<path style="fill:none;stroke:red;stroke-width:1px;stroke-linecap:butt;stroke-linejoin:miter;stroke-opacity:1" d="M 738.534,110.015 763.776,115.064 z" id="boundary" inkscape:connector-curvature="0" />
	<path style="fill:none;stroke:red;stroke-width:1px;stroke-linecap:butt;stroke-linejoin:miter;stroke-opacity:1" d="M 834.453,703.196 809.211,708.244 z" id="boundary" inkscape:connector-curvature="0" />
	<path style="fill:none;stroke:red;stroke-width:1px;stroke-linecap:butt;stroke-linejoin:miter;stroke-opacity:1" d="M 789.018,120.112 763.776,115.064 z" id="boundary" inkscape:connector-curvature="0" />
	<path style="fill:none;stroke:red;stroke-width:1px;stroke-linecap:butt;stroke-linejoin:miter;stroke-opacity:1" d="M 910.178,352.336 910.178,377.578 z" id="boundary" inkscape:connector-curvature="0" />
	<path style="fill:none;stroke:red;stroke-width:1px;stroke-linecap:butt;stroke-linejoin:miter;stroke-opacity:1" d="M 814.26,125.16 789.018,120.112 z" id="boundary" inkscape:connector-curvature="0" />
	<path style="fill:none;stroke:red;stroke-width:1px;stroke-linecap:butt;stroke-linejoin:miter;stroke-opacity:1" d="M 809.211,708.244 783.969,708.244 z" id="boundary" inkscape:connector-curvature="0" />
	<path style="fill:none;stroke:red;stroke-width:1px;stroke-linecap:butt;stroke-linejoin:miter;stroke-opacity:1" d="M 814.26,125.16 839.501,135.257 z" id="boundary" inkscape:connector-curvature="0" />
	<path style="fill:none;stroke:red;stroke-width:1px;stroke-linecap:butt;stroke-linejoin:miter;stroke-opacity:1" d="M 834.453,703.196 859.695,698.148 z" id="boundary" inkscape:connector-curvature="0" />
	<path style="fill:none;stroke:red;stroke-width:1px;stroke-linecap:butt;stroke-linejoin:miter;stroke-opacity:1" d="M 864.743,140.305 889.985,150.402 z" id="boundary" inkscape:connector-curvature="0" />
	<path style="fill:none;stroke:red;stroke-width:1px;stroke-linecap:butt;stroke-linejoin:miter;stroke-opacity:1" d="M 897.557,715.817 897.557,741.059 z" id="boundary" inkscape:connector-curvature="0" />
	<path style="fill:none;stroke:red;stroke-width:1px;stroke-linecap:butt;stroke-linejoin:miter;stroke-opacity:1" d="M 864.743,140.305 839.501,135.257 z" id="boundary" inkscape:connector-curvature="0" />
	<path style="fill:none;stroke:red;stroke-width:1px;stroke-linecap:butt;stroke-linejoin:miter;stroke-opacity:1" d="M 884.936,693.099 897.557,715.817 z" id="boundary" inkscape:connector-curvature="0" />
	<path style="fill:none;stroke:red;stroke-width:1px;stroke-linecap:butt;stroke-linejoin:miter;stroke-opacity:1" d="M 884.936,693.099 859.695,698.148 z" id="boundary" inkscape:connector-curvature="0" />
	<path style="fill:none;stroke:red;stroke-width:1px;stroke-linecap:butt;stroke-linejoin:miter;stroke-opacity:1" d="M 915.226,428.061 915.226,402.819 z" id="boundary" inkscape:connector-curvature="0" />
	<path style="fill:none;stroke:red;stroke-width:1px;stroke-linecap:butt;stroke-linejoin:miter;stroke-opacity:1" d="M 915.226,402.819 910.178,377.578 z" id="boundary" inkscape:connector-curvature="0" />
	<path style="fill:none;stroke:red;stroke-width:1px;stroke-linecap:butt;stroke-linejoin:miter;stroke-opacity:1" d="M 935.42,443.206 915.226,428.061 z" id="boundary" inkscape:connector-curvature="0" />
	<path style="fill:none;stroke:red;stroke-width:1px;stroke-linecap:butt;stroke-linejoin:miter;stroke-opacity:1" d="M 915.226,276.611 910.178,301.852 z" id="boundary" inkscape:connector-curvature="0" />
	<path style="fill:none;stroke:red;stroke-width:1px;stroke-linecap:butt;stroke-linejoin:miter;stroke-opacity:1" d="M 915.226,276.611 915.226,251.369 z" id="boundary" inkscape:connector-curvature="0" />
	<path style="fill:none;stroke:red;stroke-width:1px;stroke-linecap:butt;stroke-linejoin:miter;stroke-opacity:1" d="M 912.702,163.023 889.985,150.402 z" id="boundary" inkscape:connector-curvature="0" />
	<path style="fill:none;stroke:red;stroke-width:1px;stroke-linecap:butt;stroke-linejoin:miter;stroke-opacity:1" d="M 925.323,751.155 935.42,725.913 z" id="boundary" inkscape:connector-curvature="0" />
	<path style="fill:none;stroke:red;stroke-width:1px;stroke-linecap:butt;stroke-linejoin:miter;stroke-opacity:1" d="M 930.372,226.127 915.226,251.369 z" id="boundary" inkscape:connector-curvature="0" />
	<path style="fill:none;stroke:red;stroke-width:1px;stroke-linecap:butt;stroke-linejoin:miter;stroke-opacity:1" d="M 930.372,226.127 930.372,183.216 z" id="boundary" inkscape:connector-curvature="0" />
	<path style="fill:none;stroke:red;stroke-width:1px;stroke-linecap:butt;stroke-linejoin:miter;stroke-opacity:1" d="M 930.372,183.216 912.702,163.023 z" id="boundary" inkscape:connector-curvature="0" />
	<path style="fill:none;stroke:red;stroke-width:1px;stroke-linecap:butt;stroke-linejoin:miter;stroke-opacity:1" d="M 930.372,700.672 935.42,725.913 z" id="boundary" inkscape:connector-curvature="0" />
	<path style="fill:none;stroke:red;stroke-width:1px;stroke-linecap:butt;stroke-linejoin:miter;stroke-opacity:1" d="M 942.992,771.349 965.71,783.969 z" id="boundary" inkscape:connector-curvature="0" />
	<path style="fill:none;stroke:red;stroke-width:1px;stroke-linecap:butt;stroke-linejoin:miter;stroke-opacity:1" d="M 960.662,448.254 935.42,443.206 z" id="boundary" inkscape:connector-curvature="0" />
	<path style="fill:none;stroke:red;stroke-width:1px;stroke-linecap:butt;stroke-linejoin:miter;stroke-opacity:1" d="M 925.323,751.155 942.992,771.349 z" id="boundary" inkscape:connector-curvature="0" />
	<path style="fill:none;stroke:red;stroke-width:1px;stroke-linecap:butt;stroke-linejoin:miter;stroke-opacity:1" d="M 970.758,604.753 970.758,629.995 z" id="boundary" inkscape:connector-curvature="0" />
	<path style="fill:none;stroke:red;stroke-width:1px;stroke-linecap:butt;stroke-linejoin:miter;stroke-opacity:1" d="M 970.758,629.995 970.758,655.237 z" id="boundary" inkscape:connector-curvature="0" />
	<path style="fill:none;stroke:red;stroke-width:1px;stroke-linecap:butt;stroke-linejoin:miter;stroke-opacity:1" d="M 960.662,448.254 980.855,463.399 z" id="boundary" inkscape:connector-curvature="0" />
	<path style="fill:none;stroke:red;stroke-width:1px;stroke-linecap:butt;stroke-linejoin:miter;stroke-opacity:1" d="M 975.807,680.478 970.758,655.237 z" id="boundary" inkscape:connector-curvature="0" />
	<path style="fill:none;stroke:red;stroke-width:1px;stroke-linecap:butt;stroke-linejoin:miter;stroke-opacity:1" d="M 980.855,705.72 975.807,680.478 z" id="boundary" inkscape:connector-curvature="0" />
	<path style="fill:none;stroke:red;stroke-width:1px;stroke-linecap:butt;stroke-linejoin:miter;stroke-opacity:1" d="M 975.807,564.366 970.758,604.753 z" id="boundary" inkscape:connector-curvature="0" />
	<path style="fill:none;stroke:red;stroke-width:1px;stroke-linecap:butt;stroke-linejoin:miter;stroke-opacity:1" d="M 965.71,783.969 973.282,753.679 z" id="boundary" inkscape:connector-curvature="0" />
	<path style="fill:none;stroke:red;stroke-width:1px;stroke-linecap:butt;stroke-linejoin:miter;stroke-opacity:1" d="M 975.807,564.366 975.807,539.125 z" id="boundary" inkscape:connector-curvature="0" />
	<path style="fill:none;stroke:red;stroke-width:1px;stroke-linecap:butt;stroke-linejoin:miter;stroke-opacity:1" d="M 996,513.883 975.807,539.125 z" id="boundary" inkscape:connector-curvature="0" />
	<path style="fill:none;stroke:red;stroke-width:1px;stroke-linecap:butt;stroke-linejoin:miter;stroke-opacity:1" d="M 996,513.883 996,483.593 z" id="boundary" inkscape:connector-curvature="0" />
	<path style="fill:none;stroke:red;stroke-width:1px;stroke-linecap:butt;stroke-linejoin:miter;stroke-opacity:1" d="M 996,483.593 980.855,463.399 z" id="boundary" inkscape:connector-curvature="0" />
	<circle cx="4" cy="478.545" r="4" fill="#0" id="circle0"/>
	<circle cx="4" cy="503.786" r="4" fill="#0" id="circle1"/>
	<circle cx="11.5725" cy="529.028" r="4" fill="#0" id="circle2"/>
	<circle cx="19.145" cy="705.72" r="4" fill="#0" id="circle3"/>
	<circle cx="19.145" cy="730.962" r="4" fill="#0" id="circle4"/>
	<circle cx="19.145" cy="766.3" r="4" fill="#0" id="circle5"/>
	<circle cx="24.1934" cy="458.351" r="4" fill="#0" id="circle6"/>
	<circle cx="24.1934" cy="551.746" r="4" fill="#0" id="circle7"/>
	<circle cx="24.1934" cy="680.478" r="4" fill="#0" id="circle8"/>
	<circle cx="29.2417" cy="576.987" r="4" fill="#0" id="circle9"/>
	<circle cx="29.2417" cy="602.229" r="4" fill="#0" id="circle10"/>
	<circle cx="29.2417" cy="627.471" r="4" fill="#0" id="circle11"/>
	<circle cx="29.2417" cy="652.712" r="4" fill="#0" id="circle12"/>
	<circle cx="39.3384" cy="783.969" r="4" fill="#0" id="circle13"/>
	<circle cx="49.4351" cy="448.254" r="4" fill="#0" id="circle14"/>
	<circle cx="57.0076" cy="756.204" r="4" fill="#0" id="circle15"/>
	<circle cx="59.5318" cy="195.837" r="4" fill="#0" id="circle16"/>
	<circle cx="62.056" cy="221.079" r="4" fill="#0" id="circle17"/>
	<circle cx="62.056" cy="705.72" r="4" fill="#0" id="circle18"/>
	<circle cx="62.056" cy="730.962" r="4" fill="#0" id="circle19"/>
	<circle cx="72.1527" cy="173.12" r="4" fill="#0" id="circle20"/>
	<circle cx="72.1527" cy="776.397" r="4" fill="#0" id="circle21"/>
	<circle cx="74.6768" cy="438.158" r="4" fill="#0" id="circle22"/>
	<circle cx="77.201" cy="241.272" r="4" fill="#0" id="circle23"/>
	<circle cx="84.7735" cy="266.514" r="4" fill="#0" id="circle24"/>
	<circle cx="84.7735" cy="291.756" r="4" fill="#0" id="circle25"/>
	<circle cx="84.7735" cy="402.819" r="4" fill="#0" id="circle26"/>
	<circle cx="89.8219" cy="316.997" r="4" fill="#0" id="circle27"/>
	<circle cx="89.8219" cy="342.239" r="4" fill="#0" id="circle28"/>
	<circle cx="89.8219" cy="367.481" r="4" fill="#0" id="circle29"/>
	<circle cx="94.8702" cy="160.499" r="4" fill="#0" id="circle30"/>
	<circle cx="97.3944" cy="776.397" r="4" fill="#0" id="circle31"/>
	<circle cx="102.443" cy="720.865" r="4" fill="#0" id="circle32"/>
	<circle cx="102.443" cy="746.107" r="4" fill="#0" id="circle33"/>
	<circle cx="107.491" cy="695.623" r="4" fill="#0" id="circle34"/>
	<circle cx="117.588" cy="147.878" r="4" fill="#0" id="circle35"/>
	<circle cx="132.733" cy="693.099" r="4" fill="#0" id="circle36"/>
	<circle cx="142.83" cy="140.305" r="4" fill="#0" id="circle37"/>
	<circle cx="157.975" cy="698.148" r="4" fill="#0" id="circle38"/>
	<circle cx="168.071" cy="130.209" r="4" fill="#0" id="circle39"/>
	<circle cx="183.216" cy="703.196" r="4" fill="#0" id="circle40"/>
	<circle cx="193.313" cy="122.636" r="4" fill="#0" id="circle41"/>
	<circle cx="208.458" cy="713.293" r="4" fill="#0" id="circle42"/>
	<circle cx="218.555" cy="115.064" r="4" fill="#0" id="circle43"/>
	<circle cx="233.7" cy="700.672" r="4" fill="#0" id="circle44"/>
	<circle cx="243.796" cy="110.015" r="4" fill="#0" id="circle45"/>
	<circle cx="258.941" cy="690.575" r="4" fill="#0" id="circle46"/>
	<circle cx="269.038" cy="104.967" r="4" fill="#0" id="circle47"/>
	<circle cx="284.183" cy="688.051" r="4" fill="#0" id="circle48"/>
	<circle cx="294.28" cy="99.9186" r="4" fill="#0" id="circle49"/>
	<circle cx="309.425" cy="688.051" r="4" fill="#0" id="circle50"/>
	<circle cx="319.522" cy="94.8702" r="4" fill="#0" id="circle51"/>
	<circle cx="334.667" cy="698.148" r="4" fill="#0" id="circle52"/>
	<circle cx="344.763" cy="92.3461" r="4" fill="#0" id="circle53"/>
	<circle cx="359.908" cy="703.196" r="4" fill="#0" id="circle54"/>
	<circle cx="370.005" cy="82.2494" r="4" fill="#0" id="circle55"/>
	<circle cx="385.15" cy="713.293" r="4" fill="#0" id="circle56"/>
	<circle cx="390.198" cy="64.5802" r="4" fill="#0" id="circle57"/>
	<circle cx="410.392" cy="723.389" r="4" fill="#0" id="circle58"/>
	<circle cx="415.44" cy="57.0076" r="4" fill="#0" id="circle59"/>
	<circle cx="435.634" cy="728.438" r="4" fill="#0" id="circle60"/>
	<circle cx="440.682" cy="49.4351" r="4" fill="#0" id="circle61"/>
	<circle cx="460.875" cy="31.7659" r="4" fill="#0" id="circle62"/>
	<circle cx="460.875" cy="733.486" r="4" fill="#0" id="circle63"/>
	<circle cx="478.545" cy="9.04835" r="4" fill="#0" id="circle64"/>
	<circle cx="486.117" cy="738.534" r="4" fill="#0" id="circle65"/>
	<circle cx="503.786" cy="4" r="4" fill="#0" id="circle66"/>
	<circle cx="511.359" cy="738.534" r="4" fill="#0" id="circle67"/>
	<circle cx="526.504" cy="16.6209" r="4" fill="#0" id="circle68"/>
	<circle cx="536.601" cy="738.534" r="4" fill="#0" id="circle69"/>
	<circle cx="546.697" cy="31.7659" r="4" fill="#0" id="circle70"/>
	<circle cx="561.842" cy="733.486" r="4" fill="#0" id="circle71"/>
	<circle cx="566.891" cy="49.4351" r="4" fill="#0" id="circle72"/>
	<circle cx="587.084" cy="725.913" r="4" fill="#0" id="circle73"/>
	<circle cx="592.132" cy="59.5318" r="4" fill="#0" id="circle74"/>
	<circle cx="612.326" cy="718.341" r="4" fill="#0" id="circle75"/>
	<circle cx="617.374" cy="69.6285" r="4" fill="#0" id="circle76"/>
	<circle cx="637.567" cy="84.7735" r="4" fill="#0" id="circle77"/>
	<circle cx="637.567" cy="708.244" r="4" fill="#0" id="circle78"/>
	<circle cx="662.809" cy="94.8702" r="4" fill="#0" id="circle79"/>
	<circle cx="662.809" cy="700.672" r="4" fill="#0" id="circle80"/>
	<circle cx="688.051" cy="99.9186" r="4" fill="#0" id="circle81"/>
	<circle cx="688.051" cy="693.099" r="4" fill="#0" id="circle82"/>
	<circle cx="713.293" cy="104.967" r="4" fill="#0" id="circle83"/>
	<circle cx="713.293" cy="688.051" r="4" fill="#0" id="circle84"/>
	<circle cx="738.534" cy="110.015" r="4" fill="#0" id="circle85"/>
	<circle cx="738.534" cy="688.051" r="4" fill="#0" id="circle86"/>
	<circle cx="763.776" cy="115.064" r="4" fill="#0" id="circle87"/>
	<circle cx="763.776" cy="693.099" r="4" fill="#0" id="circle88"/>
	<circle cx="783.969" cy="708.244" r="4" fill="#0" id="circle89"/>
	<circle cx="789.018" cy="120.112" r="4" fill="#0" id="circle90"/>
	<circle cx="809.211" cy="708.244" r="4" fill="#0" id="circle91"/>
	<circle cx="814.26" cy="125.16" r="4" fill="#0" id="circle92"/>
	<circle cx="834.453" cy="703.196" r="4" fill="#0" id="circle93"/>
	<circle cx="839.501" cy="135.257" r="4" fill="#0" id="circle94"/>
	<circle cx="859.695" cy="698.148" r="4" fill="#0" id="circle95"/>
	<circle cx="864.743" cy="140.305" r="4" fill="#0" id="circle96"/>
	<circle cx="884.936" cy="693.099" r="4" fill="#0" id="circle97"/>
	<circle cx="889.985" cy="150.402" r="4" fill="#0" id="circle98"/>
	<circle cx="897.557" cy="715.817" r="4" fill="#0" id="circle99"/>
	<circle cx="897.557" cy="741.059" r="4" fill="#0" id="circle100"/>
	<circle cx="897.557" cy="766.3" r="4" fill="#0" id="circle101"/>
	<circle cx="910.178" cy="301.852" r="4" fill="#0" id="circle102"/>
	<circle cx="910.178" cy="327.094" r="4" fill="#0" id="circle103"/>
	<circle cx="910.178" cy="352.336" r="4" fill="#0" id="circle104"/>
	<circle cx="910.178" cy="377.578" r="4" fill="#0" id="circle105"/>
	<circle cx="912.702" cy="163.023" r="4" fill="#0" id="circle106"/>
	<circle cx="915.226" cy="251.369" r="4" fill="#0" id="circle107"/>
	<circle cx="915.226" cy="276.611" r="4" fill="#0" id="circle108"/>
	<circle cx="915.226" cy="402.819" r="4" fill="#0" id="circle109"/>
	<circle cx="915.226" cy="428.061" r="4" fill="#0" id="circle110"/>
	<circle cx="917.751" cy="783.969" r="4" fill="#0" id="circle111"/>
	<circle cx="925.323" cy="751.155" r="4" fill="#0" id="circle112"/>
	<circle cx="930.372" cy="183.216" r="4" fill="#0" id="circle113"/>
	<circle cx="930.372" cy="226.127" r="4" fill="#0" id="circle114"/>
	<circle cx="930.372" cy="700.672" r="4" fill="#0" id="circle115"/>
	<circle cx="935.42" cy="443.206" r="4" fill="#0" id="circle116"/>
	<circle cx="935.42" cy="725.913" r="4" fill="#0" id="circle117"/>
	<circle cx="942.992" cy="771.349" r="4" fill="#0" id="circle118"/>
	<circle cx="960.662" cy="448.254" r="4" fill="#0" id="circle119"/>
	<circle cx="965.71" cy="783.969" r="4" fill="#0" id="circle120"/>
	<circle cx="970.758" cy="604.753" r="4" fill="#0" id="circle121"/>
	<circle cx="970.758" cy="629.995" r="4" fill="#0" id="circle122"/>
	<circle cx="970.758" cy="655.237" r="4" fill="#0" id="circle123"/>
	<circle cx="973.282" cy="753.679" r="4" fill="#0" id="circle124"/>
	<circle cx="975.807" cy="539.125" r="4" fill="#0" id="circle125"/>
	<circle cx="975.807" cy="564.366" r="4" fill="#0" id="circle126"/>
	<circle cx="975.807" cy="680.478" r="4" fill="#0" id="circle127"/>
	<circle cx="980.855" cy="463.399" r="4" fill="#0" id="circle128"/>
	<circle cx="980.855" cy="705.72" r="4" fill="#0" id="circle129"/>
	<circle cx="996" cy="483.593" r="4" fill="#0" id="circle130"/>
	<circle cx="996" cy="513.883" r="4" fill="#0" id="circle131"/>
	</g>
</svg>