<?xml version="1.0" encoding="UTF-8" standalone="no"?>
<!-- Created with CurveBenchmark -->
<svg
	xmlns:dc="http://purl.org/dc/elements/1.1/"
	xmlns:cc="http://creativecommons.org/ns#"
	xmlns:rdf="http://www.w3.org/1999/02/22-rdf-syntax-ns#"
	xmlns:svg="http://www.w3.org/2000/svg"
	xmlns="http://www.w3.org/2000/svg"
	xmlns:sodipodi="http://sodipodi.sourceforge.net/DTD/sodipodi-0.dtd"
	xmlns:inkscape="http://www.inkscape.org/namespaces/inkscape"
	width="1000"
	height="1000"
	id="svg2"
	version="1.1"
	sodipodi:docname="manifold/peel-key-4.png.txt">
<defs
	id="defs4" />
<metadata
	id="metadata7">
	<rdf:RDF>
		<cc:Work
			rdf:about="">
			<dc:format>image/svg+xml</dc:format>
			<dc:type
				rdf:resource="http://purl.org/dc/dcmitype/StillImage" />
			<dc:title></dc:title>
		</cc:Work>
	</rdf:RDF>
</metadata>
<g
	inkscape:label="Layer 1"
	inkscape:groupmode="layer"
	id="layer1">
	<path style="fill:none;stroke:red;stroke-width:1px;stroke-linecap:butt;stroke-linejoin:miter;stroke-opacity:1" d="M 7.23971,171.169 7.23971,164.69 z" id="boundary" inkscape:connector-curvature="0" />
	<path style="fill:none;stroke:red;stroke-width:1px;stroke-linecap:butt;stroke-linejoin:miter;stroke-opacity:1" d="M 7.23971,184.128 7.23971,177.649 z" id="boundary" inkscape:connector-curvature="0" />
	<path style="fill:none;stroke:red;stroke-width:1px;stroke-linecap:butt;stroke-linejoin:miter;stroke-opacity:1" d="M 7.23971,177.649 7.23971,171.169 z" id="boundary" inkscape:connector-curvature="0" />
	<path style="fill:none;stroke:red;stroke-width:1px;stroke-linecap:butt;stroke-linejoin:miter;stroke-opacity:1" d="M 10.4794,148.491 10.4794,142.012 z" id="boundary" inkscape:connector-curvature="0" />
	<path style="fill:none;stroke:red;stroke-width:1px;stroke-linecap:butt;stroke-linejoin:miter;stroke-opacity:1" d="M 10.4794,154.971 7.23971,164.69 z" id="boundary" inkscape:connector-curvature="0" />
	<path style="fill:none;stroke:red;stroke-width:1px;stroke-linecap:butt;stroke-linejoin:miter;stroke-opacity:1" d="M 10.4794,154.971 10.4794,148.491 z" id="boundary" inkscape:connector-curvature="0" />
	<path style="fill:none;stroke:red;stroke-width:1px;stroke-linecap:butt;stroke-linejoin:miter;stroke-opacity:1" d="M 7.23971,190.607 7.23971,184.128 z" id="boundary" inkscape:connector-curvature="0" />
	<path style="fill:none;stroke:red;stroke-width:1px;stroke-linecap:butt;stroke-linejoin:miter;stroke-opacity:1" d="M 7.23971,197.087 7.23971,190.607 z" id="boundary" inkscape:connector-curvature="0" />
	<path style="fill:none;stroke:red;stroke-width:1px;stroke-linecap:butt;stroke-linejoin:miter;stroke-opacity:1" d="M 7.23971,203.566 7.23971,197.087 z" id="boundary" inkscape:connector-curvature="0" />
	<path style="fill:none;stroke:red;stroke-width:1px;stroke-linecap:butt;stroke-linejoin:miter;stroke-opacity:1" d="M 7.23971,210.046 7.23971,203.566 z" id="boundary" inkscape:connector-curvature="0" />
	<path style="fill:none;stroke:red;stroke-width:1px;stroke-linecap:butt;stroke-linejoin:miter;stroke-opacity:1" d="M 22.1424,120.63 27.3259,115.446 z" id="boundary" inkscape:connector-curvature="0" />
	<path style="fill:none;stroke:red;stroke-width:1px;stroke-linecap:butt;stroke-linejoin:miter;stroke-opacity:1" d="M 7.23971,216.525 7.23971,210.046 z" id="boundary" inkscape:connector-curvature="0" />
	<path style="fill:none;stroke:red;stroke-width:1px;stroke-linecap:butt;stroke-linejoin:miter;stroke-opacity:1" d="M 32.5095,110.911 27.3259,115.446 z" id="boundary" inkscape:connector-curvature="0" />
	<path style="fill:none;stroke:red;stroke-width:1px;stroke-linecap:butt;stroke-linejoin:miter;stroke-opacity:1" d="M 7.23971,223.005 7.23971,216.525 z" id="boundary" inkscape:connector-curvature="0" />
	<path style="fill:none;stroke:red;stroke-width:1px;stroke-linecap:butt;stroke-linejoin:miter;stroke-opacity:1" d="M 7.23971,229.484 7.23971,223.005 z" id="boundary" inkscape:connector-curvature="0" />
	<path style="fill:none;stroke:red;stroke-width:1px;stroke-linecap:butt;stroke-linejoin:miter;stroke-opacity:1" d="M 42.2286,101.191 48.0601,97.9517 z" id="boundary" inkscape:connector-curvature="0" />
	<path style="fill:none;stroke:red;stroke-width:1px;stroke-linecap:butt;stroke-linejoin:miter;stroke-opacity:1" d="M 48.0601,97.9517 54.5395,97.9517 z" id="boundary" inkscape:connector-curvature="0" />
	<path style="fill:none;stroke:red;stroke-width:1px;stroke-linecap:butt;stroke-linejoin:miter;stroke-opacity:1" d="M 7.23971,235.963 7.23971,229.484 z" id="boundary" inkscape:connector-curvature="0" />
	<path style="fill:none;stroke:red;stroke-width:1px;stroke-linecap:butt;stroke-linejoin:miter;stroke-opacity:1" d="M 7.23971,242.443 7.23971,235.963 z" id="boundary" inkscape:connector-curvature="0" />
	<path style="fill:none;stroke:red;stroke-width:1px;stroke-linecap:butt;stroke-linejoin:miter;stroke-opacity:1" d="M 42.2286,101.191 37.0451,105.727 z" id="boundary" inkscape:connector-curvature="0" />
	<path style="fill:none;stroke:red;stroke-width:1px;stroke-linecap:butt;stroke-linejoin:miter;stroke-opacity:1" d="M 7.23971,248.922 7.23971,242.443 z" id="boundary" inkscape:connector-curvature="0" />
	<path style="fill:none;stroke:red;stroke-width:1px;stroke-linecap:butt;stroke-linejoin:miter;stroke-opacity:1" d="M 7.23971,255.402 7.23971,248.922 z" id="boundary" inkscape:connector-curvature="0" />
	<path style="fill:none;stroke:red;stroke-width:1px;stroke-linecap:butt;stroke-linejoin:miter;stroke-opacity:1" d="M 7.23971,261.881 4,271.6 z" id="boundary" inkscape:connector-curvature="0" />
	<path style="fill:none;stroke:red;stroke-width:1px;stroke-linecap:butt;stroke-linejoin:miter;stroke-opacity:1" d="M 7.23971,261.881 7.23971,255.402 z" id="boundary" inkscape:connector-curvature="0" />
	<path style="fill:none;stroke:red;stroke-width:1px;stroke-linecap:butt;stroke-linejoin:miter;stroke-opacity:1" d="M 7.23971,277.432 4,271.6 z" id="boundary" inkscape:connector-curvature="0" />
	<path style="fill:none;stroke:red;stroke-width:1px;stroke-linecap:butt;stroke-linejoin:miter;stroke-opacity:1" d="M 7.23971,283.911 7.23971,277.432 z" id="boundary" inkscape:connector-curvature="0" />
	<path style="fill:none;stroke:red;stroke-width:1px;stroke-linecap:butt;stroke-linejoin:miter;stroke-opacity:1" d="M 32.5095,110.911 37.0451,105.727 z" id="boundary" inkscape:connector-curvature="0" />
	<path style="fill:none;stroke:red;stroke-width:1px;stroke-linecap:butt;stroke-linejoin:miter;stroke-opacity:1" d="M 10.4794,142.012 13.7191,132.293 z" id="boundary" inkscape:connector-curvature="0" />
	<path style="fill:none;stroke:red;stroke-width:1px;stroke-linecap:butt;stroke-linejoin:miter;stroke-opacity:1" d="M 11.7753,289.095 7.23971,283.911 z" id="boundary" inkscape:connector-curvature="0" />
	<path style="fill:none;stroke:red;stroke-width:1px;stroke-linecap:butt;stroke-linejoin:miter;stroke-opacity:1" d="M 22.1424,120.63 16.9589,125.813 z" id="boundary" inkscape:connector-curvature="0" />
	<path style="fill:none;stroke:red;stroke-width:1px;stroke-linecap:butt;stroke-linejoin:miter;stroke-opacity:1" d="M 16.9589,125.813 13.7191,132.293 z" id="boundary" inkscape:connector-curvature="0" />
	<path style="fill:none;stroke:red;stroke-width:1px;stroke-linecap:butt;stroke-linejoin:miter;stroke-opacity:1" d="M 16.9589,292.982 11.7753,289.095 z" id="boundary" inkscape:connector-curvature="0" />
	<path style="fill:none;stroke:red;stroke-width:1px;stroke-linecap:butt;stroke-linejoin:miter;stroke-opacity:1" d="M 20.8465,298.166 16.9589,292.982 z" id="boundary" inkscape:connector-curvature="0" />
	<path style="fill:none;stroke:red;stroke-width:1px;stroke-linecap:butt;stroke-linejoin:miter;stroke-opacity:1" d="M 24.0862,303.997 20.8465,298.166 z" id="boundary" inkscape:connector-curvature="0" />
	<path style="fill:none;stroke:red;stroke-width:1px;stroke-linecap:butt;stroke-linejoin:miter;stroke-opacity:1" d="M 28.6218,309.181 24.0862,303.997 z" id="boundary" inkscape:connector-curvature="0" />
	<path style="fill:none;stroke:red;stroke-width:1px;stroke-linecap:butt;stroke-linejoin:miter;stroke-opacity:1" d="M 33.8054,313.717 28.6218,309.181 z" id="boundary" inkscape:connector-curvature="0" />
	<path style="fill:none;stroke:red;stroke-width:1px;stroke-linecap:butt;stroke-linejoin:miter;stroke-opacity:1" d="M 39.6368,316.956 33.8054,313.717 z" id="boundary" inkscape:connector-curvature="0" />
	<path style="fill:none;stroke:red;stroke-width:1px;stroke-linecap:butt;stroke-linejoin:miter;stroke-opacity:1" d="M 46.1163,318.9 39.6368,316.956 z" id="boundary" inkscape:connector-curvature="0" />
	<path style="fill:none;stroke:red;stroke-width:1px;stroke-linecap:butt;stroke-linejoin:miter;stroke-opacity:1" d="M 77.2175,81.7531 70.7381,84.9928 z" id="boundary" inkscape:connector-curvature="0" />
	<path style="fill:none;stroke:red;stroke-width:1px;stroke-linecap:butt;stroke-linejoin:miter;stroke-opacity:1" d="M 50.0039,324.084 46.1163,318.9 z" id="boundary" inkscape:connector-curvature="0" />
	<path style="fill:none;stroke:red;stroke-width:1px;stroke-linecap:butt;stroke-linejoin:miter;stroke-opacity:1" d="M 83.6969,78.5134 77.2175,81.7531 z" id="boundary" inkscape:connector-curvature="0" />
	<path style="fill:none;stroke:red;stroke-width:1px;stroke-linecap:butt;stroke-linejoin:miter;stroke-opacity:1" d="M 56.4833,326.675 50.0039,324.084 z" id="boundary" inkscape:connector-curvature="0" />
	<path style="fill:none;stroke:red;stroke-width:1px;stroke-linecap:butt;stroke-linejoin:miter;stroke-opacity:1" d="M 59.7231,92.7681 64.9066,88.2325 z" id="boundary" inkscape:connector-curvature="0" />
	<path style="fill:none;stroke:red;stroke-width:1px;stroke-linecap:butt;stroke-linejoin:miter;stroke-opacity:1" d="M 64.9066,88.2325 70.7381,84.9928 z" id="boundary" inkscape:connector-curvature="0" />
	<path style="fill:none;stroke:red;stroke-width:1px;stroke-linecap:butt;stroke-linejoin:miter;stroke-opacity:1" d="M 62.3148,329.915 56.4833,326.675 z" id="boundary" inkscape:connector-curvature="0" />
	<path style="fill:none;stroke:red;stroke-width:1px;stroke-linecap:butt;stroke-linejoin:miter;stroke-opacity:1" d="M 54.5395,97.9517 59.7231,92.7681 z" id="boundary" inkscape:connector-curvature="0" />
	<path style="fill:none;stroke:red;stroke-width:1px;stroke-linecap:butt;stroke-linejoin:miter;stroke-opacity:1" d="M 68.7943,331.859 62.3148,329.915 z" id="boundary" inkscape:connector-curvature="0" />
	<path style="fill:none;stroke:red;stroke-width:1px;stroke-linecap:butt;stroke-linejoin:miter;stroke-opacity:1" d="M 74.6257,335.099 68.7943,331.859 z" id="boundary" inkscape:connector-curvature="0" />
	<path style="fill:none;stroke:red;stroke-width:1px;stroke-linecap:butt;stroke-linejoin:miter;stroke-opacity:1" d="M 96.6558,75.2737 90.1764,75.2737 z" id="boundary" inkscape:connector-curvature="0" />
	<path style="fill:none;stroke:red;stroke-width:1px;stroke-linecap:butt;stroke-linejoin:miter;stroke-opacity:1" d="M 90.1764,75.2737 83.6969,78.5134 z" id="boundary" inkscape:connector-curvature="0" />
	<path style="fill:none;stroke:red;stroke-width:1px;stroke-linecap:butt;stroke-linejoin:miter;stroke-opacity:1" d="M 80.4572,338.338 74.6257,335.099 z" id="boundary" inkscape:connector-curvature="0" />
	<path style="fill:none;stroke:red;stroke-width:1px;stroke-linecap:butt;stroke-linejoin:miter;stroke-opacity:1" d="M 86.9366,338.338 80.4572,338.338 z" id="boundary" inkscape:connector-curvature="0" />
	<path style="fill:none;stroke:red;stroke-width:1px;stroke-linecap:butt;stroke-linejoin:miter;stroke-opacity:1" d="M 92.7681,341.578 86.9366,338.338 z" id="boundary" inkscape:connector-curvature="0" />
	<path style="fill:none;stroke:red;stroke-width:1px;stroke-linecap:butt;stroke-linejoin:miter;stroke-opacity:1" d="M 99.2476,341.578 92.7681,341.578 z" id="boundary" inkscape:connector-curvature="0" />
	<path style="fill:none;stroke:red;stroke-width:1px;stroke-linecap:butt;stroke-linejoin:miter;stroke-opacity:1" d="M 102.487,72.034 108.967,72.034 z" id="boundary" inkscape:connector-curvature="0" />
	<path style="fill:none;stroke:red;stroke-width:1px;stroke-linecap:butt;stroke-linejoin:miter;stroke-opacity:1" d="M 102.487,72.034 96.6558,75.2737 z" id="boundary" inkscape:connector-curvature="0" />
	<path style="fill:none;stroke:red;stroke-width:1px;stroke-linecap:butt;stroke-linejoin:miter;stroke-opacity:1" d="M 105.079,344.818 99.2476,341.578 z" id="boundary" inkscape:connector-curvature="0" />
	<path style="fill:none;stroke:red;stroke-width:1px;stroke-linecap:butt;stroke-linejoin:miter;stroke-opacity:1" d="M 108.967,72.034 115.446,69.4422 z" id="boundary" inkscape:connector-curvature="0" />
	<path style="fill:none;stroke:red;stroke-width:1px;stroke-linecap:butt;stroke-linejoin:miter;stroke-opacity:1" d="M 110.911,348.057 105.079,344.818 z" id="boundary" inkscape:connector-curvature="0" />
	<path style="fill:none;stroke:red;stroke-width:1px;stroke-linecap:butt;stroke-linejoin:miter;stroke-opacity:1" d="M 121.926,66.2025 115.446,69.4422 z" id="boundary" inkscape:connector-curvature="0" />
	<path style="fill:none;stroke:red;stroke-width:1px;stroke-linecap:butt;stroke-linejoin:miter;stroke-opacity:1" d="M 129.053,354.537 135.532,357.129 z" id="boundary" inkscape:connector-curvature="0" />
	<path style="fill:none;stroke:red;stroke-width:1px;stroke-linecap:butt;stroke-linejoin:miter;stroke-opacity:1" d="M 117.39,348.057 110.911,348.057 z" id="boundary" inkscape:connector-curvature="0" />
	<path style="fill:none;stroke:red;stroke-width:1px;stroke-linecap:butt;stroke-linejoin:miter;stroke-opacity:1" d="M 121.926,66.2025 128.405,65.5545 z" id="boundary" inkscape:connector-curvature="0" />
	<path style="fill:none;stroke:red;stroke-width:1px;stroke-linecap:butt;stroke-linejoin:miter;stroke-opacity:1" d="M 123.221,351.297 117.39,348.057 z" id="boundary" inkscape:connector-curvature="0" />
	<path style="fill:none;stroke:red;stroke-width:1px;stroke-linecap:butt;stroke-linejoin:miter;stroke-opacity:1" d="M 128.405,65.5545 134.884,62.9628 z" id="boundary" inkscape:connector-curvature="0" />
	<path style="fill:none;stroke:red;stroke-width:1px;stroke-linecap:butt;stroke-linejoin:miter;stroke-opacity:1" d="M 129.053,354.537 123.221,351.297 z" id="boundary" inkscape:connector-curvature="0" />
	<path style="fill:none;stroke:red;stroke-width:1px;stroke-linecap:butt;stroke-linejoin:miter;stroke-opacity:1" d="M 141.364,59.7231 134.884,62.9628 z" id="boundary" inkscape:connector-curvature="0" />
	<path style="fill:none;stroke:red;stroke-width:1px;stroke-linecap:butt;stroke-linejoin:miter;stroke-opacity:1" d="M 142.012,357.777 135.532,357.129 z" id="boundary" inkscape:connector-curvature="0" />
	<path style="fill:none;stroke:red;stroke-width:1px;stroke-linecap:butt;stroke-linejoin:miter;stroke-opacity:1" d="M 144.604,53.2436 149.787,49.356 z" id="boundary" inkscape:connector-curvature="0" />
	<path style="fill:none;stroke:red;stroke-width:1px;stroke-linecap:butt;stroke-linejoin:miter;stroke-opacity:1" d="M 144.604,53.2436 141.364,59.7231 z" id="boundary" inkscape:connector-curvature="0" />
	<path style="fill:none;stroke:red;stroke-width:1px;stroke-linecap:butt;stroke-linejoin:miter;stroke-opacity:1" d="M 148.491,360.368 142.012,357.777 z" id="boundary" inkscape:connector-curvature="0" />
	<path style="fill:none;stroke:red;stroke-width:1px;stroke-linecap:butt;stroke-linejoin:miter;stroke-opacity:1" d="M 149.787,49.356 155.619,46.1163 z" id="boundary" inkscape:connector-curvature="0" />
	<path style="fill:none;stroke:red;stroke-width:1px;stroke-linecap:butt;stroke-linejoin:miter;stroke-opacity:1" d="M 155.619,46.1163 162.098,46.1163 z" id="boundary" inkscape:connector-curvature="0" />
	<path style="fill:none;stroke:red;stroke-width:1px;stroke-linecap:butt;stroke-linejoin:miter;stroke-opacity:1" d="M 154.323,363.608 148.491,360.368 z" id="boundary" inkscape:connector-curvature="0" />
	<path style="fill:none;stroke:red;stroke-width:1px;stroke-linecap:butt;stroke-linejoin:miter;stroke-opacity:1" d="M 160.802,364.256 154.323,363.608 z" id="boundary" inkscape:connector-curvature="0" />
	<path style="fill:none;stroke:red;stroke-width:1px;stroke-linecap:butt;stroke-linejoin:miter;stroke-opacity:1" d="M 173.113,367.496 178.944,370.735 z" id="boundary" inkscape:connector-curvature="0" />
	<path style="fill:none;stroke:red;stroke-width:1px;stroke-linecap:butt;stroke-linejoin:miter;stroke-opacity:1" d="M 167.282,364.256 160.802,364.256 z" id="boundary" inkscape:connector-curvature="0" />
	<path style="fill:none;stroke:red;stroke-width:1px;stroke-linecap:butt;stroke-linejoin:miter;stroke-opacity:1" d="M 167.929,42.8766 174.409,39.6368 z" id="boundary" inkscape:connector-curvature="0" />
	<path style="fill:none;stroke:red;stroke-width:1px;stroke-linecap:butt;stroke-linejoin:miter;stroke-opacity:1" d="M 174.409,39.6368 180.888,39.6368 z" id="boundary" inkscape:connector-curvature="0" />
	<path style="fill:none;stroke:red;stroke-width:1px;stroke-linecap:butt;stroke-linejoin:miter;stroke-opacity:1" d="M 173.113,367.496 167.282,364.256 z" id="boundary" inkscape:connector-curvature="0" />
	<path style="fill:none;stroke:red;stroke-width:1px;stroke-linecap:butt;stroke-linejoin:miter;stroke-opacity:1" d="M 162.098,46.1163 167.929,42.8766 z" id="boundary" inkscape:connector-curvature="0" />
	<path style="fill:none;stroke:red;stroke-width:1px;stroke-linecap:butt;stroke-linejoin:miter;stroke-opacity:1" d="M 185.424,370.735 178.944,370.735 z" id="boundary" inkscape:connector-curvature="0" />
	<path style="fill:none;stroke:red;stroke-width:1px;stroke-linecap:butt;stroke-linejoin:miter;stroke-opacity:1" d="M 200.327,33.1574 206.806,33.1574 z" id="boundary" inkscape:connector-curvature="0" />
	<path style="fill:none;stroke:red;stroke-width:1px;stroke-linecap:butt;stroke-linejoin:miter;stroke-opacity:1" d="M 180.888,39.6368 187.368,36.3971 z" id="boundary" inkscape:connector-curvature="0" />
	<path style="fill:none;stroke:red;stroke-width:1px;stroke-linecap:butt;stroke-linejoin:miter;stroke-opacity:1" d="M 191.903,370.735 185.424,370.735 z" id="boundary" inkscape:connector-curvature="0" />
	<path style="fill:none;stroke:red;stroke-width:1px;stroke-linecap:butt;stroke-linejoin:miter;stroke-opacity:1" d="M 193.847,33.1574 200.327,33.1574 z" id="boundary" inkscape:connector-curvature="0" />
	<path style="fill:none;stroke:red;stroke-width:1px;stroke-linecap:butt;stroke-linejoin:miter;stroke-opacity:1" d="M 193.847,33.1574 187.368,36.3971 z" id="boundary" inkscape:connector-curvature="0" />
	<path style="fill:none;stroke:red;stroke-width:1px;stroke-linecap:butt;stroke-linejoin:miter;stroke-opacity:1" d="M 197.735,373.975 191.903,370.735 z" id="boundary" inkscape:connector-curvature="0" />
	<path style="fill:none;stroke:red;stroke-width:1px;stroke-linecap:butt;stroke-linejoin:miter;stroke-opacity:1" d="M 204.214,373.975 197.735,373.975 z" id="boundary" inkscape:connector-curvature="0" />
	<path style="fill:none;stroke:red;stroke-width:1px;stroke-linecap:butt;stroke-linejoin:miter;stroke-opacity:1" d="M 210.046,377.215 204.214,373.975 z" id="boundary" inkscape:connector-curvature="0" />
	<path style="fill:none;stroke:red;stroke-width:1px;stroke-linecap:butt;stroke-linejoin:miter;stroke-opacity:1" d="M 213.285,29.9177 219.765,29.9177 z" id="boundary" inkscape:connector-curvature="0" />
	<path style="fill:none;stroke:red;stroke-width:1px;stroke-linecap:butt;stroke-linejoin:miter;stroke-opacity:1" d="M 213.285,29.9177 206.806,33.1574 z" id="boundary" inkscape:connector-curvature="0" />
	<path style="fill:none;stroke:red;stroke-width:1px;stroke-linecap:butt;stroke-linejoin:miter;stroke-opacity:1" d="M 215.877,373.975 210.046,377.215 z" id="boundary" inkscape:connector-curvature="0" />
	<path style="fill:none;stroke:red;stroke-width:1px;stroke-linecap:butt;stroke-linejoin:miter;stroke-opacity:1" d="M 221.709,377.215 215.877,373.975 z" id="boundary" inkscape:connector-curvature="0" />
	<path style="fill:none;stroke:red;stroke-width:1px;stroke-linecap:butt;stroke-linejoin:miter;stroke-opacity:1" d="M 225.596,26.678 232.076,26.678 z" id="boundary" inkscape:connector-curvature="0" />
	<path style="fill:none;stroke:red;stroke-width:1px;stroke-linecap:butt;stroke-linejoin:miter;stroke-opacity:1" d="M 225.596,26.678 219.765,29.9177 z" id="boundary" inkscape:connector-curvature="0" />
	<path style="fill:none;stroke:red;stroke-width:1px;stroke-linecap:butt;stroke-linejoin:miter;stroke-opacity:1" d="M 228.188,377.215 221.709,377.215 z" id="boundary" inkscape:connector-curvature="0" />
	<path style="fill:none;stroke:red;stroke-width:1px;stroke-linecap:butt;stroke-linejoin:miter;stroke-opacity:1" d="M 234.02,380.455 228.188,377.215 z" id="boundary" inkscape:connector-curvature="0" />
	<path style="fill:none;stroke:red;stroke-width:1px;stroke-linecap:butt;stroke-linejoin:miter;stroke-opacity:1" d="M 238.555,24.0862 245.035,23.4383 z" id="boundary" inkscape:connector-curvature="0" />
	<path style="fill:none;stroke:red;stroke-width:1px;stroke-linecap:butt;stroke-linejoin:miter;stroke-opacity:1" d="M 238.555,24.0862 232.076,26.678 z" id="boundary" inkscape:connector-curvature="0" />
	<path style="fill:none;stroke:red;stroke-width:1px;stroke-linecap:butt;stroke-linejoin:miter;stroke-opacity:1" d="M 276.136,388.23 282.615,390.174 z" id="boundary" inkscape:connector-curvature="0" />
	<path style="fill:none;stroke:red;stroke-width:1px;stroke-linecap:butt;stroke-linejoin:miter;stroke-opacity:1" d="M 240.499,380.455 234.02,380.455 z" id="boundary" inkscape:connector-curvature="0" />
	<path style="fill:none;stroke:red;stroke-width:1px;stroke-linecap:butt;stroke-linejoin:miter;stroke-opacity:1" d="M 246.978,381.75 240.499,380.455 z" id="boundary" inkscape:connector-curvature="0" />
	<path style="fill:none;stroke:red;stroke-width:1px;stroke-linecap:butt;stroke-linejoin:miter;stroke-opacity:1" d="M 250.866,20.1986 257.346,20.1986 z" id="boundary" inkscape:connector-curvature="0" />
	<path style="fill:none;stroke:red;stroke-width:1px;stroke-linecap:butt;stroke-linejoin:miter;stroke-opacity:1" d="M 250.866,20.1986 245.035,23.4383 z" id="boundary" inkscape:connector-curvature="0" />
	<path style="fill:none;stroke:red;stroke-width:1px;stroke-linecap:butt;stroke-linejoin:miter;stroke-opacity:1" d="M 253.458,380.455 246.978,381.75 z" id="boundary" inkscape:connector-curvature="0" />
	<path style="fill:none;stroke:red;stroke-width:1px;stroke-linecap:butt;stroke-linejoin:miter;stroke-opacity:1" d="M 257.346,20.1986 263.825,20.1986 z" id="boundary" inkscape:connector-curvature="0" />
	<path style="fill:none;stroke:red;stroke-width:1px;stroke-linecap:butt;stroke-linejoin:miter;stroke-opacity:1" d="M 265.121,380.455 271.6,383.046 z" id="boundary" inkscape:connector-curvature="0" />
	<path style="fill:none;stroke:red;stroke-width:1px;stroke-linecap:butt;stroke-linejoin:miter;stroke-opacity:1" d="M 271.6,383.046 276.136,388.23 z" id="boundary" inkscape:connector-curvature="0" />
	<path style="fill:none;stroke:red;stroke-width:1px;stroke-linecap:butt;stroke-linejoin:miter;stroke-opacity:1" d="M 259.289,377.215 253.458,380.455 z" id="boundary" inkscape:connector-curvature="0" />
	<path style="fill:none;stroke:red;stroke-width:1px;stroke-linecap:butt;stroke-linejoin:miter;stroke-opacity:1" d="M 263.825,20.1986 270.304,20.1986 z" id="boundary" inkscape:connector-curvature="0" />
	<path style="fill:none;stroke:red;stroke-width:1px;stroke-linecap:butt;stroke-linejoin:miter;stroke-opacity:1" d="M 265.121,380.455 259.289,377.215 z" id="boundary" inkscape:connector-curvature="0" />
	<path style="fill:none;stroke:red;stroke-width:1px;stroke-linecap:butt;stroke-linejoin:miter;stroke-opacity:1" d="M 282.615,16.9589 289.095,16.9589 z" id="boundary" inkscape:connector-curvature="0" />
	<path style="fill:none;stroke:red;stroke-width:1px;stroke-linecap:butt;stroke-linejoin:miter;stroke-opacity:1" d="M 276.136,16.9589 282.615,16.9589 z" id="boundary" inkscape:connector-curvature="0" />
	<path style="fill:none;stroke:red;stroke-width:1px;stroke-linecap:butt;stroke-linejoin:miter;stroke-opacity:1" d="M 276.136,16.9589 270.304,20.1986 z" id="boundary" inkscape:connector-curvature="0" />
	<path style="fill:none;stroke:red;stroke-width:1px;stroke-linecap:butt;stroke-linejoin:miter;stroke-opacity:1" d="M 289.095,16.9589 295.574,15.663 z" id="boundary" inkscape:connector-curvature="0" />
	<path style="fill:none;stroke:red;stroke-width:1px;stroke-linecap:butt;stroke-linejoin:miter;stroke-opacity:1" d="M 289.095,390.174 282.615,390.174 z" id="boundary" inkscape:connector-curvature="0" />
	<path style="fill:none;stroke:red;stroke-width:1px;stroke-linecap:butt;stroke-linejoin:miter;stroke-opacity:1" d="M 295.574,390.174 289.095,390.174 z" id="boundary" inkscape:connector-curvature="0" />
	<path style="fill:none;stroke:red;stroke-width:1px;stroke-linecap:butt;stroke-linejoin:miter;stroke-opacity:1" d="M 320.844,10.4794 327.323,10.4794 z" id="boundary" inkscape:connector-curvature="0" />
	<path style="fill:none;stroke:red;stroke-width:1px;stroke-linecap:butt;stroke-linejoin:miter;stroke-opacity:1" d="M 302.054,390.174 295.574,390.174 z" id="boundary" inkscape:connector-curvature="0" />
	<path style="fill:none;stroke:red;stroke-width:1px;stroke-linecap:butt;stroke-linejoin:miter;stroke-opacity:1" d="M 307.885,10.4794 314.364,10.4794 z" id="boundary" inkscape:connector-curvature="0" />
	<path style="fill:none;stroke:red;stroke-width:1px;stroke-linecap:butt;stroke-linejoin:miter;stroke-opacity:1" d="M 307.885,10.4794 302.054,13.7191 z" id="boundary" inkscape:connector-curvature="0" />
	<path style="fill:none;stroke:red;stroke-width:1px;stroke-linecap:butt;stroke-linejoin:miter;stroke-opacity:1" d="M 307.885,393.413 302.054,390.174 z" id="boundary" inkscape:connector-curvature="0" />
	<path style="fill:none;stroke:red;stroke-width:1px;stroke-linecap:butt;stroke-linejoin:miter;stroke-opacity:1" d="M 295.574,15.663 302.054,13.7191 z" id="boundary" inkscape:connector-curvature="0" />
	<path style="fill:none;stroke:red;stroke-width:1px;stroke-linecap:butt;stroke-linejoin:miter;stroke-opacity:1" d="M 314.364,10.4794 320.844,10.4794 z" id="boundary" inkscape:connector-curvature="0" />
	<path style="fill:none;stroke:red;stroke-width:1px;stroke-linecap:butt;stroke-linejoin:miter;stroke-opacity:1" d="M 314.364,393.413 307.885,393.413 z" id="boundary" inkscape:connector-curvature="0" />
	<path style="fill:none;stroke:red;stroke-width:1px;stroke-linecap:butt;stroke-linejoin:miter;stroke-opacity:1" d="M 320.196,390.174 314.364,393.413 z" id="boundary" inkscape:connector-curvature="0" />
	<path style="fill:none;stroke:red;stroke-width:1px;stroke-linecap:butt;stroke-linejoin:miter;stroke-opacity:1" d="M 332.507,393.413 338.986,393.413 z" id="boundary" inkscape:connector-curvature="0" />
	<path style="fill:none;stroke:red;stroke-width:1px;stroke-linecap:butt;stroke-linejoin:miter;stroke-opacity:1" d="M 326.675,390.174 320.196,390.174 z" id="boundary" inkscape:connector-curvature="0" />
	<path style="fill:none;stroke:red;stroke-width:1px;stroke-linecap:butt;stroke-linejoin:miter;stroke-opacity:1" d="M 332.507,393.413 326.675,390.174 z" id="boundary" inkscape:connector-curvature="0" />
	<path style="fill:none;stroke:red;stroke-width:1px;stroke-linecap:butt;stroke-linejoin:miter;stroke-opacity:1" d="M 333.155,7.23971 339.634,7.23971 z" id="boundary" inkscape:connector-curvature="0" />
	<path style="fill:none;stroke:red;stroke-width:1px;stroke-linecap:butt;stroke-linejoin:miter;stroke-opacity:1" d="M 333.155,7.23971 327.323,10.4794 z" id="boundary" inkscape:connector-curvature="0" />
	<path style="fill:none;stroke:red;stroke-width:1px;stroke-linecap:butt;stroke-linejoin:miter;stroke-opacity:1" d="M 370.088,399.893 375.919,403.133 z" id="boundary" inkscape:connector-curvature="0" />
	<path style="fill:none;stroke:red;stroke-width:1px;stroke-linecap:butt;stroke-linejoin:miter;stroke-opacity:1" d="M 339.634,7.23971 346.114,7.23971 z" id="boundary" inkscape:connector-curvature="0" />
	<path style="fill:none;stroke:red;stroke-width:1px;stroke-linecap:butt;stroke-linejoin:miter;stroke-opacity:1" d="M 345.466,393.413 338.986,393.413 z" id="boundary" inkscape:connector-curvature="0" />
	<path style="fill:none;stroke:red;stroke-width:1px;stroke-linecap:butt;stroke-linejoin:miter;stroke-opacity:1" d="M 346.114,7.23971 352.593,7.23971 z" id="boundary" inkscape:connector-curvature="0" />
	<path style="fill:none;stroke:red;stroke-width:1px;stroke-linecap:butt;stroke-linejoin:miter;stroke-opacity:1" d="M 364.256,396.653 370.088,399.893 z" id="boundary" inkscape:connector-curvature="0" />
	<path style="fill:none;stroke:red;stroke-width:1px;stroke-linecap:butt;stroke-linejoin:miter;stroke-opacity:1" d="M 351.945,393.413 345.466,393.413 z" id="boundary" inkscape:connector-curvature="0" />
	<path style="fill:none;stroke:red;stroke-width:1px;stroke-linecap:butt;stroke-linejoin:miter;stroke-opacity:1" d="M 352.593,7.23971 359.073,7.23971 z" id="boundary" inkscape:connector-curvature="0" />
	<path style="fill:none;stroke:red;stroke-width:1px;stroke-linecap:butt;stroke-linejoin:miter;stroke-opacity:1" d="M 358.425,393.413 351.945,393.413 z" id="boundary" inkscape:connector-curvature="0" />
	<path style="fill:none;stroke:red;stroke-width:1px;stroke-linecap:butt;stroke-linejoin:miter;stroke-opacity:1" d="M 359.073,7.23971 365.552,7.23971 z" id="boundary" inkscape:connector-curvature="0" />
	<path style="fill:none;stroke:red;stroke-width:1px;stroke-linecap:butt;stroke-linejoin:miter;stroke-opacity:1" d="M 364.256,396.653 358.425,393.413 z" id="boundary" inkscape:connector-curvature="0" />
	<path style="fill:none;stroke:red;stroke-width:1px;stroke-linecap:butt;stroke-linejoin:miter;stroke-opacity:1" d="M 365.552,7.23971 372.031,7.23971 z" id="boundary" inkscape:connector-curvature="0" />
	<path style="fill:none;stroke:red;stroke-width:1px;stroke-linecap:butt;stroke-linejoin:miter;stroke-opacity:1" d="M 535.961,100.543 532.721,94.712 z" id="boundary" inkscape:connector-curvature="0" />
	<path style="fill:none;stroke:red;stroke-width:1px;stroke-linecap:butt;stroke-linejoin:miter;stroke-opacity:1" d="M 403.781,4 397.301,4 z" id="boundary" inkscape:connector-curvature="0" />
	<path style="fill:none;stroke:red;stroke-width:1px;stroke-linecap:butt;stroke-linejoin:miter;stroke-opacity:1" d="M 382.398,403.133 375.919,403.133 z" id="boundary" inkscape:connector-curvature="0" />
	<path style="fill:none;stroke:red;stroke-width:1px;stroke-linecap:butt;stroke-linejoin:miter;stroke-opacity:1" d="M 384.342,4 390.822,4 z" id="boundary" inkscape:connector-curvature="0" />
	<path style="fill:none;stroke:red;stroke-width:1px;stroke-linecap:butt;stroke-linejoin:miter;stroke-opacity:1" d="M 384.342,4 378.511,7.23971 z" id="boundary" inkscape:connector-curvature="0" />
	<path style="fill:none;stroke:red;stroke-width:1px;stroke-linecap:butt;stroke-linejoin:miter;stroke-opacity:1" d="M 372.031,7.23971 378.511,7.23971 z" id="boundary" inkscape:connector-curvature="0" />
	<path style="fill:none;stroke:red;stroke-width:1px;stroke-linecap:butt;stroke-linejoin:miter;stroke-opacity:1" d="M 388.878,403.133 382.398,403.133 z" id="boundary" inkscape:connector-curvature="0" />
	<path style="fill:none;stroke:red;stroke-width:1px;stroke-linecap:butt;stroke-linejoin:miter;stroke-opacity:1" d="M 390.822,4 397.301,4 z" id="boundary" inkscape:connector-curvature="0" />
	<path style="fill:none;stroke:red;stroke-width:1px;stroke-linecap:butt;stroke-linejoin:miter;stroke-opacity:1" d="M 394.709,406.372 388.878,403.133 z" id="boundary" inkscape:connector-curvature="0" />
	<path style="fill:none;stroke:red;stroke-width:1px;stroke-linecap:butt;stroke-linejoin:miter;stroke-opacity:1" d="M 403.781,4 410.26,4 z" id="boundary" inkscape:connector-curvature="0" />
	<path style="fill:none;stroke:red;stroke-width:1px;stroke-linecap:butt;stroke-linejoin:miter;stroke-opacity:1" d="M 506.803,41.5807 510.043,47.4121 z" id="boundary" inkscape:connector-curvature="0" />
	<path style="fill:none;stroke:red;stroke-width:1px;stroke-linecap:butt;stroke-linejoin:miter;stroke-opacity:1" d="M 401.189,406.372 394.709,406.372 z" id="boundary" inkscape:connector-curvature="0" />
	<path style="fill:none;stroke:red;stroke-width:1px;stroke-linecap:butt;stroke-linejoin:miter;stroke-opacity:1" d="M 407.668,406.372 401.189,406.372 z" id="boundary" inkscape:connector-curvature="0" />
	<path style="fill:none;stroke:red;stroke-width:1px;stroke-linecap:butt;stroke-linejoin:miter;stroke-opacity:1" d="M 506.803,41.5807 503.564,35.7492 z" id="boundary" inkscape:connector-curvature="0" />
	<path style="fill:none;stroke:red;stroke-width:1px;stroke-linecap:butt;stroke-linejoin:miter;stroke-opacity:1" d="M 414.148,406.372 407.668,406.372 z" id="boundary" inkscape:connector-curvature="0" />
	<path style="fill:none;stroke:red;stroke-width:1px;stroke-linecap:butt;stroke-linejoin:miter;stroke-opacity:1" d="M 485.421,16.9589 491.253,20.1986 z" id="boundary" inkscape:connector-curvature="0" />
	<path style="fill:none;stroke:red;stroke-width:1px;stroke-linecap:butt;stroke-linejoin:miter;stroke-opacity:1" d="M 491.253,20.1986 496.436,24.7342 z" id="boundary" inkscape:connector-curvature="0" />
	<path style="fill:none;stroke:red;stroke-width:1px;stroke-linecap:butt;stroke-linejoin:miter;stroke-opacity:1" d="M 420.627,406.372 414.148,406.372 z" id="boundary" inkscape:connector-curvature="0" />
	<path style="fill:none;stroke:red;stroke-width:1px;stroke-linecap:butt;stroke-linejoin:miter;stroke-opacity:1" d="M 496.436,24.7342 500.324,29.9177 z" id="boundary" inkscape:connector-curvature="0" />
	<path style="fill:none;stroke:red;stroke-width:1px;stroke-linecap:butt;stroke-linejoin:miter;stroke-opacity:1" d="M 427.106,406.372 420.627,406.372 z" id="boundary" inkscape:connector-curvature="0" />
	<path style="fill:none;stroke:red;stroke-width:1px;stroke-linecap:butt;stroke-linejoin:miter;stroke-opacity:1" d="M 454.968,7.23971 461.447,7.23971 z" id="boundary" inkscape:connector-curvature="0" />
	<path style="fill:none;stroke:red;stroke-width:1px;stroke-linecap:butt;stroke-linejoin:miter;stroke-opacity:1" d="M 436.178,4 429.698,4 z" id="boundary" inkscape:connector-curvature="0" />
	<path style="fill:none;stroke:red;stroke-width:1px;stroke-linecap:butt;stroke-linejoin:miter;stroke-opacity:1" d="M 433.586,406.372 427.106,406.372 z" id="boundary" inkscape:connector-curvature="0" />
	<path style="fill:none;stroke:red;stroke-width:1px;stroke-linecap:butt;stroke-linejoin:miter;stroke-opacity:1" d="M 503.564,35.7492 500.324,29.9177 z" id="boundary" inkscape:connector-curvature="0" />
	<path style="fill:none;stroke:red;stroke-width:1px;stroke-linecap:butt;stroke-linejoin:miter;stroke-opacity:1" d="M 442.657,4 436.178,4 z" id="boundary" inkscape:connector-curvature="0" />
	<path style="fill:none;stroke:red;stroke-width:1px;stroke-linecap:butt;stroke-linejoin:miter;stroke-opacity:1" d="M 440.065,406.372 433.586,406.372 z" id="boundary" inkscape:connector-curvature="0" />
	<path style="fill:none;stroke:red;stroke-width:1px;stroke-linecap:butt;stroke-linejoin:miter;stroke-opacity:1" d="M 449.137,4 454.968,7.23971 z" id="boundary" inkscape:connector-curvature="0" />
	<path style="fill:none;stroke:red;stroke-width:1px;stroke-linecap:butt;stroke-linejoin:miter;stroke-opacity:1" d="M 449.137,4 442.657,4 z" id="boundary" inkscape:connector-curvature="0" />
	<path style="fill:none;stroke:red;stroke-width:1px;stroke-linecap:butt;stroke-linejoin:miter;stroke-opacity:1" d="M 446.545,406.372 440.065,406.372 z" id="boundary" inkscape:connector-curvature="0" />
	<path style="fill:none;stroke:red;stroke-width:1px;stroke-linecap:butt;stroke-linejoin:miter;stroke-opacity:1" d="M 485.421,16.9589 480.238,12.4233 z" id="boundary" inkscape:connector-curvature="0" />
	<path style="fill:none;stroke:red;stroke-width:1px;stroke-linecap:butt;stroke-linejoin:miter;stroke-opacity:1" d="M 453.024,406.372 446.545,406.372 z" id="boundary" inkscape:connector-curvature="0" />
	<path style="fill:none;stroke:red;stroke-width:1px;stroke-linecap:butt;stroke-linejoin:miter;stroke-opacity:1" d="M 429.698,4 423.219,4 z" id="boundary" inkscape:connector-curvature="0" />
	<path style="fill:none;stroke:red;stroke-width:1px;stroke-linecap:butt;stroke-linejoin:miter;stroke-opacity:1" d="M 474.406,9.18354 480.238,12.4233 z" id="boundary" inkscape:connector-curvature="0" />
	<path style="fill:none;stroke:red;stroke-width:1px;stroke-linecap:butt;stroke-linejoin:miter;stroke-opacity:1" d="M 459.504,406.372 453.024,406.372 z" id="boundary" inkscape:connector-curvature="0" />
	<path style="fill:none;stroke:red;stroke-width:1px;stroke-linecap:butt;stroke-linejoin:miter;stroke-opacity:1" d="M 513.931,52.5957 516.523,59.0751 z" id="boundary" inkscape:connector-curvature="0" />
	<path style="fill:none;stroke:red;stroke-width:1px;stroke-linecap:butt;stroke-linejoin:miter;stroke-opacity:1" d="M 513.931,52.5957 510.043,47.4121 z" id="boundary" inkscape:connector-curvature="0" />
	<path style="fill:none;stroke:red;stroke-width:1px;stroke-linecap:butt;stroke-linejoin:miter;stroke-opacity:1" d="M 467.927,7.23971 474.406,9.18354 z" id="boundary" inkscape:connector-curvature="0" />
	<path style="fill:none;stroke:red;stroke-width:1px;stroke-linecap:butt;stroke-linejoin:miter;stroke-opacity:1" d="M 467.927,7.23971 461.447,7.23971 z" id="boundary" inkscape:connector-curvature="0" />
	<path style="fill:none;stroke:red;stroke-width:1px;stroke-linecap:butt;stroke-linejoin:miter;stroke-opacity:1" d="M 471.815,409.612 465.983,406.372 z" id="boundary" inkscape:connector-curvature="0" />
	<path style="fill:none;stroke:red;stroke-width:1px;stroke-linecap:butt;stroke-linejoin:miter;stroke-opacity:1" d="M 465.983,406.372 459.504,406.372 z" id="boundary" inkscape:connector-curvature="0" />
	<path style="fill:none;stroke:red;stroke-width:1px;stroke-linecap:butt;stroke-linejoin:miter;stroke-opacity:1" d="M 423.219,4 416.739,4 z" id="boundary" inkscape:connector-curvature="0" />
	<path style="fill:none;stroke:red;stroke-width:1px;stroke-linecap:butt;stroke-linejoin:miter;stroke-opacity:1" d="M 477.646,406.372 471.815,409.612 z" id="boundary" inkscape:connector-curvature="0" />
	<path style="fill:none;stroke:red;stroke-width:1px;stroke-linecap:butt;stroke-linejoin:miter;stroke-opacity:1" d="M 484.125,406.372 477.646,406.372 z" id="boundary" inkscape:connector-curvature="0" />
	<path style="fill:none;stroke:red;stroke-width:1px;stroke-linecap:butt;stroke-linejoin:miter;stroke-opacity:1" d="M 489.957,403.133 484.125,406.372 z" id="boundary" inkscape:connector-curvature="0" />
	<path style="fill:none;stroke:red;stroke-width:1px;stroke-linecap:butt;stroke-linejoin:miter;stroke-opacity:1" d="M 821.703,240.499 828.183,243.091 z" id="boundary" inkscape:connector-curvature="0" />
	<path style="fill:none;stroke:red;stroke-width:1px;stroke-linecap:butt;stroke-linejoin:miter;stroke-opacity:1" d="M 495.14,399.245 489.957,403.133 z" id="boundary" inkscape:connector-curvature="0" />
	<path style="fill:none;stroke:red;stroke-width:1px;stroke-linecap:butt;stroke-linejoin:miter;stroke-opacity:1" d="M 595.572,298.814 589.74,302.702 z" id="boundary" inkscape:connector-curvature="0" />
	<path style="fill:none;stroke:red;stroke-width:1px;stroke-linecap:butt;stroke-linejoin:miter;stroke-opacity:1" d="M 710.257,254.106 716.737,254.106 z" id="boundary" inkscape:connector-curvature="0" />
	<path style="fill:none;stroke:red;stroke-width:1px;stroke-linecap:butt;stroke-linejoin:miter;stroke-opacity:1" d="M 570.302,130.997 565.118,126.461 z" id="boundary" inkscape:connector-curvature="0" />
	<path style="fill:none;stroke:red;stroke-width:1px;stroke-linecap:butt;stroke-linejoin:miter;stroke-opacity:1" d="M 565.118,126.461 560.583,121.278 z" id="boundary" inkscape:connector-curvature="0" />
	<path style="fill:none;stroke:red;stroke-width:1px;stroke-linecap:butt;stroke-linejoin:miter;stroke-opacity:1" d="M 503.564,386.934 500.324,393.413 z" id="boundary" inkscape:connector-curvature="0" />
	<path style="fill:none;stroke:red;stroke-width:1px;stroke-linecap:butt;stroke-linejoin:miter;stroke-opacity:1" d="M 500.324,393.413 495.14,399.245 z" id="boundary" inkscape:connector-curvature="0" />
	<path style="fill:none;stroke:red;stroke-width:1px;stroke-linecap:butt;stroke-linejoin:miter;stroke-opacity:1" d="M 516.523,59.0751 519.762,64.9066 z" id="boundary" inkscape:connector-curvature="0" />
	<path style="fill:none;stroke:red;stroke-width:1px;stroke-linecap:butt;stroke-linejoin:miter;stroke-opacity:1" d="M 508.747,382.398 503.564,386.934 z" id="boundary" inkscape:connector-curvature="0" />
	<path style="fill:none;stroke:red;stroke-width:1px;stroke-linecap:butt;stroke-linejoin:miter;stroke-opacity:1" d="M 416.739,4 410.26,4 z" id="boundary" inkscape:connector-curvature="0" />
	<path style="fill:none;stroke:red;stroke-width:1px;stroke-linecap:butt;stroke-linejoin:miter;stroke-opacity:1" d="M 513.283,377.215 508.747,382.398 z" id="boundary" inkscape:connector-curvature="0" />
	<path style="fill:none;stroke:red;stroke-width:1px;stroke-linecap:butt;stroke-linejoin:miter;stroke-opacity:1" d="M 523.002,70.7381 519.762,64.9066 z" id="boundary" inkscape:connector-curvature="0" />
	<path style="fill:none;stroke:red;stroke-width:1px;stroke-linecap:butt;stroke-linejoin:miter;stroke-opacity:1" d="M 516.523,370.735 519.762,364.256 z" id="boundary" inkscape:connector-curvature="0" />
	<path style="fill:none;stroke:red;stroke-width:1px;stroke-linecap:butt;stroke-linejoin:miter;stroke-opacity:1" d="M 516.523,370.735 513.283,377.215 z" id="boundary" inkscape:connector-curvature="0" />
	<path style="fill:none;stroke:red;stroke-width:1px;stroke-linecap:butt;stroke-linejoin:miter;stroke-opacity:1" d="M 526.242,76.5696 523.002,70.7381 z" id="boundary" inkscape:connector-curvature="0" />
	<path style="fill:none;stroke:red;stroke-width:1px;stroke-linecap:butt;stroke-linejoin:miter;stroke-opacity:1" d="M 547.624,320.844 552.159,315.66 z" id="boundary" inkscape:connector-curvature="0" />
	<path style="fill:none;stroke:red;stroke-width:1px;stroke-linecap:butt;stroke-linejoin:miter;stroke-opacity:1" d="M 529.481,82.401 526.242,76.5696 z" id="boundary" inkscape:connector-curvature="0" />
	<path style="fill:none;stroke:red;stroke-width:1px;stroke-linecap:butt;stroke-linejoin:miter;stroke-opacity:1" d="M 557.343,311.125 563.822,307.885 z" id="boundary" inkscape:connector-curvature="0" />
	<path style="fill:none;stroke:red;stroke-width:1px;stroke-linecap:butt;stroke-linejoin:miter;stroke-opacity:1" d="M 557.343,311.125 552.159,315.66 z" id="boundary" inkscape:connector-curvature="0" />
	<path style="fill:none;stroke:red;stroke-width:1px;stroke-linecap:butt;stroke-linejoin:miter;stroke-opacity:1" d="M 523.002,357.777 519.762,364.256 z" id="boundary" inkscape:connector-curvature="0" />
	<path style="fill:none;stroke:red;stroke-width:1px;stroke-linecap:butt;stroke-linejoin:miter;stroke-opacity:1" d="M 532.721,94.712 532.721,88.2325 z" id="boundary" inkscape:connector-curvature="0" />
	<path style="fill:none;stroke:red;stroke-width:1px;stroke-linecap:butt;stroke-linejoin:miter;stroke-opacity:1" d="M 532.721,88.2325 529.481,82.401 z" id="boundary" inkscape:connector-curvature="0" />
	<path style="fill:none;stroke:red;stroke-width:1px;stroke-linecap:butt;stroke-linejoin:miter;stroke-opacity:1" d="M 563.822,307.885 570.302,305.941 z" id="boundary" inkscape:connector-curvature="0" />
	<path style="fill:none;stroke:red;stroke-width:1px;stroke-linecap:butt;stroke-linejoin:miter;stroke-opacity:1" d="M 529.481,341.578 526.242,351.297 z" id="boundary" inkscape:connector-curvature="0" />
	<path style="fill:none;stroke:red;stroke-width:1px;stroke-linecap:butt;stroke-linejoin:miter;stroke-opacity:1" d="M 526.242,351.297 523.002,357.777 z" id="boundary" inkscape:connector-curvature="0" />
	<path style="fill:none;stroke:red;stroke-width:1px;stroke-linecap:butt;stroke-linejoin:miter;stroke-opacity:1" d="M 532.721,335.099 537.905,330.563 z" id="boundary" inkscape:connector-curvature="0" />
	<path style="fill:none;stroke:red;stroke-width:1px;stroke-linecap:butt;stroke-linejoin:miter;stroke-opacity:1" d="M 532.721,335.099 529.481,341.578 z" id="boundary" inkscape:connector-curvature="0" />
	<path style="fill:none;stroke:red;stroke-width:1px;stroke-linecap:butt;stroke-linejoin:miter;stroke-opacity:1" d="M 541.792,112.854 539.201,106.375 z" id="boundary" inkscape:connector-curvature="0" />
	<path style="fill:none;stroke:red;stroke-width:1px;stroke-linecap:butt;stroke-linejoin:miter;stroke-opacity:1" d="M 539.201,106.375 535.961,100.543 z" id="boundary" inkscape:connector-curvature="0" />
	<path style="fill:none;stroke:red;stroke-width:1px;stroke-linecap:butt;stroke-linejoin:miter;stroke-opacity:1" d="M 570.302,305.941 576.781,304.645 z" id="boundary" inkscape:connector-curvature="0" />
	<path style="fill:none;stroke:red;stroke-width:1px;stroke-linecap:butt;stroke-linejoin:miter;stroke-opacity:1" d="M 541.144,324.084 537.905,330.563 z" id="boundary" inkscape:connector-curvature="0" />
	<path style="fill:none;stroke:red;stroke-width:1px;stroke-linecap:butt;stroke-linejoin:miter;stroke-opacity:1" d="M 547.624,320.844 541.144,324.084 z" id="boundary" inkscape:connector-curvature="0" />
	<path style="fill:none;stroke:red;stroke-width:1px;stroke-linecap:butt;stroke-linejoin:miter;stroke-opacity:1" d="M 548.272,115.446 554.103,118.686 z" id="boundary" inkscape:connector-curvature="0" />
	<path style="fill:none;stroke:red;stroke-width:1px;stroke-linecap:butt;stroke-linejoin:miter;stroke-opacity:1" d="M 548.272,115.446 541.792,112.854 z" id="boundary" inkscape:connector-curvature="0" />
	<path style="fill:none;stroke:red;stroke-width:1px;stroke-linecap:butt;stroke-linejoin:miter;stroke-opacity:1" d="M 576.781,304.645 583.261,302.702 z" id="boundary" inkscape:connector-curvature="0" />
	<path style="fill:none;stroke:red;stroke-width:1px;stroke-linecap:butt;stroke-linejoin:miter;stroke-opacity:1" d="M 583.261,302.702 589.74,302.702 z" id="boundary" inkscape:connector-curvature="0" />
	<path style="fill:none;stroke:red;stroke-width:1px;stroke-linecap:butt;stroke-linejoin:miter;stroke-opacity:1" d="M 560.583,121.278 554.103,118.686 z" id="boundary" inkscape:connector-curvature="0" />
	<path style="fill:none;stroke:red;stroke-width:1px;stroke-linecap:butt;stroke-linejoin:miter;stroke-opacity:1" d="M 574.837,136.18 570.302,130.997 z" id="boundary" inkscape:connector-curvature="0" />
	<path style="fill:none;stroke:red;stroke-width:1px;stroke-linecap:butt;stroke-linejoin:miter;stroke-opacity:1" d="M 574.837,136.18 580.021,140.068 z" id="boundary" inkscape:connector-curvature="0" />
	<path style="fill:none;stroke:red;stroke-width:1px;stroke-linecap:butt;stroke-linejoin:miter;stroke-opacity:1" d="M 585.852,143.308 580.021,140.068 z" id="boundary" inkscape:connector-curvature="0" />
	<path style="fill:none;stroke:red;stroke-width:1px;stroke-linecap:butt;stroke-linejoin:miter;stroke-opacity:1" d="M 703.778,251.514 710.257,254.106 z" id="boundary" inkscape:connector-curvature="0" />
	<path style="fill:none;stroke:red;stroke-width:1px;stroke-linecap:butt;stroke-linejoin:miter;stroke-opacity:1" d="M 592.332,143.308 585.852,143.308 z" id="boundary" inkscape:connector-curvature="0" />
	<path style="fill:none;stroke:red;stroke-width:1px;stroke-linecap:butt;stroke-linejoin:miter;stroke-opacity:1" d="M 703.778,251.514 698.594,247.626 z" id="boundary" inkscape:connector-curvature="0" />
	<path style="fill:none;stroke:red;stroke-width:1px;stroke-linecap:butt;stroke-linejoin:miter;stroke-opacity:1" d="M 598.811,143.308 592.332,143.308 z" id="boundary" inkscape:connector-curvature="0" />
	<path style="fill:none;stroke:red;stroke-width:1px;stroke-linecap:butt;stroke-linejoin:miter;stroke-opacity:1" d="M 674.621,237.907 668.141,237.907 z" id="boundary" inkscape:connector-curvature="0" />
	<path style="fill:none;stroke:red;stroke-width:1px;stroke-linecap:butt;stroke-linejoin:miter;stroke-opacity:1" d="M 668.141,237.907 662.31,241.147 z" id="boundary" inkscape:connector-curvature="0" />
	<path style="fill:none;stroke:red;stroke-width:1px;stroke-linecap:butt;stroke-linejoin:miter;stroke-opacity:1" d="M 600.755,292.982 595.572,298.814 z" id="boundary" inkscape:connector-curvature="0" />
	<path style="fill:none;stroke:red;stroke-width:1px;stroke-linecap:butt;stroke-linejoin:miter;stroke-opacity:1" d="M 603.995,286.503 600.755,292.982 z" id="boundary" inkscape:connector-curvature="0" />
	<path style="fill:none;stroke:red;stroke-width:1px;stroke-linecap:butt;stroke-linejoin:miter;stroke-opacity:1" d="M 655.83,241.147 662.31,241.147 z" id="boundary" inkscape:connector-curvature="0" />
	<path style="fill:none;stroke:red;stroke-width:1px;stroke-linecap:butt;stroke-linejoin:miter;stroke-opacity:1" d="M 655.83,241.147 649.351,244.387 z" id="boundary" inkscape:connector-curvature="0" />
	<path style="fill:none;stroke:red;stroke-width:1px;stroke-linecap:butt;stroke-linejoin:miter;stroke-opacity:1" d="M 605.291,143.308 598.811,143.308 z" id="boundary" inkscape:connector-curvature="0" />
	<path style="fill:none;stroke:red;stroke-width:1px;stroke-linecap:butt;stroke-linejoin:miter;stroke-opacity:1" d="M 607.234,280.024 603.995,286.503 z" id="boundary" inkscape:connector-curvature="0" />
	<path style="fill:none;stroke:red;stroke-width:1px;stroke-linecap:butt;stroke-linejoin:miter;stroke-opacity:1" d="M 610.474,273.544 607.234,280.024 z" id="boundary" inkscape:connector-curvature="0" />
	<path style="fill:none;stroke:red;stroke-width:1px;stroke-linecap:butt;stroke-linejoin:miter;stroke-opacity:1" d="M 615.658,269.008 622.137,265.769 z" id="boundary" inkscape:connector-curvature="0" />
	<path style="fill:none;stroke:red;stroke-width:1px;stroke-linecap:butt;stroke-linejoin:miter;stroke-opacity:1" d="M 611.77,143.308 605.291,143.308 z" id="boundary" inkscape:connector-curvature="0" />
	<path style="fill:none;stroke:red;stroke-width:1px;stroke-linecap:butt;stroke-linejoin:miter;stroke-opacity:1" d="M 615.658,269.008 610.474,273.544 z" id="boundary" inkscape:connector-curvature="0" />
	<path style="fill:none;stroke:red;stroke-width:1px;stroke-linecap:butt;stroke-linejoin:miter;stroke-opacity:1" d="M 618.25,143.308 611.77,143.308 z" id="boundary" inkscape:connector-curvature="0" />
	<path style="fill:none;stroke:red;stroke-width:1px;stroke-linecap:butt;stroke-linejoin:miter;stroke-opacity:1" d="M 622.137,265.769 628.617,262.529 z" id="boundary" inkscape:connector-curvature="0" />
	<path style="fill:none;stroke:red;stroke-width:1px;stroke-linecap:butt;stroke-linejoin:miter;stroke-opacity:1" d="M 624.729,143.308 618.25,143.308 z" id="boundary" inkscape:connector-curvature="0" />
	<path style="fill:none;stroke:red;stroke-width:1px;stroke-linecap:butt;stroke-linejoin:miter;stroke-opacity:1" d="M 631.208,143.308 624.729,143.308 z" id="boundary" inkscape:connector-curvature="0" />
	<path style="fill:none;stroke:red;stroke-width:1px;stroke-linecap:butt;stroke-linejoin:miter;stroke-opacity:1" d="M 633.152,257.346 628.617,262.529 z" id="boundary" inkscape:connector-curvature="0" />
	<path style="fill:none;stroke:red;stroke-width:1px;stroke-linecap:butt;stroke-linejoin:miter;stroke-opacity:1" d="M 637.688,143.308 631.208,143.308 z" id="boundary" inkscape:connector-curvature="0" />
	<path style="fill:none;stroke:red;stroke-width:1px;stroke-linecap:butt;stroke-linejoin:miter;stroke-opacity:1" d="M 638.336,252.81 633.152,257.346 z" id="boundary" inkscape:connector-curvature="0" />
	<path style="fill:none;stroke:red;stroke-width:1px;stroke-linecap:butt;stroke-linejoin:miter;stroke-opacity:1" d="M 642.871,247.626 638.336,252.81 z" id="boundary" inkscape:connector-curvature="0" />
	<path style="fill:none;stroke:red;stroke-width:1px;stroke-linecap:butt;stroke-linejoin:miter;stroke-opacity:1" d="M 686.931,241.147 692.763,244.387 z" id="boundary" inkscape:connector-curvature="0" />
	<path style="fill:none;stroke:red;stroke-width:1px;stroke-linecap:butt;stroke-linejoin:miter;stroke-opacity:1" d="M 644.167,143.308 637.688,143.308 z" id="boundary" inkscape:connector-curvature="0" />
	<path style="fill:none;stroke:red;stroke-width:1px;stroke-linecap:butt;stroke-linejoin:miter;stroke-opacity:1" d="M 649.351,244.387 642.871,247.626 z" id="boundary" inkscape:connector-curvature="0" />
	<path style="fill:none;stroke:red;stroke-width:1px;stroke-linecap:butt;stroke-linejoin:miter;stroke-opacity:1" d="M 650.647,143.308 644.167,143.308 z" id="boundary" inkscape:connector-curvature="0" />
	<path style="fill:none;stroke:red;stroke-width:1px;stroke-linecap:butt;stroke-linejoin:miter;stroke-opacity:1" d="M 681.1,237.907 686.931,241.147 z" id="boundary" inkscape:connector-curvature="0" />
	<path style="fill:none;stroke:red;stroke-width:1px;stroke-linecap:butt;stroke-linejoin:miter;stroke-opacity:1" d="M 681.1,237.907 674.621,237.907 z" id="boundary" inkscape:connector-curvature="0" />
	<path style="fill:none;stroke:red;stroke-width:1px;stroke-linecap:butt;stroke-linejoin:miter;stroke-opacity:1" d="M 657.126,143.308 650.647,143.308 z" id="boundary" inkscape:connector-curvature="0" />
	<path style="fill:none;stroke:red;stroke-width:1px;stroke-linecap:butt;stroke-linejoin:miter;stroke-opacity:1" d="M 663.605,143.308 657.126,143.308 z" id="boundary" inkscape:connector-curvature="0" />
	<path style="fill:none;stroke:red;stroke-width:1px;stroke-linecap:butt;stroke-linejoin:miter;stroke-opacity:1" d="M 692.763,244.387 698.594,247.626 z" id="boundary" inkscape:connector-curvature="0" />
	<path style="fill:none;stroke:red;stroke-width:1px;stroke-linecap:butt;stroke-linejoin:miter;stroke-opacity:1" d="M 670.085,143.308 663.605,143.308 z" id="boundary" inkscape:connector-curvature="0" />
	<path style="fill:none;stroke:red;stroke-width:1px;stroke-linecap:butt;stroke-linejoin:miter;stroke-opacity:1" d="M 676.564,143.308 670.085,143.308 z" id="boundary" inkscape:connector-curvature="0" />
	<path style="fill:none;stroke:red;stroke-width:1px;stroke-linecap:butt;stroke-linejoin:miter;stroke-opacity:1" d="M 683.044,143.308 676.564,143.308 z" id="boundary" inkscape:connector-curvature="0" />
	<path style="fill:none;stroke:red;stroke-width:1px;stroke-linecap:butt;stroke-linejoin:miter;stroke-opacity:1" d="M 689.523,143.308 696.003,143.308 z" id="boundary" inkscape:connector-curvature="0" />
	<path style="fill:none;stroke:red;stroke-width:1px;stroke-linecap:butt;stroke-linejoin:miter;stroke-opacity:1" d="M 683.044,143.308 689.523,143.308 z" id="boundary" inkscape:connector-curvature="0" />
	<path style="fill:none;stroke:red;stroke-width:1px;stroke-linecap:butt;stroke-linejoin:miter;stroke-opacity:1" d="M 702.482,143.308 708.961,143.308 z" id="boundary" inkscape:connector-curvature="0" />
	<path style="fill:none;stroke:red;stroke-width:1px;stroke-linecap:butt;stroke-linejoin:miter;stroke-opacity:1" d="M 696.003,143.308 702.482,143.308 z" id="boundary" inkscape:connector-curvature="0" />
	<path style="fill:none;stroke:red;stroke-width:1px;stroke-linecap:butt;stroke-linejoin:miter;stroke-opacity:1" d="M 708.961,143.308 715.441,143.308 z" id="boundary" inkscape:connector-curvature="0" />
	<path style="fill:none;stroke:red;stroke-width:1px;stroke-linecap:butt;stroke-linejoin:miter;stroke-opacity:1" d="M 736.175,250.866 742.654,250.866 z" id="boundary" inkscape:connector-curvature="0" />
	<path style="fill:none;stroke:red;stroke-width:1px;stroke-linecap:butt;stroke-linejoin:miter;stroke-opacity:1" d="M 715.441,143.308 721.92,143.308 z" id="boundary" inkscape:connector-curvature="0" />
	<path style="fill:none;stroke:red;stroke-width:1px;stroke-linecap:butt;stroke-linejoin:miter;stroke-opacity:1" d="M 729.696,250.866 736.175,250.866 z" id="boundary" inkscape:connector-curvature="0" />
	<path style="fill:none;stroke:red;stroke-width:1px;stroke-linecap:butt;stroke-linejoin:miter;stroke-opacity:1" d="M 729.696,250.866 723.216,252.162 z" id="boundary" inkscape:connector-curvature="0" />
	<path style="fill:none;stroke:red;stroke-width:1px;stroke-linecap:butt;stroke-linejoin:miter;stroke-opacity:1" d="M 723.216,252.162 716.737,254.106 z" id="boundary" inkscape:connector-curvature="0" />
	<path style="fill:none;stroke:red;stroke-width:1px;stroke-linecap:butt;stroke-linejoin:miter;stroke-opacity:1" d="M 742.654,250.866 749.134,250.866 z" id="boundary" inkscape:connector-curvature="0" />
	<path style="fill:none;stroke:red;stroke-width:1px;stroke-linecap:butt;stroke-linejoin:miter;stroke-opacity:1" d="M 749.134,250.866 754.965,254.106 z" id="boundary" inkscape:connector-curvature="0" />
	<path style="fill:none;stroke:red;stroke-width:1px;stroke-linecap:butt;stroke-linejoin:miter;stroke-opacity:1" d="M 728.4,143.308 721.92,143.308 z" id="boundary" inkscape:connector-curvature="0" />
	<path style="fill:none;stroke:red;stroke-width:1px;stroke-linecap:butt;stroke-linejoin:miter;stroke-opacity:1" d="M 734.879,143.308 728.4,143.308 z" id="boundary" inkscape:connector-curvature="0" />
	<path style="fill:none;stroke:red;stroke-width:1px;stroke-linecap:butt;stroke-linejoin:miter;stroke-opacity:1" d="M 741.359,143.308 734.879,143.308 z" id="boundary" inkscape:connector-curvature="0" />
	<path style="fill:none;stroke:red;stroke-width:1px;stroke-linecap:butt;stroke-linejoin:miter;stroke-opacity:1" d="M 761.445,254.106 754.965,254.106 z" id="boundary" inkscape:connector-curvature="0" />
	<path style="fill:none;stroke:red;stroke-width:1px;stroke-linecap:butt;stroke-linejoin:miter;stroke-opacity:1" d="M 747.838,143.308 741.359,143.308 z" id="boundary" inkscape:connector-curvature="0" />
	<path style="fill:none;stroke:red;stroke-width:1px;stroke-linecap:butt;stroke-linejoin:miter;stroke-opacity:1" d="M 754.317,143.308 747.838,143.308 z" id="boundary" inkscape:connector-curvature="0" />
	<path style="fill:none;stroke:red;stroke-width:1px;stroke-linecap:butt;stroke-linejoin:miter;stroke-opacity:1" d="M 760.797,143.308 767.276,143.308 z" id="boundary" inkscape:connector-curvature="0" />
	<path style="fill:none;stroke:red;stroke-width:1px;stroke-linecap:butt;stroke-linejoin:miter;stroke-opacity:1" d="M 754.317,143.308 760.797,143.308 z" id="boundary" inkscape:connector-curvature="0" />
	<path style="fill:none;stroke:red;stroke-width:1px;stroke-linecap:butt;stroke-linejoin:miter;stroke-opacity:1" d="M 774.404,249.57 767.924,252.81 z" id="boundary" inkscape:connector-curvature="0" />
	<path style="fill:none;stroke:red;stroke-width:1px;stroke-linecap:butt;stroke-linejoin:miter;stroke-opacity:1" d="M 790.602,237.907 784.771,241.147 z" id="boundary" inkscape:connector-curvature="0" />
	<path style="fill:none;stroke:red;stroke-width:1px;stroke-linecap:butt;stroke-linejoin:miter;stroke-opacity:1" d="M 767.924,252.81 761.445,254.106 z" id="boundary" inkscape:connector-curvature="0" />
	<path style="fill:none;stroke:red;stroke-width:1px;stroke-linecap:butt;stroke-linejoin:miter;stroke-opacity:1" d="M 773.756,143.308 767.276,143.308 z" id="boundary" inkscape:connector-curvature="0" />
	<path style="fill:none;stroke:red;stroke-width:1px;stroke-linecap:butt;stroke-linejoin:miter;stroke-opacity:1" d="M 815.872,237.259 821.703,240.499 z" id="boundary" inkscape:connector-curvature="0" />
	<path style="fill:none;stroke:red;stroke-width:1px;stroke-linecap:butt;stroke-linejoin:miter;stroke-opacity:1" d="M 778.939,244.387 774.404,249.57 z" id="boundary" inkscape:connector-curvature="0" />
	<path style="fill:none;stroke:red;stroke-width:1px;stroke-linecap:butt;stroke-linejoin:miter;stroke-opacity:1" d="M 780.235,143.308 773.756,143.308 z" id="boundary" inkscape:connector-curvature="0" />
	<path style="fill:none;stroke:red;stroke-width:1px;stroke-linecap:butt;stroke-linejoin:miter;stroke-opacity:1" d="M 784.771,241.147 778.939,244.387 z" id="boundary" inkscape:connector-curvature="0" />
	<path style="fill:none;stroke:red;stroke-width:1px;stroke-linecap:butt;stroke-linejoin:miter;stroke-opacity:1" d="M 786.715,143.308 780.235,143.308 z" id="boundary" inkscape:connector-curvature="0" />
	<path style="fill:none;stroke:red;stroke-width:1px;stroke-linecap:butt;stroke-linejoin:miter;stroke-opacity:1" d="M 815.872,237.259 809.393,234.668 z" id="boundary" inkscape:connector-curvature="0" />
	<path style="fill:none;stroke:red;stroke-width:1px;stroke-linecap:butt;stroke-linejoin:miter;stroke-opacity:1" d="M 809.393,234.668 802.913,234.668 z" id="boundary" inkscape:connector-curvature="0" />
	<path style="fill:none;stroke:red;stroke-width:1px;stroke-linecap:butt;stroke-linejoin:miter;stroke-opacity:1" d="M 793.194,143.308 786.715,143.308 z" id="boundary" inkscape:connector-curvature="0" />
	<path style="fill:none;stroke:red;stroke-width:1px;stroke-linecap:butt;stroke-linejoin:miter;stroke-opacity:1" d="M 796.434,234.668 802.913,234.668 z" id="boundary" inkscape:connector-curvature="0" />
	<path style="fill:none;stroke:red;stroke-width:1px;stroke-linecap:butt;stroke-linejoin:miter;stroke-opacity:1" d="M 796.434,234.668 790.602,237.907 z" id="boundary" inkscape:connector-curvature="0" />
	<path style="fill:none;stroke:red;stroke-width:1px;stroke-linecap:butt;stroke-linejoin:miter;stroke-opacity:1" d="M 799.673,143.308 793.194,143.308 z" id="boundary" inkscape:connector-curvature="0" />
	<path style="fill:none;stroke:red;stroke-width:1px;stroke-linecap:butt;stroke-linejoin:miter;stroke-opacity:1" d="M 806.153,143.308 799.673,143.308 z" id="boundary" inkscape:connector-curvature="0" />
	<path style="fill:none;stroke:red;stroke-width:1px;stroke-linecap:butt;stroke-linejoin:miter;stroke-opacity:1" d="M 828.183,243.091 834.014,246.331 z" id="boundary" inkscape:connector-curvature="0" />
	<path style="fill:none;stroke:red;stroke-width:1px;stroke-linecap:butt;stroke-linejoin:miter;stroke-opacity:1" d="M 812.632,143.308 806.153,143.308 z" id="boundary" inkscape:connector-curvature="0" />
	<path style="fill:none;stroke:red;stroke-width:1px;stroke-linecap:butt;stroke-linejoin:miter;stroke-opacity:1" d="M 834.014,246.331 840.494,248.922 z" id="boundary" inkscape:connector-curvature="0" />
	<path style="fill:none;stroke:red;stroke-width:1px;stroke-linecap:butt;stroke-linejoin:miter;stroke-opacity:1" d="M 819.112,143.308 825.591,143.308 z" id="boundary" inkscape:connector-curvature="0" />
	<path style="fill:none;stroke:red;stroke-width:1px;stroke-linecap:butt;stroke-linejoin:miter;stroke-opacity:1" d="M 812.632,143.308 819.112,143.308 z" id="boundary" inkscape:connector-curvature="0" />
	<path style="fill:none;stroke:red;stroke-width:1px;stroke-linecap:butt;stroke-linejoin:miter;stroke-opacity:1" d="M 840.494,248.922 846.973,250.866 z" id="boundary" inkscape:connector-curvature="0" />
	<path style="fill:none;stroke:red;stroke-width:1px;stroke-linecap:butt;stroke-linejoin:miter;stroke-opacity:1" d="M 825.591,143.308 832.071,143.308 z" id="boundary" inkscape:connector-curvature="0" />
	<path style="fill:none;stroke:red;stroke-width:1px;stroke-linecap:butt;stroke-linejoin:miter;stroke-opacity:1" d="M 838.55,143.308 845.029,143.308 z" id="boundary" inkscape:connector-curvature="0" />
	<path style="fill:none;stroke:red;stroke-width:1px;stroke-linecap:butt;stroke-linejoin:miter;stroke-opacity:1" d="M 832.071,143.308 838.55,143.308 z" id="boundary" inkscape:connector-curvature="0" />
	<path style="fill:none;stroke:red;stroke-width:1px;stroke-linecap:butt;stroke-linejoin:miter;stroke-opacity:1" d="M 853.453,250.866 846.973,250.866 z" id="boundary" inkscape:connector-curvature="0" />
	<path style="fill:none;stroke:red;stroke-width:1px;stroke-linecap:butt;stroke-linejoin:miter;stroke-opacity:1" d="M 845.029,143.308 851.509,143.308 z" id="boundary" inkscape:connector-curvature="0" />
	<path style="fill:none;stroke:red;stroke-width:1px;stroke-linecap:butt;stroke-linejoin:miter;stroke-opacity:1" d="M 885.85,250.866 879.37,248.922 z" id="boundary" inkscape:connector-curvature="0" />
	<path style="fill:none;stroke:red;stroke-width:1px;stroke-linecap:butt;stroke-linejoin:miter;stroke-opacity:1" d="M 851.509,143.308 857.988,143.308 z" id="boundary" inkscape:connector-curvature="0" />
	<path style="fill:none;stroke:red;stroke-width:1px;stroke-linecap:butt;stroke-linejoin:miter;stroke-opacity:1" d="M 879.37,248.922 872.891,247.626 z" id="boundary" inkscape:connector-curvature="0" />
	<path style="fill:none;stroke:red;stroke-width:1px;stroke-linecap:butt;stroke-linejoin:miter;stroke-opacity:1" d="M 872.891,247.626 866.411,247.626 z" id="boundary" inkscape:connector-curvature="0" />
	<path style="fill:none;stroke:red;stroke-width:1px;stroke-linecap:butt;stroke-linejoin:miter;stroke-opacity:1" d="M 859.932,247.626 853.453,250.866 z" id="boundary" inkscape:connector-curvature="0" />
	<path style="fill:none;stroke:red;stroke-width:1px;stroke-linecap:butt;stroke-linejoin:miter;stroke-opacity:1" d="M 864.468,143.308 857.988,143.308 z" id="boundary" inkscape:connector-curvature="0" />
	<path style="fill:none;stroke:red;stroke-width:1px;stroke-linecap:butt;stroke-linejoin:miter;stroke-opacity:1" d="M 866.411,247.626 859.932,247.626 z" id="boundary" inkscape:connector-curvature="0" />
	<path style="fill:none;stroke:red;stroke-width:1px;stroke-linecap:butt;stroke-linejoin:miter;stroke-opacity:1" d="M 870.947,143.308 864.468,143.308 z" id="boundary" inkscape:connector-curvature="0" />
	<path style="fill:none;stroke:red;stroke-width:1px;stroke-linecap:butt;stroke-linejoin:miter;stroke-opacity:1" d="M 892.329,252.162 898.809,254.106 z" id="boundary" inkscape:connector-curvature="0" />
	<path style="fill:none;stroke:red;stroke-width:1px;stroke-linecap:butt;stroke-linejoin:miter;stroke-opacity:1" d="M 892.329,252.162 885.85,250.866 z" id="boundary" inkscape:connector-curvature="0" />
	<path style="fill:none;stroke:red;stroke-width:1px;stroke-linecap:butt;stroke-linejoin:miter;stroke-opacity:1" d="M 877.427,143.308 870.947,143.308 z" id="boundary" inkscape:connector-curvature="0" />
	<path style="fill:none;stroke:red;stroke-width:1px;stroke-linecap:butt;stroke-linejoin:miter;stroke-opacity:1" d="M 877.427,143.308 883.906,143.308 z" id="boundary" inkscape:connector-curvature="0" />
	<path style="fill:none;stroke:red;stroke-width:1px;stroke-linecap:butt;stroke-linejoin:miter;stroke-opacity:1" d="M 890.385,143.308 896.865,143.308 z" id="boundary" inkscape:connector-curvature="0" />
	<path style="fill:none;stroke:red;stroke-width:1px;stroke-linecap:butt;stroke-linejoin:miter;stroke-opacity:1" d="M 883.906,143.308 890.385,143.308 z" id="boundary" inkscape:connector-curvature="0" />
	<path style="fill:none;stroke:red;stroke-width:1px;stroke-linecap:butt;stroke-linejoin:miter;stroke-opacity:1" d="M 898.809,254.106 905.288,254.106 z" id="boundary" inkscape:connector-curvature="0" />
	<path style="fill:none;stroke:red;stroke-width:1px;stroke-linecap:butt;stroke-linejoin:miter;stroke-opacity:1" d="M 905.288,254.106 911.767,254.106 z" id="boundary" inkscape:connector-curvature="0" />
	<path style="fill:none;stroke:red;stroke-width:1px;stroke-linecap:butt;stroke-linejoin:miter;stroke-opacity:1" d="M 903.344,143.308 909.824,143.308 z" id="boundary" inkscape:connector-curvature="0" />
	<path style="fill:none;stroke:red;stroke-width:1px;stroke-linecap:butt;stroke-linejoin:miter;stroke-opacity:1" d="M 896.865,143.308 903.344,143.308 z" id="boundary" inkscape:connector-curvature="0" />
	<path style="fill:none;stroke:red;stroke-width:1px;stroke-linecap:butt;stroke-linejoin:miter;stroke-opacity:1" d="M 916.303,143.308 909.824,143.308 z" id="boundary" inkscape:connector-curvature="0" />
	<path style="fill:none;stroke:red;stroke-width:1px;stroke-linecap:butt;stroke-linejoin:miter;stroke-opacity:1" d="M 917.599,250.866 911.767,254.106 z" id="boundary" inkscape:connector-curvature="0" />
	<path style="fill:none;stroke:red;stroke-width:1px;stroke-linecap:butt;stroke-linejoin:miter;stroke-opacity:1" d="M 922.782,143.308 916.303,143.308 z" id="boundary" inkscape:connector-curvature="0" />
	<path style="fill:none;stroke:red;stroke-width:1px;stroke-linecap:butt;stroke-linejoin:miter;stroke-opacity:1" d="M 923.43,247.626 917.599,250.866 z" id="boundary" inkscape:connector-curvature="0" />
	<path style="fill:none;stroke:red;stroke-width:1px;stroke-linecap:butt;stroke-linejoin:miter;stroke-opacity:1" d="M 929.262,143.308 922.782,143.308 z" id="boundary" inkscape:connector-curvature="0" />
	<path style="fill:none;stroke:red;stroke-width:1px;stroke-linecap:butt;stroke-linejoin:miter;stroke-opacity:1" d="M 929.91,247.626 923.43,247.626 z" id="boundary" inkscape:connector-curvature="0" />
	<path style="fill:none;stroke:red;stroke-width:1px;stroke-linecap:butt;stroke-linejoin:miter;stroke-opacity:1" d="M 935.741,143.308 941.573,146.547 z" id="boundary" inkscape:connector-curvature="0" />
	<path style="fill:none;stroke:red;stroke-width:1px;stroke-linecap:butt;stroke-linejoin:miter;stroke-opacity:1" d="M 935.741,143.308 929.262,143.308 z" id="boundary" inkscape:connector-curvature="0" />
	<path style="fill:none;stroke:red;stroke-width:1px;stroke-linecap:butt;stroke-linejoin:miter;stroke-opacity:1" d="M 935.741,244.387 929.91,247.626 z" id="boundary" inkscape:connector-curvature="0" />
	<path style="fill:none;stroke:red;stroke-width:1px;stroke-linecap:butt;stroke-linejoin:miter;stroke-opacity:1" d="M 941.573,241.147 935.741,244.387 z" id="boundary" inkscape:connector-curvature="0" />
	<path style="fill:none;stroke:red;stroke-width:1px;stroke-linecap:butt;stroke-linejoin:miter;stroke-opacity:1" d="M 947.404,237.907 941.573,241.147 z" id="boundary" inkscape:connector-curvature="0" />
	<path style="fill:none;stroke:red;stroke-width:1px;stroke-linecap:butt;stroke-linejoin:miter;stroke-opacity:1" d="M 948.052,146.547 941.573,146.547 z" id="boundary" inkscape:connector-curvature="0" />
	<path style="fill:none;stroke:red;stroke-width:1px;stroke-linecap:butt;stroke-linejoin:miter;stroke-opacity:1" d="M 953.884,234.668 947.404,237.907 z" id="boundary" inkscape:connector-curvature="0" />
	<path style="fill:none;stroke:red;stroke-width:1px;stroke-linecap:butt;stroke-linejoin:miter;stroke-opacity:1" d="M 948.052,146.547 954.532,146.547 z" id="boundary" inkscape:connector-curvature="0" />
	<path style="fill:none;stroke:red;stroke-width:1px;stroke-linecap:butt;stroke-linejoin:miter;stroke-opacity:1" d="M 961.011,146.547 966.843,149.787 z" id="boundary" inkscape:connector-curvature="0" />
	<path style="fill:none;stroke:red;stroke-width:1px;stroke-linecap:butt;stroke-linejoin:miter;stroke-opacity:1" d="M 961.011,146.547 954.532,146.547 z" id="boundary" inkscape:connector-curvature="0" />
	<path style="fill:none;stroke:red;stroke-width:1px;stroke-linecap:butt;stroke-linejoin:miter;stroke-opacity:1" d="M 959.715,231.428 953.884,234.668 z" id="boundary" inkscape:connector-curvature="0" />
	<path style="fill:none;stroke:red;stroke-width:1px;stroke-linecap:butt;stroke-linejoin:miter;stroke-opacity:1" d="M 970.082,218.469 964.899,227.54 z" id="boundary" inkscape:connector-curvature="0" />
	<path style="fill:none;stroke:red;stroke-width:1px;stroke-linecap:butt;stroke-linejoin:miter;stroke-opacity:1" d="M 964.899,227.54 959.715,231.428 z" id="boundary" inkscape:connector-curvature="0" />
	<path style="fill:none;stroke:red;stroke-width:1px;stroke-linecap:butt;stroke-linejoin:miter;stroke-opacity:1" d="M 972.674,153.027 966.843,149.787 z" id="boundary" inkscape:connector-curvature="0" />
	<path style="fill:none;stroke:red;stroke-width:1px;stroke-linecap:butt;stroke-linejoin:miter;stroke-opacity:1" d="M 975.266,213.933 970.082,218.469 z" id="boundary" inkscape:connector-curvature="0" />
	<path style="fill:none;stroke:red;stroke-width:1px;stroke-linecap:butt;stroke-linejoin:miter;stroke-opacity:1" d="M 978.506,156.266 972.674,153.027 z" id="boundary" inkscape:connector-curvature="0" />
	<path style="fill:none;stroke:red;stroke-width:1px;stroke-linecap:butt;stroke-linejoin:miter;stroke-opacity:1" d="M 978.506,207.454 975.266,213.933 z" id="boundary" inkscape:connector-curvature="0" />
	<path style="fill:none;stroke:red;stroke-width:1px;stroke-linecap:butt;stroke-linejoin:miter;stroke-opacity:1" d="M 981.745,200.975 978.506,207.454 z" id="boundary" inkscape:connector-curvature="0" />
	<path style="fill:none;stroke:red;stroke-width:1px;stroke-linecap:butt;stroke-linejoin:miter;stroke-opacity:1" d="M 986.281,195.791 991.464,191.255 z" id="boundary" inkscape:connector-curvature="0" />
	<path style="fill:none;stroke:red;stroke-width:1px;stroke-linecap:butt;stroke-linejoin:miter;stroke-opacity:1" d="M 984.337,159.506 988.873,164.69 z" id="boundary" inkscape:connector-curvature="0" />
	<path style="fill:none;stroke:red;stroke-width:1px;stroke-linecap:butt;stroke-linejoin:miter;stroke-opacity:1" d="M 984.337,159.506 978.506,156.266 z" id="boundary" inkscape:connector-curvature="0" />
	<path style="fill:none;stroke:red;stroke-width:1px;stroke-linecap:butt;stroke-linejoin:miter;stroke-opacity:1" d="M 986.281,195.791 981.745,200.975 z" id="boundary" inkscape:connector-curvature="0" />
	<path style="fill:none;stroke:red;stroke-width:1px;stroke-linecap:butt;stroke-linejoin:miter;stroke-opacity:1" d="M 992.76,169.873 988.873,164.69 z" id="boundary" inkscape:connector-curvature="0" />
	<path style="fill:none;stroke:red;stroke-width:1px;stroke-linecap:butt;stroke-linejoin:miter;stroke-opacity:1" d="M 996,175.705 996,182.184 z" id="boundary" inkscape:connector-curvature="0" />
	<path style="fill:none;stroke:red;stroke-width:1px;stroke-linecap:butt;stroke-linejoin:miter;stroke-opacity:1" d="M 996,175.705 992.76,169.873 z" id="boundary" inkscape:connector-curvature="0" />
	<path style="fill:none;stroke:red;stroke-width:1px;stroke-linecap:butt;stroke-linejoin:miter;stroke-opacity:1" d="M 996,182.184 991.464,191.255 z" id="boundary" inkscape:connector-curvature="0" />
	<circle cx="4" cy="271.6" r="4" fill="#0" id="circle0"/>
	<circle cx="7.23971" cy="164.69" r="4" fill="#0" id="circle1"/>
	<circle cx="7.23971" cy="171.169" r="4" fill="#0" id="circle2"/>
	<circle cx="7.23971" cy="177.649" r="4" fill="#0" id="circle3"/>
	<circle cx="7.23971" cy="184.128" r="4" fill="#0" id="circle4"/>
	<circle cx="7.23971" cy="190.607" r="4" fill="#0" id="circle5"/>
	<circle cx="7.23971" cy="197.087" r="4" fill="#0" id="circle6"/>
	<circle cx="7.23971" cy="203.566" r="4" fill="#0" id="circle7"/>
	<circle cx="7.23971" cy="210.046" r="4" fill="#0" id="circle8"/>
	<circle cx="7.23971" cy="216.525" r="4" fill="#0" id="circle9"/>
	<circle cx="7.23971" cy="223.005" r="4" fill="#0" id="circle10"/>
	<circle cx="7.23971" cy="229.484" r="4" fill="#0" id="circle11"/>
	<circle cx="7.23971" cy="235.963" r="4" fill="#0" id="circle12"/>
	<circle cx="7.23971" cy="242.443" r="4" fill="#0" id="circle13"/>
	<circle cx="7.23971" cy="248.922" r="4" fill="#0" id="circle14"/>
	<circle cx="7.23971" cy="255.402" r="4" fill="#0" id="circle15"/>
	<circle cx="7.23971" cy="261.881" r="4" fill="#0" id="circle16"/>
	<circle cx="7.23971" cy="277.432" r="4" fill="#0" id="circle17"/>
	<circle cx="7.23971" cy="283.911" r="4" fill="#0" id="circle18"/>
	<circle cx="10.4794" cy="142.012" r="4" fill="#0" id="circle19"/>
	<circle cx="10.4794" cy="148.491" r="4" fill="#0" id="circle20"/>
	<circle cx="10.4794" cy="154.971" r="4" fill="#0" id="circle21"/>
	<circle cx="11.7753" cy="289.095" r="4" fill="#0" id="circle22"/>
	<circle cx="13.7191" cy="132.293" r="4" fill="#0" id="circle23"/>
	<circle cx="16.9589" cy="125.813" r="4" fill="#0" id="circle24"/>
	<circle cx="16.9589" cy="292.982" r="4" fill="#0" id="circle25"/>
	<circle cx="20.8465" cy="298.166" r="4" fill="#0" id="circle26"/>
	<circle cx="22.1424" cy="120.63" r="4" fill="#0" id="circle27"/>
	<circle cx="24.0862" cy="303.997" r="4" fill="#0" id="circle28"/>
	<circle cx="27.3259" cy="115.446" r="4" fill="#0" id="circle29"/>
	<circle cx="28.6218" cy="309.181" r="4" fill="#0" id="circle30"/>
	<circle cx="32.5095" cy="110.911" r="4" fill="#0" id="circle31"/>
	<circle cx="33.8054" cy="313.717" r="4" fill="#0" id="circle32"/>
	<circle cx="37.0451" cy="105.727" r="4" fill="#0" id="circle33"/>
	<circle cx="39.6368" cy="316.956" r="4" fill="#0" id="circle34"/>
	<circle cx="42.2286" cy="101.191" r="4" fill="#0" id="circle35"/>
	<circle cx="46.1163" cy="318.9" r="4" fill="#0" id="circle36"/>
	<circle cx="48.0601" cy="97.9517" r="4" fill="#0" id="circle37"/>
	<circle cx="50.0039" cy="324.084" r="4" fill="#0" id="circle38"/>
	<circle cx="54.5395" cy="97.9517" r="4" fill="#0" id="circle39"/>
	<circle cx="56.4833" cy="326.675" r="4" fill="#0" id="circle40"/>
	<circle cx="59.7231" cy="92.7681" r="4" fill="#0" id="circle41"/>
	<circle cx="62.3148" cy="329.915" r="4" fill="#0" id="circle42"/>
	<circle cx="64.9066" cy="88.2325" r="4" fill="#0" id="circle43"/>
	<circle cx="68.7943" cy="331.859" r="4" fill="#0" id="circle44"/>
	<circle cx="70.7381" cy="84.9928" r="4" fill="#0" id="circle45"/>
	<circle cx="74.6257" cy="335.099" r="4" fill="#0" id="circle46"/>
	<circle cx="77.2175" cy="81.7531" r="4" fill="#0" id="circle47"/>
	<circle cx="80.4572" cy="338.338" r="4" fill="#0" id="circle48"/>
	<circle cx="83.6969" cy="78.5134" r="4" fill="#0" id="circle49"/>
	<circle cx="86.9366" cy="338.338" r="4" fill="#0" id="circle50"/>
	<circle cx="90.1764" cy="75.2737" r="4" fill="#0" id="circle51"/>
	<circle cx="92.7681" cy="341.578" r="4" fill="#0" id="circle52"/>
	<circle cx="96.6558" cy="75.2737" r="4" fill="#0" id="circle53"/>
	<circle cx="99.2476" cy="341.578" r="4" fill="#0" id="circle54"/>
	<circle cx="102.487" cy="72.034" r="4" fill="#0" id="circle55"/>
	<circle cx="105.079" cy="344.818" r="4" fill="#0" id="circle56"/>
	<circle cx="108.967" cy="72.034" r="4" fill="#0" id="circle57"/>
	<circle cx="110.911" cy="348.057" r="4" fill="#0" id="circle58"/>
	<circle cx="115.446" cy="69.4422" r="4" fill="#0" id="circle59"/>
	<circle cx="117.39" cy="348.057" r="4" fill="#0" id="circle60"/>
	<circle cx="121.926" cy="66.2025" r="4" fill="#0" id="circle61"/>
	<circle cx="123.221" cy="351.297" r="4" fill="#0" id="circle62"/>
	<circle cx="128.405" cy="65.5545" r="4" fill="#0" id="circle63"/>
	<circle cx="129.053" cy="354.537" r="4" fill="#0" id="circle64"/>
	<circle cx="134.884" cy="62.9628" r="4" fill="#0" id="circle65"/>
	<circle cx="135.532" cy="357.129" r="4" fill="#0" id="circle66"/>
	<circle cx="141.364" cy="59.7231" r="4" fill="#0" id="circle67"/>
	<circle cx="142.012" cy="357.777" r="4" fill="#0" id="circle68"/>
	<circle cx="144.604" cy="53.2436" r="4" fill="#0" id="circle69"/>
	<circle cx="148.491" cy="360.368" r="4" fill="#0" id="circle70"/>
	<circle cx="149.787" cy="49.356" r="4" fill="#0" id="circle71"/>
	<circle cx="154.323" cy="363.608" r="4" fill="#0" id="circle72"/>
	<circle cx="155.619" cy="46.1163" r="4" fill="#0" id="circle73"/>
	<circle cx="160.802" cy="364.256" r="4" fill="#0" id="circle74"/>
	<circle cx="162.098" cy="46.1163" r="4" fill="#0" id="circle75"/>
	<circle cx="167.282" cy="364.256" r="4" fill="#0" id="circle76"/>
	<circle cx="167.929" cy="42.8766" r="4" fill="#0" id="circle77"/>
	<circle cx="173.113" cy="367.496" r="4" fill="#0" id="circle78"/>
	<circle cx="174.409" cy="39.6368" r="4" fill="#0" id="circle79"/>
	<circle cx="178.944" cy="370.735" r="4" fill="#0" id="circle80"/>
	<circle cx="180.888" cy="39.6368" r="4" fill="#0" id="circle81"/>
	<circle cx="185.424" cy="370.735" r="4" fill="#0" id="circle82"/>
	<circle cx="187.368" cy="36.3971" r="4" fill="#0" id="circle83"/>
	<circle cx="191.903" cy="370.735" r="4" fill="#0" id="circle84"/>
	<circle cx="193.847" cy="33.1574" r="4" fill="#0" id="circle85"/>
	<circle cx="197.735" cy="373.975" r="4" fill="#0" id="circle86"/>
	<circle cx="200.327" cy="33.1574" r="4" fill="#0" id="circle87"/>
	<circle cx="204.214" cy="373.975" r="4" fill="#0" id="circle88"/>
	<circle cx="206.806" cy="33.1574" r="4" fill="#0" id="circle89"/>
	<circle cx="210.046" cy="377.215" r="4" fill="#0" id="circle90"/>
	<circle cx="213.285" cy="29.9177" r="4" fill="#0" id="circle91"/>
	<circle cx="215.877" cy="373.975" r="4" fill="#0" id="circle92"/>
	<circle cx="219.765" cy="29.9177" r="4" fill="#0" id="circle93"/>
	<circle cx="221.709" cy="377.215" r="4" fill="#0" id="circle94"/>
	<circle cx="225.596" cy="26.678" r="4" fill="#0" id="circle95"/>
	<circle cx="228.188" cy="377.215" r="4" fill="#0" id="circle96"/>
	<circle cx="232.076" cy="26.678" r="4" fill="#0" id="circle97"/>
	<circle cx="234.02" cy="380.455" r="4" fill="#0" id="circle98"/>
	<circle cx="238.555" cy="24.0862" r="4" fill="#0" id="circle99"/>
	<circle cx="240.499" cy="380.455" r="4" fill="#0" id="circle100"/>
	<circle cx="245.035" cy="23.4383" r="4" fill="#0" id="circle101"/>
	<circle cx="246.978" cy="381.75" r="4" fill="#0" id="circle102"/>
	<circle cx="250.866" cy="20.1986" r="4" fill="#0" id="circle103"/>
	<circle cx="253.458" cy="380.455" r="4" fill="#0" id="circle104"/>
	<circle cx="257.346" cy="20.1986" r="4" fill="#0" id="circle105"/>
	<circle cx="259.289" cy="377.215" r="4" fill="#0" id="circle106"/>
	<circle cx="263.825" cy="20.1986" r="4" fill="#0" id="circle107"/>
	<circle cx="265.121" cy="380.455" r="4" fill="#0" id="circle108"/>
	<circle cx="270.304" cy="20.1986" r="4" fill="#0" id="circle109"/>
	<circle cx="271.6" cy="383.046" r="4" fill="#0" id="circle110"/>
	<circle cx="276.136" cy="16.9589" r="4" fill="#0" id="circle111"/>
	<circle cx="276.136" cy="388.23" r="4" fill="#0" id="circle112"/>
	<circle cx="282.615" cy="16.9589" r="4" fill="#0" id="circle113"/>
	<circle cx="282.615" cy="390.174" r="4" fill="#0" id="circle114"/>
	<circle cx="289.095" cy="16.9589" r="4" fill="#0" id="circle115"/>
	<circle cx="289.095" cy="390.174" r="4" fill="#0" id="circle116"/>
	<circle cx="295.574" cy="15.663" r="4" fill="#0" id="circle117"/>
	<circle cx="295.574" cy="390.174" r="4" fill="#0" id="circle118"/>
	<circle cx="302.054" cy="13.7191" r="4" fill="#0" id="circle119"/>
	<circle cx="302.054" cy="390.174" r="4" fill="#0" id="circle120"/>
	<circle cx="307.885" cy="10.4794" r="4" fill="#0" id="circle121"/>
	<circle cx="307.885" cy="393.413" r="4" fill="#0" id="circle122"/>
	<circle cx="314.364" cy="10.4794" r="4" fill="#0" id="circle123"/>
	<circle cx="314.364" cy="393.413" r="4" fill="#0" id="circle124"/>
	<circle cx="320.196" cy="390.174" r="4" fill="#0" id="circle125"/>
	<circle cx="320.844" cy="10.4794" r="4" fill="#0" id="circle126"/>
	<circle cx="326.675" cy="390.174" r="4" fill="#0" id="circle127"/>
	<circle cx="327.323" cy="10.4794" r="4" fill="#0" id="circle128"/>
	<circle cx="332.507" cy="393.413" r="4" fill="#0" id="circle129"/>
	<circle cx="333.155" cy="7.23971" r="4" fill="#0" id="circle130"/>
	<circle cx="338.986" cy="393.413" r="4" fill="#0" id="circle131"/>
	<circle cx="339.634" cy="7.23971" r="4" fill="#0" id="circle132"/>
	<circle cx="345.466" cy="393.413" r="4" fill="#0" id="circle133"/>
	<circle cx="346.114" cy="7.23971" r="4" fill="#0" id="circle134"/>
	<circle cx="351.945" cy="393.413" r="4" fill="#0" id="circle135"/>
	<circle cx="352.593" cy="7.23971" r="4" fill="#0" id="circle136"/>
	<circle cx="358.425" cy="393.413" r="4" fill="#0" id="circle137"/>
	<circle cx="359.073" cy="7.23971" r="4" fill="#0" id="circle138"/>
	<circle cx="364.256" cy="396.653" r="4" fill="#0" id="circle139"/>
	<circle cx="365.552" cy="7.23971" r="4" fill="#0" id="circle140"/>
	<circle cx="370.088" cy="399.893" r="4" fill="#0" id="circle141"/>
	<circle cx="372.031" cy="7.23971" r="4" fill="#0" id="circle142"/>
	<circle cx="375.919" cy="403.133" r="4" fill="#0" id="circle143"/>
	<circle cx="378.511" cy="7.23971" r="4" fill="#0" id="circle144"/>
	<circle cx="382.398" cy="403.133" r="4" fill="#0" id="circle145"/>
	<circle cx="384.342" cy="4" r="4" fill="#0" id="circle146"/>
	<circle cx="388.878" cy="403.133" r="4" fill="#0" id="circle147"/>
	<circle cx="390.822" cy="4" r="4" fill="#0" id="circle148"/>
	<circle cx="394.709" cy="406.372" r="4" fill="#0" id="circle149"/>
	<circle cx="397.301" cy="4" r="4" fill="#0" id="circle150"/>
	<circle cx="401.189" cy="406.372" r="4" fill="#0" id="circle151"/>
	<circle cx="403.781" cy="4" r="4" fill="#0" id="circle152"/>
	<circle cx="407.668" cy="406.372" r="4" fill="#0" id="circle153"/>
	<circle cx="410.26" cy="4" r="4" fill="#0" id="circle154"/>
	<circle cx="414.148" cy="406.372" r="4" fill="#0" id="circle155"/>
	<circle cx="416.739" cy="4" r="4" fill="#0" id="circle156"/>
	<circle cx="420.627" cy="406.372" r="4" fill="#0" id="circle157"/>
	<circle cx="423.219" cy="4" r="4" fill="#0" id="circle158"/>
	<circle cx="427.106" cy="406.372" r="4" fill="#0" id="circle159"/>
	<circle cx="429.698" cy="4" r="4" fill="#0" id="circle160"/>
	<circle cx="433.586" cy="406.372" r="4" fill="#0" id="circle161"/>
	<circle cx="436.178" cy="4" r="4" fill="#0" id="circle162"/>
	<circle cx="440.065" cy="406.372" r="4" fill="#0" id="circle163"/>
	<circle cx="442.657" cy="4" r="4" fill="#0" id="circle164"/>
	<circle cx="446.545" cy="406.372" r="4" fill="#0" id="circle165"/>
	<circle cx="449.137" cy="4" r="4" fill="#0" id="circle166"/>
	<circle cx="453.024" cy="406.372" r="4" fill="#0" id="circle167"/>
	<circle cx="454.968" cy="7.23971" r="4" fill="#0" id="circle168"/>
	<circle cx="459.504" cy="406.372" r="4" fill="#0" id="circle169"/>
	<circle cx="461.447" cy="7.23971" r="4" fill="#0" id="circle170"/>
	<circle cx="465.983" cy="406.372" r="4" fill="#0" id="circle171"/>
	<circle cx="467.927" cy="7.23971" r="4" fill="#0" id="circle172"/>
	<circle cx="471.815" cy="409.612" r="4" fill="#0" id="circle173"/>
	<circle cx="474.406" cy="9.18354" r="4" fill="#0" id="circle174"/>
	<circle cx="477.646" cy="406.372" r="4" fill="#0" id="circle175"/>
	<circle cx="480.238" cy="12.4233" r="4" fill="#0" id="circle176"/>
	<circle cx="484.125" cy="406.372" r="4" fill="#0" id="circle177"/>
	<circle cx="485.421" cy="16.9589" r="4" fill="#0" id="circle178"/>
	<circle cx="489.957" cy="403.133" r="4" fill="#0" id="circle179"/>
	<circle cx="491.253" cy="20.1986" r="4" fill="#0" id="circle180"/>
	<circle cx="495.14" cy="399.245" r="4" fill="#0" id="circle181"/>
	<circle cx="496.436" cy="24.7342" r="4" fill="#0" id="circle182"/>
	<circle cx="500.324" cy="29.9177" r="4" fill="#0" id="circle183"/>
	<circle cx="500.324" cy="393.413" r="4" fill="#0" id="circle184"/>
	<circle cx="503.564" cy="35.7492" r="4" fill="#0" id="circle185"/>
	<circle cx="503.564" cy="386.934" r="4" fill="#0" id="circle186"/>
	<circle cx="506.803" cy="41.5807" r="4" fill="#0" id="circle187"/>
	<circle cx="508.747" cy="382.398" r="4" fill="#0" id="circle188"/>
	<circle cx="510.043" cy="47.4121" r="4" fill="#0" id="circle189"/>
	<circle cx="513.283" cy="377.215" r="4" fill="#0" id="circle190"/>
	<circle cx="513.931" cy="52.5957" r="4" fill="#0" id="circle191"/>
	<circle cx="516.523" cy="59.0751" r="4" fill="#0" id="circle192"/>
	<circle cx="516.523" cy="370.735" r="4" fill="#0" id="circle193"/>
	<circle cx="519.762" cy="64.9066" r="4" fill="#0" id="circle194"/>
	<circle cx="519.762" cy="364.256" r="4" fill="#0" id="circle195"/>
	<circle cx="523.002" cy="70.7381" r="4" fill="#0" id="circle196"/>
	<circle cx="523.002" cy="357.777" r="4" fill="#0" id="circle197"/>
	<circle cx="526.242" cy="76.5696" r="4" fill="#0" id="circle198"/>
	<circle cx="526.242" cy="351.297" r="4" fill="#0" id="circle199"/>
	<circle cx="529.481" cy="82.401" r="4" fill="#0" id="circle200"/>
	<circle cx="529.481" cy="341.578" r="4" fill="#0" id="circle201"/>
	<circle cx="532.721" cy="88.2325" r="4" fill="#0" id="circle202"/>
	<circle cx="532.721" cy="94.712" r="4" fill="#0" id="circle203"/>
	<circle cx="532.721" cy="335.099" r="4" fill="#0" id="circle204"/>
	<circle cx="535.961" cy="100.543" r="4" fill="#0" id="circle205"/>
	<circle cx="537.905" cy="330.563" r="4" fill="#0" id="circle206"/>
	<circle cx="539.201" cy="106.375" r="4" fill="#0" id="circle207"/>
	<circle cx="541.144" cy="324.084" r="4" fill="#0" id="circle208"/>
	<circle cx="541.792" cy="112.854" r="4" fill="#0" id="circle209"/>
	<circle cx="547.624" cy="320.844" r="4" fill="#0" id="circle210"/>
	<circle cx="548.272" cy="115.446" r="4" fill="#0" id="circle211"/>
	<circle cx="552.159" cy="315.66" r="4" fill="#0" id="circle212"/>
	<circle cx="554.103" cy="118.686" r="4" fill="#0" id="circle213"/>
	<circle cx="557.343" cy="311.125" r="4" fill="#0" id="circle214"/>
	<circle cx="560.583" cy="121.278" r="4" fill="#0" id="circle215"/>
	<circle cx="563.822" cy="307.885" r="4" fill="#0" id="circle216"/>
	<circle cx="565.118" cy="126.461" r="4" fill="#0" id="circle217"/>
	<circle cx="570.302" cy="130.997" r="4" fill="#0" id="circle218"/>
	<circle cx="570.302" cy="305.941" r="4" fill="#0" id="circle219"/>
	<circle cx="574.837" cy="136.18" r="4" fill="#0" id="circle220"/>
	<circle cx="576.781" cy="304.645" r="4" fill="#0" id="circle221"/>
	<circle cx="580.021" cy="140.068" r="4" fill="#0" id="circle222"/>
	<circle cx="583.261" cy="302.702" r="4" fill="#0" id="circle223"/>
	<circle cx="585.852" cy="143.308" r="4" fill="#0" id="circle224"/>
	<circle cx="589.74" cy="302.702" r="4" fill="#0" id="circle225"/>
	<circle cx="592.332" cy="143.308" r="4" fill="#0" id="circle226"/>
	<circle cx="595.572" cy="298.814" r="4" fill="#0" id="circle227"/>
	<circle cx="598.811" cy="143.308" r="4" fill="#0" id="circle228"/>
	<circle cx="600.755" cy="292.982" r="4" fill="#0" id="circle229"/>
	<circle cx="603.995" cy="286.503" r="4" fill="#0" id="circle230"/>
	<circle cx="605.291" cy="143.308" r="4" fill="#0" id="circle231"/>
	<circle cx="607.234" cy="280.024" r="4" fill="#0" id="circle232"/>
	<circle cx="610.474" cy="273.544" r="4" fill="#0" id="circle233"/>
	<circle cx="611.77" cy="143.308" r="4" fill="#0" id="circle234"/>
	<circle cx="615.658" cy="269.008" r="4" fill="#0" id="circle235"/>
	<circle cx="618.25" cy="143.308" r="4" fill="#0" id="circle236"/>
	<circle cx="622.137" cy="265.769" r="4" fill="#0" id="circle237"/>
	<circle cx="624.729" cy="143.308" r="4" fill="#0" id="circle238"/>
	<circle cx="628.617" cy="262.529" r="4" fill="#0" id="circle239"/>
	<circle cx="631.208" cy="143.308" r="4" fill="#0" id="circle240"/>
	<circle cx="633.152" cy="257.346" r="4" fill="#0" id="circle241"/>
	<circle cx="637.688" cy="143.308" r="4" fill="#0" id="circle242"/>
	<circle cx="638.336" cy="252.81" r="4" fill="#0" id="circle243"/>
	<circle cx="642.871" cy="247.626" r="4" fill="#0" id="circle244"/>
	<circle cx="644.167" cy="143.308" r="4" fill="#0" id="circle245"/>
	<circle cx="649.351" cy="244.387" r="4" fill="#0" id="circle246"/>
	<circle cx="650.647" cy="143.308" r="4" fill="#0" id="circle247"/>
	<circle cx="655.83" cy="241.147" r="4" fill="#0" id="circle248"/>
	<circle cx="657.126" cy="143.308" r="4" fill="#0" id="circle249"/>
	<circle cx="662.31" cy="241.147" r="4" fill="#0" id="circle250"/>
	<circle cx="663.605" cy="143.308" r="4" fill="#0" id="circle251"/>
	<circle cx="668.141" cy="237.907" r="4" fill="#0" id="circle252"/>
	<circle cx="670.085" cy="143.308" r="4" fill="#0" id="circle253"/>
	<circle cx="674.621" cy="237.907" r="4" fill="#0" id="circle254"/>
	<circle cx="676.564" cy="143.308" r="4" fill="#0" id="circle255"/>
	<circle cx="681.1" cy="237.907" r="4" fill="#0" id="circle256"/>
	<circle cx="683.044" cy="143.308" r="4" fill="#0" id="circle257"/>
	<circle cx="686.931" cy="241.147" r="4" fill="#0" id="circle258"/>
	<circle cx="689.523" cy="143.308" r="4" fill="#0" id="circle259"/>
	<circle cx="692.763" cy="244.387" r="4" fill="#0" id="circle260"/>
	<circle cx="696.003" cy="143.308" r="4" fill="#0" id="circle261"/>
	<circle cx="698.594" cy="247.626" r="4" fill="#0" id="circle262"/>
	<circle cx="702.482" cy="143.308" r="4" fill="#0" id="circle263"/>
	<circle cx="703.778" cy="251.514" r="4" fill="#0" id="circle264"/>
	<circle cx="708.961" cy="143.308" r="4" fill="#0" id="circle265"/>
	<circle cx="710.257" cy="254.106" r="4" fill="#0" id="circle266"/>
	<circle cx="715.441" cy="143.308" r="4" fill="#0" id="circle267"/>
	<circle cx="716.737" cy="254.106" r="4" fill="#0" id="circle268"/>
	<circle cx="721.92" cy="143.308" r="4" fill="#0" id="circle269"/>
	<circle cx="723.216" cy="252.162" r="4" fill="#0" id="circle270"/>
	<circle cx="728.4" cy="143.308" r="4" fill="#0" id="circle271"/>
	<circle cx="729.696" cy="250.866" r="4" fill="#0" id="circle272"/>
	<circle cx="734.879" cy="143.308" r="4" fill="#0" id="circle273"/>
	<circle cx="736.175" cy="250.866" r="4" fill="#0" id="circle274"/>
	<circle cx="741.359" cy="143.308" r="4" fill="#0" id="circle275"/>
	<circle cx="742.654" cy="250.866" r="4" fill="#0" id="circle276"/>
	<circle cx="747.838" cy="143.308" r="4" fill="#0" id="circle277"/>
	<circle cx="749.134" cy="250.866" r="4" fill="#0" id="circle278"/>
	<circle cx="754.317" cy="143.308" r="4" fill="#0" id="circle279"/>
	<circle cx="754.965" cy="254.106" r="4" fill="#0" id="circle280"/>
	<circle cx="760.797" cy="143.308" r="4" fill="#0" id="circle281"/>
	<circle cx="761.445" cy="254.106" r="4" fill="#0" id="circle282"/>
	<circle cx="767.276" cy="143.308" r="4" fill="#0" id="circle283"/>
	<circle cx="767.924" cy="252.81" r="4" fill="#0" id="circle284"/>
	<circle cx="773.756" cy="143.308" r="4" fill="#0" id="circle285"/>
	<circle cx="774.404" cy="249.57" r="4" fill="#0" id="circle286"/>
	<circle cx="778.939" cy="244.387" r="4" fill="#0" id="circle287"/>
	<circle cx="780.235" cy="143.308" r="4" fill="#0" id="circle288"/>
	<circle cx="784.771" cy="241.147" r="4" fill="#0" id="circle289"/>
	<circle cx="786.715" cy="143.308" r="4" fill="#0" id="circle290"/>
	<circle cx="790.602" cy="237.907" r="4" fill="#0" id="circle291"/>
	<circle cx="793.194" cy="143.308" r="4" fill="#0" id="circle292"/>
	<circle cx="796.434" cy="234.668" r="4" fill="#0" id="circle293"/>
	<circle cx="799.673" cy="143.308" r="4" fill="#0" id="circle294"/>
	<circle cx="802.913" cy="234.668" r="4" fill="#0" id="circle295"/>
	<circle cx="806.153" cy="143.308" r="4" fill="#0" id="circle296"/>
	<circle cx="809.393" cy="234.668" r="4" fill="#0" id="circle297"/>
	<circle cx="812.632" cy="143.308" r="4" fill="#0" id="circle298"/>
	<circle cx="815.872" cy="237.259" r="4" fill="#0" id="circle299"/>
	<circle cx="819.112" cy="143.308" r="4" fill="#0" id="circle300"/>
	<circle cx="821.703" cy="240.499" r="4" fill="#0" id="circle301"/>
	<circle cx="825.591" cy="143.308" r="4" fill="#0" id="circle302"/>
	<circle cx="828.183" cy="243.091" r="4" fill="#0" id="circle303"/>
	<circle cx="832.071" cy="143.308" r="4" fill="#0" id="circle304"/>
	<circle cx="834.014" cy="246.331" r="4" fill="#0" id="circle305"/>
	<circle cx="838.55" cy="143.308" r="4" fill="#0" id="circle306"/>
	<circle cx="840.494" cy="248.922" r="4" fill="#0" id="circle307"/>
	<circle cx="845.029" cy="143.308" r="4" fill="#0" id="circle308"/>
	<circle cx="846.973" cy="250.866" r="4" fill="#0" id="circle309"/>
	<circle cx="851.509" cy="143.308" r="4" fill="#0" id="circle310"/>
	<circle cx="853.453" cy="250.866" r="4" fill="#0" id="circle311"/>
	<circle cx="857.988" cy="143.308" r="4" fill="#0" id="circle312"/>
	<circle cx="859.932" cy="247.626" r="4" fill="#0" id="circle313"/>
	<circle cx="864.468" cy="143.308" r="4" fill="#0" id="circle314"/>
	<circle cx="866.411" cy="247.626" r="4" fill="#0" id="circle315"/>
	<circle cx="870.947" cy="143.308" r="4" fill="#0" id="circle316"/>
	<circle cx="872.891" cy="247.626" r="4" fill="#0" id="circle317"/>
	<circle cx="877.427" cy="143.308" r="4" fill="#0" id="circle318"/>
	<circle cx="879.37" cy="248.922" r="4" fill="#0" id="circle319"/>
	<circle cx="883.906" cy="143.308" r="4" fill="#0" id="circle320"/>
	<circle cx="885.85" cy="250.866" r="4" fill="#0" id="circle321"/>
	<circle cx="890.385" cy="143.308" r="4" fill="#0" id="circle322"/>
	<circle cx="892.329" cy="252.162" r="4" fill="#0" id="circle323"/>
	<circle cx="896.865" cy="143.308" r="4" fill="#0" id="circle324"/>
	<circle cx="898.809" cy="254.106" r="4" fill="#0" id="circle325"/>
	<circle cx="903.344" cy="143.308" r="4" fill="#0" id="circle326"/>
	<circle cx="905.288" cy="254.106" r="4" fill="#0" id="circle327"/>
	<circle cx="909.824" cy="143.308" r="4" fill="#0" id="circle328"/>
	<circle cx="911.767" cy="254.106" r="4" fill="#0" id="circle329"/>
	<circle cx="916.303" cy="143.308" r="4" fill="#0" id="circle330"/>
	<circle cx="917.599" cy="250.866" r="4" fill="#0" id="circle331"/>
	<circle cx="922.782" cy="143.308" r="4" fill="#0" id="circle332"/>
	<circle cx="923.43" cy="247.626" r="4" fill="#0" id="circle333"/>
	<circle cx="929.262" cy="143.308" r="4" fill="#0" id="circle334"/>
	<circle cx="929.91" cy="247.626" r="4" fill="#0" id="circle335"/>
	<circle cx="935.741" cy="143.308" r="4" fill="#0" id="circle336"/>
	<circle cx="935.741" cy="244.387" r="4" fill="#0" id="circle337"/>
	<circle cx="941.573" cy="146.547" r="4" fill="#0" id="circle338"/>
	<circle cx="941.573" cy="241.147" r="4" fill="#0" id="circle339"/>
	<circle cx="947.404" cy="237.907" r="4" fill="#0" id="circle340"/>
	<circle cx="948.052" cy="146.547" r="4" fill="#0" id="circle341"/>
	<circle cx="953.884" cy="234.668" r="4" fill="#0" id="circle342"/>
	<circle cx="954.532" cy="146.547" r="4" fill="#0" id="circle343"/>
	<circle cx="959.715" cy="231.428" r="4" fill="#0" id="circle344"/>
	<circle cx="961.011" cy="146.547" r="4" fill="#0" id="circle345"/>
	<circle cx="964.899" cy="227.54" r="4" fill="#0" id="circle346"/>
	<circle cx="966.843" cy="149.787" r="4" fill="#0" id="circle347"/>
	<circle cx="970.082" cy="218.469" r="4" fill="#0" id="circle348"/>
	<circle cx="972.674" cy="153.027" r="4" fill="#0" id="circle349"/>
	<circle cx="975.266" cy="213.933" r="4" fill="#0" id="circle350"/>
	<circle cx="978.506" cy="156.266" r="4" fill="#0" id="circle351"/>
	<circle cx="978.506" cy="207.454" r="4" fill="#0" id="circle352"/>
	<circle cx="981.745" cy="200.975" r="4" fill="#0" id="circle353"/>
	<circle cx="984.337" cy="159.506" r="4" fill="#0" id="circle354"/>
	<circle cx="986.281" cy="195.791" r="4" fill="#0" id="circle355"/>
	<circle cx="988.873" cy="164.69" r="4" fill="#0" id="circle356"/>
	<circle cx="991.464" cy="191.255" r="4" fill="#0" id="circle357"/>
	<circle cx="992.76" cy="169.873" r="4" fill="#0" id="circle358"/>
	<circle cx="996" cy="175.705" r="4" fill="#0" id="circle359"/>
	<circle cx="996" cy="182.184" r="4" fill="#0" id="circle360"/>
	</g>
</svg>