<?xml version="1.0" encoding="UTF-8" standalone="no"?>
<!-- Created with CurveBenchmark -->
<svg
	xmlns:dc="http://purl.org/dc/elements/1.1/"
	xmlns:cc="http://creativecommons.org/ns#"
	xmlns:rdf="http://www.w3.org/1999/02/22-rdf-syntax-ns#"
	xmlns:svg="http://www.w3.org/2000/svg"
	xmlns="http://www.w3.org/2000/svg"
	xmlns:sodipodi="http://sodipodi.sourceforge.net/DTD/sodipodi-0.dtd"
	xmlns:inkscape="http://www.inkscape.org/namespaces/inkscape"
	width="1000"
	height="1000"
	id="svg2"
	version="1.1"
	sodipodi:docname="manifold/peel-bird07.png.txt">
<defs
	id="defs4" />
<metadata
	id="metadata7">
	<rdf:RDF>
		<cc:Work
			rdf:about="">
			<dc:format>image/svg+xml</dc:format>
			<dc:type
				rdf:resource="http://purl.org/dc/dcmitype/StillImage" />
			<dc:title></dc:title>
		</cc:Work>
	</rdf:RDF>
</metadata>
<g
	inkscape:label="Layer 1"
	inkscape:groupmode="layer"
	id="layer1">
	<path style="fill:none;stroke:red;stroke-width:1px;stroke-linecap:butt;stroke-linejoin:miter;stroke-opacity:1" d="M 18.0212,100.396 4,88.1272 z" id="boundary" inkscape:connector-curvature="0" />
	<path style="fill:none;stroke:red;stroke-width:1px;stroke-linecap:butt;stroke-linejoin:miter;stroke-opacity:1" d="M 4,88.1272 4,70.6007 z" id="boundary" inkscape:connector-curvature="0" />
	<path style="fill:none;stroke:red;stroke-width:1px;stroke-linecap:butt;stroke-linejoin:miter;stroke-opacity:1" d="M 4,70.6007 18.0212,56.5795 z" id="boundary" inkscape:connector-curvature="0" />
	<path style="fill:none;stroke:red;stroke-width:1px;stroke-linecap:butt;stroke-linejoin:miter;stroke-opacity:1" d="M 33.7951,47.8163 18.0212,56.5795 z" id="boundary" inkscape:connector-curvature="0" />
	<path style="fill:none;stroke:red;stroke-width:1px;stroke-linecap:butt;stroke-linejoin:miter;stroke-opacity:1" d="M 35.5477,102.148 18.0212,100.396 z" id="boundary" inkscape:connector-curvature="0" />
	<path style="fill:none;stroke:red;stroke-width:1px;stroke-linecap:butt;stroke-linejoin:miter;stroke-opacity:1" d="M 49.5689,39.053 33.7951,47.8163 z" id="boundary" inkscape:connector-curvature="0" />
	<path style="fill:none;stroke:red;stroke-width:1px;stroke-linecap:butt;stroke-linejoin:miter;stroke-opacity:1" d="M 53.0742,109.159 56.5795,126.686 z" id="boundary" inkscape:connector-curvature="0" />
	<path style="fill:none;stroke:red;stroke-width:1px;stroke-linecap:butt;stroke-linejoin:miter;stroke-opacity:1" d="M 53.0742,109.159 35.5477,102.148 z" id="boundary" inkscape:connector-curvature="0" />
	<path style="fill:none;stroke:red;stroke-width:1px;stroke-linecap:butt;stroke-linejoin:miter;stroke-opacity:1" d="M 65.3428,30.2898 49.5689,39.053 z" id="boundary" inkscape:connector-curvature="0" />
	<path style="fill:none;stroke:red;stroke-width:1px;stroke-linecap:butt;stroke-linejoin:miter;stroke-opacity:1" d="M 65.3428,30.2898 81.1166,21.5265 z" id="boundary" inkscape:connector-curvature="0" />
	<path style="fill:none;stroke:red;stroke-width:1px;stroke-linecap:butt;stroke-linejoin:miter;stroke-opacity:1" d="M 67.0954,140.707 56.5795,126.686 z" id="boundary" inkscape:connector-curvature="0" />
	<path style="fill:none;stroke:red;stroke-width:1px;stroke-linecap:butt;stroke-linejoin:miter;stroke-opacity:1" d="M 56.5795,421.131 56.5795,403.604 z" id="boundary" inkscape:connector-curvature="0" />
	<path style="fill:none;stroke:red;stroke-width:1px;stroke-linecap:butt;stroke-linejoin:miter;stroke-opacity:1" d="M 65.3428,368.551 65.3428,386.078 z" id="boundary" inkscape:connector-curvature="0" />
	<path style="fill:none;stroke:red;stroke-width:1px;stroke-linecap:butt;stroke-linejoin:miter;stroke-opacity:1" d="M 65.3428,386.078 56.5795,403.604 z" id="boundary" inkscape:connector-curvature="0" />
	<path style="fill:none;stroke:red;stroke-width:1px;stroke-linecap:butt;stroke-linejoin:miter;stroke-opacity:1" d="M 145.965,9.25795 161.739,18.0212 z" id="boundary" inkscape:connector-curvature="0" />
	<path style="fill:none;stroke:red;stroke-width:1px;stroke-linecap:butt;stroke-linejoin:miter;stroke-opacity:1" d="M 65.3428,436.905 56.5795,421.131 z" id="boundary" inkscape:connector-curvature="0" />
	<path style="fill:none;stroke:red;stroke-width:1px;stroke-linecap:butt;stroke-linejoin:miter;stroke-opacity:1" d="M 65.3428,368.551 74.106,351.025 z" id="boundary" inkscape:connector-curvature="0" />
	<path style="fill:none;stroke:red;stroke-width:1px;stroke-linecap:butt;stroke-linejoin:miter;stroke-opacity:1" d="M 65.3428,454.431 65.3428,436.905 z" id="boundary" inkscape:connector-curvature="0" />
	<path style="fill:none;stroke:red;stroke-width:1px;stroke-linecap:butt;stroke-linejoin:miter;stroke-opacity:1" d="M 266.898,280.919 275.661,296.693 z" id="boundary" inkscape:connector-curvature="0" />
	<path style="fill:none;stroke:red;stroke-width:1px;stroke-linecap:butt;stroke-linejoin:miter;stroke-opacity:1" d="M 91.6325,298.445 82.8693,324.735 z" id="boundary" inkscape:connector-curvature="0" />
	<path style="fill:none;stroke:red;stroke-width:1px;stroke-linecap:butt;stroke-linejoin:miter;stroke-opacity:1" d="M 79.364,154.728 67.0954,140.707 z" id="boundary" inkscape:connector-curvature="0" />
	<path style="fill:none;stroke:red;stroke-width:1px;stroke-linecap:butt;stroke-linejoin:miter;stroke-opacity:1" d="M 74.106,470.205 65.3428,454.431 z" id="boundary" inkscape:connector-curvature="0" />
	<path style="fill:none;stroke:red;stroke-width:1px;stroke-linecap:butt;stroke-linejoin:miter;stroke-opacity:1" d="M 74.106,351.025 82.8693,324.735 z" id="boundary" inkscape:connector-curvature="0" />
	<path style="fill:none;stroke:red;stroke-width:1px;stroke-linecap:butt;stroke-linejoin:miter;stroke-opacity:1" d="M 74.106,487.731 74.106,470.205 z" id="boundary" inkscape:connector-curvature="0" />
	<path style="fill:none;stroke:red;stroke-width:1px;stroke-linecap:butt;stroke-linejoin:miter;stroke-opacity:1" d="M 100.396,280.919 100.396,263.392 z" id="boundary" inkscape:connector-curvature="0" />
	<path style="fill:none;stroke:red;stroke-width:1px;stroke-linecap:butt;stroke-linejoin:miter;stroke-opacity:1" d="M 79.364,505.258 74.106,487.731 z" id="boundary" inkscape:connector-curvature="0" />
	<path style="fill:none;stroke:red;stroke-width:1px;stroke-linecap:butt;stroke-linejoin:miter;stroke-opacity:1" d="M 81.1166,21.5265 93.3852,7.5053 z" id="boundary" inkscape:connector-curvature="0" />
	<path style="fill:none;stroke:red;stroke-width:1px;stroke-linecap:butt;stroke-linejoin:miter;stroke-opacity:1" d="M 93.3852,7.5053 110.912,4 z" id="boundary" inkscape:connector-curvature="0" />
	<path style="fill:none;stroke:red;stroke-width:1px;stroke-linecap:butt;stroke-linejoin:miter;stroke-opacity:1" d="M 82.8693,522.784 79.364,505.258 z" id="boundary" inkscape:connector-curvature="0" />
	<path style="fill:none;stroke:red;stroke-width:1px;stroke-linecap:butt;stroke-linejoin:miter;stroke-opacity:1" d="M 145.965,9.25795 128.438,4 z" id="boundary" inkscape:connector-curvature="0" />
	<path style="fill:none;stroke:red;stroke-width:1px;stroke-linecap:butt;stroke-linejoin:miter;stroke-opacity:1" d="M 245.866,251.124 242.36,233.597 z" id="boundary" inkscape:connector-curvature="0" />
	<path style="fill:none;stroke:red;stroke-width:1px;stroke-linecap:butt;stroke-linejoin:miter;stroke-opacity:1" d="M 242.36,233.597 242.36,216.071 z" id="boundary" inkscape:connector-curvature="0" />
	<path style="fill:none;stroke:red;stroke-width:1px;stroke-linecap:butt;stroke-linejoin:miter;stroke-opacity:1" d="M 91.6325,538.558 82.8693,522.784 z" id="boundary" inkscape:connector-curvature="0" />
	<path style="fill:none;stroke:red;stroke-width:1px;stroke-linecap:butt;stroke-linejoin:miter;stroke-opacity:1" d="M 79.364,154.728 93.3852,166.996 z" id="boundary" inkscape:connector-curvature="0" />
	<path style="fill:none;stroke:red;stroke-width:1px;stroke-linecap:butt;stroke-linejoin:miter;stroke-opacity:1" d="M 93.3852,166.996 100.396,184.523 z" id="boundary" inkscape:connector-curvature="0" />
	<path style="fill:none;stroke:red;stroke-width:1px;stroke-linecap:butt;stroke-linejoin:miter;stroke-opacity:1" d="M 91.6325,556.085 91.6325,538.558 z" id="boundary" inkscape:connector-curvature="0" />
	<path style="fill:none;stroke:red;stroke-width:1px;stroke-linecap:butt;stroke-linejoin:miter;stroke-opacity:1" d="M 128.438,4 110.912,4 z" id="boundary" inkscape:connector-curvature="0" />
	<path style="fill:none;stroke:red;stroke-width:1px;stroke-linecap:butt;stroke-linejoin:miter;stroke-opacity:1" d="M 100.396,263.392 100.396,245.866 z" id="boundary" inkscape:connector-curvature="0" />
	<path style="fill:none;stroke:red;stroke-width:1px;stroke-linecap:butt;stroke-linejoin:miter;stroke-opacity:1" d="M 91.6325,298.445 100.396,280.919 z" id="boundary" inkscape:connector-curvature="0" />
	<path style="fill:none;stroke:red;stroke-width:1px;stroke-linecap:butt;stroke-linejoin:miter;stroke-opacity:1" d="M 109.159,210.813 109.159,228.339 z" id="boundary" inkscape:connector-curvature="0" />
	<path style="fill:none;stroke:red;stroke-width:1px;stroke-linecap:butt;stroke-linejoin:miter;stroke-opacity:1" d="M 242.36,216.071 242.36,198.544 z" id="boundary" inkscape:connector-curvature="0" />
	<path style="fill:none;stroke:red;stroke-width:1px;stroke-linecap:butt;stroke-linejoin:miter;stroke-opacity:1" d="M 100.396,184.523 109.159,210.813 z" id="boundary" inkscape:connector-curvature="0" />
	<path style="fill:none;stroke:red;stroke-width:1px;stroke-linecap:butt;stroke-linejoin:miter;stroke-opacity:1" d="M 100.396,245.866 109.159,228.339 z" id="boundary" inkscape:connector-curvature="0" />
	<path style="fill:none;stroke:red;stroke-width:1px;stroke-linecap:butt;stroke-linejoin:miter;stroke-opacity:1" d="M 102.148,570.106 91.6325,556.085 z" id="boundary" inkscape:connector-curvature="0" />
	<path style="fill:none;stroke:red;stroke-width:1px;stroke-linecap:butt;stroke-linejoin:miter;stroke-opacity:1" d="M 109.159,587.633 102.148,570.106 z" id="boundary" inkscape:connector-curvature="0" />
	<path style="fill:none;stroke:red;stroke-width:1px;stroke-linecap:butt;stroke-linejoin:miter;stroke-opacity:1" d="M 231.845,96.8905 219.576,82.8693 z" id="boundary" inkscape:connector-curvature="0" />
	<path style="fill:none;stroke:red;stroke-width:1px;stroke-linecap:butt;stroke-linejoin:miter;stroke-opacity:1" d="M 286.177,310.714 294.94,326.488 z" id="boundary" inkscape:connector-curvature="0" />
	<path style="fill:none;stroke:red;stroke-width:1px;stroke-linecap:butt;stroke-linejoin:miter;stroke-opacity:1" d="M 189.781,39.053 179.265,25.0318 z" id="boundary" inkscape:connector-curvature="0" />
	<path style="fill:none;stroke:red;stroke-width:1px;stroke-linecap:butt;stroke-linejoin:miter;stroke-opacity:1" d="M 179.265,25.0318 161.739,18.0212 z" id="boundary" inkscape:connector-curvature="0" />
	<path style="fill:none;stroke:red;stroke-width:1px;stroke-linecap:butt;stroke-linejoin:miter;stroke-opacity:1" d="M 117.922,603.406 109.159,587.633 z" id="boundary" inkscape:connector-curvature="0" />
	<path style="fill:none;stroke:red;stroke-width:1px;stroke-linecap:butt;stroke-linejoin:miter;stroke-opacity:1" d="M 126.686,619.18 117.922,603.406 z" id="boundary" inkscape:connector-curvature="0" />
	<path style="fill:none;stroke:red;stroke-width:1px;stroke-linecap:butt;stroke-linejoin:miter;stroke-opacity:1" d="M 137.201,633.201 126.686,619.18 z" id="boundary" inkscape:connector-curvature="0" />
	<path style="fill:none;stroke:red;stroke-width:1px;stroke-linecap:butt;stroke-linejoin:miter;stroke-opacity:1" d="M 189.781,39.053 203.802,49.5689 z" id="boundary" inkscape:connector-curvature="0" />
	<path style="fill:none;stroke:red;stroke-width:1px;stroke-linecap:butt;stroke-linejoin:miter;stroke-opacity:1" d="M 203.802,49.5689 210.813,67.0954 z" id="boundary" inkscape:connector-curvature="0" />
	<path style="fill:none;stroke:red;stroke-width:1px;stroke-linecap:butt;stroke-linejoin:miter;stroke-opacity:1" d="M 145.965,648.975 137.201,633.201 z" id="boundary" inkscape:connector-curvature="0" />
	<path style="fill:none;stroke:red;stroke-width:1px;stroke-linecap:butt;stroke-linejoin:miter;stroke-opacity:1" d="M 161.739,657.739 145.965,648.975 z" id="boundary" inkscape:connector-curvature="0" />
	<path style="fill:none;stroke:red;stroke-width:1px;stroke-linecap:butt;stroke-linejoin:miter;stroke-opacity:1" d="M 170.502,673.512 161.739,657.739 z" id="boundary" inkscape:connector-curvature="0" />
	<path style="fill:none;stroke:red;stroke-width:1px;stroke-linecap:butt;stroke-linejoin:miter;stroke-opacity:1" d="M 210.813,67.0954 219.576,82.8693 z" id="boundary" inkscape:connector-curvature="0" />
	<path style="fill:none;stroke:red;stroke-width:1px;stroke-linecap:butt;stroke-linejoin:miter;stroke-opacity:1" d="M 179.265,689.286 170.502,673.512 z" id="boundary" inkscape:connector-curvature="0" />
	<path style="fill:none;stroke:red;stroke-width:1px;stroke-linecap:butt;stroke-linejoin:miter;stroke-opacity:1" d="M 242.36,130.191 240.608,112.664 z" id="boundary" inkscape:connector-curvature="0" />
	<path style="fill:none;stroke:red;stroke-width:1px;stroke-linecap:butt;stroke-linejoin:miter;stroke-opacity:1" d="M 240.608,112.664 231.845,96.8905 z" id="boundary" inkscape:connector-curvature="0" />
	<path style="fill:none;stroke:red;stroke-width:1px;stroke-linecap:butt;stroke-linejoin:miter;stroke-opacity:1" d="M 195.039,698.049 179.265,689.286 z" id="boundary" inkscape:connector-curvature="0" />
	<path style="fill:none;stroke:red;stroke-width:1px;stroke-linecap:butt;stroke-linejoin:miter;stroke-opacity:1" d="M 242.36,147.717 242.36,130.191 z" id="boundary" inkscape:connector-curvature="0" />
	<path style="fill:none;stroke:red;stroke-width:1px;stroke-linecap:butt;stroke-linejoin:miter;stroke-opacity:1" d="M 195.039,698.049 210.813,706.813 z" id="boundary" inkscape:connector-curvature="0" />
	<path style="fill:none;stroke:red;stroke-width:1px;stroke-linecap:butt;stroke-linejoin:miter;stroke-opacity:1" d="M 210.813,706.813 224.834,719.081 z" id="boundary" inkscape:connector-curvature="0" />
	<path style="fill:none;stroke:red;stroke-width:1px;stroke-linecap:butt;stroke-linejoin:miter;stroke-opacity:1" d="M 224.834,719.081 237.102,733.102 z" id="boundary" inkscape:connector-curvature="0" />
	<path style="fill:none;stroke:red;stroke-width:1px;stroke-linecap:butt;stroke-linejoin:miter;stroke-opacity:1" d="M 214.318,938.163 196.792,946.926 z" id="boundary" inkscape:connector-curvature="0" />
	<path style="fill:none;stroke:red;stroke-width:1px;stroke-linecap:butt;stroke-linejoin:miter;stroke-opacity:1" d="M 196.792,946.926 210.813,959.194 z" id="boundary" inkscape:connector-curvature="0" />
	<path style="fill:none;stroke:red;stroke-width:1px;stroke-linecap:butt;stroke-linejoin:miter;stroke-opacity:1" d="M 228.339,952.184 210.813,959.194 z" id="boundary" inkscape:connector-curvature="0" />
	<path style="fill:none;stroke:red;stroke-width:1px;stroke-linecap:butt;stroke-linejoin:miter;stroke-opacity:1" d="M 266.898,280.919 259.887,263.392 z" id="boundary" inkscape:connector-curvature="0" />
	<path style="fill:none;stroke:red;stroke-width:1px;stroke-linecap:butt;stroke-linejoin:miter;stroke-opacity:1" d="M 259.887,263.392 245.866,251.124 z" id="boundary" inkscape:connector-curvature="0" />
	<path style="fill:none;stroke:red;stroke-width:1px;stroke-linecap:butt;stroke-linejoin:miter;stroke-opacity:1" d="M 237.102,967.958 228.339,952.184 z" id="boundary" inkscape:connector-curvature="0" />
	<path style="fill:none;stroke:red;stroke-width:1px;stroke-linecap:butt;stroke-linejoin:miter;stroke-opacity:1" d="M 231.845,932.905 214.318,938.163 z" id="boundary" inkscape:connector-curvature="0" />
	<path style="fill:none;stroke:red;stroke-width:1px;stroke-linecap:butt;stroke-linejoin:miter;stroke-opacity:1" d="M 249.371,927.647 231.845,932.905 z" id="boundary" inkscape:connector-curvature="0" />
	<path style="fill:none;stroke:red;stroke-width:1px;stroke-linecap:butt;stroke-linejoin:miter;stroke-opacity:1" d="M 254.629,740.113 268.65,750.629 z" id="boundary" inkscape:connector-curvature="0" />
	<path style="fill:none;stroke:red;stroke-width:1px;stroke-linecap:butt;stroke-linejoin:miter;stroke-opacity:1" d="M 268.65,750.629 279.166,764.65 z" id="boundary" inkscape:connector-curvature="0" />
	<path style="fill:none;stroke:red;stroke-width:1px;stroke-linecap:butt;stroke-linejoin:miter;stroke-opacity:1" d="M 275.661,296.693 286.177,310.714 z" id="boundary" inkscape:connector-curvature="0" />
	<path style="fill:none;stroke:red;stroke-width:1px;stroke-linecap:butt;stroke-linejoin:miter;stroke-opacity:1" d="M 249.371,981.979 237.102,967.958 z" id="boundary" inkscape:connector-curvature="0" />
	<path style="fill:none;stroke:red;stroke-width:1px;stroke-linecap:butt;stroke-linejoin:miter;stroke-opacity:1" d="M 242.36,147.717 251.124,163.491 z" id="boundary" inkscape:connector-curvature="0" />
	<path style="fill:none;stroke:red;stroke-width:1px;stroke-linecap:butt;stroke-linejoin:miter;stroke-opacity:1" d="M 251.124,163.491 251.124,181.018 z" id="boundary" inkscape:connector-curvature="0" />
	<path style="fill:none;stroke:red;stroke-width:1px;stroke-linecap:butt;stroke-linejoin:miter;stroke-opacity:1" d="M 237.102,733.102 254.629,740.113 z" id="boundary" inkscape:connector-curvature="0" />
	<path style="fill:none;stroke:red;stroke-width:1px;stroke-linecap:butt;stroke-linejoin:miter;stroke-opacity:1" d="M 242.36,198.544 251.124,181.018 z" id="boundary" inkscape:connector-curvature="0" />
	<path style="fill:none;stroke:red;stroke-width:1px;stroke-linecap:butt;stroke-linejoin:miter;stroke-opacity:1" d="M 266.898,929.399 249.371,927.647 z" id="boundary" inkscape:connector-curvature="0" />
	<path style="fill:none;stroke:red;stroke-width:1px;stroke-linecap:butt;stroke-linejoin:miter;stroke-opacity:1" d="M 263.392,994.247 249.371,981.979 z" id="boundary" inkscape:connector-curvature="0" />
	<path style="fill:none;stroke:red;stroke-width:1px;stroke-linecap:butt;stroke-linejoin:miter;stroke-opacity:1" d="M 294.94,326.488 312.466,328.24 z" id="boundary" inkscape:connector-curvature="0" />
	<path style="fill:none;stroke:red;stroke-width:1px;stroke-linecap:butt;stroke-linejoin:miter;stroke-opacity:1" d="M 312.466,328.24 328.24,337.004 z" id="boundary" inkscape:connector-curvature="0" />
	<path style="fill:none;stroke:red;stroke-width:1px;stroke-linecap:butt;stroke-linejoin:miter;stroke-opacity:1" d="M 266.898,929.399 284.424,929.399 z" id="boundary" inkscape:connector-curvature="0" />
	<path style="fill:none;stroke:red;stroke-width:1px;stroke-linecap:butt;stroke-linejoin:miter;stroke-opacity:1" d="M 284.424,911.873 284.424,894.346 z" id="boundary" inkscape:connector-curvature="0" />
	<path style="fill:none;stroke:red;stroke-width:1px;stroke-linecap:butt;stroke-linejoin:miter;stroke-opacity:1" d="M 328.24,337.004 345.767,337.004 z" id="boundary" inkscape:connector-curvature="0" />
	<path style="fill:none;stroke:red;stroke-width:1px;stroke-linecap:butt;stroke-linejoin:miter;stroke-opacity:1" d="M 345.767,337.004 361.541,345.767 z" id="boundary" inkscape:connector-curvature="0" />
	<path style="fill:none;stroke:red;stroke-width:1px;stroke-linecap:butt;stroke-linejoin:miter;stroke-opacity:1" d="M 280.919,996 263.392,994.247 z" id="boundary" inkscape:connector-curvature="0" />
	<path style="fill:none;stroke:red;stroke-width:1px;stroke-linecap:butt;stroke-linejoin:miter;stroke-opacity:1" d="M 284.424,911.873 284.424,929.399 z" id="boundary" inkscape:connector-curvature="0" />
	<path style="fill:none;stroke:red;stroke-width:1px;stroke-linecap:butt;stroke-linejoin:miter;stroke-opacity:1" d="M 294.94,773.413 279.166,764.65 z" id="boundary" inkscape:connector-curvature="0" />
	<path style="fill:none;stroke:red;stroke-width:1px;stroke-linecap:butt;stroke-linejoin:miter;stroke-opacity:1" d="M 308.961,785.682 294.94,773.413 z" id="boundary" inkscape:connector-curvature="0" />
	<path style="fill:none;stroke:red;stroke-width:1px;stroke-linecap:butt;stroke-linejoin:miter;stroke-opacity:1" d="M 284.424,894.346 301.951,885.583 z" id="boundary" inkscape:connector-curvature="0" />
	<path style="fill:none;stroke:red;stroke-width:1px;stroke-linecap:butt;stroke-linejoin:miter;stroke-opacity:1" d="M 298.445,996 280.919,996 z" id="boundary" inkscape:connector-curvature="0" />
	<path style="fill:none;stroke:red;stroke-width:1px;stroke-linecap:butt;stroke-linejoin:miter;stroke-opacity:1" d="M 396.594,354.53 379.067,347.519 z" id="boundary" inkscape:connector-curvature="0" />
	<path style="fill:none;stroke:red;stroke-width:1px;stroke-linecap:butt;stroke-linejoin:miter;stroke-opacity:1" d="M 379.067,347.519 361.541,345.767 z" id="boundary" inkscape:connector-curvature="0" />
	<path style="fill:none;stroke:red;stroke-width:1px;stroke-linecap:butt;stroke-linejoin:miter;stroke-opacity:1" d="M 308.961,785.682 321.23,799.703 z" id="boundary" inkscape:connector-curvature="0" />
	<path style="fill:none;stroke:red;stroke-width:1px;stroke-linecap:butt;stroke-linejoin:miter;stroke-opacity:1" d="M 301.951,885.583 319.477,880.325 z" id="boundary" inkscape:connector-curvature="0" />
	<path style="fill:none;stroke:red;stroke-width:1px;stroke-linecap:butt;stroke-linejoin:miter;stroke-opacity:1" d="M 412.367,363.293 396.594,354.53 z" id="boundary" inkscape:connector-curvature="0" />
	<path style="fill:none;stroke:red;stroke-width:1px;stroke-linecap:butt;stroke-linejoin:miter;stroke-opacity:1" d="M 315.972,994.247 298.445,996 z" id="boundary" inkscape:connector-curvature="0" />
	<path style="fill:none;stroke:red;stroke-width:1px;stroke-linecap:butt;stroke-linejoin:miter;stroke-opacity:1" d="M 319.477,880.325 337.004,880.325 z" id="boundary" inkscape:connector-curvature="0" />
	<path style="fill:none;stroke:red;stroke-width:1px;stroke-linecap:butt;stroke-linejoin:miter;stroke-opacity:1" d="M 333.498,994.247 315.972,994.247 z" id="boundary" inkscape:connector-curvature="0" />
	<path style="fill:none;stroke:red;stroke-width:1px;stroke-linecap:butt;stroke-linejoin:miter;stroke-opacity:1" d="M 321.23,799.703 335.251,811.972 z" id="boundary" inkscape:connector-curvature="0" />
	<path style="fill:none;stroke:red;stroke-width:1px;stroke-linecap:butt;stroke-linejoin:miter;stroke-opacity:1" d="M 335.251,811.972 342.261,829.498 z" id="boundary" inkscape:connector-curvature="0" />
	<path style="fill:none;stroke:red;stroke-width:1px;stroke-linecap:butt;stroke-linejoin:miter;stroke-opacity:1" d="M 808.466,978.473 825.993,978.473 z" id="boundary" inkscape:connector-curvature="0" />
	<path style="fill:none;stroke:red;stroke-width:1px;stroke-linecap:butt;stroke-linejoin:miter;stroke-opacity:1" d="M 342.261,829.498 351.025,845.272 z" id="boundary" inkscape:connector-curvature="0" />
	<path style="fill:none;stroke:red;stroke-width:1px;stroke-linecap:butt;stroke-linejoin:miter;stroke-opacity:1" d="M 351.025,845.272 352.777,871.562 z" id="boundary" inkscape:connector-curvature="0" />
	<path style="fill:none;stroke:red;stroke-width:1px;stroke-linecap:butt;stroke-linejoin:miter;stroke-opacity:1" d="M 352.777,871.562 337.004,880.325 z" id="boundary" inkscape:connector-curvature="0" />
	<path style="fill:none;stroke:red;stroke-width:1px;stroke-linecap:butt;stroke-linejoin:miter;stroke-opacity:1" d="M 452.678,386.078 466.7,398.346 z" id="boundary" inkscape:connector-curvature="0" />
	<path style="fill:none;stroke:red;stroke-width:1px;stroke-linecap:butt;stroke-linejoin:miter;stroke-opacity:1" d="M 452.678,386.078 435.152,380.82 z" id="boundary" inkscape:connector-curvature="0" />
	<path style="fill:none;stroke:red;stroke-width:1px;stroke-linecap:butt;stroke-linejoin:miter;stroke-opacity:1" d="M 351.025,987.237 333.498,994.247 z" id="boundary" inkscape:connector-curvature="0" />
	<path style="fill:none;stroke:red;stroke-width:1px;stroke-linecap:butt;stroke-linejoin:miter;stroke-opacity:1" d="M 435.152,380.82 429.894,363.293 z" id="boundary" inkscape:connector-curvature="0" />
	<path style="fill:none;stroke:red;stroke-width:1px;stroke-linecap:butt;stroke-linejoin:miter;stroke-opacity:1" d="M 429.894,363.293 412.367,363.293 z" id="boundary" inkscape:connector-curvature="0" />
	<path style="fill:none;stroke:red;stroke-width:1px;stroke-linecap:butt;stroke-linejoin:miter;stroke-opacity:1" d="M 366.799,978.473 351.025,987.237 z" id="boundary" inkscape:connector-curvature="0" />
	<path style="fill:none;stroke:red;stroke-width:1px;stroke-linecap:butt;stroke-linejoin:miter;stroke-opacity:1" d="M 391.336,960.947 384.325,978.473 z" id="boundary" inkscape:connector-curvature="0" />
	<path style="fill:none;stroke:red;stroke-width:1px;stroke-linecap:butt;stroke-linejoin:miter;stroke-opacity:1" d="M 384.325,978.473 366.799,978.473 z" id="boundary" inkscape:connector-curvature="0" />
	<path style="fill:none;stroke:red;stroke-width:1px;stroke-linecap:butt;stroke-linejoin:miter;stroke-opacity:1" d="M 745.371,917.131 740.113,899.604 z" id="boundary" inkscape:connector-curvature="0" />
	<path style="fill:none;stroke:red;stroke-width:1px;stroke-linecap:butt;stroke-linejoin:miter;stroke-opacity:1" d="M 740.113,899.604 722.587,892.594 z" id="boundary" inkscape:connector-curvature="0" />
	<path style="fill:none;stroke:red;stroke-width:1px;stroke-linecap:butt;stroke-linejoin:miter;stroke-opacity:1" d="M 482.473,407.11 494.742,421.131 z" id="boundary" inkscape:connector-curvature="0" />
	<path style="fill:none;stroke:red;stroke-width:1px;stroke-linecap:butt;stroke-linejoin:miter;stroke-opacity:1" d="M 482.473,407.11 466.7,398.346 z" id="boundary" inkscape:connector-curvature="0" />
	<path style="fill:none;stroke:red;stroke-width:1px;stroke-linecap:butt;stroke-linejoin:miter;stroke-opacity:1" d="M 405.357,948.678 391.336,960.947 z" id="boundary" inkscape:connector-curvature="0" />
	<path style="fill:none;stroke:red;stroke-width:1px;stroke-linecap:butt;stroke-linejoin:miter;stroke-opacity:1" d="M 422.883,943.42 405.357,948.678 z" id="boundary" inkscape:connector-curvature="0" />
	<path style="fill:none;stroke:red;stroke-width:1px;stroke-linecap:butt;stroke-linejoin:miter;stroke-opacity:1" d="M 440.41,943.42 422.883,943.42 z" id="boundary" inkscape:connector-curvature="0" />
	<path style="fill:none;stroke:red;stroke-width:1px;stroke-linecap:butt;stroke-linejoin:miter;stroke-opacity:1" d="M 687.534,850.53 675.265,836.509 z" id="boundary" inkscape:connector-curvature="0" />
	<path style="fill:none;stroke:red;stroke-width:1px;stroke-linecap:butt;stroke-linejoin:miter;stroke-opacity:1" d="M 675.265,836.509 657.739,829.498 z" id="boundary" inkscape:connector-curvature="0" />
	<path style="fill:none;stroke:red;stroke-width:1px;stroke-linecap:butt;stroke-linejoin:miter;stroke-opacity:1" d="M 452.678,908.367 452.678,925.894 z" id="boundary" inkscape:connector-curvature="0" />
	<path style="fill:none;stroke:red;stroke-width:1px;stroke-linecap:butt;stroke-linejoin:miter;stroke-opacity:1" d="M 452.678,925.894 440.41,943.42 z" id="boundary" inkscape:connector-curvature="0" />
	<path style="fill:none;stroke:red;stroke-width:1px;stroke-linecap:butt;stroke-linejoin:miter;stroke-opacity:1" d="M 461.442,873.314 461.442,890.841 z" id="boundary" inkscape:connector-curvature="0" />
	<path style="fill:none;stroke:red;stroke-width:1px;stroke-linecap:butt;stroke-linejoin:miter;stroke-opacity:1" d="M 461.442,890.841 452.678,908.367 z" id="boundary" inkscape:connector-curvature="0" />
	<path style="fill:none;stroke:red;stroke-width:1px;stroke-linecap:butt;stroke-linejoin:miter;stroke-opacity:1" d="M 573.611,811.972 556.085,811.972 z" id="boundary" inkscape:connector-curvature="0" />
	<path style="fill:none;stroke:red;stroke-width:1px;stroke-linecap:butt;stroke-linejoin:miter;stroke-opacity:1" d="M 461.442,873.314 470.205,847.025 z" id="boundary" inkscape:connector-curvature="0" />
	<path style="fill:none;stroke:red;stroke-width:1px;stroke-linecap:butt;stroke-linejoin:miter;stroke-opacity:1" d="M 478.968,820.735 470.205,847.025 z" id="boundary" inkscape:connector-curvature="0" />
	<path style="fill:none;stroke:red;stroke-width:1px;stroke-linecap:butt;stroke-linejoin:miter;stroke-opacity:1" d="M 478.968,820.735 496.495,811.972 z" id="boundary" inkscape:connector-curvature="0" />
	<path style="fill:none;stroke:red;stroke-width:1px;stroke-linecap:butt;stroke-linejoin:miter;stroke-opacity:1" d="M 496.495,811.972 512.269,820.735 z" id="boundary" inkscape:connector-curvature="0" />
	<path style="fill:none;stroke:red;stroke-width:1px;stroke-linecap:butt;stroke-linejoin:miter;stroke-opacity:1" d="M 494.742,421.131 512.269,428.141 z" id="boundary" inkscape:connector-curvature="0" />
	<path style="fill:none;stroke:red;stroke-width:1px;stroke-linecap:butt;stroke-linejoin:miter;stroke-opacity:1" d="M 512.269,428.141 522.784,442.163 z" id="boundary" inkscape:connector-curvature="0" />
	<path style="fill:none;stroke:red;stroke-width:1px;stroke-linecap:butt;stroke-linejoin:miter;stroke-opacity:1" d="M 591.138,498.247 577.117,485.979 z" id="boundary" inkscape:connector-curvature="0" />
	<path style="fill:none;stroke:red;stroke-width:1px;stroke-linecap:butt;stroke-linejoin:miter;stroke-opacity:1" d="M 536.806,452.678 522.784,442.163 z" id="boundary" inkscape:connector-curvature="0" />
	<path style="fill:none;stroke:red;stroke-width:1px;stroke-linecap:butt;stroke-linejoin:miter;stroke-opacity:1" d="M 540.311,803.208 556.085,811.972 z" id="boundary" inkscape:connector-curvature="0" />
	<path style="fill:none;stroke:red;stroke-width:1px;stroke-linecap:butt;stroke-linejoin:miter;stroke-opacity:1" d="M 522.784,803.208 540.311,803.208 z" id="boundary" inkscape:connector-curvature="0" />
	<path style="fill:none;stroke:red;stroke-width:1px;stroke-linecap:butt;stroke-linejoin:miter;stroke-opacity:1" d="M 522.784,803.208 512.269,820.735 z" id="boundary" inkscape:connector-curvature="0" />
	<path style="fill:none;stroke:red;stroke-width:1px;stroke-linecap:butt;stroke-linejoin:miter;stroke-opacity:1" d="M 552.58,461.442 561.343,477.216 z" id="boundary" inkscape:connector-curvature="0" />
	<path style="fill:none;stroke:red;stroke-width:1px;stroke-linecap:butt;stroke-linejoin:miter;stroke-opacity:1" d="M 552.58,461.442 536.806,452.678 z" id="boundary" inkscape:connector-curvature="0" />
	<path style="fill:none;stroke:red;stroke-width:1px;stroke-linecap:butt;stroke-linejoin:miter;stroke-opacity:1" d="M 561.343,477.216 577.117,485.979 z" id="boundary" inkscape:connector-curvature="0" />
	<path style="fill:none;stroke:red;stroke-width:1px;stroke-linecap:butt;stroke-linejoin:miter;stroke-opacity:1" d="M 601.654,512.269 591.138,498.247 z" id="boundary" inkscape:connector-curvature="0" />
	<path style="fill:none;stroke:red;stroke-width:1px;stroke-linecap:butt;stroke-linejoin:miter;stroke-opacity:1" d="M 573.611,811.972 591.138,811.972 z" id="boundary" inkscape:connector-curvature="0" />
	<path style="fill:none;stroke:red;stroke-width:1px;stroke-linecap:butt;stroke-linejoin:miter;stroke-opacity:1" d="M 591.138,811.972 606.912,820.735 z" id="boundary" inkscape:connector-curvature="0" />
	<path style="fill:none;stroke:red;stroke-width:1px;stroke-linecap:butt;stroke-linejoin:miter;stroke-opacity:1" d="M 610.417,528.042 601.654,512.269 z" id="boundary" inkscape:connector-curvature="0" />
	<path style="fill:none;stroke:red;stroke-width:1px;stroke-linecap:butt;stroke-linejoin:miter;stroke-opacity:1" d="M 631.449,557.837 624.438,540.311 z" id="boundary" inkscape:connector-curvature="0" />
	<path style="fill:none;stroke:red;stroke-width:1px;stroke-linecap:butt;stroke-linejoin:miter;stroke-opacity:1" d="M 624.438,540.311 610.417,528.042 z" id="boundary" inkscape:connector-curvature="0" />
	<path style="fill:none;stroke:red;stroke-width:1px;stroke-linecap:butt;stroke-linejoin:miter;stroke-opacity:1" d="M 606.912,820.735 624.438,820.735 z" id="boundary" inkscape:connector-curvature="0" />
	<path style="fill:none;stroke:red;stroke-width:1px;stroke-linecap:butt;stroke-linejoin:miter;stroke-opacity:1" d="M 624.438,820.735 640.212,829.498 z" id="boundary" inkscape:connector-curvature="0" />
	<path style="fill:none;stroke:red;stroke-width:1px;stroke-linecap:butt;stroke-linejoin:miter;stroke-opacity:1" d="M 645.47,570.106 631.449,557.837 z" id="boundary" inkscape:connector-curvature="0" />
	<path style="fill:none;stroke:red;stroke-width:1px;stroke-linecap:butt;stroke-linejoin:miter;stroke-opacity:1" d="M 666.502,599.901 657.739,584.127 z" id="boundary" inkscape:connector-curvature="0" />
	<path style="fill:none;stroke:red;stroke-width:1px;stroke-linecap:butt;stroke-linejoin:miter;stroke-opacity:1" d="M 657.739,584.127 645.47,570.106 z" id="boundary" inkscape:connector-curvature="0" />
	<path style="fill:none;stroke:red;stroke-width:1px;stroke-linecap:butt;stroke-linejoin:miter;stroke-opacity:1" d="M 640.212,829.498 657.739,829.498 z" id="boundary" inkscape:connector-curvature="0" />
	<path style="fill:none;stroke:red;stroke-width:1px;stroke-linecap:butt;stroke-linejoin:miter;stroke-opacity:1" d="M 678.77,613.922 687.534,629.696 z" id="boundary" inkscape:connector-curvature="0" />
	<path style="fill:none;stroke:red;stroke-width:1px;stroke-linecap:butt;stroke-linejoin:miter;stroke-opacity:1" d="M 678.77,613.922 666.502,599.901 z" id="boundary" inkscape:connector-curvature="0" />
	<path style="fill:none;stroke:red;stroke-width:1px;stroke-linecap:butt;stroke-linejoin:miter;stroke-opacity:1" d="M 701.555,862.799 687.534,850.53 z" id="boundary" inkscape:connector-curvature="0" />
	<path style="fill:none;stroke:red;stroke-width:1px;stroke-linecap:butt;stroke-linejoin:miter;stroke-opacity:1" d="M 687.534,629.696 694.544,647.223 z" id="boundary" inkscape:connector-curvature="0" />
	<path style="fill:none;stroke:red;stroke-width:1px;stroke-linecap:butt;stroke-linejoin:miter;stroke-opacity:1" d="M 713.823,876.82 722.587,892.594 z" id="boundary" inkscape:connector-curvature="0" />
	<path style="fill:none;stroke:red;stroke-width:1px;stroke-linecap:butt;stroke-linejoin:miter;stroke-opacity:1" d="M 713.823,876.82 701.555,862.799 z" id="boundary" inkscape:connector-curvature="0" />
	<path style="fill:none;stroke:red;stroke-width:1px;stroke-linecap:butt;stroke-linejoin:miter;stroke-opacity:1" d="M 706.813,661.244 694.544,647.223 z" id="boundary" inkscape:connector-curvature="0" />
	<path style="fill:none;stroke:red;stroke-width:1px;stroke-linecap:butt;stroke-linejoin:miter;stroke-opacity:1" d="M 736.608,680.523 724.339,666.502 z" id="boundary" inkscape:connector-curvature="0" />
	<path style="fill:none;stroke:red;stroke-width:1px;stroke-linecap:butt;stroke-linejoin:miter;stroke-opacity:1" d="M 724.339,666.502 706.813,661.244 z" id="boundary" inkscape:connector-curvature="0" />
	<path style="fill:none;stroke:red;stroke-width:1px;stroke-linecap:butt;stroke-linejoin:miter;stroke-opacity:1" d="M 736.608,680.523 745.371,696.297 z" id="boundary" inkscape:connector-curvature="0" />
	<path style="fill:none;stroke:red;stroke-width:1px;stroke-linecap:butt;stroke-linejoin:miter;stroke-opacity:1" d="M 761.145,705.06 745.371,696.297 z" id="boundary" inkscape:connector-curvature="0" />
	<path style="fill:none;stroke:red;stroke-width:1px;stroke-linecap:butt;stroke-linejoin:miter;stroke-opacity:1" d="M 761.145,705.06 776.919,713.823 z" id="boundary" inkscape:connector-curvature="0" />
	<path style="fill:none;stroke:red;stroke-width:1px;stroke-linecap:butt;stroke-linejoin:miter;stroke-opacity:1" d="M 766.403,946.926 759.392,929.399 z" id="boundary" inkscape:connector-curvature="0" />
	<path style="fill:none;stroke:red;stroke-width:1px;stroke-linecap:butt;stroke-linejoin:miter;stroke-opacity:1" d="M 759.392,929.399 745.371,917.131 z" id="boundary" inkscape:connector-curvature="0" />
	<path style="fill:none;stroke:red;stroke-width:1px;stroke-linecap:butt;stroke-linejoin:miter;stroke-opacity:1" d="M 776.919,713.823 790.94,724.339 z" id="boundary" inkscape:connector-curvature="0" />
	<path style="fill:none;stroke:red;stroke-width:1px;stroke-linecap:butt;stroke-linejoin:miter;stroke-opacity:1" d="M 808.466,978.473 794.445,966.205 z" id="boundary" inkscape:connector-curvature="0" />
	<path style="fill:none;stroke:red;stroke-width:1px;stroke-linecap:butt;stroke-linejoin:miter;stroke-opacity:1" d="M 806.714,733.102 790.94,724.339 z" id="boundary" inkscape:connector-curvature="0" />
	<path style="fill:none;stroke:red;stroke-width:1px;stroke-linecap:butt;stroke-linejoin:miter;stroke-opacity:1" d="M 766.403,946.926 783.929,952.184 z" id="boundary" inkscape:connector-curvature="0" />
	<path style="fill:none;stroke:red;stroke-width:1px;stroke-linecap:butt;stroke-linejoin:miter;stroke-opacity:1" d="M 783.929,952.184 794.445,966.205 z" id="boundary" inkscape:connector-curvature="0" />
	<path style="fill:none;stroke:red;stroke-width:1px;stroke-linecap:butt;stroke-linejoin:miter;stroke-opacity:1" d="M 806.714,733.102 820.735,745.371 z" id="boundary" inkscape:connector-curvature="0" />
	<path style="fill:none;stroke:red;stroke-width:1px;stroke-linecap:butt;stroke-linejoin:miter;stroke-opacity:1" d="M 854.035,761.145 864.551,775.166 z" id="boundary" inkscape:connector-curvature="0" />
	<path style="fill:none;stroke:red;stroke-width:1px;stroke-linecap:butt;stroke-linejoin:miter;stroke-opacity:1" d="M 854.035,761.145 836.509,754.134 z" id="boundary" inkscape:connector-curvature="0" />
	<path style="fill:none;stroke:red;stroke-width:1px;stroke-linecap:butt;stroke-linejoin:miter;stroke-opacity:1" d="M 836.509,754.134 820.735,745.371 z" id="boundary" inkscape:connector-curvature="0" />
	<path style="fill:none;stroke:red;stroke-width:1px;stroke-linecap:butt;stroke-linejoin:miter;stroke-opacity:1" d="M 825.993,978.473 843.519,978.473 z" id="boundary" inkscape:connector-curvature="0" />
	<path style="fill:none;stroke:red;stroke-width:1px;stroke-linecap:butt;stroke-linejoin:miter;stroke-opacity:1" d="M 880.325,783.929 864.551,775.166 z" id="boundary" inkscape:connector-curvature="0" />
	<path style="fill:none;stroke:red;stroke-width:1px;stroke-linecap:butt;stroke-linejoin:miter;stroke-opacity:1" d="M 843.519,978.473 861.046,978.473 z" id="boundary" inkscape:connector-curvature="0" />
	<path style="fill:none;stroke:red;stroke-width:1px;stroke-linecap:butt;stroke-linejoin:miter;stroke-opacity:1" d="M 903.11,810.219 894.346,794.445 z" id="boundary" inkscape:connector-curvature="0" />
	<path style="fill:none;stroke:red;stroke-width:1px;stroke-linecap:butt;stroke-linejoin:miter;stroke-opacity:1" d="M 894.346,794.445 880.325,783.929 z" id="boundary" inkscape:connector-curvature="0" />
	<path style="fill:none;stroke:red;stroke-width:1px;stroke-linecap:butt;stroke-linejoin:miter;stroke-opacity:1" d="M 876.82,969.71 861.046,978.473 z" id="boundary" inkscape:connector-curvature="0" />
	<path style="fill:none;stroke:red;stroke-width:1px;stroke-linecap:butt;stroke-linejoin:miter;stroke-opacity:1" d="M 892.594,960.947 876.82,969.71 z" id="boundary" inkscape:connector-curvature="0" />
	<path style="fill:none;stroke:red;stroke-width:1px;stroke-linecap:butt;stroke-linejoin:miter;stroke-opacity:1" d="M 918.883,818.982 925.894,836.509 z" id="boundary" inkscape:connector-curvature="0" />
	<path style="fill:none;stroke:red;stroke-width:1px;stroke-linecap:butt;stroke-linejoin:miter;stroke-opacity:1" d="M 918.883,818.982 903.11,810.219 z" id="boundary" inkscape:connector-curvature="0" />
	<path style="fill:none;stroke:red;stroke-width:1px;stroke-linecap:butt;stroke-linejoin:miter;stroke-opacity:1" d="M 892.594,960.947 908.367,952.184 z" id="boundary" inkscape:connector-curvature="0" />
	<path style="fill:none;stroke:red;stroke-width:1px;stroke-linecap:butt;stroke-linejoin:miter;stroke-opacity:1" d="M 943.42,868.057 934.657,852.283 z" id="boundary" inkscape:connector-curvature="0" />
	<path style="fill:none;stroke:red;stroke-width:1px;stroke-linecap:butt;stroke-linejoin:miter;stroke-opacity:1" d="M 931.152,922.389 922.389,939.915 z" id="boundary" inkscape:connector-curvature="0" />
	<path style="fill:none;stroke:red;stroke-width:1px;stroke-linecap:butt;stroke-linejoin:miter;stroke-opacity:1" d="M 922.389,939.915 908.367,952.184 z" id="boundary" inkscape:connector-curvature="0" />
	<path style="fill:none;stroke:red;stroke-width:1px;stroke-linecap:butt;stroke-linejoin:miter;stroke-opacity:1" d="M 934.657,852.283 925.894,836.509 z" id="boundary" inkscape:connector-curvature="0" />
	<path style="fill:none;stroke:red;stroke-width:1px;stroke-linecap:butt;stroke-linejoin:miter;stroke-opacity:1" d="M 943.42,903.11 931.152,922.389 z" id="boundary" inkscape:connector-curvature="0" />
	<path style="fill:none;stroke:red;stroke-width:1px;stroke-linecap:butt;stroke-linejoin:miter;stroke-opacity:1" d="M 943.42,868.057 943.42,885.583 z" id="boundary" inkscape:connector-curvature="0" />
	<path style="fill:none;stroke:red;stroke-width:1px;stroke-linecap:butt;stroke-linejoin:miter;stroke-opacity:1" d="M 943.42,903.11 943.42,885.583 z" id="boundary" inkscape:connector-curvature="0" />
	<circle cx="4" cy="70.6007" r="4" fill="#0" id="circle0"/>
	<circle cx="4" cy="88.1272" r="4" fill="#0" id="circle1"/>
	<circle cx="18.0212" cy="56.5795" r="4" fill="#0" id="circle2"/>
	<circle cx="18.0212" cy="100.396" r="4" fill="#0" id="circle3"/>
	<circle cx="33.7951" cy="47.8163" r="4" fill="#0" id="circle4"/>
	<circle cx="35.5477" cy="102.148" r="4" fill="#0" id="circle5"/>
	<circle cx="49.5689" cy="39.053" r="4" fill="#0" id="circle6"/>
	<circle cx="53.0742" cy="109.159" r="4" fill="#0" id="circle7"/>
	<circle cx="56.5795" cy="126.686" r="4" fill="#0" id="circle8"/>
	<circle cx="56.5795" cy="403.604" r="4" fill="#0" id="circle9"/>
	<circle cx="56.5795" cy="421.131" r="4" fill="#0" id="circle10"/>
	<circle cx="65.3428" cy="30.2898" r="4" fill="#0" id="circle11"/>
	<circle cx="65.3428" cy="368.551" r="4" fill="#0" id="circle12"/>
	<circle cx="65.3428" cy="386.078" r="4" fill="#0" id="circle13"/>
	<circle cx="65.3428" cy="436.905" r="4" fill="#0" id="circle14"/>
	<circle cx="65.3428" cy="454.431" r="4" fill="#0" id="circle15"/>
	<circle cx="67.0954" cy="140.707" r="4" fill="#0" id="circle16"/>
	<circle cx="74.106" cy="351.025" r="4" fill="#0" id="circle17"/>
	<circle cx="74.106" cy="470.205" r="4" fill="#0" id="circle18"/>
	<circle cx="74.106" cy="487.731" r="4" fill="#0" id="circle19"/>
	<circle cx="79.364" cy="154.728" r="4" fill="#0" id="circle20"/>
	<circle cx="79.364" cy="505.258" r="4" fill="#0" id="circle21"/>
	<circle cx="81.1166" cy="21.5265" r="4" fill="#0" id="circle22"/>
	<circle cx="82.8693" cy="324.735" r="4" fill="#0" id="circle23"/>
	<circle cx="82.8693" cy="522.784" r="4" fill="#0" id="circle24"/>
	<circle cx="91.6325" cy="298.445" r="4" fill="#0" id="circle25"/>
	<circle cx="91.6325" cy="538.558" r="4" fill="#0" id="circle26"/>
	<circle cx="91.6325" cy="556.085" r="4" fill="#0" id="circle27"/>
	<circle cx="93.3852" cy="7.5053" r="4" fill="#0" id="circle28"/>
	<circle cx="93.3852" cy="166.996" r="4" fill="#0" id="circle29"/>
	<circle cx="100.396" cy="184.523" r="4" fill="#0" id="circle30"/>
	<circle cx="100.396" cy="245.866" r="4" fill="#0" id="circle31"/>
	<circle cx="100.396" cy="263.392" r="4" fill="#0" id="circle32"/>
	<circle cx="100.396" cy="280.919" r="4" fill="#0" id="circle33"/>
	<circle cx="102.148" cy="570.106" r="4" fill="#0" id="circle34"/>
	<circle cx="109.159" cy="210.813" r="4" fill="#0" id="circle35"/>
	<circle cx="109.159" cy="228.339" r="4" fill="#0" id="circle36"/>
	<circle cx="109.159" cy="587.633" r="4" fill="#0" id="circle37"/>
	<circle cx="110.912" cy="4" r="4" fill="#0" id="circle38"/>
	<circle cx="117.922" cy="603.406" r="4" fill="#0" id="circle39"/>
	<circle cx="126.686" cy="619.18" r="4" fill="#0" id="circle40"/>
	<circle cx="128.438" cy="4" r="4" fill="#0" id="circle41"/>
	<circle cx="137.201" cy="633.201" r="4" fill="#0" id="circle42"/>
	<circle cx="145.965" cy="9.25795" r="4" fill="#0" id="circle43"/>
	<circle cx="145.965" cy="648.975" r="4" fill="#0" id="circle44"/>
	<circle cx="161.739" cy="18.0212" r="4" fill="#0" id="circle45"/>
	<circle cx="161.739" cy="657.739" r="4" fill="#0" id="circle46"/>
	<circle cx="170.502" cy="673.512" r="4" fill="#0" id="circle47"/>
	<circle cx="179.265" cy="25.0318" r="4" fill="#0" id="circle48"/>
	<circle cx="179.265" cy="689.286" r="4" fill="#0" id="circle49"/>
	<circle cx="189.781" cy="39.053" r="4" fill="#0" id="circle50"/>
	<circle cx="195.039" cy="698.049" r="4" fill="#0" id="circle51"/>
	<circle cx="196.792" cy="946.926" r="4" fill="#0" id="circle52"/>
	<circle cx="203.802" cy="49.5689" r="4" fill="#0" id="circle53"/>
	<circle cx="210.813" cy="67.0954" r="4" fill="#0" id="circle54"/>
	<circle cx="210.813" cy="706.813" r="4" fill="#0" id="circle55"/>
	<circle cx="210.813" cy="959.194" r="4" fill="#0" id="circle56"/>
	<circle cx="214.318" cy="938.163" r="4" fill="#0" id="circle57"/>
	<circle cx="219.576" cy="82.8693" r="4" fill="#0" id="circle58"/>
	<circle cx="224.834" cy="719.081" r="4" fill="#0" id="circle59"/>
	<circle cx="228.339" cy="952.184" r="4" fill="#0" id="circle60"/>
	<circle cx="231.845" cy="96.8905" r="4" fill="#0" id="circle61"/>
	<circle cx="231.845" cy="932.905" r="4" fill="#0" id="circle62"/>
	<circle cx="237.102" cy="733.102" r="4" fill="#0" id="circle63"/>
	<circle cx="237.102" cy="967.958" r="4" fill="#0" id="circle64"/>
	<circle cx="240.608" cy="112.664" r="4" fill="#0" id="circle65"/>
	<circle cx="242.36" cy="130.191" r="4" fill="#0" id="circle66"/>
	<circle cx="242.36" cy="147.717" r="4" fill="#0" id="circle67"/>
	<circle cx="242.36" cy="198.544" r="4" fill="#0" id="circle68"/>
	<circle cx="242.36" cy="216.071" r="4" fill="#0" id="circle69"/>
	<circle cx="242.36" cy="233.597" r="4" fill="#0" id="circle70"/>
	<circle cx="245.866" cy="251.124" r="4" fill="#0" id="circle71"/>
	<circle cx="249.371" cy="927.647" r="4" fill="#0" id="circle72"/>
	<circle cx="249.371" cy="981.979" r="4" fill="#0" id="circle73"/>
	<circle cx="251.124" cy="163.491" r="4" fill="#0" id="circle74"/>
	<circle cx="251.124" cy="181.018" r="4" fill="#0" id="circle75"/>
	<circle cx="254.629" cy="740.113" r="4" fill="#0" id="circle76"/>
	<circle cx="259.887" cy="263.392" r="4" fill="#0" id="circle77"/>
	<circle cx="263.392" cy="994.247" r="4" fill="#0" id="circle78"/>
	<circle cx="266.898" cy="280.919" r="4" fill="#0" id="circle79"/>
	<circle cx="266.898" cy="929.399" r="4" fill="#0" id="circle80"/>
	<circle cx="268.65" cy="750.629" r="4" fill="#0" id="circle81"/>
	<circle cx="275.661" cy="296.693" r="4" fill="#0" id="circle82"/>
	<circle cx="279.166" cy="764.65" r="4" fill="#0" id="circle83"/>
	<circle cx="280.919" cy="996" r="4" fill="#0" id="circle84"/>
	<circle cx="284.424" cy="894.346" r="4" fill="#0" id="circle85"/>
	<circle cx="284.424" cy="911.873" r="4" fill="#0" id="circle86"/>
	<circle cx="284.424" cy="929.399" r="4" fill="#0" id="circle87"/>
	<circle cx="286.177" cy="310.714" r="4" fill="#0" id="circle88"/>
	<circle cx="294.94" cy="326.488" r="4" fill="#0" id="circle89"/>
	<circle cx="294.94" cy="773.413" r="4" fill="#0" id="circle90"/>
	<circle cx="298.445" cy="996" r="4" fill="#0" id="circle91"/>
	<circle cx="301.951" cy="885.583" r="4" fill="#0" id="circle92"/>
	<circle cx="301.951" cy="908.367" r="4" fill="#0" id="circle93"/>
	<circle cx="308.961" cy="785.682" r="4" fill="#0" id="circle94"/>
	<circle cx="312.466" cy="328.24" r="4" fill="#0" id="circle95"/>
	<circle cx="315.972" cy="994.247" r="4" fill="#0" id="circle96"/>
	<circle cx="319.477" cy="880.325" r="4" fill="#0" id="circle97"/>
	<circle cx="321.23" cy="799.703" r="4" fill="#0" id="circle98"/>
	<circle cx="328.24" cy="337.004" r="4" fill="#0" id="circle99"/>
	<circle cx="333.498" cy="994.247" r="4" fill="#0" id="circle100"/>
	<circle cx="335.251" cy="811.972" r="4" fill="#0" id="circle101"/>
	<circle cx="337.004" cy="880.325" r="4" fill="#0" id="circle102"/>
	<circle cx="342.261" cy="829.498" r="4" fill="#0" id="circle103"/>
	<circle cx="345.767" cy="337.004" r="4" fill="#0" id="circle104"/>
	<circle cx="351.025" cy="845.272" r="4" fill="#0" id="circle105"/>
	<circle cx="351.025" cy="987.237" r="4" fill="#0" id="circle106"/>
	<circle cx="352.777" cy="871.562" r="4" fill="#0" id="circle107"/>
	<circle cx="361.541" cy="345.767" r="4" fill="#0" id="circle108"/>
	<circle cx="366.799" cy="978.473" r="4" fill="#0" id="circle109"/>
	<circle cx="379.067" cy="347.519" r="4" fill="#0" id="circle110"/>
	<circle cx="384.325" cy="978.473" r="4" fill="#0" id="circle111"/>
	<circle cx="391.336" cy="960.947" r="4" fill="#0" id="circle112"/>
	<circle cx="396.594" cy="354.53" r="4" fill="#0" id="circle113"/>
	<circle cx="405.357" cy="948.678" r="4" fill="#0" id="circle114"/>
	<circle cx="412.367" cy="363.293" r="4" fill="#0" id="circle115"/>
	<circle cx="422.883" cy="943.42" r="4" fill="#0" id="circle116"/>
	<circle cx="429.894" cy="363.293" r="4" fill="#0" id="circle117"/>
	<circle cx="435.152" cy="380.82" r="4" fill="#0" id="circle118"/>
	<circle cx="440.41" cy="943.42" r="4" fill="#0" id="circle119"/>
	<circle cx="452.678" cy="386.078" r="4" fill="#0" id="circle120"/>
	<circle cx="452.678" cy="908.367" r="4" fill="#0" id="circle121"/>
	<circle cx="452.678" cy="925.894" r="4" fill="#0" id="circle122"/>
	<circle cx="461.442" cy="873.314" r="4" fill="#0" id="circle123"/>
	<circle cx="461.442" cy="890.841" r="4" fill="#0" id="circle124"/>
	<circle cx="466.7" cy="398.346" r="4" fill="#0" id="circle125"/>
	<circle cx="470.205" cy="847.025" r="4" fill="#0" id="circle126"/>
	<circle cx="478.968" cy="820.735" r="4" fill="#0" id="circle127"/>
	<circle cx="482.473" cy="407.11" r="4" fill="#0" id="circle128"/>
	<circle cx="494.742" cy="421.131" r="4" fill="#0" id="circle129"/>
	<circle cx="496.495" cy="811.972" r="4" fill="#0" id="circle130"/>
	<circle cx="512.269" cy="428.141" r="4" fill="#0" id="circle131"/>
	<circle cx="512.269" cy="820.735" r="4" fill="#0" id="circle132"/>
	<circle cx="522.784" cy="442.163" r="4" fill="#0" id="circle133"/>
	<circle cx="522.784" cy="803.208" r="4" fill="#0" id="circle134"/>
	<circle cx="536.806" cy="452.678" r="4" fill="#0" id="circle135"/>
	<circle cx="540.311" cy="803.208" r="4" fill="#0" id="circle136"/>
	<circle cx="552.58" cy="461.442" r="4" fill="#0" id="circle137"/>
	<circle cx="556.085" cy="811.972" r="4" fill="#0" id="circle138"/>
	<circle cx="561.343" cy="477.216" r="4" fill="#0" id="circle139"/>
	<circle cx="573.611" cy="811.972" r="4" fill="#0" id="circle140"/>
	<circle cx="577.117" cy="485.979" r="4" fill="#0" id="circle141"/>
	<circle cx="591.138" cy="498.247" r="4" fill="#0" id="circle142"/>
	<circle cx="591.138" cy="811.972" r="4" fill="#0" id="circle143"/>
	<circle cx="601.654" cy="512.269" r="4" fill="#0" id="circle144"/>
	<circle cx="606.912" cy="820.735" r="4" fill="#0" id="circle145"/>
	<circle cx="610.417" cy="528.042" r="4" fill="#0" id="circle146"/>
	<circle cx="624.438" cy="540.311" r="4" fill="#0" id="circle147"/>
	<circle cx="624.438" cy="820.735" r="4" fill="#0" id="circle148"/>
	<circle cx="631.449" cy="557.837" r="4" fill="#0" id="circle149"/>
	<circle cx="640.212" cy="829.498" r="4" fill="#0" id="circle150"/>
	<circle cx="645.47" cy="570.106" r="4" fill="#0" id="circle151"/>
	<circle cx="657.739" cy="584.127" r="4" fill="#0" id="circle152"/>
	<circle cx="657.739" cy="829.498" r="4" fill="#0" id="circle153"/>
	<circle cx="666.502" cy="599.901" r="4" fill="#0" id="circle154"/>
	<circle cx="675.265" cy="836.509" r="4" fill="#0" id="circle155"/>
	<circle cx="678.77" cy="613.922" r="4" fill="#0" id="circle156"/>
	<circle cx="687.534" cy="629.696" r="4" fill="#0" id="circle157"/>
	<circle cx="687.534" cy="850.53" r="4" fill="#0" id="circle158"/>
	<circle cx="694.544" cy="647.223" r="4" fill="#0" id="circle159"/>
	<circle cx="701.555" cy="862.799" r="4" fill="#0" id="circle160"/>
	<circle cx="706.813" cy="661.244" r="4" fill="#0" id="circle161"/>
	<circle cx="713.823" cy="876.82" r="4" fill="#0" id="circle162"/>
	<circle cx="722.587" cy="892.594" r="4" fill="#0" id="circle163"/>
	<circle cx="724.339" cy="666.502" r="4" fill="#0" id="circle164"/>
	<circle cx="736.608" cy="680.523" r="4" fill="#0" id="circle165"/>
	<circle cx="740.113" cy="899.604" r="4" fill="#0" id="circle166"/>
	<circle cx="745.371" cy="696.297" r="4" fill="#0" id="circle167"/>
	<circle cx="745.371" cy="917.131" r="4" fill="#0" id="circle168"/>
	<circle cx="759.392" cy="929.399" r="4" fill="#0" id="circle169"/>
	<circle cx="761.145" cy="705.06" r="4" fill="#0" id="circle170"/>
	<circle cx="766.403" cy="946.926" r="4" fill="#0" id="circle171"/>
	<circle cx="776.919" cy="713.823" r="4" fill="#0" id="circle172"/>
	<circle cx="783.929" cy="952.184" r="4" fill="#0" id="circle173"/>
	<circle cx="790.94" cy="724.339" r="4" fill="#0" id="circle174"/>
	<circle cx="794.445" cy="966.205" r="4" fill="#0" id="circle175"/>
	<circle cx="806.714" cy="733.102" r="4" fill="#0" id="circle176"/>
	<circle cx="808.466" cy="978.473" r="4" fill="#0" id="circle177"/>
	<circle cx="820.735" cy="745.371" r="4" fill="#0" id="circle178"/>
	<circle cx="825.993" cy="978.473" r="4" fill="#0" id="circle179"/>
	<circle cx="836.509" cy="754.134" r="4" fill="#0" id="circle180"/>
	<circle cx="843.519" cy="978.473" r="4" fill="#0" id="circle181"/>
	<circle cx="854.035" cy="761.145" r="4" fill="#0" id="circle182"/>
	<circle cx="861.046" cy="978.473" r="4" fill="#0" id="circle183"/>
	<circle cx="864.551" cy="775.166" r="4" fill="#0" id="circle184"/>
	<circle cx="876.82" cy="969.71" r="4" fill="#0" id="circle185"/>
	<circle cx="880.325" cy="783.929" r="4" fill="#0" id="circle186"/>
	<circle cx="892.594" cy="960.947" r="4" fill="#0" id="circle187"/>
	<circle cx="894.346" cy="794.445" r="4" fill="#0" id="circle188"/>
	<circle cx="903.11" cy="810.219" r="4" fill="#0" id="circle189"/>
	<circle cx="908.367" cy="952.184" r="4" fill="#0" id="circle190"/>
	<circle cx="918.883" cy="818.982" r="4" fill="#0" id="circle191"/>
	<circle cx="922.389" cy="939.915" r="4" fill="#0" id="circle192"/>
	<circle cx="925.894" cy="836.509" r="4" fill="#0" id="circle193"/>
	<circle cx="931.152" cy="922.389" r="4" fill="#0" id="circle194"/>
	<circle cx="934.657" cy="852.283" r="4" fill="#0" id="circle195"/>
	<circle cx="943.42" cy="868.057" r="4" fill="#0" id="circle196"/>
	<circle cx="943.42" cy="885.583" r="4" fill="#0" id="circle197"/>
	<circle cx="943.42" cy="903.11" r="4" fill="#0" id="circle198"/>
	</g>
</svg>