<?xml version="1.0" encoding="UTF-8" standalone="no"?>
<!-- Created with CurveBenchmark -->
<svg
	xmlns:dc="http://purl.org/dc/elements/1.1/"
	xmlns:cc="http://creativecommons.org/ns#"
	xmlns:rdf="http://www.w3.org/1999/02/22-rdf-syntax-ns#"
	xmlns:svg="http://www.w3.org/2000/svg"
	xmlns="http://www.w3.org/2000/svg"
	xmlns:sodipodi="http://sodipodi.sourceforge.net/DTD/sodipodi-0.dtd"
	xmlns:inkscape="http://www.inkscape.org/namespaces/inkscape"
	width="1000"
	height="1000"
	id="svg2"
	version="1.1"
	sodipodi:docname="manifold/peel-bed140.png.txt">
<defs
	id="defs4" />
<metadata
	id="metadata7">
	<rdf:RDF>
		<cc:Work
			rdf:about="">
			<dc:format>image/svg+xml</dc:format>
			<dc:type
				rdf:resource="http://purl.org/dc/dcmitype/StillImage" />
			<dc:title></dc:title>
		</cc:Work>
	</rdf:RDF>
</metadata>
<g
	inkscape:label="Layer 1"
	inkscape:groupmode="layer"
	id="layer1">
	<path style="fill:none;stroke:red;stroke-width:1px;stroke-linecap:butt;stroke-linejoin:miter;stroke-opacity:1" d="M 7.36271,151.959 4,135.146 z" id="boundary" inkscape:connector-curvature="0" />
	<path style="fill:none;stroke:red;stroke-width:1px;stroke-linecap:butt;stroke-linejoin:miter;stroke-opacity:1" d="M 7.36271,350.359 7.36271,333.546 z" id="boundary" inkscape:connector-curvature="0" />
	<path style="fill:none;stroke:red;stroke-width:1px;stroke-linecap:butt;stroke-linejoin:miter;stroke-opacity:1" d="M 4,135.146 12.4068,120.014 z" id="boundary" inkscape:connector-curvature="0" />
	<path style="fill:none;stroke:red;stroke-width:1px;stroke-linecap:butt;stroke-linejoin:miter;stroke-opacity:1" d="M 10.7254,306.644 7.36271,333.546 z" id="boundary" inkscape:connector-curvature="0" />
	<path style="fill:none;stroke:red;stroke-width:1px;stroke-linecap:butt;stroke-linejoin:miter;stroke-opacity:1" d="M 7.36271,367.173 7.36271,350.359 z" id="boundary" inkscape:connector-curvature="0" />
	<path style="fill:none;stroke:red;stroke-width:1px;stroke-linecap:butt;stroke-linejoin:miter;stroke-opacity:1" d="M 7.36271,383.986 4,414.251 z" id="boundary" inkscape:connector-curvature="0" />
	<path style="fill:none;stroke:red;stroke-width:1px;stroke-linecap:butt;stroke-linejoin:miter;stroke-opacity:1" d="M 7.36271,383.986 7.36271,367.173 z" id="boundary" inkscape:connector-curvature="0" />
	<path style="fill:none;stroke:red;stroke-width:1px;stroke-linecap:butt;stroke-linejoin:miter;stroke-opacity:1" d="M 10.7254,306.644 14.0881,279.742 z" id="boundary" inkscape:connector-curvature="0" />
	<path style="fill:none;stroke:red;stroke-width:1px;stroke-linecap:butt;stroke-linejoin:miter;stroke-opacity:1" d="M 7.36271,447.878 7.36271,431.064 z" id="boundary" inkscape:connector-curvature="0" />
	<path style="fill:none;stroke:red;stroke-width:1px;stroke-linecap:butt;stroke-linejoin:miter;stroke-opacity:1" d="M 7.36271,431.064 4,414.251 z" id="boundary" inkscape:connector-curvature="0" />
	<path style="fill:none;stroke:red;stroke-width:1px;stroke-linecap:butt;stroke-linejoin:miter;stroke-opacity:1" d="M 7.36271,151.959 14.0881,168.773 z" id="boundary" inkscape:connector-curvature="0" />
	<path style="fill:none;stroke:red;stroke-width:1px;stroke-linecap:butt;stroke-linejoin:miter;stroke-opacity:1" d="M 14.0881,168.773 14.0881,185.586 z" id="boundary" inkscape:connector-curvature="0" />
	<path style="fill:none;stroke:red;stroke-width:1px;stroke-linecap:butt;stroke-linejoin:miter;stroke-opacity:1" d="M 10.7254,481.505 10.7254,464.692 z" id="boundary" inkscape:connector-curvature="0" />
	<path style="fill:none;stroke:red;stroke-width:1px;stroke-linecap:butt;stroke-linejoin:miter;stroke-opacity:1" d="M 10.7254,464.692 7.36271,447.878 z" id="boundary" inkscape:connector-curvature="0" />
	<path style="fill:none;stroke:red;stroke-width:1px;stroke-linecap:butt;stroke-linejoin:miter;stroke-opacity:1" d="M 10.7254,498.319 10.7254,481.505 z" id="boundary" inkscape:connector-curvature="0" />
	<path style="fill:none;stroke:red;stroke-width:1px;stroke-linecap:butt;stroke-linejoin:miter;stroke-opacity:1" d="M 12.4068,120.014 25.8576,108.244 z" id="boundary" inkscape:connector-curvature="0" />
	<path style="fill:none;stroke:red;stroke-width:1px;stroke-linecap:butt;stroke-linejoin:miter;stroke-opacity:1" d="M 14.0881,279.742 17.4508,252.841 z" id="boundary" inkscape:connector-curvature="0" />
	<path style="fill:none;stroke:red;stroke-width:1px;stroke-linecap:butt;stroke-linejoin:miter;stroke-opacity:1" d="M 14.0881,185.586 17.4508,202.4 z" id="boundary" inkscape:connector-curvature="0" />
	<path style="fill:none;stroke:red;stroke-width:1px;stroke-linecap:butt;stroke-linejoin:miter;stroke-opacity:1" d="M 17.4508,219.214 17.4508,236.027 z" id="boundary" inkscape:connector-curvature="0" />
	<path style="fill:none;stroke:red;stroke-width:1px;stroke-linecap:butt;stroke-linejoin:miter;stroke-opacity:1" d="M 17.4508,202.4 17.4508,219.214 z" id="boundary" inkscape:connector-curvature="0" />
	<path style="fill:none;stroke:red;stroke-width:1px;stroke-linecap:butt;stroke-linejoin:miter;stroke-opacity:1" d="M 25.8576,108.244 40.9898,98.1559 z" id="boundary" inkscape:connector-curvature="0" />
	<path style="fill:none;stroke:red;stroke-width:1px;stroke-linecap:butt;stroke-linejoin:miter;stroke-opacity:1" d="M 17.4508,236.027 17.4508,252.841 z" id="boundary" inkscape:connector-curvature="0" />
	<path style="fill:none;stroke:red;stroke-width:1px;stroke-linecap:butt;stroke-linejoin:miter;stroke-opacity:1" d="M 57.8034,91.4305 40.9898,98.1559 z" id="boundary" inkscape:connector-curvature="0" />
	<path style="fill:none;stroke:red;stroke-width:1px;stroke-linecap:butt;stroke-linejoin:miter;stroke-opacity:1" d="M 74.6169,88.0678 91.4305,81.3424 z" id="boundary" inkscape:connector-curvature="0" />
	<path style="fill:none;stroke:red;stroke-width:1px;stroke-linecap:butt;stroke-linejoin:miter;stroke-opacity:1" d="M 57.8034,91.4305 74.6169,88.0678 z" id="boundary" inkscape:connector-curvature="0" />
	<path style="fill:none;stroke:red;stroke-width:1px;stroke-linecap:butt;stroke-linejoin:miter;stroke-opacity:1" d="M 10.7254,498.319 14.0881,515.132 z" id="boundary" inkscape:connector-curvature="0" />
	<path style="fill:none;stroke:red;stroke-width:1px;stroke-linecap:butt;stroke-linejoin:miter;stroke-opacity:1" d="M 32.5831,488.231 30.9017,520.176 z" id="boundary" inkscape:connector-curvature="0" />
	<path style="fill:none;stroke:red;stroke-width:1px;stroke-linecap:butt;stroke-linejoin:miter;stroke-opacity:1" d="M 30.9017,520.176 14.0881,515.132 z" id="boundary" inkscape:connector-curvature="0" />
	<path style="fill:none;stroke:red;stroke-width:1px;stroke-linecap:butt;stroke-linejoin:miter;stroke-opacity:1" d="M 51.078,452.922 67.8915,452.922 z" id="boundary" inkscape:connector-curvature="0" />
	<path style="fill:none;stroke:red;stroke-width:1px;stroke-linecap:butt;stroke-linejoin:miter;stroke-opacity:1" d="M 91.4305,81.3424 108.244,74.6169 z" id="boundary" inkscape:connector-curvature="0" />
	<path style="fill:none;stroke:red;stroke-width:1px;stroke-linecap:butt;stroke-linejoin:miter;stroke-opacity:1" d="M 108.244,74.6169 125.058,71.2542 z" id="boundary" inkscape:connector-curvature="0" />
	<path style="fill:none;stroke:red;stroke-width:1px;stroke-linecap:butt;stroke-linejoin:miter;stroke-opacity:1" d="M 51.078,452.922 34.2644,456.285 z" id="boundary" inkscape:connector-curvature="0" />
	<path style="fill:none;stroke:red;stroke-width:1px;stroke-linecap:butt;stroke-linejoin:miter;stroke-opacity:1" d="M 67.8915,452.922 84.7051,452.922 z" id="boundary" inkscape:connector-curvature="0" />
	<path style="fill:none;stroke:red;stroke-width:1px;stroke-linecap:butt;stroke-linejoin:miter;stroke-opacity:1" d="M 141.871,67.8915 125.058,71.2542 z" id="boundary" inkscape:connector-curvature="0" />
	<path style="fill:none;stroke:red;stroke-width:1px;stroke-linecap:butt;stroke-linejoin:miter;stroke-opacity:1" d="M 101.519,452.922 84.7051,452.922 z" id="boundary" inkscape:connector-curvature="0" />
	<path style="fill:none;stroke:red;stroke-width:1px;stroke-linecap:butt;stroke-linejoin:miter;stroke-opacity:1" d="M 118.332,452.922 101.519,452.922 z" id="boundary" inkscape:connector-curvature="0" />
	<path style="fill:none;stroke:red;stroke-width:1px;stroke-linecap:butt;stroke-linejoin:miter;stroke-opacity:1" d="M 141.871,67.8915 158.685,64.5288 z" id="boundary" inkscape:connector-curvature="0" />
	<path style="fill:none;stroke:red;stroke-width:1px;stroke-linecap:butt;stroke-linejoin:miter;stroke-opacity:1" d="M 135.146,452.922 118.332,452.922 z" id="boundary" inkscape:connector-curvature="0" />
	<path style="fill:none;stroke:red;stroke-width:1px;stroke-linecap:butt;stroke-linejoin:miter;stroke-opacity:1" d="M 151.959,452.922 135.146,452.922 z" id="boundary" inkscape:connector-curvature="0" />
	<path style="fill:none;stroke:red;stroke-width:1px;stroke-linecap:butt;stroke-linejoin:miter;stroke-opacity:1" d="M 168.773,452.922 151.959,452.922 z" id="boundary" inkscape:connector-curvature="0" />
	<path style="fill:none;stroke:red;stroke-width:1px;stroke-linecap:butt;stroke-linejoin:miter;stroke-opacity:1" d="M 168.773,51.078 158.685,64.5288 z" id="boundary" inkscape:connector-curvature="0" />
	<path style="fill:none;stroke:red;stroke-width:1px;stroke-linecap:butt;stroke-linejoin:miter;stroke-opacity:1" d="M 168.773,51.078 182.224,40.9898 z" id="boundary" inkscape:connector-curvature="0" />
	<path style="fill:none;stroke:red;stroke-width:1px;stroke-linecap:butt;stroke-linejoin:miter;stroke-opacity:1" d="M 182.224,40.9898 199.037,34.2644 z" id="boundary" inkscape:connector-curvature="0" />
	<path style="fill:none;stroke:red;stroke-width:1px;stroke-linecap:butt;stroke-linejoin:miter;stroke-opacity:1" d="M 185.586,452.922 168.773,452.922 z" id="boundary" inkscape:connector-curvature="0" />
	<path style="fill:none;stroke:red;stroke-width:1px;stroke-linecap:butt;stroke-linejoin:miter;stroke-opacity:1" d="M 199.037,34.2644 212.488,17.4508 z" id="boundary" inkscape:connector-curvature="0" />
	<path style="fill:none;stroke:red;stroke-width:1px;stroke-linecap:butt;stroke-linejoin:miter;stroke-opacity:1" d="M 202.4,452.922 185.586,452.922 z" id="boundary" inkscape:connector-curvature="0" />
	<path style="fill:none;stroke:red;stroke-width:1px;stroke-linecap:butt;stroke-linejoin:miter;stroke-opacity:1" d="M 252.841,17.4508 242.753,4 z" id="boundary" inkscape:connector-curvature="0" />
	<path style="fill:none;stroke:red;stroke-width:1px;stroke-linecap:butt;stroke-linejoin:miter;stroke-opacity:1" d="M 242.753,4 225.939,4 z" id="boundary" inkscape:connector-curvature="0" />
	<path style="fill:none;stroke:red;stroke-width:1px;stroke-linecap:butt;stroke-linejoin:miter;stroke-opacity:1" d="M 219.214,452.922 202.4,452.922 z" id="boundary" inkscape:connector-curvature="0" />
	<path style="fill:none;stroke:red;stroke-width:1px;stroke-linecap:butt;stroke-linejoin:miter;stroke-opacity:1" d="M 212.488,17.4508 225.939,4 z" id="boundary" inkscape:connector-curvature="0" />
	<path style="fill:none;stroke:red;stroke-width:1px;stroke-linecap:butt;stroke-linejoin:miter;stroke-opacity:1" d="M 236.027,452.922 219.214,452.922 z" id="boundary" inkscape:connector-curvature="0" />
	<path style="fill:none;stroke:red;stroke-width:1px;stroke-linecap:butt;stroke-linejoin:miter;stroke-opacity:1" d="M 252.841,17.4508 264.61,30.9017 z" id="boundary" inkscape:connector-curvature="0" />
	<path style="fill:none;stroke:red;stroke-width:1px;stroke-linecap:butt;stroke-linejoin:miter;stroke-opacity:1" d="M 252.841,452.922 269.654,452.922 z" id="boundary" inkscape:connector-curvature="0" />
	<path style="fill:none;stroke:red;stroke-width:1px;stroke-linecap:butt;stroke-linejoin:miter;stroke-opacity:1" d="M 264.61,30.9017 279.742,39.3085 z" id="boundary" inkscape:connector-curvature="0" />
	<path style="fill:none;stroke:red;stroke-width:1px;stroke-linecap:butt;stroke-linejoin:miter;stroke-opacity:1" d="M 726.983,229.302 713.532,239.39 z" id="boundary" inkscape:connector-curvature="0" />
	<path style="fill:none;stroke:red;stroke-width:1px;stroke-linecap:butt;stroke-linejoin:miter;stroke-opacity:1" d="M 713.532,239.39 696.719,246.115 z" id="boundary" inkscape:connector-curvature="0" />
	<path style="fill:none;stroke:red;stroke-width:1px;stroke-linecap:butt;stroke-linejoin:miter;stroke-opacity:1" d="M 306.644,59.4847 321.776,67.8915 z" id="boundary" inkscape:connector-curvature="0" />
	<path style="fill:none;stroke:red;stroke-width:1px;stroke-linecap:butt;stroke-linejoin:miter;stroke-opacity:1" d="M 269.654,452.922 286.468,452.922 z" id="boundary" inkscape:connector-curvature="0" />
	<path style="fill:none;stroke:red;stroke-width:1px;stroke-linecap:butt;stroke-linejoin:miter;stroke-opacity:1" d="M 279.742,39.3085 296.556,46.0339 z" id="boundary" inkscape:connector-curvature="0" />
	<path style="fill:none;stroke:red;stroke-width:1px;stroke-linecap:butt;stroke-linejoin:miter;stroke-opacity:1" d="M 296.556,46.0339 306.644,59.4847 z" id="boundary" inkscape:connector-curvature="0" />
	<path style="fill:none;stroke:red;stroke-width:1px;stroke-linecap:butt;stroke-linejoin:miter;stroke-opacity:1" d="M 286.468,452.922 303.281,452.922 z" id="boundary" inkscape:connector-curvature="0" />
	<path style="fill:none;stroke:red;stroke-width:1px;stroke-linecap:butt;stroke-linejoin:miter;stroke-opacity:1" d="M 252.841,452.922 236.027,452.922 z" id="boundary" inkscape:connector-curvature="0" />
	<path style="fill:none;stroke:red;stroke-width:1px;stroke-linecap:butt;stroke-linejoin:miter;stroke-opacity:1" d="M 336.908,452.922 320.095,452.922 z" id="boundary" inkscape:connector-curvature="0" />
	<path style="fill:none;stroke:red;stroke-width:1px;stroke-linecap:butt;stroke-linejoin:miter;stroke-opacity:1" d="M 338.59,71.2542 321.776,67.8915 z" id="boundary" inkscape:connector-curvature="0" />
	<path style="fill:none;stroke:red;stroke-width:1px;stroke-linecap:butt;stroke-linejoin:miter;stroke-opacity:1" d="M 439.471,520.176 431.064,505.044 z" id="boundary" inkscape:connector-curvature="0" />
	<path style="fill:none;stroke:red;stroke-width:1px;stroke-linecap:butt;stroke-linejoin:miter;stroke-opacity:1" d="M 442.834,195.675 447.878,212.488 z" id="boundary" inkscape:connector-curvature="0" />
	<path style="fill:none;stroke:red;stroke-width:1px;stroke-linecap:butt;stroke-linejoin:miter;stroke-opacity:1" d="M 336.908,452.922 353.722,452.922 z" id="boundary" inkscape:connector-curvature="0" />
	<path style="fill:none;stroke:red;stroke-width:1px;stroke-linecap:butt;stroke-linejoin:miter;stroke-opacity:1" d="M 338.59,71.2542 355.403,74.6169 z" id="boundary" inkscape:connector-curvature="0" />
	<path style="fill:none;stroke:red;stroke-width:1px;stroke-linecap:butt;stroke-linejoin:miter;stroke-opacity:1" d="M 355.403,74.6169 372.217,81.3424 z" id="boundary" inkscape:connector-curvature="0" />
	<path style="fill:none;stroke:red;stroke-width:1px;stroke-linecap:butt;stroke-linejoin:miter;stroke-opacity:1" d="M 442.834,178.861 442.834,195.675 z" id="boundary" inkscape:connector-curvature="0" />
	<path style="fill:none;stroke:red;stroke-width:1px;stroke-linecap:butt;stroke-linejoin:miter;stroke-opacity:1" d="M 353.722,452.922 370.536,452.922 z" id="boundary" inkscape:connector-curvature="0" />
	<path style="fill:none;stroke:red;stroke-width:1px;stroke-linecap:butt;stroke-linejoin:miter;stroke-opacity:1" d="M 370.536,452.922 387.349,452.922 z" id="boundary" inkscape:connector-curvature="0" />
	<path style="fill:none;stroke:red;stroke-width:1px;stroke-linecap:butt;stroke-linejoin:miter;stroke-opacity:1" d="M 405.844,91.4305 389.031,84.7051 z" id="boundary" inkscape:connector-curvature="0" />
	<path style="fill:none;stroke:red;stroke-width:1px;stroke-linecap:butt;stroke-linejoin:miter;stroke-opacity:1" d="M 389.031,84.7051 372.217,81.3424 z" id="boundary" inkscape:connector-curvature="0" />
	<path style="fill:none;stroke:red;stroke-width:1px;stroke-linecap:butt;stroke-linejoin:miter;stroke-opacity:1" d="M 437.79,106.563 422.658,98.1559 z" id="boundary" inkscape:connector-curvature="0" />
	<path style="fill:none;stroke:red;stroke-width:1px;stroke-linecap:butt;stroke-linejoin:miter;stroke-opacity:1" d="M 422.658,98.1559 405.844,91.4305 z" id="boundary" inkscape:connector-curvature="0" />
	<path style="fill:none;stroke:red;stroke-width:1px;stroke-linecap:butt;stroke-linejoin:miter;stroke-opacity:1" d="M 404.163,452.922 387.349,452.922 z" id="boundary" inkscape:connector-curvature="0" />
	<path style="fill:none;stroke:red;stroke-width:1px;stroke-linecap:butt;stroke-linejoin:miter;stroke-opacity:1" d="M 320.095,452.922 303.281,452.922 z" id="boundary" inkscape:connector-curvature="0" />
	<path style="fill:none;stroke:red;stroke-width:1px;stroke-linecap:butt;stroke-linejoin:miter;stroke-opacity:1" d="M 420.976,452.922 427.702,469.736 z" id="boundary" inkscape:connector-curvature="0" />
	<path style="fill:none;stroke:red;stroke-width:1px;stroke-linecap:butt;stroke-linejoin:miter;stroke-opacity:1" d="M 420.976,452.922 404.163,452.922 z" id="boundary" inkscape:connector-curvature="0" />
	<path style="fill:none;stroke:red;stroke-width:1px;stroke-linecap:butt;stroke-linejoin:miter;stroke-opacity:1" d="M 434.427,486.549 431.064,505.044 z" id="boundary" inkscape:connector-curvature="0" />
	<path style="fill:none;stroke:red;stroke-width:1px;stroke-linecap:butt;stroke-linejoin:miter;stroke-opacity:1" d="M 434.427,486.549 427.702,469.736 z" id="boundary" inkscape:connector-curvature="0" />
	<path style="fill:none;stroke:red;stroke-width:1px;stroke-linecap:butt;stroke-linejoin:miter;stroke-opacity:1" d="M 479.824,220.895 494.956,229.302 z" id="boundary" inkscape:connector-curvature="0" />
	<path style="fill:none;stroke:red;stroke-width:1px;stroke-linecap:butt;stroke-linejoin:miter;stroke-opacity:1" d="M 449.559,162.047 442.834,178.861 z" id="boundary" inkscape:connector-curvature="0" />
	<path style="fill:none;stroke:red;stroke-width:1px;stroke-linecap:butt;stroke-linejoin:miter;stroke-opacity:1" d="M 456.285,469.736 454.603,452.922 z" id="boundary" inkscape:connector-curvature="0" />
	<path style="fill:none;stroke:red;stroke-width:1px;stroke-linecap:butt;stroke-linejoin:miter;stroke-opacity:1" d="M 459.647,131.783 451.241,116.651 z" id="boundary" inkscape:connector-curvature="0" />
	<path style="fill:none;stroke:red;stroke-width:1px;stroke-linecap:butt;stroke-linejoin:miter;stroke-opacity:1" d="M 451.241,116.651 437.79,106.563 z" id="boundary" inkscape:connector-curvature="0" />
	<path style="fill:none;stroke:red;stroke-width:1px;stroke-linecap:butt;stroke-linejoin:miter;stroke-opacity:1" d="M 449.559,162.047 459.647,148.597 z" id="boundary" inkscape:connector-curvature="0" />
	<path style="fill:none;stroke:red;stroke-width:1px;stroke-linecap:butt;stroke-linejoin:miter;stroke-opacity:1" d="M 459.647,148.597 459.647,131.783 z" id="boundary" inkscape:connector-curvature="0" />
	<path style="fill:none;stroke:red;stroke-width:1px;stroke-linecap:butt;stroke-linejoin:miter;stroke-opacity:1" d="M 456.285,518.495 439.471,520.176 z" id="boundary" inkscape:connector-curvature="0" />
	<path style="fill:none;stroke:red;stroke-width:1px;stroke-linecap:butt;stroke-linejoin:miter;stroke-opacity:1" d="M 456.285,518.495 452.922,494.956 z" id="boundary" inkscape:connector-curvature="0" />
	<path style="fill:none;stroke:red;stroke-width:1px;stroke-linecap:butt;stroke-linejoin:miter;stroke-opacity:1" d="M 447.878,212.488 464.692,212.488 z" id="boundary" inkscape:connector-curvature="0" />
	<path style="fill:none;stroke:red;stroke-width:1px;stroke-linecap:butt;stroke-linejoin:miter;stroke-opacity:1" d="M 471.417,452.922 488.231,452.922 z" id="boundary" inkscape:connector-curvature="0" />
	<path style="fill:none;stroke:red;stroke-width:1px;stroke-linecap:butt;stroke-linejoin:miter;stroke-opacity:1" d="M 488.231,452.922 491.593,469.736 z" id="boundary" inkscape:connector-curvature="0" />
	<path style="fill:none;stroke:red;stroke-width:1px;stroke-linecap:butt;stroke-linejoin:miter;stroke-opacity:1" d="M 479.824,220.895 464.692,212.488 z" id="boundary" inkscape:connector-curvature="0" />
	<path style="fill:none;stroke:red;stroke-width:1px;stroke-linecap:butt;stroke-linejoin:miter;stroke-opacity:1" d="M 535.308,261.247 521.858,251.159 z" id="boundary" inkscape:connector-curvature="0" />
	<path style="fill:none;stroke:red;stroke-width:1px;stroke-linecap:butt;stroke-linejoin:miter;stroke-opacity:1" d="M 494.956,229.302 508.407,239.39 z" id="boundary" inkscape:connector-curvature="0" />
	<path style="fill:none;stroke:red;stroke-width:1px;stroke-linecap:butt;stroke-linejoin:miter;stroke-opacity:1" d="M 454.603,452.922 471.417,452.922 z" id="boundary" inkscape:connector-curvature="0" />
	<path style="fill:none;stroke:red;stroke-width:1px;stroke-linecap:butt;stroke-linejoin:miter;stroke-opacity:1" d="M 491.593,469.736 491.593,486.549 z" id="boundary" inkscape:connector-curvature="0" />
	<path style="fill:none;stroke:red;stroke-width:1px;stroke-linecap:butt;stroke-linejoin:miter;stroke-opacity:1" d="M 521.858,251.159 508.407,239.39 z" id="boundary" inkscape:connector-curvature="0" />
	<path style="fill:none;stroke:red;stroke-width:1px;stroke-linecap:butt;stroke-linejoin:miter;stroke-opacity:1" d="M 491.593,486.549 494.956,511.769 z" id="boundary" inkscape:connector-curvature="0" />
	<path style="fill:none;stroke:red;stroke-width:1px;stroke-linecap:butt;stroke-linejoin:miter;stroke-opacity:1" d="M 508.407,523.539 494.956,511.769 z" id="boundary" inkscape:connector-curvature="0" />
	<path style="fill:none;stroke:red;stroke-width:1px;stroke-linecap:butt;stroke-linejoin:miter;stroke-opacity:1" d="M 548.759,273.017 535.308,261.247 z" id="boundary" inkscape:connector-curvature="0" />
	<path style="fill:none;stroke:red;stroke-width:1px;stroke-linecap:butt;stroke-linejoin:miter;stroke-opacity:1" d="M 548.759,463.01 565.573,466.373 z" id="boundary" inkscape:connector-curvature="0" />
	<path style="fill:none;stroke:red;stroke-width:1px;stroke-linecap:butt;stroke-linejoin:miter;stroke-opacity:1" d="M 523.539,478.142 520.176,494.956 z" id="boundary" inkscape:connector-curvature="0" />
	<path style="fill:none;stroke:red;stroke-width:1px;stroke-linecap:butt;stroke-linejoin:miter;stroke-opacity:1" d="M 531.946,463.01 523.539,478.142 z" id="boundary" inkscape:connector-curvature="0" />
	<path style="fill:none;stroke:red;stroke-width:1px;stroke-linecap:butt;stroke-linejoin:miter;stroke-opacity:1" d="M 531.946,463.01 548.759,463.01 z" id="boundary" inkscape:connector-curvature="0" />
	<path style="fill:none;stroke:red;stroke-width:1px;stroke-linecap:butt;stroke-linejoin:miter;stroke-opacity:1" d="M 548.759,273.017 565.573,279.742 z" id="boundary" inkscape:connector-curvature="0" />
	<path style="fill:none;stroke:red;stroke-width:1px;stroke-linecap:butt;stroke-linejoin:miter;stroke-opacity:1" d="M 565.573,466.373 582.386,473.098 z" id="boundary" inkscape:connector-curvature="0" />
	<path style="fill:none;stroke:red;stroke-width:1px;stroke-linecap:butt;stroke-linejoin:miter;stroke-opacity:1" d="M 582.386,276.38 565.573,279.742 z" id="boundary" inkscape:connector-curvature="0" />
	<path style="fill:none;stroke:red;stroke-width:1px;stroke-linecap:butt;stroke-linejoin:miter;stroke-opacity:1" d="M 582.386,276.38 599.2,273.017 z" id="boundary" inkscape:connector-curvature="0" />
	<path style="fill:none;stroke:red;stroke-width:1px;stroke-linecap:butt;stroke-linejoin:miter;stroke-opacity:1" d="M 599.2,469.736 582.386,473.098 z" id="boundary" inkscape:connector-curvature="0" />
	<path style="fill:none;stroke:red;stroke-width:1px;stroke-linecap:butt;stroke-linejoin:miter;stroke-opacity:1" d="M 612.651,459.647 599.2,469.736 z" id="boundary" inkscape:connector-curvature="0" />
	<path style="fill:none;stroke:red;stroke-width:1px;stroke-linecap:butt;stroke-linejoin:miter;stroke-opacity:1" d="M 616.014,269.654 632.827,269.654 z" id="boundary" inkscape:connector-curvature="0" />
	<path style="fill:none;stroke:red;stroke-width:1px;stroke-linecap:butt;stroke-linejoin:miter;stroke-opacity:1" d="M 616.014,269.654 599.2,273.017 z" id="boundary" inkscape:connector-curvature="0" />
	<path style="fill:none;stroke:red;stroke-width:1px;stroke-linecap:butt;stroke-linejoin:miter;stroke-opacity:1" d="M 629.464,456.285 646.278,461.329 z" id="boundary" inkscape:connector-curvature="0" />
	<path style="fill:none;stroke:red;stroke-width:1px;stroke-linecap:butt;stroke-linejoin:miter;stroke-opacity:1" d="M 629.464,456.285 612.651,459.647 z" id="boundary" inkscape:connector-curvature="0" />
	<path style="fill:none;stroke:red;stroke-width:1px;stroke-linecap:butt;stroke-linejoin:miter;stroke-opacity:1" d="M 646.278,461.329 661.41,469.736 z" id="boundary" inkscape:connector-curvature="0" />
	<path style="fill:none;stroke:red;stroke-width:1px;stroke-linecap:butt;stroke-linejoin:miter;stroke-opacity:1" d="M 632.827,269.654 649.641,266.292 z" id="boundary" inkscape:connector-curvature="0" />
	<path style="fill:none;stroke:red;stroke-width:1px;stroke-linecap:butt;stroke-linejoin:miter;stroke-opacity:1" d="M 661.41,469.736 678.224,476.461 z" id="boundary" inkscape:connector-curvature="0" />
	<path style="fill:none;stroke:red;stroke-width:1px;stroke-linecap:butt;stroke-linejoin:miter;stroke-opacity:1" d="M 649.641,266.292 666.454,262.929 z" id="boundary" inkscape:connector-curvature="0" />
	<path style="fill:none;stroke:red;stroke-width:1px;stroke-linecap:butt;stroke-linejoin:miter;stroke-opacity:1" d="M 679.905,252.841 696.719,246.115 z" id="boundary" inkscape:connector-curvature="0" />
	<path style="fill:none;stroke:red;stroke-width:1px;stroke-linecap:butt;stroke-linejoin:miter;stroke-opacity:1" d="M 679.905,252.841 666.454,262.929 z" id="boundary" inkscape:connector-curvature="0" />
	<path style="fill:none;stroke:red;stroke-width:1px;stroke-linecap:butt;stroke-linejoin:miter;stroke-opacity:1" d="M 695.037,483.186 678.224,476.461 z" id="boundary" inkscape:connector-curvature="0" />
	<path style="fill:none;stroke:red;stroke-width:1px;stroke-linecap:butt;stroke-linejoin:miter;stroke-opacity:1" d="M 711.851,489.912 695.037,483.186 z" id="boundary" inkscape:connector-curvature="0" />
	<path style="fill:none;stroke:red;stroke-width:1px;stroke-linecap:butt;stroke-linejoin:miter;stroke-opacity:1" d="M 787.512,252.841 802.644,261.247 z" id="boundary" inkscape:connector-curvature="0" />
	<path style="fill:none;stroke:red;stroke-width:1px;stroke-linecap:butt;stroke-linejoin:miter;stroke-opacity:1" d="M 758.929,234.346 774.061,242.753 z" id="boundary" inkscape:connector-curvature="0" />
	<path style="fill:none;stroke:red;stroke-width:1px;stroke-linecap:butt;stroke-linejoin:miter;stroke-opacity:1" d="M 728.664,493.275 711.851,489.912 z" id="boundary" inkscape:connector-curvature="0" />
	<path style="fill:none;stroke:red;stroke-width:1px;stroke-linecap:butt;stroke-linejoin:miter;stroke-opacity:1" d="M 726.983,229.302 743.797,225.939 z" id="boundary" inkscape:connector-curvature="0" />
	<path style="fill:none;stroke:red;stroke-width:1px;stroke-linecap:butt;stroke-linejoin:miter;stroke-opacity:1" d="M 743.797,225.939 758.929,234.346 z" id="boundary" inkscape:connector-curvature="0" />
	<path style="fill:none;stroke:red;stroke-width:1px;stroke-linecap:butt;stroke-linejoin:miter;stroke-opacity:1" d="M 745.478,493.275 728.664,493.275 z" id="boundary" inkscape:connector-curvature="0" />
	<path style="fill:none;stroke:red;stroke-width:1px;stroke-linecap:butt;stroke-linejoin:miter;stroke-opacity:1" d="M 774.061,242.753 787.512,252.841 z" id="boundary" inkscape:connector-curvature="0" />
	<path style="fill:none;stroke:red;stroke-width:1px;stroke-linecap:butt;stroke-linejoin:miter;stroke-opacity:1" d="M 762.292,489.912 745.478,493.275 z" id="boundary" inkscape:connector-curvature="0" />
	<path style="fill:none;stroke:red;stroke-width:1px;stroke-linecap:butt;stroke-linejoin:miter;stroke-opacity:1" d="M 906.888,468.054 891.756,476.461 z" id="boundary" inkscape:connector-curvature="0" />
	<path style="fill:none;stroke:red;stroke-width:1px;stroke-linecap:butt;stroke-linejoin:miter;stroke-opacity:1" d="M 795.919,478.142 779.105,486.549 z" id="boundary" inkscape:connector-curvature="0" />
	<path style="fill:none;stroke:red;stroke-width:1px;stroke-linecap:butt;stroke-linejoin:miter;stroke-opacity:1" d="M 779.105,486.549 762.292,489.912 z" id="boundary" inkscape:connector-curvature="0" />
	<path style="fill:none;stroke:red;stroke-width:1px;stroke-linecap:butt;stroke-linejoin:miter;stroke-opacity:1" d="M 876.624,468.054 891.756,476.461 z" id="boundary" inkscape:connector-curvature="0" />
	<path style="fill:none;stroke:red;stroke-width:1px;stroke-linecap:butt;stroke-linejoin:miter;stroke-opacity:1" d="M 812.732,471.417 795.919,478.142 z" id="boundary" inkscape:connector-curvature="0" />
	<path style="fill:none;stroke:red;stroke-width:1px;stroke-linecap:butt;stroke-linejoin:miter;stroke-opacity:1" d="M 819.458,266.292 802.644,261.247 z" id="boundary" inkscape:connector-curvature="0" />
	<path style="fill:none;stroke:red;stroke-width:1px;stroke-linecap:butt;stroke-linejoin:miter;stroke-opacity:1" d="M 844.678,459.647 861.492,459.647 z" id="boundary" inkscape:connector-curvature="0" />
	<path style="fill:none;stroke:red;stroke-width:1px;stroke-linecap:butt;stroke-linejoin:miter;stroke-opacity:1" d="M 861.492,459.647 876.624,468.054 z" id="boundary" inkscape:connector-curvature="0" />
	<path style="fill:none;stroke:red;stroke-width:1px;stroke-linecap:butt;stroke-linejoin:miter;stroke-opacity:1" d="M 827.864,463.01 812.732,471.417 z" id="boundary" inkscape:connector-curvature="0" />
	<path style="fill:none;stroke:red;stroke-width:1px;stroke-linecap:butt;stroke-linejoin:miter;stroke-opacity:1" d="M 836.271,269.654 819.458,266.292 z" id="boundary" inkscape:connector-curvature="0" />
	<path style="fill:none;stroke:red;stroke-width:1px;stroke-linecap:butt;stroke-linejoin:miter;stroke-opacity:1" d="M 844.678,459.647 827.864,463.01 z" id="boundary" inkscape:connector-curvature="0" />
	<path style="fill:none;stroke:red;stroke-width:1px;stroke-linecap:butt;stroke-linejoin:miter;stroke-opacity:1" d="M 853.085,269.654 869.898,274.698 z" id="boundary" inkscape:connector-curvature="0" />
	<path style="fill:none;stroke:red;stroke-width:1px;stroke-linecap:butt;stroke-linejoin:miter;stroke-opacity:1" d="M 853.085,269.654 836.271,269.654 z" id="boundary" inkscape:connector-curvature="0" />
	<path style="fill:none;stroke:red;stroke-width:1px;stroke-linecap:butt;stroke-linejoin:miter;stroke-opacity:1" d="M 886.712,276.38 903.525,279.742 z" id="boundary" inkscape:connector-curvature="0" />
	<path style="fill:none;stroke:red;stroke-width:1px;stroke-linecap:butt;stroke-linejoin:miter;stroke-opacity:1" d="M 869.898,274.698 886.712,276.38 z" id="boundary" inkscape:connector-curvature="0" />
	<path style="fill:none;stroke:red;stroke-width:1px;stroke-linecap:butt;stroke-linejoin:miter;stroke-opacity:1" d="M 975.824,521.858 965.736,508.407 z" id="boundary" inkscape:connector-curvature="0" />
	<path style="fill:none;stroke:red;stroke-width:1px;stroke-linecap:butt;stroke-linejoin:miter;stroke-opacity:1" d="M 920.339,283.105 903.525,279.742 z" id="boundary" inkscape:connector-curvature="0" />
	<path style="fill:none;stroke:red;stroke-width:1px;stroke-linecap:butt;stroke-linejoin:miter;stroke-opacity:1" d="M 980.868,360.447 980.868,377.261 z" id="boundary" inkscape:connector-curvature="0" />
	<path style="fill:none;stroke:red;stroke-width:1px;stroke-linecap:butt;stroke-linejoin:miter;stroke-opacity:1" d="M 923.702,463.01 940.515,463.01 z" id="boundary" inkscape:connector-curvature="0" />
	<path style="fill:none;stroke:red;stroke-width:1px;stroke-linecap:butt;stroke-linejoin:miter;stroke-opacity:1" d="M 923.702,463.01 906.888,468.054 z" id="boundary" inkscape:connector-curvature="0" />
	<path style="fill:none;stroke:red;stroke-width:1px;stroke-linecap:butt;stroke-linejoin:miter;stroke-opacity:1" d="M 937.153,286.468 920.339,283.105 z" id="boundary" inkscape:connector-curvature="0" />
	<path style="fill:none;stroke:red;stroke-width:1px;stroke-linecap:butt;stroke-linejoin:miter;stroke-opacity:1" d="M 965.736,491.593 965.736,508.407 z" id="boundary" inkscape:connector-curvature="0" />
	<path style="fill:none;stroke:red;stroke-width:1px;stroke-linecap:butt;stroke-linejoin:miter;stroke-opacity:1" d="M 953.966,293.193 970.78,299.919 z" id="boundary" inkscape:connector-curvature="0" />
	<path style="fill:none;stroke:red;stroke-width:1px;stroke-linecap:butt;stroke-linejoin:miter;stroke-opacity:1" d="M 937.153,286.468 953.966,293.193 z" id="boundary" inkscape:connector-curvature="0" />
	<path style="fill:none;stroke:red;stroke-width:1px;stroke-linecap:butt;stroke-linejoin:miter;stroke-opacity:1" d="M 957.329,463.01 940.515,463.01 z" id="boundary" inkscape:connector-curvature="0" />
	<path style="fill:none;stroke:red;stroke-width:1px;stroke-linecap:butt;stroke-linejoin:miter;stroke-opacity:1" d="M 977.505,424.339 977.505,407.525 z" id="boundary" inkscape:connector-curvature="0" />
	<path style="fill:none;stroke:red;stroke-width:1px;stroke-linecap:butt;stroke-linejoin:miter;stroke-opacity:1" d="M 977.505,441.153 977.505,424.339 z" id="boundary" inkscape:connector-curvature="0" />
	<path style="fill:none;stroke:red;stroke-width:1px;stroke-linecap:butt;stroke-linejoin:miter;stroke-opacity:1" d="M 980.868,457.966 977.505,441.153 z" id="boundary" inkscape:connector-curvature="0" />
	<path style="fill:none;stroke:red;stroke-width:1px;stroke-linecap:butt;stroke-linejoin:miter;stroke-opacity:1" d="M 977.505,407.525 980.868,377.261 z" id="boundary" inkscape:connector-curvature="0" />
	<path style="fill:none;stroke:red;stroke-width:1px;stroke-linecap:butt;stroke-linejoin:miter;stroke-opacity:1" d="M 980.868,457.966 989.275,473.098 z" id="boundary" inkscape:connector-curvature="0" />
	<path style="fill:none;stroke:red;stroke-width:1px;stroke-linecap:butt;stroke-linejoin:miter;stroke-opacity:1" d="M 980.868,360.447 994.319,346.997 z" id="boundary" inkscape:connector-curvature="0" />
	<path style="fill:none;stroke:red;stroke-width:1px;stroke-linecap:butt;stroke-linejoin:miter;stroke-opacity:1" d="M 970.78,299.919 984.231,310.007 z" id="boundary" inkscape:connector-curvature="0" />
	<path style="fill:none;stroke:red;stroke-width:1px;stroke-linecap:butt;stroke-linejoin:miter;stroke-opacity:1" d="M 989.275,473.098 982.549,500 z" id="boundary" inkscape:connector-curvature="0" />
	<path style="fill:none;stroke:red;stroke-width:1px;stroke-linecap:butt;stroke-linejoin:miter;stroke-opacity:1" d="M 996,323.458 994.319,346.997 z" id="boundary" inkscape:connector-curvature="0" />
	<path style="fill:none;stroke:red;stroke-width:1px;stroke-linecap:butt;stroke-linejoin:miter;stroke-opacity:1" d="M 996,323.458 984.231,310.007 z" id="boundary" inkscape:connector-curvature="0" />
	<circle cx="4" cy="135.146" r="4" fill="#0" id="circle0"/>
	<circle cx="4" cy="414.251" r="4" fill="#0" id="circle1"/>
	<circle cx="7.36271" cy="151.959" r="4" fill="#0" id="circle2"/>
	<circle cx="7.36271" cy="333.546" r="4" fill="#0" id="circle3"/>
	<circle cx="7.36271" cy="350.359" r="4" fill="#0" id="circle4"/>
	<circle cx="7.36271" cy="367.173" r="4" fill="#0" id="circle5"/>
	<circle cx="7.36271" cy="383.986" r="4" fill="#0" id="circle6"/>
	<circle cx="7.36271" cy="431.064" r="4" fill="#0" id="circle7"/>
	<circle cx="7.36271" cy="447.878" r="4" fill="#0" id="circle8"/>
	<circle cx="10.7254" cy="306.644" r="4" fill="#0" id="circle9"/>
	<circle cx="10.7254" cy="464.692" r="4" fill="#0" id="circle10"/>
	<circle cx="10.7254" cy="481.505" r="4" fill="#0" id="circle11"/>
	<circle cx="10.7254" cy="498.319" r="4" fill="#0" id="circle12"/>
	<circle cx="12.4068" cy="120.014" r="4" fill="#0" id="circle13"/>
	<circle cx="14.0881" cy="168.773" r="4" fill="#0" id="circle14"/>
	<circle cx="14.0881" cy="185.586" r="4" fill="#0" id="circle15"/>
	<circle cx="14.0881" cy="279.742" r="4" fill="#0" id="circle16"/>
	<circle cx="14.0881" cy="515.132" r="4" fill="#0" id="circle17"/>
	<circle cx="17.4508" cy="202.4" r="4" fill="#0" id="circle18"/>
	<circle cx="17.4508" cy="219.214" r="4" fill="#0" id="circle19"/>
	<circle cx="17.4508" cy="236.027" r="4" fill="#0" id="circle20"/>
	<circle cx="17.4508" cy="252.841" r="4" fill="#0" id="circle21"/>
	<circle cx="25.8576" cy="108.244" r="4" fill="#0" id="circle22"/>
	<circle cx="30.9017" cy="520.176" r="4" fill="#0" id="circle23"/>
	<circle cx="32.5831" cy="488.231" r="4" fill="#0" id="circle24"/>
	<circle cx="34.2644" cy="456.285" r="4" fill="#0" id="circle25"/>
	<circle cx="40.9898" cy="98.1559" r="4" fill="#0" id="circle26"/>
	<circle cx="51.078" cy="452.922" r="4" fill="#0" id="circle27"/>
	<circle cx="57.8034" cy="91.4305" r="4" fill="#0" id="circle28"/>
	<circle cx="67.8915" cy="452.922" r="4" fill="#0" id="circle29"/>
	<circle cx="74.6169" cy="88.0678" r="4" fill="#0" id="circle30"/>
	<circle cx="84.7051" cy="452.922" r="4" fill="#0" id="circle31"/>
	<circle cx="91.4305" cy="81.3424" r="4" fill="#0" id="circle32"/>
	<circle cx="101.519" cy="452.922" r="4" fill="#0" id="circle33"/>
	<circle cx="108.244" cy="74.6169" r="4" fill="#0" id="circle34"/>
	<circle cx="118.332" cy="452.922" r="4" fill="#0" id="circle35"/>
	<circle cx="125.058" cy="71.2542" r="4" fill="#0" id="circle36"/>
	<circle cx="135.146" cy="452.922" r="4" fill="#0" id="circle37"/>
	<circle cx="141.871" cy="67.8915" r="4" fill="#0" id="circle38"/>
	<circle cx="151.959" cy="452.922" r="4" fill="#0" id="circle39"/>
	<circle cx="158.685" cy="64.5288" r="4" fill="#0" id="circle40"/>
	<circle cx="168.773" cy="51.078" r="4" fill="#0" id="circle41"/>
	<circle cx="168.773" cy="452.922" r="4" fill="#0" id="circle42"/>
	<circle cx="182.224" cy="40.9898" r="4" fill="#0" id="circle43"/>
	<circle cx="185.586" cy="452.922" r="4" fill="#0" id="circle44"/>
	<circle cx="199.037" cy="34.2644" r="4" fill="#0" id="circle45"/>
	<circle cx="202.4" cy="452.922" r="4" fill="#0" id="circle46"/>
	<circle cx="212.488" cy="17.4508" r="4" fill="#0" id="circle47"/>
	<circle cx="219.214" cy="452.922" r="4" fill="#0" id="circle48"/>
	<circle cx="225.939" cy="4" r="4" fill="#0" id="circle49"/>
	<circle cx="236.027" cy="452.922" r="4" fill="#0" id="circle50"/>
	<circle cx="242.753" cy="4" r="4" fill="#0" id="circle51"/>
	<circle cx="252.841" cy="17.4508" r="4" fill="#0" id="circle52"/>
	<circle cx="252.841" cy="452.922" r="4" fill="#0" id="circle53"/>
	<circle cx="264.61" cy="30.9017" r="4" fill="#0" id="circle54"/>
	<circle cx="269.654" cy="452.922" r="4" fill="#0" id="circle55"/>
	<circle cx="279.742" cy="39.3085" r="4" fill="#0" id="circle56"/>
	<circle cx="286.468" cy="452.922" r="4" fill="#0" id="circle57"/>
	<circle cx="296.556" cy="46.0339" r="4" fill="#0" id="circle58"/>
	<circle cx="303.281" cy="452.922" r="4" fill="#0" id="circle59"/>
	<circle cx="306.644" cy="59.4847" r="4" fill="#0" id="circle60"/>
	<circle cx="320.095" cy="452.922" r="4" fill="#0" id="circle61"/>
	<circle cx="321.776" cy="67.8915" r="4" fill="#0" id="circle62"/>
	<circle cx="336.908" cy="452.922" r="4" fill="#0" id="circle63"/>
	<circle cx="338.59" cy="71.2542" r="4" fill="#0" id="circle64"/>
	<circle cx="353.722" cy="452.922" r="4" fill="#0" id="circle65"/>
	<circle cx="355.403" cy="74.6169" r="4" fill="#0" id="circle66"/>
	<circle cx="370.536" cy="452.922" r="4" fill="#0" id="circle67"/>
	<circle cx="372.217" cy="81.3424" r="4" fill="#0" id="circle68"/>
	<circle cx="387.349" cy="452.922" r="4" fill="#0" id="circle69"/>
	<circle cx="389.031" cy="84.7051" r="4" fill="#0" id="circle70"/>
	<circle cx="404.163" cy="452.922" r="4" fill="#0" id="circle71"/>
	<circle cx="405.844" cy="91.4305" r="4" fill="#0" id="circle72"/>
	<circle cx="420.976" cy="452.922" r="4" fill="#0" id="circle73"/>
	<circle cx="422.658" cy="98.1559" r="4" fill="#0" id="circle74"/>
	<circle cx="427.702" cy="469.736" r="4" fill="#0" id="circle75"/>
	<circle cx="431.064" cy="505.044" r="4" fill="#0" id="circle76"/>
	<circle cx="434.427" cy="486.549" r="4" fill="#0" id="circle77"/>
	<circle cx="437.79" cy="106.563" r="4" fill="#0" id="circle78"/>
	<circle cx="439.471" cy="520.176" r="4" fill="#0" id="circle79"/>
	<circle cx="442.834" cy="178.861" r="4" fill="#0" id="circle80"/>
	<circle cx="442.834" cy="195.675" r="4" fill="#0" id="circle81"/>
	<circle cx="447.878" cy="212.488" r="4" fill="#0" id="circle82"/>
	<circle cx="449.559" cy="162.047" r="4" fill="#0" id="circle83"/>
	<circle cx="451.241" cy="116.651" r="4" fill="#0" id="circle84"/>
	<circle cx="452.922" cy="494.956" r="4" fill="#0" id="circle85"/>
	<circle cx="454.603" cy="452.922" r="4" fill="#0" id="circle86"/>
	<circle cx="456.285" cy="469.736" r="4" fill="#0" id="circle87"/>
	<circle cx="456.285" cy="518.495" r="4" fill="#0" id="circle88"/>
	<circle cx="459.647" cy="131.783" r="4" fill="#0" id="circle89"/>
	<circle cx="459.647" cy="148.597" r="4" fill="#0" id="circle90"/>
	<circle cx="464.692" cy="212.488" r="4" fill="#0" id="circle91"/>
	<circle cx="471.417" cy="452.922" r="4" fill="#0" id="circle92"/>
	<circle cx="479.824" cy="220.895" r="4" fill="#0" id="circle93"/>
	<circle cx="488.231" cy="452.922" r="4" fill="#0" id="circle94"/>
	<circle cx="491.593" cy="469.736" r="4" fill="#0" id="circle95"/>
	<circle cx="491.593" cy="486.549" r="4" fill="#0" id="circle96"/>
	<circle cx="494.956" cy="229.302" r="4" fill="#0" id="circle97"/>
	<circle cx="494.956" cy="511.769" r="4" fill="#0" id="circle98"/>
	<circle cx="508.407" cy="239.39" r="4" fill="#0" id="circle99"/>
	<circle cx="508.407" cy="523.539" r="4" fill="#0" id="circle100"/>
	<circle cx="520.176" cy="494.956" r="4" fill="#0" id="circle101"/>
	<circle cx="521.858" cy="251.159" r="4" fill="#0" id="circle102"/>
	<circle cx="523.539" cy="478.142" r="4" fill="#0" id="circle103"/>
	<circle cx="531.946" cy="463.01" r="4" fill="#0" id="circle104"/>
	<circle cx="535.308" cy="261.247" r="4" fill="#0" id="circle105"/>
	<circle cx="548.759" cy="273.017" r="4" fill="#0" id="circle106"/>
	<circle cx="548.759" cy="463.01" r="4" fill="#0" id="circle107"/>
	<circle cx="565.573" cy="279.742" r="4" fill="#0" id="circle108"/>
	<circle cx="565.573" cy="466.373" r="4" fill="#0" id="circle109"/>
	<circle cx="582.386" cy="276.38" r="4" fill="#0" id="circle110"/>
	<circle cx="582.386" cy="473.098" r="4" fill="#0" id="circle111"/>
	<circle cx="599.2" cy="273.017" r="4" fill="#0" id="circle112"/>
	<circle cx="599.2" cy="469.736" r="4" fill="#0" id="circle113"/>
	<circle cx="612.651" cy="459.647" r="4" fill="#0" id="circle114"/>
	<circle cx="616.014" cy="269.654" r="4" fill="#0" id="circle115"/>
	<circle cx="629.464" cy="456.285" r="4" fill="#0" id="circle116"/>
	<circle cx="632.827" cy="269.654" r="4" fill="#0" id="circle117"/>
	<circle cx="646.278" cy="461.329" r="4" fill="#0" id="circle118"/>
	<circle cx="649.641" cy="266.292" r="4" fill="#0" id="circle119"/>
	<circle cx="661.41" cy="469.736" r="4" fill="#0" id="circle120"/>
	<circle cx="666.454" cy="262.929" r="4" fill="#0" id="circle121"/>
	<circle cx="678.224" cy="476.461" r="4" fill="#0" id="circle122"/>
	<circle cx="679.905" cy="252.841" r="4" fill="#0" id="circle123"/>
	<circle cx="695.037" cy="483.186" r="4" fill="#0" id="circle124"/>
	<circle cx="696.719" cy="246.115" r="4" fill="#0" id="circle125"/>
	<circle cx="711.851" cy="489.912" r="4" fill="#0" id="circle126"/>
	<circle cx="713.532" cy="239.39" r="4" fill="#0" id="circle127"/>
	<circle cx="726.983" cy="229.302" r="4" fill="#0" id="circle128"/>
	<circle cx="728.664" cy="493.275" r="4" fill="#0" id="circle129"/>
	<circle cx="743.797" cy="225.939" r="4" fill="#0" id="circle130"/>
	<circle cx="745.478" cy="493.275" r="4" fill="#0" id="circle131"/>
	<circle cx="758.929" cy="234.346" r="4" fill="#0" id="circle132"/>
	<circle cx="762.292" cy="489.912" r="4" fill="#0" id="circle133"/>
	<circle cx="774.061" cy="242.753" r="4" fill="#0" id="circle134"/>
	<circle cx="779.105" cy="486.549" r="4" fill="#0" id="circle135"/>
	<circle cx="787.512" cy="252.841" r="4" fill="#0" id="circle136"/>
	<circle cx="795.919" cy="478.142" r="4" fill="#0" id="circle137"/>
	<circle cx="802.644" cy="261.247" r="4" fill="#0" id="circle138"/>
	<circle cx="812.732" cy="471.417" r="4" fill="#0" id="circle139"/>
	<circle cx="819.458" cy="266.292" r="4" fill="#0" id="circle140"/>
	<circle cx="827.864" cy="463.01" r="4" fill="#0" id="circle141"/>
	<circle cx="836.271" cy="269.654" r="4" fill="#0" id="circle142"/>
	<circle cx="844.678" cy="459.647" r="4" fill="#0" id="circle143"/>
	<circle cx="853.085" cy="269.654" r="4" fill="#0" id="circle144"/>
	<circle cx="861.492" cy="459.647" r="4" fill="#0" id="circle145"/>
	<circle cx="869.898" cy="274.698" r="4" fill="#0" id="circle146"/>
	<circle cx="876.624" cy="468.054" r="4" fill="#0" id="circle147"/>
	<circle cx="886.712" cy="276.38" r="4" fill="#0" id="circle148"/>
	<circle cx="891.756" cy="476.461" r="4" fill="#0" id="circle149"/>
	<circle cx="903.525" cy="279.742" r="4" fill="#0" id="circle150"/>
	<circle cx="906.888" cy="468.054" r="4" fill="#0" id="circle151"/>
	<circle cx="920.339" cy="283.105" r="4" fill="#0" id="circle152"/>
	<circle cx="923.702" cy="463.01" r="4" fill="#0" id="circle153"/>
	<circle cx="937.153" cy="286.468" r="4" fill="#0" id="circle154"/>
	<circle cx="940.515" cy="463.01" r="4" fill="#0" id="circle155"/>
	<circle cx="953.966" cy="293.193" r="4" fill="#0" id="circle156"/>
	<circle cx="957.329" cy="463.01" r="4" fill="#0" id="circle157"/>
	<circle cx="965.736" cy="491.593" r="4" fill="#0" id="circle158"/>
	<circle cx="965.736" cy="508.407" r="4" fill="#0" id="circle159"/>
	<circle cx="970.78" cy="299.919" r="4" fill="#0" id="circle160"/>
	<circle cx="975.824" cy="521.858" r="4" fill="#0" id="circle161"/>
	<circle cx="977.505" cy="407.525" r="4" fill="#0" id="circle162"/>
	<circle cx="977.505" cy="424.339" r="4" fill="#0" id="circle163"/>
	<circle cx="977.505" cy="441.153" r="4" fill="#0" id="circle164"/>
	<circle cx="980.868" cy="360.447" r="4" fill="#0" id="circle165"/>
	<circle cx="980.868" cy="377.261" r="4" fill="#0" id="circle166"/>
	<circle cx="980.868" cy="457.966" r="4" fill="#0" id="circle167"/>
	<circle cx="982.549" cy="500" r="4" fill="#0" id="circle168"/>
	<circle cx="984.231" cy="310.007" r="4" fill="#0" id="circle169"/>
	<circle cx="989.275" cy="473.098" r="4" fill="#0" id="circle170"/>
	<circle cx="994.319" cy="346.997" r="4" fill="#0" id="circle171"/>
	<circle cx="996" cy="323.458" r="4" fill="#0" id="circle172"/>
	</g>
</svg>