<?xml version="1.0" encoding="UTF-8" standalone="no"?>
<!-- Created with CurveBenchmark -->
<svg
	xmlns:dc="http://purl.org/dc/elements/1.1/"
	xmlns:cc="http://creativecommons.org/ns#"
	xmlns:rdf="http://www.w3.org/1999/02/22-rdf-syntax-ns#"
	xmlns:svg="http://www.w3.org/2000/svg"
	xmlns="http://www.w3.org/2000/svg"
	xmlns:sodipodi="http://sodipodi.sourceforge.net/DTD/sodipodi-0.dtd"
	xmlns:inkscape="http://www.inkscape.org/namespaces/inkscape"
	width="1000"
	height="1000"
	id="svg2"
	version="1.1"
	sodipodi:docname="manifold/peel-television340.png.txt">
<defs
	id="defs4" />
<metadata
	id="metadata7">
	<rdf:RDF>
		<cc:Work
			rdf:about="">
			<dc:format>image/svg+xml</dc:format>
			<dc:type
				rdf:resource="http://purl.org/dc/dcmitype/StillImage" />
			<dc:title></dc:title>
		</cc:Work>
	</rdf:RDF>
</metadata>
<g
	inkscape:label="Layer 1"
	inkscape:groupmode="layer"
	id="layer1">
	<path style="fill:none;stroke:red;stroke-width:1px;stroke-linecap:butt;stroke-linejoin:miter;stroke-opacity:1" d="M 4,791.095 4,758.57 z" id="boundary" inkscape:connector-curvature="0" />
	<path style="fill:none;stroke:red;stroke-width:1px;stroke-linecap:butt;stroke-linejoin:miter;stroke-opacity:1" d="M 4,758.57 36.5246,745.561 z" id="boundary" inkscape:connector-curvature="0" />
	<path style="fill:none;stroke:red;stroke-width:1px;stroke-linecap:butt;stroke-linejoin:miter;stroke-opacity:1" d="M 4,791.095 26.7672,817.115 z" id="boundary" inkscape:connector-curvature="0" />
	<path style="fill:none;stroke:red;stroke-width:1px;stroke-linecap:butt;stroke-linejoin:miter;stroke-opacity:1" d="M 26.7672,817.115 59.2918,823.62 z" id="boundary" inkscape:connector-curvature="0" />
	<path style="fill:none;stroke:red;stroke-width:1px;stroke-linecap:butt;stroke-linejoin:miter;stroke-opacity:1" d="M 69.0492,745.561 36.5246,745.561 z" id="boundary" inkscape:connector-curvature="0" />
	<path style="fill:none;stroke:red;stroke-width:1px;stroke-linecap:butt;stroke-linejoin:miter;stroke-opacity:1" d="M 91.8164,813.862 124.341,826.872 z" id="boundary" inkscape:connector-curvature="0" />
	<path style="fill:none;stroke:red;stroke-width:1px;stroke-linecap:butt;stroke-linejoin:miter;stroke-opacity:1" d="M 91.8164,813.862 59.2918,823.62 z" id="boundary" inkscape:connector-curvature="0" />
	<path style="fill:none;stroke:red;stroke-width:1px;stroke-linecap:butt;stroke-linejoin:miter;stroke-opacity:1" d="M 101.574,745.561 134.098,745.561 z" id="boundary" inkscape:connector-curvature="0" />
	<path style="fill:none;stroke:red;stroke-width:1px;stroke-linecap:butt;stroke-linejoin:miter;stroke-opacity:1" d="M 114.584,573.18 88.5639,550.413 z" id="boundary" inkscape:connector-curvature="0" />
	<path style="fill:none;stroke:red;stroke-width:1px;stroke-linecap:butt;stroke-linejoin:miter;stroke-opacity:1" d="M 69.0492,745.561 101.574,745.561 z" id="boundary" inkscape:connector-curvature="0" />
	<path style="fill:none;stroke:red;stroke-width:1px;stroke-linecap:butt;stroke-linejoin:miter;stroke-opacity:1" d="M 121.089,647.987 88.5639,647.987 z" id="boundary" inkscape:connector-curvature="0" />
	<path style="fill:none;stroke:red;stroke-width:1px;stroke-linecap:butt;stroke-linejoin:miter;stroke-opacity:1" d="M 104.826,677.259 137.351,677.259 z" id="boundary" inkscape:connector-curvature="0" />
	<path style="fill:none;stroke:red;stroke-width:1px;stroke-linecap:butt;stroke-linejoin:miter;stroke-opacity:1" d="M 121.089,82.059 121.089,49.5344 z" id="boundary" inkscape:connector-curvature="0" />
	<path style="fill:none;stroke:red;stroke-width:1px;stroke-linecap:butt;stroke-linejoin:miter;stroke-opacity:1" d="M 121.089,49.5344 121.089,17.0098 z" id="boundary" inkscape:connector-curvature="0" />
	<path style="fill:none;stroke:red;stroke-width:1px;stroke-linecap:butt;stroke-linejoin:miter;stroke-opacity:1" d="M 121.089,114.584 121.089,82.059 z" id="boundary" inkscape:connector-curvature="0" />
	<path style="fill:none;stroke:red;stroke-width:1px;stroke-linecap:butt;stroke-linejoin:miter;stroke-opacity:1" d="M 134.098,745.561 166.623,745.561 z" id="boundary" inkscape:connector-curvature="0" />
	<path style="fill:none;stroke:red;stroke-width:1px;stroke-linecap:butt;stroke-linejoin:miter;stroke-opacity:1" d="M 121.089,147.108 121.089,114.584 z" id="boundary" inkscape:connector-curvature="0" />
	<path style="fill:none;stroke:red;stroke-width:1px;stroke-linecap:butt;stroke-linejoin:miter;stroke-opacity:1" d="M 121.089,17.0098 153.613,4 z" id="boundary" inkscape:connector-curvature="0" />
	<path style="fill:none;stroke:red;stroke-width:1px;stroke-linecap:butt;stroke-linejoin:miter;stroke-opacity:1" d="M 121.089,179.633 121.089,147.108 z" id="boundary" inkscape:connector-curvature="0" />
	<path style="fill:none;stroke:red;stroke-width:1px;stroke-linecap:butt;stroke-linejoin:miter;stroke-opacity:1" d="M 186.138,4 153.613,4 z" id="boundary" inkscape:connector-curvature="0" />
	<path style="fill:none;stroke:red;stroke-width:1px;stroke-linecap:butt;stroke-linejoin:miter;stroke-opacity:1" d="M 121.089,212.157 121.089,179.633 z" id="boundary" inkscape:connector-curvature="0" />
	<path style="fill:none;stroke:red;stroke-width:1px;stroke-linecap:butt;stroke-linejoin:miter;stroke-opacity:1" d="M 121.089,244.682 121.089,212.157 z" id="boundary" inkscape:connector-curvature="0" />
	<path style="fill:none;stroke:red;stroke-width:1px;stroke-linecap:butt;stroke-linejoin:miter;stroke-opacity:1" d="M 186.138,4 218.662,4 z" id="boundary" inkscape:connector-curvature="0" />
	<path style="fill:none;stroke:red;stroke-width:1px;stroke-linecap:butt;stroke-linejoin:miter;stroke-opacity:1" d="M 121.089,277.207 121.089,244.682 z" id="boundary" inkscape:connector-curvature="0" />
	<path style="fill:none;stroke:red;stroke-width:1px;stroke-linecap:butt;stroke-linejoin:miter;stroke-opacity:1" d="M 218.662,4 251.187,4 z" id="boundary" inkscape:connector-curvature="0" />
	<path style="fill:none;stroke:red;stroke-width:1px;stroke-linecap:butt;stroke-linejoin:miter;stroke-opacity:1" d="M 127.593,342.256 127.593,309.731 z" id="boundary" inkscape:connector-curvature="0" />
	<path style="fill:none;stroke:red;stroke-width:1px;stroke-linecap:butt;stroke-linejoin:miter;stroke-opacity:1" d="M 127.593,309.731 121.089,277.207 z" id="boundary" inkscape:connector-curvature="0" />
	<path style="fill:none;stroke:red;stroke-width:1px;stroke-linecap:butt;stroke-linejoin:miter;stroke-opacity:1" d="M 127.593,342.256 127.593,374.78 z" id="boundary" inkscape:connector-curvature="0" />
	<path style="fill:none;stroke:red;stroke-width:1px;stroke-linecap:butt;stroke-linejoin:miter;stroke-opacity:1" d="M 127.593,374.78 127.593,407.305 z" id="boundary" inkscape:connector-curvature="0" />
	<path style="fill:none;stroke:red;stroke-width:1px;stroke-linecap:butt;stroke-linejoin:miter;stroke-opacity:1" d="M 137.351,677.259 169.875,677.259 z" id="boundary" inkscape:connector-curvature="0" />
	<path style="fill:none;stroke:red;stroke-width:1px;stroke-linecap:butt;stroke-linejoin:miter;stroke-opacity:1" d="M 127.593,407.305 143.856,436.577 z" id="boundary" inkscape:connector-curvature="0" />
	<path style="fill:none;stroke:red;stroke-width:1px;stroke-linecap:butt;stroke-linejoin:miter;stroke-opacity:1" d="M 153.613,647.987 121.089,647.987 z" id="boundary" inkscape:connector-curvature="0" />
	<path style="fill:none;stroke:red;stroke-width:1px;stroke-linecap:butt;stroke-linejoin:miter;stroke-opacity:1" d="M 147.108,573.18 114.584,573.18 z" id="boundary" inkscape:connector-curvature="0" />
	<path style="fill:none;stroke:red;stroke-width:1px;stroke-linecap:butt;stroke-linejoin:miter;stroke-opacity:1" d="M 130.846,543.908 163.37,543.908 z" id="boundary" inkscape:connector-curvature="0" />
	<path style="fill:none;stroke:red;stroke-width:1px;stroke-linecap:butt;stroke-linejoin:miter;stroke-opacity:1" d="M 156.866,813.862 189.39,813.862 z" id="boundary" inkscape:connector-curvature="0" />
	<path style="fill:none;stroke:red;stroke-width:1px;stroke-linecap:butt;stroke-linejoin:miter;stroke-opacity:1" d="M 156.866,813.862 124.341,826.872 z" id="boundary" inkscape:connector-curvature="0" />
	<path style="fill:none;stroke:red;stroke-width:1px;stroke-linecap:butt;stroke-linejoin:miter;stroke-opacity:1" d="M 143.856,436.577 176.38,436.577 z" id="boundary" inkscape:connector-curvature="0" />
	<path style="fill:none;stroke:red;stroke-width:1px;stroke-linecap:butt;stroke-linejoin:miter;stroke-opacity:1" d="M 166.623,745.561 199.148,745.561 z" id="boundary" inkscape:connector-curvature="0" />
	<path style="fill:none;stroke:red;stroke-width:1px;stroke-linecap:butt;stroke-linejoin:miter;stroke-opacity:1" d="M 179.633,573.18 147.108,573.18 z" id="boundary" inkscape:connector-curvature="0" />
	<path style="fill:none;stroke:red;stroke-width:1px;stroke-linecap:butt;stroke-linejoin:miter;stroke-opacity:1" d="M 169.875,677.259 202.4,677.259 z" id="boundary" inkscape:connector-curvature="0" />
	<path style="fill:none;stroke:red;stroke-width:1px;stroke-linecap:butt;stroke-linejoin:miter;stroke-opacity:1" d="M 186.138,647.987 153.613,647.987 z" id="boundary" inkscape:connector-curvature="0" />
	<path style="fill:none;stroke:red;stroke-width:1px;stroke-linecap:butt;stroke-linejoin:miter;stroke-opacity:1" d="M 163.37,543.908 195.895,543.908 z" id="boundary" inkscape:connector-curvature="0" />
	<path style="fill:none;stroke:red;stroke-width:1px;stroke-linecap:butt;stroke-linejoin:miter;stroke-opacity:1" d="M 189.39,813.862 221.915,813.862 z" id="boundary" inkscape:connector-curvature="0" />
	<path style="fill:none;stroke:red;stroke-width:1px;stroke-linecap:butt;stroke-linejoin:miter;stroke-opacity:1" d="M 176.38,436.577 208.905,436.577 z" id="boundary" inkscape:connector-curvature="0" />
	<path style="fill:none;stroke:red;stroke-width:1px;stroke-linecap:butt;stroke-linejoin:miter;stroke-opacity:1" d="M 251.187,4 283.711,4 z" id="boundary" inkscape:connector-curvature="0" />
	<path style="fill:none;stroke:red;stroke-width:1px;stroke-linecap:butt;stroke-linejoin:miter;stroke-opacity:1" d="M 199.148,745.561 231.672,745.561 z" id="boundary" inkscape:connector-curvature="0" />
	<path style="fill:none;stroke:red;stroke-width:1px;stroke-linecap:butt;stroke-linejoin:miter;stroke-opacity:1" d="M 212.157,573.18 179.633,573.18 z" id="boundary" inkscape:connector-curvature="0" />
	<path style="fill:none;stroke:red;stroke-width:1px;stroke-linecap:butt;stroke-linejoin:miter;stroke-opacity:1" d="M 202.4,677.259 234.925,677.259 z" id="boundary" inkscape:connector-curvature="0" />
	<path style="fill:none;stroke:red;stroke-width:1px;stroke-linecap:butt;stroke-linejoin:miter;stroke-opacity:1" d="M 218.662,647.987 186.138,647.987 z" id="boundary" inkscape:connector-curvature="0" />
	<path style="fill:none;stroke:red;stroke-width:1px;stroke-linecap:butt;stroke-linejoin:miter;stroke-opacity:1" d="M 195.895,543.908 228.42,543.908 z" id="boundary" inkscape:connector-curvature="0" />
	<path style="fill:none;stroke:red;stroke-width:1px;stroke-linecap:butt;stroke-linejoin:miter;stroke-opacity:1" d="M 221.915,813.862 254.439,813.862 z" id="boundary" inkscape:connector-curvature="0" />
	<path style="fill:none;stroke:red;stroke-width:1px;stroke-linecap:butt;stroke-linejoin:miter;stroke-opacity:1" d="M 208.905,436.577 241.43,436.577 z" id="boundary" inkscape:connector-curvature="0" />
	<path style="fill:none;stroke:red;stroke-width:1px;stroke-linecap:butt;stroke-linejoin:miter;stroke-opacity:1" d="M 231.672,745.561 264.197,745.561 z" id="boundary" inkscape:connector-curvature="0" />
	<path style="fill:none;stroke:red;stroke-width:1px;stroke-linecap:butt;stroke-linejoin:miter;stroke-opacity:1" d="M 244.682,573.18 212.157,573.18 z" id="boundary" inkscape:connector-curvature="0" />
	<path style="fill:none;stroke:red;stroke-width:1px;stroke-linecap:butt;stroke-linejoin:miter;stroke-opacity:1" d="M 234.925,677.259 267.449,677.259 z" id="boundary" inkscape:connector-curvature="0" />
	<path style="fill:none;stroke:red;stroke-width:1px;stroke-linecap:butt;stroke-linejoin:miter;stroke-opacity:1" d="M 251.187,647.987 218.662,647.987 z" id="boundary" inkscape:connector-curvature="0" />
	<path style="fill:none;stroke:red;stroke-width:1px;stroke-linecap:butt;stroke-linejoin:miter;stroke-opacity:1" d="M 228.42,543.908 260.944,543.908 z" id="boundary" inkscape:connector-curvature="0" />
	<path style="fill:none;stroke:red;stroke-width:1px;stroke-linecap:butt;stroke-linejoin:miter;stroke-opacity:1" d="M 254.439,813.862 286.964,813.862 z" id="boundary" inkscape:connector-curvature="0" />
	<path style="fill:none;stroke:red;stroke-width:1px;stroke-linecap:butt;stroke-linejoin:miter;stroke-opacity:1" d="M 241.43,436.577 273.954,436.577 z" id="boundary" inkscape:connector-curvature="0" />
	<path style="fill:none;stroke:red;stroke-width:1px;stroke-linecap:butt;stroke-linejoin:miter;stroke-opacity:1" d="M 316.236,4 283.711,4 z" id="boundary" inkscape:connector-curvature="0" />
	<path style="fill:none;stroke:red;stroke-width:1px;stroke-linecap:butt;stroke-linejoin:miter;stroke-opacity:1" d="M 264.197,745.561 296.721,745.561 z" id="boundary" inkscape:connector-curvature="0" />
	<path style="fill:none;stroke:red;stroke-width:1px;stroke-linecap:butt;stroke-linejoin:miter;stroke-opacity:1" d="M 277.207,573.18 244.682,573.18 z" id="boundary" inkscape:connector-curvature="0" />
	<path style="fill:none;stroke:red;stroke-width:1px;stroke-linecap:butt;stroke-linejoin:miter;stroke-opacity:1" d="M 267.449,677.259 299.974,677.259 z" id="boundary" inkscape:connector-curvature="0" />
	<path style="fill:none;stroke:red;stroke-width:1px;stroke-linecap:butt;stroke-linejoin:miter;stroke-opacity:1" d="M 283.711,647.987 251.187,647.987 z" id="boundary" inkscape:connector-curvature="0" />
	<path style="fill:none;stroke:red;stroke-width:1px;stroke-linecap:butt;stroke-linejoin:miter;stroke-opacity:1" d="M 260.944,543.908 293.469,543.908 z" id="boundary" inkscape:connector-curvature="0" />
	<path style="fill:none;stroke:red;stroke-width:1px;stroke-linecap:butt;stroke-linejoin:miter;stroke-opacity:1" d="M 286.964,813.862 319.489,813.862 z" id="boundary" inkscape:connector-curvature="0" />
	<path style="fill:none;stroke:red;stroke-width:1px;stroke-linecap:butt;stroke-linejoin:miter;stroke-opacity:1" d="M 273.954,436.577 306.479,436.577 z" id="boundary" inkscape:connector-curvature="0" />
	<path style="fill:none;stroke:red;stroke-width:1px;stroke-linecap:butt;stroke-linejoin:miter;stroke-opacity:1" d="M 296.721,745.561 329.246,745.561 z" id="boundary" inkscape:connector-curvature="0" />
	<path style="fill:none;stroke:red;stroke-width:1px;stroke-linecap:butt;stroke-linejoin:miter;stroke-opacity:1" d="M 309.731,573.18 277.207,573.18 z" id="boundary" inkscape:connector-curvature="0" />
	<path style="fill:none;stroke:red;stroke-width:1px;stroke-linecap:butt;stroke-linejoin:miter;stroke-opacity:1" d="M 299.974,677.259 332.498,677.259 z" id="boundary" inkscape:connector-curvature="0" />
	<path style="fill:none;stroke:red;stroke-width:1px;stroke-linecap:butt;stroke-linejoin:miter;stroke-opacity:1" d="M 316.236,647.987 283.711,647.987 z" id="boundary" inkscape:connector-curvature="0" />
	<path style="fill:none;stroke:red;stroke-width:1px;stroke-linecap:butt;stroke-linejoin:miter;stroke-opacity:1" d="M 293.469,543.908 325.993,543.908 z" id="boundary" inkscape:connector-curvature="0" />
	<path style="fill:none;stroke:red;stroke-width:1px;stroke-linecap:butt;stroke-linejoin:miter;stroke-opacity:1" d="M 319.489,813.862 352.013,813.862 z" id="boundary" inkscape:connector-curvature="0" />
	<path style="fill:none;stroke:red;stroke-width:1px;stroke-linecap:butt;stroke-linejoin:miter;stroke-opacity:1" d="M 306.479,436.577 339.003,436.577 z" id="boundary" inkscape:connector-curvature="0" />
	<path style="fill:none;stroke:red;stroke-width:1px;stroke-linecap:butt;stroke-linejoin:miter;stroke-opacity:1" d="M 316.236,4 348.761,4 z" id="boundary" inkscape:connector-curvature="0" />
	<path style="fill:none;stroke:red;stroke-width:1px;stroke-linecap:butt;stroke-linejoin:miter;stroke-opacity:1" d="M 342.256,573.18 309.731,573.18 z" id="boundary" inkscape:connector-curvature="0" />
	<path style="fill:none;stroke:red;stroke-width:1px;stroke-linecap:butt;stroke-linejoin:miter;stroke-opacity:1" d="M 332.498,677.259 365.023,677.259 z" id="boundary" inkscape:connector-curvature="0" />
	<path style="fill:none;stroke:red;stroke-width:1px;stroke-linecap:butt;stroke-linejoin:miter;stroke-opacity:1" d="M 348.761,647.987 316.236,647.987 z" id="boundary" inkscape:connector-curvature="0" />
	<path style="fill:none;stroke:red;stroke-width:1px;stroke-linecap:butt;stroke-linejoin:miter;stroke-opacity:1" d="M 381.285,501.626 381.285,469.102 z" id="boundary" inkscape:connector-curvature="0" />
	<path style="fill:none;stroke:red;stroke-width:1px;stroke-linecap:butt;stroke-linejoin:miter;stroke-opacity:1" d="M 352.013,813.862 384.538,813.862 z" id="boundary" inkscape:connector-curvature="0" />
	<path style="fill:none;stroke:red;stroke-width:1px;stroke-linecap:butt;stroke-linejoin:miter;stroke-opacity:1" d="M 339.003,436.577 371.528,436.577 z" id="boundary" inkscape:connector-curvature="0" />
	<path style="fill:none;stroke:red;stroke-width:1px;stroke-linecap:butt;stroke-linejoin:miter;stroke-opacity:1" d="M 325.993,543.908 358.518,543.908 z" id="boundary" inkscape:connector-curvature="0" />
	<path style="fill:none;stroke:red;stroke-width:1px;stroke-linecap:butt;stroke-linejoin:miter;stroke-opacity:1" d="M 361.77,745.561 329.246,745.561 z" id="boundary" inkscape:connector-curvature="0" />
	<path style="fill:none;stroke:red;stroke-width:1px;stroke-linecap:butt;stroke-linejoin:miter;stroke-opacity:1" d="M 361.77,745.561 381.285,706.531 z" id="boundary" inkscape:connector-curvature="0" />
	<path style="fill:none;stroke:red;stroke-width:1px;stroke-linecap:butt;stroke-linejoin:miter;stroke-opacity:1" d="M 374.78,573.18 342.256,573.18 z" id="boundary" inkscape:connector-curvature="0" />
	<path style="fill:none;stroke:red;stroke-width:1px;stroke-linecap:butt;stroke-linejoin:miter;stroke-opacity:1" d="M 381.285,605.705 374.78,573.18 z" id="boundary" inkscape:connector-curvature="0" />
	<path style="fill:none;stroke:red;stroke-width:1px;stroke-linecap:butt;stroke-linejoin:miter;stroke-opacity:1" d="M 381.285,638.23 348.761,647.987 z" id="boundary" inkscape:connector-curvature="0" />
	<path style="fill:none;stroke:red;stroke-width:1px;stroke-linecap:butt;stroke-linejoin:miter;stroke-opacity:1" d="M 381.285,638.23 381.285,605.705 z" id="boundary" inkscape:connector-curvature="0" />
	<path style="fill:none;stroke:red;stroke-width:1px;stroke-linecap:butt;stroke-linejoin:miter;stroke-opacity:1" d="M 365.023,677.259 381.285,706.531 z" id="boundary" inkscape:connector-curvature="0" />
	<path style="fill:none;stroke:red;stroke-width:1px;stroke-linecap:butt;stroke-linejoin:miter;stroke-opacity:1" d="M 381.285,469.102 371.528,436.577 z" id="boundary" inkscape:connector-curvature="0" />
	<path style="fill:none;stroke:red;stroke-width:1px;stroke-linecap:butt;stroke-linejoin:miter;stroke-opacity:1" d="M 384.538,813.862 417.062,813.862 z" id="boundary" inkscape:connector-curvature="0" />
	<path style="fill:none;stroke:red;stroke-width:1px;stroke-linecap:butt;stroke-linejoin:miter;stroke-opacity:1" d="M 381.285,4 413.81,4 z" id="boundary" inkscape:connector-curvature="0" />
	<path style="fill:none;stroke:red;stroke-width:1px;stroke-linecap:butt;stroke-linejoin:miter;stroke-opacity:1" d="M 348.761,4 381.285,4 z" id="boundary" inkscape:connector-curvature="0" />
	<path style="fill:none;stroke:red;stroke-width:1px;stroke-linecap:butt;stroke-linejoin:miter;stroke-opacity:1" d="M 358.518,543.908 381.285,501.626 z" id="boundary" inkscape:connector-curvature="0" />
	<path style="fill:none;stroke:red;stroke-width:1px;stroke-linecap:butt;stroke-linejoin:miter;stroke-opacity:1" d="M 417.062,813.862 449.587,813.862 z" id="boundary" inkscape:connector-curvature="0" />
	<path style="fill:none;stroke:red;stroke-width:1px;stroke-linecap:butt;stroke-linejoin:miter;stroke-opacity:1" d="M 446.334,4 413.81,4 z" id="boundary" inkscape:connector-curvature="0" />
	<path style="fill:none;stroke:red;stroke-width:1px;stroke-linecap:butt;stroke-linejoin:miter;stroke-opacity:1" d="M 446.334,4 478.859,4 z" id="boundary" inkscape:connector-curvature="0" />
	<path style="fill:none;stroke:red;stroke-width:1px;stroke-linecap:butt;stroke-linejoin:miter;stroke-opacity:1" d="M 573.18,439.83 573.18,472.354 z" id="boundary" inkscape:connector-curvature="0" />
	<path style="fill:none;stroke:red;stroke-width:1px;stroke-linecap:butt;stroke-linejoin:miter;stroke-opacity:1" d="M 573.18,504.879 573.18,537.403 z" id="boundary" inkscape:connector-curvature="0" />
	<path style="fill:none;stroke:red;stroke-width:1px;stroke-linecap:butt;stroke-linejoin:miter;stroke-opacity:1" d="M 573.18,472.354 573.18,504.879 z" id="boundary" inkscape:connector-curvature="0" />
	<path style="fill:none;stroke:red;stroke-width:1px;stroke-linecap:butt;stroke-linejoin:miter;stroke-opacity:1" d="M 449.587,813.862 482.111,813.862 z" id="boundary" inkscape:connector-curvature="0" />
	<path style="fill:none;stroke:red;stroke-width:1px;stroke-linecap:butt;stroke-linejoin:miter;stroke-opacity:1" d="M 511.384,4 478.859,4 z" id="boundary" inkscape:connector-curvature="0" />
	<path style="fill:none;stroke:red;stroke-width:1px;stroke-linecap:butt;stroke-linejoin:miter;stroke-opacity:1" d="M 482.111,813.862 514.636,813.862 z" id="boundary" inkscape:connector-curvature="0" />
	<path style="fill:none;stroke:red;stroke-width:1px;stroke-linecap:butt;stroke-linejoin:miter;stroke-opacity:1" d="M 543.908,4 511.384,4 z" id="boundary" inkscape:connector-curvature="0" />
	<path style="fill:none;stroke:red;stroke-width:1px;stroke-linecap:butt;stroke-linejoin:miter;stroke-opacity:1" d="M 514.636,813.862 547.161,813.862 z" id="boundary" inkscape:connector-curvature="0" />
	<path style="fill:none;stroke:red;stroke-width:1px;stroke-linecap:butt;stroke-linejoin:miter;stroke-opacity:1" d="M 547.161,813.862 579.685,813.862 z" id="boundary" inkscape:connector-curvature="0" />
	<path style="fill:none;stroke:red;stroke-width:1px;stroke-linecap:butt;stroke-linejoin:miter;stroke-opacity:1" d="M 573.18,608.957 573.18,576.433 z" id="boundary" inkscape:connector-curvature="0" />
	<path style="fill:none;stroke:red;stroke-width:1px;stroke-linecap:butt;stroke-linejoin:miter;stroke-opacity:1" d="M 576.433,4 543.908,4 z" id="boundary" inkscape:connector-curvature="0" />
	<path style="fill:none;stroke:red;stroke-width:1px;stroke-linecap:butt;stroke-linejoin:miter;stroke-opacity:1" d="M 605.705,436.577 573.18,439.83 z" id="boundary" inkscape:connector-curvature="0" />
	<path style="fill:none;stroke:red;stroke-width:1px;stroke-linecap:butt;stroke-linejoin:miter;stroke-opacity:1" d="M 573.18,608.957 573.18,641.482 z" id="boundary" inkscape:connector-curvature="0" />
	<path style="fill:none;stroke:red;stroke-width:1px;stroke-linecap:butt;stroke-linejoin:miter;stroke-opacity:1" d="M 605.705,436.577 638.23,436.577 z" id="boundary" inkscape:connector-curvature="0" />
	<path style="fill:none;stroke:red;stroke-width:1px;stroke-linecap:butt;stroke-linejoin:miter;stroke-opacity:1" d="M 573.18,680.511 573.18,713.036 z" id="boundary" inkscape:connector-curvature="0" />
	<path style="fill:none;stroke:red;stroke-width:1px;stroke-linecap:butt;stroke-linejoin:miter;stroke-opacity:1" d="M 573.18,537.403 605.705,543.908 z" id="boundary" inkscape:connector-curvature="0" />
	<path style="fill:none;stroke:red;stroke-width:1px;stroke-linecap:butt;stroke-linejoin:miter;stroke-opacity:1" d="M 576.433,745.561 573.18,713.036 z" id="boundary" inkscape:connector-curvature="0" />
	<path style="fill:none;stroke:red;stroke-width:1px;stroke-linecap:butt;stroke-linejoin:miter;stroke-opacity:1" d="M 579.685,813.862 612.21,813.862 z" id="boundary" inkscape:connector-curvature="0" />
	<path style="fill:none;stroke:red;stroke-width:1px;stroke-linecap:butt;stroke-linejoin:miter;stroke-opacity:1" d="M 576.433,745.561 608.957,745.561 z" id="boundary" inkscape:connector-curvature="0" />
	<path style="fill:none;stroke:red;stroke-width:1px;stroke-linecap:butt;stroke-linejoin:miter;stroke-opacity:1" d="M 573.18,641.482 605.705,647.987 z" id="boundary" inkscape:connector-curvature="0" />
	<path style="fill:none;stroke:red;stroke-width:1px;stroke-linecap:butt;stroke-linejoin:miter;stroke-opacity:1" d="M 608.957,4 576.433,4 z" id="boundary" inkscape:connector-curvature="0" />
	<path style="fill:none;stroke:red;stroke-width:1px;stroke-linecap:butt;stroke-linejoin:miter;stroke-opacity:1" d="M 612.21,813.862 644.734,813.862 z" id="boundary" inkscape:connector-curvature="0" />
	<path style="fill:none;stroke:red;stroke-width:1px;stroke-linecap:butt;stroke-linejoin:miter;stroke-opacity:1" d="M 638.23,647.987 605.705,647.987 z" id="boundary" inkscape:connector-curvature="0" />
	<path style="fill:none;stroke:red;stroke-width:1px;stroke-linecap:butt;stroke-linejoin:miter;stroke-opacity:1" d="M 608.957,745.561 641.482,745.561 z" id="boundary" inkscape:connector-curvature="0" />
	<path style="fill:none;stroke:red;stroke-width:1px;stroke-linecap:butt;stroke-linejoin:miter;stroke-opacity:1" d="M 654.492,677.259 621.967,677.259 z" id="boundary" inkscape:connector-curvature="0" />
	<path style="fill:none;stroke:red;stroke-width:1px;stroke-linecap:butt;stroke-linejoin:miter;stroke-opacity:1" d="M 638.23,543.908 605.705,543.908 z" id="boundary" inkscape:connector-curvature="0" />
	<path style="fill:none;stroke:red;stroke-width:1px;stroke-linecap:butt;stroke-linejoin:miter;stroke-opacity:1" d="M 644.734,813.862 677.259,813.862 z" id="boundary" inkscape:connector-curvature="0" />
	<path style="fill:none;stroke:red;stroke-width:1px;stroke-linecap:butt;stroke-linejoin:miter;stroke-opacity:1" d="M 621.967,573.18 654.492,573.18 z" id="boundary" inkscape:connector-curvature="0" />
	<path style="fill:none;stroke:red;stroke-width:1px;stroke-linecap:butt;stroke-linejoin:miter;stroke-opacity:1" d="M 674.007,4 641.482,4 z" id="boundary" inkscape:connector-curvature="0" />
	<path style="fill:none;stroke:red;stroke-width:1px;stroke-linecap:butt;stroke-linejoin:miter;stroke-opacity:1" d="M 638.23,436.577 670.754,436.577 z" id="boundary" inkscape:connector-curvature="0" />
	<path style="fill:none;stroke:red;stroke-width:1px;stroke-linecap:butt;stroke-linejoin:miter;stroke-opacity:1" d="M 608.957,4 641.482,4 z" id="boundary" inkscape:connector-curvature="0" />
	<path style="fill:none;stroke:red;stroke-width:1px;stroke-linecap:butt;stroke-linejoin:miter;stroke-opacity:1" d="M 670.754,647.987 638.23,647.987 z" id="boundary" inkscape:connector-curvature="0" />
	<path style="fill:none;stroke:red;stroke-width:1px;stroke-linecap:butt;stroke-linejoin:miter;stroke-opacity:1" d="M 641.482,745.561 674.007,745.561 z" id="boundary" inkscape:connector-curvature="0" />
	<path style="fill:none;stroke:red;stroke-width:1px;stroke-linecap:butt;stroke-linejoin:miter;stroke-opacity:1" d="M 687.016,677.259 654.492,677.259 z" id="boundary" inkscape:connector-curvature="0" />
	<path style="fill:none;stroke:red;stroke-width:1px;stroke-linecap:butt;stroke-linejoin:miter;stroke-opacity:1" d="M 670.754,543.908 638.23,543.908 z" id="boundary" inkscape:connector-curvature="0" />
	<path style="fill:none;stroke:red;stroke-width:1px;stroke-linecap:butt;stroke-linejoin:miter;stroke-opacity:1" d="M 677.259,813.862 709.784,813.862 z" id="boundary" inkscape:connector-curvature="0" />
	<path style="fill:none;stroke:red;stroke-width:1px;stroke-linecap:butt;stroke-linejoin:miter;stroke-opacity:1" d="M 654.492,573.18 687.016,573.18 z" id="boundary" inkscape:connector-curvature="0" />
	<path style="fill:none;stroke:red;stroke-width:1px;stroke-linecap:butt;stroke-linejoin:miter;stroke-opacity:1" d="M 865.902,150.361 865.902,182.885 z" id="boundary" inkscape:connector-curvature="0" />
	<path style="fill:none;stroke:red;stroke-width:1px;stroke-linecap:butt;stroke-linejoin:miter;stroke-opacity:1" d="M 670.754,436.577 703.279,436.577 z" id="boundary" inkscape:connector-curvature="0" />
	<path style="fill:none;stroke:red;stroke-width:1px;stroke-linecap:butt;stroke-linejoin:miter;stroke-opacity:1" d="M 865.902,215.41 865.902,182.885 z" id="boundary" inkscape:connector-curvature="0" />
	<path style="fill:none;stroke:red;stroke-width:1px;stroke-linecap:butt;stroke-linejoin:miter;stroke-opacity:1" d="M 703.279,647.987 670.754,647.987 z" id="boundary" inkscape:connector-curvature="0" />
	<path style="fill:none;stroke:red;stroke-width:1px;stroke-linecap:butt;stroke-linejoin:miter;stroke-opacity:1" d="M 674.007,745.561 706.531,745.561 z" id="boundary" inkscape:connector-curvature="0" />
	<path style="fill:none;stroke:red;stroke-width:1px;stroke-linecap:butt;stroke-linejoin:miter;stroke-opacity:1" d="M 719.541,677.259 687.016,677.259 z" id="boundary" inkscape:connector-curvature="0" />
	<path style="fill:none;stroke:red;stroke-width:1px;stroke-linecap:butt;stroke-linejoin:miter;stroke-opacity:1" d="M 703.279,543.908 670.754,543.908 z" id="boundary" inkscape:connector-curvature="0" />
	<path style="fill:none;stroke:red;stroke-width:1px;stroke-linecap:butt;stroke-linejoin:miter;stroke-opacity:1" d="M 709.784,813.862 742.308,813.862 z" id="boundary" inkscape:connector-curvature="0" />
	<path style="fill:none;stroke:red;stroke-width:1px;stroke-linecap:butt;stroke-linejoin:miter;stroke-opacity:1" d="M 687.016,573.18 719.541,573.18 z" id="boundary" inkscape:connector-curvature="0" />
	<path style="fill:none;stroke:red;stroke-width:1px;stroke-linecap:butt;stroke-linejoin:miter;stroke-opacity:1" d="M 865.902,117.836 865.902,150.361 z" id="boundary" inkscape:connector-curvature="0" />
	<path style="fill:none;stroke:red;stroke-width:1px;stroke-linecap:butt;stroke-linejoin:miter;stroke-opacity:1" d="M 703.279,436.577 735.803,436.577 z" id="boundary" inkscape:connector-curvature="0" />
	<path style="fill:none;stroke:red;stroke-width:1px;stroke-linecap:butt;stroke-linejoin:miter;stroke-opacity:1" d="M 739.056,4 706.531,4 z" id="boundary" inkscape:connector-curvature="0" />
	<path style="fill:none;stroke:red;stroke-width:1px;stroke-linecap:butt;stroke-linejoin:miter;stroke-opacity:1" d="M 735.803,647.987 703.279,647.987 z" id="boundary" inkscape:connector-curvature="0" />
	<path style="fill:none;stroke:red;stroke-width:1px;stroke-linecap:butt;stroke-linejoin:miter;stroke-opacity:1" d="M 706.531,745.561 739.056,745.561 z" id="boundary" inkscape:connector-curvature="0" />
	<path style="fill:none;stroke:red;stroke-width:1px;stroke-linecap:butt;stroke-linejoin:miter;stroke-opacity:1" d="M 752.066,677.259 719.541,677.259 z" id="boundary" inkscape:connector-curvature="0" />
	<path style="fill:none;stroke:red;stroke-width:1px;stroke-linecap:butt;stroke-linejoin:miter;stroke-opacity:1" d="M 735.803,543.908 703.279,543.908 z" id="boundary" inkscape:connector-curvature="0" />
	<path style="fill:none;stroke:red;stroke-width:1px;stroke-linecap:butt;stroke-linejoin:miter;stroke-opacity:1" d="M 742.308,813.862 774.833,813.862 z" id="boundary" inkscape:connector-curvature="0" />
	<path style="fill:none;stroke:red;stroke-width:1px;stroke-linecap:butt;stroke-linejoin:miter;stroke-opacity:1" d="M 719.541,573.18 752.066,573.18 z" id="boundary" inkscape:connector-curvature="0" />
	<path style="fill:none;stroke:red;stroke-width:1px;stroke-linecap:butt;stroke-linejoin:miter;stroke-opacity:1" d="M 865.902,85.3115 865.902,117.836 z" id="boundary" inkscape:connector-curvature="0" />
	<path style="fill:none;stroke:red;stroke-width:1px;stroke-linecap:butt;stroke-linejoin:miter;stroke-opacity:1" d="M 735.803,436.577 768.328,436.577 z" id="boundary" inkscape:connector-curvature="0" />
	<path style="fill:none;stroke:red;stroke-width:1px;stroke-linecap:butt;stroke-linejoin:miter;stroke-opacity:1" d="M 771.58,4 739.056,4 z" id="boundary" inkscape:connector-curvature="0" />
	<path style="fill:none;stroke:red;stroke-width:1px;stroke-linecap:butt;stroke-linejoin:miter;stroke-opacity:1" d="M 768.328,647.987 735.803,647.987 z" id="boundary" inkscape:connector-curvature="0" />
	<path style="fill:none;stroke:red;stroke-width:1px;stroke-linecap:butt;stroke-linejoin:miter;stroke-opacity:1" d="M 739.056,745.561 771.58,745.561 z" id="boundary" inkscape:connector-curvature="0" />
	<path style="fill:none;stroke:red;stroke-width:1px;stroke-linecap:butt;stroke-linejoin:miter;stroke-opacity:1" d="M 784.59,677.259 752.066,677.259 z" id="boundary" inkscape:connector-curvature="0" />
	<path style="fill:none;stroke:red;stroke-width:1px;stroke-linecap:butt;stroke-linejoin:miter;stroke-opacity:1" d="M 768.328,543.908 735.803,543.908 z" id="boundary" inkscape:connector-curvature="0" />
	<path style="fill:none;stroke:red;stroke-width:1px;stroke-linecap:butt;stroke-linejoin:miter;stroke-opacity:1" d="M 774.833,813.862 807.357,813.862 z" id="boundary" inkscape:connector-curvature="0" />
	<path style="fill:none;stroke:red;stroke-width:1px;stroke-linecap:butt;stroke-linejoin:miter;stroke-opacity:1" d="M 752.066,573.18 784.59,573.18 z" id="boundary" inkscape:connector-curvature="0" />
	<path style="fill:none;stroke:red;stroke-width:1px;stroke-linecap:butt;stroke-linejoin:miter;stroke-opacity:1" d="M 865.902,52.7869 865.902,85.3115 z" id="boundary" inkscape:connector-curvature="0" />
	<path style="fill:none;stroke:red;stroke-width:1px;stroke-linecap:butt;stroke-linejoin:miter;stroke-opacity:1" d="M 768.328,436.577 800.852,436.577 z" id="boundary" inkscape:connector-curvature="0" />
	<path style="fill:none;stroke:red;stroke-width:1px;stroke-linecap:butt;stroke-linejoin:miter;stroke-opacity:1" d="M 804.105,4 771.58,4 z" id="boundary" inkscape:connector-curvature="0" />
	<path style="fill:none;stroke:red;stroke-width:1px;stroke-linecap:butt;stroke-linejoin:miter;stroke-opacity:1" d="M 800.852,647.987 768.328,647.987 z" id="boundary" inkscape:connector-curvature="0" />
	<path style="fill:none;stroke:red;stroke-width:1px;stroke-linecap:butt;stroke-linejoin:miter;stroke-opacity:1" d="M 771.58,745.561 804.105,745.561 z" id="boundary" inkscape:connector-curvature="0" />
	<path style="fill:none;stroke:red;stroke-width:1px;stroke-linecap:butt;stroke-linejoin:miter;stroke-opacity:1" d="M 817.115,677.259 784.59,677.259 z" id="boundary" inkscape:connector-curvature="0" />
	<path style="fill:none;stroke:red;stroke-width:1px;stroke-linecap:butt;stroke-linejoin:miter;stroke-opacity:1" d="M 800.852,543.908 768.328,543.908 z" id="boundary" inkscape:connector-curvature="0" />
	<path style="fill:none;stroke:red;stroke-width:1px;stroke-linecap:butt;stroke-linejoin:miter;stroke-opacity:1" d="M 807.357,813.862 839.882,813.862 z" id="boundary" inkscape:connector-curvature="0" />
	<path style="fill:none;stroke:red;stroke-width:1px;stroke-linecap:butt;stroke-linejoin:miter;stroke-opacity:1" d="M 784.59,573.18 817.115,573.18 z" id="boundary" inkscape:connector-curvature="0" />
	<path style="fill:none;stroke:red;stroke-width:1px;stroke-linecap:butt;stroke-linejoin:miter;stroke-opacity:1" d="M 706.531,4 674.007,4 z" id="boundary" inkscape:connector-curvature="0" />
	<path style="fill:none;stroke:red;stroke-width:1px;stroke-linecap:butt;stroke-linejoin:miter;stroke-opacity:1" d="M 800.852,436.577 833.377,436.577 z" id="boundary" inkscape:connector-curvature="0" />
	<path style="fill:none;stroke:red;stroke-width:1px;stroke-linecap:butt;stroke-linejoin:miter;stroke-opacity:1" d="M 836.63,4 804.105,4 z" id="boundary" inkscape:connector-curvature="0" />
	<path style="fill:none;stroke:red;stroke-width:1px;stroke-linecap:butt;stroke-linejoin:miter;stroke-opacity:1" d="M 833.377,647.987 800.852,647.987 z" id="boundary" inkscape:connector-curvature="0" />
	<path style="fill:none;stroke:red;stroke-width:1px;stroke-linecap:butt;stroke-linejoin:miter;stroke-opacity:1" d="M 804.105,745.561 836.63,745.561 z" id="boundary" inkscape:connector-curvature="0" />
	<path style="fill:none;stroke:red;stroke-width:1px;stroke-linecap:butt;stroke-linejoin:miter;stroke-opacity:1" d="M 849.639,677.259 817.115,677.259 z" id="boundary" inkscape:connector-curvature="0" />
	<path style="fill:none;stroke:red;stroke-width:1px;stroke-linecap:butt;stroke-linejoin:miter;stroke-opacity:1" d="M 833.377,543.908 800.852,543.908 z" id="boundary" inkscape:connector-curvature="0" />
	<path style="fill:none;stroke:red;stroke-width:1px;stroke-linecap:butt;stroke-linejoin:miter;stroke-opacity:1" d="M 839.882,813.862 872.407,813.862 z" id="boundary" inkscape:connector-curvature="0" />
	<path style="fill:none;stroke:red;stroke-width:1px;stroke-linecap:butt;stroke-linejoin:miter;stroke-opacity:1" d="M 817.115,573.18 849.639,573.18 z" id="boundary" inkscape:connector-curvature="0" />
	<path style="fill:none;stroke:red;stroke-width:1px;stroke-linecap:butt;stroke-linejoin:miter;stroke-opacity:1" d="M 833.377,436.577 865.902,410.557 z" id="boundary" inkscape:connector-curvature="0" />
	<path style="fill:none;stroke:red;stroke-width:1px;stroke-linecap:butt;stroke-linejoin:miter;stroke-opacity:1" d="M 865.902,52.7869 865.902,20.2623 z" id="boundary" inkscape:connector-curvature="0" />
	<path style="fill:none;stroke:red;stroke-width:1px;stroke-linecap:butt;stroke-linejoin:miter;stroke-opacity:1" d="M 865.902,20.2623 836.63,4 z" id="boundary" inkscape:connector-curvature="0" />
	<path style="fill:none;stroke:red;stroke-width:1px;stroke-linecap:butt;stroke-linejoin:miter;stroke-opacity:1" d="M 865.902,647.987 833.377,647.987 z" id="boundary" inkscape:connector-curvature="0" />
	<path style="fill:none;stroke:red;stroke-width:1px;stroke-linecap:butt;stroke-linejoin:miter;stroke-opacity:1" d="M 872.407,813.862 904.931,813.862 z" id="boundary" inkscape:connector-curvature="0" />
	<path style="fill:none;stroke:red;stroke-width:1px;stroke-linecap:butt;stroke-linejoin:miter;stroke-opacity:1" d="M 882.164,677.259 849.639,677.259 z" id="boundary" inkscape:connector-curvature="0" />
	<path style="fill:none;stroke:red;stroke-width:1px;stroke-linecap:butt;stroke-linejoin:miter;stroke-opacity:1" d="M 865.902,247.934 865.902,215.41 z" id="boundary" inkscape:connector-curvature="0" />
	<path style="fill:none;stroke:red;stroke-width:1px;stroke-linecap:butt;stroke-linejoin:miter;stroke-opacity:1" d="M 898.426,647.987 865.902,647.987 z" id="boundary" inkscape:connector-curvature="0" />
	<path style="fill:none;stroke:red;stroke-width:1px;stroke-linecap:butt;stroke-linejoin:miter;stroke-opacity:1" d="M 865.902,247.934 865.902,280.459 z" id="boundary" inkscape:connector-curvature="0" />
	<path style="fill:none;stroke:red;stroke-width:1px;stroke-linecap:butt;stroke-linejoin:miter;stroke-opacity:1" d="M 865.902,312.984 865.902,280.459 z" id="boundary" inkscape:connector-curvature="0" />
	<path style="fill:none;stroke:red;stroke-width:1px;stroke-linecap:butt;stroke-linejoin:miter;stroke-opacity:1" d="M 865.902,345.508 865.902,312.984 z" id="boundary" inkscape:connector-curvature="0" />
	<path style="fill:none;stroke:red;stroke-width:1px;stroke-linecap:butt;stroke-linejoin:miter;stroke-opacity:1" d="M 865.902,345.508 865.902,378.033 z" id="boundary" inkscape:connector-curvature="0" />
	<path style="fill:none;stroke:red;stroke-width:1px;stroke-linecap:butt;stroke-linejoin:miter;stroke-opacity:1" d="M 865.902,410.557 865.902,378.033 z" id="boundary" inkscape:connector-curvature="0" />
	<path style="fill:none;stroke:red;stroke-width:1px;stroke-linecap:butt;stroke-linejoin:miter;stroke-opacity:1" d="M 865.902,543.908 833.377,543.908 z" id="boundary" inkscape:connector-curvature="0" />
	<path style="fill:none;stroke:red;stroke-width:1px;stroke-linecap:butt;stroke-linejoin:miter;stroke-opacity:1" d="M 849.639,573.18 882.164,573.18 z" id="boundary" inkscape:connector-curvature="0" />
	<path style="fill:none;stroke:red;stroke-width:1px;stroke-linecap:butt;stroke-linejoin:miter;stroke-opacity:1" d="M 836.63,745.561 869.154,745.561 z" id="boundary" inkscape:connector-curvature="0" />
	<path style="fill:none;stroke:red;stroke-width:1px;stroke-linecap:butt;stroke-linejoin:miter;stroke-opacity:1" d="M 865.902,543.908 898.426,543.908 z" id="boundary" inkscape:connector-curvature="0" />
	<path style="fill:none;stroke:red;stroke-width:1px;stroke-linecap:butt;stroke-linejoin:miter;stroke-opacity:1" d="M 914.689,677.259 882.164,677.259 z" id="boundary" inkscape:connector-curvature="0" />
	<path style="fill:none;stroke:red;stroke-width:1px;stroke-linecap:butt;stroke-linejoin:miter;stroke-opacity:1" d="M 904.931,813.862 937.456,813.862 z" id="boundary" inkscape:connector-curvature="0" />
	<path style="fill:none;stroke:red;stroke-width:1px;stroke-linecap:butt;stroke-linejoin:miter;stroke-opacity:1" d="M 937.456,813.862 969.98,820.367 z" id="boundary" inkscape:connector-curvature="0" />
	<path style="fill:none;stroke:red;stroke-width:1px;stroke-linecap:butt;stroke-linejoin:miter;stroke-opacity:1" d="M 882.164,573.18 914.689,573.18 z" id="boundary" inkscape:connector-curvature="0" />
	<path style="fill:none;stroke:red;stroke-width:1px;stroke-linecap:butt;stroke-linejoin:miter;stroke-opacity:1" d="M 869.154,745.561 901.679,745.561 z" id="boundary" inkscape:connector-curvature="0" />
	<path style="fill:none;stroke:red;stroke-width:1px;stroke-linecap:butt;stroke-linejoin:miter;stroke-opacity:1" d="M 930.951,647.987 898.426,647.987 z" id="boundary" inkscape:connector-curvature="0" />
	<path style="fill:none;stroke:red;stroke-width:1px;stroke-linecap:butt;stroke-linejoin:miter;stroke-opacity:1" d="M 898.426,543.908 930.951,543.908 z" id="boundary" inkscape:connector-curvature="0" />
	<path style="fill:none;stroke:red;stroke-width:1px;stroke-linecap:butt;stroke-linejoin:miter;stroke-opacity:1" d="M 914.689,573.18 947.213,573.18 z" id="boundary" inkscape:connector-curvature="0" />
	<path style="fill:none;stroke:red;stroke-width:1px;stroke-linecap:butt;stroke-linejoin:miter;stroke-opacity:1" d="M 901.679,745.561 934.203,745.561 z" id="boundary" inkscape:connector-curvature="0" />
	<path style="fill:none;stroke:red;stroke-width:1px;stroke-linecap:butt;stroke-linejoin:miter;stroke-opacity:1" d="M 934.203,745.561 966.728,745.561 z" id="boundary" inkscape:connector-curvature="0" />
	<path style="fill:none;stroke:red;stroke-width:1px;stroke-linecap:butt;stroke-linejoin:miter;stroke-opacity:1" d="M 966.728,745.561 996,761.823 z" id="boundary" inkscape:connector-curvature="0" />
	<path style="fill:none;stroke:red;stroke-width:1px;stroke-linecap:butt;stroke-linejoin:miter;stroke-opacity:1" d="M 996,761.823 996,794.348 z" id="boundary" inkscape:connector-curvature="0" />
	<path style="fill:none;stroke:red;stroke-width:1px;stroke-linecap:butt;stroke-linejoin:miter;stroke-opacity:1" d="M 969.98,820.367 996,794.348 z" id="boundary" inkscape:connector-curvature="0" />
	<circle cx="4" cy="758.57" r="4" fill="#0" id="circle0"/>
	<circle cx="4" cy="791.095" r="4" fill="#0" id="circle1"/>
	<circle cx="26.7672" cy="817.115" r="4" fill="#0" id="circle2"/>
	<circle cx="36.5246" cy="745.561" r="4" fill="#0" id="circle3"/>
	<circle cx="59.2918" cy="823.62" r="4" fill="#0" id="circle4"/>
	<circle cx="69.0492" cy="745.561" r="4" fill="#0" id="circle5"/>
	<circle cx="88.5639" cy="550.413" r="4" fill="#0" id="circle6"/>
	<circle cx="88.5639" cy="647.987" r="4" fill="#0" id="circle7"/>
	<circle cx="91.8164" cy="813.862" r="4" fill="#0" id="circle8"/>
	<circle cx="101.574" cy="745.561" r="4" fill="#0" id="circle9"/>
	<circle cx="104.826" cy="677.259" r="4" fill="#0" id="circle10"/>
	<circle cx="114.584" cy="573.18" r="4" fill="#0" id="circle11"/>
	<circle cx="121.089" cy="17.0098" r="4" fill="#0" id="circle12"/>
	<circle cx="121.089" cy="49.5344" r="4" fill="#0" id="circle13"/>
	<circle cx="121.089" cy="82.059" r="4" fill="#0" id="circle14"/>
	<circle cx="121.089" cy="114.584" r="4" fill="#0" id="circle15"/>
	<circle cx="121.089" cy="147.108" r="4" fill="#0" id="circle16"/>
	<circle cx="121.089" cy="179.633" r="4" fill="#0" id="circle17"/>
	<circle cx="121.089" cy="212.157" r="4" fill="#0" id="circle18"/>
	<circle cx="121.089" cy="244.682" r="4" fill="#0" id="circle19"/>
	<circle cx="121.089" cy="277.207" r="4" fill="#0" id="circle20"/>
	<circle cx="121.089" cy="647.987" r="4" fill="#0" id="circle21"/>
	<circle cx="124.341" cy="826.872" r="4" fill="#0" id="circle22"/>
	<circle cx="127.593" cy="309.731" r="4" fill="#0" id="circle23"/>
	<circle cx="127.593" cy="342.256" r="4" fill="#0" id="circle24"/>
	<circle cx="127.593" cy="374.78" r="4" fill="#0" id="circle25"/>
	<circle cx="127.593" cy="407.305" r="4" fill="#0" id="circle26"/>
	<circle cx="130.846" cy="543.908" r="4" fill="#0" id="circle27"/>
	<circle cx="134.098" cy="745.561" r="4" fill="#0" id="circle28"/>
	<circle cx="137.351" cy="677.259" r="4" fill="#0" id="circle29"/>
	<circle cx="143.856" cy="436.577" r="4" fill="#0" id="circle30"/>
	<circle cx="147.108" cy="573.18" r="4" fill="#0" id="circle31"/>
	<circle cx="153.613" cy="4" r="4" fill="#0" id="circle32"/>
	<circle cx="153.613" cy="647.987" r="4" fill="#0" id="circle33"/>
	<circle cx="156.866" cy="813.862" r="4" fill="#0" id="circle34"/>
	<circle cx="163.37" cy="543.908" r="4" fill="#0" id="circle35"/>
	<circle cx="166.623" cy="745.561" r="4" fill="#0" id="circle36"/>
	<circle cx="169.875" cy="677.259" r="4" fill="#0" id="circle37"/>
	<circle cx="176.38" cy="436.577" r="4" fill="#0" id="circle38"/>
	<circle cx="179.633" cy="573.18" r="4" fill="#0" id="circle39"/>
	<circle cx="186.138" cy="4" r="4" fill="#0" id="circle40"/>
	<circle cx="186.138" cy="647.987" r="4" fill="#0" id="circle41"/>
	<circle cx="189.39" cy="813.862" r="4" fill="#0" id="circle42"/>
	<circle cx="195.895" cy="543.908" r="4" fill="#0" id="circle43"/>
	<circle cx="199.148" cy="745.561" r="4" fill="#0" id="circle44"/>
	<circle cx="202.4" cy="677.259" r="4" fill="#0" id="circle45"/>
	<circle cx="208.905" cy="436.577" r="4" fill="#0" id="circle46"/>
	<circle cx="212.157" cy="573.18" r="4" fill="#0" id="circle47"/>
	<circle cx="218.662" cy="4" r="4" fill="#0" id="circle48"/>
	<circle cx="218.662" cy="647.987" r="4" fill="#0" id="circle49"/>
	<circle cx="221.915" cy="813.862" r="4" fill="#0" id="circle50"/>
	<circle cx="228.42" cy="543.908" r="4" fill="#0" id="circle51"/>
	<circle cx="231.672" cy="745.561" r="4" fill="#0" id="circle52"/>
	<circle cx="234.925" cy="677.259" r="4" fill="#0" id="circle53"/>
	<circle cx="241.43" cy="436.577" r="4" fill="#0" id="circle54"/>
	<circle cx="244.682" cy="573.18" r="4" fill="#0" id="circle55"/>
	<circle cx="251.187" cy="4" r="4" fill="#0" id="circle56"/>
	<circle cx="251.187" cy="647.987" r="4" fill="#0" id="circle57"/>
	<circle cx="254.439" cy="813.862" r="4" fill="#0" id="circle58"/>
	<circle cx="260.944" cy="543.908" r="4" fill="#0" id="circle59"/>
	<circle cx="264.197" cy="745.561" r="4" fill="#0" id="circle60"/>
	<circle cx="267.449" cy="677.259" r="4" fill="#0" id="circle61"/>
	<circle cx="273.954" cy="436.577" r="4" fill="#0" id="circle62"/>
	<circle cx="277.207" cy="573.18" r="4" fill="#0" id="circle63"/>
	<circle cx="283.711" cy="4" r="4" fill="#0" id="circle64"/>
	<circle cx="283.711" cy="647.987" r="4" fill="#0" id="circle65"/>
	<circle cx="286.964" cy="813.862" r="4" fill="#0" id="circle66"/>
	<circle cx="293.469" cy="543.908" r="4" fill="#0" id="circle67"/>
	<circle cx="296.721" cy="745.561" r="4" fill="#0" id="circle68"/>
	<circle cx="299.974" cy="677.259" r="4" fill="#0" id="circle69"/>
	<circle cx="306.479" cy="436.577" r="4" fill="#0" id="circle70"/>
	<circle cx="309.731" cy="573.18" r="4" fill="#0" id="circle71"/>
	<circle cx="316.236" cy="4" r="4" fill="#0" id="circle72"/>
	<circle cx="316.236" cy="647.987" r="4" fill="#0" id="circle73"/>
	<circle cx="319.489" cy="813.862" r="4" fill="#0" id="circle74"/>
	<circle cx="325.993" cy="543.908" r="4" fill="#0" id="circle75"/>
	<circle cx="329.246" cy="745.561" r="4" fill="#0" id="circle76"/>
	<circle cx="332.498" cy="677.259" r="4" fill="#0" id="circle77"/>
	<circle cx="339.003" cy="436.577" r="4" fill="#0" id="circle78"/>
	<circle cx="342.256" cy="573.18" r="4" fill="#0" id="circle79"/>
	<circle cx="348.761" cy="4" r="4" fill="#0" id="circle80"/>
	<circle cx="348.761" cy="647.987" r="4" fill="#0" id="circle81"/>
	<circle cx="352.013" cy="813.862" r="4" fill="#0" id="circle82"/>
	<circle cx="358.518" cy="543.908" r="4" fill="#0" id="circle83"/>
	<circle cx="361.77" cy="745.561" r="4" fill="#0" id="circle84"/>
	<circle cx="365.023" cy="677.259" r="4" fill="#0" id="circle85"/>
	<circle cx="371.528" cy="436.577" r="4" fill="#0" id="circle86"/>
	<circle cx="374.78" cy="573.18" r="4" fill="#0" id="circle87"/>
	<circle cx="381.285" cy="4" r="4" fill="#0" id="circle88"/>
	<circle cx="381.285" cy="469.102" r="4" fill="#0" id="circle89"/>
	<circle cx="381.285" cy="501.626" r="4" fill="#0" id="circle90"/>
	<circle cx="381.285" cy="605.705" r="4" fill="#0" id="circle91"/>
	<circle cx="381.285" cy="638.23" r="4" fill="#0" id="circle92"/>
	<circle cx="381.285" cy="706.531" r="4" fill="#0" id="circle93"/>
	<circle cx="384.538" cy="813.862" r="4" fill="#0" id="circle94"/>
	<circle cx="413.81" cy="4" r="4" fill="#0" id="circle95"/>
	<circle cx="417.062" cy="813.862" r="4" fill="#0" id="circle96"/>
	<circle cx="446.334" cy="4" r="4" fill="#0" id="circle97"/>
	<circle cx="449.587" cy="813.862" r="4" fill="#0" id="circle98"/>
	<circle cx="478.859" cy="4" r="4" fill="#0" id="circle99"/>
	<circle cx="482.111" cy="813.862" r="4" fill="#0" id="circle100"/>
	<circle cx="511.384" cy="4" r="4" fill="#0" id="circle101"/>
	<circle cx="514.636" cy="813.862" r="4" fill="#0" id="circle102"/>
	<circle cx="543.908" cy="4" r="4" fill="#0" id="circle103"/>
	<circle cx="547.161" cy="813.862" r="4" fill="#0" id="circle104"/>
	<circle cx="573.18" cy="439.83" r="4" fill="#0" id="circle105"/>
	<circle cx="573.18" cy="472.354" r="4" fill="#0" id="circle106"/>
	<circle cx="573.18" cy="504.879" r="4" fill="#0" id="circle107"/>
	<circle cx="573.18" cy="537.403" r="4" fill="#0" id="circle108"/>
	<circle cx="573.18" cy="576.433" r="4" fill="#0" id="circle109"/>
	<circle cx="573.18" cy="608.957" r="4" fill="#0" id="circle110"/>
	<circle cx="573.18" cy="641.482" r="4" fill="#0" id="circle111"/>
	<circle cx="573.18" cy="680.511" r="4" fill="#0" id="circle112"/>
	<circle cx="573.18" cy="713.036" r="4" fill="#0" id="circle113"/>
	<circle cx="576.433" cy="4" r="4" fill="#0" id="circle114"/>
	<circle cx="576.433" cy="745.561" r="4" fill="#0" id="circle115"/>
	<circle cx="579.685" cy="813.862" r="4" fill="#0" id="circle116"/>
	<circle cx="605.705" cy="436.577" r="4" fill="#0" id="circle117"/>
	<circle cx="605.705" cy="543.908" r="4" fill="#0" id="circle118"/>
	<circle cx="605.705" cy="647.987" r="4" fill="#0" id="circle119"/>
	<circle cx="608.957" cy="4" r="4" fill="#0" id="circle120"/>
	<circle cx="608.957" cy="745.561" r="4" fill="#0" id="circle121"/>
	<circle cx="612.21" cy="813.862" r="4" fill="#0" id="circle122"/>
	<circle cx="621.967" cy="573.18" r="4" fill="#0" id="circle123"/>
	<circle cx="621.967" cy="677.259" r="4" fill="#0" id="circle124"/>
	<circle cx="638.23" cy="436.577" r="4" fill="#0" id="circle125"/>
	<circle cx="638.23" cy="543.908" r="4" fill="#0" id="circle126"/>
	<circle cx="638.23" cy="647.987" r="4" fill="#0" id="circle127"/>
	<circle cx="641.482" cy="4" r="4" fill="#0" id="circle128"/>
	<circle cx="641.482" cy="745.561" r="4" fill="#0" id="circle129"/>
	<circle cx="644.734" cy="813.862" r="4" fill="#0" id="circle130"/>
	<circle cx="654.492" cy="573.18" r="4" fill="#0" id="circle131"/>
	<circle cx="654.492" cy="677.259" r="4" fill="#0" id="circle132"/>
	<circle cx="670.754" cy="436.577" r="4" fill="#0" id="circle133"/>
	<circle cx="670.754" cy="543.908" r="4" fill="#0" id="circle134"/>
	<circle cx="670.754" cy="647.987" r="4" fill="#0" id="circle135"/>
	<circle cx="674.007" cy="4" r="4" fill="#0" id="circle136"/>
	<circle cx="674.007" cy="745.561" r="4" fill="#0" id="circle137"/>
	<circle cx="677.259" cy="813.862" r="4" fill="#0" id="circle138"/>
	<circle cx="687.016" cy="573.18" r="4" fill="#0" id="circle139"/>
	<circle cx="687.016" cy="677.259" r="4" fill="#0" id="circle140"/>
	<circle cx="703.279" cy="436.577" r="4" fill="#0" id="circle141"/>
	<circle cx="703.279" cy="543.908" r="4" fill="#0" id="circle142"/>
	<circle cx="703.279" cy="647.987" r="4" fill="#0" id="circle143"/>
	<circle cx="706.531" cy="4" r="4" fill="#0" id="circle144"/>
	<circle cx="706.531" cy="745.561" r="4" fill="#0" id="circle145"/>
	<circle cx="709.784" cy="813.862" r="4" fill="#0" id="circle146"/>
	<circle cx="719.541" cy="573.18" r="4" fill="#0" id="circle147"/>
	<circle cx="719.541" cy="677.259" r="4" fill="#0" id="circle148"/>
	<circle cx="735.803" cy="436.577" r="4" fill="#0" id="circle149"/>
	<circle cx="735.803" cy="543.908" r="4" fill="#0" id="circle150"/>
	<circle cx="735.803" cy="647.987" r="4" fill="#0" id="circle151"/>
	<circle cx="739.056" cy="4" r="4" fill="#0" id="circle152"/>
	<circle cx="739.056" cy="745.561" r="4" fill="#0" id="circle153"/>
	<circle cx="742.308" cy="813.862" r="4" fill="#0" id="circle154"/>
	<circle cx="752.066" cy="573.18" r="4" fill="#0" id="circle155"/>
	<circle cx="752.066" cy="677.259" r="4" fill="#0" id="circle156"/>
	<circle cx="768.328" cy="436.577" r="4" fill="#0" id="circle157"/>
	<circle cx="768.328" cy="543.908" r="4" fill="#0" id="circle158"/>
	<circle cx="768.328" cy="647.987" r="4" fill="#0" id="circle159"/>
	<circle cx="771.58" cy="4" r="4" fill="#0" id="circle160"/>
	<circle cx="771.58" cy="745.561" r="4" fill="#0" id="circle161"/>
	<circle cx="774.833" cy="813.862" r="4" fill="#0" id="circle162"/>
	<circle cx="784.59" cy="573.18" r="4" fill="#0" id="circle163"/>
	<circle cx="784.59" cy="677.259" r="4" fill="#0" id="circle164"/>
	<circle cx="800.852" cy="436.577" r="4" fill="#0" id="circle165"/>
	<circle cx="800.852" cy="543.908" r="4" fill="#0" id="circle166"/>
	<circle cx="800.852" cy="647.987" r="4" fill="#0" id="circle167"/>
	<circle cx="804.105" cy="4" r="4" fill="#0" id="circle168"/>
	<circle cx="804.105" cy="745.561" r="4" fill="#0" id="circle169"/>
	<circle cx="807.357" cy="813.862" r="4" fill="#0" id="circle170"/>
	<circle cx="817.115" cy="573.18" r="4" fill="#0" id="circle171"/>
	<circle cx="817.115" cy="677.259" r="4" fill="#0" id="circle172"/>
	<circle cx="833.377" cy="436.577" r="4" fill="#0" id="circle173"/>
	<circle cx="833.377" cy="543.908" r="4" fill="#0" id="circle174"/>
	<circle cx="833.377" cy="647.987" r="4" fill="#0" id="circle175"/>
	<circle cx="836.63" cy="4" r="4" fill="#0" id="circle176"/>
	<circle cx="836.63" cy="745.561" r="4" fill="#0" id="circle177"/>
	<circle cx="839.882" cy="813.862" r="4" fill="#0" id="circle178"/>
	<circle cx="849.639" cy="573.18" r="4" fill="#0" id="circle179"/>
	<circle cx="849.639" cy="677.259" r="4" fill="#0" id="circle180"/>
	<circle cx="865.902" cy="20.2623" r="4" fill="#0" id="circle181"/>
	<circle cx="865.902" cy="52.7869" r="4" fill="#0" id="circle182"/>
	<circle cx="865.902" cy="85.3115" r="4" fill="#0" id="circle183"/>
	<circle cx="865.902" cy="117.836" r="4" fill="#0" id="circle184"/>
	<circle cx="865.902" cy="150.361" r="4" fill="#0" id="circle185"/>
	<circle cx="865.902" cy="182.885" r="4" fill="#0" id="circle186"/>
	<circle cx="865.902" cy="215.41" r="4" fill="#0" id="circle187"/>
	<circle cx="865.902" cy="247.934" r="4" fill="#0" id="circle188"/>
	<circle cx="865.902" cy="280.459" r="4" fill="#0" id="circle189"/>
	<circle cx="865.902" cy="312.984" r="4" fill="#0" id="circle190"/>
	<circle cx="865.902" cy="345.508" r="4" fill="#0" id="circle191"/>
	<circle cx="865.902" cy="378.033" r="4" fill="#0" id="circle192"/>
	<circle cx="865.902" cy="410.557" r="4" fill="#0" id="circle193"/>
	<circle cx="865.902" cy="543.908" r="4" fill="#0" id="circle194"/>
	<circle cx="865.902" cy="647.987" r="4" fill="#0" id="circle195"/>
	<circle cx="869.154" cy="745.561" r="4" fill="#0" id="circle196"/>
	<circle cx="872.407" cy="813.862" r="4" fill="#0" id="circle197"/>
	<circle cx="882.164" cy="573.18" r="4" fill="#0" id="circle198"/>
	<circle cx="882.164" cy="677.259" r="4" fill="#0" id="circle199"/>
	<circle cx="898.426" cy="543.908" r="4" fill="#0" id="circle200"/>
	<circle cx="898.426" cy="647.987" r="4" fill="#0" id="circle201"/>
	<circle cx="901.679" cy="745.561" r="4" fill="#0" id="circle202"/>
	<circle cx="904.931" cy="813.862" r="4" fill="#0" id="circle203"/>
	<circle cx="914.689" cy="573.18" r="4" fill="#0" id="circle204"/>
	<circle cx="914.689" cy="677.259" r="4" fill="#0" id="circle205"/>
	<circle cx="930.951" cy="543.908" r="4" fill="#0" id="circle206"/>
	<circle cx="930.951" cy="647.987" r="4" fill="#0" id="circle207"/>
	<circle cx="934.203" cy="745.561" r="4" fill="#0" id="circle208"/>
	<circle cx="937.456" cy="813.862" r="4" fill="#0" id="circle209"/>
	<circle cx="947.213" cy="573.18" r="4" fill="#0" id="circle210"/>
	<circle cx="966.728" cy="745.561" r="4" fill="#0" id="circle211"/>
	<circle cx="969.98" cy="820.367" r="4" fill="#0" id="circle212"/>
	<circle cx="996" cy="761.823" r="4" fill="#0" id="circle213"/>
	<circle cx="996" cy="794.348" r="4" fill="#0" id="circle214"/>
	</g>
</svg>