<?xml version="1.0" encoding="UTF-8" standalone="no"?>
<!-- Created with CurveBenchmark -->
<svg
	xmlns:dc="http://purl.org/dc/elements/1.1/"
	xmlns:cc="http://creativecommons.org/ns#"
	xmlns:rdf="http://www.w3.org/1999/02/22-rdf-syntax-ns#"
	xmlns:svg="http://www.w3.org/2000/svg"
	xmlns="http://www.w3.org/2000/svg"
	xmlns:sodipodi="http://sodipodi.sourceforge.net/DTD/sodipodi-0.dtd"
	xmlns:inkscape="http://www.inkscape.org/namespaces/inkscape"
	width="1000"
	height="1000"
	id="svg2"
	version="1.1"
	sodipodi:docname="manifold/peel-cat34.png.txt">
<defs
	id="defs4" />
<metadata
	id="metadata7">
	<rdf:RDF>
		<cc:Work
			rdf:about="">
			<dc:format>image/svg+xml</dc:format>
			<dc:type
				rdf:resource="http://purl.org/dc/dcmitype/StillImage" />
			<dc:title></dc:title>
		</cc:Work>
	</rdf:RDF>
</metadata>
<g
	inkscape:label="Layer 1"
	inkscape:groupmode="layer"
	id="layer1">
	<path style="fill:none;stroke:red;stroke-width:1px;stroke-linecap:butt;stroke-linejoin:miter;stroke-opacity:1" d="M 30.3089,96.8549 16.3807,104.593 z" id="boundary" inkscape:connector-curvature="0" />
	<path style="fill:none;stroke:red;stroke-width:1px;stroke-linecap:butt;stroke-linejoin:miter;stroke-opacity:1" d="M 4,132.449 4,116.973 z" id="boundary" inkscape:connector-curvature="0" />
	<path style="fill:none;stroke:red;stroke-width:1px;stroke-linecap:butt;stroke-linejoin:miter;stroke-opacity:1" d="M 4,116.973 16.3807,104.593 z" id="boundary" inkscape:connector-curvature="0" />
	<path style="fill:none;stroke:red;stroke-width:1px;stroke-linecap:butt;stroke-linejoin:miter;stroke-opacity:1" d="M 4,132.449 4,147.925 z" id="boundary" inkscape:connector-curvature="0" />
	<path style="fill:none;stroke:red;stroke-width:1px;stroke-linecap:butt;stroke-linejoin:miter;stroke-opacity:1" d="M 4,163.401 4,147.925 z" id="boundary" inkscape:connector-curvature="0" />
	<path style="fill:none;stroke:red;stroke-width:1px;stroke-linecap:butt;stroke-linejoin:miter;stroke-opacity:1" d="M 16.3807,189.71 4,178.877 z" id="boundary" inkscape:connector-curvature="0" />
	<path style="fill:none;stroke:red;stroke-width:1px;stroke-linecap:butt;stroke-linejoin:miter;stroke-opacity:1" d="M 4,178.877 4,163.401 z" id="boundary" inkscape:connector-curvature="0" />
	<path style="fill:none;stroke:red;stroke-width:1px;stroke-linecap:butt;stroke-linejoin:miter;stroke-opacity:1" d="M 89.117,318.159 89.117,333.635 z" id="boundary" inkscape:connector-curvature="0" />
	<path style="fill:none;stroke:red;stroke-width:1px;stroke-linecap:butt;stroke-linejoin:miter;stroke-opacity:1" d="M 28.7613,198.995 16.3807,189.71 z" id="boundary" inkscape:connector-curvature="0" />
	<path style="fill:none;stroke:red;stroke-width:1px;stroke-linecap:butt;stroke-linejoin:miter;stroke-opacity:1" d="M 30.3089,96.8549 45.7847,90.6646 z" id="boundary" inkscape:connector-curvature="0" />
	<path style="fill:none;stroke:red;stroke-width:1px;stroke-linecap:butt;stroke-linejoin:miter;stroke-opacity:1" d="M 89.117,302.683 89.117,318.159 z" id="boundary" inkscape:connector-curvature="0" />
	<path style="fill:none;stroke:red;stroke-width:1px;stroke-linecap:butt;stroke-linejoin:miter;stroke-opacity:1" d="M 42.6895,206.733 28.7613,198.995 z" id="boundary" inkscape:connector-curvature="0" />
	<path style="fill:none;stroke:red;stroke-width:1px;stroke-linecap:butt;stroke-linejoin:miter;stroke-opacity:1" d="M 58.1654,206.733 42.6895,206.733 z" id="boundary" inkscape:connector-curvature="0" />
	<path style="fill:none;stroke:red;stroke-width:1px;stroke-linecap:butt;stroke-linejoin:miter;stroke-opacity:1" d="M 61.2605,82.9267 76.7363,81.3791 z" id="boundary" inkscape:connector-curvature="0" />
	<path style="fill:none;stroke:red;stroke-width:1px;stroke-linecap:butt;stroke-linejoin:miter;stroke-opacity:1" d="M 61.2605,82.9267 45.7847,90.6646 z" id="boundary" inkscape:connector-curvature="0" />
	<path style="fill:none;stroke:red;stroke-width:1px;stroke-linecap:butt;stroke-linejoin:miter;stroke-opacity:1" d="M 73.6412,206.733 58.1654,206.733 z" id="boundary" inkscape:connector-curvature="0" />
	<path style="fill:none;stroke:red;stroke-width:1px;stroke-linecap:butt;stroke-linejoin:miter;stroke-opacity:1" d="M 82.9267,219.114 73.6412,206.733 z" id="boundary" inkscape:connector-curvature="0" />
	<path style="fill:none;stroke:red;stroke-width:1px;stroke-linecap:butt;stroke-linejoin:miter;stroke-opacity:1" d="M 76.7363,81.3791 90.6646,73.6412 z" id="boundary" inkscape:connector-curvature="0" />
	<path style="fill:none;stroke:red;stroke-width:1px;stroke-linecap:butt;stroke-linejoin:miter;stroke-opacity:1" d="M 90.6646,73.6412 106.14,73.6412 z" id="boundary" inkscape:connector-curvature="0" />
	<path style="fill:none;stroke:red;stroke-width:1px;stroke-linecap:butt;stroke-linejoin:miter;stroke-opacity:1" d="M 73.6412,790.172 73.6412,774.696 z" id="boundary" inkscape:connector-curvature="0" />
	<path style="fill:none;stroke:red;stroke-width:1px;stroke-linecap:butt;stroke-linejoin:miter;stroke-opacity:1" d="M 86.0218,762.315 73.6412,774.696 z" id="boundary" inkscape:connector-curvature="0" />
	<path style="fill:none;stroke:red;stroke-width:1px;stroke-linecap:butt;stroke-linejoin:miter;stroke-opacity:1" d="M 86.0218,801.005 73.6412,790.172 z" id="boundary" inkscape:connector-curvature="0" />
	<path style="fill:none;stroke:red;stroke-width:1px;stroke-linecap:butt;stroke-linejoin:miter;stroke-opacity:1" d="M 89.117,349.111 89.117,364.587 z" id="boundary" inkscape:connector-curvature="0" />
	<path style="fill:none;stroke:red;stroke-width:1px;stroke-linecap:butt;stroke-linejoin:miter;stroke-opacity:1" d="M 89.117,333.635 89.117,349.111 z" id="boundary" inkscape:connector-curvature="0" />
	<path style="fill:none;stroke:red;stroke-width:1px;stroke-linecap:butt;stroke-linejoin:miter;stroke-opacity:1" d="M 82.9267,219.114 96.8549,226.852 z" id="boundary" inkscape:connector-curvature="0" />
	<path style="fill:none;stroke:red;stroke-width:1px;stroke-linecap:butt;stroke-linejoin:miter;stroke-opacity:1" d="M 89.117,380.062 89.117,364.587 z" id="boundary" inkscape:connector-curvature="0" />
	<path style="fill:none;stroke:red;stroke-width:1px;stroke-linecap:butt;stroke-linejoin:miter;stroke-opacity:1" d="M 96.8549,242.328 96.8549,226.852 z" id="boundary" inkscape:connector-curvature="0" />
	<path style="fill:none;stroke:red;stroke-width:1px;stroke-linecap:butt;stroke-linejoin:miter;stroke-opacity:1" d="M 89.117,395.538 89.117,380.062 z" id="boundary" inkscape:connector-curvature="0" />
	<path style="fill:none;stroke:red;stroke-width:1px;stroke-linecap:butt;stroke-linejoin:miter;stroke-opacity:1" d="M 89.117,411.014 89.117,395.538 z" id="boundary" inkscape:connector-curvature="0" />
	<path style="fill:none;stroke:red;stroke-width:1px;stroke-linecap:butt;stroke-linejoin:miter;stroke-opacity:1" d="M 96.8549,287.207 89.117,302.683 z" id="boundary" inkscape:connector-curvature="0" />
	<path style="fill:none;stroke:red;stroke-width:1px;stroke-linecap:butt;stroke-linejoin:miter;stroke-opacity:1" d="M 89.117,426.49 89.117,411.014 z" id="boundary" inkscape:connector-curvature="0" />
	<path style="fill:none;stroke:red;stroke-width:1px;stroke-linecap:butt;stroke-linejoin:miter;stroke-opacity:1" d="M 89.117,441.966 89.117,426.49 z" id="boundary" inkscape:connector-curvature="0" />
	<path style="fill:none;stroke:red;stroke-width:1px;stroke-linecap:butt;stroke-linejoin:miter;stroke-opacity:1" d="M 104.593,469.822 98.4025,454.346 z" id="boundary" inkscape:connector-curvature="0" />
	<path style="fill:none;stroke:red;stroke-width:1px;stroke-linecap:butt;stroke-linejoin:miter;stroke-opacity:1" d="M 98.4025,454.346 89.117,441.966 z" id="boundary" inkscape:connector-curvature="0" />
	<path style="fill:none;stroke:red;stroke-width:1px;stroke-linecap:butt;stroke-linejoin:miter;stroke-opacity:1" d="M 96.8549,287.207 104.593,271.732 z" id="boundary" inkscape:connector-curvature="0" />
	<path style="fill:none;stroke:red;stroke-width:1px;stroke-linecap:butt;stroke-linejoin:miter;stroke-opacity:1" d="M 276.374,168.044 276.374,152.568 z" id="boundary" inkscape:connector-curvature="0" />
	<path style="fill:none;stroke:red;stroke-width:1px;stroke-linecap:butt;stroke-linejoin:miter;stroke-opacity:1" d="M 104.593,256.256 104.593,271.732 z" id="boundary" inkscape:connector-curvature="0" />
	<path style="fill:none;stroke:red;stroke-width:1px;stroke-linecap:butt;stroke-linejoin:miter;stroke-opacity:1" d="M 104.593,256.256 96.8549,242.328 z" id="boundary" inkscape:connector-curvature="0" />
	<path style="fill:none;stroke:red;stroke-width:1px;stroke-linecap:butt;stroke-linejoin:miter;stroke-opacity:1" d="M 99.9501,754.577 86.0218,762.315 z" id="boundary" inkscape:connector-curvature="0" />
	<path style="fill:none;stroke:red;stroke-width:1px;stroke-linecap:butt;stroke-linejoin:miter;stroke-opacity:1" d="M 99.9501,754.577 115.426,754.577 z" id="boundary" inkscape:connector-curvature="0" />
	<path style="fill:none;stroke:red;stroke-width:1px;stroke-linecap:butt;stroke-linejoin:miter;stroke-opacity:1" d="M 276.374,229.947 279.47,245.423 z" id="boundary" inkscape:connector-curvature="0" />
	<path style="fill:none;stroke:red;stroke-width:1px;stroke-linecap:butt;stroke-linejoin:miter;stroke-opacity:1" d="M 132.449,508.512 121.616,496.131 z" id="boundary" inkscape:connector-curvature="0" />
	<path style="fill:none;stroke:red;stroke-width:1px;stroke-linecap:butt;stroke-linejoin:miter;stroke-opacity:1" d="M 276.374,183.52 276.374,168.044 z" id="boundary" inkscape:connector-curvature="0" />
	<path style="fill:none;stroke:red;stroke-width:1px;stroke-linecap:butt;stroke-linejoin:miter;stroke-opacity:1" d="M 132.449,42.6895 120.069,55.0702 z" id="boundary" inkscape:connector-curvature="0" />
	<path style="fill:none;stroke:red;stroke-width:1px;stroke-linecap:butt;stroke-linejoin:miter;stroke-opacity:1" d="M 104.593,469.822 113.878,482.203 z" id="boundary" inkscape:connector-curvature="0" />
	<path style="fill:none;stroke:red;stroke-width:1px;stroke-linecap:butt;stroke-linejoin:miter;stroke-opacity:1" d="M 113.878,482.203 121.616,496.131 z" id="boundary" inkscape:connector-curvature="0" />
	<path style="fill:none;stroke:red;stroke-width:1px;stroke-linecap:butt;stroke-linejoin:miter;stroke-opacity:1" d="M 172.686,38.0468 188.162,42.6895 z" id="boundary" inkscape:connector-curvature="0" />
	<path style="fill:none;stroke:red;stroke-width:1px;stroke-linecap:butt;stroke-linejoin:miter;stroke-opacity:1" d="M 132.449,42.6895 140.187,27.2137 z" id="boundary" inkscape:connector-curvature="0" />
	<path style="fill:none;stroke:red;stroke-width:1px;stroke-linecap:butt;stroke-linejoin:miter;stroke-opacity:1" d="M 106.14,73.6412 120.069,55.0702 z" id="boundary" inkscape:connector-curvature="0" />
	<path style="fill:none;stroke:red;stroke-width:1px;stroke-linecap:butt;stroke-linejoin:miter;stroke-opacity:1" d="M 113.878,810.29 98.4025,810.29 z" id="boundary" inkscape:connector-curvature="0" />
	<path style="fill:none;stroke:red;stroke-width:1px;stroke-linecap:butt;stroke-linejoin:miter;stroke-opacity:1" d="M 98.4025,810.29 86.0218,801.005 z" id="boundary" inkscape:connector-curvature="0" />
	<path style="fill:none;stroke:red;stroke-width:1px;stroke-linecap:butt;stroke-linejoin:miter;stroke-opacity:1" d="M 129.354,810.29 113.878,810.29 z" id="boundary" inkscape:connector-curvature="0" />
	<path style="fill:none;stroke:red;stroke-width:1px;stroke-linecap:butt;stroke-linejoin:miter;stroke-opacity:1" d="M 294.945,251.613 308.874,259.351 z" id="boundary" inkscape:connector-curvature="0" />
	<path style="fill:none;stroke:red;stroke-width:1px;stroke-linecap:butt;stroke-linejoin:miter;stroke-opacity:1" d="M 294.945,251.613 279.47,245.423 z" id="boundary" inkscape:connector-curvature="0" />
	<path style="fill:none;stroke:red;stroke-width:1px;stroke-linecap:butt;stroke-linejoin:miter;stroke-opacity:1" d="M 123.164,740.649 115.426,754.577 z" id="boundary" inkscape:connector-curvature="0" />
	<path style="fill:none;stroke:red;stroke-width:1px;stroke-linecap:butt;stroke-linejoin:miter;stroke-opacity:1" d="M 140.187,27.2137 152.568,14.8331 z" id="boundary" inkscape:connector-curvature="0" />
	<path style="fill:none;stroke:red;stroke-width:1px;stroke-linecap:butt;stroke-linejoin:miter;stroke-opacity:1" d="M 152.568,14.8331 166.496,22.571 z" id="boundary" inkscape:connector-curvature="0" />
	<path style="fill:none;stroke:red;stroke-width:1px;stroke-linecap:butt;stroke-linejoin:miter;stroke-opacity:1" d="M 166.496,22.571 172.686,38.0468 z" id="boundary" inkscape:connector-curvature="0" />
	<path style="fill:none;stroke:red;stroke-width:1px;stroke-linecap:butt;stroke-linejoin:miter;stroke-opacity:1" d="M 144.83,810.29 129.354,810.29 z" id="boundary" inkscape:connector-curvature="0" />
	<path style="fill:none;stroke:red;stroke-width:1px;stroke-linecap:butt;stroke-linejoin:miter;stroke-opacity:1" d="M 123.164,740.649 135.544,720.53 z" id="boundary" inkscape:connector-curvature="0" />
	<path style="fill:none;stroke:red;stroke-width:1px;stroke-linecap:butt;stroke-linejoin:miter;stroke-opacity:1" d="M 132.449,508.512 144.83,519.345 z" id="boundary" inkscape:connector-curvature="0" />
	<path style="fill:none;stroke:red;stroke-width:1px;stroke-linecap:butt;stroke-linejoin:miter;stroke-opacity:1" d="M 143.282,705.055 135.544,720.53 z" id="boundary" inkscape:connector-curvature="0" />
	<path style="fill:none;stroke:red;stroke-width:1px;stroke-linecap:butt;stroke-linejoin:miter;stroke-opacity:1" d="M 144.83,519.345 151.02,534.821 z" id="boundary" inkscape:connector-curvature="0" />
	<path style="fill:none;stroke:red;stroke-width:1px;stroke-linecap:butt;stroke-linejoin:miter;stroke-opacity:1" d="M 205.186,819.576 216.019,831.956 z" id="boundary" inkscape:connector-curvature="0" />
	<path style="fill:none;stroke:red;stroke-width:1px;stroke-linecap:butt;stroke-linejoin:miter;stroke-opacity:1" d="M 268.637,107.688 276.374,121.616 z" id="boundary" inkscape:connector-curvature="0" />
	<path style="fill:none;stroke:red;stroke-width:1px;stroke-linecap:butt;stroke-linejoin:miter;stroke-opacity:1" d="M 276.374,121.616 276.374,137.092 z" id="boundary" inkscape:connector-curvature="0" />
	<path style="fill:none;stroke:red;stroke-width:1px;stroke-linecap:butt;stroke-linejoin:miter;stroke-opacity:1" d="M 151.02,674.103 151.02,689.579 z" id="boundary" inkscape:connector-curvature="0" />
	<path style="fill:none;stroke:red;stroke-width:1px;stroke-linecap:butt;stroke-linejoin:miter;stroke-opacity:1" d="M 151.02,689.579 143.282,705.055 z" id="boundary" inkscape:connector-curvature="0" />
	<path style="fill:none;stroke:red;stroke-width:1px;stroke-linecap:butt;stroke-linejoin:miter;stroke-opacity:1" d="M 260.899,93.7598 253.161,79.8315 z" id="boundary" inkscape:connector-curvature="0" />
	<path style="fill:none;stroke:red;stroke-width:1px;stroke-linecap:butt;stroke-linejoin:miter;stroke-opacity:1" d="M 158.758,650.889 151.02,674.103 z" id="boundary" inkscape:connector-curvature="0" />
	<path style="fill:none;stroke:red;stroke-width:1px;stroke-linecap:butt;stroke-linejoin:miter;stroke-opacity:1" d="M 157.211,799.457 144.83,810.29 z" id="boundary" inkscape:connector-curvature="0" />
	<path style="fill:none;stroke:red;stroke-width:1px;stroke-linecap:butt;stroke-linejoin:miter;stroke-opacity:1" d="M 151.02,534.821 163.401,545.654 z" id="boundary" inkscape:connector-curvature="0" />
	<path style="fill:none;stroke:red;stroke-width:1px;stroke-linecap:butt;stroke-linejoin:miter;stroke-opacity:1" d="M 158.758,650.889 166.496,627.676 z" id="boundary" inkscape:connector-curvature="0" />
	<path style="fill:none;stroke:red;stroke-width:1px;stroke-linecap:butt;stroke-linejoin:miter;stroke-opacity:1" d="M 172.686,791.719 157.211,799.457 z" id="boundary" inkscape:connector-curvature="0" />
	<path style="fill:none;stroke:red;stroke-width:1px;stroke-linecap:butt;stroke-linejoin:miter;stroke-opacity:1" d="M 197.448,24.1186 188.162,42.6895 z" id="boundary" inkscape:connector-curvature="0" />
	<path style="fill:none;stroke:red;stroke-width:1px;stroke-linecap:butt;stroke-linejoin:miter;stroke-opacity:1" d="M 209.828,11.7379 197.448,24.1186 z" id="boundary" inkscape:connector-curvature="0" />
	<path style="fill:none;stroke:red;stroke-width:1px;stroke-linecap:butt;stroke-linejoin:miter;stroke-opacity:1" d="M 174.234,558.034 174.234,573.51 z" id="boundary" inkscape:connector-curvature="0" />
	<path style="fill:none;stroke:red;stroke-width:1px;stroke-linecap:butt;stroke-linejoin:miter;stroke-opacity:1" d="M 174.234,558.034 163.401,545.654 z" id="boundary" inkscape:connector-curvature="0" />
	<path style="fill:none;stroke:red;stroke-width:1px;stroke-linecap:butt;stroke-linejoin:miter;stroke-opacity:1" d="M 174.234,573.51 174.234,588.986 z" id="boundary" inkscape:connector-curvature="0" />
	<path style="fill:none;stroke:red;stroke-width:1px;stroke-linecap:butt;stroke-linejoin:miter;stroke-opacity:1" d="M 197.448,805.647 205.186,819.576 z" id="boundary" inkscape:connector-curvature="0" />
	<path style="fill:none;stroke:red;stroke-width:1px;stroke-linecap:butt;stroke-linejoin:miter;stroke-opacity:1" d="M 245.423,19.4758 245.423,34.9516 z" id="boundary" inkscape:connector-curvature="0" />
	<path style="fill:none;stroke:red;stroke-width:1px;stroke-linecap:butt;stroke-linejoin:miter;stroke-opacity:1" d="M 174.234,588.986 174.234,604.462 z" id="boundary" inkscape:connector-curvature="0" />
	<path style="fill:none;stroke:red;stroke-width:1px;stroke-linecap:butt;stroke-linejoin:miter;stroke-opacity:1" d="M 174.234,604.462 166.496,627.676 z" id="boundary" inkscape:connector-curvature="0" />
	<path style="fill:none;stroke:red;stroke-width:1px;stroke-linecap:butt;stroke-linejoin:miter;stroke-opacity:1" d="M 245.423,19.4758 240.78,4 z" id="boundary" inkscape:connector-curvature="0" />
	<path style="fill:none;stroke:red;stroke-width:1px;stroke-linecap:butt;stroke-linejoin:miter;stroke-opacity:1" d="M 240.78,4 225.304,4 z" id="boundary" inkscape:connector-curvature="0" />
	<path style="fill:none;stroke:red;stroke-width:1px;stroke-linecap:butt;stroke-linejoin:miter;stroke-opacity:1" d="M 175.782,771.601 172.686,791.719 z" id="boundary" inkscape:connector-curvature="0" />
	<path style="fill:none;stroke:red;stroke-width:1px;stroke-linecap:butt;stroke-linejoin:miter;stroke-opacity:1" d="M 189.71,763.863 175.782,771.601 z" id="boundary" inkscape:connector-curvature="0" />
	<path style="fill:none;stroke:red;stroke-width:1px;stroke-linecap:butt;stroke-linejoin:miter;stroke-opacity:1" d="M 225.304,4 209.828,11.7379 z" id="boundary" inkscape:connector-curvature="0" />
	<path style="fill:none;stroke:red;stroke-width:1px;stroke-linecap:butt;stroke-linejoin:miter;stroke-opacity:1" d="M 198.995,748.387 189.71,763.863 z" id="boundary" inkscape:connector-curvature="0" />
	<path style="fill:none;stroke:red;stroke-width:1px;stroke-linecap:butt;stroke-linejoin:miter;stroke-opacity:1" d="M 206.733,732.911 198.995,748.387 z" id="boundary" inkscape:connector-curvature="0" />
	<path style="fill:none;stroke:red;stroke-width:1px;stroke-linecap:butt;stroke-linejoin:miter;stroke-opacity:1" d="M 209.828,793.267 197.448,805.647 z" id="boundary" inkscape:connector-curvature="0" />
	<path style="fill:none;stroke:red;stroke-width:1px;stroke-linecap:butt;stroke-linejoin:miter;stroke-opacity:1" d="M 245.423,34.9516 245.423,50.4275 z" id="boundary" inkscape:connector-curvature="0" />
	<path style="fill:none;stroke:red;stroke-width:1px;stroke-linecap:butt;stroke-linejoin:miter;stroke-opacity:1" d="M 214.471,717.435 228.399,709.697 z" id="boundary" inkscape:connector-curvature="0" />
	<path style="fill:none;stroke:red;stroke-width:1px;stroke-linecap:butt;stroke-linejoin:miter;stroke-opacity:1" d="M 228.399,709.697 242.328,717.435 z" id="boundary" inkscape:connector-curvature="0" />
	<path style="fill:none;stroke:red;stroke-width:1px;stroke-linecap:butt;stroke-linejoin:miter;stroke-opacity:1" d="M 214.471,717.435 206.733,732.911 z" id="boundary" inkscape:connector-curvature="0" />
	<path style="fill:none;stroke:red;stroke-width:1px;stroke-linecap:butt;stroke-linejoin:miter;stroke-opacity:1" d="M 253.161,79.8315 253.161,64.3557 z" id="boundary" inkscape:connector-curvature="0" />
	<path style="fill:none;stroke:red;stroke-width:1px;stroke-linecap:butt;stroke-linejoin:miter;stroke-opacity:1" d="M 253.161,64.3557 245.423,50.4275 z" id="boundary" inkscape:connector-curvature="0" />
	<path style="fill:none;stroke:red;stroke-width:1px;stroke-linecap:butt;stroke-linejoin:miter;stroke-opacity:1" d="M 222.209,780.886 209.828,793.267 z" id="boundary" inkscape:connector-curvature="0" />
	<path style="fill:none;stroke:red;stroke-width:1px;stroke-linecap:butt;stroke-linejoin:miter;stroke-opacity:1" d="M 231.495,833.504 216.019,831.956 z" id="boundary" inkscape:connector-curvature="0" />
	<path style="fill:none;stroke:red;stroke-width:1px;stroke-linecap:butt;stroke-linejoin:miter;stroke-opacity:1" d="M 242.328,717.435 243.875,732.911 z" id="boundary" inkscape:connector-curvature="0" />
	<path style="fill:none;stroke:red;stroke-width:1px;stroke-linecap:butt;stroke-linejoin:miter;stroke-opacity:1" d="M 236.137,766.958 222.209,780.886 z" id="boundary" inkscape:connector-curvature="0" />
	<path style="fill:none;stroke:red;stroke-width:1px;stroke-linecap:butt;stroke-linejoin:miter;stroke-opacity:1" d="M 243.875,732.911 243.875,748.387 z" id="boundary" inkscape:connector-curvature="0" />
	<path style="fill:none;stroke:red;stroke-width:1px;stroke-linecap:butt;stroke-linejoin:miter;stroke-opacity:1" d="M 243.875,748.387 236.137,766.958 z" id="boundary" inkscape:connector-curvature="0" />
	<path style="fill:none;stroke:red;stroke-width:1px;stroke-linecap:butt;stroke-linejoin:miter;stroke-opacity:1" d="M 276.374,137.092 276.374,152.568 z" id="boundary" inkscape:connector-curvature="0" />
	<path style="fill:none;stroke:red;stroke-width:1px;stroke-linecap:butt;stroke-linejoin:miter;stroke-opacity:1" d="M 260.899,93.7598 268.637,107.688 z" id="boundary" inkscape:connector-curvature="0" />
	<path style="fill:none;stroke:red;stroke-width:1px;stroke-linecap:butt;stroke-linejoin:miter;stroke-opacity:1" d="M 246.97,833.504 231.495,833.504 z" id="boundary" inkscape:connector-curvature="0" />
	<path style="fill:none;stroke:red;stroke-width:1px;stroke-linecap:butt;stroke-linejoin:miter;stroke-opacity:1" d="M 276.374,198.995 276.374,183.52 z" id="boundary" inkscape:connector-curvature="0" />
	<path style="fill:none;stroke:red;stroke-width:1px;stroke-linecap:butt;stroke-linejoin:miter;stroke-opacity:1" d="M 276.374,214.471 276.374,198.995 z" id="boundary" inkscape:connector-curvature="0" />
	<path style="fill:none;stroke:red;stroke-width:1px;stroke-linecap:butt;stroke-linejoin:miter;stroke-opacity:1" d="M 315.064,678.746 315.064,663.27 z" id="boundary" inkscape:connector-curvature="0" />
	<path style="fill:none;stroke:red;stroke-width:1px;stroke-linecap:butt;stroke-linejoin:miter;stroke-opacity:1" d="M 262.446,833.504 246.97,833.504 z" id="boundary" inkscape:connector-curvature="0" />
	<path style="fill:none;stroke:red;stroke-width:1px;stroke-linecap:butt;stroke-linejoin:miter;stroke-opacity:1" d="M 276.374,229.947 276.374,214.471 z" id="boundary" inkscape:connector-curvature="0" />
	<path style="fill:none;stroke:red;stroke-width:1px;stroke-linecap:butt;stroke-linejoin:miter;stroke-opacity:1" d="M 667.913,864.456 653.984,856.718 z" id="boundary" inkscape:connector-curvature="0" />
	<path style="fill:none;stroke:red;stroke-width:1px;stroke-linecap:butt;stroke-linejoin:miter;stroke-opacity:1" d="M 653.984,856.718 638.509,850.527 z" id="boundary" inkscape:connector-curvature="0" />
	<path style="fill:none;stroke:red;stroke-width:1px;stroke-linecap:butt;stroke-linejoin:miter;stroke-opacity:1" d="M 291.85,825.766 277.922,833.504 z" id="boundary" inkscape:connector-curvature="0" />
	<path style="fill:none;stroke:red;stroke-width:1px;stroke-linecap:butt;stroke-linejoin:miter;stroke-opacity:1" d="M 277.922,833.504 262.446,833.504 z" id="boundary" inkscape:connector-curvature="0" />
	<path style="fill:none;stroke:red;stroke-width:1px;stroke-linecap:butt;stroke-linejoin:miter;stroke-opacity:1" d="M 630.771,836.599 638.509,850.527 z" id="boundary" inkscape:connector-curvature="0" />
	<path style="fill:none;stroke:red;stroke-width:1px;stroke-linecap:butt;stroke-linejoin:miter;stroke-opacity:1" d="M 299.588,802.552 291.85,825.766 z" id="boundary" inkscape:connector-curvature="0" />
	<path style="fill:none;stroke:red;stroke-width:1px;stroke-linecap:butt;stroke-linejoin:miter;stroke-opacity:1" d="M 307.326,779.339 299.588,802.552 z" id="boundary" inkscape:connector-curvature="0" />
	<path style="fill:none;stroke:red;stroke-width:1px;stroke-linecap:butt;stroke-linejoin:miter;stroke-opacity:1" d="M 446.608,578.153 462.084,578.153 z" id="boundary" inkscape:connector-curvature="0" />
	<path style="fill:none;stroke:red;stroke-width:1px;stroke-linecap:butt;stroke-linejoin:miter;stroke-opacity:1" d="M 315.064,647.794 315.064,632.318 z" id="boundary" inkscape:connector-curvature="0" />
	<path style="fill:none;stroke:red;stroke-width:1px;stroke-linecap:butt;stroke-linejoin:miter;stroke-opacity:1" d="M 315.064,709.697 315.064,725.173 z" id="boundary" inkscape:connector-curvature="0" />
	<path style="fill:none;stroke:red;stroke-width:1px;stroke-linecap:butt;stroke-linejoin:miter;stroke-opacity:1" d="M 315.064,663.27 315.064,647.794 z" id="boundary" inkscape:connector-curvature="0" />
	<path style="fill:none;stroke:red;stroke-width:1px;stroke-linecap:butt;stroke-linejoin:miter;stroke-opacity:1" d="M 308.874,259.351 322.802,251.613 z" id="boundary" inkscape:connector-curvature="0" />
	<path style="fill:none;stroke:red;stroke-width:1px;stroke-linecap:butt;stroke-linejoin:miter;stroke-opacity:1" d="M 322.802,251.613 338.278,246.97 z" id="boundary" inkscape:connector-curvature="0" />
	<path style="fill:none;stroke:red;stroke-width:1px;stroke-linecap:butt;stroke-linejoin:miter;stroke-opacity:1" d="M 315.064,694.222 315.064,678.746 z" id="boundary" inkscape:connector-curvature="0" />
	<path style="fill:none;stroke:red;stroke-width:1px;stroke-linecap:butt;stroke-linejoin:miter;stroke-opacity:1" d="M 315.064,632.318 322.802,616.842 z" id="boundary" inkscape:connector-curvature="0" />
	<path style="fill:none;stroke:red;stroke-width:1px;stroke-linecap:butt;stroke-linejoin:miter;stroke-opacity:1" d="M 315.064,709.697 315.064,694.222 z" id="boundary" inkscape:connector-curvature="0" />
	<path style="fill:none;stroke:red;stroke-width:1px;stroke-linecap:butt;stroke-linejoin:miter;stroke-opacity:1" d="M 330.54,601.367 322.802,616.842 z" id="boundary" inkscape:connector-curvature="0" />
	<path style="fill:none;stroke:red;stroke-width:1px;stroke-linecap:butt;stroke-linejoin:miter;stroke-opacity:1" d="M 315.064,740.649 315.064,725.173 z" id="boundary" inkscape:connector-curvature="0" />
	<path style="fill:none;stroke:red;stroke-width:1px;stroke-linecap:butt;stroke-linejoin:miter;stroke-opacity:1" d="M 353.754,578.153 369.229,578.153 z" id="boundary" inkscape:connector-curvature="0" />
	<path style="fill:none;stroke:red;stroke-width:1px;stroke-linecap:butt;stroke-linejoin:miter;stroke-opacity:1" d="M 384.705,578.153 369.229,578.153 z" id="boundary" inkscape:connector-curvature="0" />
	<path style="fill:none;stroke:red;stroke-width:1px;stroke-linecap:butt;stroke-linejoin:miter;stroke-opacity:1" d="M 315.064,740.649 315.064,756.125 z" id="boundary" inkscape:connector-curvature="0" />
	<path style="fill:none;stroke:red;stroke-width:1px;stroke-linecap:butt;stroke-linejoin:miter;stroke-opacity:1" d="M 330.54,601.367 338.278,585.891 z" id="boundary" inkscape:connector-curvature="0" />
	<path style="fill:none;stroke:red;stroke-width:1px;stroke-linecap:butt;stroke-linejoin:miter;stroke-opacity:1" d="M 338.278,585.891 353.754,578.153 z" id="boundary" inkscape:connector-curvature="0" />
	<path style="fill:none;stroke:red;stroke-width:1px;stroke-linecap:butt;stroke-linejoin:miter;stroke-opacity:1" d="M 315.064,756.125 307.326,779.339 z" id="boundary" inkscape:connector-curvature="0" />
	<path style="fill:none;stroke:red;stroke-width:1px;stroke-linecap:butt;stroke-linejoin:miter;stroke-opacity:1" d="M 431.133,578.153 446.608,578.153 z" id="boundary" inkscape:connector-curvature="0" />
	<path style="fill:none;stroke:red;stroke-width:1px;stroke-linecap:butt;stroke-linejoin:miter;stroke-opacity:1" d="M 400.181,578.153 384.705,578.153 z" id="boundary" inkscape:connector-curvature="0" />
	<path style="fill:none;stroke:red;stroke-width:1px;stroke-linecap:butt;stroke-linejoin:miter;stroke-opacity:1" d="M 338.278,246.97 353.754,243.875 z" id="boundary" inkscape:connector-curvature="0" />
	<path style="fill:none;stroke:red;stroke-width:1px;stroke-linecap:butt;stroke-linejoin:miter;stroke-opacity:1" d="M 353.754,243.875 369.229,243.875 z" id="boundary" inkscape:connector-curvature="0" />
	<path style="fill:none;stroke:red;stroke-width:1px;stroke-linecap:butt;stroke-linejoin:miter;stroke-opacity:1" d="M 400.181,578.153 415.657,578.153 z" id="boundary" inkscape:connector-curvature="0" />
	<path style="fill:none;stroke:red;stroke-width:1px;stroke-linecap:butt;stroke-linejoin:miter;stroke-opacity:1" d="M 415.657,578.153 431.133,578.153 z" id="boundary" inkscape:connector-curvature="0" />
	<path style="fill:none;stroke:red;stroke-width:1px;stroke-linecap:butt;stroke-linejoin:miter;stroke-opacity:1" d="M 383.158,236.137 398.633,236.137 z" id="boundary" inkscape:connector-curvature="0" />
	<path style="fill:none;stroke:red;stroke-width:1px;stroke-linecap:butt;stroke-linejoin:miter;stroke-opacity:1" d="M 383.158,236.137 369.229,243.875 z" id="boundary" inkscape:connector-curvature="0" />
	<path style="fill:none;stroke:red;stroke-width:1px;stroke-linecap:butt;stroke-linejoin:miter;stroke-opacity:1" d="M 398.633,236.137 414.109,236.137 z" id="boundary" inkscape:connector-curvature="0" />
	<path style="fill:none;stroke:red;stroke-width:1px;stroke-linecap:butt;stroke-linejoin:miter;stroke-opacity:1" d="M 429.585,236.137 414.109,236.137 z" id="boundary" inkscape:connector-curvature="0" />
	<path style="fill:none;stroke:red;stroke-width:1px;stroke-linecap:butt;stroke-linejoin:miter;stroke-opacity:1" d="M 477.56,570.415 493.036,570.415 z" id="boundary" inkscape:connector-curvature="0" />
	<path style="fill:none;stroke:red;stroke-width:1px;stroke-linecap:butt;stroke-linejoin:miter;stroke-opacity:1" d="M 477.56,570.415 462.084,578.153 z" id="boundary" inkscape:connector-curvature="0" />
	<path style="fill:none;stroke:red;stroke-width:1px;stroke-linecap:butt;stroke-linejoin:miter;stroke-opacity:1" d="M 443.513,228.399 429.585,236.137 z" id="boundary" inkscape:connector-curvature="0" />
	<path style="fill:none;stroke:red;stroke-width:1px;stroke-linecap:butt;stroke-linejoin:miter;stroke-opacity:1" d="M 457.441,220.661 472.917,220.661 z" id="boundary" inkscape:connector-curvature="0" />
	<path style="fill:none;stroke:red;stroke-width:1px;stroke-linecap:butt;stroke-linejoin:miter;stroke-opacity:1" d="M 457.441,220.661 443.513,228.399 z" id="boundary" inkscape:connector-curvature="0" />
	<path style="fill:none;stroke:red;stroke-width:1px;stroke-linecap:butt;stroke-linejoin:miter;stroke-opacity:1" d="M 488.393,212.924 503.869,212.924 z" id="boundary" inkscape:connector-curvature="0" />
	<path style="fill:none;stroke:red;stroke-width:1px;stroke-linecap:butt;stroke-linejoin:miter;stroke-opacity:1" d="M 488.393,212.924 472.917,220.661 z" id="boundary" inkscape:connector-curvature="0" />
	<path style="fill:none;stroke:red;stroke-width:1px;stroke-linecap:butt;stroke-linejoin:miter;stroke-opacity:1" d="M 493.036,570.415 506.964,562.677 z" id="boundary" inkscape:connector-curvature="0" />
	<path style="fill:none;stroke:red;stroke-width:1px;stroke-linecap:butt;stroke-linejoin:miter;stroke-opacity:1" d="M 506.964,562.677 520.892,570.415 z" id="boundary" inkscape:connector-curvature="0" />
	<path style="fill:none;stroke:red;stroke-width:1px;stroke-linecap:butt;stroke-linejoin:miter;stroke-opacity:1" d="M 630.771,601.367 629.223,585.891 z" id="boundary" inkscape:connector-curvature="0" />
	<path style="fill:none;stroke:red;stroke-width:1px;stroke-linecap:butt;stroke-linejoin:miter;stroke-opacity:1" d="M 629.223,585.891 616.842,575.058 z" id="boundary" inkscape:connector-curvature="0" />
	<path style="fill:none;stroke:red;stroke-width:1px;stroke-linecap:butt;stroke-linejoin:miter;stroke-opacity:1" d="M 517.797,205.186 533.273,205.186 z" id="boundary" inkscape:connector-curvature="0" />
	<path style="fill:none;stroke:red;stroke-width:1px;stroke-linecap:butt;stroke-linejoin:miter;stroke-opacity:1" d="M 517.797,205.186 503.869,212.924 z" id="boundary" inkscape:connector-curvature="0" />
	<path style="fill:none;stroke:red;stroke-width:1px;stroke-linecap:butt;stroke-linejoin:miter;stroke-opacity:1" d="M 536.368,567.32 551.844,562.677 z" id="boundary" inkscape:connector-curvature="0" />
	<path style="fill:none;stroke:red;stroke-width:1px;stroke-linecap:butt;stroke-linejoin:miter;stroke-opacity:1" d="M 533.273,205.186 548.749,205.186 z" id="boundary" inkscape:connector-curvature="0" />
	<path style="fill:none;stroke:red;stroke-width:1px;stroke-linecap:butt;stroke-linejoin:miter;stroke-opacity:1" d="M 565.772,554.939 551.844,562.677 z" id="boundary" inkscape:connector-curvature="0" />
	<path style="fill:none;stroke:red;stroke-width:1px;stroke-linecap:butt;stroke-linejoin:miter;stroke-opacity:1" d="M 536.368,567.32 520.892,570.415 z" id="boundary" inkscape:connector-curvature="0" />
	<path style="fill:none;stroke:red;stroke-width:1px;stroke-linecap:butt;stroke-linejoin:miter;stroke-opacity:1" d="M 630.771,601.367 640.056,613.747 z" id="boundary" inkscape:connector-curvature="0" />
	<path style="fill:none;stroke:red;stroke-width:1px;stroke-linecap:butt;stroke-linejoin:miter;stroke-opacity:1" d="M 564.225,205.186 548.749,205.186 z" id="boundary" inkscape:connector-curvature="0" />
	<path style="fill:none;stroke:red;stroke-width:1px;stroke-linecap:butt;stroke-linejoin:miter;stroke-opacity:1" d="M 565.772,554.939 579.7,547.201 z" id="boundary" inkscape:connector-curvature="0" />
	<path style="fill:none;stroke:red;stroke-width:1px;stroke-linecap:butt;stroke-linejoin:miter;stroke-opacity:1" d="M 579.7,205.186 564.225,205.186 z" id="boundary" inkscape:connector-curvature="0" />
	<path style="fill:none;stroke:red;stroke-width:1px;stroke-linecap:butt;stroke-linejoin:miter;stroke-opacity:1" d="M 579.7,547.201 593.629,539.463 z" id="boundary" inkscape:connector-curvature="0" />
	<path style="fill:none;stroke:red;stroke-width:1px;stroke-linecap:butt;stroke-linejoin:miter;stroke-opacity:1" d="M 593.629,539.463 607.557,547.201 z" id="boundary" inkscape:connector-curvature="0" />
	<path style="fill:none;stroke:red;stroke-width:1px;stroke-linecap:butt;stroke-linejoin:miter;stroke-opacity:1" d="M 607.557,547.201 607.557,562.677 z" id="boundary" inkscape:connector-curvature="0" />
	<path style="fill:none;stroke:red;stroke-width:1px;stroke-linecap:butt;stroke-linejoin:miter;stroke-opacity:1" d="M 595.176,205.186 609.105,212.924 z" id="boundary" inkscape:connector-curvature="0" />
	<path style="fill:none;stroke:red;stroke-width:1px;stroke-linecap:butt;stroke-linejoin:miter;stroke-opacity:1" d="M 595.176,205.186 579.7,205.186 z" id="boundary" inkscape:connector-curvature="0" />
	<path style="fill:none;stroke:red;stroke-width:1px;stroke-linecap:butt;stroke-linejoin:miter;stroke-opacity:1" d="M 607.557,562.677 616.842,575.058 z" id="boundary" inkscape:connector-curvature="0" />
	<path style="fill:none;stroke:red;stroke-width:1px;stroke-linecap:butt;stroke-linejoin:miter;stroke-opacity:1" d="M 609.105,212.924 624.58,212.924 z" id="boundary" inkscape:connector-curvature="0" />
	<path style="fill:none;stroke:red;stroke-width:1px;stroke-linecap:butt;stroke-linejoin:miter;stroke-opacity:1" d="M 653.984,220.661 640.056,212.924 z" id="boundary" inkscape:connector-curvature="0" />
	<path style="fill:none;stroke:red;stroke-width:1px;stroke-linecap:butt;stroke-linejoin:miter;stroke-opacity:1" d="M 640.056,212.924 624.58,212.924 z" id="boundary" inkscape:connector-curvature="0" />
	<path style="fill:none;stroke:red;stroke-width:1px;stroke-linecap:butt;stroke-linejoin:miter;stroke-opacity:1" d="M 667.913,228.399 653.984,220.661 z" id="boundary" inkscape:connector-curvature="0" />
	<path style="fill:none;stroke:red;stroke-width:1px;stroke-linecap:butt;stroke-linejoin:miter;stroke-opacity:1" d="M 714.34,236.137 698.864,229.947 z" id="boundary" inkscape:connector-curvature="0" />
	<path style="fill:none;stroke:red;stroke-width:1px;stroke-linecap:butt;stroke-linejoin:miter;stroke-opacity:1" d="M 698.864,229.947 683.388,228.399 z" id="boundary" inkscape:connector-curvature="0" />
	<path style="fill:none;stroke:red;stroke-width:1px;stroke-linecap:butt;stroke-linejoin:miter;stroke-opacity:1" d="M 643.151,824.218 630.771,836.599 z" id="boundary" inkscape:connector-curvature="0" />
	<path style="fill:none;stroke:red;stroke-width:1px;stroke-linecap:butt;stroke-linejoin:miter;stroke-opacity:1" d="M 652.437,624.58 640.056,613.747 z" id="boundary" inkscape:connector-curvature="0" />
	<path style="fill:none;stroke:red;stroke-width:1px;stroke-linecap:butt;stroke-linejoin:miter;stroke-opacity:1" d="M 652.437,624.58 663.27,636.961 z" id="boundary" inkscape:connector-curvature="0" />
	<path style="fill:none;stroke:red;stroke-width:1px;stroke-linecap:butt;stroke-linejoin:miter;stroke-opacity:1" d="M 683.388,228.399 667.913,228.399 z" id="boundary" inkscape:connector-curvature="0" />
	<path style="fill:none;stroke:red;stroke-width:1px;stroke-linecap:butt;stroke-linejoin:miter;stroke-opacity:1" d="M 655.532,811.838 643.151,824.218 z" id="boundary" inkscape:connector-curvature="0" />
	<path style="fill:none;stroke:red;stroke-width:1px;stroke-linecap:butt;stroke-linejoin:miter;stroke-opacity:1" d="M 663.27,636.961 675.651,647.794 z" id="boundary" inkscape:connector-curvature="0" />
	<path style="fill:none;stroke:red;stroke-width:1px;stroke-linecap:butt;stroke-linejoin:miter;stroke-opacity:1" d="M 671.008,804.1 655.532,811.838 z" id="boundary" inkscape:connector-curvature="0" />
	<path style="fill:none;stroke:red;stroke-width:1px;stroke-linecap:butt;stroke-linejoin:miter;stroke-opacity:1" d="M 675.651,647.794 686.484,660.175 z" id="boundary" inkscape:connector-curvature="0" />
	<path style="fill:none;stroke:red;stroke-width:1px;stroke-linecap:butt;stroke-linejoin:miter;stroke-opacity:1" d="M 683.388,864.456 667.913,864.456 z" id="boundary" inkscape:connector-curvature="0" />
	<path style="fill:none;stroke:red;stroke-width:1px;stroke-linecap:butt;stroke-linejoin:miter;stroke-opacity:1" d="M 740.649,250.066 753.03,259.351 z" id="boundary" inkscape:connector-curvature="0" />
	<path style="fill:none;stroke:red;stroke-width:1px;stroke-linecap:butt;stroke-linejoin:miter;stroke-opacity:1" d="M 729.816,237.685 740.649,250.066 z" id="boundary" inkscape:connector-curvature="0" />
	<path style="fill:none;stroke:red;stroke-width:1px;stroke-linecap:butt;stroke-linejoin:miter;stroke-opacity:1" d="M 729.816,237.685 714.34,236.137 z" id="boundary" inkscape:connector-curvature="0" />
	<path style="fill:none;stroke:red;stroke-width:1px;stroke-linecap:butt;stroke-linejoin:miter;stroke-opacity:1" d="M 686.484,660.175 698.864,671.008 z" id="boundary" inkscape:connector-curvature="0" />
	<path style="fill:none;stroke:red;stroke-width:1px;stroke-linecap:butt;stroke-linejoin:miter;stroke-opacity:1" d="M 708.15,720.53 708.15,705.055 z" id="boundary" inkscape:connector-curvature="0" />
	<path style="fill:none;stroke:red;stroke-width:1px;stroke-linecap:butt;stroke-linejoin:miter;stroke-opacity:1" d="M 793.267,78.2839 793.267,62.8081 z" id="boundary" inkscape:connector-curvature="0" />
	<path style="fill:none;stroke:red;stroke-width:1px;stroke-linecap:butt;stroke-linejoin:miter;stroke-opacity:1" d="M 686.484,801.005 671.008,804.1 z" id="boundary" inkscape:connector-curvature="0" />
	<path style="fill:none;stroke:red;stroke-width:1px;stroke-linecap:butt;stroke-linejoin:miter;stroke-opacity:1" d="M 686.484,801.005 700.412,782.434 z" id="boundary" inkscape:connector-curvature="0" />
	<path style="fill:none;stroke:red;stroke-width:1px;stroke-linecap:butt;stroke-linejoin:miter;stroke-opacity:1" d="M 708.15,736.006 708.15,720.53 z" id="boundary" inkscape:connector-curvature="0" />
	<path style="fill:none;stroke:red;stroke-width:1px;stroke-linecap:butt;stroke-linejoin:miter;stroke-opacity:1" d="M 698.864,864.456 683.388,864.456 z" id="boundary" inkscape:connector-curvature="0" />
	<path style="fill:none;stroke:red;stroke-width:1px;stroke-linecap:butt;stroke-linejoin:miter;stroke-opacity:1" d="M 787.076,353.754 787.076,338.278 z" id="boundary" inkscape:connector-curvature="0" />
	<path style="fill:none;stroke:red;stroke-width:1px;stroke-linecap:butt;stroke-linejoin:miter;stroke-opacity:1" d="M 753.03,259.351 768.505,259.351 z" id="boundary" inkscape:connector-curvature="0" />
	<path style="fill:none;stroke:red;stroke-width:1px;stroke-linecap:butt;stroke-linejoin:miter;stroke-opacity:1" d="M 698.864,671.008 709.697,683.388 z" id="boundary" inkscape:connector-curvature="0" />
	<path style="fill:none;stroke:red;stroke-width:1px;stroke-linecap:butt;stroke-linejoin:miter;stroke-opacity:1" d="M 709.697,683.388 708.15,705.055 z" id="boundary" inkscape:connector-curvature="0" />
	<path style="fill:none;stroke:red;stroke-width:1px;stroke-linecap:butt;stroke-linejoin:miter;stroke-opacity:1" d="M 708.15,766.958 700.412,782.434 z" id="boundary" inkscape:connector-curvature="0" />
	<path style="fill:none;stroke:red;stroke-width:1px;stroke-linecap:butt;stroke-linejoin:miter;stroke-opacity:1" d="M 782.434,647.794 779.339,632.318 z" id="boundary" inkscape:connector-curvature="0" />
	<path style="fill:none;stroke:red;stroke-width:1px;stroke-linecap:butt;stroke-linejoin:miter;stroke-opacity:1" d="M 708.15,736.006 715.888,749.934 z" id="boundary" inkscape:connector-curvature="0" />
	<path style="fill:none;stroke:red;stroke-width:1px;stroke-linecap:butt;stroke-linejoin:miter;stroke-opacity:1" d="M 714.34,864.456 698.864,864.456 z" id="boundary" inkscape:connector-curvature="0" />
	<path style="fill:none;stroke:red;stroke-width:1px;stroke-linecap:butt;stroke-linejoin:miter;stroke-opacity:1" d="M 782.434,647.794 787.076,663.27 z" id="boundary" inkscape:connector-curvature="0" />
	<path style="fill:none;stroke:red;stroke-width:1px;stroke-linecap:butt;stroke-linejoin:miter;stroke-opacity:1" d="M 787.076,748.387 787.076,763.863 z" id="boundary" inkscape:connector-curvature="0" />
	<path style="fill:none;stroke:red;stroke-width:1px;stroke-linecap:butt;stroke-linejoin:miter;stroke-opacity:1" d="M 715.888,749.934 708.15,766.958 z" id="boundary" inkscape:connector-curvature="0" />
	<path style="fill:none;stroke:red;stroke-width:1px;stroke-linecap:butt;stroke-linejoin:miter;stroke-opacity:1" d="M 797.91,383.158 790.172,369.229 z" id="boundary" inkscape:connector-curvature="0" />
	<path style="fill:none;stroke:red;stroke-width:1px;stroke-linecap:butt;stroke-linejoin:miter;stroke-opacity:1" d="M 787.076,663.27 787.076,678.746 z" id="boundary" inkscape:connector-curvature="0" />
	<path style="fill:none;stroke:red;stroke-width:1px;stroke-linecap:butt;stroke-linejoin:miter;stroke-opacity:1" d="M 729.816,864.456 714.34,864.456 z" id="boundary" inkscape:connector-curvature="0" />
	<path style="fill:none;stroke:red;stroke-width:1px;stroke-linecap:butt;stroke-linejoin:miter;stroke-opacity:1" d="M 763.863,825.766 763.863,841.242 z" id="boundary" inkscape:connector-curvature="0" />
	<path style="fill:none;stroke:red;stroke-width:1px;stroke-linecap:butt;stroke-linejoin:miter;stroke-opacity:1" d="M 729.816,864.456 745.292,864.456 z" id="boundary" inkscape:connector-curvature="0" />
	<path style="fill:none;stroke:red;stroke-width:1px;stroke-linecap:butt;stroke-linejoin:miter;stroke-opacity:1" d="M 763.863,841.242 760.768,861.36 z" id="boundary" inkscape:connector-curvature="0" />
	<path style="fill:none;stroke:red;stroke-width:1px;stroke-linecap:butt;stroke-linejoin:miter;stroke-opacity:1" d="M 760.768,861.36 745.292,864.456 z" id="boundary" inkscape:connector-curvature="0" />
	<path style="fill:none;stroke:red;stroke-width:1px;stroke-linecap:butt;stroke-linejoin:miter;stroke-opacity:1" d="M 790.172,369.229 787.076,353.754 z" id="boundary" inkscape:connector-curvature="0" />
	<path style="fill:none;stroke:red;stroke-width:1px;stroke-linecap:butt;stroke-linejoin:miter;stroke-opacity:1" d="M 779.339,818.028 763.863,825.766 z" id="boundary" inkscape:connector-curvature="0" />
	<path style="fill:none;stroke:red;stroke-width:1px;stroke-linecap:butt;stroke-linejoin:miter;stroke-opacity:1" d="M 794.814,692.674 794.814,708.15 z" id="boundary" inkscape:connector-curvature="0" />
	<path style="fill:none;stroke:red;stroke-width:1px;stroke-linecap:butt;stroke-linejoin:miter;stroke-opacity:1" d="M 794.814,692.674 787.076,678.746 z" id="boundary" inkscape:connector-curvature="0" />
	<path style="fill:none;stroke:red;stroke-width:1px;stroke-linecap:butt;stroke-linejoin:miter;stroke-opacity:1" d="M 808.743,790.172 821.123,801.005 z" id="boundary" inkscape:connector-curvature="0" />
	<path style="fill:none;stroke:red;stroke-width:1px;stroke-linecap:butt;stroke-linejoin:miter;stroke-opacity:1" d="M 768.505,259.351 783.981,259.351 z" id="boundary" inkscape:connector-curvature="0" />
	<path style="fill:none;stroke:red;stroke-width:1px;stroke-linecap:butt;stroke-linejoin:miter;stroke-opacity:1" d="M 805.647,89.117 793.267,78.2839 z" id="boundary" inkscape:connector-curvature="0" />
	<path style="fill:none;stroke:red;stroke-width:1px;stroke-linecap:butt;stroke-linejoin:miter;stroke-opacity:1" d="M 802.552,398.633 802.552,414.109 z" id="boundary" inkscape:connector-curvature="0" />
	<path style="fill:none;stroke:red;stroke-width:1px;stroke-linecap:butt;stroke-linejoin:miter;stroke-opacity:1" d="M 802.552,398.633 797.91,383.158 z" id="boundary" inkscape:connector-curvature="0" />
	<path style="fill:none;stroke:red;stroke-width:1px;stroke-linecap:butt;stroke-linejoin:miter;stroke-opacity:1" d="M 783.981,259.351 797.91,251.613 z" id="boundary" inkscape:connector-curvature="0" />
	<path style="fill:none;stroke:red;stroke-width:1px;stroke-linecap:butt;stroke-linejoin:miter;stroke-opacity:1" d="M 787.076,338.278 799.457,327.445 z" id="boundary" inkscape:connector-curvature="0" />
	<path style="fill:none;stroke:red;stroke-width:1px;stroke-linecap:butt;stroke-linejoin:miter;stroke-opacity:1" d="M 779.339,632.318 793.267,624.58 z" id="boundary" inkscape:connector-curvature="0" />
	<path style="fill:none;stroke:red;stroke-width:1px;stroke-linecap:butt;stroke-linejoin:miter;stroke-opacity:1" d="M 793.267,624.58 802.552,636.961 z" id="boundary" inkscape:connector-curvature="0" />
	<path style="fill:none;stroke:red;stroke-width:1px;stroke-linecap:butt;stroke-linejoin:miter;stroke-opacity:1" d="M 787.076,763.863 787.076,779.339 z" id="boundary" inkscape:connector-curvature="0" />
	<path style="fill:none;stroke:red;stroke-width:1px;stroke-linecap:butt;stroke-linejoin:miter;stroke-opacity:1" d="M 787.076,779.339 787.076,794.814 z" id="boundary" inkscape:connector-curvature="0" />
	<path style="fill:none;stroke:red;stroke-width:1px;stroke-linecap:butt;stroke-linejoin:miter;stroke-opacity:1" d="M 816.48,663.27 814.933,647.794 z" id="boundary" inkscape:connector-curvature="0" />
	<path style="fill:none;stroke:red;stroke-width:1px;stroke-linecap:butt;stroke-linejoin:miter;stroke-opacity:1" d="M 794.814,708.15 794.814,723.626 z" id="boundary" inkscape:connector-curvature="0" />
	<path style="fill:none;stroke:red;stroke-width:1px;stroke-linecap:butt;stroke-linejoin:miter;stroke-opacity:1" d="M 802.552,445.061 810.29,458.989 z" id="boundary" inkscape:connector-curvature="0" />
	<path style="fill:none;stroke:red;stroke-width:1px;stroke-linecap:butt;stroke-linejoin:miter;stroke-opacity:1" d="M 805.647,89.117 821.123,90.6646 z" id="boundary" inkscape:connector-curvature="0" />
	<path style="fill:none;stroke:red;stroke-width:1px;stroke-linecap:butt;stroke-linejoin:miter;stroke-opacity:1" d="M 794.814,723.626 787.076,748.387 z" id="boundary" inkscape:connector-curvature="0" />
	<path style="fill:none;stroke:red;stroke-width:1px;stroke-linecap:butt;stroke-linejoin:miter;stroke-opacity:1" d="M 799.457,327.445 814.933,319.707 z" id="boundary" inkscape:connector-curvature="0" />
	<path style="fill:none;stroke:red;stroke-width:1px;stroke-linecap:butt;stroke-linejoin:miter;stroke-opacity:1" d="M 793.267,62.8081 808.743,58.1654 z" id="boundary" inkscape:connector-curvature="0" />
	<path style="fill:none;stroke:red;stroke-width:1px;stroke-linecap:butt;stroke-linejoin:miter;stroke-opacity:1" d="M 802.552,414.109 802.552,429.585 z" id="boundary" inkscape:connector-curvature="0" />
	<path style="fill:none;stroke:red;stroke-width:1px;stroke-linecap:butt;stroke-linejoin:miter;stroke-opacity:1" d="M 808.743,774.696 808.743,790.172 z" id="boundary" inkscape:connector-curvature="0" />
	<path style="fill:none;stroke:red;stroke-width:1px;stroke-linecap:butt;stroke-linejoin:miter;stroke-opacity:1" d="M 802.552,445.061 802.552,429.585 z" id="boundary" inkscape:connector-curvature="0" />
	<path style="fill:none;stroke:red;stroke-width:1px;stroke-linecap:butt;stroke-linejoin:miter;stroke-opacity:1" d="M 818.028,488.393 818.028,503.869 z" id="boundary" inkscape:connector-curvature="0" />
	<path style="fill:none;stroke:red;stroke-width:1px;stroke-linecap:butt;stroke-linejoin:miter;stroke-opacity:1" d="M 797.91,251.613 810.29,239.232 z" id="boundary" inkscape:connector-curvature="0" />
	<path style="fill:none;stroke:red;stroke-width:1px;stroke-linecap:butt;stroke-linejoin:miter;stroke-opacity:1" d="M 818.028,488.393 818.028,472.917 z" id="boundary" inkscape:connector-curvature="0" />
	<path style="fill:none;stroke:red;stroke-width:1px;stroke-linecap:butt;stroke-linejoin:miter;stroke-opacity:1" d="M 818.028,472.917 810.29,458.989 z" id="boundary" inkscape:connector-curvature="0" />
	<path style="fill:none;stroke:red;stroke-width:1px;stroke-linecap:butt;stroke-linejoin:miter;stroke-opacity:1" d="M 825.766,236.137 810.29,239.232 z" id="boundary" inkscape:connector-curvature="0" />
	<path style="fill:none;stroke:red;stroke-width:1px;stroke-linecap:butt;stroke-linejoin:miter;stroke-opacity:1" d="M 814.933,647.794 802.552,636.961 z" id="boundary" inkscape:connector-curvature="0" />
	<path style="fill:none;stroke:red;stroke-width:1px;stroke-linecap:butt;stroke-linejoin:miter;stroke-opacity:1" d="M 814.933,319.707 830.409,311.969 z" id="boundary" inkscape:connector-curvature="0" />
	<path style="fill:none;stroke:red;stroke-width:1px;stroke-linecap:butt;stroke-linejoin:miter;stroke-opacity:1" d="M 845.885,304.231 861.36,296.493 z" id="boundary" inkscape:connector-curvature="0" />
	<path style="fill:none;stroke:red;stroke-width:1px;stroke-linecap:butt;stroke-linejoin:miter;stroke-opacity:1" d="M 825.766,675.651 816.48,663.27 z" id="boundary" inkscape:connector-curvature="0" />
	<path style="fill:none;stroke:red;stroke-width:1px;stroke-linecap:butt;stroke-linejoin:miter;stroke-opacity:1" d="M 818.028,503.869 818.028,519.345 z" id="boundary" inkscape:connector-curvature="0" />
	<path style="fill:none;stroke:red;stroke-width:1px;stroke-linecap:butt;stroke-linejoin:miter;stroke-opacity:1" d="M 808.743,58.1654 824.218,58.1654 z" id="boundary" inkscape:connector-curvature="0" />
	<path style="fill:none;stroke:red;stroke-width:1px;stroke-linecap:butt;stroke-linejoin:miter;stroke-opacity:1" d="M 828.861,547.201 818.028,534.821 z" id="boundary" inkscape:connector-curvature="0" />
	<path style="fill:none;stroke:red;stroke-width:1px;stroke-linecap:butt;stroke-linejoin:miter;stroke-opacity:1" d="M 825.766,675.651 838.147,686.484 z" id="boundary" inkscape:connector-curvature="0" />
	<path style="fill:none;stroke:red;stroke-width:1px;stroke-linecap:butt;stroke-linejoin:miter;stroke-opacity:1" d="M 821.123,90.6646 836.599,96.8549 z" id="boundary" inkscape:connector-curvature="0" />
	<path style="fill:none;stroke:red;stroke-width:1px;stroke-linecap:butt;stroke-linejoin:miter;stroke-opacity:1" d="M 808.743,774.696 821.123,762.315 z" id="boundary" inkscape:connector-curvature="0" />
	<path style="fill:none;stroke:red;stroke-width:1px;stroke-linecap:butt;stroke-linejoin:miter;stroke-opacity:1" d="M 818.028,519.345 818.028,534.821 z" id="boundary" inkscape:connector-curvature="0" />
	<path style="fill:none;stroke:red;stroke-width:1px;stroke-linecap:butt;stroke-linejoin:miter;stroke-opacity:1" d="M 839.694,58.1654 824.218,58.1654 z" id="boundary" inkscape:connector-curvature="0" />
	<path style="fill:none;stroke:red;stroke-width:1px;stroke-linecap:butt;stroke-linejoin:miter;stroke-opacity:1" d="M 841.242,558.034 828.861,547.201 z" id="boundary" inkscape:connector-curvature="0" />
	<path style="fill:none;stroke:red;stroke-width:1px;stroke-linecap:butt;stroke-linejoin:miter;stroke-opacity:1" d="M 830.409,311.969 845.885,304.231 z" id="boundary" inkscape:connector-curvature="0" />
	<path style="fill:none;stroke:red;stroke-width:1px;stroke-linecap:butt;stroke-linejoin:miter;stroke-opacity:1" d="M 852.075,570.415 841.242,558.034 z" id="boundary" inkscape:connector-curvature="0" />
	<path style="fill:none;stroke:red;stroke-width:1px;stroke-linecap:butt;stroke-linejoin:miter;stroke-opacity:1" d="M 836.599,802.552 821.123,801.005 z" id="boundary" inkscape:connector-curvature="0" />
	<path style="fill:none;stroke:red;stroke-width:1px;stroke-linecap:butt;stroke-linejoin:miter;stroke-opacity:1" d="M 844.337,701.959 838.147,686.484 z" id="boundary" inkscape:connector-curvature="0" />
	<path style="fill:none;stroke:red;stroke-width:1px;stroke-linecap:butt;stroke-linejoin:miter;stroke-opacity:1" d="M 876.836,291.85 892.312,291.85 z" id="boundary" inkscape:connector-curvature="0" />
	<path style="fill:none;stroke:red;stroke-width:1px;stroke-linecap:butt;stroke-linejoin:miter;stroke-opacity:1" d="M 876.836,291.85 861.36,296.493 z" id="boundary" inkscape:connector-curvature="0" />
	<path style="fill:none;stroke:red;stroke-width:1px;stroke-linecap:butt;stroke-linejoin:miter;stroke-opacity:1" d="M 821.123,762.315 835.051,754.577 z" id="boundary" inkscape:connector-curvature="0" />
	<path style="fill:none;stroke:red;stroke-width:1px;stroke-linecap:butt;stroke-linejoin:miter;stroke-opacity:1" d="M 836.599,96.8549 852.075,98.4025 z" id="boundary" inkscape:connector-curvature="0" />
	<path style="fill:none;stroke:red;stroke-width:1px;stroke-linecap:butt;stroke-linejoin:miter;stroke-opacity:1" d="M 903.145,632.318 898.502,616.842 z" id="boundary" inkscape:connector-curvature="0" />
	<path style="fill:none;stroke:red;stroke-width:1px;stroke-linecap:butt;stroke-linejoin:miter;stroke-opacity:1" d="M 898.502,616.842 887.669,604.462 z" id="boundary" inkscape:connector-curvature="0" />
	<path style="fill:none;stroke:red;stroke-width:1px;stroke-linecap:butt;stroke-linejoin:miter;stroke-opacity:1" d="M 852.075,802.552 836.599,802.552 z" id="boundary" inkscape:connector-curvature="0" />
	<path style="fill:none;stroke:red;stroke-width:1px;stroke-linecap:butt;stroke-linejoin:miter;stroke-opacity:1" d="M 825.766,236.137 841.242,231.495 z" id="boundary" inkscape:connector-curvature="0" />
	<path style="fill:none;stroke:red;stroke-width:1px;stroke-linecap:butt;stroke-linejoin:miter;stroke-opacity:1" d="M 839.694,720.53 844.337,701.959 z" id="boundary" inkscape:connector-curvature="0" />
	<path style="fill:none;stroke:red;stroke-width:1px;stroke-linecap:butt;stroke-linejoin:miter;stroke-opacity:1" d="M 839.694,720.53 847.432,734.459 z" id="boundary" inkscape:connector-curvature="0" />
	<path style="fill:none;stroke:red;stroke-width:1px;stroke-linecap:butt;stroke-linejoin:miter;stroke-opacity:1" d="M 864.456,581.248 852.075,570.415 z" id="boundary" inkscape:connector-curvature="0" />
	<path style="fill:none;stroke:red;stroke-width:1px;stroke-linecap:butt;stroke-linejoin:miter;stroke-opacity:1" d="M 847.432,734.459 835.051,754.577 z" id="boundary" inkscape:connector-curvature="0" />
	<path style="fill:none;stroke:red;stroke-width:1px;stroke-linecap:butt;stroke-linejoin:miter;stroke-opacity:1" d="M 855.17,58.1654 839.694,58.1654 z" id="boundary" inkscape:connector-curvature="0" />
	<path style="fill:none;stroke:red;stroke-width:1px;stroke-linecap:butt;stroke-linejoin:miter;stroke-opacity:1" d="M 852.075,98.4025 864.456,109.236 z" id="boundary" inkscape:connector-curvature="0" />
	<path style="fill:none;stroke:red;stroke-width:1px;stroke-linecap:butt;stroke-linejoin:miter;stroke-opacity:1" d="M 841.242,231.495 853.622,220.661 z" id="boundary" inkscape:connector-curvature="0" />
	<path style="fill:none;stroke:red;stroke-width:1px;stroke-linecap:butt;stroke-linejoin:miter;stroke-opacity:1" d="M 875.289,593.629 864.456,581.248 z" id="boundary" inkscape:connector-curvature="0" />
	<path style="fill:none;stroke:red;stroke-width:1px;stroke-linecap:butt;stroke-linejoin:miter;stroke-opacity:1" d="M 887.669,604.462 875.289,593.629 z" id="boundary" inkscape:connector-curvature="0" />
	<path style="fill:none;stroke:red;stroke-width:1px;stroke-linecap:butt;stroke-linejoin:miter;stroke-opacity:1" d="M 855.17,58.1654 870.646,61.2605 z" id="boundary" inkscape:connector-curvature="0" />
	<path style="fill:none;stroke:red;stroke-width:1px;stroke-linecap:butt;stroke-linejoin:miter;stroke-opacity:1" d="M 875.289,121.616 864.456,109.236 z" id="boundary" inkscape:connector-curvature="0" />
	<path style="fill:none;stroke:red;stroke-width:1px;stroke-linecap:butt;stroke-linejoin:miter;stroke-opacity:1" d="M 867.551,802.552 852.075,802.552 z" id="boundary" inkscape:connector-curvature="0" />
	<path style="fill:none;stroke:red;stroke-width:1px;stroke-linecap:butt;stroke-linejoin:miter;stroke-opacity:1" d="M 853.622,220.661 864.456,208.281 z" id="boundary" inkscape:connector-curvature="0" />
	<path style="fill:none;stroke:red;stroke-width:1px;stroke-linecap:butt;stroke-linejoin:miter;stroke-opacity:1" d="M 864.456,208.281 879.931,205.186 z" id="boundary" inkscape:connector-curvature="0" />
	<path style="fill:none;stroke:red;stroke-width:1px;stroke-linecap:butt;stroke-linejoin:miter;stroke-opacity:1" d="M 903.145,647.794 903.145,632.318 z" id="boundary" inkscape:connector-curvature="0" />
	<path style="fill:none;stroke:red;stroke-width:1px;stroke-linecap:butt;stroke-linejoin:miter;stroke-opacity:1" d="M 883.027,802.552 867.551,802.552 z" id="boundary" inkscape:connector-curvature="0" />
	<path style="fill:none;stroke:red;stroke-width:1px;stroke-linecap:butt;stroke-linejoin:miter;stroke-opacity:1" d="M 870.646,61.2605 886.122,65.9033 z" id="boundary" inkscape:connector-curvature="0" />
	<path style="fill:none;stroke:red;stroke-width:1px;stroke-linecap:butt;stroke-linejoin:miter;stroke-opacity:1" d="M 879.931,205.186 893.86,194.353 z" id="boundary" inkscape:connector-curvature="0" />
	<path style="fill:none;stroke:red;stroke-width:1px;stroke-linecap:butt;stroke-linejoin:miter;stroke-opacity:1" d="M 886.122,65.9033 901.598,68.9984 z" id="boundary" inkscape:connector-curvature="0" />
	<path style="fill:none;stroke:red;stroke-width:1px;stroke-linecap:butt;stroke-linejoin:miter;stroke-opacity:1" d="M 875.289,121.616 890.764,127.807 z" id="boundary" inkscape:connector-curvature="0" />
	<path style="fill:none;stroke:red;stroke-width:1px;stroke-linecap:butt;stroke-linejoin:miter;stroke-opacity:1" d="M 890.764,127.807 901.598,140.187 z" id="boundary" inkscape:connector-curvature="0" />
	<path style="fill:none;stroke:red;stroke-width:1px;stroke-linecap:butt;stroke-linejoin:miter;stroke-opacity:1" d="M 898.502,801.005 883.027,802.552 z" id="boundary" inkscape:connector-curvature="0" />
	<path style="fill:none;stroke:red;stroke-width:1px;stroke-linecap:butt;stroke-linejoin:miter;stroke-opacity:1" d="M 903.145,663.27 903.145,647.794 z" id="boundary" inkscape:connector-curvature="0" />
	<path style="fill:none;stroke:red;stroke-width:1px;stroke-linecap:butt;stroke-linejoin:miter;stroke-opacity:1" d="M 892.312,291.85 906.24,284.112 z" id="boundary" inkscape:connector-curvature="0" />
	<path style="fill:none;stroke:red;stroke-width:1px;stroke-linecap:butt;stroke-linejoin:miter;stroke-opacity:1" d="M 906.24,284.112 920.168,276.374 z" id="boundary" inkscape:connector-curvature="0" />
	<path style="fill:none;stroke:red;stroke-width:1px;stroke-linecap:butt;stroke-linejoin:miter;stroke-opacity:1" d="M 915.526,76.7363 901.598,68.9984 z" id="boundary" inkscape:connector-curvature="0" />
	<path style="fill:none;stroke:red;stroke-width:1px;stroke-linecap:butt;stroke-linejoin:miter;stroke-opacity:1" d="M 893.86,194.353 906.24,181.972 z" id="boundary" inkscape:connector-curvature="0" />
	<path style="fill:none;stroke:red;stroke-width:1px;stroke-linecap:butt;stroke-linejoin:miter;stroke-opacity:1" d="M 909.335,154.115 901.598,140.187 z" id="boundary" inkscape:connector-curvature="0" />
	<path style="fill:none;stroke:red;stroke-width:1px;stroke-linecap:butt;stroke-linejoin:miter;stroke-opacity:1" d="M 915.526,76.7363 931.002,82.9267 z" id="boundary" inkscape:connector-curvature="0" />
	<path style="fill:none;stroke:red;stroke-width:1px;stroke-linecap:butt;stroke-linejoin:miter;stroke-opacity:1" d="M 903.145,663.27 910.883,677.198 z" id="boundary" inkscape:connector-curvature="0" />
	<path style="fill:none;stroke:red;stroke-width:1px;stroke-linecap:butt;stroke-linejoin:miter;stroke-opacity:1" d="M 918.621,706.602 918.621,691.126 z" id="boundary" inkscape:connector-curvature="0" />
	<path style="fill:none;stroke:red;stroke-width:1px;stroke-linecap:butt;stroke-linejoin:miter;stroke-opacity:1" d="M 918.621,691.126 910.883,677.198 z" id="boundary" inkscape:connector-curvature="0" />
	<path style="fill:none;stroke:red;stroke-width:1px;stroke-linecap:butt;stroke-linejoin:miter;stroke-opacity:1" d="M 941.835,253.161 955.763,245.423 z" id="boundary" inkscape:connector-curvature="0" />
	<path style="fill:none;stroke:red;stroke-width:1px;stroke-linecap:butt;stroke-linejoin:miter;stroke-opacity:1" d="M 909.335,154.115 917.073,168.044 z" id="boundary" inkscape:connector-curvature="0" />
	<path style="fill:none;stroke:red;stroke-width:1px;stroke-linecap:butt;stroke-linejoin:miter;stroke-opacity:1" d="M 917.073,168.044 906.24,181.972 z" id="boundary" inkscape:connector-curvature="0" />
	<path style="fill:none;stroke:red;stroke-width:1px;stroke-linecap:butt;stroke-linejoin:miter;stroke-opacity:1" d="M 941.835,95.3073 931.002,82.9267 z" id="boundary" inkscape:connector-curvature="0" />
	<path style="fill:none;stroke:red;stroke-width:1px;stroke-linecap:butt;stroke-linejoin:miter;stroke-opacity:1" d="M 910.883,771.601 910.883,787.076 z" id="boundary" inkscape:connector-curvature="0" />
	<path style="fill:none;stroke:red;stroke-width:1px;stroke-linecap:butt;stroke-linejoin:miter;stroke-opacity:1" d="M 910.883,787.076 898.502,801.005 z" id="boundary" inkscape:connector-curvature="0" />
	<path style="fill:none;stroke:red;stroke-width:1px;stroke-linecap:butt;stroke-linejoin:miter;stroke-opacity:1" d="M 918.621,722.078 918.621,706.602 z" id="boundary" inkscape:connector-curvature="0" />
	<path style="fill:none;stroke:red;stroke-width:1px;stroke-linecap:butt;stroke-linejoin:miter;stroke-opacity:1" d="M 926.359,260.899 920.168,276.374 z" id="boundary" inkscape:connector-curvature="0" />
	<path style="fill:none;stroke:red;stroke-width:1px;stroke-linecap:butt;stroke-linejoin:miter;stroke-opacity:1" d="M 918.621,737.554 918.621,722.078 z" id="boundary" inkscape:connector-curvature="0" />
	<path style="fill:none;stroke:red;stroke-width:1px;stroke-linecap:butt;stroke-linejoin:miter;stroke-opacity:1" d="M 918.621,737.554 918.621,753.03 z" id="boundary" inkscape:connector-curvature="0" />
	<path style="fill:none;stroke:red;stroke-width:1px;stroke-linecap:butt;stroke-linejoin:miter;stroke-opacity:1" d="M 941.835,253.161 926.359,260.899 z" id="boundary" inkscape:connector-curvature="0" />
	<path style="fill:none;stroke:red;stroke-width:1px;stroke-linecap:butt;stroke-linejoin:miter;stroke-opacity:1" d="M 910.883,771.601 918.621,753.03 z" id="boundary" inkscape:connector-curvature="0" />
	<path style="fill:none;stroke:red;stroke-width:1px;stroke-linecap:butt;stroke-linejoin:miter;stroke-opacity:1" d="M 955.763,245.423 968.144,236.137 z" id="boundary" inkscape:connector-curvature="0" />
	<path style="fill:none;stroke:red;stroke-width:1px;stroke-linecap:butt;stroke-linejoin:miter;stroke-opacity:1" d="M 980.524,222.209 992.905,211.376 z" id="boundary" inkscape:connector-curvature="0" />
	<path style="fill:none;stroke:red;stroke-width:1px;stroke-linecap:butt;stroke-linejoin:miter;stroke-opacity:1" d="M 980.524,222.209 968.144,236.137 z" id="boundary" inkscape:connector-curvature="0" />
	<path style="fill:none;stroke:red;stroke-width:1px;stroke-linecap:butt;stroke-linejoin:miter;stroke-opacity:1" d="M 965.048,110.783 957.31,96.8549 z" id="boundary" inkscape:connector-curvature="0" />
	<path style="fill:none;stroke:red;stroke-width:1px;stroke-linecap:butt;stroke-linejoin:miter;stroke-opacity:1" d="M 957.31,96.8549 941.835,95.3073 z" id="boundary" inkscape:connector-curvature="0" />
	<path style="fill:none;stroke:red;stroke-width:1px;stroke-linecap:butt;stroke-linejoin:miter;stroke-opacity:1" d="M 972.786,124.711 965.048,110.783 z" id="boundary" inkscape:connector-curvature="0" />
	<path style="fill:none;stroke:red;stroke-width:1px;stroke-linecap:butt;stroke-linejoin:miter;stroke-opacity:1" d="M 972.786,124.711 980.524,138.64 z" id="boundary" inkscape:connector-curvature="0" />
	<path style="fill:none;stroke:red;stroke-width:1px;stroke-linecap:butt;stroke-linejoin:miter;stroke-opacity:1" d="M 980.524,138.64 988.262,152.568 z" id="boundary" inkscape:connector-curvature="0" />
	<path style="fill:none;stroke:red;stroke-width:1px;stroke-linecap:butt;stroke-linejoin:miter;stroke-opacity:1" d="M 988.262,152.568 996,166.496 z" id="boundary" inkscape:connector-curvature="0" />
	<path style="fill:none;stroke:red;stroke-width:1px;stroke-linecap:butt;stroke-linejoin:miter;stroke-opacity:1" d="M 996,166.496 996,181.972 z" id="boundary" inkscape:connector-curvature="0" />
	<path style="fill:none;stroke:red;stroke-width:1px;stroke-linecap:butt;stroke-linejoin:miter;stroke-opacity:1" d="M 996,181.972 992.905,211.376 z" id="boundary" inkscape:connector-curvature="0" />
	<circle cx="4" cy="116.973" r="4" fill="#0" id="circle0"/>
	<circle cx="4" cy="132.449" r="4" fill="#0" id="circle1"/>
	<circle cx="4" cy="147.925" r="4" fill="#0" id="circle2"/>
	<circle cx="4" cy="163.401" r="4" fill="#0" id="circle3"/>
	<circle cx="4" cy="178.877" r="4" fill="#0" id="circle4"/>
	<circle cx="16.3807" cy="104.593" r="4" fill="#0" id="circle5"/>
	<circle cx="16.3807" cy="189.71" r="4" fill="#0" id="circle6"/>
	<circle cx="28.7613" cy="198.995" r="4" fill="#0" id="circle7"/>
	<circle cx="30.3089" cy="96.8549" r="4" fill="#0" id="circle8"/>
	<circle cx="42.6895" cy="206.733" r="4" fill="#0" id="circle9"/>
	<circle cx="45.7847" cy="90.6646" r="4" fill="#0" id="circle10"/>
	<circle cx="58.1654" cy="206.733" r="4" fill="#0" id="circle11"/>
	<circle cx="61.2605" cy="82.9267" r="4" fill="#0" id="circle12"/>
	<circle cx="73.6412" cy="206.733" r="4" fill="#0" id="circle13"/>
	<circle cx="73.6412" cy="774.696" r="4" fill="#0" id="circle14"/>
	<circle cx="73.6412" cy="790.172" r="4" fill="#0" id="circle15"/>
	<circle cx="76.7363" cy="81.3791" r="4" fill="#0" id="circle16"/>
	<circle cx="82.9267" cy="219.114" r="4" fill="#0" id="circle17"/>
	<circle cx="86.0218" cy="762.315" r="4" fill="#0" id="circle18"/>
	<circle cx="86.0218" cy="801.005" r="4" fill="#0" id="circle19"/>
	<circle cx="89.117" cy="302.683" r="4" fill="#0" id="circle20"/>
	<circle cx="89.117" cy="318.159" r="4" fill="#0" id="circle21"/>
	<circle cx="89.117" cy="333.635" r="4" fill="#0" id="circle22"/>
	<circle cx="89.117" cy="349.111" r="4" fill="#0" id="circle23"/>
	<circle cx="89.117" cy="364.587" r="4" fill="#0" id="circle24"/>
	<circle cx="89.117" cy="380.062" r="4" fill="#0" id="circle25"/>
	<circle cx="89.117" cy="395.538" r="4" fill="#0" id="circle26"/>
	<circle cx="89.117" cy="411.014" r="4" fill="#0" id="circle27"/>
	<circle cx="89.117" cy="426.49" r="4" fill="#0" id="circle28"/>
	<circle cx="89.117" cy="441.966" r="4" fill="#0" id="circle29"/>
	<circle cx="90.6646" cy="73.6412" r="4" fill="#0" id="circle30"/>
	<circle cx="96.8549" cy="226.852" r="4" fill="#0" id="circle31"/>
	<circle cx="96.8549" cy="242.328" r="4" fill="#0" id="circle32"/>
	<circle cx="96.8549" cy="287.207" r="4" fill="#0" id="circle33"/>
	<circle cx="98.4025" cy="454.346" r="4" fill="#0" id="circle34"/>
	<circle cx="98.4025" cy="810.29" r="4" fill="#0" id="circle35"/>
	<circle cx="99.9501" cy="754.577" r="4" fill="#0" id="circle36"/>
	<circle cx="104.593" cy="256.256" r="4" fill="#0" id="circle37"/>
	<circle cx="104.593" cy="271.732" r="4" fill="#0" id="circle38"/>
	<circle cx="104.593" cy="469.822" r="4" fill="#0" id="circle39"/>
	<circle cx="106.14" cy="73.6412" r="4" fill="#0" id="circle40"/>
	<circle cx="113.878" cy="482.203" r="4" fill="#0" id="circle41"/>
	<circle cx="113.878" cy="810.29" r="4" fill="#0" id="circle42"/>
	<circle cx="115.426" cy="754.577" r="4" fill="#0" id="circle43"/>
	<circle cx="120.069" cy="55.0702" r="4" fill="#0" id="circle44"/>
	<circle cx="121.616" cy="496.131" r="4" fill="#0" id="circle45"/>
	<circle cx="123.164" cy="740.649" r="4" fill="#0" id="circle46"/>
	<circle cx="129.354" cy="810.29" r="4" fill="#0" id="circle47"/>
	<circle cx="132.449" cy="42.6895" r="4" fill="#0" id="circle48"/>
	<circle cx="132.449" cy="508.512" r="4" fill="#0" id="circle49"/>
	<circle cx="135.544" cy="720.53" r="4" fill="#0" id="circle50"/>
	<circle cx="140.187" cy="27.2137" r="4" fill="#0" id="circle51"/>
	<circle cx="143.282" cy="705.055" r="4" fill="#0" id="circle52"/>
	<circle cx="144.83" cy="519.345" r="4" fill="#0" id="circle53"/>
	<circle cx="144.83" cy="810.29" r="4" fill="#0" id="circle54"/>
	<circle cx="151.02" cy="534.821" r="4" fill="#0" id="circle55"/>
	<circle cx="151.02" cy="674.103" r="4" fill="#0" id="circle56"/>
	<circle cx="151.02" cy="689.579" r="4" fill="#0" id="circle57"/>
	<circle cx="152.568" cy="14.8331" r="4" fill="#0" id="circle58"/>
	<circle cx="157.211" cy="799.457" r="4" fill="#0" id="circle59"/>
	<circle cx="158.758" cy="650.889" r="4" fill="#0" id="circle60"/>
	<circle cx="163.401" cy="545.654" r="4" fill="#0" id="circle61"/>
	<circle cx="166.496" cy="22.571" r="4" fill="#0" id="circle62"/>
	<circle cx="166.496" cy="627.676" r="4" fill="#0" id="circle63"/>
	<circle cx="172.686" cy="38.0468" r="4" fill="#0" id="circle64"/>
	<circle cx="172.686" cy="791.719" r="4" fill="#0" id="circle65"/>
	<circle cx="174.234" cy="558.034" r="4" fill="#0" id="circle66"/>
	<circle cx="174.234" cy="573.51" r="4" fill="#0" id="circle67"/>
	<circle cx="174.234" cy="588.986" r="4" fill="#0" id="circle68"/>
	<circle cx="174.234" cy="604.462" r="4" fill="#0" id="circle69"/>
	<circle cx="175.782" cy="771.601" r="4" fill="#0" id="circle70"/>
	<circle cx="188.162" cy="42.6895" r="4" fill="#0" id="circle71"/>
	<circle cx="189.71" cy="763.863" r="4" fill="#0" id="circle72"/>
	<circle cx="197.448" cy="24.1186" r="4" fill="#0" id="circle73"/>
	<circle cx="197.448" cy="805.647" r="4" fill="#0" id="circle74"/>
	<circle cx="198.995" cy="748.387" r="4" fill="#0" id="circle75"/>
	<circle cx="205.186" cy="819.576" r="4" fill="#0" id="circle76"/>
	<circle cx="206.733" cy="732.911" r="4" fill="#0" id="circle77"/>
	<circle cx="209.828" cy="11.7379" r="4" fill="#0" id="circle78"/>
	<circle cx="209.828" cy="793.267" r="4" fill="#0" id="circle79"/>
	<circle cx="214.471" cy="717.435" r="4" fill="#0" id="circle80"/>
	<circle cx="216.019" cy="831.956" r="4" fill="#0" id="circle81"/>
	<circle cx="222.209" cy="780.886" r="4" fill="#0" id="circle82"/>
	<circle cx="225.304" cy="4" r="4" fill="#0" id="circle83"/>
	<circle cx="228.399" cy="709.697" r="4" fill="#0" id="circle84"/>
	<circle cx="231.495" cy="833.504" r="4" fill="#0" id="circle85"/>
	<circle cx="236.137" cy="766.958" r="4" fill="#0" id="circle86"/>
	<circle cx="240.78" cy="4" r="4" fill="#0" id="circle87"/>
	<circle cx="242.328" cy="717.435" r="4" fill="#0" id="circle88"/>
	<circle cx="243.875" cy="732.911" r="4" fill="#0" id="circle89"/>
	<circle cx="243.875" cy="748.387" r="4" fill="#0" id="circle90"/>
	<circle cx="245.423" cy="19.4758" r="4" fill="#0" id="circle91"/>
	<circle cx="245.423" cy="34.9516" r="4" fill="#0" id="circle92"/>
	<circle cx="245.423" cy="50.4275" r="4" fill="#0" id="circle93"/>
	<circle cx="246.97" cy="833.504" r="4" fill="#0" id="circle94"/>
	<circle cx="253.161" cy="64.3557" r="4" fill="#0" id="circle95"/>
	<circle cx="253.161" cy="79.8315" r="4" fill="#0" id="circle96"/>
	<circle cx="260.899" cy="93.7598" r="4" fill="#0" id="circle97"/>
	<circle cx="262.446" cy="833.504" r="4" fill="#0" id="circle98"/>
	<circle cx="268.637" cy="107.688" r="4" fill="#0" id="circle99"/>
	<circle cx="276.374" cy="121.616" r="4" fill="#0" id="circle100"/>
	<circle cx="276.374" cy="137.092" r="4" fill="#0" id="circle101"/>
	<circle cx="276.374" cy="152.568" r="4" fill="#0" id="circle102"/>
	<circle cx="276.374" cy="168.044" r="4" fill="#0" id="circle103"/>
	<circle cx="276.374" cy="183.52" r="4" fill="#0" id="circle104"/>
	<circle cx="276.374" cy="198.995" r="4" fill="#0" id="circle105"/>
	<circle cx="276.374" cy="214.471" r="4" fill="#0" id="circle106"/>
	<circle cx="276.374" cy="229.947" r="4" fill="#0" id="circle107"/>
	<circle cx="277.922" cy="833.504" r="4" fill="#0" id="circle108"/>
	<circle cx="279.47" cy="245.423" r="4" fill="#0" id="circle109"/>
	<circle cx="291.85" cy="825.766" r="4" fill="#0" id="circle110"/>
	<circle cx="294.945" cy="251.613" r="4" fill="#0" id="circle111"/>
	<circle cx="299.588" cy="802.552" r="4" fill="#0" id="circle112"/>
	<circle cx="307.326" cy="779.339" r="4" fill="#0" id="circle113"/>
	<circle cx="308.874" cy="259.351" r="4" fill="#0" id="circle114"/>
	<circle cx="315.064" cy="632.318" r="4" fill="#0" id="circle115"/>
	<circle cx="315.064" cy="647.794" r="4" fill="#0" id="circle116"/>
	<circle cx="315.064" cy="663.27" r="4" fill="#0" id="circle117"/>
	<circle cx="315.064" cy="678.746" r="4" fill="#0" id="circle118"/>
	<circle cx="315.064" cy="694.222" r="4" fill="#0" id="circle119"/>
	<circle cx="315.064" cy="709.697" r="4" fill="#0" id="circle120"/>
	<circle cx="315.064" cy="725.173" r="4" fill="#0" id="circle121"/>
	<circle cx="315.064" cy="740.649" r="4" fill="#0" id="circle122"/>
	<circle cx="315.064" cy="756.125" r="4" fill="#0" id="circle123"/>
	<circle cx="322.802" cy="251.613" r="4" fill="#0" id="circle124"/>
	<circle cx="322.802" cy="616.842" r="4" fill="#0" id="circle125"/>
	<circle cx="330.54" cy="601.367" r="4" fill="#0" id="circle126"/>
	<circle cx="338.278" cy="246.97" r="4" fill="#0" id="circle127"/>
	<circle cx="338.278" cy="585.891" r="4" fill="#0" id="circle128"/>
	<circle cx="353.754" cy="243.875" r="4" fill="#0" id="circle129"/>
	<circle cx="353.754" cy="578.153" r="4" fill="#0" id="circle130"/>
	<circle cx="369.229" cy="243.875" r="4" fill="#0" id="circle131"/>
	<circle cx="369.229" cy="578.153" r="4" fill="#0" id="circle132"/>
	<circle cx="383.158" cy="236.137" r="4" fill="#0" id="circle133"/>
	<circle cx="384.705" cy="578.153" r="4" fill="#0" id="circle134"/>
	<circle cx="398.633" cy="236.137" r="4" fill="#0" id="circle135"/>
	<circle cx="400.181" cy="578.153" r="4" fill="#0" id="circle136"/>
	<circle cx="414.109" cy="236.137" r="4" fill="#0" id="circle137"/>
	<circle cx="415.657" cy="578.153" r="4" fill="#0" id="circle138"/>
	<circle cx="429.585" cy="236.137" r="4" fill="#0" id="circle139"/>
	<circle cx="431.133" cy="578.153" r="4" fill="#0" id="circle140"/>
	<circle cx="443.513" cy="228.399" r="4" fill="#0" id="circle141"/>
	<circle cx="446.608" cy="578.153" r="4" fill="#0" id="circle142"/>
	<circle cx="457.441" cy="220.661" r="4" fill="#0" id="circle143"/>
	<circle cx="462.084" cy="578.153" r="4" fill="#0" id="circle144"/>
	<circle cx="472.917" cy="220.661" r="4" fill="#0" id="circle145"/>
	<circle cx="477.56" cy="570.415" r="4" fill="#0" id="circle146"/>
	<circle cx="488.393" cy="212.924" r="4" fill="#0" id="circle147"/>
	<circle cx="493.036" cy="570.415" r="4" fill="#0" id="circle148"/>
	<circle cx="503.869" cy="212.924" r="4" fill="#0" id="circle149"/>
	<circle cx="506.964" cy="562.677" r="4" fill="#0" id="circle150"/>
	<circle cx="517.797" cy="205.186" r="4" fill="#0" id="circle151"/>
	<circle cx="520.892" cy="570.415" r="4" fill="#0" id="circle152"/>
	<circle cx="533.273" cy="205.186" r="4" fill="#0" id="circle153"/>
	<circle cx="536.368" cy="567.32" r="4" fill="#0" id="circle154"/>
	<circle cx="548.749" cy="205.186" r="4" fill="#0" id="circle155"/>
	<circle cx="551.844" cy="562.677" r="4" fill="#0" id="circle156"/>
	<circle cx="564.225" cy="205.186" r="4" fill="#0" id="circle157"/>
	<circle cx="565.772" cy="554.939" r="4" fill="#0" id="circle158"/>
	<circle cx="579.7" cy="205.186" r="4" fill="#0" id="circle159"/>
	<circle cx="579.7" cy="547.201" r="4" fill="#0" id="circle160"/>
	<circle cx="593.629" cy="539.463" r="4" fill="#0" id="circle161"/>
	<circle cx="595.176" cy="205.186" r="4" fill="#0" id="circle162"/>
	<circle cx="607.557" cy="547.201" r="4" fill="#0" id="circle163"/>
	<circle cx="607.557" cy="562.677" r="4" fill="#0" id="circle164"/>
	<circle cx="609.105" cy="212.924" r="4" fill="#0" id="circle165"/>
	<circle cx="616.842" cy="575.058" r="4" fill="#0" id="circle166"/>
	<circle cx="624.58" cy="212.924" r="4" fill="#0" id="circle167"/>
	<circle cx="629.223" cy="585.891" r="4" fill="#0" id="circle168"/>
	<circle cx="630.771" cy="601.367" r="4" fill="#0" id="circle169"/>
	<circle cx="630.771" cy="836.599" r="4" fill="#0" id="circle170"/>
	<circle cx="638.509" cy="850.527" r="4" fill="#0" id="circle171"/>
	<circle cx="640.056" cy="212.924" r="4" fill="#0" id="circle172"/>
	<circle cx="640.056" cy="613.747" r="4" fill="#0" id="circle173"/>
	<circle cx="643.151" cy="824.218" r="4" fill="#0" id="circle174"/>
	<circle cx="652.437" cy="624.58" r="4" fill="#0" id="circle175"/>
	<circle cx="653.984" cy="220.661" r="4" fill="#0" id="circle176"/>
	<circle cx="653.984" cy="856.718" r="4" fill="#0" id="circle177"/>
	<circle cx="655.532" cy="811.838" r="4" fill="#0" id="circle178"/>
	<circle cx="663.27" cy="636.961" r="4" fill="#0" id="circle179"/>
	<circle cx="667.913" cy="228.399" r="4" fill="#0" id="circle180"/>
	<circle cx="667.913" cy="864.456" r="4" fill="#0" id="circle181"/>
	<circle cx="671.008" cy="804.1" r="4" fill="#0" id="circle182"/>
	<circle cx="675.651" cy="647.794" r="4" fill="#0" id="circle183"/>
	<circle cx="683.388" cy="228.399" r="4" fill="#0" id="circle184"/>
	<circle cx="683.388" cy="864.456" r="4" fill="#0" id="circle185"/>
	<circle cx="686.484" cy="660.175" r="4" fill="#0" id="circle186"/>
	<circle cx="686.484" cy="801.005" r="4" fill="#0" id="circle187"/>
	<circle cx="698.864" cy="229.947" r="4" fill="#0" id="circle188"/>
	<circle cx="698.864" cy="671.008" r="4" fill="#0" id="circle189"/>
	<circle cx="698.864" cy="864.456" r="4" fill="#0" id="circle190"/>
	<circle cx="700.412" cy="782.434" r="4" fill="#0" id="circle191"/>
	<circle cx="708.15" cy="705.055" r="4" fill="#0" id="circle192"/>
	<circle cx="708.15" cy="720.53" r="4" fill="#0" id="circle193"/>
	<circle cx="708.15" cy="736.006" r="4" fill="#0" id="circle194"/>
	<circle cx="708.15" cy="766.958" r="4" fill="#0" id="circle195"/>
	<circle cx="709.697" cy="683.388" r="4" fill="#0" id="circle196"/>
	<circle cx="714.34" cy="236.137" r="4" fill="#0" id="circle197"/>
	<circle cx="714.34" cy="864.456" r="4" fill="#0" id="circle198"/>
	<circle cx="715.888" cy="749.934" r="4" fill="#0" id="circle199"/>
	<circle cx="729.816" cy="237.685" r="4" fill="#0" id="circle200"/>
	<circle cx="729.816" cy="864.456" r="4" fill="#0" id="circle201"/>
	<circle cx="740.649" cy="250.066" r="4" fill="#0" id="circle202"/>
	<circle cx="745.292" cy="864.456" r="4" fill="#0" id="circle203"/>
	<circle cx="753.03" cy="259.351" r="4" fill="#0" id="circle204"/>
	<circle cx="760.768" cy="861.36" r="4" fill="#0" id="circle205"/>
	<circle cx="763.863" cy="825.766" r="4" fill="#0" id="circle206"/>
	<circle cx="763.863" cy="841.242" r="4" fill="#0" id="circle207"/>
	<circle cx="768.505" cy="259.351" r="4" fill="#0" id="circle208"/>
	<circle cx="779.339" cy="632.318" r="4" fill="#0" id="circle209"/>
	<circle cx="779.339" cy="818.028" r="4" fill="#0" id="circle210"/>
	<circle cx="782.434" cy="647.794" r="4" fill="#0" id="circle211"/>
	<circle cx="783.981" cy="259.351" r="4" fill="#0" id="circle212"/>
	<circle cx="787.076" cy="338.278" r="4" fill="#0" id="circle213"/>
	<circle cx="787.076" cy="353.754" r="4" fill="#0" id="circle214"/>
	<circle cx="787.076" cy="663.27" r="4" fill="#0" id="circle215"/>
	<circle cx="787.076" cy="678.746" r="4" fill="#0" id="circle216"/>
	<circle cx="787.076" cy="748.387" r="4" fill="#0" id="circle217"/>
	<circle cx="787.076" cy="763.863" r="4" fill="#0" id="circle218"/>
	<circle cx="787.076" cy="779.339" r="4" fill="#0" id="circle219"/>
	<circle cx="787.076" cy="794.814" r="4" fill="#0" id="circle220"/>
	<circle cx="790.172" cy="369.229" r="4" fill="#0" id="circle221"/>
	<circle cx="793.267" cy="62.8081" r="4" fill="#0" id="circle222"/>
	<circle cx="793.267" cy="78.2839" r="4" fill="#0" id="circle223"/>
	<circle cx="793.267" cy="624.58" r="4" fill="#0" id="circle224"/>
	<circle cx="794.814" cy="692.674" r="4" fill="#0" id="circle225"/>
	<circle cx="794.814" cy="708.15" r="4" fill="#0" id="circle226"/>
	<circle cx="794.814" cy="723.626" r="4" fill="#0" id="circle227"/>
	<circle cx="797.91" cy="251.613" r="4" fill="#0" id="circle228"/>
	<circle cx="797.91" cy="383.158" r="4" fill="#0" id="circle229"/>
	<circle cx="799.457" cy="327.445" r="4" fill="#0" id="circle230"/>
	<circle cx="802.552" cy="398.633" r="4" fill="#0" id="circle231"/>
	<circle cx="802.552" cy="414.109" r="4" fill="#0" id="circle232"/>
	<circle cx="802.552" cy="429.585" r="4" fill="#0" id="circle233"/>
	<circle cx="802.552" cy="445.061" r="4" fill="#0" id="circle234"/>
	<circle cx="802.552" cy="636.961" r="4" fill="#0" id="circle235"/>
	<circle cx="805.647" cy="89.117" r="4" fill="#0" id="circle236"/>
	<circle cx="808.743" cy="58.1654" r="4" fill="#0" id="circle237"/>
	<circle cx="808.743" cy="774.696" r="4" fill="#0" id="circle238"/>
	<circle cx="808.743" cy="790.172" r="4" fill="#0" id="circle239"/>
	<circle cx="810.29" cy="239.232" r="4" fill="#0" id="circle240"/>
	<circle cx="810.29" cy="458.989" r="4" fill="#0" id="circle241"/>
	<circle cx="814.933" cy="319.707" r="4" fill="#0" id="circle242"/>
	<circle cx="814.933" cy="647.794" r="4" fill="#0" id="circle243"/>
	<circle cx="816.48" cy="663.27" r="4" fill="#0" id="circle244"/>
	<circle cx="818.028" cy="472.917" r="4" fill="#0" id="circle245"/>
	<circle cx="818.028" cy="488.393" r="4" fill="#0" id="circle246"/>
	<circle cx="818.028" cy="503.869" r="4" fill="#0" id="circle247"/>
	<circle cx="818.028" cy="519.345" r="4" fill="#0" id="circle248"/>
	<circle cx="818.028" cy="534.821" r="4" fill="#0" id="circle249"/>
	<circle cx="821.123" cy="90.6646" r="4" fill="#0" id="circle250"/>
	<circle cx="821.123" cy="762.315" r="4" fill="#0" id="circle251"/>
	<circle cx="821.123" cy="801.005" r="4" fill="#0" id="circle252"/>
	<circle cx="824.218" cy="58.1654" r="4" fill="#0" id="circle253"/>
	<circle cx="825.766" cy="236.137" r="4" fill="#0" id="circle254"/>
	<circle cx="825.766" cy="675.651" r="4" fill="#0" id="circle255"/>
	<circle cx="828.861" cy="547.201" r="4" fill="#0" id="circle256"/>
	<circle cx="830.409" cy="311.969" r="4" fill="#0" id="circle257"/>
	<circle cx="835.051" cy="754.577" r="4" fill="#0" id="circle258"/>
	<circle cx="836.599" cy="96.8549" r="4" fill="#0" id="circle259"/>
	<circle cx="836.599" cy="802.552" r="4" fill="#0" id="circle260"/>
	<circle cx="838.147" cy="686.484" r="4" fill="#0" id="circle261"/>
	<circle cx="839.694" cy="58.1654" r="4" fill="#0" id="circle262"/>
	<circle cx="839.694" cy="720.53" r="4" fill="#0" id="circle263"/>
	<circle cx="841.242" cy="231.495" r="4" fill="#0" id="circle264"/>
	<circle cx="841.242" cy="558.034" r="4" fill="#0" id="circle265"/>
	<circle cx="844.337" cy="701.959" r="4" fill="#0" id="circle266"/>
	<circle cx="845.885" cy="304.231" r="4" fill="#0" id="circle267"/>
	<circle cx="847.432" cy="734.459" r="4" fill="#0" id="circle268"/>
	<circle cx="852.075" cy="98.4025" r="4" fill="#0" id="circle269"/>
	<circle cx="852.075" cy="570.415" r="4" fill="#0" id="circle270"/>
	<circle cx="852.075" cy="802.552" r="4" fill="#0" id="circle271"/>
	<circle cx="853.622" cy="220.661" r="4" fill="#0" id="circle272"/>
	<circle cx="855.17" cy="58.1654" r="4" fill="#0" id="circle273"/>
	<circle cx="861.36" cy="296.493" r="4" fill="#0" id="circle274"/>
	<circle cx="864.456" cy="109.236" r="4" fill="#0" id="circle275"/>
	<circle cx="864.456" cy="208.281" r="4" fill="#0" id="circle276"/>
	<circle cx="864.456" cy="581.248" r="4" fill="#0" id="circle277"/>
	<circle cx="867.551" cy="802.552" r="4" fill="#0" id="circle278"/>
	<circle cx="870.646" cy="61.2605" r="4" fill="#0" id="circle279"/>
	<circle cx="875.289" cy="121.616" r="4" fill="#0" id="circle280"/>
	<circle cx="875.289" cy="593.629" r="4" fill="#0" id="circle281"/>
	<circle cx="876.836" cy="291.85" r="4" fill="#0" id="circle282"/>
	<circle cx="879.931" cy="205.186" r="4" fill="#0" id="circle283"/>
	<circle cx="883.027" cy="802.552" r="4" fill="#0" id="circle284"/>
	<circle cx="886.122" cy="65.9033" r="4" fill="#0" id="circle285"/>
	<circle cx="887.669" cy="604.462" r="4" fill="#0" id="circle286"/>
	<circle cx="890.764" cy="127.807" r="4" fill="#0" id="circle287"/>
	<circle cx="892.312" cy="291.85" r="4" fill="#0" id="circle288"/>
	<circle cx="893.86" cy="194.353" r="4" fill="#0" id="circle289"/>
	<circle cx="898.502" cy="616.842" r="4" fill="#0" id="circle290"/>
	<circle cx="898.502" cy="801.005" r="4" fill="#0" id="circle291"/>
	<circle cx="901.598" cy="68.9984" r="4" fill="#0" id="circle292"/>
	<circle cx="901.598" cy="140.187" r="4" fill="#0" id="circle293"/>
	<circle cx="903.145" cy="632.318" r="4" fill="#0" id="circle294"/>
	<circle cx="903.145" cy="647.794" r="4" fill="#0" id="circle295"/>
	<circle cx="903.145" cy="663.27" r="4" fill="#0" id="circle296"/>
	<circle cx="906.24" cy="181.972" r="4" fill="#0" id="circle297"/>
	<circle cx="906.24" cy="284.112" r="4" fill="#0" id="circle298"/>
	<circle cx="909.335" cy="154.115" r="4" fill="#0" id="circle299"/>
	<circle cx="910.883" cy="677.198" r="4" fill="#0" id="circle300"/>
	<circle cx="910.883" cy="771.601" r="4" fill="#0" id="circle301"/>
	<circle cx="910.883" cy="787.076" r="4" fill="#0" id="circle302"/>
	<circle cx="915.526" cy="76.7363" r="4" fill="#0" id="circle303"/>
	<circle cx="917.073" cy="168.044" r="4" fill="#0" id="circle304"/>
	<circle cx="918.621" cy="691.126" r="4" fill="#0" id="circle305"/>
	<circle cx="918.621" cy="706.602" r="4" fill="#0" id="circle306"/>
	<circle cx="918.621" cy="722.078" r="4" fill="#0" id="circle307"/>
	<circle cx="918.621" cy="737.554" r="4" fill="#0" id="circle308"/>
	<circle cx="918.621" cy="753.03" r="4" fill="#0" id="circle309"/>
	<circle cx="920.168" cy="276.374" r="4" fill="#0" id="circle310"/>
	<circle cx="926.359" cy="260.899" r="4" fill="#0" id="circle311"/>
	<circle cx="931.002" cy="82.9267" r="4" fill="#0" id="circle312"/>
	<circle cx="941.835" cy="95.3073" r="4" fill="#0" id="circle313"/>
	<circle cx="941.835" cy="253.161" r="4" fill="#0" id="circle314"/>
	<circle cx="955.763" cy="245.423" r="4" fill="#0" id="circle315"/>
	<circle cx="957.31" cy="96.8549" r="4" fill="#0" id="circle316"/>
	<circle cx="965.048" cy="110.783" r="4" fill="#0" id="circle317"/>
	<circle cx="968.144" cy="236.137" r="4" fill="#0" id="circle318"/>
	<circle cx="972.786" cy="124.711" r="4" fill="#0" id="circle319"/>
	<circle cx="980.524" cy="138.64" r="4" fill="#0" id="circle320"/>
	<circle cx="980.524" cy="222.209" r="4" fill="#0" id="circle321"/>
	<circle cx="988.262" cy="152.568" r="4" fill="#0" id="circle322"/>
	<circle cx="992.905" cy="211.376" r="4" fill="#0" id="circle323"/>
	<circle cx="996" cy="166.496" r="4" fill="#0" id="circle324"/>
	<circle cx="996" cy="181.972" r="4" fill="#0" id="circle325"/>
	</g>
</svg>