<?xml version="1.0" encoding="UTF-8" standalone="no"?>
<!-- Created with CurveBenchmark -->
<svg
	xmlns:dc="http://purl.org/dc/elements/1.1/"
	xmlns:cc="http://creativecommons.org/ns#"
	xmlns:rdf="http://www.w3.org/1999/02/22-rdf-syntax-ns#"
	xmlns:svg="http://www.w3.org/2000/svg"
	xmlns="http://www.w3.org/2000/svg"
	xmlns:sodipodi="http://sodipodi.sourceforge.net/DTD/sodipodi-0.dtd"
	xmlns:inkscape="http://www.inkscape.org/namespaces/inkscape"
	width="1000"
	height="1000"
	id="svg2"
	version="1.1"
	sodipodi:docname="manifold/peel-flightbird15.png.txt">
<defs
	id="defs4" />
<metadata
	id="metadata7">
	<rdf:RDF>
		<cc:Work
			rdf:about="">
			<dc:format>image/svg+xml</dc:format>
			<dc:type
				rdf:resource="http://purl.org/dc/dcmitype/StillImage" />
			<dc:title></dc:title>
		</cc:Work>
	</rdf:RDF>
</metadata>
<g
	inkscape:label="Layer 1"
	inkscape:groupmode="layer"
	id="layer1">
	<path style="fill:none;stroke:red;stroke-width:1px;stroke-linecap:butt;stroke-linejoin:miter;stroke-opacity:1" d="M 28.5171,833.81 13.4297,848.897 z" id="boundary" inkscape:connector-curvature="0" />
	<path style="fill:none;stroke:red;stroke-width:1px;stroke-linecap:butt;stroke-linejoin:miter;stroke-opacity:1" d="M 34.1749,797.977 19.0875,786.662 z" id="boundary" inkscape:connector-curvature="0" />
	<path style="fill:none;stroke:red;stroke-width:1px;stroke-linecap:butt;stroke-linejoin:miter;stroke-opacity:1" d="M 19.0875,786.662 4,801.749 z" id="boundary" inkscape:connector-curvature="0" />
	<path style="fill:none;stroke:red;stroke-width:1px;stroke-linecap:butt;stroke-linejoin:miter;stroke-opacity:1" d="M 34.1749,797.977 37.9468,816.837 z" id="boundary" inkscape:connector-curvature="0" />
	<path style="fill:none;stroke:red;stroke-width:1px;stroke-linecap:butt;stroke-linejoin:miter;stroke-opacity:1" d="M 37.9468,777.232 53.0342,762.144 z" id="boundary" inkscape:connector-curvature="0" />
	<path style="fill:none;stroke:red;stroke-width:1px;stroke-linecap:butt;stroke-linejoin:miter;stroke-opacity:1" d="M 47.3764,833.81 28.5171,833.81 z" id="boundary" inkscape:connector-curvature="0" />
	<path style="fill:none;stroke:red;stroke-width:1px;stroke-linecap:butt;stroke-linejoin:miter;stroke-opacity:1" d="M 51.1483,858.327 41.7186,877.186 z" id="boundary" inkscape:connector-curvature="0" />
	<path style="fill:none;stroke:red;stroke-width:1px;stroke-linecap:butt;stroke-linejoin:miter;stroke-opacity:1" d="M 37.9468,816.837 56.8061,816.837 z" id="boundary" inkscape:connector-curvature="0" />
	<path style="fill:none;stroke:red;stroke-width:1px;stroke-linecap:butt;stroke-linejoin:miter;stroke-opacity:1" d="M 60.5779,882.844 41.7186,877.186 z" id="boundary" inkscape:connector-curvature="0" />
	<path style="fill:none;stroke:red;stroke-width:1px;stroke-linecap:butt;stroke-linejoin:miter;stroke-opacity:1" d="M 47.3764,833.81 70.0076,839.468 z" id="boundary" inkscape:connector-curvature="0" />
	<path style="fill:none;stroke:red;stroke-width:1px;stroke-linecap:butt;stroke-linejoin:miter;stroke-opacity:1" d="M 797.977,73.7795 784.776,88.8669 z" id="boundary" inkscape:connector-curvature="0" />
	<path style="fill:none;stroke:red;stroke-width:1px;stroke-linecap:butt;stroke-linejoin:miter;stroke-opacity:1" d="M 53.0342,762.144 71.8935,752.715 z" id="boundary" inkscape:connector-curvature="0" />
	<path style="fill:none;stroke:red;stroke-width:1px;stroke-linecap:butt;stroke-linejoin:miter;stroke-opacity:1" d="M 56.8061,816.837 73.7795,807.407 z" id="boundary" inkscape:connector-curvature="0" />
	<path style="fill:none;stroke:red;stroke-width:1px;stroke-linecap:butt;stroke-linejoin:miter;stroke-opacity:1" d="M 75.6654,871.529 60.5779,882.844 z" id="boundary" inkscape:connector-curvature="0" />
	<path style="fill:none;stroke:red;stroke-width:1px;stroke-linecap:butt;stroke-linejoin:miter;stroke-opacity:1" d="M 70.0076,720.654 81.3232,705.567 z" id="boundary" inkscape:connector-curvature="0" />
	<path style="fill:none;stroke:red;stroke-width:1px;stroke-linecap:butt;stroke-linejoin:miter;stroke-opacity:1" d="M 70.0076,720.654 85.0951,731.97 z" id="boundary" inkscape:connector-curvature="0" />
	<path style="fill:none;stroke:red;stroke-width:1px;stroke-linecap:butt;stroke-linejoin:miter;stroke-opacity:1" d="M 71.8935,752.715 85.0951,731.97 z" id="boundary" inkscape:connector-curvature="0" />
	<path style="fill:none;stroke:red;stroke-width:1px;stroke-linecap:butt;stroke-linejoin:miter;stroke-opacity:1" d="M 81.3232,705.567 96.4106,692.365 z" id="boundary" inkscape:connector-curvature="0" />
	<path style="fill:none;stroke:red;stroke-width:1px;stroke-linecap:butt;stroke-linejoin:miter;stroke-opacity:1" d="M 96.4106,692.365 113.384,682.935 z" id="boundary" inkscape:connector-curvature="0" />
	<path style="fill:none;stroke:red;stroke-width:1px;stroke-linecap:butt;stroke-linejoin:miter;stroke-opacity:1" d="M 98.2966,873.414 90.7529,854.555 z" id="boundary" inkscape:connector-curvature="0" />
	<path style="fill:none;stroke:red;stroke-width:1px;stroke-linecap:butt;stroke-linejoin:miter;stroke-opacity:1" d="M 107.726,845.125 90.7529,854.555 z" id="boundary" inkscape:connector-curvature="0" />
	<path style="fill:none;stroke:red;stroke-width:1px;stroke-linecap:butt;stroke-linejoin:miter;stroke-opacity:1" d="M 386.844,760.259 367.985,767.802 z" id="boundary" inkscape:connector-curvature="0" />
	<path style="fill:none;stroke:red;stroke-width:1px;stroke-linecap:butt;stroke-linejoin:miter;stroke-opacity:1" d="M 117.156,867.757 98.2966,873.414 z" id="boundary" inkscape:connector-curvature="0" />
	<path style="fill:none;stroke:red;stroke-width:1px;stroke-linecap:butt;stroke-linejoin:miter;stroke-opacity:1" d="M 128.471,667.848 147.331,658.418 z" id="boundary" inkscape:connector-curvature="0" />
	<path style="fill:none;stroke:red;stroke-width:1px;stroke-linecap:butt;stroke-linejoin:miter;stroke-opacity:1" d="M 128.471,667.848 113.384,682.935 z" id="boundary" inkscape:connector-curvature="0" />
	<path style="fill:none;stroke:red;stroke-width:1px;stroke-linecap:butt;stroke-linejoin:miter;stroke-opacity:1" d="M 420.791,741.399 439.65,731.97 z" id="boundary" inkscape:connector-curvature="0" />
	<path style="fill:none;stroke:red;stroke-width:1px;stroke-linecap:butt;stroke-linejoin:miter;stroke-opacity:1" d="M 132.243,852.669 117.156,867.757 z" id="boundary" inkscape:connector-curvature="0" />
	<path style="fill:none;stroke:red;stroke-width:1px;stroke-linecap:butt;stroke-linejoin:miter;stroke-opacity:1" d="M 151.103,845.125 132.243,852.669 z" id="boundary" inkscape:connector-curvature="0" />
	<path style="fill:none;stroke:red;stroke-width:1px;stroke-linecap:butt;stroke-linejoin:miter;stroke-opacity:1" d="M 162.418,645.217 179.392,635.787 z" id="boundary" inkscape:connector-curvature="0" />
	<path style="fill:none;stroke:red;stroke-width:1px;stroke-linecap:butt;stroke-linejoin:miter;stroke-opacity:1" d="M 168.076,835.696 151.103,845.125 z" id="boundary" inkscape:connector-curvature="0" />
	<path style="fill:none;stroke:red;stroke-width:1px;stroke-linecap:butt;stroke-linejoin:miter;stroke-opacity:1" d="M 147.331,658.418 162.418,645.217 z" id="boundary" inkscape:connector-curvature="0" />
	<path style="fill:none;stroke:red;stroke-width:1px;stroke-linecap:butt;stroke-linejoin:miter;stroke-opacity:1" d="M 294.433,784.776 275.574,788.548 z" id="boundary" inkscape:connector-curvature="0" />
	<path style="fill:none;stroke:red;stroke-width:1px;stroke-linecap:butt;stroke-linejoin:miter;stroke-opacity:1" d="M 275.574,788.548 256.715,794.205 z" id="boundary" inkscape:connector-curvature="0" />
	<path style="fill:none;stroke:red;stroke-width:1px;stroke-linecap:butt;stroke-linejoin:miter;stroke-opacity:1" d="M 185.049,816.837 168.076,835.696 z" id="boundary" inkscape:connector-curvature="0" />
	<path style="fill:none;stroke:red;stroke-width:1px;stroke-linecap:butt;stroke-linejoin:miter;stroke-opacity:1" d="M 198.251,626.357 179.392,635.787 z" id="boundary" inkscape:connector-curvature="0" />
	<path style="fill:none;stroke:red;stroke-width:1px;stroke-linecap:butt;stroke-linejoin:miter;stroke-opacity:1" d="M 203.909,816.837 185.049,816.837 z" id="boundary" inkscape:connector-curvature="0" />
	<path style="fill:none;stroke:red;stroke-width:1px;stroke-linecap:butt;stroke-linejoin:miter;stroke-opacity:1" d="M 211.452,603.726 226.54,588.639 z" id="boundary" inkscape:connector-curvature="0" />
	<path style="fill:none;stroke:red;stroke-width:1px;stroke-linecap:butt;stroke-linejoin:miter;stroke-opacity:1" d="M 226.54,588.639 245.399,579.209 z" id="boundary" inkscape:connector-curvature="0" />
	<path style="fill:none;stroke:red;stroke-width:1px;stroke-linecap:butt;stroke-linejoin:miter;stroke-opacity:1" d="M 220.882,807.407 203.909,816.837 z" id="boundary" inkscape:connector-curvature="0" />
	<path style="fill:none;stroke:red;stroke-width:1px;stroke-linecap:butt;stroke-linejoin:miter;stroke-opacity:1" d="M 198.251,626.357 211.452,603.726 z" id="boundary" inkscape:connector-curvature="0" />
	<path style="fill:none;stroke:red;stroke-width:1px;stroke-linecap:butt;stroke-linejoin:miter;stroke-opacity:1" d="M 237.856,797.977 256.715,794.205 z" id="boundary" inkscape:connector-curvature="0" />
	<path style="fill:none;stroke:red;stroke-width:1px;stroke-linecap:butt;stroke-linejoin:miter;stroke-opacity:1" d="M 237.856,797.977 220.882,807.407 z" id="boundary" inkscape:connector-curvature="0" />
	<path style="fill:none;stroke:red;stroke-width:1px;stroke-linecap:butt;stroke-linejoin:miter;stroke-opacity:1" d="M 264.259,569.779 283.118,569.779 z" id="boundary" inkscape:connector-curvature="0" />
	<path style="fill:none;stroke:red;stroke-width:1px;stroke-linecap:butt;stroke-linejoin:miter;stroke-opacity:1" d="M 264.259,569.779 245.399,579.209 z" id="boundary" inkscape:connector-curvature="0" />
	<path style="fill:none;stroke:red;stroke-width:1px;stroke-linecap:butt;stroke-linejoin:miter;stroke-opacity:1" d="M 300.091,560.35 283.118,569.779 z" id="boundary" inkscape:connector-curvature="0" />
	<path style="fill:none;stroke:red;stroke-width:1px;stroke-linecap:butt;stroke-linejoin:miter;stroke-opacity:1" d="M 313.293,779.118 294.433,784.776 z" id="boundary" inkscape:connector-curvature="0" />
	<path style="fill:none;stroke:red;stroke-width:1px;stroke-linecap:butt;stroke-linejoin:miter;stroke-opacity:1" d="M 318.951,552.806 300.091,560.35 z" id="boundary" inkscape:connector-curvature="0" />
	<path style="fill:none;stroke:red;stroke-width:1px;stroke-linecap:butt;stroke-linejoin:miter;stroke-opacity:1" d="M 349.125,769.688 367.985,767.802 z" id="boundary" inkscape:connector-curvature="0" />
	<path style="fill:none;stroke:red;stroke-width:1px;stroke-linecap:butt;stroke-linejoin:miter;stroke-opacity:1" d="M 330.266,769.688 313.293,779.118 z" id="boundary" inkscape:connector-curvature="0" />
	<path style="fill:none;stroke:red;stroke-width:1px;stroke-linecap:butt;stroke-linejoin:miter;stroke-opacity:1" d="M 337.81,543.376 318.951,552.806 z" id="boundary" inkscape:connector-curvature="0" />
	<path style="fill:none;stroke:red;stroke-width:1px;stroke-linecap:butt;stroke-linejoin:miter;stroke-opacity:1" d="M 349.125,769.688 330.266,769.688 z" id="boundary" inkscape:connector-curvature="0" />
	<path style="fill:none;stroke:red;stroke-width:1px;stroke-linecap:butt;stroke-linejoin:miter;stroke-opacity:1" d="M 356.669,533.947 337.81,543.376 z" id="boundary" inkscape:connector-curvature="0" />
	<path style="fill:none;stroke:red;stroke-width:1px;stroke-linecap:butt;stroke-linejoin:miter;stroke-opacity:1" d="M 375.529,524.517 394.388,522.631 z" id="boundary" inkscape:connector-curvature="0" />
	<path style="fill:none;stroke:red;stroke-width:1px;stroke-linecap:butt;stroke-linejoin:miter;stroke-opacity:1" d="M 375.529,524.517 356.669,533.947 z" id="boundary" inkscape:connector-curvature="0" />
	<path style="fill:none;stroke:red;stroke-width:1px;stroke-linecap:butt;stroke-linejoin:miter;stroke-opacity:1" d="M 703.681,773.46 711.224,792.319 z" id="boundary" inkscape:connector-curvature="0" />
	<path style="fill:none;stroke:red;stroke-width:1px;stroke-linecap:butt;stroke-linejoin:miter;stroke-opacity:1" d="M 703.681,773.46 692.365,758.373 z" id="boundary" inkscape:connector-curvature="0" />
	<path style="fill:none;stroke:red;stroke-width:1px;stroke-linecap:butt;stroke-linejoin:miter;stroke-opacity:1" d="M 403.817,750.829 386.844,760.259 z" id="boundary" inkscape:connector-curvature="0" />
	<path style="fill:none;stroke:red;stroke-width:1px;stroke-linecap:butt;stroke-linejoin:miter;stroke-opacity:1" d="M 411.361,513.202 394.388,522.631 z" id="boundary" inkscape:connector-curvature="0" />
	<path style="fill:none;stroke:red;stroke-width:1px;stroke-linecap:butt;stroke-linejoin:miter;stroke-opacity:1" d="M 420.791,741.399 403.817,750.829 z" id="boundary" inkscape:connector-curvature="0" />
	<path style="fill:none;stroke:red;stroke-width:1px;stroke-linecap:butt;stroke-linejoin:miter;stroke-opacity:1" d="M 673.506,724.426 682.935,741.399 z" id="boundary" inkscape:connector-curvature="0" />
	<path style="fill:none;stroke:red;stroke-width:1px;stroke-linecap:butt;stroke-linejoin:miter;stroke-opacity:1" d="M 428.335,503.772 411.361,513.202 z" id="boundary" inkscape:connector-curvature="0" />
	<path style="fill:none;stroke:red;stroke-width:1px;stroke-linecap:butt;stroke-linejoin:miter;stroke-opacity:1" d="M 439.65,488.684 428.335,503.772 z" id="boundary" inkscape:connector-curvature="0" />
	<path style="fill:none;stroke:red;stroke-width:1px;stroke-linecap:butt;stroke-linejoin:miter;stroke-opacity:1" d="M 428.335,424.563 447.194,430.221 z" id="boundary" inkscape:connector-curvature="0" />
	<path style="fill:none;stroke:red;stroke-width:1px;stroke-linecap:butt;stroke-linejoin:miter;stroke-opacity:1" d="M 447.194,430.221 447.194,449.08 z" id="boundary" inkscape:connector-curvature="0" />
	<path style="fill:none;stroke:red;stroke-width:1px;stroke-linecap:butt;stroke-linejoin:miter;stroke-opacity:1" d="M 654.646,690.479 664.076,707.452 z" id="boundary" inkscape:connector-curvature="0" />
	<path style="fill:none;stroke:red;stroke-width:1px;stroke-linecap:butt;stroke-linejoin:miter;stroke-opacity:1" d="M 635.787,264.259 626.357,292.548 z" id="boundary" inkscape:connector-curvature="0" />
	<path style="fill:none;stroke:red;stroke-width:1px;stroke-linecap:butt;stroke-linejoin:miter;stroke-opacity:1" d="M 447.194,449.08 452.852,467.939 z" id="boundary" inkscape:connector-curvature="0" />
	<path style="fill:none;stroke:red;stroke-width:1px;stroke-linecap:butt;stroke-linejoin:miter;stroke-opacity:1" d="M 452.852,467.939 439.65,488.684 z" id="boundary" inkscape:connector-curvature="0" />
	<path style="fill:none;stroke:red;stroke-width:1px;stroke-linecap:butt;stroke-linejoin:miter;stroke-opacity:1" d="M 460.395,400.046 477.369,390.616 z" id="boundary" inkscape:connector-curvature="0" />
	<path style="fill:none;stroke:red;stroke-width:1px;stroke-linecap:butt;stroke-linejoin:miter;stroke-opacity:1" d="M 477.369,390.616 496.228,390.616 z" id="boundary" inkscape:connector-curvature="0" />
	<path style="fill:none;stroke:red;stroke-width:1px;stroke-linecap:butt;stroke-linejoin:miter;stroke-opacity:1" d="M 443.422,409.475 460.395,400.046 z" id="boundary" inkscape:connector-curvature="0" />
	<path style="fill:none;stroke:red;stroke-width:1px;stroke-linecap:butt;stroke-linejoin:miter;stroke-opacity:1" d="M 515.087,396.274 496.228,390.616 z" id="boundary" inkscape:connector-curvature="0" />
	<path style="fill:none;stroke:red;stroke-width:1px;stroke-linecap:butt;stroke-linejoin:miter;stroke-opacity:1" d="M 654.646,690.479 645.217,673.506 z" id="boundary" inkscape:connector-curvature="0" />
	<path style="fill:none;stroke:red;stroke-width:1px;stroke-linecap:butt;stroke-linejoin:miter;stroke-opacity:1" d="M 477.369,703.681 458.51,722.54 z" id="boundary" inkscape:connector-curvature="0" />
	<path style="fill:none;stroke:red;stroke-width:1px;stroke-linecap:butt;stroke-linejoin:miter;stroke-opacity:1" d="M 458.51,722.54 439.65,731.97 z" id="boundary" inkscape:connector-curvature="0" />
	<path style="fill:none;stroke:red;stroke-width:1px;stroke-linecap:butt;stroke-linejoin:miter;stroke-opacity:1" d="M 494.342,694.251 477.369,703.681 z" id="boundary" inkscape:connector-curvature="0" />
	<path style="fill:none;stroke:red;stroke-width:1px;stroke-linecap:butt;stroke-linejoin:miter;stroke-opacity:1" d="M 513.202,688.593 494.342,694.251 z" id="boundary" inkscape:connector-curvature="0" />
	<path style="fill:none;stroke:red;stroke-width:1px;stroke-linecap:butt;stroke-linejoin:miter;stroke-opacity:1" d="M 598.068,320.837 584.867,343.468 z" id="boundary" inkscape:connector-curvature="0" />
	<path style="fill:none;stroke:red;stroke-width:1px;stroke-linecap:butt;stroke-linejoin:miter;stroke-opacity:1" d="M 515.087,396.274 532.061,405.703 z" id="boundary" inkscape:connector-curvature="0" />
	<path style="fill:none;stroke:red;stroke-width:1px;stroke-linecap:butt;stroke-linejoin:miter;stroke-opacity:1" d="M 645.217,673.506 635.787,656.532 z" id="boundary" inkscape:connector-curvature="0" />
	<path style="fill:none;stroke:red;stroke-width:1px;stroke-linecap:butt;stroke-linejoin:miter;stroke-opacity:1" d="M 528.289,673.506 513.202,688.593 z" id="boundary" inkscape:connector-curvature="0" />
	<path style="fill:none;stroke:red;stroke-width:1px;stroke-linecap:butt;stroke-linejoin:miter;stroke-opacity:1" d="M 547.148,664.076 528.289,673.506 z" id="boundary" inkscape:connector-curvature="0" />
	<path style="fill:none;stroke:red;stroke-width:1px;stroke-linecap:butt;stroke-linejoin:miter;stroke-opacity:1" d="M 550.92,396.274 532.061,405.703 z" id="boundary" inkscape:connector-curvature="0" />
	<path style="fill:none;stroke:red;stroke-width:1px;stroke-linecap:butt;stroke-linejoin:miter;stroke-opacity:1" d="M 601.84,637.673 620.7,643.331 z" id="boundary" inkscape:connector-curvature="0" />
	<path style="fill:none;stroke:red;stroke-width:1px;stroke-linecap:butt;stroke-linejoin:miter;stroke-opacity:1" d="M 620.7,643.331 635.787,656.532 z" id="boundary" inkscape:connector-curvature="0" />
	<path style="fill:none;stroke:red;stroke-width:1px;stroke-linecap:butt;stroke-linejoin:miter;stroke-opacity:1" d="M 556.578,645.217 547.148,664.076 z" id="boundary" inkscape:connector-curvature="0" />
	<path style="fill:none;stroke:red;stroke-width:1px;stroke-linecap:butt;stroke-linejoin:miter;stroke-opacity:1" d="M 560.35,377.414 575.437,362.327 z" id="boundary" inkscape:connector-curvature="0" />
	<path style="fill:none;stroke:red;stroke-width:1px;stroke-linecap:butt;stroke-linejoin:miter;stroke-opacity:1" d="M 560.35,377.414 550.92,396.274 z" id="boundary" inkscape:connector-curvature="0" />
	<path style="fill:none;stroke:red;stroke-width:1px;stroke-linecap:butt;stroke-linejoin:miter;stroke-opacity:1" d="M 566.008,628.243 582.981,637.673 z" id="boundary" inkscape:connector-curvature="0" />
	<path style="fill:none;stroke:red;stroke-width:1px;stroke-linecap:butt;stroke-linejoin:miter;stroke-opacity:1" d="M 566.008,628.243 556.578,645.217 z" id="boundary" inkscape:connector-curvature="0" />
	<path style="fill:none;stroke:red;stroke-width:1px;stroke-linecap:butt;stroke-linejoin:miter;stroke-opacity:1" d="M 584.867,343.468 575.437,362.327 z" id="boundary" inkscape:connector-curvature="0" />
	<path style="fill:none;stroke:red;stroke-width:1px;stroke-linecap:butt;stroke-linejoin:miter;stroke-opacity:1" d="M 601.84,637.673 582.981,637.673 z" id="boundary" inkscape:connector-curvature="0" />
	<path style="fill:none;stroke:red;stroke-width:1px;stroke-linecap:butt;stroke-linejoin:miter;stroke-opacity:1" d="M 598.068,320.837 616.928,311.407 z" id="boundary" inkscape:connector-curvature="0" />
	<path style="fill:none;stroke:red;stroke-width:1px;stroke-linecap:butt;stroke-linejoin:miter;stroke-opacity:1" d="M 675.392,533.947 675.392,552.806 z" id="boundary" inkscape:connector-curvature="0" />
	<path style="fill:none;stroke:red;stroke-width:1px;stroke-linecap:butt;stroke-linejoin:miter;stroke-opacity:1" d="M 626.357,292.548 616.928,311.407 z" id="boundary" inkscape:connector-curvature="0" />
	<path style="fill:none;stroke:red;stroke-width:1px;stroke-linecap:butt;stroke-linejoin:miter;stroke-opacity:1" d="M 664.076,707.452 673.506,724.426 z" id="boundary" inkscape:connector-curvature="0" />
	<path style="fill:none;stroke:red;stroke-width:1px;stroke-linecap:butt;stroke-linejoin:miter;stroke-opacity:1" d="M 635.787,264.259 645.217,245.399 z" id="boundary" inkscape:connector-curvature="0" />
	<path style="fill:none;stroke:red;stroke-width:1px;stroke-linecap:butt;stroke-linejoin:miter;stroke-opacity:1" d="M 645.217,245.399 654.646,226.54 z" id="boundary" inkscape:connector-curvature="0" />
	<path style="fill:none;stroke:red;stroke-width:1px;stroke-linecap:butt;stroke-linejoin:miter;stroke-opacity:1" d="M 654.646,226.54 669.734,211.452 z" id="boundary" inkscape:connector-curvature="0" />
	<path style="fill:none;stroke:red;stroke-width:1px;stroke-linecap:butt;stroke-linejoin:miter;stroke-opacity:1" d="M 682.935,741.399 692.365,758.373 z" id="boundary" inkscape:connector-curvature="0" />
	<path style="fill:none;stroke:red;stroke-width:1px;stroke-linecap:butt;stroke-linejoin:miter;stroke-opacity:1" d="M 684.821,569.779 675.392,552.806 z" id="boundary" inkscape:connector-curvature="0" />
	<path style="fill:none;stroke:red;stroke-width:1px;stroke-linecap:butt;stroke-linejoin:miter;stroke-opacity:1" d="M 684.821,196.365 669.734,211.452 z" id="boundary" inkscape:connector-curvature="0" />
	<path style="fill:none;stroke:red;stroke-width:1px;stroke-linecap:butt;stroke-linejoin:miter;stroke-opacity:1" d="M 684.821,569.779 694.251,586.753 z" id="boundary" inkscape:connector-curvature="0" />
	<path style="fill:none;stroke:red;stroke-width:1px;stroke-linecap:butt;stroke-linejoin:miter;stroke-opacity:1" d="M 694.251,586.753 709.338,599.954 z" id="boundary" inkscape:connector-curvature="0" />
	<path style="fill:none;stroke:red;stroke-width:1px;stroke-linecap:butt;stroke-linejoin:miter;stroke-opacity:1" d="M 675.392,533.947 692.365,524.517 z" id="boundary" inkscape:connector-curvature="0" />
	<path style="fill:none;stroke:red;stroke-width:1px;stroke-linecap:butt;stroke-linejoin:miter;stroke-opacity:1" d="M 709.338,599.954 718.768,616.928 z" id="boundary" inkscape:connector-curvature="0" />
	<path style="fill:none;stroke:red;stroke-width:1px;stroke-linecap:butt;stroke-linejoin:miter;stroke-opacity:1" d="M 699.909,183.163 684.821,196.365 z" id="boundary" inkscape:connector-curvature="0" />
	<path style="fill:none;stroke:red;stroke-width:1px;stroke-linecap:butt;stroke-linejoin:miter;stroke-opacity:1" d="M 692.365,524.517 707.452,513.202 z" id="boundary" inkscape:connector-curvature="0" />
	<path style="fill:none;stroke:red;stroke-width:1px;stroke-linecap:butt;stroke-linejoin:miter;stroke-opacity:1" d="M 735.741,626.357 718.768,616.928 z" id="boundary" inkscape:connector-curvature="0" />
	<path style="fill:none;stroke:red;stroke-width:1px;stroke-linecap:butt;stroke-linejoin:miter;stroke-opacity:1" d="M 711.224,792.319 730.084,797.977 z" id="boundary" inkscape:connector-curvature="0" />
	<path style="fill:none;stroke:red;stroke-width:1px;stroke-linecap:butt;stroke-linejoin:miter;stroke-opacity:1" d="M 752.715,635.787 735.741,626.357 z" id="boundary" inkscape:connector-curvature="0" />
	<path style="fill:none;stroke:red;stroke-width:1px;stroke-linecap:butt;stroke-linejoin:miter;stroke-opacity:1" d="M 730.084,797.977 748.943,801.749 z" id="boundary" inkscape:connector-curvature="0" />
	<path style="fill:none;stroke:red;stroke-width:1px;stroke-linecap:butt;stroke-linejoin:miter;stroke-opacity:1" d="M 699.909,183.163 711.224,160.532 z" id="boundary" inkscape:connector-curvature="0" />
	<path style="fill:none;stroke:red;stroke-width:1px;stroke-linecap:butt;stroke-linejoin:miter;stroke-opacity:1" d="M 707.452,513.202 726.312,503.772 z" id="boundary" inkscape:connector-curvature="0" />
	<path style="fill:none;stroke:red;stroke-width:1px;stroke-linecap:butt;stroke-linejoin:miter;stroke-opacity:1" d="M 711.224,160.532 730.084,151.103 z" id="boundary" inkscape:connector-curvature="0" />
	<path style="fill:none;stroke:red;stroke-width:1px;stroke-linecap:butt;stroke-linejoin:miter;stroke-opacity:1" d="M 767.802,648.989 779.118,664.076 z" id="boundary" inkscape:connector-curvature="0" />
	<path style="fill:none;stroke:red;stroke-width:1px;stroke-linecap:butt;stroke-linejoin:miter;stroke-opacity:1" d="M 752.715,635.787 767.802,648.989 z" id="boundary" inkscape:connector-curvature="0" />
	<path style="fill:none;stroke:red;stroke-width:1px;stroke-linecap:butt;stroke-linejoin:miter;stroke-opacity:1" d="M 726.312,503.772 735.741,484.913 z" id="boundary" inkscape:connector-curvature="0" />
	<path style="fill:none;stroke:red;stroke-width:1px;stroke-linecap:butt;stroke-linejoin:miter;stroke-opacity:1" d="M 735.741,484.913 754.601,475.483 z" id="boundary" inkscape:connector-curvature="0" />
	<path style="fill:none;stroke:red;stroke-width:1px;stroke-linecap:butt;stroke-linejoin:miter;stroke-opacity:1" d="M 745.171,136.015 730.084,151.103 z" id="boundary" inkscape:connector-curvature="0" />
	<path style="fill:none;stroke:red;stroke-width:1px;stroke-linecap:butt;stroke-linejoin:miter;stroke-opacity:1" d="M 760.259,120.928 745.171,136.015 z" id="boundary" inkscape:connector-curvature="0" />
	<path style="fill:none;stroke:red;stroke-width:1px;stroke-linecap:butt;stroke-linejoin:miter;stroke-opacity:1" d="M 754.601,475.483 764.03,456.624 z" id="boundary" inkscape:connector-curvature="0" />
	<path style="fill:none;stroke:red;stroke-width:1px;stroke-linecap:butt;stroke-linejoin:miter;stroke-opacity:1" d="M 769.688,102.068 784.776,88.8669 z" id="boundary" inkscape:connector-curvature="0" />
	<path style="fill:none;stroke:red;stroke-width:1px;stroke-linecap:butt;stroke-linejoin:miter;stroke-opacity:1" d="M 769.688,102.068 760.259,120.928 z" id="boundary" inkscape:connector-curvature="0" />
	<path style="fill:none;stroke:red;stroke-width:1px;stroke-linecap:butt;stroke-linejoin:miter;stroke-opacity:1" d="M 779.118,430.221 764.03,456.624 z" id="boundary" inkscape:connector-curvature="0" />
	<path style="fill:none;stroke:red;stroke-width:1px;stroke-linecap:butt;stroke-linejoin:miter;stroke-opacity:1" d="M 767.802,792.319 748.943,801.749 z" id="boundary" inkscape:connector-curvature="0" />
	<path style="fill:none;stroke:red;stroke-width:1px;stroke-linecap:butt;stroke-linejoin:miter;stroke-opacity:1" d="M 779.118,430.221 794.205,417.019 z" id="boundary" inkscape:connector-curvature="0" />
	<path style="fill:none;stroke:red;stroke-width:1px;stroke-linecap:butt;stroke-linejoin:miter;stroke-opacity:1" d="M 782.89,777.232 767.802,792.319 z" id="boundary" inkscape:connector-curvature="0" />
	<path style="fill:none;stroke:red;stroke-width:1px;stroke-linecap:butt;stroke-linejoin:miter;stroke-opacity:1" d="M 792.319,760.259 782.89,777.232 z" id="boundary" inkscape:connector-curvature="0" />
	<path style="fill:none;stroke:red;stroke-width:1px;stroke-linecap:butt;stroke-linejoin:miter;stroke-opacity:1" d="M 779.118,664.076 796.091,673.506 z" id="boundary" inkscape:connector-curvature="0" />
	<path style="fill:none;stroke:red;stroke-width:1px;stroke-linecap:butt;stroke-linejoin:miter;stroke-opacity:1" d="M 811.179,758.373 792.319,760.259 z" id="boundary" inkscape:connector-curvature="0" />
	<path style="fill:none;stroke:red;stroke-width:1px;stroke-linecap:butt;stroke-linejoin:miter;stroke-opacity:1" d="M 794.205,417.019 803.635,398.16 z" id="boundary" inkscape:connector-curvature="0" />
	<path style="fill:none;stroke:red;stroke-width:1px;stroke-linecap:butt;stroke-linejoin:miter;stroke-opacity:1" d="M 811.179,684.821 796.091,673.506 z" id="boundary" inkscape:connector-curvature="0" />
	<path style="fill:none;stroke:red;stroke-width:1px;stroke-linecap:butt;stroke-linejoin:miter;stroke-opacity:1" d="M 797.977,73.7795 816.837,71.8935 z" id="boundary" inkscape:connector-curvature="0" />
	<path style="fill:none;stroke:red;stroke-width:1px;stroke-linecap:butt;stroke-linejoin:miter;stroke-opacity:1" d="M 807.407,54.9202 816.837,71.8935 z" id="boundary" inkscape:connector-curvature="0" />
	<path style="fill:none;stroke:red;stroke-width:1px;stroke-linecap:butt;stroke-linejoin:miter;stroke-opacity:1" d="M 803.635,398.16 816.837,373.643 z" id="boundary" inkscape:connector-curvature="0" />
	<path style="fill:none;stroke:red;stroke-width:1px;stroke-linecap:butt;stroke-linejoin:miter;stroke-opacity:1" d="M 816.837,373.643 835.696,354.783 z" id="boundary" inkscape:connector-curvature="0" />
	<path style="fill:none;stroke:red;stroke-width:1px;stroke-linecap:butt;stroke-linejoin:miter;stroke-opacity:1" d="M 830.038,748.943 811.179,758.373 z" id="boundary" inkscape:connector-curvature="0" />
	<path style="fill:none;stroke:red;stroke-width:1px;stroke-linecap:butt;stroke-linejoin:miter;stroke-opacity:1" d="M 822.494,41.7186 831.924,58.692 z" id="boundary" inkscape:connector-curvature="0" />
	<path style="fill:none;stroke:red;stroke-width:1px;stroke-linecap:butt;stroke-linejoin:miter;stroke-opacity:1" d="M 811.179,684.821 830.038,692.365 z" id="boundary" inkscape:connector-curvature="0" />
	<path style="fill:none;stroke:red;stroke-width:1px;stroke-linecap:butt;stroke-linejoin:miter;stroke-opacity:1" d="M 839.468,32.289 822.494,41.7186 z" id="boundary" inkscape:connector-curvature="0" />
	<path style="fill:none;stroke:red;stroke-width:1px;stroke-linecap:butt;stroke-linejoin:miter;stroke-opacity:1" d="M 830.038,692.365 843.24,707.452 z" id="boundary" inkscape:connector-curvature="0" />
	<path style="fill:none;stroke:red;stroke-width:1px;stroke-linecap:butt;stroke-linejoin:miter;stroke-opacity:1" d="M 835.696,79.4373 852.669,66.2357 z" id="boundary" inkscape:connector-curvature="0" />
	<path style="fill:none;stroke:red;stroke-width:1px;stroke-linecap:butt;stroke-linejoin:miter;stroke-opacity:1" d="M 839.468,730.084 830.038,748.943 z" id="boundary" inkscape:connector-curvature="0" />
	<path style="fill:none;stroke:red;stroke-width:1px;stroke-linecap:butt;stroke-linejoin:miter;stroke-opacity:1" d="M 843.24,707.452 839.468,730.084 z" id="boundary" inkscape:connector-curvature="0" />
	<path style="fill:none;stroke:red;stroke-width:1px;stroke-linecap:butt;stroke-linejoin:miter;stroke-opacity:1" d="M 845.125,317.065 845.125,335.924 z" id="boundary" inkscape:connector-curvature="0" />
	<path style="fill:none;stroke:red;stroke-width:1px;stroke-linecap:butt;stroke-linejoin:miter;stroke-opacity:1" d="M 845.125,335.924 835.696,354.783 z" id="boundary" inkscape:connector-curvature="0" />
	<path style="fill:none;stroke:red;stroke-width:1px;stroke-linecap:butt;stroke-linejoin:miter;stroke-opacity:1" d="M 948.852,128.471 963.939,115.27 z" id="boundary" inkscape:connector-curvature="0" />
	<path style="fill:none;stroke:red;stroke-width:1px;stroke-linecap:butt;stroke-linejoin:miter;stroke-opacity:1" d="M 862.099,47.3764 852.669,66.2357 z" id="boundary" inkscape:connector-curvature="0" />
	<path style="fill:none;stroke:red;stroke-width:1px;stroke-linecap:butt;stroke-linejoin:miter;stroke-opacity:1" d="M 845.125,317.065 860.213,303.863 z" id="boundary" inkscape:connector-curvature="0" />
	<path style="fill:none;stroke:red;stroke-width:1px;stroke-linecap:butt;stroke-linejoin:miter;stroke-opacity:1" d="M 869.643,285.004 860.213,303.863 z" id="boundary" inkscape:connector-curvature="0" />
	<path style="fill:none;stroke:red;stroke-width:1px;stroke-linecap:butt;stroke-linejoin:miter;stroke-opacity:1" d="M 873.414,241.627 873.414,260.487 z" id="boundary" inkscape:connector-curvature="0" />
	<path style="fill:none;stroke:red;stroke-width:1px;stroke-linecap:butt;stroke-linejoin:miter;stroke-opacity:1" d="M 869.643,285.004 873.414,260.487 z" id="boundary" inkscape:connector-curvature="0" />
	<path style="fill:none;stroke:red;stroke-width:1px;stroke-linecap:butt;stroke-linejoin:miter;stroke-opacity:1" d="M 862.099,47.3764 877.186,32.289 z" id="boundary" inkscape:connector-curvature="0" />
	<path style="fill:none;stroke:red;stroke-width:1px;stroke-linecap:butt;stroke-linejoin:miter;stroke-opacity:1" d="M 888.502,228.426 897.932,209.567 z" id="boundary" inkscape:connector-curvature="0" />
	<path style="fill:none;stroke:red;stroke-width:1px;stroke-linecap:butt;stroke-linejoin:miter;stroke-opacity:1" d="M 897.932,209.567 911.133,194.479 z" id="boundary" inkscape:connector-curvature="0" />
	<path style="fill:none;stroke:red;stroke-width:1px;stroke-linecap:butt;stroke-linejoin:miter;stroke-opacity:1" d="M 929.992,43.6046 929.992,62.4639 z" id="boundary" inkscape:connector-curvature="0" />
	<path style="fill:none;stroke:red;stroke-width:1px;stroke-linecap:butt;stroke-linejoin:miter;stroke-opacity:1" d="M 888.502,228.426 873.414,241.627 z" id="boundary" inkscape:connector-curvature="0" />
	<path style="fill:none;stroke:red;stroke-width:1px;stroke-linecap:butt;stroke-linejoin:miter;stroke-opacity:1" d="M 892.274,17.2015 877.186,32.289 z" id="boundary" inkscape:connector-curvature="0" />
	<path style="fill:none;stroke:red;stroke-width:1px;stroke-linecap:butt;stroke-linejoin:miter;stroke-opacity:1" d="M 907.361,4 911.133,22.8593 z" id="boundary" inkscape:connector-curvature="0" />
	<path style="fill:none;stroke:red;stroke-width:1px;stroke-linecap:butt;stroke-linejoin:miter;stroke-opacity:1" d="M 911.133,175.62 911.133,194.479 z" id="boundary" inkscape:connector-curvature="0" />
	<path style="fill:none;stroke:red;stroke-width:1px;stroke-linecap:butt;stroke-linejoin:miter;stroke-opacity:1" d="M 911.133,22.8593 929.992,22.8593 z" id="boundary" inkscape:connector-curvature="0" />
	<path style="fill:none;stroke:red;stroke-width:1px;stroke-linecap:butt;stroke-linejoin:miter;stroke-opacity:1" d="M 911.133,175.62 929.992,166.19 z" id="boundary" inkscape:connector-curvature="0" />
	<path style="fill:none;stroke:red;stroke-width:1px;stroke-linecap:butt;stroke-linejoin:miter;stroke-opacity:1" d="M 929.992,166.19 929.992,147.331 z" id="boundary" inkscape:connector-curvature="0" />
	<path style="fill:none;stroke:red;stroke-width:1px;stroke-linecap:butt;stroke-linejoin:miter;stroke-opacity:1" d="M 929.992,43.6046 948.852,36.0608 z" id="boundary" inkscape:connector-curvature="0" />
	<path style="fill:none;stroke:red;stroke-width:1px;stroke-linecap:butt;stroke-linejoin:miter;stroke-opacity:1" d="M 929.992,62.4639 948.852,64.3498 z" id="boundary" inkscape:connector-curvature="0" />
	<path style="fill:none;stroke:red;stroke-width:1px;stroke-linecap:butt;stroke-linejoin:miter;stroke-opacity:1" d="M 929.992,147.331 948.852,128.471 z" id="boundary" inkscape:connector-curvature="0" />
	<path style="fill:none;stroke:red;stroke-width:1px;stroke-linecap:butt;stroke-linejoin:miter;stroke-opacity:1" d="M 948.852,17.2015 948.852,36.0608 z" id="boundary" inkscape:connector-curvature="0" />
	<path style="fill:none;stroke:red;stroke-width:1px;stroke-linecap:butt;stroke-linejoin:miter;stroke-opacity:1" d="M 965.825,81.3232 948.852,90.7529 z" id="boundary" inkscape:connector-curvature="0" />
	<path style="fill:none;stroke:red;stroke-width:1px;stroke-linecap:butt;stroke-linejoin:miter;stroke-opacity:1" d="M 948.852,17.2015 967.711,19.0875 z" id="boundary" inkscape:connector-curvature="0" />
	<path style="fill:none;stroke:red;stroke-width:1px;stroke-linecap:butt;stroke-linejoin:miter;stroke-opacity:1" d="M 963.939,115.27 948.852,90.7529 z" id="boundary" inkscape:connector-curvature="0" />
	<path style="fill:none;stroke:red;stroke-width:1px;stroke-linecap:butt;stroke-linejoin:miter;stroke-opacity:1" d="M 980.913,70.0076 996,56.8061 z" id="boundary" inkscape:connector-curvature="0" />
	<path style="fill:none;stroke:red;stroke-width:1px;stroke-linecap:butt;stroke-linejoin:miter;stroke-opacity:1" d="M 984.684,41.7186 965.825,47.3764 z" id="boundary" inkscape:connector-curvature="0" />
	<path style="fill:none;stroke:red;stroke-width:1px;stroke-linecap:butt;stroke-linejoin:miter;stroke-opacity:1" d="M 980.913,70.0076 965.825,81.3232 z" id="boundary" inkscape:connector-curvature="0" />
	<path style="fill:none;stroke:red;stroke-width:1px;stroke-linecap:butt;stroke-linejoin:miter;stroke-opacity:1" d="M 996,56.8061 984.684,41.7186 z" id="boundary" inkscape:connector-curvature="0" />
	<circle cx="4" cy="801.749" r="4" fill="#0" id="circle0"/>
	<circle cx="13.4297" cy="848.897" r="4" fill="#0" id="circle1"/>
	<circle cx="19.0875" cy="786.662" r="4" fill="#0" id="circle2"/>
	<circle cx="28.5171" cy="833.81" r="4" fill="#0" id="circle3"/>
	<circle cx="34.1749" cy="797.977" r="4" fill="#0" id="circle4"/>
	<circle cx="37.9468" cy="777.232" r="4" fill="#0" id="circle5"/>
	<circle cx="37.9468" cy="816.837" r="4" fill="#0" id="circle6"/>
	<circle cx="41.7186" cy="877.186" r="4" fill="#0" id="circle7"/>
	<circle cx="47.3764" cy="833.81" r="4" fill="#0" id="circle8"/>
	<circle cx="51.1483" cy="726.312" r="4" fill="#0" id="circle9"/>
	<circle cx="51.1483" cy="858.327" r="4" fill="#0" id="circle10"/>
	<circle cx="53.0342" cy="762.144" r="4" fill="#0" id="circle11"/>
	<circle cx="56.8061" cy="816.837" r="4" fill="#0" id="circle12"/>
	<circle cx="60.5779" cy="882.844" r="4" fill="#0" id="circle13"/>
	<circle cx="70.0076" cy="720.654" r="4" fill="#0" id="circle14"/>
	<circle cx="70.0076" cy="839.468" r="4" fill="#0" id="circle15"/>
	<circle cx="71.8935" cy="752.715" r="4" fill="#0" id="circle16"/>
	<circle cx="73.7795" cy="807.407" r="4" fill="#0" id="circle17"/>
	<circle cx="75.6654" cy="871.529" r="4" fill="#0" id="circle18"/>
	<circle cx="81.3232" cy="705.567" r="4" fill="#0" id="circle19"/>
	<circle cx="85.0951" cy="731.97" r="4" fill="#0" id="circle20"/>
	<circle cx="90.7529" cy="854.555" r="4" fill="#0" id="circle21"/>
	<circle cx="96.4106" cy="692.365" r="4" fill="#0" id="circle22"/>
	<circle cx="98.2966" cy="873.414" r="4" fill="#0" id="circle23"/>
	<circle cx="107.726" cy="845.125" r="4" fill="#0" id="circle24"/>
	<circle cx="113.384" cy="682.935" r="4" fill="#0" id="circle25"/>
	<circle cx="117.156" cy="867.757" r="4" fill="#0" id="circle26"/>
	<circle cx="128.471" cy="667.848" r="4" fill="#0" id="circle27"/>
	<circle cx="132.243" cy="852.669" r="4" fill="#0" id="circle28"/>
	<circle cx="147.331" cy="658.418" r="4" fill="#0" id="circle29"/>
	<circle cx="151.103" cy="845.125" r="4" fill="#0" id="circle30"/>
	<circle cx="162.418" cy="645.217" r="4" fill="#0" id="circle31"/>
	<circle cx="168.076" cy="835.696" r="4" fill="#0" id="circle32"/>
	<circle cx="179.392" cy="635.787" r="4" fill="#0" id="circle33"/>
	<circle cx="185.049" cy="816.837" r="4" fill="#0" id="circle34"/>
	<circle cx="198.251" cy="626.357" r="4" fill="#0" id="circle35"/>
	<circle cx="203.909" cy="816.837" r="4" fill="#0" id="circle36"/>
	<circle cx="211.452" cy="603.726" r="4" fill="#0" id="circle37"/>
	<circle cx="220.882" cy="807.407" r="4" fill="#0" id="circle38"/>
	<circle cx="226.54" cy="588.639" r="4" fill="#0" id="circle39"/>
	<circle cx="237.856" cy="797.977" r="4" fill="#0" id="circle40"/>
	<circle cx="245.399" cy="579.209" r="4" fill="#0" id="circle41"/>
	<circle cx="256.715" cy="794.205" r="4" fill="#0" id="circle42"/>
	<circle cx="264.259" cy="569.779" r="4" fill="#0" id="circle43"/>
	<circle cx="275.574" cy="788.548" r="4" fill="#0" id="circle44"/>
	<circle cx="283.118" cy="569.779" r="4" fill="#0" id="circle45"/>
	<circle cx="294.433" cy="784.776" r="4" fill="#0" id="circle46"/>
	<circle cx="300.091" cy="560.35" r="4" fill="#0" id="circle47"/>
	<circle cx="313.293" cy="779.118" r="4" fill="#0" id="circle48"/>
	<circle cx="318.951" cy="552.806" r="4" fill="#0" id="circle49"/>
	<circle cx="330.266" cy="769.688" r="4" fill="#0" id="circle50"/>
	<circle cx="337.81" cy="543.376" r="4" fill="#0" id="circle51"/>
	<circle cx="349.125" cy="769.688" r="4" fill="#0" id="circle52"/>
	<circle cx="356.669" cy="533.947" r="4" fill="#0" id="circle53"/>
	<circle cx="367.985" cy="767.802" r="4" fill="#0" id="circle54"/>
	<circle cx="375.529" cy="524.517" r="4" fill="#0" id="circle55"/>
	<circle cx="386.844" cy="760.259" r="4" fill="#0" id="circle56"/>
	<circle cx="394.388" cy="522.631" r="4" fill="#0" id="circle57"/>
	<circle cx="403.817" cy="750.829" r="4" fill="#0" id="circle58"/>
	<circle cx="411.361" cy="513.202" r="4" fill="#0" id="circle59"/>
	<circle cx="420.791" cy="741.399" r="4" fill="#0" id="circle60"/>
	<circle cx="428.335" cy="424.563" r="4" fill="#0" id="circle61"/>
	<circle cx="428.335" cy="503.772" r="4" fill="#0" id="circle62"/>
	<circle cx="439.65" cy="488.684" r="4" fill="#0" id="circle63"/>
	<circle cx="439.65" cy="731.97" r="4" fill="#0" id="circle64"/>
	<circle cx="443.422" cy="409.475" r="4" fill="#0" id="circle65"/>
	<circle cx="447.194" cy="430.221" r="4" fill="#0" id="circle66"/>
	<circle cx="447.194" cy="449.08" r="4" fill="#0" id="circle67"/>
	<circle cx="452.852" cy="467.939" r="4" fill="#0" id="circle68"/>
	<circle cx="458.51" cy="722.54" r="4" fill="#0" id="circle69"/>
	<circle cx="460.395" cy="400.046" r="4" fill="#0" id="circle70"/>
	<circle cx="477.369" cy="390.616" r="4" fill="#0" id="circle71"/>
	<circle cx="477.369" cy="703.681" r="4" fill="#0" id="circle72"/>
	<circle cx="494.342" cy="694.251" r="4" fill="#0" id="circle73"/>
	<circle cx="496.228" cy="390.616" r="4" fill="#0" id="circle74"/>
	<circle cx="513.202" cy="688.593" r="4" fill="#0" id="circle75"/>
	<circle cx="515.087" cy="396.274" r="4" fill="#0" id="circle76"/>
	<circle cx="528.289" cy="673.506" r="4" fill="#0" id="circle77"/>
	<circle cx="532.061" cy="405.703" r="4" fill="#0" id="circle78"/>
	<circle cx="547.148" cy="664.076" r="4" fill="#0" id="circle79"/>
	<circle cx="550.92" cy="396.274" r="4" fill="#0" id="circle80"/>
	<circle cx="556.578" cy="645.217" r="4" fill="#0" id="circle81"/>
	<circle cx="560.35" cy="377.414" r="4" fill="#0" id="circle82"/>
	<circle cx="566.008" cy="628.243" r="4" fill="#0" id="circle83"/>
	<circle cx="575.437" cy="362.327" r="4" fill="#0" id="circle84"/>
	<circle cx="582.981" cy="637.673" r="4" fill="#0" id="circle85"/>
	<circle cx="584.867" cy="343.468" r="4" fill="#0" id="circle86"/>
	<circle cx="598.068" cy="320.837" r="4" fill="#0" id="circle87"/>
	<circle cx="601.84" cy="637.673" r="4" fill="#0" id="circle88"/>
	<circle cx="616.928" cy="311.407" r="4" fill="#0" id="circle89"/>
	<circle cx="620.7" cy="643.331" r="4" fill="#0" id="circle90"/>
	<circle cx="626.357" cy="292.548" r="4" fill="#0" id="circle91"/>
	<circle cx="635.787" cy="264.259" r="4" fill="#0" id="circle92"/>
	<circle cx="635.787" cy="656.532" r="4" fill="#0" id="circle93"/>
	<circle cx="645.217" cy="245.399" r="4" fill="#0" id="circle94"/>
	<circle cx="645.217" cy="673.506" r="4" fill="#0" id="circle95"/>
	<circle cx="654.646" cy="226.54" r="4" fill="#0" id="circle96"/>
	<circle cx="654.646" cy="690.479" r="4" fill="#0" id="circle97"/>
	<circle cx="664.076" cy="707.452" r="4" fill="#0" id="circle98"/>
	<circle cx="669.734" cy="211.452" r="4" fill="#0" id="circle99"/>
	<circle cx="673.506" cy="724.426" r="4" fill="#0" id="circle100"/>
	<circle cx="675.392" cy="533.947" r="4" fill="#0" id="circle101"/>
	<circle cx="675.392" cy="552.806" r="4" fill="#0" id="circle102"/>
	<circle cx="682.935" cy="741.399" r="4" fill="#0" id="circle103"/>
	<circle cx="684.821" cy="196.365" r="4" fill="#0" id="circle104"/>
	<circle cx="684.821" cy="569.779" r="4" fill="#0" id="circle105"/>
	<circle cx="692.365" cy="524.517" r="4" fill="#0" id="circle106"/>
	<circle cx="692.365" cy="758.373" r="4" fill="#0" id="circle107"/>
	<circle cx="694.251" cy="586.753" r="4" fill="#0" id="circle108"/>
	<circle cx="699.909" cy="183.163" r="4" fill="#0" id="circle109"/>
	<circle cx="703.681" cy="773.46" r="4" fill="#0" id="circle110"/>
	<circle cx="707.452" cy="513.202" r="4" fill="#0" id="circle111"/>
	<circle cx="709.338" cy="599.954" r="4" fill="#0" id="circle112"/>
	<circle cx="711.224" cy="160.532" r="4" fill="#0" id="circle113"/>
	<circle cx="711.224" cy="792.319" r="4" fill="#0" id="circle114"/>
	<circle cx="718.768" cy="616.928" r="4" fill="#0" id="circle115"/>
	<circle cx="726.312" cy="503.772" r="4" fill="#0" id="circle116"/>
	<circle cx="730.084" cy="151.103" r="4" fill="#0" id="circle117"/>
	<circle cx="730.084" cy="797.977" r="4" fill="#0" id="circle118"/>
	<circle cx="735.741" cy="484.913" r="4" fill="#0" id="circle119"/>
	<circle cx="735.741" cy="626.357" r="4" fill="#0" id="circle120"/>
	<circle cx="745.171" cy="136.015" r="4" fill="#0" id="circle121"/>
	<circle cx="748.943" cy="801.749" r="4" fill="#0" id="circle122"/>
	<circle cx="752.715" cy="635.787" r="4" fill="#0" id="circle123"/>
	<circle cx="754.601" cy="475.483" r="4" fill="#0" id="circle124"/>
	<circle cx="760.259" cy="120.928" r="4" fill="#0" id="circle125"/>
	<circle cx="764.03" cy="456.624" r="4" fill="#0" id="circle126"/>
	<circle cx="767.802" cy="648.989" r="4" fill="#0" id="circle127"/>
	<circle cx="767.802" cy="792.319" r="4" fill="#0" id="circle128"/>
	<circle cx="769.688" cy="102.068" r="4" fill="#0" id="circle129"/>
	<circle cx="779.118" cy="430.221" r="4" fill="#0" id="circle130"/>
	<circle cx="779.118" cy="664.076" r="4" fill="#0" id="circle131"/>
	<circle cx="782.89" cy="777.232" r="4" fill="#0" id="circle132"/>
	<circle cx="784.776" cy="88.8669" r="4" fill="#0" id="circle133"/>
	<circle cx="792.319" cy="760.259" r="4" fill="#0" id="circle134"/>
	<circle cx="794.205" cy="417.019" r="4" fill="#0" id="circle135"/>
	<circle cx="796.091" cy="673.506" r="4" fill="#0" id="circle136"/>
	<circle cx="797.977" cy="73.7795" r="4" fill="#0" id="circle137"/>
	<circle cx="803.635" cy="398.16" r="4" fill="#0" id="circle138"/>
	<circle cx="807.407" cy="54.9202" r="4" fill="#0" id="circle139"/>
	<circle cx="811.179" cy="684.821" r="4" fill="#0" id="circle140"/>
	<circle cx="811.179" cy="758.373" r="4" fill="#0" id="circle141"/>
	<circle cx="816.837" cy="71.8935" r="4" fill="#0" id="circle142"/>
	<circle cx="816.837" cy="373.643" r="4" fill="#0" id="circle143"/>
	<circle cx="822.494" cy="41.7186" r="4" fill="#0" id="circle144"/>
	<circle cx="830.038" cy="692.365" r="4" fill="#0" id="circle145"/>
	<circle cx="830.038" cy="748.943" r="4" fill="#0" id="circle146"/>
	<circle cx="831.924" cy="58.692" r="4" fill="#0" id="circle147"/>
	<circle cx="835.696" cy="79.4373" r="4" fill="#0" id="circle148"/>
	<circle cx="835.696" cy="354.783" r="4" fill="#0" id="circle149"/>
	<circle cx="839.468" cy="32.289" r="4" fill="#0" id="circle150"/>
	<circle cx="839.468" cy="730.084" r="4" fill="#0" id="circle151"/>
	<circle cx="843.24" cy="707.452" r="4" fill="#0" id="circle152"/>
	<circle cx="845.125" cy="317.065" r="4" fill="#0" id="circle153"/>
	<circle cx="845.125" cy="335.924" r="4" fill="#0" id="circle154"/>
	<circle cx="852.669" cy="66.2357" r="4" fill="#0" id="circle155"/>
	<circle cx="860.213" cy="303.863" r="4" fill="#0" id="circle156"/>
	<circle cx="862.099" cy="47.3764" r="4" fill="#0" id="circle157"/>
	<circle cx="869.643" cy="285.004" r="4" fill="#0" id="circle158"/>
	<circle cx="873.414" cy="241.627" r="4" fill="#0" id="circle159"/>
	<circle cx="873.414" cy="260.487" r="4" fill="#0" id="circle160"/>
	<circle cx="877.186" cy="32.289" r="4" fill="#0" id="circle161"/>
	<circle cx="888.502" cy="228.426" r="4" fill="#0" id="circle162"/>
	<circle cx="892.274" cy="17.2015" r="4" fill="#0" id="circle163"/>
	<circle cx="897.932" cy="209.567" r="4" fill="#0" id="circle164"/>
	<circle cx="907.361" cy="4" r="4" fill="#0" id="circle165"/>
	<circle cx="911.133" cy="22.8593" r="4" fill="#0" id="circle166"/>
	<circle cx="911.133" cy="175.62" r="4" fill="#0" id="circle167"/>
	<circle cx="911.133" cy="194.479" r="4" fill="#0" id="circle168"/>
	<circle cx="929.992" cy="22.8593" r="4" fill="#0" id="circle169"/>
	<circle cx="929.992" cy="43.6046" r="4" fill="#0" id="circle170"/>
	<circle cx="929.992" cy="62.4639" r="4" fill="#0" id="circle171"/>
	<circle cx="929.992" cy="147.331" r="4" fill="#0" id="circle172"/>
	<circle cx="929.992" cy="166.19" r="4" fill="#0" id="circle173"/>
	<circle cx="948.852" cy="17.2015" r="4" fill="#0" id="circle174"/>
	<circle cx="948.852" cy="36.0608" r="4" fill="#0" id="circle175"/>
	<circle cx="948.852" cy="64.3498" r="4" fill="#0" id="circle176"/>
	<circle cx="948.852" cy="90.7529" r="4" fill="#0" id="circle177"/>
	<circle cx="948.852" cy="128.471" r="4" fill="#0" id="circle178"/>
	<circle cx="963.939" cy="115.27" r="4" fill="#0" id="circle179"/>
	<circle cx="965.825" cy="47.3764" r="4" fill="#0" id="circle180"/>
	<circle cx="965.825" cy="81.3232" r="4" fill="#0" id="circle181"/>
	<circle cx="967.711" cy="19.0875" r="4" fill="#0" id="circle182"/>
	<circle cx="980.913" cy="70.0076" r="4" fill="#0" id="circle183"/>
	<circle cx="984.684" cy="41.7186" r="4" fill="#0" id="circle184"/>
	<circle cx="996" cy="56.8061" r="4" fill="#0" id="circle185"/>
	</g>
</svg>