<?xml version="1.0" encoding="UTF-8" standalone="no"?>
<!-- Created with CurveBenchmark -->
<svg
	xmlns:dc="http://purl.org/dc/elements/1.1/"
	xmlns:cc="http://creativecommons.org/ns#"
	xmlns:rdf="http://www.w3.org/1999/02/22-rdf-syntax-ns#"
	xmlns:svg="http://www.w3.org/2000/svg"
	xmlns="http://www.w3.org/2000/svg"
	xmlns:sodipodi="http://sodipodi.sourceforge.net/DTD/sodipodi-0.dtd"
	xmlns:inkscape="http://www.inkscape.org/namespaces/inkscape"
	width="1000"
	height="1000"
	id="svg2"
	version="1.1"
	sodipodi:docname="manifold/peel-fish135.png.txt">
<defs
	id="defs4" />
<metadata
	id="metadata7">
	<rdf:RDF>
		<cc:Work
			rdf:about="">
			<dc:format>image/svg+xml</dc:format>
			<dc:type
				rdf:resource="http://purl.org/dc/dcmitype/StillImage" />
			<dc:title></dc:title>
		</cc:Work>
	</rdf:RDF>
</metadata>
<g
	inkscape:label="Layer 1"
	inkscape:groupmode="layer"
	id="layer1">
	<path style="fill:none;stroke:red;stroke-width:1px;stroke-linecap:butt;stroke-linejoin:miter;stroke-opacity:1" d="M 15.6706,249.082 19.5608,287.984 z" id="boundary" inkscape:connector-curvature="0" />
	<path style="fill:none;stroke:red;stroke-width:1px;stroke-linecap:butt;stroke-linejoin:miter;stroke-opacity:1" d="M 19.5608,287.984 19.5608,326.886 z" id="boundary" inkscape:connector-curvature="0" />
	<path style="fill:none;stroke:red;stroke-width:1px;stroke-linecap:butt;stroke-linejoin:miter;stroke-opacity:1" d="M 7.8902,210.18 4,171.278 z" id="boundary" inkscape:connector-curvature="0" />
	<path style="fill:none;stroke:red;stroke-width:1px;stroke-linecap:butt;stroke-linejoin:miter;stroke-opacity:1" d="M 564.188,610.871 595.31,587.529 z" id="boundary" inkscape:connector-curvature="0" />
	<path style="fill:none;stroke:red;stroke-width:1px;stroke-linecap:butt;stroke-linejoin:miter;stroke-opacity:1" d="M 19.5608,365.788 4,428.031 z" id="boundary" inkscape:connector-curvature="0" />
	<path style="fill:none;stroke:red;stroke-width:1px;stroke-linecap:butt;stroke-linejoin:miter;stroke-opacity:1" d="M 4,171.278 42.902,167.388 z" id="boundary" inkscape:connector-curvature="0" />
	<path style="fill:none;stroke:red;stroke-width:1px;stroke-linecap:butt;stroke-linejoin:miter;stroke-opacity:1" d="M 7.8902,210.18 15.6706,249.082 z" id="boundary" inkscape:connector-curvature="0" />
	<path style="fill:none;stroke:red;stroke-width:1px;stroke-linecap:butt;stroke-linejoin:miter;stroke-opacity:1" d="M 81.8039,179.059 42.902,167.388 z" id="boundary" inkscape:connector-curvature="0" />
	<path style="fill:none;stroke:red;stroke-width:1px;stroke-linecap:butt;stroke-linejoin:miter;stroke-opacity:1" d="M 62.3529,459.153 101.255,443.592 z" id="boundary" inkscape:connector-curvature="0" />
	<path style="fill:none;stroke:red;stroke-width:1px;stroke-linecap:butt;stroke-linejoin:miter;stroke-opacity:1" d="M 19.5608,326.886 19.5608,365.788 z" id="boundary" inkscape:connector-curvature="0" />
	<path style="fill:none;stroke:red;stroke-width:1px;stroke-linecap:butt;stroke-linejoin:miter;stroke-opacity:1" d="M 81.8039,179.059 112.925,202.4 z" id="boundary" inkscape:connector-curvature="0" />
	<path style="fill:none;stroke:red;stroke-width:1px;stroke-linecap:butt;stroke-linejoin:miter;stroke-opacity:1" d="M 4,428.031 23.451,463.043 z" id="boundary" inkscape:connector-curvature="0" />
	<path style="fill:none;stroke:red;stroke-width:1px;stroke-linecap:butt;stroke-linejoin:miter;stroke-opacity:1" d="M 23.451,463.043 62.3529,459.153 z" id="boundary" inkscape:connector-curvature="0" />
	<path style="fill:none;stroke:red;stroke-width:1px;stroke-linecap:butt;stroke-linejoin:miter;stroke-opacity:1" d="M 101.255,443.592 132.376,420.251 z" id="boundary" inkscape:connector-curvature="0" />
	<path style="fill:none;stroke:red;stroke-width:1px;stroke-linecap:butt;stroke-linejoin:miter;stroke-opacity:1" d="M 147.937,221.851 112.925,202.4 z" id="boundary" inkscape:connector-curvature="0" />
	<path style="fill:none;stroke:red;stroke-width:1px;stroke-linecap:butt;stroke-linejoin:miter;stroke-opacity:1" d="M 245.192,494.165 284.094,501.945 z" id="boundary" inkscape:connector-curvature="0" />
	<path style="fill:none;stroke:red;stroke-width:1px;stroke-linecap:butt;stroke-linejoin:miter;stroke-opacity:1" d="M 132.376,420.251 163.498,396.91 z" id="boundary" inkscape:connector-curvature="0" />
	<path style="fill:none;stroke:red;stroke-width:1px;stroke-linecap:butt;stroke-linejoin:miter;stroke-opacity:1" d="M 179.059,245.192 147.937,221.851 z" id="boundary" inkscape:connector-curvature="0" />
	<path style="fill:none;stroke:red;stroke-width:1px;stroke-linecap:butt;stroke-linejoin:miter;stroke-opacity:1" d="M 322.996,494.165 284.094,501.945 z" id="boundary" inkscape:connector-curvature="0" />
	<path style="fill:none;stroke:red;stroke-width:1px;stroke-linecap:butt;stroke-linejoin:miter;stroke-opacity:1" d="M 163.498,396.91 198.51,377.459 z" id="boundary" inkscape:connector-curvature="0" />
	<path style="fill:none;stroke:red;stroke-width:1px;stroke-linecap:butt;stroke-linejoin:miter;stroke-opacity:1" d="M 198.51,377.459 214.071,416.361 z" id="boundary" inkscape:connector-curvature="0" />
	<path style="fill:none;stroke:red;stroke-width:1px;stroke-linecap:butt;stroke-linejoin:miter;stroke-opacity:1" d="M 214.071,416.361 229.631,455.263 z" id="boundary" inkscape:connector-curvature="0" />
	<path style="fill:none;stroke:red;stroke-width:1px;stroke-linecap:butt;stroke-linejoin:miter;stroke-opacity:1" d="M 179.059,245.192 214.071,225.741 z" id="boundary" inkscape:connector-curvature="0" />
	<path style="fill:none;stroke:red;stroke-width:1px;stroke-linecap:butt;stroke-linejoin:miter;stroke-opacity:1" d="M 214.071,225.741 237.412,194.62 z" id="boundary" inkscape:connector-curvature="0" />
	<path style="fill:none;stroke:red;stroke-width:1px;stroke-linecap:butt;stroke-linejoin:miter;stroke-opacity:1" d="M 229.631,455.263 245.192,494.165 z" id="boundary" inkscape:connector-curvature="0" />
	<path style="fill:none;stroke:red;stroke-width:1px;stroke-linecap:butt;stroke-linejoin:miter;stroke-opacity:1" d="M 326.886,105.145 365.788,109.035 z" id="boundary" inkscape:connector-curvature="0" />
	<path style="fill:none;stroke:red;stroke-width:1px;stroke-linecap:butt;stroke-linejoin:miter;stroke-opacity:1" d="M 326.886,105.145 291.875,124.596 z" id="boundary" inkscape:connector-curvature="0" />
	<path style="fill:none;stroke:red;stroke-width:1px;stroke-linecap:butt;stroke-linejoin:miter;stroke-opacity:1" d="M 237.412,194.62 260.753,155.718 z" id="boundary" inkscape:connector-curvature="0" />
	<path style="fill:none;stroke:red;stroke-width:1px;stroke-linecap:butt;stroke-linejoin:miter;stroke-opacity:1" d="M 478.604,478.604 439.702,478.604 z" id="boundary" inkscape:connector-curvature="0" />
	<path style="fill:none;stroke:red;stroke-width:1px;stroke-linecap:butt;stroke-linejoin:miter;stroke-opacity:1" d="M 365.788,109.035 400.8,128.486 z" id="boundary" inkscape:connector-curvature="0" />
	<path style="fill:none;stroke:red;stroke-width:1px;stroke-linecap:butt;stroke-linejoin:miter;stroke-opacity:1" d="M 260.753,155.718 291.875,124.596 z" id="boundary" inkscape:connector-curvature="0" />
	<path style="fill:none;stroke:red;stroke-width:1px;stroke-linecap:butt;stroke-linejoin:miter;stroke-opacity:1" d="M 361.898,478.604 400.8,478.604 z" id="boundary" inkscape:connector-curvature="0" />
	<path style="fill:none;stroke:red;stroke-width:1px;stroke-linecap:butt;stroke-linejoin:miter;stroke-opacity:1" d="M 361.898,478.604 322.996,494.165 z" id="boundary" inkscape:connector-curvature="0" />
	<path style="fill:none;stroke:red;stroke-width:1px;stroke-linecap:butt;stroke-linejoin:miter;stroke-opacity:1" d="M 400.8,478.604 439.702,478.604 z" id="boundary" inkscape:connector-curvature="0" />
	<path style="fill:none;stroke:red;stroke-width:1px;stroke-linecap:butt;stroke-linejoin:miter;stroke-opacity:1" d="M 494.165,606.98 494.165,568.078 z" id="boundary" inkscape:connector-curvature="0" />
	<path style="fill:none;stroke:red;stroke-width:1px;stroke-linecap:butt;stroke-linejoin:miter;stroke-opacity:1" d="M 400.8,128.486 439.702,109.035 z" id="boundary" inkscape:connector-curvature="0" />
	<path style="fill:none;stroke:red;stroke-width:1px;stroke-linecap:butt;stroke-linejoin:miter;stroke-opacity:1" d="M 439.702,109.035 470.824,77.9137 z" id="boundary" inkscape:connector-curvature="0" />
	<path style="fill:none;stroke:red;stroke-width:1px;stroke-linecap:butt;stroke-linejoin:miter;stroke-opacity:1" d="M 470.824,77.9137 509.725,62.3529 z" id="boundary" inkscape:connector-curvature="0" />
	<path style="fill:none;stroke:red;stroke-width:1px;stroke-linecap:butt;stroke-linejoin:miter;stroke-opacity:1" d="M 501.945,529.176 517.506,486.384 z" id="boundary" inkscape:connector-curvature="0" />
	<path style="fill:none;stroke:red;stroke-width:1px;stroke-linecap:butt;stroke-linejoin:miter;stroke-opacity:1" d="M 540.847,39.0118 509.725,62.3529 z" id="boundary" inkscape:connector-curvature="0" />
	<path style="fill:none;stroke:red;stroke-width:1px;stroke-linecap:butt;stroke-linejoin:miter;stroke-opacity:1" d="M 494.165,606.98 525.286,630.322 z" id="boundary" inkscape:connector-curvature="0" />
	<path style="fill:none;stroke:red;stroke-width:1px;stroke-linecap:butt;stroke-linejoin:miter;stroke-opacity:1" d="M 494.165,568.078 501.945,529.176 z" id="boundary" inkscape:connector-curvature="0" />
	<path style="fill:none;stroke:red;stroke-width:1px;stroke-linecap:butt;stroke-linejoin:miter;stroke-opacity:1" d="M 478.604,478.604 517.506,486.384 z" id="boundary" inkscape:connector-curvature="0" />
	<path style="fill:none;stroke:red;stroke-width:1px;stroke-linecap:butt;stroke-linejoin:miter;stroke-opacity:1" d="M 669.224,42.902 700.345,70.1333 z" id="boundary" inkscape:connector-curvature="0" />
	<path style="fill:none;stroke:red;stroke-width:1px;stroke-linecap:butt;stroke-linejoin:miter;stroke-opacity:1" d="M 700.345,70.1333 700.345,109.035 z" id="boundary" inkscape:connector-curvature="0" />
	<path style="fill:none;stroke:red;stroke-width:1px;stroke-linecap:butt;stroke-linejoin:miter;stroke-opacity:1" d="M 525.286,630.322 564.188,610.871 z" id="boundary" inkscape:connector-curvature="0" />
	<path style="fill:none;stroke:red;stroke-width:1px;stroke-linecap:butt;stroke-linejoin:miter;stroke-opacity:1" d="M 595.31,587.529 634.212,591.42 z" id="boundary" inkscape:connector-curvature="0" />
	<path style="fill:none;stroke:red;stroke-width:1px;stroke-linecap:butt;stroke-linejoin:miter;stroke-opacity:1" d="M 634.212,591.42 657.553,622.541 z" id="boundary" inkscape:connector-curvature="0" />
	<path style="fill:none;stroke:red;stroke-width:1px;stroke-linecap:butt;stroke-linejoin:miter;stroke-opacity:1" d="M 657.553,4 669.224,42.902 z" id="boundary" inkscape:connector-curvature="0" />
	<path style="fill:none;stroke:red;stroke-width:1px;stroke-linecap:butt;stroke-linejoin:miter;stroke-opacity:1" d="M 657.553,4 618.651,7.8902 z" id="boundary" inkscape:connector-curvature="0" />
	<path style="fill:none;stroke:red;stroke-width:1px;stroke-linecap:butt;stroke-linejoin:miter;stroke-opacity:1" d="M 540.847,39.0118 579.749,23.451 z" id="boundary" inkscape:connector-curvature="0" />
	<path style="fill:none;stroke:red;stroke-width:1px;stroke-linecap:butt;stroke-linejoin:miter;stroke-opacity:1" d="M 618.651,7.8902 579.749,23.451 z" id="boundary" inkscape:connector-curvature="0" />
	<path style="fill:none;stroke:red;stroke-width:1px;stroke-linecap:butt;stroke-linejoin:miter;stroke-opacity:1" d="M 657.553,622.541 696.455,626.431 z" id="boundary" inkscape:connector-curvature="0" />
	<path style="fill:none;stroke:red;stroke-width:1px;stroke-linecap:butt;stroke-linejoin:miter;stroke-opacity:1" d="M 700.345,109.035 727.576,140.157 z" id="boundary" inkscape:connector-curvature="0" />
	<path style="fill:none;stroke:red;stroke-width:1px;stroke-linecap:butt;stroke-linejoin:miter;stroke-opacity:1" d="M 844.282,455.263 883.184,439.702 z" id="boundary" inkscape:connector-curvature="0" />
	<path style="fill:none;stroke:red;stroke-width:1px;stroke-linecap:butt;stroke-linejoin:miter;stroke-opacity:1" d="M 770.369,486.384 809.271,474.714 z" id="boundary" inkscape:connector-curvature="0" />
	<path style="fill:none;stroke:red;stroke-width:1px;stroke-linecap:butt;stroke-linejoin:miter;stroke-opacity:1" d="M 696.455,626.431 723.686,591.42 z" id="boundary" inkscape:connector-curvature="0" />
	<path style="fill:none;stroke:red;stroke-width:1px;stroke-linecap:butt;stroke-linejoin:miter;stroke-opacity:1" d="M 739.247,552.518 739.247,513.616 z" id="boundary" inkscape:connector-curvature="0" />
	<path style="fill:none;stroke:red;stroke-width:1px;stroke-linecap:butt;stroke-linejoin:miter;stroke-opacity:1" d="M 739.247,552.518 723.686,591.42 z" id="boundary" inkscape:connector-curvature="0" />
	<path style="fill:none;stroke:red;stroke-width:1px;stroke-linecap:butt;stroke-linejoin:miter;stroke-opacity:1" d="M 739.247,513.616 770.369,486.384 z" id="boundary" inkscape:connector-curvature="0" />
	<path style="fill:none;stroke:red;stroke-width:1px;stroke-linecap:butt;stroke-linejoin:miter;stroke-opacity:1" d="M 727.576,140.157 766.478,147.937 z" id="boundary" inkscape:connector-curvature="0" />
	<path style="fill:none;stroke:red;stroke-width:1px;stroke-linecap:butt;stroke-linejoin:miter;stroke-opacity:1" d="M 809.271,474.714 844.282,455.263 z" id="boundary" inkscape:connector-curvature="0" />
	<path style="fill:none;stroke:red;stroke-width:1px;stroke-linecap:butt;stroke-linejoin:miter;stroke-opacity:1" d="M 766.478,147.937 805.38,163.498 z" id="boundary" inkscape:connector-curvature="0" />
	<path style="fill:none;stroke:red;stroke-width:1px;stroke-linecap:butt;stroke-linejoin:miter;stroke-opacity:1" d="M 883.184,439.702 922.086,424.141 z" id="boundary" inkscape:connector-curvature="0" />
	<path style="fill:none;stroke:red;stroke-width:1px;stroke-linecap:butt;stroke-linejoin:miter;stroke-opacity:1" d="M 805.38,163.498 844.282,179.059 z" id="boundary" inkscape:connector-curvature="0" />
	<path style="fill:none;stroke:red;stroke-width:1px;stroke-linecap:butt;stroke-linejoin:miter;stroke-opacity:1" d="M 844.282,179.059 883.184,194.62 z" id="boundary" inkscape:connector-curvature="0" />
	<path style="fill:none;stroke:red;stroke-width:1px;stroke-linecap:butt;stroke-linejoin:miter;stroke-opacity:1" d="M 883.184,194.62 918.196,214.071 z" id="boundary" inkscape:connector-curvature="0" />
	<path style="fill:none;stroke:red;stroke-width:1px;stroke-linecap:butt;stroke-linejoin:miter;stroke-opacity:1" d="M 918.196,214.071 949.318,241.302 z" id="boundary" inkscape:connector-curvature="0" />
	<path style="fill:none;stroke:red;stroke-width:1px;stroke-linecap:butt;stroke-linejoin:miter;stroke-opacity:1" d="M 922.086,424.141 949.318,389.129 z" id="boundary" inkscape:connector-curvature="0" />
	<path style="fill:none;stroke:red;stroke-width:1px;stroke-linecap:butt;stroke-linejoin:miter;stroke-opacity:1" d="M 972.659,358.008 949.318,389.129 z" id="boundary" inkscape:connector-curvature="0" />
	<path style="fill:none;stroke:red;stroke-width:1px;stroke-linecap:butt;stroke-linejoin:miter;stroke-opacity:1" d="M 949.318,241.302 980.439,264.643 z" id="boundary" inkscape:connector-curvature="0" />
	<path style="fill:none;stroke:red;stroke-width:1px;stroke-linecap:butt;stroke-linejoin:miter;stroke-opacity:1" d="M 980.439,264.643 996,319.106 z" id="boundary" inkscape:connector-curvature="0" />
	<path style="fill:none;stroke:red;stroke-width:1px;stroke-linecap:butt;stroke-linejoin:miter;stroke-opacity:1" d="M 996,319.106 972.659,358.008 z" id="boundary" inkscape:connector-curvature="0" />
	<circle cx="4" cy="171.278" r="4" fill="#0" id="circle0"/>
	<circle cx="4" cy="428.031" r="4" fill="#0" id="circle1"/>
	<circle cx="7.8902" cy="210.18" r="4" fill="#0" id="circle2"/>
	<circle cx="15.6706" cy="249.082" r="4" fill="#0" id="circle3"/>
	<circle cx="19.5608" cy="287.984" r="4" fill="#0" id="circle4"/>
	<circle cx="19.5608" cy="326.886" r="4" fill="#0" id="circle5"/>
	<circle cx="19.5608" cy="365.788" r="4" fill="#0" id="circle6"/>
	<circle cx="23.451" cy="463.043" r="4" fill="#0" id="circle7"/>
	<circle cx="42.902" cy="167.388" r="4" fill="#0" id="circle8"/>
	<circle cx="62.3529" cy="459.153" r="4" fill="#0" id="circle9"/>
	<circle cx="81.8039" cy="179.059" r="4" fill="#0" id="circle10"/>
	<circle cx="101.255" cy="443.592" r="4" fill="#0" id="circle11"/>
	<circle cx="112.925" cy="202.4" r="4" fill="#0" id="circle12"/>
	<circle cx="132.376" cy="420.251" r="4" fill="#0" id="circle13"/>
	<circle cx="147.937" cy="221.851" r="4" fill="#0" id="circle14"/>
	<circle cx="163.498" cy="396.91" r="4" fill="#0" id="circle15"/>
	<circle cx="179.059" cy="245.192" r="4" fill="#0" id="circle16"/>
	<circle cx="198.51" cy="377.459" r="4" fill="#0" id="circle17"/>
	<circle cx="214.071" cy="225.741" r="4" fill="#0" id="circle18"/>
	<circle cx="214.071" cy="416.361" r="4" fill="#0" id="circle19"/>
	<circle cx="229.631" cy="455.263" r="4" fill="#0" id="circle20"/>
	<circle cx="237.412" cy="194.62" r="4" fill="#0" id="circle21"/>
	<circle cx="245.192" cy="494.165" r="4" fill="#0" id="circle22"/>
	<circle cx="260.753" cy="155.718" r="4" fill="#0" id="circle23"/>
	<circle cx="284.094" cy="501.945" r="4" fill="#0" id="circle24"/>
	<circle cx="291.875" cy="124.596" r="4" fill="#0" id="circle25"/>
	<circle cx="322.996" cy="494.165" r="4" fill="#0" id="circle26"/>
	<circle cx="326.886" cy="105.145" r="4" fill="#0" id="circle27"/>
	<circle cx="361.898" cy="478.604" r="4" fill="#0" id="circle28"/>
	<circle cx="365.788" cy="109.035" r="4" fill="#0" id="circle29"/>
	<circle cx="400.8" cy="128.486" r="4" fill="#0" id="circle30"/>
	<circle cx="400.8" cy="478.604" r="4" fill="#0" id="circle31"/>
	<circle cx="439.702" cy="109.035" r="4" fill="#0" id="circle32"/>
	<circle cx="439.702" cy="478.604" r="4" fill="#0" id="circle33"/>
	<circle cx="470.824" cy="77.9137" r="4" fill="#0" id="circle34"/>
	<circle cx="478.604" cy="478.604" r="4" fill="#0" id="circle35"/>
	<circle cx="494.165" cy="568.078" r="4" fill="#0" id="circle36"/>
	<circle cx="494.165" cy="606.98" r="4" fill="#0" id="circle37"/>
	<circle cx="501.945" cy="529.176" r="4" fill="#0" id="circle38"/>
	<circle cx="509.725" cy="62.3529" r="4" fill="#0" id="circle39"/>
	<circle cx="517.506" cy="486.384" r="4" fill="#0" id="circle40"/>
	<circle cx="525.286" cy="630.322" r="4" fill="#0" id="circle41"/>
	<circle cx="540.847" cy="39.0118" r="4" fill="#0" id="circle42"/>
	<circle cx="564.188" cy="610.871" r="4" fill="#0" id="circle43"/>
	<circle cx="579.749" cy="23.451" r="4" fill="#0" id="circle44"/>
	<circle cx="595.31" cy="587.529" r="4" fill="#0" id="circle45"/>
	<circle cx="618.651" cy="7.8902" r="4" fill="#0" id="circle46"/>
	<circle cx="634.212" cy="591.42" r="4" fill="#0" id="circle47"/>
	<circle cx="657.553" cy="4" r="4" fill="#0" id="circle48"/>
	<circle cx="657.553" cy="622.541" r="4" fill="#0" id="circle49"/>
	<circle cx="669.224" cy="42.902" r="4" fill="#0" id="circle50"/>
	<circle cx="696.455" cy="626.431" r="4" fill="#0" id="circle51"/>
	<circle cx="700.345" cy="70.1333" r="4" fill="#0" id="circle52"/>
	<circle cx="700.345" cy="109.035" r="4" fill="#0" id="circle53"/>
	<circle cx="723.686" cy="591.42" r="4" fill="#0" id="circle54"/>
	<circle cx="727.576" cy="140.157" r="4" fill="#0" id="circle55"/>
	<circle cx="739.247" cy="513.616" r="4" fill="#0" id="circle56"/>
	<circle cx="739.247" cy="552.518" r="4" fill="#0" id="circle57"/>
	<circle cx="766.478" cy="147.937" r="4" fill="#0" id="circle58"/>
	<circle cx="770.369" cy="486.384" r="4" fill="#0" id="circle59"/>
	<circle cx="805.38" cy="163.498" r="4" fill="#0" id="circle60"/>
	<circle cx="809.271" cy="474.714" r="4" fill="#0" id="circle61"/>
	<circle cx="844.282" cy="179.059" r="4" fill="#0" id="circle62"/>
	<circle cx="844.282" cy="455.263" r="4" fill="#0" id="circle63"/>
	<circle cx="883.184" cy="194.62" r="4" fill="#0" id="circle64"/>
	<circle cx="883.184" cy="439.702" r="4" fill="#0" id="circle65"/>
	<circle cx="918.196" cy="214.071" r="4" fill="#0" id="circle66"/>
	<circle cx="922.086" cy="424.141" r="4" fill="#0" id="circle67"/>
	<circle cx="949.318" cy="241.302" r="4" fill="#0" id="circle68"/>
	<circle cx="949.318" cy="389.129" r="4" fill="#0" id="circle69"/>
	<circle cx="972.659" cy="358.008" r="4" fill="#0" id="circle70"/>
	<circle cx="980.439" cy="264.643" r="4" fill="#0" id="circle71"/>
	<circle cx="996" cy="319.106" r="4" fill="#0" id="circle72"/>
	</g>
</svg>