<?xml version="1.0" encoding="UTF-8" standalone="no"?>
<!-- Created with CurveBenchmark -->
<svg
	xmlns:dc="http://purl.org/dc/elements/1.1/"
	xmlns:cc="http://creativecommons.org/ns#"
	xmlns:rdf="http://www.w3.org/1999/02/22-rdf-syntax-ns#"
	xmlns:svg="http://www.w3.org/2000/svg"
	xmlns="http://www.w3.org/2000/svg"
	xmlns:sodipodi="http://sodipodi.sourceforge.net/DTD/sodipodi-0.dtd"
	xmlns:inkscape="http://www.inkscape.org/namespaces/inkscape"
	width="1000"
	height="1000"
	id="svg2"
	version="1.1"
	sodipodi:docname="manifold/peel-elephant12.png.txt">
<defs
	id="defs4" />
<metadata
	id="metadata7">
	<rdf:RDF>
		<cc:Work
			rdf:about="">
			<dc:format>image/svg+xml</dc:format>
			<dc:type
				rdf:resource="http://purl.org/dc/dcmitype/StillImage" />
			<dc:title></dc:title>
		</cc:Work>
	</rdf:RDF>
</metadata>
<g
	inkscape:label="Layer 1"
	inkscape:groupmode="layer"
	id="layer1">
	<path style="fill:none;stroke:red;stroke-width:1px;stroke-linecap:butt;stroke-linejoin:miter;stroke-opacity:1" d="M 53.5201,133.391 53.5201,149.366 z" id="boundary" inkscape:connector-curvature="0" />
	<path style="fill:none;stroke:red;stroke-width:1px;stroke-linecap:butt;stroke-linejoin:miter;stroke-opacity:1" d="M 11.9871,112.625 4,136.586 z" id="boundary" inkscape:connector-curvature="0" />
	<path style="fill:none;stroke:red;stroke-width:1px;stroke-linecap:butt;stroke-linejoin:miter;stroke-opacity:1" d="M 11.9871,166.937 4,152.56 z" id="boundary" inkscape:connector-curvature="0" />
	<path style="fill:none;stroke:red;stroke-width:1px;stroke-linecap:butt;stroke-linejoin:miter;stroke-opacity:1" d="M 4,136.586 4,152.56 z" id="boundary" inkscape:connector-curvature="0" />
	<path style="fill:none;stroke:red;stroke-width:1px;stroke-linecap:butt;stroke-linejoin:miter;stroke-opacity:1" d="M 27.9614,80.6763 43.9356,75.8841 z" id="boundary" inkscape:connector-curvature="0" />
	<path style="fill:none;stroke:red;stroke-width:1px;stroke-linecap:butt;stroke-linejoin:miter;stroke-opacity:1" d="M 27.9614,80.6763 19.9742,96.6506 z" id="boundary" inkscape:connector-curvature="0" />
	<path style="fill:none;stroke:red;stroke-width:1px;stroke-linecap:butt;stroke-linejoin:miter;stroke-opacity:1" d="M 24.7665,197.288 19.9742,181.314 z" id="boundary" inkscape:connector-curvature="0" />
	<path style="fill:none;stroke:red;stroke-width:1px;stroke-linecap:butt;stroke-linejoin:miter;stroke-opacity:1" d="M 19.9742,181.314 11.9871,166.937 z" id="boundary" inkscape:connector-curvature="0" />
	<path style="fill:none;stroke:red;stroke-width:1px;stroke-linecap:butt;stroke-linejoin:miter;stroke-opacity:1" d="M 11.9871,112.625 19.9742,96.6506 z" id="boundary" inkscape:connector-curvature="0" />
	<path style="fill:none;stroke:red;stroke-width:1px;stroke-linecap:butt;stroke-linejoin:miter;stroke-opacity:1" d="M 39.1433,205.275 24.7665,197.288 z" id="boundary" inkscape:connector-curvature="0" />
	<path style="fill:none;stroke:red;stroke-width:1px;stroke-linecap:butt;stroke-linejoin:miter;stroke-opacity:1" d="M 53.5201,63.1047 43.9356,75.8841 z" id="boundary" inkscape:connector-curvature="0" />
	<path style="fill:none;stroke:red;stroke-width:1px;stroke-linecap:butt;stroke-linejoin:miter;stroke-opacity:1" d="M 53.5201,63.1047 69.4944,59.9098 z" id="boundary" inkscape:connector-curvature="0" />
	<path style="fill:none;stroke:red;stroke-width:1px;stroke-linecap:butt;stroke-linejoin:miter;stroke-opacity:1" d="M 53.5201,149.366 61.5072,163.742 z" id="boundary" inkscape:connector-curvature="0" />
	<path style="fill:none;stroke:red;stroke-width:1px;stroke-linecap:butt;stroke-linejoin:miter;stroke-opacity:1" d="M 61.5072,117.417 75.8841,125.404 z" id="boundary" inkscape:connector-curvature="0" />
	<path style="fill:none;stroke:red;stroke-width:1px;stroke-linecap:butt;stroke-linejoin:miter;stroke-opacity:1" d="M 61.5072,117.417 53.5201,133.391 z" id="boundary" inkscape:connector-curvature="0" />
	<path style="fill:none;stroke:red;stroke-width:1px;stroke-linecap:butt;stroke-linejoin:miter;stroke-opacity:1" d="M 61.5072,163.742 61.5072,179.717 z" id="boundary" inkscape:connector-curvature="0" />
	<path style="fill:none;stroke:red;stroke-width:1px;stroke-linecap:butt;stroke-linejoin:miter;stroke-opacity:1" d="M 53.5201,213.262 39.1433,205.275 z" id="boundary" inkscape:connector-curvature="0" />
	<path style="fill:none;stroke:red;stroke-width:1px;stroke-linecap:butt;stroke-linejoin:miter;stroke-opacity:1" d="M 75.8841,125.404 90.2609,133.391 z" id="boundary" inkscape:connector-curvature="0" />
	<path style="fill:none;stroke:red;stroke-width:1px;stroke-linecap:butt;stroke-linejoin:miter;stroke-opacity:1" d="M 61.5072,179.717 69.4944,194.093 z" id="boundary" inkscape:connector-curvature="0" />
	<path style="fill:none;stroke:red;stroke-width:1px;stroke-linecap:butt;stroke-linejoin:miter;stroke-opacity:1" d="M 77.4815,234.029 67.8969,221.25 z" id="boundary" inkscape:connector-curvature="0" />
	<path style="fill:none;stroke:red;stroke-width:1px;stroke-linecap:butt;stroke-linejoin:miter;stroke-opacity:1" d="M 67.8969,221.25 53.5201,213.262 z" id="boundary" inkscape:connector-curvature="0" />
	<path style="fill:none;stroke:red;stroke-width:1px;stroke-linecap:butt;stroke-linejoin:miter;stroke-opacity:1" d="M 69.4944,194.093 85.4686,200.483 z" id="boundary" inkscape:connector-curvature="0" />
	<path style="fill:none;stroke:red;stroke-width:1px;stroke-linecap:butt;stroke-linejoin:miter;stroke-opacity:1" d="M 85.4686,55.1176 101.443,51.9227 z" id="boundary" inkscape:connector-curvature="0" />
	<path style="fill:none;stroke:red;stroke-width:1px;stroke-linecap:butt;stroke-linejoin:miter;stroke-opacity:1" d="M 69.4944,59.9098 85.4686,55.1176 z" id="boundary" inkscape:connector-curvature="0" />
	<path style="fill:none;stroke:red;stroke-width:1px;stroke-linecap:butt;stroke-linejoin:miter;stroke-opacity:1" d="M 90.2609,133.391 104.638,141.378 z" id="boundary" inkscape:connector-curvature="0" />
	<path style="fill:none;stroke:red;stroke-width:1px;stroke-linecap:butt;stroke-linejoin:miter;stroke-opacity:1" d="M 93.4557,237.224 77.4815,234.029 z" id="boundary" inkscape:connector-curvature="0" />
	<path style="fill:none;stroke:red;stroke-width:1px;stroke-linecap:butt;stroke-linejoin:miter;stroke-opacity:1" d="M 101.443,203.678 85.4686,200.483 z" id="boundary" inkscape:connector-curvature="0" />
	<path style="fill:none;stroke:red;stroke-width:1px;stroke-linecap:butt;stroke-linejoin:miter;stroke-opacity:1" d="M 117.417,208.47 101.443,203.678 z" id="boundary" inkscape:connector-curvature="0" />
	<path style="fill:none;stroke:red;stroke-width:1px;stroke-linecap:butt;stroke-linejoin:miter;stroke-opacity:1" d="M 117.417,47.1304 101.443,51.9227 z" id="boundary" inkscape:connector-curvature="0" />
	<path style="fill:none;stroke:red;stroke-width:1px;stroke-linecap:butt;stroke-linejoin:miter;stroke-opacity:1" d="M 120.612,147.768 104.638,141.378 z" id="boundary" inkscape:connector-curvature="0" />
	<path style="fill:none;stroke:red;stroke-width:1px;stroke-linecap:butt;stroke-linejoin:miter;stroke-opacity:1" d="M 109.43,240.419 93.4557,237.224 z" id="boundary" inkscape:connector-curvature="0" />
	<path style="fill:none;stroke:red;stroke-width:1px;stroke-linecap:butt;stroke-linejoin:miter;stroke-opacity:1" d="M 125.404,240.419 109.43,240.419 z" id="boundary" inkscape:connector-curvature="0" />
	<path style="fill:none;stroke:red;stroke-width:1px;stroke-linecap:butt;stroke-linejoin:miter;stroke-opacity:1" d="M 123.807,16.7794 136.586,27.9614 z" id="boundary" inkscape:connector-curvature="0" />
	<path style="fill:none;stroke:red;stroke-width:1px;stroke-linecap:butt;stroke-linejoin:miter;stroke-opacity:1" d="M 136.586,149.366 120.612,147.768 z" id="boundary" inkscape:connector-curvature="0" />
	<path style="fill:none;stroke:red;stroke-width:1px;stroke-linecap:butt;stroke-linejoin:miter;stroke-opacity:1" d="M 133.391,211.665 117.417,208.47 z" id="boundary" inkscape:connector-curvature="0" />
	<path style="fill:none;stroke:red;stroke-width:1px;stroke-linecap:butt;stroke-linejoin:miter;stroke-opacity:1" d="M 141.378,43.9356 136.586,27.9614 z" id="boundary" inkscape:connector-curvature="0" />
	<path style="fill:none;stroke:red;stroke-width:1px;stroke-linecap:butt;stroke-linejoin:miter;stroke-opacity:1" d="M 136.586,253.198 125.404,240.419 z" id="boundary" inkscape:connector-curvature="0" />
	<path style="fill:none;stroke:red;stroke-width:1px;stroke-linecap:butt;stroke-linejoin:miter;stroke-opacity:1" d="M 147.768,219.652 133.391,211.665 z" id="boundary" inkscape:connector-curvature="0" />
	<path style="fill:none;stroke:red;stroke-width:1px;stroke-linecap:butt;stroke-linejoin:miter;stroke-opacity:1" d="M 136.586,149.366 150.963,157.353 z" id="boundary" inkscape:connector-curvature="0" />
	<path style="fill:none;stroke:red;stroke-width:1px;stroke-linecap:butt;stroke-linejoin:miter;stroke-opacity:1" d="M 141.378,43.9356 157.353,43.9356 z" id="boundary" inkscape:connector-curvature="0" />
	<path style="fill:none;stroke:red;stroke-width:1px;stroke-linecap:butt;stroke-linejoin:miter;stroke-opacity:1" d="M 150.963,261.185 136.586,253.198 z" id="boundary" inkscape:connector-curvature="0" />
	<path style="fill:none;stroke:red;stroke-width:1px;stroke-linecap:butt;stroke-linejoin:miter;stroke-opacity:1" d="M 147.768,219.652 157.353,232.432 z" id="boundary" inkscape:connector-curvature="0" />
	<path style="fill:none;stroke:red;stroke-width:1px;stroke-linecap:butt;stroke-linejoin:miter;stroke-opacity:1" d="M 166.937,157.353 150.963,157.353 z" id="boundary" inkscape:connector-curvature="0" />
	<path style="fill:none;stroke:red;stroke-width:1px;stroke-linecap:butt;stroke-linejoin:miter;stroke-opacity:1" d="M 165.34,269.172 150.963,261.185 z" id="boundary" inkscape:connector-curvature="0" />
	<path style="fill:none;stroke:red;stroke-width:1px;stroke-linecap:butt;stroke-linejoin:miter;stroke-opacity:1" d="M 157.353,43.9356 173.327,43.9356 z" id="boundary" inkscape:connector-curvature="0" />
	<path style="fill:none;stroke:red;stroke-width:1px;stroke-linecap:butt;stroke-linejoin:miter;stroke-opacity:1" d="M 166.937,157.353 182.911,157.353 z" id="boundary" inkscape:connector-curvature="0" />
	<path style="fill:none;stroke:red;stroke-width:1px;stroke-linecap:butt;stroke-linejoin:miter;stroke-opacity:1" d="M 171.729,240.419 157.353,232.432 z" id="boundary" inkscape:connector-curvature="0" />
	<path style="fill:none;stroke:red;stroke-width:1px;stroke-linecap:butt;stroke-linejoin:miter;stroke-opacity:1" d="M 179.717,254.795 165.34,269.172 z" id="boundary" inkscape:connector-curvature="0" />
	<path style="fill:none;stroke:red;stroke-width:1px;stroke-linecap:butt;stroke-linejoin:miter;stroke-opacity:1" d="M 179.717,254.795 171.729,240.419 z" id="boundary" inkscape:connector-curvature="0" />
	<path style="fill:none;stroke:red;stroke-width:1px;stroke-linecap:butt;stroke-linejoin:miter;stroke-opacity:1" d="M 182.911,157.353 198.886,157.353 z" id="boundary" inkscape:connector-curvature="0" />
	<path style="fill:none;stroke:red;stroke-width:1px;stroke-linecap:butt;stroke-linejoin:miter;stroke-opacity:1" d="M 189.301,43.9356 203.678,51.9227 z" id="boundary" inkscape:connector-curvature="0" />
	<path style="fill:none;stroke:red;stroke-width:1px;stroke-linecap:butt;stroke-linejoin:miter;stroke-opacity:1" d="M 189.301,43.9356 173.327,43.9356 z" id="boundary" inkscape:connector-curvature="0" />
	<path style="fill:none;stroke:red;stroke-width:1px;stroke-linecap:butt;stroke-linejoin:miter;stroke-opacity:1" d="M 198.886,157.353 214.86,157.353 z" id="boundary" inkscape:connector-curvature="0" />
	<path style="fill:none;stroke:red;stroke-width:1px;stroke-linecap:butt;stroke-linejoin:miter;stroke-opacity:1" d="M 214.86,157.353 229.237,165.34 z" id="boundary" inkscape:connector-curvature="0" />
	<path style="fill:none;stroke:red;stroke-width:1px;stroke-linecap:butt;stroke-linejoin:miter;stroke-opacity:1" d="M 219.652,51.9227 203.678,51.9227 z" id="boundary" inkscape:connector-curvature="0" />
	<path style="fill:none;stroke:red;stroke-width:1px;stroke-linecap:butt;stroke-linejoin:miter;stroke-opacity:1" d="M 219.652,51.9227 235.626,51.9227 z" id="boundary" inkscape:connector-curvature="0" />
	<path style="fill:none;stroke:red;stroke-width:1px;stroke-linecap:butt;stroke-linejoin:miter;stroke-opacity:1" d="M 243.614,157.353 259.588,157.353 z" id="boundary" inkscape:connector-curvature="0" />
	<path style="fill:none;stroke:red;stroke-width:1px;stroke-linecap:butt;stroke-linejoin:miter;stroke-opacity:1" d="M 243.614,157.353 229.237,165.34 z" id="boundary" inkscape:connector-curvature="0" />
	<path style="fill:none;stroke:red;stroke-width:1px;stroke-linecap:butt;stroke-linejoin:miter;stroke-opacity:1" d="M 251.601,51.9227 235.626,51.9227 z" id="boundary" inkscape:connector-curvature="0" />
	<path style="fill:none;stroke:red;stroke-width:1px;stroke-linecap:butt;stroke-linejoin:miter;stroke-opacity:1" d="M 299.523,174.924 307.51,189.301 z" id="boundary" inkscape:connector-curvature="0" />
	<path style="fill:none;stroke:red;stroke-width:1px;stroke-linecap:butt;stroke-linejoin:miter;stroke-opacity:1" d="M 267.575,51.9227 251.601,51.9227 z" id="boundary" inkscape:connector-curvature="0" />
	<path style="fill:none;stroke:red;stroke-width:1px;stroke-linecap:butt;stroke-linejoin:miter;stroke-opacity:1" d="M 275.562,157.353 291.536,160.548 z" id="boundary" inkscape:connector-curvature="0" />
	<path style="fill:none;stroke:red;stroke-width:1px;stroke-linecap:butt;stroke-linejoin:miter;stroke-opacity:1" d="M 291.536,160.548 299.523,174.924 z" id="boundary" inkscape:connector-curvature="0" />
	<path style="fill:none;stroke:red;stroke-width:1px;stroke-linecap:butt;stroke-linejoin:miter;stroke-opacity:1" d="M 275.562,157.353 259.588,157.353 z" id="boundary" inkscape:connector-curvature="0" />
	<path style="fill:none;stroke:red;stroke-width:1px;stroke-linecap:butt;stroke-linejoin:miter;stroke-opacity:1" d="M 275.562,655.749 267.575,671.723 z" id="boundary" inkscape:connector-curvature="0" />
	<path style="fill:none;stroke:red;stroke-width:1px;stroke-linecap:butt;stroke-linejoin:miter;stroke-opacity:1" d="M 275.562,686.1 267.575,671.723 z" id="boundary" inkscape:connector-curvature="0" />
	<path style="fill:none;stroke:red;stroke-width:1px;stroke-linecap:butt;stroke-linejoin:miter;stroke-opacity:1" d="M 267.575,51.9227 283.549,51.9227 z" id="boundary" inkscape:connector-curvature="0" />
	<path style="fill:none;stroke:red;stroke-width:1px;stroke-linecap:butt;stroke-linejoin:miter;stroke-opacity:1" d="M 297.926,43.9356 283.549,51.9227 z" id="boundary" inkscape:connector-curvature="0" />
	<path style="fill:none;stroke:red;stroke-width:1px;stroke-linecap:butt;stroke-linejoin:miter;stroke-opacity:1" d="M 291.536,650.957 275.562,655.749 z" id="boundary" inkscape:connector-curvature="0" />
	<path style="fill:none;stroke:red;stroke-width:1px;stroke-linecap:butt;stroke-linejoin:miter;stroke-opacity:1" d="M 297.926,43.9356 309.108,31.1562 z" id="boundary" inkscape:connector-curvature="0" />
	<path style="fill:none;stroke:red;stroke-width:1px;stroke-linecap:butt;stroke-linejoin:miter;stroke-opacity:1" d="M 309.108,31.1562 325.082,23.1691 z" id="boundary" inkscape:connector-curvature="0" />
	<path style="fill:none;stroke:red;stroke-width:1px;stroke-linecap:butt;stroke-linejoin:miter;stroke-opacity:1" d="M 291.536,692.49 275.562,686.1 z" id="boundary" inkscape:connector-curvature="0" />
	<path style="fill:none;stroke:red;stroke-width:1px;stroke-linecap:butt;stroke-linejoin:miter;stroke-opacity:1" d="M 325.082,23.1691 341.056,19.9742 z" id="boundary" inkscape:connector-curvature="0" />
	<path style="fill:none;stroke:red;stroke-width:1px;stroke-linecap:butt;stroke-linejoin:miter;stroke-opacity:1" d="M 305.913,642.969 291.536,650.957 z" id="boundary" inkscape:connector-curvature="0" />
	<path style="fill:none;stroke:red;stroke-width:1px;stroke-linecap:butt;stroke-linejoin:miter;stroke-opacity:1" d="M 307.51,189.301 321.887,197.288 z" id="boundary" inkscape:connector-curvature="0" />
	<path style="fill:none;stroke:red;stroke-width:1px;stroke-linecap:butt;stroke-linejoin:miter;stroke-opacity:1" d="M 321.887,197.288 331.472,210.068 z" id="boundary" inkscape:connector-curvature="0" />
	<path style="fill:none;stroke:red;stroke-width:1px;stroke-linecap:butt;stroke-linejoin:miter;stroke-opacity:1" d="M 307.51,692.49 291.536,692.49 z" id="boundary" inkscape:connector-curvature="0" />
	<path style="fill:none;stroke:red;stroke-width:1px;stroke-linecap:butt;stroke-linejoin:miter;stroke-opacity:1" d="M 312.303,626.995 305.913,642.969 z" id="boundary" inkscape:connector-curvature="0" />
	<path style="fill:none;stroke:red;stroke-width:1px;stroke-linecap:butt;stroke-linejoin:miter;stroke-opacity:1" d="M 603.034,719.646 587.06,716.451 z" id="boundary" inkscape:connector-curvature="0" />
	<path style="fill:none;stroke:red;stroke-width:1px;stroke-linecap:butt;stroke-linejoin:miter;stroke-opacity:1" d="M 320.29,611.021 312.303,626.995 z" id="boundary" inkscape:connector-curvature="0" />
	<path style="fill:none;stroke:red;stroke-width:1px;stroke-linecap:butt;stroke-linejoin:miter;stroke-opacity:1" d="M 339.459,240.419 339.459,224.444 z" id="boundary" inkscape:connector-curvature="0" />
	<path style="fill:none;stroke:red;stroke-width:1px;stroke-linecap:butt;stroke-linejoin:miter;stroke-opacity:1" d="M 339.459,224.444 331.472,210.068 z" id="boundary" inkscape:connector-curvature="0" />
	<path style="fill:none;stroke:red;stroke-width:1px;stroke-linecap:butt;stroke-linejoin:miter;stroke-opacity:1" d="M 323.485,692.49 307.51,692.49 z" id="boundary" inkscape:connector-curvature="0" />
	<path style="fill:none;stroke:red;stroke-width:1px;stroke-linecap:butt;stroke-linejoin:miter;stroke-opacity:1" d="M 357.031,15.182 341.056,19.9742 z" id="boundary" inkscape:connector-curvature="0" />
	<path style="fill:none;stroke:red;stroke-width:1px;stroke-linecap:butt;stroke-linejoin:miter;stroke-opacity:1" d="M 339.459,692.49 355.433,692.49 z" id="boundary" inkscape:connector-curvature="0" />
	<path style="fill:none;stroke:red;stroke-width:1px;stroke-linecap:butt;stroke-linejoin:miter;stroke-opacity:1" d="M 328.277,595.047 320.29,611.021 z" id="boundary" inkscape:connector-curvature="0" />
	<path style="fill:none;stroke:red;stroke-width:1px;stroke-linecap:butt;stroke-linejoin:miter;stroke-opacity:1" d="M 331.472,575.878 339.459,559.903 z" id="boundary" inkscape:connector-curvature="0" />
	<path style="fill:none;stroke:red;stroke-width:1px;stroke-linecap:butt;stroke-linejoin:miter;stroke-opacity:1" d="M 339.459,559.903 339.459,543.929 z" id="boundary" inkscape:connector-curvature="0" />
	<path style="fill:none;stroke:red;stroke-width:1px;stroke-linecap:butt;stroke-linejoin:miter;stroke-opacity:1" d="M 331.472,575.878 328.277,595.047 z" id="boundary" inkscape:connector-curvature="0" />
	<path style="fill:none;stroke:red;stroke-width:1px;stroke-linecap:butt;stroke-linejoin:miter;stroke-opacity:1" d="M 373.005,11.9871 387.382,19.9742 z" id="boundary" inkscape:connector-curvature="0" />
	<path style="fill:none;stroke:red;stroke-width:1px;stroke-linecap:butt;stroke-linejoin:miter;stroke-opacity:1" d="M 373.005,11.9871 357.031,15.182 z" id="boundary" inkscape:connector-curvature="0" />
	<path style="fill:none;stroke:red;stroke-width:1px;stroke-linecap:butt;stroke-linejoin:miter;stroke-opacity:1" d="M 339.459,240.419 349.043,253.198 z" id="boundary" inkscape:connector-curvature="0" />
	<path style="fill:none;stroke:red;stroke-width:1px;stroke-linecap:butt;stroke-linejoin:miter;stroke-opacity:1" d="M 339.459,692.49 323.485,692.49 z" id="boundary" inkscape:connector-curvature="0" />
	<path style="fill:none;stroke:red;stroke-width:1px;stroke-linecap:butt;stroke-linejoin:miter;stroke-opacity:1" d="M 355.433,320.29 355.433,304.316 z" id="boundary" inkscape:connector-curvature="0" />
	<path style="fill:none;stroke:red;stroke-width:1px;stroke-linecap:butt;stroke-linejoin:miter;stroke-opacity:1" d="M 355.433,692.49 371.407,692.49 z" id="boundary" inkscape:connector-curvature="0" />
	<path style="fill:none;stroke:red;stroke-width:1px;stroke-linecap:butt;stroke-linejoin:miter;stroke-opacity:1" d="M 355.433,336.264 355.433,320.29 z" id="boundary" inkscape:connector-curvature="0" />
	<path style="fill:none;stroke:red;stroke-width:1px;stroke-linecap:butt;stroke-linejoin:miter;stroke-opacity:1" d="M 403.356,16.7794 387.382,19.9742 z" id="boundary" inkscape:connector-curvature="0" />
	<path style="fill:none;stroke:red;stroke-width:1px;stroke-linecap:butt;stroke-linejoin:miter;stroke-opacity:1" d="M 355.433,352.238 355.433,336.264 z" id="boundary" inkscape:connector-curvature="0" />
	<path style="fill:none;stroke:red;stroke-width:1px;stroke-linecap:butt;stroke-linejoin:miter;stroke-opacity:1" d="M 355.433,368.213 355.433,352.238 z" id="boundary" inkscape:connector-curvature="0" />
	<path style="fill:none;stroke:red;stroke-width:1px;stroke-linecap:butt;stroke-linejoin:miter;stroke-opacity:1" d="M 349.043,253.198 363.42,261.185 z" id="boundary" inkscape:connector-curvature="0" />
	<path style="fill:none;stroke:red;stroke-width:1px;stroke-linecap:butt;stroke-linejoin:miter;stroke-opacity:1" d="M 355.433,392.174 355.433,368.213 z" id="boundary" inkscape:connector-curvature="0" />
	<path style="fill:none;stroke:red;stroke-width:1px;stroke-linecap:butt;stroke-linejoin:miter;stroke-opacity:1" d="M 363.42,277.159 363.42,261.185 z" id="boundary" inkscape:connector-curvature="0" />
	<path style="fill:none;stroke:red;stroke-width:1px;stroke-linecap:butt;stroke-linejoin:miter;stroke-opacity:1" d="M 363.42,277.159 355.433,304.316 z" id="boundary" inkscape:connector-curvature="0" />
	<path style="fill:none;stroke:red;stroke-width:1px;stroke-linecap:butt;stroke-linejoin:miter;stroke-opacity:1" d="M 355.433,488.019 355.433,472.045 z" id="boundary" inkscape:connector-curvature="0" />
	<path style="fill:none;stroke:red;stroke-width:1px;stroke-linecap:butt;stroke-linejoin:miter;stroke-opacity:1" d="M 355.433,503.994 355.433,488.019 z" id="boundary" inkscape:connector-curvature="0" />
	<path style="fill:none;stroke:red;stroke-width:1px;stroke-linecap:butt;stroke-linejoin:miter;stroke-opacity:1" d="M 355.433,519.968 355.433,503.994 z" id="boundary" inkscape:connector-curvature="0" />
	<path style="fill:none;stroke:red;stroke-width:1px;stroke-linecap:butt;stroke-linejoin:miter;stroke-opacity:1" d="M 339.459,543.929 355.433,535.942 z" id="boundary" inkscape:connector-curvature="0" />
	<path style="fill:none;stroke:red;stroke-width:1px;stroke-linecap:butt;stroke-linejoin:miter;stroke-opacity:1" d="M 355.433,535.942 355.433,519.968 z" id="boundary" inkscape:connector-curvature="0" />
	<path style="fill:none;stroke:red;stroke-width:1px;stroke-linecap:butt;stroke-linejoin:miter;stroke-opacity:1" d="M 355.433,392.174 363.42,406.551 z" id="boundary" inkscape:connector-curvature="0" />
	<path style="fill:none;stroke:red;stroke-width:1px;stroke-linecap:butt;stroke-linejoin:miter;stroke-opacity:1" d="M 355.433,472.045 363.42,456.071 z" id="boundary" inkscape:connector-curvature="0" />
	<path style="fill:none;stroke:red;stroke-width:1px;stroke-linecap:butt;stroke-linejoin:miter;stroke-opacity:1" d="M 571.085,711.659 587.06,716.451 z" id="boundary" inkscape:connector-curvature="0" />
	<path style="fill:none;stroke:red;stroke-width:1px;stroke-linecap:butt;stroke-linejoin:miter;stroke-opacity:1" d="M 371.407,436.902 363.42,456.071 z" id="boundary" inkscape:connector-curvature="0" />
	<path style="fill:none;stroke:red;stroke-width:1px;stroke-linecap:butt;stroke-linejoin:miter;stroke-opacity:1" d="M 371.407,420.928 371.407,436.902 z" id="boundary" inkscape:connector-curvature="0" />
	<path style="fill:none;stroke:red;stroke-width:1px;stroke-linecap:butt;stroke-linejoin:miter;stroke-opacity:1" d="M 371.407,420.928 363.42,406.551 z" id="boundary" inkscape:connector-curvature="0" />
	<path style="fill:none;stroke:red;stroke-width:1px;stroke-linecap:butt;stroke-linejoin:miter;stroke-opacity:1" d="M 419.33,11.9871 433.707,4 z" id="boundary" inkscape:connector-curvature="0" />
	<path style="fill:none;stroke:red;stroke-width:1px;stroke-linecap:butt;stroke-linejoin:miter;stroke-opacity:1" d="M 433.707,4 449.681,4 z" id="boundary" inkscape:connector-curvature="0" />
	<path style="fill:none;stroke:red;stroke-width:1px;stroke-linecap:butt;stroke-linejoin:miter;stroke-opacity:1" d="M 387.382,687.697 371.407,692.49 z" id="boundary" inkscape:connector-curvature="0" />
	<path style="fill:none;stroke:red;stroke-width:1px;stroke-linecap:butt;stroke-linejoin:miter;stroke-opacity:1" d="M 464.058,11.9871 449.681,4 z" id="boundary" inkscape:connector-curvature="0" />
	<path style="fill:none;stroke:red;stroke-width:1px;stroke-linecap:butt;stroke-linejoin:miter;stroke-opacity:1" d="M 404.953,636.58 404.953,652.554 z" id="boundary" inkscape:connector-curvature="0" />
	<path style="fill:none;stroke:red;stroke-width:1px;stroke-linecap:butt;stroke-linejoin:miter;stroke-opacity:1" d="M 400.161,674.918 387.382,687.697 z" id="boundary" inkscape:connector-curvature="0" />
	<path style="fill:none;stroke:red;stroke-width:1px;stroke-linecap:butt;stroke-linejoin:miter;stroke-opacity:1" d="M 508.786,27.9614 508.786,43.9356 z" id="boundary" inkscape:connector-curvature="0" />
	<path style="fill:none;stroke:red;stroke-width:1px;stroke-linecap:butt;stroke-linejoin:miter;stroke-opacity:1" d="M 508.786,27.9614 494.409,19.9742 z" id="boundary" inkscape:connector-curvature="0" />
	<path style="fill:none;stroke:red;stroke-width:1px;stroke-linecap:butt;stroke-linejoin:miter;stroke-opacity:1" d="M 403.356,16.7794 419.33,11.9871 z" id="boundary" inkscape:connector-curvature="0" />
	<path style="fill:none;stroke:red;stroke-width:1px;stroke-linecap:butt;stroke-linejoin:miter;stroke-opacity:1" d="M 404.953,652.554 400.161,674.918 z" id="boundary" inkscape:connector-curvature="0" />
	<path style="fill:none;stroke:red;stroke-width:1px;stroke-linecap:butt;stroke-linejoin:miter;stroke-opacity:1" d="M 404.953,636.58 420.928,628.593 z" id="boundary" inkscape:connector-curvature="0" />
	<path style="fill:none;stroke:red;stroke-width:1px;stroke-linecap:butt;stroke-linejoin:miter;stroke-opacity:1" d="M 420.928,612.618 420.928,628.593 z" id="boundary" inkscape:connector-curvature="0" />
	<path style="fill:none;stroke:red;stroke-width:1px;stroke-linecap:butt;stroke-linejoin:miter;stroke-opacity:1" d="M 480.032,11.9871 494.409,19.9742 z" id="boundary" inkscape:connector-curvature="0" />
	<path style="fill:none;stroke:red;stroke-width:1px;stroke-linecap:butt;stroke-linejoin:miter;stroke-opacity:1" d="M 480.032,11.9871 464.058,11.9871 z" id="boundary" inkscape:connector-curvature="0" />
	<path style="fill:none;stroke:red;stroke-width:1px;stroke-linecap:butt;stroke-linejoin:miter;stroke-opacity:1" d="M 428.915,596.644 420.928,612.618 z" id="boundary" inkscape:connector-curvature="0" />
	<path style="fill:none;stroke:red;stroke-width:1px;stroke-linecap:butt;stroke-linejoin:miter;stroke-opacity:1" d="M 513.578,500.799 499.201,492.812 z" id="boundary" inkscape:connector-curvature="0" />
	<path style="fill:none;stroke:red;stroke-width:1px;stroke-linecap:butt;stroke-linejoin:miter;stroke-opacity:1" d="M 499.201,492.812 484.824,500.799 z" id="boundary" inkscape:connector-curvature="0" />
	<path style="fill:none;stroke:red;stroke-width:1px;stroke-linecap:butt;stroke-linejoin:miter;stroke-opacity:1" d="M 436.902,580.67 428.915,596.644 z" id="boundary" inkscape:connector-curvature="0" />
	<path style="fill:none;stroke:red;stroke-width:1px;stroke-linecap:butt;stroke-linejoin:miter;stroke-opacity:1" d="M 436.902,580.67 436.902,564.696 z" id="boundary" inkscape:connector-curvature="0" />
	<path style="fill:none;stroke:red;stroke-width:1px;stroke-linecap:butt;stroke-linejoin:miter;stroke-opacity:1" d="M 436.902,564.696 452.876,556.709 z" id="boundary" inkscape:connector-curvature="0" />
	<path style="fill:none;stroke:red;stroke-width:1px;stroke-linecap:butt;stroke-linejoin:miter;stroke-opacity:1" d="M 452.876,540.734 452.876,556.709 z" id="boundary" inkscape:connector-curvature="0" />
	<path style="fill:none;stroke:red;stroke-width:1px;stroke-linecap:butt;stroke-linejoin:miter;stroke-opacity:1" d="M 585.462,27.9614 569.488,27.9614 z" id="boundary" inkscape:connector-curvature="0" />
	<path style="fill:none;stroke:red;stroke-width:1px;stroke-linecap:butt;stroke-linejoin:miter;stroke-opacity:1" d="M 587.06,540.734 587.06,556.709 z" id="boundary" inkscape:connector-curvature="0" />
	<path style="fill:none;stroke:red;stroke-width:1px;stroke-linecap:butt;stroke-linejoin:miter;stroke-opacity:1" d="M 587.06,540.734 579.072,526.357 z" id="boundary" inkscape:connector-curvature="0" />
	<path style="fill:none;stroke:red;stroke-width:1px;stroke-linecap:butt;stroke-linejoin:miter;stroke-opacity:1" d="M 460.863,524.76 475.24,516.773 z" id="boundary" inkscape:connector-curvature="0" />
	<path style="fill:none;stroke:red;stroke-width:1px;stroke-linecap:butt;stroke-linejoin:miter;stroke-opacity:1" d="M 460.863,524.76 452.876,540.734 z" id="boundary" inkscape:connector-curvature="0" />
	<path style="fill:none;stroke:red;stroke-width:1px;stroke-linecap:butt;stroke-linejoin:miter;stroke-opacity:1" d="M 475.24,516.773 484.824,500.799 z" id="boundary" inkscape:connector-curvature="0" />
	<path style="fill:none;stroke:red;stroke-width:1px;stroke-linecap:butt;stroke-linejoin:miter;stroke-opacity:1" d="M 529.552,500.799 513.578,500.799 z" id="boundary" inkscape:connector-curvature="0" />
	<path style="fill:none;stroke:red;stroke-width:1px;stroke-linecap:butt;stroke-linejoin:miter;stroke-opacity:1" d="M 571.085,511.981 559.903,499.201 z" id="boundary" inkscape:connector-curvature="0" />
	<path style="fill:none;stroke:red;stroke-width:1px;stroke-linecap:butt;stroke-linejoin:miter;stroke-opacity:1" d="M 553.514,27.9614 569.488,27.9614 z" id="boundary" inkscape:connector-curvature="0" />
	<path style="fill:none;stroke:red;stroke-width:1px;stroke-linecap:butt;stroke-linejoin:miter;stroke-opacity:1" d="M 529.552,500.799 543.929,492.812 z" id="boundary" inkscape:connector-curvature="0" />
	<path style="fill:none;stroke:red;stroke-width:1px;stroke-linecap:butt;stroke-linejoin:miter;stroke-opacity:1" d="M 543.929,492.812 559.903,499.201 z" id="boundary" inkscape:connector-curvature="0" />
	<path style="fill:none;stroke:red;stroke-width:1px;stroke-linecap:butt;stroke-linejoin:miter;stroke-opacity:1" d="M 537.539,27.9614 553.514,27.9614 z" id="boundary" inkscape:connector-curvature="0" />
	<path style="fill:none;stroke:red;stroke-width:1px;stroke-linecap:butt;stroke-linejoin:miter;stroke-opacity:1" d="M 537.539,27.9614 523.163,35.9485 z" id="boundary" inkscape:connector-curvature="0" />
	<path style="fill:none;stroke:red;stroke-width:1px;stroke-linecap:butt;stroke-linejoin:miter;stroke-opacity:1" d="M 579.072,526.357 571.085,511.981 z" id="boundary" inkscape:connector-curvature="0" />
	<path style="fill:none;stroke:red;stroke-width:1px;stroke-linecap:butt;stroke-linejoin:miter;stroke-opacity:1" d="M 612.618,40.7407 601.436,27.9614 z" id="boundary" inkscape:connector-curvature="0" />
	<path style="fill:none;stroke:red;stroke-width:1px;stroke-linecap:butt;stroke-linejoin:miter;stroke-opacity:1" d="M 601.436,27.9614 585.462,27.9614 z" id="boundary" inkscape:connector-curvature="0" />
	<path style="fill:none;stroke:red;stroke-width:1px;stroke-linecap:butt;stroke-linejoin:miter;stroke-opacity:1" d="M 626.995,48.7279 639.775,59.9098 z" id="boundary" inkscape:connector-curvature="0" />
	<path style="fill:none;stroke:red;stroke-width:1px;stroke-linecap:butt;stroke-linejoin:miter;stroke-opacity:1" d="M 626.995,48.7279 612.618,40.7407 z" id="boundary" inkscape:connector-curvature="0" />
	<path style="fill:none;stroke:red;stroke-width:1px;stroke-linecap:butt;stroke-linejoin:miter;stroke-opacity:1" d="M 639.775,59.9098 654.151,67.8969 z" id="boundary" inkscape:connector-curvature="0" />
	<path style="fill:none;stroke:red;stroke-width:1px;stroke-linecap:butt;stroke-linejoin:miter;stroke-opacity:1" d="M 571.085,695.684 571.085,711.659 z" id="boundary" inkscape:connector-curvature="0" />
	<path style="fill:none;stroke:red;stroke-width:1px;stroke-linecap:butt;stroke-linejoin:miter;stroke-opacity:1" d="M 579.072,671.723 571.085,695.684 z" id="boundary" inkscape:connector-curvature="0" />
	<path style="fill:none;stroke:red;stroke-width:1px;stroke-linecap:butt;stroke-linejoin:miter;stroke-opacity:1" d="M 668.528,75.8841 654.151,67.8969 z" id="boundary" inkscape:connector-curvature="0" />
	<path style="fill:none;stroke:red;stroke-width:1px;stroke-linecap:butt;stroke-linejoin:miter;stroke-opacity:1" d="M 603.034,596.644 603.034,612.618 z" id="boundary" inkscape:connector-curvature="0" />
	<path style="fill:none;stroke:red;stroke-width:1px;stroke-linecap:butt;stroke-linejoin:miter;stroke-opacity:1" d="M 591.852,658.944 579.072,671.723 z" id="boundary" inkscape:connector-curvature="0" />
	<path style="fill:none;stroke:red;stroke-width:1px;stroke-linecap:butt;stroke-linejoin:miter;stroke-opacity:1" d="M 587.06,556.709 601.436,564.696 z" id="boundary" inkscape:connector-curvature="0" />
	<path style="fill:none;stroke:red;stroke-width:1px;stroke-linecap:butt;stroke-linejoin:miter;stroke-opacity:1" d="M 603.034,580.67 603.034,596.644 z" id="boundary" inkscape:connector-curvature="0" />
	<path style="fill:none;stroke:red;stroke-width:1px;stroke-linecap:butt;stroke-linejoin:miter;stroke-opacity:1" d="M 601.436,564.696 603.034,580.67 z" id="boundary" inkscape:connector-curvature="0" />
	<path style="fill:none;stroke:red;stroke-width:1px;stroke-linecap:butt;stroke-linejoin:miter;stroke-opacity:1" d="M 603.034,628.593 603.034,612.618 z" id="boundary" inkscape:connector-curvature="0" />
	<path style="fill:none;stroke:red;stroke-width:1px;stroke-linecap:butt;stroke-linejoin:miter;stroke-opacity:1" d="M 684.502,75.8841 668.528,75.8841 z" id="boundary" inkscape:connector-curvature="0" />
	<path style="fill:none;stroke:red;stroke-width:1px;stroke-linecap:butt;stroke-linejoin:miter;stroke-opacity:1" d="M 603.034,628.593 603.034,644.567 z" id="boundary" inkscape:connector-curvature="0" />
	<path style="fill:none;stroke:red;stroke-width:1px;stroke-linecap:butt;stroke-linejoin:miter;stroke-opacity:1" d="M 603.034,644.567 591.852,658.944 z" id="boundary" inkscape:connector-curvature="0" />
	<path style="fill:none;stroke:red;stroke-width:1px;stroke-linecap:butt;stroke-linejoin:miter;stroke-opacity:1" d="M 684.502,548.721 684.502,572.683 z" id="boundary" inkscape:connector-curvature="0" />
	<path style="fill:none;stroke:red;stroke-width:1px;stroke-linecap:butt;stroke-linejoin:miter;stroke-opacity:1" d="M 692.49,603.034 692.49,619.008 z" id="boundary" inkscape:connector-curvature="0" />
	<path style="fill:none;stroke:red;stroke-width:1px;stroke-linecap:butt;stroke-linejoin:miter;stroke-opacity:1" d="M 692.49,603.034 684.502,588.657 z" id="boundary" inkscape:connector-curvature="0" />
	<path style="fill:none;stroke:red;stroke-width:1px;stroke-linecap:butt;stroke-linejoin:miter;stroke-opacity:1" d="M 684.502,588.657 684.502,572.683 z" id="boundary" inkscape:connector-curvature="0" />
	<path style="fill:none;stroke:red;stroke-width:1px;stroke-linecap:butt;stroke-linejoin:miter;stroke-opacity:1" d="M 619.008,719.646 603.034,719.646 z" id="boundary" inkscape:connector-curvature="0" />
	<path style="fill:none;stroke:red;stroke-width:1px;stroke-linecap:butt;stroke-linejoin:miter;stroke-opacity:1" d="M 684.502,548.721 684.502,532.747 z" id="boundary" inkscape:connector-curvature="0" />
	<path style="fill:none;stroke:red;stroke-width:1px;stroke-linecap:butt;stroke-linejoin:miter;stroke-opacity:1" d="M 634.982,719.646 619.008,719.646 z" id="boundary" inkscape:connector-curvature="0" />
	<path style="fill:none;stroke:red;stroke-width:1px;stroke-linecap:butt;stroke-linejoin:miter;stroke-opacity:1" d="M 650.957,719.646 634.982,719.646 z" id="boundary" inkscape:connector-curvature="0" />
	<path style="fill:none;stroke:red;stroke-width:1px;stroke-linecap:butt;stroke-linejoin:miter;stroke-opacity:1" d="M 666.931,716.451 650.957,719.646 z" id="boundary" inkscape:connector-curvature="0" />
	<path style="fill:none;stroke:red;stroke-width:1px;stroke-linecap:butt;stroke-linejoin:miter;stroke-opacity:1" d="M 698.879,703.671 682.905,711.659 z" id="boundary" inkscape:connector-curvature="0" />
	<path style="fill:none;stroke:red;stroke-width:1px;stroke-linecap:butt;stroke-linejoin:miter;stroke-opacity:1" d="M 684.502,75.8841 700.477,75.8841 z" id="boundary" inkscape:connector-curvature="0" />
	<path style="fill:none;stroke:red;stroke-width:1px;stroke-linecap:butt;stroke-linejoin:miter;stroke-opacity:1" d="M 684.502,532.747 697.282,521.565 z" id="boundary" inkscape:connector-curvature="0" />
	<path style="fill:none;stroke:red;stroke-width:1px;stroke-linecap:butt;stroke-linejoin:miter;stroke-opacity:1" d="M 692.49,634.982 692.49,619.008 z" id="boundary" inkscape:connector-curvature="0" />
	<path style="fill:none;stroke:red;stroke-width:1px;stroke-linecap:butt;stroke-linejoin:miter;stroke-opacity:1" d="M 730.828,508.786 714.853,508.786 z" id="boundary" inkscape:connector-curvature="0" />
	<path style="fill:none;stroke:red;stroke-width:1px;stroke-linecap:butt;stroke-linejoin:miter;stroke-opacity:1" d="M 697.282,521.565 700.477,500.799 z" id="boundary" inkscape:connector-curvature="0" />
	<path style="fill:none;stroke:red;stroke-width:1px;stroke-linecap:butt;stroke-linejoin:miter;stroke-opacity:1" d="M 700.477,500.799 714.853,508.786 z" id="boundary" inkscape:connector-curvature="0" />
	<path style="fill:none;stroke:red;stroke-width:1px;stroke-linecap:butt;stroke-linejoin:miter;stroke-opacity:1" d="M 692.49,634.982 700.477,649.359 z" id="boundary" inkscape:connector-curvature="0" />
	<path style="fill:none;stroke:red;stroke-width:1px;stroke-linecap:butt;stroke-linejoin:miter;stroke-opacity:1" d="M 682.905,711.659 666.931,716.451 z" id="boundary" inkscape:connector-curvature="0" />
	<path style="fill:none;stroke:red;stroke-width:1px;stroke-linecap:butt;stroke-linejoin:miter;stroke-opacity:1" d="M 756.386,521.565 762.776,537.539 z" id="boundary" inkscape:connector-curvature="0" />
	<path style="fill:none;stroke:red;stroke-width:1px;stroke-linecap:butt;stroke-linejoin:miter;stroke-opacity:1" d="M 780.348,676.515 794.725,684.502 z" id="boundary" inkscape:connector-curvature="0" />
	<path style="fill:none;stroke:red;stroke-width:1px;stroke-linecap:butt;stroke-linejoin:miter;stroke-opacity:1" d="M 756.386,521.565 746.802,508.786 z" id="boundary" inkscape:connector-curvature="0" />
	<path style="fill:none;stroke:red;stroke-width:1px;stroke-linecap:butt;stroke-linejoin:miter;stroke-opacity:1" d="M 746.802,508.786 730.828,508.786 z" id="boundary" inkscape:connector-curvature="0" />
	<path style="fill:none;stroke:red;stroke-width:1px;stroke-linecap:butt;stroke-linejoin:miter;stroke-opacity:1" d="M 700.477,649.359 708.464,663.736 z" id="boundary" inkscape:connector-curvature="0" />
	<path style="fill:none;stroke:red;stroke-width:1px;stroke-linecap:butt;stroke-linejoin:miter;stroke-opacity:1" d="M 708.464,663.736 708.464,679.71 z" id="boundary" inkscape:connector-curvature="0" />
	<path style="fill:none;stroke:red;stroke-width:1px;stroke-linecap:butt;stroke-linejoin:miter;stroke-opacity:1" d="M 770.763,567.89 770.763,551.916 z" id="boundary" inkscape:connector-curvature="0" />
	<path style="fill:none;stroke:red;stroke-width:1px;stroke-linecap:butt;stroke-linejoin:miter;stroke-opacity:1" d="M 770.763,551.916 762.776,537.539 z" id="boundary" inkscape:connector-curvature="0" />
	<path style="fill:none;stroke:red;stroke-width:1px;stroke-linecap:butt;stroke-linejoin:miter;stroke-opacity:1" d="M 700.477,75.8841 716.451,75.8841 z" id="boundary" inkscape:connector-curvature="0" />
	<path style="fill:none;stroke:red;stroke-width:1px;stroke-linecap:butt;stroke-linejoin:miter;stroke-opacity:1" d="M 708.464,679.71 698.879,703.671 z" id="boundary" inkscape:connector-curvature="0" />
	<path style="fill:none;stroke:red;stroke-width:1px;stroke-linecap:butt;stroke-linejoin:miter;stroke-opacity:1" d="M 716.451,75.8841 732.425,75.8841 z" id="boundary" inkscape:connector-curvature="0" />
	<path style="fill:none;stroke:red;stroke-width:1px;stroke-linecap:butt;stroke-linejoin:miter;stroke-opacity:1" d="M 732.425,75.8841 746.802,83.8712 z" id="boundary" inkscape:connector-curvature="0" />
	<path style="fill:none;stroke:red;stroke-width:1px;stroke-linecap:butt;stroke-linejoin:miter;stroke-opacity:1" d="M 770.763,567.89 770.763,583.865 z" id="boundary" inkscape:connector-curvature="0" />
	<path style="fill:none;stroke:red;stroke-width:1px;stroke-linecap:butt;stroke-linejoin:miter;stroke-opacity:1" d="M 788.335,104.638 778.75,91.8583 z" id="boundary" inkscape:connector-curvature="0" />
	<path style="fill:none;stroke:red;stroke-width:1px;stroke-linecap:butt;stroke-linejoin:miter;stroke-opacity:1" d="M 778.75,91.8583 762.776,87.066 z" id="boundary" inkscape:connector-curvature="0" />
	<path style="fill:none;stroke:red;stroke-width:1px;stroke-linecap:butt;stroke-linejoin:miter;stroke-opacity:1" d="M 746.802,83.8712 762.776,87.066 z" id="boundary" inkscape:connector-curvature="0" />
	<path style="fill:none;stroke:red;stroke-width:1px;stroke-linecap:butt;stroke-linejoin:miter;stroke-opacity:1" d="M 802.712,112.625 788.335,104.638 z" id="boundary" inkscape:connector-curvature="0" />
	<path style="fill:none;stroke:red;stroke-width:1px;stroke-linecap:butt;stroke-linejoin:miter;stroke-opacity:1" d="M 900.155,190.899 892.167,176.522 z" id="boundary" inkscape:connector-curvature="0" />
	<path style="fill:none;stroke:red;stroke-width:1px;stroke-linecap:butt;stroke-linejoin:miter;stroke-opacity:1" d="M 770.763,663.736 770.763,647.762 z" id="boundary" inkscape:connector-curvature="0" />
	<path style="fill:none;stroke:red;stroke-width:1px;stroke-linecap:butt;stroke-linejoin:miter;stroke-opacity:1" d="M 770.763,583.865 786.738,588.657 z" id="boundary" inkscape:connector-curvature="0" />
	<path style="fill:none;stroke:red;stroke-width:1px;stroke-linecap:butt;stroke-linejoin:miter;stroke-opacity:1" d="M 770.763,663.736 780.348,676.515 z" id="boundary" inkscape:connector-curvature="0" />
	<path style="fill:none;stroke:red;stroke-width:1px;stroke-linecap:butt;stroke-linejoin:miter;stroke-opacity:1" d="M 786.738,588.657 786.738,604.631 z" id="boundary" inkscape:connector-curvature="0" />
	<path style="fill:none;stroke:red;stroke-width:1px;stroke-linecap:butt;stroke-linejoin:miter;stroke-opacity:1" d="M 872.998,149.366 884.18,162.145 z" id="boundary" inkscape:connector-curvature="0" />
	<path style="fill:none;stroke:red;stroke-width:1px;stroke-linecap:butt;stroke-linejoin:miter;stroke-opacity:1" d="M 884.18,162.145 892.167,176.522 z" id="boundary" inkscape:connector-curvature="0" />
	<path style="fill:none;stroke:red;stroke-width:1px;stroke-linecap:butt;stroke-linejoin:miter;stroke-opacity:1" d="M 786.738,604.631 786.738,620.605 z" id="boundary" inkscape:connector-curvature="0" />
	<path style="fill:none;stroke:red;stroke-width:1px;stroke-linecap:butt;stroke-linejoin:miter;stroke-opacity:1" d="M 770.763,647.762 786.738,636.58 z" id="boundary" inkscape:connector-curvature="0" />
	<path style="fill:none;stroke:red;stroke-width:1px;stroke-linecap:butt;stroke-linejoin:miter;stroke-opacity:1" d="M 794.725,684.502 809.101,692.49 z" id="boundary" inkscape:connector-curvature="0" />
	<path style="fill:none;stroke:red;stroke-width:1px;stroke-linecap:butt;stroke-linejoin:miter;stroke-opacity:1" d="M 818.686,119.014 834.66,123.807 z" id="boundary" inkscape:connector-curvature="0" />
	<path style="fill:none;stroke:red;stroke-width:1px;stroke-linecap:butt;stroke-linejoin:miter;stroke-opacity:1" d="M 786.738,620.605 786.738,636.58 z" id="boundary" inkscape:connector-curvature="0" />
	<path style="fill:none;stroke:red;stroke-width:1px;stroke-linecap:butt;stroke-linejoin:miter;stroke-opacity:1" d="M 860.219,139.781 850.634,127.002 z" id="boundary" inkscape:connector-curvature="0" />
	<path style="fill:none;stroke:red;stroke-width:1px;stroke-linecap:butt;stroke-linejoin:miter;stroke-opacity:1" d="M 850.634,127.002 834.66,123.807 z" id="boundary" inkscape:connector-curvature="0" />
	<path style="fill:none;stroke:red;stroke-width:1px;stroke-linecap:butt;stroke-linejoin:miter;stroke-opacity:1" d="M 872.998,149.366 860.219,139.781 z" id="boundary" inkscape:connector-curvature="0" />
	<path style="fill:none;stroke:red;stroke-width:1px;stroke-linecap:butt;stroke-linejoin:miter;stroke-opacity:1" d="M 802.712,112.625 818.686,119.014 z" id="boundary" inkscape:connector-curvature="0" />
	<path style="fill:none;stroke:red;stroke-width:1px;stroke-linecap:butt;stroke-linejoin:miter;stroke-opacity:1" d="M 834.66,676.515 825.076,689.295 z" id="boundary" inkscape:connector-curvature="0" />
	<path style="fill:none;stroke:red;stroke-width:1px;stroke-linecap:butt;stroke-linejoin:miter;stroke-opacity:1" d="M 825.076,689.295 809.101,692.49 z" id="boundary" inkscape:connector-curvature="0" />
	<path style="fill:none;stroke:red;stroke-width:1px;stroke-linecap:butt;stroke-linejoin:miter;stroke-opacity:1" d="M 852.232,556.709 852.232,540.734 z" id="boundary" inkscape:connector-curvature="0" />
	<path style="fill:none;stroke:red;stroke-width:1px;stroke-linecap:butt;stroke-linejoin:miter;stroke-opacity:1" d="M 850.634,671.723 834.66,676.515 z" id="boundary" inkscape:connector-curvature="0" />
	<path style="fill:none;stroke:red;stroke-width:1px;stroke-linecap:butt;stroke-linejoin:miter;stroke-opacity:1" d="M 852.232,572.683 852.232,556.709 z" id="boundary" inkscape:connector-curvature="0" />
	<path style="fill:none;stroke:red;stroke-width:1px;stroke-linecap:butt;stroke-linejoin:miter;stroke-opacity:1" d="M 863.414,658.944 850.634,671.723 z" id="boundary" inkscape:connector-curvature="0" />
	<path style="fill:none;stroke:red;stroke-width:1px;stroke-linecap:butt;stroke-linejoin:miter;stroke-opacity:1" d="M 860.219,603.034 860.219,587.06 z" id="boundary" inkscape:connector-curvature="0" />
	<path style="fill:none;stroke:red;stroke-width:1px;stroke-linecap:butt;stroke-linejoin:miter;stroke-opacity:1" d="M 860.219,587.06 852.232,572.683 z" id="boundary" inkscape:connector-curvature="0" />
	<path style="fill:none;stroke:red;stroke-width:1px;stroke-linecap:butt;stroke-linejoin:miter;stroke-opacity:1" d="M 860.219,603.034 860.219,619.008 z" id="boundary" inkscape:connector-curvature="0" />
	<path style="fill:none;stroke:red;stroke-width:1px;stroke-linecap:butt;stroke-linejoin:miter;stroke-opacity:1" d="M 900.155,628.593 916.129,628.593 z" id="boundary" inkscape:connector-curvature="0" />
	<path style="fill:none;stroke:red;stroke-width:1px;stroke-linecap:butt;stroke-linejoin:miter;stroke-opacity:1" d="M 868.206,633.385 860.219,619.008 z" id="boundary" inkscape:connector-curvature="0" />
	<path style="fill:none;stroke:red;stroke-width:1px;stroke-linecap:butt;stroke-linejoin:miter;stroke-opacity:1" d="M 884.18,628.593 868.206,633.385 z" id="boundary" inkscape:connector-curvature="0" />
	<path style="fill:none;stroke:red;stroke-width:1px;stroke-linecap:butt;stroke-linejoin:miter;stroke-opacity:1" d="M 914.531,198.886 924.116,211.665 z" id="boundary" inkscape:connector-curvature="0" />
	<path style="fill:none;stroke:red;stroke-width:1px;stroke-linecap:butt;stroke-linejoin:miter;stroke-opacity:1" d="M 914.531,198.886 900.155,190.899 z" id="boundary" inkscape:connector-curvature="0" />
	<path style="fill:none;stroke:red;stroke-width:1px;stroke-linecap:butt;stroke-linejoin:miter;stroke-opacity:1" d="M 924.116,211.665 932.103,226.042 z" id="boundary" inkscape:connector-curvature="0" />
	<path style="fill:none;stroke:red;stroke-width:1px;stroke-linecap:butt;stroke-linejoin:miter;stroke-opacity:1" d="M 884.18,628.593 900.155,628.593 z" id="boundary" inkscape:connector-curvature="0" />
	<path style="fill:none;stroke:red;stroke-width:1px;stroke-linecap:butt;stroke-linejoin:miter;stroke-opacity:1" d="M 932.103,226.042 940.09,240.419 z" id="boundary" inkscape:connector-curvature="0" />
	<path style="fill:none;stroke:red;stroke-width:1px;stroke-linecap:butt;stroke-linejoin:miter;stroke-opacity:1" d="M 916.129,628.593 932.103,628.593 z" id="boundary" inkscape:connector-curvature="0" />
	<path style="fill:none;stroke:red;stroke-width:1px;stroke-linecap:butt;stroke-linejoin:miter;stroke-opacity:1" d="M 932.103,555.111 940.09,569.488 z" id="boundary" inkscape:connector-curvature="0" />
	<path style="fill:none;stroke:red;stroke-width:1px;stroke-linecap:butt;stroke-linejoin:miter;stroke-opacity:1" d="M 924.116,476.837 924.116,460.863 z" id="boundary" inkscape:connector-curvature="0" />
	<path style="fill:none;stroke:red;stroke-width:1px;stroke-linecap:butt;stroke-linejoin:miter;stroke-opacity:1" d="M 924.116,524.76 924.116,508.786 z" id="boundary" inkscape:connector-curvature="0" />
	<path style="fill:none;stroke:red;stroke-width:1px;stroke-linecap:butt;stroke-linejoin:miter;stroke-opacity:1" d="M 924.116,460.863 932.103,444.889 z" id="boundary" inkscape:connector-curvature="0" />
	<path style="fill:none;stroke:red;stroke-width:1px;stroke-linecap:butt;stroke-linejoin:miter;stroke-opacity:1" d="M 944.882,433.707 932.103,444.889 z" id="boundary" inkscape:connector-curvature="0" />
	<path style="fill:none;stroke:red;stroke-width:1px;stroke-linecap:butt;stroke-linejoin:miter;stroke-opacity:1" d="M 924.116,524.76 932.103,539.137 z" id="boundary" inkscape:connector-curvature="0" />
	<path style="fill:none;stroke:red;stroke-width:1px;stroke-linecap:butt;stroke-linejoin:miter;stroke-opacity:1" d="M 932.103,539.137 932.103,555.111 z" id="boundary" inkscape:connector-curvature="0" />
	<path style="fill:none;stroke:red;stroke-width:1px;stroke-linecap:butt;stroke-linejoin:miter;stroke-opacity:1" d="M 970.441,472.045 970.441,456.071 z" id="boundary" inkscape:connector-curvature="0" />
	<path style="fill:none;stroke:red;stroke-width:1px;stroke-linecap:butt;stroke-linejoin:miter;stroke-opacity:1" d="M 924.116,508.786 932.103,491.214 z" id="boundary" inkscape:connector-curvature="0" />
	<path style="fill:none;stroke:red;stroke-width:1px;stroke-linecap:butt;stroke-linejoin:miter;stroke-opacity:1" d="M 924.116,476.837 932.103,491.214 z" id="boundary" inkscape:connector-curvature="0" />
	<path style="fill:none;stroke:red;stroke-width:1px;stroke-linecap:butt;stroke-linejoin:miter;stroke-opacity:1" d="M 970.441,456.071 970.441,440.097 z" id="boundary" inkscape:connector-curvature="0" />
	<path style="fill:none;stroke:red;stroke-width:1px;stroke-linecap:butt;stroke-linejoin:miter;stroke-opacity:1" d="M 940.09,612.618 932.103,628.593 z" id="boundary" inkscape:connector-curvature="0" />
	<path style="fill:none;stroke:red;stroke-width:1px;stroke-linecap:butt;stroke-linejoin:miter;stroke-opacity:1" d="M 960.857,393.771 948.077,404.953 z" id="boundary" inkscape:connector-curvature="0" />
	<path style="fill:none;stroke:red;stroke-width:1px;stroke-linecap:butt;stroke-linejoin:miter;stroke-opacity:1" d="M 952.87,601.436 940.09,612.618 z" id="boundary" inkscape:connector-curvature="0" />
	<path style="fill:none;stroke:red;stroke-width:1px;stroke-linecap:butt;stroke-linejoin:miter;stroke-opacity:1" d="M 970.441,440.097 970.441,424.122 z" id="boundary" inkscape:connector-curvature="0" />
	<path style="fill:none;stroke:red;stroke-width:1px;stroke-linecap:butt;stroke-linejoin:miter;stroke-opacity:1" d="M 964.052,299.523 964.052,283.549 z" id="boundary" inkscape:connector-curvature="0" />
	<path style="fill:none;stroke:red;stroke-width:1px;stroke-linecap:butt;stroke-linejoin:miter;stroke-opacity:1" d="M 964.052,283.549 959.259,267.575 z" id="boundary" inkscape:connector-curvature="0" />
	<path style="fill:none;stroke:red;stroke-width:1px;stroke-linecap:butt;stroke-linejoin:miter;stroke-opacity:1" d="M 948.077,583.865 940.09,569.488 z" id="boundary" inkscape:connector-curvature="0" />
	<path style="fill:none;stroke:red;stroke-width:1px;stroke-linecap:butt;stroke-linejoin:miter;stroke-opacity:1" d="M 959.259,267.575 951.272,253.198 z" id="boundary" inkscape:connector-curvature="0" />
	<path style="fill:none;stroke:red;stroke-width:1px;stroke-linecap:butt;stroke-linejoin:miter;stroke-opacity:1" d="M 952.87,601.436 948.077,583.865 z" id="boundary" inkscape:connector-curvature="0" />
	<path style="fill:none;stroke:red;stroke-width:1px;stroke-linecap:butt;stroke-linejoin:miter;stroke-opacity:1" d="M 940.09,240.419 951.272,253.198 z" id="boundary" inkscape:connector-curvature="0" />
	<path style="fill:none;stroke:red;stroke-width:1px;stroke-linecap:butt;stroke-linejoin:miter;stroke-opacity:1" d="M 964.052,349.043 964.052,365.018 z" id="boundary" inkscape:connector-curvature="0" />
	<path style="fill:none;stroke:red;stroke-width:1px;stroke-linecap:butt;stroke-linejoin:miter;stroke-opacity:1" d="M 964.052,299.523 976.831,309.108 z" id="boundary" inkscape:connector-curvature="0" />
	<path style="fill:none;stroke:red;stroke-width:1px;stroke-linecap:butt;stroke-linejoin:miter;stroke-opacity:1" d="M 978.428,373.005 978.428,357.031 z" id="boundary" inkscape:connector-curvature="0" />
	<path style="fill:none;stroke:red;stroke-width:1px;stroke-linecap:butt;stroke-linejoin:miter;stroke-opacity:1" d="M 976.831,309.108 980.026,325.082 z" id="boundary" inkscape:connector-curvature="0" />
	<path style="fill:none;stroke:red;stroke-width:1px;stroke-linecap:butt;stroke-linejoin:miter;stroke-opacity:1" d="M 978.428,388.979 978.428,373.005 z" id="boundary" inkscape:connector-curvature="0" />
	<path style="fill:none;stroke:red;stroke-width:1px;stroke-linecap:butt;stroke-linejoin:miter;stroke-opacity:1" d="M 978.428,388.979 978.428,404.953 z" id="boundary" inkscape:connector-curvature="0" />
	<path style="fill:none;stroke:red;stroke-width:1px;stroke-linecap:butt;stroke-linejoin:miter;stroke-opacity:1" d="M 988.013,339.459 980.026,325.082 z" id="boundary" inkscape:connector-curvature="0" />
	<path style="fill:none;stroke:red;stroke-width:1px;stroke-linecap:butt;stroke-linejoin:miter;stroke-opacity:1" d="M 996,369.81 996,353.836 z" id="boundary" inkscape:connector-curvature="0" />
	<path style="fill:none;stroke:red;stroke-width:1px;stroke-linecap:butt;stroke-linejoin:miter;stroke-opacity:1" d="M 986.415,448.084 986.415,464.058 z" id="boundary" inkscape:connector-curvature="0" />
	<path style="fill:none;stroke:red;stroke-width:1px;stroke-linecap:butt;stroke-linejoin:miter;stroke-opacity:1" d="M 996,353.836 988.013,339.459 z" id="boundary" inkscape:connector-curvature="0" />
	<path style="fill:none;stroke:red;stroke-width:1px;stroke-linecap:butt;stroke-linejoin:miter;stroke-opacity:1" d="M 986.415,448.084 994.403,432.11 z" id="boundary" inkscape:connector-curvature="0" />
	<path style="fill:none;stroke:red;stroke-width:1px;stroke-linecap:butt;stroke-linejoin:miter;stroke-opacity:1" d="M 996,388.979 996,404.953 z" id="boundary" inkscape:connector-curvature="0" />
	<path style="fill:none;stroke:red;stroke-width:1px;stroke-linecap:butt;stroke-linejoin:miter;stroke-opacity:1" d="M 996,404.953 978.428,404.953 z" id="boundary" inkscape:connector-curvature="0" />
	<circle cx="4" cy="136.586" r="4" fill="#0" id="circle0"/>
	<circle cx="4" cy="152.56" r="4" fill="#0" id="circle1"/>
	<circle cx="11.9871" cy="112.625" r="4" fill="#0" id="circle2"/>
	<circle cx="11.9871" cy="166.937" r="4" fill="#0" id="circle3"/>
	<circle cx="19.9742" cy="96.6506" r="4" fill="#0" id="circle4"/>
	<circle cx="19.9742" cy="181.314" r="4" fill="#0" id="circle5"/>
	<circle cx="24.7665" cy="197.288" r="4" fill="#0" id="circle6"/>
	<circle cx="27.9614" cy="80.6763" r="4" fill="#0" id="circle7"/>
	<circle cx="39.1433" cy="205.275" r="4" fill="#0" id="circle8"/>
	<circle cx="43.9356" cy="75.8841" r="4" fill="#0" id="circle9"/>
	<circle cx="53.5201" cy="63.1047" r="4" fill="#0" id="circle10"/>
	<circle cx="53.5201" cy="133.391" r="4" fill="#0" id="circle11"/>
	<circle cx="53.5201" cy="149.366" r="4" fill="#0" id="circle12"/>
	<circle cx="53.5201" cy="213.262" r="4" fill="#0" id="circle13"/>
	<circle cx="61.5072" cy="117.417" r="4" fill="#0" id="circle14"/>
	<circle cx="61.5072" cy="163.742" r="4" fill="#0" id="circle15"/>
	<circle cx="61.5072" cy="179.717" r="4" fill="#0" id="circle16"/>
	<circle cx="67.8969" cy="221.25" r="4" fill="#0" id="circle17"/>
	<circle cx="69.4944" cy="59.9098" r="4" fill="#0" id="circle18"/>
	<circle cx="69.4944" cy="194.093" r="4" fill="#0" id="circle19"/>
	<circle cx="75.8841" cy="125.404" r="4" fill="#0" id="circle20"/>
	<circle cx="77.4815" cy="234.029" r="4" fill="#0" id="circle21"/>
	<circle cx="85.4686" cy="55.1176" r="4" fill="#0" id="circle22"/>
	<circle cx="85.4686" cy="200.483" r="4" fill="#0" id="circle23"/>
	<circle cx="90.2609" cy="133.391" r="4" fill="#0" id="circle24"/>
	<circle cx="93.4557" cy="237.224" r="4" fill="#0" id="circle25"/>
	<circle cx="101.443" cy="51.9227" r="4" fill="#0" id="circle26"/>
	<circle cx="101.443" cy="203.678" r="4" fill="#0" id="circle27"/>
	<circle cx="104.638" cy="141.378" r="4" fill="#0" id="circle28"/>
	<circle cx="109.43" cy="240.419" r="4" fill="#0" id="circle29"/>
	<circle cx="117.417" cy="47.1304" r="4" fill="#0" id="circle30"/>
	<circle cx="117.417" cy="208.47" r="4" fill="#0" id="circle31"/>
	<circle cx="120.612" cy="147.768" r="4" fill="#0" id="circle32"/>
	<circle cx="123.807" cy="16.7794" r="4" fill="#0" id="circle33"/>
	<circle cx="125.404" cy="240.419" r="4" fill="#0" id="circle34"/>
	<circle cx="133.391" cy="211.665" r="4" fill="#0" id="circle35"/>
	<circle cx="136.586" cy="27.9614" r="4" fill="#0" id="circle36"/>
	<circle cx="136.586" cy="149.366" r="4" fill="#0" id="circle37"/>
	<circle cx="136.586" cy="253.198" r="4" fill="#0" id="circle38"/>
	<circle cx="141.378" cy="43.9356" r="4" fill="#0" id="circle39"/>
	<circle cx="147.768" cy="219.652" r="4" fill="#0" id="circle40"/>
	<circle cx="150.963" cy="157.353" r="4" fill="#0" id="circle41"/>
	<circle cx="150.963" cy="261.185" r="4" fill="#0" id="circle42"/>
	<circle cx="157.353" cy="43.9356" r="4" fill="#0" id="circle43"/>
	<circle cx="157.353" cy="232.432" r="4" fill="#0" id="circle44"/>
	<circle cx="165.34" cy="269.172" r="4" fill="#0" id="circle45"/>
	<circle cx="166.937" cy="157.353" r="4" fill="#0" id="circle46"/>
	<circle cx="171.729" cy="240.419" r="4" fill="#0" id="circle47"/>
	<circle cx="173.327" cy="43.9356" r="4" fill="#0" id="circle48"/>
	<circle cx="179.717" cy="254.795" r="4" fill="#0" id="circle49"/>
	<circle cx="182.911" cy="157.353" r="4" fill="#0" id="circle50"/>
	<circle cx="189.301" cy="43.9356" r="4" fill="#0" id="circle51"/>
	<circle cx="198.886" cy="157.353" r="4" fill="#0" id="circle52"/>
	<circle cx="203.678" cy="51.9227" r="4" fill="#0" id="circle53"/>
	<circle cx="214.86" cy="157.353" r="4" fill="#0" id="circle54"/>
	<circle cx="219.652" cy="51.9227" r="4" fill="#0" id="circle55"/>
	<circle cx="229.237" cy="165.34" r="4" fill="#0" id="circle56"/>
	<circle cx="235.626" cy="51.9227" r="4" fill="#0" id="circle57"/>
	<circle cx="243.614" cy="157.353" r="4" fill="#0" id="circle58"/>
	<circle cx="251.601" cy="51.9227" r="4" fill="#0" id="circle59"/>
	<circle cx="259.588" cy="157.353" r="4" fill="#0" id="circle60"/>
	<circle cx="267.575" cy="51.9227" r="4" fill="#0" id="circle61"/>
	<circle cx="267.575" cy="671.723" r="4" fill="#0" id="circle62"/>
	<circle cx="275.562" cy="157.353" r="4" fill="#0" id="circle63"/>
	<circle cx="275.562" cy="655.749" r="4" fill="#0" id="circle64"/>
	<circle cx="275.562" cy="686.1" r="4" fill="#0" id="circle65"/>
	<circle cx="283.549" cy="51.9227" r="4" fill="#0" id="circle66"/>
	<circle cx="291.536" cy="160.548" r="4" fill="#0" id="circle67"/>
	<circle cx="291.536" cy="650.957" r="4" fill="#0" id="circle68"/>
	<circle cx="291.536" cy="692.49" r="4" fill="#0" id="circle69"/>
	<circle cx="297.926" cy="43.9356" r="4" fill="#0" id="circle70"/>
	<circle cx="299.523" cy="174.924" r="4" fill="#0" id="circle71"/>
	<circle cx="305.913" cy="642.969" r="4" fill="#0" id="circle72"/>
	<circle cx="307.51" cy="189.301" r="4" fill="#0" id="circle73"/>
	<circle cx="307.51" cy="692.49" r="4" fill="#0" id="circle74"/>
	<circle cx="309.108" cy="31.1562" r="4" fill="#0" id="circle75"/>
	<circle cx="312.303" cy="626.995" r="4" fill="#0" id="circle76"/>
	<circle cx="320.29" cy="611.021" r="4" fill="#0" id="circle77"/>
	<circle cx="321.887" cy="197.288" r="4" fill="#0" id="circle78"/>
	<circle cx="323.485" cy="692.49" r="4" fill="#0" id="circle79"/>
	<circle cx="325.082" cy="23.1691" r="4" fill="#0" id="circle80"/>
	<circle cx="328.277" cy="595.047" r="4" fill="#0" id="circle81"/>
	<circle cx="331.472" cy="210.068" r="4" fill="#0" id="circle82"/>
	<circle cx="331.472" cy="575.878" r="4" fill="#0" id="circle83"/>
	<circle cx="339.459" cy="224.444" r="4" fill="#0" id="circle84"/>
	<circle cx="339.459" cy="240.419" r="4" fill="#0" id="circle85"/>
	<circle cx="339.459" cy="344.251" r="4" fill="#0" id="circle86"/>
	<circle cx="339.459" cy="543.929" r="4" fill="#0" id="circle87"/>
	<circle cx="339.459" cy="559.903" r="4" fill="#0" id="circle88"/>
	<circle cx="339.459" cy="692.49" r="4" fill="#0" id="circle89"/>
	<circle cx="341.056" cy="19.9742" r="4" fill="#0" id="circle90"/>
	<circle cx="349.043" cy="253.198" r="4" fill="#0" id="circle91"/>
	<circle cx="355.433" cy="304.316" r="4" fill="#0" id="circle92"/>
	<circle cx="355.433" cy="320.29" r="4" fill="#0" id="circle93"/>
	<circle cx="355.433" cy="336.264" r="4" fill="#0" id="circle94"/>
	<circle cx="355.433" cy="352.238" r="4" fill="#0" id="circle95"/>
	<circle cx="355.433" cy="368.213" r="4" fill="#0" id="circle96"/>
	<circle cx="355.433" cy="392.174" r="4" fill="#0" id="circle97"/>
	<circle cx="355.433" cy="472.045" r="4" fill="#0" id="circle98"/>
	<circle cx="355.433" cy="488.019" r="4" fill="#0" id="circle99"/>
	<circle cx="355.433" cy="503.994" r="4" fill="#0" id="circle100"/>
	<circle cx="355.433" cy="519.968" r="4" fill="#0" id="circle101"/>
	<circle cx="355.433" cy="535.942" r="4" fill="#0" id="circle102"/>
	<circle cx="355.433" cy="692.49" r="4" fill="#0" id="circle103"/>
	<circle cx="357.031" cy="15.182" r="4" fill="#0" id="circle104"/>
	<circle cx="363.42" cy="261.185" r="4" fill="#0" id="circle105"/>
	<circle cx="363.42" cy="277.159" r="4" fill="#0" id="circle106"/>
	<circle cx="363.42" cy="406.551" r="4" fill="#0" id="circle107"/>
	<circle cx="363.42" cy="456.071" r="4" fill="#0" id="circle108"/>
	<circle cx="371.407" cy="420.928" r="4" fill="#0" id="circle109"/>
	<circle cx="371.407" cy="436.902" r="4" fill="#0" id="circle110"/>
	<circle cx="371.407" cy="692.49" r="4" fill="#0" id="circle111"/>
	<circle cx="373.005" cy="11.9871" r="4" fill="#0" id="circle112"/>
	<circle cx="387.382" cy="19.9742" r="4" fill="#0" id="circle113"/>
	<circle cx="387.382" cy="687.697" r="4" fill="#0" id="circle114"/>
	<circle cx="400.161" cy="674.918" r="4" fill="#0" id="circle115"/>
	<circle cx="403.356" cy="16.7794" r="4" fill="#0" id="circle116"/>
	<circle cx="404.953" cy="636.58" r="4" fill="#0" id="circle117"/>
	<circle cx="404.953" cy="652.554" r="4" fill="#0" id="circle118"/>
	<circle cx="419.33" cy="11.9871" r="4" fill="#0" id="circle119"/>
	<circle cx="420.928" cy="612.618" r="4" fill="#0" id="circle120"/>
	<circle cx="420.928" cy="628.593" r="4" fill="#0" id="circle121"/>
	<circle cx="428.915" cy="596.644" r="4" fill="#0" id="circle122"/>
	<circle cx="433.707" cy="4" r="4" fill="#0" id="circle123"/>
	<circle cx="436.902" cy="564.696" r="4" fill="#0" id="circle124"/>
	<circle cx="436.902" cy="580.67" r="4" fill="#0" id="circle125"/>
	<circle cx="449.681" cy="4" r="4" fill="#0" id="circle126"/>
	<circle cx="452.876" cy="540.734" r="4" fill="#0" id="circle127"/>
	<circle cx="452.876" cy="556.709" r="4" fill="#0" id="circle128"/>
	<circle cx="460.863" cy="524.76" r="4" fill="#0" id="circle129"/>
	<circle cx="464.058" cy="11.9871" r="4" fill="#0" id="circle130"/>
	<circle cx="475.24" cy="516.773" r="4" fill="#0" id="circle131"/>
	<circle cx="480.032" cy="11.9871" r="4" fill="#0" id="circle132"/>
	<circle cx="484.824" cy="500.799" r="4" fill="#0" id="circle133"/>
	<circle cx="494.409" cy="19.9742" r="4" fill="#0" id="circle134"/>
	<circle cx="499.201" cy="492.812" r="4" fill="#0" id="circle135"/>
	<circle cx="508.786" cy="27.9614" r="4" fill="#0" id="circle136"/>
	<circle cx="508.786" cy="43.9356" r="4" fill="#0" id="circle137"/>
	<circle cx="513.578" cy="500.799" r="4" fill="#0" id="circle138"/>
	<circle cx="523.163" cy="35.9485" r="4" fill="#0" id="circle139"/>
	<circle cx="529.552" cy="500.799" r="4" fill="#0" id="circle140"/>
	<circle cx="537.539" cy="27.9614" r="4" fill="#0" id="circle141"/>
	<circle cx="543.929" cy="492.812" r="4" fill="#0" id="circle142"/>
	<circle cx="553.514" cy="27.9614" r="4" fill="#0" id="circle143"/>
	<circle cx="559.903" cy="499.201" r="4" fill="#0" id="circle144"/>
	<circle cx="569.488" cy="27.9614" r="4" fill="#0" id="circle145"/>
	<circle cx="571.085" cy="511.981" r="4" fill="#0" id="circle146"/>
	<circle cx="571.085" cy="695.684" r="4" fill="#0" id="circle147"/>
	<circle cx="571.085" cy="711.659" r="4" fill="#0" id="circle148"/>
	<circle cx="579.072" cy="526.357" r="4" fill="#0" id="circle149"/>
	<circle cx="579.072" cy="671.723" r="4" fill="#0" id="circle150"/>
	<circle cx="585.462" cy="27.9614" r="4" fill="#0" id="circle151"/>
	<circle cx="587.06" cy="540.734" r="4" fill="#0" id="circle152"/>
	<circle cx="587.06" cy="556.709" r="4" fill="#0" id="circle153"/>
	<circle cx="587.06" cy="716.451" r="4" fill="#0" id="circle154"/>
	<circle cx="591.852" cy="658.944" r="4" fill="#0" id="circle155"/>
	<circle cx="601.436" cy="27.9614" r="4" fill="#0" id="circle156"/>
	<circle cx="601.436" cy="564.696" r="4" fill="#0" id="circle157"/>
	<circle cx="603.034" cy="580.67" r="4" fill="#0" id="circle158"/>
	<circle cx="603.034" cy="596.644" r="4" fill="#0" id="circle159"/>
	<circle cx="603.034" cy="612.618" r="4" fill="#0" id="circle160"/>
	<circle cx="603.034" cy="628.593" r="4" fill="#0" id="circle161"/>
	<circle cx="603.034" cy="644.567" r="4" fill="#0" id="circle162"/>
	<circle cx="603.034" cy="719.646" r="4" fill="#0" id="circle163"/>
	<circle cx="612.618" cy="40.7407" r="4" fill="#0" id="circle164"/>
	<circle cx="619.008" cy="719.646" r="4" fill="#0" id="circle165"/>
	<circle cx="626.995" cy="48.7279" r="4" fill="#0" id="circle166"/>
	<circle cx="634.982" cy="719.646" r="4" fill="#0" id="circle167"/>
	<circle cx="639.775" cy="59.9098" r="4" fill="#0" id="circle168"/>
	<circle cx="650.957" cy="719.646" r="4" fill="#0" id="circle169"/>
	<circle cx="654.151" cy="67.8969" r="4" fill="#0" id="circle170"/>
	<circle cx="666.931" cy="716.451" r="4" fill="#0" id="circle171"/>
	<circle cx="668.528" cy="75.8841" r="4" fill="#0" id="circle172"/>
	<circle cx="682.905" cy="711.659" r="4" fill="#0" id="circle173"/>
	<circle cx="684.502" cy="75.8841" r="4" fill="#0" id="circle174"/>
	<circle cx="684.502" cy="532.747" r="4" fill="#0" id="circle175"/>
	<circle cx="684.502" cy="548.721" r="4" fill="#0" id="circle176"/>
	<circle cx="684.502" cy="572.683" r="4" fill="#0" id="circle177"/>
	<circle cx="684.502" cy="588.657" r="4" fill="#0" id="circle178"/>
	<circle cx="692.49" cy="603.034" r="4" fill="#0" id="circle179"/>
	<circle cx="692.49" cy="619.008" r="4" fill="#0" id="circle180"/>
	<circle cx="692.49" cy="634.982" r="4" fill="#0" id="circle181"/>
	<circle cx="697.282" cy="521.565" r="4" fill="#0" id="circle182"/>
	<circle cx="698.879" cy="703.671" r="4" fill="#0" id="circle183"/>
	<circle cx="700.477" cy="75.8841" r="4" fill="#0" id="circle184"/>
	<circle cx="700.477" cy="500.799" r="4" fill="#0" id="circle185"/>
	<circle cx="700.477" cy="649.359" r="4" fill="#0" id="circle186"/>
	<circle cx="708.464" cy="663.736" r="4" fill="#0" id="circle187"/>
	<circle cx="708.464" cy="679.71" r="4" fill="#0" id="circle188"/>
	<circle cx="714.853" cy="508.786" r="4" fill="#0" id="circle189"/>
	<circle cx="716.451" cy="75.8841" r="4" fill="#0" id="circle190"/>
	<circle cx="730.828" cy="508.786" r="4" fill="#0" id="circle191"/>
	<circle cx="732.425" cy="75.8841" r="4" fill="#0" id="circle192"/>
	<circle cx="746.802" cy="83.8712" r="4" fill="#0" id="circle193"/>
	<circle cx="746.802" cy="508.786" r="4" fill="#0" id="circle194"/>
	<circle cx="756.386" cy="521.565" r="4" fill="#0" id="circle195"/>
	<circle cx="762.776" cy="87.066" r="4" fill="#0" id="circle196"/>
	<circle cx="762.776" cy="537.539" r="4" fill="#0" id="circle197"/>
	<circle cx="770.763" cy="551.916" r="4" fill="#0" id="circle198"/>
	<circle cx="770.763" cy="567.89" r="4" fill="#0" id="circle199"/>
	<circle cx="770.763" cy="583.865" r="4" fill="#0" id="circle200"/>
	<circle cx="770.763" cy="647.762" r="4" fill="#0" id="circle201"/>
	<circle cx="770.763" cy="663.736" r="4" fill="#0" id="circle202"/>
	<circle cx="778.75" cy="91.8583" r="4" fill="#0" id="circle203"/>
	<circle cx="780.348" cy="676.515" r="4" fill="#0" id="circle204"/>
	<circle cx="786.738" cy="588.657" r="4" fill="#0" id="circle205"/>
	<circle cx="786.738" cy="604.631" r="4" fill="#0" id="circle206"/>
	<circle cx="786.738" cy="620.605" r="4" fill="#0" id="circle207"/>
	<circle cx="786.738" cy="636.58" r="4" fill="#0" id="circle208"/>
	<circle cx="788.335" cy="104.638" r="4" fill="#0" id="circle209"/>
	<circle cx="794.725" cy="684.502" r="4" fill="#0" id="circle210"/>
	<circle cx="802.712" cy="112.625" r="4" fill="#0" id="circle211"/>
	<circle cx="809.101" cy="692.49" r="4" fill="#0" id="circle212"/>
	<circle cx="818.686" cy="119.014" r="4" fill="#0" id="circle213"/>
	<circle cx="825.076" cy="689.295" r="4" fill="#0" id="circle214"/>
	<circle cx="834.66" cy="123.807" r="4" fill="#0" id="circle215"/>
	<circle cx="834.66" cy="676.515" r="4" fill="#0" id="circle216"/>
	<circle cx="850.634" cy="127.002" r="4" fill="#0" id="circle217"/>
	<circle cx="850.634" cy="671.723" r="4" fill="#0" id="circle218"/>
	<circle cx="852.232" cy="540.734" r="4" fill="#0" id="circle219"/>
	<circle cx="852.232" cy="556.709" r="4" fill="#0" id="circle220"/>
	<circle cx="852.232" cy="572.683" r="4" fill="#0" id="circle221"/>
	<circle cx="860.219" cy="139.781" r="4" fill="#0" id="circle222"/>
	<circle cx="860.219" cy="587.06" r="4" fill="#0" id="circle223"/>
	<circle cx="860.219" cy="603.034" r="4" fill="#0" id="circle224"/>
	<circle cx="860.219" cy="619.008" r="4" fill="#0" id="circle225"/>
	<circle cx="863.414" cy="658.944" r="4" fill="#0" id="circle226"/>
	<circle cx="866.609" cy="564.696" r="4" fill="#0" id="circle227"/>
	<circle cx="868.206" cy="633.385" r="4" fill="#0" id="circle228"/>
	<circle cx="872.998" cy="149.366" r="4" fill="#0" id="circle229"/>
	<circle cx="884.18" cy="162.145" r="4" fill="#0" id="circle230"/>
	<circle cx="884.18" cy="628.593" r="4" fill="#0" id="circle231"/>
	<circle cx="892.167" cy="176.522" r="4" fill="#0" id="circle232"/>
	<circle cx="900.155" cy="190.899" r="4" fill="#0" id="circle233"/>
	<circle cx="900.155" cy="628.593" r="4" fill="#0" id="circle234"/>
	<circle cx="914.531" cy="198.886" r="4" fill="#0" id="circle235"/>
	<circle cx="916.129" cy="628.593" r="4" fill="#0" id="circle236"/>
	<circle cx="924.116" cy="211.665" r="4" fill="#0" id="circle237"/>
	<circle cx="924.116" cy="460.863" r="4" fill="#0" id="circle238"/>
	<circle cx="924.116" cy="476.837" r="4" fill="#0" id="circle239"/>
	<circle cx="924.116" cy="508.786" r="4" fill="#0" id="circle240"/>
	<circle cx="924.116" cy="524.76" r="4" fill="#0" id="circle241"/>
	<circle cx="932.103" cy="226.042" r="4" fill="#0" id="circle242"/>
	<circle cx="932.103" cy="444.889" r="4" fill="#0" id="circle243"/>
	<circle cx="932.103" cy="491.214" r="4" fill="#0" id="circle244"/>
	<circle cx="932.103" cy="539.137" r="4" fill="#0" id="circle245"/>
	<circle cx="932.103" cy="555.111" r="4" fill="#0" id="circle246"/>
	<circle cx="932.103" cy="628.593" r="4" fill="#0" id="circle247"/>
	<circle cx="940.09" cy="240.419" r="4" fill="#0" id="circle248"/>
	<circle cx="940.09" cy="569.488" r="4" fill="#0" id="circle249"/>
	<circle cx="940.09" cy="612.618" r="4" fill="#0" id="circle250"/>
	<circle cx="944.882" cy="433.707" r="4" fill="#0" id="circle251"/>
	<circle cx="948.077" cy="404.953" r="4" fill="#0" id="circle252"/>
	<circle cx="948.077" cy="583.865" r="4" fill="#0" id="circle253"/>
	<circle cx="951.272" cy="253.198" r="4" fill="#0" id="circle254"/>
	<circle cx="952.87" cy="601.436" r="4" fill="#0" id="circle255"/>
	<circle cx="959.259" cy="267.575" r="4" fill="#0" id="circle256"/>
	<circle cx="960.857" cy="393.771" r="4" fill="#0" id="circle257"/>
	<circle cx="964.052" cy="283.549" r="4" fill="#0" id="circle258"/>
	<circle cx="964.052" cy="299.523" r="4" fill="#0" id="circle259"/>
	<circle cx="964.052" cy="349.043" r="4" fill="#0" id="circle260"/>
	<circle cx="964.052" cy="365.018" r="4" fill="#0" id="circle261"/>
	<circle cx="970.441" cy="424.122" r="4" fill="#0" id="circle262"/>
	<circle cx="970.441" cy="440.097" r="4" fill="#0" id="circle263"/>
	<circle cx="970.441" cy="456.071" r="4" fill="#0" id="circle264"/>
	<circle cx="970.441" cy="472.045" r="4" fill="#0" id="circle265"/>
	<circle cx="976.831" cy="309.108" r="4" fill="#0" id="circle266"/>
	<circle cx="978.428" cy="357.031" r="4" fill="#0" id="circle267"/>
	<circle cx="978.428" cy="373.005" r="4" fill="#0" id="circle268"/>
	<circle cx="978.428" cy="388.979" r="4" fill="#0" id="circle269"/>
	<circle cx="978.428" cy="404.953" r="4" fill="#0" id="circle270"/>
	<circle cx="980.026" cy="325.082" r="4" fill="#0" id="circle271"/>
	<circle cx="986.415" cy="448.084" r="4" fill="#0" id="circle272"/>
	<circle cx="986.415" cy="464.058" r="4" fill="#0" id="circle273"/>
	<circle cx="988.013" cy="339.459" r="4" fill="#0" id="circle274"/>
	<circle cx="994.403" cy="432.11" r="4" fill="#0" id="circle275"/>
	<circle cx="996" cy="353.836" r="4" fill="#0" id="circle276"/>
	<circle cx="996" cy="369.81" r="4" fill="#0" id="circle277"/>
	<circle cx="996" cy="388.979" r="4" fill="#0" id="circle278"/>
	<circle cx="996" cy="404.953" r="4" fill="#0" id="circle279"/>
	</g>
</svg>