<?xml version="1.0" encoding="UTF-8" standalone="no"?>
<!-- Created with CurveBenchmark -->
<svg
	xmlns:dc="http://purl.org/dc/elements/1.1/"
	xmlns:cc="http://creativecommons.org/ns#"
	xmlns:rdf="http://www.w3.org/1999/02/22-rdf-syntax-ns#"
	xmlns:svg="http://www.w3.org/2000/svg"
	xmlns="http://www.w3.org/2000/svg"
	xmlns:sodipodi="http://sodipodi.sourceforge.net/DTD/sodipodi-0.dtd"
	xmlns:inkscape="http://www.inkscape.org/namespaces/inkscape"
	width="1000"
	height="1000"
	id="svg2"
	version="1.1"
	sodipodi:docname="manifold/peel-fish120.png.txt">
<defs
	id="defs4" />
<metadata
	id="metadata7">
	<rdf:RDF>
		<cc:Work
			rdf:about="">
			<dc:format>image/svg+xml</dc:format>
			<dc:type
				rdf:resource="http://purl.org/dc/dcmitype/StillImage" />
			<dc:title></dc:title>
		</cc:Work>
	</rdf:RDF>
</metadata>
<g
	inkscape:label="Layer 1"
	inkscape:groupmode="layer"
	id="layer1">
	<path style="fill:none;stroke:red;stroke-width:1px;stroke-linecap:butt;stroke-linejoin:miter;stroke-opacity:1" d="M 14.6096,343.508 9.30481,290.46 z" id="boundary" inkscape:connector-curvature="0" />
	<path style="fill:none;stroke:red;stroke-width:1px;stroke-linecap:butt;stroke-linejoin:miter;stroke-opacity:1" d="M 9.30481,290.46 4,237.412 z" id="boundary" inkscape:connector-curvature="0" />
	<path style="fill:none;stroke:red;stroke-width:1px;stroke-linecap:butt;stroke-linejoin:miter;stroke-opacity:1" d="M 14.6096,523.872 4,587.529 z" id="boundary" inkscape:connector-curvature="0" />
	<path style="fill:none;stroke:red;stroke-width:1px;stroke-linecap:butt;stroke-linejoin:miter;stroke-opacity:1" d="M 4,237.412 57.0481,232.107 z" id="boundary" inkscape:connector-curvature="0" />
	<path style="fill:none;stroke:red;stroke-width:1px;stroke-linecap:butt;stroke-linejoin:miter;stroke-opacity:1" d="M 25.2193,396.556 25.2193,449.604 z" id="boundary" inkscape:connector-curvature="0" />
	<path style="fill:none;stroke:red;stroke-width:1px;stroke-linecap:butt;stroke-linejoin:miter;stroke-opacity:1" d="M 25.2193,396.556 14.6096,343.508 z" id="boundary" inkscape:connector-curvature="0" />
	<path style="fill:none;stroke:red;stroke-width:1px;stroke-linecap:butt;stroke-linejoin:miter;stroke-opacity:1" d="M 57.0481,232.107 104.791,258.631 z" id="boundary" inkscape:connector-curvature="0" />
	<path style="fill:none;stroke:red;stroke-width:1px;stroke-linecap:butt;stroke-linejoin:miter;stroke-opacity:1" d="M 25.2193,449.604 14.6096,523.872 z" id="boundary" inkscape:connector-curvature="0" />
	<path style="fill:none;stroke:red;stroke-width:1px;stroke-linecap:butt;stroke-linejoin:miter;stroke-opacity:1" d="M 104.791,258.631 141.925,301.07 z" id="boundary" inkscape:connector-curvature="0" />
	<path style="fill:none;stroke:red;stroke-width:1px;stroke-linecap:butt;stroke-linejoin:miter;stroke-opacity:1" d="M 83.5722,624.663 30.5241,635.273 z" id="boundary" inkscape:connector-curvature="0" />
	<path style="fill:none;stroke:red;stroke-width:1px;stroke-linecap:butt;stroke-linejoin:miter;stroke-opacity:1" d="M 30.5241,635.273 4,587.529 z" id="boundary" inkscape:connector-curvature="0" />
	<path style="fill:none;stroke:red;stroke-width:1px;stroke-linecap:butt;stroke-linejoin:miter;stroke-opacity:1" d="M 141.925,301.07 184.364,332.898 z" id="boundary" inkscape:connector-curvature="0" />
	<path style="fill:none;stroke:red;stroke-width:1px;stroke-linecap:butt;stroke-linejoin:miter;stroke-opacity:1" d="M 216.193,624.663 237.412,677.711 z" id="boundary" inkscape:connector-curvature="0" />
	<path style="fill:none;stroke:red;stroke-width:1px;stroke-linecap:butt;stroke-linejoin:miter;stroke-opacity:1" d="M 269.241,194.973 242.717,242.717 z" id="boundary" inkscape:connector-curvature="0" />
	<path style="fill:none;stroke:red;stroke-width:1px;stroke-linecap:butt;stroke-linejoin:miter;stroke-opacity:1" d="M 126.011,587.529 83.5722,624.663 z" id="boundary" inkscape:connector-curvature="0" />
	<path style="fill:none;stroke:red;stroke-width:1px;stroke-linecap:butt;stroke-linejoin:miter;stroke-opacity:1" d="M 216.193,571.615 216.193,624.663 z" id="boundary" inkscape:connector-curvature="0" />
	<path style="fill:none;stroke:red;stroke-width:1px;stroke-linecap:butt;stroke-linejoin:miter;stroke-opacity:1" d="M 216.193,290.46 184.364,332.898 z" id="boundary" inkscape:connector-curvature="0" />
	<path style="fill:none;stroke:red;stroke-width:1px;stroke-linecap:butt;stroke-linejoin:miter;stroke-opacity:1" d="M 168.449,545.091 126.011,587.529 z" id="boundary" inkscape:connector-curvature="0" />
	<path style="fill:none;stroke:red;stroke-width:1px;stroke-linecap:butt;stroke-linejoin:miter;stroke-opacity:1" d="M 216.193,571.615 168.449,545.091 z" id="boundary" inkscape:connector-curvature="0" />
	<path style="fill:none;stroke:red;stroke-width:1px;stroke-linecap:butt;stroke-linejoin:miter;stroke-opacity:1" d="M 354.118,147.23 301.07,152.535 z" id="boundary" inkscape:connector-curvature="0" />
	<path style="fill:none;stroke:red;stroke-width:1px;stroke-linecap:butt;stroke-linejoin:miter;stroke-opacity:1" d="M 301.07,152.535 269.241,194.973 z" id="boundary" inkscape:connector-curvature="0" />
	<path style="fill:none;stroke:red;stroke-width:1px;stroke-linecap:butt;stroke-linejoin:miter;stroke-opacity:1" d="M 290.46,688.321 237.412,677.711 z" id="boundary" inkscape:connector-curvature="0" />
	<path style="fill:none;stroke:red;stroke-width:1px;stroke-linecap:butt;stroke-linejoin:miter;stroke-opacity:1" d="M 216.193,290.46 242.717,242.717 z" id="boundary" inkscape:connector-curvature="0" />
	<path style="fill:none;stroke:red;stroke-width:1px;stroke-linecap:butt;stroke-linejoin:miter;stroke-opacity:1" d="M 354.118,147.23 396.556,179.059 z" id="boundary" inkscape:connector-curvature="0" />
	<path style="fill:none;stroke:red;stroke-width:1px;stroke-linecap:butt;stroke-linejoin:miter;stroke-opacity:1" d="M 428.385,789.112 428.385,842.16 z" id="boundary" inkscape:connector-curvature="0" />
	<path style="fill:none;stroke:red;stroke-width:1px;stroke-linecap:butt;stroke-linejoin:miter;stroke-opacity:1" d="M 343.508,667.102 290.46,688.321 z" id="boundary" inkscape:connector-curvature="0" />
	<path style="fill:none;stroke:red;stroke-width:1px;stroke-linecap:butt;stroke-linejoin:miter;stroke-opacity:1" d="M 396.556,656.492 343.508,667.102 z" id="boundary" inkscape:connector-curvature="0" />
	<path style="fill:none;stroke:red;stroke-width:1px;stroke-linecap:butt;stroke-linejoin:miter;stroke-opacity:1" d="M 438.995,141.925 481.433,88.877 z" id="boundary" inkscape:connector-curvature="0" />
	<path style="fill:none;stroke:red;stroke-width:1px;stroke-linecap:butt;stroke-linejoin:miter;stroke-opacity:1" d="M 396.556,179.059 438.995,141.925 z" id="boundary" inkscape:connector-curvature="0" />
	<path style="fill:none;stroke:red;stroke-width:1px;stroke-linecap:butt;stroke-linejoin:miter;stroke-opacity:1" d="M 396.556,656.492 449.604,656.492 z" id="boundary" inkscape:connector-curvature="0" />
	<path style="fill:none;stroke:red;stroke-width:1px;stroke-linecap:butt;stroke-linejoin:miter;stroke-opacity:1" d="M 449.604,656.492 449.604,725.455 z" id="boundary" inkscape:connector-curvature="0" />
	<path style="fill:none;stroke:red;stroke-width:1px;stroke-linecap:butt;stroke-linejoin:miter;stroke-opacity:1" d="M 449.604,725.455 428.385,789.112 z" id="boundary" inkscape:connector-curvature="0" />
	<path style="fill:none;stroke:red;stroke-width:1px;stroke-linecap:butt;stroke-linejoin:miter;stroke-opacity:1" d="M 571.615,30.5241 523.872,57.0481 z" id="boundary" inkscape:connector-curvature="0" />
	<path style="fill:none;stroke:red;stroke-width:1px;stroke-linecap:butt;stroke-linejoin:miter;stroke-opacity:1" d="M 656.492,46.4385 683.016,94.1818 z" id="boundary" inkscape:connector-curvature="0" />
	<path style="fill:none;stroke:red;stroke-width:1px;stroke-linecap:butt;stroke-linejoin:miter;stroke-opacity:1" d="M 481.433,858.075 428.385,842.16 z" id="boundary" inkscape:connector-curvature="0" />
	<path style="fill:none;stroke:red;stroke-width:1px;stroke-linecap:butt;stroke-linejoin:miter;stroke-opacity:1" d="M 683.016,94.1818 688.321,147.23 z" id="boundary" inkscape:connector-curvature="0" />
	<path style="fill:none;stroke:red;stroke-width:1px;stroke-linecap:butt;stroke-linejoin:miter;stroke-opacity:1" d="M 481.433,88.877 523.872,57.0481 z" id="boundary" inkscape:connector-curvature="0" />
	<path style="fill:none;stroke:red;stroke-width:1px;stroke-linecap:butt;stroke-linejoin:miter;stroke-opacity:1" d="M 523.872,815.636 481.433,858.075 z" id="boundary" inkscape:connector-curvature="0" />
	<path style="fill:none;stroke:red;stroke-width:1px;stroke-linecap:butt;stroke-linejoin:miter;stroke-opacity:1" d="M 566.31,773.198 523.872,815.636 z" id="boundary" inkscape:connector-curvature="0" />
	<path style="fill:none;stroke:red;stroke-width:1px;stroke-linecap:butt;stroke-linejoin:miter;stroke-opacity:1" d="M 714.845,194.973 688.321,147.23 z" id="boundary" inkscape:connector-curvature="0" />
	<path style="fill:none;stroke:red;stroke-width:1px;stroke-linecap:butt;stroke-linejoin:miter;stroke-opacity:1" d="M 640.578,767.893 667.102,815.636 z" id="boundary" inkscape:connector-curvature="0" />
	<path style="fill:none;stroke:red;stroke-width:1px;stroke-linecap:butt;stroke-linejoin:miter;stroke-opacity:1" d="M 598.139,730.759 566.31,773.198 z" id="boundary" inkscape:connector-curvature="0" />
	<path style="fill:none;stroke:red;stroke-width:1px;stroke-linecap:butt;stroke-linejoin:miter;stroke-opacity:1" d="M 619.358,4 656.492,46.4385 z" id="boundary" inkscape:connector-curvature="0" />
	<path style="fill:none;stroke:red;stroke-width:1px;stroke-linecap:butt;stroke-linejoin:miter;stroke-opacity:1" d="M 619.358,4 571.615,30.5241 z" id="boundary" inkscape:connector-curvature="0" />
	<path style="fill:none;stroke:red;stroke-width:1px;stroke-linecap:butt;stroke-linejoin:miter;stroke-opacity:1" d="M 640.578,767.893 598.139,730.759 z" id="boundary" inkscape:connector-curvature="0" />
	<path style="fill:none;stroke:red;stroke-width:1px;stroke-linecap:butt;stroke-linejoin:miter;stroke-opacity:1" d="M 667.102,815.636 698.93,858.075 z" id="boundary" inkscape:connector-curvature="0" />
	<path style="fill:none;stroke:red;stroke-width:1px;stroke-linecap:butt;stroke-linejoin:miter;stroke-opacity:1" d="M 751.979,672.406 762.588,725.455 z" id="boundary" inkscape:connector-curvature="0" />
	<path style="fill:none;stroke:red;stroke-width:1px;stroke-linecap:butt;stroke-linejoin:miter;stroke-opacity:1" d="M 762.588,778.503 762.588,725.455 z" id="boundary" inkscape:connector-curvature="0" />
	<path style="fill:none;stroke:red;stroke-width:1px;stroke-linecap:butt;stroke-linejoin:miter;stroke-opacity:1" d="M 751.979,831.551 698.93,858.075 z" id="boundary" inkscape:connector-curvature="0" />
	<path style="fill:none;stroke:red;stroke-width:1px;stroke-linecap:butt;stroke-linejoin:miter;stroke-opacity:1" d="M 714.845,194.973 767.893,205.583 z" id="boundary" inkscape:connector-curvature="0" />
	<path style="fill:none;stroke:red;stroke-width:1px;stroke-linecap:butt;stroke-linejoin:miter;stroke-opacity:1" d="M 767.893,205.583 810.332,237.412 z" id="boundary" inkscape:connector-curvature="0" />
	<path style="fill:none;stroke:red;stroke-width:1px;stroke-linecap:butt;stroke-linejoin:miter;stroke-opacity:1" d="M 762.588,778.503 751.979,831.551 z" id="boundary" inkscape:connector-curvature="0" />
	<path style="fill:none;stroke:red;stroke-width:1px;stroke-linecap:butt;stroke-linejoin:miter;stroke-opacity:1" d="M 751.979,672.406 805.027,651.187 z" id="boundary" inkscape:connector-curvature="0" />
	<path style="fill:none;stroke:red;stroke-width:1px;stroke-linecap:butt;stroke-linejoin:miter;stroke-opacity:1" d="M 805.027,651.187 852.77,624.663 z" id="boundary" inkscape:connector-curvature="0" />
	<path style="fill:none;stroke:red;stroke-width:1px;stroke-linecap:butt;stroke-linejoin:miter;stroke-opacity:1" d="M 852.77,624.663 905.818,603.444 z" id="boundary" inkscape:connector-curvature="0" />
	<path style="fill:none;stroke:red;stroke-width:1px;stroke-linecap:butt;stroke-linejoin:miter;stroke-opacity:1" d="M 863.38,258.631 810.332,237.412 z" id="boundary" inkscape:connector-curvature="0" />
	<path style="fill:none;stroke:red;stroke-width:1px;stroke-linecap:butt;stroke-linejoin:miter;stroke-opacity:1" d="M 916.428,274.545 953.561,316.984 z" id="boundary" inkscape:connector-curvature="0" />
	<path style="fill:none;stroke:red;stroke-width:1px;stroke-linecap:butt;stroke-linejoin:miter;stroke-opacity:1" d="M 916.428,274.545 863.38,258.631 z" id="boundary" inkscape:connector-curvature="0" />
	<path style="fill:none;stroke:red;stroke-width:1px;stroke-linecap:butt;stroke-linejoin:miter;stroke-opacity:1" d="M 948.257,561.005 905.818,603.444 z" id="boundary" inkscape:connector-curvature="0" />
	<path style="fill:none;stroke:red;stroke-width:1px;stroke-linecap:butt;stroke-linejoin:miter;stroke-opacity:1" d="M 953.561,316.984 974.781,370.032 z" id="boundary" inkscape:connector-curvature="0" />
	<path style="fill:none;stroke:red;stroke-width:1px;stroke-linecap:butt;stroke-linejoin:miter;stroke-opacity:1" d="M 974.781,502.652 948.257,561.005 z" id="boundary" inkscape:connector-curvature="0" />
	<path style="fill:none;stroke:red;stroke-width:1px;stroke-linecap:butt;stroke-linejoin:miter;stroke-opacity:1" d="M 996,423.08 974.781,502.652 z" id="boundary" inkscape:connector-curvature="0" />
	<path style="fill:none;stroke:red;stroke-width:1px;stroke-linecap:butt;stroke-linejoin:miter;stroke-opacity:1" d="M 996,423.08 974.781,370.032 z" id="boundary" inkscape:connector-curvature="0" />
	<circle cx="4" cy="237.412" r="4" fill="#0" id="circle0"/>
	<circle cx="4" cy="587.529" r="4" fill="#0" id="circle1"/>
	<circle cx="9.30481" cy="290.46" r="4" fill="#0" id="circle2"/>
	<circle cx="14.6096" cy="343.508" r="4" fill="#0" id="circle3"/>
	<circle cx="14.6096" cy="523.872" r="4" fill="#0" id="circle4"/>
	<circle cx="25.2193" cy="396.556" r="4" fill="#0" id="circle5"/>
	<circle cx="25.2193" cy="449.604" r="4" fill="#0" id="circle6"/>
	<circle cx="30.5241" cy="635.273" r="4" fill="#0" id="circle7"/>
	<circle cx="57.0481" cy="232.107" r="4" fill="#0" id="circle8"/>
	<circle cx="83.5722" cy="624.663" r="4" fill="#0" id="circle9"/>
	<circle cx="104.791" cy="258.631" r="4" fill="#0" id="circle10"/>
	<circle cx="126.011" cy="587.529" r="4" fill="#0" id="circle11"/>
	<circle cx="141.925" cy="301.07" r="4" fill="#0" id="circle12"/>
	<circle cx="168.449" cy="545.091" r="4" fill="#0" id="circle13"/>
	<circle cx="184.364" cy="332.898" r="4" fill="#0" id="circle14"/>
	<circle cx="216.193" cy="290.46" r="4" fill="#0" id="circle15"/>
	<circle cx="216.193" cy="571.615" r="4" fill="#0" id="circle16"/>
	<circle cx="216.193" cy="624.663" r="4" fill="#0" id="circle17"/>
	<circle cx="237.412" cy="677.711" r="4" fill="#0" id="circle18"/>
	<circle cx="242.717" cy="242.717" r="4" fill="#0" id="circle19"/>
	<circle cx="269.241" cy="194.973" r="4" fill="#0" id="circle20"/>
	<circle cx="290.46" cy="688.321" r="4" fill="#0" id="circle21"/>
	<circle cx="301.07" cy="152.535" r="4" fill="#0" id="circle22"/>
	<circle cx="343.508" cy="667.102" r="4" fill="#0" id="circle23"/>
	<circle cx="354.118" cy="147.23" r="4" fill="#0" id="circle24"/>
	<circle cx="396.556" cy="179.059" r="4" fill="#0" id="circle25"/>
	<circle cx="396.556" cy="656.492" r="4" fill="#0" id="circle26"/>
	<circle cx="428.385" cy="789.112" r="4" fill="#0" id="circle27"/>
	<circle cx="428.385" cy="842.16" r="4" fill="#0" id="circle28"/>
	<circle cx="438.995" cy="141.925" r="4" fill="#0" id="circle29"/>
	<circle cx="449.604" cy="656.492" r="4" fill="#0" id="circle30"/>
	<circle cx="449.604" cy="725.455" r="4" fill="#0" id="circle31"/>
	<circle cx="481.433" cy="88.877" r="4" fill="#0" id="circle32"/>
	<circle cx="481.433" cy="858.075" r="4" fill="#0" id="circle33"/>
	<circle cx="523.872" cy="57.0481" r="4" fill="#0" id="circle34"/>
	<circle cx="523.872" cy="815.636" r="4" fill="#0" id="circle35"/>
	<circle cx="566.31" cy="773.198" r="4" fill="#0" id="circle36"/>
	<circle cx="571.615" cy="30.5241" r="4" fill="#0" id="circle37"/>
	<circle cx="598.139" cy="730.759" r="4" fill="#0" id="circle38"/>
	<circle cx="619.358" cy="4" r="4" fill="#0" id="circle39"/>
	<circle cx="640.578" cy="767.893" r="4" fill="#0" id="circle40"/>
	<circle cx="656.492" cy="46.4385" r="4" fill="#0" id="circle41"/>
	<circle cx="667.102" cy="815.636" r="4" fill="#0" id="circle42"/>
	<circle cx="683.016" cy="94.1818" r="4" fill="#0" id="circle43"/>
	<circle cx="688.321" cy="147.23" r="4" fill="#0" id="circle44"/>
	<circle cx="698.93" cy="858.075" r="4" fill="#0" id="circle45"/>
	<circle cx="714.845" cy="194.973" r="4" fill="#0" id="circle46"/>
	<circle cx="751.979" cy="672.406" r="4" fill="#0" id="circle47"/>
	<circle cx="751.979" cy="831.551" r="4" fill="#0" id="circle48"/>
	<circle cx="762.588" cy="725.455" r="4" fill="#0" id="circle49"/>
	<circle cx="762.588" cy="778.503" r="4" fill="#0" id="circle50"/>
	<circle cx="767.893" cy="205.583" r="4" fill="#0" id="circle51"/>
	<circle cx="805.027" cy="651.187" r="4" fill="#0" id="circle52"/>
	<circle cx="810.332" cy="237.412" r="4" fill="#0" id="circle53"/>
	<circle cx="852.77" cy="624.663" r="4" fill="#0" id="circle54"/>
	<circle cx="863.38" cy="258.631" r="4" fill="#0" id="circle55"/>
	<circle cx="905.818" cy="603.444" r="4" fill="#0" id="circle56"/>
	<circle cx="916.428" cy="274.545" r="4" fill="#0" id="circle57"/>
	<circle cx="948.257" cy="561.005" r="4" fill="#0" id="circle58"/>
	<circle cx="953.561" cy="316.984" r="4" fill="#0" id="circle59"/>
	<circle cx="974.781" cy="370.032" r="4" fill="#0" id="circle60"/>
	<circle cx="974.781" cy="502.652" r="4" fill="#0" id="circle61"/>
	<circle cx="996" cy="423.08" r="4" fill="#0" id="circle62"/>
	</g>
</svg>