<?xml version="1.0" encoding="UTF-8" standalone="no"?>
<!-- Created with CurveBenchmark -->
<svg
	xmlns:dc="http://purl.org/dc/elements/1.1/"
	xmlns:cc="http://creativecommons.org/ns#"
	xmlns:rdf="http://www.w3.org/1999/02/22-rdf-syntax-ns#"
	xmlns:svg="http://www.w3.org/2000/svg"
	xmlns="http://www.w3.org/2000/svg"
	xmlns:sodipodi="http://sodipodi.sourceforge.net/DTD/sodipodi-0.dtd"
	xmlns:inkscape="http://www.inkscape.org/namespaces/inkscape"
	width="1000"
	height="1000"
	id="svg2"
	version="1.1"
	sodipodi:docname="manifold/peel-fgen1ap.png.txt">
<defs
	id="defs4" />
<metadata
	id="metadata7">
	<rdf:RDF>
		<cc:Work
			rdf:about="">
			<dc:format>image/svg+xml</dc:format>
			<dc:type
				rdf:resource="http://purl.org/dc/dcmitype/StillImage" />
			<dc:title></dc:title>
		</cc:Work>
	</rdf:RDF>
</metadata>
<g
	inkscape:label="Layer 1"
	inkscape:groupmode="layer"
	id="layer1">
	<path style="fill:none;stroke:red;stroke-width:1px;stroke-linecap:butt;stroke-linejoin:miter;stroke-opacity:1" d="M 70.7692,809.046 70.7692,828.123 z" id="boundary" inkscape:connector-curvature="0" />
	<path style="fill:none;stroke:red;stroke-width:1px;stroke-linecap:butt;stroke-linejoin:miter;stroke-opacity:1" d="M 4,227.2 13.5385,208.123 z" id="boundary" inkscape:connector-curvature="0" />
	<path style="fill:none;stroke:red;stroke-width:1px;stroke-linecap:butt;stroke-linejoin:miter;stroke-opacity:1" d="M 4,227.2 23.0769,232.923 z" id="boundary" inkscape:connector-curvature="0" />
	<path style="fill:none;stroke:red;stroke-width:1px;stroke-linecap:butt;stroke-linejoin:miter;stroke-opacity:1" d="M 13.5385,208.123 28.8,192.862 z" id="boundary" inkscape:connector-curvature="0" />
	<path style="fill:none;stroke:red;stroke-width:1px;stroke-linecap:butt;stroke-linejoin:miter;stroke-opacity:1" d="M 23.0769,232.923 42.1538,232.923 z" id="boundary" inkscape:connector-curvature="0" />
	<path style="fill:none;stroke:red;stroke-width:1px;stroke-linecap:butt;stroke-linejoin:miter;stroke-opacity:1" d="M 44.0615,471.385 32.6154,456.123 z" id="boundary" inkscape:connector-curvature="0" />
	<path style="fill:none;stroke:red;stroke-width:1px;stroke-linecap:butt;stroke-linejoin:miter;stroke-opacity:1" d="M 32.6154,417.969 32.6154,437.046 z" id="boundary" inkscape:connector-curvature="0" />
	<path style="fill:none;stroke:red;stroke-width:1px;stroke-linecap:butt;stroke-linejoin:miter;stroke-opacity:1" d="M 32.6154,437.046 32.6154,456.123 z" id="boundary" inkscape:connector-curvature="0" />
	<path style="fill:none;stroke:red;stroke-width:1px;stroke-linecap:butt;stroke-linejoin:miter;stroke-opacity:1" d="M 32.6154,417.969 42.1538,398.892 z" id="boundary" inkscape:connector-curvature="0" />
	<path style="fill:none;stroke:red;stroke-width:1px;stroke-linecap:butt;stroke-linejoin:miter;stroke-opacity:1" d="M 42.1538,232.923 61.2308,227.2 z" id="boundary" inkscape:connector-curvature="0" />
	<path style="fill:none;stroke:red;stroke-width:1px;stroke-linecap:butt;stroke-linejoin:miter;stroke-opacity:1" d="M 28.8,192.862 44.0615,177.6 z" id="boundary" inkscape:connector-curvature="0" />
	<path style="fill:none;stroke:red;stroke-width:1px;stroke-linecap:butt;stroke-linejoin:miter;stroke-opacity:1" d="M 51.6923,379.815 42.1538,398.892 z" id="boundary" inkscape:connector-curvature="0" />
	<path style="fill:none;stroke:red;stroke-width:1px;stroke-linecap:butt;stroke-linejoin:miter;stroke-opacity:1" d="M 44.0615,471.385 61.2308,480.923 z" id="boundary" inkscape:connector-curvature="0" />
	<path style="fill:none;stroke:red;stroke-width:1px;stroke-linecap:butt;stroke-linejoin:miter;stroke-opacity:1" d="M 51.6923,379.815 66.9538,364.554 z" id="boundary" inkscape:connector-curvature="0" />
	<path style="fill:none;stroke:red;stroke-width:1px;stroke-linecap:butt;stroke-linejoin:miter;stroke-opacity:1" d="M 61.2308,480.923 78.4,490.462 z" id="boundary" inkscape:connector-curvature="0" />
	<path style="fill:none;stroke:red;stroke-width:1px;stroke-linecap:butt;stroke-linejoin:miter;stroke-opacity:1" d="M 61.2308,227.2 80.3077,223.385 z" id="boundary" inkscape:connector-curvature="0" />
	<path style="fill:none;stroke:red;stroke-width:1px;stroke-linecap:butt;stroke-linejoin:miter;stroke-opacity:1" d="M 44.0615,177.6 63.1385,168.062 z" id="boundary" inkscape:connector-curvature="0" />
	<path style="fill:none;stroke:red;stroke-width:1px;stroke-linecap:butt;stroke-linejoin:miter;stroke-opacity:1" d="M 177.6,814.769 189.046,830.031 z" id="boundary" inkscape:connector-curvature="0" />
	<path style="fill:none;stroke:red;stroke-width:1px;stroke-linecap:butt;stroke-linejoin:miter;stroke-opacity:1" d="M 177.6,814.769 164.246,830.031 z" id="boundary" inkscape:connector-curvature="0" />
	<path style="fill:none;stroke:red;stroke-width:1px;stroke-linecap:butt;stroke-linejoin:miter;stroke-opacity:1" d="M 66.9538,364.554 76.4923,345.477 z" id="boundary" inkscape:connector-curvature="0" />
	<path style="fill:none;stroke:red;stroke-width:1px;stroke-linecap:butt;stroke-linejoin:miter;stroke-opacity:1" d="M 70.7692,809.046 80.3077,780.431 z" id="boundary" inkscape:connector-curvature="0" />
	<path style="fill:none;stroke:red;stroke-width:1px;stroke-linecap:butt;stroke-linejoin:miter;stroke-opacity:1" d="M 108.923,541.969 108.923,561.046 z" id="boundary" inkscape:connector-curvature="0" />
	<path style="fill:none;stroke:red;stroke-width:1px;stroke-linecap:butt;stroke-linejoin:miter;stroke-opacity:1" d="M 76.4923,345.477 86.0308,326.4 z" id="boundary" inkscape:connector-curvature="0" />
	<path style="fill:none;stroke:red;stroke-width:1px;stroke-linecap:butt;stroke-linejoin:miter;stroke-opacity:1" d="M 80.3077,223.385 99.3846,223.385 z" id="boundary" inkscape:connector-curvature="0" />
	<path style="fill:none;stroke:red;stroke-width:1px;stroke-linecap:butt;stroke-linejoin:miter;stroke-opacity:1" d="M 63.1385,168.062 82.2154,158.523 z" id="boundary" inkscape:connector-curvature="0" />
	<path style="fill:none;stroke:red;stroke-width:1px;stroke-linecap:butt;stroke-linejoin:miter;stroke-opacity:1" d="M 70.7692,828.123 80.3077,845.292 z" id="boundary" inkscape:connector-curvature="0" />
	<path style="fill:none;stroke:red;stroke-width:1px;stroke-linecap:butt;stroke-linejoin:miter;stroke-opacity:1" d="M 86.0308,326.4 101.292,311.138 z" id="boundary" inkscape:connector-curvature="0" />
	<path style="fill:none;stroke:red;stroke-width:1px;stroke-linecap:butt;stroke-linejoin:miter;stroke-opacity:1" d="M 80.3077,845.292 80.3077,864.369 z" id="boundary" inkscape:connector-curvature="0" />
	<path style="fill:none;stroke:red;stroke-width:1px;stroke-linecap:butt;stroke-linejoin:miter;stroke-opacity:1" d="M 89.8462,751.815 80.3077,780.431 z" id="boundary" inkscape:connector-curvature="0" />
	<path style="fill:none;stroke:red;stroke-width:1px;stroke-linecap:butt;stroke-linejoin:miter;stroke-opacity:1" d="M 105.108,736.554 89.8462,751.815 z" id="boundary" inkscape:connector-curvature="0" />
	<path style="fill:none;stroke:red;stroke-width:1px;stroke-linecap:butt;stroke-linejoin:miter;stroke-opacity:1" d="M 99.3846,223.385 116.554,232.923 z" id="boundary" inkscape:connector-curvature="0" />
	<path style="fill:none;stroke:red;stroke-width:1px;stroke-linecap:butt;stroke-linejoin:miter;stroke-opacity:1" d="M 126.092,278.708 110.831,292.062 z" id="boundary" inkscape:connector-curvature="0" />
	<path style="fill:none;stroke:red;stroke-width:1px;stroke-linecap:butt;stroke-linejoin:miter;stroke-opacity:1" d="M 110.831,292.062 101.292,311.138 z" id="boundary" inkscape:connector-curvature="0" />
	<path style="fill:none;stroke:red;stroke-width:1px;stroke-linecap:butt;stroke-linejoin:miter;stroke-opacity:1" d="M 108.923,561.046 108.923,580.123 z" id="boundary" inkscape:connector-curvature="0" />
	<path style="fill:none;stroke:red;stroke-width:1px;stroke-linecap:butt;stroke-linejoin:miter;stroke-opacity:1" d="M 78.4,490.462 97.4769,486.646 z" id="boundary" inkscape:connector-curvature="0" />
	<path style="fill:none;stroke:red;stroke-width:1px;stroke-linecap:butt;stroke-linejoin:miter;stroke-opacity:1" d="M 82.2154,158.523 101.292,148.985 z" id="boundary" inkscape:connector-curvature="0" />
	<path style="fill:none;stroke:red;stroke-width:1px;stroke-linecap:butt;stroke-linejoin:miter;stroke-opacity:1" d="M 80.3077,864.369 89.8462,881.538 z" id="boundary" inkscape:connector-curvature="0" />
	<path style="fill:none;stroke:red;stroke-width:1px;stroke-linecap:butt;stroke-linejoin:miter;stroke-opacity:1" d="M 108.923,580.123 108.923,599.2 z" id="boundary" inkscape:connector-curvature="0" />
	<path style="fill:none;stroke:red;stroke-width:1px;stroke-linecap:butt;stroke-linejoin:miter;stroke-opacity:1" d="M 110.831,461.846 97.4769,486.646 z" id="boundary" inkscape:connector-curvature="0" />
	<path style="fill:none;stroke:red;stroke-width:1px;stroke-linecap:butt;stroke-linejoin:miter;stroke-opacity:1" d="M 105.108,736.554 114.646,717.477 z" id="boundary" inkscape:connector-curvature="0" />
	<path style="fill:none;stroke:red;stroke-width:1px;stroke-linecap:butt;stroke-linejoin:miter;stroke-opacity:1" d="M 128,671.692 128,652.615 z" id="boundary" inkscape:connector-curvature="0" />
	<path style="fill:none;stroke:red;stroke-width:1px;stroke-linecap:butt;stroke-linejoin:miter;stroke-opacity:1" d="M 128,652.615 118.462,635.446 z" id="boundary" inkscape:connector-curvature="0" />
	<path style="fill:none;stroke:red;stroke-width:1px;stroke-linecap:butt;stroke-linejoin:miter;stroke-opacity:1" d="M 118.462,522.892 108.923,541.969 z" id="boundary" inkscape:connector-curvature="0" />
	<path style="fill:none;stroke:red;stroke-width:1px;stroke-linecap:butt;stroke-linejoin:miter;stroke-opacity:1" d="M 133.723,507.631 118.462,522.892 z" id="boundary" inkscape:connector-curvature="0" />
	<path style="fill:none;stroke:red;stroke-width:1px;stroke-linecap:butt;stroke-linejoin:miter;stroke-opacity:1" d="M 89.8462,881.538 107.015,891.077 z" id="boundary" inkscape:connector-curvature="0" />
	<path style="fill:none;stroke:red;stroke-width:1px;stroke-linecap:butt;stroke-linejoin:miter;stroke-opacity:1" d="M 107.015,891.077 120.369,872 z" id="boundary" inkscape:connector-curvature="0" />
	<path style="fill:none;stroke:red;stroke-width:1px;stroke-linecap:butt;stroke-linejoin:miter;stroke-opacity:1" d="M 126.092,278.708 118.462,252 z" id="boundary" inkscape:connector-curvature="0" />
	<path style="fill:none;stroke:red;stroke-width:1px;stroke-linecap:butt;stroke-linejoin:miter;stroke-opacity:1" d="M 118.462,252 116.554,232.923 z" id="boundary" inkscape:connector-curvature="0" />
	<path style="fill:none;stroke:red;stroke-width:1px;stroke-linecap:butt;stroke-linejoin:miter;stroke-opacity:1" d="M 101.292,148.985 120.369,139.446 z" id="boundary" inkscape:connector-curvature="0" />
	<path style="fill:none;stroke:red;stroke-width:1px;stroke-linecap:butt;stroke-linejoin:miter;stroke-opacity:1" d="M 108.923,599.2 118.462,616.369 z" id="boundary" inkscape:connector-curvature="0" />
	<path style="fill:none;stroke:red;stroke-width:1px;stroke-linecap:butt;stroke-linejoin:miter;stroke-opacity:1" d="M 206.215,866.277 196.677,849.108 z" id="boundary" inkscape:connector-curvature="0" />
	<path style="fill:none;stroke:red;stroke-width:1px;stroke-linecap:butt;stroke-linejoin:miter;stroke-opacity:1" d="M 118.462,616.369 118.462,635.446 z" id="boundary" inkscape:connector-curvature="0" />
	<path style="fill:none;stroke:red;stroke-width:1px;stroke-linecap:butt;stroke-linejoin:miter;stroke-opacity:1" d="M 126.092,448.492 110.831,461.846 z" id="boundary" inkscape:connector-curvature="0" />
	<path style="fill:none;stroke:red;stroke-width:1px;stroke-linecap:butt;stroke-linejoin:miter;stroke-opacity:1" d="M 139.446,129.908 120.369,139.446 z" id="boundary" inkscape:connector-curvature="0" />
	<path style="fill:none;stroke:red;stroke-width:1px;stroke-linecap:butt;stroke-linejoin:miter;stroke-opacity:1" d="M 120.369,872 135.631,858.646 z" id="boundary" inkscape:connector-curvature="0" />
	<path style="fill:none;stroke:red;stroke-width:1px;stroke-linecap:butt;stroke-linejoin:miter;stroke-opacity:1" d="M 164.246,830.031 148.985,843.385 z" id="boundary" inkscape:connector-curvature="0" />
	<path style="fill:none;stroke:red;stroke-width:1px;stroke-linecap:butt;stroke-linejoin:miter;stroke-opacity:1" d="M 126.092,448.492 139.446,433.231 z" id="boundary" inkscape:connector-curvature="0" />
	<path style="fill:none;stroke:red;stroke-width:1px;stroke-linecap:butt;stroke-linejoin:miter;stroke-opacity:1" d="M 114.646,717.477 128,694.585 z" id="boundary" inkscape:connector-curvature="0" />
	<path style="fill:none;stroke:red;stroke-width:1px;stroke-linecap:butt;stroke-linejoin:miter;stroke-opacity:1" d="M 128,694.585 128,671.692 z" id="boundary" inkscape:connector-curvature="0" />
	<path style="fill:none;stroke:red;stroke-width:1px;stroke-linecap:butt;stroke-linejoin:miter;stroke-opacity:1" d="M 133.723,507.631 143.262,488.554 z" id="boundary" inkscape:connector-curvature="0" />
	<path style="fill:none;stroke:red;stroke-width:1px;stroke-linecap:butt;stroke-linejoin:miter;stroke-opacity:1" d="M 152.8,469.477 143.262,488.554 z" id="boundary" inkscape:connector-curvature="0" />
	<path style="fill:none;stroke:red;stroke-width:1px;stroke-linecap:butt;stroke-linejoin:miter;stroke-opacity:1" d="M 196.677,849.108 189.046,830.031 z" id="boundary" inkscape:connector-curvature="0" />
	<path style="fill:none;stroke:red;stroke-width:1px;stroke-linecap:butt;stroke-linejoin:miter;stroke-opacity:1" d="M 578.215,383.631 578.215,402.708 z" id="boundary" inkscape:connector-curvature="0" />
	<path style="fill:none;stroke:red;stroke-width:1px;stroke-linecap:butt;stroke-linejoin:miter;stroke-opacity:1" d="M 578.215,383.631 568.677,366.462 z" id="boundary" inkscape:connector-curvature="0" />
	<path style="fill:none;stroke:red;stroke-width:1px;stroke-linecap:butt;stroke-linejoin:miter;stroke-opacity:1" d="M 154.708,116.554 139.446,129.908 z" id="boundary" inkscape:connector-curvature="0" />
	<path style="fill:none;stroke:red;stroke-width:1px;stroke-linecap:butt;stroke-linejoin:miter;stroke-opacity:1" d="M 152.8,469.477 162.338,450.4 z" id="boundary" inkscape:connector-curvature="0" />
	<path style="fill:none;stroke:red;stroke-width:1px;stroke-linecap:butt;stroke-linejoin:miter;stroke-opacity:1" d="M 139.446,433.231 156.615,423.692 z" id="boundary" inkscape:connector-curvature="0" />
	<path style="fill:none;stroke:red;stroke-width:1px;stroke-linecap:butt;stroke-linejoin:miter;stroke-opacity:1" d="M 135.631,858.646 148.985,843.385 z" id="boundary" inkscape:connector-curvature="0" />
	<path style="fill:none;stroke:red;stroke-width:1px;stroke-linecap:butt;stroke-linejoin:miter;stroke-opacity:1" d="M 183.323,87.9385 200.492,78.4 z" id="boundary" inkscape:connector-curvature="0" />
	<path style="fill:none;stroke:red;stroke-width:1px;stroke-linecap:butt;stroke-linejoin:miter;stroke-opacity:1" d="M 183.323,87.9385 168.062,101.292 z" id="boundary" inkscape:connector-curvature="0" />
	<path style="fill:none;stroke:red;stroke-width:1px;stroke-linecap:butt;stroke-linejoin:miter;stroke-opacity:1" d="M 156.615,423.692 173.785,414.154 z" id="boundary" inkscape:connector-curvature="0" />
	<path style="fill:none;stroke:red;stroke-width:1px;stroke-linecap:butt;stroke-linejoin:miter;stroke-opacity:1" d="M 168.062,101.292 154.708,116.554 z" id="boundary" inkscape:connector-curvature="0" />
	<path style="fill:none;stroke:red;stroke-width:1px;stroke-linecap:butt;stroke-linejoin:miter;stroke-opacity:1" d="M 568.677,366.462 568.677,347.385 z" id="boundary" inkscape:connector-curvature="0" />
	<path style="fill:none;stroke:red;stroke-width:1px;stroke-linecap:butt;stroke-linejoin:miter;stroke-opacity:1" d="M 217.662,68.8615 200.492,78.4 z" id="boundary" inkscape:connector-curvature="0" />
	<path style="fill:none;stroke:red;stroke-width:1px;stroke-linecap:butt;stroke-linejoin:miter;stroke-opacity:1" d="M 213.846,885.354 223.385,902.523 z" id="boundary" inkscape:connector-curvature="0" />
	<path style="fill:none;stroke:red;stroke-width:1px;stroke-linecap:butt;stroke-linejoin:miter;stroke-opacity:1" d="M 213.846,885.354 206.215,866.277 z" id="boundary" inkscape:connector-curvature="0" />
	<path style="fill:none;stroke:red;stroke-width:1px;stroke-linecap:butt;stroke-linejoin:miter;stroke-opacity:1" d="M 234.831,59.3231 217.662,68.8615 z" id="boundary" inkscape:connector-curvature="0" />
	<path style="fill:none;stroke:red;stroke-width:1px;stroke-linecap:butt;stroke-linejoin:miter;stroke-opacity:1" d="M 232.923,919.692 238.646,938.769 z" id="boundary" inkscape:connector-curvature="0" />
	<path style="fill:none;stroke:red;stroke-width:1px;stroke-linecap:butt;stroke-linejoin:miter;stroke-opacity:1" d="M 238.646,938.769 253.908,952.123 z" id="boundary" inkscape:connector-curvature="0" />
	<path style="fill:none;stroke:red;stroke-width:1px;stroke-linecap:butt;stroke-linejoin:miter;stroke-opacity:1" d="M 253.908,952.123 267.262,967.385 z" id="boundary" inkscape:connector-curvature="0" />
	<path style="fill:none;stroke:red;stroke-width:1px;stroke-linecap:butt;stroke-linejoin:miter;stroke-opacity:1" d="M 223.385,902.523 232.923,919.692 z" id="boundary" inkscape:connector-curvature="0" />
	<path style="fill:none;stroke:red;stroke-width:1px;stroke-linecap:butt;stroke-linejoin:miter;stroke-opacity:1" d="M 271.077,40.2462 252,45.9692 z" id="boundary" inkscape:connector-curvature="0" />
	<path style="fill:none;stroke:red;stroke-width:1px;stroke-linecap:butt;stroke-linejoin:miter;stroke-opacity:1" d="M 252,45.9692 234.831,59.3231 z" id="boundary" inkscape:connector-curvature="0" />
	<path style="fill:none;stroke:red;stroke-width:1px;stroke-linecap:butt;stroke-linejoin:miter;stroke-opacity:1" d="M 286.338,975.015 303.508,984.554 z" id="boundary" inkscape:connector-curvature="0" />
	<path style="fill:none;stroke:red;stroke-width:1px;stroke-linecap:butt;stroke-linejoin:miter;stroke-opacity:1" d="M 286.338,975.015 267.262,967.385 z" id="boundary" inkscape:connector-curvature="0" />
	<path style="fill:none;stroke:red;stroke-width:1px;stroke-linecap:butt;stroke-linejoin:miter;stroke-opacity:1" d="M 307.323,30.7077 288.246,30.7077 z" id="boundary" inkscape:connector-curvature="0" />
	<path style="fill:none;stroke:red;stroke-width:1px;stroke-linecap:butt;stroke-linejoin:miter;stroke-opacity:1" d="M 288.246,30.7077 271.077,40.2462 z" id="boundary" inkscape:connector-curvature="0" />
	<path style="fill:none;stroke:red;stroke-width:1px;stroke-linecap:butt;stroke-linejoin:miter;stroke-opacity:1" d="M 322.585,986.462 339.754,996 z" id="boundary" inkscape:connector-curvature="0" />
	<path style="fill:none;stroke:red;stroke-width:1px;stroke-linecap:butt;stroke-linejoin:miter;stroke-opacity:1" d="M 322.585,986.462 303.508,984.554 z" id="boundary" inkscape:connector-curvature="0" />
	<path style="fill:none;stroke:red;stroke-width:1px;stroke-linecap:butt;stroke-linejoin:miter;stroke-opacity:1" d="M 343.569,21.1692 324.492,21.1692 z" id="boundary" inkscape:connector-curvature="0" />
	<path style="fill:none;stroke:red;stroke-width:1px;stroke-linecap:butt;stroke-linejoin:miter;stroke-opacity:1" d="M 324.492,21.1692 307.323,30.7077 z" id="boundary" inkscape:connector-curvature="0" />
	<path style="fill:none;stroke:red;stroke-width:1px;stroke-linecap:butt;stroke-linejoin:miter;stroke-opacity:1" d="M 435.138,21.1692 454.215,26.8923 z" id="boundary" inkscape:connector-curvature="0" />
	<path style="fill:none;stroke:red;stroke-width:1px;stroke-linecap:butt;stroke-linejoin:miter;stroke-opacity:1" d="M 379.815,4 398.892,11.6308 z" id="boundary" inkscape:connector-curvature="0" />
	<path style="fill:none;stroke:red;stroke-width:1px;stroke-linecap:butt;stroke-linejoin:miter;stroke-opacity:1" d="M 379.815,4 360.738,11.6308 z" id="boundary" inkscape:connector-curvature="0" />
	<path style="fill:none;stroke:red;stroke-width:1px;stroke-linecap:butt;stroke-linejoin:miter;stroke-opacity:1" d="M 339.754,996 358.831,996 z" id="boundary" inkscape:connector-curvature="0" />
	<path style="fill:none;stroke:red;stroke-width:1px;stroke-linecap:butt;stroke-linejoin:miter;stroke-opacity:1" d="M 360.738,11.6308 343.569,21.1692 z" id="boundary" inkscape:connector-curvature="0" />
	<path style="fill:none;stroke:red;stroke-width:1px;stroke-linecap:butt;stroke-linejoin:miter;stroke-opacity:1" d="M 358.831,996 377.908,996 z" id="boundary" inkscape:connector-curvature="0" />
	<path style="fill:none;stroke:red;stroke-width:1px;stroke-linecap:butt;stroke-linejoin:miter;stroke-opacity:1" d="M 417.969,11.6308 435.138,21.1692 z" id="boundary" inkscape:connector-curvature="0" />
	<path style="fill:none;stroke:red;stroke-width:1px;stroke-linecap:butt;stroke-linejoin:miter;stroke-opacity:1" d="M 417.969,11.6308 398.892,11.6308 z" id="boundary" inkscape:connector-curvature="0" />
	<path style="fill:none;stroke:red;stroke-width:1px;stroke-linecap:butt;stroke-linejoin:miter;stroke-opacity:1" d="M 377.908,996 396.985,996 z" id="boundary" inkscape:connector-curvature="0" />
	<path style="fill:none;stroke:red;stroke-width:1px;stroke-linecap:butt;stroke-linejoin:miter;stroke-opacity:1" d="M 435.138,986.462 454.215,986.462 z" id="boundary" inkscape:connector-curvature="0" />
	<path style="fill:none;stroke:red;stroke-width:1px;stroke-linecap:butt;stroke-linejoin:miter;stroke-opacity:1" d="M 435.138,986.462 416.062,996 z" id="boundary" inkscape:connector-curvature="0" />
	<path style="fill:none;stroke:red;stroke-width:1px;stroke-linecap:butt;stroke-linejoin:miter;stroke-opacity:1" d="M 396.985,996 416.062,996 z" id="boundary" inkscape:connector-curvature="0" />
	<path style="fill:none;stroke:red;stroke-width:1px;stroke-linecap:butt;stroke-linejoin:miter;stroke-opacity:1" d="M 492.369,36.4308 509.538,45.9692 z" id="boundary" inkscape:connector-curvature="0" />
	<path style="fill:none;stroke:red;stroke-width:1px;stroke-linecap:butt;stroke-linejoin:miter;stroke-opacity:1" d="M 492.369,36.4308 473.292,30.7077 z" id="boundary" inkscape:connector-curvature="0" />
	<path style="fill:none;stroke:red;stroke-width:1px;stroke-linecap:butt;stroke-linejoin:miter;stroke-opacity:1" d="M 454.215,986.462 471.385,976.923 z" id="boundary" inkscape:connector-curvature="0" />
	<path style="fill:none;stroke:red;stroke-width:1px;stroke-linecap:butt;stroke-linejoin:miter;stroke-opacity:1" d="M 473.292,30.7077 454.215,26.8923 z" id="boundary" inkscape:connector-curvature="0" />
	<path style="fill:none;stroke:red;stroke-width:1px;stroke-linecap:butt;stroke-linejoin:miter;stroke-opacity:1" d="M 471.385,976.923 488.554,967.385 z" id="boundary" inkscape:connector-curvature="0" />
	<path style="fill:none;stroke:red;stroke-width:1px;stroke-linecap:butt;stroke-linejoin:miter;stroke-opacity:1" d="M 545.785,63.1385 559.138,78.4 z" id="boundary" inkscape:connector-curvature="0" />
	<path style="fill:none;stroke:red;stroke-width:1px;stroke-linecap:butt;stroke-linejoin:miter;stroke-opacity:1" d="M 545.785,63.1385 528.615,53.6 z" id="boundary" inkscape:connector-curvature="0" />
	<path style="fill:none;stroke:red;stroke-width:1px;stroke-linecap:butt;stroke-linejoin:miter;stroke-opacity:1" d="M 488.554,967.385 505.723,955.938 z" id="boundary" inkscape:connector-curvature="0" />
	<path style="fill:none;stroke:red;stroke-width:1px;stroke-linecap:butt;stroke-linejoin:miter;stroke-opacity:1" d="M 530.523,919.692 540.062,900.615 z" id="boundary" inkscape:connector-curvature="0" />
	<path style="fill:none;stroke:red;stroke-width:1px;stroke-linecap:butt;stroke-linejoin:miter;stroke-opacity:1" d="M 528.615,53.6 509.538,45.9692 z" id="boundary" inkscape:connector-curvature="0" />
	<path style="fill:none;stroke:red;stroke-width:1px;stroke-linecap:butt;stroke-linejoin:miter;stroke-opacity:1" d="M 505.723,955.938 520.985,938.769 z" id="boundary" inkscape:connector-curvature="0" />
	<path style="fill:none;stroke:red;stroke-width:1px;stroke-linecap:butt;stroke-linejoin:miter;stroke-opacity:1" d="M 520.985,938.769 530.523,919.692 z" id="boundary" inkscape:connector-curvature="0" />
	<path style="fill:none;stroke:red;stroke-width:1px;stroke-linecap:butt;stroke-linejoin:miter;stroke-opacity:1" d="M 540.062,900.615 549.6,881.538 z" id="boundary" inkscape:connector-curvature="0" />
	<path style="fill:none;stroke:red;stroke-width:1px;stroke-linecap:butt;stroke-linejoin:miter;stroke-opacity:1" d="M 549.6,881.538 559.138,862.462 z" id="boundary" inkscape:connector-curvature="0" />
	<path style="fill:none;stroke:red;stroke-width:1px;stroke-linecap:butt;stroke-linejoin:miter;stroke-opacity:1" d="M 559.138,862.462 568.677,843.385 z" id="boundary" inkscape:connector-curvature="0" />
	<path style="fill:none;stroke:red;stroke-width:1px;stroke-linecap:butt;stroke-linejoin:miter;stroke-opacity:1" d="M 578.215,814.769 587.754,795.692 z" id="boundary" inkscape:connector-curvature="0" />
	<path style="fill:none;stroke:red;stroke-width:1px;stroke-linecap:butt;stroke-linejoin:miter;stroke-opacity:1" d="M 578.215,814.769 568.677,843.385 z" id="boundary" inkscape:connector-curvature="0" />
	<path style="fill:none;stroke:red;stroke-width:1px;stroke-linecap:butt;stroke-linejoin:miter;stroke-opacity:1" d="M 559.138,78.4 578.215,84.1231 z" id="boundary" inkscape:connector-curvature="0" />
	<path style="fill:none;stroke:red;stroke-width:1px;stroke-linecap:butt;stroke-linejoin:miter;stroke-opacity:1" d="M 578.215,84.1231 593.477,97.4769 z" id="boundary" inkscape:connector-curvature="0" />
	<path style="fill:none;stroke:red;stroke-width:1px;stroke-linecap:butt;stroke-linejoin:miter;stroke-opacity:1" d="M 578.215,402.708 587.754,419.877 z" id="boundary" inkscape:connector-curvature="0" />
	<path style="fill:none;stroke:red;stroke-width:1px;stroke-linecap:butt;stroke-linejoin:miter;stroke-opacity:1" d="M 568.677,347.385 583.938,334.031 z" id="boundary" inkscape:connector-curvature="0" />
	<path style="fill:none;stroke:red;stroke-width:1px;stroke-linecap:butt;stroke-linejoin:miter;stroke-opacity:1" d="M 587.754,419.877 597.292,437.046 z" id="boundary" inkscape:connector-curvature="0" />
	<path style="fill:none;stroke:red;stroke-width:1px;stroke-linecap:butt;stroke-linejoin:miter;stroke-opacity:1" d="M 597.292,437.046 606.831,454.215 z" id="boundary" inkscape:connector-curvature="0" />
	<path style="fill:none;stroke:red;stroke-width:1px;stroke-linecap:butt;stroke-linejoin:miter;stroke-opacity:1" d="M 587.754,795.692 597.292,776.615 z" id="boundary" inkscape:connector-curvature="0" />
	<path style="fill:none;stroke:red;stroke-width:1px;stroke-linecap:butt;stroke-linejoin:miter;stroke-opacity:1" d="M 583.938,334.031 603.015,328.308 z" id="boundary" inkscape:connector-curvature="0" />
	<path style="fill:none;stroke:red;stroke-width:1px;stroke-linecap:butt;stroke-linejoin:miter;stroke-opacity:1" d="M 622.092,328.308 603.015,328.308 z" id="boundary" inkscape:connector-curvature="0" />
	<path style="fill:none;stroke:red;stroke-width:1px;stroke-linecap:butt;stroke-linejoin:miter;stroke-opacity:1" d="M 616.369,126.092 610.646,107.015 z" id="boundary" inkscape:connector-curvature="0" />
	<path style="fill:none;stroke:red;stroke-width:1px;stroke-linecap:butt;stroke-linejoin:miter;stroke-opacity:1" d="M 610.646,107.015 593.477,97.4769 z" id="boundary" inkscape:connector-curvature="0" />
	<path style="fill:none;stroke:red;stroke-width:1px;stroke-linecap:butt;stroke-linejoin:miter;stroke-opacity:1" d="M 616.369,471.385 606.831,454.215 z" id="boundary" inkscape:connector-curvature="0" />
	<path style="fill:none;stroke:red;stroke-width:1px;stroke-linecap:butt;stroke-linejoin:miter;stroke-opacity:1" d="M 606.831,748 616.369,728.923 z" id="boundary" inkscape:connector-curvature="0" />
	<path style="fill:none;stroke:red;stroke-width:1px;stroke-linecap:butt;stroke-linejoin:miter;stroke-opacity:1" d="M 606.831,748 597.292,776.615 z" id="boundary" inkscape:connector-curvature="0" />
	<path style="fill:none;stroke:red;stroke-width:1px;stroke-linecap:butt;stroke-linejoin:miter;stroke-opacity:1" d="M 641.169,328.308 658.338,337.846 z" id="boundary" inkscape:connector-curvature="0" />
	<path style="fill:none;stroke:red;stroke-width:1px;stroke-linecap:butt;stroke-linejoin:miter;stroke-opacity:1" d="M 641.169,328.308 622.092,328.308 z" id="boundary" inkscape:connector-curvature="0" />
	<path style="fill:none;stroke:red;stroke-width:1px;stroke-linecap:butt;stroke-linejoin:miter;stroke-opacity:1" d="M 654.523,580.123 654.523,599.2 z" id="boundary" inkscape:connector-curvature="0" />
	<path style="fill:none;stroke:red;stroke-width:1px;stroke-linecap:butt;stroke-linejoin:miter;stroke-opacity:1" d="M 654.523,189.046 654.523,169.969 z" id="boundary" inkscape:connector-curvature="0" />
	<path style="fill:none;stroke:red;stroke-width:1px;stroke-linecap:butt;stroke-linejoin:miter;stroke-opacity:1" d="M 654.523,169.969 644.985,152.8 z" id="boundary" inkscape:connector-curvature="0" />
	<path style="fill:none;stroke:red;stroke-width:1px;stroke-linecap:butt;stroke-linejoin:miter;stroke-opacity:1" d="M 644.985,152.8 631.631,137.538 z" id="boundary" inkscape:connector-curvature="0" />
	<path style="fill:none;stroke:red;stroke-width:1px;stroke-linecap:butt;stroke-linejoin:miter;stroke-opacity:1" d="M 625.908,700.308 616.369,728.923 z" id="boundary" inkscape:connector-curvature="0" />
	<path style="fill:none;stroke:red;stroke-width:1px;stroke-linecap:butt;stroke-linejoin:miter;stroke-opacity:1" d="M 658.338,337.846 677.415,345.477 z" id="boundary" inkscape:connector-curvature="0" />
	<path style="fill:none;stroke:red;stroke-width:1px;stroke-linecap:butt;stroke-linejoin:miter;stroke-opacity:1" d="M 635.446,671.692 644.985,652.615 z" id="boundary" inkscape:connector-curvature="0" />
	<path style="fill:none;stroke:red;stroke-width:1px;stroke-linecap:butt;stroke-linejoin:miter;stroke-opacity:1" d="M 635.446,671.692 625.908,700.308 z" id="boundary" inkscape:connector-curvature="0" />
	<path style="fill:none;stroke:red;stroke-width:1px;stroke-linecap:butt;stroke-linejoin:miter;stroke-opacity:1" d="M 616.369,471.385 625.908,488.554 z" id="boundary" inkscape:connector-curvature="0" />
	<path style="fill:none;stroke:red;stroke-width:1px;stroke-linecap:butt;stroke-linejoin:miter;stroke-opacity:1" d="M 654.523,189.046 654.523,208.123 z" id="boundary" inkscape:connector-curvature="0" />
	<path style="fill:none;stroke:red;stroke-width:1px;stroke-linecap:butt;stroke-linejoin:miter;stroke-opacity:1" d="M 631.631,137.538 616.369,126.092 z" id="boundary" inkscape:connector-curvature="0" />
	<path style="fill:none;stroke:red;stroke-width:1px;stroke-linecap:butt;stroke-linejoin:miter;stroke-opacity:1" d="M 625.908,488.554 635.446,505.723 z" id="boundary" inkscape:connector-curvature="0" />
	<path style="fill:none;stroke:red;stroke-width:1px;stroke-linecap:butt;stroke-linejoin:miter;stroke-opacity:1" d="M 677.415,345.477 696.492,347.385 z" id="boundary" inkscape:connector-curvature="0" />
	<path style="fill:none;stroke:red;stroke-width:1px;stroke-linecap:butt;stroke-linejoin:miter;stroke-opacity:1" d="M 696.492,347.385 713.662,356.923 z" id="boundary" inkscape:connector-curvature="0" />
	<path style="fill:none;stroke:red;stroke-width:1px;stroke-linecap:butt;stroke-linejoin:miter;stroke-opacity:1" d="M 654.523,561.046 654.523,580.123 z" id="boundary" inkscape:connector-curvature="0" />
	<path style="fill:none;stroke:red;stroke-width:1px;stroke-linecap:butt;stroke-linejoin:miter;stroke-opacity:1" d="M 635.446,505.723 644.985,522.892 z" id="boundary" inkscape:connector-curvature="0" />
	<path style="fill:none;stroke:red;stroke-width:1px;stroke-linecap:butt;stroke-linejoin:miter;stroke-opacity:1" d="M 652.615,541.969 644.985,522.892 z" id="boundary" inkscape:connector-curvature="0" />
	<path style="fill:none;stroke:red;stroke-width:1px;stroke-linecap:butt;stroke-linejoin:miter;stroke-opacity:1" d="M 644.985,633.538 644.985,652.615 z" id="boundary" inkscape:connector-curvature="0" />
	<path style="fill:none;stroke:red;stroke-width:1px;stroke-linecap:butt;stroke-linejoin:miter;stroke-opacity:1" d="M 654.523,561.046 652.615,541.969 z" id="boundary" inkscape:connector-curvature="0" />
	<path style="fill:none;stroke:red;stroke-width:1px;stroke-linecap:butt;stroke-linejoin:miter;stroke-opacity:1" d="M 654.523,208.123 662.154,227.2 z" id="boundary" inkscape:connector-curvature="0" />
	<path style="fill:none;stroke:red;stroke-width:1px;stroke-linecap:butt;stroke-linejoin:miter;stroke-opacity:1" d="M 768.985,379.815 786.154,389.354 z" id="boundary" inkscape:connector-curvature="0" />
	<path style="fill:none;stroke:red;stroke-width:1px;stroke-linecap:butt;stroke-linejoin:miter;stroke-opacity:1" d="M 644.985,633.538 654.523,599.2 z" id="boundary" inkscape:connector-curvature="0" />
	<path style="fill:none;stroke:red;stroke-width:1px;stroke-linecap:butt;stroke-linejoin:miter;stroke-opacity:1" d="M 694.585,250.092 709.846,263.446 z" id="boundary" inkscape:connector-curvature="0" />
	<path style="fill:none;stroke:red;stroke-width:1px;stroke-linecap:butt;stroke-linejoin:miter;stroke-opacity:1" d="M 732.738,362.646 749.908,372.185 z" id="boundary" inkscape:connector-curvature="0" />
	<path style="fill:none;stroke:red;stroke-width:1px;stroke-linecap:butt;stroke-linejoin:miter;stroke-opacity:1" d="M 713.662,356.923 732.738,362.646 z" id="boundary" inkscape:connector-curvature="0" />
	<path style="fill:none;stroke:red;stroke-width:1px;stroke-linecap:butt;stroke-linejoin:miter;stroke-opacity:1" d="M 694.585,250.092 677.415,240.554 z" id="boundary" inkscape:connector-curvature="0" />
	<path style="fill:none;stroke:red;stroke-width:1px;stroke-linecap:butt;stroke-linejoin:miter;stroke-opacity:1" d="M 677.415,240.554 662.154,227.2 z" id="boundary" inkscape:connector-curvature="0" />
	<path style="fill:none;stroke:red;stroke-width:1px;stroke-linecap:butt;stroke-linejoin:miter;stroke-opacity:1" d="M 768.985,379.815 749.908,372.185 z" id="boundary" inkscape:connector-curvature="0" />
	<path style="fill:none;stroke:red;stroke-width:1px;stroke-linecap:butt;stroke-linejoin:miter;stroke-opacity:1" d="M 786.154,389.354 805.231,395.077 z" id="boundary" inkscape:connector-curvature="0" />
	<path style="fill:none;stroke:red;stroke-width:1px;stroke-linecap:butt;stroke-linejoin:miter;stroke-opacity:1" d="M 709.846,263.446 727.015,272.985 z" id="boundary" inkscape:connector-curvature="0" />
	<path style="fill:none;stroke:red;stroke-width:1px;stroke-linecap:butt;stroke-linejoin:miter;stroke-opacity:1" d="M 805.231,395.077 824.308,398.892 z" id="boundary" inkscape:connector-curvature="0" />
	<path style="fill:none;stroke:red;stroke-width:1px;stroke-linecap:butt;stroke-linejoin:miter;stroke-opacity:1" d="M 740.369,288.246 727.015,272.985 z" id="boundary" inkscape:connector-curvature="0" />
	<path style="fill:none;stroke:red;stroke-width:1px;stroke-linecap:butt;stroke-linejoin:miter;stroke-opacity:1" d="M 757.538,297.785 740.369,288.246 z" id="boundary" inkscape:connector-curvature="0" />
	<path style="fill:none;stroke:red;stroke-width:1px;stroke-linecap:butt;stroke-linejoin:miter;stroke-opacity:1" d="M 772.8,309.231 757.538,297.785 z" id="boundary" inkscape:connector-curvature="0" />
	<path style="fill:none;stroke:red;stroke-width:1px;stroke-linecap:butt;stroke-linejoin:miter;stroke-opacity:1" d="M 788.062,322.585 772.8,309.231 z" id="boundary" inkscape:connector-curvature="0" />
	<path style="fill:none;stroke:red;stroke-width:1px;stroke-linecap:butt;stroke-linejoin:miter;stroke-opacity:1" d="M 801.415,337.846 788.062,322.585 z" id="boundary" inkscape:connector-curvature="0" />
	<path style="fill:none;stroke:red;stroke-width:1px;stroke-linecap:butt;stroke-linejoin:miter;stroke-opacity:1" d="M 801.415,337.846 816.677,351.2 z" id="boundary" inkscape:connector-curvature="0" />
	<path style="fill:none;stroke:red;stroke-width:1px;stroke-linecap:butt;stroke-linejoin:miter;stroke-opacity:1" d="M 826.215,368.369 816.677,351.2 z" id="boundary" inkscape:connector-curvature="0" />
	<path style="fill:none;stroke:red;stroke-width:1px;stroke-linecap:butt;stroke-linejoin:miter;stroke-opacity:1" d="M 824.308,398.892 826.215,368.369 z" id="boundary" inkscape:connector-curvature="0" />
	<circle cx="4" cy="227.2" r="4" fill="#0" id="circle0"/>
	<circle cx="13.5385" cy="208.123" r="4" fill="#0" id="circle1"/>
	<circle cx="23.0769" cy="232.923" r="4" fill="#0" id="circle2"/>
	<circle cx="28.8" cy="192.862" r="4" fill="#0" id="circle3"/>
	<circle cx="32.6154" cy="417.969" r="4" fill="#0" id="circle4"/>
	<circle cx="32.6154" cy="437.046" r="4" fill="#0" id="circle5"/>
	<circle cx="32.6154" cy="456.123" r="4" fill="#0" id="circle6"/>
	<circle cx="42.1538" cy="232.923" r="4" fill="#0" id="circle7"/>
	<circle cx="42.1538" cy="398.892" r="4" fill="#0" id="circle8"/>
	<circle cx="44.0615" cy="177.6" r="4" fill="#0" id="circle9"/>
	<circle cx="44.0615" cy="471.385" r="4" fill="#0" id="circle10"/>
	<circle cx="51.6923" cy="379.815" r="4" fill="#0" id="circle11"/>
	<circle cx="61.2308" cy="227.2" r="4" fill="#0" id="circle12"/>
	<circle cx="61.2308" cy="480.923" r="4" fill="#0" id="circle13"/>
	<circle cx="63.1385" cy="168.062" r="4" fill="#0" id="circle14"/>
	<circle cx="66.9538" cy="364.554" r="4" fill="#0" id="circle15"/>
	<circle cx="70.7692" cy="809.046" r="4" fill="#0" id="circle16"/>
	<circle cx="70.7692" cy="828.123" r="4" fill="#0" id="circle17"/>
	<circle cx="76.4923" cy="345.477" r="4" fill="#0" id="circle18"/>
	<circle cx="78.4" cy="490.462" r="4" fill="#0" id="circle19"/>
	<circle cx="80.3077" cy="223.385" r="4" fill="#0" id="circle20"/>
	<circle cx="80.3077" cy="780.431" r="4" fill="#0" id="circle21"/>
	<circle cx="80.3077" cy="845.292" r="4" fill="#0" id="circle22"/>
	<circle cx="80.3077" cy="864.369" r="4" fill="#0" id="circle23"/>
	<circle cx="82.2154" cy="158.523" r="4" fill="#0" id="circle24"/>
	<circle cx="86.0308" cy="326.4" r="4" fill="#0" id="circle25"/>
	<circle cx="89.8462" cy="751.815" r="4" fill="#0" id="circle26"/>
	<circle cx="89.8462" cy="881.538" r="4" fill="#0" id="circle27"/>
	<circle cx="97.4769" cy="486.646" r="4" fill="#0" id="circle28"/>
	<circle cx="99.3846" cy="223.385" r="4" fill="#0" id="circle29"/>
	<circle cx="101.292" cy="148.985" r="4" fill="#0" id="circle30"/>
	<circle cx="101.292" cy="311.138" r="4" fill="#0" id="circle31"/>
	<circle cx="105.108" cy="736.554" r="4" fill="#0" id="circle32"/>
	<circle cx="107.015" cy="891.077" r="4" fill="#0" id="circle33"/>
	<circle cx="108.923" cy="541.969" r="4" fill="#0" id="circle34"/>
	<circle cx="108.923" cy="561.046" r="4" fill="#0" id="circle35"/>
	<circle cx="108.923" cy="580.123" r="4" fill="#0" id="circle36"/>
	<circle cx="108.923" cy="599.2" r="4" fill="#0" id="circle37"/>
	<circle cx="110.831" cy="292.062" r="4" fill="#0" id="circle38"/>
	<circle cx="110.831" cy="461.846" r="4" fill="#0" id="circle39"/>
	<circle cx="114.646" cy="717.477" r="4" fill="#0" id="circle40"/>
	<circle cx="116.554" cy="232.923" r="4" fill="#0" id="circle41"/>
	<circle cx="118.462" cy="252" r="4" fill="#0" id="circle42"/>
	<circle cx="118.462" cy="522.892" r="4" fill="#0" id="circle43"/>
	<circle cx="118.462" cy="616.369" r="4" fill="#0" id="circle44"/>
	<circle cx="118.462" cy="635.446" r="4" fill="#0" id="circle45"/>
	<circle cx="120.369" cy="139.446" r="4" fill="#0" id="circle46"/>
	<circle cx="120.369" cy="872" r="4" fill="#0" id="circle47"/>
	<circle cx="126.092" cy="278.708" r="4" fill="#0" id="circle48"/>
	<circle cx="126.092" cy="448.492" r="4" fill="#0" id="circle49"/>
	<circle cx="128" cy="652.615" r="4" fill="#0" id="circle50"/>
	<circle cx="128" cy="671.692" r="4" fill="#0" id="circle51"/>
	<circle cx="128" cy="694.585" r="4" fill="#0" id="circle52"/>
	<circle cx="133.723" cy="507.631" r="4" fill="#0" id="circle53"/>
	<circle cx="135.631" cy="858.646" r="4" fill="#0" id="circle54"/>
	<circle cx="139.446" cy="129.908" r="4" fill="#0" id="circle55"/>
	<circle cx="139.446" cy="433.231" r="4" fill="#0" id="circle56"/>
	<circle cx="143.262" cy="488.554" r="4" fill="#0" id="circle57"/>
	<circle cx="148.985" cy="843.385" r="4" fill="#0" id="circle58"/>
	<circle cx="152.8" cy="469.477" r="4" fill="#0" id="circle59"/>
	<circle cx="154.708" cy="116.554" r="4" fill="#0" id="circle60"/>
	<circle cx="156.615" cy="423.692" r="4" fill="#0" id="circle61"/>
	<circle cx="162.338" cy="450.4" r="4" fill="#0" id="circle62"/>
	<circle cx="164.246" cy="830.031" r="4" fill="#0" id="circle63"/>
	<circle cx="168.062" cy="101.292" r="4" fill="#0" id="circle64"/>
	<circle cx="173.785" cy="414.154" r="4" fill="#0" id="circle65"/>
	<circle cx="177.6" cy="814.769" r="4" fill="#0" id="circle66"/>
	<circle cx="183.323" cy="87.9385" r="4" fill="#0" id="circle67"/>
	<circle cx="189.046" cy="830.031" r="4" fill="#0" id="circle68"/>
	<circle cx="196.677" cy="849.108" r="4" fill="#0" id="circle69"/>
	<circle cx="200.492" cy="78.4" r="4" fill="#0" id="circle70"/>
	<circle cx="206.215" cy="866.277" r="4" fill="#0" id="circle71"/>
	<circle cx="213.846" cy="885.354" r="4" fill="#0" id="circle72"/>
	<circle cx="217.662" cy="68.8615" r="4" fill="#0" id="circle73"/>
	<circle cx="223.385" cy="902.523" r="4" fill="#0" id="circle74"/>
	<circle cx="232.923" cy="919.692" r="4" fill="#0" id="circle75"/>
	<circle cx="234.831" cy="59.3231" r="4" fill="#0" id="circle76"/>
	<circle cx="238.646" cy="938.769" r="4" fill="#0" id="circle77"/>
	<circle cx="252" cy="45.9692" r="4" fill="#0" id="circle78"/>
	<circle cx="253.908" cy="952.123" r="4" fill="#0" id="circle79"/>
	<circle cx="267.262" cy="967.385" r="4" fill="#0" id="circle80"/>
	<circle cx="271.077" cy="40.2462" r="4" fill="#0" id="circle81"/>
	<circle cx="286.338" cy="975.015" r="4" fill="#0" id="circle82"/>
	<circle cx="288.246" cy="30.7077" r="4" fill="#0" id="circle83"/>
	<circle cx="303.508" cy="984.554" r="4" fill="#0" id="circle84"/>
	<circle cx="307.323" cy="30.7077" r="4" fill="#0" id="circle85"/>
	<circle cx="322.585" cy="986.462" r="4" fill="#0" id="circle86"/>
	<circle cx="324.492" cy="21.1692" r="4" fill="#0" id="circle87"/>
	<circle cx="339.754" cy="996" r="4" fill="#0" id="circle88"/>
	<circle cx="343.569" cy="21.1692" r="4" fill="#0" id="circle89"/>
	<circle cx="358.831" cy="996" r="4" fill="#0" id="circle90"/>
	<circle cx="360.738" cy="11.6308" r="4" fill="#0" id="circle91"/>
	<circle cx="377.908" cy="996" r="4" fill="#0" id="circle92"/>
	<circle cx="379.815" cy="4" r="4" fill="#0" id="circle93"/>
	<circle cx="396.985" cy="996" r="4" fill="#0" id="circle94"/>
	<circle cx="398.892" cy="11.6308" r="4" fill="#0" id="circle95"/>
	<circle cx="416.062" cy="996" r="4" fill="#0" id="circle96"/>
	<circle cx="417.969" cy="11.6308" r="4" fill="#0" id="circle97"/>
	<circle cx="435.138" cy="21.1692" r="4" fill="#0" id="circle98"/>
	<circle cx="435.138" cy="986.462" r="4" fill="#0" id="circle99"/>
	<circle cx="454.215" cy="26.8923" r="4" fill="#0" id="circle100"/>
	<circle cx="454.215" cy="986.462" r="4" fill="#0" id="circle101"/>
	<circle cx="471.385" cy="976.923" r="4" fill="#0" id="circle102"/>
	<circle cx="473.292" cy="30.7077" r="4" fill="#0" id="circle103"/>
	<circle cx="488.554" cy="967.385" r="4" fill="#0" id="circle104"/>
	<circle cx="492.369" cy="36.4308" r="4" fill="#0" id="circle105"/>
	<circle cx="505.723" cy="955.938" r="4" fill="#0" id="circle106"/>
	<circle cx="509.538" cy="45.9692" r="4" fill="#0" id="circle107"/>
	<circle cx="520.985" cy="938.769" r="4" fill="#0" id="circle108"/>
	<circle cx="528.615" cy="53.6" r="4" fill="#0" id="circle109"/>
	<circle cx="530.523" cy="919.692" r="4" fill="#0" id="circle110"/>
	<circle cx="540.062" cy="900.615" r="4" fill="#0" id="circle111"/>
	<circle cx="545.785" cy="63.1385" r="4" fill="#0" id="circle112"/>
	<circle cx="549.6" cy="881.538" r="4" fill="#0" id="circle113"/>
	<circle cx="559.138" cy="78.4" r="4" fill="#0" id="circle114"/>
	<circle cx="559.138" cy="862.462" r="4" fill="#0" id="circle115"/>
	<circle cx="568.677" cy="347.385" r="4" fill="#0" id="circle116"/>
	<circle cx="568.677" cy="366.462" r="4" fill="#0" id="circle117"/>
	<circle cx="568.677" cy="843.385" r="4" fill="#0" id="circle118"/>
	<circle cx="578.215" cy="84.1231" r="4" fill="#0" id="circle119"/>
	<circle cx="578.215" cy="383.631" r="4" fill="#0" id="circle120"/>
	<circle cx="578.215" cy="402.708" r="4" fill="#0" id="circle121"/>
	<circle cx="578.215" cy="814.769" r="4" fill="#0" id="circle122"/>
	<circle cx="583.938" cy="334.031" r="4" fill="#0" id="circle123"/>
	<circle cx="587.754" cy="419.877" r="4" fill="#0" id="circle124"/>
	<circle cx="587.754" cy="795.692" r="4" fill="#0" id="circle125"/>
	<circle cx="593.477" cy="97.4769" r="4" fill="#0" id="circle126"/>
	<circle cx="597.292" cy="437.046" r="4" fill="#0" id="circle127"/>
	<circle cx="597.292" cy="776.615" r="4" fill="#0" id="circle128"/>
	<circle cx="603.015" cy="328.308" r="4" fill="#0" id="circle129"/>
	<circle cx="606.831" cy="454.215" r="4" fill="#0" id="circle130"/>
	<circle cx="606.831" cy="748" r="4" fill="#0" id="circle131"/>
	<circle cx="610.646" cy="107.015" r="4" fill="#0" id="circle132"/>
	<circle cx="616.369" cy="126.092" r="4" fill="#0" id="circle133"/>
	<circle cx="616.369" cy="471.385" r="4" fill="#0" id="circle134"/>
	<circle cx="616.369" cy="728.923" r="4" fill="#0" id="circle135"/>
	<circle cx="622.092" cy="328.308" r="4" fill="#0" id="circle136"/>
	<circle cx="625.908" cy="488.554" r="4" fill="#0" id="circle137"/>
	<circle cx="625.908" cy="700.308" r="4" fill="#0" id="circle138"/>
	<circle cx="631.631" cy="137.538" r="4" fill="#0" id="circle139"/>
	<circle cx="635.446" cy="505.723" r="4" fill="#0" id="circle140"/>
	<circle cx="635.446" cy="671.692" r="4" fill="#0" id="circle141"/>
	<circle cx="641.169" cy="328.308" r="4" fill="#0" id="circle142"/>
	<circle cx="644.985" cy="152.8" r="4" fill="#0" id="circle143"/>
	<circle cx="644.985" cy="522.892" r="4" fill="#0" id="circle144"/>
	<circle cx="644.985" cy="633.538" r="4" fill="#0" id="circle145"/>
	<circle cx="644.985" cy="652.615" r="4" fill="#0" id="circle146"/>
	<circle cx="652.615" cy="541.969" r="4" fill="#0" id="circle147"/>
	<circle cx="654.523" cy="169.969" r="4" fill="#0" id="circle148"/>
	<circle cx="654.523" cy="189.046" r="4" fill="#0" id="circle149"/>
	<circle cx="654.523" cy="208.123" r="4" fill="#0" id="circle150"/>
	<circle cx="654.523" cy="561.046" r="4" fill="#0" id="circle151"/>
	<circle cx="654.523" cy="580.123" r="4" fill="#0" id="circle152"/>
	<circle cx="654.523" cy="599.2" r="4" fill="#0" id="circle153"/>
	<circle cx="658.338" cy="337.846" r="4" fill="#0" id="circle154"/>
	<circle cx="662.154" cy="227.2" r="4" fill="#0" id="circle155"/>
	<circle cx="677.415" cy="240.554" r="4" fill="#0" id="circle156"/>
	<circle cx="677.415" cy="345.477" r="4" fill="#0" id="circle157"/>
	<circle cx="694.585" cy="250.092" r="4" fill="#0" id="circle158"/>
	<circle cx="696.492" cy="347.385" r="4" fill="#0" id="circle159"/>
	<circle cx="709.846" cy="263.446" r="4" fill="#0" id="circle160"/>
	<circle cx="713.662" cy="356.923" r="4" fill="#0" id="circle161"/>
	<circle cx="727.015" cy="272.985" r="4" fill="#0" id="circle162"/>
	<circle cx="732.738" cy="362.646" r="4" fill="#0" id="circle163"/>
	<circle cx="740.369" cy="288.246" r="4" fill="#0" id="circle164"/>
	<circle cx="749.908" cy="372.185" r="4" fill="#0" id="circle165"/>
	<circle cx="757.538" cy="297.785" r="4" fill="#0" id="circle166"/>
	<circle cx="768.985" cy="379.815" r="4" fill="#0" id="circle167"/>
	<circle cx="772.8" cy="309.231" r="4" fill="#0" id="circle168"/>
	<circle cx="786.154" cy="389.354" r="4" fill="#0" id="circle169"/>
	<circle cx="788.062" cy="322.585" r="4" fill="#0" id="circle170"/>
	<circle cx="801.415" cy="337.846" r="4" fill="#0" id="circle171"/>
	<circle cx="805.231" cy="395.077" r="4" fill="#0" id="circle172"/>
	<circle cx="816.677" cy="351.2" r="4" fill="#0" id="circle173"/>
	<circle cx="824.308" cy="398.892" r="4" fill="#0" id="circle174"/>
	<circle cx="826.215" cy="368.369" r="4" fill="#0" id="circle175"/>
	</g>
</svg>