<?xml version="1.0" encoding="UTF-8" standalone="no"?>
<!-- Created with CurveBenchmark -->
<svg
	xmlns:dc="http://purl.org/dc/elements/1.1/"
	xmlns:cc="http://creativecommons.org/ns#"
	xmlns:rdf="http://www.w3.org/1999/02/22-rdf-syntax-ns#"
	xmlns:svg="http://www.w3.org/2000/svg"
	xmlns="http://www.w3.org/2000/svg"
	xmlns:sodipodi="http://sodipodi.sourceforge.net/DTD/sodipodi-0.dtd"
	xmlns:inkscape="http://www.inkscape.org/namespaces/inkscape"
	width="1000"
	height="1000"
	id="svg2"
	version="1.1"
	sodipodi:docname="manifold/peel-car-16.png.txt">
<defs
	id="defs4" />
<metadata
	id="metadata7">
	<rdf:RDF>
		<cc:Work
			rdf:about="">
			<dc:format>image/svg+xml</dc:format>
			<dc:type
				rdf:resource="http://purl.org/dc/dcmitype/StillImage" />
			<dc:title></dc:title>
		</cc:Work>
	</rdf:RDF>
</metadata>
<g
	inkscape:label="Layer 1"
	inkscape:groupmode="layer"
	id="layer1">
	<path style="fill:none;stroke:red;stroke-width:1px;stroke-linecap:butt;stroke-linejoin:miter;stroke-opacity:1" d="M 8.96994,279.335 4,270.389 z" id="boundary" inkscape:connector-curvature="0" />
	<path style="fill:none;stroke:red;stroke-width:1px;stroke-linecap:butt;stroke-linejoin:miter;stroke-opacity:1" d="M 4,270.389 4,260.449 z" id="boundary" inkscape:connector-curvature="0" />
	<path style="fill:none;stroke:red;stroke-width:1px;stroke-linecap:butt;stroke-linejoin:miter;stroke-opacity:1" d="M 4,260.449 8.96994,250.509 z" id="boundary" inkscape:connector-curvature="0" />
	<path style="fill:none;stroke:red;stroke-width:1px;stroke-linecap:butt;stroke-linejoin:miter;stroke-opacity:1" d="M 33.8196,343.944 33.8196,353.884 z" id="boundary" inkscape:connector-curvature="0" />
	<path style="fill:none;stroke:red;stroke-width:1px;stroke-linecap:butt;stroke-linejoin:miter;stroke-opacity:1" d="M 16.9218,242.557 8.96994,250.509 z" id="boundary" inkscape:connector-curvature="0" />
	<path style="fill:none;stroke:red;stroke-width:1px;stroke-linecap:butt;stroke-linejoin:miter;stroke-opacity:1" d="M 8.96994,279.335 13.9399,288.281 z" id="boundary" inkscape:connector-curvature="0" />
	<path style="fill:none;stroke:red;stroke-width:1px;stroke-linecap:butt;stroke-linejoin:miter;stroke-opacity:1" d="M 33.8196,353.884 33.8196,363.824 z" id="boundary" inkscape:connector-curvature="0" />
	<path style="fill:none;stroke:red;stroke-width:1px;stroke-linecap:butt;stroke-linejoin:miter;stroke-opacity:1" d="M 19.9038,296.232 13.9399,288.281 z" id="boundary" inkscape:connector-curvature="0" />
	<path style="fill:none;stroke:red;stroke-width:1px;stroke-linecap:butt;stroke-linejoin:miter;stroke-opacity:1" d="M 21.8918,232.617 16.9218,242.557 z" id="boundary" inkscape:connector-curvature="0" />
	<path style="fill:none;stroke:red;stroke-width:1px;stroke-linecap:butt;stroke-linejoin:miter;stroke-opacity:1" d="M 23.8798,306.172 19.9038,296.232 z" id="boundary" inkscape:connector-curvature="0" />
	<path style="fill:none;stroke:red;stroke-width:1px;stroke-linecap:butt;stroke-linejoin:miter;stroke-opacity:1" d="M 26.8617,222.677 34.8136,214.725 z" id="boundary" inkscape:connector-curvature="0" />
	<path style="fill:none;stroke:red;stroke-width:1px;stroke-linecap:butt;stroke-linejoin:miter;stroke-opacity:1" d="M 26.8617,222.677 21.8918,232.617 z" id="boundary" inkscape:connector-curvature="0" />
	<path style="fill:none;stroke:red;stroke-width:1px;stroke-linecap:butt;stroke-linejoin:miter;stroke-opacity:1" d="M 51.7114,202.798 42.7655,207.768 z" id="boundary" inkscape:connector-curvature="0" />
	<path style="fill:none;stroke:red;stroke-width:1px;stroke-linecap:butt;stroke-linejoin:miter;stroke-opacity:1" d="M 42.7655,207.768 34.8136,214.725 z" id="boundary" inkscape:connector-curvature="0" />
	<path style="fill:none;stroke:red;stroke-width:1px;stroke-linecap:butt;stroke-linejoin:miter;stroke-opacity:1" d="M 51.7114,202.798 61.6513,197.828 z" id="boundary" inkscape:connector-curvature="0" />
	<path style="fill:none;stroke:red;stroke-width:1px;stroke-linecap:butt;stroke-linejoin:miter;stroke-opacity:1" d="M 28.8497,325.058 28.8497,315.118 z" id="boundary" inkscape:connector-curvature="0" />
	<path style="fill:none;stroke:red;stroke-width:1px;stroke-linecap:butt;stroke-linejoin:miter;stroke-opacity:1" d="M 28.8497,315.118 23.8798,306.172 z" id="boundary" inkscape:connector-curvature="0" />
	<path style="fill:none;stroke:red;stroke-width:1px;stroke-linecap:butt;stroke-linejoin:miter;stroke-opacity:1" d="M 33.8196,334.004 28.8497,325.058 z" id="boundary" inkscape:connector-curvature="0" />
	<path style="fill:none;stroke:red;stroke-width:1px;stroke-linecap:butt;stroke-linejoin:miter;stroke-opacity:1" d="M 33.8196,343.944 33.8196,334.004 z" id="boundary" inkscape:connector-curvature="0" />
	<path style="fill:none;stroke:red;stroke-width:1px;stroke-linecap:butt;stroke-linejoin:miter;stroke-opacity:1" d="M 33.8196,363.824 33.8196,373.764 z" id="boundary" inkscape:connector-curvature="0" />
	<path style="fill:none;stroke:red;stroke-width:1px;stroke-linecap:butt;stroke-linejoin:miter;stroke-opacity:1" d="M 111.351,182.918 101.411,182.918 z" id="boundary" inkscape:connector-curvature="0" />
	<path style="fill:none;stroke:red;stroke-width:1px;stroke-linecap:butt;stroke-linejoin:miter;stroke-opacity:1" d="M 33.8196,373.764 33.8196,383.703 z" id="boundary" inkscape:connector-curvature="0" />
	<path style="fill:none;stroke:red;stroke-width:1px;stroke-linecap:butt;stroke-linejoin:miter;stroke-opacity:1" d="M 33.8196,393.643 33.8196,383.703 z" id="boundary" inkscape:connector-curvature="0" />
	<path style="fill:none;stroke:red;stroke-width:1px;stroke-linecap:butt;stroke-linejoin:miter;stroke-opacity:1" d="M 33.8196,403.583 33.8196,393.643 z" id="boundary" inkscape:connector-curvature="0" />
	<path style="fill:none;stroke:red;stroke-width:1px;stroke-linecap:butt;stroke-linejoin:miter;stroke-opacity:1" d="M 33.8196,413.523 33.8196,403.583 z" id="boundary" inkscape:connector-curvature="0" />
	<path style="fill:none;stroke:red;stroke-width:1px;stroke-linecap:butt;stroke-linejoin:miter;stroke-opacity:1" d="M 38.7896,422.469 33.8196,413.523 z" id="boundary" inkscape:connector-curvature="0" />
	<path style="fill:none;stroke:red;stroke-width:1px;stroke-linecap:butt;stroke-linejoin:miter;stroke-opacity:1" d="M 38.7896,432.409 38.7896,422.469 z" id="boundary" inkscape:connector-curvature="0" />
	<path style="fill:none;stroke:red;stroke-width:1px;stroke-linecap:butt;stroke-linejoin:miter;stroke-opacity:1" d="M 43.7595,441.355 38.7896,432.409 z" id="boundary" inkscape:connector-curvature="0" />
	<path style="fill:none;stroke:red;stroke-width:1px;stroke-linecap:butt;stroke-linejoin:miter;stroke-opacity:1" d="M 61.6513,197.828 71.5912,192.858 z" id="boundary" inkscape:connector-curvature="0" />
	<path style="fill:none;stroke:red;stroke-width:1px;stroke-linecap:butt;stroke-linejoin:miter;stroke-opacity:1" d="M 48.7295,450.301 43.7595,441.355 z" id="boundary" inkscape:connector-curvature="0" />
	<path style="fill:none;stroke:red;stroke-width:1px;stroke-linecap:butt;stroke-linejoin:miter;stroke-opacity:1" d="M 61.6513,466.204 53.6994,459.246 z" id="boundary" inkscape:connector-curvature="0" />
	<path style="fill:none;stroke:red;stroke-width:1px;stroke-linecap:butt;stroke-linejoin:miter;stroke-opacity:1" d="M 53.6994,459.246 48.7295,450.301 z" id="boundary" inkscape:connector-curvature="0" />
	<path style="fill:none;stroke:red;stroke-width:1px;stroke-linecap:butt;stroke-linejoin:miter;stroke-opacity:1" d="M 101.411,182.918 91.4709,182.918 z" id="boundary" inkscape:connector-curvature="0" />
	<path style="fill:none;stroke:red;stroke-width:1px;stroke-linecap:butt;stroke-linejoin:miter;stroke-opacity:1" d="M 91.4709,182.918 81.5311,187.888 z" id="boundary" inkscape:connector-curvature="0" />
	<path style="fill:none;stroke:red;stroke-width:1px;stroke-linecap:butt;stroke-linejoin:miter;stroke-opacity:1" d="M 80.5371,472.168 70.5972,471.174 z" id="boundary" inkscape:connector-curvature="0" />
	<path style="fill:none;stroke:red;stroke-width:1px;stroke-linecap:butt;stroke-linejoin:miter;stroke-opacity:1" d="M 70.5972,471.174 61.6513,466.204 z" id="boundary" inkscape:connector-curvature="0" />
	<path style="fill:none;stroke:red;stroke-width:1px;stroke-linecap:butt;stroke-linejoin:miter;stroke-opacity:1" d="M 81.5311,187.888 71.5912,192.858 z" id="boundary" inkscape:connector-curvature="0" />
	<path style="fill:none;stroke:red;stroke-width:1px;stroke-linecap:butt;stroke-linejoin:miter;stroke-opacity:1" d="M 90.477,472.168 80.5371,472.168 z" id="boundary" inkscape:connector-curvature="0" />
	<path style="fill:none;stroke:red;stroke-width:1px;stroke-linecap:butt;stroke-linejoin:miter;stroke-opacity:1" d="M 275.359,452.289 265.419,452.289 z" id="boundary" inkscape:connector-curvature="0" />
	<path style="fill:none;stroke:red;stroke-width:1px;stroke-linecap:butt;stroke-linejoin:miter;stroke-opacity:1" d="M 295.238,452.289 285.299,452.289 z" id="boundary" inkscape:connector-curvature="0" />
	<path style="fill:none;stroke:red;stroke-width:1px;stroke-linecap:butt;stroke-linejoin:miter;stroke-opacity:1" d="M 498.012,18.9098 489.066,23.8798 z" id="boundary" inkscape:connector-curvature="0" />
	<path style="fill:none;stroke:red;stroke-width:1px;stroke-linecap:butt;stroke-linejoin:miter;stroke-opacity:1" d="M 109.363,467.198 100.417,472.168 z" id="boundary" inkscape:connector-curvature="0" />
	<path style="fill:none;stroke:red;stroke-width:1px;stroke-linecap:butt;stroke-linejoin:miter;stroke-opacity:1" d="M 100.417,472.168 90.477,472.168 z" id="boundary" inkscape:connector-curvature="0" />
	<path style="fill:none;stroke:red;stroke-width:1px;stroke-linecap:butt;stroke-linejoin:miter;stroke-opacity:1" d="M 111.351,182.918 121.291,177.948 z" id="boundary" inkscape:connector-curvature="0" />
	<path style="fill:none;stroke:red;stroke-width:1px;stroke-linecap:butt;stroke-linejoin:miter;stroke-opacity:1" d="M 121.291,177.948 131.23,177.948 z" id="boundary" inkscape:connector-curvature="0" />
	<path style="fill:none;stroke:red;stroke-width:1px;stroke-linecap:butt;stroke-linejoin:miter;stroke-opacity:1" d="M 119.303,467.198 109.363,467.198 z" id="boundary" inkscape:connector-curvature="0" />
	<path style="fill:none;stroke:red;stroke-width:1px;stroke-linecap:butt;stroke-linejoin:miter;stroke-opacity:1" d="M 131.23,177.948 141.17,177.948 z" id="boundary" inkscape:connector-curvature="0" />
	<path style="fill:none;stroke:red;stroke-width:1px;stroke-linecap:butt;stroke-linejoin:miter;stroke-opacity:1" d="M 129.242,462.228 119.303,467.198 z" id="boundary" inkscape:connector-curvature="0" />
	<path style="fill:none;stroke:red;stroke-width:1px;stroke-linecap:butt;stroke-linejoin:miter;stroke-opacity:1" d="M 186.894,447.319 176.954,447.319 z" id="boundary" inkscape:connector-curvature="0" />
	<path style="fill:none;stroke:red;stroke-width:1px;stroke-linecap:butt;stroke-linejoin:miter;stroke-opacity:1" d="M 141.17,177.948 151.11,177.948 z" id="boundary" inkscape:connector-curvature="0" />
	<path style="fill:none;stroke:red;stroke-width:1px;stroke-linecap:butt;stroke-linejoin:miter;stroke-opacity:1" d="M 167.014,447.319 176.954,447.319 z" id="boundary" inkscape:connector-curvature="0" />
	<path style="fill:none;stroke:red;stroke-width:1px;stroke-linecap:butt;stroke-linejoin:miter;stroke-opacity:1" d="M 147.134,450.301 139.182,457.259 z" id="boundary" inkscape:connector-curvature="0" />
	<path style="fill:none;stroke:red;stroke-width:1px;stroke-linecap:butt;stroke-linejoin:miter;stroke-opacity:1" d="M 139.182,457.259 129.242,462.228 z" id="boundary" inkscape:connector-curvature="0" />
	<path style="fill:none;stroke:red;stroke-width:1px;stroke-linecap:butt;stroke-linejoin:miter;stroke-opacity:1" d="M 151.11,177.948 161.05,177.948 z" id="boundary" inkscape:connector-curvature="0" />
	<path style="fill:none;stroke:red;stroke-width:1px;stroke-linecap:butt;stroke-linejoin:miter;stroke-opacity:1" d="M 157.074,447.319 147.134,450.301 z" id="boundary" inkscape:connector-curvature="0" />
	<path style="fill:none;stroke:red;stroke-width:1px;stroke-linecap:butt;stroke-linejoin:miter;stroke-opacity:1" d="M 161.05,177.948 170.99,177.948 z" id="boundary" inkscape:connector-curvature="0" />
	<path style="fill:none;stroke:red;stroke-width:1px;stroke-linecap:butt;stroke-linejoin:miter;stroke-opacity:1" d="M 167.014,447.319 157.074,447.319 z" id="boundary" inkscape:connector-curvature="0" />
	<path style="fill:none;stroke:red;stroke-width:1px;stroke-linecap:butt;stroke-linejoin:miter;stroke-opacity:1" d="M 180.93,177.948 170.99,177.948 z" id="boundary" inkscape:connector-curvature="0" />
	<path style="fill:none;stroke:red;stroke-width:1px;stroke-linecap:butt;stroke-linejoin:miter;stroke-opacity:1" d="M 186.894,447.319 196.834,447.319 z" id="boundary" inkscape:connector-curvature="0" />
	<path style="fill:none;stroke:red;stroke-width:1px;stroke-linecap:butt;stroke-linejoin:miter;stroke-opacity:1" d="M 196.834,447.319 205.78,452.289 z" id="boundary" inkscape:connector-curvature="0" />
	<path style="fill:none;stroke:red;stroke-width:1px;stroke-linecap:butt;stroke-linejoin:miter;stroke-opacity:1" d="M 190.87,177.948 180.93,177.948 z" id="boundary" inkscape:connector-curvature="0" />
	<path style="fill:none;stroke:red;stroke-width:1px;stroke-linecap:butt;stroke-linejoin:miter;stroke-opacity:1" d="M 200.81,177.948 190.87,177.948 z" id="boundary" inkscape:connector-curvature="0" />
	<path style="fill:none;stroke:red;stroke-width:1px;stroke-linecap:butt;stroke-linejoin:miter;stroke-opacity:1" d="M 205.78,452.289 215.719,452.289 z" id="boundary" inkscape:connector-curvature="0" />
	<path style="fill:none;stroke:red;stroke-width:1px;stroke-linecap:butt;stroke-linejoin:miter;stroke-opacity:1" d="M 210.749,177.948 200.81,177.948 z" id="boundary" inkscape:connector-curvature="0" />
	<path style="fill:none;stroke:red;stroke-width:1px;stroke-linecap:butt;stroke-linejoin:miter;stroke-opacity:1" d="M 210.749,177.948 220.689,177.948 z" id="boundary" inkscape:connector-curvature="0" />
	<path style="fill:none;stroke:red;stroke-width:1px;stroke-linecap:butt;stroke-linejoin:miter;stroke-opacity:1" d="M 215.719,452.289 225.659,452.289 z" id="boundary" inkscape:connector-curvature="0" />
	<path style="fill:none;stroke:red;stroke-width:1px;stroke-linecap:butt;stroke-linejoin:miter;stroke-opacity:1" d="M 220.689,177.948 230.629,177.948 z" id="boundary" inkscape:connector-curvature="0" />
	<path style="fill:none;stroke:red;stroke-width:1px;stroke-linecap:butt;stroke-linejoin:miter;stroke-opacity:1" d="M 225.659,452.289 235.599,452.289 z" id="boundary" inkscape:connector-curvature="0" />
	<path style="fill:none;stroke:red;stroke-width:1px;stroke-linecap:butt;stroke-linejoin:miter;stroke-opacity:1" d="M 235.599,452.289 245.539,452.289 z" id="boundary" inkscape:connector-curvature="0" />
	<path style="fill:none;stroke:red;stroke-width:1px;stroke-linecap:butt;stroke-linejoin:miter;stroke-opacity:1" d="M 239.575,172.978 249.515,172.978 z" id="boundary" inkscape:connector-curvature="0" />
	<path style="fill:none;stroke:red;stroke-width:1px;stroke-linecap:butt;stroke-linejoin:miter;stroke-opacity:1" d="M 239.575,172.978 230.629,177.948 z" id="boundary" inkscape:connector-curvature="0" />
	<path style="fill:none;stroke:red;stroke-width:1px;stroke-linecap:butt;stroke-linejoin:miter;stroke-opacity:1" d="M 255.479,452.289 245.539,452.289 z" id="boundary" inkscape:connector-curvature="0" />
	<path style="fill:none;stroke:red;stroke-width:1px;stroke-linecap:butt;stroke-linejoin:miter;stroke-opacity:1" d="M 258.461,168.008 268.401,168.008 z" id="boundary" inkscape:connector-curvature="0" />
	<path style="fill:none;stroke:red;stroke-width:1px;stroke-linecap:butt;stroke-linejoin:miter;stroke-opacity:1" d="M 258.461,168.008 249.515,172.978 z" id="boundary" inkscape:connector-curvature="0" />
	<path style="fill:none;stroke:red;stroke-width:1px;stroke-linecap:butt;stroke-linejoin:miter;stroke-opacity:1" d="M 285.299,452.289 275.359,452.289 z" id="boundary" inkscape:connector-curvature="0" />
	<path style="fill:none;stroke:red;stroke-width:1px;stroke-linecap:butt;stroke-linejoin:miter;stroke-opacity:1" d="M 268.401,168.008 278.341,168.008 z" id="boundary" inkscape:connector-curvature="0" />
	<path style="fill:none;stroke:red;stroke-width:1px;stroke-linecap:butt;stroke-linejoin:miter;stroke-opacity:1" d="M 255.479,452.289 265.419,452.289 z" id="boundary" inkscape:connector-curvature="0" />
	<path style="fill:none;stroke:red;stroke-width:1px;stroke-linecap:butt;stroke-linejoin:miter;stroke-opacity:1" d="M 305.178,452.289 295.238,452.289 z" id="boundary" inkscape:connector-curvature="0" />
	<path style="fill:none;stroke:red;stroke-width:1px;stroke-linecap:butt;stroke-linejoin:miter;stroke-opacity:1" d="M 277.347,151.11 278.341,168.008 z" id="boundary" inkscape:connector-curvature="0" />
	<path style="fill:none;stroke:red;stroke-width:1px;stroke-linecap:butt;stroke-linejoin:miter;stroke-opacity:1" d="M 315.118,452.289 305.178,452.289 z" id="boundary" inkscape:connector-curvature="0" />
	<path style="fill:none;stroke:red;stroke-width:1px;stroke-linecap:butt;stroke-linejoin:miter;stroke-opacity:1" d="M 282.317,141.17 277.347,151.11 z" id="boundary" inkscape:connector-curvature="0" />
	<path style="fill:none;stroke:red;stroke-width:1px;stroke-linecap:butt;stroke-linejoin:miter;stroke-opacity:1" d="M 300.208,128.248 290.269,133.218 z" id="boundary" inkscape:connector-curvature="0" />
	<path style="fill:none;stroke:red;stroke-width:1px;stroke-linecap:butt;stroke-linejoin:miter;stroke-opacity:1" d="M 319.094,133.218 310.148,128.248 z" id="boundary" inkscape:connector-curvature="0" />
	<path style="fill:none;stroke:red;stroke-width:1px;stroke-linecap:butt;stroke-linejoin:miter;stroke-opacity:1" d="M 310.148,128.248 300.208,128.248 z" id="boundary" inkscape:connector-curvature="0" />
	<path style="fill:none;stroke:red;stroke-width:1px;stroke-linecap:butt;stroke-linejoin:miter;stroke-opacity:1" d="M 325.058,452.289 315.118,452.289 z" id="boundary" inkscape:connector-curvature="0" />
	<path style="fill:none;stroke:red;stroke-width:1px;stroke-linecap:butt;stroke-linejoin:miter;stroke-opacity:1" d="M 282.317,141.17 290.269,133.218 z" id="boundary" inkscape:connector-curvature="0" />
	<path style="fill:none;stroke:red;stroke-width:1px;stroke-linecap:butt;stroke-linejoin:miter;stroke-opacity:1" d="M 464.216,482.108 472.168,489.066 z" id="boundary" inkscape:connector-curvature="0" />
	<path style="fill:none;stroke:red;stroke-width:1px;stroke-linecap:butt;stroke-linejoin:miter;stroke-opacity:1" d="M 472.168,489.066 479.126,497.018 z" id="boundary" inkscape:connector-curvature="0" />
	<path style="fill:none;stroke:red;stroke-width:1px;stroke-linecap:butt;stroke-linejoin:miter;stroke-opacity:1" d="M 319.094,133.218 329.034,133.218 z" id="boundary" inkscape:connector-curvature="0" />
	<path style="fill:none;stroke:red;stroke-width:1px;stroke-linecap:butt;stroke-linejoin:miter;stroke-opacity:1" d="M 464.216,482.108 457.259,474.156 z" id="boundary" inkscape:connector-curvature="0" />
	<path style="fill:none;stroke:red;stroke-width:1px;stroke-linecap:butt;stroke-linejoin:miter;stroke-opacity:1" d="M 329.034,133.218 338.974,133.218 z" id="boundary" inkscape:connector-curvature="0" />
	<path style="fill:none;stroke:red;stroke-width:1px;stroke-linecap:butt;stroke-linejoin:miter;stroke-opacity:1" d="M 457.259,474.156 452.289,465.21 z" id="boundary" inkscape:connector-curvature="0" />
	<path style="fill:none;stroke:red;stroke-width:1px;stroke-linecap:butt;stroke-linejoin:miter;stroke-opacity:1" d="M 334.004,447.319 325.058,452.289 z" id="boundary" inkscape:connector-curvature="0" />
	<path style="fill:none;stroke:red;stroke-width:1px;stroke-linecap:butt;stroke-linejoin:miter;stroke-opacity:1" d="M 343.944,447.319 334.004,447.319 z" id="boundary" inkscape:connector-curvature="0" />
	<path style="fill:none;stroke:red;stroke-width:1px;stroke-linecap:butt;stroke-linejoin:miter;stroke-opacity:1" d="M 347.92,128.248 338.974,133.218 z" id="boundary" inkscape:connector-curvature="0" />
	<path style="fill:none;stroke:red;stroke-width:1px;stroke-linecap:butt;stroke-linejoin:miter;stroke-opacity:1" d="M 353.884,447.319 343.944,447.319 z" id="boundary" inkscape:connector-curvature="0" />
	<path style="fill:none;stroke:red;stroke-width:1px;stroke-linecap:butt;stroke-linejoin:miter;stroke-opacity:1" d="M 356.866,123.279 347.92,128.248 z" id="boundary" inkscape:connector-curvature="0" />
	<path style="fill:none;stroke:red;stroke-width:1px;stroke-linecap:butt;stroke-linejoin:miter;stroke-opacity:1" d="M 452.289,465.21 451.295,455.271 z" id="boundary" inkscape:connector-curvature="0" />
	<path style="fill:none;stroke:red;stroke-width:1px;stroke-linecap:butt;stroke-linejoin:miter;stroke-opacity:1" d="M 362.83,442.349 353.884,447.319 z" id="boundary" inkscape:connector-curvature="0" />
	<path style="fill:none;stroke:red;stroke-width:1px;stroke-linecap:butt;stroke-linejoin:miter;stroke-opacity:1" d="M 365.812,118.309 375.752,118.309 z" id="boundary" inkscape:connector-curvature="0" />
	<path style="fill:none;stroke:red;stroke-width:1px;stroke-linecap:butt;stroke-linejoin:miter;stroke-opacity:1" d="M 365.812,118.309 356.866,123.279 z" id="boundary" inkscape:connector-curvature="0" />
	<path style="fill:none;stroke:red;stroke-width:1px;stroke-linecap:butt;stroke-linejoin:miter;stroke-opacity:1" d="M 372.77,437.379 382.709,437.379 z" id="boundary" inkscape:connector-curvature="0" />
	<path style="fill:none;stroke:red;stroke-width:1px;stroke-linecap:butt;stroke-linejoin:miter;stroke-opacity:1" d="M 372.77,437.379 362.83,442.349 z" id="boundary" inkscape:connector-curvature="0" />
	<path style="fill:none;stroke:red;stroke-width:1px;stroke-linecap:butt;stroke-linejoin:miter;stroke-opacity:1" d="M 384.697,113.339 393.643,108.369 z" id="boundary" inkscape:connector-curvature="0" />
	<path style="fill:none;stroke:red;stroke-width:1px;stroke-linecap:butt;stroke-linejoin:miter;stroke-opacity:1" d="M 391.655,432.409 397.619,422.469 z" id="boundary" inkscape:connector-curvature="0" />
	<path style="fill:none;stroke:red;stroke-width:1px;stroke-linecap:butt;stroke-linejoin:miter;stroke-opacity:1" d="M 375.752,118.309 384.697,113.339 z" id="boundary" inkscape:connector-curvature="0" />
	<path style="fill:none;stroke:red;stroke-width:1px;stroke-linecap:butt;stroke-linejoin:miter;stroke-opacity:1" d="M 391.655,432.409 382.709,437.379 z" id="boundary" inkscape:connector-curvature="0" />
	<path style="fill:none;stroke:red;stroke-width:1px;stroke-linecap:butt;stroke-linejoin:miter;stroke-opacity:1" d="M 422.469,108.369 413.523,103.399 z" id="boundary" inkscape:connector-curvature="0" />
	<path style="fill:none;stroke:red;stroke-width:1px;stroke-linecap:butt;stroke-linejoin:miter;stroke-opacity:1" d="M 413.523,103.399 403.583,104.393 z" id="boundary" inkscape:connector-curvature="0" />
	<path style="fill:none;stroke:red;stroke-width:1px;stroke-linecap:butt;stroke-linejoin:miter;stroke-opacity:1" d="M 405.571,415.511 412.529,407.559 z" id="boundary" inkscape:connector-curvature="0" />
	<path style="fill:none;stroke:red;stroke-width:1px;stroke-linecap:butt;stroke-linejoin:miter;stroke-opacity:1" d="M 393.643,108.369 403.583,104.393 z" id="boundary" inkscape:connector-curvature="0" />
	<path style="fill:none;stroke:red;stroke-width:1px;stroke-linecap:butt;stroke-linejoin:miter;stroke-opacity:1" d="M 446.325,425.451 447.319,435.391 z" id="boundary" inkscape:connector-curvature="0" />
	<path style="fill:none;stroke:red;stroke-width:1px;stroke-linecap:butt;stroke-linejoin:miter;stroke-opacity:1" d="M 405.571,415.511 397.619,422.469 z" id="boundary" inkscape:connector-curvature="0" />
	<path style="fill:none;stroke:red;stroke-width:1px;stroke-linecap:butt;stroke-linejoin:miter;stroke-opacity:1" d="M 430.421,397.619 421.475,402.589 z" id="boundary" inkscape:connector-curvature="0" />
	<path style="fill:none;stroke:red;stroke-width:1px;stroke-linecap:butt;stroke-linejoin:miter;stroke-opacity:1" d="M 422.469,108.369 431.415,113.339 z" id="boundary" inkscape:connector-curvature="0" />
	<path style="fill:none;stroke:red;stroke-width:1px;stroke-linecap:butt;stroke-linejoin:miter;stroke-opacity:1" d="M 446.325,405.571 440.361,397.619 z" id="boundary" inkscape:connector-curvature="0" />
	<path style="fill:none;stroke:red;stroke-width:1px;stroke-linecap:butt;stroke-linejoin:miter;stroke-opacity:1" d="M 440.361,397.619 430.421,397.619 z" id="boundary" inkscape:connector-curvature="0" />
	<path style="fill:none;stroke:red;stroke-width:1px;stroke-linecap:butt;stroke-linejoin:miter;stroke-opacity:1" d="M 421.475,402.589 412.529,407.559 z" id="boundary" inkscape:connector-curvature="0" />
	<path style="fill:none;stroke:red;stroke-width:1px;stroke-linecap:butt;stroke-linejoin:miter;stroke-opacity:1" d="M 446.325,415.511 446.325,405.571 z" id="boundary" inkscape:connector-curvature="0" />
	<path style="fill:none;stroke:red;stroke-width:1px;stroke-linecap:butt;stroke-linejoin:miter;stroke-opacity:1" d="M 446.325,425.451 446.325,415.511 z" id="boundary" inkscape:connector-curvature="0" />
	<path style="fill:none;stroke:red;stroke-width:1px;stroke-linecap:butt;stroke-linejoin:miter;stroke-opacity:1" d="M 441.355,101.411 441.355,111.351 z" id="boundary" inkscape:connector-curvature="0" />
	<path style="fill:none;stroke:red;stroke-width:1px;stroke-linecap:butt;stroke-linejoin:miter;stroke-opacity:1" d="M 441.355,111.351 431.415,113.339 z" id="boundary" inkscape:connector-curvature="0" />
	<path style="fill:none;stroke:red;stroke-width:1px;stroke-linecap:butt;stroke-linejoin:miter;stroke-opacity:1" d="M 446.325,91.4709 441.355,101.411 z" id="boundary" inkscape:connector-curvature="0" />
	<path style="fill:none;stroke:red;stroke-width:1px;stroke-linecap:butt;stroke-linejoin:miter;stroke-opacity:1" d="M 446.325,91.4709 451.295,81.5311 z" id="boundary" inkscape:connector-curvature="0" />
	<path style="fill:none;stroke:red;stroke-width:1px;stroke-linecap:butt;stroke-linejoin:miter;stroke-opacity:1" d="M 464.216,63.6393 456.265,71.5912 z" id="boundary" inkscape:connector-curvature="0" />
	<path style="fill:none;stroke:red;stroke-width:1px;stroke-linecap:butt;stroke-linejoin:miter;stroke-opacity:1" d="M 456.265,71.5912 451.295,81.5311 z" id="boundary" inkscape:connector-curvature="0" />
	<path style="fill:none;stroke:red;stroke-width:1px;stroke-linecap:butt;stroke-linejoin:miter;stroke-opacity:1" d="M 451.295,455.271 451.295,445.331 z" id="boundary" inkscape:connector-curvature="0" />
	<path style="fill:none;stroke:red;stroke-width:1px;stroke-linecap:butt;stroke-linejoin:miter;stroke-opacity:1" d="M 451.295,445.331 447.319,435.391 z" id="boundary" inkscape:connector-curvature="0" />
	<path style="fill:none;stroke:red;stroke-width:1px;stroke-linecap:butt;stroke-linejoin:miter;stroke-opacity:1" d="M 525.844,8.96994 535.784,8.96994 z" id="boundary" inkscape:connector-curvature="0" />
	<path style="fill:none;stroke:red;stroke-width:1px;stroke-linecap:butt;stroke-linejoin:miter;stroke-opacity:1" d="M 479.126,497.018 488.072,501.988 z" id="boundary" inkscape:connector-curvature="0" />
	<path style="fill:none;stroke:red;stroke-width:1px;stroke-linecap:butt;stroke-linejoin:miter;stroke-opacity:1" d="M 464.216,63.6393 471.174,51.7114 z" id="boundary" inkscape:connector-curvature="0" />
	<path style="fill:none;stroke:red;stroke-width:1px;stroke-linecap:butt;stroke-linejoin:miter;stroke-opacity:1" d="M 471.174,51.7114 479.126,43.7595 z" id="boundary" inkscape:connector-curvature="0" />
	<path style="fill:none;stroke:red;stroke-width:1px;stroke-linecap:butt;stroke-linejoin:miter;stroke-opacity:1" d="M 515.904,8.96994 525.844,8.96994 z" id="boundary" inkscape:connector-curvature="0" />
	<path style="fill:none;stroke:red;stroke-width:1px;stroke-linecap:butt;stroke-linejoin:miter;stroke-opacity:1" d="M 515.904,8.96994 506.958,13.9399 z" id="boundary" inkscape:connector-curvature="0" />
	<path style="fill:none;stroke:red;stroke-width:1px;stroke-linecap:butt;stroke-linejoin:miter;stroke-opacity:1" d="M 506.958,13.9399 498.012,18.9098 z" id="boundary" inkscape:connector-curvature="0" />
	<path style="fill:none;stroke:red;stroke-width:1px;stroke-linecap:butt;stroke-linejoin:miter;stroke-opacity:1" d="M 479.126,43.7595 484.096,33.8196 z" id="boundary" inkscape:connector-curvature="0" />
	<path style="fill:none;stroke:red;stroke-width:1px;stroke-linecap:butt;stroke-linejoin:miter;stroke-opacity:1" d="M 489.066,23.8798 484.096,33.8196 z" id="boundary" inkscape:connector-curvature="0" />
	<path style="fill:none;stroke:red;stroke-width:1px;stroke-linecap:butt;stroke-linejoin:miter;stroke-opacity:1" d="M 498.012,501.988 488.072,501.988 z" id="boundary" inkscape:connector-curvature="0" />
	<path style="fill:none;stroke:red;stroke-width:1px;stroke-linecap:butt;stroke-linejoin:miter;stroke-opacity:1" d="M 535.784,8.96994 545.723,8.96994 z" id="boundary" inkscape:connector-curvature="0" />
	<path style="fill:none;stroke:red;stroke-width:1px;stroke-linecap:butt;stroke-linejoin:miter;stroke-opacity:1" d="M 507.952,501.988 498.012,501.988 z" id="boundary" inkscape:connector-curvature="0" />
	<path style="fill:none;stroke:red;stroke-width:1px;stroke-linecap:butt;stroke-linejoin:miter;stroke-opacity:1" d="M 545.723,8.96994 555.663,8.96994 z" id="boundary" inkscape:connector-curvature="0" />
	<path style="fill:none;stroke:red;stroke-width:1px;stroke-linecap:butt;stroke-linejoin:miter;stroke-opacity:1" d="M 526.838,497.018 517.892,501.988 z" id="boundary" inkscape:connector-curvature="0" />
	<path style="fill:none;stroke:red;stroke-width:1px;stroke-linecap:butt;stroke-linejoin:miter;stroke-opacity:1" d="M 517.892,501.988 507.952,501.988 z" id="boundary" inkscape:connector-curvature="0" />
	<path style="fill:none;stroke:red;stroke-width:1px;stroke-linecap:butt;stroke-linejoin:miter;stroke-opacity:1" d="M 536.778,497.018 526.838,497.018 z" id="boundary" inkscape:connector-curvature="0" />
	<path style="fill:none;stroke:red;stroke-width:1px;stroke-linecap:butt;stroke-linejoin:miter;stroke-opacity:1" d="M 545.723,492.048 536.778,497.018 z" id="boundary" inkscape:connector-curvature="0" />
	<path style="fill:none;stroke:red;stroke-width:1px;stroke-linecap:butt;stroke-linejoin:miter;stroke-opacity:1" d="M 553.675,486.084 545.723,492.048 z" id="boundary" inkscape:connector-curvature="0" />
	<path style="fill:none;stroke:red;stroke-width:1px;stroke-linecap:butt;stroke-linejoin:miter;stroke-opacity:1" d="M 719.671,412.529 729.611,412.529 z" id="boundary" inkscape:connector-curvature="0" />
	<path style="fill:none;stroke:red;stroke-width:1px;stroke-linecap:butt;stroke-linejoin:miter;stroke-opacity:1" d="M 719.671,412.529 709.731,414.517 z" id="boundary" inkscape:connector-curvature="0" />
	<path style="fill:none;stroke:red;stroke-width:1px;stroke-linecap:butt;stroke-linejoin:miter;stroke-opacity:1" d="M 574.549,4 584.489,4 z" id="boundary" inkscape:connector-curvature="0" />
	<path style="fill:none;stroke:red;stroke-width:1px;stroke-linecap:butt;stroke-linejoin:miter;stroke-opacity:1" d="M 563.615,481.114 553.675,486.084 z" id="boundary" inkscape:connector-curvature="0" />
	<path style="fill:none;stroke:red;stroke-width:1px;stroke-linecap:butt;stroke-linejoin:miter;stroke-opacity:1" d="M 564.609,4 574.549,4 z" id="boundary" inkscape:connector-curvature="0" />
	<path style="fill:none;stroke:red;stroke-width:1px;stroke-linecap:butt;stroke-linejoin:miter;stroke-opacity:1" d="M 564.609,4 555.663,8.96994 z" id="boundary" inkscape:connector-curvature="0" />
	<path style="fill:none;stroke:red;stroke-width:1px;stroke-linecap:butt;stroke-linejoin:miter;stroke-opacity:1" d="M 571.567,472.168 563.615,481.114 z" id="boundary" inkscape:connector-curvature="0" />
	<path style="fill:none;stroke:red;stroke-width:1px;stroke-linecap:butt;stroke-linejoin:miter;stroke-opacity:1" d="M 584.489,4 594.429,4 z" id="boundary" inkscape:connector-curvature="0" />
	<path style="fill:none;stroke:red;stroke-width:1px;stroke-linecap:butt;stroke-linejoin:miter;stroke-opacity:1" d="M 613.315,432.409 622.261,427.439 z" id="boundary" inkscape:connector-curvature="0" />
	<path style="fill:none;stroke:red;stroke-width:1px;stroke-linecap:butt;stroke-linejoin:miter;stroke-opacity:1" d="M 622.261,427.439 632.2,427.439 z" id="boundary" inkscape:connector-curvature="0" />
	<path style="fill:none;stroke:red;stroke-width:1px;stroke-linecap:butt;stroke-linejoin:miter;stroke-opacity:1" d="M 576.537,447.319 576.537,457.259 z" id="boundary" inkscape:connector-curvature="0" />
	<path style="fill:none;stroke:red;stroke-width:1px;stroke-linecap:butt;stroke-linejoin:miter;stroke-opacity:1" d="M 576.537,457.259 571.567,472.168 z" id="boundary" inkscape:connector-curvature="0" />
	<path style="fill:none;stroke:red;stroke-width:1px;stroke-linecap:butt;stroke-linejoin:miter;stroke-opacity:1" d="M 576.537,447.319 584.489,440.361 z" id="boundary" inkscape:connector-curvature="0" />
	<path style="fill:none;stroke:red;stroke-width:1px;stroke-linecap:butt;stroke-linejoin:miter;stroke-opacity:1" d="M 584.489,440.361 594.429,437.379 z" id="boundary" inkscape:connector-curvature="0" />
	<path style="fill:none;stroke:red;stroke-width:1px;stroke-linecap:butt;stroke-linejoin:miter;stroke-opacity:1" d="M 594.429,4 604.369,4 z" id="boundary" inkscape:connector-curvature="0" />
	<path style="fill:none;stroke:red;stroke-width:1px;stroke-linecap:butt;stroke-linejoin:miter;stroke-opacity:1" d="M 603.375,432.409 594.429,437.379 z" id="boundary" inkscape:connector-curvature="0" />
	<path style="fill:none;stroke:red;stroke-width:1px;stroke-linecap:butt;stroke-linejoin:miter;stroke-opacity:1" d="M 603.375,432.409 613.315,432.409 z" id="boundary" inkscape:connector-curvature="0" />
	<path style="fill:none;stroke:red;stroke-width:1px;stroke-linecap:butt;stroke-linejoin:miter;stroke-opacity:1" d="M 604.369,4 614.309,4 z" id="boundary" inkscape:connector-curvature="0" />
	<path style="fill:none;stroke:red;stroke-width:1px;stroke-linecap:butt;stroke-linejoin:miter;stroke-opacity:1" d="M 632.2,427.439 642.14,427.439 z" id="boundary" inkscape:connector-curvature="0" />
	<path style="fill:none;stroke:red;stroke-width:1px;stroke-linecap:butt;stroke-linejoin:miter;stroke-opacity:1" d="M 634.188,4 624.248,4 z" id="boundary" inkscape:connector-curvature="0" />
	<path style="fill:none;stroke:red;stroke-width:1px;stroke-linecap:butt;stroke-linejoin:miter;stroke-opacity:1" d="M 661.026,422.469 670.966,422.469 z" id="boundary" inkscape:connector-curvature="0" />
	<path style="fill:none;stroke:red;stroke-width:1px;stroke-linecap:butt;stroke-linejoin:miter;stroke-opacity:1" d="M 644.128,4 654.068,4.99399 z" id="boundary" inkscape:connector-curvature="0" />
	<path style="fill:none;stroke:red;stroke-width:1px;stroke-linecap:butt;stroke-linejoin:miter;stroke-opacity:1" d="M 654.068,4.99399 664.008,8.96994 z" id="boundary" inkscape:connector-curvature="0" />
	<path style="fill:none;stroke:red;stroke-width:1px;stroke-linecap:butt;stroke-linejoin:miter;stroke-opacity:1" d="M 651.086,422.469 661.026,422.469 z" id="boundary" inkscape:connector-curvature="0" />
	<path style="fill:none;stroke:red;stroke-width:1px;stroke-linecap:butt;stroke-linejoin:miter;stroke-opacity:1" d="M 651.086,422.469 642.14,427.439 z" id="boundary" inkscape:connector-curvature="0" />
	<path style="fill:none;stroke:red;stroke-width:1px;stroke-linecap:butt;stroke-linejoin:miter;stroke-opacity:1" d="M 644.128,4 634.188,4 z" id="boundary" inkscape:connector-curvature="0" />
	<path style="fill:none;stroke:red;stroke-width:1px;stroke-linecap:butt;stroke-linejoin:miter;stroke-opacity:1" d="M 670.966,422.469 680.906,422.469 z" id="boundary" inkscape:connector-curvature="0" />
	<path style="fill:none;stroke:red;stroke-width:1px;stroke-linecap:butt;stroke-linejoin:miter;stroke-opacity:1" d="M 683.888,13.9399 692.834,18.9098 z" id="boundary" inkscape:connector-curvature="0" />
	<path style="fill:none;stroke:red;stroke-width:1px;stroke-linecap:butt;stroke-linejoin:miter;stroke-opacity:1" d="M 664.008,8.96994 673.948,9.96393 z" id="boundary" inkscape:connector-curvature="0" />
	<path style="fill:none;stroke:red;stroke-width:1px;stroke-linecap:butt;stroke-linejoin:miter;stroke-opacity:1" d="M 673.948,9.96393 683.888,13.9399 z" id="boundary" inkscape:connector-curvature="0" />
	<path style="fill:none;stroke:red;stroke-width:1px;stroke-linecap:butt;stroke-linejoin:miter;stroke-opacity:1" d="M 739.551,412.529 749.491,412.529 z" id="boundary" inkscape:connector-curvature="0" />
	<path style="fill:none;stroke:red;stroke-width:1px;stroke-linecap:butt;stroke-linejoin:miter;stroke-opacity:1" d="M 709.731,414.517 699.792,417.499 z" id="boundary" inkscape:connector-curvature="0" />
	<path style="fill:none;stroke:red;stroke-width:1px;stroke-linecap:butt;stroke-linejoin:miter;stroke-opacity:1" d="M 689.852,417.499 680.906,422.469 z" id="boundary" inkscape:connector-curvature="0" />
	<path style="fill:none;stroke:red;stroke-width:1px;stroke-linecap:butt;stroke-linejoin:miter;stroke-opacity:1" d="M 785.275,97.4349 785.275,107.375 z" id="boundary" inkscape:connector-curvature="0" />
	<path style="fill:none;stroke:red;stroke-width:1px;stroke-linecap:butt;stroke-linejoin:miter;stroke-opacity:1" d="M 699.792,417.499 689.852,417.499 z" id="boundary" inkscape:connector-curvature="0" />
	<path style="fill:none;stroke:red;stroke-width:1px;stroke-linecap:butt;stroke-linejoin:miter;stroke-opacity:1" d="M 702.774,18.9098 692.834,18.9098 z" id="boundary" inkscape:connector-curvature="0" />
	<path style="fill:none;stroke:red;stroke-width:1px;stroke-linecap:butt;stroke-linejoin:miter;stroke-opacity:1" d="M 790.244,429.427 794.22,439.367 z" id="boundary" inkscape:connector-curvature="0" />
	<path style="fill:none;stroke:red;stroke-width:1px;stroke-linecap:butt;stroke-linejoin:miter;stroke-opacity:1" d="M 712.713,18.9098 721.659,23.8798 z" id="boundary" inkscape:connector-curvature="0" />
	<path style="fill:none;stroke:red;stroke-width:1px;stroke-linecap:butt;stroke-linejoin:miter;stroke-opacity:1" d="M 712.713,18.9098 702.774,18.9098 z" id="boundary" inkscape:connector-curvature="0" />
	<path style="fill:none;stroke:red;stroke-width:1px;stroke-linecap:butt;stroke-linejoin:miter;stroke-opacity:1" d="M 759.431,412.529 749.491,412.529 z" id="boundary" inkscape:connector-curvature="0" />
	<path style="fill:none;stroke:red;stroke-width:1px;stroke-linecap:butt;stroke-linejoin:miter;stroke-opacity:1" d="M 775.335,59.6633 770.365,50.7174 z" id="boundary" inkscape:connector-curvature="0" />
	<path style="fill:none;stroke:red;stroke-width:1px;stroke-linecap:butt;stroke-linejoin:miter;stroke-opacity:1" d="M 775.335,59.6633 780.305,68.6092 z" id="boundary" inkscape:connector-curvature="0" />
	<path style="fill:none;stroke:red;stroke-width:1px;stroke-linecap:butt;stroke-linejoin:miter;stroke-opacity:1" d="M 780.305,68.6092 780.305,78.5491 z" id="boundary" inkscape:connector-curvature="0" />
	<path style="fill:none;stroke:red;stroke-width:1px;stroke-linecap:butt;stroke-linejoin:miter;stroke-opacity:1" d="M 759.431,412.529 769.371,412.529 z" id="boundary" inkscape:connector-curvature="0" />
	<path style="fill:none;stroke:red;stroke-width:1px;stroke-linecap:butt;stroke-linejoin:miter;stroke-opacity:1" d="M 765.395,41.7715 770.365,50.7174 z" id="boundary" inkscape:connector-curvature="0" />
	<path style="fill:none;stroke:red;stroke-width:1px;stroke-linecap:butt;stroke-linejoin:miter;stroke-opacity:1" d="M 731.599,23.8798 740.545,28.8497 z" id="boundary" inkscape:connector-curvature="0" />
	<path style="fill:none;stroke:red;stroke-width:1px;stroke-linecap:butt;stroke-linejoin:miter;stroke-opacity:1" d="M 731.599,23.8798 721.659,23.8798 z" id="boundary" inkscape:connector-curvature="0" />
	<path style="fill:none;stroke:red;stroke-width:1px;stroke-linecap:butt;stroke-linejoin:miter;stroke-opacity:1" d="M 729.611,412.529 739.551,412.529 z" id="boundary" inkscape:connector-curvature="0" />
	<path style="fill:none;stroke:red;stroke-width:1px;stroke-linecap:butt;stroke-linejoin:miter;stroke-opacity:1" d="M 759.431,33.8196 765.395,41.7715 z" id="boundary" inkscape:connector-curvature="0" />
	<path style="fill:none;stroke:red;stroke-width:1px;stroke-linecap:butt;stroke-linejoin:miter;stroke-opacity:1" d="M 785.275,420.481 790.244,429.427 z" id="boundary" inkscape:connector-curvature="0" />
	<path style="fill:none;stroke:red;stroke-width:1px;stroke-linecap:butt;stroke-linejoin:miter;stroke-opacity:1" d="M 785.275,87.495 785.275,97.4349 z" id="boundary" inkscape:connector-curvature="0" />
	<path style="fill:none;stroke:red;stroke-width:1px;stroke-linecap:butt;stroke-linejoin:miter;stroke-opacity:1" d="M 785.275,87.495 780.305,78.5491 z" id="boundary" inkscape:connector-curvature="0" />
	<path style="fill:none;stroke:red;stroke-width:1px;stroke-linecap:butt;stroke-linejoin:miter;stroke-opacity:1" d="M 750.485,28.8497 759.431,33.8196 z" id="boundary" inkscape:connector-curvature="0" />
	<path style="fill:none;stroke:red;stroke-width:1px;stroke-linecap:butt;stroke-linejoin:miter;stroke-opacity:1" d="M 750.485,28.8497 740.545,28.8497 z" id="boundary" inkscape:connector-curvature="0" />
	<path style="fill:none;stroke:red;stroke-width:1px;stroke-linecap:butt;stroke-linejoin:miter;stroke-opacity:1" d="M 785.275,420.481 779.311,412.529 z" id="boundary" inkscape:connector-curvature="0" />
	<path style="fill:none;stroke:red;stroke-width:1px;stroke-linecap:butt;stroke-linejoin:miter;stroke-opacity:1" d="M 779.311,412.529 769.371,412.529 z" id="boundary" inkscape:connector-curvature="0" />
	<path style="fill:none;stroke:red;stroke-width:1px;stroke-linecap:butt;stroke-linejoin:miter;stroke-opacity:1" d="M 614.309,4 624.248,4 z" id="boundary" inkscape:connector-curvature="0" />
	<path style="fill:none;stroke:red;stroke-width:1px;stroke-linecap:butt;stroke-linejoin:miter;stroke-opacity:1" d="M 785.275,107.375 790.244,116.321 z" id="boundary" inkscape:connector-curvature="0" />
	<path style="fill:none;stroke:red;stroke-width:1px;stroke-linecap:butt;stroke-linejoin:miter;stroke-opacity:1" d="M 795.214,125.267 790.244,116.321 z" id="boundary" inkscape:connector-curvature="0" />
	<path style="fill:none;stroke:red;stroke-width:1px;stroke-linecap:butt;stroke-linejoin:miter;stroke-opacity:1" d="M 795.214,125.267 801.178,133.218 z" id="boundary" inkscape:connector-curvature="0" />
	<path style="fill:none;stroke:red;stroke-width:1px;stroke-linecap:butt;stroke-linejoin:miter;stroke-opacity:1" d="M 809.13,140.176 813.106,150.116 z" id="boundary" inkscape:connector-curvature="0" />
	<path style="fill:none;stroke:red;stroke-width:1px;stroke-linecap:butt;stroke-linejoin:miter;stroke-opacity:1" d="M 809.13,140.176 801.178,133.218 z" id="boundary" inkscape:connector-curvature="0" />
	<path style="fill:none;stroke:red;stroke-width:1px;stroke-linecap:butt;stroke-linejoin:miter;stroke-opacity:1" d="M 820.064,158.068 813.106,150.116 z" id="boundary" inkscape:connector-curvature="0" />
	<path style="fill:none;stroke:red;stroke-width:1px;stroke-linecap:butt;stroke-linejoin:miter;stroke-opacity:1" d="M 813.106,447.319 804.16,442.349 z" id="boundary" inkscape:connector-curvature="0" />
	<path style="fill:none;stroke:red;stroke-width:1px;stroke-linecap:butt;stroke-linejoin:miter;stroke-opacity:1" d="M 804.16,442.349 794.22,439.367 z" id="boundary" inkscape:connector-curvature="0" />
	<path style="fill:none;stroke:red;stroke-width:1px;stroke-linecap:butt;stroke-linejoin:miter;stroke-opacity:1" d="M 813.106,447.319 823.046,447.319 z" id="boundary" inkscape:connector-curvature="0" />
	<path style="fill:none;stroke:red;stroke-width:1px;stroke-linecap:butt;stroke-linejoin:miter;stroke-opacity:1" d="M 820.064,158.068 830.004,158.068 z" id="boundary" inkscape:connector-curvature="0" />
	<path style="fill:none;stroke:red;stroke-width:1px;stroke-linecap:butt;stroke-linejoin:miter;stroke-opacity:1" d="M 823.046,447.319 832.986,447.319 z" id="boundary" inkscape:connector-curvature="0" />
	<path style="fill:none;stroke:red;stroke-width:1px;stroke-linecap:butt;stroke-linejoin:miter;stroke-opacity:1" d="M 830.004,158.068 839.944,158.068 z" id="boundary" inkscape:connector-curvature="0" />
	<path style="fill:none;stroke:red;stroke-width:1px;stroke-linecap:butt;stroke-linejoin:miter;stroke-opacity:1" d="M 832.986,447.319 842.926,447.319 z" id="boundary" inkscape:connector-curvature="0" />
	<path style="fill:none;stroke:red;stroke-width:1px;stroke-linecap:butt;stroke-linejoin:miter;stroke-opacity:1" d="M 839.944,158.068 849.884,158.068 z" id="boundary" inkscape:connector-curvature="0" />
	<path style="fill:none;stroke:red;stroke-width:1px;stroke-linecap:butt;stroke-linejoin:miter;stroke-opacity:1" d="M 849.884,158.068 859.824,158.068 z" id="boundary" inkscape:connector-curvature="0" />
	<path style="fill:none;stroke:red;stroke-width:1px;stroke-linecap:butt;stroke-linejoin:miter;stroke-opacity:1" d="M 851.872,442.349 842.926,447.319 z" id="boundary" inkscape:connector-curvature="0" />
	<path style="fill:none;stroke:red;stroke-width:1px;stroke-linecap:butt;stroke-linejoin:miter;stroke-opacity:1" d="M 859.824,158.068 869.764,158.068 z" id="boundary" inkscape:connector-curvature="0" />
	<path style="fill:none;stroke:red;stroke-width:1px;stroke-linecap:butt;stroke-linejoin:miter;stroke-opacity:1" d="M 869.764,158.068 879.703,161.05 z" id="boundary" inkscape:connector-curvature="0" />
	<path style="fill:none;stroke:red;stroke-width:1px;stroke-linecap:butt;stroke-linejoin:miter;stroke-opacity:1" d="M 861.812,441.355 851.872,442.349 z" id="boundary" inkscape:connector-curvature="0" />
	<path style="fill:none;stroke:red;stroke-width:1px;stroke-linecap:butt;stroke-linejoin:miter;stroke-opacity:1" d="M 871.752,437.379 861.812,441.355 z" id="boundary" inkscape:connector-curvature="0" />
	<path style="fill:none;stroke:red;stroke-width:1px;stroke-linecap:butt;stroke-linejoin:miter;stroke-opacity:1" d="M 880.697,432.409 871.752,437.379 z" id="boundary" inkscape:connector-curvature="0" />
	<path style="fill:none;stroke:red;stroke-width:1px;stroke-linecap:butt;stroke-linejoin:miter;stroke-opacity:1" d="M 889.643,163.038 879.703,161.05 z" id="boundary" inkscape:connector-curvature="0" />
	<path style="fill:none;stroke:red;stroke-width:1px;stroke-linecap:butt;stroke-linejoin:miter;stroke-opacity:1" d="M 899.583,163.038 889.643,163.038 z" id="boundary" inkscape:connector-curvature="0" />
	<path style="fill:none;stroke:red;stroke-width:1px;stroke-linecap:butt;stroke-linejoin:miter;stroke-opacity:1" d="M 899.583,422.469 889.643,427.439 z" id="boundary" inkscape:connector-curvature="0" />
	<path style="fill:none;stroke:red;stroke-width:1px;stroke-linecap:butt;stroke-linejoin:miter;stroke-opacity:1" d="M 889.643,427.439 880.697,432.409 z" id="boundary" inkscape:connector-curvature="0" />
	<path style="fill:none;stroke:red;stroke-width:1px;stroke-linecap:butt;stroke-linejoin:miter;stroke-opacity:1" d="M 909.523,163.038 899.583,163.038 z" id="boundary" inkscape:connector-curvature="0" />
	<path style="fill:none;stroke:red;stroke-width:1px;stroke-linecap:butt;stroke-linejoin:miter;stroke-opacity:1" d="M 914.493,377.739 914.493,367.8 z" id="boundary" inkscape:connector-curvature="0" />
	<path style="fill:none;stroke:red;stroke-width:1px;stroke-linecap:butt;stroke-linejoin:miter;stroke-opacity:1" d="M 914.493,387.679 914.493,397.619 z" id="boundary" inkscape:connector-curvature="0" />
	<path style="fill:none;stroke:red;stroke-width:1px;stroke-linecap:butt;stroke-linejoin:miter;stroke-opacity:1" d="M 909.523,163.038 919.463,163.038 z" id="boundary" inkscape:connector-curvature="0" />
	<path style="fill:none;stroke:red;stroke-width:1px;stroke-linecap:butt;stroke-linejoin:miter;stroke-opacity:1" d="M 914.493,377.739 914.493,387.679 z" id="boundary" inkscape:connector-curvature="0" />
	<path style="fill:none;stroke:red;stroke-width:1px;stroke-linecap:butt;stroke-linejoin:miter;stroke-opacity:1" d="M 919.463,163.038 928.409,168.008 z" id="boundary" inkscape:connector-curvature="0" />
	<path style="fill:none;stroke:red;stroke-width:1px;stroke-linecap:butt;stroke-linejoin:miter;stroke-opacity:1" d="M 914.493,367.8 922.445,360.842 z" id="boundary" inkscape:connector-curvature="0" />
	<path style="fill:none;stroke:red;stroke-width:1px;stroke-linecap:butt;stroke-linejoin:miter;stroke-opacity:1" d="M 914.493,397.619 909.523,412.529 z" id="boundary" inkscape:connector-curvature="0" />
	<path style="fill:none;stroke:red;stroke-width:1px;stroke-linecap:butt;stroke-linejoin:miter;stroke-opacity:1" d="M 909.523,412.529 899.583,422.469 z" id="boundary" inkscape:connector-curvature="0" />
	<path style="fill:none;stroke:red;stroke-width:1px;stroke-linecap:butt;stroke-linejoin:miter;stroke-opacity:1" d="M 922.445,360.842 932.385,355.872 z" id="boundary" inkscape:connector-curvature="0" />
	<path style="fill:none;stroke:red;stroke-width:1px;stroke-linecap:butt;stroke-linejoin:miter;stroke-opacity:1" d="M 932.385,355.872 942.325,352.89 z" id="boundary" inkscape:connector-curvature="0" />
	<path style="fill:none;stroke:red;stroke-width:1px;stroke-linecap:butt;stroke-linejoin:miter;stroke-opacity:1" d="M 979.102,258.461 979.102,268.401 z" id="boundary" inkscape:connector-curvature="0" />
	<path style="fill:none;stroke:red;stroke-width:1px;stroke-linecap:butt;stroke-linejoin:miter;stroke-opacity:1" d="M 966.18,177.948 957.234,172.978 z" id="boundary" inkscape:connector-curvature="0" />
	<path style="fill:none;stroke:red;stroke-width:1px;stroke-linecap:butt;stroke-linejoin:miter;stroke-opacity:1" d="M 942.325,352.89 951.271,347.92 z" id="boundary" inkscape:connector-curvature="0" />
	<path style="fill:none;stroke:red;stroke-width:1px;stroke-linecap:butt;stroke-linejoin:miter;stroke-opacity:1" d="M 928.409,168.008 938.349,168.008 z" id="boundary" inkscape:connector-curvature="0" />
	<path style="fill:none;stroke:red;stroke-width:1px;stroke-linecap:butt;stroke-linejoin:miter;stroke-opacity:1" d="M 948.289,168.008 957.234,172.978 z" id="boundary" inkscape:connector-curvature="0" />
	<path style="fill:none;stroke:red;stroke-width:1px;stroke-linecap:butt;stroke-linejoin:miter;stroke-opacity:1" d="M 948.289,168.008 938.349,168.008 z" id="boundary" inkscape:connector-curvature="0" />
	<path style="fill:none;stroke:red;stroke-width:1px;stroke-linecap:butt;stroke-linejoin:miter;stroke-opacity:1" d="M 951.271,347.92 960.216,342.95 z" id="boundary" inkscape:connector-curvature="0" />
	<path style="fill:none;stroke:red;stroke-width:1px;stroke-linecap:butt;stroke-linejoin:miter;stroke-opacity:1" d="M 974.132,183.912 966.18,177.948 z" id="boundary" inkscape:connector-curvature="0" />
	<path style="fill:none;stroke:red;stroke-width:1px;stroke-linecap:butt;stroke-linejoin:miter;stroke-opacity:1" d="M 964.192,333.01 960.216,342.95 z" id="boundary" inkscape:connector-curvature="0" />
	<path style="fill:none;stroke:red;stroke-width:1px;stroke-linecap:butt;stroke-linejoin:miter;stroke-opacity:1" d="M 979.102,202.798 979.102,192.858 z" id="boundary" inkscape:connector-curvature="0" />
	<path style="fill:none;stroke:red;stroke-width:1px;stroke-linecap:butt;stroke-linejoin:miter;stroke-opacity:1" d="M 979.102,192.858 974.132,183.912 z" id="boundary" inkscape:connector-curvature="0" />
	<path style="fill:none;stroke:red;stroke-width:1px;stroke-linecap:butt;stroke-linejoin:miter;stroke-opacity:1" d="M 969.162,323.07 964.192,333.01 z" id="boundary" inkscape:connector-curvature="0" />
	<path style="fill:none;stroke:red;stroke-width:1px;stroke-linecap:butt;stroke-linejoin:miter;stroke-opacity:1" d="M 974.132,313.13 969.162,323.07 z" id="boundary" inkscape:connector-curvature="0" />
	<path style="fill:none;stroke:red;stroke-width:1px;stroke-linecap:butt;stroke-linejoin:miter;stroke-opacity:1" d="M 979.102,278.341 979.102,268.401 z" id="boundary" inkscape:connector-curvature="0" />
	<path style="fill:none;stroke:red;stroke-width:1px;stroke-linecap:butt;stroke-linejoin:miter;stroke-opacity:1" d="M 979.102,202.798 984.072,211.743 z" id="boundary" inkscape:connector-curvature="0" />
	<path style="fill:none;stroke:red;stroke-width:1px;stroke-linecap:butt;stroke-linejoin:miter;stroke-opacity:1" d="M 979.102,288.281 979.102,278.341 z" id="boundary" inkscape:connector-curvature="0" />
	<path style="fill:none;stroke:red;stroke-width:1px;stroke-linecap:butt;stroke-linejoin:miter;stroke-opacity:1" d="M 984.072,211.743 989.042,220.689 z" id="boundary" inkscape:connector-curvature="0" />
	<path style="fill:none;stroke:red;stroke-width:1px;stroke-linecap:butt;stroke-linejoin:miter;stroke-opacity:1" d="M 979.102,258.461 987.054,251.503 z" id="boundary" inkscape:connector-curvature="0" />
	<path style="fill:none;stroke:red;stroke-width:1px;stroke-linecap:butt;stroke-linejoin:miter;stroke-opacity:1" d="M 979.102,298.22 974.132,313.13 z" id="boundary" inkscape:connector-curvature="0" />
	<path style="fill:none;stroke:red;stroke-width:1px;stroke-linecap:butt;stroke-linejoin:miter;stroke-opacity:1" d="M 979.102,298.22 979.102,288.281 z" id="boundary" inkscape:connector-curvature="0" />
	<path style="fill:none;stroke:red;stroke-width:1px;stroke-linecap:butt;stroke-linejoin:miter;stroke-opacity:1" d="M 987.054,251.503 994.012,243.551 z" id="boundary" inkscape:connector-curvature="0" />
	<path style="fill:none;stroke:red;stroke-width:1px;stroke-linecap:butt;stroke-linejoin:miter;stroke-opacity:1" d="M 996,228.641 994.012,243.551 z" id="boundary" inkscape:connector-curvature="0" />
	<path style="fill:none;stroke:red;stroke-width:1px;stroke-linecap:butt;stroke-linejoin:miter;stroke-opacity:1" d="M 996,228.641 989.042,220.689 z" id="boundary" inkscape:connector-curvature="0" />
	<circle cx="4" cy="260.449" r="4" fill="#0" id="circle0"/>
	<circle cx="4" cy="270.389" r="4" fill="#0" id="circle1"/>
	<circle cx="8.96994" cy="250.509" r="4" fill="#0" id="circle2"/>
	<circle cx="8.96994" cy="279.335" r="4" fill="#0" id="circle3"/>
	<circle cx="13.9399" cy="288.281" r="4" fill="#0" id="circle4"/>
	<circle cx="16.9218" cy="242.557" r="4" fill="#0" id="circle5"/>
	<circle cx="19.9038" cy="296.232" r="4" fill="#0" id="circle6"/>
	<circle cx="21.8918" cy="232.617" r="4" fill="#0" id="circle7"/>
	<circle cx="23.8798" cy="306.172" r="4" fill="#0" id="circle8"/>
	<circle cx="26.8617" cy="222.677" r="4" fill="#0" id="circle9"/>
	<circle cx="28.8497" cy="315.118" r="4" fill="#0" id="circle10"/>
	<circle cx="28.8497" cy="325.058" r="4" fill="#0" id="circle11"/>
	<circle cx="33.8196" cy="334.004" r="4" fill="#0" id="circle12"/>
	<circle cx="33.8196" cy="343.944" r="4" fill="#0" id="circle13"/>
	<circle cx="33.8196" cy="353.884" r="4" fill="#0" id="circle14"/>
	<circle cx="33.8196" cy="363.824" r="4" fill="#0" id="circle15"/>
	<circle cx="33.8196" cy="373.764" r="4" fill="#0" id="circle16"/>
	<circle cx="33.8196" cy="383.703" r="4" fill="#0" id="circle17"/>
	<circle cx="33.8196" cy="393.643" r="4" fill="#0" id="circle18"/>
	<circle cx="33.8196" cy="403.583" r="4" fill="#0" id="circle19"/>
	<circle cx="33.8196" cy="413.523" r="4" fill="#0" id="circle20"/>
	<circle cx="34.8136" cy="214.725" r="4" fill="#0" id="circle21"/>
	<circle cx="38.7896" cy="422.469" r="4" fill="#0" id="circle22"/>
	<circle cx="38.7896" cy="432.409" r="4" fill="#0" id="circle23"/>
	<circle cx="42.7655" cy="207.768" r="4" fill="#0" id="circle24"/>
	<circle cx="43.7595" cy="441.355" r="4" fill="#0" id="circle25"/>
	<circle cx="48.7295" cy="450.301" r="4" fill="#0" id="circle26"/>
	<circle cx="51.7114" cy="202.798" r="4" fill="#0" id="circle27"/>
	<circle cx="53.6994" cy="459.246" r="4" fill="#0" id="circle28"/>
	<circle cx="61.6513" cy="197.828" r="4" fill="#0" id="circle29"/>
	<circle cx="61.6513" cy="466.204" r="4" fill="#0" id="circle30"/>
	<circle cx="70.5972" cy="471.174" r="4" fill="#0" id="circle31"/>
	<circle cx="71.5912" cy="192.858" r="4" fill="#0" id="circle32"/>
	<circle cx="80.5371" cy="472.168" r="4" fill="#0" id="circle33"/>
	<circle cx="81.5311" cy="187.888" r="4" fill="#0" id="circle34"/>
	<circle cx="90.477" cy="472.168" r="4" fill="#0" id="circle35"/>
	<circle cx="91.4709" cy="182.918" r="4" fill="#0" id="circle36"/>
	<circle cx="100.417" cy="472.168" r="4" fill="#0" id="circle37"/>
	<circle cx="101.411" cy="182.918" r="4" fill="#0" id="circle38"/>
	<circle cx="109.363" cy="467.198" r="4" fill="#0" id="circle39"/>
	<circle cx="111.351" cy="182.918" r="4" fill="#0" id="circle40"/>
	<circle cx="119.303" cy="467.198" r="4" fill="#0" id="circle41"/>
	<circle cx="121.291" cy="177.948" r="4" fill="#0" id="circle42"/>
	<circle cx="129.242" cy="462.228" r="4" fill="#0" id="circle43"/>
	<circle cx="131.23" cy="177.948" r="4" fill="#0" id="circle44"/>
	<circle cx="139.182" cy="457.259" r="4" fill="#0" id="circle45"/>
	<circle cx="141.17" cy="177.948" r="4" fill="#0" id="circle46"/>
	<circle cx="147.134" cy="450.301" r="4" fill="#0" id="circle47"/>
	<circle cx="151.11" cy="177.948" r="4" fill="#0" id="circle48"/>
	<circle cx="157.074" cy="447.319" r="4" fill="#0" id="circle49"/>
	<circle cx="161.05" cy="177.948" r="4" fill="#0" id="circle50"/>
	<circle cx="167.014" cy="447.319" r="4" fill="#0" id="circle51"/>
	<circle cx="170.99" cy="177.948" r="4" fill="#0" id="circle52"/>
	<circle cx="176.954" cy="447.319" r="4" fill="#0" id="circle53"/>
	<circle cx="180.93" cy="177.948" r="4" fill="#0" id="circle54"/>
	<circle cx="186.894" cy="447.319" r="4" fill="#0" id="circle55"/>
	<circle cx="190.87" cy="177.948" r="4" fill="#0" id="circle56"/>
	<circle cx="196.834" cy="447.319" r="4" fill="#0" id="circle57"/>
	<circle cx="200.81" cy="177.948" r="4" fill="#0" id="circle58"/>
	<circle cx="205.78" cy="452.289" r="4" fill="#0" id="circle59"/>
	<circle cx="210.749" cy="177.948" r="4" fill="#0" id="circle60"/>
	<circle cx="215.719" cy="452.289" r="4" fill="#0" id="circle61"/>
	<circle cx="220.689" cy="177.948" r="4" fill="#0" id="circle62"/>
	<circle cx="225.659" cy="452.289" r="4" fill="#0" id="circle63"/>
	<circle cx="230.629" cy="177.948" r="4" fill="#0" id="circle64"/>
	<circle cx="235.599" cy="452.289" r="4" fill="#0" id="circle65"/>
	<circle cx="239.575" cy="172.978" r="4" fill="#0" id="circle66"/>
	<circle cx="245.539" cy="452.289" r="4" fill="#0" id="circle67"/>
	<circle cx="249.515" cy="172.978" r="4" fill="#0" id="circle68"/>
	<circle cx="255.479" cy="452.289" r="4" fill="#0" id="circle69"/>
	<circle cx="258.461" cy="168.008" r="4" fill="#0" id="circle70"/>
	<circle cx="265.419" cy="452.289" r="4" fill="#0" id="circle71"/>
	<circle cx="268.401" cy="168.008" r="4" fill="#0" id="circle72"/>
	<circle cx="275.359" cy="452.289" r="4" fill="#0" id="circle73"/>
	<circle cx="277.347" cy="151.11" r="4" fill="#0" id="circle74"/>
	<circle cx="278.341" cy="168.008" r="4" fill="#0" id="circle75"/>
	<circle cx="282.317" cy="141.17" r="4" fill="#0" id="circle76"/>
	<circle cx="285.299" cy="452.289" r="4" fill="#0" id="circle77"/>
	<circle cx="290.269" cy="133.218" r="4" fill="#0" id="circle78"/>
	<circle cx="295.238" cy="452.289" r="4" fill="#0" id="circle79"/>
	<circle cx="300.208" cy="128.248" r="4" fill="#0" id="circle80"/>
	<circle cx="305.178" cy="452.289" r="4" fill="#0" id="circle81"/>
	<circle cx="310.148" cy="128.248" r="4" fill="#0" id="circle82"/>
	<circle cx="315.118" cy="452.289" r="4" fill="#0" id="circle83"/>
	<circle cx="319.094" cy="133.218" r="4" fill="#0" id="circle84"/>
	<circle cx="325.058" cy="452.289" r="4" fill="#0" id="circle85"/>
	<circle cx="329.034" cy="133.218" r="4" fill="#0" id="circle86"/>
	<circle cx="334.004" cy="447.319" r="4" fill="#0" id="circle87"/>
	<circle cx="338.974" cy="133.218" r="4" fill="#0" id="circle88"/>
	<circle cx="343.944" cy="447.319" r="4" fill="#0" id="circle89"/>
	<circle cx="347.92" cy="128.248" r="4" fill="#0" id="circle90"/>
	<circle cx="353.884" cy="447.319" r="4" fill="#0" id="circle91"/>
	<circle cx="356.866" cy="123.279" r="4" fill="#0" id="circle92"/>
	<circle cx="362.83" cy="442.349" r="4" fill="#0" id="circle93"/>
	<circle cx="365.812" cy="118.309" r="4" fill="#0" id="circle94"/>
	<circle cx="372.77" cy="437.379" r="4" fill="#0" id="circle95"/>
	<circle cx="375.752" cy="118.309" r="4" fill="#0" id="circle96"/>
	<circle cx="382.709" cy="437.379" r="4" fill="#0" id="circle97"/>
	<circle cx="384.697" cy="113.339" r="4" fill="#0" id="circle98"/>
	<circle cx="391.655" cy="432.409" r="4" fill="#0" id="circle99"/>
	<circle cx="393.643" cy="108.369" r="4" fill="#0" id="circle100"/>
	<circle cx="397.619" cy="422.469" r="4" fill="#0" id="circle101"/>
	<circle cx="403.583" cy="104.393" r="4" fill="#0" id="circle102"/>
	<circle cx="405.571" cy="415.511" r="4" fill="#0" id="circle103"/>
	<circle cx="412.529" cy="407.559" r="4" fill="#0" id="circle104"/>
	<circle cx="413.523" cy="103.399" r="4" fill="#0" id="circle105"/>
	<circle cx="421.475" cy="402.589" r="4" fill="#0" id="circle106"/>
	<circle cx="422.469" cy="108.369" r="4" fill="#0" id="circle107"/>
	<circle cx="430.421" cy="397.619" r="4" fill="#0" id="circle108"/>
	<circle cx="431.415" cy="113.339" r="4" fill="#0" id="circle109"/>
	<circle cx="440.361" cy="397.619" r="4" fill="#0" id="circle110"/>
	<circle cx="441.355" cy="101.411" r="4" fill="#0" id="circle111"/>
	<circle cx="441.355" cy="111.351" r="4" fill="#0" id="circle112"/>
	<circle cx="446.325" cy="91.4709" r="4" fill="#0" id="circle113"/>
	<circle cx="446.325" cy="405.571" r="4" fill="#0" id="circle114"/>
	<circle cx="446.325" cy="415.511" r="4" fill="#0" id="circle115"/>
	<circle cx="446.325" cy="425.451" r="4" fill="#0" id="circle116"/>
	<circle cx="447.319" cy="435.391" r="4" fill="#0" id="circle117"/>
	<circle cx="451.295" cy="81.5311" r="4" fill="#0" id="circle118"/>
	<circle cx="451.295" cy="445.331" r="4" fill="#0" id="circle119"/>
	<circle cx="451.295" cy="455.271" r="4" fill="#0" id="circle120"/>
	<circle cx="452.289" cy="465.21" r="4" fill="#0" id="circle121"/>
	<circle cx="456.265" cy="71.5912" r="4" fill="#0" id="circle122"/>
	<circle cx="457.259" cy="474.156" r="4" fill="#0" id="circle123"/>
	<circle cx="464.216" cy="63.6393" r="4" fill="#0" id="circle124"/>
	<circle cx="464.216" cy="482.108" r="4" fill="#0" id="circle125"/>
	<circle cx="471.174" cy="51.7114" r="4" fill="#0" id="circle126"/>
	<circle cx="472.168" cy="489.066" r="4" fill="#0" id="circle127"/>
	<circle cx="479.126" cy="43.7595" r="4" fill="#0" id="circle128"/>
	<circle cx="479.126" cy="497.018" r="4" fill="#0" id="circle129"/>
	<circle cx="484.096" cy="33.8196" r="4" fill="#0" id="circle130"/>
	<circle cx="488.072" cy="501.988" r="4" fill="#0" id="circle131"/>
	<circle cx="489.066" cy="23.8798" r="4" fill="#0" id="circle132"/>
	<circle cx="498.012" cy="18.9098" r="4" fill="#0" id="circle133"/>
	<circle cx="498.012" cy="501.988" r="4" fill="#0" id="circle134"/>
	<circle cx="506.958" cy="13.9399" r="4" fill="#0" id="circle135"/>
	<circle cx="507.952" cy="501.988" r="4" fill="#0" id="circle136"/>
	<circle cx="515.904" cy="8.96994" r="4" fill="#0" id="circle137"/>
	<circle cx="517.892" cy="501.988" r="4" fill="#0" id="circle138"/>
	<circle cx="525.844" cy="8.96994" r="4" fill="#0" id="circle139"/>
	<circle cx="526.838" cy="497.018" r="4" fill="#0" id="circle140"/>
	<circle cx="535.784" cy="8.96994" r="4" fill="#0" id="circle141"/>
	<circle cx="536.778" cy="497.018" r="4" fill="#0" id="circle142"/>
	<circle cx="545.723" cy="8.96994" r="4" fill="#0" id="circle143"/>
	<circle cx="545.723" cy="492.048" r="4" fill="#0" id="circle144"/>
	<circle cx="553.675" cy="486.084" r="4" fill="#0" id="circle145"/>
	<circle cx="555.663" cy="8.96994" r="4" fill="#0" id="circle146"/>
	<circle cx="563.615" cy="481.114" r="4" fill="#0" id="circle147"/>
	<circle cx="564.609" cy="4" r="4" fill="#0" id="circle148"/>
	<circle cx="571.567" cy="472.168" r="4" fill="#0" id="circle149"/>
	<circle cx="574.549" cy="4" r="4" fill="#0" id="circle150"/>
	<circle cx="576.537" cy="447.319" r="4" fill="#0" id="circle151"/>
	<circle cx="576.537" cy="457.259" r="4" fill="#0" id="circle152"/>
	<circle cx="584.489" cy="4" r="4" fill="#0" id="circle153"/>
	<circle cx="584.489" cy="440.361" r="4" fill="#0" id="circle154"/>
	<circle cx="594.429" cy="4" r="4" fill="#0" id="circle155"/>
	<circle cx="594.429" cy="437.379" r="4" fill="#0" id="circle156"/>
	<circle cx="603.375" cy="432.409" r="4" fill="#0" id="circle157"/>
	<circle cx="604.369" cy="4" r="4" fill="#0" id="circle158"/>
	<circle cx="613.315" cy="432.409" r="4" fill="#0" id="circle159"/>
	<circle cx="614.309" cy="4" r="4" fill="#0" id="circle160"/>
	<circle cx="622.261" cy="427.439" r="4" fill="#0" id="circle161"/>
	<circle cx="624.248" cy="4" r="4" fill="#0" id="circle162"/>
	<circle cx="632.2" cy="427.439" r="4" fill="#0" id="circle163"/>
	<circle cx="634.188" cy="4" r="4" fill="#0" id="circle164"/>
	<circle cx="642.14" cy="427.439" r="4" fill="#0" id="circle165"/>
	<circle cx="644.128" cy="4" r="4" fill="#0" id="circle166"/>
	<circle cx="651.086" cy="422.469" r="4" fill="#0" id="circle167"/>
	<circle cx="654.068" cy="4.99399" r="4" fill="#0" id="circle168"/>
	<circle cx="661.026" cy="422.469" r="4" fill="#0" id="circle169"/>
	<circle cx="664.008" cy="8.96994" r="4" fill="#0" id="circle170"/>
	<circle cx="670.966" cy="422.469" r="4" fill="#0" id="circle171"/>
	<circle cx="673.948" cy="9.96393" r="4" fill="#0" id="circle172"/>
	<circle cx="680.906" cy="422.469" r="4" fill="#0" id="circle173"/>
	<circle cx="683.888" cy="13.9399" r="4" fill="#0" id="circle174"/>
	<circle cx="689.852" cy="417.499" r="4" fill="#0" id="circle175"/>
	<circle cx="692.834" cy="18.9098" r="4" fill="#0" id="circle176"/>
	<circle cx="699.792" cy="417.499" r="4" fill="#0" id="circle177"/>
	<circle cx="702.774" cy="18.9098" r="4" fill="#0" id="circle178"/>
	<circle cx="709.731" cy="414.517" r="4" fill="#0" id="circle179"/>
	<circle cx="712.713" cy="18.9098" r="4" fill="#0" id="circle180"/>
	<circle cx="719.671" cy="412.529" r="4" fill="#0" id="circle181"/>
	<circle cx="721.659" cy="23.8798" r="4" fill="#0" id="circle182"/>
	<circle cx="729.611" cy="412.529" r="4" fill="#0" id="circle183"/>
	<circle cx="731.599" cy="23.8798" r="4" fill="#0" id="circle184"/>
	<circle cx="739.551" cy="412.529" r="4" fill="#0" id="circle185"/>
	<circle cx="740.545" cy="28.8497" r="4" fill="#0" id="circle186"/>
	<circle cx="749.491" cy="412.529" r="4" fill="#0" id="circle187"/>
	<circle cx="750.485" cy="28.8497" r="4" fill="#0" id="circle188"/>
	<circle cx="759.431" cy="33.8196" r="4" fill="#0" id="circle189"/>
	<circle cx="759.431" cy="412.529" r="4" fill="#0" id="circle190"/>
	<circle cx="765.395" cy="41.7715" r="4" fill="#0" id="circle191"/>
	<circle cx="769.371" cy="412.529" r="4" fill="#0" id="circle192"/>
	<circle cx="770.365" cy="50.7174" r="4" fill="#0" id="circle193"/>
	<circle cx="775.335" cy="59.6633" r="4" fill="#0" id="circle194"/>
	<circle cx="779.311" cy="412.529" r="4" fill="#0" id="circle195"/>
	<circle cx="780.305" cy="68.6092" r="4" fill="#0" id="circle196"/>
	<circle cx="780.305" cy="78.5491" r="4" fill="#0" id="circle197"/>
	<circle cx="785.275" cy="87.495" r="4" fill="#0" id="circle198"/>
	<circle cx="785.275" cy="97.4349" r="4" fill="#0" id="circle199"/>
	<circle cx="785.275" cy="107.375" r="4" fill="#0" id="circle200"/>
	<circle cx="785.275" cy="420.481" r="4" fill="#0" id="circle201"/>
	<circle cx="790.244" cy="116.321" r="4" fill="#0" id="circle202"/>
	<circle cx="790.244" cy="429.427" r="4" fill="#0" id="circle203"/>
	<circle cx="794.22" cy="439.367" r="4" fill="#0" id="circle204"/>
	<circle cx="795.214" cy="125.267" r="4" fill="#0" id="circle205"/>
	<circle cx="801.178" cy="133.218" r="4" fill="#0" id="circle206"/>
	<circle cx="804.16" cy="442.349" r="4" fill="#0" id="circle207"/>
	<circle cx="809.13" cy="140.176" r="4" fill="#0" id="circle208"/>
	<circle cx="813.106" cy="150.116" r="4" fill="#0" id="circle209"/>
	<circle cx="813.106" cy="447.319" r="4" fill="#0" id="circle210"/>
	<circle cx="820.064" cy="158.068" r="4" fill="#0" id="circle211"/>
	<circle cx="823.046" cy="447.319" r="4" fill="#0" id="circle212"/>
	<circle cx="830.004" cy="158.068" r="4" fill="#0" id="circle213"/>
	<circle cx="832.986" cy="447.319" r="4" fill="#0" id="circle214"/>
	<circle cx="839.944" cy="158.068" r="4" fill="#0" id="circle215"/>
	<circle cx="842.926" cy="447.319" r="4" fill="#0" id="circle216"/>
	<circle cx="849.884" cy="158.068" r="4" fill="#0" id="circle217"/>
	<circle cx="851.872" cy="442.349" r="4" fill="#0" id="circle218"/>
	<circle cx="859.824" cy="158.068" r="4" fill="#0" id="circle219"/>
	<circle cx="861.812" cy="441.355" r="4" fill="#0" id="circle220"/>
	<circle cx="869.764" cy="158.068" r="4" fill="#0" id="circle221"/>
	<circle cx="871.752" cy="437.379" r="4" fill="#0" id="circle222"/>
	<circle cx="879.703" cy="161.05" r="4" fill="#0" id="circle223"/>
	<circle cx="880.697" cy="432.409" r="4" fill="#0" id="circle224"/>
	<circle cx="889.643" cy="163.038" r="4" fill="#0" id="circle225"/>
	<circle cx="889.643" cy="427.439" r="4" fill="#0" id="circle226"/>
	<circle cx="899.583" cy="163.038" r="4" fill="#0" id="circle227"/>
	<circle cx="899.583" cy="422.469" r="4" fill="#0" id="circle228"/>
	<circle cx="909.523" cy="163.038" r="4" fill="#0" id="circle229"/>
	<circle cx="909.523" cy="412.529" r="4" fill="#0" id="circle230"/>
	<circle cx="914.493" cy="367.8" r="4" fill="#0" id="circle231"/>
	<circle cx="914.493" cy="377.739" r="4" fill="#0" id="circle232"/>
	<circle cx="914.493" cy="387.679" r="4" fill="#0" id="circle233"/>
	<circle cx="914.493" cy="397.619" r="4" fill="#0" id="circle234"/>
	<circle cx="919.463" cy="163.038" r="4" fill="#0" id="circle235"/>
	<circle cx="922.445" cy="360.842" r="4" fill="#0" id="circle236"/>
	<circle cx="928.409" cy="168.008" r="4" fill="#0" id="circle237"/>
	<circle cx="932.385" cy="355.872" r="4" fill="#0" id="circle238"/>
	<circle cx="938.349" cy="168.008" r="4" fill="#0" id="circle239"/>
	<circle cx="942.325" cy="352.89" r="4" fill="#0" id="circle240"/>
	<circle cx="948.289" cy="168.008" r="4" fill="#0" id="circle241"/>
	<circle cx="951.271" cy="347.92" r="4" fill="#0" id="circle242"/>
	<circle cx="957.234" cy="172.978" r="4" fill="#0" id="circle243"/>
	<circle cx="960.216" cy="342.95" r="4" fill="#0" id="circle244"/>
	<circle cx="964.192" cy="333.01" r="4" fill="#0" id="circle245"/>
	<circle cx="966.18" cy="177.948" r="4" fill="#0" id="circle246"/>
	<circle cx="969.162" cy="323.07" r="4" fill="#0" id="circle247"/>
	<circle cx="974.132" cy="183.912" r="4" fill="#0" id="circle248"/>
	<circle cx="974.132" cy="313.13" r="4" fill="#0" id="circle249"/>
	<circle cx="979.102" cy="192.858" r="4" fill="#0" id="circle250"/>
	<circle cx="979.102" cy="202.798" r="4" fill="#0" id="circle251"/>
	<circle cx="979.102" cy="258.461" r="4" fill="#0" id="circle252"/>
	<circle cx="979.102" cy="268.401" r="4" fill="#0" id="circle253"/>
	<circle cx="979.102" cy="278.341" r="4" fill="#0" id="circle254"/>
	<circle cx="979.102" cy="288.281" r="4" fill="#0" id="circle255"/>
	<circle cx="979.102" cy="298.22" r="4" fill="#0" id="circle256"/>
	<circle cx="984.072" cy="211.743" r="4" fill="#0" id="circle257"/>
	<circle cx="987.054" cy="251.503" r="4" fill="#0" id="circle258"/>
	<circle cx="989.042" cy="220.689" r="4" fill="#0" id="circle259"/>
	<circle cx="994.012" cy="243.551" r="4" fill="#0" id="circle260"/>
	<circle cx="996" cy="228.641" r="4" fill="#0" id="circle261"/>
	</g>
</svg>