<?xml version="1.0" encoding="UTF-8" standalone="no"?>
<!-- Created with CurveBenchmark -->
<svg
	xmlns:dc="http://purl.org/dc/elements/1.1/"
	xmlns:cc="http://creativecommons.org/ns#"
	xmlns:rdf="http://www.w3.org/1999/02/22-rdf-syntax-ns#"
	xmlns:svg="http://www.w3.org/2000/svg"
	xmlns="http://www.w3.org/2000/svg"
	xmlns:sodipodi="http://sodipodi.sourceforge.net/DTD/sodipodi-0.dtd"
	xmlns:inkscape="http://www.inkscape.org/namespaces/inkscape"
	width="1000"
	height="1000"
	id="svg2"
	version="1.1"
	sodipodi:docname="manifold/peel-bird330.png.txt">
<defs
	id="defs4" />
<metadata
	id="metadata7">
	<rdf:RDF>
		<cc:Work
			rdf:about="">
			<dc:format>image/svg+xml</dc:format>
			<dc:type
				rdf:resource="http://purl.org/dc/dcmitype/StillImage" />
			<dc:title></dc:title>
		</cc:Work>
	</rdf:RDF>
</metadata>
<g
	inkscape:label="Layer 1"
	inkscape:groupmode="layer"
	id="layer1">
	<path style="fill:none;stroke:red;stroke-width:1px;stroke-linecap:butt;stroke-linejoin:miter;stroke-opacity:1" d="M 19.5608,354.118 35.1216,315.216 z" id="boundary" inkscape:connector-curvature="0" />
	<path style="fill:none;stroke:red;stroke-width:1px;stroke-linecap:butt;stroke-linejoin:miter;stroke-opacity:1" d="M 326.886,688.675 330.776,727.576 z" id="boundary" inkscape:connector-curvature="0" />
	<path style="fill:none;stroke:red;stroke-width:1px;stroke-linecap:butt;stroke-linejoin:miter;stroke-opacity:1" d="M 35.1216,428.031 4,400.8 z" id="boundary" inkscape:connector-curvature="0" />
	<path style="fill:none;stroke:red;stroke-width:1px;stroke-linecap:butt;stroke-linejoin:miter;stroke-opacity:1" d="M 4,400.8 19.5608,354.118 z" id="boundary" inkscape:connector-curvature="0" />
	<path style="fill:none;stroke:red;stroke-width:1px;stroke-linecap:butt;stroke-linejoin:miter;stroke-opacity:1" d="M 58.4627,276.314 35.1216,315.216 z" id="boundary" inkscape:connector-curvature="0" />
	<path style="fill:none;stroke:red;stroke-width:1px;stroke-linecap:butt;stroke-linejoin:miter;stroke-opacity:1" d="M 74.0235,428.031 35.1216,428.031 z" id="boundary" inkscape:connector-curvature="0" />
	<path style="fill:none;stroke:red;stroke-width:1px;stroke-linecap:butt;stroke-linejoin:miter;stroke-opacity:1" d="M 81.8039,245.192 58.4627,276.314 z" id="boundary" inkscape:connector-curvature="0" />
	<path style="fill:none;stroke:red;stroke-width:1px;stroke-linecap:butt;stroke-linejoin:miter;stroke-opacity:1" d="M 112.925,435.812 74.0235,428.031 z" id="boundary" inkscape:connector-curvature="0" />
	<path style="fill:none;stroke:red;stroke-width:1px;stroke-linecap:butt;stroke-linejoin:miter;stroke-opacity:1" d="M 105.145,214.071 81.8039,245.192 z" id="boundary" inkscape:connector-curvature="0" />
	<path style="fill:none;stroke:red;stroke-width:1px;stroke-linecap:butt;stroke-linejoin:miter;stroke-opacity:1" d="M 136.267,182.949 105.145,214.071 z" id="boundary" inkscape:connector-curvature="0" />
	<path style="fill:none;stroke:red;stroke-width:1px;stroke-linecap:butt;stroke-linejoin:miter;stroke-opacity:1" d="M 151.827,431.922 190.729,428.031 z" id="boundary" inkscape:connector-curvature="0" />
	<path style="fill:none;stroke:red;stroke-width:1px;stroke-linecap:butt;stroke-linejoin:miter;stroke-opacity:1" d="M 151.827,431.922 112.925,435.812 z" id="boundary" inkscape:connector-curvature="0" />
	<path style="fill:none;stroke:red;stroke-width:1px;stroke-linecap:butt;stroke-linejoin:miter;stroke-opacity:1" d="M 167.388,151.827 136.267,182.949 z" id="boundary" inkscape:connector-curvature="0" />
	<path style="fill:none;stroke:red;stroke-width:1px;stroke-linecap:butt;stroke-linejoin:miter;stroke-opacity:1" d="M 322.996,482.494 322.996,521.396 z" id="boundary" inkscape:connector-curvature="0" />
	<path style="fill:none;stroke:red;stroke-width:1px;stroke-linecap:butt;stroke-linejoin:miter;stroke-opacity:1" d="M 190.729,120.706 167.388,151.827 z" id="boundary" inkscape:connector-curvature="0" />
	<path style="fill:none;stroke:red;stroke-width:1px;stroke-linecap:butt;stroke-linejoin:miter;stroke-opacity:1" d="M 221.851,89.5843 190.729,120.706 z" id="boundary" inkscape:connector-curvature="0" />
	<path style="fill:none;stroke:red;stroke-width:1px;stroke-linecap:butt;stroke-linejoin:miter;stroke-opacity:1" d="M 229.631,412.471 190.729,428.031 z" id="boundary" inkscape:connector-curvature="0" />
	<path style="fill:none;stroke:red;stroke-width:1px;stroke-linecap:butt;stroke-linejoin:miter;stroke-opacity:1" d="M 252.973,66.2431 221.851,89.5843 z" id="boundary" inkscape:connector-curvature="0" />
	<path style="fill:none;stroke:red;stroke-width:1px;stroke-linecap:butt;stroke-linejoin:miter;stroke-opacity:1" d="M 264.643,393.02 229.631,412.471 z" id="boundary" inkscape:connector-curvature="0" />
	<path style="fill:none;stroke:red;stroke-width:1px;stroke-linecap:butt;stroke-linejoin:miter;stroke-opacity:1" d="M 284.094,42.902 322.996,27.3412 z" id="boundary" inkscape:connector-curvature="0" />
	<path style="fill:none;stroke:red;stroke-width:1px;stroke-linecap:butt;stroke-linejoin:miter;stroke-opacity:1" d="M 284.094,42.902 252.973,66.2431 z" id="boundary" inkscape:connector-curvature="0" />
	<path style="fill:none;stroke:red;stroke-width:1px;stroke-linecap:butt;stroke-linejoin:miter;stroke-opacity:1" d="M 322.996,404.69 322.996,443.592 z" id="boundary" inkscape:connector-curvature="0" />
	<path style="fill:none;stroke:red;stroke-width:1px;stroke-linecap:butt;stroke-linejoin:miter;stroke-opacity:1" d="M 299.655,373.569 264.643,393.02 z" id="boundary" inkscape:connector-curvature="0" />
	<path style="fill:none;stroke:red;stroke-width:1px;stroke-linecap:butt;stroke-linejoin:miter;stroke-opacity:1" d="M 322.996,404.69 299.655,373.569 z" id="boundary" inkscape:connector-curvature="0" />
	<path style="fill:none;stroke:red;stroke-width:1px;stroke-linecap:butt;stroke-linejoin:miter;stroke-opacity:1" d="M 361.898,11.7804 322.996,27.3412 z" id="boundary" inkscape:connector-curvature="0" />
	<path style="fill:none;stroke:red;stroke-width:1px;stroke-linecap:butt;stroke-linejoin:miter;stroke-opacity:1" d="M 428.031,610.871 428.031,649.773 z" id="boundary" inkscape:connector-curvature="0" />
	<path style="fill:none;stroke:red;stroke-width:1px;stroke-linecap:butt;stroke-linejoin:miter;stroke-opacity:1" d="M 322.996,443.592 322.996,482.494 z" id="boundary" inkscape:connector-curvature="0" />
	<path style="fill:none;stroke:red;stroke-width:1px;stroke-linecap:butt;stroke-linejoin:miter;stroke-opacity:1" d="M 439.702,4 400.8,4 z" id="boundary" inkscape:connector-curvature="0" />
	<path style="fill:none;stroke:red;stroke-width:1px;stroke-linecap:butt;stroke-linejoin:miter;stroke-opacity:1" d="M 322.996,521.396 322.996,560.298 z" id="boundary" inkscape:connector-curvature="0" />
	<path style="fill:none;stroke:red;stroke-width:1px;stroke-linecap:butt;stroke-linejoin:miter;stroke-opacity:1" d="M 322.996,649.773 326.886,688.675 z" id="boundary" inkscape:connector-curvature="0" />
	<path style="fill:none;stroke:red;stroke-width:1px;stroke-linecap:butt;stroke-linejoin:miter;stroke-opacity:1" d="M 330.776,599.2 322.996,649.773 z" id="boundary" inkscape:connector-curvature="0" />
	<path style="fill:none;stroke:red;stroke-width:1px;stroke-linecap:butt;stroke-linejoin:miter;stroke-opacity:1" d="M 330.776,599.2 322.996,560.298 z" id="boundary" inkscape:connector-curvature="0" />
	<path style="fill:none;stroke:red;stroke-width:1px;stroke-linecap:butt;stroke-linejoin:miter;stroke-opacity:1" d="M 330.776,727.576 338.557,766.478 z" id="boundary" inkscape:connector-curvature="0" />
	<path style="fill:none;stroke:red;stroke-width:1px;stroke-linecap:butt;stroke-linejoin:miter;stroke-opacity:1" d="M 338.557,766.478 338.557,805.38 z" id="boundary" inkscape:connector-curvature="0" />
	<path style="fill:none;stroke:red;stroke-width:1px;stroke-linecap:butt;stroke-linejoin:miter;stroke-opacity:1" d="M 400.8,4 361.898,11.7804 z" id="boundary" inkscape:connector-curvature="0" />
	<path style="fill:none;stroke:red;stroke-width:1px;stroke-linecap:butt;stroke-linejoin:miter;stroke-opacity:1" d="M 338.557,805.38 346.337,844.282 z" id="boundary" inkscape:connector-curvature="0" />
	<path style="fill:none;stroke:red;stroke-width:1px;stroke-linecap:butt;stroke-linejoin:miter;stroke-opacity:1" d="M 428.031,727.576 428.031,688.675 z" id="boundary" inkscape:connector-curvature="0" />
	<path style="fill:none;stroke:red;stroke-width:1px;stroke-linecap:butt;stroke-linejoin:miter;stroke-opacity:1" d="M 346.337,844.282 354.118,883.184 z" id="boundary" inkscape:connector-curvature="0" />
	<path style="fill:none;stroke:red;stroke-width:1px;stroke-linecap:butt;stroke-linejoin:miter;stroke-opacity:1" d="M 354.118,883.184 354.118,922.086 z" id="boundary" inkscape:connector-curvature="0" />
	<path style="fill:none;stroke:red;stroke-width:1px;stroke-linecap:butt;stroke-linejoin:miter;stroke-opacity:1" d="M 428.031,688.675 428.031,649.773 z" id="boundary" inkscape:connector-curvature="0" />
	<path style="fill:none;stroke:red;stroke-width:1px;stroke-linecap:butt;stroke-linejoin:miter;stroke-opacity:1" d="M 354.118,922.086 361.898,960.988 z" id="boundary" inkscape:connector-curvature="0" />
	<path style="fill:none;stroke:red;stroke-width:1px;stroke-linecap:butt;stroke-linejoin:miter;stroke-opacity:1" d="M 428.031,727.576 435.812,766.478 z" id="boundary" inkscape:connector-curvature="0" />
	<path style="fill:none;stroke:red;stroke-width:1px;stroke-linecap:butt;stroke-linejoin:miter;stroke-opacity:1" d="M 443.592,844.282 451.373,883.184 z" id="boundary" inkscape:connector-curvature="0" />
	<path style="fill:none;stroke:red;stroke-width:1px;stroke-linecap:butt;stroke-linejoin:miter;stroke-opacity:1" d="M 451.373,883.184 459.153,922.086 z" id="boundary" inkscape:connector-curvature="0" />
	<path style="fill:none;stroke:red;stroke-width:1px;stroke-linecap:butt;stroke-linejoin:miter;stroke-opacity:1" d="M 381.349,996 361.898,960.988 z" id="boundary" inkscape:connector-curvature="0" />
	<path style="fill:none;stroke:red;stroke-width:1px;stroke-linecap:butt;stroke-linejoin:miter;stroke-opacity:1" d="M 420.251,996 381.349,996 z" id="boundary" inkscape:connector-curvature="0" />
	<path style="fill:none;stroke:red;stroke-width:1px;stroke-linecap:butt;stroke-linejoin:miter;stroke-opacity:1" d="M 428.031,610.871 443.592,540.847 z" id="boundary" inkscape:connector-curvature="0" />
	<path style="fill:none;stroke:red;stroke-width:1px;stroke-linecap:butt;stroke-linejoin:miter;stroke-opacity:1" d="M 435.812,805.38 435.812,766.478 z" id="boundary" inkscape:connector-curvature="0" />
	<path style="fill:none;stroke:red;stroke-width:1px;stroke-linecap:butt;stroke-linejoin:miter;stroke-opacity:1" d="M 443.592,844.282 435.812,805.38 z" id="boundary" inkscape:connector-curvature="0" />
	<path style="fill:none;stroke:red;stroke-width:1px;stroke-linecap:butt;stroke-linejoin:miter;stroke-opacity:1" d="M 459.153,478.604 443.592,540.847 z" id="boundary" inkscape:connector-curvature="0" />
	<path style="fill:none;stroke:red;stroke-width:1px;stroke-linecap:butt;stroke-linejoin:miter;stroke-opacity:1" d="M 680.894,365.788 641.992,373.569 z" id="boundary" inkscape:connector-curvature="0" />
	<path style="fill:none;stroke:red;stroke-width:1px;stroke-linecap:butt;stroke-linejoin:miter;stroke-opacity:1" d="M 474.714,408.58 459.153,478.604 z" id="boundary" inkscape:connector-curvature="0" />
	<path style="fill:none;stroke:red;stroke-width:1px;stroke-linecap:butt;stroke-linejoin:miter;stroke-opacity:1" d="M 478.604,7.8902 439.702,4 z" id="boundary" inkscape:connector-curvature="0" />
	<path style="fill:none;stroke:red;stroke-width:1px;stroke-linecap:butt;stroke-linejoin:miter;stroke-opacity:1" d="M 490.275,315.216 482.494,361.898 z" id="boundary" inkscape:connector-curvature="0" />
	<path style="fill:none;stroke:red;stroke-width:1px;stroke-linecap:butt;stroke-linejoin:miter;stroke-opacity:1" d="M 459.153,996 420.251,996 z" id="boundary" inkscape:connector-curvature="0" />
	<path style="fill:none;stroke:red;stroke-width:1px;stroke-linecap:butt;stroke-linejoin:miter;stroke-opacity:1" d="M 564.188,249.082 571.969,287.984 z" id="boundary" inkscape:connector-curvature="0" />
	<path style="fill:none;stroke:red;stroke-width:1px;stroke-linecap:butt;stroke-linejoin:miter;stroke-opacity:1" d="M 529.176,229.631 564.188,249.082 z" id="boundary" inkscape:connector-curvature="0" />
	<path style="fill:none;stroke:red;stroke-width:1px;stroke-linecap:butt;stroke-linejoin:miter;stroke-opacity:1" d="M 529.176,229.631 505.835,268.533 z" id="boundary" inkscape:connector-curvature="0" />
	<path style="fill:none;stroke:red;stroke-width:1px;stroke-linecap:butt;stroke-linejoin:miter;stroke-opacity:1" d="M 482.494,361.898 474.714,408.58 z" id="boundary" inkscape:connector-curvature="0" />
	<path style="fill:none;stroke:red;stroke-width:1px;stroke-linecap:butt;stroke-linejoin:miter;stroke-opacity:1" d="M 459.153,922.086 490.275,945.427 z" id="boundary" inkscape:connector-curvature="0" />
	<path style="fill:none;stroke:red;stroke-width:1px;stroke-linecap:butt;stroke-linejoin:miter;stroke-opacity:1" d="M 517.506,19.5608 478.604,7.8902 z" id="boundary" inkscape:connector-curvature="0" />
	<path style="fill:none;stroke:red;stroke-width:1px;stroke-linecap:butt;stroke-linejoin:miter;stroke-opacity:1" d="M 505.835,268.533 490.275,315.216 z" id="boundary" inkscape:connector-curvature="0" />
	<path style="fill:none;stroke:red;stroke-width:1px;stroke-linecap:butt;stroke-linejoin:miter;stroke-opacity:1" d="M 498.055,996 459.153,996 z" id="boundary" inkscape:connector-curvature="0" />
	<path style="fill:none;stroke:red;stroke-width:1px;stroke-linecap:butt;stroke-linejoin:miter;stroke-opacity:1" d="M 571.969,287.984 579.749,326.886 z" id="boundary" inkscape:connector-curvature="0" />
	<path style="fill:none;stroke:red;stroke-width:1px;stroke-linecap:butt;stroke-linejoin:miter;stroke-opacity:1" d="M 490.275,945.427 529.176,953.208 z" id="boundary" inkscape:connector-curvature="0" />
	<path style="fill:none;stroke:red;stroke-width:1px;stroke-linecap:butt;stroke-linejoin:miter;stroke-opacity:1" d="M 556.408,35.1216 517.506,19.5608 z" id="boundary" inkscape:connector-curvature="0" />
	<path style="fill:none;stroke:red;stroke-width:1px;stroke-linecap:butt;stroke-linejoin:miter;stroke-opacity:1" d="M 603.09,358.008 579.749,326.886 z" id="boundary" inkscape:connector-curvature="0" />
	<path style="fill:none;stroke:red;stroke-width:1px;stroke-linecap:butt;stroke-linejoin:miter;stroke-opacity:1" d="M 548.627,988.22 498.055,996 z" id="boundary" inkscape:connector-curvature="0" />
	<path style="fill:none;stroke:red;stroke-width:1px;stroke-linecap:butt;stroke-linejoin:miter;stroke-opacity:1" d="M 556.408,35.1216 587.529,58.4627 z" id="boundary" inkscape:connector-curvature="0" />
	<path style="fill:none;stroke:red;stroke-width:1px;stroke-linecap:butt;stroke-linejoin:miter;stroke-opacity:1" d="M 529.176,953.208 568.078,953.208 z" id="boundary" inkscape:connector-curvature="0" />
	<path style="fill:none;stroke:red;stroke-width:1px;stroke-linecap:butt;stroke-linejoin:miter;stroke-opacity:1" d="M 610.871,89.5843 587.529,58.4627 z" id="boundary" inkscape:connector-curvature="0" />
	<path style="fill:none;stroke:red;stroke-width:1px;stroke-linecap:butt;stroke-linejoin:miter;stroke-opacity:1" d="M 603.09,358.008 641.992,373.569 z" id="boundary" inkscape:connector-curvature="0" />
	<path style="fill:none;stroke:red;stroke-width:1px;stroke-linecap:butt;stroke-linejoin:miter;stroke-opacity:1" d="M 638.102,163.498 630.322,124.596 z" id="boundary" inkscape:connector-curvature="0" />
	<path style="fill:none;stroke:red;stroke-width:1px;stroke-linecap:butt;stroke-linejoin:miter;stroke-opacity:1" d="M 723.686,237.412 723.686,198.51 z" id="boundary" inkscape:connector-curvature="0" />
	<path style="fill:none;stroke:red;stroke-width:1px;stroke-linecap:butt;stroke-linejoin:miter;stroke-opacity:1" d="M 630.322,124.596 669.224,116.816 z" id="boundary" inkscape:connector-curvature="0" />
	<path style="fill:none;stroke:red;stroke-width:1px;stroke-linecap:butt;stroke-linejoin:miter;stroke-opacity:1" d="M 700.345,85.6941 669.224,116.816 z" id="boundary" inkscape:connector-curvature="0" />
	<path style="fill:none;stroke:red;stroke-width:1px;stroke-linecap:butt;stroke-linejoin:miter;stroke-opacity:1" d="M 712.016,334.667 731.467,276.314 z" id="boundary" inkscape:connector-curvature="0" />
	<path style="fill:none;stroke:red;stroke-width:1px;stroke-linecap:butt;stroke-linejoin:miter;stroke-opacity:1" d="M 712.016,334.667 680.894,365.788 z" id="boundary" inkscape:connector-curvature="0" />
	<path style="fill:none;stroke:red;stroke-width:1px;stroke-linecap:butt;stroke-linejoin:miter;stroke-opacity:1" d="M 731.467,276.314 723.686,237.412 z" id="boundary" inkscape:connector-curvature="0" />
	<path style="fill:none;stroke:red;stroke-width:1px;stroke-linecap:butt;stroke-linejoin:miter;stroke-opacity:1" d="M 700.345,85.6941 739.247,74.0235 z" id="boundary" inkscape:connector-curvature="0" />
	<path style="fill:none;stroke:red;stroke-width:1px;stroke-linecap:butt;stroke-linejoin:miter;stroke-opacity:1" d="M 762.588,194.62 723.686,198.51 z" id="boundary" inkscape:connector-curvature="0" />
	<path style="fill:none;stroke:red;stroke-width:1px;stroke-linecap:butt;stroke-linejoin:miter;stroke-opacity:1" d="M 801.49,210.18 836.502,229.631 z" id="boundary" inkscape:connector-curvature="0" />
	<path style="fill:none;stroke:red;stroke-width:1px;stroke-linecap:butt;stroke-linejoin:miter;stroke-opacity:1" d="M 762.588,194.62 801.49,210.18 z" id="boundary" inkscape:connector-curvature="0" />
	<path style="fill:none;stroke:red;stroke-width:1px;stroke-linecap:butt;stroke-linejoin:miter;stroke-opacity:1" d="M 778.149,74.0235 739.247,74.0235 z" id="boundary" inkscape:connector-curvature="0" />
	<path style="fill:none;stroke:red;stroke-width:1px;stroke-linecap:butt;stroke-linejoin:miter;stroke-opacity:1" d="M 836.502,229.631 867.624,252.973 z" id="boundary" inkscape:connector-curvature="0" />
	<path style="fill:none;stroke:red;stroke-width:1px;stroke-linecap:butt;stroke-linejoin:miter;stroke-opacity:1" d="M 817.051,81.8039 778.149,74.0235 z" id="boundary" inkscape:connector-curvature="0" />
	<path style="fill:none;stroke:red;stroke-width:1px;stroke-linecap:butt;stroke-linejoin:miter;stroke-opacity:1" d="M 817.051,81.8039 848.173,105.145 z" id="boundary" inkscape:connector-curvature="0" />
	<path style="fill:none;stroke:red;stroke-width:1px;stroke-linecap:butt;stroke-linejoin:miter;stroke-opacity:1" d="M 867.624,252.973 894.855,284.094 z" id="boundary" inkscape:connector-curvature="0" />
	<path style="fill:none;stroke:red;stroke-width:1px;stroke-linecap:butt;stroke-linejoin:miter;stroke-opacity:1" d="M 848.173,105.145 871.514,136.267 z" id="boundary" inkscape:connector-curvature="0" />
	<path style="fill:none;stroke:red;stroke-width:1px;stroke-linecap:butt;stroke-linejoin:miter;stroke-opacity:1" d="M 894.855,284.094 933.757,295.765 z" id="boundary" inkscape:connector-curvature="0" />
	<path style="fill:none;stroke:red;stroke-width:1px;stroke-linecap:butt;stroke-linejoin:miter;stroke-opacity:1" d="M 871.514,136.267 879.294,175.169 z" id="boundary" inkscape:connector-curvature="0" />
	<path style="fill:none;stroke:red;stroke-width:1px;stroke-linecap:butt;stroke-linejoin:miter;stroke-opacity:1" d="M 879.294,175.169 902.635,206.29 z" id="boundary" inkscape:connector-curvature="0" />
	<path style="fill:none;stroke:red;stroke-width:1px;stroke-linecap:butt;stroke-linejoin:miter;stroke-opacity:1" d="M 925.976,237.412 902.635,206.29 z" id="boundary" inkscape:connector-curvature="0" />
	<circle cx="4" cy="400.8" r="4" fill="#0" id="circle0"/>
	<circle cx="19.5608" cy="354.118" r="4" fill="#0" id="circle1"/>
	<circle cx="35.1216" cy="315.216" r="4" fill="#0" id="circle2"/>
	<circle cx="35.1216" cy="428.031" r="4" fill="#0" id="circle3"/>
	<circle cx="58.4627" cy="276.314" r="4" fill="#0" id="circle4"/>
	<circle cx="74.0235" cy="428.031" r="4" fill="#0" id="circle5"/>
	<circle cx="81.8039" cy="245.192" r="4" fill="#0" id="circle6"/>
	<circle cx="105.145" cy="214.071" r="4" fill="#0" id="circle7"/>
	<circle cx="112.925" cy="435.812" r="4" fill="#0" id="circle8"/>
	<circle cx="136.267" cy="182.949" r="4" fill="#0" id="circle9"/>
	<circle cx="151.827" cy="431.922" r="4" fill="#0" id="circle10"/>
	<circle cx="167.388" cy="151.827" r="4" fill="#0" id="circle11"/>
	<circle cx="190.729" cy="120.706" r="4" fill="#0" id="circle12"/>
	<circle cx="190.729" cy="428.031" r="4" fill="#0" id="circle13"/>
	<circle cx="221.851" cy="89.5843" r="4" fill="#0" id="circle14"/>
	<circle cx="229.631" cy="412.471" r="4" fill="#0" id="circle15"/>
	<circle cx="252.973" cy="66.2431" r="4" fill="#0" id="circle16"/>
	<circle cx="264.643" cy="393.02" r="4" fill="#0" id="circle17"/>
	<circle cx="284.094" cy="42.902" r="4" fill="#0" id="circle18"/>
	<circle cx="299.655" cy="373.569" r="4" fill="#0" id="circle19"/>
	<circle cx="322.996" cy="27.3412" r="4" fill="#0" id="circle20"/>
	<circle cx="322.996" cy="404.69" r="4" fill="#0" id="circle21"/>
	<circle cx="322.996" cy="443.592" r="4" fill="#0" id="circle22"/>
	<circle cx="322.996" cy="482.494" r="4" fill="#0" id="circle23"/>
	<circle cx="322.996" cy="521.396" r="4" fill="#0" id="circle24"/>
	<circle cx="322.996" cy="560.298" r="4" fill="#0" id="circle25"/>
	<circle cx="322.996" cy="649.773" r="4" fill="#0" id="circle26"/>
	<circle cx="326.886" cy="688.675" r="4" fill="#0" id="circle27"/>
	<circle cx="330.776" cy="599.2" r="4" fill="#0" id="circle28"/>
	<circle cx="330.776" cy="727.576" r="4" fill="#0" id="circle29"/>
	<circle cx="338.557" cy="766.478" r="4" fill="#0" id="circle30"/>
	<circle cx="338.557" cy="805.38" r="4" fill="#0" id="circle31"/>
	<circle cx="346.337" cy="844.282" r="4" fill="#0" id="circle32"/>
	<circle cx="354.118" cy="883.184" r="4" fill="#0" id="circle33"/>
	<circle cx="354.118" cy="922.086" r="4" fill="#0" id="circle34"/>
	<circle cx="361.898" cy="11.7804" r="4" fill="#0" id="circle35"/>
	<circle cx="361.898" cy="960.988" r="4" fill="#0" id="circle36"/>
	<circle cx="381.349" cy="996" r="4" fill="#0" id="circle37"/>
	<circle cx="400.8" cy="4" r="4" fill="#0" id="circle38"/>
	<circle cx="420.251" cy="996" r="4" fill="#0" id="circle39"/>
	<circle cx="428.031" cy="610.871" r="4" fill="#0" id="circle40"/>
	<circle cx="428.031" cy="649.773" r="4" fill="#0" id="circle41"/>
	<circle cx="428.031" cy="688.675" r="4" fill="#0" id="circle42"/>
	<circle cx="428.031" cy="727.576" r="4" fill="#0" id="circle43"/>
	<circle cx="435.812" cy="766.478" r="4" fill="#0" id="circle44"/>
	<circle cx="435.812" cy="805.38" r="4" fill="#0" id="circle45"/>
	<circle cx="439.702" cy="4" r="4" fill="#0" id="circle46"/>
	<circle cx="443.592" cy="540.847" r="4" fill="#0" id="circle47"/>
	<circle cx="443.592" cy="844.282" r="4" fill="#0" id="circle48"/>
	<circle cx="451.373" cy="883.184" r="4" fill="#0" id="circle49"/>
	<circle cx="459.153" cy="478.604" r="4" fill="#0" id="circle50"/>
	<circle cx="459.153" cy="922.086" r="4" fill="#0" id="circle51"/>
	<circle cx="459.153" cy="996" r="4" fill="#0" id="circle52"/>
	<circle cx="474.714" cy="408.58" r="4" fill="#0" id="circle53"/>
	<circle cx="478.604" cy="7.8902" r="4" fill="#0" id="circle54"/>
	<circle cx="482.494" cy="361.898" r="4" fill="#0" id="circle55"/>
	<circle cx="490.275" cy="315.216" r="4" fill="#0" id="circle56"/>
	<circle cx="490.275" cy="945.427" r="4" fill="#0" id="circle57"/>
	<circle cx="498.055" cy="996" r="4" fill="#0" id="circle58"/>
	<circle cx="505.835" cy="268.533" r="4" fill="#0" id="circle59"/>
	<circle cx="517.506" cy="19.5608" r="4" fill="#0" id="circle60"/>
	<circle cx="529.176" cy="229.631" r="4" fill="#0" id="circle61"/>
	<circle cx="529.176" cy="953.208" r="4" fill="#0" id="circle62"/>
	<circle cx="548.627" cy="988.22" r="4" fill="#0" id="circle63"/>
	<circle cx="556.408" cy="35.1216" r="4" fill="#0" id="circle64"/>
	<circle cx="564.188" cy="249.082" r="4" fill="#0" id="circle65"/>
	<circle cx="568.078" cy="953.208" r="4" fill="#0" id="circle66"/>
	<circle cx="571.969" cy="287.984" r="4" fill="#0" id="circle67"/>
	<circle cx="579.749" cy="326.886" r="4" fill="#0" id="circle68"/>
	<circle cx="587.529" cy="58.4627" r="4" fill="#0" id="circle69"/>
	<circle cx="603.09" cy="358.008" r="4" fill="#0" id="circle70"/>
	<circle cx="610.871" cy="89.5843" r="4" fill="#0" id="circle71"/>
	<circle cx="630.322" cy="124.596" r="4" fill="#0" id="circle72"/>
	<circle cx="638.102" cy="163.498" r="4" fill="#0" id="circle73"/>
	<circle cx="641.992" cy="373.569" r="4" fill="#0" id="circle74"/>
	<circle cx="669.224" cy="116.816" r="4" fill="#0" id="circle75"/>
	<circle cx="680.894" cy="365.788" r="4" fill="#0" id="circle76"/>
	<circle cx="700.345" cy="85.6941" r="4" fill="#0" id="circle77"/>
	<circle cx="712.016" cy="334.667" r="4" fill="#0" id="circle78"/>
	<circle cx="723.686" cy="198.51" r="4" fill="#0" id="circle79"/>
	<circle cx="723.686" cy="237.412" r="4" fill="#0" id="circle80"/>
	<circle cx="731.467" cy="276.314" r="4" fill="#0" id="circle81"/>
	<circle cx="739.247" cy="74.0235" r="4" fill="#0" id="circle82"/>
	<circle cx="762.588" cy="194.62" r="4" fill="#0" id="circle83"/>
	<circle cx="778.149" cy="74.0235" r="4" fill="#0" id="circle84"/>
	<circle cx="801.49" cy="210.18" r="4" fill="#0" id="circle85"/>
	<circle cx="817.051" cy="81.8039" r="4" fill="#0" id="circle86"/>
	<circle cx="836.502" cy="229.631" r="4" fill="#0" id="circle87"/>
	<circle cx="848.173" cy="105.145" r="4" fill="#0" id="circle88"/>
	<circle cx="867.624" cy="252.973" r="4" fill="#0" id="circle89"/>
	<circle cx="871.514" cy="136.267" r="4" fill="#0" id="circle90"/>
	<circle cx="879.294" cy="175.169" r="4" fill="#0" id="circle91"/>
	<circle cx="894.855" cy="284.094" r="4" fill="#0" id="circle92"/>
	<circle cx="902.635" cy="206.29" r="4" fill="#0" id="circle93"/>
	<circle cx="925.976" cy="237.412" r="4" fill="#0" id="circle94"/>
	<circle cx="933.757" cy="295.765" r="4" fill="#0" id="circle95"/>
	</g>
</svg>