<?xml version="1.0" encoding="UTF-8" standalone="no"?>
<!-- Created with CurveBenchmark -->
<svg
	xmlns:dc="http://purl.org/dc/elements/1.1/"
	xmlns:cc="http://creativecommons.org/ns#"
	xmlns:rdf="http://www.w3.org/1999/02/22-rdf-syntax-ns#"
	xmlns:svg="http://www.w3.org/2000/svg"
	xmlns="http://www.w3.org/2000/svg"
	xmlns:sodipodi="http://sodipodi.sourceforge.net/DTD/sodipodi-0.dtd"
	xmlns:inkscape="http://www.inkscape.org/namespaces/inkscape"
	width="1000"
	height="1000"
	id="svg2"
	version="1.1"
	sodipodi:docname="manifold/peel-kk0743.png.txt">
<defs
	id="defs4" />
<metadata
	id="metadata7">
	<rdf:RDF>
		<cc:Work
			rdf:about="">
			<dc:format>image/svg+xml</dc:format>
			<dc:type
				rdf:resource="http://purl.org/dc/dcmitype/StillImage" />
			<dc:title></dc:title>
		</cc:Work>
	</rdf:RDF>
</metadata>
<g
	inkscape:label="Layer 1"
	inkscape:groupmode="layer"
	id="layer1">
	<path style="fill:none;stroke:red;stroke-width:1px;stroke-linecap:butt;stroke-linejoin:miter;stroke-opacity:1" d="M 4,328.751 12.873,302.132 z" id="boundary" inkscape:connector-curvature="0" />
	<path style="fill:none;stroke:red;stroke-width:1px;stroke-linecap:butt;stroke-linejoin:miter;stroke-opacity:1" d="M 4,328.751 12.873,344.723 z" id="boundary" inkscape:connector-curvature="0" />
	<path style="fill:none;stroke:red;stroke-width:1px;stroke-linecap:butt;stroke-linejoin:miter;stroke-opacity:1" d="M 32.3936,374.891 21.746,360.694 z" id="boundary" inkscape:connector-curvature="0" />
	<path style="fill:none;stroke:red;stroke-width:1px;stroke-linecap:butt;stroke-linejoin:miter;stroke-opacity:1" d="M 12.873,302.132 27.0698,287.936 z" id="boundary" inkscape:connector-curvature="0" />
	<path style="fill:none;stroke:red;stroke-width:1px;stroke-linecap:butt;stroke-linejoin:miter;stroke-opacity:1" d="M 12.873,344.723 21.746,360.694 z" id="boundary" inkscape:connector-curvature="0" />
	<path style="fill:none;stroke:red;stroke-width:1px;stroke-linecap:butt;stroke-linejoin:miter;stroke-opacity:1" d="M 46.5903,387.313 53.6887,405.059 z" id="boundary" inkscape:connector-curvature="0" />
	<path style="fill:none;stroke:red;stroke-width:1px;stroke-linecap:butt;stroke-linejoin:miter;stroke-opacity:1" d="M 46.5903,387.313 32.3936,374.891 z" id="boundary" inkscape:connector-curvature="0" />
	<path style="fill:none;stroke:red;stroke-width:1px;stroke-linecap:butt;stroke-linejoin:miter;stroke-opacity:1" d="M 27.0698,287.936 41.2665,273.739 z" id="boundary" inkscape:connector-curvature="0" />
	<path style="fill:none;stroke:red;stroke-width:1px;stroke-linecap:butt;stroke-linejoin:miter;stroke-opacity:1" d="M 74.9839,435.227 83.8569,451.199 z" id="boundary" inkscape:connector-curvature="0" />
	<path style="fill:none;stroke:red;stroke-width:1px;stroke-linecap:butt;stroke-linejoin:miter;stroke-opacity:1" d="M 41.2665,273.739 50.1395,255.993 z" id="boundary" inkscape:connector-curvature="0" />
	<path style="fill:none;stroke:red;stroke-width:1px;stroke-linecap:butt;stroke-linejoin:miter;stroke-opacity:1" d="M 50.1395,255.993 64.3363,243.571 z" id="boundary" inkscape:connector-curvature="0" />
	<path style="fill:none;stroke:red;stroke-width:1px;stroke-linecap:butt;stroke-linejoin:miter;stroke-opacity:1" d="M 66.1109,419.256 74.9839,435.227 z" id="boundary" inkscape:connector-curvature="0" />
	<path style="fill:none;stroke:red;stroke-width:1px;stroke-linecap:butt;stroke-linejoin:miter;stroke-opacity:1" d="M 66.1109,419.256 53.6887,405.059 z" id="boundary" inkscape:connector-curvature="0" />
	<path style="fill:none;stroke:red;stroke-width:1px;stroke-linecap:butt;stroke-linejoin:miter;stroke-opacity:1" d="M 83.8569,451.199 92.7299,467.17 z" id="boundary" inkscape:connector-curvature="0" />
	<path style="fill:none;stroke:red;stroke-width:1px;stroke-linecap:butt;stroke-linejoin:miter;stroke-opacity:1" d="M 64.3363,243.571 74.9839,222.275 z" id="boundary" inkscape:connector-curvature="0" />
	<path style="fill:none;stroke:red;stroke-width:1px;stroke-linecap:butt;stroke-linejoin:miter;stroke-opacity:1" d="M 74.9839,222.275 83.8569,204.53 z" id="boundary" inkscape:connector-curvature="0" />
	<path style="fill:none;stroke:red;stroke-width:1px;stroke-linecap:butt;stroke-linejoin:miter;stroke-opacity:1" d="M 83.8569,204.53 98.0537,190.333 z" id="boundary" inkscape:connector-curvature="0" />
	<path style="fill:none;stroke:red;stroke-width:1px;stroke-linecap:butt;stroke-linejoin:miter;stroke-opacity:1" d="M 103.377,481.367 92.7299,467.17 z" id="boundary" inkscape:connector-curvature="0" />
	<path style="fill:none;stroke:red;stroke-width:1px;stroke-linecap:butt;stroke-linejoin:miter;stroke-opacity:1" d="M 117.574,493.789 129.996,507.986 z" id="boundary" inkscape:connector-curvature="0" />
	<path style="fill:none;stroke:red;stroke-width:1px;stroke-linecap:butt;stroke-linejoin:miter;stroke-opacity:1" d="M 129.996,507.986 138.869,523.957 z" id="boundary" inkscape:connector-curvature="0" />
	<path style="fill:none;stroke:red;stroke-width:1px;stroke-linecap:butt;stroke-linejoin:miter;stroke-opacity:1" d="M 98.0537,190.333 106.927,172.587 z" id="boundary" inkscape:connector-curvature="0" />
	<path style="fill:none;stroke:red;stroke-width:1px;stroke-linecap:butt;stroke-linejoin:miter;stroke-opacity:1" d="M 142.419,119.349 128.222,133.546 z" id="boundary" inkscape:connector-curvature="0" />
	<path style="fill:none;stroke:red;stroke-width:1px;stroke-linecap:butt;stroke-linejoin:miter;stroke-opacity:1" d="M 128.222,133.546 115.8,154.841 z" id="boundary" inkscape:connector-curvature="0" />
	<path style="fill:none;stroke:red;stroke-width:1px;stroke-linecap:butt;stroke-linejoin:miter;stroke-opacity:1" d="M 106.927,172.587 115.8,154.841 z" id="boundary" inkscape:connector-curvature="0" />
	<path style="fill:none;stroke:red;stroke-width:1px;stroke-linecap:butt;stroke-linejoin:miter;stroke-opacity:1" d="M 103.377,481.367 117.574,493.789 z" id="boundary" inkscape:connector-curvature="0" />
	<path style="fill:none;stroke:red;stroke-width:1px;stroke-linecap:butt;stroke-linejoin:miter;stroke-opacity:1" d="M 138.869,523.957 145.968,541.703 z" id="boundary" inkscape:connector-curvature="0" />
	<path style="fill:none;stroke:red;stroke-width:1px;stroke-linecap:butt;stroke-linejoin:miter;stroke-opacity:1" d="M 142.419,119.349 151.292,101.603 z" id="boundary" inkscape:connector-curvature="0" />
	<path style="fill:none;stroke:red;stroke-width:1px;stroke-linecap:butt;stroke-linejoin:miter;stroke-opacity:1" d="M 151.292,101.603 165.488,87.4061 z" id="boundary" inkscape:connector-curvature="0" />
	<path style="fill:none;stroke:red;stroke-width:1px;stroke-linecap:butt;stroke-linejoin:miter;stroke-opacity:1" d="M 163.714,547.027 169.038,564.773 z" id="boundary" inkscape:connector-curvature="0" />
	<path style="fill:none;stroke:red;stroke-width:1px;stroke-linecap:butt;stroke-linejoin:miter;stroke-opacity:1" d="M 163.714,547.027 145.968,541.703 z" id="boundary" inkscape:connector-curvature="0" />
	<path style="fill:none;stroke:red;stroke-width:1px;stroke-linecap:butt;stroke-linejoin:miter;stroke-opacity:1" d="M 169.038,564.773 177.911,580.744 z" id="boundary" inkscape:connector-curvature="0" />
	<path style="fill:none;stroke:red;stroke-width:1px;stroke-linecap:butt;stroke-linejoin:miter;stroke-opacity:1" d="M 165.488,87.4061 174.361,69.6601 z" id="boundary" inkscape:connector-curvature="0" />
	<path style="fill:none;stroke:red;stroke-width:1px;stroke-linecap:butt;stroke-linejoin:miter;stroke-opacity:1" d="M 174.361,69.6601 188.558,57.2379 z" id="boundary" inkscape:connector-curvature="0" />
	<path style="fill:none;stroke:red;stroke-width:1px;stroke-linecap:butt;stroke-linejoin:miter;stroke-opacity:1" d="M 215.177,30.619 231.148,21.746 z" id="boundary" inkscape:connector-curvature="0" />
	<path style="fill:none;stroke:red;stroke-width:1px;stroke-linecap:butt;stroke-linejoin:miter;stroke-opacity:1" d="M 215.177,30.619 200.98,43.0411 z" id="boundary" inkscape:connector-curvature="0" />
	<path style="fill:none;stroke:red;stroke-width:1px;stroke-linecap:butt;stroke-linejoin:miter;stroke-opacity:1" d="M 177.911,580.744 190.333,594.941 z" id="boundary" inkscape:connector-curvature="0" />
	<path style="fill:none;stroke:red;stroke-width:1px;stroke-linecap:butt;stroke-linejoin:miter;stroke-opacity:1" d="M 190.333,594.941 199.206,610.912 z" id="boundary" inkscape:connector-curvature="0" />
	<path style="fill:none;stroke:red;stroke-width:1px;stroke-linecap:butt;stroke-linejoin:miter;stroke-opacity:1" d="M 298.583,4 314.555,12.873 z" id="boundary" inkscape:connector-curvature="0" />
	<path style="fill:none;stroke:red;stroke-width:1px;stroke-linecap:butt;stroke-linejoin:miter;stroke-opacity:1" d="M 298.583,4 280.837,4 z" id="boundary" inkscape:connector-curvature="0" />
	<path style="fill:none;stroke:red;stroke-width:1px;stroke-linecap:butt;stroke-linejoin:miter;stroke-opacity:1" d="M 188.558,57.2379 200.98,43.0411 z" id="boundary" inkscape:connector-curvature="0" />
	<path style="fill:none;stroke:red;stroke-width:1px;stroke-linecap:butt;stroke-linejoin:miter;stroke-opacity:1" d="M 263.091,4 280.837,4 z" id="boundary" inkscape:connector-curvature="0" />
	<path style="fill:none;stroke:red;stroke-width:1px;stroke-linecap:butt;stroke-linejoin:miter;stroke-opacity:1" d="M 199.206,610.912 211.628,625.109 z" id="boundary" inkscape:connector-curvature="0" />
	<path style="fill:none;stroke:red;stroke-width:1px;stroke-linecap:butt;stroke-linejoin:miter;stroke-opacity:1" d="M 330.526,21.746 314.555,12.873 z" id="boundary" inkscape:connector-curvature="0" />
	<path style="fill:none;stroke:red;stroke-width:1px;stroke-linecap:butt;stroke-linejoin:miter;stroke-opacity:1" d="M 211.628,625.109 225.825,635.757 z" id="boundary" inkscape:connector-curvature="0" />
	<path style="fill:none;stroke:red;stroke-width:1px;stroke-linecap:butt;stroke-linejoin:miter;stroke-opacity:1" d="M 231.148,21.746 245.345,7.54919 z" id="boundary" inkscape:connector-curvature="0" />
	<path style="fill:none;stroke:red;stroke-width:1px;stroke-linecap:butt;stroke-linejoin:miter;stroke-opacity:1" d="M 245.345,7.54919 263.091,4 z" id="boundary" inkscape:connector-curvature="0" />
	<path style="fill:none;stroke:red;stroke-width:1px;stroke-linecap:butt;stroke-linejoin:miter;stroke-opacity:1" d="M 225.825,635.757 241.796,644.63 z" id="boundary" inkscape:connector-curvature="0" />
	<path style="fill:none;stroke:red;stroke-width:1px;stroke-linecap:butt;stroke-linejoin:miter;stroke-opacity:1" d="M 241.796,644.63 257.767,653.503 z" id="boundary" inkscape:connector-curvature="0" />
	<path style="fill:none;stroke:red;stroke-width:1px;stroke-linecap:butt;stroke-linejoin:miter;stroke-opacity:1" d="M 257.767,653.503 275.513,651.728 z" id="boundary" inkscape:connector-curvature="0" />
	<path style="fill:none;stroke:red;stroke-width:1px;stroke-linecap:butt;stroke-linejoin:miter;stroke-opacity:1" d="M 293.259,642.855 311.005,635.757 z" id="boundary" inkscape:connector-curvature="0" />
	<path style="fill:none;stroke:red;stroke-width:1px;stroke-linecap:butt;stroke-linejoin:miter;stroke-opacity:1" d="M 293.259,642.855 275.513,651.728 z" id="boundary" inkscape:connector-curvature="0" />
	<path style="fill:none;stroke:red;stroke-width:1px;stroke-linecap:butt;stroke-linejoin:miter;stroke-opacity:1" d="M 330.526,21.746 346.497,30.619 z" id="boundary" inkscape:connector-curvature="0" />
	<path style="fill:none;stroke:red;stroke-width:1px;stroke-linecap:butt;stroke-linejoin:miter;stroke-opacity:1" d="M 376.665,51.9141 362.469,39.4919 z" id="boundary" inkscape:connector-curvature="0" />
	<path style="fill:none;stroke:red;stroke-width:1px;stroke-linecap:butt;stroke-linejoin:miter;stroke-opacity:1" d="M 362.469,39.4919 346.497,30.619 z" id="boundary" inkscape:connector-curvature="0" />
	<path style="fill:none;stroke:red;stroke-width:1px;stroke-linecap:butt;stroke-linejoin:miter;stroke-opacity:1" d="M 880.651,369.567 898.397,369.567 z" id="boundary" inkscape:connector-curvature="0" />
	<path style="fill:none;stroke:red;stroke-width:1px;stroke-linecap:butt;stroke-linejoin:miter;stroke-opacity:1" d="M 898.397,369.567 914.369,378.44 z" id="boundary" inkscape:connector-curvature="0" />
	<path style="fill:none;stroke:red;stroke-width:1px;stroke-linecap:butt;stroke-linejoin:miter;stroke-opacity:1" d="M 311.005,635.757 326.977,626.884 z" id="boundary" inkscape:connector-curvature="0" />
	<path style="fill:none;stroke:red;stroke-width:1px;stroke-linecap:butt;stroke-linejoin:miter;stroke-opacity:1" d="M 357.145,605.589 374.891,596.716 z" id="boundary" inkscape:connector-curvature="0" />
	<path style="fill:none;stroke:red;stroke-width:1px;stroke-linecap:butt;stroke-linejoin:miter;stroke-opacity:1" d="M 357.145,605.589 342.948,618.011 z" id="boundary" inkscape:connector-curvature="0" />
	<path style="fill:none;stroke:red;stroke-width:1px;stroke-linecap:butt;stroke-linejoin:miter;stroke-opacity:1" d="M 376.665,51.9141 392.637,60.7871 z" id="boundary" inkscape:connector-curvature="0" />
	<path style="fill:none;stroke:red;stroke-width:1px;stroke-linecap:butt;stroke-linejoin:miter;stroke-opacity:1" d="M 392.637,60.7871 405.059,74.9839 z" id="boundary" inkscape:connector-curvature="0" />
	<path style="fill:none;stroke:red;stroke-width:1px;stroke-linecap:butt;stroke-linejoin:miter;stroke-opacity:1" d="M 326.977,626.884 342.948,618.011 z" id="boundary" inkscape:connector-curvature="0" />
	<path style="fill:none;stroke:red;stroke-width:1px;stroke-linecap:butt;stroke-linejoin:miter;stroke-opacity:1" d="M 374.891,596.716 392.637,587.843 z" id="boundary" inkscape:connector-curvature="0" />
	<path style="fill:none;stroke:red;stroke-width:1px;stroke-linecap:butt;stroke-linejoin:miter;stroke-opacity:1" d="M 392.637,587.843 410.383,578.97 z" id="boundary" inkscape:connector-curvature="0" />
	<path style="fill:none;stroke:red;stroke-width:1px;stroke-linecap:butt;stroke-linejoin:miter;stroke-opacity:1" d="M 410.383,578.97 428.129,570.097 z" id="boundary" inkscape:connector-curvature="0" />
	<path style="fill:none;stroke:red;stroke-width:1px;stroke-linecap:butt;stroke-linejoin:miter;stroke-opacity:1" d="M 452.973,101.603 465.395,115.8 z" id="boundary" inkscape:connector-curvature="0" />
	<path style="fill:none;stroke:red;stroke-width:1px;stroke-linecap:butt;stroke-linejoin:miter;stroke-opacity:1" d="M 452.973,101.603 437.002,92.7299 z" id="boundary" inkscape:connector-curvature="0" />
	<path style="fill:none;stroke:red;stroke-width:1px;stroke-linecap:butt;stroke-linejoin:miter;stroke-opacity:1" d="M 880.651,369.567 862.905,369.567 z" id="boundary" inkscape:connector-curvature="0" />
	<path style="fill:none;stroke:red;stroke-width:1px;stroke-linecap:butt;stroke-linejoin:miter;stroke-opacity:1" d="M 405.059,74.9839 422.805,80.3077 z" id="boundary" inkscape:connector-curvature="0" />
	<path style="fill:none;stroke:red;stroke-width:1px;stroke-linecap:butt;stroke-linejoin:miter;stroke-opacity:1" d="M 422.805,80.3077 437.002,92.7299 z" id="boundary" inkscape:connector-curvature="0" />
	<path style="fill:none;stroke:red;stroke-width:1px;stroke-linecap:butt;stroke-linejoin:miter;stroke-opacity:1" d="M 440.551,555.9 456.522,547.027 z" id="boundary" inkscape:connector-curvature="0" />
	<path style="fill:none;stroke:red;stroke-width:1px;stroke-linecap:butt;stroke-linejoin:miter;stroke-opacity:1" d="M 440.551,555.9 428.129,570.097 z" id="boundary" inkscape:connector-curvature="0" />
	<path style="fill:none;stroke:red;stroke-width:1px;stroke-linecap:butt;stroke-linejoin:miter;stroke-opacity:1" d="M 456.522,547.027 472.494,538.154 z" id="boundary" inkscape:connector-curvature="0" />
	<path style="fill:none;stroke:red;stroke-width:1px;stroke-linecap:butt;stroke-linejoin:miter;stroke-opacity:1" d="M 465.395,115.8 479.592,128.222 z" id="boundary" inkscape:connector-curvature="0" />
	<path style="fill:none;stroke:red;stroke-width:1px;stroke-linecap:butt;stroke-linejoin:miter;stroke-opacity:1" d="M 932.114,378.44 914.369,378.44 z" id="boundary" inkscape:connector-curvature="0" />
	<path style="fill:none;stroke:red;stroke-width:1px;stroke-linecap:butt;stroke-linejoin:miter;stroke-opacity:1" d="M 493.789,138.869 479.592,128.222 z" id="boundary" inkscape:connector-curvature="0" />
	<path style="fill:none;stroke:red;stroke-width:1px;stroke-linecap:butt;stroke-linejoin:miter;stroke-opacity:1" d="M 502.662,511.535 520.408,502.662 z" id="boundary" inkscape:connector-curvature="0" />
	<path style="fill:none;stroke:red;stroke-width:1px;stroke-linecap:butt;stroke-linejoin:miter;stroke-opacity:1" d="M 502.662,511.535 488.465,527.506 z" id="boundary" inkscape:connector-curvature="0" />
	<path style="fill:none;stroke:red;stroke-width:1px;stroke-linecap:butt;stroke-linejoin:miter;stroke-opacity:1" d="M 472.494,538.154 488.465,527.506 z" id="boundary" inkscape:connector-curvature="0" />
	<path style="fill:none;stroke:red;stroke-width:1px;stroke-linecap:butt;stroke-linejoin:miter;stroke-opacity:1" d="M 720.937,378.44 738.683,378.44 z" id="boundary" inkscape:connector-curvature="0" />
	<path style="fill:none;stroke:red;stroke-width:1px;stroke-linecap:butt;stroke-linejoin:miter;stroke-opacity:1" d="M 493.789,138.869 507.986,149.517 z" id="boundary" inkscape:connector-curvature="0" />
	<path style="fill:none;stroke:red;stroke-width:1px;stroke-linecap:butt;stroke-linejoin:miter;stroke-opacity:1" d="M 507.986,149.517 520.408,163.714 z" id="boundary" inkscape:connector-curvature="0" />
	<path style="fill:none;stroke:red;stroke-width:1px;stroke-linecap:butt;stroke-linejoin:miter;stroke-opacity:1" d="M 545.252,186.784 554.125,202.755 z" id="boundary" inkscape:connector-curvature="0" />
	<path style="fill:none;stroke:red;stroke-width:1px;stroke-linecap:butt;stroke-linejoin:miter;stroke-opacity:1" d="M 609.138,413.932 591.392,431.678 z" id="boundary" inkscape:connector-curvature="0" />
	<path style="fill:none;stroke:red;stroke-width:1px;stroke-linecap:butt;stroke-linejoin:miter;stroke-opacity:1" d="M 547.027,467.17 561.224,454.748 z" id="boundary" inkscape:connector-curvature="0" />
	<path style="fill:none;stroke:red;stroke-width:1px;stroke-linecap:butt;stroke-linejoin:miter;stroke-opacity:1" d="M 547.027,467.17 534.605,490.24 z" id="boundary" inkscape:connector-curvature="0" />
	<path style="fill:none;stroke:red;stroke-width:1px;stroke-linecap:butt;stroke-linejoin:miter;stroke-opacity:1" d="M 520.408,163.714 538.154,169.038 z" id="boundary" inkscape:connector-curvature="0" />
	<path style="fill:none;stroke:red;stroke-width:1px;stroke-linecap:butt;stroke-linejoin:miter;stroke-opacity:1" d="M 538.154,169.038 545.252,186.784 z" id="boundary" inkscape:connector-curvature="0" />
	<path style="fill:none;stroke:red;stroke-width:1px;stroke-linecap:butt;stroke-linejoin:miter;stroke-opacity:1" d="M 534.605,490.24 520.408,502.662 z" id="boundary" inkscape:connector-curvature="0" />
	<path style="fill:none;stroke:red;stroke-width:1px;stroke-linecap:butt;stroke-linejoin:miter;stroke-opacity:1" d="M 561.224,454.748 573.646,440.551 z" id="boundary" inkscape:connector-curvature="0" />
	<path style="fill:none;stroke:red;stroke-width:1px;stroke-linecap:butt;stroke-linejoin:miter;stroke-opacity:1" d="M 573.646,440.551 591.392,431.678 z" id="boundary" inkscape:connector-curvature="0" />
	<path style="fill:none;stroke:red;stroke-width:1px;stroke-linecap:butt;stroke-linejoin:miter;stroke-opacity:1" d="M 554.125,202.755 564.773,216.952 z" id="boundary" inkscape:connector-curvature="0" />
	<path style="fill:none;stroke:red;stroke-width:1px;stroke-linecap:butt;stroke-linejoin:miter;stroke-opacity:1" d="M 667.699,378.44 649.953,378.44 z" id="boundary" inkscape:connector-curvature="0" />
	<path style="fill:none;stroke:red;stroke-width:1px;stroke-linecap:butt;stroke-linejoin:miter;stroke-opacity:1" d="M 564.773,216.952 580.744,225.825 z" id="boundary" inkscape:connector-curvature="0" />
	<path style="fill:none;stroke:red;stroke-width:1px;stroke-linecap:butt;stroke-linejoin:miter;stroke-opacity:1" d="M 580.744,225.825 594.941,236.472 z" id="boundary" inkscape:connector-curvature="0" />
	<path style="fill:none;stroke:red;stroke-width:1px;stroke-linecap:butt;stroke-linejoin:miter;stroke-opacity:1" d="M 685.445,378.44 667.699,378.44 z" id="boundary" inkscape:connector-curvature="0" />
	<path style="fill:none;stroke:red;stroke-width:1px;stroke-linecap:butt;stroke-linejoin:miter;stroke-opacity:1" d="M 626.884,277.288 626.884,295.034 z" id="boundary" inkscape:connector-curvature="0" />
	<path style="fill:none;stroke:red;stroke-width:1px;stroke-linecap:butt;stroke-linejoin:miter;stroke-opacity:1" d="M 626.884,277.288 618.011,261.317 z" id="boundary" inkscape:connector-curvature="0" />
	<path style="fill:none;stroke:red;stroke-width:1px;stroke-linecap:butt;stroke-linejoin:miter;stroke-opacity:1" d="M 618.011,396.186 632.208,383.764 z" id="boundary" inkscape:connector-curvature="0" />
	<path style="fill:none;stroke:red;stroke-width:1px;stroke-linecap:butt;stroke-linejoin:miter;stroke-opacity:1" d="M 632.208,383.764 649.953,378.44 z" id="boundary" inkscape:connector-curvature="0" />
	<path style="fill:none;stroke:red;stroke-width:1px;stroke-linecap:butt;stroke-linejoin:miter;stroke-opacity:1" d="M 594.941,236.472 612.687,243.571 z" id="boundary" inkscape:connector-curvature="0" />
	<path style="fill:none;stroke:red;stroke-width:1px;stroke-linecap:butt;stroke-linejoin:miter;stroke-opacity:1" d="M 612.687,243.571 618.011,261.317 z" id="boundary" inkscape:connector-curvature="0" />
	<path style="fill:none;stroke:red;stroke-width:1px;stroke-linecap:butt;stroke-linejoin:miter;stroke-opacity:1" d="M 738.683,378.44 756.429,378.44 z" id="boundary" inkscape:connector-curvature="0" />
	<path style="fill:none;stroke:red;stroke-width:1px;stroke-linecap:butt;stroke-linejoin:miter;stroke-opacity:1" d="M 609.138,413.932 618.011,396.186 z" id="boundary" inkscape:connector-curvature="0" />
	<path style="fill:none;stroke:red;stroke-width:1px;stroke-linecap:butt;stroke-linejoin:miter;stroke-opacity:1" d="M 703.191,378.44 685.445,378.44 z" id="boundary" inkscape:connector-curvature="0" />
	<path style="fill:none;stroke:red;stroke-width:1px;stroke-linecap:butt;stroke-linejoin:miter;stroke-opacity:1" d="M 626.884,295.034 635.757,311.005 z" id="boundary" inkscape:connector-curvature="0" />
	<path style="fill:none;stroke:red;stroke-width:1px;stroke-linecap:butt;stroke-linejoin:miter;stroke-opacity:1" d="M 720.937,378.44 703.191,378.44 z" id="boundary" inkscape:connector-curvature="0" />
	<path style="fill:none;stroke:red;stroke-width:1px;stroke-linecap:butt;stroke-linejoin:miter;stroke-opacity:1" d="M 635.757,311.005 651.728,319.878 z" id="boundary" inkscape:connector-curvature="0" />
	<path style="fill:none;stroke:red;stroke-width:1px;stroke-linecap:butt;stroke-linejoin:miter;stroke-opacity:1" d="M 651.728,319.878 669.474,323.428 z" id="boundary" inkscape:connector-curvature="0" />
	<path style="fill:none;stroke:red;stroke-width:1px;stroke-linecap:butt;stroke-linejoin:miter;stroke-opacity:1" d="M 756.429,378.44 774.175,378.44 z" id="boundary" inkscape:connector-curvature="0" />
	<path style="fill:none;stroke:red;stroke-width:1px;stroke-linecap:butt;stroke-linejoin:miter;stroke-opacity:1" d="M 669.474,323.428 687.22,323.428 z" id="boundary" inkscape:connector-curvature="0" />
	<path style="fill:none;stroke:red;stroke-width:1px;stroke-linecap:butt;stroke-linejoin:miter;stroke-opacity:1" d="M 774.175,378.44 791.921,378.44 z" id="boundary" inkscape:connector-curvature="0" />
	<path style="fill:none;stroke:red;stroke-width:1px;stroke-linecap:butt;stroke-linejoin:miter;stroke-opacity:1" d="M 687.22,323.428 704.966,323.428 z" id="boundary" inkscape:connector-curvature="0" />
	<path style="fill:none;stroke:red;stroke-width:1px;stroke-linecap:butt;stroke-linejoin:miter;stroke-opacity:1" d="M 704.966,323.428 722.712,323.428 z" id="boundary" inkscape:connector-curvature="0" />
	<path style="fill:none;stroke:red;stroke-width:1px;stroke-linecap:butt;stroke-linejoin:miter;stroke-opacity:1" d="M 845.159,369.567 862.905,369.567 z" id="boundary" inkscape:connector-curvature="0" />
	<path style="fill:none;stroke:red;stroke-width:1px;stroke-linecap:butt;stroke-linejoin:miter;stroke-opacity:1" d="M 722.712,323.428 740.458,323.428 z" id="boundary" inkscape:connector-curvature="0" />
	<path style="fill:none;stroke:red;stroke-width:1px;stroke-linecap:butt;stroke-linejoin:miter;stroke-opacity:1" d="M 740.458,323.428 756.429,332.301 z" id="boundary" inkscape:connector-curvature="0" />
	<path style="fill:none;stroke:red;stroke-width:1px;stroke-linecap:butt;stroke-linejoin:miter;stroke-opacity:1" d="M 827.413,369.567 845.159,369.567 z" id="boundary" inkscape:connector-curvature="0" />
	<path style="fill:none;stroke:red;stroke-width:1px;stroke-linecap:butt;stroke-linejoin:miter;stroke-opacity:1" d="M 827.413,369.567 809.667,374.891 z" id="boundary" inkscape:connector-curvature="0" />
	<path style="fill:none;stroke:red;stroke-width:1px;stroke-linecap:butt;stroke-linejoin:miter;stroke-opacity:1" d="M 756.429,332.301 774.175,332.301 z" id="boundary" inkscape:connector-curvature="0" />
	<path style="fill:none;stroke:red;stroke-width:1px;stroke-linecap:butt;stroke-linejoin:miter;stroke-opacity:1" d="M 809.667,374.891 791.921,378.44 z" id="boundary" inkscape:connector-curvature="0" />
	<path style="fill:none;stroke:red;stroke-width:1px;stroke-linecap:butt;stroke-linejoin:miter;stroke-opacity:1" d="M 774.175,332.301 791.921,332.301 z" id="boundary" inkscape:connector-curvature="0" />
	<path style="fill:none;stroke:red;stroke-width:1px;stroke-linecap:butt;stroke-linejoin:miter;stroke-opacity:1" d="M 791.921,332.301 807.893,341.174 z" id="boundary" inkscape:connector-curvature="0" />
	<path style="fill:none;stroke:red;stroke-width:1px;stroke-linecap:butt;stroke-linejoin:miter;stroke-opacity:1" d="M 807.893,341.174 825.639,332.301 z" id="boundary" inkscape:connector-curvature="0" />
	<path style="fill:none;stroke:red;stroke-width:1px;stroke-linecap:butt;stroke-linejoin:miter;stroke-opacity:1" d="M 825.639,332.301 843.385,332.301 z" id="boundary" inkscape:connector-curvature="0" />
	<path style="fill:none;stroke:red;stroke-width:1px;stroke-linecap:butt;stroke-linejoin:miter;stroke-opacity:1" d="M 843.385,332.301 859.356,323.428 z" id="boundary" inkscape:connector-curvature="0" />
	<path style="fill:none;stroke:red;stroke-width:1px;stroke-linecap:butt;stroke-linejoin:miter;stroke-opacity:1" d="M 859.356,323.428 866.454,341.174 z" id="boundary" inkscape:connector-curvature="0" />
	<path style="fill:none;stroke:red;stroke-width:1px;stroke-linecap:butt;stroke-linejoin:miter;stroke-opacity:1" d="M 932.114,378.44 949.86,376.665 z" id="boundary" inkscape:connector-curvature="0" />
	<path style="fill:none;stroke:red;stroke-width:1px;stroke-linecap:butt;stroke-linejoin:miter;stroke-opacity:1" d="M 866.454,341.174 884.2,341.174 z" id="boundary" inkscape:connector-curvature="0" />
	<path style="fill:none;stroke:red;stroke-width:1px;stroke-linecap:butt;stroke-linejoin:miter;stroke-opacity:1" d="M 884.2,341.174 900.172,350.047 z" id="boundary" inkscape:connector-curvature="0" />
	<path style="fill:none;stroke:red;stroke-width:1px;stroke-linecap:butt;stroke-linejoin:miter;stroke-opacity:1" d="M 900.172,350.047 917.918,350.047 z" id="boundary" inkscape:connector-curvature="0" />
	<path style="fill:none;stroke:red;stroke-width:1px;stroke-linecap:butt;stroke-linejoin:miter;stroke-opacity:1" d="M 949.86,376.665 967.606,369.567 z" id="boundary" inkscape:connector-curvature="0" />
	<path style="fill:none;stroke:red;stroke-width:1px;stroke-linecap:butt;stroke-linejoin:miter;stroke-opacity:1" d="M 917.918,350.047 935.664,350.047 z" id="boundary" inkscape:connector-curvature="0" />
	<path style="fill:none;stroke:red;stroke-width:1px;stroke-linecap:butt;stroke-linejoin:miter;stroke-opacity:1" d="M 935.664,350.047 953.41,350.047 z" id="boundary" inkscape:connector-curvature="0" />
	<path style="fill:none;stroke:red;stroke-width:1px;stroke-linecap:butt;stroke-linejoin:miter;stroke-opacity:1" d="M 967.606,369.567 981.803,358.919 z" id="boundary" inkscape:connector-curvature="0" />
	<path style="fill:none;stroke:red;stroke-width:1px;stroke-linecap:butt;stroke-linejoin:miter;stroke-opacity:1" d="M 981.803,358.919 996,369.567 z" id="boundary" inkscape:connector-curvature="0" />
	<circle cx="4" cy="328.751" r="4" fill="#0" id="circle0"/>
	<circle cx="12.873" cy="302.132" r="4" fill="#0" id="circle1"/>
	<circle cx="12.873" cy="344.723" r="4" fill="#0" id="circle2"/>
	<circle cx="21.746" cy="360.694" r="4" fill="#0" id="circle3"/>
	<circle cx="27.0698" cy="287.936" r="4" fill="#0" id="circle4"/>
	<circle cx="32.3936" cy="374.891" r="4" fill="#0" id="circle5"/>
	<circle cx="41.2665" cy="273.739" r="4" fill="#0" id="circle6"/>
	<circle cx="46.5903" cy="387.313" r="4" fill="#0" id="circle7"/>
	<circle cx="50.1395" cy="255.993" r="4" fill="#0" id="circle8"/>
	<circle cx="53.6887" cy="405.059" r="4" fill="#0" id="circle9"/>
	<circle cx="64.3363" cy="243.571" r="4" fill="#0" id="circle10"/>
	<circle cx="66.1109" cy="419.256" r="4" fill="#0" id="circle11"/>
	<circle cx="74.9839" cy="222.275" r="4" fill="#0" id="circle12"/>
	<circle cx="74.9839" cy="435.227" r="4" fill="#0" id="circle13"/>
	<circle cx="83.8569" cy="204.53" r="4" fill="#0" id="circle14"/>
	<circle cx="83.8569" cy="451.199" r="4" fill="#0" id="circle15"/>
	<circle cx="92.7299" cy="467.17" r="4" fill="#0" id="circle16"/>
	<circle cx="98.0537" cy="190.333" r="4" fill="#0" id="circle17"/>
	<circle cx="103.377" cy="481.367" r="4" fill="#0" id="circle18"/>
	<circle cx="106.927" cy="172.587" r="4" fill="#0" id="circle19"/>
	<circle cx="115.8" cy="154.841" r="4" fill="#0" id="circle20"/>
	<circle cx="117.574" cy="493.789" r="4" fill="#0" id="circle21"/>
	<circle cx="128.222" cy="133.546" r="4" fill="#0" id="circle22"/>
	<circle cx="129.996" cy="507.986" r="4" fill="#0" id="circle23"/>
	<circle cx="138.869" cy="523.957" r="4" fill="#0" id="circle24"/>
	<circle cx="142.419" cy="119.349" r="4" fill="#0" id="circle25"/>
	<circle cx="145.968" cy="541.703" r="4" fill="#0" id="circle26"/>
	<circle cx="151.292" cy="101.603" r="4" fill="#0" id="circle27"/>
	<circle cx="163.714" cy="547.027" r="4" fill="#0" id="circle28"/>
	<circle cx="165.488" cy="87.4061" r="4" fill="#0" id="circle29"/>
	<circle cx="169.038" cy="564.773" r="4" fill="#0" id="circle30"/>
	<circle cx="174.361" cy="69.6601" r="4" fill="#0" id="circle31"/>
	<circle cx="177.911" cy="580.744" r="4" fill="#0" id="circle32"/>
	<circle cx="188.558" cy="57.2379" r="4" fill="#0" id="circle33"/>
	<circle cx="190.333" cy="594.941" r="4" fill="#0" id="circle34"/>
	<circle cx="199.206" cy="610.912" r="4" fill="#0" id="circle35"/>
	<circle cx="200.98" cy="43.0411" r="4" fill="#0" id="circle36"/>
	<circle cx="211.628" cy="625.109" r="4" fill="#0" id="circle37"/>
	<circle cx="215.177" cy="30.619" r="4" fill="#0" id="circle38"/>
	<circle cx="225.825" cy="635.757" r="4" fill="#0" id="circle39"/>
	<circle cx="231.148" cy="21.746" r="4" fill="#0" id="circle40"/>
	<circle cx="241.796" cy="644.63" r="4" fill="#0" id="circle41"/>
	<circle cx="245.345" cy="7.54919" r="4" fill="#0" id="circle42"/>
	<circle cx="257.767" cy="653.503" r="4" fill="#0" id="circle43"/>
	<circle cx="263.091" cy="4" r="4" fill="#0" id="circle44"/>
	<circle cx="275.513" cy="651.728" r="4" fill="#0" id="circle45"/>
	<circle cx="280.837" cy="4" r="4" fill="#0" id="circle46"/>
	<circle cx="293.259" cy="642.855" r="4" fill="#0" id="circle47"/>
	<circle cx="298.583" cy="4" r="4" fill="#0" id="circle48"/>
	<circle cx="311.005" cy="635.757" r="4" fill="#0" id="circle49"/>
	<circle cx="314.555" cy="12.873" r="4" fill="#0" id="circle50"/>
	<circle cx="326.977" cy="626.884" r="4" fill="#0" id="circle51"/>
	<circle cx="330.526" cy="21.746" r="4" fill="#0" id="circle52"/>
	<circle cx="342.948" cy="618.011" r="4" fill="#0" id="circle53"/>
	<circle cx="346.497" cy="30.619" r="4" fill="#0" id="circle54"/>
	<circle cx="357.145" cy="605.589" r="4" fill="#0" id="circle55"/>
	<circle cx="362.469" cy="39.4919" r="4" fill="#0" id="circle56"/>
	<circle cx="374.891" cy="596.716" r="4" fill="#0" id="circle57"/>
	<circle cx="376.665" cy="51.9141" r="4" fill="#0" id="circle58"/>
	<circle cx="392.637" cy="60.7871" r="4" fill="#0" id="circle59"/>
	<circle cx="392.637" cy="587.843" r="4" fill="#0" id="circle60"/>
	<circle cx="405.059" cy="74.9839" r="4" fill="#0" id="circle61"/>
	<circle cx="410.383" cy="578.97" r="4" fill="#0" id="circle62"/>
	<circle cx="422.805" cy="80.3077" r="4" fill="#0" id="circle63"/>
	<circle cx="428.129" cy="570.097" r="4" fill="#0" id="circle64"/>
	<circle cx="437.002" cy="92.7299" r="4" fill="#0" id="circle65"/>
	<circle cx="440.551" cy="555.9" r="4" fill="#0" id="circle66"/>
	<circle cx="452.973" cy="101.603" r="4" fill="#0" id="circle67"/>
	<circle cx="456.522" cy="547.027" r="4" fill="#0" id="circle68"/>
	<circle cx="465.395" cy="115.8" r="4" fill="#0" id="circle69"/>
	<circle cx="472.494" cy="538.154" r="4" fill="#0" id="circle70"/>
	<circle cx="479.592" cy="128.222" r="4" fill="#0" id="circle71"/>
	<circle cx="488.465" cy="527.506" r="4" fill="#0" id="circle72"/>
	<circle cx="493.789" cy="138.869" r="4" fill="#0" id="circle73"/>
	<circle cx="502.662" cy="511.535" r="4" fill="#0" id="circle74"/>
	<circle cx="507.986" cy="149.517" r="4" fill="#0" id="circle75"/>
	<circle cx="520.408" cy="163.714" r="4" fill="#0" id="circle76"/>
	<circle cx="520.408" cy="502.662" r="4" fill="#0" id="circle77"/>
	<circle cx="534.605" cy="490.24" r="4" fill="#0" id="circle78"/>
	<circle cx="538.154" cy="169.038" r="4" fill="#0" id="circle79"/>
	<circle cx="545.252" cy="186.784" r="4" fill="#0" id="circle80"/>
	<circle cx="547.027" cy="467.17" r="4" fill="#0" id="circle81"/>
	<circle cx="554.125" cy="202.755" r="4" fill="#0" id="circle82"/>
	<circle cx="561.224" cy="454.748" r="4" fill="#0" id="circle83"/>
	<circle cx="564.773" cy="216.952" r="4" fill="#0" id="circle84"/>
	<circle cx="573.646" cy="440.551" r="4" fill="#0" id="circle85"/>
	<circle cx="580.744" cy="225.825" r="4" fill="#0" id="circle86"/>
	<circle cx="591.392" cy="431.678" r="4" fill="#0" id="circle87"/>
	<circle cx="594.941" cy="236.472" r="4" fill="#0" id="circle88"/>
	<circle cx="609.138" cy="413.932" r="4" fill="#0" id="circle89"/>
	<circle cx="612.687" cy="243.571" r="4" fill="#0" id="circle90"/>
	<circle cx="618.011" cy="261.317" r="4" fill="#0" id="circle91"/>
	<circle cx="618.011" cy="396.186" r="4" fill="#0" id="circle92"/>
	<circle cx="626.884" cy="277.288" r="4" fill="#0" id="circle93"/>
	<circle cx="626.884" cy="295.034" r="4" fill="#0" id="circle94"/>
	<circle cx="632.208" cy="383.764" r="4" fill="#0" id="circle95"/>
	<circle cx="635.757" cy="311.005" r="4" fill="#0" id="circle96"/>
	<circle cx="649.953" cy="378.44" r="4" fill="#0" id="circle97"/>
	<circle cx="651.728" cy="319.878" r="4" fill="#0" id="circle98"/>
	<circle cx="667.699" cy="378.44" r="4" fill="#0" id="circle99"/>
	<circle cx="669.474" cy="323.428" r="4" fill="#0" id="circle100"/>
	<circle cx="685.445" cy="378.44" r="4" fill="#0" id="circle101"/>
	<circle cx="687.22" cy="323.428" r="4" fill="#0" id="circle102"/>
	<circle cx="703.191" cy="378.44" r="4" fill="#0" id="circle103"/>
	<circle cx="704.966" cy="323.428" r="4" fill="#0" id="circle104"/>
	<circle cx="720.937" cy="378.44" r="4" fill="#0" id="circle105"/>
	<circle cx="722.712" cy="323.428" r="4" fill="#0" id="circle106"/>
	<circle cx="738.683" cy="378.44" r="4" fill="#0" id="circle107"/>
	<circle cx="740.458" cy="323.428" r="4" fill="#0" id="circle108"/>
	<circle cx="756.429" cy="332.301" r="4" fill="#0" id="circle109"/>
	<circle cx="756.429" cy="378.44" r="4" fill="#0" id="circle110"/>
	<circle cx="774.175" cy="332.301" r="4" fill="#0" id="circle111"/>
	<circle cx="774.175" cy="378.44" r="4" fill="#0" id="circle112"/>
	<circle cx="791.921" cy="332.301" r="4" fill="#0" id="circle113"/>
	<circle cx="791.921" cy="378.44" r="4" fill="#0" id="circle114"/>
	<circle cx="807.893" cy="341.174" r="4" fill="#0" id="circle115"/>
	<circle cx="809.667" cy="374.891" r="4" fill="#0" id="circle116"/>
	<circle cx="825.639" cy="332.301" r="4" fill="#0" id="circle117"/>
	<circle cx="827.413" cy="369.567" r="4" fill="#0" id="circle118"/>
	<circle cx="843.385" cy="332.301" r="4" fill="#0" id="circle119"/>
	<circle cx="845.159" cy="369.567" r="4" fill="#0" id="circle120"/>
	<circle cx="859.356" cy="323.428" r="4" fill="#0" id="circle121"/>
	<circle cx="862.905" cy="369.567" r="4" fill="#0" id="circle122"/>
	<circle cx="866.454" cy="341.174" r="4" fill="#0" id="circle123"/>
	<circle cx="880.651" cy="369.567" r="4" fill="#0" id="circle124"/>
	<circle cx="884.2" cy="341.174" r="4" fill="#0" id="circle125"/>
	<circle cx="898.397" cy="369.567" r="4" fill="#0" id="circle126"/>
	<circle cx="900.172" cy="350.047" r="4" fill="#0" id="circle127"/>
	<circle cx="914.369" cy="378.44" r="4" fill="#0" id="circle128"/>
	<circle cx="917.918" cy="350.047" r="4" fill="#0" id="circle129"/>
	<circle cx="932.114" cy="378.44" r="4" fill="#0" id="circle130"/>
	<circle cx="935.664" cy="350.047" r="4" fill="#0" id="circle131"/>
	<circle cx="949.86" cy="376.665" r="4" fill="#0" id="circle132"/>
	<circle cx="953.41" cy="350.047" r="4" fill="#0" id="circle133"/>
	<circle cx="967.606" cy="369.567" r="4" fill="#0" id="circle134"/>
	<circle cx="981.803" cy="358.919" r="4" fill="#0" id="circle135"/>
	<circle cx="996" cy="369.567" r="4" fill="#0" id="circle136"/>
	</g>
</svg>