<?xml version="1.0" encoding="UTF-8" standalone="no"?>
<!-- Created with CurveBenchmark -->
<svg
	xmlns:dc="http://purl.org/dc/elements/1.1/"
	xmlns:cc="http://creativecommons.org/ns#"
	xmlns:rdf="http://www.w3.org/1999/02/22-rdf-syntax-ns#"
	xmlns:svg="http://www.w3.org/2000/svg"
	xmlns="http://www.w3.org/2000/svg"
	xmlns:sodipodi="http://sodipodi.sourceforge.net/DTD/sodipodi-0.dtd"
	xmlns:inkscape="http://www.inkscape.org/namespaces/inkscape"
	width="1000"
	height="1000"
	id="svg2"
	version="1.1"
	sodipodi:docname="manifold/peel-swamprabbitocc2.png.txt">
<defs
	id="defs4" />
<metadata
	id="metadata7">
	<rdf:RDF>
		<cc:Work
			rdf:about="">
			<dc:format>image/svg+xml</dc:format>
			<dc:type
				rdf:resource="http://purl.org/dc/dcmitype/StillImage" />
			<dc:title></dc:title>
		</cc:Work>
	</rdf:RDF>
</metadata>
<g
	inkscape:label="Layer 1"
	inkscape:groupmode="layer"
	id="layer1">
	<path style="fill:none;stroke:red;stroke-width:1px;stroke-linecap:butt;stroke-linejoin:miter;stroke-opacity:1" d="M 15.1211,366.547 4,388.789 z" id="boundary" inkscape:connector-curvature="0" />
	<path style="fill:none;stroke:red;stroke-width:1px;stroke-linecap:butt;stroke-linejoin:miter;stroke-opacity:1" d="M 4,388.789 4,411.031 z" id="boundary" inkscape:connector-curvature="0" />
	<path style="fill:none;stroke:red;stroke-width:1px;stroke-linecap:butt;stroke-linejoin:miter;stroke-opacity:1" d="M 15.1211,366.547 15.1211,344.305 z" id="boundary" inkscape:connector-curvature="0" />
	<path style="fill:none;stroke:red;stroke-width:1px;stroke-linecap:butt;stroke-linejoin:miter;stroke-opacity:1" d="M 21.7937,448.843 4,433.274 z" id="boundary" inkscape:connector-curvature="0" />
	<path style="fill:none;stroke:red;stroke-width:1px;stroke-linecap:butt;stroke-linejoin:miter;stroke-opacity:1" d="M 4,433.274 4,411.031 z" id="boundary" inkscape:connector-curvature="0" />
	<path style="fill:none;stroke:red;stroke-width:1px;stroke-linecap:butt;stroke-linejoin:miter;stroke-opacity:1" d="M 26.2422,322.063 44.0359,304.269 z" id="boundary" inkscape:connector-curvature="0" />
	<path style="fill:none;stroke:red;stroke-width:1px;stroke-linecap:butt;stroke-linejoin:miter;stroke-opacity:1" d="M 15.1211,344.305 26.2422,322.063 z" id="boundary" inkscape:connector-curvature="0" />
	<path style="fill:none;stroke:red;stroke-width:1px;stroke-linecap:butt;stroke-linejoin:miter;stroke-opacity:1" d="M 39.5874,462.188 21.7937,448.843 z" id="boundary" inkscape:connector-curvature="0" />
	<path style="fill:none;stroke:red;stroke-width:1px;stroke-linecap:butt;stroke-linejoin:miter;stroke-opacity:1" d="M 55.157,282.027 44.0359,304.269 z" id="boundary" inkscape:connector-curvature="0" />
	<path style="fill:none;stroke:red;stroke-width:1px;stroke-linecap:butt;stroke-linejoin:miter;stroke-opacity:1" d="M 88.5202,248.664 110.762,248.664 z" id="boundary" inkscape:connector-curvature="0" />
	<path style="fill:none;stroke:red;stroke-width:1px;stroke-linecap:butt;stroke-linejoin:miter;stroke-opacity:1" d="M 59.6054,473.309 39.5874,462.188 z" id="boundary" inkscape:connector-curvature="0" />
	<path style="fill:none;stroke:red;stroke-width:1px;stroke-linecap:butt;stroke-linejoin:miter;stroke-opacity:1" d="M 66.278,259.785 88.5202,248.664 z" id="boundary" inkscape:connector-curvature="0" />
	<path style="fill:none;stroke:red;stroke-width:1px;stroke-linecap:butt;stroke-linejoin:miter;stroke-opacity:1" d="M 66.278,259.785 55.157,282.027 z" id="boundary" inkscape:connector-curvature="0" />
	<path style="fill:none;stroke:red;stroke-width:1px;stroke-linecap:butt;stroke-linejoin:miter;stroke-opacity:1" d="M 79.6233,484.43 99.6413,495.552 z" id="boundary" inkscape:connector-curvature="0" />
	<path style="fill:none;stroke:red;stroke-width:1px;stroke-linecap:butt;stroke-linejoin:miter;stroke-opacity:1" d="M 79.6233,484.43 59.6054,473.309 z" id="boundary" inkscape:connector-curvature="0" />
	<path style="fill:none;stroke:red;stroke-width:1px;stroke-linecap:butt;stroke-linejoin:miter;stroke-opacity:1" d="M 121.883,226.422 110.762,248.664 z" id="boundary" inkscape:connector-curvature="0" />
	<path style="fill:none;stroke:red;stroke-width:1px;stroke-linecap:butt;stroke-linejoin:miter;stroke-opacity:1" d="M 121.883,226.422 144.126,215.3 z" id="boundary" inkscape:connector-curvature="0" />
	<path style="fill:none;stroke:red;stroke-width:1px;stroke-linecap:butt;stroke-linejoin:miter;stroke-opacity:1" d="M 121.883,495.552 99.6413,495.552 z" id="boundary" inkscape:connector-curvature="0" />
	<path style="fill:none;stroke:red;stroke-width:1px;stroke-linecap:butt;stroke-linejoin:miter;stroke-opacity:1" d="M 144.126,215.3 164.143,204.179 z" id="boundary" inkscape:connector-curvature="0" />
	<path style="fill:none;stroke:red;stroke-width:1px;stroke-linecap:butt;stroke-linejoin:miter;stroke-opacity:1" d="M 133.004,515.57 121.883,495.552 z" id="boundary" inkscape:connector-curvature="0" />
	<path style="fill:none;stroke:red;stroke-width:1px;stroke-linecap:butt;stroke-linejoin:miter;stroke-opacity:1" d="M 155.247,517.794 133.004,515.57 z" id="boundary" inkscape:connector-curvature="0" />
	<path style="fill:none;stroke:red;stroke-width:1px;stroke-linecap:butt;stroke-linejoin:miter;stroke-opacity:1" d="M 173.04,533.363 155.247,517.794 z" id="boundary" inkscape:connector-curvature="0" />
	<path style="fill:none;stroke:red;stroke-width:1px;stroke-linecap:butt;stroke-linejoin:miter;stroke-opacity:1" d="M 181.937,110.762 181.937,88.5202 z" id="boundary" inkscape:connector-curvature="0" />
	<path style="fill:none;stroke:red;stroke-width:1px;stroke-linecap:butt;stroke-linejoin:miter;stroke-opacity:1" d="M 184.161,193.058 164.143,204.179 z" id="boundary" inkscape:connector-curvature="0" />
	<path style="fill:none;stroke:red;stroke-width:1px;stroke-linecap:butt;stroke-linejoin:miter;stroke-opacity:1" d="M 188.61,551.157 173.04,533.363 z" id="boundary" inkscape:connector-curvature="0" />
	<path style="fill:none;stroke:red;stroke-width:1px;stroke-linecap:butt;stroke-linejoin:miter;stroke-opacity:1" d="M 181.937,133.004 181.937,110.762 z" id="boundary" inkscape:connector-curvature="0" />
	<path style="fill:none;stroke:red;stroke-width:1px;stroke-linecap:butt;stroke-linejoin:miter;stroke-opacity:1" d="M 181.937,155.247 181.937,133.004 z" id="boundary" inkscape:connector-curvature="0" />
	<path style="fill:none;stroke:red;stroke-width:1px;stroke-linecap:butt;stroke-linejoin:miter;stroke-opacity:1" d="M 181.937,88.5202 193.058,66.278 z" id="boundary" inkscape:connector-curvature="0" />
	<path style="fill:none;stroke:red;stroke-width:1px;stroke-linecap:butt;stroke-linejoin:miter;stroke-opacity:1" d="M 193.058,66.278 193.058,44.0359 z" id="boundary" inkscape:connector-curvature="0" />
	<path style="fill:none;stroke:red;stroke-width:1px;stroke-linecap:butt;stroke-linejoin:miter;stroke-opacity:1" d="M 181.937,155.247 184.161,193.058 z" id="boundary" inkscape:connector-curvature="0" />
	<path style="fill:none;stroke:red;stroke-width:1px;stroke-linecap:butt;stroke-linejoin:miter;stroke-opacity:1" d="M 339.857,195.283 339.857,173.04 z" id="boundary" inkscape:connector-curvature="0" />
	<path style="fill:none;stroke:red;stroke-width:1px;stroke-linecap:butt;stroke-linejoin:miter;stroke-opacity:1" d="M 230.87,15.1211 250.888,4 z" id="boundary" inkscape:connector-curvature="0" />
	<path style="fill:none;stroke:red;stroke-width:1px;stroke-linecap:butt;stroke-linejoin:miter;stroke-opacity:1" d="M 250.888,4 273.13,4 z" id="boundary" inkscape:connector-curvature="0" />
	<path style="fill:none;stroke:red;stroke-width:1px;stroke-linecap:butt;stroke-linejoin:miter;stroke-opacity:1" d="M 210.852,26.2422 230.87,15.1211 z" id="boundary" inkscape:connector-curvature="0" />
	<path style="fill:none;stroke:red;stroke-width:1px;stroke-linecap:butt;stroke-linejoin:miter;stroke-opacity:1" d="M 350.978,52.9327 350.978,75.1749 z" id="boundary" inkscape:connector-curvature="0" />
	<path style="fill:none;stroke:red;stroke-width:1px;stroke-linecap:butt;stroke-linejoin:miter;stroke-opacity:1" d="M 295.372,4 273.13,4 z" id="boundary" inkscape:connector-curvature="0" />
	<path style="fill:none;stroke:red;stroke-width:1px;stroke-linecap:butt;stroke-linejoin:miter;stroke-opacity:1" d="M 206.404,566.726 188.61,551.157 z" id="boundary" inkscape:connector-curvature="0" />
	<path style="fill:none;stroke:red;stroke-width:1px;stroke-linecap:butt;stroke-linejoin:miter;stroke-opacity:1" d="M 193.058,44.0359 210.852,26.2422 z" id="boundary" inkscape:connector-curvature="0" />
	<path style="fill:none;stroke:red;stroke-width:1px;stroke-linecap:butt;stroke-linejoin:miter;stroke-opacity:1" d="M 221.973,584.52 206.404,566.726 z" id="boundary" inkscape:connector-curvature="0" />
	<path style="fill:none;stroke:red;stroke-width:1px;stroke-linecap:butt;stroke-linejoin:miter;stroke-opacity:1" d="M 362.099,204.179 339.857,195.283 z" id="boundary" inkscape:connector-curvature="0" />
	<path style="fill:none;stroke:red;stroke-width:1px;stroke-linecap:butt;stroke-linejoin:miter;stroke-opacity:1" d="M 215.3,729.094 193.058,722.422 z" id="boundary" inkscape:connector-curvature="0" />
	<path style="fill:none;stroke:red;stroke-width:1px;stroke-linecap:butt;stroke-linejoin:miter;stroke-opacity:1" d="M 221.973,584.52 244.215,593.417 z" id="boundary" inkscape:connector-curvature="0" />
	<path style="fill:none;stroke:red;stroke-width:1px;stroke-linecap:butt;stroke-linejoin:miter;stroke-opacity:1" d="M 244.215,593.417 259.785,611.211 z" id="boundary" inkscape:connector-curvature="0" />
	<path style="fill:none;stroke:red;stroke-width:1px;stroke-linecap:butt;stroke-linejoin:miter;stroke-opacity:1" d="M 235.318,740.215 215.3,729.094 z" id="boundary" inkscape:connector-curvature="0" />
	<path style="fill:none;stroke:red;stroke-width:1px;stroke-linecap:butt;stroke-linejoin:miter;stroke-opacity:1" d="M 233.094,704.628 210.852,704.628 z" id="boundary" inkscape:connector-curvature="0" />
	<path style="fill:none;stroke:red;stroke-width:1px;stroke-linecap:butt;stroke-linejoin:miter;stroke-opacity:1" d="M 233.094,704.628 253.112,693.507 z" id="boundary" inkscape:connector-curvature="0" />
	<path style="fill:none;stroke:red;stroke-width:1px;stroke-linecap:butt;stroke-linejoin:miter;stroke-opacity:1" d="M 317.614,4 339.857,10.6726 z" id="boundary" inkscape:connector-curvature="0" />
	<path style="fill:none;stroke:red;stroke-width:1px;stroke-linecap:butt;stroke-linejoin:miter;stroke-opacity:1" d="M 339.857,10.6726 350.978,30.6906 z" id="boundary" inkscape:connector-curvature="0" />
	<path style="fill:none;stroke:red;stroke-width:1px;stroke-linecap:butt;stroke-linejoin:miter;stroke-opacity:1" d="M 259.785,611.211 270.906,631.229 z" id="boundary" inkscape:connector-curvature="0" />
	<path style="fill:none;stroke:red;stroke-width:1px;stroke-linecap:butt;stroke-linejoin:miter;stroke-opacity:1" d="M 270.906,631.229 270.906,653.471 z" id="boundary" inkscape:connector-curvature="0" />
	<path style="fill:none;stroke:red;stroke-width:1px;stroke-linecap:butt;stroke-linejoin:miter;stroke-opacity:1" d="M 257.561,740.215 235.318,740.215 z" id="boundary" inkscape:connector-curvature="0" />
	<path style="fill:none;stroke:red;stroke-width:1px;stroke-linecap:butt;stroke-linejoin:miter;stroke-opacity:1" d="M 279.803,740.215 257.561,740.215 z" id="boundary" inkscape:connector-curvature="0" />
	<path style="fill:none;stroke:red;stroke-width:1px;stroke-linecap:butt;stroke-linejoin:miter;stroke-opacity:1" d="M 350.978,30.6906 350.978,52.9327 z" id="boundary" inkscape:connector-curvature="0" />
	<path style="fill:none;stroke:red;stroke-width:1px;stroke-linecap:butt;stroke-linejoin:miter;stroke-opacity:1" d="M 270.906,653.471 275.354,693.507 z" id="boundary" inkscape:connector-curvature="0" />
	<path style="fill:none;stroke:red;stroke-width:1px;stroke-linecap:butt;stroke-linejoin:miter;stroke-opacity:1" d="M 275.354,693.507 253.112,693.507 z" id="boundary" inkscape:connector-curvature="0" />
	<path style="fill:none;stroke:red;stroke-width:1px;stroke-linecap:butt;stroke-linejoin:miter;stroke-opacity:1" d="M 302.045,735.767 279.803,740.215 z" id="boundary" inkscape:connector-curvature="0" />
	<path style="fill:none;stroke:red;stroke-width:1px;stroke-linecap:butt;stroke-linejoin:miter;stroke-opacity:1" d="M 337.632,729.094 359.874,729.094 z" id="boundary" inkscape:connector-curvature="0" />
	<path style="fill:none;stroke:red;stroke-width:1px;stroke-linecap:butt;stroke-linejoin:miter;stroke-opacity:1" d="M 359.874,729.094 379.892,740.215 z" id="boundary" inkscape:connector-curvature="0" />
	<path style="fill:none;stroke:red;stroke-width:1px;stroke-linecap:butt;stroke-linejoin:miter;stroke-opacity:1" d="M 317.614,717.973 302.045,735.767 z" id="boundary" inkscape:connector-curvature="0" />
	<path style="fill:none;stroke:red;stroke-width:1px;stroke-linecap:butt;stroke-linejoin:miter;stroke-opacity:1" d="M 337.632,729.094 317.614,717.973 z" id="boundary" inkscape:connector-curvature="0" />
	<path style="fill:none;stroke:red;stroke-width:1px;stroke-linecap:butt;stroke-linejoin:miter;stroke-opacity:1" d="M 384.341,204.179 404.359,215.3 z" id="boundary" inkscape:connector-curvature="0" />
	<path style="fill:none;stroke:red;stroke-width:1px;stroke-linecap:butt;stroke-linejoin:miter;stroke-opacity:1" d="M 384.341,204.179 362.099,204.179 z" id="boundary" inkscape:connector-curvature="0" />
	<path style="fill:none;stroke:red;stroke-width:1px;stroke-linecap:butt;stroke-linejoin:miter;stroke-opacity:1" d="M 317.614,4 295.372,4 z" id="boundary" inkscape:connector-curvature="0" />
	<path style="fill:none;stroke:red;stroke-width:1px;stroke-linecap:butt;stroke-linejoin:miter;stroke-opacity:1" d="M 350.978,139.677 350.978,117.435 z" id="boundary" inkscape:connector-curvature="0" />
	<path style="fill:none;stroke:red;stroke-width:1px;stroke-linecap:butt;stroke-linejoin:miter;stroke-opacity:1" d="M 339.857,173.04 350.978,139.677 z" id="boundary" inkscape:connector-curvature="0" />
	<path style="fill:none;stroke:red;stroke-width:1px;stroke-linecap:butt;stroke-linejoin:miter;stroke-opacity:1" d="M 350.978,75.1749 364.323,92.9686 z" id="boundary" inkscape:connector-curvature="0" />
	<path style="fill:none;stroke:red;stroke-width:1px;stroke-linecap:butt;stroke-linejoin:miter;stroke-opacity:1" d="M 364.323,92.9686 350.978,117.435 z" id="boundary" inkscape:connector-curvature="0" />
	<path style="fill:none;stroke:red;stroke-width:1px;stroke-linecap:butt;stroke-linejoin:miter;stroke-opacity:1" d="M 402.135,740.215 379.892,740.215 z" id="boundary" inkscape:connector-curvature="0" />
	<path style="fill:none;stroke:red;stroke-width:1px;stroke-linecap:butt;stroke-linejoin:miter;stroke-opacity:1" d="M 562.278,235.318 580.072,248.664 z" id="boundary" inkscape:connector-curvature="0" />
	<path style="fill:none;stroke:red;stroke-width:1px;stroke-linecap:butt;stroke-linejoin:miter;stroke-opacity:1" d="M 482.206,766.906 482.206,789.148 z" id="boundary" inkscape:connector-curvature="0" />
	<path style="fill:none;stroke:red;stroke-width:1px;stroke-linecap:butt;stroke-linejoin:miter;stroke-opacity:1" d="M 422.152,729.094 402.135,740.215 z" id="boundary" inkscape:connector-curvature="0" />
	<path style="fill:none;stroke:red;stroke-width:1px;stroke-linecap:butt;stroke-linejoin:miter;stroke-opacity:1" d="M 424.377,204.179 446.619,204.179 z" id="boundary" inkscape:connector-curvature="0" />
	<path style="fill:none;stroke:red;stroke-width:1px;stroke-linecap:butt;stroke-linejoin:miter;stroke-opacity:1" d="M 424.377,204.179 404.359,215.3 z" id="boundary" inkscape:connector-curvature="0" />
	<path style="fill:none;stroke:red;stroke-width:1px;stroke-linecap:butt;stroke-linejoin:miter;stroke-opacity:1" d="M 444.395,729.094 422.152,729.094 z" id="boundary" inkscape:connector-curvature="0" />
	<path style="fill:none;stroke:red;stroke-width:1px;stroke-linecap:butt;stroke-linejoin:miter;stroke-opacity:1" d="M 528.915,204.179 546.709,217.525 z" id="boundary" inkscape:connector-curvature="0" />
	<path style="fill:none;stroke:red;stroke-width:1px;stroke-linecap:butt;stroke-linejoin:miter;stroke-opacity:1" d="M 464.413,717.973 444.395,729.094 z" id="boundary" inkscape:connector-curvature="0" />
	<path style="fill:none;stroke:red;stroke-width:1px;stroke-linecap:butt;stroke-linejoin:miter;stroke-opacity:1" d="M 466.637,193.058 446.619,204.179 z" id="boundary" inkscape:connector-curvature="0" />
	<path style="fill:none;stroke:red;stroke-width:1px;stroke-linecap:butt;stroke-linejoin:miter;stroke-opacity:1" d="M 484.43,729.094 464.413,717.973 z" id="boundary" inkscape:connector-curvature="0" />
	<path style="fill:none;stroke:red;stroke-width:1px;stroke-linecap:butt;stroke-linejoin:miter;stroke-opacity:1" d="M 488.879,181.937 508.897,193.058 z" id="boundary" inkscape:connector-curvature="0" />
	<path style="fill:none;stroke:red;stroke-width:1px;stroke-linecap:butt;stroke-linejoin:miter;stroke-opacity:1" d="M 488.879,181.937 466.637,193.058 z" id="boundary" inkscape:connector-curvature="0" />
	<path style="fill:none;stroke:red;stroke-width:1px;stroke-linecap:butt;stroke-linejoin:miter;stroke-opacity:1" d="M 508.897,193.058 528.915,204.179 z" id="boundary" inkscape:connector-curvature="0" />
	<path style="fill:none;stroke:red;stroke-width:1px;stroke-linecap:butt;stroke-linejoin:miter;stroke-opacity:1" d="M 504.448,760.233 482.206,766.906 z" id="boundary" inkscape:connector-curvature="0" />
	<path style="fill:none;stroke:red;stroke-width:1px;stroke-linecap:butt;stroke-linejoin:miter;stroke-opacity:1" d="M 504.448,795.821 524.466,806.942 z" id="boundary" inkscape:connector-curvature="0" />
	<path style="fill:none;stroke:red;stroke-width:1px;stroke-linecap:butt;stroke-linejoin:miter;stroke-opacity:1" d="M 504.448,795.821 482.206,789.148 z" id="boundary" inkscape:connector-curvature="0" />
	<path style="fill:none;stroke:red;stroke-width:1px;stroke-linecap:butt;stroke-linejoin:miter;stroke-opacity:1" d="M 506.673,729.094 484.43,729.094 z" id="boundary" inkscape:connector-curvature="0" />
	<path style="fill:none;stroke:red;stroke-width:1px;stroke-linecap:butt;stroke-linejoin:miter;stroke-opacity:1" d="M 506.673,729.094 524.466,749.112 z" id="boundary" inkscape:connector-curvature="0" />
	<path style="fill:none;stroke:red;stroke-width:1px;stroke-linecap:butt;stroke-linejoin:miter;stroke-opacity:1" d="M 524.466,749.112 504.448,760.233 z" id="boundary" inkscape:connector-curvature="0" />
	<path style="fill:none;stroke:red;stroke-width:1px;stroke-linecap:butt;stroke-linejoin:miter;stroke-opacity:1" d="M 524.466,806.942 544.484,818.063 z" id="boundary" inkscape:connector-curvature="0" />
	<path style="fill:none;stroke:red;stroke-width:1px;stroke-linecap:butt;stroke-linejoin:miter;stroke-opacity:1" d="M 562.278,235.318 546.709,217.525 z" id="boundary" inkscape:connector-curvature="0" />
	<path style="fill:none;stroke:red;stroke-width:1px;stroke-linecap:butt;stroke-linejoin:miter;stroke-opacity:1" d="M 600.09,259.785 615.659,277.578 z" id="boundary" inkscape:connector-curvature="0" />
	<path style="fill:none;stroke:red;stroke-width:1px;stroke-linecap:butt;stroke-linejoin:miter;stroke-opacity:1" d="M 600.09,259.785 580.072,248.664 z" id="boundary" inkscape:connector-curvature="0" />
	<path style="fill:none;stroke:red;stroke-width:1px;stroke-linecap:butt;stroke-linejoin:miter;stroke-opacity:1" d="M 615.659,277.578 633.453,293.148 z" id="boundary" inkscape:connector-curvature="0" />
	<path style="fill:none;stroke:red;stroke-width:1px;stroke-linecap:butt;stroke-linejoin:miter;stroke-opacity:1" d="M 566.726,818.063 544.484,818.063 z" id="boundary" inkscape:connector-curvature="0" />
	<path style="fill:none;stroke:red;stroke-width:1px;stroke-linecap:butt;stroke-linejoin:miter;stroke-opacity:1" d="M 588.969,818.063 566.726,818.063 z" id="boundary" inkscape:connector-curvature="0" />
	<path style="fill:none;stroke:red;stroke-width:1px;stroke-linecap:butt;stroke-linejoin:miter;stroke-opacity:1" d="M 653.471,304.269 671.265,319.839 z" id="boundary" inkscape:connector-curvature="0" />
	<path style="fill:none;stroke:red;stroke-width:1px;stroke-linecap:butt;stroke-linejoin:miter;stroke-opacity:1" d="M 653.471,304.269 633.453,293.148 z" id="boundary" inkscape:connector-curvature="0" />
	<path style="fill:none;stroke:red;stroke-width:1px;stroke-linecap:butt;stroke-linejoin:miter;stroke-opacity:1" d="M 611.211,818.063 588.969,818.063 z" id="boundary" inkscape:connector-curvature="0" />
	<path style="fill:none;stroke:red;stroke-width:1px;stroke-linecap:butt;stroke-linejoin:miter;stroke-opacity:1" d="M 671.265,319.839 684.61,337.632 z" id="boundary" inkscape:connector-curvature="0" />
	<path style="fill:none;stroke:red;stroke-width:1px;stroke-linecap:butt;stroke-linejoin:miter;stroke-opacity:1" d="M 633.453,818.063 611.211,818.063 z" id="boundary" inkscape:connector-curvature="0" />
	<path style="fill:none;stroke:red;stroke-width:1px;stroke-linecap:butt;stroke-linejoin:miter;stroke-opacity:1" d="M 740.215,377.668 722.422,362.099 z" id="boundary" inkscape:connector-curvature="0" />
	<path style="fill:none;stroke:red;stroke-width:1px;stroke-linecap:butt;stroke-linejoin:miter;stroke-opacity:1" d="M 722.422,362.099 702.404,350.978 z" id="boundary" inkscape:connector-curvature="0" />
	<path style="fill:none;stroke:red;stroke-width:1px;stroke-linecap:butt;stroke-linejoin:miter;stroke-opacity:1" d="M 655.695,818.063 633.453,818.063 z" id="boundary" inkscape:connector-curvature="0" />
	<path style="fill:none;stroke:red;stroke-width:1px;stroke-linecap:butt;stroke-linejoin:miter;stroke-opacity:1" d="M 677.937,818.063 655.695,818.063 z" id="boundary" inkscape:connector-curvature="0" />
	<path style="fill:none;stroke:red;stroke-width:1px;stroke-linecap:butt;stroke-linejoin:miter;stroke-opacity:1" d="M 684.61,337.632 702.404,350.978 z" id="boundary" inkscape:connector-curvature="0" />
	<path style="fill:none;stroke:red;stroke-width:1px;stroke-linecap:butt;stroke-linejoin:miter;stroke-opacity:1" d="M 755.785,395.462 740.215,377.668 z" id="boundary" inkscape:connector-curvature="0" />
	<path style="fill:none;stroke:red;stroke-width:1px;stroke-linecap:butt;stroke-linejoin:miter;stroke-opacity:1" d="M 773.578,411.031 755.785,395.462 z" id="boundary" inkscape:connector-curvature="0" />
	<path style="fill:none;stroke:red;stroke-width:1px;stroke-linecap:butt;stroke-linejoin:miter;stroke-opacity:1" d="M 811.39,437.722 826.96,455.516 z" id="boundary" inkscape:connector-curvature="0" />
	<path style="fill:none;stroke:red;stroke-width:1px;stroke-linecap:butt;stroke-linejoin:miter;stroke-opacity:1" d="M 793.596,422.152 811.39,437.722 z" id="boundary" inkscape:connector-curvature="0" />
	<path style="fill:none;stroke:red;stroke-width:1px;stroke-linecap:butt;stroke-linejoin:miter;stroke-opacity:1" d="M 793.596,422.152 773.578,411.031 z" id="boundary" inkscape:connector-curvature="0" />
	<path style="fill:none;stroke:red;stroke-width:1px;stroke-linecap:butt;stroke-linejoin:miter;stroke-opacity:1" d="M 722.422,818.063 744.664,818.063 z" id="boundary" inkscape:connector-curvature="0" />
	<path style="fill:none;stroke:red;stroke-width:1px;stroke-linecap:butt;stroke-linejoin:miter;stroke-opacity:1" d="M 900.359,806.942 922.601,806.942 z" id="boundary" inkscape:connector-curvature="0" />
	<path style="fill:none;stroke:red;stroke-width:1px;stroke-linecap:butt;stroke-linejoin:miter;stroke-opacity:1" d="M 789.148,806.942 766.906,815.839 z" id="boundary" inkscape:connector-curvature="0" />
	<path style="fill:none;stroke:red;stroke-width:1px;stroke-linecap:butt;stroke-linejoin:miter;stroke-opacity:1" d="M 766.906,815.839 744.664,818.063 z" id="boundary" inkscape:connector-curvature="0" />
	<path style="fill:none;stroke:red;stroke-width:1px;stroke-linecap:butt;stroke-linejoin:miter;stroke-opacity:1" d="M 700.179,818.063 677.937,818.063 z" id="boundary" inkscape:connector-curvature="0" />
	<path style="fill:none;stroke:red;stroke-width:1px;stroke-linecap:butt;stroke-linejoin:miter;stroke-opacity:1" d="M 811.39,806.942 789.148,806.942 z" id="boundary" inkscape:connector-curvature="0" />
	<path style="fill:none;stroke:red;stroke-width:1px;stroke-linecap:butt;stroke-linejoin:miter;stroke-opacity:1" d="M 844.753,471.085 826.96,455.516 z" id="boundary" inkscape:connector-curvature="0" />
	<path style="fill:none;stroke:red;stroke-width:1px;stroke-linecap:butt;stroke-linejoin:miter;stroke-opacity:1" d="M 700.179,818.063 722.422,818.063 z" id="boundary" inkscape:connector-curvature="0" />
	<path style="fill:none;stroke:red;stroke-width:1px;stroke-linecap:butt;stroke-linejoin:miter;stroke-opacity:1" d="M 833.632,806.942 811.39,806.942 z" id="boundary" inkscape:connector-curvature="0" />
	<path style="fill:none;stroke:red;stroke-width:1px;stroke-linecap:butt;stroke-linejoin:miter;stroke-opacity:1" d="M 844.753,471.085 864.771,482.206 z" id="boundary" inkscape:connector-curvature="0" />
	<path style="fill:none;stroke:red;stroke-width:1px;stroke-linecap:butt;stroke-linejoin:miter;stroke-opacity:1" d="M 864.771,482.206 882.565,497.776 z" id="boundary" inkscape:connector-curvature="0" />
	<path style="fill:none;stroke:red;stroke-width:1px;stroke-linecap:butt;stroke-linejoin:miter;stroke-opacity:1" d="M 895.91,515.57 882.565,497.776 z" id="boundary" inkscape:connector-curvature="0" />
	<path style="fill:none;stroke:red;stroke-width:1px;stroke-linecap:butt;stroke-linejoin:miter;stroke-opacity:1" d="M 855.874,804.717 878.117,804.717 z" id="boundary" inkscape:connector-curvature="0" />
	<path style="fill:none;stroke:red;stroke-width:1px;stroke-linecap:butt;stroke-linejoin:miter;stroke-opacity:1" d="M 855.874,804.717 833.632,806.942 z" id="boundary" inkscape:connector-curvature="0" />
	<path style="fill:none;stroke:red;stroke-width:1px;stroke-linecap:butt;stroke-linejoin:miter;stroke-opacity:1" d="M 878.117,804.717 900.359,806.942 z" id="boundary" inkscape:connector-curvature="0" />
	<path style="fill:none;stroke:red;stroke-width:1px;stroke-linecap:butt;stroke-linejoin:miter;stroke-opacity:1" d="M 895.91,515.57 915.928,526.691 z" id="boundary" inkscape:connector-curvature="0" />
	<path style="fill:none;stroke:red;stroke-width:1px;stroke-linecap:butt;stroke-linejoin:miter;stroke-opacity:1" d="M 951.516,555.605 933.722,540.036 z" id="boundary" inkscape:connector-curvature="0" />
	<path style="fill:none;stroke:red;stroke-width:1px;stroke-linecap:butt;stroke-linejoin:miter;stroke-opacity:1" d="M 933.722,540.036 915.928,526.691 z" id="boundary" inkscape:connector-curvature="0" />
	<path style="fill:none;stroke:red;stroke-width:1px;stroke-linecap:butt;stroke-linejoin:miter;stroke-opacity:1" d="M 967.085,573.399 951.516,555.605 z" id="boundary" inkscape:connector-curvature="0" />
	<path style="fill:none;stroke:red;stroke-width:1px;stroke-linecap:butt;stroke-linejoin:miter;stroke-opacity:1" d="M 942.619,795.821 922.601,806.942 z" id="boundary" inkscape:connector-curvature="0" />
	<path style="fill:none;stroke:red;stroke-width:1px;stroke-linecap:butt;stroke-linejoin:miter;stroke-opacity:1" d="M 984.879,684.61 984.879,662.368 z" id="boundary" inkscape:connector-curvature="0" />
	<path style="fill:none;stroke:red;stroke-width:1px;stroke-linecap:butt;stroke-linejoin:miter;stroke-opacity:1" d="M 973.758,762.457 962.637,784.7 z" id="boundary" inkscape:connector-curvature="0" />
	<path style="fill:none;stroke:red;stroke-width:1px;stroke-linecap:butt;stroke-linejoin:miter;stroke-opacity:1" d="M 962.637,784.7 942.619,795.821 z" id="boundary" inkscape:connector-curvature="0" />
	<path style="fill:none;stroke:red;stroke-width:1px;stroke-linecap:butt;stroke-linejoin:miter;stroke-opacity:1" d="M 991.552,746.888 973.758,762.457 z" id="boundary" inkscape:connector-curvature="0" />
	<path style="fill:none;stroke:red;stroke-width:1px;stroke-linecap:butt;stroke-linejoin:miter;stroke-opacity:1" d="M 967.085,573.399 989.327,582.296 z" id="boundary" inkscape:connector-curvature="0" />
	<path style="fill:none;stroke:red;stroke-width:1px;stroke-linecap:butt;stroke-linejoin:miter;stroke-opacity:1" d="M 984.879,684.61 984.879,706.852 z" id="boundary" inkscape:connector-curvature="0" />
	<path style="fill:none;stroke:red;stroke-width:1px;stroke-linecap:butt;stroke-linejoin:miter;stroke-opacity:1" d="M 989.327,582.296 996,604.538 z" id="boundary" inkscape:connector-curvature="0" />
	<path style="fill:none;stroke:red;stroke-width:1px;stroke-linecap:butt;stroke-linejoin:miter;stroke-opacity:1" d="M 984.879,662.368 996,626.78 z" id="boundary" inkscape:connector-curvature="0" />
	<path style="fill:none;stroke:red;stroke-width:1px;stroke-linecap:butt;stroke-linejoin:miter;stroke-opacity:1" d="M 991.552,746.888 984.879,706.852 z" id="boundary" inkscape:connector-curvature="0" />
	<path style="fill:none;stroke:red;stroke-width:1px;stroke-linecap:butt;stroke-linejoin:miter;stroke-opacity:1" d="M 996,626.78 996,604.538 z" id="boundary" inkscape:connector-curvature="0" />
	<circle cx="4" cy="388.789" r="4" fill="#0" id="circle0"/>
	<circle cx="4" cy="411.031" r="4" fill="#0" id="circle1"/>
	<circle cx="4" cy="433.274" r="4" fill="#0" id="circle2"/>
	<circle cx="15.1211" cy="344.305" r="4" fill="#0" id="circle3"/>
	<circle cx="15.1211" cy="366.547" r="4" fill="#0" id="circle4"/>
	<circle cx="21.7937" cy="448.843" r="4" fill="#0" id="circle5"/>
	<circle cx="26.2422" cy="322.063" r="4" fill="#0" id="circle6"/>
	<circle cx="39.5874" cy="462.188" r="4" fill="#0" id="circle7"/>
	<circle cx="44.0359" cy="304.269" r="4" fill="#0" id="circle8"/>
	<circle cx="55.157" cy="282.027" r="4" fill="#0" id="circle9"/>
	<circle cx="59.6054" cy="473.309" r="4" fill="#0" id="circle10"/>
	<circle cx="66.278" cy="259.785" r="4" fill="#0" id="circle11"/>
	<circle cx="79.6233" cy="484.43" r="4" fill="#0" id="circle12"/>
	<circle cx="88.5202" cy="248.664" r="4" fill="#0" id="circle13"/>
	<circle cx="99.6413" cy="495.552" r="4" fill="#0" id="circle14"/>
	<circle cx="110.762" cy="248.664" r="4" fill="#0" id="circle15"/>
	<circle cx="121.883" cy="226.422" r="4" fill="#0" id="circle16"/>
	<circle cx="121.883" cy="495.552" r="4" fill="#0" id="circle17"/>
	<circle cx="133.004" cy="515.57" r="4" fill="#0" id="circle18"/>
	<circle cx="144.126" cy="215.3" r="4" fill="#0" id="circle19"/>
	<circle cx="155.247" cy="517.794" r="4" fill="#0" id="circle20"/>
	<circle cx="164.143" cy="204.179" r="4" fill="#0" id="circle21"/>
	<circle cx="173.04" cy="533.363" r="4" fill="#0" id="circle22"/>
	<circle cx="181.937" cy="88.5202" r="4" fill="#0" id="circle23"/>
	<circle cx="181.937" cy="110.762" r="4" fill="#0" id="circle24"/>
	<circle cx="181.937" cy="133.004" r="4" fill="#0" id="circle25"/>
	<circle cx="181.937" cy="155.247" r="4" fill="#0" id="circle26"/>
	<circle cx="184.161" cy="193.058" r="4" fill="#0" id="circle27"/>
	<circle cx="188.61" cy="551.157" r="4" fill="#0" id="circle28"/>
	<circle cx="193.058" cy="44.0359" r="4" fill="#0" id="circle29"/>
	<circle cx="193.058" cy="66.278" r="4" fill="#0" id="circle30"/>
	<circle cx="193.058" cy="722.422" r="4" fill="#0" id="circle31"/>
	<circle cx="206.404" cy="566.726" r="4" fill="#0" id="circle32"/>
	<circle cx="210.852" cy="26.2422" r="4" fill="#0" id="circle33"/>
	<circle cx="210.852" cy="704.628" r="4" fill="#0" id="circle34"/>
	<circle cx="215.3" cy="729.094" r="4" fill="#0" id="circle35"/>
	<circle cx="221.973" cy="584.52" r="4" fill="#0" id="circle36"/>
	<circle cx="230.87" cy="15.1211" r="4" fill="#0" id="circle37"/>
	<circle cx="233.094" cy="704.628" r="4" fill="#0" id="circle38"/>
	<circle cx="235.318" cy="740.215" r="4" fill="#0" id="circle39"/>
	<circle cx="244.215" cy="593.417" r="4" fill="#0" id="circle40"/>
	<circle cx="250.888" cy="4" r="4" fill="#0" id="circle41"/>
	<circle cx="253.112" cy="693.507" r="4" fill="#0" id="circle42"/>
	<circle cx="257.561" cy="740.215" r="4" fill="#0" id="circle43"/>
	<circle cx="259.785" cy="611.211" r="4" fill="#0" id="circle44"/>
	<circle cx="270.906" cy="631.229" r="4" fill="#0" id="circle45"/>
	<circle cx="270.906" cy="653.471" r="4" fill="#0" id="circle46"/>
	<circle cx="273.13" cy="4" r="4" fill="#0" id="circle47"/>
	<circle cx="275.354" cy="693.507" r="4" fill="#0" id="circle48"/>
	<circle cx="279.803" cy="740.215" r="4" fill="#0" id="circle49"/>
	<circle cx="295.372" cy="4" r="4" fill="#0" id="circle50"/>
	<circle cx="302.045" cy="735.767" r="4" fill="#0" id="circle51"/>
	<circle cx="317.614" cy="4" r="4" fill="#0" id="circle52"/>
	<circle cx="317.614" cy="717.973" r="4" fill="#0" id="circle53"/>
	<circle cx="337.632" cy="729.094" r="4" fill="#0" id="circle54"/>
	<circle cx="339.857" cy="10.6726" r="4" fill="#0" id="circle55"/>
	<circle cx="339.857" cy="173.04" r="4" fill="#0" id="circle56"/>
	<circle cx="339.857" cy="195.283" r="4" fill="#0" id="circle57"/>
	<circle cx="350.978" cy="30.6906" r="4" fill="#0" id="circle58"/>
	<circle cx="350.978" cy="52.9327" r="4" fill="#0" id="circle59"/>
	<circle cx="350.978" cy="75.1749" r="4" fill="#0" id="circle60"/>
	<circle cx="350.978" cy="117.435" r="4" fill="#0" id="circle61"/>
	<circle cx="350.978" cy="139.677" r="4" fill="#0" id="circle62"/>
	<circle cx="359.874" cy="729.094" r="4" fill="#0" id="circle63"/>
	<circle cx="362.099" cy="204.179" r="4" fill="#0" id="circle64"/>
	<circle cx="364.323" cy="92.9686" r="4" fill="#0" id="circle65"/>
	<circle cx="379.892" cy="740.215" r="4" fill="#0" id="circle66"/>
	<circle cx="384.341" cy="204.179" r="4" fill="#0" id="circle67"/>
	<circle cx="402.135" cy="740.215" r="4" fill="#0" id="circle68"/>
	<circle cx="404.359" cy="215.3" r="4" fill="#0" id="circle69"/>
	<circle cx="422.152" cy="729.094" r="4" fill="#0" id="circle70"/>
	<circle cx="424.377" cy="204.179" r="4" fill="#0" id="circle71"/>
	<circle cx="444.395" cy="729.094" r="4" fill="#0" id="circle72"/>
	<circle cx="446.619" cy="204.179" r="4" fill="#0" id="circle73"/>
	<circle cx="464.413" cy="717.973" r="4" fill="#0" id="circle74"/>
	<circle cx="466.637" cy="193.058" r="4" fill="#0" id="circle75"/>
	<circle cx="482.206" cy="766.906" r="4" fill="#0" id="circle76"/>
	<circle cx="482.206" cy="789.148" r="4" fill="#0" id="circle77"/>
	<circle cx="484.43" cy="729.094" r="4" fill="#0" id="circle78"/>
	<circle cx="488.879" cy="181.937" r="4" fill="#0" id="circle79"/>
	<circle cx="504.448" cy="760.233" r="4" fill="#0" id="circle80"/>
	<circle cx="504.448" cy="795.821" r="4" fill="#0" id="circle81"/>
	<circle cx="506.673" cy="729.094" r="4" fill="#0" id="circle82"/>
	<circle cx="508.897" cy="193.058" r="4" fill="#0" id="circle83"/>
	<circle cx="524.466" cy="749.112" r="4" fill="#0" id="circle84"/>
	<circle cx="524.466" cy="806.942" r="4" fill="#0" id="circle85"/>
	<circle cx="528.915" cy="204.179" r="4" fill="#0" id="circle86"/>
	<circle cx="544.484" cy="818.063" r="4" fill="#0" id="circle87"/>
	<circle cx="546.709" cy="217.525" r="4" fill="#0" id="circle88"/>
	<circle cx="562.278" cy="235.318" r="4" fill="#0" id="circle89"/>
	<circle cx="566.726" cy="818.063" r="4" fill="#0" id="circle90"/>
	<circle cx="580.072" cy="248.664" r="4" fill="#0" id="circle91"/>
	<circle cx="588.969" cy="818.063" r="4" fill="#0" id="circle92"/>
	<circle cx="600.09" cy="259.785" r="4" fill="#0" id="circle93"/>
	<circle cx="611.211" cy="818.063" r="4" fill="#0" id="circle94"/>
	<circle cx="615.659" cy="277.578" r="4" fill="#0" id="circle95"/>
	<circle cx="633.453" cy="293.148" r="4" fill="#0" id="circle96"/>
	<circle cx="633.453" cy="818.063" r="4" fill="#0" id="circle97"/>
	<circle cx="653.471" cy="304.269" r="4" fill="#0" id="circle98"/>
	<circle cx="655.695" cy="818.063" r="4" fill="#0" id="circle99"/>
	<circle cx="671.265" cy="319.839" r="4" fill="#0" id="circle100"/>
	<circle cx="677.937" cy="818.063" r="4" fill="#0" id="circle101"/>
	<circle cx="684.61" cy="337.632" r="4" fill="#0" id="circle102"/>
	<circle cx="700.179" cy="818.063" r="4" fill="#0" id="circle103"/>
	<circle cx="702.404" cy="350.978" r="4" fill="#0" id="circle104"/>
	<circle cx="722.422" cy="362.099" r="4" fill="#0" id="circle105"/>
	<circle cx="722.422" cy="818.063" r="4" fill="#0" id="circle106"/>
	<circle cx="740.215" cy="377.668" r="4" fill="#0" id="circle107"/>
	<circle cx="744.664" cy="818.063" r="4" fill="#0" id="circle108"/>
	<circle cx="755.785" cy="395.462" r="4" fill="#0" id="circle109"/>
	<circle cx="766.906" cy="815.839" r="4" fill="#0" id="circle110"/>
	<circle cx="773.578" cy="411.031" r="4" fill="#0" id="circle111"/>
	<circle cx="789.148" cy="806.942" r="4" fill="#0" id="circle112"/>
	<circle cx="793.596" cy="422.152" r="4" fill="#0" id="circle113"/>
	<circle cx="811.39" cy="437.722" r="4" fill="#0" id="circle114"/>
	<circle cx="811.39" cy="806.942" r="4" fill="#0" id="circle115"/>
	<circle cx="826.96" cy="455.516" r="4" fill="#0" id="circle116"/>
	<circle cx="833.632" cy="806.942" r="4" fill="#0" id="circle117"/>
	<circle cx="844.753" cy="471.085" r="4" fill="#0" id="circle118"/>
	<circle cx="855.874" cy="804.717" r="4" fill="#0" id="circle119"/>
	<circle cx="864.771" cy="482.206" r="4" fill="#0" id="circle120"/>
	<circle cx="878.117" cy="804.717" r="4" fill="#0" id="circle121"/>
	<circle cx="882.565" cy="497.776" r="4" fill="#0" id="circle122"/>
	<circle cx="895.91" cy="515.57" r="4" fill="#0" id="circle123"/>
	<circle cx="900.359" cy="806.942" r="4" fill="#0" id="circle124"/>
	<circle cx="915.928" cy="526.691" r="4" fill="#0" id="circle125"/>
	<circle cx="922.601" cy="806.942" r="4" fill="#0" id="circle126"/>
	<circle cx="933.722" cy="540.036" r="4" fill="#0" id="circle127"/>
	<circle cx="942.619" cy="795.821" r="4" fill="#0" id="circle128"/>
	<circle cx="951.516" cy="555.605" r="4" fill="#0" id="circle129"/>
	<circle cx="962.637" cy="784.7" r="4" fill="#0" id="circle130"/>
	<circle cx="967.085" cy="573.399" r="4" fill="#0" id="circle131"/>
	<circle cx="973.758" cy="762.457" r="4" fill="#0" id="circle132"/>
	<circle cx="984.879" cy="662.368" r="4" fill="#0" id="circle133"/>
	<circle cx="984.879" cy="684.61" r="4" fill="#0" id="circle134"/>
	<circle cx="984.879" cy="706.852" r="4" fill="#0" id="circle135"/>
	<circle cx="989.327" cy="582.296" r="4" fill="#0" id="circle136"/>
	<circle cx="991.552" cy="746.888" r="4" fill="#0" id="circle137"/>
	<circle cx="996" cy="604.538" r="4" fill="#0" id="circle138"/>
	<circle cx="996" cy="626.78" r="4" fill="#0" id="circle139"/>
	</g>
</svg>