<?xml version="1.0" encoding="UTF-8" standalone="no"?>
<!-- Created with CurveBenchmark -->
<svg
	xmlns:dc="http://purl.org/dc/elements/1.1/"
	xmlns:cc="http://creativecommons.org/ns#"
	xmlns:rdf="http://www.w3.org/1999/02/22-rdf-syntax-ns#"
	xmlns:svg="http://www.w3.org/2000/svg"
	xmlns="http://www.w3.org/2000/svg"
	xmlns:sodipodi="http://sodipodi.sourceforge.net/DTD/sodipodi-0.dtd"
	xmlns:inkscape="http://www.inkscape.org/namespaces/inkscape"
	width="1000"
	height="1000"
	id="svg2"
	version="1.1"
	sodipodi:docname="manifold/peel-breadknifebinary24.png.txt">
<defs
	id="defs4" />
<metadata
	id="metadata7">
	<rdf:RDF>
		<cc:Work
			rdf:about="">
			<dc:format>image/svg+xml</dc:format>
			<dc:type
				rdf:resource="http://purl.org/dc/dcmitype/StillImage" />
			<dc:title></dc:title>
		</cc:Work>
	</rdf:RDF>
</metadata>
<g
	inkscape:label="Layer 1"
	inkscape:groupmode="layer"
	id="layer1">
	<path style="fill:none;stroke:red;stroke-width:1px;stroke-linecap:butt;stroke-linejoin:miter;stroke-opacity:1" d="M 6.26484,660.804 6.26484,638.155 z" id="boundary" inkscape:connector-curvature="0" />
	<path style="fill:none;stroke:red;stroke-width:1px;stroke-linecap:butt;stroke-linejoin:miter;stroke-opacity:1" d="M 6.26484,638.155 4,615.507 z" id="boundary" inkscape:connector-curvature="0" />
	<path style="fill:none;stroke:red;stroke-width:1px;stroke-linecap:butt;stroke-linejoin:miter;stroke-opacity:1" d="M 22.1187,579.269 4,592.858 z" id="boundary" inkscape:connector-curvature="0" />
	<path style="fill:none;stroke:red;stroke-width:1px;stroke-linecap:butt;stroke-linejoin:miter;stroke-opacity:1" d="M 22.1187,579.269 10.7945,558.886 z" id="boundary" inkscape:connector-curvature="0" />
	<path style="fill:none;stroke:red;stroke-width:1px;stroke-linecap:butt;stroke-linejoin:miter;stroke-opacity:1" d="M 6.26484,683.452 6.26484,660.804 z" id="boundary" inkscape:connector-curvature="0" />
	<path style="fill:none;stroke:red;stroke-width:1px;stroke-linecap:butt;stroke-linejoin:miter;stroke-opacity:1" d="M 10.7945,219.16 10.7945,196.511 z" id="boundary" inkscape:connector-curvature="0" />
	<path style="fill:none;stroke:red;stroke-width:1px;stroke-linecap:butt;stroke-linejoin:miter;stroke-opacity:1" d="M 10.7945,468.292 10.7945,445.644 z" id="boundary" inkscape:connector-curvature="0" />
	<path style="fill:none;stroke:red;stroke-width:1px;stroke-linecap:butt;stroke-linejoin:miter;stroke-opacity:1" d="M 6.26484,706.1 6.26484,683.452 z" id="boundary" inkscape:connector-curvature="0" />
	<path style="fill:none;stroke:red;stroke-width:1px;stroke-linecap:butt;stroke-linejoin:miter;stroke-opacity:1" d="M 10.7945,513.589 10.7945,536.237 z" id="boundary" inkscape:connector-curvature="0" />
	<path style="fill:none;stroke:red;stroke-width:1px;stroke-linecap:butt;stroke-linejoin:miter;stroke-opacity:1" d="M 6.26484,728.749 6.26484,706.1 z" id="boundary" inkscape:connector-curvature="0" />
	<path style="fill:none;stroke:red;stroke-width:1px;stroke-linecap:butt;stroke-linejoin:miter;stroke-opacity:1" d="M 6.26484,751.397 6.26484,728.749 z" id="boundary" inkscape:connector-curvature="0" />
	<path style="fill:none;stroke:red;stroke-width:1px;stroke-linecap:butt;stroke-linejoin:miter;stroke-opacity:1" d="M 69.6804,692.511 67.4155,669.863 z" id="boundary" inkscape:connector-curvature="0" />
	<path style="fill:none;stroke:red;stroke-width:1px;stroke-linecap:butt;stroke-linejoin:miter;stroke-opacity:1" d="M 6.26484,774.046 6.26484,751.397 z" id="boundary" inkscape:connector-curvature="0" />
	<path style="fill:none;stroke:red;stroke-width:1px;stroke-linecap:butt;stroke-linejoin:miter;stroke-opacity:1" d="M 6.26484,796.694 6.26484,774.046 z" id="boundary" inkscape:connector-curvature="0" />
	<path style="fill:none;stroke:red;stroke-width:1px;stroke-linecap:butt;stroke-linejoin:miter;stroke-opacity:1" d="M 78.7397,737.808 74.21,715.16 z" id="boundary" inkscape:connector-curvature="0" />
	<path style="fill:none;stroke:red;stroke-width:1px;stroke-linecap:butt;stroke-linejoin:miter;stroke-opacity:1" d="M 85.5342,527.178 85.5342,549.826 z" id="boundary" inkscape:connector-curvature="0" />
	<path style="fill:none;stroke:red;stroke-width:1px;stroke-linecap:butt;stroke-linejoin:miter;stroke-opacity:1" d="M 8.52968,841.991 8.52968,819.342 z" id="boundary" inkscape:connector-curvature="0" />
	<path style="fill:none;stroke:red;stroke-width:1px;stroke-linecap:butt;stroke-linejoin:miter;stroke-opacity:1" d="M 8.52968,819.342 6.26484,796.694 z" id="boundary" inkscape:connector-curvature="0" />
	<path style="fill:none;stroke:red;stroke-width:1px;stroke-linecap:butt;stroke-linejoin:miter;stroke-opacity:1" d="M 10.7945,264.457 10.7945,241.808 z" id="boundary" inkscape:connector-curvature="0" />
	<path style="fill:none;stroke:red;stroke-width:1px;stroke-linecap:butt;stroke-linejoin:miter;stroke-opacity:1" d="M 8.52968,864.639 8.52968,841.991 z" id="boundary" inkscape:connector-curvature="0" />
	<path style="fill:none;stroke:red;stroke-width:1px;stroke-linecap:butt;stroke-linejoin:miter;stroke-opacity:1" d="M 10.7945,264.457 10.7945,287.105 z" id="boundary" inkscape:connector-curvature="0" />
	<path style="fill:none;stroke:red;stroke-width:1px;stroke-linecap:butt;stroke-linejoin:miter;stroke-opacity:1" d="M 8.52968,887.288 8.52968,864.639 z" id="boundary" inkscape:connector-curvature="0" />
	<path style="fill:none;stroke:red;stroke-width:1px;stroke-linecap:butt;stroke-linejoin:miter;stroke-opacity:1" d="M 10.7945,309.753 10.7945,287.105 z" id="boundary" inkscape:connector-curvature="0" />
	<path style="fill:none;stroke:red;stroke-width:1px;stroke-linecap:butt;stroke-linejoin:miter;stroke-opacity:1" d="M 10.7945,241.808 10.7945,219.16 z" id="boundary" inkscape:connector-curvature="0" />
	<path style="fill:none;stroke:red;stroke-width:1px;stroke-linecap:butt;stroke-linejoin:miter;stroke-opacity:1" d="M 10.7945,332.402 10.7945,309.753 z" id="boundary" inkscape:connector-curvature="0" />
	<path style="fill:none;stroke:red;stroke-width:1px;stroke-linecap:butt;stroke-linejoin:miter;stroke-opacity:1" d="M 10.7945,355.05 10.7945,332.402 z" id="boundary" inkscape:connector-curvature="0" />
	<path style="fill:none;stroke:red;stroke-width:1px;stroke-linecap:butt;stroke-linejoin:miter;stroke-opacity:1" d="M 13.0594,83.2694 13.0594,60.621 z" id="boundary" inkscape:connector-curvature="0" />
	<path style="fill:none;stroke:red;stroke-width:1px;stroke-linecap:butt;stroke-linejoin:miter;stroke-opacity:1" d="M 10.7945,377.699 10.7945,355.05 z" id="boundary" inkscape:connector-curvature="0" />
	<path style="fill:none;stroke:red;stroke-width:1px;stroke-linecap:butt;stroke-linejoin:miter;stroke-opacity:1" d="M 13.0594,105.918 13.0594,83.2694 z" id="boundary" inkscape:connector-curvature="0" />
	<path style="fill:none;stroke:red;stroke-width:1px;stroke-linecap:butt;stroke-linejoin:miter;stroke-opacity:1" d="M 10.7945,400.347 10.7945,377.699 z" id="boundary" inkscape:connector-curvature="0" />
	<path style="fill:none;stroke:red;stroke-width:1px;stroke-linecap:butt;stroke-linejoin:miter;stroke-opacity:1" d="M 13.0594,105.918 13.0594,128.566 z" id="boundary" inkscape:connector-curvature="0" />
	<path style="fill:none;stroke:red;stroke-width:1px;stroke-linecap:butt;stroke-linejoin:miter;stroke-opacity:1" d="M 10.7945,422.995 10.7945,400.347 z" id="boundary" inkscape:connector-curvature="0" />
	<path style="fill:none;stroke:red;stroke-width:1px;stroke-linecap:butt;stroke-linejoin:miter;stroke-opacity:1" d="M 13.0594,151.215 13.0594,128.566 z" id="boundary" inkscape:connector-curvature="0" />
	<path style="fill:none;stroke:red;stroke-width:1px;stroke-linecap:butt;stroke-linejoin:miter;stroke-opacity:1" d="M 10.7945,445.644 10.7945,422.995 z" id="boundary" inkscape:connector-curvature="0" />
	<path style="fill:none;stroke:red;stroke-width:1px;stroke-linecap:butt;stroke-linejoin:miter;stroke-opacity:1" d="M 13.0594,173.863 10.7945,196.511 z" id="boundary" inkscape:connector-curvature="0" />
	<path style="fill:none;stroke:red;stroke-width:1px;stroke-linecap:butt;stroke-linejoin:miter;stroke-opacity:1" d="M 13.0594,173.863 13.0594,151.215 z" id="boundary" inkscape:connector-curvature="0" />
	<path style="fill:none;stroke:red;stroke-width:1px;stroke-linecap:butt;stroke-linejoin:miter;stroke-opacity:1" d="M 10.7945,490.941 10.7945,468.292 z" id="boundary" inkscape:connector-curvature="0" />
	<path style="fill:none;stroke:red;stroke-width:1px;stroke-linecap:butt;stroke-linejoin:miter;stroke-opacity:1" d="M 67.4155,124.037 69.6804,146.685 z" id="boundary" inkscape:connector-curvature="0" />
	<path style="fill:none;stroke:red;stroke-width:1px;stroke-linecap:butt;stroke-linejoin:miter;stroke-opacity:1" d="M 10.7945,513.589 10.7945,490.941 z" id="boundary" inkscape:connector-curvature="0" />
	<path style="fill:none;stroke:red;stroke-width:1px;stroke-linecap:butt;stroke-linejoin:miter;stroke-opacity:1" d="M 10.7945,536.237 10.7945,558.886 z" id="boundary" inkscape:connector-curvature="0" />
	<path style="fill:none;stroke:red;stroke-width:1px;stroke-linecap:butt;stroke-linejoin:miter;stroke-opacity:1" d="M 67.4155,124.037 65.1507,101.388 z" id="boundary" inkscape:connector-curvature="0" />
	<path style="fill:none;stroke:red;stroke-width:1px;stroke-linecap:butt;stroke-linejoin:miter;stroke-opacity:1" d="M 4,592.858 4,615.507 z" id="boundary" inkscape:connector-curvature="0" />
	<path style="fill:none;stroke:red;stroke-width:1px;stroke-linecap:butt;stroke-linejoin:miter;stroke-opacity:1" d="M 65.1507,101.388 65.1507,78.7397 z" id="boundary" inkscape:connector-curvature="0" />
	<path style="fill:none;stroke:red;stroke-width:1px;stroke-linecap:butt;stroke-linejoin:miter;stroke-opacity:1" d="M 71.9452,169.333 69.6804,146.685 z" id="boundary" inkscape:connector-curvature="0" />
	<path style="fill:none;stroke:red;stroke-width:1px;stroke-linecap:butt;stroke-linejoin:miter;stroke-opacity:1" d="M 81.0046,760.457 78.7397,737.808 z" id="boundary" inkscape:connector-curvature="0" />
	<path style="fill:none;stroke:red;stroke-width:1px;stroke-linecap:butt;stroke-linejoin:miter;stroke-opacity:1" d="M 76.4749,244.073 74.21,221.425 z" id="boundary" inkscape:connector-curvature="0" />
	<path style="fill:none;stroke:red;stroke-width:1px;stroke-linecap:butt;stroke-linejoin:miter;stroke-opacity:1" d="M 10.7945,932.584 10.7945,909.936 z" id="boundary" inkscape:connector-curvature="0" />
	<path style="fill:none;stroke:red;stroke-width:1px;stroke-linecap:butt;stroke-linejoin:miter;stroke-opacity:1" d="M 10.7945,909.936 8.52968,887.288 z" id="boundary" inkscape:connector-curvature="0" />
	<path style="fill:none;stroke:red;stroke-width:1px;stroke-linecap:butt;stroke-linejoin:miter;stroke-opacity:1" d="M 81.0046,361.845 81.0046,339.196 z" id="boundary" inkscape:connector-curvature="0" />
	<path style="fill:none;stroke:red;stroke-width:1px;stroke-linecap:butt;stroke-linejoin:miter;stroke-opacity:1" d="M 10.7945,955.233 10.7945,932.584 z" id="boundary" inkscape:connector-curvature="0" />
	<path style="fill:none;stroke:red;stroke-width:1px;stroke-linecap:butt;stroke-linejoin:miter;stroke-opacity:1" d="M 81.0046,384.493 81.0046,407.142 z" id="boundary" inkscape:connector-curvature="0" />
	<path style="fill:none;stroke:red;stroke-width:1px;stroke-linecap:butt;stroke-linejoin:miter;stroke-opacity:1" d="M 76.4749,266.721 78.7397,289.37 z" id="boundary" inkscape:connector-curvature="0" />
	<path style="fill:none;stroke:red;stroke-width:1px;stroke-linecap:butt;stroke-linejoin:miter;stroke-opacity:1" d="M 83.2694,452.438 83.2694,429.79 z" id="boundary" inkscape:connector-curvature="0" />
	<path style="fill:none;stroke:red;stroke-width:1px;stroke-linecap:butt;stroke-linejoin:miter;stroke-opacity:1" d="M 83.2694,504.53 83.2694,481.881 z" id="boundary" inkscape:connector-curvature="0" />
	<path style="fill:none;stroke:red;stroke-width:1px;stroke-linecap:butt;stroke-linejoin:miter;stroke-opacity:1" d="M 31.1781,17.589 17.589,35.7078 z" id="boundary" inkscape:connector-curvature="0" />
	<path style="fill:none;stroke:red;stroke-width:1px;stroke-linecap:butt;stroke-linejoin:miter;stroke-opacity:1" d="M 51.5616,4 60.621,33.4429 z" id="boundary" inkscape:connector-curvature="0" />
	<path style="fill:none;stroke:red;stroke-width:1px;stroke-linecap:butt;stroke-linejoin:miter;stroke-opacity:1" d="M 51.5616,4 31.1781,17.589 z" id="boundary" inkscape:connector-curvature="0" />
	<path style="fill:none;stroke:red;stroke-width:1px;stroke-linecap:butt;stroke-linejoin:miter;stroke-opacity:1" d="M 74.21,715.16 69.6804,692.511 z" id="boundary" inkscape:connector-curvature="0" />
	<path style="fill:none;stroke:red;stroke-width:1px;stroke-linecap:butt;stroke-linejoin:miter;stroke-opacity:1" d="M 60.621,33.4429 62.8858,56.0913 z" id="boundary" inkscape:connector-curvature="0" />
	<path style="fill:none;stroke:red;stroke-width:1px;stroke-linecap:butt;stroke-linejoin:miter;stroke-opacity:1" d="M 13.0594,60.621 17.589,35.7078 z" id="boundary" inkscape:connector-curvature="0" />
	<path style="fill:none;stroke:red;stroke-width:1px;stroke-linecap:butt;stroke-linejoin:miter;stroke-opacity:1" d="M 65.1507,78.7397 62.8858,56.0913 z" id="boundary" inkscape:connector-curvature="0" />
	<path style="fill:none;stroke:red;stroke-width:1px;stroke-linecap:butt;stroke-linejoin:miter;stroke-opacity:1" d="M 71.9452,169.333 71.9452,198.776 z" id="boundary" inkscape:connector-curvature="0" />
	<path style="fill:none;stroke:red;stroke-width:1px;stroke-linecap:butt;stroke-linejoin:miter;stroke-opacity:1" d="M 33.4429,989.205 13.0594,977.881 z" id="boundary" inkscape:connector-curvature="0" />
	<path style="fill:none;stroke:red;stroke-width:1px;stroke-linecap:butt;stroke-linejoin:miter;stroke-opacity:1" d="M 13.0594,977.881 10.7945,955.233 z" id="boundary" inkscape:connector-curvature="0" />
	<path style="fill:none;stroke:red;stroke-width:1px;stroke-linecap:butt;stroke-linejoin:miter;stroke-opacity:1" d="M 74.21,221.425 71.9452,198.776 z" id="boundary" inkscape:connector-curvature="0" />
	<path style="fill:none;stroke:red;stroke-width:1px;stroke-linecap:butt;stroke-linejoin:miter;stroke-opacity:1" d="M 76.4749,244.073 76.4749,266.721 z" id="boundary" inkscape:connector-curvature="0" />
	<path style="fill:none;stroke:red;stroke-width:1px;stroke-linecap:butt;stroke-linejoin:miter;stroke-opacity:1" d="M 81.0046,760.457 83.2694,783.105 z" id="boundary" inkscape:connector-curvature="0" />
	<path style="fill:none;stroke:red;stroke-width:1px;stroke-linecap:butt;stroke-linejoin:miter;stroke-opacity:1" d="M 78.7397,316.548 78.7397,289.37 z" id="boundary" inkscape:connector-curvature="0" />
	<path style="fill:none;stroke:red;stroke-width:1px;stroke-linecap:butt;stroke-linejoin:miter;stroke-opacity:1" d="M 78.7397,316.548 81.0046,339.196 z" id="boundary" inkscape:connector-curvature="0" />
	<path style="fill:none;stroke:red;stroke-width:1px;stroke-linecap:butt;stroke-linejoin:miter;stroke-opacity:1" d="M 74.21,644.95 67.4155,669.863 z" id="boundary" inkscape:connector-curvature="0" />
	<path style="fill:none;stroke:red;stroke-width:1px;stroke-linecap:butt;stroke-linejoin:miter;stroke-opacity:1" d="M 74.21,644.95 92.3288,629.096 z" id="boundary" inkscape:connector-curvature="0" />
	<path style="fill:none;stroke:red;stroke-width:1px;stroke-linecap:butt;stroke-linejoin:miter;stroke-opacity:1" d="M 83.2694,783.105 85.5342,805.753 z" id="boundary" inkscape:connector-curvature="0" />
	<path style="fill:none;stroke:red;stroke-width:1px;stroke-linecap:butt;stroke-linejoin:miter;stroke-opacity:1" d="M 81.0046,384.493 81.0046,361.845 z" id="boundary" inkscape:connector-curvature="0" />
	<path style="fill:none;stroke:red;stroke-width:1px;stroke-linecap:butt;stroke-linejoin:miter;stroke-opacity:1" d="M 85.5342,873.699 85.5342,851.05 z" id="boundary" inkscape:connector-curvature="0" />
	<path style="fill:none;stroke:red;stroke-width:1px;stroke-linecap:butt;stroke-linejoin:miter;stroke-opacity:1" d="M 81.0046,407.142 83.2694,429.79 z" id="boundary" inkscape:connector-curvature="0" />
	<path style="fill:none;stroke:red;stroke-width:1px;stroke-linecap:butt;stroke-linejoin:miter;stroke-opacity:1" d="M 92.3288,629.096 90.0639,606.447 z" id="boundary" inkscape:connector-curvature="0" />
	<path style="fill:none;stroke:red;stroke-width:1px;stroke-linecap:butt;stroke-linejoin:miter;stroke-opacity:1" d="M 56.0913,996 33.4429,989.205 z" id="boundary" inkscape:connector-curvature="0" />
	<path style="fill:none;stroke:red;stroke-width:1px;stroke-linecap:butt;stroke-linejoin:miter;stroke-opacity:1" d="M 78.7397,986.941 56.0913,996 z" id="boundary" inkscape:connector-curvature="0" />
	<path style="fill:none;stroke:red;stroke-width:1px;stroke-linecap:butt;stroke-linejoin:miter;stroke-opacity:1" d="M 78.7397,986.941 78.7397,964.292 z" id="boundary" inkscape:connector-curvature="0" />
	<path style="fill:none;stroke:red;stroke-width:1px;stroke-linecap:butt;stroke-linejoin:miter;stroke-opacity:1" d="M 83.2694,481.881 83.2694,452.438 z" id="boundary" inkscape:connector-curvature="0" />
	<path style="fill:none;stroke:red;stroke-width:1px;stroke-linecap:butt;stroke-linejoin:miter;stroke-opacity:1" d="M 92.3288,572.475 90.0639,606.447 z" id="boundary" inkscape:connector-curvature="0" />
	<path style="fill:none;stroke:red;stroke-width:1px;stroke-linecap:butt;stroke-linejoin:miter;stroke-opacity:1" d="M 85.5342,805.753 85.5342,828.402 z" id="boundary" inkscape:connector-curvature="0" />
	<path style="fill:none;stroke:red;stroke-width:1px;stroke-linecap:butt;stroke-linejoin:miter;stroke-opacity:1" d="M 78.7397,964.292 81.0046,939.379 z" id="boundary" inkscape:connector-curvature="0" />
	<path style="fill:none;stroke:red;stroke-width:1px;stroke-linecap:butt;stroke-linejoin:miter;stroke-opacity:1" d="M 83.2694,909.936 81.0046,939.379 z" id="boundary" inkscape:connector-curvature="0" />
	<path style="fill:none;stroke:red;stroke-width:1px;stroke-linecap:butt;stroke-linejoin:miter;stroke-opacity:1" d="M 85.5342,527.178 83.2694,504.53 z" id="boundary" inkscape:connector-curvature="0" />
	<path style="fill:none;stroke:red;stroke-width:1px;stroke-linecap:butt;stroke-linejoin:miter;stroke-opacity:1" d="M 85.5342,549.826 92.3288,572.475 z" id="boundary" inkscape:connector-curvature="0" />
	<path style="fill:none;stroke:red;stroke-width:1px;stroke-linecap:butt;stroke-linejoin:miter;stroke-opacity:1" d="M 85.5342,873.699 83.2694,909.936 z" id="boundary" inkscape:connector-curvature="0" />
	<path style="fill:none;stroke:red;stroke-width:1px;stroke-linecap:butt;stroke-linejoin:miter;stroke-opacity:1" d="M 85.5342,851.05 85.5342,828.402 z" id="boundary" inkscape:connector-curvature="0" />
	<circle cx="4" cy="592.858" r="4" fill="#0" id="circle0"/>
	<circle cx="4" cy="615.507" r="4" fill="#0" id="circle1"/>
	<circle cx="6.26484" cy="638.155" r="4" fill="#0" id="circle2"/>
	<circle cx="6.26484" cy="660.804" r="4" fill="#0" id="circle3"/>
	<circle cx="6.26484" cy="683.452" r="4" fill="#0" id="circle4"/>
	<circle cx="6.26484" cy="706.1" r="4" fill="#0" id="circle5"/>
	<circle cx="6.26484" cy="728.749" r="4" fill="#0" id="circle6"/>
	<circle cx="6.26484" cy="751.397" r="4" fill="#0" id="circle7"/>
	<circle cx="6.26484" cy="774.046" r="4" fill="#0" id="circle8"/>
	<circle cx="6.26484" cy="796.694" r="4" fill="#0" id="circle9"/>
	<circle cx="8.52968" cy="819.342" r="4" fill="#0" id="circle10"/>
	<circle cx="8.52968" cy="841.991" r="4" fill="#0" id="circle11"/>
	<circle cx="8.52968" cy="864.639" r="4" fill="#0" id="circle12"/>
	<circle cx="8.52968" cy="887.288" r="4" fill="#0" id="circle13"/>
	<circle cx="10.7945" cy="196.511" r="4" fill="#0" id="circle14"/>
	<circle cx="10.7945" cy="219.16" r="4" fill="#0" id="circle15"/>
	<circle cx="10.7945" cy="241.808" r="4" fill="#0" id="circle16"/>
	<circle cx="10.7945" cy="264.457" r="4" fill="#0" id="circle17"/>
	<circle cx="10.7945" cy="287.105" r="4" fill="#0" id="circle18"/>
	<circle cx="10.7945" cy="309.753" r="4" fill="#0" id="circle19"/>
	<circle cx="10.7945" cy="332.402" r="4" fill="#0" id="circle20"/>
	<circle cx="10.7945" cy="355.05" r="4" fill="#0" id="circle21"/>
	<circle cx="10.7945" cy="377.699" r="4" fill="#0" id="circle22"/>
	<circle cx="10.7945" cy="400.347" r="4" fill="#0" id="circle23"/>
	<circle cx="10.7945" cy="422.995" r="4" fill="#0" id="circle24"/>
	<circle cx="10.7945" cy="445.644" r="4" fill="#0" id="circle25"/>
	<circle cx="10.7945" cy="468.292" r="4" fill="#0" id="circle26"/>
	<circle cx="10.7945" cy="490.941" r="4" fill="#0" id="circle27"/>
	<circle cx="10.7945" cy="513.589" r="4" fill="#0" id="circle28"/>
	<circle cx="10.7945" cy="536.237" r="4" fill="#0" id="circle29"/>
	<circle cx="10.7945" cy="558.886" r="4" fill="#0" id="circle30"/>
	<circle cx="10.7945" cy="909.936" r="4" fill="#0" id="circle31"/>
	<circle cx="10.7945" cy="932.584" r="4" fill="#0" id="circle32"/>
	<circle cx="10.7945" cy="955.233" r="4" fill="#0" id="circle33"/>
	<circle cx="13.0594" cy="60.621" r="4" fill="#0" id="circle34"/>
	<circle cx="13.0594" cy="83.2694" r="4" fill="#0" id="circle35"/>
	<circle cx="13.0594" cy="105.918" r="4" fill="#0" id="circle36"/>
	<circle cx="13.0594" cy="128.566" r="4" fill="#0" id="circle37"/>
	<circle cx="13.0594" cy="151.215" r="4" fill="#0" id="circle38"/>
	<circle cx="13.0594" cy="173.863" r="4" fill="#0" id="circle39"/>
	<circle cx="13.0594" cy="977.881" r="4" fill="#0" id="circle40"/>
	<circle cx="17.589" cy="35.7078" r="4" fill="#0" id="circle41"/>
	<circle cx="22.1187" cy="579.269" r="4" fill="#0" id="circle42"/>
	<circle cx="31.1781" cy="17.589" r="4" fill="#0" id="circle43"/>
	<circle cx="33.4429" cy="540.767" r="4" fill="#0" id="circle44"/>
	<circle cx="33.4429" cy="989.205" r="4" fill="#0" id="circle45"/>
	<circle cx="51.5616" cy="4" r="4" fill="#0" id="circle46"/>
	<circle cx="56.0913" cy="996" r="4" fill="#0" id="circle47"/>
	<circle cx="60.621" cy="33.4429" r="4" fill="#0" id="circle48"/>
	<circle cx="62.8858" cy="56.0913" r="4" fill="#0" id="circle49"/>
	<circle cx="65.1507" cy="78.7397" r="4" fill="#0" id="circle50"/>
	<circle cx="65.1507" cy="101.388" r="4" fill="#0" id="circle51"/>
	<circle cx="67.4155" cy="124.037" r="4" fill="#0" id="circle52"/>
	<circle cx="67.4155" cy="669.863" r="4" fill="#0" id="circle53"/>
	<circle cx="69.6804" cy="146.685" r="4" fill="#0" id="circle54"/>
	<circle cx="69.6804" cy="692.511" r="4" fill="#0" id="circle55"/>
	<circle cx="71.9452" cy="169.333" r="4" fill="#0" id="circle56"/>
	<circle cx="71.9452" cy="198.776" r="4" fill="#0" id="circle57"/>
	<circle cx="74.21" cy="221.425" r="4" fill="#0" id="circle58"/>
	<circle cx="74.21" cy="644.95" r="4" fill="#0" id="circle59"/>
	<circle cx="74.21" cy="715.16" r="4" fill="#0" id="circle60"/>
	<circle cx="76.4749" cy="244.073" r="4" fill="#0" id="circle61"/>
	<circle cx="76.4749" cy="266.721" r="4" fill="#0" id="circle62"/>
	<circle cx="78.7397" cy="289.37" r="4" fill="#0" id="circle63"/>
	<circle cx="78.7397" cy="316.548" r="4" fill="#0" id="circle64"/>
	<circle cx="78.7397" cy="737.808" r="4" fill="#0" id="circle65"/>
	<circle cx="78.7397" cy="964.292" r="4" fill="#0" id="circle66"/>
	<circle cx="78.7397" cy="986.941" r="4" fill="#0" id="circle67"/>
	<circle cx="81.0046" cy="339.196" r="4" fill="#0" id="circle68"/>
	<circle cx="81.0046" cy="361.845" r="4" fill="#0" id="circle69"/>
	<circle cx="81.0046" cy="384.493" r="4" fill="#0" id="circle70"/>
	<circle cx="81.0046" cy="407.142" r="4" fill="#0" id="circle71"/>
	<circle cx="81.0046" cy="760.457" r="4" fill="#0" id="circle72"/>
	<circle cx="81.0046" cy="939.379" r="4" fill="#0" id="circle73"/>
	<circle cx="83.2694" cy="429.79" r="4" fill="#0" id="circle74"/>
	<circle cx="83.2694" cy="452.438" r="4" fill="#0" id="circle75"/>
	<circle cx="83.2694" cy="481.881" r="4" fill="#0" id="circle76"/>
	<circle cx="83.2694" cy="504.53" r="4" fill="#0" id="circle77"/>
	<circle cx="83.2694" cy="783.105" r="4" fill="#0" id="circle78"/>
	<circle cx="83.2694" cy="909.936" r="4" fill="#0" id="circle79"/>
	<circle cx="85.5342" cy="527.178" r="4" fill="#0" id="circle80"/>
	<circle cx="85.5342" cy="549.826" r="4" fill="#0" id="circle81"/>
	<circle cx="85.5342" cy="805.753" r="4" fill="#0" id="circle82"/>
	<circle cx="85.5342" cy="828.402" r="4" fill="#0" id="circle83"/>
	<circle cx="85.5342" cy="851.05" r="4" fill="#0" id="circle84"/>
	<circle cx="85.5342" cy="873.699" r="4" fill="#0" id="circle85"/>
	<circle cx="90.0639" cy="606.447" r="4" fill="#0" id="circle86"/>
	<circle cx="92.3288" cy="572.475" r="4" fill="#0" id="circle87"/>
	<circle cx="92.3288" cy="629.096" r="4" fill="#0" id="circle88"/>
	</g>
</svg>