<?xml version="1.0" encoding="UTF-8" standalone="no"?>
<!-- Created with CurveBenchmark -->
<svg
	xmlns:dc="http://purl.org/dc/elements/1.1/"
	xmlns:cc="http://creativecommons.org/ns#"
	xmlns:rdf="http://www.w3.org/1999/02/22-rdf-syntax-ns#"
	xmlns:svg="http://www.w3.org/2000/svg"
	xmlns="http://www.w3.org/2000/svg"
	xmlns:sodipodi="http://sodipodi.sourceforge.net/DTD/sodipodi-0.dtd"
	xmlns:inkscape="http://www.inkscape.org/namespaces/inkscape"
	width="1000"
	height="1000"
	id="svg2"
	version="1.1"
	sodipodi:docname="manifold/peel-teddy330.png.txt">
<defs
	id="defs4" />
<metadata
	id="metadata7">
	<rdf:RDF>
		<cc:Work
			rdf:about="">
			<dc:format>image/svg+xml</dc:format>
			<dc:type
				rdf:resource="http://purl.org/dc/dcmitype/StillImage" />
			<dc:title></dc:title>
		</cc:Work>
	</rdf:RDF>
</metadata>
<g
	inkscape:label="Layer 1"
	inkscape:groupmode="layer"
	id="layer1">
	<path style="fill:none;stroke:red;stroke-width:1px;stroke-linecap:butt;stroke-linejoin:miter;stroke-opacity:1" d="M 49.2194,727.51 77.4815,727.51 z" id="boundary" inkscape:connector-curvature="0" />
	<path style="fill:none;stroke:red;stroke-width:1px;stroke-linecap:butt;stroke-linejoin:miter;stroke-opacity:1" d="M 49.2194,727.51 20.9573,738.815 z" id="boundary" inkscape:connector-curvature="0" />
	<path style="fill:none;stroke:red;stroke-width:1px;stroke-linecap:butt;stroke-linejoin:miter;stroke-opacity:1" d="M 20.9573,738.815 9.65242,767.077 z" id="boundary" inkscape:connector-curvature="0" />
	<path style="fill:none;stroke:red;stroke-width:1px;stroke-linecap:butt;stroke-linejoin:miter;stroke-opacity:1" d="M 9.65242,767.077 4,817.949 z" id="boundary" inkscape:connector-curvature="0" />
	<path style="fill:none;stroke:red;stroke-width:1px;stroke-linecap:butt;stroke-linejoin:miter;stroke-opacity:1" d="M 6.82621,874.473 9.65242,902.735 z" id="boundary" inkscape:connector-curvature="0" />
	<path style="fill:none;stroke:red;stroke-width:1px;stroke-linecap:butt;stroke-linejoin:miter;stroke-opacity:1" d="M 77.4815,727.51 105.744,727.51 z" id="boundary" inkscape:connector-curvature="0" />
	<path style="fill:none;stroke:red;stroke-width:1px;stroke-linecap:butt;stroke-linejoin:miter;stroke-opacity:1" d="M 9.65242,902.735 15.3048,930.997 z" id="boundary" inkscape:connector-curvature="0" />
	<path style="fill:none;stroke:red;stroke-width:1px;stroke-linecap:butt;stroke-linejoin:miter;stroke-opacity:1" d="M 15.3048,930.997 23.7835,959.259 z" id="boundary" inkscape:connector-curvature="0" />
	<path style="fill:none;stroke:red;stroke-width:1px;stroke-linecap:butt;stroke-linejoin:miter;stroke-opacity:1" d="M 23.7835,959.259 46.3932,979.043 z" id="boundary" inkscape:connector-curvature="0" />
	<path style="fill:none;stroke:red;stroke-width:1px;stroke-linecap:butt;stroke-linejoin:miter;stroke-opacity:1" d="M 105.744,727.51 134.006,733.162 z" id="boundary" inkscape:connector-curvature="0" />
	<path style="fill:none;stroke:red;stroke-width:1px;stroke-linecap:butt;stroke-linejoin:miter;stroke-opacity:1" d="M 46.3932,979.043 74.6553,990.348 z" id="boundary" inkscape:connector-curvature="0" />
	<path style="fill:none;stroke:red;stroke-width:1px;stroke-linecap:butt;stroke-linejoin:miter;stroke-opacity:1" d="M 94.4387,552.285 102.917,580.547 z" id="boundary" inkscape:connector-curvature="0" />
	<path style="fill:none;stroke:red;stroke-width:1px;stroke-linecap:butt;stroke-linejoin:miter;stroke-opacity:1" d="M 4,817.949 4,846.211 z" id="boundary" inkscape:connector-curvature="0" />
	<path style="fill:none;stroke:red;stroke-width:1px;stroke-linecap:butt;stroke-linejoin:miter;stroke-opacity:1" d="M 94.4387,552.285 88.7863,524.023 z" id="boundary" inkscape:connector-curvature="0" />
	<path style="fill:none;stroke:red;stroke-width:1px;stroke-linecap:butt;stroke-linejoin:miter;stroke-opacity:1" d="M 88.7863,524.023 88.7863,495.761 z" id="boundary" inkscape:connector-curvature="0" />
	<path style="fill:none;stroke:red;stroke-width:1px;stroke-linecap:butt;stroke-linejoin:miter;stroke-opacity:1" d="M 159.442,987.521 131.179,996 z" id="boundary" inkscape:connector-curvature="0" />
	<path style="fill:none;stroke:red;stroke-width:1px;stroke-linecap:butt;stroke-linejoin:miter;stroke-opacity:1" d="M 119.875,603.157 102.917,580.547 z" id="boundary" inkscape:connector-curvature="0" />
	<path style="fill:none;stroke:red;stroke-width:1px;stroke-linecap:butt;stroke-linejoin:miter;stroke-opacity:1" d="M 88.7863,495.761 102.917,470.325 z" id="boundary" inkscape:connector-curvature="0" />
	<path style="fill:none;stroke:red;stroke-width:1px;stroke-linecap:butt;stroke-linejoin:miter;stroke-opacity:1" d="M 153.789,444.889 125.527,453.368 z" id="boundary" inkscape:connector-curvature="0" />
	<path style="fill:none;stroke:red;stroke-width:1px;stroke-linecap:butt;stroke-linejoin:miter;stroke-opacity:1" d="M 125.527,453.368 102.917,470.325 z" id="boundary" inkscape:connector-curvature="0" />
	<path style="fill:none;stroke:red;stroke-width:1px;stroke-linecap:butt;stroke-linejoin:miter;stroke-opacity:1" d="M 74.6553,990.348 102.917,996 z" id="boundary" inkscape:connector-curvature="0" />
	<path style="fill:none;stroke:red;stroke-width:1px;stroke-linecap:butt;stroke-linejoin:miter;stroke-opacity:1" d="M 156.615,654.028 145.311,617.288 z" id="boundary" inkscape:connector-curvature="0" />
	<path style="fill:none;stroke:red;stroke-width:1px;stroke-linecap:butt;stroke-linejoin:miter;stroke-opacity:1" d="M 145.311,617.288 119.875,603.157 z" id="boundary" inkscape:connector-curvature="0" />
	<path style="fill:none;stroke:red;stroke-width:1px;stroke-linecap:butt;stroke-linejoin:miter;stroke-opacity:1" d="M 6.82621,874.473 4,846.211 z" id="boundary" inkscape:connector-curvature="0" />
	<path style="fill:none;stroke:red;stroke-width:1px;stroke-linecap:butt;stroke-linejoin:miter;stroke-opacity:1" d="M 167.92,309.231 162.268,280.969 z" id="boundary" inkscape:connector-curvature="0" />
	<path style="fill:none;stroke:red;stroke-width:1px;stroke-linecap:butt;stroke-linejoin:miter;stroke-opacity:1" d="M 162.268,280.969 150.963,252.707 z" id="boundary" inkscape:connector-curvature="0" />
	<path style="fill:none;stroke:red;stroke-width:1px;stroke-linecap:butt;stroke-linejoin:miter;stroke-opacity:1" d="M 156.615,682.291 156.615,654.028 z" id="boundary" inkscape:connector-curvature="0" />
	<path style="fill:none;stroke:red;stroke-width:1px;stroke-linecap:butt;stroke-linejoin:miter;stroke-opacity:1" d="M 153.789,444.889 182.051,436.41 z" id="boundary" inkscape:connector-curvature="0" />
	<path style="fill:none;stroke:red;stroke-width:1px;stroke-linecap:butt;stroke-linejoin:miter;stroke-opacity:1" d="M 156.615,710.553 156.615,682.291 z" id="boundary" inkscape:connector-curvature="0" />
	<path style="fill:none;stroke:red;stroke-width:1px;stroke-linecap:butt;stroke-linejoin:miter;stroke-opacity:1" d="M 150.963,252.707 162.268,224.444 z" id="boundary" inkscape:connector-curvature="0" />
	<path style="fill:none;stroke:red;stroke-width:1px;stroke-linecap:butt;stroke-linejoin:miter;stroke-opacity:1" d="M 134.006,733.162 156.615,710.553 z" id="boundary" inkscape:connector-curvature="0" />
	<path style="fill:none;stroke:red;stroke-width:1px;stroke-linecap:butt;stroke-linejoin:miter;stroke-opacity:1" d="M 187.704,979.043 159.442,987.521 z" id="boundary" inkscape:connector-curvature="0" />
	<path style="fill:none;stroke:red;stroke-width:1px;stroke-linecap:butt;stroke-linejoin:miter;stroke-opacity:1" d="M 173.573,337.493 167.92,309.231 z" id="boundary" inkscape:connector-curvature="0" />
	<path style="fill:none;stroke:red;stroke-width:1px;stroke-linecap:butt;stroke-linejoin:miter;stroke-opacity:1" d="M 102.917,996 131.179,996 z" id="boundary" inkscape:connector-curvature="0" />
	<path style="fill:none;stroke:red;stroke-width:1px;stroke-linecap:butt;stroke-linejoin:miter;stroke-opacity:1" d="M 182.051,436.41 210.313,433.584 z" id="boundary" inkscape:connector-curvature="0" />
	<path style="fill:none;stroke:red;stroke-width:1px;stroke-linecap:butt;stroke-linejoin:miter;stroke-opacity:1" d="M 173.573,337.493 196.182,357.276 z" id="boundary" inkscape:connector-curvature="0" />
	<path style="fill:none;stroke:red;stroke-width:1px;stroke-linecap:butt;stroke-linejoin:miter;stroke-opacity:1" d="M 354.45,979.043 382.712,984.695 z" id="boundary" inkscape:connector-curvature="0" />
	<path style="fill:none;stroke:red;stroke-width:1px;stroke-linecap:butt;stroke-linejoin:miter;stroke-opacity:1" d="M 354.45,979.043 326.188,990.348 z" id="boundary" inkscape:connector-curvature="0" />
	<path style="fill:none;stroke:red;stroke-width:1px;stroke-linecap:butt;stroke-linejoin:miter;stroke-opacity:1" d="M 210.313,433.584 238.575,427.932 z" id="boundary" inkscape:connector-curvature="0" />
	<path style="fill:none;stroke:red;stroke-width:1px;stroke-linecap:butt;stroke-linejoin:miter;stroke-opacity:1" d="M 162.268,224.444 187.704,210.313 z" id="boundary" inkscape:connector-curvature="0" />
	<path style="fill:none;stroke:red;stroke-width:1px;stroke-linecap:butt;stroke-linejoin:miter;stroke-opacity:1" d="M 213.14,196.182 187.704,210.313 z" id="boundary" inkscape:connector-curvature="0" />
	<path style="fill:none;stroke:red;stroke-width:1px;stroke-linecap:butt;stroke-linejoin:miter;stroke-opacity:1" d="M 591.852,402.496 600.33,430.758 z" id="boundary" inkscape:connector-curvature="0" />
	<path style="fill:none;stroke:red;stroke-width:1px;stroke-linecap:butt;stroke-linejoin:miter;stroke-opacity:1" d="M 187.704,979.043 213.14,993.174 z" id="boundary" inkscape:connector-curvature="0" />
	<path style="fill:none;stroke:red;stroke-width:1px;stroke-linecap:butt;stroke-linejoin:miter;stroke-opacity:1" d="M 213.14,196.182 241.402,190.53 z" id="boundary" inkscape:connector-curvature="0" />
	<path style="fill:none;stroke:red;stroke-width:1px;stroke-linecap:butt;stroke-linejoin:miter;stroke-opacity:1" d="M 213.14,993.174 241.402,996 z" id="boundary" inkscape:connector-curvature="0" />
	<path style="fill:none;stroke:red;stroke-width:1px;stroke-linecap:butt;stroke-linejoin:miter;stroke-opacity:1" d="M 600.33,580.547 605.983,608.809 z" id="boundary" inkscape:connector-curvature="0" />
	<path style="fill:none;stroke:red;stroke-width:1px;stroke-linecap:butt;stroke-linejoin:miter;stroke-opacity:1" d="M 605.983,608.809 605.983,637.071 z" id="boundary" inkscape:connector-curvature="0" />
	<path style="fill:none;stroke:red;stroke-width:1px;stroke-linecap:butt;stroke-linejoin:miter;stroke-opacity:1" d="M 196.182,357.276 224.444,368.581 z" id="boundary" inkscape:connector-curvature="0" />
	<path style="fill:none;stroke:red;stroke-width:1px;stroke-linecap:butt;stroke-linejoin:miter;stroke-opacity:1" d="M 247.054,388.365 224.444,368.581 z" id="boundary" inkscape:connector-curvature="0" />
	<path style="fill:none;stroke:red;stroke-width:1px;stroke-linecap:butt;stroke-linejoin:miter;stroke-opacity:1" d="M 605.983,693.595 605.983,665.333 z" id="boundary" inkscape:connector-curvature="0" />
	<path style="fill:none;stroke:red;stroke-width:1px;stroke-linecap:butt;stroke-linejoin:miter;stroke-opacity:1" d="M 241.402,190.53 269.664,179.225 z" id="boundary" inkscape:connector-curvature="0" />
	<path style="fill:none;stroke:red;stroke-width:1px;stroke-linecap:butt;stroke-linejoin:miter;stroke-opacity:1" d="M 238.575,427.932 247.054,388.365 z" id="boundary" inkscape:connector-curvature="0" />
	<path style="fill:none;stroke:red;stroke-width:1px;stroke-linecap:butt;stroke-linejoin:miter;stroke-opacity:1" d="M 286.621,156.615 269.664,179.225 z" id="boundary" inkscape:connector-curvature="0" />
	<path style="fill:none;stroke:red;stroke-width:1px;stroke-linecap:butt;stroke-linejoin:miter;stroke-opacity:1" d="M 303.578,128.353 286.621,156.615 z" id="boundary" inkscape:connector-curvature="0" />
	<path style="fill:none;stroke:red;stroke-width:1px;stroke-linecap:butt;stroke-linejoin:miter;stroke-opacity:1" d="M 241.402,996 269.664,996 z" id="boundary" inkscape:connector-curvature="0" />
	<path style="fill:none;stroke:red;stroke-width:1px;stroke-linecap:butt;stroke-linejoin:miter;stroke-opacity:1" d="M 586.199,91.6125 569.242,69.0028 z" id="boundary" inkscape:connector-curvature="0" />
	<path style="fill:none;stroke:red;stroke-width:1px;stroke-linecap:butt;stroke-linejoin:miter;stroke-opacity:1" d="M 382.712,984.695 410.974,987.521 z" id="boundary" inkscape:connector-curvature="0" />
	<path style="fill:none;stroke:red;stroke-width:1px;stroke-linecap:butt;stroke-linejoin:miter;stroke-opacity:1" d="M 569.242,69.0028 555.111,23.7835 z" id="boundary" inkscape:connector-curvature="0" />
	<path style="fill:none;stroke:red;stroke-width:1px;stroke-linecap:butt;stroke-linejoin:miter;stroke-opacity:1" d="M 555.111,23.7835 529.675,9.65242 z" id="boundary" inkscape:connector-curvature="0" />
	<path style="fill:none;stroke:red;stroke-width:1px;stroke-linecap:butt;stroke-linejoin:miter;stroke-opacity:1" d="M 303.578,128.353 320.536,105.744 z" id="boundary" inkscape:connector-curvature="0" />
	<path style="fill:none;stroke:red;stroke-width:1px;stroke-linecap:butt;stroke-linejoin:miter;stroke-opacity:1" d="M 269.664,996 297.926,996 z" id="boundary" inkscape:connector-curvature="0" />
	<path style="fill:none;stroke:red;stroke-width:1px;stroke-linecap:butt;stroke-linejoin:miter;stroke-opacity:1" d="M 297.926,996 326.188,990.348 z" id="boundary" inkscape:connector-curvature="0" />
	<path style="fill:none;stroke:red;stroke-width:1px;stroke-linecap:butt;stroke-linejoin:miter;stroke-opacity:1" d="M 388.365,9.65242 416.627,4 z" id="boundary" inkscape:connector-curvature="0" />
	<path style="fill:none;stroke:red;stroke-width:1px;stroke-linecap:butt;stroke-linejoin:miter;stroke-opacity:1" d="M 388.365,9.65242 365.755,26.6097 z" id="boundary" inkscape:connector-curvature="0" />
	<path style="fill:none;stroke:red;stroke-width:1px;stroke-linecap:butt;stroke-linejoin:miter;stroke-opacity:1" d="M 365.755,26.6097 348.798,54.8718 z" id="boundary" inkscape:connector-curvature="0" />
	<path style="fill:none;stroke:red;stroke-width:1px;stroke-linecap:butt;stroke-linejoin:miter;stroke-opacity:1" d="M 320.536,105.744 343.145,83.1339 z" id="boundary" inkscape:connector-curvature="0" />
	<path style="fill:none;stroke:red;stroke-width:1px;stroke-linecap:butt;stroke-linejoin:miter;stroke-opacity:1" d="M 343.145,83.1339 348.798,54.8718 z" id="boundary" inkscape:connector-curvature="0" />
	<path style="fill:none;stroke:red;stroke-width:1px;stroke-linecap:butt;stroke-linejoin:miter;stroke-opacity:1" d="M 416.627,4 444.889,9.65242 z" id="boundary" inkscape:connector-curvature="0" />
	<path style="fill:none;stroke:red;stroke-width:1px;stroke-linecap:butt;stroke-linejoin:miter;stroke-opacity:1" d="M 410.974,987.521 439.236,990.348 z" id="boundary" inkscape:connector-curvature="0" />
	<path style="fill:none;stroke:red;stroke-width:1px;stroke-linecap:butt;stroke-linejoin:miter;stroke-opacity:1" d="M 439.236,990.348 467.499,993.174 z" id="boundary" inkscape:connector-curvature="0" />
	<path style="fill:none;stroke:red;stroke-width:1px;stroke-linecap:butt;stroke-linejoin:miter;stroke-opacity:1" d="M 473.151,15.3048 444.889,9.65242 z" id="boundary" inkscape:connector-curvature="0" />
	<path style="fill:none;stroke:red;stroke-width:1px;stroke-linecap:butt;stroke-linejoin:miter;stroke-opacity:1" d="M 467.499,993.174 495.761,996 z" id="boundary" inkscape:connector-curvature="0" />
	<path style="fill:none;stroke:red;stroke-width:1px;stroke-linecap:butt;stroke-linejoin:miter;stroke-opacity:1" d="M 594.678,820.775 591.852,792.513 z" id="boundary" inkscape:connector-curvature="0" />
	<path style="fill:none;stroke:red;stroke-width:1px;stroke-linecap:butt;stroke-linejoin:miter;stroke-opacity:1" d="M 529.675,9.65242 501.413,4 z" id="boundary" inkscape:connector-curvature="0" />
	<path style="fill:none;stroke:red;stroke-width:1px;stroke-linecap:butt;stroke-linejoin:miter;stroke-opacity:1" d="M 501.413,4 473.151,15.3048 z" id="boundary" inkscape:connector-curvature="0" />
	<path style="fill:none;stroke:red;stroke-width:1px;stroke-linecap:butt;stroke-linejoin:miter;stroke-opacity:1" d="M 495.761,996 524.023,990.348 z" id="boundary" inkscape:connector-curvature="0" />
	<path style="fill:none;stroke:red;stroke-width:1px;stroke-linecap:butt;stroke-linejoin:miter;stroke-opacity:1" d="M 622.94,134.006 634.245,162.268 z" id="boundary" inkscape:connector-curvature="0" />
	<path style="fill:none;stroke:red;stroke-width:1px;stroke-linecap:butt;stroke-linejoin:miter;stroke-opacity:1" d="M 524.023,990.348 552.285,979.043 z" id="boundary" inkscape:connector-curvature="0" />
	<path style="fill:none;stroke:red;stroke-width:1px;stroke-linecap:butt;stroke-linejoin:miter;stroke-opacity:1" d="M 583.373,914.04 589.026,885.778 z" id="boundary" inkscape:connector-curvature="0" />
	<path style="fill:none;stroke:red;stroke-width:1px;stroke-linecap:butt;stroke-linejoin:miter;stroke-opacity:1" d="M 583.373,914.04 574.895,962.085 z" id="boundary" inkscape:connector-curvature="0" />
	<path style="fill:none;stroke:red;stroke-width:1px;stroke-linecap:butt;stroke-linejoin:miter;stroke-opacity:1" d="M 552.285,979.043 574.895,962.085 z" id="boundary" inkscape:connector-curvature="0" />
	<path style="fill:none;stroke:red;stroke-width:1px;stroke-linecap:butt;stroke-linejoin:miter;stroke-opacity:1" d="M 600.33,580.547 600.33,552.285 z" id="boundary" inkscape:connector-curvature="0" />
	<path style="fill:none;stroke:red;stroke-width:1px;stroke-linecap:butt;stroke-linejoin:miter;stroke-opacity:1" d="M 586.199,91.6125 608.809,108.57 z" id="boundary" inkscape:connector-curvature="0" />
	<path style="fill:none;stroke:red;stroke-width:1px;stroke-linecap:butt;stroke-linejoin:miter;stroke-opacity:1" d="M 594.678,849.037 594.678,820.775 z" id="boundary" inkscape:connector-curvature="0" />
	<path style="fill:none;stroke:red;stroke-width:1px;stroke-linecap:butt;stroke-linejoin:miter;stroke-opacity:1" d="M 605.983,515.544 600.33,552.285 z" id="boundary" inkscape:connector-curvature="0" />
	<path style="fill:none;stroke:red;stroke-width:1px;stroke-linecap:butt;stroke-linejoin:miter;stroke-opacity:1" d="M 605.983,459.02 605.983,487.282 z" id="boundary" inkscape:connector-curvature="0" />
	<path style="fill:none;stroke:red;stroke-width:1px;stroke-linecap:butt;stroke-linejoin:miter;stroke-opacity:1" d="M 605.983,459.02 600.33,430.758 z" id="boundary" inkscape:connector-curvature="0" />
	<path style="fill:none;stroke:red;stroke-width:1px;stroke-linecap:butt;stroke-linejoin:miter;stroke-opacity:1" d="M 589.026,885.778 594.678,849.037 z" id="boundary" inkscape:connector-curvature="0" />
	<path style="fill:none;stroke:red;stroke-width:1px;stroke-linecap:butt;stroke-linejoin:miter;stroke-opacity:1" d="M 591.852,402.496 603.157,374.234 z" id="boundary" inkscape:connector-curvature="0" />
	<path style="fill:none;stroke:red;stroke-width:1px;stroke-linecap:butt;stroke-linejoin:miter;stroke-opacity:1" d="M 605.983,665.333 605.983,637.071 z" id="boundary" inkscape:connector-curvature="0" />
	<path style="fill:none;stroke:red;stroke-width:1px;stroke-linecap:butt;stroke-linejoin:miter;stroke-opacity:1" d="M 603.157,374.234 617.288,348.798 z" id="boundary" inkscape:connector-curvature="0" />
	<path style="fill:none;stroke:red;stroke-width:1px;stroke-linecap:butt;stroke-linejoin:miter;stroke-opacity:1" d="M 605.983,515.544 605.983,487.282 z" id="boundary" inkscape:connector-curvature="0" />
	<path style="fill:none;stroke:red;stroke-width:1px;stroke-linecap:butt;stroke-linejoin:miter;stroke-opacity:1" d="M 622.94,134.006 608.809,108.57 z" id="boundary" inkscape:connector-curvature="0" />
	<path style="fill:none;stroke:red;stroke-width:1px;stroke-linecap:butt;stroke-linejoin:miter;stroke-opacity:1" d="M 617.288,348.798 634.245,320.536 z" id="boundary" inkscape:connector-curvature="0" />
	<path style="fill:none;stroke:red;stroke-width:1px;stroke-linecap:butt;stroke-linejoin:miter;stroke-opacity:1" d="M 605.983,693.595 605.983,721.858 z" id="boundary" inkscape:connector-curvature="0" />
	<path style="fill:none;stroke:red;stroke-width:1px;stroke-linecap:butt;stroke-linejoin:miter;stroke-opacity:1" d="M 634.245,320.536 648.376,295.1 z" id="boundary" inkscape:connector-curvature="0" />
	<path style="fill:none;stroke:red;stroke-width:1px;stroke-linecap:butt;stroke-linejoin:miter;stroke-opacity:1" d="M 605.983,750.12 591.852,792.513 z" id="boundary" inkscape:connector-curvature="0" />
	<path style="fill:none;stroke:red;stroke-width:1px;stroke-linecap:butt;stroke-linejoin:miter;stroke-opacity:1" d="M 605.983,750.12 605.983,721.858 z" id="boundary" inkscape:connector-curvature="0" />
	<path style="fill:none;stroke:red;stroke-width:1px;stroke-linecap:butt;stroke-linejoin:miter;stroke-opacity:1" d="M 645.55,190.53 634.245,162.268 z" id="boundary" inkscape:connector-curvature="0" />
	<path style="fill:none;stroke:red;stroke-width:1px;stroke-linecap:butt;stroke-linejoin:miter;stroke-opacity:1" d="M 651.202,218.792 651.202,247.054 z" id="boundary" inkscape:connector-curvature="0" />
	<path style="fill:none;stroke:red;stroke-width:1px;stroke-linecap:butt;stroke-linejoin:miter;stroke-opacity:1" d="M 651.202,218.792 645.55,190.53 z" id="boundary" inkscape:connector-curvature="0" />
	<path style="fill:none;stroke:red;stroke-width:1px;stroke-linecap:butt;stroke-linejoin:miter;stroke-opacity:1" d="M 648.376,295.1 651.202,247.054 z" id="boundary" inkscape:connector-curvature="0" />
	<circle cx="4" cy="817.949" r="4" fill="#0" id="circle0"/>
	<circle cx="4" cy="846.211" r="4" fill="#0" id="circle1"/>
	<circle cx="6.82621" cy="874.473" r="4" fill="#0" id="circle2"/>
	<circle cx="9.65242" cy="767.077" r="4" fill="#0" id="circle3"/>
	<circle cx="9.65242" cy="902.735" r="4" fill="#0" id="circle4"/>
	<circle cx="15.3048" cy="930.997" r="4" fill="#0" id="circle5"/>
	<circle cx="20.9573" cy="738.815" r="4" fill="#0" id="circle6"/>
	<circle cx="23.7835" cy="959.259" r="4" fill="#0" id="circle7"/>
	<circle cx="46.3932" cy="979.043" r="4" fill="#0" id="circle8"/>
	<circle cx="49.2194" cy="727.51" r="4" fill="#0" id="circle9"/>
	<circle cx="74.6553" cy="990.348" r="4" fill="#0" id="circle10"/>
	<circle cx="77.4815" cy="727.51" r="4" fill="#0" id="circle11"/>
	<circle cx="88.7863" cy="495.761" r="4" fill="#0" id="circle12"/>
	<circle cx="88.7863" cy="524.023" r="4" fill="#0" id="circle13"/>
	<circle cx="94.4387" cy="552.285" r="4" fill="#0" id="circle14"/>
	<circle cx="102.917" cy="470.325" r="4" fill="#0" id="circle15"/>
	<circle cx="102.917" cy="580.547" r="4" fill="#0" id="circle16"/>
	<circle cx="102.917" cy="996" r="4" fill="#0" id="circle17"/>
	<circle cx="105.744" cy="727.51" r="4" fill="#0" id="circle18"/>
	<circle cx="119.875" cy="603.157" r="4" fill="#0" id="circle19"/>
	<circle cx="125.527" cy="453.368" r="4" fill="#0" id="circle20"/>
	<circle cx="131.179" cy="996" r="4" fill="#0" id="circle21"/>
	<circle cx="134.006" cy="733.162" r="4" fill="#0" id="circle22"/>
	<circle cx="145.311" cy="617.288" r="4" fill="#0" id="circle23"/>
	<circle cx="150.963" cy="252.707" r="4" fill="#0" id="circle24"/>
	<circle cx="153.789" cy="444.889" r="4" fill="#0" id="circle25"/>
	<circle cx="156.615" cy="654.028" r="4" fill="#0" id="circle26"/>
	<circle cx="156.615" cy="682.291" r="4" fill="#0" id="circle27"/>
	<circle cx="156.615" cy="710.553" r="4" fill="#0" id="circle28"/>
	<circle cx="159.442" cy="987.521" r="4" fill="#0" id="circle29"/>
	<circle cx="162.268" cy="224.444" r="4" fill="#0" id="circle30"/>
	<circle cx="162.268" cy="280.969" r="4" fill="#0" id="circle31"/>
	<circle cx="167.92" cy="309.231" r="4" fill="#0" id="circle32"/>
	<circle cx="173.573" cy="337.493" r="4" fill="#0" id="circle33"/>
	<circle cx="182.051" cy="436.41" r="4" fill="#0" id="circle34"/>
	<circle cx="187.704" cy="210.313" r="4" fill="#0" id="circle35"/>
	<circle cx="187.704" cy="979.043" r="4" fill="#0" id="circle36"/>
	<circle cx="196.182" cy="357.276" r="4" fill="#0" id="circle37"/>
	<circle cx="210.313" cy="433.584" r="4" fill="#0" id="circle38"/>
	<circle cx="213.14" cy="196.182" r="4" fill="#0" id="circle39"/>
	<circle cx="213.14" cy="993.174" r="4" fill="#0" id="circle40"/>
	<circle cx="224.444" cy="368.581" r="4" fill="#0" id="circle41"/>
	<circle cx="238.575" cy="427.932" r="4" fill="#0" id="circle42"/>
	<circle cx="241.402" cy="190.53" r="4" fill="#0" id="circle43"/>
	<circle cx="241.402" cy="996" r="4" fill="#0" id="circle44"/>
	<circle cx="247.054" cy="388.365" r="4" fill="#0" id="circle45"/>
	<circle cx="269.664" cy="179.225" r="4" fill="#0" id="circle46"/>
	<circle cx="269.664" cy="996" r="4" fill="#0" id="circle47"/>
	<circle cx="286.621" cy="156.615" r="4" fill="#0" id="circle48"/>
	<circle cx="297.926" cy="996" r="4" fill="#0" id="circle49"/>
	<circle cx="303.578" cy="128.353" r="4" fill="#0" id="circle50"/>
	<circle cx="320.536" cy="105.744" r="4" fill="#0" id="circle51"/>
	<circle cx="326.188" cy="990.348" r="4" fill="#0" id="circle52"/>
	<circle cx="343.145" cy="83.1339" r="4" fill="#0" id="circle53"/>
	<circle cx="348.798" cy="54.8718" r="4" fill="#0" id="circle54"/>
	<circle cx="354.45" cy="979.043" r="4" fill="#0" id="circle55"/>
	<circle cx="365.755" cy="26.6097" r="4" fill="#0" id="circle56"/>
	<circle cx="382.712" cy="984.695" r="4" fill="#0" id="circle57"/>
	<circle cx="388.365" cy="9.65242" r="4" fill="#0" id="circle58"/>
	<circle cx="410.974" cy="987.521" r="4" fill="#0" id="circle59"/>
	<circle cx="416.627" cy="4" r="4" fill="#0" id="circle60"/>
	<circle cx="439.236" cy="990.348" r="4" fill="#0" id="circle61"/>
	<circle cx="444.889" cy="9.65242" r="4" fill="#0" id="circle62"/>
	<circle cx="467.499" cy="993.174" r="4" fill="#0" id="circle63"/>
	<circle cx="473.151" cy="15.3048" r="4" fill="#0" id="circle64"/>
	<circle cx="495.761" cy="996" r="4" fill="#0" id="circle65"/>
	<circle cx="501.413" cy="4" r="4" fill="#0" id="circle66"/>
	<circle cx="524.023" cy="990.348" r="4" fill="#0" id="circle67"/>
	<circle cx="529.675" cy="9.65242" r="4" fill="#0" id="circle68"/>
	<circle cx="552.285" cy="979.043" r="4" fill="#0" id="circle69"/>
	<circle cx="555.111" cy="23.7835" r="4" fill="#0" id="circle70"/>
	<circle cx="569.242" cy="69.0028" r="4" fill="#0" id="circle71"/>
	<circle cx="574.895" cy="962.085" r="4" fill="#0" id="circle72"/>
	<circle cx="583.373" cy="914.04" r="4" fill="#0" id="circle73"/>
	<circle cx="586.199" cy="91.6125" r="4" fill="#0" id="circle74"/>
	<circle cx="589.026" cy="885.778" r="4" fill="#0" id="circle75"/>
	<circle cx="591.852" cy="402.496" r="4" fill="#0" id="circle76"/>
	<circle cx="591.852" cy="792.513" r="4" fill="#0" id="circle77"/>
	<circle cx="594.678" cy="820.775" r="4" fill="#0" id="circle78"/>
	<circle cx="594.678" cy="849.037" r="4" fill="#0" id="circle79"/>
	<circle cx="600.33" cy="430.758" r="4" fill="#0" id="circle80"/>
	<circle cx="600.33" cy="552.285" r="4" fill="#0" id="circle81"/>
	<circle cx="600.33" cy="580.547" r="4" fill="#0" id="circle82"/>
	<circle cx="603.157" cy="374.234" r="4" fill="#0" id="circle83"/>
	<circle cx="605.983" cy="459.02" r="4" fill="#0" id="circle84"/>
	<circle cx="605.983" cy="487.282" r="4" fill="#0" id="circle85"/>
	<circle cx="605.983" cy="515.544" r="4" fill="#0" id="circle86"/>
	<circle cx="605.983" cy="608.809" r="4" fill="#0" id="circle87"/>
	<circle cx="605.983" cy="637.071" r="4" fill="#0" id="circle88"/>
	<circle cx="605.983" cy="665.333" r="4" fill="#0" id="circle89"/>
	<circle cx="605.983" cy="693.595" r="4" fill="#0" id="circle90"/>
	<circle cx="605.983" cy="721.858" r="4" fill="#0" id="circle91"/>
	<circle cx="605.983" cy="750.12" r="4" fill="#0" id="circle92"/>
	<circle cx="608.809" cy="108.57" r="4" fill="#0" id="circle93"/>
	<circle cx="617.288" cy="348.798" r="4" fill="#0" id="circle94"/>
	<circle cx="622.94" cy="134.006" r="4" fill="#0" id="circle95"/>
	<circle cx="634.245" cy="162.268" r="4" fill="#0" id="circle96"/>
	<circle cx="634.245" cy="320.536" r="4" fill="#0" id="circle97"/>
	<circle cx="645.55" cy="190.53" r="4" fill="#0" id="circle98"/>
	<circle cx="648.376" cy="295.1" r="4" fill="#0" id="circle99"/>
	<circle cx="651.202" cy="218.792" r="4" fill="#0" id="circle100"/>
	<circle cx="651.202" cy="247.054" r="4" fill="#0" id="circle101"/>
	</g>
</svg>