<?xml version="1.0" encoding="UTF-8" standalone="no"?>
<!-- Created with CurveBenchmark -->
<svg
	xmlns:dc="http://purl.org/dc/elements/1.1/"
	xmlns:cc="http://creativecommons.org/ns#"
	xmlns:rdf="http://www.w3.org/1999/02/22-rdf-syntax-ns#"
	xmlns:svg="http://www.w3.org/2000/svg"
	xmlns="http://www.w3.org/2000/svg"
	xmlns:sodipodi="http://sodipodi.sourceforge.net/DTD/sodipodi-0.dtd"
	xmlns:inkscape="http://www.inkscape.org/namespaces/inkscape"
	width="1000"
	height="1000"
	id="svg2"
	version="1.1"
	sodipodi:docname="manifold/peel-breadknifebinary21.png.txt">
<defs
	id="defs4" />
<metadata
	id="metadata7">
	<rdf:RDF>
		<cc:Work
			rdf:about="">
			<dc:format>image/svg+xml</dc:format>
			<dc:type
				rdf:resource="http://purl.org/dc/dcmitype/StillImage" />
			<dc:title></dc:title>
		</cc:Work>
	</rdf:RDF>
</metadata>
<g
	inkscape:label="Layer 1"
	inkscape:groupmode="layer"
	id="layer1">
	<path style="fill:none;stroke:red;stroke-width:1px;stroke-linecap:butt;stroke-linejoin:miter;stroke-opacity:1" d="M 6.96119,735.415 6.96119,765.027 z" id="boundary" inkscape:connector-curvature="0" />
	<path style="fill:none;stroke:red;stroke-width:1px;stroke-linecap:butt;stroke-linejoin:miter;stroke-opacity:1" d="M 6.96119,765.027 4,803.522 z" id="boundary" inkscape:connector-curvature="0" />
	<path style="fill:none;stroke:red;stroke-width:1px;stroke-linecap:butt;stroke-linejoin:miter;stroke-opacity:1" d="M 6.96119,735.415 6.96119,705.803 z" id="boundary" inkscape:connector-curvature="0" />
	<path style="fill:none;stroke:red;stroke-width:1px;stroke-linecap:butt;stroke-linejoin:miter;stroke-opacity:1" d="M 4,803.522 4,833.134 z" id="boundary" inkscape:connector-curvature="0" />
	<path style="fill:none;stroke:red;stroke-width:1px;stroke-linecap:butt;stroke-linejoin:miter;stroke-opacity:1" d="M 12.8836,637.696 12.8836,608.084 z" id="boundary" inkscape:connector-curvature="0" />
	<path style="fill:none;stroke:red;stroke-width:1px;stroke-linecap:butt;stroke-linejoin:miter;stroke-opacity:1" d="M 4,833.134 4,862.746 z" id="boundary" inkscape:connector-curvature="0" />
	<path style="fill:none;stroke:red;stroke-width:1px;stroke-linecap:butt;stroke-linejoin:miter;stroke-opacity:1" d="M 6.96119,921.97 6.96119,892.358 z" id="boundary" inkscape:connector-curvature="0" />
	<path style="fill:none;stroke:red;stroke-width:1px;stroke-linecap:butt;stroke-linejoin:miter;stroke-opacity:1" d="M 6.96119,892.358 4,862.746 z" id="boundary" inkscape:connector-curvature="0" />
	<path style="fill:none;stroke:red;stroke-width:1px;stroke-linecap:butt;stroke-linejoin:miter;stroke-opacity:1" d="M 146.137,634.734 137.254,605.122 z" id="boundary" inkscape:connector-curvature="0" />
	<path style="fill:none;stroke:red;stroke-width:1px;stroke-linecap:butt;stroke-linejoin:miter;stroke-opacity:1" d="M 12.8836,667.307 6.96119,705.803 z" id="boundary" inkscape:connector-curvature="0" />
	<path style="fill:none;stroke:red;stroke-width:1px;stroke-linecap:butt;stroke-linejoin:miter;stroke-opacity:1" d="M 12.8836,667.307 12.8836,637.696 z" id="boundary" inkscape:connector-curvature="0" />
	<path style="fill:none;stroke:red;stroke-width:1px;stroke-linecap:butt;stroke-linejoin:miter;stroke-opacity:1" d="M 131.331,575.51 128.37,545.899 z" id="boundary" inkscape:connector-curvature="0" />
	<path style="fill:none;stroke:red;stroke-width:1px;stroke-linecap:butt;stroke-linejoin:miter;stroke-opacity:1" d="M 15.8448,572.549 18.806,542.937 z" id="boundary" inkscape:connector-curvature="0" />
	<path style="fill:none;stroke:red;stroke-width:1px;stroke-linecap:butt;stroke-linejoin:miter;stroke-opacity:1" d="M 15.8448,572.549 12.8836,608.084 z" id="boundary" inkscape:connector-curvature="0" />
	<path style="fill:none;stroke:red;stroke-width:1px;stroke-linecap:butt;stroke-linejoin:miter;stroke-opacity:1" d="M 137.254,605.122 131.331,575.51 z" id="boundary" inkscape:connector-curvature="0" />
	<path style="fill:none;stroke:red;stroke-width:1px;stroke-linecap:butt;stroke-linejoin:miter;stroke-opacity:1" d="M 21.7672,457.063 21.7672,486.675 z" id="boundary" inkscape:connector-curvature="0" />
	<path style="fill:none;stroke:red;stroke-width:1px;stroke-linecap:butt;stroke-linejoin:miter;stroke-opacity:1" d="M 21.7672,486.675 18.806,542.937 z" id="boundary" inkscape:connector-curvature="0" />
	<path style="fill:none;stroke:red;stroke-width:1px;stroke-linecap:butt;stroke-linejoin:miter;stroke-opacity:1" d="M 143.176,454.101 137.254,424.49 z" id="boundary" inkscape:connector-curvature="0" />
	<path style="fill:none;stroke:red;stroke-width:1px;stroke-linecap:butt;stroke-linejoin:miter;stroke-opacity:1" d="M 131.331,258.663 131.331,229.051 z" id="boundary" inkscape:connector-curvature="0" />
	<path style="fill:none;stroke:red;stroke-width:1px;stroke-linecap:butt;stroke-linejoin:miter;stroke-opacity:1" d="M 128.37,169.827 131.331,199.439 z" id="boundary" inkscape:connector-curvature="0" />
	<path style="fill:none;stroke:red;stroke-width:1px;stroke-linecap:butt;stroke-linejoin:miter;stroke-opacity:1" d="M 27.6896,113.564 27.6896,83.9522 z" id="boundary" inkscape:connector-curvature="0" />
	<path style="fill:none;stroke:red;stroke-width:1px;stroke-linecap:butt;stroke-linejoin:miter;stroke-opacity:1" d="M 24.7284,945.66 6.96119,921.97 z" id="boundary" inkscape:connector-curvature="0" />
	<path style="fill:none;stroke:red;stroke-width:1px;stroke-linecap:butt;stroke-linejoin:miter;stroke-opacity:1" d="M 21.7672,457.063 24.7284,403.761 z" id="boundary" inkscape:connector-curvature="0" />
	<path style="fill:none;stroke:red;stroke-width:1px;stroke-linecap:butt;stroke-linejoin:miter;stroke-opacity:1" d="M 39.5343,972.31 24.7284,945.66 z" id="boundary" inkscape:connector-curvature="0" />
	<path style="fill:none;stroke:red;stroke-width:1px;stroke-linecap:butt;stroke-linejoin:miter;stroke-opacity:1" d="M 27.6896,335.654 27.6896,365.266 z" id="boundary" inkscape:connector-curvature="0" />
	<path style="fill:none;stroke:red;stroke-width:1px;stroke-linecap:butt;stroke-linejoin:miter;stroke-opacity:1" d="M 27.6896,365.266 24.7284,403.761 z" id="boundary" inkscape:connector-curvature="0" />
	<path style="fill:none;stroke:red;stroke-width:1px;stroke-linecap:butt;stroke-linejoin:miter;stroke-opacity:1" d="M 116.525,80.991 113.564,51.3791 z" id="boundary" inkscape:connector-curvature="0" />
	<path style="fill:none;stroke:red;stroke-width:1px;stroke-linecap:butt;stroke-linejoin:miter;stroke-opacity:1" d="M 30.6507,172.788 30.6507,202.4 z" id="boundary" inkscape:connector-curvature="0" />
	<path style="fill:none;stroke:red;stroke-width:1px;stroke-linecap:butt;stroke-linejoin:miter;stroke-opacity:1" d="M 27.6896,113.564 30.6507,143.176 z" id="boundary" inkscape:connector-curvature="0" />
	<path style="fill:none;stroke:red;stroke-width:1px;stroke-linecap:butt;stroke-linejoin:miter;stroke-opacity:1" d="M 30.6507,143.176 30.6507,172.788 z" id="boundary" inkscape:connector-curvature="0" />
	<path style="fill:none;stroke:red;stroke-width:1px;stroke-linecap:butt;stroke-linejoin:miter;stroke-opacity:1" d="M 30.6507,249.779 30.6507,202.4 z" id="boundary" inkscape:connector-curvature="0" />
	<path style="fill:none;stroke:red;stroke-width:1px;stroke-linecap:butt;stroke-linejoin:miter;stroke-opacity:1" d="M 122.448,140.215 122.448,110.603 z" id="boundary" inkscape:connector-curvature="0" />
	<path style="fill:none;stroke:red;stroke-width:1px;stroke-linecap:butt;stroke-linejoin:miter;stroke-opacity:1" d="M 27.6896,335.654 30.6507,279.391 z" id="boundary" inkscape:connector-curvature="0" />
	<path style="fill:none;stroke:red;stroke-width:1px;stroke-linecap:butt;stroke-linejoin:miter;stroke-opacity:1" d="M 30.6507,279.391 30.6507,249.779 z" id="boundary" inkscape:connector-curvature="0" />
	<path style="fill:none;stroke:red;stroke-width:1px;stroke-linecap:butt;stroke-linejoin:miter;stroke-opacity:1" d="M 116.525,80.991 122.448,110.603 z" id="boundary" inkscape:connector-curvature="0" />
	<path style="fill:none;stroke:red;stroke-width:1px;stroke-linecap:butt;stroke-linejoin:miter;stroke-opacity:1" d="M 128.37,169.827 122.448,140.215 z" id="boundary" inkscape:connector-curvature="0" />
	<path style="fill:none;stroke:red;stroke-width:1px;stroke-linecap:butt;stroke-linejoin:miter;stroke-opacity:1" d="M 42.4955,51.3791 27.6896,83.9522 z" id="boundary" inkscape:connector-curvature="0" />
	<path style="fill:none;stroke:red;stroke-width:1px;stroke-linecap:butt;stroke-linejoin:miter;stroke-opacity:1" d="M 110.603,21.7672 113.564,51.3791 z" id="boundary" inkscape:connector-curvature="0" />
	<path style="fill:none;stroke:red;stroke-width:1px;stroke-linecap:butt;stroke-linejoin:miter;stroke-opacity:1" d="M 63.2239,27.6896 86.9134,4 z" id="boundary" inkscape:connector-curvature="0" />
	<path style="fill:none;stroke:red;stroke-width:1px;stroke-linecap:butt;stroke-linejoin:miter;stroke-opacity:1" d="M 86.9134,4 110.603,21.7672 z" id="boundary" inkscape:connector-curvature="0" />
	<path style="fill:none;stroke:red;stroke-width:1px;stroke-linecap:butt;stroke-linejoin:miter;stroke-opacity:1" d="M 69.1463,975.272 39.5343,972.31 z" id="boundary" inkscape:connector-curvature="0" />
	<path style="fill:none;stroke:red;stroke-width:1px;stroke-linecap:butt;stroke-linejoin:miter;stroke-opacity:1" d="M 42.4955,51.3791 63.2239,27.6896 z" id="boundary" inkscape:connector-curvature="0" />
	<path style="fill:none;stroke:red;stroke-width:1px;stroke-linecap:butt;stroke-linejoin:miter;stroke-opacity:1" d="M 92.8358,996 69.1463,975.272 z" id="boundary" inkscape:connector-curvature="0" />
	<path style="fill:none;stroke:red;stroke-width:1px;stroke-linecap:butt;stroke-linejoin:miter;stroke-opacity:1" d="M 131.331,199.439 131.331,229.051 z" id="boundary" inkscape:connector-curvature="0" />
	<path style="fill:none;stroke:red;stroke-width:1px;stroke-linecap:butt;stroke-linejoin:miter;stroke-opacity:1" d="M 116.525,972.31 92.8358,996 z" id="boundary" inkscape:connector-curvature="0" />
	<path style="fill:none;stroke:red;stroke-width:1px;stroke-linecap:butt;stroke-linejoin:miter;stroke-opacity:1" d="M 134.293,288.275 131.331,258.663 z" id="boundary" inkscape:connector-curvature="0" />
	<path style="fill:none;stroke:red;stroke-width:1px;stroke-linecap:butt;stroke-linejoin:miter;stroke-opacity:1" d="M 134.293,317.887 134.293,288.275 z" id="boundary" inkscape:connector-curvature="0" />
	<path style="fill:none;stroke:red;stroke-width:1px;stroke-linecap:butt;stroke-linejoin:miter;stroke-opacity:1" d="M 134.293,365.266 134.293,317.887 z" id="boundary" inkscape:connector-curvature="0" />
	<path style="fill:none;stroke:red;stroke-width:1px;stroke-linecap:butt;stroke-linejoin:miter;stroke-opacity:1" d="M 131.331,936.776 116.525,972.31 z" id="boundary" inkscape:connector-curvature="0" />
	<path style="fill:none;stroke:red;stroke-width:1px;stroke-linecap:butt;stroke-linejoin:miter;stroke-opacity:1" d="M 134.293,394.878 137.254,424.49 z" id="boundary" inkscape:connector-curvature="0" />
	<path style="fill:none;stroke:red;stroke-width:1px;stroke-linecap:butt;stroke-linejoin:miter;stroke-opacity:1" d="M 157.982,919.009 131.331,936.776 z" id="boundary" inkscape:connector-curvature="0" />
	<path style="fill:none;stroke:red;stroke-width:1px;stroke-linecap:butt;stroke-linejoin:miter;stroke-opacity:1" d="M 134.293,365.266 134.293,394.878 z" id="boundary" inkscape:connector-curvature="0" />
	<path style="fill:none;stroke:red;stroke-width:1px;stroke-linecap:butt;stroke-linejoin:miter;stroke-opacity:1" d="M 149.099,483.713 143.176,454.101 z" id="boundary" inkscape:connector-curvature="0" />
	<path style="fill:none;stroke:red;stroke-width:1px;stroke-linecap:butt;stroke-linejoin:miter;stroke-opacity:1" d="M 128.37,545.899 146.137,519.248 z" id="boundary" inkscape:connector-curvature="0" />
	<path style="fill:none;stroke:red;stroke-width:1px;stroke-linecap:butt;stroke-linejoin:miter;stroke-opacity:1" d="M 157.982,839.057 140.215,815.367 z" id="boundary" inkscape:connector-curvature="0" />
	<path style="fill:none;stroke:red;stroke-width:1px;stroke-linecap:butt;stroke-linejoin:miter;stroke-opacity:1" d="M 143.176,765.027 140.215,815.367 z" id="boundary" inkscape:connector-curvature="0" />
	<path style="fill:none;stroke:red;stroke-width:1px;stroke-linecap:butt;stroke-linejoin:miter;stroke-opacity:1" d="M 146.137,714.687 143.176,765.027 z" id="boundary" inkscape:connector-curvature="0" />
	<path style="fill:none;stroke:red;stroke-width:1px;stroke-linecap:butt;stroke-linejoin:miter;stroke-opacity:1" d="M 146.137,634.734 149.099,667.307 z" id="boundary" inkscape:connector-curvature="0" />
	<path style="fill:none;stroke:red;stroke-width:1px;stroke-linecap:butt;stroke-linejoin:miter;stroke-opacity:1" d="M 149.099,483.713 146.137,519.248 z" id="boundary" inkscape:connector-curvature="0" />
	<path style="fill:none;stroke:red;stroke-width:1px;stroke-linecap:butt;stroke-linejoin:miter;stroke-opacity:1" d="M 149.099,667.307 146.137,714.687 z" id="boundary" inkscape:connector-curvature="0" />
	<path style="fill:none;stroke:red;stroke-width:1px;stroke-linecap:butt;stroke-linejoin:miter;stroke-opacity:1" d="M 169.827,883.475 157.982,839.057 z" id="boundary" inkscape:connector-curvature="0" />
	<path style="fill:none;stroke:red;stroke-width:1px;stroke-linecap:butt;stroke-linejoin:miter;stroke-opacity:1" d="M 169.827,883.475 157.982,919.009 z" id="boundary" inkscape:connector-curvature="0" />
	<circle cx="4" cy="803.522" r="4" fill="#0" id="circle0"/>
	<circle cx="4" cy="833.134" r="4" fill="#0" id="circle1"/>
	<circle cx="4" cy="862.746" r="4" fill="#0" id="circle2"/>
	<circle cx="6.96119" cy="705.803" r="4" fill="#0" id="circle3"/>
	<circle cx="6.96119" cy="735.415" r="4" fill="#0" id="circle4"/>
	<circle cx="6.96119" cy="765.027" r="4" fill="#0" id="circle5"/>
	<circle cx="6.96119" cy="892.358" r="4" fill="#0" id="circle6"/>
	<circle cx="6.96119" cy="921.97" r="4" fill="#0" id="circle7"/>
	<circle cx="12.8836" cy="608.084" r="4" fill="#0" id="circle8"/>
	<circle cx="12.8836" cy="637.696" r="4" fill="#0" id="circle9"/>
	<circle cx="12.8836" cy="667.307" r="4" fill="#0" id="circle10"/>
	<circle cx="15.8448" cy="572.549" r="4" fill="#0" id="circle11"/>
	<circle cx="18.806" cy="542.937" r="4" fill="#0" id="circle12"/>
	<circle cx="21.7672" cy="457.063" r="4" fill="#0" id="circle13"/>
	<circle cx="21.7672" cy="486.675" r="4" fill="#0" id="circle14"/>
	<circle cx="24.7284" cy="403.761" r="4" fill="#0" id="circle15"/>
	<circle cx="24.7284" cy="945.66" r="4" fill="#0" id="circle16"/>
	<circle cx="27.6896" cy="83.9522" r="4" fill="#0" id="circle17"/>
	<circle cx="27.6896" cy="113.564" r="4" fill="#0" id="circle18"/>
	<circle cx="27.6896" cy="335.654" r="4" fill="#0" id="circle19"/>
	<circle cx="27.6896" cy="365.266" r="4" fill="#0" id="circle20"/>
	<circle cx="30.6507" cy="143.176" r="4" fill="#0" id="circle21"/>
	<circle cx="30.6507" cy="172.788" r="4" fill="#0" id="circle22"/>
	<circle cx="30.6507" cy="202.4" r="4" fill="#0" id="circle23"/>
	<circle cx="30.6507" cy="249.779" r="4" fill="#0" id="circle24"/>
	<circle cx="30.6507" cy="279.391" r="4" fill="#0" id="circle25"/>
	<circle cx="39.5343" cy="972.31" r="4" fill="#0" id="circle26"/>
	<circle cx="42.4955" cy="51.3791" r="4" fill="#0" id="circle27"/>
	<circle cx="57.3015" cy="157.982" r="4" fill="#0" id="circle28"/>
	<circle cx="63.2239" cy="27.6896" r="4" fill="#0" id="circle29"/>
	<circle cx="69.1463" cy="975.272" r="4" fill="#0" id="circle30"/>
	<circle cx="86.9134" cy="4" r="4" fill="#0" id="circle31"/>
	<circle cx="92.8358" cy="996" r="4" fill="#0" id="circle32"/>
	<circle cx="110.603" cy="21.7672" r="4" fill="#0" id="circle33"/>
	<circle cx="113.564" cy="51.3791" r="4" fill="#0" id="circle34"/>
	<circle cx="116.525" cy="80.991" r="4" fill="#0" id="circle35"/>
	<circle cx="116.525" cy="972.31" r="4" fill="#0" id="circle36"/>
	<circle cx="122.448" cy="110.603" r="4" fill="#0" id="circle37"/>
	<circle cx="122.448" cy="140.215" r="4" fill="#0" id="circle38"/>
	<circle cx="128.37" cy="169.827" r="4" fill="#0" id="circle39"/>
	<circle cx="128.37" cy="545.899" r="4" fill="#0" id="circle40"/>
	<circle cx="131.331" cy="199.439" r="4" fill="#0" id="circle41"/>
	<circle cx="131.331" cy="229.051" r="4" fill="#0" id="circle42"/>
	<circle cx="131.331" cy="258.663" r="4" fill="#0" id="circle43"/>
	<circle cx="131.331" cy="575.51" r="4" fill="#0" id="circle44"/>
	<circle cx="131.331" cy="936.776" r="4" fill="#0" id="circle45"/>
	<circle cx="134.293" cy="288.275" r="4" fill="#0" id="circle46"/>
	<circle cx="134.293" cy="317.887" r="4" fill="#0" id="circle47"/>
	<circle cx="134.293" cy="365.266" r="4" fill="#0" id="circle48"/>
	<circle cx="134.293" cy="394.878" r="4" fill="#0" id="circle49"/>
	<circle cx="137.254" cy="424.49" r="4" fill="#0" id="circle50"/>
	<circle cx="137.254" cy="605.122" r="4" fill="#0" id="circle51"/>
	<circle cx="140.215" cy="815.367" r="4" fill="#0" id="circle52"/>
	<circle cx="143.176" cy="454.101" r="4" fill="#0" id="circle53"/>
	<circle cx="143.176" cy="765.027" r="4" fill="#0" id="circle54"/>
	<circle cx="146.137" cy="519.248" r="4" fill="#0" id="circle55"/>
	<circle cx="146.137" cy="634.734" r="4" fill="#0" id="circle56"/>
	<circle cx="146.137" cy="714.687" r="4" fill="#0" id="circle57"/>
	<circle cx="149.099" cy="483.713" r="4" fill="#0" id="circle58"/>
	<circle cx="149.099" cy="667.307" r="4" fill="#0" id="circle59"/>
	<circle cx="157.982" cy="839.057" r="4" fill="#0" id="circle60"/>
	<circle cx="157.982" cy="919.009" r="4" fill="#0" id="circle61"/>
	<circle cx="169.827" cy="883.475" r="4" fill="#0" id="circle62"/>
	</g>
</svg>