<?xml version="1.0" encoding="UTF-8" standalone="no"?>
<!-- Created with CurveBenchmark -->
<svg
	xmlns:dc="http://purl.org/dc/elements/1.1/"
	xmlns:cc="http://creativecommons.org/ns#"
	xmlns:rdf="http://www.w3.org/1999/02/22-rdf-syntax-ns#"
	xmlns:svg="http://www.w3.org/2000/svg"
	xmlns="http://www.w3.org/2000/svg"
	xmlns:sodipodi="http://sodipodi.sourceforge.net/DTD/sodipodi-0.dtd"
	xmlns:inkscape="http://www.inkscape.org/namespaces/inkscape"
	width="1000"
	height="1000"
	id="svg2"
	version="1.1"
	sodipodi:docname="manifold/peel-stef-13.png.txt">
<defs
	id="defs4" />
<metadata
	id="metadata7">
	<rdf:RDF>
		<cc:Work
			rdf:about="">
			<dc:format>image/svg+xml</dc:format>
			<dc:type
				rdf:resource="http://purl.org/dc/dcmitype/StillImage" />
			<dc:title></dc:title>
		</cc:Work>
	</rdf:RDF>
</metadata>
<g
	inkscape:label="Layer 1"
	inkscape:groupmode="layer"
	id="layer1">
	<path style="fill:none;stroke:red;stroke-width:1px;stroke-linecap:butt;stroke-linejoin:miter;stroke-opacity:1" d="M 24.0404,116.727 4,99.1919 z" id="boundary" inkscape:connector-curvature="0" />
	<path style="fill:none;stroke:red;stroke-width:1px;stroke-linecap:butt;stroke-linejoin:miter;stroke-opacity:1" d="M 4,99.1919 4,74.1414 z" id="boundary" inkscape:connector-curvature="0" />
	<path style="fill:none;stroke:red;stroke-width:1px;stroke-linecap:butt;stroke-linejoin:miter;stroke-opacity:1" d="M 4,74.1414 16.5253,49.0909 z" id="boundary" inkscape:connector-curvature="0" />
	<path style="fill:none;stroke:red;stroke-width:1px;stroke-linecap:butt;stroke-linejoin:miter;stroke-opacity:1" d="M 41.5758,136.768 24.0404,116.727 z" id="boundary" inkscape:connector-curvature="0" />
	<path style="fill:none;stroke:red;stroke-width:1px;stroke-linecap:butt;stroke-linejoin:miter;stroke-opacity:1" d="M 29.0505,24.0404 54.101,11.5152 z" id="boundary" inkscape:connector-curvature="0" />
	<path style="fill:none;stroke:red;stroke-width:1px;stroke-linecap:butt;stroke-linejoin:miter;stroke-opacity:1" d="M 29.0505,24.0404 16.5253,49.0909 z" id="boundary" inkscape:connector-curvature="0" />
	<path style="fill:none;stroke:red;stroke-width:1px;stroke-linecap:butt;stroke-linejoin:miter;stroke-opacity:1" d="M 66.6263,144.283 41.5758,136.768 z" id="boundary" inkscape:connector-curvature="0" />
	<path style="fill:none;stroke:red;stroke-width:1px;stroke-linecap:butt;stroke-linejoin:miter;stroke-opacity:1" d="M 79.1515,4 54.101,11.5152 z" id="boundary" inkscape:connector-curvature="0" />
	<path style="fill:none;stroke:red;stroke-width:1px;stroke-linecap:butt;stroke-linejoin:miter;stroke-opacity:1" d="M 81.6566,164.323 66.6263,144.283 z" id="boundary" inkscape:connector-curvature="0" />
	<path style="fill:none;stroke:red;stroke-width:1px;stroke-linecap:butt;stroke-linejoin:miter;stroke-opacity:1" d="M 104.202,4 79.1515,4 z" id="boundary" inkscape:connector-curvature="0" />
	<path style="fill:none;stroke:red;stroke-width:1px;stroke-linecap:butt;stroke-linejoin:miter;stroke-opacity:1" d="M 104.202,4 129.253,4 z" id="boundary" inkscape:connector-curvature="0" />
	<path style="fill:none;stroke:red;stroke-width:1px;stroke-linecap:butt;stroke-linejoin:miter;stroke-opacity:1" d="M 129.253,4 151.798,16.5253 z" id="boundary" inkscape:connector-curvature="0" />
	<path style="fill:none;stroke:red;stroke-width:1px;stroke-linecap:butt;stroke-linejoin:miter;stroke-opacity:1" d="M 106.707,174.343 81.6566,164.323 z" id="boundary" inkscape:connector-curvature="0" />
	<path style="fill:none;stroke:red;stroke-width:1px;stroke-linecap:butt;stroke-linejoin:miter;stroke-opacity:1" d="M 129.253,186.869 141.778,209.414 z" id="boundary" inkscape:connector-curvature="0" />
	<path style="fill:none;stroke:red;stroke-width:1px;stroke-linecap:butt;stroke-linejoin:miter;stroke-opacity:1" d="M 129.253,186.869 106.707,174.343 z" id="boundary" inkscape:connector-curvature="0" />
	<path style="fill:none;stroke:red;stroke-width:1px;stroke-linecap:butt;stroke-linejoin:miter;stroke-opacity:1" d="M 151.798,16.5253 174.343,29.0505 z" id="boundary" inkscape:connector-curvature="0" />
	<path style="fill:none;stroke:red;stroke-width:1px;stroke-linecap:butt;stroke-linejoin:miter;stroke-opacity:1" d="M 141.778,209.414 141.778,234.465 z" id="boundary" inkscape:connector-curvature="0" />
	<path style="fill:none;stroke:red;stroke-width:1px;stroke-linecap:butt;stroke-linejoin:miter;stroke-opacity:1" d="M 159.313,254.505 141.778,234.465 z" id="boundary" inkscape:connector-curvature="0" />
	<path style="fill:none;stroke:red;stroke-width:1px;stroke-linecap:butt;stroke-linejoin:miter;stroke-opacity:1" d="M 196.889,41.5758 206.909,66.6263 z" id="boundary" inkscape:connector-curvature="0" />
	<path style="fill:none;stroke:red;stroke-width:1px;stroke-linecap:butt;stroke-linejoin:miter;stroke-opacity:1" d="M 196.889,41.5758 174.343,29.0505 z" id="boundary" inkscape:connector-curvature="0" />
	<path style="fill:none;stroke:red;stroke-width:1px;stroke-linecap:butt;stroke-linejoin:miter;stroke-opacity:1" d="M 179.354,269.535 159.313,254.505 z" id="boundary" inkscape:connector-curvature="0" />
	<path style="fill:none;stroke:red;stroke-width:1px;stroke-linecap:butt;stroke-linejoin:miter;stroke-opacity:1" d="M 204.404,269.535 179.354,269.535 z" id="boundary" inkscape:connector-curvature="0" />
	<path style="fill:none;stroke:red;stroke-width:1px;stroke-linecap:butt;stroke-linejoin:miter;stroke-opacity:1" d="M 206.909,66.6263 231.96,66.6263 z" id="boundary" inkscape:connector-curvature="0" />
	<path style="fill:none;stroke:red;stroke-width:1px;stroke-linecap:butt;stroke-linejoin:miter;stroke-opacity:1" d="M 231.96,66.6263 257.01,74.1414 z" id="boundary" inkscape:connector-curvature="0" />
	<path style="fill:none;stroke:red;stroke-width:1px;stroke-linecap:butt;stroke-linejoin:miter;stroke-opacity:1" d="M 226.949,282.061 204.404,269.535 z" id="boundary" inkscape:connector-curvature="0" />
	<path style="fill:none;stroke:red;stroke-width:1px;stroke-linecap:butt;stroke-linejoin:miter;stroke-opacity:1" d="M 252,282.061 226.949,282.061 z" id="boundary" inkscape:connector-curvature="0" />
	<path style="fill:none;stroke:red;stroke-width:1px;stroke-linecap:butt;stroke-linejoin:miter;stroke-opacity:1" d="M 257.01,74.1414 282.061,79.1515 z" id="boundary" inkscape:connector-curvature="0" />
	<path style="fill:none;stroke:red;stroke-width:1px;stroke-linecap:butt;stroke-linejoin:miter;stroke-opacity:1" d="M 274.545,294.586 252,282.061 z" id="boundary" inkscape:connector-curvature="0" />
	<path style="fill:none;stroke:red;stroke-width:1px;stroke-linecap:butt;stroke-linejoin:miter;stroke-opacity:1" d="M 267.03,525.051 254.505,550.101 z" id="boundary" inkscape:connector-curvature="0" />
	<path style="fill:none;stroke:red;stroke-width:1px;stroke-linecap:butt;stroke-linejoin:miter;stroke-opacity:1" d="M 267.03,572.646 254.505,550.101 z" id="boundary" inkscape:connector-curvature="0" />
	<path style="fill:none;stroke:red;stroke-width:1px;stroke-linecap:butt;stroke-linejoin:miter;stroke-opacity:1" d="M 287.071,505.01 267.03,525.051 z" id="boundary" inkscape:connector-curvature="0" />
	<path style="fill:none;stroke:red;stroke-width:1px;stroke-linecap:butt;stroke-linejoin:miter;stroke-opacity:1" d="M 282.061,79.1515 307.111,79.1515 z" id="boundary" inkscape:connector-curvature="0" />
	<path style="fill:none;stroke:red;stroke-width:1px;stroke-linecap:butt;stroke-linejoin:miter;stroke-opacity:1" d="M 307.111,79.1515 332.162,86.6667 z" id="boundary" inkscape:connector-curvature="0" />
	<path style="fill:none;stroke:red;stroke-width:1px;stroke-linecap:butt;stroke-linejoin:miter;stroke-opacity:1" d="M 267.03,572.646 284.566,592.687 z" id="boundary" inkscape:connector-curvature="0" />
	<path style="fill:none;stroke:red;stroke-width:1px;stroke-linecap:butt;stroke-linejoin:miter;stroke-opacity:1" d="M 297.091,615.232 284.566,592.687 z" id="boundary" inkscape:connector-curvature="0" />
	<path style="fill:none;stroke:red;stroke-width:1px;stroke-linecap:butt;stroke-linejoin:miter;stroke-opacity:1" d="M 299.596,304.606 319.636,319.636 z" id="boundary" inkscape:connector-curvature="0" />
	<path style="fill:none;stroke:red;stroke-width:1px;stroke-linecap:butt;stroke-linejoin:miter;stroke-opacity:1" d="M 299.596,304.606 274.545,294.586 z" id="boundary" inkscape:connector-curvature="0" />
	<path style="fill:none;stroke:red;stroke-width:1px;stroke-linecap:butt;stroke-linejoin:miter;stroke-opacity:1" d="M 307.111,484.97 287.071,505.01 z" id="boundary" inkscape:connector-curvature="0" />
	<path style="fill:none;stroke:red;stroke-width:1px;stroke-linecap:butt;stroke-linejoin:miter;stroke-opacity:1" d="M 307.111,640.283 297.091,615.232 z" id="boundary" inkscape:connector-curvature="0" />
	<path style="fill:none;stroke:red;stroke-width:1px;stroke-linecap:butt;stroke-linejoin:miter;stroke-opacity:1" d="M 354.707,99.1919 332.162,86.6667 z" id="boundary" inkscape:connector-curvature="0" />
	<path style="fill:none;stroke:red;stroke-width:1px;stroke-linecap:butt;stroke-linejoin:miter;stroke-opacity:1" d="M 307.111,484.97 332.162,472.444 z" id="boundary" inkscape:connector-curvature="0" />
	<path style="fill:none;stroke:red;stroke-width:1px;stroke-linecap:butt;stroke-linejoin:miter;stroke-opacity:1" d="M 354.707,379.758 354.707,404.808 z" id="boundary" inkscape:connector-curvature="0" />
	<path style="fill:none;stroke:red;stroke-width:1px;stroke-linecap:butt;stroke-linejoin:miter;stroke-opacity:1" d="M 349.697,732.97 342.182,707.919 z" id="boundary" inkscape:connector-curvature="0" />
	<path style="fill:none;stroke:red;stroke-width:1px;stroke-linecap:butt;stroke-linejoin:miter;stroke-opacity:1" d="M 387.273,557.616 382.263,532.566 z" id="boundary" inkscape:connector-curvature="0" />
	<path style="fill:none;stroke:red;stroke-width:1px;stroke-linecap:butt;stroke-linejoin:miter;stroke-opacity:1" d="M 379.758,109.212 354.707,99.1919 z" id="boundary" inkscape:connector-curvature="0" />
	<path style="fill:none;stroke:red;stroke-width:1px;stroke-linecap:butt;stroke-linejoin:miter;stroke-opacity:1" d="M 319.636,662.828 307.111,640.283 z" id="boundary" inkscape:connector-curvature="0" />
	<path style="fill:none;stroke:red;stroke-width:1px;stroke-linecap:butt;stroke-linejoin:miter;stroke-opacity:1" d="M 342.182,332.162 354.707,354.707 z" id="boundary" inkscape:connector-curvature="0" />
	<path style="fill:none;stroke:red;stroke-width:1px;stroke-linecap:butt;stroke-linejoin:miter;stroke-opacity:1" d="M 342.182,332.162 319.636,319.636 z" id="boundary" inkscape:connector-curvature="0" />
	<path style="fill:none;stroke:red;stroke-width:1px;stroke-linecap:butt;stroke-linejoin:miter;stroke-opacity:1" d="M 387.273,557.616 399.798,580.162 z" id="boundary" inkscape:connector-curvature="0" />
	<path style="fill:none;stroke:red;stroke-width:1px;stroke-linecap:butt;stroke-linejoin:miter;stroke-opacity:1" d="M 332.162,472.444 344.687,447.394 z" id="boundary" inkscape:connector-curvature="0" />
	<path style="fill:none;stroke:red;stroke-width:1px;stroke-linecap:butt;stroke-linejoin:miter;stroke-opacity:1" d="M 342.182,707.919 337.172,682.869 z" id="boundary" inkscape:connector-curvature="0" />
	<path style="fill:none;stroke:red;stroke-width:1px;stroke-linecap:butt;stroke-linejoin:miter;stroke-opacity:1" d="M 337.172,682.869 319.636,662.828 z" id="boundary" inkscape:connector-curvature="0" />
	<path style="fill:none;stroke:red;stroke-width:1px;stroke-linecap:butt;stroke-linejoin:miter;stroke-opacity:1" d="M 399.798,580.162 407.313,605.212 z" id="boundary" inkscape:connector-curvature="0" />
	<path style="fill:none;stroke:red;stroke-width:1px;stroke-linecap:butt;stroke-linejoin:miter;stroke-opacity:1" d="M 402.303,121.737 379.758,109.212 z" id="boundary" inkscape:connector-curvature="0" />
	<path style="fill:none;stroke:red;stroke-width:1px;stroke-linecap:butt;stroke-linejoin:miter;stroke-opacity:1" d="M 349.697,732.97 354.707,758.02 z" id="boundary" inkscape:connector-curvature="0" />
	<path style="fill:none;stroke:red;stroke-width:1px;stroke-linecap:butt;stroke-linejoin:miter;stroke-opacity:1" d="M 354.707,758.02 354.707,783.071 z" id="boundary" inkscape:connector-curvature="0" />
	<path style="fill:none;stroke:red;stroke-width:1px;stroke-linecap:butt;stroke-linejoin:miter;stroke-opacity:1" d="M 354.707,354.707 354.707,379.758 z" id="boundary" inkscape:connector-curvature="0" />
	<path style="fill:none;stroke:red;stroke-width:1px;stroke-linecap:butt;stroke-linejoin:miter;stroke-opacity:1" d="M 344.687,447.394 354.707,404.808 z" id="boundary" inkscape:connector-curvature="0" />
	<path style="fill:none;stroke:red;stroke-width:1px;stroke-linecap:butt;stroke-linejoin:miter;stroke-opacity:1" d="M 427.354,129.253 402.303,121.737 z" id="boundary" inkscape:connector-curvature="0" />
	<path style="fill:none;stroke:red;stroke-width:1px;stroke-linecap:butt;stroke-linejoin:miter;stroke-opacity:1" d="M 367.232,805.616 354.707,783.071 z" id="boundary" inkscape:connector-curvature="0" />
	<path style="fill:none;stroke:red;stroke-width:1px;stroke-linecap:butt;stroke-linejoin:miter;stroke-opacity:1" d="M 367.232,933.374 342.182,925.859 z" id="boundary" inkscape:connector-curvature="0" />
	<path style="fill:none;stroke:red;stroke-width:1px;stroke-linecap:butt;stroke-linejoin:miter;stroke-opacity:1" d="M 367.232,805.616 379.758,828.162 z" id="boundary" inkscape:connector-curvature="0" />
	<path style="fill:none;stroke:red;stroke-width:1px;stroke-linecap:butt;stroke-linejoin:miter;stroke-opacity:1" d="M 379.758,828.162 379.758,853.212 z" id="boundary" inkscape:connector-curvature="0" />
	<path style="fill:none;stroke:red;stroke-width:1px;stroke-linecap:butt;stroke-linejoin:miter;stroke-opacity:1" d="M 404.808,520.04 382.263,532.566 z" id="boundary" inkscape:connector-curvature="0" />
	<path style="fill:none;stroke:red;stroke-width:1px;stroke-linecap:butt;stroke-linejoin:miter;stroke-opacity:1" d="M 379.758,853.212 379.758,878.263 z" id="boundary" inkscape:connector-curvature="0" />
	<path style="fill:none;stroke:red;stroke-width:1px;stroke-linecap:butt;stroke-linejoin:miter;stroke-opacity:1" d="M 379.758,878.263 367.232,900.808 z" id="boundary" inkscape:connector-curvature="0" />
	<path style="fill:none;stroke:red;stroke-width:1px;stroke-linecap:butt;stroke-linejoin:miter;stroke-opacity:1" d="M 419.838,627.758 407.313,605.212 z" id="boundary" inkscape:connector-curvature="0" />
	<path style="fill:none;stroke:red;stroke-width:1px;stroke-linecap:butt;stroke-linejoin:miter;stroke-opacity:1" d="M 392.283,933.374 367.232,933.374 z" id="boundary" inkscape:connector-curvature="0" />
	<path style="fill:none;stroke:red;stroke-width:1px;stroke-linecap:butt;stroke-linejoin:miter;stroke-opacity:1" d="M 432.364,650.303 419.838,627.758 z" id="boundary" inkscape:connector-curvature="0" />
	<path style="fill:none;stroke:red;stroke-width:1px;stroke-linecap:butt;stroke-linejoin:miter;stroke-opacity:1" d="M 427.354,129.253 452.404,129.253 z" id="boundary" inkscape:connector-curvature="0" />
	<path style="fill:none;stroke:red;stroke-width:1px;stroke-linecap:butt;stroke-linejoin:miter;stroke-opacity:1" d="M 432.364,650.303 444.889,672.848 z" id="boundary" inkscape:connector-curvature="0" />
	<path style="fill:none;stroke:red;stroke-width:1px;stroke-linecap:butt;stroke-linejoin:miter;stroke-opacity:1" d="M 507.515,813.131 520.04,835.677 z" id="boundary" inkscape:connector-curvature="0" />
	<path style="fill:none;stroke:red;stroke-width:1px;stroke-linecap:butt;stroke-linejoin:miter;stroke-opacity:1" d="M 414.828,945.899 392.283,933.374 z" id="boundary" inkscape:connector-curvature="0" />
	<path style="fill:none;stroke:red;stroke-width:1px;stroke-linecap:butt;stroke-linejoin:miter;stroke-opacity:1" d="M 404.808,520.04 429.859,512.525 z" id="boundary" inkscape:connector-curvature="0" />
	<path style="fill:none;stroke:red;stroke-width:1px;stroke-linecap:butt;stroke-linejoin:miter;stroke-opacity:1" d="M 452.404,129.253 477.455,129.253 z" id="boundary" inkscape:connector-curvature="0" />
	<path style="fill:none;stroke:red;stroke-width:1px;stroke-linecap:butt;stroke-linejoin:miter;stroke-opacity:1" d="M 444.889,672.848 457.414,695.394 z" id="boundary" inkscape:connector-curvature="0" />
	<path style="fill:none;stroke:red;stroke-width:1px;stroke-linecap:butt;stroke-linejoin:miter;stroke-opacity:1" d="M 457.414,695.394 462.424,720.444 z" id="boundary" inkscape:connector-curvature="0" />
	<path style="fill:none;stroke:red;stroke-width:1px;stroke-linecap:butt;stroke-linejoin:miter;stroke-opacity:1" d="M 429.859,512.525 454.909,500 z" id="boundary" inkscape:connector-curvature="0" />
	<path style="fill:none;stroke:red;stroke-width:1px;stroke-linecap:butt;stroke-linejoin:miter;stroke-opacity:1" d="M 439.879,945.899 414.828,945.899 z" id="boundary" inkscape:connector-curvature="0" />
	<path style="fill:none;stroke:red;stroke-width:1px;stroke-linecap:butt;stroke-linejoin:miter;stroke-opacity:1" d="M 474.949,742.99 462.424,720.444 z" id="boundary" inkscape:connector-curvature="0" />
	<path style="fill:none;stroke:red;stroke-width:1px;stroke-linecap:butt;stroke-linejoin:miter;stroke-opacity:1" d="M 530.061,525.051 530.061,500 z" id="boundary" inkscape:connector-curvature="0" />
	<path style="fill:none;stroke:red;stroke-width:1px;stroke-linecap:butt;stroke-linejoin:miter;stroke-opacity:1" d="M 517.535,612.727 517.535,587.677 z" id="boundary" inkscape:connector-curvature="0" />
	<path style="fill:none;stroke:red;stroke-width:1px;stroke-linecap:butt;stroke-linejoin:miter;stroke-opacity:1" d="M 474.949,479.96 454.909,500 z" id="boundary" inkscape:connector-curvature="0" />
	<path style="fill:none;stroke:red;stroke-width:1px;stroke-linecap:butt;stroke-linejoin:miter;stroke-opacity:1" d="M 482.465,768.04 474.949,742.99 z" id="boundary" inkscape:connector-curvature="0" />
	<path style="fill:none;stroke:red;stroke-width:1px;stroke-linecap:butt;stroke-linejoin:miter;stroke-opacity:1" d="M 477.455,129.253 502.505,131.758 z" id="boundary" inkscape:connector-curvature="0" />
	<path style="fill:none;stroke:red;stroke-width:1px;stroke-linecap:butt;stroke-linejoin:miter;stroke-opacity:1" d="M 502.505,131.758 527.556,141.778 z" id="boundary" inkscape:connector-curvature="0" />
	<path style="fill:none;stroke:red;stroke-width:1px;stroke-linecap:butt;stroke-linejoin:miter;stroke-opacity:1" d="M 464.929,945.899 439.879,945.899 z" id="boundary" inkscape:connector-curvature="0" />
	<path style="fill:none;stroke:red;stroke-width:1px;stroke-linecap:butt;stroke-linejoin:miter;stroke-opacity:1" d="M 517.535,662.828 517.535,637.778 z" id="boundary" inkscape:connector-curvature="0" />
	<path style="fill:none;stroke:red;stroke-width:1px;stroke-linecap:butt;stroke-linejoin:miter;stroke-opacity:1" d="M 517.535,444.889 494.99,457.414 z" id="boundary" inkscape:connector-curvature="0" />
	<path style="fill:none;stroke:red;stroke-width:1px;stroke-linecap:butt;stroke-linejoin:miter;stroke-opacity:1" d="M 482.465,768.04 494.99,790.586 z" id="boundary" inkscape:connector-curvature="0" />
	<path style="fill:none;stroke:red;stroke-width:1px;stroke-linecap:butt;stroke-linejoin:miter;stroke-opacity:1" d="M 474.949,479.96 494.99,457.414 z" id="boundary" inkscape:connector-curvature="0" />
	<path style="fill:none;stroke:red;stroke-width:1px;stroke-linecap:butt;stroke-linejoin:miter;stroke-opacity:1" d="M 494.99,790.586 507.515,813.131 z" id="boundary" inkscape:connector-curvature="0" />
	<path style="fill:none;stroke:red;stroke-width:1px;stroke-linecap:butt;stroke-linejoin:miter;stroke-opacity:1" d="M 517.535,612.727 517.535,637.778 z" id="boundary" inkscape:connector-curvature="0" />
	<path style="fill:none;stroke:red;stroke-width:1px;stroke-linecap:butt;stroke-linejoin:miter;stroke-opacity:1" d="M 537.576,680.364 517.535,662.828 z" id="boundary" inkscape:connector-curvature="0" />
	<path style="fill:none;stroke:red;stroke-width:1px;stroke-linecap:butt;stroke-linejoin:miter;stroke-opacity:1" d="M 550.101,154.303 527.556,141.778 z" id="boundary" inkscape:connector-curvature="0" />
	<path style="fill:none;stroke:red;stroke-width:1px;stroke-linecap:butt;stroke-linejoin:miter;stroke-opacity:1" d="M 512.525,930.869 489.98,945.899 z" id="boundary" inkscape:connector-curvature="0" />
	<path style="fill:none;stroke:red;stroke-width:1px;stroke-linecap:butt;stroke-linejoin:miter;stroke-opacity:1" d="M 489.98,945.899 464.929,945.899 z" id="boundary" inkscape:connector-curvature="0" />
	<path style="fill:none;stroke:red;stroke-width:1px;stroke-linecap:butt;stroke-linejoin:miter;stroke-opacity:1" d="M 530.061,550.101 530.061,525.051 z" id="boundary" inkscape:connector-curvature="0" />
	<path style="fill:none;stroke:red;stroke-width:1px;stroke-linecap:butt;stroke-linejoin:miter;stroke-opacity:1" d="M 537.576,680.364 557.616,695.394 z" id="boundary" inkscape:connector-curvature="0" />
	<path style="fill:none;stroke:red;stroke-width:1px;stroke-linecap:butt;stroke-linejoin:miter;stroke-opacity:1" d="M 572.646,166.828 592.687,184.364 z" id="boundary" inkscape:connector-curvature="0" />
	<path style="fill:none;stroke:red;stroke-width:1px;stroke-linecap:butt;stroke-linejoin:miter;stroke-opacity:1" d="M 572.646,166.828 550.101,154.303 z" id="boundary" inkscape:connector-curvature="0" />
	<path style="fill:none;stroke:red;stroke-width:1px;stroke-linecap:butt;stroke-linejoin:miter;stroke-opacity:1" d="M 530.061,550.101 517.535,587.677 z" id="boundary" inkscape:connector-curvature="0" />
	<path style="fill:none;stroke:red;stroke-width:1px;stroke-linecap:butt;stroke-linejoin:miter;stroke-opacity:1" d="M 520.04,835.677 532.566,858.222 z" id="boundary" inkscape:connector-curvature="0" />
	<path style="fill:none;stroke:red;stroke-width:1px;stroke-linecap:butt;stroke-linejoin:miter;stroke-opacity:1" d="M 532.566,858.222 532.566,883.273 z" id="boundary" inkscape:connector-curvature="0" />
	<path style="fill:none;stroke:red;stroke-width:1px;stroke-linecap:butt;stroke-linejoin:miter;stroke-opacity:1" d="M 695.394,482.465 695.394,457.414 z" id="boundary" inkscape:connector-curvature="0" />
	<path style="fill:none;stroke:red;stroke-width:1px;stroke-linecap:butt;stroke-linejoin:miter;stroke-opacity:1" d="M 530.061,500 542.586,469.939 z" id="boundary" inkscape:connector-curvature="0" />
	<path style="fill:none;stroke:red;stroke-width:1px;stroke-linecap:butt;stroke-linejoin:miter;stroke-opacity:1" d="M 557.616,695.394 580.162,682.869 z" id="boundary" inkscape:connector-curvature="0" />
	<path style="fill:none;stroke:red;stroke-width:1px;stroke-linecap:butt;stroke-linejoin:miter;stroke-opacity:1" d="M 532.566,908.323 512.525,930.869 z" id="boundary" inkscape:connector-curvature="0" />
	<path style="fill:none;stroke:red;stroke-width:1px;stroke-linecap:butt;stroke-linejoin:miter;stroke-opacity:1" d="M 532.566,908.323 532.566,883.273 z" id="boundary" inkscape:connector-curvature="0" />
	<path style="fill:none;stroke:red;stroke-width:1px;stroke-linecap:butt;stroke-linejoin:miter;stroke-opacity:1" d="M 517.535,444.889 542.586,444.889 z" id="boundary" inkscape:connector-curvature="0" />
	<path style="fill:none;stroke:red;stroke-width:1px;stroke-linecap:butt;stroke-linejoin:miter;stroke-opacity:1" d="M 542.586,444.889 542.586,469.939 z" id="boundary" inkscape:connector-curvature="0" />
	<path style="fill:none;stroke:red;stroke-width:1px;stroke-linecap:butt;stroke-linejoin:miter;stroke-opacity:1" d="M 695.394,532.566 695.394,507.515 z" id="boundary" inkscape:connector-curvature="0" />
	<path style="fill:none;stroke:red;stroke-width:1px;stroke-linecap:butt;stroke-linejoin:miter;stroke-opacity:1" d="M 580.162,682.869 600.202,667.838 z" id="boundary" inkscape:connector-curvature="0" />
	<path style="fill:none;stroke:red;stroke-width:1px;stroke-linecap:butt;stroke-linejoin:miter;stroke-opacity:1" d="M 695.394,407.313 695.394,382.263 z" id="boundary" inkscape:connector-curvature="0" />
	<path style="fill:none;stroke:red;stroke-width:1px;stroke-linecap:butt;stroke-linejoin:miter;stroke-opacity:1" d="M 640.283,627.758 665.333,615.232 z" id="boundary" inkscape:connector-curvature="0" />
	<path style="fill:none;stroke:red;stroke-width:1px;stroke-linecap:butt;stroke-linejoin:miter;stroke-opacity:1" d="M 640.283,627.758 620.242,645.293 z" id="boundary" inkscape:connector-curvature="0" />
	<path style="fill:none;stroke:red;stroke-width:1px;stroke-linecap:butt;stroke-linejoin:miter;stroke-opacity:1" d="M 592.687,184.364 615.232,196.889 z" id="boundary" inkscape:connector-curvature="0" />
	<path style="fill:none;stroke:red;stroke-width:1px;stroke-linecap:butt;stroke-linejoin:miter;stroke-opacity:1" d="M 615.232,196.889 632.768,216.929 z" id="boundary" inkscape:connector-curvature="0" />
	<path style="fill:none;stroke:red;stroke-width:1px;stroke-linecap:butt;stroke-linejoin:miter;stroke-opacity:1" d="M 665.333,615.232 690.384,607.717 z" id="boundary" inkscape:connector-curvature="0" />
	<path style="fill:none;stroke:red;stroke-width:1px;stroke-linecap:butt;stroke-linejoin:miter;stroke-opacity:1" d="M 620.242,645.293 600.202,667.838 z" id="boundary" inkscape:connector-curvature="0" />
	<path style="fill:none;stroke:red;stroke-width:1px;stroke-linecap:butt;stroke-linejoin:miter;stroke-opacity:1" d="M 632.768,216.929 652.808,231.96 z" id="boundary" inkscape:connector-curvature="0" />
	<path style="fill:none;stroke:red;stroke-width:1px;stroke-linecap:butt;stroke-linejoin:miter;stroke-opacity:1" d="M 652.808,231.96 670.343,252 z" id="boundary" inkscape:connector-curvature="0" />
	<path style="fill:none;stroke:red;stroke-width:1px;stroke-linecap:butt;stroke-linejoin:miter;stroke-opacity:1" d="M 737.98,595.192 763.03,595.192 z" id="boundary" inkscape:connector-curvature="0" />
	<path style="fill:none;stroke:red;stroke-width:1px;stroke-linecap:butt;stroke-linejoin:miter;stroke-opacity:1" d="M 670.343,252 690.384,269.535 z" id="boundary" inkscape:connector-curvature="0" />
	<path style="fill:none;stroke:red;stroke-width:1px;stroke-linecap:butt;stroke-linejoin:miter;stroke-opacity:1" d="M 690.384,607.717 712.929,595.192 z" id="boundary" inkscape:connector-curvature="0" />
	<path style="fill:none;stroke:red;stroke-width:1px;stroke-linecap:butt;stroke-linejoin:miter;stroke-opacity:1" d="M 712.929,595.192 737.98,595.192 z" id="boundary" inkscape:connector-curvature="0" />
	<path style="fill:none;stroke:red;stroke-width:1px;stroke-linecap:butt;stroke-linejoin:miter;stroke-opacity:1" d="M 695.394,432.364 695.394,407.313 z" id="boundary" inkscape:connector-curvature="0" />
	<path style="fill:none;stroke:red;stroke-width:1px;stroke-linecap:butt;stroke-linejoin:miter;stroke-opacity:1" d="M 695.394,457.414 695.394,432.364 z" id="boundary" inkscape:connector-curvature="0" />
	<path style="fill:none;stroke:red;stroke-width:1px;stroke-linecap:butt;stroke-linejoin:miter;stroke-opacity:1" d="M 690.384,269.535 707.919,289.576 z" id="boundary" inkscape:connector-curvature="0" />
	<path style="fill:none;stroke:red;stroke-width:1px;stroke-linecap:butt;stroke-linejoin:miter;stroke-opacity:1" d="M 707.919,289.576 707.919,314.626 z" id="boundary" inkscape:connector-curvature="0" />
	<path style="fill:none;stroke:red;stroke-width:1px;stroke-linecap:butt;stroke-linejoin:miter;stroke-opacity:1" d="M 695.394,507.515 695.394,482.465 z" id="boundary" inkscape:connector-curvature="0" />
	<path style="fill:none;stroke:red;stroke-width:1px;stroke-linecap:butt;stroke-linejoin:miter;stroke-opacity:1" d="M 707.919,339.677 707.919,314.626 z" id="boundary" inkscape:connector-curvature="0" />
	<path style="fill:none;stroke:red;stroke-width:1px;stroke-linecap:butt;stroke-linejoin:miter;stroke-opacity:1" d="M 707.919,339.677 695.394,382.263 z" id="boundary" inkscape:connector-curvature="0" />
	<path style="fill:none;stroke:red;stroke-width:1px;stroke-linecap:butt;stroke-linejoin:miter;stroke-opacity:1" d="M 695.394,532.566 707.919,555.111 z" id="boundary" inkscape:connector-curvature="0" />
	<path style="fill:none;stroke:red;stroke-width:1px;stroke-linecap:butt;stroke-linejoin:miter;stroke-opacity:1" d="M 732.97,547.596 707.919,555.111 z" id="boundary" inkscape:connector-curvature="0" />
	<path style="fill:none;stroke:red;stroke-width:1px;stroke-linecap:butt;stroke-linejoin:miter;stroke-opacity:1" d="M 763.03,595.192 788.081,595.192 z" id="boundary" inkscape:connector-curvature="0" />
	<path style="fill:none;stroke:red;stroke-width:1px;stroke-linecap:butt;stroke-linejoin:miter;stroke-opacity:1" d="M 753.01,530.061 732.97,547.596 z" id="boundary" inkscape:connector-curvature="0" />
	<path style="fill:none;stroke:red;stroke-width:1px;stroke-linecap:butt;stroke-linejoin:miter;stroke-opacity:1" d="M 788.081,595.192 813.131,595.192 z" id="boundary" inkscape:connector-curvature="0" />
	<path style="fill:none;stroke:red;stroke-width:1px;stroke-linecap:butt;stroke-linejoin:miter;stroke-opacity:1" d="M 813.131,479.96 790.586,492.485 z" id="boundary" inkscape:connector-curvature="0" />
	<path style="fill:none;stroke:red;stroke-width:1px;stroke-linecap:butt;stroke-linejoin:miter;stroke-opacity:1" d="M 770.545,510.02 753.01,530.061 z" id="boundary" inkscape:connector-curvature="0" />
	<path style="fill:none;stroke:red;stroke-width:1px;stroke-linecap:butt;stroke-linejoin:miter;stroke-opacity:1" d="M 790.586,492.485 770.545,510.02 z" id="boundary" inkscape:connector-curvature="0" />
	<path style="fill:none;stroke:red;stroke-width:1px;stroke-linecap:butt;stroke-linejoin:miter;stroke-opacity:1" d="M 813.131,595.192 838.182,595.192 z" id="boundary" inkscape:connector-curvature="0" />
	<path style="fill:none;stroke:red;stroke-width:1px;stroke-linecap:butt;stroke-linejoin:miter;stroke-opacity:1" d="M 833.172,459.919 813.131,479.96 z" id="boundary" inkscape:connector-curvature="0" />
	<path style="fill:none;stroke:red;stroke-width:1px;stroke-linecap:butt;stroke-linejoin:miter;stroke-opacity:1" d="M 838.182,595.192 863.232,595.192 z" id="boundary" inkscape:connector-curvature="0" />
	<path style="fill:none;stroke:red;stroke-width:1px;stroke-linecap:butt;stroke-linejoin:miter;stroke-opacity:1" d="M 858.222,447.394 833.172,459.919 z" id="boundary" inkscape:connector-curvature="0" />
	<path style="fill:none;stroke:red;stroke-width:1px;stroke-linecap:butt;stroke-linejoin:miter;stroke-opacity:1" d="M 958.424,620.242 938.384,605.212 z" id="boundary" inkscape:connector-curvature="0" />
	<path style="fill:none;stroke:red;stroke-width:1px;stroke-linecap:butt;stroke-linejoin:miter;stroke-opacity:1" d="M 883.273,434.869 908.323,437.374 z" id="boundary" inkscape:connector-curvature="0" />
	<path style="fill:none;stroke:red;stroke-width:1px;stroke-linecap:butt;stroke-linejoin:miter;stroke-opacity:1" d="M 883.273,434.869 858.222,447.394 z" id="boundary" inkscape:connector-curvature="0" />
	<path style="fill:none;stroke:red;stroke-width:1px;stroke-linecap:butt;stroke-linejoin:miter;stroke-opacity:1" d="M 888.283,595.192 913.333,595.192 z" id="boundary" inkscape:connector-curvature="0" />
	<path style="fill:none;stroke:red;stroke-width:1px;stroke-linecap:butt;stroke-linejoin:miter;stroke-opacity:1" d="M 913.333,595.192 938.384,605.212 z" id="boundary" inkscape:connector-curvature="0" />
	<path style="fill:none;stroke:red;stroke-width:1px;stroke-linecap:butt;stroke-linejoin:miter;stroke-opacity:1" d="M 888.283,595.192 863.232,595.192 z" id="boundary" inkscape:connector-curvature="0" />
	<path style="fill:none;stroke:red;stroke-width:1px;stroke-linecap:butt;stroke-linejoin:miter;stroke-opacity:1" d="M 908.323,437.374 930.869,449.899 z" id="boundary" inkscape:connector-curvature="0" />
	<path style="fill:none;stroke:red;stroke-width:1px;stroke-linecap:butt;stroke-linejoin:miter;stroke-opacity:1" d="M 955.919,459.919 978.465,472.444 z" id="boundary" inkscape:connector-curvature="0" />
	<path style="fill:none;stroke:red;stroke-width:1px;stroke-linecap:butt;stroke-linejoin:miter;stroke-opacity:1" d="M 978.465,472.444 990.99,494.99 z" id="boundary" inkscape:connector-curvature="0" />
	<path style="fill:none;stroke:red;stroke-width:1px;stroke-linecap:butt;stroke-linejoin:miter;stroke-opacity:1" d="M 930.869,449.899 955.919,459.919 z" id="boundary" inkscape:connector-curvature="0" />
	<path style="fill:none;stroke:red;stroke-width:1px;stroke-linecap:butt;stroke-linejoin:miter;stroke-opacity:1" d="M 996,520.04 990.99,494.99 z" id="boundary" inkscape:connector-curvature="0" />
	<path style="fill:none;stroke:red;stroke-width:1px;stroke-linecap:butt;stroke-linejoin:miter;stroke-opacity:1" d="M 983.475,607.717 958.424,620.242 z" id="boundary" inkscape:connector-curvature="0" />
	<path style="fill:none;stroke:red;stroke-width:1px;stroke-linecap:butt;stroke-linejoin:miter;stroke-opacity:1" d="M 996,545.091 996,520.04 z" id="boundary" inkscape:connector-curvature="0" />
	<path style="fill:none;stroke:red;stroke-width:1px;stroke-linecap:butt;stroke-linejoin:miter;stroke-opacity:1" d="M 996,545.091 996,570.141 z" id="boundary" inkscape:connector-curvature="0" />
	<path style="fill:none;stroke:red;stroke-width:1px;stroke-linecap:butt;stroke-linejoin:miter;stroke-opacity:1" d="M 996,570.141 983.475,607.717 z" id="boundary" inkscape:connector-curvature="0" />
	<circle cx="4" cy="74.1414" r="4" fill="#0" id="circle0"/>
	<circle cx="4" cy="99.1919" r="4" fill="#0" id="circle1"/>
	<circle cx="16.5253" cy="49.0909" r="4" fill="#0" id="circle2"/>
	<circle cx="24.0404" cy="116.727" r="4" fill="#0" id="circle3"/>
	<circle cx="29.0505" cy="24.0404" r="4" fill="#0" id="circle4"/>
	<circle cx="41.5758" cy="136.768" r="4" fill="#0" id="circle5"/>
	<circle cx="54.101" cy="11.5152" r="4" fill="#0" id="circle6"/>
	<circle cx="66.6263" cy="144.283" r="4" fill="#0" id="circle7"/>
	<circle cx="79.1515" cy="4" r="4" fill="#0" id="circle8"/>
	<circle cx="81.6566" cy="164.323" r="4" fill="#0" id="circle9"/>
	<circle cx="104.202" cy="4" r="4" fill="#0" id="circle10"/>
	<circle cx="106.707" cy="174.343" r="4" fill="#0" id="circle11"/>
	<circle cx="129.253" cy="4" r="4" fill="#0" id="circle12"/>
	<circle cx="129.253" cy="186.869" r="4" fill="#0" id="circle13"/>
	<circle cx="141.778" cy="209.414" r="4" fill="#0" id="circle14"/>
	<circle cx="141.778" cy="234.465" r="4" fill="#0" id="circle15"/>
	<circle cx="151.798" cy="16.5253" r="4" fill="#0" id="circle16"/>
	<circle cx="159.313" cy="254.505" r="4" fill="#0" id="circle17"/>
	<circle cx="174.343" cy="29.0505" r="4" fill="#0" id="circle18"/>
	<circle cx="179.354" cy="269.535" r="4" fill="#0" id="circle19"/>
	<circle cx="196.889" cy="41.5758" r="4" fill="#0" id="circle20"/>
	<circle cx="204.404" cy="269.535" r="4" fill="#0" id="circle21"/>
	<circle cx="206.909" cy="66.6263" r="4" fill="#0" id="circle22"/>
	<circle cx="226.949" cy="282.061" r="4" fill="#0" id="circle23"/>
	<circle cx="231.96" cy="66.6263" r="4" fill="#0" id="circle24"/>
	<circle cx="252" cy="282.061" r="4" fill="#0" id="circle25"/>
	<circle cx="254.505" cy="550.101" r="4" fill="#0" id="circle26"/>
	<circle cx="257.01" cy="74.1414" r="4" fill="#0" id="circle27"/>
	<circle cx="267.03" cy="525.051" r="4" fill="#0" id="circle28"/>
	<circle cx="267.03" cy="572.646" r="4" fill="#0" id="circle29"/>
	<circle cx="274.545" cy="294.586" r="4" fill="#0" id="circle30"/>
	<circle cx="282.061" cy="79.1515" r="4" fill="#0" id="circle31"/>
	<circle cx="284.566" cy="592.687" r="4" fill="#0" id="circle32"/>
	<circle cx="287.071" cy="505.01" r="4" fill="#0" id="circle33"/>
	<circle cx="297.091" cy="615.232" r="4" fill="#0" id="circle34"/>
	<circle cx="299.596" cy="304.606" r="4" fill="#0" id="circle35"/>
	<circle cx="307.111" cy="79.1515" r="4" fill="#0" id="circle36"/>
	<circle cx="307.111" cy="484.97" r="4" fill="#0" id="circle37"/>
	<circle cx="307.111" cy="640.283" r="4" fill="#0" id="circle38"/>
	<circle cx="319.636" cy="319.636" r="4" fill="#0" id="circle39"/>
	<circle cx="319.636" cy="662.828" r="4" fill="#0" id="circle40"/>
	<circle cx="332.162" cy="86.6667" r="4" fill="#0" id="circle41"/>
	<circle cx="332.162" cy="472.444" r="4" fill="#0" id="circle42"/>
	<circle cx="337.172" cy="682.869" r="4" fill="#0" id="circle43"/>
	<circle cx="342.182" cy="332.162" r="4" fill="#0" id="circle44"/>
	<circle cx="342.182" cy="707.919" r="4" fill="#0" id="circle45"/>
	<circle cx="342.182" cy="925.859" r="4" fill="#0" id="circle46"/>
	<circle cx="344.687" cy="447.394" r="4" fill="#0" id="circle47"/>
	<circle cx="349.697" cy="732.97" r="4" fill="#0" id="circle48"/>
	<circle cx="354.707" cy="99.1919" r="4" fill="#0" id="circle49"/>
	<circle cx="354.707" cy="354.707" r="4" fill="#0" id="circle50"/>
	<circle cx="354.707" cy="379.758" r="4" fill="#0" id="circle51"/>
	<circle cx="354.707" cy="404.808" r="4" fill="#0" id="circle52"/>
	<circle cx="354.707" cy="758.02" r="4" fill="#0" id="circle53"/>
	<circle cx="354.707" cy="783.071" r="4" fill="#0" id="circle54"/>
	<circle cx="367.232" cy="805.616" r="4" fill="#0" id="circle55"/>
	<circle cx="367.232" cy="900.808" r="4" fill="#0" id="circle56"/>
	<circle cx="367.232" cy="933.374" r="4" fill="#0" id="circle57"/>
	<circle cx="379.758" cy="109.212" r="4" fill="#0" id="circle58"/>
	<circle cx="379.758" cy="828.162" r="4" fill="#0" id="circle59"/>
	<circle cx="379.758" cy="853.212" r="4" fill="#0" id="circle60"/>
	<circle cx="379.758" cy="878.263" r="4" fill="#0" id="circle61"/>
	<circle cx="382.263" cy="532.566" r="4" fill="#0" id="circle62"/>
	<circle cx="387.273" cy="557.616" r="4" fill="#0" id="circle63"/>
	<circle cx="392.283" cy="933.374" r="4" fill="#0" id="circle64"/>
	<circle cx="399.798" cy="580.162" r="4" fill="#0" id="circle65"/>
	<circle cx="402.303" cy="121.737" r="4" fill="#0" id="circle66"/>
	<circle cx="404.808" cy="520.04" r="4" fill="#0" id="circle67"/>
	<circle cx="407.313" cy="605.212" r="4" fill="#0" id="circle68"/>
	<circle cx="414.828" cy="945.899" r="4" fill="#0" id="circle69"/>
	<circle cx="419.838" cy="627.758" r="4" fill="#0" id="circle70"/>
	<circle cx="427.354" cy="129.253" r="4" fill="#0" id="circle71"/>
	<circle cx="429.859" cy="512.525" r="4" fill="#0" id="circle72"/>
	<circle cx="432.364" cy="650.303" r="4" fill="#0" id="circle73"/>
	<circle cx="439.879" cy="945.899" r="4" fill="#0" id="circle74"/>
	<circle cx="444.889" cy="672.848" r="4" fill="#0" id="circle75"/>
	<circle cx="452.404" cy="129.253" r="4" fill="#0" id="circle76"/>
	<circle cx="454.909" cy="500" r="4" fill="#0" id="circle77"/>
	<circle cx="457.414" cy="695.394" r="4" fill="#0" id="circle78"/>
	<circle cx="462.424" cy="720.444" r="4" fill="#0" id="circle79"/>
	<circle cx="464.929" cy="945.899" r="4" fill="#0" id="circle80"/>
	<circle cx="474.949" cy="479.96" r="4" fill="#0" id="circle81"/>
	<circle cx="474.949" cy="742.99" r="4" fill="#0" id="circle82"/>
	<circle cx="477.455" cy="129.253" r="4" fill="#0" id="circle83"/>
	<circle cx="482.465" cy="768.04" r="4" fill="#0" id="circle84"/>
	<circle cx="489.98" cy="945.899" r="4" fill="#0" id="circle85"/>
	<circle cx="494.99" cy="457.414" r="4" fill="#0" id="circle86"/>
	<circle cx="494.99" cy="790.586" r="4" fill="#0" id="circle87"/>
	<circle cx="502.505" cy="131.758" r="4" fill="#0" id="circle88"/>
	<circle cx="507.515" cy="813.131" r="4" fill="#0" id="circle89"/>
	<circle cx="512.525" cy="930.869" r="4" fill="#0" id="circle90"/>
	<circle cx="517.535" cy="444.889" r="4" fill="#0" id="circle91"/>
	<circle cx="517.535" cy="587.677" r="4" fill="#0" id="circle92"/>
	<circle cx="517.535" cy="612.727" r="4" fill="#0" id="circle93"/>
	<circle cx="517.535" cy="637.778" r="4" fill="#0" id="circle94"/>
	<circle cx="517.535" cy="662.828" r="4" fill="#0" id="circle95"/>
	<circle cx="520.04" cy="835.677" r="4" fill="#0" id="circle96"/>
	<circle cx="527.556" cy="141.778" r="4" fill="#0" id="circle97"/>
	<circle cx="530.061" cy="500" r="4" fill="#0" id="circle98"/>
	<circle cx="530.061" cy="525.051" r="4" fill="#0" id="circle99"/>
	<circle cx="530.061" cy="550.101" r="4" fill="#0" id="circle100"/>
	<circle cx="532.566" cy="858.222" r="4" fill="#0" id="circle101"/>
	<circle cx="532.566" cy="883.273" r="4" fill="#0" id="circle102"/>
	<circle cx="532.566" cy="908.323" r="4" fill="#0" id="circle103"/>
	<circle cx="537.576" cy="680.364" r="4" fill="#0" id="circle104"/>
	<circle cx="542.586" cy="444.889" r="4" fill="#0" id="circle105"/>
	<circle cx="542.586" cy="469.939" r="4" fill="#0" id="circle106"/>
	<circle cx="550.101" cy="154.303" r="4" fill="#0" id="circle107"/>
	<circle cx="557.616" cy="695.394" r="4" fill="#0" id="circle108"/>
	<circle cx="572.646" cy="166.828" r="4" fill="#0" id="circle109"/>
	<circle cx="580.162" cy="682.869" r="4" fill="#0" id="circle110"/>
	<circle cx="592.687" cy="184.364" r="4" fill="#0" id="circle111"/>
	<circle cx="600.202" cy="667.838" r="4" fill="#0" id="circle112"/>
	<circle cx="615.232" cy="196.889" r="4" fill="#0" id="circle113"/>
	<circle cx="620.242" cy="645.293" r="4" fill="#0" id="circle114"/>
	<circle cx="632.768" cy="216.929" r="4" fill="#0" id="circle115"/>
	<circle cx="640.283" cy="627.758" r="4" fill="#0" id="circle116"/>
	<circle cx="652.808" cy="231.96" r="4" fill="#0" id="circle117"/>
	<circle cx="665.333" cy="615.232" r="4" fill="#0" id="circle118"/>
	<circle cx="670.343" cy="252" r="4" fill="#0" id="circle119"/>
	<circle cx="690.384" cy="269.535" r="4" fill="#0" id="circle120"/>
	<circle cx="690.384" cy="607.717" r="4" fill="#0" id="circle121"/>
	<circle cx="695.394" cy="382.263" r="4" fill="#0" id="circle122"/>
	<circle cx="695.394" cy="407.313" r="4" fill="#0" id="circle123"/>
	<circle cx="695.394" cy="432.364" r="4" fill="#0" id="circle124"/>
	<circle cx="695.394" cy="457.414" r="4" fill="#0" id="circle125"/>
	<circle cx="695.394" cy="482.465" r="4" fill="#0" id="circle126"/>
	<circle cx="695.394" cy="507.515" r="4" fill="#0" id="circle127"/>
	<circle cx="695.394" cy="532.566" r="4" fill="#0" id="circle128"/>
	<circle cx="707.919" cy="289.576" r="4" fill="#0" id="circle129"/>
	<circle cx="707.919" cy="314.626" r="4" fill="#0" id="circle130"/>
	<circle cx="707.919" cy="339.677" r="4" fill="#0" id="circle131"/>
	<circle cx="707.919" cy="555.111" r="4" fill="#0" id="circle132"/>
	<circle cx="712.929" cy="595.192" r="4" fill="#0" id="circle133"/>
	<circle cx="732.97" cy="547.596" r="4" fill="#0" id="circle134"/>
	<circle cx="737.98" cy="595.192" r="4" fill="#0" id="circle135"/>
	<circle cx="753.01" cy="530.061" r="4" fill="#0" id="circle136"/>
	<circle cx="763.03" cy="595.192" r="4" fill="#0" id="circle137"/>
	<circle cx="770.545" cy="510.02" r="4" fill="#0" id="circle138"/>
	<circle cx="788.081" cy="595.192" r="4" fill="#0" id="circle139"/>
	<circle cx="790.586" cy="492.485" r="4" fill="#0" id="circle140"/>
	<circle cx="813.131" cy="479.96" r="4" fill="#0" id="circle141"/>
	<circle cx="813.131" cy="595.192" r="4" fill="#0" id="circle142"/>
	<circle cx="833.172" cy="459.919" r="4" fill="#0" id="circle143"/>
	<circle cx="838.182" cy="595.192" r="4" fill="#0" id="circle144"/>
	<circle cx="858.222" cy="447.394" r="4" fill="#0" id="circle145"/>
	<circle cx="863.232" cy="595.192" r="4" fill="#0" id="circle146"/>
	<circle cx="883.273" cy="434.869" r="4" fill="#0" id="circle147"/>
	<circle cx="888.283" cy="595.192" r="4" fill="#0" id="circle148"/>
	<circle cx="908.323" cy="437.374" r="4" fill="#0" id="circle149"/>
	<circle cx="913.333" cy="595.192" r="4" fill="#0" id="circle150"/>
	<circle cx="930.869" cy="449.899" r="4" fill="#0" id="circle151"/>
	<circle cx="938.384" cy="605.212" r="4" fill="#0" id="circle152"/>
	<circle cx="955.919" cy="459.919" r="4" fill="#0" id="circle153"/>
	<circle cx="958.424" cy="620.242" r="4" fill="#0" id="circle154"/>
	<circle cx="978.465" cy="472.444" r="4" fill="#0" id="circle155"/>
	<circle cx="983.475" cy="607.717" r="4" fill="#0" id="circle156"/>
	<circle cx="990.99" cy="494.99" r="4" fill="#0" id="circle157"/>
	<circle cx="996" cy="520.04" r="4" fill="#0" id="circle158"/>
	<circle cx="996" cy="545.091" r="4" fill="#0" id="circle159"/>
	<circle cx="996" cy="570.141" r="4" fill="#0" id="circle160"/>
	</g>
</svg>