<?xml version="1.0" encoding="UTF-8" standalone="no"?>
<!-- Created with CurveBenchmark -->
<svg
	xmlns:dc="http://purl.org/dc/elements/1.1/"
	xmlns:cc="http://creativecommons.org/ns#"
	xmlns:rdf="http://www.w3.org/1999/02/22-rdf-syntax-ns#"
	xmlns:svg="http://www.w3.org/2000/svg"
	xmlns="http://www.w3.org/2000/svg"
	xmlns:sodipodi="http://sodipodi.sourceforge.net/DTD/sodipodi-0.dtd"
	xmlns:inkscape="http://www.inkscape.org/namespaces/inkscape"
	width="1000"
	height="1000"
	id="svg2"
	version="1.1"
	sodipodi:docname="manifold/peel-bed040.png.txt">
<defs
	id="defs4" />
<metadata
	id="metadata7">
	<rdf:RDF>
		<cc:Work
			rdf:about="">
			<dc:format>image/svg+xml</dc:format>
			<dc:type
				rdf:resource="http://purl.org/dc/dcmitype/StillImage" />
			<dc:title></dc:title>
		</cc:Work>
	</rdf:RDF>
</metadata>
<g
	inkscape:label="Layer 1"
	inkscape:groupmode="layer"
	id="layer1">
	<path style="fill:none;stroke:red;stroke-width:1px;stroke-linecap:butt;stroke-linejoin:miter;stroke-opacity:1" d="M 7.32886,150.47 4,133.826 z" id="boundary" inkscape:connector-curvature="0" />
	<path style="fill:none;stroke:red;stroke-width:1px;stroke-linecap:butt;stroke-linejoin:miter;stroke-opacity:1" d="M 4,133.826 10.6577,117.181 z" id="boundary" inkscape:connector-curvature="0" />
	<path style="fill:none;stroke:red;stroke-width:1px;stroke-linecap:butt;stroke-linejoin:miter;stroke-opacity:1" d="M 7.32886,380.161 7.32886,363.517 z" id="boundary" inkscape:connector-curvature="0" />
	<path style="fill:none;stroke:red;stroke-width:1px;stroke-linecap:butt;stroke-linejoin:miter;stroke-opacity:1" d="M 7.32886,363.517 7.32886,346.872 z" id="boundary" inkscape:connector-curvature="0" />
	<path style="fill:none;stroke:red;stroke-width:1px;stroke-linecap:butt;stroke-linejoin:miter;stroke-opacity:1" d="M 10.6577,117.181 23.9732,107.195 z" id="boundary" inkscape:connector-curvature="0" />
	<path style="fill:none;stroke:red;stroke-width:1px;stroke-linecap:butt;stroke-linejoin:miter;stroke-opacity:1" d="M 7.32886,396.805 7.32886,380.161 z" id="boundary" inkscape:connector-curvature="0" />
	<path style="fill:none;stroke:red;stroke-width:1px;stroke-linecap:butt;stroke-linejoin:miter;stroke-opacity:1" d="M 7.32886,346.872 10.6577,326.899 z" id="boundary" inkscape:connector-curvature="0" />
	<path style="fill:none;stroke:red;stroke-width:1px;stroke-linecap:butt;stroke-linejoin:miter;stroke-opacity:1" d="M 7.32886,413.45 7.32886,396.805 z" id="boundary" inkscape:connector-curvature="0" />
	<path style="fill:none;stroke:red;stroke-width:1px;stroke-linecap:butt;stroke-linejoin:miter;stroke-opacity:1" d="M 7.32886,430.094 7.32886,413.45 z" id="boundary" inkscape:connector-curvature="0" />
	<path style="fill:none;stroke:red;stroke-width:1px;stroke-linecap:butt;stroke-linejoin:miter;stroke-opacity:1" d="M 10.6577,326.899 10.6577,310.255 z" id="boundary" inkscape:connector-curvature="0" />
	<path style="fill:none;stroke:red;stroke-width:1px;stroke-linecap:butt;stroke-linejoin:miter;stroke-opacity:1" d="M 23.9732,107.195 37.2886,97.2081 z" id="boundary" inkscape:connector-curvature="0" />
	<path style="fill:none;stroke:red;stroke-width:1px;stroke-linecap:butt;stroke-linejoin:miter;stroke-opacity:1" d="M 13.9866,283.624 10.6577,310.255 z" id="boundary" inkscape:connector-curvature="0" />
	<path style="fill:none;stroke:red;stroke-width:1px;stroke-linecap:butt;stroke-linejoin:miter;stroke-opacity:1" d="M 10.6577,463.383 10.6577,446.738 z" id="boundary" inkscape:connector-curvature="0" />
	<path style="fill:none;stroke:red;stroke-width:1px;stroke-linecap:butt;stroke-linejoin:miter;stroke-opacity:1" d="M 10.6577,446.738 7.32886,430.094 z" id="boundary" inkscape:connector-curvature="0" />
	<path style="fill:none;stroke:red;stroke-width:1px;stroke-linecap:butt;stroke-linejoin:miter;stroke-opacity:1" d="M 13.9866,283.624 17.3154,266.98 z" id="boundary" inkscape:connector-curvature="0" />
	<path style="fill:none;stroke:red;stroke-width:1px;stroke-linecap:butt;stroke-linejoin:miter;stroke-opacity:1" d="M 17.3154,200.403 17.3154,183.758 z" id="boundary" inkscape:connector-curvature="0" />
	<path style="fill:none;stroke:red;stroke-width:1px;stroke-linecap:butt;stroke-linejoin:miter;stroke-opacity:1" d="M 17.3154,183.758 13.9866,167.114 z" id="boundary" inkscape:connector-curvature="0" />
	<path style="fill:none;stroke:red;stroke-width:1px;stroke-linecap:butt;stroke-linejoin:miter;stroke-opacity:1" d="M 17.3154,200.403 17.3154,217.047 z" id="boundary" inkscape:connector-curvature="0" />
	<path style="fill:none;stroke:red;stroke-width:1px;stroke-linecap:butt;stroke-linejoin:miter;stroke-opacity:1" d="M 7.32886,150.47 13.9866,167.114 z" id="boundary" inkscape:connector-curvature="0" />
	<path style="fill:none;stroke:red;stroke-width:1px;stroke-linecap:butt;stroke-linejoin:miter;stroke-opacity:1" d="M 13.9866,496.671 13.9866,480.027 z" id="boundary" inkscape:connector-curvature="0" />
	<path style="fill:none;stroke:red;stroke-width:1px;stroke-linecap:butt;stroke-linejoin:miter;stroke-opacity:1" d="M 13.9866,480.027 10.6577,463.383 z" id="boundary" inkscape:connector-curvature="0" />
	<path style="fill:none;stroke:red;stroke-width:1px;stroke-linecap:butt;stroke-linejoin:miter;stroke-opacity:1" d="M 17.3154,250.336 17.3154,233.691 z" id="boundary" inkscape:connector-curvature="0" />
	<path style="fill:none;stroke:red;stroke-width:1px;stroke-linecap:butt;stroke-linejoin:miter;stroke-opacity:1" d="M 17.3154,217.047 17.3154,233.691 z" id="boundary" inkscape:connector-curvature="0" />
	<path style="fill:none;stroke:red;stroke-width:1px;stroke-linecap:butt;stroke-linejoin:miter;stroke-opacity:1" d="M 37.2886,97.2081 53.9329,90.5503 z" id="boundary" inkscape:connector-curvature="0" />
	<path style="fill:none;stroke:red;stroke-width:1px;stroke-linecap:butt;stroke-linejoin:miter;stroke-opacity:1" d="M 70.5772,83.8926 53.9329,90.5503 z" id="boundary" inkscape:connector-curvature="0" />
	<path style="fill:none;stroke:red;stroke-width:1px;stroke-linecap:butt;stroke-linejoin:miter;stroke-opacity:1" d="M 17.3154,266.98 17.3154,250.336 z" id="boundary" inkscape:connector-curvature="0" />
	<path style="fill:none;stroke:red;stroke-width:1px;stroke-linecap:butt;stroke-linejoin:miter;stroke-opacity:1" d="M 70.5772,83.8926 87.2215,77.2349 z" id="boundary" inkscape:connector-curvature="0" />
	<path style="fill:none;stroke:red;stroke-width:1px;stroke-linecap:butt;stroke-linejoin:miter;stroke-opacity:1" d="M 87.2215,77.2349 103.866,73.906 z" id="boundary" inkscape:connector-curvature="0" />
	<path style="fill:none;stroke:red;stroke-width:1px;stroke-linecap:butt;stroke-linejoin:miter;stroke-opacity:1" d="M 37.2886,466.711 35.6242,450.067 z" id="boundary" inkscape:connector-curvature="0" />
	<path style="fill:none;stroke:red;stroke-width:1px;stroke-linecap:butt;stroke-linejoin:miter;stroke-opacity:1" d="M 120.51,70.5772 103.866,73.906 z" id="boundary" inkscape:connector-curvature="0" />
	<path style="fill:none;stroke:red;stroke-width:1px;stroke-linecap:butt;stroke-linejoin:miter;stroke-opacity:1" d="M 13.9866,496.671 15.651,513.315 z" id="boundary" inkscape:connector-curvature="0" />
	<path style="fill:none;stroke:red;stroke-width:1px;stroke-linecap:butt;stroke-linejoin:miter;stroke-opacity:1" d="M 32.2953,514.98 15.651,513.315 z" id="boundary" inkscape:connector-curvature="0" />
	<path style="fill:none;stroke:red;stroke-width:1px;stroke-linecap:butt;stroke-linejoin:miter;stroke-opacity:1" d="M 32.2953,514.98 32.2953,496.671 z" id="boundary" inkscape:connector-curvature="0" />
	<path style="fill:none;stroke:red;stroke-width:1px;stroke-linecap:butt;stroke-linejoin:miter;stroke-opacity:1" d="M 52.2685,448.403 68.9128,448.403 z" id="boundary" inkscape:connector-curvature="0" />
	<path style="fill:none;stroke:red;stroke-width:1px;stroke-linecap:butt;stroke-linejoin:miter;stroke-opacity:1" d="M 52.2685,448.403 35.6242,450.067 z" id="boundary" inkscape:connector-curvature="0" />
	<path style="fill:none;stroke:red;stroke-width:1px;stroke-linecap:butt;stroke-linejoin:miter;stroke-opacity:1" d="M 68.9128,448.403 85.557,451.732 z" id="boundary" inkscape:connector-curvature="0" />
	<path style="fill:none;stroke:red;stroke-width:1px;stroke-linecap:butt;stroke-linejoin:miter;stroke-opacity:1" d="M 137.154,63.9195 153.799,60.5906 z" id="boundary" inkscape:connector-curvature="0" />
	<path style="fill:none;stroke:red;stroke-width:1px;stroke-linecap:butt;stroke-linejoin:miter;stroke-opacity:1" d="M 137.154,63.9195 120.51,70.5772 z" id="boundary" inkscape:connector-curvature="0" />
	<path style="fill:none;stroke:red;stroke-width:1px;stroke-linecap:butt;stroke-linejoin:miter;stroke-opacity:1" d="M 102.201,451.732 85.557,451.732 z" id="boundary" inkscape:connector-curvature="0" />
	<path style="fill:none;stroke:red;stroke-width:1px;stroke-linecap:butt;stroke-linejoin:miter;stroke-opacity:1" d="M 118.846,451.732 102.201,451.732 z" id="boundary" inkscape:connector-curvature="0" />
	<path style="fill:none;stroke:red;stroke-width:1px;stroke-linecap:butt;stroke-linejoin:miter;stroke-opacity:1" d="M 135.49,451.732 118.846,451.732 z" id="boundary" inkscape:connector-curvature="0" />
	<path style="fill:none;stroke:red;stroke-width:1px;stroke-linecap:butt;stroke-linejoin:miter;stroke-opacity:1" d="M 152.134,451.732 135.49,451.732 z" id="boundary" inkscape:connector-curvature="0" />
	<path style="fill:none;stroke:red;stroke-width:1px;stroke-linecap:butt;stroke-linejoin:miter;stroke-opacity:1" d="M 168.779,451.732 152.134,451.732 z" id="boundary" inkscape:connector-curvature="0" />
	<path style="fill:none;stroke:red;stroke-width:1px;stroke-linecap:butt;stroke-linejoin:miter;stroke-opacity:1" d="M 167.114,50.604 153.799,60.5906 z" id="boundary" inkscape:connector-curvature="0" />
	<path style="fill:none;stroke:red;stroke-width:1px;stroke-linecap:butt;stroke-linejoin:miter;stroke-opacity:1" d="M 167.114,50.604 182.094,42.2819 z" id="boundary" inkscape:connector-curvature="0" />
	<path style="fill:none;stroke:red;stroke-width:1px;stroke-linecap:butt;stroke-linejoin:miter;stroke-opacity:1" d="M 288.617,40.6174 271.973,33.9597 z" id="boundary" inkscape:connector-curvature="0" />
	<path style="fill:none;stroke:red;stroke-width:1px;stroke-linecap:butt;stroke-linejoin:miter;stroke-opacity:1" d="M 185.423,451.732 168.779,451.732 z" id="boundary" inkscape:connector-curvature="0" />
	<path style="fill:none;stroke:red;stroke-width:1px;stroke-linecap:butt;stroke-linejoin:miter;stroke-opacity:1" d="M 198.738,35.6242 212.054,22.3087 z" id="boundary" inkscape:connector-curvature="0" />
	<path style="fill:none;stroke:red;stroke-width:1px;stroke-linecap:butt;stroke-linejoin:miter;stroke-opacity:1" d="M 202.067,451.732 185.423,451.732 z" id="boundary" inkscape:connector-curvature="0" />
	<path style="fill:none;stroke:red;stroke-width:1px;stroke-linecap:butt;stroke-linejoin:miter;stroke-opacity:1" d="M 261.987,20.6443 253.664,5.66443 z" id="boundary" inkscape:connector-curvature="0" />
	<path style="fill:none;stroke:red;stroke-width:1px;stroke-linecap:butt;stroke-linejoin:miter;stroke-opacity:1" d="M 253.664,5.66443 237.02,4 z" id="boundary" inkscape:connector-curvature="0" />
	<path style="fill:none;stroke:red;stroke-width:1px;stroke-linecap:butt;stroke-linejoin:miter;stroke-opacity:1" d="M 218.711,451.732 202.067,451.732 z" id="boundary" inkscape:connector-curvature="0" />
	<path style="fill:none;stroke:red;stroke-width:1px;stroke-linecap:butt;stroke-linejoin:miter;stroke-opacity:1" d="M 182.094,42.2819 198.738,35.6242 z" id="boundary" inkscape:connector-curvature="0" />
	<path style="fill:none;stroke:red;stroke-width:1px;stroke-linecap:butt;stroke-linejoin:miter;stroke-opacity:1" d="M 220.376,7.32886 237.02,4 z" id="boundary" inkscape:connector-curvature="0" />
	<path style="fill:none;stroke:red;stroke-width:1px;stroke-linecap:butt;stroke-linejoin:miter;stroke-opacity:1" d="M 220.376,7.32886 212.054,22.3087 z" id="boundary" inkscape:connector-curvature="0" />
	<path style="fill:none;stroke:red;stroke-width:1px;stroke-linecap:butt;stroke-linejoin:miter;stroke-opacity:1" d="M 235.356,451.732 218.711,451.732 z" id="boundary" inkscape:connector-curvature="0" />
	<path style="fill:none;stroke:red;stroke-width:1px;stroke-linecap:butt;stroke-linejoin:miter;stroke-opacity:1" d="M 252,451.732 235.356,451.732 z" id="boundary" inkscape:connector-curvature="0" />
	<path style="fill:none;stroke:red;stroke-width:1px;stroke-linecap:butt;stroke-linejoin:miter;stroke-opacity:1" d="M 261.987,20.6443 271.973,33.9597 z" id="boundary" inkscape:connector-curvature="0" />
	<path style="fill:none;stroke:red;stroke-width:1px;stroke-linecap:butt;stroke-linejoin:miter;stroke-opacity:1" d="M 268.644,451.732 285.289,451.732 z" id="boundary" inkscape:connector-curvature="0" />
	<path style="fill:none;stroke:red;stroke-width:1px;stroke-linecap:butt;stroke-linejoin:miter;stroke-opacity:1" d="M 310.255,63.9195 305.262,47.2752 z" id="boundary" inkscape:connector-curvature="0" />
	<path style="fill:none;stroke:red;stroke-width:1px;stroke-linecap:butt;stroke-linejoin:miter;stroke-opacity:1" d="M 305.262,47.2752 288.617,40.6174 z" id="boundary" inkscape:connector-curvature="0" />
	<path style="fill:none;stroke:red;stroke-width:1px;stroke-linecap:butt;stroke-linejoin:miter;stroke-opacity:1" d="M 285.289,451.732 301.933,451.732 z" id="boundary" inkscape:connector-curvature="0" />
	<path style="fill:none;stroke:red;stroke-width:1px;stroke-linecap:butt;stroke-linejoin:miter;stroke-opacity:1" d="M 301.933,451.732 318.577,451.732 z" id="boundary" inkscape:connector-curvature="0" />
	<path style="fill:none;stroke:red;stroke-width:1px;stroke-linecap:butt;stroke-linejoin:miter;stroke-opacity:1" d="M 443.409,203.732 441.745,187.087 z" id="boundary" inkscape:connector-curvature="0" />
	<path style="fill:none;stroke:red;stroke-width:1px;stroke-linecap:butt;stroke-linejoin:miter;stroke-opacity:1" d="M 351.866,451.732 335.221,451.732 z" id="boundary" inkscape:connector-curvature="0" />
	<path style="fill:none;stroke:red;stroke-width:1px;stroke-linecap:butt;stroke-linejoin:miter;stroke-opacity:1" d="M 360.188,73.906 343.544,70.5772 z" id="boundary" inkscape:connector-curvature="0" />
	<path style="fill:none;stroke:red;stroke-width:1px;stroke-linecap:butt;stroke-linejoin:miter;stroke-opacity:1" d="M 326.899,65.5839 343.544,70.5772 z" id="boundary" inkscape:connector-curvature="0" />
	<path style="fill:none;stroke:red;stroke-width:1px;stroke-linecap:butt;stroke-linejoin:miter;stroke-opacity:1" d="M 326.899,65.5839 310.255,63.9195 z" id="boundary" inkscape:connector-curvature="0" />
	<path style="fill:none;stroke:red;stroke-width:1px;stroke-linecap:butt;stroke-linejoin:miter;stroke-opacity:1" d="M 368.51,451.732 351.866,451.732 z" id="boundary" inkscape:connector-curvature="0" />
	<path style="fill:none;stroke:red;stroke-width:1px;stroke-linecap:butt;stroke-linejoin:miter;stroke-opacity:1" d="M 268.644,451.732 252,451.732 z" id="boundary" inkscape:connector-curvature="0" />
	<path style="fill:none;stroke:red;stroke-width:1px;stroke-linecap:butt;stroke-linejoin:miter;stroke-opacity:1" d="M 376.832,78.8993 360.188,73.906 z" id="boundary" inkscape:connector-curvature="0" />
	<path style="fill:none;stroke:red;stroke-width:1px;stroke-linecap:butt;stroke-linejoin:miter;stroke-opacity:1" d="M 435.087,513.315 430.094,496.671 z" id="boundary" inkscape:connector-curvature="0" />
	<path style="fill:none;stroke:red;stroke-width:1px;stroke-linecap:butt;stroke-linejoin:miter;stroke-opacity:1" d="M 441.745,187.087 441.745,170.443 z" id="boundary" inkscape:connector-curvature="0" />
	<path style="fill:none;stroke:red;stroke-width:1px;stroke-linecap:butt;stroke-linejoin:miter;stroke-opacity:1" d="M 368.51,451.732 385.154,451.732 z" id="boundary" inkscape:connector-curvature="0" />
	<path style="fill:none;stroke:red;stroke-width:1px;stroke-linecap:butt;stroke-linejoin:miter;stroke-opacity:1" d="M 410.121,90.5503 393.477,83.8926 z" id="boundary" inkscape:connector-curvature="0" />
	<path style="fill:none;stroke:red;stroke-width:1px;stroke-linecap:butt;stroke-linejoin:miter;stroke-opacity:1" d="M 425.101,98.8725 410.121,90.5503 z" id="boundary" inkscape:connector-curvature="0" />
	<path style="fill:none;stroke:red;stroke-width:1px;stroke-linecap:butt;stroke-linejoin:miter;stroke-opacity:1" d="M 385.154,451.732 401.799,451.732 z" id="boundary" inkscape:connector-curvature="0" />
	<path style="fill:none;stroke:red;stroke-width:1px;stroke-linecap:butt;stroke-linejoin:miter;stroke-opacity:1" d="M 393.477,83.8926 376.832,78.8993 z" id="boundary" inkscape:connector-curvature="0" />
	<path style="fill:none;stroke:red;stroke-width:1px;stroke-linecap:butt;stroke-linejoin:miter;stroke-opacity:1" d="M 440.081,107.195 425.101,98.8725 z" id="boundary" inkscape:connector-curvature="0" />
	<path style="fill:none;stroke:red;stroke-width:1px;stroke-linecap:butt;stroke-linejoin:miter;stroke-opacity:1" d="M 418.443,451.732 428.43,465.047 z" id="boundary" inkscape:connector-curvature="0" />
	<path style="fill:none;stroke:red;stroke-width:1px;stroke-linecap:butt;stroke-linejoin:miter;stroke-opacity:1" d="M 418.443,451.732 401.799,451.732 z" id="boundary" inkscape:connector-curvature="0" />
	<path style="fill:none;stroke:red;stroke-width:1px;stroke-linecap:butt;stroke-linejoin:miter;stroke-opacity:1" d="M 318.577,451.732 335.221,451.732 z" id="boundary" inkscape:connector-curvature="0" />
	<path style="fill:none;stroke:red;stroke-width:1px;stroke-linecap:butt;stroke-linejoin:miter;stroke-opacity:1" d="M 450.067,495.007 430.094,496.671 z" id="boundary" inkscape:connector-curvature="0" />
	<path style="fill:none;stroke:red;stroke-width:1px;stroke-linecap:butt;stroke-linejoin:miter;stroke-opacity:1" d="M 451.732,514.98 435.087,513.315 z" id="boundary" inkscape:connector-curvature="0" />
	<path style="fill:none;stroke:red;stroke-width:1px;stroke-linecap:butt;stroke-linejoin:miter;stroke-opacity:1" d="M 686.416,247.007 673.101,256.993 z" id="boundary" inkscape:connector-curvature="0" />
	<path style="fill:none;stroke:red;stroke-width:1px;stroke-linecap:butt;stroke-linejoin:miter;stroke-opacity:1" d="M 460.054,207.06 443.409,203.732 z" id="boundary" inkscape:connector-curvature="0" />
	<path style="fill:none;stroke:red;stroke-width:1px;stroke-linecap:butt;stroke-linejoin:miter;stroke-opacity:1" d="M 451.732,153.799 441.745,170.443 z" id="boundary" inkscape:connector-curvature="0" />
	<path style="fill:none;stroke:red;stroke-width:1px;stroke-linecap:butt;stroke-linejoin:miter;stroke-opacity:1" d="M 451.732,153.799 458.389,135.49 z" id="boundary" inkscape:connector-curvature="0" />
	<path style="fill:none;stroke:red;stroke-width:1px;stroke-linecap:butt;stroke-linejoin:miter;stroke-opacity:1" d="M 451.732,514.98 450.067,495.007 z" id="boundary" inkscape:connector-curvature="0" />
	<path style="fill:none;stroke:red;stroke-width:1px;stroke-linecap:butt;stroke-linejoin:miter;stroke-opacity:1" d="M 453.396,118.846 458.389,135.49 z" id="boundary" inkscape:connector-curvature="0" />
	<path style="fill:none;stroke:red;stroke-width:1px;stroke-linecap:butt;stroke-linejoin:miter;stroke-opacity:1" d="M 428.43,465.047 455.06,468.376 z" id="boundary" inkscape:connector-curvature="0" />
	<path style="fill:none;stroke:red;stroke-width:1px;stroke-linecap:butt;stroke-linejoin:miter;stroke-opacity:1" d="M 455.06,468.376 453.396,451.732 z" id="boundary" inkscape:connector-curvature="0" />
	<path style="fill:none;stroke:red;stroke-width:1px;stroke-linecap:butt;stroke-linejoin:miter;stroke-opacity:1" d="M 440.081,107.195 453.396,118.846 z" id="boundary" inkscape:connector-curvature="0" />
	<path style="fill:none;stroke:red;stroke-width:1px;stroke-linecap:butt;stroke-linejoin:miter;stroke-opacity:1" d="M 490.013,468.376 486.685,451.732 z" id="boundary" inkscape:connector-curvature="0" />
	<path style="fill:none;stroke:red;stroke-width:1px;stroke-linecap:butt;stroke-linejoin:miter;stroke-opacity:1" d="M 486.685,451.732 470.04,451.732 z" id="boundary" inkscape:connector-curvature="0" />
	<path style="fill:none;stroke:red;stroke-width:1px;stroke-linecap:butt;stroke-linejoin:miter;stroke-opacity:1" d="M 491.678,220.376 476.698,212.054 z" id="boundary" inkscape:connector-curvature="0" />
	<path style="fill:none;stroke:red;stroke-width:1px;stroke-linecap:butt;stroke-linejoin:miter;stroke-opacity:1" d="M 476.698,212.054 460.054,207.06 z" id="boundary" inkscape:connector-curvature="0" />
	<path style="fill:none;stroke:red;stroke-width:1px;stroke-linecap:butt;stroke-linejoin:miter;stroke-opacity:1" d="M 544.94,260.322 534.953,247.007 z" id="boundary" inkscape:connector-curvature="0" />
	<path style="fill:none;stroke:red;stroke-width:1px;stroke-linecap:butt;stroke-linejoin:miter;stroke-opacity:1" d="M 470.04,451.732 453.396,451.732 z" id="boundary" inkscape:connector-curvature="0" />
	<path style="fill:none;stroke:red;stroke-width:1px;stroke-linecap:butt;stroke-linejoin:miter;stroke-opacity:1" d="M 490.013,468.376 493.342,485.02 z" id="boundary" inkscape:connector-curvature="0" />
	<path style="fill:none;stroke:red;stroke-width:1px;stroke-linecap:butt;stroke-linejoin:miter;stroke-opacity:1" d="M 491.678,220.376 506.658,228.698 z" id="boundary" inkscape:connector-curvature="0" />
	<path style="fill:none;stroke:red;stroke-width:1px;stroke-linecap:butt;stroke-linejoin:miter;stroke-opacity:1" d="M 519.973,238.685 506.658,228.698 z" id="boundary" inkscape:connector-curvature="0" />
	<path style="fill:none;stroke:red;stroke-width:1px;stroke-linecap:butt;stroke-linejoin:miter;stroke-opacity:1" d="M 493.342,485.02 493.342,509.987 z" id="boundary" inkscape:connector-curvature="0" />
	<path style="fill:none;stroke:red;stroke-width:1px;stroke-linecap:butt;stroke-linejoin:miter;stroke-opacity:1" d="M 534.953,247.007 519.973,238.685 z" id="boundary" inkscape:connector-curvature="0" />
	<path style="fill:none;stroke:red;stroke-width:1px;stroke-linecap:butt;stroke-linejoin:miter;stroke-opacity:1" d="M 508.322,518.309 493.342,509.987 z" id="boundary" inkscape:connector-curvature="0" />
	<path style="fill:none;stroke:red;stroke-width:1px;stroke-linecap:butt;stroke-linejoin:miter;stroke-opacity:1" d="M 521.638,490.013 521.638,506.658 z" id="boundary" inkscape:connector-curvature="0" />
	<path style="fill:none;stroke:red;stroke-width:1px;stroke-linecap:butt;stroke-linejoin:miter;stroke-opacity:1" d="M 521.638,506.658 508.322,518.309 z" id="boundary" inkscape:connector-curvature="0" />
	<path style="fill:none;stroke:red;stroke-width:1px;stroke-linecap:butt;stroke-linejoin:miter;stroke-opacity:1" d="M 524.966,460.054 541.611,458.389 z" id="boundary" inkscape:connector-curvature="0" />
	<path style="fill:none;stroke:red;stroke-width:1px;stroke-linecap:butt;stroke-linejoin:miter;stroke-opacity:1" d="M 574.899,465.047 591.544,468.376 z" id="boundary" inkscape:connector-curvature="0" />
	<path style="fill:none;stroke:red;stroke-width:1px;stroke-linecap:butt;stroke-linejoin:miter;stroke-opacity:1" d="M 541.611,458.389 558.255,458.389 z" id="boundary" inkscape:connector-curvature="0" />
	<path style="fill:none;stroke:red;stroke-width:1px;stroke-linecap:butt;stroke-linejoin:miter;stroke-opacity:1" d="M 544.94,260.322 558.255,270.309 z" id="boundary" inkscape:connector-curvature="0" />
	<path style="fill:none;stroke:red;stroke-width:1px;stroke-linecap:butt;stroke-linejoin:miter;stroke-opacity:1" d="M 558.255,458.389 574.899,465.047 z" id="boundary" inkscape:connector-curvature="0" />
	<path style="fill:none;stroke:red;stroke-width:1px;stroke-linecap:butt;stroke-linejoin:miter;stroke-opacity:1" d="M 574.899,276.966 558.255,270.309 z" id="boundary" inkscape:connector-curvature="0" />
	<path style="fill:none;stroke:red;stroke-width:1px;stroke-linecap:butt;stroke-linejoin:miter;stroke-opacity:1" d="M 591.544,273.638 574.899,276.966 z" id="boundary" inkscape:connector-curvature="0" />
	<path style="fill:none;stroke:red;stroke-width:1px;stroke-linecap:butt;stroke-linejoin:miter;stroke-opacity:1" d="M 591.544,468.376 608.188,463.383 z" id="boundary" inkscape:connector-curvature="0" />
	<path style="fill:none;stroke:red;stroke-width:1px;stroke-linecap:butt;stroke-linejoin:miter;stroke-opacity:1" d="M 608.188,270.309 591.544,273.638 z" id="boundary" inkscape:connector-curvature="0" />
	<path style="fill:none;stroke:red;stroke-width:1px;stroke-linecap:butt;stroke-linejoin:miter;stroke-opacity:1" d="M 656.456,460.054 671.436,468.376 z" id="boundary" inkscape:connector-curvature="0" />
	<path style="fill:none;stroke:red;stroke-width:1px;stroke-linecap:butt;stroke-linejoin:miter;stroke-opacity:1" d="M 623.168,455.06 608.188,463.383 z" id="boundary" inkscape:connector-curvature="0" />
	<path style="fill:none;stroke:red;stroke-width:1px;stroke-linecap:butt;stroke-linejoin:miter;stroke-opacity:1" d="M 639.812,455.06 656.456,460.054 z" id="boundary" inkscape:connector-curvature="0" />
	<path style="fill:none;stroke:red;stroke-width:1px;stroke-linecap:butt;stroke-linejoin:miter;stroke-opacity:1" d="M 624.832,268.644 608.188,270.309 z" id="boundary" inkscape:connector-curvature="0" />
	<path style="fill:none;stroke:red;stroke-width:1px;stroke-linecap:butt;stroke-linejoin:miter;stroke-opacity:1" d="M 639.812,455.06 623.168,455.06 z" id="boundary" inkscape:connector-curvature="0" />
	<path style="fill:none;stroke:red;stroke-width:1px;stroke-linecap:butt;stroke-linejoin:miter;stroke-opacity:1" d="M 641.477,266.98 624.832,268.644 z" id="boundary" inkscape:connector-curvature="0" />
	<path style="fill:none;stroke:red;stroke-width:1px;stroke-linecap:butt;stroke-linejoin:miter;stroke-opacity:1" d="M 671.436,468.376 688.081,475.034 z" id="boundary" inkscape:connector-curvature="0" />
	<path style="fill:none;stroke:red;stroke-width:1px;stroke-linecap:butt;stroke-linejoin:miter;stroke-opacity:1" d="M 641.477,266.98 658.121,266.98 z" id="boundary" inkscape:connector-curvature="0" />
	<path style="fill:none;stroke:red;stroke-width:1px;stroke-linecap:butt;stroke-linejoin:miter;stroke-opacity:1" d="M 673.101,256.993 658.121,266.98 z" id="boundary" inkscape:connector-curvature="0" />
	<path style="fill:none;stroke:red;stroke-width:1px;stroke-linecap:butt;stroke-linejoin:miter;stroke-opacity:1" d="M 688.081,475.034 704.725,481.691 z" id="boundary" inkscape:connector-curvature="0" />
	<path style="fill:none;stroke:red;stroke-width:1px;stroke-linecap:butt;stroke-linejoin:miter;stroke-opacity:1" d="M 686.416,247.007 703.06,240.349 z" id="boundary" inkscape:connector-curvature="0" />
	<path style="fill:none;stroke:red;stroke-width:1px;stroke-linecap:butt;stroke-linejoin:miter;stroke-opacity:1" d="M 762.98,233.691 779.624,240.349 z" id="boundary" inkscape:connector-curvature="0" />
	<path style="fill:none;stroke:red;stroke-width:1px;stroke-linecap:butt;stroke-linejoin:miter;stroke-opacity:1" d="M 719.705,233.691 703.06,240.349 z" id="boundary" inkscape:connector-curvature="0" />
	<path style="fill:none;stroke:red;stroke-width:1px;stroke-linecap:butt;stroke-linejoin:miter;stroke-opacity:1" d="M 721.369,485.02 704.725,481.691 z" id="boundary" inkscape:connector-curvature="0" />
	<path style="fill:none;stroke:red;stroke-width:1px;stroke-linecap:butt;stroke-linejoin:miter;stroke-opacity:1" d="M 733.02,223.705 749.664,223.705 z" id="boundary" inkscape:connector-curvature="0" />
	<path style="fill:none;stroke:red;stroke-width:1px;stroke-linecap:butt;stroke-linejoin:miter;stroke-opacity:1" d="M 733.02,223.705 719.705,233.691 z" id="boundary" inkscape:connector-curvature="0" />
	<path style="fill:none;stroke:red;stroke-width:1px;stroke-linecap:butt;stroke-linejoin:miter;stroke-opacity:1" d="M 738.013,488.349 721.369,485.02 z" id="boundary" inkscape:connector-curvature="0" />
	<path style="fill:none;stroke:red;stroke-width:1px;stroke-linecap:butt;stroke-linejoin:miter;stroke-opacity:1" d="M 749.664,223.705 762.98,233.691 z" id="boundary" inkscape:connector-curvature="0" />
	<path style="fill:none;stroke:red;stroke-width:1px;stroke-linecap:butt;stroke-linejoin:miter;stroke-opacity:1" d="M 754.658,488.349 738.013,488.349 z" id="boundary" inkscape:connector-curvature="0" />
	<path style="fill:none;stroke:red;stroke-width:1px;stroke-linecap:butt;stroke-linejoin:miter;stroke-opacity:1" d="M 809.584,256.993 796.268,247.007 z" id="boundary" inkscape:connector-curvature="0" />
	<path style="fill:none;stroke:red;stroke-width:1px;stroke-linecap:butt;stroke-linejoin:miter;stroke-opacity:1" d="M 796.268,247.007 779.624,240.349 z" id="boundary" inkscape:connector-curvature="0" />
	<path style="fill:none;stroke:red;stroke-width:1px;stroke-linecap:butt;stroke-linejoin:miter;stroke-opacity:1" d="M 771.302,485.02 754.658,488.349 z" id="boundary" inkscape:connector-curvature="0" />
	<path style="fill:none;stroke:red;stroke-width:1px;stroke-linecap:butt;stroke-linejoin:miter;stroke-opacity:1" d="M 962.711,503.329 971.034,518.309 z" id="boundary" inkscape:connector-curvature="0" />
	<path style="fill:none;stroke:red;stroke-width:1px;stroke-linecap:butt;stroke-linejoin:miter;stroke-opacity:1" d="M 802.926,471.705 787.946,480.027 z" id="boundary" inkscape:connector-curvature="0" />
	<path style="fill:none;stroke:red;stroke-width:1px;stroke-linecap:butt;stroke-linejoin:miter;stroke-opacity:1" d="M 787.946,480.027 771.302,485.02 z" id="boundary" inkscape:connector-curvature="0" />
	<path style="fill:none;stroke:red;stroke-width:1px;stroke-linecap:butt;stroke-linejoin:miter;stroke-opacity:1" d="M 819.57,465.047 802.926,471.705 z" id="boundary" inkscape:connector-curvature="0" />
	<path style="fill:none;stroke:red;stroke-width:1px;stroke-linecap:butt;stroke-linejoin:miter;stroke-opacity:1" d="M 824.564,265.315 809.584,256.993 z" id="boundary" inkscape:connector-curvature="0" />
	<path style="fill:none;stroke:red;stroke-width:1px;stroke-linecap:butt;stroke-linejoin:miter;stroke-opacity:1" d="M 882.819,466.711 869.503,456.725 z" id="boundary" inkscape:connector-curvature="0" />
	<path style="fill:none;stroke:red;stroke-width:1px;stroke-linecap:butt;stroke-linejoin:miter;stroke-opacity:1" d="M 869.503,456.725 852.859,455.06 z" id="boundary" inkscape:connector-curvature="0" />
	<path style="fill:none;stroke:red;stroke-width:1px;stroke-linecap:butt;stroke-linejoin:miter;stroke-opacity:1" d="M 836.215,458.389 819.57,465.047 z" id="boundary" inkscape:connector-curvature="0" />
	<path style="fill:none;stroke:red;stroke-width:1px;stroke-linecap:butt;stroke-linejoin:miter;stroke-opacity:1" d="M 841.208,266.98 824.564,265.315 z" id="boundary" inkscape:connector-curvature="0" />
	<path style="fill:none;stroke:red;stroke-width:1px;stroke-linecap:butt;stroke-linejoin:miter;stroke-opacity:1" d="M 836.215,458.389 852.859,455.06 z" id="boundary" inkscape:connector-curvature="0" />
	<path style="fill:none;stroke:red;stroke-width:1px;stroke-linecap:butt;stroke-linejoin:miter;stroke-opacity:1" d="M 857.852,266.98 874.497,270.309 z" id="boundary" inkscape:connector-curvature="0" />
	<path style="fill:none;stroke:red;stroke-width:1px;stroke-linecap:butt;stroke-linejoin:miter;stroke-opacity:1" d="M 857.852,266.98 841.208,266.98 z" id="boundary" inkscape:connector-curvature="0" />
	<path style="fill:none;stroke:red;stroke-width:1px;stroke-linecap:butt;stroke-linejoin:miter;stroke-opacity:1" d="M 874.497,270.309 891.141,273.638 z" id="boundary" inkscape:connector-curvature="0" />
	<path style="fill:none;stroke:red;stroke-width:1px;stroke-linecap:butt;stroke-linejoin:miter;stroke-opacity:1" d="M 916.107,461.718 899.463,468.376 z" id="boundary" inkscape:connector-curvature="0" />
	<path style="fill:none;stroke:red;stroke-width:1px;stroke-linecap:butt;stroke-linejoin:miter;stroke-opacity:1" d="M 891.141,273.638 907.785,276.966 z" id="boundary" inkscape:connector-curvature="0" />
	<path style="fill:none;stroke:red;stroke-width:1px;stroke-linecap:butt;stroke-linejoin:miter;stroke-opacity:1" d="M 962.711,503.329 962.711,486.685 z" id="boundary" inkscape:connector-curvature="0" />
	<path style="fill:none;stroke:red;stroke-width:1px;stroke-linecap:butt;stroke-linejoin:miter;stroke-opacity:1" d="M 899.463,468.376 882.819,466.711 z" id="boundary" inkscape:connector-curvature="0" />
	<path style="fill:none;stroke:red;stroke-width:1px;stroke-linecap:butt;stroke-linejoin:miter;stroke-opacity:1" d="M 907.785,276.966 924.43,280.295 z" id="boundary" inkscape:connector-curvature="0" />
	<path style="fill:none;stroke:red;stroke-width:1px;stroke-linecap:butt;stroke-linejoin:miter;stroke-opacity:1" d="M 981.02,356.859 981.02,373.503 z" id="boundary" inkscape:connector-curvature="0" />
	<path style="fill:none;stroke:red;stroke-width:1px;stroke-linecap:butt;stroke-linejoin:miter;stroke-opacity:1" d="M 962.711,486.685 962.711,468.376 z" id="boundary" inkscape:connector-curvature="0" />
	<path style="fill:none;stroke:red;stroke-width:1px;stroke-linecap:butt;stroke-linejoin:miter;stroke-opacity:1" d="M 962.711,468.376 949.396,458.389 z" id="boundary" inkscape:connector-curvature="0" />
	<path style="fill:none;stroke:red;stroke-width:1px;stroke-linecap:butt;stroke-linejoin:miter;stroke-opacity:1" d="M 941.074,283.624 924.43,280.295 z" id="boundary" inkscape:connector-curvature="0" />
	<path style="fill:none;stroke:red;stroke-width:1px;stroke-linecap:butt;stroke-linejoin:miter;stroke-opacity:1" d="M 932.752,458.389 949.396,458.389 z" id="boundary" inkscape:connector-curvature="0" />
	<path style="fill:none;stroke:red;stroke-width:1px;stroke-linecap:butt;stroke-linejoin:miter;stroke-opacity:1" d="M 957.718,290.282 974.362,296.94 z" id="boundary" inkscape:connector-curvature="0" />
	<path style="fill:none;stroke:red;stroke-width:1px;stroke-linecap:butt;stroke-linejoin:miter;stroke-opacity:1" d="M 941.074,283.624 957.718,290.282 z" id="boundary" inkscape:connector-curvature="0" />
	<path style="fill:none;stroke:red;stroke-width:1px;stroke-linecap:butt;stroke-linejoin:miter;stroke-opacity:1" d="M 932.752,458.389 916.107,461.718 z" id="boundary" inkscape:connector-curvature="0" />
	<path style="fill:none;stroke:red;stroke-width:1px;stroke-linecap:butt;stroke-linejoin:miter;stroke-opacity:1" d="M 977.691,413.45 977.691,396.805 z" id="boundary" inkscape:connector-curvature="0" />
	<path style="fill:none;stroke:red;stroke-width:1px;stroke-linecap:butt;stroke-linejoin:miter;stroke-opacity:1" d="M 977.691,430.094 977.691,413.45 z" id="boundary" inkscape:connector-curvature="0" />
	<path style="fill:none;stroke:red;stroke-width:1px;stroke-linecap:butt;stroke-linejoin:miter;stroke-opacity:1" d="M 979.356,446.738 977.691,430.094 z" id="boundary" inkscape:connector-curvature="0" />
	<path style="fill:none;stroke:red;stroke-width:1px;stroke-linecap:butt;stroke-linejoin:miter;stroke-opacity:1" d="M 977.691,396.805 981.02,373.503 z" id="boundary" inkscape:connector-curvature="0" />
	<path style="fill:none;stroke:red;stroke-width:1px;stroke-linecap:butt;stroke-linejoin:miter;stroke-opacity:1" d="M 986.013,463.383 979.356,446.738 z" id="boundary" inkscape:connector-curvature="0" />
	<path style="fill:none;stroke:red;stroke-width:1px;stroke-linecap:butt;stroke-linejoin:miter;stroke-opacity:1" d="M 986.013,463.383 987.678,480.027 z" id="boundary" inkscape:connector-curvature="0" />
	<path style="fill:none;stroke:red;stroke-width:1px;stroke-linecap:butt;stroke-linejoin:miter;stroke-opacity:1" d="M 981.02,356.859 994.336,340.215 z" id="boundary" inkscape:connector-curvature="0" />
	<path style="fill:none;stroke:red;stroke-width:1px;stroke-linecap:butt;stroke-linejoin:miter;stroke-opacity:1" d="M 987.678,513.315 971.034,518.309 z" id="boundary" inkscape:connector-curvature="0" />
	<path style="fill:none;stroke:red;stroke-width:1px;stroke-linecap:butt;stroke-linejoin:miter;stroke-opacity:1" d="M 987.678,513.315 981.02,496.671 z" id="boundary" inkscape:connector-curvature="0" />
	<path style="fill:none;stroke:red;stroke-width:1px;stroke-linecap:butt;stroke-linejoin:miter;stroke-opacity:1" d="M 987.678,480.027 981.02,496.671 z" id="boundary" inkscape:connector-curvature="0" />
	<path style="fill:none;stroke:red;stroke-width:1px;stroke-linecap:butt;stroke-linejoin:miter;stroke-opacity:1" d="M 974.362,296.94 987.678,306.926 z" id="boundary" inkscape:connector-curvature="0" />
	<path style="fill:none;stroke:red;stroke-width:1px;stroke-linecap:butt;stroke-linejoin:miter;stroke-opacity:1" d="M 996,321.906 994.336,340.215 z" id="boundary" inkscape:connector-curvature="0" />
	<path style="fill:none;stroke:red;stroke-width:1px;stroke-linecap:butt;stroke-linejoin:miter;stroke-opacity:1" d="M 996,321.906 987.678,306.926 z" id="boundary" inkscape:connector-curvature="0" />
	<circle cx="4" cy="133.826" r="4" fill="#0" id="circle0"/>
	<circle cx="7.32886" cy="150.47" r="4" fill="#0" id="circle1"/>
	<circle cx="7.32886" cy="346.872" r="4" fill="#0" id="circle2"/>
	<circle cx="7.32886" cy="363.517" r="4" fill="#0" id="circle3"/>
	<circle cx="7.32886" cy="380.161" r="4" fill="#0" id="circle4"/>
	<circle cx="7.32886" cy="396.805" r="4" fill="#0" id="circle5"/>
	<circle cx="7.32886" cy="413.45" r="4" fill="#0" id="circle6"/>
	<circle cx="7.32886" cy="430.094" r="4" fill="#0" id="circle7"/>
	<circle cx="10.6577" cy="117.181" r="4" fill="#0" id="circle8"/>
	<circle cx="10.6577" cy="310.255" r="4" fill="#0" id="circle9"/>
	<circle cx="10.6577" cy="326.899" r="4" fill="#0" id="circle10"/>
	<circle cx="10.6577" cy="446.738" r="4" fill="#0" id="circle11"/>
	<circle cx="10.6577" cy="463.383" r="4" fill="#0" id="circle12"/>
	<circle cx="13.9866" cy="167.114" r="4" fill="#0" id="circle13"/>
	<circle cx="13.9866" cy="283.624" r="4" fill="#0" id="circle14"/>
	<circle cx="13.9866" cy="480.027" r="4" fill="#0" id="circle15"/>
	<circle cx="13.9866" cy="496.671" r="4" fill="#0" id="circle16"/>
	<circle cx="15.651" cy="513.315" r="4" fill="#0" id="circle17"/>
	<circle cx="17.3154" cy="183.758" r="4" fill="#0" id="circle18"/>
	<circle cx="17.3154" cy="200.403" r="4" fill="#0" id="circle19"/>
	<circle cx="17.3154" cy="217.047" r="4" fill="#0" id="circle20"/>
	<circle cx="17.3154" cy="233.691" r="4" fill="#0" id="circle21"/>
	<circle cx="17.3154" cy="250.336" r="4" fill="#0" id="circle22"/>
	<circle cx="17.3154" cy="266.98" r="4" fill="#0" id="circle23"/>
	<circle cx="23.9732" cy="107.195" r="4" fill="#0" id="circle24"/>
	<circle cx="32.2953" cy="496.671" r="4" fill="#0" id="circle25"/>
	<circle cx="32.2953" cy="514.98" r="4" fill="#0" id="circle26"/>
	<circle cx="35.6242" cy="450.067" r="4" fill="#0" id="circle27"/>
	<circle cx="37.2886" cy="97.2081" r="4" fill="#0" id="circle28"/>
	<circle cx="37.2886" cy="466.711" r="4" fill="#0" id="circle29"/>
	<circle cx="52.2685" cy="448.403" r="4" fill="#0" id="circle30"/>
	<circle cx="53.9329" cy="90.5503" r="4" fill="#0" id="circle31"/>
	<circle cx="68.9128" cy="448.403" r="4" fill="#0" id="circle32"/>
	<circle cx="70.5772" cy="83.8926" r="4" fill="#0" id="circle33"/>
	<circle cx="85.557" cy="451.732" r="4" fill="#0" id="circle34"/>
	<circle cx="87.2215" cy="77.2349" r="4" fill="#0" id="circle35"/>
	<circle cx="102.201" cy="451.732" r="4" fill="#0" id="circle36"/>
	<circle cx="103.866" cy="73.906" r="4" fill="#0" id="circle37"/>
	<circle cx="118.846" cy="451.732" r="4" fill="#0" id="circle38"/>
	<circle cx="120.51" cy="70.5772" r="4" fill="#0" id="circle39"/>
	<circle cx="135.49" cy="451.732" r="4" fill="#0" id="circle40"/>
	<circle cx="137.154" cy="63.9195" r="4" fill="#0" id="circle41"/>
	<circle cx="152.134" cy="451.732" r="4" fill="#0" id="circle42"/>
	<circle cx="153.799" cy="60.5906" r="4" fill="#0" id="circle43"/>
	<circle cx="167.114" cy="50.604" r="4" fill="#0" id="circle44"/>
	<circle cx="168.779" cy="451.732" r="4" fill="#0" id="circle45"/>
	<circle cx="182.094" cy="42.2819" r="4" fill="#0" id="circle46"/>
	<circle cx="185.423" cy="451.732" r="4" fill="#0" id="circle47"/>
	<circle cx="198.738" cy="35.6242" r="4" fill="#0" id="circle48"/>
	<circle cx="202.067" cy="451.732" r="4" fill="#0" id="circle49"/>
	<circle cx="212.054" cy="22.3087" r="4" fill="#0" id="circle50"/>
	<circle cx="218.711" cy="451.732" r="4" fill="#0" id="circle51"/>
	<circle cx="220.376" cy="7.32886" r="4" fill="#0" id="circle52"/>
	<circle cx="235.356" cy="451.732" r="4" fill="#0" id="circle53"/>
	<circle cx="237.02" cy="4" r="4" fill="#0" id="circle54"/>
	<circle cx="252" cy="451.732" r="4" fill="#0" id="circle55"/>
	<circle cx="253.664" cy="5.66443" r="4" fill="#0" id="circle56"/>
	<circle cx="261.987" cy="20.6443" r="4" fill="#0" id="circle57"/>
	<circle cx="268.644" cy="451.732" r="4" fill="#0" id="circle58"/>
	<circle cx="271.973" cy="33.9597" r="4" fill="#0" id="circle59"/>
	<circle cx="285.289" cy="451.732" r="4" fill="#0" id="circle60"/>
	<circle cx="288.617" cy="40.6174" r="4" fill="#0" id="circle61"/>
	<circle cx="301.933" cy="451.732" r="4" fill="#0" id="circle62"/>
	<circle cx="305.262" cy="47.2752" r="4" fill="#0" id="circle63"/>
	<circle cx="310.255" cy="63.9195" r="4" fill="#0" id="circle64"/>
	<circle cx="318.577" cy="451.732" r="4" fill="#0" id="circle65"/>
	<circle cx="326.899" cy="65.5839" r="4" fill="#0" id="circle66"/>
	<circle cx="335.221" cy="451.732" r="4" fill="#0" id="circle67"/>
	<circle cx="343.544" cy="70.5772" r="4" fill="#0" id="circle68"/>
	<circle cx="351.866" cy="451.732" r="4" fill="#0" id="circle69"/>
	<circle cx="360.188" cy="73.906" r="4" fill="#0" id="circle70"/>
	<circle cx="368.51" cy="451.732" r="4" fill="#0" id="circle71"/>
	<circle cx="376.832" cy="78.8993" r="4" fill="#0" id="circle72"/>
	<circle cx="385.154" cy="451.732" r="4" fill="#0" id="circle73"/>
	<circle cx="393.477" cy="83.8926" r="4" fill="#0" id="circle74"/>
	<circle cx="401.799" cy="451.732" r="4" fill="#0" id="circle75"/>
	<circle cx="410.121" cy="90.5503" r="4" fill="#0" id="circle76"/>
	<circle cx="418.443" cy="451.732" r="4" fill="#0" id="circle77"/>
	<circle cx="425.101" cy="98.8725" r="4" fill="#0" id="circle78"/>
	<circle cx="428.43" cy="465.047" r="4" fill="#0" id="circle79"/>
	<circle cx="430.094" cy="496.671" r="4" fill="#0" id="circle80"/>
	<circle cx="435.087" cy="513.315" r="4" fill="#0" id="circle81"/>
	<circle cx="440.081" cy="107.195" r="4" fill="#0" id="circle82"/>
	<circle cx="441.745" cy="170.443" r="4" fill="#0" id="circle83"/>
	<circle cx="441.745" cy="187.087" r="4" fill="#0" id="circle84"/>
	<circle cx="443.409" cy="203.732" r="4" fill="#0" id="circle85"/>
	<circle cx="450.067" cy="495.007" r="4" fill="#0" id="circle86"/>
	<circle cx="451.732" cy="153.799" r="4" fill="#0" id="circle87"/>
	<circle cx="451.732" cy="514.98" r="4" fill="#0" id="circle88"/>
	<circle cx="453.396" cy="118.846" r="4" fill="#0" id="circle89"/>
	<circle cx="453.396" cy="451.732" r="4" fill="#0" id="circle90"/>
	<circle cx="455.06" cy="468.376" r="4" fill="#0" id="circle91"/>
	<circle cx="458.389" cy="135.49" r="4" fill="#0" id="circle92"/>
	<circle cx="460.054" cy="207.06" r="4" fill="#0" id="circle93"/>
	<circle cx="470.04" cy="451.732" r="4" fill="#0" id="circle94"/>
	<circle cx="476.698" cy="212.054" r="4" fill="#0" id="circle95"/>
	<circle cx="486.685" cy="451.732" r="4" fill="#0" id="circle96"/>
	<circle cx="490.013" cy="468.376" r="4" fill="#0" id="circle97"/>
	<circle cx="491.678" cy="220.376" r="4" fill="#0" id="circle98"/>
	<circle cx="493.342" cy="485.02" r="4" fill="#0" id="circle99"/>
	<circle cx="493.342" cy="509.987" r="4" fill="#0" id="circle100"/>
	<circle cx="506.658" cy="228.698" r="4" fill="#0" id="circle101"/>
	<circle cx="508.322" cy="518.309" r="4" fill="#0" id="circle102"/>
	<circle cx="519.973" cy="238.685" r="4" fill="#0" id="circle103"/>
	<circle cx="521.638" cy="490.013" r="4" fill="#0" id="circle104"/>
	<circle cx="521.638" cy="506.658" r="4" fill="#0" id="circle105"/>
	<circle cx="524.966" cy="460.054" r="4" fill="#0" id="circle106"/>
	<circle cx="534.953" cy="247.007" r="4" fill="#0" id="circle107"/>
	<circle cx="541.611" cy="458.389" r="4" fill="#0" id="circle108"/>
	<circle cx="544.94" cy="260.322" r="4" fill="#0" id="circle109"/>
	<circle cx="558.255" cy="270.309" r="4" fill="#0" id="circle110"/>
	<circle cx="558.255" cy="458.389" r="4" fill="#0" id="circle111"/>
	<circle cx="574.899" cy="276.966" r="4" fill="#0" id="circle112"/>
	<circle cx="574.899" cy="465.047" r="4" fill="#0" id="circle113"/>
	<circle cx="591.544" cy="273.638" r="4" fill="#0" id="circle114"/>
	<circle cx="591.544" cy="468.376" r="4" fill="#0" id="circle115"/>
	<circle cx="608.188" cy="270.309" r="4" fill="#0" id="circle116"/>
	<circle cx="608.188" cy="463.383" r="4" fill="#0" id="circle117"/>
	<circle cx="623.168" cy="455.06" r="4" fill="#0" id="circle118"/>
	<circle cx="624.832" cy="268.644" r="4" fill="#0" id="circle119"/>
	<circle cx="639.812" cy="455.06" r="4" fill="#0" id="circle120"/>
	<circle cx="641.477" cy="266.98" r="4" fill="#0" id="circle121"/>
	<circle cx="656.456" cy="460.054" r="4" fill="#0" id="circle122"/>
	<circle cx="658.121" cy="266.98" r="4" fill="#0" id="circle123"/>
	<circle cx="671.436" cy="468.376" r="4" fill="#0" id="circle124"/>
	<circle cx="673.101" cy="256.993" r="4" fill="#0" id="circle125"/>
	<circle cx="686.416" cy="247.007" r="4" fill="#0" id="circle126"/>
	<circle cx="688.081" cy="475.034" r="4" fill="#0" id="circle127"/>
	<circle cx="703.06" cy="240.349" r="4" fill="#0" id="circle128"/>
	<circle cx="704.725" cy="481.691" r="4" fill="#0" id="circle129"/>
	<circle cx="719.705" cy="233.691" r="4" fill="#0" id="circle130"/>
	<circle cx="721.369" cy="485.02" r="4" fill="#0" id="circle131"/>
	<circle cx="733.02" cy="223.705" r="4" fill="#0" id="circle132"/>
	<circle cx="738.013" cy="488.349" r="4" fill="#0" id="circle133"/>
	<circle cx="749.664" cy="223.705" r="4" fill="#0" id="circle134"/>
	<circle cx="754.658" cy="488.349" r="4" fill="#0" id="circle135"/>
	<circle cx="762.98" cy="233.691" r="4" fill="#0" id="circle136"/>
	<circle cx="771.302" cy="485.02" r="4" fill="#0" id="circle137"/>
	<circle cx="779.624" cy="240.349" r="4" fill="#0" id="circle138"/>
	<circle cx="787.946" cy="480.027" r="4" fill="#0" id="circle139"/>
	<circle cx="796.268" cy="247.007" r="4" fill="#0" id="circle140"/>
	<circle cx="802.926" cy="471.705" r="4" fill="#0" id="circle141"/>
	<circle cx="809.584" cy="256.993" r="4" fill="#0" id="circle142"/>
	<circle cx="819.57" cy="465.047" r="4" fill="#0" id="circle143"/>
	<circle cx="824.564" cy="265.315" r="4" fill="#0" id="circle144"/>
	<circle cx="836.215" cy="458.389" r="4" fill="#0" id="circle145"/>
	<circle cx="841.208" cy="266.98" r="4" fill="#0" id="circle146"/>
	<circle cx="852.859" cy="455.06" r="4" fill="#0" id="circle147"/>
	<circle cx="857.852" cy="266.98" r="4" fill="#0" id="circle148"/>
	<circle cx="869.503" cy="456.725" r="4" fill="#0" id="circle149"/>
	<circle cx="874.497" cy="270.309" r="4" fill="#0" id="circle150"/>
	<circle cx="882.819" cy="466.711" r="4" fill="#0" id="circle151"/>
	<circle cx="891.141" cy="273.638" r="4" fill="#0" id="circle152"/>
	<circle cx="899.463" cy="468.376" r="4" fill="#0" id="circle153"/>
	<circle cx="907.785" cy="276.966" r="4" fill="#0" id="circle154"/>
	<circle cx="916.107" cy="461.718" r="4" fill="#0" id="circle155"/>
	<circle cx="924.43" cy="280.295" r="4" fill="#0" id="circle156"/>
	<circle cx="932.752" cy="458.389" r="4" fill="#0" id="circle157"/>
	<circle cx="941.074" cy="283.624" r="4" fill="#0" id="circle158"/>
	<circle cx="949.396" cy="458.389" r="4" fill="#0" id="circle159"/>
	<circle cx="957.718" cy="290.282" r="4" fill="#0" id="circle160"/>
	<circle cx="962.711" cy="468.376" r="4" fill="#0" id="circle161"/>
	<circle cx="962.711" cy="486.685" r="4" fill="#0" id="circle162"/>
	<circle cx="962.711" cy="503.329" r="4" fill="#0" id="circle163"/>
	<circle cx="971.034" cy="518.309" r="4" fill="#0" id="circle164"/>
	<circle cx="974.362" cy="296.94" r="4" fill="#0" id="circle165"/>
	<circle cx="977.691" cy="396.805" r="4" fill="#0" id="circle166"/>
	<circle cx="977.691" cy="413.45" r="4" fill="#0" id="circle167"/>
	<circle cx="977.691" cy="430.094" r="4" fill="#0" id="circle168"/>
	<circle cx="979.356" cy="446.738" r="4" fill="#0" id="circle169"/>
	<circle cx="981.02" cy="356.859" r="4" fill="#0" id="circle170"/>
	<circle cx="981.02" cy="373.503" r="4" fill="#0" id="circle171"/>
	<circle cx="981.02" cy="496.671" r="4" fill="#0" id="circle172"/>
	<circle cx="986.013" cy="463.383" r="4" fill="#0" id="circle173"/>
	<circle cx="987.678" cy="306.926" r="4" fill="#0" id="circle174"/>
	<circle cx="987.678" cy="480.027" r="4" fill="#0" id="circle175"/>
	<circle cx="987.678" cy="513.315" r="4" fill="#0" id="circle176"/>
	<circle cx="994.336" cy="340.215" r="4" fill="#0" id="circle177"/>
	<circle cx="996" cy="321.906" r="4" fill="#0" id="circle178"/>
	</g>
</svg>