<?xml version="1.0" encoding="UTF-8" standalone="no"?>
<!-- Created with CurveBenchmark -->
<svg
	xmlns:dc="http://purl.org/dc/elements/1.1/"
	xmlns:cc="http://creativecommons.org/ns#"
	xmlns:rdf="http://www.w3.org/1999/02/22-rdf-syntax-ns#"
	xmlns:svg="http://www.w3.org/2000/svg"
	xmlns="http://www.w3.org/2000/svg"
	xmlns:sodipodi="http://sodipodi.sourceforge.net/DTD/sodipodi-0.dtd"
	xmlns:inkscape="http://www.inkscape.org/namespaces/inkscape"
	width="1000"
	height="1000"
	id="svg2"
	version="1.1"
	sodipodi:docname="manifold/peel-brick-05.png.txt">
<defs
	id="defs4" />
<metadata
	id="metadata7">
	<rdf:RDF>
		<cc:Work
			rdf:about="">
			<dc:format>image/svg+xml</dc:format>
			<dc:type
				rdf:resource="http://purl.org/dc/dcmitype/StillImage" />
			<dc:title></dc:title>
		</cc:Work>
	</rdf:RDF>
</metadata>
<g
	inkscape:label="Layer 1"
	inkscape:groupmode="layer"
	id="layer1">
	<path style="fill:none;stroke:red;stroke-width:1px;stroke-linecap:butt;stroke-linejoin:miter;stroke-opacity:1" d="M 4,260.166 4,251.57 z" id="boundary" inkscape:connector-curvature="0" />
	<path style="fill:none;stroke:red;stroke-width:1px;stroke-linecap:butt;stroke-linejoin:miter;stroke-opacity:1" d="M 4,260.166 8.29809,267.903 z" id="boundary" inkscape:connector-curvature="0" />
	<path style="fill:none;stroke:red;stroke-width:1px;stroke-linecap:butt;stroke-linejoin:miter;stroke-opacity:1" d="M 4,251.57 4,242.974 z" id="boundary" inkscape:connector-curvature="0" />
	<path style="fill:none;stroke:red;stroke-width:1px;stroke-linecap:butt;stroke-linejoin:miter;stroke-opacity:1" d="M 4,242.974 10.8769,236.097 z" id="boundary" inkscape:connector-curvature="0" />
	<path style="fill:none;stroke:red;stroke-width:1px;stroke-linecap:butt;stroke-linejoin:miter;stroke-opacity:1" d="M 223.203,4 231.799,4 z" id="boundary" inkscape:connector-curvature="0" />
	<path style="fill:none;stroke:red;stroke-width:1px;stroke-linecap:butt;stroke-linejoin:miter;stroke-opacity:1" d="M 10.8769,236.097 18.6135,231.799 z" id="boundary" inkscape:connector-curvature="0" />
	<path style="fill:none;stroke:red;stroke-width:1px;stroke-linecap:butt;stroke-linejoin:miter;stroke-opacity:1" d="M 12.5962,275.64 12.5962,284.236 z" id="boundary" inkscape:connector-curvature="0" />
	<path style="fill:none;stroke:red;stroke-width:1px;stroke-linecap:butt;stroke-linejoin:miter;stroke-opacity:1" d="M 12.5962,275.64 8.29809,267.903 z" id="boundary" inkscape:connector-curvature="0" />
	<path style="fill:none;stroke:red;stroke-width:1px;stroke-linecap:butt;stroke-linejoin:miter;stroke-opacity:1" d="M 21.1924,316.901 22.052,325.497 z" id="boundary" inkscape:connector-curvature="0" />
	<path style="fill:none;stroke:red;stroke-width:1px;stroke-linecap:butt;stroke-linejoin:miter;stroke-opacity:1" d="M 12.5962,284.236 16.8943,291.972 z" id="boundary" inkscape:connector-curvature="0" />
	<path style="fill:none;stroke:red;stroke-width:1px;stroke-linecap:butt;stroke-linejoin:miter;stroke-opacity:1" d="M 16.8943,291.972 16.8943,300.568 z" id="boundary" inkscape:connector-curvature="0" />
	<path style="fill:none;stroke:red;stroke-width:1px;stroke-linecap:butt;stroke-linejoin:miter;stroke-opacity:1" d="M 26.3501,227.501 18.6135,231.799 z" id="boundary" inkscape:connector-curvature="0" />
	<path style="fill:none;stroke:red;stroke-width:1px;stroke-linecap:butt;stroke-linejoin:miter;stroke-opacity:1" d="M 16.8943,300.568 21.1924,308.305 z" id="boundary" inkscape:connector-curvature="0" />
	<path style="fill:none;stroke:red;stroke-width:1px;stroke-linecap:butt;stroke-linejoin:miter;stroke-opacity:1" d="M 21.1924,308.305 21.1924,316.901 z" id="boundary" inkscape:connector-curvature="0" />
	<path style="fill:none;stroke:red;stroke-width:1px;stroke-linecap:butt;stroke-linejoin:miter;stroke-opacity:1" d="M 34.0867,217.185 40.9636,210.308 z" id="boundary" inkscape:connector-curvature="0" />
	<path style="fill:none;stroke:red;stroke-width:1px;stroke-linecap:butt;stroke-linejoin:miter;stroke-opacity:1" d="M 34.0867,217.185 26.3501,227.501 z" id="boundary" inkscape:connector-curvature="0" />
	<path style="fill:none;stroke:red;stroke-width:1px;stroke-linecap:butt;stroke-linejoin:miter;stroke-opacity:1" d="M 22.052,325.497 25.4905,334.094 z" id="boundary" inkscape:connector-curvature="0" />
	<path style="fill:none;stroke:red;stroke-width:1px;stroke-linecap:butt;stroke-linejoin:miter;stroke-opacity:1" d="M 25.4905,334.094 29.7886,341.83 z" id="boundary" inkscape:connector-curvature="0" />
	<path style="fill:none;stroke:red;stroke-width:1px;stroke-linecap:butt;stroke-linejoin:miter;stroke-opacity:1" d="M 147.556,340.111 138.96,340.111 z" id="boundary" inkscape:connector-curvature="0" />
	<path style="fill:none;stroke:red;stroke-width:1px;stroke-linecap:butt;stroke-linejoin:miter;stroke-opacity:1" d="M 40.9636,210.308 45.2617,201.712 z" id="boundary" inkscape:connector-curvature="0" />
	<path style="fill:none;stroke:red;stroke-width:1px;stroke-linecap:butt;stroke-linejoin:miter;stroke-opacity:1" d="M 45.2617,201.712 52.1386,194.835 z" id="boundary" inkscape:connector-curvature="0" />
	<path style="fill:none;stroke:red;stroke-width:1px;stroke-linecap:butt;stroke-linejoin:miter;stroke-opacity:1" d="M 29.7886,341.83 36.6655,347.847 z" id="boundary" inkscape:connector-curvature="0" />
	<path style="fill:none;stroke:red;stroke-width:1px;stroke-linecap:butt;stroke-linejoin:miter;stroke-opacity:1" d="M 36.6655,347.847 45.2617,347.847 z" id="boundary" inkscape:connector-curvature="0" />
	<path style="fill:none;stroke:red;stroke-width:1px;stroke-linecap:butt;stroke-linejoin:miter;stroke-opacity:1" d="M 70.1906,340.111 78.7868,340.111 z" id="boundary" inkscape:connector-curvature="0" />
	<path style="fill:none;stroke:red;stroke-width:1px;stroke-linecap:butt;stroke-linejoin:miter;stroke-opacity:1" d="M 52.1386,194.835 59.0156,188.818 z" id="boundary" inkscape:connector-curvature="0" />
	<path style="fill:none;stroke:red;stroke-width:1px;stroke-linecap:butt;stroke-linejoin:miter;stroke-opacity:1" d="M 45.2617,347.847 53.8579,344.409 z" id="boundary" inkscape:connector-curvature="0" />
	<path style="fill:none;stroke:red;stroke-width:1px;stroke-linecap:butt;stroke-linejoin:miter;stroke-opacity:1" d="M 61.5945,340.111 70.1906,340.111 z" id="boundary" inkscape:connector-curvature="0" />
	<path style="fill:none;stroke:red;stroke-width:1px;stroke-linecap:butt;stroke-linejoin:miter;stroke-opacity:1" d="M 61.5945,340.111 53.8579,344.409 z" id="boundary" inkscape:connector-curvature="0" />
	<path style="fill:none;stroke:red;stroke-width:1px;stroke-linecap:butt;stroke-linejoin:miter;stroke-opacity:1" d="M 87.383,340.111 95.9792,340.111 z" id="boundary" inkscape:connector-curvature="0" />
	<path style="fill:none;stroke:red;stroke-width:1px;stroke-linecap:butt;stroke-linejoin:miter;stroke-opacity:1" d="M 59.0156,188.818 65.0329,181.941 z" id="boundary" inkscape:connector-curvature="0" />
	<path style="fill:none;stroke:red;stroke-width:1px;stroke-linecap:butt;stroke-linejoin:miter;stroke-opacity:1" d="M 65.0329,181.941 71.9099,175.924 z" id="boundary" inkscape:connector-curvature="0" />
	<path style="fill:none;stroke:red;stroke-width:1px;stroke-linecap:butt;stroke-linejoin:miter;stroke-opacity:1" d="M 71.9099,175.924 77.9272,169.047 z" id="boundary" inkscape:connector-curvature="0" />
	<path style="fill:none;stroke:red;stroke-width:1px;stroke-linecap:butt;stroke-linejoin:miter;stroke-opacity:1" d="M 78.7868,340.111 87.383,340.111 z" id="boundary" inkscape:connector-curvature="0" />
	<path style="fill:none;stroke:red;stroke-width:1px;stroke-linecap:butt;stroke-linejoin:miter;stroke-opacity:1" d="M 77.9272,169.047 82.2253,160.451 z" id="boundary" inkscape:connector-curvature="0" />
	<path style="fill:none;stroke:red;stroke-width:1px;stroke-linecap:butt;stroke-linejoin:miter;stroke-opacity:1" d="M 82.2253,160.451 89.1023,154.433 z" id="boundary" inkscape:connector-curvature="0" />
	<path style="fill:none;stroke:red;stroke-width:1px;stroke-linecap:butt;stroke-linejoin:miter;stroke-opacity:1" d="M 115.75,32.3674 115.75,23.7712 z" id="boundary" inkscape:connector-curvature="0" />
	<path style="fill:none;stroke:red;stroke-width:1px;stroke-linecap:butt;stroke-linejoin:miter;stroke-opacity:1" d="M 95.9792,340.111 104.575,340.111 z" id="boundary" inkscape:connector-curvature="0" />
	<path style="fill:none;stroke:red;stroke-width:1px;stroke-linecap:butt;stroke-linejoin:miter;stroke-opacity:1" d="M 115.75,40.9636 115.75,49.5598 z" id="boundary" inkscape:connector-curvature="0" />
	<path style="fill:none;stroke:red;stroke-width:1px;stroke-linecap:butt;stroke-linejoin:miter;stroke-opacity:1" d="M 109.733,137.241 101.997,141.539 z" id="boundary" inkscape:connector-curvature="0" />
	<path style="fill:none;stroke:red;stroke-width:1px;stroke-linecap:butt;stroke-linejoin:miter;stroke-opacity:1" d="M 101.997,141.539 95.1196,147.556 z" id="boundary" inkscape:connector-curvature="0" />
	<path style="fill:none;stroke:red;stroke-width:1px;stroke-linecap:butt;stroke-linejoin:miter;stroke-opacity:1" d="M 89.1023,154.433 95.1196,147.556 z" id="boundary" inkscape:connector-curvature="0" />
	<path style="fill:none;stroke:red;stroke-width:1px;stroke-linecap:butt;stroke-linejoin:miter;stroke-opacity:1" d="M 104.575,340.111 113.172,340.111 z" id="boundary" inkscape:connector-curvature="0" />
	<path style="fill:none;stroke:red;stroke-width:1px;stroke-linecap:butt;stroke-linejoin:miter;stroke-opacity:1" d="M 115.75,58.156 115.75,49.5598 z" id="boundary" inkscape:connector-curvature="0" />
	<path style="fill:none;stroke:red;stroke-width:1px;stroke-linecap:butt;stroke-linejoin:miter;stroke-opacity:1" d="M 115.75,40.9636 115.75,32.3674 z" id="boundary" inkscape:connector-curvature="0" />
	<path style="fill:none;stroke:red;stroke-width:1px;stroke-linecap:butt;stroke-linejoin:miter;stroke-opacity:1" d="M 115.75,66.7522 115.75,58.156 z" id="boundary" inkscape:connector-curvature="0" />
	<path style="fill:none;stroke:red;stroke-width:1px;stroke-linecap:butt;stroke-linejoin:miter;stroke-opacity:1" d="M 243.834,365.899 251.57,370.198 z" id="boundary" inkscape:connector-curvature="0" />
	<path style="fill:none;stroke:red;stroke-width:1px;stroke-linecap:butt;stroke-linejoin:miter;stroke-opacity:1" d="M 115.75,75.3484 115.75,66.7522 z" id="boundary" inkscape:connector-curvature="0" />
	<path style="fill:none;stroke:red;stroke-width:1px;stroke-linecap:butt;stroke-linejoin:miter;stroke-opacity:1" d="M 115.75,23.7712 122.627,16.8943 z" id="boundary" inkscape:connector-curvature="0" />
	<path style="fill:none;stroke:red;stroke-width:1px;stroke-linecap:butt;stroke-linejoin:miter;stroke-opacity:1" d="M 115.75,83.9445 115.75,75.3484 z" id="boundary" inkscape:connector-curvature="0" />
	<path style="fill:none;stroke:red;stroke-width:1px;stroke-linecap:butt;stroke-linejoin:miter;stroke-opacity:1" d="M 130.364,12.5962 138.96,12.5962 z" id="boundary" inkscape:connector-curvature="0" />
	<path style="fill:none;stroke:red;stroke-width:1px;stroke-linecap:butt;stroke-linejoin:miter;stroke-opacity:1" d="M 130.364,12.5962 122.627,16.8943 z" id="boundary" inkscape:connector-curvature="0" />
	<path style="fill:none;stroke:red;stroke-width:1px;stroke-linecap:butt;stroke-linejoin:miter;stroke-opacity:1" d="M 115.75,92.5407 115.75,83.9445 z" id="boundary" inkscape:connector-curvature="0" />
	<path style="fill:none;stroke:red;stroke-width:1px;stroke-linecap:butt;stroke-linejoin:miter;stroke-opacity:1" d="M 115.75,92.5407 115.75,101.137 z" id="boundary" inkscape:connector-curvature="0" />
	<path style="fill:none;stroke:red;stroke-width:1px;stroke-linecap:butt;stroke-linejoin:miter;stroke-opacity:1" d="M 138.96,12.5962 147.556,12.5962 z" id="boundary" inkscape:connector-curvature="0" />
	<path style="fill:none;stroke:red;stroke-width:1px;stroke-linecap:butt;stroke-linejoin:miter;stroke-opacity:1" d="M 115.75,101.137 115.75,109.733 z" id="boundary" inkscape:connector-curvature="0" />
	<path style="fill:none;stroke:red;stroke-width:1px;stroke-linecap:butt;stroke-linejoin:miter;stroke-opacity:1" d="M 163.889,8.29809 172.485,8.29809 z" id="boundary" inkscape:connector-curvature="0" />
	<path style="fill:none;stroke:red;stroke-width:1px;stroke-linecap:butt;stroke-linejoin:miter;stroke-opacity:1" d="M 163.889,8.29809 156.153,12.5962 z" id="boundary" inkscape:connector-curvature="0" />
	<path style="fill:none;stroke:red;stroke-width:1px;stroke-linecap:butt;stroke-linejoin:miter;stroke-opacity:1" d="M 109.733,137.241 116.61,130.364 z" id="boundary" inkscape:connector-curvature="0" />
	<path style="fill:none;stroke:red;stroke-width:1px;stroke-linecap:butt;stroke-linejoin:miter;stroke-opacity:1" d="M 115.75,109.733 120.049,117.47 z" id="boundary" inkscape:connector-curvature="0" />
	<path style="fill:none;stroke:red;stroke-width:1px;stroke-linecap:butt;stroke-linejoin:miter;stroke-opacity:1" d="M 120.049,117.47 116.61,130.364 z" id="boundary" inkscape:connector-curvature="0" />
	<path style="fill:none;stroke:red;stroke-width:1px;stroke-linecap:butt;stroke-linejoin:miter;stroke-opacity:1" d="M 156.153,340.111 164.749,340.111 z" id="boundary" inkscape:connector-curvature="0" />
	<path style="fill:none;stroke:red;stroke-width:1px;stroke-linecap:butt;stroke-linejoin:miter;stroke-opacity:1" d="M 113.172,340.111 121.768,340.111 z" id="boundary" inkscape:connector-curvature="0" />
	<path style="fill:none;stroke:red;stroke-width:1px;stroke-linecap:butt;stroke-linejoin:miter;stroke-opacity:1" d="M 147.556,12.5962 156.153,12.5962 z" id="boundary" inkscape:connector-curvature="0" />
	<path style="fill:none;stroke:red;stroke-width:1px;stroke-linecap:butt;stroke-linejoin:miter;stroke-opacity:1" d="M 121.768,340.111 130.364,340.111 z" id="boundary" inkscape:connector-curvature="0" />
	<path style="fill:none;stroke:red;stroke-width:1px;stroke-linecap:butt;stroke-linejoin:miter;stroke-opacity:1" d="M 181.941,340.111 173.345,340.111 z" id="boundary" inkscape:connector-curvature="0" />
	<path style="fill:none;stroke:red;stroke-width:1px;stroke-linecap:butt;stroke-linejoin:miter;stroke-opacity:1" d="M 172.485,8.29809 181.081,8.29809 z" id="boundary" inkscape:connector-curvature="0" />
	<path style="fill:none;stroke:red;stroke-width:1px;stroke-linecap:butt;stroke-linejoin:miter;stroke-opacity:1" d="M 130.364,340.111 138.96,340.111 z" id="boundary" inkscape:connector-curvature="0" />
	<path style="fill:none;stroke:red;stroke-width:1px;stroke-linecap:butt;stroke-linejoin:miter;stroke-opacity:1" d="M 215.466,346.128 223.203,350.426 z" id="boundary" inkscape:connector-curvature="0" />
	<path style="fill:none;stroke:red;stroke-width:1px;stroke-linecap:butt;stroke-linejoin:miter;stroke-opacity:1" d="M 215.466,346.128 206.87,344.409 z" id="boundary" inkscape:connector-curvature="0" />
	<path style="fill:none;stroke:red;stroke-width:1px;stroke-linecap:butt;stroke-linejoin:miter;stroke-opacity:1" d="M 181.081,8.29809 189.678,8.29809 z" id="boundary" inkscape:connector-curvature="0" />
	<path style="fill:none;stroke:red;stroke-width:1px;stroke-linecap:butt;stroke-linejoin:miter;stroke-opacity:1" d="M 147.556,340.111 156.153,340.111 z" id="boundary" inkscape:connector-curvature="0" />
	<path style="fill:none;stroke:red;stroke-width:1px;stroke-linecap:butt;stroke-linejoin:miter;stroke-opacity:1" d="M 236.957,359.882 243.834,365.899 z" id="boundary" inkscape:connector-curvature="0" />
	<path style="fill:none;stroke:red;stroke-width:1px;stroke-linecap:butt;stroke-linejoin:miter;stroke-opacity:1" d="M 189.678,8.29809 198.274,8.29809 z" id="boundary" inkscape:connector-curvature="0" />
	<path style="fill:none;stroke:red;stroke-width:1px;stroke-linecap:butt;stroke-linejoin:miter;stroke-opacity:1" d="M 164.749,340.111 173.345,340.111 z" id="boundary" inkscape:connector-curvature="0" />
	<path style="fill:none;stroke:red;stroke-width:1px;stroke-linecap:butt;stroke-linejoin:miter;stroke-opacity:1" d="M 181.941,340.111 190.537,340.111 z" id="boundary" inkscape:connector-curvature="0" />
	<path style="fill:none;stroke:red;stroke-width:1px;stroke-linecap:butt;stroke-linejoin:miter;stroke-opacity:1" d="M 190.537,340.111 199.133,340.111 z" id="boundary" inkscape:connector-curvature="0" />
	<path style="fill:none;stroke:red;stroke-width:1px;stroke-linecap:butt;stroke-linejoin:miter;stroke-opacity:1" d="M 199.133,340.111 206.87,344.409 z" id="boundary" inkscape:connector-curvature="0" />
	<path style="fill:none;stroke:red;stroke-width:1px;stroke-linecap:butt;stroke-linejoin:miter;stroke-opacity:1" d="M 198.274,8.29809 206.87,8.29809 z" id="boundary" inkscape:connector-curvature="0" />
	<path style="fill:none;stroke:red;stroke-width:1px;stroke-linecap:butt;stroke-linejoin:miter;stroke-opacity:1" d="M 231.799,353.005 236.957,359.882 z" id="boundary" inkscape:connector-curvature="0" />
	<path style="fill:none;stroke:red;stroke-width:1px;stroke-linecap:butt;stroke-linejoin:miter;stroke-opacity:1" d="M 231.799,353.005 223.203,350.426 z" id="boundary" inkscape:connector-curvature="0" />
	<path style="fill:none;stroke:red;stroke-width:1px;stroke-linecap:butt;stroke-linejoin:miter;stroke-opacity:1" d="M 223.203,4 214.607,4 z" id="boundary" inkscape:connector-curvature="0" />
	<path style="fill:none;stroke:red;stroke-width:1px;stroke-linecap:butt;stroke-linejoin:miter;stroke-opacity:1" d="M 214.607,4 206.87,8.29809 z" id="boundary" inkscape:connector-curvature="0" />
	<path style="fill:none;stroke:red;stroke-width:1px;stroke-linecap:butt;stroke-linejoin:miter;stroke-opacity:1" d="M 313.463,53.8579 307.445,46.9809 z" id="boundary" inkscape:connector-curvature="0" />
	<path style="fill:none;stroke:red;stroke-width:1px;stroke-linecap:butt;stroke-linejoin:miter;stroke-opacity:1" d="M 307.445,46.9809 298.849,43.5425 z" id="boundary" inkscape:connector-curvature="0" />
	<path style="fill:none;stroke:red;stroke-width:1px;stroke-linecap:butt;stroke-linejoin:miter;stroke-opacity:1" d="M 256.728,10.0173 248.991,5.71924 z" id="boundary" inkscape:connector-curvature="0" />
	<path style="fill:none;stroke:red;stroke-width:1px;stroke-linecap:butt;stroke-linejoin:miter;stroke-opacity:1" d="M 248.991,5.71924 240.395,4 z" id="boundary" inkscape:connector-curvature="0" />
	<path style="fill:none;stroke:red;stroke-width:1px;stroke-linecap:butt;stroke-linejoin:miter;stroke-opacity:1" d="M 231.799,4 240.395,4 z" id="boundary" inkscape:connector-curvature="0" />
	<path style="fill:none;stroke:red;stroke-width:1px;stroke-linecap:butt;stroke-linejoin:miter;stroke-opacity:1" d="M 273.061,17.7539 279.938,23.7712 z" id="boundary" inkscape:connector-curvature="0" />
	<path style="fill:none;stroke:red;stroke-width:1px;stroke-linecap:butt;stroke-linejoin:miter;stroke-opacity:1" d="M 273.061,17.7539 265.324,13.4558 z" id="boundary" inkscape:connector-curvature="0" />
	<path style="fill:none;stroke:red;stroke-width:1px;stroke-linecap:butt;stroke-linejoin:miter;stroke-opacity:1" d="M 267.903,377.934 260.166,373.636 z" id="boundary" inkscape:connector-curvature="0" />
	<path style="fill:none;stroke:red;stroke-width:1px;stroke-linecap:butt;stroke-linejoin:miter;stroke-opacity:1" d="M 260.166,373.636 251.57,370.198 z" id="boundary" inkscape:connector-curvature="0" />
	<path style="fill:none;stroke:red;stroke-width:1px;stroke-linecap:butt;stroke-linejoin:miter;stroke-opacity:1" d="M 279.938,23.7712 285.955,30.6482 z" id="boundary" inkscape:connector-curvature="0" />
	<path style="fill:none;stroke:red;stroke-width:1px;stroke-linecap:butt;stroke-linejoin:miter;stroke-opacity:1" d="M 265.324,13.4558 256.728,10.0173 z" id="boundary" inkscape:connector-curvature="0" />
	<path style="fill:none;stroke:red;stroke-width:1px;stroke-linecap:butt;stroke-linejoin:miter;stroke-opacity:1" d="M 283.376,387.39 288.534,394.267 z" id="boundary" inkscape:connector-curvature="0" />
	<path style="fill:none;stroke:red;stroke-width:1px;stroke-linecap:butt;stroke-linejoin:miter;stroke-opacity:1" d="M 578.225,369.338 569.629,370.198 z" id="boundary" inkscape:connector-curvature="0" />
	<path style="fill:none;stroke:red;stroke-width:1px;stroke-linecap:butt;stroke-linejoin:miter;stroke-opacity:1" d="M 283.376,387.39 276.499,381.373 z" id="boundary" inkscape:connector-curvature="0" />
	<path style="fill:none;stroke:red;stroke-width:1px;stroke-linecap:butt;stroke-linejoin:miter;stroke-opacity:1" d="M 276.499,381.373 267.903,377.934 z" id="boundary" inkscape:connector-curvature="0" />
	<path style="fill:none;stroke:red;stroke-width:1px;stroke-linecap:butt;stroke-linejoin:miter;stroke-opacity:1" d="M 390.828,408.88 399.425,408.88 z" id="boundary" inkscape:connector-curvature="0" />
	<path style="fill:none;stroke:red;stroke-width:1px;stroke-linecap:butt;stroke-linejoin:miter;stroke-opacity:1" d="M 390.828,408.88 383.092,413.179 z" id="boundary" inkscape:connector-curvature="0" />
	<path style="fill:none;stroke:red;stroke-width:1px;stroke-linecap:butt;stroke-linejoin:miter;stroke-opacity:1" d="M 298.849,43.5425 292.832,36.6655 z" id="boundary" inkscape:connector-curvature="0" />
	<path style="fill:none;stroke:red;stroke-width:1px;stroke-linecap:butt;stroke-linejoin:miter;stroke-opacity:1" d="M 292.832,36.6655 285.955,30.6482 z" id="boundary" inkscape:connector-curvature="0" />
	<path style="fill:none;stroke:red;stroke-width:1px;stroke-linecap:butt;stroke-linejoin:miter;stroke-opacity:1" d="M 629.802,365.899 621.206,365.899 z" id="boundary" inkscape:connector-curvature="0" />
	<path style="fill:none;stroke:red;stroke-width:1px;stroke-linecap:butt;stroke-linejoin:miter;stroke-opacity:1" d="M 303.147,404.582 297.13,397.705 z" id="boundary" inkscape:connector-curvature="0" />
	<path style="fill:none;stroke:red;stroke-width:1px;stroke-linecap:butt;stroke-linejoin:miter;stroke-opacity:1" d="M 297.13,397.705 288.534,394.267 z" id="boundary" inkscape:connector-curvature="0" />
	<path style="fill:none;stroke:red;stroke-width:1px;stroke-linecap:butt;stroke-linejoin:miter;stroke-opacity:1" d="M 320.34,59.8752 313.463,53.8579 z" id="boundary" inkscape:connector-curvature="0" />
	<path style="fill:none;stroke:red;stroke-width:1px;stroke-linecap:butt;stroke-linejoin:miter;stroke-opacity:1" d="M 310.024,410.6 316.042,417.477 z" id="boundary" inkscape:connector-curvature="0" />
	<path style="fill:none;stroke:red;stroke-width:1px;stroke-linecap:butt;stroke-linejoin:miter;stroke-opacity:1" d="M 310.024,410.6 303.147,404.582 z" id="boundary" inkscape:connector-curvature="0" />
	<path style="fill:none;stroke:red;stroke-width:1px;stroke-linecap:butt;stroke-linejoin:miter;stroke-opacity:1" d="M 328.076,64.1733 320.34,59.8752 z" id="boundary" inkscape:connector-curvature="0" />
	<path style="fill:none;stroke:red;stroke-width:1px;stroke-linecap:butt;stroke-linejoin:miter;stroke-opacity:1" d="M 335.813,68.4714 328.076,64.1733 z" id="boundary" inkscape:connector-curvature="0" />
	<path style="fill:none;stroke:red;stroke-width:1px;stroke-linecap:butt;stroke-linejoin:miter;stroke-opacity:1" d="M 316.042,417.477 323.778,421.775 z" id="boundary" inkscape:connector-curvature="0" />
	<path style="fill:none;stroke:red;stroke-width:1px;stroke-linecap:butt;stroke-linejoin:miter;stroke-opacity:1" d="M 343.549,72.7695 335.813,68.4714 z" id="boundary" inkscape:connector-curvature="0" />
	<path style="fill:none;stroke:red;stroke-width:1px;stroke-linecap:butt;stroke-linejoin:miter;stroke-opacity:1" d="M 786.253,432.09 794.849,434.669 z" id="boundary" inkscape:connector-curvature="0" />
	<path style="fill:none;stroke:red;stroke-width:1px;stroke-linecap:butt;stroke-linejoin:miter;stroke-opacity:1" d="M 323.778,421.775 332.374,421.775 z" id="boundary" inkscape:connector-curvature="0" />
	<path style="fill:none;stroke:red;stroke-width:1px;stroke-linecap:butt;stroke-linejoin:miter;stroke-opacity:1" d="M 340.111,417.477 348.707,417.477 z" id="boundary" inkscape:connector-curvature="0" />
	<path style="fill:none;stroke:red;stroke-width:1px;stroke-linecap:butt;stroke-linejoin:miter;stroke-opacity:1" d="M 340.111,417.477 332.374,421.775 z" id="boundary" inkscape:connector-curvature="0" />
	<path style="fill:none;stroke:red;stroke-width:1px;stroke-linecap:butt;stroke-linejoin:miter;stroke-opacity:1" d="M 348.707,417.477 357.303,417.477 z" id="boundary" inkscape:connector-curvature="0" />
	<path style="fill:none;stroke:red;stroke-width:1px;stroke-linecap:butt;stroke-linejoin:miter;stroke-opacity:1" d="M 352.146,71.0503 343.549,72.7695 z" id="boundary" inkscape:connector-curvature="0" />
	<path style="fill:none;stroke:red;stroke-width:1px;stroke-linecap:butt;stroke-linejoin:miter;stroke-opacity:1" d="M 740.693,404.582 732.957,400.284 z" id="boundary" inkscape:connector-curvature="0" />
	<path style="fill:none;stroke:red;stroke-width:1px;stroke-linecap:butt;stroke-linejoin:miter;stroke-opacity:1" d="M 365.899,413.179 374.496,413.179 z" id="boundary" inkscape:connector-curvature="0" />
	<path style="fill:none;stroke:red;stroke-width:1px;stroke-linecap:butt;stroke-linejoin:miter;stroke-opacity:1" d="M 365.899,413.179 357.303,417.477 z" id="boundary" inkscape:connector-curvature="0" />
	<path style="fill:none;stroke:red;stroke-width:1px;stroke-linecap:butt;stroke-linejoin:miter;stroke-opacity:1" d="M 352.146,71.0503 360.742,68.4714 z" id="boundary" inkscape:connector-curvature="0" />
	<path style="fill:none;stroke:red;stroke-width:1px;stroke-linecap:butt;stroke-linejoin:miter;stroke-opacity:1" d="M 360.742,68.4714 369.338,68.4714 z" id="boundary" inkscape:connector-curvature="0" />
	<path style="fill:none;stroke:red;stroke-width:1px;stroke-linecap:butt;stroke-linejoin:miter;stroke-opacity:1" d="M 374.496,413.179 383.092,413.179 z" id="boundary" inkscape:connector-curvature="0" />
	<path style="fill:none;stroke:red;stroke-width:1px;stroke-linecap:butt;stroke-linejoin:miter;stroke-opacity:1" d="M 369.338,68.4714 377.934,66.7522 z" id="boundary" inkscape:connector-curvature="0" />
	<path style="fill:none;stroke:red;stroke-width:1px;stroke-linecap:butt;stroke-linejoin:miter;stroke-opacity:1" d="M 377.934,66.7522 386.53,64.1733 z" id="boundary" inkscape:connector-curvature="0" />
	<path style="fill:none;stroke:red;stroke-width:1px;stroke-linecap:butt;stroke-linejoin:miter;stroke-opacity:1" d="M 386.53,64.1733 395.127,64.1733 z" id="boundary" inkscape:connector-curvature="0" />
	<path style="fill:none;stroke:red;stroke-width:1px;stroke-linecap:butt;stroke-linejoin:miter;stroke-opacity:1" d="M 408.021,406.302 416.617,404.582 z" id="boundary" inkscape:connector-curvature="0" />
	<path style="fill:none;stroke:red;stroke-width:1px;stroke-linecap:butt;stroke-linejoin:miter;stroke-opacity:1" d="M 416.617,404.582 425.213,404.582 z" id="boundary" inkscape:connector-curvature="0" />
	<path style="fill:none;stroke:red;stroke-width:1px;stroke-linecap:butt;stroke-linejoin:miter;stroke-opacity:1" d="M 399.425,408.88 408.021,406.302 z" id="boundary" inkscape:connector-curvature="0" />
	<path style="fill:none;stroke:red;stroke-width:1px;stroke-linecap:butt;stroke-linejoin:miter;stroke-opacity:1" d="M 395.127,64.1733 403.723,62.4541 z" id="boundary" inkscape:connector-curvature="0" />
	<path style="fill:none;stroke:red;stroke-width:1px;stroke-linecap:butt;stroke-linejoin:miter;stroke-opacity:1" d="M 403.723,62.4541 412.319,59.8752 z" id="boundary" inkscape:connector-curvature="0" />
	<path style="fill:none;stroke:red;stroke-width:1px;stroke-linecap:butt;stroke-linejoin:miter;stroke-opacity:1" d="M 412.319,59.8752 420.915,59.8752 z" id="boundary" inkscape:connector-curvature="0" />
	<path style="fill:none;stroke:red;stroke-width:1px;stroke-linecap:butt;stroke-linejoin:miter;stroke-opacity:1" d="M 433.809,402.003 425.213,404.582 z" id="boundary" inkscape:connector-curvature="0" />
	<path style="fill:none;stroke:red;stroke-width:1px;stroke-linecap:butt;stroke-linejoin:miter;stroke-opacity:1" d="M 420.915,59.8752 428.652,55.5771 z" id="boundary" inkscape:connector-curvature="0" />
	<path style="fill:none;stroke:red;stroke-width:1px;stroke-linecap:butt;stroke-linejoin:miter;stroke-opacity:1" d="M 428.652,55.5771 437.248,55.5771 z" id="boundary" inkscape:connector-curvature="0" />
	<path style="fill:none;stroke:red;stroke-width:1px;stroke-linecap:butt;stroke-linejoin:miter;stroke-opacity:1" d="M 468.194,393.407 476.79,391.688 z" id="boundary" inkscape:connector-curvature="0" />
	<path style="fill:none;stroke:red;stroke-width:1px;stroke-linecap:butt;stroke-linejoin:miter;stroke-opacity:1" d="M 468.194,393.407 459.598,395.986 z" id="boundary" inkscape:connector-curvature="0" />
	<path style="fill:none;stroke:red;stroke-width:1px;stroke-linecap:butt;stroke-linejoin:miter;stroke-opacity:1" d="M 442.406,397.705 451.002,395.986 z" id="boundary" inkscape:connector-curvature="0" />
	<path style="fill:none;stroke:red;stroke-width:1px;stroke-linecap:butt;stroke-linejoin:miter;stroke-opacity:1" d="M 442.406,397.705 433.809,402.003 z" id="boundary" inkscape:connector-curvature="0" />
	<path style="fill:none;stroke:red;stroke-width:1px;stroke-linecap:butt;stroke-linejoin:miter;stroke-opacity:1" d="M 437.248,55.5771 445.844,55.5771 z" id="boundary" inkscape:connector-curvature="0" />
	<path style="fill:none;stroke:red;stroke-width:1px;stroke-linecap:butt;stroke-linejoin:miter;stroke-opacity:1" d="M 451.002,395.986 459.598,395.986 z" id="boundary" inkscape:connector-curvature="0" />
	<path style="fill:none;stroke:red;stroke-width:1px;stroke-linecap:butt;stroke-linejoin:miter;stroke-opacity:1" d="M 445.844,55.5771 454.44,55.5771 z" id="boundary" inkscape:connector-curvature="0" />
	<path style="fill:none;stroke:red;stroke-width:1px;stroke-linecap:butt;stroke-linejoin:miter;stroke-opacity:1" d="M 604.014,365.899 612.61,365.899 z" id="boundary" inkscape:connector-curvature="0" />
	<path style="fill:none;stroke:red;stroke-width:1px;stroke-linecap:butt;stroke-linejoin:miter;stroke-opacity:1" d="M 454.44,55.5771 462.177,51.279 z" id="boundary" inkscape:connector-curvature="0" />
	<path style="fill:none;stroke:red;stroke-width:1px;stroke-linecap:butt;stroke-linejoin:miter;stroke-opacity:1" d="M 462.177,51.279 470.773,51.279 z" id="boundary" inkscape:connector-curvature="0" />
	<path style="fill:none;stroke:red;stroke-width:1px;stroke-linecap:butt;stroke-linejoin:miter;stroke-opacity:1" d="M 621.206,365.899 612.61,365.899 z" id="boundary" inkscape:connector-curvature="0" />
	<path style="fill:none;stroke:red;stroke-width:1px;stroke-linecap:butt;stroke-linejoin:miter;stroke-opacity:1" d="M 470.773,51.279 479.369,51.279 z" id="boundary" inkscape:connector-curvature="0" />
	<path style="fill:none;stroke:red;stroke-width:1px;stroke-linecap:butt;stroke-linejoin:miter;stroke-opacity:1" d="M 485.386,389.109 493.983,387.39 z" id="boundary" inkscape:connector-curvature="0" />
	<path style="fill:none;stroke:red;stroke-width:1px;stroke-linecap:butt;stroke-linejoin:miter;stroke-opacity:1" d="M 485.386,389.109 476.79,391.688 z" id="boundary" inkscape:connector-curvature="0" />
	<path style="fill:none;stroke:red;stroke-width:1px;stroke-linecap:butt;stroke-linejoin:miter;stroke-opacity:1" d="M 479.369,51.279 487.965,46.9809 z" id="boundary" inkscape:connector-curvature="0" />
	<path style="fill:none;stroke:red;stroke-width:1px;stroke-linecap:butt;stroke-linejoin:miter;stroke-opacity:1" d="M 487.965,46.9809 496.562,46.9809 z" id="boundary" inkscape:connector-curvature="0" />
	<path style="fill:none;stroke:red;stroke-width:1px;stroke-linecap:butt;stroke-linejoin:miter;stroke-opacity:1" d="M 518.052,378.794 526.648,377.934 z" id="boundary" inkscape:connector-curvature="0" />
	<path style="fill:none;stroke:red;stroke-width:1px;stroke-linecap:butt;stroke-linejoin:miter;stroke-opacity:1" d="M 501.719,383.092 493.983,387.39 z" id="boundary" inkscape:connector-curvature="0" />
	<path style="fill:none;stroke:red;stroke-width:1px;stroke-linecap:butt;stroke-linejoin:miter;stroke-opacity:1" d="M 496.562,46.9809 505.158,46.9809 z" id="boundary" inkscape:connector-curvature="0" />
	<path style="fill:none;stroke:red;stroke-width:1px;stroke-linecap:butt;stroke-linejoin:miter;stroke-opacity:1" d="M 509.456,378.794 518.052,378.794 z" id="boundary" inkscape:connector-curvature="0" />
	<path style="fill:none;stroke:red;stroke-width:1px;stroke-linecap:butt;stroke-linejoin:miter;stroke-opacity:1" d="M 509.456,378.794 501.719,383.092 z" id="boundary" inkscape:connector-curvature="0" />
	<path style="fill:none;stroke:red;stroke-width:1px;stroke-linecap:butt;stroke-linejoin:miter;stroke-opacity:1" d="M 505.158,46.9809 512.894,42.6828 z" id="boundary" inkscape:connector-curvature="0" />
	<path style="fill:none;stroke:red;stroke-width:1px;stroke-linecap:butt;stroke-linejoin:miter;stroke-opacity:1" d="M 512.894,42.6828 521.49,42.6828 z" id="boundary" inkscape:connector-curvature="0" />
	<path style="fill:none;stroke:red;stroke-width:1px;stroke-linecap:butt;stroke-linejoin:miter;stroke-opacity:1" d="M 561.033,370.198 569.629,370.198 z" id="boundary" inkscape:connector-curvature="0" />
	<path style="fill:none;stroke:red;stroke-width:1px;stroke-linecap:butt;stroke-linejoin:miter;stroke-opacity:1" d="M 561.033,370.198 552.437,373.636 z" id="boundary" inkscape:connector-curvature="0" />
	<path style="fill:none;stroke:red;stroke-width:1px;stroke-linecap:butt;stroke-linejoin:miter;stroke-opacity:1" d="M 543.841,374.496 552.437,373.636 z" id="boundary" inkscape:connector-curvature="0" />
	<path style="fill:none;stroke:red;stroke-width:1px;stroke-linecap:butt;stroke-linejoin:miter;stroke-opacity:1" d="M 521.49,42.6828 530.087,42.6828 z" id="boundary" inkscape:connector-curvature="0" />
	<path style="fill:none;stroke:red;stroke-width:1px;stroke-linecap:butt;stroke-linejoin:miter;stroke-opacity:1" d="M 535.244,374.496 543.841,374.496 z" id="boundary" inkscape:connector-curvature="0" />
	<path style="fill:none;stroke:red;stroke-width:1px;stroke-linecap:butt;stroke-linejoin:miter;stroke-opacity:1" d="M 535.244,374.496 526.648,377.934 z" id="boundary" inkscape:connector-curvature="0" />
	<path style="fill:none;stroke:red;stroke-width:1px;stroke-linecap:butt;stroke-linejoin:miter;stroke-opacity:1" d="M 530.087,42.6828 538.683,42.6828 z" id="boundary" inkscape:connector-curvature="0" />
	<path style="fill:none;stroke:red;stroke-width:1px;stroke-linecap:butt;stroke-linejoin:miter;stroke-opacity:1" d="M 655.591,365.899 646.995,365.899 z" id="boundary" inkscape:connector-curvature="0" />
	<path style="fill:none;stroke:red;stroke-width:1px;stroke-linecap:butt;stroke-linejoin:miter;stroke-opacity:1" d="M 538.683,42.6828 547.279,42.6828 z" id="boundary" inkscape:connector-curvature="0" />
	<path style="fill:none;stroke:red;stroke-width:1px;stroke-linecap:butt;stroke-linejoin:miter;stroke-opacity:1" d="M 547.279,42.6828 555.016,38.3847 z" id="boundary" inkscape:connector-curvature="0" />
	<path style="fill:none;stroke:red;stroke-width:1px;stroke-linecap:butt;stroke-linejoin:miter;stroke-opacity:1" d="M 555.016,38.3847 563.612,38.3847 z" id="boundary" inkscape:connector-curvature="0" />
	<path style="fill:none;stroke:red;stroke-width:1px;stroke-linecap:butt;stroke-linejoin:miter;stroke-opacity:1" d="M 718.343,389.969 712.326,383.092 z" id="boundary" inkscape:connector-curvature="0" />
	<path style="fill:none;stroke:red;stroke-width:1px;stroke-linecap:butt;stroke-linejoin:miter;stroke-opacity:1" d="M 712.326,383.092 704.589,378.794 z" id="boundary" inkscape:connector-curvature="0" />
	<path style="fill:none;stroke:red;stroke-width:1px;stroke-linecap:butt;stroke-linejoin:miter;stroke-opacity:1" d="M 604.014,365.899 595.418,365.899 z" id="boundary" inkscape:connector-curvature="0" />
	<path style="fill:none;stroke:red;stroke-width:1px;stroke-linecap:butt;stroke-linejoin:miter;stroke-opacity:1" d="M 563.612,38.3847 572.208,38.3847 z" id="boundary" inkscape:connector-curvature="0" />
	<path style="fill:none;stroke:red;stroke-width:1px;stroke-linecap:butt;stroke-linejoin:miter;stroke-opacity:1" d="M 646.995,365.899 638.399,365.899 z" id="boundary" inkscape:connector-curvature="0" />
	<path style="fill:none;stroke:red;stroke-width:1px;stroke-linecap:butt;stroke-linejoin:miter;stroke-opacity:1" d="M 572.208,38.3847 580.804,38.3847 z" id="boundary" inkscape:connector-curvature="0" />
	<path style="fill:none;stroke:red;stroke-width:1px;stroke-linecap:butt;stroke-linejoin:miter;stroke-opacity:1" d="M 586.821,365.899 595.418,365.899 z" id="boundary" inkscape:connector-curvature="0" />
	<path style="fill:none;stroke:red;stroke-width:1px;stroke-linecap:butt;stroke-linejoin:miter;stroke-opacity:1" d="M 586.821,365.899 578.225,369.338 z" id="boundary" inkscape:connector-curvature="0" />
	<path style="fill:none;stroke:red;stroke-width:1px;stroke-linecap:butt;stroke-linejoin:miter;stroke-opacity:1" d="M 664.187,365.899 655.591,365.899 z" id="boundary" inkscape:connector-curvature="0" />
	<path style="fill:none;stroke:red;stroke-width:1px;stroke-linecap:butt;stroke-linejoin:miter;stroke-opacity:1" d="M 580.804,38.3847 589.4,38.3847 z" id="boundary" inkscape:connector-curvature="0" />
	<path style="fill:none;stroke:red;stroke-width:1px;stroke-linecap:butt;stroke-linejoin:miter;stroke-opacity:1" d="M 589.4,38.3847 597.997,35.8059 z" id="boundary" inkscape:connector-curvature="0" />
	<path style="fill:none;stroke:red;stroke-width:1px;stroke-linecap:butt;stroke-linejoin:miter;stroke-opacity:1" d="M 597.997,35.8059 606.593,34.0867 z" id="boundary" inkscape:connector-curvature="0" />
	<path style="fill:none;stroke:red;stroke-width:1px;stroke-linecap:butt;stroke-linejoin:miter;stroke-opacity:1" d="M 696.853,374.496 704.589,378.794 z" id="boundary" inkscape:connector-curvature="0" />
	<path style="fill:none;stroke:red;stroke-width:1px;stroke-linecap:butt;stroke-linejoin:miter;stroke-opacity:1" d="M 689.116,370.198 696.853,374.496 z" id="boundary" inkscape:connector-curvature="0" />
	<path style="fill:none;stroke:red;stroke-width:1px;stroke-linecap:butt;stroke-linejoin:miter;stroke-opacity:1" d="M 606.593,34.0867 615.189,31.5078 z" id="boundary" inkscape:connector-curvature="0" />
	<path style="fill:none;stroke:red;stroke-width:1px;stroke-linecap:butt;stroke-linejoin:miter;stroke-opacity:1" d="M 615.189,31.5078 623.785,29.7886 z" id="boundary" inkscape:connector-curvature="0" />
	<path style="fill:none;stroke:red;stroke-width:1px;stroke-linecap:butt;stroke-linejoin:miter;stroke-opacity:1" d="M 672.783,365.899 664.187,365.899 z" id="boundary" inkscape:connector-curvature="0" />
	<path style="fill:none;stroke:red;stroke-width:1px;stroke-linecap:butt;stroke-linejoin:miter;stroke-opacity:1" d="M 666.766,29.7886 674.503,34.0867 z" id="boundary" inkscape:connector-curvature="0" />
	<path style="fill:none;stroke:red;stroke-width:1px;stroke-linecap:butt;stroke-linejoin:miter;stroke-opacity:1" d="M 666.766,29.7886 658.17,28.0693 z" id="boundary" inkscape:connector-curvature="0" />
	<path style="fill:none;stroke:red;stroke-width:1px;stroke-linecap:butt;stroke-linejoin:miter;stroke-opacity:1" d="M 689.116,370.198 681.38,365.899 z" id="boundary" inkscape:connector-curvature="0" />
	<path style="fill:none;stroke:red;stroke-width:1px;stroke-linecap:butt;stroke-linejoin:miter;stroke-opacity:1" d="M 681.38,365.899 672.783,365.899 z" id="boundary" inkscape:connector-curvature="0" />
	<path style="fill:none;stroke:red;stroke-width:1px;stroke-linecap:butt;stroke-linejoin:miter;stroke-opacity:1" d="M 649.574,25.4905 658.17,28.0693 z" id="boundary" inkscape:connector-curvature="0" />
	<path style="fill:none;stroke:red;stroke-width:1px;stroke-linecap:butt;stroke-linejoin:miter;stroke-opacity:1" d="M 649.574,25.4905 640.977,25.4905 z" id="boundary" inkscape:connector-curvature="0" />
	<path style="fill:none;stroke:red;stroke-width:1px;stroke-linecap:butt;stroke-linejoin:miter;stroke-opacity:1" d="M 623.785,29.7886 632.381,27.2097 z" id="boundary" inkscape:connector-curvature="0" />
	<path style="fill:none;stroke:red;stroke-width:1px;stroke-linecap:butt;stroke-linejoin:miter;stroke-opacity:1" d="M 629.802,365.899 638.399,365.899 z" id="boundary" inkscape:connector-curvature="0" />
	<path style="fill:none;stroke:red;stroke-width:1px;stroke-linecap:butt;stroke-linejoin:miter;stroke-opacity:1" d="M 640.977,25.4905 632.381,27.2097 z" id="boundary" inkscape:connector-curvature="0" />
	<path style="fill:none;stroke:red;stroke-width:1px;stroke-linecap:butt;stroke-linejoin:miter;stroke-opacity:1" d="M 718.343,389.969 726.939,393.407 z" id="boundary" inkscape:connector-curvature="0" />
	<path style="fill:none;stroke:red;stroke-width:1px;stroke-linecap:butt;stroke-linejoin:miter;stroke-opacity:1" d="M 726.939,393.407 732.957,400.284 z" id="boundary" inkscape:connector-curvature="0" />
	<path style="fill:none;stroke:red;stroke-width:1px;stroke-linecap:butt;stroke-linejoin:miter;stroke-opacity:1" d="M 674.503,34.0867 683.099,34.0867 z" id="boundary" inkscape:connector-curvature="0" />
	<path style="fill:none;stroke:red;stroke-width:1px;stroke-linecap:butt;stroke-linejoin:miter;stroke-opacity:1" d="M 748.43,408.88 740.693,404.582 z" id="boundary" inkscape:connector-curvature="0" />
	<path style="fill:none;stroke:red;stroke-width:1px;stroke-linecap:butt;stroke-linejoin:miter;stroke-opacity:1" d="M 708.887,38.3847 700.291,35.8059 z" id="boundary" inkscape:connector-curvature="0" />
	<path style="fill:none;stroke:red;stroke-width:1px;stroke-linecap:butt;stroke-linejoin:miter;stroke-opacity:1" d="M 683.099,34.0867 691.695,34.0867 z" id="boundary" inkscape:connector-curvature="0" />
	<path style="fill:none;stroke:red;stroke-width:1px;stroke-linecap:butt;stroke-linejoin:miter;stroke-opacity:1" d="M 691.695,34.0867 700.291,35.8059 z" id="boundary" inkscape:connector-curvature="0" />
	<path style="fill:none;stroke:red;stroke-width:1px;stroke-linecap:butt;stroke-linejoin:miter;stroke-opacity:1" d="M 756.166,413.179 748.43,408.88 z" id="boundary" inkscape:connector-curvature="0" />
	<path style="fill:none;stroke:red;stroke-width:1px;stroke-linecap:butt;stroke-linejoin:miter;stroke-opacity:1" d="M 717.484,38.3847 725.22,42.6828 z" id="boundary" inkscape:connector-curvature="0" />
	<path style="fill:none;stroke:red;stroke-width:1px;stroke-linecap:butt;stroke-linejoin:miter;stroke-opacity:1" d="M 717.484,38.3847 708.887,38.3847 z" id="boundary" inkscape:connector-curvature="0" />
	<path style="fill:none;stroke:red;stroke-width:1px;stroke-linecap:butt;stroke-linejoin:miter;stroke-opacity:1" d="M 756.166,413.179 763.903,417.477 z" id="boundary" inkscape:connector-curvature="0" />
	<path style="fill:none;stroke:red;stroke-width:1px;stroke-linecap:butt;stroke-linejoin:miter;stroke-opacity:1" d="M 763.903,417.477 769.92,424.354 z" id="boundary" inkscape:connector-curvature="0" />
	<path style="fill:none;stroke:red;stroke-width:1px;stroke-linecap:butt;stroke-linejoin:miter;stroke-opacity:1" d="M 725.22,42.6828 733.816,43.5425 z" id="boundary" inkscape:connector-curvature="0" />
	<path style="fill:none;stroke:red;stroke-width:1px;stroke-linecap:butt;stroke-linejoin:miter;stroke-opacity:1" d="M 733.816,43.5425 741.553,47.8406 z" id="boundary" inkscape:connector-curvature="0" />
	<path style="fill:none;stroke:red;stroke-width:1px;stroke-linecap:butt;stroke-linejoin:miter;stroke-opacity:1" d="M 756.166,58.156 750.149,51.279 z" id="boundary" inkscape:connector-curvature="0" />
	<path style="fill:none;stroke:red;stroke-width:1px;stroke-linecap:butt;stroke-linejoin:miter;stroke-opacity:1" d="M 750.149,51.279 741.553,47.8406 z" id="boundary" inkscape:connector-curvature="0" />
	<path style="fill:none;stroke:red;stroke-width:1px;stroke-linecap:butt;stroke-linejoin:miter;stroke-opacity:1" d="M 764.763,61.5945 769.92,68.4714 z" id="boundary" inkscape:connector-curvature="0" />
	<path style="fill:none;stroke:red;stroke-width:1px;stroke-linecap:butt;stroke-linejoin:miter;stroke-opacity:1" d="M 764.763,61.5945 756.166,58.156 z" id="boundary" inkscape:connector-curvature="0" />
	<path style="fill:none;stroke:red;stroke-width:1px;stroke-linecap:butt;stroke-linejoin:miter;stroke-opacity:1" d="M 769.92,68.4714 778.516,71.0503 z" id="boundary" inkscape:connector-curvature="0" />
	<path style="fill:none;stroke:red;stroke-width:1px;stroke-linecap:butt;stroke-linejoin:miter;stroke-opacity:1" d="M 778.516,71.0503 785.393,77.0676 z" id="boundary" inkscape:connector-curvature="0" />
	<path style="fill:none;stroke:red;stroke-width:1px;stroke-linecap:butt;stroke-linejoin:miter;stroke-opacity:1" d="M 769.92,424.354 778.516,427.792 z" id="boundary" inkscape:connector-curvature="0" />
	<path style="fill:none;stroke:red;stroke-width:1px;stroke-linecap:butt;stroke-linejoin:miter;stroke-opacity:1" d="M 778.516,427.792 786.253,432.09 z" id="boundary" inkscape:connector-curvature="0" />
	<path style="fill:none;stroke:red;stroke-width:1px;stroke-linecap:butt;stroke-linejoin:miter;stroke-opacity:1" d="M 887.688,413.179 879.092,416.617 z" id="boundary" inkscape:connector-curvature="0" />
	<path style="fill:none;stroke:red;stroke-width:1px;stroke-linecap:butt;stroke-linejoin:miter;stroke-opacity:1" d="M 785.393,77.0676 793.13,81.3657 z" id="boundary" inkscape:connector-curvature="0" />
	<path style="fill:none;stroke:red;stroke-width:1px;stroke-linecap:butt;stroke-linejoin:miter;stroke-opacity:1" d="M 793.13,81.3657 800.867,85.6638 z" id="boundary" inkscape:connector-curvature="0" />
	<path style="fill:none;stroke:red;stroke-width:1px;stroke-linecap:butt;stroke-linejoin:miter;stroke-opacity:1" d="M 911.757,288.534 911.757,279.938 z" id="boundary" inkscape:connector-curvature="0" />
	<path style="fill:none;stroke:red;stroke-width:1px;stroke-linecap:butt;stroke-linejoin:miter;stroke-opacity:1" d="M 808.603,89.9619 800.867,85.6638 z" id="boundary" inkscape:connector-curvature="0" />
	<path style="fill:none;stroke:red;stroke-width:1px;stroke-linecap:butt;stroke-linejoin:miter;stroke-opacity:1" d="M 817.199,92.5407 808.603,89.9619 z" id="boundary" inkscape:connector-curvature="0" />
	<path style="fill:none;stroke:red;stroke-width:1px;stroke-linecap:butt;stroke-linejoin:miter;stroke-opacity:1" d="M 834.392,96.8388 825.795,94.26 z" id="boundary" inkscape:connector-curvature="0" />
	<path style="fill:none;stroke:red;stroke-width:1px;stroke-linecap:butt;stroke-linejoin:miter;stroke-opacity:1" d="M 825.795,94.26 817.199,92.5407 z" id="boundary" inkscape:connector-curvature="0" />
	<path style="fill:none;stroke:red;stroke-width:1px;stroke-linecap:butt;stroke-linejoin:miter;stroke-opacity:1" d="M 811.182,430.371 819.778,428.652 z" id="boundary" inkscape:connector-curvature="0" />
	<path style="fill:none;stroke:red;stroke-width:1px;stroke-linecap:butt;stroke-linejoin:miter;stroke-opacity:1" d="M 811.182,430.371 803.445,434.669 z" id="boundary" inkscape:connector-curvature="0" />
	<path style="fill:none;stroke:red;stroke-width:1px;stroke-linecap:butt;stroke-linejoin:miter;stroke-opacity:1" d="M 794.849,434.669 803.445,434.669 z" id="boundary" inkscape:connector-curvature="0" />
	<path style="fill:none;stroke:red;stroke-width:1px;stroke-linecap:butt;stroke-linejoin:miter;stroke-opacity:1" d="M 819.778,428.652 828.374,426.073 z" id="boundary" inkscape:connector-curvature="0" />
	<path style="fill:none;stroke:red;stroke-width:1px;stroke-linecap:butt;stroke-linejoin:miter;stroke-opacity:1" d="M 828.374,426.073 836.971,424.354 z" id="boundary" inkscape:connector-curvature="0" />
	<path style="fill:none;stroke:red;stroke-width:1px;stroke-linecap:butt;stroke-linejoin:miter;stroke-opacity:1" d="M 842.988,98.5581 834.392,96.8388 z" id="boundary" inkscape:connector-curvature="0" />
	<path style="fill:none;stroke:red;stroke-width:1px;stroke-linecap:butt;stroke-linejoin:miter;stroke-opacity:1" d="M 836.971,424.354 845.567,421.775 z" id="boundary" inkscape:connector-curvature="0" />
	<path style="fill:none;stroke:red;stroke-width:1px;stroke-linecap:butt;stroke-linejoin:miter;stroke-opacity:1" d="M 845.567,421.775 854.163,421.775 z" id="boundary" inkscape:connector-curvature="0" />
	<path style="fill:none;stroke:red;stroke-width:1px;stroke-linecap:butt;stroke-linejoin:miter;stroke-opacity:1" d="M 911.757,297.13 911.757,305.726 z" id="boundary" inkscape:connector-curvature="0" />
	<path style="fill:none;stroke:red;stroke-width:1px;stroke-linecap:butt;stroke-linejoin:miter;stroke-opacity:1" d="M 911.757,279.938 911.757,271.341 z" id="boundary" inkscape:connector-curvature="0" />
	<path style="fill:none;stroke:red;stroke-width:1px;stroke-linecap:butt;stroke-linejoin:miter;stroke-opacity:1" d="M 842.988,98.5581 851.584,98.5581 z" id="boundary" inkscape:connector-curvature="0" />
	<path style="fill:none;stroke:red;stroke-width:1px;stroke-linecap:butt;stroke-linejoin:miter;stroke-opacity:1" d="M 911.757,288.534 911.757,297.13 z" id="boundary" inkscape:connector-curvature="0" />
	<path style="fill:none;stroke:red;stroke-width:1px;stroke-linecap:butt;stroke-linejoin:miter;stroke-opacity:1" d="M 861.899,417.477 870.496,417.477 z" id="boundary" inkscape:connector-curvature="0" />
	<path style="fill:none;stroke:red;stroke-width:1px;stroke-linecap:butt;stroke-linejoin:miter;stroke-opacity:1" d="M 861.899,417.477 854.163,421.775 z" id="boundary" inkscape:connector-curvature="0" />
	<path style="fill:none;stroke:red;stroke-width:1px;stroke-linecap:butt;stroke-linejoin:miter;stroke-opacity:1" d="M 851.584,98.5581 860.18,98.5581 z" id="boundary" inkscape:connector-curvature="0" />
	<path style="fill:none;stroke:red;stroke-width:1px;stroke-linecap:butt;stroke-linejoin:miter;stroke-opacity:1" d="M 870.496,417.477 879.092,416.617 z" id="boundary" inkscape:connector-curvature="0" />
	<path style="fill:none;stroke:red;stroke-width:1px;stroke-linecap:butt;stroke-linejoin:miter;stroke-opacity:1" d="M 860.18,98.5581 868.776,98.5581 z" id="boundary" inkscape:connector-curvature="0" />
	<path style="fill:none;stroke:red;stroke-width:1px;stroke-linecap:butt;stroke-linejoin:miter;stroke-opacity:1" d="M 911.757,314.322 911.757,305.726 z" id="boundary" inkscape:connector-curvature="0" />
	<path style="fill:none;stroke:red;stroke-width:1px;stroke-linecap:butt;stroke-linejoin:miter;stroke-opacity:1" d="M 868.776,98.5581 877.373,98.5581 z" id="boundary" inkscape:connector-curvature="0" />
	<path style="fill:none;stroke:red;stroke-width:1px;stroke-linecap:butt;stroke-linejoin:miter;stroke-opacity:1" d="M 903.161,94.26 894.565,94.26 z" id="boundary" inkscape:connector-curvature="0" />
	<path style="fill:none;stroke:red;stroke-width:1px;stroke-linecap:butt;stroke-linejoin:miter;stroke-opacity:1" d="M 894.565,94.26 885.969,95.9792 z" id="boundary" inkscape:connector-curvature="0" />
	<path style="fill:none;stroke:red;stroke-width:1px;stroke-linecap:butt;stroke-linejoin:miter;stroke-opacity:1" d="M 877.373,98.5581 885.969,95.9792 z" id="boundary" inkscape:connector-curvature="0" />
	<path style="fill:none;stroke:red;stroke-width:1px;stroke-linecap:butt;stroke-linejoin:miter;stroke-opacity:1" d="M 895.425,408.88 904.021,408.88 z" id="boundary" inkscape:connector-curvature="0" />
	<path style="fill:none;stroke:red;stroke-width:1px;stroke-linecap:butt;stroke-linejoin:miter;stroke-opacity:1" d="M 895.425,408.88 887.688,413.179 z" id="boundary" inkscape:connector-curvature="0" />
	<path style="fill:none;stroke:red;stroke-width:1px;stroke-linecap:butt;stroke-linejoin:miter;stroke-opacity:1" d="M 911.757,94.26 903.161,94.26 z" id="boundary" inkscape:connector-curvature="0" />
	<path style="fill:none;stroke:red;stroke-width:1px;stroke-linecap:butt;stroke-linejoin:miter;stroke-opacity:1" d="M 911.757,404.582 920.354,404.582 z" id="boundary" inkscape:connector-curvature="0" />
	<path style="fill:none;stroke:red;stroke-width:1px;stroke-linecap:butt;stroke-linejoin:miter;stroke-opacity:1" d="M 911.757,404.582 904.021,408.88 z" id="boundary" inkscape:connector-curvature="0" />
	<path style="fill:none;stroke:red;stroke-width:1px;stroke-linecap:butt;stroke-linejoin:miter;stroke-opacity:1" d="M 916.055,340.111 917.775,348.707 z" id="boundary" inkscape:connector-curvature="0" />
	<path style="fill:none;stroke:red;stroke-width:1px;stroke-linecap:butt;stroke-linejoin:miter;stroke-opacity:1" d="M 917.775,348.707 920.354,357.303 z" id="boundary" inkscape:connector-curvature="0" />
	<path style="fill:none;stroke:red;stroke-width:1px;stroke-linecap:butt;stroke-linejoin:miter;stroke-opacity:1" d="M 911.757,322.919 911.757,314.322 z" id="boundary" inkscape:connector-curvature="0" />
	<path style="fill:none;stroke:red;stroke-width:1px;stroke-linecap:butt;stroke-linejoin:miter;stroke-opacity:1" d="M 911.757,271.341 918.634,265.324 z" id="boundary" inkscape:connector-curvature="0" />
	<path style="fill:none;stroke:red;stroke-width:1px;stroke-linecap:butt;stroke-linejoin:miter;stroke-opacity:1" d="M 913.477,331.515 911.757,322.919 z" id="boundary" inkscape:connector-curvature="0" />
	<path style="fill:none;stroke:red;stroke-width:1px;stroke-linecap:butt;stroke-linejoin:miter;stroke-opacity:1" d="M 924.652,254.149 931.529,248.132 z" id="boundary" inkscape:connector-curvature="0" />
	<path style="fill:none;stroke:red;stroke-width:1px;stroke-linecap:butt;stroke-linejoin:miter;stroke-opacity:1" d="M 924.652,254.149 918.634,265.324 z" id="boundary" inkscape:connector-curvature="0" />
	<path style="fill:none;stroke:red;stroke-width:1px;stroke-linecap:butt;stroke-linejoin:miter;stroke-opacity:1" d="M 916.055,340.111 913.477,331.515 z" id="boundary" inkscape:connector-curvature="0" />
	<path style="fill:none;stroke:red;stroke-width:1px;stroke-linecap:butt;stroke-linejoin:miter;stroke-opacity:1" d="M 946.142,232.659 937.546,241.255 z" id="boundary" inkscape:connector-curvature="0" />
	<path style="fill:none;stroke:red;stroke-width:1px;stroke-linecap:butt;stroke-linejoin:miter;stroke-opacity:1" d="M 922.073,365.899 920.354,357.303 z" id="boundary" inkscape:connector-curvature="0" />
	<path style="fill:none;stroke:red;stroke-width:1px;stroke-linecap:butt;stroke-linejoin:miter;stroke-opacity:1" d="M 973.65,128.645 976.229,137.241 z" id="boundary" inkscape:connector-curvature="0" />
	<path style="fill:none;stroke:red;stroke-width:1px;stroke-linecap:butt;stroke-linejoin:miter;stroke-opacity:1" d="M 973.65,128.645 969.352,120.908 z" id="boundary" inkscape:connector-curvature="0" />
	<path style="fill:none;stroke:red;stroke-width:1px;stroke-linecap:butt;stroke-linejoin:miter;stroke-opacity:1" d="M 924.652,374.496 922.073,365.899 z" id="boundary" inkscape:connector-curvature="0" />
	<path style="fill:none;stroke:red;stroke-width:1px;stroke-linecap:butt;stroke-linejoin:miter;stroke-opacity:1" d="M 928.95,382.232 924.652,374.496 z" id="boundary" inkscape:connector-curvature="0" />
	<path style="fill:none;stroke:red;stroke-width:1px;stroke-linecap:butt;stroke-linejoin:miter;stroke-opacity:1" d="M 931.529,248.132 937.546,241.255 z" id="boundary" inkscape:connector-curvature="0" />
	<path style="fill:none;stroke:red;stroke-width:1px;stroke-linecap:butt;stroke-linejoin:miter;stroke-opacity:1" d="M 920.354,404.582 927.231,398.565 z" id="boundary" inkscape:connector-curvature="0" />
	<path style="fill:none;stroke:red;stroke-width:1px;stroke-linecap:butt;stroke-linejoin:miter;stroke-opacity:1" d="M 969.352,120.908 967.633,112.312 z" id="boundary" inkscape:connector-curvature="0" />
	<path style="fill:none;stroke:red;stroke-width:1px;stroke-linecap:butt;stroke-linejoin:miter;stroke-opacity:1" d="M 920.354,94.26 911.757,94.26 z" id="boundary" inkscape:connector-curvature="0" />
	<path style="fill:none;stroke:red;stroke-width:1px;stroke-linecap:butt;stroke-linejoin:miter;stroke-opacity:1" d="M 927.231,398.565 928.95,382.232 z" id="boundary" inkscape:connector-curvature="0" />
	<path style="fill:none;stroke:red;stroke-width:1px;stroke-linecap:butt;stroke-linejoin:miter;stroke-opacity:1" d="M 928.95,94.26 936.686,89.9619 z" id="boundary" inkscape:connector-curvature="0" />
	<path style="fill:none;stroke:red;stroke-width:1px;stroke-linecap:butt;stroke-linejoin:miter;stroke-opacity:1" d="M 936.686,89.9619 945.282,89.9619 z" id="boundary" inkscape:connector-curvature="0" />
	<path style="fill:none;stroke:red;stroke-width:1px;stroke-linecap:butt;stroke-linejoin:miter;stroke-opacity:1" d="M 920.354,94.26 928.95,94.26 z" id="boundary" inkscape:connector-curvature="0" />
	<path style="fill:none;stroke:red;stroke-width:1px;stroke-linecap:butt;stroke-linejoin:miter;stroke-opacity:1" d="M 953.019,226.641 946.142,232.659 z" id="boundary" inkscape:connector-curvature="0" />
	<path style="fill:none;stroke:red;stroke-width:1px;stroke-linecap:butt;stroke-linejoin:miter;stroke-opacity:1" d="M 953.879,91.6811 945.282,89.9619 z" id="boundary" inkscape:connector-curvature="0" />
	<path style="fill:none;stroke:red;stroke-width:1px;stroke-linecap:butt;stroke-linejoin:miter;stroke-opacity:1" d="M 978.808,200.853 971.931,206.87 z" id="boundary" inkscape:connector-curvature="0" />
	<path style="fill:none;stroke:red;stroke-width:1px;stroke-linecap:butt;stroke-linejoin:miter;stroke-opacity:1" d="M 971.931,206.87 965.913,213.747 z" id="boundary" inkscape:connector-curvature="0" />
	<path style="fill:none;stroke:red;stroke-width:1px;stroke-linecap:butt;stroke-linejoin:miter;stroke-opacity:1" d="M 965.913,213.747 959.036,219.764 z" id="boundary" inkscape:connector-curvature="0" />
	<path style="fill:none;stroke:red;stroke-width:1px;stroke-linecap:butt;stroke-linejoin:miter;stroke-opacity:1" d="M 959.036,219.764 953.019,226.641 z" id="boundary" inkscape:connector-curvature="0" />
	<path style="fill:none;stroke:red;stroke-width:1px;stroke-linecap:butt;stroke-linejoin:miter;stroke-opacity:1" d="M 965.913,103.716 961.615,95.9792 z" id="boundary" inkscape:connector-curvature="0" />
	<path style="fill:none;stroke:red;stroke-width:1px;stroke-linecap:butt;stroke-linejoin:miter;stroke-opacity:1" d="M 961.615,95.9792 953.879,91.6811 z" id="boundary" inkscape:connector-curvature="0" />
	<path style="fill:none;stroke:red;stroke-width:1px;stroke-linecap:butt;stroke-linejoin:miter;stroke-opacity:1" d="M 967.633,112.312 965.913,103.716 z" id="boundary" inkscape:connector-curvature="0" />
	<path style="fill:none;stroke:red;stroke-width:1px;stroke-linecap:butt;stroke-linejoin:miter;stroke-opacity:1" d="M 978.808,200.853 984.825,193.976 z" id="boundary" inkscape:connector-curvature="0" />
	<path style="fill:none;stroke:red;stroke-width:1px;stroke-linecap:butt;stroke-linejoin:miter;stroke-opacity:1" d="M 976.229,137.241 980.527,144.977 z" id="boundary" inkscape:connector-curvature="0" />
	<path style="fill:none;stroke:red;stroke-width:1px;stroke-linecap:butt;stroke-linejoin:miter;stroke-opacity:1" d="M 984.825,193.976 989.123,185.38 z" id="boundary" inkscape:connector-curvature="0" />
	<path style="fill:none;stroke:red;stroke-width:1px;stroke-linecap:butt;stroke-linejoin:miter;stroke-opacity:1" d="M 989.123,185.38 996,179.362 z" id="boundary" inkscape:connector-curvature="0" />
	<path style="fill:none;stroke:red;stroke-width:1px;stroke-linecap:butt;stroke-linejoin:miter;stroke-opacity:1" d="M 984.825,152.714 980.527,144.977 z" id="boundary" inkscape:connector-curvature="0" />
	<path style="fill:none;stroke:red;stroke-width:1px;stroke-linecap:butt;stroke-linejoin:miter;stroke-opacity:1" d="M 988.263,161.31 984.825,152.714 z" id="boundary" inkscape:connector-curvature="0" />
	<path style="fill:none;stroke:red;stroke-width:1px;stroke-linecap:butt;stroke-linejoin:miter;stroke-opacity:1" d="M 996,179.362 995.14,167.328 z" id="boundary" inkscape:connector-curvature="0" />
	<path style="fill:none;stroke:red;stroke-width:1px;stroke-linecap:butt;stroke-linejoin:miter;stroke-opacity:1" d="M 988.263,161.31 995.14,167.328 z" id="boundary" inkscape:connector-curvature="0" />
	<circle cx="4" cy="242.974" r="4" fill="#0" id="circle0"/>
	<circle cx="4" cy="251.57" r="4" fill="#0" id="circle1"/>
	<circle cx="4" cy="260.166" r="4" fill="#0" id="circle2"/>
	<circle cx="8.29809" cy="267.903" r="4" fill="#0" id="circle3"/>
	<circle cx="10.8769" cy="236.097" r="4" fill="#0" id="circle4"/>
	<circle cx="12.5962" cy="275.64" r="4" fill="#0" id="circle5"/>
	<circle cx="12.5962" cy="284.236" r="4" fill="#0" id="circle6"/>
	<circle cx="16.8943" cy="291.972" r="4" fill="#0" id="circle7"/>
	<circle cx="16.8943" cy="300.568" r="4" fill="#0" id="circle8"/>
	<circle cx="18.6135" cy="231.799" r="4" fill="#0" id="circle9"/>
	<circle cx="21.1924" cy="308.305" r="4" fill="#0" id="circle10"/>
	<circle cx="21.1924" cy="316.901" r="4" fill="#0" id="circle11"/>
	<circle cx="22.052" cy="325.497" r="4" fill="#0" id="circle12"/>
	<circle cx="25.4905" cy="334.094" r="4" fill="#0" id="circle13"/>
	<circle cx="26.3501" cy="227.501" r="4" fill="#0" id="circle14"/>
	<circle cx="29.7886" cy="341.83" r="4" fill="#0" id="circle15"/>
	<circle cx="34.0867" cy="217.185" r="4" fill="#0" id="circle16"/>
	<circle cx="36.6655" cy="347.847" r="4" fill="#0" id="circle17"/>
	<circle cx="40.9636" cy="210.308" r="4" fill="#0" id="circle18"/>
	<circle cx="45.2617" cy="201.712" r="4" fill="#0" id="circle19"/>
	<circle cx="45.2617" cy="347.847" r="4" fill="#0" id="circle20"/>
	<circle cx="52.1386" cy="194.835" r="4" fill="#0" id="circle21"/>
	<circle cx="53.8579" cy="344.409" r="4" fill="#0" id="circle22"/>
	<circle cx="59.0156" cy="188.818" r="4" fill="#0" id="circle23"/>
	<circle cx="61.5945" cy="340.111" r="4" fill="#0" id="circle24"/>
	<circle cx="65.0329" cy="181.941" r="4" fill="#0" id="circle25"/>
	<circle cx="70.1906" cy="340.111" r="4" fill="#0" id="circle26"/>
	<circle cx="71.9099" cy="175.924" r="4" fill="#0" id="circle27"/>
	<circle cx="77.9272" cy="169.047" r="4" fill="#0" id="circle28"/>
	<circle cx="78.7868" cy="340.111" r="4" fill="#0" id="circle29"/>
	<circle cx="82.2253" cy="160.451" r="4" fill="#0" id="circle30"/>
	<circle cx="87.383" cy="340.111" r="4" fill="#0" id="circle31"/>
	<circle cx="89.1023" cy="154.433" r="4" fill="#0" id="circle32"/>
	<circle cx="95.1196" cy="147.556" r="4" fill="#0" id="circle33"/>
	<circle cx="95.9792" cy="340.111" r="4" fill="#0" id="circle34"/>
	<circle cx="101.997" cy="141.539" r="4" fill="#0" id="circle35"/>
	<circle cx="104.575" cy="340.111" r="4" fill="#0" id="circle36"/>
	<circle cx="109.733" cy="137.241" r="4" fill="#0" id="circle37"/>
	<circle cx="113.172" cy="340.111" r="4" fill="#0" id="circle38"/>
	<circle cx="115.75" cy="23.7712" r="4" fill="#0" id="circle39"/>
	<circle cx="115.75" cy="32.3674" r="4" fill="#0" id="circle40"/>
	<circle cx="115.75" cy="40.9636" r="4" fill="#0" id="circle41"/>
	<circle cx="115.75" cy="49.5598" r="4" fill="#0" id="circle42"/>
	<circle cx="115.75" cy="58.156" r="4" fill="#0" id="circle43"/>
	<circle cx="115.75" cy="66.7522" r="4" fill="#0" id="circle44"/>
	<circle cx="115.75" cy="75.3484" r="4" fill="#0" id="circle45"/>
	<circle cx="115.75" cy="83.9445" r="4" fill="#0" id="circle46"/>
	<circle cx="115.75" cy="92.5407" r="4" fill="#0" id="circle47"/>
	<circle cx="115.75" cy="101.137" r="4" fill="#0" id="circle48"/>
	<circle cx="115.75" cy="109.733" r="4" fill="#0" id="circle49"/>
	<circle cx="116.61" cy="130.364" r="4" fill="#0" id="circle50"/>
	<circle cx="120.049" cy="117.47" r="4" fill="#0" id="circle51"/>
	<circle cx="121.768" cy="340.111" r="4" fill="#0" id="circle52"/>
	<circle cx="122.627" cy="16.8943" r="4" fill="#0" id="circle53"/>
	<circle cx="130.364" cy="12.5962" r="4" fill="#0" id="circle54"/>
	<circle cx="130.364" cy="340.111" r="4" fill="#0" id="circle55"/>
	<circle cx="138.96" cy="12.5962" r="4" fill="#0" id="circle56"/>
	<circle cx="138.96" cy="340.111" r="4" fill="#0" id="circle57"/>
	<circle cx="147.556" cy="12.5962" r="4" fill="#0" id="circle58"/>
	<circle cx="147.556" cy="340.111" r="4" fill="#0" id="circle59"/>
	<circle cx="156.153" cy="12.5962" r="4" fill="#0" id="circle60"/>
	<circle cx="156.153" cy="340.111" r="4" fill="#0" id="circle61"/>
	<circle cx="163.889" cy="8.29809" r="4" fill="#0" id="circle62"/>
	<circle cx="164.749" cy="340.111" r="4" fill="#0" id="circle63"/>
	<circle cx="172.485" cy="8.29809" r="4" fill="#0" id="circle64"/>
	<circle cx="173.345" cy="340.111" r="4" fill="#0" id="circle65"/>
	<circle cx="181.081" cy="8.29809" r="4" fill="#0" id="circle66"/>
	<circle cx="181.941" cy="340.111" r="4" fill="#0" id="circle67"/>
	<circle cx="189.678" cy="8.29809" r="4" fill="#0" id="circle68"/>
	<circle cx="190.537" cy="340.111" r="4" fill="#0" id="circle69"/>
	<circle cx="198.274" cy="8.29809" r="4" fill="#0" id="circle70"/>
	<circle cx="199.133" cy="340.111" r="4" fill="#0" id="circle71"/>
	<circle cx="206.87" cy="8.29809" r="4" fill="#0" id="circle72"/>
	<circle cx="206.87" cy="344.409" r="4" fill="#0" id="circle73"/>
	<circle cx="214.607" cy="4" r="4" fill="#0" id="circle74"/>
	<circle cx="215.466" cy="346.128" r="4" fill="#0" id="circle75"/>
	<circle cx="223.203" cy="4" r="4" fill="#0" id="circle76"/>
	<circle cx="223.203" cy="350.426" r="4" fill="#0" id="circle77"/>
	<circle cx="231.799" cy="4" r="4" fill="#0" id="circle78"/>
	<circle cx="231.799" cy="353.005" r="4" fill="#0" id="circle79"/>
	<circle cx="236.957" cy="359.882" r="4" fill="#0" id="circle80"/>
	<circle cx="240.395" cy="4" r="4" fill="#0" id="circle81"/>
	<circle cx="243.834" cy="365.899" r="4" fill="#0" id="circle82"/>
	<circle cx="248.991" cy="5.71924" r="4" fill="#0" id="circle83"/>
	<circle cx="251.57" cy="370.198" r="4" fill="#0" id="circle84"/>
	<circle cx="256.728" cy="10.0173" r="4" fill="#0" id="circle85"/>
	<circle cx="260.166" cy="373.636" r="4" fill="#0" id="circle86"/>
	<circle cx="265.324" cy="13.4558" r="4" fill="#0" id="circle87"/>
	<circle cx="267.903" cy="377.934" r="4" fill="#0" id="circle88"/>
	<circle cx="273.061" cy="17.7539" r="4" fill="#0" id="circle89"/>
	<circle cx="276.499" cy="381.373" r="4" fill="#0" id="circle90"/>
	<circle cx="279.938" cy="23.7712" r="4" fill="#0" id="circle91"/>
	<circle cx="283.376" cy="387.39" r="4" fill="#0" id="circle92"/>
	<circle cx="285.955" cy="30.6482" r="4" fill="#0" id="circle93"/>
	<circle cx="288.534" cy="394.267" r="4" fill="#0" id="circle94"/>
	<circle cx="292.832" cy="36.6655" r="4" fill="#0" id="circle95"/>
	<circle cx="297.13" cy="397.705" r="4" fill="#0" id="circle96"/>
	<circle cx="298.849" cy="43.5425" r="4" fill="#0" id="circle97"/>
	<circle cx="303.147" cy="404.582" r="4" fill="#0" id="circle98"/>
	<circle cx="307.445" cy="46.9809" r="4" fill="#0" id="circle99"/>
	<circle cx="310.024" cy="410.6" r="4" fill="#0" id="circle100"/>
	<circle cx="313.463" cy="53.8579" r="4" fill="#0" id="circle101"/>
	<circle cx="316.042" cy="417.477" r="4" fill="#0" id="circle102"/>
	<circle cx="320.34" cy="59.8752" r="4" fill="#0" id="circle103"/>
	<circle cx="323.778" cy="421.775" r="4" fill="#0" id="circle104"/>
	<circle cx="328.076" cy="64.1733" r="4" fill="#0" id="circle105"/>
	<circle cx="332.374" cy="421.775" r="4" fill="#0" id="circle106"/>
	<circle cx="335.813" cy="68.4714" r="4" fill="#0" id="circle107"/>
	<circle cx="340.111" cy="417.477" r="4" fill="#0" id="circle108"/>
	<circle cx="343.549" cy="72.7695" r="4" fill="#0" id="circle109"/>
	<circle cx="348.707" cy="417.477" r="4" fill="#0" id="circle110"/>
	<circle cx="352.146" cy="71.0503" r="4" fill="#0" id="circle111"/>
	<circle cx="357.303" cy="417.477" r="4" fill="#0" id="circle112"/>
	<circle cx="360.742" cy="68.4714" r="4" fill="#0" id="circle113"/>
	<circle cx="365.899" cy="413.179" r="4" fill="#0" id="circle114"/>
	<circle cx="369.338" cy="68.4714" r="4" fill="#0" id="circle115"/>
	<circle cx="374.496" cy="413.179" r="4" fill="#0" id="circle116"/>
	<circle cx="377.934" cy="66.7522" r="4" fill="#0" id="circle117"/>
	<circle cx="383.092" cy="413.179" r="4" fill="#0" id="circle118"/>
	<circle cx="386.53" cy="64.1733" r="4" fill="#0" id="circle119"/>
	<circle cx="390.828" cy="408.88" r="4" fill="#0" id="circle120"/>
	<circle cx="395.127" cy="64.1733" r="4" fill="#0" id="circle121"/>
	<circle cx="399.425" cy="408.88" r="4" fill="#0" id="circle122"/>
	<circle cx="403.723" cy="62.4541" r="4" fill="#0" id="circle123"/>
	<circle cx="408.021" cy="406.302" r="4" fill="#0" id="circle124"/>
	<circle cx="412.319" cy="59.8752" r="4" fill="#0" id="circle125"/>
	<circle cx="416.617" cy="404.582" r="4" fill="#0" id="circle126"/>
	<circle cx="420.915" cy="59.8752" r="4" fill="#0" id="circle127"/>
	<circle cx="425.213" cy="404.582" r="4" fill="#0" id="circle128"/>
	<circle cx="428.652" cy="55.5771" r="4" fill="#0" id="circle129"/>
	<circle cx="433.809" cy="402.003" r="4" fill="#0" id="circle130"/>
	<circle cx="437.248" cy="55.5771" r="4" fill="#0" id="circle131"/>
	<circle cx="442.406" cy="397.705" r="4" fill="#0" id="circle132"/>
	<circle cx="445.844" cy="55.5771" r="4" fill="#0" id="circle133"/>
	<circle cx="451.002" cy="395.986" r="4" fill="#0" id="circle134"/>
	<circle cx="454.44" cy="55.5771" r="4" fill="#0" id="circle135"/>
	<circle cx="459.598" cy="395.986" r="4" fill="#0" id="circle136"/>
	<circle cx="462.177" cy="51.279" r="4" fill="#0" id="circle137"/>
	<circle cx="468.194" cy="393.407" r="4" fill="#0" id="circle138"/>
	<circle cx="470.773" cy="51.279" r="4" fill="#0" id="circle139"/>
	<circle cx="476.79" cy="391.688" r="4" fill="#0" id="circle140"/>
	<circle cx="479.369" cy="51.279" r="4" fill="#0" id="circle141"/>
	<circle cx="485.386" cy="389.109" r="4" fill="#0" id="circle142"/>
	<circle cx="487.965" cy="46.9809" r="4" fill="#0" id="circle143"/>
	<circle cx="493.983" cy="387.39" r="4" fill="#0" id="circle144"/>
	<circle cx="496.562" cy="46.9809" r="4" fill="#0" id="circle145"/>
	<circle cx="501.719" cy="383.092" r="4" fill="#0" id="circle146"/>
	<circle cx="505.158" cy="46.9809" r="4" fill="#0" id="circle147"/>
	<circle cx="509.456" cy="378.794" r="4" fill="#0" id="circle148"/>
	<circle cx="512.894" cy="42.6828" r="4" fill="#0" id="circle149"/>
	<circle cx="518.052" cy="378.794" r="4" fill="#0" id="circle150"/>
	<circle cx="521.49" cy="42.6828" r="4" fill="#0" id="circle151"/>
	<circle cx="526.648" cy="377.934" r="4" fill="#0" id="circle152"/>
	<circle cx="530.087" cy="42.6828" r="4" fill="#0" id="circle153"/>
	<circle cx="535.244" cy="374.496" r="4" fill="#0" id="circle154"/>
	<circle cx="538.683" cy="42.6828" r="4" fill="#0" id="circle155"/>
	<circle cx="543.841" cy="374.496" r="4" fill="#0" id="circle156"/>
	<circle cx="547.279" cy="42.6828" r="4" fill="#0" id="circle157"/>
	<circle cx="552.437" cy="373.636" r="4" fill="#0" id="circle158"/>
	<circle cx="555.016" cy="38.3847" r="4" fill="#0" id="circle159"/>
	<circle cx="561.033" cy="370.198" r="4" fill="#0" id="circle160"/>
	<circle cx="563.612" cy="38.3847" r="4" fill="#0" id="circle161"/>
	<circle cx="569.629" cy="370.198" r="4" fill="#0" id="circle162"/>
	<circle cx="572.208" cy="38.3847" r="4" fill="#0" id="circle163"/>
	<circle cx="578.225" cy="369.338" r="4" fill="#0" id="circle164"/>
	<circle cx="580.804" cy="38.3847" r="4" fill="#0" id="circle165"/>
	<circle cx="586.821" cy="365.899" r="4" fill="#0" id="circle166"/>
	<circle cx="589.4" cy="38.3847" r="4" fill="#0" id="circle167"/>
	<circle cx="595.418" cy="365.899" r="4" fill="#0" id="circle168"/>
	<circle cx="597.997" cy="35.8059" r="4" fill="#0" id="circle169"/>
	<circle cx="604.014" cy="365.899" r="4" fill="#0" id="circle170"/>
	<circle cx="606.593" cy="34.0867" r="4" fill="#0" id="circle171"/>
	<circle cx="612.61" cy="365.899" r="4" fill="#0" id="circle172"/>
	<circle cx="615.189" cy="31.5078" r="4" fill="#0" id="circle173"/>
	<circle cx="621.206" cy="365.899" r="4" fill="#0" id="circle174"/>
	<circle cx="623.785" cy="29.7886" r="4" fill="#0" id="circle175"/>
	<circle cx="629.802" cy="365.899" r="4" fill="#0" id="circle176"/>
	<circle cx="632.381" cy="27.2097" r="4" fill="#0" id="circle177"/>
	<circle cx="638.399" cy="365.899" r="4" fill="#0" id="circle178"/>
	<circle cx="640.977" cy="25.4905" r="4" fill="#0" id="circle179"/>
	<circle cx="646.995" cy="365.899" r="4" fill="#0" id="circle180"/>
	<circle cx="649.574" cy="25.4905" r="4" fill="#0" id="circle181"/>
	<circle cx="655.591" cy="365.899" r="4" fill="#0" id="circle182"/>
	<circle cx="658.17" cy="28.0693" r="4" fill="#0" id="circle183"/>
	<circle cx="664.187" cy="365.899" r="4" fill="#0" id="circle184"/>
	<circle cx="666.766" cy="29.7886" r="4" fill="#0" id="circle185"/>
	<circle cx="672.783" cy="365.899" r="4" fill="#0" id="circle186"/>
	<circle cx="674.503" cy="34.0867" r="4" fill="#0" id="circle187"/>
	<circle cx="681.38" cy="365.899" r="4" fill="#0" id="circle188"/>
	<circle cx="683.099" cy="34.0867" r="4" fill="#0" id="circle189"/>
	<circle cx="689.116" cy="370.198" r="4" fill="#0" id="circle190"/>
	<circle cx="691.695" cy="34.0867" r="4" fill="#0" id="circle191"/>
	<circle cx="696.853" cy="374.496" r="4" fill="#0" id="circle192"/>
	<circle cx="700.291" cy="35.8059" r="4" fill="#0" id="circle193"/>
	<circle cx="704.589" cy="378.794" r="4" fill="#0" id="circle194"/>
	<circle cx="708.887" cy="38.3847" r="4" fill="#0" id="circle195"/>
	<circle cx="712.326" cy="383.092" r="4" fill="#0" id="circle196"/>
	<circle cx="717.484" cy="38.3847" r="4" fill="#0" id="circle197"/>
	<circle cx="718.343" cy="389.969" r="4" fill="#0" id="circle198"/>
	<circle cx="725.22" cy="42.6828" r="4" fill="#0" id="circle199"/>
	<circle cx="726.939" cy="393.407" r="4" fill="#0" id="circle200"/>
	<circle cx="732.957" cy="400.284" r="4" fill="#0" id="circle201"/>
	<circle cx="733.816" cy="43.5425" r="4" fill="#0" id="circle202"/>
	<circle cx="740.693" cy="404.582" r="4" fill="#0" id="circle203"/>
	<circle cx="741.553" cy="47.8406" r="4" fill="#0" id="circle204"/>
	<circle cx="748.43" cy="408.88" r="4" fill="#0" id="circle205"/>
	<circle cx="750.149" cy="51.279" r="4" fill="#0" id="circle206"/>
	<circle cx="756.166" cy="58.156" r="4" fill="#0" id="circle207"/>
	<circle cx="756.166" cy="413.179" r="4" fill="#0" id="circle208"/>
	<circle cx="763.903" cy="417.477" r="4" fill="#0" id="circle209"/>
	<circle cx="764.763" cy="61.5945" r="4" fill="#0" id="circle210"/>
	<circle cx="769.92" cy="68.4714" r="4" fill="#0" id="circle211"/>
	<circle cx="769.92" cy="424.354" r="4" fill="#0" id="circle212"/>
	<circle cx="778.516" cy="71.0503" r="4" fill="#0" id="circle213"/>
	<circle cx="778.516" cy="427.792" r="4" fill="#0" id="circle214"/>
	<circle cx="785.393" cy="77.0676" r="4" fill="#0" id="circle215"/>
	<circle cx="786.253" cy="432.09" r="4" fill="#0" id="circle216"/>
	<circle cx="793.13" cy="81.3657" r="4" fill="#0" id="circle217"/>
	<circle cx="794.849" cy="434.669" r="4" fill="#0" id="circle218"/>
	<circle cx="800.867" cy="85.6638" r="4" fill="#0" id="circle219"/>
	<circle cx="803.445" cy="434.669" r="4" fill="#0" id="circle220"/>
	<circle cx="808.603" cy="89.9619" r="4" fill="#0" id="circle221"/>
	<circle cx="811.182" cy="430.371" r="4" fill="#0" id="circle222"/>
	<circle cx="817.199" cy="92.5407" r="4" fill="#0" id="circle223"/>
	<circle cx="819.778" cy="428.652" r="4" fill="#0" id="circle224"/>
	<circle cx="825.795" cy="94.26" r="4" fill="#0" id="circle225"/>
	<circle cx="828.374" cy="426.073" r="4" fill="#0" id="circle226"/>
	<circle cx="834.392" cy="96.8388" r="4" fill="#0" id="circle227"/>
	<circle cx="836.971" cy="424.354" r="4" fill="#0" id="circle228"/>
	<circle cx="842.988" cy="98.5581" r="4" fill="#0" id="circle229"/>
	<circle cx="845.567" cy="421.775" r="4" fill="#0" id="circle230"/>
	<circle cx="851.584" cy="98.5581" r="4" fill="#0" id="circle231"/>
	<circle cx="854.163" cy="421.775" r="4" fill="#0" id="circle232"/>
	<circle cx="860.18" cy="98.5581" r="4" fill="#0" id="circle233"/>
	<circle cx="861.899" cy="417.477" r="4" fill="#0" id="circle234"/>
	<circle cx="868.776" cy="98.5581" r="4" fill="#0" id="circle235"/>
	<circle cx="870.496" cy="417.477" r="4" fill="#0" id="circle236"/>
	<circle cx="877.373" cy="98.5581" r="4" fill="#0" id="circle237"/>
	<circle cx="879.092" cy="416.617" r="4" fill="#0" id="circle238"/>
	<circle cx="885.969" cy="95.9792" r="4" fill="#0" id="circle239"/>
	<circle cx="887.688" cy="413.179" r="4" fill="#0" id="circle240"/>
	<circle cx="894.565" cy="94.26" r="4" fill="#0" id="circle241"/>
	<circle cx="895.425" cy="408.88" r="4" fill="#0" id="circle242"/>
	<circle cx="903.161" cy="94.26" r="4" fill="#0" id="circle243"/>
	<circle cx="904.021" cy="408.88" r="4" fill="#0" id="circle244"/>
	<circle cx="911.757" cy="94.26" r="4" fill="#0" id="circle245"/>
	<circle cx="911.757" cy="271.341" r="4" fill="#0" id="circle246"/>
	<circle cx="911.757" cy="279.938" r="4" fill="#0" id="circle247"/>
	<circle cx="911.757" cy="288.534" r="4" fill="#0" id="circle248"/>
	<circle cx="911.757" cy="297.13" r="4" fill="#0" id="circle249"/>
	<circle cx="911.757" cy="305.726" r="4" fill="#0" id="circle250"/>
	<circle cx="911.757" cy="314.322" r="4" fill="#0" id="circle251"/>
	<circle cx="911.757" cy="322.919" r="4" fill="#0" id="circle252"/>
	<circle cx="911.757" cy="404.582" r="4" fill="#0" id="circle253"/>
	<circle cx="913.477" cy="331.515" r="4" fill="#0" id="circle254"/>
	<circle cx="916.055" cy="340.111" r="4" fill="#0" id="circle255"/>
	<circle cx="917.775" cy="348.707" r="4" fill="#0" id="circle256"/>
	<circle cx="918.634" cy="265.324" r="4" fill="#0" id="circle257"/>
	<circle cx="920.354" cy="94.26" r="4" fill="#0" id="circle258"/>
	<circle cx="920.354" cy="357.303" r="4" fill="#0" id="circle259"/>
	<circle cx="920.354" cy="404.582" r="4" fill="#0" id="circle260"/>
	<circle cx="922.073" cy="365.899" r="4" fill="#0" id="circle261"/>
	<circle cx="924.652" cy="254.149" r="4" fill="#0" id="circle262"/>
	<circle cx="924.652" cy="374.496" r="4" fill="#0" id="circle263"/>
	<circle cx="927.231" cy="398.565" r="4" fill="#0" id="circle264"/>
	<circle cx="928.95" cy="94.26" r="4" fill="#0" id="circle265"/>
	<circle cx="928.95" cy="382.232" r="4" fill="#0" id="circle266"/>
	<circle cx="931.529" cy="248.132" r="4" fill="#0" id="circle267"/>
	<circle cx="936.686" cy="89.9619" r="4" fill="#0" id="circle268"/>
	<circle cx="937.546" cy="241.255" r="4" fill="#0" id="circle269"/>
	<circle cx="945.282" cy="89.9619" r="4" fill="#0" id="circle270"/>
	<circle cx="946.142" cy="232.659" r="4" fill="#0" id="circle271"/>
	<circle cx="953.019" cy="226.641" r="4" fill="#0" id="circle272"/>
	<circle cx="953.879" cy="91.6811" r="4" fill="#0" id="circle273"/>
	<circle cx="959.036" cy="219.764" r="4" fill="#0" id="circle274"/>
	<circle cx="961.615" cy="95.9792" r="4" fill="#0" id="circle275"/>
	<circle cx="965.913" cy="103.716" r="4" fill="#0" id="circle276"/>
	<circle cx="965.913" cy="213.747" r="4" fill="#0" id="circle277"/>
	<circle cx="967.633" cy="112.312" r="4" fill="#0" id="circle278"/>
	<circle cx="969.352" cy="120.908" r="4" fill="#0" id="circle279"/>
	<circle cx="971.931" cy="206.87" r="4" fill="#0" id="circle280"/>
	<circle cx="973.65" cy="128.645" r="4" fill="#0" id="circle281"/>
	<circle cx="976.229" cy="137.241" r="4" fill="#0" id="circle282"/>
	<circle cx="978.808" cy="200.853" r="4" fill="#0" id="circle283"/>
	<circle cx="980.527" cy="144.977" r="4" fill="#0" id="circle284"/>
	<circle cx="984.825" cy="152.714" r="4" fill="#0" id="circle285"/>
	<circle cx="984.825" cy="193.976" r="4" fill="#0" id="circle286"/>
	<circle cx="988.263" cy="161.31" r="4" fill="#0" id="circle287"/>
	<circle cx="989.123" cy="185.38" r="4" fill="#0" id="circle288"/>
	<circle cx="995.14" cy="167.328" r="4" fill="#0" id="circle289"/>
	<circle cx="996" cy="179.362" r="4" fill="#0" id="circle290"/>
	</g>
</svg>