<?xml version="1.0" encoding="UTF-8" standalone="no"?>
<!-- Created with CurveBenchmark -->
<svg
	xmlns:dc="http://purl.org/dc/elements/1.1/"
	xmlns:cc="http://creativecommons.org/ns#"
	xmlns:rdf="http://www.w3.org/1999/02/22-rdf-syntax-ns#"
	xmlns:svg="http://www.w3.org/2000/svg"
	xmlns="http://www.w3.org/2000/svg"
	xmlns:sodipodi="http://sodipodi.sourceforge.net/DTD/sodipodi-0.dtd"
	xmlns:inkscape="http://www.inkscape.org/namespaces/inkscape"
	width="1000"
	height="1000"
	id="svg2"
	version="1.1"
	sodipodi:docname="manifold/peel-dude11occ4.png.txt">
<defs
	id="defs4" />
<metadata
	id="metadata7">
	<rdf:RDF>
		<cc:Work
			rdf:about="">
			<dc:format>image/svg+xml</dc:format>
			<dc:type
				rdf:resource="http://purl.org/dc/dcmitype/StillImage" />
			<dc:title></dc:title>
		</cc:Work>
	</rdf:RDF>
</metadata>
<g
	inkscape:label="Layer 1"
	inkscape:groupmode="layer"
	id="layer1">
	<path style="fill:none;stroke:red;stroke-width:1px;stroke-linecap:butt;stroke-linejoin:miter;stroke-opacity:1" d="M 22.7879,385.394 13.3939,404.182 z" id="boundary" inkscape:connector-curvature="0" />
	<path style="fill:none;stroke:red;stroke-width:1px;stroke-linecap:butt;stroke-linejoin:miter;stroke-opacity:1" d="M 4,422.97 13.3939,404.182 z" id="boundary" inkscape:connector-curvature="0" />
	<path style="fill:none;stroke:red;stroke-width:1px;stroke-linecap:butt;stroke-linejoin:miter;stroke-opacity:1" d="M 22.7879,447.394 4,441.758 z" id="boundary" inkscape:connector-curvature="0" />
	<path style="fill:none;stroke:red;stroke-width:1px;stroke-linecap:butt;stroke-linejoin:miter;stroke-opacity:1" d="M 4,441.758 4,422.97 z" id="boundary" inkscape:connector-curvature="0" />
	<path style="fill:none;stroke:red;stroke-width:1px;stroke-linecap:butt;stroke-linejoin:miter;stroke-opacity:1" d="M 37.8182,370.364 22.7879,385.394 z" id="boundary" inkscape:connector-curvature="0" />
	<path style="fill:none;stroke:red;stroke-width:1px;stroke-linecap:butt;stroke-linejoin:miter;stroke-opacity:1" d="M 47.2121,351.576 37.8182,370.364 z" id="boundary" inkscape:connector-curvature="0" />
	<path style="fill:none;stroke:red;stroke-width:1px;stroke-linecap:butt;stroke-linejoin:miter;stroke-opacity:1" d="M 41.5758,451.152 22.7879,447.394 z" id="boundary" inkscape:connector-curvature="0" />
	<path style="fill:none;stroke:red;stroke-width:1px;stroke-linecap:butt;stroke-linejoin:miter;stroke-opacity:1" d="M 56.6061,436.121 41.5758,451.152 z" id="boundary" inkscape:connector-curvature="0" />
	<path style="fill:none;stroke:red;stroke-width:1px;stroke-linecap:butt;stroke-linejoin:miter;stroke-opacity:1" d="M 60.3636,329.03 47.2121,351.576 z" id="boundary" inkscape:connector-curvature="0" />
	<path style="fill:none;stroke:red;stroke-width:1px;stroke-linecap:butt;stroke-linejoin:miter;stroke-opacity:1" d="M 71.6364,419.212 56.6061,436.121 z" id="boundary" inkscape:connector-curvature="0" />
	<path style="fill:none;stroke:red;stroke-width:1px;stroke-linecap:butt;stroke-linejoin:miter;stroke-opacity:1" d="M 75.3939,314 60.3636,329.03 z" id="boundary" inkscape:connector-curvature="0" />
	<path style="fill:none;stroke:red;stroke-width:1px;stroke-linecap:butt;stroke-linejoin:miter;stroke-opacity:1" d="M 86.6667,406.061 99.8182,391.03 z" id="boundary" inkscape:connector-curvature="0" />
	<path style="fill:none;stroke:red;stroke-width:1px;stroke-linecap:butt;stroke-linejoin:miter;stroke-opacity:1" d="M 84.7879,295.212 75.3939,314 z" id="boundary" inkscape:connector-curvature="0" />
	<path style="fill:none;stroke:red;stroke-width:1px;stroke-linecap:butt;stroke-linejoin:miter;stroke-opacity:1" d="M 86.6667,406.061 71.6364,419.212 z" id="boundary" inkscape:connector-curvature="0" />
	<path style="fill:none;stroke:red;stroke-width:1px;stroke-linecap:butt;stroke-linejoin:miter;stroke-opacity:1" d="M 97.9394,263.273 84.7879,295.212 z" id="boundary" inkscape:connector-curvature="0" />
	<path style="fill:none;stroke:red;stroke-width:1px;stroke-linecap:butt;stroke-linejoin:miter;stroke-opacity:1" d="M 257.636,424.848 267.03,441.758 z" id="boundary" inkscape:connector-curvature="0" />
	<path style="fill:none;stroke:red;stroke-width:1px;stroke-linecap:butt;stroke-linejoin:miter;stroke-opacity:1" d="M 107.333,244.485 122.364,229.455 z" id="boundary" inkscape:connector-curvature="0" />
	<path style="fill:none;stroke:red;stroke-width:1px;stroke-linecap:butt;stroke-linejoin:miter;stroke-opacity:1" d="M 248.242,387.273 250.121,406.061 z" id="boundary" inkscape:connector-curvature="0" />
	<path style="fill:none;stroke:red;stroke-width:1px;stroke-linecap:butt;stroke-linejoin:miter;stroke-opacity:1" d="M 248.242,387.273 238.848,370.364 z" id="boundary" inkscape:connector-curvature="0" />
	<path style="fill:none;stroke:red;stroke-width:1px;stroke-linecap:butt;stroke-linejoin:miter;stroke-opacity:1" d="M 97.9394,263.273 107.333,244.485 z" id="boundary" inkscape:connector-curvature="0" />
	<path style="fill:none;stroke:red;stroke-width:1px;stroke-linecap:butt;stroke-linejoin:miter;stroke-opacity:1" d="M 114.848,377.879 99.8182,391.03 z" id="boundary" inkscape:connector-curvature="0" />
	<path style="fill:none;stroke:red;stroke-width:1px;stroke-linecap:butt;stroke-linejoin:miter;stroke-opacity:1" d="M 128,362.848 114.848,377.879 z" id="boundary" inkscape:connector-curvature="0" />
	<path style="fill:none;stroke:red;stroke-width:1px;stroke-linecap:butt;stroke-linejoin:miter;stroke-opacity:1" d="M 116.727,958.424 116.727,939.636 z" id="boundary" inkscape:connector-curvature="0" />
	<path style="fill:none;stroke:red;stroke-width:1px;stroke-linecap:butt;stroke-linejoin:miter;stroke-opacity:1" d="M 126.121,911.455 116.727,939.636 z" id="boundary" inkscape:connector-curvature="0" />
	<path style="fill:none;stroke:red;stroke-width:1px;stroke-linecap:butt;stroke-linejoin:miter;stroke-opacity:1" d="M 116.727,977.212 116.727,958.424 z" id="boundary" inkscape:connector-curvature="0" />
	<path style="fill:none;stroke:red;stroke-width:1px;stroke-linecap:butt;stroke-linejoin:miter;stroke-opacity:1" d="M 137.394,214.424 156.182,205.03 z" id="boundary" inkscape:connector-curvature="0" />
	<path style="fill:none;stroke:red;stroke-width:1px;stroke-linecap:butt;stroke-linejoin:miter;stroke-opacity:1" d="M 135.515,892.667 126.121,911.455 z" id="boundary" inkscape:connector-curvature="0" />
	<path style="fill:none;stroke:red;stroke-width:1px;stroke-linecap:butt;stroke-linejoin:miter;stroke-opacity:1" d="M 225.697,334.667 229.455,353.455 z" id="boundary" inkscape:connector-curvature="0" />
	<path style="fill:none;stroke:red;stroke-width:1px;stroke-linecap:butt;stroke-linejoin:miter;stroke-opacity:1" d="M 137.394,344.061 128,362.848 z" id="boundary" inkscape:connector-curvature="0" />
	<path style="fill:none;stroke:red;stroke-width:1px;stroke-linecap:butt;stroke-linejoin:miter;stroke-opacity:1" d="M 144.909,873.879 135.515,892.667 z" id="boundary" inkscape:connector-curvature="0" />
	<path style="fill:none;stroke:red;stroke-width:1px;stroke-linecap:butt;stroke-linejoin:miter;stroke-opacity:1" d="M 137.394,344.061 152.424,330.909 z" id="boundary" inkscape:connector-curvature="0" />
	<path style="fill:none;stroke:red;stroke-width:1px;stroke-linecap:butt;stroke-linejoin:miter;stroke-opacity:1" d="M 137.394,214.424 122.364,229.455 z" id="boundary" inkscape:connector-curvature="0" />
	<path style="fill:none;stroke:red;stroke-width:1px;stroke-linecap:butt;stroke-linejoin:miter;stroke-opacity:1" d="M 144.909,996 126.121,994.121 z" id="boundary" inkscape:connector-curvature="0" />
	<path style="fill:none;stroke:red;stroke-width:1px;stroke-linecap:butt;stroke-linejoin:miter;stroke-opacity:1" d="M 126.121,994.121 116.727,977.212 z" id="boundary" inkscape:connector-curvature="0" />
	<path style="fill:none;stroke:red;stroke-width:1px;stroke-linecap:butt;stroke-linejoin:miter;stroke-opacity:1" d="M 184.364,306.485 203.152,306.485 z" id="boundary" inkscape:connector-curvature="0" />
	<path style="fill:none;stroke:red;stroke-width:1px;stroke-linecap:butt;stroke-linejoin:miter;stroke-opacity:1" d="M 154.303,855.091 144.909,873.879 z" id="boundary" inkscape:connector-curvature="0" />
	<path style="fill:none;stroke:red;stroke-width:1px;stroke-linecap:butt;stroke-linejoin:miter;stroke-opacity:1" d="M 152.424,330.909 165.576,315.879 z" id="boundary" inkscape:connector-curvature="0" />
	<path style="fill:none;stroke:red;stroke-width:1px;stroke-linecap:butt;stroke-linejoin:miter;stroke-opacity:1" d="M 163.697,826.909 173.091,808.121 z" id="boundary" inkscape:connector-curvature="0" />
	<path style="fill:none;stroke:red;stroke-width:1px;stroke-linecap:butt;stroke-linejoin:miter;stroke-opacity:1" d="M 171.212,191.879 156.182,205.03 z" id="boundary" inkscape:connector-curvature="0" />
	<path style="fill:none;stroke:red;stroke-width:1px;stroke-linecap:butt;stroke-linejoin:miter;stroke-opacity:1" d="M 163.697,826.909 154.303,855.091 z" id="boundary" inkscape:connector-curvature="0" />
	<path style="fill:none;stroke:red;stroke-width:1px;stroke-linecap:butt;stroke-linejoin:miter;stroke-opacity:1" d="M 163.697,986.606 144.909,996 z" id="boundary" inkscape:connector-curvature="0" />
	<path style="fill:none;stroke:red;stroke-width:1px;stroke-linecap:butt;stroke-linejoin:miter;stroke-opacity:1" d="M 165.576,315.879 184.364,306.485 z" id="boundary" inkscape:connector-curvature="0" />
	<path style="fill:none;stroke:red;stroke-width:1px;stroke-linecap:butt;stroke-linejoin:miter;stroke-opacity:1" d="M 590.182,847.576 605.212,860.727 z" id="boundary" inkscape:connector-curvature="0" />
	<path style="fill:none;stroke:red;stroke-width:1px;stroke-linecap:butt;stroke-linejoin:miter;stroke-opacity:1" d="M 590.182,847.576 571.394,840.061 z" id="boundary" inkscape:connector-curvature="0" />
	<path style="fill:none;stroke:red;stroke-width:1px;stroke-linecap:butt;stroke-linejoin:miter;stroke-opacity:1" d="M 203.152,306.485 220.061,315.879 z" id="boundary" inkscape:connector-curvature="0" />
	<path style="fill:none;stroke:red;stroke-width:1px;stroke-linecap:butt;stroke-linejoin:miter;stroke-opacity:1" d="M 220.061,315.879 225.697,334.667 z" id="boundary" inkscape:connector-curvature="0" />
	<path style="fill:none;stroke:red;stroke-width:1px;stroke-linecap:butt;stroke-linejoin:miter;stroke-opacity:1" d="M 182.485,779.939 173.091,808.121 z" id="boundary" inkscape:connector-curvature="0" />
	<path style="fill:none;stroke:red;stroke-width:1px;stroke-linecap:butt;stroke-linejoin:miter;stroke-opacity:1" d="M 178.727,971.576 163.697,986.606 z" id="boundary" inkscape:connector-curvature="0" />
	<path style="fill:none;stroke:red;stroke-width:1px;stroke-linecap:butt;stroke-linejoin:miter;stroke-opacity:1" d="M 182.485,779.939 191.879,761.152 z" id="boundary" inkscape:connector-curvature="0" />
	<path style="fill:none;stroke:red;stroke-width:1px;stroke-linecap:butt;stroke-linejoin:miter;stroke-opacity:1" d="M 188.121,182.485 171.212,191.879 z" id="boundary" inkscape:connector-curvature="0" />
	<path style="fill:none;stroke:red;stroke-width:1px;stroke-linecap:butt;stroke-linejoin:miter;stroke-opacity:1" d="M 201.273,742.364 191.879,761.152 z" id="boundary" inkscape:connector-curvature="0" />
	<path style="fill:none;stroke:red;stroke-width:1px;stroke-linecap:butt;stroke-linejoin:miter;stroke-opacity:1" d="M 193.758,954.667 178.727,971.576 z" id="boundary" inkscape:connector-curvature="0" />
	<path style="fill:none;stroke:red;stroke-width:1px;stroke-linecap:butt;stroke-linejoin:miter;stroke-opacity:1" d="M 520.667,779.939 535.697,793.091 z" id="boundary" inkscape:connector-curvature="0" />
	<path style="fill:none;stroke:red;stroke-width:1px;stroke-linecap:butt;stroke-linejoin:miter;stroke-opacity:1" d="M 203.152,935.879 193.758,954.667 z" id="boundary" inkscape:connector-curvature="0" />
	<path style="fill:none;stroke:red;stroke-width:1px;stroke-linecap:butt;stroke-linejoin:miter;stroke-opacity:1" d="M 218.182,922.727 203.152,935.879 z" id="boundary" inkscape:connector-curvature="0" />
	<path style="fill:none;stroke:red;stroke-width:1px;stroke-linecap:butt;stroke-linejoin:miter;stroke-opacity:1" d="M 188.121,182.485 206.909,173.091 z" id="boundary" inkscape:connector-curvature="0" />
	<path style="fill:none;stroke:red;stroke-width:1px;stroke-linecap:butt;stroke-linejoin:miter;stroke-opacity:1" d="M 206.909,173.091 225.697,173.091 z" id="boundary" inkscape:connector-curvature="0" />
	<path style="fill:none;stroke:red;stroke-width:1px;stroke-linecap:butt;stroke-linejoin:miter;stroke-opacity:1" d="M 210.667,723.576 201.273,742.364 z" id="boundary" inkscape:connector-curvature="0" />
	<path style="fill:none;stroke:red;stroke-width:1px;stroke-linecap:butt;stroke-linejoin:miter;stroke-opacity:1" d="M 210.667,723.576 220.061,695.394 z" id="boundary" inkscape:connector-curvature="0" />
	<path style="fill:none;stroke:red;stroke-width:1px;stroke-linecap:butt;stroke-linejoin:miter;stroke-opacity:1" d="M 507.515,764.909 520.667,779.939 z" id="boundary" inkscape:connector-curvature="0" />
	<path style="fill:none;stroke:red;stroke-width:1px;stroke-linecap:butt;stroke-linejoin:miter;stroke-opacity:1" d="M 257.636,84.7879 257.636,66 z" id="boundary" inkscape:connector-curvature="0" />
	<path style="fill:none;stroke:red;stroke-width:1px;stroke-linecap:butt;stroke-linejoin:miter;stroke-opacity:1" d="M 220.061,695.394 229.455,676.606 z" id="boundary" inkscape:connector-curvature="0" />
	<path style="fill:none;stroke:red;stroke-width:1px;stroke-linecap:butt;stroke-linejoin:miter;stroke-opacity:1" d="M 238.848,370.364 229.455,353.455 z" id="boundary" inkscape:connector-curvature="0" />
	<path style="fill:none;stroke:red;stroke-width:1px;stroke-linecap:butt;stroke-linejoin:miter;stroke-opacity:1" d="M 225.697,173.091 244.485,173.091 z" id="boundary" inkscape:connector-curvature="0" />
	<path style="fill:none;stroke:red;stroke-width:1px;stroke-linecap:butt;stroke-linejoin:miter;stroke-opacity:1" d="M 244.485,173.091 263.273,163.697 z" id="boundary" inkscape:connector-curvature="0" />
	<path style="fill:none;stroke:red;stroke-width:1px;stroke-linecap:butt;stroke-linejoin:miter;stroke-opacity:1" d="M 227.576,903.939 218.182,922.727 z" id="boundary" inkscape:connector-curvature="0" />
	<path style="fill:none;stroke:red;stroke-width:1px;stroke-linecap:butt;stroke-linejoin:miter;stroke-opacity:1" d="M 321.515,734.848 312.121,753.636 z" id="boundary" inkscape:connector-curvature="0" />
	<path style="fill:none;stroke:red;stroke-width:1px;stroke-linecap:butt;stroke-linejoin:miter;stroke-opacity:1" d="M 257.636,424.848 250.121,406.061 z" id="boundary" inkscape:connector-curvature="0" />
	<path style="fill:none;stroke:red;stroke-width:1px;stroke-linecap:butt;stroke-linejoin:miter;stroke-opacity:1" d="M 236.97,885.152 227.576,903.939 z" id="boundary" inkscape:connector-curvature="0" />
	<path style="fill:none;stroke:red;stroke-width:1px;stroke-linecap:butt;stroke-linejoin:miter;stroke-opacity:1" d="M 238.848,657.818 229.455,676.606 z" id="boundary" inkscape:connector-curvature="0" />
	<path style="fill:none;stroke:red;stroke-width:1px;stroke-linecap:butt;stroke-linejoin:miter;stroke-opacity:1" d="M 456.788,704.788 469.939,719.818 z" id="boundary" inkscape:connector-curvature="0" />
	<path style="fill:none;stroke:red;stroke-width:1px;stroke-linecap:butt;stroke-linejoin:miter;stroke-opacity:1" d="M 456.788,704.788 438,697.273 z" id="boundary" inkscape:connector-curvature="0" />
	<path style="fill:none;stroke:red;stroke-width:1px;stroke-linecap:butt;stroke-linejoin:miter;stroke-opacity:1" d="M 419.212,135.515 428.606,152.424 z" id="boundary" inkscape:connector-curvature="0" />
	<path style="fill:none;stroke:red;stroke-width:1px;stroke-linecap:butt;stroke-linejoin:miter;stroke-opacity:1" d="M 246.364,866.364 236.97,885.152 z" id="boundary" inkscape:connector-curvature="0" />
	<path style="fill:none;stroke:red;stroke-width:1px;stroke-linecap:butt;stroke-linejoin:miter;stroke-opacity:1" d="M 248.242,639.03 238.848,657.818 z" id="boundary" inkscape:connector-curvature="0" />
	<path style="fill:none;stroke:red;stroke-width:1px;stroke-linecap:butt;stroke-linejoin:miter;stroke-opacity:1" d="M 330.909,716.061 340.303,697.273 z" id="boundary" inkscape:connector-curvature="0" />
	<path style="fill:none;stroke:red;stroke-width:1px;stroke-linecap:butt;stroke-linejoin:miter;stroke-opacity:1" d="M 257.636,103.576 257.636,84.7879 z" id="boundary" inkscape:connector-curvature="0" />
	<path style="fill:none;stroke:red;stroke-width:1px;stroke-linecap:butt;stroke-linejoin:miter;stroke-opacity:1" d="M 255.758,847.576 246.364,866.364 z" id="boundary" inkscape:connector-curvature="0" />
	<path style="fill:none;stroke:red;stroke-width:1px;stroke-linecap:butt;stroke-linejoin:miter;stroke-opacity:1" d="M 257.636,103.576 267.03,120.485 z" id="boundary" inkscape:connector-curvature="0" />
	<path style="fill:none;stroke:red;stroke-width:1px;stroke-linecap:butt;stroke-linejoin:miter;stroke-opacity:1" d="M 267.03,120.485 267.03,139.273 z" id="boundary" inkscape:connector-curvature="0" />
	<path style="fill:none;stroke:red;stroke-width:1px;stroke-linecap:butt;stroke-linejoin:miter;stroke-opacity:1" d="M 409.818,118.606 419.212,135.515 z" id="boundary" inkscape:connector-curvature="0" />
	<path style="fill:none;stroke:red;stroke-width:1px;stroke-linecap:butt;stroke-linejoin:miter;stroke-opacity:1" d="M 257.636,66 272.667,50.9697 z" id="boundary" inkscape:connector-curvature="0" />
	<path style="fill:none;stroke:red;stroke-width:1px;stroke-linecap:butt;stroke-linejoin:miter;stroke-opacity:1" d="M 257.636,610.848 248.242,639.03 z" id="boundary" inkscape:connector-curvature="0" />
	<path style="fill:none;stroke:red;stroke-width:1px;stroke-linecap:butt;stroke-linejoin:miter;stroke-opacity:1" d="M 257.636,610.848 267.03,592.061 z" id="boundary" inkscape:connector-curvature="0" />
	<path style="fill:none;stroke:red;stroke-width:1px;stroke-linecap:butt;stroke-linejoin:miter;stroke-opacity:1" d="M 263.273,163.697 267.03,139.273 z" id="boundary" inkscape:connector-curvature="0" />
	<path style="fill:none;stroke:red;stroke-width:1px;stroke-linecap:butt;stroke-linejoin:miter;stroke-opacity:1" d="M 265.152,828.788 255.758,847.576 z" id="boundary" inkscape:connector-curvature="0" />
	<path style="fill:none;stroke:red;stroke-width:1px;stroke-linecap:butt;stroke-linejoin:miter;stroke-opacity:1" d="M 353.455,4 334.667,4 z" id="boundary" inkscape:connector-curvature="0" />
	<path style="fill:none;stroke:red;stroke-width:1px;stroke-linecap:butt;stroke-linejoin:miter;stroke-opacity:1" d="M 330.909,716.061 321.515,734.848 z" id="boundary" inkscape:connector-curvature="0" />
	<path style="fill:none;stroke:red;stroke-width:1px;stroke-linecap:butt;stroke-linejoin:miter;stroke-opacity:1" d="M 297.091,17.1515 282.061,32.1818 z" id="boundary" inkscape:connector-curvature="0" />
	<path style="fill:none;stroke:red;stroke-width:1px;stroke-linecap:butt;stroke-linejoin:miter;stroke-opacity:1" d="M 282.061,32.1818 272.667,50.9697 z" id="boundary" inkscape:connector-curvature="0" />
	<path style="fill:none;stroke:red;stroke-width:1px;stroke-linecap:butt;stroke-linejoin:miter;stroke-opacity:1" d="M 267.03,573.273 267.03,592.061 z" id="boundary" inkscape:connector-curvature="0" />
	<path style="fill:none;stroke:red;stroke-width:1px;stroke-linecap:butt;stroke-linejoin:miter;stroke-opacity:1" d="M 297.091,17.1515 315.879,7.75758 z" id="boundary" inkscape:connector-curvature="0" />
	<path style="fill:none;stroke:red;stroke-width:1px;stroke-linecap:butt;stroke-linejoin:miter;stroke-opacity:1" d="M 267.03,441.758 276.424,458.667 z" id="boundary" inkscape:connector-curvature="0" />
	<path style="fill:none;stroke:red;stroke-width:1px;stroke-linecap:butt;stroke-linejoin:miter;stroke-opacity:1" d="M 276.424,458.667 276.424,477.455 z" id="boundary" inkscape:connector-curvature="0" />
	<path style="fill:none;stroke:red;stroke-width:1px;stroke-linecap:butt;stroke-linejoin:miter;stroke-opacity:1" d="M 428.606,152.424 447.394,159.939 z" id="boundary" inkscape:connector-curvature="0" />
	<path style="fill:none;stroke:red;stroke-width:1px;stroke-linecap:butt;stroke-linejoin:miter;stroke-opacity:1" d="M 267.03,573.273 276.424,554.485 z" id="boundary" inkscape:connector-curvature="0" />
	<path style="fill:none;stroke:red;stroke-width:1px;stroke-linecap:butt;stroke-linejoin:miter;stroke-opacity:1" d="M 276.424,477.455 285.818,494.364 z" id="boundary" inkscape:connector-curvature="0" />
	<path style="fill:none;stroke:red;stroke-width:1px;stroke-linecap:butt;stroke-linejoin:miter;stroke-opacity:1" d="M 285.818,494.364 285.818,513.152 z" id="boundary" inkscape:connector-curvature="0" />
	<path style="fill:none;stroke:red;stroke-width:1px;stroke-linecap:butt;stroke-linejoin:miter;stroke-opacity:1" d="M 276.424,554.485 285.818,531.939 z" id="boundary" inkscape:connector-curvature="0" />
	<path style="fill:none;stroke:red;stroke-width:1px;stroke-linecap:butt;stroke-linejoin:miter;stroke-opacity:1" d="M 278.303,804.364 265.152,828.788 z" id="boundary" inkscape:connector-curvature="0" />
	<path style="fill:none;stroke:red;stroke-width:1px;stroke-linecap:butt;stroke-linejoin:miter;stroke-opacity:1" d="M 424.848,682.242 438,697.273 z" id="boundary" inkscape:connector-curvature="0" />
	<path style="fill:none;stroke:red;stroke-width:1px;stroke-linecap:butt;stroke-linejoin:miter;stroke-opacity:1" d="M 315.879,7.75758 334.667,4 z" id="boundary" inkscape:connector-curvature="0" />
	<path style="fill:none;stroke:red;stroke-width:1px;stroke-linecap:butt;stroke-linejoin:miter;stroke-opacity:1" d="M 285.818,513.152 285.818,531.939 z" id="boundary" inkscape:connector-curvature="0" />
	<path style="fill:none;stroke:red;stroke-width:1px;stroke-linecap:butt;stroke-linejoin:miter;stroke-opacity:1" d="M 456.788,484.97 456.788,466.182 z" id="boundary" inkscape:connector-curvature="0" />
	<path style="fill:none;stroke:red;stroke-width:1px;stroke-linecap:butt;stroke-linejoin:miter;stroke-opacity:1" d="M 456.788,466.182 456.788,447.394 z" id="boundary" inkscape:connector-curvature="0" />
	<path style="fill:none;stroke:red;stroke-width:1px;stroke-linecap:butt;stroke-linejoin:miter;stroke-opacity:1" d="M 287.697,785.576 278.303,804.364 z" id="boundary" inkscape:connector-curvature="0" />
	<path style="fill:none;stroke:red;stroke-width:1px;stroke-linecap:butt;stroke-linejoin:miter;stroke-opacity:1" d="M 385.394,24.6667 400.424,37.8182 z" id="boundary" inkscape:connector-curvature="0" />
	<path style="fill:none;stroke:red;stroke-width:1px;stroke-linecap:butt;stroke-linejoin:miter;stroke-opacity:1" d="M 400.424,37.8182 407.939,56.6061 z" id="boundary" inkscape:connector-curvature="0" />
	<path style="fill:none;stroke:red;stroke-width:1px;stroke-linecap:butt;stroke-linejoin:miter;stroke-opacity:1" d="M 492.485,751.758 483.091,734.848 z" id="boundary" inkscape:connector-curvature="0" />
	<path style="fill:none;stroke:red;stroke-width:1px;stroke-linecap:butt;stroke-linejoin:miter;stroke-opacity:1" d="M 483.091,734.848 469.939,719.818 z" id="boundary" inkscape:connector-curvature="0" />
	<path style="fill:none;stroke:red;stroke-width:1px;stroke-linecap:butt;stroke-linejoin:miter;stroke-opacity:1" d="M 385.394,24.6667 372.242,9.63636 z" id="boundary" inkscape:connector-curvature="0" />
	<path style="fill:none;stroke:red;stroke-width:1px;stroke-linecap:butt;stroke-linejoin:miter;stroke-opacity:1" d="M 372.242,9.63636 353.455,4 z" id="boundary" inkscape:connector-curvature="0" />
	<path style="fill:none;stroke:red;stroke-width:1px;stroke-linecap:butt;stroke-linejoin:miter;stroke-opacity:1" d="M 297.091,766.788 287.697,785.576 z" id="boundary" inkscape:connector-curvature="0" />
	<path style="fill:none;stroke:red;stroke-width:1px;stroke-linecap:butt;stroke-linejoin:miter;stroke-opacity:1" d="M 312.121,753.636 297.091,766.788 z" id="boundary" inkscape:connector-curvature="0" />
	<path style="fill:none;stroke:red;stroke-width:1px;stroke-linecap:butt;stroke-linejoin:miter;stroke-opacity:1" d="M 409.818,669.091 424.848,682.242 z" id="boundary" inkscape:connector-curvature="0" />
	<path style="fill:none;stroke:red;stroke-width:1px;stroke-linecap:butt;stroke-linejoin:miter;stroke-opacity:1" d="M 349.697,678.485 340.303,697.273 z" id="boundary" inkscape:connector-curvature="0" />
	<path style="fill:none;stroke:red;stroke-width:1px;stroke-linecap:butt;stroke-linejoin:miter;stroke-opacity:1" d="M 362.848,663.455 349.697,678.485 z" id="boundary" inkscape:connector-curvature="0" />
	<path style="fill:none;stroke:red;stroke-width:1px;stroke-linecap:butt;stroke-linejoin:miter;stroke-opacity:1" d="M 379.758,654.061 362.848,663.455 z" id="boundary" inkscape:connector-curvature="0" />
	<path style="fill:none;stroke:red;stroke-width:1px;stroke-linecap:butt;stroke-linejoin:miter;stroke-opacity:1" d="M 409.818,669.091 398.545,654.061 z" id="boundary" inkscape:connector-curvature="0" />
	<path style="fill:none;stroke:red;stroke-width:1px;stroke-linecap:butt;stroke-linejoin:miter;stroke-opacity:1" d="M 398.545,654.061 379.758,654.061 z" id="boundary" inkscape:connector-curvature="0" />
	<path style="fill:none;stroke:red;stroke-width:1px;stroke-linecap:butt;stroke-linejoin:miter;stroke-opacity:1" d="M 556.364,135.515 539.455,144.909 z" id="boundary" inkscape:connector-curvature="0" />
	<path style="fill:none;stroke:red;stroke-width:1px;stroke-linecap:butt;stroke-linejoin:miter;stroke-opacity:1" d="M 539.455,144.909 520.667,144.909 z" id="boundary" inkscape:connector-curvature="0" />
	<path style="fill:none;stroke:red;stroke-width:1px;stroke-linecap:butt;stroke-linejoin:miter;stroke-opacity:1" d="M 456.788,522.545 456.788,503.758 z" id="boundary" inkscape:connector-curvature="0" />
	<path style="fill:none;stroke:red;stroke-width:1px;stroke-linecap:butt;stroke-linejoin:miter;stroke-opacity:1" d="M 419.212,92.303 409.818,118.606 z" id="boundary" inkscape:connector-curvature="0" />
	<path style="fill:none;stroke:red;stroke-width:1px;stroke-linecap:butt;stroke-linejoin:miter;stroke-opacity:1" d="M 507.515,764.909 492.485,751.758 z" id="boundary" inkscape:connector-curvature="0" />
	<path style="fill:none;stroke:red;stroke-width:1px;stroke-linecap:butt;stroke-linejoin:miter;stroke-opacity:1" d="M 407.939,56.6061 417.333,73.5152 z" id="boundary" inkscape:connector-curvature="0" />
	<path style="fill:none;stroke:red;stroke-width:1px;stroke-linecap:butt;stroke-linejoin:miter;stroke-opacity:1" d="M 417.333,73.5152 419.212,92.303 z" id="boundary" inkscape:connector-curvature="0" />
	<path style="fill:none;stroke:red;stroke-width:1px;stroke-linecap:butt;stroke-linejoin:miter;stroke-opacity:1" d="M 466.182,381.636 466.182,400.424 z" id="boundary" inkscape:connector-curvature="0" />
	<path style="fill:none;stroke:red;stroke-width:1px;stroke-linecap:butt;stroke-linejoin:miter;stroke-opacity:1" d="M 456.788,484.97 456.788,503.758 z" id="boundary" inkscape:connector-curvature="0" />
	<path style="fill:none;stroke:red;stroke-width:1px;stroke-linecap:butt;stroke-linejoin:miter;stroke-opacity:1" d="M 535.697,793.091 548.848,808.121 z" id="boundary" inkscape:connector-curvature="0" />
	<path style="fill:none;stroke:red;stroke-width:1px;stroke-linecap:butt;stroke-linejoin:miter;stroke-opacity:1" d="M 548.848,808.121 558.242,825.03 z" id="boundary" inkscape:connector-curvature="0" />
	<path style="fill:none;stroke:red;stroke-width:1px;stroke-linecap:butt;stroke-linejoin:miter;stroke-opacity:1" d="M 447.394,159.939 466.182,158.061 z" id="boundary" inkscape:connector-curvature="0" />
	<path style="fill:none;stroke:red;stroke-width:1px;stroke-linecap:butt;stroke-linejoin:miter;stroke-opacity:1" d="M 466.182,539.455 456.788,522.545 z" id="boundary" inkscape:connector-curvature="0" />
	<path style="fill:none;stroke:red;stroke-width:1px;stroke-linecap:butt;stroke-linejoin:miter;stroke-opacity:1" d="M 475.576,556.364 466.182,539.455 z" id="boundary" inkscape:connector-curvature="0" />
	<path style="fill:none;stroke:red;stroke-width:1px;stroke-linecap:butt;stroke-linejoin:miter;stroke-opacity:1" d="M 484.97,573.273 475.576,556.364 z" id="boundary" inkscape:connector-curvature="0" />
	<path style="fill:none;stroke:red;stroke-width:1px;stroke-linecap:butt;stroke-linejoin:miter;stroke-opacity:1" d="M 466.182,400.424 466.182,419.212 z" id="boundary" inkscape:connector-curvature="0" />
	<path style="fill:none;stroke:red;stroke-width:1px;stroke-linecap:butt;stroke-linejoin:miter;stroke-opacity:1" d="M 466.182,419.212 456.788,447.394 z" id="boundary" inkscape:connector-curvature="0" />
	<path style="fill:none;stroke:red;stroke-width:1px;stroke-linecap:butt;stroke-linejoin:miter;stroke-opacity:1" d="M 475.576,344.061 475.576,325.273 z" id="boundary" inkscape:connector-curvature="0" />
	<path style="fill:none;stroke:red;stroke-width:1px;stroke-linecap:butt;stroke-linejoin:miter;stroke-opacity:1" d="M 492.485,592.061 484.97,573.273 z" id="boundary" inkscape:connector-curvature="0" />
	<path style="fill:none;stroke:red;stroke-width:1px;stroke-linecap:butt;stroke-linejoin:miter;stroke-opacity:1" d="M 475.576,362.848 466.182,381.636 z" id="boundary" inkscape:connector-curvature="0" />
	<path style="fill:none;stroke:red;stroke-width:1px;stroke-linecap:butt;stroke-linejoin:miter;stroke-opacity:1" d="M 475.576,362.848 475.576,344.061 z" id="boundary" inkscape:connector-curvature="0" />
	<path style="fill:none;stroke:red;stroke-width:1px;stroke-linecap:butt;stroke-linejoin:miter;stroke-opacity:1" d="M 466.182,158.061 484.97,154.303 z" id="boundary" inkscape:connector-curvature="0" />
	<path style="fill:none;stroke:red;stroke-width:1px;stroke-linecap:butt;stroke-linejoin:miter;stroke-opacity:1" d="M 535.697,267.03 516.909,276.424 z" id="boundary" inkscape:connector-curvature="0" />
	<path style="fill:none;stroke:red;stroke-width:1px;stroke-linecap:butt;stroke-linejoin:miter;stroke-opacity:1" d="M 475.576,325.273 484.97,297.091 z" id="boundary" inkscape:connector-curvature="0" />
	<path style="fill:none;stroke:red;stroke-width:1px;stroke-linecap:butt;stroke-linejoin:miter;stroke-opacity:1" d="M 503.758,607.091 492.485,592.061 z" id="boundary" inkscape:connector-curvature="0" />
	<path style="fill:none;stroke:red;stroke-width:1px;stroke-linecap:butt;stroke-linejoin:miter;stroke-opacity:1" d="M 501.879,287.697 516.909,276.424 z" id="boundary" inkscape:connector-curvature="0" />
	<path style="fill:none;stroke:red;stroke-width:1px;stroke-linecap:butt;stroke-linejoin:miter;stroke-opacity:1" d="M 501.879,287.697 484.97,297.091 z" id="boundary" inkscape:connector-curvature="0" />
	<path style="fill:none;stroke:red;stroke-width:1px;stroke-linecap:butt;stroke-linejoin:miter;stroke-opacity:1" d="M 571.394,840.061 558.242,825.03 z" id="boundary" inkscape:connector-curvature="0" />
	<path style="fill:none;stroke:red;stroke-width:1px;stroke-linecap:butt;stroke-linejoin:miter;stroke-opacity:1" d="M 484.97,154.303 501.879,144.909 z" id="boundary" inkscape:connector-curvature="0" />
	<path style="fill:none;stroke:red;stroke-width:1px;stroke-linecap:butt;stroke-linejoin:miter;stroke-opacity:1" d="M 513.152,624 503.758,607.091 z" id="boundary" inkscape:connector-curvature="0" />
	<path style="fill:none;stroke:red;stroke-width:1px;stroke-linecap:butt;stroke-linejoin:miter;stroke-opacity:1" d="M 501.879,144.909 520.667,144.909 z" id="boundary" inkscape:connector-curvature="0" />
	<path style="fill:none;stroke:red;stroke-width:1px;stroke-linecap:butt;stroke-linejoin:miter;stroke-opacity:1" d="M 528.182,635.273 535.697,654.061 z" id="boundary" inkscape:connector-curvature="0" />
	<path style="fill:none;stroke:red;stroke-width:1px;stroke-linecap:butt;stroke-linejoin:miter;stroke-opacity:1" d="M 528.182,635.273 513.152,624 z" id="boundary" inkscape:connector-curvature="0" />
	<path style="fill:none;stroke:red;stroke-width:1px;stroke-linecap:butt;stroke-linejoin:miter;stroke-opacity:1" d="M 550.727,667.212 560.121,684.121 z" id="boundary" inkscape:connector-curvature="0" />
	<path style="fill:none;stroke:red;stroke-width:1px;stroke-linecap:butt;stroke-linejoin:miter;stroke-opacity:1" d="M 550.727,667.212 535.697,654.061 z" id="boundary" inkscape:connector-curvature="0" />
	<path style="fill:none;stroke:red;stroke-width:1px;stroke-linecap:butt;stroke-linejoin:miter;stroke-opacity:1" d="M 571.394,699.152 560.121,684.121 z" id="boundary" inkscape:connector-curvature="0" />
	<path style="fill:none;stroke:red;stroke-width:1px;stroke-linecap:butt;stroke-linejoin:miter;stroke-opacity:1" d="M 550.727,250.121 565.758,236.97 z" id="boundary" inkscape:connector-curvature="0" />
	<path style="fill:none;stroke:red;stroke-width:1px;stroke-linecap:butt;stroke-linejoin:miter;stroke-opacity:1" d="M 565.758,236.97 584.545,227.576 z" id="boundary" inkscape:connector-curvature="0" />
	<path style="fill:none;stroke:red;stroke-width:1px;stroke-linecap:butt;stroke-linejoin:miter;stroke-opacity:1" d="M 535.697,267.03 550.727,250.121 z" id="boundary" inkscape:connector-curvature="0" />
	<path style="fill:none;stroke:red;stroke-width:1px;stroke-linecap:butt;stroke-linejoin:miter;stroke-opacity:1" d="M 605.212,860.727 616.485,875.758 z" id="boundary" inkscape:connector-curvature="0" />
	<path style="fill:none;stroke:red;stroke-width:1px;stroke-linecap:butt;stroke-linejoin:miter;stroke-opacity:1" d="M 616.485,875.758 625.879,892.667 z" id="boundary" inkscape:connector-curvature="0" />
	<path style="fill:none;stroke:red;stroke-width:1px;stroke-linecap:butt;stroke-linejoin:miter;stroke-opacity:1" d="M 556.364,135.515 575.152,135.515 z" id="boundary" inkscape:connector-curvature="0" />
	<path style="fill:none;stroke:red;stroke-width:1px;stroke-linecap:butt;stroke-linejoin:miter;stroke-opacity:1" d="M 588.303,708.545 597.697,725.455 z" id="boundary" inkscape:connector-curvature="0" />
	<path style="fill:none;stroke:red;stroke-width:1px;stroke-linecap:butt;stroke-linejoin:miter;stroke-opacity:1" d="M 588.303,708.545 571.394,699.152 z" id="boundary" inkscape:connector-curvature="0" />
	<path style="fill:none;stroke:red;stroke-width:1px;stroke-linecap:butt;stroke-linejoin:miter;stroke-opacity:1" d="M 612.727,738.606 597.697,725.455 z" id="boundary" inkscape:connector-curvature="0" />
	<path style="fill:none;stroke:red;stroke-width:1px;stroke-linecap:butt;stroke-linejoin:miter;stroke-opacity:1" d="M 625.879,892.667 639.03,907.697 z" id="boundary" inkscape:connector-curvature="0" />
	<path style="fill:none;stroke:red;stroke-width:1px;stroke-linecap:butt;stroke-linejoin:miter;stroke-opacity:1" d="M 575.152,135.515 593.939,135.515 z" id="boundary" inkscape:connector-curvature="0" />
	<path style="fill:none;stroke:red;stroke-width:1px;stroke-linecap:butt;stroke-linejoin:miter;stroke-opacity:1" d="M 597.697,212.545 584.545,227.576 z" id="boundary" inkscape:connector-curvature="0" />
	<path style="fill:none;stroke:red;stroke-width:1px;stroke-linecap:butt;stroke-linejoin:miter;stroke-opacity:1" d="M 597.697,212.545 614.606,203.152 z" id="boundary" inkscape:connector-curvature="0" />
	<path style="fill:none;stroke:red;stroke-width:1px;stroke-linecap:butt;stroke-linejoin:miter;stroke-opacity:1" d="M 593.939,135.515 612.727,135.515 z" id="boundary" inkscape:connector-curvature="0" />
	<path style="fill:none;stroke:red;stroke-width:1px;stroke-linecap:butt;stroke-linejoin:miter;stroke-opacity:1" d="M 625.879,753.636 612.727,738.606 z" id="boundary" inkscape:connector-curvature="0" />
	<path style="fill:none;stroke:red;stroke-width:1px;stroke-linecap:butt;stroke-linejoin:miter;stroke-opacity:1" d="M 635.273,770.545 625.879,753.636 z" id="boundary" inkscape:connector-curvature="0" />
	<path style="fill:none;stroke:red;stroke-width:1px;stroke-linecap:butt;stroke-linejoin:miter;stroke-opacity:1" d="M 654.061,920.848 639.03,907.697 z" id="boundary" inkscape:connector-curvature="0" />
	<path style="fill:none;stroke:red;stroke-width:1px;stroke-linecap:butt;stroke-linejoin:miter;stroke-opacity:1" d="M 614.606,203.152 629.636,191.879 z" id="boundary" inkscape:connector-curvature="0" />
	<path style="fill:none;stroke:red;stroke-width:1px;stroke-linecap:butt;stroke-linejoin:miter;stroke-opacity:1" d="M 631.515,135.515 644.667,150.545 z" id="boundary" inkscape:connector-curvature="0" />
	<path style="fill:none;stroke:red;stroke-width:1px;stroke-linecap:butt;stroke-linejoin:miter;stroke-opacity:1" d="M 631.515,135.515 612.727,135.515 z" id="boundary" inkscape:connector-curvature="0" />
	<path style="fill:none;stroke:red;stroke-width:1px;stroke-linecap:butt;stroke-linejoin:miter;stroke-opacity:1" d="M 644.667,787.455 635.273,770.545 z" id="boundary" inkscape:connector-curvature="0" />
	<path style="fill:none;stroke:red;stroke-width:1px;stroke-linecap:butt;stroke-linejoin:miter;stroke-opacity:1" d="M 644.667,169.333 644.667,150.545 z" id="boundary" inkscape:connector-curvature="0" />
	<path style="fill:none;stroke:red;stroke-width:1px;stroke-linecap:butt;stroke-linejoin:miter;stroke-opacity:1" d="M 655.939,802.485 644.667,787.455 z" id="boundary" inkscape:connector-curvature="0" />
	<path style="fill:none;stroke:red;stroke-width:1px;stroke-linecap:butt;stroke-linejoin:miter;stroke-opacity:1" d="M 629.636,191.879 644.667,169.333 z" id="boundary" inkscape:connector-curvature="0" />
	<path style="fill:none;stroke:red;stroke-width:1px;stroke-linecap:butt;stroke-linejoin:miter;stroke-opacity:1" d="M 663.455,821.273 655.939,802.485 z" id="boundary" inkscape:connector-curvature="0" />
	<path style="fill:none;stroke:red;stroke-width:1px;stroke-linecap:butt;stroke-linejoin:miter;stroke-opacity:1" d="M 654.061,920.848 670.97,930.242 z" id="boundary" inkscape:connector-curvature="0" />
	<path style="fill:none;stroke:red;stroke-width:1px;stroke-linecap:butt;stroke-linejoin:miter;stroke-opacity:1" d="M 670.97,930.242 686,943.394 z" id="boundary" inkscape:connector-curvature="0" />
	<path style="fill:none;stroke:red;stroke-width:1px;stroke-linecap:butt;stroke-linejoin:miter;stroke-opacity:1" d="M 663.455,821.273 678.485,832.545 z" id="boundary" inkscape:connector-curvature="0" />
	<path style="fill:none;stroke:red;stroke-width:1px;stroke-linecap:butt;stroke-linejoin:miter;stroke-opacity:1" d="M 691.636,847.576 678.485,832.545 z" id="boundary" inkscape:connector-curvature="0" />
	<path style="fill:none;stroke:red;stroke-width:1px;stroke-linecap:butt;stroke-linejoin:miter;stroke-opacity:1" d="M 701.03,864.485 691.636,847.576 z" id="boundary" inkscape:connector-curvature="0" />
	<path style="fill:none;stroke:red;stroke-width:1px;stroke-linecap:butt;stroke-linejoin:miter;stroke-opacity:1" d="M 686,943.394 702.909,952.788 z" id="boundary" inkscape:connector-curvature="0" />
	<path style="fill:none;stroke:red;stroke-width:1px;stroke-linecap:butt;stroke-linejoin:miter;stroke-opacity:1" d="M 710.424,881.394 701.03,864.485 z" id="boundary" inkscape:connector-curvature="0" />
	<path style="fill:none;stroke:red;stroke-width:1px;stroke-linecap:butt;stroke-linejoin:miter;stroke-opacity:1" d="M 719.818,898.303 710.424,881.394 z" id="boundary" inkscape:connector-curvature="0" />
	<path style="fill:none;stroke:red;stroke-width:1px;stroke-linecap:butt;stroke-linejoin:miter;stroke-opacity:1" d="M 721.697,954.667 702.909,952.788 z" id="boundary" inkscape:connector-curvature="0" />
	<path style="fill:none;stroke:red;stroke-width:1px;stroke-linecap:butt;stroke-linejoin:miter;stroke-opacity:1" d="M 719.818,898.303 729.212,915.212 z" id="boundary" inkscape:connector-curvature="0" />
	<path style="fill:none;stroke:red;stroke-width:1px;stroke-linecap:butt;stroke-linejoin:miter;stroke-opacity:1" d="M 729.212,915.212 729.212,934 z" id="boundary" inkscape:connector-curvature="0" />
	<path style="fill:none;stroke:red;stroke-width:1px;stroke-linecap:butt;stroke-linejoin:miter;stroke-opacity:1" d="M 729.212,934 721.697,954.667 z" id="boundary" inkscape:connector-curvature="0" />
	<circle cx="4" cy="422.97" r="4" fill="#0" id="circle0"/>
	<circle cx="4" cy="441.758" r="4" fill="#0" id="circle1"/>
	<circle cx="13.3939" cy="404.182" r="4" fill="#0" id="circle2"/>
	<circle cx="22.7879" cy="385.394" r="4" fill="#0" id="circle3"/>
	<circle cx="22.7879" cy="447.394" r="4" fill="#0" id="circle4"/>
	<circle cx="37.8182" cy="370.364" r="4" fill="#0" id="circle5"/>
	<circle cx="41.5758" cy="451.152" r="4" fill="#0" id="circle6"/>
	<circle cx="47.2121" cy="351.576" r="4" fill="#0" id="circle7"/>
	<circle cx="56.6061" cy="436.121" r="4" fill="#0" id="circle8"/>
	<circle cx="60.3636" cy="329.03" r="4" fill="#0" id="circle9"/>
	<circle cx="71.6364" cy="419.212" r="4" fill="#0" id="circle10"/>
	<circle cx="75.3939" cy="314" r="4" fill="#0" id="circle11"/>
	<circle cx="84.7879" cy="295.212" r="4" fill="#0" id="circle12"/>
	<circle cx="86.6667" cy="406.061" r="4" fill="#0" id="circle13"/>
	<circle cx="97.9394" cy="263.273" r="4" fill="#0" id="circle14"/>
	<circle cx="99.8182" cy="391.03" r="4" fill="#0" id="circle15"/>
	<circle cx="107.333" cy="244.485" r="4" fill="#0" id="circle16"/>
	<circle cx="114.848" cy="377.879" r="4" fill="#0" id="circle17"/>
	<circle cx="116.727" cy="939.636" r="4" fill="#0" id="circle18"/>
	<circle cx="116.727" cy="958.424" r="4" fill="#0" id="circle19"/>
	<circle cx="116.727" cy="977.212" r="4" fill="#0" id="circle20"/>
	<circle cx="122.364" cy="229.455" r="4" fill="#0" id="circle21"/>
	<circle cx="126.121" cy="911.455" r="4" fill="#0" id="circle22"/>
	<circle cx="126.121" cy="994.121" r="4" fill="#0" id="circle23"/>
	<circle cx="128" cy="362.848" r="4" fill="#0" id="circle24"/>
	<circle cx="135.515" cy="892.667" r="4" fill="#0" id="circle25"/>
	<circle cx="137.394" cy="214.424" r="4" fill="#0" id="circle26"/>
	<circle cx="137.394" cy="344.061" r="4" fill="#0" id="circle27"/>
	<circle cx="144.909" cy="873.879" r="4" fill="#0" id="circle28"/>
	<circle cx="144.909" cy="996" r="4" fill="#0" id="circle29"/>
	<circle cx="152.424" cy="330.909" r="4" fill="#0" id="circle30"/>
	<circle cx="154.303" cy="855.091" r="4" fill="#0" id="circle31"/>
	<circle cx="156.182" cy="205.03" r="4" fill="#0" id="circle32"/>
	<circle cx="163.697" cy="826.909" r="4" fill="#0" id="circle33"/>
	<circle cx="163.697" cy="986.606" r="4" fill="#0" id="circle34"/>
	<circle cx="165.576" cy="315.879" r="4" fill="#0" id="circle35"/>
	<circle cx="171.212" cy="191.879" r="4" fill="#0" id="circle36"/>
	<circle cx="173.091" cy="808.121" r="4" fill="#0" id="circle37"/>
	<circle cx="178.727" cy="971.576" r="4" fill="#0" id="circle38"/>
	<circle cx="182.485" cy="779.939" r="4" fill="#0" id="circle39"/>
	<circle cx="184.364" cy="306.485" r="4" fill="#0" id="circle40"/>
	<circle cx="188.121" cy="182.485" r="4" fill="#0" id="circle41"/>
	<circle cx="191.879" cy="761.152" r="4" fill="#0" id="circle42"/>
	<circle cx="193.758" cy="954.667" r="4" fill="#0" id="circle43"/>
	<circle cx="201.273" cy="742.364" r="4" fill="#0" id="circle44"/>
	<circle cx="203.152" cy="306.485" r="4" fill="#0" id="circle45"/>
	<circle cx="203.152" cy="935.879" r="4" fill="#0" id="circle46"/>
	<circle cx="206.909" cy="173.091" r="4" fill="#0" id="circle47"/>
	<circle cx="210.667" cy="723.576" r="4" fill="#0" id="circle48"/>
	<circle cx="218.182" cy="922.727" r="4" fill="#0" id="circle49"/>
	<circle cx="220.061" cy="315.879" r="4" fill="#0" id="circle50"/>
	<circle cx="220.061" cy="695.394" r="4" fill="#0" id="circle51"/>
	<circle cx="225.697" cy="173.091" r="4" fill="#0" id="circle52"/>
	<circle cx="225.697" cy="334.667" r="4" fill="#0" id="circle53"/>
	<circle cx="227.576" cy="903.939" r="4" fill="#0" id="circle54"/>
	<circle cx="229.455" cy="353.455" r="4" fill="#0" id="circle55"/>
	<circle cx="229.455" cy="676.606" r="4" fill="#0" id="circle56"/>
	<circle cx="236.97" cy="885.152" r="4" fill="#0" id="circle57"/>
	<circle cx="238.848" cy="370.364" r="4" fill="#0" id="circle58"/>
	<circle cx="238.848" cy="657.818" r="4" fill="#0" id="circle59"/>
	<circle cx="244.485" cy="173.091" r="4" fill="#0" id="circle60"/>
	<circle cx="246.364" cy="866.364" r="4" fill="#0" id="circle61"/>
	<circle cx="248.242" cy="387.273" r="4" fill="#0" id="circle62"/>
	<circle cx="248.242" cy="639.03" r="4" fill="#0" id="circle63"/>
	<circle cx="250.121" cy="406.061" r="4" fill="#0" id="circle64"/>
	<circle cx="255.758" cy="847.576" r="4" fill="#0" id="circle65"/>
	<circle cx="257.636" cy="66" r="4" fill="#0" id="circle66"/>
	<circle cx="257.636" cy="84.7879" r="4" fill="#0" id="circle67"/>
	<circle cx="257.636" cy="103.576" r="4" fill="#0" id="circle68"/>
	<circle cx="257.636" cy="424.848" r="4" fill="#0" id="circle69"/>
	<circle cx="257.636" cy="610.848" r="4" fill="#0" id="circle70"/>
	<circle cx="263.273" cy="163.697" r="4" fill="#0" id="circle71"/>
	<circle cx="265.152" cy="828.788" r="4" fill="#0" id="circle72"/>
	<circle cx="267.03" cy="120.485" r="4" fill="#0" id="circle73"/>
	<circle cx="267.03" cy="139.273" r="4" fill="#0" id="circle74"/>
	<circle cx="267.03" cy="441.758" r="4" fill="#0" id="circle75"/>
	<circle cx="267.03" cy="573.273" r="4" fill="#0" id="circle76"/>
	<circle cx="267.03" cy="592.061" r="4" fill="#0" id="circle77"/>
	<circle cx="272.667" cy="50.9697" r="4" fill="#0" id="circle78"/>
	<circle cx="276.424" cy="458.667" r="4" fill="#0" id="circle79"/>
	<circle cx="276.424" cy="477.455" r="4" fill="#0" id="circle80"/>
	<circle cx="276.424" cy="554.485" r="4" fill="#0" id="circle81"/>
	<circle cx="278.303" cy="804.364" r="4" fill="#0" id="circle82"/>
	<circle cx="282.061" cy="32.1818" r="4" fill="#0" id="circle83"/>
	<circle cx="285.818" cy="494.364" r="4" fill="#0" id="circle84"/>
	<circle cx="285.818" cy="513.152" r="4" fill="#0" id="circle85"/>
	<circle cx="285.818" cy="531.939" r="4" fill="#0" id="circle86"/>
	<circle cx="287.697" cy="785.576" r="4" fill="#0" id="circle87"/>
	<circle cx="297.091" cy="17.1515" r="4" fill="#0" id="circle88"/>
	<circle cx="297.091" cy="766.788" r="4" fill="#0" id="circle89"/>
	<circle cx="312.121" cy="753.636" r="4" fill="#0" id="circle90"/>
	<circle cx="315.879" cy="7.75758" r="4" fill="#0" id="circle91"/>
	<circle cx="321.515" cy="734.848" r="4" fill="#0" id="circle92"/>
	<circle cx="330.909" cy="716.061" r="4" fill="#0" id="circle93"/>
	<circle cx="334.667" cy="4" r="4" fill="#0" id="circle94"/>
	<circle cx="340.303" cy="697.273" r="4" fill="#0" id="circle95"/>
	<circle cx="349.697" cy="678.485" r="4" fill="#0" id="circle96"/>
	<circle cx="353.455" cy="4" r="4" fill="#0" id="circle97"/>
	<circle cx="362.848" cy="663.455" r="4" fill="#0" id="circle98"/>
	<circle cx="372.242" cy="9.63636" r="4" fill="#0" id="circle99"/>
	<circle cx="379.758" cy="654.061" r="4" fill="#0" id="circle100"/>
	<circle cx="385.394" cy="24.6667" r="4" fill="#0" id="circle101"/>
	<circle cx="398.545" cy="654.061" r="4" fill="#0" id="circle102"/>
	<circle cx="400.424" cy="37.8182" r="4" fill="#0" id="circle103"/>
	<circle cx="407.939" cy="56.6061" r="4" fill="#0" id="circle104"/>
	<circle cx="409.818" cy="118.606" r="4" fill="#0" id="circle105"/>
	<circle cx="409.818" cy="669.091" r="4" fill="#0" id="circle106"/>
	<circle cx="417.333" cy="73.5152" r="4" fill="#0" id="circle107"/>
	<circle cx="419.212" cy="92.303" r="4" fill="#0" id="circle108"/>
	<circle cx="419.212" cy="135.515" r="4" fill="#0" id="circle109"/>
	<circle cx="424.848" cy="682.242" r="4" fill="#0" id="circle110"/>
	<circle cx="428.606" cy="152.424" r="4" fill="#0" id="circle111"/>
	<circle cx="438" cy="697.273" r="4" fill="#0" id="circle112"/>
	<circle cx="447.394" cy="159.939" r="4" fill="#0" id="circle113"/>
	<circle cx="456.788" cy="447.394" r="4" fill="#0" id="circle114"/>
	<circle cx="456.788" cy="466.182" r="4" fill="#0" id="circle115"/>
	<circle cx="456.788" cy="484.97" r="4" fill="#0" id="circle116"/>
	<circle cx="456.788" cy="503.758" r="4" fill="#0" id="circle117"/>
	<circle cx="456.788" cy="522.545" r="4" fill="#0" id="circle118"/>
	<circle cx="456.788" cy="704.788" r="4" fill="#0" id="circle119"/>
	<circle cx="466.182" cy="158.061" r="4" fill="#0" id="circle120"/>
	<circle cx="466.182" cy="381.636" r="4" fill="#0" id="circle121"/>
	<circle cx="466.182" cy="400.424" r="4" fill="#0" id="circle122"/>
	<circle cx="466.182" cy="419.212" r="4" fill="#0" id="circle123"/>
	<circle cx="466.182" cy="539.455" r="4" fill="#0" id="circle124"/>
	<circle cx="469.939" cy="719.818" r="4" fill="#0" id="circle125"/>
	<circle cx="475.576" cy="325.273" r="4" fill="#0" id="circle126"/>
	<circle cx="475.576" cy="344.061" r="4" fill="#0" id="circle127"/>
	<circle cx="475.576" cy="362.848" r="4" fill="#0" id="circle128"/>
	<circle cx="475.576" cy="556.364" r="4" fill="#0" id="circle129"/>
	<circle cx="483.091" cy="734.848" r="4" fill="#0" id="circle130"/>
	<circle cx="484.97" cy="154.303" r="4" fill="#0" id="circle131"/>
	<circle cx="484.97" cy="297.091" r="4" fill="#0" id="circle132"/>
	<circle cx="484.97" cy="573.273" r="4" fill="#0" id="circle133"/>
	<circle cx="492.485" cy="592.061" r="4" fill="#0" id="circle134"/>
	<circle cx="492.485" cy="751.758" r="4" fill="#0" id="circle135"/>
	<circle cx="501.879" cy="144.909" r="4" fill="#0" id="circle136"/>
	<circle cx="501.879" cy="287.697" r="4" fill="#0" id="circle137"/>
	<circle cx="503.758" cy="607.091" r="4" fill="#0" id="circle138"/>
	<circle cx="507.515" cy="764.909" r="4" fill="#0" id="circle139"/>
	<circle cx="513.152" cy="624" r="4" fill="#0" id="circle140"/>
	<circle cx="516.909" cy="276.424" r="4" fill="#0" id="circle141"/>
	<circle cx="520.667" cy="144.909" r="4" fill="#0" id="circle142"/>
	<circle cx="520.667" cy="779.939" r="4" fill="#0" id="circle143"/>
	<circle cx="528.182" cy="635.273" r="4" fill="#0" id="circle144"/>
	<circle cx="535.697" cy="267.03" r="4" fill="#0" id="circle145"/>
	<circle cx="535.697" cy="654.061" r="4" fill="#0" id="circle146"/>
	<circle cx="535.697" cy="793.091" r="4" fill="#0" id="circle147"/>
	<circle cx="539.455" cy="144.909" r="4" fill="#0" id="circle148"/>
	<circle cx="548.848" cy="808.121" r="4" fill="#0" id="circle149"/>
	<circle cx="550.727" cy="250.121" r="4" fill="#0" id="circle150"/>
	<circle cx="550.727" cy="667.212" r="4" fill="#0" id="circle151"/>
	<circle cx="556.364" cy="135.515" r="4" fill="#0" id="circle152"/>
	<circle cx="558.242" cy="825.03" r="4" fill="#0" id="circle153"/>
	<circle cx="560.121" cy="684.121" r="4" fill="#0" id="circle154"/>
	<circle cx="565.758" cy="236.97" r="4" fill="#0" id="circle155"/>
	<circle cx="571.394" cy="699.152" r="4" fill="#0" id="circle156"/>
	<circle cx="571.394" cy="840.061" r="4" fill="#0" id="circle157"/>
	<circle cx="575.152" cy="135.515" r="4" fill="#0" id="circle158"/>
	<circle cx="584.545" cy="227.576" r="4" fill="#0" id="circle159"/>
	<circle cx="588.303" cy="708.545" r="4" fill="#0" id="circle160"/>
	<circle cx="590.182" cy="847.576" r="4" fill="#0" id="circle161"/>
	<circle cx="593.939" cy="135.515" r="4" fill="#0" id="circle162"/>
	<circle cx="597.697" cy="212.545" r="4" fill="#0" id="circle163"/>
	<circle cx="597.697" cy="725.455" r="4" fill="#0" id="circle164"/>
	<circle cx="605.212" cy="860.727" r="4" fill="#0" id="circle165"/>
	<circle cx="612.727" cy="135.515" r="4" fill="#0" id="circle166"/>
	<circle cx="612.727" cy="738.606" r="4" fill="#0" id="circle167"/>
	<circle cx="614.606" cy="203.152" r="4" fill="#0" id="circle168"/>
	<circle cx="616.485" cy="875.758" r="4" fill="#0" id="circle169"/>
	<circle cx="625.879" cy="753.636" r="4" fill="#0" id="circle170"/>
	<circle cx="625.879" cy="892.667" r="4" fill="#0" id="circle171"/>
	<circle cx="629.636" cy="191.879" r="4" fill="#0" id="circle172"/>
	<circle cx="631.515" cy="135.515" r="4" fill="#0" id="circle173"/>
	<circle cx="635.273" cy="770.545" r="4" fill="#0" id="circle174"/>
	<circle cx="639.03" cy="907.697" r="4" fill="#0" id="circle175"/>
	<circle cx="644.667" cy="150.545" r="4" fill="#0" id="circle176"/>
	<circle cx="644.667" cy="169.333" r="4" fill="#0" id="circle177"/>
	<circle cx="644.667" cy="787.455" r="4" fill="#0" id="circle178"/>
	<circle cx="654.061" cy="920.848" r="4" fill="#0" id="circle179"/>
	<circle cx="655.939" cy="802.485" r="4" fill="#0" id="circle180"/>
	<circle cx="663.455" cy="821.273" r="4" fill="#0" id="circle181"/>
	<circle cx="670.97" cy="930.242" r="4" fill="#0" id="circle182"/>
	<circle cx="678.485" cy="832.545" r="4" fill="#0" id="circle183"/>
	<circle cx="686" cy="943.394" r="4" fill="#0" id="circle184"/>
	<circle cx="691.636" cy="847.576" r="4" fill="#0" id="circle185"/>
	<circle cx="701.03" cy="864.485" r="4" fill="#0" id="circle186"/>
	<circle cx="702.909" cy="952.788" r="4" fill="#0" id="circle187"/>
	<circle cx="710.424" cy="881.394" r="4" fill="#0" id="circle188"/>
	<circle cx="719.818" cy="898.303" r="4" fill="#0" id="circle189"/>
	<circle cx="721.697" cy="954.667" r="4" fill="#0" id="circle190"/>
	<circle cx="729.212" cy="915.212" r="4" fill="#0" id="circle191"/>
	<circle cx="729.212" cy="934" r="4" fill="#0" id="circle192"/>
	</g>
</svg>