<?xml version="1.0" encoding="UTF-8" standalone="no"?>
<!-- Created with CurveBenchmark -->
<svg
	xmlns:dc="http://purl.org/dc/elements/1.1/"
	xmlns:cc="http://creativecommons.org/ns#"
	xmlns:rdf="http://www.w3.org/1999/02/22-rdf-syntax-ns#"
	xmlns:svg="http://www.w3.org/2000/svg"
	xmlns="http://www.w3.org/2000/svg"
	xmlns:sodipodi="http://sodipodi.sourceforge.net/DTD/sodipodi-0.dtd"
	xmlns:inkscape="http://www.inkscape.org/namespaces/inkscape"
	width="1000"
	height="1000"
	id="svg2"
	version="1.1"
	sodipodi:docname="manifold/peel-dude1.png.txt">
<defs
	id="defs4" />
<metadata
	id="metadata7">
	<rdf:RDF>
		<cc:Work
			rdf:about="">
			<dc:format>image/svg+xml</dc:format>
			<dc:type
				rdf:resource="http://purl.org/dc/dcmitype/StillImage" />
			<dc:title></dc:title>
		</cc:Work>
	</rdf:RDF>
</metadata>
<g
	inkscape:label="Layer 1"
	inkscape:groupmode="layer"
	id="layer1">
	<path style="fill:none;stroke:red;stroke-width:1px;stroke-linecap:butt;stroke-linejoin:miter;stroke-opacity:1" d="M 35.6806,481.19 19.8403,469.309 z" id="boundary" inkscape:connector-curvature="0" />
	<path style="fill:none;stroke:red;stroke-width:1px;stroke-linecap:butt;stroke-linejoin:miter;stroke-opacity:1" d="M 4,455.449 13.9002,435.649 z" id="boundary" inkscape:connector-curvature="0" />
	<path style="fill:none;stroke:red;stroke-width:1px;stroke-linecap:butt;stroke-linejoin:miter;stroke-opacity:1" d="M 4,455.449 19.8403,469.309 z" id="boundary" inkscape:connector-curvature="0" />
	<path style="fill:none;stroke:red;stroke-width:1px;stroke-linecap:butt;stroke-linejoin:miter;stroke-opacity:1" d="M 13.9002,435.649 23.8004,415.848 z" id="boundary" inkscape:connector-curvature="0" />
	<path style="fill:none;stroke:red;stroke-width:1px;stroke-linecap:butt;stroke-linejoin:miter;stroke-opacity:1" d="M 65.3812,364.367 49.5409,380.208 z" id="boundary" inkscape:connector-curvature="0" />
	<path style="fill:none;stroke:red;stroke-width:1px;stroke-linecap:butt;stroke-linejoin:miter;stroke-opacity:1" d="M 23.8004,415.848 39.6407,400.008 z" id="boundary" inkscape:connector-curvature="0" />
	<path style="fill:none;stroke:red;stroke-width:1px;stroke-linecap:butt;stroke-linejoin:miter;stroke-opacity:1" d="M 51.521,467.329 35.6806,481.19 z" id="boundary" inkscape:connector-curvature="0" />
	<path style="fill:none;stroke:red;stroke-width:1px;stroke-linecap:butt;stroke-linejoin:miter;stroke-opacity:1" d="M 39.6407,400.008 49.5409,380.208 z" id="boundary" inkscape:connector-curvature="0" />
	<path style="fill:none;stroke:red;stroke-width:1px;stroke-linecap:butt;stroke-linejoin:miter;stroke-opacity:1" d="M 65.3812,451.489 81.2216,437.629 z" id="boundary" inkscape:connector-curvature="0" />
	<path style="fill:none;stroke:red;stroke-width:1px;stroke-linecap:butt;stroke-linejoin:miter;stroke-opacity:1" d="M 81.2216,437.629 101.022,427.729 z" id="boundary" inkscape:connector-curvature="0" />
	<path style="fill:none;stroke:red;stroke-width:1px;stroke-linecap:butt;stroke-linejoin:miter;stroke-opacity:1" d="M 65.3812,451.489 51.521,467.329 z" id="boundary" inkscape:connector-curvature="0" />
	<path style="fill:none;stroke:red;stroke-width:1px;stroke-linecap:butt;stroke-linejoin:miter;stroke-opacity:1" d="M 75.2814,344.567 91.1218,330.707 z" id="boundary" inkscape:connector-curvature="0" />
	<path style="fill:none;stroke:red;stroke-width:1px;stroke-linecap:butt;stroke-linejoin:miter;stroke-opacity:1" d="M 65.3812,364.367 75.2814,344.567 z" id="boundary" inkscape:connector-curvature="0" />
	<path style="fill:none;stroke:red;stroke-width:1px;stroke-linecap:butt;stroke-linejoin:miter;stroke-opacity:1" d="M 91.1218,330.707 99.0419,310.906 z" id="boundary" inkscape:connector-curvature="0" />
	<path style="fill:none;stroke:red;stroke-width:1px;stroke-linecap:butt;stroke-linejoin:miter;stroke-opacity:1" d="M 114.882,295.066 99.0419,310.906 z" id="boundary" inkscape:connector-curvature="0" />
	<path style="fill:none;stroke:red;stroke-width:1px;stroke-linecap:butt;stroke-linejoin:miter;stroke-opacity:1" d="M 103.002,968.279 112.902,986.1 z" id="boundary" inkscape:connector-curvature="0" />
	<path style="fill:none;stroke:red;stroke-width:1px;stroke-linecap:butt;stroke-linejoin:miter;stroke-opacity:1" d="M 112.902,986.1 132.703,980.16 z" id="boundary" inkscape:connector-curvature="0" />
	<path style="fill:none;stroke:red;stroke-width:1px;stroke-linecap:butt;stroke-linejoin:miter;stroke-opacity:1" d="M 103.002,920.758 93.1018,950.459 z" id="boundary" inkscape:connector-curvature="0" />
	<path style="fill:none;stroke:red;stroke-width:1px;stroke-linecap:butt;stroke-linejoin:miter;stroke-opacity:1" d="M 93.1018,950.459 103.002,968.279 z" id="boundary" inkscape:connector-curvature="0" />
	<path style="fill:none;stroke:red;stroke-width:1px;stroke-linecap:butt;stroke-linejoin:miter;stroke-opacity:1" d="M 103.002,920.758 112.902,900.958 z" id="boundary" inkscape:connector-curvature="0" />
	<path style="fill:none;stroke:red;stroke-width:1px;stroke-linecap:butt;stroke-linejoin:miter;stroke-opacity:1" d="M 160.423,368.327 144.583,382.188 z" id="boundary" inkscape:connector-curvature="0" />
	<path style="fill:none;stroke:red;stroke-width:1px;stroke-linecap:butt;stroke-linejoin:miter;stroke-opacity:1" d="M 101.022,427.729 114.882,411.888 z" id="boundary" inkscape:connector-curvature="0" />
	<path style="fill:none;stroke:red;stroke-width:1px;stroke-linecap:butt;stroke-linejoin:miter;stroke-opacity:1" d="M 112.902,900.958 122.802,881.158 z" id="boundary" inkscape:connector-curvature="0" />
	<path style="fill:none;stroke:red;stroke-width:1px;stroke-linecap:butt;stroke-linejoin:miter;stroke-opacity:1" d="M 570.291,926.699 582.172,942.539 z" id="boundary" inkscape:connector-curvature="0" />
	<path style="fill:none;stroke:red;stroke-width:1px;stroke-linecap:butt;stroke-linejoin:miter;stroke-opacity:1" d="M 122.802,881.158 138.643,865.317 z" id="boundary" inkscape:connector-curvature="0" />
	<path style="fill:none;stroke:red;stroke-width:1px;stroke-linecap:butt;stroke-linejoin:miter;stroke-opacity:1" d="M 114.882,295.066 124.782,275.265 z" id="boundary" inkscape:connector-curvature="0" />
	<path style="fill:none;stroke:red;stroke-width:1px;stroke-linecap:butt;stroke-linejoin:miter;stroke-opacity:1" d="M 114.882,411.888 130.723,398.028 z" id="boundary" inkscape:connector-curvature="0" />
	<path style="fill:none;stroke:red;stroke-width:1px;stroke-linecap:butt;stroke-linejoin:miter;stroke-opacity:1" d="M 144.583,382.188 130.723,398.028 z" id="boundary" inkscape:connector-curvature="0" />
	<path style="fill:none;stroke:red;stroke-width:1px;stroke-linecap:butt;stroke-linejoin:miter;stroke-opacity:1" d="M 138.643,865.317 148.543,845.517 z" id="boundary" inkscape:connector-curvature="0" />
	<path style="fill:none;stroke:red;stroke-width:1px;stroke-linecap:butt;stroke-linejoin:miter;stroke-opacity:1" d="M 134.683,255.465 150.523,241.605 z" id="boundary" inkscape:connector-curvature="0" />
	<path style="fill:none;stroke:red;stroke-width:1px;stroke-linecap:butt;stroke-linejoin:miter;stroke-opacity:1" d="M 124.782,275.265 134.683,255.465 z" id="boundary" inkscape:connector-curvature="0" />
	<path style="fill:none;stroke:red;stroke-width:1px;stroke-linecap:butt;stroke-linejoin:miter;stroke-opacity:1" d="M 132.703,980.16 152.503,970.259 z" id="boundary" inkscape:connector-curvature="0" />
	<path style="fill:none;stroke:red;stroke-width:1px;stroke-linecap:butt;stroke-linejoin:miter;stroke-opacity:1" d="M 148.543,845.517 158.443,825.717 z" id="boundary" inkscape:connector-curvature="0" />
	<path style="fill:none;stroke:red;stroke-width:1px;stroke-linecap:butt;stroke-linejoin:miter;stroke-opacity:1" d="M 158.443,825.717 168.343,805.916 z" id="boundary" inkscape:connector-curvature="0" />
	<path style="fill:none;stroke:red;stroke-width:1px;stroke-linecap:butt;stroke-linejoin:miter;stroke-opacity:1" d="M 160.423,368.327 170.323,348.527 z" id="boundary" inkscape:connector-curvature="0" />
	<path style="fill:none;stroke:red;stroke-width:1px;stroke-linecap:butt;stroke-linejoin:miter;stroke-opacity:1" d="M 247.545,352.487 251.505,372.287 z" id="boundary" inkscape:connector-curvature="0" />
	<path style="fill:none;stroke:red;stroke-width:1px;stroke-linecap:butt;stroke-linejoin:miter;stroke-opacity:1" d="M 449.509,762.355 465.349,776.216 z" id="boundary" inkscape:connector-curvature="0" />
	<path style="fill:none;stroke:red;stroke-width:1px;stroke-linecap:butt;stroke-linejoin:miter;stroke-opacity:1" d="M 150.523,241.605 168.343,231.705 z" id="boundary" inkscape:connector-curvature="0" />
	<path style="fill:none;stroke:red;stroke-width:1px;stroke-linecap:butt;stroke-linejoin:miter;stroke-opacity:1" d="M 184.184,936.599 200.024,922.739 z" id="boundary" inkscape:connector-curvature="0" />
	<path style="fill:none;stroke:red;stroke-width:1px;stroke-linecap:butt;stroke-linejoin:miter;stroke-opacity:1" d="M 184.184,936.599 168.343,954.419 z" id="boundary" inkscape:connector-curvature="0" />
	<path style="fill:none;stroke:red;stroke-width:1px;stroke-linecap:butt;stroke-linejoin:miter;stroke-opacity:1" d="M 152.503,970.259 168.343,954.419 z" id="boundary" inkscape:connector-curvature="0" />
	<path style="fill:none;stroke:red;stroke-width:1px;stroke-linecap:butt;stroke-linejoin:miter;stroke-opacity:1" d="M 168.343,805.916 182.204,782.156 z" id="boundary" inkscape:connector-curvature="0" />
	<path style="fill:none;stroke:red;stroke-width:1px;stroke-linecap:butt;stroke-linejoin:miter;stroke-opacity:1" d="M 170.323,348.527 190.124,338.627 z" id="boundary" inkscape:connector-curvature="0" />
	<path style="fill:none;stroke:red;stroke-width:1px;stroke-linecap:butt;stroke-linejoin:miter;stroke-opacity:1" d="M 198.044,766.315 182.204,782.156 z" id="boundary" inkscape:connector-curvature="0" />
	<path style="fill:none;stroke:red;stroke-width:1px;stroke-linecap:butt;stroke-linejoin:miter;stroke-opacity:1" d="M 168.343,231.705 184.184,215.864 z" id="boundary" inkscape:connector-curvature="0" />
	<path style="fill:none;stroke:red;stroke-width:1px;stroke-linecap:butt;stroke-linejoin:miter;stroke-opacity:1" d="M 241.605,332.687 247.545,352.487 z" id="boundary" inkscape:connector-curvature="0" />
	<path style="fill:none;stroke:red;stroke-width:1px;stroke-linecap:butt;stroke-linejoin:miter;stroke-opacity:1" d="M 241.605,332.687 223.784,322.786 z" id="boundary" inkscape:connector-curvature="0" />
	<path style="fill:none;stroke:red;stroke-width:1px;stroke-linecap:butt;stroke-linejoin:miter;stroke-opacity:1" d="M 184.184,215.864 200.024,202.004 z" id="boundary" inkscape:connector-curvature="0" />
	<path style="fill:none;stroke:red;stroke-width:1px;stroke-linecap:butt;stroke-linejoin:miter;stroke-opacity:1" d="M 200.024,202.004 219.824,202.004 z" id="boundary" inkscape:connector-curvature="0" />
	<path style="fill:none;stroke:red;stroke-width:1px;stroke-linecap:butt;stroke-linejoin:miter;stroke-opacity:1" d="M 190.124,338.627 203.984,322.786 z" id="boundary" inkscape:connector-curvature="0" />
	<path style="fill:none;stroke:red;stroke-width:1px;stroke-linecap:butt;stroke-linejoin:miter;stroke-opacity:1" d="M 358.427,23.8004 376.248,13.9002 z" id="boundary" inkscape:connector-curvature="0" />
	<path style="fill:none;stroke:red;stroke-width:1px;stroke-linecap:butt;stroke-linejoin:miter;stroke-opacity:1" d="M 203.984,322.786 223.784,322.786 z" id="boundary" inkscape:connector-curvature="0" />
	<path style="fill:none;stroke:red;stroke-width:1px;stroke-linecap:butt;stroke-linejoin:miter;stroke-opacity:1" d="M 213.884,896.998 229.725,883.138 z" id="boundary" inkscape:connector-curvature="0" />
	<path style="fill:none;stroke:red;stroke-width:1px;stroke-linecap:butt;stroke-linejoin:miter;stroke-opacity:1" d="M 213.884,896.998 200.024,922.739 z" id="boundary" inkscape:connector-curvature="0" />
	<path style="fill:none;stroke:red;stroke-width:1px;stroke-linecap:butt;stroke-linejoin:miter;stroke-opacity:1" d="M 198.044,766.315 207.944,746.515 z" id="boundary" inkscape:connector-curvature="0" />
	<path style="fill:none;stroke:red;stroke-width:1px;stroke-linecap:butt;stroke-linejoin:miter;stroke-opacity:1" d="M 207.944,746.515 221.804,722.754 z" id="boundary" inkscape:connector-curvature="0" />
	<path style="fill:none;stroke:red;stroke-width:1px;stroke-linecap:butt;stroke-linejoin:miter;stroke-opacity:1" d="M 229.725,883.138 243.585,867.297 z" id="boundary" inkscape:connector-curvature="0" />
	<path style="fill:none;stroke:red;stroke-width:1px;stroke-linecap:butt;stroke-linejoin:miter;stroke-opacity:1" d="M 237.645,706.914 221.804,722.754 z" id="boundary" inkscape:connector-curvature="0" />
	<path style="fill:none;stroke:red;stroke-width:1px;stroke-linecap:butt;stroke-linejoin:miter;stroke-opacity:1" d="M 243.585,867.297 259.425,853.437 z" id="boundary" inkscape:connector-curvature="0" />
	<path style="fill:none;stroke:red;stroke-width:1px;stroke-linecap:butt;stroke-linejoin:miter;stroke-opacity:1" d="M 219.824,202.004 237.645,192.104 z" id="boundary" inkscape:connector-curvature="0" />
	<path style="fill:none;stroke:red;stroke-width:1px;stroke-linecap:butt;stroke-linejoin:miter;stroke-opacity:1" d="M 237.645,192.104 257.445,192.104 z" id="boundary" inkscape:connector-curvature="0" />
	<path style="fill:none;stroke:red;stroke-width:1px;stroke-linecap:butt;stroke-linejoin:miter;stroke-opacity:1" d="M 251.505,372.287 261.405,390.108 z" id="boundary" inkscape:connector-curvature="0" />
	<path style="fill:none;stroke:red;stroke-width:1px;stroke-linecap:butt;stroke-linejoin:miter;stroke-opacity:1" d="M 439.609,744.535 449.509,762.355 z" id="boundary" inkscape:connector-curvature="0" />
	<path style="fill:none;stroke:red;stroke-width:1px;stroke-linecap:butt;stroke-linejoin:miter;stroke-opacity:1" d="M 261.405,390.108 265.365,409.908 z" id="boundary" inkscape:connector-curvature="0" />
	<path style="fill:none;stroke:red;stroke-width:1px;stroke-linecap:butt;stroke-linejoin:miter;stroke-opacity:1" d="M 247.545,687.114 257.445,667.313 z" id="boundary" inkscape:connector-curvature="0" />
	<path style="fill:none;stroke:red;stroke-width:1px;stroke-linecap:butt;stroke-linejoin:miter;stroke-opacity:1" d="M 237.645,706.914 247.545,687.114 z" id="boundary" inkscape:connector-curvature="0" />
	<path style="fill:none;stroke:red;stroke-width:1px;stroke-linecap:butt;stroke-linejoin:miter;stroke-opacity:1" d="M 277.246,192.104 257.445,192.104 z" id="boundary" inkscape:connector-curvature="0" />
	<path style="fill:none;stroke:red;stroke-width:1px;stroke-linecap:butt;stroke-linejoin:miter;stroke-opacity:1" d="M 265.365,409.908 271.305,429.709 z" id="boundary" inkscape:connector-curvature="0" />
	<path style="fill:none;stroke:red;stroke-width:1px;stroke-linecap:butt;stroke-linejoin:miter;stroke-opacity:1" d="M 297.046,182.204 277.246,192.104 z" id="boundary" inkscape:connector-curvature="0" />
	<path style="fill:none;stroke:red;stroke-width:1px;stroke-linecap:butt;stroke-linejoin:miter;stroke-opacity:1" d="M 301.006,128.743 301.006,108.942 z" id="boundary" inkscape:connector-curvature="0" />
	<path style="fill:none;stroke:red;stroke-width:1px;stroke-linecap:butt;stroke-linejoin:miter;stroke-opacity:1" d="M 269.325,833.637 283.186,817.796 z" id="boundary" inkscape:connector-curvature="0" />
	<path style="fill:none;stroke:red;stroke-width:1px;stroke-linecap:butt;stroke-linejoin:miter;stroke-opacity:1" d="M 269.325,833.637 259.425,853.437 z" id="boundary" inkscape:connector-curvature="0" />
	<path style="fill:none;stroke:red;stroke-width:1px;stroke-linecap:butt;stroke-linejoin:miter;stroke-opacity:1" d="M 283.186,817.796 299.026,803.936 z" id="boundary" inkscape:connector-curvature="0" />
	<path style="fill:none;stroke:red;stroke-width:1px;stroke-linecap:butt;stroke-linejoin:miter;stroke-opacity:1" d="M 281.206,447.529 281.206,467.329 z" id="boundary" inkscape:connector-curvature="0" />
	<path style="fill:none;stroke:red;stroke-width:1px;stroke-linecap:butt;stroke-linejoin:miter;stroke-opacity:1" d="M 281.206,447.529 271.305,429.709 z" id="boundary" inkscape:connector-curvature="0" />
	<path style="fill:none;stroke:red;stroke-width:1px;stroke-linecap:butt;stroke-linejoin:miter;stroke-opacity:1" d="M 297.046,182.204 310.906,166.363 z" id="boundary" inkscape:connector-curvature="0" />
	<path style="fill:none;stroke:red;stroke-width:1px;stroke-linecap:butt;stroke-linejoin:miter;stroke-opacity:1" d="M 257.445,667.313 271.305,643.553 z" id="boundary" inkscape:connector-curvature="0" />
	<path style="fill:none;stroke:red;stroke-width:1px;stroke-linecap:butt;stroke-linejoin:miter;stroke-opacity:1" d="M 471.289,202.004 471.289,182.204 z" id="boundary" inkscape:connector-curvature="0" />
	<path style="fill:none;stroke:red;stroke-width:1px;stroke-linecap:butt;stroke-linejoin:miter;stroke-opacity:1" d="M 471.289,182.204 461.389,164.383 z" id="boundary" inkscape:connector-curvature="0" />
	<path style="fill:none;stroke:red;stroke-width:1px;stroke-linecap:butt;stroke-linejoin:miter;stroke-opacity:1" d="M 301.006,108.942 301.006,89.1417 z" id="boundary" inkscape:connector-curvature="0" />
	<path style="fill:none;stroke:red;stroke-width:1px;stroke-linecap:butt;stroke-linejoin:miter;stroke-opacity:1" d="M 291.106,485.15 291.106,504.95 z" id="boundary" inkscape:connector-curvature="0" />
	<path style="fill:none;stroke:red;stroke-width:1px;stroke-linecap:butt;stroke-linejoin:miter;stroke-opacity:1" d="M 291.106,485.15 281.206,467.329 z" id="boundary" inkscape:connector-curvature="0" />
	<path style="fill:none;stroke:red;stroke-width:1px;stroke-linecap:butt;stroke-linejoin:miter;stroke-opacity:1" d="M 425.749,728.695 439.609,744.535 z" id="boundary" inkscape:connector-curvature="0" />
	<path style="fill:none;stroke:red;stroke-width:1px;stroke-linecap:butt;stroke-linejoin:miter;stroke-opacity:1" d="M 271.305,643.553 281.206,613.852 z" id="boundary" inkscape:connector-curvature="0" />
	<path style="fill:none;stroke:red;stroke-width:1px;stroke-linecap:butt;stroke-linejoin:miter;stroke-opacity:1" d="M 281.206,613.852 291.106,594.052 z" id="boundary" inkscape:connector-curvature="0" />
	<path style="fill:none;stroke:red;stroke-width:1px;stroke-linecap:butt;stroke-linejoin:miter;stroke-opacity:1" d="M 310.906,166.363 310.906,146.563 z" id="boundary" inkscape:connector-curvature="0" />
	<path style="fill:none;stroke:red;stroke-width:1px;stroke-linecap:butt;stroke-linejoin:miter;stroke-opacity:1" d="M 291.106,504.95 301.006,522.77 z" id="boundary" inkscape:connector-curvature="0" />
	<path style="fill:none;stroke:red;stroke-width:1px;stroke-linecap:butt;stroke-linejoin:miter;stroke-opacity:1" d="M 461.389,144.583 461.389,164.383 z" id="boundary" inkscape:connector-curvature="0" />
	<path style="fill:none;stroke:red;stroke-width:1px;stroke-linecap:butt;stroke-linejoin:miter;stroke-opacity:1" d="M 301.006,522.77 301.006,542.571 z" id="boundary" inkscape:connector-curvature="0" />
	<path style="fill:none;stroke:red;stroke-width:1px;stroke-linecap:butt;stroke-linejoin:miter;stroke-opacity:1" d="M 301.006,128.743 310.906,146.563 z" id="boundary" inkscape:connector-curvature="0" />
	<path style="fill:none;stroke:red;stroke-width:1px;stroke-linecap:butt;stroke-linejoin:miter;stroke-opacity:1" d="M 301.006,89.1417 310.906,69.3413 z" id="boundary" inkscape:connector-curvature="0" />
	<path style="fill:none;stroke:red;stroke-width:1px;stroke-linecap:butt;stroke-linejoin:miter;stroke-opacity:1" d="M 312.886,778.196 328.727,764.335 z" id="boundary" inkscape:connector-curvature="0" />
	<path style="fill:none;stroke:red;stroke-width:1px;stroke-linecap:butt;stroke-linejoin:miter;stroke-opacity:1" d="M 312.886,778.196 299.026,803.936 z" id="boundary" inkscape:connector-curvature="0" />
	<path style="fill:none;stroke:red;stroke-width:1px;stroke-linecap:butt;stroke-linejoin:miter;stroke-opacity:1" d="M 291.106,594.052 301.006,562.371 z" id="boundary" inkscape:connector-curvature="0" />
	<path style="fill:none;stroke:red;stroke-width:1px;stroke-linecap:butt;stroke-linejoin:miter;stroke-opacity:1" d="M 301.006,562.371 301.006,542.571 z" id="boundary" inkscape:connector-curvature="0" />
	<path style="fill:none;stroke:red;stroke-width:1px;stroke-linecap:butt;stroke-linejoin:miter;stroke-opacity:1" d="M 451.489,61.4212 461.389,79.2415 z" id="boundary" inkscape:connector-curvature="0" />
	<path style="fill:none;stroke:red;stroke-width:1px;stroke-linecap:butt;stroke-linejoin:miter;stroke-opacity:1" d="M 342.587,37.6607 326.747,53.501 z" id="boundary" inkscape:connector-curvature="0" />
	<path style="fill:none;stroke:red;stroke-width:1px;stroke-linecap:butt;stroke-linejoin:miter;stroke-opacity:1" d="M 326.747,53.501 310.906,69.3413 z" id="boundary" inkscape:connector-curvature="0" />
	<path style="fill:none;stroke:red;stroke-width:1px;stroke-linecap:butt;stroke-linejoin:miter;stroke-opacity:1" d="M 481.19,520.79 481.19,540.591 z" id="boundary" inkscape:connector-curvature="0" />
	<path style="fill:none;stroke:red;stroke-width:1px;stroke-linecap:butt;stroke-linejoin:miter;stroke-opacity:1" d="M 441.589,43.6008 429.709,27.7605 z" id="boundary" inkscape:connector-curvature="0" />
	<path style="fill:none;stroke:red;stroke-width:1px;stroke-linecap:butt;stroke-linejoin:miter;stroke-opacity:1" d="M 429.709,27.7605 409.908,19.8403 z" id="boundary" inkscape:connector-curvature="0" />
	<path style="fill:none;stroke:red;stroke-width:1px;stroke-linecap:butt;stroke-linejoin:miter;stroke-opacity:1" d="M 342.587,37.6607 358.427,23.8004 z" id="boundary" inkscape:connector-curvature="0" />
	<path style="fill:none;stroke:red;stroke-width:1px;stroke-linecap:butt;stroke-linejoin:miter;stroke-opacity:1" d="M 419.808,708.894 425.749,728.695 z" id="boundary" inkscape:connector-curvature="0" />
	<path style="fill:none;stroke:red;stroke-width:1px;stroke-linecap:butt;stroke-linejoin:miter;stroke-opacity:1" d="M 419.808,708.894 401.988,698.994 z" id="boundary" inkscape:connector-curvature="0" />
	<path style="fill:none;stroke:red;stroke-width:1px;stroke-linecap:butt;stroke-linejoin:miter;stroke-opacity:1" d="M 376.248,13.9002 396.048,4 z" id="boundary" inkscape:connector-curvature="0" />
	<path style="fill:none;stroke:red;stroke-width:1px;stroke-linecap:butt;stroke-linejoin:miter;stroke-opacity:1" d="M 396.048,4 409.908,19.8403 z" id="boundary" inkscape:connector-curvature="0" />
	<path style="fill:none;stroke:red;stroke-width:1px;stroke-linecap:butt;stroke-linejoin:miter;stroke-opacity:1" d="M 328.727,764.335 342.587,748.495 z" id="boundary" inkscape:connector-curvature="0" />
	<path style="fill:none;stroke:red;stroke-width:1px;stroke-linecap:butt;stroke-linejoin:miter;stroke-opacity:1" d="M 352.487,728.695 368.327,714.834 z" id="boundary" inkscape:connector-curvature="0" />
	<path style="fill:none;stroke:red;stroke-width:1px;stroke-linecap:butt;stroke-linejoin:miter;stroke-opacity:1" d="M 352.487,728.695 342.587,748.495 z" id="boundary" inkscape:connector-curvature="0" />
	<path style="fill:none;stroke:red;stroke-width:1px;stroke-linecap:butt;stroke-linejoin:miter;stroke-opacity:1" d="M 368.327,714.834 382.188,698.994 z" id="boundary" inkscape:connector-curvature="0" />
	<path style="fill:none;stroke:red;stroke-width:1px;stroke-linecap:butt;stroke-linejoin:miter;stroke-opacity:1" d="M 382.188,698.994 401.988,698.994 z" id="boundary" inkscape:connector-curvature="0" />
	<path style="fill:none;stroke:red;stroke-width:1px;stroke-linecap:butt;stroke-linejoin:miter;stroke-opacity:1" d="M 451.489,61.4212 441.589,43.6008 z" id="boundary" inkscape:connector-curvature="0" />
	<path style="fill:none;stroke:red;stroke-width:1px;stroke-linecap:butt;stroke-linejoin:miter;stroke-opacity:1" d="M 481.19,560.391 485.15,580.192 z" id="boundary" inkscape:connector-curvature="0" />
	<path style="fill:none;stroke:red;stroke-width:1px;stroke-linecap:butt;stroke-linejoin:miter;stroke-opacity:1" d="M 499.01,827.697 489.11,809.876 z" id="boundary" inkscape:connector-curvature="0" />
	<path style="fill:none;stroke:red;stroke-width:1px;stroke-linecap:butt;stroke-linejoin:miter;stroke-opacity:1" d="M 481.19,560.391 481.19,540.591 z" id="boundary" inkscape:connector-curvature="0" />
	<path style="fill:none;stroke:red;stroke-width:1px;stroke-linecap:butt;stroke-linejoin:miter;stroke-opacity:1" d="M 508.91,845.517 499.01,827.697 z" id="boundary" inkscape:connector-curvature="0" />
	<path style="fill:none;stroke:red;stroke-width:1px;stroke-linecap:butt;stroke-linejoin:miter;stroke-opacity:1" d="M 489.11,809.876 479.21,792.056 z" id="boundary" inkscape:connector-curvature="0" />
	<path style="fill:none;stroke:red;stroke-width:1px;stroke-linecap:butt;stroke-linejoin:miter;stroke-opacity:1" d="M 479.21,792.056 465.349,776.216 z" id="boundary" inkscape:connector-curvature="0" />
	<path style="fill:none;stroke:red;stroke-width:1px;stroke-linecap:butt;stroke-linejoin:miter;stroke-opacity:1" d="M 528.711,881.158 520.79,861.357 z" id="boundary" inkscape:connector-curvature="0" />
	<path style="fill:none;stroke:red;stroke-width:1px;stroke-linecap:butt;stroke-linejoin:miter;stroke-opacity:1" d="M 520.79,861.357 508.91,845.517 z" id="boundary" inkscape:connector-curvature="0" />
	<path style="fill:none;stroke:red;stroke-width:1px;stroke-linecap:butt;stroke-linejoin:miter;stroke-opacity:1" d="M 520.79,332.687 520.79,312.886 z" id="boundary" inkscape:connector-curvature="0" />
	<path style="fill:none;stroke:red;stroke-width:1px;stroke-linecap:butt;stroke-linejoin:miter;stroke-opacity:1" d="M 471.289,116.862 471.289,97.0619 z" id="boundary" inkscape:connector-curvature="0" />
	<path style="fill:none;stroke:red;stroke-width:1px;stroke-linecap:butt;stroke-linejoin:miter;stroke-opacity:1" d="M 471.289,97.0619 461.389,79.2415 z" id="boundary" inkscape:connector-curvature="0" />
	<path style="fill:none;stroke:red;stroke-width:1px;stroke-linecap:butt;stroke-linejoin:miter;stroke-opacity:1" d="M 540.591,708.894 534.651,689.094 z" id="boundary" inkscape:connector-curvature="0" />
	<path style="fill:none;stroke:red;stroke-width:1px;stroke-linecap:butt;stroke-linejoin:miter;stroke-opacity:1" d="M 534.651,689.094 520.79,673.253 z" id="boundary" inkscape:connector-curvature="0" />
	<path style="fill:none;stroke:red;stroke-width:1px;stroke-linecap:butt;stroke-linejoin:miter;stroke-opacity:1" d="M 471.289,116.862 461.389,144.583 z" id="boundary" inkscape:connector-curvature="0" />
	<path style="fill:none;stroke:red;stroke-width:1px;stroke-linecap:butt;stroke-linejoin:miter;stroke-opacity:1" d="M 471.289,202.004 491.09,202.004 z" id="boundary" inkscape:connector-curvature="0" />
	<path style="fill:none;stroke:red;stroke-width:1px;stroke-linecap:butt;stroke-linejoin:miter;stroke-opacity:1" d="M 491.09,599.992 485.15,580.192 z" id="boundary" inkscape:connector-curvature="0" />
	<path style="fill:none;stroke:red;stroke-width:1px;stroke-linecap:butt;stroke-linejoin:miter;stroke-opacity:1" d="M 528.711,881.158 544.551,895.018 z" id="boundary" inkscape:connector-curvature="0" />
	<path style="fill:none;stroke:red;stroke-width:1px;stroke-linecap:butt;stroke-linejoin:miter;stroke-opacity:1" d="M 544.551,895.018 558.411,910.858 z" id="boundary" inkscape:connector-curvature="0" />
	<path style="fill:none;stroke:red;stroke-width:1px;stroke-linecap:butt;stroke-linejoin:miter;stroke-opacity:1" d="M 500.99,637.613 500.99,617.812 z" id="boundary" inkscape:connector-curvature="0" />
	<path style="fill:none;stroke:red;stroke-width:1px;stroke-linecap:butt;stroke-linejoin:miter;stroke-opacity:1" d="M 500.99,617.812 491.09,599.992 z" id="boundary" inkscape:connector-curvature="0" />
	<path style="fill:none;stroke:red;stroke-width:1px;stroke-linecap:butt;stroke-linejoin:miter;stroke-opacity:1" d="M 491.09,500.99 481.19,520.79 z" id="boundary" inkscape:connector-curvature="0" />
	<path style="fill:none;stroke:red;stroke-width:1px;stroke-linecap:butt;stroke-linejoin:miter;stroke-opacity:1" d="M 491.09,500.99 491.09,481.19 z" id="boundary" inkscape:connector-curvature="0" />
	<path style="fill:none;stroke:red;stroke-width:1px;stroke-linecap:butt;stroke-linejoin:miter;stroke-opacity:1" d="M 500.99,637.613 510.89,655.433 z" id="boundary" inkscape:connector-curvature="0" />
	<path style="fill:none;stroke:red;stroke-width:1px;stroke-linecap:butt;stroke-linejoin:miter;stroke-opacity:1" d="M 558.411,910.858 570.291,926.699 z" id="boundary" inkscape:connector-curvature="0" />
	<path style="fill:none;stroke:red;stroke-width:1px;stroke-linecap:butt;stroke-linejoin:miter;stroke-opacity:1" d="M 510.89,655.433 520.79,673.253 z" id="boundary" inkscape:connector-curvature="0" />
	<path style="fill:none;stroke:red;stroke-width:1px;stroke-linecap:butt;stroke-linejoin:miter;stroke-opacity:1" d="M 500.99,451.489 491.09,481.19 z" id="boundary" inkscape:connector-curvature="0" />
	<path style="fill:none;stroke:red;stroke-width:1px;stroke-linecap:butt;stroke-linejoin:miter;stroke-opacity:1" d="M 500.99,451.489 500.99,431.689 z" id="boundary" inkscape:connector-curvature="0" />
	<path style="fill:none;stroke:red;stroke-width:1px;stroke-linecap:butt;stroke-linejoin:miter;stroke-opacity:1" d="M 510.89,401.988 510.89,382.188 z" id="boundary" inkscape:connector-curvature="0" />
	<path style="fill:none;stroke:red;stroke-width:1px;stroke-linecap:butt;stroke-linejoin:miter;stroke-opacity:1" d="M 491.09,202.004 510.89,202.004 z" id="boundary" inkscape:connector-curvature="0" />
	<path style="fill:none;stroke:red;stroke-width:1px;stroke-linecap:butt;stroke-linejoin:miter;stroke-opacity:1" d="M 578.212,316.846 594.052,330.707 z" id="boundary" inkscape:connector-curvature="0" />
	<path style="fill:none;stroke:red;stroke-width:1px;stroke-linecap:butt;stroke-linejoin:miter;stroke-opacity:1" d="M 510.89,401.988 500.99,431.689 z" id="boundary" inkscape:connector-curvature="0" />
	<path style="fill:none;stroke:red;stroke-width:1px;stroke-linecap:butt;stroke-linejoin:miter;stroke-opacity:1" d="M 631.673,380.208 617.812,364.367 z" id="boundary" inkscape:connector-curvature="0" />
	<path style="fill:none;stroke:red;stroke-width:1px;stroke-linecap:butt;stroke-linejoin:miter;stroke-opacity:1" d="M 607.912,346.547 594.052,330.707 z" id="boundary" inkscape:connector-curvature="0" />
	<path style="fill:none;stroke:red;stroke-width:1px;stroke-linecap:butt;stroke-linejoin:miter;stroke-opacity:1" d="M 510.89,202.004 530.691,202.004 z" id="boundary" inkscape:connector-curvature="0" />
	<path style="fill:none;stroke:red;stroke-width:1px;stroke-linecap:butt;stroke-linejoin:miter;stroke-opacity:1" d="M 550.491,726.715 540.591,708.894 z" id="boundary" inkscape:connector-curvature="0" />
	<path style="fill:none;stroke:red;stroke-width:1px;stroke-linecap:butt;stroke-linejoin:miter;stroke-opacity:1" d="M 520.79,352.487 510.89,382.188 z" id="boundary" inkscape:connector-curvature="0" />
	<path style="fill:none;stroke:red;stroke-width:1px;stroke-linecap:butt;stroke-linejoin:miter;stroke-opacity:1" d="M 520.79,352.487 520.79,332.687 z" id="boundary" inkscape:connector-curvature="0" />
	<path style="fill:none;stroke:red;stroke-width:1px;stroke-linecap:butt;stroke-linejoin:miter;stroke-opacity:1" d="M 560.391,306.946 578.212,316.846 z" id="boundary" inkscape:connector-curvature="0" />
	<path style="fill:none;stroke:red;stroke-width:1px;stroke-linecap:butt;stroke-linejoin:miter;stroke-opacity:1" d="M 570.291,762.355 580.192,780.176 z" id="boundary" inkscape:connector-curvature="0" />
	<path style="fill:none;stroke:red;stroke-width:1px;stroke-linecap:butt;stroke-linejoin:miter;stroke-opacity:1" d="M 540.591,302.986 520.79,312.886 z" id="boundary" inkscape:connector-curvature="0" />
	<path style="fill:none;stroke:red;stroke-width:1px;stroke-linecap:butt;stroke-linejoin:miter;stroke-opacity:1" d="M 550.491,726.715 560.391,744.535 z" id="boundary" inkscape:connector-curvature="0" />
	<path style="fill:none;stroke:red;stroke-width:1px;stroke-linecap:butt;stroke-linejoin:miter;stroke-opacity:1" d="M 540.591,302.986 560.391,306.946 z" id="boundary" inkscape:connector-curvature="0" />
	<path style="fill:none;stroke:red;stroke-width:1px;stroke-linecap:butt;stroke-linejoin:miter;stroke-opacity:1" d="M 570.291,762.355 560.391,744.535 z" id="boundary" inkscape:connector-curvature="0" />
	<path style="fill:none;stroke:red;stroke-width:1px;stroke-linecap:butt;stroke-linejoin:miter;stroke-opacity:1" d="M 598.012,956.399 609.892,972.24 z" id="boundary" inkscape:connector-curvature="0" />
	<path style="fill:none;stroke:red;stroke-width:1px;stroke-linecap:butt;stroke-linejoin:miter;stroke-opacity:1" d="M 598.012,956.399 582.172,942.539 z" id="boundary" inkscape:connector-curvature="0" />
	<path style="fill:none;stroke:red;stroke-width:1px;stroke-linecap:butt;stroke-linejoin:miter;stroke-opacity:1" d="M 607.912,346.547 617.812,364.367 z" id="boundary" inkscape:connector-curvature="0" />
	<path style="fill:none;stroke:red;stroke-width:1px;stroke-linecap:butt;stroke-linejoin:miter;stroke-opacity:1" d="M 530.691,202.004 550.491,202.004 z" id="boundary" inkscape:connector-curvature="0" />
	<path style="fill:none;stroke:red;stroke-width:1px;stroke-linecap:butt;stroke-linejoin:miter;stroke-opacity:1" d="M 550.491,202.004 568.311,211.904 z" id="boundary" inkscape:connector-curvature="0" />
	<path style="fill:none;stroke:red;stroke-width:1px;stroke-linecap:butt;stroke-linejoin:miter;stroke-opacity:1" d="M 580.192,780.176 592.072,796.016 z" id="boundary" inkscape:connector-curvature="0" />
	<path style="fill:none;stroke:red;stroke-width:1px;stroke-linecap:butt;stroke-linejoin:miter;stroke-opacity:1" d="M 584.152,223.784 568.311,211.904 z" id="boundary" inkscape:connector-curvature="0" />
	<path style="fill:none;stroke:red;stroke-width:1px;stroke-linecap:butt;stroke-linejoin:miter;stroke-opacity:1" d="M 592.072,796.016 599.992,815.816 z" id="boundary" inkscape:connector-curvature="0" />
	<path style="fill:none;stroke:red;stroke-width:1px;stroke-linecap:butt;stroke-linejoin:miter;stroke-opacity:1" d="M 625.733,986.1 609.892,972.24 z" id="boundary" inkscape:connector-curvature="0" />
	<path style="fill:none;stroke:red;stroke-width:1px;stroke-linecap:butt;stroke-linejoin:miter;stroke-opacity:1" d="M 647.513,392.088 659.393,407.928 z" id="boundary" inkscape:connector-curvature="0" />
	<path style="fill:none;stroke:red;stroke-width:1px;stroke-linecap:butt;stroke-linejoin:miter;stroke-opacity:1" d="M 647.513,392.088 631.673,380.208 z" id="boundary" inkscape:connector-curvature="0" />
	<path style="fill:none;stroke:red;stroke-width:1px;stroke-linecap:butt;stroke-linejoin:miter;stroke-opacity:1" d="M 615.832,827.697 623.752,847.497 z" id="boundary" inkscape:connector-curvature="0" />
	<path style="fill:none;stroke:red;stroke-width:1px;stroke-linecap:butt;stroke-linejoin:miter;stroke-opacity:1" d="M 615.832,827.697 599.992,815.816 z" id="boundary" inkscape:connector-curvature="0" />
	<path style="fill:none;stroke:red;stroke-width:1px;stroke-linecap:butt;stroke-linejoin:miter;stroke-opacity:1" d="M 599.992,237.645 613.852,253.485 z" id="boundary" inkscape:connector-curvature="0" />
	<path style="fill:none;stroke:red;stroke-width:1px;stroke-linecap:butt;stroke-linejoin:miter;stroke-opacity:1" d="M 599.992,237.645 584.152,223.784 z" id="boundary" inkscape:connector-curvature="0" />
	<path style="fill:none;stroke:red;stroke-width:1px;stroke-linecap:butt;stroke-linejoin:miter;stroke-opacity:1" d="M 659.393,407.928 675.234,421.788 z" id="boundary" inkscape:connector-curvature="0" />
	<path style="fill:none;stroke:red;stroke-width:1px;stroke-linecap:butt;stroke-linejoin:miter;stroke-opacity:1" d="M 675.234,421.788 683.154,441.589 z" id="boundary" inkscape:connector-curvature="0" />
	<path style="fill:none;stroke:red;stroke-width:1px;stroke-linecap:butt;stroke-linejoin:miter;stroke-opacity:1" d="M 629.693,267.345 613.852,253.485 z" id="boundary" inkscape:connector-curvature="0" />
	<path style="fill:none;stroke:red;stroke-width:1px;stroke-linecap:butt;stroke-linejoin:miter;stroke-opacity:1" d="M 623.752,847.497 633.653,865.317 z" id="boundary" inkscape:connector-curvature="0" />
	<path style="fill:none;stroke:red;stroke-width:1px;stroke-linecap:butt;stroke-linejoin:miter;stroke-opacity:1" d="M 625.733,986.1 643.553,996 z" id="boundary" inkscape:connector-curvature="0" />
	<path style="fill:none;stroke:red;stroke-width:1px;stroke-linecap:butt;stroke-linejoin:miter;stroke-opacity:1" d="M 683.154,441.589 698.994,455.449 z" id="boundary" inkscape:connector-curvature="0" />
	<path style="fill:none;stroke:red;stroke-width:1px;stroke-linecap:butt;stroke-linejoin:miter;stroke-opacity:1" d="M 633.653,865.317 639.593,885.118 z" id="boundary" inkscape:connector-curvature="0" />
	<path style="fill:none;stroke:red;stroke-width:1px;stroke-linecap:butt;stroke-linejoin:miter;stroke-opacity:1" d="M 643.553,283.186 629.693,267.345 z" id="boundary" inkscape:connector-curvature="0" />
	<path style="fill:none;stroke:red;stroke-width:1px;stroke-linecap:butt;stroke-linejoin:miter;stroke-opacity:1" d="M 698.994,455.449 712.854,471.289 z" id="boundary" inkscape:connector-curvature="0" />
	<path style="fill:none;stroke:red;stroke-width:1px;stroke-linecap:butt;stroke-linejoin:miter;stroke-opacity:1" d="M 667.313,940.559 659.393,920.758 z" id="boundary" inkscape:connector-curvature="0" />
	<path style="fill:none;stroke:red;stroke-width:1px;stroke-linecap:butt;stroke-linejoin:miter;stroke-opacity:1" d="M 728.695,485.15 712.854,471.289 z" id="boundary" inkscape:connector-curvature="0" />
	<path style="fill:none;stroke:red;stroke-width:1px;stroke-linecap:butt;stroke-linejoin:miter;stroke-opacity:1" d="M 649.493,902.938 639.593,885.118 z" id="boundary" inkscape:connector-curvature="0" />
	<path style="fill:none;stroke:red;stroke-width:1px;stroke-linecap:butt;stroke-linejoin:miter;stroke-opacity:1" d="M 643.553,283.186 659.393,297.046 z" id="boundary" inkscape:connector-curvature="0" />
	<path style="fill:none;stroke:red;stroke-width:1px;stroke-linecap:butt;stroke-linejoin:miter;stroke-opacity:1" d="M 659.393,920.758 649.493,902.938 z" id="boundary" inkscape:connector-curvature="0" />
	<path style="fill:none;stroke:red;stroke-width:1px;stroke-linecap:butt;stroke-linejoin:miter;stroke-opacity:1" d="M 742.555,500.99 728.695,485.15 z" id="boundary" inkscape:connector-curvature="0" />
	<path style="fill:none;stroke:red;stroke-width:1px;stroke-linecap:butt;stroke-linejoin:miter;stroke-opacity:1" d="M 659.393,297.046 667.313,316.846 z" id="boundary" inkscape:connector-curvature="0" />
	<path style="fill:none;stroke:red;stroke-width:1px;stroke-linecap:butt;stroke-linejoin:miter;stroke-opacity:1" d="M 669.293,960.359 667.313,940.559 z" id="boundary" inkscape:connector-curvature="0" />
	<path style="fill:none;stroke:red;stroke-width:1px;stroke-linecap:butt;stroke-linejoin:miter;stroke-opacity:1" d="M 667.313,316.846 677.214,334.667 z" id="boundary" inkscape:connector-curvature="0" />
	<path style="fill:none;stroke:red;stroke-width:1px;stroke-linecap:butt;stroke-linejoin:miter;stroke-opacity:1" d="M 742.555,500.99 756.415,516.83 z" id="boundary" inkscape:connector-curvature="0" />
	<path style="fill:none;stroke:red;stroke-width:1px;stroke-linecap:butt;stroke-linejoin:miter;stroke-opacity:1" d="M 788.096,475.25 796.016,495.05 z" id="boundary" inkscape:connector-curvature="0" />
	<path style="fill:none;stroke:red;stroke-width:1px;stroke-linecap:butt;stroke-linejoin:miter;stroke-opacity:1" d="M 788.096,475.25 768.295,469.309 z" id="boundary" inkscape:connector-curvature="0" />
	<path style="fill:none;stroke:red;stroke-width:1px;stroke-linecap:butt;stroke-linejoin:miter;stroke-opacity:1" d="M 807.896,550.491 825.717,560.391 z" id="boundary" inkscape:connector-curvature="0" />
	<path style="fill:none;stroke:red;stroke-width:1px;stroke-linecap:butt;stroke-linejoin:miter;stroke-opacity:1" d="M 807.896,550.491 788.096,544.551 z" id="boundary" inkscape:connector-curvature="0" />
	<path style="fill:none;stroke:red;stroke-width:1px;stroke-linecap:butt;stroke-linejoin:miter;stroke-opacity:1" d="M 677.214,334.667 689.094,350.507 z" id="boundary" inkscape:connector-curvature="0" />
	<path style="fill:none;stroke:red;stroke-width:1px;stroke-linecap:butt;stroke-linejoin:miter;stroke-opacity:1" d="M 772.255,530.691 756.415,516.83 z" id="boundary" inkscape:connector-curvature="0" />
	<path style="fill:none;stroke:red;stroke-width:1px;stroke-linecap:butt;stroke-linejoin:miter;stroke-opacity:1" d="M 748.495,433.669 738.595,415.848 z" id="boundary" inkscape:connector-curvature="0" />
	<path style="fill:none;stroke:red;stroke-width:1px;stroke-linecap:butt;stroke-linejoin:miter;stroke-opacity:1" d="M 643.553,996 663.353,994.02 z" id="boundary" inkscape:connector-curvature="0" />
	<path style="fill:none;stroke:red;stroke-width:1px;stroke-linecap:butt;stroke-linejoin:miter;stroke-opacity:1" d="M 663.353,994.02 669.293,960.359 z" id="boundary" inkscape:connector-curvature="0" />
	<path style="fill:none;stroke:red;stroke-width:1px;stroke-linecap:butt;stroke-linejoin:miter;stroke-opacity:1" d="M 788.096,544.551 772.255,530.691 z" id="boundary" inkscape:connector-curvature="0" />
	<path style="fill:none;stroke:red;stroke-width:1px;stroke-linecap:butt;stroke-linejoin:miter;stroke-opacity:1" d="M 689.094,350.507 698.994,368.327 z" id="boundary" inkscape:connector-curvature="0" />
	<path style="fill:none;stroke:red;stroke-width:1px;stroke-linecap:butt;stroke-linejoin:miter;stroke-opacity:1" d="M 714.834,382.188 722.754,401.988 z" id="boundary" inkscape:connector-curvature="0" />
	<path style="fill:none;stroke:red;stroke-width:1px;stroke-linecap:butt;stroke-linejoin:miter;stroke-opacity:1" d="M 714.834,382.188 698.994,368.327 z" id="boundary" inkscape:connector-curvature="0" />
	<path style="fill:none;stroke:red;stroke-width:1px;stroke-linecap:butt;stroke-linejoin:miter;stroke-opacity:1" d="M 738.595,415.848 722.754,401.988 z" id="boundary" inkscape:connector-curvature="0" />
	<path style="fill:none;stroke:red;stroke-width:1px;stroke-linecap:butt;stroke-linejoin:miter;stroke-opacity:1" d="M 760.375,449.509 748.495,433.669 z" id="boundary" inkscape:connector-curvature="0" />
	<path style="fill:none;stroke:red;stroke-width:1px;stroke-linecap:butt;stroke-linejoin:miter;stroke-opacity:1" d="M 768.295,469.309 760.375,449.509 z" id="boundary" inkscape:connector-curvature="0" />
	<path style="fill:none;stroke:red;stroke-width:1px;stroke-linecap:butt;stroke-linejoin:miter;stroke-opacity:1" d="M 817.796,528.711 805.916,512.87 z" id="boundary" inkscape:connector-curvature="0" />
	<path style="fill:none;stroke:red;stroke-width:1px;stroke-linecap:butt;stroke-linejoin:miter;stroke-opacity:1" d="M 805.916,512.87 796.016,495.05 z" id="boundary" inkscape:connector-curvature="0" />
	<path style="fill:none;stroke:red;stroke-width:1px;stroke-linecap:butt;stroke-linejoin:miter;stroke-opacity:1" d="M 817.796,528.711 837.597,534.651 z" id="boundary" inkscape:connector-curvature="0" />
	<path style="fill:none;stroke:red;stroke-width:1px;stroke-linecap:butt;stroke-linejoin:miter;stroke-opacity:1" d="M 825.717,560.391 837.597,534.651 z" id="boundary" inkscape:connector-curvature="0" />
	<circle cx="4" cy="455.449" r="4" fill="#0" id="circle0"/>
	<circle cx="13.9002" cy="435.649" r="4" fill="#0" id="circle1"/>
	<circle cx="19.8403" cy="469.309" r="4" fill="#0" id="circle2"/>
	<circle cx="23.8004" cy="415.848" r="4" fill="#0" id="circle3"/>
	<circle cx="35.6806" cy="481.19" r="4" fill="#0" id="circle4"/>
	<circle cx="39.6407" cy="400.008" r="4" fill="#0" id="circle5"/>
	<circle cx="49.5409" cy="380.208" r="4" fill="#0" id="circle6"/>
	<circle cx="51.521" cy="467.329" r="4" fill="#0" id="circle7"/>
	<circle cx="65.3812" cy="364.367" r="4" fill="#0" id="circle8"/>
	<circle cx="65.3812" cy="451.489" r="4" fill="#0" id="circle9"/>
	<circle cx="75.2814" cy="344.567" r="4" fill="#0" id="circle10"/>
	<circle cx="81.2216" cy="437.629" r="4" fill="#0" id="circle11"/>
	<circle cx="91.1218" cy="330.707" r="4" fill="#0" id="circle12"/>
	<circle cx="93.1018" cy="950.459" r="4" fill="#0" id="circle13"/>
	<circle cx="99.0419" cy="310.906" r="4" fill="#0" id="circle14"/>
	<circle cx="101.022" cy="427.729" r="4" fill="#0" id="circle15"/>
	<circle cx="103.002" cy="920.758" r="4" fill="#0" id="circle16"/>
	<circle cx="103.002" cy="968.279" r="4" fill="#0" id="circle17"/>
	<circle cx="112.902" cy="900.958" r="4" fill="#0" id="circle18"/>
	<circle cx="112.902" cy="986.1" r="4" fill="#0" id="circle19"/>
	<circle cx="114.882" cy="295.066" r="4" fill="#0" id="circle20"/>
	<circle cx="114.882" cy="411.888" r="4" fill="#0" id="circle21"/>
	<circle cx="122.802" cy="881.158" r="4" fill="#0" id="circle22"/>
	<circle cx="124.782" cy="275.265" r="4" fill="#0" id="circle23"/>
	<circle cx="130.723" cy="398.028" r="4" fill="#0" id="circle24"/>
	<circle cx="132.703" cy="980.16" r="4" fill="#0" id="circle25"/>
	<circle cx="134.683" cy="255.465" r="4" fill="#0" id="circle26"/>
	<circle cx="138.643" cy="865.317" r="4" fill="#0" id="circle27"/>
	<circle cx="144.583" cy="382.188" r="4" fill="#0" id="circle28"/>
	<circle cx="148.543" cy="845.517" r="4" fill="#0" id="circle29"/>
	<circle cx="150.523" cy="241.605" r="4" fill="#0" id="circle30"/>
	<circle cx="152.503" cy="970.259" r="4" fill="#0" id="circle31"/>
	<circle cx="158.443" cy="825.717" r="4" fill="#0" id="circle32"/>
	<circle cx="160.423" cy="368.327" r="4" fill="#0" id="circle33"/>
	<circle cx="168.343" cy="231.705" r="4" fill="#0" id="circle34"/>
	<circle cx="168.343" cy="805.916" r="4" fill="#0" id="circle35"/>
	<circle cx="168.343" cy="954.419" r="4" fill="#0" id="circle36"/>
	<circle cx="170.323" cy="348.527" r="4" fill="#0" id="circle37"/>
	<circle cx="182.204" cy="782.156" r="4" fill="#0" id="circle38"/>
	<circle cx="184.184" cy="215.864" r="4" fill="#0" id="circle39"/>
	<circle cx="184.184" cy="936.599" r="4" fill="#0" id="circle40"/>
	<circle cx="190.124" cy="338.627" r="4" fill="#0" id="circle41"/>
	<circle cx="198.044" cy="766.315" r="4" fill="#0" id="circle42"/>
	<circle cx="200.024" cy="202.004" r="4" fill="#0" id="circle43"/>
	<circle cx="200.024" cy="922.739" r="4" fill="#0" id="circle44"/>
	<circle cx="203.984" cy="322.786" r="4" fill="#0" id="circle45"/>
	<circle cx="207.944" cy="746.515" r="4" fill="#0" id="circle46"/>
	<circle cx="213.884" cy="896.998" r="4" fill="#0" id="circle47"/>
	<circle cx="219.824" cy="202.004" r="4" fill="#0" id="circle48"/>
	<circle cx="221.804" cy="722.754" r="4" fill="#0" id="circle49"/>
	<circle cx="223.784" cy="322.786" r="4" fill="#0" id="circle50"/>
	<circle cx="229.725" cy="883.138" r="4" fill="#0" id="circle51"/>
	<circle cx="237.645" cy="192.104" r="4" fill="#0" id="circle52"/>
	<circle cx="237.645" cy="706.914" r="4" fill="#0" id="circle53"/>
	<circle cx="241.605" cy="332.687" r="4" fill="#0" id="circle54"/>
	<circle cx="243.585" cy="867.297" r="4" fill="#0" id="circle55"/>
	<circle cx="247.545" cy="352.487" r="4" fill="#0" id="circle56"/>
	<circle cx="247.545" cy="687.114" r="4" fill="#0" id="circle57"/>
	<circle cx="251.505" cy="372.287" r="4" fill="#0" id="circle58"/>
	<circle cx="257.445" cy="192.104" r="4" fill="#0" id="circle59"/>
	<circle cx="257.445" cy="667.313" r="4" fill="#0" id="circle60"/>
	<circle cx="259.425" cy="853.437" r="4" fill="#0" id="circle61"/>
	<circle cx="261.405" cy="390.108" r="4" fill="#0" id="circle62"/>
	<circle cx="265.365" cy="409.908" r="4" fill="#0" id="circle63"/>
	<circle cx="269.325" cy="833.637" r="4" fill="#0" id="circle64"/>
	<circle cx="271.305" cy="429.709" r="4" fill="#0" id="circle65"/>
	<circle cx="271.305" cy="643.553" r="4" fill="#0" id="circle66"/>
	<circle cx="277.246" cy="192.104" r="4" fill="#0" id="circle67"/>
	<circle cx="281.206" cy="447.529" r="4" fill="#0" id="circle68"/>
	<circle cx="281.206" cy="467.329" r="4" fill="#0" id="circle69"/>
	<circle cx="281.206" cy="613.852" r="4" fill="#0" id="circle70"/>
	<circle cx="283.186" cy="817.796" r="4" fill="#0" id="circle71"/>
	<circle cx="291.106" cy="485.15" r="4" fill="#0" id="circle72"/>
	<circle cx="291.106" cy="504.95" r="4" fill="#0" id="circle73"/>
	<circle cx="291.106" cy="594.052" r="4" fill="#0" id="circle74"/>
	<circle cx="297.046" cy="182.204" r="4" fill="#0" id="circle75"/>
	<circle cx="299.026" cy="803.936" r="4" fill="#0" id="circle76"/>
	<circle cx="301.006" cy="89.1417" r="4" fill="#0" id="circle77"/>
	<circle cx="301.006" cy="108.942" r="4" fill="#0" id="circle78"/>
	<circle cx="301.006" cy="128.743" r="4" fill="#0" id="circle79"/>
	<circle cx="301.006" cy="522.77" r="4" fill="#0" id="circle80"/>
	<circle cx="301.006" cy="542.571" r="4" fill="#0" id="circle81"/>
	<circle cx="301.006" cy="562.371" r="4" fill="#0" id="circle82"/>
	<circle cx="310.906" cy="69.3413" r="4" fill="#0" id="circle83"/>
	<circle cx="310.906" cy="146.563" r="4" fill="#0" id="circle84"/>
	<circle cx="310.906" cy="166.363" r="4" fill="#0" id="circle85"/>
	<circle cx="312.886" cy="778.196" r="4" fill="#0" id="circle86"/>
	<circle cx="326.747" cy="53.501" r="4" fill="#0" id="circle87"/>
	<circle cx="328.727" cy="764.335" r="4" fill="#0" id="circle88"/>
	<circle cx="342.587" cy="37.6607" r="4" fill="#0" id="circle89"/>
	<circle cx="342.587" cy="748.495" r="4" fill="#0" id="circle90"/>
	<circle cx="352.487" cy="728.695" r="4" fill="#0" id="circle91"/>
	<circle cx="358.427" cy="23.8004" r="4" fill="#0" id="circle92"/>
	<circle cx="368.327" cy="714.834" r="4" fill="#0" id="circle93"/>
	<circle cx="376.248" cy="13.9002" r="4" fill="#0" id="circle94"/>
	<circle cx="382.188" cy="698.994" r="4" fill="#0" id="circle95"/>
	<circle cx="396.048" cy="4" r="4" fill="#0" id="circle96"/>
	<circle cx="401.988" cy="698.994" r="4" fill="#0" id="circle97"/>
	<circle cx="409.908" cy="19.8403" r="4" fill="#0" id="circle98"/>
	<circle cx="419.808" cy="708.894" r="4" fill="#0" id="circle99"/>
	<circle cx="425.749" cy="728.695" r="4" fill="#0" id="circle100"/>
	<circle cx="429.709" cy="27.7605" r="4" fill="#0" id="circle101"/>
	<circle cx="439.609" cy="744.535" r="4" fill="#0" id="circle102"/>
	<circle cx="441.589" cy="43.6008" r="4" fill="#0" id="circle103"/>
	<circle cx="449.509" cy="762.355" r="4" fill="#0" id="circle104"/>
	<circle cx="451.489" cy="61.4212" r="4" fill="#0" id="circle105"/>
	<circle cx="461.389" cy="79.2415" r="4" fill="#0" id="circle106"/>
	<circle cx="461.389" cy="144.583" r="4" fill="#0" id="circle107"/>
	<circle cx="461.389" cy="164.383" r="4" fill="#0" id="circle108"/>
	<circle cx="465.349" cy="776.216" r="4" fill="#0" id="circle109"/>
	<circle cx="471.289" cy="97.0619" r="4" fill="#0" id="circle110"/>
	<circle cx="471.289" cy="116.862" r="4" fill="#0" id="circle111"/>
	<circle cx="471.289" cy="182.204" r="4" fill="#0" id="circle112"/>
	<circle cx="471.289" cy="202.004" r="4" fill="#0" id="circle113"/>
	<circle cx="479.21" cy="792.056" r="4" fill="#0" id="circle114"/>
	<circle cx="481.19" cy="520.79" r="4" fill="#0" id="circle115"/>
	<circle cx="481.19" cy="540.591" r="4" fill="#0" id="circle116"/>
	<circle cx="481.19" cy="560.391" r="4" fill="#0" id="circle117"/>
	<circle cx="485.15" cy="580.192" r="4" fill="#0" id="circle118"/>
	<circle cx="489.11" cy="809.876" r="4" fill="#0" id="circle119"/>
	<circle cx="491.09" cy="202.004" r="4" fill="#0" id="circle120"/>
	<circle cx="491.09" cy="481.19" r="4" fill="#0" id="circle121"/>
	<circle cx="491.09" cy="500.99" r="4" fill="#0" id="circle122"/>
	<circle cx="491.09" cy="599.992" r="4" fill="#0" id="circle123"/>
	<circle cx="499.01" cy="827.697" r="4" fill="#0" id="circle124"/>
	<circle cx="500.99" cy="431.689" r="4" fill="#0" id="circle125"/>
	<circle cx="500.99" cy="451.489" r="4" fill="#0" id="circle126"/>
	<circle cx="500.99" cy="617.812" r="4" fill="#0" id="circle127"/>
	<circle cx="500.99" cy="637.613" r="4" fill="#0" id="circle128"/>
	<circle cx="508.91" cy="845.517" r="4" fill="#0" id="circle129"/>
	<circle cx="510.89" cy="202.004" r="4" fill="#0" id="circle130"/>
	<circle cx="510.89" cy="382.188" r="4" fill="#0" id="circle131"/>
	<circle cx="510.89" cy="401.988" r="4" fill="#0" id="circle132"/>
	<circle cx="510.89" cy="655.433" r="4" fill="#0" id="circle133"/>
	<circle cx="520.79" cy="312.886" r="4" fill="#0" id="circle134"/>
	<circle cx="520.79" cy="332.687" r="4" fill="#0" id="circle135"/>
	<circle cx="520.79" cy="352.487" r="4" fill="#0" id="circle136"/>
	<circle cx="520.79" cy="673.253" r="4" fill="#0" id="circle137"/>
	<circle cx="520.79" cy="861.357" r="4" fill="#0" id="circle138"/>
	<circle cx="528.711" cy="881.158" r="4" fill="#0" id="circle139"/>
	<circle cx="530.691" cy="202.004" r="4" fill="#0" id="circle140"/>
	<circle cx="534.651" cy="689.094" r="4" fill="#0" id="circle141"/>
	<circle cx="540.591" cy="302.986" r="4" fill="#0" id="circle142"/>
	<circle cx="540.591" cy="708.894" r="4" fill="#0" id="circle143"/>
	<circle cx="544.551" cy="895.018" r="4" fill="#0" id="circle144"/>
	<circle cx="550.491" cy="202.004" r="4" fill="#0" id="circle145"/>
	<circle cx="550.491" cy="726.715" r="4" fill="#0" id="circle146"/>
	<circle cx="558.411" cy="910.858" r="4" fill="#0" id="circle147"/>
	<circle cx="560.391" cy="306.946" r="4" fill="#0" id="circle148"/>
	<circle cx="560.391" cy="744.535" r="4" fill="#0" id="circle149"/>
	<circle cx="568.311" cy="211.904" r="4" fill="#0" id="circle150"/>
	<circle cx="570.291" cy="762.355" r="4" fill="#0" id="circle151"/>
	<circle cx="570.291" cy="926.699" r="4" fill="#0" id="circle152"/>
	<circle cx="578.212" cy="316.846" r="4" fill="#0" id="circle153"/>
	<circle cx="580.192" cy="780.176" r="4" fill="#0" id="circle154"/>
	<circle cx="582.172" cy="942.539" r="4" fill="#0" id="circle155"/>
	<circle cx="584.152" cy="223.784" r="4" fill="#0" id="circle156"/>
	<circle cx="592.072" cy="796.016" r="4" fill="#0" id="circle157"/>
	<circle cx="594.052" cy="330.707" r="4" fill="#0" id="circle158"/>
	<circle cx="598.012" cy="956.399" r="4" fill="#0" id="circle159"/>
	<circle cx="599.992" cy="237.645" r="4" fill="#0" id="circle160"/>
	<circle cx="599.992" cy="815.816" r="4" fill="#0" id="circle161"/>
	<circle cx="607.912" cy="346.547" r="4" fill="#0" id="circle162"/>
	<circle cx="609.892" cy="972.24" r="4" fill="#0" id="circle163"/>
	<circle cx="613.852" cy="253.485" r="4" fill="#0" id="circle164"/>
	<circle cx="615.832" cy="827.697" r="4" fill="#0" id="circle165"/>
	<circle cx="617.812" cy="364.367" r="4" fill="#0" id="circle166"/>
	<circle cx="623.752" cy="847.497" r="4" fill="#0" id="circle167"/>
	<circle cx="625.733" cy="986.1" r="4" fill="#0" id="circle168"/>
	<circle cx="629.693" cy="267.345" r="4" fill="#0" id="circle169"/>
	<circle cx="631.673" cy="380.208" r="4" fill="#0" id="circle170"/>
	<circle cx="633.653" cy="865.317" r="4" fill="#0" id="circle171"/>
	<circle cx="639.593" cy="885.118" r="4" fill="#0" id="circle172"/>
	<circle cx="643.553" cy="283.186" r="4" fill="#0" id="circle173"/>
	<circle cx="643.553" cy="996" r="4" fill="#0" id="circle174"/>
	<circle cx="647.513" cy="392.088" r="4" fill="#0" id="circle175"/>
	<circle cx="649.493" cy="902.938" r="4" fill="#0" id="circle176"/>
	<circle cx="659.393" cy="297.046" r="4" fill="#0" id="circle177"/>
	<circle cx="659.393" cy="407.928" r="4" fill="#0" id="circle178"/>
	<circle cx="659.393" cy="920.758" r="4" fill="#0" id="circle179"/>
	<circle cx="663.353" cy="994.02" r="4" fill="#0" id="circle180"/>
	<circle cx="667.313" cy="316.846" r="4" fill="#0" id="circle181"/>
	<circle cx="667.313" cy="940.559" r="4" fill="#0" id="circle182"/>
	<circle cx="669.293" cy="960.359" r="4" fill="#0" id="circle183"/>
	<circle cx="675.234" cy="421.788" r="4" fill="#0" id="circle184"/>
	<circle cx="677.214" cy="334.667" r="4" fill="#0" id="circle185"/>
	<circle cx="683.154" cy="441.589" r="4" fill="#0" id="circle186"/>
	<circle cx="689.094" cy="350.507" r="4" fill="#0" id="circle187"/>
	<circle cx="698.994" cy="368.327" r="4" fill="#0" id="circle188"/>
	<circle cx="698.994" cy="455.449" r="4" fill="#0" id="circle189"/>
	<circle cx="712.854" cy="471.289" r="4" fill="#0" id="circle190"/>
	<circle cx="714.834" cy="382.188" r="4" fill="#0" id="circle191"/>
	<circle cx="722.754" cy="401.988" r="4" fill="#0" id="circle192"/>
	<circle cx="728.695" cy="485.15" r="4" fill="#0" id="circle193"/>
	<circle cx="738.595" cy="415.848" r="4" fill="#0" id="circle194"/>
	<circle cx="742.555" cy="500.99" r="4" fill="#0" id="circle195"/>
	<circle cx="748.495" cy="433.669" r="4" fill="#0" id="circle196"/>
	<circle cx="756.415" cy="516.83" r="4" fill="#0" id="circle197"/>
	<circle cx="760.375" cy="449.509" r="4" fill="#0" id="circle198"/>
	<circle cx="768.295" cy="469.309" r="4" fill="#0" id="circle199"/>
	<circle cx="772.255" cy="530.691" r="4" fill="#0" id="circle200"/>
	<circle cx="788.096" cy="475.25" r="4" fill="#0" id="circle201"/>
	<circle cx="788.096" cy="544.551" r="4" fill="#0" id="circle202"/>
	<circle cx="796.016" cy="495.05" r="4" fill="#0" id="circle203"/>
	<circle cx="805.916" cy="512.87" r="4" fill="#0" id="circle204"/>
	<circle cx="807.896" cy="550.491" r="4" fill="#0" id="circle205"/>
	<circle cx="817.796" cy="528.711" r="4" fill="#0" id="circle206"/>
	<circle cx="825.717" cy="560.391" r="4" fill="#0" id="circle207"/>
	<circle cx="837.597" cy="534.651" r="4" fill="#0" id="circle208"/>
	</g>
</svg>