<?xml version="1.0" encoding="UTF-8" standalone="no"?>
<!-- Created with CurveBenchmark -->
<svg
	xmlns:dc="http://purl.org/dc/elements/1.1/"
	xmlns:cc="http://creativecommons.org/ns#"
	xmlns:rdf="http://www.w3.org/1999/02/22-rdf-syntax-ns#"
	xmlns:svg="http://www.w3.org/2000/svg"
	xmlns="http://www.w3.org/2000/svg"
	xmlns:sodipodi="http://sodipodi.sourceforge.net/DTD/sodipodi-0.dtd"
	xmlns:inkscape="http://www.inkscape.org/namespaces/inkscape"
	width="1000"
	height="1000"
	id="svg2"
	version="1.1"
	sodipodi:docname="manifold/peel-kitchenknifebinary37.png.txt">
<defs
	id="defs4" />
<metadata
	id="metadata7">
	<rdf:RDF>
		<cc:Work
			rdf:about="">
			<dc:format>image/svg+xml</dc:format>
			<dc:type
				rdf:resource="http://purl.org/dc/dcmitype/StillImage" />
			<dc:title></dc:title>
		</cc:Work>
	</rdf:RDF>
</metadata>
<g
	inkscape:label="Layer 1"
	inkscape:groupmode="layer"
	id="layer1">
	<path style="fill:none;stroke:red;stroke-width:1px;stroke-linecap:butt;stroke-linejoin:miter;stroke-opacity:1" d="M 18.0479,92.61 7.24183,88.2876 z" id="boundary" inkscape:connector-curvature="0" />
	<path style="fill:none;stroke:red;stroke-width:1px;stroke-linecap:butt;stroke-linejoin:miter;stroke-opacity:1" d="M 7.24183,88.2876 4,77.4815 z" id="boundary" inkscape:connector-curvature="0" />
	<path style="fill:none;stroke:red;stroke-width:1px;stroke-linecap:butt;stroke-linejoin:miter;stroke-opacity:1" d="M 4,77.4815 14.8061,73.159 z" id="boundary" inkscape:connector-curvature="0" />
	<path style="fill:none;stroke:red;stroke-width:1px;stroke-linecap:butt;stroke-linejoin:miter;stroke-opacity:1" d="M 27.7734,98.0131 18.0479,92.61 z" id="boundary" inkscape:connector-curvature="0" />
	<path style="fill:none;stroke:red;stroke-width:1px;stroke-linecap:butt;stroke-linejoin:miter;stroke-opacity:1" d="M 25.6122,69.9172 14.8061,73.159 z" id="boundary" inkscape:connector-curvature="0" />
	<path style="fill:none;stroke:red;stroke-width:1px;stroke-linecap:butt;stroke-linejoin:miter;stroke-opacity:1" d="M 36.4183,67.756 25.6122,69.9172 z" id="boundary" inkscape:connector-curvature="0" />
	<path style="fill:none;stroke:red;stroke-width:1px;stroke-linecap:butt;stroke-linejoin:miter;stroke-opacity:1" d="M 38.5795,102.336 27.7734,98.0131 z" id="boundary" inkscape:connector-curvature="0" />
	<path style="fill:none;stroke:red;stroke-width:1px;stroke-linecap:butt;stroke-linejoin:miter;stroke-opacity:1" d="M 47.2244,65.5948 36.4183,67.756 z" id="boundary" inkscape:connector-curvature="0" />
	<path style="fill:none;stroke:red;stroke-width:1px;stroke-linecap:butt;stroke-linejoin:miter;stroke-opacity:1" d="M 49.3856,106.658 38.5795,102.336 z" id="boundary" inkscape:connector-curvature="0" />
	<path style="fill:none;stroke:red;stroke-width:1px;stroke-linecap:butt;stroke-linejoin:miter;stroke-opacity:1" d="M 58.0305,63.4336 47.2244,65.5948 z" id="boundary" inkscape:connector-curvature="0" />
	<path style="fill:none;stroke:red;stroke-width:1px;stroke-linecap:butt;stroke-linejoin:miter;stroke-opacity:1" d="M 60.1917,109.9 49.3856,106.658 z" id="boundary" inkscape:connector-curvature="0" />
	<path style="fill:none;stroke:red;stroke-width:1px;stroke-linecap:butt;stroke-linejoin:miter;stroke-opacity:1" d="M 68.8366,61.2723 58.0305,63.4336 z" id="boundary" inkscape:connector-curvature="0" />
	<path style="fill:none;stroke:red;stroke-width:1px;stroke-linecap:butt;stroke-linejoin:miter;stroke-opacity:1" d="M 70.9978,114.222 60.1917,109.9 z" id="boundary" inkscape:connector-curvature="0" />
	<path style="fill:none;stroke:red;stroke-width:1px;stroke-linecap:butt;stroke-linejoin:miter;stroke-opacity:1" d="M 79.6427,58.0305 68.8366,61.2723 z" id="boundary" inkscape:connector-curvature="0" />
	<path style="fill:none;stroke:red;stroke-width:1px;stroke-linecap:butt;stroke-linejoin:miter;stroke-opacity:1" d="M 81.8039,117.464 70.9978,114.222 z" id="boundary" inkscape:connector-curvature="0" />
	<path style="fill:none;stroke:red;stroke-width:1px;stroke-linecap:butt;stroke-linejoin:miter;stroke-opacity:1" d="M 90.4488,55.8693 79.6427,58.0305 z" id="boundary" inkscape:connector-curvature="0" />
	<path style="fill:none;stroke:red;stroke-width:1px;stroke-linecap:butt;stroke-linejoin:miter;stroke-opacity:1" d="M 92.61,120.706 81.8039,117.464 z" id="boundary" inkscape:connector-curvature="0" />
	<path style="fill:none;stroke:red;stroke-width:1px;stroke-linecap:butt;stroke-linejoin:miter;stroke-opacity:1" d="M 101.255,54.7887 90.4488,55.8693 z" id="boundary" inkscape:connector-curvature="0" />
	<path style="fill:none;stroke:red;stroke-width:1px;stroke-linecap:butt;stroke-linejoin:miter;stroke-opacity:1" d="M 103.416,125.028 92.61,120.706 z" id="boundary" inkscape:connector-curvature="0" />
	<path style="fill:none;stroke:red;stroke-width:1px;stroke-linecap:butt;stroke-linejoin:miter;stroke-opacity:1" d="M 112.061,52.6275 101.255,54.7887 z" id="boundary" inkscape:connector-curvature="0" />
	<path style="fill:none;stroke:red;stroke-width:1px;stroke-linecap:butt;stroke-linejoin:miter;stroke-opacity:1" d="M 114.222,128.27 103.416,125.028 z" id="boundary" inkscape:connector-curvature="0" />
	<path style="fill:none;stroke:red;stroke-width:1px;stroke-linecap:butt;stroke-linejoin:miter;stroke-opacity:1" d="M 122.867,50.4662 112.061,52.6275 z" id="boundary" inkscape:connector-curvature="0" />
	<path style="fill:none;stroke:red;stroke-width:1px;stroke-linecap:butt;stroke-linejoin:miter;stroke-opacity:1" d="M 125.028,131.512 114.222,128.27 z" id="boundary" inkscape:connector-curvature="0" />
	<path style="fill:none;stroke:red;stroke-width:1px;stroke-linecap:butt;stroke-linejoin:miter;stroke-opacity:1" d="M 133.673,48.305 122.867,50.4662 z" id="boundary" inkscape:connector-curvature="0" />
	<path style="fill:none;stroke:red;stroke-width:1px;stroke-linecap:butt;stroke-linejoin:miter;stroke-opacity:1" d="M 135.834,134.754 125.028,131.512 z" id="boundary" inkscape:connector-curvature="0" />
	<path style="fill:none;stroke:red;stroke-width:1px;stroke-linecap:butt;stroke-linejoin:miter;stroke-opacity:1" d="M 144.479,46.1438 133.673,48.305 z" id="boundary" inkscape:connector-curvature="0" />
	<path style="fill:none;stroke:red;stroke-width:1px;stroke-linecap:butt;stroke-linejoin:miter;stroke-opacity:1" d="M 155.285,45.0632 144.479,46.1438 z" id="boundary" inkscape:connector-curvature="0" />
	<path style="fill:none;stroke:red;stroke-width:1px;stroke-linecap:butt;stroke-linejoin:miter;stroke-opacity:1" d="M 135.834,134.754 146.641,137.996 z" id="boundary" inkscape:connector-curvature="0" />
	<path style="fill:none;stroke:red;stroke-width:1px;stroke-linecap:butt;stroke-linejoin:miter;stroke-opacity:1" d="M 157.447,141.237 146.641,137.996 z" id="boundary" inkscape:connector-curvature="0" />
	<path style="fill:none;stroke:red;stroke-width:1px;stroke-linecap:butt;stroke-linejoin:miter;stroke-opacity:1" d="M 166.092,42.902 155.285,45.0632 z" id="boundary" inkscape:connector-curvature="0" />
	<path style="fill:none;stroke:red;stroke-width:1px;stroke-linecap:butt;stroke-linejoin:miter;stroke-opacity:1" d="M 168.253,143.399 157.447,141.237 z" id="boundary" inkscape:connector-curvature="0" />
	<path style="fill:none;stroke:red;stroke-width:1px;stroke-linecap:butt;stroke-linejoin:miter;stroke-opacity:1" d="M 176.898,41.8214 166.092,42.902 z" id="boundary" inkscape:connector-curvature="0" />
	<path style="fill:none;stroke:red;stroke-width:1px;stroke-linecap:butt;stroke-linejoin:miter;stroke-opacity:1" d="M 179.059,146.641 168.253,143.399 z" id="boundary" inkscape:connector-curvature="0" />
	<path style="fill:none;stroke:red;stroke-width:1px;stroke-linecap:butt;stroke-linejoin:miter;stroke-opacity:1" d="M 187.704,39.6601 176.898,41.8214 z" id="boundary" inkscape:connector-curvature="0" />
	<path style="fill:none;stroke:red;stroke-width:1px;stroke-linecap:butt;stroke-linejoin:miter;stroke-opacity:1" d="M 189.865,148.802 179.059,146.641 z" id="boundary" inkscape:connector-curvature="0" />
	<path style="fill:none;stroke:red;stroke-width:1px;stroke-linecap:butt;stroke-linejoin:miter;stroke-opacity:1" d="M 198.51,38.5795 187.704,39.6601 z" id="boundary" inkscape:connector-curvature="0" />
	<path style="fill:none;stroke:red;stroke-width:1px;stroke-linecap:butt;stroke-linejoin:miter;stroke-opacity:1" d="M 200.671,149.882 189.865,148.802 z" id="boundary" inkscape:connector-curvature="0" />
	<path style="fill:none;stroke:red;stroke-width:1px;stroke-linecap:butt;stroke-linejoin:miter;stroke-opacity:1" d="M 209.316,36.4183 198.51,38.5795 z" id="boundary" inkscape:connector-curvature="0" />
	<path style="fill:none;stroke:red;stroke-width:1px;stroke-linecap:butt;stroke-linejoin:miter;stroke-opacity:1" d="M 211.477,152.044 200.671,149.882 z" id="boundary" inkscape:connector-curvature="0" />
	<path style="fill:none;stroke:red;stroke-width:1px;stroke-linecap:butt;stroke-linejoin:miter;stroke-opacity:1" d="M 220.122,35.3377 209.316,36.4183 z" id="boundary" inkscape:connector-curvature="0" />
	<path style="fill:none;stroke:red;stroke-width:1px;stroke-linecap:butt;stroke-linejoin:miter;stroke-opacity:1" d="M 222.283,154.205 211.477,152.044 z" id="boundary" inkscape:connector-curvature="0" />
	<path style="fill:none;stroke:red;stroke-width:1px;stroke-linecap:butt;stroke-linejoin:miter;stroke-opacity:1" d="M 230.928,34.2571 220.122,35.3377 z" id="boundary" inkscape:connector-curvature="0" />
	<path style="fill:none;stroke:red;stroke-width:1px;stroke-linecap:butt;stroke-linejoin:miter;stroke-opacity:1" d="M 233.089,155.285 222.283,154.205 z" id="boundary" inkscape:connector-curvature="0" />
	<path style="fill:none;stroke:red;stroke-width:1px;stroke-linecap:butt;stroke-linejoin:miter;stroke-opacity:1" d="M 241.734,33.1765 230.928,34.2571 z" id="boundary" inkscape:connector-curvature="0" />
	<path style="fill:none;stroke:red;stroke-width:1px;stroke-linecap:butt;stroke-linejoin:miter;stroke-opacity:1" d="M 243.895,157.447 233.089,155.285 z" id="boundary" inkscape:connector-curvature="0" />
	<path style="fill:none;stroke:red;stroke-width:1px;stroke-linecap:butt;stroke-linejoin:miter;stroke-opacity:1" d="M 252.54,31.0153 241.734,33.1765 z" id="boundary" inkscape:connector-curvature="0" />
	<path style="fill:none;stroke:red;stroke-width:1px;stroke-linecap:butt;stroke-linejoin:miter;stroke-opacity:1" d="M 254.702,158.527 243.895,157.447 z" id="boundary" inkscape:connector-curvature="0" />
	<path style="fill:none;stroke:red;stroke-width:1px;stroke-linecap:butt;stroke-linejoin:miter;stroke-opacity:1" d="M 263.346,29.9346 252.54,31.0153 z" id="boundary" inkscape:connector-curvature="0" />
	<path style="fill:none;stroke:red;stroke-width:1px;stroke-linecap:butt;stroke-linejoin:miter;stroke-opacity:1" d="M 265.508,160.688 254.702,158.527 z" id="boundary" inkscape:connector-curvature="0" />
	<path style="fill:none;stroke:red;stroke-width:1px;stroke-linecap:butt;stroke-linejoin:miter;stroke-opacity:1" d="M 274.153,28.854 263.346,29.9346 z" id="boundary" inkscape:connector-curvature="0" />
	<path style="fill:none;stroke:red;stroke-width:1px;stroke-linecap:butt;stroke-linejoin:miter;stroke-opacity:1" d="M 276.314,161.769 265.508,160.688 z" id="boundary" inkscape:connector-curvature="0" />
	<path style="fill:none;stroke:red;stroke-width:1px;stroke-linecap:butt;stroke-linejoin:miter;stroke-opacity:1" d="M 284.959,27.7734 274.153,28.854 z" id="boundary" inkscape:connector-curvature="0" />
	<path style="fill:none;stroke:red;stroke-width:1px;stroke-linecap:butt;stroke-linejoin:miter;stroke-opacity:1" d="M 287.12,162.85 276.314,161.769 z" id="boundary" inkscape:connector-curvature="0" />
	<path style="fill:none;stroke:red;stroke-width:1px;stroke-linecap:butt;stroke-linejoin:miter;stroke-opacity:1" d="M 295.765,26.6928 284.959,27.7734 z" id="boundary" inkscape:connector-curvature="0" />
	<path style="fill:none;stroke:red;stroke-width:1px;stroke-linecap:butt;stroke-linejoin:miter;stroke-opacity:1" d="M 297.926,163.93 287.12,162.85 z" id="boundary" inkscape:connector-curvature="0" />
	<path style="fill:none;stroke:red;stroke-width:1px;stroke-linecap:butt;stroke-linejoin:miter;stroke-opacity:1" d="M 306.571,26.6928 295.765,26.6928 z" id="boundary" inkscape:connector-curvature="0" />
	<path style="fill:none;stroke:red;stroke-width:1px;stroke-linecap:butt;stroke-linejoin:miter;stroke-opacity:1" d="M 308.732,163.93 297.926,163.93 z" id="boundary" inkscape:connector-curvature="0" />
	<path style="fill:none;stroke:red;stroke-width:1px;stroke-linecap:butt;stroke-linejoin:miter;stroke-opacity:1" d="M 317.377,25.6122 306.571,26.6928 z" id="boundary" inkscape:connector-curvature="0" />
	<path style="fill:none;stroke:red;stroke-width:1px;stroke-linecap:butt;stroke-linejoin:miter;stroke-opacity:1" d="M 319.538,165.011 308.732,163.93 z" id="boundary" inkscape:connector-curvature="0" />
	<path style="fill:none;stroke:red;stroke-width:1px;stroke-linecap:butt;stroke-linejoin:miter;stroke-opacity:1" d="M 328.183,24.5316 317.377,25.6122 z" id="boundary" inkscape:connector-curvature="0" />
	<path style="fill:none;stroke:red;stroke-width:1px;stroke-linecap:butt;stroke-linejoin:miter;stroke-opacity:1" d="M 330.344,166.092 319.538,165.011 z" id="boundary" inkscape:connector-curvature="0" />
	<path style="fill:none;stroke:red;stroke-width:1px;stroke-linecap:butt;stroke-linejoin:miter;stroke-opacity:1" d="M 338.989,23.451 328.183,24.5316 z" id="boundary" inkscape:connector-curvature="0" />
	<path style="fill:none;stroke:red;stroke-width:1px;stroke-linecap:butt;stroke-linejoin:miter;stroke-opacity:1" d="M 341.15,167.172 330.344,166.092 z" id="boundary" inkscape:connector-curvature="0" />
	<path style="fill:none;stroke:red;stroke-width:1px;stroke-linecap:butt;stroke-linejoin:miter;stroke-opacity:1" d="M 349.795,23.451 338.989,23.451 z" id="boundary" inkscape:connector-curvature="0" />
	<path style="fill:none;stroke:red;stroke-width:1px;stroke-linecap:butt;stroke-linejoin:miter;stroke-opacity:1" d="M 351.956,168.253 341.15,167.172 z" id="boundary" inkscape:connector-curvature="0" />
	<path style="fill:none;stroke:red;stroke-width:1px;stroke-linecap:butt;stroke-linejoin:miter;stroke-opacity:1" d="M 360.601,22.3704 349.795,23.451 z" id="boundary" inkscape:connector-curvature="0" />
	<path style="fill:none;stroke:red;stroke-width:1px;stroke-linecap:butt;stroke-linejoin:miter;stroke-opacity:1" d="M 362.763,168.253 351.956,168.253 z" id="boundary" inkscape:connector-curvature="0" />
	<path style="fill:none;stroke:red;stroke-width:1px;stroke-linecap:butt;stroke-linejoin:miter;stroke-opacity:1" d="M 371.407,21.2898 360.601,22.3704 z" id="boundary" inkscape:connector-curvature="0" />
	<path style="fill:none;stroke:red;stroke-width:1px;stroke-linecap:butt;stroke-linejoin:miter;stroke-opacity:1" d="M 373.569,169.333 362.763,168.253 z" id="boundary" inkscape:connector-curvature="0" />
	<path style="fill:none;stroke:red;stroke-width:1px;stroke-linecap:butt;stroke-linejoin:miter;stroke-opacity:1" d="M 382.214,21.2898 371.407,21.2898 z" id="boundary" inkscape:connector-curvature="0" />
	<path style="fill:none;stroke:red;stroke-width:1px;stroke-linecap:butt;stroke-linejoin:miter;stroke-opacity:1" d="M 393.02,20.2092 382.214,21.2898 z" id="boundary" inkscape:connector-curvature="0" />
	<path style="fill:none;stroke:red;stroke-width:1px;stroke-linecap:butt;stroke-linejoin:miter;stroke-opacity:1" d="M 384.375,169.333 373.569,169.333 z" id="boundary" inkscape:connector-curvature="0" />
	<path style="fill:none;stroke:red;stroke-width:1px;stroke-linecap:butt;stroke-linejoin:miter;stroke-opacity:1" d="M 403.826,20.2092 393.02,20.2092 z" id="boundary" inkscape:connector-curvature="0" />
	<path style="fill:none;stroke:red;stroke-width:1px;stroke-linecap:butt;stroke-linejoin:miter;stroke-opacity:1" d="M 395.181,169.333 384.375,169.333 z" id="boundary" inkscape:connector-curvature="0" />
	<path style="fill:none;stroke:red;stroke-width:1px;stroke-linecap:butt;stroke-linejoin:miter;stroke-opacity:1" d="M 414.632,19.1285 403.826,20.2092 z" id="boundary" inkscape:connector-curvature="0" />
	<path style="fill:none;stroke:red;stroke-width:1px;stroke-linecap:butt;stroke-linejoin:miter;stroke-opacity:1" d="M 752.863,99.0937 763.669,99.0937 z" id="boundary" inkscape:connector-curvature="0" />
	<path style="fill:none;stroke:red;stroke-width:1px;stroke-linecap:butt;stroke-linejoin:miter;stroke-opacity:1" d="M 414.632,160.688 405.987,167.172 z" id="boundary" inkscape:connector-curvature="0" />
	<path style="fill:none;stroke:red;stroke-width:1px;stroke-linecap:butt;stroke-linejoin:miter;stroke-opacity:1" d="M 405.987,167.172 395.181,169.333 z" id="boundary" inkscape:connector-curvature="0" />
	<path style="fill:none;stroke:red;stroke-width:1px;stroke-linecap:butt;stroke-linejoin:miter;stroke-opacity:1" d="M 423.277,152.044 414.632,160.688 z" id="boundary" inkscape:connector-curvature="0" />
	<path style="fill:none;stroke:red;stroke-width:1px;stroke-linecap:butt;stroke-linejoin:miter;stroke-opacity:1" d="M 536.741,98.0131 525.935,99.0937 z" id="boundary" inkscape:connector-curvature="0" />
	<path style="fill:none;stroke:red;stroke-width:1px;stroke-linecap:butt;stroke-linejoin:miter;stroke-opacity:1" d="M 425.438,18.0479 414.632,19.1285 z" id="boundary" inkscape:connector-curvature="0" />
	<path style="fill:none;stroke:red;stroke-width:1px;stroke-linecap:butt;stroke-linejoin:miter;stroke-opacity:1" d="M 431.922,144.479 423.277,152.044 z" id="boundary" inkscape:connector-curvature="0" />
	<path style="fill:none;stroke:red;stroke-width:1px;stroke-linecap:butt;stroke-linejoin:miter;stroke-opacity:1" d="M 442.728,61.2723 444.889,72.0784 z" id="boundary" inkscape:connector-curvature="0" />
	<path style="fill:none;stroke:red;stroke-width:1px;stroke-linecap:butt;stroke-linejoin:miter;stroke-opacity:1" d="M 435.163,12.6449 425.438,18.0479 z" id="boundary" inkscape:connector-curvature="0" />
	<path style="fill:none;stroke:red;stroke-width:1px;stroke-linecap:butt;stroke-linejoin:miter;stroke-opacity:1" d="M 440.566,136.915 449.211,130.431 z" id="boundary" inkscape:connector-curvature="0" />
	<path style="fill:none;stroke:red;stroke-width:1px;stroke-linecap:butt;stroke-linejoin:miter;stroke-opacity:1" d="M 440.566,136.915 431.922,144.479 z" id="boundary" inkscape:connector-curvature="0" />
	<path style="fill:none;stroke:red;stroke-width:1px;stroke-linecap:butt;stroke-linejoin:miter;stroke-opacity:1" d="M 449.211,130.431 458.937,123.948 z" id="boundary" inkscape:connector-curvature="0" />
	<path style="fill:none;stroke:red;stroke-width:1px;stroke-linecap:butt;stroke-linejoin:miter;stroke-opacity:1" d="M 458.937,123.948 468.662,118.545 z" id="boundary" inkscape:connector-curvature="0" />
	<path style="fill:none;stroke:red;stroke-width:1px;stroke-linecap:butt;stroke-linejoin:miter;stroke-opacity:1" d="M 445.969,8.32244 435.163,12.6449 z" id="boundary" inkscape:connector-curvature="0" />
	<path style="fill:none;stroke:red;stroke-width:1px;stroke-linecap:butt;stroke-linejoin:miter;stroke-opacity:1" d="M 445.969,8.32244 456.776,7.24183 z" id="boundary" inkscape:connector-curvature="0" />
	<path style="fill:none;stroke:red;stroke-width:1px;stroke-linecap:butt;stroke-linejoin:miter;stroke-opacity:1" d="M 444.889,72.0784 455.695,69.9172 z" id="boundary" inkscape:connector-curvature="0" />
	<path style="fill:none;stroke:red;stroke-width:1px;stroke-linecap:butt;stroke-linejoin:miter;stroke-opacity:1" d="M 455.695,69.9172 464.34,77.4815 z" id="boundary" inkscape:connector-curvature="0" />
	<path style="fill:none;stroke:red;stroke-width:1px;stroke-linecap:butt;stroke-linejoin:miter;stroke-opacity:1" d="M 456.776,7.24183 467.582,7.24183 z" id="boundary" inkscape:connector-curvature="0" />
	<path style="fill:none;stroke:red;stroke-width:1px;stroke-linecap:butt;stroke-linejoin:miter;stroke-opacity:1" d="M 457.856,90.4488 450.292,81.8039 z" id="boundary" inkscape:connector-curvature="0" />
	<path style="fill:none;stroke:red;stroke-width:1px;stroke-linecap:butt;stroke-linejoin:miter;stroke-opacity:1" d="M 464.34,77.4815 472.985,83.9651 z" id="boundary" inkscape:connector-curvature="0" />
	<path style="fill:none;stroke:red;stroke-width:1px;stroke-linecap:butt;stroke-linejoin:miter;stroke-opacity:1" d="M 515.129,99.0937 525.935,99.0937 z" id="boundary" inkscape:connector-curvature="0" />
	<path style="fill:none;stroke:red;stroke-width:1px;stroke-linecap:butt;stroke-linejoin:miter;stroke-opacity:1" d="M 466.501,98.0131 457.856,90.4488 z" id="boundary" inkscape:connector-curvature="0" />
	<path style="fill:none;stroke:red;stroke-width:1px;stroke-linecap:butt;stroke-linejoin:miter;stroke-opacity:1" d="M 478.388,6.16122 489.194,6.16122 z" id="boundary" inkscape:connector-curvature="0" />
	<path style="fill:none;stroke:red;stroke-width:1px;stroke-linecap:butt;stroke-linejoin:miter;stroke-opacity:1" d="M 467.582,7.24183 478.388,6.16122 z" id="boundary" inkscape:connector-curvature="0" />
	<path style="fill:none;stroke:red;stroke-width:1px;stroke-linecap:butt;stroke-linejoin:miter;stroke-opacity:1" d="M 472.985,83.9651 482.71,89.3682 z" id="boundary" inkscape:connector-curvature="0" />
	<path style="fill:none;stroke:red;stroke-width:1px;stroke-linecap:butt;stroke-linejoin:miter;stroke-opacity:1" d="M 504.322,96.9325 515.129,99.0937 z" id="boundary" inkscape:connector-curvature="0" />
	<path style="fill:none;stroke:red;stroke-width:1px;stroke-linecap:butt;stroke-linejoin:miter;stroke-opacity:1" d="M 475.146,105.577 468.662,118.545 z" id="boundary" inkscape:connector-curvature="0" />
	<path style="fill:none;stroke:red;stroke-width:1px;stroke-linecap:butt;stroke-linejoin:miter;stroke-opacity:1" d="M 475.146,105.577 466.501,98.0131 z" id="boundary" inkscape:connector-curvature="0" />
	<path style="fill:none;stroke:red;stroke-width:1px;stroke-linecap:butt;stroke-linejoin:miter;stroke-opacity:1" d="M 493.516,93.6906 504.322,96.9325 z" id="boundary" inkscape:connector-curvature="0" />
	<path style="fill:none;stroke:red;stroke-width:1px;stroke-linecap:butt;stroke-linejoin:miter;stroke-opacity:1" d="M 489.194,6.16122 500,6.16122 z" id="boundary" inkscape:connector-curvature="0" />
	<path style="fill:none;stroke:red;stroke-width:1px;stroke-linecap:butt;stroke-linejoin:miter;stroke-opacity:1" d="M 493.516,93.6906 482.71,89.3682 z" id="boundary" inkscape:connector-curvature="0" />
	<path style="fill:none;stroke:red;stroke-width:1px;stroke-linecap:butt;stroke-linejoin:miter;stroke-opacity:1" d="M 510.806,5.08061 500,6.16122 z" id="boundary" inkscape:connector-curvature="0" />
	<path style="fill:none;stroke:red;stroke-width:1px;stroke-linecap:butt;stroke-linejoin:miter;stroke-opacity:1" d="M 521.612,5.08061 510.806,5.08061 z" id="boundary" inkscape:connector-curvature="0" />
	<path style="fill:none;stroke:red;stroke-width:1px;stroke-linecap:butt;stroke-linejoin:miter;stroke-opacity:1" d="M 536.741,98.0131 547.547,96.9325 z" id="boundary" inkscape:connector-curvature="0" />
	<path style="fill:none;stroke:red;stroke-width:1px;stroke-linecap:butt;stroke-linejoin:miter;stroke-opacity:1" d="M 532.418,4 521.612,5.08061 z" id="boundary" inkscape:connector-curvature="0" />
	<path style="fill:none;stroke:red;stroke-width:1px;stroke-linecap:butt;stroke-linejoin:miter;stroke-opacity:1" d="M 543.224,4 532.418,4 z" id="boundary" inkscape:connector-curvature="0" />
	<path style="fill:none;stroke:red;stroke-width:1px;stroke-linecap:butt;stroke-linejoin:miter;stroke-opacity:1" d="M 547.547,96.9325 558.353,94.7712 z" id="boundary" inkscape:connector-curvature="0" />
	<path style="fill:none;stroke:red;stroke-width:1px;stroke-linecap:butt;stroke-linejoin:miter;stroke-opacity:1" d="M 554.031,4 543.224,4 z" id="boundary" inkscape:connector-curvature="0" />
	<path style="fill:none;stroke:red;stroke-width:1px;stroke-linecap:butt;stroke-linejoin:miter;stroke-opacity:1" d="M 558.353,94.7712 569.159,92.61 z" id="boundary" inkscape:connector-curvature="0" />
	<path style="fill:none;stroke:red;stroke-width:1px;stroke-linecap:butt;stroke-linejoin:miter;stroke-opacity:1" d="M 569.159,92.61 579.965,91.5294 z" id="boundary" inkscape:connector-curvature="0" />
	<path style="fill:none;stroke:red;stroke-width:1px;stroke-linecap:butt;stroke-linejoin:miter;stroke-opacity:1" d="M 564.837,4 554.031,4 z" id="boundary" inkscape:connector-curvature="0" />
	<path style="fill:none;stroke:red;stroke-width:1px;stroke-linecap:butt;stroke-linejoin:miter;stroke-opacity:1" d="M 575.643,4 564.837,4 z" id="boundary" inkscape:connector-curvature="0" />
	<path style="fill:none;stroke:red;stroke-width:1px;stroke-linecap:butt;stroke-linejoin:miter;stroke-opacity:1" d="M 579.965,91.5294 590.771,90.4488 z" id="boundary" inkscape:connector-curvature="0" />
	<path style="fill:none;stroke:red;stroke-width:1px;stroke-linecap:butt;stroke-linejoin:miter;stroke-opacity:1" d="M 586.449,4 575.643,4 z" id="boundary" inkscape:connector-curvature="0" />
	<path style="fill:none;stroke:red;stroke-width:1px;stroke-linecap:butt;stroke-linejoin:miter;stroke-opacity:1" d="M 590.771,90.4488 601.577,89.3682 z" id="boundary" inkscape:connector-curvature="0" />
	<path style="fill:none;stroke:red;stroke-width:1px;stroke-linecap:butt;stroke-linejoin:miter;stroke-opacity:1" d="M 597.255,4 586.449,4 z" id="boundary" inkscape:connector-curvature="0" />
	<path style="fill:none;stroke:red;stroke-width:1px;stroke-linecap:butt;stroke-linejoin:miter;stroke-opacity:1" d="M 608.061,4 597.255,4 z" id="boundary" inkscape:connector-curvature="0" />
	<path style="fill:none;stroke:red;stroke-width:1px;stroke-linecap:butt;stroke-linejoin:miter;stroke-opacity:1" d="M 612.383,88.2876 623.19,88.2876 z" id="boundary" inkscape:connector-curvature="0" />
	<path style="fill:none;stroke:red;stroke-width:1px;stroke-linecap:butt;stroke-linejoin:miter;stroke-opacity:1" d="M 612.383,88.2876 601.577,89.3682 z" id="boundary" inkscape:connector-curvature="0" />
	<path style="fill:none;stroke:red;stroke-width:1px;stroke-linecap:butt;stroke-linejoin:miter;stroke-opacity:1" d="M 618.867,4 608.061,4 z" id="boundary" inkscape:connector-curvature="0" />
	<path style="fill:none;stroke:red;stroke-width:1px;stroke-linecap:butt;stroke-linejoin:miter;stroke-opacity:1" d="M 677.22,90.4488 666.414,89.3682 z" id="boundary" inkscape:connector-curvature="0" />
	<path style="fill:none;stroke:red;stroke-width:1px;stroke-linecap:butt;stroke-linejoin:miter;stroke-opacity:1" d="M 629.673,4 618.867,4 z" id="boundary" inkscape:connector-curvature="0" />
	<path style="fill:none;stroke:red;stroke-width:1px;stroke-linecap:butt;stroke-linejoin:miter;stroke-opacity:1" d="M 633.996,87.207 644.802,87.207 z" id="boundary" inkscape:connector-curvature="0" />
	<path style="fill:none;stroke:red;stroke-width:1px;stroke-linecap:butt;stroke-linejoin:miter;stroke-opacity:1" d="M 633.996,87.207 623.19,88.2876 z" id="boundary" inkscape:connector-curvature="0" />
	<path style="fill:none;stroke:red;stroke-width:1px;stroke-linecap:butt;stroke-linejoin:miter;stroke-opacity:1" d="M 640.479,4 629.673,4 z" id="boundary" inkscape:connector-curvature="0" />
	<path style="fill:none;stroke:red;stroke-width:1px;stroke-linecap:butt;stroke-linejoin:miter;stroke-opacity:1" d="M 644.802,87.207 655.608,88.2876 z" id="boundary" inkscape:connector-curvature="0" />
	<path style="fill:none;stroke:red;stroke-width:1px;stroke-linecap:butt;stroke-linejoin:miter;stroke-opacity:1" d="M 651.285,4 640.479,4 z" id="boundary" inkscape:connector-curvature="0" />
	<path style="fill:none;stroke:red;stroke-width:1px;stroke-linecap:butt;stroke-linejoin:miter;stroke-opacity:1" d="M 655.608,88.2876 666.414,89.3682 z" id="boundary" inkscape:connector-curvature="0" />
	<path style="fill:none;stroke:red;stroke-width:1px;stroke-linecap:butt;stroke-linejoin:miter;stroke-opacity:1" d="M 662.092,4 651.285,4 z" id="boundary" inkscape:connector-curvature="0" />
	<path style="fill:none;stroke:red;stroke-width:1px;stroke-linecap:butt;stroke-linejoin:miter;stroke-opacity:1" d="M 672.898,4 662.092,4 z" id="boundary" inkscape:connector-curvature="0" />
	<path style="fill:none;stroke:red;stroke-width:1px;stroke-linecap:butt;stroke-linejoin:miter;stroke-opacity:1" d="M 683.704,5.08061 672.898,4 z" id="boundary" inkscape:connector-curvature="0" />
	<path style="fill:none;stroke:red;stroke-width:1px;stroke-linecap:butt;stroke-linejoin:miter;stroke-opacity:1" d="M 688.026,91.5294 698.832,93.6906 z" id="boundary" inkscape:connector-curvature="0" />
	<path style="fill:none;stroke:red;stroke-width:1px;stroke-linecap:butt;stroke-linejoin:miter;stroke-opacity:1" d="M 688.026,91.5294 677.22,90.4488 z" id="boundary" inkscape:connector-curvature="0" />
	<path style="fill:none;stroke:red;stroke-width:1px;stroke-linecap:butt;stroke-linejoin:miter;stroke-opacity:1" d="M 694.51,6.16122 683.704,5.08061 z" id="boundary" inkscape:connector-curvature="0" />
	<path style="fill:none;stroke:red;stroke-width:1px;stroke-linecap:butt;stroke-linejoin:miter;stroke-opacity:1" d="M 705.316,7.24183 694.51,6.16122 z" id="boundary" inkscape:connector-curvature="0" />
	<path style="fill:none;stroke:red;stroke-width:1px;stroke-linecap:butt;stroke-linejoin:miter;stroke-opacity:1" d="M 709.638,94.7712 698.832,93.6906 z" id="boundary" inkscape:connector-curvature="0" />
	<path style="fill:none;stroke:red;stroke-width:1px;stroke-linecap:butt;stroke-linejoin:miter;stroke-opacity:1" d="M 716.122,7.24183 705.316,7.24183 z" id="boundary" inkscape:connector-curvature="0" />
	<path style="fill:none;stroke:red;stroke-width:1px;stroke-linecap:butt;stroke-linejoin:miter;stroke-opacity:1" d="M 720.444,95.8519 709.638,94.7712 z" id="boundary" inkscape:connector-curvature="0" />
	<path style="fill:none;stroke:red;stroke-width:1px;stroke-linecap:butt;stroke-linejoin:miter;stroke-opacity:1" d="M 726.928,8.32244 716.122,7.24183 z" id="boundary" inkscape:connector-curvature="0" />
	<path style="fill:none;stroke:red;stroke-width:1px;stroke-linecap:butt;stroke-linejoin:miter;stroke-opacity:1" d="M 731.251,96.9325 720.444,95.8519 z" id="boundary" inkscape:connector-curvature="0" />
	<path style="fill:none;stroke:red;stroke-width:1px;stroke-linecap:butt;stroke-linejoin:miter;stroke-opacity:1" d="M 737.734,9.40305 726.928,8.32244 z" id="boundary" inkscape:connector-curvature="0" />
	<path style="fill:none;stroke:red;stroke-width:1px;stroke-linecap:butt;stroke-linejoin:miter;stroke-opacity:1" d="M 742.057,98.0131 731.251,96.9325 z" id="boundary" inkscape:connector-curvature="0" />
	<path style="fill:none;stroke:red;stroke-width:1px;stroke-linecap:butt;stroke-linejoin:miter;stroke-opacity:1" d="M 748.54,9.40305 737.734,9.40305 z" id="boundary" inkscape:connector-curvature="0" />
	<path style="fill:none;stroke:red;stroke-width:1px;stroke-linecap:butt;stroke-linejoin:miter;stroke-opacity:1" d="M 752.863,99.0937 742.057,98.0131 z" id="boundary" inkscape:connector-curvature="0" />
	<path style="fill:none;stroke:red;stroke-width:1px;stroke-linecap:butt;stroke-linejoin:miter;stroke-opacity:1" d="M 759.346,10.4837 748.54,9.40305 z" id="boundary" inkscape:connector-curvature="0" />
	<path style="fill:none;stroke:red;stroke-width:1px;stroke-linecap:butt;stroke-linejoin:miter;stroke-opacity:1" d="M 763.669,99.0937 774.475,99.0937 z" id="boundary" inkscape:connector-curvature="0" />
	<path style="fill:none;stroke:red;stroke-width:1px;stroke-linecap:butt;stroke-linejoin:miter;stroke-opacity:1" d="M 774.475,99.0937 785.281,100.174 z" id="boundary" inkscape:connector-curvature="0" />
	<path style="fill:none;stroke:red;stroke-width:1px;stroke-linecap:butt;stroke-linejoin:miter;stroke-opacity:1" d="M 770.153,11.5643 759.346,10.4837 z" id="boundary" inkscape:connector-curvature="0" />
	<path style="fill:none;stroke:red;stroke-width:1px;stroke-linecap:butt;stroke-linejoin:miter;stroke-opacity:1" d="M 780.959,12.6449 770.153,11.5643 z" id="boundary" inkscape:connector-curvature="0" />
	<path style="fill:none;stroke:red;stroke-width:1px;stroke-linecap:butt;stroke-linejoin:miter;stroke-opacity:1" d="M 785.281,100.174 796.087,99.0937 z" id="boundary" inkscape:connector-curvature="0" />
	<path style="fill:none;stroke:red;stroke-width:1px;stroke-linecap:butt;stroke-linejoin:miter;stroke-opacity:1" d="M 796.087,99.0937 806.893,99.0937 z" id="boundary" inkscape:connector-curvature="0" />
	<path style="fill:none;stroke:red;stroke-width:1px;stroke-linecap:butt;stroke-linejoin:miter;stroke-opacity:1" d="M 791.765,12.6449 780.959,12.6449 z" id="boundary" inkscape:connector-curvature="0" />
	<path style="fill:none;stroke:red;stroke-width:1px;stroke-linecap:butt;stroke-linejoin:miter;stroke-opacity:1" d="M 802.571,13.7255 791.765,12.6449 z" id="boundary" inkscape:connector-curvature="0" />
	<path style="fill:none;stroke:red;stroke-width:1px;stroke-linecap:butt;stroke-linejoin:miter;stroke-opacity:1" d="M 806.893,99.0937 817.699,98.0131 z" id="boundary" inkscape:connector-curvature="0" />
	<path style="fill:none;stroke:red;stroke-width:1px;stroke-linecap:butt;stroke-linejoin:miter;stroke-opacity:1" d="M 813.377,14.8061 802.571,13.7255 z" id="boundary" inkscape:connector-curvature="0" />
	<path style="fill:none;stroke:red;stroke-width:1px;stroke-linecap:butt;stroke-linejoin:miter;stroke-opacity:1" d="M 824.183,15.8867 813.377,14.8061 z" id="boundary" inkscape:connector-curvature="0" />
	<path style="fill:none;stroke:red;stroke-width:1px;stroke-linecap:butt;stroke-linejoin:miter;stroke-opacity:1" d="M 839.312,94.7712 850.118,93.6906 z" id="boundary" inkscape:connector-curvature="0" />
	<path style="fill:none;stroke:red;stroke-width:1px;stroke-linecap:butt;stroke-linejoin:miter;stroke-opacity:1" d="M 828.505,95.8519 817.699,98.0131 z" id="boundary" inkscape:connector-curvature="0" />
	<path style="fill:none;stroke:red;stroke-width:1px;stroke-linecap:butt;stroke-linejoin:miter;stroke-opacity:1" d="M 834.989,15.8867 824.183,15.8867 z" id="boundary" inkscape:connector-curvature="0" />
	<path style="fill:none;stroke:red;stroke-width:1px;stroke-linecap:butt;stroke-linejoin:miter;stroke-opacity:1" d="M 839.312,94.7712 828.505,95.8519 z" id="boundary" inkscape:connector-curvature="0" />
	<path style="fill:none;stroke:red;stroke-width:1px;stroke-linecap:butt;stroke-linejoin:miter;stroke-opacity:1" d="M 845.795,16.9673 834.989,15.8867 z" id="boundary" inkscape:connector-curvature="0" />
	<path style="fill:none;stroke:red;stroke-width:1px;stroke-linecap:butt;stroke-linejoin:miter;stroke-opacity:1" d="M 856.601,19.1285 845.795,16.9673 z" id="boundary" inkscape:connector-curvature="0" />
	<path style="fill:none;stroke:red;stroke-width:1px;stroke-linecap:butt;stroke-linejoin:miter;stroke-opacity:1" d="M 860.924,91.5294 850.118,93.6906 z" id="boundary" inkscape:connector-curvature="0" />
	<path style="fill:none;stroke:red;stroke-width:1px;stroke-linecap:butt;stroke-linejoin:miter;stroke-opacity:1" d="M 867.407,20.2092 856.601,19.1285 z" id="boundary" inkscape:connector-curvature="0" />
	<path style="fill:none;stroke:red;stroke-width:1px;stroke-linecap:butt;stroke-linejoin:miter;stroke-opacity:1" d="M 871.73,89.3682 860.924,91.5294 z" id="boundary" inkscape:connector-curvature="0" />
	<path style="fill:none;stroke:red;stroke-width:1px;stroke-linecap:butt;stroke-linejoin:miter;stroke-opacity:1" d="M 878.214,20.2092 867.407,20.2092 z" id="boundary" inkscape:connector-curvature="0" />
	<path style="fill:none;stroke:red;stroke-width:1px;stroke-linecap:butt;stroke-linejoin:miter;stroke-opacity:1" d="M 882.536,87.207 871.73,89.3682 z" id="boundary" inkscape:connector-curvature="0" />
	<path style="fill:none;stroke:red;stroke-width:1px;stroke-linecap:butt;stroke-linejoin:miter;stroke-opacity:1" d="M 889.02,21.2898 878.214,20.2092 z" id="boundary" inkscape:connector-curvature="0" />
	<path style="fill:none;stroke:red;stroke-width:1px;stroke-linecap:butt;stroke-linejoin:miter;stroke-opacity:1" d="M 893.342,85.0458 882.536,87.207 z" id="boundary" inkscape:connector-curvature="0" />
	<path style="fill:none;stroke:red;stroke-width:1px;stroke-linecap:butt;stroke-linejoin:miter;stroke-opacity:1" d="M 899.826,23.451 889.02,21.2898 z" id="boundary" inkscape:connector-curvature="0" />
	<path style="fill:none;stroke:red;stroke-width:1px;stroke-linecap:butt;stroke-linejoin:miter;stroke-opacity:1" d="M 904.148,82.8845 893.342,85.0458 z" id="boundary" inkscape:connector-curvature="0" />
	<path style="fill:none;stroke:red;stroke-width:1px;stroke-linecap:butt;stroke-linejoin:miter;stroke-opacity:1" d="M 910.632,25.6122 899.826,23.451 z" id="boundary" inkscape:connector-curvature="0" />
	<path style="fill:none;stroke:red;stroke-width:1px;stroke-linecap:butt;stroke-linejoin:miter;stroke-opacity:1" d="M 914.954,79.6427 904.148,82.8845 z" id="boundary" inkscape:connector-curvature="0" />
	<path style="fill:none;stroke:red;stroke-width:1px;stroke-linecap:butt;stroke-linejoin:miter;stroke-opacity:1" d="M 921.438,26.6928 910.632,25.6122 z" id="boundary" inkscape:connector-curvature="0" />
	<path style="fill:none;stroke:red;stroke-width:1px;stroke-linecap:butt;stroke-linejoin:miter;stroke-opacity:1" d="M 925.76,77.4815 914.954,79.6427 z" id="boundary" inkscape:connector-curvature="0" />
	<path style="fill:none;stroke:red;stroke-width:1px;stroke-linecap:butt;stroke-linejoin:miter;stroke-opacity:1" d="M 932.244,27.7734 921.438,26.6928 z" id="boundary" inkscape:connector-curvature="0" />
	<path style="fill:none;stroke:red;stroke-width:1px;stroke-linecap:butt;stroke-linejoin:miter;stroke-opacity:1" d="M 936.566,75.3203 925.76,77.4815 z" id="boundary" inkscape:connector-curvature="0" />
	<path style="fill:none;stroke:red;stroke-width:1px;stroke-linecap:butt;stroke-linejoin:miter;stroke-opacity:1" d="M 943.05,29.9346 932.244,27.7734 z" id="boundary" inkscape:connector-curvature="0" />
	<path style="fill:none;stroke:red;stroke-width:1px;stroke-linecap:butt;stroke-linejoin:miter;stroke-opacity:1" d="M 947.373,72.0784 936.566,75.3203 z" id="boundary" inkscape:connector-curvature="0" />
	<path style="fill:none;stroke:red;stroke-width:1px;stroke-linecap:butt;stroke-linejoin:miter;stroke-opacity:1" d="M 953.856,32.0959 943.05,29.9346 z" id="boundary" inkscape:connector-curvature="0" />
	<path style="fill:none;stroke:red;stroke-width:1px;stroke-linecap:butt;stroke-linejoin:miter;stroke-opacity:1" d="M 958.179,69.9172 947.373,72.0784 z" id="boundary" inkscape:connector-curvature="0" />
	<path style="fill:none;stroke:red;stroke-width:1px;stroke-linecap:butt;stroke-linejoin:miter;stroke-opacity:1" d="M 964.662,33.1765 953.856,32.0959 z" id="boundary" inkscape:connector-curvature="0" />
	<path style="fill:none;stroke:red;stroke-width:1px;stroke-linecap:butt;stroke-linejoin:miter;stroke-opacity:1" d="M 968.985,66.6754 958.179,69.9172 z" id="boundary" inkscape:connector-curvature="0" />
	<path style="fill:none;stroke:red;stroke-width:1px;stroke-linecap:butt;stroke-linejoin:miter;stroke-opacity:1" d="M 975.468,35.3377 964.662,33.1765 z" id="boundary" inkscape:connector-curvature="0" />
	<path style="fill:none;stroke:red;stroke-width:1px;stroke-linecap:butt;stroke-linejoin:miter;stroke-opacity:1" d="M 979.791,63.4336 968.985,66.6754 z" id="boundary" inkscape:connector-curvature="0" />
	<path style="fill:none;stroke:red;stroke-width:1px;stroke-linecap:butt;stroke-linejoin:miter;stroke-opacity:1" d="M 986.275,38.5795 975.468,35.3377 z" id="boundary" inkscape:connector-curvature="0" />
	<path style="fill:none;stroke:red;stroke-width:1px;stroke-linecap:butt;stroke-linejoin:miter;stroke-opacity:1" d="M 990.597,61.2723 979.791,63.4336 z" id="boundary" inkscape:connector-curvature="0" />
	<path style="fill:none;stroke:red;stroke-width:1px;stroke-linecap:butt;stroke-linejoin:miter;stroke-opacity:1" d="M 996,43.9826 990.597,61.2723 z" id="boundary" inkscape:connector-curvature="0" />
	<path style="fill:none;stroke:red;stroke-width:1px;stroke-linecap:butt;stroke-linejoin:miter;stroke-opacity:1" d="M 996,43.9826 986.275,38.5795 z" id="boundary" inkscape:connector-curvature="0" />
	<circle cx="4" cy="77.4815" r="4" fill="#0" id="circle0"/>
	<circle cx="7.24183" cy="88.2876" r="4" fill="#0" id="circle1"/>
	<circle cx="14.8061" cy="73.159" r="4" fill="#0" id="circle2"/>
	<circle cx="18.0479" cy="92.61" r="4" fill="#0" id="circle3"/>
	<circle cx="25.6122" cy="69.9172" r="4" fill="#0" id="circle4"/>
	<circle cx="27.7734" cy="98.0131" r="4" fill="#0" id="circle5"/>
	<circle cx="36.4183" cy="67.756" r="4" fill="#0" id="circle6"/>
	<circle cx="38.5795" cy="102.336" r="4" fill="#0" id="circle7"/>
	<circle cx="47.2244" cy="65.5948" r="4" fill="#0" id="circle8"/>
	<circle cx="49.3856" cy="106.658" r="4" fill="#0" id="circle9"/>
	<circle cx="58.0305" cy="63.4336" r="4" fill="#0" id="circle10"/>
	<circle cx="60.1917" cy="109.9" r="4" fill="#0" id="circle11"/>
	<circle cx="68.8366" cy="61.2723" r="4" fill="#0" id="circle12"/>
	<circle cx="70.9978" cy="114.222" r="4" fill="#0" id="circle13"/>
	<circle cx="79.6427" cy="58.0305" r="4" fill="#0" id="circle14"/>
	<circle cx="81.8039" cy="117.464" r="4" fill="#0" id="circle15"/>
	<circle cx="90.4488" cy="55.8693" r="4" fill="#0" id="circle16"/>
	<circle cx="92.61" cy="120.706" r="4" fill="#0" id="circle17"/>
	<circle cx="101.255" cy="54.7887" r="4" fill="#0" id="circle18"/>
	<circle cx="103.416" cy="125.028" r="4" fill="#0" id="circle19"/>
	<circle cx="112.061" cy="52.6275" r="4" fill="#0" id="circle20"/>
	<circle cx="114.222" cy="128.27" r="4" fill="#0" id="circle21"/>
	<circle cx="122.867" cy="50.4662" r="4" fill="#0" id="circle22"/>
	<circle cx="125.028" cy="131.512" r="4" fill="#0" id="circle23"/>
	<circle cx="133.673" cy="48.305" r="4" fill="#0" id="circle24"/>
	<circle cx="135.834" cy="134.754" r="4" fill="#0" id="circle25"/>
	<circle cx="144.479" cy="46.1438" r="4" fill="#0" id="circle26"/>
	<circle cx="146.641" cy="137.996" r="4" fill="#0" id="circle27"/>
	<circle cx="155.285" cy="45.0632" r="4" fill="#0" id="circle28"/>
	<circle cx="157.447" cy="141.237" r="4" fill="#0" id="circle29"/>
	<circle cx="166.092" cy="42.902" r="4" fill="#0" id="circle30"/>
	<circle cx="168.253" cy="143.399" r="4" fill="#0" id="circle31"/>
	<circle cx="176.898" cy="41.8214" r="4" fill="#0" id="circle32"/>
	<circle cx="179.059" cy="146.641" r="4" fill="#0" id="circle33"/>
	<circle cx="187.704" cy="39.6601" r="4" fill="#0" id="circle34"/>
	<circle cx="189.865" cy="148.802" r="4" fill="#0" id="circle35"/>
	<circle cx="198.51" cy="38.5795" r="4" fill="#0" id="circle36"/>
	<circle cx="200.671" cy="149.882" r="4" fill="#0" id="circle37"/>
	<circle cx="209.316" cy="36.4183" r="4" fill="#0" id="circle38"/>
	<circle cx="211.477" cy="152.044" r="4" fill="#0" id="circle39"/>
	<circle cx="220.122" cy="35.3377" r="4" fill="#0" id="circle40"/>
	<circle cx="222.283" cy="154.205" r="4" fill="#0" id="circle41"/>
	<circle cx="230.928" cy="34.2571" r="4" fill="#0" id="circle42"/>
	<circle cx="233.089" cy="155.285" r="4" fill="#0" id="circle43"/>
	<circle cx="241.734" cy="33.1765" r="4" fill="#0" id="circle44"/>
	<circle cx="243.895" cy="157.447" r="4" fill="#0" id="circle45"/>
	<circle cx="252.54" cy="31.0153" r="4" fill="#0" id="circle46"/>
	<circle cx="254.702" cy="158.527" r="4" fill="#0" id="circle47"/>
	<circle cx="263.346" cy="29.9346" r="4" fill="#0" id="circle48"/>
	<circle cx="265.508" cy="160.688" r="4" fill="#0" id="circle49"/>
	<circle cx="274.153" cy="28.854" r="4" fill="#0" id="circle50"/>
	<circle cx="276.314" cy="161.769" r="4" fill="#0" id="circle51"/>
	<circle cx="284.959" cy="27.7734" r="4" fill="#0" id="circle52"/>
	<circle cx="287.12" cy="162.85" r="4" fill="#0" id="circle53"/>
	<circle cx="295.765" cy="26.6928" r="4" fill="#0" id="circle54"/>
	<circle cx="297.926" cy="163.93" r="4" fill="#0" id="circle55"/>
	<circle cx="306.571" cy="26.6928" r="4" fill="#0" id="circle56"/>
	<circle cx="308.732" cy="163.93" r="4" fill="#0" id="circle57"/>
	<circle cx="317.377" cy="25.6122" r="4" fill="#0" id="circle58"/>
	<circle cx="319.538" cy="165.011" r="4" fill="#0" id="circle59"/>
	<circle cx="328.183" cy="24.5316" r="4" fill="#0" id="circle60"/>
	<circle cx="330.344" cy="166.092" r="4" fill="#0" id="circle61"/>
	<circle cx="338.989" cy="23.451" r="4" fill="#0" id="circle62"/>
	<circle cx="341.15" cy="167.172" r="4" fill="#0" id="circle63"/>
	<circle cx="349.795" cy="23.451" r="4" fill="#0" id="circle64"/>
	<circle cx="351.956" cy="168.253" r="4" fill="#0" id="circle65"/>
	<circle cx="360.601" cy="22.3704" r="4" fill="#0" id="circle66"/>
	<circle cx="362.763" cy="168.253" r="4" fill="#0" id="circle67"/>
	<circle cx="371.407" cy="21.2898" r="4" fill="#0" id="circle68"/>
	<circle cx="373.569" cy="169.333" r="4" fill="#0" id="circle69"/>
	<circle cx="382.214" cy="21.2898" r="4" fill="#0" id="circle70"/>
	<circle cx="384.375" cy="169.333" r="4" fill="#0" id="circle71"/>
	<circle cx="393.02" cy="20.2092" r="4" fill="#0" id="circle72"/>
	<circle cx="395.181" cy="169.333" r="4" fill="#0" id="circle73"/>
	<circle cx="403.826" cy="20.2092" r="4" fill="#0" id="circle74"/>
	<circle cx="405.987" cy="167.172" r="4" fill="#0" id="circle75"/>
	<circle cx="414.632" cy="19.1285" r="4" fill="#0" id="circle76"/>
	<circle cx="414.632" cy="160.688" r="4" fill="#0" id="circle77"/>
	<circle cx="423.277" cy="152.044" r="4" fill="#0" id="circle78"/>
	<circle cx="425.438" cy="18.0479" r="4" fill="#0" id="circle79"/>
	<circle cx="431.922" cy="144.479" r="4" fill="#0" id="circle80"/>
	<circle cx="435.163" cy="12.6449" r="4" fill="#0" id="circle81"/>
	<circle cx="440.566" cy="136.915" r="4" fill="#0" id="circle82"/>
	<circle cx="442.728" cy="61.2723" r="4" fill="#0" id="circle83"/>
	<circle cx="444.889" cy="72.0784" r="4" fill="#0" id="circle84"/>
	<circle cx="445.969" cy="8.32244" r="4" fill="#0" id="circle85"/>
	<circle cx="449.211" cy="130.431" r="4" fill="#0" id="circle86"/>
	<circle cx="450.292" cy="81.8039" r="4" fill="#0" id="circle87"/>
	<circle cx="455.695" cy="69.9172" r="4" fill="#0" id="circle88"/>
	<circle cx="456.776" cy="7.24183" r="4" fill="#0" id="circle89"/>
	<circle cx="457.856" cy="90.4488" r="4" fill="#0" id="circle90"/>
	<circle cx="458.937" cy="123.948" r="4" fill="#0" id="circle91"/>
	<circle cx="464.34" cy="77.4815" r="4" fill="#0" id="circle92"/>
	<circle cx="466.501" cy="98.0131" r="4" fill="#0" id="circle93"/>
	<circle cx="467.582" cy="7.24183" r="4" fill="#0" id="circle94"/>
	<circle cx="468.662" cy="118.545" r="4" fill="#0" id="circle95"/>
	<circle cx="472.985" cy="83.9651" r="4" fill="#0" id="circle96"/>
	<circle cx="475.146" cy="105.577" r="4" fill="#0" id="circle97"/>
	<circle cx="478.388" cy="6.16122" r="4" fill="#0" id="circle98"/>
	<circle cx="482.71" cy="89.3682" r="4" fill="#0" id="circle99"/>
	<circle cx="489.194" cy="6.16122" r="4" fill="#0" id="circle100"/>
	<circle cx="493.516" cy="93.6906" r="4" fill="#0" id="circle101"/>
	<circle cx="500" cy="6.16122" r="4" fill="#0" id="circle102"/>
	<circle cx="504.322" cy="96.9325" r="4" fill="#0" id="circle103"/>
	<circle cx="510.806" cy="5.08061" r="4" fill="#0" id="circle104"/>
	<circle cx="515.129" cy="99.0937" r="4" fill="#0" id="circle105"/>
	<circle cx="521.612" cy="5.08061" r="4" fill="#0" id="circle106"/>
	<circle cx="525.935" cy="99.0937" r="4" fill="#0" id="circle107"/>
	<circle cx="532.418" cy="4" r="4" fill="#0" id="circle108"/>
	<circle cx="536.741" cy="98.0131" r="4" fill="#0" id="circle109"/>
	<circle cx="543.224" cy="4" r="4" fill="#0" id="circle110"/>
	<circle cx="547.547" cy="96.9325" r="4" fill="#0" id="circle111"/>
	<circle cx="554.031" cy="4" r="4" fill="#0" id="circle112"/>
	<circle cx="558.353" cy="94.7712" r="4" fill="#0" id="circle113"/>
	<circle cx="564.837" cy="4" r="4" fill="#0" id="circle114"/>
	<circle cx="569.159" cy="92.61" r="4" fill="#0" id="circle115"/>
	<circle cx="575.643" cy="4" r="4" fill="#0" id="circle116"/>
	<circle cx="579.965" cy="91.5294" r="4" fill="#0" id="circle117"/>
	<circle cx="586.449" cy="4" r="4" fill="#0" id="circle118"/>
	<circle cx="590.771" cy="90.4488" r="4" fill="#0" id="circle119"/>
	<circle cx="597.255" cy="4" r="4" fill="#0" id="circle120"/>
	<circle cx="601.577" cy="89.3682" r="4" fill="#0" id="circle121"/>
	<circle cx="608.061" cy="4" r="4" fill="#0" id="circle122"/>
	<circle cx="612.383" cy="88.2876" r="4" fill="#0" id="circle123"/>
	<circle cx="618.867" cy="4" r="4" fill="#0" id="circle124"/>
	<circle cx="623.19" cy="88.2876" r="4" fill="#0" id="circle125"/>
	<circle cx="629.673" cy="4" r="4" fill="#0" id="circle126"/>
	<circle cx="633.996" cy="87.207" r="4" fill="#0" id="circle127"/>
	<circle cx="640.479" cy="4" r="4" fill="#0" id="circle128"/>
	<circle cx="644.802" cy="87.207" r="4" fill="#0" id="circle129"/>
	<circle cx="651.285" cy="4" r="4" fill="#0" id="circle130"/>
	<circle cx="655.608" cy="88.2876" r="4" fill="#0" id="circle131"/>
	<circle cx="662.092" cy="4" r="4" fill="#0" id="circle132"/>
	<circle cx="666.414" cy="89.3682" r="4" fill="#0" id="circle133"/>
	<circle cx="672.898" cy="4" r="4" fill="#0" id="circle134"/>
	<circle cx="677.22" cy="90.4488" r="4" fill="#0" id="circle135"/>
	<circle cx="683.704" cy="5.08061" r="4" fill="#0" id="circle136"/>
	<circle cx="688.026" cy="91.5294" r="4" fill="#0" id="circle137"/>
	<circle cx="694.51" cy="6.16122" r="4" fill="#0" id="circle138"/>
	<circle cx="698.832" cy="93.6906" r="4" fill="#0" id="circle139"/>
	<circle cx="705.316" cy="7.24183" r="4" fill="#0" id="circle140"/>
	<circle cx="709.638" cy="94.7712" r="4" fill="#0" id="circle141"/>
	<circle cx="716.122" cy="7.24183" r="4" fill="#0" id="circle142"/>
	<circle cx="720.444" cy="95.8519" r="4" fill="#0" id="circle143"/>
	<circle cx="726.928" cy="8.32244" r="4" fill="#0" id="circle144"/>
	<circle cx="731.251" cy="96.9325" r="4" fill="#0" id="circle145"/>
	<circle cx="737.734" cy="9.40305" r="4" fill="#0" id="circle146"/>
	<circle cx="742.057" cy="98.0131" r="4" fill="#0" id="circle147"/>
	<circle cx="748.54" cy="9.40305" r="4" fill="#0" id="circle148"/>
	<circle cx="752.863" cy="99.0937" r="4" fill="#0" id="circle149"/>
	<circle cx="759.346" cy="10.4837" r="4" fill="#0" id="circle150"/>
	<circle cx="763.669" cy="99.0937" r="4" fill="#0" id="circle151"/>
	<circle cx="770.153" cy="11.5643" r="4" fill="#0" id="circle152"/>
	<circle cx="774.475" cy="99.0937" r="4" fill="#0" id="circle153"/>
	<circle cx="780.959" cy="12.6449" r="4" fill="#0" id="circle154"/>
	<circle cx="785.281" cy="100.174" r="4" fill="#0" id="circle155"/>
	<circle cx="791.765" cy="12.6449" r="4" fill="#0" id="circle156"/>
	<circle cx="796.087" cy="99.0937" r="4" fill="#0" id="circle157"/>
	<circle cx="802.571" cy="13.7255" r="4" fill="#0" id="circle158"/>
	<circle cx="806.893" cy="99.0937" r="4" fill="#0" id="circle159"/>
	<circle cx="813.377" cy="14.8061" r="4" fill="#0" id="circle160"/>
	<circle cx="817.699" cy="98.0131" r="4" fill="#0" id="circle161"/>
	<circle cx="824.183" cy="15.8867" r="4" fill="#0" id="circle162"/>
	<circle cx="828.505" cy="95.8519" r="4" fill="#0" id="circle163"/>
	<circle cx="834.989" cy="15.8867" r="4" fill="#0" id="circle164"/>
	<circle cx="839.312" cy="94.7712" r="4" fill="#0" id="circle165"/>
	<circle cx="845.795" cy="16.9673" r="4" fill="#0" id="circle166"/>
	<circle cx="850.118" cy="93.6906" r="4" fill="#0" id="circle167"/>
	<circle cx="856.601" cy="19.1285" r="4" fill="#0" id="circle168"/>
	<circle cx="860.924" cy="91.5294" r="4" fill="#0" id="circle169"/>
	<circle cx="867.407" cy="20.2092" r="4" fill="#0" id="circle170"/>
	<circle cx="871.73" cy="89.3682" r="4" fill="#0" id="circle171"/>
	<circle cx="878.214" cy="20.2092" r="4" fill="#0" id="circle172"/>
	<circle cx="882.536" cy="87.207" r="4" fill="#0" id="circle173"/>
	<circle cx="889.02" cy="21.2898" r="4" fill="#0" id="circle174"/>
	<circle cx="893.342" cy="85.0458" r="4" fill="#0" id="circle175"/>
	<circle cx="899.826" cy="23.451" r="4" fill="#0" id="circle176"/>
	<circle cx="904.148" cy="82.8845" r="4" fill="#0" id="circle177"/>
	<circle cx="910.632" cy="25.6122" r="4" fill="#0" id="circle178"/>
	<circle cx="914.954" cy="79.6427" r="4" fill="#0" id="circle179"/>
	<circle cx="921.438" cy="26.6928" r="4" fill="#0" id="circle180"/>
	<circle cx="925.76" cy="77.4815" r="4" fill="#0" id="circle181"/>
	<circle cx="932.244" cy="27.7734" r="4" fill="#0" id="circle182"/>
	<circle cx="936.566" cy="75.3203" r="4" fill="#0" id="circle183"/>
	<circle cx="943.05" cy="29.9346" r="4" fill="#0" id="circle184"/>
	<circle cx="947.373" cy="72.0784" r="4" fill="#0" id="circle185"/>
	<circle cx="953.856" cy="32.0959" r="4" fill="#0" id="circle186"/>
	<circle cx="958.179" cy="69.9172" r="4" fill="#0" id="circle187"/>
	<circle cx="964.662" cy="33.1765" r="4" fill="#0" id="circle188"/>
	<circle cx="968.985" cy="66.6754" r="4" fill="#0" id="circle189"/>
	<circle cx="975.468" cy="35.3377" r="4" fill="#0" id="circle190"/>
	<circle cx="979.791" cy="63.4336" r="4" fill="#0" id="circle191"/>
	<circle cx="986.275" cy="38.5795" r="4" fill="#0" id="circle192"/>
	<circle cx="990.597" cy="61.2723" r="4" fill="#0" id="circle193"/>
	<circle cx="996" cy="43.9826" r="4" fill="#0" id="circle194"/>
	</g>
</svg>