<?xml version="1.0" encoding="UTF-8" standalone="no"?>
<!-- Created with CurveBenchmark -->
<svg
	xmlns:dc="http://purl.org/dc/elements/1.1/"
	xmlns:cc="http://creativecommons.org/ns#"
	xmlns:rdf="http://www.w3.org/1999/02/22-rdf-syntax-ns#"
	xmlns:svg="http://www.w3.org/2000/svg"
	xmlns="http://www.w3.org/2000/svg"
	xmlns:sodipodi="http://sodipodi.sourceforge.net/DTD/sodipodi-0.dtd"
	xmlns:inkscape="http://www.inkscape.org/namespaces/inkscape"
	width="1000"
	height="1000"
	id="svg2"
	version="1.1"
	sodipodi:docname="manifold/peel-Bone13.png.txt">
<defs
	id="defs4" />
<metadata
	id="metadata7">
	<rdf:RDF>
		<cc:Work
			rdf:about="">
			<dc:format>image/svg+xml</dc:format>
			<dc:type
				rdf:resource="http://purl.org/dc/dcmitype/StillImage" />
			<dc:title></dc:title>
		</cc:Work>
	</rdf:RDF>
</metadata>
<g
	inkscape:label="Layer 1"
	inkscape:groupmode="layer"
	id="layer1">
	<path style="fill:none;stroke:red;stroke-width:1px;stroke-linecap:butt;stroke-linejoin:miter;stroke-opacity:1" d="M 12.8414,750.21 4,734.296 z" id="boundary" inkscape:connector-curvature="0" />
	<path style="fill:none;stroke:red;stroke-width:1px;stroke-linecap:butt;stroke-linejoin:miter;stroke-opacity:1" d="M 4,734.296 4,716.613 z" id="boundary" inkscape:connector-curvature="0" />
	<path style="fill:none;stroke:red;stroke-width:1px;stroke-linecap:butt;stroke-linejoin:miter;stroke-opacity:1" d="M 4,716.613 21.6827,707.772 z" id="boundary" inkscape:connector-curvature="0" />
	<path style="fill:none;stroke:red;stroke-width:1px;stroke-linecap:butt;stroke-linejoin:miter;stroke-opacity:1" d="M 21.6827,766.125 26.9875,783.807 z" id="boundary" inkscape:connector-curvature="0" />
	<path style="fill:none;stroke:red;stroke-width:1px;stroke-linecap:butt;stroke-linejoin:miter;stroke-opacity:1" d="M 21.6827,766.125 12.8414,750.21 z" id="boundary" inkscape:connector-curvature="0" />
	<path style="fill:none;stroke:red;stroke-width:1px;stroke-linecap:butt;stroke-linejoin:miter;stroke-opacity:1" d="M 21.6827,707.772 35.8289,693.626 z" id="boundary" inkscape:connector-curvature="0" />
	<path style="fill:none;stroke:red;stroke-width:1px;stroke-linecap:butt;stroke-linejoin:miter;stroke-opacity:1" d="M 42.902,792.649 26.9875,783.807 z" id="boundary" inkscape:connector-curvature="0" />
	<path style="fill:none;stroke:red;stroke-width:1px;stroke-linecap:butt;stroke-linejoin:miter;stroke-opacity:1" d="M 60.5847,792.649 42.902,792.649 z" id="boundary" inkscape:connector-curvature="0" />
	<path style="fill:none;stroke:red;stroke-width:1px;stroke-linecap:butt;stroke-linejoin:miter;stroke-opacity:1" d="M 35.8289,693.626 49.975,679.48 z" id="boundary" inkscape:connector-curvature="0" />
	<path style="fill:none;stroke:red;stroke-width:1px;stroke-linecap:butt;stroke-linejoin:miter;stroke-opacity:1" d="M 78.2674,792.649 60.5847,792.649 z" id="boundary" inkscape:connector-curvature="0" />
	<path style="fill:none;stroke:red;stroke-width:1px;stroke-linecap:butt;stroke-linejoin:miter;stroke-opacity:1" d="M 49.975,679.48 64.1212,667.102 z" id="boundary" inkscape:connector-curvature="0" />
	<path style="fill:none;stroke:red;stroke-width:1px;stroke-linecap:butt;stroke-linejoin:miter;stroke-opacity:1" d="M 64.1212,667.102 80.0357,658.26 z" id="boundary" inkscape:connector-curvature="0" />
	<path style="fill:none;stroke:red;stroke-width:1px;stroke-linecap:butt;stroke-linejoin:miter;stroke-opacity:1" d="M 80.0357,658.26 95.9501,667.102 z" id="boundary" inkscape:connector-curvature="0" />
	<path style="fill:none;stroke:red;stroke-width:1px;stroke-linecap:butt;stroke-linejoin:miter;stroke-opacity:1" d="M 444.299,550.396 456.677,536.25 z" id="boundary" inkscape:connector-curvature="0" />
	<path style="fill:none;stroke:red;stroke-width:1px;stroke-linecap:butt;stroke-linejoin:miter;stroke-opacity:1" d="M 444.299,550.396 435.458,568.078 z" id="boundary" inkscape:connector-curvature="0" />
	<path style="fill:none;stroke:red;stroke-width:1px;stroke-linecap:butt;stroke-linejoin:miter;stroke-opacity:1" d="M 101.255,831.551 92.4135,849.234 z" id="boundary" inkscape:connector-curvature="0" />
	<path style="fill:none;stroke:red;stroke-width:1px;stroke-linecap:butt;stroke-linejoin:miter;stroke-opacity:1" d="M 92.4135,849.234 110.096,854.538 z" id="boundary" inkscape:connector-curvature="0" />
	<path style="fill:none;stroke:red;stroke-width:1px;stroke-linecap:butt;stroke-linejoin:miter;stroke-opacity:1" d="M 78.2674,792.649 95.9501,792.649 z" id="boundary" inkscape:connector-curvature="0" />
	<path style="fill:none;stroke:red;stroke-width:1px;stroke-linecap:butt;stroke-linejoin:miter;stroke-opacity:1" d="M 242.717,863.38 260.399,858.075 z" id="boundary" inkscape:connector-curvature="0" />
	<path style="fill:none;stroke:red;stroke-width:1px;stroke-linecap:butt;stroke-linejoin:miter;stroke-opacity:1" d="M 242.717,863.38 226.802,872.221 z" id="boundary" inkscape:connector-curvature="0" />
	<path style="fill:none;stroke:red;stroke-width:1px;stroke-linecap:butt;stroke-linejoin:miter;stroke-opacity:1" d="M 110.096,854.538 126.011,863.38 z" id="boundary" inkscape:connector-curvature="0" />
	<path style="fill:none;stroke:red;stroke-width:1px;stroke-linecap:butt;stroke-linejoin:miter;stroke-opacity:1" d="M 129.547,675.943 113.633,667.102 z" id="boundary" inkscape:connector-curvature="0" />
	<path style="fill:none;stroke:red;stroke-width:1px;stroke-linecap:butt;stroke-linejoin:miter;stroke-opacity:1" d="M 113.633,667.102 95.9501,667.102 z" id="boundary" inkscape:connector-curvature="0" />
	<path style="fill:none;stroke:red;stroke-width:1px;stroke-linecap:butt;stroke-linejoin:miter;stroke-opacity:1" d="M 95.9501,792.649 110.096,803.258 z" id="boundary" inkscape:connector-curvature="0" />
	<path style="fill:none;stroke:red;stroke-width:1px;stroke-linecap:butt;stroke-linejoin:miter;stroke-opacity:1" d="M 110.096,803.258 101.255,831.551 z" id="boundary" inkscape:connector-curvature="0" />
	<path style="fill:none;stroke:red;stroke-width:1px;stroke-linecap:butt;stroke-linejoin:miter;stroke-opacity:1" d="M 145.462,684.784 129.547,675.943 z" id="boundary" inkscape:connector-curvature="0" />
	<path style="fill:none;stroke:red;stroke-width:1px;stroke-linecap:butt;stroke-linejoin:miter;stroke-opacity:1" d="M 143.693,863.38 126.011,863.38 z" id="boundary" inkscape:connector-curvature="0" />
	<path style="fill:none;stroke:red;stroke-width:1px;stroke-linecap:butt;stroke-linejoin:miter;stroke-opacity:1" d="M 161.376,863.38 177.291,872.221 z" id="boundary" inkscape:connector-curvature="0" />
	<path style="fill:none;stroke:red;stroke-width:1px;stroke-linecap:butt;stroke-linejoin:miter;stroke-opacity:1" d="M 161.376,863.38 143.693,863.38 z" id="boundary" inkscape:connector-curvature="0" />
	<path style="fill:none;stroke:red;stroke-width:1px;stroke-linecap:butt;stroke-linejoin:miter;stroke-opacity:1" d="M 145.462,684.784 163.144,688.321 z" id="boundary" inkscape:connector-curvature="0" />
	<path style="fill:none;stroke:red;stroke-width:1px;stroke-linecap:butt;stroke-linejoin:miter;stroke-opacity:1" d="M 177.291,872.221 193.205,881.062 z" id="boundary" inkscape:connector-curvature="0" />
	<path style="fill:none;stroke:red;stroke-width:1px;stroke-linecap:butt;stroke-linejoin:miter;stroke-opacity:1" d="M 163.144,688.321 180.827,693.626 z" id="boundary" inkscape:connector-curvature="0" />
	<path style="fill:none;stroke:red;stroke-width:1px;stroke-linecap:butt;stroke-linejoin:miter;stroke-opacity:1" d="M 180.827,693.626 198.51,693.626 z" id="boundary" inkscape:connector-curvature="0" />
	<path style="fill:none;stroke:red;stroke-width:1px;stroke-linecap:butt;stroke-linejoin:miter;stroke-opacity:1" d="M 279.85,766.125 279.85,748.442 z" id="boundary" inkscape:connector-curvature="0" />
	<path style="fill:none;stroke:red;stroke-width:1px;stroke-linecap:butt;stroke-linejoin:miter;stroke-opacity:1" d="M 209.119,872.221 226.802,872.221 z" id="boundary" inkscape:connector-curvature="0" />
	<path style="fill:none;stroke:red;stroke-width:1px;stroke-linecap:butt;stroke-linejoin:miter;stroke-opacity:1" d="M 209.119,872.221 193.205,881.062 z" id="boundary" inkscape:connector-curvature="0" />
	<path style="fill:none;stroke:red;stroke-width:1px;stroke-linecap:butt;stroke-linejoin:miter;stroke-opacity:1" d="M 223.266,667.102 209.119,679.48 z" id="boundary" inkscape:connector-curvature="0" />
	<path style="fill:none;stroke:red;stroke-width:1px;stroke-linecap:butt;stroke-linejoin:miter;stroke-opacity:1" d="M 198.51,693.626 209.119,679.48 z" id="boundary" inkscape:connector-curvature="0" />
	<path style="fill:none;stroke:red;stroke-width:1px;stroke-linecap:butt;stroke-linejoin:miter;stroke-opacity:1" d="M 244.485,635.273 230.339,649.419 z" id="boundary" inkscape:connector-curvature="0" />
	<path style="fill:none;stroke:red;stroke-width:1px;stroke-linecap:butt;stroke-linejoin:miter;stroke-opacity:1" d="M 223.266,667.102 230.339,649.419 z" id="boundary" inkscape:connector-curvature="0" />
	<path style="fill:none;stroke:red;stroke-width:1px;stroke-linecap:butt;stroke-linejoin:miter;stroke-opacity:1" d="M 341.74,660.029 355.886,647.651 z" id="boundary" inkscape:connector-curvature="0" />
	<path style="fill:none;stroke:red;stroke-width:1px;stroke-linecap:butt;stroke-linejoin:miter;stroke-opacity:1" d="M 244.485,635.273 258.631,622.895 z" id="boundary" inkscape:connector-curvature="0" />
	<path style="fill:none;stroke:red;stroke-width:1px;stroke-linecap:butt;stroke-linejoin:miter;stroke-opacity:1" d="M 279.85,730.759 279.85,748.442 z" id="boundary" inkscape:connector-curvature="0" />
	<path style="fill:none;stroke:red;stroke-width:1px;stroke-linecap:butt;stroke-linejoin:miter;stroke-opacity:1" d="M 258.631,622.895 271.009,608.749 z" id="boundary" inkscape:connector-curvature="0" />
	<path style="fill:none;stroke:red;stroke-width:1px;stroke-linecap:butt;stroke-linejoin:miter;stroke-opacity:1" d="M 260.399,858.075 278.082,849.234 z" id="boundary" inkscape:connector-curvature="0" />
	<path style="fill:none;stroke:red;stroke-width:1px;stroke-linecap:butt;stroke-linejoin:miter;stroke-opacity:1" d="M 279.85,766.125 283.387,783.807 z" id="boundary" inkscape:connector-curvature="0" />
	<path style="fill:none;stroke:red;stroke-width:1px;stroke-linecap:butt;stroke-linejoin:miter;stroke-opacity:1" d="M 279.85,730.759 293.996,718.381 z" id="boundary" inkscape:connector-curvature="0" />
	<path style="fill:none;stroke:red;stroke-width:1px;stroke-linecap:butt;stroke-linejoin:miter;stroke-opacity:1" d="M 292.228,799.722 283.387,783.807 z" id="boundary" inkscape:connector-curvature="0" />
	<path style="fill:none;stroke:red;stroke-width:1px;stroke-linecap:butt;stroke-linejoin:miter;stroke-opacity:1" d="M 285.155,596.371 271.009,608.749 z" id="boundary" inkscape:connector-curvature="0" />
	<path style="fill:none;stroke:red;stroke-width:1px;stroke-linecap:butt;stroke-linejoin:miter;stroke-opacity:1" d="M 285.155,596.371 297.533,582.225 z" id="boundary" inkscape:connector-curvature="0" />
	<path style="fill:none;stroke:red;stroke-width:1px;stroke-linecap:butt;stroke-linejoin:miter;stroke-opacity:1" d="M 292.228,835.087 278.082,849.234 z" id="boundary" inkscape:connector-curvature="0" />
	<path style="fill:none;stroke:red;stroke-width:1px;stroke-linecap:butt;stroke-linejoin:miter;stroke-opacity:1" d="M 382.41,621.127 368.264,633.504 z" id="boundary" inkscape:connector-curvature="0" />
	<path style="fill:none;stroke:red;stroke-width:1px;stroke-linecap:butt;stroke-linejoin:miter;stroke-opacity:1" d="M 368.264,633.504 355.886,647.651 z" id="boundary" inkscape:connector-curvature="0" />
	<path style="fill:none;stroke:red;stroke-width:1px;stroke-linecap:butt;stroke-linejoin:miter;stroke-opacity:1" d="M 293.996,718.381 306.374,704.235 z" id="boundary" inkscape:connector-curvature="0" />
	<path style="fill:none;stroke:red;stroke-width:1px;stroke-linecap:butt;stroke-linejoin:miter;stroke-opacity:1" d="M 292.228,799.722 297.533,817.405 z" id="boundary" inkscape:connector-curvature="0" />
	<path style="fill:none;stroke:red;stroke-width:1px;stroke-linecap:butt;stroke-linejoin:miter;stroke-opacity:1" d="M 297.533,817.405 292.228,835.087 z" id="boundary" inkscape:connector-curvature="0" />
	<path style="fill:none;stroke:red;stroke-width:1px;stroke-linecap:butt;stroke-linejoin:miter;stroke-opacity:1" d="M 306.374,704.235 320.52,691.857 z" id="boundary" inkscape:connector-curvature="0" />
	<path style="fill:none;stroke:red;stroke-width:1px;stroke-linecap:butt;stroke-linejoin:miter;stroke-opacity:1" d="M 320.52,691.857 329.362,674.175 z" id="boundary" inkscape:connector-curvature="0" />
	<path style="fill:none;stroke:red;stroke-width:1px;stroke-linecap:butt;stroke-linejoin:miter;stroke-opacity:1" d="M 329.362,674.175 341.74,660.029 z" id="boundary" inkscape:connector-curvature="0" />
	<path style="fill:none;stroke:red;stroke-width:1px;stroke-linecap:butt;stroke-linejoin:miter;stroke-opacity:1" d="M 297.533,582.225 311.679,569.847 z" id="boundary" inkscape:connector-curvature="0" />
	<path style="fill:none;stroke:red;stroke-width:1px;stroke-linecap:butt;stroke-linejoin:miter;stroke-opacity:1" d="M 311.679,569.847 324.057,555.701 z" id="boundary" inkscape:connector-curvature="0" />
	<path style="fill:none;stroke:red;stroke-width:1px;stroke-linecap:butt;stroke-linejoin:miter;stroke-opacity:1" d="M 324.057,555.701 338.203,543.323 z" id="boundary" inkscape:connector-curvature="0" />
	<path style="fill:none;stroke:red;stroke-width:1px;stroke-linecap:butt;stroke-linejoin:miter;stroke-opacity:1" d="M 359.422,511.494 345.276,525.64 z" id="boundary" inkscape:connector-curvature="0" />
	<path style="fill:none;stroke:red;stroke-width:1px;stroke-linecap:butt;stroke-linejoin:miter;stroke-opacity:1" d="M 338.203,543.323 345.276,525.64 z" id="boundary" inkscape:connector-curvature="0" />
	<path style="fill:none;stroke:red;stroke-width:1px;stroke-linecap:butt;stroke-linejoin:miter;stroke-opacity:1" d="M 435.458,568.078 421.312,580.456 z" id="boundary" inkscape:connector-curvature="0" />
	<path style="fill:none;stroke:red;stroke-width:1px;stroke-linecap:butt;stroke-linejoin:miter;stroke-opacity:1" d="M 421.312,580.456 408.934,594.602 z" id="boundary" inkscape:connector-curvature="0" />
	<path style="fill:none;stroke:red;stroke-width:1px;stroke-linecap:butt;stroke-linejoin:miter;stroke-opacity:1" d="M 408.934,594.602 394.788,606.98 z" id="boundary" inkscape:connector-curvature="0" />
	<path style="fill:none;stroke:red;stroke-width:1px;stroke-linecap:butt;stroke-linejoin:miter;stroke-opacity:1" d="M 394.788,606.98 382.41,621.127 z" id="boundary" inkscape:connector-curvature="0" />
	<path style="fill:none;stroke:red;stroke-width:1px;stroke-linecap:butt;stroke-linejoin:miter;stroke-opacity:1" d="M 359.422,511.494 373.569,499.116 z" id="boundary" inkscape:connector-curvature="0" />
	<path style="fill:none;stroke:red;stroke-width:1px;stroke-linecap:butt;stroke-linejoin:miter;stroke-opacity:1" d="M 416.007,454.909 398.324,463.75 z" id="boundary" inkscape:connector-curvature="0" />
	<path style="fill:none;stroke:red;stroke-width:1px;stroke-linecap:butt;stroke-linejoin:miter;stroke-opacity:1" d="M 373.569,499.116 384.178,477.897 z" id="boundary" inkscape:connector-curvature="0" />
	<path style="fill:none;stroke:red;stroke-width:1px;stroke-linecap:butt;stroke-linejoin:miter;stroke-opacity:1" d="M 398.324,463.75 384.178,477.897 z" id="boundary" inkscape:connector-curvature="0" />
	<path style="fill:none;stroke:red;stroke-width:1px;stroke-linecap:butt;stroke-linejoin:miter;stroke-opacity:1" d="M 456.677,536.25 470.824,523.872 z" id="boundary" inkscape:connector-curvature="0" />
	<path style="fill:none;stroke:red;stroke-width:1px;stroke-linecap:butt;stroke-linejoin:miter;stroke-opacity:1" d="M 416.007,454.909 430.153,440.763 z" id="boundary" inkscape:connector-curvature="0" />
	<path style="fill:none;stroke:red;stroke-width:1px;stroke-linecap:butt;stroke-linejoin:miter;stroke-opacity:1" d="M 453.141,410.702 438.995,423.08 z" id="boundary" inkscape:connector-curvature="0" />
	<path style="fill:none;stroke:red;stroke-width:1px;stroke-linecap:butt;stroke-linejoin:miter;stroke-opacity:1" d="M 430.153,440.763 438.995,423.08 z" id="boundary" inkscape:connector-curvature="0" />
	<path style="fill:none;stroke:red;stroke-width:1px;stroke-linecap:butt;stroke-linejoin:miter;stroke-opacity:1" d="M 497.348,497.348 483.201,509.725 z" id="boundary" inkscape:connector-curvature="0" />
	<path style="fill:none;stroke:red;stroke-width:1px;stroke-linecap:butt;stroke-linejoin:miter;stroke-opacity:1" d="M 483.201,509.725 470.824,523.872 z" id="boundary" inkscape:connector-curvature="0" />
	<path style="fill:none;stroke:red;stroke-width:1px;stroke-linecap:butt;stroke-linejoin:miter;stroke-opacity:1" d="M 453.141,410.702 460.214,393.02 z" id="boundary" inkscape:connector-curvature="0" />
	<path style="fill:none;stroke:red;stroke-width:1px;stroke-linecap:butt;stroke-linejoin:miter;stroke-opacity:1" d="M 460.214,393.02 474.36,378.873 z" id="boundary" inkscape:connector-curvature="0" />
	<path style="fill:none;stroke:red;stroke-width:1px;stroke-linecap:butt;stroke-linejoin:miter;stroke-opacity:1" d="M 497.348,497.348 509.725,483.201 z" id="boundary" inkscape:connector-curvature="0" />
	<path style="fill:none;stroke:red;stroke-width:1px;stroke-linecap:butt;stroke-linejoin:miter;stroke-opacity:1" d="M 509.725,483.201 523.872,470.824 z" id="boundary" inkscape:connector-curvature="0" />
	<path style="fill:none;stroke:red;stroke-width:1px;stroke-linecap:butt;stroke-linejoin:miter;stroke-opacity:1" d="M 474.36,378.873 488.506,366.496 z" id="boundary" inkscape:connector-curvature="0" />
	<path style="fill:none;stroke:red;stroke-width:1px;stroke-linecap:butt;stroke-linejoin:miter;stroke-opacity:1" d="M 488.506,366.496 500.884,352.349 z" id="boundary" inkscape:connector-curvature="0" />
	<path style="fill:none;stroke:red;stroke-width:1px;stroke-linecap:butt;stroke-linejoin:miter;stroke-opacity:1" d="M 523.872,470.824 536.25,456.677 z" id="boundary" inkscape:connector-curvature="0" />
	<path style="fill:none;stroke:red;stroke-width:1px;stroke-linecap:butt;stroke-linejoin:miter;stroke-opacity:1" d="M 536.25,456.677 550.396,444.299 z" id="boundary" inkscape:connector-curvature="0" />
	<path style="fill:none;stroke:red;stroke-width:1px;stroke-linecap:butt;stroke-linejoin:miter;stroke-opacity:1" d="M 500.884,352.349 515.03,339.971 z" id="boundary" inkscape:connector-curvature="0" />
	<path style="fill:none;stroke:red;stroke-width:1px;stroke-linecap:butt;stroke-linejoin:miter;stroke-opacity:1" d="M 515.03,339.971 527.408,325.825 z" id="boundary" inkscape:connector-curvature="0" />
	<path style="fill:none;stroke:red;stroke-width:1px;stroke-linecap:butt;stroke-linejoin:miter;stroke-opacity:1" d="M 612.285,373.569 598.139,385.947 z" id="boundary" inkscape:connector-curvature="0" />
	<path style="fill:none;stroke:red;stroke-width:1px;stroke-linecap:butt;stroke-linejoin:miter;stroke-opacity:1" d="M 598.139,385.947 585.761,400.093 z" id="boundary" inkscape:connector-curvature="0" />
	<path style="fill:none;stroke:red;stroke-width:1px;stroke-linecap:butt;stroke-linejoin:miter;stroke-opacity:1" d="M 893.44,233.875 875.758,226.802 z" id="boundary" inkscape:connector-curvature="0" />
	<path style="fill:none;stroke:red;stroke-width:1px;stroke-linecap:butt;stroke-linejoin:miter;stroke-opacity:1" d="M 875.758,226.802 858.075,226.802 z" id="boundary" inkscape:connector-curvature="0" />
	<path style="fill:none;stroke:red;stroke-width:1px;stroke-linecap:butt;stroke-linejoin:miter;stroke-opacity:1" d="M 527.408,325.825 541.554,313.447 z" id="boundary" inkscape:connector-curvature="0" />
	<path style="fill:none;stroke:red;stroke-width:1px;stroke-linecap:butt;stroke-linejoin:miter;stroke-opacity:1" d="M 541.554,313.447 553.932,299.301 z" id="boundary" inkscape:connector-curvature="0" />
	<path style="fill:none;stroke:red;stroke-width:1px;stroke-linecap:butt;stroke-linejoin:miter;stroke-opacity:1" d="M 562.774,430.153 550.396,444.299 z" id="boundary" inkscape:connector-curvature="0" />
	<path style="fill:none;stroke:red;stroke-width:1px;stroke-linecap:butt;stroke-linejoin:miter;stroke-opacity:1" d="M 571.615,412.471 585.761,400.093 z" id="boundary" inkscape:connector-curvature="0" />
	<path style="fill:none;stroke:red;stroke-width:1px;stroke-linecap:butt;stroke-linejoin:miter;stroke-opacity:1" d="M 571.615,412.471 562.774,430.153 z" id="boundary" inkscape:connector-curvature="0" />
	<path style="fill:none;stroke:red;stroke-width:1px;stroke-linecap:butt;stroke-linejoin:miter;stroke-opacity:1" d="M 553.932,299.301 568.078,286.923 z" id="boundary" inkscape:connector-curvature="0" />
	<path style="fill:none;stroke:red;stroke-width:1px;stroke-linecap:butt;stroke-linejoin:miter;stroke-opacity:1" d="M 568.078,286.923 575.152,269.241 z" id="boundary" inkscape:connector-curvature="0" />
	<path style="fill:none;stroke:red;stroke-width:1px;stroke-linecap:butt;stroke-linejoin:miter;stroke-opacity:1" d="M 575.152,269.241 589.298,255.094 z" id="boundary" inkscape:connector-curvature="0" />
	<path style="fill:none;stroke:red;stroke-width:1px;stroke-linecap:butt;stroke-linejoin:miter;stroke-opacity:1" d="M 631.736,104.791 622.895,88.877 z" id="boundary" inkscape:connector-curvature="0" />
	<path style="fill:none;stroke:red;stroke-width:1px;stroke-linecap:butt;stroke-linejoin:miter;stroke-opacity:1" d="M 612.285,373.569 624.663,359.422 z" id="boundary" inkscape:connector-curvature="0" />
	<path style="fill:none;stroke:red;stroke-width:1px;stroke-linecap:butt;stroke-linejoin:miter;stroke-opacity:1" d="M 624.663,359.422 642.346,350.581 z" id="boundary" inkscape:connector-curvature="0" />
	<path style="fill:none;stroke:red;stroke-width:1px;stroke-linecap:butt;stroke-linejoin:miter;stroke-opacity:1" d="M 589.298,255.094 603.444,242.717 z" id="boundary" inkscape:connector-curvature="0" />
	<path style="fill:none;stroke:red;stroke-width:1px;stroke-linecap:butt;stroke-linejoin:miter;stroke-opacity:1" d="M 603.444,242.717 615.822,228.57 z" id="boundary" inkscape:connector-curvature="0" />
	<path style="fill:none;stroke:red;stroke-width:1px;stroke-linecap:butt;stroke-linejoin:miter;stroke-opacity:1" d="M 629.968,216.193 637.041,198.51 z" id="boundary" inkscape:connector-curvature="0" />
	<path style="fill:none;stroke:red;stroke-width:1px;stroke-linecap:butt;stroke-linejoin:miter;stroke-opacity:1" d="M 637.041,198.51 651.187,184.364 z" id="boundary" inkscape:connector-curvature="0" />
	<path style="fill:none;stroke:red;stroke-width:1px;stroke-linecap:butt;stroke-linejoin:miter;stroke-opacity:1" d="M 615.822,228.57 629.968,216.193 z" id="boundary" inkscape:connector-curvature="0" />
	<path style="fill:none;stroke:red;stroke-width:1px;stroke-linecap:butt;stroke-linejoin:miter;stroke-opacity:1" d="M 622.895,88.877 631.736,71.1943 z" id="boundary" inkscape:connector-curvature="0" />
	<path style="fill:none;stroke:red;stroke-width:1px;stroke-linecap:butt;stroke-linejoin:miter;stroke-opacity:1" d="M 667.102,324.057 681.248,313.447 z" id="boundary" inkscape:connector-curvature="0" />
	<path style="fill:none;stroke:red;stroke-width:1px;stroke-linecap:butt;stroke-linejoin:miter;stroke-opacity:1" d="M 631.736,71.1943 640.578,53.5116 z" id="boundary" inkscape:connector-curvature="0" />
	<path style="fill:none;stroke:red;stroke-width:1px;stroke-linecap:butt;stroke-linejoin:miter;stroke-opacity:1" d="M 631.736,104.791 640.578,120.706 z" id="boundary" inkscape:connector-curvature="0" />
	<path style="fill:none;stroke:red;stroke-width:1px;stroke-linecap:butt;stroke-linejoin:miter;stroke-opacity:1" d="M 651.187,332.898 667.102,324.057 z" id="boundary" inkscape:connector-curvature="0" />
	<path style="fill:none;stroke:red;stroke-width:1px;stroke-linecap:butt;stroke-linejoin:miter;stroke-opacity:1" d="M 651.187,332.898 642.346,350.581 z" id="boundary" inkscape:connector-curvature="0" />
	<path style="fill:none;stroke:red;stroke-width:1px;stroke-linecap:butt;stroke-linejoin:miter;stroke-opacity:1" d="M 640.578,120.706 649.419,136.62 z" id="boundary" inkscape:connector-curvature="0" />
	<path style="fill:none;stroke:red;stroke-width:1px;stroke-linecap:butt;stroke-linejoin:miter;stroke-opacity:1" d="M 640.578,53.5116 654.724,39.3654 z" id="boundary" inkscape:connector-curvature="0" />
	<path style="fill:none;stroke:red;stroke-width:1px;stroke-linecap:butt;stroke-linejoin:miter;stroke-opacity:1" d="M 730.759,253.326 718.381,267.472 z" id="boundary" inkscape:connector-curvature="0" />
	<path style="fill:none;stroke:red;stroke-width:1px;stroke-linecap:butt;stroke-linejoin:miter;stroke-opacity:1" d="M 654.724,39.3654 668.87,25.2193 z" id="boundary" inkscape:connector-curvature="0" />
	<path style="fill:none;stroke:red;stroke-width:1px;stroke-linecap:butt;stroke-linejoin:miter;stroke-opacity:1" d="M 651.187,184.364 658.26,152.535 z" id="boundary" inkscape:connector-curvature="0" />
	<path style="fill:none;stroke:red;stroke-width:1px;stroke-linecap:butt;stroke-linejoin:miter;stroke-opacity:1" d="M 658.26,152.535 649.419,136.62 z" id="boundary" inkscape:connector-curvature="0" />
	<path style="fill:none;stroke:red;stroke-width:1px;stroke-linecap:butt;stroke-linejoin:miter;stroke-opacity:1" d="M 840.392,225.034 822.709,217.961 z" id="boundary" inkscape:connector-curvature="0" />
	<path style="fill:none;stroke:red;stroke-width:1px;stroke-linecap:butt;stroke-linejoin:miter;stroke-opacity:1" d="M 822.709,217.961 805.027,217.961 z" id="boundary" inkscape:connector-curvature="0" />
	<path style="fill:none;stroke:red;stroke-width:1px;stroke-linecap:butt;stroke-linejoin:miter;stroke-opacity:1" d="M 683.016,12.8414 668.87,25.2193 z" id="boundary" inkscape:connector-curvature="0" />
	<path style="fill:none;stroke:red;stroke-width:1px;stroke-linecap:butt;stroke-linejoin:miter;stroke-opacity:1" d="M 698.93,4 716.613,4 z" id="boundary" inkscape:connector-curvature="0" />
	<path style="fill:none;stroke:red;stroke-width:1px;stroke-linecap:butt;stroke-linejoin:miter;stroke-opacity:1" d="M 698.93,4 683.016,12.8414 z" id="boundary" inkscape:connector-curvature="0" />
	<path style="fill:none;stroke:red;stroke-width:1px;stroke-linecap:butt;stroke-linejoin:miter;stroke-opacity:1" d="M 690.089,295.765 704.235,279.85 z" id="boundary" inkscape:connector-curvature="0" />
	<path style="fill:none;stroke:red;stroke-width:1px;stroke-linecap:butt;stroke-linejoin:miter;stroke-opacity:1" d="M 690.089,295.765 681.248,313.447 z" id="boundary" inkscape:connector-curvature="0" />
	<path style="fill:none;stroke:red;stroke-width:1px;stroke-linecap:butt;stroke-linejoin:miter;stroke-opacity:1" d="M 716.613,4 734.296,4 z" id="boundary" inkscape:connector-curvature="0" />
	<path style="fill:none;stroke:red;stroke-width:1px;stroke-linecap:butt;stroke-linejoin:miter;stroke-opacity:1" d="M 704.235,279.85 718.381,267.472 z" id="boundary" inkscape:connector-curvature="0" />
	<path style="fill:none;stroke:red;stroke-width:1px;stroke-linecap:butt;stroke-linejoin:miter;stroke-opacity:1" d="M 771.43,214.424 757.283,226.802 z" id="boundary" inkscape:connector-curvature="0" />
	<path style="fill:none;stroke:red;stroke-width:1px;stroke-linecap:butt;stroke-linejoin:miter;stroke-opacity:1" d="M 789.112,209.119 805.027,217.961 z" id="boundary" inkscape:connector-curvature="0" />
	<path style="fill:none;stroke:red;stroke-width:1px;stroke-linecap:butt;stroke-linejoin:miter;stroke-opacity:1" d="M 789.112,209.119 771.43,214.424 z" id="boundary" inkscape:connector-curvature="0" />
	<path style="fill:none;stroke:red;stroke-width:1px;stroke-linecap:butt;stroke-linejoin:miter;stroke-opacity:1" d="M 757.283,226.802 744.906,240.948 z" id="boundary" inkscape:connector-curvature="0" />
	<path style="fill:none;stroke:red;stroke-width:1px;stroke-linecap:butt;stroke-linejoin:miter;stroke-opacity:1" d="M 734.296,4 751.979,4 z" id="boundary" inkscape:connector-curvature="0" />
	<path style="fill:none;stroke:red;stroke-width:1px;stroke-linecap:butt;stroke-linejoin:miter;stroke-opacity:1" d="M 730.759,253.326 744.906,240.948 z" id="boundary" inkscape:connector-curvature="0" />
	<path style="fill:none;stroke:red;stroke-width:1px;stroke-linecap:butt;stroke-linejoin:miter;stroke-opacity:1" d="M 828.014,30.5241 836.856,46.4385 z" id="boundary" inkscape:connector-curvature="0" />
	<path style="fill:none;stroke:red;stroke-width:1px;stroke-linecap:butt;stroke-linejoin:miter;stroke-opacity:1" d="M 845.697,62.3529 836.856,46.4385 z" id="boundary" inkscape:connector-curvature="0" />
	<path style="fill:none;stroke:red;stroke-width:1px;stroke-linecap:butt;stroke-linejoin:miter;stroke-opacity:1" d="M 840.392,225.034 858.075,226.802 z" id="boundary" inkscape:connector-curvature="0" />
	<path style="fill:none;stroke:red;stroke-width:1px;stroke-linecap:butt;stroke-linejoin:miter;stroke-opacity:1" d="M 828.014,30.5241 819.173,14.6096 z" id="boundary" inkscape:connector-curvature="0" />
	<path style="fill:none;stroke:red;stroke-width:1px;stroke-linecap:butt;stroke-linejoin:miter;stroke-opacity:1" d="M 787.344,4 805.027,4 z" id="boundary" inkscape:connector-curvature="0" />
	<path style="fill:none;stroke:red;stroke-width:1px;stroke-linecap:butt;stroke-linejoin:miter;stroke-opacity:1" d="M 805.027,4 819.173,14.6096 z" id="boundary" inkscape:connector-curvature="0" />
	<path style="fill:none;stroke:red;stroke-width:1px;stroke-linecap:butt;stroke-linejoin:miter;stroke-opacity:1" d="M 769.661,4 787.344,4 z" id="boundary" inkscape:connector-curvature="0" />
	<path style="fill:none;stroke:red;stroke-width:1px;stroke-linecap:butt;stroke-linejoin:miter;stroke-opacity:1" d="M 893.44,233.875 911.123,235.643 z" id="boundary" inkscape:connector-curvature="0" />
	<path style="fill:none;stroke:red;stroke-width:1px;stroke-linecap:butt;stroke-linejoin:miter;stroke-opacity:1" d="M 769.661,4 751.979,4 z" id="boundary" inkscape:connector-curvature="0" />
	<path style="fill:none;stroke:red;stroke-width:1px;stroke-linecap:butt;stroke-linejoin:miter;stroke-opacity:1" d="M 859.843,74.7308 845.697,62.3529 z" id="boundary" inkscape:connector-curvature="0" />
	<path style="fill:none;stroke:red;stroke-width:1px;stroke-linecap:butt;stroke-linejoin:miter;stroke-opacity:1" d="M 911.123,235.643 928.806,233.875 z" id="boundary" inkscape:connector-curvature="0" />
	<path style="fill:none;stroke:red;stroke-width:1px;stroke-linecap:butt;stroke-linejoin:miter;stroke-opacity:1" d="M 859.843,74.7308 877.526,74.7308 z" id="boundary" inkscape:connector-curvature="0" />
	<path style="fill:none;stroke:red;stroke-width:1px;stroke-linecap:butt;stroke-linejoin:miter;stroke-opacity:1" d="M 877.526,74.7308 895.209,74.7308 z" id="boundary" inkscape:connector-curvature="0" />
	<path style="fill:none;stroke:red;stroke-width:1px;stroke-linecap:butt;stroke-linejoin:miter;stroke-opacity:1" d="M 930.574,83.5722 912.891,76.4991 z" id="boundary" inkscape:connector-curvature="0" />
	<path style="fill:none;stroke:red;stroke-width:1px;stroke-linecap:butt;stroke-linejoin:miter;stroke-opacity:1" d="M 912.891,76.4991 895.209,74.7308 z" id="boundary" inkscape:connector-curvature="0" />
	<path style="fill:none;stroke:red;stroke-width:1px;stroke-linecap:butt;stroke-linejoin:miter;stroke-opacity:1" d="M 942.952,217.961 957.098,205.583 z" id="boundary" inkscape:connector-curvature="0" />
	<path style="fill:none;stroke:red;stroke-width:1px;stroke-linecap:butt;stroke-linejoin:miter;stroke-opacity:1" d="M 957.098,205.583 974.781,196.742 z" id="boundary" inkscape:connector-curvature="0" />
	<path style="fill:none;stroke:red;stroke-width:1px;stroke-linecap:butt;stroke-linejoin:miter;stroke-opacity:1" d="M 928.806,233.875 942.952,217.961 z" id="boundary" inkscape:connector-curvature="0" />
	<path style="fill:none;stroke:red;stroke-width:1px;stroke-linecap:butt;stroke-linejoin:miter;stroke-opacity:1" d="M 930.574,83.5722 948.257,83.5722 z" id="boundary" inkscape:connector-curvature="0" />
	<path style="fill:none;stroke:red;stroke-width:1px;stroke-linecap:butt;stroke-linejoin:miter;stroke-opacity:1" d="M 948.257,83.5722 960.635,97.7184 z" id="boundary" inkscape:connector-curvature="0" />
	<path style="fill:none;stroke:red;stroke-width:1px;stroke-linecap:butt;stroke-linejoin:miter;stroke-opacity:1" d="M 960.635,97.7184 973.012,111.865 z" id="boundary" inkscape:connector-curvature="0" />
	<path style="fill:none;stroke:red;stroke-width:1px;stroke-linecap:butt;stroke-linejoin:miter;stroke-opacity:1" d="M 973.012,111.865 981.854,127.779 z" id="boundary" inkscape:connector-curvature="0" />
	<path style="fill:none;stroke:red;stroke-width:1px;stroke-linecap:butt;stroke-linejoin:miter;stroke-opacity:1" d="M 987.159,145.462 981.854,127.779 z" id="boundary" inkscape:connector-curvature="0" />
	<path style="fill:none;stroke:red;stroke-width:1px;stroke-linecap:butt;stroke-linejoin:miter;stroke-opacity:1" d="M 987.159,182.595 974.781,196.742 z" id="boundary" inkscape:connector-curvature="0" />
	<path style="fill:none;stroke:red;stroke-width:1px;stroke-linecap:butt;stroke-linejoin:miter;stroke-opacity:1" d="M 987.159,145.462 996,161.376 z" id="boundary" inkscape:connector-curvature="0" />
	<path style="fill:none;stroke:red;stroke-width:1px;stroke-linecap:butt;stroke-linejoin:miter;stroke-opacity:1" d="M 996,161.376 987.159,182.595 z" id="boundary" inkscape:connector-curvature="0" />
	<circle cx="4" cy="716.613" r="4" fill="#0" id="circle0"/>
	<circle cx="4" cy="734.296" r="4" fill="#0" id="circle1"/>
	<circle cx="12.8414" cy="750.21" r="4" fill="#0" id="circle2"/>
	<circle cx="21.6827" cy="707.772" r="4" fill="#0" id="circle3"/>
	<circle cx="21.6827" cy="766.125" r="4" fill="#0" id="circle4"/>
	<circle cx="26.9875" cy="783.807" r="4" fill="#0" id="circle5"/>
	<circle cx="35.8289" cy="693.626" r="4" fill="#0" id="circle6"/>
	<circle cx="42.902" cy="792.649" r="4" fill="#0" id="circle7"/>
	<circle cx="49.975" cy="679.48" r="4" fill="#0" id="circle8"/>
	<circle cx="60.5847" cy="792.649" r="4" fill="#0" id="circle9"/>
	<circle cx="64.1212" cy="667.102" r="4" fill="#0" id="circle10"/>
	<circle cx="78.2674" cy="792.649" r="4" fill="#0" id="circle11"/>
	<circle cx="80.0357" cy="658.26" r="4" fill="#0" id="circle12"/>
	<circle cx="92.4135" cy="849.234" r="4" fill="#0" id="circle13"/>
	<circle cx="95.9501" cy="667.102" r="4" fill="#0" id="circle14"/>
	<circle cx="95.9501" cy="792.649" r="4" fill="#0" id="circle15"/>
	<circle cx="101.255" cy="831.551" r="4" fill="#0" id="circle16"/>
	<circle cx="110.096" cy="803.258" r="4" fill="#0" id="circle17"/>
	<circle cx="110.096" cy="854.538" r="4" fill="#0" id="circle18"/>
	<circle cx="113.633" cy="667.102" r="4" fill="#0" id="circle19"/>
	<circle cx="126.011" cy="863.38" r="4" fill="#0" id="circle20"/>
	<circle cx="129.547" cy="675.943" r="4" fill="#0" id="circle21"/>
	<circle cx="143.693" cy="863.38" r="4" fill="#0" id="circle22"/>
	<circle cx="145.462" cy="684.784" r="4" fill="#0" id="circle23"/>
	<circle cx="161.376" cy="863.38" r="4" fill="#0" id="circle24"/>
	<circle cx="163.144" cy="688.321" r="4" fill="#0" id="circle25"/>
	<circle cx="177.291" cy="872.221" r="4" fill="#0" id="circle26"/>
	<circle cx="180.827" cy="693.626" r="4" fill="#0" id="circle27"/>
	<circle cx="193.205" cy="881.062" r="4" fill="#0" id="circle28"/>
	<circle cx="198.51" cy="693.626" r="4" fill="#0" id="circle29"/>
	<circle cx="209.119" cy="679.48" r="4" fill="#0" id="circle30"/>
	<circle cx="209.119" cy="872.221" r="4" fill="#0" id="circle31"/>
	<circle cx="223.266" cy="667.102" r="4" fill="#0" id="circle32"/>
	<circle cx="226.802" cy="872.221" r="4" fill="#0" id="circle33"/>
	<circle cx="230.339" cy="649.419" r="4" fill="#0" id="circle34"/>
	<circle cx="242.717" cy="863.38" r="4" fill="#0" id="circle35"/>
	<circle cx="244.485" cy="635.273" r="4" fill="#0" id="circle36"/>
	<circle cx="258.631" cy="622.895" r="4" fill="#0" id="circle37"/>
	<circle cx="260.399" cy="858.075" r="4" fill="#0" id="circle38"/>
	<circle cx="271.009" cy="608.749" r="4" fill="#0" id="circle39"/>
	<circle cx="278.082" cy="849.234" r="4" fill="#0" id="circle40"/>
	<circle cx="279.85" cy="730.759" r="4" fill="#0" id="circle41"/>
	<circle cx="279.85" cy="748.442" r="4" fill="#0" id="circle42"/>
	<circle cx="279.85" cy="766.125" r="4" fill="#0" id="circle43"/>
	<circle cx="283.387" cy="783.807" r="4" fill="#0" id="circle44"/>
	<circle cx="285.155" cy="596.371" r="4" fill="#0" id="circle45"/>
	<circle cx="292.228" cy="799.722" r="4" fill="#0" id="circle46"/>
	<circle cx="292.228" cy="835.087" r="4" fill="#0" id="circle47"/>
	<circle cx="293.996" cy="718.381" r="4" fill="#0" id="circle48"/>
	<circle cx="297.533" cy="582.225" r="4" fill="#0" id="circle49"/>
	<circle cx="297.533" cy="817.405" r="4" fill="#0" id="circle50"/>
	<circle cx="306.374" cy="704.235" r="4" fill="#0" id="circle51"/>
	<circle cx="311.679" cy="569.847" r="4" fill="#0" id="circle52"/>
	<circle cx="320.52" cy="691.857" r="4" fill="#0" id="circle53"/>
	<circle cx="324.057" cy="555.701" r="4" fill="#0" id="circle54"/>
	<circle cx="329.362" cy="674.175" r="4" fill="#0" id="circle55"/>
	<circle cx="338.203" cy="543.323" r="4" fill="#0" id="circle56"/>
	<circle cx="341.74" cy="660.029" r="4" fill="#0" id="circle57"/>
	<circle cx="345.276" cy="525.64" r="4" fill="#0" id="circle58"/>
	<circle cx="355.886" cy="647.651" r="4" fill="#0" id="circle59"/>
	<circle cx="359.422" cy="511.494" r="4" fill="#0" id="circle60"/>
	<circle cx="368.264" cy="633.504" r="4" fill="#0" id="circle61"/>
	<circle cx="373.569" cy="499.116" r="4" fill="#0" id="circle62"/>
	<circle cx="382.41" cy="621.127" r="4" fill="#0" id="circle63"/>
	<circle cx="384.178" cy="477.897" r="4" fill="#0" id="circle64"/>
	<circle cx="394.788" cy="606.98" r="4" fill="#0" id="circle65"/>
	<circle cx="398.324" cy="463.75" r="4" fill="#0" id="circle66"/>
	<circle cx="408.934" cy="594.602" r="4" fill="#0" id="circle67"/>
	<circle cx="416.007" cy="454.909" r="4" fill="#0" id="circle68"/>
	<circle cx="421.312" cy="580.456" r="4" fill="#0" id="circle69"/>
	<circle cx="430.153" cy="440.763" r="4" fill="#0" id="circle70"/>
	<circle cx="435.458" cy="568.078" r="4" fill="#0" id="circle71"/>
	<circle cx="438.995" cy="423.08" r="4" fill="#0" id="circle72"/>
	<circle cx="444.299" cy="550.396" r="4" fill="#0" id="circle73"/>
	<circle cx="453.141" cy="410.702" r="4" fill="#0" id="circle74"/>
	<circle cx="456.677" cy="536.25" r="4" fill="#0" id="circle75"/>
	<circle cx="460.214" cy="393.02" r="4" fill="#0" id="circle76"/>
	<circle cx="470.824" cy="523.872" r="4" fill="#0" id="circle77"/>
	<circle cx="474.36" cy="378.873" r="4" fill="#0" id="circle78"/>
	<circle cx="483.201" cy="509.725" r="4" fill="#0" id="circle79"/>
	<circle cx="488.506" cy="366.496" r="4" fill="#0" id="circle80"/>
	<circle cx="497.348" cy="497.348" r="4" fill="#0" id="circle81"/>
	<circle cx="500.884" cy="352.349" r="4" fill="#0" id="circle82"/>
	<circle cx="509.725" cy="483.201" r="4" fill="#0" id="circle83"/>
	<circle cx="515.03" cy="339.971" r="4" fill="#0" id="circle84"/>
	<circle cx="523.872" cy="470.824" r="4" fill="#0" id="circle85"/>
	<circle cx="527.408" cy="325.825" r="4" fill="#0" id="circle86"/>
	<circle cx="536.25" cy="456.677" r="4" fill="#0" id="circle87"/>
	<circle cx="541.554" cy="313.447" r="4" fill="#0" id="circle88"/>
	<circle cx="550.396" cy="444.299" r="4" fill="#0" id="circle89"/>
	<circle cx="553.932" cy="299.301" r="4" fill="#0" id="circle90"/>
	<circle cx="562.774" cy="430.153" r="4" fill="#0" id="circle91"/>
	<circle cx="568.078" cy="286.923" r="4" fill="#0" id="circle92"/>
	<circle cx="571.615" cy="412.471" r="4" fill="#0" id="circle93"/>
	<circle cx="575.152" cy="269.241" r="4" fill="#0" id="circle94"/>
	<circle cx="585.761" cy="400.093" r="4" fill="#0" id="circle95"/>
	<circle cx="589.298" cy="255.094" r="4" fill="#0" id="circle96"/>
	<circle cx="598.139" cy="385.947" r="4" fill="#0" id="circle97"/>
	<circle cx="603.444" cy="242.717" r="4" fill="#0" id="circle98"/>
	<circle cx="612.285" cy="373.569" r="4" fill="#0" id="circle99"/>
	<circle cx="615.822" cy="228.57" r="4" fill="#0" id="circle100"/>
	<circle cx="622.895" cy="88.877" r="4" fill="#0" id="circle101"/>
	<circle cx="624.663" cy="359.422" r="4" fill="#0" id="circle102"/>
	<circle cx="629.968" cy="216.193" r="4" fill="#0" id="circle103"/>
	<circle cx="631.736" cy="71.1943" r="4" fill="#0" id="circle104"/>
	<circle cx="631.736" cy="104.791" r="4" fill="#0" id="circle105"/>
	<circle cx="637.041" cy="198.51" r="4" fill="#0" id="circle106"/>
	<circle cx="640.578" cy="53.5116" r="4" fill="#0" id="circle107"/>
	<circle cx="640.578" cy="120.706" r="4" fill="#0" id="circle108"/>
	<circle cx="642.346" cy="350.581" r="4" fill="#0" id="circle109"/>
	<circle cx="649.419" cy="136.62" r="4" fill="#0" id="circle110"/>
	<circle cx="651.187" cy="184.364" r="4" fill="#0" id="circle111"/>
	<circle cx="651.187" cy="332.898" r="4" fill="#0" id="circle112"/>
	<circle cx="654.724" cy="39.3654" r="4" fill="#0" id="circle113"/>
	<circle cx="658.26" cy="152.535" r="4" fill="#0" id="circle114"/>
	<circle cx="667.102" cy="324.057" r="4" fill="#0" id="circle115"/>
	<circle cx="668.87" cy="25.2193" r="4" fill="#0" id="circle116"/>
	<circle cx="681.248" cy="313.447" r="4" fill="#0" id="circle117"/>
	<circle cx="683.016" cy="12.8414" r="4" fill="#0" id="circle118"/>
	<circle cx="690.089" cy="295.765" r="4" fill="#0" id="circle119"/>
	<circle cx="698.93" cy="4" r="4" fill="#0" id="circle120"/>
	<circle cx="704.235" cy="279.85" r="4" fill="#0" id="circle121"/>
	<circle cx="716.613" cy="4" r="4" fill="#0" id="circle122"/>
	<circle cx="718.381" cy="267.472" r="4" fill="#0" id="circle123"/>
	<circle cx="730.759" cy="253.326" r="4" fill="#0" id="circle124"/>
	<circle cx="734.296" cy="4" r="4" fill="#0" id="circle125"/>
	<circle cx="744.906" cy="240.948" r="4" fill="#0" id="circle126"/>
	<circle cx="751.979" cy="4" r="4" fill="#0" id="circle127"/>
	<circle cx="757.283" cy="226.802" r="4" fill="#0" id="circle128"/>
	<circle cx="769.661" cy="4" r="4" fill="#0" id="circle129"/>
	<circle cx="771.43" cy="214.424" r="4" fill="#0" id="circle130"/>
	<circle cx="787.344" cy="4" r="4" fill="#0" id="circle131"/>
	<circle cx="789.112" cy="209.119" r="4" fill="#0" id="circle132"/>
	<circle cx="805.027" cy="4" r="4" fill="#0" id="circle133"/>
	<circle cx="805.027" cy="217.961" r="4" fill="#0" id="circle134"/>
	<circle cx="819.173" cy="14.6096" r="4" fill="#0" id="circle135"/>
	<circle cx="822.709" cy="217.961" r="4" fill="#0" id="circle136"/>
	<circle cx="828.014" cy="30.5241" r="4" fill="#0" id="circle137"/>
	<circle cx="836.856" cy="46.4385" r="4" fill="#0" id="circle138"/>
	<circle cx="840.392" cy="225.034" r="4" fill="#0" id="circle139"/>
	<circle cx="845.697" cy="62.3529" r="4" fill="#0" id="circle140"/>
	<circle cx="858.075" cy="226.802" r="4" fill="#0" id="circle141"/>
	<circle cx="859.843" cy="74.7308" r="4" fill="#0" id="circle142"/>
	<circle cx="875.758" cy="226.802" r="4" fill="#0" id="circle143"/>
	<circle cx="877.526" cy="74.7308" r="4" fill="#0" id="circle144"/>
	<circle cx="893.44" cy="233.875" r="4" fill="#0" id="circle145"/>
	<circle cx="895.209" cy="74.7308" r="4" fill="#0" id="circle146"/>
	<circle cx="911.123" cy="235.643" r="4" fill="#0" id="circle147"/>
	<circle cx="912.891" cy="76.4991" r="4" fill="#0" id="circle148"/>
	<circle cx="928.806" cy="233.875" r="4" fill="#0" id="circle149"/>
	<circle cx="930.574" cy="83.5722" r="4" fill="#0" id="circle150"/>
	<circle cx="942.952" cy="217.961" r="4" fill="#0" id="circle151"/>
	<circle cx="948.257" cy="83.5722" r="4" fill="#0" id="circle152"/>
	<circle cx="957.098" cy="205.583" r="4" fill="#0" id="circle153"/>
	<circle cx="960.635" cy="97.7184" r="4" fill="#0" id="circle154"/>
	<circle cx="973.012" cy="111.865" r="4" fill="#0" id="circle155"/>
	<circle cx="974.781" cy="196.742" r="4" fill="#0" id="circle156"/>
	<circle cx="981.854" cy="127.779" r="4" fill="#0" id="circle157"/>
	<circle cx="987.159" cy="145.462" r="4" fill="#0" id="circle158"/>
	<circle cx="987.159" cy="182.595" r="4" fill="#0" id="circle159"/>
	<circle cx="996" cy="161.376" r="4" fill="#0" id="circle160"/>
	</g>
</svg>