<?xml version="1.0" encoding="UTF-8" standalone="no"?>
<!-- Created with CurveBenchmark -->
<svg
	xmlns:dc="http://purl.org/dc/elements/1.1/"
	xmlns:cc="http://creativecommons.org/ns#"
	xmlns:rdf="http://www.w3.org/1999/02/22-rdf-syntax-ns#"
	xmlns:svg="http://www.w3.org/2000/svg"
	xmlns="http://www.w3.org/2000/svg"
	xmlns:sodipodi="http://sodipodi.sourceforge.net/DTD/sodipodi-0.dtd"
	xmlns:inkscape="http://www.inkscape.org/namespaces/inkscape"
	width="1000"
	height="1000"
	id="svg2"
	version="1.1"
	sodipodi:docname="manifold/peel-fish115.png.txt">
<defs
	id="defs4" />
<metadata
	id="metadata7">
	<rdf:RDF>
		<cc:Work
			rdf:about="">
			<dc:format>image/svg+xml</dc:format>
			<dc:type
				rdf:resource="http://purl.org/dc/dcmitype/StillImage" />
			<dc:title></dc:title>
		</cc:Work>
	</rdf:RDF>
</metadata>
<g
	inkscape:label="Layer 1"
	inkscape:groupmode="layer"
	id="layer1">
	<path style="fill:none;stroke:red;stroke-width:1px;stroke-linecap:butt;stroke-linejoin:miter;stroke-opacity:1" d="M 16.323,459.95 16.323,398.335 z" id="boundary" inkscape:connector-curvature="0" />
	<path style="fill:none;stroke:red;stroke-width:1px;stroke-linecap:butt;stroke-linejoin:miter;stroke-opacity:1" d="M 16.323,398.335 4,336.72 z" id="boundary" inkscape:connector-curvature="0" />
	<path style="fill:none;stroke:red;stroke-width:1px;stroke-linecap:butt;stroke-linejoin:miter;stroke-opacity:1" d="M 4,336.72 4,275.106 z" id="boundary" inkscape:connector-curvature="0" />
	<path style="fill:none;stroke:red;stroke-width:1px;stroke-linecap:butt;stroke-linejoin:miter;stroke-opacity:1" d="M 4,275.106 65.6149,275.106 z" id="boundary" inkscape:connector-curvature="0" />
	<path style="fill:none;stroke:red;stroke-width:1px;stroke-linecap:butt;stroke-linejoin:miter;stroke-opacity:1" d="M 16.323,459.95 16.323,521.565 z" id="boundary" inkscape:connector-curvature="0" />
	<path style="fill:none;stroke:red;stroke-width:1px;stroke-linecap:butt;stroke-linejoin:miter;stroke-opacity:1" d="M 16.323,521.565 16.323,583.18 z" id="boundary" inkscape:connector-curvature="0" />
	<path style="fill:none;stroke:red;stroke-width:1px;stroke-linecap:butt;stroke-linejoin:miter;stroke-opacity:1" d="M 16.323,583.18 4,657.118 z" id="boundary" inkscape:connector-curvature="0" />
	<path style="fill:none;stroke:red;stroke-width:1px;stroke-linecap:butt;stroke-linejoin:miter;stroke-opacity:1" d="M 65.6149,275.106 114.907,312.075 z" id="boundary" inkscape:connector-curvature="0" />
	<path style="fill:none;stroke:red;stroke-width:1px;stroke-linecap:butt;stroke-linejoin:miter;stroke-opacity:1" d="M 151.876,361.366 114.907,312.075 z" id="boundary" inkscape:connector-curvature="0" />
	<path style="fill:none;stroke:red;stroke-width:1px;stroke-linecap:butt;stroke-linejoin:miter;stroke-opacity:1" d="M 65.6149,737.217 4,718.733 z" id="boundary" inkscape:connector-curvature="0" />
	<path style="fill:none;stroke:red;stroke-width:1px;stroke-linecap:butt;stroke-linejoin:miter;stroke-opacity:1" d="M 4,718.733 4,657.118 z" id="boundary" inkscape:connector-curvature="0" />
	<path style="fill:none;stroke:red;stroke-width:1px;stroke-linecap:butt;stroke-linejoin:miter;stroke-opacity:1" d="M 386.012,928.224 392.174,989.839 z" id="boundary" inkscape:connector-curvature="0" />
	<path style="fill:none;stroke:red;stroke-width:1px;stroke-linecap:butt;stroke-linejoin:miter;stroke-opacity:1" d="M 114.907,700.248 65.6149,737.217 z" id="boundary" inkscape:connector-curvature="0" />
	<path style="fill:none;stroke:red;stroke-width:1px;stroke-linecap:butt;stroke-linejoin:miter;stroke-opacity:1" d="M 201.168,687.925 213.491,749.54 z" id="boundary" inkscape:connector-curvature="0" />
	<path style="fill:none;stroke:red;stroke-width:1px;stroke-linecap:butt;stroke-linejoin:miter;stroke-opacity:1" d="M 151.876,650.957 114.907,700.248 z" id="boundary" inkscape:connector-curvature="0" />
	<path style="fill:none;stroke:red;stroke-width:1px;stroke-linecap:butt;stroke-linejoin:miter;stroke-opacity:1" d="M 151.876,650.957 201.168,687.925 z" id="boundary" inkscape:connector-curvature="0" />
	<path style="fill:none;stroke:red;stroke-width:1px;stroke-linecap:butt;stroke-linejoin:miter;stroke-opacity:1" d="M 151.876,361.366 213.491,324.398 z" id="boundary" inkscape:connector-curvature="0" />
	<path style="fill:none;stroke:red;stroke-width:1px;stroke-linecap:butt;stroke-linejoin:miter;stroke-opacity:1" d="M 318.236,164.199 373.689,195.006 z" id="boundary" inkscape:connector-curvature="0" />
	<path style="fill:none;stroke:red;stroke-width:1px;stroke-linecap:butt;stroke-linejoin:miter;stroke-opacity:1" d="M 318.236,164.199 268.944,207.329 z" id="boundary" inkscape:connector-curvature="0" />
	<path style="fill:none;stroke:red;stroke-width:1px;stroke-linecap:butt;stroke-linejoin:miter;stroke-opacity:1" d="M 268.944,207.329 238.137,262.783 z" id="boundary" inkscape:connector-curvature="0" />
	<path style="fill:none;stroke:red;stroke-width:1px;stroke-linecap:butt;stroke-linejoin:miter;stroke-opacity:1" d="M 250.46,798.832 213.491,749.54 z" id="boundary" inkscape:connector-curvature="0" />
	<path style="fill:none;stroke:red;stroke-width:1px;stroke-linecap:butt;stroke-linejoin:miter;stroke-opacity:1" d="M 213.491,324.398 238.137,262.783 z" id="boundary" inkscape:connector-curvature="0" />
	<path style="fill:none;stroke:red;stroke-width:1px;stroke-linecap:butt;stroke-linejoin:miter;stroke-opacity:1" d="M 312.075,786.509 250.46,798.832 z" id="boundary" inkscape:connector-curvature="0" />
	<path style="fill:none;stroke:red;stroke-width:1px;stroke-linecap:butt;stroke-linejoin:miter;stroke-opacity:1" d="M 361.366,749.54 312.075,786.509 z" id="boundary" inkscape:connector-curvature="0" />
	<path style="fill:none;stroke:red;stroke-width:1px;stroke-linecap:butt;stroke-linejoin:miter;stroke-opacity:1" d="M 422.981,761.863 361.366,749.54 z" id="boundary" inkscape:connector-curvature="0" />
	<path style="fill:none;stroke:red;stroke-width:1px;stroke-linecap:butt;stroke-linejoin:miter;stroke-opacity:1" d="M 410.658,854.286 386.012,928.224 z" id="boundary" inkscape:connector-curvature="0" />
	<path style="fill:none;stroke:red;stroke-width:1px;stroke-linecap:butt;stroke-linejoin:miter;stroke-opacity:1" d="M 422.981,761.863 410.658,854.286 z" id="boundary" inkscape:connector-curvature="0" />
	<path style="fill:none;stroke:red;stroke-width:1px;stroke-linecap:butt;stroke-linejoin:miter;stroke-opacity:1" d="M 453.789,983.677 392.174,989.839 z" id="boundary" inkscape:connector-curvature="0" />
	<path style="fill:none;stroke:red;stroke-width:1px;stroke-linecap:butt;stroke-linejoin:miter;stroke-opacity:1" d="M 675.602,164.199 694.087,225.814 z" id="boundary" inkscape:connector-curvature="0" />
	<path style="fill:none;stroke:red;stroke-width:1px;stroke-linecap:butt;stroke-linejoin:miter;stroke-opacity:1" d="M 373.689,195.006 429.143,158.037 z" id="boundary" inkscape:connector-curvature="0" />
	<path style="fill:none;stroke:red;stroke-width:1px;stroke-linecap:butt;stroke-linejoin:miter;stroke-opacity:1" d="M 564.696,22.4845 515.404,59.4534 z" id="boundary" inkscape:connector-curvature="0" />
	<path style="fill:none;stroke:red;stroke-width:1px;stroke-linecap:butt;stroke-linejoin:miter;stroke-opacity:1" d="M 626.311,4 650.957,65.6149 z" id="boundary" inkscape:connector-curvature="0" />
	<path style="fill:none;stroke:red;stroke-width:1px;stroke-linecap:butt;stroke-linejoin:miter;stroke-opacity:1" d="M 626.311,4 564.696,22.4845 z" id="boundary" inkscape:connector-curvature="0" />
	<path style="fill:none;stroke:red;stroke-width:1px;stroke-linecap:butt;stroke-linejoin:miter;stroke-opacity:1" d="M 694.087,983.677 755.702,996 z" id="boundary" inkscape:connector-curvature="0" />
	<path style="fill:none;stroke:red;stroke-width:1px;stroke-linecap:butt;stroke-linejoin:miter;stroke-opacity:1" d="M 429.143,158.037 466.112,108.745 z" id="boundary" inkscape:connector-curvature="0" />
	<path style="fill:none;stroke:red;stroke-width:1px;stroke-linecap:butt;stroke-linejoin:miter;stroke-opacity:1" d="M 503.081,940.547 453.789,983.677 z" id="boundary" inkscape:connector-curvature="0" />
	<path style="fill:none;stroke:red;stroke-width:1px;stroke-linecap:butt;stroke-linejoin:miter;stroke-opacity:1" d="M 650.957,65.6149 675.602,164.199 z" id="boundary" inkscape:connector-curvature="0" />
	<path style="fill:none;stroke:red;stroke-width:1px;stroke-linecap:butt;stroke-linejoin:miter;stroke-opacity:1" d="M 540.05,891.255 503.081,940.547 z" id="boundary" inkscape:connector-curvature="0" />
	<path style="fill:none;stroke:red;stroke-width:1px;stroke-linecap:butt;stroke-linejoin:miter;stroke-opacity:1" d="M 466.112,108.745 515.404,59.4534 z" id="boundary" inkscape:connector-curvature="0" />
	<path style="fill:none;stroke:red;stroke-width:1px;stroke-linecap:butt;stroke-linejoin:miter;stroke-opacity:1" d="M 632.472,872.77 663.28,928.224 z" id="boundary" inkscape:connector-curvature="0" />
	<path style="fill:none;stroke:red;stroke-width:1px;stroke-linecap:butt;stroke-linejoin:miter;stroke-opacity:1" d="M 577.019,841.963 540.05,891.255 z" id="boundary" inkscape:connector-curvature="0" />
	<path style="fill:none;stroke:red;stroke-width:1px;stroke-linecap:butt;stroke-linejoin:miter;stroke-opacity:1" d="M 632.472,872.77 577.019,841.963 z" id="boundary" inkscape:connector-curvature="0" />
	<path style="fill:none;stroke:red;stroke-width:1px;stroke-linecap:butt;stroke-linejoin:miter;stroke-opacity:1" d="M 663.28,928.224 694.087,983.677 z" id="boundary" inkscape:connector-curvature="0" />
	<path style="fill:none;stroke:red;stroke-width:1px;stroke-linecap:butt;stroke-linejoin:miter;stroke-opacity:1" d="M 804.994,275.106 755.702,238.137 z" id="boundary" inkscape:connector-curvature="0" />
	<path style="fill:none;stroke:red;stroke-width:1px;stroke-linecap:butt;stroke-linejoin:miter;stroke-opacity:1" d="M 755.702,238.137 694.087,225.814 z" id="boundary" inkscape:connector-curvature="0" />
	<path style="fill:none;stroke:red;stroke-width:1px;stroke-linecap:butt;stroke-linejoin:miter;stroke-opacity:1" d="M 768.025,841.963 761.863,780.348 z" id="boundary" inkscape:connector-curvature="0" />
	<path style="fill:none;stroke:red;stroke-width:1px;stroke-linecap:butt;stroke-linejoin:miter;stroke-opacity:1" d="M 817.317,749.54 761.863,780.348 z" id="boundary" inkscape:connector-curvature="0" />
	<path style="fill:none;stroke:red;stroke-width:1px;stroke-linecap:butt;stroke-linejoin:miter;stroke-opacity:1" d="M 768.025,841.963 774.186,903.578 z" id="boundary" inkscape:connector-curvature="0" />
	<path style="fill:none;stroke:red;stroke-width:1px;stroke-linecap:butt;stroke-linejoin:miter;stroke-opacity:1" d="M 774.186,903.578 755.702,996 z" id="boundary" inkscape:connector-curvature="0" />
	<path style="fill:none;stroke:red;stroke-width:1px;stroke-linecap:butt;stroke-linejoin:miter;stroke-opacity:1" d="M 817.317,749.54 866.609,712.571 z" id="boundary" inkscape:connector-curvature="0" />
	<path style="fill:none;stroke:red;stroke-width:1px;stroke-linecap:butt;stroke-linejoin:miter;stroke-opacity:1" d="M 866.609,299.752 804.994,275.106 z" id="boundary" inkscape:connector-curvature="0" />
	<path style="fill:none;stroke:red;stroke-width:1px;stroke-linecap:butt;stroke-linejoin:miter;stroke-opacity:1" d="M 866.609,712.571 928.224,687.925 z" id="boundary" inkscape:connector-curvature="0" />
	<path style="fill:none;stroke:red;stroke-width:1px;stroke-linecap:butt;stroke-linejoin:miter;stroke-opacity:1" d="M 928.224,324.398 959.031,379.851 z" id="boundary" inkscape:connector-curvature="0" />
	<path style="fill:none;stroke:red;stroke-width:1px;stroke-linecap:butt;stroke-linejoin:miter;stroke-opacity:1" d="M 928.224,324.398 866.609,299.752 z" id="boundary" inkscape:connector-curvature="0" />
	<path style="fill:none;stroke:red;stroke-width:1px;stroke-linecap:butt;stroke-linejoin:miter;stroke-opacity:1" d="M 983.677,441.466 983.677,558.534 z" id="boundary" inkscape:connector-curvature="0" />
	<path style="fill:none;stroke:red;stroke-width:1px;stroke-linecap:butt;stroke-linejoin:miter;stroke-opacity:1" d="M 959.031,379.851 983.677,441.466 z" id="boundary" inkscape:connector-curvature="0" />
	<path style="fill:none;stroke:red;stroke-width:1px;stroke-linecap:butt;stroke-linejoin:miter;stroke-opacity:1" d="M 959.031,632.472 928.224,687.925 z" id="boundary" inkscape:connector-curvature="0" />
	<path style="fill:none;stroke:red;stroke-width:1px;stroke-linecap:butt;stroke-linejoin:miter;stroke-opacity:1" d="M 983.677,558.534 959.031,632.472 z" id="boundary" inkscape:connector-curvature="0" />
	<circle cx="4" cy="275.106" r="4" fill="#0" id="circle0"/>
	<circle cx="4" cy="336.72" r="4" fill="#0" id="circle1"/>
	<circle cx="4" cy="657.118" r="4" fill="#0" id="circle2"/>
	<circle cx="4" cy="718.733" r="4" fill="#0" id="circle3"/>
	<circle cx="16.323" cy="398.335" r="4" fill="#0" id="circle4"/>
	<circle cx="16.323" cy="459.95" r="4" fill="#0" id="circle5"/>
	<circle cx="16.323" cy="521.565" r="4" fill="#0" id="circle6"/>
	<circle cx="16.323" cy="583.18" r="4" fill="#0" id="circle7"/>
	<circle cx="65.6149" cy="275.106" r="4" fill="#0" id="circle8"/>
	<circle cx="65.6149" cy="737.217" r="4" fill="#0" id="circle9"/>
	<circle cx="114.907" cy="312.075" r="4" fill="#0" id="circle10"/>
	<circle cx="114.907" cy="700.248" r="4" fill="#0" id="circle11"/>
	<circle cx="151.876" cy="361.366" r="4" fill="#0" id="circle12"/>
	<circle cx="151.876" cy="650.957" r="4" fill="#0" id="circle13"/>
	<circle cx="201.168" cy="607.826" r="4" fill="#0" id="circle14"/>
	<circle cx="201.168" cy="687.925" r="4" fill="#0" id="circle15"/>
	<circle cx="213.491" cy="324.398" r="4" fill="#0" id="circle16"/>
	<circle cx="213.491" cy="749.54" r="4" fill="#0" id="circle17"/>
	<circle cx="238.137" cy="262.783" r="4" fill="#0" id="circle18"/>
	<circle cx="250.46" cy="798.832" r="4" fill="#0" id="circle19"/>
	<circle cx="268.944" cy="207.329" r="4" fill="#0" id="circle20"/>
	<circle cx="312.075" cy="786.509" r="4" fill="#0" id="circle21"/>
	<circle cx="318.236" cy="164.199" r="4" fill="#0" id="circle22"/>
	<circle cx="361.366" cy="749.54" r="4" fill="#0" id="circle23"/>
	<circle cx="373.689" cy="195.006" r="4" fill="#0" id="circle24"/>
	<circle cx="386.012" cy="928.224" r="4" fill="#0" id="circle25"/>
	<circle cx="392.174" cy="989.839" r="4" fill="#0" id="circle26"/>
	<circle cx="410.658" cy="854.286" r="4" fill="#0" id="circle27"/>
	<circle cx="422.981" cy="761.863" r="4" fill="#0" id="circle28"/>
	<circle cx="429.143" cy="158.037" r="4" fill="#0" id="circle29"/>
	<circle cx="453.789" cy="983.677" r="4" fill="#0" id="circle30"/>
	<circle cx="466.112" cy="108.745" r="4" fill="#0" id="circle31"/>
	<circle cx="503.081" cy="940.547" r="4" fill="#0" id="circle32"/>
	<circle cx="515.404" cy="59.4534" r="4" fill="#0" id="circle33"/>
	<circle cx="540.05" cy="891.255" r="4" fill="#0" id="circle34"/>
	<circle cx="564.696" cy="22.4845" r="4" fill="#0" id="circle35"/>
	<circle cx="577.019" cy="841.963" r="4" fill="#0" id="circle36"/>
	<circle cx="626.311" cy="4" r="4" fill="#0" id="circle37"/>
	<circle cx="632.472" cy="872.77" r="4" fill="#0" id="circle38"/>
	<circle cx="650.957" cy="65.6149" r="4" fill="#0" id="circle39"/>
	<circle cx="663.28" cy="928.224" r="4" fill="#0" id="circle40"/>
	<circle cx="675.602" cy="164.199" r="4" fill="#0" id="circle41"/>
	<circle cx="694.087" cy="225.814" r="4" fill="#0" id="circle42"/>
	<circle cx="694.087" cy="983.677" r="4" fill="#0" id="circle43"/>
	<circle cx="755.702" cy="238.137" r="4" fill="#0" id="circle44"/>
	<circle cx="755.702" cy="996" r="4" fill="#0" id="circle45"/>
	<circle cx="761.863" cy="780.348" r="4" fill="#0" id="circle46"/>
	<circle cx="768.025" cy="841.963" r="4" fill="#0" id="circle47"/>
	<circle cx="774.186" cy="903.578" r="4" fill="#0" id="circle48"/>
	<circle cx="804.994" cy="275.106" r="4" fill="#0" id="circle49"/>
	<circle cx="817.317" cy="749.54" r="4" fill="#0" id="circle50"/>
	<circle cx="866.609" cy="299.752" r="4" fill="#0" id="circle51"/>
	<circle cx="866.609" cy="712.571" r="4" fill="#0" id="circle52"/>
	<circle cx="928.224" cy="324.398" r="4" fill="#0" id="circle53"/>
	<circle cx="928.224" cy="687.925" r="4" fill="#0" id="circle54"/>
	<circle cx="959.031" cy="379.851" r="4" fill="#0" id="circle55"/>
	<circle cx="959.031" cy="632.472" r="4" fill="#0" id="circle56"/>
	<circle cx="983.677" cy="441.466" r="4" fill="#0" id="circle57"/>
	<circle cx="983.677" cy="558.534" r="4" fill="#0" id="circle58"/>
	</g>
</svg>