<?xml version="1.0" encoding="UTF-8" standalone="no"?>
<!-- Created with CurveBenchmark -->
<svg
	xmlns:dc="http://purl.org/dc/elements/1.1/"
	xmlns:cc="http://creativecommons.org/ns#"
	xmlns:rdf="http://www.w3.org/1999/02/22-rdf-syntax-ns#"
	xmlns:svg="http://www.w3.org/2000/svg"
	xmlns="http://www.w3.org/2000/svg"
	xmlns:sodipodi="http://sodipodi.sourceforge.net/DTD/sodipodi-0.dtd"
	xmlns:inkscape="http://www.inkscape.org/namespaces/inkscape"
	width="1000"
	height="1000"
	id="svg2"
	version="1.1"
	sodipodi:docname="manifold/peel-sea_snake-10.png.txt">
<defs
	id="defs4" />
<metadata
	id="metadata7">
	<rdf:RDF>
		<cc:Work
			rdf:about="">
			<dc:format>image/svg+xml</dc:format>
			<dc:type
				rdf:resource="http://purl.org/dc/dcmitype/StillImage" />
			<dc:title></dc:title>
		</cc:Work>
	</rdf:RDF>
</metadata>
<g
	inkscape:label="Layer 1"
	inkscape:groupmode="layer"
	id="layer1">
	<path style="fill:none;stroke:red;stroke-width:1px;stroke-linecap:butt;stroke-linejoin:miter;stroke-opacity:1" d="M 11.178,782.096 11.178,796.452 z" id="boundary" inkscape:connector-curvature="0" />
	<path style="fill:none;stroke:red;stroke-width:1px;stroke-linecap:butt;stroke-linejoin:miter;stroke-opacity:1" d="M 11.178,782.096 4,769.175 z" id="boundary" inkscape:connector-curvature="0" />
	<path style="fill:none;stroke:red;stroke-width:1px;stroke-linecap:butt;stroke-linejoin:miter;stroke-opacity:1" d="M 4,769.175 11.178,747.641 z" id="boundary" inkscape:connector-curvature="0" />
	<path style="fill:none;stroke:red;stroke-width:1px;stroke-linecap:butt;stroke-linejoin:miter;stroke-opacity:1" d="M 11.178,796.452 11.178,810.808 z" id="boundary" inkscape:connector-curvature="0" />
	<path style="fill:none;stroke:red;stroke-width:1px;stroke-linecap:butt;stroke-linejoin:miter;stroke-opacity:1" d="M 18.356,718.929 18.356,704.573 z" id="boundary" inkscape:connector-curvature="0" />
	<path style="fill:none;stroke:red;stroke-width:1px;stroke-linecap:butt;stroke-linejoin:miter;stroke-opacity:1" d="M 18.356,733.285 11.178,747.641 z" id="boundary" inkscape:connector-curvature="0" />
	<path style="fill:none;stroke:red;stroke-width:1px;stroke-linecap:butt;stroke-linejoin:miter;stroke-opacity:1" d="M 11.178,825.164 4,840.955 z" id="boundary" inkscape:connector-curvature="0" />
	<path style="fill:none;stroke:red;stroke-width:1px;stroke-linecap:butt;stroke-linejoin:miter;stroke-opacity:1" d="M 11.178,825.164 11.178,810.808 z" id="boundary" inkscape:connector-curvature="0" />
	<path style="fill:none;stroke:red;stroke-width:1px;stroke-linecap:butt;stroke-linejoin:miter;stroke-opacity:1" d="M 18.356,845.262 4,840.955 z" id="boundary" inkscape:connector-curvature="0" />
	<path style="fill:none;stroke:red;stroke-width:1px;stroke-linecap:butt;stroke-linejoin:miter;stroke-opacity:1" d="M 18.356,733.285 18.356,718.929 z" id="boundary" inkscape:connector-curvature="0" />
	<path style="fill:none;stroke:red;stroke-width:1px;stroke-linecap:butt;stroke-linejoin:miter;stroke-opacity:1" d="M 32.712,661.505 32.712,675.861 z" id="boundary" inkscape:connector-curvature="0" />
	<path style="fill:none;stroke:red;stroke-width:1px;stroke-linecap:butt;stroke-linejoin:miter;stroke-opacity:1" d="M 18.356,704.573 29.8408,693.088 z" id="boundary" inkscape:connector-curvature="0" />
	<path style="fill:none;stroke:red;stroke-width:1px;stroke-linecap:butt;stroke-linejoin:miter;stroke-opacity:1" d="M 32.712,859.618 32.712,873.974 z" id="boundary" inkscape:connector-curvature="0" />
	<path style="fill:none;stroke:red;stroke-width:1px;stroke-linecap:butt;stroke-linejoin:miter;stroke-opacity:1" d="M 29.8408,693.088 32.712,675.861 z" id="boundary" inkscape:connector-curvature="0" />
	<path style="fill:none;stroke:red;stroke-width:1px;stroke-linecap:butt;stroke-linejoin:miter;stroke-opacity:1" d="M 54.246,611.259 47.068,625.615 z" id="boundary" inkscape:connector-curvature="0" />
	<path style="fill:none;stroke:red;stroke-width:1px;stroke-linecap:butt;stroke-linejoin:miter;stroke-opacity:1" d="M 61.424,596.903 54.246,611.259 z" id="boundary" inkscape:connector-curvature="0" />
	<path style="fill:none;stroke:red;stroke-width:1px;stroke-linecap:butt;stroke-linejoin:miter;stroke-opacity:1" d="M 32.712,845.262 18.356,845.262 z" id="boundary" inkscape:connector-curvature="0" />
	<path style="fill:none;stroke:red;stroke-width:1px;stroke-linecap:butt;stroke-linejoin:miter;stroke-opacity:1" d="M 32.712,661.505 39.89,639.971 z" id="boundary" inkscape:connector-curvature="0" />
	<path style="fill:none;stroke:red;stroke-width:1px;stroke-linecap:butt;stroke-linejoin:miter;stroke-opacity:1" d="M 32.712,859.618 32.712,845.262 z" id="boundary" inkscape:connector-curvature="0" />
	<path style="fill:none;stroke:red;stroke-width:1px;stroke-linecap:butt;stroke-linejoin:miter;stroke-opacity:1" d="M 39.89,639.971 47.068,625.615 z" id="boundary" inkscape:connector-curvature="0" />
	<path style="fill:none;stroke:red;stroke-width:1px;stroke-linecap:butt;stroke-linejoin:miter;stroke-opacity:1" d="M 37.0188,888.33 32.712,873.974 z" id="boundary" inkscape:connector-curvature="0" />
	<path style="fill:none;stroke:red;stroke-width:1px;stroke-linecap:butt;stroke-linejoin:miter;stroke-opacity:1" d="M 84.3936,823.728 84.3936,809.372 z" id="boundary" inkscape:connector-curvature="0" />
	<path style="fill:none;stroke:red;stroke-width:1px;stroke-linecap:butt;stroke-linejoin:miter;stroke-opacity:1" d="M 44.1968,901.25 37.0188,888.33 z" id="boundary" inkscape:connector-curvature="0" />
	<path style="fill:none;stroke:red;stroke-width:1px;stroke-linecap:butt;stroke-linejoin:miter;stroke-opacity:1" d="M 87.2648,838.084 84.3936,823.728 z" id="boundary" inkscape:connector-curvature="0" />
	<path style="fill:none;stroke:red;stroke-width:1px;stroke-linecap:butt;stroke-linejoin:miter;stroke-opacity:1" d="M 91.5716,852.44 87.2648,838.084 z" id="boundary" inkscape:connector-curvature="0" />
	<path style="fill:none;stroke:red;stroke-width:1px;stroke-linecap:butt;stroke-linejoin:miter;stroke-opacity:1" d="M 54.246,927.091 54.246,912.735 z" id="boundary" inkscape:connector-curvature="0" />
	<path style="fill:none;stroke:red;stroke-width:1px;stroke-linecap:butt;stroke-linejoin:miter;stroke-opacity:1" d="M 54.246,912.735 44.1968,901.25 z" id="boundary" inkscape:connector-curvature="0" />
	<path style="fill:none;stroke:red;stroke-width:1px;stroke-linecap:butt;stroke-linejoin:miter;stroke-opacity:1" d="M 61.424,596.903 68.602,582.547 z" id="boundary" inkscape:connector-curvature="0" />
	<path style="fill:none;stroke:red;stroke-width:1px;stroke-linecap:butt;stroke-linejoin:miter;stroke-opacity:1" d="M 68.602,582.547 80.0868,571.062 z" id="boundary" inkscape:connector-curvature="0" />
	<path style="fill:none;stroke:red;stroke-width:1px;stroke-linecap:butt;stroke-linejoin:miter;stroke-opacity:1" d="M 61.424,940.012 54.246,927.091 z" id="boundary" inkscape:connector-curvature="0" />
	<path style="fill:none;stroke:red;stroke-width:1px;stroke-linecap:butt;stroke-linejoin:miter;stroke-opacity:1" d="M 91.5716,866.796 91.5716,852.44 z" id="boundary" inkscape:connector-curvature="0" />
	<path style="fill:none;stroke:red;stroke-width:1px;stroke-linecap:butt;stroke-linejoin:miter;stroke-opacity:1" d="M 80.0868,571.062 87.2648,556.706 z" id="boundary" inkscape:connector-curvature="0" />
	<path style="fill:none;stroke:red;stroke-width:1px;stroke-linecap:butt;stroke-linejoin:miter;stroke-opacity:1" d="M 91.5716,795.016 84.3936,809.372 z" id="boundary" inkscape:connector-curvature="0" />
	<path style="fill:none;stroke:red;stroke-width:1px;stroke-linecap:butt;stroke-linejoin:miter;stroke-opacity:1" d="M 85.8292,945.754 71.4732,951.496 z" id="boundary" inkscape:connector-curvature="0" />
	<path style="fill:none;stroke:red;stroke-width:1px;stroke-linecap:butt;stroke-linejoin:miter;stroke-opacity:1" d="M 71.4732,951.496 61.424,940.012 z" id="boundary" inkscape:connector-curvature="0" />
	<path style="fill:none;stroke:red;stroke-width:1px;stroke-linecap:butt;stroke-linejoin:miter;stroke-opacity:1" d="M 97.314,954.368 85.8292,945.754 z" id="boundary" inkscape:connector-curvature="0" />
	<path style="fill:none;stroke:red;stroke-width:1px;stroke-linecap:butt;stroke-linejoin:miter;stroke-opacity:1" d="M 91.5716,881.152 91.5716,866.796 z" id="boundary" inkscape:connector-curvature="0" />
	<path style="fill:none;stroke:red;stroke-width:1px;stroke-linecap:butt;stroke-linejoin:miter;stroke-opacity:1" d="M 87.2648,556.706 94.4428,542.35 z" id="boundary" inkscape:connector-curvature="0" />
	<path style="fill:none;stroke:red;stroke-width:1px;stroke-linecap:butt;stroke-linejoin:miter;stroke-opacity:1" d="M 91.5716,795.016 98.7496,780.66 z" id="boundary" inkscape:connector-curvature="0" />
	<path style="fill:none;stroke:red;stroke-width:1px;stroke-linecap:butt;stroke-linejoin:miter;stroke-opacity:1" d="M 98.7496,780.66 110.234,770.611 z" id="boundary" inkscape:connector-curvature="0" />
	<path style="fill:none;stroke:red;stroke-width:1px;stroke-linecap:butt;stroke-linejoin:miter;stroke-opacity:1" d="M 91.5716,881.152 98.7496,894.072 z" id="boundary" inkscape:connector-curvature="0" />
	<path style="fill:none;stroke:red;stroke-width:1px;stroke-linecap:butt;stroke-linejoin:miter;stroke-opacity:1" d="M 98.7496,894.072 105.928,906.993 z" id="boundary" inkscape:connector-curvature="0" />
	<path style="fill:none;stroke:red;stroke-width:1px;stroke-linecap:butt;stroke-linejoin:miter;stroke-opacity:1" d="M 107.363,965.852 97.314,954.368 z" id="boundary" inkscape:connector-curvature="0" />
	<path style="fill:none;stroke:red;stroke-width:1px;stroke-linecap:butt;stroke-linejoin:miter;stroke-opacity:1" d="M 105.928,906.993 113.106,919.913 z" id="boundary" inkscape:connector-curvature="0" />
	<path style="fill:none;stroke:red;stroke-width:1px;stroke-linecap:butt;stroke-linejoin:miter;stroke-opacity:1" d="M 94.4428,542.35 101.621,527.994 z" id="boundary" inkscape:connector-curvature="0" />
	<path style="fill:none;stroke:red;stroke-width:1px;stroke-linecap:butt;stroke-linejoin:miter;stroke-opacity:1" d="M 118.848,974.466 107.363,965.852 z" id="boundary" inkscape:connector-curvature="0" />
	<path style="fill:none;stroke:red;stroke-width:1px;stroke-linecap:butt;stroke-linejoin:miter;stroke-opacity:1" d="M 111.67,510.767 123.155,499.282 z" id="boundary" inkscape:connector-curvature="0" />
	<path style="fill:none;stroke:red;stroke-width:1px;stroke-linecap:butt;stroke-linejoin:miter;stroke-opacity:1" d="M 111.67,510.767 101.621,527.994 z" id="boundary" inkscape:connector-curvature="0" />
	<path style="fill:none;stroke:red;stroke-width:1px;stroke-linecap:butt;stroke-linejoin:miter;stroke-opacity:1" d="M 113.106,919.913 124.59,929.962 z" id="boundary" inkscape:connector-curvature="0" />
	<path style="fill:none;stroke:red;stroke-width:1px;stroke-linecap:butt;stroke-linejoin:miter;stroke-opacity:1" d="M 117.412,756.255 110.234,770.611 z" id="boundary" inkscape:connector-curvature="0" />
	<path style="fill:none;stroke:red;stroke-width:1px;stroke-linecap:butt;stroke-linejoin:miter;stroke-opacity:1" d="M 127.462,737.592 117.412,756.255 z" id="boundary" inkscape:connector-curvature="0" />
	<path style="fill:none;stroke:red;stroke-width:1px;stroke-linecap:butt;stroke-linejoin:miter;stroke-opacity:1" d="M 134.64,487.797 123.155,499.282 z" id="boundary" inkscape:connector-curvature="0" />
	<path style="fill:none;stroke:red;stroke-width:1px;stroke-linecap:butt;stroke-linejoin:miter;stroke-opacity:1" d="M 124.59,929.962 137.511,937.14 z" id="boundary" inkscape:connector-curvature="0" />
	<path style="fill:none;stroke:red;stroke-width:1px;stroke-linecap:butt;stroke-linejoin:miter;stroke-opacity:1" d="M 127.462,737.592 134.64,723.236 z" id="boundary" inkscape:connector-curvature="0" />
	<path style="fill:none;stroke:red;stroke-width:1px;stroke-linecap:butt;stroke-linejoin:miter;stroke-opacity:1" d="M 156.174,978.773 170.53,984.515 z" id="boundary" inkscape:connector-curvature="0" />
	<path style="fill:none;stroke:red;stroke-width:1px;stroke-linecap:butt;stroke-linejoin:miter;stroke-opacity:1" d="M 141.818,708.88 153.302,698.831 z" id="boundary" inkscape:connector-curvature="0" />
	<path style="fill:none;stroke:red;stroke-width:1px;stroke-linecap:butt;stroke-linejoin:miter;stroke-opacity:1" d="M 141.818,708.88 134.64,723.236 z" id="boundary" inkscape:connector-curvature="0" />
	<path style="fill:none;stroke:red;stroke-width:1px;stroke-linecap:butt;stroke-linejoin:miter;stroke-opacity:1" d="M 133.204,974.466 118.848,974.466 z" id="boundary" inkscape:connector-curvature="0" />
	<path style="fill:none;stroke:red;stroke-width:1px;stroke-linecap:butt;stroke-linejoin:miter;stroke-opacity:1" d="M 146.124,967.288 133.204,974.466 z" id="boundary" inkscape:connector-curvature="0" />
	<path style="fill:none;stroke:red;stroke-width:1px;stroke-linecap:butt;stroke-linejoin:miter;stroke-opacity:1" d="M 146.124,477.748 134.64,487.797 z" id="boundary" inkscape:connector-curvature="0" />
	<path style="fill:none;stroke:red;stroke-width:1px;stroke-linecap:butt;stroke-linejoin:miter;stroke-opacity:1" d="M 151.867,463.392 161.916,446.165 z" id="boundary" inkscape:connector-curvature="0" />
	<path style="fill:none;stroke:red;stroke-width:1px;stroke-linecap:butt;stroke-linejoin:miter;stroke-opacity:1" d="M 161.916,446.165 173.401,434.68 z" id="boundary" inkscape:connector-curvature="0" />
	<path style="fill:none;stroke:red;stroke-width:1px;stroke-linecap:butt;stroke-linejoin:miter;stroke-opacity:1" d="M 150.431,944.318 137.511,937.14 z" id="boundary" inkscape:connector-curvature="0" />
	<path style="fill:none;stroke:red;stroke-width:1px;stroke-linecap:butt;stroke-linejoin:miter;stroke-opacity:1" d="M 156.174,978.773 146.124,967.288 z" id="boundary" inkscape:connector-curvature="0" />
	<path style="fill:none;stroke:red;stroke-width:1px;stroke-linecap:butt;stroke-linejoin:miter;stroke-opacity:1" d="M 163.352,951.496 150.431,944.318 z" id="boundary" inkscape:connector-curvature="0" />
	<path style="fill:none;stroke:red;stroke-width:1px;stroke-linecap:butt;stroke-linejoin:miter;stroke-opacity:1" d="M 146.124,477.748 151.867,463.392 z" id="boundary" inkscape:connector-curvature="0" />
	<path style="fill:none;stroke:red;stroke-width:1px;stroke-linecap:butt;stroke-linejoin:miter;stroke-opacity:1" d="M 163.352,687.346 153.302,698.831 z" id="boundary" inkscape:connector-curvature="0" />
	<path style="fill:none;stroke:red;stroke-width:1px;stroke-linecap:butt;stroke-linejoin:miter;stroke-opacity:1" d="M 242.31,351.415 235.132,365.771 z" id="boundary" inkscape:connector-curvature="0" />
	<path style="fill:none;stroke:red;stroke-width:1px;stroke-linecap:butt;stroke-linejoin:miter;stroke-opacity:1" d="M 170.53,672.99 182.014,662.941 z" id="boundary" inkscape:connector-curvature="0" />
	<path style="fill:none;stroke:red;stroke-width:1px;stroke-linecap:butt;stroke-linejoin:miter;stroke-opacity:1" d="M 170.53,672.99 163.352,687.346 z" id="boundary" inkscape:connector-curvature="0" />
	<path style="fill:none;stroke:red;stroke-width:1px;stroke-linecap:butt;stroke-linejoin:miter;stroke-opacity:1" d="M 163.352,951.496 177.708,951.496 z" id="boundary" inkscape:connector-curvature="0" />
	<path style="fill:none;stroke:red;stroke-width:1px;stroke-linecap:butt;stroke-linejoin:miter;stroke-opacity:1" d="M 184.886,988.822 170.53,984.515 z" id="boundary" inkscape:connector-curvature="0" />
	<path style="fill:none;stroke:red;stroke-width:1px;stroke-linecap:butt;stroke-linejoin:miter;stroke-opacity:1" d="M 184.886,423.195 173.401,434.68 z" id="boundary" inkscape:connector-curvature="0" />
	<path style="fill:none;stroke:red;stroke-width:1px;stroke-linecap:butt;stroke-linejoin:miter;stroke-opacity:1" d="M 192.064,651.456 203.548,641.407 z" id="boundary" inkscape:connector-curvature="0" />
	<path style="fill:none;stroke:red;stroke-width:1px;stroke-linecap:butt;stroke-linejoin:miter;stroke-opacity:1" d="M 203.548,641.407 217.904,634.229 z" id="boundary" inkscape:connector-curvature="0" />
	<path style="fill:none;stroke:red;stroke-width:1px;stroke-linecap:butt;stroke-linejoin:miter;stroke-opacity:1" d="M 192.064,651.456 182.014,662.941 z" id="boundary" inkscape:connector-curvature="0" />
	<path style="fill:none;stroke:red;stroke-width:1px;stroke-linecap:butt;stroke-linejoin:miter;stroke-opacity:1" d="M 177.708,951.496 192.064,951.496 z" id="boundary" inkscape:connector-curvature="0" />
	<path style="fill:none;stroke:red;stroke-width:1px;stroke-linecap:butt;stroke-linejoin:miter;stroke-opacity:1" d="M 204.984,958.674 192.064,951.496 z" id="boundary" inkscape:connector-curvature="0" />
	<path style="fill:none;stroke:red;stroke-width:1px;stroke-linecap:butt;stroke-linejoin:miter;stroke-opacity:1" d="M 184.886,423.195 196.37,413.146 z" id="boundary" inkscape:connector-curvature="0" />
	<path style="fill:none;stroke:red;stroke-width:1px;stroke-linecap:butt;stroke-linejoin:miter;stroke-opacity:1" d="M 213.598,996 199.242,991.693 z" id="boundary" inkscape:connector-curvature="0" />
	<path style="fill:none;stroke:red;stroke-width:1px;stroke-linecap:butt;stroke-linejoin:miter;stroke-opacity:1" d="M 199.242,991.693 184.886,988.822 z" id="boundary" inkscape:connector-curvature="0" />
	<path style="fill:none;stroke:red;stroke-width:1px;stroke-linecap:butt;stroke-linejoin:miter;stroke-opacity:1" d="M 196.37,413.146 206.42,401.661 z" id="boundary" inkscape:connector-curvature="0" />
	<path style="fill:none;stroke:red;stroke-width:1px;stroke-linecap:butt;stroke-linejoin:miter;stroke-opacity:1" d="M 217.904,391.612 206.42,401.661 z" id="boundary" inkscape:connector-curvature="0" />
	<path style="fill:none;stroke:red;stroke-width:1px;stroke-linecap:butt;stroke-linejoin:miter;stroke-opacity:1" d="M 204.984,958.674 219.34,955.803 z" id="boundary" inkscape:connector-curvature="0" />
	<path style="fill:none;stroke:red;stroke-width:1px;stroke-linecap:butt;stroke-linejoin:miter;stroke-opacity:1" d="M 227.954,380.127 217.904,391.612 z" id="boundary" inkscape:connector-curvature="0" />
	<path style="fill:none;stroke:red;stroke-width:1px;stroke-linecap:butt;stroke-linejoin:miter;stroke-opacity:1" d="M 217.904,634.229 227.954,622.744 z" id="boundary" inkscape:connector-curvature="0" />
	<path style="fill:none;stroke:red;stroke-width:1px;stroke-linecap:butt;stroke-linejoin:miter;stroke-opacity:1" d="M 227.954,996 213.598,996 z" id="boundary" inkscape:connector-curvature="0" />
	<path style="fill:none;stroke:red;stroke-width:1px;stroke-linecap:butt;stroke-linejoin:miter;stroke-opacity:1" d="M 227.954,622.744 239.438,612.695 z" id="boundary" inkscape:connector-curvature="0" />
	<path style="fill:none;stroke:red;stroke-width:1px;stroke-linecap:butt;stroke-linejoin:miter;stroke-opacity:1" d="M 233.696,951.496 219.34,955.803 z" id="boundary" inkscape:connector-curvature="0" />
	<path style="fill:none;stroke:red;stroke-width:1px;stroke-linecap:butt;stroke-linejoin:miter;stroke-opacity:1" d="M 240.874,988.822 227.954,996 z" id="boundary" inkscape:connector-curvature="0" />
	<path style="fill:none;stroke:red;stroke-width:1px;stroke-linecap:butt;stroke-linejoin:miter;stroke-opacity:1" d="M 227.954,380.127 235.132,365.771 z" id="boundary" inkscape:connector-curvature="0" />
	<path style="fill:none;stroke:red;stroke-width:1px;stroke-linecap:butt;stroke-linejoin:miter;stroke-opacity:1" d="M 242.31,351.415 253.795,341.366 z" id="boundary" inkscape:connector-curvature="0" />
	<path style="fill:none;stroke:red;stroke-width:1px;stroke-linecap:butt;stroke-linejoin:miter;stroke-opacity:1" d="M 246.616,598.339 256.666,586.854 z" id="boundary" inkscape:connector-curvature="0" />
	<path style="fill:none;stroke:red;stroke-width:1px;stroke-linecap:butt;stroke-linejoin:miter;stroke-opacity:1" d="M 246.616,598.339 239.438,612.695 z" id="boundary" inkscape:connector-curvature="0" />
	<path style="fill:none;stroke:red;stroke-width:1px;stroke-linecap:butt;stroke-linejoin:miter;stroke-opacity:1" d="M 233.696,951.496 246.616,944.318 z" id="boundary" inkscape:connector-curvature="0" />
	<path style="fill:none;stroke:red;stroke-width:1px;stroke-linecap:butt;stroke-linejoin:miter;stroke-opacity:1" d="M 253.795,981.644 240.874,988.822 z" id="boundary" inkscape:connector-curvature="0" />
	<path style="fill:none;stroke:red;stroke-width:1px;stroke-linecap:butt;stroke-linejoin:miter;stroke-opacity:1" d="M 256.666,586.854 268.151,576.805 z" id="boundary" inkscape:connector-curvature="0" />
	<path style="fill:none;stroke:red;stroke-width:1px;stroke-linecap:butt;stroke-linejoin:miter;stroke-opacity:1" d="M 253.795,341.366 262.408,324.139 z" id="boundary" inkscape:connector-curvature="0" />
	<path style="fill:none;stroke:red;stroke-width:1px;stroke-linecap:butt;stroke-linejoin:miter;stroke-opacity:1" d="M 259.537,937.14 246.616,944.318 z" id="boundary" inkscape:connector-curvature="0" />
	<path style="fill:none;stroke:red;stroke-width:1px;stroke-linecap:butt;stroke-linejoin:miter;stroke-opacity:1" d="M 266.715,974.466 253.795,981.644 z" id="boundary" inkscape:connector-curvature="0" />
	<path style="fill:none;stroke:red;stroke-width:1px;stroke-linecap:butt;stroke-linejoin:miter;stroke-opacity:1" d="M 262.408,324.139 273.893,312.654 z" id="boundary" inkscape:connector-curvature="0" />
	<path style="fill:none;stroke:red;stroke-width:1px;stroke-linecap:butt;stroke-linejoin:miter;stroke-opacity:1" d="M 259.537,937.14 271.022,925.656 z" id="boundary" inkscape:connector-curvature="0" />
	<path style="fill:none;stroke:red;stroke-width:1px;stroke-linecap:butt;stroke-linejoin:miter;stroke-opacity:1" d="M 268.151,576.805 278.2,565.32 z" id="boundary" inkscape:connector-curvature="0" />
	<path style="fill:none;stroke:red;stroke-width:1px;stroke-linecap:butt;stroke-linejoin:miter;stroke-opacity:1" d="M 279.635,967.288 266.715,974.466 z" id="boundary" inkscape:connector-curvature="0" />
	<path style="fill:none;stroke:red;stroke-width:1px;stroke-linecap:butt;stroke-linejoin:miter;stroke-opacity:1" d="M 299.734,293.991 285.378,301.169 z" id="boundary" inkscape:connector-curvature="0" />
	<path style="fill:none;stroke:red;stroke-width:1px;stroke-linecap:butt;stroke-linejoin:miter;stroke-opacity:1" d="M 285.378,301.169 273.893,312.654 z" id="boundary" inkscape:connector-curvature="0" />
	<path style="fill:none;stroke:red;stroke-width:1px;stroke-linecap:butt;stroke-linejoin:miter;stroke-opacity:1" d="M 278.2,565.32 289.685,555.271 z" id="boundary" inkscape:connector-curvature="0" />
	<path style="fill:none;stroke:red;stroke-width:1px;stroke-linecap:butt;stroke-linejoin:miter;stroke-opacity:1" d="M 283.942,912.735 271.022,925.656 z" id="boundary" inkscape:connector-curvature="0" />
	<path style="fill:none;stroke:red;stroke-width:1px;stroke-linecap:butt;stroke-linejoin:miter;stroke-opacity:1" d="M 292.556,960.11 279.635,967.288 z" id="boundary" inkscape:connector-curvature="0" />
	<path style="fill:none;stroke:red;stroke-width:1px;stroke-linecap:butt;stroke-linejoin:miter;stroke-opacity:1" d="M 295.427,901.25 283.942,912.735 z" id="boundary" inkscape:connector-curvature="0" />
	<path style="fill:none;stroke:red;stroke-width:1px;stroke-linecap:butt;stroke-linejoin:miter;stroke-opacity:1" d="M 289.685,555.271 299.734,536.608 z" id="boundary" inkscape:connector-curvature="0" />
	<path style="fill:none;stroke:red;stroke-width:1px;stroke-linecap:butt;stroke-linejoin:miter;stroke-opacity:1" d="M 304.041,950.061 292.556,960.11 z" id="boundary" inkscape:connector-curvature="0" />
	<path style="fill:none;stroke:red;stroke-width:1px;stroke-linecap:butt;stroke-linejoin:miter;stroke-opacity:1" d="M 299.734,536.608 311.219,526.559 z" id="boundary" inkscape:connector-curvature="0" />
	<path style="fill:none;stroke:red;stroke-width:1px;stroke-linecap:butt;stroke-linejoin:miter;stroke-opacity:1" d="M 311.219,283.942 299.734,293.991 z" id="boundary" inkscape:connector-curvature="0" />
	<path style="fill:none;stroke:red;stroke-width:1px;stroke-linecap:butt;stroke-linejoin:miter;stroke-opacity:1" d="M 306.912,889.766 295.427,901.25 z" id="boundary" inkscape:connector-curvature="0" />
	<path style="fill:none;stroke:red;stroke-width:1px;stroke-linecap:butt;stroke-linejoin:miter;stroke-opacity:1" d="M 314.09,938.576 304.041,950.061 z" id="boundary" inkscape:connector-curvature="0" />
	<path style="fill:none;stroke:red;stroke-width:1px;stroke-linecap:butt;stroke-linejoin:miter;stroke-opacity:1" d="M 321.268,272.457 332.753,262.408 z" id="boundary" inkscape:connector-curvature="0" />
	<path style="fill:none;stroke:red;stroke-width:1px;stroke-linecap:butt;stroke-linejoin:miter;stroke-opacity:1" d="M 318.397,879.716 306.912,889.766 z" id="boundary" inkscape:connector-curvature="0" />
	<path style="fill:none;stroke:red;stroke-width:1px;stroke-linecap:butt;stroke-linejoin:miter;stroke-opacity:1" d="M 325.575,928.527 314.09,938.576 z" id="boundary" inkscape:connector-curvature="0" />
	<path style="fill:none;stroke:red;stroke-width:1px;stroke-linecap:butt;stroke-linejoin:miter;stroke-opacity:1" d="M 311.219,526.559 321.268,507.896 z" id="boundary" inkscape:connector-curvature="0" />
	<path style="fill:none;stroke:red;stroke-width:1px;stroke-linecap:butt;stroke-linejoin:miter;stroke-opacity:1" d="M 311.219,283.942 321.268,272.457 z" id="boundary" inkscape:connector-curvature="0" />
	<path style="fill:none;stroke:red;stroke-width:1px;stroke-linecap:butt;stroke-linejoin:miter;stroke-opacity:1" d="M 321.268,507.896 332.753,497.847 z" id="boundary" inkscape:connector-curvature="0" />
	<path style="fill:none;stroke:red;stroke-width:1px;stroke-linecap:butt;stroke-linejoin:miter;stroke-opacity:1" d="M 328.446,868.232 318.397,879.716 z" id="boundary" inkscape:connector-curvature="0" />
	<path style="fill:none;stroke:red;stroke-width:1px;stroke-linecap:butt;stroke-linejoin:miter;stroke-opacity:1" d="M 335.624,909.864 325.575,928.527 z" id="boundary" inkscape:connector-curvature="0" />
	<path style="fill:none;stroke:red;stroke-width:1px;stroke-linecap:butt;stroke-linejoin:miter;stroke-opacity:1" d="M 332.753,497.847 342.802,486.362 z" id="boundary" inkscape:connector-curvature="0" />
	<path style="fill:none;stroke:red;stroke-width:1px;stroke-linecap:butt;stroke-linejoin:miter;stroke-opacity:1" d="M 342.802,250.923 354.287,240.874 z" id="boundary" inkscape:connector-curvature="0" />
	<path style="fill:none;stroke:red;stroke-width:1px;stroke-linecap:butt;stroke-linejoin:miter;stroke-opacity:1" d="M 339.931,858.182 328.446,868.232 z" id="boundary" inkscape:connector-curvature="0" />
	<path style="fill:none;stroke:red;stroke-width:1px;stroke-linecap:butt;stroke-linejoin:miter;stroke-opacity:1" d="M 357.158,881.152 368.643,871.103 z" id="boundary" inkscape:connector-curvature="0" />
	<path style="fill:none;stroke:red;stroke-width:1px;stroke-linecap:butt;stroke-linejoin:miter;stroke-opacity:1" d="M 342.802,895.508 335.624,909.864 z" id="boundary" inkscape:connector-curvature="0" />
	<path style="fill:none;stroke:red;stroke-width:1px;stroke-linecap:butt;stroke-linejoin:miter;stroke-opacity:1" d="M 332.753,262.408 342.802,250.923 z" id="boundary" inkscape:connector-curvature="0" />
	<path style="fill:none;stroke:red;stroke-width:1px;stroke-linecap:butt;stroke-linejoin:miter;stroke-opacity:1" d="M 342.802,486.362 354.287,476.313 z" id="boundary" inkscape:connector-curvature="0" />
	<path style="fill:none;stroke:red;stroke-width:1px;stroke-linecap:butt;stroke-linejoin:miter;stroke-opacity:1" d="M 349.98,846.698 339.931,858.182 z" id="boundary" inkscape:connector-curvature="0" />
	<path style="fill:none;stroke:red;stroke-width:1px;stroke-linecap:butt;stroke-linejoin:miter;stroke-opacity:1" d="M 357.158,881.152 342.802,895.508 z" id="boundary" inkscape:connector-curvature="0" />
	<path style="fill:none;stroke:red;stroke-width:1px;stroke-linecap:butt;stroke-linejoin:miter;stroke-opacity:1" d="M 364.336,229.389 375.821,219.34 z" id="boundary" inkscape:connector-curvature="0" />
	<path style="fill:none;stroke:red;stroke-width:1px;stroke-linecap:butt;stroke-linejoin:miter;stroke-opacity:1" d="M 364.336,464.828 375.821,454.779 z" id="boundary" inkscape:connector-curvature="0" />
	<path style="fill:none;stroke:red;stroke-width:1px;stroke-linecap:butt;stroke-linejoin:miter;stroke-opacity:1" d="M 354.287,476.313 364.336,464.828 z" id="boundary" inkscape:connector-curvature="0" />
	<path style="fill:none;stroke:red;stroke-width:1px;stroke-linecap:butt;stroke-linejoin:miter;stroke-opacity:1" d="M 354.287,240.874 364.336,229.389 z" id="boundary" inkscape:connector-curvature="0" />
	<path style="fill:none;stroke:red;stroke-width:1px;stroke-linecap:butt;stroke-linejoin:miter;stroke-opacity:1" d="M 371.514,825.164 364.336,839.52 z" id="boundary" inkscape:connector-curvature="0" />
	<path style="fill:none;stroke:red;stroke-width:1px;stroke-linecap:butt;stroke-linejoin:miter;stroke-opacity:1" d="M 364.336,839.52 349.98,846.698 z" id="boundary" inkscape:connector-curvature="0" />
	<path style="fill:none;stroke:red;stroke-width:1px;stroke-linecap:butt;stroke-linejoin:miter;stroke-opacity:1" d="M 378.692,859.618 390.177,849.569 z" id="boundary" inkscape:connector-curvature="0" />
	<path style="fill:none;stroke:red;stroke-width:1px;stroke-linecap:butt;stroke-linejoin:miter;stroke-opacity:1" d="M 378.692,859.618 368.643,871.103 z" id="boundary" inkscape:connector-curvature="0" />
	<path style="fill:none;stroke:red;stroke-width:1px;stroke-linecap:butt;stroke-linejoin:miter;stroke-opacity:1" d="M 384.434,202.113 395.919,190.628 z" id="boundary" inkscape:connector-curvature="0" />
	<path style="fill:none;stroke:red;stroke-width:1px;stroke-linecap:butt;stroke-linejoin:miter;stroke-opacity:1" d="M 384.434,202.113 375.821,219.34 z" id="boundary" inkscape:connector-curvature="0" />
	<path style="fill:none;stroke:red;stroke-width:1px;stroke-linecap:butt;stroke-linejoin:miter;stroke-opacity:1" d="M 382.999,815.114 371.514,825.164 z" id="boundary" inkscape:connector-curvature="0" />
	<path style="fill:none;stroke:red;stroke-width:1px;stroke-linecap:butt;stroke-linejoin:miter;stroke-opacity:1" d="M 375.821,454.779 385.87,443.294 z" id="boundary" inkscape:connector-curvature="0" />
	<path style="fill:none;stroke:red;stroke-width:1px;stroke-linecap:butt;stroke-linejoin:miter;stroke-opacity:1" d="M 385.87,443.294 397.355,433.245 z" id="boundary" inkscape:connector-curvature="0" />
	<path style="fill:none;stroke:red;stroke-width:1px;stroke-linecap:butt;stroke-linejoin:miter;stroke-opacity:1" d="M 395.919,190.628 407.404,179.143 z" id="boundary" inkscape:connector-curvature="0" />
	<path style="fill:none;stroke:red;stroke-width:1px;stroke-linecap:butt;stroke-linejoin:miter;stroke-opacity:1" d="M 393.048,803.63 382.999,815.114 z" id="boundary" inkscape:connector-curvature="0" />
	<path style="fill:none;stroke:red;stroke-width:1px;stroke-linecap:butt;stroke-linejoin:miter;stroke-opacity:1" d="M 461.957,763.433 472.006,751.948 z" id="boundary" inkscape:connector-curvature="0" />
	<path style="fill:none;stroke:red;stroke-width:1px;stroke-linecap:butt;stroke-linejoin:miter;stroke-opacity:1" d="M 472.006,751.948 483.491,741.899 z" id="boundary" inkscape:connector-curvature="0" />
	<path style="fill:none;stroke:red;stroke-width:1px;stroke-linecap:butt;stroke-linejoin:miter;stroke-opacity:1" d="M 400.226,830.906 390.177,849.569 z" id="boundary" inkscape:connector-curvature="0" />
	<path style="fill:none;stroke:red;stroke-width:1px;stroke-linecap:butt;stroke-linejoin:miter;stroke-opacity:1" d="M 404.533,793.58 393.048,803.63 z" id="boundary" inkscape:connector-curvature="0" />
	<path style="fill:none;stroke:red;stroke-width:1px;stroke-linecap:butt;stroke-linejoin:miter;stroke-opacity:1" d="M 411.711,820.857 400.226,830.906 z" id="boundary" inkscape:connector-curvature="0" />
	<path style="fill:none;stroke:red;stroke-width:1px;stroke-linecap:butt;stroke-linejoin:miter;stroke-opacity:1" d="M 417.453,757.69 405.968,769.175 z" id="boundary" inkscape:connector-curvature="0" />
	<path style="fill:none;stroke:red;stroke-width:1px;stroke-linecap:butt;stroke-linejoin:miter;stroke-opacity:1" d="M 407.404,421.76 397.355,433.245 z" id="boundary" inkscape:connector-curvature="0" />
	<path style="fill:none;stroke:red;stroke-width:1px;stroke-linecap:butt;stroke-linejoin:miter;stroke-opacity:1" d="M 414.582,407.404 407.404,421.76 z" id="boundary" inkscape:connector-curvature="0" />
	<path style="fill:none;stroke:red;stroke-width:1px;stroke-linecap:butt;stroke-linejoin:miter;stroke-opacity:1" d="M 414.582,407.404 426.067,397.355 z" id="boundary" inkscape:connector-curvature="0" />
	<path style="fill:none;stroke:red;stroke-width:1px;stroke-linecap:butt;stroke-linejoin:miter;stroke-opacity:1" d="M 440.423,784.967 450.472,773.482 z" id="boundary" inkscape:connector-curvature="0" />
	<path style="fill:none;stroke:red;stroke-width:1px;stroke-linecap:butt;stroke-linejoin:miter;stroke-opacity:1" d="M 450.472,773.482 461.957,763.433 z" id="boundary" inkscape:connector-curvature="0" />
	<path style="fill:none;stroke:red;stroke-width:1px;stroke-linecap:butt;stroke-linejoin:miter;stroke-opacity:1" d="M 427.502,151.867 418.889,169.094 z" id="boundary" inkscape:connector-curvature="0" />
	<path style="fill:none;stroke:red;stroke-width:1px;stroke-linecap:butt;stroke-linejoin:miter;stroke-opacity:1" d="M 418.889,169.094 407.404,179.143 z" id="boundary" inkscape:connector-curvature="0" />
	<path style="fill:none;stroke:red;stroke-width:1px;stroke-linecap:butt;stroke-linejoin:miter;stroke-opacity:1" d="M 418.889,806.501 411.711,820.857 z" id="boundary" inkscape:connector-curvature="0" />
	<path style="fill:none;stroke:red;stroke-width:1px;stroke-linecap:butt;stroke-linejoin:miter;stroke-opacity:1" d="M 428.938,795.016 418.889,806.501 z" id="boundary" inkscape:connector-curvature="0" />
	<path style="fill:none;stroke:red;stroke-width:1px;stroke-linecap:butt;stroke-linejoin:miter;stroke-opacity:1" d="M 427.502,151.867 438.987,140.382 z" id="boundary" inkscape:connector-curvature="0" />
	<path style="fill:none;stroke:red;stroke-width:1px;stroke-linecap:butt;stroke-linejoin:miter;stroke-opacity:1" d="M 427.502,726.107 427.502,740.463 z" id="boundary" inkscape:connector-curvature="0" />
	<path style="fill:none;stroke:red;stroke-width:1px;stroke-linecap:butt;stroke-linejoin:miter;stroke-opacity:1" d="M 427.502,740.463 417.453,757.69 z" id="boundary" inkscape:connector-curvature="0" />
	<path style="fill:none;stroke:red;stroke-width:1px;stroke-linecap:butt;stroke-linejoin:miter;stroke-opacity:1" d="M 427.502,726.107 438.987,714.622 z" id="boundary" inkscape:connector-curvature="0" />
	<path style="fill:none;stroke:red;stroke-width:1px;stroke-linecap:butt;stroke-linejoin:miter;stroke-opacity:1" d="M 426.067,397.355 436.116,385.87 z" id="boundary" inkscape:connector-curvature="0" />
	<path style="fill:none;stroke:red;stroke-width:1px;stroke-linecap:butt;stroke-linejoin:miter;stroke-opacity:1" d="M 440.423,784.967 428.938,795.016 z" id="boundary" inkscape:connector-curvature="0" />
	<path style="fill:none;stroke:red;stroke-width:1px;stroke-linecap:butt;stroke-linejoin:miter;stroke-opacity:1" d="M 438.987,140.382 450.472,128.897 z" id="boundary" inkscape:connector-curvature="0" />
	<path style="fill:none;stroke:red;stroke-width:1px;stroke-linecap:butt;stroke-linejoin:miter;stroke-opacity:1" d="M 443.294,371.514 436.116,385.87 z" id="boundary" inkscape:connector-curvature="0" />
	<path style="fill:none;stroke:red;stroke-width:1px;stroke-linecap:butt;stroke-linejoin:miter;stroke-opacity:1" d="M 443.294,371.514 454.779,361.465 z" id="boundary" inkscape:connector-curvature="0" />
	<path style="fill:none;stroke:red;stroke-width:1px;stroke-linecap:butt;stroke-linejoin:miter;stroke-opacity:1" d="M 438.987,714.622 450.472,703.137 z" id="boundary" inkscape:connector-curvature="0" />
	<path style="fill:none;stroke:red;stroke-width:1px;stroke-linecap:butt;stroke-linejoin:miter;stroke-opacity:1" d="M 461.957,118.848 450.472,128.897 z" id="boundary" inkscape:connector-curvature="0" />
	<path style="fill:none;stroke:red;stroke-width:1px;stroke-linecap:butt;stroke-linejoin:miter;stroke-opacity:1" d="M 503.589,298.298 492.104,306.912 z" id="boundary" inkscape:connector-curvature="0" />
	<path style="fill:none;stroke:red;stroke-width:1px;stroke-linecap:butt;stroke-linejoin:miter;stroke-opacity:1" d="M 454.779,361.465 461.957,347.109 z" id="boundary" inkscape:connector-curvature="0" />
	<path style="fill:none;stroke:red;stroke-width:1px;stroke-linecap:butt;stroke-linejoin:miter;stroke-opacity:1" d="M 450.472,703.137 461.957,693.088 z" id="boundary" inkscape:connector-curvature="0" />
	<path style="fill:none;stroke:red;stroke-width:1px;stroke-linecap:butt;stroke-linejoin:miter;stroke-opacity:1" d="M 461.957,118.848 470.57,101.621 z" id="boundary" inkscape:connector-curvature="0" />
	<path style="fill:none;stroke:red;stroke-width:1px;stroke-linecap:butt;stroke-linejoin:miter;stroke-opacity:1" d="M 470.57,101.621 482.055,90.136 z" id="boundary" inkscape:connector-curvature="0" />
	<path style="fill:none;stroke:red;stroke-width:1px;stroke-linecap:butt;stroke-linejoin:miter;stroke-opacity:1" d="M 461.957,347.109 472.006,328.446 z" id="boundary" inkscape:connector-curvature="0" />
	<path style="fill:none;stroke:red;stroke-width:1px;stroke-linecap:butt;stroke-linejoin:miter;stroke-opacity:1" d="M 461.957,693.088 472.006,681.603 z" id="boundary" inkscape:connector-curvature="0" />
	<path style="fill:none;stroke:red;stroke-width:1px;stroke-linecap:butt;stroke-linejoin:miter;stroke-opacity:1" d="M 482.055,90.136 494.975,82.958 z" id="boundary" inkscape:connector-curvature="0" />
	<path style="fill:none;stroke:red;stroke-width:1px;stroke-linecap:butt;stroke-linejoin:miter;stroke-opacity:1" d="M 479.184,314.09 472.006,328.446 z" id="boundary" inkscape:connector-curvature="0" />
	<path style="fill:none;stroke:red;stroke-width:1px;stroke-linecap:butt;stroke-linejoin:miter;stroke-opacity:1" d="M 472.006,681.603 483.491,671.554 z" id="boundary" inkscape:connector-curvature="0" />
	<path style="fill:none;stroke:red;stroke-width:1px;stroke-linecap:butt;stroke-linejoin:miter;stroke-opacity:1" d="M 479.184,314.09 492.104,306.912 z" id="boundary" inkscape:connector-curvature="0" />
	<path style="fill:none;stroke:red;stroke-width:1px;stroke-linecap:butt;stroke-linejoin:miter;stroke-opacity:1" d="M 483.491,671.554 493.54,660.069 z" id="boundary" inkscape:connector-curvature="0" />
	<path style="fill:none;stroke:red;stroke-width:1px;stroke-linecap:butt;stroke-linejoin:miter;stroke-opacity:1" d="M 493.54,730.414 505.025,720.365 z" id="boundary" inkscape:connector-curvature="0" />
	<path style="fill:none;stroke:red;stroke-width:1px;stroke-linecap:butt;stroke-linejoin:miter;stroke-opacity:1" d="M 493.54,730.414 483.491,741.899 z" id="boundary" inkscape:connector-curvature="0" />
	<path style="fill:none;stroke:red;stroke-width:1px;stroke-linecap:butt;stroke-linejoin:miter;stroke-opacity:1" d="M 522.252,71.4732 507.896,75.78 z" id="boundary" inkscape:connector-curvature="0" />
	<path style="fill:none;stroke:red;stroke-width:1px;stroke-linecap:butt;stroke-linejoin:miter;stroke-opacity:1" d="M 507.896,75.78 494.975,82.958 z" id="boundary" inkscape:connector-curvature="0" />
	<path style="fill:none;stroke:red;stroke-width:1px;stroke-linecap:butt;stroke-linejoin:miter;stroke-opacity:1" d="M 505.025,650.02 493.54,660.069 z" id="boundary" inkscape:connector-curvature="0" />
	<path style="fill:none;stroke:red;stroke-width:1px;stroke-linecap:butt;stroke-linejoin:miter;stroke-opacity:1" d="M 503.589,298.298 515.074,285.378 z" id="boundary" inkscape:connector-curvature="0" />
	<path style="fill:none;stroke:red;stroke-width:1px;stroke-linecap:butt;stroke-linejoin:miter;stroke-opacity:1" d="M 515.074,285.378 526.559,275.329 z" id="boundary" inkscape:connector-curvature="0" />
	<path style="fill:none;stroke:red;stroke-width:1px;stroke-linecap:butt;stroke-linejoin:miter;stroke-opacity:1" d="M 515.074,708.88 505.025,720.365 z" id="boundary" inkscape:connector-curvature="0" />
	<path style="fill:none;stroke:red;stroke-width:1px;stroke-linecap:butt;stroke-linejoin:miter;stroke-opacity:1" d="M 522.252,71.4732 536.608,68.602 z" id="boundary" inkscape:connector-curvature="0" />
	<path style="fill:none;stroke:red;stroke-width:1px;stroke-linecap:butt;stroke-linejoin:miter;stroke-opacity:1" d="M 536.608,68.602 550.964,68.602 z" id="boundary" inkscape:connector-curvature="0" />
	<path style="fill:none;stroke:red;stroke-width:1px;stroke-linecap:butt;stroke-linejoin:miter;stroke-opacity:1" d="M 536.608,652.891 536.608,667.247 z" id="boundary" inkscape:connector-curvature="0" />
	<path style="fill:none;stroke:red;stroke-width:1px;stroke-linecap:butt;stroke-linejoin:miter;stroke-opacity:1" d="M 520.816,625.615 517.945,642.842 z" id="boundary" inkscape:connector-curvature="0" />
	<path style="fill:none;stroke:red;stroke-width:1px;stroke-linecap:butt;stroke-linejoin:miter;stroke-opacity:1" d="M 517.945,642.842 505.025,650.02 z" id="boundary" inkscape:connector-curvature="0" />
	<path style="fill:none;stroke:red;stroke-width:1px;stroke-linecap:butt;stroke-linejoin:miter;stroke-opacity:1" d="M 520.816,625.615 535.172,624.179 z" id="boundary" inkscape:connector-curvature="0" />
	<path style="fill:none;stroke:red;stroke-width:1px;stroke-linecap:butt;stroke-linejoin:miter;stroke-opacity:1" d="M 535.172,624.179 536.608,638.535 z" id="boundary" inkscape:connector-curvature="0" />
	<path style="fill:none;stroke:red;stroke-width:1px;stroke-linecap:butt;stroke-linejoin:miter;stroke-opacity:1" d="M 522.252,694.524 515.074,708.88 z" id="boundary" inkscape:connector-curvature="0" />
	<path style="fill:none;stroke:red;stroke-width:1px;stroke-linecap:butt;stroke-linejoin:miter;stroke-opacity:1" d="M 533.737,684.475 522.252,694.524 z" id="boundary" inkscape:connector-curvature="0" />
	<path style="fill:none;stroke:red;stroke-width:1px;stroke-linecap:butt;stroke-linejoin:miter;stroke-opacity:1" d="M 536.608,263.844 526.559,275.329 z" id="boundary" inkscape:connector-curvature="0" />
	<path style="fill:none;stroke:red;stroke-width:1px;stroke-linecap:butt;stroke-linejoin:miter;stroke-opacity:1" d="M 536.608,638.535 536.608,652.891 z" id="boundary" inkscape:connector-curvature="0" />
	<path style="fill:none;stroke:red;stroke-width:1px;stroke-linecap:butt;stroke-linejoin:miter;stroke-opacity:1" d="M 536.608,263.844 548.093,253.795 z" id="boundary" inkscape:connector-curvature="0" />
	<path style="fill:none;stroke:red;stroke-width:1px;stroke-linecap:butt;stroke-linejoin:miter;stroke-opacity:1" d="M 578.24,220.776 565.32,227.954 z" id="boundary" inkscape:connector-curvature="0" />
	<path style="fill:none;stroke:red;stroke-width:1px;stroke-linecap:butt;stroke-linejoin:miter;stroke-opacity:1" d="M 565.32,227.954 558.142,242.31 z" id="boundary" inkscape:connector-curvature="0" />
	<path style="fill:none;stroke:red;stroke-width:1px;stroke-linecap:butt;stroke-linejoin:miter;stroke-opacity:1" d="M 536.608,667.247 533.737,684.475 z" id="boundary" inkscape:connector-curvature="0" />
	<path style="fill:none;stroke:red;stroke-width:1px;stroke-linecap:butt;stroke-linejoin:miter;stroke-opacity:1" d="M 578.24,220.776 589.725,212.162 z" id="boundary" inkscape:connector-curvature="0" />
	<path style="fill:none;stroke:red;stroke-width:1px;stroke-linecap:butt;stroke-linejoin:miter;stroke-opacity:1" d="M 627.051,182.014 637.1,163.352 z" id="boundary" inkscape:connector-curvature="0" />
	<path style="fill:none;stroke:red;stroke-width:1px;stroke-linecap:butt;stroke-linejoin:miter;stroke-opacity:1" d="M 548.093,253.795 558.142,242.31 z" id="boundary" inkscape:connector-curvature="0" />
	<path style="fill:none;stroke:red;stroke-width:1px;stroke-linecap:butt;stroke-linejoin:miter;stroke-opacity:1" d="M 563.884,61.424 578.24,58.5528 z" id="boundary" inkscape:connector-curvature="0" />
	<path style="fill:none;stroke:red;stroke-width:1px;stroke-linecap:butt;stroke-linejoin:miter;stroke-opacity:1" d="M 563.884,61.424 550.964,68.602 z" id="boundary" inkscape:connector-curvature="0" />
	<path style="fill:none;stroke:red;stroke-width:1px;stroke-linecap:butt;stroke-linejoin:miter;stroke-opacity:1" d="M 601.21,199.242 612.695,189.192 z" id="boundary" inkscape:connector-curvature="0" />
	<path style="fill:none;stroke:red;stroke-width:1px;stroke-linecap:butt;stroke-linejoin:miter;stroke-opacity:1" d="M 612.695,189.192 627.051,182.014 z" id="boundary" inkscape:connector-curvature="0" />
	<path style="fill:none;stroke:red;stroke-width:1px;stroke-linecap:butt;stroke-linejoin:miter;stroke-opacity:1" d="M 601.21,199.242 589.725,212.162 z" id="boundary" inkscape:connector-curvature="0" />
	<path style="fill:none;stroke:red;stroke-width:1px;stroke-linecap:butt;stroke-linejoin:miter;stroke-opacity:1" d="M 592.596,54.246 578.24,58.5528 z" id="boundary" inkscape:connector-curvature="0" />
	<path style="fill:none;stroke:red;stroke-width:1px;stroke-linecap:butt;stroke-linejoin:miter;stroke-opacity:1" d="M 655.763,138.946 665.812,127.462 z" id="boundary" inkscape:connector-curvature="0" />
	<path style="fill:none;stroke:red;stroke-width:1px;stroke-linecap:butt;stroke-linejoin:miter;stroke-opacity:1" d="M 665.812,127.462 678.732,120.284 z" id="boundary" inkscape:connector-curvature="0" />
	<path style="fill:none;stroke:red;stroke-width:1px;stroke-linecap:butt;stroke-linejoin:miter;stroke-opacity:1" d="M 605.517,47.068 592.596,54.246 z" id="boundary" inkscape:connector-curvature="0" />
	<path style="fill:none;stroke:red;stroke-width:1px;stroke-linecap:butt;stroke-linejoin:miter;stroke-opacity:1" d="M 618.437,39.89 632.793,39.89 z" id="boundary" inkscape:connector-curvature="0" />
	<path style="fill:none;stroke:red;stroke-width:1px;stroke-linecap:butt;stroke-linejoin:miter;stroke-opacity:1" d="M 618.437,39.89 605.517,47.068 z" id="boundary" inkscape:connector-curvature="0" />
	<path style="fill:none;stroke:red;stroke-width:1px;stroke-linecap:butt;stroke-linejoin:miter;stroke-opacity:1" d="M 655.763,138.946 644.278,148.996 z" id="boundary" inkscape:connector-curvature="0" />
	<path style="fill:none;stroke:red;stroke-width:1px;stroke-linecap:butt;stroke-linejoin:miter;stroke-opacity:1" d="M 644.278,148.996 637.1,163.352 z" id="boundary" inkscape:connector-curvature="0" />
	<path style="fill:none;stroke:red;stroke-width:1px;stroke-linecap:butt;stroke-linejoin:miter;stroke-opacity:1" d="M 678.732,120.284 690.217,111.67 z" id="boundary" inkscape:connector-curvature="0" />
	<path style="fill:none;stroke:red;stroke-width:1px;stroke-linecap:butt;stroke-linejoin:miter;stroke-opacity:1" d="M 645.713,32.712 632.793,39.89 z" id="boundary" inkscape:connector-curvature="0" />
	<path style="fill:none;stroke:red;stroke-width:1px;stroke-linecap:butt;stroke-linejoin:miter;stroke-opacity:1" d="M 658.634,25.534 645.713,32.712 z" id="boundary" inkscape:connector-curvature="0" />
	<path style="fill:none;stroke:red;stroke-width:1px;stroke-linecap:butt;stroke-linejoin:miter;stroke-opacity:1" d="M 713.187,81.5224 727.543,74.3444 z" id="boundary" inkscape:connector-curvature="0" />
	<path style="fill:none;stroke:red;stroke-width:1px;stroke-linecap:butt;stroke-linejoin:miter;stroke-opacity:1" d="M 671.554,18.356 658.634,25.534 z" id="boundary" inkscape:connector-curvature="0" />
	<path style="fill:none;stroke:red;stroke-width:1px;stroke-linecap:butt;stroke-linejoin:miter;stroke-opacity:1" d="M 684.475,11.178 671.554,18.356 z" id="boundary" inkscape:connector-curvature="0" />
	<path style="fill:none;stroke:red;stroke-width:1px;stroke-linecap:butt;stroke-linejoin:miter;stroke-opacity:1" d="M 690.217,111.67 701.702,91.5716 z" id="boundary" inkscape:connector-curvature="0" />
	<path style="fill:none;stroke:red;stroke-width:1px;stroke-linecap:butt;stroke-linejoin:miter;stroke-opacity:1" d="M 701.702,91.5716 713.187,81.5224 z" id="boundary" inkscape:connector-curvature="0" />
	<path style="fill:none;stroke:red;stroke-width:1px;stroke-linecap:butt;stroke-linejoin:miter;stroke-opacity:1" d="M 697.395,4 711.751,4 z" id="boundary" inkscape:connector-curvature="0" />
	<path style="fill:none;stroke:red;stroke-width:1px;stroke-linecap:butt;stroke-linejoin:miter;stroke-opacity:1" d="M 711.751,4 721.8,15.4848 z" id="boundary" inkscape:connector-curvature="0" />
	<path style="fill:none;stroke:red;stroke-width:1px;stroke-linecap:butt;stroke-linejoin:miter;stroke-opacity:1" d="M 737.592,62.8596 727.543,74.3444 z" id="boundary" inkscape:connector-curvature="0" />
	<path style="fill:none;stroke:red;stroke-width:1px;stroke-linecap:butt;stroke-linejoin:miter;stroke-opacity:1" d="M 684.475,11.178 697.395,4 z" id="boundary" inkscape:connector-curvature="0" />
	<path style="fill:none;stroke:red;stroke-width:1px;stroke-linecap:butt;stroke-linejoin:miter;stroke-opacity:1" d="M 733.285,25.534 721.8,15.4848 z" id="boundary" inkscape:connector-curvature="0" />
	<path style="fill:none;stroke:red;stroke-width:1px;stroke-linecap:butt;stroke-linejoin:miter;stroke-opacity:1" d="M 744.77,48.5036 737.592,62.8596 z" id="boundary" inkscape:connector-curvature="0" />
	<path style="fill:none;stroke:red;stroke-width:1px;stroke-linecap:butt;stroke-linejoin:miter;stroke-opacity:1" d="M 746.205,32.712 744.77,48.5036 z" id="boundary" inkscape:connector-curvature="0" />
	<path style="fill:none;stroke:red;stroke-width:1px;stroke-linecap:butt;stroke-linejoin:miter;stroke-opacity:1" d="M 746.205,32.712 733.285,25.534 z" id="boundary" inkscape:connector-curvature="0" />
	<circle cx="4" cy="769.175" r="4" fill="#0" id="circle0"/>
	<circle cx="4" cy="840.955" r="4" fill="#0" id="circle1"/>
	<circle cx="11.178" cy="747.641" r="4" fill="#0" id="circle2"/>
	<circle cx="11.178" cy="782.096" r="4" fill="#0" id="circle3"/>
	<circle cx="11.178" cy="796.452" r="4" fill="#0" id="circle4"/>
	<circle cx="11.178" cy="810.808" r="4" fill="#0" id="circle5"/>
	<circle cx="11.178" cy="825.164" r="4" fill="#0" id="circle6"/>
	<circle cx="18.356" cy="704.573" r="4" fill="#0" id="circle7"/>
	<circle cx="18.356" cy="718.929" r="4" fill="#0" id="circle8"/>
	<circle cx="18.356" cy="733.285" r="4" fill="#0" id="circle9"/>
	<circle cx="18.356" cy="845.262" r="4" fill="#0" id="circle10"/>
	<circle cx="29.8408" cy="693.088" r="4" fill="#0" id="circle11"/>
	<circle cx="32.712" cy="661.505" r="4" fill="#0" id="circle12"/>
	<circle cx="32.712" cy="675.861" r="4" fill="#0" id="circle13"/>
	<circle cx="32.712" cy="845.262" r="4" fill="#0" id="circle14"/>
	<circle cx="32.712" cy="859.618" r="4" fill="#0" id="circle15"/>
	<circle cx="32.712" cy="873.974" r="4" fill="#0" id="circle16"/>
	<circle cx="37.0188" cy="888.33" r="4" fill="#0" id="circle17"/>
	<circle cx="39.89" cy="639.971" r="4" fill="#0" id="circle18"/>
	<circle cx="44.1968" cy="901.25" r="4" fill="#0" id="circle19"/>
	<circle cx="47.068" cy="625.615" r="4" fill="#0" id="circle20"/>
	<circle cx="54.246" cy="611.259" r="4" fill="#0" id="circle21"/>
	<circle cx="54.246" cy="912.735" r="4" fill="#0" id="circle22"/>
	<circle cx="54.246" cy="927.091" r="4" fill="#0" id="circle23"/>
	<circle cx="61.424" cy="596.903" r="4" fill="#0" id="circle24"/>
	<circle cx="61.424" cy="940.012" r="4" fill="#0" id="circle25"/>
	<circle cx="68.602" cy="582.547" r="4" fill="#0" id="circle26"/>
	<circle cx="71.4732" cy="951.496" r="4" fill="#0" id="circle27"/>
	<circle cx="80.0868" cy="571.062" r="4" fill="#0" id="circle28"/>
	<circle cx="84.3936" cy="809.372" r="4" fill="#0" id="circle29"/>
	<circle cx="84.3936" cy="823.728" r="4" fill="#0" id="circle30"/>
	<circle cx="85.8292" cy="945.754" r="4" fill="#0" id="circle31"/>
	<circle cx="87.2648" cy="556.706" r="4" fill="#0" id="circle32"/>
	<circle cx="87.2648" cy="838.084" r="4" fill="#0" id="circle33"/>
	<circle cx="91.5716" cy="795.016" r="4" fill="#0" id="circle34"/>
	<circle cx="91.5716" cy="852.44" r="4" fill="#0" id="circle35"/>
	<circle cx="91.5716" cy="866.796" r="4" fill="#0" id="circle36"/>
	<circle cx="91.5716" cy="881.152" r="4" fill="#0" id="circle37"/>
	<circle cx="94.4428" cy="542.35" r="4" fill="#0" id="circle38"/>
	<circle cx="97.314" cy="954.368" r="4" fill="#0" id="circle39"/>
	<circle cx="98.7496" cy="780.66" r="4" fill="#0" id="circle40"/>
	<circle cx="98.7496" cy="894.072" r="4" fill="#0" id="circle41"/>
	<circle cx="101.621" cy="527.994" r="4" fill="#0" id="circle42"/>
	<circle cx="105.928" cy="906.993" r="4" fill="#0" id="circle43"/>
	<circle cx="107.363" cy="965.852" r="4" fill="#0" id="circle44"/>
	<circle cx="110.234" cy="770.611" r="4" fill="#0" id="circle45"/>
	<circle cx="111.67" cy="510.767" r="4" fill="#0" id="circle46"/>
	<circle cx="113.106" cy="919.913" r="4" fill="#0" id="circle47"/>
	<circle cx="117.412" cy="756.255" r="4" fill="#0" id="circle48"/>
	<circle cx="118.848" cy="974.466" r="4" fill="#0" id="circle49"/>
	<circle cx="123.155" cy="499.282" r="4" fill="#0" id="circle50"/>
	<circle cx="124.59" cy="929.962" r="4" fill="#0" id="circle51"/>
	<circle cx="127.462" cy="737.592" r="4" fill="#0" id="circle52"/>
	<circle cx="133.204" cy="974.466" r="4" fill="#0" id="circle53"/>
	<circle cx="134.64" cy="487.797" r="4" fill="#0" id="circle54"/>
	<circle cx="134.64" cy="723.236" r="4" fill="#0" id="circle55"/>
	<circle cx="137.511" cy="937.14" r="4" fill="#0" id="circle56"/>
	<circle cx="141.818" cy="708.88" r="4" fill="#0" id="circle57"/>
	<circle cx="146.124" cy="477.748" r="4" fill="#0" id="circle58"/>
	<circle cx="146.124" cy="967.288" r="4" fill="#0" id="circle59"/>
	<circle cx="150.431" cy="944.318" r="4" fill="#0" id="circle60"/>
	<circle cx="151.867" cy="463.392" r="4" fill="#0" id="circle61"/>
	<circle cx="153.302" cy="698.831" r="4" fill="#0" id="circle62"/>
	<circle cx="156.174" cy="978.773" r="4" fill="#0" id="circle63"/>
	<circle cx="161.916" cy="446.165" r="4" fill="#0" id="circle64"/>
	<circle cx="163.352" cy="687.346" r="4" fill="#0" id="circle65"/>
	<circle cx="163.352" cy="951.496" r="4" fill="#0" id="circle66"/>
	<circle cx="170.53" cy="672.99" r="4" fill="#0" id="circle67"/>
	<circle cx="170.53" cy="984.515" r="4" fill="#0" id="circle68"/>
	<circle cx="173.401" cy="434.68" r="4" fill="#0" id="circle69"/>
	<circle cx="177.708" cy="951.496" r="4" fill="#0" id="circle70"/>
	<circle cx="182.014" cy="662.941" r="4" fill="#0" id="circle71"/>
	<circle cx="184.886" cy="423.195" r="4" fill="#0" id="circle72"/>
	<circle cx="184.886" cy="988.822" r="4" fill="#0" id="circle73"/>
	<circle cx="192.064" cy="651.456" r="4" fill="#0" id="circle74"/>
	<circle cx="192.064" cy="951.496" r="4" fill="#0" id="circle75"/>
	<circle cx="196.37" cy="413.146" r="4" fill="#0" id="circle76"/>
	<circle cx="199.242" cy="991.693" r="4" fill="#0" id="circle77"/>
	<circle cx="203.548" cy="641.407" r="4" fill="#0" id="circle78"/>
	<circle cx="204.984" cy="958.674" r="4" fill="#0" id="circle79"/>
	<circle cx="206.42" cy="401.661" r="4" fill="#0" id="circle80"/>
	<circle cx="213.598" cy="996" r="4" fill="#0" id="circle81"/>
	<circle cx="217.904" cy="391.612" r="4" fill="#0" id="circle82"/>
	<circle cx="217.904" cy="634.229" r="4" fill="#0" id="circle83"/>
	<circle cx="219.34" cy="955.803" r="4" fill="#0" id="circle84"/>
	<circle cx="227.954" cy="380.127" r="4" fill="#0" id="circle85"/>
	<circle cx="227.954" cy="622.744" r="4" fill="#0" id="circle86"/>
	<circle cx="227.954" cy="996" r="4" fill="#0" id="circle87"/>
	<circle cx="233.696" cy="951.496" r="4" fill="#0" id="circle88"/>
	<circle cx="235.132" cy="365.771" r="4" fill="#0" id="circle89"/>
	<circle cx="239.438" cy="612.695" r="4" fill="#0" id="circle90"/>
	<circle cx="240.874" cy="988.822" r="4" fill="#0" id="circle91"/>
	<circle cx="242.31" cy="351.415" r="4" fill="#0" id="circle92"/>
	<circle cx="246.616" cy="598.339" r="4" fill="#0" id="circle93"/>
	<circle cx="246.616" cy="944.318" r="4" fill="#0" id="circle94"/>
	<circle cx="253.795" cy="341.366" r="4" fill="#0" id="circle95"/>
	<circle cx="253.795" cy="981.644" r="4" fill="#0" id="circle96"/>
	<circle cx="256.666" cy="586.854" r="4" fill="#0" id="circle97"/>
	<circle cx="259.537" cy="937.14" r="4" fill="#0" id="circle98"/>
	<circle cx="262.408" cy="324.139" r="4" fill="#0" id="circle99"/>
	<circle cx="266.715" cy="974.466" r="4" fill="#0" id="circle100"/>
	<circle cx="268.151" cy="576.805" r="4" fill="#0" id="circle101"/>
	<circle cx="271.022" cy="925.656" r="4" fill="#0" id="circle102"/>
	<circle cx="273.893" cy="312.654" r="4" fill="#0" id="circle103"/>
	<circle cx="278.2" cy="565.32" r="4" fill="#0" id="circle104"/>
	<circle cx="279.635" cy="967.288" r="4" fill="#0" id="circle105"/>
	<circle cx="283.942" cy="912.735" r="4" fill="#0" id="circle106"/>
	<circle cx="285.378" cy="301.169" r="4" fill="#0" id="circle107"/>
	<circle cx="289.685" cy="555.271" r="4" fill="#0" id="circle108"/>
	<circle cx="292.556" cy="960.11" r="4" fill="#0" id="circle109"/>
	<circle cx="295.427" cy="901.25" r="4" fill="#0" id="circle110"/>
	<circle cx="299.734" cy="293.991" r="4" fill="#0" id="circle111"/>
	<circle cx="299.734" cy="536.608" r="4" fill="#0" id="circle112"/>
	<circle cx="304.041" cy="950.061" r="4" fill="#0" id="circle113"/>
	<circle cx="306.912" cy="889.766" r="4" fill="#0" id="circle114"/>
	<circle cx="311.219" cy="283.942" r="4" fill="#0" id="circle115"/>
	<circle cx="311.219" cy="526.559" r="4" fill="#0" id="circle116"/>
	<circle cx="314.09" cy="938.576" r="4" fill="#0" id="circle117"/>
	<circle cx="318.397" cy="879.716" r="4" fill="#0" id="circle118"/>
	<circle cx="321.268" cy="272.457" r="4" fill="#0" id="circle119"/>
	<circle cx="321.268" cy="507.896" r="4" fill="#0" id="circle120"/>
	<circle cx="325.575" cy="928.527" r="4" fill="#0" id="circle121"/>
	<circle cx="328.446" cy="868.232" r="4" fill="#0" id="circle122"/>
	<circle cx="332.753" cy="262.408" r="4" fill="#0" id="circle123"/>
	<circle cx="332.753" cy="497.847" r="4" fill="#0" id="circle124"/>
	<circle cx="335.624" cy="909.864" r="4" fill="#0" id="circle125"/>
	<circle cx="339.931" cy="858.182" r="4" fill="#0" id="circle126"/>
	<circle cx="342.802" cy="250.923" r="4" fill="#0" id="circle127"/>
	<circle cx="342.802" cy="486.362" r="4" fill="#0" id="circle128"/>
	<circle cx="342.802" cy="895.508" r="4" fill="#0" id="circle129"/>
	<circle cx="349.98" cy="846.698" r="4" fill="#0" id="circle130"/>
	<circle cx="354.287" cy="240.874" r="4" fill="#0" id="circle131"/>
	<circle cx="354.287" cy="476.313" r="4" fill="#0" id="circle132"/>
	<circle cx="357.158" cy="881.152" r="4" fill="#0" id="circle133"/>
	<circle cx="364.336" cy="229.389" r="4" fill="#0" id="circle134"/>
	<circle cx="364.336" cy="464.828" r="4" fill="#0" id="circle135"/>
	<circle cx="364.336" cy="839.52" r="4" fill="#0" id="circle136"/>
	<circle cx="368.643" cy="871.103" r="4" fill="#0" id="circle137"/>
	<circle cx="371.514" cy="825.164" r="4" fill="#0" id="circle138"/>
	<circle cx="375.821" cy="219.34" r="4" fill="#0" id="circle139"/>
	<circle cx="375.821" cy="454.779" r="4" fill="#0" id="circle140"/>
	<circle cx="378.692" cy="859.618" r="4" fill="#0" id="circle141"/>
	<circle cx="382.999" cy="815.114" r="4" fill="#0" id="circle142"/>
	<circle cx="384.434" cy="202.113" r="4" fill="#0" id="circle143"/>
	<circle cx="385.87" cy="443.294" r="4" fill="#0" id="circle144"/>
	<circle cx="390.177" cy="849.569" r="4" fill="#0" id="circle145"/>
	<circle cx="393.048" cy="803.63" r="4" fill="#0" id="circle146"/>
	<circle cx="395.919" cy="190.628" r="4" fill="#0" id="circle147"/>
	<circle cx="397.355" cy="433.245" r="4" fill="#0" id="circle148"/>
	<circle cx="400.226" cy="830.906" r="4" fill="#0" id="circle149"/>
	<circle cx="404.533" cy="793.58" r="4" fill="#0" id="circle150"/>
	<circle cx="405.968" cy="769.175" r="4" fill="#0" id="circle151"/>
	<circle cx="407.404" cy="179.143" r="4" fill="#0" id="circle152"/>
	<circle cx="407.404" cy="421.76" r="4" fill="#0" id="circle153"/>
	<circle cx="411.711" cy="820.857" r="4" fill="#0" id="circle154"/>
	<circle cx="414.582" cy="407.404" r="4" fill="#0" id="circle155"/>
	<circle cx="417.453" cy="757.69" r="4" fill="#0" id="circle156"/>
	<circle cx="418.889" cy="169.094" r="4" fill="#0" id="circle157"/>
	<circle cx="418.889" cy="806.501" r="4" fill="#0" id="circle158"/>
	<circle cx="426.067" cy="397.355" r="4" fill="#0" id="circle159"/>
	<circle cx="427.502" cy="151.867" r="4" fill="#0" id="circle160"/>
	<circle cx="427.502" cy="726.107" r="4" fill="#0" id="circle161"/>
	<circle cx="427.502" cy="740.463" r="4" fill="#0" id="circle162"/>
	<circle cx="428.938" cy="795.016" r="4" fill="#0" id="circle163"/>
	<circle cx="436.116" cy="385.87" r="4" fill="#0" id="circle164"/>
	<circle cx="438.987" cy="140.382" r="4" fill="#0" id="circle165"/>
	<circle cx="438.987" cy="714.622" r="4" fill="#0" id="circle166"/>
	<circle cx="440.423" cy="784.967" r="4" fill="#0" id="circle167"/>
	<circle cx="443.294" cy="371.514" r="4" fill="#0" id="circle168"/>
	<circle cx="450.472" cy="128.897" r="4" fill="#0" id="circle169"/>
	<circle cx="450.472" cy="703.137" r="4" fill="#0" id="circle170"/>
	<circle cx="450.472" cy="773.482" r="4" fill="#0" id="circle171"/>
	<circle cx="454.779" cy="361.465" r="4" fill="#0" id="circle172"/>
	<circle cx="461.957" cy="118.848" r="4" fill="#0" id="circle173"/>
	<circle cx="461.957" cy="347.109" r="4" fill="#0" id="circle174"/>
	<circle cx="461.957" cy="693.088" r="4" fill="#0" id="circle175"/>
	<circle cx="461.957" cy="763.433" r="4" fill="#0" id="circle176"/>
	<circle cx="470.57" cy="101.621" r="4" fill="#0" id="circle177"/>
	<circle cx="472.006" cy="328.446" r="4" fill="#0" id="circle178"/>
	<circle cx="472.006" cy="681.603" r="4" fill="#0" id="circle179"/>
	<circle cx="472.006" cy="751.948" r="4" fill="#0" id="circle180"/>
	<circle cx="479.184" cy="314.09" r="4" fill="#0" id="circle181"/>
	<circle cx="482.055" cy="90.136" r="4" fill="#0" id="circle182"/>
	<circle cx="483.491" cy="671.554" r="4" fill="#0" id="circle183"/>
	<circle cx="483.491" cy="741.899" r="4" fill="#0" id="circle184"/>
	<circle cx="492.104" cy="306.912" r="4" fill="#0" id="circle185"/>
	<circle cx="493.54" cy="660.069" r="4" fill="#0" id="circle186"/>
	<circle cx="493.54" cy="730.414" r="4" fill="#0" id="circle187"/>
	<circle cx="494.975" cy="82.958" r="4" fill="#0" id="circle188"/>
	<circle cx="503.589" cy="298.298" r="4" fill="#0" id="circle189"/>
	<circle cx="505.025" cy="650.02" r="4" fill="#0" id="circle190"/>
	<circle cx="505.025" cy="720.365" r="4" fill="#0" id="circle191"/>
	<circle cx="507.896" cy="75.78" r="4" fill="#0" id="circle192"/>
	<circle cx="515.074" cy="285.378" r="4" fill="#0" id="circle193"/>
	<circle cx="515.074" cy="708.88" r="4" fill="#0" id="circle194"/>
	<circle cx="517.945" cy="642.842" r="4" fill="#0" id="circle195"/>
	<circle cx="520.816" cy="625.615" r="4" fill="#0" id="circle196"/>
	<circle cx="522.252" cy="71.4732" r="4" fill="#0" id="circle197"/>
	<circle cx="522.252" cy="694.524" r="4" fill="#0" id="circle198"/>
	<circle cx="526.559" cy="275.329" r="4" fill="#0" id="circle199"/>
	<circle cx="533.737" cy="684.475" r="4" fill="#0" id="circle200"/>
	<circle cx="535.172" cy="624.179" r="4" fill="#0" id="circle201"/>
	<circle cx="536.608" cy="68.602" r="4" fill="#0" id="circle202"/>
	<circle cx="536.608" cy="263.844" r="4" fill="#0" id="circle203"/>
	<circle cx="536.608" cy="638.535" r="4" fill="#0" id="circle204"/>
	<circle cx="536.608" cy="652.891" r="4" fill="#0" id="circle205"/>
	<circle cx="536.608" cy="667.247" r="4" fill="#0" id="circle206"/>
	<circle cx="548.093" cy="253.795" r="4" fill="#0" id="circle207"/>
	<circle cx="550.964" cy="68.602" r="4" fill="#0" id="circle208"/>
	<circle cx="558.142" cy="242.31" r="4" fill="#0" id="circle209"/>
	<circle cx="563.884" cy="61.424" r="4" fill="#0" id="circle210"/>
	<circle cx="565.32" cy="227.954" r="4" fill="#0" id="circle211"/>
	<circle cx="578.24" cy="58.5528" r="4" fill="#0" id="circle212"/>
	<circle cx="578.24" cy="220.776" r="4" fill="#0" id="circle213"/>
	<circle cx="589.725" cy="212.162" r="4" fill="#0" id="circle214"/>
	<circle cx="592.596" cy="54.246" r="4" fill="#0" id="circle215"/>
	<circle cx="601.21" cy="199.242" r="4" fill="#0" id="circle216"/>
	<circle cx="605.517" cy="47.068" r="4" fill="#0" id="circle217"/>
	<circle cx="612.695" cy="189.192" r="4" fill="#0" id="circle218"/>
	<circle cx="618.437" cy="39.89" r="4" fill="#0" id="circle219"/>
	<circle cx="627.051" cy="182.014" r="4" fill="#0" id="circle220"/>
	<circle cx="632.793" cy="39.89" r="4" fill="#0" id="circle221"/>
	<circle cx="637.1" cy="163.352" r="4" fill="#0" id="circle222"/>
	<circle cx="644.278" cy="148.996" r="4" fill="#0" id="circle223"/>
	<circle cx="645.713" cy="32.712" r="4" fill="#0" id="circle224"/>
	<circle cx="655.763" cy="138.946" r="4" fill="#0" id="circle225"/>
	<circle cx="658.634" cy="25.534" r="4" fill="#0" id="circle226"/>
	<circle cx="665.812" cy="127.462" r="4" fill="#0" id="circle227"/>
	<circle cx="671.554" cy="18.356" r="4" fill="#0" id="circle228"/>
	<circle cx="678.732" cy="120.284" r="4" fill="#0" id="circle229"/>
	<circle cx="684.475" cy="11.178" r="4" fill="#0" id="circle230"/>
	<circle cx="690.217" cy="111.67" r="4" fill="#0" id="circle231"/>
	<circle cx="697.395" cy="4" r="4" fill="#0" id="circle232"/>
	<circle cx="701.702" cy="91.5716" r="4" fill="#0" id="circle233"/>
	<circle cx="711.751" cy="4" r="4" fill="#0" id="circle234"/>
	<circle cx="713.187" cy="81.5224" r="4" fill="#0" id="circle235"/>
	<circle cx="721.8" cy="15.4848" r="4" fill="#0" id="circle236"/>
	<circle cx="727.543" cy="74.3444" r="4" fill="#0" id="circle237"/>
	<circle cx="733.285" cy="25.534" r="4" fill="#0" id="circle238"/>
	<circle cx="737.592" cy="62.8596" r="4" fill="#0" id="circle239"/>
	<circle cx="744.77" cy="48.5036" r="4" fill="#0" id="circle240"/>
	<circle cx="746.205" cy="32.712" r="4" fill="#0" id="circle241"/>
	</g>
</svg>