<?xml version="1.0" encoding="UTF-8" standalone="no"?>
<!-- Created with CurveBenchmark -->
<svg
	xmlns:dc="http://purl.org/dc/elements/1.1/"
	xmlns:cc="http://creativecommons.org/ns#"
	xmlns:rdf="http://www.w3.org/1999/02/22-rdf-syntax-ns#"
	xmlns:svg="http://www.w3.org/2000/svg"
	xmlns="http://www.w3.org/2000/svg"
	xmlns:sodipodi="http://sodipodi.sourceforge.net/DTD/sodipodi-0.dtd"
	xmlns:inkscape="http://www.inkscape.org/namespaces/inkscape"
	width="1000"
	height="1000"
	id="svg2"
	version="1.1"
	sodipodi:docname="manifold/peel-textbox48.png.txt">
<defs
	id="defs4" />
<metadata
	id="metadata7">
	<rdf:RDF>
		<cc:Work
			rdf:about="">
			<dc:format>image/svg+xml</dc:format>
			<dc:type
				rdf:resource="http://purl.org/dc/dcmitype/StillImage" />
			<dc:title></dc:title>
		</cc:Work>
	</rdf:RDF>
</metadata>
<g
	inkscape:label="Layer 1"
	inkscape:groupmode="layer"
	id="layer1">
	<path style="fill:none;stroke:red;stroke-width:1px;stroke-linecap:butt;stroke-linejoin:miter;stroke-opacity:1" d="M 4,145.714 4,124.874 z" id="boundary" inkscape:connector-curvature="0" />
	<path style="fill:none;stroke:red;stroke-width:1px;stroke-linecap:butt;stroke-linejoin:miter;stroke-opacity:1" d="M 4,124.874 14.4202,93.6134 z" id="boundary" inkscape:connector-curvature="0" />
	<path style="fill:none;stroke:red;stroke-width:1px;stroke-linecap:butt;stroke-linejoin:miter;stroke-opacity:1" d="M 14.4202,185.311 4,166.555 z" id="boundary" inkscape:connector-curvature="0" />
	<path style="fill:none;stroke:red;stroke-width:1px;stroke-linecap:butt;stroke-linejoin:miter;stroke-opacity:1" d="M 4,166.555 4,145.714 z" id="boundary" inkscape:connector-curvature="0" />
	<path style="fill:none;stroke:red;stroke-width:1px;stroke-linecap:butt;stroke-linejoin:miter;stroke-opacity:1" d="M 14.4202,206.151 14.4202,185.311 z" id="boundary" inkscape:connector-curvature="0" />
	<path style="fill:none;stroke:red;stroke-width:1px;stroke-linecap:butt;stroke-linejoin:miter;stroke-opacity:1" d="M 14.4202,93.6134 24.8403,72.7731 z" id="boundary" inkscape:connector-curvature="0" />
	<path style="fill:none;stroke:red;stroke-width:1px;stroke-linecap:butt;stroke-linejoin:miter;stroke-opacity:1" d="M 24.8403,72.7731 45.6807,62.3529 z" id="boundary" inkscape:connector-curvature="0" />
	<path style="fill:none;stroke:red;stroke-width:1px;stroke-linecap:butt;stroke-linejoin:miter;stroke-opacity:1" d="M 14.4202,226.992 14.4202,206.151 z" id="boundary" inkscape:connector-curvature="0" />
	<path style="fill:none;stroke:red;stroke-width:1px;stroke-linecap:butt;stroke-linejoin:miter;stroke-opacity:1" d="M 14.4202,247.832 14.4202,226.992 z" id="boundary" inkscape:connector-curvature="0" />
	<path style="fill:none;stroke:red;stroke-width:1px;stroke-linecap:butt;stroke-linejoin:miter;stroke-opacity:1" d="M 62.3529,45.6807 83.1933,45.6807 z" id="boundary" inkscape:connector-curvature="0" />
	<path style="fill:none;stroke:red;stroke-width:1px;stroke-linecap:butt;stroke-linejoin:miter;stroke-opacity:1" d="M 62.3529,45.6807 45.6807,62.3529 z" id="boundary" inkscape:connector-curvature="0" />
	<path style="fill:none;stroke:red;stroke-width:1px;stroke-linecap:butt;stroke-linejoin:miter;stroke-opacity:1" d="M 14.4202,268.672 14.4202,247.832 z" id="boundary" inkscape:connector-curvature="0" />
	<path style="fill:none;stroke:red;stroke-width:1px;stroke-linecap:butt;stroke-linejoin:miter;stroke-opacity:1" d="M 14.4202,289.513 14.4202,268.672 z" id="boundary" inkscape:connector-curvature="0" />
	<path style="fill:none;stroke:red;stroke-width:1px;stroke-linecap:butt;stroke-linejoin:miter;stroke-opacity:1" d="M 14.4202,310.353 14.4202,289.513 z" id="boundary" inkscape:connector-curvature="0" />
	<path style="fill:none;stroke:red;stroke-width:1px;stroke-linecap:butt;stroke-linejoin:miter;stroke-opacity:1" d="M 154.05,14.4202 174.891,14.4202 z" id="boundary" inkscape:connector-curvature="0" />
	<path style="fill:none;stroke:red;stroke-width:1px;stroke-linecap:butt;stroke-linejoin:miter;stroke-opacity:1" d="M 14.4202,331.193 14.4202,310.353 z" id="boundary" inkscape:connector-curvature="0" />
	<path style="fill:none;stroke:red;stroke-width:1px;stroke-linecap:butt;stroke-linejoin:miter;stroke-opacity:1" d="M 133.21,14.4202 154.05,14.4202 z" id="boundary" inkscape:connector-curvature="0" />
	<path style="fill:none;stroke:red;stroke-width:1px;stroke-linecap:butt;stroke-linejoin:miter;stroke-opacity:1" d="M 133.21,14.4202 114.454,24.8403 z" id="boundary" inkscape:connector-curvature="0" />
	<path style="fill:none;stroke:red;stroke-width:1px;stroke-linecap:butt;stroke-linejoin:miter;stroke-opacity:1" d="M 14.4202,352.034 14.4202,331.193 z" id="boundary" inkscape:connector-curvature="0" />
	<path style="fill:none;stroke:red;stroke-width:1px;stroke-linecap:butt;stroke-linejoin:miter;stroke-opacity:1" d="M 14.4202,372.874 14.4202,352.034 z" id="boundary" inkscape:connector-curvature="0" />
	<path style="fill:none;stroke:red;stroke-width:1px;stroke-linecap:butt;stroke-linejoin:miter;stroke-opacity:1" d="M 195.731,14.4202 174.891,14.4202 z" id="boundary" inkscape:connector-curvature="0" />
	<path style="fill:none;stroke:red;stroke-width:1px;stroke-linecap:butt;stroke-linejoin:miter;stroke-opacity:1" d="M 14.4202,393.714 14.4202,372.874 z" id="boundary" inkscape:connector-curvature="0" />
	<path style="fill:none;stroke:red;stroke-width:1px;stroke-linecap:butt;stroke-linejoin:miter;stroke-opacity:1" d="M 279.092,14.4202 258.252,14.4202 z" id="boundary" inkscape:connector-curvature="0" />
	<path style="fill:none;stroke:red;stroke-width:1px;stroke-linecap:butt;stroke-linejoin:miter;stroke-opacity:1" d="M 14.4202,414.555 14.4202,393.714 z" id="boundary" inkscape:connector-curvature="0" />
	<path style="fill:none;stroke:red;stroke-width:1px;stroke-linecap:butt;stroke-linejoin:miter;stroke-opacity:1" d="M 14.4202,435.395 14.4202,414.555 z" id="boundary" inkscape:connector-curvature="0" />
	<path style="fill:none;stroke:red;stroke-width:1px;stroke-linecap:butt;stroke-linejoin:miter;stroke-opacity:1" d="M 14.4202,456.235 14.4202,435.395 z" id="boundary" inkscape:connector-curvature="0" />
	<path style="fill:none;stroke:red;stroke-width:1px;stroke-linecap:butt;stroke-linejoin:miter;stroke-opacity:1" d="M 14.4202,477.076 14.4202,456.235 z" id="boundary" inkscape:connector-curvature="0" />
	<path style="fill:none;stroke:red;stroke-width:1px;stroke-linecap:butt;stroke-linejoin:miter;stroke-opacity:1" d="M 14.4202,497.916 14.4202,477.076 z" id="boundary" inkscape:connector-curvature="0" />
	<path style="fill:none;stroke:red;stroke-width:1px;stroke-linecap:butt;stroke-linejoin:miter;stroke-opacity:1" d="M 14.4202,518.756 14.4202,497.916 z" id="boundary" inkscape:connector-curvature="0" />
	<path style="fill:none;stroke:red;stroke-width:1px;stroke-linecap:butt;stroke-linejoin:miter;stroke-opacity:1" d="M 29.0084,535.429 14.4202,518.756 z" id="boundary" inkscape:connector-curvature="0" />
	<path style="fill:none;stroke:red;stroke-width:1px;stroke-linecap:butt;stroke-linejoin:miter;stroke-opacity:1" d="M 254.084,845.95 254.084,825.109 z" id="boundary" inkscape:connector-curvature="0" />
	<path style="fill:none;stroke:red;stroke-width:1px;stroke-linecap:butt;stroke-linejoin:miter;stroke-opacity:1" d="M 254.084,825.109 243.664,806.353 z" id="boundary" inkscape:connector-curvature="0" />
	<path style="fill:none;stroke:red;stroke-width:1px;stroke-linecap:butt;stroke-linejoin:miter;stroke-opacity:1" d="M 45.6807,547.933 29.0084,535.429 z" id="boundary" inkscape:connector-curvature="0" />
	<path style="fill:none;stroke:red;stroke-width:1px;stroke-linecap:butt;stroke-linejoin:miter;stroke-opacity:1" d="M 58.1849,564.605 45.6807,547.933 z" id="boundary" inkscape:connector-curvature="0" />
	<path style="fill:none;stroke:red;stroke-width:1px;stroke-linecap:butt;stroke-linejoin:miter;stroke-opacity:1" d="M 243.664,806.353 243.664,785.513 z" id="boundary" inkscape:connector-curvature="0" />
	<path style="fill:none;stroke:red;stroke-width:1px;stroke-linecap:butt;stroke-linejoin:miter;stroke-opacity:1" d="M 243.664,785.513 237.412,764.672 z" id="boundary" inkscape:connector-curvature="0" />
	<path style="fill:none;stroke:red;stroke-width:1px;stroke-linecap:butt;stroke-linejoin:miter;stroke-opacity:1" d="M 79.0252,568.773 58.1849,564.605 z" id="boundary" inkscape:connector-curvature="0" />
	<path style="fill:none;stroke:red;stroke-width:1px;stroke-linecap:butt;stroke-linejoin:miter;stroke-opacity:1" d="M 216.571,14.4202 195.731,14.4202 z" id="boundary" inkscape:connector-curvature="0" />
	<path style="fill:none;stroke:red;stroke-width:1px;stroke-linecap:butt;stroke-linejoin:miter;stroke-opacity:1" d="M 91.5294,585.445 79.0252,568.773 z" id="boundary" inkscape:connector-curvature="0" />
	<path style="fill:none;stroke:red;stroke-width:1px;stroke-linecap:butt;stroke-linejoin:miter;stroke-opacity:1" d="M 93.6134,24.8403 114.454,24.8403 z" id="boundary" inkscape:connector-curvature="0" />
	<path style="fill:none;stroke:red;stroke-width:1px;stroke-linecap:butt;stroke-linejoin:miter;stroke-opacity:1" d="M 93.6134,24.8403 83.1933,45.6807 z" id="boundary" inkscape:connector-curvature="0" />
	<path style="fill:none;stroke:red;stroke-width:1px;stroke-linecap:butt;stroke-linejoin:miter;stroke-opacity:1" d="M 201.983,697.983 201.983,718.824 z" id="boundary" inkscape:connector-curvature="0" />
	<path style="fill:none;stroke:red;stroke-width:1px;stroke-linecap:butt;stroke-linejoin:miter;stroke-opacity:1" d="M 112.37,589.613 91.5294,585.445 z" id="boundary" inkscape:connector-curvature="0" />
	<path style="fill:none;stroke:red;stroke-width:1px;stroke-linecap:butt;stroke-linejoin:miter;stroke-opacity:1" d="M 122.79,608.37 112.37,589.613 z" id="boundary" inkscape:connector-curvature="0" />
	<path style="fill:none;stroke:red;stroke-width:1px;stroke-linecap:butt;stroke-linejoin:miter;stroke-opacity:1" d="M 216.571,14.4202 237.412,14.4202 z" id="boundary" inkscape:connector-curvature="0" />
	<path style="fill:none;stroke:red;stroke-width:1px;stroke-linecap:butt;stroke-linejoin:miter;stroke-opacity:1" d="M 191.563,658.387 201.983,677.143 z" id="boundary" inkscape:connector-curvature="0" />
	<path style="fill:none;stroke:red;stroke-width:1px;stroke-linecap:butt;stroke-linejoin:miter;stroke-opacity:1" d="M 201.983,677.143 201.983,697.983 z" id="boundary" inkscape:connector-curvature="0" />
	<path style="fill:none;stroke:red;stroke-width:1px;stroke-linecap:butt;stroke-linejoin:miter;stroke-opacity:1" d="M 143.63,610.454 122.79,608.37 z" id="boundary" inkscape:connector-curvature="0" />
	<path style="fill:none;stroke:red;stroke-width:1px;stroke-linecap:butt;stroke-linejoin:miter;stroke-opacity:1" d="M 164.471,610.454 143.63,610.454 z" id="boundary" inkscape:connector-curvature="0" />
	<path style="fill:none;stroke:red;stroke-width:1px;stroke-linecap:butt;stroke-linejoin:miter;stroke-opacity:1" d="M 237.412,14.4202 258.252,14.4202 z" id="boundary" inkscape:connector-curvature="0" />
	<path style="fill:none;stroke:red;stroke-width:1px;stroke-linecap:butt;stroke-linejoin:miter;stroke-opacity:1" d="M 185.311,616.706 191.563,637.546 z" id="boundary" inkscape:connector-curvature="0" />
	<path style="fill:none;stroke:red;stroke-width:1px;stroke-linecap:butt;stroke-linejoin:miter;stroke-opacity:1" d="M 185.311,616.706 164.471,610.454 z" id="boundary" inkscape:connector-curvature="0" />
	<path style="fill:none;stroke:red;stroke-width:1px;stroke-linecap:butt;stroke-linejoin:miter;stroke-opacity:1" d="M 191.563,637.546 191.563,658.387 z" id="boundary" inkscape:connector-curvature="0" />
	<path style="fill:none;stroke:red;stroke-width:1px;stroke-linecap:butt;stroke-linejoin:miter;stroke-opacity:1" d="M 279.092,14.4202 299.933,14.4202 z" id="boundary" inkscape:connector-curvature="0" />
	<path style="fill:none;stroke:red;stroke-width:1px;stroke-linecap:butt;stroke-linejoin:miter;stroke-opacity:1" d="M 299.933,14.4202 320.773,14.4202 z" id="boundary" inkscape:connector-curvature="0" />
	<path style="fill:none;stroke:red;stroke-width:1px;stroke-linecap:butt;stroke-linejoin:miter;stroke-opacity:1" d="M 222.824,725.076 201.983,718.824 z" id="boundary" inkscape:connector-curvature="0" />
	<path style="fill:none;stroke:red;stroke-width:1px;stroke-linecap:butt;stroke-linejoin:miter;stroke-opacity:1" d="M 233.244,743.832 222.824,725.076 z" id="boundary" inkscape:connector-curvature="0" />
	<path style="fill:none;stroke:red;stroke-width:1px;stroke-linecap:butt;stroke-linejoin:miter;stroke-opacity:1" d="M 237.412,764.672 233.244,743.832 z" id="boundary" inkscape:connector-curvature="0" />
	<path style="fill:none;stroke:red;stroke-width:1px;stroke-linecap:butt;stroke-linejoin:miter;stroke-opacity:1" d="M 341.613,14.4202 320.773,14.4202 z" id="boundary" inkscape:connector-curvature="0" />
	<path style="fill:none;stroke:red;stroke-width:1px;stroke-linecap:butt;stroke-linejoin:miter;stroke-opacity:1" d="M 285.345,943.899 285.345,923.059 z" id="boundary" inkscape:connector-curvature="0" />
	<path style="fill:none;stroke:red;stroke-width:1px;stroke-linecap:butt;stroke-linejoin:miter;stroke-opacity:1" d="M 285.345,923.059 281.176,902.218 z" id="boundary" inkscape:connector-curvature="0" />
	<path style="fill:none;stroke:red;stroke-width:1px;stroke-linecap:butt;stroke-linejoin:miter;stroke-opacity:1" d="M 381.21,777.176 381.21,756.336 z" id="boundary" inkscape:connector-curvature="0" />
	<path style="fill:none;stroke:red;stroke-width:1px;stroke-linecap:butt;stroke-linejoin:miter;stroke-opacity:1" d="M 274.924,881.378 281.176,902.218 z" id="boundary" inkscape:connector-curvature="0" />
	<path style="fill:none;stroke:red;stroke-width:1px;stroke-linecap:butt;stroke-linejoin:miter;stroke-opacity:1" d="M 270.756,860.538 254.084,845.95 z" id="boundary" inkscape:connector-curvature="0" />
	<path style="fill:none;stroke:red;stroke-width:1px;stroke-linecap:butt;stroke-linejoin:miter;stroke-opacity:1" d="M 274.924,881.378 270.756,860.538 z" id="boundary" inkscape:connector-curvature="0" />
	<path style="fill:none;stroke:red;stroke-width:1px;stroke-linecap:butt;stroke-linejoin:miter;stroke-opacity:1" d="M 341.613,14.4202 362.454,14.4202 z" id="boundary" inkscape:connector-curvature="0" />
	<path style="fill:none;stroke:red;stroke-width:1px;stroke-linecap:butt;stroke-linejoin:miter;stroke-opacity:1" d="M 362.454,14.4202 383.294,14.4202 z" id="boundary" inkscape:connector-curvature="0" />
	<path style="fill:none;stroke:red;stroke-width:1px;stroke-linecap:butt;stroke-linejoin:miter;stroke-opacity:1" d="M 295.765,985.58 291.597,964.739 z" id="boundary" inkscape:connector-curvature="0" />
	<path style="fill:none;stroke:red;stroke-width:1px;stroke-linecap:butt;stroke-linejoin:miter;stroke-opacity:1" d="M 291.597,964.739 285.345,943.899 z" id="boundary" inkscape:connector-curvature="0" />
	<path style="fill:none;stroke:red;stroke-width:1px;stroke-linecap:butt;stroke-linejoin:miter;stroke-opacity:1" d="M 381.21,818.857 381.21,798.017 z" id="boundary" inkscape:connector-curvature="0" />
	<path style="fill:none;stroke:red;stroke-width:1px;stroke-linecap:butt;stroke-linejoin:miter;stroke-opacity:1" d="M 314.521,996 295.765,985.58 z" id="boundary" inkscape:connector-curvature="0" />
	<path style="fill:none;stroke:red;stroke-width:1px;stroke-linecap:butt;stroke-linejoin:miter;stroke-opacity:1" d="M 339.529,964.739 335.361,991.832 z" id="boundary" inkscape:connector-curvature="0" />
	<path style="fill:none;stroke:red;stroke-width:1px;stroke-linecap:butt;stroke-linejoin:miter;stroke-opacity:1" d="M 335.361,991.832 314.521,996 z" id="boundary" inkscape:connector-curvature="0" />
	<path style="fill:none;stroke:red;stroke-width:1px;stroke-linecap:butt;stroke-linejoin:miter;stroke-opacity:1" d="M 349.95,943.899 349.95,923.059 z" id="boundary" inkscape:connector-curvature="0" />
	<path style="fill:none;stroke:red;stroke-width:1px;stroke-linecap:butt;stroke-linejoin:miter;stroke-opacity:1" d="M 349.95,902.218 349.95,923.059 z" id="boundary" inkscape:connector-curvature="0" />
	<path style="fill:none;stroke:red;stroke-width:1px;stroke-linecap:butt;stroke-linejoin:miter;stroke-opacity:1" d="M 339.529,964.739 349.95,943.899 z" id="boundary" inkscape:connector-curvature="0" />
	<path style="fill:none;stroke:red;stroke-width:1px;stroke-linecap:butt;stroke-linejoin:miter;stroke-opacity:1" d="M 349.95,902.218 370.79,881.378 z" id="boundary" inkscape:connector-curvature="0" />
	<path style="fill:none;stroke:red;stroke-width:1px;stroke-linecap:butt;stroke-linejoin:miter;stroke-opacity:1" d="M 370.79,881.378 370.79,860.538 z" id="boundary" inkscape:connector-curvature="0" />
	<path style="fill:none;stroke:red;stroke-width:1px;stroke-linecap:butt;stroke-linejoin:miter;stroke-opacity:1" d="M 579.193,589.613 600.034,589.613 z" id="boundary" inkscape:connector-curvature="0" />
	<path style="fill:none;stroke:red;stroke-width:1px;stroke-linecap:butt;stroke-linejoin:miter;stroke-opacity:1" d="M 381.21,777.176 381.21,798.017 z" id="boundary" inkscape:connector-curvature="0" />
	<path style="fill:none;stroke:red;stroke-width:1px;stroke-linecap:butt;stroke-linejoin:miter;stroke-opacity:1" d="M 537.513,589.613 516.672,589.613 z" id="boundary" inkscape:connector-curvature="0" />
	<path style="fill:none;stroke:red;stroke-width:1px;stroke-linecap:butt;stroke-linejoin:miter;stroke-opacity:1" d="M 404.134,14.4202 383.294,14.4202 z" id="boundary" inkscape:connector-curvature="0" />
	<path style="fill:none;stroke:red;stroke-width:1px;stroke-linecap:butt;stroke-linejoin:miter;stroke-opacity:1" d="M 381.21,818.857 381.21,839.697 z" id="boundary" inkscape:connector-curvature="0" />
	<path style="fill:none;stroke:red;stroke-width:1px;stroke-linecap:butt;stroke-linejoin:miter;stroke-opacity:1" d="M 381.21,839.697 370.79,860.538 z" id="boundary" inkscape:connector-curvature="0" />
	<path style="fill:none;stroke:red;stroke-width:1px;stroke-linecap:butt;stroke-linejoin:miter;stroke-opacity:1" d="M 391.63,735.496 381.21,756.336 z" id="boundary" inkscape:connector-curvature="0" />
	<path style="fill:none;stroke:red;stroke-width:1px;stroke-linecap:butt;stroke-linejoin:miter;stroke-opacity:1" d="M 391.63,735.496 391.63,714.655 z" id="boundary" inkscape:connector-curvature="0" />
	<path style="fill:none;stroke:red;stroke-width:1px;stroke-linecap:butt;stroke-linejoin:miter;stroke-opacity:1" d="M 516.672,589.613 495.832,589.613 z" id="boundary" inkscape:connector-curvature="0" />
	<path style="fill:none;stroke:red;stroke-width:1px;stroke-linecap:butt;stroke-linejoin:miter;stroke-opacity:1" d="M 391.63,714.655 412.471,704.235 z" id="boundary" inkscape:connector-curvature="0" />
	<path style="fill:none;stroke:red;stroke-width:1px;stroke-linecap:butt;stroke-linejoin:miter;stroke-opacity:1" d="M 412.471,704.235 412.471,683.395 z" id="boundary" inkscape:connector-curvature="0" />
	<path style="fill:none;stroke:red;stroke-width:1px;stroke-linecap:butt;stroke-linejoin:miter;stroke-opacity:1" d="M 412.471,662.555 412.471,683.395 z" id="boundary" inkscape:connector-curvature="0" />
	<path style="fill:none;stroke:red;stroke-width:1px;stroke-linecap:butt;stroke-linejoin:miter;stroke-opacity:1" d="M 422.891,610.454 422.891,631.294 z" id="boundary" inkscape:connector-curvature="0" />
	<path style="fill:none;stroke:red;stroke-width:1px;stroke-linecap:butt;stroke-linejoin:miter;stroke-opacity:1" d="M 422.891,631.294 412.471,662.555 z" id="boundary" inkscape:connector-curvature="0" />
	<path style="fill:none;stroke:red;stroke-width:1px;stroke-linecap:butt;stroke-linejoin:miter;stroke-opacity:1" d="M 537.513,589.613 558.353,589.613 z" id="boundary" inkscape:connector-curvature="0" />
	<path style="fill:none;stroke:red;stroke-width:1px;stroke-linecap:butt;stroke-linejoin:miter;stroke-opacity:1" d="M 454.151,589.613 474.992,589.613 z" id="boundary" inkscape:connector-curvature="0" />
	<path style="fill:none;stroke:red;stroke-width:1px;stroke-linecap:butt;stroke-linejoin:miter;stroke-opacity:1" d="M 422.891,610.454 433.311,589.613 z" id="boundary" inkscape:connector-curvature="0" />
	<path style="fill:none;stroke:red;stroke-width:1px;stroke-linecap:butt;stroke-linejoin:miter;stroke-opacity:1" d="M 404.134,14.4202 424.975,14.4202 z" id="boundary" inkscape:connector-curvature="0" />
	<path style="fill:none;stroke:red;stroke-width:1px;stroke-linecap:butt;stroke-linejoin:miter;stroke-opacity:1" d="M 433.311,589.613 454.151,589.613 z" id="boundary" inkscape:connector-curvature="0" />
	<path style="fill:none;stroke:red;stroke-width:1px;stroke-linecap:butt;stroke-linejoin:miter;stroke-opacity:1" d="M 445.815,14.4202 424.975,14.4202 z" id="boundary" inkscape:connector-curvature="0" />
	<path style="fill:none;stroke:red;stroke-width:1px;stroke-linecap:butt;stroke-linejoin:miter;stroke-opacity:1" d="M 474.992,589.613 495.832,589.613 z" id="boundary" inkscape:connector-curvature="0" />
	<path style="fill:none;stroke:red;stroke-width:1px;stroke-linecap:butt;stroke-linejoin:miter;stroke-opacity:1" d="M 466.655,14.4202 445.815,14.4202 z" id="boundary" inkscape:connector-curvature="0" />
	<path style="fill:none;stroke:red;stroke-width:1px;stroke-linecap:butt;stroke-linejoin:miter;stroke-opacity:1" d="M 485.412,4 506.252,4 z" id="boundary" inkscape:connector-curvature="0" />
	<path style="fill:none;stroke:red;stroke-width:1px;stroke-linecap:butt;stroke-linejoin:miter;stroke-opacity:1" d="M 485.412,4 466.655,14.4202 z" id="boundary" inkscape:connector-curvature="0" />
	<path style="fill:none;stroke:red;stroke-width:1px;stroke-linecap:butt;stroke-linejoin:miter;stroke-opacity:1" d="M 558.353,589.613 579.193,589.613 z" id="boundary" inkscape:connector-curvature="0" />
	<path style="fill:none;stroke:red;stroke-width:1px;stroke-linecap:butt;stroke-linejoin:miter;stroke-opacity:1" d="M 506.252,4 527.092,4 z" id="boundary" inkscape:connector-curvature="0" />
	<path style="fill:none;stroke:red;stroke-width:1px;stroke-linecap:butt;stroke-linejoin:miter;stroke-opacity:1" d="M 600.034,589.613 620.874,589.613 z" id="boundary" inkscape:connector-curvature="0" />
	<path style="fill:none;stroke:red;stroke-width:1px;stroke-linecap:butt;stroke-linejoin:miter;stroke-opacity:1" d="M 527.092,4 547.933,4 z" id="boundary" inkscape:connector-curvature="0" />
	<path style="fill:none;stroke:red;stroke-width:1px;stroke-linecap:butt;stroke-linejoin:miter;stroke-opacity:1" d="M 568.773,4 547.933,4 z" id="boundary" inkscape:connector-curvature="0" />
	<path style="fill:none;stroke:red;stroke-width:1px;stroke-linecap:butt;stroke-linejoin:miter;stroke-opacity:1" d="M 641.714,589.613 620.874,589.613 z" id="boundary" inkscape:connector-curvature="0" />
	<path style="fill:none;stroke:red;stroke-width:1px;stroke-linecap:butt;stroke-linejoin:miter;stroke-opacity:1" d="M 589.613,4 568.773,4 z" id="boundary" inkscape:connector-curvature="0" />
	<path style="fill:none;stroke:red;stroke-width:1px;stroke-linecap:butt;stroke-linejoin:miter;stroke-opacity:1" d="M 662.555,589.613 641.714,589.613 z" id="boundary" inkscape:connector-curvature="0" />
	<path style="fill:none;stroke:red;stroke-width:1px;stroke-linecap:butt;stroke-linejoin:miter;stroke-opacity:1" d="M 610.454,4 589.613,4 z" id="boundary" inkscape:connector-curvature="0" />
	<path style="fill:none;stroke:red;stroke-width:1px;stroke-linecap:butt;stroke-linejoin:miter;stroke-opacity:1" d="M 683.395,589.613 662.555,589.613 z" id="boundary" inkscape:connector-curvature="0" />
	<path style="fill:none;stroke:red;stroke-width:1px;stroke-linecap:butt;stroke-linejoin:miter;stroke-opacity:1" d="M 631.294,4 610.454,4 z" id="boundary" inkscape:connector-curvature="0" />
	<path style="fill:none;stroke:red;stroke-width:1px;stroke-linecap:butt;stroke-linejoin:miter;stroke-opacity:1" d="M 652.134,4 631.294,4 z" id="boundary" inkscape:connector-curvature="0" />
	<path style="fill:none;stroke:red;stroke-width:1px;stroke-linecap:butt;stroke-linejoin:miter;stroke-opacity:1" d="M 808.437,568.773 787.597,568.773 z" id="boundary" inkscape:connector-curvature="0" />
	<path style="fill:none;stroke:red;stroke-width:1px;stroke-linecap:butt;stroke-linejoin:miter;stroke-opacity:1" d="M 672.975,4 652.134,4 z" id="boundary" inkscape:connector-curvature="0" />
	<path style="fill:none;stroke:red;stroke-width:1px;stroke-linecap:butt;stroke-linejoin:miter;stroke-opacity:1" d="M 745.916,568.773 766.756,568.773 z" id="boundary" inkscape:connector-curvature="0" />
	<path style="fill:none;stroke:red;stroke-width:1px;stroke-linecap:butt;stroke-linejoin:miter;stroke-opacity:1" d="M 693.815,4 672.975,4 z" id="boundary" inkscape:connector-curvature="0" />
	<path style="fill:none;stroke:red;stroke-width:1px;stroke-linecap:butt;stroke-linejoin:miter;stroke-opacity:1" d="M 704.235,568.773 725.076,568.773 z" id="boundary" inkscape:connector-curvature="0" />
	<path style="fill:none;stroke:red;stroke-width:1px;stroke-linecap:butt;stroke-linejoin:miter;stroke-opacity:1" d="M 704.235,568.773 683.395,589.613 z" id="boundary" inkscape:connector-curvature="0" />
	<path style="fill:none;stroke:red;stroke-width:1px;stroke-linecap:butt;stroke-linejoin:miter;stroke-opacity:1" d="M 985.58,262.42 985.58,283.261 z" id="boundary" inkscape:connector-curvature="0" />
	<path style="fill:none;stroke:red;stroke-width:1px;stroke-linecap:butt;stroke-linejoin:miter;stroke-opacity:1" d="M 725.076,568.773 745.916,568.773 z" id="boundary" inkscape:connector-curvature="0" />
	<path style="fill:none;stroke:red;stroke-width:1px;stroke-linecap:butt;stroke-linejoin:miter;stroke-opacity:1" d="M 985.58,241.58 985.58,262.42 z" id="boundary" inkscape:connector-curvature="0" />
	<path style="fill:none;stroke:red;stroke-width:1px;stroke-linecap:butt;stroke-linejoin:miter;stroke-opacity:1" d="M 777.176,4 756.336,4 z" id="boundary" inkscape:connector-curvature="0" />
	<path style="fill:none;stroke:red;stroke-width:1px;stroke-linecap:butt;stroke-linejoin:miter;stroke-opacity:1" d="M 766.756,568.773 787.597,568.773 z" id="boundary" inkscape:connector-curvature="0" />
	<path style="fill:none;stroke:red;stroke-width:1px;stroke-linecap:butt;stroke-linejoin:miter;stroke-opacity:1" d="M 985.58,220.739 985.58,199.899 z" id="boundary" inkscape:connector-curvature="0" />
	<path style="fill:none;stroke:red;stroke-width:1px;stroke-linecap:butt;stroke-linejoin:miter;stroke-opacity:1" d="M 829.277,568.773 808.437,568.773 z" id="boundary" inkscape:connector-curvature="0" />
	<path style="fill:none;stroke:red;stroke-width:1px;stroke-linecap:butt;stroke-linejoin:miter;stroke-opacity:1" d="M 798.017,4 777.176,4 z" id="boundary" inkscape:connector-curvature="0" />
	<path style="fill:none;stroke:red;stroke-width:1px;stroke-linecap:butt;stroke-linejoin:miter;stroke-opacity:1" d="M 985.58,158.218 985.58,179.059 z" id="boundary" inkscape:connector-curvature="0" />
	<path style="fill:none;stroke:red;stroke-width:1px;stroke-linecap:butt;stroke-linejoin:miter;stroke-opacity:1" d="M 985.58,179.059 985.58,199.899 z" id="boundary" inkscape:connector-curvature="0" />
	<path style="fill:none;stroke:red;stroke-width:1px;stroke-linecap:butt;stroke-linejoin:miter;stroke-opacity:1" d="M 985.58,137.378 985.58,116.538 z" id="boundary" inkscape:connector-curvature="0" />
	<path style="fill:none;stroke:red;stroke-width:1px;stroke-linecap:butt;stroke-linejoin:miter;stroke-opacity:1" d="M 818.857,4 798.017,4 z" id="boundary" inkscape:connector-curvature="0" />
	<path style="fill:none;stroke:red;stroke-width:1px;stroke-linecap:butt;stroke-linejoin:miter;stroke-opacity:1" d="M 829.277,568.773 850.118,568.773 z" id="boundary" inkscape:connector-curvature="0" />
	<path style="fill:none;stroke:red;stroke-width:1px;stroke-linecap:butt;stroke-linejoin:miter;stroke-opacity:1" d="M 985.58,116.538 985.58,95.6975 z" id="boundary" inkscape:connector-curvature="0" />
	<path style="fill:none;stroke:red;stroke-width:1px;stroke-linecap:butt;stroke-linejoin:miter;stroke-opacity:1" d="M 985.58,95.6975 975.16,76.9412 z" id="boundary" inkscape:connector-curvature="0" />
	<path style="fill:none;stroke:red;stroke-width:1px;stroke-linecap:butt;stroke-linejoin:miter;stroke-opacity:1" d="M 839.697,4 858.454,14.4202 z" id="boundary" inkscape:connector-curvature="0" />
	<path style="fill:none;stroke:red;stroke-width:1px;stroke-linecap:butt;stroke-linejoin:miter;stroke-opacity:1" d="M 839.697,4 818.857,4 z" id="boundary" inkscape:connector-curvature="0" />
	<path style="fill:none;stroke:red;stroke-width:1px;stroke-linecap:butt;stroke-linejoin:miter;stroke-opacity:1" d="M 850.118,568.773 870.958,568.773 z" id="boundary" inkscape:connector-curvature="0" />
	<path style="fill:none;stroke:red;stroke-width:1px;stroke-linecap:butt;stroke-linejoin:miter;stroke-opacity:1" d="M 985.58,137.378 985.58,158.218 z" id="boundary" inkscape:connector-curvature="0" />
	<path style="fill:none;stroke:red;stroke-width:1px;stroke-linecap:butt;stroke-linejoin:miter;stroke-opacity:1" d="M 879.294,14.4202 900.134,14.4202 z" id="boundary" inkscape:connector-curvature="0" />
	<path style="fill:none;stroke:red;stroke-width:1px;stroke-linecap:butt;stroke-linejoin:miter;stroke-opacity:1" d="M 891.798,558.353 912.639,558.353 z" id="boundary" inkscape:connector-curvature="0" />
	<path style="fill:none;stroke:red;stroke-width:1px;stroke-linecap:butt;stroke-linejoin:miter;stroke-opacity:1" d="M 891.798,558.353 870.958,568.773 z" id="boundary" inkscape:connector-curvature="0" />
	<path style="fill:none;stroke:red;stroke-width:1px;stroke-linecap:butt;stroke-linejoin:miter;stroke-opacity:1" d="M 858.454,14.4202 879.294,14.4202 z" id="boundary" inkscape:connector-curvature="0" />
	<path style="fill:none;stroke:red;stroke-width:1px;stroke-linecap:butt;stroke-linejoin:miter;stroke-opacity:1" d="M 937.647,26.9244 948.067,45.6807 z" id="boundary" inkscape:connector-curvature="0" />
	<path style="fill:none;stroke:red;stroke-width:1px;stroke-linecap:butt;stroke-linejoin:miter;stroke-opacity:1" d="M 985.58,345.782 985.58,366.622 z" id="boundary" inkscape:connector-curvature="0" />
	<path style="fill:none;stroke:red;stroke-width:1px;stroke-linecap:butt;stroke-linejoin:miter;stroke-opacity:1" d="M 920.975,14.4202 937.647,26.9244 z" id="boundary" inkscape:connector-curvature="0" />
	<path style="fill:none;stroke:red;stroke-width:1px;stroke-linecap:butt;stroke-linejoin:miter;stroke-opacity:1" d="M 920.975,14.4202 900.134,14.4202 z" id="boundary" inkscape:connector-curvature="0" />
	<path style="fill:none;stroke:red;stroke-width:1px;stroke-linecap:butt;stroke-linejoin:miter;stroke-opacity:1" d="M 954.319,527.092 975.16,516.672 z" id="boundary" inkscape:connector-curvature="0" />
	<path style="fill:none;stroke:red;stroke-width:1px;stroke-linecap:butt;stroke-linejoin:miter;stroke-opacity:1" d="M 933.479,537.513 912.639,558.353 z" id="boundary" inkscape:connector-curvature="0" />
	<path style="fill:none;stroke:red;stroke-width:1px;stroke-linecap:butt;stroke-linejoin:miter;stroke-opacity:1" d="M 954.319,527.092 933.479,537.513 z" id="boundary" inkscape:connector-curvature="0" />
	<path style="fill:none;stroke:red;stroke-width:1px;stroke-linecap:butt;stroke-linejoin:miter;stroke-opacity:1" d="M 985.58,220.739 985.58,241.58 z" id="boundary" inkscape:connector-curvature="0" />
	<path style="fill:none;stroke:red;stroke-width:1px;stroke-linecap:butt;stroke-linejoin:miter;stroke-opacity:1" d="M 966.824,56.1008 975.16,76.9412 z" id="boundary" inkscape:connector-curvature="0" />
	<path style="fill:none;stroke:red;stroke-width:1px;stroke-linecap:butt;stroke-linejoin:miter;stroke-opacity:1" d="M 966.824,56.1008 948.067,45.6807 z" id="boundary" inkscape:connector-curvature="0" />
	<path style="fill:none;stroke:red;stroke-width:1px;stroke-linecap:butt;stroke-linejoin:miter;stroke-opacity:1" d="M 735.496,4 756.336,4 z" id="boundary" inkscape:connector-curvature="0" />
	<path style="fill:none;stroke:red;stroke-width:1px;stroke-linecap:butt;stroke-linejoin:miter;stroke-opacity:1" d="M 714.655,4 735.496,4 z" id="boundary" inkscape:connector-curvature="0" />
	<path style="fill:none;stroke:red;stroke-width:1px;stroke-linecap:butt;stroke-linejoin:miter;stroke-opacity:1" d="M 714.655,4 693.815,4 z" id="boundary" inkscape:connector-curvature="0" />
	<path style="fill:none;stroke:red;stroke-width:1px;stroke-linecap:butt;stroke-linejoin:miter;stroke-opacity:1" d="M 985.58,304.101 985.58,283.261 z" id="boundary" inkscape:connector-curvature="0" />
	<path style="fill:none;stroke:red;stroke-width:1px;stroke-linecap:butt;stroke-linejoin:miter;stroke-opacity:1" d="M 985.58,324.941 985.58,304.101 z" id="boundary" inkscape:connector-curvature="0" />
	<path style="fill:none;stroke:red;stroke-width:1px;stroke-linecap:butt;stroke-linejoin:miter;stroke-opacity:1" d="M 985.58,324.941 985.58,345.782 z" id="boundary" inkscape:connector-curvature="0" />
	<path style="fill:none;stroke:red;stroke-width:1px;stroke-linecap:butt;stroke-linejoin:miter;stroke-opacity:1" d="M 996,427.059 996,406.218 z" id="boundary" inkscape:connector-curvature="0" />
	<path style="fill:none;stroke:red;stroke-width:1px;stroke-linecap:butt;stroke-linejoin:miter;stroke-opacity:1" d="M 985.58,495.832 975.16,516.672 z" id="boundary" inkscape:connector-curvature="0" />
	<path style="fill:none;stroke:red;stroke-width:1px;stroke-linecap:butt;stroke-linejoin:miter;stroke-opacity:1" d="M 996,385.378 996,406.218 z" id="boundary" inkscape:connector-curvature="0" />
	<path style="fill:none;stroke:red;stroke-width:1px;stroke-linecap:butt;stroke-linejoin:miter;stroke-opacity:1" d="M 996,385.378 985.58,366.622 z" id="boundary" inkscape:connector-curvature="0" />
	<path style="fill:none;stroke:red;stroke-width:1px;stroke-linecap:butt;stroke-linejoin:miter;stroke-opacity:1" d="M 996,447.899 996,427.059 z" id="boundary" inkscape:connector-curvature="0" />
	<path style="fill:none;stroke:red;stroke-width:1px;stroke-linecap:butt;stroke-linejoin:miter;stroke-opacity:1" d="M 996,468.739 985.58,495.832 z" id="boundary" inkscape:connector-curvature="0" />
	<path style="fill:none;stroke:red;stroke-width:1px;stroke-linecap:butt;stroke-linejoin:miter;stroke-opacity:1" d="M 996,468.739 996,447.899 z" id="boundary" inkscape:connector-curvature="0" />
	<circle cx="4" cy="124.874" r="4" fill="#0" id="circle0"/>
	<circle cx="4" cy="145.714" r="4" fill="#0" id="circle1"/>
	<circle cx="4" cy="166.555" r="4" fill="#0" id="circle2"/>
	<circle cx="14.4202" cy="93.6134" r="4" fill="#0" id="circle3"/>
	<circle cx="14.4202" cy="185.311" r="4" fill="#0" id="circle4"/>
	<circle cx="14.4202" cy="206.151" r="4" fill="#0" id="circle5"/>
	<circle cx="14.4202" cy="226.992" r="4" fill="#0" id="circle6"/>
	<circle cx="14.4202" cy="247.832" r="4" fill="#0" id="circle7"/>
	<circle cx="14.4202" cy="268.672" r="4" fill="#0" id="circle8"/>
	<circle cx="14.4202" cy="289.513" r="4" fill="#0" id="circle9"/>
	<circle cx="14.4202" cy="310.353" r="4" fill="#0" id="circle10"/>
	<circle cx="14.4202" cy="331.193" r="4" fill="#0" id="circle11"/>
	<circle cx="14.4202" cy="352.034" r="4" fill="#0" id="circle12"/>
	<circle cx="14.4202" cy="372.874" r="4" fill="#0" id="circle13"/>
	<circle cx="14.4202" cy="393.714" r="4" fill="#0" id="circle14"/>
	<circle cx="14.4202" cy="414.555" r="4" fill="#0" id="circle15"/>
	<circle cx="14.4202" cy="435.395" r="4" fill="#0" id="circle16"/>
	<circle cx="14.4202" cy="456.235" r="4" fill="#0" id="circle17"/>
	<circle cx="14.4202" cy="477.076" r="4" fill="#0" id="circle18"/>
	<circle cx="14.4202" cy="497.916" r="4" fill="#0" id="circle19"/>
	<circle cx="14.4202" cy="518.756" r="4" fill="#0" id="circle20"/>
	<circle cx="24.8403" cy="72.7731" r="4" fill="#0" id="circle21"/>
	<circle cx="29.0084" cy="535.429" r="4" fill="#0" id="circle22"/>
	<circle cx="45.6807" cy="62.3529" r="4" fill="#0" id="circle23"/>
	<circle cx="45.6807" cy="547.933" r="4" fill="#0" id="circle24"/>
	<circle cx="58.1849" cy="564.605" r="4" fill="#0" id="circle25"/>
	<circle cx="62.3529" cy="45.6807" r="4" fill="#0" id="circle26"/>
	<circle cx="79.0252" cy="568.773" r="4" fill="#0" id="circle27"/>
	<circle cx="83.1933" cy="45.6807" r="4" fill="#0" id="circle28"/>
	<circle cx="91.5294" cy="585.445" r="4" fill="#0" id="circle29"/>
	<circle cx="93.6134" cy="24.8403" r="4" fill="#0" id="circle30"/>
	<circle cx="112.37" cy="589.613" r="4" fill="#0" id="circle31"/>
	<circle cx="114.454" cy="24.8403" r="4" fill="#0" id="circle32"/>
	<circle cx="122.79" cy="608.37" r="4" fill="#0" id="circle33"/>
	<circle cx="133.21" cy="14.4202" r="4" fill="#0" id="circle34"/>
	<circle cx="143.63" cy="610.454" r="4" fill="#0" id="circle35"/>
	<circle cx="154.05" cy="14.4202" r="4" fill="#0" id="circle36"/>
	<circle cx="164.471" cy="610.454" r="4" fill="#0" id="circle37"/>
	<circle cx="174.891" cy="14.4202" r="4" fill="#0" id="circle38"/>
	<circle cx="185.311" cy="616.706" r="4" fill="#0" id="circle39"/>
	<circle cx="191.563" cy="637.546" r="4" fill="#0" id="circle40"/>
	<circle cx="191.563" cy="658.387" r="4" fill="#0" id="circle41"/>
	<circle cx="195.731" cy="14.4202" r="4" fill="#0" id="circle42"/>
	<circle cx="201.983" cy="677.143" r="4" fill="#0" id="circle43"/>
	<circle cx="201.983" cy="697.983" r="4" fill="#0" id="circle44"/>
	<circle cx="201.983" cy="718.824" r="4" fill="#0" id="circle45"/>
	<circle cx="216.571" cy="14.4202" r="4" fill="#0" id="circle46"/>
	<circle cx="222.824" cy="725.076" r="4" fill="#0" id="circle47"/>
	<circle cx="233.244" cy="743.832" r="4" fill="#0" id="circle48"/>
	<circle cx="237.412" cy="14.4202" r="4" fill="#0" id="circle49"/>
	<circle cx="237.412" cy="764.672" r="4" fill="#0" id="circle50"/>
	<circle cx="243.664" cy="785.513" r="4" fill="#0" id="circle51"/>
	<circle cx="243.664" cy="806.353" r="4" fill="#0" id="circle52"/>
	<circle cx="254.084" cy="825.109" r="4" fill="#0" id="circle53"/>
	<circle cx="254.084" cy="845.95" r="4" fill="#0" id="circle54"/>
	<circle cx="258.252" cy="14.4202" r="4" fill="#0" id="circle55"/>
	<circle cx="270.756" cy="860.538" r="4" fill="#0" id="circle56"/>
	<circle cx="274.924" cy="881.378" r="4" fill="#0" id="circle57"/>
	<circle cx="279.092" cy="14.4202" r="4" fill="#0" id="circle58"/>
	<circle cx="281.176" cy="902.218" r="4" fill="#0" id="circle59"/>
	<circle cx="285.345" cy="923.059" r="4" fill="#0" id="circle60"/>
	<circle cx="285.345" cy="943.899" r="4" fill="#0" id="circle61"/>
	<circle cx="291.597" cy="964.739" r="4" fill="#0" id="circle62"/>
	<circle cx="295.765" cy="985.58" r="4" fill="#0" id="circle63"/>
	<circle cx="299.933" cy="14.4202" r="4" fill="#0" id="circle64"/>
	<circle cx="314.521" cy="996" r="4" fill="#0" id="circle65"/>
	<circle cx="320.773" cy="14.4202" r="4" fill="#0" id="circle66"/>
	<circle cx="335.361" cy="991.832" r="4" fill="#0" id="circle67"/>
	<circle cx="339.529" cy="964.739" r="4" fill="#0" id="circle68"/>
	<circle cx="341.613" cy="14.4202" r="4" fill="#0" id="circle69"/>
	<circle cx="349.95" cy="902.218" r="4" fill="#0" id="circle70"/>
	<circle cx="349.95" cy="923.059" r="4" fill="#0" id="circle71"/>
	<circle cx="349.95" cy="943.899" r="4" fill="#0" id="circle72"/>
	<circle cx="362.454" cy="14.4202" r="4" fill="#0" id="circle73"/>
	<circle cx="370.79" cy="860.538" r="4" fill="#0" id="circle74"/>
	<circle cx="370.79" cy="881.378" r="4" fill="#0" id="circle75"/>
	<circle cx="381.21" cy="756.336" r="4" fill="#0" id="circle76"/>
	<circle cx="381.21" cy="777.176" r="4" fill="#0" id="circle77"/>
	<circle cx="381.21" cy="798.017" r="4" fill="#0" id="circle78"/>
	<circle cx="381.21" cy="818.857" r="4" fill="#0" id="circle79"/>
	<circle cx="381.21" cy="839.697" r="4" fill="#0" id="circle80"/>
	<circle cx="383.294" cy="14.4202" r="4" fill="#0" id="circle81"/>
	<circle cx="391.63" cy="714.655" r="4" fill="#0" id="circle82"/>
	<circle cx="391.63" cy="735.496" r="4" fill="#0" id="circle83"/>
	<circle cx="404.134" cy="14.4202" r="4" fill="#0" id="circle84"/>
	<circle cx="412.471" cy="662.555" r="4" fill="#0" id="circle85"/>
	<circle cx="412.471" cy="683.395" r="4" fill="#0" id="circle86"/>
	<circle cx="412.471" cy="704.235" r="4" fill="#0" id="circle87"/>
	<circle cx="422.891" cy="610.454" r="4" fill="#0" id="circle88"/>
	<circle cx="422.891" cy="631.294" r="4" fill="#0" id="circle89"/>
	<circle cx="424.975" cy="14.4202" r="4" fill="#0" id="circle90"/>
	<circle cx="433.311" cy="589.613" r="4" fill="#0" id="circle91"/>
	<circle cx="445.815" cy="14.4202" r="4" fill="#0" id="circle92"/>
	<circle cx="454.151" cy="589.613" r="4" fill="#0" id="circle93"/>
	<circle cx="466.655" cy="14.4202" r="4" fill="#0" id="circle94"/>
	<circle cx="474.992" cy="589.613" r="4" fill="#0" id="circle95"/>
	<circle cx="485.412" cy="4" r="4" fill="#0" id="circle96"/>
	<circle cx="495.832" cy="589.613" r="4" fill="#0" id="circle97"/>
	<circle cx="506.252" cy="4" r="4" fill="#0" id="circle98"/>
	<circle cx="516.672" cy="589.613" r="4" fill="#0" id="circle99"/>
	<circle cx="527.092" cy="4" r="4" fill="#0" id="circle100"/>
	<circle cx="537.513" cy="589.613" r="4" fill="#0" id="circle101"/>
	<circle cx="547.933" cy="4" r="4" fill="#0" id="circle102"/>
	<circle cx="558.353" cy="589.613" r="4" fill="#0" id="circle103"/>
	<circle cx="568.773" cy="4" r="4" fill="#0" id="circle104"/>
	<circle cx="579.193" cy="589.613" r="4" fill="#0" id="circle105"/>
	<circle cx="589.613" cy="4" r="4" fill="#0" id="circle106"/>
	<circle cx="600.034" cy="589.613" r="4" fill="#0" id="circle107"/>
	<circle cx="610.454" cy="4" r="4" fill="#0" id="circle108"/>
	<circle cx="620.874" cy="589.613" r="4" fill="#0" id="circle109"/>
	<circle cx="631.294" cy="4" r="4" fill="#0" id="circle110"/>
	<circle cx="641.714" cy="589.613" r="4" fill="#0" id="circle111"/>
	<circle cx="652.134" cy="4" r="4" fill="#0" id="circle112"/>
	<circle cx="662.555" cy="589.613" r="4" fill="#0" id="circle113"/>
	<circle cx="672.975" cy="4" r="4" fill="#0" id="circle114"/>
	<circle cx="683.395" cy="589.613" r="4" fill="#0" id="circle115"/>
	<circle cx="693.815" cy="4" r="4" fill="#0" id="circle116"/>
	<circle cx="704.235" cy="568.773" r="4" fill="#0" id="circle117"/>
	<circle cx="714.655" cy="4" r="4" fill="#0" id="circle118"/>
	<circle cx="725.076" cy="568.773" r="4" fill="#0" id="circle119"/>
	<circle cx="735.496" cy="4" r="4" fill="#0" id="circle120"/>
	<circle cx="745.916" cy="568.773" r="4" fill="#0" id="circle121"/>
	<circle cx="756.336" cy="4" r="4" fill="#0" id="circle122"/>
	<circle cx="766.756" cy="568.773" r="4" fill="#0" id="circle123"/>
	<circle cx="777.176" cy="4" r="4" fill="#0" id="circle124"/>
	<circle cx="787.597" cy="568.773" r="4" fill="#0" id="circle125"/>
	<circle cx="798.017" cy="4" r="4" fill="#0" id="circle126"/>
	<circle cx="808.437" cy="568.773" r="4" fill="#0" id="circle127"/>
	<circle cx="818.857" cy="4" r="4" fill="#0" id="circle128"/>
	<circle cx="829.277" cy="568.773" r="4" fill="#0" id="circle129"/>
	<circle cx="839.697" cy="4" r="4" fill="#0" id="circle130"/>
	<circle cx="850.118" cy="568.773" r="4" fill="#0" id="circle131"/>
	<circle cx="858.454" cy="14.4202" r="4" fill="#0" id="circle132"/>
	<circle cx="870.958" cy="568.773" r="4" fill="#0" id="circle133"/>
	<circle cx="879.294" cy="14.4202" r="4" fill="#0" id="circle134"/>
	<circle cx="891.798" cy="558.353" r="4" fill="#0" id="circle135"/>
	<circle cx="900.134" cy="14.4202" r="4" fill="#0" id="circle136"/>
	<circle cx="912.639" cy="558.353" r="4" fill="#0" id="circle137"/>
	<circle cx="920.975" cy="14.4202" r="4" fill="#0" id="circle138"/>
	<circle cx="933.479" cy="537.513" r="4" fill="#0" id="circle139"/>
	<circle cx="937.647" cy="26.9244" r="4" fill="#0" id="circle140"/>
	<circle cx="948.067" cy="45.6807" r="4" fill="#0" id="circle141"/>
	<circle cx="954.319" cy="527.092" r="4" fill="#0" id="circle142"/>
	<circle cx="966.824" cy="56.1008" r="4" fill="#0" id="circle143"/>
	<circle cx="975.16" cy="76.9412" r="4" fill="#0" id="circle144"/>
	<circle cx="975.16" cy="516.672" r="4" fill="#0" id="circle145"/>
	<circle cx="985.58" cy="95.6975" r="4" fill="#0" id="circle146"/>
	<circle cx="985.58" cy="116.538" r="4" fill="#0" id="circle147"/>
	<circle cx="985.58" cy="137.378" r="4" fill="#0" id="circle148"/>
	<circle cx="985.58" cy="158.218" r="4" fill="#0" id="circle149"/>
	<circle cx="985.58" cy="179.059" r="4" fill="#0" id="circle150"/>
	<circle cx="985.58" cy="199.899" r="4" fill="#0" id="circle151"/>
	<circle cx="985.58" cy="220.739" r="4" fill="#0" id="circle152"/>
	<circle cx="985.58" cy="241.58" r="4" fill="#0" id="circle153"/>
	<circle cx="985.58" cy="262.42" r="4" fill="#0" id="circle154"/>
	<circle cx="985.58" cy="283.261" r="4" fill="#0" id="circle155"/>
	<circle cx="985.58" cy="304.101" r="4" fill="#0" id="circle156"/>
	<circle cx="985.58" cy="324.941" r="4" fill="#0" id="circle157"/>
	<circle cx="985.58" cy="345.782" r="4" fill="#0" id="circle158"/>
	<circle cx="985.58" cy="366.622" r="4" fill="#0" id="circle159"/>
	<circle cx="985.58" cy="495.832" r="4" fill="#0" id="circle160"/>
	<circle cx="996" cy="385.378" r="4" fill="#0" id="circle161"/>
	<circle cx="996" cy="406.218" r="4" fill="#0" id="circle162"/>
	<circle cx="996" cy="427.059" r="4" fill="#0" id="circle163"/>
	<circle cx="996" cy="447.899" r="4" fill="#0" id="circle164"/>
	<circle cx="996" cy="468.739" r="4" fill="#0" id="circle165"/>
	</g>
</svg>