<?xml version="1.0" encoding="UTF-8" standalone="no"?>
<!-- Created with CurveBenchmark -->
<svg
	xmlns:dc="http://purl.org/dc/elements/1.1/"
	xmlns:cc="http://creativecommons.org/ns#"
	xmlns:rdf="http://www.w3.org/1999/02/22-rdf-syntax-ns#"
	xmlns:svg="http://www.w3.org/2000/svg"
	xmlns="http://www.w3.org/2000/svg"
	xmlns:sodipodi="http://sodipodi.sourceforge.net/DTD/sodipodi-0.dtd"
	xmlns:inkscape="http://www.inkscape.org/namespaces/inkscape"
	width="1000"
	height="1000"
	id="svg2"
	version="1.1"
	sodipodi:docname="manifold/peel-guitar090.png.txt">
<defs
	id="defs4" />
<metadata
	id="metadata7">
	<rdf:RDF>
		<cc:Work
			rdf:about="">
			<dc:format>image/svg+xml</dc:format>
			<dc:type
				rdf:resource="http://purl.org/dc/dcmitype/StillImage" />
			<dc:title></dc:title>
		</cc:Work>
	</rdf:RDF>
</metadata>
<g
	inkscape:label="Layer 1"
	inkscape:groupmode="layer"
	id="layer1">
	<path style="fill:none;stroke:red;stroke-width:1px;stroke-linecap:butt;stroke-linejoin:miter;stroke-opacity:1" d="M 4,526.477 4,491.174 z" id="boundary" inkscape:connector-curvature="0" />
	<path style="fill:none;stroke:red;stroke-width:1px;stroke-linecap:butt;stroke-linejoin:miter;stroke-opacity:1" d="M 4,491.174 39.3025,484.114 z" id="boundary" inkscape:connector-curvature="0" />
	<path style="fill:none;stroke:red;stroke-width:1px;stroke-linecap:butt;stroke-linejoin:miter;stroke-opacity:1" d="M 113.438,494.705 113.438,530.007 z" id="boundary" inkscape:connector-curvature="0" />
	<path style="fill:none;stroke:red;stroke-width:1px;stroke-linecap:butt;stroke-linejoin:miter;stroke-opacity:1" d="M 39.3025,484.114 74.605,469.993 z" id="boundary" inkscape:connector-curvature="0" />
	<path style="fill:none;stroke:red;stroke-width:1px;stroke-linecap:butt;stroke-linejoin:miter;stroke-opacity:1" d="M 113.438,459.402 113.438,494.705 z" id="boundary" inkscape:connector-curvature="0" />
	<path style="fill:none;stroke:red;stroke-width:1px;stroke-linecap:butt;stroke-linejoin:miter;stroke-opacity:1" d="M 4,526.477 4,561.779 z" id="boundary" inkscape:connector-curvature="0" />
	<path style="fill:none;stroke:red;stroke-width:1px;stroke-linecap:butt;stroke-linejoin:miter;stroke-opacity:1" d="M 113.438,530.007 113.438,565.31 z" id="boundary" inkscape:connector-curvature="0" />
	<path style="fill:none;stroke:red;stroke-width:1px;stroke-linecap:butt;stroke-linejoin:miter;stroke-opacity:1" d="M 4,561.779 4,597.082 z" id="boundary" inkscape:connector-curvature="0" />
	<path style="fill:none;stroke:red;stroke-width:1px;stroke-linecap:butt;stroke-linejoin:miter;stroke-opacity:1" d="M 4,632.384 4,667.687 z" id="boundary" inkscape:connector-curvature="0" />
	<path style="fill:none;stroke:red;stroke-width:1px;stroke-linecap:butt;stroke-linejoin:miter;stroke-opacity:1" d="M 4,738.292 4,773.594 z" id="boundary" inkscape:connector-curvature="0" />
	<path style="fill:none;stroke:red;stroke-width:1px;stroke-linecap:butt;stroke-linejoin:miter;stroke-opacity:1" d="M 113.438,777.125 113.438,812.427 z" id="boundary" inkscape:connector-curvature="0" />
	<path style="fill:none;stroke:red;stroke-width:1px;stroke-linecap:butt;stroke-linejoin:miter;stroke-opacity:1" d="M 4,879.502 4,844.199 z" id="boundary" inkscape:connector-curvature="0" />
	<path style="fill:none;stroke:red;stroke-width:1px;stroke-linecap:butt;stroke-linejoin:miter;stroke-opacity:1" d="M 4,914.804 4,879.502 z" id="boundary" inkscape:connector-curvature="0" />
	<path style="fill:none;stroke:red;stroke-width:1px;stroke-linecap:butt;stroke-linejoin:miter;stroke-opacity:1" d="M 99.3167,900.683 99.3167,935.986 z" id="boundary" inkscape:connector-curvature="0" />
	<path style="fill:none;stroke:red;stroke-width:1px;stroke-linecap:butt;stroke-linejoin:miter;stroke-opacity:1" d="M 39.3025,996 4,985.409 z" id="boundary" inkscape:connector-curvature="0" />
	<path style="fill:none;stroke:red;stroke-width:1px;stroke-linecap:butt;stroke-linejoin:miter;stroke-opacity:1" d="M 4,985.409 4,950.107 z" id="boundary" inkscape:connector-curvature="0" />
	<path style="fill:none;stroke:red;stroke-width:1px;stroke-linecap:butt;stroke-linejoin:miter;stroke-opacity:1" d="M 67.5445,102.847 60.484,67.5445 z" id="boundary" inkscape:connector-curvature="0" />
	<path style="fill:none;stroke:red;stroke-width:1px;stroke-linecap:butt;stroke-linejoin:miter;stroke-opacity:1" d="M 60.484,67.5445 46.363,32.242 z" id="boundary" inkscape:connector-curvature="0" />
	<path style="fill:none;stroke:red;stroke-width:1px;stroke-linecap:butt;stroke-linejoin:miter;stroke-opacity:1" d="M 85.1957,35.7722 67.5445,4 z" id="boundary" inkscape:connector-curvature="0" />
	<path style="fill:none;stroke:red;stroke-width:1px;stroke-linecap:butt;stroke-linejoin:miter;stroke-opacity:1" d="M 67.5445,4 46.363,32.242 z" id="boundary" inkscape:connector-curvature="0" />
	<path style="fill:none;stroke:red;stroke-width:1px;stroke-linecap:butt;stroke-linejoin:miter;stroke-opacity:1" d="M 81.6655,300.541 81.6655,265.238 z" id="boundary" inkscape:connector-curvature="0" />
	<path style="fill:none;stroke:red;stroke-width:1px;stroke-linecap:butt;stroke-linejoin:miter;stroke-opacity:1" d="M 113.438,671.217 113.438,706.52 z" id="boundary" inkscape:connector-curvature="0" />
	<path style="fill:none;stroke:red;stroke-width:1px;stroke-linecap:butt;stroke-linejoin:miter;stroke-opacity:1" d="M 81.6655,300.541 81.6655,335.843 z" id="boundary" inkscape:connector-curvature="0" />
	<path style="fill:none;stroke:red;stroke-width:1px;stroke-linecap:butt;stroke-linejoin:miter;stroke-opacity:1" d="M 81.6655,335.843 81.6655,371.146 z" id="boundary" inkscape:connector-curvature="0" />
	<path style="fill:none;stroke:red;stroke-width:1px;stroke-linecap:butt;stroke-linejoin:miter;stroke-opacity:1" d="M 81.6655,371.146 81.6655,406.448 z" id="boundary" inkscape:connector-curvature="0" />
	<path style="fill:none;stroke:red;stroke-width:1px;stroke-linecap:butt;stroke-linejoin:miter;stroke-opacity:1" d="M 88.726,131.089 67.5445,102.847 z" id="boundary" inkscape:connector-curvature="0" />
	<path style="fill:none;stroke:red;stroke-width:1px;stroke-linecap:butt;stroke-linejoin:miter;stroke-opacity:1" d="M 88.726,131.089 88.726,166.391 z" id="boundary" inkscape:connector-curvature="0" />
	<path style="fill:none;stroke:red;stroke-width:1px;stroke-linecap:butt;stroke-linejoin:miter;stroke-opacity:1" d="M 88.726,166.391 88.726,201.694 z" id="boundary" inkscape:connector-curvature="0" />
	<path style="fill:none;stroke:red;stroke-width:1px;stroke-linecap:butt;stroke-linejoin:miter;stroke-opacity:1" d="M 113.438,424.1 81.6655,406.448 z" id="boundary" inkscape:connector-curvature="0" />
	<path style="fill:none;stroke:red;stroke-width:1px;stroke-linecap:butt;stroke-linejoin:miter;stroke-opacity:1" d="M 81.6655,265.238 106.377,233.466 z" id="boundary" inkscape:connector-curvature="0" />
	<path style="fill:none;stroke:red;stroke-width:1px;stroke-linecap:butt;stroke-linejoin:miter;stroke-opacity:1" d="M 106.377,233.466 88.726,201.694 z" id="boundary" inkscape:connector-curvature="0" />
	<path style="fill:none;stroke:red;stroke-width:1px;stroke-linecap:butt;stroke-linejoin:miter;stroke-opacity:1" d="M 4,950.107 4,914.804 z" id="boundary" inkscape:connector-curvature="0" />
	<path style="fill:none;stroke:red;stroke-width:1px;stroke-linecap:butt;stroke-linejoin:miter;stroke-opacity:1" d="M 39.3025,996 74.605,996 z" id="boundary" inkscape:connector-curvature="0" />
	<path style="fill:none;stroke:red;stroke-width:1px;stroke-linecap:butt;stroke-linejoin:miter;stroke-opacity:1" d="M 74.605,996 99.3167,935.986 z" id="boundary" inkscape:connector-curvature="0" />
	<path style="fill:none;stroke:red;stroke-width:1px;stroke-linecap:butt;stroke-linejoin:miter;stroke-opacity:1" d="M 113.438,459.402 113.438,424.1 z" id="boundary" inkscape:connector-curvature="0" />
	<path style="fill:none;stroke:red;stroke-width:1px;stroke-linecap:butt;stroke-linejoin:miter;stroke-opacity:1" d="M 113.438,600.612 113.438,565.31 z" id="boundary" inkscape:connector-curvature="0" />
	<path style="fill:none;stroke:red;stroke-width:1px;stroke-linecap:butt;stroke-linejoin:miter;stroke-opacity:1" d="M 4,632.384 4,597.082 z" id="boundary" inkscape:connector-curvature="0" />
	<path style="fill:none;stroke:red;stroke-width:1px;stroke-linecap:butt;stroke-linejoin:miter;stroke-opacity:1" d="M 113.438,635.915 113.438,600.612 z" id="boundary" inkscape:connector-curvature="0" />
	<path style="fill:none;stroke:red;stroke-width:1px;stroke-linecap:butt;stroke-linejoin:miter;stroke-opacity:1" d="M 113.438,671.217 113.438,635.915 z" id="boundary" inkscape:connector-curvature="0" />
	<path style="fill:none;stroke:red;stroke-width:1px;stroke-linecap:butt;stroke-linejoin:miter;stroke-opacity:1" d="M 4,667.687 4,702.989 z" id="boundary" inkscape:connector-curvature="0" />
	<path style="fill:none;stroke:red;stroke-width:1px;stroke-linecap:butt;stroke-linejoin:miter;stroke-opacity:1" d="M 4,702.989 4,738.292 z" id="boundary" inkscape:connector-curvature="0" />
	<path style="fill:none;stroke:red;stroke-width:1px;stroke-linecap:butt;stroke-linejoin:miter;stroke-opacity:1" d="M 113.438,706.52 113.438,741.822 z" id="boundary" inkscape:connector-curvature="0" />
	<path style="fill:none;stroke:red;stroke-width:1px;stroke-linecap:butt;stroke-linejoin:miter;stroke-opacity:1" d="M 113.438,741.822 113.438,777.125 z" id="boundary" inkscape:connector-curvature="0" />
	<path style="fill:none;stroke:red;stroke-width:1px;stroke-linecap:butt;stroke-linejoin:miter;stroke-opacity:1" d="M 4,773.594 4,808.897 z" id="boundary" inkscape:connector-curvature="0" />
	<path style="fill:none;stroke:red;stroke-width:1px;stroke-linecap:butt;stroke-linejoin:miter;stroke-opacity:1" d="M 4,808.897 4,844.199 z" id="boundary" inkscape:connector-curvature="0" />
	<path style="fill:none;stroke:red;stroke-width:1px;stroke-linecap:butt;stroke-linejoin:miter;stroke-opacity:1" d="M 113.438,847.73 113.438,812.427 z" id="boundary" inkscape:connector-curvature="0" />
	<path style="fill:none;stroke:red;stroke-width:1px;stroke-linecap:butt;stroke-linejoin:miter;stroke-opacity:1" d="M 99.3167,900.683 113.438,847.73 z" id="boundary" inkscape:connector-curvature="0" />
	<circle cx="4" cy="491.174" r="4" fill="#0" id="circle0"/>
	<circle cx="4" cy="526.477" r="4" fill="#0" id="circle1"/>
	<circle cx="4" cy="561.779" r="4" fill="#0" id="circle2"/>
	<circle cx="4" cy="597.082" r="4" fill="#0" id="circle3"/>
	<circle cx="4" cy="632.384" r="4" fill="#0" id="circle4"/>
	<circle cx="4" cy="667.687" r="4" fill="#0" id="circle5"/>
	<circle cx="4" cy="702.989" r="4" fill="#0" id="circle6"/>
	<circle cx="4" cy="738.292" r="4" fill="#0" id="circle7"/>
	<circle cx="4" cy="773.594" r="4" fill="#0" id="circle8"/>
	<circle cx="4" cy="808.897" r="4" fill="#0" id="circle9"/>
	<circle cx="4" cy="844.199" r="4" fill="#0" id="circle10"/>
	<circle cx="4" cy="879.502" r="4" fill="#0" id="circle11"/>
	<circle cx="4" cy="914.804" r="4" fill="#0" id="circle12"/>
	<circle cx="4" cy="950.107" r="4" fill="#0" id="circle13"/>
	<circle cx="4" cy="985.409" r="4" fill="#0" id="circle14"/>
	<circle cx="39.3025" cy="484.114" r="4" fill="#0" id="circle15"/>
	<circle cx="39.3025" cy="996" r="4" fill="#0" id="circle16"/>
	<circle cx="46.363" cy="32.242" r="4" fill="#0" id="circle17"/>
	<circle cx="60.484" cy="67.5445" r="4" fill="#0" id="circle18"/>
	<circle cx="67.5445" cy="4" r="4" fill="#0" id="circle19"/>
	<circle cx="67.5445" cy="102.847" r="4" fill="#0" id="circle20"/>
	<circle cx="74.605" cy="469.993" r="4" fill="#0" id="circle21"/>
	<circle cx="74.605" cy="996" r="4" fill="#0" id="circle22"/>
	<circle cx="81.6655" cy="265.238" r="4" fill="#0" id="circle23"/>
	<circle cx="81.6655" cy="300.541" r="4" fill="#0" id="circle24"/>
	<circle cx="81.6655" cy="335.843" r="4" fill="#0" id="circle25"/>
	<circle cx="81.6655" cy="371.146" r="4" fill="#0" id="circle26"/>
	<circle cx="81.6655" cy="406.448" r="4" fill="#0" id="circle27"/>
	<circle cx="85.1957" cy="35.7722" r="4" fill="#0" id="circle28"/>
	<circle cx="88.726" cy="131.089" r="4" fill="#0" id="circle29"/>
	<circle cx="88.726" cy="166.391" r="4" fill="#0" id="circle30"/>
	<circle cx="88.726" cy="201.694" r="4" fill="#0" id="circle31"/>
	<circle cx="99.3167" cy="900.683" r="4" fill="#0" id="circle32"/>
	<circle cx="99.3167" cy="935.986" r="4" fill="#0" id="circle33"/>
	<circle cx="106.377" cy="233.466" r="4" fill="#0" id="circle34"/>
	<circle cx="113.438" cy="424.1" r="4" fill="#0" id="circle35"/>
	<circle cx="113.438" cy="459.402" r="4" fill="#0" id="circle36"/>
	<circle cx="113.438" cy="494.705" r="4" fill="#0" id="circle37"/>
	<circle cx="113.438" cy="530.007" r="4" fill="#0" id="circle38"/>
	<circle cx="113.438" cy="565.31" r="4" fill="#0" id="circle39"/>
	<circle cx="113.438" cy="600.612" r="4" fill="#0" id="circle40"/>
	<circle cx="113.438" cy="635.915" r="4" fill="#0" id="circle41"/>
	<circle cx="113.438" cy="671.217" r="4" fill="#0" id="circle42"/>
	<circle cx="113.438" cy="706.52" r="4" fill="#0" id="circle43"/>
	<circle cx="113.438" cy="741.822" r="4" fill="#0" id="circle44"/>
	<circle cx="113.438" cy="777.125" r="4" fill="#0" id="circle45"/>
	<circle cx="113.438" cy="812.427" r="4" fill="#0" id="circle46"/>
	<circle cx="113.438" cy="847.73" r="4" fill="#0" id="circle47"/>
	</g>
</svg>