<?xml version="1.0" encoding="UTF-8" standalone="no"?>
<!-- Created with CurveBenchmark -->
<svg
	xmlns:dc="http://purl.org/dc/elements/1.1/"
	xmlns:cc="http://creativecommons.org/ns#"
	xmlns:rdf="http://www.w3.org/1999/02/22-rdf-syntax-ns#"
	xmlns:svg="http://www.w3.org/2000/svg"
	xmlns="http://www.w3.org/2000/svg"
	xmlns:sodipodi="http://sodipodi.sourceforge.net/DTD/sodipodi-0.dtd"
	xmlns:inkscape="http://www.inkscape.org/namespaces/inkscape"
	width="1000"
	height="1000"
	id="svg2"
	version="1.1"
	sodipodi:docname="manifold/peel-hammer015.png.txt">
<defs
	id="defs4" />
<metadata
	id="metadata7">
	<rdf:RDF>
		<cc:Work
			rdf:about="">
			<dc:format>image/svg+xml</dc:format>
			<dc:type
				rdf:resource="http://purl.org/dc/dcmitype/StillImage" />
			<dc:title></dc:title>
		</cc:Work>
	</rdf:RDF>
</metadata>
<g
	inkscape:label="Layer 1"
	inkscape:groupmode="layer"
	id="layer1">
	<path style="fill:none;stroke:red;stroke-width:1px;stroke-linecap:butt;stroke-linejoin:miter;stroke-opacity:1" d="M 136.267,113.264 142.017,142.017 z" id="boundary" inkscape:connector-curvature="0" />
	<path style="fill:none;stroke:red;stroke-width:1px;stroke-linecap:butt;stroke-linejoin:miter;stroke-opacity:1" d="M 4,153.519 15.5014,124.765 z" id="boundary" inkscape:connector-curvature="0" />
	<path style="fill:none;stroke:red;stroke-width:1px;stroke-linecap:butt;stroke-linejoin:miter;stroke-opacity:1" d="M 136.267,556.07 136.267,584.823 z" id="boundary" inkscape:connector-curvature="0" />
	<path style="fill:none;stroke:red;stroke-width:1px;stroke-linecap:butt;stroke-linejoin:miter;stroke-opacity:1" d="M 15.5014,124.765 29.8783,98.887 z" id="boundary" inkscape:connector-curvature="0" />
	<path style="fill:none;stroke:red;stroke-width:1px;stroke-linecap:butt;stroke-linejoin:miter;stroke-opacity:1" d="M 4,153.519 18.3768,179.397 z" id="boundary" inkscape:connector-curvature="0" />
	<path style="fill:none;stroke:red;stroke-width:1px;stroke-linecap:butt;stroke-linejoin:miter;stroke-opacity:1" d="M 18.3768,179.397 38.5043,156.394 z" id="boundary" inkscape:connector-curvature="0" />
	<path style="fill:none;stroke:red;stroke-width:1px;stroke-linecap:butt;stroke-linejoin:miter;stroke-opacity:1" d="M 101.762,93.1362 78.7594,110.388 z" id="boundary" inkscape:connector-curvature="0" />
	<path style="fill:none;stroke:red;stroke-width:1px;stroke-linecap:butt;stroke-linejoin:miter;stroke-opacity:1" d="M 29.8783,98.887 47.1304,75.8841 z" id="boundary" inkscape:connector-curvature="0" />
	<path style="fill:none;stroke:red;stroke-width:1px;stroke-linecap:butt;stroke-linejoin:miter;stroke-opacity:1" d="M 38.5043,156.394 55.7565,133.391 z" id="boundary" inkscape:connector-curvature="0" />
	<path style="fill:none;stroke:red;stroke-width:1px;stroke-linecap:butt;stroke-linejoin:miter;stroke-opacity:1" d="M 136.267,113.264 130.516,84.5101 z" id="boundary" inkscape:connector-curvature="0" />
	<path style="fill:none;stroke:red;stroke-width:1px;stroke-linecap:butt;stroke-linejoin:miter;stroke-opacity:1" d="M 130.516,84.5101 101.762,93.1362 z" id="boundary" inkscape:connector-curvature="0" />
	<path style="fill:none;stroke:red;stroke-width:1px;stroke-linecap:butt;stroke-linejoin:miter;stroke-opacity:1" d="M 47.1304,75.8841 64.3826,52.8812 z" id="boundary" inkscape:connector-curvature="0" />
	<path style="fill:none;stroke:red;stroke-width:1px;stroke-linecap:butt;stroke-linejoin:miter;stroke-opacity:1" d="M 55.7565,133.391 78.7594,110.388 z" id="boundary" inkscape:connector-curvature="0" />
	<path style="fill:none;stroke:red;stroke-width:1px;stroke-linecap:butt;stroke-linejoin:miter;stroke-opacity:1" d="M 64.3826,52.8812 87.3855,35.629 z" id="boundary" inkscape:connector-curvature="0" />
	<path style="fill:none;stroke:red;stroke-width:1px;stroke-linecap:butt;stroke-linejoin:miter;stroke-opacity:1" d="M 87.3855,35.629 110.388,18.3768 z" id="boundary" inkscape:connector-curvature="0" />
	<path style="fill:none;stroke:red;stroke-width:1px;stroke-linecap:butt;stroke-linejoin:miter;stroke-opacity:1" d="M 130.516,924.116 124.765,970.122 z" id="boundary" inkscape:connector-curvature="0" />
	<path style="fill:none;stroke:red;stroke-width:1px;stroke-linecap:butt;stroke-linejoin:miter;stroke-opacity:1" d="M 142.017,142.017 150.643,170.771 z" id="boundary" inkscape:connector-curvature="0" />
	<path style="fill:none;stroke:red;stroke-width:1px;stroke-linecap:butt;stroke-linejoin:miter;stroke-opacity:1" d="M 110.388,18.3768 136.267,4 z" id="boundary" inkscape:connector-curvature="0" />
	<path style="fill:none;stroke:red;stroke-width:1px;stroke-linecap:butt;stroke-linejoin:miter;stroke-opacity:1" d="M 130.516,895.362 130.516,924.116 z" id="boundary" inkscape:connector-curvature="0" />
	<path style="fill:none;stroke:red;stroke-width:1px;stroke-linecap:butt;stroke-linejoin:miter;stroke-opacity:1" d="M 165.02,4 136.267,4 z" id="boundary" inkscape:connector-curvature="0" />
	<path style="fill:none;stroke:red;stroke-width:1px;stroke-linecap:butt;stroke-linejoin:miter;stroke-opacity:1" d="M 136.267,527.316 136.267,498.562 z" id="boundary" inkscape:connector-curvature="0" />
	<path style="fill:none;stroke:red;stroke-width:1px;stroke-linecap:butt;stroke-linejoin:miter;stroke-opacity:1" d="M 165.02,343.293 165.02,314.539 z" id="boundary" inkscape:connector-curvature="0" />
	<path style="fill:none;stroke:red;stroke-width:1px;stroke-linecap:butt;stroke-linejoin:miter;stroke-opacity:1" d="M 136.267,556.07 136.267,527.316 z" id="boundary" inkscape:connector-curvature="0" />
	<path style="fill:none;stroke:red;stroke-width:1px;stroke-linecap:butt;stroke-linejoin:miter;stroke-opacity:1" d="M 193.774,4 165.02,4 z" id="boundary" inkscape:connector-curvature="0" />
	<path style="fill:none;stroke:red;stroke-width:1px;stroke-linecap:butt;stroke-linejoin:miter;stroke-opacity:1" d="M 136.267,584.823 136.267,613.577 z" id="boundary" inkscape:connector-curvature="0" />
	<path style="fill:none;stroke:red;stroke-width:1px;stroke-linecap:butt;stroke-linejoin:miter;stroke-opacity:1" d="M 150.643,170.771 159.27,199.525 z" id="boundary" inkscape:connector-curvature="0" />
	<path style="fill:none;stroke:red;stroke-width:1px;stroke-linecap:butt;stroke-linejoin:miter;stroke-opacity:1" d="M 136.267,613.577 136.267,642.33 z" id="boundary" inkscape:connector-curvature="0" />
	<path style="fill:none;stroke:red;stroke-width:1px;stroke-linecap:butt;stroke-linejoin:miter;stroke-opacity:1" d="M 142.017,469.809 136.267,498.562 z" id="boundary" inkscape:connector-curvature="0" />
	<path style="fill:none;stroke:red;stroke-width:1px;stroke-linecap:butt;stroke-linejoin:miter;stroke-opacity:1" d="M 165.02,400.8 159.27,429.554 z" id="boundary" inkscape:connector-curvature="0" />
	<path style="fill:none;stroke:red;stroke-width:1px;stroke-linecap:butt;stroke-linejoin:miter;stroke-opacity:1" d="M 136.267,671.084 136.267,642.33 z" id="boundary" inkscape:connector-curvature="0" />
	<path style="fill:none;stroke:red;stroke-width:1px;stroke-linecap:butt;stroke-linejoin:miter;stroke-opacity:1" d="M 242.655,400.8 245.53,429.554 z" id="boundary" inkscape:connector-curvature="0" />
	<path style="fill:none;stroke:red;stroke-width:1px;stroke-linecap:butt;stroke-linejoin:miter;stroke-opacity:1" d="M 136.267,699.838 136.267,671.084 z" id="boundary" inkscape:connector-curvature="0" />
	<path style="fill:none;stroke:red;stroke-width:1px;stroke-linecap:butt;stroke-linejoin:miter;stroke-opacity:1" d="M 242.655,372.046 242.655,400.8 z" id="boundary" inkscape:connector-curvature="0" />
	<path style="fill:none;stroke:red;stroke-width:1px;stroke-linecap:butt;stroke-linejoin:miter;stroke-opacity:1" d="M 136.267,728.591 136.267,699.838 z" id="boundary" inkscape:connector-curvature="0" />
	<path style="fill:none;stroke:red;stroke-width:1px;stroke-linecap:butt;stroke-linejoin:miter;stroke-opacity:1" d="M 242.655,372.046 242.655,343.293 z" id="boundary" inkscape:connector-curvature="0" />
	<path style="fill:none;stroke:red;stroke-width:1px;stroke-linecap:butt;stroke-linejoin:miter;stroke-opacity:1" d="M 136.267,757.345 136.267,728.591 z" id="boundary" inkscape:connector-curvature="0" />
	<path style="fill:none;stroke:red;stroke-width:1px;stroke-linecap:butt;stroke-linejoin:miter;stroke-opacity:1" d="M 242.655,343.293 242.655,314.539 z" id="boundary" inkscape:connector-curvature="0" />
	<path style="fill:none;stroke:red;stroke-width:1px;stroke-linecap:butt;stroke-linejoin:miter;stroke-opacity:1" d="M 165.02,372.046 165.02,400.8 z" id="boundary" inkscape:connector-curvature="0" />
	<path style="fill:none;stroke:red;stroke-width:1px;stroke-linecap:butt;stroke-linejoin:miter;stroke-opacity:1" d="M 136.267,786.099 136.267,757.345 z" id="boundary" inkscape:connector-curvature="0" />
	<path style="fill:none;stroke:red;stroke-width:1px;stroke-linecap:butt;stroke-linejoin:miter;stroke-opacity:1" d="M 136.267,814.852 136.267,786.099 z" id="boundary" inkscape:connector-curvature="0" />
	<path style="fill:none;stroke:red;stroke-width:1px;stroke-linecap:butt;stroke-linejoin:miter;stroke-opacity:1" d="M 165.02,343.293 165.02,372.046 z" id="boundary" inkscape:connector-curvature="0" />
	<path style="fill:none;stroke:red;stroke-width:1px;stroke-linecap:butt;stroke-linejoin:miter;stroke-opacity:1" d="M 130.516,895.362 136.267,843.606 z" id="boundary" inkscape:connector-curvature="0" />
	<path style="fill:none;stroke:red;stroke-width:1px;stroke-linecap:butt;stroke-linejoin:miter;stroke-opacity:1" d="M 136.267,843.606 136.267,814.852 z" id="boundary" inkscape:connector-curvature="0" />
	<path style="fill:none;stroke:red;stroke-width:1px;stroke-linecap:butt;stroke-linejoin:miter;stroke-opacity:1" d="M 268.533,484.186 254.157,458.307 z" id="boundary" inkscape:connector-curvature="0" />
	<path style="fill:none;stroke:red;stroke-width:1px;stroke-linecap:butt;stroke-linejoin:miter;stroke-opacity:1" d="M 271.409,800.475 271.409,829.229 z" id="boundary" inkscape:connector-curvature="0" />
	<path style="fill:none;stroke:red;stroke-width:1px;stroke-linecap:butt;stroke-linejoin:miter;stroke-opacity:1" d="M 271.409,857.983 277.159,886.736 z" id="boundary" inkscape:connector-curvature="0" />
	<path style="fill:none;stroke:red;stroke-width:1px;stroke-linecap:butt;stroke-linejoin:miter;stroke-opacity:1" d="M 271.409,541.693 271.409,512.939 z" id="boundary" inkscape:connector-curvature="0" />
	<path style="fill:none;stroke:red;stroke-width:1px;stroke-linecap:butt;stroke-linejoin:miter;stroke-opacity:1" d="M 193.774,4 222.528,4 z" id="boundary" inkscape:connector-curvature="0" />
	<path style="fill:none;stroke:red;stroke-width:1px;stroke-linecap:butt;stroke-linejoin:miter;stroke-opacity:1" d="M 165.02,228.278 159.27,199.525 z" id="boundary" inkscape:connector-curvature="0" />
	<path style="fill:none;stroke:red;stroke-width:1px;stroke-linecap:butt;stroke-linejoin:miter;stroke-opacity:1" d="M 271.409,685.461 271.409,714.214 z" id="boundary" inkscape:connector-curvature="0" />
	<path style="fill:none;stroke:red;stroke-width:1px;stroke-linecap:butt;stroke-linejoin:miter;stroke-opacity:1" d="M 165.02,228.278 165.02,257.032 z" id="boundary" inkscape:connector-curvature="0" />
	<path style="fill:none;stroke:red;stroke-width:1px;stroke-linecap:butt;stroke-linejoin:miter;stroke-opacity:1" d="M 165.02,257.032 165.02,285.786 z" id="boundary" inkscape:connector-curvature="0" />
	<path style="fill:none;stroke:red;stroke-width:1px;stroke-linecap:butt;stroke-linejoin:miter;stroke-opacity:1" d="M 165.02,285.786 165.02,314.539 z" id="boundary" inkscape:connector-curvature="0" />
	<path style="fill:none;stroke:red;stroke-width:1px;stroke-linecap:butt;stroke-linejoin:miter;stroke-opacity:1" d="M 159.27,429.554 142.017,469.809 z" id="boundary" inkscape:connector-curvature="0" />
	<path style="fill:none;stroke:red;stroke-width:1px;stroke-linecap:butt;stroke-linejoin:miter;stroke-opacity:1" d="M 242.655,257.032 242.655,228.278 z" id="boundary" inkscape:connector-curvature="0" />
	<path style="fill:none;stroke:red;stroke-width:1px;stroke-linecap:butt;stroke-linejoin:miter;stroke-opacity:1" d="M 271.409,771.722 271.409,742.968 z" id="boundary" inkscape:connector-curvature="0" />
	<path style="fill:none;stroke:red;stroke-width:1px;stroke-linecap:butt;stroke-linejoin:miter;stroke-opacity:1" d="M 124.765,970.122 139.142,996 z" id="boundary" inkscape:connector-curvature="0" />
	<path style="fill:none;stroke:red;stroke-width:1px;stroke-linecap:butt;stroke-linejoin:miter;stroke-opacity:1" d="M 139.142,996 167.896,996 z" id="boundary" inkscape:connector-curvature="0" />
	<path style="fill:none;stroke:red;stroke-width:1px;stroke-linecap:butt;stroke-linejoin:miter;stroke-opacity:1" d="M 242.655,285.786 242.655,257.032 z" id="boundary" inkscape:connector-curvature="0" />
	<path style="fill:none;stroke:red;stroke-width:1px;stroke-linecap:butt;stroke-linejoin:miter;stroke-opacity:1" d="M 167.896,996 196.649,996 z" id="boundary" inkscape:connector-curvature="0" />
	<path style="fill:none;stroke:red;stroke-width:1px;stroke-linecap:butt;stroke-linejoin:miter;stroke-opacity:1" d="M 242.655,314.539 242.655,285.786 z" id="boundary" inkscape:connector-curvature="0" />
	<path style="fill:none;stroke:red;stroke-width:1px;stroke-linecap:butt;stroke-linejoin:miter;stroke-opacity:1" d="M 271.409,599.2 271.409,627.954 z" id="boundary" inkscape:connector-curvature="0" />
	<path style="fill:none;stroke:red;stroke-width:1px;stroke-linecap:butt;stroke-linejoin:miter;stroke-opacity:1" d="M 254.157,458.307 245.53,429.554 z" id="boundary" inkscape:connector-curvature="0" />
	<path style="fill:none;stroke:red;stroke-width:1px;stroke-linecap:butt;stroke-linejoin:miter;stroke-opacity:1" d="M 248.406,193.774 259.907,159.27 z" id="boundary" inkscape:connector-curvature="0" />
	<path style="fill:none;stroke:red;stroke-width:1px;stroke-linecap:butt;stroke-linejoin:miter;stroke-opacity:1" d="M 351.919,93.1362 380.672,90.2609 z" id="boundary" inkscape:connector-curvature="0" />
	<path style="fill:none;stroke:red;stroke-width:1px;stroke-linecap:butt;stroke-linejoin:miter;stroke-opacity:1" d="M 268.533,484.186 271.409,512.939 z" id="boundary" inkscape:connector-curvature="0" />
	<path style="fill:none;stroke:red;stroke-width:1px;stroke-linecap:butt;stroke-linejoin:miter;stroke-opacity:1" d="M 259.907,159.27 271.409,113.264 z" id="boundary" inkscape:connector-curvature="0" />
	<path style="fill:none;stroke:red;stroke-width:1px;stroke-linecap:butt;stroke-linejoin:miter;stroke-opacity:1" d="M 351.919,93.1362 328.916,75.8841 z" id="boundary" inkscape:connector-curvature="0" />
	<path style="fill:none;stroke:red;stroke-width:1px;stroke-linecap:butt;stroke-linejoin:miter;stroke-opacity:1" d="M 271.409,541.693 271.409,570.446 z" id="boundary" inkscape:connector-curvature="0" />
	<path style="fill:none;stroke:red;stroke-width:1px;stroke-linecap:butt;stroke-linejoin:miter;stroke-opacity:1" d="M 271.409,570.446 271.409,599.2 z" id="boundary" inkscape:connector-curvature="0" />
	<path style="fill:none;stroke:red;stroke-width:1px;stroke-linecap:butt;stroke-linejoin:miter;stroke-opacity:1" d="M 242.655,228.278 248.406,193.774 z" id="boundary" inkscape:connector-curvature="0" />
	<path style="fill:none;stroke:red;stroke-width:1px;stroke-linecap:butt;stroke-linejoin:miter;stroke-opacity:1" d="M 222.528,4 251.281,4 z" id="boundary" inkscape:connector-curvature="0" />
	<path style="fill:none;stroke:red;stroke-width:1px;stroke-linecap:butt;stroke-linejoin:miter;stroke-opacity:1" d="M 271.409,656.707 271.409,627.954 z" id="boundary" inkscape:connector-curvature="0" />
	<path style="fill:none;stroke:red;stroke-width:1px;stroke-linecap:butt;stroke-linejoin:miter;stroke-opacity:1" d="M 271.409,857.983 271.409,829.229 z" id="boundary" inkscape:connector-curvature="0" />
	<path style="fill:none;stroke:red;stroke-width:1px;stroke-linecap:butt;stroke-linejoin:miter;stroke-opacity:1" d="M 277.159,944.243 282.91,972.997 z" id="boundary" inkscape:connector-curvature="0" />
	<path style="fill:none;stroke:red;stroke-width:1px;stroke-linecap:butt;stroke-linejoin:miter;stroke-opacity:1" d="M 282.91,972.997 254.157,996 z" id="boundary" inkscape:connector-curvature="0" />
	<path style="fill:none;stroke:red;stroke-width:1px;stroke-linecap:butt;stroke-linejoin:miter;stroke-opacity:1" d="M 271.409,113.264 271.409,84.5101 z" id="boundary" inkscape:connector-curvature="0" />
	<path style="fill:none;stroke:red;stroke-width:1px;stroke-linecap:butt;stroke-linejoin:miter;stroke-opacity:1" d="M 328.916,75.8841 300.162,75.8841 z" id="boundary" inkscape:connector-curvature="0" />
	<path style="fill:none;stroke:red;stroke-width:1px;stroke-linecap:butt;stroke-linejoin:miter;stroke-opacity:1" d="M 280.035,12.6261 251.281,4 z" id="boundary" inkscape:connector-curvature="0" />
	<path style="fill:none;stroke:red;stroke-width:1px;stroke-linecap:butt;stroke-linejoin:miter;stroke-opacity:1" d="M 300.162,75.8841 271.409,84.5101 z" id="boundary" inkscape:connector-curvature="0" />
	<path style="fill:none;stroke:red;stroke-width:1px;stroke-linecap:butt;stroke-linejoin:miter;stroke-opacity:1" d="M 271.409,685.461 271.409,656.707 z" id="boundary" inkscape:connector-curvature="0" />
	<path style="fill:none;stroke:red;stroke-width:1px;stroke-linecap:butt;stroke-linejoin:miter;stroke-opacity:1" d="M 271.409,742.968 271.409,714.214 z" id="boundary" inkscape:connector-curvature="0" />
	<path style="fill:none;stroke:red;stroke-width:1px;stroke-linecap:butt;stroke-linejoin:miter;stroke-opacity:1" d="M 271.409,771.722 271.409,800.475 z" id="boundary" inkscape:connector-curvature="0" />
	<path style="fill:none;stroke:red;stroke-width:1px;stroke-linecap:butt;stroke-linejoin:miter;stroke-opacity:1" d="M 277.159,886.736 277.159,915.49 z" id="boundary" inkscape:connector-curvature="0" />
	<path style="fill:none;stroke:red;stroke-width:1px;stroke-linecap:butt;stroke-linejoin:miter;stroke-opacity:1" d="M 225.403,996 196.649,996 z" id="boundary" inkscape:connector-curvature="0" />
	<path style="fill:none;stroke:red;stroke-width:1px;stroke-linecap:butt;stroke-linejoin:miter;stroke-opacity:1" d="M 277.159,944.243 277.159,915.49 z" id="boundary" inkscape:connector-curvature="0" />
	<path style="fill:none;stroke:red;stroke-width:1px;stroke-linecap:butt;stroke-linejoin:miter;stroke-opacity:1" d="M 225.403,996 254.157,996 z" id="boundary" inkscape:connector-curvature="0" />
	<path style="fill:none;stroke:red;stroke-width:1px;stroke-linecap:butt;stroke-linejoin:miter;stroke-opacity:1" d="M 308.788,15.5014 280.035,12.6261 z" id="boundary" inkscape:connector-curvature="0" />
	<path style="fill:none;stroke:red;stroke-width:1px;stroke-linecap:butt;stroke-linejoin:miter;stroke-opacity:1" d="M 380.672,90.2609 392.174,61.5072 z" id="boundary" inkscape:connector-curvature="0" />
	<path style="fill:none;stroke:red;stroke-width:1px;stroke-linecap:butt;stroke-linejoin:miter;stroke-opacity:1" d="M 308.788,15.5014 337.542,9.75072 z" id="boundary" inkscape:connector-curvature="0" />
	<path style="fill:none;stroke:red;stroke-width:1px;stroke-linecap:butt;stroke-linejoin:miter;stroke-opacity:1" d="M 392.174,18.3768 392.174,61.5072 z" id="boundary" inkscape:connector-curvature="0" />
	<path style="fill:none;stroke:red;stroke-width:1px;stroke-linecap:butt;stroke-linejoin:miter;stroke-opacity:1" d="M 392.174,18.3768 366.296,4 z" id="boundary" inkscape:connector-curvature="0" />
	<path style="fill:none;stroke:red;stroke-width:1px;stroke-linecap:butt;stroke-linejoin:miter;stroke-opacity:1" d="M 337.542,9.75072 366.296,4 z" id="boundary" inkscape:connector-curvature="0" />
	<circle cx="4" cy="153.519" r="4" fill="#0" id="circle0"/>
	<circle cx="15.5014" cy="124.765" r="4" fill="#0" id="circle1"/>
	<circle cx="18.3768" cy="179.397" r="4" fill="#0" id="circle2"/>
	<circle cx="29.8783" cy="98.887" r="4" fill="#0" id="circle3"/>
	<circle cx="38.5043" cy="156.394" r="4" fill="#0" id="circle4"/>
	<circle cx="47.1304" cy="75.8841" r="4" fill="#0" id="circle5"/>
	<circle cx="55.7565" cy="133.391" r="4" fill="#0" id="circle6"/>
	<circle cx="64.3826" cy="52.8812" r="4" fill="#0" id="circle7"/>
	<circle cx="78.7594" cy="110.388" r="4" fill="#0" id="circle8"/>
	<circle cx="87.3855" cy="35.629" r="4" fill="#0" id="circle9"/>
	<circle cx="101.762" cy="93.1362" r="4" fill="#0" id="circle10"/>
	<circle cx="110.388" cy="18.3768" r="4" fill="#0" id="circle11"/>
	<circle cx="124.765" cy="970.122" r="4" fill="#0" id="circle12"/>
	<circle cx="130.516" cy="84.5101" r="4" fill="#0" id="circle13"/>
	<circle cx="130.516" cy="895.362" r="4" fill="#0" id="circle14"/>
	<circle cx="130.516" cy="924.116" r="4" fill="#0" id="circle15"/>
	<circle cx="136.267" cy="4" r="4" fill="#0" id="circle16"/>
	<circle cx="136.267" cy="113.264" r="4" fill="#0" id="circle17"/>
	<circle cx="136.267" cy="498.562" r="4" fill="#0" id="circle18"/>
	<circle cx="136.267" cy="527.316" r="4" fill="#0" id="circle19"/>
	<circle cx="136.267" cy="556.07" r="4" fill="#0" id="circle20"/>
	<circle cx="136.267" cy="584.823" r="4" fill="#0" id="circle21"/>
	<circle cx="136.267" cy="613.577" r="4" fill="#0" id="circle22"/>
	<circle cx="136.267" cy="642.33" r="4" fill="#0" id="circle23"/>
	<circle cx="136.267" cy="671.084" r="4" fill="#0" id="circle24"/>
	<circle cx="136.267" cy="699.838" r="4" fill="#0" id="circle25"/>
	<circle cx="136.267" cy="728.591" r="4" fill="#0" id="circle26"/>
	<circle cx="136.267" cy="757.345" r="4" fill="#0" id="circle27"/>
	<circle cx="136.267" cy="786.099" r="4" fill="#0" id="circle28"/>
	<circle cx="136.267" cy="814.852" r="4" fill="#0" id="circle29"/>
	<circle cx="136.267" cy="843.606" r="4" fill="#0" id="circle30"/>
	<circle cx="139.142" cy="996" r="4" fill="#0" id="circle31"/>
	<circle cx="142.017" cy="142.017" r="4" fill="#0" id="circle32"/>
	<circle cx="142.017" cy="469.809" r="4" fill="#0" id="circle33"/>
	<circle cx="150.643" cy="170.771" r="4" fill="#0" id="circle34"/>
	<circle cx="159.27" cy="199.525" r="4" fill="#0" id="circle35"/>
	<circle cx="159.27" cy="429.554" r="4" fill="#0" id="circle36"/>
	<circle cx="165.02" cy="4" r="4" fill="#0" id="circle37"/>
	<circle cx="165.02" cy="228.278" r="4" fill="#0" id="circle38"/>
	<circle cx="165.02" cy="257.032" r="4" fill="#0" id="circle39"/>
	<circle cx="165.02" cy="285.786" r="4" fill="#0" id="circle40"/>
	<circle cx="165.02" cy="314.539" r="4" fill="#0" id="circle41"/>
	<circle cx="165.02" cy="343.293" r="4" fill="#0" id="circle42"/>
	<circle cx="165.02" cy="372.046" r="4" fill="#0" id="circle43"/>
	<circle cx="165.02" cy="400.8" r="4" fill="#0" id="circle44"/>
	<circle cx="167.896" cy="996" r="4" fill="#0" id="circle45"/>
	<circle cx="193.774" cy="4" r="4" fill="#0" id="circle46"/>
	<circle cx="196.649" cy="996" r="4" fill="#0" id="circle47"/>
	<circle cx="222.528" cy="4" r="4" fill="#0" id="circle48"/>
	<circle cx="225.403" cy="996" r="4" fill="#0" id="circle49"/>
	<circle cx="242.655" cy="228.278" r="4" fill="#0" id="circle50"/>
	<circle cx="242.655" cy="257.032" r="4" fill="#0" id="circle51"/>
	<circle cx="242.655" cy="285.786" r="4" fill="#0" id="circle52"/>
	<circle cx="242.655" cy="314.539" r="4" fill="#0" id="circle53"/>
	<circle cx="242.655" cy="343.293" r="4" fill="#0" id="circle54"/>
	<circle cx="242.655" cy="372.046" r="4" fill="#0" id="circle55"/>
	<circle cx="242.655" cy="400.8" r="4" fill="#0" id="circle56"/>
	<circle cx="245.53" cy="429.554" r="4" fill="#0" id="circle57"/>
	<circle cx="248.406" cy="193.774" r="4" fill="#0" id="circle58"/>
	<circle cx="251.281" cy="4" r="4" fill="#0" id="circle59"/>
	<circle cx="254.157" cy="458.307" r="4" fill="#0" id="circle60"/>
	<circle cx="254.157" cy="996" r="4" fill="#0" id="circle61"/>
	<circle cx="259.907" cy="159.27" r="4" fill="#0" id="circle62"/>
	<circle cx="268.533" cy="484.186" r="4" fill="#0" id="circle63"/>
	<circle cx="271.409" cy="84.5101" r="4" fill="#0" id="circle64"/>
	<circle cx="271.409" cy="113.264" r="4" fill="#0" id="circle65"/>
	<circle cx="271.409" cy="512.939" r="4" fill="#0" id="circle66"/>
	<circle cx="271.409" cy="541.693" r="4" fill="#0" id="circle67"/>
	<circle cx="271.409" cy="570.446" r="4" fill="#0" id="circle68"/>
	<circle cx="271.409" cy="599.2" r="4" fill="#0" id="circle69"/>
	<circle cx="271.409" cy="627.954" r="4" fill="#0" id="circle70"/>
	<circle cx="271.409" cy="656.707" r="4" fill="#0" id="circle71"/>
	<circle cx="271.409" cy="685.461" r="4" fill="#0" id="circle72"/>
	<circle cx="271.409" cy="714.214" r="4" fill="#0" id="circle73"/>
	<circle cx="271.409" cy="742.968" r="4" fill="#0" id="circle74"/>
	<circle cx="271.409" cy="771.722" r="4" fill="#0" id="circle75"/>
	<circle cx="271.409" cy="800.475" r="4" fill="#0" id="circle76"/>
	<circle cx="271.409" cy="829.229" r="4" fill="#0" id="circle77"/>
	<circle cx="271.409" cy="857.983" r="4" fill="#0" id="circle78"/>
	<circle cx="277.159" cy="886.736" r="4" fill="#0" id="circle79"/>
	<circle cx="277.159" cy="915.49" r="4" fill="#0" id="circle80"/>
	<circle cx="277.159" cy="944.243" r="4" fill="#0" id="circle81"/>
	<circle cx="280.035" cy="12.6261" r="4" fill="#0" id="circle82"/>
	<circle cx="282.91" cy="972.997" r="4" fill="#0" id="circle83"/>
	<circle cx="300.162" cy="75.8841" r="4" fill="#0" id="circle84"/>
	<circle cx="308.788" cy="15.5014" r="4" fill="#0" id="circle85"/>
	<circle cx="328.916" cy="75.8841" r="4" fill="#0" id="circle86"/>
	<circle cx="337.542" cy="9.75072" r="4" fill="#0" id="circle87"/>
	<circle cx="351.919" cy="93.1362" r="4" fill="#0" id="circle88"/>
	<circle cx="366.296" cy="4" r="4" fill="#0" id="circle89"/>
	<circle cx="380.672" cy="90.2609" r="4" fill="#0" id="circle90"/>
	<circle cx="392.174" cy="18.3768" r="4" fill="#0" id="circle91"/>
	<circle cx="392.174" cy="61.5072" r="4" fill="#0" id="circle92"/>
	</g>
</svg>