<?xml version="1.0" encoding="UTF-8" standalone="no"?>
<!-- Created with CurveBenchmark -->
<svg
	xmlns:dc="http://purl.org/dc/elements/1.1/"
	xmlns:cc="http://creativecommons.org/ns#"
	xmlns:rdf="http://www.w3.org/1999/02/22-rdf-syntax-ns#"
	xmlns:svg="http://www.w3.org/2000/svg"
	xmlns="http://www.w3.org/2000/svg"
	xmlns:sodipodi="http://sodipodi.sourceforge.net/DTD/sodipodi-0.dtd"
	xmlns:inkscape="http://www.inkscape.org/namespaces/inkscape"
	width="1000"
	height="1000"
	id="svg2"
	version="1.1"
	sodipodi:docname="manifold/peel-key11.png.txt">
<defs
	id="defs4" />
<metadata
	id="metadata7">
	<rdf:RDF>
		<cc:Work
			rdf:about="">
			<dc:format>image/svg+xml</dc:format>
			<dc:type
				rdf:resource="http://purl.org/dc/dcmitype/StillImage" />
			<dc:title></dc:title>
		</cc:Work>
	</rdf:RDF>
</metadata>
<g
	inkscape:label="Layer 1"
	inkscape:groupmode="layer"
	id="layer1">
	<path style="fill:none;stroke:red;stroke-width:1px;stroke-linecap:butt;stroke-linejoin:miter;stroke-opacity:1" d="M 13.4656,159.237 4,142.198 z" id="boundary" inkscape:connector-curvature="0" />
	<path style="fill:none;stroke:red;stroke-width:1px;stroke-linecap:butt;stroke-linejoin:miter;stroke-opacity:1" d="M 4,142.198 4,123.267 z" id="boundary" inkscape:connector-curvature="0" />
	<path style="fill:none;stroke:red;stroke-width:1px;stroke-linecap:butt;stroke-linejoin:miter;stroke-opacity:1" d="M 4,123.267 13.4656,104.336 z" id="boundary" inkscape:connector-curvature="0" />
	<path style="fill:none;stroke:red;stroke-width:1px;stroke-linecap:butt;stroke-linejoin:miter;stroke-opacity:1" d="M 13.4656,178.168 13.4656,159.237 z" id="boundary" inkscape:connector-curvature="0" />
	<path style="fill:none;stroke:red;stroke-width:1px;stroke-linecap:butt;stroke-linejoin:miter;stroke-opacity:1" d="M 41.8626,75.9389 60.7939,70.2595 z" id="boundary" inkscape:connector-curvature="0" />
	<path style="fill:none;stroke:red;stroke-width:1px;stroke-linecap:butt;stroke-linejoin:miter;stroke-opacity:1" d="M 13.4656,197.099 13.4656,178.168 z" id="boundary" inkscape:connector-curvature="0" />
	<path style="fill:none;stroke:red;stroke-width:1px;stroke-linecap:butt;stroke-linejoin:miter;stroke-opacity:1" d="M 13.4656,216.031 13.4656,197.099 z" id="boundary" inkscape:connector-curvature="0" />
	<path style="fill:none;stroke:red;stroke-width:1px;stroke-linecap:butt;stroke-linejoin:miter;stroke-opacity:1" d="M 22.9313,308.794 22.9313,340.977 z" id="boundary" inkscape:connector-curvature="0" />
	<path style="fill:none;stroke:red;stroke-width:1px;stroke-linecap:butt;stroke-linejoin:miter;stroke-opacity:1" d="M 13.4656,104.336 22.9313,85.4046 z" id="boundary" inkscape:connector-curvature="0" />
	<path style="fill:none;stroke:red;stroke-width:1px;stroke-linecap:butt;stroke-linejoin:miter;stroke-opacity:1" d="M 22.9313,85.4046 41.8626,75.9389 z" id="boundary" inkscape:connector-curvature="0" />
	<path style="fill:none;stroke:red;stroke-width:1px;stroke-linecap:butt;stroke-linejoin:miter;stroke-opacity:1" d="M 22.9313,233.069 13.4656,216.031 z" id="boundary" inkscape:connector-curvature="0" />
	<path style="fill:none;stroke:red;stroke-width:1px;stroke-linecap:butt;stroke-linejoin:miter;stroke-opacity:1" d="M 98.6565,60.7939 117.588,60.7939 z" id="boundary" inkscape:connector-curvature="0" />
	<path style="fill:none;stroke:red;stroke-width:1px;stroke-linecap:butt;stroke-linejoin:miter;stroke-opacity:1" d="M 98.6565,60.7939 79.7252,66.4733 z" id="boundary" inkscape:connector-curvature="0" />
	<path style="fill:none;stroke:red;stroke-width:1px;stroke-linecap:butt;stroke-linejoin:miter;stroke-opacity:1" d="M 22.9313,252 22.9313,233.069 z" id="boundary" inkscape:connector-curvature="0" />
	<path style="fill:none;stroke:red;stroke-width:1px;stroke-linecap:butt;stroke-linejoin:miter;stroke-opacity:1" d="M 79.7252,66.4733 60.7939,70.2595 z" id="boundary" inkscape:connector-curvature="0" />
	<path style="fill:none;stroke:red;stroke-width:1px;stroke-linecap:butt;stroke-linejoin:miter;stroke-opacity:1" d="M 22.9313,270.931 22.9313,252 z" id="boundary" inkscape:connector-curvature="0" />
	<path style="fill:none;stroke:red;stroke-width:1px;stroke-linecap:butt;stroke-linejoin:miter;stroke-opacity:1" d="M 22.9313,289.863 22.9313,270.931 z" id="boundary" inkscape:connector-curvature="0" />
	<path style="fill:none;stroke:red;stroke-width:1px;stroke-linecap:butt;stroke-linejoin:miter;stroke-opacity:1" d="M 22.9313,308.794 22.9313,289.863 z" id="boundary" inkscape:connector-curvature="0" />
	<path style="fill:none;stroke:red;stroke-width:1px;stroke-linecap:butt;stroke-linejoin:miter;stroke-opacity:1" d="M 32.3969,358.015 22.9313,340.977 z" id="boundary" inkscape:connector-curvature="0" />
	<path style="fill:none;stroke:red;stroke-width:1px;stroke-linecap:butt;stroke-linejoin:miter;stroke-opacity:1" d="M 32.3969,376.947 32.3969,358.015 z" id="boundary" inkscape:connector-curvature="0" />
	<path style="fill:none;stroke:red;stroke-width:1px;stroke-linecap:butt;stroke-linejoin:miter;stroke-opacity:1" d="M 64.5802,393.985 45.6489,392.092 z" id="boundary" inkscape:connector-curvature="0" />
	<path style="fill:none;stroke:red;stroke-width:1px;stroke-linecap:butt;stroke-linejoin:miter;stroke-opacity:1" d="M 45.6489,392.092 32.3969,376.947 z" id="boundary" inkscape:connector-curvature="0" />
	<path style="fill:none;stroke:red;stroke-width:1px;stroke-linecap:butt;stroke-linejoin:miter;stroke-opacity:1" d="M 83.5115,393.985 64.5802,393.985 z" id="boundary" inkscape:connector-curvature="0" />
	<path style="fill:none;stroke:red;stroke-width:1px;stroke-linecap:butt;stroke-linejoin:miter;stroke-opacity:1" d="M 117.588,60.7939 136.519,60.7939 z" id="boundary" inkscape:connector-curvature="0" />
	<path style="fill:none;stroke:red;stroke-width:1px;stroke-linecap:butt;stroke-linejoin:miter;stroke-opacity:1" d="M 102.443,399.664 83.5115,393.985 z" id="boundary" inkscape:connector-curvature="0" />
	<path style="fill:none;stroke:red;stroke-width:1px;stroke-linecap:butt;stroke-linejoin:miter;stroke-opacity:1" d="M 121.374,403.45 102.443,399.664 z" id="boundary" inkscape:connector-curvature="0" />
	<path style="fill:none;stroke:red;stroke-width:1px;stroke-linecap:butt;stroke-linejoin:miter;stroke-opacity:1" d="M 136.519,60.7939 155.45,60.7939 z" id="boundary" inkscape:connector-curvature="0" />
	<path style="fill:none;stroke:red;stroke-width:1px;stroke-linecap:butt;stroke-linejoin:miter;stroke-opacity:1" d="M 140.305,403.45 121.374,403.45 z" id="boundary" inkscape:connector-curvature="0" />
	<path style="fill:none;stroke:red;stroke-width:1px;stroke-linecap:butt;stroke-linejoin:miter;stroke-opacity:1" d="M 155.45,60.7939 174.382,60.7939 z" id="boundary" inkscape:connector-curvature="0" />
	<path style="fill:none;stroke:red;stroke-width:1px;stroke-linecap:butt;stroke-linejoin:miter;stroke-opacity:1" d="M 159.237,403.45 140.305,403.45 z" id="boundary" inkscape:connector-curvature="0" />
	<path style="fill:none;stroke:red;stroke-width:1px;stroke-linecap:butt;stroke-linejoin:miter;stroke-opacity:1" d="M 174.382,60.7939 193.313,60.7939 z" id="boundary" inkscape:connector-curvature="0" />
	<path style="fill:none;stroke:red;stroke-width:1px;stroke-linecap:butt;stroke-linejoin:miter;stroke-opacity:1" d="M 178.168,403.45 159.237,403.45 z" id="boundary" inkscape:connector-curvature="0" />
	<path style="fill:none;stroke:red;stroke-width:1px;stroke-linecap:butt;stroke-linejoin:miter;stroke-opacity:1" d="M 197.099,403.45 178.168,403.45 z" id="boundary" inkscape:connector-curvature="0" />
	<path style="fill:none;stroke:red;stroke-width:1px;stroke-linecap:butt;stroke-linejoin:miter;stroke-opacity:1" d="M 212.244,60.7939 193.313,60.7939 z" id="boundary" inkscape:connector-curvature="0" />
	<path style="fill:none;stroke:red;stroke-width:1px;stroke-linecap:butt;stroke-linejoin:miter;stroke-opacity:1" d="M 216.031,403.45 197.099,403.45 z" id="boundary" inkscape:connector-curvature="0" />
	<path style="fill:none;stroke:red;stroke-width:1px;stroke-linecap:butt;stroke-linejoin:miter;stroke-opacity:1" d="M 231.176,57.0076 212.244,60.7939 z" id="boundary" inkscape:connector-curvature="0" />
	<path style="fill:none;stroke:red;stroke-width:1px;stroke-linecap:butt;stroke-linejoin:miter;stroke-opacity:1" d="M 234.962,403.45 216.031,403.45 z" id="boundary" inkscape:connector-curvature="0" />
	<path style="fill:none;stroke:red;stroke-width:1px;stroke-linecap:butt;stroke-linejoin:miter;stroke-opacity:1" d="M 250.107,51.3282 269.038,51.3282 z" id="boundary" inkscape:connector-curvature="0" />
	<path style="fill:none;stroke:red;stroke-width:1px;stroke-linecap:butt;stroke-linejoin:miter;stroke-opacity:1" d="M 250.107,51.3282 231.176,57.0076 z" id="boundary" inkscape:connector-curvature="0" />
	<path style="fill:none;stroke:red;stroke-width:1px;stroke-linecap:butt;stroke-linejoin:miter;stroke-opacity:1" d="M 253.893,403.45 234.962,403.45 z" id="boundary" inkscape:connector-curvature="0" />
	<path style="fill:none;stroke:red;stroke-width:1px;stroke-linecap:butt;stroke-linejoin:miter;stroke-opacity:1" d="M 272.824,403.45 253.893,403.45 z" id="boundary" inkscape:connector-curvature="0" />
	<path style="fill:none;stroke:red;stroke-width:1px;stroke-linecap:butt;stroke-linejoin:miter;stroke-opacity:1" d="M 287.969,51.3282 269.038,51.3282 z" id="boundary" inkscape:connector-curvature="0" />
	<path style="fill:none;stroke:red;stroke-width:1px;stroke-linecap:butt;stroke-linejoin:miter;stroke-opacity:1" d="M 291.756,403.45 272.824,403.45 z" id="boundary" inkscape:connector-curvature="0" />
	<path style="fill:none;stroke:red;stroke-width:1px;stroke-linecap:butt;stroke-linejoin:miter;stroke-opacity:1" d="M 306.901,51.3282 287.969,51.3282 z" id="boundary" inkscape:connector-curvature="0" />
	<path style="fill:none;stroke:red;stroke-width:1px;stroke-linecap:butt;stroke-linejoin:miter;stroke-opacity:1" d="M 310.687,403.45 291.756,403.45 z" id="boundary" inkscape:connector-curvature="0" />
	<path style="fill:none;stroke:red;stroke-width:1px;stroke-linecap:butt;stroke-linejoin:miter;stroke-opacity:1" d="M 325.832,51.3282 306.901,51.3282 z" id="boundary" inkscape:connector-curvature="0" />
	<path style="fill:none;stroke:red;stroke-width:1px;stroke-linecap:butt;stroke-linejoin:miter;stroke-opacity:1" d="M 329.618,403.45 310.687,403.45 z" id="boundary" inkscape:connector-curvature="0" />
	<path style="fill:none;stroke:red;stroke-width:1px;stroke-linecap:butt;stroke-linejoin:miter;stroke-opacity:1" d="M 344.763,47.542 325.832,51.3282 z" id="boundary" inkscape:connector-curvature="0" />
	<path style="fill:none;stroke:red;stroke-width:1px;stroke-linecap:butt;stroke-linejoin:miter;stroke-opacity:1" d="M 363.695,41.8626 382.626,41.8626 z" id="boundary" inkscape:connector-curvature="0" />
	<path style="fill:none;stroke:red;stroke-width:1px;stroke-linecap:butt;stroke-linejoin:miter;stroke-opacity:1" d="M 363.695,41.8626 344.763,47.542 z" id="boundary" inkscape:connector-curvature="0" />
	<path style="fill:none;stroke:red;stroke-width:1px;stroke-linecap:butt;stroke-linejoin:miter;stroke-opacity:1" d="M 348.55,403.45 329.618,403.45 z" id="boundary" inkscape:connector-curvature="0" />
	<path style="fill:none;stroke:red;stroke-width:1px;stroke-linecap:butt;stroke-linejoin:miter;stroke-opacity:1" d="M 367.481,403.45 348.55,403.45 z" id="boundary" inkscape:connector-curvature="0" />
	<path style="fill:none;stroke:red;stroke-width:1px;stroke-linecap:butt;stroke-linejoin:miter;stroke-opacity:1" d="M 401.557,41.8626 382.626,41.8626 z" id="boundary" inkscape:connector-curvature="0" />
	<path style="fill:none;stroke:red;stroke-width:1px;stroke-linecap:butt;stroke-linejoin:miter;stroke-opacity:1" d="M 386.412,403.45 367.481,403.45 z" id="boundary" inkscape:connector-curvature="0" />
	<path style="fill:none;stroke:red;stroke-width:1px;stroke-linecap:butt;stroke-linejoin:miter;stroke-opacity:1" d="M 420.489,41.8626 401.557,41.8626 z" id="boundary" inkscape:connector-curvature="0" />
	<path style="fill:none;stroke:red;stroke-width:1px;stroke-linecap:butt;stroke-linejoin:miter;stroke-opacity:1" d="M 405.344,403.45 386.412,403.45 z" id="boundary" inkscape:connector-curvature="0" />
	<path style="fill:none;stroke:red;stroke-width:1px;stroke-linecap:butt;stroke-linejoin:miter;stroke-opacity:1" d="M 439.42,41.8626 420.489,41.8626 z" id="boundary" inkscape:connector-curvature="0" />
	<path style="fill:none;stroke:red;stroke-width:1px;stroke-linecap:butt;stroke-linejoin:miter;stroke-opacity:1" d="M 424.275,403.45 405.344,403.45 z" id="boundary" inkscape:connector-curvature="0" />
	<path style="fill:none;stroke:red;stroke-width:1px;stroke-linecap:butt;stroke-linejoin:miter;stroke-opacity:1" d="M 450.779,365.588 441.313,393.985 z" id="boundary" inkscape:connector-curvature="0" />
	<path style="fill:none;stroke:red;stroke-width:1px;stroke-linecap:butt;stroke-linejoin:miter;stroke-opacity:1" d="M 441.313,393.985 424.275,403.45 z" id="boundary" inkscape:connector-curvature="0" />
	<path style="fill:none;stroke:red;stroke-width:1px;stroke-linecap:butt;stroke-linejoin:miter;stroke-opacity:1" d="M 458.351,41.8626 439.42,41.8626 z" id="boundary" inkscape:connector-curvature="0" />
	<path style="fill:none;stroke:red;stroke-width:1px;stroke-linecap:butt;stroke-linejoin:miter;stroke-opacity:1" d="M 460.244,346.656 450.779,365.588 z" id="boundary" inkscape:connector-curvature="0" />
	<path style="fill:none;stroke:red;stroke-width:1px;stroke-linecap:butt;stroke-linejoin:miter;stroke-opacity:1" d="M 469.71,327.725 460.244,346.656 z" id="boundary" inkscape:connector-curvature="0" />
	<path style="fill:none;stroke:red;stroke-width:1px;stroke-linecap:butt;stroke-linejoin:miter;stroke-opacity:1" d="M 600.336,223.603 581.405,223.603 z" id="boundary" inkscape:connector-curvature="0" />
	<path style="fill:none;stroke:red;stroke-width:1px;stroke-linecap:butt;stroke-linejoin:miter;stroke-opacity:1" d="M 477.282,41.8626 458.351,41.8626 z" id="boundary" inkscape:connector-curvature="0" />
	<path style="fill:none;stroke:red;stroke-width:1px;stroke-linecap:butt;stroke-linejoin:miter;stroke-opacity:1" d="M 498.107,252 488.641,280.397 z" id="boundary" inkscape:connector-curvature="0" />
	<path style="fill:none;stroke:red;stroke-width:1px;stroke-linecap:butt;stroke-linejoin:miter;stroke-opacity:1" d="M 479.176,308.794 469.71,327.725 z" id="boundary" inkscape:connector-curvature="0" />
	<path style="fill:none;stroke:red;stroke-width:1px;stroke-linecap:butt;stroke-linejoin:miter;stroke-opacity:1" d="M 488.641,280.397 479.176,308.794 z" id="boundary" inkscape:connector-curvature="0" />
	<path style="fill:none;stroke:red;stroke-width:1px;stroke-linecap:butt;stroke-linejoin:miter;stroke-opacity:1" d="M 496.214,41.8626 477.282,41.8626 z" id="boundary" inkscape:connector-curvature="0" />
	<path style="fill:none;stroke:red;stroke-width:1px;stroke-linecap:butt;stroke-linejoin:miter;stroke-opacity:1" d="M 581.405,223.603 564.366,214.137 z" id="boundary" inkscape:connector-curvature="0" />
	<path style="fill:none;stroke:red;stroke-width:1px;stroke-linecap:butt;stroke-linejoin:miter;stroke-opacity:1" d="M 564.366,214.137 545.435,214.137 z" id="boundary" inkscape:connector-curvature="0" />
	<path style="fill:none;stroke:red;stroke-width:1px;stroke-linecap:butt;stroke-linejoin:miter;stroke-opacity:1" d="M 515.145,41.8626 496.214,41.8626 z" id="boundary" inkscape:connector-curvature="0" />
	<path style="fill:none;stroke:red;stroke-width:1px;stroke-linecap:butt;stroke-linejoin:miter;stroke-opacity:1" d="M 498.107,252 498.107,233.069 z" id="boundary" inkscape:connector-curvature="0" />
	<path style="fill:none;stroke:red;stroke-width:1px;stroke-linecap:butt;stroke-linejoin:miter;stroke-opacity:1" d="M 507.573,214.137 526.504,214.137 z" id="boundary" inkscape:connector-curvature="0" />
	<path style="fill:none;stroke:red;stroke-width:1px;stroke-linecap:butt;stroke-linejoin:miter;stroke-opacity:1" d="M 507.573,214.137 498.107,233.069 z" id="boundary" inkscape:connector-curvature="0" />
	<path style="fill:none;stroke:red;stroke-width:1px;stroke-linecap:butt;stroke-linejoin:miter;stroke-opacity:1" d="M 526.504,214.137 545.435,214.137 z" id="boundary" inkscape:connector-curvature="0" />
	<path style="fill:none;stroke:red;stroke-width:1px;stroke-linecap:butt;stroke-linejoin:miter;stroke-opacity:1" d="M 534.076,38.0763 515.145,41.8626 z" id="boundary" inkscape:connector-curvature="0" />
	<path style="fill:none;stroke:red;stroke-width:1px;stroke-linecap:butt;stroke-linejoin:miter;stroke-opacity:1" d="M 553.008,32.3969 571.939,32.3969 z" id="boundary" inkscape:connector-curvature="0" />
	<path style="fill:none;stroke:red;stroke-width:1px;stroke-linecap:butt;stroke-linejoin:miter;stroke-opacity:1" d="M 553.008,32.3969 534.076,38.0763 z" id="boundary" inkscape:connector-curvature="0" />
	<path style="fill:none;stroke:red;stroke-width:1px;stroke-linecap:butt;stroke-linejoin:miter;stroke-opacity:1" d="M 590.87,32.3969 571.939,32.3969 z" id="boundary" inkscape:connector-curvature="0" />
	<path style="fill:none;stroke:red;stroke-width:1px;stroke-linecap:butt;stroke-linejoin:miter;stroke-opacity:1" d="M 590.87,32.3969 609.802,32.3969 z" id="boundary" inkscape:connector-curvature="0" />
	<path style="fill:none;stroke:red;stroke-width:1px;stroke-linecap:butt;stroke-linejoin:miter;stroke-opacity:1" d="M 600.336,223.603 619.267,217.924 z" id="boundary" inkscape:connector-curvature="0" />
	<path style="fill:none;stroke:red;stroke-width:1px;stroke-linecap:butt;stroke-linejoin:miter;stroke-opacity:1" d="M 628.733,28.6107 609.802,32.3969 z" id="boundary" inkscape:connector-curvature="0" />
	<path style="fill:none;stroke:red;stroke-width:1px;stroke-linecap:butt;stroke-linejoin:miter;stroke-opacity:1" d="M 630.626,195.206 619.267,217.924 z" id="boundary" inkscape:connector-curvature="0" />
	<path style="fill:none;stroke:red;stroke-width:1px;stroke-linecap:butt;stroke-linejoin:miter;stroke-opacity:1" d="M 645.771,181.954 630.626,195.206 z" id="boundary" inkscape:connector-curvature="0" />
	<path style="fill:none;stroke:red;stroke-width:1px;stroke-linecap:butt;stroke-linejoin:miter;stroke-opacity:1" d="M 647.664,22.9313 666.595,22.9313 z" id="boundary" inkscape:connector-curvature="0" />
	<path style="fill:none;stroke:red;stroke-width:1px;stroke-linecap:butt;stroke-linejoin:miter;stroke-opacity:1" d="M 657.13,166.809 672.275,155.45 z" id="boundary" inkscape:connector-curvature="0" />
	<path style="fill:none;stroke:red;stroke-width:1px;stroke-linecap:butt;stroke-linejoin:miter;stroke-opacity:1" d="M 657.13,166.809 645.771,181.954 z" id="boundary" inkscape:connector-curvature="0" />
	<path style="fill:none;stroke:red;stroke-width:1px;stroke-linecap:butt;stroke-linejoin:miter;stroke-opacity:1" d="M 628.733,28.6107 647.664,22.9313 z" id="boundary" inkscape:connector-curvature="0" />
	<path style="fill:none;stroke:red;stroke-width:1px;stroke-linecap:butt;stroke-linejoin:miter;stroke-opacity:1" d="M 742.321,147.878 725.282,138.412 z" id="boundary" inkscape:connector-curvature="0" />
	<path style="fill:none;stroke:red;stroke-width:1px;stroke-linecap:butt;stroke-linejoin:miter;stroke-opacity:1" d="M 725.282,138.412 706.351,138.412 z" id="boundary" inkscape:connector-curvature="0" />
	<path style="fill:none;stroke:red;stroke-width:1px;stroke-linecap:butt;stroke-linejoin:miter;stroke-opacity:1" d="M 685.527,22.9313 666.595,22.9313 z" id="boundary" inkscape:connector-curvature="0" />
	<path style="fill:none;stroke:red;stroke-width:1px;stroke-linecap:butt;stroke-linejoin:miter;stroke-opacity:1" d="M 687.42,138.412 706.351,138.412 z" id="boundary" inkscape:connector-curvature="0" />
	<path style="fill:none;stroke:red;stroke-width:1px;stroke-linecap:butt;stroke-linejoin:miter;stroke-opacity:1" d="M 687.42,138.412 672.275,155.45 z" id="boundary" inkscape:connector-curvature="0" />
	<path style="fill:none;stroke:red;stroke-width:1px;stroke-linecap:butt;stroke-linejoin:miter;stroke-opacity:1" d="M 704.458,22.9313 685.527,22.9313 z" id="boundary" inkscape:connector-curvature="0" />
	<path style="fill:none;stroke:red;stroke-width:1px;stroke-linecap:butt;stroke-linejoin:miter;stroke-opacity:1" d="M 723.389,22.9313 704.458,22.9313 z" id="boundary" inkscape:connector-curvature="0" />
	<path style="fill:none;stroke:red;stroke-width:1px;stroke-linecap:butt;stroke-linejoin:miter;stroke-opacity:1" d="M 742.321,22.9313 723.389,22.9313 z" id="boundary" inkscape:connector-curvature="0" />
	<path style="fill:none;stroke:red;stroke-width:1px;stroke-linecap:butt;stroke-linejoin:miter;stroke-opacity:1" d="M 799.115,138.412 816.153,147.878 z" id="boundary" inkscape:connector-curvature="0" />
	<path style="fill:none;stroke:red;stroke-width:1px;stroke-linecap:butt;stroke-linejoin:miter;stroke-opacity:1" d="M 799.115,138.412 780.183,138.412 z" id="boundary" inkscape:connector-curvature="0" />
	<path style="fill:none;stroke:red;stroke-width:1px;stroke-linecap:butt;stroke-linejoin:miter;stroke-opacity:1" d="M 761.252,22.9313 742.321,22.9313 z" id="boundary" inkscape:connector-curvature="0" />
	<path style="fill:none;stroke:red;stroke-width:1px;stroke-linecap:butt;stroke-linejoin:miter;stroke-opacity:1" d="M 780.183,138.412 761.252,142.198 z" id="boundary" inkscape:connector-curvature="0" />
	<path style="fill:none;stroke:red;stroke-width:1px;stroke-linecap:butt;stroke-linejoin:miter;stroke-opacity:1" d="M 761.252,142.198 742.321,147.878 z" id="boundary" inkscape:connector-curvature="0" />
	<path style="fill:none;stroke:red;stroke-width:1px;stroke-linecap:butt;stroke-linejoin:miter;stroke-opacity:1" d="M 780.183,22.9313 761.252,22.9313 z" id="boundary" inkscape:connector-curvature="0" />
	<path style="fill:none;stroke:red;stroke-width:1px;stroke-linecap:butt;stroke-linejoin:miter;stroke-opacity:1" d="M 797.221,13.4656 816.153,13.4656 z" id="boundary" inkscape:connector-curvature="0" />
	<path style="fill:none;stroke:red;stroke-width:1px;stroke-linecap:butt;stroke-linejoin:miter;stroke-opacity:1" d="M 797.221,13.4656 780.183,22.9313 z" id="boundary" inkscape:connector-curvature="0" />
	<path style="fill:none;stroke:red;stroke-width:1px;stroke-linecap:butt;stroke-linejoin:miter;stroke-opacity:1" d="M 816.153,147.878 835.084,147.878 z" id="boundary" inkscape:connector-curvature="0" />
	<path style="fill:none;stroke:red;stroke-width:1px;stroke-linecap:butt;stroke-linejoin:miter;stroke-opacity:1" d="M 835.084,13.4656 816.153,13.4656 z" id="boundary" inkscape:connector-curvature="0" />
	<path style="fill:none;stroke:red;stroke-width:1px;stroke-linecap:butt;stroke-linejoin:miter;stroke-opacity:1" d="M 835.084,147.878 854.015,147.878 z" id="boundary" inkscape:connector-curvature="0" />
	<path style="fill:none;stroke:red;stroke-width:1px;stroke-linecap:butt;stroke-linejoin:miter;stroke-opacity:1" d="M 854.015,13.4656 835.084,13.4656 z" id="boundary" inkscape:connector-curvature="0" />
	<path style="fill:none;stroke:red;stroke-width:1px;stroke-linecap:butt;stroke-linejoin:miter;stroke-opacity:1" d="M 854.015,147.878 872.947,147.878 z" id="boundary" inkscape:connector-curvature="0" />
	<path style="fill:none;stroke:red;stroke-width:1px;stroke-linecap:butt;stroke-linejoin:miter;stroke-opacity:1" d="M 872.947,13.4656 854.015,13.4656 z" id="boundary" inkscape:connector-curvature="0" />
	<path style="fill:none;stroke:red;stroke-width:1px;stroke-linecap:butt;stroke-linejoin:miter;stroke-opacity:1" d="M 889.985,138.412 872.947,147.878 z" id="boundary" inkscape:connector-curvature="0" />
	<path style="fill:none;stroke:red;stroke-width:1px;stroke-linecap:butt;stroke-linejoin:miter;stroke-opacity:1" d="M 925.954,128.947 944.885,128.947 z" id="boundary" inkscape:connector-curvature="0" />
	<path style="fill:none;stroke:red;stroke-width:1px;stroke-linecap:butt;stroke-linejoin:miter;stroke-opacity:1" d="M 891.878,13.4656 872.947,13.4656 z" id="boundary" inkscape:connector-curvature="0" />
	<path style="fill:none;stroke:red;stroke-width:1px;stroke-linecap:butt;stroke-linejoin:miter;stroke-opacity:1" d="M 907.023,128.947 925.954,128.947 z" id="boundary" inkscape:connector-curvature="0" />
	<path style="fill:none;stroke:red;stroke-width:1px;stroke-linecap:butt;stroke-linejoin:miter;stroke-opacity:1" d="M 907.023,128.947 889.985,138.412 z" id="boundary" inkscape:connector-curvature="0" />
	<path style="fill:none;stroke:red;stroke-width:1px;stroke-linecap:butt;stroke-linejoin:miter;stroke-opacity:1" d="M 908.916,4 927.847,4 z" id="boundary" inkscape:connector-curvature="0" />
	<path style="fill:none;stroke:red;stroke-width:1px;stroke-linecap:butt;stroke-linejoin:miter;stroke-opacity:1" d="M 908.916,4 891.878,13.4656 z" id="boundary" inkscape:connector-curvature="0" />
	<path style="fill:none;stroke:red;stroke-width:1px;stroke-linecap:butt;stroke-linejoin:miter;stroke-opacity:1" d="M 946.779,4 963.817,13.4656 z" id="boundary" inkscape:connector-curvature="0" />
	<path style="fill:none;stroke:red;stroke-width:1px;stroke-linecap:butt;stroke-linejoin:miter;stroke-opacity:1" d="M 946.779,4 927.847,4 z" id="boundary" inkscape:connector-curvature="0" />
	<path style="fill:none;stroke:red;stroke-width:1px;stroke-linecap:butt;stroke-linejoin:miter;stroke-opacity:1" d="M 961.924,119.481 944.885,128.947 z" id="boundary" inkscape:connector-curvature="0" />
	<path style="fill:none;stroke:red;stroke-width:1px;stroke-linecap:butt;stroke-linejoin:miter;stroke-opacity:1" d="M 978.962,26.7176 986.534,45.6489 z" id="boundary" inkscape:connector-curvature="0" />
	<path style="fill:none;stroke:red;stroke-width:1px;stroke-linecap:butt;stroke-linejoin:miter;stroke-opacity:1" d="M 978.962,26.7176 963.817,13.4656 z" id="boundary" inkscape:connector-curvature="0" />
	<path style="fill:none;stroke:red;stroke-width:1px;stroke-linecap:butt;stroke-linejoin:miter;stroke-opacity:1" d="M 977.069,106.229 961.924,119.481 z" id="boundary" inkscape:connector-curvature="0" />
	<path style="fill:none;stroke:red;stroke-width:1px;stroke-linecap:butt;stroke-linejoin:miter;stroke-opacity:1" d="M 990.321,91.084 977.069,106.229 z" id="boundary" inkscape:connector-curvature="0" />
	<path style="fill:none;stroke:red;stroke-width:1px;stroke-linecap:butt;stroke-linejoin:miter;stroke-opacity:1" d="M 996,62.687 990.321,91.084 z" id="boundary" inkscape:connector-curvature="0" />
	<path style="fill:none;stroke:red;stroke-width:1px;stroke-linecap:butt;stroke-linejoin:miter;stroke-opacity:1" d="M 996,62.687 986.534,45.6489 z" id="boundary" inkscape:connector-curvature="0" />
	<circle cx="4" cy="123.267" r="4" fill="#0" id="circle0"/>
	<circle cx="4" cy="142.198" r="4" fill="#0" id="circle1"/>
	<circle cx="13.4656" cy="104.336" r="4" fill="#0" id="circle2"/>
	<circle cx="13.4656" cy="159.237" r="4" fill="#0" id="circle3"/>
	<circle cx="13.4656" cy="178.168" r="4" fill="#0" id="circle4"/>
	<circle cx="13.4656" cy="197.099" r="4" fill="#0" id="circle5"/>
	<circle cx="13.4656" cy="216.031" r="4" fill="#0" id="circle6"/>
	<circle cx="22.9313" cy="85.4046" r="4" fill="#0" id="circle7"/>
	<circle cx="22.9313" cy="233.069" r="4" fill="#0" id="circle8"/>
	<circle cx="22.9313" cy="252" r="4" fill="#0" id="circle9"/>
	<circle cx="22.9313" cy="270.931" r="4" fill="#0" id="circle10"/>
	<circle cx="22.9313" cy="289.863" r="4" fill="#0" id="circle11"/>
	<circle cx="22.9313" cy="308.794" r="4" fill="#0" id="circle12"/>
	<circle cx="22.9313" cy="340.977" r="4" fill="#0" id="circle13"/>
	<circle cx="32.3969" cy="358.015" r="4" fill="#0" id="circle14"/>
	<circle cx="32.3969" cy="376.947" r="4" fill="#0" id="circle15"/>
	<circle cx="41.8626" cy="75.9389" r="4" fill="#0" id="circle16"/>
	<circle cx="45.6489" cy="392.092" r="4" fill="#0" id="circle17"/>
	<circle cx="60.7939" cy="70.2595" r="4" fill="#0" id="circle18"/>
	<circle cx="64.5802" cy="393.985" r="4" fill="#0" id="circle19"/>
	<circle cx="79.7252" cy="66.4733" r="4" fill="#0" id="circle20"/>
	<circle cx="83.5115" cy="393.985" r="4" fill="#0" id="circle21"/>
	<circle cx="98.6565" cy="60.7939" r="4" fill="#0" id="circle22"/>
	<circle cx="102.443" cy="399.664" r="4" fill="#0" id="circle23"/>
	<circle cx="117.588" cy="60.7939" r="4" fill="#0" id="circle24"/>
	<circle cx="121.374" cy="403.45" r="4" fill="#0" id="circle25"/>
	<circle cx="136.519" cy="60.7939" r="4" fill="#0" id="circle26"/>
	<circle cx="140.305" cy="403.45" r="4" fill="#0" id="circle27"/>
	<circle cx="155.45" cy="60.7939" r="4" fill="#0" id="circle28"/>
	<circle cx="159.237" cy="403.45" r="4" fill="#0" id="circle29"/>
	<circle cx="174.382" cy="60.7939" r="4" fill="#0" id="circle30"/>
	<circle cx="178.168" cy="403.45" r="4" fill="#0" id="circle31"/>
	<circle cx="193.313" cy="60.7939" r="4" fill="#0" id="circle32"/>
	<circle cx="197.099" cy="403.45" r="4" fill="#0" id="circle33"/>
	<circle cx="212.244" cy="60.7939" r="4" fill="#0" id="circle34"/>
	<circle cx="216.031" cy="403.45" r="4" fill="#0" id="circle35"/>
	<circle cx="231.176" cy="57.0076" r="4" fill="#0" id="circle36"/>
	<circle cx="234.962" cy="403.45" r="4" fill="#0" id="circle37"/>
	<circle cx="250.107" cy="51.3282" r="4" fill="#0" id="circle38"/>
	<circle cx="253.893" cy="403.45" r="4" fill="#0" id="circle39"/>
	<circle cx="269.038" cy="51.3282" r="4" fill="#0" id="circle40"/>
	<circle cx="272.824" cy="403.45" r="4" fill="#0" id="circle41"/>
	<circle cx="287.969" cy="51.3282" r="4" fill="#0" id="circle42"/>
	<circle cx="291.756" cy="403.45" r="4" fill="#0" id="circle43"/>
	<circle cx="306.901" cy="51.3282" r="4" fill="#0" id="circle44"/>
	<circle cx="310.687" cy="403.45" r="4" fill="#0" id="circle45"/>
	<circle cx="325.832" cy="51.3282" r="4" fill="#0" id="circle46"/>
	<circle cx="329.618" cy="403.45" r="4" fill="#0" id="circle47"/>
	<circle cx="344.763" cy="47.542" r="4" fill="#0" id="circle48"/>
	<circle cx="348.55" cy="403.45" r="4" fill="#0" id="circle49"/>
	<circle cx="363.695" cy="41.8626" r="4" fill="#0" id="circle50"/>
	<circle cx="367.481" cy="403.45" r="4" fill="#0" id="circle51"/>
	<circle cx="382.626" cy="41.8626" r="4" fill="#0" id="circle52"/>
	<circle cx="386.412" cy="403.45" r="4" fill="#0" id="circle53"/>
	<circle cx="401.557" cy="41.8626" r="4" fill="#0" id="circle54"/>
	<circle cx="405.344" cy="403.45" r="4" fill="#0" id="circle55"/>
	<circle cx="420.489" cy="41.8626" r="4" fill="#0" id="circle56"/>
	<circle cx="424.275" cy="403.45" r="4" fill="#0" id="circle57"/>
	<circle cx="439.42" cy="41.8626" r="4" fill="#0" id="circle58"/>
	<circle cx="441.313" cy="393.985" r="4" fill="#0" id="circle59"/>
	<circle cx="450.779" cy="365.588" r="4" fill="#0" id="circle60"/>
	<circle cx="458.351" cy="41.8626" r="4" fill="#0" id="circle61"/>
	<circle cx="460.244" cy="346.656" r="4" fill="#0" id="circle62"/>
	<circle cx="469.71" cy="327.725" r="4" fill="#0" id="circle63"/>
	<circle cx="477.282" cy="41.8626" r="4" fill="#0" id="circle64"/>
	<circle cx="479.176" cy="308.794" r="4" fill="#0" id="circle65"/>
	<circle cx="488.641" cy="280.397" r="4" fill="#0" id="circle66"/>
	<circle cx="496.214" cy="41.8626" r="4" fill="#0" id="circle67"/>
	<circle cx="498.107" cy="233.069" r="4" fill="#0" id="circle68"/>
	<circle cx="498.107" cy="252" r="4" fill="#0" id="circle69"/>
	<circle cx="507.573" cy="214.137" r="4" fill="#0" id="circle70"/>
	<circle cx="515.145" cy="41.8626" r="4" fill="#0" id="circle71"/>
	<circle cx="526.504" cy="214.137" r="4" fill="#0" id="circle72"/>
	<circle cx="534.076" cy="38.0763" r="4" fill="#0" id="circle73"/>
	<circle cx="545.435" cy="214.137" r="4" fill="#0" id="circle74"/>
	<circle cx="553.008" cy="32.3969" r="4" fill="#0" id="circle75"/>
	<circle cx="564.366" cy="214.137" r="4" fill="#0" id="circle76"/>
	<circle cx="571.939" cy="32.3969" r="4" fill="#0" id="circle77"/>
	<circle cx="581.405" cy="223.603" r="4" fill="#0" id="circle78"/>
	<circle cx="590.87" cy="32.3969" r="4" fill="#0" id="circle79"/>
	<circle cx="600.336" cy="223.603" r="4" fill="#0" id="circle80"/>
	<circle cx="609.802" cy="32.3969" r="4" fill="#0" id="circle81"/>
	<circle cx="619.267" cy="217.924" r="4" fill="#0" id="circle82"/>
	<circle cx="628.733" cy="28.6107" r="4" fill="#0" id="circle83"/>
	<circle cx="630.626" cy="195.206" r="4" fill="#0" id="circle84"/>
	<circle cx="645.771" cy="181.954" r="4" fill="#0" id="circle85"/>
	<circle cx="647.664" cy="22.9313" r="4" fill="#0" id="circle86"/>
	<circle cx="657.13" cy="166.809" r="4" fill="#0" id="circle87"/>
	<circle cx="666.595" cy="22.9313" r="4" fill="#0" id="circle88"/>
	<circle cx="672.275" cy="155.45" r="4" fill="#0" id="circle89"/>
	<circle cx="685.527" cy="22.9313" r="4" fill="#0" id="circle90"/>
	<circle cx="687.42" cy="138.412" r="4" fill="#0" id="circle91"/>
	<circle cx="704.458" cy="22.9313" r="4" fill="#0" id="circle92"/>
	<circle cx="706.351" cy="138.412" r="4" fill="#0" id="circle93"/>
	<circle cx="723.389" cy="22.9313" r="4" fill="#0" id="circle94"/>
	<circle cx="725.282" cy="138.412" r="4" fill="#0" id="circle95"/>
	<circle cx="742.321" cy="22.9313" r="4" fill="#0" id="circle96"/>
	<circle cx="742.321" cy="147.878" r="4" fill="#0" id="circle97"/>
	<circle cx="761.252" cy="22.9313" r="4" fill="#0" id="circle98"/>
	<circle cx="761.252" cy="142.198" r="4" fill="#0" id="circle99"/>
	<circle cx="780.183" cy="22.9313" r="4" fill="#0" id="circle100"/>
	<circle cx="780.183" cy="138.412" r="4" fill="#0" id="circle101"/>
	<circle cx="797.221" cy="13.4656" r="4" fill="#0" id="circle102"/>
	<circle cx="799.115" cy="138.412" r="4" fill="#0" id="circle103"/>
	<circle cx="816.153" cy="13.4656" r="4" fill="#0" id="circle104"/>
	<circle cx="816.153" cy="147.878" r="4" fill="#0" id="circle105"/>
	<circle cx="835.084" cy="13.4656" r="4" fill="#0" id="circle106"/>
	<circle cx="835.084" cy="147.878" r="4" fill="#0" id="circle107"/>
	<circle cx="854.015" cy="13.4656" r="4" fill="#0" id="circle108"/>
	<circle cx="854.015" cy="147.878" r="4" fill="#0" id="circle109"/>
	<circle cx="872.947" cy="13.4656" r="4" fill="#0" id="circle110"/>
	<circle cx="872.947" cy="147.878" r="4" fill="#0" id="circle111"/>
	<circle cx="889.985" cy="138.412" r="4" fill="#0" id="circle112"/>
	<circle cx="891.878" cy="13.4656" r="4" fill="#0" id="circle113"/>
	<circle cx="907.023" cy="128.947" r="4" fill="#0" id="circle114"/>
	<circle cx="908.916" cy="4" r="4" fill="#0" id="circle115"/>
	<circle cx="925.954" cy="128.947" r="4" fill="#0" id="circle116"/>
	<circle cx="927.847" cy="4" r="4" fill="#0" id="circle117"/>
	<circle cx="944.885" cy="128.947" r="4" fill="#0" id="circle118"/>
	<circle cx="946.779" cy="4" r="4" fill="#0" id="circle119"/>
	<circle cx="961.924" cy="119.481" r="4" fill="#0" id="circle120"/>
	<circle cx="963.817" cy="13.4656" r="4" fill="#0" id="circle121"/>
	<circle cx="977.069" cy="106.229" r="4" fill="#0" id="circle122"/>
	<circle cx="978.962" cy="26.7176" r="4" fill="#0" id="circle123"/>
	<circle cx="986.534" cy="45.6489" r="4" fill="#0" id="circle124"/>
	<circle cx="990.321" cy="91.084" r="4" fill="#0" id="circle125"/>
	<circle cx="996" cy="62.687" r="4" fill="#0" id="circle126"/>
	</g>
</svg>