<?xml version="1.0" encoding="UTF-8" standalone="no"?>
<!-- Created with CurveBenchmark -->
<svg
	xmlns:dc="http://purl.org/dc/elements/1.1/"
	xmlns:cc="http://creativecommons.org/ns#"
	xmlns:rdf="http://www.w3.org/1999/02/22-rdf-syntax-ns#"
	xmlns:svg="http://www.w3.org/2000/svg"
	xmlns="http://www.w3.org/2000/svg"
	xmlns:sodipodi="http://sodipodi.sourceforge.net/DTD/sodipodi-0.dtd"
	xmlns:inkscape="http://www.inkscape.org/namespaces/inkscape"
	width="1000"
	height="1000"
	id="svg2"
	version="1.1"
	sodipodi:docname="manifold/peel-textbox02.png.txt">
<defs
	id="defs4" />
<metadata
	id="metadata7">
	<rdf:RDF>
		<cc:Work
			rdf:about="">
			<dc:format>image/svg+xml</dc:format>
			<dc:type
				rdf:resource="http://purl.org/dc/dcmitype/StillImage" />
			<dc:title></dc:title>
		</cc:Work>
	</rdf:RDF>
</metadata>
<g
	inkscape:label="Layer 1"
	inkscape:groupmode="layer"
	id="layer1">
	<path style="fill:none;stroke:red;stroke-width:1px;stroke-linecap:butt;stroke-linejoin:miter;stroke-opacity:1" d="M 13.0018,261.452 4,288.457 z" id="boundary" inkscape:connector-curvature="0" />
	<path style="fill:none;stroke:red;stroke-width:1px;stroke-linecap:butt;stroke-linejoin:miter;stroke-opacity:1" d="M 4,288.457 4,306.461 z" id="boundary" inkscape:connector-curvature="0" />
	<path style="fill:none;stroke:red;stroke-width:1px;stroke-linecap:butt;stroke-linejoin:miter;stroke-opacity:1" d="M 13.0018,261.452 13.0018,243.448 z" id="boundary" inkscape:connector-curvature="0" />
	<path style="fill:none;stroke:red;stroke-width:1px;stroke-linecap:butt;stroke-linejoin:miter;stroke-opacity:1" d="M 13.0018,340.668 4,324.465 z" id="boundary" inkscape:connector-curvature="0" />
	<path style="fill:none;stroke:red;stroke-width:1px;stroke-linecap:butt;stroke-linejoin:miter;stroke-opacity:1" d="M 4,324.465 4,306.461 z" id="boundary" inkscape:connector-curvature="0" />
	<path style="fill:none;stroke:red;stroke-width:1px;stroke-linecap:butt;stroke-linejoin:miter;stroke-opacity:1" d="M 22.0036,216.443 40.0073,207.441 z" id="boundary" inkscape:connector-curvature="0" />
	<path style="fill:none;stroke:red;stroke-width:1px;stroke-linecap:butt;stroke-linejoin:miter;stroke-opacity:1" d="M 40.0073,207.441 40.0073,189.437 z" id="boundary" inkscape:connector-curvature="0" />
	<path style="fill:none;stroke:red;stroke-width:1px;stroke-linecap:butt;stroke-linejoin:miter;stroke-opacity:1" d="M 13.0018,358.672 13.0018,340.668 z" id="boundary" inkscape:connector-curvature="0" />
	<path style="fill:none;stroke:red;stroke-width:1px;stroke-linecap:butt;stroke-linejoin:miter;stroke-opacity:1" d="M 13.0018,243.448 22.0036,216.443 z" id="boundary" inkscape:connector-curvature="0" />
	<path style="fill:none;stroke:red;stroke-width:1px;stroke-linecap:butt;stroke-linejoin:miter;stroke-opacity:1" d="M 22.0036,374.875 13.0018,358.672 z" id="boundary" inkscape:connector-curvature="0" />
	<path style="fill:none;stroke:red;stroke-width:1px;stroke-linecap:butt;stroke-linejoin:miter;stroke-opacity:1" d="M 22.0036,392.878 22.0036,374.875 z" id="boundary" inkscape:connector-curvature="0" />
	<path style="fill:none;stroke:red;stroke-width:1px;stroke-linecap:butt;stroke-linejoin:miter;stroke-opacity:1" d="M 38.2069,401.88 22.0036,392.878 z" id="boundary" inkscape:connector-curvature="0" />
	<path style="fill:none;stroke:red;stroke-width:1px;stroke-linecap:butt;stroke-linejoin:miter;stroke-opacity:1" d="M 49.0091,416.283 50.8094,434.287 z" id="boundary" inkscape:connector-curvature="0" />
	<path style="fill:none;stroke:red;stroke-width:1px;stroke-linecap:butt;stroke-linejoin:miter;stroke-opacity:1" d="M 49.0091,416.283 38.2069,401.88 z" id="boundary" inkscape:connector-curvature="0" />
	<path style="fill:none;stroke:red;stroke-width:1px;stroke-linecap:butt;stroke-linejoin:miter;stroke-opacity:1" d="M 54.4102,175.034 40.0073,189.437 z" id="boundary" inkscape:connector-curvature="0" />
	<path style="fill:none;stroke:red;stroke-width:1px;stroke-linecap:butt;stroke-linejoin:miter;stroke-opacity:1" d="M 54.4102,175.034 67.0127,153.43 z" id="boundary" inkscape:connector-curvature="0" />
	<path style="fill:none;stroke:red;stroke-width:1px;stroke-linecap:butt;stroke-linejoin:miter;stroke-opacity:1" d="M 67.0127,153.43 81.4156,139.027 z" id="boundary" inkscape:connector-curvature="0" />
	<path style="fill:none;stroke:red;stroke-width:1px;stroke-linecap:butt;stroke-linejoin:miter;stroke-opacity:1" d="M 184.036,774.555 184.036,792.559 z" id="boundary" inkscape:connector-curvature="0" />
	<path style="fill:none;stroke:red;stroke-width:1px;stroke-linecap:butt;stroke-linejoin:miter;stroke-opacity:1" d="M 67.0127,443.289 50.8094,434.287 z" id="boundary" inkscape:connector-curvature="0" />
	<path style="fill:none;stroke:red;stroke-width:1px;stroke-linecap:butt;stroke-linejoin:miter;stroke-opacity:1" d="M 81.4156,139.027 95.8185,124.624 z" id="boundary" inkscape:connector-curvature="0" />
	<path style="fill:none;stroke:red;stroke-width:1px;stroke-linecap:butt;stroke-linejoin:miter;stroke-opacity:1" d="M 95.8185,124.624 113.822,121.024 z" id="boundary" inkscape:connector-curvature="0" />
	<path style="fill:none;stroke:red;stroke-width:1px;stroke-linecap:butt;stroke-linejoin:miter;stroke-opacity:1" d="M 76.0145,459.492 67.0127,443.289 z" id="boundary" inkscape:connector-curvature="0" />
	<path style="fill:none;stroke:red;stroke-width:1px;stroke-linecap:butt;stroke-linejoin:miter;stroke-opacity:1" d="M 94.0181,464.893 76.0145,459.492 z" id="boundary" inkscape:connector-curvature="0" />
	<path style="fill:none;stroke:red;stroke-width:1px;stroke-linecap:butt;stroke-linejoin:miter;stroke-opacity:1" d="M 110.221,473.895 122.824,488.298 z" id="boundary" inkscape:connector-curvature="0" />
	<path style="fill:none;stroke:red;stroke-width:1px;stroke-linecap:butt;stroke-linejoin:miter;stroke-opacity:1" d="M 110.221,473.895 94.0181,464.893 z" id="boundary" inkscape:connector-curvature="0" />
	<path style="fill:none;stroke:red;stroke-width:1px;stroke-linecap:butt;stroke-linejoin:miter;stroke-opacity:1" d="M 113.822,121.024 130.025,112.022 z" id="boundary" inkscape:connector-curvature="0" />
	<path style="fill:none;stroke:red;stroke-width:1px;stroke-linecap:butt;stroke-linejoin:miter;stroke-opacity:1" d="M 140.828,491.898 122.824,488.298 z" id="boundary" inkscape:connector-curvature="0" />
	<path style="fill:none;stroke:red;stroke-width:1px;stroke-linecap:butt;stroke-linejoin:miter;stroke-opacity:1" d="M 148.029,99.4192 166.033,94.0181 z" id="boundary" inkscape:connector-curvature="0" />
	<path style="fill:none;stroke:red;stroke-width:1px;stroke-linecap:butt;stroke-linejoin:miter;stroke-opacity:1" d="M 148.029,99.4192 130.025,112.022 z" id="boundary" inkscape:connector-curvature="0" />
	<path style="fill:none;stroke:red;stroke-width:1px;stroke-linecap:butt;stroke-linejoin:miter;stroke-opacity:1" d="M 157.031,500.9 140.828,491.898 z" id="boundary" inkscape:connector-curvature="0" />
	<path style="fill:none;stroke:red;stroke-width:1px;stroke-linecap:butt;stroke-linejoin:miter;stroke-opacity:1" d="M 175.034,500.9 157.031,500.9 z" id="boundary" inkscape:connector-curvature="0" />
	<path style="fill:none;stroke:red;stroke-width:1px;stroke-linecap:butt;stroke-linejoin:miter;stroke-opacity:1" d="M 182.236,85.0163 166.033,94.0181 z" id="boundary" inkscape:connector-curvature="0" />
	<path style="fill:none;stroke:red;stroke-width:1px;stroke-linecap:butt;stroke-linejoin:miter;stroke-opacity:1" d="M 180.436,518.904 175.034,500.9 z" id="boundary" inkscape:connector-curvature="0" />
	<path style="fill:none;stroke:red;stroke-width:1px;stroke-linecap:butt;stroke-linejoin:miter;stroke-opacity:1" d="M 182.236,85.0163 194.838,70.6134 z" id="boundary" inkscape:connector-curvature="0" />
	<path style="fill:none;stroke:red;stroke-width:1px;stroke-linecap:butt;stroke-linejoin:miter;stroke-opacity:1" d="M 194.838,70.6134 212.842,67.0127 z" id="boundary" inkscape:connector-curvature="0" />
	<path style="fill:none;stroke:red;stroke-width:1px;stroke-linecap:butt;stroke-linejoin:miter;stroke-opacity:1" d="M 193.038,702.541 193.038,720.544 z" id="boundary" inkscape:connector-curvature="0" />
	<path style="fill:none;stroke:red;stroke-width:1px;stroke-linecap:butt;stroke-linejoin:miter;stroke-opacity:1" d="M 193.038,720.544 193.038,738.548 z" id="boundary" inkscape:connector-curvature="0" />
	<path style="fill:none;stroke:red;stroke-width:1px;stroke-linecap:butt;stroke-linejoin:miter;stroke-opacity:1" d="M 180.436,518.904 198.439,526.105 z" id="boundary" inkscape:connector-curvature="0" />
	<path style="fill:none;stroke:red;stroke-width:1px;stroke-linecap:butt;stroke-linejoin:miter;stroke-opacity:1" d="M 193.038,738.548 193.038,756.552 z" id="boundary" inkscape:connector-curvature="0" />
	<path style="fill:none;stroke:red;stroke-width:1px;stroke-linecap:butt;stroke-linejoin:miter;stroke-opacity:1" d="M 193.038,756.552 184.036,774.555 z" id="boundary" inkscape:connector-curvature="0" />
	<path style="fill:none;stroke:red;stroke-width:1px;stroke-linecap:butt;stroke-linejoin:miter;stroke-opacity:1" d="M 211.042,657.532 211.042,639.528 z" id="boundary" inkscape:connector-curvature="0" />
	<path style="fill:none;stroke:red;stroke-width:1px;stroke-linecap:butt;stroke-linejoin:miter;stroke-opacity:1" d="M 202.04,792.559 184.036,792.559 z" id="boundary" inkscape:connector-curvature="0" />
	<path style="fill:none;stroke:red;stroke-width:1px;stroke-linecap:butt;stroke-linejoin:miter;stroke-opacity:1" d="M 211.042,693.539 193.038,702.541 z" id="boundary" inkscape:connector-curvature="0" />
	<path style="fill:none;stroke:red;stroke-width:1px;stroke-linecap:butt;stroke-linejoin:miter;stroke-opacity:1" d="M 211.042,693.539 211.042,675.535 z" id="boundary" inkscape:connector-curvature="0" />
	<path style="fill:none;stroke:red;stroke-width:1px;stroke-linecap:butt;stroke-linejoin:miter;stroke-opacity:1" d="M 211.042,675.535 211.042,657.532 z" id="boundary" inkscape:connector-curvature="0" />
	<path style="fill:none;stroke:red;stroke-width:1px;stroke-linecap:butt;stroke-linejoin:miter;stroke-opacity:1" d="M 198.439,526.105 216.443,527.906 z" id="boundary" inkscape:connector-curvature="0" />
	<path style="fill:none;stroke:red;stroke-width:1px;stroke-linecap:butt;stroke-linejoin:miter;stroke-opacity:1" d="M 216.443,527.906 225.445,544.109 z" id="boundary" inkscape:connector-curvature="0" />
	<path style="fill:none;stroke:red;stroke-width:1px;stroke-linecap:butt;stroke-linejoin:miter;stroke-opacity:1" d="M 220.044,594.519 220.044,576.515 z" id="boundary" inkscape:connector-curvature="0" />
	<path style="fill:none;stroke:red;stroke-width:1px;stroke-linecap:butt;stroke-linejoin:miter;stroke-opacity:1" d="M 216.443,778.156 202.04,792.559 z" id="boundary" inkscape:connector-curvature="0" />
	<path style="fill:none;stroke:red;stroke-width:1px;stroke-linecap:butt;stroke-linejoin:miter;stroke-opacity:1" d="M 220.044,612.523 211.042,639.528 z" id="boundary" inkscape:connector-curvature="0" />
	<path style="fill:none;stroke:red;stroke-width:1px;stroke-linecap:butt;stroke-linejoin:miter;stroke-opacity:1" d="M 220.044,612.523 220.044,594.519 z" id="boundary" inkscape:connector-curvature="0" />
	<path style="fill:none;stroke:red;stroke-width:1px;stroke-linecap:butt;stroke-linejoin:miter;stroke-opacity:1" d="M 234.446,769.154 216.443,778.156 z" id="boundary" inkscape:connector-curvature="0" />
	<path style="fill:none;stroke:red;stroke-width:1px;stroke-linecap:butt;stroke-linejoin:miter;stroke-opacity:1" d="M 335.267,31.0054 317.263,31.0054 z" id="boundary" inkscape:connector-curvature="0" />
	<path style="fill:none;stroke:red;stroke-width:1px;stroke-linecap:butt;stroke-linejoin:miter;stroke-opacity:1" d="M 225.445,544.109 238.047,558.512 z" id="boundary" inkscape:connector-curvature="0" />
	<path style="fill:none;stroke:red;stroke-width:1px;stroke-linecap:butt;stroke-linejoin:miter;stroke-opacity:1" d="M 238.047,558.512 220.044,576.515 z" id="boundary" inkscape:connector-curvature="0" />
	<path style="fill:none;stroke:red;stroke-width:1px;stroke-linecap:butt;stroke-linejoin:miter;stroke-opacity:1" d="M 229.045,58.0109 247.049,45.4083 z" id="boundary" inkscape:connector-curvature="0" />
	<path style="fill:none;stroke:red;stroke-width:1px;stroke-linecap:butt;stroke-linejoin:miter;stroke-opacity:1" d="M 247.049,45.4083 265.053,40.0073 z" id="boundary" inkscape:connector-curvature="0" />
	<path style="fill:none;stroke:red;stroke-width:1px;stroke-linecap:butt;stroke-linejoin:miter;stroke-opacity:1" d="M 212.842,67.0127 229.045,58.0109 z" id="boundary" inkscape:connector-curvature="0" />
	<path style="fill:none;stroke:red;stroke-width:1px;stroke-linecap:butt;stroke-linejoin:miter;stroke-opacity:1" d="M 580.116,572.915 562.113,572.915 z" id="boundary" inkscape:connector-curvature="0" />
	<path style="fill:none;stroke:red;stroke-width:1px;stroke-linecap:butt;stroke-linejoin:miter;stroke-opacity:1" d="M 317.263,31.0054 299.26,31.0054 z" id="boundary" inkscape:connector-curvature="0" />
	<path style="fill:none;stroke:red;stroke-width:1px;stroke-linecap:butt;stroke-linejoin:miter;stroke-opacity:1" d="M 243.448,751.151 234.446,769.154 z" id="boundary" inkscape:connector-curvature="0" />
	<path style="fill:none;stroke:red;stroke-width:1px;stroke-linecap:butt;stroke-linejoin:miter;stroke-opacity:1" d="M 299.26,31.0054 281.256,31.0054 z" id="boundary" inkscape:connector-curvature="0" />
	<path style="fill:none;stroke:red;stroke-width:1px;stroke-linecap:butt;stroke-linejoin:miter;stroke-opacity:1" d="M 281.256,31.0054 265.053,40.0073 z" id="boundary" inkscape:connector-curvature="0" />
	<path style="fill:none;stroke:red;stroke-width:1px;stroke-linecap:butt;stroke-linejoin:miter;stroke-opacity:1" d="M 261.452,742.149 243.448,751.151 z" id="boundary" inkscape:connector-curvature="0" />
	<path style="fill:none;stroke:red;stroke-width:1px;stroke-linecap:butt;stroke-linejoin:miter;stroke-opacity:1" d="M 491.898,581.917 509.902,581.917 z" id="boundary" inkscape:connector-curvature="0" />
	<path style="fill:none;stroke:red;stroke-width:1px;stroke-linecap:butt;stroke-linejoin:miter;stroke-opacity:1" d="M 270.454,724.145 261.452,742.149 z" id="boundary" inkscape:connector-curvature="0" />
	<path style="fill:none;stroke:red;stroke-width:1px;stroke-linecap:butt;stroke-linejoin:miter;stroke-opacity:1" d="M 288.457,715.143 270.454,724.145 z" id="boundary" inkscape:connector-curvature="0" />
	<path style="fill:none;stroke:red;stroke-width:1px;stroke-linecap:butt;stroke-linejoin:miter;stroke-opacity:1" d="M 297.459,697.14 288.457,715.143 z" id="boundary" inkscape:connector-curvature="0" />
	<path style="fill:none;stroke:red;stroke-width:1px;stroke-linecap:butt;stroke-linejoin:miter;stroke-opacity:1" d="M 315.463,689.938 297.459,697.14 z" id="boundary" inkscape:connector-curvature="0" />
	<path style="fill:none;stroke:red;stroke-width:1px;stroke-linecap:butt;stroke-linejoin:miter;stroke-opacity:1" d="M 491.898,581.917 473.895,581.917 z" id="boundary" inkscape:connector-curvature="0" />
	<path style="fill:none;stroke:red;stroke-width:1px;stroke-linecap:butt;stroke-linejoin:miter;stroke-opacity:1" d="M 329.866,671.935 315.463,689.938 z" id="boundary" inkscape:connector-curvature="0" />
	<path style="fill:none;stroke:red;stroke-width:1px;stroke-linecap:butt;stroke-linejoin:miter;stroke-opacity:1" d="M 347.869,662.933 329.866,671.935 z" id="boundary" inkscape:connector-curvature="0" />
	<path style="fill:none;stroke:red;stroke-width:1px;stroke-linecap:butt;stroke-linejoin:miter;stroke-opacity:1" d="M 347.869,16.6025 335.267,31.0054 z" id="boundary" inkscape:connector-curvature="0" />
	<path style="fill:none;stroke:red;stroke-width:1px;stroke-linecap:butt;stroke-linejoin:miter;stroke-opacity:1" d="M 347.869,16.6025 365.873,13.0018 z" id="boundary" inkscape:connector-curvature="0" />
	<path style="fill:none;stroke:red;stroke-width:1px;stroke-linecap:butt;stroke-linejoin:miter;stroke-opacity:1" d="M 356.871,644.929 347.869,662.933 z" id="boundary" inkscape:connector-curvature="0" />
	<path style="fill:none;stroke:red;stroke-width:1px;stroke-linecap:butt;stroke-linejoin:miter;stroke-opacity:1" d="M 365.873,13.0018 383.877,13.0018 z" id="boundary" inkscape:connector-curvature="0" />
	<path style="fill:none;stroke:red;stroke-width:1px;stroke-linecap:butt;stroke-linejoin:miter;stroke-opacity:1" d="M 373.074,635.927 356.871,644.929 z" id="boundary" inkscape:connector-curvature="0" />
	<path style="fill:none;stroke:red;stroke-width:1px;stroke-linecap:butt;stroke-linejoin:miter;stroke-opacity:1" d="M 383.877,13.0018 401.88,13.0018 z" id="boundary" inkscape:connector-curvature="0" />
	<path style="fill:none;stroke:red;stroke-width:1px;stroke-linecap:butt;stroke-linejoin:miter;stroke-opacity:1" d="M 387.477,625.125 373.074,635.927 z" id="boundary" inkscape:connector-curvature="0" />
	<path style="fill:none;stroke:red;stroke-width:1px;stroke-linecap:butt;stroke-linejoin:miter;stroke-opacity:1" d="M 396.479,608.922 387.477,625.125 z" id="boundary" inkscape:connector-curvature="0" />
	<path style="fill:none;stroke:red;stroke-width:1px;stroke-linecap:butt;stroke-linejoin:miter;stroke-opacity:1" d="M 455.891,581.917 473.895,581.917 z" id="boundary" inkscape:connector-curvature="0" />
	<path style="fill:none;stroke:red;stroke-width:1px;stroke-linecap:butt;stroke-linejoin:miter;stroke-opacity:1" d="M 401.88,13.0018 419.884,13.0018 z" id="boundary" inkscape:connector-curvature="0" />
	<path style="fill:none;stroke:red;stroke-width:1px;stroke-linecap:butt;stroke-linejoin:miter;stroke-opacity:1" d="M 412.682,599.92 396.479,608.922 z" id="boundary" inkscape:connector-curvature="0" />
	<path style="fill:none;stroke:red;stroke-width:1px;stroke-linecap:butt;stroke-linejoin:miter;stroke-opacity:1" d="M 419.884,13.0018 437.887,13.0018 z" id="boundary" inkscape:connector-curvature="0" />
	<path style="fill:none;stroke:red;stroke-width:1px;stroke-linecap:butt;stroke-linejoin:miter;stroke-opacity:1" d="M 437.887,581.917 455.891,581.917 z" id="boundary" inkscape:connector-curvature="0" />
	<path style="fill:none;stroke:red;stroke-width:1px;stroke-linecap:butt;stroke-linejoin:miter;stroke-opacity:1" d="M 419.884,581.917 412.682,599.92 z" id="boundary" inkscape:connector-curvature="0" />
	<path style="fill:none;stroke:red;stroke-width:1px;stroke-linecap:butt;stroke-linejoin:miter;stroke-opacity:1" d="M 437.887,581.917 419.884,581.917 z" id="boundary" inkscape:connector-curvature="0" />
	<path style="fill:none;stroke:red;stroke-width:1px;stroke-linecap:butt;stroke-linejoin:miter;stroke-opacity:1" d="M 454.091,4 472.094,4 z" id="boundary" inkscape:connector-curvature="0" />
	<path style="fill:none;stroke:red;stroke-width:1px;stroke-linecap:butt;stroke-linejoin:miter;stroke-opacity:1" d="M 454.091,4 437.887,13.0018 z" id="boundary" inkscape:connector-curvature="0" />
	<path style="fill:none;stroke:red;stroke-width:1px;stroke-linecap:butt;stroke-linejoin:miter;stroke-opacity:1" d="M 509.902,581.917 527.906,581.917 z" id="boundary" inkscape:connector-curvature="0" />
	<path style="fill:none;stroke:red;stroke-width:1px;stroke-linecap:butt;stroke-linejoin:miter;stroke-opacity:1" d="M 472.094,4 490.098,4 z" id="boundary" inkscape:connector-curvature="0" />
	<path style="fill:none;stroke:red;stroke-width:1px;stroke-linecap:butt;stroke-linejoin:miter;stroke-opacity:1" d="M 490.098,4 508.102,4 z" id="boundary" inkscape:connector-curvature="0" />
	<path style="fill:none;stroke:red;stroke-width:1px;stroke-linecap:butt;stroke-linejoin:miter;stroke-opacity:1" d="M 580.116,572.915 598.12,572.915 z" id="boundary" inkscape:connector-curvature="0" />
	<path style="fill:none;stroke:red;stroke-width:1px;stroke-linecap:butt;stroke-linejoin:miter;stroke-opacity:1" d="M 598.12,572.915 616.123,572.915 z" id="boundary" inkscape:connector-curvature="0" />
	<path style="fill:none;stroke:red;stroke-width:1px;stroke-linecap:butt;stroke-linejoin:miter;stroke-opacity:1" d="M 526.105,4 542.309,13.0018 z" id="boundary" inkscape:connector-curvature="0" />
	<path style="fill:none;stroke:red;stroke-width:1px;stroke-linecap:butt;stroke-linejoin:miter;stroke-opacity:1" d="M 526.105,4 508.102,4 z" id="boundary" inkscape:connector-curvature="0" />
	<path style="fill:none;stroke:red;stroke-width:1px;stroke-linecap:butt;stroke-linejoin:miter;stroke-opacity:1" d="M 527.906,581.917 544.109,572.915 z" id="boundary" inkscape:connector-curvature="0" />
	<path style="fill:none;stroke:red;stroke-width:1px;stroke-linecap:butt;stroke-linejoin:miter;stroke-opacity:1" d="M 544.109,572.915 562.113,572.915 z" id="boundary" inkscape:connector-curvature="0" />
	<path style="fill:none;stroke:red;stroke-width:1px;stroke-linecap:butt;stroke-linejoin:miter;stroke-opacity:1" d="M 560.312,13.0018 542.309,13.0018 z" id="boundary" inkscape:connector-curvature="0" />
	<path style="fill:none;stroke:red;stroke-width:1px;stroke-linecap:butt;stroke-linejoin:miter;stroke-opacity:1" d="M 616.123,572.915 634.127,572.915 z" id="boundary" inkscape:connector-curvature="0" />
	<path style="fill:none;stroke:red;stroke-width:1px;stroke-linecap:butt;stroke-linejoin:miter;stroke-opacity:1" d="M 578.316,13.0018 560.312,13.0018 z" id="boundary" inkscape:connector-curvature="0" />
	<path style="fill:none;stroke:red;stroke-width:1px;stroke-linecap:butt;stroke-linejoin:miter;stroke-opacity:1" d="M 596.319,13.0018 578.316,13.0018 z" id="boundary" inkscape:connector-curvature="0" />
	<path style="fill:none;stroke:red;stroke-width:1px;stroke-linecap:butt;stroke-linejoin:miter;stroke-opacity:1" d="M 614.323,13.0018 596.319,13.0018 z" id="boundary" inkscape:connector-curvature="0" />
	<path style="fill:none;stroke:red;stroke-width:1px;stroke-linecap:butt;stroke-linejoin:miter;stroke-opacity:1" d="M 632.327,13.0018 644.929,27.4047 z" id="boundary" inkscape:connector-curvature="0" />
	<path style="fill:none;stroke:red;stroke-width:1px;stroke-linecap:butt;stroke-linejoin:miter;stroke-opacity:1" d="M 632.327,13.0018 614.323,13.0018 z" id="boundary" inkscape:connector-curvature="0" />
	<path style="fill:none;stroke:red;stroke-width:1px;stroke-linecap:butt;stroke-linejoin:miter;stroke-opacity:1" d="M 680.936,554.911 698.94,554.911 z" id="boundary" inkscape:connector-curvature="0" />
	<path style="fill:none;stroke:red;stroke-width:1px;stroke-linecap:butt;stroke-linejoin:miter;stroke-opacity:1" d="M 644.929,554.911 634.127,572.915 z" id="boundary" inkscape:connector-curvature="0" />
	<path style="fill:none;stroke:red;stroke-width:1px;stroke-linecap:butt;stroke-linejoin:miter;stroke-opacity:1" d="M 662.933,31.0054 644.929,27.4047 z" id="boundary" inkscape:connector-curvature="0" />
	<path style="fill:none;stroke:red;stroke-width:1px;stroke-linecap:butt;stroke-linejoin:miter;stroke-opacity:1" d="M 662.933,554.911 644.929,554.911 z" id="boundary" inkscape:connector-curvature="0" />
	<path style="fill:none;stroke:red;stroke-width:1px;stroke-linecap:butt;stroke-linejoin:miter;stroke-opacity:1" d="M 680.936,31.0054 662.933,31.0054 z" id="boundary" inkscape:connector-curvature="0" />
	<path style="fill:none;stroke:red;stroke-width:1px;stroke-linecap:butt;stroke-linejoin:miter;stroke-opacity:1" d="M 680.936,554.911 662.933,554.911 z" id="boundary" inkscape:connector-curvature="0" />
	<path style="fill:none;stroke:red;stroke-width:1px;stroke-linecap:butt;stroke-linejoin:miter;stroke-opacity:1" d="M 698.94,31.0054 715.143,40.0073 z" id="boundary" inkscape:connector-curvature="0" />
	<path style="fill:none;stroke:red;stroke-width:1px;stroke-linecap:butt;stroke-linejoin:miter;stroke-opacity:1" d="M 698.94,31.0054 680.936,31.0054 z" id="boundary" inkscape:connector-curvature="0" />
	<path style="fill:none;stroke:red;stroke-width:1px;stroke-linecap:butt;stroke-linejoin:miter;stroke-opacity:1" d="M 715.143,545.909 698.94,554.911 z" id="boundary" inkscape:connector-curvature="0" />
	<path style="fill:none;stroke:red;stroke-width:1px;stroke-linecap:butt;stroke-linejoin:miter;stroke-opacity:1" d="M 733.147,43.608 743.949,58.0109 z" id="boundary" inkscape:connector-curvature="0" />
	<path style="fill:none;stroke:red;stroke-width:1px;stroke-linecap:butt;stroke-linejoin:miter;stroke-opacity:1" d="M 733.147,43.608 715.143,40.0073 z" id="boundary" inkscape:connector-curvature="0" />
	<path style="fill:none;stroke:red;stroke-width:1px;stroke-linecap:butt;stroke-linejoin:miter;stroke-opacity:1" d="M 733.147,545.909 715.143,545.909 z" id="boundary" inkscape:connector-curvature="0" />
	<path style="fill:none;stroke:red;stroke-width:1px;stroke-linecap:butt;stroke-linejoin:miter;stroke-opacity:1" d="M 751.151,540.508 733.147,545.909 z" id="boundary" inkscape:connector-curvature="0" />
	<path style="fill:none;stroke:red;stroke-width:1px;stroke-linecap:butt;stroke-linejoin:miter;stroke-opacity:1" d="M 761.953,58.0109 779.956,63.412 z" id="boundary" inkscape:connector-curvature="0" />
	<path style="fill:none;stroke:red;stroke-width:1px;stroke-linecap:butt;stroke-linejoin:miter;stroke-opacity:1" d="M 761.953,58.0109 743.949,58.0109 z" id="boundary" inkscape:connector-curvature="0" />
	<path style="fill:none;stroke:red;stroke-width:1px;stroke-linecap:butt;stroke-linejoin:miter;stroke-opacity:1" d="M 783.557,526.105 801.561,518.904 z" id="boundary" inkscape:connector-curvature="0" />
	<path style="fill:none;stroke:red;stroke-width:1px;stroke-linecap:butt;stroke-linejoin:miter;stroke-opacity:1" d="M 801.561,518.904 819.564,517.103 z" id="boundary" inkscape:connector-curvature="0" />
	<path style="fill:none;stroke:red;stroke-width:1px;stroke-linecap:butt;stroke-linejoin:miter;stroke-opacity:1" d="M 765.554,527.906 751.151,540.508 z" id="boundary" inkscape:connector-curvature="0" />
	<path style="fill:none;stroke:red;stroke-width:1px;stroke-linecap:butt;stroke-linejoin:miter;stroke-opacity:1" d="M 783.557,526.105 765.554,527.906 z" id="boundary" inkscape:connector-curvature="0" />
	<path style="fill:none;stroke:red;stroke-width:1px;stroke-linecap:butt;stroke-linejoin:miter;stroke-opacity:1" d="M 797.96,67.0127 806.962,83.216 z" id="boundary" inkscape:connector-curvature="0" />
	<path style="fill:none;stroke:red;stroke-width:1px;stroke-linecap:butt;stroke-linejoin:miter;stroke-opacity:1" d="M 797.96,67.0127 779.956,63.412 z" id="boundary" inkscape:connector-curvature="0" />
	<path style="fill:none;stroke:red;stroke-width:1px;stroke-linecap:butt;stroke-linejoin:miter;stroke-opacity:1" d="M 824.966,90.4174 806.962,83.216 z" id="boundary" inkscape:connector-curvature="0" />
	<path style="fill:none;stroke:red;stroke-width:1px;stroke-linecap:butt;stroke-linejoin:miter;stroke-opacity:1" d="M 828.566,500.9 819.564,517.103 z" id="boundary" inkscape:connector-curvature="0" />
	<path style="fill:none;stroke:red;stroke-width:1px;stroke-linecap:butt;stroke-linejoin:miter;stroke-opacity:1" d="M 842.969,94.0181 851.971,110.221 z" id="boundary" inkscape:connector-curvature="0" />
	<path style="fill:none;stroke:red;stroke-width:1px;stroke-linecap:butt;stroke-linejoin:miter;stroke-opacity:1" d="M 842.969,94.0181 824.966,90.4174 z" id="boundary" inkscape:connector-curvature="0" />
	<path style="fill:none;stroke:red;stroke-width:1px;stroke-linecap:butt;stroke-linejoin:miter;stroke-opacity:1" d="M 846.57,499.1 828.566,500.9 z" id="boundary" inkscape:connector-curvature="0" />
	<path style="fill:none;stroke:red;stroke-width:1px;stroke-linecap:butt;stroke-linejoin:miter;stroke-opacity:1" d="M 864.574,491.898 846.57,499.1 z" id="boundary" inkscape:connector-curvature="0" />
	<path style="fill:none;stroke:red;stroke-width:1px;stroke-linecap:butt;stroke-linejoin:miter;stroke-opacity:1" d="M 869.975,112.022 886.178,121.024 z" id="boundary" inkscape:connector-curvature="0" />
	<path style="fill:none;stroke:red;stroke-width:1px;stroke-linecap:butt;stroke-linejoin:miter;stroke-opacity:1" d="M 869.975,112.022 851.971,110.221 z" id="boundary" inkscape:connector-curvature="0" />
	<path style="fill:none;stroke:red;stroke-width:1px;stroke-linecap:butt;stroke-linejoin:miter;stroke-opacity:1" d="M 878.976,473.895 864.574,491.898 z" id="boundary" inkscape:connector-curvature="0" />
	<path style="fill:none;stroke:red;stroke-width:1px;stroke-linecap:butt;stroke-linejoin:miter;stroke-opacity:1" d="M 896.98,473.895 878.976,473.895 z" id="boundary" inkscape:connector-curvature="0" />
	<path style="fill:none;stroke:red;stroke-width:1px;stroke-linecap:butt;stroke-linejoin:miter;stroke-opacity:1" d="M 904.181,124.624 914.984,139.027 z" id="boundary" inkscape:connector-curvature="0" />
	<path style="fill:none;stroke:red;stroke-width:1px;stroke-linecap:butt;stroke-linejoin:miter;stroke-opacity:1" d="M 904.181,124.624 886.178,121.024 z" id="boundary" inkscape:connector-curvature="0" />
	<path style="fill:none;stroke:red;stroke-width:1px;stroke-linecap:butt;stroke-linejoin:miter;stroke-opacity:1" d="M 913.183,464.893 896.98,473.895 z" id="boundary" inkscape:connector-curvature="0" />
	<path style="fill:none;stroke:red;stroke-width:1px;stroke-linecap:butt;stroke-linejoin:miter;stroke-opacity:1" d="M 914.984,139.027 929.387,149.829 z" id="boundary" inkscape:connector-curvature="0" />
	<path style="fill:none;stroke:red;stroke-width:1px;stroke-linecap:butt;stroke-linejoin:miter;stroke-opacity:1" d="M 929.387,149.829 932.987,167.833 z" id="boundary" inkscape:connector-curvature="0" />
	<path style="fill:none;stroke:red;stroke-width:1px;stroke-linecap:butt;stroke-linejoin:miter;stroke-opacity:1" d="M 936.588,437.887 927.586,454.091 z" id="boundary" inkscape:connector-curvature="0" />
	<path style="fill:none;stroke:red;stroke-width:1px;stroke-linecap:butt;stroke-linejoin:miter;stroke-opacity:1" d="M 927.586,454.091 913.183,464.893 z" id="boundary" inkscape:connector-curvature="0" />
	<path style="fill:none;stroke:red;stroke-width:1px;stroke-linecap:butt;stroke-linejoin:miter;stroke-opacity:1" d="M 947.39,178.635 959.993,193.038 z" id="boundary" inkscape:connector-curvature="0" />
	<path style="fill:none;stroke:red;stroke-width:1px;stroke-linecap:butt;stroke-linejoin:miter;stroke-opacity:1" d="M 959.993,193.038 959.993,211.042 z" id="boundary" inkscape:connector-curvature="0" />
	<path style="fill:none;stroke:red;stroke-width:1px;stroke-linecap:butt;stroke-linejoin:miter;stroke-opacity:1" d="M 932.987,167.833 947.39,178.635 z" id="boundary" inkscape:connector-curvature="0" />
	<path style="fill:none;stroke:red;stroke-width:1px;stroke-linecap:butt;stroke-linejoin:miter;stroke-opacity:1" d="M 950.991,410.882 936.588,437.887 z" id="boundary" inkscape:connector-curvature="0" />
	<path style="fill:none;stroke:red;stroke-width:1px;stroke-linecap:butt;stroke-linejoin:miter;stroke-opacity:1" d="M 967.194,401.88 950.991,410.882 z" id="boundary" inkscape:connector-curvature="0" />
	<path style="fill:none;stroke:red;stroke-width:1px;stroke-linecap:butt;stroke-linejoin:miter;stroke-opacity:1" d="M 977.996,216.443 959.993,211.042 z" id="boundary" inkscape:connector-curvature="0" />
	<path style="fill:none;stroke:red;stroke-width:1px;stroke-linecap:butt;stroke-linejoin:miter;stroke-opacity:1" d="M 977.996,216.443 977.996,234.446 z" id="boundary" inkscape:connector-curvature="0" />
	<path style="fill:none;stroke:red;stroke-width:1px;stroke-linecap:butt;stroke-linejoin:miter;stroke-opacity:1" d="M 977.996,374.875 967.194,401.88 z" id="boundary" inkscape:connector-curvature="0" />
	<path style="fill:none;stroke:red;stroke-width:1px;stroke-linecap:butt;stroke-linejoin:miter;stroke-opacity:1" d="M 986.998,250.65 986.998,268.653 z" id="boundary" inkscape:connector-curvature="0" />
	<path style="fill:none;stroke:red;stroke-width:1px;stroke-linecap:butt;stroke-linejoin:miter;stroke-opacity:1" d="M 986.998,250.65 977.996,234.446 z" id="boundary" inkscape:connector-curvature="0" />
	<path style="fill:none;stroke:red;stroke-width:1px;stroke-linecap:butt;stroke-linejoin:miter;stroke-opacity:1" d="M 996,304.661 992.399,286.657 z" id="boundary" inkscape:connector-curvature="0" />
	<path style="fill:none;stroke:red;stroke-width:1px;stroke-linecap:butt;stroke-linejoin:miter;stroke-opacity:1" d="M 992.399,286.657 986.998,268.653 z" id="boundary" inkscape:connector-curvature="0" />
	<path style="fill:none;stroke:red;stroke-width:1px;stroke-linecap:butt;stroke-linejoin:miter;stroke-opacity:1" d="M 986.998,347.869 977.996,374.875 z" id="boundary" inkscape:connector-curvature="0" />
	<path style="fill:none;stroke:red;stroke-width:1px;stroke-linecap:butt;stroke-linejoin:miter;stroke-opacity:1" d="M 986.998,347.869 986.998,329.866 z" id="boundary" inkscape:connector-curvature="0" />
	<path style="fill:none;stroke:red;stroke-width:1px;stroke-linecap:butt;stroke-linejoin:miter;stroke-opacity:1" d="M 996,304.661 986.998,329.866 z" id="boundary" inkscape:connector-curvature="0" />
	<circle cx="4" cy="288.457" r="4" fill="#0" id="circle0"/>
	<circle cx="4" cy="306.461" r="4" fill="#0" id="circle1"/>
	<circle cx="4" cy="324.465" r="4" fill="#0" id="circle2"/>
	<circle cx="13.0018" cy="243.448" r="4" fill="#0" id="circle3"/>
	<circle cx="13.0018" cy="261.452" r="4" fill="#0" id="circle4"/>
	<circle cx="13.0018" cy="340.668" r="4" fill="#0" id="circle5"/>
	<circle cx="13.0018" cy="358.672" r="4" fill="#0" id="circle6"/>
	<circle cx="22.0036" cy="216.443" r="4" fill="#0" id="circle7"/>
	<circle cx="22.0036" cy="374.875" r="4" fill="#0" id="circle8"/>
	<circle cx="22.0036" cy="392.878" r="4" fill="#0" id="circle9"/>
	<circle cx="38.2069" cy="401.88" r="4" fill="#0" id="circle10"/>
	<circle cx="40.0073" cy="189.437" r="4" fill="#0" id="circle11"/>
	<circle cx="40.0073" cy="207.441" r="4" fill="#0" id="circle12"/>
	<circle cx="49.0091" cy="416.283" r="4" fill="#0" id="circle13"/>
	<circle cx="50.8094" cy="434.287" r="4" fill="#0" id="circle14"/>
	<circle cx="54.4102" cy="175.034" r="4" fill="#0" id="circle15"/>
	<circle cx="67.0127" cy="153.43" r="4" fill="#0" id="circle16"/>
	<circle cx="67.0127" cy="443.289" r="4" fill="#0" id="circle17"/>
	<circle cx="76.0145" cy="459.492" r="4" fill="#0" id="circle18"/>
	<circle cx="81.4156" cy="139.027" r="4" fill="#0" id="circle19"/>
	<circle cx="94.0181" cy="464.893" r="4" fill="#0" id="circle20"/>
	<circle cx="95.8185" cy="124.624" r="4" fill="#0" id="circle21"/>
	<circle cx="110.221" cy="473.895" r="4" fill="#0" id="circle22"/>
	<circle cx="113.822" cy="121.024" r="4" fill="#0" id="circle23"/>
	<circle cx="122.824" cy="488.298" r="4" fill="#0" id="circle24"/>
	<circle cx="130.025" cy="112.022" r="4" fill="#0" id="circle25"/>
	<circle cx="140.828" cy="491.898" r="4" fill="#0" id="circle26"/>
	<circle cx="148.029" cy="99.4192" r="4" fill="#0" id="circle27"/>
	<circle cx="157.031" cy="500.9" r="4" fill="#0" id="circle28"/>
	<circle cx="166.033" cy="94.0181" r="4" fill="#0" id="circle29"/>
	<circle cx="175.034" cy="500.9" r="4" fill="#0" id="circle30"/>
	<circle cx="180.436" cy="518.904" r="4" fill="#0" id="circle31"/>
	<circle cx="182.236" cy="85.0163" r="4" fill="#0" id="circle32"/>
	<circle cx="184.036" cy="774.555" r="4" fill="#0" id="circle33"/>
	<circle cx="184.036" cy="792.559" r="4" fill="#0" id="circle34"/>
	<circle cx="193.038" cy="702.541" r="4" fill="#0" id="circle35"/>
	<circle cx="193.038" cy="720.544" r="4" fill="#0" id="circle36"/>
	<circle cx="193.038" cy="738.548" r="4" fill="#0" id="circle37"/>
	<circle cx="193.038" cy="756.552" r="4" fill="#0" id="circle38"/>
	<circle cx="194.838" cy="70.6134" r="4" fill="#0" id="circle39"/>
	<circle cx="198.439" cy="526.105" r="4" fill="#0" id="circle40"/>
	<circle cx="202.04" cy="792.559" r="4" fill="#0" id="circle41"/>
	<circle cx="211.042" cy="639.528" r="4" fill="#0" id="circle42"/>
	<circle cx="211.042" cy="657.532" r="4" fill="#0" id="circle43"/>
	<circle cx="211.042" cy="675.535" r="4" fill="#0" id="circle44"/>
	<circle cx="211.042" cy="693.539" r="4" fill="#0" id="circle45"/>
	<circle cx="212.842" cy="67.0127" r="4" fill="#0" id="circle46"/>
	<circle cx="216.443" cy="527.906" r="4" fill="#0" id="circle47"/>
	<circle cx="216.443" cy="778.156" r="4" fill="#0" id="circle48"/>
	<circle cx="220.044" cy="576.515" r="4" fill="#0" id="circle49"/>
	<circle cx="220.044" cy="594.519" r="4" fill="#0" id="circle50"/>
	<circle cx="220.044" cy="612.523" r="4" fill="#0" id="circle51"/>
	<circle cx="225.445" cy="544.109" r="4" fill="#0" id="circle52"/>
	<circle cx="229.045" cy="58.0109" r="4" fill="#0" id="circle53"/>
	<circle cx="234.446" cy="769.154" r="4" fill="#0" id="circle54"/>
	<circle cx="238.047" cy="558.512" r="4" fill="#0" id="circle55"/>
	<circle cx="243.448" cy="751.151" r="4" fill="#0" id="circle56"/>
	<circle cx="247.049" cy="45.4083" r="4" fill="#0" id="circle57"/>
	<circle cx="261.452" cy="742.149" r="4" fill="#0" id="circle58"/>
	<circle cx="265.053" cy="40.0073" r="4" fill="#0" id="circle59"/>
	<circle cx="270.454" cy="724.145" r="4" fill="#0" id="circle60"/>
	<circle cx="281.256" cy="31.0054" r="4" fill="#0" id="circle61"/>
	<circle cx="288.457" cy="715.143" r="4" fill="#0" id="circle62"/>
	<circle cx="297.459" cy="697.14" r="4" fill="#0" id="circle63"/>
	<circle cx="299.26" cy="31.0054" r="4" fill="#0" id="circle64"/>
	<circle cx="315.463" cy="689.938" r="4" fill="#0" id="circle65"/>
	<circle cx="317.263" cy="31.0054" r="4" fill="#0" id="circle66"/>
	<circle cx="329.866" cy="671.935" r="4" fill="#0" id="circle67"/>
	<circle cx="335.267" cy="31.0054" r="4" fill="#0" id="circle68"/>
	<circle cx="347.869" cy="16.6025" r="4" fill="#0" id="circle69"/>
	<circle cx="347.869" cy="662.933" r="4" fill="#0" id="circle70"/>
	<circle cx="356.871" cy="644.929" r="4" fill="#0" id="circle71"/>
	<circle cx="365.873" cy="13.0018" r="4" fill="#0" id="circle72"/>
	<circle cx="373.074" cy="635.927" r="4" fill="#0" id="circle73"/>
	<circle cx="383.877" cy="13.0018" r="4" fill="#0" id="circle74"/>
	<circle cx="387.477" cy="625.125" r="4" fill="#0" id="circle75"/>
	<circle cx="396.479" cy="608.922" r="4" fill="#0" id="circle76"/>
	<circle cx="401.88" cy="13.0018" r="4" fill="#0" id="circle77"/>
	<circle cx="412.682" cy="599.92" r="4" fill="#0" id="circle78"/>
	<circle cx="419.884" cy="13.0018" r="4" fill="#0" id="circle79"/>
	<circle cx="419.884" cy="581.917" r="4" fill="#0" id="circle80"/>
	<circle cx="437.887" cy="13.0018" r="4" fill="#0" id="circle81"/>
	<circle cx="437.887" cy="581.917" r="4" fill="#0" id="circle82"/>
	<circle cx="454.091" cy="4" r="4" fill="#0" id="circle83"/>
	<circle cx="455.891" cy="581.917" r="4" fill="#0" id="circle84"/>
	<circle cx="472.094" cy="4" r="4" fill="#0" id="circle85"/>
	<circle cx="473.895" cy="581.917" r="4" fill="#0" id="circle86"/>
	<circle cx="490.098" cy="4" r="4" fill="#0" id="circle87"/>
	<circle cx="491.898" cy="581.917" r="4" fill="#0" id="circle88"/>
	<circle cx="508.102" cy="4" r="4" fill="#0" id="circle89"/>
	<circle cx="509.902" cy="581.917" r="4" fill="#0" id="circle90"/>
	<circle cx="526.105" cy="4" r="4" fill="#0" id="circle91"/>
	<circle cx="527.906" cy="581.917" r="4" fill="#0" id="circle92"/>
	<circle cx="542.309" cy="13.0018" r="4" fill="#0" id="circle93"/>
	<circle cx="544.109" cy="572.915" r="4" fill="#0" id="circle94"/>
	<circle cx="560.312" cy="13.0018" r="4" fill="#0" id="circle95"/>
	<circle cx="562.113" cy="572.915" r="4" fill="#0" id="circle96"/>
	<circle cx="578.316" cy="13.0018" r="4" fill="#0" id="circle97"/>
	<circle cx="580.116" cy="572.915" r="4" fill="#0" id="circle98"/>
	<circle cx="596.319" cy="13.0018" r="4" fill="#0" id="circle99"/>
	<circle cx="598.12" cy="572.915" r="4" fill="#0" id="circle100"/>
	<circle cx="614.323" cy="13.0018" r="4" fill="#0" id="circle101"/>
	<circle cx="616.123" cy="572.915" r="4" fill="#0" id="circle102"/>
	<circle cx="632.327" cy="13.0018" r="4" fill="#0" id="circle103"/>
	<circle cx="634.127" cy="572.915" r="4" fill="#0" id="circle104"/>
	<circle cx="644.929" cy="27.4047" r="4" fill="#0" id="circle105"/>
	<circle cx="644.929" cy="554.911" r="4" fill="#0" id="circle106"/>
	<circle cx="662.933" cy="31.0054" r="4" fill="#0" id="circle107"/>
	<circle cx="662.933" cy="554.911" r="4" fill="#0" id="circle108"/>
	<circle cx="680.936" cy="31.0054" r="4" fill="#0" id="circle109"/>
	<circle cx="680.936" cy="554.911" r="4" fill="#0" id="circle110"/>
	<circle cx="698.94" cy="31.0054" r="4" fill="#0" id="circle111"/>
	<circle cx="698.94" cy="554.911" r="4" fill="#0" id="circle112"/>
	<circle cx="715.143" cy="40.0073" r="4" fill="#0" id="circle113"/>
	<circle cx="715.143" cy="545.909" r="4" fill="#0" id="circle114"/>
	<circle cx="733.147" cy="43.608" r="4" fill="#0" id="circle115"/>
	<circle cx="733.147" cy="545.909" r="4" fill="#0" id="circle116"/>
	<circle cx="743.949" cy="58.0109" r="4" fill="#0" id="circle117"/>
	<circle cx="751.151" cy="540.508" r="4" fill="#0" id="circle118"/>
	<circle cx="761.953" cy="58.0109" r="4" fill="#0" id="circle119"/>
	<circle cx="765.554" cy="527.906" r="4" fill="#0" id="circle120"/>
	<circle cx="779.956" cy="63.412" r="4" fill="#0" id="circle121"/>
	<circle cx="783.557" cy="526.105" r="4" fill="#0" id="circle122"/>
	<circle cx="797.96" cy="67.0127" r="4" fill="#0" id="circle123"/>
	<circle cx="801.561" cy="518.904" r="4" fill="#0" id="circle124"/>
	<circle cx="806.962" cy="83.216" r="4" fill="#0" id="circle125"/>
	<circle cx="819.564" cy="517.103" r="4" fill="#0" id="circle126"/>
	<circle cx="824.966" cy="90.4174" r="4" fill="#0" id="circle127"/>
	<circle cx="828.566" cy="500.9" r="4" fill="#0" id="circle128"/>
	<circle cx="842.969" cy="94.0181" r="4" fill="#0" id="circle129"/>
	<circle cx="846.57" cy="499.1" r="4" fill="#0" id="circle130"/>
	<circle cx="851.971" cy="110.221" r="4" fill="#0" id="circle131"/>
	<circle cx="864.574" cy="491.898" r="4" fill="#0" id="circle132"/>
	<circle cx="869.975" cy="112.022" r="4" fill="#0" id="circle133"/>
	<circle cx="878.976" cy="473.895" r="4" fill="#0" id="circle134"/>
	<circle cx="886.178" cy="121.024" r="4" fill="#0" id="circle135"/>
	<circle cx="896.98" cy="473.895" r="4" fill="#0" id="circle136"/>
	<circle cx="904.181" cy="124.624" r="4" fill="#0" id="circle137"/>
	<circle cx="913.183" cy="464.893" r="4" fill="#0" id="circle138"/>
	<circle cx="914.984" cy="139.027" r="4" fill="#0" id="circle139"/>
	<circle cx="927.586" cy="454.091" r="4" fill="#0" id="circle140"/>
	<circle cx="929.387" cy="149.829" r="4" fill="#0" id="circle141"/>
	<circle cx="932.987" cy="167.833" r="4" fill="#0" id="circle142"/>
	<circle cx="936.588" cy="437.887" r="4" fill="#0" id="circle143"/>
	<circle cx="947.39" cy="178.635" r="4" fill="#0" id="circle144"/>
	<circle cx="950.991" cy="410.882" r="4" fill="#0" id="circle145"/>
	<circle cx="959.993" cy="193.038" r="4" fill="#0" id="circle146"/>
	<circle cx="959.993" cy="211.042" r="4" fill="#0" id="circle147"/>
	<circle cx="967.194" cy="401.88" r="4" fill="#0" id="circle148"/>
	<circle cx="977.996" cy="216.443" r="4" fill="#0" id="circle149"/>
	<circle cx="977.996" cy="234.446" r="4" fill="#0" id="circle150"/>
	<circle cx="977.996" cy="374.875" r="4" fill="#0" id="circle151"/>
	<circle cx="986.998" cy="250.65" r="4" fill="#0" id="circle152"/>
	<circle cx="986.998" cy="268.653" r="4" fill="#0" id="circle153"/>
	<circle cx="986.998" cy="329.866" r="4" fill="#0" id="circle154"/>
	<circle cx="986.998" cy="347.869" r="4" fill="#0" id="circle155"/>
	<circle cx="992.399" cy="286.657" r="4" fill="#0" id="circle156"/>
	<circle cx="996" cy="304.661" r="4" fill="#0" id="circle157"/>
	</g>
</svg>