<?xml version="1.0" encoding="UTF-8" standalone="no"?>
<!-- Created with CurveBenchmark -->
<svg
	xmlns:dc="http://purl.org/dc/elements/1.1/"
	xmlns:cc="http://creativecommons.org/ns#"
	xmlns:rdf="http://www.w3.org/1999/02/22-rdf-syntax-ns#"
	xmlns:svg="http://www.w3.org/2000/svg"
	xmlns="http://www.w3.org/2000/svg"
	xmlns:sodipodi="http://sodipodi.sourceforge.net/DTD/sodipodi-0.dtd"
	xmlns:inkscape="http://www.inkscape.org/namespaces/inkscape"
	width="1000"
	height="1000"
	id="svg2"
	version="1.1"
	sodipodi:docname="manifold/peel-bed090.png.txt">
<defs
	id="defs4" />
<metadata
	id="metadata7">
	<rdf:RDF>
		<cc:Work
			rdf:about="">
			<dc:format>image/svg+xml</dc:format>
			<dc:type
				rdf:resource="http://purl.org/dc/dcmitype/StillImage" />
			<dc:title></dc:title>
		</cc:Work>
	</rdf:RDF>
</metadata>
<g
	inkscape:label="Layer 1"
	inkscape:groupmode="layer"
	id="layer1">
	<path style="fill:none;stroke:red;stroke-width:1px;stroke-linecap:butt;stroke-linejoin:miter;stroke-opacity:1" d="M 8.00808,94.1818 8.00808,114.222 z" id="boundary" inkscape:connector-curvature="0" />
	<path style="fill:none;stroke:red;stroke-width:1px;stroke-linecap:butt;stroke-linejoin:miter;stroke-opacity:1" d="M 8.00808,94.1818 8.00808,74.1414 z" id="boundary" inkscape:connector-curvature="0" />
	<path style="fill:none;stroke:red;stroke-width:1px;stroke-linecap:butt;stroke-linejoin:miter;stroke-opacity:1" d="M 8.00808,134.263 8.00808,114.222 z" id="boundary" inkscape:connector-curvature="0" />
	<path style="fill:none;stroke:red;stroke-width:1px;stroke-linecap:butt;stroke-linejoin:miter;stroke-opacity:1" d="M 8.00808,154.303 4,178.352 z" id="boundary" inkscape:connector-curvature="0" />
	<path style="fill:none;stroke:red;stroke-width:1px;stroke-linecap:butt;stroke-linejoin:miter;stroke-opacity:1" d="M 8.00808,154.303 8.00808,134.263 z" id="boundary" inkscape:connector-curvature="0" />
	<path style="fill:none;stroke:red;stroke-width:1px;stroke-linecap:butt;stroke-linejoin:miter;stroke-opacity:1" d="M 4,178.352 4,198.392 z" id="boundary" inkscape:connector-curvature="0" />
	<path style="fill:none;stroke:red;stroke-width:1px;stroke-linecap:butt;stroke-linejoin:miter;stroke-opacity:1" d="M 4,198.392 8.00808,218.432 z" id="boundary" inkscape:connector-curvature="0" />
	<path style="fill:none;stroke:red;stroke-width:1px;stroke-linecap:butt;stroke-linejoin:miter;stroke-opacity:1" d="M 8.00808,218.432 8.00808,238.473 z" id="boundary" inkscape:connector-curvature="0" />
	<path style="fill:none;stroke:red;stroke-width:1px;stroke-linecap:butt;stroke-linejoin:miter;stroke-opacity:1" d="M 8.00808,258.513 8.00808,238.473 z" id="boundary" inkscape:connector-curvature="0" />
	<path style="fill:none;stroke:red;stroke-width:1px;stroke-linecap:butt;stroke-linejoin:miter;stroke-opacity:1" d="M 8.00808,258.513 8.00808,278.554 z" id="boundary" inkscape:connector-curvature="0" />
	<path style="fill:none;stroke:red;stroke-width:1px;stroke-linecap:butt;stroke-linejoin:miter;stroke-opacity:1" d="M 8.00808,298.594 8.00808,278.554 z" id="boundary" inkscape:connector-curvature="0" />
	<path style="fill:none;stroke:red;stroke-width:1px;stroke-linecap:butt;stroke-linejoin:miter;stroke-opacity:1" d="M 4,346.691 8.00808,318.634 z" id="boundary" inkscape:connector-curvature="0" />
	<path style="fill:none;stroke:red;stroke-width:1px;stroke-linecap:butt;stroke-linejoin:miter;stroke-opacity:1" d="M 8.00808,318.634 8.00808,298.594 z" id="boundary" inkscape:connector-curvature="0" />
	<path style="fill:none;stroke:red;stroke-width:1px;stroke-linecap:butt;stroke-linejoin:miter;stroke-opacity:1" d="M 12.0162,547.095 8.00808,527.055 z" id="boundary" inkscape:connector-curvature="0" />
	<path style="fill:none;stroke:red;stroke-width:1px;stroke-linecap:butt;stroke-linejoin:miter;stroke-opacity:1" d="M 24.0404,26.0444 24.0404,6.00404 z" id="boundary" inkscape:connector-curvature="0" />
	<path style="fill:none;stroke:red;stroke-width:1px;stroke-linecap:butt;stroke-linejoin:miter;stroke-opacity:1" d="M 24.0404,46.0848 24.0404,26.0444 z" id="boundary" inkscape:connector-curvature="0" />
	<path style="fill:none;stroke:red;stroke-width:1px;stroke-linecap:butt;stroke-linejoin:miter;stroke-opacity:1" d="M 50.0929,50.0929 50.0929,70.1333 z" id="boundary" inkscape:connector-curvature="0" />
	<path style="fill:none;stroke:red;stroke-width:1px;stroke-linecap:butt;stroke-linejoin:miter;stroke-opacity:1" d="M 156.307,238.473 140.275,226.448 z" id="boundary" inkscape:connector-curvature="0" />
	<path style="fill:none;stroke:red;stroke-width:1px;stroke-linecap:butt;stroke-linejoin:miter;stroke-opacity:1" d="M 140.275,226.448 120.234,222.44 z" id="boundary" inkscape:connector-curvature="0" />
	<path style="fill:none;stroke:red;stroke-width:1px;stroke-linecap:butt;stroke-linejoin:miter;stroke-opacity:1" d="M 80.1535,230.457 62.1172,240.477 z" id="boundary" inkscape:connector-curvature="0" />
	<path style="fill:none;stroke:red;stroke-width:1px;stroke-linecap:butt;stroke-linejoin:miter;stroke-opacity:1" d="M 4,446.893 4,426.853 z" id="boundary" inkscape:connector-curvature="0" />
	<path style="fill:none;stroke:red;stroke-width:1px;stroke-linecap:butt;stroke-linejoin:miter;stroke-opacity:1" d="M 46.0848,126.246 46.0848,146.287 z" id="boundary" inkscape:connector-curvature="0" />
	<path style="fill:none;stroke:red;stroke-width:1px;stroke-linecap:butt;stroke-linejoin:miter;stroke-opacity:1" d="M 4,466.933 4,446.893 z" id="boundary" inkscape:connector-curvature="0" />
	<path style="fill:none;stroke:red;stroke-width:1px;stroke-linecap:butt;stroke-linejoin:miter;stroke-opacity:1" d="M 42.0768,190.376 42.0768,210.416 z" id="boundary" inkscape:connector-curvature="0" />
	<path style="fill:none;stroke:red;stroke-width:1px;stroke-linecap:butt;stroke-linejoin:miter;stroke-opacity:1" d="M 4,466.933 4,486.974 z" id="boundary" inkscape:connector-curvature="0" />
	<path style="fill:none;stroke:red;stroke-width:1px;stroke-linecap:butt;stroke-linejoin:miter;stroke-opacity:1" d="M 4,507.014 4,486.974 z" id="boundary" inkscape:connector-curvature="0" />
	<path style="fill:none;stroke:red;stroke-width:1px;stroke-linecap:butt;stroke-linejoin:miter;stroke-opacity:1" d="M 8.00808,527.055 4,507.014 z" id="boundary" inkscape:connector-curvature="0" />
	<path style="fill:none;stroke:red;stroke-width:1px;stroke-linecap:butt;stroke-linejoin:miter;stroke-opacity:1" d="M 42.0768,230.457 42.0768,210.416 z" id="boundary" inkscape:connector-curvature="0" />
	<path style="fill:none;stroke:red;stroke-width:1px;stroke-linecap:butt;stroke-linejoin:miter;stroke-opacity:1" d="M 16.0242,587.176 16.0242,607.216 z" id="boundary" inkscape:connector-curvature="0" />
	<path style="fill:none;stroke:red;stroke-width:1px;stroke-linecap:butt;stroke-linejoin:miter;stroke-opacity:1" d="M 16.0242,587.176 16.0242,567.135 z" id="boundary" inkscape:connector-curvature="0" />
	<path style="fill:none;stroke:red;stroke-width:1px;stroke-linecap:butt;stroke-linejoin:miter;stroke-opacity:1" d="M 16.0242,567.135 12.0162,547.095 z" id="boundary" inkscape:connector-curvature="0" />
	<path style="fill:none;stroke:red;stroke-width:1px;stroke-linecap:butt;stroke-linejoin:miter;stroke-opacity:1" d="M 42.0768,230.457 42.0768,250.497 z" id="boundary" inkscape:connector-curvature="0" />
	<path style="fill:none;stroke:red;stroke-width:1px;stroke-linecap:butt;stroke-linejoin:miter;stroke-opacity:1" d="M 46.0848,557.115 44.0808,537.075 z" id="boundary" inkscape:connector-curvature="0" />
	<path style="fill:none;stroke:red;stroke-width:1px;stroke-linecap:butt;stroke-linejoin:miter;stroke-opacity:1" d="M 16.0242,607.216 32.0566,621.244 z" id="boundary" inkscape:connector-curvature="0" />
	<path style="fill:none;stroke:red;stroke-width:1px;stroke-linecap:butt;stroke-linejoin:miter;stroke-opacity:1" d="M 24.0404,6.00404 44.0808,4 z" id="boundary" inkscape:connector-curvature="0" />
	<path style="fill:none;stroke:red;stroke-width:1px;stroke-linecap:butt;stroke-linejoin:miter;stroke-opacity:1" d="M 50.0929,611.224 32.0566,621.244 z" id="boundary" inkscape:connector-curvature="0" />
	<path style="fill:none;stroke:red;stroke-width:1px;stroke-linecap:butt;stroke-linejoin:miter;stroke-opacity:1" d="M 50.0929,611.224 40.0727,593.188 z" id="boundary" inkscape:connector-curvature="0" />
	<path style="fill:none;stroke:red;stroke-width:1px;stroke-linecap:butt;stroke-linejoin:miter;stroke-opacity:1" d="M 80.1535,230.457 100.194,222.44 z" id="boundary" inkscape:connector-curvature="0" />
	<path style="fill:none;stroke:red;stroke-width:1px;stroke-linecap:butt;stroke-linejoin:miter;stroke-opacity:1" d="M 100.194,222.44 120.234,222.44 z" id="boundary" inkscape:connector-curvature="0" />
	<path style="fill:none;stroke:red;stroke-width:1px;stroke-linecap:butt;stroke-linejoin:miter;stroke-opacity:1" d="M 4,406.812 4,426.853 z" id="boundary" inkscape:connector-curvature="0" />
	<path style="fill:none;stroke:red;stroke-width:1px;stroke-linecap:butt;stroke-linejoin:miter;stroke-opacity:1" d="M 50.0929,166.327 42.0768,190.376 z" id="boundary" inkscape:connector-curvature="0" />
	<path style="fill:none;stroke:red;stroke-width:1px;stroke-linecap:butt;stroke-linejoin:miter;stroke-opacity:1" d="M 46.0848,146.287 50.0929,166.327 z" id="boundary" inkscape:connector-curvature="0" />
	<path style="fill:none;stroke:red;stroke-width:1px;stroke-linecap:butt;stroke-linejoin:miter;stroke-opacity:1" d="M 328.655,278.554 310.618,268.533 z" id="boundary" inkscape:connector-curvature="0" />
	<path style="fill:none;stroke:red;stroke-width:1px;stroke-linecap:butt;stroke-linejoin:miter;stroke-opacity:1" d="M 50.0929,50.0929 50.0929,30.0525 z" id="boundary" inkscape:connector-curvature="0" />
	<path style="fill:none;stroke:red;stroke-width:1px;stroke-linecap:butt;stroke-linejoin:miter;stroke-opacity:1" d="M 4,386.772 4,406.812 z" id="boundary" inkscape:connector-curvature="0" />
	<path style="fill:none;stroke:red;stroke-width:1px;stroke-linecap:butt;stroke-linejoin:miter;stroke-opacity:1" d="M 50.0929,70.1333 50.0929,90.1737 z" id="boundary" inkscape:connector-curvature="0" />
	<path style="fill:none;stroke:red;stroke-width:1px;stroke-linecap:butt;stroke-linejoin:miter;stroke-opacity:1" d="M 46.0848,126.246 50.0929,90.1737 z" id="boundary" inkscape:connector-curvature="0" />
	<path style="fill:none;stroke:red;stroke-width:1px;stroke-linecap:butt;stroke-linejoin:miter;stroke-opacity:1" d="M 44.0808,537.075 64.1212,537.075 z" id="boundary" inkscape:connector-curvature="0" />
	<path style="fill:none;stroke:red;stroke-width:1px;stroke-linecap:butt;stroke-linejoin:miter;stroke-opacity:1" d="M 184.364,541.083 204.404,541.083 z" id="boundary" inkscape:connector-curvature="0" />
	<path style="fill:none;stroke:red;stroke-width:1px;stroke-linecap:butt;stroke-linejoin:miter;stroke-opacity:1" d="M 64.1212,537.075 84.1616,541.083 z" id="boundary" inkscape:connector-curvature="0" />
	<path style="fill:none;stroke:red;stroke-width:1px;stroke-linecap:butt;stroke-linejoin:miter;stroke-opacity:1" d="M 156.307,238.473 172.339,250.497 z" id="boundary" inkscape:connector-curvature="0" />
	<path style="fill:none;stroke:red;stroke-width:1px;stroke-linecap:butt;stroke-linejoin:miter;stroke-opacity:1" d="M 104.202,541.083 84.1616,541.083 z" id="boundary" inkscape:connector-curvature="0" />
	<path style="fill:none;stroke:red;stroke-width:1px;stroke-linecap:butt;stroke-linejoin:miter;stroke-opacity:1" d="M 124.242,541.083 104.202,541.083 z" id="boundary" inkscape:connector-curvature="0" />
	<path style="fill:none;stroke:red;stroke-width:1px;stroke-linecap:butt;stroke-linejoin:miter;stroke-opacity:1" d="M 4,366.731 4,346.691 z" id="boundary" inkscape:connector-curvature="0" />
	<path style="fill:none;stroke:red;stroke-width:1px;stroke-linecap:butt;stroke-linejoin:miter;stroke-opacity:1" d="M 144.283,541.083 124.242,541.083 z" id="boundary" inkscape:connector-curvature="0" />
	<path style="fill:none;stroke:red;stroke-width:1px;stroke-linecap:butt;stroke-linejoin:miter;stroke-opacity:1" d="M 4,366.731 4,386.772 z" id="boundary" inkscape:connector-curvature="0" />
	<path style="fill:none;stroke:red;stroke-width:1px;stroke-linecap:butt;stroke-linejoin:miter;stroke-opacity:1" d="M 164.323,541.083 144.283,541.083 z" id="boundary" inkscape:connector-curvature="0" />
	<path style="fill:none;stroke:red;stroke-width:1px;stroke-linecap:butt;stroke-linejoin:miter;stroke-opacity:1" d="M 184.364,541.083 164.323,541.083 z" id="boundary" inkscape:connector-curvature="0" />
	<path style="fill:none;stroke:red;stroke-width:1px;stroke-linecap:butt;stroke-linejoin:miter;stroke-opacity:1" d="M 192.38,250.497 172.339,250.497 z" id="boundary" inkscape:connector-curvature="0" />
	<path style="fill:none;stroke:red;stroke-width:1px;stroke-linecap:butt;stroke-linejoin:miter;stroke-opacity:1" d="M 204.404,541.083 224.444,541.083 z" id="boundary" inkscape:connector-curvature="0" />
	<path style="fill:none;stroke:red;stroke-width:1px;stroke-linecap:butt;stroke-linejoin:miter;stroke-opacity:1" d="M 212.42,250.497 192.38,250.497 z" id="boundary" inkscape:connector-curvature="0" />
	<path style="fill:none;stroke:red;stroke-width:1px;stroke-linecap:butt;stroke-linejoin:miter;stroke-opacity:1" d="M 224.444,541.083 244.485,541.083 z" id="boundary" inkscape:connector-curvature="0" />
	<path style="fill:none;stroke:red;stroke-width:1px;stroke-linecap:butt;stroke-linejoin:miter;stroke-opacity:1" d="M 232.461,246.489 252.501,246.489 z" id="boundary" inkscape:connector-curvature="0" />
	<path style="fill:none;stroke:red;stroke-width:1px;stroke-linecap:butt;stroke-linejoin:miter;stroke-opacity:1" d="M 252.501,246.489 272.541,252.501 z" id="boundary" inkscape:connector-curvature="0" />
	<path style="fill:none;stroke:red;stroke-width:1px;stroke-linecap:butt;stroke-linejoin:miter;stroke-opacity:1" d="M 244.485,541.083 264.525,541.083 z" id="boundary" inkscape:connector-curvature="0" />
	<path style="fill:none;stroke:red;stroke-width:1px;stroke-linecap:butt;stroke-linejoin:miter;stroke-opacity:1" d="M 212.42,250.497 232.461,246.489 z" id="boundary" inkscape:connector-curvature="0" />
	<path style="fill:none;stroke:red;stroke-width:1px;stroke-linecap:butt;stroke-linejoin:miter;stroke-opacity:1" d="M 264.525,541.083 284.566,541.083 z" id="boundary" inkscape:connector-curvature="0" />
	<path style="fill:none;stroke:red;stroke-width:1px;stroke-linecap:butt;stroke-linejoin:miter;stroke-opacity:1" d="M 272.541,252.501 292.582,258.513 z" id="boundary" inkscape:connector-curvature="0" />
	<path style="fill:none;stroke:red;stroke-width:1px;stroke-linecap:butt;stroke-linejoin:miter;stroke-opacity:1" d="M 292.582,258.513 310.618,268.533 z" id="boundary" inkscape:connector-curvature="0" />
	<path style="fill:none;stroke:red;stroke-width:1px;stroke-linecap:butt;stroke-linejoin:miter;stroke-opacity:1" d="M 284.566,541.083 304.606,541.083 z" id="boundary" inkscape:connector-curvature="0" />
	<path style="fill:none;stroke:red;stroke-width:1px;stroke-linecap:butt;stroke-linejoin:miter;stroke-opacity:1" d="M 304.606,541.083 324.646,541.083 z" id="boundary" inkscape:connector-curvature="0" />
	<path style="fill:none;stroke:red;stroke-width:1px;stroke-linecap:butt;stroke-linejoin:miter;stroke-opacity:1" d="M 356.711,306.61 344.687,290.578 z" id="boundary" inkscape:connector-curvature="0" />
	<path style="fill:none;stroke:red;stroke-width:1px;stroke-linecap:butt;stroke-linejoin:miter;stroke-opacity:1" d="M 344.687,290.578 328.655,278.554 z" id="boundary" inkscape:connector-curvature="0" />
	<path style="fill:none;stroke:red;stroke-width:1px;stroke-linecap:butt;stroke-linejoin:miter;stroke-opacity:1" d="M 356.711,306.61 366.731,324.646 z" id="boundary" inkscape:connector-curvature="0" />
	<path style="fill:none;stroke:red;stroke-width:1px;stroke-linecap:butt;stroke-linejoin:miter;stroke-opacity:1" d="M 366.731,324.646 374.747,344.687 z" id="boundary" inkscape:connector-curvature="0" />
	<path style="fill:none;stroke:red;stroke-width:1px;stroke-linecap:butt;stroke-linejoin:miter;stroke-opacity:1" d="M 344.687,541.083 324.646,541.083 z" id="boundary" inkscape:connector-curvature="0" />
	<path style="fill:none;stroke:red;stroke-width:1px;stroke-linecap:butt;stroke-linejoin:miter;stroke-opacity:1" d="M 364.727,541.083 344.687,541.083 z" id="boundary" inkscape:connector-curvature="0" />
	<path style="fill:none;stroke:red;stroke-width:1px;stroke-linecap:butt;stroke-linejoin:miter;stroke-opacity:1" d="M 392.784,354.707 374.747,344.687 z" id="boundary" inkscape:connector-curvature="0" />
	<path style="fill:none;stroke:red;stroke-width:1px;stroke-linecap:butt;stroke-linejoin:miter;stroke-opacity:1" d="M 384.768,541.083 364.727,541.083 z" id="boundary" inkscape:connector-curvature="0" />
	<path style="fill:none;stroke:red;stroke-width:1px;stroke-linecap:butt;stroke-linejoin:miter;stroke-opacity:1" d="M 404.808,541.083 384.768,541.083 z" id="boundary" inkscape:connector-curvature="0" />
	<path style="fill:none;stroke:red;stroke-width:1px;stroke-linecap:butt;stroke-linejoin:miter;stroke-opacity:1" d="M 412.824,354.707 392.784,354.707 z" id="boundary" inkscape:connector-curvature="0" />
	<path style="fill:none;stroke:red;stroke-width:1px;stroke-linecap:butt;stroke-linejoin:miter;stroke-opacity:1" d="M 424.848,541.083 404.808,541.083 z" id="boundary" inkscape:connector-curvature="0" />
	<path style="fill:none;stroke:red;stroke-width:1px;stroke-linecap:butt;stroke-linejoin:miter;stroke-opacity:1" d="M 432.865,354.707 412.824,354.707 z" id="boundary" inkscape:connector-curvature="0" />
	<path style="fill:none;stroke:red;stroke-width:1px;stroke-linecap:butt;stroke-linejoin:miter;stroke-opacity:1" d="M 444.889,541.083 424.848,541.083 z" id="boundary" inkscape:connector-curvature="0" />
	<path style="fill:none;stroke:red;stroke-width:1px;stroke-linecap:butt;stroke-linejoin:miter;stroke-opacity:1" d="M 452.905,354.707 432.865,354.707 z" id="boundary" inkscape:connector-curvature="0" />
	<path style="fill:none;stroke:red;stroke-width:1px;stroke-linecap:butt;stroke-linejoin:miter;stroke-opacity:1" d="M 464.929,541.083 444.889,541.083 z" id="boundary" inkscape:connector-curvature="0" />
	<path style="fill:none;stroke:red;stroke-width:1px;stroke-linecap:butt;stroke-linejoin:miter;stroke-opacity:1" d="M 472.945,354.707 452.905,354.707 z" id="boundary" inkscape:connector-curvature="0" />
	<path style="fill:none;stroke:red;stroke-width:1px;stroke-linecap:butt;stroke-linejoin:miter;stroke-opacity:1" d="M 484.97,541.083 464.929,541.083 z" id="boundary" inkscape:connector-curvature="0" />
	<path style="fill:none;stroke:red;stroke-width:1px;stroke-linecap:butt;stroke-linejoin:miter;stroke-opacity:1" d="M 492.986,354.707 472.945,354.707 z" id="boundary" inkscape:connector-curvature="0" />
	<path style="fill:none;stroke:red;stroke-width:1px;stroke-linecap:butt;stroke-linejoin:miter;stroke-opacity:1" d="M 505.01,541.083 484.97,541.083 z" id="boundary" inkscape:connector-curvature="0" />
	<path style="fill:none;stroke:red;stroke-width:1px;stroke-linecap:butt;stroke-linejoin:miter;stroke-opacity:1" d="M 513.026,354.707 492.986,354.707 z" id="boundary" inkscape:connector-curvature="0" />
	<path style="fill:none;stroke:red;stroke-width:1px;stroke-linecap:butt;stroke-linejoin:miter;stroke-opacity:1" d="M 525.051,541.083 505.01,541.083 z" id="boundary" inkscape:connector-curvature="0" />
	<path style="fill:none;stroke:red;stroke-width:1px;stroke-linecap:butt;stroke-linejoin:miter;stroke-opacity:1" d="M 533.067,354.707 513.026,354.707 z" id="boundary" inkscape:connector-curvature="0" />
	<path style="fill:none;stroke:red;stroke-width:1px;stroke-linecap:butt;stroke-linejoin:miter;stroke-opacity:1" d="M 545.091,541.083 525.051,541.083 z" id="boundary" inkscape:connector-curvature="0" />
	<path style="fill:none;stroke:red;stroke-width:1px;stroke-linecap:butt;stroke-linejoin:miter;stroke-opacity:1" d="M 553.107,354.707 533.067,354.707 z" id="boundary" inkscape:connector-curvature="0" />
	<path style="fill:none;stroke:red;stroke-width:1px;stroke-linecap:butt;stroke-linejoin:miter;stroke-opacity:1" d="M 565.131,541.083 585.172,541.083 z" id="boundary" inkscape:connector-curvature="0" />
	<path style="fill:none;stroke:red;stroke-width:1px;stroke-linecap:butt;stroke-linejoin:miter;stroke-opacity:1" d="M 565.131,541.083 545.091,541.083 z" id="boundary" inkscape:connector-curvature="0" />
	<path style="fill:none;stroke:red;stroke-width:1px;stroke-linecap:butt;stroke-linejoin:miter;stroke-opacity:1" d="M 573.147,354.707 553.107,354.707 z" id="boundary" inkscape:connector-curvature="0" />
	<path style="fill:none;stroke:red;stroke-width:1px;stroke-linecap:butt;stroke-linejoin:miter;stroke-opacity:1" d="M 585.172,541.083 605.212,541.083 z" id="boundary" inkscape:connector-curvature="0" />
	<path style="fill:none;stroke:red;stroke-width:1px;stroke-linecap:butt;stroke-linejoin:miter;stroke-opacity:1" d="M 593.188,354.707 573.147,354.707 z" id="boundary" inkscape:connector-curvature="0" />
	<path style="fill:none;stroke:red;stroke-width:1px;stroke-linecap:butt;stroke-linejoin:miter;stroke-opacity:1" d="M 645.293,541.083 625.253,541.083 z" id="boundary" inkscape:connector-curvature="0" />
	<path style="fill:none;stroke:red;stroke-width:1px;stroke-linecap:butt;stroke-linejoin:miter;stroke-opacity:1" d="M 613.228,354.707 593.188,354.707 z" id="boundary" inkscape:connector-curvature="0" />
	<path style="fill:none;stroke:red;stroke-width:1px;stroke-linecap:butt;stroke-linejoin:miter;stroke-opacity:1" d="M 665.333,541.083 645.293,541.083 z" id="boundary" inkscape:connector-curvature="0" />
	<path style="fill:none;stroke:red;stroke-width:1px;stroke-linecap:butt;stroke-linejoin:miter;stroke-opacity:1" d="M 625.253,541.083 605.212,541.083 z" id="boundary" inkscape:connector-curvature="0" />
	<path style="fill:none;stroke:red;stroke-width:1px;stroke-linecap:butt;stroke-linejoin:miter;stroke-opacity:1" d="M 633.269,354.707 613.228,354.707 z" id="boundary" inkscape:connector-curvature="0" />
	<path style="fill:none;stroke:red;stroke-width:1px;stroke-linecap:butt;stroke-linejoin:miter;stroke-opacity:1" d="M 685.374,541.083 665.333,541.083 z" id="boundary" inkscape:connector-curvature="0" />
	<path style="fill:none;stroke:red;stroke-width:1px;stroke-linecap:butt;stroke-linejoin:miter;stroke-opacity:1" d="M 653.309,354.707 633.269,354.707 z" id="boundary" inkscape:connector-curvature="0" />
	<path style="fill:none;stroke:red;stroke-width:1px;stroke-linecap:butt;stroke-linejoin:miter;stroke-opacity:1" d="M 705.414,541.083 685.374,541.083 z" id="boundary" inkscape:connector-curvature="0" />
	<path style="fill:none;stroke:red;stroke-width:1px;stroke-linecap:butt;stroke-linejoin:miter;stroke-opacity:1" d="M 673.349,354.707 653.309,354.707 z" id="boundary" inkscape:connector-curvature="0" />
	<path style="fill:none;stroke:red;stroke-width:1px;stroke-linecap:butt;stroke-linejoin:miter;stroke-opacity:1" d="M 745.495,541.083 725.455,541.083 z" id="boundary" inkscape:connector-curvature="0" />
	<path style="fill:none;stroke:red;stroke-width:1px;stroke-linecap:butt;stroke-linejoin:miter;stroke-opacity:1" d="M 693.39,354.707 673.349,354.707 z" id="boundary" inkscape:connector-curvature="0" />
	<path style="fill:none;stroke:red;stroke-width:1px;stroke-linecap:butt;stroke-linejoin:miter;stroke-opacity:1" d="M 765.535,541.083 745.495,541.083 z" id="boundary" inkscape:connector-curvature="0" />
	<path style="fill:none;stroke:red;stroke-width:1px;stroke-linecap:butt;stroke-linejoin:miter;stroke-opacity:1" d="M 713.43,354.707 693.39,354.707 z" id="boundary" inkscape:connector-curvature="0" />
	<path style="fill:none;stroke:red;stroke-width:1px;stroke-linecap:butt;stroke-linejoin:miter;stroke-opacity:1" d="M 785.576,541.083 765.535,541.083 z" id="boundary" inkscape:connector-curvature="0" />
	<path style="fill:none;stroke:red;stroke-width:1px;stroke-linecap:butt;stroke-linejoin:miter;stroke-opacity:1" d="M 733.471,358.715 713.43,354.707 z" id="boundary" inkscape:connector-curvature="0" />
	<path style="fill:none;stroke:red;stroke-width:1px;stroke-linecap:butt;stroke-linejoin:miter;stroke-opacity:1" d="M 725.455,541.083 705.414,541.083 z" id="boundary" inkscape:connector-curvature="0" />
	<path style="fill:none;stroke:red;stroke-width:1px;stroke-linecap:butt;stroke-linejoin:miter;stroke-opacity:1" d="M 805.616,541.083 785.576,541.083 z" id="boundary" inkscape:connector-curvature="0" />
	<path style="fill:none;stroke:red;stroke-width:1px;stroke-linecap:butt;stroke-linejoin:miter;stroke-opacity:1" d="M 753.511,358.715 733.471,358.715 z" id="boundary" inkscape:connector-curvature="0" />
	<path style="fill:none;stroke:red;stroke-width:1px;stroke-linecap:butt;stroke-linejoin:miter;stroke-opacity:1" d="M 825.657,541.083 805.616,541.083 z" id="boundary" inkscape:connector-curvature="0" />
	<path style="fill:none;stroke:red;stroke-width:1px;stroke-linecap:butt;stroke-linejoin:miter;stroke-opacity:1" d="M 773.552,358.715 753.511,358.715 z" id="boundary" inkscape:connector-curvature="0" />
	<path style="fill:none;stroke:red;stroke-width:1px;stroke-linecap:butt;stroke-linejoin:miter;stroke-opacity:1" d="M 845.697,541.083 825.657,541.083 z" id="boundary" inkscape:connector-curvature="0" />
	<path style="fill:none;stroke:red;stroke-width:1px;stroke-linecap:butt;stroke-linejoin:miter;stroke-opacity:1" d="M 793.592,358.715 773.552,358.715 z" id="boundary" inkscape:connector-curvature="0" />
	<path style="fill:none;stroke:red;stroke-width:1px;stroke-linecap:butt;stroke-linejoin:miter;stroke-opacity:1" d="M 865.737,541.083 845.697,541.083 z" id="boundary" inkscape:connector-curvature="0" />
	<path style="fill:none;stroke:red;stroke-width:1px;stroke-linecap:butt;stroke-linejoin:miter;stroke-opacity:1" d="M 813.632,360.719 793.592,358.715 z" id="boundary" inkscape:connector-curvature="0" />
	<path style="fill:none;stroke:red;stroke-width:1px;stroke-linecap:butt;stroke-linejoin:miter;stroke-opacity:1" d="M 885.778,541.083 865.737,541.083 z" id="boundary" inkscape:connector-curvature="0" />
	<path style="fill:none;stroke:red;stroke-width:1px;stroke-linecap:butt;stroke-linejoin:miter;stroke-opacity:1" d="M 833.673,362.723 813.632,360.719 z" id="boundary" inkscape:connector-curvature="0" />
	<path style="fill:none;stroke:red;stroke-width:1px;stroke-linecap:butt;stroke-linejoin:miter;stroke-opacity:1" d="M 957.923,597.196 961.931,617.236 z" id="boundary" inkscape:connector-curvature="0" />
	<path style="fill:none;stroke:red;stroke-width:1px;stroke-linecap:butt;stroke-linejoin:miter;stroke-opacity:1" d="M 853.713,364.727 833.673,362.723 z" id="boundary" inkscape:connector-curvature="0" />
	<path style="fill:none;stroke:red;stroke-width:1px;stroke-linecap:butt;stroke-linejoin:miter;stroke-opacity:1" d="M 905.818,541.083 885.778,541.083 z" id="boundary" inkscape:connector-curvature="0" />
	<path style="fill:none;stroke:red;stroke-width:1px;stroke-linecap:butt;stroke-linejoin:miter;stroke-opacity:1" d="M 873.754,366.731 853.713,364.727 z" id="boundary" inkscape:connector-curvature="0" />
	<path style="fill:none;stroke:red;stroke-width:1px;stroke-linecap:butt;stroke-linejoin:miter;stroke-opacity:1" d="M 957.923,597.196 957.923,577.156 z" id="boundary" inkscape:connector-curvature="0" />
	<path style="fill:none;stroke:red;stroke-width:1px;stroke-linecap:butt;stroke-linejoin:miter;stroke-opacity:1" d="M 893.794,366.731 873.754,366.731 z" id="boundary" inkscape:connector-curvature="0" />
	<path style="fill:none;stroke:red;stroke-width:1px;stroke-linecap:butt;stroke-linejoin:miter;stroke-opacity:1" d="M 905.818,541.083 925.859,541.083 z" id="boundary" inkscape:connector-curvature="0" />
	<path style="fill:none;stroke:red;stroke-width:1px;stroke-linecap:butt;stroke-linejoin:miter;stroke-opacity:1" d="M 913.834,370.739 893.794,366.731 z" id="boundary" inkscape:connector-curvature="0" />
	<path style="fill:none;stroke:red;stroke-width:1px;stroke-linecap:butt;stroke-linejoin:miter;stroke-opacity:1" d="M 953.915,557.115 957.923,577.156 z" id="boundary" inkscape:connector-curvature="0" />
	<path style="fill:none;stroke:red;stroke-width:1px;stroke-linecap:butt;stroke-linejoin:miter;stroke-opacity:1" d="M 933.875,374.747 913.834,370.739 z" id="boundary" inkscape:connector-curvature="0" />
	<path style="fill:none;stroke:red;stroke-width:1px;stroke-linecap:butt;stroke-linejoin:miter;stroke-opacity:1" d="M 991.992,430.861 991.992,450.901 z" id="boundary" inkscape:connector-curvature="0" />
	<path style="fill:none;stroke:red;stroke-width:1px;stroke-linecap:butt;stroke-linejoin:miter;stroke-opacity:1" d="M 953.915,557.115 945.899,537.075 z" id="boundary" inkscape:connector-curvature="0" />
	<path style="fill:none;stroke:red;stroke-width:1px;stroke-linecap:butt;stroke-linejoin:miter;stroke-opacity:1" d="M 945.899,537.075 925.859,541.083 z" id="boundary" inkscape:connector-curvature="0" />
	<path style="fill:none;stroke:red;stroke-width:1px;stroke-linecap:butt;stroke-linejoin:miter;stroke-opacity:1" d="M 949.907,342.683 949.907,322.642 z" id="boundary" inkscape:connector-curvature="0" />
	<path style="fill:none;stroke:red;stroke-width:1px;stroke-linecap:butt;stroke-linejoin:miter;stroke-opacity:1" d="M 949.907,342.683 949.907,362.723 z" id="boundary" inkscape:connector-curvature="0" />
	<path style="fill:none;stroke:red;stroke-width:1px;stroke-linecap:butt;stroke-linejoin:miter;stroke-opacity:1" d="M 949.907,362.723 933.875,374.747 z" id="boundary" inkscape:connector-curvature="0" />
	<path style="fill:none;stroke:red;stroke-width:1px;stroke-linecap:butt;stroke-linejoin:miter;stroke-opacity:1" d="M 987.984,288.574 987.984,326.651 z" id="boundary" inkscape:connector-curvature="0" />
	<path style="fill:none;stroke:red;stroke-width:1px;stroke-linecap:butt;stroke-linejoin:miter;stroke-opacity:1" d="M 991.992,366.731 991.992,386.772 z" id="boundary" inkscape:connector-curvature="0" />
	<path style="fill:none;stroke:red;stroke-width:1px;stroke-linecap:butt;stroke-linejoin:miter;stroke-opacity:1" d="M 987.984,288.574 977.964,270.537 z" id="boundary" inkscape:connector-curvature="0" />
	<path style="fill:none;stroke:red;stroke-width:1px;stroke-linecap:butt;stroke-linejoin:miter;stroke-opacity:1" d="M 949.907,322.642 957.923,290.578 z" id="boundary" inkscape:connector-curvature="0" />
	<path style="fill:none;stroke:red;stroke-width:1px;stroke-linecap:butt;stroke-linejoin:miter;stroke-opacity:1" d="M 957.923,290.578 957.923,270.537 z" id="boundary" inkscape:connector-curvature="0" />
	<path style="fill:none;stroke:red;stroke-width:1px;stroke-linecap:butt;stroke-linejoin:miter;stroke-opacity:1" d="M 987.984,543.087 989.988,577.156 z" id="boundary" inkscape:connector-curvature="0" />
	<path style="fill:none;stroke:red;stroke-width:1px;stroke-linecap:butt;stroke-linejoin:miter;stroke-opacity:1" d="M 957.923,270.537 977.964,270.537 z" id="boundary" inkscape:connector-curvature="0" />
	<path style="fill:none;stroke:red;stroke-width:1px;stroke-linecap:butt;stroke-linejoin:miter;stroke-opacity:1" d="M 981.972,621.244 961.931,617.236 z" id="boundary" inkscape:connector-curvature="0" />
	<path style="fill:none;stroke:red;stroke-width:1px;stroke-linecap:butt;stroke-linejoin:miter;stroke-opacity:1" d="M 987.984,346.691 987.984,326.651 z" id="boundary" inkscape:connector-curvature="0" />
	<path style="fill:none;stroke:red;stroke-width:1px;stroke-linecap:butt;stroke-linejoin:miter;stroke-opacity:1" d="M 981.972,621.244 981.972,597.196 z" id="boundary" inkscape:connector-curvature="0" />
	<path style="fill:none;stroke:red;stroke-width:1px;stroke-linecap:butt;stroke-linejoin:miter;stroke-opacity:1" d="M 991.992,366.731 987.984,346.691 z" id="boundary" inkscape:connector-curvature="0" />
	<path style="fill:none;stroke:red;stroke-width:1px;stroke-linecap:butt;stroke-linejoin:miter;stroke-opacity:1" d="M 991.992,450.901 991.992,470.941 z" id="boundary" inkscape:connector-curvature="0" />
	<path style="fill:none;stroke:red;stroke-width:1px;stroke-linecap:butt;stroke-linejoin:miter;stroke-opacity:1" d="M 981.972,597.196 989.988,577.156 z" id="boundary" inkscape:connector-curvature="0" />
	<path style="fill:none;stroke:red;stroke-width:1px;stroke-linecap:butt;stroke-linejoin:miter;stroke-opacity:1" d="M 996,406.812 991.992,386.772 z" id="boundary" inkscape:connector-curvature="0" />
	<path style="fill:none;stroke:red;stroke-width:1px;stroke-linecap:butt;stroke-linejoin:miter;stroke-opacity:1" d="M 991.992,490.982 991.992,470.941 z" id="boundary" inkscape:connector-curvature="0" />
	<path style="fill:none;stroke:red;stroke-width:1px;stroke-linecap:butt;stroke-linejoin:miter;stroke-opacity:1" d="M 996,406.812 991.992,430.861 z" id="boundary" inkscape:connector-curvature="0" />
	<path style="fill:none;stroke:red;stroke-width:1px;stroke-linecap:butt;stroke-linejoin:miter;stroke-opacity:1" d="M 991.992,511.022 991.992,490.982 z" id="boundary" inkscape:connector-curvature="0" />
	<path style="fill:none;stroke:red;stroke-width:1px;stroke-linecap:butt;stroke-linejoin:miter;stroke-opacity:1" d="M 987.984,543.087 991.992,511.022 z" id="boundary" inkscape:connector-curvature="0" />
	<circle cx="4" cy="178.352" r="4" fill="#0" id="circle0"/>
	<circle cx="4" cy="198.392" r="4" fill="#0" id="circle1"/>
	<circle cx="4" cy="346.691" r="4" fill="#0" id="circle2"/>
	<circle cx="4" cy="366.731" r="4" fill="#0" id="circle3"/>
	<circle cx="4" cy="386.772" r="4" fill="#0" id="circle4"/>
	<circle cx="4" cy="406.812" r="4" fill="#0" id="circle5"/>
	<circle cx="4" cy="426.853" r="4" fill="#0" id="circle6"/>
	<circle cx="4" cy="446.893" r="4" fill="#0" id="circle7"/>
	<circle cx="4" cy="466.933" r="4" fill="#0" id="circle8"/>
	<circle cx="4" cy="486.974" r="4" fill="#0" id="circle9"/>
	<circle cx="4" cy="507.014" r="4" fill="#0" id="circle10"/>
	<circle cx="8.00808" cy="74.1414" r="4" fill="#0" id="circle11"/>
	<circle cx="8.00808" cy="94.1818" r="4" fill="#0" id="circle12"/>
	<circle cx="8.00808" cy="114.222" r="4" fill="#0" id="circle13"/>
	<circle cx="8.00808" cy="134.263" r="4" fill="#0" id="circle14"/>
	<circle cx="8.00808" cy="154.303" r="4" fill="#0" id="circle15"/>
	<circle cx="8.00808" cy="218.432" r="4" fill="#0" id="circle16"/>
	<circle cx="8.00808" cy="238.473" r="4" fill="#0" id="circle17"/>
	<circle cx="8.00808" cy="258.513" r="4" fill="#0" id="circle18"/>
	<circle cx="8.00808" cy="278.554" r="4" fill="#0" id="circle19"/>
	<circle cx="8.00808" cy="298.594" r="4" fill="#0" id="circle20"/>
	<circle cx="8.00808" cy="318.634" r="4" fill="#0" id="circle21"/>
	<circle cx="8.00808" cy="527.055" r="4" fill="#0" id="circle22"/>
	<circle cx="12.0162" cy="547.095" r="4" fill="#0" id="circle23"/>
	<circle cx="16.0242" cy="567.135" r="4" fill="#0" id="circle24"/>
	<circle cx="16.0242" cy="587.176" r="4" fill="#0" id="circle25"/>
	<circle cx="16.0242" cy="607.216" r="4" fill="#0" id="circle26"/>
	<circle cx="24.0404" cy="6.00404" r="4" fill="#0" id="circle27"/>
	<circle cx="24.0404" cy="26.0444" r="4" fill="#0" id="circle28"/>
	<circle cx="24.0404" cy="46.0848" r="4" fill="#0" id="circle29"/>
	<circle cx="32.0566" cy="621.244" r="4" fill="#0" id="circle30"/>
	<circle cx="40.0727" cy="593.188" r="4" fill="#0" id="circle31"/>
	<circle cx="42.0768" cy="190.376" r="4" fill="#0" id="circle32"/>
	<circle cx="42.0768" cy="210.416" r="4" fill="#0" id="circle33"/>
	<circle cx="42.0768" cy="230.457" r="4" fill="#0" id="circle34"/>
	<circle cx="42.0768" cy="250.497" r="4" fill="#0" id="circle35"/>
	<circle cx="44.0808" cy="4" r="4" fill="#0" id="circle36"/>
	<circle cx="44.0808" cy="537.075" r="4" fill="#0" id="circle37"/>
	<circle cx="46.0848" cy="126.246" r="4" fill="#0" id="circle38"/>
	<circle cx="46.0848" cy="146.287" r="4" fill="#0" id="circle39"/>
	<circle cx="46.0848" cy="557.115" r="4" fill="#0" id="circle40"/>
	<circle cx="50.0929" cy="30.0525" r="4" fill="#0" id="circle41"/>
	<circle cx="50.0929" cy="50.0929" r="4" fill="#0" id="circle42"/>
	<circle cx="50.0929" cy="70.1333" r="4" fill="#0" id="circle43"/>
	<circle cx="50.0929" cy="90.1737" r="4" fill="#0" id="circle44"/>
	<circle cx="50.0929" cy="166.327" r="4" fill="#0" id="circle45"/>
	<circle cx="50.0929" cy="611.224" r="4" fill="#0" id="circle46"/>
	<circle cx="62.1172" cy="240.477" r="4" fill="#0" id="circle47"/>
	<circle cx="64.1212" cy="537.075" r="4" fill="#0" id="circle48"/>
	<circle cx="80.1535" cy="230.457" r="4" fill="#0" id="circle49"/>
	<circle cx="84.1616" cy="541.083" r="4" fill="#0" id="circle50"/>
	<circle cx="100.194" cy="222.44" r="4" fill="#0" id="circle51"/>
	<circle cx="104.202" cy="541.083" r="4" fill="#0" id="circle52"/>
	<circle cx="120.234" cy="222.44" r="4" fill="#0" id="circle53"/>
	<circle cx="124.242" cy="541.083" r="4" fill="#0" id="circle54"/>
	<circle cx="140.275" cy="226.448" r="4" fill="#0" id="circle55"/>
	<circle cx="144.283" cy="541.083" r="4" fill="#0" id="circle56"/>
	<circle cx="156.307" cy="238.473" r="4" fill="#0" id="circle57"/>
	<circle cx="164.323" cy="541.083" r="4" fill="#0" id="circle58"/>
	<circle cx="172.339" cy="250.497" r="4" fill="#0" id="circle59"/>
	<circle cx="184.364" cy="541.083" r="4" fill="#0" id="circle60"/>
	<circle cx="192.38" cy="250.497" r="4" fill="#0" id="circle61"/>
	<circle cx="204.404" cy="541.083" r="4" fill="#0" id="circle62"/>
	<circle cx="212.42" cy="250.497" r="4" fill="#0" id="circle63"/>
	<circle cx="224.444" cy="541.083" r="4" fill="#0" id="circle64"/>
	<circle cx="232.461" cy="246.489" r="4" fill="#0" id="circle65"/>
	<circle cx="244.485" cy="541.083" r="4" fill="#0" id="circle66"/>
	<circle cx="252.501" cy="246.489" r="4" fill="#0" id="circle67"/>
	<circle cx="264.525" cy="541.083" r="4" fill="#0" id="circle68"/>
	<circle cx="272.541" cy="252.501" r="4" fill="#0" id="circle69"/>
	<circle cx="284.566" cy="541.083" r="4" fill="#0" id="circle70"/>
	<circle cx="292.582" cy="258.513" r="4" fill="#0" id="circle71"/>
	<circle cx="304.606" cy="541.083" r="4" fill="#0" id="circle72"/>
	<circle cx="310.618" cy="268.533" r="4" fill="#0" id="circle73"/>
	<circle cx="324.646" cy="541.083" r="4" fill="#0" id="circle74"/>
	<circle cx="328.655" cy="278.554" r="4" fill="#0" id="circle75"/>
	<circle cx="344.687" cy="290.578" r="4" fill="#0" id="circle76"/>
	<circle cx="344.687" cy="541.083" r="4" fill="#0" id="circle77"/>
	<circle cx="356.711" cy="306.61" r="4" fill="#0" id="circle78"/>
	<circle cx="364.727" cy="541.083" r="4" fill="#0" id="circle79"/>
	<circle cx="366.731" cy="324.646" r="4" fill="#0" id="circle80"/>
	<circle cx="374.747" cy="344.687" r="4" fill="#0" id="circle81"/>
	<circle cx="384.768" cy="541.083" r="4" fill="#0" id="circle82"/>
	<circle cx="392.784" cy="354.707" r="4" fill="#0" id="circle83"/>
	<circle cx="404.808" cy="541.083" r="4" fill="#0" id="circle84"/>
	<circle cx="412.824" cy="354.707" r="4" fill="#0" id="circle85"/>
	<circle cx="424.848" cy="541.083" r="4" fill="#0" id="circle86"/>
	<circle cx="432.865" cy="354.707" r="4" fill="#0" id="circle87"/>
	<circle cx="444.889" cy="541.083" r="4" fill="#0" id="circle88"/>
	<circle cx="452.905" cy="354.707" r="4" fill="#0" id="circle89"/>
	<circle cx="464.929" cy="541.083" r="4" fill="#0" id="circle90"/>
	<circle cx="472.945" cy="354.707" r="4" fill="#0" id="circle91"/>
	<circle cx="484.97" cy="541.083" r="4" fill="#0" id="circle92"/>
	<circle cx="492.986" cy="354.707" r="4" fill="#0" id="circle93"/>
	<circle cx="505.01" cy="541.083" r="4" fill="#0" id="circle94"/>
	<circle cx="513.026" cy="354.707" r="4" fill="#0" id="circle95"/>
	<circle cx="525.051" cy="541.083" r="4" fill="#0" id="circle96"/>
	<circle cx="533.067" cy="354.707" r="4" fill="#0" id="circle97"/>
	<circle cx="545.091" cy="541.083" r="4" fill="#0" id="circle98"/>
	<circle cx="553.107" cy="354.707" r="4" fill="#0" id="circle99"/>
	<circle cx="565.131" cy="541.083" r="4" fill="#0" id="circle100"/>
	<circle cx="573.147" cy="354.707" r="4" fill="#0" id="circle101"/>
	<circle cx="585.172" cy="541.083" r="4" fill="#0" id="circle102"/>
	<circle cx="593.188" cy="354.707" r="4" fill="#0" id="circle103"/>
	<circle cx="605.212" cy="541.083" r="4" fill="#0" id="circle104"/>
	<circle cx="613.228" cy="354.707" r="4" fill="#0" id="circle105"/>
	<circle cx="625.253" cy="541.083" r="4" fill="#0" id="circle106"/>
	<circle cx="633.269" cy="354.707" r="4" fill="#0" id="circle107"/>
	<circle cx="645.293" cy="541.083" r="4" fill="#0" id="circle108"/>
	<circle cx="653.309" cy="354.707" r="4" fill="#0" id="circle109"/>
	<circle cx="665.333" cy="541.083" r="4" fill="#0" id="circle110"/>
	<circle cx="673.349" cy="354.707" r="4" fill="#0" id="circle111"/>
	<circle cx="685.374" cy="541.083" r="4" fill="#0" id="circle112"/>
	<circle cx="693.39" cy="354.707" r="4" fill="#0" id="circle113"/>
	<circle cx="705.414" cy="541.083" r="4" fill="#0" id="circle114"/>
	<circle cx="713.43" cy="354.707" r="4" fill="#0" id="circle115"/>
	<circle cx="725.455" cy="541.083" r="4" fill="#0" id="circle116"/>
	<circle cx="733.471" cy="358.715" r="4" fill="#0" id="circle117"/>
	<circle cx="745.495" cy="541.083" r="4" fill="#0" id="circle118"/>
	<circle cx="753.511" cy="358.715" r="4" fill="#0" id="circle119"/>
	<circle cx="765.535" cy="541.083" r="4" fill="#0" id="circle120"/>
	<circle cx="773.552" cy="358.715" r="4" fill="#0" id="circle121"/>
	<circle cx="785.576" cy="541.083" r="4" fill="#0" id="circle122"/>
	<circle cx="793.592" cy="358.715" r="4" fill="#0" id="circle123"/>
	<circle cx="805.616" cy="541.083" r="4" fill="#0" id="circle124"/>
	<circle cx="813.632" cy="360.719" r="4" fill="#0" id="circle125"/>
	<circle cx="825.657" cy="541.083" r="4" fill="#0" id="circle126"/>
	<circle cx="833.673" cy="362.723" r="4" fill="#0" id="circle127"/>
	<circle cx="845.697" cy="541.083" r="4" fill="#0" id="circle128"/>
	<circle cx="853.713" cy="364.727" r="4" fill="#0" id="circle129"/>
	<circle cx="865.737" cy="541.083" r="4" fill="#0" id="circle130"/>
	<circle cx="873.754" cy="366.731" r="4" fill="#0" id="circle131"/>
	<circle cx="885.778" cy="541.083" r="4" fill="#0" id="circle132"/>
	<circle cx="893.794" cy="366.731" r="4" fill="#0" id="circle133"/>
	<circle cx="905.818" cy="541.083" r="4" fill="#0" id="circle134"/>
	<circle cx="913.834" cy="370.739" r="4" fill="#0" id="circle135"/>
	<circle cx="925.859" cy="541.083" r="4" fill="#0" id="circle136"/>
	<circle cx="933.875" cy="374.747" r="4" fill="#0" id="circle137"/>
	<circle cx="945.899" cy="537.075" r="4" fill="#0" id="circle138"/>
	<circle cx="949.907" cy="322.642" r="4" fill="#0" id="circle139"/>
	<circle cx="949.907" cy="342.683" r="4" fill="#0" id="circle140"/>
	<circle cx="949.907" cy="362.723" r="4" fill="#0" id="circle141"/>
	<circle cx="953.915" cy="557.115" r="4" fill="#0" id="circle142"/>
	<circle cx="957.923" cy="270.537" r="4" fill="#0" id="circle143"/>
	<circle cx="957.923" cy="290.578" r="4" fill="#0" id="circle144"/>
	<circle cx="957.923" cy="577.156" r="4" fill="#0" id="circle145"/>
	<circle cx="957.923" cy="597.196" r="4" fill="#0" id="circle146"/>
	<circle cx="961.931" cy="617.236" r="4" fill="#0" id="circle147"/>
	<circle cx="977.964" cy="270.537" r="4" fill="#0" id="circle148"/>
	<circle cx="981.972" cy="597.196" r="4" fill="#0" id="circle149"/>
	<circle cx="981.972" cy="621.244" r="4" fill="#0" id="circle150"/>
	<circle cx="987.984" cy="288.574" r="4" fill="#0" id="circle151"/>
	<circle cx="987.984" cy="326.651" r="4" fill="#0" id="circle152"/>
	<circle cx="987.984" cy="346.691" r="4" fill="#0" id="circle153"/>
	<circle cx="987.984" cy="543.087" r="4" fill="#0" id="circle154"/>
	<circle cx="989.988" cy="577.156" r="4" fill="#0" id="circle155"/>
	<circle cx="991.992" cy="366.731" r="4" fill="#0" id="circle156"/>
	<circle cx="991.992" cy="386.772" r="4" fill="#0" id="circle157"/>
	<circle cx="991.992" cy="430.861" r="4" fill="#0" id="circle158"/>
	<circle cx="991.992" cy="450.901" r="4" fill="#0" id="circle159"/>
	<circle cx="991.992" cy="470.941" r="4" fill="#0" id="circle160"/>
	<circle cx="991.992" cy="490.982" r="4" fill="#0" id="circle161"/>
	<circle cx="991.992" cy="511.022" r="4" fill="#0" id="circle162"/>
	<circle cx="996" cy="406.812" r="4" fill="#0" id="circle163"/>
	</g>
</svg>