<?xml version="1.0" encoding="UTF-8" standalone="no"?>
<!-- Created with CurveBenchmark -->
<svg
	xmlns:dc="http://purl.org/dc/elements/1.1/"
	xmlns:cc="http://creativecommons.org/ns#"
	xmlns:rdf="http://www.w3.org/1999/02/22-rdf-syntax-ns#"
	xmlns:svg="http://www.w3.org/2000/svg"
	xmlns="http://www.w3.org/2000/svg"
	xmlns:sodipodi="http://sodipodi.sourceforge.net/DTD/sodipodi-0.dtd"
	xmlns:inkscape="http://www.inkscape.org/namespaces/inkscape"
	width="1000"
	height="1000"
	id="svg2"
	version="1.1"
	sodipodi:docname="manifold/peel-sandtigers.png.txt">
<defs
	id="defs4" />
<metadata
	id="metadata7">
	<rdf:RDF>
		<cc:Work
			rdf:about="">
			<dc:format>image/svg+xml</dc:format>
			<dc:type
				rdf:resource="http://purl.org/dc/dcmitype/StillImage" />
			<dc:title></dc:title>
		</cc:Work>
	</rdf:RDF>
</metadata>
<g
	inkscape:label="Layer 1"
	inkscape:groupmode="layer"
	id="layer1">
	<path style="fill:none;stroke:red;stroke-width:1px;stroke-linecap:butt;stroke-linejoin:miter;stroke-opacity:1" d="M 28.5443,61.2701 20.3629,40.8165 z" id="boundary" inkscape:connector-curvature="0" />
	<path style="fill:none;stroke:red;stroke-width:1px;stroke-linecap:butt;stroke-linejoin:miter;stroke-opacity:1" d="M 20.3629,40.8165 4,26.499 z" id="boundary" inkscape:connector-curvature="0" />
	<path style="fill:none;stroke:red;stroke-width:1px;stroke-linecap:butt;stroke-linejoin:miter;stroke-opacity:1" d="M 4,26.499 4,6.04536 z" id="boundary" inkscape:connector-curvature="0" />
	<path style="fill:none;stroke:red;stroke-width:1px;stroke-linecap:butt;stroke-linejoin:miter;stroke-opacity:1" d="M 4,6.04536 24.4536,4 z" id="boundary" inkscape:connector-curvature="0" />
	<path style="fill:none;stroke:red;stroke-width:1px;stroke-linecap:butt;stroke-linejoin:miter;stroke-opacity:1" d="M 44.9072,93.9959 51.0433,114.449 z" id="boundary" inkscape:connector-curvature="0" />
	<path style="fill:none;stroke:red;stroke-width:1px;stroke-linecap:butt;stroke-linejoin:miter;stroke-opacity:1" d="M 24.4536,4 44.9072,10.1361 z" id="boundary" inkscape:connector-curvature="0" />
	<path style="fill:none;stroke:red;stroke-width:1px;stroke-linecap:butt;stroke-linejoin:miter;stroke-opacity:1" d="M 44.9072,10.1361 63.3155,20.3629 z" id="boundary" inkscape:connector-curvature="0" />
	<path style="fill:none;stroke:red;stroke-width:1px;stroke-linecap:butt;stroke-linejoin:miter;stroke-opacity:1" d="M 44.9072,73.5423 44.9072,93.9959 z" id="boundary" inkscape:connector-curvature="0" />
	<path style="fill:none;stroke:red;stroke-width:1px;stroke-linecap:butt;stroke-linejoin:miter;stroke-opacity:1" d="M 44.9072,73.5423 28.5443,61.2701 z" id="boundary" inkscape:connector-curvature="0" />
	<path style="fill:none;stroke:red;stroke-width:1px;stroke-linecap:butt;stroke-linejoin:miter;stroke-opacity:1" d="M 102.177,30.5897 120.586,40.8165 z" id="boundary" inkscape:connector-curvature="0" />
	<path style="fill:none;stroke:red;stroke-width:1px;stroke-linecap:butt;stroke-linejoin:miter;stroke-opacity:1" d="M 102.177,30.5897 81.7237,30.5897 z" id="boundary" inkscape:connector-curvature="0" />
	<path style="fill:none;stroke:red;stroke-width:1px;stroke-linecap:butt;stroke-linejoin:miter;stroke-opacity:1" d="M 75.5876,149.221 85.8144,167.629 z" id="boundary" inkscape:connector-curvature="0" />
	<path style="fill:none;stroke:red;stroke-width:1px;stroke-linecap:butt;stroke-linejoin:miter;stroke-opacity:1" d="M 75.5876,149.221 61.2701,132.858 z" id="boundary" inkscape:connector-curvature="0" />
	<path style="fill:none;stroke:red;stroke-width:1px;stroke-linecap:butt;stroke-linejoin:miter;stroke-opacity:1" d="M 63.3155,20.3629 81.7237,30.5897 z" id="boundary" inkscape:connector-curvature="0" />
	<path style="fill:none;stroke:red;stroke-width:1px;stroke-linecap:butt;stroke-linejoin:miter;stroke-opacity:1" d="M 138.994,51.0433 120.586,40.8165 z" id="boundary" inkscape:connector-curvature="0" />
	<path style="fill:none;stroke:red;stroke-width:1px;stroke-linecap:butt;stroke-linejoin:miter;stroke-opacity:1" d="M 145.13,226.944 128.767,212.627 z" id="boundary" inkscape:connector-curvature="0" />
	<path style="fill:none;stroke:red;stroke-width:1px;stroke-linecap:butt;stroke-linejoin:miter;stroke-opacity:1" d="M 116.495,196.264 128.767,212.627 z" id="boundary" inkscape:connector-curvature="0" />
	<path style="fill:none;stroke:red;stroke-width:1px;stroke-linecap:butt;stroke-linejoin:miter;stroke-opacity:1" d="M 116.495,196.264 100.132,183.992 z" id="boundary" inkscape:connector-curvature="0" />
	<path style="fill:none;stroke:red;stroke-width:1px;stroke-linecap:butt;stroke-linejoin:miter;stroke-opacity:1" d="M 51.0433,114.449 61.2701,132.858 z" id="boundary" inkscape:connector-curvature="0" />
	<path style="fill:none;stroke:red;stroke-width:1px;stroke-linecap:butt;stroke-linejoin:miter;stroke-opacity:1" d="M 157.402,61.2701 138.994,51.0433 z" id="boundary" inkscape:connector-curvature="0" />
	<path style="fill:none;stroke:red;stroke-width:1px;stroke-linecap:butt;stroke-linejoin:miter;stroke-opacity:1" d="M 177.856,318.986 177.856,298.532 z" id="boundary" inkscape:connector-curvature="0" />
	<path style="fill:none;stroke:red;stroke-width:1px;stroke-linecap:butt;stroke-linejoin:miter;stroke-opacity:1" d="M 157.402,61.2701 175.81,71.4969 z" id="boundary" inkscape:connector-curvature="0" />
	<path style="fill:none;stroke:red;stroke-width:1px;stroke-linecap:butt;stroke-linejoin:miter;stroke-opacity:1" d="M 177.856,298.532 177.856,278.078 z" id="boundary" inkscape:connector-curvature="0" />
	<path style="fill:none;stroke:red;stroke-width:1px;stroke-linecap:butt;stroke-linejoin:miter;stroke-opacity:1" d="M 85.8144,167.629 100.132,183.992 z" id="boundary" inkscape:connector-curvature="0" />
	<path style="fill:none;stroke:red;stroke-width:1px;stroke-linecap:butt;stroke-linejoin:miter;stroke-opacity:1" d="M 145.13,226.944 159.447,243.307 z" id="boundary" inkscape:connector-curvature="0" />
	<path style="fill:none;stroke:red;stroke-width:1px;stroke-linecap:butt;stroke-linejoin:miter;stroke-opacity:1" d="M 194.219,81.7237 175.81,71.4969 z" id="boundary" inkscape:connector-curvature="0" />
	<path style="fill:none;stroke:red;stroke-width:1px;stroke-linecap:butt;stroke-linejoin:miter;stroke-opacity:1" d="M 212.627,91.9505 194.219,81.7237 z" id="boundary" inkscape:connector-curvature="0" />
	<path style="fill:none;stroke:red;stroke-width:1px;stroke-linecap:butt;stroke-linejoin:miter;stroke-opacity:1" d="M 175.81,257.625 177.856,278.078 z" id="boundary" inkscape:connector-curvature="0" />
	<path style="fill:none;stroke:red;stroke-width:1px;stroke-linecap:butt;stroke-linejoin:miter;stroke-opacity:1" d="M 175.81,257.625 159.447,243.307 z" id="boundary" inkscape:connector-curvature="0" />
	<path style="fill:none;stroke:red;stroke-width:1px;stroke-linecap:butt;stroke-linejoin:miter;stroke-opacity:1" d="M 231.035,102.177 212.627,91.9505 z" id="boundary" inkscape:connector-curvature="0" />
	<path style="fill:none;stroke:red;stroke-width:1px;stroke-linecap:butt;stroke-linejoin:miter;stroke-opacity:1" d="M 177.856,339.439 177.856,318.986 z" id="boundary" inkscape:connector-curvature="0" />
	<path style="fill:none;stroke:red;stroke-width:1px;stroke-linecap:butt;stroke-linejoin:miter;stroke-opacity:1" d="M 231.035,102.177 247.398,114.449 z" id="boundary" inkscape:connector-curvature="0" />
	<path style="fill:none;stroke:red;stroke-width:1px;stroke-linecap:butt;stroke-linejoin:miter;stroke-opacity:1" d="M 177.856,359.893 177.856,339.439 z" id="boundary" inkscape:connector-curvature="0" />
	<path style="fill:none;stroke:red;stroke-width:1px;stroke-linecap:butt;stroke-linejoin:miter;stroke-opacity:1" d="M 188.082,400.8 183.992,380.346 z" id="boundary" inkscape:connector-curvature="0" />
	<path style="fill:none;stroke:red;stroke-width:1px;stroke-linecap:butt;stroke-linejoin:miter;stroke-opacity:1" d="M 183.992,380.346 177.856,359.893 z" id="boundary" inkscape:connector-curvature="0" />
	<path style="fill:none;stroke:red;stroke-width:1px;stroke-linecap:butt;stroke-linejoin:miter;stroke-opacity:1" d="M 261.715,130.812 247.398,114.449 z" id="boundary" inkscape:connector-curvature="0" />
	<path style="fill:none;stroke:red;stroke-width:1px;stroke-linecap:butt;stroke-linejoin:miter;stroke-opacity:1" d="M 188.082,400.8 200.355,417.163 z" id="boundary" inkscape:connector-curvature="0" />
	<path style="fill:none;stroke:red;stroke-width:1px;stroke-linecap:butt;stroke-linejoin:miter;stroke-opacity:1" d="M 235.126,419.208 245.353,398.755 z" id="boundary" inkscape:connector-curvature="0" />
	<path style="fill:none;stroke:red;stroke-width:1px;stroke-linecap:butt;stroke-linejoin:miter;stroke-opacity:1" d="M 200.355,417.163 216.718,431.48 z" id="boundary" inkscape:connector-curvature="0" />
	<path style="fill:none;stroke:red;stroke-width:1px;stroke-linecap:butt;stroke-linejoin:miter;stroke-opacity:1" d="M 216.718,431.48 235.126,419.208 z" id="boundary" inkscape:connector-curvature="0" />
	<path style="fill:none;stroke:red;stroke-width:1px;stroke-linecap:butt;stroke-linejoin:miter;stroke-opacity:1" d="M 298.532,380.346 280.124,370.12 z" id="boundary" inkscape:connector-curvature="0" />
	<path style="fill:none;stroke:red;stroke-width:1px;stroke-linecap:butt;stroke-linejoin:miter;stroke-opacity:1" d="M 280.124,370.12 261.715,380.346 z" id="boundary" inkscape:connector-curvature="0" />
	<path style="fill:none;stroke:red;stroke-width:1px;stroke-linecap:butt;stroke-linejoin:miter;stroke-opacity:1" d="M 298.532,380.346 316.94,390.573 z" id="boundary" inkscape:connector-curvature="0" />
	<path style="fill:none;stroke:red;stroke-width:1px;stroke-linecap:butt;stroke-linejoin:miter;stroke-opacity:1" d="M 282.169,138.994 296.487,155.357 z" id="boundary" inkscape:connector-curvature="0" />
	<path style="fill:none;stroke:red;stroke-width:1px;stroke-linecap:butt;stroke-linejoin:miter;stroke-opacity:1" d="M 282.169,138.994 261.715,130.812 z" id="boundary" inkscape:connector-curvature="0" />
	<path style="fill:none;stroke:red;stroke-width:1px;stroke-linecap:butt;stroke-linejoin:miter;stroke-opacity:1" d="M 316.94,163.538 331.258,179.901 z" id="boundary" inkscape:connector-curvature="0" />
	<path style="fill:none;stroke:red;stroke-width:1px;stroke-linecap:butt;stroke-linejoin:miter;stroke-opacity:1" d="M 316.94,163.538 296.487,155.357 z" id="boundary" inkscape:connector-curvature="0" />
	<path style="fill:none;stroke:red;stroke-width:1px;stroke-linecap:butt;stroke-linejoin:miter;stroke-opacity:1" d="M 245.353,398.755 261.715,380.346 z" id="boundary" inkscape:connector-curvature="0" />
	<path style="fill:none;stroke:red;stroke-width:1px;stroke-linecap:butt;stroke-linejoin:miter;stroke-opacity:1" d="M 316.94,390.573 333.303,404.891 z" id="boundary" inkscape:connector-curvature="0" />
	<path style="fill:none;stroke:red;stroke-width:1px;stroke-linecap:butt;stroke-linejoin:miter;stroke-opacity:1" d="M 333.303,404.891 347.621,421.254 z" id="boundary" inkscape:connector-curvature="0" />
	<path style="fill:none;stroke:red;stroke-width:1px;stroke-linecap:butt;stroke-linejoin:miter;stroke-opacity:1" d="M 347.621,194.219 331.258,179.901 z" id="boundary" inkscape:connector-curvature="0" />
	<path style="fill:none;stroke:red;stroke-width:1px;stroke-linecap:butt;stroke-linejoin:miter;stroke-opacity:1" d="M 366.029,204.445 347.621,194.219 z" id="boundary" inkscape:connector-curvature="0" />
	<path style="fill:none;stroke:red;stroke-width:1px;stroke-linecap:butt;stroke-linejoin:miter;stroke-opacity:1" d="M 382.392,218.763 366.029,204.445 z" id="boundary" inkscape:connector-curvature="0" />
	<path style="fill:none;stroke:red;stroke-width:1px;stroke-linecap:butt;stroke-linejoin:miter;stroke-opacity:1" d="M 347.621,421.254 368.074,429.435 z" id="boundary" inkscape:connector-curvature="0" />
	<path style="fill:none;stroke:red;stroke-width:1px;stroke-linecap:butt;stroke-linejoin:miter;stroke-opacity:1" d="M 368.074,429.435 382.392,445.798 z" id="boundary" inkscape:connector-curvature="0" />
	<path style="fill:none;stroke:red;stroke-width:1px;stroke-linecap:butt;stroke-linejoin:miter;stroke-opacity:1" d="M 382.392,218.763 394.664,235.126 z" id="boundary" inkscape:connector-curvature="0" />
	<path style="fill:none;stroke:red;stroke-width:1px;stroke-linecap:butt;stroke-linejoin:miter;stroke-opacity:1" d="M 382.392,445.798 402.845,451.934 z" id="boundary" inkscape:connector-curvature="0" />
	<path style="fill:none;stroke:red;stroke-width:1px;stroke-linecap:butt;stroke-linejoin:miter;stroke-opacity:1" d="M 402.845,451.934 413.072,470.342 z" id="boundary" inkscape:connector-curvature="0" />
	<path style="fill:none;stroke:red;stroke-width:1px;stroke-linecap:butt;stroke-linejoin:miter;stroke-opacity:1" d="M 413.072,245.353 394.664,235.126 z" id="boundary" inkscape:connector-curvature="0" />
	<path style="fill:none;stroke:red;stroke-width:1px;stroke-linecap:butt;stroke-linejoin:miter;stroke-opacity:1" d="M 429.435,257.625 413.072,245.353 z" id="boundary" inkscape:connector-curvature="0" />
	<path style="fill:none;stroke:red;stroke-width:1px;stroke-linecap:butt;stroke-linejoin:miter;stroke-opacity:1" d="M 413.072,470.342 413.072,490.796 z" id="boundary" inkscape:connector-curvature="0" />
	<path style="fill:none;stroke:red;stroke-width:1px;stroke-linecap:butt;stroke-linejoin:miter;stroke-opacity:1" d="M 429.435,257.625 445.798,271.942 z" id="boundary" inkscape:connector-curvature="0" />
	<path style="fill:none;stroke:red;stroke-width:1px;stroke-linecap:butt;stroke-linejoin:miter;stroke-opacity:1" d="M 427.39,529.658 443.753,543.975 z" id="boundary" inkscape:connector-curvature="0" />
	<path style="fill:none;stroke:red;stroke-width:1px;stroke-linecap:butt;stroke-linejoin:miter;stroke-opacity:1" d="M 719.876,713.74 709.649,695.332 z" id="boundary" inkscape:connector-curvature="0" />
	<path style="fill:none;stroke:red;stroke-width:1px;stroke-linecap:butt;stroke-linejoin:miter;stroke-opacity:1" d="M 413.072,490.796 417.163,511.249 z" id="boundary" inkscape:connector-curvature="0" />
	<path style="fill:none;stroke:red;stroke-width:1px;stroke-linecap:butt;stroke-linejoin:miter;stroke-opacity:1" d="M 417.163,511.249 427.39,529.658 z" id="boundary" inkscape:connector-curvature="0" />
	<path style="fill:none;stroke:red;stroke-width:1px;stroke-linecap:butt;stroke-linejoin:miter;stroke-opacity:1" d="M 466.252,276.033 445.798,271.942 z" id="boundary" inkscape:connector-curvature="0" />
	<path style="fill:none;stroke:red;stroke-width:1px;stroke-linecap:butt;stroke-linejoin:miter;stroke-opacity:1" d="M 464.206,537.839 484.66,527.612 z" id="boundary" inkscape:connector-curvature="0" />
	<path style="fill:none;stroke:red;stroke-width:1px;stroke-linecap:butt;stroke-linejoin:miter;stroke-opacity:1" d="M 486.705,276.033 466.252,276.033 z" id="boundary" inkscape:connector-curvature="0" />
	<path style="fill:none;stroke:red;stroke-width:1px;stroke-linecap:butt;stroke-linejoin:miter;stroke-opacity:1" d="M 443.753,543.975 464.206,537.839 z" id="boundary" inkscape:connector-curvature="0" />
	<path style="fill:none;stroke:red;stroke-width:1px;stroke-linecap:butt;stroke-linejoin:miter;stroke-opacity:1" d="M 484.66,527.612 505.113,523.522 z" id="boundary" inkscape:connector-curvature="0" />
	<path style="fill:none;stroke:red;stroke-width:1px;stroke-linecap:butt;stroke-linejoin:miter;stroke-opacity:1" d="M 548.066,339.439 548.066,359.893 z" id="boundary" inkscape:connector-curvature="0" />
	<path style="fill:none;stroke:red;stroke-width:1px;stroke-linecap:butt;stroke-linejoin:miter;stroke-opacity:1" d="M 505.113,523.522 525.567,523.522 z" id="boundary" inkscape:connector-curvature="0" />
	<path style="fill:none;stroke:red;stroke-width:1px;stroke-linecap:butt;stroke-linejoin:miter;stroke-opacity:1" d="M 525.567,523.522 543.975,533.748 z" id="boundary" inkscape:connector-curvature="0" />
	<path style="fill:none;stroke:red;stroke-width:1px;stroke-linecap:butt;stroke-linejoin:miter;stroke-opacity:1" d="M 486.705,276.033 505.113,265.806 z" id="boundary" inkscape:connector-curvature="0" />
	<path style="fill:none;stroke:red;stroke-width:1px;stroke-linecap:butt;stroke-linejoin:miter;stroke-opacity:1" d="M 505.113,265.806 525.567,265.806 z" id="boundary" inkscape:connector-curvature="0" />
	<path style="fill:none;stroke:red;stroke-width:1px;stroke-linecap:butt;stroke-linejoin:miter;stroke-opacity:1" d="M 586.928,578.746 578.746,558.293 z" id="boundary" inkscape:connector-curvature="0" />
	<path style="fill:none;stroke:red;stroke-width:1px;stroke-linecap:butt;stroke-linejoin:miter;stroke-opacity:1" d="M 578.746,558.293 562.384,543.975 z" id="boundary" inkscape:connector-curvature="0" />
	<path style="fill:none;stroke:red;stroke-width:1px;stroke-linecap:butt;stroke-linejoin:miter;stroke-opacity:1" d="M 546.021,265.806 525.567,265.806 z" id="boundary" inkscape:connector-curvature="0" />
	<path style="fill:none;stroke:red;stroke-width:1px;stroke-linecap:butt;stroke-linejoin:miter;stroke-opacity:1" d="M 558.293,378.301 548.066,359.893 z" id="boundary" inkscape:connector-curvature="0" />
	<path style="fill:none;stroke:red;stroke-width:1px;stroke-linecap:butt;stroke-linejoin:miter;stroke-opacity:1" d="M 562.384,543.975 543.975,533.748 z" id="boundary" inkscape:connector-curvature="0" />
	<path style="fill:none;stroke:red;stroke-width:1px;stroke-linecap:butt;stroke-linejoin:miter;stroke-opacity:1" d="M 564.429,325.122 574.656,304.668 z" id="boundary" inkscape:connector-curvature="0" />
	<path style="fill:none;stroke:red;stroke-width:1px;stroke-linecap:butt;stroke-linejoin:miter;stroke-opacity:1" d="M 548.066,339.439 564.429,325.122 z" id="boundary" inkscape:connector-curvature="0" />
	<path style="fill:none;stroke:red;stroke-width:1px;stroke-linecap:butt;stroke-linejoin:miter;stroke-opacity:1" d="M 574.656,390.573 558.293,378.301 z" id="boundary" inkscape:connector-curvature="0" />
	<path style="fill:none;stroke:red;stroke-width:1px;stroke-linecap:butt;stroke-linejoin:miter;stroke-opacity:1" d="M 588.973,406.936 574.656,390.573 z" id="boundary" inkscape:connector-curvature="0" />
	<path style="fill:none;stroke:red;stroke-width:1px;stroke-linecap:butt;stroke-linejoin:miter;stroke-opacity:1" d="M 586.928,578.746 597.155,597.155 z" id="boundary" inkscape:connector-curvature="0" />
	<path style="fill:none;stroke:red;stroke-width:1px;stroke-linecap:butt;stroke-linejoin:miter;stroke-opacity:1" d="M 546.021,265.806 566.474,265.806 z" id="boundary" inkscape:connector-curvature="0" />
	<path style="fill:none;stroke:red;stroke-width:1px;stroke-linecap:butt;stroke-linejoin:miter;stroke-opacity:1" d="M 605.336,421.254 588.973,406.936 z" id="boundary" inkscape:connector-curvature="0" />
	<path style="fill:none;stroke:red;stroke-width:1px;stroke-linecap:butt;stroke-linejoin:miter;stroke-opacity:1" d="M 619.654,437.616 605.336,421.254 z" id="boundary" inkscape:connector-curvature="0" />
	<path style="fill:none;stroke:red;stroke-width:1px;stroke-linecap:butt;stroke-linejoin:miter;stroke-opacity:1" d="M 574.656,304.668 586.928,269.897 z" id="boundary" inkscape:connector-curvature="0" />
	<path style="fill:none;stroke:red;stroke-width:1px;stroke-linecap:butt;stroke-linejoin:miter;stroke-opacity:1" d="M 566.474,265.806 586.928,269.897 z" id="boundary" inkscape:connector-curvature="0" />
	<path style="fill:none;stroke:red;stroke-width:1px;stroke-linecap:butt;stroke-linejoin:miter;stroke-opacity:1" d="M 597.155,597.155 607.381,615.563 z" id="boundary" inkscape:connector-curvature="0" />
	<path style="fill:none;stroke:red;stroke-width:1px;stroke-linecap:butt;stroke-linejoin:miter;stroke-opacity:1" d="M 607.381,615.563 613.518,636.016 z" id="boundary" inkscape:connector-curvature="0" />
	<path style="fill:none;stroke:red;stroke-width:1px;stroke-linecap:butt;stroke-linejoin:miter;stroke-opacity:1" d="M 730.103,732.148 719.876,713.74 z" id="boundary" inkscape:connector-curvature="0" />
	<path style="fill:none;stroke:red;stroke-width:1px;stroke-linecap:butt;stroke-linejoin:miter;stroke-opacity:1" d="M 640.107,439.662 619.654,437.616 z" id="boundary" inkscape:connector-curvature="0" />
	<path style="fill:none;stroke:red;stroke-width:1px;stroke-linecap:butt;stroke-linejoin:miter;stroke-opacity:1" d="M 660.561,439.662 640.107,439.662 z" id="boundary" inkscape:connector-curvature="0" />
	<path style="fill:none;stroke:red;stroke-width:1px;stroke-linecap:butt;stroke-linejoin:miter;stroke-opacity:1" d="M 689.196,636.016 699.423,654.425 z" id="boundary" inkscape:connector-curvature="0" />
	<path style="fill:none;stroke:red;stroke-width:1px;stroke-linecap:butt;stroke-linejoin:miter;stroke-opacity:1" d="M 681.014,523.522 681.014,503.068 z" id="boundary" inkscape:connector-curvature="0" />
	<path style="fill:none;stroke:red;stroke-width:1px;stroke-linecap:butt;stroke-linejoin:miter;stroke-opacity:1" d="M 613.518,636.016 633.971,633.971 z" id="boundary" inkscape:connector-curvature="0" />
	<path style="fill:none;stroke:red;stroke-width:1px;stroke-linecap:butt;stroke-linejoin:miter;stroke-opacity:1" d="M 650.334,615.563 668.742,605.336 z" id="boundary" inkscape:connector-curvature="0" />
	<path style="fill:none;stroke:red;stroke-width:1px;stroke-linecap:butt;stroke-linejoin:miter;stroke-opacity:1" d="M 668.742,605.336 687.151,615.563 z" id="boundary" inkscape:connector-curvature="0" />
	<path style="fill:none;stroke:red;stroke-width:1px;stroke-linecap:butt;stroke-linejoin:miter;stroke-opacity:1" d="M 633.971,633.971 650.334,615.563 z" id="boundary" inkscape:connector-curvature="0" />
	<path style="fill:none;stroke:red;stroke-width:1px;stroke-linecap:butt;stroke-linejoin:miter;stroke-opacity:1" d="M 687.151,615.563 689.196,636.016 z" id="boundary" inkscape:connector-curvature="0" />
	<path style="fill:none;stroke:red;stroke-width:1px;stroke-linecap:butt;stroke-linejoin:miter;stroke-opacity:1" d="M 699.423,654.425 703.513,674.878 z" id="boundary" inkscape:connector-curvature="0" />
	<path style="fill:none;stroke:red;stroke-width:1px;stroke-linecap:butt;stroke-linejoin:miter;stroke-opacity:1" d="M 660.561,439.662 681.014,439.662 z" id="boundary" inkscape:connector-curvature="0" />
	<path style="fill:none;stroke:red;stroke-width:1px;stroke-linecap:butt;stroke-linejoin:miter;stroke-opacity:1" d="M 703.513,674.878 709.649,695.332 z" id="boundary" inkscape:connector-curvature="0" />
	<path style="fill:none;stroke:red;stroke-width:1px;stroke-linecap:butt;stroke-linejoin:miter;stroke-opacity:1" d="M 681.014,503.068 697.377,488.751 z" id="boundary" inkscape:connector-curvature="0" />
	<path style="fill:none;stroke:red;stroke-width:1px;stroke-linecap:butt;stroke-linejoin:miter;stroke-opacity:1" d="M 681.014,523.522 691.241,541.93 z" id="boundary" inkscape:connector-curvature="0" />
	<path style="fill:none;stroke:red;stroke-width:1px;stroke-linecap:butt;stroke-linejoin:miter;stroke-opacity:1" d="M 707.604,554.202 691.241,541.93 z" id="boundary" inkscape:connector-curvature="0" />
	<path style="fill:none;stroke:red;stroke-width:1px;stroke-linecap:butt;stroke-linejoin:miter;stroke-opacity:1" d="M 721.922,570.565 707.604,554.202 z" id="boundary" inkscape:connector-curvature="0" />
	<path style="fill:none;stroke:red;stroke-width:1px;stroke-linecap:butt;stroke-linejoin:miter;stroke-opacity:1" d="M 742.375,572.61 760.784,582.837 z" id="boundary" inkscape:connector-curvature="0" />
	<path style="fill:none;stroke:red;stroke-width:1px;stroke-linecap:butt;stroke-linejoin:miter;stroke-opacity:1" d="M 697.377,488.751 717.831,478.524 z" id="boundary" inkscape:connector-curvature="0" />
	<path style="fill:none;stroke:red;stroke-width:1px;stroke-linecap:butt;stroke-linejoin:miter;stroke-opacity:1" d="M 681.014,439.662 701.468,445.798 z" id="boundary" inkscape:connector-curvature="0" />
	<path style="fill:none;stroke:red;stroke-width:1px;stroke-linecap:butt;stroke-linejoin:miter;stroke-opacity:1" d="M 742.375,572.61 721.922,570.565 z" id="boundary" inkscape:connector-curvature="0" />
	<path style="fill:none;stroke:red;stroke-width:1px;stroke-linecap:butt;stroke-linejoin:miter;stroke-opacity:1" d="M 717.831,478.524 719.876,456.025 z" id="boundary" inkscape:connector-curvature="0" />
	<path style="fill:none;stroke:red;stroke-width:1px;stroke-linecap:butt;stroke-linejoin:miter;stroke-opacity:1" d="M 730.103,732.148 746.466,746.466 z" id="boundary" inkscape:connector-curvature="0" />
	<path style="fill:none;stroke:red;stroke-width:1px;stroke-linecap:butt;stroke-linejoin:miter;stroke-opacity:1" d="M 701.468,445.798 719.876,456.025 z" id="boundary" inkscape:connector-curvature="0" />
	<path style="fill:none;stroke:red;stroke-width:1px;stroke-linecap:butt;stroke-linejoin:miter;stroke-opacity:1" d="M 781.237,586.928 760.784,582.837 z" id="boundary" inkscape:connector-curvature="0" />
	<path style="fill:none;stroke:red;stroke-width:1px;stroke-linecap:butt;stroke-linejoin:miter;stroke-opacity:1" d="M 791.464,697.377 811.918,697.377 z" id="boundary" inkscape:connector-curvature="0" />
	<path style="fill:none;stroke:red;stroke-width:1px;stroke-linecap:butt;stroke-linejoin:miter;stroke-opacity:1" d="M 746.466,746.466 762.829,728.058 z" id="boundary" inkscape:connector-curvature="0" />
	<path style="fill:none;stroke:red;stroke-width:1px;stroke-linecap:butt;stroke-linejoin:miter;stroke-opacity:1" d="M 773.056,707.604 791.464,697.377 z" id="boundary" inkscape:connector-curvature="0" />
	<path style="fill:none;stroke:red;stroke-width:1px;stroke-linecap:butt;stroke-linejoin:miter;stroke-opacity:1" d="M 773.056,707.604 762.829,728.058 z" id="boundary" inkscape:connector-curvature="0" />
	<path style="fill:none;stroke:red;stroke-width:1px;stroke-linecap:butt;stroke-linejoin:miter;stroke-opacity:1" d="M 811.918,697.377 832.371,697.377 z" id="boundary" inkscape:connector-curvature="0" />
	<path style="fill:none;stroke:red;stroke-width:1px;stroke-linecap:butt;stroke-linejoin:miter;stroke-opacity:1" d="M 852.825,697.377 832.371,697.377 z" id="boundary" inkscape:connector-curvature="0" />
	<path style="fill:none;stroke:red;stroke-width:1px;stroke-linecap:butt;stroke-linejoin:miter;stroke-opacity:1" d="M 781.237,586.928 799.645,597.155 z" id="boundary" inkscape:connector-curvature="0" />
	<path style="fill:none;stroke:red;stroke-width:1px;stroke-linecap:butt;stroke-linejoin:miter;stroke-opacity:1" d="M 799.645,597.155 820.099,603.291 z" id="boundary" inkscape:connector-curvature="0" />
	<path style="fill:none;stroke:red;stroke-width:1px;stroke-linecap:butt;stroke-linejoin:miter;stroke-opacity:1" d="M 820.099,603.291 838.507,613.518 z" id="boundary" inkscape:connector-curvature="0" />
	<path style="fill:none;stroke:red;stroke-width:1px;stroke-linecap:butt;stroke-linejoin:miter;stroke-opacity:1" d="M 852.825,697.377 873.278,697.377 z" id="boundary" inkscape:connector-curvature="0" />
	<path style="fill:none;stroke:red;stroke-width:1px;stroke-linecap:butt;stroke-linejoin:miter;stroke-opacity:1" d="M 873.278,697.377 891.687,707.604 z" id="boundary" inkscape:connector-curvature="0" />
	<path style="fill:none;stroke:red;stroke-width:1px;stroke-linecap:butt;stroke-linejoin:miter;stroke-opacity:1" d="M 838.507,613.518 858.961,613.518 z" id="boundary" inkscape:connector-curvature="0" />
	<path style="fill:none;stroke:red;stroke-width:1px;stroke-linecap:butt;stroke-linejoin:miter;stroke-opacity:1" d="M 858.961,613.518 877.369,623.744 z" id="boundary" inkscape:connector-curvature="0" />
	<path style="fill:none;stroke:red;stroke-width:1px;stroke-linecap:butt;stroke-linejoin:miter;stroke-opacity:1" d="M 891.687,707.604 910.095,717.831 z" id="boundary" inkscape:connector-curvature="0" />
	<path style="fill:none;stroke:red;stroke-width:1px;stroke-linecap:butt;stroke-linejoin:miter;stroke-opacity:1" d="M 910.095,717.831 926.458,732.148 z" id="boundary" inkscape:connector-curvature="0" />
	<path style="fill:none;stroke:red;stroke-width:1px;stroke-linecap:butt;stroke-linejoin:miter;stroke-opacity:1" d="M 877.369,623.744 895.777,633.971 z" id="boundary" inkscape:connector-curvature="0" />
	<path style="fill:none;stroke:red;stroke-width:1px;stroke-linecap:butt;stroke-linejoin:miter;stroke-opacity:1" d="M 914.186,644.198 895.777,633.971 z" id="boundary" inkscape:connector-curvature="0" />
	<path style="fill:none;stroke:red;stroke-width:1px;stroke-linecap:butt;stroke-linejoin:miter;stroke-opacity:1" d="M 926.458,732.148 946.911,738.285 z" id="boundary" inkscape:connector-curvature="0" />
	<path style="fill:none;stroke:red;stroke-width:1px;stroke-linecap:butt;stroke-linejoin:miter;stroke-opacity:1" d="M 932.594,654.425 914.186,644.198 z" id="boundary" inkscape:connector-curvature="0" />
	<path style="fill:none;stroke:red;stroke-width:1px;stroke-linecap:butt;stroke-linejoin:miter;stroke-opacity:1" d="M 946.911,738.285 967.365,738.285 z" id="boundary" inkscape:connector-curvature="0" />
	<path style="fill:none;stroke:red;stroke-width:1px;stroke-linecap:butt;stroke-linejoin:miter;stroke-opacity:1" d="M 951.002,664.652 932.594,654.425 z" id="boundary" inkscape:connector-curvature="0" />
	<path style="fill:none;stroke:red;stroke-width:1px;stroke-linecap:butt;stroke-linejoin:miter;stroke-opacity:1" d="M 965.32,681.014 951.002,664.652 z" id="boundary" inkscape:connector-curvature="0" />
	<path style="fill:none;stroke:red;stroke-width:1px;stroke-linecap:butt;stroke-linejoin:miter;stroke-opacity:1" d="M 967.365,738.285 987.819,738.285 z" id="boundary" inkscape:connector-curvature="0" />
	<path style="fill:none;stroke:red;stroke-width:1px;stroke-linecap:butt;stroke-linejoin:miter;stroke-opacity:1" d="M 965.32,681.014 981.682,695.332 z" id="boundary" inkscape:connector-curvature="0" />
	<path style="fill:none;stroke:red;stroke-width:1px;stroke-linecap:butt;stroke-linejoin:miter;stroke-opacity:1" d="M 981.682,695.332 996,711.695 z" id="boundary" inkscape:connector-curvature="0" />
	<path style="fill:none;stroke:red;stroke-width:1px;stroke-linecap:butt;stroke-linejoin:miter;stroke-opacity:1" d="M 987.819,738.285 996,711.695 z" id="boundary" inkscape:connector-curvature="0" />
	<circle cx="4" cy="6.04536" r="4" fill="#0" id="circle0"/>
	<circle cx="4" cy="26.499" r="4" fill="#0" id="circle1"/>
	<circle cx="20.3629" cy="40.8165" r="4" fill="#0" id="circle2"/>
	<circle cx="24.4536" cy="4" r="4" fill="#0" id="circle3"/>
	<circle cx="28.5443" cy="61.2701" r="4" fill="#0" id="circle4"/>
	<circle cx="44.9072" cy="10.1361" r="4" fill="#0" id="circle5"/>
	<circle cx="44.9072" cy="73.5423" r="4" fill="#0" id="circle6"/>
	<circle cx="44.9072" cy="93.9959" r="4" fill="#0" id="circle7"/>
	<circle cx="51.0433" cy="114.449" r="4" fill="#0" id="circle8"/>
	<circle cx="61.2701" cy="132.858" r="4" fill="#0" id="circle9"/>
	<circle cx="63.3155" cy="20.3629" r="4" fill="#0" id="circle10"/>
	<circle cx="75.5876" cy="149.221" r="4" fill="#0" id="circle11"/>
	<circle cx="81.7237" cy="30.5897" r="4" fill="#0" id="circle12"/>
	<circle cx="85.8144" cy="167.629" r="4" fill="#0" id="circle13"/>
	<circle cx="100.132" cy="183.992" r="4" fill="#0" id="circle14"/>
	<circle cx="102.177" cy="30.5897" r="4" fill="#0" id="circle15"/>
	<circle cx="116.495" cy="196.264" r="4" fill="#0" id="circle16"/>
	<circle cx="120.586" cy="40.8165" r="4" fill="#0" id="circle17"/>
	<circle cx="128.767" cy="212.627" r="4" fill="#0" id="circle18"/>
	<circle cx="138.994" cy="51.0433" r="4" fill="#0" id="circle19"/>
	<circle cx="145.13" cy="226.944" r="4" fill="#0" id="circle20"/>
	<circle cx="157.402" cy="61.2701" r="4" fill="#0" id="circle21"/>
	<circle cx="159.447" cy="243.307" r="4" fill="#0" id="circle22"/>
	<circle cx="175.81" cy="71.4969" r="4" fill="#0" id="circle23"/>
	<circle cx="175.81" cy="257.625" r="4" fill="#0" id="circle24"/>
	<circle cx="177.856" cy="278.078" r="4" fill="#0" id="circle25"/>
	<circle cx="177.856" cy="298.532" r="4" fill="#0" id="circle26"/>
	<circle cx="177.856" cy="318.986" r="4" fill="#0" id="circle27"/>
	<circle cx="177.856" cy="339.439" r="4" fill="#0" id="circle28"/>
	<circle cx="177.856" cy="359.893" r="4" fill="#0" id="circle29"/>
	<circle cx="183.992" cy="380.346" r="4" fill="#0" id="circle30"/>
	<circle cx="188.082" cy="400.8" r="4" fill="#0" id="circle31"/>
	<circle cx="194.219" cy="81.7237" r="4" fill="#0" id="circle32"/>
	<circle cx="200.355" cy="417.163" r="4" fill="#0" id="circle33"/>
	<circle cx="212.627" cy="91.9505" r="4" fill="#0" id="circle34"/>
	<circle cx="216.718" cy="431.48" r="4" fill="#0" id="circle35"/>
	<circle cx="231.035" cy="102.177" r="4" fill="#0" id="circle36"/>
	<circle cx="235.126" cy="419.208" r="4" fill="#0" id="circle37"/>
	<circle cx="245.353" cy="398.755" r="4" fill="#0" id="circle38"/>
	<circle cx="247.398" cy="114.449" r="4" fill="#0" id="circle39"/>
	<circle cx="261.715" cy="130.812" r="4" fill="#0" id="circle40"/>
	<circle cx="261.715" cy="380.346" r="4" fill="#0" id="circle41"/>
	<circle cx="280.124" cy="370.12" r="4" fill="#0" id="circle42"/>
	<circle cx="282.169" cy="138.994" r="4" fill="#0" id="circle43"/>
	<circle cx="296.487" cy="155.357" r="4" fill="#0" id="circle44"/>
	<circle cx="298.532" cy="380.346" r="4" fill="#0" id="circle45"/>
	<circle cx="316.94" cy="163.538" r="4" fill="#0" id="circle46"/>
	<circle cx="316.94" cy="390.573" r="4" fill="#0" id="circle47"/>
	<circle cx="331.258" cy="179.901" r="4" fill="#0" id="circle48"/>
	<circle cx="333.303" cy="404.891" r="4" fill="#0" id="circle49"/>
	<circle cx="347.621" cy="194.219" r="4" fill="#0" id="circle50"/>
	<circle cx="347.621" cy="421.254" r="4" fill="#0" id="circle51"/>
	<circle cx="366.029" cy="204.445" r="4" fill="#0" id="circle52"/>
	<circle cx="368.074" cy="429.435" r="4" fill="#0" id="circle53"/>
	<circle cx="382.392" cy="218.763" r="4" fill="#0" id="circle54"/>
	<circle cx="382.392" cy="445.798" r="4" fill="#0" id="circle55"/>
	<circle cx="394.664" cy="235.126" r="4" fill="#0" id="circle56"/>
	<circle cx="402.845" cy="451.934" r="4" fill="#0" id="circle57"/>
	<circle cx="413.072" cy="245.353" r="4" fill="#0" id="circle58"/>
	<circle cx="413.072" cy="470.342" r="4" fill="#0" id="circle59"/>
	<circle cx="413.072" cy="490.796" r="4" fill="#0" id="circle60"/>
	<circle cx="417.163" cy="511.249" r="4" fill="#0" id="circle61"/>
	<circle cx="427.39" cy="529.658" r="4" fill="#0" id="circle62"/>
	<circle cx="429.435" cy="257.625" r="4" fill="#0" id="circle63"/>
	<circle cx="443.753" cy="543.975" r="4" fill="#0" id="circle64"/>
	<circle cx="445.798" cy="271.942" r="4" fill="#0" id="circle65"/>
	<circle cx="464.206" cy="537.839" r="4" fill="#0" id="circle66"/>
	<circle cx="466.252" cy="276.033" r="4" fill="#0" id="circle67"/>
	<circle cx="484.66" cy="527.612" r="4" fill="#0" id="circle68"/>
	<circle cx="486.705" cy="276.033" r="4" fill="#0" id="circle69"/>
	<circle cx="505.113" cy="265.806" r="4" fill="#0" id="circle70"/>
	<circle cx="505.113" cy="523.522" r="4" fill="#0" id="circle71"/>
	<circle cx="525.567" cy="265.806" r="4" fill="#0" id="circle72"/>
	<circle cx="525.567" cy="523.522" r="4" fill="#0" id="circle73"/>
	<circle cx="543.975" cy="533.748" r="4" fill="#0" id="circle74"/>
	<circle cx="546.021" cy="265.806" r="4" fill="#0" id="circle75"/>
	<circle cx="548.066" cy="339.439" r="4" fill="#0" id="circle76"/>
	<circle cx="548.066" cy="359.893" r="4" fill="#0" id="circle77"/>
	<circle cx="558.293" cy="378.301" r="4" fill="#0" id="circle78"/>
	<circle cx="562.384" cy="543.975" r="4" fill="#0" id="circle79"/>
	<circle cx="564.429" cy="325.122" r="4" fill="#0" id="circle80"/>
	<circle cx="566.474" cy="265.806" r="4" fill="#0" id="circle81"/>
	<circle cx="574.656" cy="304.668" r="4" fill="#0" id="circle82"/>
	<circle cx="574.656" cy="390.573" r="4" fill="#0" id="circle83"/>
	<circle cx="578.746" cy="558.293" r="4" fill="#0" id="circle84"/>
	<circle cx="586.928" cy="269.897" r="4" fill="#0" id="circle85"/>
	<circle cx="586.928" cy="578.746" r="4" fill="#0" id="circle86"/>
	<circle cx="588.973" cy="406.936" r="4" fill="#0" id="circle87"/>
	<circle cx="597.155" cy="597.155" r="4" fill="#0" id="circle88"/>
	<circle cx="605.336" cy="421.254" r="4" fill="#0" id="circle89"/>
	<circle cx="607.381" cy="615.563" r="4" fill="#0" id="circle90"/>
	<circle cx="613.518" cy="636.016" r="4" fill="#0" id="circle91"/>
	<circle cx="619.654" cy="437.616" r="4" fill="#0" id="circle92"/>
	<circle cx="633.971" cy="633.971" r="4" fill="#0" id="circle93"/>
	<circle cx="640.107" cy="439.662" r="4" fill="#0" id="circle94"/>
	<circle cx="650.334" cy="615.563" r="4" fill="#0" id="circle95"/>
	<circle cx="660.561" cy="439.662" r="4" fill="#0" id="circle96"/>
	<circle cx="668.742" cy="605.336" r="4" fill="#0" id="circle97"/>
	<circle cx="681.014" cy="439.662" r="4" fill="#0" id="circle98"/>
	<circle cx="681.014" cy="503.068" r="4" fill="#0" id="circle99"/>
	<circle cx="681.014" cy="523.522" r="4" fill="#0" id="circle100"/>
	<circle cx="687.151" cy="615.563" r="4" fill="#0" id="circle101"/>
	<circle cx="689.196" cy="636.016" r="4" fill="#0" id="circle102"/>
	<circle cx="691.241" cy="541.93" r="4" fill="#0" id="circle103"/>
	<circle cx="697.377" cy="488.751" r="4" fill="#0" id="circle104"/>
	<circle cx="699.423" cy="654.425" r="4" fill="#0" id="circle105"/>
	<circle cx="701.468" cy="445.798" r="4" fill="#0" id="circle106"/>
	<circle cx="703.513" cy="674.878" r="4" fill="#0" id="circle107"/>
	<circle cx="707.604" cy="554.202" r="4" fill="#0" id="circle108"/>
	<circle cx="709.649" cy="695.332" r="4" fill="#0" id="circle109"/>
	<circle cx="717.831" cy="478.524" r="4" fill="#0" id="circle110"/>
	<circle cx="719.876" cy="456.025" r="4" fill="#0" id="circle111"/>
	<circle cx="719.876" cy="713.74" r="4" fill="#0" id="circle112"/>
	<circle cx="721.922" cy="570.565" r="4" fill="#0" id="circle113"/>
	<circle cx="730.103" cy="732.148" r="4" fill="#0" id="circle114"/>
	<circle cx="742.375" cy="572.61" r="4" fill="#0" id="circle115"/>
	<circle cx="746.466" cy="746.466" r="4" fill="#0" id="circle116"/>
	<circle cx="760.784" cy="582.837" r="4" fill="#0" id="circle117"/>
	<circle cx="762.829" cy="728.058" r="4" fill="#0" id="circle118"/>
	<circle cx="773.056" cy="707.604" r="4" fill="#0" id="circle119"/>
	<circle cx="781.237" cy="586.928" r="4" fill="#0" id="circle120"/>
	<circle cx="791.464" cy="697.377" r="4" fill="#0" id="circle121"/>
	<circle cx="799.645" cy="597.155" r="4" fill="#0" id="circle122"/>
	<circle cx="811.918" cy="697.377" r="4" fill="#0" id="circle123"/>
	<circle cx="820.099" cy="603.291" r="4" fill="#0" id="circle124"/>
	<circle cx="832.371" cy="697.377" r="4" fill="#0" id="circle125"/>
	<circle cx="838.507" cy="613.518" r="4" fill="#0" id="circle126"/>
	<circle cx="852.825" cy="697.377" r="4" fill="#0" id="circle127"/>
	<circle cx="858.961" cy="613.518" r="4" fill="#0" id="circle128"/>
	<circle cx="873.278" cy="697.377" r="4" fill="#0" id="circle129"/>
	<circle cx="877.369" cy="623.744" r="4" fill="#0" id="circle130"/>
	<circle cx="891.687" cy="707.604" r="4" fill="#0" id="circle131"/>
	<circle cx="895.777" cy="633.971" r="4" fill="#0" id="circle132"/>
	<circle cx="910.095" cy="717.831" r="4" fill="#0" id="circle133"/>
	<circle cx="914.186" cy="644.198" r="4" fill="#0" id="circle134"/>
	<circle cx="926.458" cy="732.148" r="4" fill="#0" id="circle135"/>
	<circle cx="932.594" cy="654.425" r="4" fill="#0" id="circle136"/>
	<circle cx="946.911" cy="738.285" r="4" fill="#0" id="circle137"/>
	<circle cx="951.002" cy="664.652" r="4" fill="#0" id="circle138"/>
	<circle cx="965.32" cy="681.014" r="4" fill="#0" id="circle139"/>
	<circle cx="967.365" cy="738.285" r="4" fill="#0" id="circle140"/>
	<circle cx="981.682" cy="695.332" r="4" fill="#0" id="circle141"/>
	<circle cx="987.819" cy="738.285" r="4" fill="#0" id="circle142"/>
	<circle cx="996" cy="711.695" r="4" fill="#0" id="circle143"/>
	</g>
</svg>