<?xml version="1.0" encoding="UTF-8" standalone="no"?>
<!-- Created with CurveBenchmark -->
<svg
	xmlns:dc="http://purl.org/dc/elements/1.1/"
	xmlns:cc="http://creativecommons.org/ns#"
	xmlns:rdf="http://www.w3.org/1999/02/22-rdf-syntax-ns#"
	xmlns:svg="http://www.w3.org/2000/svg"
	xmlns="http://www.w3.org/2000/svg"
	xmlns:sodipodi="http://sodipodi.sourceforge.net/DTD/sodipodi-0.dtd"
	xmlns:inkscape="http://www.inkscape.org/namespaces/inkscape"
	width="1000"
	height="1000"
	id="svg2"
	version="1.1"
	sodipodi:docname="manifold/peel-stef-17.png.txt">
<defs
	id="defs4" />
<metadata
	id="metadata7">
	<rdf:RDF>
		<cc:Work
			rdf:about="">
			<dc:format>image/svg+xml</dc:format>
			<dc:type
				rdf:resource="http://purl.org/dc/dcmitype/StillImage" />
			<dc:title></dc:title>
		</cc:Work>
	</rdf:RDF>
</metadata>
<g
	inkscape:label="Layer 1"
	inkscape:groupmode="layer"
	id="layer1">
	<path style="fill:none;stroke:red;stroke-width:1px;stroke-linecap:butt;stroke-linejoin:miter;stroke-opacity:1" d="M 37.8478,17.0184 17.0184,37.8478 z" id="boundary" inkscape:connector-curvature="0" />
	<path style="fill:none;stroke:red;stroke-width:1px;stroke-linecap:butt;stroke-linejoin:miter;stroke-opacity:1" d="M 4,89.9213 4,63.8845 z" id="boundary" inkscape:connector-curvature="0" />
	<path style="fill:none;stroke:red;stroke-width:1px;stroke-linecap:butt;stroke-linejoin:miter;stroke-opacity:1" d="M 4,63.8845 17.0184,37.8478 z" id="boundary" inkscape:connector-curvature="0" />
	<path style="fill:none;stroke:red;stroke-width:1px;stroke-linecap:butt;stroke-linejoin:miter;stroke-opacity:1" d="M 17.0184,139.391 4,115.958 z" id="boundary" inkscape:connector-curvature="0" />
	<path style="fill:none;stroke:red;stroke-width:1px;stroke-linecap:butt;stroke-linejoin:miter;stroke-opacity:1" d="M 4,115.958 4,89.9213 z" id="boundary" inkscape:connector-curvature="0" />
	<path style="fill:none;stroke:red;stroke-width:1px;stroke-linecap:butt;stroke-linejoin:miter;stroke-opacity:1" d="M 37.8478,17.0184 61.2808,4 z" id="boundary" inkscape:connector-curvature="0" />
	<path style="fill:none;stroke:red;stroke-width:1px;stroke-linecap:butt;stroke-linejoin:miter;stroke-opacity:1" d="M 61.2808,4 87.3176,4 z" id="boundary" inkscape:connector-curvature="0" />
	<path style="fill:none;stroke:red;stroke-width:1px;stroke-linecap:butt;stroke-linejoin:miter;stroke-opacity:1" d="M 186.257,558.583 186.257,584.619 z" id="boundary" inkscape:connector-curvature="0" />
	<path style="fill:none;stroke:red;stroke-width:1px;stroke-linecap:butt;stroke-linejoin:miter;stroke-opacity:1" d="M 61.2808,170.635 35.2441,160.22 z" id="boundary" inkscape:connector-curvature="0" />
	<path style="fill:none;stroke:red;stroke-width:1px;stroke-linecap:butt;stroke-linejoin:miter;stroke-opacity:1" d="M 35.2441,160.22 17.0184,139.391 z" id="boundary" inkscape:connector-curvature="0" />
	<path style="fill:none;stroke:red;stroke-width:1px;stroke-linecap:butt;stroke-linejoin:miter;stroke-opacity:1" d="M 134.184,22.2257 149.806,43.0551 z" id="boundary" inkscape:connector-curvature="0" />
	<path style="fill:none;stroke:red;stroke-width:1px;stroke-linecap:butt;stroke-linejoin:miter;stroke-opacity:1" d="M 108.147,191.465 121.165,214.898 z" id="boundary" inkscape:connector-curvature="0" />
	<path style="fill:none;stroke:red;stroke-width:1px;stroke-linecap:butt;stroke-linejoin:miter;stroke-opacity:1" d="M 108.147,191.465 87.3176,175.843 z" id="boundary" inkscape:connector-curvature="0" />
	<path style="fill:none;stroke:red;stroke-width:1px;stroke-linecap:butt;stroke-linejoin:miter;stroke-opacity:1" d="M 87.3176,175.843 61.2808,170.635 z" id="boundary" inkscape:connector-curvature="0" />
	<path style="fill:none;stroke:red;stroke-width:1px;stroke-linecap:butt;stroke-linejoin:miter;stroke-opacity:1" d="M 87.3176,4 113.354,4 z" id="boundary" inkscape:connector-curvature="0" />
	<path style="fill:none;stroke:red;stroke-width:1px;stroke-linecap:butt;stroke-linejoin:miter;stroke-opacity:1" d="M 113.354,4 134.184,22.2257 z" id="boundary" inkscape:connector-curvature="0" />
	<path style="fill:none;stroke:red;stroke-width:1px;stroke-linecap:butt;stroke-linejoin:miter;stroke-opacity:1" d="M 121.165,214.898 136.787,235.727 z" id="boundary" inkscape:connector-curvature="0" />
	<path style="fill:none;stroke:red;stroke-width:1px;stroke-linecap:butt;stroke-linejoin:miter;stroke-opacity:1" d="M 162.824,66.4882 149.806,43.0551 z" id="boundary" inkscape:connector-curvature="0" />
	<path style="fill:none;stroke:red;stroke-width:1px;stroke-linecap:butt;stroke-linejoin:miter;stroke-opacity:1" d="M 147.202,930.908 121.165,923.097 z" id="boundary" inkscape:connector-curvature="0" />
	<path style="fill:none;stroke:red;stroke-width:1px;stroke-linecap:butt;stroke-linejoin:miter;stroke-opacity:1" d="M 121.165,923.097 134.184,897.06 z" id="boundary" inkscape:connector-curvature="0" />
	<path style="fill:none;stroke:red;stroke-width:1px;stroke-linecap:butt;stroke-linejoin:miter;stroke-opacity:1" d="M 162.824,66.4882 188.861,76.9029 z" id="boundary" inkscape:connector-curvature="0" />
	<path style="fill:none;stroke:red;stroke-width:1px;stroke-linecap:butt;stroke-linejoin:miter;stroke-opacity:1" d="M 214.898,82.1102 188.861,76.9029 z" id="boundary" inkscape:connector-curvature="0" />
	<path style="fill:none;stroke:red;stroke-width:1px;stroke-linecap:butt;stroke-linejoin:miter;stroke-opacity:1" d="M 170.635,943.927 147.202,930.908 z" id="boundary" inkscape:connector-curvature="0" />
	<path style="fill:none;stroke:red;stroke-width:1px;stroke-linecap:butt;stroke-linejoin:miter;stroke-opacity:1" d="M 155.013,876.231 134.184,897.06 z" id="boundary" inkscape:connector-curvature="0" />
	<path style="fill:none;stroke:red;stroke-width:1px;stroke-linecap:butt;stroke-linejoin:miter;stroke-opacity:1" d="M 157.617,253.953 168.031,279.99 z" id="boundary" inkscape:connector-curvature="0" />
	<path style="fill:none;stroke:red;stroke-width:1px;stroke-linecap:butt;stroke-linejoin:miter;stroke-opacity:1" d="M 157.617,253.953 136.787,235.727 z" id="boundary" inkscape:connector-curvature="0" />
	<path style="fill:none;stroke:red;stroke-width:1px;stroke-linecap:butt;stroke-linejoin:miter;stroke-opacity:1" d="M 181.05,863.213 155.013,876.231 z" id="boundary" inkscape:connector-curvature="0" />
	<path style="fill:none;stroke:red;stroke-width:1px;stroke-linecap:butt;stroke-linejoin:miter;stroke-opacity:1" d="M 194.068,956.945 170.635,943.927 z" id="boundary" inkscape:connector-curvature="0" />
	<path style="fill:none;stroke:red;stroke-width:1px;stroke-linecap:butt;stroke-linejoin:miter;stroke-opacity:1" d="M 199.276,660.126 199.276,634.089 z" id="boundary" inkscape:connector-curvature="0" />
	<path style="fill:none;stroke:red;stroke-width:1px;stroke-linecap:butt;stroke-linejoin:miter;stroke-opacity:1" d="M 186.257,584.619 199.276,608.052 z" id="boundary" inkscape:connector-curvature="0" />
	<path style="fill:none;stroke:red;stroke-width:1px;stroke-linecap:butt;stroke-linejoin:miter;stroke-opacity:1" d="M 199.276,608.052 199.276,634.089 z" id="boundary" inkscape:connector-curvature="0" />
	<path style="fill:none;stroke:red;stroke-width:1px;stroke-linecap:butt;stroke-linejoin:miter;stroke-opacity:1" d="M 168.031,279.99 188.861,298.215 z" id="boundary" inkscape:connector-curvature="0" />
	<path style="fill:none;stroke:red;stroke-width:1px;stroke-linecap:butt;stroke-linejoin:miter;stroke-opacity:1" d="M 199.276,532.546 186.257,558.583 z" id="boundary" inkscape:connector-curvature="0" />
	<path style="fill:none;stroke:red;stroke-width:1px;stroke-linecap:butt;stroke-linejoin:miter;stroke-opacity:1" d="M 212.294,311.234 188.861,298.215 z" id="boundary" inkscape:connector-curvature="0" />
	<path style="fill:none;stroke:red;stroke-width:1px;stroke-linecap:butt;stroke-linejoin:miter;stroke-opacity:1" d="M 199.276,660.126 199.276,686.163 z" id="boundary" inkscape:connector-curvature="0" />
	<path style="fill:none;stroke:red;stroke-width:1px;stroke-linecap:butt;stroke-linejoin:miter;stroke-opacity:1" d="M 214.898,82.1102 240.934,82.1102 z" id="boundary" inkscape:connector-curvature="0" />
	<path style="fill:none;stroke:red;stroke-width:1px;stroke-linecap:butt;stroke-linejoin:miter;stroke-opacity:1" d="M 240.934,82.1102 264.367,95.1286 z" id="boundary" inkscape:connector-curvature="0" />
	<path style="fill:none;stroke:red;stroke-width:1px;stroke-linecap:butt;stroke-linejoin:miter;stroke-opacity:1" d="M 199.276,712.199 199.276,686.163 z" id="boundary" inkscape:connector-curvature="0" />
	<path style="fill:none;stroke:red;stroke-width:1px;stroke-linecap:butt;stroke-linejoin:miter;stroke-opacity:1" d="M 199.276,738.236 199.276,712.199 z" id="boundary" inkscape:connector-curvature="0" />
	<path style="fill:none;stroke:red;stroke-width:1px;stroke-linecap:butt;stroke-linejoin:miter;stroke-opacity:1" d="M 306.026,540.357 306.026,566.394 z" id="boundary" inkscape:connector-curvature="0" />
	<path style="fill:none;stroke:red;stroke-width:1px;stroke-linecap:butt;stroke-linejoin:miter;stroke-opacity:1" d="M 199.276,764.273 199.276,738.236 z" id="boundary" inkscape:connector-curvature="0" />
	<path style="fill:none;stroke:red;stroke-width:1px;stroke-linecap:butt;stroke-linejoin:miter;stroke-opacity:1" d="M 238.331,480.472 259.16,459.643 z" id="boundary" inkscape:connector-curvature="0" />
	<path style="fill:none;stroke:red;stroke-width:1px;stroke-linecap:butt;stroke-linejoin:miter;stroke-opacity:1" d="M 220.105,511.717 238.331,480.472 z" id="boundary" inkscape:connector-curvature="0" />
	<path style="fill:none;stroke:red;stroke-width:1px;stroke-linecap:butt;stroke-linejoin:miter;stroke-opacity:1" d="M 199.276,790.31 199.276,764.273 z" id="boundary" inkscape:connector-curvature="0" />
	<path style="fill:none;stroke:red;stroke-width:1px;stroke-linecap:butt;stroke-linejoin:miter;stroke-opacity:1" d="M 306.026,540.357 306.026,514.32 z" id="boundary" inkscape:connector-curvature="0" />
	<path style="fill:none;stroke:red;stroke-width:1px;stroke-linecap:butt;stroke-linejoin:miter;stroke-opacity:1" d="M 199.276,816.346 199.276,790.31 z" id="boundary" inkscape:connector-curvature="0" />
	<path style="fill:none;stroke:red;stroke-width:1px;stroke-linecap:butt;stroke-linejoin:miter;stroke-opacity:1" d="M 220.105,511.717 199.276,532.546 z" id="boundary" inkscape:connector-curvature="0" />
	<path style="fill:none;stroke:red;stroke-width:1px;stroke-linecap:butt;stroke-linejoin:miter;stroke-opacity:1" d="M 259.16,459.643 272.178,433.606 z" id="boundary" inkscape:connector-curvature="0" />
	<path style="fill:none;stroke:red;stroke-width:1px;stroke-linecap:butt;stroke-linejoin:miter;stroke-opacity:1" d="M 199.276,816.346 199.276,842.383 z" id="boundary" inkscape:connector-curvature="0" />
	<path style="fill:none;stroke:red;stroke-width:1px;stroke-linecap:butt;stroke-linejoin:miter;stroke-opacity:1" d="M 199.276,842.383 181.05,863.213 z" id="boundary" inkscape:connector-curvature="0" />
	<path style="fill:none;stroke:red;stroke-width:1px;stroke-linecap:butt;stroke-linejoin:miter;stroke-opacity:1" d="M 319.045,772.084 319.045,746.047 z" id="boundary" inkscape:connector-curvature="0" />
	<path style="fill:none;stroke:red;stroke-width:1px;stroke-linecap:butt;stroke-linejoin:miter;stroke-opacity:1" d="M 220.105,956.945 194.068,956.945 z" id="boundary" inkscape:connector-curvature="0" />
	<path style="fill:none;stroke:red;stroke-width:1px;stroke-linecap:butt;stroke-linejoin:miter;stroke-opacity:1" d="M 243.538,969.963 220.105,956.945 z" id="boundary" inkscape:connector-curvature="0" />
	<path style="fill:none;stroke:red;stroke-width:1px;stroke-linecap:butt;stroke-linejoin:miter;stroke-opacity:1" d="M 212.294,311.234 238.331,319.045 z" id="boundary" inkscape:connector-curvature="0" />
	<path style="fill:none;stroke:red;stroke-width:1px;stroke-linecap:butt;stroke-linejoin:miter;stroke-opacity:1" d="M 238.331,319.045 264.367,319.045 z" id="boundary" inkscape:connector-curvature="0" />
	<path style="fill:none;stroke:red;stroke-width:1px;stroke-linecap:butt;stroke-linejoin:miter;stroke-opacity:1" d="M 264.367,319.045 287.801,332.063 z" id="boundary" inkscape:connector-curvature="0" />
	<path style="fill:none;stroke:red;stroke-width:1px;stroke-linecap:butt;stroke-linejoin:miter;stroke-opacity:1" d="M 290.404,95.1286 316.441,95.1286 z" id="boundary" inkscape:connector-curvature="0" />
	<path style="fill:none;stroke:red;stroke-width:1px;stroke-linecap:butt;stroke-linejoin:miter;stroke-opacity:1" d="M 316.441,95.1286 339.874,108.147 z" id="boundary" inkscape:connector-curvature="0" />
	<path style="fill:none;stroke:red;stroke-width:1px;stroke-linecap:butt;stroke-linejoin:miter;stroke-opacity:1" d="M 264.367,949.134 243.538,969.963 z" id="boundary" inkscape:connector-curvature="0" />
	<path style="fill:none;stroke:red;stroke-width:1px;stroke-linecap:butt;stroke-linejoin:miter;stroke-opacity:1" d="M 272.178,433.606 293.008,412.777 z" id="boundary" inkscape:connector-curvature="0" />
	<path style="fill:none;stroke:red;stroke-width:1px;stroke-linecap:butt;stroke-linejoin:miter;stroke-opacity:1" d="M 636.693,720.01 654.919,740.84 z" id="boundary" inkscape:connector-curvature="0" />
	<path style="fill:none;stroke:red;stroke-width:1px;stroke-linecap:butt;stroke-linejoin:miter;stroke-opacity:1" d="M 264.367,95.1286 290.404,95.1286 z" id="boundary" inkscape:connector-curvature="0" />
	<path style="fill:none;stroke:red;stroke-width:1px;stroke-linecap:butt;stroke-linejoin:miter;stroke-opacity:1" d="M 279.99,917.89 264.367,949.134 z" id="boundary" inkscape:connector-curvature="0" />
	<path style="fill:none;stroke:red;stroke-width:1px;stroke-linecap:butt;stroke-linejoin:miter;stroke-opacity:1" d="M 319.045,693.974 319.045,720.01 z" id="boundary" inkscape:connector-curvature="0" />
	<path style="fill:none;stroke:red;stroke-width:1px;stroke-linecap:butt;stroke-linejoin:miter;stroke-opacity:1" d="M 306.026,566.394 306.026,592.43 z" id="boundary" inkscape:connector-curvature="0" />
	<path style="fill:none;stroke:red;stroke-width:1px;stroke-linecap:butt;stroke-linejoin:miter;stroke-opacity:1" d="M 293.008,865.816 293.008,891.853 z" id="boundary" inkscape:connector-curvature="0" />
	<path style="fill:none;stroke:red;stroke-width:1px;stroke-linecap:butt;stroke-linejoin:miter;stroke-opacity:1" d="M 287.801,332.063 306.026,352.892 z" id="boundary" inkscape:connector-curvature="0" />
	<path style="fill:none;stroke:red;stroke-width:1px;stroke-linecap:butt;stroke-linejoin:miter;stroke-opacity:1" d="M 293.008,891.853 279.99,917.89 z" id="boundary" inkscape:connector-curvature="0" />
	<path style="fill:none;stroke:red;stroke-width:1px;stroke-linecap:butt;stroke-linejoin:miter;stroke-opacity:1" d="M 306.026,618.467 306.026,592.43 z" id="boundary" inkscape:connector-curvature="0" />
	<path style="fill:none;stroke:red;stroke-width:1px;stroke-linecap:butt;stroke-linejoin:miter;stroke-opacity:1" d="M 558.583,641.9 545.564,618.467 z" id="boundary" inkscape:connector-curvature="0" />
	<path style="fill:none;stroke:red;stroke-width:1px;stroke-linecap:butt;stroke-linejoin:miter;stroke-opacity:1" d="M 293.008,412.777 319.045,399.759 z" id="boundary" inkscape:connector-curvature="0" />
	<path style="fill:none;stroke:red;stroke-width:1px;stroke-linecap:butt;stroke-linejoin:miter;stroke-opacity:1" d="M 306.026,618.467 319.045,641.9 z" id="boundary" inkscape:connector-curvature="0" />
	<path style="fill:none;stroke:red;stroke-width:1px;stroke-linecap:butt;stroke-linejoin:miter;stroke-opacity:1" d="M 319.045,641.9 319.045,667.937 z" id="boundary" inkscape:connector-curvature="0" />
	<path style="fill:none;stroke:red;stroke-width:1px;stroke-linecap:butt;stroke-linejoin:miter;stroke-opacity:1" d="M 306.026,352.892 332.063,363.307 z" id="boundary" inkscape:connector-curvature="0" />
	<path style="fill:none;stroke:red;stroke-width:1px;stroke-linecap:butt;stroke-linejoin:miter;stroke-opacity:1" d="M 319.045,667.937 319.045,693.974 z" id="boundary" inkscape:connector-curvature="0" />
	<path style="fill:none;stroke:red;stroke-width:1px;stroke-linecap:butt;stroke-linejoin:miter;stroke-opacity:1" d="M 306.026,514.32 332.063,514.32 z" id="boundary" inkscape:connector-curvature="0" />
	<path style="fill:none;stroke:red;stroke-width:1px;stroke-linecap:butt;stroke-linejoin:miter;stroke-opacity:1" d="M 293.008,865.816 306.026,826.761 z" id="boundary" inkscape:connector-curvature="0" />
	<path style="fill:none;stroke:red;stroke-width:1px;stroke-linecap:butt;stroke-linejoin:miter;stroke-opacity:1" d="M 358.1,514.32 332.063,514.32 z" id="boundary" inkscape:connector-curvature="0" />
	<path style="fill:none;stroke:red;stroke-width:1px;stroke-linecap:butt;stroke-linejoin:miter;stroke-opacity:1" d="M 306.026,826.761 319.045,798.121 z" id="boundary" inkscape:connector-curvature="0" />
	<path style="fill:none;stroke:red;stroke-width:1px;stroke-linecap:butt;stroke-linejoin:miter;stroke-opacity:1" d="M 332.063,363.307 345.081,386.74 z" id="boundary" inkscape:connector-curvature="0" />
	<path style="fill:none;stroke:red;stroke-width:1px;stroke-linecap:butt;stroke-linejoin:miter;stroke-opacity:1" d="M 345.081,386.74 319.045,399.759 z" id="boundary" inkscape:connector-curvature="0" />
	<path style="fill:none;stroke:red;stroke-width:1px;stroke-linecap:butt;stroke-linejoin:miter;stroke-opacity:1" d="M 319.045,746.047 319.045,720.01 z" id="boundary" inkscape:connector-curvature="0" />
	<path style="fill:none;stroke:red;stroke-width:1px;stroke-linecap:butt;stroke-linejoin:miter;stroke-opacity:1" d="M 358.1,514.32 384.136,514.32 z" id="boundary" inkscape:connector-curvature="0" />
	<path style="fill:none;stroke:red;stroke-width:1px;stroke-linecap:butt;stroke-linejoin:miter;stroke-opacity:1" d="M 319.045,772.084 319.045,798.121 z" id="boundary" inkscape:connector-curvature="0" />
	<path style="fill:none;stroke:red;stroke-width:1px;stroke-linecap:butt;stroke-linejoin:miter;stroke-opacity:1" d="M 433.606,501.302 407.57,501.302 z" id="boundary" inkscape:connector-curvature="0" />
	<path style="fill:none;stroke:red;stroke-width:1px;stroke-linecap:butt;stroke-linejoin:miter;stroke-opacity:1" d="M 407.57,501.302 384.136,514.32 z" id="boundary" inkscape:connector-curvature="0" />
	<path style="fill:none;stroke:red;stroke-width:1px;stroke-linecap:butt;stroke-linejoin:miter;stroke-opacity:1" d="M 457.039,488.283 433.606,501.302 z" id="boundary" inkscape:connector-curvature="0" />
	<path style="fill:none;stroke:red;stroke-width:1px;stroke-linecap:butt;stroke-linejoin:miter;stroke-opacity:1" d="M 524.735,568.997 537.753,592.43 z" id="boundary" inkscape:connector-curvature="0" />
	<path style="fill:none;stroke:red;stroke-width:1px;stroke-linecap:butt;stroke-linejoin:miter;stroke-opacity:1" d="M 511.717,519.528 511.717,545.564 z" id="boundary" inkscape:connector-curvature="0" />
	<path style="fill:none;stroke:red;stroke-width:1px;stroke-linecap:butt;stroke-linejoin:miter;stroke-opacity:1" d="M 389.344,121.165 365.911,108.147 z" id="boundary" inkscape:connector-curvature="0" />
	<path style="fill:none;stroke:red;stroke-width:1px;stroke-linecap:butt;stroke-linejoin:miter;stroke-opacity:1" d="M 365.911,108.147 339.874,108.147 z" id="boundary" inkscape:connector-curvature="0" />
	<path style="fill:none;stroke:red;stroke-width:1px;stroke-linecap:butt;stroke-linejoin:miter;stroke-opacity:1" d="M 511.717,545.564 524.735,568.997 z" id="boundary" inkscape:connector-curvature="0" />
	<path style="fill:none;stroke:red;stroke-width:1px;stroke-linecap:butt;stroke-linejoin:miter;stroke-opacity:1" d="M 389.344,121.165 415.381,121.165 z" id="boundary" inkscape:connector-curvature="0" />
	<path style="fill:none;stroke:red;stroke-width:1px;stroke-linecap:butt;stroke-linejoin:miter;stroke-opacity:1" d="M 457.039,488.283 483.076,488.283 z" id="boundary" inkscape:connector-curvature="0" />
	<path style="fill:none;stroke:red;stroke-width:1px;stroke-linecap:butt;stroke-linejoin:miter;stroke-opacity:1" d="M 415.381,121.165 441.417,121.165 z" id="boundary" inkscape:connector-curvature="0" />
	<path style="fill:none;stroke:red;stroke-width:1px;stroke-linecap:butt;stroke-linejoin:miter;stroke-opacity:1" d="M 490.887,134.184 467.454,121.165 z" id="boundary" inkscape:connector-curvature="0" />
	<path style="fill:none;stroke:red;stroke-width:1px;stroke-linecap:butt;stroke-linejoin:miter;stroke-opacity:1" d="M 467.454,121.165 441.417,121.165 z" id="boundary" inkscape:connector-curvature="0" />
	<path style="fill:none;stroke:red;stroke-width:1px;stroke-linecap:butt;stroke-linejoin:miter;stroke-opacity:1" d="M 537.753,592.43 545.564,618.467 z" id="boundary" inkscape:connector-curvature="0" />
	<path style="fill:none;stroke:red;stroke-width:1px;stroke-linecap:butt;stroke-linejoin:miter;stroke-opacity:1" d="M 524.735,496.094 506.509,475.265 z" id="boundary" inkscape:connector-curvature="0" />
	<path style="fill:none;stroke:red;stroke-width:1px;stroke-linecap:butt;stroke-linejoin:miter;stroke-opacity:1" d="M 506.509,475.265 483.076,488.283 z" id="boundary" inkscape:connector-curvature="0" />
	<path style="fill:none;stroke:red;stroke-width:1px;stroke-linecap:butt;stroke-linejoin:miter;stroke-opacity:1" d="M 490.887,134.184 514.32,147.202 z" id="boundary" inkscape:connector-curvature="0" />
	<path style="fill:none;stroke:red;stroke-width:1px;stroke-linecap:butt;stroke-linejoin:miter;stroke-opacity:1" d="M 514.32,147.202 540.357,155.013 z" id="boundary" inkscape:connector-curvature="0" />
	<path style="fill:none;stroke:red;stroke-width:1px;stroke-linecap:butt;stroke-linejoin:miter;stroke-opacity:1" d="M 540.357,155.013 558.583,175.843 z" id="boundary" inkscape:connector-curvature="0" />
	<path style="fill:none;stroke:red;stroke-width:1px;stroke-linecap:butt;stroke-linejoin:miter;stroke-opacity:1" d="M 558.583,641.9 576.808,662.73 z" id="boundary" inkscape:connector-curvature="0" />
	<path style="fill:none;stroke:red;stroke-width:1px;stroke-linecap:butt;stroke-linejoin:miter;stroke-opacity:1" d="M 511.717,519.528 524.735,496.094 z" id="boundary" inkscape:connector-curvature="0" />
	<path style="fill:none;stroke:red;stroke-width:1px;stroke-linecap:butt;stroke-linejoin:miter;stroke-opacity:1" d="M 558.583,175.843 579.412,194.068 z" id="boundary" inkscape:connector-curvature="0" />
	<path style="fill:none;stroke:red;stroke-width:1px;stroke-linecap:butt;stroke-linejoin:miter;stroke-opacity:1" d="M 597.638,214.898 579.412,194.068 z" id="boundary" inkscape:connector-curvature="0" />
	<path style="fill:none;stroke:red;stroke-width:1px;stroke-linecap:butt;stroke-linejoin:miter;stroke-opacity:1" d="M 670.541,451.832 670.541,477.869 z" id="boundary" inkscape:connector-curvature="0" />
	<path style="fill:none;stroke:red;stroke-width:1px;stroke-linecap:butt;stroke-linejoin:miter;stroke-opacity:1" d="M 597.638,680.955 576.808,662.73 z" id="boundary" inkscape:connector-curvature="0" />
	<path style="fill:none;stroke:red;stroke-width:1px;stroke-linecap:butt;stroke-linejoin:miter;stroke-opacity:1" d="M 670.541,373.722 670.541,347.685 z" id="boundary" inkscape:connector-curvature="0" />
	<path style="fill:none;stroke:red;stroke-width:1px;stroke-linecap:butt;stroke-linejoin:miter;stroke-opacity:1" d="M 615.864,701.785 597.638,680.955 z" id="boundary" inkscape:connector-curvature="0" />
	<path style="fill:none;stroke:red;stroke-width:1px;stroke-linecap:butt;stroke-linejoin:miter;stroke-opacity:1" d="M 670.541,529.942 670.541,503.906 z" id="boundary" inkscape:connector-curvature="0" />
	<path style="fill:none;stroke:red;stroke-width:1px;stroke-linecap:butt;stroke-linejoin:miter;stroke-opacity:1" d="M 636.693,720.01 615.864,701.785 z" id="boundary" inkscape:connector-curvature="0" />
	<path style="fill:none;stroke:red;stroke-width:1px;stroke-linecap:butt;stroke-linejoin:miter;stroke-opacity:1" d="M 618.467,233.123 597.638,214.898 z" id="boundary" inkscape:connector-curvature="0" />
	<path style="fill:none;stroke:red;stroke-width:1px;stroke-linecap:butt;stroke-linejoin:miter;stroke-opacity:1" d="M 654.919,269.575 641.9,246.142 z" id="boundary" inkscape:connector-curvature="0" />
	<path style="fill:none;stroke:red;stroke-width:1px;stroke-linecap:butt;stroke-linejoin:miter;stroke-opacity:1" d="M 641.9,246.142 618.467,233.123 z" id="boundary" inkscape:connector-curvature="0" />
	<path style="fill:none;stroke:red;stroke-width:1px;stroke-linecap:butt;stroke-linejoin:miter;stroke-opacity:1" d="M 670.541,451.832 670.541,425.795 z" id="boundary" inkscape:connector-curvature="0" />
	<path style="fill:none;stroke:red;stroke-width:1px;stroke-linecap:butt;stroke-linejoin:miter;stroke-opacity:1" d="M 670.541,321.648 665.333,295.612 z" id="boundary" inkscape:connector-curvature="0" />
	<path style="fill:none;stroke:red;stroke-width:1px;stroke-linecap:butt;stroke-linejoin:miter;stroke-opacity:1" d="M 675.748,759.066 654.919,740.84 z" id="boundary" inkscape:connector-curvature="0" />
	<path style="fill:none;stroke:red;stroke-width:1px;stroke-linecap:butt;stroke-linejoin:miter;stroke-opacity:1" d="M 665.333,295.612 654.919,269.575 z" id="boundary" inkscape:connector-curvature="0" />
	<path style="fill:none;stroke:red;stroke-width:1px;stroke-linecap:butt;stroke-linejoin:miter;stroke-opacity:1" d="M 696.577,774.688 675.748,759.066 z" id="boundary" inkscape:connector-curvature="0" />
	<path style="fill:none;stroke:red;stroke-width:1px;stroke-linecap:butt;stroke-linejoin:miter;stroke-opacity:1" d="M 670.541,503.906 670.541,477.869 z" id="boundary" inkscape:connector-curvature="0" />
	<path style="fill:none;stroke:red;stroke-width:1px;stroke-linecap:butt;stroke-linejoin:miter;stroke-opacity:1" d="M 670.541,321.648 670.541,347.685 z" id="boundary" inkscape:connector-curvature="0" />
	<path style="fill:none;stroke:red;stroke-width:1px;stroke-linecap:butt;stroke-linejoin:miter;stroke-opacity:1" d="M 670.541,373.722 670.541,399.759 z" id="boundary" inkscape:connector-curvature="0" />
	<path style="fill:none;stroke:red;stroke-width:1px;stroke-linecap:butt;stroke-linejoin:miter;stroke-opacity:1" d="M 670.541,425.795 670.541,399.759 z" id="boundary" inkscape:connector-curvature="0" />
	<path style="fill:none;stroke:red;stroke-width:1px;stroke-linecap:butt;stroke-linejoin:miter;stroke-opacity:1" d="M 735.633,808.535 720.01,787.706 z" id="boundary" inkscape:connector-curvature="0" />
	<path style="fill:none;stroke:red;stroke-width:1px;stroke-linecap:butt;stroke-linejoin:miter;stroke-opacity:1" d="M 720.01,787.706 696.577,774.688 z" id="boundary" inkscape:connector-curvature="0" />
	<path style="fill:none;stroke:red;stroke-width:1px;stroke-linecap:butt;stroke-linejoin:miter;stroke-opacity:1" d="M 969.963,834.572 951.738,813.743 z" id="boundary" inkscape:connector-curvature="0" />
	<path style="fill:none;stroke:red;stroke-width:1px;stroke-linecap:butt;stroke-linejoin:miter;stroke-opacity:1" d="M 670.541,555.979 670.541,529.942 z" id="boundary" inkscape:connector-curvature="0" />
	<path style="fill:none;stroke:red;stroke-width:1px;stroke-linecap:butt;stroke-linejoin:miter;stroke-opacity:1" d="M 704.388,618.467 727.822,631.486 z" id="boundary" inkscape:connector-curvature="0" />
	<path style="fill:none;stroke:red;stroke-width:1px;stroke-linecap:butt;stroke-linejoin:miter;stroke-opacity:1" d="M 670.541,555.979 670.541,582.016 z" id="boundary" inkscape:connector-curvature="0" />
	<path style="fill:none;stroke:red;stroke-width:1px;stroke-linecap:butt;stroke-linejoin:miter;stroke-opacity:1" d="M 670.541,582.016 678.352,608.052 z" id="boundary" inkscape:connector-curvature="0" />
	<path style="fill:none;stroke:red;stroke-width:1px;stroke-linecap:butt;stroke-linejoin:miter;stroke-opacity:1" d="M 678.352,608.052 704.388,618.467 z" id="boundary" inkscape:connector-curvature="0" />
	<path style="fill:none;stroke:red;stroke-width:1px;stroke-linecap:butt;stroke-linejoin:miter;stroke-opacity:1" d="M 748.651,649.711 727.822,631.486 z" id="boundary" inkscape:connector-curvature="0" />
	<path style="fill:none;stroke:red;stroke-width:1px;stroke-linecap:butt;stroke-linejoin:miter;stroke-opacity:1" d="M 766.877,670.541 748.651,649.711 z" id="boundary" inkscape:connector-curvature="0" />
	<path style="fill:none;stroke:red;stroke-width:1px;stroke-linecap:butt;stroke-linejoin:miter;stroke-opacity:1" d="M 805.932,850.194 785.102,831.969 z" id="boundary" inkscape:connector-curvature="0" />
	<path style="fill:none;stroke:red;stroke-width:1px;stroke-linecap:butt;stroke-linejoin:miter;stroke-opacity:1" d="M 785.102,831.969 761.669,818.95 z" id="boundary" inkscape:connector-curvature="0" />
	<path style="fill:none;stroke:red;stroke-width:1px;stroke-linecap:butt;stroke-linejoin:miter;stroke-opacity:1" d="M 798.121,714.803 787.706,688.766 z" id="boundary" inkscape:connector-curvature="0" />
	<path style="fill:none;stroke:red;stroke-width:1px;stroke-linecap:butt;stroke-linejoin:miter;stroke-opacity:1" d="M 787.706,688.766 766.877,670.541 z" id="boundary" inkscape:connector-curvature="0" />
	<path style="fill:none;stroke:red;stroke-width:1px;stroke-linecap:butt;stroke-linejoin:miter;stroke-opacity:1" d="M 824.157,871.024 805.932,850.194 z" id="boundary" inkscape:connector-curvature="0" />
	<path style="fill:none;stroke:red;stroke-width:1px;stroke-linecap:butt;stroke-linejoin:miter;stroke-opacity:1" d="M 761.669,818.95 735.633,808.535 z" id="boundary" inkscape:connector-curvature="0" />
	<path style="fill:none;stroke:red;stroke-width:1px;stroke-linecap:butt;stroke-linejoin:miter;stroke-opacity:1" d="M 798.121,714.803 818.95,733.029 z" id="boundary" inkscape:connector-curvature="0" />
	<path style="fill:none;stroke:red;stroke-width:1px;stroke-linecap:butt;stroke-linejoin:miter;stroke-opacity:1" d="M 837.176,753.858 818.95,733.029 z" id="boundary" inkscape:connector-curvature="0" />
	<path style="fill:none;stroke:red;stroke-width:1px;stroke-linecap:butt;stroke-linejoin:miter;stroke-opacity:1" d="M 897.06,969.963 889.249,943.927 z" id="boundary" inkscape:connector-curvature="0" />
	<path style="fill:none;stroke:red;stroke-width:1px;stroke-linecap:butt;stroke-linejoin:miter;stroke-opacity:1" d="M 837.176,753.858 858.005,772.084 z" id="boundary" inkscape:connector-curvature="0" />
	<path style="fill:none;stroke:red;stroke-width:1px;stroke-linecap:butt;stroke-linejoin:miter;stroke-opacity:1" d="M 824.157,871.024 844.987,889.249 z" id="boundary" inkscape:connector-curvature="0" />
	<path style="fill:none;stroke:red;stroke-width:1px;stroke-linecap:butt;stroke-linejoin:miter;stroke-opacity:1" d="M 858.005,772.084 881.438,785.102 z" id="boundary" inkscape:connector-curvature="0" />
	<path style="fill:none;stroke:red;stroke-width:1px;stroke-linecap:butt;stroke-linejoin:miter;stroke-opacity:1" d="M 868.42,902.268 889.249,917.89 z" id="boundary" inkscape:connector-curvature="0" />
	<path style="fill:none;stroke:red;stroke-width:1px;stroke-linecap:butt;stroke-linejoin:miter;stroke-opacity:1" d="M 889.249,917.89 889.249,943.927 z" id="boundary" inkscape:connector-curvature="0" />
	<path style="fill:none;stroke:red;stroke-width:1px;stroke-linecap:butt;stroke-linejoin:miter;stroke-opacity:1" d="M 881.438,785.102 904.871,798.121 z" id="boundary" inkscape:connector-curvature="0" />
	<path style="fill:none;stroke:red;stroke-width:1px;stroke-linecap:butt;stroke-linejoin:miter;stroke-opacity:1" d="M 868.42,902.268 844.987,889.249 z" id="boundary" inkscape:connector-curvature="0" />
	<path style="fill:none;stroke:red;stroke-width:1px;stroke-linecap:butt;stroke-linejoin:miter;stroke-opacity:1" d="M 904.871,798.121 930.908,798.121 z" id="boundary" inkscape:connector-curvature="0" />
	<path style="fill:none;stroke:red;stroke-width:1px;stroke-linecap:butt;stroke-linejoin:miter;stroke-opacity:1" d="M 930.908,798.121 951.738,813.743 z" id="boundary" inkscape:connector-curvature="0" />
	<path style="fill:none;stroke:red;stroke-width:1px;stroke-linecap:butt;stroke-linejoin:miter;stroke-opacity:1" d="M 917.89,988.189 897.06,969.963 z" id="boundary" inkscape:connector-curvature="0" />
	<path style="fill:none;stroke:red;stroke-width:1px;stroke-linecap:butt;stroke-linejoin:miter;stroke-opacity:1" d="M 943.927,996 917.89,988.189 z" id="boundary" inkscape:connector-curvature="0" />
	<path style="fill:none;stroke:red;stroke-width:1px;stroke-linecap:butt;stroke-linejoin:miter;stroke-opacity:1" d="M 969.963,834.572 969.963,860.609 z" id="boundary" inkscape:connector-curvature="0" />
	<path style="fill:none;stroke:red;stroke-width:1px;stroke-linecap:butt;stroke-linejoin:miter;stroke-opacity:1" d="M 969.963,860.609 982.982,884.042 z" id="boundary" inkscape:connector-curvature="0" />
	<path style="fill:none;stroke:red;stroke-width:1px;stroke-linecap:butt;stroke-linejoin:miter;stroke-opacity:1" d="M 969.963,982.982 943.927,996 z" id="boundary" inkscape:connector-curvature="0" />
	<path style="fill:none;stroke:red;stroke-width:1px;stroke-linecap:butt;stroke-linejoin:miter;stroke-opacity:1" d="M 982.982,884.042 982.982,910.079 z" id="boundary" inkscape:connector-curvature="0" />
	<path style="fill:none;stroke:red;stroke-width:1px;stroke-linecap:butt;stroke-linejoin:miter;stroke-opacity:1" d="M 982.982,956.945 969.963,982.982 z" id="boundary" inkscape:connector-curvature="0" />
	<path style="fill:none;stroke:red;stroke-width:1px;stroke-linecap:butt;stroke-linejoin:miter;stroke-opacity:1" d="M 996,933.512 982.982,956.945 z" id="boundary" inkscape:connector-curvature="0" />
	<path style="fill:none;stroke:red;stroke-width:1px;stroke-linecap:butt;stroke-linejoin:miter;stroke-opacity:1" d="M 996,933.512 982.982,910.079 z" id="boundary" inkscape:connector-curvature="0" />
	<circle cx="4" cy="63.8845" r="4" fill="#0" id="circle0"/>
	<circle cx="4" cy="89.9213" r="4" fill="#0" id="circle1"/>
	<circle cx="4" cy="115.958" r="4" fill="#0" id="circle2"/>
	<circle cx="17.0184" cy="37.8478" r="4" fill="#0" id="circle3"/>
	<circle cx="17.0184" cy="139.391" r="4" fill="#0" id="circle4"/>
	<circle cx="35.2441" cy="160.22" r="4" fill="#0" id="circle5"/>
	<circle cx="37.8478" cy="17.0184" r="4" fill="#0" id="circle6"/>
	<circle cx="61.2808" cy="4" r="4" fill="#0" id="circle7"/>
	<circle cx="61.2808" cy="170.635" r="4" fill="#0" id="circle8"/>
	<circle cx="87.3176" cy="4" r="4" fill="#0" id="circle9"/>
	<circle cx="87.3176" cy="175.843" r="4" fill="#0" id="circle10"/>
	<circle cx="108.147" cy="191.465" r="4" fill="#0" id="circle11"/>
	<circle cx="113.354" cy="4" r="4" fill="#0" id="circle12"/>
	<circle cx="121.165" cy="214.898" r="4" fill="#0" id="circle13"/>
	<circle cx="121.165" cy="923.097" r="4" fill="#0" id="circle14"/>
	<circle cx="134.184" cy="22.2257" r="4" fill="#0" id="circle15"/>
	<circle cx="134.184" cy="897.06" r="4" fill="#0" id="circle16"/>
	<circle cx="136.787" cy="235.727" r="4" fill="#0" id="circle17"/>
	<circle cx="147.202" cy="930.908" r="4" fill="#0" id="circle18"/>
	<circle cx="149.806" cy="43.0551" r="4" fill="#0" id="circle19"/>
	<circle cx="155.013" cy="876.231" r="4" fill="#0" id="circle20"/>
	<circle cx="157.617" cy="253.953" r="4" fill="#0" id="circle21"/>
	<circle cx="162.824" cy="66.4882" r="4" fill="#0" id="circle22"/>
	<circle cx="168.031" cy="279.99" r="4" fill="#0" id="circle23"/>
	<circle cx="170.635" cy="943.927" r="4" fill="#0" id="circle24"/>
	<circle cx="181.05" cy="863.213" r="4" fill="#0" id="circle25"/>
	<circle cx="186.257" cy="558.583" r="4" fill="#0" id="circle26"/>
	<circle cx="186.257" cy="584.619" r="4" fill="#0" id="circle27"/>
	<circle cx="188.861" cy="76.9029" r="4" fill="#0" id="circle28"/>
	<circle cx="188.861" cy="298.215" r="4" fill="#0" id="circle29"/>
	<circle cx="194.068" cy="956.945" r="4" fill="#0" id="circle30"/>
	<circle cx="199.276" cy="532.546" r="4" fill="#0" id="circle31"/>
	<circle cx="199.276" cy="608.052" r="4" fill="#0" id="circle32"/>
	<circle cx="199.276" cy="634.089" r="4" fill="#0" id="circle33"/>
	<circle cx="199.276" cy="660.126" r="4" fill="#0" id="circle34"/>
	<circle cx="199.276" cy="686.163" r="4" fill="#0" id="circle35"/>
	<circle cx="199.276" cy="712.199" r="4" fill="#0" id="circle36"/>
	<circle cx="199.276" cy="738.236" r="4" fill="#0" id="circle37"/>
	<circle cx="199.276" cy="764.273" r="4" fill="#0" id="circle38"/>
	<circle cx="199.276" cy="790.31" r="4" fill="#0" id="circle39"/>
	<circle cx="199.276" cy="816.346" r="4" fill="#0" id="circle40"/>
	<circle cx="199.276" cy="842.383" r="4" fill="#0" id="circle41"/>
	<circle cx="212.294" cy="311.234" r="4" fill="#0" id="circle42"/>
	<circle cx="214.898" cy="82.1102" r="4" fill="#0" id="circle43"/>
	<circle cx="220.105" cy="511.717" r="4" fill="#0" id="circle44"/>
	<circle cx="220.105" cy="956.945" r="4" fill="#0" id="circle45"/>
	<circle cx="238.331" cy="319.045" r="4" fill="#0" id="circle46"/>
	<circle cx="238.331" cy="480.472" r="4" fill="#0" id="circle47"/>
	<circle cx="240.934" cy="82.1102" r="4" fill="#0" id="circle48"/>
	<circle cx="243.538" cy="969.963" r="4" fill="#0" id="circle49"/>
	<circle cx="259.16" cy="459.643" r="4" fill="#0" id="circle50"/>
	<circle cx="264.367" cy="95.1286" r="4" fill="#0" id="circle51"/>
	<circle cx="264.367" cy="319.045" r="4" fill="#0" id="circle52"/>
	<circle cx="264.367" cy="949.134" r="4" fill="#0" id="circle53"/>
	<circle cx="272.178" cy="433.606" r="4" fill="#0" id="circle54"/>
	<circle cx="279.99" cy="917.89" r="4" fill="#0" id="circle55"/>
	<circle cx="287.801" cy="332.063" r="4" fill="#0" id="circle56"/>
	<circle cx="290.404" cy="95.1286" r="4" fill="#0" id="circle57"/>
	<circle cx="293.008" cy="412.777" r="4" fill="#0" id="circle58"/>
	<circle cx="293.008" cy="865.816" r="4" fill="#0" id="circle59"/>
	<circle cx="293.008" cy="891.853" r="4" fill="#0" id="circle60"/>
	<circle cx="306.026" cy="352.892" r="4" fill="#0" id="circle61"/>
	<circle cx="306.026" cy="514.32" r="4" fill="#0" id="circle62"/>
	<circle cx="306.026" cy="540.357" r="4" fill="#0" id="circle63"/>
	<circle cx="306.026" cy="566.394" r="4" fill="#0" id="circle64"/>
	<circle cx="306.026" cy="592.43" r="4" fill="#0" id="circle65"/>
	<circle cx="306.026" cy="618.467" r="4" fill="#0" id="circle66"/>
	<circle cx="306.026" cy="826.761" r="4" fill="#0" id="circle67"/>
	<circle cx="316.441" cy="95.1286" r="4" fill="#0" id="circle68"/>
	<circle cx="319.045" cy="399.759" r="4" fill="#0" id="circle69"/>
	<circle cx="319.045" cy="641.9" r="4" fill="#0" id="circle70"/>
	<circle cx="319.045" cy="667.937" r="4" fill="#0" id="circle71"/>
	<circle cx="319.045" cy="693.974" r="4" fill="#0" id="circle72"/>
	<circle cx="319.045" cy="720.01" r="4" fill="#0" id="circle73"/>
	<circle cx="319.045" cy="746.047" r="4" fill="#0" id="circle74"/>
	<circle cx="319.045" cy="772.084" r="4" fill="#0" id="circle75"/>
	<circle cx="319.045" cy="798.121" r="4" fill="#0" id="circle76"/>
	<circle cx="332.063" cy="363.307" r="4" fill="#0" id="circle77"/>
	<circle cx="332.063" cy="514.32" r="4" fill="#0" id="circle78"/>
	<circle cx="339.874" cy="108.147" r="4" fill="#0" id="circle79"/>
	<circle cx="345.081" cy="386.74" r="4" fill="#0" id="circle80"/>
	<circle cx="358.1" cy="514.32" r="4" fill="#0" id="circle81"/>
	<circle cx="365.911" cy="108.147" r="4" fill="#0" id="circle82"/>
	<circle cx="384.136" cy="514.32" r="4" fill="#0" id="circle83"/>
	<circle cx="389.344" cy="121.165" r="4" fill="#0" id="circle84"/>
	<circle cx="407.57" cy="501.302" r="4" fill="#0" id="circle85"/>
	<circle cx="415.381" cy="121.165" r="4" fill="#0" id="circle86"/>
	<circle cx="433.606" cy="501.302" r="4" fill="#0" id="circle87"/>
	<circle cx="441.417" cy="121.165" r="4" fill="#0" id="circle88"/>
	<circle cx="457.039" cy="488.283" r="4" fill="#0" id="circle89"/>
	<circle cx="467.454" cy="121.165" r="4" fill="#0" id="circle90"/>
	<circle cx="483.076" cy="488.283" r="4" fill="#0" id="circle91"/>
	<circle cx="490.887" cy="134.184" r="4" fill="#0" id="circle92"/>
	<circle cx="506.509" cy="475.265" r="4" fill="#0" id="circle93"/>
	<circle cx="511.717" cy="519.528" r="4" fill="#0" id="circle94"/>
	<circle cx="511.717" cy="545.564" r="4" fill="#0" id="circle95"/>
	<circle cx="514.32" cy="147.202" r="4" fill="#0" id="circle96"/>
	<circle cx="524.735" cy="496.094" r="4" fill="#0" id="circle97"/>
	<circle cx="524.735" cy="568.997" r="4" fill="#0" id="circle98"/>
	<circle cx="537.753" cy="592.43" r="4" fill="#0" id="circle99"/>
	<circle cx="540.357" cy="155.013" r="4" fill="#0" id="circle100"/>
	<circle cx="545.564" cy="618.467" r="4" fill="#0" id="circle101"/>
	<circle cx="558.583" cy="175.843" r="4" fill="#0" id="circle102"/>
	<circle cx="558.583" cy="641.9" r="4" fill="#0" id="circle103"/>
	<circle cx="576.808" cy="662.73" r="4" fill="#0" id="circle104"/>
	<circle cx="579.412" cy="194.068" r="4" fill="#0" id="circle105"/>
	<circle cx="597.638" cy="214.898" r="4" fill="#0" id="circle106"/>
	<circle cx="597.638" cy="680.955" r="4" fill="#0" id="circle107"/>
	<circle cx="615.864" cy="701.785" r="4" fill="#0" id="circle108"/>
	<circle cx="618.467" cy="233.123" r="4" fill="#0" id="circle109"/>
	<circle cx="636.693" cy="720.01" r="4" fill="#0" id="circle110"/>
	<circle cx="641.9" cy="246.142" r="4" fill="#0" id="circle111"/>
	<circle cx="654.919" cy="269.575" r="4" fill="#0" id="circle112"/>
	<circle cx="654.919" cy="740.84" r="4" fill="#0" id="circle113"/>
	<circle cx="665.333" cy="295.612" r="4" fill="#0" id="circle114"/>
	<circle cx="670.541" cy="321.648" r="4" fill="#0" id="circle115"/>
	<circle cx="670.541" cy="347.685" r="4" fill="#0" id="circle116"/>
	<circle cx="670.541" cy="373.722" r="4" fill="#0" id="circle117"/>
	<circle cx="670.541" cy="399.759" r="4" fill="#0" id="circle118"/>
	<circle cx="670.541" cy="425.795" r="4" fill="#0" id="circle119"/>
	<circle cx="670.541" cy="451.832" r="4" fill="#0" id="circle120"/>
	<circle cx="670.541" cy="477.869" r="4" fill="#0" id="circle121"/>
	<circle cx="670.541" cy="503.906" r="4" fill="#0" id="circle122"/>
	<circle cx="670.541" cy="529.942" r="4" fill="#0" id="circle123"/>
	<circle cx="670.541" cy="555.979" r="4" fill="#0" id="circle124"/>
	<circle cx="670.541" cy="582.016" r="4" fill="#0" id="circle125"/>
	<circle cx="675.748" cy="759.066" r="4" fill="#0" id="circle126"/>
	<circle cx="678.352" cy="608.052" r="4" fill="#0" id="circle127"/>
	<circle cx="696.577" cy="774.688" r="4" fill="#0" id="circle128"/>
	<circle cx="704.388" cy="618.467" r="4" fill="#0" id="circle129"/>
	<circle cx="720.01" cy="787.706" r="4" fill="#0" id="circle130"/>
	<circle cx="727.822" cy="631.486" r="4" fill="#0" id="circle131"/>
	<circle cx="735.633" cy="808.535" r="4" fill="#0" id="circle132"/>
	<circle cx="748.651" cy="649.711" r="4" fill="#0" id="circle133"/>
	<circle cx="761.669" cy="818.95" r="4" fill="#0" id="circle134"/>
	<circle cx="766.877" cy="670.541" r="4" fill="#0" id="circle135"/>
	<circle cx="785.102" cy="831.969" r="4" fill="#0" id="circle136"/>
	<circle cx="787.706" cy="688.766" r="4" fill="#0" id="circle137"/>
	<circle cx="798.121" cy="714.803" r="4" fill="#0" id="circle138"/>
	<circle cx="805.932" cy="850.194" r="4" fill="#0" id="circle139"/>
	<circle cx="818.95" cy="733.029" r="4" fill="#0" id="circle140"/>
	<circle cx="824.157" cy="871.024" r="4" fill="#0" id="circle141"/>
	<circle cx="837.176" cy="753.858" r="4" fill="#0" id="circle142"/>
	<circle cx="844.987" cy="889.249" r="4" fill="#0" id="circle143"/>
	<circle cx="858.005" cy="772.084" r="4" fill="#0" id="circle144"/>
	<circle cx="868.42" cy="902.268" r="4" fill="#0" id="circle145"/>
	<circle cx="881.438" cy="785.102" r="4" fill="#0" id="circle146"/>
	<circle cx="889.249" cy="917.89" r="4" fill="#0" id="circle147"/>
	<circle cx="889.249" cy="943.927" r="4" fill="#0" id="circle148"/>
	<circle cx="897.06" cy="969.963" r="4" fill="#0" id="circle149"/>
	<circle cx="904.871" cy="798.121" r="4" fill="#0" id="circle150"/>
	<circle cx="917.89" cy="988.189" r="4" fill="#0" id="circle151"/>
	<circle cx="930.908" cy="798.121" r="4" fill="#0" id="circle152"/>
	<circle cx="943.927" cy="996" r="4" fill="#0" id="circle153"/>
	<circle cx="951.738" cy="813.743" r="4" fill="#0" id="circle154"/>
	<circle cx="969.963" cy="834.572" r="4" fill="#0" id="circle155"/>
	<circle cx="969.963" cy="860.609" r="4" fill="#0" id="circle156"/>
	<circle cx="969.963" cy="982.982" r="4" fill="#0" id="circle157"/>
	<circle cx="982.982" cy="884.042" r="4" fill="#0" id="circle158"/>
	<circle cx="982.982" cy="910.079" r="4" fill="#0" id="circle159"/>
	<circle cx="982.982" cy="956.945" r="4" fill="#0" id="circle160"/>
	<circle cx="996" cy="933.512" r="4" fill="#0" id="circle161"/>
	</g>
</svg>