<?xml version="1.0" encoding="UTF-8" standalone="no"?>
<!-- Created with CurveBenchmark -->
<svg
	xmlns:dc="http://purl.org/dc/elements/1.1/"
	xmlns:cc="http://creativecommons.org/ns#"
	xmlns:rdf="http://www.w3.org/1999/02/22-rdf-syntax-ns#"
	xmlns:svg="http://www.w3.org/2000/svg"
	xmlns="http://www.w3.org/2000/svg"
	xmlns:sodipodi="http://sodipodi.sourceforge.net/DTD/sodipodi-0.dtd"
	xmlns:inkscape="http://www.inkscape.org/namespaces/inkscape"
	width="1000"
	height="1000"
	id="svg2"
	version="1.1"
	sodipodi:docname="manifold/peel-cat09.png.txt">
<defs
	id="defs4" />
<metadata
	id="metadata7">
	<rdf:RDF>
		<cc:Work
			rdf:about="">
			<dc:format>image/svg+xml</dc:format>
			<dc:type
				rdf:resource="http://purl.org/dc/dcmitype/StillImage" />
			<dc:title></dc:title>
		</cc:Work>
	</rdf:RDF>
</metadata>
<g
	inkscape:label="Layer 1"
	inkscape:groupmode="layer"
	id="layer1">
	<path style="fill:none;stroke:red;stroke-width:1px;stroke-linecap:butt;stroke-linejoin:miter;stroke-opacity:1" d="M 10.9761,133.755 4,154.684 z" id="boundary" inkscape:connector-curvature="0" />
	<path style="fill:none;stroke:red;stroke-width:1px;stroke-linecap:butt;stroke-linejoin:miter;stroke-opacity:1" d="M 10.9761,133.755 10.9761,119.803 z" id="boundary" inkscape:connector-curvature="0" />
	<path style="fill:none;stroke:red;stroke-width:1px;stroke-linecap:butt;stroke-linejoin:miter;stroke-opacity:1" d="M 4,168.636 4,154.684 z" id="boundary" inkscape:connector-curvature="0" />
	<path style="fill:none;stroke:red;stroke-width:1px;stroke-linecap:butt;stroke-linejoin:miter;stroke-opacity:1" d="M 17.9522,98.8748 24.9283,84.9226 z" id="boundary" inkscape:connector-curvature="0" />
	<path style="fill:none;stroke:red;stroke-width:1px;stroke-linecap:butt;stroke-linejoin:miter;stroke-opacity:1" d="M 24.9283,84.9226 38.8805,70.9705 z" id="boundary" inkscape:connector-curvature="0" />
	<path style="fill:none;stroke:red;stroke-width:1px;stroke-linecap:butt;stroke-linejoin:miter;stroke-opacity:1" d="M 10.9761,181.193 4,168.636 z" id="boundary" inkscape:connector-curvature="0" />
	<path style="fill:none;stroke:red;stroke-width:1px;stroke-linecap:butt;stroke-linejoin:miter;stroke-opacity:1" d="M 10.9761,119.803 17.9522,98.8748 z" id="boundary" inkscape:connector-curvature="0" />
	<path style="fill:none;stroke:red;stroke-width:1px;stroke-linecap:butt;stroke-linejoin:miter;stroke-opacity:1" d="M 24.9283,186.774 10.9761,181.193 z" id="boundary" inkscape:connector-curvature="0" />
	<path style="fill:none;stroke:red;stroke-width:1px;stroke-linecap:butt;stroke-linejoin:miter;stroke-opacity:1" d="M 37.4852,193.75 24.9283,186.774 z" id="boundary" inkscape:connector-curvature="0" />
	<path style="fill:none;stroke:red;stroke-width:1px;stroke-linecap:butt;stroke-linejoin:miter;stroke-opacity:1" d="M 38.8805,22.1378 38.8805,36.09 z" id="boundary" inkscape:connector-curvature="0" />
	<path style="fill:none;stroke:red;stroke-width:1px;stroke-linecap:butt;stroke-linejoin:miter;stroke-opacity:1" d="M 91.8987,4 80.737,15.1617 z" id="boundary" inkscape:connector-curvature="0" />
	<path style="fill:none;stroke:red;stroke-width:1px;stroke-linecap:butt;stroke-linejoin:miter;stroke-opacity:1" d="M 45.8565,48.647 38.8805,70.9705 z" id="boundary" inkscape:connector-curvature="0" />
	<path style="fill:none;stroke:red;stroke-width:1px;stroke-linecap:butt;stroke-linejoin:miter;stroke-opacity:1" d="M 45.8565,48.647 38.8805,36.09 z" id="boundary" inkscape:connector-curvature="0" />
	<path style="fill:none;stroke:red;stroke-width:1px;stroke-linecap:butt;stroke-linejoin:miter;stroke-opacity:1" d="M 61.2039,31.9044 73.7609,38.8805 z" id="boundary" inkscape:connector-curvature="0" />
	<path style="fill:none;stroke:red;stroke-width:1px;stroke-linecap:butt;stroke-linejoin:miter;stroke-opacity:1" d="M 38.8805,22.1378 52.8326,20.7426 z" id="boundary" inkscape:connector-curvature="0" />
	<path style="fill:none;stroke:red;stroke-width:1px;stroke-linecap:butt;stroke-linejoin:miter;stroke-opacity:1" d="M 51.4374,193.75 37.4852,193.75 z" id="boundary" inkscape:connector-curvature="0" />
	<path style="fill:none;stroke:red;stroke-width:1px;stroke-linecap:butt;stroke-linejoin:miter;stroke-opacity:1" d="M 52.8326,20.7426 61.2039,31.9044 z" id="boundary" inkscape:connector-curvature="0" />
	<path style="fill:none;stroke:red;stroke-width:1px;stroke-linecap:butt;stroke-linejoin:miter;stroke-opacity:1" d="M 65.3896,193.75 51.4374,193.75 z" id="boundary" inkscape:connector-curvature="0" />
	<path style="fill:none;stroke:red;stroke-width:1px;stroke-linecap:butt;stroke-linejoin:miter;stroke-opacity:1" d="M 121.198,33.2996 130.965,44.4613 z" id="boundary" inkscape:connector-curvature="0" />
	<path style="fill:none;stroke:red;stroke-width:1px;stroke-linecap:butt;stroke-linejoin:miter;stroke-opacity:1" d="M 79.3418,193.75 65.3896,193.75 z" id="boundary" inkscape:connector-curvature="0" />
	<path style="fill:none;stroke:red;stroke-width:1px;stroke-linecap:butt;stroke-linejoin:miter;stroke-opacity:1" d="M 91.8987,4 104.456,10.9761 z" id="boundary" inkscape:connector-curvature="0" />
	<path style="fill:none;stroke:red;stroke-width:1px;stroke-linecap:butt;stroke-linejoin:miter;stroke-opacity:1" d="M 73.7609,38.8805 80.737,15.1617 z" id="boundary" inkscape:connector-curvature="0" />
	<path style="fill:none;stroke:red;stroke-width:1px;stroke-linecap:butt;stroke-linejoin:miter;stroke-opacity:1" d="M 104.456,10.9761 110.037,24.9283 z" id="boundary" inkscape:connector-curvature="0" />
	<path style="fill:none;stroke:red;stroke-width:1px;stroke-linecap:butt;stroke-linejoin:miter;stroke-opacity:1" d="M 93.294,193.75 79.3418,193.75 z" id="boundary" inkscape:connector-curvature="0" />
	<path style="fill:none;stroke:red;stroke-width:1px;stroke-linecap:butt;stroke-linejoin:miter;stroke-opacity:1" d="M 110.037,24.9283 121.198,33.2996 z" id="boundary" inkscape:connector-curvature="0" />
	<path style="fill:none;stroke:red;stroke-width:1px;stroke-linecap:butt;stroke-linejoin:miter;stroke-opacity:1" d="M 119.803,200.726 107.246,193.75 z" id="boundary" inkscape:connector-curvature="0" />
	<path style="fill:none;stroke:red;stroke-width:1px;stroke-linecap:butt;stroke-linejoin:miter;stroke-opacity:1" d="M 107.246,193.75 93.294,193.75 z" id="boundary" inkscape:connector-curvature="0" />
	<path style="fill:none;stroke:red;stroke-width:1px;stroke-linecap:butt;stroke-linejoin:miter;stroke-opacity:1" d="M 130.965,44.4613 142.127,54.2278 z" id="boundary" inkscape:connector-curvature="0" />
	<path style="fill:none;stroke:red;stroke-width:1px;stroke-linecap:butt;stroke-linejoin:miter;stroke-opacity:1" d="M 126.779,401.637 115.617,412.799 z" id="boundary" inkscape:connector-curvature="0" />
	<path style="fill:none;stroke:red;stroke-width:1px;stroke-linecap:butt;stroke-linejoin:miter;stroke-opacity:1" d="M 115.617,412.799 122.594,425.356 z" id="boundary" inkscape:connector-curvature="0" />
	<path style="fill:none;stroke:red;stroke-width:1px;stroke-linecap:butt;stroke-linejoin:miter;stroke-opacity:1" d="M 156.079,59.8087 142.127,54.2278 z" id="boundary" inkscape:connector-curvature="0" />
	<path style="fill:none;stroke:red;stroke-width:1px;stroke-linecap:butt;stroke-linejoin:miter;stroke-opacity:1" d="M 136.546,430.937 122.594,425.356 z" id="boundary" inkscape:connector-curvature="0" />
	<path style="fill:none;stroke:red;stroke-width:1px;stroke-linecap:butt;stroke-linejoin:miter;stroke-opacity:1" d="M 133.755,206.307 143.522,217.468 z" id="boundary" inkscape:connector-curvature="0" />
	<path style="fill:none;stroke:red;stroke-width:1px;stroke-linecap:butt;stroke-linejoin:miter;stroke-opacity:1" d="M 133.755,206.307 119.803,200.726 z" id="boundary" inkscape:connector-curvature="0" />
	<path style="fill:none;stroke:red;stroke-width:1px;stroke-linecap:butt;stroke-linejoin:miter;stroke-opacity:1" d="M 139.336,394.661 126.779,401.637 z" id="boundary" inkscape:connector-curvature="0" />
	<path style="fill:none;stroke:red;stroke-width:1px;stroke-linecap:butt;stroke-linejoin:miter;stroke-opacity:1" d="M 150.498,430.937 136.546,430.937 z" id="boundary" inkscape:connector-curvature="0" />
	<path style="fill:none;stroke:red;stroke-width:1px;stroke-linecap:butt;stroke-linejoin:miter;stroke-opacity:1" d="M 143.522,217.468 154.684,227.235 z" id="boundary" inkscape:connector-curvature="0" />
	<path style="fill:none;stroke:red;stroke-width:1px;stroke-linecap:butt;stroke-linejoin:miter;stroke-opacity:1" d="M 156.079,59.8087 170.031,59.8087 z" id="boundary" inkscape:connector-curvature="0" />
	<path style="fill:none;stroke:red;stroke-width:1px;stroke-linecap:butt;stroke-linejoin:miter;stroke-opacity:1" d="M 154.684,227.235 164.45,238.397 z" id="boundary" inkscape:connector-curvature="0" />
	<path style="fill:none;stroke:red;stroke-width:1px;stroke-linecap:butt;stroke-linejoin:miter;stroke-opacity:1" d="M 153.288,394.661 139.336,394.661 z" id="boundary" inkscape:connector-curvature="0" />
	<path style="fill:none;stroke:red;stroke-width:1px;stroke-linecap:butt;stroke-linejoin:miter;stroke-opacity:1" d="M 164.45,430.937 150.498,430.937 z" id="boundary" inkscape:connector-curvature="0" />
	<path style="fill:none;stroke:red;stroke-width:1px;stroke-linecap:butt;stroke-linejoin:miter;stroke-opacity:1" d="M 170.031,59.8087 183.983,59.8087 z" id="boundary" inkscape:connector-curvature="0" />
	<path style="fill:none;stroke:red;stroke-width:1px;stroke-linecap:butt;stroke-linejoin:miter;stroke-opacity:1" d="M 164.45,238.397 175.612,248.163 z" id="boundary" inkscape:connector-curvature="0" />
	<path style="fill:none;stroke:red;stroke-width:1px;stroke-linecap:butt;stroke-linejoin:miter;stroke-opacity:1" d="M 197.935,59.8087 183.983,59.8087 z" id="boundary" inkscape:connector-curvature="0" />
	<path style="fill:none;stroke:red;stroke-width:1px;stroke-linecap:butt;stroke-linejoin:miter;stroke-opacity:1" d="M 167.241,389.08 153.288,394.661 z" id="boundary" inkscape:connector-curvature="0" />
	<path style="fill:none;stroke:red;stroke-width:1px;stroke-linecap:butt;stroke-linejoin:miter;stroke-opacity:1" d="M 285.834,436.518 299.786,437.913 z" id="boundary" inkscape:connector-curvature="0" />
	<path style="fill:none;stroke:red;stroke-width:1px;stroke-linecap:butt;stroke-linejoin:miter;stroke-opacity:1" d="M 178.402,370.942 167.241,389.08 z" id="boundary" inkscape:connector-curvature="0" />
	<path style="fill:none;stroke:red;stroke-width:1px;stroke-linecap:butt;stroke-linejoin:miter;stroke-opacity:1" d="M 197.935,59.8087 211.887,59.8087 z" id="boundary" inkscape:connector-curvature="0" />
	<path style="fill:none;stroke:red;stroke-width:1px;stroke-linecap:butt;stroke-linejoin:miter;stroke-opacity:1" d="M 175.612,248.163 185.378,259.325 z" id="boundary" inkscape:connector-curvature="0" />
	<path style="fill:none;stroke:red;stroke-width:1px;stroke-linecap:butt;stroke-linejoin:miter;stroke-opacity:1" d="M 178.402,430.937 164.45,430.937 z" id="boundary" inkscape:connector-curvature="0" />
	<path style="fill:none;stroke:red;stroke-width:1px;stroke-linecap:butt;stroke-linejoin:miter;stroke-opacity:1" d="M 211.887,59.8087 225.84,59.8087 z" id="boundary" inkscape:connector-curvature="0" />
	<path style="fill:none;stroke:red;stroke-width:1px;stroke-linecap:butt;stroke-linejoin:miter;stroke-opacity:1" d="M 178.402,370.942 185.378,356.99 z" id="boundary" inkscape:connector-curvature="0" />
	<path style="fill:none;stroke:red;stroke-width:1px;stroke-linecap:butt;stroke-linejoin:miter;stroke-opacity:1" d="M 239.792,59.8087 252.349,66.7848 z" id="boundary" inkscape:connector-curvature="0" />
	<path style="fill:none;stroke:red;stroke-width:1px;stroke-linecap:butt;stroke-linejoin:miter;stroke-opacity:1" d="M 239.792,59.8087 225.84,59.8087 z" id="boundary" inkscape:connector-curvature="0" />
	<path style="fill:none;stroke:red;stroke-width:1px;stroke-linecap:butt;stroke-linejoin:miter;stroke-opacity:1" d="M 192.354,343.038 185.378,356.99 z" id="boundary" inkscape:connector-curvature="0" />
	<path style="fill:none;stroke:red;stroke-width:1px;stroke-linecap:butt;stroke-linejoin:miter;stroke-opacity:1" d="M 192.354,430.937 178.402,430.937 z" id="boundary" inkscape:connector-curvature="0" />
	<path style="fill:none;stroke:red;stroke-width:1px;stroke-linecap:butt;stroke-linejoin:miter;stroke-opacity:1" d="M 199.331,329.086 192.354,343.038 z" id="boundary" inkscape:connector-curvature="0" />
	<path style="fill:none;stroke:red;stroke-width:1px;stroke-linecap:butt;stroke-linejoin:miter;stroke-opacity:1" d="M 185.378,259.325 196.54,269.091 z" id="boundary" inkscape:connector-curvature="0" />
	<path style="fill:none;stroke:red;stroke-width:1px;stroke-linecap:butt;stroke-linejoin:miter;stroke-opacity:1" d="M 206.307,280.253 206.307,294.205 z" id="boundary" inkscape:connector-curvature="0" />
	<path style="fill:none;stroke:red;stroke-width:1px;stroke-linecap:butt;stroke-linejoin:miter;stroke-opacity:1" d="M 206.307,280.253 196.54,269.091 z" id="boundary" inkscape:connector-curvature="0" />
	<path style="fill:none;stroke:red;stroke-width:1px;stroke-linecap:butt;stroke-linejoin:miter;stroke-opacity:1" d="M 206.307,294.205 206.307,308.158 z" id="boundary" inkscape:connector-curvature="0" />
	<path style="fill:none;stroke:red;stroke-width:1px;stroke-linecap:butt;stroke-linejoin:miter;stroke-opacity:1" d="M 206.307,308.158 199.331,329.086 z" id="boundary" inkscape:connector-curvature="0" />
	<path style="fill:none;stroke:red;stroke-width:1px;stroke-linecap:butt;stroke-linejoin:miter;stroke-opacity:1" d="M 206.307,430.937 192.354,430.937 z" id="boundary" inkscape:connector-curvature="0" />
	<path style="fill:none;stroke:red;stroke-width:1px;stroke-linecap:butt;stroke-linejoin:miter;stroke-opacity:1" d="M 214.678,410.008 206.307,430.937 z" id="boundary" inkscape:connector-curvature="0" />
	<path style="fill:none;stroke:red;stroke-width:1px;stroke-linecap:butt;stroke-linejoin:miter;stroke-opacity:1" d="M 266.301,66.7848 278.858,73.7609 z" id="boundary" inkscape:connector-curvature="0" />
	<path style="fill:none;stroke:red;stroke-width:1px;stroke-linecap:butt;stroke-linejoin:miter;stroke-opacity:1" d="M 266.301,66.7848 252.349,66.7848 z" id="boundary" inkscape:connector-curvature="0" />
	<path style="fill:none;stroke:red;stroke-width:1px;stroke-linecap:butt;stroke-linejoin:miter;stroke-opacity:1" d="M 225.84,400.242 214.678,410.008 z" id="boundary" inkscape:connector-curvature="0" />
	<path style="fill:none;stroke:red;stroke-width:1px;stroke-linecap:butt;stroke-linejoin:miter;stroke-opacity:1" d="M 232.816,386.29 225.84,400.242 z" id="boundary" inkscape:connector-curvature="0" />
	<path style="fill:none;stroke:red;stroke-width:1px;stroke-linecap:butt;stroke-linejoin:miter;stroke-opacity:1" d="M 242.582,368.152 253.744,358.385 z" id="boundary" inkscape:connector-curvature="0" />
	<path style="fill:none;stroke:red;stroke-width:1px;stroke-linecap:butt;stroke-linejoin:miter;stroke-opacity:1" d="M 232.816,386.29 242.582,368.152 z" id="boundary" inkscape:connector-curvature="0" />
	<path style="fill:none;stroke:red;stroke-width:1px;stroke-linecap:butt;stroke-linejoin:miter;stroke-opacity:1" d="M 256.534,340.248 253.744,358.385 z" id="boundary" inkscape:connector-curvature="0" />
	<path style="fill:none;stroke:red;stroke-width:1px;stroke-linecap:butt;stroke-linejoin:miter;stroke-opacity:1" d="M 263.511,326.295 256.534,340.248 z" id="boundary" inkscape:connector-curvature="0" />
	<path style="fill:none;stroke:red;stroke-width:1px;stroke-linecap:butt;stroke-linejoin:miter;stroke-opacity:1" d="M 263.511,326.295 270.487,312.343 z" id="boundary" inkscape:connector-curvature="0" />
	<path style="fill:none;stroke:red;stroke-width:1px;stroke-linecap:butt;stroke-linejoin:miter;stroke-opacity:1" d="M 308.158,305.367 295.601,298.391 z" id="boundary" inkscape:connector-curvature="0" />
	<path style="fill:none;stroke:red;stroke-width:1px;stroke-linecap:butt;stroke-linejoin:miter;stroke-opacity:1" d="M 295.601,298.391 281.648,302.577 z" id="boundary" inkscape:connector-curvature="0" />
	<path style="fill:none;stroke:red;stroke-width:1px;stroke-linecap:butt;stroke-linejoin:miter;stroke-opacity:1" d="M 319.319,330.481 324.9,344.433 z" id="boundary" inkscape:connector-curvature="0" />
	<path style="fill:none;stroke:red;stroke-width:1px;stroke-linecap:butt;stroke-linejoin:miter;stroke-opacity:1" d="M 276.068,425.356 269.091,412.799 z" id="boundary" inkscape:connector-curvature="0" />
	<path style="fill:none;stroke:red;stroke-width:1px;stroke-linecap:butt;stroke-linejoin:miter;stroke-opacity:1" d="M 270.487,312.343 281.648,302.577 z" id="boundary" inkscape:connector-curvature="0" />
	<path style="fill:none;stroke:red;stroke-width:1px;stroke-linecap:butt;stroke-linejoin:miter;stroke-opacity:1" d="M 285.834,436.518 276.068,425.356 z" id="boundary" inkscape:connector-curvature="0" />
	<path style="fill:none;stroke:red;stroke-width:1px;stroke-linecap:butt;stroke-linejoin:miter;stroke-opacity:1" d="M 269.091,412.799 283.044,405.823 z" id="boundary" inkscape:connector-curvature="0" />
	<path style="fill:none;stroke:red;stroke-width:1px;stroke-linecap:butt;stroke-linejoin:miter;stroke-opacity:1" d="M 292.81,73.7609 278.858,73.7609 z" id="boundary" inkscape:connector-curvature="0" />
	<path style="fill:none;stroke:red;stroke-width:1px;stroke-linecap:butt;stroke-linejoin:miter;stroke-opacity:1" d="M 319.319,330.481 317.924,316.529 z" id="boundary" inkscape:connector-curvature="0" />
	<path style="fill:none;stroke:red;stroke-width:1px;stroke-linecap:butt;stroke-linejoin:miter;stroke-opacity:1" d="M 317.924,316.529 308.158,305.367 z" id="boundary" inkscape:connector-curvature="0" />
	<path style="fill:none;stroke:red;stroke-width:1px;stroke-linecap:butt;stroke-linejoin:miter;stroke-opacity:1" d="M 283.044,405.823 296.996,398.847 z" id="boundary" inkscape:connector-curvature="0" />
	<path style="fill:none;stroke:red;stroke-width:1px;stroke-linecap:butt;stroke-linejoin:miter;stroke-opacity:1" d="M 306.762,68.18 320.714,66.7848 z" id="boundary" inkscape:connector-curvature="0" />
	<path style="fill:none;stroke:red;stroke-width:1px;stroke-linecap:butt;stroke-linejoin:miter;stroke-opacity:1" d="M 306.762,68.18 292.81,73.7609 z" id="boundary" inkscape:connector-curvature="0" />
	<path style="fill:none;stroke:red;stroke-width:1px;stroke-linecap:butt;stroke-linejoin:miter;stroke-opacity:1" d="M 310.948,394.661 296.996,398.847 z" id="boundary" inkscape:connector-curvature="0" />
	<path style="fill:none;stroke:red;stroke-width:1px;stroke-linecap:butt;stroke-linejoin:miter;stroke-opacity:1" d="M 313.738,437.913 299.786,437.913 z" id="boundary" inkscape:connector-curvature="0" />
	<path style="fill:none;stroke:red;stroke-width:1px;stroke-linecap:butt;stroke-linejoin:miter;stroke-opacity:1" d="M 324.9,358.385 324.9,344.433 z" id="boundary" inkscape:connector-curvature="0" />
	<path style="fill:none;stroke:red;stroke-width:1px;stroke-linecap:butt;stroke-linejoin:miter;stroke-opacity:1" d="M 347.224,59.8087 333.271,59.8087 z" id="boundary" inkscape:connector-curvature="0" />
	<path style="fill:none;stroke:red;stroke-width:1px;stroke-linecap:butt;stroke-linejoin:miter;stroke-opacity:1" d="M 333.271,59.8087 320.714,66.7848 z" id="boundary" inkscape:connector-curvature="0" />
	<path style="fill:none;stroke:red;stroke-width:1px;stroke-linecap:butt;stroke-linejoin:miter;stroke-opacity:1" d="M 324.9,372.338 324.9,358.385 z" id="boundary" inkscape:connector-curvature="0" />
	<path style="fill:none;stroke:red;stroke-width:1px;stroke-linecap:butt;stroke-linejoin:miter;stroke-opacity:1" d="M 375.128,52.8326 389.08,52.8326 z" id="boundary" inkscape:connector-curvature="0" />
	<path style="fill:none;stroke:red;stroke-width:1px;stroke-linecap:butt;stroke-linejoin:miter;stroke-opacity:1" d="M 375.128,52.8326 361.176,55.6231 z" id="boundary" inkscape:connector-curvature="0" />
	<path style="fill:none;stroke:red;stroke-width:1px;stroke-linecap:butt;stroke-linejoin:miter;stroke-opacity:1" d="M 361.176,55.6231 347.224,59.8087 z" id="boundary" inkscape:connector-curvature="0" />
	<path style="fill:none;stroke:red;stroke-width:1px;stroke-linecap:butt;stroke-linejoin:miter;stroke-opacity:1" d="M 324.9,372.338 324.9,386.29 z" id="boundary" inkscape:connector-curvature="0" />
	<path style="fill:none;stroke:red;stroke-width:1px;stroke-linecap:butt;stroke-linejoin:miter;stroke-opacity:1" d="M 324.9,386.29 310.948,394.661 z" id="boundary" inkscape:connector-curvature="0" />
	<path style="fill:none;stroke:red;stroke-width:1px;stroke-linecap:butt;stroke-linejoin:miter;stroke-opacity:1" d="M 389.08,347.224 389.08,333.271 z" id="boundary" inkscape:connector-curvature="0" />
	<path style="fill:none;stroke:red;stroke-width:1px;stroke-linecap:butt;stroke-linejoin:miter;stroke-opacity:1" d="M 327.691,437.913 313.738,437.913 z" id="boundary" inkscape:connector-curvature="0" />
	<path style="fill:none;stroke:red;stroke-width:1px;stroke-linecap:butt;stroke-linejoin:miter;stroke-opacity:1" d="M 341.643,437.913 327.691,437.913 z" id="boundary" inkscape:connector-curvature="0" />
	<path style="fill:none;stroke:red;stroke-width:1px;stroke-linecap:butt;stroke-linejoin:miter;stroke-opacity:1" d="M 366.757,426.751 355.595,437.913 z" id="boundary" inkscape:connector-curvature="0" />
	<path style="fill:none;stroke:red;stroke-width:1px;stroke-linecap:butt;stroke-linejoin:miter;stroke-opacity:1" d="M 355.595,437.913 341.643,437.913 z" id="boundary" inkscape:connector-curvature="0" />
	<path style="fill:none;stroke:red;stroke-width:1px;stroke-linecap:butt;stroke-linejoin:miter;stroke-opacity:1" d="M 373.733,412.799 366.757,426.751 z" id="boundary" inkscape:connector-curvature="0" />
	<path style="fill:none;stroke:red;stroke-width:1px;stroke-linecap:butt;stroke-linejoin:miter;stroke-opacity:1" d="M 443.494,412.799 443.494,426.751 z" id="boundary" inkscape:connector-curvature="0" />
	<path style="fill:none;stroke:red;stroke-width:1px;stroke-linecap:butt;stroke-linejoin:miter;stroke-opacity:1" d="M 384.895,401.637 373.733,412.799 z" id="boundary" inkscape:connector-curvature="0" />
	<path style="fill:none;stroke:red;stroke-width:1px;stroke-linecap:butt;stroke-linejoin:miter;stroke-opacity:1" d="M 389.08,361.176 389.08,347.224 z" id="boundary" inkscape:connector-curvature="0" />
	<path style="fill:none;stroke:red;stroke-width:1px;stroke-linecap:butt;stroke-linejoin:miter;stroke-opacity:1" d="M 403.032,48.647 389.08,52.8326 z" id="boundary" inkscape:connector-curvature="0" />
	<path style="fill:none;stroke:red;stroke-width:1px;stroke-linecap:butt;stroke-linejoin:miter;stroke-opacity:1" d="M 396.056,312.343 396.056,298.391 z" id="boundary" inkscape:connector-curvature="0" />
	<path style="fill:none;stroke:red;stroke-width:1px;stroke-linecap:butt;stroke-linejoin:miter;stroke-opacity:1" d="M 389.08,361.176 389.08,375.128 z" id="boundary" inkscape:connector-curvature="0" />
	<path style="fill:none;stroke:red;stroke-width:1px;stroke-linecap:butt;stroke-linejoin:miter;stroke-opacity:1" d="M 389.08,333.271 396.056,312.343 z" id="boundary" inkscape:connector-curvature="0" />
	<path style="fill:none;stroke:red;stroke-width:1px;stroke-linecap:butt;stroke-linejoin:miter;stroke-opacity:1" d="M 389.08,375.128 384.895,401.637 z" id="boundary" inkscape:connector-curvature="0" />
	<path style="fill:none;stroke:red;stroke-width:1px;stroke-linecap:butt;stroke-linejoin:miter;stroke-opacity:1" d="M 430.937,277.463 416.985,277.463 z" id="boundary" inkscape:connector-curvature="0" />
	<path style="fill:none;stroke:red;stroke-width:1px;stroke-linecap:butt;stroke-linejoin:miter;stroke-opacity:1" d="M 457.446,270.487 443.494,270.487 z" id="boundary" inkscape:connector-curvature="0" />
	<path style="fill:none;stroke:red;stroke-width:1px;stroke-linecap:butt;stroke-linejoin:miter;stroke-opacity:1" d="M 443.494,270.487 430.937,277.463 z" id="boundary" inkscape:connector-curvature="0" />
	<path style="fill:none;stroke:red;stroke-width:1px;stroke-linecap:butt;stroke-linejoin:miter;stroke-opacity:1" d="M 396.056,298.391 403.032,284.439 z" id="boundary" inkscape:connector-curvature="0" />
	<path style="fill:none;stroke:red;stroke-width:1px;stroke-linecap:butt;stroke-linejoin:miter;stroke-opacity:1" d="M 403.032,284.439 416.985,277.463 z" id="boundary" inkscape:connector-curvature="0" />
	<path style="fill:none;stroke:red;stroke-width:1px;stroke-linecap:butt;stroke-linejoin:miter;stroke-opacity:1" d="M 416.985,41.6709 430.937,41.6709 z" id="boundary" inkscape:connector-curvature="0" />
	<path style="fill:none;stroke:red;stroke-width:1px;stroke-linecap:butt;stroke-linejoin:miter;stroke-opacity:1" d="M 416.985,41.6709 403.032,48.647 z" id="boundary" inkscape:connector-curvature="0" />
	<path style="fill:none;stroke:red;stroke-width:1px;stroke-linecap:butt;stroke-linejoin:miter;stroke-opacity:1" d="M 444.889,34.6948 458.841,31.9044 z" id="boundary" inkscape:connector-curvature="0" />
	<path style="fill:none;stroke:red;stroke-width:1px;stroke-linecap:butt;stroke-linejoin:miter;stroke-opacity:1" d="M 444.889,34.6948 430.937,41.6709 z" id="boundary" inkscape:connector-curvature="0" />
	<path style="fill:none;stroke:red;stroke-width:1px;stroke-linecap:butt;stroke-linejoin:miter;stroke-opacity:1" d="M 443.494,412.799 454.655,401.637 z" id="boundary" inkscape:connector-curvature="0" />
	<path style="fill:none;stroke:red;stroke-width:1px;stroke-linecap:butt;stroke-linejoin:miter;stroke-opacity:1" d="M 454.655,436.518 443.494,426.751 z" id="boundary" inkscape:connector-curvature="0" />
	<path style="fill:none;stroke:red;stroke-width:1px;stroke-linecap:butt;stroke-linejoin:miter;stroke-opacity:1" d="M 454.655,401.637 468.608,394.661 z" id="boundary" inkscape:connector-curvature="0" />
	<path style="fill:none;stroke:red;stroke-width:1px;stroke-linecap:butt;stroke-linejoin:miter;stroke-opacity:1" d="M 468.608,437.913 454.655,436.518 z" id="boundary" inkscape:connector-curvature="0" />
	<path style="fill:none;stroke:red;stroke-width:1px;stroke-linecap:butt;stroke-linejoin:miter;stroke-opacity:1" d="M 520.231,336.062 520.231,322.11 z" id="boundary" inkscape:connector-curvature="0" />
	<path style="fill:none;stroke:red;stroke-width:1px;stroke-linecap:butt;stroke-linejoin:miter;stroke-opacity:1" d="M 471.398,270.487 457.446,270.487 z" id="boundary" inkscape:connector-curvature="0" />
	<path style="fill:none;stroke:red;stroke-width:1px;stroke-linecap:butt;stroke-linejoin:miter;stroke-opacity:1" d="M 472.793,27.7187 486.745,31.9044 z" id="boundary" inkscape:connector-curvature="0" />
	<path style="fill:none;stroke:red;stroke-width:1px;stroke-linecap:butt;stroke-linejoin:miter;stroke-opacity:1" d="M 472.793,27.7187 458.841,31.9044 z" id="boundary" inkscape:connector-curvature="0" />
	<path style="fill:none;stroke:red;stroke-width:1px;stroke-linecap:butt;stroke-linejoin:miter;stroke-opacity:1" d="M 513.255,295.601 503.488,284.439 z" id="boundary" inkscape:connector-curvature="0" />
	<path style="fill:none;stroke:red;stroke-width:1px;stroke-linecap:butt;stroke-linejoin:miter;stroke-opacity:1" d="M 482.56,394.661 468.608,394.661 z" id="boundary" inkscape:connector-curvature="0" />
	<path style="fill:none;stroke:red;stroke-width:1px;stroke-linecap:butt;stroke-linejoin:miter;stroke-opacity:1" d="M 485.35,270.487 471.398,270.487 z" id="boundary" inkscape:connector-curvature="0" />
	<path style="fill:none;stroke:red;stroke-width:1px;stroke-linecap:butt;stroke-linejoin:miter;stroke-opacity:1" d="M 482.56,437.913 468.608,437.913 z" id="boundary" inkscape:connector-curvature="0" />
	<path style="fill:none;stroke:red;stroke-width:1px;stroke-linecap:butt;stroke-linejoin:miter;stroke-opacity:1" d="M 520.231,308.158 520.231,322.11 z" id="boundary" inkscape:connector-curvature="0" />
	<path style="fill:none;stroke:red;stroke-width:1px;stroke-linecap:butt;stroke-linejoin:miter;stroke-opacity:1" d="M 520.231,308.158 513.255,295.601 z" id="boundary" inkscape:connector-curvature="0" />
	<path style="fill:none;stroke:red;stroke-width:1px;stroke-linecap:butt;stroke-linejoin:miter;stroke-opacity:1" d="M 496.512,394.661 482.56,394.661 z" id="boundary" inkscape:connector-curvature="0" />
	<path style="fill:none;stroke:red;stroke-width:1px;stroke-linecap:butt;stroke-linejoin:miter;stroke-opacity:1" d="M 499.302,270.487 485.35,270.487 z" id="boundary" inkscape:connector-curvature="0" />
	<path style="fill:none;stroke:red;stroke-width:1px;stroke-linecap:butt;stroke-linejoin:miter;stroke-opacity:1" d="M 499.302,270.487 503.488,284.439 z" id="boundary" inkscape:connector-curvature="0" />
	<path style="fill:none;stroke:red;stroke-width:1px;stroke-linecap:butt;stroke-linejoin:miter;stroke-opacity:1" d="M 496.512,437.913 482.56,437.913 z" id="boundary" inkscape:connector-curvature="0" />
	<path style="fill:none;stroke:red;stroke-width:1px;stroke-linecap:butt;stroke-linejoin:miter;stroke-opacity:1" d="M 500.698,31.9044 486.745,31.9044 z" id="boundary" inkscape:connector-curvature="0" />
	<path style="fill:none;stroke:red;stroke-width:1px;stroke-linecap:butt;stroke-linejoin:miter;stroke-opacity:1" d="M 496.512,394.661 506.278,377.918 z" id="boundary" inkscape:connector-curvature="0" />
	<path style="fill:none;stroke:red;stroke-width:1px;stroke-linecap:butt;stroke-linejoin:miter;stroke-opacity:1" d="M 514.65,31.9044 500.698,31.9044 z" id="boundary" inkscape:connector-curvature="0" />
	<path style="fill:none;stroke:red;stroke-width:1px;stroke-linecap:butt;stroke-linejoin:miter;stroke-opacity:1" d="M 510.464,436.518 496.512,437.913 z" id="boundary" inkscape:connector-curvature="0" />
	<path style="fill:none;stroke:red;stroke-width:1px;stroke-linecap:butt;stroke-linejoin:miter;stroke-opacity:1" d="M 514.65,31.9044 528.602,31.9044 z" id="boundary" inkscape:connector-curvature="0" />
	<path style="fill:none;stroke:red;stroke-width:1px;stroke-linecap:butt;stroke-linejoin:miter;stroke-opacity:1" d="M 517.44,366.757 506.278,377.918 z" id="boundary" inkscape:connector-curvature="0" />
	<path style="fill:none;stroke:red;stroke-width:1px;stroke-linecap:butt;stroke-linejoin:miter;stroke-opacity:1" d="M 528.602,31.9044 542.554,31.9044 z" id="boundary" inkscape:connector-curvature="0" />
	<path style="fill:none;stroke:red;stroke-width:1px;stroke-linecap:butt;stroke-linejoin:miter;stroke-opacity:1" d="M 520.231,350.014 517.44,366.757 z" id="boundary" inkscape:connector-curvature="0" />
	<path style="fill:none;stroke:red;stroke-width:1px;stroke-linecap:butt;stroke-linejoin:miter;stroke-opacity:1" d="M 570.459,31.9044 556.506,31.9044 z" id="boundary" inkscape:connector-curvature="0" />
	<path style="fill:none;stroke:red;stroke-width:1px;stroke-linecap:butt;stroke-linejoin:miter;stroke-opacity:1" d="M 520.231,336.062 520.231,350.014 z" id="boundary" inkscape:connector-curvature="0" />
	<path style="fill:none;stroke:red;stroke-width:1px;stroke-linecap:butt;stroke-linejoin:miter;stroke-opacity:1" d="M 521.626,423.961 510.464,436.518 z" id="boundary" inkscape:connector-curvature="0" />
	<path style="fill:none;stroke:red;stroke-width:1px;stroke-linecap:butt;stroke-linejoin:miter;stroke-opacity:1" d="M 532.788,414.194 546.74,407.218 z" id="boundary" inkscape:connector-curvature="0" />
	<path style="fill:none;stroke:red;stroke-width:1px;stroke-linecap:butt;stroke-linejoin:miter;stroke-opacity:1" d="M 532.788,414.194 521.626,423.961 z" id="boundary" inkscape:connector-curvature="0" />
	<path style="fill:none;stroke:red;stroke-width:1px;stroke-linecap:butt;stroke-linejoin:miter;stroke-opacity:1" d="M 556.506,31.9044 542.554,31.9044 z" id="boundary" inkscape:connector-curvature="0" />
	<path style="fill:none;stroke:red;stroke-width:1px;stroke-linecap:butt;stroke-linejoin:miter;stroke-opacity:1" d="M 696.028,137.941 696.028,151.893 z" id="boundary" inkscape:connector-curvature="0" />
	<path style="fill:none;stroke:red;stroke-width:1px;stroke-linecap:butt;stroke-linejoin:miter;stroke-opacity:1" d="M 598.363,31.9044 584.411,31.9044 z" id="boundary" inkscape:connector-curvature="0" />
	<path style="fill:none;stroke:red;stroke-width:1px;stroke-linecap:butt;stroke-linejoin:miter;stroke-opacity:1" d="M 570.459,389.08 581.62,379.314 z" id="boundary" inkscape:connector-curvature="0" />
	<path style="fill:none;stroke:red;stroke-width:1px;stroke-linecap:butt;stroke-linejoin:miter;stroke-opacity:1" d="M 556.506,396.056 546.74,407.218 z" id="boundary" inkscape:connector-curvature="0" />
	<path style="fill:none;stroke:red;stroke-width:1px;stroke-linecap:butt;stroke-linejoin:miter;stroke-opacity:1" d="M 584.411,31.9044 570.459,31.9044 z" id="boundary" inkscape:connector-curvature="0" />
	<path style="fill:none;stroke:red;stroke-width:1px;stroke-linecap:butt;stroke-linejoin:miter;stroke-opacity:1" d="M 570.459,389.08 556.506,396.056 z" id="boundary" inkscape:connector-curvature="0" />
	<path style="fill:none;stroke:red;stroke-width:1px;stroke-linecap:butt;stroke-linejoin:miter;stroke-opacity:1" d="M 659.752,405.823 668.124,416.985 z" id="boundary" inkscape:connector-curvature="0" />
	<path style="fill:none;stroke:red;stroke-width:1px;stroke-linecap:butt;stroke-linejoin:miter;stroke-opacity:1" d="M 659.752,391.871 659.752,405.823 z" id="boundary" inkscape:connector-curvature="0" />
	<path style="fill:none;stroke:red;stroke-width:1px;stroke-linecap:butt;stroke-linejoin:miter;stroke-opacity:1" d="M 591.387,361.176 581.62,379.314 z" id="boundary" inkscape:connector-curvature="0" />
	<path style="fill:none;stroke:red;stroke-width:1px;stroke-linecap:butt;stroke-linejoin:miter;stroke-opacity:1" d="M 640.219,309.553 654.172,312.343 z" id="boundary" inkscape:connector-curvature="0" />
	<path style="fill:none;stroke:red;stroke-width:1px;stroke-linecap:butt;stroke-linejoin:miter;stroke-opacity:1" d="M 605.339,298.391 598.363,312.343 z" id="boundary" inkscape:connector-curvature="0" />
	<path style="fill:none;stroke:red;stroke-width:1px;stroke-linecap:butt;stroke-linejoin:miter;stroke-opacity:1" d="M 598.363,340.248 591.387,361.176 z" id="boundary" inkscape:connector-curvature="0" />
	<path style="fill:none;stroke:red;stroke-width:1px;stroke-linecap:butt;stroke-linejoin:miter;stroke-opacity:1" d="M 601.153,326.295 598.363,340.248 z" id="boundary" inkscape:connector-curvature="0" />
	<path style="fill:none;stroke:red;stroke-width:1px;stroke-linecap:butt;stroke-linejoin:miter;stroke-opacity:1" d="M 601.153,326.295 598.363,312.343 z" id="boundary" inkscape:connector-curvature="0" />
	<path style="fill:none;stroke:red;stroke-width:1px;stroke-linecap:butt;stroke-linejoin:miter;stroke-opacity:1" d="M 630.453,298.391 640.219,309.553 z" id="boundary" inkscape:connector-curvature="0" />
	<path style="fill:none;stroke:red;stroke-width:1px;stroke-linecap:butt;stroke-linejoin:miter;stroke-opacity:1" d="M 612.315,29.1139 626.267,31.9044 z" id="boundary" inkscape:connector-curvature="0" />
	<path style="fill:none;stroke:red;stroke-width:1px;stroke-linecap:butt;stroke-linejoin:miter;stroke-opacity:1" d="M 612.315,29.1139 598.363,31.9044 z" id="boundary" inkscape:connector-curvature="0" />
	<path style="fill:none;stroke:red;stroke-width:1px;stroke-linecap:butt;stroke-linejoin:miter;stroke-opacity:1" d="M 617.896,291.415 630.453,298.391 z" id="boundary" inkscape:connector-curvature="0" />
	<path style="fill:none;stroke:red;stroke-width:1px;stroke-linecap:butt;stroke-linejoin:miter;stroke-opacity:1" d="M 617.896,291.415 605.339,298.391 z" id="boundary" inkscape:connector-curvature="0" />
	<path style="fill:none;stroke:red;stroke-width:1px;stroke-linecap:butt;stroke-linejoin:miter;stroke-opacity:1" d="M 626.267,31.9044 640.219,36.09 z" id="boundary" inkscape:connector-curvature="0" />
	<path style="fill:none;stroke:red;stroke-width:1px;stroke-linecap:butt;stroke-linejoin:miter;stroke-opacity:1" d="M 640.219,36.09 652.776,43.0661 z" id="boundary" inkscape:connector-curvature="0" />
	<path style="fill:none;stroke:red;stroke-width:1px;stroke-linecap:butt;stroke-linejoin:miter;stroke-opacity:1" d="M 666.729,319.319 654.172,312.343 z" id="boundary" inkscape:connector-curvature="0" />
	<path style="fill:none;stroke:red;stroke-width:1px;stroke-linecap:butt;stroke-linejoin:miter;stroke-opacity:1" d="M 680.681,45.8565 666.729,43.0661 z" id="boundary" inkscape:connector-curvature="0" />
	<path style="fill:none;stroke:red;stroke-width:1px;stroke-linecap:butt;stroke-linejoin:miter;stroke-opacity:1" d="M 666.729,43.0661 652.776,43.0661 z" id="boundary" inkscape:connector-curvature="0" />
	<path style="fill:none;stroke:red;stroke-width:1px;stroke-linecap:butt;stroke-linejoin:miter;stroke-opacity:1" d="M 707.19,52.8326 694.633,45.8565 z" id="boundary" inkscape:connector-curvature="0" />
	<path style="fill:none;stroke:red;stroke-width:1px;stroke-linecap:butt;stroke-linejoin:miter;stroke-opacity:1" d="M 694.633,45.8565 680.681,45.8565 z" id="boundary" inkscape:connector-curvature="0" />
	<path style="fill:none;stroke:red;stroke-width:1px;stroke-linecap:butt;stroke-linejoin:miter;stroke-opacity:1" d="M 659.752,391.871 670.914,380.709 z" id="boundary" inkscape:connector-curvature="0" />
	<path style="fill:none;stroke:red;stroke-width:1px;stroke-linecap:butt;stroke-linejoin:miter;stroke-opacity:1" d="M 682.076,416.985 668.124,416.985 z" id="boundary" inkscape:connector-curvature="0" />
	<path style="fill:none;stroke:red;stroke-width:1px;stroke-linecap:butt;stroke-linejoin:miter;stroke-opacity:1" d="M 679.286,326.295 666.729,319.319 z" id="boundary" inkscape:connector-curvature="0" />
	<path style="fill:none;stroke:red;stroke-width:1px;stroke-linecap:butt;stroke-linejoin:miter;stroke-opacity:1" d="M 679.286,326.295 689.052,337.457 z" id="boundary" inkscape:connector-curvature="0" />
	<path style="fill:none;stroke:red;stroke-width:1px;stroke-linecap:butt;stroke-linejoin:miter;stroke-opacity:1" d="M 696.028,151.893 703.004,164.45 z" id="boundary" inkscape:connector-curvature="0" />
	<path style="fill:none;stroke:red;stroke-width:1px;stroke-linecap:butt;stroke-linejoin:miter;stroke-opacity:1" d="M 703.004,164.45 703.004,178.402 z" id="boundary" inkscape:connector-curvature="0" />
	<path style="fill:none;stroke:red;stroke-width:1px;stroke-linecap:butt;stroke-linejoin:miter;stroke-opacity:1" d="M 684.866,380.709 670.914,380.709 z" id="boundary" inkscape:connector-curvature="0" />
	<path style="fill:none;stroke:red;stroke-width:1px;stroke-linecap:butt;stroke-linejoin:miter;stroke-opacity:1" d="M 703.004,192.354 703.004,178.402 z" id="boundary" inkscape:connector-curvature="0" />
	<path style="fill:none;stroke:red;stroke-width:1px;stroke-linecap:butt;stroke-linejoin:miter;stroke-opacity:1" d="M 696.028,416.985 682.076,416.985 z" id="boundary" inkscape:connector-curvature="0" />
	<path style="fill:none;stroke:red;stroke-width:1px;stroke-linecap:butt;stroke-linejoin:miter;stroke-opacity:1" d="M 689.052,337.457 694.633,351.409 z" id="boundary" inkscape:connector-curvature="0" />
	<path style="fill:none;stroke:red;stroke-width:1px;stroke-linecap:butt;stroke-linejoin:miter;stroke-opacity:1" d="M 694.633,365.361 694.633,351.409 z" id="boundary" inkscape:connector-curvature="0" />
	<path style="fill:none;stroke:red;stroke-width:1px;stroke-linecap:butt;stroke-linejoin:miter;stroke-opacity:1" d="M 684.866,380.709 694.633,365.361 z" id="boundary" inkscape:connector-curvature="0" />
	<path style="fill:none;stroke:red;stroke-width:1px;stroke-linecap:butt;stroke-linejoin:miter;stroke-opacity:1" d="M 703.004,220.259 703.004,206.307 z" id="boundary" inkscape:connector-curvature="0" />
	<path style="fill:none;stroke:red;stroke-width:1px;stroke-linecap:butt;stroke-linejoin:miter;stroke-opacity:1" d="M 703.004,206.307 703.004,192.354 z" id="boundary" inkscape:connector-curvature="0" />
	<path style="fill:none;stroke:red;stroke-width:1px;stroke-linecap:butt;stroke-linejoin:miter;stroke-opacity:1" d="M 703.004,220.259 703.004,234.211 z" id="boundary" inkscape:connector-curvature="0" />
	<path style="fill:none;stroke:red;stroke-width:1px;stroke-linecap:butt;stroke-linejoin:miter;stroke-opacity:1" d="M 703.004,234.211 703.004,248.163 z" id="boundary" inkscape:connector-curvature="0" />
	<path style="fill:none;stroke:red;stroke-width:1px;stroke-linecap:butt;stroke-linejoin:miter;stroke-opacity:1" d="M 709.98,416.985 696.028,416.985 z" id="boundary" inkscape:connector-curvature="0" />
	<path style="fill:none;stroke:red;stroke-width:1px;stroke-linecap:butt;stroke-linejoin:miter;stroke-opacity:1" d="M 696.028,137.941 708.585,130.965 z" id="boundary" inkscape:connector-curvature="0" />
	<path style="fill:none;stroke:red;stroke-width:1px;stroke-linecap:butt;stroke-linejoin:miter;stroke-opacity:1" d="M 709.98,260.72 703.004,248.163 z" id="boundary" inkscape:connector-curvature="0" />
	<path style="fill:none;stroke:red;stroke-width:1px;stroke-linecap:butt;stroke-linejoin:miter;stroke-opacity:1" d="M 722.537,130.965 708.585,130.965 z" id="boundary" inkscape:connector-curvature="0" />
	<path style="fill:none;stroke:red;stroke-width:1px;stroke-linecap:butt;stroke-linejoin:miter;stroke-opacity:1" d="M 709.98,260.72 721.142,269.091 z" id="boundary" inkscape:connector-curvature="0" />
	<path style="fill:none;stroke:red;stroke-width:1px;stroke-linecap:butt;stroke-linejoin:miter;stroke-opacity:1" d="M 722.537,130.965 736.489,130.965 z" id="boundary" inkscape:connector-curvature="0" />
	<path style="fill:none;stroke:red;stroke-width:1px;stroke-linecap:butt;stroke-linejoin:miter;stroke-opacity:1" d="M 721.142,269.091 733.699,276.068 z" id="boundary" inkscape:connector-curvature="0" />
	<path style="fill:none;stroke:red;stroke-width:1px;stroke-linecap:butt;stroke-linejoin:miter;stroke-opacity:1" d="M 733.699,276.068 737.885,290.02 z" id="boundary" inkscape:connector-curvature="0" />
	<path style="fill:none;stroke:red;stroke-width:1px;stroke-linecap:butt;stroke-linejoin:miter;stroke-opacity:1" d="M 737.885,290.02 737.885,303.972 z" id="boundary" inkscape:connector-curvature="0" />
	<path style="fill:none;stroke:red;stroke-width:1px;stroke-linecap:butt;stroke-linejoin:miter;stroke-opacity:1" d="M 736.489,130.965 750.442,130.965 z" id="boundary" inkscape:connector-curvature="0" />
	<path style="fill:none;stroke:red;stroke-width:1px;stroke-linecap:butt;stroke-linejoin:miter;stroke-opacity:1" d="M 707.19,52.8326 721.142,54.2278 z" id="boundary" inkscape:connector-curvature="0" />
	<path style="fill:none;stroke:red;stroke-width:1px;stroke-linecap:butt;stroke-linejoin:miter;stroke-opacity:1" d="M 723.932,410.008 709.98,416.985 z" id="boundary" inkscape:connector-curvature="0" />
	<path style="fill:none;stroke:red;stroke-width:1px;stroke-linecap:butt;stroke-linejoin:miter;stroke-opacity:1" d="M 737.885,317.924 737.885,303.972 z" id="boundary" inkscape:connector-curvature="0" />
	<path style="fill:none;stroke:red;stroke-width:1px;stroke-linecap:butt;stroke-linejoin:miter;stroke-opacity:1" d="M 735.094,400.242 737.885,373.733 z" id="boundary" inkscape:connector-curvature="0" />
	<path style="fill:none;stroke:red;stroke-width:1px;stroke-linecap:butt;stroke-linejoin:miter;stroke-opacity:1" d="M 721.142,54.2278 735.094,54.2278 z" id="boundary" inkscape:connector-curvature="0" />
	<path style="fill:none;stroke:red;stroke-width:1px;stroke-linecap:butt;stroke-linejoin:miter;stroke-opacity:1" d="M 735.094,54.2278 749.046,59.8087 z" id="boundary" inkscape:connector-curvature="0" />
	<path style="fill:none;stroke:red;stroke-width:1px;stroke-linecap:butt;stroke-linejoin:miter;stroke-opacity:1" d="M 735.094,400.242 723.932,410.008 z" id="boundary" inkscape:connector-curvature="0" />
	<path style="fill:none;stroke:red;stroke-width:1px;stroke-linecap:butt;stroke-linejoin:miter;stroke-opacity:1" d="M 776.951,137.941 764.394,130.965 z" id="boundary" inkscape:connector-curvature="0" />
	<path style="fill:none;stroke:red;stroke-width:1px;stroke-linecap:butt;stroke-linejoin:miter;stroke-opacity:1" d="M 764.394,130.965 750.442,130.965 z" id="boundary" inkscape:connector-curvature="0" />
	<path style="fill:none;stroke:red;stroke-width:1px;stroke-linecap:butt;stroke-linejoin:miter;stroke-opacity:1" d="M 938.796,284.439 945.772,296.996 z" id="boundary" inkscape:connector-curvature="0" />
	<path style="fill:none;stroke:red;stroke-width:1px;stroke-linecap:butt;stroke-linejoin:miter;stroke-opacity:1" d="M 945.772,296.996 945.772,310.948 z" id="boundary" inkscape:connector-curvature="0" />
	<path style="fill:none;stroke:red;stroke-width:1px;stroke-linecap:butt;stroke-linejoin:miter;stroke-opacity:1" d="M 737.885,331.876 737.885,317.924 z" id="boundary" inkscape:connector-curvature="0" />
	<path style="fill:none;stroke:red;stroke-width:1px;stroke-linecap:butt;stroke-linejoin:miter;stroke-opacity:1" d="M 761.603,66.7848 749.046,59.8087 z" id="boundary" inkscape:connector-curvature="0" />
	<path style="fill:none;stroke:red;stroke-width:1px;stroke-linecap:butt;stroke-linejoin:miter;stroke-opacity:1" d="M 737.885,345.828 737.885,331.876 z" id="boundary" inkscape:connector-curvature="0" />
	<path style="fill:none;stroke:red;stroke-width:1px;stroke-linecap:butt;stroke-linejoin:miter;stroke-opacity:1" d="M 737.885,345.828 737.885,359.781 z" id="boundary" inkscape:connector-curvature="0" />
	<path style="fill:none;stroke:red;stroke-width:1px;stroke-linecap:butt;stroke-linejoin:miter;stroke-opacity:1" d="M 737.885,359.781 737.885,373.733 z" id="boundary" inkscape:connector-curvature="0" />
	<path style="fill:none;stroke:red;stroke-width:1px;stroke-linecap:butt;stroke-linejoin:miter;stroke-opacity:1" d="M 790.903,137.941 803.46,144.917 z" id="boundary" inkscape:connector-curvature="0" />
	<path style="fill:none;stroke:red;stroke-width:1px;stroke-linecap:butt;stroke-linejoin:miter;stroke-opacity:1" d="M 790.903,137.941 776.951,137.941 z" id="boundary" inkscape:connector-curvature="0" />
	<path style="fill:none;stroke:red;stroke-width:1px;stroke-linecap:butt;stroke-linejoin:miter;stroke-opacity:1" d="M 803.46,144.917 817.412,144.917 z" id="boundary" inkscape:connector-curvature="0" />
	<path style="fill:none;stroke:red;stroke-width:1px;stroke-linecap:butt;stroke-linejoin:miter;stroke-opacity:1" d="M 817.412,144.917 831.364,150.498 z" id="boundary" inkscape:connector-curvature="0" />
	<path style="fill:none;stroke:red;stroke-width:1px;stroke-linecap:butt;stroke-linejoin:miter;stroke-opacity:1" d="M 831.364,150.498 845.316,151.893 z" id="boundary" inkscape:connector-curvature="0" />
	<path style="fill:none;stroke:red;stroke-width:1px;stroke-linecap:butt;stroke-linejoin:miter;stroke-opacity:1" d="M 845.316,151.893 857.873,158.869 z" id="boundary" inkscape:connector-curvature="0" />
	<path style="fill:none;stroke:red;stroke-width:1px;stroke-linecap:butt;stroke-linejoin:miter;stroke-opacity:1" d="M 857.873,158.869 869.035,167.241 z" id="boundary" inkscape:connector-curvature="0" />
	<path style="fill:none;stroke:red;stroke-width:1px;stroke-linecap:butt;stroke-linejoin:miter;stroke-opacity:1" d="M 775.556,66.7848 788.113,73.7609 z" id="boundary" inkscape:connector-curvature="0" />
	<path style="fill:none;stroke:red;stroke-width:1px;stroke-linecap:butt;stroke-linejoin:miter;stroke-opacity:1" d="M 775.556,66.7848 761.603,66.7848 z" id="boundary" inkscape:connector-curvature="0" />
	<path style="fill:none;stroke:red;stroke-width:1px;stroke-linecap:butt;stroke-linejoin:miter;stroke-opacity:1" d="M 869.035,167.241 882.987,172.821 z" id="boundary" inkscape:connector-curvature="0" />
	<path style="fill:none;stroke:red;stroke-width:1px;stroke-linecap:butt;stroke-linejoin:miter;stroke-opacity:1" d="M 882.987,172.821 891.359,183.983 z" id="boundary" inkscape:connector-curvature="0" />
	<path style="fill:none;stroke:red;stroke-width:1px;stroke-linecap:butt;stroke-linejoin:miter;stroke-opacity:1" d="M 802.065,73.7609 788.113,73.7609 z" id="boundary" inkscape:connector-curvature="0" />
	<path style="fill:none;stroke:red;stroke-width:1px;stroke-linecap:butt;stroke-linejoin:miter;stroke-opacity:1" d="M 816.017,73.7609 828.574,80.737 z" id="boundary" inkscape:connector-curvature="0" />
	<path style="fill:none;stroke:red;stroke-width:1px;stroke-linecap:butt;stroke-linejoin:miter;stroke-opacity:1" d="M 816.017,73.7609 802.065,73.7609 z" id="boundary" inkscape:connector-curvature="0" />
	<path style="fill:none;stroke:red;stroke-width:1px;stroke-linecap:butt;stroke-linejoin:miter;stroke-opacity:1" d="M 891.359,183.983 902.52,193.75 z" id="boundary" inkscape:connector-curvature="0" />
	<path style="fill:none;stroke:red;stroke-width:1px;stroke-linecap:butt;stroke-linejoin:miter;stroke-opacity:1" d="M 902.52,193.75 910.892,204.911 z" id="boundary" inkscape:connector-curvature="0" />
	<path style="fill:none;stroke:red;stroke-width:1px;stroke-linecap:butt;stroke-linejoin:miter;stroke-opacity:1" d="M 917.868,217.468 910.892,204.911 z" id="boundary" inkscape:connector-curvature="0" />
	<path style="fill:none;stroke:red;stroke-width:1px;stroke-linecap:butt;stroke-linejoin:miter;stroke-opacity:1" d="M 842.526,84.9226 828.574,80.737 z" id="boundary" inkscape:connector-curvature="0" />
	<path style="fill:none;stroke:red;stroke-width:1px;stroke-linecap:butt;stroke-linejoin:miter;stroke-opacity:1" d="M 842.526,84.9226 855.083,91.8987 z" id="boundary" inkscape:connector-curvature="0" />
	<path style="fill:none;stroke:red;stroke-width:1px;stroke-linecap:butt;stroke-linejoin:miter;stroke-opacity:1" d="M 917.868,217.468 924.844,230.025 z" id="boundary" inkscape:connector-curvature="0" />
	<path style="fill:none;stroke:red;stroke-width:1px;stroke-linecap:butt;stroke-linejoin:miter;stroke-opacity:1" d="M 924.844,230.025 924.844,243.977 z" id="boundary" inkscape:connector-curvature="0" />
	<path style="fill:none;stroke:red;stroke-width:1px;stroke-linecap:butt;stroke-linejoin:miter;stroke-opacity:1" d="M 869.035,94.6892 855.083,91.8987 z" id="boundary" inkscape:connector-curvature="0" />
	<path style="fill:none;stroke:red;stroke-width:1px;stroke-linecap:butt;stroke-linejoin:miter;stroke-opacity:1" d="M 882.987,97.4796 891.359,108.641 z" id="boundary" inkscape:connector-curvature="0" />
	<path style="fill:none;stroke:red;stroke-width:1px;stroke-linecap:butt;stroke-linejoin:miter;stroke-opacity:1" d="M 882.987,97.4796 869.035,94.6892 z" id="boundary" inkscape:connector-curvature="0" />
	<path style="fill:none;stroke:red;stroke-width:1px;stroke-linecap:butt;stroke-linejoin:miter;stroke-opacity:1" d="M 931.82,256.534 936.006,270.487 z" id="boundary" inkscape:connector-curvature="0" />
	<path style="fill:none;stroke:red;stroke-width:1px;stroke-linecap:butt;stroke-linejoin:miter;stroke-opacity:1" d="M 931.82,256.534 924.844,243.977 z" id="boundary" inkscape:connector-curvature="0" />
	<path style="fill:none;stroke:red;stroke-width:1px;stroke-linecap:butt;stroke-linejoin:miter;stroke-opacity:1" d="M 905.311,112.827 917.868,119.803 z" id="boundary" inkscape:connector-curvature="0" />
	<path style="fill:none;stroke:red;stroke-width:1px;stroke-linecap:butt;stroke-linejoin:miter;stroke-opacity:1" d="M 891.359,108.641 905.311,112.827 z" id="boundary" inkscape:connector-curvature="0" />
	<path style="fill:none;stroke:red;stroke-width:1px;stroke-linecap:butt;stroke-linejoin:miter;stroke-opacity:1" d="M 929.03,129.57 917.868,119.803 z" id="boundary" inkscape:connector-curvature="0" />
	<path style="fill:none;stroke:red;stroke-width:1px;stroke-linecap:butt;stroke-linejoin:miter;stroke-opacity:1" d="M 938.796,284.439 936.006,270.487 z" id="boundary" inkscape:connector-curvature="0" />
	<path style="fill:none;stroke:red;stroke-width:1px;stroke-linecap:butt;stroke-linejoin:miter;stroke-opacity:1" d="M 929.03,129.57 938.796,140.731 z" id="boundary" inkscape:connector-curvature="0" />
	<path style="fill:none;stroke:red;stroke-width:1px;stroke-linecap:butt;stroke-linejoin:miter;stroke-opacity:1" d="M 949.958,150.498 938.796,140.731 z" id="boundary" inkscape:connector-curvature="0" />
	<path style="fill:none;stroke:red;stroke-width:1px;stroke-linecap:butt;stroke-linejoin:miter;stroke-opacity:1" d="M 959.724,161.66 949.958,150.498 z" id="boundary" inkscape:connector-curvature="0" />
	<path style="fill:none;stroke:red;stroke-width:1px;stroke-linecap:butt;stroke-linejoin:miter;stroke-opacity:1" d="M 970.886,171.426 975.072,185.378 z" id="boundary" inkscape:connector-curvature="0" />
	<path style="fill:none;stroke:red;stroke-width:1px;stroke-linecap:butt;stroke-linejoin:miter;stroke-opacity:1" d="M 970.886,171.426 959.724,161.66 z" id="boundary" inkscape:connector-curvature="0" />
	<path style="fill:none;stroke:red;stroke-width:1px;stroke-linecap:butt;stroke-linejoin:miter;stroke-opacity:1" d="M 945.772,310.948 952.748,323.505 z" id="boundary" inkscape:connector-curvature="0" />
	<path style="fill:none;stroke:red;stroke-width:1px;stroke-linecap:butt;stroke-linejoin:miter;stroke-opacity:1" d="M 975.072,185.378 982.048,197.935 z" id="boundary" inkscape:connector-curvature="0" />
	<path style="fill:none;stroke:red;stroke-width:1px;stroke-linecap:butt;stroke-linejoin:miter;stroke-opacity:1" d="M 952.748,323.505 959.724,336.062 z" id="boundary" inkscape:connector-curvature="0" />
	<path style="fill:none;stroke:red;stroke-width:1px;stroke-linecap:butt;stroke-linejoin:miter;stroke-opacity:1" d="M 980.653,356.99 970.886,345.828 z" id="boundary" inkscape:connector-curvature="0" />
	<path style="fill:none;stroke:red;stroke-width:1px;stroke-linecap:butt;stroke-linejoin:miter;stroke-opacity:1" d="M 970.886,345.828 959.724,336.062 z" id="boundary" inkscape:connector-curvature="0" />
	<path style="fill:none;stroke:red;stroke-width:1px;stroke-linecap:butt;stroke-linejoin:miter;stroke-opacity:1" d="M 982.048,197.935 989.024,210.492 z" id="boundary" inkscape:connector-curvature="0" />
	<path style="fill:none;stroke:red;stroke-width:1px;stroke-linecap:butt;stroke-linejoin:miter;stroke-opacity:1" d="M 996,292.81 996,306.762 z" id="boundary" inkscape:connector-curvature="0" />
	<path style="fill:none;stroke:red;stroke-width:1px;stroke-linecap:butt;stroke-linejoin:miter;stroke-opacity:1" d="M 989.024,210.492 996,223.049 z" id="boundary" inkscape:connector-curvature="0" />
	<path style="fill:none;stroke:red;stroke-width:1px;stroke-linecap:butt;stroke-linejoin:miter;stroke-opacity:1" d="M 996,223.049 996,237.001 z" id="boundary" inkscape:connector-curvature="0" />
	<path style="fill:none;stroke:red;stroke-width:1px;stroke-linecap:butt;stroke-linejoin:miter;stroke-opacity:1" d="M 996,237.001 996,250.954 z" id="boundary" inkscape:connector-curvature="0" />
	<path style="fill:none;stroke:red;stroke-width:1px;stroke-linecap:butt;stroke-linejoin:miter;stroke-opacity:1" d="M 994.605,356.99 980.653,356.99 z" id="boundary" inkscape:connector-curvature="0" />
	<path style="fill:none;stroke:red;stroke-width:1px;stroke-linecap:butt;stroke-linejoin:miter;stroke-opacity:1" d="M 996,264.906 996,278.858 z" id="boundary" inkscape:connector-curvature="0" />
	<path style="fill:none;stroke:red;stroke-width:1px;stroke-linecap:butt;stroke-linejoin:miter;stroke-opacity:1" d="M 996,264.906 996,250.954 z" id="boundary" inkscape:connector-curvature="0" />
	<path style="fill:none;stroke:red;stroke-width:1px;stroke-linecap:butt;stroke-linejoin:miter;stroke-opacity:1" d="M 996,292.81 996,278.858 z" id="boundary" inkscape:connector-curvature="0" />
	<path style="fill:none;stroke:red;stroke-width:1px;stroke-linecap:butt;stroke-linejoin:miter;stroke-opacity:1" d="M 996,320.714 996,306.762 z" id="boundary" inkscape:connector-curvature="0" />
	<path style="fill:none;stroke:red;stroke-width:1px;stroke-linecap:butt;stroke-linejoin:miter;stroke-opacity:1" d="M 996,320.714 996,334.667 z" id="boundary" inkscape:connector-curvature="0" />
	<path style="fill:none;stroke:red;stroke-width:1px;stroke-linecap:butt;stroke-linejoin:miter;stroke-opacity:1" d="M 996,334.667 994.605,356.99 z" id="boundary" inkscape:connector-curvature="0" />
	<circle cx="4" cy="154.684" r="4" fill="#0" id="circle0"/>
	<circle cx="4" cy="168.636" r="4" fill="#0" id="circle1"/>
	<circle cx="10.9761" cy="119.803" r="4" fill="#0" id="circle2"/>
	<circle cx="10.9761" cy="133.755" r="4" fill="#0" id="circle3"/>
	<circle cx="10.9761" cy="181.193" r="4" fill="#0" id="circle4"/>
	<circle cx="17.9522" cy="98.8748" r="4" fill="#0" id="circle5"/>
	<circle cx="24.9283" cy="84.9226" r="4" fill="#0" id="circle6"/>
	<circle cx="24.9283" cy="186.774" r="4" fill="#0" id="circle7"/>
	<circle cx="37.4852" cy="193.75" r="4" fill="#0" id="circle8"/>
	<circle cx="38.8805" cy="22.1378" r="4" fill="#0" id="circle9"/>
	<circle cx="38.8805" cy="36.09" r="4" fill="#0" id="circle10"/>
	<circle cx="38.8805" cy="70.9705" r="4" fill="#0" id="circle11"/>
	<circle cx="45.8565" cy="48.647" r="4" fill="#0" id="circle12"/>
	<circle cx="51.4374" cy="193.75" r="4" fill="#0" id="circle13"/>
	<circle cx="52.8326" cy="20.7426" r="4" fill="#0" id="circle14"/>
	<circle cx="61.2039" cy="31.9044" r="4" fill="#0" id="circle15"/>
	<circle cx="65.3896" cy="193.75" r="4" fill="#0" id="circle16"/>
	<circle cx="73.7609" cy="38.8805" r="4" fill="#0" id="circle17"/>
	<circle cx="79.3418" cy="193.75" r="4" fill="#0" id="circle18"/>
	<circle cx="80.737" cy="15.1617" r="4" fill="#0" id="circle19"/>
	<circle cx="91.8987" cy="4" r="4" fill="#0" id="circle20"/>
	<circle cx="93.294" cy="193.75" r="4" fill="#0" id="circle21"/>
	<circle cx="104.456" cy="10.9761" r="4" fill="#0" id="circle22"/>
	<circle cx="107.246" cy="193.75" r="4" fill="#0" id="circle23"/>
	<circle cx="110.037" cy="24.9283" r="4" fill="#0" id="circle24"/>
	<circle cx="115.617" cy="412.799" r="4" fill="#0" id="circle25"/>
	<circle cx="119.803" cy="200.726" r="4" fill="#0" id="circle26"/>
	<circle cx="121.198" cy="33.2996" r="4" fill="#0" id="circle27"/>
	<circle cx="122.594" cy="425.356" r="4" fill="#0" id="circle28"/>
	<circle cx="126.779" cy="401.637" r="4" fill="#0" id="circle29"/>
	<circle cx="130.965" cy="44.4613" r="4" fill="#0" id="circle30"/>
	<circle cx="133.755" cy="206.307" r="4" fill="#0" id="circle31"/>
	<circle cx="136.546" cy="430.937" r="4" fill="#0" id="circle32"/>
	<circle cx="139.336" cy="394.661" r="4" fill="#0" id="circle33"/>
	<circle cx="142.127" cy="54.2278" r="4" fill="#0" id="circle34"/>
	<circle cx="143.522" cy="217.468" r="4" fill="#0" id="circle35"/>
	<circle cx="150.498" cy="430.937" r="4" fill="#0" id="circle36"/>
	<circle cx="153.288" cy="394.661" r="4" fill="#0" id="circle37"/>
	<circle cx="154.684" cy="227.235" r="4" fill="#0" id="circle38"/>
	<circle cx="156.079" cy="59.8087" r="4" fill="#0" id="circle39"/>
	<circle cx="164.45" cy="238.397" r="4" fill="#0" id="circle40"/>
	<circle cx="164.45" cy="430.937" r="4" fill="#0" id="circle41"/>
	<circle cx="167.241" cy="389.08" r="4" fill="#0" id="circle42"/>
	<circle cx="170.031" cy="59.8087" r="4" fill="#0" id="circle43"/>
	<circle cx="175.612" cy="248.163" r="4" fill="#0" id="circle44"/>
	<circle cx="178.402" cy="370.942" r="4" fill="#0" id="circle45"/>
	<circle cx="178.402" cy="430.937" r="4" fill="#0" id="circle46"/>
	<circle cx="183.983" cy="59.8087" r="4" fill="#0" id="circle47"/>
	<circle cx="185.378" cy="259.325" r="4" fill="#0" id="circle48"/>
	<circle cx="185.378" cy="356.99" r="4" fill="#0" id="circle49"/>
	<circle cx="192.354" cy="343.038" r="4" fill="#0" id="circle50"/>
	<circle cx="192.354" cy="430.937" r="4" fill="#0" id="circle51"/>
	<circle cx="196.54" cy="269.091" r="4" fill="#0" id="circle52"/>
	<circle cx="197.935" cy="59.8087" r="4" fill="#0" id="circle53"/>
	<circle cx="199.331" cy="329.086" r="4" fill="#0" id="circle54"/>
	<circle cx="206.307" cy="280.253" r="4" fill="#0" id="circle55"/>
	<circle cx="206.307" cy="294.205" r="4" fill="#0" id="circle56"/>
	<circle cx="206.307" cy="308.158" r="4" fill="#0" id="circle57"/>
	<circle cx="206.307" cy="430.937" r="4" fill="#0" id="circle58"/>
	<circle cx="211.887" cy="59.8087" r="4" fill="#0" id="circle59"/>
	<circle cx="214.678" cy="410.008" r="4" fill="#0" id="circle60"/>
	<circle cx="225.84" cy="59.8087" r="4" fill="#0" id="circle61"/>
	<circle cx="225.84" cy="400.242" r="4" fill="#0" id="circle62"/>
	<circle cx="232.816" cy="386.29" r="4" fill="#0" id="circle63"/>
	<circle cx="239.792" cy="59.8087" r="4" fill="#0" id="circle64"/>
	<circle cx="242.582" cy="368.152" r="4" fill="#0" id="circle65"/>
	<circle cx="252.349" cy="66.7848" r="4" fill="#0" id="circle66"/>
	<circle cx="253.744" cy="358.385" r="4" fill="#0" id="circle67"/>
	<circle cx="256.534" cy="340.248" r="4" fill="#0" id="circle68"/>
	<circle cx="263.511" cy="326.295" r="4" fill="#0" id="circle69"/>
	<circle cx="266.301" cy="66.7848" r="4" fill="#0" id="circle70"/>
	<circle cx="269.091" cy="412.799" r="4" fill="#0" id="circle71"/>
	<circle cx="270.487" cy="312.343" r="4" fill="#0" id="circle72"/>
	<circle cx="276.068" cy="425.356" r="4" fill="#0" id="circle73"/>
	<circle cx="278.858" cy="73.7609" r="4" fill="#0" id="circle74"/>
	<circle cx="281.648" cy="302.577" r="4" fill="#0" id="circle75"/>
	<circle cx="283.044" cy="405.823" r="4" fill="#0" id="circle76"/>
	<circle cx="285.834" cy="436.518" r="4" fill="#0" id="circle77"/>
	<circle cx="292.81" cy="73.7609" r="4" fill="#0" id="circle78"/>
	<circle cx="295.601" cy="298.391" r="4" fill="#0" id="circle79"/>
	<circle cx="296.996" cy="398.847" r="4" fill="#0" id="circle80"/>
	<circle cx="299.786" cy="437.913" r="4" fill="#0" id="circle81"/>
	<circle cx="306.762" cy="68.18" r="4" fill="#0" id="circle82"/>
	<circle cx="308.158" cy="305.367" r="4" fill="#0" id="circle83"/>
	<circle cx="310.948" cy="394.661" r="4" fill="#0" id="circle84"/>
	<circle cx="313.738" cy="437.913" r="4" fill="#0" id="circle85"/>
	<circle cx="317.924" cy="316.529" r="4" fill="#0" id="circle86"/>
	<circle cx="319.319" cy="330.481" r="4" fill="#0" id="circle87"/>
	<circle cx="320.714" cy="66.7848" r="4" fill="#0" id="circle88"/>
	<circle cx="324.9" cy="344.433" r="4" fill="#0" id="circle89"/>
	<circle cx="324.9" cy="358.385" r="4" fill="#0" id="circle90"/>
	<circle cx="324.9" cy="372.338" r="4" fill="#0" id="circle91"/>
	<circle cx="324.9" cy="386.29" r="4" fill="#0" id="circle92"/>
	<circle cx="327.691" cy="437.913" r="4" fill="#0" id="circle93"/>
	<circle cx="333.271" cy="59.8087" r="4" fill="#0" id="circle94"/>
	<circle cx="341.643" cy="437.913" r="4" fill="#0" id="circle95"/>
	<circle cx="347.224" cy="59.8087" r="4" fill="#0" id="circle96"/>
	<circle cx="355.595" cy="437.913" r="4" fill="#0" id="circle97"/>
	<circle cx="361.176" cy="55.6231" r="4" fill="#0" id="circle98"/>
	<circle cx="366.757" cy="426.751" r="4" fill="#0" id="circle99"/>
	<circle cx="373.733" cy="412.799" r="4" fill="#0" id="circle100"/>
	<circle cx="375.128" cy="52.8326" r="4" fill="#0" id="circle101"/>
	<circle cx="384.895" cy="401.637" r="4" fill="#0" id="circle102"/>
	<circle cx="389.08" cy="52.8326" r="4" fill="#0" id="circle103"/>
	<circle cx="389.08" cy="333.271" r="4" fill="#0" id="circle104"/>
	<circle cx="389.08" cy="347.224" r="4" fill="#0" id="circle105"/>
	<circle cx="389.08" cy="361.176" r="4" fill="#0" id="circle106"/>
	<circle cx="389.08" cy="375.128" r="4" fill="#0" id="circle107"/>
	<circle cx="396.056" cy="298.391" r="4" fill="#0" id="circle108"/>
	<circle cx="396.056" cy="312.343" r="4" fill="#0" id="circle109"/>
	<circle cx="403.032" cy="48.647" r="4" fill="#0" id="circle110"/>
	<circle cx="403.032" cy="284.439" r="4" fill="#0" id="circle111"/>
	<circle cx="416.985" cy="41.6709" r="4" fill="#0" id="circle112"/>
	<circle cx="416.985" cy="277.463" r="4" fill="#0" id="circle113"/>
	<circle cx="430.937" cy="41.6709" r="4" fill="#0" id="circle114"/>
	<circle cx="430.937" cy="277.463" r="4" fill="#0" id="circle115"/>
	<circle cx="443.494" cy="270.487" r="4" fill="#0" id="circle116"/>
	<circle cx="443.494" cy="412.799" r="4" fill="#0" id="circle117"/>
	<circle cx="443.494" cy="426.751" r="4" fill="#0" id="circle118"/>
	<circle cx="444.889" cy="34.6948" r="4" fill="#0" id="circle119"/>
	<circle cx="454.655" cy="401.637" r="4" fill="#0" id="circle120"/>
	<circle cx="454.655" cy="436.518" r="4" fill="#0" id="circle121"/>
	<circle cx="457.446" cy="270.487" r="4" fill="#0" id="circle122"/>
	<circle cx="458.841" cy="31.9044" r="4" fill="#0" id="circle123"/>
	<circle cx="468.608" cy="394.661" r="4" fill="#0" id="circle124"/>
	<circle cx="468.608" cy="437.913" r="4" fill="#0" id="circle125"/>
	<circle cx="471.398" cy="270.487" r="4" fill="#0" id="circle126"/>
	<circle cx="472.793" cy="27.7187" r="4" fill="#0" id="circle127"/>
	<circle cx="482.56" cy="394.661" r="4" fill="#0" id="circle128"/>
	<circle cx="482.56" cy="437.913" r="4" fill="#0" id="circle129"/>
	<circle cx="485.35" cy="270.487" r="4" fill="#0" id="circle130"/>
	<circle cx="486.745" cy="31.9044" r="4" fill="#0" id="circle131"/>
	<circle cx="496.512" cy="394.661" r="4" fill="#0" id="circle132"/>
	<circle cx="496.512" cy="437.913" r="4" fill="#0" id="circle133"/>
	<circle cx="499.302" cy="270.487" r="4" fill="#0" id="circle134"/>
	<circle cx="500.698" cy="31.9044" r="4" fill="#0" id="circle135"/>
	<circle cx="503.488" cy="284.439" r="4" fill="#0" id="circle136"/>
	<circle cx="506.278" cy="377.918" r="4" fill="#0" id="circle137"/>
	<circle cx="510.464" cy="436.518" r="4" fill="#0" id="circle138"/>
	<circle cx="513.255" cy="295.601" r="4" fill="#0" id="circle139"/>
	<circle cx="514.65" cy="31.9044" r="4" fill="#0" id="circle140"/>
	<circle cx="517.44" cy="366.757" r="4" fill="#0" id="circle141"/>
	<circle cx="520.231" cy="308.158" r="4" fill="#0" id="circle142"/>
	<circle cx="520.231" cy="322.11" r="4" fill="#0" id="circle143"/>
	<circle cx="520.231" cy="336.062" r="4" fill="#0" id="circle144"/>
	<circle cx="520.231" cy="350.014" r="4" fill="#0" id="circle145"/>
	<circle cx="521.626" cy="423.961" r="4" fill="#0" id="circle146"/>
	<circle cx="528.602" cy="31.9044" r="4" fill="#0" id="circle147"/>
	<circle cx="532.788" cy="414.194" r="4" fill="#0" id="circle148"/>
	<circle cx="542.554" cy="31.9044" r="4" fill="#0" id="circle149"/>
	<circle cx="546.74" cy="407.218" r="4" fill="#0" id="circle150"/>
	<circle cx="556.506" cy="31.9044" r="4" fill="#0" id="circle151"/>
	<circle cx="556.506" cy="396.056" r="4" fill="#0" id="circle152"/>
	<circle cx="570.459" cy="31.9044" r="4" fill="#0" id="circle153"/>
	<circle cx="570.459" cy="389.08" r="4" fill="#0" id="circle154"/>
	<circle cx="581.62" cy="379.314" r="4" fill="#0" id="circle155"/>
	<circle cx="584.411" cy="31.9044" r="4" fill="#0" id="circle156"/>
	<circle cx="591.387" cy="361.176" r="4" fill="#0" id="circle157"/>
	<circle cx="598.363" cy="31.9044" r="4" fill="#0" id="circle158"/>
	<circle cx="598.363" cy="312.343" r="4" fill="#0" id="circle159"/>
	<circle cx="598.363" cy="340.248" r="4" fill="#0" id="circle160"/>
	<circle cx="601.153" cy="326.295" r="4" fill="#0" id="circle161"/>
	<circle cx="605.339" cy="298.391" r="4" fill="#0" id="circle162"/>
	<circle cx="612.315" cy="29.1139" r="4" fill="#0" id="circle163"/>
	<circle cx="617.896" cy="291.415" r="4" fill="#0" id="circle164"/>
	<circle cx="626.267" cy="31.9044" r="4" fill="#0" id="circle165"/>
	<circle cx="630.453" cy="298.391" r="4" fill="#0" id="circle166"/>
	<circle cx="640.219" cy="36.09" r="4" fill="#0" id="circle167"/>
	<circle cx="640.219" cy="309.553" r="4" fill="#0" id="circle168"/>
	<circle cx="652.776" cy="43.0661" r="4" fill="#0" id="circle169"/>
	<circle cx="654.172" cy="312.343" r="4" fill="#0" id="circle170"/>
	<circle cx="659.752" cy="391.871" r="4" fill="#0" id="circle171"/>
	<circle cx="659.752" cy="405.823" r="4" fill="#0" id="circle172"/>
	<circle cx="666.729" cy="43.0661" r="4" fill="#0" id="circle173"/>
	<circle cx="666.729" cy="319.319" r="4" fill="#0" id="circle174"/>
	<circle cx="668.124" cy="416.985" r="4" fill="#0" id="circle175"/>
	<circle cx="670.914" cy="380.709" r="4" fill="#0" id="circle176"/>
	<circle cx="679.286" cy="326.295" r="4" fill="#0" id="circle177"/>
	<circle cx="680.681" cy="45.8565" r="4" fill="#0" id="circle178"/>
	<circle cx="682.076" cy="416.985" r="4" fill="#0" id="circle179"/>
	<circle cx="684.866" cy="380.709" r="4" fill="#0" id="circle180"/>
	<circle cx="689.052" cy="337.457" r="4" fill="#0" id="circle181"/>
	<circle cx="694.633" cy="45.8565" r="4" fill="#0" id="circle182"/>
	<circle cx="694.633" cy="351.409" r="4" fill="#0" id="circle183"/>
	<circle cx="694.633" cy="365.361" r="4" fill="#0" id="circle184"/>
	<circle cx="696.028" cy="137.941" r="4" fill="#0" id="circle185"/>
	<circle cx="696.028" cy="151.893" r="4" fill="#0" id="circle186"/>
	<circle cx="696.028" cy="416.985" r="4" fill="#0" id="circle187"/>
	<circle cx="703.004" cy="164.45" r="4" fill="#0" id="circle188"/>
	<circle cx="703.004" cy="178.402" r="4" fill="#0" id="circle189"/>
	<circle cx="703.004" cy="192.354" r="4" fill="#0" id="circle190"/>
	<circle cx="703.004" cy="206.307" r="4" fill="#0" id="circle191"/>
	<circle cx="703.004" cy="220.259" r="4" fill="#0" id="circle192"/>
	<circle cx="703.004" cy="234.211" r="4" fill="#0" id="circle193"/>
	<circle cx="703.004" cy="248.163" r="4" fill="#0" id="circle194"/>
	<circle cx="707.19" cy="52.8326" r="4" fill="#0" id="circle195"/>
	<circle cx="708.585" cy="130.965" r="4" fill="#0" id="circle196"/>
	<circle cx="709.98" cy="260.72" r="4" fill="#0" id="circle197"/>
	<circle cx="709.98" cy="416.985" r="4" fill="#0" id="circle198"/>
	<circle cx="721.142" cy="54.2278" r="4" fill="#0" id="circle199"/>
	<circle cx="721.142" cy="269.091" r="4" fill="#0" id="circle200"/>
	<circle cx="722.537" cy="130.965" r="4" fill="#0" id="circle201"/>
	<circle cx="723.932" cy="410.008" r="4" fill="#0" id="circle202"/>
	<circle cx="733.699" cy="276.068" r="4" fill="#0" id="circle203"/>
	<circle cx="735.094" cy="54.2278" r="4" fill="#0" id="circle204"/>
	<circle cx="735.094" cy="400.242" r="4" fill="#0" id="circle205"/>
	<circle cx="736.489" cy="130.965" r="4" fill="#0" id="circle206"/>
	<circle cx="737.885" cy="290.02" r="4" fill="#0" id="circle207"/>
	<circle cx="737.885" cy="303.972" r="4" fill="#0" id="circle208"/>
	<circle cx="737.885" cy="317.924" r="4" fill="#0" id="circle209"/>
	<circle cx="737.885" cy="331.876" r="4" fill="#0" id="circle210"/>
	<circle cx="737.885" cy="345.828" r="4" fill="#0" id="circle211"/>
	<circle cx="737.885" cy="359.781" r="4" fill="#0" id="circle212"/>
	<circle cx="737.885" cy="373.733" r="4" fill="#0" id="circle213"/>
	<circle cx="749.046" cy="59.8087" r="4" fill="#0" id="circle214"/>
	<circle cx="750.442" cy="130.965" r="4" fill="#0" id="circle215"/>
	<circle cx="761.603" cy="66.7848" r="4" fill="#0" id="circle216"/>
	<circle cx="764.394" cy="130.965" r="4" fill="#0" id="circle217"/>
	<circle cx="775.556" cy="66.7848" r="4" fill="#0" id="circle218"/>
	<circle cx="776.951" cy="137.941" r="4" fill="#0" id="circle219"/>
	<circle cx="788.113" cy="73.7609" r="4" fill="#0" id="circle220"/>
	<circle cx="790.903" cy="137.941" r="4" fill="#0" id="circle221"/>
	<circle cx="802.065" cy="73.7609" r="4" fill="#0" id="circle222"/>
	<circle cx="803.46" cy="144.917" r="4" fill="#0" id="circle223"/>
	<circle cx="816.017" cy="73.7609" r="4" fill="#0" id="circle224"/>
	<circle cx="817.412" cy="144.917" r="4" fill="#0" id="circle225"/>
	<circle cx="828.574" cy="80.737" r="4" fill="#0" id="circle226"/>
	<circle cx="831.364" cy="150.498" r="4" fill="#0" id="circle227"/>
	<circle cx="842.526" cy="84.9226" r="4" fill="#0" id="circle228"/>
	<circle cx="845.316" cy="151.893" r="4" fill="#0" id="circle229"/>
	<circle cx="855.083" cy="91.8987" r="4" fill="#0" id="circle230"/>
	<circle cx="857.873" cy="158.869" r="4" fill="#0" id="circle231"/>
	<circle cx="869.035" cy="94.6892" r="4" fill="#0" id="circle232"/>
	<circle cx="869.035" cy="167.241" r="4" fill="#0" id="circle233"/>
	<circle cx="882.987" cy="97.4796" r="4" fill="#0" id="circle234"/>
	<circle cx="882.987" cy="172.821" r="4" fill="#0" id="circle235"/>
	<circle cx="891.359" cy="108.641" r="4" fill="#0" id="circle236"/>
	<circle cx="891.359" cy="183.983" r="4" fill="#0" id="circle237"/>
	<circle cx="902.52" cy="193.75" r="4" fill="#0" id="circle238"/>
	<circle cx="905.311" cy="112.827" r="4" fill="#0" id="circle239"/>
	<circle cx="910.892" cy="204.911" r="4" fill="#0" id="circle240"/>
	<circle cx="917.868" cy="119.803" r="4" fill="#0" id="circle241"/>
	<circle cx="917.868" cy="217.468" r="4" fill="#0" id="circle242"/>
	<circle cx="924.844" cy="230.025" r="4" fill="#0" id="circle243"/>
	<circle cx="924.844" cy="243.977" r="4" fill="#0" id="circle244"/>
	<circle cx="929.03" cy="129.57" r="4" fill="#0" id="circle245"/>
	<circle cx="931.82" cy="256.534" r="4" fill="#0" id="circle246"/>
	<circle cx="936.006" cy="270.487" r="4" fill="#0" id="circle247"/>
	<circle cx="938.796" cy="140.731" r="4" fill="#0" id="circle248"/>
	<circle cx="938.796" cy="284.439" r="4" fill="#0" id="circle249"/>
	<circle cx="945.772" cy="296.996" r="4" fill="#0" id="circle250"/>
	<circle cx="945.772" cy="310.948" r="4" fill="#0" id="circle251"/>
	<circle cx="949.958" cy="150.498" r="4" fill="#0" id="circle252"/>
	<circle cx="952.748" cy="323.505" r="4" fill="#0" id="circle253"/>
	<circle cx="959.724" cy="161.66" r="4" fill="#0" id="circle254"/>
	<circle cx="959.724" cy="336.062" r="4" fill="#0" id="circle255"/>
	<circle cx="970.886" cy="171.426" r="4" fill="#0" id="circle256"/>
	<circle cx="970.886" cy="345.828" r="4" fill="#0" id="circle257"/>
	<circle cx="975.072" cy="185.378" r="4" fill="#0" id="circle258"/>
	<circle cx="980.653" cy="356.99" r="4" fill="#0" id="circle259"/>
	<circle cx="982.048" cy="197.935" r="4" fill="#0" id="circle260"/>
	<circle cx="989.024" cy="210.492" r="4" fill="#0" id="circle261"/>
	<circle cx="994.605" cy="356.99" r="4" fill="#0" id="circle262"/>
	<circle cx="996" cy="223.049" r="4" fill="#0" id="circle263"/>
	<circle cx="996" cy="237.001" r="4" fill="#0" id="circle264"/>
	<circle cx="996" cy="250.954" r="4" fill="#0" id="circle265"/>
	<circle cx="996" cy="264.906" r="4" fill="#0" id="circle266"/>
	<circle cx="996" cy="278.858" r="4" fill="#0" id="circle267"/>
	<circle cx="996" cy="292.81" r="4" fill="#0" id="circle268"/>
	<circle cx="996" cy="306.762" r="4" fill="#0" id="circle269"/>
	<circle cx="996" cy="320.714" r="4" fill="#0" id="circle270"/>
	<circle cx="996" cy="334.667" r="4" fill="#0" id="circle271"/>
	</g>
</svg>