<?xml version="1.0" encoding="UTF-8" standalone="no"?>
<!-- Created with CurveBenchmark -->
<svg
	xmlns:dc="http://purl.org/dc/elements/1.1/"
	xmlns:cc="http://creativecommons.org/ns#"
	xmlns:rdf="http://www.w3.org/1999/02/22-rdf-syntax-ns#"
	xmlns:svg="http://www.w3.org/2000/svg"
	xmlns="http://www.w3.org/2000/svg"
	xmlns:sodipodi="http://sodipodi.sourceforge.net/DTD/sodipodi-0.dtd"
	xmlns:inkscape="http://www.inkscape.org/namespaces/inkscape"
	width="1000"
	height="1000"
	id="svg2"
	version="1.1"
	sodipodi:docname="manifold/peel-fish070.png.txt">
<defs
	id="defs4" />
<metadata
	id="metadata7">
	<rdf:RDF>
		<cc:Work
			rdf:about="">
			<dc:format>image/svg+xml</dc:format>
			<dc:type
				rdf:resource="http://purl.org/dc/dcmitype/StillImage" />
			<dc:title></dc:title>
		</cc:Work>
	</rdf:RDF>
</metadata>
<g
	inkscape:label="Layer 1"
	inkscape:groupmode="layer"
	id="layer1">
	<path style="fill:none;stroke:red;stroke-width:1px;stroke-linecap:butt;stroke-linejoin:miter;stroke-opacity:1" d="M 28.1951,372.976 4,481.854 z" id="boundary" inkscape:connector-curvature="0" />
	<path style="fill:none;stroke:red;stroke-width:1px;stroke-linecap:butt;stroke-linejoin:miter;stroke-opacity:1" d="M 173.366,917.366 185.463,977.854 z" id="boundary" inkscape:connector-curvature="0" />
	<path style="fill:none;stroke:red;stroke-width:1px;stroke-linecap:butt;stroke-linejoin:miter;stroke-opacity:1" d="M 112.878,288.293 58.439,318.537 z" id="boundary" inkscape:connector-curvature="0" />
	<path style="fill:none;stroke:red;stroke-width:1px;stroke-linecap:butt;stroke-linejoin:miter;stroke-opacity:1" d="M 58.439,318.537 28.1951,372.976 z" id="boundary" inkscape:connector-curvature="0" />
	<path style="fill:none;stroke:red;stroke-width:1px;stroke-linecap:butt;stroke-linejoin:miter;stroke-opacity:1" d="M 10.0488,542.341 22.1463,602.829 z" id="boundary" inkscape:connector-curvature="0" />
	<path style="fill:none;stroke:red;stroke-width:1px;stroke-linecap:butt;stroke-linejoin:miter;stroke-opacity:1" d="M 100.78,693.561 52.3902,657.268 z" id="boundary" inkscape:connector-curvature="0" />
	<path style="fill:none;stroke:red;stroke-width:1px;stroke-linecap:butt;stroke-linejoin:miter;stroke-opacity:1" d="M 10.0488,542.341 4,481.854 z" id="boundary" inkscape:connector-curvature="0" />
	<path style="fill:none;stroke:red;stroke-width:1px;stroke-linecap:butt;stroke-linejoin:miter;stroke-opacity:1" d="M 22.1463,602.829 52.3902,657.268 z" id="boundary" inkscape:connector-curvature="0" />
	<path style="fill:none;stroke:red;stroke-width:1px;stroke-linecap:butt;stroke-linejoin:miter;stroke-opacity:1" d="M 149.171,729.854 100.78,693.561 z" id="boundary" inkscape:connector-curvature="0" />
	<path style="fill:none;stroke:red;stroke-width:1px;stroke-linecap:butt;stroke-linejoin:miter;stroke-opacity:1" d="M 312.488,64.4878 324.585,4 z" id="boundary" inkscape:connector-curvature="0" />
	<path style="fill:none;stroke:red;stroke-width:1px;stroke-linecap:butt;stroke-linejoin:miter;stroke-opacity:1" d="M 324.585,4 385.073,10.0488 z" id="boundary" inkscape:connector-curvature="0" />
	<path style="fill:none;stroke:red;stroke-width:1px;stroke-linecap:butt;stroke-linejoin:miter;stroke-opacity:1" d="M 112.878,288.293 167.317,258.049 z" id="boundary" inkscape:connector-curvature="0" />
	<path style="fill:none;stroke:red;stroke-width:1px;stroke-linecap:butt;stroke-linejoin:miter;stroke-opacity:1" d="M 185.463,844.78 173.366,917.366 z" id="boundary" inkscape:connector-curvature="0" />
	<path style="fill:none;stroke:red;stroke-width:1px;stroke-linecap:butt;stroke-linejoin:miter;stroke-opacity:1" d="M 185.463,977.854 245.951,971.805 z" id="boundary" inkscape:connector-curvature="0" />
	<path style="fill:none;stroke:red;stroke-width:1px;stroke-linecap:butt;stroke-linejoin:miter;stroke-opacity:1" d="M 185.463,844.78 203.61,760.098 z" id="boundary" inkscape:connector-curvature="0" />
	<path style="fill:none;stroke:red;stroke-width:1px;stroke-linecap:butt;stroke-linejoin:miter;stroke-opacity:1" d="M 149.171,729.854 203.61,760.098 z" id="boundary" inkscape:connector-curvature="0" />
	<path style="fill:none;stroke:red;stroke-width:1px;stroke-linecap:butt;stroke-linejoin:miter;stroke-opacity:1" d="M 493.951,959.707 542.341,996 z" id="boundary" inkscape:connector-curvature="0" />
	<path style="fill:none;stroke:red;stroke-width:1px;stroke-linecap:butt;stroke-linejoin:miter;stroke-opacity:1" d="M 167.317,258.049 221.756,227.805 z" id="boundary" inkscape:connector-curvature="0" />
	<path style="fill:none;stroke:red;stroke-width:1px;stroke-linecap:butt;stroke-linejoin:miter;stroke-opacity:1" d="M 385.073,814.537 421.366,862.927 z" id="boundary" inkscape:connector-curvature="0" />
	<path style="fill:none;stroke:red;stroke-width:1px;stroke-linecap:butt;stroke-linejoin:miter;stroke-opacity:1" d="M 221.756,227.805 282.244,203.61 z" id="boundary" inkscape:connector-curvature="0" />
	<path style="fill:none;stroke:red;stroke-width:1px;stroke-linecap:butt;stroke-linejoin:miter;stroke-opacity:1" d="M 282.244,203.61 282.244,118.927 z" id="boundary" inkscape:connector-curvature="0" />
	<path style="fill:none;stroke:red;stroke-width:1px;stroke-linecap:butt;stroke-linejoin:miter;stroke-opacity:1" d="M 276.195,917.366 306.439,862.927 z" id="boundary" inkscape:connector-curvature="0" />
	<path style="fill:none;stroke:red;stroke-width:1px;stroke-linecap:butt;stroke-linejoin:miter;stroke-opacity:1" d="M 245.951,971.805 276.195,917.366 z" id="boundary" inkscape:connector-curvature="0" />
	<path style="fill:none;stroke:red;stroke-width:1px;stroke-linecap:butt;stroke-linejoin:miter;stroke-opacity:1" d="M 427.415,58.439 385.073,10.0488 z" id="boundary" inkscape:connector-curvature="0" />
	<path style="fill:none;stroke:red;stroke-width:1px;stroke-linecap:butt;stroke-linejoin:miter;stroke-opacity:1" d="M 312.488,64.4878 282.244,118.927 z" id="boundary" inkscape:connector-curvature="0" />
	<path style="fill:none;stroke:red;stroke-width:1px;stroke-linecap:butt;stroke-linejoin:miter;stroke-opacity:1" d="M 336.683,772.195 385.073,814.537 z" id="boundary" inkscape:connector-curvature="0" />
	<path style="fill:none;stroke:red;stroke-width:1px;stroke-linecap:butt;stroke-linejoin:miter;stroke-opacity:1" d="M 469.756,106.829 427.415,58.439 z" id="boundary" inkscape:connector-curvature="0" />
	<path style="fill:none;stroke:red;stroke-width:1px;stroke-linecap:butt;stroke-linejoin:miter;stroke-opacity:1" d="M 469.756,106.829 506.049,155.22 z" id="boundary" inkscape:connector-curvature="0" />
	<path style="fill:none;stroke:red;stroke-width:1px;stroke-linecap:butt;stroke-linejoin:miter;stroke-opacity:1" d="M 457.659,911.317 493.951,959.707 z" id="boundary" inkscape:connector-curvature="0" />
	<path style="fill:none;stroke:red;stroke-width:1px;stroke-linecap:butt;stroke-linejoin:miter;stroke-opacity:1" d="M 421.366,862.927 457.659,911.317 z" id="boundary" inkscape:connector-curvature="0" />
	<path style="fill:none;stroke:red;stroke-width:1px;stroke-linecap:butt;stroke-linejoin:miter;stroke-opacity:1" d="M 651.22,239.902 663.317,300.39 z" id="boundary" inkscape:connector-curvature="0" />
	<path style="fill:none;stroke:red;stroke-width:1px;stroke-linecap:butt;stroke-linejoin:miter;stroke-opacity:1" d="M 566.537,155.22 506.049,155.22 z" id="boundary" inkscape:connector-curvature="0" />
	<path style="fill:none;stroke:red;stroke-width:1px;stroke-linecap:butt;stroke-linejoin:miter;stroke-opacity:1" d="M 542.341,868.976 518.146,808.488 z" id="boundary" inkscape:connector-curvature="0" />
	<path style="fill:none;stroke:red;stroke-width:1px;stroke-linecap:butt;stroke-linejoin:miter;stroke-opacity:1" d="M 548.39,754.049 487.902,754.049 z" id="boundary" inkscape:connector-curvature="0" />
	<path style="fill:none;stroke:red;stroke-width:1px;stroke-linecap:butt;stroke-linejoin:miter;stroke-opacity:1" d="M 542.341,868.976 566.537,929.463 z" id="boundary" inkscape:connector-curvature="0" />
	<path style="fill:none;stroke:red;stroke-width:1px;stroke-linecap:butt;stroke-linejoin:miter;stroke-opacity:1" d="M 548.39,754.049 596.78,790.341 z" id="boundary" inkscape:connector-curvature="0" />
	<path style="fill:none;stroke:red;stroke-width:1px;stroke-linecap:butt;stroke-linejoin:miter;stroke-opacity:1" d="M 832.683,723.805 772.195,711.707 z" id="boundary" inkscape:connector-curvature="0" />
	<path style="fill:none;stroke:red;stroke-width:1px;stroke-linecap:butt;stroke-linejoin:miter;stroke-opacity:1" d="M 651.22,239.902 620.976,185.463 z" id="boundary" inkscape:connector-curvature="0" />
	<path style="fill:none;stroke:red;stroke-width:1px;stroke-linecap:butt;stroke-linejoin:miter;stroke-opacity:1" d="M 620.976,185.463 566.537,155.22 z" id="boundary" inkscape:connector-curvature="0" />
	<path style="fill:none;stroke:red;stroke-width:1px;stroke-linecap:butt;stroke-linejoin:miter;stroke-opacity:1" d="M 542.341,996 566.537,929.463 z" id="boundary" inkscape:connector-curvature="0" />
	<path style="fill:none;stroke:red;stroke-width:1px;stroke-linecap:butt;stroke-linejoin:miter;stroke-opacity:1" d="M 596.78,790.341 657.268,778.244 z" id="boundary" inkscape:connector-curvature="0" />
	<path style="fill:none;stroke:red;stroke-width:1px;stroke-linecap:butt;stroke-linejoin:miter;stroke-opacity:1" d="M 657.268,778.244 675.415,711.707 z" id="boundary" inkscape:connector-curvature="0" />
	<path style="fill:none;stroke:red;stroke-width:1px;stroke-linecap:butt;stroke-linejoin:miter;stroke-opacity:1" d="M 693.561,354.829 663.317,300.39 z" id="boundary" inkscape:connector-curvature="0" />
	<path style="fill:none;stroke:red;stroke-width:1px;stroke-linecap:butt;stroke-linejoin:miter;stroke-opacity:1" d="M 675.415,711.707 723.805,675.415 z" id="boundary" inkscape:connector-curvature="0" />
	<path style="fill:none;stroke:red;stroke-width:1px;stroke-linecap:butt;stroke-linejoin:miter;stroke-opacity:1" d="M 723.805,675.415 772.195,711.707 z" id="boundary" inkscape:connector-curvature="0" />
	<path style="fill:none;stroke:red;stroke-width:1px;stroke-linecap:butt;stroke-linejoin:miter;stroke-opacity:1" d="M 693.561,354.829 741.951,300.39 z" id="boundary" inkscape:connector-curvature="0" />
	<path style="fill:none;stroke:red;stroke-width:1px;stroke-linecap:butt;stroke-linejoin:miter;stroke-opacity:1" d="M 832.683,385.073 832.683,445.561 z" id="boundary" inkscape:connector-curvature="0" />
	<path style="fill:none;stroke:red;stroke-width:1px;stroke-linecap:butt;stroke-linejoin:miter;stroke-opacity:1" d="M 741.951,300.39 790.341,264.098 z" id="boundary" inkscape:connector-curvature="0" />
	<path style="fill:none;stroke:red;stroke-width:1px;stroke-linecap:butt;stroke-linejoin:miter;stroke-opacity:1" d="M 790.341,264.098 844.78,294.341 z" id="boundary" inkscape:connector-curvature="0" />
	<path style="fill:none;stroke:red;stroke-width:1px;stroke-linecap:butt;stroke-linejoin:miter;stroke-opacity:1" d="M 832.683,506.049 832.683,445.561 z" id="boundary" inkscape:connector-curvature="0" />
	<path style="fill:none;stroke:red;stroke-width:1px;stroke-linecap:butt;stroke-linejoin:miter;stroke-opacity:1" d="M 832.683,566.537 832.683,506.049 z" id="boundary" inkscape:connector-curvature="0" />
	<path style="fill:none;stroke:red;stroke-width:1px;stroke-linecap:butt;stroke-linejoin:miter;stroke-opacity:1" d="M 844.78,627.024 832.683,566.537 z" id="boundary" inkscape:connector-curvature="0" />
	<path style="fill:none;stroke:red;stroke-width:1px;stroke-linecap:butt;stroke-linejoin:miter;stroke-opacity:1" d="M 832.683,385.073 844.78,294.341 z" id="boundary" inkscape:connector-curvature="0" />
	<path style="fill:none;stroke:red;stroke-width:1px;stroke-linecap:butt;stroke-linejoin:miter;stroke-opacity:1" d="M 832.683,723.805 844.78,627.024 z" id="boundary" inkscape:connector-curvature="0" />
	<circle cx="4" cy="481.854" r="4" fill="#0" id="circle0"/>
	<circle cx="10.0488" cy="542.341" r="4" fill="#0" id="circle1"/>
	<circle cx="22.1463" cy="602.829" r="4" fill="#0" id="circle2"/>
	<circle cx="28.1951" cy="372.976" r="4" fill="#0" id="circle3"/>
	<circle cx="52.3902" cy="657.268" r="4" fill="#0" id="circle4"/>
	<circle cx="58.439" cy="318.537" r="4" fill="#0" id="circle5"/>
	<circle cx="100.78" cy="693.561" r="4" fill="#0" id="circle6"/>
	<circle cx="112.878" cy="288.293" r="4" fill="#0" id="circle7"/>
	<circle cx="149.171" cy="729.854" r="4" fill="#0" id="circle8"/>
	<circle cx="167.317" cy="258.049" r="4" fill="#0" id="circle9"/>
	<circle cx="173.366" cy="917.366" r="4" fill="#0" id="circle10"/>
	<circle cx="185.463" cy="844.78" r="4" fill="#0" id="circle11"/>
	<circle cx="185.463" cy="977.854" r="4" fill="#0" id="circle12"/>
	<circle cx="203.61" cy="760.098" r="4" fill="#0" id="circle13"/>
	<circle cx="221.756" cy="227.805" r="4" fill="#0" id="circle14"/>
	<circle cx="245.951" cy="971.805" r="4" fill="#0" id="circle15"/>
	<circle cx="276.195" cy="917.366" r="4" fill="#0" id="circle16"/>
	<circle cx="282.244" cy="118.927" r="4" fill="#0" id="circle17"/>
	<circle cx="282.244" cy="203.61" r="4" fill="#0" id="circle18"/>
	<circle cx="306.439" cy="862.927" r="4" fill="#0" id="circle19"/>
	<circle cx="312.488" cy="64.4878" r="4" fill="#0" id="circle20"/>
	<circle cx="324.585" cy="4" r="4" fill="#0" id="circle21"/>
	<circle cx="336.683" cy="772.195" r="4" fill="#0" id="circle22"/>
	<circle cx="385.073" cy="10.0488" r="4" fill="#0" id="circle23"/>
	<circle cx="385.073" cy="814.537" r="4" fill="#0" id="circle24"/>
	<circle cx="421.366" cy="862.927" r="4" fill="#0" id="circle25"/>
	<circle cx="427.415" cy="58.439" r="4" fill="#0" id="circle26"/>
	<circle cx="457.659" cy="911.317" r="4" fill="#0" id="circle27"/>
	<circle cx="469.756" cy="106.829" r="4" fill="#0" id="circle28"/>
	<circle cx="487.902" cy="754.049" r="4" fill="#0" id="circle29"/>
	<circle cx="493.951" cy="959.707" r="4" fill="#0" id="circle30"/>
	<circle cx="506.049" cy="155.22" r="4" fill="#0" id="circle31"/>
	<circle cx="518.146" cy="808.488" r="4" fill="#0" id="circle32"/>
	<circle cx="542.341" cy="868.976" r="4" fill="#0" id="circle33"/>
	<circle cx="542.341" cy="996" r="4" fill="#0" id="circle34"/>
	<circle cx="548.39" cy="754.049" r="4" fill="#0" id="circle35"/>
	<circle cx="566.537" cy="155.22" r="4" fill="#0" id="circle36"/>
	<circle cx="566.537" cy="929.463" r="4" fill="#0" id="circle37"/>
	<circle cx="596.78" cy="790.341" r="4" fill="#0" id="circle38"/>
	<circle cx="620.976" cy="185.463" r="4" fill="#0" id="circle39"/>
	<circle cx="651.22" cy="239.902" r="4" fill="#0" id="circle40"/>
	<circle cx="657.268" cy="778.244" r="4" fill="#0" id="circle41"/>
	<circle cx="663.317" cy="300.39" r="4" fill="#0" id="circle42"/>
	<circle cx="675.415" cy="711.707" r="4" fill="#0" id="circle43"/>
	<circle cx="693.561" cy="354.829" r="4" fill="#0" id="circle44"/>
	<circle cx="723.805" cy="675.415" r="4" fill="#0" id="circle45"/>
	<circle cx="741.951" cy="300.39" r="4" fill="#0" id="circle46"/>
	<circle cx="772.195" cy="711.707" r="4" fill="#0" id="circle47"/>
	<circle cx="790.341" cy="264.098" r="4" fill="#0" id="circle48"/>
	<circle cx="832.683" cy="385.073" r="4" fill="#0" id="circle49"/>
	<circle cx="832.683" cy="445.561" r="4" fill="#0" id="circle50"/>
	<circle cx="832.683" cy="506.049" r="4" fill="#0" id="circle51"/>
	<circle cx="832.683" cy="566.537" r="4" fill="#0" id="circle52"/>
	<circle cx="832.683" cy="723.805" r="4" fill="#0" id="circle53"/>
	<circle cx="844.78" cy="294.341" r="4" fill="#0" id="circle54"/>
	<circle cx="844.78" cy="627.024" r="4" fill="#0" id="circle55"/>
	</g>
</svg>