<?xml version="1.0" encoding="UTF-8" standalone="no"?>
<!-- Created with CurveBenchmark -->
<svg
	xmlns:dc="http://purl.org/dc/elements/1.1/"
	xmlns:cc="http://creativecommons.org/ns#"
	xmlns:rdf="http://www.w3.org/1999/02/22-rdf-syntax-ns#"
	xmlns:svg="http://www.w3.org/2000/svg"
	xmlns="http://www.w3.org/2000/svg"
	xmlns:sodipodi="http://sodipodi.sourceforge.net/DTD/sodipodi-0.dtd"
	xmlns:inkscape="http://www.inkscape.org/namespaces/inkscape"
	width="1000"
	height="1000"
	id="svg2"
	version="1.1"
	sodipodi:docname="manifold/peel-stef-01.png.txt">
<defs
	id="defs4" />
<metadata
	id="metadata7">
	<rdf:RDF>
		<cc:Work
			rdf:about="">
			<dc:format>image/svg+xml</dc:format>
			<dc:type
				rdf:resource="http://purl.org/dc/dcmitype/StillImage" />
			<dc:title></dc:title>
		</cc:Work>
	</rdf:RDF>
</metadata>
<g
	inkscape:label="Layer 1"
	inkscape:groupmode="layer"
	id="layer1">
	<path style="fill:none;stroke:red;stroke-width:1px;stroke-linecap:butt;stroke-linejoin:miter;stroke-opacity:1" d="M 4,91.0638 4,64.6809 z" id="boundary" inkscape:connector-curvature="0" />
	<path style="fill:none;stroke:red;stroke-width:1px;stroke-linecap:butt;stroke-linejoin:miter;stroke-opacity:1" d="M 4,64.6809 17.1915,38.2979 z" id="boundary" inkscape:connector-curvature="0" />
	<path style="fill:none;stroke:red;stroke-width:1px;stroke-linecap:butt;stroke-linejoin:miter;stroke-opacity:1" d="M 25.1064,135.915 4,117.447 z" id="boundary" inkscape:connector-curvature="0" />
	<path style="fill:none;stroke:red;stroke-width:1px;stroke-linecap:butt;stroke-linejoin:miter;stroke-opacity:1" d="M 4,117.447 4,91.0638 z" id="boundary" inkscape:connector-curvature="0" />
	<path style="fill:none;stroke:red;stroke-width:1px;stroke-linecap:butt;stroke-linejoin:miter;stroke-opacity:1" d="M 46.2128,151.745 25.1064,135.915 z" id="boundary" inkscape:connector-curvature="0" />
	<path style="fill:none;stroke:red;stroke-width:1px;stroke-linecap:butt;stroke-linejoin:miter;stroke-opacity:1" d="M 38.2979,17.1915 17.1915,38.2979 z" id="boundary" inkscape:connector-curvature="0" />
	<path style="fill:none;stroke:red;stroke-width:1px;stroke-linecap:butt;stroke-linejoin:miter;stroke-opacity:1" d="M 62.0426,4 88.4255,4 z" id="boundary" inkscape:connector-curvature="0" />
	<path style="fill:none;stroke:red;stroke-width:1px;stroke-linecap:butt;stroke-linejoin:miter;stroke-opacity:1" d="M 62.0426,4 38.2979,17.1915 z" id="boundary" inkscape:connector-curvature="0" />
	<path style="fill:none;stroke:red;stroke-width:1px;stroke-linecap:butt;stroke-linejoin:miter;stroke-opacity:1" d="M 241.447,539.574 241.447,565.957 z" id="boundary" inkscape:connector-curvature="0" />
	<path style="fill:none;stroke:red;stroke-width:1px;stroke-linecap:butt;stroke-linejoin:miter;stroke-opacity:1" d="M 93.7021,178.128 69.9574,164.936 z" id="boundary" inkscape:connector-curvature="0" />
	<path style="fill:none;stroke:red;stroke-width:1px;stroke-linecap:butt;stroke-linejoin:miter;stroke-opacity:1" d="M 114.809,4 138.553,17.1915 z" id="boundary" inkscape:connector-curvature="0" />
	<path style="fill:none;stroke:red;stroke-width:1px;stroke-linecap:butt;stroke-linejoin:miter;stroke-opacity:1" d="M 114.809,4 88.4255,4 z" id="boundary" inkscape:connector-curvature="0" />
	<path style="fill:none;stroke:red;stroke-width:1px;stroke-linecap:butt;stroke-linejoin:miter;stroke-opacity:1" d="M 46.2128,151.745 69.9574,164.936 z" id="boundary" inkscape:connector-curvature="0" />
	<path style="fill:none;stroke:red;stroke-width:1px;stroke-linecap:butt;stroke-linejoin:miter;stroke-opacity:1" d="M 186.043,33.0213 204.511,54.1277 z" id="boundary" inkscape:connector-curvature="0" />
	<path style="fill:none;stroke:red;stroke-width:1px;stroke-linecap:butt;stroke-linejoin:miter;stroke-opacity:1" d="M 138.553,17.1915 164.936,17.1915 z" id="boundary" inkscape:connector-curvature="0" />
	<path style="fill:none;stroke:red;stroke-width:1px;stroke-linecap:butt;stroke-linejoin:miter;stroke-opacity:1" d="M 164.936,17.1915 186.043,33.0213 z" id="boundary" inkscape:connector-curvature="0" />
	<path style="fill:none;stroke:red;stroke-width:1px;stroke-linecap:butt;stroke-linejoin:miter;stroke-opacity:1" d="M 117.447,191.319 138.553,209.787 z" id="boundary" inkscape:connector-curvature="0" />
	<path style="fill:none;stroke:red;stroke-width:1px;stroke-linecap:butt;stroke-linejoin:miter;stroke-opacity:1" d="M 117.447,191.319 93.7021,178.128 z" id="boundary" inkscape:connector-curvature="0" />
	<path style="fill:none;stroke:red;stroke-width:1px;stroke-linecap:butt;stroke-linejoin:miter;stroke-opacity:1" d="M 217.702,77.8723 204.511,54.1277 z" id="boundary" inkscape:connector-curvature="0" />
	<path style="fill:none;stroke:red;stroke-width:1px;stroke-linecap:butt;stroke-linejoin:miter;stroke-opacity:1" d="M 183.404,241.447 162.298,222.979 z" id="boundary" inkscape:connector-curvature="0" />
	<path style="fill:none;stroke:red;stroke-width:1px;stroke-linecap:butt;stroke-linejoin:miter;stroke-opacity:1" d="M 162.298,222.979 138.553,209.787 z" id="boundary" inkscape:connector-curvature="0" />
	<path style="fill:none;stroke:red;stroke-width:1px;stroke-linecap:butt;stroke-linejoin:miter;stroke-opacity:1" d="M 236.17,98.9787 217.702,77.8723 z" id="boundary" inkscape:connector-curvature="0" />
	<path style="fill:none;stroke:red;stroke-width:1px;stroke-linecap:butt;stroke-linejoin:miter;stroke-opacity:1" d="M 236.17,98.9787 262.553,109.532 z" id="boundary" inkscape:connector-curvature="0" />
	<path style="fill:none;stroke:red;stroke-width:1px;stroke-linecap:butt;stroke-linejoin:miter;stroke-opacity:1" d="M 228.255,270.468 207.149,254.638 z" id="boundary" inkscape:connector-curvature="0" />
	<path style="fill:none;stroke:red;stroke-width:1px;stroke-linecap:butt;stroke-linejoin:miter;stroke-opacity:1" d="M 183.404,241.447 207.149,254.638 z" id="boundary" inkscape:connector-curvature="0" />
	<path style="fill:none;stroke:red;stroke-width:1px;stroke-linecap:butt;stroke-linejoin:miter;stroke-opacity:1" d="M 241.447,565.957 241.447,592.34 z" id="boundary" inkscape:connector-curvature="0" />
	<path style="fill:none;stroke:red;stroke-width:1px;stroke-linecap:butt;stroke-linejoin:miter;stroke-opacity:1" d="M 228.255,270.468 252,283.66 z" id="boundary" inkscape:connector-curvature="0" />
	<path style="fill:none;stroke:red;stroke-width:1px;stroke-linecap:butt;stroke-linejoin:miter;stroke-opacity:1" d="M 241.447,539.574 254.638,513.191 z" id="boundary" inkscape:connector-curvature="0" />
	<path style="fill:none;stroke:red;stroke-width:1px;stroke-linecap:butt;stroke-linejoin:miter;stroke-opacity:1" d="M 254.638,513.191 275.745,492.085 z" id="boundary" inkscape:connector-curvature="0" />
	<path style="fill:none;stroke:red;stroke-width:1px;stroke-linecap:butt;stroke-linejoin:miter;stroke-opacity:1" d="M 262.553,109.532 288.936,109.532 z" id="boundary" inkscape:connector-curvature="0" />
	<path style="fill:none;stroke:red;stroke-width:1px;stroke-linecap:butt;stroke-linejoin:miter;stroke-opacity:1" d="M 323.234,547.489 328.511,573.872 z" id="boundary" inkscape:connector-curvature="0" />
	<path style="fill:none;stroke:red;stroke-width:1px;stroke-linecap:butt;stroke-linejoin:miter;stroke-opacity:1" d="M 252,283.66 275.745,296.851 z" id="boundary" inkscape:connector-curvature="0" />
	<path style="fill:none;stroke:red;stroke-width:1px;stroke-linecap:butt;stroke-linejoin:miter;stroke-opacity:1" d="M 254.638,616.085 241.447,592.34 z" id="boundary" inkscape:connector-curvature="0" />
	<path style="fill:none;stroke:red;stroke-width:1px;stroke-linecap:butt;stroke-linejoin:miter;stroke-opacity:1" d="M 267.83,639.83 254.638,616.085 z" id="boundary" inkscape:connector-curvature="0" />
	<path style="fill:none;stroke:red;stroke-width:1px;stroke-linecap:butt;stroke-linejoin:miter;stroke-opacity:1" d="M 296.851,470.979 275.745,492.085 z" id="boundary" inkscape:connector-curvature="0" />
	<path style="fill:none;stroke:red;stroke-width:1px;stroke-linecap:butt;stroke-linejoin:miter;stroke-opacity:1" d="M 283.66,660.936 267.83,639.83 z" id="boundary" inkscape:connector-curvature="0" />
	<path style="fill:none;stroke:red;stroke-width:1px;stroke-linecap:butt;stroke-linejoin:miter;stroke-opacity:1" d="M 288.936,109.532 315.319,109.532 z" id="boundary" inkscape:connector-curvature="0" />
	<path style="fill:none;stroke:red;stroke-width:1px;stroke-linecap:butt;stroke-linejoin:miter;stroke-opacity:1" d="M 299.489,310.043 275.745,296.851 z" id="boundary" inkscape:connector-curvature="0" />
	<path style="fill:none;stroke:red;stroke-width:1px;stroke-linecap:butt;stroke-linejoin:miter;stroke-opacity:1" d="M 296.851,470.979 310.043,444.596 z" id="boundary" inkscape:connector-curvature="0" />
	<path style="fill:none;stroke:red;stroke-width:1px;stroke-linecap:butt;stroke-linejoin:miter;stroke-opacity:1" d="M 304.766,679.404 315.319,705.787 z" id="boundary" inkscape:connector-curvature="0" />
	<path style="fill:none;stroke:red;stroke-width:1px;stroke-linecap:butt;stroke-linejoin:miter;stroke-opacity:1" d="M 304.766,679.404 283.66,660.936 z" id="boundary" inkscape:connector-curvature="0" />
	<path style="fill:none;stroke:red;stroke-width:1px;stroke-linecap:butt;stroke-linejoin:miter;stroke-opacity:1" d="M 315.319,109.532 341.702,109.532 z" id="boundary" inkscape:connector-curvature="0" />
	<path style="fill:none;stroke:red;stroke-width:1px;stroke-linecap:butt;stroke-linejoin:miter;stroke-opacity:1" d="M 307.404,882.553 294.213,922.128 z" id="boundary" inkscape:connector-curvature="0" />
	<path style="fill:none;stroke:red;stroke-width:1px;stroke-linecap:butt;stroke-linejoin:miter;stroke-opacity:1" d="M 349.617,592.34 328.511,573.872 z" id="boundary" inkscape:connector-curvature="0" />
	<path style="fill:none;stroke:red;stroke-width:1px;stroke-linecap:butt;stroke-linejoin:miter;stroke-opacity:1" d="M 320.596,930.043 294.213,922.128 z" id="boundary" inkscape:connector-curvature="0" />
	<path style="fill:none;stroke:red;stroke-width:1px;stroke-linecap:butt;stroke-linejoin:miter;stroke-opacity:1" d="M 299.489,310.043 323.234,323.234 z" id="boundary" inkscape:connector-curvature="0" />
	<path style="fill:none;stroke:red;stroke-width:1px;stroke-linecap:butt;stroke-linejoin:miter;stroke-opacity:1" d="M 331.149,426.128 310.043,444.596 z" id="boundary" inkscape:connector-curvature="0" />
	<path style="fill:none;stroke:red;stroke-width:1px;stroke-linecap:butt;stroke-linejoin:miter;stroke-opacity:1" d="M 333.787,753.277 333.787,779.66 z" id="boundary" inkscape:connector-curvature="0" />
	<path style="fill:none;stroke:red;stroke-width:1px;stroke-linecap:butt;stroke-linejoin:miter;stroke-opacity:1" d="M 368.085,613.447 349.617,592.34 z" id="boundary" inkscape:connector-curvature="0" />
	<path style="fill:none;stroke:red;stroke-width:1px;stroke-linecap:butt;stroke-linejoin:miter;stroke-opacity:1" d="M 391.83,122.723 368.085,109.532 z" id="boundary" inkscape:connector-curvature="0" />
	<path style="fill:none;stroke:red;stroke-width:1px;stroke-linecap:butt;stroke-linejoin:miter;stroke-opacity:1" d="M 368.085,109.532 341.702,109.532 z" id="boundary" inkscape:connector-curvature="0" />
	<path style="fill:none;stroke:red;stroke-width:1px;stroke-linecap:butt;stroke-linejoin:miter;stroke-opacity:1" d="M 328.511,861.447 307.404,882.553 z" id="boundary" inkscape:connector-curvature="0" />
	<path style="fill:none;stroke:red;stroke-width:1px;stroke-linecap:butt;stroke-linejoin:miter;stroke-opacity:1" d="M 331.149,426.128 354.894,412.936 z" id="boundary" inkscape:connector-curvature="0" />
	<path style="fill:none;stroke:red;stroke-width:1px;stroke-linecap:butt;stroke-linejoin:miter;stroke-opacity:1" d="M 333.787,832.426 328.511,861.447 z" id="boundary" inkscape:connector-curvature="0" />
	<path style="fill:none;stroke:red;stroke-width:1px;stroke-linecap:butt;stroke-linejoin:miter;stroke-opacity:1" d="M 323.234,547.489 346.979,534.298 z" id="boundary" inkscape:connector-curvature="0" />
	<path style="fill:none;stroke:red;stroke-width:1px;stroke-linecap:butt;stroke-linejoin:miter;stroke-opacity:1" d="M 333.787,726.894 333.787,753.277 z" id="boundary" inkscape:connector-curvature="0" />
	<path style="fill:none;stroke:red;stroke-width:1px;stroke-linecap:butt;stroke-linejoin:miter;stroke-opacity:1" d="M 333.787,726.894 315.319,705.787 z" id="boundary" inkscape:connector-curvature="0" />
	<path style="fill:none;stroke:red;stroke-width:1px;stroke-linecap:butt;stroke-linejoin:miter;stroke-opacity:1" d="M 346.979,336.426 323.234,323.234 z" id="boundary" inkscape:connector-curvature="0" />
	<path style="fill:none;stroke:red;stroke-width:1px;stroke-linecap:butt;stroke-linejoin:miter;stroke-opacity:1" d="M 333.787,779.66 333.787,806.043 z" id="boundary" inkscape:connector-curvature="0" />
	<path style="fill:none;stroke:red;stroke-width:1px;stroke-linecap:butt;stroke-linejoin:miter;stroke-opacity:1" d="M 333.787,806.043 333.787,832.426 z" id="boundary" inkscape:connector-curvature="0" />
	<path style="fill:none;stroke:red;stroke-width:1px;stroke-linecap:butt;stroke-linejoin:miter;stroke-opacity:1" d="M 389.191,663.574 381.277,637.191 z" id="boundary" inkscape:connector-curvature="0" />
	<path style="fill:none;stroke:red;stroke-width:1px;stroke-linecap:butt;stroke-linejoin:miter;stroke-opacity:1" d="M 346.979,922.128 320.596,930.043 z" id="boundary" inkscape:connector-curvature="0" />
	<path style="fill:none;stroke:red;stroke-width:1px;stroke-linecap:butt;stroke-linejoin:miter;stroke-opacity:1" d="M 381.277,637.191 368.085,613.447 z" id="boundary" inkscape:connector-curvature="0" />
	<path style="fill:none;stroke:red;stroke-width:1px;stroke-linecap:butt;stroke-linejoin:miter;stroke-opacity:1" d="M 389.191,663.574 402.383,687.319 z" id="boundary" inkscape:connector-curvature="0" />
	<path style="fill:none;stroke:red;stroke-width:1px;stroke-linecap:butt;stroke-linejoin:miter;stroke-opacity:1" d="M 346.979,534.298 370.723,521.106 z" id="boundary" inkscape:connector-curvature="0" />
	<path style="fill:none;stroke:red;stroke-width:1px;stroke-linecap:butt;stroke-linejoin:miter;stroke-opacity:1" d="M 373.362,916.851 346.979,922.128 z" id="boundary" inkscape:connector-curvature="0" />
	<path style="fill:none;stroke:red;stroke-width:1px;stroke-linecap:butt;stroke-linejoin:miter;stroke-opacity:1" d="M 346.979,336.426 370.723,349.617 z" id="boundary" inkscape:connector-curvature="0" />
	<path style="fill:none;stroke:red;stroke-width:1px;stroke-linecap:butt;stroke-linejoin:miter;stroke-opacity:1" d="M 370.723,349.617 373.362,376 z" id="boundary" inkscape:connector-curvature="0" />
	<path style="fill:none;stroke:red;stroke-width:1px;stroke-linecap:butt;stroke-linejoin:miter;stroke-opacity:1" d="M 373.362,376 354.894,412.936 z" id="boundary" inkscape:connector-curvature="0" />
	<path style="fill:none;stroke:red;stroke-width:1px;stroke-linecap:butt;stroke-linejoin:miter;stroke-opacity:1" d="M 370.723,521.106 394.468,507.915 z" id="boundary" inkscape:connector-curvature="0" />
	<path style="fill:none;stroke:red;stroke-width:1px;stroke-linecap:butt;stroke-linejoin:miter;stroke-opacity:1" d="M 394.468,507.915 418.213,494.723 z" id="boundary" inkscape:connector-curvature="0" />
	<path style="fill:none;stroke:red;stroke-width:1px;stroke-linecap:butt;stroke-linejoin:miter;stroke-opacity:1" d="M 418.213,494.723 444.596,494.723 z" id="boundary" inkscape:connector-curvature="0" />
	<path style="fill:none;stroke:red;stroke-width:1px;stroke-linecap:butt;stroke-linejoin:miter;stroke-opacity:1" d="M 391.83,122.723 418.213,122.723 z" id="boundary" inkscape:connector-curvature="0" />
	<path style="fill:none;stroke:red;stroke-width:1px;stroke-linecap:butt;stroke-linejoin:miter;stroke-opacity:1" d="M 402.383,713.702 402.383,687.319 z" id="boundary" inkscape:connector-curvature="0" />
	<path style="fill:none;stroke:red;stroke-width:1px;stroke-linecap:butt;stroke-linejoin:miter;stroke-opacity:1" d="M 803.404,887.83 813.957,914.213 z" id="boundary" inkscape:connector-curvature="0" />
	<path style="fill:none;stroke:red;stroke-width:1px;stroke-linecap:butt;stroke-linejoin:miter;stroke-opacity:1" d="M 415.574,737.447 402.383,713.702 z" id="boundary" inkscape:connector-curvature="0" />
	<path style="fill:none;stroke:red;stroke-width:1px;stroke-linecap:butt;stroke-linejoin:miter;stroke-opacity:1" d="M 468.34,135.915 444.596,122.723 z" id="boundary" inkscape:connector-curvature="0" />
	<path style="fill:none;stroke:red;stroke-width:1px;stroke-linecap:butt;stroke-linejoin:miter;stroke-opacity:1" d="M 444.596,122.723 418.213,122.723 z" id="boundary" inkscape:connector-curvature="0" />
	<path style="fill:none;stroke:red;stroke-width:1px;stroke-linecap:butt;stroke-linejoin:miter;stroke-opacity:1" d="M 397.106,903.66 373.362,916.851 z" id="boundary" inkscape:connector-curvature="0" />
	<path style="fill:none;stroke:red;stroke-width:1px;stroke-linecap:butt;stroke-linejoin:miter;stroke-opacity:1" d="M 518.468,521.106 518.468,547.489 z" id="boundary" inkscape:connector-curvature="0" />
	<path style="fill:none;stroke:red;stroke-width:1px;stroke-linecap:butt;stroke-linejoin:miter;stroke-opacity:1" d="M 423.489,903.66 397.106,903.66 z" id="boundary" inkscape:connector-curvature="0" />
	<path style="fill:none;stroke:red;stroke-width:1px;stroke-linecap:butt;stroke-linejoin:miter;stroke-opacity:1" d="M 415.574,737.447 426.128,763.83 z" id="boundary" inkscape:connector-curvature="0" />
	<path style="fill:none;stroke:red;stroke-width:1px;stroke-linecap:butt;stroke-linejoin:miter;stroke-opacity:1" d="M 518.468,547.489 518.468,573.872 z" id="boundary" inkscape:connector-curvature="0" />
	<path style="fill:none;stroke:red;stroke-width:1px;stroke-linecap:butt;stroke-linejoin:miter;stroke-opacity:1" d="M 426.128,763.83 439.319,787.574 z" id="boundary" inkscape:connector-curvature="0" />
	<path style="fill:none;stroke:red;stroke-width:1px;stroke-linecap:butt;stroke-linejoin:miter;stroke-opacity:1" d="M 518.468,494.723 518.468,521.106 z" id="boundary" inkscape:connector-curvature="0" />
	<path style="fill:none;stroke:red;stroke-width:1px;stroke-linecap:butt;stroke-linejoin:miter;stroke-opacity:1" d="M 494.723,481.532 468.34,481.532 z" id="boundary" inkscape:connector-curvature="0" />
	<path style="fill:none;stroke:red;stroke-width:1px;stroke-linecap:butt;stroke-linejoin:miter;stroke-opacity:1" d="M 439.319,787.574 455.149,808.681 z" id="boundary" inkscape:connector-curvature="0" />
	<path style="fill:none;stroke:red;stroke-width:1px;stroke-linecap:butt;stroke-linejoin:miter;stroke-opacity:1" d="M 449.872,898.383 476.255,885.191 z" id="boundary" inkscape:connector-curvature="0" />
	<path style="fill:none;stroke:red;stroke-width:1px;stroke-linecap:butt;stroke-linejoin:miter;stroke-opacity:1" d="M 468.34,481.532 444.596,494.723 z" id="boundary" inkscape:connector-curvature="0" />
	<path style="fill:none;stroke:red;stroke-width:1px;stroke-linecap:butt;stroke-linejoin:miter;stroke-opacity:1" d="M 468.34,135.915 494.723,143.83 z" id="boundary" inkscape:connector-curvature="0" />
	<path style="fill:none;stroke:red;stroke-width:1px;stroke-linecap:butt;stroke-linejoin:miter;stroke-opacity:1" d="M 455.149,808.681 468.34,832.426 z" id="boundary" inkscape:connector-curvature="0" />
	<path style="fill:none;stroke:red;stroke-width:1px;stroke-linecap:butt;stroke-linejoin:miter;stroke-opacity:1" d="M 803.404,887.83 790.213,864.085 z" id="boundary" inkscape:connector-curvature="0" />
	<path style="fill:none;stroke:red;stroke-width:1px;stroke-linecap:butt;stroke-linejoin:miter;stroke-opacity:1" d="M 449.872,898.383 423.489,903.66 z" id="boundary" inkscape:connector-curvature="0" />
	<path style="fill:none;stroke:red;stroke-width:1px;stroke-linecap:butt;stroke-linejoin:miter;stroke-opacity:1" d="M 518.468,494.723 518.468,468.34 z" id="boundary" inkscape:connector-curvature="0" />
	<path style="fill:none;stroke:red;stroke-width:1px;stroke-linecap:butt;stroke-linejoin:miter;stroke-opacity:1" d="M 481.532,856.17 476.255,885.191 z" id="boundary" inkscape:connector-curvature="0" />
	<path style="fill:none;stroke:red;stroke-width:1px;stroke-linecap:butt;stroke-linejoin:miter;stroke-opacity:1" d="M 518.468,600.255 518.468,573.872 z" id="boundary" inkscape:connector-curvature="0" />
	<path style="fill:none;stroke:red;stroke-width:1px;stroke-linecap:butt;stroke-linejoin:miter;stroke-opacity:1" d="M 481.532,856.17 468.34,832.426 z" id="boundary" inkscape:connector-curvature="0" />
	<path style="fill:none;stroke:red;stroke-width:1px;stroke-linecap:butt;stroke-linejoin:miter;stroke-opacity:1" d="M 494.723,143.83 518.468,157.021 z" id="boundary" inkscape:connector-curvature="0" />
	<path style="fill:none;stroke:red;stroke-width:1px;stroke-linecap:butt;stroke-linejoin:miter;stroke-opacity:1" d="M 555.404,745.362 534.298,726.894 z" id="boundary" inkscape:connector-curvature="0" />
	<path style="fill:none;stroke:red;stroke-width:1px;stroke-linecap:butt;stroke-linejoin:miter;stroke-opacity:1" d="M 518.468,600.255 518.468,626.638 z" id="boundary" inkscape:connector-curvature="0" />
	<path style="fill:none;stroke:red;stroke-width:1px;stroke-linecap:butt;stroke-linejoin:miter;stroke-opacity:1" d="M 518.468,157.021 539.574,175.489 z" id="boundary" inkscape:connector-curvature="0" />
	<path style="fill:none;stroke:red;stroke-width:1px;stroke-linecap:butt;stroke-linejoin:miter;stroke-opacity:1" d="M 518.468,626.638 518.468,653.021 z" id="boundary" inkscape:connector-curvature="0" />
	<path style="fill:none;stroke:red;stroke-width:1px;stroke-linecap:butt;stroke-linejoin:miter;stroke-opacity:1" d="M 563.319,188.681 587.064,201.872 z" id="boundary" inkscape:connector-curvature="0" />
	<path style="fill:none;stroke:red;stroke-width:1px;stroke-linecap:butt;stroke-linejoin:miter;stroke-opacity:1" d="M 539.574,175.489 563.319,188.681 z" id="boundary" inkscape:connector-curvature="0" />
	<path style="fill:none;stroke:red;stroke-width:1px;stroke-linecap:butt;stroke-linejoin:miter;stroke-opacity:1" d="M 518.468,679.404 518.468,653.021 z" id="boundary" inkscape:connector-curvature="0" />
	<path style="fill:none;stroke:red;stroke-width:1px;stroke-linecap:butt;stroke-linejoin:miter;stroke-opacity:1" d="M 608.17,217.702 587.064,201.872 z" id="boundary" inkscape:connector-curvature="0" />
	<path style="fill:none;stroke:red;stroke-width:1px;stroke-linecap:butt;stroke-linejoin:miter;stroke-opacity:1" d="M 518.468,705.787 518.468,679.404 z" id="boundary" inkscape:connector-curvature="0" />
	<path style="fill:none;stroke:red;stroke-width:1px;stroke-linecap:butt;stroke-linejoin:miter;stroke-opacity:1" d="M 626.638,534.298 626.638,507.915 z" id="boundary" inkscape:connector-curvature="0" />
	<path style="fill:none;stroke:red;stroke-width:1px;stroke-linecap:butt;stroke-linejoin:miter;stroke-opacity:1" d="M 626.638,560.681 626.638,534.298 z" id="boundary" inkscape:connector-curvature="0" />
	<path style="fill:none;stroke:red;stroke-width:1px;stroke-linecap:butt;stroke-linejoin:miter;stroke-opacity:1" d="M 534.298,726.894 518.468,705.787 z" id="boundary" inkscape:connector-curvature="0" />
	<path style="fill:none;stroke:red;stroke-width:1px;stroke-linecap:butt;stroke-linejoin:miter;stroke-opacity:1" d="M 626.638,639.83 626.638,613.447 z" id="boundary" inkscape:connector-curvature="0" />
	<path style="fill:none;stroke:red;stroke-width:1px;stroke-linecap:butt;stroke-linejoin:miter;stroke-opacity:1" d="M 555.404,745.362 579.149,758.553 z" id="boundary" inkscape:connector-curvature="0" />
	<path style="fill:none;stroke:red;stroke-width:1px;stroke-linecap:butt;stroke-linejoin:miter;stroke-opacity:1" d="M 626.638,639.83 639.83,663.574 z" id="boundary" inkscape:connector-curvature="0" />
	<path style="fill:none;stroke:red;stroke-width:1px;stroke-linecap:butt;stroke-linejoin:miter;stroke-opacity:1" d="M 626.638,238.809 639.83,262.553 z" id="boundary" inkscape:connector-curvature="0" />
	<path style="fill:none;stroke:red;stroke-width:1px;stroke-linecap:butt;stroke-linejoin:miter;stroke-opacity:1" d="M 626.638,238.809 608.17,217.702 z" id="boundary" inkscape:connector-curvature="0" />
	<path style="fill:none;stroke:red;stroke-width:1px;stroke-linecap:butt;stroke-linejoin:miter;stroke-opacity:1" d="M 579.149,758.553 605.532,758.553 z" id="boundary" inkscape:connector-curvature="0" />
	<path style="fill:none;stroke:red;stroke-width:1px;stroke-linecap:butt;stroke-linejoin:miter;stroke-opacity:1" d="M 605.532,758.553 629.277,771.745 z" id="boundary" inkscape:connector-curvature="0" />
	<path style="fill:none;stroke:red;stroke-width:1px;stroke-linecap:butt;stroke-linejoin:miter;stroke-opacity:1" d="M 629.277,771.745 653.021,784.936 z" id="boundary" inkscape:connector-curvature="0" />
	<path style="fill:none;stroke:red;stroke-width:1px;stroke-linecap:butt;stroke-linejoin:miter;stroke-opacity:1" d="M 626.638,587.064 626.638,560.681 z" id="boundary" inkscape:connector-curvature="0" />
	<path style="fill:none;stroke:red;stroke-width:1px;stroke-linecap:butt;stroke-linejoin:miter;stroke-opacity:1" d="M 626.638,587.064 626.638,613.447 z" id="boundary" inkscape:connector-curvature="0" />
	<path style="fill:none;stroke:red;stroke-width:1px;stroke-linecap:butt;stroke-linejoin:miter;stroke-opacity:1" d="M 658.298,283.66 639.83,262.553 z" id="boundary" inkscape:connector-curvature="0" />
	<path style="fill:none;stroke:red;stroke-width:1px;stroke-linecap:butt;stroke-linejoin:miter;stroke-opacity:1" d="M 626.638,507.915 647.745,489.447 z" id="boundary" inkscape:connector-curvature="0" />
	<path style="fill:none;stroke:red;stroke-width:1px;stroke-linecap:butt;stroke-linejoin:miter;stroke-opacity:1" d="M 666.213,468.34 647.745,489.447 z" id="boundary" inkscape:connector-curvature="0" />
	<path style="fill:none;stroke:red;stroke-width:1px;stroke-linecap:butt;stroke-linejoin:miter;stroke-opacity:1" d="M 639.83,663.574 660.936,679.404 z" id="boundary" inkscape:connector-curvature="0" />
	<path style="fill:none;stroke:red;stroke-width:1px;stroke-linecap:butt;stroke-linejoin:miter;stroke-opacity:1" d="M 666.213,468.34 687.319,449.872 z" id="boundary" inkscape:connector-curvature="0" />
	<path style="fill:none;stroke:red;stroke-width:1px;stroke-linecap:butt;stroke-linejoin:miter;stroke-opacity:1" d="M 679.404,790.213 703.149,803.404 z" id="boundary" inkscape:connector-curvature="0" />
	<path style="fill:none;stroke:red;stroke-width:1px;stroke-linecap:butt;stroke-linejoin:miter;stroke-opacity:1" d="M 679.404,790.213 653.021,784.936 z" id="boundary" inkscape:connector-curvature="0" />
	<path style="fill:none;stroke:red;stroke-width:1px;stroke-linecap:butt;stroke-linejoin:miter;stroke-opacity:1" d="M 660.936,679.404 684.681,692.596 z" id="boundary" inkscape:connector-curvature="0" />
	<path style="fill:none;stroke:red;stroke-width:1px;stroke-linecap:butt;stroke-linejoin:miter;stroke-opacity:1" d="M 658.298,283.66 684.681,294.213 z" id="boundary" inkscape:connector-curvature="0" />
	<path style="fill:none;stroke:red;stroke-width:1px;stroke-linecap:butt;stroke-linejoin:miter;stroke-opacity:1" d="M 703.149,803.404 729.532,811.319 z" id="boundary" inkscape:connector-curvature="0" />
	<path style="fill:none;stroke:red;stroke-width:1px;stroke-linecap:butt;stroke-linejoin:miter;stroke-opacity:1" d="M 729.532,811.319 745.362,832.426 z" id="boundary" inkscape:connector-curvature="0" />
	<path style="fill:none;stroke:red;stroke-width:1px;stroke-linecap:butt;stroke-linejoin:miter;stroke-opacity:1" d="M 684.681,294.213 692.596,320.596 z" id="boundary" inkscape:connector-curvature="0" />
	<path style="fill:none;stroke:red;stroke-width:1px;stroke-linecap:butt;stroke-linejoin:miter;stroke-opacity:1" d="M 684.681,692.596 705.787,711.064 z" id="boundary" inkscape:connector-curvature="0" />
	<path style="fill:none;stroke:red;stroke-width:1px;stroke-linecap:butt;stroke-linejoin:miter;stroke-opacity:1" d="M 692.596,402.383 692.596,376 z" id="boundary" inkscape:connector-curvature="0" />
	<path style="fill:none;stroke:red;stroke-width:1px;stroke-linecap:butt;stroke-linejoin:miter;stroke-opacity:1" d="M 687.319,449.872 692.596,402.383 z" id="boundary" inkscape:connector-curvature="0" />
	<path style="fill:none;stroke:red;stroke-width:1px;stroke-linecap:butt;stroke-linejoin:miter;stroke-opacity:1" d="M 705.787,344.34 692.596,376 z" id="boundary" inkscape:connector-curvature="0" />
	<path style="fill:none;stroke:red;stroke-width:1px;stroke-linecap:butt;stroke-linejoin:miter;stroke-opacity:1" d="M 692.596,320.596 705.787,344.34 z" id="boundary" inkscape:connector-curvature="0" />
	<path style="fill:none;stroke:red;stroke-width:1px;stroke-linecap:butt;stroke-linejoin:miter;stroke-opacity:1" d="M 705.787,711.064 732.17,716.34 z" id="boundary" inkscape:connector-curvature="0" />
	<path style="fill:none;stroke:red;stroke-width:1px;stroke-linecap:butt;stroke-linejoin:miter;stroke-opacity:1" d="M 732.17,716.34 755.915,729.532 z" id="boundary" inkscape:connector-curvature="0" />
	<path style="fill:none;stroke:red;stroke-width:1px;stroke-linecap:butt;stroke-linejoin:miter;stroke-opacity:1" d="M 745.362,832.426 771.745,842.979 z" id="boundary" inkscape:connector-curvature="0" />
	<path style="fill:none;stroke:red;stroke-width:1px;stroke-linecap:butt;stroke-linejoin:miter;stroke-opacity:1" d="M 771.745,842.979 790.213,864.085 z" id="boundary" inkscape:connector-curvature="0" />
	<path style="fill:none;stroke:red;stroke-width:1px;stroke-linecap:butt;stroke-linejoin:miter;stroke-opacity:1" d="M 755.915,729.532 777.021,745.362 z" id="boundary" inkscape:connector-curvature="0" />
	<path style="fill:none;stroke:red;stroke-width:1px;stroke-linecap:butt;stroke-linejoin:miter;stroke-opacity:1" d="M 777.021,745.362 790.213,769.106 z" id="boundary" inkscape:connector-curvature="0" />
	<path style="fill:none;stroke:red;stroke-width:1px;stroke-linecap:butt;stroke-linejoin:miter;stroke-opacity:1" d="M 835.064,930.043 835.064,956.426 z" id="boundary" inkscape:connector-curvature="0" />
	<path style="fill:none;stroke:red;stroke-width:1px;stroke-linecap:butt;stroke-linejoin:miter;stroke-opacity:1" d="M 835.064,930.043 813.957,914.213 z" id="boundary" inkscape:connector-curvature="0" />
	<path style="fill:none;stroke:red;stroke-width:1px;stroke-linecap:butt;stroke-linejoin:miter;stroke-opacity:1" d="M 790.213,769.106 808.681,790.213 z" id="boundary" inkscape:connector-curvature="0" />
	<path style="fill:none;stroke:red;stroke-width:1px;stroke-linecap:butt;stroke-linejoin:miter;stroke-opacity:1" d="M 808.681,790.213 829.787,808.681 z" id="boundary" inkscape:connector-curvature="0" />
	<path style="fill:none;stroke:red;stroke-width:1px;stroke-linecap:butt;stroke-linejoin:miter;stroke-opacity:1" d="M 842.979,982.809 835.064,956.426 z" id="boundary" inkscape:connector-curvature="0" />
	<path style="fill:none;stroke:red;stroke-width:1px;stroke-linecap:butt;stroke-linejoin:miter;stroke-opacity:1" d="M 829.787,808.681 856.17,808.681 z" id="boundary" inkscape:connector-curvature="0" />
	<path style="fill:none;stroke:red;stroke-width:1px;stroke-linecap:butt;stroke-linejoin:miter;stroke-opacity:1" d="M 903.66,866.723 901.021,840.34 z" id="boundary" inkscape:connector-curvature="0" />
	<path style="fill:none;stroke:red;stroke-width:1px;stroke-linecap:butt;stroke-linejoin:miter;stroke-opacity:1" d="M 901.021,840.34 879.915,821.872 z" id="boundary" inkscape:connector-curvature="0" />
	<path style="fill:none;stroke:red;stroke-width:1px;stroke-linecap:butt;stroke-linejoin:miter;stroke-opacity:1" d="M 842.979,982.809 866.723,996 z" id="boundary" inkscape:connector-curvature="0" />
	<path style="fill:none;stroke:red;stroke-width:1px;stroke-linecap:butt;stroke-linejoin:miter;stroke-opacity:1" d="M 856.17,808.681 879.915,821.872 z" id="boundary" inkscape:connector-curvature="0" />
	<path style="fill:none;stroke:red;stroke-width:1px;stroke-linecap:butt;stroke-linejoin:miter;stroke-opacity:1" d="M 890.468,969.617 866.723,996 z" id="boundary" inkscape:connector-curvature="0" />
	<path style="fill:none;stroke:red;stroke-width:1px;stroke-linecap:butt;stroke-linejoin:miter;stroke-opacity:1" d="M 903.66,893.106 903.66,866.723 z" id="boundary" inkscape:connector-curvature="0" />
	<path style="fill:none;stroke:red;stroke-width:1px;stroke-linecap:butt;stroke-linejoin:miter;stroke-opacity:1" d="M 903.66,893.106 903.66,919.489 z" id="boundary" inkscape:connector-curvature="0" />
	<path style="fill:none;stroke:red;stroke-width:1px;stroke-linecap:butt;stroke-linejoin:miter;stroke-opacity:1" d="M 903.66,919.489 903.66,945.872 z" id="boundary" inkscape:connector-curvature="0" />
	<path style="fill:none;stroke:red;stroke-width:1px;stroke-linecap:butt;stroke-linejoin:miter;stroke-opacity:1" d="M 903.66,945.872 890.468,969.617 z" id="boundary" inkscape:connector-curvature="0" />
	<circle cx="4" cy="64.6809" r="4" fill="#0" id="circle0"/>
	<circle cx="4" cy="91.0638" r="4" fill="#0" id="circle1"/>
	<circle cx="4" cy="117.447" r="4" fill="#0" id="circle2"/>
	<circle cx="17.1915" cy="38.2979" r="4" fill="#0" id="circle3"/>
	<circle cx="25.1064" cy="135.915" r="4" fill="#0" id="circle4"/>
	<circle cx="38.2979" cy="17.1915" r="4" fill="#0" id="circle5"/>
	<circle cx="46.2128" cy="151.745" r="4" fill="#0" id="circle6"/>
	<circle cx="62.0426" cy="4" r="4" fill="#0" id="circle7"/>
	<circle cx="69.9574" cy="164.936" r="4" fill="#0" id="circle8"/>
	<circle cx="88.4255" cy="4" r="4" fill="#0" id="circle9"/>
	<circle cx="93.7021" cy="178.128" r="4" fill="#0" id="circle10"/>
	<circle cx="114.809" cy="4" r="4" fill="#0" id="circle11"/>
	<circle cx="117.447" cy="191.319" r="4" fill="#0" id="circle12"/>
	<circle cx="138.553" cy="17.1915" r="4" fill="#0" id="circle13"/>
	<circle cx="138.553" cy="209.787" r="4" fill="#0" id="circle14"/>
	<circle cx="162.298" cy="222.979" r="4" fill="#0" id="circle15"/>
	<circle cx="164.936" cy="17.1915" r="4" fill="#0" id="circle16"/>
	<circle cx="183.404" cy="241.447" r="4" fill="#0" id="circle17"/>
	<circle cx="186.043" cy="33.0213" r="4" fill="#0" id="circle18"/>
	<circle cx="204.511" cy="54.1277" r="4" fill="#0" id="circle19"/>
	<circle cx="207.149" cy="254.638" r="4" fill="#0" id="circle20"/>
	<circle cx="217.702" cy="77.8723" r="4" fill="#0" id="circle21"/>
	<circle cx="228.255" cy="270.468" r="4" fill="#0" id="circle22"/>
	<circle cx="236.17" cy="98.9787" r="4" fill="#0" id="circle23"/>
	<circle cx="241.447" cy="539.574" r="4" fill="#0" id="circle24"/>
	<circle cx="241.447" cy="565.957" r="4" fill="#0" id="circle25"/>
	<circle cx="241.447" cy="592.34" r="4" fill="#0" id="circle26"/>
	<circle cx="252" cy="283.66" r="4" fill="#0" id="circle27"/>
	<circle cx="254.638" cy="513.191" r="4" fill="#0" id="circle28"/>
	<circle cx="254.638" cy="616.085" r="4" fill="#0" id="circle29"/>
	<circle cx="262.553" cy="109.532" r="4" fill="#0" id="circle30"/>
	<circle cx="267.83" cy="639.83" r="4" fill="#0" id="circle31"/>
	<circle cx="275.745" cy="296.851" r="4" fill="#0" id="circle32"/>
	<circle cx="275.745" cy="492.085" r="4" fill="#0" id="circle33"/>
	<circle cx="283.66" cy="660.936" r="4" fill="#0" id="circle34"/>
	<circle cx="288.936" cy="109.532" r="4" fill="#0" id="circle35"/>
	<circle cx="294.213" cy="922.128" r="4" fill="#0" id="circle36"/>
	<circle cx="296.851" cy="470.979" r="4" fill="#0" id="circle37"/>
	<circle cx="299.489" cy="310.043" r="4" fill="#0" id="circle38"/>
	<circle cx="304.766" cy="679.404" r="4" fill="#0" id="circle39"/>
	<circle cx="307.404" cy="882.553" r="4" fill="#0" id="circle40"/>
	<circle cx="310.043" cy="444.596" r="4" fill="#0" id="circle41"/>
	<circle cx="315.319" cy="109.532" r="4" fill="#0" id="circle42"/>
	<circle cx="315.319" cy="705.787" r="4" fill="#0" id="circle43"/>
	<circle cx="320.596" cy="930.043" r="4" fill="#0" id="circle44"/>
	<circle cx="323.234" cy="323.234" r="4" fill="#0" id="circle45"/>
	<circle cx="323.234" cy="547.489" r="4" fill="#0" id="circle46"/>
	<circle cx="328.511" cy="573.872" r="4" fill="#0" id="circle47"/>
	<circle cx="328.511" cy="861.447" r="4" fill="#0" id="circle48"/>
	<circle cx="331.149" cy="426.128" r="4" fill="#0" id="circle49"/>
	<circle cx="333.787" cy="726.894" r="4" fill="#0" id="circle50"/>
	<circle cx="333.787" cy="753.277" r="4" fill="#0" id="circle51"/>
	<circle cx="333.787" cy="779.66" r="4" fill="#0" id="circle52"/>
	<circle cx="333.787" cy="806.043" r="4" fill="#0" id="circle53"/>
	<circle cx="333.787" cy="832.426" r="4" fill="#0" id="circle54"/>
	<circle cx="341.702" cy="109.532" r="4" fill="#0" id="circle55"/>
	<circle cx="346.979" cy="336.426" r="4" fill="#0" id="circle56"/>
	<circle cx="346.979" cy="534.298" r="4" fill="#0" id="circle57"/>
	<circle cx="346.979" cy="922.128" r="4" fill="#0" id="circle58"/>
	<circle cx="349.617" cy="592.34" r="4" fill="#0" id="circle59"/>
	<circle cx="354.894" cy="412.936" r="4" fill="#0" id="circle60"/>
	<circle cx="368.085" cy="109.532" r="4" fill="#0" id="circle61"/>
	<circle cx="368.085" cy="613.447" r="4" fill="#0" id="circle62"/>
	<circle cx="370.723" cy="349.617" r="4" fill="#0" id="circle63"/>
	<circle cx="370.723" cy="521.106" r="4" fill="#0" id="circle64"/>
	<circle cx="373.362" cy="376" r="4" fill="#0" id="circle65"/>
	<circle cx="373.362" cy="916.851" r="4" fill="#0" id="circle66"/>
	<circle cx="381.277" cy="637.191" r="4" fill="#0" id="circle67"/>
	<circle cx="389.191" cy="663.574" r="4" fill="#0" id="circle68"/>
	<circle cx="391.83" cy="122.723" r="4" fill="#0" id="circle69"/>
	<circle cx="394.468" cy="507.915" r="4" fill="#0" id="circle70"/>
	<circle cx="397.106" cy="903.66" r="4" fill="#0" id="circle71"/>
	<circle cx="402.383" cy="687.319" r="4" fill="#0" id="circle72"/>
	<circle cx="402.383" cy="713.702" r="4" fill="#0" id="circle73"/>
	<circle cx="415.574" cy="737.447" r="4" fill="#0" id="circle74"/>
	<circle cx="418.213" cy="122.723" r="4" fill="#0" id="circle75"/>
	<circle cx="418.213" cy="494.723" r="4" fill="#0" id="circle76"/>
	<circle cx="423.489" cy="903.66" r="4" fill="#0" id="circle77"/>
	<circle cx="426.128" cy="763.83" r="4" fill="#0" id="circle78"/>
	<circle cx="439.319" cy="787.574" r="4" fill="#0" id="circle79"/>
	<circle cx="444.596" cy="122.723" r="4" fill="#0" id="circle80"/>
	<circle cx="444.596" cy="494.723" r="4" fill="#0" id="circle81"/>
	<circle cx="449.872" cy="898.383" r="4" fill="#0" id="circle82"/>
	<circle cx="455.149" cy="808.681" r="4" fill="#0" id="circle83"/>
	<circle cx="468.34" cy="135.915" r="4" fill="#0" id="circle84"/>
	<circle cx="468.34" cy="481.532" r="4" fill="#0" id="circle85"/>
	<circle cx="468.34" cy="832.426" r="4" fill="#0" id="circle86"/>
	<circle cx="476.255" cy="885.191" r="4" fill="#0" id="circle87"/>
	<circle cx="481.532" cy="856.17" r="4" fill="#0" id="circle88"/>
	<circle cx="494.723" cy="143.83" r="4" fill="#0" id="circle89"/>
	<circle cx="494.723" cy="481.532" r="4" fill="#0" id="circle90"/>
	<circle cx="518.468" cy="157.021" r="4" fill="#0" id="circle91"/>
	<circle cx="518.468" cy="468.34" r="4" fill="#0" id="circle92"/>
	<circle cx="518.468" cy="494.723" r="4" fill="#0" id="circle93"/>
	<circle cx="518.468" cy="521.106" r="4" fill="#0" id="circle94"/>
	<circle cx="518.468" cy="547.489" r="4" fill="#0" id="circle95"/>
	<circle cx="518.468" cy="573.872" r="4" fill="#0" id="circle96"/>
	<circle cx="518.468" cy="600.255" r="4" fill="#0" id="circle97"/>
	<circle cx="518.468" cy="626.638" r="4" fill="#0" id="circle98"/>
	<circle cx="518.468" cy="653.021" r="4" fill="#0" id="circle99"/>
	<circle cx="518.468" cy="679.404" r="4" fill="#0" id="circle100"/>
	<circle cx="518.468" cy="705.787" r="4" fill="#0" id="circle101"/>
	<circle cx="534.298" cy="726.894" r="4" fill="#0" id="circle102"/>
	<circle cx="539.574" cy="175.489" r="4" fill="#0" id="circle103"/>
	<circle cx="555.404" cy="745.362" r="4" fill="#0" id="circle104"/>
	<circle cx="563.319" cy="188.681" r="4" fill="#0" id="circle105"/>
	<circle cx="579.149" cy="758.553" r="4" fill="#0" id="circle106"/>
	<circle cx="587.064" cy="201.872" r="4" fill="#0" id="circle107"/>
	<circle cx="605.532" cy="758.553" r="4" fill="#0" id="circle108"/>
	<circle cx="608.17" cy="217.702" r="4" fill="#0" id="circle109"/>
	<circle cx="626.638" cy="238.809" r="4" fill="#0" id="circle110"/>
	<circle cx="626.638" cy="507.915" r="4" fill="#0" id="circle111"/>
	<circle cx="626.638" cy="534.298" r="4" fill="#0" id="circle112"/>
	<circle cx="626.638" cy="560.681" r="4" fill="#0" id="circle113"/>
	<circle cx="626.638" cy="587.064" r="4" fill="#0" id="circle114"/>
	<circle cx="626.638" cy="613.447" r="4" fill="#0" id="circle115"/>
	<circle cx="626.638" cy="639.83" r="4" fill="#0" id="circle116"/>
	<circle cx="629.277" cy="771.745" r="4" fill="#0" id="circle117"/>
	<circle cx="639.83" cy="262.553" r="4" fill="#0" id="circle118"/>
	<circle cx="639.83" cy="663.574" r="4" fill="#0" id="circle119"/>
	<circle cx="647.745" cy="489.447" r="4" fill="#0" id="circle120"/>
	<circle cx="653.021" cy="784.936" r="4" fill="#0" id="circle121"/>
	<circle cx="658.298" cy="283.66" r="4" fill="#0" id="circle122"/>
	<circle cx="660.936" cy="679.404" r="4" fill="#0" id="circle123"/>
	<circle cx="666.213" cy="468.34" r="4" fill="#0" id="circle124"/>
	<circle cx="679.404" cy="790.213" r="4" fill="#0" id="circle125"/>
	<circle cx="684.681" cy="294.213" r="4" fill="#0" id="circle126"/>
	<circle cx="684.681" cy="692.596" r="4" fill="#0" id="circle127"/>
	<circle cx="687.319" cy="449.872" r="4" fill="#0" id="circle128"/>
	<circle cx="692.596" cy="320.596" r="4" fill="#0" id="circle129"/>
	<circle cx="692.596" cy="376" r="4" fill="#0" id="circle130"/>
	<circle cx="692.596" cy="402.383" r="4" fill="#0" id="circle131"/>
	<circle cx="703.149" cy="803.404" r="4" fill="#0" id="circle132"/>
	<circle cx="705.787" cy="344.34" r="4" fill="#0" id="circle133"/>
	<circle cx="705.787" cy="711.064" r="4" fill="#0" id="circle134"/>
	<circle cx="729.532" cy="811.319" r="4" fill="#0" id="circle135"/>
	<circle cx="732.17" cy="716.34" r="4" fill="#0" id="circle136"/>
	<circle cx="745.362" cy="832.426" r="4" fill="#0" id="circle137"/>
	<circle cx="755.915" cy="729.532" r="4" fill="#0" id="circle138"/>
	<circle cx="771.745" cy="842.979" r="4" fill="#0" id="circle139"/>
	<circle cx="777.021" cy="745.362" r="4" fill="#0" id="circle140"/>
	<circle cx="790.213" cy="769.106" r="4" fill="#0" id="circle141"/>
	<circle cx="790.213" cy="864.085" r="4" fill="#0" id="circle142"/>
	<circle cx="803.404" cy="887.83" r="4" fill="#0" id="circle143"/>
	<circle cx="808.681" cy="790.213" r="4" fill="#0" id="circle144"/>
	<circle cx="813.957" cy="914.213" r="4" fill="#0" id="circle145"/>
	<circle cx="829.787" cy="808.681" r="4" fill="#0" id="circle146"/>
	<circle cx="835.064" cy="930.043" r="4" fill="#0" id="circle147"/>
	<circle cx="835.064" cy="956.426" r="4" fill="#0" id="circle148"/>
	<circle cx="842.979" cy="982.809" r="4" fill="#0" id="circle149"/>
	<circle cx="856.17" cy="808.681" r="4" fill="#0" id="circle150"/>
	<circle cx="866.723" cy="996" r="4" fill="#0" id="circle151"/>
	<circle cx="879.915" cy="821.872" r="4" fill="#0" id="circle152"/>
	<circle cx="890.468" cy="969.617" r="4" fill="#0" id="circle153"/>
	<circle cx="901.021" cy="840.34" r="4" fill="#0" id="circle154"/>
	<circle cx="903.66" cy="866.723" r="4" fill="#0" id="circle155"/>
	<circle cx="903.66" cy="893.106" r="4" fill="#0" id="circle156"/>
	<circle cx="903.66" cy="919.489" r="4" fill="#0" id="circle157"/>
	<circle cx="903.66" cy="945.872" r="4" fill="#0" id="circle158"/>
	</g>
</svg>