<?xml version="1.0" encoding="UTF-8" standalone="no"?>
<!-- Created with CurveBenchmark -->
<svg
	xmlns:dc="http://purl.org/dc/elements/1.1/"
	xmlns:cc="http://creativecommons.org/ns#"
	xmlns:rdf="http://www.w3.org/1999/02/22-rdf-syntax-ns#"
	xmlns:svg="http://www.w3.org/2000/svg"
	xmlns="http://www.w3.org/2000/svg"
	xmlns:sodipodi="http://sodipodi.sourceforge.net/DTD/sodipodi-0.dtd"
	xmlns:inkscape="http://www.inkscape.org/namespaces/inkscape"
	width="1000"
	height="1000"
	id="svg2"
	version="1.1"
	sodipodi:docname="manifold/peel-spoon-5.png.txt">
<defs
	id="defs4" />
<metadata
	id="metadata7">
	<rdf:RDF>
		<cc:Work
			rdf:about="">
			<dc:format>image/svg+xml</dc:format>
			<dc:type
				rdf:resource="http://purl.org/dc/dcmitype/StillImage" />
			<dc:title></dc:title>
		</cc:Work>
	</rdf:RDF>
</metadata>
<g
	inkscape:label="Layer 1"
	inkscape:groupmode="layer"
	id="layer1">
	<path style="fill:none;stroke:red;stroke-width:1px;stroke-linecap:butt;stroke-linejoin:miter;stroke-opacity:1" d="M 8.40497,55.0977 4,63.9076 z" id="boundary" inkscape:connector-curvature="0" />
	<path style="fill:none;stroke:red;stroke-width:1px;stroke-linecap:butt;stroke-linejoin:miter;stroke-opacity:1" d="M 4,63.9076 4,72.7176 z" id="boundary" inkscape:connector-curvature="0" />
	<path style="fill:none;stroke:red;stroke-width:1px;stroke-linecap:butt;stroke-linejoin:miter;stroke-opacity:1" d="M 8.40497,55.0977 8.40497,46.2877 z" id="boundary" inkscape:connector-curvature="0" />
	<path style="fill:none;stroke:red;stroke-width:1px;stroke-linecap:butt;stroke-linejoin:miter;stroke-opacity:1" d="M 4,72.7176 4,81.5275 z" id="boundary" inkscape:connector-curvature="0" />
	<path style="fill:none;stroke:red;stroke-width:1px;stroke-linecap:butt;stroke-linejoin:miter;stroke-opacity:1" d="M 8.40497,98.2664 4,90.3375 z" id="boundary" inkscape:connector-curvature="0" />
	<path style="fill:none;stroke:red;stroke-width:1px;stroke-linecap:butt;stroke-linejoin:miter;stroke-opacity:1" d="M 4,90.3375 4,81.5275 z" id="boundary" inkscape:connector-curvature="0" />
	<path style="fill:none;stroke:red;stroke-width:1px;stroke-linecap:butt;stroke-linejoin:miter;stroke-opacity:1" d="M 12.8099,37.4778 19.8579,30.4298 z" id="boundary" inkscape:connector-curvature="0" />
	<path style="fill:none;stroke:red;stroke-width:1px;stroke-linecap:butt;stroke-linejoin:miter;stroke-opacity:1" d="M 8.40497,107.076 8.40497,98.2664 z" id="boundary" inkscape:connector-curvature="0" />
	<path style="fill:none;stroke:red;stroke-width:1px;stroke-linecap:butt;stroke-linejoin:miter;stroke-opacity:1" d="M 19.8579,30.4298 26.9059,23.3819 z" id="boundary" inkscape:connector-curvature="0" />
	<path style="fill:none;stroke:red;stroke-width:1px;stroke-linecap:butt;stroke-linejoin:miter;stroke-opacity:1" d="M 8.40497,46.2877 12.8099,37.4778 z" id="boundary" inkscape:connector-curvature="0" />
	<path style="fill:none;stroke:red;stroke-width:1px;stroke-linecap:butt;stroke-linejoin:miter;stroke-opacity:1" d="M 12.8099,115.005 8.40497,107.076 z" id="boundary" inkscape:connector-curvature="0" />
	<path style="fill:none;stroke:red;stroke-width:1px;stroke-linecap:butt;stroke-linejoin:miter;stroke-opacity:1" d="M 17.2149,122.934 12.8099,115.005 z" id="boundary" inkscape:connector-curvature="0" />
	<path style="fill:none;stroke:red;stroke-width:1px;stroke-linecap:butt;stroke-linejoin:miter;stroke-opacity:1" d="M 66.5506,4 75.3606,4 z" id="boundary" inkscape:connector-curvature="0" />
	<path style="fill:none;stroke:red;stroke-width:1px;stroke-linecap:butt;stroke-linejoin:miter;stroke-opacity:1" d="M 75.3606,4 83.2895,8.40497 z" id="boundary" inkscape:connector-curvature="0" />
	<path style="fill:none;stroke:red;stroke-width:1px;stroke-linecap:butt;stroke-linejoin:miter;stroke-opacity:1" d="M 83.2895,8.40497 90.3375,13.6909 z" id="boundary" inkscape:connector-curvature="0" />
	<path style="fill:none;stroke:red;stroke-width:1px;stroke-linecap:butt;stroke-linejoin:miter;stroke-opacity:1" d="M 57.7407,4 48.9307,5.76199 z" id="boundary" inkscape:connector-curvature="0" />
	<path style="fill:none;stroke:red;stroke-width:1px;stroke-linecap:butt;stroke-linejoin:miter;stroke-opacity:1" d="M 21.6199,130.863 17.2149,122.934 z" id="boundary" inkscape:connector-curvature="0" />
	<path style="fill:none;stroke:red;stroke-width:1px;stroke-linecap:butt;stroke-linejoin:miter;stroke-opacity:1" d="M 57.7407,4 66.5506,4 z" id="boundary" inkscape:connector-curvature="0" />
	<path style="fill:none;stroke:red;stroke-width:1px;stroke-linecap:butt;stroke-linejoin:miter;stroke-opacity:1" d="M 26.0249,138.792 21.6199,130.863 z" id="boundary" inkscape:connector-curvature="0" />
	<path style="fill:none;stroke:red;stroke-width:1px;stroke-linecap:butt;stroke-linejoin:miter;stroke-opacity:1" d="M 33.9538,17.2149 40.1208,10.167 z" id="boundary" inkscape:connector-curvature="0" />
	<path style="fill:none;stroke:red;stroke-width:1px;stroke-linecap:butt;stroke-linejoin:miter;stroke-opacity:1" d="M 40.1208,10.167 48.9307,5.76199 z" id="boundary" inkscape:connector-curvature="0" />
	<path style="fill:none;stroke:red;stroke-width:1px;stroke-linecap:butt;stroke-linejoin:miter;stroke-opacity:1" d="M 30.4298,146.721 26.0249,138.792 z" id="boundary" inkscape:connector-curvature="0" />
	<path style="fill:none;stroke:red;stroke-width:1px;stroke-linecap:butt;stroke-linejoin:miter;stroke-opacity:1" d="M 90.3375,13.6909 97.3854,19.8579 z" id="boundary" inkscape:connector-curvature="0" />
	<path style="fill:none;stroke:red;stroke-width:1px;stroke-linecap:butt;stroke-linejoin:miter;stroke-opacity:1" d="M 26.9059,23.3819 33.9538,17.2149 z" id="boundary" inkscape:connector-curvature="0" />
	<path style="fill:none;stroke:red;stroke-width:1px;stroke-linecap:butt;stroke-linejoin:miter;stroke-opacity:1" d="M 37.4778,163.46 34.8348,154.65 z" id="boundary" inkscape:connector-curvature="0" />
	<path style="fill:none;stroke:red;stroke-width:1px;stroke-linecap:butt;stroke-linejoin:miter;stroke-opacity:1" d="M 34.8348,154.65 30.4298,146.721 z" id="boundary" inkscape:connector-curvature="0" />
	<path style="fill:none;stroke:red;stroke-width:1px;stroke-linecap:butt;stroke-linejoin:miter;stroke-opacity:1" d="M 103.552,26.9059 97.3854,19.8579 z" id="boundary" inkscape:connector-curvature="0" />
	<path style="fill:none;stroke:red;stroke-width:1px;stroke-linecap:butt;stroke-linejoin:miter;stroke-opacity:1" d="M 41.8828,171.389 37.4778,163.46 z" id="boundary" inkscape:connector-curvature="0" />
	<path style="fill:none;stroke:red;stroke-width:1px;stroke-linecap:butt;stroke-linejoin:miter;stroke-opacity:1" d="M 48.0497,178.437 41.8828,171.389 z" id="boundary" inkscape:connector-curvature="0" />
	<path style="fill:none;stroke:red;stroke-width:1px;stroke-linecap:butt;stroke-linejoin:miter;stroke-opacity:1" d="M 52.4547,186.366 48.0497,178.437 z" id="boundary" inkscape:connector-curvature="0" />
	<path style="fill:none;stroke:red;stroke-width:1px;stroke-linecap:butt;stroke-linejoin:miter;stroke-opacity:1" d="M 103.552,26.9059 110.6,33.0728 z" id="boundary" inkscape:connector-curvature="0" />
	<path style="fill:none;stroke:red;stroke-width:1px;stroke-linecap:butt;stroke-linejoin:miter;stroke-opacity:1" d="M 110.6,33.0728 115.005,41.0018 z" id="boundary" inkscape:connector-curvature="0" />
	<path style="fill:none;stroke:red;stroke-width:1px;stroke-linecap:butt;stroke-linejoin:miter;stroke-opacity:1" d="M 56.8597,194.295 52.4547,186.366 z" id="boundary" inkscape:connector-curvature="0" />
	<path style="fill:none;stroke:red;stroke-width:1px;stroke-linecap:butt;stroke-linejoin:miter;stroke-opacity:1" d="M 61.2647,202.224 56.8597,194.295 z" id="boundary" inkscape:connector-curvature="0" />
	<path style="fill:none;stroke:red;stroke-width:1px;stroke-linecap:butt;stroke-linejoin:miter;stroke-opacity:1" d="M 115.005,41.0018 120.291,48.0497 z" id="boundary" inkscape:connector-curvature="0" />
	<path style="fill:none;stroke:red;stroke-width:1px;stroke-linecap:butt;stroke-linejoin:miter;stroke-opacity:1" d="M 165.222,339.659 159.055,332.611 z" id="boundary" inkscape:connector-curvature="0" />
	<path style="fill:none;stroke:red;stroke-width:1px;stroke-linecap:butt;stroke-linejoin:miter;stroke-opacity:1" d="M 145.84,96.5044 150.245,104.433 z" id="boundary" inkscape:connector-curvature="0" />
	<path style="fill:none;stroke:red;stroke-width:1px;stroke-linecap:butt;stroke-linejoin:miter;stroke-opacity:1" d="M 72.7176,216.32 66.5506,209.272 z" id="boundary" inkscape:connector-curvature="0" />
	<path style="fill:none;stroke:red;stroke-width:1px;stroke-linecap:butt;stroke-linejoin:miter;stroke-opacity:1" d="M 90.3375,237.464 93.8615,246.274 z" id="boundary" inkscape:connector-curvature="0" />
	<path style="fill:none;stroke:red;stroke-width:1px;stroke-linecap:butt;stroke-linejoin:miter;stroke-opacity:1" d="M 85.9325,229.535 90.3375,237.464 z" id="boundary" inkscape:connector-curvature="0" />
	<path style="fill:none;stroke:red;stroke-width:1px;stroke-linecap:butt;stroke-linejoin:miter;stroke-opacity:1" d="M 85.9325,229.535 79.7655,222.487 z" id="boundary" inkscape:connector-curvature="0" />
	<path style="fill:none;stroke:red;stroke-width:1px;stroke-linecap:butt;stroke-linejoin:miter;stroke-opacity:1" d="M 127.339,54.2167 130.863,63.0266 z" id="boundary" inkscape:connector-curvature="0" />
	<path style="fill:none;stroke:red;stroke-width:1px;stroke-linecap:butt;stroke-linejoin:miter;stroke-opacity:1" d="M 127.339,54.2167 120.291,48.0497 z" id="boundary" inkscape:connector-curvature="0" />
	<path style="fill:none;stroke:red;stroke-width:1px;stroke-linecap:butt;stroke-linejoin:miter;stroke-opacity:1" d="M 135.268,70.9556 130.863,63.0266 z" id="boundary" inkscape:connector-curvature="0" />
	<path style="fill:none;stroke:red;stroke-width:1px;stroke-linecap:butt;stroke-linejoin:miter;stroke-opacity:1" d="M 79.7655,222.487 72.7176,216.32 z" id="boundary" inkscape:connector-curvature="0" />
	<path style="fill:none;stroke:red;stroke-width:1px;stroke-linecap:butt;stroke-linejoin:miter;stroke-opacity:1" d="M 138.792,79.7655 135.268,70.9556 z" id="boundary" inkscape:connector-curvature="0" />
	<path style="fill:none;stroke:red;stroke-width:1px;stroke-linecap:butt;stroke-linejoin:miter;stroke-opacity:1" d="M 93.8615,246.274 98.2664,254.202 z" id="boundary" inkscape:connector-curvature="0" />
	<path style="fill:none;stroke:red;stroke-width:1px;stroke-linecap:butt;stroke-linejoin:miter;stroke-opacity:1" d="M 66.5506,209.272 61.2647,202.224 z" id="boundary" inkscape:connector-curvature="0" />
	<path style="fill:none;stroke:red;stroke-width:1px;stroke-linecap:butt;stroke-linejoin:miter;stroke-opacity:1" d="M 145.84,96.5044 143.197,87.6945 z" id="boundary" inkscape:connector-curvature="0" />
	<path style="fill:none;stroke:red;stroke-width:1px;stroke-linecap:butt;stroke-linejoin:miter;stroke-opacity:1" d="M 143.197,87.6945 138.792,79.7655 z" id="boundary" inkscape:connector-curvature="0" />
	<path style="fill:none;stroke:red;stroke-width:1px;stroke-linecap:butt;stroke-linejoin:miter;stroke-opacity:1" d="M 382.828,729.059 382.828,737.869 z" id="boundary" inkscape:connector-curvature="0" />
	<path style="fill:none;stroke:red;stroke-width:1px;stroke-linecap:butt;stroke-linejoin:miter;stroke-opacity:1" d="M 105.314,260.369 98.2664,254.202 z" id="boundary" inkscape:connector-curvature="0" />
	<path style="fill:none;stroke:red;stroke-width:1px;stroke-linecap:butt;stroke-linejoin:miter;stroke-opacity:1" d="M 109.719,268.298 105.314,260.369 z" id="boundary" inkscape:connector-curvature="0" />
	<path style="fill:none;stroke:red;stroke-width:1px;stroke-linecap:butt;stroke-linejoin:miter;stroke-opacity:1" d="M 115.005,275.346 109.719,268.298 z" id="boundary" inkscape:connector-curvature="0" />
	<path style="fill:none;stroke:red;stroke-width:1px;stroke-linecap:butt;stroke-linejoin:miter;stroke-opacity:1" d="M 154.65,112.362 150.245,104.433 z" id="boundary" inkscape:connector-curvature="0" />
	<path style="fill:none;stroke:red;stroke-width:1px;stroke-linecap:butt;stroke-linejoin:miter;stroke-opacity:1" d="M 211.915,194.295 207.51,186.366 z" id="boundary" inkscape:connector-curvature="0" />
	<path style="fill:none;stroke:red;stroke-width:1px;stroke-linecap:butt;stroke-linejoin:miter;stroke-opacity:1" d="M 121.172,282.394 115.005,275.346 z" id="boundary" inkscape:connector-curvature="0" />
	<path style="fill:none;stroke:red;stroke-width:1px;stroke-linecap:butt;stroke-linejoin:miter;stroke-opacity:1" d="M 181.08,149.364 185.485,157.293 z" id="boundary" inkscape:connector-curvature="0" />
	<path style="fill:none;stroke:red;stroke-width:1px;stroke-linecap:butt;stroke-linejoin:miter;stroke-opacity:1" d="M 127.339,289.442 131.744,297.371 z" id="boundary" inkscape:connector-curvature="0" />
	<path style="fill:none;stroke:red;stroke-width:1px;stroke-linecap:butt;stroke-linejoin:miter;stroke-opacity:1" d="M 127.339,289.442 121.172,282.394 z" id="boundary" inkscape:connector-curvature="0" />
	<path style="fill:none;stroke:red;stroke-width:1px;stroke-linecap:butt;stroke-linejoin:miter;stroke-opacity:1" d="M 154.65,112.362 160.817,119.41 z" id="boundary" inkscape:connector-curvature="0" />
	<path style="fill:none;stroke:red;stroke-width:1px;stroke-linecap:butt;stroke-linejoin:miter;stroke-opacity:1" d="M 131.744,297.371 136.149,305.3 z" id="boundary" inkscape:connector-curvature="0" />
	<path style="fill:none;stroke:red;stroke-width:1px;stroke-linecap:butt;stroke-linejoin:miter;stroke-opacity:1" d="M 160.817,119.41 167.865,125.577 z" id="boundary" inkscape:connector-curvature="0" />
	<path style="fill:none;stroke:red;stroke-width:1px;stroke-linecap:butt;stroke-linejoin:miter;stroke-opacity:1" d="M 167.865,125.577 171.389,134.387 z" id="boundary" inkscape:connector-curvature="0" />
	<path style="fill:none;stroke:red;stroke-width:1px;stroke-linecap:butt;stroke-linejoin:miter;stroke-opacity:1" d="M 382.828,729.059 382.828,720.249 z" id="boundary" inkscape:connector-curvature="0" />
	<path style="fill:none;stroke:red;stroke-width:1px;stroke-linecap:butt;stroke-linejoin:miter;stroke-opacity:1" d="M 142.316,312.348 136.149,305.3 z" id="boundary" inkscape:connector-curvature="0" />
	<path style="fill:none;stroke:red;stroke-width:1px;stroke-linecap:butt;stroke-linejoin:miter;stroke-opacity:1" d="M 149.364,317.634 142.316,312.348 z" id="boundary" inkscape:connector-curvature="0" />
	<path style="fill:none;stroke:red;stroke-width:1px;stroke-linecap:butt;stroke-linejoin:miter;stroke-opacity:1" d="M 181.08,149.364 178.437,140.554 z" id="boundary" inkscape:connector-curvature="0" />
	<path style="fill:none;stroke:red;stroke-width:1px;stroke-linecap:butt;stroke-linejoin:miter;stroke-opacity:1" d="M 178.437,140.554 171.389,134.387 z" id="boundary" inkscape:connector-curvature="0" />
	<path style="fill:none;stroke:red;stroke-width:1px;stroke-linecap:butt;stroke-linejoin:miter;stroke-opacity:1" d="M 154.65,324.682 149.364,317.634 z" id="boundary" inkscape:connector-curvature="0" />
	<path style="fill:none;stroke:red;stroke-width:1px;stroke-linecap:butt;stroke-linejoin:miter;stroke-opacity:1" d="M 192.533,163.46 185.485,157.293 z" id="boundary" inkscape:connector-curvature="0" />
	<path style="fill:none;stroke:red;stroke-width:1px;stroke-linecap:butt;stroke-linejoin:miter;stroke-opacity:1" d="M 159.055,332.611 154.65,324.682 z" id="boundary" inkscape:connector-curvature="0" />
	<path style="fill:none;stroke:red;stroke-width:1px;stroke-linecap:butt;stroke-linejoin:miter;stroke-opacity:1" d="M 192.533,163.46 198.7,170.508 z" id="boundary" inkscape:connector-curvature="0" />
	<path style="fill:none;stroke:red;stroke-width:1px;stroke-linecap:butt;stroke-linejoin:miter;stroke-opacity:1" d="M 198.7,170.508 203.105,178.437 z" id="boundary" inkscape:connector-curvature="0" />
	<path style="fill:none;stroke:red;stroke-width:1px;stroke-linecap:butt;stroke-linejoin:miter;stroke-opacity:1" d="M 203.105,178.437 207.51,186.366 z" id="boundary" inkscape:connector-curvature="0" />
	<path style="fill:none;stroke:red;stroke-width:1px;stroke-linecap:butt;stroke-linejoin:miter;stroke-opacity:1" d="M 172.27,345.826 165.222,339.659 z" id="boundary" inkscape:connector-curvature="0" />
	<path style="fill:none;stroke:red;stroke-width:1px;stroke-linecap:butt;stroke-linejoin:miter;stroke-opacity:1" d="M 178.437,352.874 172.27,345.826 z" id="boundary" inkscape:connector-curvature="0" />
	<path style="fill:none;stroke:red;stroke-width:1px;stroke-linecap:butt;stroke-linejoin:miter;stroke-opacity:1" d="M 211.915,194.295 216.32,202.224 z" id="boundary" inkscape:connector-curvature="0" />
	<path style="fill:none;stroke:red;stroke-width:1px;stroke-linecap:butt;stroke-linejoin:miter;stroke-opacity:1" d="M 184.604,359.922 189.009,367.851 z" id="boundary" inkscape:connector-curvature="0" />
	<path style="fill:none;stroke:red;stroke-width:1px;stroke-linecap:butt;stroke-linejoin:miter;stroke-opacity:1" d="M 184.604,359.922 178.437,352.874 z" id="boundary" inkscape:connector-curvature="0" />
	<path style="fill:none;stroke:red;stroke-width:1px;stroke-linecap:butt;stroke-linejoin:miter;stroke-opacity:1" d="M 216.32,202.224 223.368,207.51 z" id="boundary" inkscape:connector-curvature="0" />
	<path style="fill:none;stroke:red;stroke-width:1px;stroke-linecap:butt;stroke-linejoin:miter;stroke-opacity:1" d="M 223.368,207.51 226.892,216.32 z" id="boundary" inkscape:connector-curvature="0" />
	<path style="fill:none;stroke:red;stroke-width:1px;stroke-linecap:butt;stroke-linejoin:miter;stroke-opacity:1" d="M 243.631,440.092 240.107,431.282 z" id="boundary" inkscape:connector-curvature="0" />
	<path style="fill:none;stroke:red;stroke-width:1px;stroke-linecap:butt;stroke-linejoin:miter;stroke-opacity:1" d="M 196.057,374.018 189.009,367.851 z" id="boundary" inkscape:connector-curvature="0" />
	<path style="fill:none;stroke:red;stroke-width:1px;stroke-linecap:butt;stroke-linejoin:miter;stroke-opacity:1" d="M 226.892,216.32 231.297,224.249 z" id="boundary" inkscape:connector-curvature="0" />
	<path style="fill:none;stroke:red;stroke-width:1px;stroke-linecap:butt;stroke-linejoin:miter;stroke-opacity:1" d="M 231.297,224.249 233.94,233.059 z" id="boundary" inkscape:connector-curvature="0" />
	<path style="fill:none;stroke:red;stroke-width:1px;stroke-linecap:butt;stroke-linejoin:miter;stroke-opacity:1" d="M 202.224,381.066 196.057,374.018 z" id="boundary" inkscape:connector-curvature="0" />
	<path style="fill:none;stroke:red;stroke-width:1px;stroke-linecap:butt;stroke-linejoin:miter;stroke-opacity:1" d="M 209.272,387.233 212.796,396.043 z" id="boundary" inkscape:connector-curvature="0" />
	<path style="fill:none;stroke:red;stroke-width:1px;stroke-linecap:butt;stroke-linejoin:miter;stroke-opacity:1" d="M 209.272,387.233 202.224,381.066 z" id="boundary" inkscape:connector-curvature="0" />
	<path style="fill:none;stroke:red;stroke-width:1px;stroke-linecap:butt;stroke-linejoin:miter;stroke-opacity:1" d="M 240.988,238.345 233.94,233.059 z" id="boundary" inkscape:connector-curvature="0" />
	<path style="fill:none;stroke:red;stroke-width:1px;stroke-linecap:butt;stroke-linejoin:miter;stroke-opacity:1" d="M 240.988,238.345 247.155,245.393 z" id="boundary" inkscape:connector-curvature="0" />
	<path style="fill:none;stroke:red;stroke-width:1px;stroke-linecap:butt;stroke-linejoin:miter;stroke-opacity:1" d="M 247.155,245.393 251.56,253.321 z" id="boundary" inkscape:connector-curvature="0" />
	<path style="fill:none;stroke:red;stroke-width:1px;stroke-linecap:butt;stroke-linejoin:miter;stroke-opacity:1" d="M 219.844,401.329 212.796,396.043 z" id="boundary" inkscape:connector-curvature="0" />
	<path style="fill:none;stroke:red;stroke-width:1px;stroke-linecap:butt;stroke-linejoin:miter;stroke-opacity:1" d="M 224.249,409.258 219.844,401.329 z" id="boundary" inkscape:connector-curvature="0" />
	<path style="fill:none;stroke:red;stroke-width:1px;stroke-linecap:butt;stroke-linejoin:miter;stroke-opacity:1" d="M 251.56,253.321 257.726,260.369 z" id="boundary" inkscape:connector-curvature="0" />
	<path style="fill:none;stroke:red;stroke-width:1px;stroke-linecap:butt;stroke-linejoin:miter;stroke-opacity:1" d="M 264.774,277.108 262.131,268.298 z" id="boundary" inkscape:connector-curvature="0" />
	<path style="fill:none;stroke:red;stroke-width:1px;stroke-linecap:butt;stroke-linejoin:miter;stroke-opacity:1" d="M 262.131,268.298 257.726,260.369 z" id="boundary" inkscape:connector-curvature="0" />
	<path style="fill:none;stroke:red;stroke-width:1px;stroke-linecap:butt;stroke-linejoin:miter;stroke-opacity:1" d="M 306.181,326.444 300.014,319.396 z" id="boundary" inkscape:connector-curvature="0" />
	<path style="fill:none;stroke:red;stroke-width:1px;stroke-linecap:butt;stroke-linejoin:miter;stroke-opacity:1" d="M 224.249,409.258 229.535,416.306 z" id="boundary" inkscape:connector-curvature="0" />
	<path style="fill:none;stroke:red;stroke-width:1px;stroke-linecap:butt;stroke-linejoin:miter;stroke-opacity:1" d="M 243.631,440.092 248.036,448.021 z" id="boundary" inkscape:connector-curvature="0" />
	<path style="fill:none;stroke:red;stroke-width:1px;stroke-linecap:butt;stroke-linejoin:miter;stroke-opacity:1" d="M 269.179,285.037 264.774,277.108 z" id="boundary" inkscape:connector-curvature="0" />
	<path style="fill:none;stroke:red;stroke-width:1px;stroke-linecap:butt;stroke-linejoin:miter;stroke-opacity:1" d="M 240.107,431.282 235.702,423.353 z" id="boundary" inkscape:connector-curvature="0" />
	<path style="fill:none;stroke:red;stroke-width:1px;stroke-linecap:butt;stroke-linejoin:miter;stroke-opacity:1" d="M 235.702,423.353 229.535,416.306 z" id="boundary" inkscape:connector-curvature="0" />
	<path style="fill:none;stroke:red;stroke-width:1px;stroke-linecap:butt;stroke-linejoin:miter;stroke-opacity:1" d="M 276.227,291.204 269.179,285.037 z" id="boundary" inkscape:connector-curvature="0" />
	<path style="fill:none;stroke:red;stroke-width:1px;stroke-linecap:butt;stroke-linejoin:miter;stroke-opacity:1" d="M 382.828,720.249 382.828,711.439 z" id="boundary" inkscape:connector-curvature="0" />
	<path style="fill:none;stroke:red;stroke-width:1px;stroke-linecap:butt;stroke-linejoin:miter;stroke-opacity:1" d="M 282.394,298.252 286.799,306.181 z" id="boundary" inkscape:connector-curvature="0" />
	<path style="fill:none;stroke:red;stroke-width:1px;stroke-linecap:butt;stroke-linejoin:miter;stroke-opacity:1" d="M 282.394,298.252 276.227,291.204 z" id="boundary" inkscape:connector-curvature="0" />
	<path style="fill:none;stroke:red;stroke-width:1px;stroke-linecap:butt;stroke-linejoin:miter;stroke-opacity:1" d="M 301.776,510.572 307.943,517.62 z" id="boundary" inkscape:connector-curvature="0" />
	<path style="fill:none;stroke:red;stroke-width:1px;stroke-linecap:butt;stroke-linejoin:miter;stroke-opacity:1" d="M 255.083,454.188 248.036,448.021 z" id="boundary" inkscape:connector-curvature="0" />
	<path style="fill:none;stroke:red;stroke-width:1px;stroke-linecap:butt;stroke-linejoin:miter;stroke-opacity:1" d="M 259.488,462.117 255.083,454.188 z" id="boundary" inkscape:connector-curvature="0" />
	<path style="fill:none;stroke:red;stroke-width:1px;stroke-linecap:butt;stroke-linejoin:miter;stroke-opacity:1" d="M 292.966,313.229 286.799,306.181 z" id="boundary" inkscape:connector-curvature="0" />
	<path style="fill:none;stroke:red;stroke-width:1px;stroke-linecap:butt;stroke-linejoin:miter;stroke-opacity:1" d="M 264.774,469.165 259.488,462.117 z" id="boundary" inkscape:connector-curvature="0" />
	<path style="fill:none;stroke:red;stroke-width:1px;stroke-linecap:butt;stroke-linejoin:miter;stroke-opacity:1" d="M 300.014,319.396 292.966,313.229 z" id="boundary" inkscape:connector-curvature="0" />
	<path style="fill:none;stroke:red;stroke-width:1px;stroke-linecap:butt;stroke-linejoin:miter;stroke-opacity:1" d="M 306.181,326.444 310.586,334.373 z" id="boundary" inkscape:connector-curvature="0" />
	<path style="fill:none;stroke:red;stroke-width:1px;stroke-linecap:butt;stroke-linejoin:miter;stroke-opacity:1" d="M 310.586,334.373 313.229,343.183 z" id="boundary" inkscape:connector-curvature="0" />
	<path style="fill:none;stroke:red;stroke-width:1px;stroke-linecap:butt;stroke-linejoin:miter;stroke-opacity:1" d="M 382.828,702.629 382.828,711.439 z" id="boundary" inkscape:connector-curvature="0" />
	<path style="fill:none;stroke:red;stroke-width:1px;stroke-linecap:butt;stroke-linejoin:miter;stroke-opacity:1" d="M 320.277,348.469 313.229,343.183 z" id="boundary" inkscape:connector-curvature="0" />
	<path style="fill:none;stroke:red;stroke-width:1px;stroke-linecap:butt;stroke-linejoin:miter;stroke-opacity:1" d="M 382.828,702.629 382.828,693.819 z" id="boundary" inkscape:connector-curvature="0" />
	<path style="fill:none;stroke:red;stroke-width:1px;stroke-linecap:butt;stroke-linejoin:miter;stroke-opacity:1" d="M 284.156,489.428 277.989,482.38 z" id="boundary" inkscape:connector-curvature="0" />
	<path style="fill:none;stroke:red;stroke-width:1px;stroke-linecap:butt;stroke-linejoin:miter;stroke-opacity:1" d="M 277.989,482.38 270.941,476.213 z" id="boundary" inkscape:connector-curvature="0" />
	<path style="fill:none;stroke:red;stroke-width:1px;stroke-linecap:butt;stroke-linejoin:miter;stroke-opacity:1" d="M 354.636,391.638 357.279,400.448 z" id="boundary" inkscape:connector-curvature="0" />
	<path style="fill:none;stroke:red;stroke-width:1px;stroke-linecap:butt;stroke-linejoin:miter;stroke-opacity:1" d="M 354.636,391.638 347.588,385.471 z" id="boundary" inkscape:connector-curvature="0" />
	<path style="fill:none;stroke:red;stroke-width:1px;stroke-linecap:butt;stroke-linejoin:miter;stroke-opacity:1" d="M 297.371,502.643 301.776,510.572 z" id="boundary" inkscape:connector-curvature="0" />
	<path style="fill:none;stroke:red;stroke-width:1px;stroke-linecap:butt;stroke-linejoin:miter;stroke-opacity:1" d="M 297.371,502.643 291.204,495.595 z" id="boundary" inkscape:connector-curvature="0" />
	<path style="fill:none;stroke:red;stroke-width:1px;stroke-linecap:butt;stroke-linejoin:miter;stroke-opacity:1" d="M 330.849,363.446 326.444,355.517 z" id="boundary" inkscape:connector-curvature="0" />
	<path style="fill:none;stroke:red;stroke-width:1px;stroke-linecap:butt;stroke-linejoin:miter;stroke-opacity:1" d="M 326.444,355.517 320.277,348.469 z" id="boundary" inkscape:connector-curvature="0" />
	<path style="fill:none;stroke:red;stroke-width:1px;stroke-linecap:butt;stroke-linejoin:miter;stroke-opacity:1" d="M 291.204,495.595 284.156,489.428 z" id="boundary" inkscape:connector-curvature="0" />
	<path style="fill:none;stroke:red;stroke-width:1px;stroke-linecap:butt;stroke-linejoin:miter;stroke-opacity:1" d="M 337.016,370.494 330.849,363.446 z" id="boundary" inkscape:connector-curvature="0" />
	<path style="fill:none;stroke:red;stroke-width:1px;stroke-linecap:butt;stroke-linejoin:miter;stroke-opacity:1" d="M 344.064,376.661 347.588,385.471 z" id="boundary" inkscape:connector-curvature="0" />
	<path style="fill:none;stroke:red;stroke-width:1px;stroke-linecap:butt;stroke-linejoin:miter;stroke-opacity:1" d="M 344.064,376.661 337.016,370.494 z" id="boundary" inkscape:connector-curvature="0" />
	<path style="fill:none;stroke:red;stroke-width:1px;stroke-linecap:butt;stroke-linejoin:miter;stroke-opacity:1" d="M 382.828,685.009 382.828,693.819 z" id="boundary" inkscape:connector-curvature="0" />
	<path style="fill:none;stroke:red;stroke-width:1px;stroke-linecap:butt;stroke-linejoin:miter;stroke-opacity:1" d="M 386.352,446.259 382.828,437.449 z" id="boundary" inkscape:connector-curvature="0" />
	<path style="fill:none;stroke:red;stroke-width:1px;stroke-linecap:butt;stroke-linejoin:miter;stroke-opacity:1" d="M 321.158,530.835 314.991,523.787 z" id="boundary" inkscape:connector-curvature="0" />
	<path style="fill:none;stroke:red;stroke-width:1px;stroke-linecap:butt;stroke-linejoin:miter;stroke-opacity:1" d="M 314.991,523.787 307.943,517.62 z" id="boundary" inkscape:connector-curvature="0" />
	<path style="fill:none;stroke:red;stroke-width:1px;stroke-linecap:butt;stroke-linejoin:miter;stroke-opacity:1" d="M 270.941,476.213 264.774,469.165 z" id="boundary" inkscape:connector-curvature="0" />
	<path style="fill:none;stroke:red;stroke-width:1px;stroke-linecap:butt;stroke-linejoin:miter;stroke-opacity:1" d="M 382.828,437.449 378.423,429.52 z" id="boundary" inkscape:connector-curvature="0" />
	<path style="fill:none;stroke:red;stroke-width:1px;stroke-linecap:butt;stroke-linejoin:miter;stroke-opacity:1" d="M 334.373,544.05 328.206,537.002 z" id="boundary" inkscape:connector-curvature="0" />
	<path style="fill:none;stroke:red;stroke-width:1px;stroke-linecap:butt;stroke-linejoin:miter;stroke-opacity:1" d="M 328.206,537.002 321.158,530.835 z" id="boundary" inkscape:connector-curvature="0" />
	<path style="fill:none;stroke:red;stroke-width:1px;stroke-linecap:butt;stroke-linejoin:miter;stroke-opacity:1" d="M 364.327,405.734 357.279,400.448 z" id="boundary" inkscape:connector-curvature="0" />
	<path style="fill:none;stroke:red;stroke-width:1px;stroke-linecap:butt;stroke-linejoin:miter;stroke-opacity:1" d="M 374.899,420.71 378.423,429.52 z" id="boundary" inkscape:connector-curvature="0" />
	<path style="fill:none;stroke:red;stroke-width:1px;stroke-linecap:butt;stroke-linejoin:miter;stroke-opacity:1" d="M 374.899,420.71 370.494,412.782 z" id="boundary" inkscape:connector-curvature="0" />
	<path style="fill:none;stroke:red;stroke-width:1px;stroke-linecap:butt;stroke-linejoin:miter;stroke-opacity:1" d="M 370.494,412.782 364.327,405.734 z" id="boundary" inkscape:connector-curvature="0" />
	<path style="fill:none;stroke:red;stroke-width:1px;stroke-linecap:butt;stroke-linejoin:miter;stroke-opacity:1" d="M 347.588,557.265 341.421,550.217 z" id="boundary" inkscape:connector-curvature="0" />
	<path style="fill:none;stroke:red;stroke-width:1px;stroke-linecap:butt;stroke-linejoin:miter;stroke-opacity:1" d="M 341.421,550.217 334.373,544.05 z" id="boundary" inkscape:connector-curvature="0" />
	<path style="fill:none;stroke:red;stroke-width:1px;stroke-linecap:butt;stroke-linejoin:miter;stroke-opacity:1" d="M 354.636,563.432 358.16,572.242 z" id="boundary" inkscape:connector-curvature="0" />
	<path style="fill:none;stroke:red;stroke-width:1px;stroke-linecap:butt;stroke-linejoin:miter;stroke-opacity:1" d="M 354.636,563.432 347.588,557.265 z" id="boundary" inkscape:connector-curvature="0" />
	<path style="fill:none;stroke:red;stroke-width:1px;stroke-linecap:butt;stroke-linejoin:miter;stroke-opacity:1" d="M 386.352,446.259 390.757,454.188 z" id="boundary" inkscape:connector-curvature="0" />
	<path style="fill:none;stroke:red;stroke-width:1px;stroke-linecap:butt;stroke-linejoin:miter;stroke-opacity:1" d="M 390.757,454.188 394.281,462.998 z" id="boundary" inkscape:connector-curvature="0" />
	<path style="fill:none;stroke:red;stroke-width:1px;stroke-linecap:butt;stroke-linejoin:miter;stroke-opacity:1" d="M 365.208,577.528 358.16,572.242 z" id="boundary" inkscape:connector-curvature="0" />
	<path style="fill:none;stroke:red;stroke-width:1px;stroke-linecap:butt;stroke-linejoin:miter;stroke-opacity:1" d="M 370.494,584.575 365.208,577.528 z" id="boundary" inkscape:connector-curvature="0" />
	<path style="fill:none;stroke:red;stroke-width:1px;stroke-linecap:butt;stroke-linejoin:miter;stroke-opacity:1" d="M 394.281,462.998 398.686,470.927 z" id="boundary" inkscape:connector-curvature="0" />
	<path style="fill:none;stroke:red;stroke-width:1px;stroke-linecap:butt;stroke-linejoin:miter;stroke-opacity:1" d="M 379.304,588.099 370.494,584.575 z" id="boundary" inkscape:connector-curvature="0" />
	<path style="fill:none;stroke:red;stroke-width:1px;stroke-linecap:butt;stroke-linejoin:miter;stroke-opacity:1" d="M 398.686,470.927 404.853,477.975 z" id="boundary" inkscape:connector-curvature="0" />
	<path style="fill:none;stroke:red;stroke-width:1px;stroke-linecap:butt;stroke-linejoin:miter;stroke-opacity:1" d="M 382.828,676.199 382.828,685.009 z" id="boundary" inkscape:connector-curvature="0" />
	<path style="fill:none;stroke:red;stroke-width:1px;stroke-linecap:butt;stroke-linejoin:miter;stroke-opacity:1" d="M 387.233,592.504 379.304,588.099 z" id="boundary" inkscape:connector-curvature="0" />
	<path style="fill:none;stroke:red;stroke-width:1px;stroke-linecap:butt;stroke-linejoin:miter;stroke-opacity:1" d="M 387.233,763.417 387.233,754.607 z" id="boundary" inkscape:connector-curvature="0" />
	<path style="fill:none;stroke:red;stroke-width:1px;stroke-linecap:butt;stroke-linejoin:miter;stroke-opacity:1" d="M 387.233,632.149 387.233,640.959 z" id="boundary" inkscape:connector-curvature="0" />
	<path style="fill:none;stroke:red;stroke-width:1px;stroke-linecap:butt;stroke-linejoin:miter;stroke-opacity:1" d="M 387.233,640.959 387.233,649.769 z" id="boundary" inkscape:connector-curvature="0" />
	<path style="fill:none;stroke:red;stroke-width:1px;stroke-linecap:butt;stroke-linejoin:miter;stroke-opacity:1" d="M 387.233,658.579 387.233,649.769 z" id="boundary" inkscape:connector-curvature="0" />
	<path style="fill:none;stroke:red;stroke-width:1px;stroke-linecap:butt;stroke-linejoin:miter;stroke-opacity:1" d="M 382.828,737.869 387.233,745.798 z" id="boundary" inkscape:connector-curvature="0" />
	<path style="fill:none;stroke:red;stroke-width:1px;stroke-linecap:butt;stroke-linejoin:miter;stroke-opacity:1" d="M 387.233,745.798 387.233,754.607 z" id="boundary" inkscape:connector-curvature="0" />
	<path style="fill:none;stroke:red;stroke-width:1px;stroke-linecap:butt;stroke-linejoin:miter;stroke-opacity:1" d="M 387.233,667.389 382.828,676.199 z" id="boundary" inkscape:connector-curvature="0" />
	<path style="fill:none;stroke:red;stroke-width:1px;stroke-linecap:butt;stroke-linejoin:miter;stroke-opacity:1" d="M 387.233,658.579 387.233,667.389 z" id="boundary" inkscape:connector-curvature="0" />
	<path style="fill:none;stroke:red;stroke-width:1px;stroke-linecap:butt;stroke-linejoin:miter;stroke-opacity:1" d="M 404.853,477.975 411.901,484.142 z" id="boundary" inkscape:connector-curvature="0" />
	<path style="fill:none;stroke:red;stroke-width:1px;stroke-linecap:butt;stroke-linejoin:miter;stroke-opacity:1" d="M 418.067,491.19 411.901,484.142 z" id="boundary" inkscape:connector-curvature="0" />
	<path style="fill:none;stroke:red;stroke-width:1px;stroke-linecap:butt;stroke-linejoin:miter;stroke-opacity:1" d="M 513.215,550.217 504.405,550.217 z" id="boundary" inkscape:connector-curvature="0" />
	<path style="fill:none;stroke:red;stroke-width:1px;stroke-linecap:butt;stroke-linejoin:miter;stroke-opacity:1" d="M 387.233,632.149 391.638,623.339 z" id="boundary" inkscape:connector-curvature="0" />
	<path style="fill:none;stroke:red;stroke-width:1px;stroke-linecap:butt;stroke-linejoin:miter;stroke-opacity:1" d="M 394.281,598.671 396.043,614.529 z" id="boundary" inkscape:connector-curvature="0" />
	<path style="fill:none;stroke:red;stroke-width:1px;stroke-linecap:butt;stroke-linejoin:miter;stroke-opacity:1" d="M 391.638,771.346 387.233,763.417 z" id="boundary" inkscape:connector-curvature="0" />
	<path style="fill:none;stroke:red;stroke-width:1px;stroke-linecap:butt;stroke-linejoin:miter;stroke-opacity:1" d="M 396.043,614.529 391.638,623.339 z" id="boundary" inkscape:connector-curvature="0" />
	<path style="fill:none;stroke:red;stroke-width:1px;stroke-linecap:butt;stroke-linejoin:miter;stroke-opacity:1" d="M 423.353,498.238 418.067,491.19 z" id="boundary" inkscape:connector-curvature="0" />
	<path style="fill:none;stroke:red;stroke-width:1px;stroke-linecap:butt;stroke-linejoin:miter;stroke-opacity:1" d="M 387.233,592.504 394.281,598.671 z" id="boundary" inkscape:connector-curvature="0" />
	<path style="fill:none;stroke:red;stroke-width:1px;stroke-linecap:butt;stroke-linejoin:miter;stroke-opacity:1" d="M 396.043,779.275 391.638,771.346 z" id="boundary" inkscape:connector-curvature="0" />
	<path style="fill:none;stroke:red;stroke-width:1px;stroke-linecap:butt;stroke-linejoin:miter;stroke-opacity:1" d="M 455.95,542.288 449.783,535.24 z" id="boundary" inkscape:connector-curvature="0" />
	<path style="fill:none;stroke:red;stroke-width:1px;stroke-linecap:butt;stroke-linejoin:miter;stroke-opacity:1" d="M 432.163,514.096 427.758,506.167 z" id="boundary" inkscape:connector-curvature="0" />
	<path style="fill:none;stroke:red;stroke-width:1px;stroke-linecap:butt;stroke-linejoin:miter;stroke-opacity:1" d="M 400.448,787.204 396.043,779.275 z" id="boundary" inkscape:connector-curvature="0" />
	<path style="fill:none;stroke:red;stroke-width:1px;stroke-linecap:butt;stroke-linejoin:miter;stroke-opacity:1" d="M 427.758,506.167 423.353,498.238 z" id="boundary" inkscape:connector-curvature="0" />
	<path style="fill:none;stroke:red;stroke-width:1px;stroke-linecap:butt;stroke-linejoin:miter;stroke-opacity:1" d="M 436.568,522.025 432.163,514.096 z" id="boundary" inkscape:connector-curvature="0" />
	<path style="fill:none;stroke:red;stroke-width:1px;stroke-linecap:butt;stroke-linejoin:miter;stroke-opacity:1" d="M 404.853,795.133 400.448,787.204 z" id="boundary" inkscape:connector-curvature="0" />
	<path style="fill:none;stroke:red;stroke-width:1px;stroke-linecap:butt;stroke-linejoin:miter;stroke-opacity:1" d="M 522.025,550.217 513.215,550.217 z" id="boundary" inkscape:connector-curvature="0" />
	<path style="fill:none;stroke:red;stroke-width:1px;stroke-linecap:butt;stroke-linejoin:miter;stroke-opacity:1" d="M 409.258,803.062 404.853,795.133 z" id="boundary" inkscape:connector-curvature="0" />
	<path style="fill:none;stroke:red;stroke-width:1px;stroke-linecap:butt;stroke-linejoin:miter;stroke-opacity:1" d="M 413.663,810.991 416.306,819.801 z" id="boundary" inkscape:connector-curvature="0" />
	<path style="fill:none;stroke:red;stroke-width:1px;stroke-linecap:butt;stroke-linejoin:miter;stroke-opacity:1" d="M 413.663,810.991 409.258,803.062 z" id="boundary" inkscape:connector-curvature="0" />
	<path style="fill:none;stroke:red;stroke-width:1px;stroke-linecap:butt;stroke-linejoin:miter;stroke-opacity:1" d="M 477.975,554.622 486.785,554.622 z" id="boundary" inkscape:connector-curvature="0" />
	<path style="fill:none;stroke:red;stroke-width:1px;stroke-linecap:butt;stroke-linejoin:miter;stroke-opacity:1" d="M 477.975,554.622 469.165,555.503 z" id="boundary" inkscape:connector-curvature="0" />
	<path style="fill:none;stroke:red;stroke-width:1px;stroke-linecap:butt;stroke-linejoin:miter;stroke-opacity:1" d="M 420.71,827.73 416.306,819.801 z" id="boundary" inkscape:connector-curvature="0" />
	<path style="fill:none;stroke:red;stroke-width:1px;stroke-linecap:butt;stroke-linejoin:miter;stroke-opacity:1" d="M 426.877,834.778 420.71,827.73 z" id="boundary" inkscape:connector-curvature="0" />
	<path style="fill:none;stroke:red;stroke-width:1px;stroke-linecap:butt;stroke-linejoin:miter;stroke-opacity:1" d="M 442.735,529.073 436.568,522.025 z" id="boundary" inkscape:connector-curvature="0" />
	<path style="fill:none;stroke:red;stroke-width:1px;stroke-linecap:butt;stroke-linejoin:miter;stroke-opacity:1" d="M 431.282,842.707 426.877,834.778 z" id="boundary" inkscape:connector-curvature="0" />
	<path style="fill:none;stroke:red;stroke-width:1px;stroke-linecap:butt;stroke-linejoin:miter;stroke-opacity:1" d="M 449.783,535.24 442.735,529.073 z" id="boundary" inkscape:connector-curvature="0" />
	<path style="fill:none;stroke:red;stroke-width:1px;stroke-linecap:butt;stroke-linejoin:miter;stroke-opacity:1" d="M 437.449,849.755 431.282,842.707 z" id="boundary" inkscape:connector-curvature="0" />
	<path style="fill:none;stroke:red;stroke-width:1px;stroke-linecap:butt;stroke-linejoin:miter;stroke-opacity:1" d="M 462.998,548.455 455.95,542.288 z" id="boundary" inkscape:connector-curvature="0" />
	<path style="fill:none;stroke:red;stroke-width:1px;stroke-linecap:butt;stroke-linejoin:miter;stroke-opacity:1" d="M 444.497,855.041 437.449,849.755 z" id="boundary" inkscape:connector-curvature="0" />
	<path style="fill:none;stroke:red;stroke-width:1px;stroke-linecap:butt;stroke-linejoin:miter;stroke-opacity:1" d="M 469.165,555.503 462.998,548.455 z" id="boundary" inkscape:connector-curvature="0" />
	<path style="fill:none;stroke:red;stroke-width:1px;stroke-linecap:butt;stroke-linejoin:miter;stroke-opacity:1" d="M 447.14,863.851 444.497,855.041 z" id="boundary" inkscape:connector-curvature="0" />
	<path style="fill:none;stroke:red;stroke-width:1px;stroke-linecap:butt;stroke-linejoin:miter;stroke-opacity:1" d="M 454.188,870.018 447.14,863.851 z" id="boundary" inkscape:connector-curvature="0" />
	<path style="fill:none;stroke:red;stroke-width:1px;stroke-linecap:butt;stroke-linejoin:miter;stroke-opacity:1" d="M 530.835,550.217 522.025,550.217 z" id="boundary" inkscape:connector-curvature="0" />
	<path style="fill:none;stroke:red;stroke-width:1px;stroke-linecap:butt;stroke-linejoin:miter;stroke-opacity:1" d="M 460.355,877.066 454.188,870.018 z" id="boundary" inkscape:connector-curvature="0" />
	<path style="fill:none;stroke:red;stroke-width:1px;stroke-linecap:butt;stroke-linejoin:miter;stroke-opacity:1" d="M 547.574,554.622 539.645,550.217 z" id="boundary" inkscape:connector-curvature="0" />
	<path style="fill:none;stroke:red;stroke-width:1px;stroke-linecap:butt;stroke-linejoin:miter;stroke-opacity:1" d="M 539.645,550.217 530.835,550.217 z" id="boundary" inkscape:connector-curvature="0" />
	<path style="fill:none;stroke:red;stroke-width:1px;stroke-linecap:butt;stroke-linejoin:miter;stroke-opacity:1" d="M 467.403,883.233 460.355,877.066 z" id="boundary" inkscape:connector-curvature="0" />
	<path style="fill:none;stroke:red;stroke-width:1px;stroke-linecap:butt;stroke-linejoin:miter;stroke-opacity:1" d="M 470.927,892.043 467.403,883.233 z" id="boundary" inkscape:connector-curvature="0" />
	<path style="fill:none;stroke:red;stroke-width:1px;stroke-linecap:butt;stroke-linejoin:miter;stroke-opacity:1" d="M 504.405,550.217 495.595,550.217 z" id="boundary" inkscape:connector-curvature="0" />
	<path style="fill:none;stroke:red;stroke-width:1px;stroke-linecap:butt;stroke-linejoin:miter;stroke-opacity:1" d="M 495.595,550.217 486.785,554.622 z" id="boundary" inkscape:connector-curvature="0" />
	<path style="fill:none;stroke:red;stroke-width:1px;stroke-linecap:butt;stroke-linejoin:miter;stroke-opacity:1" d="M 477.975,898.21 470.927,892.043 z" id="boundary" inkscape:connector-curvature="0" />
	<path style="fill:none;stroke:red;stroke-width:1px;stroke-linecap:butt;stroke-linejoin:miter;stroke-opacity:1" d="M 484.142,905.258 477.975,898.21 z" id="boundary" inkscape:connector-curvature="0" />
	<path style="fill:none;stroke:red;stroke-width:1px;stroke-linecap:butt;stroke-linejoin:miter;stroke-opacity:1" d="M 597.79,567.837 605.719,572.242 z" id="boundary" inkscape:connector-curvature="0" />
	<path style="fill:none;stroke:red;stroke-width:1px;stroke-linecap:butt;stroke-linejoin:miter;stroke-opacity:1" d="M 491.19,911.425 484.142,905.258 z" id="boundary" inkscape:connector-curvature="0" />
	<path style="fill:none;stroke:red;stroke-width:1px;stroke-linecap:butt;stroke-linejoin:miter;stroke-opacity:1" d="M 497.357,918.472 491.19,911.425 z" id="boundary" inkscape:connector-curvature="0" />
	<path style="fill:none;stroke:red;stroke-width:1px;stroke-linecap:butt;stroke-linejoin:miter;stroke-opacity:1" d="M 589.861,563.432 597.79,567.837 z" id="boundary" inkscape:connector-curvature="0" />
	<path style="fill:none;stroke:red;stroke-width:1px;stroke-linecap:butt;stroke-linejoin:miter;stroke-opacity:1" d="M 504.405,924.639 497.357,918.472 z" id="boundary" inkscape:connector-curvature="0" />
	<path style="fill:none;stroke:red;stroke-width:1px;stroke-linecap:butt;stroke-linejoin:miter;stroke-opacity:1" d="M 556.384,554.622 547.574,554.622 z" id="boundary" inkscape:connector-curvature="0" />
	<path style="fill:none;stroke:red;stroke-width:1px;stroke-linecap:butt;stroke-linejoin:miter;stroke-opacity:1" d="M 510.572,931.687 504.405,924.639 z" id="boundary" inkscape:connector-curvature="0" />
	<path style="fill:none;stroke:red;stroke-width:1px;stroke-linecap:butt;stroke-linejoin:miter;stroke-opacity:1" d="M 517.62,937.854 510.572,931.687 z" id="boundary" inkscape:connector-curvature="0" />
	<path style="fill:none;stroke:red;stroke-width:1px;stroke-linecap:butt;stroke-linejoin:miter;stroke-opacity:1" d="M 573.123,559.027 565.194,554.622 z" id="boundary" inkscape:connector-curvature="0" />
	<path style="fill:none;stroke:red;stroke-width:1px;stroke-linecap:butt;stroke-linejoin:miter;stroke-opacity:1" d="M 565.194,554.622 556.384,554.622 z" id="boundary" inkscape:connector-curvature="0" />
	<path style="fill:none;stroke:red;stroke-width:1px;stroke-linecap:butt;stroke-linejoin:miter;stroke-opacity:1" d="M 523.787,944.902 517.62,937.854 z" id="boundary" inkscape:connector-curvature="0" />
	<path style="fill:none;stroke:red;stroke-width:1px;stroke-linecap:butt;stroke-linejoin:miter;stroke-opacity:1" d="M 605.719,572.242 613.648,576.647 z" id="boundary" inkscape:connector-curvature="0" />
	<path style="fill:none;stroke:red;stroke-width:1px;stroke-linecap:butt;stroke-linejoin:miter;stroke-opacity:1" d="M 613.648,576.647 620.696,582.813 z" id="boundary" inkscape:connector-curvature="0" />
	<path style="fill:none;stroke:red;stroke-width:1px;stroke-linecap:butt;stroke-linejoin:miter;stroke-opacity:1" d="M 538.764,955.474 530.835,951.069 z" id="boundary" inkscape:connector-curvature="0" />
	<path style="fill:none;stroke:red;stroke-width:1px;stroke-linecap:butt;stroke-linejoin:miter;stroke-opacity:1" d="M 530.835,951.069 523.787,944.902 z" id="boundary" inkscape:connector-curvature="0" />
	<path style="fill:none;stroke:red;stroke-width:1px;stroke-linecap:butt;stroke-linejoin:miter;stroke-opacity:1" d="M 589.861,563.432 581.933,559.027 z" id="boundary" inkscape:connector-curvature="0" />
	<path style="fill:none;stroke:red;stroke-width:1px;stroke-linecap:butt;stroke-linejoin:miter;stroke-opacity:1" d="M 581.933,559.027 573.123,559.027 z" id="boundary" inkscape:connector-curvature="0" />
	<path style="fill:none;stroke:red;stroke-width:1px;stroke-linecap:butt;stroke-linejoin:miter;stroke-opacity:1" d="M 718.487,699.986 722.892,707.915 z" id="boundary" inkscape:connector-curvature="0" />
	<path style="fill:none;stroke:red;stroke-width:1px;stroke-linecap:butt;stroke-linejoin:miter;stroke-opacity:1" d="M 547.574,958.998 538.764,955.474 z" id="boundary" inkscape:connector-curvature="0" />
	<path style="fill:none;stroke:red;stroke-width:1px;stroke-linecap:butt;stroke-linejoin:miter;stroke-opacity:1" d="M 662.984,617.172 670.032,623.339 z" id="boundary" inkscape:connector-curvature="0" />
	<path style="fill:none;stroke:red;stroke-width:1px;stroke-linecap:butt;stroke-linejoin:miter;stroke-opacity:1" d="M 670.032,623.339 676.199,630.387 z" id="boundary" inkscape:connector-curvature="0" />
	<path style="fill:none;stroke:red;stroke-width:1px;stroke-linecap:butt;stroke-linejoin:miter;stroke-opacity:1" d="M 555.503,963.403 562.551,969.57 z" id="boundary" inkscape:connector-curvature="0" />
	<path style="fill:none;stroke:red;stroke-width:1px;stroke-linecap:butt;stroke-linejoin:miter;stroke-opacity:1" d="M 555.503,963.403 547.574,958.998 z" id="boundary" inkscape:connector-curvature="0" />
	<path style="fill:none;stroke:red;stroke-width:1px;stroke-linecap:butt;stroke-linejoin:miter;stroke-opacity:1" d="M 570.48,973.975 562.551,969.57 z" id="boundary" inkscape:connector-curvature="0" />
	<path style="fill:none;stroke:red;stroke-width:1px;stroke-linecap:butt;stroke-linejoin:miter;stroke-opacity:1" d="M 620.696,582.813 628.625,587.218 z" id="boundary" inkscape:connector-curvature="0" />
	<path style="fill:none;stroke:red;stroke-width:1px;stroke-linecap:butt;stroke-linejoin:miter;stroke-opacity:1" d="M 628.625,587.218 634.792,594.266 z" id="boundary" inkscape:connector-curvature="0" />
	<path style="fill:none;stroke:red;stroke-width:1px;stroke-linecap:butt;stroke-linejoin:miter;stroke-opacity:1" d="M 579.29,977.499 570.48,973.975 z" id="boundary" inkscape:connector-curvature="0" />
	<path style="fill:none;stroke:red;stroke-width:1px;stroke-linecap:butt;stroke-linejoin:miter;stroke-opacity:1" d="M 587.218,981.904 579.29,977.499 z" id="boundary" inkscape:connector-curvature="0" />
	<path style="fill:none;stroke:red;stroke-width:1px;stroke-linecap:butt;stroke-linejoin:miter;stroke-opacity:1" d="M 596.028,982.785 587.218,981.904 z" id="boundary" inkscape:connector-curvature="0" />
	<path style="fill:none;stroke:red;stroke-width:1px;stroke-linecap:butt;stroke-linejoin:miter;stroke-opacity:1" d="M 642.721,598.671 649.769,603.957 z" id="boundary" inkscape:connector-curvature="0" />
	<path style="fill:none;stroke:red;stroke-width:1px;stroke-linecap:butt;stroke-linejoin:miter;stroke-opacity:1" d="M 642.721,598.671 634.792,594.266 z" id="boundary" inkscape:connector-curvature="0" />
	<path style="fill:none;stroke:red;stroke-width:1px;stroke-linecap:butt;stroke-linejoin:miter;stroke-opacity:1" d="M 612.767,987.19 620.696,991.595 z" id="boundary" inkscape:connector-curvature="0" />
	<path style="fill:none;stroke:red;stroke-width:1px;stroke-linecap:butt;stroke-linejoin:miter;stroke-opacity:1" d="M 604.838,982.785 596.028,982.785 z" id="boundary" inkscape:connector-curvature="0" />
	<path style="fill:none;stroke:red;stroke-width:1px;stroke-linecap:butt;stroke-linejoin:miter;stroke-opacity:1" d="M 649.769,603.957 656.817,610.124 z" id="boundary" inkscape:connector-curvature="0" />
	<path style="fill:none;stroke:red;stroke-width:1px;stroke-linecap:butt;stroke-linejoin:miter;stroke-opacity:1" d="M 656.817,610.124 662.984,617.172 z" id="boundary" inkscape:connector-curvature="0" />
	<path style="fill:none;stroke:red;stroke-width:1px;stroke-linecap:butt;stroke-linejoin:miter;stroke-opacity:1" d="M 612.767,987.19 604.838,982.785 z" id="boundary" inkscape:connector-curvature="0" />
	<path style="fill:none;stroke:red;stroke-width:1px;stroke-linecap:butt;stroke-linejoin:miter;stroke-opacity:1" d="M 687.652,644.483 683.247,636.554 z" id="boundary" inkscape:connector-curvature="0" />
	<path style="fill:none;stroke:red;stroke-width:1px;stroke-linecap:butt;stroke-linejoin:miter;stroke-opacity:1" d="M 683.247,636.554 676.199,630.387 z" id="boundary" inkscape:connector-curvature="0" />
	<path style="fill:none;stroke:red;stroke-width:1px;stroke-linecap:butt;stroke-linejoin:miter;stroke-opacity:1" d="M 628.625,996 620.696,991.595 z" id="boundary" inkscape:connector-curvature="0" />
	<path style="fill:none;stroke:red;stroke-width:1px;stroke-linecap:butt;stroke-linejoin:miter;stroke-opacity:1" d="M 637.435,996 628.625,996 z" id="boundary" inkscape:connector-curvature="0" />
	<path style="fill:none;stroke:red;stroke-width:1px;stroke-linecap:butt;stroke-linejoin:miter;stroke-opacity:1" d="M 646.245,996 637.435,996 z" id="boundary" inkscape:connector-curvature="0" />
	<path style="fill:none;stroke:red;stroke-width:1px;stroke-linecap:butt;stroke-linejoin:miter;stroke-opacity:1" d="M 687.652,644.483 692.938,651.531 z" id="boundary" inkscape:connector-curvature="0" />
	<path style="fill:none;stroke:red;stroke-width:1px;stroke-linecap:butt;stroke-linejoin:miter;stroke-opacity:1" d="M 655.055,996 646.245,996 z" id="boundary" inkscape:connector-curvature="0" />
	<path style="fill:none;stroke:red;stroke-width:1px;stroke-linecap:butt;stroke-linejoin:miter;stroke-opacity:1" d="M 711.439,683.247 707.915,674.437 z" id="boundary" inkscape:connector-curvature="0" />
	<path style="fill:none;stroke:red;stroke-width:1px;stroke-linecap:butt;stroke-linejoin:miter;stroke-opacity:1" d="M 707.915,674.437 703.51,666.508 z" id="boundary" inkscape:connector-curvature="0" />
	<path style="fill:none;stroke:red;stroke-width:1px;stroke-linecap:butt;stroke-linejoin:miter;stroke-opacity:1" d="M 699.986,657.698 703.51,666.508 z" id="boundary" inkscape:connector-curvature="0" />
	<path style="fill:none;stroke:red;stroke-width:1px;stroke-linecap:butt;stroke-linejoin:miter;stroke-opacity:1" d="M 699.986,657.698 692.938,651.531 z" id="boundary" inkscape:connector-curvature="0" />
	<path style="fill:none;stroke:red;stroke-width:1px;stroke-linecap:butt;stroke-linejoin:miter;stroke-opacity:1" d="M 663.865,996 655.055,996 z" id="boundary" inkscape:connector-curvature="0" />
	<path style="fill:none;stroke:red;stroke-width:1px;stroke-linecap:butt;stroke-linejoin:miter;stroke-opacity:1" d="M 711.439,683.247 715.844,691.176 z" id="boundary" inkscape:connector-curvature="0" />
	<path style="fill:none;stroke:red;stroke-width:1px;stroke-linecap:butt;stroke-linejoin:miter;stroke-opacity:1" d="M 715.844,691.176 718.487,699.986 z" id="boundary" inkscape:connector-curvature="0" />
	<path style="fill:none;stroke:red;stroke-width:1px;stroke-linecap:butt;stroke-linejoin:miter;stroke-opacity:1" d="M 663.865,996 672.675,996 z" id="boundary" inkscape:connector-curvature="0" />
	<path style="fill:none;stroke:red;stroke-width:1px;stroke-linecap:butt;stroke-linejoin:miter;stroke-opacity:1" d="M 672.675,996 681.485,996 z" id="boundary" inkscape:connector-curvature="0" />
	<path style="fill:none;stroke:red;stroke-width:1px;stroke-linecap:butt;stroke-linejoin:miter;stroke-opacity:1" d="M 698.224,991.595 690.295,996 z" id="boundary" inkscape:connector-curvature="0" />
	<path style="fill:none;stroke:red;stroke-width:1px;stroke-linecap:butt;stroke-linejoin:miter;stroke-opacity:1" d="M 690.295,996 681.485,996 z" id="boundary" inkscape:connector-curvature="0" />
	<path style="fill:none;stroke:red;stroke-width:1px;stroke-linecap:butt;stroke-linejoin:miter;stroke-opacity:1" d="M 722.892,707.915 727.297,715.844 z" id="boundary" inkscape:connector-curvature="0" />
	<path style="fill:none;stroke:red;stroke-width:1px;stroke-linecap:butt;stroke-linejoin:miter;stroke-opacity:1" d="M 727.297,715.844 731.702,723.773 z" id="boundary" inkscape:connector-curvature="0" />
	<path style="fill:none;stroke:red;stroke-width:1px;stroke-linecap:butt;stroke-linejoin:miter;stroke-opacity:1" d="M 736.107,731.702 731.702,723.773 z" id="boundary" inkscape:connector-curvature="0" />
	<path style="fill:none;stroke:red;stroke-width:1px;stroke-linecap:butt;stroke-linejoin:miter;stroke-opacity:1" d="M 706.153,987.19 698.224,991.595 z" id="boundary" inkscape:connector-curvature="0" />
	<path style="fill:none;stroke:red;stroke-width:1px;stroke-linecap:butt;stroke-linejoin:miter;stroke-opacity:1" d="M 736.107,731.702 736.107,740.512 z" id="boundary" inkscape:connector-curvature="0" />
	<path style="fill:none;stroke:red;stroke-width:1px;stroke-linecap:butt;stroke-linejoin:miter;stroke-opacity:1" d="M 714.082,982.785 706.153,987.19 z" id="boundary" inkscape:connector-curvature="0" />
	<path style="fill:none;stroke:red;stroke-width:1px;stroke-linecap:butt;stroke-linejoin:miter;stroke-opacity:1" d="M 722.892,978.38 714.082,982.785 z" id="boundary" inkscape:connector-curvature="0" />
	<path style="fill:none;stroke:red;stroke-width:1px;stroke-linecap:butt;stroke-linejoin:miter;stroke-opacity:1" d="M 740.512,748.44 736.107,740.512 z" id="boundary" inkscape:connector-curvature="0" />
	<path style="fill:none;stroke:red;stroke-width:1px;stroke-linecap:butt;stroke-linejoin:miter;stroke-opacity:1" d="M 744.917,756.369 740.512,748.44 z" id="boundary" inkscape:connector-curvature="0" />
	<path style="fill:none;stroke:red;stroke-width:1px;stroke-linecap:butt;stroke-linejoin:miter;stroke-opacity:1" d="M 729.94,972.213 722.892,978.38 z" id="boundary" inkscape:connector-curvature="0" />
	<path style="fill:none;stroke:red;stroke-width:1px;stroke-linecap:butt;stroke-linejoin:miter;stroke-opacity:1" d="M 749.321,764.298 749.321,773.108 z" id="boundary" inkscape:connector-curvature="0" />
	<path style="fill:none;stroke:red;stroke-width:1px;stroke-linecap:butt;stroke-linejoin:miter;stroke-opacity:1" d="M 749.321,764.298 744.917,756.369 z" id="boundary" inkscape:connector-curvature="0" />
	<path style="fill:none;stroke:red;stroke-width:1px;stroke-linecap:butt;stroke-linejoin:miter;stroke-opacity:1" d="M 736.107,965.165 729.94,972.213 z" id="boundary" inkscape:connector-curvature="0" />
	<path style="fill:none;stroke:red;stroke-width:1px;stroke-linecap:butt;stroke-linejoin:miter;stroke-opacity:1" d="M 743.155,958.998 736.107,965.165 z" id="boundary" inkscape:connector-curvature="0" />
	<path style="fill:none;stroke:red;stroke-width:1px;stroke-linecap:butt;stroke-linejoin:miter;stroke-opacity:1" d="M 752.845,781.918 753.726,790.728 z" id="boundary" inkscape:connector-curvature="0" />
	<path style="fill:none;stroke:red;stroke-width:1px;stroke-linecap:butt;stroke-linejoin:miter;stroke-opacity:1" d="M 752.845,781.918 749.321,773.108 z" id="boundary" inkscape:connector-curvature="0" />
	<path style="fill:none;stroke:red;stroke-width:1px;stroke-linecap:butt;stroke-linejoin:miter;stroke-opacity:1" d="M 762.536,806.586 758.131,798.657 z" id="boundary" inkscape:connector-curvature="0" />
	<path style="fill:none;stroke:red;stroke-width:1px;stroke-linecap:butt;stroke-linejoin:miter;stroke-opacity:1" d="M 749.321,947.545 743.155,958.998 z" id="boundary" inkscape:connector-curvature="0" />
	<path style="fill:none;stroke:red;stroke-width:1px;stroke-linecap:butt;stroke-linejoin:miter;stroke-opacity:1" d="M 756.369,941.378 749.321,947.545 z" id="boundary" inkscape:connector-curvature="0" />
	<path style="fill:none;stroke:red;stroke-width:1px;stroke-linecap:butt;stroke-linejoin:miter;stroke-opacity:1" d="M 753.726,790.728 758.131,798.657 z" id="boundary" inkscape:connector-curvature="0" />
	<path style="fill:none;stroke:red;stroke-width:1px;stroke-linecap:butt;stroke-linejoin:miter;stroke-opacity:1" d="M 762.536,806.586 762.536,815.396 z" id="boundary" inkscape:connector-curvature="0" />
	<path style="fill:none;stroke:red;stroke-width:1px;stroke-linecap:butt;stroke-linejoin:miter;stroke-opacity:1" d="M 766.941,840.945 766.941,832.135 z" id="boundary" inkscape:connector-curvature="0" />
	<path style="fill:none;stroke:red;stroke-width:1px;stroke-linecap:butt;stroke-linejoin:miter;stroke-opacity:1" d="M 762.536,929.925 756.369,941.378 z" id="boundary" inkscape:connector-curvature="0" />
	<path style="fill:none;stroke:red;stroke-width:1px;stroke-linecap:butt;stroke-linejoin:miter;stroke-opacity:1" d="M 766.941,823.325 766.941,832.135 z" id="boundary" inkscape:connector-curvature="0" />
	<path style="fill:none;stroke:red;stroke-width:1px;stroke-linecap:butt;stroke-linejoin:miter;stroke-opacity:1" d="M 766.941,823.325 762.536,815.396 z" id="boundary" inkscape:connector-curvature="0" />
	<path style="fill:none;stroke:red;stroke-width:1px;stroke-linecap:butt;stroke-linejoin:miter;stroke-opacity:1" d="M 771.346,875.304 771.346,866.494 z" id="boundary" inkscape:connector-curvature="0" />
	<path style="fill:none;stroke:red;stroke-width:1px;stroke-linecap:butt;stroke-linejoin:miter;stroke-opacity:1" d="M 771.346,848.874 771.346,857.684 z" id="boundary" inkscape:connector-curvature="0" />
	<path style="fill:none;stroke:red;stroke-width:1px;stroke-linecap:butt;stroke-linejoin:miter;stroke-opacity:1" d="M 771.346,848.874 766.941,840.945 z" id="boundary" inkscape:connector-curvature="0" />
	<path style="fill:none;stroke:red;stroke-width:1px;stroke-linecap:butt;stroke-linejoin:miter;stroke-opacity:1" d="M 766.941,921.115 762.536,929.925 z" id="boundary" inkscape:connector-curvature="0" />
	<path style="fill:none;stroke:red;stroke-width:1px;stroke-linecap:butt;stroke-linejoin:miter;stroke-opacity:1" d="M 766.941,921.115 766.941,912.306 z" id="boundary" inkscape:connector-curvature="0" />
	<path style="fill:none;stroke:red;stroke-width:1px;stroke-linecap:butt;stroke-linejoin:miter;stroke-opacity:1" d="M 771.346,857.684 771.346,866.494 z" id="boundary" inkscape:connector-curvature="0" />
	<path style="fill:none;stroke:red;stroke-width:1px;stroke-linecap:butt;stroke-linejoin:miter;stroke-opacity:1" d="M 771.346,884.114 771.346,875.304 z" id="boundary" inkscape:connector-curvature="0" />
	<path style="fill:none;stroke:red;stroke-width:1px;stroke-linecap:butt;stroke-linejoin:miter;stroke-opacity:1" d="M 771.346,884.114 771.346,892.924 z" id="boundary" inkscape:connector-curvature="0" />
	<path style="fill:none;stroke:red;stroke-width:1px;stroke-linecap:butt;stroke-linejoin:miter;stroke-opacity:1" d="M 771.346,892.924 771.346,901.734 z" id="boundary" inkscape:connector-curvature="0" />
	<path style="fill:none;stroke:red;stroke-width:1px;stroke-linecap:butt;stroke-linejoin:miter;stroke-opacity:1" d="M 771.346,901.734 766.941,912.306 z" id="boundary" inkscape:connector-curvature="0" />
	<circle cx="4" cy="63.9076" r="4" fill="#0" id="circle0"/>
	<circle cx="4" cy="72.7176" r="4" fill="#0" id="circle1"/>
	<circle cx="4" cy="81.5275" r="4" fill="#0" id="circle2"/>
	<circle cx="4" cy="90.3375" r="4" fill="#0" id="circle3"/>
	<circle cx="8.40497" cy="46.2877" r="4" fill="#0" id="circle4"/>
	<circle cx="8.40497" cy="55.0977" r="4" fill="#0" id="circle5"/>
	<circle cx="8.40497" cy="98.2664" r="4" fill="#0" id="circle6"/>
	<circle cx="8.40497" cy="107.076" r="4" fill="#0" id="circle7"/>
	<circle cx="12.8099" cy="37.4778" r="4" fill="#0" id="circle8"/>
	<circle cx="12.8099" cy="115.005" r="4" fill="#0" id="circle9"/>
	<circle cx="17.2149" cy="122.934" r="4" fill="#0" id="circle10"/>
	<circle cx="19.8579" cy="30.4298" r="4" fill="#0" id="circle11"/>
	<circle cx="21.6199" cy="130.863" r="4" fill="#0" id="circle12"/>
	<circle cx="26.0249" cy="138.792" r="4" fill="#0" id="circle13"/>
	<circle cx="26.9059" cy="23.3819" r="4" fill="#0" id="circle14"/>
	<circle cx="30.4298" cy="146.721" r="4" fill="#0" id="circle15"/>
	<circle cx="33.9538" cy="17.2149" r="4" fill="#0" id="circle16"/>
	<circle cx="34.8348" cy="154.65" r="4" fill="#0" id="circle17"/>
	<circle cx="37.4778" cy="163.46" r="4" fill="#0" id="circle18"/>
	<circle cx="40.1208" cy="10.167" r="4" fill="#0" id="circle19"/>
	<circle cx="41.8828" cy="171.389" r="4" fill="#0" id="circle20"/>
	<circle cx="48.0497" cy="178.437" r="4" fill="#0" id="circle21"/>
	<circle cx="48.9307" cy="5.76199" r="4" fill="#0" id="circle22"/>
	<circle cx="52.4547" cy="186.366" r="4" fill="#0" id="circle23"/>
	<circle cx="56.8597" cy="194.295" r="4" fill="#0" id="circle24"/>
	<circle cx="57.7407" cy="4" r="4" fill="#0" id="circle25"/>
	<circle cx="61.2647" cy="202.224" r="4" fill="#0" id="circle26"/>
	<circle cx="66.5506" cy="4" r="4" fill="#0" id="circle27"/>
	<circle cx="66.5506" cy="209.272" r="4" fill="#0" id="circle28"/>
	<circle cx="72.7176" cy="216.32" r="4" fill="#0" id="circle29"/>
	<circle cx="75.3606" cy="4" r="4" fill="#0" id="circle30"/>
	<circle cx="79.7655" cy="222.487" r="4" fill="#0" id="circle31"/>
	<circle cx="83.2895" cy="8.40497" r="4" fill="#0" id="circle32"/>
	<circle cx="85.9325" cy="229.535" r="4" fill="#0" id="circle33"/>
	<circle cx="90.3375" cy="13.6909" r="4" fill="#0" id="circle34"/>
	<circle cx="90.3375" cy="237.464" r="4" fill="#0" id="circle35"/>
	<circle cx="93.8615" cy="246.274" r="4" fill="#0" id="circle36"/>
	<circle cx="97.3854" cy="19.8579" r="4" fill="#0" id="circle37"/>
	<circle cx="98.2664" cy="254.202" r="4" fill="#0" id="circle38"/>
	<circle cx="103.552" cy="26.9059" r="4" fill="#0" id="circle39"/>
	<circle cx="105.314" cy="260.369" r="4" fill="#0" id="circle40"/>
	<circle cx="109.719" cy="268.298" r="4" fill="#0" id="circle41"/>
	<circle cx="110.6" cy="33.0728" r="4" fill="#0" id="circle42"/>
	<circle cx="115.005" cy="41.0018" r="4" fill="#0" id="circle43"/>
	<circle cx="115.005" cy="275.346" r="4" fill="#0" id="circle44"/>
	<circle cx="120.291" cy="48.0497" r="4" fill="#0" id="circle45"/>
	<circle cx="121.172" cy="282.394" r="4" fill="#0" id="circle46"/>
	<circle cx="127.339" cy="54.2167" r="4" fill="#0" id="circle47"/>
	<circle cx="127.339" cy="289.442" r="4" fill="#0" id="circle48"/>
	<circle cx="130.863" cy="63.0266" r="4" fill="#0" id="circle49"/>
	<circle cx="131.744" cy="297.371" r="4" fill="#0" id="circle50"/>
	<circle cx="135.268" cy="70.9556" r="4" fill="#0" id="circle51"/>
	<circle cx="136.149" cy="305.3" r="4" fill="#0" id="circle52"/>
	<circle cx="138.792" cy="79.7655" r="4" fill="#0" id="circle53"/>
	<circle cx="142.316" cy="312.348" r="4" fill="#0" id="circle54"/>
	<circle cx="143.197" cy="87.6945" r="4" fill="#0" id="circle55"/>
	<circle cx="145.84" cy="96.5044" r="4" fill="#0" id="circle56"/>
	<circle cx="149.364" cy="317.634" r="4" fill="#0" id="circle57"/>
	<circle cx="150.245" cy="104.433" r="4" fill="#0" id="circle58"/>
	<circle cx="154.65" cy="112.362" r="4" fill="#0" id="circle59"/>
	<circle cx="154.65" cy="324.682" r="4" fill="#0" id="circle60"/>
	<circle cx="159.055" cy="332.611" r="4" fill="#0" id="circle61"/>
	<circle cx="160.817" cy="119.41" r="4" fill="#0" id="circle62"/>
	<circle cx="165.222" cy="339.659" r="4" fill="#0" id="circle63"/>
	<circle cx="167.865" cy="125.577" r="4" fill="#0" id="circle64"/>
	<circle cx="171.389" cy="134.387" r="4" fill="#0" id="circle65"/>
	<circle cx="172.27" cy="345.826" r="4" fill="#0" id="circle66"/>
	<circle cx="178.437" cy="140.554" r="4" fill="#0" id="circle67"/>
	<circle cx="178.437" cy="352.874" r="4" fill="#0" id="circle68"/>
	<circle cx="181.08" cy="149.364" r="4" fill="#0" id="circle69"/>
	<circle cx="184.604" cy="359.922" r="4" fill="#0" id="circle70"/>
	<circle cx="185.485" cy="157.293" r="4" fill="#0" id="circle71"/>
	<circle cx="189.009" cy="367.851" r="4" fill="#0" id="circle72"/>
	<circle cx="192.533" cy="163.46" r="4" fill="#0" id="circle73"/>
	<circle cx="196.057" cy="374.018" r="4" fill="#0" id="circle74"/>
	<circle cx="198.7" cy="170.508" r="4" fill="#0" id="circle75"/>
	<circle cx="202.224" cy="381.066" r="4" fill="#0" id="circle76"/>
	<circle cx="203.105" cy="178.437" r="4" fill="#0" id="circle77"/>
	<circle cx="207.51" cy="186.366" r="4" fill="#0" id="circle78"/>
	<circle cx="209.272" cy="387.233" r="4" fill="#0" id="circle79"/>
	<circle cx="211.915" cy="194.295" r="4" fill="#0" id="circle80"/>
	<circle cx="212.796" cy="396.043" r="4" fill="#0" id="circle81"/>
	<circle cx="216.32" cy="202.224" r="4" fill="#0" id="circle82"/>
	<circle cx="219.844" cy="401.329" r="4" fill="#0" id="circle83"/>
	<circle cx="223.368" cy="207.51" r="4" fill="#0" id="circle84"/>
	<circle cx="224.249" cy="409.258" r="4" fill="#0" id="circle85"/>
	<circle cx="226.892" cy="216.32" r="4" fill="#0" id="circle86"/>
	<circle cx="229.535" cy="416.306" r="4" fill="#0" id="circle87"/>
	<circle cx="231.297" cy="224.249" r="4" fill="#0" id="circle88"/>
	<circle cx="233.94" cy="233.059" r="4" fill="#0" id="circle89"/>
	<circle cx="235.702" cy="423.353" r="4" fill="#0" id="circle90"/>
	<circle cx="240.107" cy="431.282" r="4" fill="#0" id="circle91"/>
	<circle cx="240.988" cy="238.345" r="4" fill="#0" id="circle92"/>
	<circle cx="243.631" cy="440.092" r="4" fill="#0" id="circle93"/>
	<circle cx="247.155" cy="245.393" r="4" fill="#0" id="circle94"/>
	<circle cx="248.036" cy="448.021" r="4" fill="#0" id="circle95"/>
	<circle cx="251.56" cy="253.321" r="4" fill="#0" id="circle96"/>
	<circle cx="255.083" cy="454.188" r="4" fill="#0" id="circle97"/>
	<circle cx="257.726" cy="260.369" r="4" fill="#0" id="circle98"/>
	<circle cx="259.488" cy="462.117" r="4" fill="#0" id="circle99"/>
	<circle cx="262.131" cy="268.298" r="4" fill="#0" id="circle100"/>
	<circle cx="264.774" cy="277.108" r="4" fill="#0" id="circle101"/>
	<circle cx="264.774" cy="469.165" r="4" fill="#0" id="circle102"/>
	<circle cx="269.179" cy="285.037" r="4" fill="#0" id="circle103"/>
	<circle cx="270.941" cy="476.213" r="4" fill="#0" id="circle104"/>
	<circle cx="276.227" cy="291.204" r="4" fill="#0" id="circle105"/>
	<circle cx="277.989" cy="482.38" r="4" fill="#0" id="circle106"/>
	<circle cx="282.394" cy="298.252" r="4" fill="#0" id="circle107"/>
	<circle cx="284.156" cy="489.428" r="4" fill="#0" id="circle108"/>
	<circle cx="286.799" cy="306.181" r="4" fill="#0" id="circle109"/>
	<circle cx="291.204" cy="495.595" r="4" fill="#0" id="circle110"/>
	<circle cx="292.966" cy="313.229" r="4" fill="#0" id="circle111"/>
	<circle cx="297.371" cy="502.643" r="4" fill="#0" id="circle112"/>
	<circle cx="300.014" cy="319.396" r="4" fill="#0" id="circle113"/>
	<circle cx="301.776" cy="510.572" r="4" fill="#0" id="circle114"/>
	<circle cx="306.181" cy="326.444" r="4" fill="#0" id="circle115"/>
	<circle cx="307.943" cy="517.62" r="4" fill="#0" id="circle116"/>
	<circle cx="310.586" cy="334.373" r="4" fill="#0" id="circle117"/>
	<circle cx="313.229" cy="343.183" r="4" fill="#0" id="circle118"/>
	<circle cx="314.991" cy="523.787" r="4" fill="#0" id="circle119"/>
	<circle cx="320.277" cy="348.469" r="4" fill="#0" id="circle120"/>
	<circle cx="321.158" cy="530.835" r="4" fill="#0" id="circle121"/>
	<circle cx="326.444" cy="355.517" r="4" fill="#0" id="circle122"/>
	<circle cx="328.206" cy="537.002" r="4" fill="#0" id="circle123"/>
	<circle cx="330.849" cy="363.446" r="4" fill="#0" id="circle124"/>
	<circle cx="334.373" cy="544.05" r="4" fill="#0" id="circle125"/>
	<circle cx="337.016" cy="370.494" r="4" fill="#0" id="circle126"/>
	<circle cx="341.421" cy="550.217" r="4" fill="#0" id="circle127"/>
	<circle cx="344.064" cy="376.661" r="4" fill="#0" id="circle128"/>
	<circle cx="347.588" cy="385.471" r="4" fill="#0" id="circle129"/>
	<circle cx="347.588" cy="557.265" r="4" fill="#0" id="circle130"/>
	<circle cx="354.636" cy="391.638" r="4" fill="#0" id="circle131"/>
	<circle cx="354.636" cy="563.432" r="4" fill="#0" id="circle132"/>
	<circle cx="357.279" cy="400.448" r="4" fill="#0" id="circle133"/>
	<circle cx="358.16" cy="572.242" r="4" fill="#0" id="circle134"/>
	<circle cx="364.327" cy="405.734" r="4" fill="#0" id="circle135"/>
	<circle cx="365.208" cy="577.528" r="4" fill="#0" id="circle136"/>
	<circle cx="370.494" cy="412.782" r="4" fill="#0" id="circle137"/>
	<circle cx="370.494" cy="584.575" r="4" fill="#0" id="circle138"/>
	<circle cx="374.899" cy="420.71" r="4" fill="#0" id="circle139"/>
	<circle cx="378.423" cy="429.52" r="4" fill="#0" id="circle140"/>
	<circle cx="379.304" cy="588.099" r="4" fill="#0" id="circle141"/>
	<circle cx="382.828" cy="437.449" r="4" fill="#0" id="circle142"/>
	<circle cx="382.828" cy="676.199" r="4" fill="#0" id="circle143"/>
	<circle cx="382.828" cy="685.009" r="4" fill="#0" id="circle144"/>
	<circle cx="382.828" cy="693.819" r="4" fill="#0" id="circle145"/>
	<circle cx="382.828" cy="702.629" r="4" fill="#0" id="circle146"/>
	<circle cx="382.828" cy="711.439" r="4" fill="#0" id="circle147"/>
	<circle cx="382.828" cy="720.249" r="4" fill="#0" id="circle148"/>
	<circle cx="382.828" cy="729.059" r="4" fill="#0" id="circle149"/>
	<circle cx="382.828" cy="737.869" r="4" fill="#0" id="circle150"/>
	<circle cx="386.352" cy="446.259" r="4" fill="#0" id="circle151"/>
	<circle cx="387.233" cy="592.504" r="4" fill="#0" id="circle152"/>
	<circle cx="387.233" cy="632.149" r="4" fill="#0" id="circle153"/>
	<circle cx="387.233" cy="640.959" r="4" fill="#0" id="circle154"/>
	<circle cx="387.233" cy="649.769" r="4" fill="#0" id="circle155"/>
	<circle cx="387.233" cy="658.579" r="4" fill="#0" id="circle156"/>
	<circle cx="387.233" cy="667.389" r="4" fill="#0" id="circle157"/>
	<circle cx="387.233" cy="745.798" r="4" fill="#0" id="circle158"/>
	<circle cx="387.233" cy="754.607" r="4" fill="#0" id="circle159"/>
	<circle cx="387.233" cy="763.417" r="4" fill="#0" id="circle160"/>
	<circle cx="390.757" cy="454.188" r="4" fill="#0" id="circle161"/>
	<circle cx="391.638" cy="623.339" r="4" fill="#0" id="circle162"/>
	<circle cx="391.638" cy="771.346" r="4" fill="#0" id="circle163"/>
	<circle cx="394.281" cy="462.998" r="4" fill="#0" id="circle164"/>
	<circle cx="394.281" cy="598.671" r="4" fill="#0" id="circle165"/>
	<circle cx="396.043" cy="614.529" r="4" fill="#0" id="circle166"/>
	<circle cx="396.043" cy="779.275" r="4" fill="#0" id="circle167"/>
	<circle cx="398.686" cy="470.927" r="4" fill="#0" id="circle168"/>
	<circle cx="400.448" cy="787.204" r="4" fill="#0" id="circle169"/>
	<circle cx="404.853" cy="477.975" r="4" fill="#0" id="circle170"/>
	<circle cx="404.853" cy="795.133" r="4" fill="#0" id="circle171"/>
	<circle cx="409.258" cy="803.062" r="4" fill="#0" id="circle172"/>
	<circle cx="411.901" cy="484.142" r="4" fill="#0" id="circle173"/>
	<circle cx="413.663" cy="810.991" r="4" fill="#0" id="circle174"/>
	<circle cx="416.306" cy="819.801" r="4" fill="#0" id="circle175"/>
	<circle cx="418.067" cy="491.19" r="4" fill="#0" id="circle176"/>
	<circle cx="420.71" cy="827.73" r="4" fill="#0" id="circle177"/>
	<circle cx="423.353" cy="498.238" r="4" fill="#0" id="circle178"/>
	<circle cx="426.877" cy="834.778" r="4" fill="#0" id="circle179"/>
	<circle cx="427.758" cy="506.167" r="4" fill="#0" id="circle180"/>
	<circle cx="431.282" cy="842.707" r="4" fill="#0" id="circle181"/>
	<circle cx="432.163" cy="514.096" r="4" fill="#0" id="circle182"/>
	<circle cx="436.568" cy="522.025" r="4" fill="#0" id="circle183"/>
	<circle cx="437.449" cy="849.755" r="4" fill="#0" id="circle184"/>
	<circle cx="442.735" cy="529.073" r="4" fill="#0" id="circle185"/>
	<circle cx="444.497" cy="855.041" r="4" fill="#0" id="circle186"/>
	<circle cx="447.14" cy="863.851" r="4" fill="#0" id="circle187"/>
	<circle cx="449.783" cy="535.24" r="4" fill="#0" id="circle188"/>
	<circle cx="454.188" cy="870.018" r="4" fill="#0" id="circle189"/>
	<circle cx="455.95" cy="542.288" r="4" fill="#0" id="circle190"/>
	<circle cx="460.355" cy="877.066" r="4" fill="#0" id="circle191"/>
	<circle cx="462.998" cy="548.455" r="4" fill="#0" id="circle192"/>
	<circle cx="467.403" cy="883.233" r="4" fill="#0" id="circle193"/>
	<circle cx="469.165" cy="555.503" r="4" fill="#0" id="circle194"/>
	<circle cx="470.927" cy="892.043" r="4" fill="#0" id="circle195"/>
	<circle cx="477.975" cy="554.622" r="4" fill="#0" id="circle196"/>
	<circle cx="477.975" cy="898.21" r="4" fill="#0" id="circle197"/>
	<circle cx="484.142" cy="905.258" r="4" fill="#0" id="circle198"/>
	<circle cx="486.785" cy="554.622" r="4" fill="#0" id="circle199"/>
	<circle cx="491.19" cy="911.425" r="4" fill="#0" id="circle200"/>
	<circle cx="495.595" cy="550.217" r="4" fill="#0" id="circle201"/>
	<circle cx="497.357" cy="918.472" r="4" fill="#0" id="circle202"/>
	<circle cx="504.405" cy="550.217" r="4" fill="#0" id="circle203"/>
	<circle cx="504.405" cy="924.639" r="4" fill="#0" id="circle204"/>
	<circle cx="510.572" cy="931.687" r="4" fill="#0" id="circle205"/>
	<circle cx="513.215" cy="550.217" r="4" fill="#0" id="circle206"/>
	<circle cx="517.62" cy="937.854" r="4" fill="#0" id="circle207"/>
	<circle cx="522.025" cy="550.217" r="4" fill="#0" id="circle208"/>
	<circle cx="523.787" cy="944.902" r="4" fill="#0" id="circle209"/>
	<circle cx="530.835" cy="550.217" r="4" fill="#0" id="circle210"/>
	<circle cx="530.835" cy="951.069" r="4" fill="#0" id="circle211"/>
	<circle cx="538.764" cy="955.474" r="4" fill="#0" id="circle212"/>
	<circle cx="539.645" cy="550.217" r="4" fill="#0" id="circle213"/>
	<circle cx="547.574" cy="554.622" r="4" fill="#0" id="circle214"/>
	<circle cx="547.574" cy="958.998" r="4" fill="#0" id="circle215"/>
	<circle cx="555.503" cy="963.403" r="4" fill="#0" id="circle216"/>
	<circle cx="556.384" cy="554.622" r="4" fill="#0" id="circle217"/>
	<circle cx="562.551" cy="969.57" r="4" fill="#0" id="circle218"/>
	<circle cx="565.194" cy="554.622" r="4" fill="#0" id="circle219"/>
	<circle cx="570.48" cy="973.975" r="4" fill="#0" id="circle220"/>
	<circle cx="573.123" cy="559.027" r="4" fill="#0" id="circle221"/>
	<circle cx="579.29" cy="977.499" r="4" fill="#0" id="circle222"/>
	<circle cx="581.933" cy="559.027" r="4" fill="#0" id="circle223"/>
	<circle cx="587.218" cy="981.904" r="4" fill="#0" id="circle224"/>
	<circle cx="589.861" cy="563.432" r="4" fill="#0" id="circle225"/>
	<circle cx="596.028" cy="982.785" r="4" fill="#0" id="circle226"/>
	<circle cx="597.79" cy="567.837" r="4" fill="#0" id="circle227"/>
	<circle cx="604.838" cy="982.785" r="4" fill="#0" id="circle228"/>
	<circle cx="605.719" cy="572.242" r="4" fill="#0" id="circle229"/>
	<circle cx="612.767" cy="987.19" r="4" fill="#0" id="circle230"/>
	<circle cx="613.648" cy="576.647" r="4" fill="#0" id="circle231"/>
	<circle cx="620.696" cy="582.813" r="4" fill="#0" id="circle232"/>
	<circle cx="620.696" cy="991.595" r="4" fill="#0" id="circle233"/>
	<circle cx="628.625" cy="587.218" r="4" fill="#0" id="circle234"/>
	<circle cx="628.625" cy="996" r="4" fill="#0" id="circle235"/>
	<circle cx="634.792" cy="594.266" r="4" fill="#0" id="circle236"/>
	<circle cx="637.435" cy="996" r="4" fill="#0" id="circle237"/>
	<circle cx="642.721" cy="598.671" r="4" fill="#0" id="circle238"/>
	<circle cx="646.245" cy="996" r="4" fill="#0" id="circle239"/>
	<circle cx="649.769" cy="603.957" r="4" fill="#0" id="circle240"/>
	<circle cx="655.055" cy="996" r="4" fill="#0" id="circle241"/>
	<circle cx="656.817" cy="610.124" r="4" fill="#0" id="circle242"/>
	<circle cx="662.984" cy="617.172" r="4" fill="#0" id="circle243"/>
	<circle cx="663.865" cy="996" r="4" fill="#0" id="circle244"/>
	<circle cx="670.032" cy="623.339" r="4" fill="#0" id="circle245"/>
	<circle cx="672.675" cy="996" r="4" fill="#0" id="circle246"/>
	<circle cx="676.199" cy="630.387" r="4" fill="#0" id="circle247"/>
	<circle cx="681.485" cy="996" r="4" fill="#0" id="circle248"/>
	<circle cx="683.247" cy="636.554" r="4" fill="#0" id="circle249"/>
	<circle cx="687.652" cy="644.483" r="4" fill="#0" id="circle250"/>
	<circle cx="690.295" cy="996" r="4" fill="#0" id="circle251"/>
	<circle cx="692.938" cy="651.531" r="4" fill="#0" id="circle252"/>
	<circle cx="698.224" cy="991.595" r="4" fill="#0" id="circle253"/>
	<circle cx="699.986" cy="657.698" r="4" fill="#0" id="circle254"/>
	<circle cx="703.51" cy="666.508" r="4" fill="#0" id="circle255"/>
	<circle cx="706.153" cy="987.19" r="4" fill="#0" id="circle256"/>
	<circle cx="707.915" cy="674.437" r="4" fill="#0" id="circle257"/>
	<circle cx="711.439" cy="683.247" r="4" fill="#0" id="circle258"/>
	<circle cx="714.082" cy="982.785" r="4" fill="#0" id="circle259"/>
	<circle cx="715.844" cy="691.176" r="4" fill="#0" id="circle260"/>
	<circle cx="718.487" cy="699.986" r="4" fill="#0" id="circle261"/>
	<circle cx="722.892" cy="707.915" r="4" fill="#0" id="circle262"/>
	<circle cx="722.892" cy="978.38" r="4" fill="#0" id="circle263"/>
	<circle cx="727.297" cy="715.844" r="4" fill="#0" id="circle264"/>
	<circle cx="729.94" cy="972.213" r="4" fill="#0" id="circle265"/>
	<circle cx="731.702" cy="723.773" r="4" fill="#0" id="circle266"/>
	<circle cx="736.107" cy="731.702" r="4" fill="#0" id="circle267"/>
	<circle cx="736.107" cy="740.512" r="4" fill="#0" id="circle268"/>
	<circle cx="736.107" cy="965.165" r="4" fill="#0" id="circle269"/>
	<circle cx="740.512" cy="748.44" r="4" fill="#0" id="circle270"/>
	<circle cx="743.155" cy="958.998" r="4" fill="#0" id="circle271"/>
	<circle cx="744.917" cy="756.369" r="4" fill="#0" id="circle272"/>
	<circle cx="749.321" cy="764.298" r="4" fill="#0" id="circle273"/>
	<circle cx="749.321" cy="773.108" r="4" fill="#0" id="circle274"/>
	<circle cx="749.321" cy="947.545" r="4" fill="#0" id="circle275"/>
	<circle cx="752.845" cy="781.918" r="4" fill="#0" id="circle276"/>
	<circle cx="753.726" cy="790.728" r="4" fill="#0" id="circle277"/>
	<circle cx="756.369" cy="941.378" r="4" fill="#0" id="circle278"/>
	<circle cx="758.131" cy="798.657" r="4" fill="#0" id="circle279"/>
	<circle cx="762.536" cy="806.586" r="4" fill="#0" id="circle280"/>
	<circle cx="762.536" cy="815.396" r="4" fill="#0" id="circle281"/>
	<circle cx="762.536" cy="929.925" r="4" fill="#0" id="circle282"/>
	<circle cx="766.941" cy="823.325" r="4" fill="#0" id="circle283"/>
	<circle cx="766.941" cy="832.135" r="4" fill="#0" id="circle284"/>
	<circle cx="766.941" cy="840.945" r="4" fill="#0" id="circle285"/>
	<circle cx="766.941" cy="912.306" r="4" fill="#0" id="circle286"/>
	<circle cx="766.941" cy="921.115" r="4" fill="#0" id="circle287"/>
	<circle cx="771.346" cy="848.874" r="4" fill="#0" id="circle288"/>
	<circle cx="771.346" cy="857.684" r="4" fill="#0" id="circle289"/>
	<circle cx="771.346" cy="866.494" r="4" fill="#0" id="circle290"/>
	<circle cx="771.346" cy="875.304" r="4" fill="#0" id="circle291"/>
	<circle cx="771.346" cy="884.114" r="4" fill="#0" id="circle292"/>
	<circle cx="771.346" cy="892.924" r="4" fill="#0" id="circle293"/>
	<circle cx="771.346" cy="901.734" r="4" fill="#0" id="circle294"/>
	</g>
</svg>