<?xml version="1.0" encoding="UTF-8" standalone="no"?>
<!-- Created with CurveBenchmark -->
<svg
	xmlns:dc="http://purl.org/dc/elements/1.1/"
	xmlns:cc="http://creativecommons.org/ns#"
	xmlns:rdf="http://www.w3.org/1999/02/22-rdf-syntax-ns#"
	xmlns:svg="http://www.w3.org/2000/svg"
	xmlns="http://www.w3.org/2000/svg"
	xmlns:sodipodi="http://sodipodi.sourceforge.net/DTD/sodipodi-0.dtd"
	xmlns:inkscape="http://www.inkscape.org/namespaces/inkscape"
	width="1000"
	height="1000"
	id="svg2"
	version="1.1"
	sodipodi:docname="manifold/peel-bird015.png.txt">
<defs
	id="defs4" />
<metadata
	id="metadata7">
	<rdf:RDF>
		<cc:Work
			rdf:about="">
			<dc:format>image/svg+xml</dc:format>
			<dc:type
				rdf:resource="http://purl.org/dc/dcmitype/StillImage" />
			<dc:title></dc:title>
		</cc:Work>
	</rdf:RDF>
</metadata>
<g
	inkscape:label="Layer 1"
	inkscape:groupmode="layer"
	id="layer1">
	<path style="fill:none;stroke:red;stroke-width:1px;stroke-linecap:butt;stroke-linejoin:miter;stroke-opacity:1" d="M 37.8182,300.848 19.0303,334.667 z" id="boundary" inkscape:connector-curvature="0" />
	<path style="fill:none;stroke:red;stroke-width:1px;stroke-linecap:butt;stroke-linejoin:miter;stroke-opacity:1" d="M 4,372.242 19.0303,334.667 z" id="boundary" inkscape:connector-curvature="0" />
	<path style="fill:none;stroke:red;stroke-width:1px;stroke-linecap:butt;stroke-linejoin:miter;stroke-opacity:1" d="M 41.5758,421.091 4,409.818 z" id="boundary" inkscape:connector-curvature="0" />
	<path style="fill:none;stroke:red;stroke-width:1px;stroke-linecap:butt;stroke-linejoin:miter;stroke-opacity:1" d="M 4,409.818 4,372.242 z" id="boundary" inkscape:connector-curvature="0" />
	<path style="fill:none;stroke:red;stroke-width:1px;stroke-linecap:butt;stroke-linejoin:miter;stroke-opacity:1" d="M 56.6061,267.03 37.8182,300.848 z" id="boundary" inkscape:connector-curvature="0" />
	<path style="fill:none;stroke:red;stroke-width:1px;stroke-linecap:butt;stroke-linejoin:miter;stroke-opacity:1" d="M 79.1515,236.97 56.6061,267.03 z" id="boundary" inkscape:connector-curvature="0" />
	<path style="fill:none;stroke:red;stroke-width:1px;stroke-linecap:butt;stroke-linejoin:miter;stroke-opacity:1" d="M 79.1515,406.061 41.5758,421.091 z" id="boundary" inkscape:connector-curvature="0" />
	<path style="fill:none;stroke:red;stroke-width:1px;stroke-linecap:butt;stroke-linejoin:miter;stroke-opacity:1" d="M 109.212,206.909 79.1515,236.97 z" id="boundary" inkscape:connector-curvature="0" />
	<path style="fill:none;stroke:red;stroke-width:1px;stroke-linecap:butt;stroke-linejoin:miter;stroke-opacity:1" d="M 116.727,413.576 79.1515,406.061 z" id="boundary" inkscape:connector-curvature="0" />
	<path style="fill:none;stroke:red;stroke-width:1px;stroke-linecap:butt;stroke-linejoin:miter;stroke-opacity:1" d="M 139.273,176.848 109.212,206.909 z" id="boundary" inkscape:connector-curvature="0" />
	<path style="fill:none;stroke:red;stroke-width:1px;stroke-linecap:butt;stroke-linejoin:miter;stroke-opacity:1" d="M 154.303,421.091 116.727,413.576 z" id="boundary" inkscape:connector-curvature="0" />
	<path style="fill:none;stroke:red;stroke-width:1px;stroke-linecap:butt;stroke-linejoin:miter;stroke-opacity:1" d="M 169.333,146.788 139.273,176.848 z" id="boundary" inkscape:connector-curvature="0" />
	<path style="fill:none;stroke:red;stroke-width:1px;stroke-linecap:butt;stroke-linejoin:miter;stroke-opacity:1" d="M 357.212,496.242 364.727,533.818 z" id="boundary" inkscape:connector-curvature="0" />
	<path style="fill:none;stroke:red;stroke-width:1px;stroke-linecap:butt;stroke-linejoin:miter;stroke-opacity:1" d="M 191.879,406.061 154.303,421.091 z" id="boundary" inkscape:connector-curvature="0" />
	<path style="fill:none;stroke:red;stroke-width:1px;stroke-linecap:butt;stroke-linejoin:miter;stroke-opacity:1" d="M 199.394,116.727 169.333,146.788 z" id="boundary" inkscape:connector-curvature="0" />
	<path style="fill:none;stroke:red;stroke-width:1px;stroke-linecap:butt;stroke-linejoin:miter;stroke-opacity:1" d="M 267.03,383.515 297.091,360.97 z" id="boundary" inkscape:connector-curvature="0" />
	<path style="fill:none;stroke:red;stroke-width:1px;stroke-linecap:butt;stroke-linejoin:miter;stroke-opacity:1" d="M 229.455,86.6667 199.394,116.727 z" id="boundary" inkscape:connector-curvature="0" />
	<path style="fill:none;stroke:red;stroke-width:1px;stroke-linecap:butt;stroke-linejoin:miter;stroke-opacity:1" d="M 229.455,391.03 191.879,406.061 z" id="boundary" inkscape:connector-curvature="0" />
	<path style="fill:none;stroke:red;stroke-width:1px;stroke-linecap:butt;stroke-linejoin:miter;stroke-opacity:1" d="M 259.515,64.1212 229.455,86.6667 z" id="boundary" inkscape:connector-curvature="0" />
	<path style="fill:none;stroke:red;stroke-width:1px;stroke-linecap:butt;stroke-linejoin:miter;stroke-opacity:1" d="M 357.212,421.091 357.212,458.667 z" id="boundary" inkscape:connector-curvature="0" />
	<path style="fill:none;stroke:red;stroke-width:1px;stroke-linecap:butt;stroke-linejoin:miter;stroke-opacity:1" d="M 293.333,45.3333 259.515,64.1212 z" id="boundary" inkscape:connector-curvature="0" />
	<path style="fill:none;stroke:red;stroke-width:1px;stroke-linecap:butt;stroke-linejoin:miter;stroke-opacity:1" d="M 229.455,391.03 267.03,383.515 z" id="boundary" inkscape:connector-curvature="0" />
	<path style="fill:none;stroke:red;stroke-width:1px;stroke-linecap:butt;stroke-linejoin:miter;stroke-opacity:1" d="M 327.152,26.5455 293.333,45.3333 z" id="boundary" inkscape:connector-curvature="0" />
	<path style="fill:none;stroke:red;stroke-width:1px;stroke-linecap:butt;stroke-linejoin:miter;stroke-opacity:1" d="M 334.667,353.455 357.212,383.515 z" id="boundary" inkscape:connector-curvature="0" />
	<path style="fill:none;stroke:red;stroke-width:1px;stroke-linecap:butt;stroke-linejoin:miter;stroke-opacity:1" d="M 334.667,353.455 297.091,360.97 z" id="boundary" inkscape:connector-curvature="0" />
	<path style="fill:none;stroke:red;stroke-width:1px;stroke-linecap:butt;stroke-linejoin:miter;stroke-opacity:1" d="M 364.727,11.5152 327.152,26.5455 z" id="boundary" inkscape:connector-curvature="0" />
	<path style="fill:none;stroke:red;stroke-width:1px;stroke-linecap:butt;stroke-linejoin:miter;stroke-opacity:1" d="M 357.212,383.515 357.212,421.091 z" id="boundary" inkscape:connector-curvature="0" />
	<path style="fill:none;stroke:red;stroke-width:1px;stroke-linecap:butt;stroke-linejoin:miter;stroke-opacity:1" d="M 357.212,458.667 357.212,496.242 z" id="boundary" inkscape:connector-curvature="0" />
	<path style="fill:none;stroke:red;stroke-width:1px;stroke-linecap:butt;stroke-linejoin:miter;stroke-opacity:1" d="M 402.303,4 364.727,11.5152 z" id="boundary" inkscape:connector-curvature="0" />
	<path style="fill:none;stroke:red;stroke-width:1px;stroke-linecap:butt;stroke-linejoin:miter;stroke-opacity:1" d="M 439.879,4 402.303,4 z" id="boundary" inkscape:connector-curvature="0" />
	<path style="fill:none;stroke:red;stroke-width:1px;stroke-linecap:butt;stroke-linejoin:miter;stroke-opacity:1" d="M 357.212,620.242 357.212,657.818 z" id="boundary" inkscape:connector-curvature="0" />
	<path style="fill:none;stroke:red;stroke-width:1px;stroke-linecap:butt;stroke-linejoin:miter;stroke-opacity:1" d="M 357.212,657.818 364.727,695.394 z" id="boundary" inkscape:connector-curvature="0" />
	<path style="fill:none;stroke:red;stroke-width:1px;stroke-linecap:butt;stroke-linejoin:miter;stroke-opacity:1" d="M 364.727,533.818 364.727,571.394 z" id="boundary" inkscape:connector-curvature="0" />
	<path style="fill:none;stroke:red;stroke-width:1px;stroke-linecap:butt;stroke-linejoin:miter;stroke-opacity:1" d="M 364.727,695.394 372.242,732.97 z" id="boundary" inkscape:connector-curvature="0" />
	<path style="fill:none;stroke:red;stroke-width:1px;stroke-linecap:butt;stroke-linejoin:miter;stroke-opacity:1" d="M 372.242,732.97 372.242,770.545 z" id="boundary" inkscape:connector-curvature="0" />
	<path style="fill:none;stroke:red;stroke-width:1px;stroke-linecap:butt;stroke-linejoin:miter;stroke-opacity:1" d="M 364.727,571.394 357.212,620.242 z" id="boundary" inkscape:connector-curvature="0" />
	<path style="fill:none;stroke:red;stroke-width:1px;stroke-linecap:butt;stroke-linejoin:miter;stroke-opacity:1" d="M 477.455,4 439.879,4 z" id="boundary" inkscape:connector-curvature="0" />
	<path style="fill:none;stroke:red;stroke-width:1px;stroke-linecap:butt;stroke-linejoin:miter;stroke-opacity:1" d="M 436.121,590.182 436.121,627.758 z" id="boundary" inkscape:connector-curvature="0" />
	<path style="fill:none;stroke:red;stroke-width:1px;stroke-linecap:butt;stroke-linejoin:miter;stroke-opacity:1" d="M 372.242,770.545 379.758,808.121 z" id="boundary" inkscape:connector-curvature="0" />
	<path style="fill:none;stroke:red;stroke-width:1px;stroke-linecap:butt;stroke-linejoin:miter;stroke-opacity:1" d="M 436.121,702.909 436.121,665.333 z" id="boundary" inkscape:connector-curvature="0" />
	<path style="fill:none;stroke:red;stroke-width:1px;stroke-linecap:butt;stroke-linejoin:miter;stroke-opacity:1" d="M 436.121,665.333 436.121,627.758 z" id="boundary" inkscape:connector-curvature="0" />
	<path style="fill:none;stroke:red;stroke-width:1px;stroke-linecap:butt;stroke-linejoin:miter;stroke-opacity:1" d="M 387.273,845.697 379.758,808.121 z" id="boundary" inkscape:connector-curvature="0" />
	<path style="fill:none;stroke:red;stroke-width:1px;stroke-linecap:butt;stroke-linejoin:miter;stroke-opacity:1" d="M 394.788,883.273 394.788,920.848 z" id="boundary" inkscape:connector-curvature="0" />
	<path style="fill:none;stroke:red;stroke-width:1px;stroke-linecap:butt;stroke-linejoin:miter;stroke-opacity:1" d="M 394.788,883.273 387.273,845.697 z" id="boundary" inkscape:connector-curvature="0" />
	<path style="fill:none;stroke:red;stroke-width:1px;stroke-linecap:butt;stroke-linejoin:miter;stroke-opacity:1" d="M 436.121,702.909 443.636,740.485 z" id="boundary" inkscape:connector-curvature="0" />
	<path style="fill:none;stroke:red;stroke-width:1px;stroke-linecap:butt;stroke-linejoin:miter;stroke-opacity:1" d="M 406.061,958.424 394.788,920.848 z" id="boundary" inkscape:connector-curvature="0" />
	<path style="fill:none;stroke:red;stroke-width:1px;stroke-linecap:butt;stroke-linejoin:miter;stroke-opacity:1" d="M 458.667,853.212 466.182,890.788 z" id="boundary" inkscape:connector-curvature="0" />
	<path style="fill:none;stroke:red;stroke-width:1px;stroke-linecap:butt;stroke-linejoin:miter;stroke-opacity:1" d="M 443.636,740.485 447.394,778.061 z" id="boundary" inkscape:connector-curvature="0" />
	<path style="fill:none;stroke:red;stroke-width:1px;stroke-linecap:butt;stroke-linejoin:miter;stroke-opacity:1" d="M 436.121,590.182 443.636,552.606 z" id="boundary" inkscape:connector-curvature="0" />
	<path style="fill:none;stroke:red;stroke-width:1px;stroke-linecap:butt;stroke-linejoin:miter;stroke-opacity:1" d="M 451.152,815.636 447.394,778.061 z" id="boundary" inkscape:connector-curvature="0" />
	<path style="fill:none;stroke:red;stroke-width:1px;stroke-linecap:butt;stroke-linejoin:miter;stroke-opacity:1" d="M 473.697,432.364 488.727,379.758 z" id="boundary" inkscape:connector-curvature="0" />
	<path style="fill:none;stroke:red;stroke-width:1px;stroke-linecap:butt;stroke-linejoin:miter;stroke-opacity:1" d="M 654.061,353.455 691.636,360.97 z" id="boundary" inkscape:connector-curvature="0" />
	<path style="fill:none;stroke:red;stroke-width:1px;stroke-linecap:butt;stroke-linejoin:miter;stroke-opacity:1" d="M 488.727,342.182 488.727,379.758 z" id="boundary" inkscape:connector-curvature="0" />
	<path style="fill:none;stroke:red;stroke-width:1px;stroke-linecap:butt;stroke-linejoin:miter;stroke-opacity:1" d="M 443.636,552.606 458.667,492.485 z" id="boundary" inkscape:connector-curvature="0" />
	<path style="fill:none;stroke:red;stroke-width:1px;stroke-linecap:butt;stroke-linejoin:miter;stroke-opacity:1" d="M 443.636,962.182 406.061,958.424 z" id="boundary" inkscape:connector-curvature="0" />
	<path style="fill:none;stroke:red;stroke-width:1px;stroke-linecap:butt;stroke-linejoin:miter;stroke-opacity:1" d="M 451.152,815.636 458.667,853.212 z" id="boundary" inkscape:connector-curvature="0" />
	<path style="fill:none;stroke:red;stroke-width:1px;stroke-linecap:butt;stroke-linejoin:miter;stroke-opacity:1" d="M 496.242,289.576 488.727,342.182 z" id="boundary" inkscape:connector-curvature="0" />
	<path style="fill:none;stroke:red;stroke-width:1px;stroke-linecap:butt;stroke-linejoin:miter;stroke-opacity:1" d="M 496.242,913.333 466.182,890.788 z" id="boundary" inkscape:connector-curvature="0" />
	<path style="fill:none;stroke:red;stroke-width:1px;stroke-linecap:butt;stroke-linejoin:miter;stroke-opacity:1" d="M 458.667,492.485 473.697,432.364 z" id="boundary" inkscape:connector-curvature="0" />
	<path style="fill:none;stroke:red;stroke-width:1px;stroke-linecap:butt;stroke-linejoin:miter;stroke-opacity:1" d="M 612.727,289.576 605.212,252 z" id="boundary" inkscape:connector-curvature="0" />
	<path style="fill:none;stroke:red;stroke-width:1px;stroke-linecap:butt;stroke-linejoin:miter;stroke-opacity:1" d="M 586.424,218.182 605.212,252 z" id="boundary" inkscape:connector-curvature="0" />
	<path style="fill:none;stroke:red;stroke-width:1px;stroke-linecap:butt;stroke-linejoin:miter;stroke-opacity:1" d="M 586.424,218.182 548.848,229.455 z" id="boundary" inkscape:connector-curvature="0" />
	<path style="fill:none;stroke:red;stroke-width:1px;stroke-linecap:butt;stroke-linejoin:miter;stroke-opacity:1" d="M 481.212,962.182 443.636,962.182 z" id="boundary" inkscape:connector-curvature="0" />
	<path style="fill:none;stroke:red;stroke-width:1px;stroke-linecap:butt;stroke-linejoin:miter;stroke-opacity:1" d="M 518.788,259.515 496.242,289.576 z" id="boundary" inkscape:connector-curvature="0" />
	<path style="fill:none;stroke:red;stroke-width:1px;stroke-linecap:butt;stroke-linejoin:miter;stroke-opacity:1" d="M 518.788,962.182 481.212,962.182 z" id="boundary" inkscape:connector-curvature="0" />
	<path style="fill:none;stroke:red;stroke-width:1px;stroke-linecap:butt;stroke-linejoin:miter;stroke-opacity:1" d="M 477.455,4 515.03,11.5152 z" id="boundary" inkscape:connector-curvature="0" />
	<path style="fill:none;stroke:red;stroke-width:1px;stroke-linecap:butt;stroke-linejoin:miter;stroke-opacity:1" d="M 548.848,229.455 518.788,259.515 z" id="boundary" inkscape:connector-curvature="0" />
	<path style="fill:none;stroke:red;stroke-width:1px;stroke-linecap:butt;stroke-linejoin:miter;stroke-opacity:1" d="M 533.818,913.333 496.242,913.333 z" id="boundary" inkscape:connector-curvature="0" />
	<path style="fill:none;stroke:red;stroke-width:1px;stroke-linecap:butt;stroke-linejoin:miter;stroke-opacity:1" d="M 556.364,954.667 518.788,962.182 z" id="boundary" inkscape:connector-curvature="0" />
	<path style="fill:none;stroke:red;stroke-width:1px;stroke-linecap:butt;stroke-linejoin:miter;stroke-opacity:1" d="M 552.606,19.0303 515.03,11.5152 z" id="boundary" inkscape:connector-curvature="0" />
	<path style="fill:none;stroke:red;stroke-width:1px;stroke-linecap:butt;stroke-linejoin:miter;stroke-opacity:1" d="M 575.152,920.848 533.818,913.333 z" id="boundary" inkscape:connector-curvature="0" />
	<path style="fill:none;stroke:red;stroke-width:1px;stroke-linecap:butt;stroke-linejoin:miter;stroke-opacity:1" d="M 590.182,34.0606 552.606,19.0303 z" id="boundary" inkscape:connector-curvature="0" />
	<path style="fill:none;stroke:red;stroke-width:1px;stroke-linecap:butt;stroke-linejoin:miter;stroke-opacity:1" d="M 575.152,920.848 556.364,954.667 z" id="boundary" inkscape:connector-curvature="0" />
	<path style="fill:none;stroke:red;stroke-width:1px;stroke-linecap:butt;stroke-linejoin:miter;stroke-opacity:1" d="M 624,327.152 612.727,289.576 z" id="boundary" inkscape:connector-curvature="0" />
	<path style="fill:none;stroke:red;stroke-width:1px;stroke-linecap:butt;stroke-linejoin:miter;stroke-opacity:1" d="M 958.424,270.788 996,285.818 z" id="boundary" inkscape:connector-curvature="0" />
	<path style="fill:none;stroke:red;stroke-width:1px;stroke-linecap:butt;stroke-linejoin:miter;stroke-opacity:1" d="M 590.182,34.0606 620.242,56.6061 z" id="boundary" inkscape:connector-curvature="0" />
	<path style="fill:none;stroke:red;stroke-width:1px;stroke-linecap:butt;stroke-linejoin:miter;stroke-opacity:1" d="M 654.061,353.455 624,327.152 z" id="boundary" inkscape:connector-curvature="0" />
	<path style="fill:none;stroke:red;stroke-width:1px;stroke-linecap:butt;stroke-linejoin:miter;stroke-opacity:1" d="M 620.242,56.6061 646.545,86.6667 z" id="boundary" inkscape:connector-curvature="0" />
	<path style="fill:none;stroke:red;stroke-width:1px;stroke-linecap:butt;stroke-linejoin:miter;stroke-opacity:1" d="M 665.333,120.485 646.545,86.6667 z" id="boundary" inkscape:connector-curvature="0" />
	<path style="fill:none;stroke:red;stroke-width:1px;stroke-linecap:butt;stroke-linejoin:miter;stroke-opacity:1" d="M 676.606,158.061 665.333,120.485 z" id="boundary" inkscape:connector-curvature="0" />
	<path style="fill:none;stroke:red;stroke-width:1px;stroke-linecap:butt;stroke-linejoin:miter;stroke-opacity:1" d="M 729.212,97.9394 706.667,128 z" id="boundary" inkscape:connector-curvature="0" />
	<path style="fill:none;stroke:red;stroke-width:1px;stroke-linecap:butt;stroke-linejoin:miter;stroke-opacity:1" d="M 774.303,240.727 770.545,203.152 z" id="boundary" inkscape:connector-curvature="0" />
	<path style="fill:none;stroke:red;stroke-width:1px;stroke-linecap:butt;stroke-linejoin:miter;stroke-opacity:1" d="M 729.212,353.455 691.636,360.97 z" id="boundary" inkscape:connector-curvature="0" />
	<path style="fill:none;stroke:red;stroke-width:1px;stroke-linecap:butt;stroke-linejoin:miter;stroke-opacity:1" d="M 729.212,97.9394 763.03,79.1515 z" id="boundary" inkscape:connector-curvature="0" />
	<path style="fill:none;stroke:red;stroke-width:1px;stroke-linecap:butt;stroke-linejoin:miter;stroke-opacity:1" d="M 759.273,327.152 729.212,353.455 z" id="boundary" inkscape:connector-curvature="0" />
	<path style="fill:none;stroke:red;stroke-width:1px;stroke-linecap:butt;stroke-linejoin:miter;stroke-opacity:1" d="M 759.273,327.152 774.303,289.576 z" id="boundary" inkscape:connector-curvature="0" />
	<path style="fill:none;stroke:red;stroke-width:1px;stroke-linecap:butt;stroke-linejoin:miter;stroke-opacity:1" d="M 774.303,289.576 774.303,240.727 z" id="boundary" inkscape:connector-curvature="0" />
	<path style="fill:none;stroke:red;stroke-width:1px;stroke-linecap:butt;stroke-linejoin:miter;stroke-opacity:1" d="M 793.091,173.091 770.545,203.152 z" id="boundary" inkscape:connector-curvature="0" />
	<path style="fill:none;stroke:red;stroke-width:1px;stroke-linecap:butt;stroke-linejoin:miter;stroke-opacity:1" d="M 800.606,71.6364 763.03,79.1515 z" id="boundary" inkscape:connector-curvature="0" />
	<path style="fill:none;stroke:red;stroke-width:1px;stroke-linecap:butt;stroke-linejoin:miter;stroke-opacity:1" d="M 860.727,210.667 898.303,221.939 z" id="boundary" inkscape:connector-curvature="0" />
	<path style="fill:none;stroke:red;stroke-width:1px;stroke-linecap:butt;stroke-linejoin:miter;stroke-opacity:1" d="M 793.091,173.091 826.909,191.879 z" id="boundary" inkscape:connector-curvature="0" />
	<path style="fill:none;stroke:red;stroke-width:1px;stroke-linecap:butt;stroke-linejoin:miter;stroke-opacity:1" d="M 826.909,191.879 860.727,210.667 z" id="boundary" inkscape:connector-curvature="0" />
	<path style="fill:none;stroke:red;stroke-width:1px;stroke-linecap:butt;stroke-linejoin:miter;stroke-opacity:1" d="M 838.182,71.6364 800.606,71.6364 z" id="boundary" inkscape:connector-curvature="0" />
	<path style="fill:none;stroke:red;stroke-width:1px;stroke-linecap:butt;stroke-linejoin:miter;stroke-opacity:1" d="M 898.303,221.939 928.364,244.485 z" id="boundary" inkscape:connector-curvature="0" />
	<path style="fill:none;stroke:red;stroke-width:1px;stroke-linecap:butt;stroke-linejoin:miter;stroke-opacity:1" d="M 875.758,82.9091 838.182,71.6364 z" id="boundary" inkscape:connector-curvature="0" />
	<path style="fill:none;stroke:red;stroke-width:1px;stroke-linecap:butt;stroke-linejoin:miter;stroke-opacity:1" d="M 875.758,82.9091 905.818,105.455 z" id="boundary" inkscape:connector-curvature="0" />
	<path style="fill:none;stroke:red;stroke-width:1px;stroke-linecap:butt;stroke-linejoin:miter;stroke-opacity:1" d="M 928.364,244.485 958.424,270.788 z" id="boundary" inkscape:connector-curvature="0" />
	<path style="fill:none;stroke:red;stroke-width:1px;stroke-linecap:butt;stroke-linejoin:miter;stroke-opacity:1" d="M 905.818,105.455 924.606,139.273 z" id="boundary" inkscape:connector-curvature="0" />
	<path style="fill:none;stroke:red;stroke-width:1px;stroke-linecap:butt;stroke-linejoin:miter;stroke-opacity:1" d="M 924.606,139.273 939.636,176.848 z" id="boundary" inkscape:connector-curvature="0" />
	<path style="fill:none;stroke:red;stroke-width:1px;stroke-linecap:butt;stroke-linejoin:miter;stroke-opacity:1" d="M 988.485,236.97 965.939,206.909 z" id="boundary" inkscape:connector-curvature="0" />
	<path style="fill:none;stroke:red;stroke-width:1px;stroke-linecap:butt;stroke-linejoin:miter;stroke-opacity:1" d="M 965.939,206.909 939.636,176.848 z" id="boundary" inkscape:connector-curvature="0" />
	<circle cx="4" cy="372.242" r="4" fill="#0" id="circle0"/>
	<circle cx="4" cy="409.818" r="4" fill="#0" id="circle1"/>
	<circle cx="19.0303" cy="334.667" r="4" fill="#0" id="circle2"/>
	<circle cx="37.8182" cy="300.848" r="4" fill="#0" id="circle3"/>
	<circle cx="41.5758" cy="421.091" r="4" fill="#0" id="circle4"/>
	<circle cx="56.6061" cy="267.03" r="4" fill="#0" id="circle5"/>
	<circle cx="79.1515" cy="236.97" r="4" fill="#0" id="circle6"/>
	<circle cx="79.1515" cy="406.061" r="4" fill="#0" id="circle7"/>
	<circle cx="109.212" cy="206.909" r="4" fill="#0" id="circle8"/>
	<circle cx="116.727" cy="413.576" r="4" fill="#0" id="circle9"/>
	<circle cx="139.273" cy="176.848" r="4" fill="#0" id="circle10"/>
	<circle cx="154.303" cy="421.091" r="4" fill="#0" id="circle11"/>
	<circle cx="169.333" cy="146.788" r="4" fill="#0" id="circle12"/>
	<circle cx="191.879" cy="406.061" r="4" fill="#0" id="circle13"/>
	<circle cx="199.394" cy="116.727" r="4" fill="#0" id="circle14"/>
	<circle cx="229.455" cy="86.6667" r="4" fill="#0" id="circle15"/>
	<circle cx="229.455" cy="391.03" r="4" fill="#0" id="circle16"/>
	<circle cx="259.515" cy="64.1212" r="4" fill="#0" id="circle17"/>
	<circle cx="267.03" cy="383.515" r="4" fill="#0" id="circle18"/>
	<circle cx="293.333" cy="45.3333" r="4" fill="#0" id="circle19"/>
	<circle cx="297.091" cy="360.97" r="4" fill="#0" id="circle20"/>
	<circle cx="327.152" cy="26.5455" r="4" fill="#0" id="circle21"/>
	<circle cx="334.667" cy="353.455" r="4" fill="#0" id="circle22"/>
	<circle cx="357.212" cy="383.515" r="4" fill="#0" id="circle23"/>
	<circle cx="357.212" cy="421.091" r="4" fill="#0" id="circle24"/>
	<circle cx="357.212" cy="458.667" r="4" fill="#0" id="circle25"/>
	<circle cx="357.212" cy="496.242" r="4" fill="#0" id="circle26"/>
	<circle cx="357.212" cy="620.242" r="4" fill="#0" id="circle27"/>
	<circle cx="357.212" cy="657.818" r="4" fill="#0" id="circle28"/>
	<circle cx="364.727" cy="11.5152" r="4" fill="#0" id="circle29"/>
	<circle cx="364.727" cy="533.818" r="4" fill="#0" id="circle30"/>
	<circle cx="364.727" cy="571.394" r="4" fill="#0" id="circle31"/>
	<circle cx="364.727" cy="695.394" r="4" fill="#0" id="circle32"/>
	<circle cx="372.242" cy="732.97" r="4" fill="#0" id="circle33"/>
	<circle cx="372.242" cy="770.545" r="4" fill="#0" id="circle34"/>
	<circle cx="379.758" cy="808.121" r="4" fill="#0" id="circle35"/>
	<circle cx="387.273" cy="845.697" r="4" fill="#0" id="circle36"/>
	<circle cx="394.788" cy="883.273" r="4" fill="#0" id="circle37"/>
	<circle cx="394.788" cy="920.848" r="4" fill="#0" id="circle38"/>
	<circle cx="402.303" cy="4" r="4" fill="#0" id="circle39"/>
	<circle cx="406.061" cy="958.424" r="4" fill="#0" id="circle40"/>
	<circle cx="436.121" cy="590.182" r="4" fill="#0" id="circle41"/>
	<circle cx="436.121" cy="627.758" r="4" fill="#0" id="circle42"/>
	<circle cx="436.121" cy="665.333" r="4" fill="#0" id="circle43"/>
	<circle cx="436.121" cy="702.909" r="4" fill="#0" id="circle44"/>
	<circle cx="439.879" cy="4" r="4" fill="#0" id="circle45"/>
	<circle cx="443.636" cy="552.606" r="4" fill="#0" id="circle46"/>
	<circle cx="443.636" cy="740.485" r="4" fill="#0" id="circle47"/>
	<circle cx="443.636" cy="962.182" r="4" fill="#0" id="circle48"/>
	<circle cx="447.394" cy="778.061" r="4" fill="#0" id="circle49"/>
	<circle cx="451.152" cy="815.636" r="4" fill="#0" id="circle50"/>
	<circle cx="458.667" cy="492.485" r="4" fill="#0" id="circle51"/>
	<circle cx="458.667" cy="853.212" r="4" fill="#0" id="circle52"/>
	<circle cx="466.182" cy="890.788" r="4" fill="#0" id="circle53"/>
	<circle cx="473.697" cy="432.364" r="4" fill="#0" id="circle54"/>
	<circle cx="477.455" cy="4" r="4" fill="#0" id="circle55"/>
	<circle cx="481.212" cy="962.182" r="4" fill="#0" id="circle56"/>
	<circle cx="488.727" cy="342.182" r="4" fill="#0" id="circle57"/>
	<circle cx="488.727" cy="379.758" r="4" fill="#0" id="circle58"/>
	<circle cx="496.242" cy="289.576" r="4" fill="#0" id="circle59"/>
	<circle cx="496.242" cy="913.333" r="4" fill="#0" id="circle60"/>
	<circle cx="515.03" cy="11.5152" r="4" fill="#0" id="circle61"/>
	<circle cx="518.788" cy="259.515" r="4" fill="#0" id="circle62"/>
	<circle cx="518.788" cy="962.182" r="4" fill="#0" id="circle63"/>
	<circle cx="533.818" cy="913.333" r="4" fill="#0" id="circle64"/>
	<circle cx="548.848" cy="229.455" r="4" fill="#0" id="circle65"/>
	<circle cx="552.606" cy="19.0303" r="4" fill="#0" id="circle66"/>
	<circle cx="556.364" cy="954.667" r="4" fill="#0" id="circle67"/>
	<circle cx="575.152" cy="920.848" r="4" fill="#0" id="circle68"/>
	<circle cx="586.424" cy="218.182" r="4" fill="#0" id="circle69"/>
	<circle cx="590.182" cy="34.0606" r="4" fill="#0" id="circle70"/>
	<circle cx="605.212" cy="252" r="4" fill="#0" id="circle71"/>
	<circle cx="612.727" cy="289.576" r="4" fill="#0" id="circle72"/>
	<circle cx="620.242" cy="56.6061" r="4" fill="#0" id="circle73"/>
	<circle cx="624" cy="327.152" r="4" fill="#0" id="circle74"/>
	<circle cx="646.545" cy="86.6667" r="4" fill="#0" id="circle75"/>
	<circle cx="654.061" cy="353.455" r="4" fill="#0" id="circle76"/>
	<circle cx="665.333" cy="120.485" r="4" fill="#0" id="circle77"/>
	<circle cx="676.606" cy="158.061" r="4" fill="#0" id="circle78"/>
	<circle cx="691.636" cy="360.97" r="4" fill="#0" id="circle79"/>
	<circle cx="706.667" cy="128" r="4" fill="#0" id="circle80"/>
	<circle cx="729.212" cy="97.9394" r="4" fill="#0" id="circle81"/>
	<circle cx="729.212" cy="353.455" r="4" fill="#0" id="circle82"/>
	<circle cx="759.273" cy="327.152" r="4" fill="#0" id="circle83"/>
	<circle cx="763.03" cy="79.1515" r="4" fill="#0" id="circle84"/>
	<circle cx="770.545" cy="203.152" r="4" fill="#0" id="circle85"/>
	<circle cx="774.303" cy="240.727" r="4" fill="#0" id="circle86"/>
	<circle cx="774.303" cy="289.576" r="4" fill="#0" id="circle87"/>
	<circle cx="793.091" cy="173.091" r="4" fill="#0" id="circle88"/>
	<circle cx="800.606" cy="71.6364" r="4" fill="#0" id="circle89"/>
	<circle cx="826.909" cy="191.879" r="4" fill="#0" id="circle90"/>
	<circle cx="838.182" cy="71.6364" r="4" fill="#0" id="circle91"/>
	<circle cx="860.727" cy="210.667" r="4" fill="#0" id="circle92"/>
	<circle cx="875.758" cy="82.9091" r="4" fill="#0" id="circle93"/>
	<circle cx="898.303" cy="221.939" r="4" fill="#0" id="circle94"/>
	<circle cx="905.818" cy="105.455" r="4" fill="#0" id="circle95"/>
	<circle cx="924.606" cy="139.273" r="4" fill="#0" id="circle96"/>
	<circle cx="928.364" cy="244.485" r="4" fill="#0" id="circle97"/>
	<circle cx="939.636" cy="176.848" r="4" fill="#0" id="circle98"/>
	<circle cx="958.424" cy="270.788" r="4" fill="#0" id="circle99"/>
	<circle cx="965.939" cy="206.909" r="4" fill="#0" id="circle100"/>
	<circle cx="988.485" cy="236.97" r="4" fill="#0" id="circle101"/>
	<circle cx="996" cy="285.818" r="4" fill="#0" id="circle102"/>
	</g>
</svg>