<?xml version="1.0" encoding="UTF-8" standalone="no"?>
<!-- Created with CurveBenchmark -->
<svg
	xmlns:dc="http://purl.org/dc/elements/1.1/"
	xmlns:cc="http://creativecommons.org/ns#"
	xmlns:rdf="http://www.w3.org/1999/02/22-rdf-syntax-ns#"
	xmlns:svg="http://www.w3.org/2000/svg"
	xmlns="http://www.w3.org/2000/svg"
	xmlns:sodipodi="http://sodipodi.sourceforge.net/DTD/sodipodi-0.dtd"
	xmlns:inkscape="http://www.inkscape.org/namespaces/inkscape"
	width="1000"
	height="1000"
	id="svg2"
	version="1.1"
	sodipodi:docname="manifold/peel-phantom.png.txt">
<defs
	id="defs4" />
<metadata
	id="metadata7">
	<rdf:RDF>
		<cc:Work
			rdf:about="">
			<dc:format>image/svg+xml</dc:format>
			<dc:type
				rdf:resource="http://purl.org/dc/dcmitype/StillImage" />
			<dc:title></dc:title>
		</cc:Work>
	</rdf:RDF>
</metadata>
<g
	inkscape:label="Layer 1"
	inkscape:groupmode="layer"
	id="layer1">
	<path style="fill:none;stroke:red;stroke-width:1px;stroke-linecap:butt;stroke-linejoin:miter;stroke-opacity:1" d="M 11.873,416.546 4,402.375 z" id="boundary" inkscape:connector-curvature="0" />
	<path style="fill:none;stroke:red;stroke-width:1px;stroke-linecap:butt;stroke-linejoin:miter;stroke-opacity:1" d="M 4,402.375 4,386.629 z" id="boundary" inkscape:connector-curvature="0" />
	<path style="fill:none;stroke:red;stroke-width:1px;stroke-linecap:butt;stroke-linejoin:miter;stroke-opacity:1" d="M 4,386.629 19.746,378.756 z" id="boundary" inkscape:connector-curvature="0" />
	<path style="fill:none;stroke:red;stroke-width:1px;stroke-linecap:butt;stroke-linejoin:miter;stroke-opacity:1" d="M 22.8952,429.143 30.7683,443.314 z" id="boundary" inkscape:connector-curvature="0" />
	<path style="fill:none;stroke:red;stroke-width:1px;stroke-linecap:butt;stroke-linejoin:miter;stroke-opacity:1" d="M 22.8952,429.143 11.873,416.546 z" id="boundary" inkscape:connector-curvature="0" />
	<path style="fill:none;stroke:red;stroke-width:1px;stroke-linecap:butt;stroke-linejoin:miter;stroke-opacity:1" d="M 19.746,378.756 35.4921,381.905 z" id="boundary" inkscape:connector-curvature="0" />
	<path style="fill:none;stroke:red;stroke-width:1px;stroke-linecap:butt;stroke-linejoin:miter;stroke-opacity:1" d="M 30.7683,443.314 37.0667,459.06 z" id="boundary" inkscape:connector-curvature="0" />
	<path style="fill:none;stroke:red;stroke-width:1px;stroke-linecap:butt;stroke-linejoin:miter;stroke-opacity:1" d="M 35.4921,381.905 51.2381,385.054 z" id="boundary" inkscape:connector-curvature="0" />
	<path style="fill:none;stroke:red;stroke-width:1px;stroke-linecap:butt;stroke-linejoin:miter;stroke-opacity:1" d="M 129.968,95.327 129.968,79.581 z" id="boundary" inkscape:connector-curvature="0" />
	<path style="fill:none;stroke:red;stroke-width:1px;stroke-linecap:butt;stroke-linejoin:miter;stroke-opacity:1" d="M 51.2381,385.054 66.9841,389.778 z" id="boundary" inkscape:connector-curvature="0" />
	<path style="fill:none;stroke:red;stroke-width:1px;stroke-linecap:butt;stroke-linejoin:miter;stroke-opacity:1" d="M 49.6635,470.083 55.9619,485.829 z" id="boundary" inkscape:connector-curvature="0" />
	<path style="fill:none;stroke:red;stroke-width:1px;stroke-linecap:butt;stroke-linejoin:miter;stroke-opacity:1" d="M 49.6635,470.083 37.0667,459.06 z" id="boundary" inkscape:connector-curvature="0" />
	<path style="fill:none;stroke:red;stroke-width:1px;stroke-linecap:butt;stroke-linejoin:miter;stroke-opacity:1" d="M 55.9619,485.829 63.8349,500 z" id="boundary" inkscape:connector-curvature="0" />
	<path style="fill:none;stroke:red;stroke-width:1px;stroke-linecap:butt;stroke-linejoin:miter;stroke-opacity:1" d="M 66.9841,389.778 81.1556,397.651 z" id="boundary" inkscape:connector-curvature="0" />
	<path style="fill:none;stroke:red;stroke-width:1px;stroke-linecap:butt;stroke-linejoin:miter;stroke-opacity:1" d="M 96.9016,399.225 81.1556,397.651 z" id="boundary" inkscape:connector-curvature="0" />
	<path style="fill:none;stroke:red;stroke-width:1px;stroke-linecap:butt;stroke-linejoin:miter;stroke-opacity:1" d="M 129.968,95.327 142.565,106.349 z" id="boundary" inkscape:connector-curvature="0" />
	<path style="fill:none;stroke:red;stroke-width:1px;stroke-linecap:butt;stroke-linejoin:miter;stroke-opacity:1" d="M 142.565,106.349 153.587,118.946 z" id="boundary" inkscape:connector-curvature="0" />
	<path style="fill:none;stroke:red;stroke-width:1px;stroke-linecap:butt;stroke-linejoin:miter;stroke-opacity:1" d="M 112.648,405.524 96.9016,399.225 z" id="boundary" inkscape:connector-curvature="0" />
	<path style="fill:none;stroke:red;stroke-width:1px;stroke-linecap:butt;stroke-linejoin:miter;stroke-opacity:1" d="M 134.692,635.416 129.968,619.67 z" id="boundary" inkscape:connector-curvature="0" />
	<path style="fill:none;stroke:red;stroke-width:1px;stroke-linecap:butt;stroke-linejoin:miter;stroke-opacity:1" d="M 129.968,619.67 122.095,605.498 z" id="boundary" inkscape:connector-curvature="0" />
	<path style="fill:none;stroke:red;stroke-width:1px;stroke-linecap:butt;stroke-linejoin:miter;stroke-opacity:1" d="M 63.8349,500 74.8571,512.597 z" id="boundary" inkscape:connector-curvature="0" />
	<path style="fill:none;stroke:red;stroke-width:1px;stroke-linecap:butt;stroke-linejoin:miter;stroke-opacity:1" d="M 74.8571,512.597 66.9841,528.343 z" id="boundary" inkscape:connector-curvature="0" />
	<path style="fill:none;stroke:red;stroke-width:1px;stroke-linecap:butt;stroke-linejoin:miter;stroke-opacity:1" d="M 66.9841,528.343 76.4317,540.94 z" id="boundary" inkscape:connector-curvature="0" />
	<path style="fill:none;stroke:red;stroke-width:1px;stroke-linecap:butt;stroke-linejoin:miter;stroke-opacity:1" d="M 90.6032,548.813 98.4762,562.984 z" id="boundary" inkscape:connector-curvature="0" />
	<path style="fill:none;stroke:red;stroke-width:1px;stroke-linecap:butt;stroke-linejoin:miter;stroke-opacity:1" d="M 90.6032,548.813 76.4317,540.94 z" id="boundary" inkscape:connector-curvature="0" />
	<path style="fill:none;stroke:red;stroke-width:1px;stroke-linecap:butt;stroke-linejoin:miter;stroke-opacity:1" d="M 112.648,405.524 126.819,413.397 z" id="boundary" inkscape:connector-curvature="0" />
	<path style="fill:none;stroke:red;stroke-width:1px;stroke-linecap:butt;stroke-linejoin:miter;stroke-opacity:1" d="M 106.349,577.156 114.222,591.327 z" id="boundary" inkscape:connector-curvature="0" />
	<path style="fill:none;stroke:red;stroke-width:1px;stroke-linecap:butt;stroke-linejoin:miter;stroke-opacity:1" d="M 122.095,605.498 114.222,591.327 z" id="boundary" inkscape:connector-curvature="0" />
	<path style="fill:none;stroke:red;stroke-width:1px;stroke-linecap:butt;stroke-linejoin:miter;stroke-opacity:1" d="M 98.4762,562.984 106.349,577.156 z" id="boundary" inkscape:connector-curvature="0" />
	<path style="fill:none;stroke:red;stroke-width:1px;stroke-linecap:butt;stroke-linejoin:miter;stroke-opacity:1" d="M 126.819,413.397 142.565,413.397 z" id="boundary" inkscape:connector-curvature="0" />
	<path style="fill:none;stroke:red;stroke-width:1px;stroke-linecap:butt;stroke-linejoin:miter;stroke-opacity:1" d="M 142.565,413.397 156.737,421.27 z" id="boundary" inkscape:connector-curvature="0" />
	<path style="fill:none;stroke:red;stroke-width:1px;stroke-linecap:butt;stroke-linejoin:miter;stroke-opacity:1" d="M 177.206,142.565 166.184,129.968 z" id="boundary" inkscape:connector-curvature="0" />
	<path style="fill:none;stroke:red;stroke-width:1px;stroke-linecap:butt;stroke-linejoin:miter;stroke-opacity:1" d="M 166.184,129.968 153.587,118.946 z" id="boundary" inkscape:connector-curvature="0" />
	<path style="fill:none;stroke:red;stroke-width:1px;stroke-linecap:butt;stroke-linejoin:miter;stroke-opacity:1" d="M 137.841,651.162 134.692,635.416 z" id="boundary" inkscape:connector-curvature="0" />
	<path style="fill:none;stroke:red;stroke-width:1px;stroke-linecap:butt;stroke-linejoin:miter;stroke-opacity:1" d="M 186.654,429.143 172.483,421.27 z" id="boundary" inkscape:connector-curvature="0" />
	<path style="fill:none;stroke:red;stroke-width:1px;stroke-linecap:butt;stroke-linejoin:miter;stroke-opacity:1" d="M 172.483,421.27 156.737,421.27 z" id="boundary" inkscape:connector-curvature="0" />
	<path style="fill:none;stroke:red;stroke-width:1px;stroke-linecap:butt;stroke-linejoin:miter;stroke-opacity:1" d="M 129.968,79.581 142.565,66.9841 z" id="boundary" inkscape:connector-curvature="0" />
	<path style="fill:none;stroke:red;stroke-width:1px;stroke-linecap:butt;stroke-linejoin:miter;stroke-opacity:1" d="M 189.803,153.587 196.102,169.333 z" id="boundary" inkscape:connector-curvature="0" />
	<path style="fill:none;stroke:red;stroke-width:1px;stroke-linecap:butt;stroke-linejoin:miter;stroke-opacity:1" d="M 189.803,153.587 177.206,142.565 z" id="boundary" inkscape:connector-curvature="0" />
	<path style="fill:none;stroke:red;stroke-width:1px;stroke-linecap:butt;stroke-linejoin:miter;stroke-opacity:1" d="M 137.841,651.162 147.289,663.759 z" id="boundary" inkscape:connector-curvature="0" />
	<path style="fill:none;stroke:red;stroke-width:1px;stroke-linecap:butt;stroke-linejoin:miter;stroke-opacity:1" d="M 147.289,663.759 163.035,659.035 z" id="boundary" inkscape:connector-curvature="0" />
	<path style="fill:none;stroke:red;stroke-width:1px;stroke-linecap:butt;stroke-linejoin:miter;stroke-opacity:1" d="M 142.565,66.9841 158.311,59.1111 z" id="boundary" inkscape:connector-curvature="0" />
	<path style="fill:none;stroke:red;stroke-width:1px;stroke-linecap:butt;stroke-linejoin:miter;stroke-opacity:1" d="M 444.889,616.521 438.59,600.775 z" id="boundary" inkscape:connector-curvature="0" />
	<path style="fill:none;stroke:red;stroke-width:1px;stroke-linecap:butt;stroke-linejoin:miter;stroke-opacity:1" d="M 158.311,59.1111 172.483,51.2381 z" id="boundary" inkscape:connector-curvature="0" />
	<path style="fill:none;stroke:red;stroke-width:1px;stroke-linecap:butt;stroke-linejoin:miter;stroke-opacity:1" d="M 422.844,537.79 421.27,522.044 z" id="boundary" inkscape:connector-curvature="0" />
	<path style="fill:none;stroke:red;stroke-width:1px;stroke-linecap:butt;stroke-linejoin:miter;stroke-opacity:1" d="M 421.27,522.044 413.397,507.873 z" id="boundary" inkscape:connector-curvature="0" />
	<path style="fill:none;stroke:red;stroke-width:1px;stroke-linecap:butt;stroke-linejoin:miter;stroke-opacity:1" d="M 186.654,43.3651 202.4,48.0889 z" id="boundary" inkscape:connector-curvature="0" />
	<path style="fill:none;stroke:red;stroke-width:1px;stroke-linecap:butt;stroke-linejoin:miter;stroke-opacity:1" d="M 186.654,43.3651 172.483,51.2381 z" id="boundary" inkscape:connector-curvature="0" />
	<path style="fill:none;stroke:red;stroke-width:1px;stroke-linecap:butt;stroke-linejoin:miter;stroke-opacity:1" d="M 186.654,603.924 186.654,588.178 z" id="boundary" inkscape:connector-curvature="0" />
	<path style="fill:none;stroke:red;stroke-width:1px;stroke-linecap:butt;stroke-linejoin:miter;stroke-opacity:1" d="M 178.781,627.543 186.654,603.924 z" id="boundary" inkscape:connector-curvature="0" />
	<path style="fill:none;stroke:red;stroke-width:1px;stroke-linecap:butt;stroke-linejoin:miter;stroke-opacity:1" d="M 163.035,659.035 175.632,648.013 z" id="boundary" inkscape:connector-curvature="0" />
	<path style="fill:none;stroke:red;stroke-width:1px;stroke-linecap:butt;stroke-linejoin:miter;stroke-opacity:1" d="M 208.698,178.781 196.102,169.333 z" id="boundary" inkscape:connector-curvature="0" />
	<path style="fill:none;stroke:red;stroke-width:1px;stroke-linecap:butt;stroke-linejoin:miter;stroke-opacity:1" d="M 202.4,48.0889 218.146,51.2381 z" id="boundary" inkscape:connector-curvature="0" />
	<path style="fill:none;stroke:red;stroke-width:1px;stroke-linecap:butt;stroke-linejoin:miter;stroke-opacity:1" d="M 175.632,648.013 178.781,627.543 z" id="boundary" inkscape:connector-curvature="0" />
	<path style="fill:none;stroke:red;stroke-width:1px;stroke-linecap:butt;stroke-linejoin:miter;stroke-opacity:1" d="M 263.81,462.21 279.556,462.21 z" id="boundary" inkscape:connector-curvature="0" />
	<path style="fill:none;stroke:red;stroke-width:1px;stroke-linecap:butt;stroke-linejoin:miter;stroke-opacity:1" d="M 279.556,462.21 289.003,474.806 z" id="boundary" inkscape:connector-curvature="0" />
	<path style="fill:none;stroke:red;stroke-width:1px;stroke-linecap:butt;stroke-linejoin:miter;stroke-opacity:1" d="M 186.654,588.178 194.527,564.559 z" id="boundary" inkscape:connector-curvature="0" />
	<path style="fill:none;stroke:red;stroke-width:1px;stroke-linecap:butt;stroke-linejoin:miter;stroke-opacity:1" d="M 229.168,202.4 222.87,186.654 z" id="boundary" inkscape:connector-curvature="0" />
	<path style="fill:none;stroke:red;stroke-width:1px;stroke-linecap:butt;stroke-linejoin:miter;stroke-opacity:1" d="M 222.87,186.654 208.698,178.781 z" id="boundary" inkscape:connector-curvature="0" />
	<path style="fill:none;stroke:red;stroke-width:1px;stroke-linecap:butt;stroke-linejoin:miter;stroke-opacity:1" d="M 202.4,540.94 202.4,525.194 z" id="boundary" inkscape:connector-curvature="0" />
	<path style="fill:none;stroke:red;stroke-width:1px;stroke-linecap:butt;stroke-linejoin:miter;stroke-opacity:1" d="M 186.654,429.143 200.825,421.27 z" id="boundary" inkscape:connector-curvature="0" />
	<path style="fill:none;stroke:red;stroke-width:1px;stroke-linecap:butt;stroke-linejoin:miter;stroke-opacity:1" d="M 263.81,462.21 248.063,465.359 z" id="boundary" inkscape:connector-curvature="0" />
	<path style="fill:none;stroke:red;stroke-width:1px;stroke-linecap:butt;stroke-linejoin:miter;stroke-opacity:1" d="M 232.317,470.083 248.063,465.359 z" id="boundary" inkscape:connector-curvature="0" />
	<path style="fill:none;stroke:red;stroke-width:1px;stroke-linecap:butt;stroke-linejoin:miter;stroke-opacity:1" d="M 194.527,564.559 202.4,540.94 z" id="boundary" inkscape:connector-curvature="0" />
	<path style="fill:none;stroke:red;stroke-width:1px;stroke-linecap:butt;stroke-linejoin:miter;stroke-opacity:1" d="M 200.825,421.27 214.997,413.397 z" id="boundary" inkscape:connector-curvature="0" />
	<path style="fill:none;stroke:red;stroke-width:1px;stroke-linecap:butt;stroke-linejoin:miter;stroke-opacity:1" d="M 210.273,493.702 210.273,509.448 z" id="boundary" inkscape:connector-curvature="0" />
	<path style="fill:none;stroke:red;stroke-width:1px;stroke-linecap:butt;stroke-linejoin:miter;stroke-opacity:1" d="M 202.4,525.194 210.273,509.448 z" id="boundary" inkscape:connector-curvature="0" />
	<path style="fill:none;stroke:red;stroke-width:1px;stroke-linecap:butt;stroke-linejoin:miter;stroke-opacity:1" d="M 210.273,493.702 218.146,477.956 z" id="boundary" inkscape:connector-curvature="0" />
	<path style="fill:none;stroke:red;stroke-width:1px;stroke-linecap:butt;stroke-linejoin:miter;stroke-opacity:1" d="M 218.146,477.956 232.317,470.083 z" id="boundary" inkscape:connector-curvature="0" />
	<path style="fill:none;stroke:red;stroke-width:1px;stroke-linecap:butt;stroke-linejoin:miter;stroke-opacity:1" d="M 218.146,51.2381 233.892,51.2381 z" id="boundary" inkscape:connector-curvature="0" />
	<path style="fill:none;stroke:red;stroke-width:1px;stroke-linecap:butt;stroke-linejoin:miter;stroke-opacity:1" d="M 226.019,400.8 214.997,413.397 z" id="boundary" inkscape:connector-curvature="0" />
	<path style="fill:none;stroke:red;stroke-width:1px;stroke-linecap:butt;stroke-linejoin:miter;stroke-opacity:1" d="M 226.019,400.8 232.317,378.756 z" id="boundary" inkscape:connector-curvature="0" />
	<path style="fill:none;stroke:red;stroke-width:1px;stroke-linecap:butt;stroke-linejoin:miter;stroke-opacity:1" d="M 249.638,51.2381 265.384,55.9619 z" id="boundary" inkscape:connector-curvature="0" />
	<path style="fill:none;stroke:red;stroke-width:1px;stroke-linecap:butt;stroke-linejoin:miter;stroke-opacity:1" d="M 249.638,51.2381 233.892,51.2381 z" id="boundary" inkscape:connector-curvature="0" />
	<path style="fill:none;stroke:red;stroke-width:1px;stroke-linecap:butt;stroke-linejoin:miter;stroke-opacity:1" d="M 232.317,378.756 232.317,363.01 z" id="boundary" inkscape:connector-curvature="0" />
	<path style="fill:none;stroke:red;stroke-width:1px;stroke-linecap:butt;stroke-linejoin:miter;stroke-opacity:1" d="M 241.765,213.422 229.168,202.4 z" id="boundary" inkscape:connector-curvature="0" />
	<path style="fill:none;stroke:red;stroke-width:1px;stroke-linecap:butt;stroke-linejoin:miter;stroke-opacity:1" d="M 252.787,226.019 241.765,213.422 z" id="boundary" inkscape:connector-curvature="0" />
	<path style="fill:none;stroke:red;stroke-width:1px;stroke-linecap:butt;stroke-linejoin:miter;stroke-opacity:1" d="M 232.317,363.01 248.063,355.137 z" id="boundary" inkscape:connector-curvature="0" />
	<path style="fill:none;stroke:red;stroke-width:1px;stroke-linecap:butt;stroke-linejoin:miter;stroke-opacity:1" d="M 281.13,59.1111 265.384,55.9619 z" id="boundary" inkscape:connector-curvature="0" />
	<path style="fill:none;stroke:red;stroke-width:1px;stroke-linecap:butt;stroke-linejoin:miter;stroke-opacity:1" d="M 263.81,238.616 271.683,252.787 z" id="boundary" inkscape:connector-curvature="0" />
	<path style="fill:none;stroke:red;stroke-width:1px;stroke-linecap:butt;stroke-linejoin:miter;stroke-opacity:1" d="M 263.81,238.616 252.787,226.019 z" id="boundary" inkscape:connector-curvature="0" />
	<path style="fill:none;stroke:red;stroke-width:1px;stroke-linecap:butt;stroke-linejoin:miter;stroke-opacity:1" d="M 248.063,355.137 260.66,342.54 z" id="boundary" inkscape:connector-curvature="0" />
	<path style="fill:none;stroke:red;stroke-width:1px;stroke-linecap:butt;stroke-linejoin:miter;stroke-opacity:1" d="M 281.13,59.1111 296.876,59.1111 z" id="boundary" inkscape:connector-curvature="0" />
	<path style="fill:none;stroke:red;stroke-width:1px;stroke-linecap:butt;stroke-linejoin:miter;stroke-opacity:1" d="M 296.876,59.1111 312.622,59.1111 z" id="boundary" inkscape:connector-curvature="0" />
	<path style="fill:none;stroke:red;stroke-width:1px;stroke-linecap:butt;stroke-linejoin:miter;stroke-opacity:1" d="M 312.622,59.1111 328.368,63.8349 z" id="boundary" inkscape:connector-curvature="0" />
	<path style="fill:none;stroke:red;stroke-width:1px;stroke-linecap:butt;stroke-linejoin:miter;stroke-opacity:1" d="M 260.66,342.54 273.257,329.943 z" id="boundary" inkscape:connector-curvature="0" />
	<path style="fill:none;stroke:red;stroke-width:1px;stroke-linecap:butt;stroke-linejoin:miter;stroke-opacity:1" d="M 284.279,263.81 271.683,252.787 z" id="boundary" inkscape:connector-curvature="0" />
	<path style="fill:none;stroke:red;stroke-width:1px;stroke-linecap:butt;stroke-linejoin:miter;stroke-opacity:1" d="M 273.257,329.943 285.854,318.921 z" id="boundary" inkscape:connector-curvature="0" />
	<path style="fill:none;stroke:red;stroke-width:1px;stroke-linecap:butt;stroke-linejoin:miter;stroke-opacity:1" d="M 289.003,474.806 304.749,470.083 z" id="boundary" inkscape:connector-curvature="0" />
	<path style="fill:none;stroke:red;stroke-width:1px;stroke-linecap:butt;stroke-linejoin:miter;stroke-opacity:1" d="M 344.114,66.9841 328.368,63.8349 z" id="boundary" inkscape:connector-curvature="0" />
	<path style="fill:none;stroke:red;stroke-width:1px;stroke-linecap:butt;stroke-linejoin:miter;stroke-opacity:1" d="M 295.302,292.152 295.302,276.406 z" id="boundary" inkscape:connector-curvature="0" />
	<path style="fill:none;stroke:red;stroke-width:1px;stroke-linecap:butt;stroke-linejoin:miter;stroke-opacity:1" d="M 295.302,276.406 284.279,263.81 z" id="boundary" inkscape:connector-curvature="0" />
	<path style="fill:none;stroke:red;stroke-width:1px;stroke-linecap:butt;stroke-linejoin:miter;stroke-opacity:1" d="M 285.854,318.921 295.302,292.152 z" id="boundary" inkscape:connector-curvature="0" />
	<path style="fill:none;stroke:red;stroke-width:1px;stroke-linecap:butt;stroke-linejoin:miter;stroke-opacity:1" d="M 304.749,470.083 320.495,462.21 z" id="boundary" inkscape:connector-curvature="0" />
	<path style="fill:none;stroke:red;stroke-width:1px;stroke-linecap:butt;stroke-linejoin:miter;stroke-opacity:1" d="M 320.495,462.21 336.241,462.21 z" id="boundary" inkscape:connector-curvature="0" />
	<path style="fill:none;stroke:red;stroke-width:1px;stroke-linecap:butt;stroke-linejoin:miter;stroke-opacity:1" d="M 344.114,66.9841 359.86,66.9841 z" id="boundary" inkscape:connector-curvature="0" />
	<path style="fill:none;stroke:red;stroke-width:1px;stroke-linecap:butt;stroke-linejoin:miter;stroke-opacity:1" d="M 359.86,66.9841 367.733,81.1556 z" id="boundary" inkscape:connector-curvature="0" />
	<path style="fill:none;stroke:red;stroke-width:1px;stroke-linecap:butt;stroke-linejoin:miter;stroke-opacity:1" d="M 383.479,454.337 367.733,454.337 z" id="boundary" inkscape:connector-curvature="0" />
	<path style="fill:none;stroke:red;stroke-width:1px;stroke-linecap:butt;stroke-linejoin:miter;stroke-opacity:1" d="M 336.241,462.21 351.987,454.337 z" id="boundary" inkscape:connector-curvature="0" />
	<path style="fill:none;stroke:red;stroke-width:1px;stroke-linecap:butt;stroke-linejoin:miter;stroke-opacity:1" d="M 351.987,454.337 367.733,454.337 z" id="boundary" inkscape:connector-curvature="0" />
	<path style="fill:none;stroke:red;stroke-width:1px;stroke-linecap:butt;stroke-linejoin:miter;stroke-opacity:1" d="M 397.651,462.21 405.524,476.381 z" id="boundary" inkscape:connector-curvature="0" />
	<path style="fill:none;stroke:red;stroke-width:1px;stroke-linecap:butt;stroke-linejoin:miter;stroke-opacity:1" d="M 397.651,462.21 383.479,454.337 z" id="boundary" inkscape:connector-curvature="0" />
	<path style="fill:none;stroke:red;stroke-width:1px;stroke-linecap:butt;stroke-linejoin:miter;stroke-opacity:1" d="M 405.524,476.381 408.673,492.127 z" id="boundary" inkscape:connector-curvature="0" />
	<path style="fill:none;stroke:red;stroke-width:1px;stroke-linecap:butt;stroke-linejoin:miter;stroke-opacity:1" d="M 383.479,82.7302 397.651,90.6032 z" id="boundary" inkscape:connector-curvature="0" />
	<path style="fill:none;stroke:red;stroke-width:1px;stroke-linecap:butt;stroke-linejoin:miter;stroke-opacity:1" d="M 383.479,82.7302 367.733,81.1556 z" id="boundary" inkscape:connector-curvature="0" />
	<path style="fill:none;stroke:red;stroke-width:1px;stroke-linecap:butt;stroke-linejoin:miter;stroke-opacity:1" d="M 408.673,492.127 413.397,507.873 z" id="boundary" inkscape:connector-curvature="0" />
	<path style="fill:none;stroke:red;stroke-width:1px;stroke-linecap:butt;stroke-linejoin:miter;stroke-opacity:1" d="M 397.651,90.6032 413.397,90.6032 z" id="boundary" inkscape:connector-curvature="0" />
	<path style="fill:none;stroke:red;stroke-width:1px;stroke-linecap:butt;stroke-linejoin:miter;stroke-opacity:1" d="M 437.016,585.029 438.59,600.775 z" id="boundary" inkscape:connector-curvature="0" />
	<path style="fill:none;stroke:red;stroke-width:1px;stroke-linecap:butt;stroke-linejoin:miter;stroke-opacity:1" d="M 437.016,585.029 430.717,569.283 z" id="boundary" inkscape:connector-curvature="0" />
	<path style="fill:none;stroke:red;stroke-width:1px;stroke-linecap:butt;stroke-linejoin:miter;stroke-opacity:1" d="M 485.829,92.1778 493.702,106.349 z" id="boundary" inkscape:connector-curvature="0" />
	<path style="fill:none;stroke:red;stroke-width:1px;stroke-linecap:butt;stroke-linejoin:miter;stroke-opacity:1" d="M 430.717,569.283 429.143,553.537 z" id="boundary" inkscape:connector-curvature="0" />
	<path style="fill:none;stroke:red;stroke-width:1px;stroke-linecap:butt;stroke-linejoin:miter;stroke-opacity:1" d="M 429.143,553.537 422.844,537.79 z" id="boundary" inkscape:connector-curvature="0" />
	<path style="fill:none;stroke:red;stroke-width:1px;stroke-linecap:butt;stroke-linejoin:miter;stroke-opacity:1" d="M 413.397,90.6032 429.143,87.454 z" id="boundary" inkscape:connector-curvature="0" />
	<path style="fill:none;stroke:red;stroke-width:1px;stroke-linecap:butt;stroke-linejoin:miter;stroke-opacity:1" d="M 441.74,74.8571 457.486,66.9841 z" id="boundary" inkscape:connector-curvature="0" />
	<path style="fill:none;stroke:red;stroke-width:1px;stroke-linecap:butt;stroke-linejoin:miter;stroke-opacity:1" d="M 473.232,59.1111 457.486,66.9841 z" id="boundary" inkscape:connector-curvature="0" />
	<path style="fill:none;stroke:red;stroke-width:1px;stroke-linecap:butt;stroke-linejoin:miter;stroke-opacity:1" d="M 429.143,87.454 441.74,74.8571 z" id="boundary" inkscape:connector-curvature="0" />
	<path style="fill:none;stroke:red;stroke-width:1px;stroke-linecap:butt;stroke-linejoin:miter;stroke-opacity:1" d="M 468.508,690.527 473.232,706.273 z" id="boundary" inkscape:connector-curvature="0" />
	<path style="fill:none;stroke:red;stroke-width:1px;stroke-linecap:butt;stroke-linejoin:miter;stroke-opacity:1" d="M 468.508,690.527 460.635,676.356 z" id="boundary" inkscape:connector-curvature="0" />
	<path style="fill:none;stroke:red;stroke-width:1px;stroke-linecap:butt;stroke-linejoin:miter;stroke-opacity:1" d="M 452.762,630.692 452.762,646.438 z" id="boundary" inkscape:connector-curvature="0" />
	<path style="fill:none;stroke:red;stroke-width:1px;stroke-linecap:butt;stroke-linejoin:miter;stroke-opacity:1" d="M 452.762,630.692 444.889,616.521 z" id="boundary" inkscape:connector-curvature="0" />
	<path style="fill:none;stroke:red;stroke-width:1px;stroke-linecap:butt;stroke-linejoin:miter;stroke-opacity:1" d="M 460.635,660.61 460.635,676.356 z" id="boundary" inkscape:connector-curvature="0" />
	<path style="fill:none;stroke:red;stroke-width:1px;stroke-linecap:butt;stroke-linejoin:miter;stroke-opacity:1" d="M 460.635,660.61 452.762,646.438 z" id="boundary" inkscape:connector-curvature="0" />
	<path style="fill:none;stroke:red;stroke-width:1px;stroke-linecap:butt;stroke-linejoin:miter;stroke-opacity:1" d="M 525.194,106.349 540.94,111.073 z" id="boundary" inkscape:connector-curvature="0" />
	<path style="fill:none;stroke:red;stroke-width:1px;stroke-linecap:butt;stroke-linejoin:miter;stroke-opacity:1" d="M 525.194,106.349 509.448,106.349 z" id="boundary" inkscape:connector-curvature="0" />
	<path style="fill:none;stroke:red;stroke-width:1px;stroke-linecap:butt;stroke-linejoin:miter;stroke-opacity:1" d="M 509.448,106.349 493.702,106.349 z" id="boundary" inkscape:connector-curvature="0" />
	<path style="fill:none;stroke:red;stroke-width:1px;stroke-linecap:butt;stroke-linejoin:miter;stroke-opacity:1" d="M 473.232,59.1111 488.978,51.2381 z" id="boundary" inkscape:connector-curvature="0" />
	<path style="fill:none;stroke:red;stroke-width:1px;stroke-linecap:butt;stroke-linejoin:miter;stroke-opacity:1" d="M 485.829,92.1778 501.575,84.3048 z" id="boundary" inkscape:connector-curvature="0" />
	<path style="fill:none;stroke:red;stroke-width:1px;stroke-linecap:butt;stroke-linejoin:miter;stroke-opacity:1" d="M 473.232,706.273 488.978,706.273 z" id="boundary" inkscape:connector-curvature="0" />
	<path style="fill:none;stroke:red;stroke-width:1px;stroke-linecap:butt;stroke-linejoin:miter;stroke-opacity:1" d="M 488.978,706.273 503.149,698.4 z" id="boundary" inkscape:connector-curvature="0" />
	<path style="fill:none;stroke:red;stroke-width:1px;stroke-linecap:butt;stroke-linejoin:miter;stroke-opacity:1" d="M 501.575,84.3048 515.746,76.4317 z" id="boundary" inkscape:connector-curvature="0" />
	<path style="fill:none;stroke:red;stroke-width:1px;stroke-linecap:butt;stroke-linejoin:miter;stroke-opacity:1" d="M 488.978,51.2381 504.724,43.3651 z" id="boundary" inkscape:connector-curvature="0" />
	<path style="fill:none;stroke:red;stroke-width:1px;stroke-linecap:butt;stroke-linejoin:miter;stroke-opacity:1" d="M 572.432,118.946 556.686,114.222 z" id="boundary" inkscape:connector-curvature="0" />
	<path style="fill:none;stroke:red;stroke-width:1px;stroke-linecap:butt;stroke-linejoin:miter;stroke-opacity:1" d="M 503.149,698.4 517.321,690.527 z" id="boundary" inkscape:connector-curvature="0" />
	<path style="fill:none;stroke:red;stroke-width:1px;stroke-linecap:butt;stroke-linejoin:miter;stroke-opacity:1" d="M 515.746,76.4317 528.343,66.9841 z" id="boundary" inkscape:connector-curvature="0" />
	<path style="fill:none;stroke:red;stroke-width:1px;stroke-linecap:butt;stroke-linejoin:miter;stroke-opacity:1" d="M 504.724,43.3651 520.47,43.3651 z" id="boundary" inkscape:connector-curvature="0" />
	<path style="fill:none;stroke:red;stroke-width:1px;stroke-linecap:butt;stroke-linejoin:miter;stroke-opacity:1" d="M 540.94,111.073 556.686,114.222 z" id="boundary" inkscape:connector-curvature="0" />
	<path style="fill:none;stroke:red;stroke-width:1px;stroke-linecap:butt;stroke-linejoin:miter;stroke-opacity:1" d="M 517.321,690.527 531.492,682.654 z" id="boundary" inkscape:connector-curvature="0" />
	<path style="fill:none;stroke:red;stroke-width:1px;stroke-linecap:butt;stroke-linejoin:miter;stroke-opacity:1" d="M 520.47,43.3651 534.641,35.4921 z" id="boundary" inkscape:connector-curvature="0" />
	<path style="fill:none;stroke:red;stroke-width:1px;stroke-linecap:butt;stroke-linejoin:miter;stroke-opacity:1" d="M 534.641,35.4921 548.813,27.619 z" id="boundary" inkscape:connector-curvature="0" />
	<path style="fill:none;stroke:red;stroke-width:1px;stroke-linecap:butt;stroke-linejoin:miter;stroke-opacity:1" d="M 553.537,43.3651 540.94,52.8127 z" id="boundary" inkscape:connector-curvature="0" />
	<path style="fill:none;stroke:red;stroke-width:1px;stroke-linecap:butt;stroke-linejoin:miter;stroke-opacity:1" d="M 553.537,43.3651 548.813,27.619 z" id="boundary" inkscape:connector-curvature="0" />
	<path style="fill:none;stroke:red;stroke-width:1px;stroke-linecap:butt;stroke-linejoin:miter;stroke-opacity:1" d="M 531.492,682.654 544.089,673.206 z" id="boundary" inkscape:connector-curvature="0" />
	<path style="fill:none;stroke:red;stroke-width:1px;stroke-linecap:butt;stroke-linejoin:miter;stroke-opacity:1" d="M 544.089,673.206 551.962,657.46 z" id="boundary" inkscape:connector-curvature="0" />
	<path style="fill:none;stroke:red;stroke-width:1px;stroke-linecap:butt;stroke-linejoin:miter;stroke-opacity:1" d="M 611.797,501.575 611.797,517.321 z" id="boundary" inkscape:connector-curvature="0" />
	<path style="fill:none;stroke:red;stroke-width:1px;stroke-linecap:butt;stroke-linejoin:miter;stroke-opacity:1" d="M 588.178,117.371 603.924,118.946 z" id="boundary" inkscape:connector-curvature="0" />
	<path style="fill:none;stroke:red;stroke-width:1px;stroke-linecap:butt;stroke-linejoin:miter;stroke-opacity:1" d="M 588.178,117.371 572.432,118.946 z" id="boundary" inkscape:connector-curvature="0" />
	<path style="fill:none;stroke:red;stroke-width:1px;stroke-linecap:butt;stroke-linejoin:miter;stroke-opacity:1" d="M 551.962,657.46 559.835,641.714 z" id="boundary" inkscape:connector-curvature="0" />
	<path style="fill:none;stroke:red;stroke-width:1px;stroke-linecap:butt;stroke-linejoin:miter;stroke-opacity:1" d="M 564.559,619.67 572.432,603.924 z" id="boundary" inkscape:connector-curvature="0" />
	<path style="fill:none;stroke:red;stroke-width:1px;stroke-linecap:butt;stroke-linejoin:miter;stroke-opacity:1" d="M 564.559,619.67 559.835,641.714 z" id="boundary" inkscape:connector-curvature="0" />
	<path style="fill:none;stroke:red;stroke-width:1px;stroke-linecap:butt;stroke-linejoin:miter;stroke-opacity:1" d="M 596.051,548.813 603.924,533.067 z" id="boundary" inkscape:connector-curvature="0" />
	<path style="fill:none;stroke:red;stroke-width:1px;stroke-linecap:butt;stroke-linejoin:miter;stroke-opacity:1" d="M 588.178,564.559 596.051,548.813 z" id="boundary" inkscape:connector-curvature="0" />
	<path style="fill:none;stroke:red;stroke-width:1px;stroke-linecap:butt;stroke-linejoin:miter;stroke-opacity:1" d="M 588.178,564.559 580.305,588.178 z" id="boundary" inkscape:connector-curvature="0" />
	<path style="fill:none;stroke:red;stroke-width:1px;stroke-linecap:butt;stroke-linejoin:miter;stroke-opacity:1" d="M 572.432,603.924 580.305,588.178 z" id="boundary" inkscape:connector-curvature="0" />
	<path style="fill:none;stroke:red;stroke-width:1px;stroke-linecap:butt;stroke-linejoin:miter;stroke-opacity:1" d="M 671.632,422.844 685.803,413.397 z" id="boundary" inkscape:connector-curvature="0" />
	<path style="fill:none;stroke:red;stroke-width:1px;stroke-linecap:butt;stroke-linejoin:miter;stroke-opacity:1" d="M 685.803,413.397 701.549,405.524 z" id="boundary" inkscape:connector-curvature="0" />
	<path style="fill:none;stroke:red;stroke-width:1px;stroke-linecap:butt;stroke-linejoin:miter;stroke-opacity:1" d="M 619.67,122.095 603.924,118.946 z" id="boundary" inkscape:connector-curvature="0" />
	<path style="fill:none;stroke:red;stroke-width:1px;stroke-linecap:butt;stroke-linejoin:miter;stroke-opacity:1" d="M 657.46,430.717 671.632,422.844 z" id="boundary" inkscape:connector-curvature="0" />
	<path style="fill:none;stroke:red;stroke-width:1px;stroke-linecap:butt;stroke-linejoin:miter;stroke-opacity:1" d="M 611.797,501.575 611.797,485.829 z" id="boundary" inkscape:connector-curvature="0" />
	<path style="fill:none;stroke:red;stroke-width:1px;stroke-linecap:butt;stroke-linejoin:miter;stroke-opacity:1" d="M 643.289,438.59 657.46,430.717 z" id="boundary" inkscape:connector-curvature="0" />
	<path style="fill:none;stroke:red;stroke-width:1px;stroke-linecap:butt;stroke-linejoin:miter;stroke-opacity:1" d="M 611.797,485.829 619.67,462.21 z" id="boundary" inkscape:connector-curvature="0" />
	<path style="fill:none;stroke:red;stroke-width:1px;stroke-linecap:butt;stroke-linejoin:miter;stroke-opacity:1" d="M 611.797,517.321 603.924,533.067 z" id="boundary" inkscape:connector-curvature="0" />
	<path style="fill:none;stroke:red;stroke-width:1px;stroke-linecap:butt;stroke-linejoin:miter;stroke-opacity:1" d="M 643.289,438.59 627.543,446.463 z" id="boundary" inkscape:connector-curvature="0" />
	<path style="fill:none;stroke:red;stroke-width:1px;stroke-linecap:butt;stroke-linejoin:miter;stroke-opacity:1" d="M 627.543,446.463 619.67,462.21 z" id="boundary" inkscape:connector-curvature="0" />
	<path style="fill:none;stroke:red;stroke-width:1px;stroke-linecap:butt;stroke-linejoin:miter;stroke-opacity:1" d="M 619.67,122.095 635.416,117.371 z" id="boundary" inkscape:connector-curvature="0" />
	<path style="fill:none;stroke:red;stroke-width:1px;stroke-linecap:butt;stroke-linejoin:miter;stroke-opacity:1" d="M 635.416,117.371 648.013,106.349 z" id="boundary" inkscape:connector-curvature="0" />
	<path style="fill:none;stroke:red;stroke-width:1px;stroke-linecap:butt;stroke-linejoin:miter;stroke-opacity:1" d="M 648.013,106.349 662.184,98.4762 z" id="boundary" inkscape:connector-curvature="0" />
	<path style="fill:none;stroke:red;stroke-width:1px;stroke-linecap:butt;stroke-linejoin:miter;stroke-opacity:1" d="M 714.146,391.352 729.892,383.479 z" id="boundary" inkscape:connector-curvature="0" />
	<path style="fill:none;stroke:red;stroke-width:1px;stroke-linecap:butt;stroke-linejoin:miter;stroke-opacity:1" d="M 714.146,391.352 701.549,405.524 z" id="boundary" inkscape:connector-curvature="0" />
	<path style="fill:none;stroke:red;stroke-width:1px;stroke-linecap:butt;stroke-linejoin:miter;stroke-opacity:1" d="M 659.035,375.606 674.781,374.032 z" id="boundary" inkscape:connector-curvature="0" />
	<path style="fill:none;stroke:red;stroke-width:1px;stroke-linecap:butt;stroke-linejoin:miter;stroke-opacity:1" d="M 729.892,383.479 742.489,374.032 z" id="boundary" inkscape:connector-curvature="0" />
	<path style="fill:none;stroke:red;stroke-width:1px;stroke-linecap:butt;stroke-linejoin:miter;stroke-opacity:1" d="M 674.781,374.032 690.527,369.308 z" id="boundary" inkscape:connector-curvature="0" />
	<path style="fill:none;stroke:red;stroke-width:1px;stroke-linecap:butt;stroke-linejoin:miter;stroke-opacity:1" d="M 666.908,351.987 674.781,336.241 z" id="boundary" inkscape:connector-curvature="0" />
	<path style="fill:none;stroke:red;stroke-width:1px;stroke-linecap:butt;stroke-linejoin:miter;stroke-opacity:1" d="M 662.184,98.4762 677.93,90.6032 z" id="boundary" inkscape:connector-curvature="0" />
	<path style="fill:none;stroke:red;stroke-width:1px;stroke-linecap:butt;stroke-linejoin:miter;stroke-opacity:1" d="M 674.781,336.241 682.654,312.622 z" id="boundary" inkscape:connector-curvature="0" />
	<path style="fill:none;stroke:red;stroke-width:1px;stroke-linecap:butt;stroke-linejoin:miter;stroke-opacity:1" d="M 682.654,312.622 690.527,289.003 z" id="boundary" inkscape:connector-curvature="0" />
	<path style="fill:none;stroke:red;stroke-width:1px;stroke-linecap:butt;stroke-linejoin:miter;stroke-opacity:1" d="M 677.93,90.6032 692.102,82.7302 z" id="boundary" inkscape:connector-curvature="0" />
	<path style="fill:none;stroke:red;stroke-width:1px;stroke-linecap:butt;stroke-linejoin:miter;stroke-opacity:1" d="M 692.102,82.7302 707.848,82.7302 z" id="boundary" inkscape:connector-curvature="0" />
	<path style="fill:none;stroke:red;stroke-width:1px;stroke-linecap:butt;stroke-linejoin:miter;stroke-opacity:1" d="M 690.527,289.003 698.4,273.257 z" id="boundary" inkscape:connector-curvature="0" />
	<path style="fill:none;stroke:red;stroke-width:1px;stroke-linecap:butt;stroke-linejoin:miter;stroke-opacity:1" d="M 698.4,273.257 710.997,262.235 z" id="boundary" inkscape:connector-curvature="0" />
	<path style="fill:none;stroke:red;stroke-width:1px;stroke-linecap:butt;stroke-linejoin:miter;stroke-opacity:1" d="M 690.527,369.308 706.273,366.159 z" id="boundary" inkscape:connector-curvature="0" />
	<path style="fill:none;stroke:red;stroke-width:1px;stroke-linecap:butt;stroke-linejoin:miter;stroke-opacity:1" d="M 722.019,90.6032 707.848,82.7302 z" id="boundary" inkscape:connector-curvature="0" />
	<path style="fill:none;stroke:red;stroke-width:1px;stroke-linecap:butt;stroke-linejoin:miter;stroke-opacity:1" d="M 736.19,358.286 742.489,374.032 z" id="boundary" inkscape:connector-curvature="0" />
	<path style="fill:none;stroke:red;stroke-width:1px;stroke-linecap:butt;stroke-linejoin:miter;stroke-opacity:1" d="M 706.273,366.159 720.444,358.286 z" id="boundary" inkscape:connector-curvature="0" />
	<path style="fill:none;stroke:red;stroke-width:1px;stroke-linecap:butt;stroke-linejoin:miter;stroke-opacity:1" d="M 710.997,262.235 726.743,254.362 z" id="boundary" inkscape:connector-curvature="0" />
	<path style="fill:none;stroke:red;stroke-width:1px;stroke-linecap:butt;stroke-linejoin:miter;stroke-opacity:1" d="M 720.444,358.286 736.19,358.286 z" id="boundary" inkscape:connector-curvature="0" />
	<path style="fill:none;stroke:red;stroke-width:1px;stroke-linecap:butt;stroke-linejoin:miter;stroke-opacity:1" d="M 737.765,85.8794 722.019,90.6032 z" id="boundary" inkscape:connector-curvature="0" />
	<path style="fill:none;stroke:red;stroke-width:1px;stroke-linecap:butt;stroke-linejoin:miter;stroke-opacity:1" d="M 726.743,254.362 742.489,246.489 z" id="boundary" inkscape:connector-curvature="0" />
	<path style="fill:none;stroke:red;stroke-width:1px;stroke-linecap:butt;stroke-linejoin:miter;stroke-opacity:1" d="M 737.765,85.8794 753.511,78.0063 z" id="boundary" inkscape:connector-curvature="0" />
	<path style="fill:none;stroke:red;stroke-width:1px;stroke-linecap:butt;stroke-linejoin:miter;stroke-opacity:1" d="M 753.511,78.0063 762.959,90.6032 z" id="boundary" inkscape:connector-curvature="0" />
	<path style="fill:none;stroke:red;stroke-width:1px;stroke-linecap:butt;stroke-linejoin:miter;stroke-opacity:1" d="M 742.489,246.489 758.235,238.616 z" id="boundary" inkscape:connector-curvature="0" />
	<path style="fill:none;stroke:red;stroke-width:1px;stroke-linecap:butt;stroke-linejoin:miter;stroke-opacity:1" d="M 811.771,177.206 824.368,163.035 z" id="boundary" inkscape:connector-curvature="0" />
	<path style="fill:none;stroke:red;stroke-width:1px;stroke-linecap:butt;stroke-linejoin:miter;stroke-opacity:1" d="M 758.235,238.616 773.981,230.743 z" id="boundary" inkscape:connector-curvature="0" />
	<path style="fill:none;stroke:red;stroke-width:1px;stroke-linecap:butt;stroke-linejoin:miter;stroke-opacity:1" d="M 773.981,230.743 788.152,210.273 z" id="boundary" inkscape:connector-curvature="0" />
	<path style="fill:none;stroke:red;stroke-width:1px;stroke-linecap:butt;stroke-linejoin:miter;stroke-opacity:1" d="M 788.152,210.273 785.003,194.527 z" id="boundary" inkscape:connector-curvature="0" />
	<path style="fill:none;stroke:red;stroke-width:1px;stroke-linecap:butt;stroke-linejoin:miter;stroke-opacity:1" d="M 799.175,186.654 811.771,177.206 z" id="boundary" inkscape:connector-curvature="0" />
	<path style="fill:none;stroke:red;stroke-width:1px;stroke-linecap:butt;stroke-linejoin:miter;stroke-opacity:1" d="M 762.959,90.6032 777.13,82.7302 z" id="boundary" inkscape:connector-curvature="0" />
	<path style="fill:none;stroke:red;stroke-width:1px;stroke-linecap:butt;stroke-linejoin:miter;stroke-opacity:1" d="M 785.003,194.527 799.175,186.654 z" id="boundary" inkscape:connector-curvature="0" />
	<path style="fill:none;stroke:red;stroke-width:1px;stroke-linecap:butt;stroke-linejoin:miter;stroke-opacity:1" d="M 792.876,78.0063 777.13,82.7302 z" id="boundary" inkscape:connector-curvature="0" />
	<path style="fill:none;stroke:red;stroke-width:1px;stroke-linecap:butt;stroke-linejoin:miter;stroke-opacity:1" d="M 824.368,163.035 824.368,147.289 z" id="boundary" inkscape:connector-curvature="0" />
	<path style="fill:none;stroke:red;stroke-width:1px;stroke-linecap:butt;stroke-linejoin:miter;stroke-opacity:1" d="M 792.876,78.0063 808.622,70.1333 z" id="boundary" inkscape:connector-curvature="0" />
	<path style="fill:none;stroke:red;stroke-width:1px;stroke-linecap:butt;stroke-linejoin:miter;stroke-opacity:1" d="M 937.74,74.8571 950.337,60.6857 z" id="boundary" inkscape:connector-curvature="0" />
	<path style="fill:none;stroke:red;stroke-width:1px;stroke-linecap:butt;stroke-linejoin:miter;stroke-opacity:1" d="M 950.337,60.6857 962.933,49.6635 z" id="boundary" inkscape:connector-curvature="0" />
	<path style="fill:none;stroke:red;stroke-width:1px;stroke-linecap:butt;stroke-linejoin:miter;stroke-opacity:1" d="M 836.965,136.267 852.711,128.394 z" id="boundary" inkscape:connector-curvature="0" />
	<path style="fill:none;stroke:red;stroke-width:1px;stroke-linecap:butt;stroke-linejoin:miter;stroke-opacity:1" d="M 808.622,70.1333 824.368,62.2603 z" id="boundary" inkscape:connector-curvature="0" />
	<path style="fill:none;stroke:red;stroke-width:1px;stroke-linecap:butt;stroke-linejoin:miter;stroke-opacity:1" d="M 852.711,128.394 868.457,120.521 z" id="boundary" inkscape:connector-curvature="0" />
	<path style="fill:none;stroke:red;stroke-width:1px;stroke-linecap:butt;stroke-linejoin:miter;stroke-opacity:1" d="M 824.368,147.289 836.965,136.267 z" id="boundary" inkscape:connector-curvature="0" />
	<path style="fill:none;stroke:red;stroke-width:1px;stroke-linecap:butt;stroke-linejoin:miter;stroke-opacity:1" d="M 824.368,62.2603 840.114,54.3873 z" id="boundary" inkscape:connector-curvature="0" />
	<path style="fill:none;stroke:red;stroke-width:1px;stroke-linecap:butt;stroke-linejoin:miter;stroke-opacity:1" d="M 868.457,120.521 879.479,107.924 z" id="boundary" inkscape:connector-curvature="0" />
	<path style="fill:none;stroke:red;stroke-width:1px;stroke-linecap:butt;stroke-linejoin:miter;stroke-opacity:1" d="M 879.479,107.924 895.225,100.051 z" id="boundary" inkscape:connector-curvature="0" />
	<path style="fill:none;stroke:red;stroke-width:1px;stroke-linecap:butt;stroke-linejoin:miter;stroke-opacity:1" d="M 840.114,54.3873 855.86,46.5143 z" id="boundary" inkscape:connector-curvature="0" />
	<path style="fill:none;stroke:red;stroke-width:1px;stroke-linecap:butt;stroke-linejoin:miter;stroke-opacity:1" d="M 895.225,100.051 909.397,92.1778 z" id="boundary" inkscape:connector-curvature="0" />
	<path style="fill:none;stroke:red;stroke-width:1px;stroke-linecap:butt;stroke-linejoin:miter;stroke-opacity:1" d="M 855.86,46.5143 871.606,38.6413 z" id="boundary" inkscape:connector-curvature="0" />
	<path style="fill:none;stroke:red;stroke-width:1px;stroke-linecap:butt;stroke-linejoin:miter;stroke-opacity:1" d="M 871.606,38.6413 887.352,30.7683 z" id="boundary" inkscape:connector-curvature="0" />
	<path style="fill:none;stroke:red;stroke-width:1px;stroke-linecap:butt;stroke-linejoin:miter;stroke-opacity:1" d="M 909.397,92.1778 921.994,82.7302 z" id="boundary" inkscape:connector-curvature="0" />
	<path style="fill:none;stroke:red;stroke-width:1px;stroke-linecap:butt;stroke-linejoin:miter;stroke-opacity:1" d="M 921.994,82.7302 937.74,74.8571 z" id="boundary" inkscape:connector-curvature="0" />
	<path style="fill:none;stroke:red;stroke-width:1px;stroke-linecap:butt;stroke-linejoin:miter;stroke-opacity:1" d="M 887.352,30.7683 903.098,22.8952 z" id="boundary" inkscape:connector-curvature="0" />
	<path style="fill:none;stroke:red;stroke-width:1px;stroke-linecap:butt;stroke-linejoin:miter;stroke-opacity:1" d="M 903.098,22.8952 918.844,19.746 z" id="boundary" inkscape:connector-curvature="0" />
	<path style="fill:none;stroke:red;stroke-width:1px;stroke-linecap:butt;stroke-linejoin:miter;stroke-opacity:1" d="M 918.844,19.746 933.016,11.873 z" id="boundary" inkscape:connector-curvature="0" />
	<path style="fill:none;stroke:red;stroke-width:1px;stroke-linecap:butt;stroke-linejoin:miter;stroke-opacity:1" d="M 933.016,11.873 948.762,8.72381 z" id="boundary" inkscape:connector-curvature="0" />
	<path style="fill:none;stroke:red;stroke-width:1px;stroke-linecap:butt;stroke-linejoin:miter;stroke-opacity:1" d="M 948.762,8.72381 964.508,4 z" id="boundary" inkscape:connector-curvature="0" />
	<path style="fill:none;stroke:red;stroke-width:1px;stroke-linecap:butt;stroke-linejoin:miter;stroke-opacity:1" d="M 986.552,26.0444 973.956,37.0667 z" id="boundary" inkscape:connector-curvature="0" />
	<path style="fill:none;stroke:red;stroke-width:1px;stroke-linecap:butt;stroke-linejoin:miter;stroke-opacity:1" d="M 973.956,37.0667 962.933,49.6635 z" id="boundary" inkscape:connector-curvature="0" />
	<path style="fill:none;stroke:red;stroke-width:1px;stroke-linecap:butt;stroke-linejoin:miter;stroke-opacity:1" d="M 964.508,4 980.254,4 z" id="boundary" inkscape:connector-curvature="0" />
	<path style="fill:none;stroke:red;stroke-width:1px;stroke-linecap:butt;stroke-linejoin:miter;stroke-opacity:1" d="M 980.254,4 996,7.14921 z" id="boundary" inkscape:connector-curvature="0" />
	<path style="fill:none;stroke:red;stroke-width:1px;stroke-linecap:butt;stroke-linejoin:miter;stroke-opacity:1" d="M 996,7.14921 986.552,26.0444 z" id="boundary" inkscape:connector-curvature="0" />
	<circle cx="4" cy="386.629" r="4" fill="#0" id="circle0"/>
	<circle cx="4" cy="402.375" r="4" fill="#0" id="circle1"/>
	<circle cx="11.873" cy="416.546" r="4" fill="#0" id="circle2"/>
	<circle cx="19.746" cy="378.756" r="4" fill="#0" id="circle3"/>
	<circle cx="22.8952" cy="429.143" r="4" fill="#0" id="circle4"/>
	<circle cx="30.7683" cy="443.314" r="4" fill="#0" id="circle5"/>
	<circle cx="35.4921" cy="381.905" r="4" fill="#0" id="circle6"/>
	<circle cx="37.0667" cy="459.06" r="4" fill="#0" id="circle7"/>
	<circle cx="49.6635" cy="470.083" r="4" fill="#0" id="circle8"/>
	<circle cx="51.2381" cy="385.054" r="4" fill="#0" id="circle9"/>
	<circle cx="55.9619" cy="485.829" r="4" fill="#0" id="circle10"/>
	<circle cx="63.8349" cy="500" r="4" fill="#0" id="circle11"/>
	<circle cx="66.9841" cy="389.778" r="4" fill="#0" id="circle12"/>
	<circle cx="66.9841" cy="528.343" r="4" fill="#0" id="circle13"/>
	<circle cx="74.8571" cy="512.597" r="4" fill="#0" id="circle14"/>
	<circle cx="76.4317" cy="540.94" r="4" fill="#0" id="circle15"/>
	<circle cx="81.1556" cy="397.651" r="4" fill="#0" id="circle16"/>
	<circle cx="90.6032" cy="548.813" r="4" fill="#0" id="circle17"/>
	<circle cx="96.9016" cy="399.225" r="4" fill="#0" id="circle18"/>
	<circle cx="98.4762" cy="562.984" r="4" fill="#0" id="circle19"/>
	<circle cx="106.349" cy="577.156" r="4" fill="#0" id="circle20"/>
	<circle cx="112.648" cy="405.524" r="4" fill="#0" id="circle21"/>
	<circle cx="114.222" cy="591.327" r="4" fill="#0" id="circle22"/>
	<circle cx="122.095" cy="605.498" r="4" fill="#0" id="circle23"/>
	<circle cx="126.819" cy="413.397" r="4" fill="#0" id="circle24"/>
	<circle cx="129.968" cy="79.581" r="4" fill="#0" id="circle25"/>
	<circle cx="129.968" cy="95.327" r="4" fill="#0" id="circle26"/>
	<circle cx="129.968" cy="619.67" r="4" fill="#0" id="circle27"/>
	<circle cx="134.692" cy="635.416" r="4" fill="#0" id="circle28"/>
	<circle cx="137.841" cy="651.162" r="4" fill="#0" id="circle29"/>
	<circle cx="142.565" cy="66.9841" r="4" fill="#0" id="circle30"/>
	<circle cx="142.565" cy="106.349" r="4" fill="#0" id="circle31"/>
	<circle cx="142.565" cy="413.397" r="4" fill="#0" id="circle32"/>
	<circle cx="147.289" cy="663.759" r="4" fill="#0" id="circle33"/>
	<circle cx="153.587" cy="118.946" r="4" fill="#0" id="circle34"/>
	<circle cx="156.737" cy="421.27" r="4" fill="#0" id="circle35"/>
	<circle cx="158.311" cy="59.1111" r="4" fill="#0" id="circle36"/>
	<circle cx="163.035" cy="659.035" r="4" fill="#0" id="circle37"/>
	<circle cx="166.184" cy="129.968" r="4" fill="#0" id="circle38"/>
	<circle cx="172.483" cy="51.2381" r="4" fill="#0" id="circle39"/>
	<circle cx="172.483" cy="421.27" r="4" fill="#0" id="circle40"/>
	<circle cx="175.632" cy="648.013" r="4" fill="#0" id="circle41"/>
	<circle cx="177.206" cy="142.565" r="4" fill="#0" id="circle42"/>
	<circle cx="178.781" cy="627.543" r="4" fill="#0" id="circle43"/>
	<circle cx="186.654" cy="43.3651" r="4" fill="#0" id="circle44"/>
	<circle cx="186.654" cy="429.143" r="4" fill="#0" id="circle45"/>
	<circle cx="186.654" cy="588.178" r="4" fill="#0" id="circle46"/>
	<circle cx="186.654" cy="603.924" r="4" fill="#0" id="circle47"/>
	<circle cx="189.803" cy="153.587" r="4" fill="#0" id="circle48"/>
	<circle cx="194.527" cy="564.559" r="4" fill="#0" id="circle49"/>
	<circle cx="196.102" cy="169.333" r="4" fill="#0" id="circle50"/>
	<circle cx="200.825" cy="421.27" r="4" fill="#0" id="circle51"/>
	<circle cx="202.4" cy="48.0889" r="4" fill="#0" id="circle52"/>
	<circle cx="202.4" cy="525.194" r="4" fill="#0" id="circle53"/>
	<circle cx="202.4" cy="540.94" r="4" fill="#0" id="circle54"/>
	<circle cx="208.698" cy="178.781" r="4" fill="#0" id="circle55"/>
	<circle cx="210.273" cy="493.702" r="4" fill="#0" id="circle56"/>
	<circle cx="210.273" cy="509.448" r="4" fill="#0" id="circle57"/>
	<circle cx="214.997" cy="413.397" r="4" fill="#0" id="circle58"/>
	<circle cx="218.146" cy="51.2381" r="4" fill="#0" id="circle59"/>
	<circle cx="218.146" cy="477.956" r="4" fill="#0" id="circle60"/>
	<circle cx="222.87" cy="186.654" r="4" fill="#0" id="circle61"/>
	<circle cx="226.019" cy="400.8" r="4" fill="#0" id="circle62"/>
	<circle cx="229.168" cy="202.4" r="4" fill="#0" id="circle63"/>
	<circle cx="232.317" cy="363.01" r="4" fill="#0" id="circle64"/>
	<circle cx="232.317" cy="378.756" r="4" fill="#0" id="circle65"/>
	<circle cx="232.317" cy="470.083" r="4" fill="#0" id="circle66"/>
	<circle cx="233.892" cy="51.2381" r="4" fill="#0" id="circle67"/>
	<circle cx="241.765" cy="213.422" r="4" fill="#0" id="circle68"/>
	<circle cx="248.063" cy="355.137" r="4" fill="#0" id="circle69"/>
	<circle cx="248.063" cy="465.359" r="4" fill="#0" id="circle70"/>
	<circle cx="249.638" cy="51.2381" r="4" fill="#0" id="circle71"/>
	<circle cx="252.787" cy="226.019" r="4" fill="#0" id="circle72"/>
	<circle cx="260.66" cy="342.54" r="4" fill="#0" id="circle73"/>
	<circle cx="263.81" cy="238.616" r="4" fill="#0" id="circle74"/>
	<circle cx="263.81" cy="462.21" r="4" fill="#0" id="circle75"/>
	<circle cx="265.384" cy="55.9619" r="4" fill="#0" id="circle76"/>
	<circle cx="271.683" cy="252.787" r="4" fill="#0" id="circle77"/>
	<circle cx="273.257" cy="329.943" r="4" fill="#0" id="circle78"/>
	<circle cx="279.556" cy="462.21" r="4" fill="#0" id="circle79"/>
	<circle cx="281.13" cy="59.1111" r="4" fill="#0" id="circle80"/>
	<circle cx="284.279" cy="263.81" r="4" fill="#0" id="circle81"/>
	<circle cx="285.854" cy="318.921" r="4" fill="#0" id="circle82"/>
	<circle cx="289.003" cy="474.806" r="4" fill="#0" id="circle83"/>
	<circle cx="295.302" cy="276.406" r="4" fill="#0" id="circle84"/>
	<circle cx="295.302" cy="292.152" r="4" fill="#0" id="circle85"/>
	<circle cx="296.876" cy="59.1111" r="4" fill="#0" id="circle86"/>
	<circle cx="304.749" cy="470.083" r="4" fill="#0" id="circle87"/>
	<circle cx="312.622" cy="59.1111" r="4" fill="#0" id="circle88"/>
	<circle cx="320.495" cy="462.21" r="4" fill="#0" id="circle89"/>
	<circle cx="328.368" cy="63.8349" r="4" fill="#0" id="circle90"/>
	<circle cx="336.241" cy="462.21" r="4" fill="#0" id="circle91"/>
	<circle cx="344.114" cy="66.9841" r="4" fill="#0" id="circle92"/>
	<circle cx="351.987" cy="454.337" r="4" fill="#0" id="circle93"/>
	<circle cx="359.86" cy="66.9841" r="4" fill="#0" id="circle94"/>
	<circle cx="367.733" cy="81.1556" r="4" fill="#0" id="circle95"/>
	<circle cx="367.733" cy="454.337" r="4" fill="#0" id="circle96"/>
	<circle cx="383.479" cy="82.7302" r="4" fill="#0" id="circle97"/>
	<circle cx="383.479" cy="454.337" r="4" fill="#0" id="circle98"/>
	<circle cx="397.651" cy="90.6032" r="4" fill="#0" id="circle99"/>
	<circle cx="397.651" cy="462.21" r="4" fill="#0" id="circle100"/>
	<circle cx="405.524" cy="476.381" r="4" fill="#0" id="circle101"/>
	<circle cx="408.673" cy="492.127" r="4" fill="#0" id="circle102"/>
	<circle cx="413.397" cy="90.6032" r="4" fill="#0" id="circle103"/>
	<circle cx="413.397" cy="507.873" r="4" fill="#0" id="circle104"/>
	<circle cx="421.27" cy="522.044" r="4" fill="#0" id="circle105"/>
	<circle cx="422.844" cy="537.79" r="4" fill="#0" id="circle106"/>
	<circle cx="429.143" cy="87.454" r="4" fill="#0" id="circle107"/>
	<circle cx="429.143" cy="553.537" r="4" fill="#0" id="circle108"/>
	<circle cx="430.717" cy="569.283" r="4" fill="#0" id="circle109"/>
	<circle cx="437.016" cy="585.029" r="4" fill="#0" id="circle110"/>
	<circle cx="438.59" cy="600.775" r="4" fill="#0" id="circle111"/>
	<circle cx="441.74" cy="74.8571" r="4" fill="#0" id="circle112"/>
	<circle cx="444.889" cy="616.521" r="4" fill="#0" id="circle113"/>
	<circle cx="452.762" cy="630.692" r="4" fill="#0" id="circle114"/>
	<circle cx="452.762" cy="646.438" r="4" fill="#0" id="circle115"/>
	<circle cx="457.486" cy="66.9841" r="4" fill="#0" id="circle116"/>
	<circle cx="460.635" cy="660.61" r="4" fill="#0" id="circle117"/>
	<circle cx="460.635" cy="676.356" r="4" fill="#0" id="circle118"/>
	<circle cx="468.508" cy="690.527" r="4" fill="#0" id="circle119"/>
	<circle cx="473.232" cy="59.1111" r="4" fill="#0" id="circle120"/>
	<circle cx="473.232" cy="706.273" r="4" fill="#0" id="circle121"/>
	<circle cx="485.829" cy="92.1778" r="4" fill="#0" id="circle122"/>
	<circle cx="488.978" cy="51.2381" r="4" fill="#0" id="circle123"/>
	<circle cx="488.978" cy="706.273" r="4" fill="#0" id="circle124"/>
	<circle cx="493.702" cy="106.349" r="4" fill="#0" id="circle125"/>
	<circle cx="501.575" cy="84.3048" r="4" fill="#0" id="circle126"/>
	<circle cx="503.149" cy="698.4" r="4" fill="#0" id="circle127"/>
	<circle cx="504.724" cy="43.3651" r="4" fill="#0" id="circle128"/>
	<circle cx="509.448" cy="106.349" r="4" fill="#0" id="circle129"/>
	<circle cx="515.746" cy="76.4317" r="4" fill="#0" id="circle130"/>
	<circle cx="517.321" cy="690.527" r="4" fill="#0" id="circle131"/>
	<circle cx="520.47" cy="43.3651" r="4" fill="#0" id="circle132"/>
	<circle cx="525.194" cy="106.349" r="4" fill="#0" id="circle133"/>
	<circle cx="528.343" cy="66.9841" r="4" fill="#0" id="circle134"/>
	<circle cx="531.492" cy="682.654" r="4" fill="#0" id="circle135"/>
	<circle cx="534.641" cy="35.4921" r="4" fill="#0" id="circle136"/>
	<circle cx="540.94" cy="52.8127" r="4" fill="#0" id="circle137"/>
	<circle cx="540.94" cy="111.073" r="4" fill="#0" id="circle138"/>
	<circle cx="544.089" cy="673.206" r="4" fill="#0" id="circle139"/>
	<circle cx="548.813" cy="27.619" r="4" fill="#0" id="circle140"/>
	<circle cx="551.962" cy="657.46" r="4" fill="#0" id="circle141"/>
	<circle cx="553.537" cy="43.3651" r="4" fill="#0" id="circle142"/>
	<circle cx="556.686" cy="114.222" r="4" fill="#0" id="circle143"/>
	<circle cx="559.835" cy="641.714" r="4" fill="#0" id="circle144"/>
	<circle cx="564.559" cy="619.67" r="4" fill="#0" id="circle145"/>
	<circle cx="572.432" cy="118.946" r="4" fill="#0" id="circle146"/>
	<circle cx="572.432" cy="603.924" r="4" fill="#0" id="circle147"/>
	<circle cx="580.305" cy="588.178" r="4" fill="#0" id="circle148"/>
	<circle cx="588.178" cy="117.371" r="4" fill="#0" id="circle149"/>
	<circle cx="588.178" cy="564.559" r="4" fill="#0" id="circle150"/>
	<circle cx="596.051" cy="548.813" r="4" fill="#0" id="circle151"/>
	<circle cx="603.924" cy="118.946" r="4" fill="#0" id="circle152"/>
	<circle cx="603.924" cy="533.067" r="4" fill="#0" id="circle153"/>
	<circle cx="611.797" cy="485.829" r="4" fill="#0" id="circle154"/>
	<circle cx="611.797" cy="501.575" r="4" fill="#0" id="circle155"/>
	<circle cx="611.797" cy="517.321" r="4" fill="#0" id="circle156"/>
	<circle cx="619.67" cy="122.095" r="4" fill="#0" id="circle157"/>
	<circle cx="619.67" cy="462.21" r="4" fill="#0" id="circle158"/>
	<circle cx="627.543" cy="446.463" r="4" fill="#0" id="circle159"/>
	<circle cx="635.416" cy="117.371" r="4" fill="#0" id="circle160"/>
	<circle cx="643.289" cy="438.59" r="4" fill="#0" id="circle161"/>
	<circle cx="648.013" cy="106.349" r="4" fill="#0" id="circle162"/>
	<circle cx="657.46" cy="430.717" r="4" fill="#0" id="circle163"/>
	<circle cx="659.035" cy="375.606" r="4" fill="#0" id="circle164"/>
	<circle cx="662.184" cy="98.4762" r="4" fill="#0" id="circle165"/>
	<circle cx="666.908" cy="351.987" r="4" fill="#0" id="circle166"/>
	<circle cx="671.632" cy="422.844" r="4" fill="#0" id="circle167"/>
	<circle cx="674.781" cy="336.241" r="4" fill="#0" id="circle168"/>
	<circle cx="674.781" cy="374.032" r="4" fill="#0" id="circle169"/>
	<circle cx="677.93" cy="90.6032" r="4" fill="#0" id="circle170"/>
	<circle cx="682.654" cy="312.622" r="4" fill="#0" id="circle171"/>
	<circle cx="685.803" cy="413.397" r="4" fill="#0" id="circle172"/>
	<circle cx="690.527" cy="289.003" r="4" fill="#0" id="circle173"/>
	<circle cx="690.527" cy="369.308" r="4" fill="#0" id="circle174"/>
	<circle cx="692.102" cy="82.7302" r="4" fill="#0" id="circle175"/>
	<circle cx="698.4" cy="273.257" r="4" fill="#0" id="circle176"/>
	<circle cx="701.549" cy="405.524" r="4" fill="#0" id="circle177"/>
	<circle cx="706.273" cy="366.159" r="4" fill="#0" id="circle178"/>
	<circle cx="707.848" cy="82.7302" r="4" fill="#0" id="circle179"/>
	<circle cx="710.997" cy="262.235" r="4" fill="#0" id="circle180"/>
	<circle cx="714.146" cy="391.352" r="4" fill="#0" id="circle181"/>
	<circle cx="720.444" cy="358.286" r="4" fill="#0" id="circle182"/>
	<circle cx="722.019" cy="90.6032" r="4" fill="#0" id="circle183"/>
	<circle cx="726.743" cy="254.362" r="4" fill="#0" id="circle184"/>
	<circle cx="729.892" cy="383.479" r="4" fill="#0" id="circle185"/>
	<circle cx="736.19" cy="358.286" r="4" fill="#0" id="circle186"/>
	<circle cx="737.765" cy="85.8794" r="4" fill="#0" id="circle187"/>
	<circle cx="742.489" cy="246.489" r="4" fill="#0" id="circle188"/>
	<circle cx="742.489" cy="374.032" r="4" fill="#0" id="circle189"/>
	<circle cx="753.511" cy="78.0063" r="4" fill="#0" id="circle190"/>
	<circle cx="758.235" cy="238.616" r="4" fill="#0" id="circle191"/>
	<circle cx="762.959" cy="90.6032" r="4" fill="#0" id="circle192"/>
	<circle cx="773.981" cy="230.743" r="4" fill="#0" id="circle193"/>
	<circle cx="777.13" cy="82.7302" r="4" fill="#0" id="circle194"/>
	<circle cx="785.003" cy="194.527" r="4" fill="#0" id="circle195"/>
	<circle cx="788.152" cy="210.273" r="4" fill="#0" id="circle196"/>
	<circle cx="792.876" cy="78.0063" r="4" fill="#0" id="circle197"/>
	<circle cx="799.175" cy="186.654" r="4" fill="#0" id="circle198"/>
	<circle cx="808.622" cy="70.1333" r="4" fill="#0" id="circle199"/>
	<circle cx="811.771" cy="177.206" r="4" fill="#0" id="circle200"/>
	<circle cx="824.368" cy="62.2603" r="4" fill="#0" id="circle201"/>
	<circle cx="824.368" cy="147.289" r="4" fill="#0" id="circle202"/>
	<circle cx="824.368" cy="163.035" r="4" fill="#0" id="circle203"/>
	<circle cx="836.965" cy="136.267" r="4" fill="#0" id="circle204"/>
	<circle cx="840.114" cy="54.3873" r="4" fill="#0" id="circle205"/>
	<circle cx="852.711" cy="128.394" r="4" fill="#0" id="circle206"/>
	<circle cx="855.86" cy="46.5143" r="4" fill="#0" id="circle207"/>
	<circle cx="868.457" cy="120.521" r="4" fill="#0" id="circle208"/>
	<circle cx="871.606" cy="38.6413" r="4" fill="#0" id="circle209"/>
	<circle cx="879.479" cy="107.924" r="4" fill="#0" id="circle210"/>
	<circle cx="887.352" cy="30.7683" r="4" fill="#0" id="circle211"/>
	<circle cx="895.225" cy="100.051" r="4" fill="#0" id="circle212"/>
	<circle cx="903.098" cy="22.8952" r="4" fill="#0" id="circle213"/>
	<circle cx="909.397" cy="92.1778" r="4" fill="#0" id="circle214"/>
	<circle cx="918.844" cy="19.746" r="4" fill="#0" id="circle215"/>
	<circle cx="921.994" cy="82.7302" r="4" fill="#0" id="circle216"/>
	<circle cx="933.016" cy="11.873" r="4" fill="#0" id="circle217"/>
	<circle cx="937.74" cy="74.8571" r="4" fill="#0" id="circle218"/>
	<circle cx="948.762" cy="8.72381" r="4" fill="#0" id="circle219"/>
	<circle cx="950.337" cy="60.6857" r="4" fill="#0" id="circle220"/>
	<circle cx="962.933" cy="49.6635" r="4" fill="#0" id="circle221"/>
	<circle cx="964.508" cy="4" r="4" fill="#0" id="circle222"/>
	<circle cx="973.956" cy="37.0667" r="4" fill="#0" id="circle223"/>
	<circle cx="980.254" cy="4" r="4" fill="#0" id="circle224"/>
	<circle cx="986.552" cy="26.0444" r="4" fill="#0" id="circle225"/>
	<circle cx="996" cy="7.14921" r="4" fill="#0" id="circle226"/>
	</g>
</svg>