<?xml version="1.0" encoding="UTF-8" standalone="no"?>
<!-- Created with CurveBenchmark -->
<svg
	xmlns:dc="http://purl.org/dc/elements/1.1/"
	xmlns:cc="http://creativecommons.org/ns#"
	xmlns:rdf="http://www.w3.org/1999/02/22-rdf-syntax-ns#"
	xmlns:svg="http://www.w3.org/2000/svg"
	xmlns="http://www.w3.org/2000/svg"
	xmlns:sodipodi="http://sodipodi.sourceforge.net/DTD/sodipodi-0.dtd"
	xmlns:inkscape="http://www.inkscape.org/namespaces/inkscape"
	width="1000"
	height="1000"
	id="svg2"
	version="1.1"
	sodipodi:docname="manifold/peel-fish030.png.txt">
<defs
	id="defs4" />
<metadata
	id="metadata7">
	<rdf:RDF>
		<cc:Work
			rdf:about="">
			<dc:format>image/svg+xml</dc:format>
			<dc:type
				rdf:resource="http://purl.org/dc/dcmitype/StillImage" />
			<dc:title></dc:title>
		</cc:Work>
	</rdf:RDF>
</metadata>
<g
	inkscape:label="Layer 1"
	inkscape:groupmode="layer"
	id="layer1">
	<path style="fill:none;stroke:red;stroke-width:1px;stroke-linecap:butt;stroke-linejoin:miter;stroke-opacity:1" d="M 38.4227,282.511 16.5174,257.476 z" id="boundary" inkscape:connector-curvature="0" />
	<path style="fill:none;stroke:red;stroke-width:1px;stroke-linecap:butt;stroke-linejoin:miter;stroke-opacity:1" d="M 16.5174,257.476 4,226.183 z" id="boundary" inkscape:connector-curvature="0" />
	<path style="fill:none;stroke:red;stroke-width:1px;stroke-linecap:butt;stroke-linejoin:miter;stroke-opacity:1" d="M 4,226.183 29.0347,207.407 z" id="boundary" inkscape:connector-curvature="0" />
	<path style="fill:none;stroke:red;stroke-width:1px;stroke-linecap:butt;stroke-linejoin:miter;stroke-opacity:1" d="M 57.1987,191.76 29.0347,207.407 z" id="boundary" inkscape:connector-curvature="0" />
	<path style="fill:none;stroke:red;stroke-width:1px;stroke-linecap:butt;stroke-linejoin:miter;stroke-opacity:1" d="M 60.3281,307.546 38.4227,282.511 z" id="boundary" inkscape:connector-curvature="0" />
	<path style="fill:none;stroke:red;stroke-width:1px;stroke-linecap:butt;stroke-linejoin:miter;stroke-opacity:1" d="M 85.3628,176.114 57.1987,191.76 z" id="boundary" inkscape:connector-curvature="0" />
	<path style="fill:none;stroke:red;stroke-width:1px;stroke-linecap:butt;stroke-linejoin:miter;stroke-opacity:1" d="M 85.3628,329.451 60.3281,307.546 z" id="boundary" inkscape:connector-curvature="0" />
	<path style="fill:none;stroke:red;stroke-width:1px;stroke-linecap:butt;stroke-linejoin:miter;stroke-opacity:1" d="M 110.397,157.338 85.3628,176.114 z" id="boundary" inkscape:connector-curvature="0" />
	<path style="fill:none;stroke:red;stroke-width:1px;stroke-linecap:butt;stroke-linejoin:miter;stroke-opacity:1" d="M 113.527,345.098 85.3628,329.451 z" id="boundary" inkscape:connector-curvature="0" />
	<path style="fill:none;stroke:red;stroke-width:1px;stroke-linecap:butt;stroke-linejoin:miter;stroke-opacity:1" d="M 141.691,144.82 110.397,157.338 z" id="boundary" inkscape:connector-curvature="0" />
	<path style="fill:none;stroke:red;stroke-width:1px;stroke-linecap:butt;stroke-linejoin:miter;stroke-opacity:1" d="M 141.691,360.744 113.527,345.098 z" id="boundary" inkscape:connector-curvature="0" />
	<path style="fill:none;stroke:red;stroke-width:1px;stroke-linecap:butt;stroke-linejoin:miter;stroke-opacity:1" d="M 172.984,138.562 141.691,144.82 z" id="boundary" inkscape:connector-curvature="0" />
	<path style="fill:none;stroke:red;stroke-width:1px;stroke-linecap:butt;stroke-linejoin:miter;stroke-opacity:1" d="M 172.984,367.003 141.691,360.744 z" id="boundary" inkscape:connector-curvature="0" />
	<path style="fill:none;stroke:red;stroke-width:1px;stroke-linecap:butt;stroke-linejoin:miter;stroke-opacity:1" d="M 204.278,126.044 172.984,138.562 z" id="boundary" inkscape:connector-curvature="0" />
	<path style="fill:none;stroke:red;stroke-width:1px;stroke-linecap:butt;stroke-linejoin:miter;stroke-opacity:1" d="M 204.278,379.521 172.984,367.003 z" id="boundary" inkscape:connector-curvature="0" />
	<path style="fill:none;stroke:red;stroke-width:1px;stroke-linecap:butt;stroke-linejoin:miter;stroke-opacity:1" d="M 235.571,113.527 204.278,126.044 z" id="boundary" inkscape:connector-curvature="0" />
	<path style="fill:none;stroke:red;stroke-width:1px;stroke-linecap:butt;stroke-linejoin:miter;stroke-opacity:1" d="M 282.511,426.461 295.028,457.754 z" id="boundary" inkscape:connector-curvature="0" />
	<path style="fill:none;stroke:red;stroke-width:1px;stroke-linecap:butt;stroke-linejoin:miter;stroke-opacity:1" d="M 235.571,392.038 204.278,379.521 z" id="boundary" inkscape:connector-curvature="0" />
	<path style="fill:none;stroke:red;stroke-width:1px;stroke-linecap:butt;stroke-linejoin:miter;stroke-opacity:1" d="M 266.864,107.268 235.571,113.527 z" id="boundary" inkscape:connector-curvature="0" />
	<path style="fill:none;stroke:red;stroke-width:1px;stroke-linecap:butt;stroke-linejoin:miter;stroke-opacity:1" d="M 266.864,398.297 235.571,392.038 z" id="boundary" inkscape:connector-curvature="0" />
	<path style="fill:none;stroke:red;stroke-width:1px;stroke-linecap:butt;stroke-linejoin:miter;stroke-opacity:1" d="M 298.158,50.9401 298.158,101.009 z" id="boundary" inkscape:connector-curvature="0" />
	<path style="fill:none;stroke:red;stroke-width:1px;stroke-linecap:butt;stroke-linejoin:miter;stroke-opacity:1" d="M 298.158,101.009 266.864,107.268 z" id="boundary" inkscape:connector-curvature="0" />
	<path style="fill:none;stroke:red;stroke-width:1px;stroke-linecap:butt;stroke-linejoin:miter;stroke-opacity:1" d="M 282.511,426.461 266.864,398.297 z" id="boundary" inkscape:connector-curvature="0" />
	<path style="fill:none;stroke:red;stroke-width:1px;stroke-linecap:butt;stroke-linejoin:miter;stroke-opacity:1" d="M 295.028,457.754 310.675,485.918 z" id="boundary" inkscape:connector-curvature="0" />
	<path style="fill:none;stroke:red;stroke-width:1px;stroke-linecap:butt;stroke-linejoin:miter;stroke-opacity:1" d="M 329.451,32.164 298.158,50.9401 z" id="boundary" inkscape:connector-curvature="0" />
	<path style="fill:none;stroke:red;stroke-width:1px;stroke-linecap:butt;stroke-linejoin:miter;stroke-opacity:1" d="M 376.391,4 407.685,16.5174 z" id="boundary" inkscape:connector-curvature="0" />
	<path style="fill:none;stroke:red;stroke-width:1px;stroke-linecap:butt;stroke-linejoin:miter;stroke-opacity:1" d="M 335.71,504.694 310.675,485.918 z" id="boundary" inkscape:connector-curvature="0" />
	<path style="fill:none;stroke:red;stroke-width:1px;stroke-linecap:butt;stroke-linejoin:miter;stroke-opacity:1" d="M 345.098,4 376.391,4 z" id="boundary" inkscape:connector-curvature="0" />
	<path style="fill:none;stroke:red;stroke-width:1px;stroke-linecap:butt;stroke-linejoin:miter;stroke-opacity:1" d="M 345.098,4 329.451,32.164 z" id="boundary" inkscape:connector-curvature="0" />
	<path style="fill:none;stroke:red;stroke-width:1px;stroke-linecap:butt;stroke-linejoin:miter;stroke-opacity:1" d="M 367.003,504.694 335.71,504.694 z" id="boundary" inkscape:connector-curvature="0" />
	<path style="fill:none;stroke:red;stroke-width:1px;stroke-linecap:butt;stroke-linejoin:miter;stroke-opacity:1" d="M 392.038,485.918 367.003,504.694 z" id="boundary" inkscape:connector-curvature="0" />
	<path style="fill:none;stroke:red;stroke-width:1px;stroke-linecap:butt;stroke-linejoin:miter;stroke-opacity:1" d="M 407.685,16.5174 438.978,22.776 z" id="boundary" inkscape:connector-curvature="0" />
	<path style="fill:none;stroke:red;stroke-width:1px;stroke-linecap:butt;stroke-linejoin:miter;stroke-opacity:1" d="M 420.202,501.565 392.038,485.918 z" id="boundary" inkscape:connector-curvature="0" />
	<path style="fill:none;stroke:red;stroke-width:1px;stroke-linecap:butt;stroke-linejoin:miter;stroke-opacity:1" d="M 438.978,22.776 470.271,32.164 z" id="boundary" inkscape:connector-curvature="0" />
	<path style="fill:none;stroke:red;stroke-width:1px;stroke-linecap:butt;stroke-linejoin:miter;stroke-opacity:1" d="M 451.495,507.823 420.202,501.565 z" id="boundary" inkscape:connector-curvature="0" />
	<path style="fill:none;stroke:red;stroke-width:1px;stroke-linecap:butt;stroke-linejoin:miter;stroke-opacity:1" d="M 460.883,392.038 470.271,423.331 z" id="boundary" inkscape:connector-curvature="0" />
	<path style="fill:none;stroke:red;stroke-width:1px;stroke-linecap:butt;stroke-linejoin:miter;stroke-opacity:1" d="M 476.53,454.625 470.271,423.331 z" id="boundary" inkscape:connector-curvature="0" />
	<path style="fill:none;stroke:red;stroke-width:1px;stroke-linecap:butt;stroke-linejoin:miter;stroke-opacity:1" d="M 470.271,32.164 501.565,44.6814 z" id="boundary" inkscape:connector-curvature="0" />
	<path style="fill:none;stroke:red;stroke-width:1px;stroke-linecap:butt;stroke-linejoin:miter;stroke-opacity:1" d="M 476.53,454.625 476.53,485.918 z" id="boundary" inkscape:connector-curvature="0" />
	<path style="fill:none;stroke:red;stroke-width:1px;stroke-linecap:butt;stroke-linejoin:miter;stroke-opacity:1" d="M 460.883,392.038 492.177,385.779 z" id="boundary" inkscape:connector-curvature="0" />
	<path style="fill:none;stroke:red;stroke-width:1px;stroke-linecap:butt;stroke-linejoin:miter;stroke-opacity:1" d="M 476.53,485.918 451.495,507.823 z" id="boundary" inkscape:connector-curvature="0" />
	<path style="fill:none;stroke:red;stroke-width:1px;stroke-linecap:butt;stroke-linejoin:miter;stroke-opacity:1" d="M 648.644,385.779 679.937,398.297 z" id="boundary" inkscape:connector-curvature="0" />
	<path style="fill:none;stroke:red;stroke-width:1px;stroke-linecap:butt;stroke-linejoin:miter;stroke-opacity:1" d="M 492.177,385.779 523.47,385.779 z" id="boundary" inkscape:connector-curvature="0" />
	<path style="fill:none;stroke:red;stroke-width:1px;stroke-linecap:butt;stroke-linejoin:miter;stroke-opacity:1" d="M 523.47,385.779 554.763,385.779 z" id="boundary" inkscape:connector-curvature="0" />
	<path style="fill:none;stroke:red;stroke-width:1px;stroke-linecap:butt;stroke-linejoin:miter;stroke-opacity:1" d="M 532.858,57.1987 554.763,82.2334 z" id="boundary" inkscape:connector-curvature="0" />
	<path style="fill:none;stroke:red;stroke-width:1px;stroke-linecap:butt;stroke-linejoin:miter;stroke-opacity:1" d="M 532.858,57.1987 501.565,44.6814 z" id="boundary" inkscape:connector-curvature="0" />
	<path style="fill:none;stroke:red;stroke-width:1px;stroke-linecap:butt;stroke-linejoin:miter;stroke-opacity:1" d="M 554.763,82.2334 579.798,104.139 z" id="boundary" inkscape:connector-curvature="0" />
	<path style="fill:none;stroke:red;stroke-width:1px;stroke-linecap:butt;stroke-linejoin:miter;stroke-opacity:1" d="M 586.057,385.779 554.763,385.779 z" id="boundary" inkscape:connector-curvature="0" />
	<path style="fill:none;stroke:red;stroke-width:1px;stroke-linecap:butt;stroke-linejoin:miter;stroke-opacity:1" d="M 611.091,94.7508 579.798,104.139 z" id="boundary" inkscape:connector-curvature="0" />
	<path style="fill:none;stroke:red;stroke-width:1px;stroke-linecap:butt;stroke-linejoin:miter;stroke-opacity:1" d="M 617.35,379.521 648.644,385.779 z" id="boundary" inkscape:connector-curvature="0" />
	<path style="fill:none;stroke:red;stroke-width:1px;stroke-linecap:butt;stroke-linejoin:miter;stroke-opacity:1" d="M 617.35,379.521 586.057,385.779 z" id="boundary" inkscape:connector-curvature="0" />
	<path style="fill:none;stroke:red;stroke-width:1px;stroke-linecap:butt;stroke-linejoin:miter;stroke-opacity:1" d="M 704.972,88.4921 730.006,110.397 z" id="boundary" inkscape:connector-curvature="0" />
	<path style="fill:none;stroke:red;stroke-width:1px;stroke-linecap:butt;stroke-linejoin:miter;stroke-opacity:1" d="M 611.091,94.7508 642.385,82.2334 z" id="boundary" inkscape:connector-curvature="0" />
	<path style="fill:none;stroke:red;stroke-width:1px;stroke-linecap:butt;stroke-linejoin:miter;stroke-opacity:1" d="M 673.678,75.9748 704.972,88.4921 z" id="boundary" inkscape:connector-curvature="0" />
	<path style="fill:none;stroke:red;stroke-width:1px;stroke-linecap:butt;stroke-linejoin:miter;stroke-opacity:1" d="M 673.678,75.9748 642.385,82.2334 z" id="boundary" inkscape:connector-curvature="0" />
	<path style="fill:none;stroke:red;stroke-width:1px;stroke-linecap:butt;stroke-linejoin:miter;stroke-opacity:1" d="M 730.006,110.397 751.912,135.432 z" id="boundary" inkscape:connector-curvature="0" />
	<path style="fill:none;stroke:red;stroke-width:1px;stroke-linecap:butt;stroke-linejoin:miter;stroke-opacity:1" d="M 679.937,398.297 711.23,404.555 z" id="boundary" inkscape:connector-curvature="0" />
	<path style="fill:none;stroke:red;stroke-width:1px;stroke-linecap:butt;stroke-linejoin:miter;stroke-opacity:1" d="M 770.688,160.467 751.912,135.432 z" id="boundary" inkscape:connector-curvature="0" />
	<path style="fill:none;stroke:red;stroke-width:1px;stroke-linecap:butt;stroke-linejoin:miter;stroke-opacity:1" d="M 742.524,404.555 711.23,404.555 z" id="boundary" inkscape:connector-curvature="0" />
	<path style="fill:none;stroke:red;stroke-width:1px;stroke-linecap:butt;stroke-linejoin:miter;stroke-opacity:1" d="M 927.155,360.744 958.448,373.262 z" id="boundary" inkscape:connector-curvature="0" />
	<path style="fill:none;stroke:red;stroke-width:1px;stroke-linecap:butt;stroke-linejoin:miter;stroke-opacity:1" d="M 767.558,379.521 742.524,404.555 z" id="boundary" inkscape:connector-curvature="0" />
	<path style="fill:none;stroke:red;stroke-width:1px;stroke-linecap:butt;stroke-linejoin:miter;stroke-opacity:1" d="M 780.076,348.227 767.558,379.521 z" id="boundary" inkscape:connector-curvature="0" />
	<path style="fill:none;stroke:red;stroke-width:1px;stroke-linecap:butt;stroke-linejoin:miter;stroke-opacity:1" d="M 783.205,301.287 780.076,348.227 z" id="boundary" inkscape:connector-curvature="0" />
	<path style="fill:none;stroke:red;stroke-width:1px;stroke-linecap:butt;stroke-linejoin:miter;stroke-opacity:1" d="M 814.498,298.158 842.662,313.804 z" id="boundary" inkscape:connector-curvature="0" />
	<path style="fill:none;stroke:red;stroke-width:1px;stroke-linecap:butt;stroke-linejoin:miter;stroke-opacity:1" d="M 789.464,185.502 770.688,160.467 z" id="boundary" inkscape:connector-curvature="0" />
	<path style="fill:none;stroke:red;stroke-width:1px;stroke-linecap:butt;stroke-linejoin:miter;stroke-opacity:1" d="M 814.498,298.158 783.205,301.287 z" id="boundary" inkscape:connector-curvature="0" />
	<path style="fill:none;stroke:red;stroke-width:1px;stroke-linecap:butt;stroke-linejoin:miter;stroke-opacity:1" d="M 820.757,191.76 789.464,185.502 z" id="boundary" inkscape:connector-curvature="0" />
	<path style="fill:none;stroke:red;stroke-width:1px;stroke-linecap:butt;stroke-linejoin:miter;stroke-opacity:1" d="M 842.662,313.804 867.697,332.58 z" id="boundary" inkscape:connector-curvature="0" />
	<path style="fill:none;stroke:red;stroke-width:1px;stroke-linecap:butt;stroke-linejoin:miter;stroke-opacity:1" d="M 848.921,176.114 820.757,191.76 z" id="boundary" inkscape:connector-curvature="0" />
	<path style="fill:none;stroke:red;stroke-width:1px;stroke-linecap:butt;stroke-linejoin:miter;stroke-opacity:1" d="M 867.697,332.58 895.861,348.227 z" id="boundary" inkscape:connector-curvature="0" />
	<path style="fill:none;stroke:red;stroke-width:1px;stroke-linecap:butt;stroke-linejoin:miter;stroke-opacity:1" d="M 848.921,176.114 880.215,163.596 z" id="boundary" inkscape:connector-curvature="0" />
	<path style="fill:none;stroke:red;stroke-width:1px;stroke-linecap:butt;stroke-linejoin:miter;stroke-opacity:1" d="M 895.861,348.227 927.155,360.744 z" id="boundary" inkscape:connector-curvature="0" />
	<path style="fill:none;stroke:red;stroke-width:1px;stroke-linecap:butt;stroke-linejoin:miter;stroke-opacity:1" d="M 908.379,147.95 880.215,163.596 z" id="boundary" inkscape:connector-curvature="0" />
	<path style="fill:none;stroke:red;stroke-width:1px;stroke-linecap:butt;stroke-linejoin:miter;stroke-opacity:1" d="M 980.353,248.088 983.483,279.382 z" id="boundary" inkscape:connector-curvature="0" />
	<path style="fill:none;stroke:red;stroke-width:1px;stroke-linecap:butt;stroke-linejoin:miter;stroke-opacity:1" d="M 936.543,132.303 967.836,126.044 z" id="boundary" inkscape:connector-curvature="0" />
	<path style="fill:none;stroke:red;stroke-width:1px;stroke-linecap:butt;stroke-linejoin:miter;stroke-opacity:1" d="M 967.836,126.044 996,151.079 z" id="boundary" inkscape:connector-curvature="0" />
	<path style="fill:none;stroke:red;stroke-width:1px;stroke-linecap:butt;stroke-linejoin:miter;stroke-opacity:1" d="M 908.379,147.95 936.543,132.303 z" id="boundary" inkscape:connector-curvature="0" />
	<path style="fill:none;stroke:red;stroke-width:1px;stroke-linecap:butt;stroke-linejoin:miter;stroke-opacity:1" d="M 989.741,370.132 958.448,373.262 z" id="boundary" inkscape:connector-curvature="0" />
	<path style="fill:none;stroke:red;stroke-width:1px;stroke-linecap:butt;stroke-linejoin:miter;stroke-opacity:1" d="M 983.483,194.89 980.353,248.088 z" id="boundary" inkscape:connector-curvature="0" />
	<path style="fill:none;stroke:red;stroke-width:1px;stroke-linecap:butt;stroke-linejoin:miter;stroke-opacity:1" d="M 983.483,279.382 989.741,310.675 z" id="boundary" inkscape:connector-curvature="0" />
	<path style="fill:none;stroke:red;stroke-width:1px;stroke-linecap:butt;stroke-linejoin:miter;stroke-opacity:1" d="M 996,151.079 983.483,194.89 z" id="boundary" inkscape:connector-curvature="0" />
	<path style="fill:none;stroke:red;stroke-width:1px;stroke-linecap:butt;stroke-linejoin:miter;stroke-opacity:1" d="M 989.741,370.132 989.741,310.675 z" id="boundary" inkscape:connector-curvature="0" />
	<circle cx="4" cy="226.183" r="4" fill="#0" id="circle0"/>
	<circle cx="16.5174" cy="257.476" r="4" fill="#0" id="circle1"/>
	<circle cx="29.0347" cy="207.407" r="4" fill="#0" id="circle2"/>
	<circle cx="38.4227" cy="282.511" r="4" fill="#0" id="circle3"/>
	<circle cx="57.1987" cy="191.76" r="4" fill="#0" id="circle4"/>
	<circle cx="60.3281" cy="307.546" r="4" fill="#0" id="circle5"/>
	<circle cx="85.3628" cy="176.114" r="4" fill="#0" id="circle6"/>
	<circle cx="85.3628" cy="329.451" r="4" fill="#0" id="circle7"/>
	<circle cx="110.397" cy="157.338" r="4" fill="#0" id="circle8"/>
	<circle cx="113.527" cy="345.098" r="4" fill="#0" id="circle9"/>
	<circle cx="141.691" cy="144.82" r="4" fill="#0" id="circle10"/>
	<circle cx="141.691" cy="360.744" r="4" fill="#0" id="circle11"/>
	<circle cx="172.984" cy="138.562" r="4" fill="#0" id="circle12"/>
	<circle cx="172.984" cy="367.003" r="4" fill="#0" id="circle13"/>
	<circle cx="204.278" cy="126.044" r="4" fill="#0" id="circle14"/>
	<circle cx="204.278" cy="379.521" r="4" fill="#0" id="circle15"/>
	<circle cx="235.571" cy="113.527" r="4" fill="#0" id="circle16"/>
	<circle cx="235.571" cy="392.038" r="4" fill="#0" id="circle17"/>
	<circle cx="266.864" cy="107.268" r="4" fill="#0" id="circle18"/>
	<circle cx="266.864" cy="398.297" r="4" fill="#0" id="circle19"/>
	<circle cx="282.511" cy="426.461" r="4" fill="#0" id="circle20"/>
	<circle cx="295.028" cy="457.754" r="4" fill="#0" id="circle21"/>
	<circle cx="298.158" cy="50.9401" r="4" fill="#0" id="circle22"/>
	<circle cx="298.158" cy="101.009" r="4" fill="#0" id="circle23"/>
	<circle cx="310.675" cy="485.918" r="4" fill="#0" id="circle24"/>
	<circle cx="329.451" cy="32.164" r="4" fill="#0" id="circle25"/>
	<circle cx="335.71" cy="504.694" r="4" fill="#0" id="circle26"/>
	<circle cx="345.098" cy="4" r="4" fill="#0" id="circle27"/>
	<circle cx="367.003" cy="504.694" r="4" fill="#0" id="circle28"/>
	<circle cx="376.391" cy="4" r="4" fill="#0" id="circle29"/>
	<circle cx="392.038" cy="485.918" r="4" fill="#0" id="circle30"/>
	<circle cx="407.685" cy="16.5174" r="4" fill="#0" id="circle31"/>
	<circle cx="420.202" cy="501.565" r="4" fill="#0" id="circle32"/>
	<circle cx="438.978" cy="22.776" r="4" fill="#0" id="circle33"/>
	<circle cx="451.495" cy="507.823" r="4" fill="#0" id="circle34"/>
	<circle cx="460.883" cy="392.038" r="4" fill="#0" id="circle35"/>
	<circle cx="470.271" cy="32.164" r="4" fill="#0" id="circle36"/>
	<circle cx="470.271" cy="423.331" r="4" fill="#0" id="circle37"/>
	<circle cx="476.53" cy="454.625" r="4" fill="#0" id="circle38"/>
	<circle cx="476.53" cy="485.918" r="4" fill="#0" id="circle39"/>
	<circle cx="492.177" cy="385.779" r="4" fill="#0" id="circle40"/>
	<circle cx="501.565" cy="44.6814" r="4" fill="#0" id="circle41"/>
	<circle cx="523.47" cy="385.779" r="4" fill="#0" id="circle42"/>
	<circle cx="532.858" cy="57.1987" r="4" fill="#0" id="circle43"/>
	<circle cx="554.763" cy="82.2334" r="4" fill="#0" id="circle44"/>
	<circle cx="554.763" cy="385.779" r="4" fill="#0" id="circle45"/>
	<circle cx="579.798" cy="104.139" r="4" fill="#0" id="circle46"/>
	<circle cx="586.057" cy="385.779" r="4" fill="#0" id="circle47"/>
	<circle cx="611.091" cy="94.7508" r="4" fill="#0" id="circle48"/>
	<circle cx="617.35" cy="379.521" r="4" fill="#0" id="circle49"/>
	<circle cx="642.385" cy="82.2334" r="4" fill="#0" id="circle50"/>
	<circle cx="648.644" cy="385.779" r="4" fill="#0" id="circle51"/>
	<circle cx="673.678" cy="75.9748" r="4" fill="#0" id="circle52"/>
	<circle cx="679.937" cy="398.297" r="4" fill="#0" id="circle53"/>
	<circle cx="704.972" cy="88.4921" r="4" fill="#0" id="circle54"/>
	<circle cx="711.23" cy="404.555" r="4" fill="#0" id="circle55"/>
	<circle cx="730.006" cy="110.397" r="4" fill="#0" id="circle56"/>
	<circle cx="742.524" cy="404.555" r="4" fill="#0" id="circle57"/>
	<circle cx="751.912" cy="135.432" r="4" fill="#0" id="circle58"/>
	<circle cx="767.558" cy="379.521" r="4" fill="#0" id="circle59"/>
	<circle cx="770.688" cy="160.467" r="4" fill="#0" id="circle60"/>
	<circle cx="780.076" cy="348.227" r="4" fill="#0" id="circle61"/>
	<circle cx="783.205" cy="301.287" r="4" fill="#0" id="circle62"/>
	<circle cx="789.464" cy="185.502" r="4" fill="#0" id="circle63"/>
	<circle cx="814.498" cy="298.158" r="4" fill="#0" id="circle64"/>
	<circle cx="820.757" cy="191.76" r="4" fill="#0" id="circle65"/>
	<circle cx="842.662" cy="313.804" r="4" fill="#0" id="circle66"/>
	<circle cx="848.921" cy="176.114" r="4" fill="#0" id="circle67"/>
	<circle cx="867.697" cy="332.58" r="4" fill="#0" id="circle68"/>
	<circle cx="880.215" cy="163.596" r="4" fill="#0" id="circle69"/>
	<circle cx="895.861" cy="348.227" r="4" fill="#0" id="circle70"/>
	<circle cx="908.379" cy="147.95" r="4" fill="#0" id="circle71"/>
	<circle cx="927.155" cy="360.744" r="4" fill="#0" id="circle72"/>
	<circle cx="936.543" cy="132.303" r="4" fill="#0" id="circle73"/>
	<circle cx="958.448" cy="373.262" r="4" fill="#0" id="circle74"/>
	<circle cx="967.836" cy="126.044" r="4" fill="#0" id="circle75"/>
	<circle cx="980.353" cy="248.088" r="4" fill="#0" id="circle76"/>
	<circle cx="983.483" cy="194.89" r="4" fill="#0" id="circle77"/>
	<circle cx="983.483" cy="279.382" r="4" fill="#0" id="circle78"/>
	<circle cx="989.741" cy="310.675" r="4" fill="#0" id="circle79"/>
	<circle cx="989.741" cy="370.132" r="4" fill="#0" id="circle80"/>
	<circle cx="996" cy="151.079" r="4" fill="#0" id="circle81"/>
	</g>
</svg>