<?xml version="1.0" encoding="UTF-8" standalone="no"?>
<!-- Created with CurveBenchmark -->
<svg
	xmlns:dc="http://purl.org/dc/elements/1.1/"
	xmlns:cc="http://creativecommons.org/ns#"
	xmlns:rdf="http://www.w3.org/1999/02/22-rdf-syntax-ns#"
	xmlns:svg="http://www.w3.org/2000/svg"
	xmlns="http://www.w3.org/2000/svg"
	xmlns:sodipodi="http://sodipodi.sourceforge.net/DTD/sodipodi-0.dtd"
	xmlns:inkscape="http://www.inkscape.org/namespaces/inkscape"
	width="1000"
	height="1000"
	id="svg2"
	version="1.1"
	sodipodi:docname="manifold/peel-sink065.png.txt">
<defs
	id="defs4" />
<metadata
	id="metadata7">
	<rdf:RDF>
		<cc:Work
			rdf:about="">
			<dc:format>image/svg+xml</dc:format>
			<dc:type
				rdf:resource="http://purl.org/dc/dcmitype/StillImage" />
			<dc:title></dc:title>
		</cc:Work>
	</rdf:RDF>
</metadata>
<g
	inkscape:label="Layer 1"
	inkscape:groupmode="layer"
	id="layer1">
	<path style="fill:none;stroke:red;stroke-width:1px;stroke-linecap:butt;stroke-linejoin:miter;stroke-opacity:1" d="M 43.0936,311.862 4,277.655 z" id="boundary" inkscape:connector-curvature="0" />
	<path style="fill:none;stroke:red;stroke-width:1px;stroke-linecap:butt;stroke-linejoin:miter;stroke-opacity:1" d="M 4,277.655 4,228.788 z" id="boundary" inkscape:connector-curvature="0" />
	<path style="fill:none;stroke:red;stroke-width:1px;stroke-linecap:butt;stroke-linejoin:miter;stroke-opacity:1" d="M 62.6404,160.374 13.7734,160.374 z" id="boundary" inkscape:connector-curvature="0" />
	<path style="fill:none;stroke:red;stroke-width:1px;stroke-linecap:butt;stroke-linejoin:miter;stroke-opacity:1" d="M 13.7734,160.374 4,228.788 z" id="boundary" inkscape:connector-curvature="0" />
	<path style="fill:none;stroke:red;stroke-width:1px;stroke-linecap:butt;stroke-linejoin:miter;stroke-opacity:1" d="M 91.9606,311.862 43.0936,311.862 z" id="boundary" inkscape:connector-curvature="0" />
	<path style="fill:none;stroke:red;stroke-width:1px;stroke-linecap:butt;stroke-linejoin:miter;stroke-opacity:1" d="M 111.507,160.374 62.6404,160.374 z" id="boundary" inkscape:connector-curvature="0" />
	<path style="fill:none;stroke:red;stroke-width:1px;stroke-linecap:butt;stroke-linejoin:miter;stroke-opacity:1" d="M 140.828,311.862 91.9606,311.862 z" id="boundary" inkscape:connector-curvature="0" />
	<path style="fill:none;stroke:red;stroke-width:1px;stroke-linecap:butt;stroke-linejoin:miter;stroke-opacity:1" d="M 160.374,160.374 111.507,160.374 z" id="boundary" inkscape:connector-curvature="0" />
	<path style="fill:none;stroke:red;stroke-width:1px;stroke-linecap:butt;stroke-linejoin:miter;stroke-opacity:1" d="M 219.015,350.956 243.448,394.936 z" id="boundary" inkscape:connector-curvature="0" />
	<path style="fill:none;stroke:red;stroke-width:1px;stroke-linecap:butt;stroke-linejoin:miter;stroke-opacity:1" d="M 189.695,311.862 140.828,311.862 z" id="boundary" inkscape:connector-curvature="0" />
	<path style="fill:none;stroke:red;stroke-width:1px;stroke-linecap:butt;stroke-linejoin:miter;stroke-opacity:1" d="M 209.241,170.148 160.374,160.374 z" id="boundary" inkscape:connector-curvature="0" />
	<path style="fill:none;stroke:red;stroke-width:1px;stroke-linecap:butt;stroke-linejoin:miter;stroke-opacity:1" d="M 219.015,350.956 189.695,311.862 z" id="boundary" inkscape:connector-curvature="0" />
	<path style="fill:none;stroke:red;stroke-width:1px;stroke-linecap:butt;stroke-linejoin:miter;stroke-opacity:1" d="M 209.241,170.148 238.562,131.054 z" id="boundary" inkscape:connector-curvature="0" />
	<path style="fill:none;stroke:red;stroke-width:1px;stroke-linecap:butt;stroke-linejoin:miter;stroke-opacity:1" d="M 238.562,131.054 238.562,82.1872 z" id="boundary" inkscape:connector-curvature="0" />
	<path style="fill:none;stroke:red;stroke-width:1px;stroke-linecap:butt;stroke-linejoin:miter;stroke-opacity:1" d="M 258.108,33.3202 238.562,82.1872 z" id="boundary" inkscape:connector-curvature="0" />
	<path style="fill:none;stroke:red;stroke-width:1px;stroke-linecap:butt;stroke-linejoin:miter;stroke-opacity:1" d="M 385.163,644.158 385.163,693.025 z" id="boundary" inkscape:connector-curvature="0" />
	<path style="fill:none;stroke:red;stroke-width:1px;stroke-linecap:butt;stroke-linejoin:miter;stroke-opacity:1" d="M 277.655,165.261 326.522,160.374 z" id="boundary" inkscape:connector-curvature="0" />
	<path style="fill:none;stroke:red;stroke-width:1px;stroke-linecap:butt;stroke-linejoin:miter;stroke-opacity:1" d="M 258.108,33.3202 297.202,4 z" id="boundary" inkscape:connector-curvature="0" />
	<path style="fill:none;stroke:red;stroke-width:1px;stroke-linecap:butt;stroke-linejoin:miter;stroke-opacity:1" d="M 326.522,160.374 375.389,160.374 z" id="boundary" inkscape:connector-curvature="0" />
	<path style="fill:none;stroke:red;stroke-width:1px;stroke-linecap:butt;stroke-linejoin:miter;stroke-opacity:1" d="M 282.542,429.143 243.448,394.936 z" id="boundary" inkscape:connector-curvature="0" />
	<path style="fill:none;stroke:red;stroke-width:1px;stroke-linecap:butt;stroke-linejoin:miter;stroke-opacity:1" d="M 297.202,4 341.182,28.4335 z" id="boundary" inkscape:connector-curvature="0" />
	<path style="fill:none;stroke:red;stroke-width:1px;stroke-linecap:butt;stroke-linejoin:miter;stroke-opacity:1" d="M 341.182,28.4335 375.389,67.5271 z" id="boundary" inkscape:connector-curvature="0" />
	<path style="fill:none;stroke:red;stroke-width:1px;stroke-linecap:butt;stroke-linejoin:miter;stroke-opacity:1" d="M 385.163,497.557 385.163,546.424 z" id="boundary" inkscape:connector-curvature="0" />
	<path style="fill:none;stroke:red;stroke-width:1px;stroke-linecap:butt;stroke-linejoin:miter;stroke-opacity:1" d="M 365.616,893.379 336.296,952.02 z" id="boundary" inkscape:connector-curvature="0" />
	<path style="fill:none;stroke:red;stroke-width:1px;stroke-linecap:butt;stroke-linejoin:miter;stroke-opacity:1" d="M 385.163,546.424 385.163,595.291 z" id="boundary" inkscape:connector-curvature="0" />
	<path style="fill:none;stroke:red;stroke-width:1px;stroke-linecap:butt;stroke-linejoin:miter;stroke-opacity:1" d="M 282.542,429.143 331.409,448.69 z" id="boundary" inkscape:connector-curvature="0" />
	<path style="fill:none;stroke:red;stroke-width:1px;stroke-linecap:butt;stroke-linejoin:miter;stroke-opacity:1" d="M 331.409,448.69 380.276,448.69 z" id="boundary" inkscape:connector-curvature="0" />
	<path style="fill:none;stroke:red;stroke-width:1px;stroke-linecap:butt;stroke-linejoin:miter;stroke-opacity:1" d="M 424.256,160.374 375.389,160.374 z" id="boundary" inkscape:connector-curvature="0" />
	<path style="fill:none;stroke:red;stroke-width:1px;stroke-linecap:butt;stroke-linejoin:miter;stroke-opacity:1" d="M 380.276,448.69 385.163,497.557 z" id="boundary" inkscape:connector-curvature="0" />
	<path style="fill:none;stroke:red;stroke-width:1px;stroke-linecap:butt;stroke-linejoin:miter;stroke-opacity:1" d="M 385.163,595.291 385.163,644.158 z" id="boundary" inkscape:connector-curvature="0" />
	<path style="fill:none;stroke:red;stroke-width:1px;stroke-linecap:butt;stroke-linejoin:miter;stroke-opacity:1" d="M 424.256,160.374 473.123,160.374 z" id="boundary" inkscape:connector-curvature="0" />
	<path style="fill:none;stroke:red;stroke-width:1px;stroke-linecap:butt;stroke-linejoin:miter;stroke-opacity:1" d="M 385.163,741.892 385.163,693.025 z" id="boundary" inkscape:connector-curvature="0" />
	<path style="fill:none;stroke:red;stroke-width:1px;stroke-linecap:butt;stroke-linejoin:miter;stroke-opacity:1" d="M 521.99,160.374 565.97,184.808 z" id="boundary" inkscape:connector-curvature="0" />
	<path style="fill:none;stroke:red;stroke-width:1px;stroke-linecap:butt;stroke-linejoin:miter;stroke-opacity:1" d="M 565.97,184.808 590.404,228.788 z" id="boundary" inkscape:connector-curvature="0" />
	<path style="fill:none;stroke:red;stroke-width:1px;stroke-linecap:butt;stroke-linejoin:miter;stroke-opacity:1" d="M 473.123,160.374 521.99,160.374 z" id="boundary" inkscape:connector-curvature="0" />
	<path style="fill:none;stroke:red;stroke-width:1px;stroke-linecap:butt;stroke-linejoin:miter;stroke-opacity:1" d="M 385.163,790.759 385.163,741.892 z" id="boundary" inkscape:connector-curvature="0" />
	<path style="fill:none;stroke:red;stroke-width:1px;stroke-linecap:butt;stroke-linejoin:miter;stroke-opacity:1" d="M 565.97,512.217 565.97,561.084 z" id="boundary" inkscape:connector-curvature="0" />
	<path style="fill:none;stroke:red;stroke-width:1px;stroke-linecap:butt;stroke-linejoin:miter;stroke-opacity:1" d="M 385.163,790.759 385.163,839.626 z" id="boundary" inkscape:connector-curvature="0" />
	<path style="fill:none;stroke:red;stroke-width:1px;stroke-linecap:butt;stroke-linejoin:miter;stroke-opacity:1" d="M 385.163,839.626 365.616,893.379 z" id="boundary" inkscape:connector-curvature="0" />
	<path style="fill:none;stroke:red;stroke-width:1px;stroke-linecap:butt;stroke-linejoin:miter;stroke-opacity:1" d="M 565.97,561.084 565.97,609.951 z" id="boundary" inkscape:connector-curvature="0" />
	<path style="fill:none;stroke:red;stroke-width:1px;stroke-linecap:butt;stroke-linejoin:miter;stroke-opacity:1" d="M 565.97,756.552 565.97,707.685 z" id="boundary" inkscape:connector-curvature="0" />
	<path style="fill:none;stroke:red;stroke-width:1px;stroke-linecap:butt;stroke-linejoin:miter;stroke-opacity:1" d="M 409.596,996 360.729,996 z" id="boundary" inkscape:connector-curvature="0" />
	<path style="fill:none;stroke:red;stroke-width:1px;stroke-linecap:butt;stroke-linejoin:miter;stroke-opacity:1" d="M 360.729,996 336.296,952.02 z" id="boundary" inkscape:connector-curvature="0" />
	<path style="fill:none;stroke:red;stroke-width:1px;stroke-linecap:butt;stroke-linejoin:miter;stroke-opacity:1" d="M 458.463,996 409.596,996 z" id="boundary" inkscape:connector-curvature="0" />
	<path style="fill:none;stroke:red;stroke-width:1px;stroke-linecap:butt;stroke-linejoin:miter;stroke-opacity:1" d="M 565.97,414.483 565.97,463.35 z" id="boundary" inkscape:connector-curvature="0" />
	<path style="fill:none;stroke:red;stroke-width:1px;stroke-linecap:butt;stroke-linejoin:miter;stroke-opacity:1" d="M 565.97,512.217 565.97,463.35 z" id="boundary" inkscape:connector-curvature="0" />
	<path style="fill:none;stroke:red;stroke-width:1px;stroke-linecap:butt;stroke-linejoin:miter;stroke-opacity:1" d="M 673.478,311.862 624.611,316.749 z" id="boundary" inkscape:connector-curvature="0" />
	<path style="fill:none;stroke:red;stroke-width:1px;stroke-linecap:butt;stroke-linejoin:miter;stroke-opacity:1" d="M 565.97,658.818 565.97,609.951 z" id="boundary" inkscape:connector-curvature="0" />
	<path style="fill:none;stroke:red;stroke-width:1px;stroke-linecap:butt;stroke-linejoin:miter;stroke-opacity:1" d="M 565.97,414.483 595.291,375.389 z" id="boundary" inkscape:connector-curvature="0" />
	<path style="fill:none;stroke:red;stroke-width:1px;stroke-linecap:butt;stroke-linejoin:miter;stroke-opacity:1" d="M 565.97,707.685 565.97,658.818 z" id="boundary" inkscape:connector-curvature="0" />
	<path style="fill:none;stroke:red;stroke-width:1px;stroke-linecap:butt;stroke-linejoin:miter;stroke-opacity:1" d="M 673.478,311.862 722.345,311.862 z" id="boundary" inkscape:connector-curvature="0" />
	<path style="fill:none;stroke:red;stroke-width:1px;stroke-linecap:butt;stroke-linejoin:miter;stroke-opacity:1" d="M 565.97,805.419 565.97,756.552 z" id="boundary" inkscape:connector-curvature="0" />
	<path style="fill:none;stroke:red;stroke-width:1px;stroke-linecap:butt;stroke-linejoin:miter;stroke-opacity:1" d="M 565.97,854.286 565.97,805.419 z" id="boundary" inkscape:connector-curvature="0" />
	<path style="fill:none;stroke:red;stroke-width:1px;stroke-linecap:butt;stroke-linejoin:miter;stroke-opacity:1" d="M 458.463,996 507.33,996 z" id="boundary" inkscape:connector-curvature="0" />
	<path style="fill:none;stroke:red;stroke-width:1px;stroke-linecap:butt;stroke-linejoin:miter;stroke-opacity:1" d="M 565.97,854.286 585.517,903.153 z" id="boundary" inkscape:connector-curvature="0" />
	<path style="fill:none;stroke:red;stroke-width:1px;stroke-linecap:butt;stroke-linejoin:miter;stroke-opacity:1" d="M 556.197,996 507.33,996 z" id="boundary" inkscape:connector-curvature="0" />
	<path style="fill:none;stroke:red;stroke-width:1px;stroke-linecap:butt;stroke-linejoin:miter;stroke-opacity:1" d="M 609.951,947.133 585.517,903.153 z" id="boundary" inkscape:connector-curvature="0" />
	<path style="fill:none;stroke:red;stroke-width:1px;stroke-linecap:butt;stroke-linejoin:miter;stroke-opacity:1" d="M 722.345,311.862 771.212,311.862 z" id="boundary" inkscape:connector-curvature="0" />
	<path style="fill:none;stroke:red;stroke-width:1px;stroke-linecap:butt;stroke-linejoin:miter;stroke-opacity:1" d="M 629.498,258.108 590.404,228.788 z" id="boundary" inkscape:connector-curvature="0" />
	<path style="fill:none;stroke:red;stroke-width:1px;stroke-linecap:butt;stroke-linejoin:miter;stroke-opacity:1" d="M 609.951,947.133 605.064,996 z" id="boundary" inkscape:connector-curvature="0" />
	<path style="fill:none;stroke:red;stroke-width:1px;stroke-linecap:butt;stroke-linejoin:miter;stroke-opacity:1" d="M 605.064,996 556.197,996 z" id="boundary" inkscape:connector-curvature="0" />
	<path style="fill:none;stroke:red;stroke-width:1px;stroke-linecap:butt;stroke-linejoin:miter;stroke-opacity:1" d="M 678.365,258.108 629.498,258.108 z" id="boundary" inkscape:connector-curvature="0" />
	<path style="fill:none;stroke:red;stroke-width:1px;stroke-linecap:butt;stroke-linejoin:miter;stroke-opacity:1" d="M 727.232,258.108 678.365,258.108 z" id="boundary" inkscape:connector-curvature="0" />
	<path style="fill:none;stroke:red;stroke-width:1px;stroke-linecap:butt;stroke-linejoin:miter;stroke-opacity:1" d="M 776.099,258.108 771.212,311.862 z" id="boundary" inkscape:connector-curvature="0" />
	<path style="fill:none;stroke:red;stroke-width:1px;stroke-linecap:butt;stroke-linejoin:miter;stroke-opacity:1" d="M 776.099,258.108 727.232,258.108 z" id="boundary" inkscape:connector-curvature="0" />
	<circle cx="4" cy="228.788" r="4" fill="#0" id="circle0"/>
	<circle cx="4" cy="277.655" r="4" fill="#0" id="circle1"/>
	<circle cx="13.7734" cy="160.374" r="4" fill="#0" id="circle2"/>
	<circle cx="43.0936" cy="311.862" r="4" fill="#0" id="circle3"/>
	<circle cx="62.6404" cy="160.374" r="4" fill="#0" id="circle4"/>
	<circle cx="91.9606" cy="311.862" r="4" fill="#0" id="circle5"/>
	<circle cx="111.507" cy="160.374" r="4" fill="#0" id="circle6"/>
	<circle cx="140.828" cy="311.862" r="4" fill="#0" id="circle7"/>
	<circle cx="160.374" cy="160.374" r="4" fill="#0" id="circle8"/>
	<circle cx="189.695" cy="311.862" r="4" fill="#0" id="circle9"/>
	<circle cx="209.241" cy="170.148" r="4" fill="#0" id="circle10"/>
	<circle cx="219.015" cy="350.956" r="4" fill="#0" id="circle11"/>
	<circle cx="238.562" cy="82.1872" r="4" fill="#0" id="circle12"/>
	<circle cx="238.562" cy="131.054" r="4" fill="#0" id="circle13"/>
	<circle cx="243.448" cy="394.936" r="4" fill="#0" id="circle14"/>
	<circle cx="258.108" cy="33.3202" r="4" fill="#0" id="circle15"/>
	<circle cx="277.655" cy="165.261" r="4" fill="#0" id="circle16"/>
	<circle cx="282.542" cy="429.143" r="4" fill="#0" id="circle17"/>
	<circle cx="297.202" cy="4" r="4" fill="#0" id="circle18"/>
	<circle cx="326.522" cy="160.374" r="4" fill="#0" id="circle19"/>
	<circle cx="331.409" cy="448.69" r="4" fill="#0" id="circle20"/>
	<circle cx="336.296" cy="952.02" r="4" fill="#0" id="circle21"/>
	<circle cx="341.182" cy="28.4335" r="4" fill="#0" id="circle22"/>
	<circle cx="360.729" cy="996" r="4" fill="#0" id="circle23"/>
	<circle cx="365.616" cy="893.379" r="4" fill="#0" id="circle24"/>
	<circle cx="375.389" cy="67.5271" r="4" fill="#0" id="circle25"/>
	<circle cx="375.389" cy="160.374" r="4" fill="#0" id="circle26"/>
	<circle cx="380.276" cy="448.69" r="4" fill="#0" id="circle27"/>
	<circle cx="385.163" cy="497.557" r="4" fill="#0" id="circle28"/>
	<circle cx="385.163" cy="546.424" r="4" fill="#0" id="circle29"/>
	<circle cx="385.163" cy="595.291" r="4" fill="#0" id="circle30"/>
	<circle cx="385.163" cy="644.158" r="4" fill="#0" id="circle31"/>
	<circle cx="385.163" cy="693.025" r="4" fill="#0" id="circle32"/>
	<circle cx="385.163" cy="741.892" r="4" fill="#0" id="circle33"/>
	<circle cx="385.163" cy="790.759" r="4" fill="#0" id="circle34"/>
	<circle cx="385.163" cy="839.626" r="4" fill="#0" id="circle35"/>
	<circle cx="409.596" cy="996" r="4" fill="#0" id="circle36"/>
	<circle cx="424.256" cy="160.374" r="4" fill="#0" id="circle37"/>
	<circle cx="458.463" cy="996" r="4" fill="#0" id="circle38"/>
	<circle cx="473.123" cy="160.374" r="4" fill="#0" id="circle39"/>
	<circle cx="507.33" cy="996" r="4" fill="#0" id="circle40"/>
	<circle cx="521.99" cy="160.374" r="4" fill="#0" id="circle41"/>
	<circle cx="556.197" cy="996" r="4" fill="#0" id="circle42"/>
	<circle cx="565.97" cy="184.808" r="4" fill="#0" id="circle43"/>
	<circle cx="565.97" cy="414.483" r="4" fill="#0" id="circle44"/>
	<circle cx="565.97" cy="463.35" r="4" fill="#0" id="circle45"/>
	<circle cx="565.97" cy="512.217" r="4" fill="#0" id="circle46"/>
	<circle cx="565.97" cy="561.084" r="4" fill="#0" id="circle47"/>
	<circle cx="565.97" cy="609.951" r="4" fill="#0" id="circle48"/>
	<circle cx="565.97" cy="658.818" r="4" fill="#0" id="circle49"/>
	<circle cx="565.97" cy="707.685" r="4" fill="#0" id="circle50"/>
	<circle cx="565.97" cy="756.552" r="4" fill="#0" id="circle51"/>
	<circle cx="565.97" cy="805.419" r="4" fill="#0" id="circle52"/>
	<circle cx="565.97" cy="854.286" r="4" fill="#0" id="circle53"/>
	<circle cx="585.517" cy="903.153" r="4" fill="#0" id="circle54"/>
	<circle cx="590.404" cy="228.788" r="4" fill="#0" id="circle55"/>
	<circle cx="595.291" cy="375.389" r="4" fill="#0" id="circle56"/>
	<circle cx="605.064" cy="996" r="4" fill="#0" id="circle57"/>
	<circle cx="609.951" cy="947.133" r="4" fill="#0" id="circle58"/>
	<circle cx="624.611" cy="316.749" r="4" fill="#0" id="circle59"/>
	<circle cx="629.498" cy="258.108" r="4" fill="#0" id="circle60"/>
	<circle cx="673.478" cy="311.862" r="4" fill="#0" id="circle61"/>
	<circle cx="678.365" cy="258.108" r="4" fill="#0" id="circle62"/>
	<circle cx="722.345" cy="311.862" r="4" fill="#0" id="circle63"/>
	<circle cx="727.232" cy="258.108" r="4" fill="#0" id="circle64"/>
	<circle cx="771.212" cy="311.862" r="4" fill="#0" id="circle65"/>
	<circle cx="776.099" cy="258.108" r="4" fill="#0" id="circle66"/>
	</g>
</svg>