<?xml version="1.0" encoding="UTF-8" standalone="no"?>
<!-- Created with CurveBenchmark -->
<svg
	xmlns:dc="http://purl.org/dc/elements/1.1/"
	xmlns:cc="http://creativecommons.org/ns#"
	xmlns:rdf="http://www.w3.org/1999/02/22-rdf-syntax-ns#"
	xmlns:svg="http://www.w3.org/2000/svg"
	xmlns="http://www.w3.org/2000/svg"
	xmlns:sodipodi="http://sodipodi.sourceforge.net/DTD/sodipodi-0.dtd"
	xmlns:inkscape="http://www.inkscape.org/namespaces/inkscape"
	width="1000"
	height="1000"
	id="svg2"
	version="1.1"
	sodipodi:docname="manifold/peel-television230.png.txt">
<defs
	id="defs4" />
<metadata
	id="metadata7">
	<rdf:RDF>
		<cc:Work
			rdf:about="">
			<dc:format>image/svg+xml</dc:format>
			<dc:type
				rdf:resource="http://purl.org/dc/dcmitype/StillImage" />
			<dc:title></dc:title>
		</cc:Work>
	</rdf:RDF>
</metadata>
<g
	inkscape:label="Layer 1"
	inkscape:groupmode="layer"
	id="layer1">
	<path style="fill:none;stroke:red;stroke-width:1px;stroke-linecap:butt;stroke-linejoin:miter;stroke-opacity:1" d="M 4,923.228 4,884.927 z" id="boundary" inkscape:connector-curvature="0" />
	<path style="fill:none;stroke:red;stroke-width:1px;stroke-linecap:butt;stroke-linejoin:miter;stroke-opacity:1" d="M 4,884.927 42.3012,877.266 z" id="boundary" inkscape:connector-curvature="0" />
	<path style="fill:none;stroke:red;stroke-width:1px;stroke-linecap:butt;stroke-linejoin:miter;stroke-opacity:1" d="M 61.4517,957.699 23.1506,957.699 z" id="boundary" inkscape:connector-curvature="0" />
	<path style="fill:none;stroke:red;stroke-width:1px;stroke-linecap:butt;stroke-linejoin:miter;stroke-opacity:1" d="M 42.3012,877.266 72.9421,900.247 z" id="boundary" inkscape:connector-curvature="0" />
	<path style="fill:none;stroke:red;stroke-width:1px;stroke-linecap:butt;stroke-linejoin:miter;stroke-opacity:1" d="M 4,923.228 23.1506,957.699 z" id="boundary" inkscape:connector-curvature="0" />
	<path style="fill:none;stroke:red;stroke-width:1px;stroke-linecap:butt;stroke-linejoin:miter;stroke-opacity:1" d="M 99.7529,957.699 61.4517,957.699 z" id="boundary" inkscape:connector-curvature="0" />
	<path style="fill:none;stroke:red;stroke-width:1px;stroke-linecap:butt;stroke-linejoin:miter;stroke-opacity:1" d="M 138.054,957.699 99.7529,957.699 z" id="boundary" inkscape:connector-curvature="0" />
	<path style="fill:none;stroke:red;stroke-width:1px;stroke-linecap:butt;stroke-linejoin:miter;stroke-opacity:1" d="M 72.9421,900.247 103.583,877.266 z" id="boundary" inkscape:connector-curvature="0" />
	<path style="fill:none;stroke:red;stroke-width:1px;stroke-linecap:butt;stroke-linejoin:miter;stroke-opacity:1" d="M 103.583,877.266 134.224,900.247 z" id="boundary" inkscape:connector-curvature="0" />
	<path style="fill:none;stroke:red;stroke-width:1px;stroke-linecap:butt;stroke-linejoin:miter;stroke-opacity:1" d="M 157.205,796.834 126.564,770.023 z" id="boundary" inkscape:connector-curvature="0" />
	<path style="fill:none;stroke:red;stroke-width:1px;stroke-linecap:butt;stroke-linejoin:miter;stroke-opacity:1" d="M 134.224,900.247 164.865,877.266 z" id="boundary" inkscape:connector-curvature="0" />
	<path style="fill:none;stroke:red;stroke-width:1px;stroke-linecap:butt;stroke-linejoin:miter;stroke-opacity:1" d="M 164.865,877.266 195.506,900.247 z" id="boundary" inkscape:connector-curvature="0" />
	<path style="fill:none;stroke:red;stroke-width:1px;stroke-linecap:butt;stroke-linejoin:miter;stroke-opacity:1" d="M 161.035,674.27 126.564,655.12 z" id="boundary" inkscape:connector-curvature="0" />
	<path style="fill:none;stroke:red;stroke-width:1px;stroke-linecap:butt;stroke-linejoin:miter;stroke-opacity:1" d="M 138.054,957.699 176.355,957.699 z" id="boundary" inkscape:connector-curvature="0" />
	<path style="fill:none;stroke:red;stroke-width:1px;stroke-linecap:butt;stroke-linejoin:miter;stroke-opacity:1" d="M 176.355,957.699 214.656,957.699 z" id="boundary" inkscape:connector-curvature="0" />
	<path style="fill:none;stroke:red;stroke-width:1px;stroke-linecap:butt;stroke-linejoin:miter;stroke-opacity:1" d="M 157.205,796.834 195.506,796.834 z" id="boundary" inkscape:connector-curvature="0" />
	<path style="fill:none;stroke:red;stroke-width:1px;stroke-linecap:butt;stroke-linejoin:miter;stroke-opacity:1" d="M 187.846,88.2625 187.846,126.564 z" id="boundary" inkscape:connector-curvature="0" />
	<path style="fill:none;stroke:red;stroke-width:1px;stroke-linecap:butt;stroke-linejoin:miter;stroke-opacity:1" d="M 218.486,639.799 180.185,639.799 z" id="boundary" inkscape:connector-curvature="0" />
	<path style="fill:none;stroke:red;stroke-width:1px;stroke-linecap:butt;stroke-linejoin:miter;stroke-opacity:1" d="M 161.035,674.27 199.336,674.27 z" id="boundary" inkscape:connector-curvature="0" />
	<path style="fill:none;stroke:red;stroke-width:1px;stroke-linecap:butt;stroke-linejoin:miter;stroke-opacity:1" d="M 187.846,88.2625 187.846,49.9614 z" id="boundary" inkscape:connector-curvature="0" />
	<path style="fill:none;stroke:red;stroke-width:1px;stroke-linecap:butt;stroke-linejoin:miter;stroke-opacity:1" d="M 187.846,49.9614 187.846,11.6602 z" id="boundary" inkscape:connector-curvature="0" />
	<path style="fill:none;stroke:red;stroke-width:1px;stroke-linecap:butt;stroke-linejoin:miter;stroke-opacity:1" d="M 187.846,126.564 187.846,164.865 z" id="boundary" inkscape:connector-curvature="0" />
	<path style="fill:none;stroke:red;stroke-width:1px;stroke-linecap:butt;stroke-linejoin:miter;stroke-opacity:1" d="M 187.846,164.865 187.846,203.166 z" id="boundary" inkscape:connector-curvature="0" />
	<path style="fill:none;stroke:red;stroke-width:1px;stroke-linecap:butt;stroke-linejoin:miter;stroke-opacity:1" d="M 187.846,11.6602 226.147,4 z" id="boundary" inkscape:connector-curvature="0" />
	<path style="fill:none;stroke:red;stroke-width:1px;stroke-linecap:butt;stroke-linejoin:miter;stroke-opacity:1" d="M 187.846,203.166 187.846,241.467 z" id="boundary" inkscape:connector-curvature="0" />
	<path style="fill:none;stroke:red;stroke-width:1px;stroke-linecap:butt;stroke-linejoin:miter;stroke-opacity:1" d="M 264.448,4 226.147,4 z" id="boundary" inkscape:connector-curvature="0" />
	<path style="fill:none;stroke:red;stroke-width:1px;stroke-linecap:butt;stroke-linejoin:miter;stroke-opacity:1" d="M 187.846,241.467 187.846,279.768 z" id="boundary" inkscape:connector-curvature="0" />
	<path style="fill:none;stroke:red;stroke-width:1px;stroke-linecap:butt;stroke-linejoin:miter;stroke-opacity:1" d="M 187.846,279.768 187.846,318.069 z" id="boundary" inkscape:connector-curvature="0" />
	<path style="fill:none;stroke:red;stroke-width:1px;stroke-linecap:butt;stroke-linejoin:miter;stroke-opacity:1" d="M 264.448,4 302.749,4 z" id="boundary" inkscape:connector-curvature="0" />
	<path style="fill:none;stroke:red;stroke-width:1px;stroke-linecap:butt;stroke-linejoin:miter;stroke-opacity:1" d="M 187.846,356.371 187.846,318.069 z" id="boundary" inkscape:connector-curvature="0" />
	<path style="fill:none;stroke:red;stroke-width:1px;stroke-linecap:butt;stroke-linejoin:miter;stroke-opacity:1" d="M 302.749,4 341.05,4 z" id="boundary" inkscape:connector-curvature="0" />
	<path style="fill:none;stroke:red;stroke-width:1px;stroke-linecap:butt;stroke-linejoin:miter;stroke-opacity:1" d="M 187.846,394.672 187.846,356.371 z" id="boundary" inkscape:connector-curvature="0" />
	<path style="fill:none;stroke:red;stroke-width:1px;stroke-linecap:butt;stroke-linejoin:miter;stroke-opacity:1" d="M 187.846,432.973 187.846,394.672 z" id="boundary" inkscape:connector-curvature="0" />
	<path style="fill:none;stroke:red;stroke-width:1px;stroke-linecap:butt;stroke-linejoin:miter;stroke-opacity:1" d="M 379.351,4 341.05,4 z" id="boundary" inkscape:connector-curvature="0" />
	<path style="fill:none;stroke:red;stroke-width:1px;stroke-linecap:butt;stroke-linejoin:miter;stroke-opacity:1" d="M 187.846,471.274 187.846,432.973 z" id="boundary" inkscape:connector-curvature="0" />
	<path style="fill:none;stroke:red;stroke-width:1px;stroke-linecap:butt;stroke-linejoin:miter;stroke-opacity:1" d="M 191.676,509.575 187.846,471.274 z" id="boundary" inkscape:connector-curvature="0" />
	<path style="fill:none;stroke:red;stroke-width:1px;stroke-linecap:butt;stroke-linejoin:miter;stroke-opacity:1" d="M 191.676,509.575 229.977,513.405 z" id="boundary" inkscape:connector-curvature="0" />
	<path style="fill:none;stroke:red;stroke-width:1px;stroke-linecap:butt;stroke-linejoin:miter;stroke-opacity:1" d="M 214.656,762.363 176.355,762.363 z" id="boundary" inkscape:connector-curvature="0" />
	<path style="fill:none;stroke:red;stroke-width:1px;stroke-linecap:butt;stroke-linejoin:miter;stroke-opacity:1" d="M 233.807,796.834 272.108,796.834 z" id="boundary" inkscape:connector-curvature="0" />
	<path style="fill:none;stroke:red;stroke-width:1px;stroke-linecap:butt;stroke-linejoin:miter;stroke-opacity:1" d="M 195.506,796.834 233.807,796.834 z" id="boundary" inkscape:connector-curvature="0" />
	<path style="fill:none;stroke:red;stroke-width:1px;stroke-linecap:butt;stroke-linejoin:miter;stroke-opacity:1" d="M 195.506,900.247 226.147,877.266 z" id="boundary" inkscape:connector-curvature="0" />
	<path style="fill:none;stroke:red;stroke-width:1px;stroke-linecap:butt;stroke-linejoin:miter;stroke-opacity:1" d="M 226.147,877.266 256.788,900.247 z" id="boundary" inkscape:connector-curvature="0" />
	<path style="fill:none;stroke:red;stroke-width:1px;stroke-linecap:butt;stroke-linejoin:miter;stroke-opacity:1" d="M 199.336,674.27 237.637,674.27 z" id="boundary" inkscape:connector-curvature="0" />
	<path style="fill:none;stroke:red;stroke-width:1px;stroke-linecap:butt;stroke-linejoin:miter;stroke-opacity:1" d="M 218.486,639.799 256.788,639.799 z" id="boundary" inkscape:connector-curvature="0" />
	<path style="fill:none;stroke:red;stroke-width:1px;stroke-linecap:butt;stroke-linejoin:miter;stroke-opacity:1" d="M 252.958,957.699 291.259,961.529 z" id="boundary" inkscape:connector-curvature="0" />
	<path style="fill:none;stroke:red;stroke-width:1px;stroke-linecap:butt;stroke-linejoin:miter;stroke-opacity:1" d="M 252.958,957.699 214.656,957.699 z" id="boundary" inkscape:connector-curvature="0" />
	<path style="fill:none;stroke:red;stroke-width:1px;stroke-linecap:butt;stroke-linejoin:miter;stroke-opacity:1" d="M 214.656,762.363 252.958,762.363 z" id="boundary" inkscape:connector-curvature="0" />
	<path style="fill:none;stroke:red;stroke-width:1px;stroke-linecap:butt;stroke-linejoin:miter;stroke-opacity:1" d="M 256.788,900.247 287.429,877.266 z" id="boundary" inkscape:connector-curvature="0" />
	<path style="fill:none;stroke:red;stroke-width:1px;stroke-linecap:butt;stroke-linejoin:miter;stroke-opacity:1" d="M 295.089,639.799 256.788,639.799 z" id="boundary" inkscape:connector-curvature="0" />
	<path style="fill:none;stroke:red;stroke-width:1px;stroke-linecap:butt;stroke-linejoin:miter;stroke-opacity:1" d="M 237.637,674.27 275.938,674.27 z" id="boundary" inkscape:connector-curvature="0" />
	<path style="fill:none;stroke:red;stroke-width:1px;stroke-linecap:butt;stroke-linejoin:miter;stroke-opacity:1" d="M 268.278,513.405 229.977,513.405 z" id="boundary" inkscape:connector-curvature="0" />
	<path style="fill:none;stroke:red;stroke-width:1px;stroke-linecap:butt;stroke-linejoin:miter;stroke-opacity:1" d="M 379.351,4 417.653,4 z" id="boundary" inkscape:connector-curvature="0" />
	<path style="fill:none;stroke:red;stroke-width:1px;stroke-linecap:butt;stroke-linejoin:miter;stroke-opacity:1" d="M 252.958,762.363 291.259,762.363 z" id="boundary" inkscape:connector-curvature="0" />
	<path style="fill:none;stroke:red;stroke-width:1px;stroke-linecap:butt;stroke-linejoin:miter;stroke-opacity:1" d="M 272.108,796.834 310.409,796.834 z" id="boundary" inkscape:connector-curvature="0" />
	<path style="fill:none;stroke:red;stroke-width:1px;stroke-linecap:butt;stroke-linejoin:miter;stroke-opacity:1" d="M 306.579,513.405 268.278,513.405 z" id="boundary" inkscape:connector-curvature="0" />
	<path style="fill:none;stroke:red;stroke-width:1px;stroke-linecap:butt;stroke-linejoin:miter;stroke-opacity:1" d="M 341.05,532.556 341.05,570.857 z" id="boundary" inkscape:connector-curvature="0" />
	<path style="fill:none;stroke:red;stroke-width:1px;stroke-linecap:butt;stroke-linejoin:miter;stroke-opacity:1" d="M 341.05,532.556 306.579,513.405 z" id="boundary" inkscape:connector-curvature="0" />
	<path style="fill:none;stroke:red;stroke-width:1px;stroke-linecap:butt;stroke-linejoin:miter;stroke-opacity:1" d="M 275.938,674.27 314.239,674.27 z" id="boundary" inkscape:connector-curvature="0" />
	<path style="fill:none;stroke:red;stroke-width:1px;stroke-linecap:butt;stroke-linejoin:miter;stroke-opacity:1" d="M 287.429,877.266 325.73,877.266 z" id="boundary" inkscape:connector-curvature="0" />
	<path style="fill:none;stroke:red;stroke-width:1px;stroke-linecap:butt;stroke-linejoin:miter;stroke-opacity:1" d="M 291.259,961.529 329.56,957.699 z" id="boundary" inkscape:connector-curvature="0" />
	<path style="fill:none;stroke:red;stroke-width:1px;stroke-linecap:butt;stroke-linejoin:miter;stroke-opacity:1" d="M 341.05,819.815 310.409,796.834 z" id="boundary" inkscape:connector-curvature="0" />
	<path style="fill:none;stroke:red;stroke-width:1px;stroke-linecap:butt;stroke-linejoin:miter;stroke-opacity:1" d="M 341.05,704.911 314.239,674.27 z" id="boundary" inkscape:connector-curvature="0" />
	<path style="fill:none;stroke:red;stroke-width:1px;stroke-linecap:butt;stroke-linejoin:miter;stroke-opacity:1" d="M 329.56,957.699 367.861,957.699 z" id="boundary" inkscape:connector-curvature="0" />
	<path style="fill:none;stroke:red;stroke-width:1px;stroke-linecap:butt;stroke-linejoin:miter;stroke-opacity:1" d="M 291.259,762.363 329.56,762.363 z" id="boundary" inkscape:connector-curvature="0" />
	<path style="fill:none;stroke:red;stroke-width:1px;stroke-linecap:butt;stroke-linejoin:miter;stroke-opacity:1" d="M 333.39,639.799 295.089,639.799 z" id="boundary" inkscape:connector-curvature="0" />
	<path style="fill:none;stroke:red;stroke-width:1px;stroke-linecap:butt;stroke-linejoin:miter;stroke-opacity:1" d="M 341.05,570.857 333.39,639.799 z" id="boundary" inkscape:connector-curvature="0" />
	<path style="fill:none;stroke:red;stroke-width:1px;stroke-linecap:butt;stroke-linejoin:miter;stroke-opacity:1" d="M 367.861,957.699 406.162,957.699 z" id="boundary" inkscape:connector-curvature="0" />
	<path style="fill:none;stroke:red;stroke-width:1px;stroke-linecap:butt;stroke-linejoin:miter;stroke-opacity:1" d="M 406.162,957.699 444.463,957.699 z" id="boundary" inkscape:connector-curvature="0" />
	<path style="fill:none;stroke:red;stroke-width:1px;stroke-linecap:butt;stroke-linejoin:miter;stroke-opacity:1" d="M 329.56,762.363 341.05,704.911 z" id="boundary" inkscape:connector-curvature="0" />
	<path style="fill:none;stroke:red;stroke-width:1px;stroke-linecap:butt;stroke-linejoin:miter;stroke-opacity:1" d="M 417.653,4 455.954,4 z" id="boundary" inkscape:connector-curvature="0" />
	<path style="fill:none;stroke:red;stroke-width:1px;stroke-linecap:butt;stroke-linejoin:miter;stroke-opacity:1" d="M 325.73,877.266 341.05,819.815 z" id="boundary" inkscape:connector-curvature="0" />
	<path style="fill:none;stroke:red;stroke-width:1px;stroke-linecap:butt;stroke-linejoin:miter;stroke-opacity:1" d="M 528.726,555.537 528.726,517.236 z" id="boundary" inkscape:connector-curvature="0" />
	<path style="fill:none;stroke:red;stroke-width:1px;stroke-linecap:butt;stroke-linejoin:miter;stroke-opacity:1" d="M 528.726,555.537 528.726,593.838 z" id="boundary" inkscape:connector-curvature="0" />
	<path style="fill:none;stroke:red;stroke-width:1px;stroke-linecap:butt;stroke-linejoin:miter;stroke-opacity:1" d="M 444.463,957.699 482.764,957.699 z" id="boundary" inkscape:connector-curvature="0" />
	<path style="fill:none;stroke:red;stroke-width:1px;stroke-linecap:butt;stroke-linejoin:miter;stroke-opacity:1" d="M 482.764,957.699 521.066,957.699 z" id="boundary" inkscape:connector-curvature="0" />
	<path style="fill:none;stroke:red;stroke-width:1px;stroke-linecap:butt;stroke-linejoin:miter;stroke-opacity:1" d="M 494.255,4 455.954,4 z" id="boundary" inkscape:connector-curvature="0" />
	<path style="fill:none;stroke:red;stroke-width:1px;stroke-linecap:butt;stroke-linejoin:miter;stroke-opacity:1" d="M 521.066,957.699 559.367,957.699 z" id="boundary" inkscape:connector-curvature="0" />
	<path style="fill:none;stroke:red;stroke-width:1px;stroke-linecap:butt;stroke-linejoin:miter;stroke-opacity:1" d="M 528.726,593.838 528.726,632.139 z" id="boundary" inkscape:connector-curvature="0" />
	<path style="fill:none;stroke:red;stroke-width:1px;stroke-linecap:butt;stroke-linejoin:miter;stroke-opacity:1" d="M 532.556,4 494.255,4 z" id="boundary" inkscape:connector-curvature="0" />
	<path style="fill:none;stroke:red;stroke-width:1px;stroke-linecap:butt;stroke-linejoin:miter;stroke-opacity:1" d="M 528.726,678.1 528.726,716.402 z" id="boundary" inkscape:connector-curvature="0" />
	<path style="fill:none;stroke:red;stroke-width:1px;stroke-linecap:butt;stroke-linejoin:miter;stroke-opacity:1" d="M 567.027,513.405 528.726,517.236 z" id="boundary" inkscape:connector-curvature="0" />
	<path style="fill:none;stroke:red;stroke-width:1px;stroke-linecap:butt;stroke-linejoin:miter;stroke-opacity:1" d="M 528.726,716.402 528.726,754.703 z" id="boundary" inkscape:connector-curvature="0" />
	<path style="fill:none;stroke:red;stroke-width:1px;stroke-linecap:butt;stroke-linejoin:miter;stroke-opacity:1" d="M 567.027,513.405 605.328,513.405 z" id="boundary" inkscape:connector-curvature="0" />
	<path style="fill:none;stroke:red;stroke-width:1px;stroke-linecap:butt;stroke-linejoin:miter;stroke-opacity:1" d="M 528.726,800.664 528.726,838.965 z" id="boundary" inkscape:connector-curvature="0" />
	<path style="fill:none;stroke:red;stroke-width:1px;stroke-linecap:butt;stroke-linejoin:miter;stroke-opacity:1" d="M 528.726,632.139 567.027,639.799 z" id="boundary" inkscape:connector-curvature="0" />
	<path style="fill:none;stroke:red;stroke-width:1px;stroke-linecap:butt;stroke-linejoin:miter;stroke-opacity:1" d="M 532.556,877.266 528.726,838.965 z" id="boundary" inkscape:connector-curvature="0" />
	<path style="fill:none;stroke:red;stroke-width:1px;stroke-linecap:butt;stroke-linejoin:miter;stroke-opacity:1" d="M 559.367,957.699 597.668,957.699 z" id="boundary" inkscape:connector-curvature="0" />
	<path style="fill:none;stroke:red;stroke-width:1px;stroke-linecap:butt;stroke-linejoin:miter;stroke-opacity:1" d="M 567.027,762.363 528.726,754.703 z" id="boundary" inkscape:connector-curvature="0" />
	<path style="fill:none;stroke:red;stroke-width:1px;stroke-linecap:butt;stroke-linejoin:miter;stroke-opacity:1" d="M 532.556,877.266 570.857,877.266 z" id="boundary" inkscape:connector-curvature="0" />
	<path style="fill:none;stroke:red;stroke-width:1px;stroke-linecap:butt;stroke-linejoin:miter;stroke-opacity:1" d="M 570.857,877.266 609.158,877.266 z" id="boundary" inkscape:connector-curvature="0" />
	<path style="fill:none;stroke:red;stroke-width:1px;stroke-linecap:butt;stroke-linejoin:miter;stroke-opacity:1" d="M 796.834,176.355 796.834,214.656 z" id="boundary" inkscape:connector-curvature="0" />
	<path style="fill:none;stroke:red;stroke-width:1px;stroke-linecap:butt;stroke-linejoin:miter;stroke-opacity:1" d="M 796.834,214.656 796.834,252.958 z" id="boundary" inkscape:connector-curvature="0" />
	<path style="fill:none;stroke:red;stroke-width:1px;stroke-linecap:butt;stroke-linejoin:miter;stroke-opacity:1" d="M 597.668,957.699 635.969,957.699 z" id="boundary" inkscape:connector-curvature="0" />
	<path style="fill:none;stroke:red;stroke-width:1px;stroke-linecap:butt;stroke-linejoin:miter;stroke-opacity:1" d="M 567.027,762.363 605.328,762.363 z" id="boundary" inkscape:connector-curvature="0" />
	<path style="fill:none;stroke:red;stroke-width:1px;stroke-linecap:butt;stroke-linejoin:miter;stroke-opacity:1" d="M 605.328,639.799 567.027,639.799 z" id="boundary" inkscape:connector-curvature="0" />
	<path style="fill:none;stroke:red;stroke-width:1px;stroke-linecap:butt;stroke-linejoin:miter;stroke-opacity:1" d="M 624.479,674.27 586.178,674.27 z" id="boundary" inkscape:connector-curvature="0" />
	<path style="fill:none;stroke:red;stroke-width:1px;stroke-linecap:butt;stroke-linejoin:miter;stroke-opacity:1" d="M 609.158,877.266 647.459,877.266 z" id="boundary" inkscape:connector-curvature="0" />
	<path style="fill:none;stroke:red;stroke-width:1px;stroke-linecap:butt;stroke-linejoin:miter;stroke-opacity:1" d="M 796.834,138.054 796.834,176.355 z" id="boundary" inkscape:connector-curvature="0" />
	<path style="fill:none;stroke:red;stroke-width:1px;stroke-linecap:butt;stroke-linejoin:miter;stroke-opacity:1" d="M 586.178,796.834 624.479,796.834 z" id="boundary" inkscape:connector-curvature="0" />
	<path style="fill:none;stroke:red;stroke-width:1px;stroke-linecap:butt;stroke-linejoin:miter;stroke-opacity:1" d="M 605.328,513.405 643.629,513.405 z" id="boundary" inkscape:connector-curvature="0" />
	<path style="fill:none;stroke:red;stroke-width:1px;stroke-linecap:butt;stroke-linejoin:miter;stroke-opacity:1" d="M 647.459,4 609.158,4 z" id="boundary" inkscape:connector-curvature="0" />
	<path style="fill:none;stroke:red;stroke-width:1px;stroke-linecap:butt;stroke-linejoin:miter;stroke-opacity:1" d="M 635.969,957.699 674.27,957.699 z" id="boundary" inkscape:connector-curvature="0" />
	<path style="fill:none;stroke:red;stroke-width:1px;stroke-linecap:butt;stroke-linejoin:miter;stroke-opacity:1" d="M 674.27,957.699 712.571,973.019 z" id="boundary" inkscape:connector-curvature="0" />
	<path style="fill:none;stroke:red;stroke-width:1px;stroke-linecap:butt;stroke-linejoin:miter;stroke-opacity:1" d="M 605.328,762.363 643.629,762.363 z" id="boundary" inkscape:connector-curvature="0" />
	<path style="fill:none;stroke:red;stroke-width:1px;stroke-linecap:butt;stroke-linejoin:miter;stroke-opacity:1" d="M 643.629,639.799 605.328,639.799 z" id="boundary" inkscape:connector-curvature="0" />
	<path style="fill:none;stroke:red;stroke-width:1px;stroke-linecap:butt;stroke-linejoin:miter;stroke-opacity:1" d="M 662.78,674.27 624.479,674.27 z" id="boundary" inkscape:connector-curvature="0" />
	<path style="fill:none;stroke:red;stroke-width:1px;stroke-linecap:butt;stroke-linejoin:miter;stroke-opacity:1" d="M 647.459,877.266 685.761,877.266 z" id="boundary" inkscape:connector-curvature="0" />
	<path style="fill:none;stroke:red;stroke-width:1px;stroke-linecap:butt;stroke-linejoin:miter;stroke-opacity:1" d="M 796.834,99.7529 796.834,138.054 z" id="boundary" inkscape:connector-curvature="0" />
	<path style="fill:none;stroke:red;stroke-width:1px;stroke-linecap:butt;stroke-linejoin:miter;stroke-opacity:1" d="M 624.479,796.834 662.78,796.834 z" id="boundary" inkscape:connector-curvature="0" />
	<path style="fill:none;stroke:red;stroke-width:1px;stroke-linecap:butt;stroke-linejoin:miter;stroke-opacity:1" d="M 643.629,513.405 681.931,513.405 z" id="boundary" inkscape:connector-curvature="0" />
	<path style="fill:none;stroke:red;stroke-width:1px;stroke-linecap:butt;stroke-linejoin:miter;stroke-opacity:1" d="M 685.761,4 647.459,4 z" id="boundary" inkscape:connector-curvature="0" />
	<path style="fill:none;stroke:red;stroke-width:1px;stroke-linecap:butt;stroke-linejoin:miter;stroke-opacity:1" d="M 643.629,762.363 681.931,762.363 z" id="boundary" inkscape:connector-curvature="0" />
	<path style="fill:none;stroke:red;stroke-width:1px;stroke-linecap:butt;stroke-linejoin:miter;stroke-opacity:1" d="M 681.931,639.799 643.629,639.799 z" id="boundary" inkscape:connector-curvature="0" />
	<path style="fill:none;stroke:red;stroke-width:1px;stroke-linecap:butt;stroke-linejoin:miter;stroke-opacity:1" d="M 701.081,674.27 662.78,674.27 z" id="boundary" inkscape:connector-curvature="0" />
	<path style="fill:none;stroke:red;stroke-width:1px;stroke-linecap:butt;stroke-linejoin:miter;stroke-opacity:1" d="M 739.382,796.834 701.081,796.834 z" id="boundary" inkscape:connector-curvature="0" />
	<path style="fill:none;stroke:red;stroke-width:1px;stroke-linecap:butt;stroke-linejoin:miter;stroke-opacity:1" d="M 796.834,61.4517 796.834,99.7529 z" id="boundary" inkscape:connector-curvature="0" />
	<path style="fill:none;stroke:red;stroke-width:1px;stroke-linecap:butt;stroke-linejoin:miter;stroke-opacity:1" d="M 662.78,796.834 701.081,796.834 z" id="boundary" inkscape:connector-curvature="0" />
	<path style="fill:none;stroke:red;stroke-width:1px;stroke-linecap:butt;stroke-linejoin:miter;stroke-opacity:1" d="M 681.931,513.405 720.232,513.405 z" id="boundary" inkscape:connector-curvature="0" />
	<path style="fill:none;stroke:red;stroke-width:1px;stroke-linecap:butt;stroke-linejoin:miter;stroke-opacity:1" d="M 724.062,4 685.761,4 z" id="boundary" inkscape:connector-curvature="0" />
	<path style="fill:none;stroke:red;stroke-width:1px;stroke-linecap:butt;stroke-linejoin:miter;stroke-opacity:1" d="M 681.931,762.363 720.232,762.363 z" id="boundary" inkscape:connector-curvature="0" />
	<path style="fill:none;stroke:red;stroke-width:1px;stroke-linecap:butt;stroke-linejoin:miter;stroke-opacity:1" d="M 720.232,639.799 681.931,639.799 z" id="boundary" inkscape:connector-curvature="0" />
	<path style="fill:none;stroke:red;stroke-width:1px;stroke-linecap:butt;stroke-linejoin:miter;stroke-opacity:1" d="M 685.761,877.266 724.062,877.266 z" id="boundary" inkscape:connector-curvature="0" />
	<path style="fill:none;stroke:red;stroke-width:1px;stroke-linecap:butt;stroke-linejoin:miter;stroke-opacity:1" d="M 739.382,674.27 701.081,674.27 z" id="boundary" inkscape:connector-curvature="0" />
	<path style="fill:none;stroke:red;stroke-width:1px;stroke-linecap:butt;stroke-linejoin:miter;stroke-opacity:1" d="M 777.683,796.834 739.382,796.834 z" id="boundary" inkscape:connector-curvature="0" />
	<path style="fill:none;stroke:red;stroke-width:1px;stroke-linecap:butt;stroke-linejoin:miter;stroke-opacity:1" d="M 609.158,4 570.857,4 z" id="boundary" inkscape:connector-curvature="0" />
	<path style="fill:none;stroke:red;stroke-width:1px;stroke-linecap:butt;stroke-linejoin:miter;stroke-opacity:1" d="M 720.232,513.405 758.533,513.405 z" id="boundary" inkscape:connector-curvature="0" />
	<path style="fill:none;stroke:red;stroke-width:1px;stroke-linecap:butt;stroke-linejoin:miter;stroke-opacity:1" d="M 762.363,4 724.062,4 z" id="boundary" inkscape:connector-curvature="0" />
	<path style="fill:none;stroke:red;stroke-width:1px;stroke-linecap:butt;stroke-linejoin:miter;stroke-opacity:1" d="M 750.873,957.699 789.174,957.699 z" id="boundary" inkscape:connector-curvature="0" />
	<path style="fill:none;stroke:red;stroke-width:1px;stroke-linecap:butt;stroke-linejoin:miter;stroke-opacity:1" d="M 750.873,957.699 712.571,973.019 z" id="boundary" inkscape:connector-curvature="0" />
	<path style="fill:none;stroke:red;stroke-width:1px;stroke-linecap:butt;stroke-linejoin:miter;stroke-opacity:1" d="M 720.232,762.363 758.533,762.363 z" id="boundary" inkscape:connector-curvature="0" />
	<path style="fill:none;stroke:red;stroke-width:1px;stroke-linecap:butt;stroke-linejoin:miter;stroke-opacity:1" d="M 758.533,639.799 720.232,639.799 z" id="boundary" inkscape:connector-curvature="0" />
	<path style="fill:none;stroke:red;stroke-width:1px;stroke-linecap:butt;stroke-linejoin:miter;stroke-opacity:1" d="M 724.062,877.266 754.703,900.247 z" id="boundary" inkscape:connector-curvature="0" />
	<path style="fill:none;stroke:red;stroke-width:1px;stroke-linecap:butt;stroke-linejoin:miter;stroke-opacity:1" d="M 777.683,674.27 739.382,674.27 z" id="boundary" inkscape:connector-curvature="0" />
	<path style="fill:none;stroke:red;stroke-width:1px;stroke-linecap:butt;stroke-linejoin:miter;stroke-opacity:1" d="M 758.533,762.363 796.834,762.363 z" id="boundary" inkscape:connector-curvature="0" />
	<path style="fill:none;stroke:red;stroke-width:1px;stroke-linecap:butt;stroke-linejoin:miter;stroke-opacity:1" d="M 789.174,957.699 827.475,957.699 z" id="boundary" inkscape:connector-curvature="0" />
	<path style="fill:none;stroke:red;stroke-width:1px;stroke-linecap:butt;stroke-linejoin:miter;stroke-opacity:1" d="M 532.556,4 570.857,4 z" id="boundary" inkscape:connector-curvature="0" />
	<path style="fill:none;stroke:red;stroke-width:1px;stroke-linecap:butt;stroke-linejoin:miter;stroke-opacity:1" d="M 758.533,513.405 796.834,482.764 z" id="boundary" inkscape:connector-curvature="0" />
	<path style="fill:none;stroke:red;stroke-width:1px;stroke-linecap:butt;stroke-linejoin:miter;stroke-opacity:1" d="M 796.834,61.4517 796.834,23.1506 z" id="boundary" inkscape:connector-curvature="0" />
	<path style="fill:none;stroke:red;stroke-width:1px;stroke-linecap:butt;stroke-linejoin:miter;stroke-opacity:1" d="M 796.834,23.1506 762.363,4 z" id="boundary" inkscape:connector-curvature="0" />
	<path style="fill:none;stroke:red;stroke-width:1px;stroke-linecap:butt;stroke-linejoin:miter;stroke-opacity:1" d="M 827.475,957.699 865.776,957.699 z" id="boundary" inkscape:connector-curvature="0" />
	<path style="fill:none;stroke:red;stroke-width:1px;stroke-linecap:butt;stroke-linejoin:miter;stroke-opacity:1" d="M 754.703,900.247 785.344,877.266 z" id="boundary" inkscape:connector-curvature="0" />
	<path style="fill:none;stroke:red;stroke-width:1px;stroke-linecap:butt;stroke-linejoin:miter;stroke-opacity:1" d="M 785.344,877.266 815.985,900.247 z" id="boundary" inkscape:connector-curvature="0" />
	<path style="fill:none;stroke:red;stroke-width:1px;stroke-linecap:butt;stroke-linejoin:miter;stroke-opacity:1" d="M 815.985,674.27 777.683,674.27 z" id="boundary" inkscape:connector-curvature="0" />
	<path style="fill:none;stroke:red;stroke-width:1px;stroke-linecap:butt;stroke-linejoin:miter;stroke-opacity:1" d="M 796.834,291.259 796.834,252.958 z" id="boundary" inkscape:connector-curvature="0" />
	<path style="fill:none;stroke:red;stroke-width:1px;stroke-linecap:butt;stroke-linejoin:miter;stroke-opacity:1" d="M 796.834,329.56 796.834,291.259 z" id="boundary" inkscape:connector-curvature="0" />
	<path style="fill:none;stroke:red;stroke-width:1px;stroke-linecap:butt;stroke-linejoin:miter;stroke-opacity:1" d="M 796.834,329.56 796.834,367.861 z" id="boundary" inkscape:connector-curvature="0" />
	<path style="fill:none;stroke:red;stroke-width:1px;stroke-linecap:butt;stroke-linejoin:miter;stroke-opacity:1" d="M 796.834,406.162 796.834,367.861 z" id="boundary" inkscape:connector-curvature="0" />
	<path style="fill:none;stroke:red;stroke-width:1px;stroke-linecap:butt;stroke-linejoin:miter;stroke-opacity:1" d="M 796.834,444.463 796.834,406.162 z" id="boundary" inkscape:connector-curvature="0" />
	<path style="fill:none;stroke:red;stroke-width:1px;stroke-linecap:butt;stroke-linejoin:miter;stroke-opacity:1" d="M 796.834,444.463 796.834,482.764 z" id="boundary" inkscape:connector-curvature="0" />
	<path style="fill:none;stroke:red;stroke-width:1px;stroke-linecap:butt;stroke-linejoin:miter;stroke-opacity:1" d="M 758.533,639.799 796.834,639.799 z" id="boundary" inkscape:connector-curvature="0" />
	<path style="fill:none;stroke:red;stroke-width:1px;stroke-linecap:butt;stroke-linejoin:miter;stroke-opacity:1" d="M 815.985,796.834 777.683,796.834 z" id="boundary" inkscape:connector-curvature="0" />
	<path style="fill:none;stroke:red;stroke-width:1px;stroke-linecap:butt;stroke-linejoin:miter;stroke-opacity:1" d="M 796.834,639.799 835.135,639.799 z" id="boundary" inkscape:connector-curvature="0" />
	<path style="fill:none;stroke:red;stroke-width:1px;stroke-linecap:butt;stroke-linejoin:miter;stroke-opacity:1" d="M 796.834,762.363 835.135,762.363 z" id="boundary" inkscape:connector-curvature="0" />
	<path style="fill:none;stroke:red;stroke-width:1px;stroke-linecap:butt;stroke-linejoin:miter;stroke-opacity:1" d="M 854.286,674.27 815.985,674.27 z" id="boundary" inkscape:connector-curvature="0" />
	<path style="fill:none;stroke:red;stroke-width:1px;stroke-linecap:butt;stroke-linejoin:miter;stroke-opacity:1" d="M 854.286,796.834 815.985,796.834 z" id="boundary" inkscape:connector-curvature="0" />
	<path style="fill:none;stroke:red;stroke-width:1px;stroke-linecap:butt;stroke-linejoin:miter;stroke-opacity:1" d="M 815.985,900.247 846.625,877.266 z" id="boundary" inkscape:connector-curvature="0" />
	<path style="fill:none;stroke:red;stroke-width:1px;stroke-linecap:butt;stroke-linejoin:miter;stroke-opacity:1" d="M 865.776,957.699 904.077,957.699 z" id="boundary" inkscape:connector-curvature="0" />
	<path style="fill:none;stroke:red;stroke-width:1px;stroke-linecap:butt;stroke-linejoin:miter;stroke-opacity:1" d="M 904.077,957.699 942.378,973.019 z" id="boundary" inkscape:connector-curvature="0" />
	<path style="fill:none;stroke:red;stroke-width:1px;stroke-linecap:butt;stroke-linejoin:miter;stroke-opacity:1" d="M 846.625,877.266 877.266,900.247 z" id="boundary" inkscape:connector-curvature="0" />
	<path style="fill:none;stroke:red;stroke-width:1px;stroke-linecap:butt;stroke-linejoin:miter;stroke-opacity:1" d="M 835.135,762.363 873.436,762.363 z" id="boundary" inkscape:connector-curvature="0" />
	<path style="fill:none;stroke:red;stroke-width:1px;stroke-linecap:butt;stroke-linejoin:miter;stroke-opacity:1" d="M 835.135,639.799 873.436,639.799 z" id="boundary" inkscape:connector-curvature="0" />
	<path style="fill:none;stroke:red;stroke-width:1px;stroke-linecap:butt;stroke-linejoin:miter;stroke-opacity:1" d="M 854.286,796.834 892.587,796.834 z" id="boundary" inkscape:connector-curvature="0" />
	<path style="fill:none;stroke:red;stroke-width:1px;stroke-linecap:butt;stroke-linejoin:miter;stroke-opacity:1" d="M 892.587,674.27 854.286,674.27 z" id="boundary" inkscape:connector-curvature="0" />
	<path style="fill:none;stroke:red;stroke-width:1px;stroke-linecap:butt;stroke-linejoin:miter;stroke-opacity:1" d="M 873.436,762.363 911.737,762.363 z" id="boundary" inkscape:connector-curvature="0" />
	<path style="fill:none;stroke:red;stroke-width:1px;stroke-linecap:butt;stroke-linejoin:miter;stroke-opacity:1" d="M 873.436,639.799 911.737,639.799 z" id="boundary" inkscape:connector-curvature="0" />
	<path style="fill:none;stroke:red;stroke-width:1px;stroke-linecap:butt;stroke-linejoin:miter;stroke-opacity:1" d="M 892.587,796.834 930.888,796.834 z" id="boundary" inkscape:connector-curvature="0" />
	<path style="fill:none;stroke:red;stroke-width:1px;stroke-linecap:butt;stroke-linejoin:miter;stroke-opacity:1" d="M 877.266,900.247 907.907,877.266 z" id="boundary" inkscape:connector-curvature="0" />
	<path style="fill:none;stroke:red;stroke-width:1px;stroke-linecap:butt;stroke-linejoin:miter;stroke-opacity:1" d="M 930.888,674.27 892.587,674.27 z" id="boundary" inkscape:connector-curvature="0" />
	<path style="fill:none;stroke:red;stroke-width:1px;stroke-linecap:butt;stroke-linejoin:miter;stroke-opacity:1" d="M 911.737,762.363 950.039,762.363 z" id="boundary" inkscape:connector-curvature="0" />
	<path style="fill:none;stroke:red;stroke-width:1px;stroke-linecap:butt;stroke-linejoin:miter;stroke-opacity:1" d="M 911.737,639.799 950.039,639.799 z" id="boundary" inkscape:connector-curvature="0" />
	<path style="fill:none;stroke:red;stroke-width:1px;stroke-linecap:butt;stroke-linejoin:miter;stroke-opacity:1" d="M 907.907,877.266 946.208,877.266 z" id="boundary" inkscape:connector-curvature="0" />
	<path style="fill:none;stroke:red;stroke-width:1px;stroke-linecap:butt;stroke-linejoin:miter;stroke-opacity:1" d="M 980.68,957.699 942.378,973.019 z" id="boundary" inkscape:connector-curvature="0" />
	<path style="fill:none;stroke:red;stroke-width:1px;stroke-linecap:butt;stroke-linejoin:miter;stroke-opacity:1" d="M 946.208,877.266 984.51,877.266 z" id="boundary" inkscape:connector-curvature="0" />
	<path style="fill:none;stroke:red;stroke-width:1px;stroke-linecap:butt;stroke-linejoin:miter;stroke-opacity:1" d="M 984.51,877.266 996,915.568 z" id="boundary" inkscape:connector-curvature="0" />
	<path style="fill:none;stroke:red;stroke-width:1px;stroke-linecap:butt;stroke-linejoin:miter;stroke-opacity:1" d="M 996,915.568 980.68,957.699 z" id="boundary" inkscape:connector-curvature="0" />
	<circle cx="4" cy="884.927" r="4" fill="#0" id="circle0"/>
	<circle cx="4" cy="923.228" r="4" fill="#0" id="circle1"/>
	<circle cx="23.1506" cy="957.699" r="4" fill="#0" id="circle2"/>
	<circle cx="42.3012" cy="877.266" r="4" fill="#0" id="circle3"/>
	<circle cx="61.4517" cy="957.699" r="4" fill="#0" id="circle4"/>
	<circle cx="72.9421" cy="900.247" r="4" fill="#0" id="circle5"/>
	<circle cx="99.7529" cy="957.699" r="4" fill="#0" id="circle6"/>
	<circle cx="103.583" cy="877.266" r="4" fill="#0" id="circle7"/>
	<circle cx="126.564" cy="655.12" r="4" fill="#0" id="circle8"/>
	<circle cx="126.564" cy="770.023" r="4" fill="#0" id="circle9"/>
	<circle cx="134.224" cy="900.247" r="4" fill="#0" id="circle10"/>
	<circle cx="138.054" cy="957.699" r="4" fill="#0" id="circle11"/>
	<circle cx="157.205" cy="796.834" r="4" fill="#0" id="circle12"/>
	<circle cx="161.035" cy="674.27" r="4" fill="#0" id="circle13"/>
	<circle cx="164.865" cy="877.266" r="4" fill="#0" id="circle14"/>
	<circle cx="176.355" cy="762.363" r="4" fill="#0" id="circle15"/>
	<circle cx="176.355" cy="957.699" r="4" fill="#0" id="circle16"/>
	<circle cx="180.185" cy="639.799" r="4" fill="#0" id="circle17"/>
	<circle cx="187.846" cy="11.6602" r="4" fill="#0" id="circle18"/>
	<circle cx="187.846" cy="49.9614" r="4" fill="#0" id="circle19"/>
	<circle cx="187.846" cy="88.2625" r="4" fill="#0" id="circle20"/>
	<circle cx="187.846" cy="126.564" r="4" fill="#0" id="circle21"/>
	<circle cx="187.846" cy="164.865" r="4" fill="#0" id="circle22"/>
	<circle cx="187.846" cy="203.166" r="4" fill="#0" id="circle23"/>
	<circle cx="187.846" cy="241.467" r="4" fill="#0" id="circle24"/>
	<circle cx="187.846" cy="279.768" r="4" fill="#0" id="circle25"/>
	<circle cx="187.846" cy="318.069" r="4" fill="#0" id="circle26"/>
	<circle cx="187.846" cy="356.371" r="4" fill="#0" id="circle27"/>
	<circle cx="187.846" cy="394.672" r="4" fill="#0" id="circle28"/>
	<circle cx="187.846" cy="432.973" r="4" fill="#0" id="circle29"/>
	<circle cx="187.846" cy="471.274" r="4" fill="#0" id="circle30"/>
	<circle cx="191.676" cy="509.575" r="4" fill="#0" id="circle31"/>
	<circle cx="195.506" cy="796.834" r="4" fill="#0" id="circle32"/>
	<circle cx="195.506" cy="900.247" r="4" fill="#0" id="circle33"/>
	<circle cx="199.336" cy="674.27" r="4" fill="#0" id="circle34"/>
	<circle cx="214.656" cy="762.363" r="4" fill="#0" id="circle35"/>
	<circle cx="214.656" cy="957.699" r="4" fill="#0" id="circle36"/>
	<circle cx="218.486" cy="639.799" r="4" fill="#0" id="circle37"/>
	<circle cx="226.147" cy="4" r="4" fill="#0" id="circle38"/>
	<circle cx="226.147" cy="877.266" r="4" fill="#0" id="circle39"/>
	<circle cx="229.977" cy="513.405" r="4" fill="#0" id="circle40"/>
	<circle cx="233.807" cy="796.834" r="4" fill="#0" id="circle41"/>
	<circle cx="237.637" cy="674.27" r="4" fill="#0" id="circle42"/>
	<circle cx="252.958" cy="762.363" r="4" fill="#0" id="circle43"/>
	<circle cx="252.958" cy="957.699" r="4" fill="#0" id="circle44"/>
	<circle cx="256.788" cy="639.799" r="4" fill="#0" id="circle45"/>
	<circle cx="256.788" cy="900.247" r="4" fill="#0" id="circle46"/>
	<circle cx="264.448" cy="4" r="4" fill="#0" id="circle47"/>
	<circle cx="268.278" cy="513.405" r="4" fill="#0" id="circle48"/>
	<circle cx="272.108" cy="796.834" r="4" fill="#0" id="circle49"/>
	<circle cx="275.938" cy="674.27" r="4" fill="#0" id="circle50"/>
	<circle cx="287.429" cy="877.266" r="4" fill="#0" id="circle51"/>
	<circle cx="291.259" cy="762.363" r="4" fill="#0" id="circle52"/>
	<circle cx="291.259" cy="961.529" r="4" fill="#0" id="circle53"/>
	<circle cx="295.089" cy="639.799" r="4" fill="#0" id="circle54"/>
	<circle cx="302.749" cy="4" r="4" fill="#0" id="circle55"/>
	<circle cx="306.579" cy="513.405" r="4" fill="#0" id="circle56"/>
	<circle cx="310.409" cy="796.834" r="4" fill="#0" id="circle57"/>
	<circle cx="314.239" cy="674.27" r="4" fill="#0" id="circle58"/>
	<circle cx="325.73" cy="877.266" r="4" fill="#0" id="circle59"/>
	<circle cx="329.56" cy="762.363" r="4" fill="#0" id="circle60"/>
	<circle cx="329.56" cy="957.699" r="4" fill="#0" id="circle61"/>
	<circle cx="333.39" cy="639.799" r="4" fill="#0" id="circle62"/>
	<circle cx="341.05" cy="4" r="4" fill="#0" id="circle63"/>
	<circle cx="341.05" cy="532.556" r="4" fill="#0" id="circle64"/>
	<circle cx="341.05" cy="570.857" r="4" fill="#0" id="circle65"/>
	<circle cx="341.05" cy="704.911" r="4" fill="#0" id="circle66"/>
	<circle cx="341.05" cy="819.815" r="4" fill="#0" id="circle67"/>
	<circle cx="367.861" cy="957.699" r="4" fill="#0" id="circle68"/>
	<circle cx="379.351" cy="4" r="4" fill="#0" id="circle69"/>
	<circle cx="406.162" cy="957.699" r="4" fill="#0" id="circle70"/>
	<circle cx="417.653" cy="4" r="4" fill="#0" id="circle71"/>
	<circle cx="444.463" cy="957.699" r="4" fill="#0" id="circle72"/>
	<circle cx="455.954" cy="4" r="4" fill="#0" id="circle73"/>
	<circle cx="482.764" cy="957.699" r="4" fill="#0" id="circle74"/>
	<circle cx="494.255" cy="4" r="4" fill="#0" id="circle75"/>
	<circle cx="521.066" cy="957.699" r="4" fill="#0" id="circle76"/>
	<circle cx="528.726" cy="517.236" r="4" fill="#0" id="circle77"/>
	<circle cx="528.726" cy="555.537" r="4" fill="#0" id="circle78"/>
	<circle cx="528.726" cy="593.838" r="4" fill="#0" id="circle79"/>
	<circle cx="528.726" cy="632.139" r="4" fill="#0" id="circle80"/>
	<circle cx="528.726" cy="678.1" r="4" fill="#0" id="circle81"/>
	<circle cx="528.726" cy="716.402" r="4" fill="#0" id="circle82"/>
	<circle cx="528.726" cy="754.703" r="4" fill="#0" id="circle83"/>
	<circle cx="528.726" cy="800.664" r="4" fill="#0" id="circle84"/>
	<circle cx="528.726" cy="838.965" r="4" fill="#0" id="circle85"/>
	<circle cx="532.556" cy="4" r="4" fill="#0" id="circle86"/>
	<circle cx="532.556" cy="877.266" r="4" fill="#0" id="circle87"/>
	<circle cx="559.367" cy="957.699" r="4" fill="#0" id="circle88"/>
	<circle cx="567.027" cy="513.405" r="4" fill="#0" id="circle89"/>
	<circle cx="567.027" cy="639.799" r="4" fill="#0" id="circle90"/>
	<circle cx="567.027" cy="762.363" r="4" fill="#0" id="circle91"/>
	<circle cx="570.857" cy="4" r="4" fill="#0" id="circle92"/>
	<circle cx="570.857" cy="877.266" r="4" fill="#0" id="circle93"/>
	<circle cx="586.178" cy="674.27" r="4" fill="#0" id="circle94"/>
	<circle cx="586.178" cy="796.834" r="4" fill="#0" id="circle95"/>
	<circle cx="597.668" cy="957.699" r="4" fill="#0" id="circle96"/>
	<circle cx="605.328" cy="513.405" r="4" fill="#0" id="circle97"/>
	<circle cx="605.328" cy="639.799" r="4" fill="#0" id="circle98"/>
	<circle cx="605.328" cy="762.363" r="4" fill="#0" id="circle99"/>
	<circle cx="609.158" cy="4" r="4" fill="#0" id="circle100"/>
	<circle cx="609.158" cy="877.266" r="4" fill="#0" id="circle101"/>
	<circle cx="624.479" cy="674.27" r="4" fill="#0" id="circle102"/>
	<circle cx="624.479" cy="796.834" r="4" fill="#0" id="circle103"/>
	<circle cx="635.969" cy="957.699" r="4" fill="#0" id="circle104"/>
	<circle cx="643.629" cy="513.405" r="4" fill="#0" id="circle105"/>
	<circle cx="643.629" cy="639.799" r="4" fill="#0" id="circle106"/>
	<circle cx="643.629" cy="762.363" r="4" fill="#0" id="circle107"/>
	<circle cx="647.459" cy="4" r="4" fill="#0" id="circle108"/>
	<circle cx="647.459" cy="877.266" r="4" fill="#0" id="circle109"/>
	<circle cx="662.78" cy="674.27" r="4" fill="#0" id="circle110"/>
	<circle cx="662.78" cy="796.834" r="4" fill="#0" id="circle111"/>
	<circle cx="674.27" cy="957.699" r="4" fill="#0" id="circle112"/>
	<circle cx="681.931" cy="513.405" r="4" fill="#0" id="circle113"/>
	<circle cx="681.931" cy="639.799" r="4" fill="#0" id="circle114"/>
	<circle cx="681.931" cy="762.363" r="4" fill="#0" id="circle115"/>
	<circle cx="685.761" cy="4" r="4" fill="#0" id="circle116"/>
	<circle cx="685.761" cy="877.266" r="4" fill="#0" id="circle117"/>
	<circle cx="701.081" cy="674.27" r="4" fill="#0" id="circle118"/>
	<circle cx="701.081" cy="796.834" r="4" fill="#0" id="circle119"/>
	<circle cx="712.571" cy="973.019" r="4" fill="#0" id="circle120"/>
	<circle cx="720.232" cy="513.405" r="4" fill="#0" id="circle121"/>
	<circle cx="720.232" cy="639.799" r="4" fill="#0" id="circle122"/>
	<circle cx="720.232" cy="762.363" r="4" fill="#0" id="circle123"/>
	<circle cx="724.062" cy="4" r="4" fill="#0" id="circle124"/>
	<circle cx="724.062" cy="877.266" r="4" fill="#0" id="circle125"/>
	<circle cx="739.382" cy="674.27" r="4" fill="#0" id="circle126"/>
	<circle cx="739.382" cy="796.834" r="4" fill="#0" id="circle127"/>
	<circle cx="750.873" cy="957.699" r="4" fill="#0" id="circle128"/>
	<circle cx="754.703" cy="900.247" r="4" fill="#0" id="circle129"/>
	<circle cx="758.533" cy="513.405" r="4" fill="#0" id="circle130"/>
	<circle cx="758.533" cy="639.799" r="4" fill="#0" id="circle131"/>
	<circle cx="758.533" cy="762.363" r="4" fill="#0" id="circle132"/>
	<circle cx="762.363" cy="4" r="4" fill="#0" id="circle133"/>
	<circle cx="777.683" cy="674.27" r="4" fill="#0" id="circle134"/>
	<circle cx="777.683" cy="796.834" r="4" fill="#0" id="circle135"/>
	<circle cx="785.344" cy="877.266" r="4" fill="#0" id="circle136"/>
	<circle cx="789.174" cy="957.699" r="4" fill="#0" id="circle137"/>
	<circle cx="796.834" cy="23.1506" r="4" fill="#0" id="circle138"/>
	<circle cx="796.834" cy="61.4517" r="4" fill="#0" id="circle139"/>
	<circle cx="796.834" cy="99.7529" r="4" fill="#0" id="circle140"/>
	<circle cx="796.834" cy="138.054" r="4" fill="#0" id="circle141"/>
	<circle cx="796.834" cy="176.355" r="4" fill="#0" id="circle142"/>
	<circle cx="796.834" cy="214.656" r="4" fill="#0" id="circle143"/>
	<circle cx="796.834" cy="252.958" r="4" fill="#0" id="circle144"/>
	<circle cx="796.834" cy="291.259" r="4" fill="#0" id="circle145"/>
	<circle cx="796.834" cy="329.56" r="4" fill="#0" id="circle146"/>
	<circle cx="796.834" cy="367.861" r="4" fill="#0" id="circle147"/>
	<circle cx="796.834" cy="406.162" r="4" fill="#0" id="circle148"/>
	<circle cx="796.834" cy="444.463" r="4" fill="#0" id="circle149"/>
	<circle cx="796.834" cy="482.764" r="4" fill="#0" id="circle150"/>
	<circle cx="796.834" cy="639.799" r="4" fill="#0" id="circle151"/>
	<circle cx="796.834" cy="762.363" r="4" fill="#0" id="circle152"/>
	<circle cx="815.985" cy="674.27" r="4" fill="#0" id="circle153"/>
	<circle cx="815.985" cy="796.834" r="4" fill="#0" id="circle154"/>
	<circle cx="815.985" cy="900.247" r="4" fill="#0" id="circle155"/>
	<circle cx="827.475" cy="957.699" r="4" fill="#0" id="circle156"/>
	<circle cx="835.135" cy="639.799" r="4" fill="#0" id="circle157"/>
	<circle cx="835.135" cy="762.363" r="4" fill="#0" id="circle158"/>
	<circle cx="846.625" cy="877.266" r="4" fill="#0" id="circle159"/>
	<circle cx="854.286" cy="674.27" r="4" fill="#0" id="circle160"/>
	<circle cx="854.286" cy="796.834" r="4" fill="#0" id="circle161"/>
	<circle cx="865.776" cy="957.699" r="4" fill="#0" id="circle162"/>
	<circle cx="873.436" cy="639.799" r="4" fill="#0" id="circle163"/>
	<circle cx="873.436" cy="762.363" r="4" fill="#0" id="circle164"/>
	<circle cx="877.266" cy="900.247" r="4" fill="#0" id="circle165"/>
	<circle cx="892.587" cy="674.27" r="4" fill="#0" id="circle166"/>
	<circle cx="892.587" cy="796.834" r="4" fill="#0" id="circle167"/>
	<circle cx="904.077" cy="957.699" r="4" fill="#0" id="circle168"/>
	<circle cx="907.907" cy="877.266" r="4" fill="#0" id="circle169"/>
	<circle cx="911.737" cy="639.799" r="4" fill="#0" id="circle170"/>
	<circle cx="911.737" cy="762.363" r="4" fill="#0" id="circle171"/>
	<circle cx="930.888" cy="674.27" r="4" fill="#0" id="circle172"/>
	<circle cx="930.888" cy="796.834" r="4" fill="#0" id="circle173"/>
	<circle cx="942.378" cy="973.019" r="4" fill="#0" id="circle174"/>
	<circle cx="946.208" cy="877.266" r="4" fill="#0" id="circle175"/>
	<circle cx="950.039" cy="639.799" r="4" fill="#0" id="circle176"/>
	<circle cx="950.039" cy="762.363" r="4" fill="#0" id="circle177"/>
	<circle cx="980.68" cy="957.699" r="4" fill="#0" id="circle178"/>
	<circle cx="984.51" cy="877.266" r="4" fill="#0" id="circle179"/>
	<circle cx="996" cy="915.568" r="4" fill="#0" id="circle180"/>
	</g>
</svg>