<?xml version="1.0" encoding="UTF-8" standalone="no"?>
<!-- Created with CurveBenchmark -->
<svg
	xmlns:dc="http://purl.org/dc/elements/1.1/"
	xmlns:cc="http://creativecommons.org/ns#"
	xmlns:rdf="http://www.w3.org/1999/02/22-rdf-syntax-ns#"
	xmlns:svg="http://www.w3.org/2000/svg"
	xmlns="http://www.w3.org/2000/svg"
	xmlns:sodipodi="http://sodipodi.sourceforge.net/DTD/sodipodi-0.dtd"
	xmlns:inkscape="http://www.inkscape.org/namespaces/inkscape"
	width="1000"
	height="1000"
	id="svg2"
	version="1.1"
	sodipodi:docname="manifold/peel-face17.png.txt">
<defs
	id="defs4" />
<metadata
	id="metadata7">
	<rdf:RDF>
		<cc:Work
			rdf:about="">
			<dc:format>image/svg+xml</dc:format>
			<dc:type
				rdf:resource="http://purl.org/dc/dcmitype/StillImage" />
			<dc:title></dc:title>
		</cc:Work>
	</rdf:RDF>
</metadata>
<g
	inkscape:label="Layer 1"
	inkscape:groupmode="layer"
	id="layer1">
	<path style="fill:none;stroke:red;stroke-width:1px;stroke-linecap:butt;stroke-linejoin:miter;stroke-opacity:1" d="M 4,487.823 4,471.588 z" id="boundary" inkscape:connector-curvature="0" />
	<path style="fill:none;stroke:red;stroke-width:1px;stroke-linecap:butt;stroke-linejoin:miter;stroke-opacity:1" d="M 4,471.588 12.1178,447.234 z" id="boundary" inkscape:connector-curvature="0" />
	<path style="fill:none;stroke:red;stroke-width:1px;stroke-linecap:butt;stroke-linejoin:miter;stroke-opacity:1" d="M 12.1178,518.671 4,504.059 z" id="boundary" inkscape:connector-curvature="0" />
	<path style="fill:none;stroke:red;stroke-width:1px;stroke-linecap:butt;stroke-linejoin:miter;stroke-opacity:1" d="M 4,504.059 4,487.823 z" id="boundary" inkscape:connector-curvature="0" />
	<path style="fill:none;stroke:red;stroke-width:1px;stroke-linecap:butt;stroke-linejoin:miter;stroke-opacity:1" d="M 20.2357,430.998 36.4714,414.763 z" id="boundary" inkscape:connector-curvature="0" />
	<path style="fill:none;stroke:red;stroke-width:1px;stroke-linecap:butt;stroke-linejoin:miter;stroke-opacity:1" d="M 20.2357,430.998 12.1178,447.234 z" id="boundary" inkscape:connector-curvature="0" />
	<path style="fill:none;stroke:red;stroke-width:1px;stroke-linecap:butt;stroke-linejoin:miter;stroke-opacity:1" d="M 28.3535,236.17 28.3535,219.935 z" id="boundary" inkscape:connector-curvature="0" />
	<path style="fill:none;stroke:red;stroke-width:1px;stroke-linecap:butt;stroke-linejoin:miter;stroke-opacity:1" d="M 12.1178,518.671 20.2357,533.283 z" id="boundary" inkscape:connector-curvature="0" />
	<path style="fill:none;stroke:red;stroke-width:1px;stroke-linecap:butt;stroke-linejoin:miter;stroke-opacity:1" d="M 25.1064,549.519 20.2357,533.283 z" id="boundary" inkscape:connector-curvature="0" />
	<path style="fill:none;stroke:red;stroke-width:1px;stroke-linecap:butt;stroke-linejoin:miter;stroke-opacity:1" d="M 28.3535,268.642 28.3535,252.406 z" id="boundary" inkscape:connector-curvature="0" />
	<path style="fill:none;stroke:red;stroke-width:1px;stroke-linecap:butt;stroke-linejoin:miter;stroke-opacity:1" d="M 125.768,794.678 125.768,810.913 z" id="boundary" inkscape:connector-curvature="0" />
	<path style="fill:none;stroke:red;stroke-width:1px;stroke-linecap:butt;stroke-linejoin:miter;stroke-opacity:1" d="M 28.3535,252.406 28.3535,236.17 z" id="boundary" inkscape:connector-curvature="0" />
	<path style="fill:none;stroke:red;stroke-width:1px;stroke-linecap:butt;stroke-linejoin:miter;stroke-opacity:1" d="M 28.3535,284.877 28.3535,268.642 z" id="boundary" inkscape:connector-curvature="0" />
	<path style="fill:none;stroke:red;stroke-width:1px;stroke-linecap:butt;stroke-linejoin:miter;stroke-opacity:1" d="M 28.3535,301.113 28.3535,284.877 z" id="boundary" inkscape:connector-curvature="0" />
	<path style="fill:none;stroke:red;stroke-width:1px;stroke-linecap:butt;stroke-linejoin:miter;stroke-opacity:1" d="M 28.3535,219.935 36.4714,195.581 z" id="boundary" inkscape:connector-curvature="0" />
	<path style="fill:none;stroke:red;stroke-width:1px;stroke-linecap:butt;stroke-linejoin:miter;stroke-opacity:1" d="M 28.3535,317.349 28.3535,301.113 z" id="boundary" inkscape:connector-curvature="0" />
	<path style="fill:none;stroke:red;stroke-width:1px;stroke-linecap:butt;stroke-linejoin:miter;stroke-opacity:1" d="M 36.4714,195.581 44.5892,179.345 z" id="boundary" inkscape:connector-curvature="0" />
	<path style="fill:none;stroke:red;stroke-width:1px;stroke-linecap:butt;stroke-linejoin:miter;stroke-opacity:1" d="M 28.3535,333.584 28.3535,317.349 z" id="boundary" inkscape:connector-curvature="0" />
	<path style="fill:none;stroke:red;stroke-width:1px;stroke-linecap:butt;stroke-linejoin:miter;stroke-opacity:1" d="M 28.3535,333.584 36.4714,348.196 z" id="boundary" inkscape:connector-curvature="0" />
	<path style="fill:none;stroke:red;stroke-width:1px;stroke-linecap:butt;stroke-linejoin:miter;stroke-opacity:1" d="M 36.4714,348.196 36.4714,364.432 z" id="boundary" inkscape:connector-curvature="0" />
	<path style="fill:none;stroke:red;stroke-width:1px;stroke-linecap:butt;stroke-linejoin:miter;stroke-opacity:1" d="M 52.707,163.11 44.5892,179.345 z" id="boundary" inkscape:connector-curvature="0" />
	<path style="fill:none;stroke:red;stroke-width:1px;stroke-linecap:butt;stroke-linejoin:miter;stroke-opacity:1" d="M 60.8249,146.874 73.8134,133.885 z" id="boundary" inkscape:connector-curvature="0" />
	<path style="fill:none;stroke:red;stroke-width:1px;stroke-linecap:butt;stroke-linejoin:miter;stroke-opacity:1" d="M 60.8249,146.874 52.707,163.11 z" id="boundary" inkscape:connector-curvature="0" />
	<path style="fill:none;stroke:red;stroke-width:1px;stroke-linecap:butt;stroke-linejoin:miter;stroke-opacity:1" d="M 36.4714,562.507 25.1064,549.519 z" id="boundary" inkscape:connector-curvature="0" />
	<path style="fill:none;stroke:red;stroke-width:1px;stroke-linecap:butt;stroke-linejoin:miter;stroke-opacity:1" d="M 36.4714,364.432 44.5892,379.044 z" id="boundary" inkscape:connector-curvature="0" />
	<path style="fill:none;stroke:red;stroke-width:1px;stroke-linecap:butt;stroke-linejoin:miter;stroke-opacity:1" d="M 44.5892,379.044 44.5892,395.28 z" id="boundary" inkscape:connector-curvature="0" />
	<path style="fill:none;stroke:red;stroke-width:1px;stroke-linecap:butt;stroke-linejoin:miter;stroke-opacity:1" d="M 44.5892,577.119 36.4714,562.507 z" id="boundary" inkscape:connector-curvature="0" />
	<path style="fill:none;stroke:red;stroke-width:1px;stroke-linecap:butt;stroke-linejoin:miter;stroke-opacity:1" d="M 44.5892,395.28 36.4714,414.763 z" id="boundary" inkscape:connector-curvature="0" />
	<path style="fill:none;stroke:red;stroke-width:1px;stroke-linecap:butt;stroke-linejoin:miter;stroke-opacity:1" d="M 98.1669,101.414 111.155,88.4255 z" id="boundary" inkscape:connector-curvature="0" />
	<path style="fill:none;stroke:red;stroke-width:1px;stroke-linecap:butt;stroke-linejoin:miter;stroke-opacity:1" d="M 52.707,591.732 44.5892,577.119 z" id="boundary" inkscape:connector-curvature="0" />
	<path style="fill:none;stroke:red;stroke-width:1px;stroke-linecap:butt;stroke-linejoin:miter;stroke-opacity:1" d="M 60.8249,606.344 52.707,591.732 z" id="boundary" inkscape:connector-curvature="0" />
	<path style="fill:none;stroke:red;stroke-width:1px;stroke-linecap:butt;stroke-linejoin:miter;stroke-opacity:1" d="M 125.768,729.735 125.768,745.971 z" id="boundary" inkscape:connector-curvature="0" />
	<path style="fill:none;stroke:red;stroke-width:1px;stroke-linecap:butt;stroke-linejoin:miter;stroke-opacity:1" d="M 73.8134,133.885 85.1784,114.403 z" id="boundary" inkscape:connector-curvature="0" />
	<path style="fill:none;stroke:red;stroke-width:1px;stroke-linecap:butt;stroke-linejoin:miter;stroke-opacity:1" d="M 85.1784,114.403 98.1669,101.414 z" id="boundary" inkscape:connector-curvature="0" />
	<path style="fill:none;stroke:red;stroke-width:1px;stroke-linecap:butt;stroke-linejoin:miter;stroke-opacity:1" d="M 125.768,713.499 125.768,729.735 z" id="boundary" inkscape:connector-curvature="0" />
	<path style="fill:none;stroke:red;stroke-width:1px;stroke-linecap:butt;stroke-linejoin:miter;stroke-opacity:1" d="M 70.5663,619.332 60.8249,606.344 z" id="boundary" inkscape:connector-curvature="0" />
	<path style="fill:none;stroke:red;stroke-width:1px;stroke-linecap:butt;stroke-linejoin:miter;stroke-opacity:1" d="M 124.144,77.0606 111.155,88.4255 z" id="boundary" inkscape:connector-curvature="0" />
	<path style="fill:none;stroke:red;stroke-width:1px;stroke-linecap:butt;stroke-linejoin:miter;stroke-opacity:1" d="M 117.65,666.416 125.768,681.028 z" id="boundary" inkscape:connector-curvature="0" />
	<path style="fill:none;stroke:red;stroke-width:1px;stroke-linecap:butt;stroke-linejoin:miter;stroke-opacity:1" d="M 125.768,681.028 125.768,697.264 z" id="boundary" inkscape:connector-curvature="0" />
	<path style="fill:none;stroke:red;stroke-width:1px;stroke-linecap:butt;stroke-linejoin:miter;stroke-opacity:1" d="M 98.1669,638.815 83.5548,630.697 z" id="boundary" inkscape:connector-curvature="0" />
	<path style="fill:none;stroke:red;stroke-width:1px;stroke-linecap:butt;stroke-linejoin:miter;stroke-opacity:1" d="M 83.5548,630.697 70.5663,619.332 z" id="boundary" inkscape:connector-curvature="0" />
	<path style="fill:none;stroke:red;stroke-width:1px;stroke-linecap:butt;stroke-linejoin:miter;stroke-opacity:1" d="M 109.532,651.804 98.1669,638.815 z" id="boundary" inkscape:connector-curvature="0" />
	<path style="fill:none;stroke:red;stroke-width:1px;stroke-linecap:butt;stroke-linejoin:miter;stroke-opacity:1" d="M 167.98,47.8363 151.745,55.9542 z" id="boundary" inkscape:connector-curvature="0" />
	<path style="fill:none;stroke:red;stroke-width:1px;stroke-linecap:butt;stroke-linejoin:miter;stroke-opacity:1" d="M 117.65,666.416 109.532,651.804 z" id="boundary" inkscape:connector-curvature="0" />
	<path style="fill:none;stroke:red;stroke-width:1px;stroke-linecap:butt;stroke-linejoin:miter;stroke-opacity:1" d="M 180.969,36.4714 167.98,47.8363 z" id="boundary" inkscape:connector-curvature="0" />
	<path style="fill:none;stroke:red;stroke-width:1px;stroke-linecap:butt;stroke-linejoin:miter;stroke-opacity:1" d="M 124.144,77.0606 135.509,64.072 z" id="boundary" inkscape:connector-curvature="0" />
	<path style="fill:none;stroke:red;stroke-width:1px;stroke-linecap:butt;stroke-linejoin:miter;stroke-opacity:1" d="M 135.509,64.072 151.745,55.9542 z" id="boundary" inkscape:connector-curvature="0" />
	<path style="fill:none;stroke:red;stroke-width:1px;stroke-linecap:butt;stroke-linejoin:miter;stroke-opacity:1" d="M 406.645,52.707 393.656,41.3421 z" id="boundary" inkscape:connector-curvature="0" />
	<path style="fill:none;stroke:red;stroke-width:1px;stroke-linecap:butt;stroke-linejoin:miter;stroke-opacity:1" d="M 393.656,41.3421 379.044,33.2242 z" id="boundary" inkscape:connector-curvature="0" />
	<path style="fill:none;stroke:red;stroke-width:1px;stroke-linecap:butt;stroke-linejoin:miter;stroke-opacity:1" d="M 125.768,697.264 125.768,713.499 z" id="boundary" inkscape:connector-curvature="0" />
	<path style="fill:none;stroke:red;stroke-width:1px;stroke-linecap:butt;stroke-linejoin:miter;stroke-opacity:1" d="M 211.817,28.3535 195.581,28.3535 z" id="boundary" inkscape:connector-curvature="0" />
	<path style="fill:none;stroke:red;stroke-width:1px;stroke-linecap:butt;stroke-linejoin:miter;stroke-opacity:1" d="M 195.581,28.3535 180.969,36.4714 z" id="boundary" inkscape:connector-curvature="0" />
	<path style="fill:none;stroke:red;stroke-width:1px;stroke-linecap:butt;stroke-linejoin:miter;stroke-opacity:1" d="M 125.768,745.971 125.768,762.206 z" id="boundary" inkscape:connector-curvature="0" />
	<path style="fill:none;stroke:red;stroke-width:1px;stroke-linecap:butt;stroke-linejoin:miter;stroke-opacity:1" d="M 125.768,762.206 125.768,778.442 z" id="boundary" inkscape:connector-curvature="0" />
	<path style="fill:none;stroke:red;stroke-width:1px;stroke-linecap:butt;stroke-linejoin:miter;stroke-opacity:1" d="M 125.768,778.442 125.768,794.678 z" id="boundary" inkscape:connector-curvature="0" />
	<path style="fill:none;stroke:red;stroke-width:1px;stroke-linecap:butt;stroke-linejoin:miter;stroke-opacity:1" d="M 125.768,810.913 125.768,827.149 z" id="boundary" inkscape:connector-curvature="0" />
	<path style="fill:none;stroke:red;stroke-width:1px;stroke-linecap:butt;stroke-linejoin:miter;stroke-opacity:1" d="M 133.885,841.761 125.768,827.149 z" id="boundary" inkscape:connector-curvature="0" />
	<path style="fill:none;stroke:red;stroke-width:1px;stroke-linecap:butt;stroke-linejoin:miter;stroke-opacity:1" d="M 138.756,857.997 133.885,841.761 z" id="boundary" inkscape:connector-curvature="0" />
	<path style="fill:none;stroke:red;stroke-width:1px;stroke-linecap:butt;stroke-linejoin:miter;stroke-opacity:1" d="M 142.003,874.232 138.756,857.997 z" id="boundary" inkscape:connector-curvature="0" />
	<path style="fill:none;stroke:red;stroke-width:1px;stroke-linecap:butt;stroke-linejoin:miter;stroke-opacity:1" d="M 150.121,888.845 142.003,874.232 z" id="boundary" inkscape:connector-curvature="0" />
	<path style="fill:none;stroke:red;stroke-width:1px;stroke-linecap:butt;stroke-linejoin:miter;stroke-opacity:1" d="M 244.288,20.2357 228.052,20.2357 z" id="boundary" inkscape:connector-curvature="0" />
	<path style="fill:none;stroke:red;stroke-width:1px;stroke-linecap:butt;stroke-linejoin:miter;stroke-opacity:1" d="M 228.052,20.2357 211.817,28.3535 z" id="boundary" inkscape:connector-curvature="0" />
	<path style="fill:none;stroke:red;stroke-width:1px;stroke-linecap:butt;stroke-linejoin:miter;stroke-opacity:1" d="M 159.863,901.833 150.121,888.845 z" id="boundary" inkscape:connector-curvature="0" />
	<path style="fill:none;stroke:red;stroke-width:1px;stroke-linecap:butt;stroke-linejoin:miter;stroke-opacity:1" d="M 418.01,65.6956 406.645,52.707 z" id="boundary" inkscape:connector-curvature="0" />
	<path style="fill:none;stroke:red;stroke-width:1px;stroke-linecap:butt;stroke-linejoin:miter;stroke-opacity:1" d="M 171.227,914.822 159.863,901.833 z" id="boundary" inkscape:connector-curvature="0" />
	<path style="fill:none;stroke:red;stroke-width:1px;stroke-linecap:butt;stroke-linejoin:miter;stroke-opacity:1" d="M 179.345,929.434 171.227,914.822 z" id="boundary" inkscape:connector-curvature="0" />
	<path style="fill:none;stroke:red;stroke-width:1px;stroke-linecap:butt;stroke-linejoin:miter;stroke-opacity:1" d="M 275.136,12.1178 258.9,12.1178 z" id="boundary" inkscape:connector-curvature="0" />
	<path style="fill:none;stroke:red;stroke-width:1px;stroke-linecap:butt;stroke-linejoin:miter;stroke-opacity:1" d="M 258.9,12.1178 244.288,20.2357 z" id="boundary" inkscape:connector-curvature="0" />
	<path style="fill:none;stroke:red;stroke-width:1px;stroke-linecap:butt;stroke-linejoin:miter;stroke-opacity:1" d="M 192.334,939.175 179.345,929.434 z" id="boundary" inkscape:connector-curvature="0" />
	<path style="fill:none;stroke:red;stroke-width:1px;stroke-linecap:butt;stroke-linejoin:miter;stroke-opacity:1" d="M 206.946,947.293 192.334,939.175 z" id="boundary" inkscape:connector-curvature="0" />
	<path style="fill:none;stroke:red;stroke-width:1px;stroke-linecap:butt;stroke-linejoin:miter;stroke-opacity:1" d="M 320.596,12.1178 304.36,12.1178 z" id="boundary" inkscape:connector-curvature="0" />
	<path style="fill:none;stroke:red;stroke-width:1px;stroke-linecap:butt;stroke-linejoin:miter;stroke-opacity:1" d="M 216.687,960.282 206.946,947.293 z" id="boundary" inkscape:connector-curvature="0" />
	<path style="fill:none;stroke:red;stroke-width:1px;stroke-linecap:butt;stroke-linejoin:miter;stroke-opacity:1" d="M 275.136,12.1178 289.748,4 z" id="boundary" inkscape:connector-curvature="0" />
	<path style="fill:none;stroke:red;stroke-width:1px;stroke-linecap:butt;stroke-linejoin:miter;stroke-opacity:1" d="M 289.748,4 304.36,12.1178 z" id="boundary" inkscape:connector-curvature="0" />
	<path style="fill:none;stroke:red;stroke-width:1px;stroke-linecap:butt;stroke-linejoin:miter;stroke-opacity:1" d="M 229.676,971.646 216.687,960.282 z" id="boundary" inkscape:connector-curvature="0" />
	<path style="fill:none;stroke:red;stroke-width:1px;stroke-linecap:butt;stroke-linejoin:miter;stroke-opacity:1" d="M 336.831,12.1178 320.596,12.1178 z" id="boundary" inkscape:connector-curvature="0" />
	<path style="fill:none;stroke:red;stroke-width:1px;stroke-linecap:butt;stroke-linejoin:miter;stroke-opacity:1" d="M 244.288,979.764 229.676,971.646 z" id="boundary" inkscape:connector-curvature="0" />
	<path style="fill:none;stroke:red;stroke-width:1px;stroke-linecap:butt;stroke-linejoin:miter;stroke-opacity:1" d="M 366.056,21.8592 379.044,33.2242 z" id="boundary" inkscape:connector-curvature="0" />
	<path style="fill:none;stroke:red;stroke-width:1px;stroke-linecap:butt;stroke-linejoin:miter;stroke-opacity:1" d="M 260.524,986.259 244.288,979.764 z" id="boundary" inkscape:connector-curvature="0" />
	<path style="fill:none;stroke:red;stroke-width:1px;stroke-linecap:butt;stroke-linejoin:miter;stroke-opacity:1" d="M 366.056,21.8592 353.067,12.1178 z" id="boundary" inkscape:connector-curvature="0" />
	<path style="fill:none;stroke:red;stroke-width:1px;stroke-linecap:butt;stroke-linejoin:miter;stroke-opacity:1" d="M 353.067,12.1178 336.831,12.1178 z" id="boundary" inkscape:connector-curvature="0" />
	<path style="fill:none;stroke:red;stroke-width:1px;stroke-linecap:butt;stroke-linejoin:miter;stroke-opacity:1" d="M 275.136,994.376 260.524,986.259 z" id="boundary" inkscape:connector-curvature="0" />
	<path style="fill:none;stroke:red;stroke-width:1px;stroke-linecap:butt;stroke-linejoin:miter;stroke-opacity:1" d="M 291.372,996 275.136,994.376 z" id="boundary" inkscape:connector-curvature="0" />
	<path style="fill:none;stroke:red;stroke-width:1px;stroke-linecap:butt;stroke-linejoin:miter;stroke-opacity:1" d="M 322.219,987.882 307.607,996 z" id="boundary" inkscape:connector-curvature="0" />
	<path style="fill:none;stroke:red;stroke-width:1px;stroke-linecap:butt;stroke-linejoin:miter;stroke-opacity:1" d="M 307.607,996 291.372,996 z" id="boundary" inkscape:connector-curvature="0" />
	<path style="fill:none;stroke:red;stroke-width:1px;stroke-linecap:butt;stroke-linejoin:miter;stroke-opacity:1" d="M 338.455,979.764 322.219,987.882 z" id="boundary" inkscape:connector-curvature="0" />
	<path style="fill:none;stroke:red;stroke-width:1px;stroke-linecap:butt;stroke-linejoin:miter;stroke-opacity:1" d="M 354.691,971.646 338.455,979.764 z" id="boundary" inkscape:connector-curvature="0" />
	<path style="fill:none;stroke:red;stroke-width:1px;stroke-linecap:butt;stroke-linejoin:miter;stroke-opacity:1" d="M 476.458,85.1784 491.07,93.2962 z" id="boundary" inkscape:connector-curvature="0" />
	<path style="fill:none;stroke:red;stroke-width:1px;stroke-linecap:butt;stroke-linejoin:miter;stroke-opacity:1" d="M 370.926,963.529 354.691,971.646 z" id="boundary" inkscape:connector-curvature="0" />
	<path style="fill:none;stroke:red;stroke-width:1px;stroke-linecap:butt;stroke-linejoin:miter;stroke-opacity:1" d="M 491.07,93.2962 505.682,101.414 z" id="boundary" inkscape:connector-curvature="0" />
	<path style="fill:none;stroke:red;stroke-width:1px;stroke-linecap:butt;stroke-linejoin:miter;stroke-opacity:1" d="M 383.915,952.164 370.926,963.529 z" id="boundary" inkscape:connector-curvature="0" />
	<path style="fill:none;stroke:red;stroke-width:1px;stroke-linecap:butt;stroke-linejoin:miter;stroke-opacity:1" d="M 557.637,159.863 560.884,176.098 z" id="boundary" inkscape:connector-curvature="0" />
	<path style="fill:none;stroke:red;stroke-width:1px;stroke-linecap:butt;stroke-linejoin:miter;stroke-opacity:1" d="M 411.516,931.057 427.751,922.939 z" id="boundary" inkscape:connector-curvature="0" />
	<path style="fill:none;stroke:red;stroke-width:1px;stroke-linecap:butt;stroke-linejoin:miter;stroke-opacity:1" d="M 395.28,939.175 383.915,952.164 z" id="boundary" inkscape:connector-curvature="0" />
	<path style="fill:none;stroke:red;stroke-width:1px;stroke-linecap:butt;stroke-linejoin:miter;stroke-opacity:1" d="M 450.481,68.9427 466.717,72.1899 z" id="boundary" inkscape:connector-curvature="0" />
	<path style="fill:none;stroke:red;stroke-width:1px;stroke-linecap:butt;stroke-linejoin:miter;stroke-opacity:1" d="M 466.717,72.1899 476.458,85.1784 z" id="boundary" inkscape:connector-curvature="0" />
	<path style="fill:none;stroke:red;stroke-width:1px;stroke-linecap:butt;stroke-linejoin:miter;stroke-opacity:1" d="M 411.516,931.057 395.28,939.175 z" id="boundary" inkscape:connector-curvature="0" />
	<path style="fill:none;stroke:red;stroke-width:1px;stroke-linecap:butt;stroke-linejoin:miter;stroke-opacity:1" d="M 450.481,68.9427 434.245,68.9427 z" id="boundary" inkscape:connector-curvature="0" />
	<path style="fill:none;stroke:red;stroke-width:1px;stroke-linecap:butt;stroke-linejoin:miter;stroke-opacity:1" d="M 418.01,65.6956 434.245,68.9427 z" id="boundary" inkscape:connector-curvature="0" />
	<path style="fill:none;stroke:red;stroke-width:1px;stroke-linecap:butt;stroke-linejoin:miter;stroke-opacity:1" d="M 440.74,911.574 427.751,922.939 z" id="boundary" inkscape:connector-curvature="0" />
	<path style="fill:none;stroke:red;stroke-width:1px;stroke-linecap:butt;stroke-linejoin:miter;stroke-opacity:1" d="M 452.105,898.586 440.74,911.574 z" id="boundary" inkscape:connector-curvature="0" />
	<path style="fill:none;stroke:red;stroke-width:1px;stroke-linecap:butt;stroke-linejoin:miter;stroke-opacity:1" d="M 465.093,887.221 452.105,898.586 z" id="boundary" inkscape:connector-curvature="0" />
	<path style="fill:none;stroke:red;stroke-width:1px;stroke-linecap:butt;stroke-linejoin:miter;stroke-opacity:1" d="M 468.34,866.115 465.093,887.221 z" id="boundary" inkscape:connector-curvature="0" />
	<path style="fill:none;stroke:red;stroke-width:1px;stroke-linecap:butt;stroke-linejoin:miter;stroke-opacity:1" d="M 476.458,825.525 476.458,841.761 z" id="boundary" inkscape:connector-curvature="0" />
	<path style="fill:none;stroke:red;stroke-width:1px;stroke-linecap:butt;stroke-linejoin:miter;stroke-opacity:1" d="M 476.458,841.761 468.34,866.115 z" id="boundary" inkscape:connector-curvature="0" />
	<path style="fill:none;stroke:red;stroke-width:1px;stroke-linecap:butt;stroke-linejoin:miter;stroke-opacity:1" d="M 484.576,784.936 484.576,801.172 z" id="boundary" inkscape:connector-curvature="0" />
	<path style="fill:none;stroke:red;stroke-width:1px;stroke-linecap:butt;stroke-linejoin:miter;stroke-opacity:1" d="M 484.576,801.172 476.458,825.525 z" id="boundary" inkscape:connector-curvature="0" />
	<path style="fill:none;stroke:red;stroke-width:1px;stroke-linecap:butt;stroke-linejoin:miter;stroke-opacity:1" d="M 505.682,732.982 517.047,719.993 z" id="boundary" inkscape:connector-curvature="0" />
	<path style="fill:none;stroke:red;stroke-width:1px;stroke-linecap:butt;stroke-linejoin:miter;stroke-opacity:1" d="M 517.047,719.993 517.047,703.758 z" id="boundary" inkscape:connector-curvature="0" />
	<path style="fill:none;stroke:red;stroke-width:1px;stroke-linecap:butt;stroke-linejoin:miter;stroke-opacity:1" d="M 520.295,109.532 505.682,101.414 z" id="boundary" inkscape:connector-curvature="0" />
	<path style="fill:none;stroke:red;stroke-width:1px;stroke-linecap:butt;stroke-linejoin:miter;stroke-opacity:1" d="M 492.694,744.347 492.694,760.583 z" id="boundary" inkscape:connector-curvature="0" />
	<path style="fill:none;stroke:red;stroke-width:1px;stroke-linecap:butt;stroke-linejoin:miter;stroke-opacity:1" d="M 492.694,760.583 484.576,784.936 z" id="boundary" inkscape:connector-curvature="0" />
	<path style="fill:none;stroke:red;stroke-width:1px;stroke-linecap:butt;stroke-linejoin:miter;stroke-opacity:1" d="M 565.755,192.334 565.755,208.57 z" id="boundary" inkscape:connector-curvature="0" />
	<path style="fill:none;stroke:red;stroke-width:1px;stroke-linecap:butt;stroke-linejoin:miter;stroke-opacity:1" d="M 565.755,192.334 560.884,176.098 z" id="boundary" inkscape:connector-curvature="0" />
	<path style="fill:none;stroke:red;stroke-width:1px;stroke-linecap:butt;stroke-linejoin:miter;stroke-opacity:1" d="M 505.682,732.982 492.694,744.347 z" id="boundary" inkscape:connector-curvature="0" />
	<path style="fill:none;stroke:red;stroke-width:1px;stroke-linecap:butt;stroke-linejoin:miter;stroke-opacity:1" d="M 586.861,570.625 573.872,581.99 z" id="boundary" inkscape:connector-curvature="0" />
	<path style="fill:none;stroke:red;stroke-width:1px;stroke-linecap:butt;stroke-linejoin:miter;stroke-opacity:1" d="M 573.872,581.99 562.507,603.097 z" id="boundary" inkscape:connector-curvature="0" />
	<path style="fill:none;stroke:red;stroke-width:1px;stroke-linecap:butt;stroke-linejoin:miter;stroke-opacity:1" d="M 525.165,687.522 517.047,703.758 z" id="boundary" inkscape:connector-curvature="0" />
	<path style="fill:none;stroke:red;stroke-width:1px;stroke-linecap:butt;stroke-linejoin:miter;stroke-opacity:1" d="M 533.283,622.579 533.283,638.815 z" id="boundary" inkscape:connector-curvature="0" />
	<path style="fill:none;stroke:red;stroke-width:1px;stroke-linecap:butt;stroke-linejoin:miter;stroke-opacity:1" d="M 533.283,671.286 525.165,687.522 z" id="boundary" inkscape:connector-curvature="0" />
	<path style="fill:none;stroke:red;stroke-width:1px;stroke-linecap:butt;stroke-linejoin:miter;stroke-opacity:1" d="M 520.295,109.532 534.907,117.65 z" id="boundary" inkscape:connector-curvature="0" />
	<path style="fill:none;stroke:red;stroke-width:1px;stroke-linecap:butt;stroke-linejoin:miter;stroke-opacity:1" d="M 533.283,655.051 533.283,638.815 z" id="boundary" inkscape:connector-curvature="0" />
	<path style="fill:none;stroke:red;stroke-width:1px;stroke-linecap:butt;stroke-linejoin:miter;stroke-opacity:1" d="M 565.755,241.041 565.755,257.277 z" id="boundary" inkscape:connector-curvature="0" />
	<path style="fill:none;stroke:red;stroke-width:1px;stroke-linecap:butt;stroke-linejoin:miter;stroke-opacity:1" d="M 533.283,671.286 533.283,655.051 z" id="boundary" inkscape:connector-curvature="0" />
	<path style="fill:none;stroke:red;stroke-width:1px;stroke-linecap:butt;stroke-linejoin:miter;stroke-opacity:1" d="M 533.283,622.579 546.272,611.214 z" id="boundary" inkscape:connector-curvature="0" />
	<path style="fill:none;stroke:red;stroke-width:1px;stroke-linecap:butt;stroke-linejoin:miter;stroke-opacity:1" d="M 534.907,117.65 541.401,133.885 z" id="boundary" inkscape:connector-curvature="0" />
	<path style="fill:none;stroke:red;stroke-width:1px;stroke-linecap:butt;stroke-linejoin:miter;stroke-opacity:1" d="M 546.272,611.214 562.507,603.097 z" id="boundary" inkscape:connector-curvature="0" />
	<path style="fill:none;stroke:red;stroke-width:1px;stroke-linecap:butt;stroke-linejoin:miter;stroke-opacity:1" d="M 554.39,143.627 557.637,159.863 z" id="boundary" inkscape:connector-curvature="0" />
	<path style="fill:none;stroke:red;stroke-width:1px;stroke-linecap:butt;stroke-linejoin:miter;stroke-opacity:1" d="M 554.39,143.627 541.401,133.885 z" id="boundary" inkscape:connector-curvature="0" />
	<path style="fill:none;stroke:red;stroke-width:1px;stroke-linecap:butt;stroke-linejoin:miter;stroke-opacity:1" d="M 565.755,208.57 565.755,224.805 z" id="boundary" inkscape:connector-curvature="0" />
	<path style="fill:none;stroke:red;stroke-width:1px;stroke-linecap:butt;stroke-linejoin:miter;stroke-opacity:1" d="M 565.755,224.805 565.755,241.041 z" id="boundary" inkscape:connector-curvature="0" />
	<path style="fill:none;stroke:red;stroke-width:1px;stroke-linecap:butt;stroke-linejoin:miter;stroke-opacity:1" d="M 565.755,257.277 565.755,273.512 z" id="boundary" inkscape:connector-curvature="0" />
	<path style="fill:none;stroke:red;stroke-width:1px;stroke-linecap:butt;stroke-linejoin:miter;stroke-opacity:1" d="M 565.755,273.512 565.755,289.748 z" id="boundary" inkscape:connector-curvature="0" />
	<path style="fill:none;stroke:red;stroke-width:1px;stroke-linecap:butt;stroke-linejoin:miter;stroke-opacity:1" d="M 565.755,289.748 565.755,305.984 z" id="boundary" inkscape:connector-curvature="0" />
	<path style="fill:none;stroke:red;stroke-width:1px;stroke-linecap:butt;stroke-linejoin:miter;stroke-opacity:1" d="M 573.872,353.067 573.872,369.303 z" id="boundary" inkscape:connector-curvature="0" />
	<path style="fill:none;stroke:red;stroke-width:1px;stroke-linecap:butt;stroke-linejoin:miter;stroke-opacity:1" d="M 573.872,336.831 573.872,353.067 z" id="boundary" inkscape:connector-curvature="0" />
	<path style="fill:none;stroke:red;stroke-width:1px;stroke-linecap:butt;stroke-linejoin:miter;stroke-opacity:1" d="M 573.872,336.831 573.872,320.596 z" id="boundary" inkscape:connector-curvature="0" />
	<path style="fill:none;stroke:red;stroke-width:1px;stroke-linecap:butt;stroke-linejoin:miter;stroke-opacity:1" d="M 573.872,320.596 565.755,305.984 z" id="boundary" inkscape:connector-curvature="0" />
	<path style="fill:none;stroke:red;stroke-width:1px;stroke-linecap:butt;stroke-linejoin:miter;stroke-opacity:1" d="M 573.872,369.303 573.872,385.538 z" id="boundary" inkscape:connector-curvature="0" />
	<path style="fill:none;stroke:red;stroke-width:1px;stroke-linecap:butt;stroke-linejoin:miter;stroke-opacity:1" d="M 573.872,401.774 573.872,385.538 z" id="boundary" inkscape:connector-curvature="0" />
	<path style="fill:none;stroke:red;stroke-width:1px;stroke-linecap:butt;stroke-linejoin:miter;stroke-opacity:1" d="M 598.226,494.318 598.226,478.082 z" id="boundary" inkscape:connector-curvature="0" />
	<path style="fill:none;stroke:red;stroke-width:1px;stroke-linecap:butt;stroke-linejoin:miter;stroke-opacity:1" d="M 573.872,401.774 581.99,416.386 z" id="boundary" inkscape:connector-curvature="0" />
	<path style="fill:none;stroke:red;stroke-width:1px;stroke-linecap:butt;stroke-linejoin:miter;stroke-opacity:1" d="M 598.226,461.846 598.226,478.082 z" id="boundary" inkscape:connector-curvature="0" />
	<path style="fill:none;stroke:red;stroke-width:1px;stroke-linecap:butt;stroke-linejoin:miter;stroke-opacity:1" d="M 581.99,416.386 590.108,430.998 z" id="boundary" inkscape:connector-curvature="0" />
	<path style="fill:none;stroke:red;stroke-width:1px;stroke-linecap:butt;stroke-linejoin:miter;stroke-opacity:1" d="M 590.108,541.401 586.861,570.625 z" id="boundary" inkscape:connector-curvature="0" />
	<path style="fill:none;stroke:red;stroke-width:1px;stroke-linecap:butt;stroke-linejoin:miter;stroke-opacity:1" d="M 598.226,445.61 598.226,461.846 z" id="boundary" inkscape:connector-curvature="0" />
	<path style="fill:none;stroke:red;stroke-width:1px;stroke-linecap:butt;stroke-linejoin:miter;stroke-opacity:1" d="M 598.226,445.61 590.108,430.998 z" id="boundary" inkscape:connector-curvature="0" />
	<path style="fill:none;stroke:red;stroke-width:1px;stroke-linecap:butt;stroke-linejoin:miter;stroke-opacity:1" d="M 598.226,494.318 598.226,510.553 z" id="boundary" inkscape:connector-curvature="0" />
	<path style="fill:none;stroke:red;stroke-width:1px;stroke-linecap:butt;stroke-linejoin:miter;stroke-opacity:1" d="M 598.226,510.553 598.226,526.789 z" id="boundary" inkscape:connector-curvature="0" />
	<path style="fill:none;stroke:red;stroke-width:1px;stroke-linecap:butt;stroke-linejoin:miter;stroke-opacity:1" d="M 598.226,526.789 590.108,541.401 z" id="boundary" inkscape:connector-curvature="0" />
	<circle cx="4" cy="471.588" r="4" fill="#0" id="circle0"/>
	<circle cx="4" cy="487.823" r="4" fill="#0" id="circle1"/>
	<circle cx="4" cy="504.059" r="4" fill="#0" id="circle2"/>
	<circle cx="12.1178" cy="447.234" r="4" fill="#0" id="circle3"/>
	<circle cx="12.1178" cy="518.671" r="4" fill="#0" id="circle4"/>
	<circle cx="20.2357" cy="430.998" r="4" fill="#0" id="circle5"/>
	<circle cx="20.2357" cy="533.283" r="4" fill="#0" id="circle6"/>
	<circle cx="25.1064" cy="549.519" r="4" fill="#0" id="circle7"/>
	<circle cx="28.3535" cy="219.935" r="4" fill="#0" id="circle8"/>
	<circle cx="28.3535" cy="236.17" r="4" fill="#0" id="circle9"/>
	<circle cx="28.3535" cy="252.406" r="4" fill="#0" id="circle10"/>
	<circle cx="28.3535" cy="268.642" r="4" fill="#0" id="circle11"/>
	<circle cx="28.3535" cy="284.877" r="4" fill="#0" id="circle12"/>
	<circle cx="28.3535" cy="301.113" r="4" fill="#0" id="circle13"/>
	<circle cx="28.3535" cy="317.349" r="4" fill="#0" id="circle14"/>
	<circle cx="28.3535" cy="333.584" r="4" fill="#0" id="circle15"/>
	<circle cx="36.4714" cy="195.581" r="4" fill="#0" id="circle16"/>
	<circle cx="36.4714" cy="348.196" r="4" fill="#0" id="circle17"/>
	<circle cx="36.4714" cy="364.432" r="4" fill="#0" id="circle18"/>
	<circle cx="36.4714" cy="414.763" r="4" fill="#0" id="circle19"/>
	<circle cx="36.4714" cy="562.507" r="4" fill="#0" id="circle20"/>
	<circle cx="44.5892" cy="179.345" r="4" fill="#0" id="circle21"/>
	<circle cx="44.5892" cy="379.044" r="4" fill="#0" id="circle22"/>
	<circle cx="44.5892" cy="395.28" r="4" fill="#0" id="circle23"/>
	<circle cx="44.5892" cy="577.119" r="4" fill="#0" id="circle24"/>
	<circle cx="52.707" cy="163.11" r="4" fill="#0" id="circle25"/>
	<circle cx="52.707" cy="591.732" r="4" fill="#0" id="circle26"/>
	<circle cx="60.8249" cy="146.874" r="4" fill="#0" id="circle27"/>
	<circle cx="60.8249" cy="606.344" r="4" fill="#0" id="circle28"/>
	<circle cx="70.5663" cy="619.332" r="4" fill="#0" id="circle29"/>
	<circle cx="73.8134" cy="133.885" r="4" fill="#0" id="circle30"/>
	<circle cx="83.5548" cy="630.697" r="4" fill="#0" id="circle31"/>
	<circle cx="85.1784" cy="114.403" r="4" fill="#0" id="circle32"/>
	<circle cx="98.1669" cy="101.414" r="4" fill="#0" id="circle33"/>
	<circle cx="98.1669" cy="638.815" r="4" fill="#0" id="circle34"/>
	<circle cx="109.532" cy="651.804" r="4" fill="#0" id="circle35"/>
	<circle cx="111.155" cy="88.4255" r="4" fill="#0" id="circle36"/>
	<circle cx="117.65" cy="666.416" r="4" fill="#0" id="circle37"/>
	<circle cx="124.144" cy="77.0606" r="4" fill="#0" id="circle38"/>
	<circle cx="125.768" cy="681.028" r="4" fill="#0" id="circle39"/>
	<circle cx="125.768" cy="697.264" r="4" fill="#0" id="circle40"/>
	<circle cx="125.768" cy="713.499" r="4" fill="#0" id="circle41"/>
	<circle cx="125.768" cy="729.735" r="4" fill="#0" id="circle42"/>
	<circle cx="125.768" cy="745.971" r="4" fill="#0" id="circle43"/>
	<circle cx="125.768" cy="762.206" r="4" fill="#0" id="circle44"/>
	<circle cx="125.768" cy="778.442" r="4" fill="#0" id="circle45"/>
	<circle cx="125.768" cy="794.678" r="4" fill="#0" id="circle46"/>
	<circle cx="125.768" cy="810.913" r="4" fill="#0" id="circle47"/>
	<circle cx="125.768" cy="827.149" r="4" fill="#0" id="circle48"/>
	<circle cx="133.885" cy="841.761" r="4" fill="#0" id="circle49"/>
	<circle cx="135.509" cy="64.072" r="4" fill="#0" id="circle50"/>
	<circle cx="138.756" cy="857.997" r="4" fill="#0" id="circle51"/>
	<circle cx="142.003" cy="874.232" r="4" fill="#0" id="circle52"/>
	<circle cx="150.121" cy="888.845" r="4" fill="#0" id="circle53"/>
	<circle cx="151.745" cy="55.9542" r="4" fill="#0" id="circle54"/>
	<circle cx="159.863" cy="901.833" r="4" fill="#0" id="circle55"/>
	<circle cx="167.98" cy="47.8363" r="4" fill="#0" id="circle56"/>
	<circle cx="171.227" cy="914.822" r="4" fill="#0" id="circle57"/>
	<circle cx="179.345" cy="929.434" r="4" fill="#0" id="circle58"/>
	<circle cx="180.969" cy="36.4714" r="4" fill="#0" id="circle59"/>
	<circle cx="192.334" cy="939.175" r="4" fill="#0" id="circle60"/>
	<circle cx="195.581" cy="28.3535" r="4" fill="#0" id="circle61"/>
	<circle cx="206.946" cy="947.293" r="4" fill="#0" id="circle62"/>
	<circle cx="211.817" cy="28.3535" r="4" fill="#0" id="circle63"/>
	<circle cx="216.687" cy="960.282" r="4" fill="#0" id="circle64"/>
	<circle cx="228.052" cy="20.2357" r="4" fill="#0" id="circle65"/>
	<circle cx="229.676" cy="971.646" r="4" fill="#0" id="circle66"/>
	<circle cx="244.288" cy="20.2357" r="4" fill="#0" id="circle67"/>
	<circle cx="244.288" cy="979.764" r="4" fill="#0" id="circle68"/>
	<circle cx="258.9" cy="12.1178" r="4" fill="#0" id="circle69"/>
	<circle cx="260.524" cy="986.259" r="4" fill="#0" id="circle70"/>
	<circle cx="275.136" cy="12.1178" r="4" fill="#0" id="circle71"/>
	<circle cx="275.136" cy="994.376" r="4" fill="#0" id="circle72"/>
	<circle cx="289.748" cy="4" r="4" fill="#0" id="circle73"/>
	<circle cx="291.372" cy="996" r="4" fill="#0" id="circle74"/>
	<circle cx="304.36" cy="12.1178" r="4" fill="#0" id="circle75"/>
	<circle cx="307.607" cy="996" r="4" fill="#0" id="circle76"/>
	<circle cx="320.596" cy="12.1178" r="4" fill="#0" id="circle77"/>
	<circle cx="322.219" cy="987.882" r="4" fill="#0" id="circle78"/>
	<circle cx="336.831" cy="12.1178" r="4" fill="#0" id="circle79"/>
	<circle cx="338.455" cy="979.764" r="4" fill="#0" id="circle80"/>
	<circle cx="353.067" cy="12.1178" r="4" fill="#0" id="circle81"/>
	<circle cx="354.691" cy="971.646" r="4" fill="#0" id="circle82"/>
	<circle cx="366.056" cy="21.8592" r="4" fill="#0" id="circle83"/>
	<circle cx="370.926" cy="963.529" r="4" fill="#0" id="circle84"/>
	<circle cx="379.044" cy="33.2242" r="4" fill="#0" id="circle85"/>
	<circle cx="383.915" cy="952.164" r="4" fill="#0" id="circle86"/>
	<circle cx="393.656" cy="41.3421" r="4" fill="#0" id="circle87"/>
	<circle cx="395.28" cy="939.175" r="4" fill="#0" id="circle88"/>
	<circle cx="406.645" cy="52.707" r="4" fill="#0" id="circle89"/>
	<circle cx="411.516" cy="931.057" r="4" fill="#0" id="circle90"/>
	<circle cx="418.01" cy="65.6956" r="4" fill="#0" id="circle91"/>
	<circle cx="427.751" cy="922.939" r="4" fill="#0" id="circle92"/>
	<circle cx="434.245" cy="68.9427" r="4" fill="#0" id="circle93"/>
	<circle cx="440.74" cy="911.574" r="4" fill="#0" id="circle94"/>
	<circle cx="450.481" cy="68.9427" r="4" fill="#0" id="circle95"/>
	<circle cx="452.105" cy="898.586" r="4" fill="#0" id="circle96"/>
	<circle cx="465.093" cy="887.221" r="4" fill="#0" id="circle97"/>
	<circle cx="466.717" cy="72.1899" r="4" fill="#0" id="circle98"/>
	<circle cx="468.34" cy="866.115" r="4" fill="#0" id="circle99"/>
	<circle cx="476.458" cy="85.1784" r="4" fill="#0" id="circle100"/>
	<circle cx="476.458" cy="825.525" r="4" fill="#0" id="circle101"/>
	<circle cx="476.458" cy="841.761" r="4" fill="#0" id="circle102"/>
	<circle cx="484.576" cy="784.936" r="4" fill="#0" id="circle103"/>
	<circle cx="484.576" cy="801.172" r="4" fill="#0" id="circle104"/>
	<circle cx="491.07" cy="93.2962" r="4" fill="#0" id="circle105"/>
	<circle cx="492.694" cy="744.347" r="4" fill="#0" id="circle106"/>
	<circle cx="492.694" cy="760.583" r="4" fill="#0" id="circle107"/>
	<circle cx="505.682" cy="101.414" r="4" fill="#0" id="circle108"/>
	<circle cx="505.682" cy="732.982" r="4" fill="#0" id="circle109"/>
	<circle cx="517.047" cy="703.758" r="4" fill="#0" id="circle110"/>
	<circle cx="517.047" cy="719.993" r="4" fill="#0" id="circle111"/>
	<circle cx="520.295" cy="109.532" r="4" fill="#0" id="circle112"/>
	<circle cx="525.165" cy="687.522" r="4" fill="#0" id="circle113"/>
	<circle cx="533.283" cy="622.579" r="4" fill="#0" id="circle114"/>
	<circle cx="533.283" cy="638.815" r="4" fill="#0" id="circle115"/>
	<circle cx="533.283" cy="655.051" r="4" fill="#0" id="circle116"/>
	<circle cx="533.283" cy="671.286" r="4" fill="#0" id="circle117"/>
	<circle cx="534.907" cy="117.65" r="4" fill="#0" id="circle118"/>
	<circle cx="541.401" cy="133.885" r="4" fill="#0" id="circle119"/>
	<circle cx="546.272" cy="611.214" r="4" fill="#0" id="circle120"/>
	<circle cx="554.39" cy="143.627" r="4" fill="#0" id="circle121"/>
	<circle cx="557.637" cy="159.863" r="4" fill="#0" id="circle122"/>
	<circle cx="560.884" cy="176.098" r="4" fill="#0" id="circle123"/>
	<circle cx="562.507" cy="603.097" r="4" fill="#0" id="circle124"/>
	<circle cx="565.755" cy="192.334" r="4" fill="#0" id="circle125"/>
	<circle cx="565.755" cy="208.57" r="4" fill="#0" id="circle126"/>
	<circle cx="565.755" cy="224.805" r="4" fill="#0" id="circle127"/>
	<circle cx="565.755" cy="241.041" r="4" fill="#0" id="circle128"/>
	<circle cx="565.755" cy="257.277" r="4" fill="#0" id="circle129"/>
	<circle cx="565.755" cy="273.512" r="4" fill="#0" id="circle130"/>
	<circle cx="565.755" cy="289.748" r="4" fill="#0" id="circle131"/>
	<circle cx="565.755" cy="305.984" r="4" fill="#0" id="circle132"/>
	<circle cx="573.872" cy="320.596" r="4" fill="#0" id="circle133"/>
	<circle cx="573.872" cy="336.831" r="4" fill="#0" id="circle134"/>
	<circle cx="573.872" cy="353.067" r="4" fill="#0" id="circle135"/>
	<circle cx="573.872" cy="369.303" r="4" fill="#0" id="circle136"/>
	<circle cx="573.872" cy="385.538" r="4" fill="#0" id="circle137"/>
	<circle cx="573.872" cy="401.774" r="4" fill="#0" id="circle138"/>
	<circle cx="573.872" cy="581.99" r="4" fill="#0" id="circle139"/>
	<circle cx="581.99" cy="416.386" r="4" fill="#0" id="circle140"/>
	<circle cx="586.861" cy="570.625" r="4" fill="#0" id="circle141"/>
	<circle cx="590.108" cy="430.998" r="4" fill="#0" id="circle142"/>
	<circle cx="590.108" cy="541.401" r="4" fill="#0" id="circle143"/>
	<circle cx="598.226" cy="445.61" r="4" fill="#0" id="circle144"/>
	<circle cx="598.226" cy="461.846" r="4" fill="#0" id="circle145"/>
	<circle cx="598.226" cy="478.082" r="4" fill="#0" id="circle146"/>
	<circle cx="598.226" cy="494.318" r="4" fill="#0" id="circle147"/>
	<circle cx="598.226" cy="510.553" r="4" fill="#0" id="circle148"/>
	<circle cx="598.226" cy="526.789" r="4" fill="#0" id="circle149"/>
	</g>
</svg>