<?xml version="1.0" encoding="UTF-8" standalone="no"?>
<!-- Created with CurveBenchmark -->
<svg
	xmlns:dc="http://purl.org/dc/elements/1.1/"
	xmlns:cc="http://creativecommons.org/ns#"
	xmlns:rdf="http://www.w3.org/1999/02/22-rdf-syntax-ns#"
	xmlns:svg="http://www.w3.org/2000/svg"
	xmlns="http://www.w3.org/2000/svg"
	xmlns:sodipodi="http://sodipodi.sourceforge.net/DTD/sodipodi-0.dtd"
	xmlns:inkscape="http://www.inkscape.org/namespaces/inkscape"
	width="1000"
	height="1000"
	id="svg2"
	version="1.1"
	sodipodi:docname="manifold/peel-truck-15.png.txt">
<defs
	id="defs4" />
<metadata
	id="metadata7">
	<rdf:RDF>
		<cc:Work
			rdf:about="">
			<dc:format>image/svg+xml</dc:format>
			<dc:type
				rdf:resource="http://purl.org/dc/dcmitype/StillImage" />
			<dc:title></dc:title>
		</cc:Work>
	</rdf:RDF>
</metadata>
<g
	inkscape:label="Layer 1"
	inkscape:groupmode="layer"
	id="layer1">
	<path style="fill:none;stroke:red;stroke-width:1px;stroke-linecap:butt;stroke-linejoin:miter;stroke-opacity:1" d="M 31.0545,234.865 18.4291,256.509 z" id="boundary" inkscape:connector-curvature="0" />
	<path style="fill:none;stroke:red;stroke-width:1px;stroke-linecap:butt;stroke-linejoin:miter;stroke-opacity:1" d="M 13.0182,287.171 4,270.938 z" id="boundary" inkscape:connector-curvature="0" />
	<path style="fill:none;stroke:red;stroke-width:1px;stroke-linecap:butt;stroke-linejoin:miter;stroke-opacity:1" d="M 4,270.938 18.4291,256.509 z" id="boundary" inkscape:connector-curvature="0" />
	<path style="fill:none;stroke:red;stroke-width:1px;stroke-linecap:butt;stroke-linejoin:miter;stroke-opacity:1" d="M 13.0182,287.171 31.0545,294.385 z" id="boundary" inkscape:connector-curvature="0" />
	<path style="fill:none;stroke:red;stroke-width:1px;stroke-linecap:butt;stroke-linejoin:miter;stroke-opacity:1" d="M 31.0545,234.865 45.4836,220.436 z" id="boundary" inkscape:connector-curvature="0" />
	<path style="fill:none;stroke:red;stroke-width:1px;stroke-linecap:butt;stroke-linejoin:miter;stroke-opacity:1" d="M 31.0545,406.211 31.0545,424.247 z" id="boundary" inkscape:connector-curvature="0" />
	<path style="fill:none;stroke:red;stroke-width:1px;stroke-linecap:butt;stroke-linejoin:miter;stroke-opacity:1" d="M 31.0545,406.211 40.0727,388.175 z" id="boundary" inkscape:connector-curvature="0" />
	<path style="fill:none;stroke:red;stroke-width:1px;stroke-linecap:butt;stroke-linejoin:miter;stroke-opacity:1" d="M 31.0545,424.247 31.0545,442.284 z" id="boundary" inkscape:connector-curvature="0" />
	<path style="fill:none;stroke:red;stroke-width:1px;stroke-linecap:butt;stroke-linejoin:miter;stroke-opacity:1" d="M 58.1091,379.156 40.0727,388.175 z" id="boundary" inkscape:connector-curvature="0" />
	<path style="fill:none;stroke:red;stroke-width:1px;stroke-linecap:butt;stroke-linejoin:miter;stroke-opacity:1" d="M 31.0545,442.284 31.0545,460.32 z" id="boundary" inkscape:connector-curvature="0" />
	<path style="fill:none;stroke:red;stroke-width:1px;stroke-linecap:butt;stroke-linejoin:miter;stroke-opacity:1" d="M 31.0545,460.32 31.0545,478.356 z" id="boundary" inkscape:connector-curvature="0" />
	<path style="fill:none;stroke:red;stroke-width:1px;stroke-linecap:butt;stroke-linejoin:miter;stroke-opacity:1" d="M 58.1091,379.156 76.1455,373.745 z" id="boundary" inkscape:connector-curvature="0" />
	<path style="fill:none;stroke:red;stroke-width:1px;stroke-linecap:butt;stroke-linejoin:miter;stroke-opacity:1" d="M 31.0545,478.356 31.0545,496.393 z" id="boundary" inkscape:connector-curvature="0" />
	<path style="fill:none;stroke:red;stroke-width:1px;stroke-linecap:butt;stroke-linejoin:miter;stroke-opacity:1" d="M 31.0545,496.393 40.0727,512.625 z" id="boundary" inkscape:connector-curvature="0" />
	<path style="fill:none;stroke:red;stroke-width:1px;stroke-linecap:butt;stroke-linejoin:miter;stroke-opacity:1" d="M 47.2873,303.404 31.0545,294.385 z" id="boundary" inkscape:connector-curvature="0" />
	<path style="fill:none;stroke:red;stroke-width:1px;stroke-linecap:butt;stroke-linejoin:miter;stroke-opacity:1" d="M 45.4836,220.436 61.7164,211.418 z" id="boundary" inkscape:connector-curvature="0" />
	<path style="fill:none;stroke:red;stroke-width:1px;stroke-linecap:butt;stroke-linejoin:miter;stroke-opacity:1" d="M 47.2873,303.404 65.3236,303.404 z" id="boundary" inkscape:connector-curvature="0" />
	<path style="fill:none;stroke:red;stroke-width:1px;stroke-linecap:butt;stroke-linejoin:miter;stroke-opacity:1" d="M 92.3782,364.727 108.611,355.709 z" id="boundary" inkscape:connector-curvature="0" />
	<path style="fill:none;stroke:red;stroke-width:1px;stroke-linecap:butt;stroke-linejoin:miter;stroke-opacity:1" d="M 61.7164,211.418 76.1455,198.793 z" id="boundary" inkscape:connector-curvature="0" />
	<path style="fill:none;stroke:red;stroke-width:1px;stroke-linecap:butt;stroke-linejoin:miter;stroke-opacity:1" d="M 40.0727,512.625 52.6982,527.055 z" id="boundary" inkscape:connector-curvature="0" />
	<path style="fill:none;stroke:red;stroke-width:1px;stroke-linecap:butt;stroke-linejoin:miter;stroke-opacity:1" d="M 52.6982,527.055 70.7345,528.858 z" id="boundary" inkscape:connector-curvature="0" />
	<path style="fill:none;stroke:red;stroke-width:1px;stroke-linecap:butt;stroke-linejoin:miter;stroke-opacity:1" d="M 76.1455,373.745 92.3782,364.727 z" id="boundary" inkscape:connector-curvature="0" />
	<path style="fill:none;stroke:red;stroke-width:1px;stroke-linecap:butt;stroke-linejoin:miter;stroke-opacity:1" d="M 65.3236,303.404 83.36,303.404 z" id="boundary" inkscape:connector-curvature="0" />
	<path style="fill:none;stroke:red;stroke-width:1px;stroke-linecap:butt;stroke-linejoin:miter;stroke-opacity:1" d="M 126.647,175.345 108.611,175.345 z" id="boundary" inkscape:connector-curvature="0" />
	<path style="fill:none;stroke:red;stroke-width:1px;stroke-linecap:butt;stroke-linejoin:miter;stroke-opacity:1" d="M 108.611,175.345 90.5745,184.364 z" id="boundary" inkscape:connector-curvature="0" />
	<path style="fill:none;stroke:red;stroke-width:1px;stroke-linecap:butt;stroke-linejoin:miter;stroke-opacity:1" d="M 70.7345,528.858 88.7709,528.858 z" id="boundary" inkscape:connector-curvature="0" />
	<path style="fill:none;stroke:red;stroke-width:1px;stroke-linecap:butt;stroke-linejoin:miter;stroke-opacity:1" d="M 83.36,303.404 101.396,303.404 z" id="boundary" inkscape:connector-curvature="0" />
	<path style="fill:none;stroke:red;stroke-width:1px;stroke-linecap:butt;stroke-linejoin:miter;stroke-opacity:1" d="M 76.1455,198.793 90.5745,184.364 z" id="boundary" inkscape:connector-curvature="0" />
	<path style="fill:none;stroke:red;stroke-width:1px;stroke-linecap:butt;stroke-linejoin:miter;stroke-opacity:1" d="M 108.611,355.709 126.647,346.691 z" id="boundary" inkscape:connector-curvature="0" />
	<path style="fill:none;stroke:red;stroke-width:1px;stroke-linecap:butt;stroke-linejoin:miter;stroke-opacity:1" d="M 88.7709,528.858 106.807,528.858 z" id="boundary" inkscape:connector-curvature="0" />
	<path style="fill:none;stroke:red;stroke-width:1px;stroke-linecap:butt;stroke-linejoin:miter;stroke-opacity:1" d="M 101.396,303.404 119.433,303.404 z" id="boundary" inkscape:connector-curvature="0" />
	<path style="fill:none;stroke:red;stroke-width:1px;stroke-linecap:butt;stroke-linejoin:miter;stroke-opacity:1" d="M 106.807,528.858 124.844,528.858 z" id="boundary" inkscape:connector-curvature="0" />
	<path style="fill:none;stroke:red;stroke-width:1px;stroke-linecap:butt;stroke-linejoin:miter;stroke-opacity:1" d="M 119.433,303.404 137.469,303.404 z" id="boundary" inkscape:connector-curvature="0" />
	<path style="fill:none;stroke:red;stroke-width:1px;stroke-linecap:butt;stroke-linejoin:miter;stroke-opacity:1" d="M 444.087,492.785 462.124,492.785 z" id="boundary" inkscape:connector-curvature="0" />
	<path style="fill:none;stroke:red;stroke-width:1px;stroke-linecap:butt;stroke-linejoin:miter;stroke-opacity:1" d="M 126.647,346.691 144.684,346.691 z" id="boundary" inkscape:connector-curvature="0" />
	<path style="fill:none;stroke:red;stroke-width:1px;stroke-linecap:butt;stroke-linejoin:miter;stroke-opacity:1" d="M 144.684,346.691 157.309,321.44 z" id="boundary" inkscape:connector-curvature="0" />
	<path style="fill:none;stroke:red;stroke-width:1px;stroke-linecap:butt;stroke-linejoin:miter;stroke-opacity:1" d="M 124.844,528.858 142.88,528.858 z" id="boundary" inkscape:connector-curvature="0" />
	<path style="fill:none;stroke:red;stroke-width:1px;stroke-linecap:butt;stroke-linejoin:miter;stroke-opacity:1" d="M 137.469,303.404 155.505,303.404 z" id="boundary" inkscape:connector-curvature="0" />
	<path style="fill:none;stroke:red;stroke-width:1px;stroke-linecap:butt;stroke-linejoin:miter;stroke-opacity:1" d="M 126.647,175.345 144.684,175.345 z" id="boundary" inkscape:connector-curvature="0" />
	<path style="fill:none;stroke:red;stroke-width:1px;stroke-linecap:butt;stroke-linejoin:miter;stroke-opacity:1" d="M 155.505,303.404 157.309,321.44 z" id="boundary" inkscape:connector-curvature="0" />
	<path style="fill:none;stroke:red;stroke-width:1px;stroke-linecap:butt;stroke-linejoin:miter;stroke-opacity:1" d="M 162.72,175.345 144.684,175.345 z" id="boundary" inkscape:connector-curvature="0" />
	<path style="fill:none;stroke:red;stroke-width:1px;stroke-linecap:butt;stroke-linejoin:miter;stroke-opacity:1" d="M 142.88,528.858 160.916,528.858 z" id="boundary" inkscape:connector-curvature="0" />
	<path style="fill:none;stroke:red;stroke-width:1px;stroke-linecap:butt;stroke-linejoin:miter;stroke-opacity:1" d="M 198.793,175.345 180.756,175.345 z" id="boundary" inkscape:connector-curvature="0" />
	<path style="fill:none;stroke:red;stroke-width:1px;stroke-linecap:butt;stroke-linejoin:miter;stroke-opacity:1" d="M 162.72,175.345 180.756,175.345 z" id="boundary" inkscape:connector-curvature="0" />
	<path style="fill:none;stroke:red;stroke-width:1px;stroke-linecap:butt;stroke-linejoin:miter;stroke-opacity:1" d="M 160.916,528.858 178.953,528.858 z" id="boundary" inkscape:connector-curvature="0" />
	<path style="fill:none;stroke:red;stroke-width:1px;stroke-linecap:butt;stroke-linejoin:miter;stroke-opacity:1" d="M 216.829,166.327 234.865,166.327 z" id="boundary" inkscape:connector-curvature="0" />
	<path style="fill:none;stroke:red;stroke-width:1px;stroke-linecap:butt;stroke-linejoin:miter;stroke-opacity:1" d="M 216.829,166.327 198.793,175.345 z" id="boundary" inkscape:connector-curvature="0" />
	<path style="fill:none;stroke:red;stroke-width:1px;stroke-linecap:butt;stroke-linejoin:miter;stroke-opacity:1" d="M 178.953,528.858 196.989,528.858 z" id="boundary" inkscape:connector-curvature="0" />
	<path style="fill:none;stroke:red;stroke-width:1px;stroke-linecap:butt;stroke-linejoin:miter;stroke-opacity:1" d="M 196.989,528.858 215.025,528.858 z" id="boundary" inkscape:connector-curvature="0" />
	<path style="fill:none;stroke:red;stroke-width:1px;stroke-linecap:butt;stroke-linejoin:miter;stroke-opacity:1" d="M 252.902,166.327 234.865,166.327 z" id="boundary" inkscape:connector-curvature="0" />
	<path style="fill:none;stroke:red;stroke-width:1px;stroke-linecap:butt;stroke-linejoin:miter;stroke-opacity:1" d="M 283.564,510.822 301.6,510.822 z" id="boundary" inkscape:connector-curvature="0" />
	<path style="fill:none;stroke:red;stroke-width:1px;stroke-linecap:butt;stroke-linejoin:miter;stroke-opacity:1" d="M 270.938,166.327 252.902,166.327 z" id="boundary" inkscape:connector-curvature="0" />
	<path style="fill:none;stroke:red;stroke-width:1px;stroke-linecap:butt;stroke-linejoin:miter;stroke-opacity:1" d="M 215.025,528.858 233.062,528.858 z" id="boundary" inkscape:connector-curvature="0" />
	<path style="fill:none;stroke:red;stroke-width:1px;stroke-linecap:butt;stroke-linejoin:miter;stroke-opacity:1" d="M 233.062,528.858 249.295,519.84 z" id="boundary" inkscape:connector-curvature="0" />
	<path style="fill:none;stroke:red;stroke-width:1px;stroke-linecap:butt;stroke-linejoin:miter;stroke-opacity:1" d="M 265.527,510.822 283.564,510.822 z" id="boundary" inkscape:connector-curvature="0" />
	<path style="fill:none;stroke:red;stroke-width:1px;stroke-linecap:butt;stroke-linejoin:miter;stroke-opacity:1" d="M 265.527,510.822 249.295,519.84 z" id="boundary" inkscape:connector-curvature="0" />
	<path style="fill:none;stroke:red;stroke-width:1px;stroke-linecap:butt;stroke-linejoin:miter;stroke-opacity:1" d="M 288.975,166.327 270.938,166.327 z" id="boundary" inkscape:connector-curvature="0" />
	<path style="fill:none;stroke:red;stroke-width:1px;stroke-linecap:butt;stroke-linejoin:miter;stroke-opacity:1" d="M 301.6,510.822 319.636,510.822 z" id="boundary" inkscape:connector-curvature="0" />
	<path style="fill:none;stroke:red;stroke-width:1px;stroke-linecap:butt;stroke-linejoin:miter;stroke-opacity:1" d="M 319.636,510.822 337.673,510.822 z" id="boundary" inkscape:connector-curvature="0" />
	<path style="fill:none;stroke:red;stroke-width:1px;stroke-linecap:butt;stroke-linejoin:miter;stroke-opacity:1" d="M 288.975,166.327 307.011,157.309 z" id="boundary" inkscape:connector-curvature="0" />
	<path style="fill:none;stroke:red;stroke-width:1px;stroke-linecap:butt;stroke-linejoin:miter;stroke-opacity:1" d="M 307.011,157.309 325.047,157.309 z" id="boundary" inkscape:connector-curvature="0" />
	<path style="fill:none;stroke:red;stroke-width:1px;stroke-linecap:butt;stroke-linejoin:miter;stroke-opacity:1" d="M 337.673,510.822 355.709,510.822 z" id="boundary" inkscape:connector-curvature="0" />
	<path style="fill:none;stroke:red;stroke-width:1px;stroke-linecap:butt;stroke-linejoin:miter;stroke-opacity:1" d="M 325.047,157.309 343.084,157.309 z" id="boundary" inkscape:connector-curvature="0" />
	<path style="fill:none;stroke:red;stroke-width:1px;stroke-linecap:butt;stroke-linejoin:miter;stroke-opacity:1" d="M 355.709,510.822 373.745,510.822 z" id="boundary" inkscape:connector-curvature="0" />
	<path style="fill:none;stroke:red;stroke-width:1px;stroke-linecap:butt;stroke-linejoin:miter;stroke-opacity:1" d="M 343.084,157.309 361.12,157.309 z" id="boundary" inkscape:connector-curvature="0" />
	<path style="fill:none;stroke:red;stroke-width:1px;stroke-linecap:butt;stroke-linejoin:miter;stroke-opacity:1" d="M 389.978,501.804 408.015,498.196 z" id="boundary" inkscape:connector-curvature="0" />
	<path style="fill:none;stroke:red;stroke-width:1px;stroke-linecap:butt;stroke-linejoin:miter;stroke-opacity:1" d="M 389.978,501.804 373.745,510.822 z" id="boundary" inkscape:connector-curvature="0" />
	<path style="fill:none;stroke:red;stroke-width:1px;stroke-linecap:butt;stroke-linejoin:miter;stroke-opacity:1" d="M 361.12,157.309 377.353,148.291 z" id="boundary" inkscape:connector-curvature="0" />
	<path style="fill:none;stroke:red;stroke-width:1px;stroke-linecap:butt;stroke-linejoin:miter;stroke-opacity:1" d="M 377.353,148.291 395.389,148.291 z" id="boundary" inkscape:connector-curvature="0" />
	<path style="fill:none;stroke:red;stroke-width:1px;stroke-linecap:butt;stroke-linejoin:miter;stroke-opacity:1" d="M 408.015,498.196 426.051,492.785 z" id="boundary" inkscape:connector-curvature="0" />
	<path style="fill:none;stroke:red;stroke-width:1px;stroke-linecap:butt;stroke-linejoin:miter;stroke-opacity:1" d="M 426.051,492.785 444.087,492.785 z" id="boundary" inkscape:connector-curvature="0" />
	<path style="fill:none;stroke:red;stroke-width:1px;stroke-linecap:butt;stroke-linejoin:miter;stroke-opacity:1" d="M 395.389,148.291 411.622,139.273 z" id="boundary" inkscape:connector-curvature="0" />
	<path style="fill:none;stroke:red;stroke-width:1px;stroke-linecap:butt;stroke-linejoin:miter;stroke-opacity:1" d="M 411.622,139.273 429.658,139.273 z" id="boundary" inkscape:connector-curvature="0" />
	<path style="fill:none;stroke:red;stroke-width:1px;stroke-linecap:butt;stroke-linejoin:miter;stroke-opacity:1" d="M 460.32,85.1636 445.891,99.5927 z" id="boundary" inkscape:connector-curvature="0" />
	<path style="fill:none;stroke:red;stroke-width:1px;stroke-linecap:butt;stroke-linejoin:miter;stroke-opacity:1" d="M 445.891,99.5927 436.873,117.629 z" id="boundary" inkscape:connector-curvature="0" />
	<path style="fill:none;stroke:red;stroke-width:1px;stroke-linecap:butt;stroke-linejoin:miter;stroke-opacity:1" d="M 429.658,139.273 436.873,117.629 z" id="boundary" inkscape:connector-curvature="0" />
	<path style="fill:none;stroke:red;stroke-width:1px;stroke-linecap:butt;stroke-linejoin:miter;stroke-opacity:1" d="M 462.124,492.785 480.16,492.785 z" id="boundary" inkscape:connector-curvature="0" />
	<path style="fill:none;stroke:red;stroke-width:1px;stroke-linecap:butt;stroke-linejoin:miter;stroke-opacity:1" d="M 480.16,492.785 498.196,492.785 z" id="boundary" inkscape:connector-curvature="0" />
	<path style="fill:none;stroke:red;stroke-width:1px;stroke-linecap:butt;stroke-linejoin:miter;stroke-opacity:1" d="M 498.196,492.785 514.429,501.804 z" id="boundary" inkscape:connector-curvature="0" />
	<path style="fill:none;stroke:red;stroke-width:1px;stroke-linecap:butt;stroke-linejoin:miter;stroke-opacity:1" d="M 469.338,67.1273 460.32,85.1636 z" id="boundary" inkscape:connector-curvature="0" />
	<path style="fill:none;stroke:red;stroke-width:1px;stroke-linecap:butt;stroke-linejoin:miter;stroke-opacity:1" d="M 478.356,49.0909 469.338,67.1273 z" id="boundary" inkscape:connector-curvature="0" />
	<path style="fill:none;stroke:red;stroke-width:1px;stroke-linecap:butt;stroke-linejoin:miter;stroke-opacity:1" d="M 514.429,501.804 530.662,510.822 z" id="boundary" inkscape:connector-curvature="0" />
	<path style="fill:none;stroke:red;stroke-width:1px;stroke-linecap:butt;stroke-linejoin:miter;stroke-opacity:1" d="M 523.447,22.0364 505.411,22.0364 z" id="boundary" inkscape:connector-curvature="0" />
	<path style="fill:none;stroke:red;stroke-width:1px;stroke-linecap:butt;stroke-linejoin:miter;stroke-opacity:1" d="M 478.356,49.0909 487.375,31.0545 z" id="boundary" inkscape:connector-curvature="0" />
	<path style="fill:none;stroke:red;stroke-width:1px;stroke-linecap:butt;stroke-linejoin:miter;stroke-opacity:1" d="M 487.375,31.0545 505.411,22.0364 z" id="boundary" inkscape:connector-curvature="0" />
	<path style="fill:none;stroke:red;stroke-width:1px;stroke-linecap:butt;stroke-linejoin:miter;stroke-opacity:1" d="M 564.931,525.251 548.698,516.233 z" id="boundary" inkscape:connector-curvature="0" />
	<path style="fill:none;stroke:red;stroke-width:1px;stroke-linecap:butt;stroke-linejoin:miter;stroke-opacity:1" d="M 548.698,516.233 530.662,510.822 z" id="boundary" inkscape:connector-curvature="0" />
	<path style="fill:none;stroke:red;stroke-width:1px;stroke-linecap:butt;stroke-linejoin:miter;stroke-opacity:1" d="M 541.484,22.0364 523.447,22.0364 z" id="boundary" inkscape:connector-curvature="0" />
	<path style="fill:none;stroke:red;stroke-width:1px;stroke-linecap:butt;stroke-linejoin:miter;stroke-opacity:1" d="M 577.556,13.0182 595.593,13.0182 z" id="boundary" inkscape:connector-curvature="0" />
	<path style="fill:none;stroke:red;stroke-width:1px;stroke-linecap:butt;stroke-linejoin:miter;stroke-opacity:1" d="M 577.556,13.0182 559.52,13.0182 z" id="boundary" inkscape:connector-curvature="0" />
	<path style="fill:none;stroke:red;stroke-width:1px;stroke-linecap:butt;stroke-linejoin:miter;stroke-opacity:1" d="M 559.52,13.0182 541.484,22.0364 z" id="boundary" inkscape:connector-curvature="0" />
	<path style="fill:none;stroke:red;stroke-width:1px;stroke-linecap:butt;stroke-linejoin:miter;stroke-opacity:1" d="M 564.931,525.251 582.967,528.858 z" id="boundary" inkscape:connector-curvature="0" />
	<path style="fill:none;stroke:red;stroke-width:1px;stroke-linecap:butt;stroke-linejoin:miter;stroke-opacity:1" d="M 613.629,13.0182 595.593,13.0182 z" id="boundary" inkscape:connector-curvature="0" />
	<path style="fill:none;stroke:red;stroke-width:1px;stroke-linecap:butt;stroke-linejoin:miter;stroke-opacity:1" d="M 599.2,519.84 613.629,509.018 z" id="boundary" inkscape:connector-curvature="0" />
	<path style="fill:none;stroke:red;stroke-width:1px;stroke-linecap:butt;stroke-linejoin:miter;stroke-opacity:1" d="M 631.665,13.0182 613.629,13.0182 z" id="boundary" inkscape:connector-curvature="0" />
	<path style="fill:none;stroke:red;stroke-width:1px;stroke-linecap:butt;stroke-linejoin:miter;stroke-opacity:1" d="M 582.967,528.858 599.2,519.84 z" id="boundary" inkscape:connector-curvature="0" />
	<path style="fill:none;stroke:red;stroke-width:1px;stroke-linecap:butt;stroke-linejoin:miter;stroke-opacity:1" d="M 662.327,483.767 680.364,483.767 z" id="boundary" inkscape:connector-curvature="0" />
	<path style="fill:none;stroke:red;stroke-width:1px;stroke-linecap:butt;stroke-linejoin:miter;stroke-opacity:1" d="M 763.331,123.04 763.331,105.004 z" id="boundary" inkscape:connector-curvature="0" />
	<path style="fill:none;stroke:red;stroke-width:1px;stroke-linecap:butt;stroke-linejoin:miter;stroke-opacity:1" d="M 628.058,492.785 644.291,483.767 z" id="boundary" inkscape:connector-curvature="0" />
	<path style="fill:none;stroke:red;stroke-width:1px;stroke-linecap:butt;stroke-linejoin:miter;stroke-opacity:1" d="M 644.291,483.767 662.327,483.767 z" id="boundary" inkscape:connector-curvature="0" />
	<path style="fill:none;stroke:red;stroke-width:1px;stroke-linecap:butt;stroke-linejoin:miter;stroke-opacity:1" d="M 613.629,509.018 628.058,492.785 z" id="boundary" inkscape:connector-curvature="0" />
	<path style="fill:none;stroke:red;stroke-width:1px;stroke-linecap:butt;stroke-linejoin:miter;stroke-opacity:1" d="M 649.702,13.0182 667.738,13.0182 z" id="boundary" inkscape:connector-curvature="0" />
	<path style="fill:none;stroke:red;stroke-width:1px;stroke-linecap:butt;stroke-linejoin:miter;stroke-opacity:1" d="M 680.364,483.767 698.4,487.375 z" id="boundary" inkscape:connector-curvature="0" />
	<path style="fill:none;stroke:red;stroke-width:1px;stroke-linecap:butt;stroke-linejoin:miter;stroke-opacity:1" d="M 763.331,86.9673 763.331,105.004 z" id="boundary" inkscape:connector-curvature="0" />
	<path style="fill:none;stroke:red;stroke-width:1px;stroke-linecap:butt;stroke-linejoin:miter;stroke-opacity:1" d="M 772.349,447.695 754.313,447.695 z" id="boundary" inkscape:connector-curvature="0" />
	<path style="fill:none;stroke:red;stroke-width:1px;stroke-linecap:butt;stroke-linejoin:miter;stroke-opacity:1" d="M 824.655,507.215 815.636,490.982 z" id="boundary" inkscape:connector-curvature="0" />
	<path style="fill:none;stroke:red;stroke-width:1px;stroke-linecap:butt;stroke-linejoin:miter;stroke-opacity:1" d="M 763.331,68.9309 763.331,86.9673 z" id="boundary" inkscape:connector-curvature="0" />
	<path style="fill:none;stroke:red;stroke-width:1px;stroke-linecap:butt;stroke-linejoin:miter;stroke-opacity:1" d="M 667.738,13.0182 685.775,13.0182 z" id="boundary" inkscape:connector-curvature="0" />
	<path style="fill:none;stroke:red;stroke-width:1px;stroke-linecap:butt;stroke-linejoin:miter;stroke-opacity:1" d="M 685.775,13.0182 703.811,4 z" id="boundary" inkscape:connector-curvature="0" />
	<path style="fill:none;stroke:red;stroke-width:1px;stroke-linecap:butt;stroke-linejoin:miter;stroke-opacity:1" d="M 703.811,4 721.847,4 z" id="boundary" inkscape:connector-curvature="0" />
	<path style="fill:none;stroke:red;stroke-width:1px;stroke-linecap:butt;stroke-linejoin:miter;stroke-opacity:1" d="M 631.665,13.0182 649.702,13.0182 z" id="boundary" inkscape:connector-curvature="0" />
	<path style="fill:none;stroke:red;stroke-width:1px;stroke-linecap:butt;stroke-linejoin:miter;stroke-opacity:1" d="M 698.4,487.375 712.829,472.945 z" id="boundary" inkscape:connector-curvature="0" />
	<path style="fill:none;stroke:red;stroke-width:1px;stroke-linecap:butt;stroke-linejoin:miter;stroke-opacity:1" d="M 718.24,447.695 736.276,447.695 z" id="boundary" inkscape:connector-curvature="0" />
	<path style="fill:none;stroke:red;stroke-width:1px;stroke-linecap:butt;stroke-linejoin:miter;stroke-opacity:1" d="M 718.24,447.695 712.829,472.945 z" id="boundary" inkscape:connector-curvature="0" />
	<path style="fill:none;stroke:red;stroke-width:1px;stroke-linecap:butt;stroke-linejoin:miter;stroke-opacity:1" d="M 736.276,447.695 754.313,447.695 z" id="boundary" inkscape:connector-curvature="0" />
	<path style="fill:none;stroke:red;stroke-width:1px;stroke-linecap:butt;stroke-linejoin:miter;stroke-opacity:1" d="M 752.509,18.4291 739.884,4 z" id="boundary" inkscape:connector-curvature="0" />
	<path style="fill:none;stroke:red;stroke-width:1px;stroke-linecap:butt;stroke-linejoin:miter;stroke-opacity:1" d="M 739.884,4 721.847,4 z" id="boundary" inkscape:connector-curvature="0" />
	<path style="fill:none;stroke:red;stroke-width:1px;stroke-linecap:butt;stroke-linejoin:miter;stroke-opacity:1" d="M 763.331,50.8945 763.331,32.8582 z" id="boundary" inkscape:connector-curvature="0" />
	<path style="fill:none;stroke:red;stroke-width:1px;stroke-linecap:butt;stroke-linejoin:miter;stroke-opacity:1" d="M 763.331,32.8582 752.509,18.4291 z" id="boundary" inkscape:connector-curvature="0" />
	<path style="fill:none;stroke:red;stroke-width:1px;stroke-linecap:butt;stroke-linejoin:miter;stroke-opacity:1" d="M 806.618,456.713 815.636,472.945 z" id="boundary" inkscape:connector-curvature="0" />
	<path style="fill:none;stroke:red;stroke-width:1px;stroke-linecap:butt;stroke-linejoin:miter;stroke-opacity:1" d="M 806.618,456.713 790.385,447.695 z" id="boundary" inkscape:connector-curvature="0" />
	<path style="fill:none;stroke:red;stroke-width:1px;stroke-linecap:butt;stroke-linejoin:miter;stroke-opacity:1" d="M 763.331,50.8945 763.331,68.9309 z" id="boundary" inkscape:connector-curvature="0" />
	<path style="fill:none;stroke:red;stroke-width:1px;stroke-linecap:butt;stroke-linejoin:miter;stroke-opacity:1" d="M 790.385,447.695 772.349,447.695 z" id="boundary" inkscape:connector-curvature="0" />
	<path style="fill:none;stroke:red;stroke-width:1px;stroke-linecap:butt;stroke-linejoin:miter;stroke-opacity:1" d="M 815.636,490.982 815.636,472.945 z" id="boundary" inkscape:connector-curvature="0" />
	<path style="fill:none;stroke:red;stroke-width:1px;stroke-linecap:butt;stroke-linejoin:miter;stroke-opacity:1" d="M 795.796,141.076 803.011,159.113 z" id="boundary" inkscape:connector-curvature="0" />
	<path style="fill:none;stroke:red;stroke-width:1px;stroke-linecap:butt;stroke-linejoin:miter;stroke-opacity:1" d="M 795.796,141.076 777.76,133.862 z" id="boundary" inkscape:connector-curvature="0" />
	<path style="fill:none;stroke:red;stroke-width:1px;stroke-linecap:butt;stroke-linejoin:miter;stroke-opacity:1" d="M 803.011,159.113 812.029,175.345 z" id="boundary" inkscape:connector-curvature="0" />
	<path style="fill:none;stroke:red;stroke-width:1px;stroke-linecap:butt;stroke-linejoin:miter;stroke-opacity:1" d="M 812.029,175.345 817.44,193.382 z" id="boundary" inkscape:connector-curvature="0" />
	<path style="fill:none;stroke:red;stroke-width:1px;stroke-linecap:butt;stroke-linejoin:miter;stroke-opacity:1" d="M 763.331,123.04 777.76,133.862 z" id="boundary" inkscape:connector-curvature="0" />
	<path style="fill:none;stroke:red;stroke-width:1px;stroke-linecap:butt;stroke-linejoin:miter;stroke-opacity:1" d="M 839.084,519.84 855.316,528.858 z" id="boundary" inkscape:connector-curvature="0" />
	<path style="fill:none;stroke:red;stroke-width:1px;stroke-linecap:butt;stroke-linejoin:miter;stroke-opacity:1" d="M 817.44,193.382 831.869,204.204 z" id="boundary" inkscape:connector-curvature="0" />
	<path style="fill:none;stroke:red;stroke-width:1px;stroke-linecap:butt;stroke-linejoin:miter;stroke-opacity:1" d="M 848.102,213.222 831.869,204.204 z" id="boundary" inkscape:connector-curvature="0" />
	<path style="fill:none;stroke:red;stroke-width:1px;stroke-linecap:butt;stroke-linejoin:miter;stroke-opacity:1" d="M 839.084,519.84 824.655,507.215 z" id="boundary" inkscape:connector-curvature="0" />
	<path style="fill:none;stroke:red;stroke-width:1px;stroke-linecap:butt;stroke-linejoin:miter;stroke-opacity:1" d="M 848.102,213.222 866.138,220.436 z" id="boundary" inkscape:connector-curvature="0" />
	<path style="fill:none;stroke:red;stroke-width:1px;stroke-linecap:butt;stroke-linejoin:miter;stroke-opacity:1" d="M 896.8,234.865 907.622,249.295 z" id="boundary" inkscape:connector-curvature="0" />
	<path style="fill:none;stroke:red;stroke-width:1px;stroke-linecap:butt;stroke-linejoin:miter;stroke-opacity:1" d="M 884.175,220.436 896.8,234.865 z" id="boundary" inkscape:connector-curvature="0" />
	<path style="fill:none;stroke:red;stroke-width:1px;stroke-linecap:butt;stroke-linejoin:miter;stroke-opacity:1" d="M 884.175,220.436 866.138,220.436 z" id="boundary" inkscape:connector-curvature="0" />
	<path style="fill:none;stroke:red;stroke-width:1px;stroke-linecap:butt;stroke-linejoin:miter;stroke-opacity:1" d="M 916.64,474.749 916.64,456.713 z" id="boundary" inkscape:connector-curvature="0" />
	<path style="fill:none;stroke:red;stroke-width:1px;stroke-linecap:butt;stroke-linejoin:miter;stroke-opacity:1" d="M 916.64,420.64 916.64,402.604 z" id="boundary" inkscape:connector-curvature="0" />
	<path style="fill:none;stroke:red;stroke-width:1px;stroke-linecap:butt;stroke-linejoin:miter;stroke-opacity:1" d="M 855.316,528.858 873.353,528.858 z" id="boundary" inkscape:connector-curvature="0" />
	<path style="fill:none;stroke:red;stroke-width:1px;stroke-linecap:butt;stroke-linejoin:miter;stroke-opacity:1" d="M 916.64,456.713 916.64,438.676 z" id="boundary" inkscape:connector-curvature="0" />
	<path style="fill:none;stroke:red;stroke-width:1px;stroke-linecap:butt;stroke-linejoin:miter;stroke-opacity:1" d="M 873.353,528.858 891.389,528.858 z" id="boundary" inkscape:connector-curvature="0" />
	<path style="fill:none;stroke:red;stroke-width:1px;stroke-linecap:butt;stroke-linejoin:miter;stroke-opacity:1" d="M 891.389,528.858 907.622,519.84 z" id="boundary" inkscape:connector-curvature="0" />
	<path style="fill:none;stroke:red;stroke-width:1px;stroke-linecap:butt;stroke-linejoin:miter;stroke-opacity:1" d="M 916.64,438.676 916.64,420.64 z" id="boundary" inkscape:connector-curvature="0" />
	<path style="fill:none;stroke:red;stroke-width:1px;stroke-linecap:butt;stroke-linejoin:miter;stroke-opacity:1" d="M 907.622,249.295 925.658,256.509 z" id="boundary" inkscape:connector-curvature="0" />
	<path style="fill:none;stroke:red;stroke-width:1px;stroke-linecap:butt;stroke-linejoin:miter;stroke-opacity:1" d="M 916.64,402.604 934.676,402.604 z" id="boundary" inkscape:connector-curvature="0" />
	<path style="fill:none;stroke:red;stroke-width:1px;stroke-linecap:butt;stroke-linejoin:miter;stroke-opacity:1" d="M 952.713,393.585 934.676,402.604 z" id="boundary" inkscape:connector-curvature="0" />
	<path style="fill:none;stroke:red;stroke-width:1px;stroke-linecap:butt;stroke-linejoin:miter;stroke-opacity:1" d="M 916.64,474.749 922.051,507.215 z" id="boundary" inkscape:connector-curvature="0" />
	<path style="fill:none;stroke:red;stroke-width:1px;stroke-linecap:butt;stroke-linejoin:miter;stroke-opacity:1" d="M 922.051,507.215 907.622,519.84 z" id="boundary" inkscape:connector-curvature="0" />
	<path style="fill:none;stroke:red;stroke-width:1px;stroke-linecap:butt;stroke-linejoin:miter;stroke-opacity:1" d="M 940.087,267.331 925.658,256.509 z" id="boundary" inkscape:connector-curvature="0" />
	<path style="fill:none;stroke:red;stroke-width:1px;stroke-linecap:butt;stroke-linejoin:miter;stroke-opacity:1" d="M 970.749,384.567 952.713,393.585 z" id="boundary" inkscape:connector-curvature="0" />
	<path style="fill:none;stroke:red;stroke-width:1px;stroke-linecap:butt;stroke-linejoin:miter;stroke-opacity:1" d="M 952.713,299.796 952.713,281.76 z" id="boundary" inkscape:connector-curvature="0" />
	<path style="fill:none;stroke:red;stroke-width:1px;stroke-linecap:butt;stroke-linejoin:miter;stroke-opacity:1" d="M 952.713,281.76 940.087,267.331 z" id="boundary" inkscape:connector-curvature="0" />
	<path style="fill:none;stroke:red;stroke-width:1px;stroke-linecap:butt;stroke-linejoin:miter;stroke-opacity:1" d="M 970.749,384.567 985.178,371.942 z" id="boundary" inkscape:connector-curvature="0" />
	<path style="fill:none;stroke:red;stroke-width:1px;stroke-linecap:butt;stroke-linejoin:miter;stroke-opacity:1" d="M 952.713,299.796 967.142,310.618 z" id="boundary" inkscape:connector-curvature="0" />
	<path style="fill:none;stroke:red;stroke-width:1px;stroke-linecap:butt;stroke-linejoin:miter;stroke-opacity:1" d="M 985.178,371.942 994.196,353.905 z" id="boundary" inkscape:connector-curvature="0" />
	<path style="fill:none;stroke:red;stroke-width:1px;stroke-linecap:butt;stroke-linejoin:miter;stroke-opacity:1" d="M 967.142,310.618 983.375,319.636 z" id="boundary" inkscape:connector-curvature="0" />
	<path style="fill:none;stroke:red;stroke-width:1px;stroke-linecap:butt;stroke-linejoin:miter;stroke-opacity:1" d="M 983.375,319.636 996,334.065 z" id="boundary" inkscape:connector-curvature="0" />
	<path style="fill:none;stroke:red;stroke-width:1px;stroke-linecap:butt;stroke-linejoin:miter;stroke-opacity:1" d="M 996,334.065 994.196,353.905 z" id="boundary" inkscape:connector-curvature="0" />
	<circle cx="4" cy="270.938" r="4" fill="#0" id="circle0"/>
	<circle cx="13.0182" cy="287.171" r="4" fill="#0" id="circle1"/>
	<circle cx="18.4291" cy="256.509" r="4" fill="#0" id="circle2"/>
	<circle cx="31.0545" cy="234.865" r="4" fill="#0" id="circle3"/>
	<circle cx="31.0545" cy="294.385" r="4" fill="#0" id="circle4"/>
	<circle cx="31.0545" cy="406.211" r="4" fill="#0" id="circle5"/>
	<circle cx="31.0545" cy="424.247" r="4" fill="#0" id="circle6"/>
	<circle cx="31.0545" cy="442.284" r="4" fill="#0" id="circle7"/>
	<circle cx="31.0545" cy="460.32" r="4" fill="#0" id="circle8"/>
	<circle cx="31.0545" cy="478.356" r="4" fill="#0" id="circle9"/>
	<circle cx="31.0545" cy="496.393" r="4" fill="#0" id="circle10"/>
	<circle cx="40.0727" cy="388.175" r="4" fill="#0" id="circle11"/>
	<circle cx="40.0727" cy="512.625" r="4" fill="#0" id="circle12"/>
	<circle cx="45.4836" cy="220.436" r="4" fill="#0" id="circle13"/>
	<circle cx="47.2873" cy="303.404" r="4" fill="#0" id="circle14"/>
	<circle cx="52.6982" cy="527.055" r="4" fill="#0" id="circle15"/>
	<circle cx="58.1091" cy="379.156" r="4" fill="#0" id="circle16"/>
	<circle cx="61.7164" cy="211.418" r="4" fill="#0" id="circle17"/>
	<circle cx="65.3236" cy="303.404" r="4" fill="#0" id="circle18"/>
	<circle cx="70.7345" cy="528.858" r="4" fill="#0" id="circle19"/>
	<circle cx="76.1455" cy="198.793" r="4" fill="#0" id="circle20"/>
	<circle cx="76.1455" cy="373.745" r="4" fill="#0" id="circle21"/>
	<circle cx="83.36" cy="303.404" r="4" fill="#0" id="circle22"/>
	<circle cx="88.7709" cy="528.858" r="4" fill="#0" id="circle23"/>
	<circle cx="90.5745" cy="184.364" r="4" fill="#0" id="circle24"/>
	<circle cx="92.3782" cy="364.727" r="4" fill="#0" id="circle25"/>
	<circle cx="101.396" cy="303.404" r="4" fill="#0" id="circle26"/>
	<circle cx="106.807" cy="528.858" r="4" fill="#0" id="circle27"/>
	<circle cx="108.611" cy="175.345" r="4" fill="#0" id="circle28"/>
	<circle cx="108.611" cy="355.709" r="4" fill="#0" id="circle29"/>
	<circle cx="119.433" cy="303.404" r="4" fill="#0" id="circle30"/>
	<circle cx="124.844" cy="528.858" r="4" fill="#0" id="circle31"/>
	<circle cx="126.647" cy="175.345" r="4" fill="#0" id="circle32"/>
	<circle cx="126.647" cy="346.691" r="4" fill="#0" id="circle33"/>
	<circle cx="137.469" cy="303.404" r="4" fill="#0" id="circle34"/>
	<circle cx="142.88" cy="528.858" r="4" fill="#0" id="circle35"/>
	<circle cx="144.684" cy="175.345" r="4" fill="#0" id="circle36"/>
	<circle cx="144.684" cy="346.691" r="4" fill="#0" id="circle37"/>
	<circle cx="155.505" cy="303.404" r="4" fill="#0" id="circle38"/>
	<circle cx="157.309" cy="321.44" r="4" fill="#0" id="circle39"/>
	<circle cx="160.916" cy="528.858" r="4" fill="#0" id="circle40"/>
	<circle cx="162.72" cy="175.345" r="4" fill="#0" id="circle41"/>
	<circle cx="178.953" cy="528.858" r="4" fill="#0" id="circle42"/>
	<circle cx="180.756" cy="175.345" r="4" fill="#0" id="circle43"/>
	<circle cx="196.989" cy="528.858" r="4" fill="#0" id="circle44"/>
	<circle cx="198.793" cy="175.345" r="4" fill="#0" id="circle45"/>
	<circle cx="215.025" cy="528.858" r="4" fill="#0" id="circle46"/>
	<circle cx="216.829" cy="166.327" r="4" fill="#0" id="circle47"/>
	<circle cx="233.062" cy="528.858" r="4" fill="#0" id="circle48"/>
	<circle cx="234.865" cy="166.327" r="4" fill="#0" id="circle49"/>
	<circle cx="249.295" cy="519.84" r="4" fill="#0" id="circle50"/>
	<circle cx="252.902" cy="166.327" r="4" fill="#0" id="circle51"/>
	<circle cx="265.527" cy="510.822" r="4" fill="#0" id="circle52"/>
	<circle cx="270.938" cy="166.327" r="4" fill="#0" id="circle53"/>
	<circle cx="283.564" cy="510.822" r="4" fill="#0" id="circle54"/>
	<circle cx="288.975" cy="166.327" r="4" fill="#0" id="circle55"/>
	<circle cx="301.6" cy="510.822" r="4" fill="#0" id="circle56"/>
	<circle cx="307.011" cy="157.309" r="4" fill="#0" id="circle57"/>
	<circle cx="319.636" cy="510.822" r="4" fill="#0" id="circle58"/>
	<circle cx="325.047" cy="157.309" r="4" fill="#0" id="circle59"/>
	<circle cx="337.673" cy="510.822" r="4" fill="#0" id="circle60"/>
	<circle cx="343.084" cy="157.309" r="4" fill="#0" id="circle61"/>
	<circle cx="355.709" cy="510.822" r="4" fill="#0" id="circle62"/>
	<circle cx="361.12" cy="157.309" r="4" fill="#0" id="circle63"/>
	<circle cx="373.745" cy="510.822" r="4" fill="#0" id="circle64"/>
	<circle cx="377.353" cy="148.291" r="4" fill="#0" id="circle65"/>
	<circle cx="389.978" cy="501.804" r="4" fill="#0" id="circle66"/>
	<circle cx="395.389" cy="148.291" r="4" fill="#0" id="circle67"/>
	<circle cx="408.015" cy="498.196" r="4" fill="#0" id="circle68"/>
	<circle cx="411.622" cy="139.273" r="4" fill="#0" id="circle69"/>
	<circle cx="426.051" cy="492.785" r="4" fill="#0" id="circle70"/>
	<circle cx="429.658" cy="139.273" r="4" fill="#0" id="circle71"/>
	<circle cx="436.873" cy="117.629" r="4" fill="#0" id="circle72"/>
	<circle cx="444.087" cy="492.785" r="4" fill="#0" id="circle73"/>
	<circle cx="445.891" cy="99.5927" r="4" fill="#0" id="circle74"/>
	<circle cx="460.32" cy="85.1636" r="4" fill="#0" id="circle75"/>
	<circle cx="462.124" cy="492.785" r="4" fill="#0" id="circle76"/>
	<circle cx="469.338" cy="67.1273" r="4" fill="#0" id="circle77"/>
	<circle cx="478.356" cy="49.0909" r="4" fill="#0" id="circle78"/>
	<circle cx="480.16" cy="492.785" r="4" fill="#0" id="circle79"/>
	<circle cx="487.375" cy="31.0545" r="4" fill="#0" id="circle80"/>
	<circle cx="498.196" cy="492.785" r="4" fill="#0" id="circle81"/>
	<circle cx="505.411" cy="22.0364" r="4" fill="#0" id="circle82"/>
	<circle cx="514.429" cy="501.804" r="4" fill="#0" id="circle83"/>
	<circle cx="523.447" cy="22.0364" r="4" fill="#0" id="circle84"/>
	<circle cx="530.662" cy="510.822" r="4" fill="#0" id="circle85"/>
	<circle cx="541.484" cy="22.0364" r="4" fill="#0" id="circle86"/>
	<circle cx="548.698" cy="516.233" r="4" fill="#0" id="circle87"/>
	<circle cx="559.52" cy="13.0182" r="4" fill="#0" id="circle88"/>
	<circle cx="564.931" cy="525.251" r="4" fill="#0" id="circle89"/>
	<circle cx="577.556" cy="13.0182" r="4" fill="#0" id="circle90"/>
	<circle cx="582.967" cy="528.858" r="4" fill="#0" id="circle91"/>
	<circle cx="595.593" cy="13.0182" r="4" fill="#0" id="circle92"/>
	<circle cx="599.2" cy="519.84" r="4" fill="#0" id="circle93"/>
	<circle cx="613.629" cy="13.0182" r="4" fill="#0" id="circle94"/>
	<circle cx="613.629" cy="509.018" r="4" fill="#0" id="circle95"/>
	<circle cx="628.058" cy="492.785" r="4" fill="#0" id="circle96"/>
	<circle cx="631.665" cy="13.0182" r="4" fill="#0" id="circle97"/>
	<circle cx="644.291" cy="483.767" r="4" fill="#0" id="circle98"/>
	<circle cx="649.702" cy="13.0182" r="4" fill="#0" id="circle99"/>
	<circle cx="662.327" cy="483.767" r="4" fill="#0" id="circle100"/>
	<circle cx="667.738" cy="13.0182" r="4" fill="#0" id="circle101"/>
	<circle cx="680.364" cy="483.767" r="4" fill="#0" id="circle102"/>
	<circle cx="685.775" cy="13.0182" r="4" fill="#0" id="circle103"/>
	<circle cx="698.4" cy="487.375" r="4" fill="#0" id="circle104"/>
	<circle cx="703.811" cy="4" r="4" fill="#0" id="circle105"/>
	<circle cx="712.829" cy="472.945" r="4" fill="#0" id="circle106"/>
	<circle cx="718.24" cy="447.695" r="4" fill="#0" id="circle107"/>
	<circle cx="721.847" cy="4" r="4" fill="#0" id="circle108"/>
	<circle cx="736.276" cy="447.695" r="4" fill="#0" id="circle109"/>
	<circle cx="739.884" cy="4" r="4" fill="#0" id="circle110"/>
	<circle cx="752.509" cy="18.4291" r="4" fill="#0" id="circle111"/>
	<circle cx="754.313" cy="447.695" r="4" fill="#0" id="circle112"/>
	<circle cx="763.331" cy="32.8582" r="4" fill="#0" id="circle113"/>
	<circle cx="763.331" cy="50.8945" r="4" fill="#0" id="circle114"/>
	<circle cx="763.331" cy="68.9309" r="4" fill="#0" id="circle115"/>
	<circle cx="763.331" cy="86.9673" r="4" fill="#0" id="circle116"/>
	<circle cx="763.331" cy="105.004" r="4" fill="#0" id="circle117"/>
	<circle cx="763.331" cy="123.04" r="4" fill="#0" id="circle118"/>
	<circle cx="772.349" cy="447.695" r="4" fill="#0" id="circle119"/>
	<circle cx="777.76" cy="133.862" r="4" fill="#0" id="circle120"/>
	<circle cx="790.385" cy="447.695" r="4" fill="#0" id="circle121"/>
	<circle cx="795.796" cy="141.076" r="4" fill="#0" id="circle122"/>
	<circle cx="803.011" cy="159.113" r="4" fill="#0" id="circle123"/>
	<circle cx="806.618" cy="456.713" r="4" fill="#0" id="circle124"/>
	<circle cx="812.029" cy="175.345" r="4" fill="#0" id="circle125"/>
	<circle cx="815.636" cy="472.945" r="4" fill="#0" id="circle126"/>
	<circle cx="815.636" cy="490.982" r="4" fill="#0" id="circle127"/>
	<circle cx="817.44" cy="193.382" r="4" fill="#0" id="circle128"/>
	<circle cx="824.655" cy="507.215" r="4" fill="#0" id="circle129"/>
	<circle cx="831.869" cy="204.204" r="4" fill="#0" id="circle130"/>
	<circle cx="839.084" cy="519.84" r="4" fill="#0" id="circle131"/>
	<circle cx="848.102" cy="213.222" r="4" fill="#0" id="circle132"/>
	<circle cx="855.316" cy="528.858" r="4" fill="#0" id="circle133"/>
	<circle cx="866.138" cy="220.436" r="4" fill="#0" id="circle134"/>
	<circle cx="873.353" cy="528.858" r="4" fill="#0" id="circle135"/>
	<circle cx="884.175" cy="220.436" r="4" fill="#0" id="circle136"/>
	<circle cx="891.389" cy="528.858" r="4" fill="#0" id="circle137"/>
	<circle cx="896.8" cy="234.865" r="4" fill="#0" id="circle138"/>
	<circle cx="907.622" cy="249.295" r="4" fill="#0" id="circle139"/>
	<circle cx="907.622" cy="519.84" r="4" fill="#0" id="circle140"/>
	<circle cx="916.64" cy="402.604" r="4" fill="#0" id="circle141"/>
	<circle cx="916.64" cy="420.64" r="4" fill="#0" id="circle142"/>
	<circle cx="916.64" cy="438.676" r="4" fill="#0" id="circle143"/>
	<circle cx="916.64" cy="456.713" r="4" fill="#0" id="circle144"/>
	<circle cx="916.64" cy="474.749" r="4" fill="#0" id="circle145"/>
	<circle cx="922.051" cy="507.215" r="4" fill="#0" id="circle146"/>
	<circle cx="925.658" cy="256.509" r="4" fill="#0" id="circle147"/>
	<circle cx="934.676" cy="402.604" r="4" fill="#0" id="circle148"/>
	<circle cx="940.087" cy="267.331" r="4" fill="#0" id="circle149"/>
	<circle cx="952.713" cy="281.76" r="4" fill="#0" id="circle150"/>
	<circle cx="952.713" cy="299.796" r="4" fill="#0" id="circle151"/>
	<circle cx="952.713" cy="393.585" r="4" fill="#0" id="circle152"/>
	<circle cx="967.142" cy="310.618" r="4" fill="#0" id="circle153"/>
	<circle cx="970.749" cy="384.567" r="4" fill="#0" id="circle154"/>
	<circle cx="983.375" cy="319.636" r="4" fill="#0" id="circle155"/>
	<circle cx="985.178" cy="371.942" r="4" fill="#0" id="circle156"/>
	<circle cx="994.196" cy="353.905" r="4" fill="#0" id="circle157"/>
	<circle cx="996" cy="334.065" r="4" fill="#0" id="circle158"/>
	</g>
</svg>