<?xml version="1.0" encoding="UTF-8" standalone="no"?>
<!-- Created with CurveBenchmark -->
<svg
	xmlns:dc="http://purl.org/dc/elements/1.1/"
	xmlns:cc="http://creativecommons.org/ns#"
	xmlns:rdf="http://www.w3.org/1999/02/22-rdf-syntax-ns#"
	xmlns:svg="http://www.w3.org/2000/svg"
	xmlns="http://www.w3.org/2000/svg"
	xmlns:sodipodi="http://sodipodi.sourceforge.net/DTD/sodipodi-0.dtd"
	xmlns:inkscape="http://www.inkscape.org/namespaces/inkscape"
	width="1000"
	height="1000"
	id="svg2"
	version="1.1"
	sodipodi:docname="manifold/peel-pencil-15.png.txt">
<defs
	id="defs4" />
<metadata
	id="metadata7">
	<rdf:RDF>
		<cc:Work
			rdf:about="">
			<dc:format>image/svg+xml</dc:format>
			<dc:type
				rdf:resource="http://purl.org/dc/dcmitype/StillImage" />
			<dc:title></dc:title>
		</cc:Work>
	</rdf:RDF>
</metadata>
<g
	inkscape:label="Layer 1"
	inkscape:groupmode="layer"
	id="layer1">
	<path style="fill:none;stroke:red;stroke-width:1px;stroke-linecap:butt;stroke-linejoin:miter;stroke-opacity:1" d="M 8.38938,85.6425 8.38938,94.4212 z" id="boundary" inkscape:connector-curvature="0" />
	<path style="fill:none;stroke:red;stroke-width:1px;stroke-linecap:butt;stroke-linejoin:miter;stroke-opacity:1" d="M 8.38938,85.6425 8.38938,76.8637 z" id="boundary" inkscape:connector-curvature="0" />
	<path style="fill:none;stroke:red;stroke-width:1px;stroke-linecap:butt;stroke-linejoin:miter;stroke-opacity:1" d="M 8.38938,103.2 8.38938,94.4212 z" id="boundary" inkscape:connector-curvature="0" />
	<path style="fill:none;stroke:red;stroke-width:1px;stroke-linecap:butt;stroke-linejoin:miter;stroke-opacity:1" d="M 8.38938,111.979 8.38938,103.2 z" id="boundary" inkscape:connector-curvature="0" />
	<path style="fill:none;stroke:red;stroke-width:1px;stroke-linecap:butt;stroke-linejoin:miter;stroke-opacity:1" d="M 12.7788,54.9168 12.7788,46.1381 z" id="boundary" inkscape:connector-curvature="0" />
	<path style="fill:none;stroke:red;stroke-width:1px;stroke-linecap:butt;stroke-linejoin:miter;stroke-opacity:1" d="M 4,133.926 8.38938,120.758 z" id="boundary" inkscape:connector-curvature="0" />
	<path style="fill:none;stroke:red;stroke-width:1px;stroke-linecap:butt;stroke-linejoin:miter;stroke-opacity:1" d="M 8.38938,120.758 8.38938,111.979 z" id="boundary" inkscape:connector-curvature="0" />
	<path style="fill:none;stroke:red;stroke-width:1px;stroke-linecap:butt;stroke-linejoin:miter;stroke-opacity:1" d="M 12.7788,63.6956 8.38938,76.8637 z" id="boundary" inkscape:connector-curvature="0" />
	<path style="fill:none;stroke:red;stroke-width:1px;stroke-linecap:butt;stroke-linejoin:miter;stroke-opacity:1" d="M 12.7788,63.6956 12.7788,54.9168 z" id="boundary" inkscape:connector-curvature="0" />
	<path style="fill:none;stroke:red;stroke-width:1px;stroke-linecap:butt;stroke-linejoin:miter;stroke-opacity:1" d="M 4,133.926 4,142.704 z" id="boundary" inkscape:connector-curvature="0" />
	<path style="fill:none;stroke:red;stroke-width:1px;stroke-linecap:butt;stroke-linejoin:miter;stroke-opacity:1" d="M 8.38938,159.384 4,151.483 z" id="boundary" inkscape:connector-curvature="0" />
	<path style="fill:none;stroke:red;stroke-width:1px;stroke-linecap:butt;stroke-linejoin:miter;stroke-opacity:1" d="M 4,151.483 4,142.704 z" id="boundary" inkscape:connector-curvature="0" />
	<path style="fill:none;stroke:red;stroke-width:1px;stroke-linecap:butt;stroke-linejoin:miter;stroke-opacity:1" d="M 54.9168,22.4354 47.8938,17.1681 z" id="boundary" inkscape:connector-curvature="0" />
	<path style="fill:none;stroke:red;stroke-width:1px;stroke-linecap:butt;stroke-linejoin:miter;stroke-opacity:1" d="M 8.38938,168.163 8.38938,159.384 z" id="boundary" inkscape:connector-curvature="0" />
	<path style="fill:none;stroke:red;stroke-width:1px;stroke-linecap:butt;stroke-linejoin:miter;stroke-opacity:1" d="M 54.9168,22.4354 63.6956,25.9469 z" id="boundary" inkscape:connector-curvature="0" />
	<path style="fill:none;stroke:red;stroke-width:1px;stroke-linecap:butt;stroke-linejoin:miter;stroke-opacity:1" d="M 63.6956,25.9469 69.8407,32.9699 z" id="boundary" inkscape:connector-curvature="0" />
	<path style="fill:none;stroke:red;stroke-width:1px;stroke-linecap:butt;stroke-linejoin:miter;stroke-opacity:1" d="M 69.8407,32.9699 78.6195,36.4814 z" id="boundary" inkscape:connector-curvature="0" />
	<path style="fill:none;stroke:red;stroke-width:1px;stroke-linecap:butt;stroke-linejoin:miter;stroke-opacity:1" d="M 17.1681,37.3593 12.7788,46.1381 z" id="boundary" inkscape:connector-curvature="0" />
	<path style="fill:none;stroke:red;stroke-width:1px;stroke-linecap:butt;stroke-linejoin:miter;stroke-opacity:1" d="M 17.1681,37.3593 17.1681,28.5805 z" id="boundary" inkscape:connector-curvature="0" />
	<path style="fill:none;stroke:red;stroke-width:1px;stroke-linecap:butt;stroke-linejoin:miter;stroke-opacity:1" d="M 17.1681,19.8018 17.1681,11.023 z" id="boundary" inkscape:connector-curvature="0" />
	<path style="fill:none;stroke:red;stroke-width:1px;stroke-linecap:butt;stroke-linejoin:miter;stroke-opacity:1" d="M 12.7788,176.064 8.38938,168.163 z" id="boundary" inkscape:connector-curvature="0" />
	<path style="fill:none;stroke:red;stroke-width:1px;stroke-linecap:butt;stroke-linejoin:miter;stroke-opacity:1" d="M 15.4124,184.842 12.7788,176.064 z" id="boundary" inkscape:connector-curvature="0" />
	<path style="fill:none;stroke:red;stroke-width:1px;stroke-linecap:butt;stroke-linejoin:miter;stroke-opacity:1" d="M 17.1681,28.5805 17.1681,19.8018 z" id="boundary" inkscape:connector-curvature="0" />
	<path style="fill:none;stroke:red;stroke-width:1px;stroke-linecap:butt;stroke-linejoin:miter;stroke-opacity:1" d="M 17.1681,193.621 15.4124,184.842 z" id="boundary" inkscape:connector-curvature="0" />
	<path style="fill:none;stroke:red;stroke-width:1px;stroke-linecap:butt;stroke-linejoin:miter;stroke-opacity:1" d="M 17.1681,11.023 24.1912,4 z" id="boundary" inkscape:connector-curvature="0" />
	<path style="fill:none;stroke:red;stroke-width:1px;stroke-linecap:butt;stroke-linejoin:miter;stroke-opacity:1" d="M 24.1912,4 32.092,8.38938 z" id="boundary" inkscape:connector-curvature="0" />
	<path style="fill:none;stroke:red;stroke-width:1px;stroke-linecap:butt;stroke-linejoin:miter;stroke-opacity:1" d="M 47.8938,17.1681 39.9929,12.7788 z" id="boundary" inkscape:connector-curvature="0" />
	<path style="fill:none;stroke:red;stroke-width:1px;stroke-linecap:butt;stroke-linejoin:miter;stroke-opacity:1" d="M 92.6655,47.8938 99.6885,53.1611 z" id="boundary" inkscape:connector-curvature="0" />
	<path style="fill:none;stroke:red;stroke-width:1px;stroke-linecap:butt;stroke-linejoin:miter;stroke-opacity:1" d="M 21.5575,201.522 17.1681,193.621 z" id="boundary" inkscape:connector-curvature="0" />
	<path style="fill:none;stroke:red;stroke-width:1px;stroke-linecap:butt;stroke-linejoin:miter;stroke-opacity:1" d="M 39.9929,12.7788 32.092,8.38938 z" id="boundary" inkscape:connector-curvature="0" />
	<path style="fill:none;stroke:red;stroke-width:1px;stroke-linecap:butt;stroke-linejoin:miter;stroke-opacity:1" d="M 25.9469,209.423 21.5575,201.522 z" id="boundary" inkscape:connector-curvature="0" />
	<path style="fill:none;stroke:red;stroke-width:1px;stroke-linecap:butt;stroke-linejoin:miter;stroke-opacity:1" d="M 30.3363,226.103 30.3363,217.324 z" id="boundary" inkscape:connector-curvature="0" />
	<path style="fill:none;stroke:red;stroke-width:1px;stroke-linecap:butt;stroke-linejoin:miter;stroke-opacity:1" d="M 30.3363,217.324 25.9469,209.423 z" id="boundary" inkscape:connector-curvature="0" />
	<path style="fill:none;stroke:red;stroke-width:1px;stroke-linecap:butt;stroke-linejoin:miter;stroke-opacity:1" d="M 78.6195,36.4814 86.5204,40.8708 z" id="boundary" inkscape:connector-curvature="0" />
	<path style="fill:none;stroke:red;stroke-width:1px;stroke-linecap:butt;stroke-linejoin:miter;stroke-opacity:1" d="M 86.5204,40.8708 92.6655,47.8938 z" id="boundary" inkscape:connector-curvature="0" />
	<path style="fill:none;stroke:red;stroke-width:1px;stroke-linecap:butt;stroke-linejoin:miter;stroke-opacity:1" d="M 43.5044,259.462 46.1381,268.241 z" id="boundary" inkscape:connector-curvature="0" />
	<path style="fill:none;stroke:red;stroke-width:1px;stroke-linecap:butt;stroke-linejoin:miter;stroke-opacity:1" d="M 34.7257,234.004 30.3363,226.103 z" id="boundary" inkscape:connector-curvature="0" />
	<path style="fill:none;stroke:red;stroke-width:1px;stroke-linecap:butt;stroke-linejoin:miter;stroke-opacity:1" d="M 39.115,241.904 34.7257,234.004 z" id="boundary" inkscape:connector-curvature="0" />
	<path style="fill:none;stroke:red;stroke-width:1px;stroke-linecap:butt;stroke-linejoin:miter;stroke-opacity:1" d="M 41.7487,250.683 43.5044,259.462 z" id="boundary" inkscape:connector-curvature="0" />
	<path style="fill:none;stroke:red;stroke-width:1px;stroke-linecap:butt;stroke-linejoin:miter;stroke-opacity:1" d="M 41.7487,250.683 39.115,241.904 z" id="boundary" inkscape:connector-curvature="0" />
	<path style="fill:none;stroke:red;stroke-width:1px;stroke-linecap:butt;stroke-linejoin:miter;stroke-opacity:1" d="M 107.589,57.5504 114.612,63.6956 z" id="boundary" inkscape:connector-curvature="0" />
	<path style="fill:none;stroke:red;stroke-width:1px;stroke-linecap:butt;stroke-linejoin:miter;stroke-opacity:1" d="M 107.589,57.5504 99.6885,53.1611 z" id="boundary" inkscape:connector-curvature="0" />
	<path style="fill:none;stroke:red;stroke-width:1px;stroke-linecap:butt;stroke-linejoin:miter;stroke-opacity:1" d="M 50.5274,276.142 46.1381,268.241 z" id="boundary" inkscape:connector-curvature="0" />
	<path style="fill:none;stroke:red;stroke-width:1px;stroke-linecap:butt;stroke-linejoin:miter;stroke-opacity:1" d="M 52.2832,284.92 50.5274,276.142 z" id="boundary" inkscape:connector-curvature="0" />
	<path style="fill:none;stroke:red;stroke-width:1px;stroke-linecap:butt;stroke-linejoin:miter;stroke-opacity:1" d="M 121.635,69.8407 114.612,63.6956 z" id="boundary" inkscape:connector-curvature="0" />
	<path style="fill:none;stroke:red;stroke-width:1px;stroke-linecap:butt;stroke-linejoin:miter;stroke-opacity:1" d="M 56.6726,292.821 52.2832,284.92 z" id="boundary" inkscape:connector-curvature="0" />
	<path style="fill:none;stroke:red;stroke-width:1px;stroke-linecap:butt;stroke-linejoin:miter;stroke-opacity:1" d="M 61.0619,309.501 61.0619,300.722 z" id="boundary" inkscape:connector-curvature="0" />
	<path style="fill:none;stroke:red;stroke-width:1px;stroke-linecap:butt;stroke-linejoin:miter;stroke-opacity:1" d="M 61.0619,300.722 56.6726,292.821 z" id="boundary" inkscape:connector-curvature="0" />
	<path style="fill:none;stroke:red;stroke-width:1px;stroke-linecap:butt;stroke-linejoin:miter;stroke-opacity:1" d="M 129.536,74.2301 135.681,81.2531 z" id="boundary" inkscape:connector-curvature="0" />
	<path style="fill:none;stroke:red;stroke-width:1px;stroke-linecap:butt;stroke-linejoin:miter;stroke-opacity:1" d="M 129.536,74.2301 121.635,69.8407 z" id="boundary" inkscape:connector-curvature="0" />
	<path style="fill:none;stroke:red;stroke-width:1px;stroke-linecap:butt;stroke-linejoin:miter;stroke-opacity:1" d="M 65.4513,317.402 61.0619,309.501 z" id="boundary" inkscape:connector-curvature="0" />
	<path style="fill:none;stroke:red;stroke-width:1px;stroke-linecap:butt;stroke-linejoin:miter;stroke-opacity:1" d="M 69.8407,325.303 65.4513,317.402 z" id="boundary" inkscape:connector-curvature="0" />
	<path style="fill:none;stroke:red;stroke-width:1px;stroke-linecap:butt;stroke-linejoin:miter;stroke-opacity:1" d="M 149.727,104.078 145.338,96.177 z" id="boundary" inkscape:connector-curvature="0" />
	<path style="fill:none;stroke:red;stroke-width:1px;stroke-linecap:butt;stroke-linejoin:miter;stroke-opacity:1" d="M 69.8407,334.081 69.8407,325.303 z" id="boundary" inkscape:connector-curvature="0" />
	<path style="fill:none;stroke:red;stroke-width:1px;stroke-linecap:butt;stroke-linejoin:miter;stroke-opacity:1" d="M 74.2301,341.982 69.8407,334.081 z" id="boundary" inkscape:connector-curvature="0" />
	<path style="fill:none;stroke:red;stroke-width:1px;stroke-linecap:butt;stroke-linejoin:miter;stroke-opacity:1" d="M 135.681,81.2531 142.704,87.3982 z" id="boundary" inkscape:connector-curvature="0" />
	<path style="fill:none;stroke:red;stroke-width:1px;stroke-linecap:butt;stroke-linejoin:miter;stroke-opacity:1" d="M 142.704,87.3982 145.338,96.177 z" id="boundary" inkscape:connector-curvature="0" />
	<path style="fill:none;stroke:red;stroke-width:1px;stroke-linecap:butt;stroke-linejoin:miter;stroke-opacity:1" d="M 75.9858,350.761 74.2301,341.982 z" id="boundary" inkscape:connector-curvature="0" />
	<path style="fill:none;stroke:red;stroke-width:1px;stroke-linecap:butt;stroke-linejoin:miter;stroke-opacity:1" d="M 80.3752,358.662 75.9858,350.761 z" id="boundary" inkscape:connector-curvature="0" />
	<path style="fill:none;stroke:red;stroke-width:1px;stroke-linecap:butt;stroke-linejoin:miter;stroke-opacity:1" d="M 83.0088,367.441 80.3752,358.662 z" id="boundary" inkscape:connector-curvature="0" />
	<path style="fill:none;stroke:red;stroke-width:1px;stroke-linecap:butt;stroke-linejoin:miter;stroke-opacity:1" d="M 87.3982,375.342 83.0088,367.441 z" id="boundary" inkscape:connector-curvature="0" />
	<path style="fill:none;stroke:red;stroke-width:1px;stroke-linecap:butt;stroke-linejoin:miter;stroke-opacity:1" d="M 91.7876,392.021 87.3982,384.12 z" id="boundary" inkscape:connector-curvature="0" />
	<path style="fill:none;stroke:red;stroke-width:1px;stroke-linecap:butt;stroke-linejoin:miter;stroke-opacity:1" d="M 87.3982,384.12 87.3982,375.342 z" id="boundary" inkscape:connector-curvature="0" />
	<path style="fill:none;stroke:red;stroke-width:1px;stroke-linecap:butt;stroke-linejoin:miter;stroke-opacity:1" d="M 154.117,120.758 154.117,111.979 z" id="boundary" inkscape:connector-curvature="0" />
	<path style="fill:none;stroke:red;stroke-width:1px;stroke-linecap:butt;stroke-linejoin:miter;stroke-opacity:1" d="M 154.117,111.979 149.727,104.078 z" id="boundary" inkscape:connector-curvature="0" />
	<path style="fill:none;stroke:red;stroke-width:1px;stroke-linecap:butt;stroke-linejoin:miter;stroke-opacity:1" d="M 98.8106,408.701 100.566,417.48 z" id="boundary" inkscape:connector-curvature="0" />
	<path style="fill:none;stroke:red;stroke-width:1px;stroke-linecap:butt;stroke-linejoin:miter;stroke-opacity:1" d="M 96.177,399.922 91.7876,392.021 z" id="boundary" inkscape:connector-curvature="0" />
	<path style="fill:none;stroke:red;stroke-width:1px;stroke-linecap:butt;stroke-linejoin:miter;stroke-opacity:1" d="M 98.8106,408.701 96.177,399.922 z" id="boundary" inkscape:connector-curvature="0" />
	<path style="fill:none;stroke:red;stroke-width:1px;stroke-linecap:butt;stroke-linejoin:miter;stroke-opacity:1" d="M 161.14,137.437 158.506,128.658 z" id="boundary" inkscape:connector-curvature="0" />
	<path style="fill:none;stroke:red;stroke-width:1px;stroke-linecap:butt;stroke-linejoin:miter;stroke-opacity:1" d="M 158.506,128.658 154.117,120.758 z" id="boundary" inkscape:connector-curvature="0" />
	<path style="fill:none;stroke:red;stroke-width:1px;stroke-linecap:butt;stroke-linejoin:miter;stroke-opacity:1" d="M 104.956,425.381 100.566,417.48 z" id="boundary" inkscape:connector-curvature="0" />
	<path style="fill:none;stroke:red;stroke-width:1px;stroke-linecap:butt;stroke-linejoin:miter;stroke-opacity:1" d="M 210.301,261.218 211.179,269.996 z" id="boundary" inkscape:connector-curvature="0" />
	<path style="fill:none;stroke:red;stroke-width:1px;stroke-linecap:butt;stroke-linejoin:miter;stroke-opacity:1" d="M 210.301,261.218 204.156,254.195 z" id="boundary" inkscape:connector-curvature="0" />
	<path style="fill:none;stroke:red;stroke-width:1px;stroke-linecap:butt;stroke-linejoin:miter;stroke-opacity:1" d="M 110.223,442.06 113.735,450.839 z" id="boundary" inkscape:connector-curvature="0" />
	<path style="fill:none;stroke:red;stroke-width:1px;stroke-linecap:butt;stroke-linejoin:miter;stroke-opacity:1" d="M 233.126,327.936 237.515,335.837 z" id="boundary" inkscape:connector-curvature="0" />
	<path style="fill:none;stroke:red;stroke-width:1px;stroke-linecap:butt;stroke-linejoin:miter;stroke-opacity:1" d="M 110.223,442.06 109.345,433.281 z" id="boundary" inkscape:connector-curvature="0" />
	<path style="fill:none;stroke:red;stroke-width:1px;stroke-linecap:butt;stroke-linejoin:miter;stroke-opacity:1" d="M 109.345,433.281 104.956,425.381 z" id="boundary" inkscape:connector-curvature="0" />
	<path style="fill:none;stroke:red;stroke-width:1px;stroke-linecap:butt;stroke-linejoin:miter;stroke-opacity:1" d="M 118.124,458.74 113.735,450.839 z" id="boundary" inkscape:connector-curvature="0" />
	<path style="fill:none;stroke:red;stroke-width:1px;stroke-linecap:butt;stroke-linejoin:miter;stroke-opacity:1" d="M 161.14,137.437 165.529,145.338 z" id="boundary" inkscape:connector-curvature="0" />
	<path style="fill:none;stroke:red;stroke-width:1px;stroke-linecap:butt;stroke-linejoin:miter;stroke-opacity:1" d="M 165.529,145.338 167.285,154.117 z" id="boundary" inkscape:connector-curvature="0" />
	<path style="fill:none;stroke:red;stroke-width:1px;stroke-linecap:butt;stroke-linejoin:miter;stroke-opacity:1" d="M 122.513,466.641 118.124,458.74 z" id="boundary" inkscape:connector-curvature="0" />
	<path style="fill:none;stroke:red;stroke-width:1px;stroke-linecap:butt;stroke-linejoin:miter;stroke-opacity:1" d="M 126.903,483.32 126.903,474.542 z" id="boundary" inkscape:connector-curvature="0" />
	<path style="fill:none;stroke:red;stroke-width:1px;stroke-linecap:butt;stroke-linejoin:miter;stroke-opacity:1" d="M 126.903,474.542 122.513,466.641 z" id="boundary" inkscape:connector-curvature="0" />
	<path style="fill:none;stroke:red;stroke-width:1px;stroke-linecap:butt;stroke-linejoin:miter;stroke-opacity:1" d="M 171.674,170.796 171.674,162.018 z" id="boundary" inkscape:connector-curvature="0" />
	<path style="fill:none;stroke:red;stroke-width:1px;stroke-linecap:butt;stroke-linejoin:miter;stroke-opacity:1" d="M 171.674,162.018 167.285,154.117 z" id="boundary" inkscape:connector-curvature="0" />
	<path style="fill:none;stroke:red;stroke-width:1px;stroke-linecap:butt;stroke-linejoin:miter;stroke-opacity:1" d="M 133.048,500 135.681,508.779 z" id="boundary" inkscape:connector-curvature="0" />
	<path style="fill:none;stroke:red;stroke-width:1px;stroke-linecap:butt;stroke-linejoin:miter;stroke-opacity:1" d="M 131.292,491.221 126.903,483.32 z" id="boundary" inkscape:connector-curvature="0" />
	<path style="fill:none;stroke:red;stroke-width:1px;stroke-linecap:butt;stroke-linejoin:miter;stroke-opacity:1" d="M 133.048,500 131.292,491.221 z" id="boundary" inkscape:connector-curvature="0" />
	<path style="fill:none;stroke:red;stroke-width:1px;stroke-linecap:butt;stroke-linejoin:miter;stroke-opacity:1" d="M 218.202,286.676 219.958,295.455 z" id="boundary" inkscape:connector-curvature="0" />
	<path style="fill:none;stroke:red;stroke-width:1px;stroke-linecap:butt;stroke-linejoin:miter;stroke-opacity:1" d="M 140.071,516.68 135.681,508.779 z" id="boundary" inkscape:connector-curvature="0" />
	<path style="fill:none;stroke:red;stroke-width:1px;stroke-linecap:butt;stroke-linejoin:miter;stroke-opacity:1" d="M 171.674,170.796 176.064,178.697 z" id="boundary" inkscape:connector-curvature="0" />
	<path style="fill:none;stroke:red;stroke-width:1px;stroke-linecap:butt;stroke-linejoin:miter;stroke-opacity:1" d="M 140.949,525.458 140.071,516.68 z" id="boundary" inkscape:connector-curvature="0" />
	<path style="fill:none;stroke:red;stroke-width:1px;stroke-linecap:butt;stroke-linejoin:miter;stroke-opacity:1" d="M 180.453,186.598 183.965,195.377 z" id="boundary" inkscape:connector-curvature="0" />
	<path style="fill:none;stroke:red;stroke-width:1px;stroke-linecap:butt;stroke-linejoin:miter;stroke-opacity:1" d="M 180.453,186.598 176.064,178.697 z" id="boundary" inkscape:connector-curvature="0" />
	<path style="fill:none;stroke:red;stroke-width:1px;stroke-linecap:butt;stroke-linejoin:miter;stroke-opacity:1" d="M 145.338,533.359 140.949,525.458 z" id="boundary" inkscape:connector-curvature="0" />
	<path style="fill:none;stroke:red;stroke-width:1px;stroke-linecap:butt;stroke-linejoin:miter;stroke-opacity:1" d="M 148.85,542.138 145.338,533.359 z" id="boundary" inkscape:connector-curvature="0" />
	<path style="fill:none;stroke:red;stroke-width:1px;stroke-linecap:butt;stroke-linejoin:miter;stroke-opacity:1" d="M 153.239,550.039 148.85,542.138 z" id="boundary" inkscape:connector-curvature="0" />
	<path style="fill:none;stroke:red;stroke-width:1px;stroke-linecap:butt;stroke-linejoin:miter;stroke-opacity:1" d="M 189.232,212.057 188.354,203.278 z" id="boundary" inkscape:connector-curvature="0" />
	<path style="fill:none;stroke:red;stroke-width:1px;stroke-linecap:butt;stroke-linejoin:miter;stroke-opacity:1" d="M 188.354,203.278 183.965,195.377 z" id="boundary" inkscape:connector-curvature="0" />
	<path style="fill:none;stroke:red;stroke-width:1px;stroke-linecap:butt;stroke-linejoin:miter;stroke-opacity:1" d="M 199.766,246.294 198.011,237.515 z" id="boundary" inkscape:connector-curvature="0" />
	<path style="fill:none;stroke:red;stroke-width:1px;stroke-linecap:butt;stroke-linejoin:miter;stroke-opacity:1" d="M 189.232,212.057 191.865,220.835 z" id="boundary" inkscape:connector-curvature="0" />
	<path style="fill:none;stroke:red;stroke-width:1px;stroke-linecap:butt;stroke-linejoin:miter;stroke-opacity:1" d="M 157.628,566.719 157.628,557.94 z" id="boundary" inkscape:connector-curvature="0" />
	<path style="fill:none;stroke:red;stroke-width:1px;stroke-linecap:butt;stroke-linejoin:miter;stroke-opacity:1" d="M 157.628,557.94 153.239,550.039 z" id="boundary" inkscape:connector-curvature="0" />
	<path style="fill:none;stroke:red;stroke-width:1px;stroke-linecap:butt;stroke-linejoin:miter;stroke-opacity:1" d="M 162.018,574.619 157.628,566.719 z" id="boundary" inkscape:connector-curvature="0" />
	<path style="fill:none;stroke:red;stroke-width:1px;stroke-linecap:butt;stroke-linejoin:miter;stroke-opacity:1" d="M 191.865,220.835 196.255,228.736 z" id="boundary" inkscape:connector-curvature="0" />
	<path style="fill:none;stroke:red;stroke-width:1px;stroke-linecap:butt;stroke-linejoin:miter;stroke-opacity:1" d="M 196.255,228.736 198.011,237.515 z" id="boundary" inkscape:connector-curvature="0" />
	<path style="fill:none;stroke:red;stroke-width:1px;stroke-linecap:butt;stroke-linejoin:miter;stroke-opacity:1" d="M 166.407,582.52 167.285,591.299 z" id="boundary" inkscape:connector-curvature="0" />
	<path style="fill:none;stroke:red;stroke-width:1px;stroke-linecap:butt;stroke-linejoin:miter;stroke-opacity:1" d="M 166.407,582.52 162.018,574.619 z" id="boundary" inkscape:connector-curvature="0" />
	<path style="fill:none;stroke:red;stroke-width:1px;stroke-linecap:butt;stroke-linejoin:miter;stroke-opacity:1" d="M 170.796,600.078 167.285,591.299 z" id="boundary" inkscape:connector-curvature="0" />
	<path style="fill:none;stroke:red;stroke-width:1px;stroke-linecap:butt;stroke-linejoin:miter;stroke-opacity:1" d="M 199.766,246.294 204.156,254.195 z" id="boundary" inkscape:connector-curvature="0" />
	<path style="fill:none;stroke:red;stroke-width:1px;stroke-linecap:butt;stroke-linejoin:miter;stroke-opacity:1" d="M 175.186,607.979 170.796,600.078 z" id="boundary" inkscape:connector-curvature="0" />
	<path style="fill:none;stroke:red;stroke-width:1px;stroke-linecap:butt;stroke-linejoin:miter;stroke-opacity:1" d="M 300.722,492.099 298.966,483.32 z" id="boundary" inkscape:connector-curvature="0" />
	<path style="fill:none;stroke:red;stroke-width:1px;stroke-linecap:butt;stroke-linejoin:miter;stroke-opacity:1" d="M 298.966,483.32 294.577,475.419 z" id="boundary" inkscape:connector-curvature="0" />
	<path style="fill:none;stroke:red;stroke-width:1px;stroke-linecap:butt;stroke-linejoin:miter;stroke-opacity:1" d="M 218.202,286.676 215.568,277.897 z" id="boundary" inkscape:connector-curvature="0" />
	<path style="fill:none;stroke:red;stroke-width:1px;stroke-linecap:butt;stroke-linejoin:miter;stroke-opacity:1" d="M 215.568,277.897 211.179,269.996 z" id="boundary" inkscape:connector-curvature="0" />
	<path style="fill:none;stroke:red;stroke-width:1px;stroke-linecap:butt;stroke-linejoin:miter;stroke-opacity:1" d="M 179.575,624.658 179.575,615.88 z" id="boundary" inkscape:connector-curvature="0" />
	<path style="fill:none;stroke:red;stroke-width:1px;stroke-linecap:butt;stroke-linejoin:miter;stroke-opacity:1" d="M 179.575,615.88 175.186,607.979 z" id="boundary" inkscape:connector-curvature="0" />
	<path style="fill:none;stroke:red;stroke-width:1px;stroke-linecap:butt;stroke-linejoin:miter;stroke-opacity:1" d="M 183.965,632.559 179.575,624.658 z" id="boundary" inkscape:connector-curvature="0" />
	<path style="fill:none;stroke:red;stroke-width:1px;stroke-linecap:butt;stroke-linejoin:miter;stroke-opacity:1" d="M 224.347,303.356 219.958,295.455 z" id="boundary" inkscape:connector-curvature="0" />
	<path style="fill:none;stroke:red;stroke-width:1px;stroke-linecap:butt;stroke-linejoin:miter;stroke-opacity:1" d="M 188.354,640.46 183.965,632.559 z" id="boundary" inkscape:connector-curvature="0" />
	<path style="fill:none;stroke:red;stroke-width:1px;stroke-linecap:butt;stroke-linejoin:miter;stroke-opacity:1" d="M 228.736,311.257 224.347,303.356 z" id="boundary" inkscape:connector-curvature="0" />
	<path style="fill:none;stroke:red;stroke-width:1px;stroke-linecap:butt;stroke-linejoin:miter;stroke-opacity:1" d="M 233.126,319.158 233.126,327.936 z" id="boundary" inkscape:connector-curvature="0" />
	<path style="fill:none;stroke:red;stroke-width:1px;stroke-linecap:butt;stroke-linejoin:miter;stroke-opacity:1" d="M 233.126,319.158 228.736,311.257 z" id="boundary" inkscape:connector-curvature="0" />
	<path style="fill:none;stroke:red;stroke-width:1px;stroke-linecap:butt;stroke-linejoin:miter;stroke-opacity:1" d="M 188.354,640.46 190.11,649.239 z" id="boundary" inkscape:connector-curvature="0" />
	<path style="fill:none;stroke:red;stroke-width:1px;stroke-linecap:butt;stroke-linejoin:miter;stroke-opacity:1" d="M 194.499,657.14 190.11,649.239 z" id="boundary" inkscape:connector-curvature="0" />
	<path style="fill:none;stroke:red;stroke-width:1px;stroke-linecap:butt;stroke-linejoin:miter;stroke-opacity:1" d="M 237.515,335.837 241.904,343.738 z" id="boundary" inkscape:connector-curvature="0" />
	<path style="fill:none;stroke:red;stroke-width:1px;stroke-linecap:butt;stroke-linejoin:miter;stroke-opacity:1" d="M 194.499,657.14 197.133,665.919 z" id="boundary" inkscape:connector-curvature="0" />
	<path style="fill:none;stroke:red;stroke-width:1px;stroke-linecap:butt;stroke-linejoin:miter;stroke-opacity:1" d="M 278.775,434.159 281.409,442.938 z" id="boundary" inkscape:connector-curvature="0" />
	<path style="fill:none;stroke:red;stroke-width:1px;stroke-linecap:butt;stroke-linejoin:miter;stroke-opacity:1" d="M 278.775,434.159 274.386,426.258 z" id="boundary" inkscape:connector-curvature="0" />
	<path style="fill:none;stroke:red;stroke-width:1px;stroke-linecap:butt;stroke-linejoin:miter;stroke-opacity:1" d="M 201.522,673.819 197.133,665.919 z" id="boundary" inkscape:connector-curvature="0" />
	<path style="fill:none;stroke:red;stroke-width:1px;stroke-linecap:butt;stroke-linejoin:miter;stroke-opacity:1" d="M 246.294,351.639 248.05,360.418 z" id="boundary" inkscape:connector-curvature="0" />
	<path style="fill:none;stroke:red;stroke-width:1px;stroke-linecap:butt;stroke-linejoin:miter;stroke-opacity:1" d="M 246.294,351.639 241.904,343.738 z" id="boundary" inkscape:connector-curvature="0" />
	<path style="fill:none;stroke:red;stroke-width:1px;stroke-linecap:butt;stroke-linejoin:miter;stroke-opacity:1" d="M 248.05,360.418 250.683,369.196 z" id="boundary" inkscape:connector-curvature="0" />
	<path style="fill:none;stroke:red;stroke-width:1px;stroke-linecap:butt;stroke-linejoin:miter;stroke-opacity:1" d="M 205.912,681.72 205.912,690.499 z" id="boundary" inkscape:connector-curvature="0" />
	<path style="fill:none;stroke:red;stroke-width:1px;stroke-linecap:butt;stroke-linejoin:miter;stroke-opacity:1" d="M 205.912,681.72 201.522,673.819 z" id="boundary" inkscape:connector-curvature="0" />
	<path style="fill:none;stroke:red;stroke-width:1px;stroke-linecap:butt;stroke-linejoin:miter;stroke-opacity:1" d="M 210.301,698.4 205.912,690.499 z" id="boundary" inkscape:connector-curvature="0" />
	<path style="fill:none;stroke:red;stroke-width:1px;stroke-linecap:butt;stroke-linejoin:miter;stroke-opacity:1" d="M 214.69,706.301 210.301,698.4 z" id="boundary" inkscape:connector-curvature="0" />
	<path style="fill:none;stroke:red;stroke-width:1px;stroke-linecap:butt;stroke-linejoin:miter;stroke-opacity:1" d="M 255.073,377.097 250.683,369.196 z" id="boundary" inkscape:connector-curvature="0" />
	<path style="fill:none;stroke:red;stroke-width:1px;stroke-linecap:butt;stroke-linejoin:miter;stroke-opacity:1" d="M 255.073,377.097 259.462,384.998 z" id="boundary" inkscape:connector-curvature="0" />
	<path style="fill:none;stroke:red;stroke-width:1px;stroke-linecap:butt;stroke-linejoin:miter;stroke-opacity:1" d="M 259.462,384.998 259.462,393.777 z" id="boundary" inkscape:connector-curvature="0" />
	<path style="fill:none;stroke:red;stroke-width:1px;stroke-linecap:butt;stroke-linejoin:miter;stroke-opacity:1" d="M 214.69,706.301 216.446,715.08 z" id="boundary" inkscape:connector-curvature="0" />
	<path style="fill:none;stroke:red;stroke-width:1px;stroke-linecap:butt;stroke-linejoin:miter;stroke-opacity:1" d="M 220.835,722.981 216.446,715.08 z" id="boundary" inkscape:connector-curvature="0" />
	<path style="fill:none;stroke:red;stroke-width:1px;stroke-linecap:butt;stroke-linejoin:miter;stroke-opacity:1" d="M 223.469,731.759 220.835,722.981 z" id="boundary" inkscape:connector-curvature="0" />
	<path style="fill:none;stroke:red;stroke-width:1px;stroke-linecap:butt;stroke-linejoin:miter;stroke-opacity:1" d="M 305.112,500 307.745,508.779 z" id="boundary" inkscape:connector-curvature="0" />
	<path style="fill:none;stroke:red;stroke-width:1px;stroke-linecap:butt;stroke-linejoin:miter;stroke-opacity:1" d="M 305.112,500 300.722,492.099 z" id="boundary" inkscape:connector-curvature="0" />
	<path style="fill:none;stroke:red;stroke-width:1px;stroke-linecap:butt;stroke-linejoin:miter;stroke-opacity:1" d="M 227.858,739.66 223.469,731.759 z" id="boundary" inkscape:connector-curvature="0" />
	<path style="fill:none;stroke:red;stroke-width:1px;stroke-linecap:butt;stroke-linejoin:miter;stroke-opacity:1" d="M 263.851,401.678 259.462,393.777 z" id="boundary" inkscape:connector-curvature="0" />
	<path style="fill:none;stroke:red;stroke-width:1px;stroke-linecap:butt;stroke-linejoin:miter;stroke-opacity:1" d="M 232.248,747.561 232.248,756.34 z" id="boundary" inkscape:connector-curvature="0" />
	<path style="fill:none;stroke:red;stroke-width:1px;stroke-linecap:butt;stroke-linejoin:miter;stroke-opacity:1" d="M 232.248,747.561 227.858,739.66 z" id="boundary" inkscape:connector-curvature="0" />
	<path style="fill:none;stroke:red;stroke-width:1px;stroke-linecap:butt;stroke-linejoin:miter;stroke-opacity:1" d="M 272.63,417.48 274.386,426.258 z" id="boundary" inkscape:connector-curvature="0" />
	<path style="fill:none;stroke:red;stroke-width:1px;stroke-linecap:butt;stroke-linejoin:miter;stroke-opacity:1" d="M 272.63,417.48 268.241,409.579 z" id="boundary" inkscape:connector-curvature="0" />
	<path style="fill:none;stroke:red;stroke-width:1px;stroke-linecap:butt;stroke-linejoin:miter;stroke-opacity:1" d="M 268.241,409.579 263.851,401.678 z" id="boundary" inkscape:connector-curvature="0" />
	<path style="fill:none;stroke:red;stroke-width:1px;stroke-linecap:butt;stroke-linejoin:miter;stroke-opacity:1" d="M 236.637,764.241 232.248,756.34 z" id="boundary" inkscape:connector-curvature="0" />
	<path style="fill:none;stroke:red;stroke-width:1px;stroke-linecap:butt;stroke-linejoin:miter;stroke-opacity:1" d="M 241.027,772.142 236.637,764.241 z" id="boundary" inkscape:connector-curvature="0" />
	<path style="fill:none;stroke:red;stroke-width:1px;stroke-linecap:butt;stroke-linejoin:miter;stroke-opacity:1" d="M 285.798,450.839 281.409,442.938 z" id="boundary" inkscape:connector-curvature="0" />
	<path style="fill:none;stroke:red;stroke-width:1px;stroke-linecap:butt;stroke-linejoin:miter;stroke-opacity:1" d="M 241.027,772.142 242.782,780.92 z" id="boundary" inkscape:connector-curvature="0" />
	<path style="fill:none;stroke:red;stroke-width:1px;stroke-linecap:butt;stroke-linejoin:miter;stroke-opacity:1" d="M 247.172,788.821 242.782,780.92 z" id="boundary" inkscape:connector-curvature="0" />
	<path style="fill:none;stroke:red;stroke-width:1px;stroke-linecap:butt;stroke-linejoin:miter;stroke-opacity:1" d="M 290.188,458.74 290.188,467.519 z" id="boundary" inkscape:connector-curvature="0" />
	<path style="fill:none;stroke:red;stroke-width:1px;stroke-linecap:butt;stroke-linejoin:miter;stroke-opacity:1" d="M 290.188,458.74 285.798,450.839 z" id="boundary" inkscape:connector-curvature="0" />
	<path style="fill:none;stroke:red;stroke-width:1px;stroke-linecap:butt;stroke-linejoin:miter;stroke-opacity:1" d="M 250.683,797.6 247.172,788.821 z" id="boundary" inkscape:connector-curvature="0" />
	<path style="fill:none;stroke:red;stroke-width:1px;stroke-linecap:butt;stroke-linejoin:miter;stroke-opacity:1" d="M 316.524,533.359 320.913,541.26 z" id="boundary" inkscape:connector-curvature="0" />
	<path style="fill:none;stroke:red;stroke-width:1px;stroke-linecap:butt;stroke-linejoin:miter;stroke-opacity:1" d="M 254.195,806.379 250.683,797.6 z" id="boundary" inkscape:connector-curvature="0" />
	<path style="fill:none;stroke:red;stroke-width:1px;stroke-linecap:butt;stroke-linejoin:miter;stroke-opacity:1" d="M 258.584,814.28 254.195,806.379 z" id="boundary" inkscape:connector-curvature="0" />
	<path style="fill:none;stroke:red;stroke-width:1px;stroke-linecap:butt;stroke-linejoin:miter;stroke-opacity:1" d="M 294.577,475.419 290.188,467.519 z" id="boundary" inkscape:connector-curvature="0" />
	<path style="fill:none;stroke:red;stroke-width:1px;stroke-linecap:butt;stroke-linejoin:miter;stroke-opacity:1" d="M 258.584,814.28 258.584,823.058 z" id="boundary" inkscape:connector-curvature="0" />
	<path style="fill:none;stroke:red;stroke-width:1px;stroke-linecap:butt;stroke-linejoin:miter;stroke-opacity:1" d="M 262.973,830.959 258.584,823.058 z" id="boundary" inkscape:connector-curvature="0" />
	<path style="fill:none;stroke:red;stroke-width:1px;stroke-linecap:butt;stroke-linejoin:miter;stroke-opacity:1" d="M 269.996,847.639 271.752,856.418 z" id="boundary" inkscape:connector-curvature="0" />
	<path style="fill:none;stroke:red;stroke-width:1px;stroke-linecap:butt;stroke-linejoin:miter;stroke-opacity:1" d="M 267.363,838.86 262.973,830.959 z" id="boundary" inkscape:connector-curvature="0" />
	<path style="fill:none;stroke:red;stroke-width:1px;stroke-linecap:butt;stroke-linejoin:miter;stroke-opacity:1" d="M 312.135,516.68 307.745,508.779 z" id="boundary" inkscape:connector-curvature="0" />
	<path style="fill:none;stroke:red;stroke-width:1px;stroke-linecap:butt;stroke-linejoin:miter;stroke-opacity:1" d="M 267.363,838.86 269.996,847.639 z" id="boundary" inkscape:connector-curvature="0" />
	<path style="fill:none;stroke:red;stroke-width:1px;stroke-linecap:butt;stroke-linejoin:miter;stroke-opacity:1" d="M 312.135,516.68 316.524,524.581 z" id="boundary" inkscape:connector-curvature="0" />
	<path style="fill:none;stroke:red;stroke-width:1px;stroke-linecap:butt;stroke-linejoin:miter;stroke-opacity:1" d="M 316.524,524.581 316.524,533.359 z" id="boundary" inkscape:connector-curvature="0" />
	<path style="fill:none;stroke:red;stroke-width:1px;stroke-linecap:butt;stroke-linejoin:miter;stroke-opacity:1" d="M 276.142,864.319 271.752,856.418 z" id="boundary" inkscape:connector-curvature="0" />
	<path style="fill:none;stroke:red;stroke-width:1px;stroke-linecap:butt;stroke-linejoin:miter;stroke-opacity:1" d="M 277.897,873.097 276.142,864.319 z" id="boundary" inkscape:connector-curvature="0" />
	<path style="fill:none;stroke:red;stroke-width:1px;stroke-linecap:butt;stroke-linejoin:miter;stroke-opacity:1" d="M 320.913,541.26 325.303,549.161 z" id="boundary" inkscape:connector-curvature="0" />
	<path style="fill:none;stroke:red;stroke-width:1px;stroke-linecap:butt;stroke-linejoin:miter;stroke-opacity:1" d="M 325.303,549.161 327.058,557.94 z" id="boundary" inkscape:connector-curvature="0" />
	<path style="fill:none;stroke:red;stroke-width:1px;stroke-linecap:butt;stroke-linejoin:miter;stroke-opacity:1" d="M 417.48,780.92 421.869,788.821 z" id="boundary" inkscape:connector-curvature="0" />
	<path style="fill:none;stroke:red;stroke-width:1px;stroke-linecap:butt;stroke-linejoin:miter;stroke-opacity:1" d="M 284.92,878.365 277.897,873.097 z" id="boundary" inkscape:connector-curvature="0" />
	<path style="fill:none;stroke:red;stroke-width:1px;stroke-linecap:butt;stroke-linejoin:miter;stroke-opacity:1" d="M 284.92,887.143 284.92,878.365 z" id="boundary" inkscape:connector-curvature="0" />
	<path style="fill:none;stroke:red;stroke-width:1px;stroke-linecap:butt;stroke-linejoin:miter;stroke-opacity:1" d="M 289.31,895.044 284.92,887.143 z" id="boundary" inkscape:connector-curvature="0" />
	<path style="fill:none;stroke:red;stroke-width:1px;stroke-linecap:butt;stroke-linejoin:miter;stroke-opacity:1" d="M 327.058,557.94 331.448,565.841 z" id="boundary" inkscape:connector-curvature="0" />
	<path style="fill:none;stroke:red;stroke-width:1px;stroke-linecap:butt;stroke-linejoin:miter;stroke-opacity:1" d="M 331.448,565.841 334.081,574.619 z" id="boundary" inkscape:connector-curvature="0" />
	<path style="fill:none;stroke:red;stroke-width:1px;stroke-linecap:butt;stroke-linejoin:miter;stroke-opacity:1" d="M 293.699,902.945 294.577,911.724 z" id="boundary" inkscape:connector-curvature="0" />
	<path style="fill:none;stroke:red;stroke-width:1px;stroke-linecap:butt;stroke-linejoin:miter;stroke-opacity:1" d="M 293.699,902.945 289.31,895.044 z" id="boundary" inkscape:connector-curvature="0" />
	<path style="fill:none;stroke:red;stroke-width:1px;stroke-linecap:butt;stroke-linejoin:miter;stroke-opacity:1" d="M 334.081,574.619 338.471,582.52 z" id="boundary" inkscape:connector-curvature="0" />
	<path style="fill:none;stroke:red;stroke-width:1px;stroke-linecap:butt;stroke-linejoin:miter;stroke-opacity:1" d="M 301.6,917.869 294.577,911.724 z" id="boundary" inkscape:connector-curvature="0" />
	<path style="fill:none;stroke:red;stroke-width:1px;stroke-linecap:butt;stroke-linejoin:miter;stroke-opacity:1" d="M 346.372,599.2 347.25,607.979 z" id="boundary" inkscape:connector-curvature="0" />
	<path style="fill:none;stroke:red;stroke-width:1px;stroke-linecap:butt;stroke-linejoin:miter;stroke-opacity:1" d="M 346.372,599.2 342.86,590.421 z" id="boundary" inkscape:connector-curvature="0" />
	<path style="fill:none;stroke:red;stroke-width:1px;stroke-linecap:butt;stroke-linejoin:miter;stroke-opacity:1" d="M 305.112,926.648 301.6,917.869 z" id="boundary" inkscape:connector-curvature="0" />
	<path style="fill:none;stroke:red;stroke-width:1px;stroke-linecap:butt;stroke-linejoin:miter;stroke-opacity:1" d="M 342.86,590.421 338.471,582.52 z" id="boundary" inkscape:connector-curvature="0" />
	<path style="fill:none;stroke:red;stroke-width:1px;stroke-linecap:butt;stroke-linejoin:miter;stroke-opacity:1" d="M 313.89,930.159 305.112,926.648 z" id="boundary" inkscape:connector-curvature="0" />
	<path style="fill:none;stroke:red;stroke-width:1px;stroke-linecap:butt;stroke-linejoin:miter;stroke-opacity:1" d="M 347.25,607.979 351.639,615.88 z" id="boundary" inkscape:connector-curvature="0" />
	<path style="fill:none;stroke:red;stroke-width:1px;stroke-linecap:butt;stroke-linejoin:miter;stroke-opacity:1" d="M 320.035,937.182 313.89,930.159 z" id="boundary" inkscape:connector-curvature="0" />
	<path style="fill:none;stroke:red;stroke-width:1px;stroke-linecap:butt;stroke-linejoin:miter;stroke-opacity:1" d="M 357.784,632.559 356.028,623.781 z" id="boundary" inkscape:connector-curvature="0" />
	<path style="fill:none;stroke:red;stroke-width:1px;stroke-linecap:butt;stroke-linejoin:miter;stroke-opacity:1" d="M 356.028,623.781 351.639,615.88 z" id="boundary" inkscape:connector-curvature="0" />
	<path style="fill:none;stroke:red;stroke-width:1px;stroke-linecap:butt;stroke-linejoin:miter;stroke-opacity:1" d="M 357.784,632.559 360.418,641.338 z" id="boundary" inkscape:connector-curvature="0" />
	<path style="fill:none;stroke:red;stroke-width:1px;stroke-linecap:butt;stroke-linejoin:miter;stroke-opacity:1" d="M 328.814,939.816 320.035,937.182 z" id="boundary" inkscape:connector-curvature="0" />
	<path style="fill:none;stroke:red;stroke-width:1px;stroke-linecap:butt;stroke-linejoin:miter;stroke-opacity:1" d="M 360.418,641.338 364.807,649.239 z" id="boundary" inkscape:connector-curvature="0" />
	<path style="fill:none;stroke:red;stroke-width:1px;stroke-linecap:butt;stroke-linejoin:miter;stroke-opacity:1" d="M 334.081,946.839 328.814,939.816 z" id="boundary" inkscape:connector-curvature="0" />
	<path style="fill:none;stroke:red;stroke-width:1px;stroke-linecap:butt;stroke-linejoin:miter;stroke-opacity:1" d="M 369.196,657.14 364.807,649.239 z" id="boundary" inkscape:connector-curvature="0" />
	<path style="fill:none;stroke:red;stroke-width:1px;stroke-linecap:butt;stroke-linejoin:miter;stroke-opacity:1" d="M 341.104,952.984 334.081,946.839 z" id="boundary" inkscape:connector-curvature="0" />
	<path style="fill:none;stroke:red;stroke-width:1px;stroke-linecap:butt;stroke-linejoin:miter;stroke-opacity:1" d="M 373.586,665.041 373.586,673.819 z" id="boundary" inkscape:connector-curvature="0" />
	<path style="fill:none;stroke:red;stroke-width:1px;stroke-linecap:butt;stroke-linejoin:miter;stroke-opacity:1" d="M 373.586,665.041 369.196,657.14 z" id="boundary" inkscape:connector-curvature="0" />
	<path style="fill:none;stroke:red;stroke-width:1px;stroke-linecap:butt;stroke-linejoin:miter;stroke-opacity:1" d="M 407.823,747.561 403.434,739.66 z" id="boundary" inkscape:connector-curvature="0" />
	<path style="fill:none;stroke:red;stroke-width:1px;stroke-linecap:butt;stroke-linejoin:miter;stroke-opacity:1" d="M 403.434,739.66 399.922,730.881 z" id="boundary" inkscape:connector-curvature="0" />
	<path style="fill:none;stroke:red;stroke-width:1px;stroke-linecap:butt;stroke-linejoin:miter;stroke-opacity:1" d="M 349.005,957.373 341.104,952.984 z" id="boundary" inkscape:connector-curvature="0" />
	<path style="fill:none;stroke:red;stroke-width:1px;stroke-linecap:butt;stroke-linejoin:miter;stroke-opacity:1" d="M 373.586,673.819 377.975,681.72 z" id="boundary" inkscape:connector-curvature="0" />
	<path style="fill:none;stroke:red;stroke-width:1px;stroke-linecap:butt;stroke-linejoin:miter;stroke-opacity:1" d="M 384.12,698.4 382.365,689.621 z" id="boundary" inkscape:connector-curvature="0" />
	<path style="fill:none;stroke:red;stroke-width:1px;stroke-linecap:butt;stroke-linejoin:miter;stroke-opacity:1" d="M 382.365,689.621 377.975,681.72 z" id="boundary" inkscape:connector-curvature="0" />
	<path style="fill:none;stroke:red;stroke-width:1px;stroke-linecap:butt;stroke-linejoin:miter;stroke-opacity:1" d="M 384.12,698.4 388.51,706.301 z" id="boundary" inkscape:connector-curvature="0" />
	<path style="fill:none;stroke:red;stroke-width:1px;stroke-linecap:butt;stroke-linejoin:miter;stroke-opacity:1" d="M 388.51,706.301 391.143,715.08 z" id="boundary" inkscape:connector-curvature="0" />
	<path style="fill:none;stroke:red;stroke-width:1px;stroke-linecap:butt;stroke-linejoin:miter;stroke-opacity:1" d="M 357.784,960.885 349.005,957.373 z" id="boundary" inkscape:connector-curvature="0" />
	<path style="fill:none;stroke:red;stroke-width:1px;stroke-linecap:butt;stroke-linejoin:miter;stroke-opacity:1" d="M 363.929,967.908 357.784,960.885 z" id="boundary" inkscape:connector-curvature="0" />
	<path style="fill:none;stroke:red;stroke-width:1px;stroke-linecap:butt;stroke-linejoin:miter;stroke-opacity:1" d="M 370.952,974.053 363.929,967.908 z" id="boundary" inkscape:connector-curvature="0" />
	<path style="fill:none;stroke:red;stroke-width:1px;stroke-linecap:butt;stroke-linejoin:miter;stroke-opacity:1" d="M 391.143,715.08 395.533,722.981 z" id="boundary" inkscape:connector-curvature="0" />
	<path style="fill:none;stroke:red;stroke-width:1px;stroke-linecap:butt;stroke-linejoin:miter;stroke-opacity:1" d="M 395.533,722.981 399.922,730.881 z" id="boundary" inkscape:connector-curvature="0" />
	<path style="fill:none;stroke:red;stroke-width:1px;stroke-linecap:butt;stroke-linejoin:miter;stroke-opacity:1" d="M 385.876,983.71 378.853,978.442 z" id="boundary" inkscape:connector-curvature="0" />
	<path style="fill:none;stroke:red;stroke-width:1px;stroke-linecap:butt;stroke-linejoin:miter;stroke-opacity:1" d="M 378.853,978.442 370.952,974.053 z" id="boundary" inkscape:connector-curvature="0" />
	<path style="fill:none;stroke:red;stroke-width:1px;stroke-linecap:butt;stroke-linejoin:miter;stroke-opacity:1" d="M 407.823,747.561 408.701,756.34 z" id="boundary" inkscape:connector-curvature="0" />
	<path style="fill:none;stroke:red;stroke-width:1px;stroke-linecap:butt;stroke-linejoin:miter;stroke-opacity:1" d="M 413.09,764.241 408.701,756.34 z" id="boundary" inkscape:connector-curvature="0" />
	<path style="fill:none;stroke:red;stroke-width:1px;stroke-linecap:butt;stroke-linejoin:miter;stroke-opacity:1" d="M 417.48,772.142 417.48,780.92 z" id="boundary" inkscape:connector-curvature="0" />
	<path style="fill:none;stroke:red;stroke-width:1px;stroke-linecap:butt;stroke-linejoin:miter;stroke-opacity:1" d="M 417.48,772.142 413.09,764.241 z" id="boundary" inkscape:connector-curvature="0" />
	<path style="fill:none;stroke:red;stroke-width:1px;stroke-linecap:butt;stroke-linejoin:miter;stroke-opacity:1" d="M 426.258,796.722 421.869,788.821 z" id="boundary" inkscape:connector-curvature="0" />
	<path style="fill:none;stroke:red;stroke-width:1px;stroke-linecap:butt;stroke-linejoin:miter;stroke-opacity:1" d="M 430.648,804.623 433.281,813.402 z" id="boundary" inkscape:connector-curvature="0" />
	<path style="fill:none;stroke:red;stroke-width:1px;stroke-linecap:butt;stroke-linejoin:miter;stroke-opacity:1" d="M 430.648,804.623 426.258,796.722 z" id="boundary" inkscape:connector-curvature="0" />
	<path style="fill:none;stroke:red;stroke-width:1px;stroke-linecap:butt;stroke-linejoin:miter;stroke-opacity:1" d="M 401.678,992.488 393.777,988.099 z" id="boundary" inkscape:connector-curvature="0" />
	<path style="fill:none;stroke:red;stroke-width:1px;stroke-linecap:butt;stroke-linejoin:miter;stroke-opacity:1" d="M 437.671,821.303 441.182,830.081 z" id="boundary" inkscape:connector-curvature="0" />
	<path style="fill:none;stroke:red;stroke-width:1px;stroke-linecap:butt;stroke-linejoin:miter;stroke-opacity:1" d="M 385.876,983.71 393.777,988.099 z" id="boundary" inkscape:connector-curvature="0" />
	<path style="fill:none;stroke:red;stroke-width:1px;stroke-linecap:butt;stroke-linejoin:miter;stroke-opacity:1" d="M 410.457,996 401.678,992.488 z" id="boundary" inkscape:connector-curvature="0" />
	<path style="fill:none;stroke:red;stroke-width:1px;stroke-linecap:butt;stroke-linejoin:miter;stroke-opacity:1" d="M 437.671,821.303 433.281,813.402 z" id="boundary" inkscape:connector-curvature="0" />
	<path style="fill:none;stroke:red;stroke-width:1px;stroke-linecap:butt;stroke-linejoin:miter;stroke-opacity:1" d="M 426.258,983.71 419.235,996 z" id="boundary" inkscape:connector-curvature="0" />
	<path style="fill:none;stroke:red;stroke-width:1px;stroke-linecap:butt;stroke-linejoin:miter;stroke-opacity:1" d="M 419.235,996 410.457,996 z" id="boundary" inkscape:connector-curvature="0" />
	<path style="fill:none;stroke:red;stroke-width:1px;stroke-linecap:butt;stroke-linejoin:miter;stroke-opacity:1" d="M 441.182,830.081 443.816,838.86 z" id="boundary" inkscape:connector-curvature="0" />
	<path style="fill:none;stroke:red;stroke-width:1px;stroke-linecap:butt;stroke-linejoin:miter;stroke-opacity:1" d="M 430.648,974.931 426.258,983.71 z" id="boundary" inkscape:connector-curvature="0" />
	<path style="fill:none;stroke:red;stroke-width:1px;stroke-linecap:butt;stroke-linejoin:miter;stroke-opacity:1" d="M 430.648,974.931 430.648,966.152 z" id="boundary" inkscape:connector-curvature="0" />
	<path style="fill:none;stroke:red;stroke-width:1px;stroke-linecap:butt;stroke-linejoin:miter;stroke-opacity:1" d="M 435.037,948.595 435.037,939.816 z" id="boundary" inkscape:connector-curvature="0" />
	<path style="fill:none;stroke:red;stroke-width:1px;stroke-linecap:butt;stroke-linejoin:miter;stroke-opacity:1" d="M 435.037,948.595 435.037,957.373 z" id="boundary" inkscape:connector-curvature="0" />
	<path style="fill:none;stroke:red;stroke-width:1px;stroke-linecap:butt;stroke-linejoin:miter;stroke-opacity:1" d="M 435.037,957.373 430.648,966.152 z" id="boundary" inkscape:connector-curvature="0" />
	<path style="fill:none;stroke:red;stroke-width:1px;stroke-linecap:butt;stroke-linejoin:miter;stroke-opacity:1" d="M 439.427,922.258 439.427,913.48 z" id="boundary" inkscape:connector-curvature="0" />
	<path style="fill:none;stroke:red;stroke-width:1px;stroke-linecap:butt;stroke-linejoin:miter;stroke-opacity:1" d="M 439.427,913.48 439.427,904.701 z" id="boundary" inkscape:connector-curvature="0" />
	<path style="fill:none;stroke:red;stroke-width:1px;stroke-linecap:butt;stroke-linejoin:miter;stroke-opacity:1" d="M 435.037,939.816 439.427,931.037 z" id="boundary" inkscape:connector-curvature="0" />
	<path style="fill:none;stroke:red;stroke-width:1px;stroke-linecap:butt;stroke-linejoin:miter;stroke-opacity:1" d="M 439.427,931.037 439.427,922.258 z" id="boundary" inkscape:connector-curvature="0" />
	<path style="fill:none;stroke:red;stroke-width:1px;stroke-linecap:butt;stroke-linejoin:miter;stroke-opacity:1" d="M 443.816,865.196 443.816,856.418 z" id="boundary" inkscape:connector-curvature="0" />
	<path style="fill:none;stroke:red;stroke-width:1px;stroke-linecap:butt;stroke-linejoin:miter;stroke-opacity:1" d="M 443.816,865.196 443.816,873.975 z" id="boundary" inkscape:connector-curvature="0" />
	<path style="fill:none;stroke:red;stroke-width:1px;stroke-linecap:butt;stroke-linejoin:miter;stroke-opacity:1" d="M 443.816,873.975 443.816,882.754 z" id="boundary" inkscape:connector-curvature="0" />
	<path style="fill:none;stroke:red;stroke-width:1px;stroke-linecap:butt;stroke-linejoin:miter;stroke-opacity:1" d="M 443.816,891.533 439.427,904.701 z" id="boundary" inkscape:connector-curvature="0" />
	<path style="fill:none;stroke:red;stroke-width:1px;stroke-linecap:butt;stroke-linejoin:miter;stroke-opacity:1" d="M 443.816,891.533 443.816,882.754 z" id="boundary" inkscape:connector-curvature="0" />
	<path style="fill:none;stroke:red;stroke-width:1px;stroke-linecap:butt;stroke-linejoin:miter;stroke-opacity:1" d="M 443.816,838.86 445.572,847.639 z" id="boundary" inkscape:connector-curvature="0" />
	<path style="fill:none;stroke:red;stroke-width:1px;stroke-linecap:butt;stroke-linejoin:miter;stroke-opacity:1" d="M 445.572,847.639 443.816,856.418 z" id="boundary" inkscape:connector-curvature="0" />
	<circle cx="4" cy="133.926" r="4" fill="#0" id="circle0"/>
	<circle cx="4" cy="142.704" r="4" fill="#0" id="circle1"/>
	<circle cx="4" cy="151.483" r="4" fill="#0" id="circle2"/>
	<circle cx="8.38938" cy="76.8637" r="4" fill="#0" id="circle3"/>
	<circle cx="8.38938" cy="85.6425" r="4" fill="#0" id="circle4"/>
	<circle cx="8.38938" cy="94.4212" r="4" fill="#0" id="circle5"/>
	<circle cx="8.38938" cy="103.2" r="4" fill="#0" id="circle6"/>
	<circle cx="8.38938" cy="111.979" r="4" fill="#0" id="circle7"/>
	<circle cx="8.38938" cy="120.758" r="4" fill="#0" id="circle8"/>
	<circle cx="8.38938" cy="159.384" r="4" fill="#0" id="circle9"/>
	<circle cx="8.38938" cy="168.163" r="4" fill="#0" id="circle10"/>
	<circle cx="12.7788" cy="46.1381" r="4" fill="#0" id="circle11"/>
	<circle cx="12.7788" cy="54.9168" r="4" fill="#0" id="circle12"/>
	<circle cx="12.7788" cy="63.6956" r="4" fill="#0" id="circle13"/>
	<circle cx="12.7788" cy="176.064" r="4" fill="#0" id="circle14"/>
	<circle cx="15.4124" cy="184.842" r="4" fill="#0" id="circle15"/>
	<circle cx="17.1681" cy="11.023" r="4" fill="#0" id="circle16"/>
	<circle cx="17.1681" cy="19.8018" r="4" fill="#0" id="circle17"/>
	<circle cx="17.1681" cy="28.5805" r="4" fill="#0" id="circle18"/>
	<circle cx="17.1681" cy="37.3593" r="4" fill="#0" id="circle19"/>
	<circle cx="17.1681" cy="193.621" r="4" fill="#0" id="circle20"/>
	<circle cx="21.5575" cy="201.522" r="4" fill="#0" id="circle21"/>
	<circle cx="24.1912" cy="4" r="4" fill="#0" id="circle22"/>
	<circle cx="25.9469" cy="209.423" r="4" fill="#0" id="circle23"/>
	<circle cx="30.3363" cy="217.324" r="4" fill="#0" id="circle24"/>
	<circle cx="30.3363" cy="226.103" r="4" fill="#0" id="circle25"/>
	<circle cx="32.092" cy="8.38938" r="4" fill="#0" id="circle26"/>
	<circle cx="34.7257" cy="234.004" r="4" fill="#0" id="circle27"/>
	<circle cx="39.115" cy="241.904" r="4" fill="#0" id="circle28"/>
	<circle cx="39.9929" cy="12.7788" r="4" fill="#0" id="circle29"/>
	<circle cx="41.7487" cy="250.683" r="4" fill="#0" id="circle30"/>
	<circle cx="43.5044" cy="259.462" r="4" fill="#0" id="circle31"/>
	<circle cx="46.1381" cy="268.241" r="4" fill="#0" id="circle32"/>
	<circle cx="47.8938" cy="17.1681" r="4" fill="#0" id="circle33"/>
	<circle cx="50.5274" cy="276.142" r="4" fill="#0" id="circle34"/>
	<circle cx="52.2832" cy="284.92" r="4" fill="#0" id="circle35"/>
	<circle cx="54.9168" cy="22.4354" r="4" fill="#0" id="circle36"/>
	<circle cx="56.6726" cy="292.821" r="4" fill="#0" id="circle37"/>
	<circle cx="61.0619" cy="300.722" r="4" fill="#0" id="circle38"/>
	<circle cx="61.0619" cy="309.501" r="4" fill="#0" id="circle39"/>
	<circle cx="63.6956" cy="25.9469" r="4" fill="#0" id="circle40"/>
	<circle cx="65.4513" cy="317.402" r="4" fill="#0" id="circle41"/>
	<circle cx="69.8407" cy="32.9699" r="4" fill="#0" id="circle42"/>
	<circle cx="69.8407" cy="325.303" r="4" fill="#0" id="circle43"/>
	<circle cx="69.8407" cy="334.081" r="4" fill="#0" id="circle44"/>
	<circle cx="74.2301" cy="341.982" r="4" fill="#0" id="circle45"/>
	<circle cx="75.9858" cy="350.761" r="4" fill="#0" id="circle46"/>
	<circle cx="78.6195" cy="36.4814" r="4" fill="#0" id="circle47"/>
	<circle cx="80.3752" cy="358.662" r="4" fill="#0" id="circle48"/>
	<circle cx="83.0088" cy="367.441" r="4" fill="#0" id="circle49"/>
	<circle cx="86.5204" cy="40.8708" r="4" fill="#0" id="circle50"/>
	<circle cx="87.3982" cy="375.342" r="4" fill="#0" id="circle51"/>
	<circle cx="87.3982" cy="384.12" r="4" fill="#0" id="circle52"/>
	<circle cx="91.7876" cy="392.021" r="4" fill="#0" id="circle53"/>
	<circle cx="92.6655" cy="47.8938" r="4" fill="#0" id="circle54"/>
	<circle cx="96.177" cy="399.922" r="4" fill="#0" id="circle55"/>
	<circle cx="98.8106" cy="408.701" r="4" fill="#0" id="circle56"/>
	<circle cx="99.6885" cy="53.1611" r="4" fill="#0" id="circle57"/>
	<circle cx="100.566" cy="417.48" r="4" fill="#0" id="circle58"/>
	<circle cx="104.956" cy="425.381" r="4" fill="#0" id="circle59"/>
	<circle cx="107.589" cy="57.5504" r="4" fill="#0" id="circle60"/>
	<circle cx="109.345" cy="433.281" r="4" fill="#0" id="circle61"/>
	<circle cx="110.223" cy="442.06" r="4" fill="#0" id="circle62"/>
	<circle cx="113.735" cy="450.839" r="4" fill="#0" id="circle63"/>
	<circle cx="114.612" cy="63.6956" r="4" fill="#0" id="circle64"/>
	<circle cx="118.124" cy="458.74" r="4" fill="#0" id="circle65"/>
	<circle cx="121.635" cy="69.8407" r="4" fill="#0" id="circle66"/>
	<circle cx="122.513" cy="466.641" r="4" fill="#0" id="circle67"/>
	<circle cx="126.903" cy="474.542" r="4" fill="#0" id="circle68"/>
	<circle cx="126.903" cy="483.32" r="4" fill="#0" id="circle69"/>
	<circle cx="129.536" cy="74.2301" r="4" fill="#0" id="circle70"/>
	<circle cx="131.292" cy="491.221" r="4" fill="#0" id="circle71"/>
	<circle cx="133.048" cy="500" r="4" fill="#0" id="circle72"/>
	<circle cx="135.681" cy="81.2531" r="4" fill="#0" id="circle73"/>
	<circle cx="135.681" cy="508.779" r="4" fill="#0" id="circle74"/>
	<circle cx="140.071" cy="516.68" r="4" fill="#0" id="circle75"/>
	<circle cx="140.949" cy="525.458" r="4" fill="#0" id="circle76"/>
	<circle cx="142.704" cy="87.3982" r="4" fill="#0" id="circle77"/>
	<circle cx="145.338" cy="96.177" r="4" fill="#0" id="circle78"/>
	<circle cx="145.338" cy="533.359" r="4" fill="#0" id="circle79"/>
	<circle cx="148.85" cy="542.138" r="4" fill="#0" id="circle80"/>
	<circle cx="149.727" cy="104.078" r="4" fill="#0" id="circle81"/>
	<circle cx="153.239" cy="550.039" r="4" fill="#0" id="circle82"/>
	<circle cx="154.117" cy="111.979" r="4" fill="#0" id="circle83"/>
	<circle cx="154.117" cy="120.758" r="4" fill="#0" id="circle84"/>
	<circle cx="157.628" cy="557.94" r="4" fill="#0" id="circle85"/>
	<circle cx="157.628" cy="566.719" r="4" fill="#0" id="circle86"/>
	<circle cx="158.506" cy="128.658" r="4" fill="#0" id="circle87"/>
	<circle cx="161.14" cy="137.437" r="4" fill="#0" id="circle88"/>
	<circle cx="162.018" cy="574.619" r="4" fill="#0" id="circle89"/>
	<circle cx="165.529" cy="145.338" r="4" fill="#0" id="circle90"/>
	<circle cx="166.407" cy="582.52" r="4" fill="#0" id="circle91"/>
	<circle cx="167.285" cy="154.117" r="4" fill="#0" id="circle92"/>
	<circle cx="167.285" cy="591.299" r="4" fill="#0" id="circle93"/>
	<circle cx="170.796" cy="600.078" r="4" fill="#0" id="circle94"/>
	<circle cx="171.674" cy="162.018" r="4" fill="#0" id="circle95"/>
	<circle cx="171.674" cy="170.796" r="4" fill="#0" id="circle96"/>
	<circle cx="175.186" cy="607.979" r="4" fill="#0" id="circle97"/>
	<circle cx="176.064" cy="178.697" r="4" fill="#0" id="circle98"/>
	<circle cx="179.575" cy="615.88" r="4" fill="#0" id="circle99"/>
	<circle cx="179.575" cy="624.658" r="4" fill="#0" id="circle100"/>
	<circle cx="180.453" cy="186.598" r="4" fill="#0" id="circle101"/>
	<circle cx="183.965" cy="195.377" r="4" fill="#0" id="circle102"/>
	<circle cx="183.965" cy="632.559" r="4" fill="#0" id="circle103"/>
	<circle cx="188.354" cy="203.278" r="4" fill="#0" id="circle104"/>
	<circle cx="188.354" cy="640.46" r="4" fill="#0" id="circle105"/>
	<circle cx="189.232" cy="212.057" r="4" fill="#0" id="circle106"/>
	<circle cx="190.11" cy="649.239" r="4" fill="#0" id="circle107"/>
	<circle cx="191.865" cy="220.835" r="4" fill="#0" id="circle108"/>
	<circle cx="194.499" cy="657.14" r="4" fill="#0" id="circle109"/>
	<circle cx="196.255" cy="228.736" r="4" fill="#0" id="circle110"/>
	<circle cx="197.133" cy="665.919" r="4" fill="#0" id="circle111"/>
	<circle cx="198.011" cy="237.515" r="4" fill="#0" id="circle112"/>
	<circle cx="199.766" cy="246.294" r="4" fill="#0" id="circle113"/>
	<circle cx="201.522" cy="673.819" r="4" fill="#0" id="circle114"/>
	<circle cx="204.156" cy="254.195" r="4" fill="#0" id="circle115"/>
	<circle cx="205.912" cy="681.72" r="4" fill="#0" id="circle116"/>
	<circle cx="205.912" cy="690.499" r="4" fill="#0" id="circle117"/>
	<circle cx="210.301" cy="261.218" r="4" fill="#0" id="circle118"/>
	<circle cx="210.301" cy="698.4" r="4" fill="#0" id="circle119"/>
	<circle cx="211.179" cy="269.996" r="4" fill="#0" id="circle120"/>
	<circle cx="214.69" cy="706.301" r="4" fill="#0" id="circle121"/>
	<circle cx="215.568" cy="277.897" r="4" fill="#0" id="circle122"/>
	<circle cx="216.446" cy="715.08" r="4" fill="#0" id="circle123"/>
	<circle cx="218.202" cy="286.676" r="4" fill="#0" id="circle124"/>
	<circle cx="219.958" cy="295.455" r="4" fill="#0" id="circle125"/>
	<circle cx="220.835" cy="722.981" r="4" fill="#0" id="circle126"/>
	<circle cx="223.469" cy="731.759" r="4" fill="#0" id="circle127"/>
	<circle cx="224.347" cy="303.356" r="4" fill="#0" id="circle128"/>
	<circle cx="227.858" cy="739.66" r="4" fill="#0" id="circle129"/>
	<circle cx="228.736" cy="311.257" r="4" fill="#0" id="circle130"/>
	<circle cx="232.248" cy="747.561" r="4" fill="#0" id="circle131"/>
	<circle cx="232.248" cy="756.34" r="4" fill="#0" id="circle132"/>
	<circle cx="233.126" cy="319.158" r="4" fill="#0" id="circle133"/>
	<circle cx="233.126" cy="327.936" r="4" fill="#0" id="circle134"/>
	<circle cx="236.637" cy="764.241" r="4" fill="#0" id="circle135"/>
	<circle cx="237.515" cy="335.837" r="4" fill="#0" id="circle136"/>
	<circle cx="241.027" cy="772.142" r="4" fill="#0" id="circle137"/>
	<circle cx="241.904" cy="343.738" r="4" fill="#0" id="circle138"/>
	<circle cx="242.782" cy="780.92" r="4" fill="#0" id="circle139"/>
	<circle cx="246.294" cy="351.639" r="4" fill="#0" id="circle140"/>
	<circle cx="247.172" cy="788.821" r="4" fill="#0" id="circle141"/>
	<circle cx="248.05" cy="360.418" r="4" fill="#0" id="circle142"/>
	<circle cx="250.683" cy="369.196" r="4" fill="#0" id="circle143"/>
	<circle cx="250.683" cy="797.6" r="4" fill="#0" id="circle144"/>
	<circle cx="254.195" cy="806.379" r="4" fill="#0" id="circle145"/>
	<circle cx="255.073" cy="377.097" r="4" fill="#0" id="circle146"/>
	<circle cx="258.584" cy="814.28" r="4" fill="#0" id="circle147"/>
	<circle cx="258.584" cy="823.058" r="4" fill="#0" id="circle148"/>
	<circle cx="259.462" cy="384.998" r="4" fill="#0" id="circle149"/>
	<circle cx="259.462" cy="393.777" r="4" fill="#0" id="circle150"/>
	<circle cx="262.973" cy="830.959" r="4" fill="#0" id="circle151"/>
	<circle cx="263.851" cy="401.678" r="4" fill="#0" id="circle152"/>
	<circle cx="267.363" cy="838.86" r="4" fill="#0" id="circle153"/>
	<circle cx="268.241" cy="409.579" r="4" fill="#0" id="circle154"/>
	<circle cx="269.996" cy="847.639" r="4" fill="#0" id="circle155"/>
	<circle cx="271.752" cy="856.418" r="4" fill="#0" id="circle156"/>
	<circle cx="272.63" cy="417.48" r="4" fill="#0" id="circle157"/>
	<circle cx="274.386" cy="426.258" r="4" fill="#0" id="circle158"/>
	<circle cx="276.142" cy="864.319" r="4" fill="#0" id="circle159"/>
	<circle cx="277.897" cy="873.097" r="4" fill="#0" id="circle160"/>
	<circle cx="278.775" cy="434.159" r="4" fill="#0" id="circle161"/>
	<circle cx="281.409" cy="442.938" r="4" fill="#0" id="circle162"/>
	<circle cx="284.92" cy="878.365" r="4" fill="#0" id="circle163"/>
	<circle cx="284.92" cy="887.143" r="4" fill="#0" id="circle164"/>
	<circle cx="285.798" cy="450.839" r="4" fill="#0" id="circle165"/>
	<circle cx="289.31" cy="895.044" r="4" fill="#0" id="circle166"/>
	<circle cx="290.188" cy="458.74" r="4" fill="#0" id="circle167"/>
	<circle cx="290.188" cy="467.519" r="4" fill="#0" id="circle168"/>
	<circle cx="293.699" cy="902.945" r="4" fill="#0" id="circle169"/>
	<circle cx="294.577" cy="475.419" r="4" fill="#0" id="circle170"/>
	<circle cx="294.577" cy="911.724" r="4" fill="#0" id="circle171"/>
	<circle cx="298.966" cy="483.32" r="4" fill="#0" id="circle172"/>
	<circle cx="300.722" cy="492.099" r="4" fill="#0" id="circle173"/>
	<circle cx="301.6" cy="917.869" r="4" fill="#0" id="circle174"/>
	<circle cx="305.112" cy="500" r="4" fill="#0" id="circle175"/>
	<circle cx="305.112" cy="926.648" r="4" fill="#0" id="circle176"/>
	<circle cx="307.745" cy="508.779" r="4" fill="#0" id="circle177"/>
	<circle cx="312.135" cy="516.68" r="4" fill="#0" id="circle178"/>
	<circle cx="313.89" cy="930.159" r="4" fill="#0" id="circle179"/>
	<circle cx="316.524" cy="524.581" r="4" fill="#0" id="circle180"/>
	<circle cx="316.524" cy="533.359" r="4" fill="#0" id="circle181"/>
	<circle cx="320.035" cy="937.182" r="4" fill="#0" id="circle182"/>
	<circle cx="320.913" cy="541.26" r="4" fill="#0" id="circle183"/>
	<circle cx="325.303" cy="549.161" r="4" fill="#0" id="circle184"/>
	<circle cx="327.058" cy="557.94" r="4" fill="#0" id="circle185"/>
	<circle cx="328.814" cy="939.816" r="4" fill="#0" id="circle186"/>
	<circle cx="331.448" cy="565.841" r="4" fill="#0" id="circle187"/>
	<circle cx="334.081" cy="574.619" r="4" fill="#0" id="circle188"/>
	<circle cx="334.081" cy="946.839" r="4" fill="#0" id="circle189"/>
	<circle cx="338.471" cy="582.52" r="4" fill="#0" id="circle190"/>
	<circle cx="341.104" cy="952.984" r="4" fill="#0" id="circle191"/>
	<circle cx="342.86" cy="590.421" r="4" fill="#0" id="circle192"/>
	<circle cx="346.372" cy="599.2" r="4" fill="#0" id="circle193"/>
	<circle cx="347.25" cy="607.979" r="4" fill="#0" id="circle194"/>
	<circle cx="349.005" cy="957.373" r="4" fill="#0" id="circle195"/>
	<circle cx="351.639" cy="615.88" r="4" fill="#0" id="circle196"/>
	<circle cx="356.028" cy="623.781" r="4" fill="#0" id="circle197"/>
	<circle cx="357.784" cy="632.559" r="4" fill="#0" id="circle198"/>
	<circle cx="357.784" cy="960.885" r="4" fill="#0" id="circle199"/>
	<circle cx="360.418" cy="641.338" r="4" fill="#0" id="circle200"/>
	<circle cx="363.929" cy="967.908" r="4" fill="#0" id="circle201"/>
	<circle cx="364.807" cy="649.239" r="4" fill="#0" id="circle202"/>
	<circle cx="369.196" cy="657.14" r="4" fill="#0" id="circle203"/>
	<circle cx="370.952" cy="974.053" r="4" fill="#0" id="circle204"/>
	<circle cx="373.586" cy="665.041" r="4" fill="#0" id="circle205"/>
	<circle cx="373.586" cy="673.819" r="4" fill="#0" id="circle206"/>
	<circle cx="377.975" cy="681.72" r="4" fill="#0" id="circle207"/>
	<circle cx="378.853" cy="978.442" r="4" fill="#0" id="circle208"/>
	<circle cx="382.365" cy="689.621" r="4" fill="#0" id="circle209"/>
	<circle cx="384.12" cy="698.4" r="4" fill="#0" id="circle210"/>
	<circle cx="385.876" cy="983.71" r="4" fill="#0" id="circle211"/>
	<circle cx="388.51" cy="706.301" r="4" fill="#0" id="circle212"/>
	<circle cx="391.143" cy="715.08" r="4" fill="#0" id="circle213"/>
	<circle cx="393.777" cy="988.099" r="4" fill="#0" id="circle214"/>
	<circle cx="395.533" cy="722.981" r="4" fill="#0" id="circle215"/>
	<circle cx="399.922" cy="730.881" r="4" fill="#0" id="circle216"/>
	<circle cx="401.678" cy="992.488" r="4" fill="#0" id="circle217"/>
	<circle cx="403.434" cy="739.66" r="4" fill="#0" id="circle218"/>
	<circle cx="407.823" cy="747.561" r="4" fill="#0" id="circle219"/>
	<circle cx="408.701" cy="756.34" r="4" fill="#0" id="circle220"/>
	<circle cx="410.457" cy="996" r="4" fill="#0" id="circle221"/>
	<circle cx="413.09" cy="764.241" r="4" fill="#0" id="circle222"/>
	<circle cx="417.48" cy="772.142" r="4" fill="#0" id="circle223"/>
	<circle cx="417.48" cy="780.92" r="4" fill="#0" id="circle224"/>
	<circle cx="419.235" cy="996" r="4" fill="#0" id="circle225"/>
	<circle cx="421.869" cy="788.821" r="4" fill="#0" id="circle226"/>
	<circle cx="426.258" cy="796.722" r="4" fill="#0" id="circle227"/>
	<circle cx="426.258" cy="983.71" r="4" fill="#0" id="circle228"/>
	<circle cx="430.648" cy="804.623" r="4" fill="#0" id="circle229"/>
	<circle cx="430.648" cy="966.152" r="4" fill="#0" id="circle230"/>
	<circle cx="430.648" cy="974.931" r="4" fill="#0" id="circle231"/>
	<circle cx="433.281" cy="813.402" r="4" fill="#0" id="circle232"/>
	<circle cx="435.037" cy="939.816" r="4" fill="#0" id="circle233"/>
	<circle cx="435.037" cy="948.595" r="4" fill="#0" id="circle234"/>
	<circle cx="435.037" cy="957.373" r="4" fill="#0" id="circle235"/>
	<circle cx="437.671" cy="821.303" r="4" fill="#0" id="circle236"/>
	<circle cx="439.427" cy="904.701" r="4" fill="#0" id="circle237"/>
	<circle cx="439.427" cy="913.48" r="4" fill="#0" id="circle238"/>
	<circle cx="439.427" cy="922.258" r="4" fill="#0" id="circle239"/>
	<circle cx="439.427" cy="931.037" r="4" fill="#0" id="circle240"/>
	<circle cx="441.182" cy="830.081" r="4" fill="#0" id="circle241"/>
	<circle cx="443.816" cy="838.86" r="4" fill="#0" id="circle242"/>
	<circle cx="443.816" cy="856.418" r="4" fill="#0" id="circle243"/>
	<circle cx="443.816" cy="865.196" r="4" fill="#0" id="circle244"/>
	<circle cx="443.816" cy="873.975" r="4" fill="#0" id="circle245"/>
	<circle cx="443.816" cy="882.754" r="4" fill="#0" id="circle246"/>
	<circle cx="443.816" cy="891.533" r="4" fill="#0" id="circle247"/>
	<circle cx="445.572" cy="847.639" r="4" fill="#0" id="circle248"/>
	</g>
</svg>