<?xml version="1.0" encoding="UTF-8" standalone="no"?>
<!-- Created with CurveBenchmark -->
<svg
	xmlns:dc="http://purl.org/dc/elements/1.1/"
	xmlns:cc="http://creativecommons.org/ns#"
	xmlns:rdf="http://www.w3.org/1999/02/22-rdf-syntax-ns#"
	xmlns:svg="http://www.w3.org/2000/svg"
	xmlns="http://www.w3.org/2000/svg"
	xmlns:sodipodi="http://sodipodi.sourceforge.net/DTD/sodipodi-0.dtd"
	xmlns:inkscape="http://www.inkscape.org/namespaces/inkscape"
	width="1000"
	height="1000"
	id="svg2"
	version="1.1"
	sodipodi:docname="manifold/peel-guitar015.png.txt">
<defs
	id="defs4" />
<metadata
	id="metadata7">
	<rdf:RDF>
		<cc:Work
			rdf:about="">
			<dc:format>image/svg+xml</dc:format>
			<dc:type
				rdf:resource="http://purl.org/dc/dcmitype/StillImage" />
			<dc:title></dc:title>
		</cc:Work>
	</rdf:RDF>
</metadata>
<g
	inkscape:label="Layer 1"
	inkscape:groupmode="layer"
	id="layer1">
	<path style="fill:none;stroke:red;stroke-width:1px;stroke-linecap:butt;stroke-linejoin:miter;stroke-opacity:1" d="M 39.1773,732.17 18.0709,767.348 z" id="boundary" inkscape:connector-curvature="0" />
	<path style="fill:none;stroke:red;stroke-width:1px;stroke-linecap:butt;stroke-linejoin:miter;stroke-opacity:1" d="M 4,837.702 4,802.525 z" id="boundary" inkscape:connector-curvature="0" />
	<path style="fill:none;stroke:red;stroke-width:1px;stroke-linecap:butt;stroke-linejoin:miter;stroke-opacity:1" d="M 4,802.525 18.0709,767.348 z" id="boundary" inkscape:connector-curvature="0" />
	<path style="fill:none;stroke:red;stroke-width:1px;stroke-linecap:butt;stroke-linejoin:miter;stroke-opacity:1" d="M 18.0709,908.057 4,872.879 z" id="boundary" inkscape:connector-curvature="0" />
	<path style="fill:none;stroke:red;stroke-width:1px;stroke-linecap:butt;stroke-linejoin:miter;stroke-opacity:1" d="M 4,872.879 4,837.702 z" id="boundary" inkscape:connector-curvature="0" />
	<path style="fill:none;stroke:red;stroke-width:1px;stroke-linecap:butt;stroke-linejoin:miter;stroke-opacity:1" d="M 42.695,936.199 18.0709,908.057 z" id="boundary" inkscape:connector-curvature="0" />
	<path style="fill:none;stroke:red;stroke-width:1px;stroke-linecap:butt;stroke-linejoin:miter;stroke-opacity:1" d="M 49.7305,598.496 46.2128,563.319 z" id="boundary" inkscape:connector-curvature="0" />
	<path style="fill:none;stroke:red;stroke-width:1px;stroke-linecap:butt;stroke-linejoin:miter;stroke-opacity:1" d="M 49.7305,598.496 63.8014,633.674 z" id="boundary" inkscape:connector-curvature="0" />
	<path style="fill:none;stroke:red;stroke-width:1px;stroke-linecap:butt;stroke-linejoin:miter;stroke-opacity:1" d="M 63.8014,531.66 46.2128,563.319 z" id="boundary" inkscape:connector-curvature="0" />
	<path style="fill:none;stroke:red;stroke-width:1px;stroke-linecap:butt;stroke-linejoin:miter;stroke-opacity:1" d="M 341.702,696.993 359.291,728.652 z" id="boundary" inkscape:connector-curvature="0" />
	<path style="fill:none;stroke:red;stroke-width:1px;stroke-linecap:butt;stroke-linejoin:miter;stroke-opacity:1" d="M 63.8014,531.66 91.9433,510.553 z" id="boundary" inkscape:connector-curvature="0" />
	<path style="fill:none;stroke:red;stroke-width:1px;stroke-linecap:butt;stroke-linejoin:miter;stroke-opacity:1" d="M 70.8369,957.305 42.695,936.199 z" id="boundary" inkscape:connector-curvature="0" />
	<path style="fill:none;stroke:red;stroke-width:1px;stroke-linecap:butt;stroke-linejoin:miter;stroke-opacity:1" d="M 63.8014,633.674 60.2837,696.993 z" id="boundary" inkscape:connector-curvature="0" />
	<path style="fill:none;stroke:red;stroke-width:1px;stroke-linecap:butt;stroke-linejoin:miter;stroke-opacity:1" d="M 60.2837,696.993 39.1773,732.17 z" id="boundary" inkscape:connector-curvature="0" />
	<path style="fill:none;stroke:red;stroke-width:1px;stroke-linecap:butt;stroke-linejoin:miter;stroke-opacity:1" d="M 91.9433,510.553 127.121,500 z" id="boundary" inkscape:connector-curvature="0" />
	<path style="fill:none;stroke:red;stroke-width:1px;stroke-linecap:butt;stroke-linejoin:miter;stroke-opacity:1" d="M 127.121,500 162.298,496.482 z" id="boundary" inkscape:connector-curvature="0" />
	<path style="fill:none;stroke:red;stroke-width:1px;stroke-linecap:butt;stroke-linejoin:miter;stroke-opacity:1" d="M 158.78,63.8014 158.78,28.6241 z" id="boundary" inkscape:connector-curvature="0" />
	<path style="fill:none;stroke:red;stroke-width:1px;stroke-linecap:butt;stroke-linejoin:miter;stroke-opacity:1" d="M 102.496,974.894 70.8369,957.305 z" id="boundary" inkscape:connector-curvature="0" />
	<path style="fill:none;stroke:red;stroke-width:1px;stroke-linecap:butt;stroke-linejoin:miter;stroke-opacity:1" d="M 183.404,468.34 162.298,496.482 z" id="boundary" inkscape:connector-curvature="0" />
	<path style="fill:none;stroke:red;stroke-width:1px;stroke-linecap:butt;stroke-linejoin:miter;stroke-opacity:1" d="M 137.674,985.447 102.496,974.894 z" id="boundary" inkscape:connector-curvature="0" />
	<path style="fill:none;stroke:red;stroke-width:1px;stroke-linecap:butt;stroke-linejoin:miter;stroke-opacity:1" d="M 165.816,98.9787 158.78,63.8014 z" id="boundary" inkscape:connector-curvature="0" />
	<path style="fill:none;stroke:red;stroke-width:1px;stroke-linecap:butt;stroke-linejoin:miter;stroke-opacity:1" d="M 186.922,295.972 186.922,260.794 z" id="boundary" inkscape:connector-curvature="0" />
	<path style="fill:none;stroke:red;stroke-width:1px;stroke-linecap:butt;stroke-linejoin:miter;stroke-opacity:1" d="M 186.922,7.51773 158.78,28.6241 z" id="boundary" inkscape:connector-curvature="0" />
	<path style="fill:none;stroke:red;stroke-width:1px;stroke-linecap:butt;stroke-linejoin:miter;stroke-opacity:1" d="M 250.241,542.213 246.723,507.035 z" id="boundary" inkscape:connector-curvature="0" />
	<path style="fill:none;stroke:red;stroke-width:1px;stroke-linecap:butt;stroke-linejoin:miter;stroke-opacity:1" d="M 172.851,988.965 137.674,985.447 z" id="boundary" inkscape:connector-curvature="0" />
	<path style="fill:none;stroke:red;stroke-width:1px;stroke-linecap:butt;stroke-linejoin:miter;stroke-opacity:1" d="M 246.723,471.858 246.723,436.681 z" id="boundary" inkscape:connector-curvature="0" />
	<path style="fill:none;stroke:red;stroke-width:1px;stroke-linecap:butt;stroke-linejoin:miter;stroke-opacity:1" d="M 208.028,996 172.851,988.965 z" id="boundary" inkscape:connector-curvature="0" />
	<path style="fill:none;stroke:red;stroke-width:1px;stroke-linecap:butt;stroke-linejoin:miter;stroke-opacity:1" d="M 186.922,401.504 186.922,366.326 z" id="boundary" inkscape:connector-curvature="0" />
	<path style="fill:none;stroke:red;stroke-width:1px;stroke-linecap:butt;stroke-linejoin:miter;stroke-opacity:1" d="M 239.688,42.695 222.099,4 z" id="boundary" inkscape:connector-curvature="0" />
	<path style="fill:none;stroke:red;stroke-width:1px;stroke-linecap:butt;stroke-linejoin:miter;stroke-opacity:1" d="M 222.099,4 186.922,7.51773 z" id="boundary" inkscape:connector-curvature="0" />
	<path style="fill:none;stroke:red;stroke-width:1px;stroke-linecap:butt;stroke-linejoin:miter;stroke-opacity:1" d="M 186.922,331.149 186.922,295.972 z" id="boundary" inkscape:connector-curvature="0" />
	<path style="fill:none;stroke:red;stroke-width:1px;stroke-linecap:butt;stroke-linejoin:miter;stroke-opacity:1" d="M 190.44,127.121 193.957,162.298 z" id="boundary" inkscape:connector-curvature="0" />
	<path style="fill:none;stroke:red;stroke-width:1px;stroke-linecap:butt;stroke-linejoin:miter;stroke-opacity:1" d="M 190.44,127.121 165.816,98.9787 z" id="boundary" inkscape:connector-curvature="0" />
	<path style="fill:none;stroke:red;stroke-width:1px;stroke-linecap:butt;stroke-linejoin:miter;stroke-opacity:1" d="M 186.922,366.326 186.922,331.149 z" id="boundary" inkscape:connector-curvature="0" />
	<path style="fill:none;stroke:red;stroke-width:1px;stroke-linecap:butt;stroke-linejoin:miter;stroke-opacity:1" d="M 193.957,162.298 193.957,197.475 z" id="boundary" inkscape:connector-curvature="0" />
	<path style="fill:none;stroke:red;stroke-width:1px;stroke-linecap:butt;stroke-linejoin:miter;stroke-opacity:1" d="M 239.688,155.262 239.688,190.44 z" id="boundary" inkscape:connector-curvature="0" />
	<path style="fill:none;stroke:red;stroke-width:1px;stroke-linecap:butt;stroke-linejoin:miter;stroke-opacity:1" d="M 243.206,260.794 239.688,225.617 z" id="boundary" inkscape:connector-curvature="0" />
	<path style="fill:none;stroke:red;stroke-width:1px;stroke-linecap:butt;stroke-linejoin:miter;stroke-opacity:1" d="M 239.688,120.085 239.688,155.262 z" id="boundary" inkscape:connector-curvature="0" />
	<path style="fill:none;stroke:red;stroke-width:1px;stroke-linecap:butt;stroke-linejoin:miter;stroke-opacity:1" d="M 239.688,42.695 246.723,77.8723 z" id="boundary" inkscape:connector-curvature="0" />
	<path style="fill:none;stroke:red;stroke-width:1px;stroke-linecap:butt;stroke-linejoin:miter;stroke-opacity:1" d="M 239.688,225.617 239.688,190.44 z" id="boundary" inkscape:connector-curvature="0" />
	<path style="fill:none;stroke:red;stroke-width:1px;stroke-linecap:butt;stroke-linejoin:miter;stroke-opacity:1" d="M 246.723,295.972 243.206,260.794 z" id="boundary" inkscape:connector-curvature="0" />
	<path style="fill:none;stroke:red;stroke-width:1px;stroke-linecap:butt;stroke-linejoin:miter;stroke-opacity:1" d="M 239.688,120.085 246.723,77.8723 z" id="boundary" inkscape:connector-curvature="0" />
	<path style="fill:none;stroke:red;stroke-width:1px;stroke-linecap:butt;stroke-linejoin:miter;stroke-opacity:1" d="M 246.723,295.972 246.723,331.149 z" id="boundary" inkscape:connector-curvature="0" />
	<path style="fill:none;stroke:red;stroke-width:1px;stroke-linecap:butt;stroke-linejoin:miter;stroke-opacity:1" d="M 246.723,366.326 246.723,331.149 z" id="boundary" inkscape:connector-curvature="0" />
	<path style="fill:none;stroke:red;stroke-width:1px;stroke-linecap:butt;stroke-linejoin:miter;stroke-opacity:1" d="M 243.206,988.965 208.028,996 z" id="boundary" inkscape:connector-curvature="0" />
	<path style="fill:none;stroke:red;stroke-width:1px;stroke-linecap:butt;stroke-linejoin:miter;stroke-opacity:1" d="M 246.723,401.504 246.723,366.326 z" id="boundary" inkscape:connector-curvature="0" />
	<path style="fill:none;stroke:red;stroke-width:1px;stroke-linecap:butt;stroke-linejoin:miter;stroke-opacity:1" d="M 246.723,401.504 246.723,436.681 z" id="boundary" inkscape:connector-curvature="0" />
	<path style="fill:none;stroke:red;stroke-width:1px;stroke-linecap:butt;stroke-linejoin:miter;stroke-opacity:1" d="M 246.723,471.858 246.723,507.035 z" id="boundary" inkscape:connector-curvature="0" />
	<path style="fill:none;stroke:red;stroke-width:1px;stroke-linecap:butt;stroke-linejoin:miter;stroke-opacity:1" d="M 250.241,542.213 271.348,570.355 z" id="boundary" inkscape:connector-curvature="0" />
	<path style="fill:none;stroke:red;stroke-width:1px;stroke-linecap:butt;stroke-linejoin:miter;stroke-opacity:1" d="M 341.702,542.213 359.291,573.872 z" id="boundary" inkscape:connector-curvature="0" />
	<path style="fill:none;stroke:red;stroke-width:1px;stroke-linecap:butt;stroke-linejoin:miter;stroke-opacity:1" d="M 341.702,542.213 306.525,556.284 z" id="boundary" inkscape:connector-curvature="0" />
	<path style="fill:none;stroke:red;stroke-width:1px;stroke-linecap:butt;stroke-linejoin:miter;stroke-opacity:1" d="M 331.149,661.816 341.702,696.993 z" id="boundary" inkscape:connector-curvature="0" />
	<path style="fill:none;stroke:red;stroke-width:1px;stroke-linecap:butt;stroke-linejoin:miter;stroke-opacity:1" d="M 306.525,556.284 271.348,570.355 z" id="boundary" inkscape:connector-curvature="0" />
	<path style="fill:none;stroke:red;stroke-width:1px;stroke-linecap:butt;stroke-linejoin:miter;stroke-opacity:1" d="M 345.22,626.638 331.149,661.816 z" id="boundary" inkscape:connector-curvature="0" />
	<path style="fill:none;stroke:red;stroke-width:1px;stroke-linecap:butt;stroke-linejoin:miter;stroke-opacity:1" d="M 243.206,988.965 278.383,981.929 z" id="boundary" inkscape:connector-curvature="0" />
	<path style="fill:none;stroke:red;stroke-width:1px;stroke-linecap:butt;stroke-linejoin:miter;stroke-opacity:1" d="M 313.56,967.858 278.383,981.929 z" id="boundary" inkscape:connector-curvature="0" />
	<path style="fill:none;stroke:red;stroke-width:1px;stroke-linecap:butt;stroke-linejoin:miter;stroke-opacity:1" d="M 345.22,626.638 359.291,573.872 z" id="boundary" inkscape:connector-curvature="0" />
	<path style="fill:none;stroke:red;stroke-width:1px;stroke-linecap:butt;stroke-linejoin:miter;stroke-opacity:1" d="M 380.397,756.794 359.291,728.652 z" id="boundary" inkscape:connector-curvature="0" />
	<path style="fill:none;stroke:red;stroke-width:1px;stroke-linecap:butt;stroke-linejoin:miter;stroke-opacity:1" d="M 366.326,922.128 345.22,950.27 z" id="boundary" inkscape:connector-curvature="0" />
	<path style="fill:none;stroke:red;stroke-width:1px;stroke-linecap:butt;stroke-linejoin:miter;stroke-opacity:1" d="M 345.22,950.27 313.56,967.858 z" id="boundary" inkscape:connector-curvature="0" />
	<path style="fill:none;stroke:red;stroke-width:1px;stroke-linecap:butt;stroke-linejoin:miter;stroke-opacity:1" d="M 380.397,756.794 394.468,791.972 z" id="boundary" inkscape:connector-curvature="0" />
	<path style="fill:none;stroke:red;stroke-width:1px;stroke-linecap:butt;stroke-linejoin:miter;stroke-opacity:1" d="M 401.504,827.149 394.468,791.972 z" id="boundary" inkscape:connector-curvature="0" />
	<path style="fill:none;stroke:red;stroke-width:1px;stroke-linecap:butt;stroke-linejoin:miter;stroke-opacity:1" d="M 401.504,827.149 387.433,893.986 z" id="boundary" inkscape:connector-curvature="0" />
	<path style="fill:none;stroke:red;stroke-width:1px;stroke-linecap:butt;stroke-linejoin:miter;stroke-opacity:1" d="M 387.433,893.986 366.326,922.128 z" id="boundary" inkscape:connector-curvature="0" />
	<circle cx="4" cy="802.525" r="4" fill="#0" id="circle0"/>
	<circle cx="4" cy="837.702" r="4" fill="#0" id="circle1"/>
	<circle cx="4" cy="872.879" r="4" fill="#0" id="circle2"/>
	<circle cx="18.0709" cy="767.348" r="4" fill="#0" id="circle3"/>
	<circle cx="18.0709" cy="908.057" r="4" fill="#0" id="circle4"/>
	<circle cx="39.1773" cy="732.17" r="4" fill="#0" id="circle5"/>
	<circle cx="42.695" cy="936.199" r="4" fill="#0" id="circle6"/>
	<circle cx="46.2128" cy="563.319" r="4" fill="#0" id="circle7"/>
	<circle cx="49.7305" cy="598.496" r="4" fill="#0" id="circle8"/>
	<circle cx="60.2837" cy="696.993" r="4" fill="#0" id="circle9"/>
	<circle cx="63.8014" cy="531.66" r="4" fill="#0" id="circle10"/>
	<circle cx="63.8014" cy="633.674" r="4" fill="#0" id="circle11"/>
	<circle cx="70.8369" cy="957.305" r="4" fill="#0" id="circle12"/>
	<circle cx="91.9433" cy="510.553" r="4" fill="#0" id="circle13"/>
	<circle cx="102.496" cy="974.894" r="4" fill="#0" id="circle14"/>
	<circle cx="127.121" cy="500" r="4" fill="#0" id="circle15"/>
	<circle cx="137.674" cy="985.447" r="4" fill="#0" id="circle16"/>
	<circle cx="158.78" cy="28.6241" r="4" fill="#0" id="circle17"/>
	<circle cx="158.78" cy="63.8014" r="4" fill="#0" id="circle18"/>
	<circle cx="162.298" cy="496.482" r="4" fill="#0" id="circle19"/>
	<circle cx="165.816" cy="98.9787" r="4" fill="#0" id="circle20"/>
	<circle cx="172.851" cy="988.965" r="4" fill="#0" id="circle21"/>
	<circle cx="183.404" cy="468.34" r="4" fill="#0" id="circle22"/>
	<circle cx="186.922" cy="7.51773" r="4" fill="#0" id="circle23"/>
	<circle cx="186.922" cy="260.794" r="4" fill="#0" id="circle24"/>
	<circle cx="186.922" cy="295.972" r="4" fill="#0" id="circle25"/>
	<circle cx="186.922" cy="331.149" r="4" fill="#0" id="circle26"/>
	<circle cx="186.922" cy="366.326" r="4" fill="#0" id="circle27"/>
	<circle cx="186.922" cy="401.504" r="4" fill="#0" id="circle28"/>
	<circle cx="190.44" cy="127.121" r="4" fill="#0" id="circle29"/>
	<circle cx="193.957" cy="162.298" r="4" fill="#0" id="circle30"/>
	<circle cx="193.957" cy="197.475" r="4" fill="#0" id="circle31"/>
	<circle cx="208.028" cy="996" r="4" fill="#0" id="circle32"/>
	<circle cx="222.099" cy="4" r="4" fill="#0" id="circle33"/>
	<circle cx="239.688" cy="42.695" r="4" fill="#0" id="circle34"/>
	<circle cx="239.688" cy="120.085" r="4" fill="#0" id="circle35"/>
	<circle cx="239.688" cy="155.262" r="4" fill="#0" id="circle36"/>
	<circle cx="239.688" cy="190.44" r="4" fill="#0" id="circle37"/>
	<circle cx="239.688" cy="225.617" r="4" fill="#0" id="circle38"/>
	<circle cx="243.206" cy="260.794" r="4" fill="#0" id="circle39"/>
	<circle cx="243.206" cy="988.965" r="4" fill="#0" id="circle40"/>
	<circle cx="246.723" cy="77.8723" r="4" fill="#0" id="circle41"/>
	<circle cx="246.723" cy="295.972" r="4" fill="#0" id="circle42"/>
	<circle cx="246.723" cy="331.149" r="4" fill="#0" id="circle43"/>
	<circle cx="246.723" cy="366.326" r="4" fill="#0" id="circle44"/>
	<circle cx="246.723" cy="401.504" r="4" fill="#0" id="circle45"/>
	<circle cx="246.723" cy="436.681" r="4" fill="#0" id="circle46"/>
	<circle cx="246.723" cy="471.858" r="4" fill="#0" id="circle47"/>
	<circle cx="246.723" cy="507.035" r="4" fill="#0" id="circle48"/>
	<circle cx="250.241" cy="542.213" r="4" fill="#0" id="circle49"/>
	<circle cx="271.348" cy="570.355" r="4" fill="#0" id="circle50"/>
	<circle cx="278.383" cy="981.929" r="4" fill="#0" id="circle51"/>
	<circle cx="306.525" cy="556.284" r="4" fill="#0" id="circle52"/>
	<circle cx="313.56" cy="967.858" r="4" fill="#0" id="circle53"/>
	<circle cx="331.149" cy="661.816" r="4" fill="#0" id="circle54"/>
	<circle cx="341.702" cy="542.213" r="4" fill="#0" id="circle55"/>
	<circle cx="341.702" cy="696.993" r="4" fill="#0" id="circle56"/>
	<circle cx="345.22" cy="626.638" r="4" fill="#0" id="circle57"/>
	<circle cx="345.22" cy="950.27" r="4" fill="#0" id="circle58"/>
	<circle cx="359.291" cy="573.872" r="4" fill="#0" id="circle59"/>
	<circle cx="359.291" cy="728.652" r="4" fill="#0" id="circle60"/>
	<circle cx="366.326" cy="922.128" r="4" fill="#0" id="circle61"/>
	<circle cx="380.397" cy="756.794" r="4" fill="#0" id="circle62"/>
	<circle cx="387.433" cy="893.986" r="4" fill="#0" id="circle63"/>
	<circle cx="394.468" cy="791.972" r="4" fill="#0" id="circle64"/>
	<circle cx="401.504" cy="827.149" r="4" fill="#0" id="circle65"/>
	</g>
</svg>