<?xml version="1.0" encoding="UTF-8" standalone="no"?>
<!-- Created with CurveBenchmark -->
<svg
	xmlns:dc="http://purl.org/dc/elements/1.1/"
	xmlns:cc="http://creativecommons.org/ns#"
	xmlns:rdf="http://www.w3.org/1999/02/22-rdf-syntax-ns#"
	xmlns:svg="http://www.w3.org/2000/svg"
	xmlns="http://www.w3.org/2000/svg"
	xmlns:sodipodi="http://sodipodi.sourceforge.net/DTD/sodipodi-0.dtd"
	xmlns:inkscape="http://www.inkscape.org/namespaces/inkscape"
	width="1000"
	height="1000"
	id="svg2"
	version="1.1"
	sodipodi:docname="manifold/peel-dude10.png.txt">
<defs
	id="defs4" />
<metadata
	id="metadata7">
	<rdf:RDF>
		<cc:Work
			rdf:about="">
			<dc:format>image/svg+xml</dc:format>
			<dc:type
				rdf:resource="http://purl.org/dc/dcmitype/StillImage" />
			<dc:title></dc:title>
		</cc:Work>
	</rdf:RDF>
</metadata>
<g
	inkscape:label="Layer 1"
	inkscape:groupmode="layer"
	id="layer1">
	<path style="fill:none;stroke:red;stroke-width:1px;stroke-linecap:butt;stroke-linejoin:miter;stroke-opacity:1" d="M 4,415.133 4,396.274 z" id="boundary" inkscape:connector-curvature="0" />
	<path style="fill:none;stroke:red;stroke-width:1px;stroke-linecap:butt;stroke-linejoin:miter;stroke-opacity:1" d="M 4,396.274 13.4297,377.414 z" id="boundary" inkscape:connector-curvature="0" />
	<path style="fill:none;stroke:red;stroke-width:1px;stroke-linecap:butt;stroke-linejoin:miter;stroke-opacity:1" d="M 13.4297,432.106 4,415.133 z" id="boundary" inkscape:connector-curvature="0" />
	<path style="fill:none;stroke:red;stroke-width:1px;stroke-linecap:butt;stroke-linejoin:miter;stroke-opacity:1" d="M 28.5171,362.327 13.4297,377.414 z" id="boundary" inkscape:connector-curvature="0" />
	<path style="fill:none;stroke:red;stroke-width:1px;stroke-linecap:butt;stroke-linejoin:miter;stroke-opacity:1" d="M 32.289,433.992 13.4297,432.106 z" id="boundary" inkscape:connector-curvature="0" />
	<path style="fill:none;stroke:red;stroke-width:1px;stroke-linecap:butt;stroke-linejoin:miter;stroke-opacity:1" d="M 37.9468,343.468 28.5171,362.327 z" id="boundary" inkscape:connector-curvature="0" />
	<path style="fill:none;stroke:red;stroke-width:1px;stroke-linecap:butt;stroke-linejoin:miter;stroke-opacity:1" d="M 47.3764,418.905 32.289,433.992 z" id="boundary" inkscape:connector-curvature="0" />
	<path style="fill:none;stroke:red;stroke-width:1px;stroke-linecap:butt;stroke-linejoin:miter;stroke-opacity:1" d="M 41.7186,980.913 41.7186,962.053 z" id="boundary" inkscape:connector-curvature="0" />
	<path style="fill:none;stroke:red;stroke-width:1px;stroke-linecap:butt;stroke-linejoin:miter;stroke-opacity:1" d="M 51.1483,924.335 51.1483,943.194 z" id="boundary" inkscape:connector-curvature="0" />
	<path style="fill:none;stroke:red;stroke-width:1px;stroke-linecap:butt;stroke-linejoin:miter;stroke-opacity:1" d="M 51.1483,943.194 41.7186,962.053 z" id="boundary" inkscape:connector-curvature="0" />
	<path style="fill:none;stroke:red;stroke-width:1px;stroke-linecap:butt;stroke-linejoin:miter;stroke-opacity:1" d="M 37.9468,343.468 53.0342,328.38 z" id="boundary" inkscape:connector-curvature="0" />
	<path style="fill:none;stroke:red;stroke-width:1px;stroke-linecap:butt;stroke-linejoin:miter;stroke-opacity:1" d="M 60.5779,905.475 51.1483,924.335 z" id="boundary" inkscape:connector-curvature="0" />
	<path style="fill:none;stroke:red;stroke-width:1px;stroke-linecap:butt;stroke-linejoin:miter;stroke-opacity:1" d="M 77.5513,296.319 62.4639,309.521 z" id="boundary" inkscape:connector-curvature="0" />
	<path style="fill:none;stroke:red;stroke-width:1px;stroke-linecap:butt;stroke-linejoin:miter;stroke-opacity:1" d="M 60.5779,905.475 70.0076,886.616 z" id="boundary" inkscape:connector-curvature="0" />
	<path style="fill:none;stroke:red;stroke-width:1px;stroke-linecap:butt;stroke-linejoin:miter;stroke-opacity:1" d="M 47.3764,418.905 62.4639,401.932 z" id="boundary" inkscape:connector-curvature="0" />
	<path style="fill:none;stroke:red;stroke-width:1px;stroke-linecap:butt;stroke-linejoin:miter;stroke-opacity:1" d="M 53.0342,328.38 62.4639,309.521 z" id="boundary" inkscape:connector-curvature="0" />
	<path style="fill:none;stroke:red;stroke-width:1px;stroke-linecap:butt;stroke-linejoin:miter;stroke-opacity:1" d="M 62.4639,401.932 79.4373,392.502 z" id="boundary" inkscape:connector-curvature="0" />
	<path style="fill:none;stroke:red;stroke-width:1px;stroke-linecap:butt;stroke-linejoin:miter;stroke-opacity:1" d="M 70.0076,986.57 53.0342,996 z" id="boundary" inkscape:connector-curvature="0" />
	<path style="fill:none;stroke:red;stroke-width:1px;stroke-linecap:butt;stroke-linejoin:miter;stroke-opacity:1" d="M 53.0342,996 41.7186,980.913 z" id="boundary" inkscape:connector-curvature="0" />
	<path style="fill:none;stroke:red;stroke-width:1px;stroke-linecap:butt;stroke-linejoin:miter;stroke-opacity:1" d="M 85.0951,277.46 77.5513,296.319 z" id="boundary" inkscape:connector-curvature="0" />
	<path style="fill:none;stroke:red;stroke-width:1px;stroke-linecap:butt;stroke-linejoin:miter;stroke-opacity:1" d="M 79.4373,867.757 70.0076,886.616 z" id="boundary" inkscape:connector-curvature="0" />
	<path style="fill:none;stroke:red;stroke-width:1px;stroke-linecap:butt;stroke-linejoin:miter;stroke-opacity:1" d="M 85.0951,277.46 100.183,262.373 z" id="boundary" inkscape:connector-curvature="0" />
	<path style="fill:none;stroke:red;stroke-width:1px;stroke-linecap:butt;stroke-linejoin:miter;stroke-opacity:1" d="M 79.4373,867.757 94.5247,852.669 z" id="boundary" inkscape:connector-curvature="0" />
	<path style="fill:none;stroke:red;stroke-width:1px;stroke-linecap:butt;stroke-linejoin:miter;stroke-opacity:1" d="M 79.4373,392.502 94.5247,381.186 z" id="boundary" inkscape:connector-curvature="0" />
	<path style="fill:none;stroke:red;stroke-width:1px;stroke-linecap:butt;stroke-linejoin:miter;stroke-opacity:1" d="M 86.981,977.141 70.0076,986.57 z" id="boundary" inkscape:connector-curvature="0" />
	<path style="fill:none;stroke:red;stroke-width:1px;stroke-linecap:butt;stroke-linejoin:miter;stroke-opacity:1" d="M 258.601,424.563 258.601,405.703 z" id="boundary" inkscape:connector-curvature="0" />
	<path style="fill:none;stroke:red;stroke-width:1px;stroke-linecap:butt;stroke-linejoin:miter;stroke-opacity:1" d="M 258.601,405.703 249.171,388.73 z" id="boundary" inkscape:connector-curvature="0" />
	<path style="fill:none;stroke:red;stroke-width:1px;stroke-linecap:butt;stroke-linejoin:miter;stroke-opacity:1" d="M 105.84,973.369 86.981,977.141 z" id="boundary" inkscape:connector-curvature="0" />
	<path style="fill:none;stroke:red;stroke-width:1px;stroke-linecap:butt;stroke-linejoin:miter;stroke-opacity:1" d="M 100.183,262.373 109.612,243.513 z" id="boundary" inkscape:connector-curvature="0" />
	<path style="fill:none;stroke:red;stroke-width:1px;stroke-linecap:butt;stroke-linejoin:miter;stroke-opacity:1" d="M 103.954,833.81 94.5247,852.669 z" id="boundary" inkscape:connector-curvature="0" />
	<path style="fill:none;stroke:red;stroke-width:1px;stroke-linecap:butt;stroke-linejoin:miter;stroke-opacity:1" d="M 109.612,364.213 94.5247,381.186 z" id="boundary" inkscape:connector-curvature="0" />
	<path style="fill:none;stroke:red;stroke-width:1px;stroke-linecap:butt;stroke-linejoin:miter;stroke-opacity:1" d="M 117.156,811.179 103.954,833.81 z" id="boundary" inkscape:connector-curvature="0" />
	<path style="fill:none;stroke:red;stroke-width:1px;stroke-linecap:butt;stroke-linejoin:miter;stroke-opacity:1" d="M 119.042,224.654 134.129,211.452 z" id="boundary" inkscape:connector-curvature="0" />
	<path style="fill:none;stroke:red;stroke-width:1px;stroke-linecap:butt;stroke-linejoin:miter;stroke-opacity:1" d="M 115.27,954.51 105.84,973.369 z" id="boundary" inkscape:connector-curvature="0" />
	<path style="fill:none;stroke:red;stroke-width:1px;stroke-linecap:butt;stroke-linejoin:miter;stroke-opacity:1" d="M 128.471,939.422 115.27,954.51 z" id="boundary" inkscape:connector-curvature="0" />
	<path style="fill:none;stroke:red;stroke-width:1px;stroke-linecap:butt;stroke-linejoin:miter;stroke-opacity:1" d="M 109.612,364.213 124.7,351.011 z" id="boundary" inkscape:connector-curvature="0" />
	<path style="fill:none;stroke:red;stroke-width:1px;stroke-linecap:butt;stroke-linejoin:miter;stroke-opacity:1" d="M 126.586,792.319 117.156,811.179 z" id="boundary" inkscape:connector-curvature="0" />
	<path style="fill:none;stroke:red;stroke-width:1px;stroke-linecap:butt;stroke-linejoin:miter;stroke-opacity:1" d="M 109.612,243.513 119.042,224.654 z" id="boundary" inkscape:connector-curvature="0" />
	<path style="fill:none;stroke:red;stroke-width:1px;stroke-linecap:butt;stroke-linejoin:miter;stroke-opacity:1" d="M 137.901,335.924 124.7,351.011 z" id="boundary" inkscape:connector-curvature="0" />
	<path style="fill:none;stroke:red;stroke-width:1px;stroke-linecap:butt;stroke-linejoin:miter;stroke-opacity:1" d="M 136.015,773.46 126.586,792.319 z" id="boundary" inkscape:connector-curvature="0" />
	<path style="fill:none;stroke:red;stroke-width:1px;stroke-linecap:butt;stroke-linejoin:miter;stroke-opacity:1" d="M 143.559,926.221 128.471,939.422 z" id="boundary" inkscape:connector-curvature="0" />
	<path style="fill:none;stroke:red;stroke-width:1px;stroke-linecap:butt;stroke-linejoin:miter;stroke-opacity:1" d="M 136.015,773.46 151.103,758.373 z" id="boundary" inkscape:connector-curvature="0" />
	<path style="fill:none;stroke:red;stroke-width:1px;stroke-linecap:butt;stroke-linejoin:miter;stroke-opacity:1" d="M 230.312,334.038 224.654,315.179 z" id="boundary" inkscape:connector-curvature="0" />
	<path style="fill:none;stroke:red;stroke-width:1px;stroke-linecap:butt;stroke-linejoin:miter;stroke-opacity:1" d="M 151.103,202.023 134.129,211.452 z" id="boundary" inkscape:connector-curvature="0" />
	<path style="fill:none;stroke:red;stroke-width:1px;stroke-linecap:butt;stroke-linejoin:miter;stroke-opacity:1" d="M 137.901,335.924 147.331,317.065 z" id="boundary" inkscape:connector-curvature="0" />
	<path style="fill:none;stroke:red;stroke-width:1px;stroke-linecap:butt;stroke-linejoin:miter;stroke-opacity:1" d="M 147.331,317.065 164.304,307.635 z" id="boundary" inkscape:connector-curvature="0" />
	<path style="fill:none;stroke:red;stroke-width:1px;stroke-linecap:butt;stroke-linejoin:miter;stroke-opacity:1" d="M 160.532,739.513 151.103,758.373 z" id="boundary" inkscape:connector-curvature="0" />
	<path style="fill:none;stroke:red;stroke-width:1px;stroke-linecap:butt;stroke-linejoin:miter;stroke-opacity:1" d="M 152.989,907.361 143.559,926.221 z" id="boundary" inkscape:connector-curvature="0" />
	<path style="fill:none;stroke:red;stroke-width:1px;stroke-linecap:butt;stroke-linejoin:miter;stroke-opacity:1" d="M 166.19,892.274 152.989,907.361 z" id="boundary" inkscape:connector-curvature="0" />
	<path style="fill:none;stroke:red;stroke-width:1px;stroke-linecap:butt;stroke-linejoin:miter;stroke-opacity:1" d="M 217.11,296.319 224.654,315.179 z" id="boundary" inkscape:connector-curvature="0" />
	<path style="fill:none;stroke:red;stroke-width:1px;stroke-linecap:butt;stroke-linejoin:miter;stroke-opacity:1" d="M 217.11,296.319 198.251,288.776 z" id="boundary" inkscape:connector-curvature="0" />
	<path style="fill:none;stroke:red;stroke-width:1px;stroke-linecap:butt;stroke-linejoin:miter;stroke-opacity:1" d="M 166.19,186.935 151.103,202.023 z" id="boundary" inkscape:connector-curvature="0" />
	<path style="fill:none;stroke:red;stroke-width:1px;stroke-linecap:butt;stroke-linejoin:miter;stroke-opacity:1" d="M 164.304,307.635 179.392,296.319 z" id="boundary" inkscape:connector-curvature="0" />
	<path style="fill:none;stroke:red;stroke-width:1px;stroke-linecap:butt;stroke-linejoin:miter;stroke-opacity:1" d="M 173.734,716.882 160.532,739.513 z" id="boundary" inkscape:connector-curvature="0" />
	<path style="fill:none;stroke:red;stroke-width:1px;stroke-linecap:butt;stroke-linejoin:miter;stroke-opacity:1" d="M 173.734,716.882 188.821,701.795 z" id="boundary" inkscape:connector-curvature="0" />
	<path style="fill:none;stroke:red;stroke-width:1px;stroke-linecap:butt;stroke-linejoin:miter;stroke-opacity:1" d="M 181.278,879.072 166.19,892.274 z" id="boundary" inkscape:connector-curvature="0" />
	<path style="fill:none;stroke:red;stroke-width:1px;stroke-linecap:butt;stroke-linejoin:miter;stroke-opacity:1" d="M 198.251,288.776 179.392,296.319 z" id="boundary" inkscape:connector-curvature="0" />
	<path style="fill:none;stroke:red;stroke-width:1px;stroke-linecap:butt;stroke-linejoin:miter;stroke-opacity:1" d="M 181.278,173.734 200.137,173.734 z" id="boundary" inkscape:connector-curvature="0" />
	<path style="fill:none;stroke:red;stroke-width:1px;stroke-linecap:butt;stroke-linejoin:miter;stroke-opacity:1" d="M 181.278,173.734 166.19,186.935 z" id="boundary" inkscape:connector-curvature="0" />
	<path style="fill:none;stroke:red;stroke-width:1px;stroke-linecap:butt;stroke-linejoin:miter;stroke-opacity:1" d="M 190.707,860.213 181.278,879.072 z" id="boundary" inkscape:connector-curvature="0" />
	<path style="fill:none;stroke:red;stroke-width:1px;stroke-linecap:butt;stroke-linejoin:miter;stroke-opacity:1" d="M 188.821,701.795 198.251,682.935 z" id="boundary" inkscape:connector-curvature="0" />
	<path style="fill:none;stroke:red;stroke-width:1px;stroke-linecap:butt;stroke-linejoin:miter;stroke-opacity:1" d="M 203.909,845.125 190.707,860.213 z" id="boundary" inkscape:connector-curvature="0" />
	<path style="fill:none;stroke:red;stroke-width:1px;stroke-linecap:butt;stroke-linejoin:miter;stroke-opacity:1" d="M 200.137,173.734 217.11,164.304 z" id="boundary" inkscape:connector-curvature="0" />
	<path style="fill:none;stroke:red;stroke-width:1px;stroke-linecap:butt;stroke-linejoin:miter;stroke-opacity:1" d="M 217.11,164.304 235.97,164.304 z" id="boundary" inkscape:connector-curvature="0" />
	<path style="fill:none;stroke:red;stroke-width:1px;stroke-linecap:butt;stroke-linejoin:miter;stroke-opacity:1" d="M 207.681,664.076 198.251,682.935 z" id="boundary" inkscape:connector-curvature="0" />
	<path style="fill:none;stroke:red;stroke-width:1px;stroke-linecap:butt;stroke-linejoin:miter;stroke-opacity:1" d="M 213.338,826.266 203.909,845.125 z" id="boundary" inkscape:connector-curvature="0" />
	<path style="fill:none;stroke:red;stroke-width:1px;stroke-linecap:butt;stroke-linejoin:miter;stroke-opacity:1" d="M 228.426,813.065 213.338,826.266 z" id="boundary" inkscape:connector-curvature="0" />
	<path style="fill:none;stroke:red;stroke-width:1px;stroke-linecap:butt;stroke-linejoin:miter;stroke-opacity:1" d="M 217.11,645.217 207.681,664.076 z" id="boundary" inkscape:connector-curvature="0" />
	<path style="fill:none;stroke:red;stroke-width:1px;stroke-linecap:butt;stroke-linejoin:miter;stroke-opacity:1" d="M 254.829,164.304 273.688,154.875 z" id="boundary" inkscape:connector-curvature="0" />
	<path style="fill:none;stroke:red;stroke-width:1px;stroke-linecap:butt;stroke-linejoin:miter;stroke-opacity:1" d="M 241.627,369.871 239.741,351.011 z" id="boundary" inkscape:connector-curvature="0" />
	<path style="fill:none;stroke:red;stroke-width:1px;stroke-linecap:butt;stroke-linejoin:miter;stroke-opacity:1" d="M 239.741,351.011 230.312,334.038 z" id="boundary" inkscape:connector-curvature="0" />
	<path style="fill:none;stroke:red;stroke-width:1px;stroke-linecap:butt;stroke-linejoin:miter;stroke-opacity:1" d="M 241.627,369.871 249.171,388.73 z" id="boundary" inkscape:connector-curvature="0" />
	<path style="fill:none;stroke:red;stroke-width:1px;stroke-linecap:butt;stroke-linejoin:miter;stroke-opacity:1" d="M 230.312,622.586 217.11,645.217 z" id="boundary" inkscape:connector-curvature="0" />
	<path style="fill:none;stroke:red;stroke-width:1px;stroke-linecap:butt;stroke-linejoin:miter;stroke-opacity:1" d="M 420.791,662.19 435.878,675.392 z" id="boundary" inkscape:connector-curvature="0" />
	<path style="fill:none;stroke:red;stroke-width:1px;stroke-linecap:butt;stroke-linejoin:miter;stroke-opacity:1" d="M 235.97,164.304 254.829,164.304 z" id="boundary" inkscape:connector-curvature="0" />
	<path style="fill:none;stroke:red;stroke-width:1px;stroke-linecap:butt;stroke-linejoin:miter;stroke-opacity:1" d="M 230.312,622.586 245.399,607.498 z" id="boundary" inkscape:connector-curvature="0" />
	<path style="fill:none;stroke:red;stroke-width:1px;stroke-linecap:butt;stroke-linejoin:miter;stroke-opacity:1" d="M 277.46,94.5247 277.46,75.6654 z" id="boundary" inkscape:connector-curvature="0" />
	<path style="fill:none;stroke:red;stroke-width:1px;stroke-linecap:butt;stroke-linejoin:miter;stroke-opacity:1" d="M 439.65,154.875 430.221,137.901 z" id="boundary" inkscape:connector-curvature="0" />
	<path style="fill:none;stroke:red;stroke-width:1px;stroke-linecap:butt;stroke-linejoin:miter;stroke-opacity:1" d="M 241.627,788.548 228.426,813.065 z" id="boundary" inkscape:connector-curvature="0" />
	<path style="fill:none;stroke:red;stroke-width:1px;stroke-linecap:butt;stroke-linejoin:miter;stroke-opacity:1" d="M 256.715,775.346 241.627,788.548 z" id="boundary" inkscape:connector-curvature="0" />
	<path style="fill:none;stroke:red;stroke-width:1px;stroke-linecap:butt;stroke-linejoin:miter;stroke-opacity:1" d="M 245.399,607.498 254.829,588.639 z" id="boundary" inkscape:connector-curvature="0" />
	<path style="fill:none;stroke:red;stroke-width:1px;stroke-linecap:butt;stroke-linejoin:miter;stroke-opacity:1" d="M 268.03,460.395 268.03,441.536 z" id="boundary" inkscape:connector-curvature="0" />
	<path style="fill:none;stroke:red;stroke-width:1px;stroke-linecap:butt;stroke-linejoin:miter;stroke-opacity:1" d="M 268.03,441.536 258.601,424.563 z" id="boundary" inkscape:connector-curvature="0" />
	<path style="fill:none;stroke:red;stroke-width:1px;stroke-linecap:butt;stroke-linejoin:miter;stroke-opacity:1" d="M 345.354,656.532 332.152,671.62 z" id="boundary" inkscape:connector-curvature="0" />
	<path style="fill:none;stroke:red;stroke-width:1px;stroke-linecap:butt;stroke-linejoin:miter;stroke-opacity:1" d="M 254.829,588.639 258.601,566.008 z" id="boundary" inkscape:connector-curvature="0" />
	<path style="fill:none;stroke:red;stroke-width:1px;stroke-linecap:butt;stroke-linejoin:miter;stroke-opacity:1" d="M 430.221,119.042 430.221,137.901 z" id="boundary" inkscape:connector-curvature="0" />
	<path style="fill:none;stroke:red;stroke-width:1px;stroke-linecap:butt;stroke-linejoin:miter;stroke-opacity:1" d="M 258.601,566.008 268.03,547.148 z" id="boundary" inkscape:connector-curvature="0" />
	<path style="fill:none;stroke:red;stroke-width:1px;stroke-linecap:butt;stroke-linejoin:miter;stroke-opacity:1" d="M 277.46,94.5247 286.89,111.498 z" id="boundary" inkscape:connector-curvature="0" />
	<path style="fill:none;stroke:red;stroke-width:1px;stroke-linecap:butt;stroke-linejoin:miter;stroke-opacity:1" d="M 286.89,111.498 286.89,130.357 z" id="boundary" inkscape:connector-curvature="0" />
	<path style="fill:none;stroke:red;stroke-width:1px;stroke-linecap:butt;stroke-linejoin:miter;stroke-opacity:1" d="M 269.916,750.829 256.715,775.346 z" id="boundary" inkscape:connector-curvature="0" />
	<path style="fill:none;stroke:red;stroke-width:1px;stroke-linecap:butt;stroke-linejoin:miter;stroke-opacity:1" d="M 285.004,737.627 269.916,750.829 z" id="boundary" inkscape:connector-curvature="0" />
	<path style="fill:none;stroke:red;stroke-width:1px;stroke-linecap:butt;stroke-linejoin:miter;stroke-opacity:1" d="M 277.46,75.6654 277.46,56.8061 z" id="boundary" inkscape:connector-curvature="0" />
	<path style="fill:none;stroke:red;stroke-width:1px;stroke-linecap:butt;stroke-linejoin:miter;stroke-opacity:1" d="M 268.03,460.395 277.46,477.369 z" id="boundary" inkscape:connector-curvature="0" />
	<path style="fill:none;stroke:red;stroke-width:1px;stroke-linecap:butt;stroke-linejoin:miter;stroke-opacity:1" d="M 277.46,477.369 277.46,496.228 z" id="boundary" inkscape:connector-curvature="0" />
	<path style="fill:none;stroke:red;stroke-width:1px;stroke-linecap:butt;stroke-linejoin:miter;stroke-opacity:1" d="M 277.46,56.8061 292.548,41.7186 z" id="boundary" inkscape:connector-curvature="0" />
	<path style="fill:none;stroke:red;stroke-width:1px;stroke-linecap:butt;stroke-linejoin:miter;stroke-opacity:1" d="M 277.46,496.228 277.46,515.087 z" id="boundary" inkscape:connector-curvature="0" />
	<path style="fill:none;stroke:red;stroke-width:1px;stroke-linecap:butt;stroke-linejoin:miter;stroke-opacity:1" d="M 277.46,515.087 268.03,547.148 z" id="boundary" inkscape:connector-curvature="0" />
	<path style="fill:none;stroke:red;stroke-width:1px;stroke-linecap:butt;stroke-linejoin:miter;stroke-opacity:1" d="M 273.688,154.875 286.89,130.357 z" id="boundary" inkscape:connector-curvature="0" />
	<path style="fill:none;stroke:red;stroke-width:1px;stroke-linecap:butt;stroke-linejoin:miter;stroke-opacity:1" d="M 407.589,647.103 420.791,662.19 z" id="boundary" inkscape:connector-curvature="0" />
	<path style="fill:none;stroke:red;stroke-width:1px;stroke-linecap:butt;stroke-linejoin:miter;stroke-opacity:1" d="M 292.548,41.7186 305.749,19.0875 z" id="boundary" inkscape:connector-curvature="0" />
	<path style="fill:none;stroke:red;stroke-width:1px;stroke-linecap:butt;stroke-linejoin:miter;stroke-opacity:1" d="M 305.749,19.0875 324.608,9.65779 z" id="boundary" inkscape:connector-curvature="0" />
	<path style="fill:none;stroke:red;stroke-width:1px;stroke-linecap:butt;stroke-linejoin:miter;stroke-opacity:1" d="M 343.468,4 362.327,4 z" id="boundary" inkscape:connector-curvature="0" />
	<path style="fill:none;stroke:red;stroke-width:1px;stroke-linecap:butt;stroke-linejoin:miter;stroke-opacity:1" d="M 343.468,4 324.608,9.65779 z" id="boundary" inkscape:connector-curvature="0" />
	<path style="fill:none;stroke:red;stroke-width:1px;stroke-linecap:butt;stroke-linejoin:miter;stroke-opacity:1" d="M 294.433,718.768 285.004,737.627 z" id="boundary" inkscape:connector-curvature="0" />
	<path style="fill:none;stroke:red;stroke-width:1px;stroke-linecap:butt;stroke-linejoin:miter;stroke-opacity:1" d="M 396.274,15.3156 411.361,28.5171 z" id="boundary" inkscape:connector-curvature="0" />
	<path style="fill:none;stroke:red;stroke-width:1px;stroke-linecap:butt;stroke-linejoin:miter;stroke-opacity:1" d="M 307.635,703.681 294.433,718.768 z" id="boundary" inkscape:connector-curvature="0" />
	<path style="fill:none;stroke:red;stroke-width:1px;stroke-linecap:butt;stroke-linejoin:miter;stroke-opacity:1" d="M 317.065,684.821 307.635,703.681 z" id="boundary" inkscape:connector-curvature="0" />
	<path style="fill:none;stroke:red;stroke-width:1px;stroke-linecap:butt;stroke-linejoin:miter;stroke-opacity:1" d="M 362.327,647.103 345.354,656.532 z" id="boundary" inkscape:connector-curvature="0" />
	<path style="fill:none;stroke:red;stroke-width:1px;stroke-linecap:butt;stroke-linejoin:miter;stroke-opacity:1" d="M 381.186,4 396.274,15.3156 z" id="boundary" inkscape:connector-curvature="0" />
	<path style="fill:none;stroke:red;stroke-width:1px;stroke-linecap:butt;stroke-linejoin:miter;stroke-opacity:1" d="M 381.186,4 362.327,4 z" id="boundary" inkscape:connector-curvature="0" />
	<path style="fill:none;stroke:red;stroke-width:1px;stroke-linecap:butt;stroke-linejoin:miter;stroke-opacity:1" d="M 332.152,671.62 317.065,684.821 z" id="boundary" inkscape:connector-curvature="0" />
	<path style="fill:none;stroke:red;stroke-width:1px;stroke-linecap:butt;stroke-linejoin:miter;stroke-opacity:1" d="M 424.563,43.6046 411.361,28.5171 z" id="boundary" inkscape:connector-curvature="0" />
	<path style="fill:none;stroke:red;stroke-width:1px;stroke-linecap:butt;stroke-linejoin:miter;stroke-opacity:1" d="M 407.589,647.103 390.616,637.673 z" id="boundary" inkscape:connector-curvature="0" />
	<path style="fill:none;stroke:red;stroke-width:1px;stroke-linecap:butt;stroke-linejoin:miter;stroke-opacity:1" d="M 439.65,154.875 456.624,164.304 z" id="boundary" inkscape:connector-curvature="0" />
	<path style="fill:none;stroke:red;stroke-width:1px;stroke-linecap:butt;stroke-linejoin:miter;stroke-opacity:1" d="M 373.643,628.243 362.327,647.103 z" id="boundary" inkscape:connector-curvature="0" />
	<path style="fill:none;stroke:red;stroke-width:1px;stroke-linecap:butt;stroke-linejoin:miter;stroke-opacity:1" d="M 390.616,637.673 373.643,628.243 z" id="boundary" inkscape:connector-curvature="0" />
	<path style="fill:none;stroke:red;stroke-width:1px;stroke-linecap:butt;stroke-linejoin:miter;stroke-opacity:1" d="M 439.65,533.947 449.08,550.92 z" id="boundary" inkscape:connector-curvature="0" />
	<path style="fill:none;stroke:red;stroke-width:1px;stroke-linecap:butt;stroke-linejoin:miter;stroke-opacity:1" d="M 449.08,550.92 449.08,571.665 z" id="boundary" inkscape:connector-curvature="0" />
	<path style="fill:none;stroke:red;stroke-width:1px;stroke-linecap:butt;stroke-linejoin:miter;stroke-opacity:1" d="M 424.563,43.6046 439.65,56.8061 z" id="boundary" inkscape:connector-curvature="0" />
	<path style="fill:none;stroke:red;stroke-width:1px;stroke-linecap:butt;stroke-linejoin:miter;stroke-opacity:1" d="M 430.221,119.042 439.65,94.5247 z" id="boundary" inkscape:connector-curvature="0" />
	<path style="fill:none;stroke:red;stroke-width:1px;stroke-linecap:butt;stroke-linejoin:miter;stroke-opacity:1" d="M 439.65,94.5247 439.65,75.6654 z" id="boundary" inkscape:connector-curvature="0" />
	<path style="fill:none;stroke:red;stroke-width:1px;stroke-linecap:butt;stroke-linejoin:miter;stroke-opacity:1" d="M 452.852,664.076 471.711,654.646 z" id="boundary" inkscape:connector-curvature="0" />
	<path style="fill:none;stroke:red;stroke-width:1px;stroke-linecap:butt;stroke-linejoin:miter;stroke-opacity:1" d="M 452.852,664.076 435.878,675.392 z" id="boundary" inkscape:connector-curvature="0" />
	<path style="fill:none;stroke:red;stroke-width:1px;stroke-linecap:butt;stroke-linejoin:miter;stroke-opacity:1" d="M 439.65,56.8061 439.65,75.6654 z" id="boundary" inkscape:connector-curvature="0" />
	<path style="fill:none;stroke:red;stroke-width:1px;stroke-linecap:butt;stroke-linejoin:miter;stroke-opacity:1" d="M 458.51,588.639 458.51,607.498 z" id="boundary" inkscape:connector-curvature="0" />
	<path style="fill:none;stroke:red;stroke-width:1px;stroke-linecap:butt;stroke-linejoin:miter;stroke-opacity:1" d="M 458.51,588.639 449.08,571.665 z" id="boundary" inkscape:connector-curvature="0" />
	<path style="fill:none;stroke:red;stroke-width:1px;stroke-linecap:butt;stroke-linejoin:miter;stroke-opacity:1" d="M 449.08,477.369 449.08,496.228 z" id="boundary" inkscape:connector-curvature="0" />
	<path style="fill:none;stroke:red;stroke-width:1px;stroke-linecap:butt;stroke-linejoin:miter;stroke-opacity:1" d="M 449.08,496.228 449.08,515.087 z" id="boundary" inkscape:connector-curvature="0" />
	<path style="fill:none;stroke:red;stroke-width:1px;stroke-linecap:butt;stroke-linejoin:miter;stroke-opacity:1" d="M 449.08,515.087 439.65,533.947 z" id="boundary" inkscape:connector-curvature="0" />
	<path style="fill:none;stroke:red;stroke-width:1px;stroke-linecap:butt;stroke-linejoin:miter;stroke-opacity:1" d="M 449.08,477.369 458.51,458.51 z" id="boundary" inkscape:connector-curvature="0" />
	<path style="fill:none;stroke:red;stroke-width:1px;stroke-linecap:butt;stroke-linejoin:miter;stroke-opacity:1" d="M 458.51,458.51 458.51,439.65 z" id="boundary" inkscape:connector-curvature="0" />
	<path style="fill:none;stroke:red;stroke-width:1px;stroke-linecap:butt;stroke-linejoin:miter;stroke-opacity:1" d="M 467.939,392.502 467.939,411.361 z" id="boundary" inkscape:connector-curvature="0" />
	<path style="fill:none;stroke:red;stroke-width:1px;stroke-linecap:butt;stroke-linejoin:miter;stroke-opacity:1" d="M 635.787,405.703 650.875,418.905 z" id="boundary" inkscape:connector-curvature="0" />
	<path style="fill:none;stroke:red;stroke-width:1px;stroke-linecap:butt;stroke-linejoin:miter;stroke-opacity:1" d="M 456.624,164.304 475.483,164.304 z" id="boundary" inkscape:connector-curvature="0" />
	<path style="fill:none;stroke:red;stroke-width:1px;stroke-linecap:butt;stroke-linejoin:miter;stroke-opacity:1" d="M 458.51,439.65 467.939,411.361 z" id="boundary" inkscape:connector-curvature="0" />
	<path style="fill:none;stroke:red;stroke-width:1px;stroke-linecap:butt;stroke-linejoin:miter;stroke-opacity:1" d="M 473.597,618.814 458.51,607.498 z" id="boundary" inkscape:connector-curvature="0" />
	<path style="fill:none;stroke:red;stroke-width:1px;stroke-linecap:butt;stroke-linejoin:miter;stroke-opacity:1" d="M 473.597,618.814 471.711,654.646 z" id="boundary" inkscape:connector-curvature="0" />
	<path style="fill:none;stroke:red;stroke-width:1px;stroke-linecap:butt;stroke-linejoin:miter;stroke-opacity:1" d="M 709.338,467.939 728.198,464.167 z" id="boundary" inkscape:connector-curvature="0" />
	<path style="fill:none;stroke:red;stroke-width:1px;stroke-linecap:butt;stroke-linejoin:miter;stroke-opacity:1" d="M 467.939,392.502 477.369,364.213 z" id="boundary" inkscape:connector-curvature="0" />
	<path style="fill:none;stroke:red;stroke-width:1px;stroke-linecap:butt;stroke-linejoin:miter;stroke-opacity:1" d="M 477.369,364.213 477.369,345.354 z" id="boundary" inkscape:connector-curvature="0" />
	<path style="fill:none;stroke:red;stroke-width:1px;stroke-linecap:butt;stroke-linejoin:miter;stroke-opacity:1" d="M 588.639,345.354 599.954,360.441 z" id="boundary" inkscape:connector-curvature="0" />
	<path style="fill:none;stroke:red;stroke-width:1px;stroke-linecap:butt;stroke-linejoin:miter;stroke-opacity:1" d="M 588.639,345.354 573.551,334.038 z" id="boundary" inkscape:connector-curvature="0" />
	<path style="fill:none;stroke:red;stroke-width:1px;stroke-linecap:butt;stroke-linejoin:miter;stroke-opacity:1" d="M 475.483,164.304 494.342,164.304 z" id="boundary" inkscape:connector-curvature="0" />
	<path style="fill:none;stroke:red;stroke-width:1px;stroke-linecap:butt;stroke-linejoin:miter;stroke-opacity:1" d="M 550.92,301.977 533.947,292.548 z" id="boundary" inkscape:connector-curvature="0" />
	<path style="fill:none;stroke:red;stroke-width:1px;stroke-linecap:butt;stroke-linejoin:miter;stroke-opacity:1" d="M 486.798,307.635 486.798,326.494 z" id="boundary" inkscape:connector-curvature="0" />
	<path style="fill:none;stroke:red;stroke-width:1px;stroke-linecap:butt;stroke-linejoin:miter;stroke-opacity:1" d="M 486.798,326.494 477.369,345.354 z" id="boundary" inkscape:connector-curvature="0" />
	<path style="fill:none;stroke:red;stroke-width:1px;stroke-linecap:butt;stroke-linejoin:miter;stroke-opacity:1" d="M 515.087,288.776 533.947,292.548 z" id="boundary" inkscape:connector-curvature="0" />
	<path style="fill:none;stroke:red;stroke-width:1px;stroke-linecap:butt;stroke-linejoin:miter;stroke-opacity:1" d="M 496.228,288.776 486.798,307.635 z" id="boundary" inkscape:connector-curvature="0" />
	<path style="fill:none;stroke:red;stroke-width:1px;stroke-linecap:butt;stroke-linejoin:miter;stroke-opacity:1" d="M 496.228,288.776 515.087,288.776 z" id="boundary" inkscape:connector-curvature="0" />
	<path style="fill:none;stroke:red;stroke-width:1px;stroke-linecap:butt;stroke-linejoin:miter;stroke-opacity:1" d="M 513.202,164.304 530.175,173.734 z" id="boundary" inkscape:connector-curvature="0" />
	<path style="fill:none;stroke:red;stroke-width:1px;stroke-linecap:butt;stroke-linejoin:miter;stroke-opacity:1" d="M 513.202,164.304 494.342,164.304 z" id="boundary" inkscape:connector-curvature="0" />
	<path style="fill:none;stroke:red;stroke-width:1px;stroke-linecap:butt;stroke-linejoin:miter;stroke-opacity:1" d="M 550.92,301.977 566.008,315.179 z" id="boundary" inkscape:connector-curvature="0" />
	<path style="fill:none;stroke:red;stroke-width:1px;stroke-linecap:butt;stroke-linejoin:miter;stroke-opacity:1" d="M 566.008,315.179 573.551,334.038 z" id="boundary" inkscape:connector-curvature="0" />
	<path style="fill:none;stroke:red;stroke-width:1px;stroke-linecap:butt;stroke-linejoin:miter;stroke-opacity:1" d="M 530.175,173.734 547.148,183.163 z" id="boundary" inkscape:connector-curvature="0" />
	<path style="fill:none;stroke:red;stroke-width:1px;stroke-linecap:butt;stroke-linejoin:miter;stroke-opacity:1" d="M 547.148,183.163 564.122,192.593 z" id="boundary" inkscape:connector-curvature="0" />
	<path style="fill:none;stroke:red;stroke-width:1px;stroke-linecap:butt;stroke-linejoin:miter;stroke-opacity:1" d="M 564.122,192.593 579.209,205.795 z" id="boundary" inkscape:connector-curvature="0" />
	<path style="fill:none;stroke:red;stroke-width:1px;stroke-linecap:butt;stroke-linejoin:miter;stroke-opacity:1" d="M 599.954,360.441 615.042,373.643 z" id="boundary" inkscape:connector-curvature="0" />
	<path style="fill:none;stroke:red;stroke-width:1px;stroke-linecap:butt;stroke-linejoin:miter;stroke-opacity:1" d="M 579.209,205.795 590.525,220.882 z" id="boundary" inkscape:connector-curvature="0" />
	<path style="fill:none;stroke:red;stroke-width:1px;stroke-linecap:butt;stroke-linejoin:miter;stroke-opacity:1" d="M 615.042,373.643 626.357,388.73 z" id="boundary" inkscape:connector-curvature="0" />
	<path style="fill:none;stroke:red;stroke-width:1px;stroke-linecap:butt;stroke-linejoin:miter;stroke-opacity:1" d="M 599.954,237.856 590.525,220.882 z" id="boundary" inkscape:connector-curvature="0" />
	<path style="fill:none;stroke:red;stroke-width:1px;stroke-linecap:butt;stroke-linejoin:miter;stroke-opacity:1" d="M 626.357,388.73 635.787,405.703 z" id="boundary" inkscape:connector-curvature="0" />
	<path style="fill:none;stroke:red;stroke-width:1px;stroke-linecap:butt;stroke-linejoin:miter;stroke-opacity:1" d="M 599.954,237.856 615.042,251.057 z" id="boundary" inkscape:connector-curvature="0" />
	<path style="fill:none;stroke:red;stroke-width:1px;stroke-linecap:butt;stroke-linejoin:miter;stroke-opacity:1" d="M 650.875,418.905 664.076,433.992 z" id="boundary" inkscape:connector-curvature="0" />
	<path style="fill:none;stroke:red;stroke-width:1px;stroke-linecap:butt;stroke-linejoin:miter;stroke-opacity:1" d="M 637.673,283.118 628.243,266.144 z" id="boundary" inkscape:connector-curvature="0" />
	<path style="fill:none;stroke:red;stroke-width:1px;stroke-linecap:butt;stroke-linejoin:miter;stroke-opacity:1" d="M 628.243,266.144 615.042,251.057 z" id="boundary" inkscape:connector-curvature="0" />
	<path style="fill:none;stroke:red;stroke-width:1px;stroke-linecap:butt;stroke-linejoin:miter;stroke-opacity:1" d="M 650.875,298.205 637.673,283.118 z" id="boundary" inkscape:connector-curvature="0" />
	<path style="fill:none;stroke:red;stroke-width:1px;stroke-linecap:butt;stroke-linejoin:miter;stroke-opacity:1" d="M 660.304,315.179 650.875,298.205 z" id="boundary" inkscape:connector-curvature="0" />
	<path style="fill:none;stroke:red;stroke-width:1px;stroke-linecap:butt;stroke-linejoin:miter;stroke-opacity:1" d="M 673.506,330.266 660.304,315.179 z" id="boundary" inkscape:connector-curvature="0" />
	<path style="fill:none;stroke:red;stroke-width:1px;stroke-linecap:butt;stroke-linejoin:miter;stroke-opacity:1" d="M 673.506,330.266 682.935,347.24 z" id="boundary" inkscape:connector-curvature="0" />
	<path style="fill:none;stroke:red;stroke-width:1px;stroke-linecap:butt;stroke-linejoin:miter;stroke-opacity:1" d="M 664.076,433.992 682.935,439.65 z" id="boundary" inkscape:connector-curvature="0" />
	<path style="fill:none;stroke:red;stroke-width:1px;stroke-linecap:butt;stroke-linejoin:miter;stroke-opacity:1" d="M 682.935,439.65 694.251,454.738 z" id="boundary" inkscape:connector-curvature="0" />
	<path style="fill:none;stroke:red;stroke-width:1px;stroke-linecap:butt;stroke-linejoin:miter;stroke-opacity:1" d="M 682.935,347.24 694.251,362.327 z" id="boundary" inkscape:connector-curvature="0" />
	<path style="fill:none;stroke:red;stroke-width:1px;stroke-linecap:butt;stroke-linejoin:miter;stroke-opacity:1" d="M 694.251,362.327 703.681,379.3 z" id="boundary" inkscape:connector-curvature="0" />
	<path style="fill:none;stroke:red;stroke-width:1px;stroke-linecap:butt;stroke-linejoin:miter;stroke-opacity:1" d="M 694.251,454.738 709.338,467.939 z" id="boundary" inkscape:connector-curvature="0" />
	<path style="fill:none;stroke:red;stroke-width:1px;stroke-linecap:butt;stroke-linejoin:miter;stroke-opacity:1" d="M 703.681,379.3 718.768,392.502 z" id="boundary" inkscape:connector-curvature="0" />
	<path style="fill:none;stroke:red;stroke-width:1px;stroke-linecap:butt;stroke-linejoin:miter;stroke-opacity:1" d="M 718.768,392.502 726.312,411.361 z" id="boundary" inkscape:connector-curvature="0" />
	<path style="fill:none;stroke:red;stroke-width:1px;stroke-linecap:butt;stroke-linejoin:miter;stroke-opacity:1" d="M 726.312,411.361 735.741,428.335 z" id="boundary" inkscape:connector-curvature="0" />
	<path style="fill:none;stroke:red;stroke-width:1px;stroke-linecap:butt;stroke-linejoin:miter;stroke-opacity:1" d="M 741.399,447.194 728.198,464.167 z" id="boundary" inkscape:connector-curvature="0" />
	<path style="fill:none;stroke:red;stroke-width:1px;stroke-linecap:butt;stroke-linejoin:miter;stroke-opacity:1" d="M 741.399,447.194 735.741,428.335 z" id="boundary" inkscape:connector-curvature="0" />
	<circle cx="4" cy="396.274" r="4" fill="#0" id="circle0"/>
	<circle cx="4" cy="415.133" r="4" fill="#0" id="circle1"/>
	<circle cx="13.4297" cy="377.414" r="4" fill="#0" id="circle2"/>
	<circle cx="13.4297" cy="432.106" r="4" fill="#0" id="circle3"/>
	<circle cx="28.5171" cy="362.327" r="4" fill="#0" id="circle4"/>
	<circle cx="32.289" cy="433.992" r="4" fill="#0" id="circle5"/>
	<circle cx="37.9468" cy="343.468" r="4" fill="#0" id="circle6"/>
	<circle cx="41.7186" cy="962.053" r="4" fill="#0" id="circle7"/>
	<circle cx="41.7186" cy="980.913" r="4" fill="#0" id="circle8"/>
	<circle cx="47.3764" cy="418.905" r="4" fill="#0" id="circle9"/>
	<circle cx="51.1483" cy="924.335" r="4" fill="#0" id="circle10"/>
	<circle cx="51.1483" cy="943.194" r="4" fill="#0" id="circle11"/>
	<circle cx="53.0342" cy="328.38" r="4" fill="#0" id="circle12"/>
	<circle cx="53.0342" cy="996" r="4" fill="#0" id="circle13"/>
	<circle cx="60.5779" cy="905.475" r="4" fill="#0" id="circle14"/>
	<circle cx="62.4639" cy="309.521" r="4" fill="#0" id="circle15"/>
	<circle cx="62.4639" cy="401.932" r="4" fill="#0" id="circle16"/>
	<circle cx="70.0076" cy="886.616" r="4" fill="#0" id="circle17"/>
	<circle cx="70.0076" cy="986.57" r="4" fill="#0" id="circle18"/>
	<circle cx="77.5513" cy="296.319" r="4" fill="#0" id="circle19"/>
	<circle cx="79.4373" cy="392.502" r="4" fill="#0" id="circle20"/>
	<circle cx="79.4373" cy="867.757" r="4" fill="#0" id="circle21"/>
	<circle cx="85.0951" cy="277.46" r="4" fill="#0" id="circle22"/>
	<circle cx="86.981" cy="977.141" r="4" fill="#0" id="circle23"/>
	<circle cx="94.5247" cy="381.186" r="4" fill="#0" id="circle24"/>
	<circle cx="94.5247" cy="852.669" r="4" fill="#0" id="circle25"/>
	<circle cx="100.183" cy="262.373" r="4" fill="#0" id="circle26"/>
	<circle cx="103.954" cy="833.81" r="4" fill="#0" id="circle27"/>
	<circle cx="105.84" cy="973.369" r="4" fill="#0" id="circle28"/>
	<circle cx="109.612" cy="243.513" r="4" fill="#0" id="circle29"/>
	<circle cx="109.612" cy="364.213" r="4" fill="#0" id="circle30"/>
	<circle cx="115.27" cy="954.51" r="4" fill="#0" id="circle31"/>
	<circle cx="117.156" cy="811.179" r="4" fill="#0" id="circle32"/>
	<circle cx="119.042" cy="224.654" r="4" fill="#0" id="circle33"/>
	<circle cx="124.7" cy="351.011" r="4" fill="#0" id="circle34"/>
	<circle cx="126.586" cy="792.319" r="4" fill="#0" id="circle35"/>
	<circle cx="128.471" cy="939.422" r="4" fill="#0" id="circle36"/>
	<circle cx="134.129" cy="211.452" r="4" fill="#0" id="circle37"/>
	<circle cx="136.015" cy="773.46" r="4" fill="#0" id="circle38"/>
	<circle cx="137.901" cy="335.924" r="4" fill="#0" id="circle39"/>
	<circle cx="143.559" cy="926.221" r="4" fill="#0" id="circle40"/>
	<circle cx="147.331" cy="317.065" r="4" fill="#0" id="circle41"/>
	<circle cx="151.103" cy="202.023" r="4" fill="#0" id="circle42"/>
	<circle cx="151.103" cy="758.373" r="4" fill="#0" id="circle43"/>
	<circle cx="152.989" cy="907.361" r="4" fill="#0" id="circle44"/>
	<circle cx="160.532" cy="739.513" r="4" fill="#0" id="circle45"/>
	<circle cx="164.304" cy="307.635" r="4" fill="#0" id="circle46"/>
	<circle cx="166.19" cy="186.935" r="4" fill="#0" id="circle47"/>
	<circle cx="166.19" cy="892.274" r="4" fill="#0" id="circle48"/>
	<circle cx="173.734" cy="716.882" r="4" fill="#0" id="circle49"/>
	<circle cx="179.392" cy="296.319" r="4" fill="#0" id="circle50"/>
	<circle cx="181.278" cy="173.734" r="4" fill="#0" id="circle51"/>
	<circle cx="181.278" cy="879.072" r="4" fill="#0" id="circle52"/>
	<circle cx="188.821" cy="701.795" r="4" fill="#0" id="circle53"/>
	<circle cx="190.707" cy="860.213" r="4" fill="#0" id="circle54"/>
	<circle cx="198.251" cy="288.776" r="4" fill="#0" id="circle55"/>
	<circle cx="198.251" cy="682.935" r="4" fill="#0" id="circle56"/>
	<circle cx="200.137" cy="173.734" r="4" fill="#0" id="circle57"/>
	<circle cx="203.909" cy="845.125" r="4" fill="#0" id="circle58"/>
	<circle cx="207.681" cy="664.076" r="4" fill="#0" id="circle59"/>
	<circle cx="213.338" cy="826.266" r="4" fill="#0" id="circle60"/>
	<circle cx="217.11" cy="164.304" r="4" fill="#0" id="circle61"/>
	<circle cx="217.11" cy="296.319" r="4" fill="#0" id="circle62"/>
	<circle cx="217.11" cy="645.217" r="4" fill="#0" id="circle63"/>
	<circle cx="224.654" cy="315.179" r="4" fill="#0" id="circle64"/>
	<circle cx="228.426" cy="813.065" r="4" fill="#0" id="circle65"/>
	<circle cx="230.312" cy="334.038" r="4" fill="#0" id="circle66"/>
	<circle cx="230.312" cy="622.586" r="4" fill="#0" id="circle67"/>
	<circle cx="235.97" cy="164.304" r="4" fill="#0" id="circle68"/>
	<circle cx="239.741" cy="351.011" r="4" fill="#0" id="circle69"/>
	<circle cx="241.627" cy="369.871" r="4" fill="#0" id="circle70"/>
	<circle cx="241.627" cy="788.548" r="4" fill="#0" id="circle71"/>
	<circle cx="245.399" cy="607.498" r="4" fill="#0" id="circle72"/>
	<circle cx="249.171" cy="388.73" r="4" fill="#0" id="circle73"/>
	<circle cx="254.829" cy="164.304" r="4" fill="#0" id="circle74"/>
	<circle cx="254.829" cy="588.639" r="4" fill="#0" id="circle75"/>
	<circle cx="256.715" cy="775.346" r="4" fill="#0" id="circle76"/>
	<circle cx="258.601" cy="405.703" r="4" fill="#0" id="circle77"/>
	<circle cx="258.601" cy="424.563" r="4" fill="#0" id="circle78"/>
	<circle cx="258.601" cy="566.008" r="4" fill="#0" id="circle79"/>
	<circle cx="268.03" cy="441.536" r="4" fill="#0" id="circle80"/>
	<circle cx="268.03" cy="460.395" r="4" fill="#0" id="circle81"/>
	<circle cx="268.03" cy="547.148" r="4" fill="#0" id="circle82"/>
	<circle cx="269.916" cy="750.829" r="4" fill="#0" id="circle83"/>
	<circle cx="273.688" cy="154.875" r="4" fill="#0" id="circle84"/>
	<circle cx="277.46" cy="56.8061" r="4" fill="#0" id="circle85"/>
	<circle cx="277.46" cy="75.6654" r="4" fill="#0" id="circle86"/>
	<circle cx="277.46" cy="94.5247" r="4" fill="#0" id="circle87"/>
	<circle cx="277.46" cy="477.369" r="4" fill="#0" id="circle88"/>
	<circle cx="277.46" cy="496.228" r="4" fill="#0" id="circle89"/>
	<circle cx="277.46" cy="515.087" r="4" fill="#0" id="circle90"/>
	<circle cx="285.004" cy="737.627" r="4" fill="#0" id="circle91"/>
	<circle cx="286.89" cy="111.498" r="4" fill="#0" id="circle92"/>
	<circle cx="286.89" cy="130.357" r="4" fill="#0" id="circle93"/>
	<circle cx="292.548" cy="41.7186" r="4" fill="#0" id="circle94"/>
	<circle cx="294.433" cy="718.768" r="4" fill="#0" id="circle95"/>
	<circle cx="305.749" cy="19.0875" r="4" fill="#0" id="circle96"/>
	<circle cx="307.635" cy="703.681" r="4" fill="#0" id="circle97"/>
	<circle cx="317.065" cy="684.821" r="4" fill="#0" id="circle98"/>
	<circle cx="324.608" cy="9.65779" r="4" fill="#0" id="circle99"/>
	<circle cx="332.152" cy="671.62" r="4" fill="#0" id="circle100"/>
	<circle cx="343.468" cy="4" r="4" fill="#0" id="circle101"/>
	<circle cx="345.354" cy="656.532" r="4" fill="#0" id="circle102"/>
	<circle cx="362.327" cy="4" r="4" fill="#0" id="circle103"/>
	<circle cx="362.327" cy="647.103" r="4" fill="#0" id="circle104"/>
	<circle cx="373.643" cy="628.243" r="4" fill="#0" id="circle105"/>
	<circle cx="381.186" cy="4" r="4" fill="#0" id="circle106"/>
	<circle cx="390.616" cy="637.673" r="4" fill="#0" id="circle107"/>
	<circle cx="396.274" cy="15.3156" r="4" fill="#0" id="circle108"/>
	<circle cx="407.589" cy="647.103" r="4" fill="#0" id="circle109"/>
	<circle cx="411.361" cy="28.5171" r="4" fill="#0" id="circle110"/>
	<circle cx="420.791" cy="662.19" r="4" fill="#0" id="circle111"/>
	<circle cx="424.563" cy="43.6046" r="4" fill="#0" id="circle112"/>
	<circle cx="430.221" cy="119.042" r="4" fill="#0" id="circle113"/>
	<circle cx="430.221" cy="137.901" r="4" fill="#0" id="circle114"/>
	<circle cx="435.878" cy="675.392" r="4" fill="#0" id="circle115"/>
	<circle cx="439.65" cy="56.8061" r="4" fill="#0" id="circle116"/>
	<circle cx="439.65" cy="75.6654" r="4" fill="#0" id="circle117"/>
	<circle cx="439.65" cy="94.5247" r="4" fill="#0" id="circle118"/>
	<circle cx="439.65" cy="154.875" r="4" fill="#0" id="circle119"/>
	<circle cx="439.65" cy="533.947" r="4" fill="#0" id="circle120"/>
	<circle cx="449.08" cy="477.369" r="4" fill="#0" id="circle121"/>
	<circle cx="449.08" cy="496.228" r="4" fill="#0" id="circle122"/>
	<circle cx="449.08" cy="515.087" r="4" fill="#0" id="circle123"/>
	<circle cx="449.08" cy="550.92" r="4" fill="#0" id="circle124"/>
	<circle cx="449.08" cy="571.665" r="4" fill="#0" id="circle125"/>
	<circle cx="452.852" cy="664.076" r="4" fill="#0" id="circle126"/>
	<circle cx="456.624" cy="164.304" r="4" fill="#0" id="circle127"/>
	<circle cx="458.51" cy="439.65" r="4" fill="#0" id="circle128"/>
	<circle cx="458.51" cy="458.51" r="4" fill="#0" id="circle129"/>
	<circle cx="458.51" cy="588.639" r="4" fill="#0" id="circle130"/>
	<circle cx="458.51" cy="607.498" r="4" fill="#0" id="circle131"/>
	<circle cx="467.939" cy="392.502" r="4" fill="#0" id="circle132"/>
	<circle cx="467.939" cy="411.361" r="4" fill="#0" id="circle133"/>
	<circle cx="471.711" cy="654.646" r="4" fill="#0" id="circle134"/>
	<circle cx="473.597" cy="618.814" r="4" fill="#0" id="circle135"/>
	<circle cx="475.483" cy="164.304" r="4" fill="#0" id="circle136"/>
	<circle cx="477.369" cy="345.354" r="4" fill="#0" id="circle137"/>
	<circle cx="477.369" cy="364.213" r="4" fill="#0" id="circle138"/>
	<circle cx="486.798" cy="307.635" r="4" fill="#0" id="circle139"/>
	<circle cx="486.798" cy="326.494" r="4" fill="#0" id="circle140"/>
	<circle cx="494.342" cy="164.304" r="4" fill="#0" id="circle141"/>
	<circle cx="496.228" cy="288.776" r="4" fill="#0" id="circle142"/>
	<circle cx="513.202" cy="164.304" r="4" fill="#0" id="circle143"/>
	<circle cx="515.087" cy="288.776" r="4" fill="#0" id="circle144"/>
	<circle cx="530.175" cy="173.734" r="4" fill="#0" id="circle145"/>
	<circle cx="533.947" cy="292.548" r="4" fill="#0" id="circle146"/>
	<circle cx="547.148" cy="183.163" r="4" fill="#0" id="circle147"/>
	<circle cx="550.92" cy="301.977" r="4" fill="#0" id="circle148"/>
	<circle cx="564.122" cy="192.593" r="4" fill="#0" id="circle149"/>
	<circle cx="566.008" cy="315.179" r="4" fill="#0" id="circle150"/>
	<circle cx="573.551" cy="334.038" r="4" fill="#0" id="circle151"/>
	<circle cx="579.209" cy="205.795" r="4" fill="#0" id="circle152"/>
	<circle cx="588.639" cy="345.354" r="4" fill="#0" id="circle153"/>
	<circle cx="590.525" cy="220.882" r="4" fill="#0" id="circle154"/>
	<circle cx="599.954" cy="237.856" r="4" fill="#0" id="circle155"/>
	<circle cx="599.954" cy="360.441" r="4" fill="#0" id="circle156"/>
	<circle cx="615.042" cy="251.057" r="4" fill="#0" id="circle157"/>
	<circle cx="615.042" cy="373.643" r="4" fill="#0" id="circle158"/>
	<circle cx="626.357" cy="388.73" r="4" fill="#0" id="circle159"/>
	<circle cx="628.243" cy="266.144" r="4" fill="#0" id="circle160"/>
	<circle cx="635.787" cy="405.703" r="4" fill="#0" id="circle161"/>
	<circle cx="637.673" cy="283.118" r="4" fill="#0" id="circle162"/>
	<circle cx="650.875" cy="298.205" r="4" fill="#0" id="circle163"/>
	<circle cx="650.875" cy="418.905" r="4" fill="#0" id="circle164"/>
	<circle cx="660.304" cy="315.179" r="4" fill="#0" id="circle165"/>
	<circle cx="664.076" cy="433.992" r="4" fill="#0" id="circle166"/>
	<circle cx="673.506" cy="330.266" r="4" fill="#0" id="circle167"/>
	<circle cx="682.935" cy="347.24" r="4" fill="#0" id="circle168"/>
	<circle cx="682.935" cy="439.65" r="4" fill="#0" id="circle169"/>
	<circle cx="694.251" cy="362.327" r="4" fill="#0" id="circle170"/>
	<circle cx="694.251" cy="454.738" r="4" fill="#0" id="circle171"/>
	<circle cx="703.681" cy="379.3" r="4" fill="#0" id="circle172"/>
	<circle cx="709.338" cy="467.939" r="4" fill="#0" id="circle173"/>
	<circle cx="718.768" cy="392.502" r="4" fill="#0" id="circle174"/>
	<circle cx="726.312" cy="411.361" r="4" fill="#0" id="circle175"/>
	<circle cx="728.198" cy="464.167" r="4" fill="#0" id="circle176"/>
	<circle cx="735.741" cy="428.335" r="4" fill="#0" id="circle177"/>
	<circle cx="741.399" cy="447.194" r="4" fill="#0" id="circle178"/>
	</g>
</svg>