<?xml version="1.0" encoding="UTF-8" standalone="no"?>
<!-- Created with CurveBenchmark -->
<svg
	xmlns:dc="http://purl.org/dc/elements/1.1/"
	xmlns:cc="http://creativecommons.org/ns#"
	xmlns:rdf="http://www.w3.org/1999/02/22-rdf-syntax-ns#"
	xmlns:svg="http://www.w3.org/2000/svg"
	xmlns="http://www.w3.org/2000/svg"
	xmlns:sodipodi="http://sodipodi.sourceforge.net/DTD/sodipodi-0.dtd"
	xmlns:inkscape="http://www.inkscape.org/namespaces/inkscape"
	width="1000"
	height="1000"
	id="svg2"
	version="1.1"
	sodipodi:docname="manifold/peel-teddy110.png.txt">
<defs
	id="defs4" />
<metadata
	id="metadata7">
	<rdf:RDF>
		<cc:Work
			rdf:about="">
			<dc:format>image/svg+xml</dc:format>
			<dc:type
				rdf:resource="http://purl.org/dc/dcmitype/StillImage" />
			<dc:title></dc:title>
		</cc:Work>
	</rdf:RDF>
</metadata>
<g
	inkscape:label="Layer 1"
	inkscape:groupmode="layer"
	id="layer1">
	<path style="fill:none;stroke:red;stroke-width:1px;stroke-linecap:butt;stroke-linejoin:miter;stroke-opacity:1" d="M 20.9573,156.615 9.65242,184.877 z" id="boundary" inkscape:connector-curvature="0" />
	<path style="fill:none;stroke:red;stroke-width:1px;stroke-linecap:butt;stroke-linejoin:miter;stroke-opacity:1" d="M 4,241.402 4,213.14 z" id="boundary" inkscape:connector-curvature="0" />
	<path style="fill:none;stroke:red;stroke-width:1px;stroke-linecap:butt;stroke-linejoin:miter;stroke-opacity:1" d="M 4,213.14 9.65242,184.877 z" id="boundary" inkscape:connector-curvature="0" />
	<path style="fill:none;stroke:red;stroke-width:1px;stroke-linecap:butt;stroke-linejoin:miter;stroke-opacity:1" d="M 4,269.664 4,241.402 z" id="boundary" inkscape:connector-curvature="0" />
	<path style="fill:none;stroke:red;stroke-width:1px;stroke-linecap:butt;stroke-linejoin:miter;stroke-opacity:1" d="M 32.2621,484.456 32.2621,512.718 z" id="boundary" inkscape:connector-curvature="0" />
	<path style="fill:none;stroke:red;stroke-width:1px;stroke-linecap:butt;stroke-linejoin:miter;stroke-opacity:1" d="M 9.65242,297.926 4,269.664 z" id="boundary" inkscape:connector-curvature="0" />
	<path style="fill:none;stroke:red;stroke-width:1px;stroke-linecap:butt;stroke-linejoin:miter;stroke-opacity:1" d="M 32.2621,128.353 49.2194,105.744 z" id="boundary" inkscape:connector-curvature="0" />
	<path style="fill:none;stroke:red;stroke-width:1px;stroke-linecap:butt;stroke-linejoin:miter;stroke-opacity:1" d="M 32.2621,128.353 20.9573,156.615 z" id="boundary" inkscape:connector-curvature="0" />
	<path style="fill:none;stroke:red;stroke-width:1px;stroke-linecap:butt;stroke-linejoin:miter;stroke-opacity:1" d="M 20.9573,326.188 9.65242,297.926 z" id="boundary" inkscape:connector-curvature="0" />
	<path style="fill:none;stroke:red;stroke-width:1px;stroke-linecap:butt;stroke-linejoin:miter;stroke-opacity:1" d="M 37.9145,348.798 20.9573,326.188 z" id="boundary" inkscape:connector-curvature="0" />
	<path style="fill:none;stroke:red;stroke-width:1px;stroke-linecap:butt;stroke-linejoin:miter;stroke-opacity:1" d="M 49.2194,105.744 71.8291,77.4815 z" id="boundary" inkscape:connector-curvature="0" />
	<path style="fill:none;stroke:red;stroke-width:1px;stroke-linecap:butt;stroke-linejoin:miter;stroke-opacity:1" d="M 43.567,439.236 32.2621,484.456 z" id="boundary" inkscape:connector-curvature="0" />
	<path style="fill:none;stroke:red;stroke-width:1px;stroke-linecap:butt;stroke-linejoin:miter;stroke-opacity:1" d="M 49.2194,682.291 49.2194,710.553 z" id="boundary" inkscape:connector-curvature="0" />
	<path style="fill:none;stroke:red;stroke-width:1px;stroke-linecap:butt;stroke-linejoin:miter;stroke-opacity:1" d="M 37.9145,540.98 32.2621,512.718 z" id="boundary" inkscape:connector-curvature="0" />
	<path style="fill:none;stroke:red;stroke-width:1px;stroke-linecap:butt;stroke-linejoin:miter;stroke-opacity:1" d="M 43.567,569.242 37.9145,540.98 z" id="boundary" inkscape:connector-curvature="0" />
	<path style="fill:none;stroke:red;stroke-width:1px;stroke-linecap:butt;stroke-linejoin:miter;stroke-opacity:1" d="M 54.8718,410.974 43.567,439.236 z" id="boundary" inkscape:connector-curvature="0" />
	<path style="fill:none;stroke:red;stroke-width:1px;stroke-linecap:butt;stroke-linejoin:miter;stroke-opacity:1" d="M 37.9145,348.798 49.2194,377.06 z" id="boundary" inkscape:connector-curvature="0" />
	<path style="fill:none;stroke:red;stroke-width:1px;stroke-linecap:butt;stroke-linejoin:miter;stroke-opacity:1" d="M 49.2194,625.766 49.2194,654.028 z" id="boundary" inkscape:connector-curvature="0" />
	<path style="fill:none;stroke:red;stroke-width:1px;stroke-linecap:butt;stroke-linejoin:miter;stroke-opacity:1" d="M 49.2194,377.06 54.8718,410.974 z" id="boundary" inkscape:connector-curvature="0" />
	<path style="fill:none;stroke:red;stroke-width:1px;stroke-linecap:butt;stroke-linejoin:miter;stroke-opacity:1" d="M 71.8291,77.4815 66.1766,49.2194 z" id="boundary" inkscape:connector-curvature="0" />
	<path style="fill:none;stroke:red;stroke-width:1px;stroke-linecap:butt;stroke-linejoin:miter;stroke-opacity:1" d="M 49.2194,625.766 49.2194,597.504 z" id="boundary" inkscape:connector-curvature="0" />
	<path style="fill:none;stroke:red;stroke-width:1px;stroke-linecap:butt;stroke-linejoin:miter;stroke-opacity:1" d="M 49.2194,597.504 43.567,569.242 z" id="boundary" inkscape:connector-curvature="0" />
	<path style="fill:none;stroke:red;stroke-width:1px;stroke-linecap:butt;stroke-linejoin:miter;stroke-opacity:1" d="M 49.2194,654.028 49.2194,682.291 z" id="boundary" inkscape:connector-curvature="0" />
	<path style="fill:none;stroke:red;stroke-width:1px;stroke-linecap:butt;stroke-linejoin:miter;stroke-opacity:1" d="M 295.1,15.3048 266.838,4 z" id="boundary" inkscape:connector-curvature="0" />
	<path style="fill:none;stroke:red;stroke-width:1px;stroke-linecap:butt;stroke-linejoin:miter;stroke-opacity:1" d="M 266.838,4 238.575,9.65242 z" id="boundary" inkscape:connector-curvature="0" />
	<path style="fill:none;stroke:red;stroke-width:1px;stroke-linecap:butt;stroke-linejoin:miter;stroke-opacity:1" d="M 49.2194,710.553 49.2194,738.815 z" id="boundary" inkscape:connector-curvature="0" />
	<path style="fill:none;stroke:red;stroke-width:1px;stroke-linecap:butt;stroke-linejoin:miter;stroke-opacity:1" d="M 49.2194,738.815 49.2194,767.077 z" id="boundary" inkscape:connector-curvature="0" />
	<path style="fill:none;stroke:red;stroke-width:1px;stroke-linecap:butt;stroke-linejoin:miter;stroke-opacity:1" d="M 498.587,696.422 498.587,668.16 z" id="boundary" inkscape:connector-curvature="0" />
	<path style="fill:none;stroke:red;stroke-width:1px;stroke-linecap:butt;stroke-linejoin:miter;stroke-opacity:1" d="M 57.698,795.339 49.2194,767.077 z" id="boundary" inkscape:connector-curvature="0" />
	<path style="fill:none;stroke:red;stroke-width:1px;stroke-linecap:butt;stroke-linejoin:miter;stroke-opacity:1" d="M 60.5242,823.601 57.698,795.339 z" id="boundary" inkscape:connector-curvature="0" />
	<path style="fill:none;stroke:red;stroke-width:1px;stroke-linecap:butt;stroke-linejoin:miter;stroke-opacity:1" d="M 139.658,4 167.92,12.4786 z" id="boundary" inkscape:connector-curvature="0" />
	<path style="fill:none;stroke:red;stroke-width:1px;stroke-linecap:butt;stroke-linejoin:miter;stroke-opacity:1" d="M 167.92,12.4786 187.704,35.0883 z" id="boundary" inkscape:connector-curvature="0" />
	<path style="fill:none;stroke:red;stroke-width:1px;stroke-linecap:butt;stroke-linejoin:miter;stroke-opacity:1" d="M 60.5242,851.863 60.5242,823.601 z" id="boundary" inkscape:connector-curvature="0" />
	<path style="fill:none;stroke:red;stroke-width:1px;stroke-linecap:butt;stroke-linejoin:miter;stroke-opacity:1" d="M 60.5242,880.125 60.5242,851.863 z" id="boundary" inkscape:connector-curvature="0" />
	<path style="fill:none;stroke:red;stroke-width:1px;stroke-linecap:butt;stroke-linejoin:miter;stroke-opacity:1" d="M 111.396,9.65242 139.658,4 z" id="boundary" inkscape:connector-curvature="0" />
	<path style="fill:none;stroke:red;stroke-width:1px;stroke-linecap:butt;stroke-linejoin:miter;stroke-opacity:1" d="M 83.1339,20.9573 111.396,9.65242 z" id="boundary" inkscape:connector-curvature="0" />
	<path style="fill:none;stroke:red;stroke-width:1px;stroke-linecap:butt;stroke-linejoin:miter;stroke-opacity:1" d="M 66.1766,908.387 60.5242,880.125 z" id="boundary" inkscape:connector-curvature="0" />
	<path style="fill:none;stroke:red;stroke-width:1px;stroke-linecap:butt;stroke-linejoin:miter;stroke-opacity:1" d="M 71.8291,936.65 66.1766,908.387 z" id="boundary" inkscape:connector-curvature="0" />
	<path style="fill:none;stroke:red;stroke-width:1px;stroke-linecap:butt;stroke-linejoin:miter;stroke-opacity:1" d="M 66.1766,49.2194 83.1339,20.9573 z" id="boundary" inkscape:connector-curvature="0" />
	<path style="fill:none;stroke:red;stroke-width:1px;stroke-linecap:butt;stroke-linejoin:miter;stroke-opacity:1" d="M 105.744,979.043 80.3077,964.912 z" id="boundary" inkscape:connector-curvature="0" />
	<path style="fill:none;stroke:red;stroke-width:1px;stroke-linecap:butt;stroke-linejoin:miter;stroke-opacity:1" d="M 80.3077,964.912 71.8291,936.65 z" id="boundary" inkscape:connector-curvature="0" />
	<path style="fill:none;stroke:red;stroke-width:1px;stroke-linecap:butt;stroke-linejoin:miter;stroke-opacity:1" d="M 334.667,91.6125 345.972,119.875 z" id="boundary" inkscape:connector-curvature="0" />
	<path style="fill:none;stroke:red;stroke-width:1px;stroke-linecap:butt;stroke-linejoin:miter;stroke-opacity:1" d="M 134.006,990.348 105.744,979.043 z" id="boundary" inkscape:connector-curvature="0" />
	<path style="fill:none;stroke:red;stroke-width:1px;stroke-linecap:butt;stroke-linejoin:miter;stroke-opacity:1" d="M 329.014,63.3504 334.667,91.6125 z" id="boundary" inkscape:connector-curvature="0" />
	<path style="fill:none;stroke:red;stroke-width:1px;stroke-linecap:butt;stroke-linejoin:miter;stroke-opacity:1" d="M 162.268,996 134.006,990.348 z" id="boundary" inkscape:connector-curvature="0" />
	<path style="fill:none;stroke:red;stroke-width:1px;stroke-linecap:butt;stroke-linejoin:miter;stroke-opacity:1" d="M 238.575,9.65242 210.313,18.1311 z" id="boundary" inkscape:connector-curvature="0" />
	<path style="fill:none;stroke:red;stroke-width:1px;stroke-linecap:butt;stroke-linejoin:miter;stroke-opacity:1" d="M 210.313,18.1311 187.704,35.0883 z" id="boundary" inkscape:connector-curvature="0" />
	<path style="fill:none;stroke:red;stroke-width:1px;stroke-linecap:butt;stroke-linejoin:miter;stroke-opacity:1" d="M 345.972,119.875 362.929,142.484 z" id="boundary" inkscape:connector-curvature="0" />
	<path style="fill:none;stroke:red;stroke-width:1px;stroke-linecap:butt;stroke-linejoin:miter;stroke-opacity:1" d="M 190.53,996 162.268,996 z" id="boundary" inkscape:connector-curvature="0" />
	<path style="fill:none;stroke:red;stroke-width:1px;stroke-linecap:butt;stroke-linejoin:miter;stroke-opacity:1" d="M 295.1,15.3048 314.883,37.9145 z" id="boundary" inkscape:connector-curvature="0" />
	<path style="fill:none;stroke:red;stroke-width:1px;stroke-linecap:butt;stroke-linejoin:miter;stroke-opacity:1" d="M 218.792,990.348 190.53,996 z" id="boundary" inkscape:connector-curvature="0" />
	<path style="fill:none;stroke:red;stroke-width:1px;stroke-linecap:butt;stroke-linejoin:miter;stroke-opacity:1" d="M 314.883,37.9145 329.014,63.3504 z" id="boundary" inkscape:connector-curvature="0" />
	<path style="fill:none;stroke:red;stroke-width:1px;stroke-linecap:butt;stroke-linejoin:miter;stroke-opacity:1" d="M 247.054,990.348 218.792,990.348 z" id="boundary" inkscape:connector-curvature="0" />
	<path style="fill:none;stroke:red;stroke-width:1px;stroke-linecap:butt;stroke-linejoin:miter;stroke-opacity:1" d="M 275.316,984.695 247.054,990.348 z" id="boundary" inkscape:connector-curvature="0" />
	<path style="fill:none;stroke:red;stroke-width:1px;stroke-linecap:butt;stroke-linejoin:miter;stroke-opacity:1" d="M 303.578,993.174 275.316,984.695 z" id="boundary" inkscape:connector-curvature="0" />
	<path style="fill:none;stroke:red;stroke-width:1px;stroke-linecap:butt;stroke-linejoin:miter;stroke-opacity:1" d="M 331.84,996 303.578,993.174 z" id="boundary" inkscape:connector-curvature="0" />
	<path style="fill:none;stroke:red;stroke-width:1px;stroke-linecap:butt;stroke-linejoin:miter;stroke-opacity:1" d="M 362.929,142.484 379.886,165.094 z" id="boundary" inkscape:connector-curvature="0" />
	<path style="fill:none;stroke:red;stroke-width:1px;stroke-linecap:butt;stroke-linejoin:miter;stroke-opacity:1" d="M 498.587,696.422 504.239,724.684 z" id="boundary" inkscape:connector-curvature="0" />
	<path style="fill:none;stroke:red;stroke-width:1px;stroke-linecap:butt;stroke-linejoin:miter;stroke-opacity:1" d="M 413.801,422.279 399.67,396.843 z" id="boundary" inkscape:connector-curvature="0" />
	<path style="fill:none;stroke:red;stroke-width:1px;stroke-linecap:butt;stroke-linejoin:miter;stroke-opacity:1" d="M 498.587,668.16 495.761,639.897 z" id="boundary" inkscape:connector-curvature="0" />
	<path style="fill:none;stroke:red;stroke-width:1px;stroke-linecap:butt;stroke-linejoin:miter;stroke-opacity:1" d="M 402.496,184.877 379.886,165.094 z" id="boundary" inkscape:connector-curvature="0" />
	<path style="fill:none;stroke:red;stroke-width:1px;stroke-linecap:butt;stroke-linejoin:miter;stroke-opacity:1" d="M 430.758,190.53 456.194,204.661 z" id="boundary" inkscape:connector-curvature="0" />
	<path style="fill:none;stroke:red;stroke-width:1px;stroke-linecap:butt;stroke-linejoin:miter;stroke-opacity:1" d="M 419.453,371.407 399.67,396.843 z" id="boundary" inkscape:connector-curvature="0" />
	<path style="fill:none;stroke:red;stroke-width:1px;stroke-linecap:butt;stroke-linejoin:miter;stroke-opacity:1" d="M 388.365,996 360.103,996 z" id="boundary" inkscape:connector-curvature="0" />
	<path style="fill:none;stroke:red;stroke-width:1px;stroke-linecap:butt;stroke-linejoin:miter;stroke-opacity:1" d="M 413.801,422.279 442.063,427.932 z" id="boundary" inkscape:connector-curvature="0" />
	<path style="fill:none;stroke:red;stroke-width:1px;stroke-linecap:butt;stroke-linejoin:miter;stroke-opacity:1" d="M 402.496,184.877 430.758,190.53 z" id="boundary" inkscape:connector-curvature="0" />
	<path style="fill:none;stroke:red;stroke-width:1px;stroke-linecap:butt;stroke-linejoin:miter;stroke-opacity:1" d="M 439.236,973.39 416.627,996 z" id="boundary" inkscape:connector-curvature="0" />
	<path style="fill:none;stroke:red;stroke-width:1px;stroke-linecap:butt;stroke-linejoin:miter;stroke-opacity:1" d="M 416.627,996 388.365,996 z" id="boundary" inkscape:connector-curvature="0" />
	<path style="fill:none;stroke:red;stroke-width:1px;stroke-linecap:butt;stroke-linejoin:miter;stroke-opacity:1" d="M 467.499,973.39 439.236,973.39 z" id="boundary" inkscape:connector-curvature="0" />
	<path style="fill:none;stroke:red;stroke-width:1px;stroke-linecap:butt;stroke-linejoin:miter;stroke-opacity:1" d="M 447.715,360.103 419.453,371.407 z" id="boundary" inkscape:connector-curvature="0" />
	<path style="fill:none;stroke:red;stroke-width:1px;stroke-linecap:butt;stroke-linejoin:miter;stroke-opacity:1" d="M 447.715,360.103 470.325,343.145 z" id="boundary" inkscape:connector-curvature="0" />
	<path style="fill:none;stroke:red;stroke-width:1px;stroke-linecap:butt;stroke-linejoin:miter;stroke-opacity:1" d="M 470.325,433.584 442.063,427.932 z" id="boundary" inkscape:connector-curvature="0" />
	<path style="fill:none;stroke:red;stroke-width:1px;stroke-linecap:butt;stroke-linejoin:miter;stroke-opacity:1" d="M 495.761,981.869 467.499,973.39 z" id="boundary" inkscape:connector-curvature="0" />
	<path style="fill:none;stroke:red;stroke-width:1px;stroke-linecap:butt;stroke-linejoin:miter;stroke-opacity:1" d="M 481.63,218.792 456.194,204.661 z" id="boundary" inkscape:connector-curvature="0" />
	<path style="fill:none;stroke:red;stroke-width:1px;stroke-linecap:butt;stroke-linejoin:miter;stroke-opacity:1" d="M 470.325,343.145 481.63,314.883 z" id="boundary" inkscape:connector-curvature="0" />
	<path style="fill:none;stroke:red;stroke-width:1px;stroke-linecap:butt;stroke-linejoin:miter;stroke-opacity:1" d="M 487.282,275.316 498.587,241.402 z" id="boundary" inkscape:connector-curvature="0" />
	<path style="fill:none;stroke:red;stroke-width:1px;stroke-linecap:butt;stroke-linejoin:miter;stroke-opacity:1" d="M 487.282,275.316 481.63,314.883 z" id="boundary" inkscape:connector-curvature="0" />
	<path style="fill:none;stroke:red;stroke-width:1px;stroke-linecap:butt;stroke-linejoin:miter;stroke-opacity:1" d="M 481.63,218.792 498.587,241.402 z" id="boundary" inkscape:connector-curvature="0" />
	<path style="fill:none;stroke:red;stroke-width:1px;stroke-linecap:butt;stroke-linejoin:miter;stroke-opacity:1" d="M 470.325,433.584 498.587,433.584 z" id="boundary" inkscape:connector-curvature="0" />
	<path style="fill:none;stroke:red;stroke-width:1px;stroke-linecap:butt;stroke-linejoin:miter;stroke-opacity:1" d="M 498.587,433.584 526.849,444.889 z" id="boundary" inkscape:connector-curvature="0" />
	<path style="fill:none;stroke:red;stroke-width:1px;stroke-linecap:butt;stroke-linejoin:miter;stroke-opacity:1" d="M 360.103,996 331.84,996 z" id="boundary" inkscape:connector-curvature="0" />
	<path style="fill:none;stroke:red;stroke-width:1px;stroke-linecap:butt;stroke-linejoin:miter;stroke-opacity:1" d="M 524.023,990.348 495.761,981.869 z" id="boundary" inkscape:connector-curvature="0" />
	<path style="fill:none;stroke:red;stroke-width:1px;stroke-linecap:butt;stroke-linejoin:miter;stroke-opacity:1" d="M 521.197,625.766 495.761,639.897 z" id="boundary" inkscape:connector-curvature="0" />
	<path style="fill:none;stroke:red;stroke-width:1px;stroke-linecap:butt;stroke-linejoin:miter;stroke-opacity:1" d="M 504.239,724.684 532.501,733.162 z" id="boundary" inkscape:connector-curvature="0" />
	<path style="fill:none;stroke:red;stroke-width:1px;stroke-linecap:butt;stroke-linejoin:miter;stroke-opacity:1" d="M 546.632,611.635 521.197,625.766 z" id="boundary" inkscape:connector-curvature="0" />
	<path style="fill:none;stroke:red;stroke-width:1px;stroke-linecap:butt;stroke-linejoin:miter;stroke-opacity:1" d="M 552.285,996 524.023,990.348 z" id="boundary" inkscape:connector-curvature="0" />
	<path style="fill:none;stroke:red;stroke-width:1px;stroke-linecap:butt;stroke-linejoin:miter;stroke-opacity:1" d="M 673.812,840.558 673.812,868.821 z" id="boundary" inkscape:connector-curvature="0" />
	<path style="fill:none;stroke:red;stroke-width:1px;stroke-linecap:butt;stroke-linejoin:miter;stroke-opacity:1" d="M 532.501,733.162 560.764,727.51 z" id="boundary" inkscape:connector-curvature="0" />
	<path style="fill:none;stroke:red;stroke-width:1px;stroke-linecap:butt;stroke-linejoin:miter;stroke-opacity:1" d="M 526.849,444.889 555.111,450.541 z" id="boundary" inkscape:connector-curvature="0" />
	<path style="fill:none;stroke:red;stroke-width:1px;stroke-linecap:butt;stroke-linejoin:miter;stroke-opacity:1" d="M 555.111,450.541 577.721,467.499 z" id="boundary" inkscape:connector-curvature="0" />
	<path style="fill:none;stroke:red;stroke-width:1px;stroke-linecap:butt;stroke-linejoin:miter;stroke-opacity:1" d="M 560.764,727.51 589.026,727.51 z" id="boundary" inkscape:connector-curvature="0" />
	<path style="fill:none;stroke:red;stroke-width:1px;stroke-linecap:butt;stroke-linejoin:miter;stroke-opacity:1" d="M 569.242,594.678 546.632,611.635 z" id="boundary" inkscape:connector-curvature="0" />
	<path style="fill:none;stroke:red;stroke-width:1px;stroke-linecap:butt;stroke-linejoin:miter;stroke-opacity:1" d="M 569.242,594.678 583.373,569.242 z" id="boundary" inkscape:connector-curvature="0" />
	<path style="fill:none;stroke:red;stroke-width:1px;stroke-linecap:butt;stroke-linejoin:miter;stroke-opacity:1" d="M 589.026,540.98 583.373,569.242 z" id="boundary" inkscape:connector-curvature="0" />
	<path style="fill:none;stroke:red;stroke-width:1px;stroke-linecap:butt;stroke-linejoin:miter;stroke-opacity:1" d="M 577.721,467.499 594.678,490.108 z" id="boundary" inkscape:connector-curvature="0" />
	<path style="fill:none;stroke:red;stroke-width:1px;stroke-linecap:butt;stroke-linejoin:miter;stroke-opacity:1" d="M 670.986,784.034 673.812,812.296 z" id="boundary" inkscape:connector-curvature="0" />
	<path style="fill:none;stroke:red;stroke-width:1px;stroke-linecap:butt;stroke-linejoin:miter;stroke-opacity:1" d="M 594.678,490.108 589.026,540.98 z" id="boundary" inkscape:connector-curvature="0" />
	<path style="fill:none;stroke:red;stroke-width:1px;stroke-linecap:butt;stroke-linejoin:miter;stroke-opacity:1" d="M 608.809,984.695 580.547,996 z" id="boundary" inkscape:connector-curvature="0" />
	<path style="fill:none;stroke:red;stroke-width:1px;stroke-linecap:butt;stroke-linejoin:miter;stroke-opacity:1" d="M 580.547,996 552.285,996 z" id="boundary" inkscape:connector-curvature="0" />
	<path style="fill:none;stroke:red;stroke-width:1px;stroke-linecap:butt;stroke-linejoin:miter;stroke-opacity:1" d="M 617.288,727.51 589.026,727.51 z" id="boundary" inkscape:connector-curvature="0" />
	<path style="fill:none;stroke:red;stroke-width:1px;stroke-linecap:butt;stroke-linejoin:miter;stroke-opacity:1" d="M 662.507,755.772 670.986,784.034 z" id="boundary" inkscape:connector-curvature="0" />
	<path style="fill:none;stroke:red;stroke-width:1px;stroke-linecap:butt;stroke-linejoin:miter;stroke-opacity:1" d="M 645.55,733.162 662.507,755.772 z" id="boundary" inkscape:connector-curvature="0" />
	<path style="fill:none;stroke:red;stroke-width:1px;stroke-linecap:butt;stroke-linejoin:miter;stroke-opacity:1" d="M 645.55,733.162 617.288,727.51 z" id="boundary" inkscape:connector-curvature="0" />
	<path style="fill:none;stroke:red;stroke-width:1px;stroke-linecap:butt;stroke-linejoin:miter;stroke-opacity:1" d="M 637.071,973.39 608.809,984.695 z" id="boundary" inkscape:connector-curvature="0" />
	<path style="fill:none;stroke:red;stroke-width:1px;stroke-linecap:butt;stroke-linejoin:miter;stroke-opacity:1" d="M 668.16,914.04 659.681,950.781 z" id="boundary" inkscape:connector-curvature="0" />
	<path style="fill:none;stroke:red;stroke-width:1px;stroke-linecap:butt;stroke-linejoin:miter;stroke-opacity:1" d="M 659.681,950.781 637.071,973.39 z" id="boundary" inkscape:connector-curvature="0" />
	<path style="fill:none;stroke:red;stroke-width:1px;stroke-linecap:butt;stroke-linejoin:miter;stroke-opacity:1" d="M 673.812,812.296 673.812,840.558 z" id="boundary" inkscape:connector-curvature="0" />
	<path style="fill:none;stroke:red;stroke-width:1px;stroke-linecap:butt;stroke-linejoin:miter;stroke-opacity:1" d="M 673.812,868.821 668.16,914.04 z" id="boundary" inkscape:connector-curvature="0" />
	<circle cx="4" cy="213.14" r="4" fill="#0" id="circle0"/>
	<circle cx="4" cy="241.402" r="4" fill="#0" id="circle1"/>
	<circle cx="4" cy="269.664" r="4" fill="#0" id="circle2"/>
	<circle cx="9.65242" cy="184.877" r="4" fill="#0" id="circle3"/>
	<circle cx="9.65242" cy="297.926" r="4" fill="#0" id="circle4"/>
	<circle cx="20.9573" cy="156.615" r="4" fill="#0" id="circle5"/>
	<circle cx="20.9573" cy="326.188" r="4" fill="#0" id="circle6"/>
	<circle cx="32.2621" cy="128.353" r="4" fill="#0" id="circle7"/>
	<circle cx="32.2621" cy="484.456" r="4" fill="#0" id="circle8"/>
	<circle cx="32.2621" cy="512.718" r="4" fill="#0" id="circle9"/>
	<circle cx="37.9145" cy="348.798" r="4" fill="#0" id="circle10"/>
	<circle cx="37.9145" cy="540.98" r="4" fill="#0" id="circle11"/>
	<circle cx="43.567" cy="439.236" r="4" fill="#0" id="circle12"/>
	<circle cx="43.567" cy="569.242" r="4" fill="#0" id="circle13"/>
	<circle cx="49.2194" cy="105.744" r="4" fill="#0" id="circle14"/>
	<circle cx="49.2194" cy="377.06" r="4" fill="#0" id="circle15"/>
	<circle cx="49.2194" cy="597.504" r="4" fill="#0" id="circle16"/>
	<circle cx="49.2194" cy="625.766" r="4" fill="#0" id="circle17"/>
	<circle cx="49.2194" cy="654.028" r="4" fill="#0" id="circle18"/>
	<circle cx="49.2194" cy="682.291" r="4" fill="#0" id="circle19"/>
	<circle cx="49.2194" cy="710.553" r="4" fill="#0" id="circle20"/>
	<circle cx="49.2194" cy="738.815" r="4" fill="#0" id="circle21"/>
	<circle cx="49.2194" cy="767.077" r="4" fill="#0" id="circle22"/>
	<circle cx="54.8718" cy="410.974" r="4" fill="#0" id="circle23"/>
	<circle cx="57.698" cy="795.339" r="4" fill="#0" id="circle24"/>
	<circle cx="60.5242" cy="823.601" r="4" fill="#0" id="circle25"/>
	<circle cx="60.5242" cy="851.863" r="4" fill="#0" id="circle26"/>
	<circle cx="60.5242" cy="880.125" r="4" fill="#0" id="circle27"/>
	<circle cx="66.1766" cy="49.2194" r="4" fill="#0" id="circle28"/>
	<circle cx="66.1766" cy="908.387" r="4" fill="#0" id="circle29"/>
	<circle cx="71.8291" cy="77.4815" r="4" fill="#0" id="circle30"/>
	<circle cx="71.8291" cy="936.65" r="4" fill="#0" id="circle31"/>
	<circle cx="80.3077" cy="964.912" r="4" fill="#0" id="circle32"/>
	<circle cx="83.1339" cy="20.9573" r="4" fill="#0" id="circle33"/>
	<circle cx="105.744" cy="979.043" r="4" fill="#0" id="circle34"/>
	<circle cx="111.396" cy="9.65242" r="4" fill="#0" id="circle35"/>
	<circle cx="134.006" cy="990.348" r="4" fill="#0" id="circle36"/>
	<circle cx="139.658" cy="4" r="4" fill="#0" id="circle37"/>
	<circle cx="162.268" cy="996" r="4" fill="#0" id="circle38"/>
	<circle cx="167.92" cy="12.4786" r="4" fill="#0" id="circle39"/>
	<circle cx="187.704" cy="35.0883" r="4" fill="#0" id="circle40"/>
	<circle cx="190.53" cy="996" r="4" fill="#0" id="circle41"/>
	<circle cx="210.313" cy="18.1311" r="4" fill="#0" id="circle42"/>
	<circle cx="218.792" cy="990.348" r="4" fill="#0" id="circle43"/>
	<circle cx="238.575" cy="9.65242" r="4" fill="#0" id="circle44"/>
	<circle cx="247.054" cy="990.348" r="4" fill="#0" id="circle45"/>
	<circle cx="266.838" cy="4" r="4" fill="#0" id="circle46"/>
	<circle cx="275.316" cy="984.695" r="4" fill="#0" id="circle47"/>
	<circle cx="295.1" cy="15.3048" r="4" fill="#0" id="circle48"/>
	<circle cx="303.578" cy="993.174" r="4" fill="#0" id="circle49"/>
	<circle cx="314.883" cy="37.9145" r="4" fill="#0" id="circle50"/>
	<circle cx="329.014" cy="63.3504" r="4" fill="#0" id="circle51"/>
	<circle cx="331.84" cy="996" r="4" fill="#0" id="circle52"/>
	<circle cx="334.667" cy="91.6125" r="4" fill="#0" id="circle53"/>
	<circle cx="345.972" cy="119.875" r="4" fill="#0" id="circle54"/>
	<circle cx="360.103" cy="996" r="4" fill="#0" id="circle55"/>
	<circle cx="362.929" cy="142.484" r="4" fill="#0" id="circle56"/>
	<circle cx="379.886" cy="165.094" r="4" fill="#0" id="circle57"/>
	<circle cx="388.365" cy="996" r="4" fill="#0" id="circle58"/>
	<circle cx="399.67" cy="396.843" r="4" fill="#0" id="circle59"/>
	<circle cx="402.496" cy="184.877" r="4" fill="#0" id="circle60"/>
	<circle cx="413.801" cy="422.279" r="4" fill="#0" id="circle61"/>
	<circle cx="416.627" cy="996" r="4" fill="#0" id="circle62"/>
	<circle cx="419.453" cy="371.407" r="4" fill="#0" id="circle63"/>
	<circle cx="430.758" cy="190.53" r="4" fill="#0" id="circle64"/>
	<circle cx="439.236" cy="973.39" r="4" fill="#0" id="circle65"/>
	<circle cx="442.063" cy="427.932" r="4" fill="#0" id="circle66"/>
	<circle cx="447.715" cy="360.103" r="4" fill="#0" id="circle67"/>
	<circle cx="456.194" cy="204.661" r="4" fill="#0" id="circle68"/>
	<circle cx="467.499" cy="973.39" r="4" fill="#0" id="circle69"/>
	<circle cx="470.325" cy="343.145" r="4" fill="#0" id="circle70"/>
	<circle cx="470.325" cy="433.584" r="4" fill="#0" id="circle71"/>
	<circle cx="481.63" cy="218.792" r="4" fill="#0" id="circle72"/>
	<circle cx="481.63" cy="314.883" r="4" fill="#0" id="circle73"/>
	<circle cx="487.282" cy="275.316" r="4" fill="#0" id="circle74"/>
	<circle cx="495.761" cy="639.897" r="4" fill="#0" id="circle75"/>
	<circle cx="495.761" cy="981.869" r="4" fill="#0" id="circle76"/>
	<circle cx="498.587" cy="241.402" r="4" fill="#0" id="circle77"/>
	<circle cx="498.587" cy="433.584" r="4" fill="#0" id="circle78"/>
	<circle cx="498.587" cy="668.16" r="4" fill="#0" id="circle79"/>
	<circle cx="498.587" cy="696.422" r="4" fill="#0" id="circle80"/>
	<circle cx="504.239" cy="724.684" r="4" fill="#0" id="circle81"/>
	<circle cx="521.197" cy="625.766" r="4" fill="#0" id="circle82"/>
	<circle cx="524.023" cy="990.348" r="4" fill="#0" id="circle83"/>
	<circle cx="526.849" cy="444.889" r="4" fill="#0" id="circle84"/>
	<circle cx="532.501" cy="733.162" r="4" fill="#0" id="circle85"/>
	<circle cx="546.632" cy="611.635" r="4" fill="#0" id="circle86"/>
	<circle cx="552.285" cy="996" r="4" fill="#0" id="circle87"/>
	<circle cx="555.111" cy="450.541" r="4" fill="#0" id="circle88"/>
	<circle cx="560.764" cy="727.51" r="4" fill="#0" id="circle89"/>
	<circle cx="569.242" cy="594.678" r="4" fill="#0" id="circle90"/>
	<circle cx="577.721" cy="467.499" r="4" fill="#0" id="circle91"/>
	<circle cx="580.547" cy="996" r="4" fill="#0" id="circle92"/>
	<circle cx="583.373" cy="569.242" r="4" fill="#0" id="circle93"/>
	<circle cx="589.026" cy="540.98" r="4" fill="#0" id="circle94"/>
	<circle cx="589.026" cy="727.51" r="4" fill="#0" id="circle95"/>
	<circle cx="594.678" cy="490.108" r="4" fill="#0" id="circle96"/>
	<circle cx="608.809" cy="984.695" r="4" fill="#0" id="circle97"/>
	<circle cx="617.288" cy="727.51" r="4" fill="#0" id="circle98"/>
	<circle cx="637.071" cy="973.39" r="4" fill="#0" id="circle99"/>
	<circle cx="645.55" cy="733.162" r="4" fill="#0" id="circle100"/>
	<circle cx="659.681" cy="950.781" r="4" fill="#0" id="circle101"/>
	<circle cx="662.507" cy="755.772" r="4" fill="#0" id="circle102"/>
	<circle cx="668.16" cy="914.04" r="4" fill="#0" id="circle103"/>
	<circle cx="670.986" cy="784.034" r="4" fill="#0" id="circle104"/>
	<circle cx="673.812" cy="812.296" r="4" fill="#0" id="circle105"/>
	<circle cx="673.812" cy="840.558" r="4" fill="#0" id="circle106"/>
	<circle cx="673.812" cy="868.821" r="4" fill="#0" id="circle107"/>
	</g>
</svg>