<?xml version="1.0" encoding="UTF-8" standalone="no"?>
<!-- Created with CurveBenchmark -->
<svg
	xmlns:dc="http://purl.org/dc/elements/1.1/"
	xmlns:cc="http://creativecommons.org/ns#"
	xmlns:rdf="http://www.w3.org/1999/02/22-rdf-syntax-ns#"
	xmlns:svg="http://www.w3.org/2000/svg"
	xmlns="http://www.w3.org/2000/svg"
	xmlns:sodipodi="http://sodipodi.sourceforge.net/DTD/sodipodi-0.dtd"
	xmlns:inkscape="http://www.inkscape.org/namespaces/inkscape"
	width="1000"
	height="1000"
	id="svg2"
	version="1.1"
	sodipodi:docname="manifold/peel-key12.png.txt">
<defs
	id="defs4" />
<metadata
	id="metadata7">
	<rdf:RDF>
		<cc:Work
			rdf:about="">
			<dc:format>image/svg+xml</dc:format>
			<dc:type
				rdf:resource="http://purl.org/dc/dcmitype/StillImage" />
			<dc:title></dc:title>
		</cc:Work>
	</rdf:RDF>
</metadata>
<g
	inkscape:label="Layer 1"
	inkscape:groupmode="layer"
	id="layer1">
	<path style="fill:none;stroke:red;stroke-width:1px;stroke-linecap:butt;stroke-linejoin:miter;stroke-opacity:1" d="M 21.4035,174.554 12.7018,191.958 z" id="boundary" inkscape:connector-curvature="0" />
	<path style="fill:none;stroke:red;stroke-width:1px;stroke-linecap:butt;stroke-linejoin:miter;stroke-opacity:1" d="M 4,235.467 4,218.063 z" id="boundary" inkscape:connector-curvature="0" />
	<path style="fill:none;stroke:red;stroke-width:1px;stroke-linecap:butt;stroke-linejoin:miter;stroke-opacity:1" d="M 4,218.063 12.7018,191.958 z" id="boundary" inkscape:connector-curvature="0" />
	<path style="fill:none;stroke:red;stroke-width:1px;stroke-linecap:butt;stroke-linejoin:miter;stroke-opacity:1" d="M 4,235.467 4,252.87 z" id="boundary" inkscape:connector-curvature="0" />
	<path style="fill:none;stroke:red;stroke-width:1px;stroke-linecap:butt;stroke-linejoin:miter;stroke-opacity:1" d="M 21.4035,174.554 30.1053,157.151 z" id="boundary" inkscape:connector-curvature="0" />
	<path style="fill:none;stroke:red;stroke-width:1px;stroke-linecap:butt;stroke-linejoin:miter;stroke-opacity:1" d="M 4,287.677 4,270.274 z" id="boundary" inkscape:connector-curvature="0" />
	<path style="fill:none;stroke:red;stroke-width:1px;stroke-linecap:butt;stroke-linejoin:miter;stroke-opacity:1" d="M 4,305.081 4,287.677 z" id="boundary" inkscape:connector-curvature="0" />
	<path style="fill:none;stroke:red;stroke-width:1px;stroke-linecap:butt;stroke-linejoin:miter;stroke-opacity:1" d="M 12.7018,338.147 4,322.484 z" id="boundary" inkscape:connector-curvature="0" />
	<path style="fill:none;stroke:red;stroke-width:1px;stroke-linecap:butt;stroke-linejoin:miter;stroke-opacity:1" d="M 4,322.484 4,305.081 z" id="boundary" inkscape:connector-curvature="0" />
	<path style="fill:none;stroke:red;stroke-width:1px;stroke-linecap:butt;stroke-linejoin:miter;stroke-opacity:1" d="M 12.7018,355.551 12.7018,338.147 z" id="boundary" inkscape:connector-curvature="0" />
	<path style="fill:none;stroke:red;stroke-width:1px;stroke-linecap:butt;stroke-linejoin:miter;stroke-opacity:1" d="M 4,270.274 4,252.87 z" id="boundary" inkscape:connector-curvature="0" />
	<path style="fill:none;stroke:red;stroke-width:1px;stroke-linecap:butt;stroke-linejoin:miter;stroke-opacity:1" d="M 21.4035,371.214 12.7018,355.551 z" id="boundary" inkscape:connector-curvature="0" />
	<path style="fill:none;stroke:red;stroke-width:1px;stroke-linecap:butt;stroke-linejoin:miter;stroke-opacity:1" d="M 30.1053,157.151 38.807,139.747 z" id="boundary" inkscape:connector-curvature="0" />
	<path style="fill:none;stroke:red;stroke-width:1px;stroke-linecap:butt;stroke-linejoin:miter;stroke-opacity:1" d="M 38.807,139.747 52.7298,125.825 z" id="boundary" inkscape:connector-curvature="0" />
	<path style="fill:none;stroke:red;stroke-width:1px;stroke-linecap:butt;stroke-linejoin:miter;stroke-opacity:1" d="M 26.6246,388.618 21.4035,371.214 z" id="boundary" inkscape:connector-curvature="0" />
	<path style="fill:none;stroke:red;stroke-width:1px;stroke-linecap:butt;stroke-linejoin:miter;stroke-opacity:1" d="M 35.3263,404.281 26.6246,388.618 z" id="boundary" inkscape:connector-curvature="0" />
	<path style="fill:none;stroke:red;stroke-width:1px;stroke-linecap:butt;stroke-linejoin:miter;stroke-opacity:1" d="M 47.5088,418.204 35.3263,404.281 z" id="boundary" inkscape:connector-curvature="0" />
	<path style="fill:none;stroke:red;stroke-width:1px;stroke-linecap:butt;stroke-linejoin:miter;stroke-opacity:1" d="M 56.2105,433.867 47.5088,418.204 z" id="boundary" inkscape:connector-curvature="0" />
	<path style="fill:none;stroke:red;stroke-width:1px;stroke-linecap:butt;stroke-linejoin:miter;stroke-opacity:1" d="M 75.3544,94.4982 89.2772,82.3158 z" id="boundary" inkscape:connector-curvature="0" />
	<path style="fill:none;stroke:red;stroke-width:1px;stroke-linecap:butt;stroke-linejoin:miter;stroke-opacity:1" d="M 61.4316,108.421 75.3544,94.4982 z" id="boundary" inkscape:connector-curvature="0" />
	<path style="fill:none;stroke:red;stroke-width:1px;stroke-linecap:butt;stroke-linejoin:miter;stroke-opacity:1" d="M 61.4316,108.421 52.7298,125.825 z" id="boundary" inkscape:connector-curvature="0" />
	<path style="fill:none;stroke:red;stroke-width:1px;stroke-linecap:butt;stroke-linejoin:miter;stroke-opacity:1" d="M 64.9123,449.53 56.2105,433.867 z" id="boundary" inkscape:connector-curvature="0" />
	<path style="fill:none;stroke:red;stroke-width:1px;stroke-linecap:butt;stroke-linejoin:miter;stroke-opacity:1" d="M 80.5754,458.232 64.9123,449.53 z" id="boundary" inkscape:connector-curvature="0" />
	<path style="fill:none;stroke:red;stroke-width:1px;stroke-linecap:butt;stroke-linejoin:miter;stroke-opacity:1" d="M 92.7579,472.154 80.5754,458.232 z" id="boundary" inkscape:connector-curvature="0" />
	<path style="fill:none;stroke:red;stroke-width:1px;stroke-linecap:butt;stroke-linejoin:miter;stroke-opacity:1" d="M 479.116,127.565 487.818,143.228 z" id="boundary" inkscape:connector-curvature="0" />
	<path style="fill:none;stroke:red;stroke-width:1px;stroke-linecap:butt;stroke-linejoin:miter;stroke-opacity:1" d="M 101.46,68.393 115.382,56.2105 z" id="boundary" inkscape:connector-curvature="0" />
	<path style="fill:none;stroke:red;stroke-width:1px;stroke-linecap:butt;stroke-linejoin:miter;stroke-opacity:1" d="M 115.382,56.2105 131.046,47.5088 z" id="boundary" inkscape:connector-curvature="0" />
	<path style="fill:none;stroke:red;stroke-width:1px;stroke-linecap:butt;stroke-linejoin:miter;stroke-opacity:1" d="M 106.681,484.337 92.7579,472.154 z" id="boundary" inkscape:connector-curvature="0" />
	<path style="fill:none;stroke:red;stroke-width:1px;stroke-linecap:butt;stroke-linejoin:miter;stroke-opacity:1" d="M 89.2772,82.3158 101.46,68.393 z" id="boundary" inkscape:connector-curvature="0" />
	<path style="fill:none;stroke:red;stroke-width:1px;stroke-linecap:butt;stroke-linejoin:miter;stroke-opacity:1" d="M 122.344,493.039 106.681,484.337 z" id="boundary" inkscape:connector-curvature="0" />
	<path style="fill:none;stroke:red;stroke-width:1px;stroke-linecap:butt;stroke-linejoin:miter;stroke-opacity:1" d="M 131.046,47.5088 146.709,38.807 z" id="boundary" inkscape:connector-curvature="0" />
	<path style="fill:none;stroke:red;stroke-width:1px;stroke-linecap:butt;stroke-linejoin:miter;stroke-opacity:1" d="M 136.267,505.221 122.344,493.039 z" id="boundary" inkscape:connector-curvature="0" />
	<path style="fill:none;stroke:red;stroke-width:1px;stroke-linecap:butt;stroke-linejoin:miter;stroke-opacity:1" d="M 146.709,38.807 162.372,30.1053 z" id="boundary" inkscape:connector-curvature="0" />
	<path style="fill:none;stroke:red;stroke-width:1px;stroke-linecap:butt;stroke-linejoin:miter;stroke-opacity:1" d="M 169.333,519.144 151.93,513.923 z" id="boundary" inkscape:connector-curvature="0" />
	<path style="fill:none;stroke:red;stroke-width:1px;stroke-linecap:butt;stroke-linejoin:miter;stroke-opacity:1" d="M 151.93,513.923 136.267,505.221 z" id="boundary" inkscape:connector-curvature="0" />
	<path style="fill:none;stroke:red;stroke-width:1px;stroke-linecap:butt;stroke-linejoin:miter;stroke-opacity:1" d="M 178.035,21.4035 195.439,21.4035 z" id="boundary" inkscape:connector-curvature="0" />
	<path style="fill:none;stroke:red;stroke-width:1px;stroke-linecap:butt;stroke-linejoin:miter;stroke-opacity:1" d="M 178.035,21.4035 162.372,30.1053 z" id="boundary" inkscape:connector-curvature="0" />
	<path style="fill:none;stroke:red;stroke-width:1px;stroke-linecap:butt;stroke-linejoin:miter;stroke-opacity:1" d="M 184.996,527.846 169.333,519.144 z" id="boundary" inkscape:connector-curvature="0" />
	<path style="fill:none;stroke:red;stroke-width:1px;stroke-linecap:butt;stroke-linejoin:miter;stroke-opacity:1" d="M 228.505,12.7018 245.909,12.7018 z" id="boundary" inkscape:connector-curvature="0" />
	<path style="fill:none;stroke:red;stroke-width:1px;stroke-linecap:butt;stroke-linejoin:miter;stroke-opacity:1" d="M 200.66,536.547 184.996,527.846 z" id="boundary" inkscape:connector-curvature="0" />
	<path style="fill:none;stroke:red;stroke-width:1px;stroke-linecap:butt;stroke-linejoin:miter;stroke-opacity:1" d="M 211.102,12.7018 228.505,12.7018 z" id="boundary" inkscape:connector-curvature="0" />
	<path style="fill:none;stroke:red;stroke-width:1px;stroke-linecap:butt;stroke-linejoin:miter;stroke-opacity:1" d="M 211.102,12.7018 195.439,21.4035 z" id="boundary" inkscape:connector-curvature="0" />
	<path style="fill:none;stroke:red;stroke-width:1px;stroke-linecap:butt;stroke-linejoin:miter;stroke-opacity:1" d="M 218.063,536.547 200.66,536.547 z" id="boundary" inkscape:connector-curvature="0" />
	<path style="fill:none;stroke:red;stroke-width:1px;stroke-linecap:butt;stroke-linejoin:miter;stroke-opacity:1" d="M 235.467,536.547 218.063,536.547 z" id="boundary" inkscape:connector-curvature="0" />
	<path style="fill:none;stroke:red;stroke-width:1px;stroke-linecap:butt;stroke-linejoin:miter;stroke-opacity:1" d="M 251.13,545.249 235.467,536.547 z" id="boundary" inkscape:connector-curvature="0" />
	<path style="fill:none;stroke:red;stroke-width:1px;stroke-linecap:butt;stroke-linejoin:miter;stroke-opacity:1" d="M 463.453,94.4982 472.154,110.161 z" id="boundary" inkscape:connector-curvature="0" />
	<path style="fill:none;stroke:red;stroke-width:1px;stroke-linecap:butt;stroke-linejoin:miter;stroke-opacity:1" d="M 472.154,110.161 479.116,127.565 z" id="boundary" inkscape:connector-curvature="0" />
	<path style="fill:none;stroke:red;stroke-width:1px;stroke-linecap:butt;stroke-linejoin:miter;stroke-opacity:1" d="M 261.572,4 278.975,4 z" id="boundary" inkscape:connector-curvature="0" />
	<path style="fill:none;stroke:red;stroke-width:1px;stroke-linecap:butt;stroke-linejoin:miter;stroke-opacity:1" d="M 261.572,4 245.909,12.7018 z" id="boundary" inkscape:connector-curvature="0" />
	<path style="fill:none;stroke:red;stroke-width:1px;stroke-linecap:butt;stroke-linejoin:miter;stroke-opacity:1" d="M 268.533,545.249 251.13,545.249 z" id="boundary" inkscape:connector-curvature="0" />
	<path style="fill:none;stroke:red;stroke-width:1px;stroke-linecap:butt;stroke-linejoin:miter;stroke-opacity:1" d="M 278.975,4 296.379,4 z" id="boundary" inkscape:connector-curvature="0" />
	<path style="fill:none;stroke:red;stroke-width:1px;stroke-linecap:butt;stroke-linejoin:miter;stroke-opacity:1" d="M 285.937,545.249 268.533,545.249 z" id="boundary" inkscape:connector-curvature="0" />
	<path style="fill:none;stroke:red;stroke-width:1px;stroke-linecap:butt;stroke-linejoin:miter;stroke-opacity:1" d="M 331.186,4 313.782,4 z" id="boundary" inkscape:connector-curvature="0" />
	<path style="fill:none;stroke:red;stroke-width:1px;stroke-linecap:butt;stroke-linejoin:miter;stroke-opacity:1" d="M 348.589,4 331.186,4 z" id="boundary" inkscape:connector-curvature="0" />
	<path style="fill:none;stroke:red;stroke-width:1px;stroke-linecap:butt;stroke-linejoin:miter;stroke-opacity:1" d="M 319.004,536.547 303.34,545.249 z" id="boundary" inkscape:connector-curvature="0" />
	<path style="fill:none;stroke:red;stroke-width:1px;stroke-linecap:butt;stroke-linejoin:miter;stroke-opacity:1" d="M 303.34,545.249 285.937,545.249 z" id="boundary" inkscape:connector-curvature="0" />
	<path style="fill:none;stroke:red;stroke-width:1px;stroke-linecap:butt;stroke-linejoin:miter;stroke-opacity:1" d="M 365.993,4 348.589,4 z" id="boundary" inkscape:connector-curvature="0" />
	<path style="fill:none;stroke:red;stroke-width:1px;stroke-linecap:butt;stroke-linejoin:miter;stroke-opacity:1" d="M 336.407,536.547 319.004,536.547 z" id="boundary" inkscape:connector-curvature="0" />
	<path style="fill:none;stroke:red;stroke-width:1px;stroke-linecap:butt;stroke-linejoin:miter;stroke-opacity:1" d="M 463.453,94.4982 458.232,77.0947 z" id="boundary" inkscape:connector-curvature="0" />
	<path style="fill:none;stroke:red;stroke-width:1px;stroke-linecap:butt;stroke-linejoin:miter;stroke-opacity:1" d="M 383.396,4 365.993,4 z" id="boundary" inkscape:connector-curvature="0" />
	<path style="fill:none;stroke:red;stroke-width:1px;stroke-linecap:butt;stroke-linejoin:miter;stroke-opacity:1" d="M 353.811,536.547 336.407,536.547 z" id="boundary" inkscape:connector-curvature="0" />
	<path style="fill:none;stroke:red;stroke-width:1px;stroke-linecap:butt;stroke-linejoin:miter;stroke-opacity:1" d="M 458.232,59.6912 458.232,77.0947 z" id="boundary" inkscape:connector-curvature="0" />
	<path style="fill:none;stroke:red;stroke-width:1px;stroke-linecap:butt;stroke-linejoin:miter;stroke-opacity:1" d="M 371.214,536.547 353.811,536.547 z" id="boundary" inkscape:connector-curvature="0" />
	<path style="fill:none;stroke:red;stroke-width:1px;stroke-linecap:butt;stroke-linejoin:miter;stroke-opacity:1" d="M 386.877,527.846 371.214,536.547 z" id="boundary" inkscape:connector-curvature="0" />
	<path style="fill:none;stroke:red;stroke-width:1px;stroke-linecap:butt;stroke-linejoin:miter;stroke-opacity:1" d="M 454.751,42.2877 447.789,24.8842 z" id="boundary" inkscape:connector-curvature="0" />
	<path style="fill:none;stroke:red;stroke-width:1px;stroke-linecap:butt;stroke-linejoin:miter;stroke-opacity:1" d="M 447.789,24.8842 433.867,12.7018 z" id="boundary" inkscape:connector-curvature="0" />
	<path style="fill:none;stroke:red;stroke-width:1px;stroke-linecap:butt;stroke-linejoin:miter;stroke-opacity:1" d="M 404.281,527.846 386.877,527.846 z" id="boundary" inkscape:connector-curvature="0" />
	<path style="fill:none;stroke:red;stroke-width:1px;stroke-linecap:butt;stroke-linejoin:miter;stroke-opacity:1" d="M 400.8,4 383.396,4 z" id="boundary" inkscape:connector-curvature="0" />
	<path style="fill:none;stroke:red;stroke-width:1px;stroke-linecap:butt;stroke-linejoin:miter;stroke-opacity:1" d="M 418.204,4 433.867,12.7018 z" id="boundary" inkscape:connector-curvature="0" />
	<path style="fill:none;stroke:red;stroke-width:1px;stroke-linecap:butt;stroke-linejoin:miter;stroke-opacity:1" d="M 418.204,4 400.8,4 z" id="boundary" inkscape:connector-curvature="0" />
	<path style="fill:none;stroke:red;stroke-width:1px;stroke-linecap:butt;stroke-linejoin:miter;stroke-opacity:1" d="M 421.684,522.625 404.281,527.846 z" id="boundary" inkscape:connector-curvature="0" />
	<path style="fill:none;stroke:red;stroke-width:1px;stroke-linecap:butt;stroke-linejoin:miter;stroke-opacity:1" d="M 458.232,59.6912 454.751,42.2877 z" id="boundary" inkscape:connector-curvature="0" />
	<path style="fill:none;stroke:red;stroke-width:1px;stroke-linecap:butt;stroke-linejoin:miter;stroke-opacity:1" d="M 439.088,513.923 421.684,522.625 z" id="boundary" inkscape:connector-curvature="0" />
	<path style="fill:none;stroke:red;stroke-width:1px;stroke-linecap:butt;stroke-linejoin:miter;stroke-opacity:1" d="M 313.782,4 296.379,4 z" id="boundary" inkscape:connector-curvature="0" />
	<path style="fill:none;stroke:red;stroke-width:1px;stroke-linecap:butt;stroke-linejoin:miter;stroke-opacity:1" d="M 456.491,510.442 439.088,513.923 z" id="boundary" inkscape:connector-curvature="0" />
	<path style="fill:none;stroke:red;stroke-width:1px;stroke-linecap:butt;stroke-linejoin:miter;stroke-opacity:1" d="M 470.414,500 456.491,510.442 z" id="boundary" inkscape:connector-curvature="0" />
	<path style="fill:none;stroke:red;stroke-width:1px;stroke-linecap:butt;stroke-linejoin:miter;stroke-opacity:1" d="M 722.765,319.004 738.428,310.302 z" id="boundary" inkscape:connector-curvature="0" />
	<path style="fill:none;stroke:red;stroke-width:1px;stroke-linecap:butt;stroke-linejoin:miter;stroke-opacity:1" d="M 738.428,310.302 755.832,315.523 z" id="boundary" inkscape:connector-curvature="0" />
	<path style="fill:none;stroke:red;stroke-width:1px;stroke-linecap:butt;stroke-linejoin:miter;stroke-opacity:1" d="M 484.337,406.021 484.337,388.618 z" id="boundary" inkscape:connector-curvature="0" />
	<path style="fill:none;stroke:red;stroke-width:1px;stroke-linecap:butt;stroke-linejoin:miter;stroke-opacity:1" d="M 484.337,423.425 484.337,406.021 z" id="boundary" inkscape:connector-curvature="0" />
	<path style="fill:none;stroke:red;stroke-width:1px;stroke-linecap:butt;stroke-linejoin:miter;stroke-opacity:1" d="M 484.337,440.828 484.337,423.425 z" id="boundary" inkscape:connector-curvature="0" />
	<path style="fill:none;stroke:red;stroke-width:1px;stroke-linecap:butt;stroke-linejoin:miter;stroke-opacity:1" d="M 484.337,388.618 493.039,362.512 z" id="boundary" inkscape:connector-curvature="0" />
	<path style="fill:none;stroke:red;stroke-width:1px;stroke-linecap:butt;stroke-linejoin:miter;stroke-opacity:1" d="M 484.337,440.828 484.337,458.232 z" id="boundary" inkscape:connector-curvature="0" />
	<path style="fill:none;stroke:red;stroke-width:1px;stroke-linecap:butt;stroke-linejoin:miter;stroke-opacity:1" d="M 508.702,353.811 493.039,362.512 z" id="boundary" inkscape:connector-curvature="0" />
	<path style="fill:none;stroke:red;stroke-width:1px;stroke-linecap:butt;stroke-linejoin:miter;stroke-opacity:1" d="M 484.337,475.635 470.414,500 z" id="boundary" inkscape:connector-curvature="0" />
	<path style="fill:none;stroke:red;stroke-width:1px;stroke-linecap:butt;stroke-linejoin:miter;stroke-opacity:1" d="M 484.337,475.635 484.337,458.232 z" id="boundary" inkscape:connector-curvature="0" />
	<path style="fill:none;stroke:red;stroke-width:1px;stroke-linecap:butt;stroke-linejoin:miter;stroke-opacity:1" d="M 526.105,353.811 543.509,353.811 z" id="boundary" inkscape:connector-curvature="0" />
	<path style="fill:none;stroke:red;stroke-width:1px;stroke-linecap:butt;stroke-linejoin:miter;stroke-opacity:1" d="M 508.702,353.811 526.105,353.811 z" id="boundary" inkscape:connector-curvature="0" />
	<path style="fill:none;stroke:red;stroke-width:1px;stroke-linecap:butt;stroke-linejoin:miter;stroke-opacity:1" d="M 500,157.151 487.818,143.228 z" id="boundary" inkscape:connector-curvature="0" />
	<path style="fill:none;stroke:red;stroke-width:1px;stroke-linecap:butt;stroke-linejoin:miter;stroke-opacity:1" d="M 560.912,353.811 543.509,353.811 z" id="boundary" inkscape:connector-curvature="0" />
	<path style="fill:none;stroke:red;stroke-width:1px;stroke-linecap:butt;stroke-linejoin:miter;stroke-opacity:1" d="M 517.404,160.632 500,157.151 z" id="boundary" inkscape:connector-curvature="0" />
	<path style="fill:none;stroke:red;stroke-width:1px;stroke-linecap:butt;stroke-linejoin:miter;stroke-opacity:1" d="M 534.807,160.632 517.404,160.632 z" id="boundary" inkscape:connector-curvature="0" />
	<path style="fill:none;stroke:red;stroke-width:1px;stroke-linecap:butt;stroke-linejoin:miter;stroke-opacity:1" d="M 552.211,160.632 534.807,160.632 z" id="boundary" inkscape:connector-curvature="0" />
	<path style="fill:none;stroke:red;stroke-width:1px;stroke-linecap:butt;stroke-linejoin:miter;stroke-opacity:1" d="M 560.912,353.811 578.316,348.589 z" id="boundary" inkscape:connector-curvature="0" />
	<path style="fill:none;stroke:red;stroke-width:1px;stroke-linecap:butt;stroke-linejoin:miter;stroke-opacity:1" d="M 569.614,160.632 552.211,160.632 z" id="boundary" inkscape:connector-curvature="0" />
	<path style="fill:none;stroke:red;stroke-width:1px;stroke-linecap:butt;stroke-linejoin:miter;stroke-opacity:1" d="M 578.316,348.589 592.239,336.407 z" id="boundary" inkscape:connector-curvature="0" />
	<path style="fill:none;stroke:red;stroke-width:1px;stroke-linecap:butt;stroke-linejoin:miter;stroke-opacity:1" d="M 592.239,336.407 607.902,327.705 z" id="boundary" inkscape:connector-curvature="0" />
	<path style="fill:none;stroke:red;stroke-width:1px;stroke-linecap:butt;stroke-linejoin:miter;stroke-opacity:1" d="M 587.018,160.632 569.614,160.632 z" id="boundary" inkscape:connector-curvature="0" />
	<path style="fill:none;stroke:red;stroke-width:1px;stroke-linecap:butt;stroke-linejoin:miter;stroke-opacity:1" d="M 640.968,319.004 623.565,319.004 z" id="boundary" inkscape:connector-curvature="0" />
	<path style="fill:none;stroke:red;stroke-width:1px;stroke-linecap:butt;stroke-linejoin:miter;stroke-opacity:1" d="M 623.565,319.004 607.902,327.705 z" id="boundary" inkscape:connector-curvature="0" />
	<path style="fill:none;stroke:red;stroke-width:1px;stroke-linecap:butt;stroke-linejoin:miter;stroke-opacity:1" d="M 604.421,164.112 614.863,178.035 z" id="boundary" inkscape:connector-curvature="0" />
	<path style="fill:none;stroke:red;stroke-width:1px;stroke-linecap:butt;stroke-linejoin:miter;stroke-opacity:1" d="M 604.421,164.112 587.018,160.632 z" id="boundary" inkscape:connector-curvature="0" />
	<path style="fill:none;stroke:red;stroke-width:1px;stroke-linecap:butt;stroke-linejoin:miter;stroke-opacity:1" d="M 722.765,319.004 707.102,310.302 z" id="boundary" inkscape:connector-curvature="0" />
	<path style="fill:none;stroke:red;stroke-width:1px;stroke-linecap:butt;stroke-linejoin:miter;stroke-opacity:1" d="M 632.267,178.035 649.67,183.256 z" id="boundary" inkscape:connector-curvature="0" />
	<path style="fill:none;stroke:red;stroke-width:1px;stroke-linecap:butt;stroke-linejoin:miter;stroke-opacity:1" d="M 632.267,178.035 614.863,178.035 z" id="boundary" inkscape:connector-curvature="0" />
	<path style="fill:none;stroke:red;stroke-width:1px;stroke-linecap:butt;stroke-linejoin:miter;stroke-opacity:1" d="M 674.035,305.081 656.632,310.302 z" id="boundary" inkscape:connector-curvature="0" />
	<path style="fill:none;stroke:red;stroke-width:1px;stroke-linecap:butt;stroke-linejoin:miter;stroke-opacity:1" d="M 707.102,310.302 691.439,301.6 z" id="boundary" inkscape:connector-curvature="0" />
	<path style="fill:none;stroke:red;stroke-width:1px;stroke-linecap:butt;stroke-linejoin:miter;stroke-opacity:1" d="M 691.439,301.6 674.035,305.081 z" id="boundary" inkscape:connector-curvature="0" />
	<path style="fill:none;stroke:red;stroke-width:1px;stroke-linecap:butt;stroke-linejoin:miter;stroke-opacity:1" d="M 656.632,310.302 640.968,319.004 z" id="boundary" inkscape:connector-curvature="0" />
	<path style="fill:none;stroke:red;stroke-width:1px;stroke-linecap:butt;stroke-linejoin:miter;stroke-opacity:1" d="M 665.333,191.958 649.67,183.256 z" id="boundary" inkscape:connector-curvature="0" />
	<path style="fill:none;stroke:red;stroke-width:1px;stroke-linecap:butt;stroke-linejoin:miter;stroke-opacity:1" d="M 682.737,195.439 665.333,191.958 z" id="boundary" inkscape:connector-curvature="0" />
	<path style="fill:none;stroke:red;stroke-width:1px;stroke-linecap:butt;stroke-linejoin:miter;stroke-opacity:1" d="M 700.14,195.439 682.737,195.439 z" id="boundary" inkscape:connector-curvature="0" />
	<path style="fill:none;stroke:red;stroke-width:1px;stroke-linecap:butt;stroke-linejoin:miter;stroke-opacity:1" d="M 715.804,186.737 733.207,186.737 z" id="boundary" inkscape:connector-curvature="0" />
	<path style="fill:none;stroke:red;stroke-width:1px;stroke-linecap:butt;stroke-linejoin:miter;stroke-opacity:1" d="M 715.804,186.737 700.14,195.439 z" id="boundary" inkscape:connector-curvature="0" />
	<path style="fill:none;stroke:red;stroke-width:1px;stroke-linecap:butt;stroke-linejoin:miter;stroke-opacity:1" d="M 755.832,315.523 773.235,319.004 z" id="boundary" inkscape:connector-curvature="0" />
	<path style="fill:none;stroke:red;stroke-width:1px;stroke-linecap:butt;stroke-linejoin:miter;stroke-opacity:1" d="M 750.611,186.737 733.207,186.737 z" id="boundary" inkscape:connector-curvature="0" />
	<path style="fill:none;stroke:red;stroke-width:1px;stroke-linecap:butt;stroke-linejoin:miter;stroke-opacity:1" d="M 766.274,178.035 750.611,186.737 z" id="boundary" inkscape:connector-curvature="0" />
	<path style="fill:none;stroke:red;stroke-width:1px;stroke-linecap:butt;stroke-linejoin:miter;stroke-opacity:1" d="M 773.235,319.004 790.639,319.004 z" id="boundary" inkscape:connector-curvature="0" />
	<path style="fill:none;stroke:red;stroke-width:1px;stroke-linecap:butt;stroke-linejoin:miter;stroke-opacity:1" d="M 781.937,169.333 799.34,169.333 z" id="boundary" inkscape:connector-curvature="0" />
	<path style="fill:none;stroke:red;stroke-width:1px;stroke-linecap:butt;stroke-linejoin:miter;stroke-opacity:1" d="M 781.937,169.333 766.274,178.035 z" id="boundary" inkscape:connector-curvature="0" />
	<path style="fill:none;stroke:red;stroke-width:1px;stroke-linecap:butt;stroke-linejoin:miter;stroke-opacity:1" d="M 790.639,319.004 806.302,310.302 z" id="boundary" inkscape:connector-curvature="0" />
	<path style="fill:none;stroke:red;stroke-width:1px;stroke-linecap:butt;stroke-linejoin:miter;stroke-opacity:1" d="M 839.368,301.6 856.772,301.6 z" id="boundary" inkscape:connector-curvature="0" />
	<path style="fill:none;stroke:red;stroke-width:1px;stroke-linecap:butt;stroke-linejoin:miter;stroke-opacity:1" d="M 816.744,169.333 799.34,169.333 z" id="boundary" inkscape:connector-curvature="0" />
	<path style="fill:none;stroke:red;stroke-width:1px;stroke-linecap:butt;stroke-linejoin:miter;stroke-opacity:1" d="M 821.965,301.6 839.368,301.6 z" id="boundary" inkscape:connector-curvature="0" />
	<path style="fill:none;stroke:red;stroke-width:1px;stroke-linecap:butt;stroke-linejoin:miter;stroke-opacity:1" d="M 821.965,301.6 806.302,310.302 z" id="boundary" inkscape:connector-curvature="0" />
	<path style="fill:none;stroke:red;stroke-width:1px;stroke-linecap:butt;stroke-linejoin:miter;stroke-opacity:1" d="M 834.147,169.333 816.744,169.333 z" id="boundary" inkscape:connector-curvature="0" />
	<path style="fill:none;stroke:red;stroke-width:1px;stroke-linecap:butt;stroke-linejoin:miter;stroke-opacity:1" d="M 856.772,301.6 874.175,301.6 z" id="boundary" inkscape:connector-curvature="0" />
	<path style="fill:none;stroke:red;stroke-width:1px;stroke-linecap:butt;stroke-linejoin:miter;stroke-opacity:1" d="M 851.551,169.333 867.214,178.035 z" id="boundary" inkscape:connector-curvature="0" />
	<path style="fill:none;stroke:red;stroke-width:1px;stroke-linecap:butt;stroke-linejoin:miter;stroke-opacity:1" d="M 851.551,169.333 834.147,169.333 z" id="boundary" inkscape:connector-curvature="0" />
	<path style="fill:none;stroke:red;stroke-width:1px;stroke-linecap:butt;stroke-linejoin:miter;stroke-opacity:1" d="M 907.242,292.898 922.905,301.6 z" id="boundary" inkscape:connector-curvature="0" />
	<path style="fill:none;stroke:red;stroke-width:1px;stroke-linecap:butt;stroke-linejoin:miter;stroke-opacity:1" d="M 884.618,183.256 867.214,178.035 z" id="boundary" inkscape:connector-curvature="0" />
	<path style="fill:none;stroke:red;stroke-width:1px;stroke-linecap:butt;stroke-linejoin:miter;stroke-opacity:1" d="M 889.839,292.898 874.175,301.6 z" id="boundary" inkscape:connector-curvature="0" />
	<path style="fill:none;stroke:red;stroke-width:1px;stroke-linecap:butt;stroke-linejoin:miter;stroke-opacity:1" d="M 902.021,186.737 884.618,183.256 z" id="boundary" inkscape:connector-curvature="0" />
	<path style="fill:none;stroke:red;stroke-width:1px;stroke-linecap:butt;stroke-linejoin:miter;stroke-opacity:1" d="M 907.242,292.898 889.839,292.898 z" id="boundary" inkscape:connector-curvature="0" />
	<path style="fill:none;stroke:red;stroke-width:1px;stroke-linecap:butt;stroke-linejoin:miter;stroke-opacity:1" d="M 919.425,181.516 936.828,183.256 z" id="boundary" inkscape:connector-curvature="0" />
	<path style="fill:none;stroke:red;stroke-width:1px;stroke-linecap:butt;stroke-linejoin:miter;stroke-opacity:1" d="M 936.828,183.256 952.491,191.958 z" id="boundary" inkscape:connector-curvature="0" />
	<path style="fill:none;stroke:red;stroke-width:1px;stroke-linecap:butt;stroke-linejoin:miter;stroke-opacity:1" d="M 922.905,301.6 940.309,299.86 z" id="boundary" inkscape:connector-curvature="0" />
	<path style="fill:none;stroke:red;stroke-width:1px;stroke-linecap:butt;stroke-linejoin:miter;stroke-opacity:1" d="M 902.021,186.737 919.425,181.516 z" id="boundary" inkscape:connector-curvature="0" />
	<path style="fill:none;stroke:red;stroke-width:1px;stroke-linecap:butt;stroke-linejoin:miter;stroke-opacity:1" d="M 954.232,284.196 940.309,299.86 z" id="boundary" inkscape:connector-curvature="0" />
	<path style="fill:none;stroke:red;stroke-width:1px;stroke-linecap:butt;stroke-linejoin:miter;stroke-opacity:1" d="M 966.414,204.14 952.491,191.958 z" id="boundary" inkscape:connector-curvature="0" />
	<path style="fill:none;stroke:red;stroke-width:1px;stroke-linecap:butt;stroke-linejoin:miter;stroke-opacity:1" d="M 968.154,272.014 954.232,284.196 z" id="boundary" inkscape:connector-curvature="0" />
	<path style="fill:none;stroke:red;stroke-width:1px;stroke-linecap:butt;stroke-linejoin:miter;stroke-opacity:1" d="M 980.337,258.091 968.154,272.014 z" id="boundary" inkscape:connector-curvature="0" />
	<path style="fill:none;stroke:red;stroke-width:1px;stroke-linecap:butt;stroke-linejoin:miter;stroke-opacity:1" d="M 982.077,212.842 966.414,204.14 z" id="boundary" inkscape:connector-curvature="0" />
	<path style="fill:none;stroke:red;stroke-width:1px;stroke-linecap:butt;stroke-linejoin:miter;stroke-opacity:1" d="M 996,249.389 980.337,258.091 z" id="boundary" inkscape:connector-curvature="0" />
	<path style="fill:none;stroke:red;stroke-width:1px;stroke-linecap:butt;stroke-linejoin:miter;stroke-opacity:1" d="M 996,225.025 982.077,212.842 z" id="boundary" inkscape:connector-curvature="0" />
	<path style="fill:none;stroke:red;stroke-width:1px;stroke-linecap:butt;stroke-linejoin:miter;stroke-opacity:1" d="M 996,249.389 996,225.025 z" id="boundary" inkscape:connector-curvature="0" />
	<circle cx="4" cy="218.063" r="4" fill="#0" id="circle0"/>
	<circle cx="4" cy="235.467" r="4" fill="#0" id="circle1"/>
	<circle cx="4" cy="252.87" r="4" fill="#0" id="circle2"/>
	<circle cx="4" cy="270.274" r="4" fill="#0" id="circle3"/>
	<circle cx="4" cy="287.677" r="4" fill="#0" id="circle4"/>
	<circle cx="4" cy="305.081" r="4" fill="#0" id="circle5"/>
	<circle cx="4" cy="322.484" r="4" fill="#0" id="circle6"/>
	<circle cx="12.7018" cy="191.958" r="4" fill="#0" id="circle7"/>
	<circle cx="12.7018" cy="338.147" r="4" fill="#0" id="circle8"/>
	<circle cx="12.7018" cy="355.551" r="4" fill="#0" id="circle9"/>
	<circle cx="21.4035" cy="174.554" r="4" fill="#0" id="circle10"/>
	<circle cx="21.4035" cy="371.214" r="4" fill="#0" id="circle11"/>
	<circle cx="26.6246" cy="388.618" r="4" fill="#0" id="circle12"/>
	<circle cx="30.1053" cy="157.151" r="4" fill="#0" id="circle13"/>
	<circle cx="35.3263" cy="404.281" r="4" fill="#0" id="circle14"/>
	<circle cx="38.807" cy="139.747" r="4" fill="#0" id="circle15"/>
	<circle cx="47.5088" cy="418.204" r="4" fill="#0" id="circle16"/>
	<circle cx="52.7298" cy="125.825" r="4" fill="#0" id="circle17"/>
	<circle cx="56.2105" cy="433.867" r="4" fill="#0" id="circle18"/>
	<circle cx="61.4316" cy="108.421" r="4" fill="#0" id="circle19"/>
	<circle cx="64.9123" cy="449.53" r="4" fill="#0" id="circle20"/>
	<circle cx="75.3544" cy="94.4982" r="4" fill="#0" id="circle21"/>
	<circle cx="80.5754" cy="458.232" r="4" fill="#0" id="circle22"/>
	<circle cx="89.2772" cy="82.3158" r="4" fill="#0" id="circle23"/>
	<circle cx="92.7579" cy="472.154" r="4" fill="#0" id="circle24"/>
	<circle cx="101.46" cy="68.393" r="4" fill="#0" id="circle25"/>
	<circle cx="106.681" cy="484.337" r="4" fill="#0" id="circle26"/>
	<circle cx="115.382" cy="56.2105" r="4" fill="#0" id="circle27"/>
	<circle cx="122.344" cy="493.039" r="4" fill="#0" id="circle28"/>
	<circle cx="131.046" cy="47.5088" r="4" fill="#0" id="circle29"/>
	<circle cx="136.267" cy="505.221" r="4" fill="#0" id="circle30"/>
	<circle cx="146.709" cy="38.807" r="4" fill="#0" id="circle31"/>
	<circle cx="151.93" cy="513.923" r="4" fill="#0" id="circle32"/>
	<circle cx="162.372" cy="30.1053" r="4" fill="#0" id="circle33"/>
	<circle cx="169.333" cy="519.144" r="4" fill="#0" id="circle34"/>
	<circle cx="178.035" cy="21.4035" r="4" fill="#0" id="circle35"/>
	<circle cx="184.996" cy="527.846" r="4" fill="#0" id="circle36"/>
	<circle cx="195.439" cy="21.4035" r="4" fill="#0" id="circle37"/>
	<circle cx="200.66" cy="536.547" r="4" fill="#0" id="circle38"/>
	<circle cx="211.102" cy="12.7018" r="4" fill="#0" id="circle39"/>
	<circle cx="218.063" cy="536.547" r="4" fill="#0" id="circle40"/>
	<circle cx="228.505" cy="12.7018" r="4" fill="#0" id="circle41"/>
	<circle cx="235.467" cy="536.547" r="4" fill="#0" id="circle42"/>
	<circle cx="245.909" cy="12.7018" r="4" fill="#0" id="circle43"/>
	<circle cx="251.13" cy="545.249" r="4" fill="#0" id="circle44"/>
	<circle cx="261.572" cy="4" r="4" fill="#0" id="circle45"/>
	<circle cx="268.533" cy="545.249" r="4" fill="#0" id="circle46"/>
	<circle cx="278.975" cy="4" r="4" fill="#0" id="circle47"/>
	<circle cx="285.937" cy="545.249" r="4" fill="#0" id="circle48"/>
	<circle cx="296.379" cy="4" r="4" fill="#0" id="circle49"/>
	<circle cx="303.34" cy="545.249" r="4" fill="#0" id="circle50"/>
	<circle cx="313.782" cy="4" r="4" fill="#0" id="circle51"/>
	<circle cx="319.004" cy="536.547" r="4" fill="#0" id="circle52"/>
	<circle cx="331.186" cy="4" r="4" fill="#0" id="circle53"/>
	<circle cx="336.407" cy="536.547" r="4" fill="#0" id="circle54"/>
	<circle cx="348.589" cy="4" r="4" fill="#0" id="circle55"/>
	<circle cx="353.811" cy="536.547" r="4" fill="#0" id="circle56"/>
	<circle cx="365.993" cy="4" r="4" fill="#0" id="circle57"/>
	<circle cx="371.214" cy="536.547" r="4" fill="#0" id="circle58"/>
	<circle cx="383.396" cy="4" r="4" fill="#0" id="circle59"/>
	<circle cx="386.877" cy="527.846" r="4" fill="#0" id="circle60"/>
	<circle cx="400.8" cy="4" r="4" fill="#0" id="circle61"/>
	<circle cx="404.281" cy="527.846" r="4" fill="#0" id="circle62"/>
	<circle cx="418.204" cy="4" r="4" fill="#0" id="circle63"/>
	<circle cx="421.684" cy="522.625" r="4" fill="#0" id="circle64"/>
	<circle cx="433.867" cy="12.7018" r="4" fill="#0" id="circle65"/>
	<circle cx="439.088" cy="513.923" r="4" fill="#0" id="circle66"/>
	<circle cx="447.789" cy="24.8842" r="4" fill="#0" id="circle67"/>
	<circle cx="454.751" cy="42.2877" r="4" fill="#0" id="circle68"/>
	<circle cx="456.491" cy="510.442" r="4" fill="#0" id="circle69"/>
	<circle cx="458.232" cy="59.6912" r="4" fill="#0" id="circle70"/>
	<circle cx="458.232" cy="77.0947" r="4" fill="#0" id="circle71"/>
	<circle cx="463.453" cy="94.4982" r="4" fill="#0" id="circle72"/>
	<circle cx="470.414" cy="500" r="4" fill="#0" id="circle73"/>
	<circle cx="472.154" cy="110.161" r="4" fill="#0" id="circle74"/>
	<circle cx="479.116" cy="127.565" r="4" fill="#0" id="circle75"/>
	<circle cx="484.337" cy="388.618" r="4" fill="#0" id="circle76"/>
	<circle cx="484.337" cy="406.021" r="4" fill="#0" id="circle77"/>
	<circle cx="484.337" cy="423.425" r="4" fill="#0" id="circle78"/>
	<circle cx="484.337" cy="440.828" r="4" fill="#0" id="circle79"/>
	<circle cx="484.337" cy="458.232" r="4" fill="#0" id="circle80"/>
	<circle cx="484.337" cy="475.635" r="4" fill="#0" id="circle81"/>
	<circle cx="487.818" cy="143.228" r="4" fill="#0" id="circle82"/>
	<circle cx="493.039" cy="362.512" r="4" fill="#0" id="circle83"/>
	<circle cx="500" cy="157.151" r="4" fill="#0" id="circle84"/>
	<circle cx="508.702" cy="353.811" r="4" fill="#0" id="circle85"/>
	<circle cx="517.404" cy="160.632" r="4" fill="#0" id="circle86"/>
	<circle cx="526.105" cy="353.811" r="4" fill="#0" id="circle87"/>
	<circle cx="534.807" cy="160.632" r="4" fill="#0" id="circle88"/>
	<circle cx="543.509" cy="353.811" r="4" fill="#0" id="circle89"/>
	<circle cx="552.211" cy="160.632" r="4" fill="#0" id="circle90"/>
	<circle cx="560.912" cy="353.811" r="4" fill="#0" id="circle91"/>
	<circle cx="569.614" cy="160.632" r="4" fill="#0" id="circle92"/>
	<circle cx="578.316" cy="348.589" r="4" fill="#0" id="circle93"/>
	<circle cx="587.018" cy="160.632" r="4" fill="#0" id="circle94"/>
	<circle cx="592.239" cy="336.407" r="4" fill="#0" id="circle95"/>
	<circle cx="604.421" cy="164.112" r="4" fill="#0" id="circle96"/>
	<circle cx="607.902" cy="327.705" r="4" fill="#0" id="circle97"/>
	<circle cx="614.863" cy="178.035" r="4" fill="#0" id="circle98"/>
	<circle cx="623.565" cy="319.004" r="4" fill="#0" id="circle99"/>
	<circle cx="632.267" cy="178.035" r="4" fill="#0" id="circle100"/>
	<circle cx="640.968" cy="319.004" r="4" fill="#0" id="circle101"/>
	<circle cx="649.67" cy="183.256" r="4" fill="#0" id="circle102"/>
	<circle cx="656.632" cy="310.302" r="4" fill="#0" id="circle103"/>
	<circle cx="665.333" cy="191.958" r="4" fill="#0" id="circle104"/>
	<circle cx="674.035" cy="305.081" r="4" fill="#0" id="circle105"/>
	<circle cx="682.737" cy="195.439" r="4" fill="#0" id="circle106"/>
	<circle cx="691.439" cy="301.6" r="4" fill="#0" id="circle107"/>
	<circle cx="700.14" cy="195.439" r="4" fill="#0" id="circle108"/>
	<circle cx="707.102" cy="310.302" r="4" fill="#0" id="circle109"/>
	<circle cx="715.804" cy="186.737" r="4" fill="#0" id="circle110"/>
	<circle cx="722.765" cy="319.004" r="4" fill="#0" id="circle111"/>
	<circle cx="733.207" cy="186.737" r="4" fill="#0" id="circle112"/>
	<circle cx="738.428" cy="310.302" r="4" fill="#0" id="circle113"/>
	<circle cx="750.611" cy="186.737" r="4" fill="#0" id="circle114"/>
	<circle cx="755.832" cy="315.523" r="4" fill="#0" id="circle115"/>
	<circle cx="766.274" cy="178.035" r="4" fill="#0" id="circle116"/>
	<circle cx="773.235" cy="319.004" r="4" fill="#0" id="circle117"/>
	<circle cx="781.937" cy="169.333" r="4" fill="#0" id="circle118"/>
	<circle cx="790.639" cy="319.004" r="4" fill="#0" id="circle119"/>
	<circle cx="799.34" cy="169.333" r="4" fill="#0" id="circle120"/>
	<circle cx="806.302" cy="310.302" r="4" fill="#0" id="circle121"/>
	<circle cx="816.744" cy="169.333" r="4" fill="#0" id="circle122"/>
	<circle cx="821.965" cy="301.6" r="4" fill="#0" id="circle123"/>
	<circle cx="834.147" cy="169.333" r="4" fill="#0" id="circle124"/>
	<circle cx="839.368" cy="301.6" r="4" fill="#0" id="circle125"/>
	<circle cx="851.551" cy="169.333" r="4" fill="#0" id="circle126"/>
	<circle cx="856.772" cy="301.6" r="4" fill="#0" id="circle127"/>
	<circle cx="867.214" cy="178.035" r="4" fill="#0" id="circle128"/>
	<circle cx="874.175" cy="301.6" r="4" fill="#0" id="circle129"/>
	<circle cx="884.618" cy="183.256" r="4" fill="#0" id="circle130"/>
	<circle cx="889.839" cy="292.898" r="4" fill="#0" id="circle131"/>
	<circle cx="902.021" cy="186.737" r="4" fill="#0" id="circle132"/>
	<circle cx="907.242" cy="292.898" r="4" fill="#0" id="circle133"/>
	<circle cx="919.425" cy="181.516" r="4" fill="#0" id="circle134"/>
	<circle cx="922.905" cy="301.6" r="4" fill="#0" id="circle135"/>
	<circle cx="936.828" cy="183.256" r="4" fill="#0" id="circle136"/>
	<circle cx="940.309" cy="299.86" r="4" fill="#0" id="circle137"/>
	<circle cx="952.491" cy="191.958" r="4" fill="#0" id="circle138"/>
	<circle cx="954.232" cy="284.196" r="4" fill="#0" id="circle139"/>
	<circle cx="966.414" cy="204.14" r="4" fill="#0" id="circle140"/>
	<circle cx="968.154" cy="272.014" r="4" fill="#0" id="circle141"/>
	<circle cx="980.337" cy="258.091" r="4" fill="#0" id="circle142"/>
	<circle cx="982.077" cy="212.842" r="4" fill="#0" id="circle143"/>
	<circle cx="996" cy="225.025" r="4" fill="#0" id="circle144"/>
	<circle cx="996" cy="249.389" r="4" fill="#0" id="circle145"/>
	</g>
</svg>