<?xml version="1.0" encoding="UTF-8" standalone="no"?>
<!-- Created with CurveBenchmark -->
<svg
	xmlns:dc="http://purl.org/dc/elements/1.1/"
	xmlns:cc="http://creativecommons.org/ns#"
	xmlns:rdf="http://www.w3.org/1999/02/22-rdf-syntax-ns#"
	xmlns:svg="http://www.w3.org/2000/svg"
	xmlns="http://www.w3.org/2000/svg"
	xmlns:sodipodi="http://sodipodi.sourceforge.net/DTD/sodipodi-0.dtd"
	xmlns:inkscape="http://www.inkscape.org/namespaces/inkscape"
	width="1000"
	height="1000"
	id="svg2"
	version="1.1"
	sodipodi:docname="manifold/peel-teddy135.png.txt">
<defs
	id="defs4" />
<metadata
	id="metadata7">
	<rdf:RDF>
		<cc:Work
			rdf:about="">
			<dc:format>image/svg+xml</dc:format>
			<dc:type
				rdf:resource="http://purl.org/dc/dcmitype/StillImage" />
			<dc:title></dc:title>
		</cc:Work>
	</rdf:RDF>
</metadata>
<g
	inkscape:label="Layer 1"
	inkscape:groupmode="layer"
	id="layer1">
	<path style="fill:none;stroke:red;stroke-width:1px;stroke-linecap:butt;stroke-linejoin:miter;stroke-opacity:1" d="M 4,264.011 4,235.749 z" id="boundary" inkscape:connector-curvature="0" />
	<path style="fill:none;stroke:red;stroke-width:1px;stroke-linecap:butt;stroke-linejoin:miter;stroke-opacity:1" d="M 4,235.749 9.65242,207.487 z" id="boundary" inkscape:connector-curvature="0" />
	<path style="fill:none;stroke:red;stroke-width:1px;stroke-linecap:butt;stroke-linejoin:miter;stroke-opacity:1" d="M 60.5242,608.809 60.5242,637.071 z" id="boundary" inkscape:connector-curvature="0" />
	<path style="fill:none;stroke:red;stroke-width:1px;stroke-linecap:butt;stroke-linejoin:miter;stroke-opacity:1" d="M 15.3048,179.225 26.6097,150.963 z" id="boundary" inkscape:connector-curvature="0" />
	<path style="fill:none;stroke:red;stroke-width:1px;stroke-linecap:butt;stroke-linejoin:miter;stroke-opacity:1" d="M 15.3048,179.225 9.65242,207.487 z" id="boundary" inkscape:connector-curvature="0" />
	<path style="fill:none;stroke:red;stroke-width:1px;stroke-linecap:butt;stroke-linejoin:miter;stroke-opacity:1" d="M 9.65242,292.274 4,264.011 z" id="boundary" inkscape:connector-curvature="0" />
	<path style="fill:none;stroke:red;stroke-width:1px;stroke-linecap:butt;stroke-linejoin:miter;stroke-opacity:1" d="M 20.9573,320.536 9.65242,292.274 z" id="boundary" inkscape:connector-curvature="0" />
	<path style="fill:none;stroke:red;stroke-width:1px;stroke-linecap:butt;stroke-linejoin:miter;stroke-opacity:1" d="M 37.9145,122.701 60.5242,100.091 z" id="boundary" inkscape:connector-curvature="0" />
	<path style="fill:none;stroke:red;stroke-width:1px;stroke-linecap:butt;stroke-linejoin:miter;stroke-opacity:1" d="M 37.9145,122.701 26.6097,150.963 z" id="boundary" inkscape:connector-curvature="0" />
	<path style="fill:none;stroke:red;stroke-width:1px;stroke-linecap:butt;stroke-linejoin:miter;stroke-opacity:1" d="M 37.9145,343.145 20.9573,320.536 z" id="boundary" inkscape:connector-curvature="0" />
	<path style="fill:none;stroke:red;stroke-width:1px;stroke-linecap:butt;stroke-linejoin:miter;stroke-opacity:1" d="M 66.1766,422.279 66.1766,450.541 z" id="boundary" inkscape:connector-curvature="0" />
	<path style="fill:none;stroke:red;stroke-width:1px;stroke-linecap:butt;stroke-linejoin:miter;stroke-opacity:1" d="M 66.1766,394.017 66.1766,422.279 z" id="boundary" inkscape:connector-curvature="0" />
	<path style="fill:none;stroke:red;stroke-width:1px;stroke-linecap:butt;stroke-linejoin:miter;stroke-opacity:1" d="M 66.1766,394.017 54.8718,365.755 z" id="boundary" inkscape:connector-curvature="0" />
	<path style="fill:none;stroke:red;stroke-width:1px;stroke-linecap:butt;stroke-linejoin:miter;stroke-opacity:1" d="M 83.1339,77.4815 111.396,66.1766 z" id="boundary" inkscape:connector-curvature="0" />
	<path style="fill:none;stroke:red;stroke-width:1px;stroke-linecap:butt;stroke-linejoin:miter;stroke-opacity:1" d="M 83.1339,77.4815 60.5242,100.091 z" id="boundary" inkscape:connector-curvature="0" />
	<path style="fill:none;stroke:red;stroke-width:1px;stroke-linecap:butt;stroke-linejoin:miter;stroke-opacity:1" d="M 60.5242,637.071 60.5242,665.333 z" id="boundary" inkscape:connector-curvature="0" />
	<path style="fill:none;stroke:red;stroke-width:1px;stroke-linecap:butt;stroke-linejoin:miter;stroke-opacity:1" d="M 37.9145,343.145 54.8718,365.755 z" id="boundary" inkscape:connector-curvature="0" />
	<path style="fill:none;stroke:red;stroke-width:1px;stroke-linecap:butt;stroke-linejoin:miter;stroke-opacity:1" d="M 60.5242,665.333 60.5242,693.595 z" id="boundary" inkscape:connector-curvature="0" />
	<path style="fill:none;stroke:red;stroke-width:1px;stroke-linecap:butt;stroke-linejoin:miter;stroke-opacity:1" d="M 60.5242,693.595 60.5242,721.858 z" id="boundary" inkscape:connector-curvature="0" />
	<path style="fill:none;stroke:red;stroke-width:1px;stroke-linecap:butt;stroke-linejoin:miter;stroke-opacity:1" d="M 60.5242,721.858 60.5242,750.12 z" id="boundary" inkscape:connector-curvature="0" />
	<path style="fill:none;stroke:red;stroke-width:1px;stroke-linecap:butt;stroke-linejoin:miter;stroke-opacity:1" d="M 66.1766,507.066 66.1766,535.328 z" id="boundary" inkscape:connector-curvature="0" />
	<path style="fill:none;stroke:red;stroke-width:1px;stroke-linecap:butt;stroke-linejoin:miter;stroke-opacity:1" d="M 60.5242,750.12 60.5242,778.382 z" id="boundary" inkscape:connector-curvature="0" />
	<path style="fill:none;stroke:red;stroke-width:1px;stroke-linecap:butt;stroke-linejoin:miter;stroke-opacity:1" d="M 66.1766,535.328 66.1766,563.59 z" id="boundary" inkscape:connector-curvature="0" />
	<path style="fill:none;stroke:red;stroke-width:1px;stroke-linecap:butt;stroke-linejoin:miter;stroke-opacity:1" d="M 66.1766,563.59 60.5242,608.809 z" id="boundary" inkscape:connector-curvature="0" />
	<path style="fill:none;stroke:red;stroke-width:1px;stroke-linecap:butt;stroke-linejoin:miter;stroke-opacity:1" d="M 413.801,422.279 436.41,439.236 z" id="boundary" inkscape:connector-curvature="0" />
	<path style="fill:none;stroke:red;stroke-width:1px;stroke-linecap:butt;stroke-linejoin:miter;stroke-opacity:1" d="M 309.231,77.4815 331.84,97.265 z" id="boundary" inkscape:connector-curvature="0" />
	<path style="fill:none;stroke:red;stroke-width:1px;stroke-linecap:butt;stroke-linejoin:miter;stroke-opacity:1" d="M 331.84,97.265 345.972,122.701 z" id="boundary" inkscape:connector-curvature="0" />
	<path style="fill:none;stroke:red;stroke-width:1px;stroke-linecap:butt;stroke-linejoin:miter;stroke-opacity:1" d="M 66.1766,450.541 71.8291,478.803 z" id="boundary" inkscape:connector-curvature="0" />
	<path style="fill:none;stroke:red;stroke-width:1px;stroke-linecap:butt;stroke-linejoin:miter;stroke-opacity:1" d="M 71.8291,478.803 66.1766,507.066 z" id="boundary" inkscape:connector-curvature="0" />
	<path style="fill:none;stroke:red;stroke-width:1px;stroke-linecap:butt;stroke-linejoin:miter;stroke-opacity:1" d="M 492.934,642.724 492.934,687.943 z" id="boundary" inkscape:connector-curvature="0" />
	<path style="fill:none;stroke:red;stroke-width:1px;stroke-linecap:butt;stroke-linejoin:miter;stroke-opacity:1" d="M 71.8291,812.296 60.5242,778.382 z" id="boundary" inkscape:connector-curvature="0" />
	<path style="fill:none;stroke:red;stroke-width:1px;stroke-linecap:butt;stroke-linejoin:miter;stroke-opacity:1" d="M 77.4815,897.083 71.8291,868.821 z" id="boundary" inkscape:connector-curvature="0" />
	<path style="fill:none;stroke:red;stroke-width:1px;stroke-linecap:butt;stroke-linejoin:miter;stroke-opacity:1" d="M 71.8291,840.558 71.8291,812.296 z" id="boundary" inkscape:connector-curvature="0" />
	<path style="fill:none;stroke:red;stroke-width:1px;stroke-linecap:butt;stroke-linejoin:miter;stroke-opacity:1" d="M 71.8291,868.821 71.8291,840.558 z" id="boundary" inkscape:connector-curvature="0" />
	<path style="fill:none;stroke:red;stroke-width:1px;stroke-linecap:butt;stroke-linejoin:miter;stroke-opacity:1" d="M 80.3077,925.345 77.4815,897.083 z" id="boundary" inkscape:connector-curvature="0" />
	<path style="fill:none;stroke:red;stroke-width:1px;stroke-linecap:butt;stroke-linejoin:miter;stroke-opacity:1" d="M 167.92,9.65242 196.182,6.82621 z" id="boundary" inkscape:connector-curvature="0" />
	<path style="fill:none;stroke:red;stroke-width:1px;stroke-linecap:butt;stroke-linejoin:miter;stroke-opacity:1" d="M 196.182,6.82621 224.444,4 z" id="boundary" inkscape:connector-curvature="0" />
	<path style="fill:none;stroke:red;stroke-width:1px;stroke-linecap:butt;stroke-linejoin:miter;stroke-opacity:1" d="M 224.444,4 247.054,20.9573 z" id="boundary" inkscape:connector-curvature="0" />
	<path style="fill:none;stroke:red;stroke-width:1px;stroke-linecap:butt;stroke-linejoin:miter;stroke-opacity:1" d="M 85.9601,953.607 80.3077,925.345 z" id="boundary" inkscape:connector-curvature="0" />
	<path style="fill:none;stroke:red;stroke-width:1px;stroke-linecap:butt;stroke-linejoin:miter;stroke-opacity:1" d="M 167.92,9.65242 139.658,15.3048 z" id="boundary" inkscape:connector-curvature="0" />
	<path style="fill:none;stroke:red;stroke-width:1px;stroke-linecap:butt;stroke-linejoin:miter;stroke-opacity:1" d="M 139.658,15.3048 125.527,40.7407 z" id="boundary" inkscape:connector-curvature="0" />
	<path style="fill:none;stroke:red;stroke-width:1px;stroke-linecap:butt;stroke-linejoin:miter;stroke-opacity:1" d="M 125.527,40.7407 111.396,66.1766 z" id="boundary" inkscape:connector-curvature="0" />
	<path style="fill:none;stroke:red;stroke-width:1px;stroke-linecap:butt;stroke-linejoin:miter;stroke-opacity:1" d="M 131.179,984.695 102.917,976.217 z" id="boundary" inkscape:connector-curvature="0" />
	<path style="fill:none;stroke:red;stroke-width:1px;stroke-linecap:butt;stroke-linejoin:miter;stroke-opacity:1" d="M 102.917,976.217 85.9601,953.607 z" id="boundary" inkscape:connector-curvature="0" />
	<path style="fill:none;stroke:red;stroke-width:1px;stroke-linecap:butt;stroke-linejoin:miter;stroke-opacity:1" d="M 247.054,20.9573 264.011,43.567 z" id="boundary" inkscape:connector-curvature="0" />
	<path style="fill:none;stroke:red;stroke-width:1px;stroke-linecap:butt;stroke-linejoin:miter;stroke-opacity:1" d="M 159.442,996 131.179,984.695 z" id="boundary" inkscape:connector-curvature="0" />
	<path style="fill:none;stroke:red;stroke-width:1px;stroke-linecap:butt;stroke-linejoin:miter;stroke-opacity:1" d="M 187.704,990.348 159.442,996 z" id="boundary" inkscape:connector-curvature="0" />
	<path style="fill:none;stroke:red;stroke-width:1px;stroke-linecap:butt;stroke-linejoin:miter;stroke-opacity:1" d="M 264.011,43.567 286.621,60.5242 z" id="boundary" inkscape:connector-curvature="0" />
	<path style="fill:none;stroke:red;stroke-width:1px;stroke-linecap:butt;stroke-linejoin:miter;stroke-opacity:1" d="M 215.966,990.348 187.704,990.348 z" id="boundary" inkscape:connector-curvature="0" />
	<path style="fill:none;stroke:red;stroke-width:1px;stroke-linecap:butt;stroke-linejoin:miter;stroke-opacity:1" d="M 286.621,60.5242 309.231,77.4815 z" id="boundary" inkscape:connector-curvature="0" />
	<path style="fill:none;stroke:red;stroke-width:1px;stroke-linecap:butt;stroke-linejoin:miter;stroke-opacity:1" d="M 244.228,984.695 215.966,990.348 z" id="boundary" inkscape:connector-curvature="0" />
	<path style="fill:none;stroke:red;stroke-width:1px;stroke-linecap:butt;stroke-linejoin:miter;stroke-opacity:1" d="M 272.49,984.695 244.228,984.695 z" id="boundary" inkscape:connector-curvature="0" />
	<path style="fill:none;stroke:red;stroke-width:1px;stroke-linecap:butt;stroke-linejoin:miter;stroke-opacity:1" d="M 345.972,122.701 362.929,145.311 z" id="boundary" inkscape:connector-curvature="0" />
	<path style="fill:none;stroke:red;stroke-width:1px;stroke-linecap:butt;stroke-linejoin:miter;stroke-opacity:1" d="M 300.752,981.869 272.49,984.695 z" id="boundary" inkscape:connector-curvature="0" />
	<path style="fill:none;stroke:red;stroke-width:1px;stroke-linecap:butt;stroke-linejoin:miter;stroke-opacity:1" d="M 362.929,145.311 379.886,167.92 z" id="boundary" inkscape:connector-curvature="0" />
	<path style="fill:none;stroke:red;stroke-width:1px;stroke-linecap:butt;stroke-linejoin:miter;stroke-opacity:1" d="M 329.014,979.043 300.752,981.869 z" id="boundary" inkscape:connector-curvature="0" />
	<path style="fill:none;stroke:red;stroke-width:1px;stroke-linecap:butt;stroke-linejoin:miter;stroke-opacity:1" d="M 385.538,984.695 413.801,996 z" id="boundary" inkscape:connector-curvature="0" />
	<path style="fill:none;stroke:red;stroke-width:1px;stroke-linecap:butt;stroke-linejoin:miter;stroke-opacity:1" d="M 413.801,422.279 396.843,399.67 z" id="boundary" inkscape:connector-curvature="0" />
	<path style="fill:none;stroke:red;stroke-width:1px;stroke-linecap:butt;stroke-linejoin:miter;stroke-opacity:1" d="M 385.538,984.695 357.276,973.39 z" id="boundary" inkscape:connector-curvature="0" />
	<path style="fill:none;stroke:red;stroke-width:1px;stroke-linecap:butt;stroke-linejoin:miter;stroke-opacity:1" d="M 357.276,973.39 329.014,979.043 z" id="boundary" inkscape:connector-curvature="0" />
	<path style="fill:none;stroke:red;stroke-width:1px;stroke-linecap:butt;stroke-linejoin:miter;stroke-opacity:1" d="M 487.282,586.199 492.934,614.462 z" id="boundary" inkscape:connector-curvature="0" />
	<path style="fill:none;stroke:red;stroke-width:1px;stroke-linecap:butt;stroke-linejoin:miter;stroke-opacity:1" d="M 492.934,614.462 492.934,642.724 z" id="boundary" inkscape:connector-curvature="0" />
	<path style="fill:none;stroke:red;stroke-width:1px;stroke-linecap:butt;stroke-linejoin:miter;stroke-opacity:1" d="M 402.496,184.877 379.886,167.92 z" id="boundary" inkscape:connector-curvature="0" />
	<path style="fill:none;stroke:red;stroke-width:1px;stroke-linecap:butt;stroke-linejoin:miter;stroke-opacity:1" d="M 419.453,377.06 396.843,399.67 z" id="boundary" inkscape:connector-curvature="0" />
	<path style="fill:none;stroke:red;stroke-width:1px;stroke-linecap:butt;stroke-linejoin:miter;stroke-opacity:1" d="M 430.758,190.53 402.496,184.877 z" id="boundary" inkscape:connector-curvature="0" />
	<path style="fill:none;stroke:red;stroke-width:1px;stroke-linecap:butt;stroke-linejoin:miter;stroke-opacity:1" d="M 436.41,439.236 464.672,450.541 z" id="boundary" inkscape:connector-curvature="0" />
	<path style="fill:none;stroke:red;stroke-width:1px;stroke-linecap:butt;stroke-linejoin:miter;stroke-opacity:1" d="M 444.889,362.929 419.453,377.06 z" id="boundary" inkscape:connector-curvature="0" />
	<path style="fill:none;stroke:red;stroke-width:1px;stroke-linecap:butt;stroke-linejoin:miter;stroke-opacity:1" d="M 459.02,196.182 478.803,218.792 z" id="boundary" inkscape:connector-curvature="0" />
	<path style="fill:none;stroke:red;stroke-width:1px;stroke-linecap:butt;stroke-linejoin:miter;stroke-opacity:1" d="M 459.02,196.182 430.758,190.53 z" id="boundary" inkscape:connector-curvature="0" />
	<path style="fill:none;stroke:red;stroke-width:1px;stroke-linecap:butt;stroke-linejoin:miter;stroke-opacity:1" d="M 442.063,996 413.801,996 z" id="boundary" inkscape:connector-curvature="0" />
	<path style="fill:none;stroke:red;stroke-width:1px;stroke-linecap:butt;stroke-linejoin:miter;stroke-opacity:1" d="M 492.934,687.943 492.934,716.205 z" id="boundary" inkscape:connector-curvature="0" />
	<path style="fill:none;stroke:red;stroke-width:1px;stroke-linecap:butt;stroke-linejoin:miter;stroke-opacity:1" d="M 473.151,357.276 492.934,326.188 z" id="boundary" inkscape:connector-curvature="0" />
	<path style="fill:none;stroke:red;stroke-width:1px;stroke-linecap:butt;stroke-linejoin:miter;stroke-opacity:1" d="M 444.889,362.929 473.151,357.276 z" id="boundary" inkscape:connector-curvature="0" />
	<path style="fill:none;stroke:red;stroke-width:1px;stroke-linecap:butt;stroke-linejoin:miter;stroke-opacity:1" d="M 464.672,450.541 492.934,461.846 z" id="boundary" inkscape:connector-curvature="0" />
	<path style="fill:none;stroke:red;stroke-width:1px;stroke-linecap:butt;stroke-linejoin:miter;stroke-opacity:1" d="M 501.413,560.764 487.282,586.199 z" id="boundary" inkscape:connector-curvature="0" />
	<path style="fill:none;stroke:red;stroke-width:1px;stroke-linecap:butt;stroke-linejoin:miter;stroke-opacity:1" d="M 478.803,218.792 504.239,232.923 z" id="boundary" inkscape:connector-curvature="0" />
	<path style="fill:none;stroke:red;stroke-width:1px;stroke-linecap:butt;stroke-linejoin:miter;stroke-opacity:1" d="M 492.934,461.846 507.066,487.282 z" id="boundary" inkscape:connector-curvature="0" />
	<path style="fill:none;stroke:red;stroke-width:1px;stroke-linecap:butt;stroke-linejoin:miter;stroke-opacity:1" d="M 492.934,326.188 498.587,280.969 z" id="boundary" inkscape:connector-curvature="0" />
	<path style="fill:none;stroke:red;stroke-width:1px;stroke-linecap:butt;stroke-linejoin:miter;stroke-opacity:1" d="M 501.413,560.764 512.718,532.501 z" id="boundary" inkscape:connector-curvature="0" />
	<path style="fill:none;stroke:red;stroke-width:1px;stroke-linecap:butt;stroke-linejoin:miter;stroke-opacity:1" d="M 492.934,716.205 521.197,727.51 z" id="boundary" inkscape:connector-curvature="0" />
	<path style="fill:none;stroke:red;stroke-width:1px;stroke-linecap:butt;stroke-linejoin:miter;stroke-opacity:1" d="M 504.239,232.923 498.587,280.969 z" id="boundary" inkscape:connector-curvature="0" />
	<path style="fill:none;stroke:red;stroke-width:1px;stroke-linecap:butt;stroke-linejoin:miter;stroke-opacity:1" d="M 507.066,487.282 512.718,532.501 z" id="boundary" inkscape:connector-curvature="0" />
	<path style="fill:none;stroke:red;stroke-width:1px;stroke-linecap:butt;stroke-linejoin:miter;stroke-opacity:1" d="M 442.063,996 470.325,996 z" id="boundary" inkscape:connector-curvature="0" />
	<path style="fill:none;stroke:red;stroke-width:1px;stroke-linecap:butt;stroke-linejoin:miter;stroke-opacity:1" d="M 498.587,996 470.325,996 z" id="boundary" inkscape:connector-curvature="0" />
	<path style="fill:none;stroke:red;stroke-width:1px;stroke-linecap:butt;stroke-linejoin:miter;stroke-opacity:1" d="M 549.459,727.51 521.197,727.51 z" id="boundary" inkscape:connector-curvature="0" />
	<path style="fill:none;stroke:red;stroke-width:1px;stroke-linecap:butt;stroke-linejoin:miter;stroke-opacity:1" d="M 526.849,996 498.587,996 z" id="boundary" inkscape:connector-curvature="0" />
	<path style="fill:none;stroke:red;stroke-width:1px;stroke-linecap:butt;stroke-linejoin:miter;stroke-opacity:1" d="M 577.721,733.162 589.026,761.425 z" id="boundary" inkscape:connector-curvature="0" />
	<path style="fill:none;stroke:red;stroke-width:1px;stroke-linecap:butt;stroke-linejoin:miter;stroke-opacity:1" d="M 577.721,733.162 549.459,727.51 z" id="boundary" inkscape:connector-curvature="0" />
	<path style="fill:none;stroke:red;stroke-width:1px;stroke-linecap:butt;stroke-linejoin:miter;stroke-opacity:1" d="M 577.721,959.259 555.111,987.521 z" id="boundary" inkscape:connector-curvature="0" />
	<path style="fill:none;stroke:red;stroke-width:1px;stroke-linecap:butt;stroke-linejoin:miter;stroke-opacity:1" d="M 555.111,987.521 526.849,996 z" id="boundary" inkscape:connector-curvature="0" />
	<path style="fill:none;stroke:red;stroke-width:1px;stroke-linecap:butt;stroke-linejoin:miter;stroke-opacity:1" d="M 589.026,761.425 594.678,789.687 z" id="boundary" inkscape:connector-curvature="0" />
	<path style="fill:none;stroke:red;stroke-width:1px;stroke-linecap:butt;stroke-linejoin:miter;stroke-opacity:1" d="M 589.026,897.083 589.026,925.345 z" id="boundary" inkscape:connector-curvature="0" />
	<path style="fill:none;stroke:red;stroke-width:1px;stroke-linecap:butt;stroke-linejoin:miter;stroke-opacity:1" d="M 589.026,925.345 577.721,959.259 z" id="boundary" inkscape:connector-curvature="0" />
	<path style="fill:none;stroke:red;stroke-width:1px;stroke-linecap:butt;stroke-linejoin:miter;stroke-opacity:1" d="M 594.678,817.949 594.678,846.211 z" id="boundary" inkscape:connector-curvature="0" />
	<path style="fill:none;stroke:red;stroke-width:1px;stroke-linecap:butt;stroke-linejoin:miter;stroke-opacity:1" d="M 594.678,789.687 594.678,817.949 z" id="boundary" inkscape:connector-curvature="0" />
	<path style="fill:none;stroke:red;stroke-width:1px;stroke-linecap:butt;stroke-linejoin:miter;stroke-opacity:1" d="M 589.026,897.083 594.678,846.211 z" id="boundary" inkscape:connector-curvature="0" />
	<circle cx="4" cy="235.749" r="4" fill="#0" id="circle0"/>
	<circle cx="4" cy="264.011" r="4" fill="#0" id="circle1"/>
	<circle cx="9.65242" cy="207.487" r="4" fill="#0" id="circle2"/>
	<circle cx="9.65242" cy="292.274" r="4" fill="#0" id="circle3"/>
	<circle cx="15.3048" cy="179.225" r="4" fill="#0" id="circle4"/>
	<circle cx="20.9573" cy="320.536" r="4" fill="#0" id="circle5"/>
	<circle cx="26.6097" cy="150.963" r="4" fill="#0" id="circle6"/>
	<circle cx="37.9145" cy="122.701" r="4" fill="#0" id="circle7"/>
	<circle cx="37.9145" cy="343.145" r="4" fill="#0" id="circle8"/>
	<circle cx="54.8718" cy="365.755" r="4" fill="#0" id="circle9"/>
	<circle cx="60.5242" cy="100.091" r="4" fill="#0" id="circle10"/>
	<circle cx="60.5242" cy="608.809" r="4" fill="#0" id="circle11"/>
	<circle cx="60.5242" cy="637.071" r="4" fill="#0" id="circle12"/>
	<circle cx="60.5242" cy="665.333" r="4" fill="#0" id="circle13"/>
	<circle cx="60.5242" cy="693.595" r="4" fill="#0" id="circle14"/>
	<circle cx="60.5242" cy="721.858" r="4" fill="#0" id="circle15"/>
	<circle cx="60.5242" cy="750.12" r="4" fill="#0" id="circle16"/>
	<circle cx="60.5242" cy="778.382" r="4" fill="#0" id="circle17"/>
	<circle cx="66.1766" cy="394.017" r="4" fill="#0" id="circle18"/>
	<circle cx="66.1766" cy="422.279" r="4" fill="#0" id="circle19"/>
	<circle cx="66.1766" cy="450.541" r="4" fill="#0" id="circle20"/>
	<circle cx="66.1766" cy="507.066" r="4" fill="#0" id="circle21"/>
	<circle cx="66.1766" cy="535.328" r="4" fill="#0" id="circle22"/>
	<circle cx="66.1766" cy="563.59" r="4" fill="#0" id="circle23"/>
	<circle cx="71.8291" cy="478.803" r="4" fill="#0" id="circle24"/>
	<circle cx="71.8291" cy="812.296" r="4" fill="#0" id="circle25"/>
	<circle cx="71.8291" cy="840.558" r="4" fill="#0" id="circle26"/>
	<circle cx="71.8291" cy="868.821" r="4" fill="#0" id="circle27"/>
	<circle cx="77.4815" cy="897.083" r="4" fill="#0" id="circle28"/>
	<circle cx="80.3077" cy="925.345" r="4" fill="#0" id="circle29"/>
	<circle cx="83.1339" cy="77.4815" r="4" fill="#0" id="circle30"/>
	<circle cx="85.9601" cy="953.607" r="4" fill="#0" id="circle31"/>
	<circle cx="102.917" cy="976.217" r="4" fill="#0" id="circle32"/>
	<circle cx="111.396" cy="66.1766" r="4" fill="#0" id="circle33"/>
	<circle cx="125.527" cy="40.7407" r="4" fill="#0" id="circle34"/>
	<circle cx="131.179" cy="984.695" r="4" fill="#0" id="circle35"/>
	<circle cx="139.658" cy="15.3048" r="4" fill="#0" id="circle36"/>
	<circle cx="159.442" cy="996" r="4" fill="#0" id="circle37"/>
	<circle cx="167.92" cy="9.65242" r="4" fill="#0" id="circle38"/>
	<circle cx="187.704" cy="990.348" r="4" fill="#0" id="circle39"/>
	<circle cx="196.182" cy="6.82621" r="4" fill="#0" id="circle40"/>
	<circle cx="215.966" cy="990.348" r="4" fill="#0" id="circle41"/>
	<circle cx="224.444" cy="4" r="4" fill="#0" id="circle42"/>
	<circle cx="244.228" cy="984.695" r="4" fill="#0" id="circle43"/>
	<circle cx="247.054" cy="20.9573" r="4" fill="#0" id="circle44"/>
	<circle cx="264.011" cy="43.567" r="4" fill="#0" id="circle45"/>
	<circle cx="272.49" cy="984.695" r="4" fill="#0" id="circle46"/>
	<circle cx="286.621" cy="60.5242" r="4" fill="#0" id="circle47"/>
	<circle cx="300.752" cy="981.869" r="4" fill="#0" id="circle48"/>
	<circle cx="309.231" cy="77.4815" r="4" fill="#0" id="circle49"/>
	<circle cx="329.014" cy="979.043" r="4" fill="#0" id="circle50"/>
	<circle cx="331.84" cy="97.265" r="4" fill="#0" id="circle51"/>
	<circle cx="345.972" cy="122.701" r="4" fill="#0" id="circle52"/>
	<circle cx="357.276" cy="973.39" r="4" fill="#0" id="circle53"/>
	<circle cx="362.929" cy="145.311" r="4" fill="#0" id="circle54"/>
	<circle cx="379.886" cy="167.92" r="4" fill="#0" id="circle55"/>
	<circle cx="385.538" cy="984.695" r="4" fill="#0" id="circle56"/>
	<circle cx="396.843" cy="399.67" r="4" fill="#0" id="circle57"/>
	<circle cx="402.496" cy="184.877" r="4" fill="#0" id="circle58"/>
	<circle cx="413.801" cy="422.279" r="4" fill="#0" id="circle59"/>
	<circle cx="413.801" cy="996" r="4" fill="#0" id="circle60"/>
	<circle cx="419.453" cy="377.06" r="4" fill="#0" id="circle61"/>
	<circle cx="430.758" cy="190.53" r="4" fill="#0" id="circle62"/>
	<circle cx="436.41" cy="439.236" r="4" fill="#0" id="circle63"/>
	<circle cx="442.063" cy="996" r="4" fill="#0" id="circle64"/>
	<circle cx="444.889" cy="362.929" r="4" fill="#0" id="circle65"/>
	<circle cx="459.02" cy="196.182" r="4" fill="#0" id="circle66"/>
	<circle cx="464.672" cy="450.541" r="4" fill="#0" id="circle67"/>
	<circle cx="470.325" cy="996" r="4" fill="#0" id="circle68"/>
	<circle cx="473.151" cy="357.276" r="4" fill="#0" id="circle69"/>
	<circle cx="478.803" cy="218.792" r="4" fill="#0" id="circle70"/>
	<circle cx="487.282" cy="586.199" r="4" fill="#0" id="circle71"/>
	<circle cx="492.934" cy="326.188" r="4" fill="#0" id="circle72"/>
	<circle cx="492.934" cy="461.846" r="4" fill="#0" id="circle73"/>
	<circle cx="492.934" cy="614.462" r="4" fill="#0" id="circle74"/>
	<circle cx="492.934" cy="642.724" r="4" fill="#0" id="circle75"/>
	<circle cx="492.934" cy="687.943" r="4" fill="#0" id="circle76"/>
	<circle cx="492.934" cy="716.205" r="4" fill="#0" id="circle77"/>
	<circle cx="498.587" cy="280.969" r="4" fill="#0" id="circle78"/>
	<circle cx="498.587" cy="996" r="4" fill="#0" id="circle79"/>
	<circle cx="501.413" cy="560.764" r="4" fill="#0" id="circle80"/>
	<circle cx="504.239" cy="232.923" r="4" fill="#0" id="circle81"/>
	<circle cx="507.066" cy="487.282" r="4" fill="#0" id="circle82"/>
	<circle cx="512.718" cy="532.501" r="4" fill="#0" id="circle83"/>
	<circle cx="521.197" cy="727.51" r="4" fill="#0" id="circle84"/>
	<circle cx="526.849" cy="996" r="4" fill="#0" id="circle85"/>
	<circle cx="549.459" cy="727.51" r="4" fill="#0" id="circle86"/>
	<circle cx="555.111" cy="987.521" r="4" fill="#0" id="circle87"/>
	<circle cx="577.721" cy="733.162" r="4" fill="#0" id="circle88"/>
	<circle cx="577.721" cy="959.259" r="4" fill="#0" id="circle89"/>
	<circle cx="589.026" cy="761.425" r="4" fill="#0" id="circle90"/>
	<circle cx="589.026" cy="897.083" r="4" fill="#0" id="circle91"/>
	<circle cx="589.026" cy="925.345" r="4" fill="#0" id="circle92"/>
	<circle cx="594.678" cy="789.687" r="4" fill="#0" id="circle93"/>
	<circle cx="594.678" cy="817.949" r="4" fill="#0" id="circle94"/>
	<circle cx="594.678" cy="846.211" r="4" fill="#0" id="circle95"/>
	</g>
</svg>