<?xml version="1.0" encoding="UTF-8" standalone="no"?>
<!-- Created with CurveBenchmark -->
<svg
	xmlns:dc="http://purl.org/dc/elements/1.1/"
	xmlns:cc="http://creativecommons.org/ns#"
	xmlns:rdf="http://www.w3.org/1999/02/22-rdf-syntax-ns#"
	xmlns:svg="http://www.w3.org/2000/svg"
	xmlns="http://www.w3.org/2000/svg"
	xmlns:sodipodi="http://sodipodi.sourceforge.net/DTD/sodipodi-0.dtd"
	xmlns:inkscape="http://www.inkscape.org/namespaces/inkscape"
	width="1000"
	height="1000"
	id="svg2"
	version="1.1"
	sodipodi:docname="manifold/peel-teddy340.png.txt">
<defs
	id="defs4" />
<metadata
	id="metadata7">
	<rdf:RDF>
		<cc:Work
			rdf:about="">
			<dc:format>image/svg+xml</dc:format>
			<dc:type
				rdf:resource="http://purl.org/dc/dcmitype/StillImage" />
			<dc:title></dc:title>
		</cc:Work>
	</rdf:RDF>
</metadata>
<g
	inkscape:label="Layer 1"
	inkscape:groupmode="layer"
	id="layer1">
	<path style="fill:none;stroke:red;stroke-width:1px;stroke-linecap:butt;stroke-linejoin:miter;stroke-opacity:1" d="M 83.1339,727.51 111.396,727.51 z" id="boundary" inkscape:connector-curvature="0" />
	<path style="fill:none;stroke:red;stroke-width:1px;stroke-linecap:butt;stroke-linejoin:miter;stroke-opacity:1" d="M 26.6097,738.815 54.8718,727.51 z" id="boundary" inkscape:connector-curvature="0" />
	<path style="fill:none;stroke:red;stroke-width:1px;stroke-linecap:butt;stroke-linejoin:miter;stroke-opacity:1" d="M 26.6097,738.815 9.65242,767.077 z" id="boundary" inkscape:connector-curvature="0" />
	<path style="fill:none;stroke:red;stroke-width:1px;stroke-linecap:butt;stroke-linejoin:miter;stroke-opacity:1" d="M 54.8718,727.51 83.1339,727.51 z" id="boundary" inkscape:connector-curvature="0" />
	<path style="fill:none;stroke:red;stroke-width:1px;stroke-linecap:butt;stroke-linejoin:miter;stroke-opacity:1" d="M 4,868.821 6.82621,897.083 z" id="boundary" inkscape:connector-curvature="0" />
	<path style="fill:none;stroke:red;stroke-width:1px;stroke-linecap:butt;stroke-linejoin:miter;stroke-opacity:1" d="M 6.82621,897.083 9.65242,925.345 z" id="boundary" inkscape:connector-curvature="0" />
	<path style="fill:none;stroke:red;stroke-width:1px;stroke-linecap:butt;stroke-linejoin:miter;stroke-opacity:1" d="M 9.65242,767.077 4,812.296 z" id="boundary" inkscape:connector-curvature="0" />
	<path style="fill:none;stroke:red;stroke-width:1px;stroke-linecap:butt;stroke-linejoin:miter;stroke-opacity:1" d="M 9.65242,925.345 20.9573,953.607 z" id="boundary" inkscape:connector-curvature="0" />
	<path style="fill:none;stroke:red;stroke-width:1px;stroke-linecap:butt;stroke-linejoin:miter;stroke-opacity:1" d="M 20.9573,953.607 43.567,973.39 z" id="boundary" inkscape:connector-curvature="0" />
	<path style="fill:none;stroke:red;stroke-width:1px;stroke-linecap:butt;stroke-linejoin:miter;stroke-opacity:1" d="M 4,812.296 4,840.558 z" id="boundary" inkscape:connector-curvature="0" />
	<path style="fill:none;stroke:red;stroke-width:1px;stroke-linecap:butt;stroke-linejoin:miter;stroke-opacity:1" d="M 71.8291,984.695 100.091,993.174 z" id="boundary" inkscape:connector-curvature="0" />
	<path style="fill:none;stroke:red;stroke-width:1px;stroke-linecap:butt;stroke-linejoin:miter;stroke-opacity:1" d="M 43.567,973.39 71.8291,984.695 z" id="boundary" inkscape:connector-curvature="0" />
	<path style="fill:none;stroke:red;stroke-width:1px;stroke-linecap:butt;stroke-linejoin:miter;stroke-opacity:1" d="M 85.9601,540.98 83.1339,512.718 z" id="boundary" inkscape:connector-curvature="0" />
	<path style="fill:none;stroke:red;stroke-width:1px;stroke-linecap:butt;stroke-linejoin:miter;stroke-opacity:1" d="M 83.1339,512.718 83.1339,484.456 z" id="boundary" inkscape:connector-curvature="0" />
	<path style="fill:none;stroke:red;stroke-width:1px;stroke-linecap:butt;stroke-linejoin:miter;stroke-opacity:1" d="M 88.7863,569.242 85.9601,540.98 z" id="boundary" inkscape:connector-curvature="0" />
	<path style="fill:none;stroke:red;stroke-width:1px;stroke-linecap:butt;stroke-linejoin:miter;stroke-opacity:1" d="M 153.789,625.766 128.353,611.635 z" id="boundary" inkscape:connector-curvature="0" />
	<path style="fill:none;stroke:red;stroke-width:1px;stroke-linecap:butt;stroke-linejoin:miter;stroke-opacity:1" d="M 139.658,730.336 111.396,727.51 z" id="boundary" inkscape:connector-curvature="0" />
	<path style="fill:none;stroke:red;stroke-width:1px;stroke-linecap:butt;stroke-linejoin:miter;stroke-opacity:1" d="M 83.1339,484.456 105.744,461.846 z" id="boundary" inkscape:connector-curvature="0" />
	<path style="fill:none;stroke:red;stroke-width:1px;stroke-linecap:butt;stroke-linejoin:miter;stroke-opacity:1" d="M 105.744,591.852 88.7863,569.242 z" id="boundary" inkscape:connector-curvature="0" />
	<path style="fill:none;stroke:red;stroke-width:1px;stroke-linecap:butt;stroke-linejoin:miter;stroke-opacity:1" d="M 131.179,447.715 105.744,461.846 z" id="boundary" inkscape:connector-curvature="0" />
	<path style="fill:none;stroke:red;stroke-width:1px;stroke-linecap:butt;stroke-linejoin:miter;stroke-opacity:1" d="M 128.353,611.635 105.744,591.852 z" id="boundary" inkscape:connector-curvature="0" />
	<path style="fill:none;stroke:red;stroke-width:1px;stroke-linecap:butt;stroke-linejoin:miter;stroke-opacity:1" d="M 167.92,738.815 139.658,730.336 z" id="boundary" inkscape:connector-curvature="0" />
	<path style="fill:none;stroke:red;stroke-width:1px;stroke-linecap:butt;stroke-linejoin:miter;stroke-opacity:1" d="M 179.225,639.897 153.789,625.766 z" id="boundary" inkscape:connector-curvature="0" />
	<path style="fill:none;stroke:red;stroke-width:1px;stroke-linecap:butt;stroke-linejoin:miter;stroke-opacity:1" d="M 100.091,993.174 128.353,996 z" id="boundary" inkscape:connector-curvature="0" />
	<path style="fill:none;stroke:red;stroke-width:1px;stroke-linecap:butt;stroke-linejoin:miter;stroke-opacity:1" d="M 131.179,447.715 159.442,439.236 z" id="boundary" inkscape:connector-curvature="0" />
	<path style="fill:none;stroke:red;stroke-width:1px;stroke-linecap:butt;stroke-linejoin:miter;stroke-opacity:1" d="M 4,868.821 4,840.558 z" id="boundary" inkscape:connector-curvature="0" />
	<path style="fill:none;stroke:red;stroke-width:1px;stroke-linecap:butt;stroke-linejoin:miter;stroke-opacity:1" d="M 159.442,439.236 187.704,433.584 z" id="boundary" inkscape:connector-curvature="0" />
	<path style="fill:none;stroke:red;stroke-width:1px;stroke-linecap:butt;stroke-linejoin:miter;stroke-opacity:1" d="M 323.362,996 297.926,981.869 z" id="boundary" inkscape:connector-curvature="0" />
	<path style="fill:none;stroke:red;stroke-width:1px;stroke-linecap:butt;stroke-linejoin:miter;stroke-opacity:1" d="M 128.353,996 156.615,996 z" id="boundary" inkscape:connector-curvature="0" />
	<path style="fill:none;stroke:red;stroke-width:1px;stroke-linecap:butt;stroke-linejoin:miter;stroke-opacity:1" d="M 156.615,996 184.877,984.695 z" id="boundary" inkscape:connector-curvature="0" />
	<path style="fill:none;stroke:red;stroke-width:1px;stroke-linecap:butt;stroke-linejoin:miter;stroke-opacity:1" d="M 187.704,433.584 215.966,433.584 z" id="boundary" inkscape:connector-curvature="0" />
	<path style="fill:none;stroke:red;stroke-width:1px;stroke-linecap:butt;stroke-linejoin:miter;stroke-opacity:1" d="M 218.792,280.969 218.792,309.231 z" id="boundary" inkscape:connector-curvature="0" />
	<path style="fill:none;stroke:red;stroke-width:1px;stroke-linecap:butt;stroke-linejoin:miter;stroke-opacity:1" d="M 218.792,280.969 207.487,252.707 z" id="boundary" inkscape:connector-curvature="0" />
	<path style="fill:none;stroke:red;stroke-width:1px;stroke-linecap:butt;stroke-linejoin:miter;stroke-opacity:1" d="M 167.92,738.815 196.182,727.51 z" id="boundary" inkscape:connector-curvature="0" />
	<path style="fill:none;stroke:red;stroke-width:1px;stroke-linecap:butt;stroke-linejoin:miter;stroke-opacity:1" d="M 196.182,727.51 196.182,699.248 z" id="boundary" inkscape:connector-curvature="0" />
	<path style="fill:none;stroke:red;stroke-width:1px;stroke-linecap:butt;stroke-linejoin:miter;stroke-opacity:1" d="M 213.14,973.39 184.877,984.695 z" id="boundary" inkscape:connector-curvature="0" />
	<path style="fill:none;stroke:red;stroke-width:1px;stroke-linecap:butt;stroke-linejoin:miter;stroke-opacity:1" d="M 196.182,699.248 201.835,670.986 z" id="boundary" inkscape:connector-curvature="0" />
	<path style="fill:none;stroke:red;stroke-width:1px;stroke-linecap:butt;stroke-linejoin:miter;stroke-opacity:1" d="M 179.225,639.897 201.835,670.986 z" id="boundary" inkscape:connector-curvature="0" />
	<path style="fill:none;stroke:red;stroke-width:1px;stroke-linecap:butt;stroke-linejoin:miter;stroke-opacity:1" d="M 213.14,973.39 241.402,973.39 z" id="boundary" inkscape:connector-curvature="0" />
	<path style="fill:none;stroke:red;stroke-width:1px;stroke-linecap:butt;stroke-linejoin:miter;stroke-opacity:1" d="M 215.966,433.584 244.228,427.932 z" id="boundary" inkscape:connector-curvature="0" />
	<path style="fill:none;stroke:red;stroke-width:1px;stroke-linecap:butt;stroke-linejoin:miter;stroke-opacity:1" d="M 218.792,309.231 232.923,334.667 z" id="boundary" inkscape:connector-curvature="0" />
	<path style="fill:none;stroke:red;stroke-width:1px;stroke-linecap:butt;stroke-linejoin:miter;stroke-opacity:1" d="M 241.402,973.39 269.664,970.564 z" id="boundary" inkscape:connector-curvature="0" />
	<path style="fill:none;stroke:red;stroke-width:1px;stroke-linecap:butt;stroke-linejoin:miter;stroke-opacity:1" d="M 269.664,970.564 297.926,981.869 z" id="boundary" inkscape:connector-curvature="0" />
	<path style="fill:none;stroke:red;stroke-width:1px;stroke-linecap:butt;stroke-linejoin:miter;stroke-opacity:1" d="M 207.487,252.707 218.792,224.444 z" id="boundary" inkscape:connector-curvature="0" />
	<path style="fill:none;stroke:red;stroke-width:1px;stroke-linecap:butt;stroke-linejoin:miter;stroke-opacity:1" d="M 275.316,371.407 249.88,357.276 z" id="boundary" inkscape:connector-curvature="0" />
	<path style="fill:none;stroke:red;stroke-width:1px;stroke-linecap:butt;stroke-linejoin:miter;stroke-opacity:1" d="M 249.88,357.276 232.923,334.667 z" id="boundary" inkscape:connector-curvature="0" />
	<path style="fill:none;stroke:red;stroke-width:1px;stroke-linecap:butt;stroke-linejoin:miter;stroke-opacity:1" d="M 218.792,224.444 244.228,210.313 z" id="boundary" inkscape:connector-curvature="0" />
	<path style="fill:none;stroke:red;stroke-width:1px;stroke-linecap:butt;stroke-linejoin:miter;stroke-opacity:1" d="M 297.926,190.53 269.664,196.182 z" id="boundary" inkscape:connector-curvature="0" />
	<path style="fill:none;stroke:red;stroke-width:1px;stroke-linecap:butt;stroke-linejoin:miter;stroke-opacity:1" d="M 244.228,210.313 269.664,196.182 z" id="boundary" inkscape:connector-curvature="0" />
	<path style="fill:none;stroke:red;stroke-width:1px;stroke-linecap:butt;stroke-linejoin:miter;stroke-opacity:1" d="M 244.228,427.932 272.49,413.801 z" id="boundary" inkscape:connector-curvature="0" />
	<path style="fill:none;stroke:red;stroke-width:1px;stroke-linecap:butt;stroke-linejoin:miter;stroke-opacity:1" d="M 314.883,167.92 297.926,190.53 z" id="boundary" inkscape:connector-curvature="0" />
	<path style="fill:none;stroke:red;stroke-width:1px;stroke-linecap:butt;stroke-linejoin:miter;stroke-opacity:1" d="M 275.316,371.407 272.49,413.801 z" id="boundary" inkscape:connector-curvature="0" />
	<path style="fill:none;stroke:red;stroke-width:1px;stroke-linecap:butt;stroke-linejoin:miter;stroke-opacity:1" d="M 673.812,139.658 659.681,114.222 z" id="boundary" inkscape:connector-curvature="0" />
	<path style="fill:none;stroke:red;stroke-width:1px;stroke-linecap:butt;stroke-linejoin:miter;stroke-opacity:1" d="M 348.798,117.048 348.798,88.7863 z" id="boundary" inkscape:connector-curvature="0" />
	<path style="fill:none;stroke:red;stroke-width:1px;stroke-linecap:butt;stroke-linejoin:miter;stroke-opacity:1" d="M 314.883,167.92 331.84,145.311 z" id="boundary" inkscape:connector-curvature="0" />
	<path style="fill:none;stroke:red;stroke-width:1px;stroke-linecap:butt;stroke-linejoin:miter;stroke-opacity:1" d="M 348.798,88.7863 348.798,60.5242 z" id="boundary" inkscape:connector-curvature="0" />
	<path style="fill:none;stroke:red;stroke-width:1px;stroke-linecap:butt;stroke-linejoin:miter;stroke-opacity:1" d="M 331.84,145.311 348.798,117.048 z" id="boundary" inkscape:connector-curvature="0" />
	<path style="fill:none;stroke:red;stroke-width:1px;stroke-linecap:butt;stroke-linejoin:miter;stroke-opacity:1" d="M 444.889,9.65242 473.151,15.3048 z" id="boundary" inkscape:connector-curvature="0" />
	<path style="fill:none;stroke:red;stroke-width:1px;stroke-linecap:butt;stroke-linejoin:miter;stroke-opacity:1" d="M 473.151,15.3048 490.108,37.9145 z" id="boundary" inkscape:connector-curvature="0" />
	<path style="fill:none;stroke:red;stroke-width:1px;stroke-linecap:butt;stroke-linejoin:miter;stroke-opacity:1" d="M 348.798,60.5242 365.755,32.2621 z" id="boundary" inkscape:connector-curvature="0" />
	<path style="fill:none;stroke:red;stroke-width:1px;stroke-linecap:butt;stroke-linejoin:miter;stroke-opacity:1" d="M 323.362,996 351.624,996 z" id="boundary" inkscape:connector-curvature="0" />
	<path style="fill:none;stroke:red;stroke-width:1px;stroke-linecap:butt;stroke-linejoin:miter;stroke-opacity:1" d="M 388.365,15.3048 365.755,32.2621 z" id="boundary" inkscape:connector-curvature="0" />
	<path style="fill:none;stroke:red;stroke-width:1px;stroke-linecap:butt;stroke-linejoin:miter;stroke-opacity:1" d="M 416.627,6.82621 444.889,9.65242 z" id="boundary" inkscape:connector-curvature="0" />
	<path style="fill:none;stroke:red;stroke-width:1px;stroke-linecap:butt;stroke-linejoin:miter;stroke-opacity:1" d="M 416.627,6.82621 388.365,15.3048 z" id="boundary" inkscape:connector-curvature="0" />
	<path style="fill:none;stroke:red;stroke-width:1px;stroke-linecap:butt;stroke-linejoin:miter;stroke-opacity:1" d="M 351.624,996 379.886,996 z" id="boundary" inkscape:connector-curvature="0" />
	<path style="fill:none;stroke:red;stroke-width:1px;stroke-linecap:butt;stroke-linejoin:miter;stroke-opacity:1" d="M 436.41,990.348 464.672,990.348 z" id="boundary" inkscape:connector-curvature="0" />
	<path style="fill:none;stroke:red;stroke-width:1px;stroke-linecap:butt;stroke-linejoin:miter;stroke-opacity:1" d="M 436.41,990.348 408.148,996 z" id="boundary" inkscape:connector-curvature="0" />
	<path style="fill:none;stroke:red;stroke-width:1px;stroke-linecap:butt;stroke-linejoin:miter;stroke-opacity:1" d="M 685.117,167.92 673.812,139.658 z" id="boundary" inkscape:connector-curvature="0" />
	<path style="fill:none;stroke:red;stroke-width:1px;stroke-linecap:butt;stroke-linejoin:miter;stroke-opacity:1" d="M 379.886,996 408.148,996 z" id="boundary" inkscape:connector-curvature="0" />
	<path style="fill:none;stroke:red;stroke-width:1px;stroke-linecap:butt;stroke-linejoin:miter;stroke-opacity:1" d="M 464.672,990.348 492.934,990.348 z" id="boundary" inkscape:connector-curvature="0" />
	<path style="fill:none;stroke:red;stroke-width:1px;stroke-linecap:butt;stroke-linejoin:miter;stroke-opacity:1" d="M 492.934,990.348 521.197,996 z" id="boundary" inkscape:connector-curvature="0" />
	<path style="fill:none;stroke:red;stroke-width:1px;stroke-linecap:butt;stroke-linejoin:miter;stroke-opacity:1" d="M 659.681,114.222 645.55,88.7863 z" id="boundary" inkscape:connector-curvature="0" />
	<path style="fill:none;stroke:red;stroke-width:1px;stroke-linecap:butt;stroke-linejoin:miter;stroke-opacity:1" d="M 518.37,32.2621 540.98,15.3048 z" id="boundary" inkscape:connector-curvature="0" />
	<path style="fill:none;stroke:red;stroke-width:1px;stroke-linecap:butt;stroke-linejoin:miter;stroke-opacity:1" d="M 625.766,18.1311 597.504,6.82621 z" id="boundary" inkscape:connector-curvature="0" />
	<path style="fill:none;stroke:red;stroke-width:1px;stroke-linecap:butt;stroke-linejoin:miter;stroke-opacity:1" d="M 645.55,88.7863 645.55,40.7407 z" id="boundary" inkscape:connector-curvature="0" />
	<path style="fill:none;stroke:red;stroke-width:1px;stroke-linecap:butt;stroke-linejoin:miter;stroke-opacity:1" d="M 645.55,40.7407 625.766,18.1311 z" id="boundary" inkscape:connector-curvature="0" />
	<path style="fill:none;stroke:red;stroke-width:1px;stroke-linecap:butt;stroke-linejoin:miter;stroke-opacity:1" d="M 490.108,37.9145 518.37,32.2621 z" id="boundary" inkscape:connector-curvature="0" />
	<path style="fill:none;stroke:red;stroke-width:1px;stroke-linecap:butt;stroke-linejoin:miter;stroke-opacity:1" d="M 639.897,823.601 639.897,795.339 z" id="boundary" inkscape:connector-curvature="0" />
	<path style="fill:none;stroke:red;stroke-width:1px;stroke-linecap:butt;stroke-linejoin:miter;stroke-opacity:1" d="M 597.504,6.82621 569.242,4 z" id="boundary" inkscape:connector-curvature="0" />
	<path style="fill:none;stroke:red;stroke-width:1px;stroke-linecap:butt;stroke-linejoin:miter;stroke-opacity:1" d="M 569.242,4 540.98,15.3048 z" id="boundary" inkscape:connector-curvature="0" />
	<path style="fill:none;stroke:red;stroke-width:1px;stroke-linecap:butt;stroke-linejoin:miter;stroke-opacity:1" d="M 521.197,996 549.459,996 z" id="boundary" inkscape:connector-curvature="0" />
	<path style="fill:none;stroke:red;stroke-width:1px;stroke-linecap:butt;stroke-linejoin:miter;stroke-opacity:1" d="M 549.459,996 577.721,987.521 z" id="boundary" inkscape:connector-curvature="0" />
	<path style="fill:none;stroke:red;stroke-width:1px;stroke-linecap:butt;stroke-linejoin:miter;stroke-opacity:1" d="M 577.721,987.521 605.983,976.217 z" id="boundary" inkscape:connector-curvature="0" />
	<path style="fill:none;stroke:red;stroke-width:1px;stroke-linecap:butt;stroke-linejoin:miter;stroke-opacity:1" d="M 605.983,976.217 622.94,953.607 z" id="boundary" inkscape:connector-curvature="0" />
	<path style="fill:none;stroke:red;stroke-width:1px;stroke-linecap:butt;stroke-linejoin:miter;stroke-opacity:1" d="M 628.593,925.345 639.897,880.125 z" id="boundary" inkscape:connector-curvature="0" />
	<path style="fill:none;stroke:red;stroke-width:1px;stroke-linecap:butt;stroke-linejoin:miter;stroke-opacity:1" d="M 628.593,925.345 622.94,953.607 z" id="boundary" inkscape:connector-curvature="0" />
	<path style="fill:none;stroke:red;stroke-width:1px;stroke-linecap:butt;stroke-linejoin:miter;stroke-opacity:1" d="M 639.897,851.863 639.897,823.601 z" id="boundary" inkscape:connector-curvature="0" />
	<path style="fill:none;stroke:red;stroke-width:1px;stroke-linecap:butt;stroke-linejoin:miter;stroke-opacity:1" d="M 639.897,880.125 639.897,851.863 z" id="boundary" inkscape:connector-curvature="0" />
	<path style="fill:none;stroke:red;stroke-width:1px;stroke-linecap:butt;stroke-linejoin:miter;stroke-opacity:1" d="M 645.55,394.017 656.855,422.279 z" id="boundary" inkscape:connector-curvature="0" />
	<path style="fill:none;stroke:red;stroke-width:1px;stroke-linecap:butt;stroke-linejoin:miter;stroke-opacity:1" d="M 651.202,654.028 651.202,625.766 z" id="boundary" inkscape:connector-curvature="0" />
	<path style="fill:none;stroke:red;stroke-width:1px;stroke-linecap:butt;stroke-linejoin:miter;stroke-opacity:1" d="M 651.202,682.291 651.202,654.028 z" id="boundary" inkscape:connector-curvature="0" />
	<path style="fill:none;stroke:red;stroke-width:1px;stroke-linecap:butt;stroke-linejoin:miter;stroke-opacity:1" d="M 651.202,682.291 651.202,710.553 z" id="boundary" inkscape:connector-curvature="0" />
	<path style="fill:none;stroke:red;stroke-width:1px;stroke-linecap:butt;stroke-linejoin:miter;stroke-opacity:1" d="M 645.55,394.017 656.855,365.755 z" id="boundary" inkscape:connector-curvature="0" />
	<path style="fill:none;stroke:red;stroke-width:1px;stroke-linecap:butt;stroke-linejoin:miter;stroke-opacity:1" d="M 651.202,710.553 656.855,738.815 z" id="boundary" inkscape:connector-curvature="0" />
	<path style="fill:none;stroke:red;stroke-width:1px;stroke-linecap:butt;stroke-linejoin:miter;stroke-opacity:1" d="M 656.855,738.815 656.855,767.077 z" id="boundary" inkscape:connector-curvature="0" />
	<path style="fill:none;stroke:red;stroke-width:1px;stroke-linecap:butt;stroke-linejoin:miter;stroke-opacity:1" d="M 656.855,767.077 639.897,795.339 z" id="boundary" inkscape:connector-curvature="0" />
	<path style="fill:none;stroke:red;stroke-width:1px;stroke-linecap:butt;stroke-linejoin:miter;stroke-opacity:1" d="M 662.507,580.547 651.202,625.766 z" id="boundary" inkscape:connector-curvature="0" />
	<path style="fill:none;stroke:red;stroke-width:1px;stroke-linecap:butt;stroke-linejoin:miter;stroke-opacity:1" d="M 673.812,552.285 662.507,580.547 z" id="boundary" inkscape:connector-curvature="0" />
	<path style="fill:none;stroke:red;stroke-width:1px;stroke-linecap:butt;stroke-linejoin:miter;stroke-opacity:1" d="M 670.986,340.319 656.855,365.755 z" id="boundary" inkscape:connector-curvature="0" />
	<path style="fill:none;stroke:red;stroke-width:1px;stroke-linecap:butt;stroke-linejoin:miter;stroke-opacity:1" d="M 673.812,552.285 687.943,507.066 z" id="boundary" inkscape:connector-curvature="0" />
	<path style="fill:none;stroke:red;stroke-width:1px;stroke-linecap:butt;stroke-linejoin:miter;stroke-opacity:1" d="M 668.16,450.541 679.464,478.803 z" id="boundary" inkscape:connector-curvature="0" />
	<path style="fill:none;stroke:red;stroke-width:1px;stroke-linecap:butt;stroke-linejoin:miter;stroke-opacity:1" d="M 668.16,450.541 656.855,422.279 z" id="boundary" inkscape:connector-curvature="0" />
	<path style="fill:none;stroke:red;stroke-width:1px;stroke-linecap:butt;stroke-linejoin:miter;stroke-opacity:1" d="M 679.464,478.803 687.943,507.066 z" id="boundary" inkscape:connector-curvature="0" />
	<path style="fill:none;stroke:red;stroke-width:1px;stroke-linecap:butt;stroke-linejoin:miter;stroke-opacity:1" d="M 670.986,340.319 685.117,309.231 z" id="boundary" inkscape:connector-curvature="0" />
	<path style="fill:none;stroke:red;stroke-width:1px;stroke-linecap:butt;stroke-linejoin:miter;stroke-opacity:1" d="M 685.117,309.231 696.422,280.969 z" id="boundary" inkscape:connector-curvature="0" />
	<path style="fill:none;stroke:red;stroke-width:1px;stroke-linecap:butt;stroke-linejoin:miter;stroke-opacity:1" d="M 696.422,224.444 696.422,196.182 z" id="boundary" inkscape:connector-curvature="0" />
	<path style="fill:none;stroke:red;stroke-width:1px;stroke-linecap:butt;stroke-linejoin:miter;stroke-opacity:1" d="M 696.422,196.182 685.117,167.92 z" id="boundary" inkscape:connector-curvature="0" />
	<path style="fill:none;stroke:red;stroke-width:1px;stroke-linecap:butt;stroke-linejoin:miter;stroke-opacity:1" d="M 696.422,252.707 696.422,224.444 z" id="boundary" inkscape:connector-curvature="0" />
	<path style="fill:none;stroke:red;stroke-width:1px;stroke-linecap:butt;stroke-linejoin:miter;stroke-opacity:1" d="M 696.422,280.969 696.422,252.707 z" id="boundary" inkscape:connector-curvature="0" />
	<circle cx="4" cy="812.296" r="4" fill="#0" id="circle0"/>
	<circle cx="4" cy="840.558" r="4" fill="#0" id="circle1"/>
	<circle cx="4" cy="868.821" r="4" fill="#0" id="circle2"/>
	<circle cx="6.82621" cy="897.083" r="4" fill="#0" id="circle3"/>
	<circle cx="9.65242" cy="767.077" r="4" fill="#0" id="circle4"/>
	<circle cx="9.65242" cy="925.345" r="4" fill="#0" id="circle5"/>
	<circle cx="20.9573" cy="953.607" r="4" fill="#0" id="circle6"/>
	<circle cx="26.6097" cy="738.815" r="4" fill="#0" id="circle7"/>
	<circle cx="43.567" cy="973.39" r="4" fill="#0" id="circle8"/>
	<circle cx="54.8718" cy="727.51" r="4" fill="#0" id="circle9"/>
	<circle cx="71.8291" cy="984.695" r="4" fill="#0" id="circle10"/>
	<circle cx="83.1339" cy="484.456" r="4" fill="#0" id="circle11"/>
	<circle cx="83.1339" cy="512.718" r="4" fill="#0" id="circle12"/>
	<circle cx="83.1339" cy="727.51" r="4" fill="#0" id="circle13"/>
	<circle cx="85.9601" cy="540.98" r="4" fill="#0" id="circle14"/>
	<circle cx="88.7863" cy="569.242" r="4" fill="#0" id="circle15"/>
	<circle cx="100.091" cy="993.174" r="4" fill="#0" id="circle16"/>
	<circle cx="105.744" cy="461.846" r="4" fill="#0" id="circle17"/>
	<circle cx="105.744" cy="591.852" r="4" fill="#0" id="circle18"/>
	<circle cx="111.396" cy="727.51" r="4" fill="#0" id="circle19"/>
	<circle cx="128.353" cy="611.635" r="4" fill="#0" id="circle20"/>
	<circle cx="128.353" cy="996" r="4" fill="#0" id="circle21"/>
	<circle cx="131.179" cy="447.715" r="4" fill="#0" id="circle22"/>
	<circle cx="139.658" cy="730.336" r="4" fill="#0" id="circle23"/>
	<circle cx="153.789" cy="625.766" r="4" fill="#0" id="circle24"/>
	<circle cx="156.615" cy="996" r="4" fill="#0" id="circle25"/>
	<circle cx="159.442" cy="439.236" r="4" fill="#0" id="circle26"/>
	<circle cx="167.92" cy="738.815" r="4" fill="#0" id="circle27"/>
	<circle cx="179.225" cy="639.897" r="4" fill="#0" id="circle28"/>
	<circle cx="184.877" cy="984.695" r="4" fill="#0" id="circle29"/>
	<circle cx="187.704" cy="433.584" r="4" fill="#0" id="circle30"/>
	<circle cx="196.182" cy="699.248" r="4" fill="#0" id="circle31"/>
	<circle cx="196.182" cy="727.51" r="4" fill="#0" id="circle32"/>
	<circle cx="201.835" cy="670.986" r="4" fill="#0" id="circle33"/>
	<circle cx="207.487" cy="252.707" r="4" fill="#0" id="circle34"/>
	<circle cx="213.14" cy="973.39" r="4" fill="#0" id="circle35"/>
	<circle cx="215.966" cy="433.584" r="4" fill="#0" id="circle36"/>
	<circle cx="218.792" cy="224.444" r="4" fill="#0" id="circle37"/>
	<circle cx="218.792" cy="280.969" r="4" fill="#0" id="circle38"/>
	<circle cx="218.792" cy="309.231" r="4" fill="#0" id="circle39"/>
	<circle cx="232.923" cy="334.667" r="4" fill="#0" id="circle40"/>
	<circle cx="241.402" cy="973.39" r="4" fill="#0" id="circle41"/>
	<circle cx="244.228" cy="210.313" r="4" fill="#0" id="circle42"/>
	<circle cx="244.228" cy="427.932" r="4" fill="#0" id="circle43"/>
	<circle cx="249.88" cy="357.276" r="4" fill="#0" id="circle44"/>
	<circle cx="269.664" cy="196.182" r="4" fill="#0" id="circle45"/>
	<circle cx="269.664" cy="970.564" r="4" fill="#0" id="circle46"/>
	<circle cx="272.49" cy="413.801" r="4" fill="#0" id="circle47"/>
	<circle cx="275.316" cy="371.407" r="4" fill="#0" id="circle48"/>
	<circle cx="297.926" cy="190.53" r="4" fill="#0" id="circle49"/>
	<circle cx="297.926" cy="981.869" r="4" fill="#0" id="circle50"/>
	<circle cx="314.883" cy="167.92" r="4" fill="#0" id="circle51"/>
	<circle cx="323.362" cy="996" r="4" fill="#0" id="circle52"/>
	<circle cx="331.84" cy="145.311" r="4" fill="#0" id="circle53"/>
	<circle cx="348.798" cy="60.5242" r="4" fill="#0" id="circle54"/>
	<circle cx="348.798" cy="88.7863" r="4" fill="#0" id="circle55"/>
	<circle cx="348.798" cy="117.048" r="4" fill="#0" id="circle56"/>
	<circle cx="351.624" cy="996" r="4" fill="#0" id="circle57"/>
	<circle cx="365.755" cy="32.2621" r="4" fill="#0" id="circle58"/>
	<circle cx="379.886" cy="996" r="4" fill="#0" id="circle59"/>
	<circle cx="388.365" cy="15.3048" r="4" fill="#0" id="circle60"/>
	<circle cx="408.148" cy="996" r="4" fill="#0" id="circle61"/>
	<circle cx="416.627" cy="6.82621" r="4" fill="#0" id="circle62"/>
	<circle cx="436.41" cy="990.348" r="4" fill="#0" id="circle63"/>
	<circle cx="444.889" cy="9.65242" r="4" fill="#0" id="circle64"/>
	<circle cx="464.672" cy="990.348" r="4" fill="#0" id="circle65"/>
	<circle cx="473.151" cy="15.3048" r="4" fill="#0" id="circle66"/>
	<circle cx="490.108" cy="37.9145" r="4" fill="#0" id="circle67"/>
	<circle cx="492.934" cy="990.348" r="4" fill="#0" id="circle68"/>
	<circle cx="518.37" cy="32.2621" r="4" fill="#0" id="circle69"/>
	<circle cx="521.197" cy="996" r="4" fill="#0" id="circle70"/>
	<circle cx="540.98" cy="15.3048" r="4" fill="#0" id="circle71"/>
	<circle cx="549.459" cy="996" r="4" fill="#0" id="circle72"/>
	<circle cx="569.242" cy="4" r="4" fill="#0" id="circle73"/>
	<circle cx="577.721" cy="987.521" r="4" fill="#0" id="circle74"/>
	<circle cx="597.504" cy="6.82621" r="4" fill="#0" id="circle75"/>
	<circle cx="605.983" cy="976.217" r="4" fill="#0" id="circle76"/>
	<circle cx="622.94" cy="953.607" r="4" fill="#0" id="circle77"/>
	<circle cx="625.766" cy="18.1311" r="4" fill="#0" id="circle78"/>
	<circle cx="628.593" cy="925.345" r="4" fill="#0" id="circle79"/>
	<circle cx="639.897" cy="795.339" r="4" fill="#0" id="circle80"/>
	<circle cx="639.897" cy="823.601" r="4" fill="#0" id="circle81"/>
	<circle cx="639.897" cy="851.863" r="4" fill="#0" id="circle82"/>
	<circle cx="639.897" cy="880.125" r="4" fill="#0" id="circle83"/>
	<circle cx="645.55" cy="40.7407" r="4" fill="#0" id="circle84"/>
	<circle cx="645.55" cy="88.7863" r="4" fill="#0" id="circle85"/>
	<circle cx="645.55" cy="394.017" r="4" fill="#0" id="circle86"/>
	<circle cx="651.202" cy="625.766" r="4" fill="#0" id="circle87"/>
	<circle cx="651.202" cy="654.028" r="4" fill="#0" id="circle88"/>
	<circle cx="651.202" cy="682.291" r="4" fill="#0" id="circle89"/>
	<circle cx="651.202" cy="710.553" r="4" fill="#0" id="circle90"/>
	<circle cx="656.855" cy="365.755" r="4" fill="#0" id="circle91"/>
	<circle cx="656.855" cy="422.279" r="4" fill="#0" id="circle92"/>
	<circle cx="656.855" cy="738.815" r="4" fill="#0" id="circle93"/>
	<circle cx="656.855" cy="767.077" r="4" fill="#0" id="circle94"/>
	<circle cx="659.681" cy="114.222" r="4" fill="#0" id="circle95"/>
	<circle cx="662.507" cy="580.547" r="4" fill="#0" id="circle96"/>
	<circle cx="668.16" cy="450.541" r="4" fill="#0" id="circle97"/>
	<circle cx="670.986" cy="340.319" r="4" fill="#0" id="circle98"/>
	<circle cx="673.812" cy="139.658" r="4" fill="#0" id="circle99"/>
	<circle cx="673.812" cy="552.285" r="4" fill="#0" id="circle100"/>
	<circle cx="679.464" cy="478.803" r="4" fill="#0" id="circle101"/>
	<circle cx="685.117" cy="167.92" r="4" fill="#0" id="circle102"/>
	<circle cx="685.117" cy="309.231" r="4" fill="#0" id="circle103"/>
	<circle cx="687.943" cy="507.066" r="4" fill="#0" id="circle104"/>
	<circle cx="696.422" cy="196.182" r="4" fill="#0" id="circle105"/>
	<circle cx="696.422" cy="224.444" r="4" fill="#0" id="circle106"/>
	<circle cx="696.422" cy="252.707" r="4" fill="#0" id="circle107"/>
	<circle cx="696.422" cy="280.969" r="4" fill="#0" id="circle108"/>
	</g>
</svg>