<?xml version="1.0" encoding="UTF-8" standalone="no"?>
<!-- Created with CurveBenchmark -->
<svg
	xmlns:dc="http://purl.org/dc/elements/1.1/"
	xmlns:cc="http://creativecommons.org/ns#"
	xmlns:rdf="http://www.w3.org/1999/02/22-rdf-syntax-ns#"
	xmlns:svg="http://www.w3.org/2000/svg"
	xmlns="http://www.w3.org/2000/svg"
	xmlns:sodipodi="http://sodipodi.sourceforge.net/DTD/sodipodi-0.dtd"
	xmlns:inkscape="http://www.inkscape.org/namespaces/inkscape"
	width="1000"
	height="1000"
	id="svg2"
	version="1.1"
	sodipodi:docname="manifold/stretchdenoise-fish230.png.txt">
<defs
	id="defs4" />
<metadata
	id="metadata7">
	<rdf:RDF>
		<cc:Work
			rdf:about="">
			<dc:format>image/svg+xml</dc:format>
			<dc:type
				rdf:resource="http://purl.org/dc/dcmitype/StillImage" />
			<dc:title></dc:title>
		</cc:Work>
	</rdf:RDF>
</metadata>
<g
	inkscape:label="Layer 1"
	inkscape:groupmode="layer"
	id="layer1">
	<path style="fill:none;stroke:red;stroke-width:1px;stroke-linecap:butt;stroke-linejoin:miter;stroke-opacity:1" d="M 4,187.073 8.25751,229.648 z" id="boundary" inkscape:connector-curvature="0" />
	<path style="fill:none;stroke:red;stroke-width:1px;stroke-linecap:butt;stroke-linejoin:miter;stroke-opacity:1" d="M 4,187.073 46.5751,182.815 z" id="boundary" inkscape:connector-curvature="0" />
	<path style="fill:none;stroke:red;stroke-width:1px;stroke-linecap:butt;stroke-linejoin:miter;stroke-opacity:1" d="M 4,468.069 12.515,425.494 z" id="boundary" inkscape:connector-curvature="0" />
	<path style="fill:none;stroke:red;stroke-width:1px;stroke-linecap:butt;stroke-linejoin:miter;stroke-opacity:1" d="M 4,468.069 25.2876,506.386 z" id="boundary" inkscape:connector-curvature="0" />
	<path style="fill:none;stroke:red;stroke-width:1px;stroke-linecap:butt;stroke-linejoin:miter;stroke-opacity:1" d="M 8.25751,229.648 16.7725,272.223 z" id="boundary" inkscape:connector-curvature="0" />
	<path style="fill:none;stroke:red;stroke-width:1px;stroke-linecap:butt;stroke-linejoin:miter;stroke-opacity:1" d="M 12.515,425.494 21.03,357.373 z" id="boundary" inkscape:connector-curvature="0" />
	<path style="fill:none;stroke:red;stroke-width:1px;stroke-linecap:butt;stroke-linejoin:miter;stroke-opacity:1" d="M 16.7725,272.223 21.03,314.798 z" id="boundary" inkscape:connector-curvature="0" />
	<path style="fill:none;stroke:red;stroke-width:1px;stroke-linecap:butt;stroke-linejoin:miter;stroke-opacity:1" d="M 21.03,314.798 21.03,357.373 z" id="boundary" inkscape:connector-curvature="0" />
	<path style="fill:none;stroke:red;stroke-width:1px;stroke-linecap:butt;stroke-linejoin:miter;stroke-opacity:1" d="M 25.2876,506.386 67.8627,502.129 z" id="boundary" inkscape:connector-curvature="0" />
	<path style="fill:none;stroke:red;stroke-width:1px;stroke-linecap:butt;stroke-linejoin:miter;stroke-opacity:1" d="M 46.5751,182.815 89.1502,199.846 z" id="boundary" inkscape:connector-curvature="0" />
	<path style="fill:none;stroke:red;stroke-width:1px;stroke-linecap:butt;stroke-linejoin:miter;stroke-opacity:1" d="M 67.8627,502.129 106.18,480.841 z" id="boundary" inkscape:connector-curvature="0" />
	<path style="fill:none;stroke:red;stroke-width:1px;stroke-linecap:butt;stroke-linejoin:miter;stroke-opacity:1" d="M 89.1502,199.846 127.468,221.133 z" id="boundary" inkscape:connector-curvature="0" />
	<path style="fill:none;stroke:red;stroke-width:1px;stroke-linecap:butt;stroke-linejoin:miter;stroke-opacity:1" d="M 106.18,480.841 140.24,455.296 z" id="boundary" inkscape:connector-curvature="0" />
	<path style="fill:none;stroke:red;stroke-width:1px;stroke-linecap:butt;stroke-linejoin:miter;stroke-opacity:1" d="M 127.468,221.133 161.528,246.678 z" id="boundary" inkscape:connector-curvature="0" />
	<path style="fill:none;stroke:red;stroke-width:1px;stroke-linecap:butt;stroke-linejoin:miter;stroke-opacity:1" d="M 140.24,455.296 174.3,421.236 z" id="boundary" inkscape:connector-curvature="0" />
	<path style="fill:none;stroke:red;stroke-width:1px;stroke-linecap:butt;stroke-linejoin:miter;stroke-opacity:1" d="M 161.528,246.678 195.588,272.223 z" id="boundary" inkscape:connector-curvature="0" />
	<path style="fill:none;stroke:red;stroke-width:1px;stroke-linecap:butt;stroke-linejoin:miter;stroke-opacity:1" d="M 174.3,421.236 216.876,416.979 z" id="boundary" inkscape:connector-curvature="0" />
	<path style="fill:none;stroke:red;stroke-width:1px;stroke-linecap:butt;stroke-linejoin:miter;stroke-opacity:1" d="M 195.588,272.223 221.133,233.906 z" id="boundary" inkscape:connector-curvature="0" />
	<path style="fill:none;stroke:red;stroke-width:1px;stroke-linecap:butt;stroke-linejoin:miter;stroke-opacity:1" d="M 216.876,416.979 216.876,459.554 z" id="boundary" inkscape:connector-curvature="0" />
	<path style="fill:none;stroke:red;stroke-width:1px;stroke-linecap:butt;stroke-linejoin:miter;stroke-opacity:1" d="M 216.876,459.554 229.648,502.129 z" id="boundary" inkscape:connector-curvature="0" />
	<path style="fill:none;stroke:red;stroke-width:1px;stroke-linecap:butt;stroke-linejoin:miter;stroke-opacity:1" d="M 221.133,233.906 242.421,195.588 z" id="boundary" inkscape:connector-curvature="0" />
	<path style="fill:none;stroke:red;stroke-width:1px;stroke-linecap:butt;stroke-linejoin:miter;stroke-opacity:1" d="M 229.648,502.129 246.678,544.704 z" id="boundary" inkscape:connector-curvature="0" />
	<path style="fill:none;stroke:red;stroke-width:1px;stroke-linecap:butt;stroke-linejoin:miter;stroke-opacity:1" d="M 242.421,195.588 267.966,161.528 z" id="boundary" inkscape:connector-curvature="0" />
	<path style="fill:none;stroke:red;stroke-width:1px;stroke-linecap:butt;stroke-linejoin:miter;stroke-opacity:1" d="M 246.678,544.704 289.253,548.961 z" id="boundary" inkscape:connector-curvature="0" />
	<path style="fill:none;stroke:red;stroke-width:1px;stroke-linecap:butt;stroke-linejoin:miter;stroke-opacity:1" d="M 267.966,161.528 302.026,127.468 z" id="boundary" inkscape:connector-curvature="0" />
	<path style="fill:none;stroke:red;stroke-width:1px;stroke-linecap:butt;stroke-linejoin:miter;stroke-opacity:1" d="M 289.253,548.961 331.828,540.446 z" id="boundary" inkscape:connector-curvature="0" />
	<path style="fill:none;stroke:red;stroke-width:1px;stroke-linecap:butt;stroke-linejoin:miter;stroke-opacity:1" d="M 302.026,127.468 344.601,110.438 z" id="boundary" inkscape:connector-curvature="0" />
	<path style="fill:none;stroke:red;stroke-width:1px;stroke-linecap:butt;stroke-linejoin:miter;stroke-opacity:1" d="M 331.828,540.446 370.146,514.901 z" id="boundary" inkscape:connector-curvature="0" />
	<path style="fill:none;stroke:red;stroke-width:1px;stroke-linecap:butt;stroke-linejoin:miter;stroke-opacity:1" d="M 344.601,110.438 378.661,135.983 z" id="boundary" inkscape:connector-curvature="0" />
	<path style="fill:none;stroke:red;stroke-width:1px;stroke-linecap:butt;stroke-linejoin:miter;stroke-opacity:1" d="M 370.146,514.901 412.721,523.416 z" id="boundary" inkscape:connector-curvature="0" />
	<path style="fill:none;stroke:red;stroke-width:1px;stroke-linecap:butt;stroke-linejoin:miter;stroke-opacity:1" d="M 378.661,135.983 421.236,135.983 z" id="boundary" inkscape:connector-curvature="0" />
	<path style="fill:none;stroke:red;stroke-width:1px;stroke-linecap:butt;stroke-linejoin:miter;stroke-opacity:1" d="M 412.721,523.416 455.296,523.416 z" id="boundary" inkscape:connector-curvature="0" />
	<path style="fill:none;stroke:red;stroke-width:1px;stroke-linecap:butt;stroke-linejoin:miter;stroke-opacity:1" d="M 421.236,135.983 460.392,107.018 z" id="boundary" inkscape:connector-curvature="0" />
	<path style="fill:none;stroke:red;stroke-width:1px;stroke-linecap:butt;stroke-linejoin:miter;stroke-opacity:1" d="M 460.392,107.018 489.356,67.8626 z" id="boundary" inkscape:connector-curvature="0" />
	<path style="fill:none;stroke:red;stroke-width:1px;stroke-linecap:butt;stroke-linejoin:miter;stroke-opacity:1" d="M 455.296,523.416 497.871,531.931 z" id="boundary" inkscape:connector-curvature="0" />
	<path style="fill:none;stroke:red;stroke-width:1px;stroke-linecap:butt;stroke-linejoin:miter;stroke-opacity:1" d="M 480.841,612.824 480.841,655.399 z" id="boundary" inkscape:connector-curvature="0" />
	<path style="fill:none;stroke:red;stroke-width:1px;stroke-linecap:butt;stroke-linejoin:miter;stroke-opacity:1" d="M 480.841,612.824 497.871,531.931 z" id="boundary" inkscape:connector-curvature="0" />
	<path style="fill:none;stroke:red;stroke-width:1px;stroke-linecap:butt;stroke-linejoin:miter;stroke-opacity:1" d="M 480.841,655.399 502.129,693.717 z" id="boundary" inkscape:connector-curvature="0" />
	<path style="fill:none;stroke:red;stroke-width:1px;stroke-linecap:butt;stroke-linejoin:miter;stroke-opacity:1" d="M 489.356,67.8626 531.931,50.8326 z" id="boundary" inkscape:connector-curvature="0" />
	<path style="fill:none;stroke:red;stroke-width:1px;stroke-linecap:butt;stroke-linejoin:miter;stroke-opacity:1" d="M 502.129,693.717 544.704,672.429 z" id="boundary" inkscape:connector-curvature="0" />
	<path style="fill:none;stroke:red;stroke-width:1px;stroke-linecap:butt;stroke-linejoin:miter;stroke-opacity:1" d="M 531.931,50.8326 570.123,29.3178 z" id="boundary" inkscape:connector-curvature="0" />
	<path style="fill:none;stroke:red;stroke-width:1px;stroke-linecap:butt;stroke-linejoin:miter;stroke-opacity:1" d="M 544.704,672.429 578.764,646.884 z" id="boundary" inkscape:connector-curvature="0" />
	<path style="fill:none;stroke:red;stroke-width:1px;stroke-linecap:butt;stroke-linejoin:miter;stroke-opacity:1" d="M 570.123,29.3178 608.567,8.25745 z" id="boundary" inkscape:connector-curvature="0" />
	<path style="fill:none;stroke:red;stroke-width:1px;stroke-linecap:butt;stroke-linejoin:miter;stroke-opacity:1" d="M 578.764,646.884 612.824,612.824 z" id="boundary" inkscape:connector-curvature="0" />
	<path style="fill:none;stroke:red;stroke-width:1px;stroke-linecap:butt;stroke-linejoin:miter;stroke-opacity:1" d="M 608.567,8.25745 651.142,4 z" id="boundary" inkscape:connector-curvature="0" />
	<path style="fill:none;stroke:red;stroke-width:1px;stroke-linecap:butt;stroke-linejoin:miter;stroke-opacity:1" d="M 612.824,612.824 642.627,646.884 z" id="boundary" inkscape:connector-curvature="0" />
	<path style="fill:none;stroke:red;stroke-width:1px;stroke-linecap:butt;stroke-linejoin:miter;stroke-opacity:1" d="M 642.627,646.884 668.172,680.944 z" id="boundary" inkscape:connector-curvature="0" />
	<path style="fill:none;stroke:red;stroke-width:1px;stroke-linecap:butt;stroke-linejoin:miter;stroke-opacity:1" d="M 651.142,4 672.429,42.3175 z" id="boundary" inkscape:connector-curvature="0" />
	<path style="fill:none;stroke:red;stroke-width:1px;stroke-linecap:butt;stroke-linejoin:miter;stroke-opacity:1" d="M 668.172,680.944 710.747,685.202 z" id="boundary" inkscape:connector-curvature="0" />
	<path style="fill:none;stroke:red;stroke-width:1px;stroke-linecap:butt;stroke-linejoin:miter;stroke-opacity:1" d="M 672.429,42.3175 697.974,76.3777 z" id="boundary" inkscape:connector-curvature="0" />
	<path style="fill:none;stroke:red;stroke-width:1px;stroke-linecap:butt;stroke-linejoin:miter;stroke-opacity:1" d="M 697.974,76.3777 697.974,127.468 z" id="boundary" inkscape:connector-curvature="0" />
	<path style="fill:none;stroke:red;stroke-width:1px;stroke-linecap:butt;stroke-linejoin:miter;stroke-opacity:1" d="M 697.974,127.468 732.034,153.013 z" id="boundary" inkscape:connector-curvature="0" />
	<path style="fill:none;stroke:red;stroke-width:1px;stroke-linecap:butt;stroke-linejoin:miter;stroke-opacity:1" d="M 710.747,685.202 736.292,651.142 z" id="boundary" inkscape:connector-curvature="0" />
	<path style="fill:none;stroke:red;stroke-width:1px;stroke-linecap:butt;stroke-linejoin:miter;stroke-opacity:1" d="M 732.034,153.013 774.609,161.528 z" id="boundary" inkscape:connector-curvature="0" />
	<path style="fill:none;stroke:red;stroke-width:1px;stroke-linecap:butt;stroke-linejoin:miter;stroke-opacity:1" d="M 736.292,651.142 749.064,587.279 z" id="boundary" inkscape:connector-curvature="0" />
	<path style="fill:none;stroke:red;stroke-width:1px;stroke-linecap:butt;stroke-linejoin:miter;stroke-opacity:1" d="M 749.064,544.704 749.064,587.279 z" id="boundary" inkscape:connector-curvature="0" />
	<path style="fill:none;stroke:red;stroke-width:1px;stroke-linecap:butt;stroke-linejoin:miter;stroke-opacity:1" d="M 749.064,544.704 787.382,523.416 z" id="boundary" inkscape:connector-curvature="0" />
	<path style="fill:none;stroke:red;stroke-width:1px;stroke-linecap:butt;stroke-linejoin:miter;stroke-opacity:1" d="M 774.609,161.528 817.185,178.558 z" id="boundary" inkscape:connector-curvature="0" />
	<path style="fill:none;stroke:red;stroke-width:1px;stroke-linecap:butt;stroke-linejoin:miter;stroke-opacity:1" d="M 787.382,523.416 825.324,494.805 z" id="boundary" inkscape:connector-curvature="0" />
	<path style="fill:none;stroke:red;stroke-width:1px;stroke-linecap:butt;stroke-linejoin:miter;stroke-opacity:1" d="M 817.185,178.558 855.502,199.845 z" id="boundary" inkscape:connector-curvature="0" />
	<path style="fill:none;stroke:red;stroke-width:1px;stroke-linecap:butt;stroke-linejoin:miter;stroke-opacity:1" d="M 825.324,494.805 877.165,500.938 z" id="boundary" inkscape:connector-curvature="0" />
	<path style="fill:none;stroke:red;stroke-width:1px;stroke-linecap:butt;stroke-linejoin:miter;stroke-opacity:1" d="M 855.502,199.845 898.077,212.618 z" id="boundary" inkscape:connector-curvature="0" />
	<path style="fill:none;stroke:red;stroke-width:1px;stroke-linecap:butt;stroke-linejoin:miter;stroke-opacity:1" d="M 877.165,500.938 915.107,472.326 z" id="boundary" inkscape:connector-curvature="0" />
	<path style="fill:none;stroke:red;stroke-width:1px;stroke-linecap:butt;stroke-linejoin:miter;stroke-opacity:1" d="M 898.077,212.618 932.137,238.163 z" id="boundary" inkscape:connector-curvature="0" />
	<path style="fill:none;stroke:red;stroke-width:1px;stroke-linecap:butt;stroke-linejoin:miter;stroke-opacity:1" d="M 915.107,472.326 949.167,438.266 z" id="boundary" inkscape:connector-curvature="0" />
	<path style="fill:none;stroke:red;stroke-width:1px;stroke-linecap:butt;stroke-linejoin:miter;stroke-opacity:1" d="M 932.137,238.163 957.682,272.223 z" id="boundary" inkscape:connector-curvature="0" />
	<path style="fill:none;stroke:red;stroke-width:1px;stroke-linecap:butt;stroke-linejoin:miter;stroke-opacity:1" d="M 949.167,438.266 970.455,399.949 z" id="boundary" inkscape:connector-curvature="0" />
	<path style="fill:none;stroke:red;stroke-width:1px;stroke-linecap:butt;stroke-linejoin:miter;stroke-opacity:1" d="M 957.682,272.223 991.742,297.768 z" id="boundary" inkscape:connector-curvature="0" />
	<path style="fill:none;stroke:red;stroke-width:1px;stroke-linecap:butt;stroke-linejoin:miter;stroke-opacity:1" d="M 970.455,399.949 996,357.373 z" id="boundary" inkscape:connector-curvature="0" />
	<path style="fill:none;stroke:red;stroke-width:1px;stroke-linecap:butt;stroke-linejoin:miter;stroke-opacity:1" d="M 991.742,297.768 996,357.373 z" id="boundary" inkscape:connector-curvature="0" />
	<circle cx="4" cy="187.073" r="4" fill="#0" id="circle0"/>
	<circle cx="4" cy="468.069" r="4" fill="#0" id="circle1"/>
	<circle cx="8.25751" cy="229.648" r="4" fill="#0" id="circle2"/>
	<circle cx="12.515" cy="425.494" r="4" fill="#0" id="circle3"/>
	<circle cx="16.7725" cy="272.223" r="4" fill="#0" id="circle4"/>
	<circle cx="21.03" cy="314.798" r="4" fill="#0" id="circle5"/>
	<circle cx="21.03" cy="357.373" r="4" fill="#0" id="circle6"/>
	<circle cx="25.2876" cy="506.386" r="4" fill="#0" id="circle7"/>
	<circle cx="46.5751" cy="182.815" r="4" fill="#0" id="circle8"/>
	<circle cx="67.8627" cy="502.129" r="4" fill="#0" id="circle9"/>
	<circle cx="89.1502" cy="199.846" r="4" fill="#0" id="circle10"/>
	<circle cx="106.18" cy="480.841" r="4" fill="#0" id="circle11"/>
	<circle cx="127.468" cy="221.133" r="4" fill="#0" id="circle12"/>
	<circle cx="140.24" cy="455.296" r="4" fill="#0" id="circle13"/>
	<circle cx="161.528" cy="246.678" r="4" fill="#0" id="circle14"/>
	<circle cx="174.3" cy="421.236" r="4" fill="#0" id="circle15"/>
	<circle cx="195.588" cy="272.223" r="4" fill="#0" id="circle16"/>
	<circle cx="216.876" cy="416.979" r="4" fill="#0" id="circle17"/>
	<circle cx="216.876" cy="459.554" r="4" fill="#0" id="circle18"/>
	<circle cx="221.133" cy="233.906" r="4" fill="#0" id="circle19"/>
	<circle cx="229.648" cy="502.129" r="4" fill="#0" id="circle20"/>
	<circle cx="242.421" cy="195.588" r="4" fill="#0" id="circle21"/>
	<circle cx="246.678" cy="544.704" r="4" fill="#0" id="circle22"/>
	<circle cx="267.966" cy="161.528" r="4" fill="#0" id="circle23"/>
	<circle cx="289.253" cy="548.961" r="4" fill="#0" id="circle24"/>
	<circle cx="302.026" cy="127.468" r="4" fill="#0" id="circle25"/>
	<circle cx="331.828" cy="540.446" r="4" fill="#0" id="circle26"/>
	<circle cx="344.601" cy="110.438" r="4" fill="#0" id="circle27"/>
	<circle cx="370.146" cy="514.901" r="4" fill="#0" id="circle28"/>
	<circle cx="378.661" cy="135.983" r="4" fill="#0" id="circle29"/>
	<circle cx="412.721" cy="523.416" r="4" fill="#0" id="circle30"/>
	<circle cx="421.236" cy="135.983" r="4" fill="#0" id="circle31"/>
	<circle cx="460.392" cy="107.018" r="4" fill="#0" id="circle32"/>
	<circle cx="455.296" cy="523.416" r="4" fill="#0" id="circle33"/>
	<circle cx="480.841" cy="612.824" r="4" fill="#0" id="circle34"/>
	<circle cx="480.841" cy="655.399" r="4" fill="#0" id="circle35"/>
	<circle cx="489.356" cy="67.8626" r="4" fill="#0" id="circle36"/>
	<circle cx="497.871" cy="531.931" r="4" fill="#0" id="circle37"/>
	<circle cx="502.129" cy="693.717" r="4" fill="#0" id="circle38"/>
	<circle cx="531.931" cy="50.8326" r="4" fill="#0" id="circle39"/>
	<circle cx="544.704" cy="672.429" r="4" fill="#0" id="circle40"/>
	<circle cx="570.123" cy="29.3178" r="4" fill="#0" id="circle41"/>
	<circle cx="578.764" cy="646.884" r="4" fill="#0" id="circle42"/>
	<circle cx="608.567" cy="8.25745" r="4" fill="#0" id="circle43"/>
	<circle cx="612.824" cy="612.824" r="4" fill="#0" id="circle44"/>
	<circle cx="642.627" cy="646.884" r="4" fill="#0" id="circle45"/>
	<circle cx="651.142" cy="4" r="4" fill="#0" id="circle46"/>
	<circle cx="668.172" cy="680.944" r="4" fill="#0" id="circle47"/>
	<circle cx="672.429" cy="42.3175" r="4" fill="#0" id="circle48"/>
	<circle cx="697.974" cy="76.3777" r="4" fill="#0" id="circle49"/>
	<circle cx="697.974" cy="127.468" r="4" fill="#0" id="circle50"/>
	<circle cx="710.747" cy="685.202" r="4" fill="#0" id="circle51"/>
	<circle cx="732.034" cy="153.013" r="4" fill="#0" id="circle52"/>
	<circle cx="736.292" cy="651.142" r="4" fill="#0" id="circle53"/>
	<circle cx="749.064" cy="544.704" r="4" fill="#0" id="circle54"/>
	<circle cx="749.064" cy="587.279" r="4" fill="#0" id="circle55"/>
	<circle cx="774.609" cy="161.528" r="4" fill="#0" id="circle56"/>
	<circle cx="787.382" cy="523.416" r="4" fill="#0" id="circle57"/>
	<circle cx="817.185" cy="178.558" r="4" fill="#0" id="circle58"/>
	<circle cx="825.324" cy="494.805" r="4" fill="#0" id="circle59"/>
	<circle cx="855.502" cy="199.845" r="4" fill="#0" id="circle60"/>
	<circle cx="877.165" cy="500.938" r="4" fill="#0" id="circle61"/>
	<circle cx="898.077" cy="212.618" r="4" fill="#0" id="circle62"/>
	<circle cx="915.107" cy="472.326" r="4" fill="#0" id="circle63"/>
	<circle cx="932.137" cy="238.163" r="4" fill="#0" id="circle64"/>
	<circle cx="949.167" cy="438.266" r="4" fill="#0" id="circle65"/>
	<circle cx="957.682" cy="272.223" r="4" fill="#0" id="circle66"/>
	<circle cx="970.455" cy="399.949" r="4" fill="#0" id="circle67"/>
	<circle cx="991.742" cy="297.768" r="4" fill="#0" id="circle68"/>
	<circle cx="996" cy="357.373" r="4" fill="#0" id="circle69"/>
	</g>
</svg>