<?xml version="1.0" encoding="UTF-8" standalone="no"?>
<!-- Created with CurveBenchmark -->
<svg
	xmlns:dc="http://purl.org/dc/elements/1.1/"
	xmlns:cc="http://creativecommons.org/ns#"
	xmlns:rdf="http://www.w3.org/1999/02/22-rdf-syntax-ns#"
	xmlns:svg="http://www.w3.org/2000/svg"
	xmlns="http://www.w3.org/2000/svg"
	xmlns:sodipodi="http://sodipodi.sourceforge.net/DTD/sodipodi-0.dtd"
	xmlns:inkscape="http://www.inkscape.org/namespaces/inkscape"
	width="1000"
	height="1000"
	id="svg2"
	version="1.1"
	sodipodi:docname="manifold/stretchdenoise-woodenspoonbinary59.png.txt">
<defs
	id="defs4" />
<metadata
	id="metadata7">
	<rdf:RDF>
		<cc:Work
			rdf:about="">
			<dc:format>image/svg+xml</dc:format>
			<dc:type
				rdf:resource="http://purl.org/dc/dcmitype/StillImage" />
			<dc:title></dc:title>
		</cc:Work>
	</rdf:RDF>
</metadata>
<g
	inkscape:label="Layer 1"
	inkscape:groupmode="layer"
	id="layer1">
	<path style="fill:none;stroke:red;stroke-width:1px;stroke-linecap:butt;stroke-linejoin:miter;stroke-opacity:1" d="M 4,873.757 10.8378,907.946 z" id="boundary" inkscape:connector-curvature="0" />
	<path style="fill:none;stroke:red;stroke-width:1px;stroke-linecap:butt;stroke-linejoin:miter;stroke-opacity:1" d="M 4,873.757 14.2567,839.568 z" id="boundary" inkscape:connector-curvature="0" />
	<path style="fill:none;stroke:red;stroke-width:1px;stroke-linecap:butt;stroke-linejoin:miter;stroke-opacity:1" d="M 10.8378,907.946 27.9323,938.716 z" id="boundary" inkscape:connector-curvature="0" />
	<path style="fill:none;stroke:red;stroke-width:1px;stroke-linecap:butt;stroke-linejoin:miter;stroke-opacity:1" d="M 14.2567,839.568 31.3513,808.798 z" id="boundary" inkscape:connector-curvature="0" />
	<path style="fill:none;stroke:red;stroke-width:1px;stroke-linecap:butt;stroke-linejoin:miter;stroke-opacity:1" d="M 27.9323,938.716 55.2836,959.23 z" id="boundary" inkscape:connector-curvature="0" />
	<path style="fill:none;stroke:red;stroke-width:1px;stroke-linecap:butt;stroke-linejoin:miter;stroke-opacity:1" d="M 31.3513,808.798 58.7025,784.865 z" id="boundary" inkscape:connector-curvature="0" />
	<path style="fill:none;stroke:red;stroke-width:1px;stroke-linecap:butt;stroke-linejoin:miter;stroke-opacity:1" d="M 55.2836,959.23 123.662,976.324 z" id="boundary" inkscape:connector-curvature="0" />
	<path style="fill:none;stroke:red;stroke-width:1px;stroke-linecap:butt;stroke-linejoin:miter;stroke-opacity:1" d="M 58.7025,784.865 88.8019,766.563 z" id="boundary" inkscape:connector-curvature="0" />
	<path style="fill:none;stroke:red;stroke-width:1px;stroke-linecap:butt;stroke-linejoin:miter;stroke-opacity:1" d="M 88.8019,766.563 120.81,751.973 z" id="boundary" inkscape:connector-curvature="0" />
	<path style="fill:none;stroke:red;stroke-width:1px;stroke-linecap:butt;stroke-linejoin:miter;stroke-opacity:1" d="M 120.81,751.973 158.103,752.813 z" id="boundary" inkscape:connector-curvature="0" />
	<path style="fill:none;stroke:red;stroke-width:1px;stroke-linecap:butt;stroke-linejoin:miter;stroke-opacity:1" d="M 123.662,976.324 192.04,962.648 z" id="boundary" inkscape:connector-curvature="0" />
	<path style="fill:none;stroke:red;stroke-width:1px;stroke-linecap:butt;stroke-linejoin:miter;stroke-opacity:1" d="M 158.103,752.813 263.177,731.332 z" id="boundary" inkscape:connector-curvature="0" />
	<path style="fill:none;stroke:red;stroke-width:1px;stroke-linecap:butt;stroke-linejoin:miter;stroke-opacity:1" d="M 192.04,962.648 284.35,856.662 z" id="boundary" inkscape:connector-curvature="0" />
	<path style="fill:none;stroke:red;stroke-width:1px;stroke-linecap:butt;stroke-linejoin:miter;stroke-opacity:1" d="M 263.177,731.332 318.692,672.936 z" id="boundary" inkscape:connector-curvature="0" />
	<path style="fill:none;stroke:red;stroke-width:1px;stroke-linecap:butt;stroke-linejoin:miter;stroke-opacity:1" d="M 318.692,672.936 384.135,631.695 z" id="boundary" inkscape:connector-curvature="0" />
	<path style="fill:none;stroke:red;stroke-width:1px;stroke-linecap:butt;stroke-linejoin:miter;stroke-opacity:1" d="M 384.135,631.695 411.938,578.605 z" id="boundary" inkscape:connector-curvature="0" />
	<path style="fill:none;stroke:red;stroke-width:1px;stroke-linecap:butt;stroke-linejoin:miter;stroke-opacity:1" d="M 433.295,574.85 411.938,578.605 z" id="boundary" inkscape:connector-curvature="0" />
	<path style="fill:none;stroke:red;stroke-width:1px;stroke-linecap:butt;stroke-linejoin:miter;stroke-opacity:1" d="M 433.295,574.85 455.295,566.055 z" id="boundary" inkscape:connector-curvature="0" />
	<path style="fill:none;stroke:red;stroke-width:1px;stroke-linecap:butt;stroke-linejoin:miter;stroke-opacity:1" d="M 462.014,548.288 455.295,566.055 z" id="boundary" inkscape:connector-curvature="0" />
	<path style="fill:none;stroke:red;stroke-width:1px;stroke-linecap:butt;stroke-linejoin:miter;stroke-opacity:1" d="M 462.014,548.288 475.806,531.853 z" id="boundary" inkscape:connector-curvature="0" />
	<path style="fill:none;stroke:red;stroke-width:1px;stroke-linecap:butt;stroke-linejoin:miter;stroke-opacity:1" d="M 475.806,531.853 496.987,477.896 z" id="boundary" inkscape:connector-curvature="0" />
	<path style="fill:none;stroke:red;stroke-width:1px;stroke-linecap:butt;stroke-linejoin:miter;stroke-opacity:1" d="M 496.987,477.896 540.295,465.73 z" id="boundary" inkscape:connector-curvature="0" />
	<path style="fill:none;stroke:red;stroke-width:1px;stroke-linecap:butt;stroke-linejoin:miter;stroke-opacity:1" d="M 540.295,465.73 557.863,456.651 z" id="boundary" inkscape:connector-curvature="0" />
	<path style="fill:none;stroke:red;stroke-width:1px;stroke-linecap:butt;stroke-linejoin:miter;stroke-opacity:1" d="M 551.025,422.461 557.863,456.651 z" id="boundary" inkscape:connector-curvature="0" />
	<path style="fill:none;stroke:red;stroke-width:1px;stroke-linecap:butt;stroke-linejoin:miter;stroke-opacity:1" d="M 551.025,422.461 585.214,429.299 z" id="boundary" inkscape:connector-curvature="0" />
	<path style="fill:none;stroke:red;stroke-width:1px;stroke-linecap:butt;stroke-linejoin:miter;stroke-opacity:1" d="M 578.376,395.11 585.214,429.299 z" id="boundary" inkscape:connector-curvature="0" />
	<path style="fill:none;stroke:red;stroke-width:1px;stroke-linecap:butt;stroke-linejoin:miter;stroke-opacity:1" d="M 578.376,395.11 612.565,401.948 z" id="boundary" inkscape:connector-curvature="0" />
	<path style="fill:none;stroke:red;stroke-width:1px;stroke-linecap:butt;stroke-linejoin:miter;stroke-opacity:1" d="M 602.308,367.759 612.565,401.948 z" id="boundary" inkscape:connector-curvature="0" />
	<path style="fill:none;stroke:red;stroke-width:1px;stroke-linecap:butt;stroke-linejoin:miter;stroke-opacity:1" d="M 602.308,367.759 636.497,374.597 z" id="boundary" inkscape:connector-curvature="0" />
	<path style="fill:none;stroke:red;stroke-width:1px;stroke-linecap:butt;stroke-linejoin:miter;stroke-opacity:1" d="M 629.66,340.408 636.497,374.597 z" id="boundary" inkscape:connector-curvature="0" />
	<path style="fill:none;stroke:red;stroke-width:1px;stroke-linecap:butt;stroke-linejoin:miter;stroke-opacity:1" d="M 629.66,340.408 663.849,347.246 z" id="boundary" inkscape:connector-curvature="0" />
	<path style="fill:none;stroke:red;stroke-width:1px;stroke-linecap:butt;stroke-linejoin:miter;stroke-opacity:1" d="M 657.011,313.057 663.849,347.246 z" id="boundary" inkscape:connector-curvature="0" />
	<path style="fill:none;stroke:red;stroke-width:1px;stroke-linecap:butt;stroke-linejoin:miter;stroke-opacity:1" d="M 657.011,313.057 691.2,319.894 z" id="boundary" inkscape:connector-curvature="0" />
	<path style="fill:none;stroke:red;stroke-width:1px;stroke-linecap:butt;stroke-linejoin:miter;stroke-opacity:1" d="M 684.362,285.705 691.2,319.894 z" id="boundary" inkscape:connector-curvature="0" />
	<path style="fill:none;stroke:red;stroke-width:1px;stroke-linecap:butt;stroke-linejoin:miter;stroke-opacity:1" d="M 684.362,285.705 718.551,292.543 z" id="boundary" inkscape:connector-curvature="0" />
	<path style="fill:none;stroke:red;stroke-width:1px;stroke-linecap:butt;stroke-linejoin:miter;stroke-opacity:1" d="M 708.294,258.354 718.551,292.543 z" id="boundary" inkscape:connector-curvature="0" />
	<path style="fill:none;stroke:red;stroke-width:1px;stroke-linecap:butt;stroke-linejoin:miter;stroke-opacity:1" d="M 708.294,258.354 742.484,265.192 z" id="boundary" inkscape:connector-curvature="0" />
	<path style="fill:none;stroke:red;stroke-width:1px;stroke-linecap:butt;stroke-linejoin:miter;stroke-opacity:1" d="M 735.646,231.003 742.484,265.192 z" id="boundary" inkscape:connector-curvature="0" />
	<path style="fill:none;stroke:red;stroke-width:1px;stroke-linecap:butt;stroke-linejoin:miter;stroke-opacity:1" d="M 735.646,231.003 769.835,237.841 z" id="boundary" inkscape:connector-curvature="0" />
	<path style="fill:none;stroke:red;stroke-width:1px;stroke-linecap:butt;stroke-linejoin:miter;stroke-opacity:1" d="M 762.997,203.652 769.835,237.841 z" id="boundary" inkscape:connector-curvature="0" />
	<path style="fill:none;stroke:red;stroke-width:1px;stroke-linecap:butt;stroke-linejoin:miter;stroke-opacity:1" d="M 762.997,203.652 797.186,210.489 z" id="boundary" inkscape:connector-curvature="0" />
	<path style="fill:none;stroke:red;stroke-width:1px;stroke-linecap:butt;stroke-linejoin:miter;stroke-opacity:1" d="M 786.929,176.3 797.186,210.489 z" id="boundary" inkscape:connector-curvature="0" />
	<path style="fill:none;stroke:red;stroke-width:1px;stroke-linecap:butt;stroke-linejoin:miter;stroke-opacity:1" d="M 786.929,176.3 821.118,183.138 z" id="boundary" inkscape:connector-curvature="0" />
	<path style="fill:none;stroke:red;stroke-width:1px;stroke-linecap:butt;stroke-linejoin:miter;stroke-opacity:1" d="M 814.281,148.949 821.118,183.138 z" id="boundary" inkscape:connector-curvature="0" />
	<path style="fill:none;stroke:red;stroke-width:1px;stroke-linecap:butt;stroke-linejoin:miter;stroke-opacity:1" d="M 814.281,148.949 848.47,155.787 z" id="boundary" inkscape:connector-curvature="0" />
	<path style="fill:none;stroke:red;stroke-width:1px;stroke-linecap:butt;stroke-linejoin:miter;stroke-opacity:1" d="M 841.632,121.598 848.47,155.787 z" id="boundary" inkscape:connector-curvature="0" />
	<path style="fill:none;stroke:red;stroke-width:1px;stroke-linecap:butt;stroke-linejoin:miter;stroke-opacity:1" d="M 841.632,121.598 875.821,128.436 z" id="boundary" inkscape:connector-curvature="0" />
	<path style="fill:none;stroke:red;stroke-width:1px;stroke-linecap:butt;stroke-linejoin:miter;stroke-opacity:1" d="M 865.564,94.2466 875.821,128.436 z" id="boundary" inkscape:connector-curvature="0" />
	<path style="fill:none;stroke:red;stroke-width:1px;stroke-linecap:butt;stroke-linejoin:miter;stroke-opacity:1" d="M 865.564,94.2466 899.753,101.084 z" id="boundary" inkscape:connector-curvature="0" />
	<path style="fill:none;stroke:red;stroke-width:1px;stroke-linecap:butt;stroke-linejoin:miter;stroke-opacity:1" d="M 892.915,66.8954 899.753,101.084 z" id="boundary" inkscape:connector-curvature="0" />
	<path style="fill:none;stroke:red;stroke-width:1px;stroke-linecap:butt;stroke-linejoin:miter;stroke-opacity:1" d="M 892.915,66.8954 927.104,73.7331 z" id="boundary" inkscape:connector-curvature="0" />
	<path style="fill:none;stroke:red;stroke-width:1px;stroke-linecap:butt;stroke-linejoin:miter;stroke-opacity:1" d="M 920.267,39.5441 927.104,73.7331 z" id="boundary" inkscape:connector-curvature="0" />
	<path style="fill:none;stroke:red;stroke-width:1px;stroke-linecap:butt;stroke-linejoin:miter;stroke-opacity:1" d="M 920.267,39.5441 954.456,46.3819 z" id="boundary" inkscape:connector-curvature="0" />
	<path style="fill:none;stroke:red;stroke-width:1px;stroke-linecap:butt;stroke-linejoin:miter;stroke-opacity:1" d="M 961.543,23.9827 954.456,46.3819 z" id="boundary" inkscape:connector-curvature="0" />
	<path style="fill:none;stroke:red;stroke-width:1px;stroke-linecap:butt;stroke-linejoin:miter;stroke-opacity:1" d="M 961.543,23.9827 969.222,7.54194 z" id="boundary" inkscape:connector-curvature="0" />
	<path style="fill:none;stroke:red;stroke-width:1px;stroke-linecap:butt;stroke-linejoin:miter;stroke-opacity:1" d="M 996,4 969.222,7.54194 z" id="boundary" inkscape:connector-curvature="0" />
	<circle cx="4" cy="873.757" r="4" fill="#0" id="circle0"/>
	<circle cx="10.8378" cy="907.946" r="4" fill="#0" id="circle1"/>
	<circle cx="14.2567" cy="839.568" r="4" fill="#0" id="circle2"/>
	<circle cx="27.9323" cy="938.716" r="4" fill="#0" id="circle3"/>
	<circle cx="31.3513" cy="808.798" r="4" fill="#0" id="circle4"/>
	<circle cx="55.2836" cy="959.23" r="4" fill="#0" id="circle5"/>
	<circle cx="58.7025" cy="784.865" r="4" fill="#0" id="circle6"/>
	<circle cx="88.8019" cy="766.563" r="4" fill="#0" id="circle7"/>
	<circle cx="89.4726" cy="969.486" r="4" fill="#0" id="circle8"/>
	<circle cx="120.81" cy="751.973" r="4" fill="#0" id="circle9"/>
	<circle cx="123.662" cy="976.324" r="4" fill="#0" id="circle10"/>
	<circle cx="158.103" cy="752.813" r="4" fill="#0" id="circle11"/>
	<circle cx="157.851" cy="972.905" r="4" fill="#0" id="circle12"/>
	<circle cx="188.621" cy="730.163" r="4" fill="#0" id="circle13"/>
	<circle cx="192.04" cy="962.648" r="4" fill="#0" id="circle14"/>
	<circle cx="219.391" cy="942.135" r="4" fill="#0" id="circle15"/>
	<circle cx="222.81" cy="723.325" r="4" fill="#0" id="circle16"/>
	<circle cx="246.742" cy="918.203" r="4" fill="#0" id="circle17"/>
	<circle cx="263.177" cy="731.332" r="4" fill="#0" id="circle18"/>
	<circle cx="267.256" cy="890.851" r="4" fill="#0" id="circle19"/>
	<circle cx="284.35" cy="692.555" r="4" fill="#0" id="circle20"/>
	<circle cx="284.35" cy="856.662" r="4" fill="#0" id="circle21"/>
	<circle cx="287.769" cy="760.933" r="4" fill="#0" id="circle22"/>
	<circle cx="291.188" cy="795.122" r="4" fill="#0" id="circle23"/>
	<circle cx="304.864" cy="730.163" r="4" fill="#0" id="circle24"/>
	<circle cx="318.692" cy="672.936" r="4" fill="#0" id="circle25"/>
	<circle cx="328.796" cy="702.812" r="4" fill="#0" id="circle26"/>
	<circle cx="339.053" cy="637.852" r="4" fill="#0" id="circle27"/>
	<circle cx="352.728" cy="675.46" r="4" fill="#0" id="circle28"/>
	<circle cx="384.135" cy="631.695" r="4" fill="#0" id="circle29"/>
	<circle cx="380.08" cy="648.109" r="4" fill="#0" id="circle30"/>
	<circle cx="393.755" cy="586.569" r="4" fill="#0" id="circle31"/>
	<circle cx="404.012" cy="620.758" r="4" fill="#0" id="circle32"/>
	<circle cx="433.295" cy="574.85" r="4" fill="#0" id="circle33"/>
	<circle cx="411.938" cy="578.605" r="4" fill="#0" id="circle34"/>
	<circle cx="462.014" cy="548.288" r="4" fill="#0" id="circle35"/>
	<circle cx="455.295" cy="566.055" r="4" fill="#0" id="circle36"/>
	<circle cx="472.39" cy="504.515" r="4" fill="#0" id="circle37"/>
	<circle cx="475.806" cy="531.853" r="4" fill="#0" id="circle38"/>
	<circle cx="496.987" cy="477.896" r="4" fill="#0" id="circle39"/>
	<circle cx="506.579" cy="511.353" r="4" fill="#0" id="circle40"/>
	<circle cx="540.295" cy="465.73" r="4" fill="#0" id="circle41"/>
	<circle cx="533.93" cy="484.002" r="4" fill="#0" id="circle42"/>
	<circle cx="551.025" cy="422.461" r="4" fill="#0" id="circle43"/>
	<circle cx="557.863" cy="456.651" r="4" fill="#0" id="circle44"/>
	<circle cx="578.376" cy="395.11" r="4" fill="#0" id="circle45"/>
	<circle cx="585.214" cy="429.299" r="4" fill="#0" id="circle46"/>
	<circle cx="602.308" cy="367.759" r="4" fill="#0" id="circle47"/>
	<circle cx="612.565" cy="401.948" r="4" fill="#0" id="circle48"/>
	<circle cx="629.66" cy="340.408" r="4" fill="#0" id="circle49"/>
	<circle cx="636.497" cy="374.597" r="4" fill="#0" id="circle50"/>
	<circle cx="657.011" cy="313.057" r="4" fill="#0" id="circle51"/>
	<circle cx="663.849" cy="347.246" r="4" fill="#0" id="circle52"/>
	<circle cx="684.362" cy="285.705" r="4" fill="#0" id="circle53"/>
	<circle cx="691.2" cy="319.894" r="4" fill="#0" id="circle54"/>
	<circle cx="708.294" cy="258.354" r="4" fill="#0" id="circle55"/>
	<circle cx="718.551" cy="292.543" r="4" fill="#0" id="circle56"/>
	<circle cx="735.646" cy="231.003" r="4" fill="#0" id="circle57"/>
	<circle cx="742.484" cy="265.192" r="4" fill="#0" id="circle58"/>
	<circle cx="762.997" cy="203.652" r="4" fill="#0" id="circle59"/>
	<circle cx="769.835" cy="237.841" r="4" fill="#0" id="circle60"/>
	<circle cx="786.929" cy="176.3" r="4" fill="#0" id="circle61"/>
	<circle cx="797.186" cy="210.489" r="4" fill="#0" id="circle62"/>
	<circle cx="814.281" cy="148.949" r="4" fill="#0" id="circle63"/>
	<circle cx="821.118" cy="183.138" r="4" fill="#0" id="circle64"/>
	<circle cx="841.632" cy="121.598" r="4" fill="#0" id="circle65"/>
	<circle cx="848.47" cy="155.787" r="4" fill="#0" id="circle66"/>
	<circle cx="865.564" cy="94.2466" r="4" fill="#0" id="circle67"/>
	<circle cx="875.821" cy="128.436" r="4" fill="#0" id="circle68"/>
	<circle cx="892.915" cy="66.8954" r="4" fill="#0" id="circle69"/>
	<circle cx="899.753" cy="101.084" r="4" fill="#0" id="circle70"/>
	<circle cx="920.267" cy="39.5441" r="4" fill="#0" id="circle71"/>
	<circle cx="927.104" cy="73.7331" r="4" fill="#0" id="circle72"/>
	<circle cx="961.543" cy="23.9827" r="4" fill="#0" id="circle73"/>
	<circle cx="954.456" cy="46.3819" r="4" fill="#0" id="circle74"/>
	<circle cx="996" cy="4" r="4" fill="#0" id="circle75"/>
	<circle cx="969.222" cy="7.54194" r="4" fill="#0" id="circle76"/>
	</g>
</svg>