<?xml version="1.0" encoding="UTF-8" standalone="no"?>
<!-- Created with CurveBenchmark -->
<svg
	xmlns:dc="http://purl.org/dc/elements/1.1/"
	xmlns:cc="http://creativecommons.org/ns#"
	xmlns:rdf="http://www.w3.org/1999/02/22-rdf-syntax-ns#"
	xmlns:svg="http://www.w3.org/2000/svg"
	xmlns="http://www.w3.org/2000/svg"
	xmlns:sodipodi="http://sodipodi.sourceforge.net/DTD/sodipodi-0.dtd"
	xmlns:inkscape="http://www.inkscape.org/namespaces/inkscape"
	width="1000"
	height="1000"
	id="svg2"
	version="1.1"
	sodipodi:docname="manifold/stretchdenoise-television135.png.txt">
<defs
	id="defs4" />
<metadata
	id="metadata7">
	<rdf:RDF>
		<cc:Work
			rdf:about="">
			<dc:format>image/svg+xml</dc:format>
			<dc:type
				rdf:resource="http://purl.org/dc/dcmitype/StillImage" />
			<dc:title></dc:title>
		</cc:Work>
	</rdf:RDF>
</metadata>
<g
	inkscape:label="Layer 1"
	inkscape:groupmode="layer"
	id="layer1">
	<path style="fill:none;stroke:red;stroke-width:1px;stroke-linecap:butt;stroke-linejoin:miter;stroke-opacity:1" d="M 4,246.631 634.094,324.508 z" id="boundary" inkscape:connector-curvature="0" />
	<path style="fill:none;stroke:red;stroke-width:1px;stroke-linecap:butt;stroke-linejoin:miter;stroke-opacity:1" d="M 4,246.631 575.65,171.82 z" id="boundary" inkscape:connector-curvature="0" />
	<path style="fill:none;stroke:red;stroke-width:1px;stroke-linecap:butt;stroke-linejoin:miter;stroke-opacity:1" d="M 634.094,324.508 640.771,336.527 z" id="boundary" inkscape:connector-curvature="0" />
	<path style="fill:none;stroke:red;stroke-width:1px;stroke-linecap:butt;stroke-linejoin:miter;stroke-opacity:1" d="M 640.771,336.527 654.125,341.868 z" id="boundary" inkscape:connector-curvature="0" />
	<path style="fill:none;stroke:red;stroke-width:1px;stroke-linecap:butt;stroke-linejoin:miter;stroke-opacity:1" d="M 647.448,228.355 647.448,268.419 z" id="boundary" inkscape:connector-curvature="0" />
	<path style="fill:none;stroke:red;stroke-width:1px;stroke-linecap:butt;stroke-linejoin:miter;stroke-opacity:1" d="M 647.448,228.355 664.809,225.684 z" id="boundary" inkscape:connector-curvature="0" />
	<path style="fill:none;stroke:red;stroke-width:1px;stroke-linecap:butt;stroke-linejoin:miter;stroke-opacity:1" d="M 654.125,341.868 667.48,336.527 z" id="boundary" inkscape:connector-curvature="0" />
	<path style="fill:none;stroke:red;stroke-width:1px;stroke-linecap:butt;stroke-linejoin:miter;stroke-opacity:1" d="M 664.809,225.684 684.841,237.703 z" id="boundary" inkscape:connector-curvature="0" />
	<path style="fill:none;stroke:red;stroke-width:1px;stroke-linecap:butt;stroke-linejoin:miter;stroke-opacity:1" d="M 667.48,280.438 674.157,268.419 z" id="boundary" inkscape:connector-curvature="0" />
	<path style="fill:none;stroke:red;stroke-width:1px;stroke-linecap:butt;stroke-linejoin:miter;stroke-opacity:1" d="M 667.48,280.438 674.157,308.482 z" id="boundary" inkscape:connector-curvature="0" />
	<path style="fill:none;stroke:red;stroke-width:1px;stroke-linecap:butt;stroke-linejoin:miter;stroke-opacity:1" d="M 667.48,336.527 680.834,336.527 z" id="boundary" inkscape:connector-curvature="0" />
	<path style="fill:none;stroke:red;stroke-width:1px;stroke-linecap:butt;stroke-linejoin:miter;stroke-opacity:1" d="M 674.157,268.419 694.189,280.438 z" id="boundary" inkscape:connector-curvature="0" />
	<path style="fill:none;stroke:red;stroke-width:1px;stroke-linecap:butt;stroke-linejoin:miter;stroke-opacity:1" d="M 674.157,308.482 687.511,308.482 z" id="boundary" inkscape:connector-curvature="0" />
	<path style="fill:none;stroke:red;stroke-width:1px;stroke-linecap:butt;stroke-linejoin:miter;stroke-opacity:1" d="M 680.834,336.527 694.189,336.527 z" id="boundary" inkscape:connector-curvature="0" />
	<path style="fill:none;stroke:red;stroke-width:1px;stroke-linecap:butt;stroke-linejoin:miter;stroke-opacity:1" d="M 684.841,237.703 691.518,225.684 z" id="boundary" inkscape:connector-curvature="0" />
	<path style="fill:none;stroke:red;stroke-width:1px;stroke-linecap:butt;stroke-linejoin:miter;stroke-opacity:1" d="M 687.511,308.482 700.866,308.482 z" id="boundary" inkscape:connector-curvature="0" />
	<path style="fill:none;stroke:red;stroke-width:1px;stroke-linecap:butt;stroke-linejoin:miter;stroke-opacity:1" d="M 691.518,225.684 711.55,237.703 z" id="boundary" inkscape:connector-curvature="0" />
	<path style="fill:none;stroke:red;stroke-width:1px;stroke-linecap:butt;stroke-linejoin:miter;stroke-opacity:1" d="M 694.189,280.438 714.22,268.419 z" id="boundary" inkscape:connector-curvature="0" />
	<path style="fill:none;stroke:red;stroke-width:1px;stroke-linecap:butt;stroke-linejoin:miter;stroke-opacity:1" d="M 694.189,336.527 707.543,336.527 z" id="boundary" inkscape:connector-curvature="0" />
	<path style="fill:none;stroke:red;stroke-width:1px;stroke-linecap:butt;stroke-linejoin:miter;stroke-opacity:1" d="M 700.866,308.482 714.22,308.482 z" id="boundary" inkscape:connector-curvature="0" />
	<path style="fill:none;stroke:red;stroke-width:1px;stroke-linecap:butt;stroke-linejoin:miter;stroke-opacity:1" d="M 703.537,6.6709 703.537,20.0254 z" id="boundary" inkscape:connector-curvature="0" />
	<path style="fill:none;stroke:red;stroke-width:1px;stroke-linecap:butt;stroke-linejoin:miter;stroke-opacity:1" d="M 703.537,6.6709 716.891,4 z" id="boundary" inkscape:connector-curvature="0" />
	<path style="fill:none;stroke:red;stroke-width:1px;stroke-linecap:butt;stroke-linejoin:miter;stroke-opacity:1" d="M 703.537,20.0254 703.537,33.3799 z" id="boundary" inkscape:connector-curvature="0" />
	<path style="fill:none;stroke:red;stroke-width:1px;stroke-linecap:butt;stroke-linejoin:miter;stroke-opacity:1" d="M 703.537,33.3799 703.537,46.7343 z" id="boundary" inkscape:connector-curvature="0" />
	<path style="fill:none;stroke:red;stroke-width:1px;stroke-linecap:butt;stroke-linejoin:miter;stroke-opacity:1" d="M 703.537,46.7343 703.537,60.0888 z" id="boundary" inkscape:connector-curvature="0" />
	<path style="fill:none;stroke:red;stroke-width:1px;stroke-linecap:butt;stroke-linejoin:miter;stroke-opacity:1" d="M 703.537,60.0888 703.537,73.4433 z" id="boundary" inkscape:connector-curvature="0" />
	<path style="fill:none;stroke:red;stroke-width:1px;stroke-linecap:butt;stroke-linejoin:miter;stroke-opacity:1" d="M 703.537,73.4433 703.537,86.7978 z" id="boundary" inkscape:connector-curvature="0" />
	<path style="fill:none;stroke:red;stroke-width:1px;stroke-linecap:butt;stroke-linejoin:miter;stroke-opacity:1" d="M 703.537,86.7978 703.537,100.152 z" id="boundary" inkscape:connector-curvature="0" />
	<path style="fill:none;stroke:red;stroke-width:1px;stroke-linecap:butt;stroke-linejoin:miter;stroke-opacity:1" d="M 703.537,100.152 703.537,113.507 z" id="boundary" inkscape:connector-curvature="0" />
	<path style="fill:none;stroke:red;stroke-width:1px;stroke-linecap:butt;stroke-linejoin:miter;stroke-opacity:1" d="M 703.537,113.507 703.537,126.861 z" id="boundary" inkscape:connector-curvature="0" />
	<path style="fill:none;stroke:red;stroke-width:1px;stroke-linecap:butt;stroke-linejoin:miter;stroke-opacity:1" d="M 703.537,126.861 703.537,140.216 z" id="boundary" inkscape:connector-curvature="0" />
	<path style="fill:none;stroke:red;stroke-width:1px;stroke-linecap:butt;stroke-linejoin:miter;stroke-opacity:1" d="M 703.537,140.216 703.537,153.57 z" id="boundary" inkscape:connector-curvature="0" />
	<path style="fill:none;stroke:red;stroke-width:1px;stroke-linecap:butt;stroke-linejoin:miter;stroke-opacity:1" d="M 703.537,153.57 703.537,166.925 z" id="boundary" inkscape:connector-curvature="0" />
	<path style="fill:none;stroke:red;stroke-width:1px;stroke-linecap:butt;stroke-linejoin:miter;stroke-opacity:1" d="M 703.537,166.925 704.872,180.279 z" id="boundary" inkscape:connector-curvature="0" />
	<path style="fill:none;stroke:red;stroke-width:1px;stroke-linecap:butt;stroke-linejoin:miter;stroke-opacity:1" d="M 704.872,180.279 718.227,181.615 z" id="boundary" inkscape:connector-curvature="0" />
	<path style="fill:none;stroke:red;stroke-width:1px;stroke-linecap:butt;stroke-linejoin:miter;stroke-opacity:1" d="M 707.543,336.527 720.898,336.527 z" id="boundary" inkscape:connector-curvature="0" />
	<path style="fill:none;stroke:red;stroke-width:1px;stroke-linecap:butt;stroke-linejoin:miter;stroke-opacity:1" d="M 711.55,237.703 724.904,237.703 z" id="boundary" inkscape:connector-curvature="0" />
	<path style="fill:none;stroke:red;stroke-width:1px;stroke-linecap:butt;stroke-linejoin:miter;stroke-opacity:1" d="M 714.22,268.419 720.898,280.438 z" id="boundary" inkscape:connector-curvature="0" />
	<path style="fill:none;stroke:red;stroke-width:1px;stroke-linecap:butt;stroke-linejoin:miter;stroke-opacity:1" d="M 716.891,4 730.246,4 z" id="boundary" inkscape:connector-curvature="0" />
	<path style="fill:none;stroke:red;stroke-width:1px;stroke-linecap:butt;stroke-linejoin:miter;stroke-opacity:1" d="M 718.227,181.615 731.581,181.615 z" id="boundary" inkscape:connector-curvature="0" />
	<path style="fill:none;stroke:red;stroke-width:1px;stroke-linecap:butt;stroke-linejoin:miter;stroke-opacity:1" d="M 720.898,280.438 740.929,268.419 z" id="boundary" inkscape:connector-curvature="0" />
	<path style="fill:none;stroke:red;stroke-width:1px;stroke-linecap:butt;stroke-linejoin:miter;stroke-opacity:1" d="M 720.898,336.527 734.252,336.527 z" id="boundary" inkscape:connector-curvature="0" />
	<path style="fill:none;stroke:red;stroke-width:1px;stroke-linecap:butt;stroke-linejoin:miter;stroke-opacity:1" d="M 724.904,237.703 731.581,225.684 z" id="boundary" inkscape:connector-curvature="0" />
	<path style="fill:none;stroke:red;stroke-width:1px;stroke-linecap:butt;stroke-linejoin:miter;stroke-opacity:1" d="M 730.246,4 743.6,4 z" id="boundary" inkscape:connector-curvature="0" />
	<path style="fill:none;stroke:red;stroke-width:1px;stroke-linecap:butt;stroke-linejoin:miter;stroke-opacity:1" d="M 731.581,181.615 744.936,181.615 z" id="boundary" inkscape:connector-curvature="0" />
	<path style="fill:none;stroke:red;stroke-width:1px;stroke-linecap:butt;stroke-linejoin:miter;stroke-opacity:1" d="M 731.581,225.684 751.613,237.703 z" id="boundary" inkscape:connector-curvature="0" />
	<path style="fill:none;stroke:red;stroke-width:1px;stroke-linecap:butt;stroke-linejoin:miter;stroke-opacity:1" d="M 734.252,336.527 747.607,336.527 z" id="boundary" inkscape:connector-curvature="0" />
	<path style="fill:none;stroke:red;stroke-width:1px;stroke-linecap:butt;stroke-linejoin:miter;stroke-opacity:1" d="M 740.929,268.419 754.284,268.419 z" id="boundary" inkscape:connector-curvature="0" />
	<path style="fill:none;stroke:red;stroke-width:1px;stroke-linecap:butt;stroke-linejoin:miter;stroke-opacity:1" d="M 743.6,4 756.955,4 z" id="boundary" inkscape:connector-curvature="0" />
	<path style="fill:none;stroke:red;stroke-width:1px;stroke-linecap:butt;stroke-linejoin:miter;stroke-opacity:1" d="M 744.936,181.615 758.29,181.615 z" id="boundary" inkscape:connector-curvature="0" />
	<path style="fill:none;stroke:red;stroke-width:1px;stroke-linecap:butt;stroke-linejoin:miter;stroke-opacity:1" d="M 747.607,336.527 760.961,336.527 z" id="boundary" inkscape:connector-curvature="0" />
	<path style="fill:none;stroke:red;stroke-width:1px;stroke-linecap:butt;stroke-linejoin:miter;stroke-opacity:1" d="M 751.613,237.703 758.29,225.684 z" id="boundary" inkscape:connector-curvature="0" />
	<path style="fill:none;stroke:red;stroke-width:1px;stroke-linecap:butt;stroke-linejoin:miter;stroke-opacity:1" d="M 754.284,268.419 760.961,280.438 z" id="boundary" inkscape:connector-curvature="0" />
	<path style="fill:none;stroke:red;stroke-width:1px;stroke-linecap:butt;stroke-linejoin:miter;stroke-opacity:1" d="M 756.955,4 770.309,4 z" id="boundary" inkscape:connector-curvature="0" />
	<path style="fill:none;stroke:red;stroke-width:1px;stroke-linecap:butt;stroke-linejoin:miter;stroke-opacity:1" d="M 758.29,181.615 771.645,181.615 z" id="boundary" inkscape:connector-curvature="0" />
	<path style="fill:none;stroke:red;stroke-width:1px;stroke-linecap:butt;stroke-linejoin:miter;stroke-opacity:1" d="M 758.29,225.684 778.322,237.703 z" id="boundary" inkscape:connector-curvature="0" />
	<path style="fill:none;stroke:red;stroke-width:1px;stroke-linecap:butt;stroke-linejoin:miter;stroke-opacity:1" d="M 760.961,280.438 767.638,268.419 z" id="boundary" inkscape:connector-curvature="0" />
	<path style="fill:none;stroke:red;stroke-width:1px;stroke-linecap:butt;stroke-linejoin:miter;stroke-opacity:1" d="M 760.961,336.527 787.67,336.527 z" id="boundary" inkscape:connector-curvature="0" />
	<path style="fill:none;stroke:red;stroke-width:1px;stroke-linecap:butt;stroke-linejoin:miter;stroke-opacity:1" d="M 767.638,268.419 774.316,280.438 z" id="boundary" inkscape:connector-curvature="0" />
	<path style="fill:none;stroke:red;stroke-width:1px;stroke-linecap:butt;stroke-linejoin:miter;stroke-opacity:1" d="M 770.309,4 783.664,4 z" id="boundary" inkscape:connector-curvature="0" />
	<path style="fill:none;stroke:red;stroke-width:1px;stroke-linecap:butt;stroke-linejoin:miter;stroke-opacity:1" d="M 771.645,181.615 784.999,181.615 z" id="boundary" inkscape:connector-curvature="0" />
	<path style="fill:none;stroke:red;stroke-width:1px;stroke-linecap:butt;stroke-linejoin:miter;stroke-opacity:1" d="M 778.322,237.703 799.689,248.387 z" id="boundary" inkscape:connector-curvature="0" />
	<path style="fill:none;stroke:red;stroke-width:1px;stroke-linecap:butt;stroke-linejoin:miter;stroke-opacity:1" d="M 783.664,4 797.018,4 z" id="boundary" inkscape:connector-curvature="0" />
	<path style="fill:none;stroke:red;stroke-width:1px;stroke-linecap:butt;stroke-linejoin:miter;stroke-opacity:1" d="M 784.999,181.615 798.354,181.615 z" id="boundary" inkscape:connector-curvature="0" />
	<path style="fill:none;stroke:red;stroke-width:1px;stroke-linecap:butt;stroke-linejoin:miter;stroke-opacity:1" d="M 787.67,336.527 814.379,336.527 z" id="boundary" inkscape:connector-curvature="0" />
	<path style="fill:none;stroke:red;stroke-width:1px;stroke-linecap:butt;stroke-linejoin:miter;stroke-opacity:1" d="M 797.018,4 810.373,4 z" id="boundary" inkscape:connector-curvature="0" />
	<path style="fill:none;stroke:red;stroke-width:1px;stroke-linecap:butt;stroke-linejoin:miter;stroke-opacity:1" d="M 798.354,181.615 799.689,194.969 z" id="boundary" inkscape:connector-curvature="0" />
	<path style="fill:none;stroke:red;stroke-width:1px;stroke-linecap:butt;stroke-linejoin:miter;stroke-opacity:1" d="M 799.689,194.969 799.689,208.324 z" id="boundary" inkscape:connector-curvature="0" />
	<path style="fill:none;stroke:red;stroke-width:1px;stroke-linecap:butt;stroke-linejoin:miter;stroke-opacity:1" d="M 799.689,208.324 799.689,248.387 z" id="boundary" inkscape:connector-curvature="0" />
	<path style="fill:none;stroke:red;stroke-width:1px;stroke-linecap:butt;stroke-linejoin:miter;stroke-opacity:1" d="M 810.373,4 823.727,4 z" id="boundary" inkscape:connector-curvature="0" />
	<path style="fill:none;stroke:red;stroke-width:1px;stroke-linecap:butt;stroke-linejoin:miter;stroke-opacity:1" d="M 814.379,336.527 841.088,336.527 z" id="boundary" inkscape:connector-curvature="0" />
	<path style="fill:none;stroke:red;stroke-width:1px;stroke-linecap:butt;stroke-linejoin:miter;stroke-opacity:1" d="M 823.727,4 837.082,4 z" id="boundary" inkscape:connector-curvature="0" />
	<path style="fill:none;stroke:red;stroke-width:1px;stroke-linecap:butt;stroke-linejoin:miter;stroke-opacity:1" d="M 837.082,4 850.436,4 z" id="boundary" inkscape:connector-curvature="0" />
	<path style="fill:none;stroke:red;stroke-width:1px;stroke-linecap:butt;stroke-linejoin:miter;stroke-opacity:1" d="M 841.088,336.527 871.803,308.482 z" id="boundary" inkscape:connector-curvature="0" />
	<path style="fill:none;stroke:red;stroke-width:1px;stroke-linecap:butt;stroke-linejoin:miter;stroke-opacity:1" d="M 850.436,4 863.791,4 z" id="boundary" inkscape:connector-curvature="0" />
	<path style="fill:none;stroke:red;stroke-width:1px;stroke-linecap:butt;stroke-linejoin:miter;stroke-opacity:1" d="M 863.791,4 877.145,4 z" id="boundary" inkscape:connector-curvature="0" />
	<path style="fill:none;stroke:red;stroke-width:1px;stroke-linecap:butt;stroke-linejoin:miter;stroke-opacity:1" d="M 870.468,182.95 870.468,196.305 z" id="boundary" inkscape:connector-curvature="0" />
	<path style="fill:none;stroke:red;stroke-width:1px;stroke-linecap:butt;stroke-linejoin:miter;stroke-opacity:1" d="M 870.468,182.95 883.822,181.615 z" id="boundary" inkscape:connector-curvature="0" />
	<path style="fill:none;stroke:red;stroke-width:1px;stroke-linecap:butt;stroke-linejoin:miter;stroke-opacity:1" d="M 870.468,196.305 870.468,209.659 z" id="boundary" inkscape:connector-curvature="0" />
	<path style="fill:none;stroke:red;stroke-width:1px;stroke-linecap:butt;stroke-linejoin:miter;stroke-opacity:1" d="M 870.468,209.659 883.822,225.684 z" id="boundary" inkscape:connector-curvature="0" />
	<path style="fill:none;stroke:red;stroke-width:1px;stroke-linecap:butt;stroke-linejoin:miter;stroke-opacity:1" d="M 877.145,4 890.5,4 z" id="boundary" inkscape:connector-curvature="0" />
	<path style="fill:none;stroke:red;stroke-width:1px;stroke-linecap:butt;stroke-linejoin:miter;stroke-opacity:1" d="M 883.822,181.615 897.177,181.615 z" id="boundary" inkscape:connector-curvature="0" />
	<path style="fill:none;stroke:red;stroke-width:1px;stroke-linecap:butt;stroke-linejoin:miter;stroke-opacity:1" d="M 883.822,225.684 897.177,225.684 z" id="boundary" inkscape:connector-curvature="0" />
	<path style="fill:none;stroke:red;stroke-width:1px;stroke-linecap:butt;stroke-linejoin:miter;stroke-opacity:1" d="M 890.5,4 903.854,4 z" id="boundary" inkscape:connector-curvature="0" />
	<path style="fill:none;stroke:red;stroke-width:1px;stroke-linecap:butt;stroke-linejoin:miter;stroke-opacity:1" d="M 897.177,181.615 910.531,181.615 z" id="boundary" inkscape:connector-curvature="0" />
	<path style="fill:none;stroke:red;stroke-width:1px;stroke-linecap:butt;stroke-linejoin:miter;stroke-opacity:1" d="M 903.854,4 917.209,4 z" id="boundary" inkscape:connector-curvature="0" />
	<path style="fill:none;stroke:red;stroke-width:1px;stroke-linecap:butt;stroke-linejoin:miter;stroke-opacity:1" d="M 910.531,181.615 923.886,181.615 z" id="boundary" inkscape:connector-curvature="0" />
	<path style="fill:none;stroke:red;stroke-width:1px;stroke-linecap:butt;stroke-linejoin:miter;stroke-opacity:1" d="M 917.209,4 930.563,4 z" id="boundary" inkscape:connector-curvature="0" />
	<path style="fill:none;stroke:red;stroke-width:1px;stroke-linecap:butt;stroke-linejoin:miter;stroke-opacity:1" d="M 923.886,181.615 937.24,176.273 z" id="boundary" inkscape:connector-curvature="0" />
	<path style="fill:none;stroke:red;stroke-width:1px;stroke-linecap:butt;stroke-linejoin:miter;stroke-opacity:1" d="M 930.563,4 937.24,16.019 z" id="boundary" inkscape:connector-curvature="0" />
	<path style="fill:none;stroke:red;stroke-width:1px;stroke-linecap:butt;stroke-linejoin:miter;stroke-opacity:1" d="M 934.569,336.527 947.924,336.527 z" id="boundary" inkscape:connector-curvature="0" />
	<path style="fill:none;stroke:red;stroke-width:1px;stroke-linecap:butt;stroke-linejoin:miter;stroke-opacity:1" d="M 937.24,16.019 937.24,29.3735 z" id="boundary" inkscape:connector-curvature="0" />
	<path style="fill:none;stroke:red;stroke-width:1px;stroke-linecap:butt;stroke-linejoin:miter;stroke-opacity:1" d="M 937.24,29.3735 937.24,42.728 z" id="boundary" inkscape:connector-curvature="0" />
	<path style="fill:none;stroke:red;stroke-width:1px;stroke-linecap:butt;stroke-linejoin:miter;stroke-opacity:1" d="M 937.24,42.728 937.24,56.0825 z" id="boundary" inkscape:connector-curvature="0" />
	<path style="fill:none;stroke:red;stroke-width:1px;stroke-linecap:butt;stroke-linejoin:miter;stroke-opacity:1" d="M 937.24,56.0825 937.24,69.437 z" id="boundary" inkscape:connector-curvature="0" />
	<path style="fill:none;stroke:red;stroke-width:1px;stroke-linecap:butt;stroke-linejoin:miter;stroke-opacity:1" d="M 937.24,69.437 937.24,82.7914 z" id="boundary" inkscape:connector-curvature="0" />
	<path style="fill:none;stroke:red;stroke-width:1px;stroke-linecap:butt;stroke-linejoin:miter;stroke-opacity:1" d="M 937.24,82.7914 937.24,96.1459 z" id="boundary" inkscape:connector-curvature="0" />
	<path style="fill:none;stroke:red;stroke-width:1px;stroke-linecap:butt;stroke-linejoin:miter;stroke-opacity:1" d="M 937.24,96.1459 937.24,109.5 z" id="boundary" inkscape:connector-curvature="0" />
	<path style="fill:none;stroke:red;stroke-width:1px;stroke-linecap:butt;stroke-linejoin:miter;stroke-opacity:1" d="M 937.24,109.5 937.24,122.855 z" id="boundary" inkscape:connector-curvature="0" />
	<path style="fill:none;stroke:red;stroke-width:1px;stroke-linecap:butt;stroke-linejoin:miter;stroke-opacity:1" d="M 937.24,122.855 937.24,136.209 z" id="boundary" inkscape:connector-curvature="0" />
	<path style="fill:none;stroke:red;stroke-width:1px;stroke-linecap:butt;stroke-linejoin:miter;stroke-opacity:1" d="M 937.24,136.209 937.24,149.564 z" id="boundary" inkscape:connector-curvature="0" />
	<path style="fill:none;stroke:red;stroke-width:1px;stroke-linecap:butt;stroke-linejoin:miter;stroke-opacity:1" d="M 937.24,149.564 937.24,162.918 z" id="boundary" inkscape:connector-curvature="0" />
	<path style="fill:none;stroke:red;stroke-width:1px;stroke-linecap:butt;stroke-linejoin:miter;stroke-opacity:1" d="M 937.24,162.918 937.24,176.273 z" id="boundary" inkscape:connector-curvature="0" />
	<path style="fill:none;stroke:red;stroke-width:1px;stroke-linecap:butt;stroke-linejoin:miter;stroke-opacity:1" d="M 947.924,336.527 974.633,339.197 z" id="boundary" inkscape:connector-curvature="0" />
	<path style="fill:none;stroke:red;stroke-width:1px;stroke-linecap:butt;stroke-linejoin:miter;stroke-opacity:1" d="M 974.633,339.197 987.987,336.527 z" id="boundary" inkscape:connector-curvature="0" />
	<path style="fill:none;stroke:red;stroke-width:1px;stroke-linecap:butt;stroke-linejoin:miter;stroke-opacity:1" d="M 986.652,308.482 987.987,336.527 z" id="boundary" inkscape:connector-curvature="0" />
	<circle cx="4" cy="246.631" r="4" fill="#0" id="circle0"/>
	<circle cx="634.094" cy="324.508" r="4" fill="#0" id="circle1"/>
	<circle cx="640.771" cy="336.527" r="4" fill="#0" id="circle2"/>
	<circle cx="647.448" cy="228.355" r="4" fill="#0" id="circle3"/>
	<circle cx="647.448" cy="268.419" r="4" fill="#0" id="circle4"/>
	<circle cx="575.65" cy="171.82" r="4" fill="#0" id="circle5"/>
	<circle cx="654.125" cy="280.438" r="4" fill="#0" id="circle6"/>
	<circle cx="654.125" cy="341.868" r="4" fill="#0" id="circle7"/>
	<circle cx="658.132" cy="237.703" r="4" fill="#0" id="circle8"/>
	<circle cx="660.803" cy="268.419" r="4" fill="#0" id="circle9"/>
	<circle cx="660.803" cy="308.482" r="4" fill="#0" id="circle10"/>
	<circle cx="664.809" cy="225.684" r="4" fill="#0" id="circle11"/>
	<circle cx="667.48" cy="280.438" r="4" fill="#0" id="circle12"/>
	<circle cx="667.48" cy="336.527" r="4" fill="#0" id="circle13"/>
	<circle cx="671.486" cy="237.703" r="4" fill="#0" id="circle14"/>
	<circle cx="674.157" cy="268.419" r="4" fill="#0" id="circle15"/>
	<circle cx="674.157" cy="308.482" r="4" fill="#0" id="circle16"/>
	<circle cx="678.163" cy="225.684" r="4" fill="#0" id="circle17"/>
	<circle cx="680.834" cy="280.438" r="4" fill="#0" id="circle18"/>
	<circle cx="680.834" cy="336.527" r="4" fill="#0" id="circle19"/>
	<circle cx="684.841" cy="237.703" r="4" fill="#0" id="circle20"/>
	<circle cx="687.511" cy="268.419" r="4" fill="#0" id="circle21"/>
	<circle cx="687.511" cy="308.482" r="4" fill="#0" id="circle22"/>
	<circle cx="691.518" cy="225.684" r="4" fill="#0" id="circle23"/>
	<circle cx="694.189" cy="280.438" r="4" fill="#0" id="circle24"/>
	<circle cx="694.189" cy="336.527" r="4" fill="#0" id="circle25"/>
	<circle cx="698.195" cy="237.703" r="4" fill="#0" id="circle26"/>
	<circle cx="700.866" cy="268.419" r="4" fill="#0" id="circle27"/>
	<circle cx="700.866" cy="308.482" r="4" fill="#0" id="circle28"/>
	<circle cx="703.537" cy="6.6709" r="4" fill="#0" id="circle29"/>
	<circle cx="703.537" cy="20.0254" r="4" fill="#0" id="circle30"/>
	<circle cx="703.537" cy="33.3799" r="4" fill="#0" id="circle31"/>
	<circle cx="703.537" cy="46.7343" r="4" fill="#0" id="circle32"/>
	<circle cx="703.537" cy="60.0888" r="4" fill="#0" id="circle33"/>
	<circle cx="703.537" cy="73.4433" r="4" fill="#0" id="circle34"/>
	<circle cx="703.537" cy="86.7978" r="4" fill="#0" id="circle35"/>
	<circle cx="703.537" cy="100.152" r="4" fill="#0" id="circle36"/>
	<circle cx="703.537" cy="113.507" r="4" fill="#0" id="circle37"/>
	<circle cx="703.537" cy="126.861" r="4" fill="#0" id="circle38"/>
	<circle cx="703.537" cy="140.216" r="4" fill="#0" id="circle39"/>
	<circle cx="703.537" cy="153.57" r="4" fill="#0" id="circle40"/>
	<circle cx="703.537" cy="166.925" r="4" fill="#0" id="circle41"/>
	<circle cx="704.872" cy="180.279" r="4" fill="#0" id="circle42"/>
	<circle cx="704.872" cy="225.684" r="4" fill="#0" id="circle43"/>
	<circle cx="707.543" cy="280.438" r="4" fill="#0" id="circle44"/>
	<circle cx="707.543" cy="336.527" r="4" fill="#0" id="circle45"/>
	<circle cx="711.55" cy="237.703" r="4" fill="#0" id="circle46"/>
	<circle cx="714.22" cy="268.419" r="4" fill="#0" id="circle47"/>
	<circle cx="714.22" cy="308.482" r="4" fill="#0" id="circle48"/>
	<circle cx="716.891" cy="4" r="4" fill="#0" id="circle49"/>
	<circle cx="718.227" cy="181.615" r="4" fill="#0" id="circle50"/>
	<circle cx="718.227" cy="225.684" r="4" fill="#0" id="circle51"/>
	<circle cx="720.898" cy="280.438" r="4" fill="#0" id="circle52"/>
	<circle cx="720.898" cy="336.527" r="4" fill="#0" id="circle53"/>
	<circle cx="724.904" cy="237.703" r="4" fill="#0" id="circle54"/>
	<circle cx="727.575" cy="268.419" r="4" fill="#0" id="circle55"/>
	<circle cx="727.575" cy="308.482" r="4" fill="#0" id="circle56"/>
	<circle cx="730.246" cy="4" r="4" fill="#0" id="circle57"/>
	<circle cx="731.581" cy="181.615" r="4" fill="#0" id="circle58"/>
	<circle cx="731.581" cy="225.684" r="4" fill="#0" id="circle59"/>
	<circle cx="734.252" cy="280.438" r="4" fill="#0" id="circle60"/>
	<circle cx="734.252" cy="336.527" r="4" fill="#0" id="circle61"/>
	<circle cx="738.258" cy="237.703" r="4" fill="#0" id="circle62"/>
	<circle cx="738.258" cy="316.495" r="4" fill="#0" id="circle63"/>
	<circle cx="740.929" cy="268.419" r="4" fill="#0" id="circle64"/>
	<circle cx="743.6" cy="4" r="4" fill="#0" id="circle65"/>
	<circle cx="744.936" cy="181.615" r="4" fill="#0" id="circle66"/>
	<circle cx="744.936" cy="225.684" r="4" fill="#0" id="circle67"/>
	<circle cx="747.607" cy="280.438" r="4" fill="#0" id="circle68"/>
	<circle cx="747.607" cy="336.527" r="4" fill="#0" id="circle69"/>
	<circle cx="748.942" cy="308.482" r="4" fill="#0" id="circle70"/>
	<circle cx="751.613" cy="237.703" r="4" fill="#0" id="circle71"/>
	<circle cx="754.284" cy="268.419" r="4" fill="#0" id="circle72"/>
	<circle cx="756.955" cy="4" r="4" fill="#0" id="circle73"/>
	<circle cx="758.29" cy="181.615" r="4" fill="#0" id="circle74"/>
	<circle cx="758.29" cy="225.684" r="4" fill="#0" id="circle75"/>
	<circle cx="759.626" cy="316.495" r="4" fill="#0" id="circle76"/>
	<circle cx="760.961" cy="280.438" r="4" fill="#0" id="circle77"/>
	<circle cx="760.961" cy="336.527" r="4" fill="#0" id="circle78"/>
	<circle cx="764.967" cy="237.703" r="4" fill="#0" id="circle79"/>
	<circle cx="767.638" cy="268.419" r="4" fill="#0" id="circle80"/>
	<circle cx="770.309" cy="4" r="4" fill="#0" id="circle81"/>
	<circle cx="770.309" cy="308.482" r="4" fill="#0" id="circle82"/>
	<circle cx="771.645" cy="181.615" r="4" fill="#0" id="circle83"/>
	<circle cx="771.645" cy="225.684" r="4" fill="#0" id="circle84"/>
	<circle cx="774.316" cy="280.438" r="4" fill="#0" id="circle85"/>
	<circle cx="774.316" cy="336.527" r="4" fill="#0" id="circle86"/>
	<circle cx="778.322" cy="237.703" r="4" fill="#0" id="circle87"/>
	<circle cx="780.993" cy="268.419" r="4" fill="#0" id="circle88"/>
	<circle cx="780.993" cy="316.495" r="4" fill="#0" id="circle89"/>
	<circle cx="783.664" cy="4" r="4" fill="#0" id="circle90"/>
	<circle cx="784.999" cy="181.615" r="4" fill="#0" id="circle91"/>
	<circle cx="784.999" cy="225.684" r="4" fill="#0" id="circle92"/>
	<circle cx="787.67" cy="280.438" r="4" fill="#0" id="circle93"/>
	<circle cx="787.67" cy="336.527" r="4" fill="#0" id="circle94"/>
	<circle cx="791.676" cy="237.703" r="4" fill="#0" id="circle95"/>
	<circle cx="791.676" cy="308.482" r="4" fill="#0" id="circle96"/>
	<circle cx="794.347" cy="268.419" r="4" fill="#0" id="circle97"/>
	<circle cx="797.018" cy="4" r="4" fill="#0" id="circle98"/>
	<circle cx="798.354" cy="181.615" r="4" fill="#0" id="circle99"/>
	<circle cx="798.354" cy="224.349" r="4" fill="#0" id="circle100"/>
	<circle cx="799.689" cy="194.969" r="4" fill="#0" id="circle101"/>
	<circle cx="799.689" cy="208.324" r="4" fill="#0" id="circle102"/>
	<circle cx="799.689" cy="248.387" r="4" fill="#0" id="circle103"/>
	<circle cx="799.689" cy="287.115" r="4" fill="#0" id="circle104"/>
	<circle cx="801.025" cy="336.527" r="4" fill="#0" id="circle105"/>
	<circle cx="810.373" cy="4" r="4" fill="#0" id="circle106"/>
	<circle cx="814.379" cy="336.527" r="4" fill="#0" id="circle107"/>
	<circle cx="823.727" cy="4" r="4" fill="#0" id="circle108"/>
	<circle cx="827.734" cy="336.527" r="4" fill="#0" id="circle109"/>
	<circle cx="837.082" cy="4" r="4" fill="#0" id="circle110"/>
	<circle cx="841.088" cy="336.527" r="4" fill="#0" id="circle111"/>
	<circle cx="850.436" cy="4" r="4" fill="#0" id="circle112"/>
	<circle cx="854.442" cy="336.527" r="4" fill="#0" id="circle113"/>
	<circle cx="863.791" cy="4" r="4" fill="#0" id="circle114"/>
	<circle cx="867.797" cy="336.527" r="4" fill="#0" id="circle115"/>
	<circle cx="870.468" cy="182.95" r="4" fill="#0" id="circle116"/>
	<circle cx="870.468" cy="196.305" r="4" fill="#0" id="circle117"/>
	<circle cx="870.468" cy="209.659" r="4" fill="#0" id="circle118"/>
	<circle cx="870.468" cy="223.014" r="4" fill="#0" id="circle119"/>
	<circle cx="870.468" cy="239.039" r="4" fill="#0" id="circle120"/>
	<circle cx="870.468" cy="252.393" r="4" fill="#0" id="circle121"/>
	<circle cx="870.468" cy="265.748" r="4" fill="#0" id="circle122"/>
	<circle cx="870.468" cy="281.773" r="4" fill="#0" id="circle123"/>
	<circle cx="870.468" cy="295.128" r="4" fill="#0" id="circle124"/>
	<circle cx="871.803" cy="308.482" r="4" fill="#0" id="circle125"/>
	<circle cx="877.145" cy="4" r="4" fill="#0" id="circle126"/>
	<circle cx="881.151" cy="336.527" r="4" fill="#0" id="circle127"/>
	<circle cx="882.487" cy="316.495" r="4" fill="#0" id="circle128"/>
	<circle cx="883.822" cy="181.615" r="4" fill="#0" id="circle129"/>
	<circle cx="883.822" cy="225.684" r="4" fill="#0" id="circle130"/>
	<circle cx="883.822" cy="268.419" r="4" fill="#0" id="circle131"/>
	<circle cx="890.5" cy="4" r="4" fill="#0" id="circle132"/>
	<circle cx="890.5" cy="237.703" r="4" fill="#0" id="circle133"/>
	<circle cx="890.5" cy="280.438" r="4" fill="#0" id="circle134"/>
	<circle cx="893.17" cy="308.482" r="4" fill="#0" id="circle135"/>
	<circle cx="894.506" cy="336.527" r="4" fill="#0" id="circle136"/>
	<circle cx="897.177" cy="181.615" r="4" fill="#0" id="circle137"/>
	<circle cx="897.177" cy="225.684" r="4" fill="#0" id="circle138"/>
	<circle cx="897.177" cy="268.419" r="4" fill="#0" id="circle139"/>
	<circle cx="903.854" cy="4" r="4" fill="#0" id="circle140"/>
	<circle cx="903.854" cy="237.703" r="4" fill="#0" id="circle141"/>
	<circle cx="903.854" cy="280.438" r="4" fill="#0" id="circle142"/>
	<circle cx="906.525" cy="308.482" r="4" fill="#0" id="circle143"/>
	<circle cx="907.86" cy="341.868" r="4" fill="#0" id="circle144"/>
	<circle cx="910.531" cy="181.615" r="4" fill="#0" id="circle145"/>
	<circle cx="910.531" cy="225.684" r="4" fill="#0" id="circle146"/>
	<circle cx="910.531" cy="268.419" r="4" fill="#0" id="circle147"/>
	<circle cx="917.209" cy="4" r="4" fill="#0" id="circle148"/>
	<circle cx="917.209" cy="237.703" r="4" fill="#0" id="circle149"/>
	<circle cx="917.209" cy="280.438" r="4" fill="#0" id="circle150"/>
	<circle cx="919.879" cy="308.482" r="4" fill="#0" id="circle151"/>
	<circle cx="921.215" cy="336.527" r="4" fill="#0" id="circle152"/>
	<circle cx="923.886" cy="181.615" r="4" fill="#0" id="circle153"/>
	<circle cx="923.886" cy="225.684" r="4" fill="#0" id="circle154"/>
	<circle cx="923.886" cy="268.419" r="4" fill="#0" id="circle155"/>
	<circle cx="930.563" cy="4" r="4" fill="#0" id="circle156"/>
	<circle cx="930.563" cy="237.703" r="4" fill="#0" id="circle157"/>
	<circle cx="930.563" cy="280.438" r="4" fill="#0" id="circle158"/>
	<circle cx="933.234" cy="308.482" r="4" fill="#0" id="circle159"/>
	<circle cx="934.569" cy="336.527" r="4" fill="#0" id="circle160"/>
	<circle cx="937.24" cy="16.019" r="4" fill="#0" id="circle161"/>
	<circle cx="937.24" cy="29.3735" r="4" fill="#0" id="circle162"/>
	<circle cx="937.24" cy="42.728" r="4" fill="#0" id="circle163"/>
	<circle cx="937.24" cy="56.0825" r="4" fill="#0" id="circle164"/>
	<circle cx="937.24" cy="69.437" r="4" fill="#0" id="circle165"/>
	<circle cx="937.24" cy="82.7914" r="4" fill="#0" id="circle166"/>
	<circle cx="937.24" cy="96.1459" r="4" fill="#0" id="circle167"/>
	<circle cx="937.24" cy="109.5" r="4" fill="#0" id="circle168"/>
	<circle cx="937.24" cy="122.855" r="4" fill="#0" id="circle169"/>
	<circle cx="937.24" cy="136.209" r="4" fill="#0" id="circle170"/>
	<circle cx="937.24" cy="149.564" r="4" fill="#0" id="circle171"/>
	<circle cx="937.24" cy="162.918" r="4" fill="#0" id="circle172"/>
	<circle cx="937.24" cy="176.273" r="4" fill="#0" id="circle173"/>
	<circle cx="937.24" cy="225.684" r="4" fill="#0" id="circle174"/>
	<circle cx="937.24" cy="268.419" r="4" fill="#0" id="circle175"/>
	<circle cx="943.918" cy="237.703" r="4" fill="#0" id="circle176"/>
	<circle cx="943.918" cy="280.438" r="4" fill="#0" id="circle177"/>
	<circle cx="946.588" cy="308.482" r="4" fill="#0" id="circle178"/>
	<circle cx="947.924" cy="336.527" r="4" fill="#0" id="circle179"/>
	<circle cx="950.595" cy="225.684" r="4" fill="#0" id="circle180"/>
	<circle cx="950.595" cy="268.419" r="4" fill="#0" id="circle181"/>
	<circle cx="959.943" cy="308.482" r="4" fill="#0" id="circle182"/>
	<circle cx="961.278" cy="336.527" r="4" fill="#0" id="circle183"/>
	<circle cx="973.297" cy="308.482" r="4" fill="#0" id="circle184"/>
	<circle cx="974.633" cy="339.197" r="4" fill="#0" id="circle185"/>
	<circle cx="986.652" cy="308.482" r="4" fill="#0" id="circle186"/>
	<circle cx="987.987" cy="336.527" r="4" fill="#0" id="circle187"/>
	<circle cx="996" cy="319.166" r="4" fill="#0" id="circle188"/>
	</g>
</svg>