<?xml version="1.0" encoding="UTF-8" standalone="no"?>
<!-- Created with CurveBenchmark -->
<svg
	xmlns:dc="http://purl.org/dc/elements/1.1/"
	xmlns:cc="http://creativecommons.org/ns#"
	xmlns:rdf="http://www.w3.org/1999/02/22-rdf-syntax-ns#"
	xmlns:svg="http://www.w3.org/2000/svg"
	xmlns="http://www.w3.org/2000/svg"
	xmlns:sodipodi="http://sodipodi.sourceforge.net/DTD/sodipodi-0.dtd"
	xmlns:inkscape="http://www.inkscape.org/namespaces/inkscape"
	width="1000"
	height="1000"
	id="svg2"
	version="1.1"
	sodipodi:docname="manifold/stretchdenoise-dino08.png.txt">
<defs
	id="defs4" />
<metadata
	id="metadata7">
	<rdf:RDF>
		<cc:Work
			rdf:about="">
			<dc:format>image/svg+xml</dc:format>
			<dc:type
				rdf:resource="http://purl.org/dc/dcmitype/StillImage" />
			<dc:title></dc:title>
		</cc:Work>
	</rdf:RDF>
</metadata>
<g
	inkscape:label="Layer 1"
	inkscape:groupmode="layer"
	id="layer1">
	<path style="fill:none;stroke:red;stroke-width:1px;stroke-linecap:butt;stroke-linejoin:miter;stroke-opacity:1" d="M 71.9344,34.5938 105.853,27.893 z" id="boundary" inkscape:connector-curvature="0" />
	<path style="fill:none;stroke:red;stroke-width:1px;stroke-linecap:butt;stroke-linejoin:miter;stroke-opacity:1" d="M 71.9344,34.5938 206.86,357.037 z" id="boundary" inkscape:connector-curvature="0" />
	<path style="fill:none;stroke:red;stroke-width:1px;stroke-linecap:butt;stroke-linejoin:miter;stroke-opacity:1" d="M 105.853,27.893 144.227,9.47076 z" id="boundary" inkscape:connector-curvature="0" />
	<path style="fill:none;stroke:red;stroke-width:1px;stroke-linecap:butt;stroke-linejoin:miter;stroke-opacity:1" d="M 144.227,9.47076 165.011,11.1263 z" id="boundary" inkscape:connector-curvature="0" />
	<path style="fill:none;stroke:red;stroke-width:1px;stroke-linecap:butt;stroke-linejoin:miter;stroke-opacity:1" d="M 165.011,11.1263 184.016,23.3281 z" id="boundary" inkscape:connector-curvature="0" />
	<path style="fill:none;stroke:red;stroke-width:1px;stroke-linecap:butt;stroke-linejoin:miter;stroke-opacity:1" d="M 184.016,23.3281 179.359,74.503 z" id="boundary" inkscape:connector-curvature="0" />
	<path style="fill:none;stroke:red;stroke-width:1px;stroke-linecap:butt;stroke-linejoin:miter;stroke-opacity:1" d="M 206.86,357.037 263.882,530.486 z" id="boundary" inkscape:connector-curvature="0" />
	<path style="fill:none;stroke:red;stroke-width:1px;stroke-linecap:butt;stroke-linejoin:miter;stroke-opacity:1" d="M 179.359,74.503 648.302,153.133 z" id="boundary" inkscape:connector-curvature="0" />
	<path style="fill:none;stroke:red;stroke-width:1px;stroke-linecap:butt;stroke-linejoin:miter;stroke-opacity:1" d="M 263.882,530.486 307.876,569.6 z" id="boundary" inkscape:connector-curvature="0" />
	<path style="fill:none;stroke:red;stroke-width:1px;stroke-linecap:butt;stroke-linejoin:miter;stroke-opacity:1" d="M 307.876,569.6 324.629,576.971 z" id="boundary" inkscape:connector-curvature="0" />
	<path style="fill:none;stroke:red;stroke-width:1px;stroke-linecap:butt;stroke-linejoin:miter;stroke-opacity:1" d="M 324.629,576.971 334.906,580.51 z" id="boundary" inkscape:connector-curvature="0" />
	<path style="fill:none;stroke:red;stroke-width:1px;stroke-linecap:butt;stroke-linejoin:miter;stroke-opacity:1" d="M 334.906,580.51 357.488,577.449 z" id="boundary" inkscape:connector-curvature="0" />
	<path style="fill:none;stroke:red;stroke-width:1px;stroke-linecap:butt;stroke-linejoin:miter;stroke-opacity:1" d="M 357.488,577.449 375.046,568.504 z" id="boundary" inkscape:connector-curvature="0" />
	<path style="fill:none;stroke:red;stroke-width:1px;stroke-linecap:butt;stroke-linejoin:miter;stroke-opacity:1" d="M 375.046,568.504 648.302,153.133 z" id="boundary" inkscape:connector-curvature="0" />
	<circle cx="4" cy="282.299" r="4" fill="#0" id="circle0"/>
	<circle cx="9.61086" cy="248.633" r="4" fill="#0" id="circle1"/>
	<circle cx="9.61086" cy="259.855" r="4" fill="#0" id="circle2"/>
	<circle cx="10.733" cy="291.276" r="4" fill="#0" id="circle3"/>
	<circle cx="12.9774" cy="273.321" r="4" fill="#0" id="circle4"/>
	<circle cx="20.8326" cy="243.023" r="4" fill="#0" id="circle5"/>
	<circle cx="20.8326" cy="257.611" r="4" fill="#0" id="circle6"/>
	<circle cx="20.8326" cy="285.665" r="4" fill="#0" id="circle7"/>
	<circle cx="24.1991" cy="273.321" r="4" fill="#0" id="circle8"/>
	<circle cx="26.4434" cy="35.4208" r="4" fill="#0" id="circle9"/>
	<circle cx="26.4434" cy="46.6425" r="4" fill="#0" id="circle10"/>
	<circle cx="32.0543" cy="97.1403" r="4" fill="#0" id="circle11"/>
	<circle cx="32.0543" cy="108.362" r="4" fill="#0" id="circle12"/>
	<circle cx="32.0543" cy="239.656" r="4" fill="#0" id="circle13"/>
	<circle cx="32.0543" cy="257.611" r="4" fill="#0" id="circle14"/>
	<circle cx="32.0543" cy="285.665" r="4" fill="#0" id="circle15"/>
	<circle cx="35.4208" cy="26.4434" r="4" fill="#0" id="circle16"/>
	<circle cx="35.4208" cy="54.4977" r="4" fill="#0" id="circle17"/>
	<circle cx="37.6652" cy="267.71" r="4" fill="#0" id="circle18"/>
	<circle cx="41.0317" cy="88.1629" r="4" fill="#0" id="circle19"/>
	<circle cx="41.0317" cy="116.217" r="4" fill="#0" id="circle20"/>
	<circle cx="42.1538" cy="291.276" r="4" fill="#0" id="circle21"/>
	<circle cx="43.276" cy="239.656" r="4" fill="#0" id="circle22"/>
	<circle cx="43.276" cy="257.611" r="4" fill="#0" id="circle23"/>
	<circle cx="44.3982" cy="61.2308" r="4" fill="#0" id="circle24"/>
	<circle cx="45.5204" cy="20.8326" r="4" fill="#0" id="circle25"/>
	<circle cx="48.8869" cy="267.71" r="4" fill="#0" id="circle26"/>
	<circle cx="52.2534" cy="88.1629" r="4" fill="#0" id="circle27"/>
	<circle cx="52.2534" cy="117.339" r="4" fill="#0" id="circle28"/>
	<circle cx="53.3756" cy="245.267" r="4" fill="#0" id="circle29"/>
	<circle cx="53.3756" cy="291.276" r="4" fill="#0" id="circle30"/>
	<circle cx="55.6199" cy="63.4751" r="4" fill="#0" id="circle31"/>
	<circle cx="71.9344" cy="34.5938" r="4" fill="#0" id="circle32"/>
	<circle cx="63.4751" cy="88.1629" r="4" fill="#0" id="circle33"/>
	<circle cx="63.4751" cy="117.339" r="4" fill="#0" id="circle34"/>
	<circle cx="63.4751" cy="250.878" r="4" fill="#0" id="circle35"/>
	<circle cx="63.4751" cy="296.887" r="4" fill="#0" id="circle36"/>
	<circle cx="66.8416" cy="66.8416" r="4" fill="#0" id="circle37"/>
	<circle cx="67.9638" cy="20.8326" r="4" fill="#0" id="circle38"/>
	<circle cx="71.3303" cy="259.855" r="4" fill="#0" id="circle39"/>
	<circle cx="74.6968" cy="88.1629" r="4" fill="#0" id="circle40"/>
	<circle cx="74.6968" cy="117.339" r="4" fill="#0" id="circle41"/>
	<circle cx="74.6968" cy="296.887" r="4" fill="#0" id="circle42"/>
	<circle cx="78.0633" cy="66.8416" r="4" fill="#0" id="circle43"/>
	<circle cx="78.0633" cy="268.833" r="4" fill="#0" id="circle44"/>
	<circle cx="79.1855" cy="16.3439" r="4" fill="#0" id="circle45"/>
	<circle cx="82.552" cy="416.959" r="4" fill="#0" id="circle46"/>
	<circle cx="82.552" cy="428.181" r="4" fill="#0" id="circle47"/>
	<circle cx="82.552" cy="439.403" r="4" fill="#0" id="circle48"/>
	<circle cx="83.6742" cy="278.932" r="4" fill="#0" id="circle49"/>
	<circle cx="83.6742" cy="304.742" r="4" fill="#0" id="circle50"/>
	<circle cx="85.9186" cy="82.552" r="4" fill="#0" id="circle51"/>
	<circle cx="85.9186" cy="117.339" r="4" fill="#0" id="circle52"/>
	<circle cx="88.1629" cy="449.502" r="4" fill="#0" id="circle53"/>
	<circle cx="89.2851" cy="289.032" r="4" fill="#0" id="circle54"/>
	<circle cx="90.4072" cy="15.2217" r="4" fill="#0" id="circle55"/>
	<circle cx="91.5294" cy="72.4525" r="4" fill="#0" id="circle56"/>
	<circle cx="91.5294" cy="313.719" r="4" fill="#0" id="circle57"/>
	<circle cx="91.5294" cy="407.982" r="4" fill="#0" id="circle58"/>
	<circle cx="94.8959" cy="425.937" r="4" fill="#0" id="circle59"/>
	<circle cx="97.1403" cy="82.552" r="4" fill="#0" id="circle60"/>
	<circle cx="97.1403" cy="117.339" r="4" fill="#0" id="circle61"/>
	<circle cx="97.1403" cy="396.76" r="4" fill="#0" id="circle62"/>
	<circle cx="98.2624" cy="295.765" r="4" fill="#0" id="circle63"/>
	<circle cx="99.3846" cy="453.991" r="4" fill="#0" id="circle64"/>
	<circle cx="100.507" cy="321.575" r="4" fill="#0" id="circle65"/>
	<circle cx="100.507" cy="436.036" r="4" fill="#0" id="circle66"/>
	<circle cx="105.853" cy="27.893" r="4" fill="#0" id="circle67"/>
	<circle cx="106.118" cy="387.783" r="4" fill="#0" id="circle68"/>
	<circle cx="108.362" cy="117.339" r="4" fill="#0" id="circle69"/>
	<circle cx="108.362" cy="301.376" r="4" fill="#0" id="circle70"/>
	<circle cx="108.362" cy="330.552" r="4" fill="#0" id="circle71"/>
	<circle cx="109.484" cy="442.769" r="4" fill="#0" id="circle72"/>
	<circle cx="110.606" cy="453.991" r="4" fill="#0" id="circle73"/>
	<circle cx="111.729" cy="431.548" r="4" fill="#0" id="circle74"/>
	<circle cx="112.851" cy="15.2217" r="4" fill="#0" id="circle75"/>
	<circle cx="117.339" cy="338.407" r="4" fill="#0" id="circle76"/>
	<circle cx="117.339" cy="382.172" r="4" fill="#0" id="circle77"/>
	<circle cx="117.339" cy="397.882" r="4" fill="#0" id="circle78"/>
	<circle cx="118.462" cy="306.986" r="4" fill="#0" id="circle79"/>
	<circle cx="119.584" cy="121.828" r="4" fill="#0" id="circle80"/>
	<circle cx="121.828" cy="437.158" r="4" fill="#0" id="circle81"/>
	<circle cx="122.95" cy="407.982" r="4" fill="#0" id="circle82"/>
	<circle cx="122.95" cy="419.204" r="4" fill="#0" id="circle83"/>
	<circle cx="124.072" cy="15.2217" r="4" fill="#0" id="circle84"/>
	<circle cx="125.195" cy="347.385" r="4" fill="#0" id="circle85"/>
	<circle cx="127.439" cy="314.842" r="4" fill="#0" id="circle86"/>
	<circle cx="127.439" cy="392.271" r="4" fill="#0" id="circle87"/>
	<circle cx="128.561" cy="376.561" r="4" fill="#0" id="circle88"/>
	<circle cx="129.683" cy="127.439" r="4" fill="#0" id="circle89"/>
	<circle cx="130.805" cy="430.425" r="4" fill="#0" id="circle90"/>
	<circle cx="133.05" cy="175.692" r="4" fill="#0" id="circle91"/>
	<circle cx="133.05" cy="186.914" r="4" fill="#0" id="circle92"/>
	<circle cx="133.05" cy="198.136" r="4" fill="#0" id="circle93"/>
	<circle cx="134.172" cy="9.61086" r="4" fill="#0" id="circle94"/>
	<circle cx="136.416" cy="351.873" r="4" fill="#0" id="circle95"/>
	<circle cx="137.538" cy="368.706" r="4" fill="#0" id="circle96"/>
	<circle cx="137.538" cy="386.661" r="4" fill="#0" id="circle97"/>
	<circle cx="138.661" cy="153.249" r="4" fill="#0" id="circle98"/>
	<circle cx="138.661" cy="164.471" r="4" fill="#0" id="circle99"/>
	<circle cx="138.661" cy="208.235" r="4" fill="#0" id="circle100"/>
	<circle cx="138.661" cy="219.457" r="4" fill="#0" id="circle101"/>
	<circle cx="138.661" cy="230.679" r="4" fill="#0" id="circle102"/>
	<circle cx="138.661" cy="315.964" r="4" fill="#0" id="circle103"/>
	<circle cx="140.905" cy="128.561" r="4" fill="#0" id="circle104"/>
	<circle cx="144.227" cy="9.47076" r="4" fill="#0" id="circle105"/>
	<circle cx="144.271" cy="139.783" r="4" fill="#0" id="circle106"/>
	<circle cx="144.271" cy="240.778" r="4" fill="#0" id="circle107"/>
	<circle cx="144.271" cy="304.742" r="4" fill="#0" id="circle108"/>
	<circle cx="147.638" cy="252" r="4" fill="#0" id="circle109"/>
	<circle cx="147.638" cy="352.995" r="4" fill="#0" id="circle110"/>
	<circle cx="147.638" cy="381.05" r="4" fill="#0" id="circle111"/>
	<circle cx="155.493" cy="4" r="4" fill="#0" id="circle112"/>
	<circle cx="155.493" cy="260.977" r="4" fill="#0" id="circle113"/>
	<circle cx="155.493" cy="299.131" r="4" fill="#0" id="circle114"/>
	<circle cx="157.738" cy="375.439" r="4" fill="#0" id="circle115"/>
	<circle cx="161.104" cy="271.077" r="4" fill="#0" id="circle116"/>
	<circle cx="164.471" cy="290.154" r="4" fill="#0" id="circle117"/>
	<circle cx="165.011" cy="11.1263" r="4" fill="#0" id="circle118"/>
	<circle cx="168.959" cy="375.439" r="4" fill="#0" id="circle119"/>
	<circle cx="175.692" cy="15.2217" r="4" fill="#0" id="circle120"/>
	<circle cx="179.059" cy="369.828" r="4" fill="#0" id="circle121"/>
	<circle cx="184.016" cy="23.3281" r="4" fill="#0" id="circle122"/>
	<circle cx="190.281" cy="369.828" r="4" fill="#0" id="circle123"/>
	<circle cx="194.769" cy="28.6878" r="4" fill="#0" id="circle124"/>
	<circle cx="206.86" cy="357.037" r="4" fill="#0" id="circle125"/>
	<circle cx="201.502" cy="37.6652" r="4" fill="#0" id="circle126"/>
	<circle cx="209.357" cy="357.484" r="4" fill="#0" id="circle127"/>
	<circle cx="212.724" cy="41.0317" r="4" fill="#0" id="circle128"/>
	<circle cx="179.359" cy="74.503" r="4" fill="#0" id="circle129"/>
	<circle cx="218.335" cy="139.783" r="4" fill="#0" id="circle130"/>
	<circle cx="218.335" cy="151.005" r="4" fill="#0" id="circle131"/>
	<circle cx="218.335" cy="162.226" r="4" fill="#0" id="circle132"/>
	<circle cx="218.335" cy="173.448" r="4" fill="#0" id="circle133"/>
	<circle cx="218.335" cy="347.385" r="4" fill="#0" id="circle134"/>
	<circle cx="222.824" cy="62.3529" r="4" fill="#0" id="circle135"/>
	<circle cx="223.946" cy="73.5747" r="4" fill="#0" id="circle136"/>
	<circle cx="223.946" cy="111.729" r="4" fill="#0" id="circle137"/>
	<circle cx="223.946" cy="122.95" r="4" fill="#0" id="circle138"/>
	<circle cx="227.312" cy="84.7964" r="4" fill="#0" id="circle139"/>
	<circle cx="227.312" cy="180.181" r="4" fill="#0" id="circle140"/>
	<circle cx="228.434" cy="341.774" r="4" fill="#0" id="circle141"/>
	<circle cx="229.557" cy="96.0181" r="4" fill="#0" id="circle142"/>
	<circle cx="238.534" cy="177.937" r="4" fill="#0" id="circle143"/>
	<circle cx="239.656" cy="341.774" r="4" fill="#0" id="circle144"/>
	<circle cx="249.756" cy="177.937" r="4" fill="#0" id="circle145"/>
	<circle cx="249.756" cy="347.385" r="4" fill="#0" id="circle146"/>
	<circle cx="260.977" cy="177.937" r="4" fill="#0" id="circle147"/>
	<circle cx="260.977" cy="347.385" r="4" fill="#0" id="circle148"/>
	<circle cx="271.077" cy="352.995" r="4" fill="#0" id="circle149"/>
	<circle cx="272.199" cy="177.937" r="4" fill="#0" id="circle150"/>
	<circle cx="273.321" cy="506.733" r="4" fill="#0" id="circle151"/>
	<circle cx="263.882" cy="530.486" r="4" fill="#0" id="circle152"/>
	<circle cx="273.321" cy="568.452" r="4" fill="#0" id="circle153"/>
	<circle cx="276.688" cy="363.095" r="4" fill="#0" id="circle154"/>
	<circle cx="278.932" cy="539.276" r="4" fill="#0" id="circle155"/>
	<circle cx="280.054" cy="577.43" r="4" fill="#0" id="circle156"/>
	<circle cx="281.176" cy="374.317" r="4" fill="#0" id="circle157"/>
	<circle cx="282.299" cy="172.326" r="4" fill="#0" id="circle158"/>
	<circle cx="282.299" cy="497.756" r="4" fill="#0" id="circle159"/>
	<circle cx="282.299" cy="559.475" r="4" fill="#0" id="circle160"/>
	<circle cx="284.543" cy="510.1" r="4" fill="#0" id="circle161"/>
	<circle cx="284.543" cy="523.566" r="4" fill="#0" id="circle162"/>
	<circle cx="286.787" cy="384.416" r="4" fill="#0" id="circle163"/>
	<circle cx="290.154" cy="540.398" r="4" fill="#0" id="circle164"/>
	<circle cx="291.276" cy="395.638" r="4" fill="#0" id="circle165"/>
	<circle cx="291.276" cy="577.43" r="4" fill="#0" id="circle166"/>
	<circle cx="293.52" cy="172.326" r="4" fill="#0" id="circle167"/>
	<circle cx="293.52" cy="497.756" r="4" fill="#0" id="circle168"/>
	<circle cx="293.52" cy="559.475" r="4" fill="#0" id="circle169"/>
	<circle cx="300.253" cy="403.493" r="4" fill="#0" id="circle170"/>
	<circle cx="301.376" cy="534.787" r="4" fill="#0" id="circle171"/>
	<circle cx="307.876" cy="569.6" r="4" fill="#0" id="circle172"/>
	<circle cx="303.62" cy="166.715" r="4" fill="#0" id="circle173"/>
	<circle cx="304.742" cy="497.756" r="4" fill="#0" id="circle174"/>
	<circle cx="304.742" cy="559.475" r="4" fill="#0" id="circle175"/>
	<circle cx="308.109" cy="412.471" r="4" fill="#0" id="circle176"/>
	<circle cx="310.353" cy="542.643" r="4" fill="#0" id="circle177"/>
	<circle cx="313.719" cy="577.43" r="4" fill="#0" id="circle178"/>
	<circle cx="314.842" cy="166.715" r="4" fill="#0" id="circle179"/>
	<circle cx="314.842" cy="503.367" r="4" fill="#0" id="circle180"/>
	<circle cx="314.842" cy="553.864" r="4" fill="#0" id="circle181"/>
	<circle cx="317.086" cy="420.326" r="4" fill="#0" id="circle182"/>
	<circle cx="324.629" cy="576.971" r="4" fill="#0" id="circle183"/>
	<circle cx="324.941" cy="429.303" r="4" fill="#0" id="circle184"/>
	<circle cx="324.941" cy="508.977" r="4" fill="#0" id="circle185"/>
	<circle cx="326.063" cy="166.715" r="4" fill="#0" id="circle186"/>
	<circle cx="333.919" cy="437.158" r="4" fill="#0" id="circle187"/>
	<circle cx="335.041" cy="514.588" r="4" fill="#0" id="circle188"/>
	<circle cx="334.906" cy="580.51" r="4" fill="#0" id="circle189"/>
	<circle cx="337.285" cy="166.715" r="4" fill="#0" id="circle190"/>
	<circle cx="340.652" cy="446.136" r="4" fill="#0" id="circle191"/>
	<circle cx="340.652" cy="489.9" r="4" fill="#0" id="circle192"/>
	<circle cx="340.652" cy="501.122" r="4" fill="#0" id="circle193"/>
	<circle cx="346.262" cy="456.235" r="4" fill="#0" id="circle194"/>
	<circle cx="346.262" cy="467.457" r="4" fill="#0" id="circle195"/>
	<circle cx="346.262" cy="478.679" r="4" fill="#0" id="circle196"/>
	<circle cx="346.262" cy="579.674" r="4" fill="#0" id="circle197"/>
	<circle cx="347.385" cy="172.326" r="4" fill="#0" id="circle198"/>
	<circle cx="357.488" cy="577.449" r="4" fill="#0" id="circle199"/>
	<circle cx="358.606" cy="175.692" r="4" fill="#0" id="circle200"/>
	<circle cx="368.706" cy="577.43" r="4" fill="#0" id="circle201"/>
	<circle cx="369.828" cy="177.937" r="4" fill="#0" id="circle202"/>
	<circle cx="375.439" cy="392.271" r="4" fill="#0" id="circle203"/>
	<circle cx="375.439" cy="403.493" r="4" fill="#0" id="circle204"/>
	<circle cx="375.046" cy="568.504" r="4" fill="#0" id="circle205"/>
	<circle cx="381.05" cy="181.303" r="4" fill="#0" id="circle206"/>
	<circle cx="381.05" cy="413.593" r="4" fill="#0" id="circle207"/>
	<circle cx="385.538" cy="386.661" r="4" fill="#0" id="circle208"/>
	<circle cx="386.661" cy="423.692" r="4" fill="#0" id="circle209"/>
	<circle cx="386.661" cy="434.914" r="4" fill="#0" id="circle210"/>
	<circle cx="386.661" cy="510.1" r="4" fill="#0" id="circle211"/>
	<circle cx="391.149" cy="568.452" r="4" fill="#0" id="circle212"/>
	<circle cx="392.271" cy="183.548" r="4" fill="#0" id="circle213"/>
	<circle cx="392.271" cy="445.014" r="4" fill="#0" id="circle214"/>
	<circle cx="392.271" cy="456.235" r="4" fill="#0" id="circle215"/>
	<circle cx="392.271" cy="467.457" r="4" fill="#0" id="circle216"/>
	<circle cx="392.271" cy="478.679" r="4" fill="#0" id="circle217"/>
	<circle cx="392.271" cy="489.9" r="4" fill="#0" id="circle218"/>
	<circle cx="392.271" cy="520.199" r="4" fill="#0" id="circle219"/>
	<circle cx="392.271" cy="531.421" r="4" fill="#0" id="circle220"/>
	<circle cx="392.271" cy="542.643" r="4" fill="#0" id="circle221"/>
	<circle cx="392.271" cy="553.864" r="4" fill="#0" id="circle222"/>
	<circle cx="396.76" cy="386.661" r="4" fill="#0" id="circle223"/>
	<circle cx="403.493" cy="183.548" r="4" fill="#0" id="circle224"/>
	<circle cx="407.982" cy="386.661" r="4" fill="#0" id="circle225"/>
	<circle cx="414.715" cy="183.548" r="4" fill="#0" id="circle226"/>
	<circle cx="419.204" cy="383.294" r="4" fill="#0" id="circle227"/>
	<circle cx="425.937" cy="183.548" r="4" fill="#0" id="circle228"/>
	<circle cx="428.181" cy="375.439" r="4" fill="#0" id="circle229"/>
	<circle cx="437.158" cy="183.548" r="4" fill="#0" id="circle230"/>
	<circle cx="438.281" cy="369.828" r="4" fill="#0" id="circle231"/>
	<circle cx="442.769" cy="358.606" r="4" fill="#0" id="circle232"/>
	<circle cx="448.38" cy="183.548" r="4" fill="#0" id="circle233"/>
	<circle cx="451.747" cy="350.751" r="4" fill="#0" id="circle234"/>
	<circle cx="459.602" cy="183.548" r="4" fill="#0" id="circle235"/>
	<circle cx="459.602" cy="341.774" r="4" fill="#0" id="circle236"/>
	<circle cx="468.579" cy="333.919" r="4" fill="#0" id="circle237"/>
	<circle cx="470.824" cy="183.548" r="4" fill="#0" id="circle238"/>
	<circle cx="476.434" cy="324.941" r="4" fill="#0" id="circle239"/>
	<circle cx="482.045" cy="183.548" r="4" fill="#0" id="circle240"/>
	<circle cx="485.412" cy="317.086" r="4" fill="#0" id="circle241"/>
	<circle cx="493.267" cy="183.548" r="4" fill="#0" id="circle242"/>
	<circle cx="493.267" cy="308.109" r="4" fill="#0" id="circle243"/>
	<circle cx="502.244" cy="300.253" r="4" fill="#0" id="circle244"/>
	<circle cx="504.489" cy="183.548" r="4" fill="#0" id="circle245"/>
	<circle cx="510.1" cy="291.276" r="4" fill="#0" id="circle246"/>
	<circle cx="515.71" cy="183.548" r="4" fill="#0" id="circle247"/>
	<circle cx="520.199" cy="285.665" r="4" fill="#0" id="circle248"/>
	<circle cx="526.932" cy="183.548" r="4" fill="#0" id="circle249"/>
	<circle cx="529.176" cy="278.932" r="4" fill="#0" id="circle250"/>
	<circle cx="538.154" cy="183.548" r="4" fill="#0" id="circle251"/>
	<circle cx="540.398" cy="273.321" r="4" fill="#0" id="circle252"/>
	<circle cx="549.376" cy="180.181" r="4" fill="#0" id="circle253"/>
	<circle cx="549.376" cy="263.222" r="4" fill="#0" id="circle254"/>
	<circle cx="560.597" cy="177.937" r="4" fill="#0" id="circle255"/>
	<circle cx="560.597" cy="257.611" r="4" fill="#0" id="circle256"/>
	<circle cx="570.697" cy="172.326" r="4" fill="#0" id="circle257"/>
	<circle cx="570.697" cy="252" r="4" fill="#0" id="circle258"/>
	<circle cx="580.796" cy="246.389" r="4" fill="#0" id="circle259"/>
	<circle cx="581.919" cy="172.326" r="4" fill="#0" id="circle260"/>
	<circle cx="590.896" cy="240.778" r="4" fill="#0" id="circle261"/>
	<circle cx="592.018" cy="166.715" r="4" fill="#0" id="circle262"/>
	<circle cx="600.995" cy="235.167" r="4" fill="#0" id="circle263"/>
	<circle cx="602.118" cy="161.104" r="4" fill="#0" id="circle264"/>
	<circle cx="611.095" cy="229.557" r="4" fill="#0" id="circle265"/>
	<circle cx="613.339" cy="161.104" r="4" fill="#0" id="circle266"/>
	<circle cx="621.195" cy="223.946" r="4" fill="#0" id="circle267"/>
	<circle cx="623.439" cy="155.493" r="4" fill="#0" id="circle268"/>
	<circle cx="630.172" cy="217.213" r="4" fill="#0" id="circle269"/>
	<circle cx="633.538" cy="149.882" r="4" fill="#0" id="circle270"/>
	<circle cx="641.394" cy="211.602" r="4" fill="#0" id="circle271"/>
	<circle cx="643.638" cy="144.271" r="4" fill="#0" id="circle272"/>
	<circle cx="652.615" cy="205.991" r="4" fill="#0" id="circle273"/>
	<circle cx="654.86" cy="142.027" r="4" fill="#0" id="circle274"/>
	<circle cx="663.837" cy="200.38" r="4" fill="#0" id="circle275"/>
	<circle cx="666.081" cy="136.416" r="4" fill="#0" id="circle276"/>
	<circle cx="675.059" cy="194.769" r="4" fill="#0" id="circle277"/>
	<circle cx="677.303" cy="133.05" r="4" fill="#0" id="circle278"/>
	<circle cx="686.281" cy="190.281" r="4" fill="#0" id="circle279"/>
	<circle cx="687.403" cy="127.439" r="4" fill="#0" id="circle280"/>
	<circle cx="696.38" cy="184.67" r="4" fill="#0" id="circle281"/>
	<circle cx="697.502" cy="121.828" r="4" fill="#0" id="circle282"/>
	<circle cx="706.48" cy="179.059" r="4" fill="#0" id="circle283"/>
	<circle cx="708.724" cy="121.828" r="4" fill="#0" id="circle284"/>
	<circle cx="716.579" cy="173.448" r="4" fill="#0" id="circle285"/>
	<circle cx="718.824" cy="116.217" r="4" fill="#0" id="circle286"/>
	<circle cx="725.557" cy="166.715" r="4" fill="#0" id="circle287"/>
	<circle cx="728.923" cy="110.606" r="4" fill="#0" id="circle288"/>
	<circle cx="736.778" cy="161.104" r="4" fill="#0" id="circle289"/>
	<circle cx="739.023" cy="104.995" r="4" fill="#0" id="circle290"/>
	<circle cx="745.756" cy="151.005" r="4" fill="#0" id="circle291"/>
	<circle cx="749.122" cy="99.3846" r="4" fill="#0" id="circle292"/>
	<circle cx="755.855" cy="145.394" r="4" fill="#0" id="circle293"/>
	<circle cx="759.222" cy="93.7738" r="4" fill="#0" id="circle294"/>
	<circle cx="764.833" cy="138.661" r="4" fill="#0" id="circle295"/>
	<circle cx="770.443" cy="88.1629" r="4" fill="#0" id="circle296"/>
	<circle cx="776.054" cy="133.05" r="4" fill="#0" id="circle297"/>
	<circle cx="781.665" cy="82.552" r="4" fill="#0" id="circle298"/>
	<circle cx="787.276" cy="127.439" r="4" fill="#0" id="circle299"/>
	<circle cx="792.887" cy="76.9412" r="4" fill="#0" id="circle300"/>
	<circle cx="798.498" cy="121.828" r="4" fill="#0" id="circle301"/>
	<circle cx="804.109" cy="76.9412" r="4" fill="#0" id="circle302"/>
	<circle cx="807.475" cy="111.729" r="4" fill="#0" id="circle303"/>
	<circle cx="814.208" cy="71.3303" r="4" fill="#0" id="circle304"/>
	<circle cx="818.697" cy="106.118" r="4" fill="#0" id="circle305"/>
	<circle cx="824.308" cy="65.7195" r="4" fill="#0" id="circle306"/>
	<circle cx="829.919" cy="100.507" r="4" fill="#0" id="circle307"/>
	<circle cx="835.529" cy="62.3529" r="4" fill="#0" id="circle308"/>
	<circle cx="841.14" cy="94.8959" r="4" fill="#0" id="circle309"/>
	<circle cx="846.751" cy="56.7421" r="4" fill="#0" id="circle310"/>
	<circle cx="852.362" cy="89.2851" r="4" fill="#0" id="circle311"/>
	<circle cx="857.973" cy="54.4977" r="4" fill="#0" id="circle312"/>
	<circle cx="863.584" cy="83.6742" r="4" fill="#0" id="circle313"/>
	<circle cx="869.195" cy="51.1312" r="4" fill="#0" id="circle314"/>
	<circle cx="874.805" cy="83.6742" r="4" fill="#0" id="circle315"/>
	<circle cx="880.416" cy="48.8869" r="4" fill="#0" id="circle316"/>
	<circle cx="884.905" cy="78.0633" r="4" fill="#0" id="circle317"/>
	<circle cx="891.638" cy="48.8869" r="4" fill="#0" id="circle318"/>
	<circle cx="648.302" cy="153.133" r="4" fill="#0" id="circle319"/>
	<circle cx="902.86" cy="45.5204" r="4" fill="#0" id="circle320"/>
	<circle cx="905.104" cy="66.8416" r="4" fill="#0" id="circle321"/>
	<circle cx="914.081" cy="43.276" r="4" fill="#0" id="circle322"/>
	<circle cx="916.326" cy="66.8416" r="4" fill="#0" id="circle323"/>
	<circle cx="925.303" cy="43.276" r="4" fill="#0" id="circle324"/>
	<circle cx="926.425" cy="61.2308" r="4" fill="#0" id="circle325"/>
	<circle cx="936.525" cy="39.9095" r="4" fill="#0" id="circle326"/>
	<circle cx="937.647" cy="61.2308" r="4" fill="#0" id="circle327"/>
	<circle cx="947.747" cy="37.6652" r="4" fill="#0" id="circle328"/>
	<circle cx="947.747" cy="55.6199" r="4" fill="#0" id="circle329"/>
	<circle cx="957.846" cy="50.009" r="4" fill="#0" id="circle330"/>
	<circle cx="958.968" cy="34.2986" r="4" fill="#0" id="circle331"/>
	<circle cx="967.946" cy="44.3982" r="4" fill="#0" id="circle332"/>
	<circle cx="970.19" cy="32.0543" r="4" fill="#0" id="circle333"/>
	<circle cx="979.167" cy="38.7873" r="4" fill="#0" id="circle334"/>
	<circle cx="980.29" cy="26.4434" r="4" fill="#0" id="circle335"/>
	<circle cx="990.389" cy="36.543" r="4" fill="#0" id="circle336"/>
	<circle cx="996" cy="26.4434" r="4" fill="#0" id="circle337"/>
	</g>
</svg>