<?xml version="1.0" encoding="UTF-8" standalone="no"?>
<!-- Created with CurveBenchmark -->
<svg
	xmlns:dc="http://purl.org/dc/elements/1.1/"
	xmlns:cc="http://creativecommons.org/ns#"
	xmlns:rdf="http://www.w3.org/1999/02/22-rdf-syntax-ns#"
	xmlns:svg="http://www.w3.org/2000/svg"
	xmlns="http://www.w3.org/2000/svg"
	xmlns:sodipodi="http://sodipodi.sourceforge.net/DTD/sodipodi-0.dtd"
	xmlns:inkscape="http://www.inkscape.org/namespaces/inkscape"
	width="1000"
	height="1000"
	id="svg2"
	version="1.1"
	sodipodi:docname="manifold/stretchdenoise-dino11.png.txt">
<defs
	id="defs4" />
<metadata
	id="metadata7">
	<rdf:RDF>
		<cc:Work
			rdf:about="">
			<dc:format>image/svg+xml</dc:format>
			<dc:type
				rdf:resource="http://purl.org/dc/dcmitype/StillImage" />
			<dc:title></dc:title>
		</cc:Work>
	</rdf:RDF>
</metadata>
<g
	inkscape:label="Layer 1"
	inkscape:groupmode="layer"
	id="layer1">
	<path style="fill:none;stroke:red;stroke-width:1px;stroke-linecap:butt;stroke-linejoin:miter;stroke-opacity:1" d="M 70.111,54.3052 79.803,159.618 z" id="boundary" inkscape:connector-curvature="0" />
	<path style="fill:none;stroke:red;stroke-width:1px;stroke-linecap:butt;stroke-linejoin:miter;stroke-opacity:1" d="M 70.111,54.3052 nan,nan z" id="boundary" inkscape:connector-curvature="0" />
	<path style="fill:none;stroke:red;stroke-width:1px;stroke-linecap:butt;stroke-linejoin:miter;stroke-opacity:1" d="M 79.803,159.618 161.019,232.452 z" id="boundary" inkscape:connector-curvature="0" />
	<path style="fill:none;stroke:red;stroke-width:1px;stroke-linecap:butt;stroke-linejoin:miter;stroke-opacity:1" d="M 161.019,232.452 223.071,245.54 z" id="boundary" inkscape:connector-curvature="0" />
	<path style="fill:none;stroke:red;stroke-width:1px;stroke-linecap:butt;stroke-linejoin:miter;stroke-opacity:1" d="M 223.071,245.54 245.54,245.54 z" id="boundary" inkscape:connector-curvature="0" />
	<path style="fill:none;stroke:red;stroke-width:1px;stroke-linecap:butt;stroke-linejoin:miter;stroke-opacity:1" d="M 245.54,245.54 278.12,239.923 z" id="boundary" inkscape:connector-curvature="0" />
	<path style="fill:none;stroke:red;stroke-width:1px;stroke-linecap:butt;stroke-linejoin:miter;stroke-opacity:1" d="M 246.664,392.711 257.898,394.958 z" id="boundary" inkscape:connector-curvature="0" />
	<path style="fill:none;stroke:red;stroke-width:1px;stroke-linecap:butt;stroke-linejoin:miter;stroke-opacity:1" d="M 246.664,392.711 305.083,694.917 z" id="boundary" inkscape:connector-curvature="0" />
	<path style="fill:none;stroke:red;stroke-width:1px;stroke-linecap:butt;stroke-linejoin:miter;stroke-opacity:1" d="M 257.898,394.958 285.984,412.933 z" id="boundary" inkscape:connector-curvature="0" />
	<path style="fill:none;stroke:red;stroke-width:1px;stroke-linecap:butt;stroke-linejoin:miter;stroke-opacity:1" d="M 278.12,239.923 300.589,239.923 z" id="boundary" inkscape:connector-curvature="0" />
	<path style="fill:none;stroke:red;stroke-width:1px;stroke-linecap:butt;stroke-linejoin:miter;stroke-opacity:1" d="M 285.984,412.933 312.947,432.032 z" id="boundary" inkscape:connector-curvature="0" />
	<path style="fill:none;stroke:red;stroke-width:1px;stroke-linecap:butt;stroke-linejoin:miter;stroke-opacity:1" d="M 300.589,239.923 323.058,239.923 z" id="boundary" inkscape:connector-curvature="0" />
	<path style="fill:none;stroke:red;stroke-width:1px;stroke-linecap:butt;stroke-linejoin:miter;stroke-opacity:1" d="M 305.083,694.917 569.092,402.822 z" id="boundary" inkscape:connector-curvature="0" />
	<path style="fill:none;stroke:red;stroke-width:1px;stroke-linecap:butt;stroke-linejoin:miter;stroke-opacity:1" d="M 312.947,432.032 312.947,454.501 z" id="boundary" inkscape:connector-curvature="0" />
	<path style="fill:none;stroke:red;stroke-width:1px;stroke-linecap:butt;stroke-linejoin:miter;stroke-opacity:1" d="M 312.947,454.501 324.181,474.723 z" id="boundary" inkscape:connector-curvature="0" />
	<path style="fill:none;stroke:red;stroke-width:1px;stroke-linecap:butt;stroke-linejoin:miter;stroke-opacity:1" d="M 323.058,239.923 345.527,239.923 z" id="boundary" inkscape:connector-curvature="0" />
	<path style="fill:none;stroke:red;stroke-width:1px;stroke-linecap:butt;stroke-linejoin:miter;stroke-opacity:1" d="M 324.181,474.723 335.416,494.945 z" id="boundary" inkscape:connector-curvature="0" />
	<path style="fill:none;stroke:red;stroke-width:1px;stroke-linecap:butt;stroke-linejoin:miter;stroke-opacity:1" d="M 335.416,494.945 411.81,234.306 z" id="boundary" inkscape:connector-curvature="0" />
	<path style="fill:none;stroke:red;stroke-width:1px;stroke-linecap:butt;stroke-linejoin:miter;stroke-opacity:1" d="M 345.527,239.923 366.872,234.306 z" id="boundary" inkscape:connector-curvature="0" />
	<path style="fill:none;stroke:red;stroke-width:1px;stroke-linecap:butt;stroke-linejoin:miter;stroke-opacity:1" d="M 366.872,234.306 378.106,234.306 z" id="boundary" inkscape:connector-curvature="0" />
	<path style="fill:none;stroke:red;stroke-width:1px;stroke-linecap:butt;stroke-linejoin:miter;stroke-opacity:1" d="M 378.106,234.306 400.575,234.306 z" id="boundary" inkscape:connector-curvature="0" />
	<path style="fill:none;stroke:red;stroke-width:1px;stroke-linecap:butt;stroke-linejoin:miter;stroke-opacity:1" d="M 400.575,234.306 411.81,234.306 z" id="boundary" inkscape:connector-curvature="0" />
	<path style="fill:none;stroke:red;stroke-width:1px;stroke-linecap:butt;stroke-linejoin:miter;stroke-opacity:1" d="M 569.092,402.822 621.894,375.86 z" id="boundary" inkscape:connector-curvature="0" />
	<path style="fill:none;stroke:red;stroke-width:1px;stroke-linecap:butt;stroke-linejoin:miter;stroke-opacity:1" d="M 621.894,375.86 662.337,347.773 z" id="boundary" inkscape:connector-curvature="0" />
	<path style="fill:none;stroke:red;stroke-width:1px;stroke-linecap:butt;stroke-linejoin:miter;stroke-opacity:1" d="M 662.337,347.773 712.892,314.07 z" id="boundary" inkscape:connector-curvature="0" />
	<path style="fill:none;stroke:red;stroke-width:1px;stroke-linecap:butt;stroke-linejoin:miter;stroke-opacity:1" d="M 712.892,314.07 754.46,290.478 z" id="boundary" inkscape:connector-curvature="0" />
	<path style="fill:none;stroke:red;stroke-width:1px;stroke-linecap:butt;stroke-linejoin:miter;stroke-opacity:1" d="M 754.46,290.478 814.002,252.281 z" id="boundary" inkscape:connector-curvature="0" />
	<path style="fill:none;stroke:red;stroke-width:1px;stroke-linecap:butt;stroke-linejoin:miter;stroke-opacity:1" d="M 814.002,252.281 854.446,229.812 z" id="boundary" inkscape:connector-curvature="0" />
	<path style="fill:none;stroke:red;stroke-width:1px;stroke-linecap:butt;stroke-linejoin:miter;stroke-opacity:1" d="M 854.446,229.812 920.729,218.578 z" id="boundary" inkscape:connector-curvature="0" />
	<path style="fill:none;stroke:red;stroke-width:1px;stroke-linecap:butt;stroke-linejoin:miter;stroke-opacity:1" d="M 920.729,218.578 975.778,224.195 z" id="boundary" inkscape:connector-curvature="0" />
	<circle cx="4" cy="24.222" r="4" fill="#0" id="circle0"/>
	<circle cx="70.111" cy="54.3052" r="4" fill="#0" id="circle1"/>
	<circle cx="15.2344" cy="18.6048" r="4" fill="#0" id="circle2"/>
	<circle cx="17.4813" cy="42.1971" r="4" fill="#0" id="circle3"/>
	<circle cx="26.4689" cy="15.2344" r="4" fill="#0" id="circle4"/>
	<circle cx="28.7157" cy="44.4439" r="4" fill="#0" id="circle5"/>
	<circle cx="37.7033" cy="12.9875" r="4" fill="#0" id="circle6"/>
	<circle cx="39.9502" cy="44.4439" r="4" fill="#0" id="circle7"/>
	<circle cx="48.9377" cy="9.61721" r="4" fill="#0" id="circle8"/>
	<circle cx="51.1846" cy="44.4439" r="4" fill="#0" id="circle9"/>
	<circle cx="60.1721" cy="9.61721" r="4" fill="#0" id="circle10"/>
	<circle cx="62.419" cy="47.8143" r="4" fill="#0" id="circle11"/>
	<circle cx="65.7894" cy="501.685" r="4" fill="#0" id="circle12"/>
	<circle cx="65.7894" cy="512.92" r="4" fill="#0" id="circle13"/>
	<circle cx="70.2831" cy="4" r="4" fill="#0" id="circle14"/>
	<circle cx="71.4066" cy="484.834" r="4" fill="#0" id="circle15"/>
	<circle cx="72.53" cy="521.907" r="4" fill="#0" id="circle16"/>
	<circle cx="73.6535" cy="50.0612" r="4" fill="#0" id="circle17"/>
	<circle cx="80.3941" cy="475.846" r="4" fill="#0" id="circle18"/>
	<circle cx="81.5176" cy="4" r="4" fill="#0" id="circle19"/>
	<circle cx="81.5176" cy="514.043" r="4" fill="#0" id="circle20"/>
	<circle cx="82.641" cy="56.8018" r="4" fill="#0" id="circle21"/>
	<circle cx="79.803" cy="159.618" r="4" fill="#0" id="circle22"/>
	<circle cx="82.641" cy="170.27" r="4" fill="#0" id="circle23"/>
	<circle cx="82.641" cy="181.504" r="4" fill="#0" id="circle24"/>
	<circle cx="82.641" cy="192.738" r="4" fill="#0" id="circle25"/>
	<circle cx="86.0113" cy="464.612" r="4" fill="#0" id="circle26"/>
	<circle cx="87.1348" cy="502.809" r="4" fill="#0" id="circle27"/>
	<circle cx="88.2582" cy="66.9128" r="4" fill="#0" id="circle28"/>
	<circle cx="88.2582" cy="119.715" r="4" fill="#0" id="circle29"/>
	<circle cx="88.2582" cy="130.949" r="4" fill="#0" id="circle30"/>
	<circle cx="88.2582" cy="142.183" r="4" fill="#0" id="circle31"/>
	<circle cx="88.2582" cy="202.849" r="4" fill="#0" id="circle32"/>
	<circle cx="88.2582" cy="214.084" r="4" fill="#0" id="circle33"/>
	<circle cx="88.2582" cy="225.318" r="4" fill="#0" id="circle34"/>
	<circle cx="92.752" cy="4" r="4" fill="#0" id="circle35"/>
	<circle cx="93.8754" cy="77.0238" r="4" fill="#0" id="circle36"/>
	<circle cx="93.8754" cy="88.2582" r="4" fill="#0" id="circle37"/>
	<circle cx="93.8754" cy="99.4926" r="4" fill="#0" id="circle38"/>
	<circle cx="93.8754" cy="235.429" r="4" fill="#0" id="circle39"/>
	<circle cx="94.9989" cy="493.821" r="4" fill="#0" id="circle40"/>
	<circle cx="97.2458" cy="246.664" r="4" fill="#0" id="circle41"/>
	<circle cx="97.2458" cy="458.994" r="4" fill="#0" id="circle42"/>
	<circle cx="102.863" cy="256.775" r="4" fill="#0" id="circle43"/>
	<circle cx="103.986" cy="5.12344" r="4" fill="#0" id="circle44"/>
	<circle cx="103.986" cy="485.957" r="4" fill="#0" id="circle45"/>
	<circle cx="106.233" cy="450.007" r="4" fill="#0" id="circle46"/>
	<circle cx="110.727" cy="265.762" r="4" fill="#0" id="circle47"/>
	<circle cx="nan" cy="nan" r="4" fill="#0" id="circle48"/>
	<circle cx="115.221" cy="442.143" r="4" fill="#0" id="circle49"/>
	<circle cx="115.221" cy="482.587" r="4" fill="#0" id="circle50"/>
	<circle cx="116.344" cy="275.873" r="4" fill="#0" id="circle51"/>
	<circle cx="119.715" cy="493.821" r="4" fill="#0" id="circle52"/>
	<circle cx="120.838" cy="21.9751" r="4" fill="#0" id="circle53"/>
	<circle cx="121.961" cy="285.984" r="4" fill="#0" id="circle54"/>
	<circle cx="123.085" cy="111.851" r="4" fill="#0" id="circle55"/>
	<circle cx="123.085" cy="123.085" r="4" fill="#0" id="circle56"/>
	<circle cx="123.085" cy="134.319" r="4" fill="#0" id="circle57"/>
	<circle cx="123.085" cy="145.554" r="4" fill="#0" id="circle58"/>
	<circle cx="123.085" cy="156.788" r="4" fill="#0" id="circle59"/>
	<circle cx="123.085" cy="168.023" r="4" fill="#0" id="circle60"/>
	<circle cx="123.085" cy="454.501" r="4" fill="#0" id="circle61"/>
	<circle cx="125.332" cy="436.525" r="4" fill="#0" id="circle62"/>
	<circle cx="128.702" cy="30.9626" r="4" fill="#0" id="circle63"/>
	<circle cx="128.702" cy="42.1971" r="4" fill="#0" id="circle64"/>
	<circle cx="128.702" cy="53.4315" r="4" fill="#0" id="circle65"/>
	<circle cx="128.702" cy="64.6659" r="4" fill="#0" id="circle66"/>
	<circle cx="128.702" cy="75.9003" r="4" fill="#0" id="circle67"/>
	<circle cx="128.702" cy="87.1348" r="4" fill="#0" id="circle68"/>
	<circle cx="128.702" cy="98.3692" r="4" fill="#0" id="circle69"/>
	<circle cx="128.702" cy="178.134" r="4" fill="#0" id="circle70"/>
	<circle cx="128.702" cy="189.368" r="4" fill="#0" id="circle71"/>
	<circle cx="128.702" cy="294.972" r="4" fill="#0" id="circle72"/>
	<circle cx="128.702" cy="464.612" r="4" fill="#0" id="circle73"/>
	<circle cx="129.826" cy="499.438" r="4" fill="#0" id="circle74"/>
	<circle cx="133.196" cy="448.883" r="4" fill="#0" id="circle75"/>
	<circle cx="134.319" cy="199.479" r="4" fill="#0" id="circle76"/>
	<circle cx="134.319" cy="210.713" r="4" fill="#0" id="circle77"/>
	<circle cx="136.566" cy="430.908" r="4" fill="#0" id="circle78"/>
	<circle cx="137.69" cy="302.836" r="4" fill="#0" id="circle79"/>
	<circle cx="137.69" cy="471.352" r="4" fill="#0" id="circle80"/>
	<circle cx="139.937" cy="220.824" r="4" fill="#0" id="circle81"/>
	<circle cx="139.937" cy="505.055" r="4" fill="#0" id="circle82"/>
	<circle cx="142.183" cy="314.07" r="4" fill="#0" id="circle83"/>
	<circle cx="143.307" cy="443.266" r="4" fill="#0" id="circle84"/>
	<circle cx="145.554" cy="480.34" r="4" fill="#0" id="circle85"/>
	<circle cx="147.801" cy="229.812" r="4" fill="#0" id="circle86"/>
	<circle cx="147.801" cy="425.291" r="4" fill="#0" id="circle87"/>
	<circle cx="150.048" cy="323.058" r="4" fill="#0" id="circle88"/>
	<circle cx="150.048" cy="510.673" r="4" fill="#0" id="circle89"/>
	<circle cx="154.541" cy="443.266" r="4" fill="#0" id="circle90"/>
	<circle cx="154.541" cy="488.204" r="4" fill="#0" id="circle91"/>
	<circle cx="155.665" cy="333.169" r="4" fill="#0" id="circle92"/>
	<circle cx="161.019" cy="232.452" r="4" fill="#0" id="circle93"/>
	<circle cx="159.035" cy="425.291" r="4" fill="#0" id="circle94"/>
	<circle cx="160.159" cy="516.29" r="4" fill="#0" id="circle95"/>
	<circle cx="162.405" cy="497.191" r="4" fill="#0" id="circle96"/>
	<circle cx="164.652" cy="341.033" r="4" fill="#0" id="circle97"/>
	<circle cx="165.776" cy="443.266" r="4" fill="#0" id="circle98"/>
	<circle cx="168.023" cy="239.923" r="4" fill="#0" id="circle99"/>
	<circle cx="168.023" cy="416.304" r="4" fill="#0" id="circle100"/>
	<circle cx="168.023" cy="507.302" r="4" fill="#0" id="circle101"/>
	<circle cx="172.516" cy="350.02" r="4" fill="#0" id="circle102"/>
	<circle cx="177.01" cy="443.266" r="4" fill="#0" id="circle103"/>
	<circle cx="178.134" cy="245.54" r="4" fill="#0" id="circle104"/>
	<circle cx="178.134" cy="360.131" r="4" fill="#0" id="circle105"/>
	<circle cx="179.257" cy="410.686" r="4" fill="#0" id="circle106"/>
	<circle cx="183.751" cy="370.242" r="4" fill="#0" id="circle107"/>
	<circle cx="188.245" cy="402.822" r="4" fill="#0" id="circle108"/>
	<circle cx="188.245" cy="443.266" r="4" fill="#0" id="circle109"/>
	<circle cx="189.368" cy="245.54" r="4" fill="#0" id="circle110"/>
	<circle cx="189.368" cy="380.353" r="4" fill="#0" id="circle111"/>
	<circle cx="194.985" cy="390.464" r="4" fill="#0" id="circle112"/>
	<circle cx="198.356" cy="437.649" r="4" fill="#0" id="circle113"/>
	<circle cx="200.602" cy="245.54" r="4" fill="#0" id="circle114"/>
	<circle cx="209.59" cy="437.649" r="4" fill="#0" id="circle115"/>
	<circle cx="211.837" cy="245.54" r="4" fill="#0" id="circle116"/>
	<circle cx="217.454" cy="731.991" r="4" fill="#0" id="circle117"/>
	<circle cx="220.824" cy="436.525" r="4" fill="#0" id="circle118"/>
	<circle cx="223.071" cy="245.54" r="4" fill="#0" id="circle119"/>
	<circle cx="228.689" cy="726.374" r="4" fill="#0" id="circle120"/>
	<circle cx="232.059" cy="430.908" r="4" fill="#0" id="circle121"/>
	<circle cx="234.306" cy="245.54" r="4" fill="#0" id="circle122"/>
	<circle cx="235.429" cy="735.361" r="4" fill="#0" id="circle123"/>
	<circle cx="239.923" cy="723.003" r="4" fill="#0" id="circle124"/>
	<circle cx="241.046" cy="420.797" r="4" fill="#0" id="circle125"/>
	<circle cx="245.54" cy="245.54" r="4" fill="#0" id="circle126"/>
	<circle cx="245.54" cy="740.978" r="4" fill="#0" id="circle127"/>
	<circle cx="246.664" cy="392.711" r="4" fill="#0" id="circle128"/>
	<circle cx="246.664" cy="403.946" r="4" fill="#0" id="circle129"/>
	<circle cx="251.157" cy="720.757" r="4" fill="#0" id="circle130"/>
	<circle cx="255.651" cy="746.596" r="4" fill="#0" id="circle131"/>
	<circle cx="256.775" cy="245.54" r="4" fill="#0" id="circle132"/>
	<circle cx="257.898" cy="394.958" r="4" fill="#0" id="circle133"/>
	<circle cx="262.392" cy="717.386" r="4" fill="#0" id="circle134"/>
	<circle cx="265.762" cy="740.978" r="4" fill="#0" id="circle135"/>
	<circle cx="268.009" cy="245.54" r="4" fill="#0" id="circle136"/>
	<circle cx="268.009" cy="400.575" r="4" fill="#0" id="circle137"/>
	<circle cx="273.626" cy="715.139" r="4" fill="#0" id="circle138"/>
	<circle cx="276.997" cy="739.855" r="4" fill="#0" id="circle139"/>
	<circle cx="278.12" cy="239.923" r="4" fill="#0" id="circle140"/>
	<circle cx="279.243" cy="403.946" r="4" fill="#0" id="circle141"/>
	<circle cx="284.861" cy="709.522" r="4" fill="#0" id="circle142"/>
	<circle cx="285.984" cy="412.933" r="4" fill="#0" id="circle143"/>
	<circle cx="288.231" cy="735.361" r="4" fill="#0" id="circle144"/>
	<circle cx="289.354" cy="239.923" r="4" fill="#0" id="circle145"/>
	<circle cx="293.848" cy="700.535" r="4" fill="#0" id="circle146"/>
	<circle cx="297.219" cy="417.427" r="4" fill="#0" id="circle147"/>
	<circle cx="298.342" cy="729.744" r="4" fill="#0" id="circle148"/>
	<circle cx="300.589" cy="239.923" r="4" fill="#0" id="circle149"/>
	<circle cx="305.083" cy="694.917" r="4" fill="#0" id="circle150"/>
	<circle cx="308.453" cy="420.797" r="4" fill="#0" id="circle151"/>
	<circle cx="308.453" cy="718.51" r="4" fill="#0" id="circle152"/>
	<circle cx="311.823" cy="239.923" r="4" fill="#0" id="circle153"/>
	<circle cx="312.947" cy="432.032" r="4" fill="#0" id="circle154"/>
	<circle cx="312.947" cy="443.266" r="4" fill="#0" id="circle155"/>
	<circle cx="312.947" cy="454.501" r="4" fill="#0" id="circle156"/>
	<circle cx="312.947" cy="681.436" r="4" fill="#0" id="circle157"/>
	<circle cx="314.07" cy="707.275" r="4" fill="#0" id="circle158"/>
	<circle cx="319.687" cy="463.488" r="4" fill="#0" id="circle159"/>
	<circle cx="321.934" cy="672.448" r="4" fill="#0" id="circle160"/>
	<circle cx="323.058" cy="239.923" r="4" fill="#0" id="circle161"/>
	<circle cx="323.058" cy="699.411" r="4" fill="#0" id="circle162"/>
	<circle cx="324.181" cy="474.723" r="4" fill="#0" id="circle163"/>
	<circle cx="329.798" cy="484.834" r="4" fill="#0" id="circle164"/>
	<circle cx="330.922" cy="663.461" r="4" fill="#0" id="circle165"/>
	<circle cx="330.922" cy="690.424" r="4" fill="#0" id="circle166"/>
	<circle cx="334.292" cy="239.923" r="4" fill="#0" id="circle167"/>
	<circle cx="335.416" cy="494.945" r="4" fill="#0" id="circle168"/>
	<circle cx="339.909" cy="655.597" r="4" fill="#0" id="circle169"/>
	<circle cx="339.909" cy="682.559" r="4" fill="#0" id="circle170"/>
	<circle cx="341.033" cy="505.055" r="4" fill="#0" id="circle171"/>
	<circle cx="345.527" cy="239.923" r="4" fill="#0" id="circle172"/>
	<circle cx="345.527" cy="671.325" r="4" fill="#0" id="circle173"/>
	<circle cx="346.65" cy="642.116" r="4" fill="#0" id="circle174"/>
	<circle cx="347.773" cy="514.043" r="4" fill="#0" id="circle175"/>
	<circle cx="353.391" cy="524.154" r="4" fill="#0" id="circle176"/>
	<circle cx="353.391" cy="662.337" r="4" fill="#0" id="circle177"/>
	<circle cx="355.638" cy="234.306" r="4" fill="#0" id="circle178"/>
	<circle cx="355.638" cy="633.128" r="4" fill="#0" id="circle179"/>
	<circle cx="361.255" cy="533.142" r="4" fill="#0" id="circle180"/>
	<circle cx="361.255" cy="621.894" r="4" fill="#0" id="circle181"/>
	<circle cx="364.625" cy="448.883" r="4" fill="#0" id="circle182"/>
	<circle cx="364.625" cy="460.118" r="4" fill="#0" id="circle183"/>
	<circle cx="364.625" cy="656.72" r="4" fill="#0" id="circle184"/>
	<circle cx="366.872" cy="234.306" r="4" fill="#0" id="circle185"/>
	<circle cx="366.872" cy="543.253" r="4" fill="#0" id="circle186"/>
	<circle cx="370.242" cy="612.906" r="4" fill="#0" id="circle187"/>
	<circle cx="373.613" cy="466.858" r="4" fill="#0" id="circle188"/>
	<circle cx="373.613" cy="648.856" r="4" fill="#0" id="circle189"/>
	<circle cx="374.736" cy="552.24" r="4" fill="#0" id="circle190"/>
	<circle cx="374.736" cy="563.475" r="4" fill="#0" id="circle191"/>
	<circle cx="374.736" cy="597.178" r="4" fill="#0" id="circle192"/>
	<circle cx="375.86" cy="448.883" r="4" fill="#0" id="circle193"/>
	<circle cx="375.86" cy="478.093" r="4" fill="#0" id="circle194"/>
	<circle cx="378.106" cy="234.306" r="4" fill="#0" id="circle195"/>
	<circle cx="380.353" cy="573.586" r="4" fill="#0" id="circle196"/>
	<circle cx="380.353" cy="584.82" r="4" fill="#0" id="circle197"/>
	<circle cx="381.477" cy="488.204" r="4" fill="#0" id="circle198"/>
	<circle cx="381.477" cy="499.438" r="4" fill="#0" id="circle199"/>
	<circle cx="381.477" cy="639.869" r="4" fill="#0" id="circle200"/>
	<circle cx="383.724" cy="510.673" r="4" fill="#0" id="circle201"/>
	<circle cx="385.971" cy="454.501" r="4" fill="#0" id="circle202"/>
	<circle cx="387.094" cy="521.907" r="4" fill="#0" id="circle203"/>
	<circle cx="389.341" cy="234.306" r="4" fill="#0" id="circle204"/>
	<circle cx="389.341" cy="533.142" r="4" fill="#0" id="circle205"/>
	<circle cx="390.464" cy="632.005" r="4" fill="#0" id="circle206"/>
	<circle cx="392.711" cy="544.376" r="4" fill="#0" id="circle207"/>
	<circle cx="396.082" cy="460.118" r="4" fill="#0" id="circle208"/>
	<circle cx="396.082" cy="620.77" r="4" fill="#0" id="circle209"/>
	<circle cx="398.328" cy="554.487" r="4" fill="#0" id="circle210"/>
	<circle cx="400.575" cy="234.306" r="4" fill="#0" id="circle211"/>
	<circle cx="403.946" cy="564.598" r="4" fill="#0" id="circle212"/>
	<circle cx="403.946" cy="611.783" r="4" fill="#0" id="circle213"/>
	<circle cx="406.193" cy="465.735" r="4" fill="#0" id="circle214"/>
	<circle cx="409.563" cy="574.709" r="4" fill="#0" id="circle215"/>
	<circle cx="411.81" cy="234.306" r="4" fill="#0" id="circle216"/>
	<circle cx="412.933" cy="603.918" r="4" fill="#0" id="circle217"/>
	<circle cx="414.057" cy="585.943" r="4" fill="#0" id="circle218"/>
	<circle cx="417.427" cy="470.229" r="4" fill="#0" id="circle219"/>
	<circle cx="423.044" cy="234.306" r="4" fill="#0" id="circle220"/>
	<circle cx="427.538" cy="475.846" r="4" fill="#0" id="circle221"/>
	<circle cx="433.155" cy="239.923" r="4" fill="#0" id="circle222"/>
	<circle cx="438.772" cy="480.34" r="4" fill="#0" id="circle223"/>
	<circle cx="444.39" cy="239.923" r="4" fill="#0" id="circle224"/>
	<circle cx="448.883" cy="437.649" r="4" fill="#0" id="circle225"/>
	<circle cx="448.883" cy="485.957" r="4" fill="#0" id="circle226"/>
	<circle cx="454.501" cy="245.54" r="4" fill="#0" id="circle227"/>
	<circle cx="454.501" cy="447.76" r="4" fill="#0" id="circle228"/>
	<circle cx="460.118" cy="437.649" r="4" fill="#0" id="circle229"/>
	<circle cx="460.118" cy="490.451" r="4" fill="#0" id="circle230"/>
	<circle cx="464.612" cy="453.377" r="4" fill="#0" id="circle231"/>
	<circle cx="465.735" cy="248.911" r="4" fill="#0" id="circle232"/>
	<circle cx="470.229" cy="432.032" r="4" fill="#0" id="circle233"/>
	<circle cx="470.229" cy="496.068" r="4" fill="#0" id="circle234"/>
	<circle cx="474.723" cy="458.994" r="4" fill="#0" id="circle235"/>
	<circle cx="476.969" cy="251.157" r="4" fill="#0" id="circle236"/>
	<circle cx="481.463" cy="428.661" r="4" fill="#0" id="circle237"/>
	<circle cx="481.463" cy="499.438" r="4" fill="#0" id="circle238"/>
	<circle cx="484.834" cy="464.612" r="4" fill="#0" id="circle239"/>
	<circle cx="487.08" cy="256.775" r="4" fill="#0" id="circle240"/>
	<circle cx="491.574" cy="505.055" r="4" fill="#0" id="circle241"/>
	<circle cx="492.698" cy="426.414" r="4" fill="#0" id="circle242"/>
	<circle cx="494.945" cy="470.229" r="4" fill="#0" id="circle243"/>
	<circle cx="498.315" cy="259.022" r="4" fill="#0" id="circle244"/>
	<circle cx="501.685" cy="419.674" r="4" fill="#0" id="circle245"/>
	<circle cx="501.685" cy="510.673" r="4" fill="#0" id="circle246"/>
	<circle cx="503.932" cy="478.093" r="4" fill="#0" id="circle247"/>
	<circle cx="509.549" cy="262.392" r="4" fill="#0" id="circle248"/>
	<circle cx="511.796" cy="516.29" r="4" fill="#0" id="circle249"/>
	<circle cx="512.92" cy="414.057" r="4" fill="#0" id="circle250"/>
	<circle cx="514.043" cy="483.71" r="4" fill="#0" id="circle251"/>
	<circle cx="519.66" cy="268.009" r="4" fill="#0" id="circle252"/>
	<circle cx="521.907" cy="492.698" r="4" fill="#0" id="circle253"/>
	<circle cx="521.907" cy="521.907" r="4" fill="#0" id="circle254"/>
	<circle cx="524.154" cy="409.563" r="4" fill="#0" id="circle255"/>
	<circle cx="530.895" cy="269.133" r="4" fill="#0" id="circle256"/>
	<circle cx="532.018" cy="498.315" r="4" fill="#0" id="circle257"/>
	<circle cx="533.142" cy="524.154" r="4" fill="#0" id="circle258"/>
	<circle cx="535.388" cy="409.563" r="4" fill="#0" id="circle259"/>
	<circle cx="541.006" cy="533.142" r="4" fill="#0" id="circle260"/>
	<circle cx="542.129" cy="273.626" r="4" fill="#0" id="circle261"/>
	<circle cx="542.129" cy="503.932" r="4" fill="#0" id="circle262"/>
	<circle cx="546.623" cy="409.563" r="4" fill="#0" id="circle263"/>
	<circle cx="549.993" cy="541.006" r="4" fill="#0" id="circle264"/>
	<circle cx="552.24" cy="509.549" r="4" fill="#0" id="circle265"/>
	<circle cx="553.364" cy="273.626" r="4" fill="#0" id="circle266"/>
	<circle cx="557.857" cy="408.439" r="4" fill="#0" id="circle267"/>
	<circle cx="557.857" cy="549.993" r="4" fill="#0" id="circle268"/>
	<circle cx="562.351" cy="515.166" r="4" fill="#0" id="circle269"/>
	<circle cx="564.598" cy="273.626" r="4" fill="#0" id="circle270"/>
	<circle cx="565.721" cy="558.981" r="4" fill="#0" id="circle271"/>
	<circle cx="565.721" cy="681.436" r="4" fill="#0" id="circle272"/>
	<circle cx="565.721" cy="692.67" r="4" fill="#0" id="circle273"/>
	<circle cx="569.092" cy="402.822" r="4" fill="#0" id="circle274"/>
	<circle cx="571.339" cy="569.092" r="4" fill="#0" id="circle275"/>
	<circle cx="571.339" cy="580.326" r="4" fill="#0" id="circle276"/>
	<circle cx="571.339" cy="591.561" r="4" fill="#0" id="circle277"/>
	<circle cx="571.339" cy="602.795" r="4" fill="#0" id="circle278"/>
	<circle cx="571.339" cy="614.029" r="4" fill="#0" id="circle279"/>
	<circle cx="571.339" cy="625.264" r="4" fill="#0" id="circle280"/>
	<circle cx="571.339" cy="636.498" r="4" fill="#0" id="circle281"/>
	<circle cx="571.339" cy="647.733" r="4" fill="#0" id="circle282"/>
	<circle cx="571.339" cy="658.967" r="4" fill="#0" id="circle283"/>
	<circle cx="571.339" cy="670.202" r="4" fill="#0" id="circle284"/>
	<circle cx="572.462" cy="520.784" r="4" fill="#0" id="circle285"/>
	<circle cx="574.709" cy="700.535" r="4" fill="#0" id="circle286"/>
	<circle cx="575.832" cy="273.626" r="4" fill="#0" id="circle287"/>
	<circle cx="580.326" cy="397.205" r="4" fill="#0" id="circle288"/>
	<circle cx="582.573" cy="709.522" r="4" fill="#0" id="circle289"/>
	<circle cx="583.696" cy="524.154" r="4" fill="#0" id="circle290"/>
	<circle cx="583.696" cy="639.869" r="4" fill="#0" id="circle291"/>
	<circle cx="583.696" cy="651.103" r="4" fill="#0" id="circle292"/>
	<circle cx="583.696" cy="662.337" r="4" fill="#0" id="circle293"/>
	<circle cx="587.067" cy="273.626" r="4" fill="#0" id="circle294"/>
	<circle cx="589.314" cy="534.265" r="4" fill="#0" id="circle295"/>
	<circle cx="589.314" cy="589.314" r="4" fill="#0" id="circle296"/>
	<circle cx="589.314" cy="600.548" r="4" fill="#0" id="circle297"/>
	<circle cx="589.314" cy="611.783" r="4" fill="#0" id="circle298"/>
	<circle cx="589.314" cy="623.017" r="4" fill="#0" id="circle299"/>
	<circle cx="589.314" cy="672.448" r="4" fill="#0" id="circle300"/>
	<circle cx="589.314" cy="683.683" r="4" fill="#0" id="circle301"/>
	<circle cx="591.561" cy="392.711" r="4" fill="#0" id="circle302"/>
	<circle cx="593.807" cy="712.892" r="4" fill="#0" id="circle303"/>
	<circle cx="594.931" cy="544.376" r="4" fill="#0" id="circle304"/>
	<circle cx="594.931" cy="555.61" r="4" fill="#0" id="circle305"/>
	<circle cx="594.931" cy="566.845" r="4" fill="#0" id="circle306"/>
	<circle cx="594.931" cy="578.079" r="4" fill="#0" id="circle307"/>
	<circle cx="594.931" cy="693.794" r="4" fill="#0" id="circle308"/>
	<circle cx="598.301" cy="273.626" r="4" fill="#0" id="circle309"/>
	<circle cx="600.548" cy="721.88" r="4" fill="#0" id="circle310"/>
	<circle cx="601.672" cy="387.094" r="4" fill="#0" id="circle311"/>
	<circle cx="603.918" cy="700.535" r="4" fill="#0" id="circle312"/>
	<circle cx="609.536" cy="273.626" r="4" fill="#0" id="circle313"/>
	<circle cx="611.783" cy="381.477" r="4" fill="#0" id="circle314"/>
	<circle cx="611.783" cy="724.127" r="4" fill="#0" id="circle315"/>
	<circle cx="614.029" cy="706.152" r="4" fill="#0" id="circle316"/>
	<circle cx="620.77" cy="273.626" r="4" fill="#0" id="circle317"/>
	<circle cx="621.894" cy="375.86" r="4" fill="#0" id="circle318"/>
	<circle cx="621.894" cy="729.744" r="4" fill="#0" id="circle319"/>
	<circle cx="624.14" cy="711.769" r="4" fill="#0" id="circle320"/>
	<circle cx="630.881" cy="369.119" r="4" fill="#0" id="circle321"/>
	<circle cx="632.005" cy="273.626" r="4" fill="#0" id="circle322"/>
	<circle cx="633.128" cy="729.744" r="4" fill="#0" id="circle323"/>
	<circle cx="635.375" cy="711.769" r="4" fill="#0" id="circle324"/>
	<circle cx="642.116" cy="363.502" r="4" fill="#0" id="circle325"/>
	<circle cx="643.239" cy="273.626" r="4" fill="#0" id="circle326"/>
	<circle cx="651.103" cy="353.391" r="4" fill="#0" id="circle327"/>
	<circle cx="653.35" cy="268.009" r="4" fill="#0" id="circle328"/>
	<circle cx="662.337" cy="347.773" r="4" fill="#0" id="circle329"/>
	<circle cx="664.584" cy="268.009" r="4" fill="#0" id="circle330"/>
	<circle cx="672.448" cy="342.156" r="4" fill="#0" id="circle331"/>
	<circle cx="675.819" cy="262.392" r="4" fill="#0" id="circle332"/>
	<circle cx="681.436" cy="335.416" r="4" fill="#0" id="circle333"/>
	<circle cx="687.053" cy="262.392" r="4" fill="#0" id="circle334"/>
	<circle cx="692.67" cy="329.798" r="4" fill="#0" id="circle335"/>
	<circle cx="698.288" cy="256.775" r="4" fill="#0" id="circle336"/>
	<circle cx="701.658" cy="319.687" r="4" fill="#0" id="circle337"/>
	<circle cx="709.522" cy="256.775" r="4" fill="#0" id="circle338"/>
	<circle cx="712.892" cy="314.07" r="4" fill="#0" id="circle339"/>
	<circle cx="719.633" cy="251.157" r="4" fill="#0" id="circle340"/>
	<circle cx="723.003" cy="308.453" r="4" fill="#0" id="circle341"/>
	<circle cx="730.867" cy="246.664" r="4" fill="#0" id="circle342"/>
	<circle cx="731.991" cy="301.712" r="4" fill="#0" id="circle343"/>
	<circle cx="742.102" cy="245.54" r="4" fill="#0" id="circle344"/>
	<circle cx="743.225" cy="296.095" r="4" fill="#0" id="circle345"/>
	<circle cx="752.213" cy="239.923" r="4" fill="#0" id="circle346"/>
	<circle cx="754.46" cy="290.478" r="4" fill="#0" id="circle347"/>
	<circle cx="763.447" cy="236.553" r="4" fill="#0" id="circle348"/>
	<circle cx="763.447" cy="280.367" r="4" fill="#0" id="circle349"/>
	<circle cx="773.558" cy="274.75" r="4" fill="#0" id="circle350"/>
	<circle cx="774.682" cy="230.935" r="4" fill="#0" id="circle351"/>
	<circle cx="784.793" cy="271.379" r="4" fill="#0" id="circle352"/>
	<circle cx="785.916" cy="225.318" r="4" fill="#0" id="circle353"/>
	<circle cx="793.78" cy="263.515" r="4" fill="#0" id="circle354"/>
	<circle cx="797.151" cy="219.701" r="4" fill="#0" id="circle355"/>
	<circle cx="803.891" cy="257.898" r="4" fill="#0" id="circle356"/>
	<circle cx="808.385" cy="214.084" r="4" fill="#0" id="circle357"/>
	<circle cx="814.002" cy="252.281" r="4" fill="#0" id="circle358"/>
	<circle cx="819.619" cy="208.467" r="4" fill="#0" id="circle359"/>
	<circle cx="824.113" cy="246.664" r="4" fill="#0" id="circle360"/>
	<circle cx="830.854" cy="206.22" r="4" fill="#0" id="circle361"/>
	<circle cx="834.224" cy="241.046" r="4" fill="#0" id="circle362"/>
	<circle cx="840.965" cy="200.602" r="4" fill="#0" id="circle363"/>
	<circle cx="844.335" cy="235.429" r="4" fill="#0" id="circle364"/>
	<circle cx="852.199" cy="200.602" r="4" fill="#0" id="circle365"/>
	<circle cx="854.446" cy="229.812" r="4" fill="#0" id="circle366"/>
	<circle cx="863.434" cy="198.356" r="4" fill="#0" id="circle367"/>
	<circle cx="865.681" cy="229.812" r="4" fill="#0" id="circle368"/>
	<circle cx="874.668" cy="194.985" r="4" fill="#0" id="circle369"/>
	<circle cx="875.792" cy="224.195" r="4" fill="#0" id="circle370"/>
	<circle cx="885.903" cy="194.985" r="4" fill="#0" id="circle371"/>
	<circle cx="887.026" cy="218.578" r="4" fill="#0" id="circle372"/>
	<circle cx="897.137" cy="194.985" r="4" fill="#0" id="circle373"/>
	<circle cx="898.26" cy="218.578" r="4" fill="#0" id="circle374"/>
	<circle cx="907.248" cy="189.368" r="4" fill="#0" id="circle375"/>
	<circle cx="909.495" cy="218.578" r="4" fill="#0" id="circle376"/>
	<circle cx="918.482" cy="189.368" r="4" fill="#0" id="circle377"/>
	<circle cx="920.729" cy="218.578" r="4" fill="#0" id="circle378"/>
	<circle cx="928.593" cy="194.985" r="4" fill="#0" id="circle379"/>
	<circle cx="931.964" cy="218.578" r="4" fill="#0" id="circle380"/>
	<circle cx="939.828" cy="194.985" r="4" fill="#0" id="circle381"/>
	<circle cx="943.198" cy="218.578" r="4" fill="#0" id="circle382"/>
	<circle cx="951.062" cy="194.985" r="4" fill="#0" id="circle383"/>
	<circle cx="954.433" cy="218.578" r="4" fill="#0" id="circle384"/>
	<circle cx="961.173" cy="200.602" r="4" fill="#0" id="circle385"/>
	<circle cx="965.667" cy="218.578" r="4" fill="#0" id="circle386"/>
	<circle cx="971.284" cy="206.22" r="4" fill="#0" id="circle387"/>
	<circle cx="975.778" cy="224.195" r="4" fill="#0" id="circle388"/>
	<circle cx="982.519" cy="206.22" r="4" fill="#0" id="circle389"/>
	<circle cx="985.889" cy="218.578" r="4" fill="#0" id="circle390"/>
	<circle cx="994.877" cy="211.837" r="4" fill="#0" id="circle391"/>
	<circle cx="996" cy="224.195" r="4" fill="#0" id="circle392"/>
	</g>
</svg>