<?xml version="1.0" encoding="UTF-8" standalone="no"?>
<!-- Created with CurveBenchmark -->
<svg
	xmlns:dc="http://purl.org/dc/elements/1.1/"
	xmlns:cc="http://creativecommons.org/ns#"
	xmlns:rdf="http://www.w3.org/1999/02/22-rdf-syntax-ns#"
	xmlns:svg="http://www.w3.org/2000/svg"
	xmlns="http://www.w3.org/2000/svg"
	xmlns:sodipodi="http://sodipodi.sourceforge.net/DTD/sodipodi-0.dtd"
	xmlns:inkscape="http://www.inkscape.org/namespaces/inkscape"
	width="1000"
	height="1000"
	id="svg2"
	version="1.1"
	sodipodi:docname="manifold/stretchdenoise-television170.png.txt">
<defs
	id="defs4" />
<metadata
	id="metadata7">
	<rdf:RDF>
		<cc:Work
			rdf:about="">
			<dc:format>image/svg+xml</dc:format>
			<dc:type
				rdf:resource="http://purl.org/dc/dcmitype/StillImage" />
			<dc:title></dc:title>
		</cc:Work>
	</rdf:RDF>
</metadata>
<g
	inkscape:label="Layer 1"
	inkscape:groupmode="layer"
	id="layer1">
	<path style="fill:none;stroke:red;stroke-width:1px;stroke-linecap:butt;stroke-linejoin:miter;stroke-opacity:1" d="M nan,nan 4,434.447 z" id="boundary" inkscape:connector-curvature="0" />
	<path style="fill:none;stroke:red;stroke-width:1px;stroke-linecap:butt;stroke-linejoin:miter;stroke-opacity:1" d="M nan,nan nan,nan z" id="boundary" inkscape:connector-curvature="0" />
	<path style="fill:none;stroke:red;stroke-width:1px;stroke-linecap:butt;stroke-linejoin:miter;stroke-opacity:1" d="M 4,434.447 307.793,233.276 z" id="boundary" inkscape:connector-curvature="0" />
	<path style="fill:none;stroke:red;stroke-width:1px;stroke-linecap:butt;stroke-linejoin:miter;stroke-opacity:1" d="M nan,nan nan,nan z" id="boundary" inkscape:connector-curvature="0" />
	<path style="fill:none;stroke:red;stroke-width:1px;stroke-linecap:butt;stroke-linejoin:miter;stroke-opacity:1" d="M nan,nan nan,nan z" id="boundary" inkscape:connector-curvature="0" />
	<path style="fill:none;stroke:red;stroke-width:1px;stroke-linecap:butt;stroke-linejoin:miter;stroke-opacity:1" d="M 121.043,398.25 190.209,398.25 z" id="boundary" inkscape:connector-curvature="0" />
	<path style="fill:none;stroke:red;stroke-width:1px;stroke-linecap:butt;stroke-linejoin:miter;stroke-opacity:1" d="M nan,nan nan,nan z" id="boundary" inkscape:connector-curvature="0" />
	<path style="fill:none;stroke:red;stroke-width:1px;stroke-linecap:butt;stroke-linejoin:miter;stroke-opacity:1" d="M nan,nan nan,nan z" id="boundary" inkscape:connector-curvature="0" />
	<path style="fill:none;stroke:red;stroke-width:1px;stroke-linecap:butt;stroke-linejoin:miter;stroke-opacity:1" d="M nan,nan nan,nan z" id="boundary" inkscape:connector-curvature="0" />
	<path style="fill:none;stroke:red;stroke-width:1px;stroke-linecap:butt;stroke-linejoin:miter;stroke-opacity:1" d="M nan,nan nan,nan z" id="boundary" inkscape:connector-curvature="0" />
	<path style="fill:none;stroke:red;stroke-width:1px;stroke-linecap:butt;stroke-linejoin:miter;stroke-opacity:1" d="M nan,nan nan,nan z" id="boundary" inkscape:connector-curvature="0" />
	<path style="fill:none;stroke:red;stroke-width:1px;stroke-linecap:butt;stroke-linejoin:miter;stroke-opacity:1" d="M nan,nan nan,nan z" id="boundary" inkscape:connector-curvature="0" />
	<path style="fill:none;stroke:red;stroke-width:1px;stroke-linecap:butt;stroke-linejoin:miter;stroke-opacity:1" d="M nan,nan nan,nan z" id="boundary" inkscape:connector-curvature="0" />
	<path style="fill:none;stroke:red;stroke-width:1px;stroke-linecap:butt;stroke-linejoin:miter;stroke-opacity:1" d="M nan,nan nan,nan z" id="boundary" inkscape:connector-curvature="0" />
	<path style="fill:none;stroke:red;stroke-width:1px;stroke-linecap:butt;stroke-linejoin:miter;stroke-opacity:1" d="M nan,nan nan,nan z" id="boundary" inkscape:connector-curvature="0" />
	<path style="fill:none;stroke:red;stroke-width:1px;stroke-linecap:butt;stroke-linejoin:miter;stroke-opacity:1" d="M nan,nan nan,nan z" id="boundary" inkscape:connector-curvature="0" />
	<path style="fill:none;stroke:red;stroke-width:1px;stroke-linecap:butt;stroke-linejoin:miter;stroke-opacity:1" d="M nan,nan nan,nan z" id="boundary" inkscape:connector-curvature="0" />
	<path style="fill:none;stroke:red;stroke-width:1px;stroke-linecap:butt;stroke-linejoin:miter;stroke-opacity:1" d="M nan,nan nan,nan z" id="boundary" inkscape:connector-curvature="0" />
	<path style="fill:none;stroke:red;stroke-width:1px;stroke-linecap:butt;stroke-linejoin:miter;stroke-opacity:1" d="M nan,nan -nan,-nan z" id="boundary" inkscape:connector-curvature="0" />
	<path style="fill:none;stroke:red;stroke-width:1px;stroke-linecap:butt;stroke-linejoin:miter;stroke-opacity:1" d="M nan,nan nan,nan z" id="boundary" inkscape:connector-curvature="0" />
	<path style="fill:none;stroke:red;stroke-width:1px;stroke-linecap:butt;stroke-linejoin:miter;stroke-opacity:1" d="M nan,nan nan,nan z" id="boundary" inkscape:connector-curvature="0" />
	<path style="fill:none;stroke:red;stroke-width:1px;stroke-linecap:butt;stroke-linejoin:miter;stroke-opacity:1" d="M nan,nan nan,nan z" id="boundary" inkscape:connector-curvature="0" />
	<path style="fill:none;stroke:red;stroke-width:1px;stroke-linecap:butt;stroke-linejoin:miter;stroke-opacity:1" d="M -nan,-nan -nan,-nan z" id="boundary" inkscape:connector-curvature="0" />
	<path style="fill:none;stroke:red;stroke-width:1px;stroke-linecap:butt;stroke-linejoin:miter;stroke-opacity:1" d="M 190.209,398.25 259.376,398.25 z" id="boundary" inkscape:connector-curvature="0" />
	<path style="fill:none;stroke:red;stroke-width:1px;stroke-linecap:butt;stroke-linejoin:miter;stroke-opacity:1" d="M nan,nan nan,nan z" id="boundary" inkscape:connector-curvature="0" />
	<path style="fill:none;stroke:red;stroke-width:1px;stroke-linecap:butt;stroke-linejoin:miter;stroke-opacity:1" d="M nan,nan nan,nan z" id="boundary" inkscape:connector-curvature="0" />
	<path style="fill:none;stroke:red;stroke-width:1px;stroke-linecap:butt;stroke-linejoin:miter;stroke-opacity:1" d="M nan,nan nan,nan z" id="boundary" inkscape:connector-curvature="0" />
	<path style="fill:none;stroke:red;stroke-width:1px;stroke-linecap:butt;stroke-linejoin:miter;stroke-opacity:1" d="M nan,nan nan,nan z" id="boundary" inkscape:connector-curvature="0" />
	<path style="fill:none;stroke:red;stroke-width:1px;stroke-linecap:butt;stroke-linejoin:miter;stroke-opacity:1" d="M -nan,-nan -nan,-nan z" id="boundary" inkscape:connector-curvature="0" />
	<path style="fill:none;stroke:red;stroke-width:1px;stroke-linecap:butt;stroke-linejoin:miter;stroke-opacity:1" d="M 259.376,398.25 328.542,398.25 z" id="boundary" inkscape:connector-curvature="0" />
	<path style="fill:none;stroke:red;stroke-width:1px;stroke-linecap:butt;stroke-linejoin:miter;stroke-opacity:1" d="M nan,nan nan,nan z" id="boundary" inkscape:connector-curvature="0" />
	<path style="fill:none;stroke:red;stroke-width:1px;stroke-linecap:butt;stroke-linejoin:miter;stroke-opacity:1" d="M nan,nan nan,nan z" id="boundary" inkscape:connector-curvature="0" />
	<path style="fill:none;stroke:red;stroke-width:1px;stroke-linecap:butt;stroke-linejoin:miter;stroke-opacity:1" d="M -nan,-nan -nan,-nan z" id="boundary" inkscape:connector-curvature="0" />
	<path style="fill:none;stroke:red;stroke-width:1px;stroke-linecap:butt;stroke-linejoin:miter;stroke-opacity:1" d="M nan,nan nan,nan z" id="boundary" inkscape:connector-curvature="0" />
	<path style="fill:none;stroke:red;stroke-width:1px;stroke-linecap:butt;stroke-linejoin:miter;stroke-opacity:1" d="M 307.793,233.276 359.667,194.283 z" id="boundary" inkscape:connector-curvature="0" />
	<path style="fill:none;stroke:red;stroke-width:1px;stroke-linecap:butt;stroke-linejoin:miter;stroke-opacity:1" d="M nan,nan nan,nan z" id="boundary" inkscape:connector-curvature="0" />
	<path style="fill:none;stroke:red;stroke-width:1px;stroke-linecap:butt;stroke-linejoin:miter;stroke-opacity:1" d="M -nan,-nan -nan,-nan z" id="boundary" inkscape:connector-curvature="0" />
	<path style="fill:none;stroke:red;stroke-width:1px;stroke-linecap:butt;stroke-linejoin:miter;stroke-opacity:1" d="M nan,nan nan,nan z" id="boundary" inkscape:connector-curvature="0" />
	<path style="fill:none;stroke:red;stroke-width:1px;stroke-linecap:butt;stroke-linejoin:miter;stroke-opacity:1" d="M nan,nan nan,nan z" id="boundary" inkscape:connector-curvature="0" />
	<path style="fill:none;stroke:red;stroke-width:1px;stroke-linecap:butt;stroke-linejoin:miter;stroke-opacity:1" d="M -nan,-nan -nan,-nan z" id="boundary" inkscape:connector-curvature="0" />
	<path style="fill:none;stroke:red;stroke-width:1px;stroke-linecap:butt;stroke-linejoin:miter;stroke-opacity:1" d="M 359.667,194.283 392.506,170.673 z" id="boundary" inkscape:connector-curvature="0" />
	<path style="fill:none;stroke:red;stroke-width:1px;stroke-linecap:butt;stroke-linejoin:miter;stroke-opacity:1" d="M nan,nan nan,nan z" id="boundary" inkscape:connector-curvature="0" />
	<path style="fill:none;stroke:red;stroke-width:1px;stroke-linecap:butt;stroke-linejoin:miter;stroke-opacity:1" d="M -nan,-nan -nan,-nan z" id="boundary" inkscape:connector-curvature="0" />
	<path style="fill:none;stroke:red;stroke-width:1px;stroke-linecap:butt;stroke-linejoin:miter;stroke-opacity:1" d="M 392.506,170.673 475.669,128.413 z" id="boundary" inkscape:connector-curvature="0" />
	<path style="fill:none;stroke:red;stroke-width:1px;stroke-linecap:butt;stroke-linejoin:miter;stroke-opacity:1" d="M nan,nan nan,nan z" id="boundary" inkscape:connector-curvature="0" />
	<path style="fill:none;stroke:red;stroke-width:1px;stroke-linecap:butt;stroke-linejoin:miter;stroke-opacity:1" d="M nan,nan nan,nan z" id="boundary" inkscape:connector-curvature="0" />
	<path style="fill:none;stroke:red;stroke-width:1px;stroke-linecap:butt;stroke-linejoin:miter;stroke-opacity:1" d="M -nan,-nan 475.669,128.413 z" id="boundary" inkscape:connector-curvature="0" />
	<path style="fill:none;stroke:red;stroke-width:1px;stroke-linecap:butt;stroke-linejoin:miter;stroke-opacity:1" d="M nan,nan nan,nan z" id="boundary" inkscape:connector-curvature="0" />
	<path style="fill:none;stroke:red;stroke-width:1px;stroke-linecap:butt;stroke-linejoin:miter;stroke-opacity:1" d="M nan,nan nan,nan z" id="boundary" inkscape:connector-curvature="0" />
	<path style="fill:none;stroke:red;stroke-width:1px;stroke-linecap:butt;stroke-linejoin:miter;stroke-opacity:1" d="M nan,nan nan,nan z" id="boundary" inkscape:connector-curvature="0" />
	<path style="fill:none;stroke:red;stroke-width:1px;stroke-linecap:butt;stroke-linejoin:miter;stroke-opacity:1" d="M nan,nan nan,nan z" id="boundary" inkscape:connector-curvature="0" />
	<path style="fill:none;stroke:red;stroke-width:1px;stroke-linecap:butt;stroke-linejoin:miter;stroke-opacity:1" d="M nan,nan nan,nan z" id="boundary" inkscape:connector-curvature="0" />
	<path style="fill:none;stroke:red;stroke-width:1px;stroke-linecap:butt;stroke-linejoin:miter;stroke-opacity:1" d="M nan,nan nan,nan z" id="boundary" inkscape:connector-curvature="0" />
	<path style="fill:none;stroke:red;stroke-width:1px;stroke-linecap:butt;stroke-linejoin:miter;stroke-opacity:1" d="M nan,nan nan,nan z" id="boundary" inkscape:connector-curvature="0" />
	<path style="fill:none;stroke:red;stroke-width:1px;stroke-linecap:butt;stroke-linejoin:miter;stroke-opacity:1" d="M nan,nan nan,nan z" id="boundary" inkscape:connector-curvature="0" />
	<path style="fill:none;stroke:red;stroke-width:1px;stroke-linecap:butt;stroke-linejoin:miter;stroke-opacity:1" d="M nan,nan nan,nan z" id="boundary" inkscape:connector-curvature="0" />
	<path style="fill:none;stroke:red;stroke-width:1px;stroke-linecap:butt;stroke-linejoin:miter;stroke-opacity:1" d="M nan,nan nan,nan z" id="boundary" inkscape:connector-curvature="0" />
	<path style="fill:none;stroke:red;stroke-width:1px;stroke-linecap:butt;stroke-linejoin:miter;stroke-opacity:1" d="M nan,nan nan,nan z" id="boundary" inkscape:connector-curvature="0" />
	<path style="fill:none;stroke:red;stroke-width:1px;stroke-linecap:butt;stroke-linejoin:miter;stroke-opacity:1" d="M nan,nan nan,nan z" id="boundary" inkscape:connector-curvature="0" />
	<path style="fill:none;stroke:red;stroke-width:1px;stroke-linecap:butt;stroke-linejoin:miter;stroke-opacity:1" d="M nan,nan nan,nan z" id="boundary" inkscape:connector-curvature="0" />
	<path style="fill:none;stroke:red;stroke-width:1px;stroke-linecap:butt;stroke-linejoin:miter;stroke-opacity:1" d="M nan,nan nan,nan z" id="boundary" inkscape:connector-curvature="0" />
	<path style="fill:none;stroke:red;stroke-width:1px;stroke-linecap:butt;stroke-linejoin:miter;stroke-opacity:1" d="M nan,nan nan,nan z" id="boundary" inkscape:connector-curvature="0" />
	<path style="fill:none;stroke:red;stroke-width:1px;stroke-linecap:butt;stroke-linejoin:miter;stroke-opacity:1" d="M nan,nan nan,nan z" id="boundary" inkscape:connector-curvature="0" />
	<path style="fill:none;stroke:red;stroke-width:1px;stroke-linecap:butt;stroke-linejoin:miter;stroke-opacity:1" d="M nan,nan nan,nan z" id="boundary" inkscape:connector-curvature="0" />
	<path style="fill:none;stroke:red;stroke-width:1px;stroke-linecap:butt;stroke-linejoin:miter;stroke-opacity:1" d="M nan,nan nan,nan z" id="boundary" inkscape:connector-curvature="0" />
	<path style="fill:none;stroke:red;stroke-width:1px;stroke-linecap:butt;stroke-linejoin:miter;stroke-opacity:1" d="M nan,nan nan,nan z" id="boundary" inkscape:connector-curvature="0" />
	<path style="fill:none;stroke:red;stroke-width:1px;stroke-linecap:butt;stroke-linejoin:miter;stroke-opacity:1" d="M nan,nan nan,nan z" id="boundary" inkscape:connector-curvature="0" />
	<path style="fill:none;stroke:red;stroke-width:1px;stroke-linecap:butt;stroke-linejoin:miter;stroke-opacity:1" d="M nan,nan nan,nan z" id="boundary" inkscape:connector-curvature="0" />
	<path style="fill:none;stroke:red;stroke-width:1px;stroke-linecap:butt;stroke-linejoin:miter;stroke-opacity:1" d="M nan,nan nan,nan z" id="boundary" inkscape:connector-curvature="0" />
	<path style="fill:none;stroke:red;stroke-width:1px;stroke-linecap:butt;stroke-linejoin:miter;stroke-opacity:1" d="M nan,nan nan,nan z" id="boundary" inkscape:connector-curvature="0" />
	<path style="fill:none;stroke:red;stroke-width:1px;stroke-linecap:butt;stroke-linejoin:miter;stroke-opacity:1" d="M nan,nan nan,nan z" id="boundary" inkscape:connector-curvature="0" />
	<path style="fill:none;stroke:red;stroke-width:1px;stroke-linecap:butt;stroke-linejoin:miter;stroke-opacity:1" d="M nan,nan nan,nan z" id="boundary" inkscape:connector-curvature="0" />
	<path style="fill:none;stroke:red;stroke-width:1px;stroke-linecap:butt;stroke-linejoin:miter;stroke-opacity:1" d="M nan,nan nan,nan z" id="boundary" inkscape:connector-curvature="0" />
	<path style="fill:none;stroke:red;stroke-width:1px;stroke-linecap:butt;stroke-linejoin:miter;stroke-opacity:1" d="M nan,nan nan,nan z" id="boundary" inkscape:connector-curvature="0" />
	<path style="fill:none;stroke:red;stroke-width:1px;stroke-linecap:butt;stroke-linejoin:miter;stroke-opacity:1" d="M nan,nan nan,nan z" id="boundary" inkscape:connector-curvature="0" />
	<path style="fill:none;stroke:red;stroke-width:1px;stroke-linecap:butt;stroke-linejoin:miter;stroke-opacity:1" d="M nan,nan nan,nan z" id="boundary" inkscape:connector-curvature="0" />
	<path style="fill:none;stroke:red;stroke-width:1px;stroke-linecap:butt;stroke-linejoin:miter;stroke-opacity:1" d="M nan,nan nan,nan z" id="boundary" inkscape:connector-curvature="0" />
	<path style="fill:none;stroke:red;stroke-width:1px;stroke-linecap:butt;stroke-linejoin:miter;stroke-opacity:1" d="M nan,nan nan,nan z" id="boundary" inkscape:connector-curvature="0" />
	<path style="fill:none;stroke:red;stroke-width:1px;stroke-linecap:butt;stroke-linejoin:miter;stroke-opacity:1" d="M nan,nan nan,nan z" id="boundary" inkscape:connector-curvature="0" />
	<path style="fill:none;stroke:red;stroke-width:1px;stroke-linecap:butt;stroke-linejoin:miter;stroke-opacity:1" d="M nan,nan nan,nan z" id="boundary" inkscape:connector-curvature="0" />
	<path style="fill:none;stroke:red;stroke-width:1px;stroke-linecap:butt;stroke-linejoin:miter;stroke-opacity:1" d="M nan,nan nan,nan z" id="boundary" inkscape:connector-curvature="0" />
	<path style="fill:none;stroke:red;stroke-width:1px;stroke-linecap:butt;stroke-linejoin:miter;stroke-opacity:1" d="M nan,nan nan,nan z" id="boundary" inkscape:connector-curvature="0" />
	<path style="fill:none;stroke:red;stroke-width:1px;stroke-linecap:butt;stroke-linejoin:miter;stroke-opacity:1" d="M nan,nan nan,nan z" id="boundary" inkscape:connector-curvature="0" />
	<path style="fill:none;stroke:red;stroke-width:1px;stroke-linecap:butt;stroke-linejoin:miter;stroke-opacity:1" d="M nan,nan nan,nan z" id="boundary" inkscape:connector-curvature="0" />
	<path style="fill:none;stroke:red;stroke-width:1px;stroke-linecap:butt;stroke-linejoin:miter;stroke-opacity:1" d="M nan,nan nan,nan z" id="boundary" inkscape:connector-curvature="0" />
	<path style="fill:none;stroke:red;stroke-width:1px;stroke-linecap:butt;stroke-linejoin:miter;stroke-opacity:1" d="M nan,nan nan,nan z" id="boundary" inkscape:connector-curvature="0" />
	<path style="fill:none;stroke:red;stroke-width:1px;stroke-linecap:butt;stroke-linejoin:miter;stroke-opacity:1" d="M nan,nan nan,nan z" id="boundary" inkscape:connector-curvature="0" />
	<path style="fill:none;stroke:red;stroke-width:1px;stroke-linecap:butt;stroke-linejoin:miter;stroke-opacity:1" d="M nan,nan nan,nan z" id="boundary" inkscape:connector-curvature="0" />
	<path style="fill:none;stroke:red;stroke-width:1px;stroke-linecap:butt;stroke-linejoin:miter;stroke-opacity:1" d="M nan,nan nan,nan z" id="boundary" inkscape:connector-curvature="0" />
	<path style="fill:none;stroke:red;stroke-width:1px;stroke-linecap:butt;stroke-linejoin:miter;stroke-opacity:1" d="M nan,nan nan,nan z" id="boundary" inkscape:connector-curvature="0" />
	<path style="fill:none;stroke:red;stroke-width:1px;stroke-linecap:butt;stroke-linejoin:miter;stroke-opacity:1" d="M nan,nan nan,nan z" id="boundary" inkscape:connector-curvature="0" />
	<path style="fill:none;stroke:red;stroke-width:1px;stroke-linecap:butt;stroke-linejoin:miter;stroke-opacity:1" d="M nan,nan nan,nan z" id="boundary" inkscape:connector-curvature="0" />
	<path style="fill:none;stroke:red;stroke-width:1px;stroke-linecap:butt;stroke-linejoin:miter;stroke-opacity:1" d="M nan,nan nan,nan z" id="boundary" inkscape:connector-curvature="0" />
	<path style="fill:none;stroke:red;stroke-width:1px;stroke-linecap:butt;stroke-linejoin:miter;stroke-opacity:1" d="M nan,nan nan,nan z" id="boundary" inkscape:connector-curvature="0" />
	<path style="fill:none;stroke:red;stroke-width:1px;stroke-linecap:butt;stroke-linejoin:miter;stroke-opacity:1" d="M nan,nan nan,nan z" id="boundary" inkscape:connector-curvature="0" />
	<path style="fill:none;stroke:red;stroke-width:1px;stroke-linecap:butt;stroke-linejoin:miter;stroke-opacity:1" d="M nan,nan nan,nan z" id="boundary" inkscape:connector-curvature="0" />
	<path style="fill:none;stroke:red;stroke-width:1px;stroke-linecap:butt;stroke-linejoin:miter;stroke-opacity:1" d="M nan,nan nan,nan z" id="boundary" inkscape:connector-curvature="0" />
	<path style="fill:none;stroke:red;stroke-width:1px;stroke-linecap:butt;stroke-linejoin:miter;stroke-opacity:1" d="M nan,nan nan,nan z" id="boundary" inkscape:connector-curvature="0" />
	<path style="fill:none;stroke:red;stroke-width:1px;stroke-linecap:butt;stroke-linejoin:miter;stroke-opacity:1" d="M nan,nan nan,nan z" id="boundary" inkscape:connector-curvature="0" />
	<path style="fill:none;stroke:red;stroke-width:1px;stroke-linecap:butt;stroke-linejoin:miter;stroke-opacity:1" d="M nan,nan nan,nan z" id="boundary" inkscape:connector-curvature="0" />
	<path style="fill:none;stroke:red;stroke-width:1px;stroke-linecap:butt;stroke-linejoin:miter;stroke-opacity:1" d="M nan,nan nan,nan z" id="boundary" inkscape:connector-curvature="0" />
	<path style="fill:none;stroke:red;stroke-width:1px;stroke-linecap:butt;stroke-linejoin:miter;stroke-opacity:1" d="M nan,nan nan,nan z" id="boundary" inkscape:connector-curvature="0" />
	<path style="fill:none;stroke:red;stroke-width:1px;stroke-linecap:butt;stroke-linejoin:miter;stroke-opacity:1" d="M nan,nan nan,nan z" id="boundary" inkscape:connector-curvature="0" />
	<path style="fill:none;stroke:red;stroke-width:1px;stroke-linecap:butt;stroke-linejoin:miter;stroke-opacity:1" d="M nan,nan nan,nan z" id="boundary" inkscape:connector-curvature="0" />
	<path style="fill:none;stroke:red;stroke-width:1px;stroke-linecap:butt;stroke-linejoin:miter;stroke-opacity:1" d="M nan,nan nan,nan z" id="boundary" inkscape:connector-curvature="0" />
	<path style="fill:none;stroke:red;stroke-width:1px;stroke-linecap:butt;stroke-linejoin:miter;stroke-opacity:1" d="M nan,nan nan,nan z" id="boundary" inkscape:connector-curvature="0" />
	<path style="fill:none;stroke:red;stroke-width:1px;stroke-linecap:butt;stroke-linejoin:miter;stroke-opacity:1" d="M nan,nan nan,nan z" id="boundary" inkscape:connector-curvature="0" />
	<path style="fill:none;stroke:red;stroke-width:1px;stroke-linecap:butt;stroke-linejoin:miter;stroke-opacity:1" d="M nan,nan nan,nan z" id="boundary" inkscape:connector-curvature="0" />
	<path style="fill:none;stroke:red;stroke-width:1px;stroke-linecap:butt;stroke-linejoin:miter;stroke-opacity:1" d="M nan,nan nan,nan z" id="boundary" inkscape:connector-curvature="0" />
	<path style="fill:none;stroke:red;stroke-width:1px;stroke-linecap:butt;stroke-linejoin:miter;stroke-opacity:1" d="M nan,nan nan,nan z" id="boundary" inkscape:connector-curvature="0" />
	<path style="fill:none;stroke:red;stroke-width:1px;stroke-linecap:butt;stroke-linejoin:miter;stroke-opacity:1" d="M nan,nan nan,nan z" id="boundary" inkscape:connector-curvature="0" />
	<path style="fill:none;stroke:red;stroke-width:1px;stroke-linecap:butt;stroke-linejoin:miter;stroke-opacity:1" d="M nan,nan nan,nan z" id="boundary" inkscape:connector-curvature="0" />
	<path style="fill:none;stroke:red;stroke-width:1px;stroke-linecap:butt;stroke-linejoin:miter;stroke-opacity:1" d="M nan,nan nan,nan z" id="boundary" inkscape:connector-curvature="0" />
	<path style="fill:none;stroke:red;stroke-width:1px;stroke-linecap:butt;stroke-linejoin:miter;stroke-opacity:1" d="M nan,nan nan,nan z" id="boundary" inkscape:connector-curvature="0" />
	<path style="fill:none;stroke:red;stroke-width:1px;stroke-linecap:butt;stroke-linejoin:miter;stroke-opacity:1" d="M nan,nan nan,nan z" id="boundary" inkscape:connector-curvature="0" />
	<path style="fill:none;stroke:red;stroke-width:1px;stroke-linecap:butt;stroke-linejoin:miter;stroke-opacity:1" d="M nan,nan nan,nan z" id="boundary" inkscape:connector-curvature="0" />
	<path style="fill:none;stroke:red;stroke-width:1px;stroke-linecap:butt;stroke-linejoin:miter;stroke-opacity:1" d="M nan,nan nan,nan z" id="boundary" inkscape:connector-curvature="0" />
	<path style="fill:none;stroke:red;stroke-width:1px;stroke-linecap:butt;stroke-linejoin:miter;stroke-opacity:1" d="M nan,nan nan,nan z" id="boundary" inkscape:connector-curvature="0" />
	<path style="fill:none;stroke:red;stroke-width:1px;stroke-linecap:butt;stroke-linejoin:miter;stroke-opacity:1" d="M nan,nan nan,nan z" id="boundary" inkscape:connector-curvature="0" />
	<path style="fill:none;stroke:red;stroke-width:1px;stroke-linecap:butt;stroke-linejoin:miter;stroke-opacity:1" d="M nan,nan nan,nan z" id="boundary" inkscape:connector-curvature="0" />
	<path style="fill:none;stroke:red;stroke-width:1px;stroke-linecap:butt;stroke-linejoin:miter;stroke-opacity:1" d="M nan,nan nan,nan z" id="boundary" inkscape:connector-curvature="0" />
	<path style="fill:none;stroke:red;stroke-width:1px;stroke-linecap:butt;stroke-linejoin:miter;stroke-opacity:1" d="M nan,nan nan,nan z" id="boundary" inkscape:connector-curvature="0" />
	<path style="fill:none;stroke:red;stroke-width:1px;stroke-linecap:butt;stroke-linejoin:miter;stroke-opacity:1" d="M nan,nan nan,nan z" id="boundary" inkscape:connector-curvature="0" />
	<path style="fill:none;stroke:red;stroke-width:1px;stroke-linecap:butt;stroke-linejoin:miter;stroke-opacity:1" d="M nan,nan nan,nan z" id="boundary" inkscape:connector-curvature="0" />
	<path style="fill:none;stroke:red;stroke-width:1px;stroke-linecap:butt;stroke-linejoin:miter;stroke-opacity:1" d="M nan,nan nan,nan z" id="boundary" inkscape:connector-curvature="0" />
	<path style="fill:none;stroke:red;stroke-width:1px;stroke-linecap:butt;stroke-linejoin:miter;stroke-opacity:1" d="M nan,nan nan,nan z" id="boundary" inkscape:connector-curvature="0" />
	<path style="fill:none;stroke:red;stroke-width:1px;stroke-linecap:butt;stroke-linejoin:miter;stroke-opacity:1" d="M nan,nan nan,nan z" id="boundary" inkscape:connector-curvature="0" />
	<path style="fill:none;stroke:red;stroke-width:1px;stroke-linecap:butt;stroke-linejoin:miter;stroke-opacity:1" d="M nan,nan nan,nan z" id="boundary" inkscape:connector-curvature="0" />
	<path style="fill:none;stroke:red;stroke-width:1px;stroke-linecap:butt;stroke-linejoin:miter;stroke-opacity:1" d="M nan,nan nan,nan z" id="boundary" inkscape:connector-curvature="0" />
	<path style="fill:none;stroke:red;stroke-width:1px;stroke-linecap:butt;stroke-linejoin:miter;stroke-opacity:1" d="M nan,nan nan,nan z" id="boundary" inkscape:connector-curvature="0" />
	<path style="fill:none;stroke:red;stroke-width:1px;stroke-linecap:butt;stroke-linejoin:miter;stroke-opacity:1" d="M nan,nan nan,nan z" id="boundary" inkscape:connector-curvature="0" />
	<path style="fill:none;stroke:red;stroke-width:1px;stroke-linecap:butt;stroke-linejoin:miter;stroke-opacity:1" d="M nan,nan nan,nan z" id="boundary" inkscape:connector-curvature="0" />
	<circle cx="17.2929" cy="412.083" r="4" fill="#0" id="circle0"/>
	<circle cx="nan" cy="nan" r="4" fill="#0" id="circle1"/>
	<circle cx="38.0428" cy="474.333" r="4" fill="#0" id="circle2"/>
	<circle cx="4" cy="434.447" r="4" fill="#0" id="circle3"/>
	<circle cx="72.6261" cy="190.75" r="4" fill="#0" id="circle4"/>
	<circle cx="72.6261" cy="294.5" r="4" fill="#0" id="circle5"/>
	<circle cx="nan" cy="nan" r="4" fill="#0" id="circle6"/>
	<circle cx="86.4594" cy="398.25" r="4" fill="#0" id="circle7"/>
	<circle cx="89.9178" cy="325.625" r="4" fill="#0" id="circle8"/>
	<circle cx="100.293" cy="214.958" r="4" fill="#0" id="circle9"/>
	<circle cx="107.209" cy="294.5" r="4" fill="#0" id="circle10"/>
	<circle cx="nan" cy="nan" r="4" fill="#0" id="circle11"/>
	<circle cx="117.584" cy="183.833" r="4" fill="#0" id="circle12"/>
	<circle cx="121.043" cy="398.25" r="4" fill="#0" id="circle13"/>
	<circle cx="124.501" cy="325.625" r="4" fill="#0" id="circle14"/>
	<circle cx="nan" cy="nan" r="4" fill="#0" id="circle15"/>
	<circle cx="nan" cy="nan" r="4" fill="#0" id="circle16"/>
	<circle cx="nan" cy="nan" r="4" fill="#0" id="circle17"/>
	<circle cx="nan" cy="nan" r="4" fill="#0" id="circle18"/>
	<circle cx="nan" cy="nan" r="4" fill="#0" id="circle19"/>
	<circle cx="nan" cy="nan" r="4" fill="#0" id="circle20"/>
	<circle cx="nan" cy="nan" r="4" fill="#0" id="circle21"/>
	<circle cx="nan" cy="nan" r="4" fill="#0" id="circle22"/>
	<circle cx="nan" cy="nan" r="4" fill="#0" id="circle23"/>
	<circle cx="nan" cy="nan" r="4" fill="#0" id="circle24"/>
	<circle cx="nan" cy="nan" r="4" fill="#0" id="circle25"/>
	<circle cx="134.876" cy="4" r="4" fill="#0" id="circle26"/>
	<circle cx="nan" cy="nan" r="4" fill="#0" id="circle27"/>
	<circle cx="134.876" cy="214.958" r="4" fill="#0" id="circle28"/>
	<circle cx="141.793" cy="294.5" r="4" fill="#0" id="circle29"/>
	<circle cx="nan" cy="nan" r="4" fill="#0" id="circle30"/>
	<circle cx="152.168" cy="69.7083" r="4" fill="#0" id="circle31"/>
	<circle cx="152.168" cy="183.833" r="4" fill="#0" id="circle32"/>
	<circle cx="155.626" cy="398.25" r="4" fill="#0" id="circle33"/>
	<circle cx="159.084" cy="325.625" r="4" fill="#0" id="circle34"/>
	<circle cx="nan" cy="nan" r="4" fill="#0" id="circle35"/>
	<circle cx="169.459" cy="214.958" r="4" fill="#0" id="circle36"/>
	<circle cx="176.376" cy="294.5" r="4" fill="#0" id="circle37"/>
	<circle cx="nan" cy="nan" r="4" fill="#0" id="circle38"/>
	<circle cx="-nan" cy="-nan" r="4" fill="#0" id="circle39"/>
	<circle cx="186.751" cy="183.833" r="4" fill="#0" id="circle40"/>
	<circle cx="190.209" cy="398.25" r="4" fill="#0" id="circle41"/>
	<circle cx="193.668" cy="325.625" r="4" fill="#0" id="circle42"/>
	<circle cx="nan" cy="nan" r="4" fill="#0" id="circle43"/>
	<circle cx="204.043" cy="214.958" r="4" fill="#0" id="circle44"/>
	<circle cx="210.959" cy="294.5" r="4" fill="#0" id="circle45"/>
	<circle cx="nan" cy="nan" r="4" fill="#0" id="circle46"/>
	<circle cx="221.334" cy="69.7083" r="4" fill="#0" id="circle47"/>
	<circle cx="221.334" cy="183.833" r="4" fill="#0" id="circle48"/>
	<circle cx="224.793" cy="398.25" r="4" fill="#0" id="circle49"/>
	<circle cx="228.251" cy="325.625" r="4" fill="#0" id="circle50"/>
	<circle cx="nan" cy="nan" r="4" fill="#0" id="circle51"/>
	<circle cx="238.626" cy="214.958" r="4" fill="#0" id="circle52"/>
	<circle cx="245.543" cy="294.5" r="4" fill="#0" id="circle53"/>
	<circle cx="nan" cy="nan" r="4" fill="#0" id="circle54"/>
	<circle cx="-nan" cy="-nan" r="4" fill="#0" id="circle55"/>
	<circle cx="255.918" cy="183.833" r="4" fill="#0" id="circle56"/>
	<circle cx="259.376" cy="398.25" r="4" fill="#0" id="circle57"/>
	<circle cx="262.834" cy="325.625" r="4" fill="#0" id="circle58"/>
	<circle cx="nan" cy="nan" r="4" fill="#0" id="circle59"/>
	<circle cx="273.209" cy="214.958" r="4" fill="#0" id="circle60"/>
	<circle cx="280.126" cy="294.5" r="4" fill="#0" id="circle61"/>
	<circle cx="nan" cy="nan" r="4" fill="#0" id="circle62"/>
	<circle cx="-nan" cy="-nan" r="4" fill="#0" id="circle63"/>
	<circle cx="290.501" cy="183.833" r="4" fill="#0" id="circle64"/>
	<circle cx="293.959" cy="398.25" r="4" fill="#0" id="circle65"/>
	<circle cx="297.418" cy="325.625" r="4" fill="#0" id="circle66"/>
	<circle cx="nan" cy="nan" r="4" fill="#0" id="circle67"/>
	<circle cx="307.793" cy="233.276" r="4" fill="#0" id="circle68"/>
	<circle cx="314.709" cy="294.5" r="4" fill="#0" id="circle69"/>
	<circle cx="nan" cy="nan" r="4" fill="#0" id="circle70"/>
	<circle cx="-nan" cy="-nan" r="4" fill="#0" id="circle71"/>
	<circle cx="325.084" cy="183.833" r="4" fill="#0" id="circle72"/>
	<circle cx="328.542" cy="398.25" r="4" fill="#0" id="circle73"/>
	<circle cx="332.001" cy="325.625" r="4" fill="#0" id="circle74"/>
	<circle cx="nan" cy="nan" r="4" fill="#0" id="circle75"/>
	<circle cx="342.376" cy="214.958" r="4" fill="#0" id="circle76"/>
	<circle cx="349.292" cy="294.5" r="4" fill="#0" id="circle77"/>
	<circle cx="nan" cy="nan" r="4" fill="#0" id="circle78"/>
	<circle cx="356.209" cy="418.999" r="4" fill="#0" id="circle79"/>
	<circle cx="-nan" cy="-nan" r="4" fill="#0" id="circle80"/>
	<circle cx="359.667" cy="194.283" r="4" fill="#0" id="circle81"/>
	<circle cx="366.584" cy="325.625" r="4" fill="#0" id="circle82"/>
	<circle cx="nan" cy="nan" r="4" fill="#0" id="circle83"/>
	<circle cx="376.959" cy="214.958" r="4" fill="#0" id="circle84"/>
	<circle cx="383.876" cy="294.5" r="4" fill="#0" id="circle85"/>
	<circle cx="383.876" cy="398.25" r="4" fill="#0" id="circle86"/>
	<circle cx="383.876" cy="470.874" r="4" fill="#0" id="circle87"/>
	<circle cx="-nan" cy="-nan" r="4" fill="#0" id="circle88"/>
	<circle cx="392.506" cy="170.673" r="4" fill="#0" id="circle89"/>
	<circle cx="401.167" cy="325.625" r="4" fill="#0" id="circle90"/>
	<circle cx="nan" cy="nan" r="4" fill="#0" id="circle91"/>
	<circle cx="411.542" cy="214.958" r="4" fill="#0" id="circle92"/>
	<circle cx="411.542" cy="418.999" r="4" fill="#0" id="circle93"/>
	<circle cx="418.459" cy="294.5" r="4" fill="#0" id="circle94"/>
	<circle cx="nan" cy="nan" r="4" fill="#0" id="circle95"/>
	<circle cx="-nan" cy="-nan" r="4" fill="#0" id="circle96"/>
	<circle cx="428.834" cy="183.833" r="4" fill="#0" id="circle97"/>
	<circle cx="435.751" cy="325.625" r="4" fill="#0" id="circle98"/>
	<circle cx="439.209" cy="398.25" r="4" fill="#0" id="circle99"/>
	<circle cx="nan" cy="nan" r="4" fill="#0" id="circle100"/>
	<circle cx="446.126" cy="214.958" r="4" fill="#0" id="circle101"/>
	<circle cx="453.042" cy="97.3749" r="4" fill="#0" id="circle102"/>
	<circle cx="475.669" cy="128.413" r="4" fill="#0" id="circle103"/>
	<circle cx="453.042" cy="249.541" r="4" fill="#0" id="circle104"/>
	<circle cx="453.042" cy="284.125" r="4" fill="#0" id="circle105"/>
	<circle cx="453.042" cy="356.75" r="4" fill="#0" id="circle106"/>
	<circle cx="453.042" cy="470.874" r="4" fill="#0" id="circle107"/>
	<circle cx="nan" cy="nan" r="4" fill="#0" id="circle108"/>
	<circle cx="nan" cy="nan" r="4" fill="#0" id="circle109"/>
	<circle cx="nan" cy="nan" r="4" fill="#0" id="circle110"/>
	<circle cx="nan" cy="nan" r="4" fill="#0" id="circle111"/>
	<circle cx="nan" cy="nan" r="4" fill="#0" id="circle112"/>
	<circle cx="nan" cy="nan" r="4" fill="#0" id="circle113"/>
	<circle cx="nan" cy="nan" r="4" fill="#0" id="circle114"/>
	<circle cx="nan" cy="nan" r="4" fill="#0" id="circle115"/>
	<circle cx="nan" cy="nan" r="4" fill="#0" id="circle116"/>
	<circle cx="nan" cy="nan" r="4" fill="#0" id="circle117"/>
	<circle cx="nan" cy="nan" r="4" fill="#0" id="circle118"/>
	<circle cx="nan" cy="nan" r="4" fill="#0" id="circle119"/>
	<circle cx="nan" cy="nan" r="4" fill="#0" id="circle120"/>
	<circle cx="nan" cy="nan" r="4" fill="#0" id="circle121"/>
	<circle cx="nan" cy="nan" r="4" fill="#0" id="circle122"/>
	<circle cx="657.084" cy="218.416" r="4" fill="#0" id="circle123"/>
	<circle cx="657.084" cy="253" r="4" fill="#0" id="circle124"/>
	<circle cx="657.084" cy="287.583" r="4" fill="#0" id="circle125"/>
	<circle cx="657.084" cy="329.083" r="4" fill="#0" id="circle126"/>
	<circle cx="nan" cy="nan" r="4" fill="#0" id="circle127"/>
	<circle cx="nan" cy="nan" r="4" fill="#0" id="circle128"/>
	<circle cx="nan" cy="nan" r="4" fill="#0" id="circle129"/>
	<circle cx="nan" cy="nan" r="4" fill="#0" id="circle130"/>
	<circle cx="nan" cy="nan" r="4" fill="#0" id="circle131"/>
	<circle cx="nan" cy="nan" r="4" fill="#0" id="circle132"/>
	<circle cx="691.667" cy="183.833" r="4" fill="#0" id="circle133"/>
	<circle cx="691.667" cy="294.5" r="4" fill="#0" id="circle134"/>
	<circle cx="nan" cy="nan" r="4" fill="#0" id="circle135"/>
	<circle cx="nan" cy="nan" r="4" fill="#0" id="circle136"/>
	<circle cx="nan" cy="nan" r="4" fill="#0" id="circle137"/>
	<circle cx="nan" cy="nan" r="4" fill="#0" id="circle138"/>
	<circle cx="nan" cy="nan" r="4" fill="#0" id="circle139"/>
	<circle cx="nan" cy="nan" r="4" fill="#0" id="circle140"/>
	<circle cx="726.25" cy="183.833" r="4" fill="#0" id="circle141"/>
	<circle cx="726.25" cy="294.5" r="4" fill="#0" id="circle142"/>
	<circle cx="nan" cy="nan" r="4" fill="#0" id="circle143"/>
	<circle cx="743.542" cy="214.958" r="4" fill="#0" id="circle144"/>
	<circle cx="743.542" cy="325.625" r="4" fill="#0" id="circle145"/>
	<circle cx="nan" cy="nan" r="4" fill="#0" id="circle146"/>
	<circle cx="nan" cy="nan" r="4" fill="#0" id="circle147"/>
	<circle cx="nan" cy="nan" r="4" fill="#0" id="circle148"/>
	<circle cx="760.834" cy="183.833" r="4" fill="#0" id="circle149"/>
	<circle cx="nan" cy="nan" r="4" fill="#0" id="circle150"/>
	<circle cx="nan" cy="nan" r="4" fill="#0" id="circle151"/>
	<circle cx="nan" cy="nan" r="4" fill="#0" id="circle152"/>
	<circle cx="nan" cy="nan" r="4" fill="#0" id="circle153"/>
	<circle cx="nan" cy="nan" r="4" fill="#0" id="circle154"/>
	<circle cx="nan" cy="nan" r="4" fill="#0" id="circle155"/>
	<circle cx="nan" cy="nan" r="4" fill="#0" id="circle156"/>
	<circle cx="795.417" cy="183.833" r="4" fill="#0" id="circle157"/>
	<circle cx="795.417" cy="294.5" r="4" fill="#0" id="circle158"/>
	<circle cx="nan" cy="nan" r="4" fill="#0" id="circle159"/>
	<circle cx="nan" cy="nan" r="4" fill="#0" id="circle160"/>
	<circle cx="812.709" cy="214.958" r="4" fill="#0" id="circle161"/>
	<circle cx="nan" cy="nan" r="4" fill="#0" id="circle162"/>
	<circle cx="nan" cy="nan" r="4" fill="#0" id="circle163"/>
	<circle cx="nan" cy="nan" r="4" fill="#0" id="circle164"/>
	<circle cx="nan" cy="nan" r="4" fill="#0" id="circle165"/>
	<circle cx="830" cy="294.5" r="4" fill="#0" id="circle166"/>
	<circle cx="nan" cy="nan" r="4" fill="#0" id="circle167"/>
	<circle cx="nan" cy="nan" r="4" fill="#0" id="circle168"/>
	<circle cx="847.292" cy="214.958" r="4" fill="#0" id="circle169"/>
	<circle cx="nan" cy="nan" r="4" fill="#0" id="circle170"/>
	<circle cx="nan" cy="nan" r="4" fill="#0" id="circle171"/>
	<circle cx="nan" cy="nan" r="4" fill="#0" id="circle172"/>
	<circle cx="864.583" cy="183.833" r="4" fill="#0" id="circle173"/>
	<circle cx="nan" cy="nan" r="4" fill="#0" id="circle174"/>
	<circle cx="nan" cy="nan" r="4" fill="#0" id="circle175"/>
	<circle cx="nan" cy="nan" r="4" fill="#0" id="circle176"/>
	<circle cx="nan" cy="nan" r="4" fill="#0" id="circle177"/>
	<circle cx="881.875" cy="325.625" r="4" fill="#0" id="circle178"/>
	<circle cx="nan" cy="nan" r="4" fill="#0" id="circle179"/>
	<circle cx="nan" cy="nan" r="4" fill="#0" id="circle180"/>
	<circle cx="899.167" cy="183.833" r="4" fill="#0" id="circle181"/>
	<circle cx="899.167" cy="294.5" r="4" fill="#0" id="circle182"/>
	<circle cx="nan" cy="nan" r="4" fill="#0" id="circle183"/>
	<circle cx="nan" cy="nan" r="4" fill="#0" id="circle184"/>
	<circle cx="916.458" cy="214.958" r="4" fill="#0" id="circle185"/>
	<circle cx="916.458" cy="325.625" r="4" fill="#0" id="circle186"/>
	<circle cx="nan" cy="nan" r="4" fill="#0" id="circle187"/>
	<circle cx="nan" cy="nan" r="4" fill="#0" id="circle188"/>
	<circle cx="nan" cy="nan" r="4" fill="#0" id="circle189"/>
	<circle cx="nan" cy="nan" r="4" fill="#0" id="circle190"/>
	<circle cx="nan" cy="nan" r="4" fill="#0" id="circle191"/>
	<circle cx="nan" cy="nan" r="4" fill="#0" id="circle192"/>
	<circle cx="951.042" cy="214.958" r="4" fill="#0" id="circle193"/>
	<circle cx="951.042" cy="325.625" r="4" fill="#0" id="circle194"/>
	<circle cx="nan" cy="nan" r="4" fill="#0" id="circle195"/>
	<circle cx="nan" cy="nan" r="4" fill="#0" id="circle196"/>
	<circle cx="nan" cy="nan" r="4" fill="#0" id="circle197"/>
	<circle cx="nan" cy="nan" r="4" fill="#0" id="circle198"/>
	<circle cx="nan" cy="nan" r="4" fill="#0" id="circle199"/>
	<circle cx="nan" cy="nan" r="4" fill="#0" id="circle200"/>
	<circle cx="nan" cy="nan" r="4" fill="#0" id="circle201"/>
	<circle cx="nan" cy="nan" r="4" fill="#0" id="circle202"/>
	<circle cx="nan" cy="nan" r="4" fill="#0" id="circle203"/>
	<circle cx="nan" cy="nan" r="4" fill="#0" id="circle204"/>
	<circle cx="nan" cy="nan" r="4" fill="#0" id="circle205"/>
	<circle cx="nan" cy="nan" r="4" fill="#0" id="circle206"/>
	<circle cx="nan" cy="nan" r="4" fill="#0" id="circle207"/>
	<circle cx="nan" cy="nan" r="4" fill="#0" id="circle208"/>
	<circle cx="968.333" cy="294.5" r="4" fill="#0" id="circle209"/>
	<circle cx="nan" cy="nan" r="4" fill="#0" id="circle210"/>
	<circle cx="nan" cy="nan" r="4" fill="#0" id="circle211"/>
	<circle cx="nan" cy="nan" r="4" fill="#0" id="circle212"/>
	<circle cx="996" cy="315.25" r="4" fill="#0" id="circle213"/>
	<circle cx="nan" cy="nan" r="4" fill="#0" id="circle214"/>
	<circle cx="nan" cy="nan" r="4" fill="#0" id="circle215"/>
	<circle cx="nan" cy="nan" r="4" fill="#0" id="circle216"/>
	<circle cx="nan" cy="nan" r="4" fill="#0" id="circle217"/>
	<circle cx="nan" cy="nan" r="4" fill="#0" id="circle218"/>
	</g>
</svg>