<?xml version="1.0" encoding="UTF-8" standalone="no"?>
<!-- Created with CurveBenchmark -->
<svg
	xmlns:dc="http://purl.org/dc/elements/1.1/"
	xmlns:cc="http://creativecommons.org/ns#"
	xmlns:rdf="http://www.w3.org/1999/02/22-rdf-syntax-ns#"
	xmlns:svg="http://www.w3.org/2000/svg"
	xmlns="http://www.w3.org/2000/svg"
	xmlns:sodipodi="http://sodipodi.sourceforge.net/DTD/sodipodi-0.dtd"
	xmlns:inkscape="http://www.inkscape.org/namespaces/inkscape"
	width="1000"
	height="1000"
	id="svg2"
	version="1.1"
	sodipodi:docname="manifold/stretchdenoise-sink075.png.txt">
<defs
	id="defs4" />
<metadata
	id="metadata7">
	<rdf:RDF>
		<cc:Work
			rdf:about="">
			<dc:format>image/svg+xml</dc:format>
			<dc:type
				rdf:resource="http://purl.org/dc/dcmitype/StillImage" />
			<dc:title></dc:title>
		</cc:Work>
	</rdf:RDF>
</metadata>
<g
	inkscape:label="Layer 1"
	inkscape:groupmode="layer"
	id="layer1">
	<path style="fill:none;stroke:red;stroke-width:1px;stroke-linecap:butt;stroke-linejoin:miter;stroke-opacity:1" d="M 12.9328,299.283 31.3968,224.445 z" id="boundary" inkscape:connector-curvature="0" />
	<path style="fill:none;stroke:red;stroke-width:1px;stroke-linecap:butt;stroke-linejoin:miter;stroke-opacity:1" d="M 12.9328,299.283 54.9996,318.537 z" id="boundary" inkscape:connector-curvature="0" />
	<path style="fill:none;stroke:red;stroke-width:1px;stroke-linecap:butt;stroke-linejoin:miter;stroke-opacity:1" d="M 4,156.054 31.3968,224.445 z" id="boundary" inkscape:connector-curvature="0" />
	<path style="fill:none;stroke:red;stroke-width:1px;stroke-linecap:butt;stroke-linejoin:miter;stroke-opacity:1" d="M 54.9996,318.537 103.39,318.537 z" id="boundary" inkscape:connector-curvature="0" />
	<path style="fill:none;stroke:red;stroke-width:1px;stroke-linecap:butt;stroke-linejoin:miter;stroke-opacity:1" d="M 113.068,168.527 253.4,400.8 z" id="boundary" inkscape:connector-curvature="0" />
	<path style="fill:none;stroke:red;stroke-width:1px;stroke-linecap:butt;stroke-linejoin:miter;stroke-opacity:1" d="M 113.068,168.527 335.663,4 z" id="boundary" inkscape:connector-curvature="0" />
	<path style="fill:none;stroke:red;stroke-width:1px;stroke-linecap:butt;stroke-linejoin:miter;stroke-opacity:1" d="M 253.4,400.8 292.112,434.673 z" id="boundary" inkscape:connector-curvature="0" />
	<path style="fill:none;stroke:red;stroke-width:1px;stroke-linecap:butt;stroke-linejoin:miter;stroke-opacity:1" d="M 292.112,434.673 340.502,444.351 z" id="boundary" inkscape:connector-curvature="0" />
	<path style="fill:none;stroke:red;stroke-width:1px;stroke-linecap:butt;stroke-linejoin:miter;stroke-opacity:1" d="M 335.663,4 364.697,178.205 z" id="boundary" inkscape:connector-curvature="0" />
	<path style="fill:none;stroke:red;stroke-width:1px;stroke-linecap:butt;stroke-linejoin:miter;stroke-opacity:1" d="M 340.502,444.351 388.892,454.029 z" id="boundary" inkscape:connector-curvature="0" />
	<path style="fill:none;stroke:red;stroke-width:1px;stroke-linecap:butt;stroke-linejoin:miter;stroke-opacity:1" d="M 345.341,942.771 345.341,991.161 z" id="boundary" inkscape:connector-curvature="0" />
	<path style="fill:none;stroke:red;stroke-width:1px;stroke-linecap:butt;stroke-linejoin:miter;stroke-opacity:1" d="M 345.341,942.771 374.375,894.38 z" id="boundary" inkscape:connector-curvature="0" />
	<path style="fill:none;stroke:red;stroke-width:1px;stroke-linecap:butt;stroke-linejoin:miter;stroke-opacity:1" d="M 345.341,991.161 393.731,996 z" id="boundary" inkscape:connector-curvature="0" />
	<path style="fill:none;stroke:red;stroke-width:1px;stroke-linecap:butt;stroke-linejoin:miter;stroke-opacity:1" d="M 364.697,178.205 413.087,168.527 z" id="boundary" inkscape:connector-curvature="0" />
	<path style="fill:none;stroke:red;stroke-width:1px;stroke-linecap:butt;stroke-linejoin:miter;stroke-opacity:1" d="M 374.375,894.38 393.731,841.151 z" id="boundary" inkscape:connector-curvature="0" />
	<path style="fill:none;stroke:red;stroke-width:1px;stroke-linecap:butt;stroke-linejoin:miter;stroke-opacity:1" d="M 388.892,454.029 393.731,502.42 z" id="boundary" inkscape:connector-curvature="0" />
	<path style="fill:none;stroke:red;stroke-width:1px;stroke-linecap:butt;stroke-linejoin:miter;stroke-opacity:1" d="M 393.731,502.42 393.731,550.81 z" id="boundary" inkscape:connector-curvature="0" />
	<path style="fill:none;stroke:red;stroke-width:1px;stroke-linecap:butt;stroke-linejoin:miter;stroke-opacity:1" d="M 393.731,550.81 393.731,599.2 z" id="boundary" inkscape:connector-curvature="0" />
	<path style="fill:none;stroke:red;stroke-width:1px;stroke-linecap:butt;stroke-linejoin:miter;stroke-opacity:1" d="M 393.731,599.2 393.731,647.59 z" id="boundary" inkscape:connector-curvature="0" />
	<path style="fill:none;stroke:red;stroke-width:1px;stroke-linecap:butt;stroke-linejoin:miter;stroke-opacity:1" d="M 393.731,647.59 393.731,695.98 z" id="boundary" inkscape:connector-curvature="0" />
	<path style="fill:none;stroke:red;stroke-width:1px;stroke-linecap:butt;stroke-linejoin:miter;stroke-opacity:1" d="M 393.731,695.98 393.731,744.371 z" id="boundary" inkscape:connector-curvature="0" />
	<path style="fill:none;stroke:red;stroke-width:1px;stroke-linecap:butt;stroke-linejoin:miter;stroke-opacity:1" d="M 393.731,744.371 393.731,792.761 z" id="boundary" inkscape:connector-curvature="0" />
	<path style="fill:none;stroke:red;stroke-width:1px;stroke-linecap:butt;stroke-linejoin:miter;stroke-opacity:1" d="M 393.731,792.761 393.731,841.151 z" id="boundary" inkscape:connector-curvature="0" />
	<path style="fill:none;stroke:red;stroke-width:1px;stroke-linecap:butt;stroke-linejoin:miter;stroke-opacity:1" d="M 393.731,996 442.122,996 z" id="boundary" inkscape:connector-curvature="0" />
	<path style="fill:none;stroke:red;stroke-width:1px;stroke-linecap:butt;stroke-linejoin:miter;stroke-opacity:1" d="M 413.087,168.527 461.478,168.527 z" id="boundary" inkscape:connector-curvature="0" />
	<path style="fill:none;stroke:red;stroke-width:1px;stroke-linecap:butt;stroke-linejoin:miter;stroke-opacity:1" d="M 442.122,996 490.512,996 z" id="boundary" inkscape:connector-curvature="0" />
	<path style="fill:none;stroke:red;stroke-width:1px;stroke-linecap:butt;stroke-linejoin:miter;stroke-opacity:1" d="M 461.478,168.527 509.868,168.527 z" id="boundary" inkscape:connector-curvature="0" />
	<path style="fill:none;stroke:red;stroke-width:1px;stroke-linecap:butt;stroke-linejoin:miter;stroke-opacity:1" d="M 490.512,996 538.902,996 z" id="boundary" inkscape:connector-curvature="0" />
	<path style="fill:none;stroke:red;stroke-width:1px;stroke-linecap:butt;stroke-linejoin:miter;stroke-opacity:1" d="M 509.868,168.527 630.844,212.078 z" id="boundary" inkscape:connector-curvature="0" />
	<path style="fill:none;stroke:red;stroke-width:1px;stroke-linecap:butt;stroke-linejoin:miter;stroke-opacity:1" d="M 538.902,996 587.292,996 z" id="boundary" inkscape:connector-curvature="0" />
	<path style="fill:none;stroke:red;stroke-width:1px;stroke-linecap:butt;stroke-linejoin:miter;stroke-opacity:1" d="M 572.775,420.156 572.775,468.546 z" id="boundary" inkscape:connector-curvature="0" />
	<path style="fill:none;stroke:red;stroke-width:1px;stroke-linecap:butt;stroke-linejoin:miter;stroke-opacity:1" d="M 572.775,420.156 611.487,391.122 z" id="boundary" inkscape:connector-curvature="0" />
	<path style="fill:none;stroke:red;stroke-width:1px;stroke-linecap:butt;stroke-linejoin:miter;stroke-opacity:1" d="M 572.775,468.546 572.775,516.937 z" id="boundary" inkscape:connector-curvature="0" />
	<path style="fill:none;stroke:red;stroke-width:1px;stroke-linecap:butt;stroke-linejoin:miter;stroke-opacity:1" d="M 572.775,516.937 572.775,565.327 z" id="boundary" inkscape:connector-curvature="0" />
	<path style="fill:none;stroke:red;stroke-width:1px;stroke-linecap:butt;stroke-linejoin:miter;stroke-opacity:1" d="M 572.775,565.327 572.775,613.717 z" id="boundary" inkscape:connector-curvature="0" />
	<path style="fill:none;stroke:red;stroke-width:1px;stroke-linecap:butt;stroke-linejoin:miter;stroke-opacity:1" d="M 572.775,613.717 572.775,662.107 z" id="boundary" inkscape:connector-curvature="0" />
	<path style="fill:none;stroke:red;stroke-width:1px;stroke-linecap:butt;stroke-linejoin:miter;stroke-opacity:1" d="M 572.775,662.107 572.775,710.498 z" id="boundary" inkscape:connector-curvature="0" />
	<path style="fill:none;stroke:red;stroke-width:1px;stroke-linecap:butt;stroke-linejoin:miter;stroke-opacity:1" d="M 572.775,710.498 572.775,758.888 z" id="boundary" inkscape:connector-curvature="0" />
	<path style="fill:none;stroke:red;stroke-width:1px;stroke-linecap:butt;stroke-linejoin:miter;stroke-opacity:1" d="M 572.775,758.888 572.775,807.278 z" id="boundary" inkscape:connector-curvature="0" />
	<path style="fill:none;stroke:red;stroke-width:1px;stroke-linecap:butt;stroke-linejoin:miter;stroke-opacity:1" d="M 572.775,807.278 572.775,855.668 z" id="boundary" inkscape:connector-curvature="0" />
	<path style="fill:none;stroke:red;stroke-width:1px;stroke-linecap:butt;stroke-linejoin:miter;stroke-opacity:1" d="M 572.775,855.668 587.292,904.059 z" id="boundary" inkscape:connector-curvature="0" />
	<path style="fill:none;stroke:red;stroke-width:1px;stroke-linecap:butt;stroke-linejoin:miter;stroke-opacity:1" d="M 587.292,904.059 611.487,947.61 z" id="boundary" inkscape:connector-curvature="0" />
	<path style="fill:none;stroke:red;stroke-width:1px;stroke-linecap:butt;stroke-linejoin:miter;stroke-opacity:1" d="M 587.292,996 611.487,947.61 z" id="boundary" inkscape:connector-curvature="0" />
	<path style="fill:none;stroke:red;stroke-width:1px;stroke-linecap:butt;stroke-linejoin:miter;stroke-opacity:1" d="M 611.487,391.122 640.522,342.732 z" id="boundary" inkscape:connector-curvature="0" />
	<path style="fill:none;stroke:red;stroke-width:1px;stroke-linecap:butt;stroke-linejoin:miter;stroke-opacity:1" d="M 630.844,212.078 805.048,265.307 z" id="boundary" inkscape:connector-curvature="0" />
	<path style="fill:none;stroke:red;stroke-width:1px;stroke-linecap:butt;stroke-linejoin:miter;stroke-opacity:1" d="M 640.522,342.732 805.048,265.307 z" id="boundary" inkscape:connector-curvature="0" />
	<circle cx="12.9328" cy="299.283" r="4" fill="#0" id="circle0"/>
	<circle cx="4" cy="156.054" r="4" fill="#0" id="circle1"/>
	<circle cx="31.3968" cy="224.445" r="4" fill="#0" id="circle2"/>
	<circle cx="54.9996" cy="318.537" r="4" fill="#0" id="circle3"/>
	<circle cx="64.6777" cy="168.527" r="4" fill="#0" id="circle4"/>
	<circle cx="103.39" cy="318.537" r="4" fill="#0" id="circle5"/>
	<circle cx="113.068" cy="168.527" r="4" fill="#0" id="circle6"/>
	<circle cx="151.78" cy="318.537" r="4" fill="#0" id="circle7"/>
	<circle cx="161.458" cy="168.527" r="4" fill="#0" id="circle8"/>
	<circle cx="200.17" cy="318.537" r="4" fill="#0" id="circle9"/>
	<circle cx="209.848" cy="178.205" r="4" fill="#0" id="circle10"/>
	<circle cx="229.204" cy="357.249" r="4" fill="#0" id="circle11"/>
	<circle cx="253.4" cy="400.8" r="4" fill="#0" id="circle12"/>
	<circle cx="258.239" cy="178.205" r="4" fill="#0" id="circle13"/>
	<circle cx="277.595" cy="91.1024" r="4" fill="#0" id="circle14"/>
	<circle cx="292.112" cy="434.673" r="4" fill="#0" id="circle15"/>
	<circle cx="296.951" cy="33.0341" r="4" fill="#0" id="circle16"/>
	<circle cx="311.468" cy="129.815" r="4" fill="#0" id="circle17"/>
	<circle cx="316.307" cy="178.205" r="4" fill="#0" id="circle18"/>
	<circle cx="335.663" cy="4" r="4" fill="#0" id="circle19"/>
	<circle cx="340.502" cy="444.351" r="4" fill="#0" id="circle20"/>
	<circle cx="345.341" cy="942.771" r="4" fill="#0" id="circle21"/>
	<circle cx="345.341" cy="991.161" r="4" fill="#0" id="circle22"/>
	<circle cx="364.697" cy="178.205" r="4" fill="#0" id="circle23"/>
	<circle cx="369.536" cy="42.7122" r="4" fill="#0" id="circle24"/>
	<circle cx="374.375" cy="894.38" r="4" fill="#0" id="circle25"/>
	<circle cx="388.892" cy="454.029" r="4" fill="#0" id="circle26"/>
	<circle cx="393.731" cy="86.2634" r="4" fill="#0" id="circle27"/>
	<circle cx="393.731" cy="502.42" r="4" fill="#0" id="circle28"/>
	<circle cx="393.731" cy="550.81" r="4" fill="#0" id="circle29"/>
	<circle cx="393.731" cy="599.2" r="4" fill="#0" id="circle30"/>
	<circle cx="393.731" cy="647.59" r="4" fill="#0" id="circle31"/>
	<circle cx="393.731" cy="695.98" r="4" fill="#0" id="circle32"/>
	<circle cx="393.731" cy="744.371" r="4" fill="#0" id="circle33"/>
	<circle cx="393.731" cy="792.761" r="4" fill="#0" id="circle34"/>
	<circle cx="393.731" cy="841.151" r="4" fill="#0" id="circle35"/>
	<circle cx="393.731" cy="996" r="4" fill="#0" id="circle36"/>
	<circle cx="413.087" cy="168.527" r="4" fill="#0" id="circle37"/>
	<circle cx="442.122" cy="996" r="4" fill="#0" id="circle38"/>
	<circle cx="461.478" cy="168.527" r="4" fill="#0" id="circle39"/>
	<circle cx="490.512" cy="996" r="4" fill="#0" id="circle40"/>
	<circle cx="509.868" cy="168.527" r="4" fill="#0" id="circle41"/>
	<circle cx="538.902" cy="996" r="4" fill="#0" id="circle42"/>
	<circle cx="558.258" cy="168.527" r="4" fill="#0" id="circle43"/>
	<circle cx="572.775" cy="420.156" r="4" fill="#0" id="circle44"/>
	<circle cx="572.775" cy="468.546" r="4" fill="#0" id="circle45"/>
	<circle cx="572.775" cy="516.937" r="4" fill="#0" id="circle46"/>
	<circle cx="572.775" cy="565.327" r="4" fill="#0" id="circle47"/>
	<circle cx="572.775" cy="613.717" r="4" fill="#0" id="circle48"/>
	<circle cx="572.775" cy="662.107" r="4" fill="#0" id="circle49"/>
	<circle cx="572.775" cy="710.498" r="4" fill="#0" id="circle50"/>
	<circle cx="572.775" cy="758.888" r="4" fill="#0" id="circle51"/>
	<circle cx="572.775" cy="807.278" r="4" fill="#0" id="circle52"/>
	<circle cx="572.775" cy="855.668" r="4" fill="#0" id="circle53"/>
	<circle cx="587.292" cy="904.059" r="4" fill="#0" id="circle54"/>
	<circle cx="587.292" cy="996" r="4" fill="#0" id="circle55"/>
	<circle cx="606.648" cy="168.527" r="4" fill="#0" id="circle56"/>
	<circle cx="611.487" cy="391.122" r="4" fill="#0" id="circle57"/>
	<circle cx="611.487" cy="947.61" r="4" fill="#0" id="circle58"/>
	<circle cx="630.844" cy="212.078" r="4" fill="#0" id="circle59"/>
	<circle cx="640.522" cy="342.732" r="4" fill="#0" id="circle60"/>
	<circle cx="659.878" cy="250.79" r="4" fill="#0" id="circle61"/>
	<circle cx="684.073" cy="318.537" r="4" fill="#0" id="circle62"/>
	<circle cx="708.268" cy="265.307" r="4" fill="#0" id="circle63"/>
	<circle cx="732.463" cy="318.537" r="4" fill="#0" id="circle64"/>
	<circle cx="756.658" cy="265.307" r="4" fill="#0" id="circle65"/>
	<circle cx="780.853" cy="318.537" r="4" fill="#0" id="circle66"/>
	<circle cx="805.048" cy="265.307" r="4" fill="#0" id="circle67"/>
	<circle cx="829.244" cy="308.859" r="4" fill="#0" id="circle68"/>
	</g>
</svg>