<?xml version="1.0" encoding="UTF-8" standalone="no"?>
<!-- Created with CurveBenchmark -->
<svg
	xmlns:dc="http://purl.org/dc/elements/1.1/"
	xmlns:cc="http://creativecommons.org/ns#"
	xmlns:rdf="http://www.w3.org/1999/02/22-rdf-syntax-ns#"
	xmlns:svg="http://www.w3.org/2000/svg"
	xmlns="http://www.w3.org/2000/svg"
	xmlns:sodipodi="http://sodipodi.sourceforge.net/DTD/sodipodi-0.dtd"
	xmlns:inkscape="http://www.inkscape.org/namespaces/inkscape"
	width="1000"
	height="1000"
	id="svg2"
	version="1.1"
	sodipodi:docname="manifold/stretchdenoise-textbox29.png.txt">
<defs
	id="defs4" />
<metadata
	id="metadata7">
	<rdf:RDF>
		<cc:Work
			rdf:about="">
			<dc:format>image/svg+xml</dc:format>
			<dc:type
				rdf:resource="http://purl.org/dc/dcmitype/StillImage" />
			<dc:title></dc:title>
		</cc:Work>
	</rdf:RDF>
</metadata>
<g
	inkscape:label="Layer 1"
	inkscape:groupmode="layer"
	id="layer1">
	<path style="fill:none;stroke:red;stroke-width:1px;stroke-linecap:butt;stroke-linejoin:miter;stroke-opacity:1" d="M 8.14116,483.977 8.14116,502.58 z" id="boundary" inkscape:connector-curvature="0" />
	<path style="fill:none;stroke:red;stroke-width:1px;stroke-linecap:butt;stroke-linejoin:miter;stroke-opacity:1" d="M 8.14116,483.977 17.443,456.071 z" id="boundary" inkscape:connector-curvature="0" />
	<path style="fill:none;stroke:red;stroke-width:1px;stroke-linecap:butt;stroke-linejoin:miter;stroke-opacity:1" d="M 8.14116,502.58 23.0242,515.603 z" id="boundary" inkscape:connector-curvature="0" />
	<path style="fill:none;stroke:red;stroke-width:1px;stroke-linecap:butt;stroke-linejoin:miter;stroke-opacity:1" d="M 17.443,390.958 21.547,409.744 z" id="boundary" inkscape:connector-curvature="0" />
	<path style="fill:none;stroke:red;stroke-width:1px;stroke-linecap:butt;stroke-linejoin:miter;stroke-opacity:1" d="M 17.443,390.958 26.7449,363.052 z" id="boundary" inkscape:connector-curvature="0" />
	<path style="fill:none;stroke:red;stroke-width:1px;stroke-linecap:butt;stroke-linejoin:miter;stroke-opacity:1" d="M 21.547,409.744 4,437.467 z" id="boundary" inkscape:connector-curvature="0" />
	<path style="fill:none;stroke:red;stroke-width:1px;stroke-linecap:butt;stroke-linejoin:miter;stroke-opacity:1" d="M 4,437.467 17.443,456.071 z" id="boundary" inkscape:connector-curvature="0" />
	<path style="fill:none;stroke:red;stroke-width:1px;stroke-linecap:butt;stroke-linejoin:miter;stroke-opacity:1" d="M 23.0242,515.603 30.4657,534.207 z" id="boundary" inkscape:connector-curvature="0" />
	<path style="fill:none;stroke:red;stroke-width:1px;stroke-linecap:butt;stroke-linejoin:miter;stroke-opacity:1" d="M 26.7449,335.147 26.7449,363.052 z" id="boundary" inkscape:connector-curvature="0" />
	<path style="fill:none;stroke:red;stroke-width:1px;stroke-linecap:butt;stroke-linejoin:miter;stroke-opacity:1" d="M 26.7449,335.147 36.0468,316.543 z" id="boundary" inkscape:connector-curvature="0" />
	<path style="fill:none;stroke:red;stroke-width:1px;stroke-linecap:butt;stroke-linejoin:miter;stroke-opacity:1" d="M 30.4657,534.207 45.3487,545.369 z" id="boundary" inkscape:connector-curvature="0" />
	<path style="fill:none;stroke:red;stroke-width:1px;stroke-linecap:butt;stroke-linejoin:miter;stroke-opacity:1" d="M 36.0468,316.543 50.9298,301.66 z" id="boundary" inkscape:connector-curvature="0" />
	<path style="fill:none;stroke:red;stroke-width:1px;stroke-linecap:butt;stroke-linejoin:miter;stroke-opacity:1" d="M 45.3487,545.369 56.5109,560.252 z" id="boundary" inkscape:connector-curvature="0" />
	<path style="fill:none;stroke:red;stroke-width:1px;stroke-linecap:butt;stroke-linejoin:miter;stroke-opacity:1" d="M 50.9298,301.66 63.9524,279.335 z" id="boundary" inkscape:connector-curvature="0" />
	<path style="fill:none;stroke:red;stroke-width:1px;stroke-linecap:butt;stroke-linejoin:miter;stroke-opacity:1" d="M 56.5109,560.252 65.8128,576.995 z" id="boundary" inkscape:connector-curvature="0" />
	<path style="fill:none;stroke:red;stroke-width:1px;stroke-linecap:butt;stroke-linejoin:miter;stroke-opacity:1" d="M 63.9524,279.335 82.5561,260.732 z" id="boundary" inkscape:connector-curvature="0" />
	<path style="fill:none;stroke:red;stroke-width:1px;stroke-linecap:butt;stroke-linejoin:miter;stroke-opacity:1" d="M 65.8128,576.995 78.8354,591.878 z" id="boundary" inkscape:connector-curvature="0" />
	<path style="fill:none;stroke:red;stroke-width:1px;stroke-linecap:butt;stroke-linejoin:miter;stroke-opacity:1" d="M 78.8354,591.878 97.4391,599.32 z" id="boundary" inkscape:connector-curvature="0" />
	<path style="fill:none;stroke:red;stroke-width:1px;stroke-linecap:butt;stroke-linejoin:miter;stroke-opacity:1" d="M 82.5561,260.732 101.16,251.43 z" id="boundary" inkscape:connector-curvature="0" />
	<path style="fill:none;stroke:red;stroke-width:1px;stroke-linecap:butt;stroke-linejoin:miter;stroke-opacity:1" d="M 97.4391,599.32 110.462,614.203 z" id="boundary" inkscape:connector-curvature="0" />
	<path style="fill:none;stroke:red;stroke-width:1px;stroke-linecap:butt;stroke-linejoin:miter;stroke-opacity:1" d="M 101.16,232.826 101.16,251.43 z" id="boundary" inkscape:connector-curvature="0" />
	<path style="fill:none;stroke:red;stroke-width:1px;stroke-linecap:butt;stroke-linejoin:miter;stroke-opacity:1" d="M 101.16,232.826 119.764,227.245 z" id="boundary" inkscape:connector-curvature="0" />
	<path style="fill:none;stroke:red;stroke-width:1px;stroke-linecap:butt;stroke-linejoin:miter;stroke-opacity:1" d="M 110.462,614.203 129.066,619.784 z" id="boundary" inkscape:connector-curvature="0" />
	<path style="fill:none;stroke:red;stroke-width:1px;stroke-linecap:butt;stroke-linejoin:miter;stroke-opacity:1" d="M 119.764,227.245 136.822,218.511 z" id="boundary" inkscape:connector-curvature="0" />
	<path style="fill:none;stroke:red;stroke-width:1px;stroke-linecap:butt;stroke-linejoin:miter;stroke-opacity:1" d="M 129.066,619.784 145.809,629.086 z" id="boundary" inkscape:connector-curvature="0" />
	<path style="fill:none;stroke:red;stroke-width:1px;stroke-linecap:butt;stroke-linejoin:miter;stroke-opacity:1" d="M 136.822,218.511 153.66,209.378 z" id="boundary" inkscape:connector-curvature="0" />
	<path style="fill:none;stroke:red;stroke-width:1px;stroke-linecap:butt;stroke-linejoin:miter;stroke-opacity:1" d="M 145.809,629.086 164.413,629.086 z" id="boundary" inkscape:connector-curvature="0" />
	<path style="fill:none;stroke:red;stroke-width:1px;stroke-linecap:butt;stroke-linejoin:miter;stroke-opacity:1" d="M 153.66,209.378 169.994,199.339 z" id="boundary" inkscape:connector-curvature="0" />
	<path style="fill:none;stroke:red;stroke-width:1px;stroke-linecap:butt;stroke-linejoin:miter;stroke-opacity:1" d="M 164.413,629.086 181.156,638.388 z" id="boundary" inkscape:connector-curvature="0" />
	<path style="fill:none;stroke:red;stroke-width:1px;stroke-linecap:butt;stroke-linejoin:miter;stroke-opacity:1" d="M 169.994,199.339 175.575,177.015 z" id="boundary" inkscape:connector-curvature="0" />
	<path style="fill:none;stroke:red;stroke-width:1px;stroke-linecap:butt;stroke-linejoin:miter;stroke-opacity:1" d="M 175.575,177.015 194.179,171.434 z" id="boundary" inkscape:connector-curvature="0" />
	<path style="fill:none;stroke:red;stroke-width:1px;stroke-linecap:butt;stroke-linejoin:miter;stroke-opacity:1" d="M 181.156,638.388 199.76,645.829 z" id="boundary" inkscape:connector-curvature="0" />
	<path style="fill:none;stroke:red;stroke-width:1px;stroke-linecap:butt;stroke-linejoin:miter;stroke-opacity:1" d="M 194.179,171.434 205.341,156.551 z" id="boundary" inkscape:connector-curvature="0" />
	<path style="fill:none;stroke:red;stroke-width:1px;stroke-linecap:butt;stroke-linejoin:miter;stroke-opacity:1" d="M 199.76,645.829 216.503,655.131 z" id="boundary" inkscape:connector-curvature="0" />
	<path style="fill:none;stroke:red;stroke-width:1px;stroke-linecap:butt;stroke-linejoin:miter;stroke-opacity:1" d="M 205.341,156.551 223.945,147.249 z" id="boundary" inkscape:connector-curvature="0" />
	<path style="fill:none;stroke:red;stroke-width:1px;stroke-linecap:butt;stroke-linejoin:miter;stroke-opacity:1" d="M 216.503,655.131 235.107,647.69 z" id="boundary" inkscape:connector-curvature="0" />
	<path style="fill:none;stroke:red;stroke-width:1px;stroke-linecap:butt;stroke-linejoin:miter;stroke-opacity:1" d="M 223.945,147.249 242.548,143.528 z" id="boundary" inkscape:connector-curvature="0" />
	<path style="fill:none;stroke:red;stroke-width:1px;stroke-linecap:butt;stroke-linejoin:miter;stroke-opacity:1" d="M 235.107,647.69 251.85,656.991 z" id="boundary" inkscape:connector-curvature="0" />
	<path style="fill:none;stroke:red;stroke-width:1px;stroke-linecap:butt;stroke-linejoin:miter;stroke-opacity:1" d="M 242.548,143.528 259.292,134.226 z" id="boundary" inkscape:connector-curvature="0" />
	<path style="fill:none;stroke:red;stroke-width:1px;stroke-linecap:butt;stroke-linejoin:miter;stroke-opacity:1" d="M 251.85,656.991 268.594,647.69 z" id="boundary" inkscape:connector-curvature="0" />
	<path style="fill:none;stroke:red;stroke-width:1px;stroke-linecap:butt;stroke-linejoin:miter;stroke-opacity:1" d="M 259.292,134.226 268.594,111.902 z" id="boundary" inkscape:connector-curvature="0" />
	<path style="fill:none;stroke:red;stroke-width:1px;stroke-linecap:butt;stroke-linejoin:miter;stroke-opacity:1" d="M 268.594,111.902 287.197,106.321 z" id="boundary" inkscape:connector-curvature="0" />
	<path style="fill:none;stroke:red;stroke-width:1px;stroke-linecap:butt;stroke-linejoin:miter;stroke-opacity:1" d="M 268.594,647.69 279.756,662.573 z" id="boundary" inkscape:connector-curvature="0" />
	<path style="fill:none;stroke:red;stroke-width:1px;stroke-linecap:butt;stroke-linejoin:miter;stroke-opacity:1" d="M 279.756,662.573 298.36,656.991 z" id="boundary" inkscape:connector-curvature="0" />
	<path style="fill:none;stroke:red;stroke-width:1px;stroke-linecap:butt;stroke-linejoin:miter;stroke-opacity:1" d="M 287.197,106.321 303.941,97.0187 z" id="boundary" inkscape:connector-curvature="0" />
	<path style="fill:none;stroke:red;stroke-width:1px;stroke-linecap:butt;stroke-linejoin:miter;stroke-opacity:1" d="M 298.36,656.991 315.103,666.293 z" id="boundary" inkscape:connector-curvature="0" />
	<path style="fill:none;stroke:red;stroke-width:1px;stroke-linecap:butt;stroke-linejoin:miter;stroke-opacity:1" d="M 303.941,97.0187 322.544,97.0187 z" id="boundary" inkscape:connector-curvature="0" />
	<path style="fill:none;stroke:red;stroke-width:1px;stroke-linecap:butt;stroke-linejoin:miter;stroke-opacity:1" d="M 305.801,800.24 315.103,816.984 z" id="boundary" inkscape:connector-curvature="0" />
	<path style="fill:none;stroke:red;stroke-width:1px;stroke-linecap:butt;stroke-linejoin:miter;stroke-opacity:1" d="M 305.801,800.24 320.684,785.357 z" id="boundary" inkscape:connector-curvature="0" />
	<path style="fill:none;stroke:red;stroke-width:1px;stroke-linecap:butt;stroke-linejoin:miter;stroke-opacity:1" d="M 305.801,874.655 315.103,854.191 z" id="boundary" inkscape:connector-curvature="0" />
	<path style="fill:none;stroke:red;stroke-width:1px;stroke-linecap:butt;stroke-linejoin:miter;stroke-opacity:1" d="M 305.801,874.655 315.103,891.399 z" id="boundary" inkscape:connector-curvature="0" />
	<path style="fill:none;stroke:red;stroke-width:1px;stroke-linecap:butt;stroke-linejoin:miter;stroke-opacity:1" d="M 315.103,666.293 315.103,684.897 z" id="boundary" inkscape:connector-curvature="0" />
	<path style="fill:none;stroke:red;stroke-width:1px;stroke-linecap:butt;stroke-linejoin:miter;stroke-opacity:1" d="M 315.103,684.897 320.684,703.501 z" id="boundary" inkscape:connector-curvature="0" />
	<path style="fill:none;stroke:red;stroke-width:1px;stroke-linecap:butt;stroke-linejoin:miter;stroke-opacity:1" d="M 315.103,725.825 315.103,744.429 z" id="boundary" inkscape:connector-curvature="0" />
	<path style="fill:none;stroke:red;stroke-width:1px;stroke-linecap:butt;stroke-linejoin:miter;stroke-opacity:1" d="M 315.103,725.825 320.684,703.501 z" id="boundary" inkscape:connector-curvature="0" />
	<path style="fill:none;stroke:red;stroke-width:1px;stroke-linecap:butt;stroke-linejoin:miter;stroke-opacity:1" d="M 315.103,744.429 315.103,763.033 z" id="boundary" inkscape:connector-curvature="0" />
	<path style="fill:none;stroke:red;stroke-width:1px;stroke-linecap:butt;stroke-linejoin:miter;stroke-opacity:1" d="M 315.103,763.033 320.684,785.357 z" id="boundary" inkscape:connector-curvature="0" />
	<path style="fill:none;stroke:red;stroke-width:1px;stroke-linecap:butt;stroke-linejoin:miter;stroke-opacity:1" d="M 315.103,816.984 315.103,835.587 z" id="boundary" inkscape:connector-curvature="0" />
	<path style="fill:none;stroke:red;stroke-width:1px;stroke-linecap:butt;stroke-linejoin:miter;stroke-opacity:1" d="M 315.103,835.587 315.103,854.191 z" id="boundary" inkscape:connector-curvature="0" />
	<path style="fill:none;stroke:red;stroke-width:1px;stroke-linecap:butt;stroke-linejoin:miter;stroke-opacity:1" d="M 315.103,891.399 309.853,910.002 z" id="boundary" inkscape:connector-curvature="0" />
	<path style="fill:none;stroke:red;stroke-width:1px;stroke-linecap:butt;stroke-linejoin:miter;stroke-opacity:1" d="M 309.853,910.002 318.315,918.762 z" id="boundary" inkscape:connector-curvature="0" />
	<path style="fill:none;stroke:red;stroke-width:1px;stroke-linecap:butt;stroke-linejoin:miter;stroke-opacity:1" d="M 318.315,918.762 333.484,913.047 z" id="boundary" inkscape:connector-curvature="0" />
	<path style="fill:none;stroke:red;stroke-width:1px;stroke-linecap:butt;stroke-linejoin:miter;stroke-opacity:1" d="M 322.544,97.0187 339.288,87.7169 z" id="boundary" inkscape:connector-curvature="0" />
	<path style="fill:none;stroke:red;stroke-width:1px;stroke-linecap:butt;stroke-linejoin:miter;stroke-opacity:1" d="M 333.484,913.047 354.171,898.84 z" id="boundary" inkscape:connector-curvature="0" />
	<path style="fill:none;stroke:red;stroke-width:1px;stroke-linecap:butt;stroke-linejoin:miter;stroke-opacity:1" d="M 339.288,87.7169 354.171,72.8339 z" id="boundary" inkscape:connector-curvature="0" />
	<path style="fill:none;stroke:red;stroke-width:1px;stroke-linecap:butt;stroke-linejoin:miter;stroke-opacity:1" d="M 354.171,72.8339 372.775,63.532 z" id="boundary" inkscape:connector-curvature="0" />
	<path style="fill:none;stroke:red;stroke-width:1px;stroke-linecap:butt;stroke-linejoin:miter;stroke-opacity:1" d="M 354.171,898.84 363.473,880.236 z" id="boundary" inkscape:connector-curvature="0" />
	<path style="fill:none;stroke:red;stroke-width:1px;stroke-linecap:butt;stroke-linejoin:miter;stroke-opacity:1" d="M 363.473,861.633 363.473,880.236 z" id="boundary" inkscape:connector-curvature="0" />
	<path style="fill:none;stroke:red;stroke-width:1px;stroke-linecap:butt;stroke-linejoin:miter;stroke-opacity:1" d="M 363.473,861.633 382.076,843.029 z" id="boundary" inkscape:connector-curvature="0" />
	<path style="fill:none;stroke:red;stroke-width:1px;stroke-linecap:butt;stroke-linejoin:miter;stroke-opacity:1" d="M 372.775,63.532 391.378,59.8112 z" id="boundary" inkscape:connector-curvature="0" />
	<path style="fill:none;stroke:red;stroke-width:1px;stroke-linecap:butt;stroke-linejoin:miter;stroke-opacity:1" d="M 382.076,824.425 382.076,843.029 z" id="boundary" inkscape:connector-curvature="0" />
	<path style="fill:none;stroke:red;stroke-width:1px;stroke-linecap:butt;stroke-linejoin:miter;stroke-opacity:1" d="M 382.076,824.425 400.68,805.821 z" id="boundary" inkscape:connector-curvature="0" />
	<path style="fill:none;stroke:red;stroke-width:1px;stroke-linecap:butt;stroke-linejoin:miter;stroke-opacity:1" d="M 391.378,59.8112 408.122,50.5094 z" id="boundary" inkscape:connector-curvature="0" />
	<path style="fill:none;stroke:red;stroke-width:1px;stroke-linecap:butt;stroke-linejoin:miter;stroke-opacity:1" d="M 400.68,805.821 409.992,787.222 z" id="boundary" inkscape:connector-curvature="0" />
	<path style="fill:none;stroke:red;stroke-width:1px;stroke-linecap:butt;stroke-linejoin:miter;stroke-opacity:1" d="M 408.122,50.5094 426.725,46.7886 z" id="boundary" inkscape:connector-curvature="0" />
	<path style="fill:none;stroke:red;stroke-width:1px;stroke-linecap:butt;stroke-linejoin:miter;stroke-opacity:1" d="M 409.992,787.222 419.265,768.604 z" id="boundary" inkscape:connector-curvature="0" />
	<path style="fill:none;stroke:red;stroke-width:1px;stroke-linecap:butt;stroke-linejoin:miter;stroke-opacity:1" d="M 419.265,768.604 428.586,750.01 z" id="boundary" inkscape:connector-curvature="0" />
	<path style="fill:none;stroke:red;stroke-width:1px;stroke-linecap:butt;stroke-linejoin:miter;stroke-opacity:1" d="M 426.725,46.7886 445.329,50.5094 z" id="boundary" inkscape:connector-curvature="0" />
	<path style="fill:none;stroke:red;stroke-width:1px;stroke-linecap:butt;stroke-linejoin:miter;stroke-opacity:1" d="M 428.586,750.01 443.469,736.988 z" id="boundary" inkscape:connector-curvature="0" />
	<path style="fill:none;stroke:red;stroke-width:1px;stroke-linecap:butt;stroke-linejoin:miter;stroke-opacity:1" d="M 443.469,736.988 456.491,712.803 z" id="boundary" inkscape:connector-curvature="0" />
	<path style="fill:none;stroke:red;stroke-width:1px;stroke-linecap:butt;stroke-linejoin:miter;stroke-opacity:1" d="M 445.329,50.5094 462.073,41.2075 z" id="boundary" inkscape:connector-curvature="0" />
	<path style="fill:none;stroke:red;stroke-width:1px;stroke-linecap:butt;stroke-linejoin:miter;stroke-opacity:1" d="M 456.491,712.803 465.793,694.199 z" id="boundary" inkscape:connector-curvature="0" />
	<path style="fill:none;stroke:red;stroke-width:1px;stroke-linecap:butt;stroke-linejoin:miter;stroke-opacity:1" d="M 462.073,41.2075 478.816,31.9056 z" id="boundary" inkscape:connector-curvature="0" />
	<path style="fill:none;stroke:red;stroke-width:1px;stroke-linecap:butt;stroke-linejoin:miter;stroke-opacity:1" d="M 465.793,694.199 480.676,681.176 z" id="boundary" inkscape:connector-curvature="0" />
	<path style="fill:none;stroke:red;stroke-width:1px;stroke-linecap:butt;stroke-linejoin:miter;stroke-opacity:1" d="M 478.816,31.9056 497.42,31.9056 z" id="boundary" inkscape:connector-curvature="0" />
	<path style="fill:none;stroke:red;stroke-width:1px;stroke-linecap:butt;stroke-linejoin:miter;stroke-opacity:1" d="M 480.676,681.176 493.699,656.991 z" id="boundary" inkscape:connector-curvature="0" />
	<path style="fill:none;stroke:red;stroke-width:1px;stroke-linecap:butt;stroke-linejoin:miter;stroke-opacity:1" d="M 493.699,656.991 503.001,638.388 z" id="boundary" inkscape:connector-curvature="0" />
	<path style="fill:none;stroke:red;stroke-width:1px;stroke-linecap:butt;stroke-linejoin:miter;stroke-opacity:1" d="M 497.42,31.9056 514.163,22.6037 z" id="boundary" inkscape:connector-curvature="0" />
	<path style="fill:none;stroke:red;stroke-width:1px;stroke-linecap:butt;stroke-linejoin:miter;stroke-opacity:1" d="M 503.001,638.388 521.605,638.388 z" id="boundary" inkscape:connector-curvature="0" />
	<path style="fill:none;stroke:red;stroke-width:1px;stroke-linecap:butt;stroke-linejoin:miter;stroke-opacity:1" d="M 514.163,22.6037 532.767,15.1622 z" id="boundary" inkscape:connector-curvature="0" />
	<path style="fill:none;stroke:red;stroke-width:1px;stroke-linecap:butt;stroke-linejoin:miter;stroke-opacity:1" d="M 521.605,638.388 540.208,638.388 z" id="boundary" inkscape:connector-curvature="0" />
	<path style="fill:none;stroke:red;stroke-width:1px;stroke-linecap:butt;stroke-linejoin:miter;stroke-opacity:1" d="M 532.767,15.1622 551.371,22.6037 z" id="boundary" inkscape:connector-curvature="0" />
	<path style="fill:none;stroke:red;stroke-width:1px;stroke-linecap:butt;stroke-linejoin:miter;stroke-opacity:1" d="M 540.208,638.388 558.812,629.086 z" id="boundary" inkscape:connector-curvature="0" />
	<path style="fill:none;stroke:red;stroke-width:1px;stroke-linecap:butt;stroke-linejoin:miter;stroke-opacity:1" d="M 551.371,22.6037 569.974,22.6037 z" id="boundary" inkscape:connector-curvature="0" />
	<path style="fill:none;stroke:red;stroke-width:1px;stroke-linecap:butt;stroke-linejoin:miter;stroke-opacity:1" d="M 558.812,629.086 577.416,629.086 z" id="boundary" inkscape:connector-curvature="0" />
	<path style="fill:none;stroke:red;stroke-width:1px;stroke-linecap:butt;stroke-linejoin:miter;stroke-opacity:1" d="M 569.974,22.6037 588.578,15.1623 z" id="boundary" inkscape:connector-curvature="0" />
	<path style="fill:none;stroke:red;stroke-width:1px;stroke-linecap:butt;stroke-linejoin:miter;stroke-opacity:1" d="M 577.416,629.086 594.159,619.784 z" id="boundary" inkscape:connector-curvature="0" />
	<path style="fill:none;stroke:red;stroke-width:1px;stroke-linecap:butt;stroke-linejoin:miter;stroke-opacity:1" d="M 588.578,15.1623 607.182,13.3019 z" id="boundary" inkscape:connector-curvature="0" />
	<path style="fill:none;stroke:red;stroke-width:1px;stroke-linecap:butt;stroke-linejoin:miter;stroke-opacity:1" d="M 594.159,619.784 610.902,610.482 z" id="boundary" inkscape:connector-curvature="0" />
	<path style="fill:none;stroke:red;stroke-width:1px;stroke-linecap:butt;stroke-linejoin:miter;stroke-opacity:1" d="M 607.182,13.3019 625.785,13.3019 z" id="boundary" inkscape:connector-curvature="0" />
	<path style="fill:none;stroke:red;stroke-width:1px;stroke-linecap:butt;stroke-linejoin:miter;stroke-opacity:1" d="M 610.902,610.482 629.506,606.761 z" id="boundary" inkscape:connector-curvature="0" />
	<path style="fill:none;stroke:red;stroke-width:1px;stroke-linecap:butt;stroke-linejoin:miter;stroke-opacity:1" d="M 625.785,13.3019 642.529,4.00003 z" id="boundary" inkscape:connector-curvature="0" />
	<path style="fill:none;stroke:red;stroke-width:1px;stroke-linecap:butt;stroke-linejoin:miter;stroke-opacity:1" d="M 629.506,606.761 642.529,591.878 z" id="boundary" inkscape:connector-curvature="0" />
	<path style="fill:none;stroke:red;stroke-width:1px;stroke-linecap:butt;stroke-linejoin:miter;stroke-opacity:1" d="M 642.529,4.00003 657.412,15.1622 z" id="boundary" inkscape:connector-curvature="0" />
	<path style="fill:none;stroke:red;stroke-width:1px;stroke-linecap:butt;stroke-linejoin:miter;stroke-opacity:1" d="M 642.529,591.878 661.133,582.576 z" id="boundary" inkscape:connector-curvature="0" />
	<path style="fill:none;stroke:red;stroke-width:1px;stroke-linecap:butt;stroke-linejoin:miter;stroke-opacity:1" d="M 657.412,15.1622 676.016,13.3019 z" id="boundary" inkscape:connector-curvature="0" />
	<path style="fill:none;stroke:red;stroke-width:1px;stroke-linecap:butt;stroke-linejoin:miter;stroke-opacity:1" d="M 661.133,582.576 679.736,582.576 z" id="boundary" inkscape:connector-curvature="0" />
	<path style="fill:none;stroke:red;stroke-width:1px;stroke-linecap:butt;stroke-linejoin:miter;stroke-opacity:1" d="M 676.016,13.3019 692.759,4 z" id="boundary" inkscape:connector-curvature="0" />
	<path style="fill:none;stroke:red;stroke-width:1px;stroke-linecap:butt;stroke-linejoin:miter;stroke-opacity:1" d="M 679.736,582.576 696.48,573.275 z" id="boundary" inkscape:connector-curvature="0" />
	<path style="fill:none;stroke:red;stroke-width:1px;stroke-linecap:butt;stroke-linejoin:miter;stroke-opacity:1" d="M 692.759,4 709.502,13.3019 z" id="boundary" inkscape:connector-curvature="0" />
	<path style="fill:none;stroke:red;stroke-width:1px;stroke-linecap:butt;stroke-linejoin:miter;stroke-opacity:1" d="M 696.48,573.275 713.223,563.973 z" id="boundary" inkscape:connector-curvature="0" />
	<path style="fill:none;stroke:red;stroke-width:1px;stroke-linecap:butt;stroke-linejoin:miter;stroke-opacity:1" d="M 709.502,13.3019 726.246,4.00004 z" id="boundary" inkscape:connector-curvature="0" />
	<path style="fill:none;stroke:red;stroke-width:1px;stroke-linecap:butt;stroke-linejoin:miter;stroke-opacity:1" d="M 713.223,563.973 731.827,560.252 z" id="boundary" inkscape:connector-curvature="0" />
	<path style="fill:none;stroke:red;stroke-width:1px;stroke-linecap:butt;stroke-linejoin:miter;stroke-opacity:1" d="M 726.246,4.00004 744.849,9.58112 z" id="boundary" inkscape:connector-curvature="0" />
	<path style="fill:none;stroke:red;stroke-width:1px;stroke-linecap:butt;stroke-linejoin:miter;stroke-opacity:1" d="M 731.827,560.252 744.849,536.067 z" id="boundary" inkscape:connector-curvature="0" />
	<path style="fill:none;stroke:red;stroke-width:1px;stroke-linecap:butt;stroke-linejoin:miter;stroke-opacity:1" d="M 744.849,9.58112 763.453,13.3019 z" id="boundary" inkscape:connector-curvature="0" />
	<path style="fill:none;stroke:red;stroke-width:1px;stroke-linecap:butt;stroke-linejoin:miter;stroke-opacity:1" d="M 744.849,536.067 761.593,526.765 z" id="boundary" inkscape:connector-curvature="0" />
	<path style="fill:none;stroke:red;stroke-width:1px;stroke-linecap:butt;stroke-linejoin:miter;stroke-opacity:1" d="M 761.593,526.765 780.197,521.184 z" id="boundary" inkscape:connector-curvature="0" />
	<path style="fill:none;stroke:red;stroke-width:1px;stroke-linecap:butt;stroke-linejoin:miter;stroke-opacity:1" d="M 763.453,13.3019 782.057,13.3019 z" id="boundary" inkscape:connector-curvature="0" />
	<path style="fill:none;stroke:red;stroke-width:1px;stroke-linecap:butt;stroke-linejoin:miter;stroke-opacity:1" d="M 780.197,521.184 798.8,511.882 z" id="boundary" inkscape:connector-curvature="0" />
	<path style="fill:none;stroke:red;stroke-width:1px;stroke-linecap:butt;stroke-linejoin:miter;stroke-opacity:1" d="M 782.057,13.3019 800.661,13.3019 z" id="boundary" inkscape:connector-curvature="0" />
	<path style="fill:none;stroke:red;stroke-width:1px;stroke-linecap:butt;stroke-linejoin:miter;stroke-opacity:1" d="M 798.8,511.882 813.683,496.999 z" id="boundary" inkscape:connector-curvature="0" />
	<path style="fill:none;stroke:red;stroke-width:1px;stroke-linecap:butt;stroke-linejoin:miter;stroke-opacity:1" d="M 800.661,13.3019 817.404,22.6037 z" id="boundary" inkscape:connector-curvature="0" />
	<path style="fill:none;stroke:red;stroke-width:1px;stroke-linecap:butt;stroke-linejoin:miter;stroke-opacity:1" d="M 813.683,496.999 828.566,480.256 z" id="boundary" inkscape:connector-curvature="0" />
	<path style="fill:none;stroke:red;stroke-width:1px;stroke-linecap:butt;stroke-linejoin:miter;stroke-opacity:1" d="M 817.404,22.6037 836.008,22.6038 z" id="boundary" inkscape:connector-curvature="0" />
	<path style="fill:none;stroke:red;stroke-width:1px;stroke-linecap:butt;stroke-linejoin:miter;stroke-opacity:1" d="M 828.566,480.256 845.31,470.954 z" id="boundary" inkscape:connector-curvature="0" />
	<path style="fill:none;stroke:red;stroke-width:1px;stroke-linecap:butt;stroke-linejoin:miter;stroke-opacity:1" d="M 836.008,22.6038 852.751,31.9056 z" id="boundary" inkscape:connector-curvature="0" />
	<path style="fill:none;stroke:red;stroke-width:1px;stroke-linecap:butt;stroke-linejoin:miter;stroke-opacity:1" d="M 845.31,470.954 860.193,459.792 z" id="boundary" inkscape:connector-curvature="0" />
	<path style="fill:none;stroke:red;stroke-width:1px;stroke-linecap:butt;stroke-linejoin:miter;stroke-opacity:1" d="M 852.751,31.9056 871.355,33.766 z" id="boundary" inkscape:connector-curvature="0" />
	<path style="fill:none;stroke:red;stroke-width:1px;stroke-linecap:butt;stroke-linejoin:miter;stroke-opacity:1" d="M 860.193,459.792 875.076,443.048 z" id="boundary" inkscape:connector-curvature="0" />
	<path style="fill:none;stroke:red;stroke-width:1px;stroke-linecap:butt;stroke-linejoin:miter;stroke-opacity:1" d="M 871.355,33.766 880.657,50.5094 z" id="boundary" inkscape:connector-curvature="0" />
	<path style="fill:none;stroke:red;stroke-width:1px;stroke-linecap:butt;stroke-linejoin:miter;stroke-opacity:1" d="M 875.076,443.048 893.679,424.445 z" id="boundary" inkscape:connector-curvature="0" />
	<path style="fill:none;stroke:red;stroke-width:1px;stroke-linecap:butt;stroke-linejoin:miter;stroke-opacity:1" d="M 880.657,50.5094 897.4,59.8112 z" id="boundary" inkscape:connector-curvature="0" />
	<path style="fill:none;stroke:red;stroke-width:1px;stroke-linecap:butt;stroke-linejoin:miter;stroke-opacity:1" d="M 893.679,424.445 908.562,411.422 z" id="boundary" inkscape:connector-curvature="0" />
	<path style="fill:none;stroke:red;stroke-width:1px;stroke-linecap:butt;stroke-linejoin:miter;stroke-opacity:1" d="M 897.4,59.8112 912.283,70.9735 z" id="boundary" inkscape:connector-curvature="0" />
	<path style="fill:none;stroke:red;stroke-width:1px;stroke-linecap:butt;stroke-linejoin:miter;stroke-opacity:1" d="M 908.562,411.422 921.585,396.539 z" id="boundary" inkscape:connector-curvature="0" />
	<path style="fill:none;stroke:red;stroke-width:1px;stroke-linecap:butt;stroke-linejoin:miter;stroke-opacity:1" d="M 912.283,70.9735 927.166,82.1357 z" id="boundary" inkscape:connector-curvature="0" />
	<path style="fill:none;stroke:red;stroke-width:1px;stroke-linecap:butt;stroke-linejoin:miter;stroke-opacity:1" d="M 921.585,396.539 940.189,377.935 z" id="boundary" inkscape:connector-curvature="0" />
	<path style="fill:none;stroke:red;stroke-width:1px;stroke-linecap:butt;stroke-linejoin:miter;stroke-opacity:1" d="M 927.166,82.1357 936.468,98.8791 z" id="boundary" inkscape:connector-curvature="0" />
	<path style="fill:none;stroke:red;stroke-width:1px;stroke-linecap:butt;stroke-linejoin:miter;stroke-opacity:1" d="M 936.468,98.8791 953.211,108.181 z" id="boundary" inkscape:connector-curvature="0" />
	<path style="fill:none;stroke:red;stroke-width:1px;stroke-linecap:butt;stroke-linejoin:miter;stroke-opacity:1" d="M 940.189,377.935 949.491,359.332 z" id="boundary" inkscape:connector-curvature="0" />
	<path style="fill:none;stroke:red;stroke-width:1px;stroke-linecap:butt;stroke-linejoin:miter;stroke-opacity:1" d="M 949.491,359.332 958.793,331.426 z" id="boundary" inkscape:connector-curvature="0" />
	<path style="fill:none;stroke:red;stroke-width:1px;stroke-linecap:butt;stroke-linejoin:miter;stroke-opacity:1" d="M 953.211,108.181 962.513,124.924 z" id="boundary" inkscape:connector-curvature="0" />
	<path style="fill:none;stroke:red;stroke-width:1px;stroke-linecap:butt;stroke-linejoin:miter;stroke-opacity:1" d="M 958.793,331.426 973.676,318.403 z" id="boundary" inkscape:connector-curvature="0" />
	<path style="fill:none;stroke:red;stroke-width:1px;stroke-linecap:butt;stroke-linejoin:miter;stroke-opacity:1" d="M 962.513,124.924 975.536,139.807 z" id="boundary" inkscape:connector-curvature="0" />
	<path style="fill:none;stroke:red;stroke-width:1px;stroke-linecap:butt;stroke-linejoin:miter;stroke-opacity:1" d="M 973.676,318.403 977.396,294.218 z" id="boundary" inkscape:connector-curvature="0" />
	<path style="fill:none;stroke:red;stroke-width:1px;stroke-linecap:butt;stroke-linejoin:miter;stroke-opacity:1" d="M 975.536,139.807 986.698,154.69 z" id="boundary" inkscape:connector-curvature="0" />
	<path style="fill:none;stroke:red;stroke-width:1px;stroke-linecap:butt;stroke-linejoin:miter;stroke-opacity:1" d="M 977.396,294.218 986.698,266.313 z" id="boundary" inkscape:connector-curvature="0" />
	<path style="fill:none;stroke:red;stroke-width:1px;stroke-linecap:butt;stroke-linejoin:miter;stroke-opacity:1" d="M 986.698,154.69 990.419,173.294 z" id="boundary" inkscape:connector-curvature="0" />
	<path style="fill:none;stroke:red;stroke-width:1px;stroke-linecap:butt;stroke-linejoin:miter;stroke-opacity:1" d="M 986.698,191.898 990.419,173.294 z" id="boundary" inkscape:connector-curvature="0" />
	<path style="fill:none;stroke:red;stroke-width:1px;stroke-linecap:butt;stroke-linejoin:miter;stroke-opacity:1" d="M 986.698,191.898 996,208.641 z" id="boundary" inkscape:connector-curvature="0" />
	<path style="fill:none;stroke:red;stroke-width:1px;stroke-linecap:butt;stroke-linejoin:miter;stroke-opacity:1" d="M 986.698,229.105 986.698,247.709 z" id="boundary" inkscape:connector-curvature="0" />
	<path style="fill:none;stroke:red;stroke-width:1px;stroke-linecap:butt;stroke-linejoin:miter;stroke-opacity:1" d="M 986.698,229.105 996,208.641 z" id="boundary" inkscape:connector-curvature="0" />
	<path style="fill:none;stroke:red;stroke-width:1px;stroke-linecap:butt;stroke-linejoin:miter;stroke-opacity:1" d="M 986.698,247.709 986.698,266.313 z" id="boundary" inkscape:connector-curvature="0" />
	<circle cx="8.14116" cy="483.977" r="4" fill="#0" id="circle0"/>
	<circle cx="8.14116" cy="502.58" r="4" fill="#0" id="circle1"/>
	<circle cx="17.443" cy="390.958" r="4" fill="#0" id="circle2"/>
	<circle cx="21.547" cy="409.744" r="4" fill="#0" id="circle3"/>
	<circle cx="4" cy="437.467" r="4" fill="#0" id="circle4"/>
	<circle cx="17.443" cy="456.071" r="4" fill="#0" id="circle5"/>
	<circle cx="23.0242" cy="515.603" r="4" fill="#0" id="circle6"/>
	<circle cx="26.7449" cy="335.147" r="4" fill="#0" id="circle7"/>
	<circle cx="26.7449" cy="363.052" r="4" fill="#0" id="circle8"/>
	<circle cx="30.4657" cy="534.207" r="4" fill="#0" id="circle9"/>
	<circle cx="36.0468" cy="316.543" r="4" fill="#0" id="circle10"/>
	<circle cx="45.3487" cy="545.369" r="4" fill="#0" id="circle11"/>
	<circle cx="50.9298" cy="301.66" r="4" fill="#0" id="circle12"/>
	<circle cx="56.5109" cy="560.252" r="4" fill="#0" id="circle13"/>
	<circle cx="63.9524" cy="279.335" r="4" fill="#0" id="circle14"/>
	<circle cx="65.8128" cy="576.995" r="4" fill="#0" id="circle15"/>
	<circle cx="78.8354" cy="591.878" r="4" fill="#0" id="circle16"/>
	<circle cx="82.5561" cy="260.732" r="4" fill="#0" id="circle17"/>
	<circle cx="97.4391" cy="599.32" r="4" fill="#0" id="circle18"/>
	<circle cx="101.16" cy="232.826" r="4" fill="#0" id="circle19"/>
	<circle cx="101.16" cy="251.43" r="4" fill="#0" id="circle20"/>
	<circle cx="110.462" cy="614.203" r="4" fill="#0" id="circle21"/>
	<circle cx="119.764" cy="227.245" r="4" fill="#0" id="circle22"/>
	<circle cx="129.066" cy="619.784" r="4" fill="#0" id="circle23"/>
	<circle cx="136.822" cy="218.511" r="4" fill="#0" id="circle24"/>
	<circle cx="145.809" cy="629.086" r="4" fill="#0" id="circle25"/>
	<circle cx="153.66" cy="209.378" r="4" fill="#0" id="circle26"/>
	<circle cx="164.413" cy="629.086" r="4" fill="#0" id="circle27"/>
	<circle cx="169.994" cy="199.339" r="4" fill="#0" id="circle28"/>
	<circle cx="175.575" cy="177.015" r="4" fill="#0" id="circle29"/>
	<circle cx="181.156" cy="638.388" r="4" fill="#0" id="circle30"/>
	<circle cx="194.179" cy="171.434" r="4" fill="#0" id="circle31"/>
	<circle cx="199.76" cy="645.829" r="4" fill="#0" id="circle32"/>
	<circle cx="205.341" cy="156.551" r="4" fill="#0" id="circle33"/>
	<circle cx="216.503" cy="655.131" r="4" fill="#0" id="circle34"/>
	<circle cx="223.945" cy="147.249" r="4" fill="#0" id="circle35"/>
	<circle cx="235.107" cy="647.69" r="4" fill="#0" id="circle36"/>
	<circle cx="242.548" cy="143.528" r="4" fill="#0" id="circle37"/>
	<circle cx="251.85" cy="656.991" r="4" fill="#0" id="circle38"/>
	<circle cx="259.292" cy="134.226" r="4" fill="#0" id="circle39"/>
	<circle cx="268.594" cy="111.902" r="4" fill="#0" id="circle40"/>
	<circle cx="268.594" cy="647.69" r="4" fill="#0" id="circle41"/>
	<circle cx="279.756" cy="662.573" r="4" fill="#0" id="circle42"/>
	<circle cx="287.197" cy="106.321" r="4" fill="#0" id="circle43"/>
	<circle cx="298.36" cy="656.991" r="4" fill="#0" id="circle44"/>
	<circle cx="303.941" cy="97.0187" r="4" fill="#0" id="circle45"/>
	<circle cx="305.801" cy="800.24" r="4" fill="#0" id="circle46"/>
	<circle cx="305.801" cy="874.655" r="4" fill="#0" id="circle47"/>
	<circle cx="315.103" cy="666.293" r="4" fill="#0" id="circle48"/>
	<circle cx="315.103" cy="684.897" r="4" fill="#0" id="circle49"/>
	<circle cx="315.103" cy="725.825" r="4" fill="#0" id="circle50"/>
	<circle cx="315.103" cy="744.429" r="4" fill="#0" id="circle51"/>
	<circle cx="315.103" cy="763.033" r="4" fill="#0" id="circle52"/>
	<circle cx="315.103" cy="816.984" r="4" fill="#0" id="circle53"/>
	<circle cx="315.103" cy="835.587" r="4" fill="#0" id="circle54"/>
	<circle cx="315.103" cy="854.191" r="4" fill="#0" id="circle55"/>
	<circle cx="315.103" cy="891.399" r="4" fill="#0" id="circle56"/>
	<circle cx="309.853" cy="910.002" r="4" fill="#0" id="circle57"/>
	<circle cx="318.315" cy="918.762" r="4" fill="#0" id="circle58"/>
	<circle cx="320.684" cy="703.501" r="4" fill="#0" id="circle59"/>
	<circle cx="320.684" cy="785.357" r="4" fill="#0" id="circle60"/>
	<circle cx="322.544" cy="97.0187" r="4" fill="#0" id="circle61"/>
	<circle cx="333.484" cy="913.047" r="4" fill="#0" id="circle62"/>
	<circle cx="335.567" cy="898.84" r="4" fill="#0" id="circle63"/>
	<circle cx="339.288" cy="87.7169" r="4" fill="#0" id="circle64"/>
	<circle cx="354.171" cy="72.8339" r="4" fill="#0" id="circle65"/>
	<circle cx="354.171" cy="898.84" r="4" fill="#0" id="circle66"/>
	<circle cx="363.473" cy="861.633" r="4" fill="#0" id="circle67"/>
	<circle cx="363.473" cy="880.236" r="4" fill="#0" id="circle68"/>
	<circle cx="372.775" cy="63.532" r="4" fill="#0" id="circle69"/>
	<circle cx="382.076" cy="824.425" r="4" fill="#0" id="circle70"/>
	<circle cx="382.076" cy="843.029" r="4" fill="#0" id="circle71"/>
	<circle cx="391.378" cy="59.8112" r="4" fill="#0" id="circle72"/>
	<circle cx="400.68" cy="805.821" r="4" fill="#0" id="circle73"/>
	<circle cx="408.122" cy="50.5094" r="4" fill="#0" id="circle74"/>
	<circle cx="409.992" cy="787.222" r="4" fill="#0" id="circle75"/>
	<circle cx="419.265" cy="768.604" r="4" fill="#0" id="circle76"/>
	<circle cx="426.725" cy="46.7886" r="4" fill="#0" id="circle77"/>
	<circle cx="428.586" cy="750.01" r="4" fill="#0" id="circle78"/>
	<circle cx="443.469" cy="736.988" r="4" fill="#0" id="circle79"/>
	<circle cx="445.329" cy="50.5094" r="4" fill="#0" id="circle80"/>
	<circle cx="456.491" cy="712.803" r="4" fill="#0" id="circle81"/>
	<circle cx="462.073" cy="41.2075" r="4" fill="#0" id="circle82"/>
	<circle cx="465.793" cy="694.199" r="4" fill="#0" id="circle83"/>
	<circle cx="478.816" cy="31.9056" r="4" fill="#0" id="circle84"/>
	<circle cx="480.676" cy="681.176" r="4" fill="#0" id="circle85"/>
	<circle cx="493.699" cy="656.991" r="4" fill="#0" id="circle86"/>
	<circle cx="497.42" cy="31.9056" r="4" fill="#0" id="circle87"/>
	<circle cx="503.001" cy="638.388" r="4" fill="#0" id="circle88"/>
	<circle cx="514.163" cy="22.6037" r="4" fill="#0" id="circle89"/>
	<circle cx="521.605" cy="638.388" r="4" fill="#0" id="circle90"/>
	<circle cx="532.767" cy="15.1622" r="4" fill="#0" id="circle91"/>
	<circle cx="540.208" cy="638.388" r="4" fill="#0" id="circle92"/>
	<circle cx="551.371" cy="22.6037" r="4" fill="#0" id="circle93"/>
	<circle cx="558.812" cy="629.086" r="4" fill="#0" id="circle94"/>
	<circle cx="569.974" cy="22.6037" r="4" fill="#0" id="circle95"/>
	<circle cx="577.416" cy="629.086" r="4" fill="#0" id="circle96"/>
	<circle cx="588.578" cy="15.1623" r="4" fill="#0" id="circle97"/>
	<circle cx="594.159" cy="619.784" r="4" fill="#0" id="circle98"/>
	<circle cx="607.182" cy="13.3019" r="4" fill="#0" id="circle99"/>
	<circle cx="610.902" cy="610.482" r="4" fill="#0" id="circle100"/>
	<circle cx="625.785" cy="13.3019" r="4" fill="#0" id="circle101"/>
	<circle cx="629.506" cy="606.761" r="4" fill="#0" id="circle102"/>
	<circle cx="642.529" cy="4.00003" r="4" fill="#0" id="circle103"/>
	<circle cx="642.529" cy="591.878" r="4" fill="#0" id="circle104"/>
	<circle cx="657.412" cy="15.1622" r="4" fill="#0" id="circle105"/>
	<circle cx="661.133" cy="582.576" r="4" fill="#0" id="circle106"/>
	<circle cx="676.016" cy="13.3019" r="4" fill="#0" id="circle107"/>
	<circle cx="679.736" cy="582.576" r="4" fill="#0" id="circle108"/>
	<circle cx="692.759" cy="4" r="4" fill="#0" id="circle109"/>
	<circle cx="696.48" cy="573.275" r="4" fill="#0" id="circle110"/>
	<circle cx="709.502" cy="13.3019" r="4" fill="#0" id="circle111"/>
	<circle cx="713.223" cy="563.973" r="4" fill="#0" id="circle112"/>
	<circle cx="726.246" cy="4.00004" r="4" fill="#0" id="circle113"/>
	<circle cx="731.827" cy="560.252" r="4" fill="#0" id="circle114"/>
	<circle cx="744.849" cy="9.58112" r="4" fill="#0" id="circle115"/>
	<circle cx="744.849" cy="536.067" r="4" fill="#0" id="circle116"/>
	<circle cx="761.593" cy="526.765" r="4" fill="#0" id="circle117"/>
	<circle cx="763.453" cy="13.3019" r="4" fill="#0" id="circle118"/>
	<circle cx="780.197" cy="521.184" r="4" fill="#0" id="circle119"/>
	<circle cx="782.057" cy="13.3019" r="4" fill="#0" id="circle120"/>
	<circle cx="798.8" cy="511.882" r="4" fill="#0" id="circle121"/>
	<circle cx="800.661" cy="13.3019" r="4" fill="#0" id="circle122"/>
	<circle cx="813.683" cy="496.999" r="4" fill="#0" id="circle123"/>
	<circle cx="817.404" cy="22.6037" r="4" fill="#0" id="circle124"/>
	<circle cx="828.566" cy="480.256" r="4" fill="#0" id="circle125"/>
	<circle cx="836.008" cy="22.6038" r="4" fill="#0" id="circle126"/>
	<circle cx="845.31" cy="470.954" r="4" fill="#0" id="circle127"/>
	<circle cx="852.751" cy="31.9056" r="4" fill="#0" id="circle128"/>
	<circle cx="860.193" cy="459.792" r="4" fill="#0" id="circle129"/>
	<circle cx="871.355" cy="33.766" r="4" fill="#0" id="circle130"/>
	<circle cx="875.076" cy="443.048" r="4" fill="#0" id="circle131"/>
	<circle cx="880.657" cy="50.5094" r="4" fill="#0" id="circle132"/>
	<circle cx="893.679" cy="424.445" r="4" fill="#0" id="circle133"/>
	<circle cx="897.4" cy="59.8112" r="4" fill="#0" id="circle134"/>
	<circle cx="908.562" cy="411.422" r="4" fill="#0" id="circle135"/>
	<circle cx="912.283" cy="70.9735" r="4" fill="#0" id="circle136"/>
	<circle cx="921.585" cy="396.539" r="4" fill="#0" id="circle137"/>
	<circle cx="927.166" cy="82.1357" r="4" fill="#0" id="circle138"/>
	<circle cx="936.468" cy="98.8791" r="4" fill="#0" id="circle139"/>
	<circle cx="940.189" cy="377.935" r="4" fill="#0" id="circle140"/>
	<circle cx="949.491" cy="359.332" r="4" fill="#0" id="circle141"/>
	<circle cx="953.211" cy="108.181" r="4" fill="#0" id="circle142"/>
	<circle cx="958.793" cy="331.426" r="4" fill="#0" id="circle143"/>
	<circle cx="962.513" cy="124.924" r="4" fill="#0" id="circle144"/>
	<circle cx="973.676" cy="318.403" r="4" fill="#0" id="circle145"/>
	<circle cx="975.536" cy="139.807" r="4" fill="#0" id="circle146"/>
	<circle cx="977.396" cy="294.218" r="4" fill="#0" id="circle147"/>
	<circle cx="986.698" cy="154.69" r="4" fill="#0" id="circle148"/>
	<circle cx="986.698" cy="191.898" r="4" fill="#0" id="circle149"/>
	<circle cx="986.698" cy="229.105" r="4" fill="#0" id="circle150"/>
	<circle cx="986.698" cy="247.709" r="4" fill="#0" id="circle151"/>
	<circle cx="986.698" cy="266.313" r="4" fill="#0" id="circle152"/>
	<circle cx="990.419" cy="173.294" r="4" fill="#0" id="circle153"/>
	<circle cx="996" cy="208.641" r="4" fill="#0" id="circle154"/>
	</g>
</svg>