<?xml version="1.0" encoding="UTF-8" standalone="no"?>
<!-- Created with CurveBenchmark -->
<svg
	xmlns:dc="http://purl.org/dc/elements/1.1/"
	xmlns:cc="http://creativecommons.org/ns#"
	xmlns:rdf="http://www.w3.org/1999/02/22-rdf-syntax-ns#"
	xmlns:svg="http://www.w3.org/2000/svg"
	xmlns="http://www.w3.org/2000/svg"
	xmlns:sodipodi="http://sodipodi.sourceforge.net/DTD/sodipodi-0.dtd"
	xmlns:inkscape="http://www.inkscape.org/namespaces/inkscape"
	width="1000"
	height="1000"
	id="svg2"
	version="1.1"
	sodipodi:docname="manifold/stretchdenoise-fish240.png.txt">
<defs
	id="defs4" />
<metadata
	id="metadata7">
	<rdf:RDF>
		<cc:Work
			rdf:about="">
			<dc:format>image/svg+xml</dc:format>
			<dc:type
				rdf:resource="http://purl.org/dc/dcmitype/StillImage" />
			<dc:title></dc:title>
		</cc:Work>
	</rdf:RDF>
</metadata>
<g
	inkscape:label="Layer 1"
	inkscape:groupmode="layer"
	id="layer1">
	<path style="fill:none;stroke:red;stroke-width:1px;stroke-linecap:butt;stroke-linejoin:miter;stroke-opacity:1" d="M 4,238.667 4,292 z" id="boundary" inkscape:connector-curvature="0" />
	<path style="fill:none;stroke:red;stroke-width:1px;stroke-linecap:butt;stroke-linejoin:miter;stroke-opacity:1" d="M 4,238.667 57.3333,238.667 z" id="boundary" inkscape:connector-curvature="0" />
	<path style="fill:none;stroke:red;stroke-width:1px;stroke-linecap:butt;stroke-linejoin:miter;stroke-opacity:1" d="M 4,292 14.6667,345.333 z" id="boundary" inkscape:connector-curvature="0" />
	<path style="fill:none;stroke:red;stroke-width:1px;stroke-linecap:butt;stroke-linejoin:miter;stroke-opacity:1" d="M 4,569.333 4,622.667 z" id="boundary" inkscape:connector-curvature="0" />
	<path style="fill:none;stroke:red;stroke-width:1px;stroke-linecap:butt;stroke-linejoin:miter;stroke-opacity:1" d="M 4,569.333 14.6667,494.667 z" id="boundary" inkscape:connector-curvature="0" />
	<path style="fill:none;stroke:red;stroke-width:1px;stroke-linecap:butt;stroke-linejoin:miter;stroke-opacity:1" d="M 4,622.667 57.3333,638.667 z" id="boundary" inkscape:connector-curvature="0" />
	<path style="fill:none;stroke:red;stroke-width:1px;stroke-linecap:butt;stroke-linejoin:miter;stroke-opacity:1" d="M 14.6667,345.333 14.6667,409.333 z" id="boundary" inkscape:connector-curvature="0" />
	<path style="fill:none;stroke:red;stroke-width:1px;stroke-linecap:butt;stroke-linejoin:miter;stroke-opacity:1" d="M 14.6667,409.333 14.6667,494.667 z" id="boundary" inkscape:connector-curvature="0" />
	<path style="fill:none;stroke:red;stroke-width:1px;stroke-linecap:butt;stroke-linejoin:miter;stroke-opacity:1" d="M 57.3333,238.667 105.333,265.333 z" id="boundary" inkscape:connector-curvature="0" />
	<path style="fill:none;stroke:red;stroke-width:1px;stroke-linecap:butt;stroke-linejoin:miter;stroke-opacity:1" d="M 57.3333,638.667 102.627,608.017 z" id="boundary" inkscape:connector-curvature="0" />
	<path style="fill:none;stroke:red;stroke-width:1px;stroke-linecap:butt;stroke-linejoin:miter;stroke-opacity:1" d="M 105.333,265.333 148,302.667 z" id="boundary" inkscape:connector-curvature="0" />
	<path style="fill:none;stroke:red;stroke-width:1px;stroke-linecap:butt;stroke-linejoin:miter;stroke-opacity:1" d="M 102.627,608.017 143.065,563.479 z" id="boundary" inkscape:connector-curvature="0" />
	<path style="fill:none;stroke:red;stroke-width:1px;stroke-linecap:butt;stroke-linejoin:miter;stroke-opacity:1" d="M 148,302.667 185.333,345.333 z" id="boundary" inkscape:connector-curvature="0" />
	<path style="fill:none;stroke:red;stroke-width:1px;stroke-linecap:butt;stroke-linejoin:miter;stroke-opacity:1" d="M 143.065,563.479 183.945,546.586 z" id="boundary" inkscape:connector-curvature="0" />
	<path style="fill:none;stroke:red;stroke-width:1px;stroke-linecap:butt;stroke-linejoin:miter;stroke-opacity:1" d="M 185.333,345.333 217.333,281.333 z" id="boundary" inkscape:connector-curvature="0" />
	<path style="fill:none;stroke:red;stroke-width:1px;stroke-linecap:butt;stroke-linejoin:miter;stroke-opacity:1" d="M 183.945,546.586 206.667,580 z" id="boundary" inkscape:connector-curvature="0" />
	<path style="fill:none;stroke:red;stroke-width:1px;stroke-linecap:butt;stroke-linejoin:miter;stroke-opacity:1" d="M 206.667,580 217.333,633.333 z" id="boundary" inkscape:connector-curvature="0" />
	<path style="fill:none;stroke:red;stroke-width:1px;stroke-linecap:butt;stroke-linejoin:miter;stroke-opacity:1" d="M 217.333,281.333 244,233.333 z" id="boundary" inkscape:connector-curvature="0" />
	<path style="fill:none;stroke:red;stroke-width:1px;stroke-linecap:butt;stroke-linejoin:miter;stroke-opacity:1" d="M 217.333,633.333 238.667,686.667 z" id="boundary" inkscape:connector-curvature="0" />
	<path style="fill:none;stroke:red;stroke-width:1px;stroke-linecap:butt;stroke-linejoin:miter;stroke-opacity:1" d="M 238.667,686.667 292,692 z" id="boundary" inkscape:connector-curvature="0" />
	<path style="fill:none;stroke:red;stroke-width:1px;stroke-linecap:butt;stroke-linejoin:miter;stroke-opacity:1" d="M 244,233.333 270.667,185.333 z" id="boundary" inkscape:connector-curvature="0" />
	<path style="fill:none;stroke:red;stroke-width:1px;stroke-linecap:butt;stroke-linejoin:miter;stroke-opacity:1" d="M 270.667,185.333 313.333,142.667 z" id="boundary" inkscape:connector-curvature="0" />
	<path style="fill:none;stroke:red;stroke-width:1px;stroke-linecap:butt;stroke-linejoin:miter;stroke-opacity:1" d="M 292,692 345.333,670.667 z" id="boundary" inkscape:connector-curvature="0" />
	<path style="fill:none;stroke:red;stroke-width:1px;stroke-linecap:butt;stroke-linejoin:miter;stroke-opacity:1" d="M 313.333,142.667 366.667,158.667 z" id="boundary" inkscape:connector-curvature="0" />
	<path style="fill:none;stroke:red;stroke-width:1px;stroke-linecap:butt;stroke-linejoin:miter;stroke-opacity:1" d="M 345.333,670.667 398.667,660 z" id="boundary" inkscape:connector-curvature="0" />
	<path style="fill:none;stroke:red;stroke-width:1px;stroke-linecap:butt;stroke-linejoin:miter;stroke-opacity:1" d="M 366.667,158.667 414.667,185.333 z" id="boundary" inkscape:connector-curvature="0" />
	<path style="fill:none;stroke:red;stroke-width:1px;stroke-linecap:butt;stroke-linejoin:miter;stroke-opacity:1" d="M 398.667,660 452,660 z" id="boundary" inkscape:connector-curvature="0" />
	<path style="fill:none;stroke:red;stroke-width:1px;stroke-linecap:butt;stroke-linejoin:miter;stroke-opacity:1" d="M 414.667,185.333 441.333,132 z" id="boundary" inkscape:connector-curvature="0" />
	<path style="fill:none;stroke:red;stroke-width:1px;stroke-linecap:butt;stroke-linejoin:miter;stroke-opacity:1" d="M 420,836 430.667,782.667 z" id="boundary" inkscape:connector-curvature="0" />
	<path style="fill:none;stroke:red;stroke-width:1px;stroke-linecap:butt;stroke-linejoin:miter;stroke-opacity:1" d="M 420,836 462.667,868 z" id="boundary" inkscape:connector-curvature="0" />
	<path style="fill:none;stroke:red;stroke-width:1px;stroke-linecap:butt;stroke-linejoin:miter;stroke-opacity:1" d="M 430.667,782.667 452,729.333 z" id="boundary" inkscape:connector-curvature="0" />
	<path style="fill:none;stroke:red;stroke-width:1px;stroke-linecap:butt;stroke-linejoin:miter;stroke-opacity:1" d="M 441.333,132 484,89.3333 z" id="boundary" inkscape:connector-curvature="0" />
	<path style="fill:none;stroke:red;stroke-width:1px;stroke-linecap:butt;stroke-linejoin:miter;stroke-opacity:1" d="M 452,660 452,729.333 z" id="boundary" inkscape:connector-curvature="0" />
	<path style="fill:none;stroke:red;stroke-width:1px;stroke-linecap:butt;stroke-linejoin:miter;stroke-opacity:1" d="M 462.667,868 510.667,836 z" id="boundary" inkscape:connector-curvature="0" />
	<path style="fill:none;stroke:red;stroke-width:1px;stroke-linecap:butt;stroke-linejoin:miter;stroke-opacity:1" d="M 484,89.3333 526.667,57.3332 z" id="boundary" inkscape:connector-curvature="0" />
	<path style="fill:none;stroke:red;stroke-width:1px;stroke-linecap:butt;stroke-linejoin:miter;stroke-opacity:1" d="M 510.667,836 553.333,793.333 z" id="boundary" inkscape:connector-curvature="0" />
	<path style="fill:none;stroke:red;stroke-width:1px;stroke-linecap:butt;stroke-linejoin:miter;stroke-opacity:1" d="M 526.667,57.3332 574.667,30.6666 z" id="boundary" inkscape:connector-curvature="0" />
	<path style="fill:none;stroke:red;stroke-width:1px;stroke-linecap:butt;stroke-linejoin:miter;stroke-opacity:1" d="M 553.333,793.333 585.333,750.667 z" id="boundary" inkscape:connector-curvature="0" />
	<path style="fill:none;stroke:red;stroke-width:1px;stroke-linecap:butt;stroke-linejoin:miter;stroke-opacity:1" d="M 574.667,30.6666 622.667,4 z" id="boundary" inkscape:connector-curvature="0" />
	<path style="fill:none;stroke:red;stroke-width:1px;stroke-linecap:butt;stroke-linejoin:miter;stroke-opacity:1" d="M 585.333,750.667 633.333,777.333 z" id="boundary" inkscape:connector-curvature="0" />
	<path style="fill:none;stroke:red;stroke-width:1px;stroke-linecap:butt;stroke-linejoin:miter;stroke-opacity:1" d="M 622.667,4 654.667,46.6666 z" id="boundary" inkscape:connector-curvature="0" />
	<path style="fill:none;stroke:red;stroke-width:1px;stroke-linecap:butt;stroke-linejoin:miter;stroke-opacity:1" d="M 633.333,777.333 665.333,820 z" id="boundary" inkscape:connector-curvature="0" />
	<path style="fill:none;stroke:red;stroke-width:1px;stroke-linecap:butt;stroke-linejoin:miter;stroke-opacity:1" d="M 654.667,46.6666 681.333,94.6666 z" id="boundary" inkscape:connector-curvature="0" />
	<path style="fill:none;stroke:red;stroke-width:1px;stroke-linecap:butt;stroke-linejoin:miter;stroke-opacity:1" d="M 665.333,820 697.333,862.667 z" id="boundary" inkscape:connector-curvature="0" />
	<path style="fill:none;stroke:red;stroke-width:1px;stroke-linecap:butt;stroke-linejoin:miter;stroke-opacity:1" d="M 681.333,94.6666 692,148 z" id="boundary" inkscape:connector-curvature="0" />
	<path style="fill:none;stroke:red;stroke-width:1px;stroke-linecap:butt;stroke-linejoin:miter;stroke-opacity:1" d="M 692,148 718.667,196 z" id="boundary" inkscape:connector-curvature="0" />
	<path style="fill:none;stroke:red;stroke-width:1px;stroke-linecap:butt;stroke-linejoin:miter;stroke-opacity:1" d="M 697.333,862.667 750.667,852 z" id="boundary" inkscape:connector-curvature="0" />
	<path style="fill:none;stroke:red;stroke-width:1px;stroke-linecap:butt;stroke-linejoin:miter;stroke-opacity:1" d="M 718.667,196 772,212 z" id="boundary" inkscape:connector-curvature="0" />
	<path style="fill:none;stroke:red;stroke-width:1px;stroke-linecap:butt;stroke-linejoin:miter;stroke-opacity:1" d="M 750.667,852 766.667,782.667 z" id="boundary" inkscape:connector-curvature="0" />
	<path style="fill:none;stroke:red;stroke-width:1px;stroke-linecap:butt;stroke-linejoin:miter;stroke-opacity:1" d="M 756,676 761.333,729.333 z" id="boundary" inkscape:connector-curvature="0" />
	<path style="fill:none;stroke:red;stroke-width:1px;stroke-linecap:butt;stroke-linejoin:miter;stroke-opacity:1" d="M 756,676 809.333,654.667 z" id="boundary" inkscape:connector-curvature="0" />
	<path style="fill:none;stroke:red;stroke-width:1px;stroke-linecap:butt;stroke-linejoin:miter;stroke-opacity:1" d="M 761.333,729.333 766.667,782.667 z" id="boundary" inkscape:connector-curvature="0" />
	<path style="fill:none;stroke:red;stroke-width:1px;stroke-linecap:butt;stroke-linejoin:miter;stroke-opacity:1" d="M 772,212 820,238.667 z" id="boundary" inkscape:connector-curvature="0" />
	<path style="fill:none;stroke:red;stroke-width:1px;stroke-linecap:butt;stroke-linejoin:miter;stroke-opacity:1" d="M 809.333,654.667 857.333,628 z" id="boundary" inkscape:connector-curvature="0" />
	<path style="fill:none;stroke:red;stroke-width:1px;stroke-linecap:butt;stroke-linejoin:miter;stroke-opacity:1" d="M 820,238.667 873.333,260 z" id="boundary" inkscape:connector-curvature="0" />
	<path style="fill:none;stroke:red;stroke-width:1px;stroke-linecap:butt;stroke-linejoin:miter;stroke-opacity:1" d="M 857.333,628 905.333,601.333 z" id="boundary" inkscape:connector-curvature="0" />
	<path style="fill:none;stroke:red;stroke-width:1px;stroke-linecap:butt;stroke-linejoin:miter;stroke-opacity:1" d="M 873.333,260 926.667,281.333 z" id="boundary" inkscape:connector-curvature="0" />
	<path style="fill:none;stroke:red;stroke-width:1px;stroke-linecap:butt;stroke-linejoin:miter;stroke-opacity:1" d="M 905.333,601.333 948,558.667 z" id="boundary" inkscape:connector-curvature="0" />
	<path style="fill:none;stroke:red;stroke-width:1px;stroke-linecap:butt;stroke-linejoin:miter;stroke-opacity:1" d="M 926.667,281.333 958.667,324 z" id="boundary" inkscape:connector-curvature="0" />
	<path style="fill:none;stroke:red;stroke-width:1px;stroke-linecap:butt;stroke-linejoin:miter;stroke-opacity:1" d="M 948,558.667 974.667,510.667 z" id="boundary" inkscape:connector-curvature="0" />
	<path style="fill:none;stroke:red;stroke-width:1px;stroke-linecap:butt;stroke-linejoin:miter;stroke-opacity:1" d="M 958.667,324 985.333,372 z" id="boundary" inkscape:connector-curvature="0" />
	<path style="fill:none;stroke:red;stroke-width:1px;stroke-linecap:butt;stroke-linejoin:miter;stroke-opacity:1" d="M 974.667,510.667 996,457.333 z" id="boundary" inkscape:connector-curvature="0" />
	<path style="fill:none;stroke:red;stroke-width:1px;stroke-linecap:butt;stroke-linejoin:miter;stroke-opacity:1" d="M 985.333,372 996,457.333 z" id="boundary" inkscape:connector-curvature="0" />
	<circle cx="4" cy="238.667" r="4" fill="#0" id="circle0"/>
	<circle cx="4" cy="292" r="4" fill="#0" id="circle1"/>
	<circle cx="4" cy="569.333" r="4" fill="#0" id="circle2"/>
	<circle cx="4" cy="622.667" r="4" fill="#0" id="circle3"/>
	<circle cx="14.6667" cy="345.333" r="4" fill="#0" id="circle4"/>
	<circle cx="14.6667" cy="409.333" r="4" fill="#0" id="circle5"/>
	<circle cx="14.6667" cy="494.667" r="4" fill="#0" id="circle6"/>
	<circle cx="57.3333" cy="238.667" r="4" fill="#0" id="circle7"/>
	<circle cx="57.3333" cy="638.667" r="4" fill="#0" id="circle8"/>
	<circle cx="105.333" cy="265.333" r="4" fill="#0" id="circle9"/>
	<circle cx="102.627" cy="608.017" r="4" fill="#0" id="circle10"/>
	<circle cx="148" cy="302.667" r="4" fill="#0" id="circle11"/>
	<circle cx="143.065" cy="563.479" r="4" fill="#0" id="circle12"/>
	<circle cx="185.333" cy="345.333" r="4" fill="#0" id="circle13"/>
	<circle cx="183.945" cy="546.586" r="4" fill="#0" id="circle14"/>
	<circle cx="206.667" cy="580" r="4" fill="#0" id="circle15"/>
	<circle cx="217.333" cy="281.333" r="4" fill="#0" id="circle16"/>
	<circle cx="217.333" cy="633.333" r="4" fill="#0" id="circle17"/>
	<circle cx="238.667" cy="686.667" r="4" fill="#0" id="circle18"/>
	<circle cx="244" cy="233.333" r="4" fill="#0" id="circle19"/>
	<circle cx="270.667" cy="185.333" r="4" fill="#0" id="circle20"/>
	<circle cx="292" cy="692" r="4" fill="#0" id="circle21"/>
	<circle cx="313.333" cy="142.667" r="4" fill="#0" id="circle22"/>
	<circle cx="345.333" cy="670.667" r="4" fill="#0" id="circle23"/>
	<circle cx="366.667" cy="158.667" r="4" fill="#0" id="circle24"/>
	<circle cx="398.667" cy="660" r="4" fill="#0" id="circle25"/>
	<circle cx="414.667" cy="185.333" r="4" fill="#0" id="circle26"/>
	<circle cx="420" cy="836" r="4" fill="#0" id="circle27"/>
	<circle cx="430.667" cy="782.667" r="4" fill="#0" id="circle28"/>
	<circle cx="441.333" cy="132" r="4" fill="#0" id="circle29"/>
	<circle cx="452" cy="660" r="4" fill="#0" id="circle30"/>
	<circle cx="452" cy="729.333" r="4" fill="#0" id="circle31"/>
	<circle cx="462.667" cy="868" r="4" fill="#0" id="circle32"/>
	<circle cx="484" cy="89.3333" r="4" fill="#0" id="circle33"/>
	<circle cx="510.667" cy="836" r="4" fill="#0" id="circle34"/>
	<circle cx="526.667" cy="57.3332" r="4" fill="#0" id="circle35"/>
	<circle cx="553.333" cy="793.333" r="4" fill="#0" id="circle36"/>
	<circle cx="574.667" cy="30.6666" r="4" fill="#0" id="circle37"/>
	<circle cx="585.333" cy="750.667" r="4" fill="#0" id="circle38"/>
	<circle cx="622.667" cy="4" r="4" fill="#0" id="circle39"/>
	<circle cx="633.333" cy="777.333" r="4" fill="#0" id="circle40"/>
	<circle cx="654.667" cy="46.6666" r="4" fill="#0" id="circle41"/>
	<circle cx="665.333" cy="820" r="4" fill="#0" id="circle42"/>
	<circle cx="681.333" cy="94.6666" r="4" fill="#0" id="circle43"/>
	<circle cx="692" cy="148" r="4" fill="#0" id="circle44"/>
	<circle cx="697.333" cy="862.667" r="4" fill="#0" id="circle45"/>
	<circle cx="718.667" cy="196" r="4" fill="#0" id="circle46"/>
	<circle cx="750.667" cy="852" r="4" fill="#0" id="circle47"/>
	<circle cx="756" cy="676" r="4" fill="#0" id="circle48"/>
	<circle cx="761.333" cy="729.333" r="4" fill="#0" id="circle49"/>
	<circle cx="766.667" cy="782.667" r="4" fill="#0" id="circle50"/>
	<circle cx="772" cy="212" r="4" fill="#0" id="circle51"/>
	<circle cx="809.333" cy="654.667" r="4" fill="#0" id="circle52"/>
	<circle cx="820" cy="238.667" r="4" fill="#0" id="circle53"/>
	<circle cx="857.333" cy="628" r="4" fill="#0" id="circle54"/>
	<circle cx="873.333" cy="260" r="4" fill="#0" id="circle55"/>
	<circle cx="905.333" cy="601.333" r="4" fill="#0" id="circle56"/>
	<circle cx="926.667" cy="281.333" r="4" fill="#0" id="circle57"/>
	<circle cx="948" cy="558.667" r="4" fill="#0" id="circle58"/>
	<circle cx="958.667" cy="324" r="4" fill="#0" id="circle59"/>
	<circle cx="974.667" cy="510.667" r="4" fill="#0" id="circle60"/>
	<circle cx="985.333" cy="372" r="4" fill="#0" id="circle61"/>
	<circle cx="996" cy="457.333" r="4" fill="#0" id="circle62"/>
	</g>
</svg>