<?xml version="1.0" encoding="UTF-8" standalone="no"?>
<!-- Created with CurveBenchmark -->
<svg
	xmlns:dc="http://purl.org/dc/elements/1.1/"
	xmlns:cc="http://creativecommons.org/ns#"
	xmlns:rdf="http://www.w3.org/1999/02/22-rdf-syntax-ns#"
	xmlns:svg="http://www.w3.org/2000/svg"
	xmlns="http://www.w3.org/2000/svg"
	xmlns:sodipodi="http://sodipodi.sourceforge.net/DTD/sodipodi-0.dtd"
	xmlns:inkscape="http://www.inkscape.org/namespaces/inkscape"
	width="1000"
	height="1000"
	id="svg2"
	version="1.1"
	sodipodi:docname="manifold/stretchdenoise-guitar335.png.txt">
<defs
	id="defs4" />
<metadata
	id="metadata7">
	<rdf:RDF>
		<cc:Work
			rdf:about="">
			<dc:format>image/svg+xml</dc:format>
			<dc:type
				rdf:resource="http://purl.org/dc/dcmitype/StillImage" />
			<dc:title></dc:title>
		</cc:Work>
	</rdf:RDF>
</metadata>
<g
	inkscape:label="Layer 1"
	inkscape:groupmode="layer"
	id="layer1">
	<path style="fill:none;stroke:red;stroke-width:1px;stroke-linecap:butt;stroke-linejoin:miter;stroke-opacity:1" d="M 137.743,805.244 4,735.832 z" id="boundary" inkscape:connector-curvature="0" />
	<path style="fill:none;stroke:red;stroke-width:1px;stroke-linecap:butt;stroke-linejoin:miter;stroke-opacity:1" d="M 137.743,805.244 242.681,951.718 z" id="boundary" inkscape:connector-curvature="0" />
	<path style="fill:none;stroke:red;stroke-width:1px;stroke-linecap:butt;stroke-linejoin:miter;stroke-opacity:1" d="M 242.681,951.718 305.439,988.94 z" id="boundary" inkscape:connector-curvature="0" />
	<path style="fill:none;stroke:red;stroke-width:1px;stroke-linecap:butt;stroke-linejoin:miter;stroke-opacity:1" d="M 305.439,988.94 376.044,996 z" id="boundary" inkscape:connector-curvature="0" />
	<path style="fill:none;stroke:red;stroke-width:1px;stroke-linecap:butt;stroke-linejoin:miter;stroke-opacity:1" d="M 376.044,996 446.649,981.879 z" id="boundary" inkscape:connector-curvature="0" />
	<path style="fill:none;stroke:red;stroke-width:1px;stroke-linecap:butt;stroke-linejoin:miter;stroke-opacity:1" d="M 446.649,981.879 510.193,950.107 z" id="boundary" inkscape:connector-curvature="0" />
	<circle cx="137.743" cy="805.244" r="4" fill="#0" id="circle0"/>
	<circle cx="174.819" cy="837.139" r="4" fill="#0" id="circle1"/>
	<circle cx="174.819" cy="872.441" r="4" fill="#0" id="circle2"/>
	<circle cx="188.94" cy="766.534" r="4" fill="#0" id="circle3"/>
	<circle cx="188.94" cy="907.744" r="4" fill="#0" id="circle4"/>
	<circle cx="4" cy="735.832" r="4" fill="#0" id="circle5"/>
	<circle cx="210.122" cy="935.986" r="4" fill="#0" id="circle6"/>
	<circle cx="217.182" cy="561.779" r="4" fill="#0" id="circle7"/>
	<circle cx="217.182" cy="597.082" r="4" fill="#0" id="circle8"/>
	<circle cx="227.773" cy="706.52" r="4" fill="#0" id="circle9"/>
	<circle cx="231.303" cy="632.384" r="4" fill="#0" id="circle10"/>
	<circle cx="234.834" cy="530.007" r="4" fill="#0" id="circle11"/>
	<circle cx="238.364" cy="667.687" r="4" fill="#0" id="circle12"/>
	<circle cx="242.681" cy="951.718" r="4" fill="#0" id="circle13"/>
	<circle cx="263.076" cy="505.295" r="4" fill="#0" id="circle14"/>
	<circle cx="270.136" cy="974.819" r="4" fill="#0" id="circle15"/>
	<circle cx="298.378" cy="498.235" r="4" fill="#0" id="circle16"/>
	<circle cx="305.439" cy="988.94" r="4" fill="#0" id="circle17"/>
	<circle cx="316.029" cy="88.726" r="4" fill="#0" id="circle18"/>
	<circle cx="323.09" cy="25.1815" r="4" fill="#0" id="circle19"/>
	<circle cx="323.09" cy="328.783" r="4" fill="#0" id="circle20"/>
	<circle cx="323.09" cy="364.085" r="4" fill="#0" id="circle21"/>
	<circle cx="323.09" cy="399.388" r="4" fill="#0" id="circle22"/>
	<circle cx="323.09" cy="434.69" r="4" fill="#0" id="circle23"/>
	<circle cx="323.09" cy="469.993" r="4" fill="#0" id="circle24"/>
	<circle cx="330.15" cy="124.028" r="4" fill="#0" id="circle25"/>
	<circle cx="330.15" cy="159.331" r="4" fill="#0" id="circle26"/>
	<circle cx="330.15" cy="194.633" r="4" fill="#0" id="circle27"/>
	<circle cx="330.15" cy="229.936" r="4" fill="#0" id="circle28"/>
	<circle cx="330.15" cy="265.238" r="4" fill="#0" id="circle29"/>
	<circle cx="340.741" cy="988.94" r="4" fill="#0" id="circle30"/>
	<circle cx="351.332" cy="4" r="4" fill="#0" id="circle31"/>
	<circle cx="376.044" cy="124.028" r="4" fill="#0" id="circle32"/>
	<circle cx="376.044" cy="159.331" r="4" fill="#0" id="circle33"/>
	<circle cx="376.044" cy="194.633" r="4" fill="#0" id="circle34"/>
	<circle cx="376.044" cy="229.936" r="4" fill="#0" id="circle35"/>
	<circle cx="376.044" cy="996" r="4" fill="#0" id="circle36"/>
	<circle cx="383.104" cy="265.238" r="4" fill="#0" id="circle37"/>
	<circle cx="383.104" cy="300.541" r="4" fill="#0" id="circle38"/>
	<circle cx="383.104" cy="335.843" r="4" fill="#0" id="circle39"/>
	<circle cx="383.104" cy="371.146" r="4" fill="#0" id="circle40"/>
	<circle cx="383.104" cy="406.448" r="4" fill="#0" id="circle41"/>
	<circle cx="383.104" cy="441.751" r="4" fill="#0" id="circle42"/>
	<circle cx="386.634" cy="4" r="4" fill="#0" id="circle43"/>
	<circle cx="390.165" cy="74.605" r="4" fill="#0" id="circle44"/>
	<circle cx="393.695" cy="477.053" r="4" fill="#0" id="circle45"/>
	<circle cx="397.225" cy="39.3025" r="4" fill="#0" id="circle46"/>
	<circle cx="411.346" cy="988.94" r="4" fill="#0" id="circle47"/>
	<circle cx="418.407" cy="505.295" r="4" fill="#0" id="circle48"/>
	<circle cx="425.467" cy="540.598" r="4" fill="#0" id="circle49"/>
	<circle cx="446.649" cy="568.84" r="4" fill="#0" id="circle50"/>
	<circle cx="446.649" cy="981.879" r="4" fill="#0" id="circle51"/>
	<circle cx="471.36" cy="540.598" r="4" fill="#0" id="circle52"/>
	<circle cx="481.951" cy="971.288" r="4" fill="#0" id="circle53"/>
	<circle cx="503.133" cy="653.566" r="4" fill="#0" id="circle54"/>
	<circle cx="506.663" cy="540.598" r="4" fill="#0" id="circle55"/>
	<circle cx="510.193" cy="688.868" r="4" fill="#0" id="circle56"/>
	<circle cx="510.193" cy="950.107" r="4" fill="#0" id="circle57"/>
	<circle cx="517.254" cy="618.263" r="4" fill="#0" id="circle58"/>
	<circle cx="527.844" cy="568.84" r="4" fill="#0" id="circle59"/>
	<circle cx="527.844" cy="720.641" r="4" fill="#0" id="circle60"/>
	<circle cx="538.435" cy="921.865" r="4" fill="#0" id="circle61"/>
	<circle cx="545.496" cy="752.413" r="4" fill="#0" id="circle62"/>
	<circle cx="556.086" cy="890.093" r="4" fill="#0" id="circle63"/>
	<circle cx="559.617" cy="787.715" r="4" fill="#0" id="circle64"/>
	<circle cx="566.677" cy="823.018" r="4" fill="#0" id="circle65"/>
	</g>
</svg>