<?xml version="1.0" encoding="UTF-8" standalone="no"?>
<!-- Created with CurveBenchmark -->
<svg
	xmlns:dc="http://purl.org/dc/elements/1.1/"
	xmlns:cc="http://creativecommons.org/ns#"
	xmlns:rdf="http://www.w3.org/1999/02/22-rdf-syntax-ns#"
	xmlns:svg="http://www.w3.org/2000/svg"
	xmlns="http://www.w3.org/2000/svg"
	xmlns:sodipodi="http://sodipodi.sourceforge.net/DTD/sodipodi-0.dtd"
	xmlns:inkscape="http://www.inkscape.org/namespaces/inkscape"
	width="1000"
	height="1000"
	id="svg2"
	version="1.1"
	sodipodi:docname="manifold/stretchdenoise-sink070.png.txt">
<defs
	id="defs4" />
<metadata
	id="metadata7">
	<rdf:RDF>
		<cc:Work
			rdf:about="">
			<dc:format>image/svg+xml</dc:format>
			<dc:type
				rdf:resource="http://purl.org/dc/dcmitype/StillImage" />
			<dc:title></dc:title>
		</cc:Work>
	</rdf:RDF>
</metadata>
<g
	inkscape:label="Layer 1"
	inkscape:groupmode="layer"
	id="layer1">
	<path style="fill:none;stroke:red;stroke-width:1px;stroke-linecap:butt;stroke-linejoin:miter;stroke-opacity:1" d="M 14.8025,299.181 4,221.645 z" id="boundary" inkscape:connector-curvature="0" />
	<path style="fill:none;stroke:red;stroke-width:1px;stroke-linecap:butt;stroke-linejoin:miter;stroke-opacity:1" d="M 14.8025,299.181 56.0548,318.537 z" id="boundary" inkscape:connector-curvature="0" />
	<path style="fill:none;stroke:red;stroke-width:1px;stroke-linecap:butt;stroke-linejoin:miter;stroke-opacity:1" d="M 5.51005,166.777 4,221.645 z" id="boundary" inkscape:connector-curvature="0" />
	<path style="fill:none;stroke:red;stroke-width:1px;stroke-linecap:butt;stroke-linejoin:miter;stroke-opacity:1" d="M 5.51005,166.777 156.197,117.302 z" id="boundary" inkscape:connector-curvature="0" />
	<path style="fill:none;stroke:red;stroke-width:1px;stroke-linecap:butt;stroke-linejoin:miter;stroke-opacity:1" d="M 56.0548,318.537 104.445,318.537 z" id="boundary" inkscape:connector-curvature="0" />
	<path style="fill:none;stroke:red;stroke-width:1px;stroke-linecap:butt;stroke-linejoin:miter;stroke-opacity:1" d="M 104.445,318.537 230.26,357.249 z" id="boundary" inkscape:connector-curvature="0" />
	<path style="fill:none;stroke:red;stroke-width:1px;stroke-linecap:butt;stroke-linejoin:miter;stroke-opacity:1" d="M 230.26,357.249 259.294,395.961 z" id="boundary" inkscape:connector-curvature="0" />
	<path style="fill:none;stroke:red;stroke-width:1px;stroke-linecap:butt;stroke-linejoin:miter;stroke-opacity:1" d="M 259.294,395.961 298.006,429.834 z" id="boundary" inkscape:connector-curvature="0" />
	<path style="fill:none;stroke:red;stroke-width:1px;stroke-linecap:butt;stroke-linejoin:miter;stroke-opacity:1" d="M 298.006,429.834 346.396,449.19 z" id="boundary" inkscape:connector-curvature="0" />
	<path style="fill:none;stroke:red;stroke-width:1px;stroke-linecap:butt;stroke-linejoin:miter;stroke-opacity:1" d="M 346.396,449.19 394.786,458.868 z" id="boundary" inkscape:connector-curvature="0" />
	<path style="fill:none;stroke:red;stroke-width:1px;stroke-linecap:butt;stroke-linejoin:miter;stroke-opacity:1" d="M 346.396,952.449 370.591,996 z" id="boundary" inkscape:connector-curvature="0" />
	<path style="fill:none;stroke:red;stroke-width:1px;stroke-linecap:butt;stroke-linejoin:miter;stroke-opacity:1" d="M 346.396,952.449 375.43,904.059 z" id="boundary" inkscape:connector-curvature="0" />
	<path style="fill:none;stroke:red;stroke-width:1px;stroke-linecap:butt;stroke-linejoin:miter;stroke-opacity:1" d="M 356.074,168.527 404.465,168.527 z" id="boundary" inkscape:connector-curvature="0" />
	<path style="fill:none;stroke:red;stroke-width:1px;stroke-linecap:butt;stroke-linejoin:miter;stroke-opacity:1" d="M 370.591,996 418.982,996 z" id="boundary" inkscape:connector-curvature="0" />
	<path style="fill:none;stroke:red;stroke-width:1px;stroke-linecap:butt;stroke-linejoin:miter;stroke-opacity:1" d="M 375.43,904.059 394.786,845.99 z" id="boundary" inkscape:connector-curvature="0" />
	<path style="fill:none;stroke:red;stroke-width:1px;stroke-linecap:butt;stroke-linejoin:miter;stroke-opacity:1" d="M 394.786,458.868 394.786,507.259 z" id="boundary" inkscape:connector-curvature="0" />
	<path style="fill:none;stroke:red;stroke-width:1px;stroke-linecap:butt;stroke-linejoin:miter;stroke-opacity:1" d="M 394.786,507.259 394.786,555.649 z" id="boundary" inkscape:connector-curvature="0" />
	<path style="fill:none;stroke:red;stroke-width:1px;stroke-linecap:butt;stroke-linejoin:miter;stroke-opacity:1" d="M 394.786,555.649 394.786,604.039 z" id="boundary" inkscape:connector-curvature="0" />
	<path style="fill:none;stroke:red;stroke-width:1px;stroke-linecap:butt;stroke-linejoin:miter;stroke-opacity:1" d="M 394.786,604.039 394.786,652.429 z" id="boundary" inkscape:connector-curvature="0" />
	<path style="fill:none;stroke:red;stroke-width:1px;stroke-linecap:butt;stroke-linejoin:miter;stroke-opacity:1" d="M 394.786,652.429 394.786,700.82 z" id="boundary" inkscape:connector-curvature="0" />
	<path style="fill:none;stroke:red;stroke-width:1px;stroke-linecap:butt;stroke-linejoin:miter;stroke-opacity:1" d="M 394.786,700.82 394.786,749.21 z" id="boundary" inkscape:connector-curvature="0" />
	<path style="fill:none;stroke:red;stroke-width:1px;stroke-linecap:butt;stroke-linejoin:miter;stroke-opacity:1" d="M 394.786,749.21 394.786,797.6 z" id="boundary" inkscape:connector-curvature="0" />
	<path style="fill:none;stroke:red;stroke-width:1px;stroke-linecap:butt;stroke-linejoin:miter;stroke-opacity:1" d="M 394.786,797.6 394.786,845.99 z" id="boundary" inkscape:connector-curvature="0" />
	<path style="fill:none;stroke:red;stroke-width:1px;stroke-linecap:butt;stroke-linejoin:miter;stroke-opacity:1" d="M 404.465,168.527 452.855,168.527 z" id="boundary" inkscape:connector-curvature="0" />
	<path style="fill:none;stroke:red;stroke-width:1px;stroke-linecap:butt;stroke-linejoin:miter;stroke-opacity:1" d="M 418.982,996 467.372,996 z" id="boundary" inkscape:connector-curvature="0" />
	<path style="fill:none;stroke:red;stroke-width:1px;stroke-linecap:butt;stroke-linejoin:miter;stroke-opacity:1" d="M 452.855,168.527 501.245,168.527 z" id="boundary" inkscape:connector-curvature="0" />
	<path style="fill:none;stroke:red;stroke-width:1px;stroke-linecap:butt;stroke-linejoin:miter;stroke-opacity:1" d="M 467.372,996 515.762,996 z" id="boundary" inkscape:connector-curvature="0" />
	<path style="fill:none;stroke:red;stroke-width:1px;stroke-linecap:butt;stroke-linejoin:miter;stroke-opacity:1" d="M 501.245,168.527 549.635,168.527 z" id="boundary" inkscape:connector-curvature="0" />
	<path style="fill:none;stroke:red;stroke-width:1px;stroke-linecap:butt;stroke-linejoin:miter;stroke-opacity:1" d="M 515.762,996 564.152,996 z" id="boundary" inkscape:connector-curvature="0" />
	<path style="fill:none;stroke:red;stroke-width:1px;stroke-linecap:butt;stroke-linejoin:miter;stroke-opacity:1" d="M 549.635,168.527 598.025,168.527 z" id="boundary" inkscape:connector-curvature="0" />
	<path style="fill:none;stroke:red;stroke-width:1px;stroke-linecap:butt;stroke-linejoin:miter;stroke-opacity:1" d="M 564.152,996 612.543,996 z" id="boundary" inkscape:connector-curvature="0" />
	<path style="fill:none;stroke:red;stroke-width:1px;stroke-linecap:butt;stroke-linejoin:miter;stroke-opacity:1" d="M 573.83,420.156 573.83,468.546 z" id="boundary" inkscape:connector-curvature="0" />
	<path style="fill:none;stroke:red;stroke-width:1px;stroke-linecap:butt;stroke-linejoin:miter;stroke-opacity:1" d="M 573.83,420.156 612.543,381.444 z" id="boundary" inkscape:connector-curvature="0" />
	<path style="fill:none;stroke:red;stroke-width:1px;stroke-linecap:butt;stroke-linejoin:miter;stroke-opacity:1" d="M 573.83,468.546 573.83,516.937 z" id="boundary" inkscape:connector-curvature="0" />
	<path style="fill:none;stroke:red;stroke-width:1px;stroke-linecap:butt;stroke-linejoin:miter;stroke-opacity:1" d="M 573.83,516.937 573.83,565.327 z" id="boundary" inkscape:connector-curvature="0" />
	<path style="fill:none;stroke:red;stroke-width:1px;stroke-linecap:butt;stroke-linejoin:miter;stroke-opacity:1" d="M 573.83,565.327 573.83,613.717 z" id="boundary" inkscape:connector-curvature="0" />
	<path style="fill:none;stroke:red;stroke-width:1px;stroke-linecap:butt;stroke-linejoin:miter;stroke-opacity:1" d="M 573.83,613.717 573.83,662.107 z" id="boundary" inkscape:connector-curvature="0" />
	<path style="fill:none;stroke:red;stroke-width:1px;stroke-linecap:butt;stroke-linejoin:miter;stroke-opacity:1" d="M 573.83,662.107 573.83,710.498 z" id="boundary" inkscape:connector-curvature="0" />
	<path style="fill:none;stroke:red;stroke-width:1px;stroke-linecap:butt;stroke-linejoin:miter;stroke-opacity:1" d="M 573.83,710.498 573.83,758.888 z" id="boundary" inkscape:connector-curvature="0" />
	<path style="fill:none;stroke:red;stroke-width:1px;stroke-linecap:butt;stroke-linejoin:miter;stroke-opacity:1" d="M 573.83,758.888 573.83,807.278 z" id="boundary" inkscape:connector-curvature="0" />
	<path style="fill:none;stroke:red;stroke-width:1px;stroke-linecap:butt;stroke-linejoin:miter;stroke-opacity:1" d="M 573.83,807.278 573.83,855.668 z" id="boundary" inkscape:connector-curvature="0" />
	<path style="fill:none;stroke:red;stroke-width:1px;stroke-linecap:butt;stroke-linejoin:miter;stroke-opacity:1" d="M 573.83,855.668 593.186,904.059 z" id="boundary" inkscape:connector-curvature="0" />
	<path style="fill:none;stroke:red;stroke-width:1px;stroke-linecap:butt;stroke-linejoin:miter;stroke-opacity:1" d="M 593.186,904.059 622.221,942.771 z" id="boundary" inkscape:connector-curvature="0" />
	<path style="fill:none;stroke:red;stroke-width:1px;stroke-linecap:butt;stroke-linejoin:miter;stroke-opacity:1" d="M 598.025,168.527 617.382,216.917 z" id="boundary" inkscape:connector-curvature="0" />
	<path style="fill:none;stroke:red;stroke-width:1px;stroke-linecap:butt;stroke-linejoin:miter;stroke-opacity:1" d="M 612.543,381.444 636.738,337.893 z" id="boundary" inkscape:connector-curvature="0" />
	<path style="fill:none;stroke:red;stroke-width:1px;stroke-linecap:butt;stroke-linejoin:miter;stroke-opacity:1" d="M 612.543,996 622.221,942.771 z" id="boundary" inkscape:connector-curvature="0" />
	<path style="fill:none;stroke:red;stroke-width:1px;stroke-linecap:butt;stroke-linejoin:miter;stroke-opacity:1" d="M 617.382,216.917 636.738,265.307 z" id="boundary" inkscape:connector-curvature="0" />
	<path style="fill:none;stroke:red;stroke-width:1px;stroke-linecap:butt;stroke-linejoin:miter;stroke-opacity:1" d="M 636.738,265.307 685.128,265.307 z" id="boundary" inkscape:connector-curvature="0" />
	<path style="fill:none;stroke:red;stroke-width:1px;stroke-linecap:butt;stroke-linejoin:miter;stroke-opacity:1" d="M 636.738,337.893 685.128,318.537 z" id="boundary" inkscape:connector-curvature="0" />
	<path style="fill:none;stroke:red;stroke-width:1px;stroke-linecap:butt;stroke-linejoin:miter;stroke-opacity:1" d="M 685.128,265.307 733.518,265.307 z" id="boundary" inkscape:connector-curvature="0" />
	<path style="fill:none;stroke:red;stroke-width:1px;stroke-linecap:butt;stroke-linejoin:miter;stroke-opacity:1" d="M 685.128,318.537 733.518,318.537 z" id="boundary" inkscape:connector-curvature="0" />
	<path style="fill:none;stroke:red;stroke-width:1px;stroke-linecap:butt;stroke-linejoin:miter;stroke-opacity:1" d="M 733.518,265.307 781.908,265.307 z" id="boundary" inkscape:connector-curvature="0" />
	<path style="fill:none;stroke:red;stroke-width:1px;stroke-linecap:butt;stroke-linejoin:miter;stroke-opacity:1" d="M 733.518,318.537 781.908,318.537 z" id="boundary" inkscape:connector-curvature="0" />
	<path style="fill:none;stroke:red;stroke-width:1px;stroke-linecap:butt;stroke-linejoin:miter;stroke-opacity:1" d="M 781.908,265.307 781.908,318.537 z" id="boundary" inkscape:connector-curvature="0" />
	<circle cx="14.8025" cy="299.181" r="4" fill="#0" id="circle0"/>
	<circle cx="5.51005" cy="166.777" r="4" fill="#0" id="circle1"/>
	<circle cx="4" cy="221.645" r="4" fill="#0" id="circle2"/>
	<circle cx="56.0548" cy="318.537" r="4" fill="#0" id="circle3"/>
	<circle cx="65.7328" cy="168.527" r="4" fill="#0" id="circle4"/>
	<circle cx="104.445" cy="318.537" r="4" fill="#0" id="circle5"/>
	<circle cx="114.123" cy="168.527" r="4" fill="#0" id="circle6"/>
	<circle cx="152.835" cy="318.537" r="4" fill="#0" id="circle7"/>
	<circle cx="156.197" cy="117.302" r="4" fill="#0" id="circle8"/>
	<circle cx="201.225" cy="318.537" r="4" fill="#0" id="circle9"/>
	<circle cx="210.904" cy="178.205" r="4" fill="#0" id="circle10"/>
	<circle cx="230.26" cy="357.249" r="4" fill="#0" id="circle11"/>
	<circle cx="259.294" cy="178.205" r="4" fill="#0" id="circle12"/>
	<circle cx="259.294" cy="395.961" r="4" fill="#0" id="circle13"/>
	<circle cx="268.972" cy="71.7463" r="4" fill="#0" id="circle14"/>
	<circle cx="268.972" cy="120.137" r="4" fill="#0" id="circle15"/>
	<circle cx="293.167" cy="28.1951" r="4" fill="#0" id="circle16"/>
	<circle cx="298.006" cy="429.834" r="4" fill="#0" id="circle17"/>
	<circle cx="307.684" cy="173.366" r="4" fill="#0" id="circle18"/>
	<circle cx="336.718" cy="4" r="4" fill="#0" id="circle19"/>
	<circle cx="346.396" cy="449.19" r="4" fill="#0" id="circle20"/>
	<circle cx="346.396" cy="952.449" r="4" fill="#0" id="circle21"/>
	<circle cx="356.074" cy="168.527" r="4" fill="#0" id="circle22"/>
	<circle cx="370.591" cy="42.7122" r="4" fill="#0" id="circle23"/>
	<circle cx="370.591" cy="996" r="4" fill="#0" id="circle24"/>
	<circle cx="375.43" cy="904.059" r="4" fill="#0" id="circle25"/>
	<circle cx="394.786" cy="86.2634" r="4" fill="#0" id="circle26"/>
	<circle cx="394.786" cy="458.868" r="4" fill="#0" id="circle27"/>
	<circle cx="394.786" cy="507.259" r="4" fill="#0" id="circle28"/>
	<circle cx="394.786" cy="555.649" r="4" fill="#0" id="circle29"/>
	<circle cx="394.786" cy="604.039" r="4" fill="#0" id="circle30"/>
	<circle cx="394.786" cy="652.429" r="4" fill="#0" id="circle31"/>
	<circle cx="394.786" cy="700.82" r="4" fill="#0" id="circle32"/>
	<circle cx="394.786" cy="749.21" r="4" fill="#0" id="circle33"/>
	<circle cx="394.786" cy="797.6" r="4" fill="#0" id="circle34"/>
	<circle cx="394.786" cy="845.99" r="4" fill="#0" id="circle35"/>
	<circle cx="404.465" cy="168.527" r="4" fill="#0" id="circle36"/>
	<circle cx="418.982" cy="996" r="4" fill="#0" id="circle37"/>
	<circle cx="452.855" cy="168.527" r="4" fill="#0" id="circle38"/>
	<circle cx="467.372" cy="996" r="4" fill="#0" id="circle39"/>
	<circle cx="501.245" cy="168.527" r="4" fill="#0" id="circle40"/>
	<circle cx="515.762" cy="996" r="4" fill="#0" id="circle41"/>
	<circle cx="549.635" cy="168.527" r="4" fill="#0" id="circle42"/>
	<circle cx="564.152" cy="996" r="4" fill="#0" id="circle43"/>
	<circle cx="573.83" cy="420.156" r="4" fill="#0" id="circle44"/>
	<circle cx="573.83" cy="468.546" r="4" fill="#0" id="circle45"/>
	<circle cx="573.83" cy="516.937" r="4" fill="#0" id="circle46"/>
	<circle cx="573.83" cy="565.327" r="4" fill="#0" id="circle47"/>
	<circle cx="573.83" cy="613.717" r="4" fill="#0" id="circle48"/>
	<circle cx="573.83" cy="662.107" r="4" fill="#0" id="circle49"/>
	<circle cx="573.83" cy="710.498" r="4" fill="#0" id="circle50"/>
	<circle cx="573.83" cy="758.888" r="4" fill="#0" id="circle51"/>
	<circle cx="573.83" cy="807.278" r="4" fill="#0" id="circle52"/>
	<circle cx="573.83" cy="855.668" r="4" fill="#0" id="circle53"/>
	<circle cx="593.186" cy="904.059" r="4" fill="#0" id="circle54"/>
	<circle cx="598.025" cy="168.527" r="4" fill="#0" id="circle55"/>
	<circle cx="612.543" cy="381.444" r="4" fill="#0" id="circle56"/>
	<circle cx="612.543" cy="996" r="4" fill="#0" id="circle57"/>
	<circle cx="617.382" cy="216.917" r="4" fill="#0" id="circle58"/>
	<circle cx="622.221" cy="942.771" r="4" fill="#0" id="circle59"/>
	<circle cx="636.738" cy="265.307" r="4" fill="#0" id="circle60"/>
	<circle cx="636.738" cy="337.893" r="4" fill="#0" id="circle61"/>
	<circle cx="685.128" cy="265.307" r="4" fill="#0" id="circle62"/>
	<circle cx="685.128" cy="318.537" r="4" fill="#0" id="circle63"/>
	<circle cx="733.518" cy="265.307" r="4" fill="#0" id="circle64"/>
	<circle cx="733.518" cy="318.537" r="4" fill="#0" id="circle65"/>
	<circle cx="781.908" cy="265.307" r="4" fill="#0" id="circle66"/>
	<circle cx="781.908" cy="318.537" r="4" fill="#0" id="circle67"/>
	</g>
</svg>