<?xml version="1.0" encoding="UTF-8" standalone="no"?>
<!-- Created with CurveBenchmark -->
<svg
	xmlns:dc="http://purl.org/dc/elements/1.1/"
	xmlns:cc="http://creativecommons.org/ns#"
	xmlns:rdf="http://www.w3.org/1999/02/22-rdf-syntax-ns#"
	xmlns:svg="http://www.w3.org/2000/svg"
	xmlns="http://www.w3.org/2000/svg"
	xmlns:sodipodi="http://sodipodi.sourceforge.net/DTD/sodipodi-0.dtd"
	xmlns:inkscape="http://www.inkscape.org/namespaces/inkscape"
	width="1000"
	height="1000"
	id="svg2"
	version="1.1"
	sodipodi:docname="manifold/stretchdenoise-fork05.png.txt">
<defs
	id="defs4" />
<metadata
	id="metadata7">
	<rdf:RDF>
		<cc:Work
			rdf:about="">
			<dc:format>image/svg+xml</dc:format>
			<dc:type
				rdf:resource="http://purl.org/dc/dcmitype/StillImage" />
			<dc:title></dc:title>
		</cc:Work>
	</rdf:RDF>
</metadata>
<g
	inkscape:label="Layer 1"
	inkscape:groupmode="layer"
	id="layer1">
	<path style="fill:none;stroke:red;stroke-width:1px;stroke-linecap:butt;stroke-linejoin:miter;stroke-opacity:1" d="M nan,nan 303.226,319.075 z" id="boundary" inkscape:connector-curvature="0" />
	<path style="fill:none;stroke:red;stroke-width:1px;stroke-linecap:butt;stroke-linejoin:miter;stroke-opacity:1" d="M 303.226,319.075 977.664,269.878 z" id="boundary" inkscape:connector-curvature="0" />
	<path style="fill:none;stroke:red;stroke-width:1px;stroke-linecap:butt;stroke-linejoin:miter;stroke-opacity:1" d="M 977.664,269.878 996,275.379 z" id="boundary" inkscape:connector-curvature="0" />
	<circle cx="4" cy="37.0055" r="4" fill="#0" id="circle0"/>
	<circle cx="13.1682" cy="18.6691" r="4" fill="#0" id="circle1"/>
	<circle cx="18.6691" cy="49.841" r="4" fill="#0" id="circle2"/>
	<circle cx="22.3364" cy="440.407" r="4" fill="#0" id="circle3"/>
	<circle cx="27.8373" cy="4" r="4" fill="#0" id="circle4"/>
	<circle cx="31.5046" cy="174.529" r="4" fill="#0" id="circle5"/>
	<circle cx="31.5046" cy="321.22" r="4" fill="#0" id="circle6"/>
	<circle cx="31.5046" cy="339.556" r="4" fill="#0" id="circle7"/>
	<circle cx="31.5046" cy="456.909" r="4" fill="#0" id="circle8"/>
	<circle cx="37.0055" cy="51.6747" r="4" fill="#0" id="circle9"/>
	<circle cx="37.0055" cy="425.738" r="4" fill="#0" id="circle10"/>
	<circle cx="40.6728" cy="191.031" r="4" fill="#0" id="circle11"/>
	<circle cx="44.3401" cy="13.1682" r="4" fill="#0" id="circle12"/>
	<circle cx="46.1738" cy="159.86" r="4" fill="#0" id="circle13"/>
	<circle cx="49.841" cy="312.052" r="4" fill="#0" id="circle14"/>
	<circle cx="49.841" cy="345.057" r="4" fill="#0" id="circle15"/>
	<circle cx="49.841" cy="464.244" r="4" fill="#0" id="circle16"/>
	<circle cx="55.342" cy="51.6747" r="4" fill="#0" id="circle17"/>
	<circle cx="55.342" cy="425.738" r="4" fill="#0" id="circle18"/>
	<circle cx="59.0092" cy="198.366" r="4" fill="#0" id="circle19"/>
	<circle cx="62.6765" cy="13.1682" r="4" fill="#0" id="circle20"/>
	<circle cx="64.5102" cy="159.86" r="4" fill="#0" id="circle21"/>
	<circle cx="66.3438" cy="473.412" r="4" fill="#0" id="circle22"/>
	<circle cx="68.1774" cy="312.052" r="4" fill="#0" id="circle23"/>
	<circle cx="68.1774" cy="345.057" r="4" fill="#0" id="circle24"/>
	<circle cx="73.6784" cy="51.6747" r="4" fill="#0" id="circle25"/>
	<circle cx="73.6784" cy="425.738" r="4" fill="#0" id="circle26"/>
	<circle cx="77.3457" cy="198.366" r="4" fill="#0" id="circle27"/>
	<circle cx="81.0129" cy="5.83364" r="4" fill="#0" id="circle28"/>
	<circle cx="82.8466" cy="159.86" r="4" fill="#0" id="circle29"/>
	<circle cx="82.8466" cy="464.244" r="4" fill="#0" id="circle30"/>
	<circle cx="86.5139" cy="312.052" r="4" fill="#0" id="circle31"/>
	<circle cx="86.5139" cy="348.725" r="4" fill="#0" id="circle32"/>
	<circle cx="92.0148" cy="51.6747" r="4" fill="#0" id="circle33"/>
	<circle cx="92.0148" cy="425.738" r="4" fill="#0" id="circle34"/>
	<circle cx="95.6821" cy="198.366" r="4" fill="#0" id="circle35"/>
	<circle cx="99.3494" cy="5.83364" r="4" fill="#0" id="circle36"/>
	<circle cx="101.183" cy="159.86" r="4" fill="#0" id="circle37"/>
	<circle cx="101.183" cy="464.244" r="4" fill="#0" id="circle38"/>
	<circle cx="104.85" cy="312.052" r="4" fill="#0" id="circle39"/>
	<circle cx="104.85" cy="354.226" r="4" fill="#0" id="circle40"/>
	<circle cx="110.351" cy="51.6747" r="4" fill="#0" id="circle41"/>
	<circle cx="110.351" cy="425.738" r="4" fill="#0" id="circle42"/>
	<circle cx="114.018" cy="198.366" r="4" fill="#0" id="circle43"/>
	<circle cx="117.686" cy="5.83364" r="4" fill="#0" id="circle44"/>
	<circle cx="nan" cy="nan" r="4" fill="#0" id="circle45"/>
	<circle cx="119.519" cy="159.86" r="4" fill="#0" id="circle46"/>
	<circle cx="123.187" cy="312.052" r="4" fill="#0" id="circle47"/>
	<circle cx="123.187" cy="348.725" r="4" fill="#0" id="circle48"/>
	<circle cx="128.688" cy="51.6747" r="4" fill="#0" id="circle49"/>
	<circle cx="128.688" cy="425.738" r="4" fill="#0" id="circle50"/>
	<circle cx="132.355" cy="198.366" r="4" fill="#0" id="circle51"/>
	<circle cx="136.022" cy="5.83364" r="4" fill="#0" id="circle52"/>
	<circle cx="136.022" cy="469.745" r="4" fill="#0" id="circle53"/>
	<circle cx="137.856" cy="159.86" r="4" fill="#0" id="circle54"/>
	<circle cx="141.523" cy="306.551" r="4" fill="#0" id="circle55"/>
	<circle cx="141.523" cy="354.226" r="4" fill="#0" id="circle56"/>
	<circle cx="147.024" cy="51.6747" r="4" fill="#0" id="circle57"/>
	<circle cx="147.024" cy="425.738" r="4" fill="#0" id="circle58"/>
	<circle cx="148.858" cy="207.534" r="4" fill="#0" id="circle59"/>
	<circle cx="154.359" cy="5.83364" r="4" fill="#0" id="circle60"/>
	<circle cx="154.359" cy="169.028" r="4" fill="#0" id="circle61"/>
	<circle cx="154.359" cy="464.244" r="4" fill="#0" id="circle62"/>
	<circle cx="158.026" cy="345.057" r="4" fill="#0" id="circle63"/>
	<circle cx="159.86" cy="306.551" r="4" fill="#0" id="circle64"/>
	<circle cx="165.36" cy="59.0092" r="4" fill="#0" id="circle65"/>
	<circle cx="165.36" cy="416.569" r="4" fill="#0" id="circle66"/>
	<circle cx="167.194" cy="207.534" r="4" fill="#0" id="circle67"/>
	<circle cx="172.695" cy="13.1682" r="4" fill="#0" id="circle68"/>
	<circle cx="172.695" cy="169.028" r="4" fill="#0" id="circle69"/>
	<circle cx="303.226" cy="319.075" r="4" fill="#0" id="circle70"/>
	<circle cx="176.362" cy="345.057" r="4" fill="#0" id="circle71"/>
	<circle cx="178.196" cy="302.884" r="4" fill="#0" id="circle72"/>
	<circle cx="183.697" cy="59.0092" r="4" fill="#0" id="circle73"/>
	<circle cx="183.697" cy="416.569" r="4" fill="#0" id="circle74"/>
	<circle cx="185.53" cy="207.534" r="4" fill="#0" id="circle75"/>
	<circle cx="189.198" cy="22.3364" r="4" fill="#0" id="circle76"/>
	<circle cx="189.198" cy="178.196" r="4" fill="#0" id="circle77"/>
	<circle cx="189.198" cy="455.076" r="4" fill="#0" id="circle78"/>
	<circle cx="192.865" cy="335.889" r="4" fill="#0" id="circle79"/>
	<circle cx="196.532" cy="302.884" r="4" fill="#0" id="circle80"/>
	<circle cx="202.033" cy="60.8429" r="4" fill="#0" id="circle81"/>
	<circle cx="202.033" cy="216.702" r="4" fill="#0" id="circle82"/>
	<circle cx="202.033" cy="416.569" r="4" fill="#0" id="circle83"/>
	<circle cx="207.534" cy="22.3364" r="4" fill="#0" id="circle84"/>
	<circle cx="207.534" cy="178.196" r="4" fill="#0" id="circle85"/>
	<circle cx="207.534" cy="455.076" r="4" fill="#0" id="circle86"/>
	<circle cx="209.368" cy="345.057" r="4" fill="#0" id="circle87"/>
	<circle cx="214.869" cy="297.383" r="4" fill="#0" id="circle88"/>
	<circle cx="218.536" cy="70.0111" r="4" fill="#0" id="circle89"/>
	<circle cx="218.536" cy="407.401" r="4" fill="#0" id="circle90"/>
	<circle cx="220.37" cy="216.702" r="4" fill="#0" id="circle91"/>
	<circle cx="224.037" cy="31.5046" r="4" fill="#0" id="circle92"/>
	<circle cx="225.871" cy="178.196" r="4" fill="#0" id="circle93"/>
	<circle cx="225.871" cy="335.889" r="4" fill="#0" id="circle94"/>
	<circle cx="225.871" cy="445.908" r="4" fill="#0" id="circle95"/>
	<circle cx="233.205" cy="291.882" r="4" fill="#0" id="circle96"/>
	<circle cx="235.039" cy="79.1793" r="4" fill="#0" id="circle97"/>
	<circle cx="236.872" cy="225.871" r="4" fill="#0" id="circle98"/>
	<circle cx="236.872" cy="400.067" r="4" fill="#0" id="circle99"/>
	<circle cx="240.54" cy="40.6728" r="4" fill="#0" id="circle100"/>
	<circle cx="242.373" cy="187.364" r="4" fill="#0" id="circle101"/>
	<circle cx="244.207" cy="335.889" r="4" fill="#0" id="circle102"/>
	<circle cx="244.207" cy="436.739" r="4" fill="#0" id="circle103"/>
	<circle cx="246.041" cy="93.8484" r="4" fill="#0" id="circle104"/>
	<circle cx="251.542" cy="288.214" r="4" fill="#0" id="circle105"/>
	<circle cx="253.375" cy="55.342" r="4" fill="#0" id="circle106"/>
	<circle cx="255.209" cy="225.871" r="4" fill="#0" id="circle107"/>
	<circle cx="255.209" cy="390.898" r="4" fill="#0" id="circle108"/>
	<circle cx="260.71" cy="187.364" r="4" fill="#0" id="circle109"/>
	<circle cx="262.543" cy="103.017" r="4" fill="#0" id="circle110"/>
	<circle cx="262.543" cy="326.721" r="4" fill="#0" id="circle111"/>
	<circle cx="262.543" cy="427.571" r="4" fill="#0" id="circle112"/>
	<circle cx="269.878" cy="64.5102" r="4" fill="#0" id="circle113"/>
	<circle cx="269.878" cy="288.214" r="4" fill="#0" id="circle114"/>
	<circle cx="269.878" cy="379.896" r="4" fill="#0" id="circle115"/>
	<circle cx="273.545" cy="225.871" r="4" fill="#0" id="circle116"/>
	<circle cx="277.213" cy="115.852" r="4" fill="#0" id="circle117"/>
	<circle cx="279.046" cy="187.364" r="4" fill="#0" id="circle118"/>
	<circle cx="280.88" cy="326.721" r="4" fill="#0" id="circle119"/>
	<circle cx="280.88" cy="365.227" r="4" fill="#0" id="circle120"/>
	<circle cx="280.88" cy="418.403" r="4" fill="#0" id="circle121"/>
	<circle cx="284.547" cy="77.3457" r="4" fill="#0" id="circle122"/>
	<circle cx="288.214" cy="284.547" r="4" fill="#0" id="circle123"/>
	<circle cx="290.048" cy="130.521" r="4" fill="#0" id="circle124"/>
	<circle cx="290.048" cy="235.039" r="4" fill="#0" id="circle125"/>
	<circle cx="295.549" cy="405.567" r="4" fill="#0" id="circle126"/>
	<circle cx="297.383" cy="92.0148" r="4" fill="#0" id="circle127"/>
	<circle cx="297.383" cy="191.031" r="4" fill="#0" id="circle128"/>
	<circle cx="299.216" cy="317.553" r="4" fill="#0" id="circle129"/>
	<circle cx="299.216" cy="356.059" r="4" fill="#0" id="circle130"/>
	<circle cx="304.717" cy="143.357" r="4" fill="#0" id="circle131"/>
	<circle cx="306.551" cy="244.207" r="4" fill="#0" id="circle132"/>
	<circle cx="306.551" cy="275.379" r="4" fill="#0" id="circle133"/>
	<circle cx="308.384" cy="337.723" r="4" fill="#0" id="circle134"/>
	<circle cx="313.885" cy="200.2" r="4" fill="#0" id="circle135"/>
	<circle cx="313.885" cy="396.399" r="4" fill="#0" id="circle136"/>
	<circle cx="315.719" cy="99.3494" r="4" fill="#0" id="circle137"/>
	<circle cx="317.553" cy="158.026" r="4" fill="#0" id="circle138"/>
	<circle cx="317.553" cy="308.384" r="4" fill="#0" id="circle139"/>
	<circle cx="321.22" cy="260.71" r="4" fill="#0" id="circle140"/>
	<circle cx="324.887" cy="279.046" r="4" fill="#0" id="circle141"/>
	<circle cx="324.887" cy="326.721" r="4" fill="#0" id="circle142"/>
	<circle cx="326.721" cy="114.018" r="4" fill="#0" id="circle143"/>
	<circle cx="326.721" cy="381.73" r="4" fill="#0" id="circle144"/>
	<circle cx="332.222" cy="170.861" r="4" fill="#0" id="circle145"/>
	<circle cx="332.222" cy="207.534" r="4" fill="#0" id="circle146"/>
	<circle cx="334.055" cy="189.198" r="4" fill="#0" id="circle147"/>
	<circle cx="335.889" cy="363.394" r="4" fill="#0" id="circle148"/>
	<circle cx="341.39" cy="125.02" r="4" fill="#0" id="circle149"/>
	<circle cx="350.558" cy="141.523" r="4" fill="#0" id="circle150"/>
	<circle cx="350.558" cy="350.558" r="4" fill="#0" id="circle151"/>
	<circle cx="363.394" cy="156.192" r="4" fill="#0" id="circle152"/>
	<circle cx="363.394" cy="326.721" r="4" fill="#0" id="circle153"/>
	<circle cx="372.562" cy="172.695" r="4" fill="#0" id="circle154"/>
	<circle cx="372.562" cy="299.216" r="4" fill="#0" id="circle155"/>
	<circle cx="381.73" cy="189.198" r="4" fill="#0" id="circle156"/>
	<circle cx="381.73" cy="207.534" r="4" fill="#0" id="circle157"/>
	<circle cx="381.73" cy="225.871" r="4" fill="#0" id="circle158"/>
	<circle cx="381.73" cy="271.712" r="4" fill="#0" id="circle159"/>
	<circle cx="400.067" cy="233.205" r="4" fill="#0" id="circle160"/>
	<circle cx="400.067" cy="271.712" r="4" fill="#0" id="circle161"/>
	<circle cx="418.403" cy="233.205" r="4" fill="#0" id="circle162"/>
	<circle cx="418.403" cy="271.712" r="4" fill="#0" id="circle163"/>
	<circle cx="436.739" cy="233.205" r="4" fill="#0" id="circle164"/>
	<circle cx="436.739" cy="271.712" r="4" fill="#0" id="circle165"/>
	<circle cx="455.076" cy="233.205" r="4" fill="#0" id="circle166"/>
	<circle cx="455.076" cy="271.712" r="4" fill="#0" id="circle167"/>
	<circle cx="473.412" cy="233.205" r="4" fill="#0" id="circle168"/>
	<circle cx="473.412" cy="271.712" r="4" fill="#0" id="circle169"/>
	<circle cx="491.749" cy="233.205" r="4" fill="#0" id="circle170"/>
	<circle cx="491.749" cy="271.712" r="4" fill="#0" id="circle171"/>
	<circle cx="508.251" cy="242.373" r="4" fill="#0" id="circle172"/>
	<circle cx="508.251" cy="280.88" r="4" fill="#0" id="circle173"/>
	<circle cx="526.588" cy="242.373" r="4" fill="#0" id="circle174"/>
	<circle cx="526.588" cy="280.88" r="4" fill="#0" id="circle175"/>
	<circle cx="544.924" cy="242.373" r="4" fill="#0" id="circle176"/>
	<circle cx="544.924" cy="280.88" r="4" fill="#0" id="circle177"/>
	<circle cx="563.261" cy="242.373" r="4" fill="#0" id="circle178"/>
	<circle cx="563.261" cy="280.88" r="4" fill="#0" id="circle179"/>
	<circle cx="581.597" cy="242.373" r="4" fill="#0" id="circle180"/>
	<circle cx="581.597" cy="280.88" r="4" fill="#0" id="circle181"/>
	<circle cx="598.1" cy="290.048" r="4" fill="#0" id="circle182"/>
	<circle cx="599.933" cy="246.041" r="4" fill="#0" id="circle183"/>
	<circle cx="616.436" cy="290.048" r="4" fill="#0" id="circle184"/>
	<circle cx="618.27" cy="246.041" r="4" fill="#0" id="circle185"/>
	<circle cx="632.939" cy="299.216" r="4" fill="#0" id="circle186"/>
	<circle cx="636.606" cy="251.542" r="4" fill="#0" id="circle187"/>
	<circle cx="651.275" cy="297.383" r="4" fill="#0" id="circle188"/>
	<circle cx="654.943" cy="251.542" r="4" fill="#0" id="circle189"/>
	<circle cx="669.612" cy="299.216" r="4" fill="#0" id="circle190"/>
	<circle cx="671.445" cy="260.71" r="4" fill="#0" id="circle191"/>
	<circle cx="687.948" cy="269.878" r="4" fill="#0" id="circle192"/>
	<circle cx="687.948" cy="306.551" r="4" fill="#0" id="circle193"/>
	<circle cx="706.285" cy="269.878" r="4" fill="#0" id="circle194"/>
	<circle cx="706.285" cy="306.551" r="4" fill="#0" id="circle195"/>
	<circle cx="724.621" cy="269.878" r="4" fill="#0" id="circle196"/>
	<circle cx="724.621" cy="308.384" r="4" fill="#0" id="circle197"/>
	<circle cx="741.124" cy="279.046" r="4" fill="#0" id="circle198"/>
	<circle cx="742.957" cy="315.719" r="4" fill="#0" id="circle199"/>
	<circle cx="759.46" cy="279.046" r="4" fill="#0" id="circle200"/>
	<circle cx="761.294" cy="315.719" r="4" fill="#0" id="circle201"/>
	<circle cx="777.797" cy="279.046" r="4" fill="#0" id="circle202"/>
	<circle cx="779.63" cy="317.553" r="4" fill="#0" id="circle203"/>
	<circle cx="796.133" cy="279.046" r="4" fill="#0" id="circle204"/>
	<circle cx="797.967" cy="317.553" r="4" fill="#0" id="circle205"/>
	<circle cx="814.47" cy="279.046" r="4" fill="#0" id="circle206"/>
	<circle cx="816.303" cy="317.553" r="4" fill="#0" id="circle207"/>
	<circle cx="832.806" cy="279.046" r="4" fill="#0" id="circle208"/>
	<circle cx="834.64" cy="317.553" r="4" fill="#0" id="circle209"/>
	<circle cx="851.142" cy="279.046" r="4" fill="#0" id="circle210"/>
	<circle cx="852.976" cy="317.553" r="4" fill="#0" id="circle211"/>
	<circle cx="869.479" cy="279.046" r="4" fill="#0" id="circle212"/>
	<circle cx="871.312" cy="315.719" r="4" fill="#0" id="circle213"/>
	<circle cx="885.982" cy="269.878" r="4" fill="#0" id="circle214"/>
	<circle cx="889.649" cy="315.719" r="4" fill="#0" id="circle215"/>
	<circle cx="904.318" cy="269.878" r="4" fill="#0" id="circle216"/>
	<circle cx="907.985" cy="308.384" r="4" fill="#0" id="circle217"/>
	<circle cx="922.654" cy="269.878" r="4" fill="#0" id="circle218"/>
	<circle cx="926.322" cy="308.384" r="4" fill="#0" id="circle219"/>
	<circle cx="940.991" cy="269.878" r="4" fill="#0" id="circle220"/>
	<circle cx="942.824" cy="299.216" r="4" fill="#0" id="circle221"/>
	<circle cx="957.494" cy="310.218" r="4" fill="#0" id="circle222"/>
	<circle cx="959.327" cy="269.878" r="4" fill="#0" id="circle223"/>
	<circle cx="970.329" cy="324.887" r="4" fill="#0" id="circle224"/>
	<circle cx="977.664" cy="269.878" r="4" fill="#0" id="circle225"/>
	<circle cx="988.665" cy="317.553" r="4" fill="#0" id="circle226"/>
	<circle cx="996" cy="275.379" r="4" fill="#0" id="circle227"/>
	<circle cx="996" cy="299.216" r="4" fill="#0" id="circle228"/>
	</g>
</svg>