<?xml version="1.0" encoding="UTF-8" standalone="no"?>
<!-- Created with CurveBenchmark -->
<svg
	xmlns:dc="http://purl.org/dc/elements/1.1/"
	xmlns:cc="http://creativecommons.org/ns#"
	xmlns:rdf="http://www.w3.org/1999/02/22-rdf-syntax-ns#"
	xmlns:svg="http://www.w3.org/2000/svg"
	xmlns="http://www.w3.org/2000/svg"
	xmlns:sodipodi="http://sodipodi.sourceforge.net/DTD/sodipodi-0.dtd"
	xmlns:inkscape="http://www.inkscape.org/namespaces/inkscape"
	width="1000"
	height="1000"
	id="svg2"
	version="1.1"
	sodipodi:docname="manifold/stretchdenoise-cthand05.png.txt">
<defs
	id="defs4" />
<metadata
	id="metadata7">
	<rdf:RDF>
		<cc:Work
			rdf:about="">
			<dc:format>image/svg+xml</dc:format>
			<dc:type
				rdf:resource="http://purl.org/dc/dcmitype/StillImage" />
			<dc:title></dc:title>
		</cc:Work>
	</rdf:RDF>
</metadata>
<g
	inkscape:label="Layer 1"
	inkscape:groupmode="layer"
	id="layer1">
	<path style="fill:none;stroke:red;stroke-width:1px;stroke-linecap:butt;stroke-linejoin:miter;stroke-opacity:1" d="M 4.79698,328.254 4,360.858 z" id="boundary" inkscape:connector-curvature="0" />
	<path style="fill:none;stroke:red;stroke-width:1px;stroke-linecap:butt;stroke-linejoin:miter;stroke-opacity:1" d="M 4.79698,328.254 12.1848,303.564 z" id="boundary" inkscape:connector-curvature="0" />
	<path style="fill:none;stroke:red;stroke-width:1px;stroke-linecap:butt;stroke-linejoin:miter;stroke-opacity:1" d="M 4,360.858 4,409.967 z" id="boundary" inkscape:connector-curvature="0" />
	<path style="fill:none;stroke:red;stroke-width:1px;stroke-linecap:butt;stroke-linejoin:miter;stroke-opacity:1" d="M 4,409.967 12.1848,457.439 z" id="boundary" inkscape:connector-curvature="0" />
	<path style="fill:none;stroke:red;stroke-width:1px;stroke-linecap:butt;stroke-linejoin:miter;stroke-opacity:1" d="M 12.1848,287.195 12.1848,303.564 z" id="boundary" inkscape:connector-curvature="0" />
	<path style="fill:none;stroke:red;stroke-width:1px;stroke-linecap:butt;stroke-linejoin:miter;stroke-opacity:1" d="M 12.1848,287.195 23.0715,264.643 z" id="boundary" inkscape:connector-curvature="0" />
	<path style="fill:none;stroke:red;stroke-width:1px;stroke-linecap:butt;stroke-linejoin:miter;stroke-opacity:1" d="M 12.1848,457.439 12.1848,490.178 z" id="boundary" inkscape:connector-curvature="0" />
	<path style="fill:none;stroke:red;stroke-width:1px;stroke-linecap:butt;stroke-linejoin:miter;stroke-opacity:1" d="M 12.1848,490.178 12.1848,506.548 z" id="boundary" inkscape:connector-curvature="0" />
	<path style="fill:none;stroke:red;stroke-width:1px;stroke-linecap:butt;stroke-linejoin:miter;stroke-opacity:1" d="M 12.1848,506.548 12.1848,522.917 z" id="boundary" inkscape:connector-curvature="0" />
	<path style="fill:none;stroke:red;stroke-width:1px;stroke-linecap:butt;stroke-linejoin:miter;stroke-opacity:1" d="M 12.1848,522.917 12.1848,539.287 z" id="boundary" inkscape:connector-curvature="0" />
	<path style="fill:none;stroke:red;stroke-width:1px;stroke-linecap:butt;stroke-linejoin:miter;stroke-opacity:1" d="M 12.1848,539.287 12.1848,555.657 z" id="boundary" inkscape:connector-curvature="0" />
	<path style="fill:none;stroke:red;stroke-width:1px;stroke-linecap:butt;stroke-linejoin:miter;stroke-opacity:1" d="M 12.1848,555.657 12.1848,572.026 z" id="boundary" inkscape:connector-curvature="0" />
	<path style="fill:none;stroke:red;stroke-width:1px;stroke-linecap:butt;stroke-linejoin:miter;stroke-opacity:1" d="M 12.1848,572.026 12.1848,588.396 z" id="boundary" inkscape:connector-curvature="0" />
	<path style="fill:none;stroke:red;stroke-width:1px;stroke-linecap:butt;stroke-linejoin:miter;stroke-opacity:1" d="M 12.1848,588.396 12.1848,604.766 z" id="boundary" inkscape:connector-curvature="0" />
	<path style="fill:none;stroke:red;stroke-width:1px;stroke-linecap:butt;stroke-linejoin:miter;stroke-opacity:1" d="M 12.1848,604.766 12.1848,621.135 z" id="boundary" inkscape:connector-curvature="0" />
	<path style="fill:none;stroke:red;stroke-width:1px;stroke-linecap:butt;stroke-linejoin:miter;stroke-opacity:1" d="M 12.1848,621.135 12.1848,637.505 z" id="boundary" inkscape:connector-curvature="0" />
	<path style="fill:none;stroke:red;stroke-width:1px;stroke-linecap:butt;stroke-linejoin:miter;stroke-opacity:1" d="M 12.1848,637.505 20.3696,652.238 z" id="boundary" inkscape:connector-curvature="0" />
	<path style="fill:none;stroke:red;stroke-width:1px;stroke-linecap:butt;stroke-linejoin:miter;stroke-opacity:1" d="M 23.0715,264.643 36.7393,254.455 z" id="boundary" inkscape:connector-curvature="0" />
	<path style="fill:none;stroke:red;stroke-width:1px;stroke-linecap:butt;stroke-linejoin:miter;stroke-opacity:1" d="M 20.3696,652.238 20.3696,668.607 z" id="boundary" inkscape:connector-curvature="0" />
	<path style="fill:none;stroke:red;stroke-width:1px;stroke-linecap:butt;stroke-linejoin:miter;stroke-opacity:1" d="M 20.3696,668.607 20.3696,684.977 z" id="boundary" inkscape:connector-curvature="0" />
	<path style="fill:none;stroke:red;stroke-width:1px;stroke-linecap:butt;stroke-linejoin:miter;stroke-opacity:1" d="M 20.3696,684.977 20.3696,701.347 z" id="boundary" inkscape:connector-curvature="0" />
	<path style="fill:none;stroke:red;stroke-width:1px;stroke-linecap:butt;stroke-linejoin:miter;stroke-opacity:1" d="M 20.3696,701.347 20.3696,717.716 z" id="boundary" inkscape:connector-curvature="0" />
	<path style="fill:none;stroke:red;stroke-width:1px;stroke-linecap:butt;stroke-linejoin:miter;stroke-opacity:1" d="M 20.3696,717.716 28.5545,732.449 z" id="boundary" inkscape:connector-curvature="0" />
	<path style="fill:none;stroke:red;stroke-width:1px;stroke-linecap:butt;stroke-linejoin:miter;stroke-opacity:1" d="M 28.5545,732.449 28.5545,748.818 z" id="boundary" inkscape:connector-curvature="0" />
	<path style="fill:none;stroke:red;stroke-width:1px;stroke-linecap:butt;stroke-linejoin:miter;stroke-opacity:1" d="M 28.5545,748.818 31.8284,765.188 z" id="boundary" inkscape:connector-curvature="0" />
	<path style="fill:none;stroke:red;stroke-width:1px;stroke-linecap:butt;stroke-linejoin:miter;stroke-opacity:1" d="M 31.8284,765.188 36.7393,781.558 z" id="boundary" inkscape:connector-curvature="0" />
	<path style="fill:none;stroke:red;stroke-width:1px;stroke-linecap:butt;stroke-linejoin:miter;stroke-opacity:1" d="M 36.7393,254.455 50.9182,242.993 z" id="boundary" inkscape:connector-curvature="0" />
	<path style="fill:none;stroke:red;stroke-width:1px;stroke-linecap:butt;stroke-linejoin:miter;stroke-opacity:1" d="M 36.7393,781.558 40.0132,797.927 z" id="boundary" inkscape:connector-curvature="0" />
	<path style="fill:none;stroke:red;stroke-width:1px;stroke-linecap:butt;stroke-linejoin:miter;stroke-opacity:1" d="M 40.0132,797.927 48.198,812.66 z" id="boundary" inkscape:connector-curvature="0" />
	<path style="fill:none;stroke:red;stroke-width:1px;stroke-linecap:butt;stroke-linejoin:miter;stroke-opacity:1" d="M 48.198,812.66 53.1089,829.03 z" id="boundary" inkscape:connector-curvature="0" />
	<path style="fill:none;stroke:red;stroke-width:1px;stroke-linecap:butt;stroke-linejoin:miter;stroke-opacity:1" d="M 50.9182,242.993 16.8693,189.993 z" id="boundary" inkscape:connector-curvature="0" />
	<path style="fill:none;stroke:red;stroke-width:1px;stroke-linecap:butt;stroke-linejoin:miter;stroke-opacity:1" d="M 53.1089,829.03 53.1089,845.399 z" id="boundary" inkscape:connector-curvature="0" />
	<path style="fill:none;stroke:red;stroke-width:1px;stroke-linecap:butt;stroke-linejoin:miter;stroke-opacity:1" d="M 53.1089,845.399 54.7459,861.769 z" id="boundary" inkscape:connector-curvature="0" />
	<path style="fill:none;stroke:red;stroke-width:1px;stroke-linecap:butt;stroke-linejoin:miter;stroke-opacity:1" d="M 54.7459,861.769 62.9307,876.502 z" id="boundary" inkscape:connector-curvature="0" />
	<path style="fill:none;stroke:red;stroke-width:1px;stroke-linecap:butt;stroke-linejoin:miter;stroke-opacity:1" d="M 62.9307,876.502 69.4785,892.871 z" id="boundary" inkscape:connector-curvature="0" />
	<path style="fill:none;stroke:red;stroke-width:1px;stroke-linecap:butt;stroke-linejoin:miter;stroke-opacity:1" d="M 69.4785,892.871 77.6634,907.604 z" id="boundary" inkscape:connector-curvature="0" />
	<path style="fill:none;stroke:red;stroke-width:1px;stroke-linecap:butt;stroke-linejoin:miter;stroke-opacity:1" d="M 69.4785,966.535 69.4785,982.904 z" id="boundary" inkscape:connector-curvature="0" />
	<path style="fill:none;stroke:red;stroke-width:1px;stroke-linecap:butt;stroke-linejoin:miter;stroke-opacity:1" d="M 69.4785,966.535 77.6634,940.343 z" id="boundary" inkscape:connector-curvature="0" />
	<path style="fill:none;stroke:red;stroke-width:1px;stroke-linecap:butt;stroke-linejoin:miter;stroke-opacity:1" d="M 69.4785,982.904 79.3003,996 z" id="boundary" inkscape:connector-curvature="0" />
	<path style="fill:none;stroke:red;stroke-width:1px;stroke-linecap:butt;stroke-linejoin:miter;stroke-opacity:1" d="M 77.6634,907.604 77.6634,923.974 z" id="boundary" inkscape:connector-curvature="0" />
	<path style="fill:none;stroke:red;stroke-width:1px;stroke-linecap:butt;stroke-linejoin:miter;stroke-opacity:1" d="M 77.6634,923.974 77.6634,940.343 z" id="boundary" inkscape:connector-curvature="0" />
	<path style="fill:none;stroke:red;stroke-width:1px;stroke-linecap:butt;stroke-linejoin:miter;stroke-opacity:1" d="M 79.3003,996 95.67,996 z" id="boundary" inkscape:connector-curvature="0" />
	<path style="fill:none;stroke:red;stroke-width:1px;stroke-linecap:butt;stroke-linejoin:miter;stroke-opacity:1" d="M 95.67,996 112.04,996 z" id="boundary" inkscape:connector-curvature="0" />
	<path style="fill:none;stroke:red;stroke-width:1px;stroke-linecap:butt;stroke-linejoin:miter;stroke-opacity:1" d="M 112.04,996 128.409,996 z" id="boundary" inkscape:connector-curvature="0" />
	<path style="fill:none;stroke:red;stroke-width:1px;stroke-linecap:butt;stroke-linejoin:miter;stroke-opacity:1" d="M 126.772,148.053 126.772,164.422 z" id="boundary" inkscape:connector-curvature="0" />
	<path style="fill:none;stroke:red;stroke-width:1px;stroke-linecap:butt;stroke-linejoin:miter;stroke-opacity:1" d="M 126.772,148.053 134.957,131.683 z" id="boundary" inkscape:connector-curvature="0" />
	<path style="fill:none;stroke:red;stroke-width:1px;stroke-linecap:butt;stroke-linejoin:miter;stroke-opacity:1" d="M 126.772,164.422 126.772,180.792 z" id="boundary" inkscape:connector-curvature="0" />
	<path style="fill:none;stroke:red;stroke-width:1px;stroke-linecap:butt;stroke-linejoin:miter;stroke-opacity:1" d="M 126.772,180.792 126.772,197.162 z" id="boundary" inkscape:connector-curvature="0" />
	<path style="fill:none;stroke:red;stroke-width:1px;stroke-linecap:butt;stroke-linejoin:miter;stroke-opacity:1" d="M 126.772,197.162 126.772,213.531 z" id="boundary" inkscape:connector-curvature="0" />
	<path style="fill:none;stroke:red;stroke-width:1px;stroke-linecap:butt;stroke-linejoin:miter;stroke-opacity:1" d="M 126.772,213.531 126.772,229.901 z" id="boundary" inkscape:connector-curvature="0" />
	<path style="fill:none;stroke:red;stroke-width:1px;stroke-linecap:butt;stroke-linejoin:miter;stroke-opacity:1" d="M 126.772,229.901 126.772,246.271 z" id="boundary" inkscape:connector-curvature="0" />
	<path style="fill:none;stroke:red;stroke-width:1px;stroke-linecap:butt;stroke-linejoin:miter;stroke-opacity:1" d="M 128.409,996 144.779,996 z" id="boundary" inkscape:connector-curvature="0" />
	<path style="fill:none;stroke:red;stroke-width:1px;stroke-linecap:butt;stroke-linejoin:miter;stroke-opacity:1" d="M 134.957,131.683 148.053,118.587 z" id="boundary" inkscape:connector-curvature="0" />
	<path style="fill:none;stroke:red;stroke-width:1px;stroke-linecap:butt;stroke-linejoin:miter;stroke-opacity:1" d="M 144.779,996 161.149,996 z" id="boundary" inkscape:connector-curvature="0" />
	<path style="fill:none;stroke:red;stroke-width:1px;stroke-linecap:butt;stroke-linejoin:miter;stroke-opacity:1" d="M 148.053,118.587 161.149,105.492 z" id="boundary" inkscape:connector-curvature="0" />
	<path style="fill:none;stroke:red;stroke-width:1px;stroke-linecap:butt;stroke-linejoin:miter;stroke-opacity:1" d="M 161.149,105.492 174.244,94.033 z" id="boundary" inkscape:connector-curvature="0" />
	<path style="fill:none;stroke:red;stroke-width:1px;stroke-linecap:butt;stroke-linejoin:miter;stroke-opacity:1" d="M 161.149,996 177.518,996 z" id="boundary" inkscape:connector-curvature="0" />
	<path style="fill:none;stroke:red;stroke-width:1px;stroke-linecap:butt;stroke-linejoin:miter;stroke-opacity:1" d="M 174.244,94.033 185.703,80.9373 z" id="boundary" inkscape:connector-curvature="0" />
	<path style="fill:none;stroke:red;stroke-width:1px;stroke-linecap:butt;stroke-linejoin:miter;stroke-opacity:1" d="M 177.518,996 193.888,996 z" id="boundary" inkscape:connector-curvature="0" />
	<path style="fill:none;stroke:red;stroke-width:1px;stroke-linecap:butt;stroke-linejoin:miter;stroke-opacity:1" d="M 185.703,80.9373 193.888,95.67 z" id="boundary" inkscape:connector-curvature="0" />
	<path style="fill:none;stroke:red;stroke-width:1px;stroke-linecap:butt;stroke-linejoin:miter;stroke-opacity:1" d="M 193.888,95.67 206.983,105.492 z" id="boundary" inkscape:connector-curvature="0" />
	<path style="fill:none;stroke:red;stroke-width:1px;stroke-linecap:butt;stroke-linejoin:miter;stroke-opacity:1" d="M 193.888,996 210.257,996 z" id="boundary" inkscape:connector-curvature="0" />
	<path style="fill:none;stroke:red;stroke-width:1px;stroke-linecap:butt;stroke-linejoin:miter;stroke-opacity:1" d="M 202.073,267.551 202.073,333.03 z" id="boundary" inkscape:connector-curvature="0" />
	<path style="fill:none;stroke:red;stroke-width:1px;stroke-linecap:butt;stroke-linejoin:miter;stroke-opacity:1" d="M 202.073,267.551 233.175,254.455 z" id="boundary" inkscape:connector-curvature="0" />
	<path style="fill:none;stroke:red;stroke-width:1px;stroke-linecap:butt;stroke-linejoin:miter;stroke-opacity:1" d="M 202.073,333.03 210.257,380.502 z" id="boundary" inkscape:connector-curvature="0" />
	<path style="fill:none;stroke:red;stroke-width:1px;stroke-linecap:butt;stroke-linejoin:miter;stroke-opacity:1" d="M 210.257,996 226.627,996 z" id="boundary" inkscape:connector-curvature="0" />
	<path style="fill:none;stroke:red;stroke-width:1px;stroke-linecap:butt;stroke-linejoin:miter;stroke-opacity:1" d="M 226.627,996 242.997,996 z" id="boundary" inkscape:connector-curvature="0" />
	<path style="fill:none;stroke:red;stroke-width:1px;stroke-linecap:butt;stroke-linejoin:miter;stroke-opacity:1" d="M 233.175,221.716 233.175,254.455 z" id="boundary" inkscape:connector-curvature="0" />
	<path style="fill:none;stroke:red;stroke-width:1px;stroke-linecap:butt;stroke-linejoin:miter;stroke-opacity:1" d="M 233.175,221.716 241.36,205.347 z" id="boundary" inkscape:connector-curvature="0" />
	<path style="fill:none;stroke:red;stroke-width:1px;stroke-linecap:butt;stroke-linejoin:miter;stroke-opacity:1" d="M 241.36,172.607 241.36,205.347 z" id="boundary" inkscape:connector-curvature="0" />
	<path style="fill:none;stroke:red;stroke-width:1px;stroke-linecap:butt;stroke-linejoin:miter;stroke-opacity:1" d="M 242.997,996 259.366,996 z" id="boundary" inkscape:connector-curvature="0" />
	<path style="fill:none;stroke:red;stroke-width:1px;stroke-linecap:butt;stroke-linejoin:miter;stroke-opacity:1" d="M 249.545,49.835 249.545,66.2046 z" id="boundary" inkscape:connector-curvature="0" />
	<path style="fill:none;stroke:red;stroke-width:1px;stroke-linecap:butt;stroke-linejoin:miter;stroke-opacity:1" d="M 249.545,49.835 262.64,36.7393 z" id="boundary" inkscape:connector-curvature="0" />
	<path style="fill:none;stroke:red;stroke-width:1px;stroke-linecap:butt;stroke-linejoin:miter;stroke-opacity:1" d="M 249.545,66.2046 249.545,82.5743 z" id="boundary" inkscape:connector-curvature="0" />
	<path style="fill:none;stroke:red;stroke-width:1px;stroke-linecap:butt;stroke-linejoin:miter;stroke-opacity:1" d="M 249.545,82.5743 249.545,115.314 z" id="boundary" inkscape:connector-curvature="0" />
	<path style="fill:none;stroke:red;stroke-width:1px;stroke-linecap:butt;stroke-linejoin:miter;stroke-opacity:1" d="M 259.366,996 275.736,996 z" id="boundary" inkscape:connector-curvature="0" />
	<path style="fill:none;stroke:red;stroke-width:1px;stroke-linecap:butt;stroke-linejoin:miter;stroke-opacity:1" d="M 262.64,36.7393 275.736,23.6436 z" id="boundary" inkscape:connector-curvature="0" />
	<path style="fill:none;stroke:red;stroke-width:1px;stroke-linecap:butt;stroke-linejoin:miter;stroke-opacity:1" d="M 275.736,23.6436 288.832,12.1848 z" id="boundary" inkscape:connector-curvature="0" />
	<path style="fill:none;stroke:red;stroke-width:1px;stroke-linecap:butt;stroke-linejoin:miter;stroke-opacity:1" d="M 275.736,996 292.106,996 z" id="boundary" inkscape:connector-curvature="0" />
	<path style="fill:none;stroke:red;stroke-width:1px;stroke-linecap:butt;stroke-linejoin:miter;stroke-opacity:1" d="M 288.832,12.1848 303.564,4 z" id="boundary" inkscape:connector-curvature="0" />
	<path style="fill:none;stroke:red;stroke-width:1px;stroke-linecap:butt;stroke-linejoin:miter;stroke-opacity:1" d="M 292.106,996 308.475,996 z" id="boundary" inkscape:connector-curvature="0" />
	<path style="fill:none;stroke:red;stroke-width:1px;stroke-linecap:butt;stroke-linejoin:miter;stroke-opacity:1" d="M 303.564,4 308.475,20.3696 z" id="boundary" inkscape:connector-curvature="0" />
	<path style="fill:none;stroke:red;stroke-width:1px;stroke-linecap:butt;stroke-linejoin:miter;stroke-opacity:1" d="M 308.475,20.3696 321.571,30.1914 z" id="boundary" inkscape:connector-curvature="0" />
	<path style="fill:none;stroke:red;stroke-width:1px;stroke-linecap:butt;stroke-linejoin:miter;stroke-opacity:1" d="M 308.475,996 324.845,996 z" id="boundary" inkscape:connector-curvature="0" />
	<path style="fill:none;stroke:red;stroke-width:1px;stroke-linecap:butt;stroke-linejoin:miter;stroke-opacity:1" d="M 321.571,30.1914 333.03,43.2871 z" id="boundary" inkscape:connector-curvature="0" />
	<path style="fill:none;stroke:red;stroke-width:1px;stroke-linecap:butt;stroke-linejoin:miter;stroke-opacity:1" d="M 324.845,308.475 347.762,287.195 z" id="boundary" inkscape:connector-curvature="0" />
	<path style="fill:none;stroke:red;stroke-width:1px;stroke-linecap:butt;stroke-linejoin:miter;stroke-opacity:1" d="M 324.845,308.475 355.947,367.406 z" id="boundary" inkscape:connector-curvature="0" />
	<path style="fill:none;stroke:red;stroke-width:1px;stroke-linecap:butt;stroke-linejoin:miter;stroke-opacity:1" d="M 324.845,996 341.215,996 z" id="boundary" inkscape:connector-curvature="0" />
	<path style="fill:none;stroke:red;stroke-width:1px;stroke-linecap:butt;stroke-linejoin:miter;stroke-opacity:1" d="M 333.03,43.2871 333.03,59.6568 z" id="boundary" inkscape:connector-curvature="0" />
	<path style="fill:none;stroke:red;stroke-width:1px;stroke-linecap:butt;stroke-linejoin:miter;stroke-opacity:1" d="M 333.03,59.6568 333.03,76.0264 z" id="boundary" inkscape:connector-curvature="0" />
	<path style="fill:none;stroke:red;stroke-width:1px;stroke-linecap:butt;stroke-linejoin:miter;stroke-opacity:1" d="M 333.03,76.0264 333.03,108.766 z" id="boundary" inkscape:connector-curvature="0" />
	<path style="fill:none;stroke:red;stroke-width:1px;stroke-linecap:butt;stroke-linejoin:miter;stroke-opacity:1" d="M 333.03,108.766 333.03,125.135 z" id="boundary" inkscape:connector-curvature="0" />
	<path style="fill:none;stroke:red;stroke-width:1px;stroke-linecap:butt;stroke-linejoin:miter;stroke-opacity:1" d="M 333.03,125.135 355.947,139.868 z" id="boundary" inkscape:connector-curvature="0" />
	<path style="fill:none;stroke:red;stroke-width:1px;stroke-linecap:butt;stroke-linejoin:miter;stroke-opacity:1" d="M 341.215,996 357.584,996 z" id="boundary" inkscape:connector-curvature="0" />
	<path style="fill:none;stroke:red;stroke-width:1px;stroke-linecap:butt;stroke-linejoin:miter;stroke-opacity:1" d="M 347.762,287.195 355.947,270.825 z" id="boundary" inkscape:connector-curvature="0" />
	<path style="fill:none;stroke:red;stroke-width:1px;stroke-linecap:butt;stroke-linejoin:miter;stroke-opacity:1" d="M 355.947,139.868 355.947,156.238 z" id="boundary" inkscape:connector-curvature="0" />
	<path style="fill:none;stroke:red;stroke-width:1px;stroke-linecap:butt;stroke-linejoin:miter;stroke-opacity:1" d="M 355.947,156.238 355.947,172.607 z" id="boundary" inkscape:connector-curvature="0" />
	<path style="fill:none;stroke:red;stroke-width:1px;stroke-linecap:butt;stroke-linejoin:miter;stroke-opacity:1" d="M 355.947,172.607 364.132,203.71 z" id="boundary" inkscape:connector-curvature="0" />
	<path style="fill:none;stroke:red;stroke-width:1px;stroke-linecap:butt;stroke-linejoin:miter;stroke-opacity:1" d="M 355.947,254.455 355.947,270.825 z" id="boundary" inkscape:connector-curvature="0" />
	<path style="fill:none;stroke:red;stroke-width:1px;stroke-linecap:butt;stroke-linejoin:miter;stroke-opacity:1" d="M 355.947,254.455 364.132,236.449 z" id="boundary" inkscape:connector-curvature="0" />
	<path style="fill:none;stroke:red;stroke-width:1px;stroke-linecap:butt;stroke-linejoin:miter;stroke-opacity:1" d="M 357.584,996 373.954,996 z" id="boundary" inkscape:connector-curvature="0" />
	<path style="fill:none;stroke:red;stroke-width:1px;stroke-linecap:butt;stroke-linejoin:miter;stroke-opacity:1" d="M 364.132,203.71 364.132,236.449 z" id="boundary" inkscape:connector-curvature="0" />
	<path style="fill:none;stroke:red;stroke-width:1px;stroke-linecap:butt;stroke-linejoin:miter;stroke-opacity:1" d="M 372.317,74.3894 385.413,61.2937 z" id="boundary" inkscape:connector-curvature="0" />
	<path style="fill:none;stroke:red;stroke-width:1px;stroke-linecap:butt;stroke-linejoin:miter;stroke-opacity:1" d="M 373.954,996 390.323,996 z" id="boundary" inkscape:connector-curvature="0" />
	<path style="fill:none;stroke:red;stroke-width:1px;stroke-linecap:butt;stroke-linejoin:miter;stroke-opacity:1" d="M 385.413,61.2937 400.145,69.4785 z" id="boundary" inkscape:connector-curvature="0" />
	<path style="fill:none;stroke:red;stroke-width:1px;stroke-linecap:butt;stroke-linejoin:miter;stroke-opacity:1" d="M 390.323,996 406.693,979.63 z" id="boundary" inkscape:connector-curvature="0" />
	<path style="fill:none;stroke:red;stroke-width:1px;stroke-linecap:butt;stroke-linejoin:miter;stroke-opacity:1" d="M 400.145,69.4785 406.693,85.8482 z" id="boundary" inkscape:connector-curvature="0" />
	<path style="fill:none;stroke:red;stroke-width:1px;stroke-linecap:butt;stroke-linejoin:miter;stroke-opacity:1" d="M 406.693,85.8482 419.789,95.67 z" id="boundary" inkscape:connector-curvature="0" />
	<path style="fill:none;stroke:red;stroke-width:1px;stroke-linecap:butt;stroke-linejoin:miter;stroke-opacity:1" d="M 406.693,979.63 423.063,971.446 z" id="boundary" inkscape:connector-curvature="0" />
	<path style="fill:none;stroke:red;stroke-width:1px;stroke-linecap:butt;stroke-linejoin:miter;stroke-opacity:1" d="M 419.789,95.67 431.248,108.766 z" id="boundary" inkscape:connector-curvature="0" />
	<path style="fill:none;stroke:red;stroke-width:1px;stroke-linecap:butt;stroke-linejoin:miter;stroke-opacity:1" d="M 423.063,971.446 436.158,959.987 z" id="boundary" inkscape:connector-curvature="0" />
	<path style="fill:none;stroke:red;stroke-width:1px;stroke-linecap:butt;stroke-linejoin:miter;stroke-opacity:1" d="M 431.248,108.766 439.432,123.498 z" id="boundary" inkscape:connector-curvature="0" />
	<path style="fill:none;stroke:red;stroke-width:1px;stroke-linecap:butt;stroke-linejoin:miter;stroke-opacity:1" d="M 436.158,959.987 444.343,943.617 z" id="boundary" inkscape:connector-curvature="0" />
	<path style="fill:none;stroke:red;stroke-width:1px;stroke-linecap:butt;stroke-linejoin:miter;stroke-opacity:1" d="M 439.432,123.498 439.432,139.868 z" id="boundary" inkscape:connector-curvature="0" />
	<path style="fill:none;stroke:red;stroke-width:1px;stroke-linecap:butt;stroke-linejoin:miter;stroke-opacity:1" d="M 439.432,139.868 439.432,156.238 z" id="boundary" inkscape:connector-curvature="0" />
	<path style="fill:none;stroke:red;stroke-width:1px;stroke-linecap:butt;stroke-linejoin:miter;stroke-opacity:1" d="M 439.432,156.238 439.432,172.607 z" id="boundary" inkscape:connector-curvature="0" />
	<path style="fill:none;stroke:red;stroke-width:1px;stroke-linecap:butt;stroke-linejoin:miter;stroke-opacity:1" d="M 439.432,172.607 447.617,187.34 z" id="boundary" inkscape:connector-curvature="0" />
	<path style="fill:none;stroke:red;stroke-width:1px;stroke-linecap:butt;stroke-linejoin:miter;stroke-opacity:1" d="M 444.343,943.617 460.713,935.432 z" id="boundary" inkscape:connector-curvature="0" />
	<path style="fill:none;stroke:red;stroke-width:1px;stroke-linecap:butt;stroke-linejoin:miter;stroke-opacity:1" d="M 447.617,187.34 447.617,203.71 z" id="boundary" inkscape:connector-curvature="0" />
	<path style="fill:none;stroke:red;stroke-width:1px;stroke-linecap:butt;stroke-linejoin:miter;stroke-opacity:1" d="M 447.617,203.71 447.617,220.079 z" id="boundary" inkscape:connector-curvature="0" />
	<path style="fill:none;stroke:red;stroke-width:1px;stroke-linecap:butt;stroke-linejoin:miter;stroke-opacity:1" d="M 447.617,220.079 447.617,236.449 z" id="boundary" inkscape:connector-curvature="0" />
	<path style="fill:none;stroke:red;stroke-width:1px;stroke-linecap:butt;stroke-linejoin:miter;stroke-opacity:1" d="M 447.617,236.449 447.617,252.818 z" id="boundary" inkscape:connector-curvature="0" />
	<path style="fill:none;stroke:red;stroke-width:1px;stroke-linecap:butt;stroke-linejoin:miter;stroke-opacity:1" d="M 447.617,252.818 447.617,269.188 z" id="boundary" inkscape:connector-curvature="0" />
	<path style="fill:none;stroke:red;stroke-width:1px;stroke-linecap:butt;stroke-linejoin:miter;stroke-opacity:1" d="M 447.617,269.188 447.617,285.558 z" id="boundary" inkscape:connector-curvature="0" />
	<path style="fill:none;stroke:red;stroke-width:1px;stroke-linecap:butt;stroke-linejoin:miter;stroke-opacity:1" d="M 447.617,285.558 447.617,301.927 z" id="boundary" inkscape:connector-curvature="0" />
	<path style="fill:none;stroke:red;stroke-width:1px;stroke-linecap:butt;stroke-linejoin:miter;stroke-opacity:1" d="M 447.617,301.927 447.617,318.297 z" id="boundary" inkscape:connector-curvature="0" />
	<path style="fill:none;stroke:red;stroke-width:1px;stroke-linecap:butt;stroke-linejoin:miter;stroke-opacity:1" d="M 447.617,318.297 447.617,334.667 z" id="boundary" inkscape:connector-curvature="0" />
	<path style="fill:none;stroke:red;stroke-width:1px;stroke-linecap:butt;stroke-linejoin:miter;stroke-opacity:1" d="M 447.617,334.667 447.617,351.036 z" id="boundary" inkscape:connector-curvature="0" />
	<path style="fill:none;stroke:red;stroke-width:1px;stroke-linecap:butt;stroke-linejoin:miter;stroke-opacity:1" d="M 447.617,351.036 447.617,367.406 z" id="boundary" inkscape:connector-curvature="0" />
	<path style="fill:none;stroke:red;stroke-width:1px;stroke-linecap:butt;stroke-linejoin:miter;stroke-opacity:1" d="M 447.617,367.406 447.617,383.776 z" id="boundary" inkscape:connector-curvature="0" />
	<path style="fill:none;stroke:red;stroke-width:1px;stroke-linecap:butt;stroke-linejoin:miter;stroke-opacity:1" d="M 447.617,383.776 447.617,400.145 z" id="boundary" inkscape:connector-curvature="0" />
	<path style="fill:none;stroke:red;stroke-width:1px;stroke-linecap:butt;stroke-linejoin:miter;stroke-opacity:1" d="M 447.617,400.145 447.617,416.515 z" id="boundary" inkscape:connector-curvature="0" />
	<path style="fill:none;stroke:red;stroke-width:1px;stroke-linecap:butt;stroke-linejoin:miter;stroke-opacity:1" d="M 447.617,416.515 447.617,432.884 z" id="boundary" inkscape:connector-curvature="0" />
	<path style="fill:none;stroke:red;stroke-width:1px;stroke-linecap:butt;stroke-linejoin:miter;stroke-opacity:1" d="M 447.617,432.884 447.617,449.254 z" id="boundary" inkscape:connector-curvature="0" />
	<path style="fill:none;stroke:red;stroke-width:1px;stroke-linecap:butt;stroke-linejoin:miter;stroke-opacity:1" d="M 447.617,449.254 455.802,463.987 z" id="boundary" inkscape:connector-curvature="0" />
	<path style="fill:none;stroke:red;stroke-width:1px;stroke-linecap:butt;stroke-linejoin:miter;stroke-opacity:1" d="M 455.802,463.987 459.076,480.356 z" id="boundary" inkscape:connector-curvature="0" />
	<path style="fill:none;stroke:red;stroke-width:1px;stroke-linecap:butt;stroke-linejoin:miter;stroke-opacity:1" d="M 459.076,480.356 463.987,496.726 z" id="boundary" inkscape:connector-curvature="0" />
	<path style="fill:none;stroke:red;stroke-width:1px;stroke-linecap:butt;stroke-linejoin:miter;stroke-opacity:1" d="M 460.713,935.432 472.172,922.337 z" id="boundary" inkscape:connector-curvature="0" />
	<path style="fill:none;stroke:red;stroke-width:1px;stroke-linecap:butt;stroke-linejoin:miter;stroke-opacity:1" d="M 463.987,496.726 467.261,513.096 z" id="boundary" inkscape:connector-curvature="0" />
	<path style="fill:none;stroke:red;stroke-width:1px;stroke-linecap:butt;stroke-linejoin:miter;stroke-opacity:1" d="M 467.261,513.096 472.172,529.465 z" id="boundary" inkscape:connector-curvature="0" />
	<path style="fill:none;stroke:red;stroke-width:1px;stroke-linecap:butt;stroke-linejoin:miter;stroke-opacity:1" d="M 472.172,529.465 472.172,545.835 z" id="boundary" inkscape:connector-curvature="0" />
	<path style="fill:none;stroke:red;stroke-width:1px;stroke-linecap:butt;stroke-linejoin:miter;stroke-opacity:1" d="M 472.172,545.835 480.356,560.568 z" id="boundary" inkscape:connector-curvature="0" />
	<path style="fill:none;stroke:red;stroke-width:1px;stroke-linecap:butt;stroke-linejoin:miter;stroke-opacity:1" d="M 472.172,922.337 480.356,905.967 z" id="boundary" inkscape:connector-curvature="0" />
	<path style="fill:none;stroke:red;stroke-width:1px;stroke-linecap:butt;stroke-linejoin:miter;stroke-opacity:1" d="M 480.356,560.568 480.356,576.937 z" id="boundary" inkscape:connector-curvature="0" />
	<path style="fill:none;stroke:red;stroke-width:1px;stroke-linecap:butt;stroke-linejoin:miter;stroke-opacity:1" d="M 480.356,576.937 480.356,593.307 z" id="boundary" inkscape:connector-curvature="0" />
	<path style="fill:none;stroke:red;stroke-width:1px;stroke-linecap:butt;stroke-linejoin:miter;stroke-opacity:1" d="M 480.356,593.307 503.274,598.218 z" id="boundary" inkscape:connector-curvature="0" />
	<path style="fill:none;stroke:red;stroke-width:1px;stroke-linecap:butt;stroke-linejoin:miter;stroke-opacity:1" d="M 480.356,905.967 488.541,889.597 z" id="boundary" inkscape:connector-curvature="0" />
	<path style="fill:none;stroke:red;stroke-width:1px;stroke-linecap:butt;stroke-linejoin:miter;stroke-opacity:1" d="M 488.541,889.597 496.726,873.228 z" id="boundary" inkscape:connector-curvature="0" />
	<path style="fill:none;stroke:red;stroke-width:1px;stroke-linecap:butt;stroke-linejoin:miter;stroke-opacity:1" d="M 496.726,873.228 509.822,861.769 z" id="boundary" inkscape:connector-curvature="0" />
	<path style="fill:none;stroke:red;stroke-width:1px;stroke-linecap:butt;stroke-linejoin:miter;stroke-opacity:1" d="M 503.274,598.218 511.459,573.663 z" id="boundary" inkscape:connector-curvature="0" />
	<path style="fill:none;stroke:red;stroke-width:1px;stroke-linecap:butt;stroke-linejoin:miter;stroke-opacity:1" d="M 509.822,861.769 513.096,840.488 z" id="boundary" inkscape:connector-curvature="0" />
	<path style="fill:none;stroke:red;stroke-width:1px;stroke-linecap:butt;stroke-linejoin:miter;stroke-opacity:1" d="M 511.459,475.446 511.459,491.815 z" id="boundary" inkscape:connector-curvature="0" />
	<path style="fill:none;stroke:red;stroke-width:1px;stroke-linecap:butt;stroke-linejoin:miter;stroke-opacity:1" d="M 511.459,475.446 519.644,450.891 z" id="boundary" inkscape:connector-curvature="0" />
	<path style="fill:none;stroke:red;stroke-width:1px;stroke-linecap:butt;stroke-linejoin:miter;stroke-opacity:1" d="M 511.459,491.815 511.459,508.185 z" id="boundary" inkscape:connector-curvature="0" />
	<path style="fill:none;stroke:red;stroke-width:1px;stroke-linecap:butt;stroke-linejoin:miter;stroke-opacity:1" d="M 511.459,508.185 511.459,524.554 z" id="boundary" inkscape:connector-curvature="0" />
	<path style="fill:none;stroke:red;stroke-width:1px;stroke-linecap:butt;stroke-linejoin:miter;stroke-opacity:1" d="M 511.459,524.554 511.459,540.924 z" id="boundary" inkscape:connector-curvature="0" />
	<path style="fill:none;stroke:red;stroke-width:1px;stroke-linecap:butt;stroke-linejoin:miter;stroke-opacity:1" d="M 511.459,540.924 511.459,557.294 z" id="boundary" inkscape:connector-curvature="0" />
	<path style="fill:none;stroke:red;stroke-width:1px;stroke-linecap:butt;stroke-linejoin:miter;stroke-opacity:1" d="M 511.459,557.294 511.459,573.663 z" id="boundary" inkscape:connector-curvature="0" />
	<path style="fill:none;stroke:red;stroke-width:1px;stroke-linecap:butt;stroke-linejoin:miter;stroke-opacity:1" d="M 513.096,840.488 521.281,824.119 z" id="boundary" inkscape:connector-curvature="0" />
	<path style="fill:none;stroke:red;stroke-width:1px;stroke-linecap:butt;stroke-linejoin:miter;stroke-opacity:1" d="M 519.644,434.521 519.644,450.891 z" id="boundary" inkscape:connector-curvature="0" />
	<path style="fill:none;stroke:red;stroke-width:1px;stroke-linecap:butt;stroke-linejoin:miter;stroke-opacity:1" d="M 519.644,434.521 527.828,418.152 z" id="boundary" inkscape:connector-curvature="0" />
	<path style="fill:none;stroke:red;stroke-width:1px;stroke-linecap:butt;stroke-linejoin:miter;stroke-opacity:1" d="M 521.281,824.119 529.465,807.749 z" id="boundary" inkscape:connector-curvature="0" />
	<path style="fill:none;stroke:red;stroke-width:1px;stroke-linecap:butt;stroke-linejoin:miter;stroke-opacity:1" d="M 527.828,418.152 540.924,405.056 z" id="boundary" inkscape:connector-curvature="0" />
	<path style="fill:none;stroke:red;stroke-width:1px;stroke-linecap:butt;stroke-linejoin:miter;stroke-opacity:1" d="M 529.465,807.749 542.561,796.29 z" id="boundary" inkscape:connector-curvature="0" />
	<path style="fill:none;stroke:red;stroke-width:1px;stroke-linecap:butt;stroke-linejoin:miter;stroke-opacity:1" d="M 540.924,405.056 549.109,388.686 z" id="boundary" inkscape:connector-curvature="0" />
	<path style="fill:none;stroke:red;stroke-width:1px;stroke-linecap:butt;stroke-linejoin:miter;stroke-opacity:1" d="M 542.561,796.29 550.746,779.921 z" id="boundary" inkscape:connector-curvature="0" />
	<path style="fill:none;stroke:red;stroke-width:1px;stroke-linecap:butt;stroke-linejoin:miter;stroke-opacity:1" d="M 549.109,388.686 563.842,380.502 z" id="boundary" inkscape:connector-curvature="0" />
	<path style="fill:none;stroke:red;stroke-width:1px;stroke-linecap:butt;stroke-linejoin:miter;stroke-opacity:1" d="M 550.746,779.921 562.205,766.825 z" id="boundary" inkscape:connector-curvature="0" />
	<path style="fill:none;stroke:red;stroke-width:1px;stroke-linecap:butt;stroke-linejoin:miter;stroke-opacity:1" d="M 562.205,766.825 570.389,750.455 z" id="boundary" inkscape:connector-curvature="0" />
	<path style="fill:none;stroke:red;stroke-width:1px;stroke-linecap:butt;stroke-linejoin:miter;stroke-opacity:1" d="M 563.842,380.502 580.211,380.502 z" id="boundary" inkscape:connector-curvature="0" />
	<path style="fill:none;stroke:red;stroke-width:1px;stroke-linecap:butt;stroke-linejoin:miter;stroke-opacity:1" d="M 570.389,750.455 578.574,734.086 z" id="boundary" inkscape:connector-curvature="0" />
	<path style="fill:none;stroke:red;stroke-width:1px;stroke-linecap:butt;stroke-linejoin:miter;stroke-opacity:1" d="M 578.574,701.347 578.574,717.716 z" id="boundary" inkscape:connector-curvature="0" />
	<path style="fill:none;stroke:red;stroke-width:1px;stroke-linecap:butt;stroke-linejoin:miter;stroke-opacity:1" d="M 578.574,701.347 586.759,676.792 z" id="boundary" inkscape:connector-curvature="0" />
	<path style="fill:none;stroke:red;stroke-width:1px;stroke-linecap:butt;stroke-linejoin:miter;stroke-opacity:1" d="M 578.574,717.716 578.574,734.086 z" id="boundary" inkscape:connector-curvature="0" />
	<path style="fill:none;stroke:red;stroke-width:1px;stroke-linecap:butt;stroke-linejoin:miter;stroke-opacity:1" d="M 580.211,380.502 586.759,396.871 z" id="boundary" inkscape:connector-curvature="0" />
	<path style="fill:none;stroke:red;stroke-width:1px;stroke-linecap:butt;stroke-linejoin:miter;stroke-opacity:1" d="M 586.759,396.871 594.944,411.604 z" id="boundary" inkscape:connector-curvature="0" />
	<path style="fill:none;stroke:red;stroke-width:1px;stroke-linecap:butt;stroke-linejoin:miter;stroke-opacity:1" d="M 586.759,660.422 586.759,676.792 z" id="boundary" inkscape:connector-curvature="0" />
	<path style="fill:none;stroke:red;stroke-width:1px;stroke-linecap:butt;stroke-linejoin:miter;stroke-opacity:1" d="M 586.759,660.422 594.944,644.053 z" id="boundary" inkscape:connector-curvature="0" />
	<path style="fill:none;stroke:red;stroke-width:1px;stroke-linecap:butt;stroke-linejoin:miter;stroke-opacity:1" d="M 594.944,411.604 603.129,426.337 z" id="boundary" inkscape:connector-curvature="0" />
	<path style="fill:none;stroke:red;stroke-width:1px;stroke-linecap:butt;stroke-linejoin:miter;stroke-opacity:1" d="M 594.944,627.683 594.944,644.053 z" id="boundary" inkscape:connector-curvature="0" />
	<path style="fill:none;stroke:red;stroke-width:1px;stroke-linecap:butt;stroke-linejoin:miter;stroke-opacity:1" d="M 594.944,627.683 603.129,611.314 z" id="boundary" inkscape:connector-curvature="0" />
	<path style="fill:none;stroke:red;stroke-width:1px;stroke-linecap:butt;stroke-linejoin:miter;stroke-opacity:1" d="M 603.129,426.337 603.129,442.706 z" id="boundary" inkscape:connector-curvature="0" />
	<path style="fill:none;stroke:red;stroke-width:1px;stroke-linecap:butt;stroke-linejoin:miter;stroke-opacity:1" d="M 603.129,442.706 609.677,459.076 z" id="boundary" inkscape:connector-curvature="0" />
	<path style="fill:none;stroke:red;stroke-width:1px;stroke-linecap:butt;stroke-linejoin:miter;stroke-opacity:1" d="M 603.129,594.944 603.129,611.314 z" id="boundary" inkscape:connector-curvature="0" />
	<path style="fill:none;stroke:red;stroke-width:1px;stroke-linecap:butt;stroke-linejoin:miter;stroke-opacity:1" d="M 603.129,594.944 611.314,570.389 z" id="boundary" inkscape:connector-curvature="0" />
	<path style="fill:none;stroke:red;stroke-width:1px;stroke-linecap:butt;stroke-linejoin:miter;stroke-opacity:1" d="M 609.677,459.076 611.314,475.446 z" id="boundary" inkscape:connector-curvature="0" />
	<path style="fill:none;stroke:red;stroke-width:1px;stroke-linecap:butt;stroke-linejoin:miter;stroke-opacity:1" d="M 611.314,475.446 611.314,491.815 z" id="boundary" inkscape:connector-curvature="0" />
	<path style="fill:none;stroke:red;stroke-width:1px;stroke-linecap:butt;stroke-linejoin:miter;stroke-opacity:1" d="M 611.314,491.815 611.314,508.185 z" id="boundary" inkscape:connector-curvature="0" />
	<path style="fill:none;stroke:red;stroke-width:1px;stroke-linecap:butt;stroke-linejoin:miter;stroke-opacity:1" d="M 611.314,508.185 617.861,524.554 z" id="boundary" inkscape:connector-curvature="0" />
	<path style="fill:none;stroke:red;stroke-width:1px;stroke-linecap:butt;stroke-linejoin:miter;stroke-opacity:1" d="M 611.314,570.389 619.498,540.924 z" id="boundary" inkscape:connector-curvature="0" />
	<path style="fill:none;stroke:red;stroke-width:1px;stroke-linecap:butt;stroke-linejoin:miter;stroke-opacity:1" d="M 617.861,524.554 619.498,540.924 z" id="boundary" inkscape:connector-curvature="0" />
	<circle cx="4.79698" cy="328.254" r="4" fill="#0" id="circle0"/>
	<circle cx="4" cy="344.488" r="4" fill="#0" id="circle1"/>
	<circle cx="4" cy="360.858" r="4" fill="#0" id="circle2"/>
	<circle cx="4" cy="377.228" r="4" fill="#0" id="circle3"/>
	<circle cx="4" cy="393.597" r="4" fill="#0" id="circle4"/>
	<circle cx="4" cy="409.967" r="4" fill="#0" id="circle5"/>
	<circle cx="4" cy="426.337" r="4" fill="#0" id="circle6"/>
	<circle cx="4" cy="442.706" r="4" fill="#0" id="circle7"/>
	<circle cx="12.1848" cy="287.195" r="4" fill="#0" id="circle8"/>
	<circle cx="12.1848" cy="303.564" r="4" fill="#0" id="circle9"/>
	<circle cx="12.1848" cy="457.439" r="4" fill="#0" id="circle10"/>
	<circle cx="12.1848" cy="473.809" r="4" fill="#0" id="circle11"/>
	<circle cx="12.1848" cy="490.178" r="4" fill="#0" id="circle12"/>
	<circle cx="12.1848" cy="506.548" r="4" fill="#0" id="circle13"/>
	<circle cx="12.1848" cy="522.917" r="4" fill="#0" id="circle14"/>
	<circle cx="12.1848" cy="539.287" r="4" fill="#0" id="circle15"/>
	<circle cx="12.1848" cy="555.657" r="4" fill="#0" id="circle16"/>
	<circle cx="12.1848" cy="572.026" r="4" fill="#0" id="circle17"/>
	<circle cx="12.1848" cy="588.396" r="4" fill="#0" id="circle18"/>
	<circle cx="12.1848" cy="604.766" r="4" fill="#0" id="circle19"/>
	<circle cx="12.1848" cy="621.135" r="4" fill="#0" id="circle20"/>
	<circle cx="12.1848" cy="637.505" r="4" fill="#0" id="circle21"/>
	<circle cx="23.0715" cy="264.643" r="4" fill="#0" id="circle22"/>
	<circle cx="20.3696" cy="652.238" r="4" fill="#0" id="circle23"/>
	<circle cx="20.3696" cy="668.607" r="4" fill="#0" id="circle24"/>
	<circle cx="20.3696" cy="684.977" r="4" fill="#0" id="circle25"/>
	<circle cx="20.3696" cy="701.347" r="4" fill="#0" id="circle26"/>
	<circle cx="20.3696" cy="717.716" r="4" fill="#0" id="circle27"/>
	<circle cx="28.5545" cy="732.449" r="4" fill="#0" id="circle28"/>
	<circle cx="28.5545" cy="748.818" r="4" fill="#0" id="circle29"/>
	<circle cx="31.8284" cy="765.188" r="4" fill="#0" id="circle30"/>
	<circle cx="36.7393" cy="254.455" r="4" fill="#0" id="circle31"/>
	<circle cx="36.7393" cy="781.558" r="4" fill="#0" id="circle32"/>
	<circle cx="40.0132" cy="797.927" r="4" fill="#0" id="circle33"/>
	<circle cx="48.198" cy="812.66" r="4" fill="#0" id="circle34"/>
	<circle cx="50.9182" cy="242.993" r="4" fill="#0" id="circle35"/>
	<circle cx="53.1089" cy="829.03" r="4" fill="#0" id="circle36"/>
	<circle cx="53.1089" cy="845.399" r="4" fill="#0" id="circle37"/>
	<circle cx="54.7459" cy="861.769" r="4" fill="#0" id="circle38"/>
	<circle cx="62.9307" cy="876.502" r="4" fill="#0" id="circle39"/>
	<circle cx="16.8693" cy="189.993" r="4" fill="#0" id="circle40"/>
	<circle cx="69.4785" cy="892.871" r="4" fill="#0" id="circle41"/>
	<circle cx="69.4785" cy="966.535" r="4" fill="#0" id="circle42"/>
	<circle cx="69.4785" cy="982.904" r="4" fill="#0" id="circle43"/>
	<circle cx="77.6634" cy="907.604" r="4" fill="#0" id="circle44"/>
	<circle cx="77.6634" cy="923.974" r="4" fill="#0" id="circle45"/>
	<circle cx="77.6634" cy="940.343" r="4" fill="#0" id="circle46"/>
	<circle cx="79.3003" cy="996" r="4" fill="#0" id="circle47"/>
	<circle cx="80.9373" cy="241.36" r="4" fill="#0" id="circle48"/>
	<circle cx="87.4851" cy="292.106" r="4" fill="#0" id="circle49"/>
	<circle cx="87.4851" cy="308.475" r="4" fill="#0" id="circle50"/>
	<circle cx="87.4851" cy="324.845" r="4" fill="#0" id="circle51"/>
	<circle cx="87.4851" cy="341.215" r="4" fill="#0" id="circle52"/>
	<circle cx="87.4851" cy="357.584" r="4" fill="#0" id="circle53"/>
	<circle cx="87.4851" cy="373.954" r="4" fill="#0" id="circle54"/>
	<circle cx="94.033" cy="252.818" r="4" fill="#0" id="circle55"/>
	<circle cx="95.67" cy="269.188" r="4" fill="#0" id="circle56"/>
	<circle cx="95.67" cy="388.686" r="4" fill="#0" id="circle57"/>
	<circle cx="95.67" cy="405.056" r="4" fill="#0" id="circle58"/>
	<circle cx="95.67" cy="421.426" r="4" fill="#0" id="circle59"/>
	<circle cx="95.67" cy="437.795" r="4" fill="#0" id="circle60"/>
	<circle cx="95.67" cy="454.165" r="4" fill="#0" id="circle61"/>
	<circle cx="95.67" cy="470.535" r="4" fill="#0" id="circle62"/>
	<circle cx="95.67" cy="996" r="4" fill="#0" id="circle63"/>
	<circle cx="103.855" cy="485.267" r="4" fill="#0" id="circle64"/>
	<circle cx="112.04" cy="996" r="4" fill="#0" id="circle65"/>
	<circle cx="113.677" cy="472.172" r="4" fill="#0" id="circle66"/>
	<circle cx="118.587" cy="311.749" r="4" fill="#0" id="circle67"/>
	<circle cx="118.587" cy="328.119" r="4" fill="#0" id="circle68"/>
	<circle cx="118.587" cy="344.488" r="4" fill="#0" id="circle69"/>
	<circle cx="118.587" cy="360.858" r="4" fill="#0" id="circle70"/>
	<circle cx="118.587" cy="377.228" r="4" fill="#0" id="circle71"/>
	<circle cx="118.587" cy="393.597" r="4" fill="#0" id="circle72"/>
	<circle cx="118.587" cy="409.967" r="4" fill="#0" id="circle73"/>
	<circle cx="118.587" cy="426.337" r="4" fill="#0" id="circle74"/>
	<circle cx="118.587" cy="442.706" r="4" fill="#0" id="circle75"/>
	<circle cx="126.772" cy="148.053" r="4" fill="#0" id="circle76"/>
	<circle cx="126.772" cy="164.422" r="4" fill="#0" id="circle77"/>
	<circle cx="126.772" cy="180.792" r="4" fill="#0" id="circle78"/>
	<circle cx="126.772" cy="197.162" r="4" fill="#0" id="circle79"/>
	<circle cx="126.772" cy="213.531" r="4" fill="#0" id="circle80"/>
	<circle cx="126.772" cy="229.901" r="4" fill="#0" id="circle81"/>
	<circle cx="126.772" cy="246.271" r="4" fill="#0" id="circle82"/>
	<circle cx="126.772" cy="262.64" r="4" fill="#0" id="circle83"/>
	<circle cx="126.772" cy="279.01" r="4" fill="#0" id="circle84"/>
	<circle cx="126.772" cy="295.38" r="4" fill="#0" id="circle85"/>
	<circle cx="128.409" cy="996" r="4" fill="#0" id="circle86"/>
	<circle cx="134.957" cy="131.683" r="4" fill="#0" id="circle87"/>
	<circle cx="144.779" cy="996" r="4" fill="#0" id="circle88"/>
	<circle cx="148.053" cy="118.587" r="4" fill="#0" id="circle89"/>
	<circle cx="161.149" cy="105.492" r="4" fill="#0" id="circle90"/>
	<circle cx="161.149" cy="996" r="4" fill="#0" id="circle91"/>
	<circle cx="174.244" cy="94.033" r="4" fill="#0" id="circle92"/>
	<circle cx="177.518" cy="996" r="4" fill="#0" id="circle93"/>
	<circle cx="185.703" cy="80.9373" r="4" fill="#0" id="circle94"/>
	<circle cx="193.888" cy="95.67" r="4" fill="#0" id="circle95"/>
	<circle cx="193.888" cy="996" r="4" fill="#0" id="circle96"/>
	<circle cx="202.073" cy="218.442" r="4" fill="#0" id="circle97"/>
	<circle cx="202.073" cy="234.812" r="4" fill="#0" id="circle98"/>
	<circle cx="202.073" cy="251.182" r="4" fill="#0" id="circle99"/>
	<circle cx="202.073" cy="267.551" r="4" fill="#0" id="circle100"/>
	<circle cx="202.073" cy="283.921" r="4" fill="#0" id="circle101"/>
	<circle cx="202.073" cy="300.29" r="4" fill="#0" id="circle102"/>
	<circle cx="202.073" cy="316.66" r="4" fill="#0" id="circle103"/>
	<circle cx="202.073" cy="333.03" r="4" fill="#0" id="circle104"/>
	<circle cx="202.073" cy="349.399" r="4" fill="#0" id="circle105"/>
	<circle cx="202.073" cy="365.769" r="4" fill="#0" id="circle106"/>
	<circle cx="206.983" cy="105.492" r="4" fill="#0" id="circle107"/>
	<circle cx="210.257" cy="161.149" r="4" fill="#0" id="circle108"/>
	<circle cx="210.257" cy="177.518" r="4" fill="#0" id="circle109"/>
	<circle cx="210.257" cy="193.888" r="4" fill="#0" id="circle110"/>
	<circle cx="210.257" cy="380.502" r="4" fill="#0" id="circle111"/>
	<circle cx="210.257" cy="996" r="4" fill="#0" id="circle112"/>
	<circle cx="215.168" cy="120.224" r="4" fill="#0" id="circle113"/>
	<circle cx="218.442" cy="136.594" r="4" fill="#0" id="circle114"/>
	<circle cx="218.442" cy="395.234" r="4" fill="#0" id="circle115"/>
	<circle cx="226.627" cy="996" r="4" fill="#0" id="circle116"/>
	<circle cx="228.264" cy="382.139" r="4" fill="#0" id="circle117"/>
	<circle cx="233.175" cy="221.716" r="4" fill="#0" id="circle118"/>
	<circle cx="233.175" cy="238.086" r="4" fill="#0" id="circle119"/>
	<circle cx="233.175" cy="254.455" r="4" fill="#0" id="circle120"/>
	<circle cx="233.175" cy="270.825" r="4" fill="#0" id="circle121"/>
	<circle cx="233.175" cy="287.195" r="4" fill="#0" id="circle122"/>
	<circle cx="233.175" cy="303.564" r="4" fill="#0" id="circle123"/>
	<circle cx="233.175" cy="319.934" r="4" fill="#0" id="circle124"/>
	<circle cx="233.175" cy="336.304" r="4" fill="#0" id="circle125"/>
	<circle cx="233.175" cy="352.673" r="4" fill="#0" id="circle126"/>
	<circle cx="241.36" cy="172.607" r="4" fill="#0" id="circle127"/>
	<circle cx="241.36" cy="188.977" r="4" fill="#0" id="circle128"/>
	<circle cx="241.36" cy="205.347" r="4" fill="#0" id="circle129"/>
	<circle cx="242.997" cy="996" r="4" fill="#0" id="circle130"/>
	<circle cx="249.545" cy="49.835" r="4" fill="#0" id="circle131"/>
	<circle cx="249.545" cy="66.2046" r="4" fill="#0" id="circle132"/>
	<circle cx="249.545" cy="82.5743" r="4" fill="#0" id="circle133"/>
	<circle cx="249.545" cy="98.9439" r="4" fill="#0" id="circle134"/>
	<circle cx="249.545" cy="115.314" r="4" fill="#0" id="circle135"/>
	<circle cx="249.545" cy="131.683" r="4" fill="#0" id="circle136"/>
	<circle cx="249.545" cy="148.053" r="4" fill="#0" id="circle137"/>
	<circle cx="259.366" cy="996" r="4" fill="#0" id="circle138"/>
	<circle cx="262.64" cy="36.7393" r="4" fill="#0" id="circle139"/>
	<circle cx="275.736" cy="23.6436" r="4" fill="#0" id="circle140"/>
	<circle cx="275.736" cy="996" r="4" fill="#0" id="circle141"/>
	<circle cx="288.832" cy="12.1848" r="4" fill="#0" id="circle142"/>
	<circle cx="292.106" cy="996" r="4" fill="#0" id="circle143"/>
	<circle cx="303.564" cy="4" r="4" fill="#0" id="circle144"/>
	<circle cx="308.475" cy="20.3696" r="4" fill="#0" id="circle145"/>
	<circle cx="308.475" cy="996" r="4" fill="#0" id="circle146"/>
	<circle cx="321.571" cy="30.1914" r="4" fill="#0" id="circle147"/>
	<circle cx="324.845" cy="242.997" r="4" fill="#0" id="circle148"/>
	<circle cx="324.845" cy="259.366" r="4" fill="#0" id="circle149"/>
	<circle cx="324.845" cy="275.736" r="4" fill="#0" id="circle150"/>
	<circle cx="324.845" cy="292.106" r="4" fill="#0" id="circle151"/>
	<circle cx="324.845" cy="308.475" r="4" fill="#0" id="circle152"/>
	<circle cx="324.845" cy="324.845" r="4" fill="#0" id="circle153"/>
	<circle cx="324.845" cy="341.215" r="4" fill="#0" id="circle154"/>
	<circle cx="324.845" cy="357.584" r="4" fill="#0" id="circle155"/>
	<circle cx="324.845" cy="996" r="4" fill="#0" id="circle156"/>
	<circle cx="328.119" cy="373.954" r="4" fill="#0" id="circle157"/>
	<circle cx="333.03" cy="43.2871" r="4" fill="#0" id="circle158"/>
	<circle cx="333.03" cy="59.6568" r="4" fill="#0" id="circle159"/>
	<circle cx="333.03" cy="76.0264" r="4" fill="#0" id="circle160"/>
	<circle cx="333.03" cy="92.396" r="4" fill="#0" id="circle161"/>
	<circle cx="333.03" cy="108.766" r="4" fill="#0" id="circle162"/>
	<circle cx="333.03" cy="125.135" r="4" fill="#0" id="circle163"/>
	<circle cx="333.03" cy="141.505" r="4" fill="#0" id="circle164"/>
	<circle cx="333.03" cy="157.875" r="4" fill="#0" id="circle165"/>
	<circle cx="333.03" cy="174.244" r="4" fill="#0" id="circle166"/>
	<circle cx="333.03" cy="190.614" r="4" fill="#0" id="circle167"/>
	<circle cx="333.03" cy="206.983" r="4" fill="#0" id="circle168"/>
	<circle cx="333.03" cy="223.353" r="4" fill="#0" id="circle169"/>
	<circle cx="333.03" cy="390.323" r="4" fill="#0" id="circle170"/>
	<circle cx="333.03" cy="406.693" r="4" fill="#0" id="circle171"/>
	<circle cx="341.215" cy="996" r="4" fill="#0" id="circle172"/>
	<circle cx="347.762" cy="287.195" r="4" fill="#0" id="circle173"/>
	<circle cx="347.762" cy="303.564" r="4" fill="#0" id="circle174"/>
	<circle cx="347.762" cy="319.934" r="4" fill="#0" id="circle175"/>
	<circle cx="349.399" cy="383.776" r="4" fill="#0" id="circle176"/>
	<circle cx="355.947" cy="107.129" r="4" fill="#0" id="circle177"/>
	<circle cx="355.947" cy="123.498" r="4" fill="#0" id="circle178"/>
	<circle cx="355.947" cy="139.868" r="4" fill="#0" id="circle179"/>
	<circle cx="355.947" cy="156.238" r="4" fill="#0" id="circle180"/>
	<circle cx="355.947" cy="172.607" r="4" fill="#0" id="circle181"/>
	<circle cx="355.947" cy="188.977" r="4" fill="#0" id="circle182"/>
	<circle cx="355.947" cy="254.455" r="4" fill="#0" id="circle183"/>
	<circle cx="355.947" cy="270.825" r="4" fill="#0" id="circle184"/>
	<circle cx="355.947" cy="334.667" r="4" fill="#0" id="circle185"/>
	<circle cx="355.947" cy="351.036" r="4" fill="#0" id="circle186"/>
	<circle cx="355.947" cy="367.406" r="4" fill="#0" id="circle187"/>
	<circle cx="357.584" cy="996" r="4" fill="#0" id="circle188"/>
	<circle cx="364.132" cy="90.7591" r="4" fill="#0" id="circle189"/>
	<circle cx="364.132" cy="203.71" r="4" fill="#0" id="circle190"/>
	<circle cx="364.132" cy="220.079" r="4" fill="#0" id="circle191"/>
	<circle cx="364.132" cy="236.449" r="4" fill="#0" id="circle192"/>
	<circle cx="372.317" cy="74.3894" r="4" fill="#0" id="circle193"/>
	<circle cx="373.954" cy="996" r="4" fill="#0" id="circle194"/>
	<circle cx="385.413" cy="61.2937" r="4" fill="#0" id="circle195"/>
	<circle cx="390.323" cy="996" r="4" fill="#0" id="circle196"/>
	<circle cx="400.145" cy="69.4785" r="4" fill="#0" id="circle197"/>
	<circle cx="406.693" cy="85.8482" r="4" fill="#0" id="circle198"/>
	<circle cx="406.693" cy="979.63" r="4" fill="#0" id="circle199"/>
	<circle cx="419.789" cy="95.67" r="4" fill="#0" id="circle200"/>
	<circle cx="423.063" cy="971.446" r="4" fill="#0" id="circle201"/>
	<circle cx="431.248" cy="108.766" r="4" fill="#0" id="circle202"/>
	<circle cx="436.158" cy="959.987" r="4" fill="#0" id="circle203"/>
	<circle cx="439.432" cy="123.498" r="4" fill="#0" id="circle204"/>
	<circle cx="439.432" cy="139.868" r="4" fill="#0" id="circle205"/>
	<circle cx="439.432" cy="156.238" r="4" fill="#0" id="circle206"/>
	<circle cx="439.432" cy="172.607" r="4" fill="#0" id="circle207"/>
	<circle cx="444.343" cy="943.617" r="4" fill="#0" id="circle208"/>
	<circle cx="447.617" cy="187.34" r="4" fill="#0" id="circle209"/>
	<circle cx="447.617" cy="203.71" r="4" fill="#0" id="circle210"/>
	<circle cx="447.617" cy="220.079" r="4" fill="#0" id="circle211"/>
	<circle cx="447.617" cy="236.449" r="4" fill="#0" id="circle212"/>
	<circle cx="447.617" cy="252.818" r="4" fill="#0" id="circle213"/>
	<circle cx="447.617" cy="269.188" r="4" fill="#0" id="circle214"/>
	<circle cx="447.617" cy="285.558" r="4" fill="#0" id="circle215"/>
	<circle cx="447.617" cy="301.927" r="4" fill="#0" id="circle216"/>
	<circle cx="447.617" cy="318.297" r="4" fill="#0" id="circle217"/>
	<circle cx="447.617" cy="334.667" r="4" fill="#0" id="circle218"/>
	<circle cx="447.617" cy="351.036" r="4" fill="#0" id="circle219"/>
	<circle cx="447.617" cy="367.406" r="4" fill="#0" id="circle220"/>
	<circle cx="447.617" cy="383.776" r="4" fill="#0" id="circle221"/>
	<circle cx="447.617" cy="400.145" r="4" fill="#0" id="circle222"/>
	<circle cx="447.617" cy="416.515" r="4" fill="#0" id="circle223"/>
	<circle cx="447.617" cy="432.884" r="4" fill="#0" id="circle224"/>
	<circle cx="447.617" cy="449.254" r="4" fill="#0" id="circle225"/>
	<circle cx="455.802" cy="463.987" r="4" fill="#0" id="circle226"/>
	<circle cx="459.076" cy="480.356" r="4" fill="#0" id="circle227"/>
	<circle cx="460.713" cy="935.432" r="4" fill="#0" id="circle228"/>
	<circle cx="463.987" cy="496.726" r="4" fill="#0" id="circle229"/>
	<circle cx="467.261" cy="513.096" r="4" fill="#0" id="circle230"/>
	<circle cx="472.172" cy="529.465" r="4" fill="#0" id="circle231"/>
	<circle cx="472.172" cy="545.835" r="4" fill="#0" id="circle232"/>
	<circle cx="472.172" cy="922.337" r="4" fill="#0" id="circle233"/>
	<circle cx="480.356" cy="560.568" r="4" fill="#0" id="circle234"/>
	<circle cx="480.356" cy="576.937" r="4" fill="#0" id="circle235"/>
	<circle cx="480.356" cy="593.307" r="4" fill="#0" id="circle236"/>
	<circle cx="480.356" cy="609.677" r="4" fill="#0" id="circle237"/>
	<circle cx="480.356" cy="626.046" r="4" fill="#0" id="circle238"/>
	<circle cx="480.356" cy="905.967" r="4" fill="#0" id="circle239"/>
	<circle cx="488.541" cy="889.597" r="4" fill="#0" id="circle240"/>
	<circle cx="495.089" cy="617.861" r="4" fill="#0" id="circle241"/>
	<circle cx="496.726" cy="873.228" r="4" fill="#0" id="circle242"/>
	<circle cx="503.274" cy="598.218" r="4" fill="#0" id="circle243"/>
	<circle cx="509.822" cy="861.769" r="4" fill="#0" id="circle244"/>
	<circle cx="511.459" cy="475.446" r="4" fill="#0" id="circle245"/>
	<circle cx="511.459" cy="491.815" r="4" fill="#0" id="circle246"/>
	<circle cx="511.459" cy="508.185" r="4" fill="#0" id="circle247"/>
	<circle cx="511.459" cy="524.554" r="4" fill="#0" id="circle248"/>
	<circle cx="511.459" cy="540.924" r="4" fill="#0" id="circle249"/>
	<circle cx="511.459" cy="557.294" r="4" fill="#0" id="circle250"/>
	<circle cx="511.459" cy="573.663" r="4" fill="#0" id="circle251"/>
	<circle cx="513.096" cy="840.488" r="4" fill="#0" id="circle252"/>
	<circle cx="519.644" cy="434.521" r="4" fill="#0" id="circle253"/>
	<circle cx="519.644" cy="450.891" r="4" fill="#0" id="circle254"/>
	<circle cx="521.281" cy="824.119" r="4" fill="#0" id="circle255"/>
	<circle cx="527.828" cy="418.152" r="4" fill="#0" id="circle256"/>
	<circle cx="529.465" cy="807.749" r="4" fill="#0" id="circle257"/>
	<circle cx="540.924" cy="405.056" r="4" fill="#0" id="circle258"/>
	<circle cx="542.561" cy="796.29" r="4" fill="#0" id="circle259"/>
	<circle cx="549.109" cy="388.686" r="4" fill="#0" id="circle260"/>
	<circle cx="550.746" cy="779.921" r="4" fill="#0" id="circle261"/>
	<circle cx="562.205" cy="766.825" r="4" fill="#0" id="circle262"/>
	<circle cx="563.842" cy="380.502" r="4" fill="#0" id="circle263"/>
	<circle cx="570.389" cy="750.455" r="4" fill="#0" id="circle264"/>
	<circle cx="578.574" cy="701.347" r="4" fill="#0" id="circle265"/>
	<circle cx="578.574" cy="717.716" r="4" fill="#0" id="circle266"/>
	<circle cx="578.574" cy="734.086" r="4" fill="#0" id="circle267"/>
	<circle cx="580.211" cy="380.502" r="4" fill="#0" id="circle268"/>
	<circle cx="586.759" cy="396.871" r="4" fill="#0" id="circle269"/>
	<circle cx="586.759" cy="660.422" r="4" fill="#0" id="circle270"/>
	<circle cx="586.759" cy="676.792" r="4" fill="#0" id="circle271"/>
	<circle cx="594.944" cy="411.604" r="4" fill="#0" id="circle272"/>
	<circle cx="594.944" cy="627.683" r="4" fill="#0" id="circle273"/>
	<circle cx="594.944" cy="644.053" r="4" fill="#0" id="circle274"/>
	<circle cx="603.129" cy="426.337" r="4" fill="#0" id="circle275"/>
	<circle cx="603.129" cy="442.706" r="4" fill="#0" id="circle276"/>
	<circle cx="603.129" cy="594.944" r="4" fill="#0" id="circle277"/>
	<circle cx="603.129" cy="611.314" r="4" fill="#0" id="circle278"/>
	<circle cx="609.677" cy="459.076" r="4" fill="#0" id="circle279"/>
	<circle cx="611.314" cy="475.446" r="4" fill="#0" id="circle280"/>
	<circle cx="611.314" cy="491.815" r="4" fill="#0" id="circle281"/>
	<circle cx="611.314" cy="508.185" r="4" fill="#0" id="circle282"/>
	<circle cx="611.314" cy="570.389" r="4" fill="#0" id="circle283"/>
	<circle cx="617.861" cy="524.554" r="4" fill="#0" id="circle284"/>
	<circle cx="619.498" cy="540.924" r="4" fill="#0" id="circle285"/>
	</g>
</svg>