<?xml version="1.0" encoding="UTF-8" standalone="no"?>
<!-- Created with CurveBenchmark -->
<svg
	xmlns:dc="http://purl.org/dc/elements/1.1/"
	xmlns:cc="http://creativecommons.org/ns#"
	xmlns:rdf="http://www.w3.org/1999/02/22-rdf-syntax-ns#"
	xmlns:svg="http://www.w3.org/2000/svg"
	xmlns="http://www.w3.org/2000/svg"
	xmlns:sodipodi="http://sodipodi.sourceforge.net/DTD/sodipodi-0.dtd"
	xmlns:inkscape="http://www.inkscape.org/namespaces/inkscape"
	width="1000"
	height="1000"
	id="svg2"
	version="1.1"
	sodipodi:docname="manifold/stretchdenoise-handocc4.png.txt">
<defs
	id="defs4" />
<metadata
	id="metadata7">
	<rdf:RDF>
		<cc:Work
			rdf:about="">
			<dc:format>image/svg+xml</dc:format>
			<dc:type
				rdf:resource="http://purl.org/dc/dcmitype/StillImage" />
			<dc:title></dc:title>
		</cc:Work>
	</rdf:RDF>
</metadata>
<g
	inkscape:label="Layer 1"
	inkscape:groupmode="layer"
	id="layer1">
	<path style="fill:none;stroke:red;stroke-width:1px;stroke-linecap:butt;stroke-linejoin:miter;stroke-opacity:1" d="M nan,nan nan,nan z" id="boundary" inkscape:connector-curvature="0" />
	<path style="fill:none;stroke:red;stroke-width:1px;stroke-linecap:butt;stroke-linejoin:miter;stroke-opacity:1" d="M nan,nan 147.564,794.351 z" id="boundary" inkscape:connector-curvature="0" />
	<path style="fill:none;stroke:red;stroke-width:1px;stroke-linecap:butt;stroke-linejoin:miter;stroke-opacity:1" d="M nan,nan nan,nan z" id="boundary" inkscape:connector-curvature="0" />
	<path style="fill:none;stroke:red;stroke-width:1px;stroke-linecap:butt;stroke-linejoin:miter;stroke-opacity:1" d="M nan,nan nan,nan z" id="boundary" inkscape:connector-curvature="0" />
	<path style="fill:none;stroke:red;stroke-width:1px;stroke-linecap:butt;stroke-linejoin:miter;stroke-opacity:1" d="M 147.564,794.351 289.954,629.193 z" id="boundary" inkscape:connector-curvature="0" />
	<path style="fill:none;stroke:red;stroke-width:1px;stroke-linecap:butt;stroke-linejoin:miter;stroke-opacity:1" d="M 190,283 177.366,342.863 z" id="boundary" inkscape:connector-curvature="0" />
	<path style="fill:none;stroke:red;stroke-width:1px;stroke-linecap:butt;stroke-linejoin:miter;stroke-opacity:1" d="M 190,283 239.6,233.4 z" id="boundary" inkscape:connector-curvature="0" />
	<path style="fill:none;stroke:red;stroke-width:1px;stroke-linecap:butt;stroke-linejoin:miter;stroke-opacity:1" d="M 177.366,342.863 177.291,407.999 z" id="boundary" inkscape:connector-curvature="0" />
	<path style="fill:none;stroke:red;stroke-width:1px;stroke-linecap:butt;stroke-linejoin:miter;stroke-opacity:1" d="M 177.291,407.999 231.574,522.312 z" id="boundary" inkscape:connector-curvature="0" />
	<path style="fill:none;stroke:red;stroke-width:1px;stroke-linecap:butt;stroke-linejoin:miter;stroke-opacity:1" d="M nan,nan nan,nan z" id="boundary" inkscape:connector-curvature="0" />
	<path style="fill:none;stroke:red;stroke-width:1px;stroke-linecap:butt;stroke-linejoin:miter;stroke-opacity:1" d="M 231.574,522.312 289.954,629.193 z" id="boundary" inkscape:connector-curvature="0" />
	<path style="fill:none;stroke:red;stroke-width:1px;stroke-linecap:butt;stroke-linejoin:miter;stroke-opacity:1" d="M nan,nan nan,nan z" id="boundary" inkscape:connector-curvature="0" />
	<path style="fill:none;stroke:red;stroke-width:1px;stroke-linecap:butt;stroke-linejoin:miter;stroke-opacity:1" d="M 239.6,233.4 301.6,233.4 z" id="boundary" inkscape:connector-curvature="0" />
	<path style="fill:none;stroke:red;stroke-width:1px;stroke-linecap:butt;stroke-linejoin:miter;stroke-opacity:1" d="M nan,nan nan,nan z" id="boundary" inkscape:connector-curvature="0" />
	<path style="fill:none;stroke:red;stroke-width:1px;stroke-linecap:butt;stroke-linejoin:miter;stroke-opacity:1" d="M nan,nan nan,nan z" id="boundary" inkscape:connector-curvature="0" />
	<path style="fill:none;stroke:red;stroke-width:1px;stroke-linecap:butt;stroke-linejoin:miter;stroke-opacity:1" d="M 301.6,233.4 363.6,233.4 z" id="boundary" inkscape:connector-curvature="0" />
	<path style="fill:none;stroke:red;stroke-width:1px;stroke-linecap:butt;stroke-linejoin:miter;stroke-opacity:1" d="M nan,nan nan,nan z" id="boundary" inkscape:connector-curvature="0" />
	<path style="fill:none;stroke:red;stroke-width:1px;stroke-linecap:butt;stroke-linejoin:miter;stroke-opacity:1" d="M 363.6,233.4 419.4,264.4 z" id="boundary" inkscape:connector-curvature="0" />
	<path style="fill:none;stroke:red;stroke-width:1px;stroke-linecap:butt;stroke-linejoin:miter;stroke-opacity:1" d="M nan,nan nan,nan z" id="boundary" inkscape:connector-curvature="0" />
	<path style="fill:none;stroke:red;stroke-width:1px;stroke-linecap:butt;stroke-linejoin:miter;stroke-opacity:1" d="M 419.4,264.4 469,307.8 z" id="boundary" inkscape:connector-curvature="0" />
	<path style="fill:none;stroke:red;stroke-width:1px;stroke-linecap:butt;stroke-linejoin:miter;stroke-opacity:1" d="M nan,nan nan,nan z" id="boundary" inkscape:connector-curvature="0" />
	<path style="fill:none;stroke:red;stroke-width:1px;stroke-linecap:butt;stroke-linejoin:miter;stroke-opacity:1" d="M 469,307.8 506.2,357.4 z" id="boundary" inkscape:connector-curvature="0" />
	<path style="fill:none;stroke:red;stroke-width:1px;stroke-linecap:butt;stroke-linejoin:miter;stroke-opacity:1" d="M 506.2,357.4 506.2,419.4 z" id="boundary" inkscape:connector-curvature="0" />
	<path style="fill:none;stroke:red;stroke-width:1px;stroke-linecap:butt;stroke-linejoin:miter;stroke-opacity:1" d="M 506.2,419.4 537.2,475.2 z" id="boundary" inkscape:connector-curvature="0" />
	<path style="fill:none;stroke:red;stroke-width:1px;stroke-linecap:butt;stroke-linejoin:miter;stroke-opacity:1" d="M nan,nan nan,nan z" id="boundary" inkscape:connector-curvature="0" />
	<path style="fill:none;stroke:red;stroke-width:1px;stroke-linecap:butt;stroke-linejoin:miter;stroke-opacity:1" d="M 537.2,475.2 537.2,537.2 z" id="boundary" inkscape:connector-curvature="0" />
	<path style="fill:none;stroke:red;stroke-width:1px;stroke-linecap:butt;stroke-linejoin:miter;stroke-opacity:1" d="M 537.2,537.2 558.735,596.741 z" id="boundary" inkscape:connector-curvature="0" />
	<path style="fill:none;stroke:red;stroke-width:1px;stroke-linecap:butt;stroke-linejoin:miter;stroke-opacity:1" d="M nan,nan nan,nan z" id="boundary" inkscape:connector-curvature="0" />
	<path style="fill:none;stroke:red;stroke-width:1px;stroke-linecap:butt;stroke-linejoin:miter;stroke-opacity:1" d="M nan,nan nan,nan z" id="boundary" inkscape:connector-curvature="0" />
	<path style="fill:none;stroke:red;stroke-width:1px;stroke-linecap:butt;stroke-linejoin:miter;stroke-opacity:1" d="M 558.735,596.741 629.468,718.263 z" id="boundary" inkscape:connector-curvature="0" />
	<path style="fill:none;stroke:red;stroke-width:1px;stroke-linecap:butt;stroke-linejoin:miter;stroke-opacity:1" d="M nan,nan nan,nan z" id="boundary" inkscape:connector-curvature="0" />
	<path style="fill:none;stroke:red;stroke-width:1px;stroke-linecap:butt;stroke-linejoin:miter;stroke-opacity:1" d="M nan,nan nan,nan z" id="boundary" inkscape:connector-curvature="0" />
	<path style="fill:none;stroke:red;stroke-width:1px;stroke-linecap:butt;stroke-linejoin:miter;stroke-opacity:1" d="M nan,nan nan,nan z" id="boundary" inkscape:connector-curvature="0" />
	<path style="fill:none;stroke:red;stroke-width:1px;stroke-linecap:butt;stroke-linejoin:miter;stroke-opacity:1" d="M nan,nan nan,nan z" id="boundary" inkscape:connector-curvature="0" />
	<path style="fill:none;stroke:red;stroke-width:1px;stroke-linecap:butt;stroke-linejoin:miter;stroke-opacity:1" d="M nan,nan nan,nan z" id="boundary" inkscape:connector-curvature="0" />
	<path style="fill:none;stroke:red;stroke-width:1px;stroke-linecap:butt;stroke-linejoin:miter;stroke-opacity:1" d="M nan,nan nan,nan z" id="boundary" inkscape:connector-curvature="0" />
	<path style="fill:none;stroke:red;stroke-width:1px;stroke-linecap:butt;stroke-linejoin:miter;stroke-opacity:1" d="M 629.468,718.263 648.8,772.8 z" id="boundary" inkscape:connector-curvature="0" />
	<path style="fill:none;stroke:red;stroke-width:1px;stroke-linecap:butt;stroke-linejoin:miter;stroke-opacity:1" d="M nan,nan nan,nan z" id="boundary" inkscape:connector-curvature="0" />
	<path style="fill:none;stroke:red;stroke-width:1px;stroke-linecap:butt;stroke-linejoin:miter;stroke-opacity:1" d="M nan,nan nan,nan z" id="boundary" inkscape:connector-curvature="0" />
	<path style="fill:none;stroke:red;stroke-width:1px;stroke-linecap:butt;stroke-linejoin:miter;stroke-opacity:1" d="M 648.8,772.8 679.8,828.6 z" id="boundary" inkscape:connector-curvature="0" />
	<path style="fill:none;stroke:red;stroke-width:1px;stroke-linecap:butt;stroke-linejoin:miter;stroke-opacity:1" d="M nan,nan nan,nan z" id="boundary" inkscape:connector-curvature="0" />
	<path style="fill:none;stroke:red;stroke-width:1px;stroke-linecap:butt;stroke-linejoin:miter;stroke-opacity:1" d="M nan,nan nan,nan z" id="boundary" inkscape:connector-curvature="0" />
	<path style="fill:none;stroke:red;stroke-width:1px;stroke-linecap:butt;stroke-linejoin:miter;stroke-opacity:1" d="M nan,nan -nan,-nan z" id="boundary" inkscape:connector-curvature="0" />
	<path style="fill:none;stroke:red;stroke-width:1px;stroke-linecap:butt;stroke-linejoin:miter;stroke-opacity:1" d="M -nan,-nan -nan,-nan z" id="boundary" inkscape:connector-curvature="0" />
	<path style="fill:none;stroke:red;stroke-width:1px;stroke-linecap:butt;stroke-linejoin:miter;stroke-opacity:1" d="M -nan,-nan 655,4 z" id="boundary" inkscape:connector-curvature="0" />
	<path style="fill:none;stroke:red;stroke-width:1px;stroke-linecap:butt;stroke-linejoin:miter;stroke-opacity:1" d="M 655,4 686,59.8 z" id="boundary" inkscape:connector-curvature="0" />
	<path style="fill:none;stroke:red;stroke-width:1px;stroke-linecap:butt;stroke-linejoin:miter;stroke-opacity:1" d="M nan,nan nan,nan z" id="boundary" inkscape:connector-curvature="0" />
	<path style="fill:none;stroke:red;stroke-width:1px;stroke-linecap:butt;stroke-linejoin:miter;stroke-opacity:1" d="M nan,nan nan,nan z" id="boundary" inkscape:connector-curvature="0" />
	<path style="fill:none;stroke:red;stroke-width:1px;stroke-linecap:butt;stroke-linejoin:miter;stroke-opacity:1" d="M 679.8,828.6 704.6,890.6 z" id="boundary" inkscape:connector-curvature="0" />
	<path style="fill:none;stroke:red;stroke-width:1px;stroke-linecap:butt;stroke-linejoin:miter;stroke-opacity:1" d="M 686,59.8 686,121.8 z" id="boundary" inkscape:connector-curvature="0" />
	<path style="fill:none;stroke:red;stroke-width:1px;stroke-linecap:butt;stroke-linejoin:miter;stroke-opacity:1" d="M 686,121.8 686,183.8 z" id="boundary" inkscape:connector-curvature="0" />
	<path style="fill:none;stroke:red;stroke-width:1px;stroke-linecap:butt;stroke-linejoin:miter;stroke-opacity:1" d="M 686,183.8 717,239.6 z" id="boundary" inkscape:connector-curvature="0" />
	<path style="fill:none;stroke:red;stroke-width:1px;stroke-linecap:butt;stroke-linejoin:miter;stroke-opacity:1" d="M nan,nan nan,nan z" id="boundary" inkscape:connector-curvature="0" />
	<path style="fill:none;stroke:red;stroke-width:1px;stroke-linecap:butt;stroke-linejoin:miter;stroke-opacity:1" d="M 704.6,890.6 754.2,934 z" id="boundary" inkscape:connector-curvature="0" />
	<path style="fill:none;stroke:red;stroke-width:1px;stroke-linecap:butt;stroke-linejoin:miter;stroke-opacity:1" d="M nan,nan nan,nan z" id="boundary" inkscape:connector-curvature="0" />
	<path style="fill:none;stroke:red;stroke-width:1px;stroke-linecap:butt;stroke-linejoin:miter;stroke-opacity:1" d="M 717,239.6 735.6,301.6 z" id="boundary" inkscape:connector-curvature="0" />
	<path style="fill:none;stroke:red;stroke-width:1px;stroke-linecap:butt;stroke-linejoin:miter;stroke-opacity:1" d="M nan,nan nan,nan z" id="boundary" inkscape:connector-curvature="0" />
	<path style="fill:none;stroke:red;stroke-width:1px;stroke-linecap:butt;stroke-linejoin:miter;stroke-opacity:1" d="M nan,nan nan,nan z" id="boundary" inkscape:connector-curvature="0" />
	<path style="fill:none;stroke:red;stroke-width:1px;stroke-linecap:butt;stroke-linejoin:miter;stroke-opacity:1" d="M nan,nan nan,nan z" id="boundary" inkscape:connector-curvature="0" />
	<path style="fill:none;stroke:red;stroke-width:1px;stroke-linecap:butt;stroke-linejoin:miter;stroke-opacity:1" d="M 735.6,301.6 748,363.6 z" id="boundary" inkscape:connector-curvature="0" />
	<path style="fill:none;stroke:red;stroke-width:1px;stroke-linecap:butt;stroke-linejoin:miter;stroke-opacity:1" d="M 748,363.6 748.003,425.6 z" id="boundary" inkscape:connector-curvature="0" />
	<path style="fill:none;stroke:red;stroke-width:1px;stroke-linecap:butt;stroke-linejoin:miter;stroke-opacity:1" d="M 748.003,425.6 748,487.6 z" id="boundary" inkscape:connector-curvature="0" />
	<path style="fill:none;stroke:red;stroke-width:1px;stroke-linecap:butt;stroke-linejoin:miter;stroke-opacity:1" d="M 748,487.6 766.6,549.6 z" id="boundary" inkscape:connector-curvature="0" />
	<path style="fill:none;stroke:red;stroke-width:1px;stroke-linecap:butt;stroke-linejoin:miter;stroke-opacity:1" d="M nan,nan nan,nan z" id="boundary" inkscape:connector-curvature="0" />
	<path style="fill:none;stroke:red;stroke-width:1px;stroke-linecap:butt;stroke-linejoin:miter;stroke-opacity:1" d="M nan,nan nan,nan z" id="boundary" inkscape:connector-curvature="0" />
	<path style="fill:none;stroke:red;stroke-width:1px;stroke-linecap:butt;stroke-linejoin:miter;stroke-opacity:1" d="M nan,nan nan,nan z" id="boundary" inkscape:connector-curvature="0" />
	<path style="fill:none;stroke:red;stroke-width:1px;stroke-linecap:butt;stroke-linejoin:miter;stroke-opacity:1" d="M 754.2,934 779,996 z" id="boundary" inkscape:connector-curvature="0" />
	<path style="fill:none;stroke:red;stroke-width:1px;stroke-linecap:butt;stroke-linejoin:miter;stroke-opacity:1" d="M nan,nan nan,nan z" id="boundary" inkscape:connector-curvature="0" />
	<path style="fill:none;stroke:red;stroke-width:1px;stroke-linecap:butt;stroke-linejoin:miter;stroke-opacity:1" d="M 766.6,549.6 777.806,611.87 z" id="boundary" inkscape:connector-curvature="0" />
	<path style="fill:none;stroke:red;stroke-width:1px;stroke-linecap:butt;stroke-linejoin:miter;stroke-opacity:1" d="M nan,nan nan,nan z" id="boundary" inkscape:connector-curvature="0" />
	<path style="fill:none;stroke:red;stroke-width:1px;stroke-linecap:butt;stroke-linejoin:miter;stroke-opacity:1" d="M 777.806,611.87 786.891,672.052 z" id="boundary" inkscape:connector-curvature="0" />
	<path style="fill:none;stroke:red;stroke-width:1px;stroke-linecap:butt;stroke-linejoin:miter;stroke-opacity:1" d="M 786.891,672.052 799.43,732.189 z" id="boundary" inkscape:connector-curvature="0" />
	<path style="fill:none;stroke:red;stroke-width:1px;stroke-linecap:butt;stroke-linejoin:miter;stroke-opacity:1" d="M 779,996 841,996 z" id="boundary" inkscape:connector-curvature="0" />
	<path style="fill:none;stroke:red;stroke-width:1px;stroke-linecap:butt;stroke-linejoin:miter;stroke-opacity:1" d="M nan,nan nan,nan z" id="boundary" inkscape:connector-curvature="0" />
	<path style="fill:none;stroke:red;stroke-width:1px;stroke-linecap:butt;stroke-linejoin:miter;stroke-opacity:1" d="M nan,nan nan,nan z" id="boundary" inkscape:connector-curvature="0" />
	<path style="fill:none;stroke:red;stroke-width:1px;stroke-linecap:butt;stroke-linejoin:miter;stroke-opacity:1" d="M nan,nan nan,nan z" id="boundary" inkscape:connector-curvature="0" />
	<path style="fill:none;stroke:red;stroke-width:1px;stroke-linecap:butt;stroke-linejoin:miter;stroke-opacity:1" d="M nan,nan nan,nan z" id="boundary" inkscape:connector-curvature="0" />
	<path style="fill:none;stroke:red;stroke-width:1px;stroke-linecap:butt;stroke-linejoin:miter;stroke-opacity:1" d="M 799.43,732.189 810,791.4 z" id="boundary" inkscape:connector-curvature="0" />
	<path style="fill:none;stroke:red;stroke-width:1px;stroke-linecap:butt;stroke-linejoin:miter;stroke-opacity:1" d="M 810,791.4 841,847.2 z" id="boundary" inkscape:connector-curvature="0" />
	<path style="fill:none;stroke:red;stroke-width:1px;stroke-linecap:butt;stroke-linejoin:miter;stroke-opacity:1" d="M nan,nan nan,nan z" id="boundary" inkscape:connector-curvature="0" />
	<path style="fill:none;stroke:red;stroke-width:1px;stroke-linecap:butt;stroke-linejoin:miter;stroke-opacity:1" d="M nan,nan nan,nan z" id="boundary" inkscape:connector-curvature="0" />
	<path style="fill:none;stroke:red;stroke-width:1px;stroke-linecap:butt;stroke-linejoin:miter;stroke-opacity:1" d="M 841,847.2 847.2,909.2 z" id="boundary" inkscape:connector-curvature="0" />
	<path style="fill:none;stroke:red;stroke-width:1px;stroke-linecap:butt;stroke-linejoin:miter;stroke-opacity:1" d="M 841,996 847.2,909.2 z" id="boundary" inkscape:connector-curvature="0" />
	<path style="fill:none;stroke:red;stroke-width:1px;stroke-linecap:butt;stroke-linejoin:miter;stroke-opacity:1" d="M nan,nan nan,nan z" id="boundary" inkscape:connector-curvature="0" />
	<path style="fill:none;stroke:red;stroke-width:1px;stroke-linecap:butt;stroke-linejoin:miter;stroke-opacity:1" d="M nan,nan nan,nan z" id="boundary" inkscape:connector-curvature="0" />
	<path style="fill:none;stroke:red;stroke-width:1px;stroke-linecap:butt;stroke-linejoin:miter;stroke-opacity:1" d="M nan,nan nan,nan z" id="boundary" inkscape:connector-curvature="0" />
	<path style="fill:none;stroke:red;stroke-width:1px;stroke-linecap:butt;stroke-linejoin:miter;stroke-opacity:1" d="M nan,nan nan,nan z" id="boundary" inkscape:connector-curvature="0" />
	<path style="fill:none;stroke:red;stroke-width:1px;stroke-linecap:butt;stroke-linejoin:miter;stroke-opacity:1" d="M nan,nan nan,nan z" id="boundary" inkscape:connector-curvature="0" />
	<path style="fill:none;stroke:red;stroke-width:1px;stroke-linecap:butt;stroke-linejoin:miter;stroke-opacity:1" d="M nan,nan nan,nan z" id="boundary" inkscape:connector-curvature="0" />
	<path style="fill:none;stroke:red;stroke-width:1px;stroke-linecap:butt;stroke-linejoin:miter;stroke-opacity:1" d="M nan,nan nan,nan z" id="boundary" inkscape:connector-curvature="0" />
	<path style="fill:none;stroke:red;stroke-width:1px;stroke-linecap:butt;stroke-linejoin:miter;stroke-opacity:1" d="M nan,nan nan,nan z" id="boundary" inkscape:connector-curvature="0" />
	<path style="fill:none;stroke:red;stroke-width:1px;stroke-linecap:butt;stroke-linejoin:miter;stroke-opacity:1" d="M nan,nan nan,nan z" id="boundary" inkscape:connector-curvature="0" />
	<path style="fill:none;stroke:red;stroke-width:1px;stroke-linecap:butt;stroke-linejoin:miter;stroke-opacity:1" d="M nan,nan nan,nan z" id="boundary" inkscape:connector-curvature="0" />
	<path style="fill:none;stroke:red;stroke-width:1px;stroke-linecap:butt;stroke-linejoin:miter;stroke-opacity:1" d="M nan,nan nan,nan z" id="boundary" inkscape:connector-curvature="0" />
	<path style="fill:none;stroke:red;stroke-width:1px;stroke-linecap:butt;stroke-linejoin:miter;stroke-opacity:1" d="M nan,nan nan,nan z" id="boundary" inkscape:connector-curvature="0" />
	<path style="fill:none;stroke:red;stroke-width:1px;stroke-linecap:butt;stroke-linejoin:miter;stroke-opacity:1" d="M nan,nan nan,nan z" id="boundary" inkscape:connector-curvature="0" />
	<path style="fill:none;stroke:red;stroke-width:1px;stroke-linecap:butt;stroke-linejoin:miter;stroke-opacity:1" d="M nan,nan nan,nan z" id="boundary" inkscape:connector-curvature="0" />
	<path style="fill:none;stroke:red;stroke-width:1px;stroke-linecap:butt;stroke-linejoin:miter;stroke-opacity:1" d="M nan,nan nan,nan z" id="boundary" inkscape:connector-curvature="0" />
	<path style="fill:none;stroke:red;stroke-width:1px;stroke-linecap:butt;stroke-linejoin:miter;stroke-opacity:1" d="M nan,nan nan,nan z" id="boundary" inkscape:connector-curvature="0" />
	<path style="fill:none;stroke:red;stroke-width:1px;stroke-linecap:butt;stroke-linejoin:miter;stroke-opacity:1" d="M nan,nan nan,nan z" id="boundary" inkscape:connector-curvature="0" />
	<path style="fill:none;stroke:red;stroke-width:1px;stroke-linecap:butt;stroke-linejoin:miter;stroke-opacity:1" d="M nan,nan nan,nan z" id="boundary" inkscape:connector-curvature="0" />
	<path style="fill:none;stroke:red;stroke-width:1px;stroke-linecap:butt;stroke-linejoin:miter;stroke-opacity:1" d="M nan,nan nan,nan z" id="boundary" inkscape:connector-curvature="0" />
	<path style="fill:none;stroke:red;stroke-width:1px;stroke-linecap:butt;stroke-linejoin:miter;stroke-opacity:1" d="M nan,nan nan,nan z" id="boundary" inkscape:connector-curvature="0" />
	<path style="fill:none;stroke:red;stroke-width:1px;stroke-linecap:butt;stroke-linejoin:miter;stroke-opacity:1" d="M nan,nan nan,nan z" id="boundary" inkscape:connector-curvature="0" />
	<path style="fill:none;stroke:red;stroke-width:1px;stroke-linecap:butt;stroke-linejoin:miter;stroke-opacity:1" d="M nan,nan nan,nan z" id="boundary" inkscape:connector-curvature="0" />
	<path style="fill:none;stroke:red;stroke-width:1px;stroke-linecap:butt;stroke-linejoin:miter;stroke-opacity:1" d="M nan,nan nan,nan z" id="boundary" inkscape:connector-curvature="0" />
	<path style="fill:none;stroke:red;stroke-width:1px;stroke-linecap:butt;stroke-linejoin:miter;stroke-opacity:1" d="M nan,nan nan,nan z" id="boundary" inkscape:connector-curvature="0" />
	<path style="fill:none;stroke:red;stroke-width:1px;stroke-linecap:butt;stroke-linejoin:miter;stroke-opacity:1" d="M nan,nan nan,nan z" id="boundary" inkscape:connector-curvature="0" />
	<path style="fill:none;stroke:red;stroke-width:1px;stroke-linecap:butt;stroke-linejoin:miter;stroke-opacity:1" d="M nan,nan nan,nan z" id="boundary" inkscape:connector-curvature="0" />
	<path style="fill:none;stroke:red;stroke-width:1px;stroke-linecap:butt;stroke-linejoin:miter;stroke-opacity:1" d="M nan,nan nan,nan z" id="boundary" inkscape:connector-curvature="0" />
	<path style="fill:none;stroke:red;stroke-width:1px;stroke-linecap:butt;stroke-linejoin:miter;stroke-opacity:1" d="M nan,nan nan,nan z" id="boundary" inkscape:connector-curvature="0" />
	<path style="fill:none;stroke:red;stroke-width:1px;stroke-linecap:butt;stroke-linejoin:miter;stroke-opacity:1" d="M nan,nan nan,nan z" id="boundary" inkscape:connector-curvature="0" />
	<path style="fill:none;stroke:red;stroke-width:1px;stroke-linecap:butt;stroke-linejoin:miter;stroke-opacity:1" d="M nan,nan nan,nan z" id="boundary" inkscape:connector-curvature="0" />
	<path style="fill:none;stroke:red;stroke-width:1px;stroke-linecap:butt;stroke-linejoin:miter;stroke-opacity:1" d="M nan,nan nan,nan z" id="boundary" inkscape:connector-curvature="0" />
	<path style="fill:none;stroke:red;stroke-width:1px;stroke-linecap:butt;stroke-linejoin:miter;stroke-opacity:1" d="M nan,nan nan,nan z" id="boundary" inkscape:connector-curvature="0" />
	<path style="fill:none;stroke:red;stroke-width:1px;stroke-linecap:butt;stroke-linejoin:miter;stroke-opacity:1" d="M nan,nan nan,nan z" id="boundary" inkscape:connector-curvature="0" />
	<path style="fill:none;stroke:red;stroke-width:1px;stroke-linecap:butt;stroke-linejoin:miter;stroke-opacity:1" d="M nan,nan nan,nan z" id="boundary" inkscape:connector-curvature="0" />
	<path style="fill:none;stroke:red;stroke-width:1px;stroke-linecap:butt;stroke-linejoin:miter;stroke-opacity:1" d="M nan,nan nan,nan z" id="boundary" inkscape:connector-curvature="0" />
	<path style="fill:none;stroke:red;stroke-width:1px;stroke-linecap:butt;stroke-linejoin:miter;stroke-opacity:1" d="M nan,nan nan,nan z" id="boundary" inkscape:connector-curvature="0" />
	<path style="fill:none;stroke:red;stroke-width:1px;stroke-linecap:butt;stroke-linejoin:miter;stroke-opacity:1" d="M nan,nan nan,nan z" id="boundary" inkscape:connector-curvature="0" />
	<path style="fill:none;stroke:red;stroke-width:1px;stroke-linecap:butt;stroke-linejoin:miter;stroke-opacity:1" d="M nan,nan nan,nan z" id="boundary" inkscape:connector-curvature="0" />
	<path style="fill:none;stroke:red;stroke-width:1px;stroke-linecap:butt;stroke-linejoin:miter;stroke-opacity:1" d="M nan,nan nan,nan z" id="boundary" inkscape:connector-curvature="0" />
	<path style="fill:none;stroke:red;stroke-width:1px;stroke-linecap:butt;stroke-linejoin:miter;stroke-opacity:1" d="M nan,nan nan,nan z" id="boundary" inkscape:connector-curvature="0" />
	<path style="fill:none;stroke:red;stroke-width:1px;stroke-linecap:butt;stroke-linejoin:miter;stroke-opacity:1" d="M nan,nan nan,nan z" id="boundary" inkscape:connector-curvature="0" />
	<path style="fill:none;stroke:red;stroke-width:1px;stroke-linecap:butt;stroke-linejoin:miter;stroke-opacity:1" d="M nan,nan nan,nan z" id="boundary" inkscape:connector-curvature="0" />
	<path style="fill:none;stroke:red;stroke-width:1px;stroke-linecap:butt;stroke-linejoin:miter;stroke-opacity:1" d="M nan,nan nan,nan z" id="boundary" inkscape:connector-curvature="0" />
	<path style="fill:none;stroke:red;stroke-width:1px;stroke-linecap:butt;stroke-linejoin:miter;stroke-opacity:1" d="M nan,nan nan,nan z" id="boundary" inkscape:connector-curvature="0" />
	<path style="fill:none;stroke:red;stroke-width:1px;stroke-linecap:butt;stroke-linejoin:miter;stroke-opacity:1" d="M nan,nan nan,nan z" id="boundary" inkscape:connector-curvature="0" />
	<path style="fill:none;stroke:red;stroke-width:1px;stroke-linecap:butt;stroke-linejoin:miter;stroke-opacity:1" d="M nan,nan nan,nan z" id="boundary" inkscape:connector-curvature="0" />
	<path style="fill:none;stroke:red;stroke-width:1px;stroke-linecap:butt;stroke-linejoin:miter;stroke-opacity:1" d="M nan,nan nan,nan z" id="boundary" inkscape:connector-curvature="0" />
	<path style="fill:none;stroke:red;stroke-width:1px;stroke-linecap:butt;stroke-linejoin:miter;stroke-opacity:1" d="M nan,nan nan,nan z" id="boundary" inkscape:connector-curvature="0" />
	<path style="fill:none;stroke:red;stroke-width:1px;stroke-linecap:butt;stroke-linejoin:miter;stroke-opacity:1" d="M nan,nan nan,nan z" id="boundary" inkscape:connector-curvature="0" />
	<path style="fill:none;stroke:red;stroke-width:1px;stroke-linecap:butt;stroke-linejoin:miter;stroke-opacity:1" d="M nan,nan nan,nan z" id="boundary" inkscape:connector-curvature="0" />
	<path style="fill:none;stroke:red;stroke-width:1px;stroke-linecap:butt;stroke-linejoin:miter;stroke-opacity:1" d="M nan,nan nan,nan z" id="boundary" inkscape:connector-curvature="0" />
	<path style="fill:none;stroke:red;stroke-width:1px;stroke-linecap:butt;stroke-linejoin:miter;stroke-opacity:1" d="M nan,nan nan,nan z" id="boundary" inkscape:connector-curvature="0" />
	<path style="fill:none;stroke:red;stroke-width:1px;stroke-linecap:butt;stroke-linejoin:miter;stroke-opacity:1" d="M nan,nan nan,nan z" id="boundary" inkscape:connector-curvature="0" />
	<path style="fill:none;stroke:red;stroke-width:1px;stroke-linecap:butt;stroke-linejoin:miter;stroke-opacity:1" d="M nan,nan nan,nan z" id="boundary" inkscape:connector-curvature="0" />
	<path style="fill:none;stroke:red;stroke-width:1px;stroke-linecap:butt;stroke-linejoin:miter;stroke-opacity:1" d="M nan,nan nan,nan z" id="boundary" inkscape:connector-curvature="0" />
	<path style="fill:none;stroke:red;stroke-width:1px;stroke-linecap:butt;stroke-linejoin:miter;stroke-opacity:1" d="M nan,nan nan,nan z" id="boundary" inkscape:connector-curvature="0" />
	<path style="fill:none;stroke:red;stroke-width:1px;stroke-linecap:butt;stroke-linejoin:miter;stroke-opacity:1" d="M nan,nan nan,nan z" id="boundary" inkscape:connector-curvature="0" />
	<path style="fill:none;stroke:red;stroke-width:1px;stroke-linecap:butt;stroke-linejoin:miter;stroke-opacity:1" d="M nan,nan nan,nan z" id="boundary" inkscape:connector-curvature="0" />
	<path style="fill:none;stroke:red;stroke-width:1px;stroke-linecap:butt;stroke-linejoin:miter;stroke-opacity:1" d="M nan,nan nan,nan z" id="boundary" inkscape:connector-curvature="0" />
	<path style="fill:none;stroke:red;stroke-width:1px;stroke-linecap:butt;stroke-linejoin:miter;stroke-opacity:1" d="M nan,nan nan,nan z" id="boundary" inkscape:connector-curvature="0" />
	<path style="fill:none;stroke:red;stroke-width:1px;stroke-linecap:butt;stroke-linejoin:miter;stroke-opacity:1" d="M nan,nan nan,nan z" id="boundary" inkscape:connector-curvature="0" />
	<path style="fill:none;stroke:red;stroke-width:1px;stroke-linecap:butt;stroke-linejoin:miter;stroke-opacity:1" d="M nan,nan nan,nan z" id="boundary" inkscape:connector-curvature="0" />
	<path style="fill:none;stroke:red;stroke-width:1px;stroke-linecap:butt;stroke-linejoin:miter;stroke-opacity:1" d="M nan,nan nan,nan z" id="boundary" inkscape:connector-curvature="0" />
	<path style="fill:none;stroke:red;stroke-width:1px;stroke-linecap:butt;stroke-linejoin:miter;stroke-opacity:1" d="M nan,nan nan,nan z" id="boundary" inkscape:connector-curvature="0" />
	<path style="fill:none;stroke:red;stroke-width:1px;stroke-linecap:butt;stroke-linejoin:miter;stroke-opacity:1" d="M nan,nan nan,nan z" id="boundary" inkscape:connector-curvature="0" />
	<path style="fill:none;stroke:red;stroke-width:1px;stroke-linecap:butt;stroke-linejoin:miter;stroke-opacity:1" d="M nan,nan nan,nan z" id="boundary" inkscape:connector-curvature="0" />
	<path style="fill:none;stroke:red;stroke-width:1px;stroke-linecap:butt;stroke-linejoin:miter;stroke-opacity:1" d="M nan,nan nan,nan z" id="boundary" inkscape:connector-curvature="0" />
	<path style="fill:none;stroke:red;stroke-width:1px;stroke-linecap:butt;stroke-linejoin:miter;stroke-opacity:1" d="M nan,nan nan,nan z" id="boundary" inkscape:connector-curvature="0" />
	<path style="fill:none;stroke:red;stroke-width:1px;stroke-linecap:butt;stroke-linejoin:miter;stroke-opacity:1" d="M nan,nan nan,nan z" id="boundary" inkscape:connector-curvature="0" />
	<path style="fill:none;stroke:red;stroke-width:1px;stroke-linecap:butt;stroke-linejoin:miter;stroke-opacity:1" d="M nan,nan nan,nan z" id="boundary" inkscape:connector-curvature="0" />
	<path style="fill:none;stroke:red;stroke-width:1px;stroke-linecap:butt;stroke-linejoin:miter;stroke-opacity:1" d="M nan,nan nan,nan z" id="boundary" inkscape:connector-curvature="0" />
	<path style="fill:none;stroke:red;stroke-width:1px;stroke-linecap:butt;stroke-linejoin:miter;stroke-opacity:1" d="M nan,nan nan,nan z" id="boundary" inkscape:connector-curvature="0" />
	<path style="fill:none;stroke:red;stroke-width:1px;stroke-linecap:butt;stroke-linejoin:miter;stroke-opacity:1" d="M nan,nan nan,nan z" id="boundary" inkscape:connector-curvature="0" />
	<path style="fill:none;stroke:red;stroke-width:1px;stroke-linecap:butt;stroke-linejoin:miter;stroke-opacity:1" d="M nan,nan nan,nan z" id="boundary" inkscape:connector-curvature="0" />
	<path style="fill:none;stroke:red;stroke-width:1px;stroke-linecap:butt;stroke-linejoin:miter;stroke-opacity:1" d="M nan,nan nan,nan z" id="boundary" inkscape:connector-curvature="0" />
	<path style="fill:none;stroke:red;stroke-width:1px;stroke-linecap:butt;stroke-linejoin:miter;stroke-opacity:1" d="M nan,nan nan,nan z" id="boundary" inkscape:connector-curvature="0" />
	<path style="fill:none;stroke:red;stroke-width:1px;stroke-linecap:butt;stroke-linejoin:miter;stroke-opacity:1" d="M nan,nan nan,nan z" id="boundary" inkscape:connector-curvature="0" />
	<path style="fill:none;stroke:red;stroke-width:1px;stroke-linecap:butt;stroke-linejoin:miter;stroke-opacity:1" d="M nan,nan nan,nan z" id="boundary" inkscape:connector-curvature="0" />
	<path style="fill:none;stroke:red;stroke-width:1px;stroke-linecap:butt;stroke-linejoin:miter;stroke-opacity:1" d="M nan,nan nan,nan z" id="boundary" inkscape:connector-curvature="0" />
	<path style="fill:none;stroke:red;stroke-width:1px;stroke-linecap:butt;stroke-linejoin:miter;stroke-opacity:1" d="M nan,nan nan,nan z" id="boundary" inkscape:connector-curvature="0" />
	<path style="fill:none;stroke:red;stroke-width:1px;stroke-linecap:butt;stroke-linejoin:miter;stroke-opacity:1" d="M nan,nan nan,nan z" id="boundary" inkscape:connector-curvature="0" />
	<path style="fill:none;stroke:red;stroke-width:1px;stroke-linecap:butt;stroke-linejoin:miter;stroke-opacity:1" d="M nan,nan nan,nan z" id="boundary" inkscape:connector-curvature="0" />
	<path style="fill:none;stroke:red;stroke-width:1px;stroke-linecap:butt;stroke-linejoin:miter;stroke-opacity:1" d="M nan,nan nan,nan z" id="boundary" inkscape:connector-curvature="0" />
	<path style="fill:none;stroke:red;stroke-width:1px;stroke-linecap:butt;stroke-linejoin:miter;stroke-opacity:1" d="M nan,nan nan,nan z" id="boundary" inkscape:connector-curvature="0" />
	<path style="fill:none;stroke:red;stroke-width:1px;stroke-linecap:butt;stroke-linejoin:miter;stroke-opacity:1" d="M nan,nan nan,nan z" id="boundary" inkscape:connector-curvature="0" />
	<path style="fill:none;stroke:red;stroke-width:1px;stroke-linecap:butt;stroke-linejoin:miter;stroke-opacity:1" d="M nan,nan nan,nan z" id="boundary" inkscape:connector-curvature="0" />
	<path style="fill:none;stroke:red;stroke-width:1px;stroke-linecap:butt;stroke-linejoin:miter;stroke-opacity:1" d="M nan,nan nan,nan z" id="boundary" inkscape:connector-curvature="0" />
	<path style="fill:none;stroke:red;stroke-width:1px;stroke-linecap:butt;stroke-linejoin:miter;stroke-opacity:1" d="M nan,nan nan,nan z" id="boundary" inkscape:connector-curvature="0" />
	<path style="fill:none;stroke:red;stroke-width:1px;stroke-linecap:butt;stroke-linejoin:miter;stroke-opacity:1" d="M nan,nan nan,nan z" id="boundary" inkscape:connector-curvature="0" />
	<path style="fill:none;stroke:red;stroke-width:1px;stroke-linecap:butt;stroke-linejoin:miter;stroke-opacity:1" d="M nan,nan nan,nan z" id="boundary" inkscape:connector-curvature="0" />
	<path style="fill:none;stroke:red;stroke-width:1px;stroke-linecap:butt;stroke-linejoin:miter;stroke-opacity:1" d="M nan,nan nan,nan z" id="boundary" inkscape:connector-curvature="0" />
	<path style="fill:none;stroke:red;stroke-width:1px;stroke-linecap:butt;stroke-linejoin:miter;stroke-opacity:1" d="M nan,nan nan,nan z" id="boundary" inkscape:connector-curvature="0" />
	<path style="fill:none;stroke:red;stroke-width:1px;stroke-linecap:butt;stroke-linejoin:miter;stroke-opacity:1" d="M nan,nan nan,nan z" id="boundary" inkscape:connector-curvature="0" />
	<path style="fill:none;stroke:red;stroke-width:1px;stroke-linecap:butt;stroke-linejoin:miter;stroke-opacity:1" d="M nan,nan nan,nan z" id="boundary" inkscape:connector-curvature="0" />
	<path style="fill:none;stroke:red;stroke-width:1px;stroke-linecap:butt;stroke-linejoin:miter;stroke-opacity:1" d="M nan,nan nan,nan z" id="boundary" inkscape:connector-curvature="0" />
	<path style="fill:none;stroke:red;stroke-width:1px;stroke-linecap:butt;stroke-linejoin:miter;stroke-opacity:1" d="M nan,nan nan,nan z" id="boundary" inkscape:connector-curvature="0" />
	<path style="fill:none;stroke:red;stroke-width:1px;stroke-linecap:butt;stroke-linejoin:miter;stroke-opacity:1" d="M nan,nan nan,nan z" id="boundary" inkscape:connector-curvature="0" />
	<path style="fill:none;stroke:red;stroke-width:1px;stroke-linecap:butt;stroke-linejoin:miter;stroke-opacity:1" d="M nan,nan nan,nan z" id="boundary" inkscape:connector-curvature="0" />
	<path style="fill:none;stroke:red;stroke-width:1px;stroke-linecap:butt;stroke-linejoin:miter;stroke-opacity:1" d="M nan,nan nan,nan z" id="boundary" inkscape:connector-curvature="0" />
	<path style="fill:none;stroke:red;stroke-width:1px;stroke-linecap:butt;stroke-linejoin:miter;stroke-opacity:1" d="M nan,nan nan,nan z" id="boundary" inkscape:connector-curvature="0" />
	<path style="fill:none;stroke:red;stroke-width:1px;stroke-linecap:butt;stroke-linejoin:miter;stroke-opacity:1" d="M nan,nan nan,nan z" id="boundary" inkscape:connector-curvature="0" />
	<path style="fill:none;stroke:red;stroke-width:1px;stroke-linecap:butt;stroke-linejoin:miter;stroke-opacity:1" d="M nan,nan nan,nan z" id="boundary" inkscape:connector-curvature="0" />
	<path style="fill:none;stroke:red;stroke-width:1px;stroke-linecap:butt;stroke-linejoin:miter;stroke-opacity:1" d="M nan,nan nan,nan z" id="boundary" inkscape:connector-curvature="0" />
	<path style="fill:none;stroke:red;stroke-width:1px;stroke-linecap:butt;stroke-linejoin:miter;stroke-opacity:1" d="M nan,nan nan,nan z" id="boundary" inkscape:connector-curvature="0" />
	<path style="fill:none;stroke:red;stroke-width:1px;stroke-linecap:butt;stroke-linejoin:miter;stroke-opacity:1" d="M nan,nan nan,nan z" id="boundary" inkscape:connector-curvature="0" />
	<path style="fill:none;stroke:red;stroke-width:1px;stroke-linecap:butt;stroke-linejoin:miter;stroke-opacity:1" d="M nan,nan nan,nan z" id="boundary" inkscape:connector-curvature="0" />
	<path style="fill:none;stroke:red;stroke-width:1px;stroke-linecap:butt;stroke-linejoin:miter;stroke-opacity:1" d="M nan,nan nan,nan z" id="boundary" inkscape:connector-curvature="0" />
	<path style="fill:none;stroke:red;stroke-width:1px;stroke-linecap:butt;stroke-linejoin:miter;stroke-opacity:1" d="M nan,nan nan,nan z" id="boundary" inkscape:connector-curvature="0" />
	<path style="fill:none;stroke:red;stroke-width:1px;stroke-linecap:butt;stroke-linejoin:miter;stroke-opacity:1" d="M nan,nan nan,nan z" id="boundary" inkscape:connector-curvature="0" />
	<path style="fill:none;stroke:red;stroke-width:1px;stroke-linecap:butt;stroke-linejoin:miter;stroke-opacity:1" d="M nan,nan nan,nan z" id="boundary" inkscape:connector-curvature="0" />
	<path style="fill:none;stroke:red;stroke-width:1px;stroke-linecap:butt;stroke-linejoin:miter;stroke-opacity:1" d="M nan,nan nan,nan z" id="boundary" inkscape:connector-curvature="0" />
	<path style="fill:none;stroke:red;stroke-width:1px;stroke-linecap:butt;stroke-linejoin:miter;stroke-opacity:1" d="M nan,nan nan,nan z" id="boundary" inkscape:connector-curvature="0" />
	<path style="fill:none;stroke:red;stroke-width:1px;stroke-linecap:butt;stroke-linejoin:miter;stroke-opacity:1" d="M nan,nan nan,nan z" id="boundary" inkscape:connector-curvature="0" />
	<path style="fill:none;stroke:red;stroke-width:1px;stroke-linecap:butt;stroke-linejoin:miter;stroke-opacity:1" d="M nan,nan nan,nan z" id="boundary" inkscape:connector-curvature="0" />
	<path style="fill:none;stroke:red;stroke-width:1px;stroke-linecap:butt;stroke-linejoin:miter;stroke-opacity:1" d="M nan,nan nan,nan z" id="boundary" inkscape:connector-curvature="0" />
	<path style="fill:none;stroke:red;stroke-width:1px;stroke-linecap:butt;stroke-linejoin:miter;stroke-opacity:1" d="M nan,nan nan,nan z" id="boundary" inkscape:connector-curvature="0" />
	<path style="fill:none;stroke:red;stroke-width:1px;stroke-linecap:butt;stroke-linejoin:miter;stroke-opacity:1" d="M nan,nan nan,nan z" id="boundary" inkscape:connector-curvature="0" />
	<path style="fill:none;stroke:red;stroke-width:1px;stroke-linecap:butt;stroke-linejoin:miter;stroke-opacity:1" d="M nan,nan nan,nan z" id="boundary" inkscape:connector-curvature="0" />
	<path style="fill:none;stroke:red;stroke-width:1px;stroke-linecap:butt;stroke-linejoin:miter;stroke-opacity:1" d="M nan,nan nan,nan z" id="boundary" inkscape:connector-curvature="0" />
	<path style="fill:none;stroke:red;stroke-width:1px;stroke-linecap:butt;stroke-linejoin:miter;stroke-opacity:1" d="M nan,nan nan,nan z" id="boundary" inkscape:connector-curvature="0" />
	<path style="fill:none;stroke:red;stroke-width:1px;stroke-linecap:butt;stroke-linejoin:miter;stroke-opacity:1" d="M nan,nan nan,nan z" id="boundary" inkscape:connector-curvature="0" />
	<path style="fill:none;stroke:red;stroke-width:1px;stroke-linecap:butt;stroke-linejoin:miter;stroke-opacity:1" d="M nan,nan nan,nan z" id="boundary" inkscape:connector-curvature="0" />
	<path style="fill:none;stroke:red;stroke-width:1px;stroke-linecap:butt;stroke-linejoin:miter;stroke-opacity:1" d="M nan,nan nan,nan z" id="boundary" inkscape:connector-curvature="0" />
	<path style="fill:none;stroke:red;stroke-width:1px;stroke-linecap:butt;stroke-linejoin:miter;stroke-opacity:1" d="M nan,nan nan,nan z" id="boundary" inkscape:connector-curvature="0" />
	<path style="fill:none;stroke:red;stroke-width:1px;stroke-linecap:butt;stroke-linejoin:miter;stroke-opacity:1" d="M nan,nan nan,nan z" id="boundary" inkscape:connector-curvature="0" />
	<path style="fill:none;stroke:red;stroke-width:1px;stroke-linecap:butt;stroke-linejoin:miter;stroke-opacity:1" d="M nan,nan nan,nan z" id="boundary" inkscape:connector-curvature="0" />
	<path style="fill:none;stroke:red;stroke-width:1px;stroke-linecap:butt;stroke-linejoin:miter;stroke-opacity:1" d="M nan,nan nan,nan z" id="boundary" inkscape:connector-curvature="0" />
	<path style="fill:none;stroke:red;stroke-width:1px;stroke-linecap:butt;stroke-linejoin:miter;stroke-opacity:1" d="M nan,nan nan,nan z" id="boundary" inkscape:connector-curvature="0" />
	<path style="fill:none;stroke:red;stroke-width:1px;stroke-linecap:butt;stroke-linejoin:miter;stroke-opacity:1" d="M nan,nan nan,nan z" id="boundary" inkscape:connector-curvature="0" />
	<path style="fill:none;stroke:red;stroke-width:1px;stroke-linecap:butt;stroke-linejoin:miter;stroke-opacity:1" d="M nan,nan nan,nan z" id="boundary" inkscape:connector-curvature="0" />
	<path style="fill:none;stroke:red;stroke-width:1px;stroke-linecap:butt;stroke-linejoin:miter;stroke-opacity:1" d="M nan,nan nan,nan z" id="boundary" inkscape:connector-curvature="0" />
	<path style="fill:none;stroke:red;stroke-width:1px;stroke-linecap:butt;stroke-linejoin:miter;stroke-opacity:1" d="M nan,nan nan,nan z" id="boundary" inkscape:connector-curvature="0" />
	<path style="fill:none;stroke:red;stroke-width:1px;stroke-linecap:butt;stroke-linejoin:miter;stroke-opacity:1" d="M nan,nan nan,nan z" id="boundary" inkscape:connector-curvature="0" />
	<path style="fill:none;stroke:red;stroke-width:1px;stroke-linecap:butt;stroke-linejoin:miter;stroke-opacity:1" d="M nan,nan nan,nan z" id="boundary" inkscape:connector-curvature="0" />
	<path style="fill:none;stroke:red;stroke-width:1px;stroke-linecap:butt;stroke-linejoin:miter;stroke-opacity:1" d="M nan,nan nan,nan z" id="boundary" inkscape:connector-curvature="0" />
	<path style="fill:none;stroke:red;stroke-width:1px;stroke-linecap:butt;stroke-linejoin:miter;stroke-opacity:1" d="M nan,nan nan,nan z" id="boundary" inkscape:connector-curvature="0" />
	<path style="fill:none;stroke:red;stroke-width:1px;stroke-linecap:butt;stroke-linejoin:miter;stroke-opacity:1" d="M nan,nan nan,nan z" id="boundary" inkscape:connector-curvature="0" />
	<path style="fill:none;stroke:red;stroke-width:1px;stroke-linecap:butt;stroke-linejoin:miter;stroke-opacity:1" d="M nan,nan nan,nan z" id="boundary" inkscape:connector-curvature="0" />
	<path style="fill:none;stroke:red;stroke-width:1px;stroke-linecap:butt;stroke-linejoin:miter;stroke-opacity:1" d="M nan,nan nan,nan z" id="boundary" inkscape:connector-curvature="0" />
	<path style="fill:none;stroke:red;stroke-width:1px;stroke-linecap:butt;stroke-linejoin:miter;stroke-opacity:1" d="M nan,nan nan,nan z" id="boundary" inkscape:connector-curvature="0" />
	<path style="fill:none;stroke:red;stroke-width:1px;stroke-linecap:butt;stroke-linejoin:miter;stroke-opacity:1" d="M nan,nan nan,nan z" id="boundary" inkscape:connector-curvature="0" />
	<path style="fill:none;stroke:red;stroke-width:1px;stroke-linecap:butt;stroke-linejoin:miter;stroke-opacity:1" d="M nan,nan nan,nan z" id="boundary" inkscape:connector-curvature="0" />
	<path style="fill:none;stroke:red;stroke-width:1px;stroke-linecap:butt;stroke-linejoin:miter;stroke-opacity:1" d="M nan,nan nan,nan z" id="boundary" inkscape:connector-curvature="0" />
	<path style="fill:none;stroke:red;stroke-width:1px;stroke-linecap:butt;stroke-linejoin:miter;stroke-opacity:1" d="M nan,nan nan,nan z" id="boundary" inkscape:connector-curvature="0" />
	<path style="fill:none;stroke:red;stroke-width:1px;stroke-linecap:butt;stroke-linejoin:miter;stroke-opacity:1" d="M nan,nan nan,nan z" id="boundary" inkscape:connector-curvature="0" />
	<path style="fill:none;stroke:red;stroke-width:1px;stroke-linecap:butt;stroke-linejoin:miter;stroke-opacity:1" d="M nan,nan nan,nan z" id="boundary" inkscape:connector-curvature="0" />
	<path style="fill:none;stroke:red;stroke-width:1px;stroke-linecap:butt;stroke-linejoin:miter;stroke-opacity:1" d="M nan,nan nan,nan z" id="boundary" inkscape:connector-curvature="0" />
	<path style="fill:none;stroke:red;stroke-width:1px;stroke-linecap:butt;stroke-linejoin:miter;stroke-opacity:1" d="M nan,nan nan,nan z" id="boundary" inkscape:connector-curvature="0" />
	<path style="fill:none;stroke:red;stroke-width:1px;stroke-linecap:butt;stroke-linejoin:miter;stroke-opacity:1" d="M nan,nan nan,nan z" id="boundary" inkscape:connector-curvature="0" />
	<path style="fill:none;stroke:red;stroke-width:1px;stroke-linecap:butt;stroke-linejoin:miter;stroke-opacity:1" d="M nan,nan nan,nan z" id="boundary" inkscape:connector-curvature="0" />
	<path style="fill:none;stroke:red;stroke-width:1px;stroke-linecap:butt;stroke-linejoin:miter;stroke-opacity:1" d="M nan,nan nan,nan z" id="boundary" inkscape:connector-curvature="0" />
	<path style="fill:none;stroke:red;stroke-width:1px;stroke-linecap:butt;stroke-linejoin:miter;stroke-opacity:1" d="M nan,nan nan,nan z" id="boundary" inkscape:connector-curvature="0" />
	<path style="fill:none;stroke:red;stroke-width:1px;stroke-linecap:butt;stroke-linejoin:miter;stroke-opacity:1" d="M nan,nan nan,nan z" id="boundary" inkscape:connector-curvature="0" />
	<path style="fill:none;stroke:red;stroke-width:1px;stroke-linecap:butt;stroke-linejoin:miter;stroke-opacity:1" d="M nan,nan nan,nan z" id="boundary" inkscape:connector-curvature="0" />
	<path style="fill:none;stroke:red;stroke-width:1px;stroke-linecap:butt;stroke-linejoin:miter;stroke-opacity:1" d="M nan,nan nan,nan z" id="boundary" inkscape:connector-curvature="0" />
	<path style="fill:none;stroke:red;stroke-width:1px;stroke-linecap:butt;stroke-linejoin:miter;stroke-opacity:1" d="M nan,nan nan,nan z" id="boundary" inkscape:connector-curvature="0" />
	<path style="fill:none;stroke:red;stroke-width:1px;stroke-linecap:butt;stroke-linejoin:miter;stroke-opacity:1" d="M nan,nan nan,nan z" id="boundary" inkscape:connector-curvature="0" />
	<path style="fill:none;stroke:red;stroke-width:1px;stroke-linecap:butt;stroke-linejoin:miter;stroke-opacity:1" d="M nan,nan nan,nan z" id="boundary" inkscape:connector-curvature="0" />
	<path style="fill:none;stroke:red;stroke-width:1px;stroke-linecap:butt;stroke-linejoin:miter;stroke-opacity:1" d="M nan,nan nan,nan z" id="boundary" inkscape:connector-curvature="0" />
	<path style="fill:none;stroke:red;stroke-width:1px;stroke-linecap:butt;stroke-linejoin:miter;stroke-opacity:1" d="M nan,nan nan,nan z" id="boundary" inkscape:connector-curvature="0" />
	<path style="fill:none;stroke:red;stroke-width:1px;stroke-linecap:butt;stroke-linejoin:miter;stroke-opacity:1" d="M nan,nan nan,nan z" id="boundary" inkscape:connector-curvature="0" />
	<path style="fill:none;stroke:red;stroke-width:1px;stroke-linecap:butt;stroke-linejoin:miter;stroke-opacity:1" d="M nan,nan nan,nan z" id="boundary" inkscape:connector-curvature="0" />
	<path style="fill:none;stroke:red;stroke-width:1px;stroke-linecap:butt;stroke-linejoin:miter;stroke-opacity:1" d="M nan,nan nan,nan z" id="boundary" inkscape:connector-curvature="0" />
	<path style="fill:none;stroke:red;stroke-width:1px;stroke-linecap:butt;stroke-linejoin:miter;stroke-opacity:1" d="M nan,nan nan,nan z" id="boundary" inkscape:connector-curvature="0" />
	<path style="fill:none;stroke:red;stroke-width:1px;stroke-linecap:butt;stroke-linejoin:miter;stroke-opacity:1" d="M nan,nan nan,nan z" id="boundary" inkscape:connector-curvature="0" />
	<path style="fill:none;stroke:red;stroke-width:1px;stroke-linecap:butt;stroke-linejoin:miter;stroke-opacity:1" d="M nan,nan nan,nan z" id="boundary" inkscape:connector-curvature="0" />
	<path style="fill:none;stroke:red;stroke-width:1px;stroke-linecap:butt;stroke-linejoin:miter;stroke-opacity:1" d="M nan,nan nan,nan z" id="boundary" inkscape:connector-curvature="0" />
	<path style="fill:none;stroke:red;stroke-width:1px;stroke-linecap:butt;stroke-linejoin:miter;stroke-opacity:1" d="M nan,nan nan,nan z" id="boundary" inkscape:connector-curvature="0" />
	<path style="fill:none;stroke:red;stroke-width:1px;stroke-linecap:butt;stroke-linejoin:miter;stroke-opacity:1" d="M nan,nan nan,nan z" id="boundary" inkscape:connector-curvature="0" />
	<path style="fill:none;stroke:red;stroke-width:1px;stroke-linecap:butt;stroke-linejoin:miter;stroke-opacity:1" d="M nan,nan nan,nan z" id="boundary" inkscape:connector-curvature="0" />
	<path style="fill:none;stroke:red;stroke-width:1px;stroke-linecap:butt;stroke-linejoin:miter;stroke-opacity:1" d="M nan,nan nan,nan z" id="boundary" inkscape:connector-curvature="0" />
	<path style="fill:none;stroke:red;stroke-width:1px;stroke-linecap:butt;stroke-linejoin:miter;stroke-opacity:1" d="M nan,nan nan,nan z" id="boundary" inkscape:connector-curvature="0" />
	<path style="fill:none;stroke:red;stroke-width:1px;stroke-linecap:butt;stroke-linejoin:miter;stroke-opacity:1" d="M nan,nan nan,nan z" id="boundary" inkscape:connector-curvature="0" />
	<path style="fill:none;stroke:red;stroke-width:1px;stroke-linecap:butt;stroke-linejoin:miter;stroke-opacity:1" d="M nan,nan nan,nan z" id="boundary" inkscape:connector-curvature="0" />
	<path style="fill:none;stroke:red;stroke-width:1px;stroke-linecap:butt;stroke-linejoin:miter;stroke-opacity:1" d="M nan,nan nan,nan z" id="boundary" inkscape:connector-curvature="0" />
	<path style="fill:none;stroke:red;stroke-width:1px;stroke-linecap:butt;stroke-linejoin:miter;stroke-opacity:1" d="M nan,nan nan,nan z" id="boundary" inkscape:connector-curvature="0" />
	<path style="fill:none;stroke:red;stroke-width:1px;stroke-linecap:butt;stroke-linejoin:miter;stroke-opacity:1" d="M nan,nan nan,nan z" id="boundary" inkscape:connector-curvature="0" />
	<path style="fill:none;stroke:red;stroke-width:1px;stroke-linecap:butt;stroke-linejoin:miter;stroke-opacity:1" d="M nan,nan nan,nan z" id="boundary" inkscape:connector-curvature="0" />
	<path style="fill:none;stroke:red;stroke-width:1px;stroke-linecap:butt;stroke-linejoin:miter;stroke-opacity:1" d="M nan,nan nan,nan z" id="boundary" inkscape:connector-curvature="0" />
	<path style="fill:none;stroke:red;stroke-width:1px;stroke-linecap:butt;stroke-linejoin:miter;stroke-opacity:1" d="M nan,nan nan,nan z" id="boundary" inkscape:connector-curvature="0" />
	<path style="fill:none;stroke:red;stroke-width:1px;stroke-linecap:butt;stroke-linejoin:miter;stroke-opacity:1" d="M nan,nan nan,nan z" id="boundary" inkscape:connector-curvature="0" />
	<path style="fill:none;stroke:red;stroke-width:1px;stroke-linecap:butt;stroke-linejoin:miter;stroke-opacity:1" d="M nan,nan nan,nan z" id="boundary" inkscape:connector-curvature="0" />
	<path style="fill:none;stroke:red;stroke-width:1px;stroke-linecap:butt;stroke-linejoin:miter;stroke-opacity:1" d="M nan,nan nan,nan z" id="boundary" inkscape:connector-curvature="0" />
	<path style="fill:none;stroke:red;stroke-width:1px;stroke-linecap:butt;stroke-linejoin:miter;stroke-opacity:1" d="M nan,nan nan,nan z" id="boundary" inkscape:connector-curvature="0" />
	<path style="fill:none;stroke:red;stroke-width:1px;stroke-linecap:butt;stroke-linejoin:miter;stroke-opacity:1" d="M nan,nan nan,nan z" id="boundary" inkscape:connector-curvature="0" />
	<path style="fill:none;stroke:red;stroke-width:1px;stroke-linecap:butt;stroke-linejoin:miter;stroke-opacity:1" d="M nan,nan nan,nan z" id="boundary" inkscape:connector-curvature="0" />
	<path style="fill:none;stroke:red;stroke-width:1px;stroke-linecap:butt;stroke-linejoin:miter;stroke-opacity:1" d="M nan,nan nan,nan z" id="boundary" inkscape:connector-curvature="0" />
	<path style="fill:none;stroke:red;stroke-width:1px;stroke-linecap:butt;stroke-linejoin:miter;stroke-opacity:1" d="M nan,nan nan,nan z" id="boundary" inkscape:connector-curvature="0" />
	<path style="fill:none;stroke:red;stroke-width:1px;stroke-linecap:butt;stroke-linejoin:miter;stroke-opacity:1" d="M nan,nan nan,nan z" id="boundary" inkscape:connector-curvature="0" />
	<path style="fill:none;stroke:red;stroke-width:1px;stroke-linecap:butt;stroke-linejoin:miter;stroke-opacity:1" d="M nan,nan nan,nan z" id="boundary" inkscape:connector-curvature="0" />
	<path style="fill:none;stroke:red;stroke-width:1px;stroke-linecap:butt;stroke-linejoin:miter;stroke-opacity:1" d="M nan,nan nan,nan z" id="boundary" inkscape:connector-curvature="0" />
	<circle cx="4" cy="748" r="4" fill="#0" id="circle0"/>
	<circle cx="35" cy="803.8" r="4" fill="#0" id="circle1"/>
	<circle cx="66" cy="741.8" r="4" fill="#0" id="circle2"/>
	<circle cx="66" cy="859.6" r="4" fill="#0" id="circle3"/>
	<circle cx="nan" cy="nan" r="4" fill="#0" id="circle4"/>
	<circle cx="109.4" cy="977.4" r="4" fill="#0" id="circle5"/>
	<circle cx="121.8" cy="772.8" r="4" fill="#0" id="circle6"/>
	<circle cx="nan" cy="nan" r="4" fill="#0" id="circle7"/>
	<circle cx="nan" cy="nan" r="4" fill="#0" id="circle8"/>
	<circle cx="147.564" cy="794.351" r="4" fill="#0" id="circle9"/>
	<circle cx="190" cy="283" r="4" fill="#0" id="circle10"/>
	<circle cx="177.366" cy="342.863" r="4" fill="#0" id="circle11"/>
	<circle cx="177.291" cy="407.999" r="4" fill="#0" id="circle12"/>
	<circle cx="190" cy="469" r="4" fill="#0" id="circle13"/>
	<circle cx="nan" cy="nan" r="4" fill="#0" id="circle14"/>
	<circle cx="231.574" cy="522.312" r="4" fill="#0" id="circle15"/>
	<circle cx="221" cy="586.8" r="4" fill="#0" id="circle16"/>
	<circle cx="nan" cy="nan" r="4" fill="#0" id="circle17"/>
	<circle cx="239.6" cy="233.4" r="4" fill="#0" id="circle18"/>
	<circle cx="239.6" cy="828.6" r="4" fill="#0" id="circle19"/>
	<circle cx="289.954" cy="629.193" r="4" fill="#0" id="circle20"/>
	<circle cx="nan" cy="nan" r="4" fill="#0" id="circle21"/>
	<circle cx="270.6" cy="704.6" r="4" fill="#0" id="circle22"/>
	<circle cx="nan" cy="nan" r="4" fill="#0" id="circle23"/>
	<circle cx="301.6" cy="233.4" r="4" fill="#0" id="circle24"/>
	<circle cx="301.6" cy="760.4" r="4" fill="#0" id="circle25"/>
	<circle cx="301.6" cy="853.4" r="4" fill="#0" id="circle26"/>
	<circle cx="nan" cy="nan" r="4" fill="#0" id="circle27"/>
	<circle cx="363.6" cy="233.4" r="4" fill="#0" id="circle28"/>
	<circle cx="nan" cy="nan" r="4" fill="#0" id="circle29"/>
	<circle cx="419.4" cy="264.4" r="4" fill="#0" id="circle30"/>
	<circle cx="nan" cy="nan" r="4" fill="#0" id="circle31"/>
	<circle cx="469" cy="307.8" r="4" fill="#0" id="circle32"/>
	<circle cx="506.2" cy="357.4" r="4" fill="#0" id="circle33"/>
	<circle cx="506.2" cy="419.4" r="4" fill="#0" id="circle34"/>
	<circle cx="nan" cy="nan" r="4" fill="#0" id="circle35"/>
	<circle cx="537.2" cy="475.2" r="4" fill="#0" id="circle36"/>
	<circle cx="537.2" cy="537.2" r="4" fill="#0" id="circle37"/>
	<circle cx="nan" cy="nan" r="4" fill="#0" id="circle38"/>
	<circle cx="nan" cy="nan" r="4" fill="#0" id="circle39"/>
	<circle cx="558.735" cy="596.741" r="4" fill="#0" id="circle40"/>
	<circle cx="nan" cy="nan" r="4" fill="#0" id="circle41"/>
	<circle cx="593" cy="655" r="4" fill="#0" id="circle42"/>
	<circle cx="nan" cy="nan" r="4" fill="#0" id="circle43"/>
	<circle cx="nan" cy="nan" r="4" fill="#0" id="circle44"/>
	<circle cx="nan" cy="nan" r="4" fill="#0" id="circle45"/>
	<circle cx="nan" cy="nan" r="4" fill="#0" id="circle46"/>
	<circle cx="nan" cy="nan" r="4" fill="#0" id="circle47"/>
	<circle cx="629.468" cy="718.263" r="4" fill="#0" id="circle48"/>
	<circle cx="nan" cy="nan" r="4" fill="#0" id="circle49"/>
	<circle cx="nan" cy="nan" r="4" fill="#0" id="circle50"/>
	<circle cx="648.8" cy="772.8" r="4" fill="#0" id="circle51"/>
	<circle cx="nan" cy="nan" r="4" fill="#0" id="circle52"/>
	<circle cx="nan" cy="nan" r="4" fill="#0" id="circle53"/>
	<circle cx="-nan" cy="-nan" r="4" fill="#0" id="circle54"/>
	<circle cx="-nan" cy="-nan" r="4" fill="#0" id="circle55"/>
	<circle cx="655" cy="4" r="4" fill="#0" id="circle56"/>
	<circle cx="nan" cy="nan" r="4" fill="#0" id="circle57"/>
	<circle cx="nan" cy="nan" r="4" fill="#0" id="circle58"/>
	<circle cx="679.8" cy="828.6" r="4" fill="#0" id="circle59"/>
	<circle cx="686" cy="59.8" r="4" fill="#0" id="circle60"/>
	<circle cx="686" cy="121.8" r="4" fill="#0" id="circle61"/>
	<circle cx="686" cy="183.8" r="4" fill="#0" id="circle62"/>
	<circle cx="nan" cy="nan" r="4" fill="#0" id="circle63"/>
	<circle cx="704.6" cy="890.6" r="4" fill="#0" id="circle64"/>
	<circle cx="nan" cy="nan" r="4" fill="#0" id="circle65"/>
	<circle cx="717" cy="239.6" r="4" fill="#0" id="circle66"/>
	<circle cx="nan" cy="nan" r="4" fill="#0" id="circle67"/>
	<circle cx="nan" cy="nan" r="4" fill="#0" id="circle68"/>
	<circle cx="735.6" cy="301.6" r="4" fill="#0" id="circle69"/>
	<circle cx="748" cy="363.6" r="4" fill="#0" id="circle70"/>
	<circle cx="748.003" cy="425.6" r="4" fill="#0" id="circle71"/>
	<circle cx="748" cy="487.6" r="4" fill="#0" id="circle72"/>
	<circle cx="nan" cy="nan" r="4" fill="#0" id="circle73"/>
	<circle cx="nan" cy="nan" r="4" fill="#0" id="circle74"/>
	<circle cx="nan" cy="nan" r="4" fill="#0" id="circle75"/>
	<circle cx="754.2" cy="934" r="4" fill="#0" id="circle76"/>
	<circle cx="nan" cy="nan" r="4" fill="#0" id="circle77"/>
	<circle cx="766.6" cy="549.6" r="4" fill="#0" id="circle78"/>
	<circle cx="nan" cy="nan" r="4" fill="#0" id="circle79"/>
	<circle cx="777.806" cy="611.87" r="4" fill="#0" id="circle80"/>
	<circle cx="786.891" cy="672.052" r="4" fill="#0" id="circle81"/>
	<circle cx="779" cy="996" r="4" fill="#0" id="circle82"/>
	<circle cx="nan" cy="nan" r="4" fill="#0" id="circle83"/>
	<circle cx="nan" cy="nan" r="4" fill="#0" id="circle84"/>
	<circle cx="nan" cy="nan" r="4" fill="#0" id="circle85"/>
	<circle cx="nan" cy="nan" r="4" fill="#0" id="circle86"/>
	<circle cx="nan" cy="nan" r="4" fill="#0" id="circle87"/>
	<circle cx="799.43" cy="732.189" r="4" fill="#0" id="circle88"/>
	<circle cx="810" cy="791.4" r="4" fill="#0" id="circle89"/>
	<circle cx="nan" cy="nan" r="4" fill="#0" id="circle90"/>
	<circle cx="nan" cy="nan" r="4" fill="#0" id="circle91"/>
	<circle cx="841" cy="847.2" r="4" fill="#0" id="circle92"/>
	<circle cx="841" cy="996" r="4" fill="#0" id="circle93"/>
	<circle cx="847.2" cy="909.2" r="4" fill="#0" id="circle94"/>
	<circle cx="nan" cy="nan" r="4" fill="#0" id="circle95"/>
	<circle cx="nan" cy="nan" r="4" fill="#0" id="circle96"/>
	<circle cx="nan" cy="nan" r="4" fill="#0" id="circle97"/>
	<circle cx="nan" cy="nan" r="4" fill="#0" id="circle98"/>
	<circle cx="nan" cy="nan" r="4" fill="#0" id="circle99"/>
	<circle cx="nan" cy="nan" r="4" fill="#0" id="circle100"/>
	<circle cx="nan" cy="nan" r="4" fill="#0" id="circle101"/>
	<circle cx="nan" cy="nan" r="4" fill="#0" id="circle102"/>
	<circle cx="nan" cy="nan" r="4" fill="#0" id="circle103"/>
	<circle cx="nan" cy="nan" r="4" fill="#0" id="circle104"/>
	<circle cx="nan" cy="nan" r="4" fill="#0" id="circle105"/>
	<circle cx="nan" cy="nan" r="4" fill="#0" id="circle106"/>
	<circle cx="nan" cy="nan" r="4" fill="#0" id="circle107"/>
	<circle cx="nan" cy="nan" r="4" fill="#0" id="circle108"/>
	<circle cx="nan" cy="nan" r="4" fill="#0" id="circle109"/>
	<circle cx="nan" cy="nan" r="4" fill="#0" id="circle110"/>
	<circle cx="nan" cy="nan" r="4" fill="#0" id="circle111"/>
	<circle cx="nan" cy="nan" r="4" fill="#0" id="circle112"/>
	<circle cx="nan" cy="nan" r="4" fill="#0" id="circle113"/>
	<circle cx="nan" cy="nan" r="4" fill="#0" id="circle114"/>
	<circle cx="nan" cy="nan" r="4" fill="#0" id="circle115"/>
	<circle cx="nan" cy="nan" r="4" fill="#0" id="circle116"/>
	<circle cx="nan" cy="nan" r="4" fill="#0" id="circle117"/>
	<circle cx="nan" cy="nan" r="4" fill="#0" id="circle118"/>
	<circle cx="nan" cy="nan" r="4" fill="#0" id="circle119"/>
	<circle cx="nan" cy="nan" r="4" fill="#0" id="circle120"/>
	<circle cx="nan" cy="nan" r="4" fill="#0" id="circle121"/>
	<circle cx="nan" cy="nan" r="4" fill="#0" id="circle122"/>
	<circle cx="nan" cy="nan" r="4" fill="#0" id="circle123"/>
	<circle cx="nan" cy="nan" r="4" fill="#0" id="circle124"/>
	<circle cx="nan" cy="nan" r="4" fill="#0" id="circle125"/>
	<circle cx="nan" cy="nan" r="4" fill="#0" id="circle126"/>
	<circle cx="nan" cy="nan" r="4" fill="#0" id="circle127"/>
	<circle cx="nan" cy="nan" r="4" fill="#0" id="circle128"/>
	<circle cx="nan" cy="nan" r="4" fill="#0" id="circle129"/>
	<circle cx="nan" cy="nan" r="4" fill="#0" id="circle130"/>
	<circle cx="nan" cy="nan" r="4" fill="#0" id="circle131"/>
	<circle cx="nan" cy="nan" r="4" fill="#0" id="circle132"/>
	<circle cx="nan" cy="nan" r="4" fill="#0" id="circle133"/>
	<circle cx="nan" cy="nan" r="4" fill="#0" id="circle134"/>
	<circle cx="nan" cy="nan" r="4" fill="#0" id="circle135"/>
	<circle cx="nan" cy="nan" r="4" fill="#0" id="circle136"/>
	<circle cx="nan" cy="nan" r="4" fill="#0" id="circle137"/>
	<circle cx="nan" cy="nan" r="4" fill="#0" id="circle138"/>
	<circle cx="nan" cy="nan" r="4" fill="#0" id="circle139"/>
	<circle cx="nan" cy="nan" r="4" fill="#0" id="circle140"/>
	<circle cx="nan" cy="nan" r="4" fill="#0" id="circle141"/>
	<circle cx="nan" cy="nan" r="4" fill="#0" id="circle142"/>
	<circle cx="nan" cy="nan" r="4" fill="#0" id="circle143"/>
	<circle cx="nan" cy="nan" r="4" fill="#0" id="circle144"/>
	<circle cx="nan" cy="nan" r="4" fill="#0" id="circle145"/>
	<circle cx="nan" cy="nan" r="4" fill="#0" id="circle146"/>
	<circle cx="nan" cy="nan" r="4" fill="#0" id="circle147"/>
	<circle cx="nan" cy="nan" r="4" fill="#0" id="circle148"/>
	<circle cx="nan" cy="nan" r="4" fill="#0" id="circle149"/>
	<circle cx="nan" cy="nan" r="4" fill="#0" id="circle150"/>
	<circle cx="nan" cy="nan" r="4" fill="#0" id="circle151"/>
	<circle cx="nan" cy="nan" r="4" fill="#0" id="circle152"/>
	<circle cx="nan" cy="nan" r="4" fill="#0" id="circle153"/>
	<circle cx="nan" cy="nan" r="4" fill="#0" id="circle154"/>
	<circle cx="nan" cy="nan" r="4" fill="#0" id="circle155"/>
	<circle cx="nan" cy="nan" r="4" fill="#0" id="circle156"/>
	<circle cx="nan" cy="nan" r="4" fill="#0" id="circle157"/>
	<circle cx="nan" cy="nan" r="4" fill="#0" id="circle158"/>
	<circle cx="nan" cy="nan" r="4" fill="#0" id="circle159"/>
	<circle cx="nan" cy="nan" r="4" fill="#0" id="circle160"/>
	<circle cx="nan" cy="nan" r="4" fill="#0" id="circle161"/>
	<circle cx="nan" cy="nan" r="4" fill="#0" id="circle162"/>
	<circle cx="nan" cy="nan" r="4" fill="#0" id="circle163"/>
	<circle cx="nan" cy="nan" r="4" fill="#0" id="circle164"/>
	<circle cx="nan" cy="nan" r="4" fill="#0" id="circle165"/>
	<circle cx="nan" cy="nan" r="4" fill="#0" id="circle166"/>
	<circle cx="nan" cy="nan" r="4" fill="#0" id="circle167"/>
	<circle cx="nan" cy="nan" r="4" fill="#0" id="circle168"/>
	<circle cx="nan" cy="nan" r="4" fill="#0" id="circle169"/>
	<circle cx="nan" cy="nan" r="4" fill="#0" id="circle170"/>
	<circle cx="nan" cy="nan" r="4" fill="#0" id="circle171"/>
	<circle cx="nan" cy="nan" r="4" fill="#0" id="circle172"/>
	<circle cx="nan" cy="nan" r="4" fill="#0" id="circle173"/>
	<circle cx="nan" cy="nan" r="4" fill="#0" id="circle174"/>
	<circle cx="nan" cy="nan" r="4" fill="#0" id="circle175"/>
	<circle cx="nan" cy="nan" r="4" fill="#0" id="circle176"/>
	<circle cx="nan" cy="nan" r="4" fill="#0" id="circle177"/>
	<circle cx="nan" cy="nan" r="4" fill="#0" id="circle178"/>
	<circle cx="nan" cy="nan" r="4" fill="#0" id="circle179"/>
	<circle cx="nan" cy="nan" r="4" fill="#0" id="circle180"/>
	<circle cx="nan" cy="nan" r="4" fill="#0" id="circle181"/>
	<circle cx="nan" cy="nan" r="4" fill="#0" id="circle182"/>
	<circle cx="nan" cy="nan" r="4" fill="#0" id="circle183"/>
	<circle cx="nan" cy="nan" r="4" fill="#0" id="circle184"/>
	<circle cx="nan" cy="nan" r="4" fill="#0" id="circle185"/>
	<circle cx="nan" cy="nan" r="4" fill="#0" id="circle186"/>
	<circle cx="nan" cy="nan" r="4" fill="#0" id="circle187"/>
	<circle cx="nan" cy="nan" r="4" fill="#0" id="circle188"/>
	<circle cx="nan" cy="nan" r="4" fill="#0" id="circle189"/>
	<circle cx="nan" cy="nan" r="4" fill="#0" id="circle190"/>
	<circle cx="nan" cy="nan" r="4" fill="#0" id="circle191"/>
	<circle cx="nan" cy="nan" r="4" fill="#0" id="circle192"/>
	<circle cx="nan" cy="nan" r="4" fill="#0" id="circle193"/>
	<circle cx="nan" cy="nan" r="4" fill="#0" id="circle194"/>
	<circle cx="nan" cy="nan" r="4" fill="#0" id="circle195"/>
	<circle cx="nan" cy="nan" r="4" fill="#0" id="circle196"/>
	<circle cx="nan" cy="nan" r="4" fill="#0" id="circle197"/>
	<circle cx="nan" cy="nan" r="4" fill="#0" id="circle198"/>
	<circle cx="nan" cy="nan" r="4" fill="#0" id="circle199"/>
	<circle cx="nan" cy="nan" r="4" fill="#0" id="circle200"/>
	<circle cx="nan" cy="nan" r="4" fill="#0" id="circle201"/>
	<circle cx="nan" cy="nan" r="4" fill="#0" id="circle202"/>
	<circle cx="nan" cy="nan" r="4" fill="#0" id="circle203"/>
	<circle cx="nan" cy="nan" r="4" fill="#0" id="circle204"/>
	<circle cx="nan" cy="nan" r="4" fill="#0" id="circle205"/>
	<circle cx="nan" cy="nan" r="4" fill="#0" id="circle206"/>
	<circle cx="nan" cy="nan" r="4" fill="#0" id="circle207"/>
	<circle cx="nan" cy="nan" r="4" fill="#0" id="circle208"/>
	<circle cx="nan" cy="nan" r="4" fill="#0" id="circle209"/>
	<circle cx="nan" cy="nan" r="4" fill="#0" id="circle210"/>
	<circle cx="nan" cy="nan" r="4" fill="#0" id="circle211"/>
	<circle cx="nan" cy="nan" r="4" fill="#0" id="circle212"/>
	<circle cx="nan" cy="nan" r="4" fill="#0" id="circle213"/>
	<circle cx="nan" cy="nan" r="4" fill="#0" id="circle214"/>
	<circle cx="nan" cy="nan" r="4" fill="#0" id="circle215"/>
	<circle cx="nan" cy="nan" r="4" fill="#0" id="circle216"/>
	<circle cx="nan" cy="nan" r="4" fill="#0" id="circle217"/>
	<circle cx="nan" cy="nan" r="4" fill="#0" id="circle218"/>
	<circle cx="nan" cy="nan" r="4" fill="#0" id="circle219"/>
	<circle cx="nan" cy="nan" r="4" fill="#0" id="circle220"/>
	<circle cx="nan" cy="nan" r="4" fill="#0" id="circle221"/>
	<circle cx="nan" cy="nan" r="4" fill="#0" id="circle222"/>
	<circle cx="nan" cy="nan" r="4" fill="#0" id="circle223"/>
	<circle cx="nan" cy="nan" r="4" fill="#0" id="circle224"/>
	<circle cx="nan" cy="nan" r="4" fill="#0" id="circle225"/>
	<circle cx="nan" cy="nan" r="4" fill="#0" id="circle226"/>
	<circle cx="nan" cy="nan" r="4" fill="#0" id="circle227"/>
	<circle cx="nan" cy="nan" r="4" fill="#0" id="circle228"/>
	<circle cx="nan" cy="nan" r="4" fill="#0" id="circle229"/>
	<circle cx="nan" cy="nan" r="4" fill="#0" id="circle230"/>
	<circle cx="nan" cy="nan" r="4" fill="#0" id="circle231"/>
	<circle cx="nan" cy="nan" r="4" fill="#0" id="circle232"/>
	<circle cx="nan" cy="nan" r="4" fill="#0" id="circle233"/>
	<circle cx="nan" cy="nan" r="4" fill="#0" id="circle234"/>
	<circle cx="nan" cy="nan" r="4" fill="#0" id="circle235"/>
	<circle cx="nan" cy="nan" r="4" fill="#0" id="circle236"/>
	<circle cx="nan" cy="nan" r="4" fill="#0" id="circle237"/>
	<circle cx="nan" cy="nan" r="4" fill="#0" id="circle238"/>
	<circle cx="nan" cy="nan" r="4" fill="#0" id="circle239"/>
	<circle cx="nan" cy="nan" r="4" fill="#0" id="circle240"/>
	<circle cx="nan" cy="nan" r="4" fill="#0" id="circle241"/>
	<circle cx="nan" cy="nan" r="4" fill="#0" id="circle242"/>
	<circle cx="nan" cy="nan" r="4" fill="#0" id="circle243"/>
	<circle cx="nan" cy="nan" r="4" fill="#0" id="circle244"/>
	<circle cx="nan" cy="nan" r="4" fill="#0" id="circle245"/>
	<circle cx="nan" cy="nan" r="4" fill="#0" id="circle246"/>
	<circle cx="nan" cy="nan" r="4" fill="#0" id="circle247"/>
	<circle cx="nan" cy="nan" r="4" fill="#0" id="circle248"/>
	<circle cx="nan" cy="nan" r="4" fill="#0" id="circle249"/>
	<circle cx="nan" cy="nan" r="4" fill="#0" id="circle250"/>
	<circle cx="nan" cy="nan" r="4" fill="#0" id="circle251"/>
	<circle cx="nan" cy="nan" r="4" fill="#0" id="circle252"/>
	<circle cx="nan" cy="nan" r="4" fill="#0" id="circle253"/>
	<circle cx="nan" cy="nan" r="4" fill="#0" id="circle254"/>
	<circle cx="nan" cy="nan" r="4" fill="#0" id="circle255"/>
	<circle cx="nan" cy="nan" r="4" fill="#0" id="circle256"/>
	<circle cx="nan" cy="nan" r="4" fill="#0" id="circle257"/>
	<circle cx="nan" cy="nan" r="4" fill="#0" id="circle258"/>
	<circle cx="nan" cy="nan" r="4" fill="#0" id="circle259"/>
	<circle cx="nan" cy="nan" r="4" fill="#0" id="circle260"/>
	<circle cx="nan" cy="nan" r="4" fill="#0" id="circle261"/>
	<circle cx="nan" cy="nan" r="4" fill="#0" id="circle262"/>
	<circle cx="nan" cy="nan" r="4" fill="#0" id="circle263"/>
	<circle cx="nan" cy="nan" r="4" fill="#0" id="circle264"/>
	<circle cx="nan" cy="nan" r="4" fill="#0" id="circle265"/>
	<circle cx="nan" cy="nan" r="4" fill="#0" id="circle266"/>
	<circle cx="nan" cy="nan" r="4" fill="#0" id="circle267"/>
	<circle cx="nan" cy="nan" r="4" fill="#0" id="circle268"/>
	<circle cx="nan" cy="nan" r="4" fill="#0" id="circle269"/>
	<circle cx="nan" cy="nan" r="4" fill="#0" id="circle270"/>
	<circle cx="nan" cy="nan" r="4" fill="#0" id="circle271"/>
	<circle cx="nan" cy="nan" r="4" fill="#0" id="circle272"/>
	<circle cx="nan" cy="nan" r="4" fill="#0" id="circle273"/>
	<circle cx="nan" cy="nan" r="4" fill="#0" id="circle274"/>
	<circle cx="nan" cy="nan" r="4" fill="#0" id="circle275"/>
	<circle cx="nan" cy="nan" r="4" fill="#0" id="circle276"/>
	<circle cx="nan" cy="nan" r="4" fill="#0" id="circle277"/>
	<circle cx="nan" cy="nan" r="4" fill="#0" id="circle278"/>
	<circle cx="nan" cy="nan" r="4" fill="#0" id="circle279"/>
	<circle cx="nan" cy="nan" r="4" fill="#0" id="circle280"/>
	<circle cx="nan" cy="nan" r="4" fill="#0" id="circle281"/>
	<circle cx="nan" cy="nan" r="4" fill="#0" id="circle282"/>
	<circle cx="nan" cy="nan" r="4" fill="#0" id="circle283"/>
	<circle cx="nan" cy="nan" r="4" fill="#0" id="circle284"/>
	<circle cx="nan" cy="nan" r="4" fill="#0" id="circle285"/>
	<circle cx="nan" cy="nan" r="4" fill="#0" id="circle286"/>
	</g>
</svg>