<?xml version="1.0" encoding="UTF-8" standalone="no"?>
<!-- Created with CurveBenchmark -->
<svg
	xmlns:dc="http://purl.org/dc/elements/1.1/"
	xmlns:cc="http://creativecommons.org/ns#"
	xmlns:rdf="http://www.w3.org/1999/02/22-rdf-syntax-ns#"
	xmlns:svg="http://www.w3.org/2000/svg"
	xmlns="http://www.w3.org/2000/svg"
	xmlns:sodipodi="http://sodipodi.sourceforge.net/DTD/sodipodi-0.dtd"
	xmlns:inkscape="http://www.inkscape.org/namespaces/inkscape"
	width="1000"
	height="1000"
	id="svg2"
	version="1.1"
	sodipodi:docname="manifold/stretchdenoise-teddy160.png.txt">
<defs
	id="defs4" />
<metadata
	id="metadata7">
	<rdf:RDF>
		<cc:Work
			rdf:about="">
			<dc:format>image/svg+xml</dc:format>
			<dc:type
				rdf:resource="http://purl.org/dc/dcmitype/StillImage" />
			<dc:title></dc:title>
		</cc:Work>
	</rdf:RDF>
</metadata>
<g
	inkscape:label="Layer 1"
	inkscape:groupmode="layer"
	id="layer1">
	<path style="fill:none;stroke:red;stroke-width:1px;stroke-linecap:butt;stroke-linejoin:miter;stroke-opacity:1" d="M 4,512.718 12.4786,540.98 z" id="boundary" inkscape:connector-curvature="0" />
	<path style="fill:none;stroke:red;stroke-width:1px;stroke-linecap:butt;stroke-linejoin:miter;stroke-opacity:1" d="M 4,512.718 15.3048,467.499 z" id="boundary" inkscape:connector-curvature="0" />
	<path style="fill:none;stroke:red;stroke-width:1px;stroke-linecap:butt;stroke-linejoin:miter;stroke-opacity:1" d="M 12.4786,540.98 20.9572,569.242 z" id="boundary" inkscape:connector-curvature="0" />
	<path style="fill:none;stroke:red;stroke-width:1px;stroke-linecap:butt;stroke-linejoin:miter;stroke-opacity:1" d="M 15.3048,201.835 12.6511,230.097 z" id="boundary" inkscape:connector-curvature="0" />
	<path style="fill:none;stroke:red;stroke-width:1px;stroke-linecap:butt;stroke-linejoin:miter;stroke-opacity:1" d="M 15.3048,201.835 26.6097,162.268 z" id="boundary" inkscape:connector-curvature="0" />
	<path style="fill:none;stroke:red;stroke-width:1px;stroke-linecap:butt;stroke-linejoin:miter;stroke-opacity:1" d="M 12.6511,230.097 15.3048,258.359 z" id="boundary" inkscape:connector-curvature="0" />
	<path style="fill:none;stroke:red;stroke-width:1px;stroke-linecap:butt;stroke-linejoin:miter;stroke-opacity:1" d="M 15.3048,258.359 20.9572,286.621 z" id="boundary" inkscape:connector-curvature="0" />
	<path style="fill:none;stroke:red;stroke-width:1px;stroke-linecap:butt;stroke-linejoin:miter;stroke-opacity:1" d="M 15.3048,467.499 32.2621,444.889 z" id="boundary" inkscape:connector-curvature="0" />
	<path style="fill:none;stroke:red;stroke-width:1px;stroke-linecap:butt;stroke-linejoin:miter;stroke-opacity:1" d="M 20.9572,286.621 32.6931,314.711 z" id="boundary" inkscape:connector-curvature="0" />
	<path style="fill:none;stroke:red;stroke-width:1px;stroke-linecap:butt;stroke-linejoin:miter;stroke-opacity:1" d="M 20.9572,569.242 37.9145,591.852 z" id="boundary" inkscape:connector-curvature="0" />
	<path style="fill:none;stroke:red;stroke-width:1px;stroke-linecap:butt;stroke-linejoin:miter;stroke-opacity:1" d="M 26.6097,162.268 40.3087,134.963 z" id="boundary" inkscape:connector-curvature="0" />
	<path style="fill:none;stroke:red;stroke-width:1px;stroke-linecap:butt;stroke-linejoin:miter;stroke-opacity:1" d="M 32.6931,314.711 43.567,343.145 z" id="boundary" inkscape:connector-curvature="0" />
	<path style="fill:none;stroke:red;stroke-width:1px;stroke-linecap:butt;stroke-linejoin:miter;stroke-opacity:1" d="M 32.2621,444.889 54.8718,416.627 z" id="boundary" inkscape:connector-curvature="0" />
	<path style="fill:none;stroke:red;stroke-width:1px;stroke-linecap:butt;stroke-linejoin:miter;stroke-opacity:1" d="M 40.3087,134.963 49.2194,105.744 z" id="boundary" inkscape:connector-curvature="0" />
	<path style="fill:none;stroke:red;stroke-width:1px;stroke-linecap:butt;stroke-linejoin:miter;stroke-opacity:1" d="M 37.9145,591.852 52.0456,617.288 z" id="boundary" inkscape:connector-curvature="0" />
	<path style="fill:none;stroke:red;stroke-width:1px;stroke-linecap:butt;stroke-linejoin:miter;stroke-opacity:1" d="M 43.567,343.145 57.698,368.581 z" id="boundary" inkscape:connector-curvature="0" />
	<path style="fill:none;stroke:red;stroke-width:1px;stroke-linecap:butt;stroke-linejoin:miter;stroke-opacity:1" d="M 49.2194,49.2194 49.2299,77.4815 z" id="boundary" inkscape:connector-curvature="0" />
	<path style="fill:none;stroke:red;stroke-width:1px;stroke-linecap:butt;stroke-linejoin:miter;stroke-opacity:1" d="M 49.2194,49.2194 66.1766,26.6097 z" id="boundary" inkscape:connector-curvature="0" />
	<path style="fill:none;stroke:red;stroke-width:1px;stroke-linecap:butt;stroke-linejoin:miter;stroke-opacity:1" d="M 49.2299,77.4815 49.2194,105.744 z" id="boundary" inkscape:connector-curvature="0" />
	<path style="fill:none;stroke:red;stroke-width:1px;stroke-linecap:butt;stroke-linejoin:miter;stroke-opacity:1" d="M 52.0456,617.288 60.5242,645.55 z" id="boundary" inkscape:connector-curvature="0" />
	<path style="fill:none;stroke:red;stroke-width:1px;stroke-linecap:butt;stroke-linejoin:miter;stroke-opacity:1" d="M 54.8718,416.627 57.698,368.581 z" id="boundary" inkscape:connector-curvature="0" />
	<path style="fill:none;stroke:red;stroke-width:1px;stroke-linecap:butt;stroke-linejoin:miter;stroke-opacity:1" d="M 54.8718,738.815 54.8718,767.077 z" id="boundary" inkscape:connector-curvature="0" />
	<path style="fill:none;stroke:red;stroke-width:1px;stroke-linecap:butt;stroke-linejoin:miter;stroke-opacity:1" d="M 54.8718,738.815 60.5242,702.074 z" id="boundary" inkscape:connector-curvature="0" />
	<path style="fill:none;stroke:red;stroke-width:1px;stroke-linecap:butt;stroke-linejoin:miter;stroke-opacity:1" d="M 54.8718,767.077 66.1766,795.339 z" id="boundary" inkscape:connector-curvature="0" />
	<path style="fill:none;stroke:red;stroke-width:1px;stroke-linecap:butt;stroke-linejoin:miter;stroke-opacity:1" d="M 60.5242,645.55 60.5242,673.812 z" id="boundary" inkscape:connector-curvature="0" />
	<path style="fill:none;stroke:red;stroke-width:1px;stroke-linecap:butt;stroke-linejoin:miter;stroke-opacity:1" d="M 60.5242,673.812 60.5242,702.074 z" id="boundary" inkscape:connector-curvature="0" />
	<path style="fill:none;stroke:red;stroke-width:1px;stroke-linecap:butt;stroke-linejoin:miter;stroke-opacity:1" d="M 66.1766,26.6097 88.7863,9.65243 z" id="boundary" inkscape:connector-curvature="0" />
	<path style="fill:none;stroke:red;stroke-width:1px;stroke-linecap:butt;stroke-linejoin:miter;stroke-opacity:1" d="M 66.1766,795.339 62.4761,823.601 z" id="boundary" inkscape:connector-curvature="0" />
	<path style="fill:none;stroke:red;stroke-width:1px;stroke-linecap:butt;stroke-linejoin:miter;stroke-opacity:1" d="M 62.4761,823.601 68.1826,851.863 z" id="boundary" inkscape:connector-curvature="0" />
	<path style="fill:none;stroke:red;stroke-width:1px;stroke-linecap:butt;stroke-linejoin:miter;stroke-opacity:1" d="M 68.1826,851.863 66.1766,880.125 z" id="boundary" inkscape:connector-curvature="0" />
	<path style="fill:none;stroke:red;stroke-width:1px;stroke-linecap:butt;stroke-linejoin:miter;stroke-opacity:1" d="M 66.1766,880.125 71.829,908.387 z" id="boundary" inkscape:connector-curvature="0" />
	<path style="fill:none;stroke:red;stroke-width:1px;stroke-linecap:butt;stroke-linejoin:miter;stroke-opacity:1" d="M 71.829,908.387 59.7806,942.808 z" id="boundary" inkscape:connector-curvature="0" />
	<path style="fill:none;stroke:red;stroke-width:1px;stroke-linecap:butt;stroke-linejoin:miter;stroke-opacity:1" d="M 59.7806,942.808 88.7863,964.912 z" id="boundary" inkscape:connector-curvature="0" />
	<path style="fill:none;stroke:red;stroke-width:1px;stroke-linecap:butt;stroke-linejoin:miter;stroke-opacity:1" d="M 88.7863,9.65243 117.048,4 z" id="boundary" inkscape:connector-curvature="0" />
	<path style="fill:none;stroke:red;stroke-width:1px;stroke-linecap:butt;stroke-linejoin:miter;stroke-opacity:1" d="M 88.7863,964.912 114.222,979.043 z" id="boundary" inkscape:connector-curvature="0" />
	<path style="fill:none;stroke:red;stroke-width:1px;stroke-linecap:butt;stroke-linejoin:miter;stroke-opacity:1" d="M 114.222,979.043 142.484,990.348 z" id="boundary" inkscape:connector-curvature="0" />
	<path style="fill:none;stroke:red;stroke-width:1px;stroke-linecap:butt;stroke-linejoin:miter;stroke-opacity:1" d="M 117.048,4 145.311,9.65242 z" id="boundary" inkscape:connector-curvature="0" />
	<path style="fill:none;stroke:red;stroke-width:1px;stroke-linecap:butt;stroke-linejoin:miter;stroke-opacity:1" d="M 142.484,990.348 170.746,996 z" id="boundary" inkscape:connector-curvature="0" />
	<path style="fill:none;stroke:red;stroke-width:1px;stroke-linecap:butt;stroke-linejoin:miter;stroke-opacity:1" d="M 145.311,9.65242 173.573,20.9573 z" id="boundary" inkscape:connector-curvature="0" />
	<path style="fill:none;stroke:red;stroke-width:1px;stroke-linecap:butt;stroke-linejoin:miter;stroke-opacity:1" d="M 170.746,996 199.009,996 z" id="boundary" inkscape:connector-curvature="0" />
	<path style="fill:none;stroke:red;stroke-width:1px;stroke-linecap:butt;stroke-linejoin:miter;stroke-opacity:1" d="M 173.573,20.9573 196.182,40.7407 z" id="boundary" inkscape:connector-curvature="0" />
	<path style="fill:none;stroke:red;stroke-width:1px;stroke-linecap:butt;stroke-linejoin:miter;stroke-opacity:1" d="M 196.182,40.7407 224.444,43.5669 z" id="boundary" inkscape:connector-curvature="0" />
	<path style="fill:none;stroke:red;stroke-width:1px;stroke-linecap:butt;stroke-linejoin:miter;stroke-opacity:1" d="M 199.009,996 227.271,993.174 z" id="boundary" inkscape:connector-curvature="0" />
	<path style="fill:none;stroke:red;stroke-width:1px;stroke-linecap:butt;stroke-linejoin:miter;stroke-opacity:1" d="M 224.444,43.5669 247.054,20.9573 z" id="boundary" inkscape:connector-curvature="0" />
	<path style="fill:none;stroke:red;stroke-width:1px;stroke-linecap:butt;stroke-linejoin:miter;stroke-opacity:1" d="M 227.271,993.174 255.533,996 z" id="boundary" inkscape:connector-curvature="0" />
	<path style="fill:none;stroke:red;stroke-width:1px;stroke-linecap:butt;stroke-linejoin:miter;stroke-opacity:1" d="M 247.054,20.9573 275.316,9.65242 z" id="boundary" inkscape:connector-curvature="0" />
	<path style="fill:none;stroke:red;stroke-width:1px;stroke-linecap:butt;stroke-linejoin:miter;stroke-opacity:1" d="M 255.533,996 283.795,996 z" id="boundary" inkscape:connector-curvature="0" />
	<path style="fill:none;stroke:red;stroke-width:1px;stroke-linecap:butt;stroke-linejoin:miter;stroke-opacity:1" d="M 275.316,9.65242 303.578,4 z" id="boundary" inkscape:connector-curvature="0" />
	<path style="fill:none;stroke:red;stroke-width:1px;stroke-linecap:butt;stroke-linejoin:miter;stroke-opacity:1" d="M 283.795,996 312.057,996 z" id="boundary" inkscape:connector-curvature="0" />
	<path style="fill:none;stroke:red;stroke-width:1px;stroke-linecap:butt;stroke-linejoin:miter;stroke-opacity:1" d="M 303.578,4 331.84,9.65242 z" id="boundary" inkscape:connector-curvature="0" />
	<path style="fill:none;stroke:red;stroke-width:1px;stroke-linecap:butt;stroke-linejoin:miter;stroke-opacity:1" d="M 312.057,996 340.319,996 z" id="boundary" inkscape:connector-curvature="0" />
	<path style="fill:none;stroke:red;stroke-width:1px;stroke-linecap:butt;stroke-linejoin:miter;stroke-opacity:1" d="M 331.84,9.65242 357.276,23.7835 z" id="boundary" inkscape:connector-curvature="0" />
	<path style="fill:none;stroke:red;stroke-width:1px;stroke-linecap:butt;stroke-linejoin:miter;stroke-opacity:1" d="M 340.319,996 368.581,993.174 z" id="boundary" inkscape:connector-curvature="0" />
	<path style="fill:none;stroke:red;stroke-width:1px;stroke-linecap:butt;stroke-linejoin:miter;stroke-opacity:1" d="M 357.276,23.7835 374.234,46.3932 z" id="boundary" inkscape:connector-curvature="0" />
	<path style="fill:none;stroke:red;stroke-width:1px;stroke-linecap:butt;stroke-linejoin:miter;stroke-opacity:1" d="M 368.581,993.174 391.191,976.217 z" id="boundary" inkscape:connector-curvature="0" />
	<path style="fill:none;stroke:red;stroke-width:1px;stroke-linecap:butt;stroke-linejoin:miter;stroke-opacity:1" d="M 374.234,46.3932 385.538,74.6553 z" id="boundary" inkscape:connector-curvature="0" />
	<path style="fill:none;stroke:red;stroke-width:1px;stroke-linecap:butt;stroke-linejoin:miter;stroke-opacity:1" d="M 385.538,74.6553 385.538,105.744 z" id="boundary" inkscape:connector-curvature="0" />
	<path style="fill:none;stroke:red;stroke-width:1px;stroke-linecap:butt;stroke-linejoin:miter;stroke-opacity:1" d="M 385.538,105.744 385.538,134.006 z" id="boundary" inkscape:connector-curvature="0" />
	<path style="fill:none;stroke:red;stroke-width:1px;stroke-linecap:butt;stroke-linejoin:miter;stroke-opacity:1" d="M 385.538,134.006 399.669,159.442 z" id="boundary" inkscape:connector-curvature="0" />
	<path style="fill:none;stroke:red;stroke-width:1px;stroke-linecap:butt;stroke-linejoin:miter;stroke-opacity:1" d="M 391.191,976.217 419.453,973.39 z" id="boundary" inkscape:connector-curvature="0" />
	<path style="fill:none;stroke:red;stroke-width:1px;stroke-linecap:butt;stroke-linejoin:miter;stroke-opacity:1" d="M 399.669,159.442 416.627,182.051 z" id="boundary" inkscape:connector-curvature="0" />
	<path style="fill:none;stroke:red;stroke-width:1px;stroke-linecap:butt;stroke-linejoin:miter;stroke-opacity:1" d="M 416.627,182.051 442.063,196.182 z" id="boundary" inkscape:connector-curvature="0" />
	<path style="fill:none;stroke:red;stroke-width:1px;stroke-linecap:butt;stroke-linejoin:miter;stroke-opacity:1" d="M 419.453,973.39 447.715,973.39 z" id="boundary" inkscape:connector-curvature="0" />
	<path style="fill:none;stroke:red;stroke-width:1px;stroke-linecap:butt;stroke-linejoin:miter;stroke-opacity:1" d="M 430.758,382.712 444.889,357.276 z" id="boundary" inkscape:connector-curvature="0" />
	<path style="fill:none;stroke:red;stroke-width:1px;stroke-linecap:butt;stroke-linejoin:miter;stroke-opacity:1" d="M 430.758,382.712 453.367,399.67 z" id="boundary" inkscape:connector-curvature="0" />
	<path style="fill:none;stroke:red;stroke-width:1px;stroke-linecap:butt;stroke-linejoin:miter;stroke-opacity:1" d="M 442.063,196.182 467.499,210.313 z" id="boundary" inkscape:connector-curvature="0" />
	<path style="fill:none;stroke:red;stroke-width:1px;stroke-linecap:butt;stroke-linejoin:miter;stroke-opacity:1" d="M 444.889,357.276 470.325,343.145 z" id="boundary" inkscape:connector-curvature="0" />
	<path style="fill:none;stroke:red;stroke-width:1px;stroke-linecap:butt;stroke-linejoin:miter;stroke-opacity:1" d="M 447.715,973.39 475.977,967.738 z" id="boundary" inkscape:connector-curvature="0" />
	<path style="fill:none;stroke:red;stroke-width:1px;stroke-linecap:butt;stroke-linejoin:miter;stroke-opacity:1" d="M 453.367,399.67 470.325,422.279 z" id="boundary" inkscape:connector-curvature="0" />
	<path style="fill:none;stroke:red;stroke-width:1px;stroke-linecap:butt;stroke-linejoin:miter;stroke-opacity:1" d="M 467.499,210.313 490.108,227.271 z" id="boundary" inkscape:connector-curvature="0" />
	<path style="fill:none;stroke:red;stroke-width:1px;stroke-linecap:butt;stroke-linejoin:miter;stroke-opacity:1" d="M 470.325,343.145 484.456,317.709 z" id="boundary" inkscape:connector-curvature="0" />
	<path style="fill:none;stroke:red;stroke-width:1px;stroke-linecap:butt;stroke-linejoin:miter;stroke-opacity:1" d="M 470.325,422.279 498.587,427.932 z" id="boundary" inkscape:connector-curvature="0" />
	<path style="fill:none;stroke:red;stroke-width:1px;stroke-linecap:butt;stroke-linejoin:miter;stroke-opacity:1" d="M 475.977,967.738 504.239,973.39 z" id="boundary" inkscape:connector-curvature="0" />
	<path style="fill:none;stroke:red;stroke-width:1px;stroke-linecap:butt;stroke-linejoin:miter;stroke-opacity:1" d="M 484.456,317.709 490.108,289.447 z" id="boundary" inkscape:connector-curvature="0" />
	<path style="fill:none;stroke:red;stroke-width:1px;stroke-linecap:butt;stroke-linejoin:miter;stroke-opacity:1" d="M 490.108,227.271 492.934,258.359 z" id="boundary" inkscape:connector-curvature="0" />
	<path style="fill:none;stroke:red;stroke-width:1px;stroke-linecap:butt;stroke-linejoin:miter;stroke-opacity:1" d="M 490.108,289.447 492.934,258.359 z" id="boundary" inkscape:connector-curvature="0" />
	<path style="fill:none;stroke:red;stroke-width:1px;stroke-linecap:butt;stroke-linejoin:miter;stroke-opacity:1" d="M 498.587,427.932 526.849,433.584 z" id="boundary" inkscape:connector-curvature="0" />
	<path style="fill:none;stroke:red;stroke-width:1px;stroke-linecap:butt;stroke-linejoin:miter;stroke-opacity:1" d="M 504.239,973.39 532.501,984.695 z" id="boundary" inkscape:connector-curvature="0" />
	<path style="fill:none;stroke:red;stroke-width:1px;stroke-linecap:butt;stroke-linejoin:miter;stroke-opacity:1" d="M 509.892,654.028 515.544,682.291 z" id="boundary" inkscape:connector-curvature="0" />
	<path style="fill:none;stroke:red;stroke-width:1px;stroke-linecap:butt;stroke-linejoin:miter;stroke-opacity:1" d="M 509.892,654.028 538.154,642.724 z" id="boundary" inkscape:connector-curvature="0" />
	<path style="fill:none;stroke:red;stroke-width:1px;stroke-linecap:butt;stroke-linejoin:miter;stroke-opacity:1" d="M 515.544,682.291 518.37,710.553 z" id="boundary" inkscape:connector-curvature="0" />
	<path style="fill:none;stroke:red;stroke-width:1px;stroke-linecap:butt;stroke-linejoin:miter;stroke-opacity:1" d="M 518.37,710.553 529.675,738.815 z" id="boundary" inkscape:connector-curvature="0" />
	<path style="fill:none;stroke:red;stroke-width:1px;stroke-linecap:butt;stroke-linejoin:miter;stroke-opacity:1" d="M 526.849,433.584 555.111,433.584 z" id="boundary" inkscape:connector-curvature="0" />
	<path style="fill:none;stroke:red;stroke-width:1px;stroke-linecap:butt;stroke-linejoin:miter;stroke-opacity:1" d="M 529.675,738.815 557.937,738.815 z" id="boundary" inkscape:connector-curvature="0" />
	<path style="fill:none;stroke:red;stroke-width:1px;stroke-linecap:butt;stroke-linejoin:miter;stroke-opacity:1" d="M 532.501,984.695 560.764,990.348 z" id="boundary" inkscape:connector-curvature="0" />
	<path style="fill:none;stroke:red;stroke-width:1px;stroke-linecap:butt;stroke-linejoin:miter;stroke-opacity:1" d="M 538.154,642.724 566.416,634.245 z" id="boundary" inkscape:connector-curvature="0" />
	<path style="fill:none;stroke:red;stroke-width:1px;stroke-linecap:butt;stroke-linejoin:miter;stroke-opacity:1" d="M 555.111,433.584 583.373,439.236 z" id="boundary" inkscape:connector-curvature="0" />
	<path style="fill:none;stroke:red;stroke-width:1px;stroke-linecap:butt;stroke-linejoin:miter;stroke-opacity:1" d="M 557.937,738.815 587.879,741.56 z" id="boundary" inkscape:connector-curvature="0" />
	<path style="fill:none;stroke:red;stroke-width:1px;stroke-linecap:butt;stroke-linejoin:miter;stroke-opacity:1" d="M 560.764,990.348 589.026,996 z" id="boundary" inkscape:connector-curvature="0" />
	<path style="fill:none;stroke:red;stroke-width:1px;stroke-linecap:butt;stroke-linejoin:miter;stroke-opacity:1" d="M 566.416,634.245 594.678,620.114 z" id="boundary" inkscape:connector-curvature="0" />
	<path style="fill:none;stroke:red;stroke-width:1px;stroke-linecap:butt;stroke-linejoin:miter;stroke-opacity:1" d="M 583.373,439.236 611.635,450.541 z" id="boundary" inkscape:connector-curvature="0" />
	<path style="fill:none;stroke:red;stroke-width:1px;stroke-linecap:butt;stroke-linejoin:miter;stroke-opacity:1" d="M 587.879,741.56 614.462,727.51 z" id="boundary" inkscape:connector-curvature="0" />
	<path style="fill:none;stroke:red;stroke-width:1px;stroke-linecap:butt;stroke-linejoin:miter;stroke-opacity:1" d="M 589.026,996 617.288,996 z" id="boundary" inkscape:connector-curvature="0" />
	<path style="fill:none;stroke:red;stroke-width:1px;stroke-linecap:butt;stroke-linejoin:miter;stroke-opacity:1" d="M 594.678,620.114 620.114,605.983 z" id="boundary" inkscape:connector-curvature="0" />
	<path style="fill:none;stroke:red;stroke-width:1px;stroke-linecap:butt;stroke-linejoin:miter;stroke-opacity:1" d="M 611.635,450.541 637.071,464.672 z" id="boundary" inkscape:connector-curvature="0" />
	<path style="fill:none;stroke:red;stroke-width:1px;stroke-linecap:butt;stroke-linejoin:miter;stroke-opacity:1" d="M 614.462,727.51 642.724,727.894 z" id="boundary" inkscape:connector-curvature="0" />
	<path style="fill:none;stroke:red;stroke-width:1px;stroke-linecap:butt;stroke-linejoin:miter;stroke-opacity:1" d="M 617.288,996 645.55,990.348 z" id="boundary" inkscape:connector-curvature="0" />
	<path style="fill:none;stroke:red;stroke-width:1px;stroke-linecap:butt;stroke-linejoin:miter;stroke-opacity:1" d="M 620.114,605.983 637.071,583.373 z" id="boundary" inkscape:connector-curvature="0" />
	<path style="fill:none;stroke:red;stroke-width:1px;stroke-linecap:butt;stroke-linejoin:miter;stroke-opacity:1" d="M 637.071,464.672 651.202,490.108 z" id="boundary" inkscape:connector-curvature="0" />
	<path style="fill:none;stroke:red;stroke-width:1px;stroke-linecap:butt;stroke-linejoin:miter;stroke-opacity:1" d="M 637.071,583.373 651.202,546.632 z" id="boundary" inkscape:connector-curvature="0" />
	<path style="fill:none;stroke:red;stroke-width:1px;stroke-linecap:butt;stroke-linejoin:miter;stroke-opacity:1" d="M 642.724,727.894 670.986,727.51 z" id="boundary" inkscape:connector-curvature="0" />
	<path style="fill:none;stroke:red;stroke-width:1px;stroke-linecap:butt;stroke-linejoin:miter;stroke-opacity:1" d="M 645.55,990.348 673.812,979.043 z" id="boundary" inkscape:connector-curvature="0" />
	<path style="fill:none;stroke:red;stroke-width:1px;stroke-linecap:butt;stroke-linejoin:miter;stroke-opacity:1" d="M 651.202,490.108 651.202,518.37 z" id="boundary" inkscape:connector-curvature="0" />
	<path style="fill:none;stroke:red;stroke-width:1px;stroke-linecap:butt;stroke-linejoin:miter;stroke-opacity:1" d="M 651.202,518.37 651.202,546.632 z" id="boundary" inkscape:connector-curvature="0" />
	<path style="fill:none;stroke:red;stroke-width:1px;stroke-linecap:butt;stroke-linejoin:miter;stroke-opacity:1" d="M 670.986,727.51 699.248,738.815 z" id="boundary" inkscape:connector-curvature="0" />
	<path style="fill:none;stroke:red;stroke-width:1px;stroke-linecap:butt;stroke-linejoin:miter;stroke-opacity:1" d="M 673.812,979.043 702.074,964.912 z" id="boundary" inkscape:connector-curvature="0" />
	<path style="fill:none;stroke:red;stroke-width:1px;stroke-linecap:butt;stroke-linejoin:miter;stroke-opacity:1" d="M 699.248,738.815 716.205,761.425 z" id="boundary" inkscape:connector-curvature="0" />
	<path style="fill:none;stroke:red;stroke-width:1px;stroke-linecap:butt;stroke-linejoin:miter;stroke-opacity:1" d="M 702.074,964.912 719.031,936.65 z" id="boundary" inkscape:connector-curvature="0" />
	<path style="fill:none;stroke:red;stroke-width:1px;stroke-linecap:butt;stroke-linejoin:miter;stroke-opacity:1" d="M 716.205,761.425 724.684,789.687 z" id="boundary" inkscape:connector-curvature="0" />
	<path style="fill:none;stroke:red;stroke-width:1px;stroke-linecap:butt;stroke-linejoin:miter;stroke-opacity:1" d="M 719.031,936.65 724.684,897.083 z" id="boundary" inkscape:connector-curvature="0" />
	<path style="fill:none;stroke:red;stroke-width:1px;stroke-linecap:butt;stroke-linejoin:miter;stroke-opacity:1" d="M 724.684,789.687 724.684,817.949 z" id="boundary" inkscape:connector-curvature="0" />
	<path style="fill:none;stroke:red;stroke-width:1px;stroke-linecap:butt;stroke-linejoin:miter;stroke-opacity:1" d="M 724.684,817.949 730.336,846.211 z" id="boundary" inkscape:connector-curvature="0" />
	<path style="fill:none;stroke:red;stroke-width:1px;stroke-linecap:butt;stroke-linejoin:miter;stroke-opacity:1" d="M 724.684,897.083 730.336,846.211 z" id="boundary" inkscape:connector-curvature="0" />
	<circle cx="4" cy="512.718" r="4" fill="#0" id="circle0"/>
	<circle cx="12.4786" cy="540.98" r="4" fill="#0" id="circle1"/>
	<circle cx="15.3048" cy="201.835" r="4" fill="#0" id="circle2"/>
	<circle cx="12.6511" cy="230.097" r="4" fill="#0" id="circle3"/>
	<circle cx="15.3048" cy="258.359" r="4" fill="#0" id="circle4"/>
	<circle cx="15.3048" cy="467.499" r="4" fill="#0" id="circle5"/>
	<circle cx="20.9572" cy="286.621" r="4" fill="#0" id="circle6"/>
	<circle cx="20.9572" cy="569.242" r="4" fill="#0" id="circle7"/>
	<circle cx="26.6097" cy="162.268" r="4" fill="#0" id="circle8"/>
	<circle cx="32.6931" cy="314.711" r="4" fill="#0" id="circle9"/>
	<circle cx="32.2621" cy="444.889" r="4" fill="#0" id="circle10"/>
	<circle cx="40.3087" cy="134.963" r="4" fill="#0" id="circle11"/>
	<circle cx="37.9145" cy="591.852" r="4" fill="#0" id="circle12"/>
	<circle cx="43.567" cy="343.145" r="4" fill="#0" id="circle13"/>
	<circle cx="49.2194" cy="49.2194" r="4" fill="#0" id="circle14"/>
	<circle cx="49.2299" cy="77.4815" r="4" fill="#0" id="circle15"/>
	<circle cx="49.2194" cy="105.744" r="4" fill="#0" id="circle16"/>
	<circle cx="52.0456" cy="617.288" r="4" fill="#0" id="circle17"/>
	<circle cx="54.8718" cy="416.627" r="4" fill="#0" id="circle18"/>
	<circle cx="54.8718" cy="738.815" r="4" fill="#0" id="circle19"/>
	<circle cx="54.8718" cy="767.077" r="4" fill="#0" id="circle20"/>
	<circle cx="57.698" cy="368.581" r="4" fill="#0" id="circle21"/>
	<circle cx="60.5242" cy="645.55" r="4" fill="#0" id="circle22"/>
	<circle cx="60.5242" cy="673.812" r="4" fill="#0" id="circle23"/>
	<circle cx="60.5242" cy="702.074" r="4" fill="#0" id="circle24"/>
	<circle cx="66.1766" cy="26.6097" r="4" fill="#0" id="circle25"/>
	<circle cx="66.1766" cy="795.339" r="4" fill="#0" id="circle26"/>
	<circle cx="62.4761" cy="823.601" r="4" fill="#0" id="circle27"/>
	<circle cx="68.1826" cy="851.863" r="4" fill="#0" id="circle28"/>
	<circle cx="66.1766" cy="880.125" r="4" fill="#0" id="circle29"/>
	<circle cx="71.829" cy="908.387" r="4" fill="#0" id="circle30"/>
	<circle cx="59.7806" cy="942.808" r="4" fill="#0" id="circle31"/>
	<circle cx="88.7863" cy="9.65243" r="4" fill="#0" id="circle32"/>
	<circle cx="88.7863" cy="964.912" r="4" fill="#0" id="circle33"/>
	<circle cx="114.222" cy="979.043" r="4" fill="#0" id="circle34"/>
	<circle cx="117.048" cy="4" r="4" fill="#0" id="circle35"/>
	<circle cx="142.484" cy="990.348" r="4" fill="#0" id="circle36"/>
	<circle cx="145.311" cy="9.65242" r="4" fill="#0" id="circle37"/>
	<circle cx="170.746" cy="996" r="4" fill="#0" id="circle38"/>
	<circle cx="173.573" cy="20.9573" r="4" fill="#0" id="circle39"/>
	<circle cx="196.182" cy="40.7407" r="4" fill="#0" id="circle40"/>
	<circle cx="199.009" cy="996" r="4" fill="#0" id="circle41"/>
	<circle cx="224.444" cy="43.5669" r="4" fill="#0" id="circle42"/>
	<circle cx="227.271" cy="993.174" r="4" fill="#0" id="circle43"/>
	<circle cx="247.054" cy="20.9573" r="4" fill="#0" id="circle44"/>
	<circle cx="255.533" cy="996" r="4" fill="#0" id="circle45"/>
	<circle cx="275.316" cy="9.65242" r="4" fill="#0" id="circle46"/>
	<circle cx="283.795" cy="996" r="4" fill="#0" id="circle47"/>
	<circle cx="303.578" cy="4" r="4" fill="#0" id="circle48"/>
	<circle cx="312.057" cy="996" r="4" fill="#0" id="circle49"/>
	<circle cx="331.84" cy="9.65242" r="4" fill="#0" id="circle50"/>
	<circle cx="340.319" cy="996" r="4" fill="#0" id="circle51"/>
	<circle cx="357.276" cy="23.7835" r="4" fill="#0" id="circle52"/>
	<circle cx="368.581" cy="993.174" r="4" fill="#0" id="circle53"/>
	<circle cx="374.234" cy="46.3932" r="4" fill="#0" id="circle54"/>
	<circle cx="385.538" cy="74.6553" r="4" fill="#0" id="circle55"/>
	<circle cx="385.538" cy="105.744" r="4" fill="#0" id="circle56"/>
	<circle cx="385.538" cy="134.006" r="4" fill="#0" id="circle57"/>
	<circle cx="391.191" cy="976.217" r="4" fill="#0" id="circle58"/>
	<circle cx="399.669" cy="159.442" r="4" fill="#0" id="circle59"/>
	<circle cx="416.627" cy="182.051" r="4" fill="#0" id="circle60"/>
	<circle cx="419.453" cy="973.39" r="4" fill="#0" id="circle61"/>
	<circle cx="430.758" cy="382.712" r="4" fill="#0" id="circle62"/>
	<circle cx="442.063" cy="196.182" r="4" fill="#0" id="circle63"/>
	<circle cx="444.889" cy="357.276" r="4" fill="#0" id="circle64"/>
	<circle cx="447.715" cy="973.39" r="4" fill="#0" id="circle65"/>
	<circle cx="453.367" cy="399.67" r="4" fill="#0" id="circle66"/>
	<circle cx="467.499" cy="210.313" r="4" fill="#0" id="circle67"/>
	<circle cx="470.325" cy="343.145" r="4" fill="#0" id="circle68"/>
	<circle cx="470.325" cy="422.279" r="4" fill="#0" id="circle69"/>
	<circle cx="475.977" cy="967.738" r="4" fill="#0" id="circle70"/>
	<circle cx="484.456" cy="317.709" r="4" fill="#0" id="circle71"/>
	<circle cx="490.108" cy="227.271" r="4" fill="#0" id="circle72"/>
	<circle cx="490.108" cy="289.447" r="4" fill="#0" id="circle73"/>
	<circle cx="492.934" cy="258.359" r="4" fill="#0" id="circle74"/>
	<circle cx="498.587" cy="427.932" r="4" fill="#0" id="circle75"/>
	<circle cx="504.239" cy="973.39" r="4" fill="#0" id="circle76"/>
	<circle cx="509.892" cy="654.028" r="4" fill="#0" id="circle77"/>
	<circle cx="515.544" cy="682.291" r="4" fill="#0" id="circle78"/>
	<circle cx="518.37" cy="710.553" r="4" fill="#0" id="circle79"/>
	<circle cx="526.849" cy="433.584" r="4" fill="#0" id="circle80"/>
	<circle cx="529.675" cy="738.815" r="4" fill="#0" id="circle81"/>
	<circle cx="532.501" cy="984.695" r="4" fill="#0" id="circle82"/>
	<circle cx="538.154" cy="642.724" r="4" fill="#0" id="circle83"/>
	<circle cx="555.111" cy="433.584" r="4" fill="#0" id="circle84"/>
	<circle cx="557.937" cy="738.815" r="4" fill="#0" id="circle85"/>
	<circle cx="560.764" cy="990.348" r="4" fill="#0" id="circle86"/>
	<circle cx="566.416" cy="634.245" r="4" fill="#0" id="circle87"/>
	<circle cx="583.373" cy="439.236" r="4" fill="#0" id="circle88"/>
	<circle cx="587.879" cy="741.56" r="4" fill="#0" id="circle89"/>
	<circle cx="589.026" cy="996" r="4" fill="#0" id="circle90"/>
	<circle cx="594.678" cy="620.114" r="4" fill="#0" id="circle91"/>
	<circle cx="611.635" cy="450.541" r="4" fill="#0" id="circle92"/>
	<circle cx="614.462" cy="727.51" r="4" fill="#0" id="circle93"/>
	<circle cx="617.288" cy="996" r="4" fill="#0" id="circle94"/>
	<circle cx="620.114" cy="605.983" r="4" fill="#0" id="circle95"/>
	<circle cx="637.071" cy="464.672" r="4" fill="#0" id="circle96"/>
	<circle cx="637.071" cy="583.373" r="4" fill="#0" id="circle97"/>
	<circle cx="642.724" cy="727.894" r="4" fill="#0" id="circle98"/>
	<circle cx="645.55" cy="990.348" r="4" fill="#0" id="circle99"/>
	<circle cx="651.202" cy="490.108" r="4" fill="#0" id="circle100"/>
	<circle cx="651.202" cy="518.37" r="4" fill="#0" id="circle101"/>
	<circle cx="651.202" cy="546.632" r="4" fill="#0" id="circle102"/>
	<circle cx="670.986" cy="727.51" r="4" fill="#0" id="circle103"/>
	<circle cx="673.812" cy="979.043" r="4" fill="#0" id="circle104"/>
	<circle cx="699.248" cy="738.815" r="4" fill="#0" id="circle105"/>
	<circle cx="702.074" cy="964.912" r="4" fill="#0" id="circle106"/>
	<circle cx="716.205" cy="761.425" r="4" fill="#0" id="circle107"/>
	<circle cx="719.031" cy="936.65" r="4" fill="#0" id="circle108"/>
	<circle cx="724.684" cy="789.687" r="4" fill="#0" id="circle109"/>
	<circle cx="724.684" cy="817.949" r="4" fill="#0" id="circle110"/>
	<circle cx="724.684" cy="897.083" r="4" fill="#0" id="circle111"/>
	<circle cx="730.336" cy="846.211" r="4" fill="#0" id="circle112"/>
	</g>
</svg>