<?xml version="1.0" encoding="UTF-8" standalone="no"?>
<!-- Created with CurveBenchmark -->
<svg
	xmlns:dc="http://purl.org/dc/elements/1.1/"
	xmlns:cc="http://creativecommons.org/ns#"
	xmlns:rdf="http://www.w3.org/1999/02/22-rdf-syntax-ns#"
	xmlns:svg="http://www.w3.org/2000/svg"
	xmlns="http://www.w3.org/2000/svg"
	xmlns:sodipodi="http://sodipodi.sourceforge.net/DTD/sodipodi-0.dtd"
	xmlns:inkscape="http://www.inkscape.org/namespaces/inkscape"
	width="1000"
	height="1000"
	id="svg2"
	version="1.1"
	sodipodi:docname="manifold/stretchdenoise-elephant20.png.txt">
<defs
	id="defs4" />
<metadata
	id="metadata7">
	<rdf:RDF>
		<cc:Work
			rdf:about="">
			<dc:format>image/svg+xml</dc:format>
			<dc:type
				rdf:resource="http://purl.org/dc/dcmitype/StillImage" />
			<dc:title></dc:title>
		</cc:Work>
	</rdf:RDF>
</metadata>
<g
	inkscape:label="Layer 1"
	inkscape:groupmode="layer"
	id="layer1">
	<path style="fill:none;stroke:red;stroke-width:1px;stroke-linecap:butt;stroke-linejoin:miter;stroke-opacity:1" d="M 4,251.085 13.1513,267.557 z" id="boundary" inkscape:connector-curvature="0" />
	<path style="fill:none;stroke:red;stroke-width:1px;stroke-linecap:butt;stroke-linejoin:miter;stroke-opacity:1" d="M 4,251.085 18.6421,236.443 z" id="boundary" inkscape:connector-curvature="0" />
	<path style="fill:none;stroke:red;stroke-width:1px;stroke-linecap:butt;stroke-linejoin:miter;stroke-opacity:1" d="M 13.1513,267.557 25.9631,282.199 z" id="boundary" inkscape:connector-curvature="0" />
	<path style="fill:none;stroke:red;stroke-width:1px;stroke-linecap:butt;stroke-linejoin:miter;stroke-opacity:1" d="M 18.6421,236.443 36.9446,236.443 z" id="boundary" inkscape:connector-curvature="0" />
	<path style="fill:none;stroke:red;stroke-width:1px;stroke-linecap:butt;stroke-linejoin:miter;stroke-opacity:1" d="M 25.9631,282.199 40.6052,293.181 z" id="boundary" inkscape:connector-curvature="0" />
	<path style="fill:none;stroke:red;stroke-width:1px;stroke-linecap:butt;stroke-linejoin:miter;stroke-opacity:1" d="M 52.9388,344.871 40.6052,311.483 z" id="boundary" inkscape:connector-curvature="0" />
	<path style="fill:none;stroke:red;stroke-width:1px;stroke-linecap:butt;stroke-linejoin:miter;stroke-opacity:1" d="M 52.9388,344.871 69.8893,348.089 z" id="boundary" inkscape:connector-curvature="0" />
	<path style="fill:none;stroke:red;stroke-width:1px;stroke-linecap:butt;stroke-linejoin:miter;stroke-opacity:1" d="M 36.9446,236.443 55.2472,236.443 z" id="boundary" inkscape:connector-curvature="0" />
	<path style="fill:none;stroke:red;stroke-width:1px;stroke-linecap:butt;stroke-linejoin:miter;stroke-opacity:1" d="M 40.6052,293.181 40.6052,311.483 z" id="boundary" inkscape:connector-curvature="0" />
	<path style="fill:none;stroke:red;stroke-width:1px;stroke-linecap:butt;stroke-linejoin:miter;stroke-opacity:1" d="M 55.2472,236.443 60.738,254.745 z" id="boundary" inkscape:connector-curvature="0" />
	<path style="fill:none;stroke:red;stroke-width:1px;stroke-linecap:butt;stroke-linejoin:miter;stroke-opacity:1" d="M 60.738,254.745 68.9639,271.732 z" id="boundary" inkscape:connector-curvature="0" />
	<path style="fill:none;stroke:red;stroke-width:1px;stroke-linecap:butt;stroke-linejoin:miter;stroke-opacity:1" d="M 68.9639,271.732 79.0406,287.69 z" id="boundary" inkscape:connector-curvature="0" />
	<path style="fill:none;stroke:red;stroke-width:1px;stroke-linecap:butt;stroke-linejoin:miter;stroke-opacity:1" d="M 69.8893,348.089 79.0406,324.295 z" id="boundary" inkscape:connector-curvature="0" />
	<path style="fill:none;stroke:red;stroke-width:1px;stroke-linecap:butt;stroke-linejoin:miter;stroke-opacity:1" d="M 79.0406,287.69 80.115,305.993 z" id="boundary" inkscape:connector-curvature="0" />
	<path style="fill:none;stroke:red;stroke-width:1px;stroke-linecap:butt;stroke-linejoin:miter;stroke-opacity:1" d="M 80.115,305.993 79.0406,324.295 z" id="boundary" inkscape:connector-curvature="0" />
	<path style="fill:none;stroke:red;stroke-width:1px;stroke-linecap:butt;stroke-linejoin:miter;stroke-opacity:1" d="M 168.723,296.841 187.026,260.236 z" id="boundary" inkscape:connector-curvature="0" />
	<path style="fill:none;stroke:red;stroke-width:1px;stroke-linecap:butt;stroke-linejoin:miter;stroke-opacity:1" d="M 168.723,296.841 241.934,348.089 z" id="boundary" inkscape:connector-curvature="0" />
	<path style="fill:none;stroke:red;stroke-width:1px;stroke-linecap:butt;stroke-linejoin:miter;stroke-opacity:1" d="M 187.026,260.236 196.177,241.934 z" id="boundary" inkscape:connector-curvature="0" />
	<path style="fill:none;stroke:red;stroke-width:1px;stroke-linecap:butt;stroke-linejoin:miter;stroke-opacity:1" d="M 196.177,241.934 205.328,214.48 z" id="boundary" inkscape:connector-curvature="0" />
	<path style="fill:none;stroke:red;stroke-width:1px;stroke-linecap:butt;stroke-linejoin:miter;stroke-opacity:1" d="M 205.328,214.48 214.48,196.177 z" id="boundary" inkscape:connector-curvature="0" />
	<path style="fill:none;stroke:red;stroke-width:1px;stroke-linecap:butt;stroke-linejoin:miter;stroke-opacity:1" d="M 214.48,177.875 214.48,196.177 z" id="boundary" inkscape:connector-curvature="0" />
	<path style="fill:none;stroke:red;stroke-width:1px;stroke-linecap:butt;stroke-linejoin:miter;stroke-opacity:1" d="M 214.48,177.875 223.631,159.572 z" id="boundary" inkscape:connector-curvature="0" />
	<path style="fill:none;stroke:red;stroke-width:1px;stroke-linecap:butt;stroke-linejoin:miter;stroke-opacity:1" d="M 223.631,159.572 232.782,141.269 z" id="boundary" inkscape:connector-curvature="0" />
	<path style="fill:none;stroke:red;stroke-width:1px;stroke-linecap:butt;stroke-linejoin:miter;stroke-opacity:1" d="M 232.782,141.269 241.934,113.815 z" id="boundary" inkscape:connector-curvature="0" />
	<path style="fill:none;stroke:red;stroke-width:1px;stroke-linecap:butt;stroke-linejoin:miter;stroke-opacity:1" d="M 241.934,113.815 256.576,99.1734 z" id="boundary" inkscape:connector-curvature="0" />
	<path style="fill:none;stroke:red;stroke-width:1px;stroke-linecap:butt;stroke-linejoin:miter;stroke-opacity:1" d="M 241.934,348.089 296.841,375.542 z" id="boundary" inkscape:connector-curvature="0" />
	<path style="fill:none;stroke:red;stroke-width:1px;stroke-linecap:butt;stroke-linejoin:miter;stroke-opacity:1" d="M 256.576,99.1734 271.218,84.5314 z" id="boundary" inkscape:connector-curvature="0" />
	<path style="fill:none;stroke:red;stroke-width:1px;stroke-linecap:butt;stroke-linejoin:miter;stroke-opacity:1" d="M 271.218,84.5314 285.86,71.7196 z" id="boundary" inkscape:connector-curvature="0" />
	<path style="fill:none;stroke:red;stroke-width:1px;stroke-linecap:butt;stroke-linejoin:miter;stroke-opacity:1" d="M 285.86,71.7196 302.332,62.5683 z" id="boundary" inkscape:connector-curvature="0" />
	<path style="fill:none;stroke:red;stroke-width:1px;stroke-linecap:butt;stroke-linejoin:miter;stroke-opacity:1" d="M 296.841,375.542 315.144,370.052 z" id="boundary" inkscape:connector-curvature="0" />
	<path style="fill:none;stroke:red;stroke-width:1px;stroke-linecap:butt;stroke-linejoin:miter;stroke-opacity:1" d="M 302.332,62.5683 320.635,62.5683 z" id="boundary" inkscape:connector-curvature="0" />
	<path style="fill:none;stroke:red;stroke-width:1px;stroke-linecap:butt;stroke-linejoin:miter;stroke-opacity:1" d="M 315.144,370.052 333.446,366.391 z" id="boundary" inkscape:connector-curvature="0" />
	<path style="fill:none;stroke:red;stroke-width:1px;stroke-linecap:butt;stroke-linejoin:miter;stroke-opacity:1" d="M 320.635,62.5683 338.937,62.5683 z" id="boundary" inkscape:connector-curvature="0" />
	<path style="fill:none;stroke:red;stroke-width:1px;stroke-linecap:butt;stroke-linejoin:miter;stroke-opacity:1" d="M 333.446,366.391 349.919,357.24 z" id="boundary" inkscape:connector-curvature="0" />
	<path style="fill:none;stroke:red;stroke-width:1px;stroke-linecap:butt;stroke-linejoin:miter;stroke-opacity:1" d="M 338.937,62.5683 357.24,62.5683 z" id="boundary" inkscape:connector-curvature="0" />
	<path style="fill:none;stroke:red;stroke-width:1px;stroke-linecap:butt;stroke-linejoin:miter;stroke-opacity:1" d="M 349.919,357.24 368.221,357.24 z" id="boundary" inkscape:connector-curvature="0" />
	<path style="fill:none;stroke:red;stroke-width:1px;stroke-linecap:butt;stroke-linejoin:miter;stroke-opacity:1" d="M 351.749,516.472 360.9,489.018 z" id="boundary" inkscape:connector-curvature="0" />
	<path style="fill:none;stroke:red;stroke-width:1px;stroke-linecap:butt;stroke-linejoin:miter;stroke-opacity:1" d="M 351.749,516.472 370.052,549.417 z" id="boundary" inkscape:connector-curvature="0" />
	<path style="fill:none;stroke:red;stroke-width:1px;stroke-linecap:butt;stroke-linejoin:miter;stroke-opacity:1" d="M 357.24,62.5683 373.712,71.7196 z" id="boundary" inkscape:connector-curvature="0" />
	<path style="fill:none;stroke:red;stroke-width:1px;stroke-linecap:butt;stroke-linejoin:miter;stroke-opacity:1" d="M 360.9,470.716 360.9,489.018 z" id="boundary" inkscape:connector-curvature="0" />
	<path style="fill:none;stroke:red;stroke-width:1px;stroke-linecap:butt;stroke-linejoin:miter;stroke-opacity:1" d="M 360.9,470.716 370.052,452.413 z" id="boundary" inkscape:connector-curvature="0" />
	<path style="fill:none;stroke:red;stroke-width:1px;stroke-linecap:butt;stroke-linejoin:miter;stroke-opacity:1" d="M 368.221,357.24 379.203,371.882 z" id="boundary" inkscape:connector-curvature="0" />
	<path style="fill:none;stroke:red;stroke-width:1px;stroke-linecap:butt;stroke-linejoin:miter;stroke-opacity:1" d="M 370.052,452.413 379.203,426.79 z" id="boundary" inkscape:connector-curvature="0" />
	<path style="fill:none;stroke:red;stroke-width:1px;stroke-linecap:butt;stroke-linejoin:miter;stroke-opacity:1" d="M 370.052,549.417 388.354,549.417 z" id="boundary" inkscape:connector-curvature="0" />
	<path style="fill:none;stroke:red;stroke-width:1px;stroke-linecap:butt;stroke-linejoin:miter;stroke-opacity:1" d="M 373.712,71.7196 392.015,71.7196 z" id="boundary" inkscape:connector-curvature="0" />
	<path style="fill:none;stroke:red;stroke-width:1px;stroke-linecap:butt;stroke-linejoin:miter;stroke-opacity:1" d="M 379.203,371.882 379.203,390.185 z" id="boundary" inkscape:connector-curvature="0" />
	<path style="fill:none;stroke:red;stroke-width:1px;stroke-linecap:butt;stroke-linejoin:miter;stroke-opacity:1" d="M 379.203,390.185 379.203,408.487 z" id="boundary" inkscape:connector-curvature="0" />
	<path style="fill:none;stroke:red;stroke-width:1px;stroke-linecap:butt;stroke-linejoin:miter;stroke-opacity:1" d="M 379.203,408.487 379.203,426.79 z" id="boundary" inkscape:connector-curvature="0" />
	<path style="fill:none;stroke:red;stroke-width:1px;stroke-linecap:butt;stroke-linejoin:miter;stroke-opacity:1" d="M 388.354,549.417 423.129,558.568 z" id="boundary" inkscape:connector-curvature="0" />
	<path style="fill:none;stroke:red;stroke-width:1px;stroke-linecap:butt;stroke-linejoin:miter;stroke-opacity:1" d="M 392.015,71.7196 410.317,71.7196 z" id="boundary" inkscape:connector-curvature="0" />
	<path style="fill:none;stroke:red;stroke-width:1px;stroke-linecap:butt;stroke-linejoin:miter;stroke-opacity:1" d="M 410.317,71.7196 428.62,71.7196 z" id="boundary" inkscape:connector-curvature="0" />
	<path style="fill:none;stroke:red;stroke-width:1px;stroke-linecap:butt;stroke-linejoin:miter;stroke-opacity:1" d="M 423.129,558.568 459.734,558.568 z" id="boundary" inkscape:connector-curvature="0" />
	<path style="fill:none;stroke:red;stroke-width:1px;stroke-linecap:butt;stroke-linejoin:miter;stroke-opacity:1" d="M 428.62,71.7196 446.923,71.7196 z" id="boundary" inkscape:connector-curvature="0" />
	<path style="fill:none;stroke:red;stroke-width:1px;stroke-linecap:butt;stroke-linejoin:miter;stroke-opacity:1" d="M 446.923,71.7196 463.395,62.5683 z" id="boundary" inkscape:connector-curvature="0" />
	<path style="fill:none;stroke:red;stroke-width:1px;stroke-linecap:butt;stroke-linejoin:miter;stroke-opacity:1" d="M 459.734,558.568 472.546,521.963 z" id="boundary" inkscape:connector-curvature="0" />
	<path style="fill:none;stroke:red;stroke-width:1px;stroke-linecap:butt;stroke-linejoin:miter;stroke-opacity:1" d="M 463.395,62.5683 479.867,53.417 z" id="boundary" inkscape:connector-curvature="0" />
	<path style="fill:none;stroke:red;stroke-width:1px;stroke-linecap:butt;stroke-linejoin:miter;stroke-opacity:1" d="M 472.546,521.963 505.491,521.963 z" id="boundary" inkscape:connector-curvature="0" />
	<path style="fill:none;stroke:red;stroke-width:1px;stroke-linecap:butt;stroke-linejoin:miter;stroke-opacity:1" d="M 479.867,53.417 496.339,44.2657 z" id="boundary" inkscape:connector-curvature="0" />
	<path style="fill:none;stroke:red;stroke-width:1px;stroke-linecap:butt;stroke-linejoin:miter;stroke-opacity:1" d="M 496.339,44.2657 512.812,35.1144 z" id="boundary" inkscape:connector-curvature="0" />
	<path style="fill:none;stroke:red;stroke-width:1px;stroke-linecap:butt;stroke-linejoin:miter;stroke-opacity:1" d="M 505.491,521.963 525.624,575.041 z" id="boundary" inkscape:connector-curvature="0" />
	<path style="fill:none;stroke:red;stroke-width:1px;stroke-linecap:butt;stroke-linejoin:miter;stroke-opacity:1" d="M 507.321,726.952 534.775,699.498 z" id="boundary" inkscape:connector-curvature="0" />
	<path style="fill:none;stroke:red;stroke-width:1px;stroke-linecap:butt;stroke-linejoin:miter;stroke-opacity:1" d="M 507.321,726.952 565.889,759.897 z" id="boundary" inkscape:connector-curvature="0" />
	<path style="fill:none;stroke:red;stroke-width:1px;stroke-linecap:butt;stroke-linejoin:miter;stroke-opacity:1" d="M 512.812,35.1144 529.284,25.9631 z" id="boundary" inkscape:connector-curvature="0" />
	<path style="fill:none;stroke:red;stroke-width:1px;stroke-linecap:butt;stroke-linejoin:miter;stroke-opacity:1" d="M 525.624,575.041 534.775,633.609 z" id="boundary" inkscape:connector-curvature="0" />
	<path style="fill:none;stroke:red;stroke-width:1px;stroke-linecap:butt;stroke-linejoin:miter;stroke-opacity:1" d="M 529.284,25.9631 547.587,18.6421 z" id="boundary" inkscape:connector-curvature="0" />
	<path style="fill:none;stroke:red;stroke-width:1px;stroke-linecap:butt;stroke-linejoin:miter;stroke-opacity:1" d="M 534.775,633.609 534.775,699.498 z" id="boundary" inkscape:connector-curvature="0" />
	<path style="fill:none;stroke:red;stroke-width:1px;stroke-linecap:butt;stroke-linejoin:miter;stroke-opacity:1" d="M 547.587,18.6421 562.229,7.66052 z" id="boundary" inkscape:connector-curvature="0" />
	<path style="fill:none;stroke:red;stroke-width:1px;stroke-linecap:butt;stroke-linejoin:miter;stroke-opacity:1" d="M 562.229,7.66052 580.531,7.66052 z" id="boundary" inkscape:connector-curvature="0" />
	<path style="fill:none;stroke:red;stroke-width:1px;stroke-linecap:butt;stroke-linejoin:miter;stroke-opacity:1" d="M 565.889,759.897 633.609,737.934 z" id="boundary" inkscape:connector-curvature="0" />
	<path style="fill:none;stroke:red;stroke-width:1px;stroke-linecap:butt;stroke-linejoin:miter;stroke-opacity:1" d="M 580.531,7.66052 598.834,7.66052 z" id="boundary" inkscape:connector-curvature="0" />
	<path style="fill:none;stroke:red;stroke-width:1px;stroke-linecap:butt;stroke-linejoin:miter;stroke-opacity:1" d="M 598.834,7.66052 617.137,4 z" id="boundary" inkscape:connector-curvature="0" />
	<path style="fill:none;stroke:red;stroke-width:1px;stroke-linecap:butt;stroke-linejoin:miter;stroke-opacity:1" d="M 617.137,4 635.439,4 z" id="boundary" inkscape:connector-curvature="0" />
	<path style="fill:none;stroke:red;stroke-width:1px;stroke-linecap:butt;stroke-linejoin:miter;stroke-opacity:1" d="M 633.609,737.934 637.269,576.871 z" id="boundary" inkscape:connector-curvature="0" />
	<path style="fill:none;stroke:red;stroke-width:1px;stroke-linecap:butt;stroke-linejoin:miter;stroke-opacity:1" d="M 635.439,4 653.742,4 z" id="boundary" inkscape:connector-curvature="0" />
	<path style="fill:none;stroke:red;stroke-width:1px;stroke-linecap:butt;stroke-linejoin:miter;stroke-opacity:1" d="M 637.269,576.871 939.262,628.118 z" id="boundary" inkscape:connector-curvature="0" />
	<path style="fill:none;stroke:red;stroke-width:1px;stroke-linecap:butt;stroke-linejoin:miter;stroke-opacity:1" d="M 653.742,4 672.044,7.66052 z" id="boundary" inkscape:connector-curvature="0" />
	<path style="fill:none;stroke:red;stroke-width:1px;stroke-linecap:butt;stroke-linejoin:miter;stroke-opacity:1" d="M 672.044,7.66052 690.347,7.66052 z" id="boundary" inkscape:connector-curvature="0" />
	<path style="fill:none;stroke:red;stroke-width:1px;stroke-linecap:butt;stroke-linejoin:miter;stroke-opacity:1" d="M 690.347,7.66052 708.649,11.321 z" id="boundary" inkscape:connector-curvature="0" />
	<path style="fill:none;stroke:red;stroke-width:1px;stroke-linecap:butt;stroke-linejoin:miter;stroke-opacity:1" d="M 708.649,11.321 725.122,20.4723 z" id="boundary" inkscape:connector-curvature="0" />
	<path style="fill:none;stroke:red;stroke-width:1px;stroke-linecap:butt;stroke-linejoin:miter;stroke-opacity:1" d="M 725.122,20.4723 743.424,27.7934 z" id="boundary" inkscape:connector-curvature="0" />
	<path style="fill:none;stroke:red;stroke-width:1px;stroke-linecap:butt;stroke-linejoin:miter;stroke-opacity:1" d="M 743.424,27.7934 759.897,36.9446 z" id="boundary" inkscape:connector-curvature="0" />
	<path style="fill:none;stroke:red;stroke-width:1px;stroke-linecap:butt;stroke-linejoin:miter;stroke-opacity:1" d="M 759.897,36.9446 778.199,44.2657 z" id="boundary" inkscape:connector-curvature="0" />
	<path style="fill:none;stroke:red;stroke-width:1px;stroke-linecap:butt;stroke-linejoin:miter;stroke-opacity:1" d="M 778.199,44.2657 794.672,53.417 z" id="boundary" inkscape:connector-curvature="0" />
	<path style="fill:none;stroke:red;stroke-width:1px;stroke-linecap:butt;stroke-linejoin:miter;stroke-opacity:1" d="M 794.672,53.417 809.314,66.2288 z" id="boundary" inkscape:connector-curvature="0" />
	<path style="fill:none;stroke:red;stroke-width:1px;stroke-linecap:butt;stroke-linejoin:miter;stroke-opacity:1" d="M 809.314,66.2288 825.786,75.3801 z" id="boundary" inkscape:connector-curvature="0" />
	<path style="fill:none;stroke:red;stroke-width:1px;stroke-linecap:butt;stroke-linejoin:miter;stroke-opacity:1" d="M 825.786,75.3801 869.712,110.155 z" id="boundary" inkscape:connector-curvature="0" />
	<path style="fill:none;stroke:red;stroke-width:1px;stroke-linecap:butt;stroke-linejoin:miter;stroke-opacity:1" d="M 869.712,110.155 891.675,141.269 z" id="boundary" inkscape:connector-curvature="0" />
	<path style="fill:none;stroke:red;stroke-width:1px;stroke-linecap:butt;stroke-linejoin:miter;stroke-opacity:1" d="M 891.675,141.269 920.959,188.856 z" id="boundary" inkscape:connector-curvature="0" />
	<path style="fill:none;stroke:red;stroke-width:1px;stroke-linecap:butt;stroke-linejoin:miter;stroke-opacity:1" d="M 920.959,188.856 939.262,320.635 z" id="boundary" inkscape:connector-curvature="0" />
	<path style="fill:none;stroke:red;stroke-width:1px;stroke-linecap:butt;stroke-linejoin:miter;stroke-opacity:1" d="M 930.111,439.601 939.262,320.635 z" id="boundary" inkscape:connector-curvature="0" />
	<path style="fill:none;stroke:red;stroke-width:1px;stroke-linecap:butt;stroke-linejoin:miter;stroke-opacity:1" d="M 930.111,439.601 939.262,628.118 z" id="boundary" inkscape:connector-curvature="0" />
	<circle cx="4" cy="251.085" r="4" fill="#0" id="circle0"/>
	<circle cx="13.1513" cy="267.557" r="4" fill="#0" id="circle1"/>
	<circle cx="13.1513" cy="406.657" r="4" fill="#0" id="circle2"/>
	<circle cx="18.6421" cy="236.443" r="4" fill="#0" id="circle3"/>
	<circle cx="22.3026" cy="370.052" r="4" fill="#0" id="circle4"/>
	<circle cx="22.3026" cy="388.354" r="4" fill="#0" id="circle5"/>
	<circle cx="22.3026" cy="423.129" r="4" fill="#0" id="circle6"/>
	<circle cx="22.3026" cy="441.432" r="4" fill="#0" id="circle7"/>
	<circle cx="25.9631" cy="282.199" r="4" fill="#0" id="circle8"/>
	<circle cx="52.9388" cy="344.871" r="4" fill="#0" id="circle9"/>
	<circle cx="35.1144" cy="456.074" r="4" fill="#0" id="circle10"/>
	<circle cx="36.9446" cy="236.443" r="4" fill="#0" id="circle11"/>
	<circle cx="40.6052" cy="293.181" r="4" fill="#0" id="circle12"/>
	<circle cx="40.6052" cy="311.483" r="4" fill="#0" id="circle13"/>
	<circle cx="49.7565" cy="467.055" r="4" fill="#0" id="circle14"/>
	<circle cx="55.2472" cy="236.443" r="4" fill="#0" id="circle15"/>
	<circle cx="60.738" cy="254.745" r="4" fill="#0" id="circle16"/>
	<circle cx="60.738" cy="375.542" r="4" fill="#0" id="circle17"/>
	<circle cx="60.738" cy="393.845" r="4" fill="#0" id="circle18"/>
	<circle cx="60.738" cy="412.148" r="4" fill="#0" id="circle19"/>
	<circle cx="66.2288" cy="476.207" r="4" fill="#0" id="circle20"/>
	<circle cx="68.9639" cy="271.732" r="4" fill="#0" id="circle21"/>
	<circle cx="69.8893" cy="348.089" r="4" fill="#0" id="circle22"/>
	<circle cx="75.3801" cy="423.129" r="4" fill="#0" id="circle23"/>
	<circle cx="79.0406" cy="287.69" r="4" fill="#0" id="circle24"/>
	<circle cx="80.115" cy="305.993" r="4" fill="#0" id="circle25"/>
	<circle cx="79.0406" cy="324.295" r="4" fill="#0" id="circle26"/>
	<circle cx="82.7011" cy="485.358" r="4" fill="#0" id="circle27"/>
	<circle cx="86.3616" cy="437.771" r="4" fill="#0" id="circle28"/>
	<circle cx="101.004" cy="492.679" r="4" fill="#0" id="circle29"/>
	<circle cx="104.664" cy="437.771" r="4" fill="#0" id="circle30"/>
	<circle cx="119.306" cy="492.679" r="4" fill="#0" id="circle31"/>
	<circle cx="122.967" cy="434.111" r="4" fill="#0" id="circle32"/>
	<circle cx="137.609" cy="485.358" r="4" fill="#0" id="circle33"/>
	<circle cx="141.269" cy="415.808" r="4" fill="#0" id="circle34"/>
	<circle cx="150.421" cy="379.203" r="4" fill="#0" id="circle35"/>
	<circle cx="150.421" cy="397.506" r="4" fill="#0" id="circle36"/>
	<circle cx="154.081" cy="476.207" r="4" fill="#0" id="circle37"/>
	<circle cx="159.572" cy="324.295" r="4" fill="#0" id="circle38"/>
	<circle cx="159.572" cy="342.598" r="4" fill="#0" id="circle39"/>
	<circle cx="159.572" cy="360.9" r="4" fill="#0" id="circle40"/>
	<circle cx="168.723" cy="296.841" r="4" fill="#0" id="circle41"/>
	<circle cx="168.723" cy="461.565" r="4" fill="#0" id="circle42"/>
	<circle cx="177.875" cy="278.539" r="4" fill="#0" id="circle43"/>
	<circle cx="183.365" cy="446.923" r="4" fill="#0" id="circle44"/>
	<circle cx="187.026" cy="260.236" r="4" fill="#0" id="circle45"/>
	<circle cx="192.517" cy="428.62" r="4" fill="#0" id="circle46"/>
	<circle cx="196.177" cy="241.934" r="4" fill="#0" id="circle47"/>
	<circle cx="201.668" cy="410.317" r="4" fill="#0" id="circle48"/>
	<circle cx="205.328" cy="214.48" r="4" fill="#0" id="circle49"/>
	<circle cx="214.48" cy="177.875" r="4" fill="#0" id="circle50"/>
	<circle cx="214.48" cy="196.177" r="4" fill="#0" id="circle51"/>
	<circle cx="216.31" cy="375.542" r="4" fill="#0" id="circle52"/>
	<circle cx="216.31" cy="393.845" r="4" fill="#0" id="circle53"/>
	<circle cx="223.631" cy="159.572" r="4" fill="#0" id="circle54"/>
	<circle cx="225.461" cy="357.24" r="4" fill="#0" id="circle55"/>
	<circle cx="232.782" cy="141.269" r="4" fill="#0" id="circle56"/>
	<circle cx="232.782" cy="384.694" r="4" fill="#0" id="circle57"/>
	<circle cx="241.934" cy="113.815" r="4" fill="#0" id="circle58"/>
	<circle cx="241.934" cy="348.089" r="4" fill="#0" id="circle59"/>
	<circle cx="241.934" cy="366.391" r="4" fill="#0" id="circle60"/>
	<circle cx="249.255" cy="393.845" r="4" fill="#0" id="circle61"/>
	<circle cx="256.576" cy="99.1734" r="4" fill="#0" id="circle62"/>
	<circle cx="267.557" cy="393.845" r="4" fill="#0" id="circle63"/>
	<circle cx="271.218" cy="84.5314" r="4" fill="#0" id="circle64"/>
	<circle cx="285.86" cy="71.7196" r="4" fill="#0" id="circle65"/>
	<circle cx="285.86" cy="390.185" r="4" fill="#0" id="circle66"/>
	<circle cx="296.841" cy="375.542" r="4" fill="#0" id="circle67"/>
	<circle cx="302.332" cy="62.5683" r="4" fill="#0" id="circle68"/>
	<circle cx="315.144" cy="370.052" r="4" fill="#0" id="circle69"/>
	<circle cx="320.635" cy="62.5683" r="4" fill="#0" id="circle70"/>
	<circle cx="333.446" cy="366.391" r="4" fill="#0" id="circle71"/>
	<circle cx="338.937" cy="62.5683" r="4" fill="#0" id="circle72"/>
	<circle cx="349.919" cy="357.24" r="4" fill="#0" id="circle73"/>
	<circle cx="351.749" cy="516.472" r="4" fill="#0" id="circle74"/>
	<circle cx="351.749" cy="543.926" r="4" fill="#0" id="circle75"/>
	<circle cx="357.24" cy="62.5683" r="4" fill="#0" id="circle76"/>
	<circle cx="360.9" cy="470.716" r="4" fill="#0" id="circle77"/>
	<circle cx="360.9" cy="489.018" r="4" fill="#0" id="circle78"/>
	<circle cx="368.221" cy="357.24" r="4" fill="#0" id="circle79"/>
	<circle cx="370.052" cy="452.413" r="4" fill="#0" id="circle80"/>
	<circle cx="370.052" cy="549.417" r="4" fill="#0" id="circle81"/>
	<circle cx="373.712" cy="71.7196" r="4" fill="#0" id="circle82"/>
	<circle cx="379.203" cy="371.882" r="4" fill="#0" id="circle83"/>
	<circle cx="379.203" cy="390.185" r="4" fill="#0" id="circle84"/>
	<circle cx="379.203" cy="408.487" r="4" fill="#0" id="circle85"/>
	<circle cx="379.203" cy="426.79" r="4" fill="#0" id="circle86"/>
	<circle cx="388.354" cy="549.417" r="4" fill="#0" id="circle87"/>
	<circle cx="392.015" cy="71.7196" r="4" fill="#0" id="circle88"/>
	<circle cx="404.827" cy="558.568" r="4" fill="#0" id="circle89"/>
	<circle cx="410.317" cy="71.7196" r="4" fill="#0" id="circle90"/>
	<circle cx="423.129" cy="558.568" r="4" fill="#0" id="circle91"/>
	<circle cx="428.62" cy="71.7196" r="4" fill="#0" id="circle92"/>
	<circle cx="441.432" cy="558.568" r="4" fill="#0" id="circle93"/>
	<circle cx="446.923" cy="71.7196" r="4" fill="#0" id="circle94"/>
	<circle cx="459.734" cy="558.568" r="4" fill="#0" id="circle95"/>
	<circle cx="463.395" cy="62.5683" r="4" fill="#0" id="circle96"/>
	<circle cx="472.546" cy="521.963" r="4" fill="#0" id="circle97"/>
	<circle cx="472.546" cy="540.266" r="4" fill="#0" id="circle98"/>
	<circle cx="479.867" cy="53.417" r="4" fill="#0" id="circle99"/>
	<circle cx="489.018" cy="512.812" r="4" fill="#0" id="circle100"/>
	<circle cx="496.339" cy="44.2657" r="4" fill="#0" id="circle101"/>
	<circle cx="505.491" cy="521.963" r="4" fill="#0" id="circle102"/>
	<circle cx="507.321" cy="726.952" r="4" fill="#0" id="circle103"/>
	<circle cx="512.812" cy="35.1144" r="4" fill="#0" id="circle104"/>
	<circle cx="512.812" cy="540.266" r="4" fill="#0" id="circle105"/>
	<circle cx="516.472" cy="708.649" r="4" fill="#0" id="circle106"/>
	<circle cx="516.472" cy="743.424" r="4" fill="#0" id="circle107"/>
	<circle cx="521.963" cy="556.738" r="4" fill="#0" id="circle108"/>
	<circle cx="525.624" cy="575.041" r="4" fill="#0" id="circle109"/>
	<circle cx="525.624" cy="598.834" r="4" fill="#0" id="circle110"/>
	<circle cx="525.624" cy="617.137" r="4" fill="#0" id="circle111"/>
	<circle cx="529.284" cy="25.9631" r="4" fill="#0" id="circle112"/>
	<circle cx="529.284" cy="758.066" r="4" fill="#0" id="circle113"/>
	<circle cx="534.775" cy="633.609" r="4" fill="#0" id="circle114"/>
	<circle cx="534.775" cy="651.911" r="4" fill="#0" id="circle115"/>
	<circle cx="534.775" cy="699.498" r="4" fill="#0" id="circle116"/>
	<circle cx="543.926" cy="668.384" r="4" fill="#0" id="circle117"/>
	<circle cx="547.587" cy="18.6421" r="4" fill="#0" id="circle118"/>
	<circle cx="547.587" cy="759.897" r="4" fill="#0" id="circle119"/>
	<circle cx="562.229" cy="7.66052" r="4" fill="#0" id="circle120"/>
	<circle cx="565.889" cy="759.897" r="4" fill="#0" id="circle121"/>
	<circle cx="580.531" cy="7.66052" r="4" fill="#0" id="circle122"/>
	<circle cx="584.192" cy="759.897" r="4" fill="#0" id="circle123"/>
	<circle cx="598.834" cy="7.66052" r="4" fill="#0" id="circle124"/>
	<circle cx="602.494" cy="759.897" r="4" fill="#0" id="circle125"/>
	<circle cx="617.137" cy="4" r="4" fill="#0" id="circle126"/>
	<circle cx="618.967" cy="750.745" r="4" fill="#0" id="circle127"/>
	<circle cx="633.609" cy="737.934" r="4" fill="#0" id="circle128"/>
	<circle cx="635.439" cy="4" r="4" fill="#0" id="circle129"/>
	<circle cx="637.269" cy="540.266" r="4" fill="#0" id="circle130"/>
	<circle cx="637.269" cy="558.568" r="4" fill="#0" id="circle131"/>
	<circle cx="637.269" cy="576.871" r="4" fill="#0" id="circle132"/>
	<circle cx="637.269" cy="595.173" r="4" fill="#0" id="circle133"/>
	<circle cx="637.269" cy="613.476" r="4" fill="#0" id="circle134"/>
	<circle cx="637.269" cy="631.779" r="4" fill="#0" id="circle135"/>
	<circle cx="637.269" cy="650.081" r="4" fill="#0" id="circle136"/>
	<circle cx="637.269" cy="668.384" r="4" fill="#0" id="circle137"/>
	<circle cx="637.269" cy="686.686" r="4" fill="#0" id="circle138"/>
	<circle cx="637.269" cy="704.989" r="4" fill="#0" id="circle139"/>
	<circle cx="646.421" cy="503.661" r="4" fill="#0" id="circle140"/>
	<circle cx="646.421" cy="521.963" r="4" fill="#0" id="circle141"/>
	<circle cx="653.742" cy="4" r="4" fill="#0" id="circle142"/>
	<circle cx="653.742" cy="659.232" r="4" fill="#0" id="circle143"/>
	<circle cx="659.232" cy="677.535" r="4" fill="#0" id="circle144"/>
	<circle cx="662.893" cy="626.288" r="4" fill="#0" id="circle145"/>
	<circle cx="664.723" cy="503.661" r="4" fill="#0" id="circle146"/>
	<circle cx="672.044" cy="7.66052" r="4" fill="#0" id="circle147"/>
	<circle cx="672.044" cy="521.963" r="4" fill="#0" id="circle148"/>
	<circle cx="672.044" cy="598.834" r="4" fill="#0" id="circle149"/>
	<circle cx="675.705" cy="686.686" r="4" fill="#0" id="circle150"/>
	<circle cx="681.196" cy="538.435" r="4" fill="#0" id="circle151"/>
	<circle cx="681.196" cy="556.738" r="4" fill="#0" id="circle152"/>
	<circle cx="681.196" cy="575.041" r="4" fill="#0" id="circle153"/>
	<circle cx="690.347" cy="7.66052" r="4" fill="#0" id="circle154"/>
	<circle cx="694.007" cy="686.686" r="4" fill="#0" id="circle155"/>
	<circle cx="708.649" cy="11.321" r="4" fill="#0" id="circle156"/>
	<circle cx="712.31" cy="686.686" r="4" fill="#0" id="circle157"/>
	<circle cx="725.122" cy="20.4723" r="4" fill="#0" id="circle158"/>
	<circle cx="728.782" cy="677.535" r="4" fill="#0" id="circle159"/>
	<circle cx="743.424" cy="27.7934" r="4" fill="#0" id="circle160"/>
	<circle cx="747.085" cy="668.384" r="4" fill="#0" id="circle161"/>
	<circle cx="756.236" cy="640.93" r="4" fill="#0" id="circle162"/>
	<circle cx="759.897" cy="36.9446" r="4" fill="#0" id="circle163"/>
	<circle cx="765.387" cy="576.871" r="4" fill="#0" id="circle164"/>
	<circle cx="765.387" cy="595.173" r="4" fill="#0" id="circle165"/>
	<circle cx="765.387" cy="613.476" r="4" fill="#0" id="circle166"/>
	<circle cx="774.539" cy="549.417" r="4" fill="#0" id="circle167"/>
	<circle cx="778.199" cy="44.2657" r="4" fill="#0" id="circle168"/>
	<circle cx="783.69" cy="531.114" r="4" fill="#0" id="circle169"/>
	<circle cx="794.672" cy="53.417" r="4" fill="#0" id="circle170"/>
	<circle cx="800.162" cy="540.266" r="4" fill="#0" id="circle171"/>
	<circle cx="800.162" cy="681.196" r="4" fill="#0" id="circle172"/>
	<circle cx="805.653" cy="558.568" r="4" fill="#0" id="circle173"/>
	<circle cx="809.314" cy="66.2288" r="4" fill="#0" id="circle174"/>
	<circle cx="814.804" cy="666.554" r="4" fill="#0" id="circle175"/>
	<circle cx="814.804" cy="694.007" r="4" fill="#0" id="circle176"/>
	<circle cx="818.465" cy="573.21" r="4" fill="#0" id="circle177"/>
	<circle cx="823.956" cy="648.251" r="4" fill="#0" id="circle178"/>
	<circle cx="825.786" cy="75.3801" r="4" fill="#0" id="circle179"/>
	<circle cx="827.616" cy="598.834" r="4" fill="#0" id="circle180"/>
	<circle cx="829.446" cy="704.989" r="4" fill="#0" id="circle181"/>
	<circle cx="836.768" cy="615.306" r="4" fill="#0" id="circle182"/>
	<circle cx="836.768" cy="633.609" r="4" fill="#0" id="circle183"/>
	<circle cx="838.598" cy="90.0221" r="4" fill="#0" id="circle184"/>
	<circle cx="845.919" cy="714.14" r="4" fill="#0" id="circle185"/>
	<circle cx="853.24" cy="101.004" r="4" fill="#0" id="circle186"/>
	<circle cx="862.391" cy="704.989" r="4" fill="#0" id="circle187"/>
	<circle cx="869.712" cy="110.155" r="4" fill="#0" id="circle188"/>
	<circle cx="878.863" cy="126.627" r="4" fill="#0" id="circle189"/>
	<circle cx="878.863" cy="714.14" r="4" fill="#0" id="circle190"/>
	<circle cx="891.675" cy="141.269" r="4" fill="#0" id="circle191"/>
	<circle cx="895.336" cy="704.989" r="4" fill="#0" id="circle192"/>
	<circle cx="902.657" cy="155.911" r="4" fill="#0" id="circle193"/>
	<circle cx="911.808" cy="172.384" r="4" fill="#0" id="circle194"/>
	<circle cx="911.808" cy="503.661" r="4" fill="#0" id="circle195"/>
	<circle cx="911.808" cy="521.963" r="4" fill="#0" id="circle196"/>
	<circle cx="911.808" cy="695.838" r="4" fill="#0" id="circle197"/>
	<circle cx="915.469" cy="540.266" r="4" fill="#0" id="circle198"/>
	<circle cx="920.959" cy="188.856" r="4" fill="#0" id="circle199"/>
	<circle cx="920.959" cy="467.055" r="4" fill="#0" id="circle200"/>
	<circle cx="920.959" cy="485.358" r="4" fill="#0" id="circle201"/>
	<circle cx="920.959" cy="558.568" r="4" fill="#0" id="circle202"/>
	<circle cx="920.959" cy="576.871" r="4" fill="#0" id="circle203"/>
	<circle cx="930.111" cy="205.328" r="4" fill="#0" id="circle204"/>
	<circle cx="930.111" cy="421.299" r="4" fill="#0" id="circle205"/>
	<circle cx="930.111" cy="439.601" r="4" fill="#0" id="circle206"/>
	<circle cx="930.111" cy="593.343" r="4" fill="#0" id="circle207"/>
	<circle cx="930.111" cy="677.535" r="4" fill="#0" id="circle208"/>
	<circle cx="937.432" cy="223.631" r="4" fill="#0" id="circle209"/>
	<circle cx="939.262" cy="320.635" r="4" fill="#0" id="circle210"/>
	<circle cx="939.262" cy="338.937" r="4" fill="#0" id="circle211"/>
	<circle cx="939.262" cy="357.24" r="4" fill="#0" id="circle212"/>
	<circle cx="939.262" cy="375.542" r="4" fill="#0" id="circle213"/>
	<circle cx="939.262" cy="393.845" r="4" fill="#0" id="circle214"/>
	<circle cx="939.262" cy="609.816" r="4" fill="#0" id="circle215"/>
	<circle cx="939.262" cy="628.118" r="4" fill="#0" id="circle216"/>
	<circle cx="939.262" cy="646.421" r="4" fill="#0" id="circle217"/>
	<circle cx="946.583" cy="240.103" r="4" fill="#0" id="circle218"/>
	<circle cx="953.904" cy="258.406" r="4" fill="#0" id="circle219"/>
	<circle cx="955.734" cy="329.786" r="4" fill="#0" id="circle220"/>
	<circle cx="955.734" cy="348.089" r="4" fill="#0" id="circle221"/>
	<circle cx="955.734" cy="366.391" r="4" fill="#0" id="circle222"/>
	<circle cx="955.734" cy="384.694" r="4" fill="#0" id="circle223"/>
	<circle cx="955.734" cy="406.657" r="4" fill="#0" id="circle224"/>
	<circle cx="963.055" cy="274.878" r="4" fill="#0" id="circle225"/>
	<circle cx="964.886" cy="423.129" r="4" fill="#0" id="circle226"/>
	<circle cx="966.716" cy="302.332" r="4" fill="#0" id="circle227"/>
	<circle cx="974.037" cy="439.601" r="4" fill="#0" id="circle228"/>
	<circle cx="975.867" cy="318.804" r="4" fill="#0" id="circle229"/>
	<circle cx="975.867" cy="338.937" r="4" fill="#0" id="circle230"/>
	<circle cx="975.867" cy="357.24" r="4" fill="#0" id="circle231"/>
	<circle cx="975.867" cy="402.996" r="4" fill="#0" id="circle232"/>
	<circle cx="979.528" cy="457.904" r="4" fill="#0" id="circle233"/>
	<circle cx="985.018" cy="373.712" r="4" fill="#0" id="circle234"/>
	<circle cx="985.018" cy="419.469" r="4" fill="#0" id="circle235"/>
	<circle cx="992.339" cy="441.432" r="4" fill="#0" id="circle236"/>
	<circle cx="996" cy="467.055" r="4" fill="#0" id="circle237"/>
	</g>
</svg>