<?xml version="1.0" encoding="UTF-8" standalone="no"?>
<!-- Created with CurveBenchmark -->
<svg
	xmlns:dc="http://purl.org/dc/elements/1.1/"
	xmlns:cc="http://creativecommons.org/ns#"
	xmlns:rdf="http://www.w3.org/1999/02/22-rdf-syntax-ns#"
	xmlns:svg="http://www.w3.org/2000/svg"
	xmlns="http://www.w3.org/2000/svg"
	xmlns:sodipodi="http://sodipodi.sourceforge.net/DTD/sodipodi-0.dtd"
	xmlns:inkscape="http://www.inkscape.org/namespaces/inkscape"
	width="1000"
	height="1000"
	id="svg2"
	version="1.1"
	sodipodi:docname="manifold/stretchdenoise-hand2occ4.png.txt">
<defs
	id="defs4" />
<metadata
	id="metadata7">
	<rdf:RDF>
		<cc:Work
			rdf:about="">
			<dc:format>image/svg+xml</dc:format>
			<dc:type
				rdf:resource="http://purl.org/dc/dcmitype/StillImage" />
			<dc:title></dc:title>
		</cc:Work>
	</rdf:RDF>
</metadata>
<g
	inkscape:label="Layer 1"
	inkscape:groupmode="layer"
	id="layer1">
	<path style="fill:none;stroke:red;stroke-width:1px;stroke-linecap:butt;stroke-linejoin:miter;stroke-opacity:1" d="M 4,630 4,650 z" id="boundary" inkscape:connector-curvature="0" />
	<path style="fill:none;stroke:red;stroke-width:1px;stroke-linecap:butt;stroke-linejoin:miter;stroke-opacity:1" d="M 4,630 14,600 z" id="boundary" inkscape:connector-curvature="0" />
	<path style="fill:none;stroke:red;stroke-width:1px;stroke-linecap:butt;stroke-linejoin:miter;stroke-opacity:1" d="M 4,650 16,666 z" id="boundary" inkscape:connector-curvature="0" />
	<path style="fill:none;stroke:red;stroke-width:1px;stroke-linecap:butt;stroke-linejoin:miter;stroke-opacity:1" d="M 14,560 14,580 z" id="boundary" inkscape:connector-curvature="0" />
	<path style="fill:none;stroke:red;stroke-width:1px;stroke-linecap:butt;stroke-linejoin:miter;stroke-opacity:1" d="M 14,560 34,554 z" id="boundary" inkscape:connector-curvature="0" />
	<path style="fill:none;stroke:red;stroke-width:1px;stroke-linecap:butt;stroke-linejoin:miter;stroke-opacity:1" d="M 14,580 14,600 z" id="boundary" inkscape:connector-curvature="0" />
	<path style="fill:none;stroke:red;stroke-width:1px;stroke-linecap:butt;stroke-linejoin:miter;stroke-opacity:1" d="M 16,666 36,666 z" id="boundary" inkscape:connector-curvature="0" />
	<path style="fill:none;stroke:red;stroke-width:1px;stroke-linecap:butt;stroke-linejoin:miter;stroke-opacity:1" d="M 39.5584,349.772 44,330 z" id="boundary" inkscape:connector-curvature="0" />
	<path style="fill:none;stroke:red;stroke-width:1px;stroke-linecap:butt;stroke-linejoin:miter;stroke-opacity:1" d="M 39.5584,349.772 54.9838,385.63 z" id="boundary" inkscape:connector-curvature="0" />
	<path style="fill:none;stroke:red;stroke-width:1px;stroke-linecap:butt;stroke-linejoin:miter;stroke-opacity:1" d="M 34,554 54,558 z" id="boundary" inkscape:connector-curvature="0" />
	<path style="fill:none;stroke:red;stroke-width:1px;stroke-linecap:butt;stroke-linejoin:miter;stroke-opacity:1" d="M 36,666 56,670 z" id="boundary" inkscape:connector-curvature="0" />
	<path style="fill:none;stroke:red;stroke-width:1px;stroke-linecap:butt;stroke-linejoin:miter;stroke-opacity:1" d="M 44,330 60,314 z" id="boundary" inkscape:connector-curvature="0" />
	<path style="fill:none;stroke:red;stroke-width:1px;stroke-linecap:butt;stroke-linejoin:miter;stroke-opacity:1" d="M 54,558 73.7989,565.5 z" id="boundary" inkscape:connector-curvature="0" />
	<path style="fill:none;stroke:red;stroke-width:1px;stroke-linecap:butt;stroke-linejoin:miter;stroke-opacity:1" d="M 56,670 76,676 z" id="boundary" inkscape:connector-curvature="0" />
	<path style="fill:none;stroke:red;stroke-width:1px;stroke-linecap:butt;stroke-linejoin:miter;stroke-opacity:1" d="M 54.9838,385.63 62.6118,404.763 z" id="boundary" inkscape:connector-curvature="0" />
	<path style="fill:none;stroke:red;stroke-width:1px;stroke-linecap:butt;stroke-linejoin:miter;stroke-opacity:1" d="M 60,314 79.1601,318.009 z" id="boundary" inkscape:connector-curvature="0" />
	<path style="fill:none;stroke:red;stroke-width:1px;stroke-linecap:butt;stroke-linejoin:miter;stroke-opacity:1" d="M 62.6118,404.763 87.4508,437.414 z" id="boundary" inkscape:connector-curvature="0" />
	<path style="fill:none;stroke:red;stroke-width:1px;stroke-linecap:butt;stroke-linejoin:miter;stroke-opacity:1" d="M 73.7989,565.5 93.8347,573.433 z" id="boundary" inkscape:connector-curvature="0" />
	<path style="fill:none;stroke:red;stroke-width:1px;stroke-linecap:butt;stroke-linejoin:miter;stroke-opacity:1" d="M 76,676 96,676 z" id="boundary" inkscape:connector-curvature="0" />
	<path style="fill:none;stroke:red;stroke-width:1px;stroke-linecap:butt;stroke-linejoin:miter;stroke-opacity:1" d="M 79.1601,318.009 102.288,310.494 z" id="boundary" inkscape:connector-curvature="0" />
	<path style="fill:none;stroke:red;stroke-width:1px;stroke-linecap:butt;stroke-linejoin:miter;stroke-opacity:1" d="M 87.4508,437.414 119.296,487.393 z" id="boundary" inkscape:connector-curvature="0" />
	<path style="fill:none;stroke:red;stroke-width:1px;stroke-linecap:butt;stroke-linejoin:miter;stroke-opacity:1" d="M 93.8347,573.433 135.257,565.608 z" id="boundary" inkscape:connector-curvature="0" />
	<path style="fill:none;stroke:red;stroke-width:1px;stroke-linecap:butt;stroke-linejoin:miter;stroke-opacity:1" d="M 96,676 116,676 z" id="boundary" inkscape:connector-curvature="0" />
	<path style="fill:none;stroke:red;stroke-width:1px;stroke-linecap:butt;stroke-linejoin:miter;stroke-opacity:1" d="M 102.288,310.494 132.902,313.403 z" id="boundary" inkscape:connector-curvature="0" />
	<path style="fill:none;stroke:red;stroke-width:1px;stroke-linecap:butt;stroke-linejoin:miter;stroke-opacity:1" d="M 104,160 114,140 z" id="boundary" inkscape:connector-curvature="0" />
	<path style="fill:none;stroke:red;stroke-width:1px;stroke-linecap:butt;stroke-linejoin:miter;stroke-opacity:1" d="M 104,160 114,178 z" id="boundary" inkscape:connector-curvature="0" />
	<path style="fill:none;stroke:red;stroke-width:1px;stroke-linecap:butt;stroke-linejoin:miter;stroke-opacity:1" d="M 114,140 130,124 z" id="boundary" inkscape:connector-curvature="0" />
	<path style="fill:none;stroke:red;stroke-width:1px;stroke-linecap:butt;stroke-linejoin:miter;stroke-opacity:1" d="M 114,178 114,198 z" id="boundary" inkscape:connector-curvature="0" />
	<path style="fill:none;stroke:red;stroke-width:1px;stroke-linecap:butt;stroke-linejoin:miter;stroke-opacity:1" d="M 114,198 114,218 z" id="boundary" inkscape:connector-curvature="0" />
	<path style="fill:none;stroke:red;stroke-width:1px;stroke-linecap:butt;stroke-linejoin:miter;stroke-opacity:1" d="M 114,218 128,234 z" id="boundary" inkscape:connector-curvature="0" />
	<path style="fill:none;stroke:red;stroke-width:1px;stroke-linecap:butt;stroke-linejoin:miter;stroke-opacity:1" d="M 119.296,487.393 140.768,522.922 z" id="boundary" inkscape:connector-curvature="0" />
	<path style="fill:none;stroke:red;stroke-width:1px;stroke-linecap:butt;stroke-linejoin:miter;stroke-opacity:1" d="M 116,676 136,676 z" id="boundary" inkscape:connector-curvature="0" />
	<path style="fill:none;stroke:red;stroke-width:1px;stroke-linecap:butt;stroke-linejoin:miter;stroke-opacity:1" d="M 128,234 138,252 z" id="boundary" inkscape:connector-curvature="0" />
	<path style="fill:none;stroke:red;stroke-width:1px;stroke-linecap:butt;stroke-linejoin:miter;stroke-opacity:1" d="M 130,124 148,114 z" id="boundary" inkscape:connector-curvature="0" />
	<path style="fill:none;stroke:red;stroke-width:1px;stroke-linecap:butt;stroke-linejoin:miter;stroke-opacity:1" d="M 140.768,522.922 143.213,541.888 z" id="boundary" inkscape:connector-curvature="0" />
	<path style="fill:none;stroke:red;stroke-width:1px;stroke-linecap:butt;stroke-linejoin:miter;stroke-opacity:1" d="M 135.257,565.608 143.213,541.888 z" id="boundary" inkscape:connector-curvature="0" />
	<path style="fill:none;stroke:red;stroke-width:1px;stroke-linecap:butt;stroke-linejoin:miter;stroke-opacity:1" d="M 136,676 156,676 z" id="boundary" inkscape:connector-curvature="0" />
	<path style="fill:none;stroke:red;stroke-width:1px;stroke-linecap:butt;stroke-linejoin:miter;stroke-opacity:1" d="M 138,252 154,266 z" id="boundary" inkscape:connector-curvature="0" />
	<path style="fill:none;stroke:red;stroke-width:1px;stroke-linecap:butt;stroke-linejoin:miter;stroke-opacity:1" d="M 148,114 166,124 z" id="boundary" inkscape:connector-curvature="0" />
	<path style="fill:none;stroke:red;stroke-width:1px;stroke-linecap:butt;stroke-linejoin:miter;stroke-opacity:1" d="M 154,266 170,304 z" id="boundary" inkscape:connector-curvature="0" />
	<path style="fill:none;stroke:red;stroke-width:1px;stroke-linecap:butt;stroke-linejoin:miter;stroke-opacity:1" d="M 156,676 176,676 z" id="boundary" inkscape:connector-curvature="0" />
	<path style="fill:none;stroke:red;stroke-width:1px;stroke-linecap:butt;stroke-linejoin:miter;stroke-opacity:1" d="M 166,124 186,130 z" id="boundary" inkscape:connector-curvature="0" />
	<path style="fill:none;stroke:red;stroke-width:1px;stroke-linecap:butt;stroke-linejoin:miter;stroke-opacity:1" d="M 176,676 196,680 z" id="boundary" inkscape:connector-curvature="0" />
	<path style="fill:none;stroke:red;stroke-width:1px;stroke-linecap:butt;stroke-linejoin:miter;stroke-opacity:1" d="M 186,130 200,146 z" id="boundary" inkscape:connector-curvature="0" />
	<path style="fill:none;stroke:red;stroke-width:1px;stroke-linecap:butt;stroke-linejoin:miter;stroke-opacity:1" d="M 196,680 216,686 z" id="boundary" inkscape:connector-curvature="0" />
	<path style="fill:none;stroke:red;stroke-width:1px;stroke-linecap:butt;stroke-linejoin:miter;stroke-opacity:1" d="M 200,146 210,164 z" id="boundary" inkscape:connector-curvature="0" />
	<path style="fill:none;stroke:red;stroke-width:1px;stroke-linecap:butt;stroke-linejoin:miter;stroke-opacity:1" d="M 210,164 216,184 z" id="boundary" inkscape:connector-curvature="0" />
	<path style="fill:none;stroke:red;stroke-width:1px;stroke-linecap:butt;stroke-linejoin:miter;stroke-opacity:1" d="M 216,184 216,204 z" id="boundary" inkscape:connector-curvature="0" />
	<path style="fill:none;stroke:red;stroke-width:1px;stroke-linecap:butt;stroke-linejoin:miter;stroke-opacity:1" d="M 216,204 236,240 z" id="boundary" inkscape:connector-curvature="0" />
	<path style="fill:none;stroke:red;stroke-width:1px;stroke-linecap:butt;stroke-linejoin:miter;stroke-opacity:1" d="M 216,686 234,696 z" id="boundary" inkscape:connector-curvature="0" />
	<path style="fill:none;stroke:red;stroke-width:1px;stroke-linecap:butt;stroke-linejoin:miter;stroke-opacity:1" d="M 234,696 240,716 z" id="boundary" inkscape:connector-curvature="0" />
	<path style="fill:none;stroke:red;stroke-width:1px;stroke-linecap:butt;stroke-linejoin:miter;stroke-opacity:1" d="M 240,716 250,734 z" id="boundary" inkscape:connector-curvature="0" />
	<path style="fill:none;stroke:red;stroke-width:1px;stroke-linecap:butt;stroke-linejoin:miter;stroke-opacity:1" d="M 250,734 258,754 z" id="boundary" inkscape:connector-curvature="0" />
	<path style="fill:none;stroke:red;stroke-width:1px;stroke-linecap:butt;stroke-linejoin:miter;stroke-opacity:1" d="M 254,30 254,50 z" id="boundary" inkscape:connector-curvature="0" />
	<path style="fill:none;stroke:red;stroke-width:1px;stroke-linecap:butt;stroke-linejoin:miter;stroke-opacity:1" d="M 254,30 270,14 z" id="boundary" inkscape:connector-curvature="0" />
	<path style="fill:none;stroke:red;stroke-width:1px;stroke-linecap:butt;stroke-linejoin:miter;stroke-opacity:1" d="M 254,50 254,70 z" id="boundary" inkscape:connector-curvature="0" />
	<path style="fill:none;stroke:red;stroke-width:1px;stroke-linecap:butt;stroke-linejoin:miter;stroke-opacity:1" d="M 254,70 264,88 z" id="boundary" inkscape:connector-curvature="0" />
	<path style="fill:none;stroke:red;stroke-width:1px;stroke-linecap:butt;stroke-linejoin:miter;stroke-opacity:1" d="M 258,754 264,774 z" id="boundary" inkscape:connector-curvature="0" />
	<path style="fill:none;stroke:red;stroke-width:1px;stroke-linecap:butt;stroke-linejoin:miter;stroke-opacity:1" d="M 264,88 274,106 z" id="boundary" inkscape:connector-curvature="0" />
	<path style="fill:none;stroke:red;stroke-width:1px;stroke-linecap:butt;stroke-linejoin:miter;stroke-opacity:1" d="M 264,774 264,794 z" id="boundary" inkscape:connector-curvature="0" />
	<path style="fill:none;stroke:red;stroke-width:1px;stroke-linecap:butt;stroke-linejoin:miter;stroke-opacity:1" d="M 264,794 274,812 z" id="boundary" inkscape:connector-curvature="0" />
	<path style="fill:none;stroke:red;stroke-width:1px;stroke-linecap:butt;stroke-linejoin:miter;stroke-opacity:1" d="M 270,14 288,4 z" id="boundary" inkscape:connector-curvature="0" />
	<path style="fill:none;stroke:red;stroke-width:1px;stroke-linecap:butt;stroke-linejoin:miter;stroke-opacity:1" d="M 274,106 280,126 z" id="boundary" inkscape:connector-curvature="0" />
	<path style="fill:none;stroke:red;stroke-width:1px;stroke-linecap:butt;stroke-linejoin:miter;stroke-opacity:1" d="M 274,812 276,832 z" id="boundary" inkscape:connector-curvature="0" />
	<path style="fill:none;stroke:red;stroke-width:1px;stroke-linecap:butt;stroke-linejoin:miter;stroke-opacity:1" d="M 276,832 286,850 z" id="boundary" inkscape:connector-curvature="0" />
	<path style="fill:none;stroke:red;stroke-width:1px;stroke-linecap:butt;stroke-linejoin:miter;stroke-opacity:1" d="M 280,126 290,144 z" id="boundary" inkscape:connector-curvature="0" />
	<path style="fill:none;stroke:red;stroke-width:1px;stroke-linecap:butt;stroke-linejoin:miter;stroke-opacity:1" d="M 286,850 294,870 z" id="boundary" inkscape:connector-curvature="0" />
	<path style="fill:none;stroke:red;stroke-width:1px;stroke-linecap:butt;stroke-linejoin:miter;stroke-opacity:1" d="M 288,4 308,4 z" id="boundary" inkscape:connector-curvature="0" />
	<path style="fill:none;stroke:red;stroke-width:1px;stroke-linecap:butt;stroke-linejoin:miter;stroke-opacity:1" d="M 290,144 294,164 z" id="boundary" inkscape:connector-curvature="0" />
	<path style="fill:none;stroke:red;stroke-width:1px;stroke-linecap:butt;stroke-linejoin:miter;stroke-opacity:1" d="M 294,164 304,182 z" id="boundary" inkscape:connector-curvature="0" />
	<path style="fill:none;stroke:red;stroke-width:1px;stroke-linecap:butt;stroke-linejoin:miter;stroke-opacity:1" d="M 294,870 304,888 z" id="boundary" inkscape:connector-curvature="0" />
	<path style="fill:none;stroke:red;stroke-width:1px;stroke-linecap:butt;stroke-linejoin:miter;stroke-opacity:1" d="M 304,182 304,210 z" id="boundary" inkscape:connector-curvature="0" />
	<path style="fill:none;stroke:red;stroke-width:1px;stroke-linecap:butt;stroke-linejoin:miter;stroke-opacity:1" d="M 304,888 318,904 z" id="boundary" inkscape:connector-curvature="0" />
	<path style="fill:none;stroke:red;stroke-width:1px;stroke-linecap:butt;stroke-linejoin:miter;stroke-opacity:1" d="M 308,4 326,14 z" id="boundary" inkscape:connector-curvature="0" />
	<path style="fill:none;stroke:red;stroke-width:1px;stroke-linecap:butt;stroke-linejoin:miter;stroke-opacity:1" d="M 318,904 328,922 z" id="boundary" inkscape:connector-curvature="0" />
	<path style="fill:none;stroke:red;stroke-width:1px;stroke-linecap:butt;stroke-linejoin:miter;stroke-opacity:1" d="M 326,14 342,26 z" id="boundary" inkscape:connector-curvature="0" />
	<path style="fill:none;stroke:red;stroke-width:1px;stroke-linecap:butt;stroke-linejoin:miter;stroke-opacity:1" d="M 328,922 336,942 z" id="boundary" inkscape:connector-curvature="0" />
	<path style="fill:none;stroke:red;stroke-width:1px;stroke-linecap:butt;stroke-linejoin:miter;stroke-opacity:1" d="M 336,942 352,956 z" id="boundary" inkscape:connector-curvature="0" />
	<path style="fill:none;stroke:red;stroke-width:1px;stroke-linecap:butt;stroke-linejoin:miter;stroke-opacity:1" d="M 342,26 356,42 z" id="boundary" inkscape:connector-curvature="0" />
	<path style="fill:none;stroke:red;stroke-width:1px;stroke-linecap:butt;stroke-linejoin:miter;stroke-opacity:1" d="M 352,956 370,966 z" id="boundary" inkscape:connector-curvature="0" />
	<path style="fill:none;stroke:red;stroke-width:1px;stroke-linecap:butt;stroke-linejoin:miter;stroke-opacity:1" d="M 356,42 366,60 z" id="boundary" inkscape:connector-curvature="0" />
	<path style="fill:none;stroke:red;stroke-width:1px;stroke-linecap:butt;stroke-linejoin:miter;stroke-opacity:1" d="M 366,60 374,80 z" id="boundary" inkscape:connector-curvature="0" />
	<path style="fill:none;stroke:red;stroke-width:1px;stroke-linecap:butt;stroke-linejoin:miter;stroke-opacity:1" d="M 370,966 388,976 z" id="boundary" inkscape:connector-curvature="0" />
	<path style="fill:none;stroke:red;stroke-width:1px;stroke-linecap:butt;stroke-linejoin:miter;stroke-opacity:1" d="M 374,80 376,100 z" id="boundary" inkscape:connector-curvature="0" />
	<path style="fill:none;stroke:red;stroke-width:1px;stroke-linecap:butt;stroke-linejoin:miter;stroke-opacity:1" d="M 376,100 386,118 z" id="boundary" inkscape:connector-curvature="0" />
	<path style="fill:none;stroke:red;stroke-width:1px;stroke-linecap:butt;stroke-linejoin:miter;stroke-opacity:1" d="M 386,118 392,138 z" id="boundary" inkscape:connector-curvature="0" />
	<path style="fill:none;stroke:red;stroke-width:1px;stroke-linecap:butt;stroke-linejoin:miter;stroke-opacity:1" d="M 388,976 406,966 z" id="boundary" inkscape:connector-curvature="0" />
	<path style="fill:none;stroke:red;stroke-width:1px;stroke-linecap:butt;stroke-linejoin:miter;stroke-opacity:1" d="M 392,138 402,156 z" id="boundary" inkscape:connector-curvature="0" />
	<path style="fill:none;stroke:red;stroke-width:1px;stroke-linecap:butt;stroke-linejoin:miter;stroke-opacity:1" d="M 402,156 416,196 z" id="boundary" inkscape:connector-curvature="0" />
	<path style="fill:none;stroke:red;stroke-width:1px;stroke-linecap:butt;stroke-linejoin:miter;stroke-opacity:1" d="M 406,966 426,966 z" id="boundary" inkscape:connector-curvature="0" />
	<path style="fill:none;stroke:red;stroke-width:1px;stroke-linecap:butt;stroke-linejoin:miter;stroke-opacity:1" d="M 416,196 464,146 z" id="boundary" inkscape:connector-curvature="0" />
	<path style="fill:none;stroke:red;stroke-width:1px;stroke-linecap:butt;stroke-linejoin:miter;stroke-opacity:1" d="M 426,966 446,966 z" id="boundary" inkscape:connector-curvature="0" />
	<path style="fill:none;stroke:red;stroke-width:1px;stroke-linecap:butt;stroke-linejoin:miter;stroke-opacity:1" d="M 444,30 444,50 z" id="boundary" inkscape:connector-curvature="0" />
	<path style="fill:none;stroke:red;stroke-width:1px;stroke-linecap:butt;stroke-linejoin:miter;stroke-opacity:1" d="M 444,30 454,10 z" id="boundary" inkscape:connector-curvature="0" />
	<path style="fill:none;stroke:red;stroke-width:1px;stroke-linecap:butt;stroke-linejoin:miter;stroke-opacity:1" d="M 444,50 444,70 z" id="boundary" inkscape:connector-curvature="0" />
	<path style="fill:none;stroke:red;stroke-width:1px;stroke-linecap:butt;stroke-linejoin:miter;stroke-opacity:1" d="M 444,70 444,90 z" id="boundary" inkscape:connector-curvature="0" />
	<path style="fill:none;stroke:red;stroke-width:1px;stroke-linecap:butt;stroke-linejoin:miter;stroke-opacity:1" d="M 444,90 454,108 z" id="boundary" inkscape:connector-curvature="0" />
	<path style="fill:none;stroke:red;stroke-width:1px;stroke-linecap:butt;stroke-linejoin:miter;stroke-opacity:1" d="M 446,966 466,966 z" id="boundary" inkscape:connector-curvature="0" />
	<path style="fill:none;stroke:red;stroke-width:1px;stroke-linecap:butt;stroke-linejoin:miter;stroke-opacity:1" d="M 454,10 474,4 z" id="boundary" inkscape:connector-curvature="0" />
	<path style="fill:none;stroke:red;stroke-width:1px;stroke-linecap:butt;stroke-linejoin:miter;stroke-opacity:1" d="M 454,108 464,126 z" id="boundary" inkscape:connector-curvature="0" />
	<path style="fill:none;stroke:red;stroke-width:1px;stroke-linecap:butt;stroke-linejoin:miter;stroke-opacity:1" d="M 464,126 464,146 z" id="boundary" inkscape:connector-curvature="0" />
	<path style="fill:none;stroke:red;stroke-width:1px;stroke-linecap:butt;stroke-linejoin:miter;stroke-opacity:1" d="M 466,966 484,976 z" id="boundary" inkscape:connector-curvature="0" />
	<path style="fill:none;stroke:red;stroke-width:1px;stroke-linecap:butt;stroke-linejoin:miter;stroke-opacity:1" d="M 474,4 494,4 z" id="boundary" inkscape:connector-curvature="0" />
	<path style="fill:none;stroke:red;stroke-width:1px;stroke-linecap:butt;stroke-linejoin:miter;stroke-opacity:1" d="M 484,976 504,976 z" id="boundary" inkscape:connector-curvature="0" />
	<path style="fill:none;stroke:red;stroke-width:1px;stroke-linecap:butt;stroke-linejoin:miter;stroke-opacity:1" d="M 494,4 506,20 z" id="boundary" inkscape:connector-curvature="0" />
	<path style="fill:none;stroke:red;stroke-width:1px;stroke-linecap:butt;stroke-linejoin:miter;stroke-opacity:1" d="M 504,976 524,976 z" id="boundary" inkscape:connector-curvature="0" />
	<path style="fill:none;stroke:red;stroke-width:1px;stroke-linecap:butt;stroke-linejoin:miter;stroke-opacity:1" d="M 506,20 524,30 z" id="boundary" inkscape:connector-curvature="0" />
	<path style="fill:none;stroke:red;stroke-width:1px;stroke-linecap:butt;stroke-linejoin:miter;stroke-opacity:1" d="M 524,30 536,46 z" id="boundary" inkscape:connector-curvature="0" />
	<path style="fill:none;stroke:red;stroke-width:1px;stroke-linecap:butt;stroke-linejoin:miter;stroke-opacity:1" d="M 524,976 544,976 z" id="boundary" inkscape:connector-curvature="0" />
	<path style="fill:none;stroke:red;stroke-width:1px;stroke-linecap:butt;stroke-linejoin:miter;stroke-opacity:1" d="M 536,46 546,64 z" id="boundary" inkscape:connector-curvature="0" />
	<path style="fill:none;stroke:red;stroke-width:1px;stroke-linecap:butt;stroke-linejoin:miter;stroke-opacity:1" d="M 544,976 562,966 z" id="boundary" inkscape:connector-curvature="0" />
	<path style="fill:none;stroke:red;stroke-width:1px;stroke-linecap:butt;stroke-linejoin:miter;stroke-opacity:1" d="M 546,64 556,82 z" id="boundary" inkscape:connector-curvature="0" />
	<path style="fill:none;stroke:red;stroke-width:1px;stroke-linecap:butt;stroke-linejoin:miter;stroke-opacity:1" d="M 556,82 566,100 z" id="boundary" inkscape:connector-curvature="0" />
	<path style="fill:none;stroke:red;stroke-width:1px;stroke-linecap:butt;stroke-linejoin:miter;stroke-opacity:1" d="M 562,966 582,966 z" id="boundary" inkscape:connector-curvature="0" />
	<path style="fill:none;stroke:red;stroke-width:1px;stroke-linecap:butt;stroke-linejoin:miter;stroke-opacity:1" d="M 566,100 566,120 z" id="boundary" inkscape:connector-curvature="0" />
	<path style="fill:none;stroke:red;stroke-width:1px;stroke-linecap:butt;stroke-linejoin:miter;stroke-opacity:1" d="M 566,120 574,140 z" id="boundary" inkscape:connector-curvature="0" />
	<path style="fill:none;stroke:red;stroke-width:1px;stroke-linecap:butt;stroke-linejoin:miter;stroke-opacity:1" d="M 574,140 576,160 z" id="boundary" inkscape:connector-curvature="0" />
	<path style="fill:none;stroke:red;stroke-width:1px;stroke-linecap:butt;stroke-linejoin:miter;stroke-opacity:1" d="M 576,160 586,178 z" id="boundary" inkscape:connector-curvature="0" />
	<path style="fill:none;stroke:red;stroke-width:1px;stroke-linecap:butt;stroke-linejoin:miter;stroke-opacity:1" d="M 582,966 602,966 z" id="boundary" inkscape:connector-curvature="0" />
	<path style="fill:none;stroke:red;stroke-width:1px;stroke-linecap:butt;stroke-linejoin:miter;stroke-opacity:1" d="M 586,178 596,196 z" id="boundary" inkscape:connector-curvature="0" />
	<path style="fill:none;stroke:red;stroke-width:1px;stroke-linecap:butt;stroke-linejoin:miter;stroke-opacity:1" d="M 586,216 596,196 z" id="boundary" inkscape:connector-curvature="0" />
	<path style="fill:none;stroke:red;stroke-width:1px;stroke-linecap:butt;stroke-linejoin:miter;stroke-opacity:1" d="M 586,216 596,234 z" id="boundary" inkscape:connector-curvature="0" />
	<path style="fill:none;stroke:red;stroke-width:1px;stroke-linecap:butt;stroke-linejoin:miter;stroke-opacity:1" d="M 596,234 606,292 z" id="boundary" inkscape:connector-curvature="0" />
	<path style="fill:none;stroke:red;stroke-width:1px;stroke-linecap:butt;stroke-linejoin:miter;stroke-opacity:1" d="M 602,966 620,976 z" id="boundary" inkscape:connector-curvature="0" />
	<path style="fill:none;stroke:red;stroke-width:1px;stroke-linecap:butt;stroke-linejoin:miter;stroke-opacity:1" d="M 606,292 616,330 z" id="boundary" inkscape:connector-curvature="0" />
	<path style="fill:none;stroke:red;stroke-width:1px;stroke-linecap:butt;stroke-linejoin:miter;stroke-opacity:1" d="M 616,330 626,388 z" id="boundary" inkscape:connector-curvature="0" />
	<path style="fill:none;stroke:red;stroke-width:1px;stroke-linecap:butt;stroke-linejoin:miter;stroke-opacity:1" d="M 620,976 640,976 z" id="boundary" inkscape:connector-curvature="0" />
	<path style="fill:none;stroke:red;stroke-width:1px;stroke-linecap:butt;stroke-linejoin:miter;stroke-opacity:1" d="M 626,388 636,428 z" id="boundary" inkscape:connector-curvature="0" />
	<path style="fill:none;stroke:red;stroke-width:1px;stroke-linecap:butt;stroke-linejoin:miter;stroke-opacity:1" d="M 636,428 654,464 z" id="boundary" inkscape:connector-curvature="0" />
	<path style="fill:none;stroke:red;stroke-width:1px;stroke-linecap:butt;stroke-linejoin:miter;stroke-opacity:1" d="M 640,976 660,976 z" id="boundary" inkscape:connector-curvature="0" />
	<path style="fill:none;stroke:red;stroke-width:1px;stroke-linecap:butt;stroke-linejoin:miter;stroke-opacity:1" d="M 654,464 666,480 z" id="boundary" inkscape:connector-curvature="0" />
	<path style="fill:none;stroke:red;stroke-width:1px;stroke-linecap:butt;stroke-linejoin:miter;stroke-opacity:1" d="M 660,976 680,976 z" id="boundary" inkscape:connector-curvature="0" />
	<path style="fill:none;stroke:red;stroke-width:1px;stroke-linecap:butt;stroke-linejoin:miter;stroke-opacity:1" d="M 666,480 666,506 z" id="boundary" inkscape:connector-curvature="0" />
	<path style="fill:none;stroke:red;stroke-width:1px;stroke-linecap:butt;stroke-linejoin:miter;stroke-opacity:1" d="M 666,506 676,524 z" id="boundary" inkscape:connector-curvature="0" />
	<path style="fill:none;stroke:red;stroke-width:1px;stroke-linecap:butt;stroke-linejoin:miter;stroke-opacity:1" d="M 676,524 686,542 z" id="boundary" inkscape:connector-curvature="0" />
	<path style="fill:none;stroke:red;stroke-width:1px;stroke-linecap:butt;stroke-linejoin:miter;stroke-opacity:1" d="M 680,976 700,976 z" id="boundary" inkscape:connector-curvature="0" />
	<path style="fill:none;stroke:red;stroke-width:1px;stroke-linecap:butt;stroke-linejoin:miter;stroke-opacity:1" d="M 686,542 702,554 z" id="boundary" inkscape:connector-curvature="0" />
	<path style="fill:none;stroke:red;stroke-width:1px;stroke-linecap:butt;stroke-linejoin:miter;stroke-opacity:1" d="M 700,976 718,966 z" id="boundary" inkscape:connector-curvature="0" />
	<path style="fill:none;stroke:red;stroke-width:1px;stroke-linecap:butt;stroke-linejoin:miter;stroke-opacity:1" d="M 702,554 720,564 z" id="boundary" inkscape:connector-curvature="0" />
	<path style="fill:none;stroke:red;stroke-width:1px;stroke-linecap:butt;stroke-linejoin:miter;stroke-opacity:1" d="M 718,966 738,966 z" id="boundary" inkscape:connector-curvature="0" />
	<path style="fill:none;stroke:red;stroke-width:1px;stroke-linecap:butt;stroke-linejoin:miter;stroke-opacity:1" d="M 720,564 738,574 z" id="boundary" inkscape:connector-curvature="0" />
	<path style="fill:none;stroke:red;stroke-width:1px;stroke-linecap:butt;stroke-linejoin:miter;stroke-opacity:1" d="M 738,574 758,574 z" id="boundary" inkscape:connector-curvature="0" />
	<path style="fill:none;stroke:red;stroke-width:1px;stroke-linecap:butt;stroke-linejoin:miter;stroke-opacity:1" d="M 738,966 756,956 z" id="boundary" inkscape:connector-curvature="0" />
	<path style="fill:none;stroke:red;stroke-width:1px;stroke-linecap:butt;stroke-linejoin:miter;stroke-opacity:1" d="M 756,936 756,956 z" id="boundary" inkscape:connector-curvature="0" />
	<path style="fill:none;stroke:red;stroke-width:1px;stroke-linecap:butt;stroke-linejoin:miter;stroke-opacity:1" d="M 756,936 766,916 z" id="boundary" inkscape:connector-curvature="0" />
	<path style="fill:none;stroke:red;stroke-width:1px;stroke-linecap:butt;stroke-linejoin:miter;stroke-opacity:1" d="M 758,574 764,550 z" id="boundary" inkscape:connector-curvature="0" />
	<path style="fill:none;stroke:red;stroke-width:1px;stroke-linecap:butt;stroke-linejoin:miter;stroke-opacity:1" d="M 764,550 780,534 z" id="boundary" inkscape:connector-curvature="0" />
	<path style="fill:none;stroke:red;stroke-width:1px;stroke-linecap:butt;stroke-linejoin:miter;stroke-opacity:1" d="M 766,916 786,906 z" id="boundary" inkscape:connector-curvature="0" />
	<path style="fill:none;stroke:red;stroke-width:1px;stroke-linecap:butt;stroke-linejoin:miter;stroke-opacity:1" d="M 780,534 790,514 z" id="boundary" inkscape:connector-curvature="0" />
	<path style="fill:none;stroke:red;stroke-width:1px;stroke-linecap:butt;stroke-linejoin:miter;stroke-opacity:1" d="M 786,906 802,892 z" id="boundary" inkscape:connector-curvature="0" />
	<path style="fill:none;stroke:red;stroke-width:1px;stroke-linecap:butt;stroke-linejoin:miter;stroke-opacity:1" d="M 790,514 794,480 z" id="boundary" inkscape:connector-curvature="0" />
	<path style="fill:none;stroke:red;stroke-width:1px;stroke-linecap:butt;stroke-linejoin:miter;stroke-opacity:1" d="M 794,480 804,450 z" id="boundary" inkscape:connector-curvature="0" />
	<path style="fill:none;stroke:red;stroke-width:1px;stroke-linecap:butt;stroke-linejoin:miter;stroke-opacity:1" d="M 802,892 806,866 z" id="boundary" inkscape:connector-curvature="0" />
	<path style="fill:none;stroke:red;stroke-width:1px;stroke-linecap:butt;stroke-linejoin:miter;stroke-opacity:1" d="M 804,390 804,410 z" id="boundary" inkscape:connector-curvature="0" />
	<path style="fill:none;stroke:red;stroke-width:1px;stroke-linecap:butt;stroke-linejoin:miter;stroke-opacity:1" d="M 804,390 814,370 z" id="boundary" inkscape:connector-curvature="0" />
	<path style="fill:none;stroke:red;stroke-width:1px;stroke-linecap:butt;stroke-linejoin:miter;stroke-opacity:1" d="M 804,410 804,430 z" id="boundary" inkscape:connector-curvature="0" />
	<path style="fill:none;stroke:red;stroke-width:1px;stroke-linecap:butt;stroke-linejoin:miter;stroke-opacity:1" d="M 804,430 804,450 z" id="boundary" inkscape:connector-curvature="0" />
	<path style="fill:none;stroke:red;stroke-width:1px;stroke-linecap:butt;stroke-linejoin:miter;stroke-opacity:1" d="M 806,866 816,836 z" id="boundary" inkscape:connector-curvature="0" />
	<path style="fill:none;stroke:red;stroke-width:1px;stroke-linecap:butt;stroke-linejoin:miter;stroke-opacity:1" d="M 814,370 834,360 z" id="boundary" inkscape:connector-curvature="0" />
	<path style="fill:none;stroke:red;stroke-width:1px;stroke-linecap:butt;stroke-linejoin:miter;stroke-opacity:1" d="M 816,836 826,816 z" id="boundary" inkscape:connector-curvature="0" />
	<path style="fill:none;stroke:red;stroke-width:1px;stroke-linecap:butt;stroke-linejoin:miter;stroke-opacity:1" d="M 826,796 826,816 z" id="boundary" inkscape:connector-curvature="0" />
	<path style="fill:none;stroke:red;stroke-width:1px;stroke-linecap:butt;stroke-linejoin:miter;stroke-opacity:1" d="M 826,796 846,776 z" id="boundary" inkscape:connector-curvature="0" />
	<path style="fill:none;stroke:red;stroke-width:1px;stroke-linecap:butt;stroke-linejoin:miter;stroke-opacity:1" d="M 834,360 844,340 z" id="boundary" inkscape:connector-curvature="0" />
	<path style="fill:none;stroke:red;stroke-width:1px;stroke-linecap:butt;stroke-linejoin:miter;stroke-opacity:1" d="M 844,340 860,324 z" id="boundary" inkscape:connector-curvature="0" />
	<path style="fill:none;stroke:red;stroke-width:1px;stroke-linecap:butt;stroke-linejoin:miter;stroke-opacity:1" d="M 846,756 846,776 z" id="boundary" inkscape:connector-curvature="0" />
	<path style="fill:none;stroke:red;stroke-width:1px;stroke-linecap:butt;stroke-linejoin:miter;stroke-opacity:1" d="M 846,756 856,726 z" id="boundary" inkscape:connector-curvature="0" />
	<path style="fill:none;stroke:red;stroke-width:1px;stroke-linecap:butt;stroke-linejoin:miter;stroke-opacity:1" d="M 856,726 876,726 z" id="boundary" inkscape:connector-curvature="0" />
	<path style="fill:none;stroke:red;stroke-width:1px;stroke-linecap:butt;stroke-linejoin:miter;stroke-opacity:1" d="M 860,324 876,308 z" id="boundary" inkscape:connector-curvature="0" />
	<path style="fill:none;stroke:red;stroke-width:1px;stroke-linecap:butt;stroke-linejoin:miter;stroke-opacity:1" d="M 876,308 892,294 z" id="boundary" inkscape:connector-curvature="0" />
	<path style="fill:none;stroke:red;stroke-width:1px;stroke-linecap:butt;stroke-linejoin:miter;stroke-opacity:1" d="M 876,726 896,726 z" id="boundary" inkscape:connector-curvature="0" />
	<path style="fill:none;stroke:red;stroke-width:1px;stroke-linecap:butt;stroke-linejoin:miter;stroke-opacity:1" d="M 892,294 912,294 z" id="boundary" inkscape:connector-curvature="0" />
	<path style="fill:none;stroke:red;stroke-width:1px;stroke-linecap:butt;stroke-linejoin:miter;stroke-opacity:1" d="M 896,566 896,586 z" id="boundary" inkscape:connector-curvature="0" />
	<path style="fill:none;stroke:red;stroke-width:1px;stroke-linecap:butt;stroke-linejoin:miter;stroke-opacity:1" d="M 896,566 906,536 z" id="boundary" inkscape:connector-curvature="0" />
	<path style="fill:none;stroke:red;stroke-width:1px;stroke-linecap:butt;stroke-linejoin:miter;stroke-opacity:1" d="M 896,586 896,606 z" id="boundary" inkscape:connector-curvature="0" />
	<path style="fill:none;stroke:red;stroke-width:1px;stroke-linecap:butt;stroke-linejoin:miter;stroke-opacity:1" d="M 896,606 912,618 z" id="boundary" inkscape:connector-curvature="0" />
	<path style="fill:none;stroke:red;stroke-width:1px;stroke-linecap:butt;stroke-linejoin:miter;stroke-opacity:1" d="M 896,726 916,730 z" id="boundary" inkscape:connector-curvature="0" />
	<path style="fill:none;stroke:red;stroke-width:1px;stroke-linecap:butt;stroke-linejoin:miter;stroke-opacity:1" d="M 906,516 906,536 z" id="boundary" inkscape:connector-curvature="0" />
	<path style="fill:none;stroke:red;stroke-width:1px;stroke-linecap:butt;stroke-linejoin:miter;stroke-opacity:1" d="M 906,516 916,496 z" id="boundary" inkscape:connector-curvature="0" />
	<path style="fill:none;stroke:red;stroke-width:1px;stroke-linecap:butt;stroke-linejoin:miter;stroke-opacity:1" d="M 912,294 930,304 z" id="boundary" inkscape:connector-curvature="0" />
	<path style="fill:none;stroke:red;stroke-width:1px;stroke-linecap:butt;stroke-linejoin:miter;stroke-opacity:1" d="M 912,618 932,624 z" id="boundary" inkscape:connector-curvature="0" />
	<path style="fill:none;stroke:red;stroke-width:1px;stroke-linecap:butt;stroke-linejoin:miter;stroke-opacity:1" d="M 916,496 926,476 z" id="boundary" inkscape:connector-curvature="0" />
	<path style="fill:none;stroke:red;stroke-width:1px;stroke-linecap:butt;stroke-linejoin:miter;stroke-opacity:1" d="M 916,730 936,736 z" id="boundary" inkscape:connector-curvature="0" />
	<path style="fill:none;stroke:red;stroke-width:1px;stroke-linecap:butt;stroke-linejoin:miter;stroke-opacity:1" d="M 926,376 926,396 z" id="boundary" inkscape:connector-curvature="0" />
	<path style="fill:none;stroke:red;stroke-width:1px;stroke-linecap:butt;stroke-linejoin:miter;stroke-opacity:1" d="M 926,376 942,362 z" id="boundary" inkscape:connector-curvature="0" />
	<path style="fill:none;stroke:red;stroke-width:1px;stroke-linecap:butt;stroke-linejoin:miter;stroke-opacity:1" d="M 926,396 926,416 z" id="boundary" inkscape:connector-curvature="0" />
	<path style="fill:none;stroke:red;stroke-width:1px;stroke-linecap:butt;stroke-linejoin:miter;stroke-opacity:1" d="M 926,416 926,436 z" id="boundary" inkscape:connector-curvature="0" />
	<path style="fill:none;stroke:red;stroke-width:1px;stroke-linecap:butt;stroke-linejoin:miter;stroke-opacity:1" d="M 926,436 926,456 z" id="boundary" inkscape:connector-curvature="0" />
	<path style="fill:none;stroke:red;stroke-width:1px;stroke-linecap:butt;stroke-linejoin:miter;stroke-opacity:1" d="M 926,456 926,476 z" id="boundary" inkscape:connector-curvature="0" />
	<path style="fill:none;stroke:red;stroke-width:1px;stroke-linecap:butt;stroke-linejoin:miter;stroke-opacity:1" d="M 930,304 944,320 z" id="boundary" inkscape:connector-curvature="0" />
	<path style="fill:none;stroke:red;stroke-width:1px;stroke-linecap:butt;stroke-linejoin:miter;stroke-opacity:1" d="M 932,624 952,624 z" id="boundary" inkscape:connector-curvature="0" />
	<path style="fill:none;stroke:red;stroke-width:1px;stroke-linecap:butt;stroke-linejoin:miter;stroke-opacity:1" d="M 936,736 956,736 z" id="boundary" inkscape:connector-curvature="0" />
	<path style="fill:none;stroke:red;stroke-width:1px;stroke-linecap:butt;stroke-linejoin:miter;stroke-opacity:1" d="M 942,362 946,340 z" id="boundary" inkscape:connector-curvature="0" />
	<path style="fill:none;stroke:red;stroke-width:1px;stroke-linecap:butt;stroke-linejoin:miter;stroke-opacity:1" d="M 944,320 946,340 z" id="boundary" inkscape:connector-curvature="0" />
	<path style="fill:none;stroke:red;stroke-width:1px;stroke-linecap:butt;stroke-linejoin:miter;stroke-opacity:1" d="M 952,624 972,624 z" id="boundary" inkscape:connector-curvature="0" />
	<path style="fill:none;stroke:red;stroke-width:1px;stroke-linecap:butt;stroke-linejoin:miter;stroke-opacity:1" d="M 956,736 976,736 z" id="boundary" inkscape:connector-curvature="0" />
	<path style="fill:none;stroke:red;stroke-width:1px;stroke-linecap:butt;stroke-linejoin:miter;stroke-opacity:1" d="M 972,624 992,626 z" id="boundary" inkscape:connector-curvature="0" />
	<path style="fill:none;stroke:red;stroke-width:1px;stroke-linecap:butt;stroke-linejoin:miter;stroke-opacity:1" d="M 976,736 986,706 z" id="boundary" inkscape:connector-curvature="0" />
	<path style="fill:none;stroke:red;stroke-width:1px;stroke-linecap:butt;stroke-linejoin:miter;stroke-opacity:1" d="M 986,666 986,686 z" id="boundary" inkscape:connector-curvature="0" />
	<path style="fill:none;stroke:red;stroke-width:1px;stroke-linecap:butt;stroke-linejoin:miter;stroke-opacity:1" d="M 986,666 996,646 z" id="boundary" inkscape:connector-curvature="0" />
	<path style="fill:none;stroke:red;stroke-width:1px;stroke-linecap:butt;stroke-linejoin:miter;stroke-opacity:1" d="M 986,686 986,706 z" id="boundary" inkscape:connector-curvature="0" />
	<path style="fill:none;stroke:red;stroke-width:1px;stroke-linecap:butt;stroke-linejoin:miter;stroke-opacity:1" d="M 992,626 996,646 z" id="boundary" inkscape:connector-curvature="0" />
	<circle cx="4" cy="630" r="4" fill="#0" id="circle0"/>
	<circle cx="4" cy="650" r="4" fill="#0" id="circle1"/>
	<circle cx="14" cy="560" r="4" fill="#0" id="circle2"/>
	<circle cx="14" cy="580" r="4" fill="#0" id="circle3"/>
	<circle cx="14" cy="600" r="4" fill="#0" id="circle4"/>
	<circle cx="16" cy="666" r="4" fill="#0" id="circle5"/>
	<circle cx="39.5584" cy="349.772" r="4" fill="#0" id="circle6"/>
	<circle cx="34" cy="554" r="4" fill="#0" id="circle7"/>
	<circle cx="36" cy="666" r="4" fill="#0" id="circle8"/>
	<circle cx="44" cy="330" r="4" fill="#0" id="circle9"/>
	<circle cx="50" cy="364" r="4" fill="#0" id="circle10"/>
	<circle cx="54" cy="558" r="4" fill="#0" id="circle11"/>
	<circle cx="56" cy="670" r="4" fill="#0" id="circle12"/>
	<circle cx="54.9838" cy="385.63" r="4" fill="#0" id="circle13"/>
	<circle cx="60" cy="314" r="4" fill="#0" id="circle14"/>
	<circle cx="62.6118" cy="404.763" r="4" fill="#0" id="circle15"/>
	<circle cx="73.7989" cy="565.5" r="4" fill="#0" id="circle16"/>
	<circle cx="76" cy="420" r="4" fill="#0" id="circle17"/>
	<circle cx="76" cy="676" r="4" fill="#0" id="circle18"/>
	<circle cx="79.1601" cy="318.009" r="4" fill="#0" id="circle19"/>
	<circle cx="87.4508" cy="437.414" r="4" fill="#0" id="circle20"/>
	<circle cx="93.8347" cy="573.433" r="4" fill="#0" id="circle21"/>
	<circle cx="96" cy="676" r="4" fill="#0" id="circle22"/>
	<circle cx="102.288" cy="310.494" r="4" fill="#0" id="circle23"/>
	<circle cx="100" cy="454" r="4" fill="#0" id="circle24"/>
	<circle cx="104" cy="160" r="4" fill="#0" id="circle25"/>
	<circle cx="114" cy="140" r="4" fill="#0" id="circle26"/>
	<circle cx="114" cy="178" r="4" fill="#0" id="circle27"/>
	<circle cx="114" cy="198" r="4" fill="#0" id="circle28"/>
	<circle cx="114" cy="218" r="4" fill="#0" id="circle29"/>
	<circle cx="114" cy="470" r="4" fill="#0" id="circle30"/>
	<circle cx="119.296" cy="487.393" r="4" fill="#0" id="circle31"/>
	<circle cx="114" cy="564" r="4" fill="#0" id="circle32"/>
	<circle cx="132.902" cy="313.403" r="4" fill="#0" id="circle33"/>
	<circle cx="116" cy="676" r="4" fill="#0" id="circle34"/>
	<circle cx="124" cy="508" r="4" fill="#0" id="circle35"/>
	<circle cx="126" cy="352" r="4" fill="#0" id="circle36"/>
	<circle cx="128" cy="234" r="4" fill="#0" id="circle37"/>
	<circle cx="130" cy="124" r="4" fill="#0" id="circle38"/>
	<circle cx="140.768" cy="522.922" r="4" fill="#0" id="circle39"/>
	<circle cx="135.257" cy="565.608" r="4" fill="#0" id="circle40"/>
	<circle cx="136" cy="676" r="4" fill="#0" id="circle41"/>
	<circle cx="138" cy="252" r="4" fill="#0" id="circle42"/>
	<circle cx="142" cy="366" r="4" fill="#0" id="circle43"/>
	<circle cx="143.213" cy="541.888" r="4" fill="#0" id="circle44"/>
	<circle cx="148" cy="114" r="4" fill="#0" id="circle45"/>
	<circle cx="154" cy="266" r="4" fill="#0" id="circle46"/>
	<circle cx="154" cy="564" r="4" fill="#0" id="circle47"/>
	<circle cx="156" cy="382" r="4" fill="#0" id="circle48"/>
	<circle cx="156" cy="676" r="4" fill="#0" id="circle49"/>
	<circle cx="160" cy="286" r="4" fill="#0" id="circle50"/>
	<circle cx="166" cy="124" r="4" fill="#0" id="circle51"/>
	<circle cx="166" cy="400" r="4" fill="#0" id="circle52"/>
	<circle cx="170" cy="304" r="4" fill="#0" id="circle53"/>
	<circle cx="176" cy="418" r="4" fill="#0" id="circle54"/>
	<circle cx="176" cy="676" r="4" fill="#0" id="circle55"/>
	<circle cx="178" cy="324" r="4" fill="#0" id="circle56"/>
	<circle cx="184" cy="344" r="4" fill="#0" id="circle57"/>
	<circle cx="186" cy="130" r="4" fill="#0" id="circle58"/>
	<circle cx="188" cy="364" r="4" fill="#0" id="circle59"/>
	<circle cx="188" cy="434" r="4" fill="#0" id="circle60"/>
	<circle cx="196" cy="680" r="4" fill="#0" id="circle61"/>
	<circle cx="200" cy="146" r="4" fill="#0" id="circle62"/>
	<circle cx="204" cy="376" r="4" fill="#0" id="circle63"/>
	<circle cx="204" cy="396" r="4" fill="#0" id="circle64"/>
	<circle cx="204" cy="448" r="4" fill="#0" id="circle65"/>
	<circle cx="210" cy="164" r="4" fill="#0" id="circle66"/>
	<circle cx="212" cy="468" r="4" fill="#0" id="circle67"/>
	<circle cx="214" cy="414" r="4" fill="#0" id="circle68"/>
	<circle cx="216" cy="184" r="4" fill="#0" id="circle69"/>
	<circle cx="216" cy="204" r="4" fill="#0" id="circle70"/>
	<circle cx="216" cy="686" r="4" fill="#0" id="circle71"/>
	<circle cx="222" cy="486" r="4" fill="#0" id="circle72"/>
	<circle cx="226" cy="222" r="4" fill="#0" id="circle73"/>
	<circle cx="226" cy="430" r="4" fill="#0" id="circle74"/>
	<circle cx="230" cy="506" r="4" fill="#0" id="circle75"/>
	<circle cx="234" cy="450" r="4" fill="#0" id="circle76"/>
	<circle cx="234" cy="696" r="4" fill="#0" id="circle77"/>
	<circle cx="236" cy="240" r="4" fill="#0" id="circle78"/>
	<circle cx="240" cy="716" r="4" fill="#0" id="circle79"/>
	<circle cx="244" cy="260" r="4" fill="#0" id="circle80"/>
	<circle cx="246" cy="520" r="4" fill="#0" id="circle81"/>
	<circle cx="250" cy="464" r="4" fill="#0" id="circle82"/>
	<circle cx="250" cy="734" r="4" fill="#0" id="circle83"/>
	<circle cx="254" cy="30" r="4" fill="#0" id="circle84"/>
	<circle cx="254" cy="50" r="4" fill="#0" id="circle85"/>
	<circle cx="254" cy="70" r="4" fill="#0" id="circle86"/>
	<circle cx="254" cy="500" r="4" fill="#0" id="circle87"/>
	<circle cx="256" cy="276" r="4" fill="#0" id="circle88"/>
	<circle cx="258" cy="754" r="4" fill="#0" id="circle89"/>
	<circle cx="262" cy="534" r="4" fill="#0" id="circle90"/>
	<circle cx="264" cy="88" r="4" fill="#0" id="circle91"/>
	<circle cx="264" cy="774" r="4" fill="#0" id="circle92"/>
	<circle cx="264" cy="794" r="4" fill="#0" id="circle93"/>
	<circle cx="266" cy="294" r="4" fill="#0" id="circle94"/>
	<circle cx="270" cy="14" r="4" fill="#0" id="circle95"/>
	<circle cx="270" cy="514" r="4" fill="#0" id="circle96"/>
	<circle cx="274" cy="106" r="4" fill="#0" id="circle97"/>
	<circle cx="274" cy="812" r="4" fill="#0" id="circle98"/>
	<circle cx="276" cy="832" r="4" fill="#0" id="circle99"/>
	<circle cx="280" cy="126" r="4" fill="#0" id="circle100"/>
	<circle cx="282" cy="306" r="4" fill="#0" id="circle101"/>
	<circle cx="286" cy="850" r="4" fill="#0" id="circle102"/>
	<circle cx="288" cy="4" r="4" fill="#0" id="circle103"/>
	<circle cx="290" cy="144" r="4" fill="#0" id="circle104"/>
	<circle cx="290" cy="326" r="4" fill="#0" id="circle105"/>
	<circle cx="294" cy="164" r="4" fill="#0" id="circle106"/>
	<circle cx="294" cy="870" r="4" fill="#0" id="circle107"/>
	<circle cx="304" cy="182" r="4" fill="#0" id="circle108"/>
	<circle cx="304" cy="210" r="4" fill="#0" id="circle109"/>
	<circle cx="304" cy="230" r="4" fill="#0" id="circle110"/>
	<circle cx="304" cy="250" r="4" fill="#0" id="circle111"/>
	<circle cx="304" cy="888" r="4" fill="#0" id="circle112"/>
	<circle cx="306" cy="340" r="4" fill="#0" id="circle113"/>
	<circle cx="306" cy="360" r="4" fill="#0" id="circle114"/>
	<circle cx="308" cy="4" r="4" fill="#0" id="circle115"/>
	<circle cx="314" cy="268" r="4" fill="#0" id="circle116"/>
	<circle cx="314" cy="288" r="4" fill="#0" id="circle117"/>
	<circle cx="316" cy="378" r="4" fill="#0" id="circle118"/>
	<circle cx="318" cy="904" r="4" fill="#0" id="circle119"/>
	<circle cx="324" cy="306" r="4" fill="#0" id="circle120"/>
	<circle cx="326" cy="14" r="4" fill="#0" id="circle121"/>
	<circle cx="328" cy="394" r="4" fill="#0" id="circle122"/>
	<circle cx="328" cy="922" r="4" fill="#0" id="circle123"/>
	<circle cx="334" cy="324" r="4" fill="#0" id="circle124"/>
	<circle cx="336" cy="942" r="4" fill="#0" id="circle125"/>
	<circle cx="338" cy="344" r="4" fill="#0" id="circle126"/>
	<circle cx="342" cy="26" r="4" fill="#0" id="circle127"/>
	<circle cx="344" cy="364" r="4" fill="#0" id="circle128"/>
	<circle cx="344" cy="408" r="4" fill="#0" id="circle129"/>
	<circle cx="352" cy="956" r="4" fill="#0" id="circle130"/>
	<circle cx="354" cy="382" r="4" fill="#0" id="circle131"/>
	<circle cx="356" cy="42" r="4" fill="#0" id="circle132"/>
	<circle cx="366" cy="60" r="4" fill="#0" id="circle133"/>
	<circle cx="370" cy="966" r="4" fill="#0" id="circle134"/>
	<circle cx="374" cy="80" r="4" fill="#0" id="circle135"/>
	<circle cx="376" cy="100" r="4" fill="#0" id="circle136"/>
	<circle cx="386" cy="118" r="4" fill="#0" id="circle137"/>
	<circle cx="388" cy="976" r="4" fill="#0" id="circle138"/>
	<circle cx="392" cy="138" r="4" fill="#0" id="circle139"/>
	<circle cx="402" cy="156" r="4" fill="#0" id="circle140"/>
	<circle cx="406" cy="966" r="4" fill="#0" id="circle141"/>
	<circle cx="410" cy="176" r="4" fill="#0" id="circle142"/>
	<circle cx="416" cy="196" r="4" fill="#0" id="circle143"/>
	<circle cx="416" cy="216" r="4" fill="#0" id="circle144"/>
	<circle cx="420" cy="236" r="4" fill="#0" id="circle145"/>
	<circle cx="426" cy="966" r="4" fill="#0" id="circle146"/>
	<circle cx="430" cy="254" r="4" fill="#0" id="circle147"/>
	<circle cx="436" cy="274" r="4" fill="#0" id="circle148"/>
	<circle cx="444" cy="30" r="4" fill="#0" id="circle149"/>
	<circle cx="444" cy="50" r="4" fill="#0" id="circle150"/>
	<circle cx="444" cy="70" r="4" fill="#0" id="circle151"/>
	<circle cx="444" cy="90" r="4" fill="#0" id="circle152"/>
	<circle cx="446" cy="292" r="4" fill="#0" id="circle153"/>
	<circle cx="446" cy="312" r="4" fill="#0" id="circle154"/>
	<circle cx="446" cy="966" r="4" fill="#0" id="circle155"/>
	<circle cx="454" cy="10" r="4" fill="#0" id="circle156"/>
	<circle cx="454" cy="108" r="4" fill="#0" id="circle157"/>
	<circle cx="456" cy="330" r="4" fill="#0" id="circle158"/>
	<circle cx="456" cy="356" r="4" fill="#0" id="circle159"/>
	<circle cx="464" cy="126" r="4" fill="#0" id="circle160"/>
	<circle cx="464" cy="146" r="4" fill="#0" id="circle161"/>
	<circle cx="464" cy="220" r="4" fill="#0" id="circle162"/>
	<circle cx="466" cy="374" r="4" fill="#0" id="circle163"/>
	<circle cx="466" cy="966" r="4" fill="#0" id="circle164"/>
	<circle cx="474" cy="4" r="4" fill="#0" id="circle165"/>
	<circle cx="474" cy="164" r="4" fill="#0" id="circle166"/>
	<circle cx="474" cy="184" r="4" fill="#0" id="circle167"/>
	<circle cx="474" cy="238" r="4" fill="#0" id="circle168"/>
	<circle cx="474" cy="258" r="4" fill="#0" id="circle169"/>
	<circle cx="484" cy="276" r="4" fill="#0" id="circle170"/>
	<circle cx="484" cy="976" r="4" fill="#0" id="circle171"/>
	<circle cx="486" cy="368" r="4" fill="#0" id="circle172"/>
	<circle cx="490" cy="296" r="4" fill="#0" id="circle173"/>
	<circle cx="494" cy="4" r="4" fill="#0" id="circle174"/>
	<circle cx="494" cy="316" r="4" fill="#0" id="circle175"/>
	<circle cx="500" cy="336" r="4" fill="#0" id="circle176"/>
	<circle cx="504" cy="976" r="4" fill="#0" id="circle177"/>
	<circle cx="506" cy="20" r="4" fill="#0" id="circle178"/>
	<circle cx="524" cy="30" r="4" fill="#0" id="circle179"/>
	<circle cx="524" cy="976" r="4" fill="#0" id="circle180"/>
	<circle cx="536" cy="46" r="4" fill="#0" id="circle181"/>
	<circle cx="544" cy="976" r="4" fill="#0" id="circle182"/>
	<circle cx="546" cy="64" r="4" fill="#0" id="circle183"/>
	<circle cx="556" cy="82" r="4" fill="#0" id="circle184"/>
	<circle cx="562" cy="966" r="4" fill="#0" id="circle185"/>
	<circle cx="566" cy="100" r="4" fill="#0" id="circle186"/>
	<circle cx="566" cy="120" r="4" fill="#0" id="circle187"/>
	<circle cx="574" cy="140" r="4" fill="#0" id="circle188"/>
	<circle cx="576" cy="160" r="4" fill="#0" id="circle189"/>
	<circle cx="582" cy="966" r="4" fill="#0" id="circle190"/>
	<circle cx="586" cy="178" r="4" fill="#0" id="circle191"/>
	<circle cx="586" cy="216" r="4" fill="#0" id="circle192"/>
	<circle cx="596" cy="196" r="4" fill="#0" id="circle193"/>
	<circle cx="596" cy="234" r="4" fill="#0" id="circle194"/>
	<circle cx="596" cy="254" r="4" fill="#0" id="circle195"/>
	<circle cx="596" cy="274" r="4" fill="#0" id="circle196"/>
	<circle cx="602" cy="966" r="4" fill="#0" id="circle197"/>
	<circle cx="606" cy="292" r="4" fill="#0" id="circle198"/>
	<circle cx="616" cy="310" r="4" fill="#0" id="circle199"/>
	<circle cx="616" cy="330" r="4" fill="#0" id="circle200"/>
	<circle cx="616" cy="350" r="4" fill="#0" id="circle201"/>
	<circle cx="616" cy="370" r="4" fill="#0" id="circle202"/>
	<circle cx="620" cy="976" r="4" fill="#0" id="circle203"/>
	<circle cx="626" cy="388" r="4" fill="#0" id="circle204"/>
	<circle cx="632" cy="408" r="4" fill="#0" id="circle205"/>
	<circle cx="636" cy="428" r="4" fill="#0" id="circle206"/>
	<circle cx="640" cy="976" r="4" fill="#0" id="circle207"/>
	<circle cx="642" cy="448" r="4" fill="#0" id="circle208"/>
	<circle cx="654" cy="464" r="4" fill="#0" id="circle209"/>
	<circle cx="660" cy="976" r="4" fill="#0" id="circle210"/>
	<circle cx="666" cy="480" r="4" fill="#0" id="circle211"/>
	<circle cx="666" cy="506" r="4" fill="#0" id="circle212"/>
	<circle cx="676" cy="524" r="4" fill="#0" id="circle213"/>
	<circle cx="680" cy="976" r="4" fill="#0" id="circle214"/>
	<circle cx="686" cy="542" r="4" fill="#0" id="circle215"/>
	<circle cx="700" cy="976" r="4" fill="#0" id="circle216"/>
	<circle cx="702" cy="554" r="4" fill="#0" id="circle217"/>
	<circle cx="718" cy="966" r="4" fill="#0" id="circle218"/>
	<circle cx="720" cy="564" r="4" fill="#0" id="circle219"/>
	<circle cx="738" cy="574" r="4" fill="#0" id="circle220"/>
	<circle cx="738" cy="966" r="4" fill="#0" id="circle221"/>
	<circle cx="756" cy="936" r="4" fill="#0" id="circle222"/>
	<circle cx="756" cy="956" r="4" fill="#0" id="circle223"/>
	<circle cx="758" cy="574" r="4" fill="#0" id="circle224"/>
	<circle cx="764" cy="550" r="4" fill="#0" id="circle225"/>
	<circle cx="766" cy="916" r="4" fill="#0" id="circle226"/>
	<circle cx="780" cy="534" r="4" fill="#0" id="circle227"/>
	<circle cx="786" cy="906" r="4" fill="#0" id="circle228"/>
	<circle cx="790" cy="514" r="4" fill="#0" id="circle229"/>
	<circle cx="794" cy="480" r="4" fill="#0" id="circle230"/>
	<circle cx="802" cy="892" r="4" fill="#0" id="circle231"/>
	<circle cx="804" cy="390" r="4" fill="#0" id="circle232"/>
	<circle cx="804" cy="410" r="4" fill="#0" id="circle233"/>
	<circle cx="804" cy="430" r="4" fill="#0" id="circle234"/>
	<circle cx="804" cy="450" r="4" fill="#0" id="circle235"/>
	<circle cx="806" cy="866" r="4" fill="#0" id="circle236"/>
	<circle cx="814" cy="370" r="4" fill="#0" id="circle237"/>
	<circle cx="816" cy="836" r="4" fill="#0" id="circle238"/>
	<circle cx="826" cy="796" r="4" fill="#0" id="circle239"/>
	<circle cx="826" cy="816" r="4" fill="#0" id="circle240"/>
	<circle cx="834" cy="360" r="4" fill="#0" id="circle241"/>
	<circle cx="844" cy="340" r="4" fill="#0" id="circle242"/>
	<circle cx="846" cy="756" r="4" fill="#0" id="circle243"/>
	<circle cx="846" cy="776" r="4" fill="#0" id="circle244"/>
	<circle cx="856" cy="726" r="4" fill="#0" id="circle245"/>
	<circle cx="860" cy="324" r="4" fill="#0" id="circle246"/>
	<circle cx="876" cy="308" r="4" fill="#0" id="circle247"/>
	<circle cx="876" cy="726" r="4" fill="#0" id="circle248"/>
	<circle cx="892" cy="294" r="4" fill="#0" id="circle249"/>
	<circle cx="896" cy="566" r="4" fill="#0" id="circle250"/>
	<circle cx="896" cy="586" r="4" fill="#0" id="circle251"/>
	<circle cx="896" cy="606" r="4" fill="#0" id="circle252"/>
	<circle cx="896" cy="726" r="4" fill="#0" id="circle253"/>
	<circle cx="906" cy="516" r="4" fill="#0" id="circle254"/>
	<circle cx="906" cy="536" r="4" fill="#0" id="circle255"/>
	<circle cx="912" cy="294" r="4" fill="#0" id="circle256"/>
	<circle cx="912" cy="618" r="4" fill="#0" id="circle257"/>
	<circle cx="916" cy="496" r="4" fill="#0" id="circle258"/>
	<circle cx="916" cy="730" r="4" fill="#0" id="circle259"/>
	<circle cx="926" cy="376" r="4" fill="#0" id="circle260"/>
	<circle cx="926" cy="396" r="4" fill="#0" id="circle261"/>
	<circle cx="926" cy="416" r="4" fill="#0" id="circle262"/>
	<circle cx="926" cy="436" r="4" fill="#0" id="circle263"/>
	<circle cx="926" cy="456" r="4" fill="#0" id="circle264"/>
	<circle cx="926" cy="476" r="4" fill="#0" id="circle265"/>
	<circle cx="930" cy="304" r="4" fill="#0" id="circle266"/>
	<circle cx="932" cy="624" r="4" fill="#0" id="circle267"/>
	<circle cx="936" cy="736" r="4" fill="#0" id="circle268"/>
	<circle cx="942" cy="362" r="4" fill="#0" id="circle269"/>
	<circle cx="944" cy="320" r="4" fill="#0" id="circle270"/>
	<circle cx="946" cy="340" r="4" fill="#0" id="circle271"/>
	<circle cx="952" cy="624" r="4" fill="#0" id="circle272"/>
	<circle cx="956" cy="736" r="4" fill="#0" id="circle273"/>
	<circle cx="972" cy="624" r="4" fill="#0" id="circle274"/>
	<circle cx="976" cy="736" r="4" fill="#0" id="circle275"/>
	<circle cx="986" cy="666" r="4" fill="#0" id="circle276"/>
	<circle cx="986" cy="686" r="4" fill="#0" id="circle277"/>
	<circle cx="986" cy="706" r="4" fill="#0" id="circle278"/>
	<circle cx="992" cy="626" r="4" fill="#0" id="circle279"/>
	<circle cx="996" cy="646" r="4" fill="#0" id="circle280"/>
	</g>
</svg>