<?xml version="1.0" encoding="UTF-8" standalone="no"?>
<!-- Created with CurveBenchmark -->
<svg
	xmlns:dc="http://purl.org/dc/elements/1.1/"
	xmlns:cc="http://creativecommons.org/ns#"
	xmlns:rdf="http://www.w3.org/1999/02/22-rdf-syntax-ns#"
	xmlns:svg="http://www.w3.org/2000/svg"
	xmlns="http://www.w3.org/2000/svg"
	xmlns:sodipodi="http://sodipodi.sourceforge.net/DTD/sodipodi-0.dtd"
	xmlns:inkscape="http://www.inkscape.org/namespaces/inkscape"
	width="1000"
	height="1000"
	id="svg2"
	version="1.1"
	sodipodi:docname="manifold/stretchdenoise-television005.png.txt">
<defs
	id="defs4" />
<metadata
	id="metadata7">
	<rdf:RDF>
		<cc:Work
			rdf:about="">
			<dc:format>image/svg+xml</dc:format>
			<dc:type
				rdf:resource="http://purl.org/dc/dcmitype/StillImage" />
			<dc:title></dc:title>
		</cc:Work>
	</rdf:RDF>
</metadata>
<g
	inkscape:label="Layer 1"
	inkscape:groupmode="layer"
	id="layer1">
	<path style="fill:none;stroke:red;stroke-width:1px;stroke-linecap:butt;stroke-linejoin:miter;stroke-opacity:1" d="M 11.4507,799.721 -nan,-nan z" id="boundary" inkscape:connector-curvature="0" />
	<path style="fill:none;stroke:red;stroke-width:1px;stroke-linecap:butt;stroke-linejoin:miter;stroke-opacity:1" d="M 11.4507,799.721 53.7659,843.385 z" id="boundary" inkscape:connector-curvature="0" />
	<path style="fill:none;stroke:red;stroke-width:1px;stroke-linecap:butt;stroke-linejoin:miter;stroke-opacity:1" d="M -nan,-nan -nan,-nan z" id="boundary" inkscape:connector-curvature="0" />
	<path style="fill:none;stroke:red;stroke-width:1px;stroke-linecap:butt;stroke-linejoin:miter;stroke-opacity:1" d="M 53.7659,843.385 86.9431,830.114 z" id="boundary" inkscape:connector-curvature="0" />
	<path style="fill:none;stroke:red;stroke-width:1px;stroke-linecap:butt;stroke-linejoin:miter;stroke-opacity:1" d="M 86.9431,830.114 120.12,830.114 z" id="boundary" inkscape:connector-curvature="0" />
	<path style="fill:none;stroke:red;stroke-width:1px;stroke-linecap:butt;stroke-linejoin:miter;stroke-opacity:1" d="M 96.8963,17.2709 96.8963,50.4482 z" id="boundary" inkscape:connector-curvature="0" />
	<path style="fill:none;stroke:red;stroke-width:1px;stroke-linecap:butt;stroke-linejoin:miter;stroke-opacity:1" d="M 96.8963,17.2709 130.074,4 z" id="boundary" inkscape:connector-curvature="0" />
	<path style="fill:none;stroke:red;stroke-width:1px;stroke-linecap:butt;stroke-linejoin:miter;stroke-opacity:1" d="M 96.8963,50.4482 96.8963,83.6254 z" id="boundary" inkscape:connector-curvature="0" />
	<path style="fill:none;stroke:red;stroke-width:1px;stroke-linecap:butt;stroke-linejoin:miter;stroke-opacity:1" d="M 96.8963,83.6254 96.8963,116.803 z" id="boundary" inkscape:connector-curvature="0" />
	<path style="fill:none;stroke:red;stroke-width:1px;stroke-linecap:butt;stroke-linejoin:miter;stroke-opacity:1" d="M 96.8963,116.803 96.8963,149.98 z" id="boundary" inkscape:connector-curvature="0" />
	<path style="fill:none;stroke:red;stroke-width:1px;stroke-linecap:butt;stroke-linejoin:miter;stroke-opacity:1" d="M 96.8963,149.98 96.8963,183.157 z" id="boundary" inkscape:connector-curvature="0" />
	<path style="fill:none;stroke:red;stroke-width:1px;stroke-linecap:butt;stroke-linejoin:miter;stroke-opacity:1" d="M 96.8963,183.157 96.8963,216.334 z" id="boundary" inkscape:connector-curvature="0" />
	<path style="fill:none;stroke:red;stroke-width:1px;stroke-linecap:butt;stroke-linejoin:miter;stroke-opacity:1" d="M 96.8963,216.334 96.8963,249.512 z" id="boundary" inkscape:connector-curvature="0" />
	<path style="fill:none;stroke:red;stroke-width:1px;stroke-linecap:butt;stroke-linejoin:miter;stroke-opacity:1" d="M 96.8963,249.512 96.8963,282.689 z" id="boundary" inkscape:connector-curvature="0" />
	<path style="fill:none;stroke:red;stroke-width:1px;stroke-linecap:butt;stroke-linejoin:miter;stroke-opacity:1" d="M 96.8963,282.689 96.8963,315.866 z" id="boundary" inkscape:connector-curvature="0" />
	<path style="fill:none;stroke:red;stroke-width:1px;stroke-linecap:butt;stroke-linejoin:miter;stroke-opacity:1" d="M 96.8963,315.866 96.8963,349.043 z" id="boundary" inkscape:connector-curvature="0" />
	<path style="fill:none;stroke:red;stroke-width:1px;stroke-linecap:butt;stroke-linejoin:miter;stroke-opacity:1" d="M 96.8963,349.043 96.8963,382.221 z" id="boundary" inkscape:connector-curvature="0" />
	<path style="fill:none;stroke:red;stroke-width:1px;stroke-linecap:butt;stroke-linejoin:miter;stroke-opacity:1" d="M 96.8963,382.221 96.8963,415.398 z" id="boundary" inkscape:connector-curvature="0" />
	<path style="fill:none;stroke:red;stroke-width:1px;stroke-linecap:butt;stroke-linejoin:miter;stroke-opacity:1" d="M 96.8963,415.398 113.485,445.258 z" id="boundary" inkscape:connector-curvature="0" />
	<path style="fill:none;stroke:red;stroke-width:1px;stroke-linecap:butt;stroke-linejoin:miter;stroke-opacity:1" d="M -nan,-nan -nan,-nan z" id="boundary" inkscape:connector-curvature="0" />
	<path style="fill:none;stroke:red;stroke-width:1px;stroke-linecap:butt;stroke-linejoin:miter;stroke-opacity:1" d="M 113.485,445.258 146.662,445.258 z" id="boundary" inkscape:connector-curvature="0" />
	<path style="fill:none;stroke:red;stroke-width:1px;stroke-linecap:butt;stroke-linejoin:miter;stroke-opacity:1" d="M 120.12,830.114 153.298,830.114 z" id="boundary" inkscape:connector-curvature="0" />
	<path style="fill:none;stroke:red;stroke-width:1px;stroke-linecap:butt;stroke-linejoin:miter;stroke-opacity:1" d="M 130.074,4 163.251,4 z" id="boundary" inkscape:connector-curvature="0" />
	<path style="fill:none;stroke:red;stroke-width:1px;stroke-linecap:butt;stroke-linejoin:miter;stroke-opacity:1" d="M -nan,-nan -nan,-nan z" id="boundary" inkscape:connector-curvature="0" />
	<path style="fill:none;stroke:red;stroke-width:1px;stroke-linecap:butt;stroke-linejoin:miter;stroke-opacity:1" d="M 146.662,445.258 213.017,445.258 z" id="boundary" inkscape:connector-curvature="0" />
	<path style="fill:none;stroke:red;stroke-width:1px;stroke-linecap:butt;stroke-linejoin:miter;stroke-opacity:1" d="M 153.298,830.114 186.475,830.114 z" id="boundary" inkscape:connector-curvature="0" />
	<path style="fill:none;stroke:red;stroke-width:1px;stroke-linecap:butt;stroke-linejoin:miter;stroke-opacity:1" d="M 163.251,4 196.428,4 z" id="boundary" inkscape:connector-curvature="0" />
	<path style="fill:none;stroke:red;stroke-width:1px;stroke-linecap:butt;stroke-linejoin:miter;stroke-opacity:1" d="M -nan,-nan -nan,-nan z" id="boundary" inkscape:connector-curvature="0" />
	<path style="fill:none;stroke:red;stroke-width:1px;stroke-linecap:butt;stroke-linejoin:miter;stroke-opacity:1" d="M 186.475,830.114 219.652,830.114 z" id="boundary" inkscape:connector-curvature="0" />
	<path style="fill:none;stroke:red;stroke-width:1px;stroke-linecap:butt;stroke-linejoin:miter;stroke-opacity:1" d="M 196.428,4 229.605,4 z" id="boundary" inkscape:connector-curvature="0" />
	<path style="fill:none;stroke:red;stroke-width:1px;stroke-linecap:butt;stroke-linejoin:miter;stroke-opacity:1" d="M -nan,-nan -nan,-nan z" id="boundary" inkscape:connector-curvature="0" />
	<path style="fill:none;stroke:red;stroke-width:1px;stroke-linecap:butt;stroke-linejoin:miter;stroke-opacity:1" d="M 213.017,445.258 246.194,445.258 z" id="boundary" inkscape:connector-curvature="0" />
	<path style="fill:none;stroke:red;stroke-width:1px;stroke-linecap:butt;stroke-linejoin:miter;stroke-opacity:1" d="M 219.652,830.114 252.829,830.114 z" id="boundary" inkscape:connector-curvature="0" />
	<path style="fill:none;stroke:red;stroke-width:1px;stroke-linecap:butt;stroke-linejoin:miter;stroke-opacity:1" d="M 229.605,4 262.783,4 z" id="boundary" inkscape:connector-curvature="0" />
	<path style="fill:none;stroke:red;stroke-width:1px;stroke-linecap:butt;stroke-linejoin:miter;stroke-opacity:1" d="M -nan,-nan -nan,-nan z" id="boundary" inkscape:connector-curvature="0" />
	<path style="fill:none;stroke:red;stroke-width:1px;stroke-linecap:butt;stroke-linejoin:miter;stroke-opacity:1" d="M 246.194,445.258 279.371,445.258 z" id="boundary" inkscape:connector-curvature="0" />
	<path style="fill:none;stroke:red;stroke-width:1px;stroke-linecap:butt;stroke-linejoin:miter;stroke-opacity:1" d="M 252.829,830.114 286.007,830.114 z" id="boundary" inkscape:connector-curvature="0" />
	<path style="fill:none;stroke:red;stroke-width:1px;stroke-linecap:butt;stroke-linejoin:miter;stroke-opacity:1" d="M 262.783,4 295.96,4 z" id="boundary" inkscape:connector-curvature="0" />
	<path style="fill:none;stroke:red;stroke-width:1px;stroke-linecap:butt;stroke-linejoin:miter;stroke-opacity:1" d="M -nan,-nan -nan,-nan z" id="boundary" inkscape:connector-curvature="0" />
	<path style="fill:none;stroke:red;stroke-width:1px;stroke-linecap:butt;stroke-linejoin:miter;stroke-opacity:1" d="M 279.371,445.258 312.548,445.258 z" id="boundary" inkscape:connector-curvature="0" />
	<path style="fill:none;stroke:red;stroke-width:1px;stroke-linecap:butt;stroke-linejoin:miter;stroke-opacity:1" d="M 286.007,830.114 319.184,830.114 z" id="boundary" inkscape:connector-curvature="0" />
	<path style="fill:none;stroke:red;stroke-width:1px;stroke-linecap:butt;stroke-linejoin:miter;stroke-opacity:1" d="M 295.96,4 329.137,4 z" id="boundary" inkscape:connector-curvature="0" />
	<path style="fill:none;stroke:red;stroke-width:1px;stroke-linecap:butt;stroke-linejoin:miter;stroke-opacity:1" d="M -nan,-nan -nan,-nan z" id="boundary" inkscape:connector-curvature="0" />
	<path style="fill:none;stroke:red;stroke-width:1px;stroke-linecap:butt;stroke-linejoin:miter;stroke-opacity:1" d="M 312.548,445.258 345.726,445.258 z" id="boundary" inkscape:connector-curvature="0" />
	<path style="fill:none;stroke:red;stroke-width:1px;stroke-linecap:butt;stroke-linejoin:miter;stroke-opacity:1" d="M nan,nan nan,nan z" id="boundary" inkscape:connector-curvature="0" />
	<path style="fill:none;stroke:red;stroke-width:1px;stroke-linecap:butt;stroke-linejoin:miter;stroke-opacity:1" d="M 319.184,830.114 352.361,830.114 z" id="boundary" inkscape:connector-curvature="0" />
	<path style="fill:none;stroke:red;stroke-width:1px;stroke-linecap:butt;stroke-linejoin:miter;stroke-opacity:1" d="M 329.137,4 362.314,4 z" id="boundary" inkscape:connector-curvature="0" />
	<path style="fill:none;stroke:red;stroke-width:1px;stroke-linecap:butt;stroke-linejoin:miter;stroke-opacity:1" d="M -nan,-nan -nan,-nan z" id="boundary" inkscape:connector-curvature="0" />
	<path style="fill:none;stroke:red;stroke-width:1px;stroke-linecap:butt;stroke-linejoin:miter;stroke-opacity:1" d="M 345.726,445.258 378.903,445.258 z" id="boundary" inkscape:connector-curvature="0" />
	<path style="fill:none;stroke:red;stroke-width:1px;stroke-linecap:butt;stroke-linejoin:miter;stroke-opacity:1" d="M nan,nan nan,nan z" id="boundary" inkscape:connector-curvature="0" />
	<path style="fill:none;stroke:red;stroke-width:1px;stroke-linecap:butt;stroke-linejoin:miter;stroke-opacity:1" d="M 352.361,830.114 385.538,830.114 z" id="boundary" inkscape:connector-curvature="0" />
	<path style="fill:none;stroke:red;stroke-width:1px;stroke-linecap:butt;stroke-linejoin:miter;stroke-opacity:1" d="M 362.314,4 395.492,4 z" id="boundary" inkscape:connector-curvature="0" />
	<path style="fill:none;stroke:red;stroke-width:1px;stroke-linecap:butt;stroke-linejoin:miter;stroke-opacity:1" d="M nan,nan nan,nan z" id="boundary" inkscape:connector-curvature="0" />
	<path style="fill:none;stroke:red;stroke-width:1px;stroke-linecap:butt;stroke-linejoin:miter;stroke-opacity:1" d="M -nan,-nan nan,nan z" id="boundary" inkscape:connector-curvature="0" />
	<path style="fill:none;stroke:red;stroke-width:1px;stroke-linecap:butt;stroke-linejoin:miter;stroke-opacity:1" d="M 378.903,445.258 408.763,461.846 z" id="boundary" inkscape:connector-curvature="0" />
	<path style="fill:none;stroke:red;stroke-width:1px;stroke-linecap:butt;stroke-linejoin:miter;stroke-opacity:1" d="M 385.538,830.114 418.716,830.114 z" id="boundary" inkscape:connector-curvature="0" />
	<path style="fill:none;stroke:red;stroke-width:1px;stroke-linecap:butt;stroke-linejoin:miter;stroke-opacity:1" d="M nan,nan nan,nan z" id="boundary" inkscape:connector-curvature="0" />
	<path style="fill:none;stroke:red;stroke-width:1px;stroke-linecap:butt;stroke-linejoin:miter;stroke-opacity:1" d="M nan,nan nan,nan z" id="boundary" inkscape:connector-curvature="0" />
	<path style="fill:none;stroke:red;stroke-width:1px;stroke-linecap:butt;stroke-linejoin:miter;stroke-opacity:1" d="M 395.492,4 428.669,4 z" id="boundary" inkscape:connector-curvature="0" />
	<path style="fill:none;stroke:red;stroke-width:1px;stroke-linecap:butt;stroke-linejoin:miter;stroke-opacity:1" d="M nan,nan nan,nan z" id="boundary" inkscape:connector-curvature="0" />
	<path style="fill:none;stroke:red;stroke-width:1px;stroke-linecap:butt;stroke-linejoin:miter;stroke-opacity:1" d="M nan,nan nan,nan z" id="boundary" inkscape:connector-curvature="0" />
	<path style="fill:none;stroke:red;stroke-width:1px;stroke-linecap:butt;stroke-linejoin:miter;stroke-opacity:1" d="M 408.763,461.846 408.763,495.023 z" id="boundary" inkscape:connector-curvature="0" />
	<path style="fill:none;stroke:red;stroke-width:1px;stroke-linecap:butt;stroke-linejoin:miter;stroke-opacity:1" d="M 418.716,830.114 451.893,830.114 z" id="boundary" inkscape:connector-curvature="0" />
	<path style="fill:none;stroke:red;stroke-width:1px;stroke-linecap:butt;stroke-linejoin:miter;stroke-opacity:1" d="M 428.669,4 461.846,4 z" id="boundary" inkscape:connector-curvature="0" />
	<path style="fill:none;stroke:red;stroke-width:1px;stroke-linecap:butt;stroke-linejoin:miter;stroke-opacity:1" d="M 451.893,830.114 485.07,830.114 z" id="boundary" inkscape:connector-curvature="0" />
	<path style="fill:none;stroke:red;stroke-width:1px;stroke-linecap:butt;stroke-linejoin:miter;stroke-opacity:1" d="M 461.846,4 495.023,4 z" id="boundary" inkscape:connector-curvature="0" />
	<path style="fill:none;stroke:red;stroke-width:1px;stroke-linecap:butt;stroke-linejoin:miter;stroke-opacity:1" d="M 485.07,830.114 518.247,830.114 z" id="boundary" inkscape:connector-curvature="0" />
	<path style="fill:none;stroke:red;stroke-width:1px;stroke-linecap:butt;stroke-linejoin:miter;stroke-opacity:1" d="M 495.023,4 528.201,4 z" id="boundary" inkscape:connector-curvature="0" />
	<path style="fill:none;stroke:red;stroke-width:1px;stroke-linecap:butt;stroke-linejoin:miter;stroke-opacity:1" d="M 518.247,830.114 551.425,830.114 z" id="boundary" inkscape:connector-curvature="0" />
	<path style="fill:none;stroke:red;stroke-width:1px;stroke-linecap:butt;stroke-linejoin:miter;stroke-opacity:1" d="M 528.201,4 561.378,4 z" id="boundary" inkscape:connector-curvature="0" />
	<path style="fill:none;stroke:red;stroke-width:1px;stroke-linecap:butt;stroke-linejoin:miter;stroke-opacity:1" d="M 551.425,830.114 584.602,830.114 z" id="boundary" inkscape:connector-curvature="0" />
	<path style="fill:none;stroke:red;stroke-width:1px;stroke-linecap:butt;stroke-linejoin:miter;stroke-opacity:1" d="M 561.378,4 594.555,4 z" id="boundary" inkscape:connector-curvature="0" />
	<path style="fill:none;stroke:red;stroke-width:1px;stroke-linecap:butt;stroke-linejoin:miter;stroke-opacity:1" d="M 584.602,830.114 617.779,830.114 z" id="boundary" inkscape:connector-curvature="0" />
	<path style="fill:none;stroke:red;stroke-width:1px;stroke-linecap:butt;stroke-linejoin:miter;stroke-opacity:1" d="M 594.555,4 627.732,4 z" id="boundary" inkscape:connector-curvature="0" />
	<path style="fill:none;stroke:red;stroke-width:1px;stroke-linecap:butt;stroke-linejoin:miter;stroke-opacity:1" d="M 604.508,448.575 604.508,481.753 z" id="boundary" inkscape:connector-curvature="0" />
	<path style="fill:none;stroke:red;stroke-width:1px;stroke-linecap:butt;stroke-linejoin:miter;stroke-opacity:1" d="M 604.508,448.575 637.686,445.258 z" id="boundary" inkscape:connector-curvature="0" />
	<path style="fill:none;stroke:red;stroke-width:1px;stroke-linecap:butt;stroke-linejoin:miter;stroke-opacity:1" d="M 604.508,481.753 604.508,548.107 z" id="boundary" inkscape:connector-curvature="0" />
	<path style="fill:none;stroke:red;stroke-width:1px;stroke-linecap:butt;stroke-linejoin:miter;stroke-opacity:1" d="M 604.508,548.107 670.863,554.742 z" id="boundary" inkscape:connector-curvature="0" />
	<path style="fill:none;stroke:red;stroke-width:1px;stroke-linecap:butt;stroke-linejoin:miter;stroke-opacity:1" d="M 604.508,694.087 604.508,727.264 z" id="boundary" inkscape:connector-curvature="0" />
	<path style="fill:none;stroke:red;stroke-width:1px;stroke-linecap:butt;stroke-linejoin:miter;stroke-opacity:1" d="M 604.508,694.087 670.863,660.91 z" id="boundary" inkscape:connector-curvature="0" />
	<path style="fill:none;stroke:red;stroke-width:1px;stroke-linecap:butt;stroke-linejoin:miter;stroke-opacity:1" d="M 604.508,727.264 607.826,760.441 z" id="boundary" inkscape:connector-curvature="0" />
	<path style="fill:none;stroke:red;stroke-width:1px;stroke-linecap:butt;stroke-linejoin:miter;stroke-opacity:1" d="M 607.826,760.441 641.003,760.441 z" id="boundary" inkscape:connector-curvature="0" />
	<path style="fill:none;stroke:red;stroke-width:1px;stroke-linecap:butt;stroke-linejoin:miter;stroke-opacity:1" d="M 617.779,830.114 650.957,830.114 z" id="boundary" inkscape:connector-curvature="0" />
	<path style="fill:none;stroke:red;stroke-width:1px;stroke-linecap:butt;stroke-linejoin:miter;stroke-opacity:1" d="M 627.732,4 660.91,4 z" id="boundary" inkscape:connector-curvature="0" />
	<path style="fill:none;stroke:red;stroke-width:1px;stroke-linecap:butt;stroke-linejoin:miter;stroke-opacity:1" d="M 637.686,445.258 670.863,445.258 z" id="boundary" inkscape:connector-curvature="0" />
	<path style="fill:none;stroke:red;stroke-width:1px;stroke-linecap:butt;stroke-linejoin:miter;stroke-opacity:1" d="M 641.003,760.441 674.181,760.441 z" id="boundary" inkscape:connector-curvature="0" />
	<path style="fill:none;stroke:red;stroke-width:1px;stroke-linecap:butt;stroke-linejoin:miter;stroke-opacity:1" d="M 650.957,830.114 684.134,830.114 z" id="boundary" inkscape:connector-curvature="0" />
	<path style="fill:none;stroke:red;stroke-width:1px;stroke-linecap:butt;stroke-linejoin:miter;stroke-opacity:1" d="M 660.91,4 694.087,4 z" id="boundary" inkscape:connector-curvature="0" />
	<path style="fill:none;stroke:red;stroke-width:1px;stroke-linecap:butt;stroke-linejoin:miter;stroke-opacity:1" d="M 670.863,445.258 704.04,445.258 z" id="boundary" inkscape:connector-curvature="0" />
	<path style="fill:none;stroke:red;stroke-width:1px;stroke-linecap:butt;stroke-linejoin:miter;stroke-opacity:1" d="M 670.863,554.742 720.629,584.602 z" id="boundary" inkscape:connector-curvature="0" />
	<path style="fill:none;stroke:red;stroke-width:1px;stroke-linecap:butt;stroke-linejoin:miter;stroke-opacity:1" d="M 670.863,660.91 720.629,690.769 z" id="boundary" inkscape:connector-curvature="0" />
	<path style="fill:none;stroke:red;stroke-width:1px;stroke-linecap:butt;stroke-linejoin:miter;stroke-opacity:1" d="M 674.181,760.441 707.358,760.441 z" id="boundary" inkscape:connector-curvature="0" />
	<path style="fill:none;stroke:red;stroke-width:1px;stroke-linecap:butt;stroke-linejoin:miter;stroke-opacity:1" d="M 684.134,830.114 717.311,830.114 z" id="boundary" inkscape:connector-curvature="0" />
	<path style="fill:none;stroke:red;stroke-width:1px;stroke-linecap:butt;stroke-linejoin:miter;stroke-opacity:1" d="M 694.087,4 727.264,4 z" id="boundary" inkscape:connector-curvature="0" />
	<path style="fill:none;stroke:red;stroke-width:1px;stroke-linecap:butt;stroke-linejoin:miter;stroke-opacity:1" d="M 704.04,445.258 737.217,445.258 z" id="boundary" inkscape:connector-curvature="0" />
	<path style="fill:none;stroke:red;stroke-width:1px;stroke-linecap:butt;stroke-linejoin:miter;stroke-opacity:1" d="M 707.358,760.441 740.535,760.441 z" id="boundary" inkscape:connector-curvature="0" />
	<path style="fill:none;stroke:red;stroke-width:1px;stroke-linecap:butt;stroke-linejoin:miter;stroke-opacity:1" d="M 717.311,830.114 750.488,830.114 z" id="boundary" inkscape:connector-curvature="0" />
	<path style="fill:none;stroke:red;stroke-width:1px;stroke-linecap:butt;stroke-linejoin:miter;stroke-opacity:1" d="M 720.629,584.602 753.806,584.602 z" id="boundary" inkscape:connector-curvature="0" />
	<path style="fill:none;stroke:red;stroke-width:1px;stroke-linecap:butt;stroke-linejoin:miter;stroke-opacity:1" d="M 720.629,690.769 753.806,690.769 z" id="boundary" inkscape:connector-curvature="0" />
	<path style="fill:none;stroke:red;stroke-width:1px;stroke-linecap:butt;stroke-linejoin:miter;stroke-opacity:1" d="M 727.264,4 760.441,4 z" id="boundary" inkscape:connector-curvature="0" />
	<path style="fill:none;stroke:red;stroke-width:1px;stroke-linecap:butt;stroke-linejoin:miter;stroke-opacity:1" d="M 737.217,445.258 770.395,445.258 z" id="boundary" inkscape:connector-curvature="0" />
	<path style="fill:none;stroke:red;stroke-width:1px;stroke-linecap:butt;stroke-linejoin:miter;stroke-opacity:1" d="M 740.535,760.441 773.712,760.441 z" id="boundary" inkscape:connector-curvature="0" />
	<path style="fill:none;stroke:red;stroke-width:1px;stroke-linecap:butt;stroke-linejoin:miter;stroke-opacity:1" d="M 750.488,830.114 783.666,830.114 z" id="boundary" inkscape:connector-curvature="0" />
	<path style="fill:none;stroke:red;stroke-width:1px;stroke-linecap:butt;stroke-linejoin:miter;stroke-opacity:1" d="M 753.806,584.602 820.161,584.602 z" id="boundary" inkscape:connector-curvature="0" />
	<path style="fill:none;stroke:red;stroke-width:1px;stroke-linecap:butt;stroke-linejoin:miter;stroke-opacity:1" d="M 753.806,690.769 820.161,690.769 z" id="boundary" inkscape:connector-curvature="0" />
	<path style="fill:none;stroke:red;stroke-width:1px;stroke-linecap:butt;stroke-linejoin:miter;stroke-opacity:1" d="M 760.441,4 793.619,4 z" id="boundary" inkscape:connector-curvature="0" />
	<path style="fill:none;stroke:red;stroke-width:1px;stroke-linecap:butt;stroke-linejoin:miter;stroke-opacity:1" d="M 770.395,445.258 803.572,445.258 z" id="boundary" inkscape:connector-curvature="0" />
	<path style="fill:none;stroke:red;stroke-width:1px;stroke-linecap:butt;stroke-linejoin:miter;stroke-opacity:1" d="M 773.712,760.441 806.89,760.441 z" id="boundary" inkscape:connector-curvature="0" />
	<path style="fill:none;stroke:red;stroke-width:1px;stroke-linecap:butt;stroke-linejoin:miter;stroke-opacity:1" d="M 783.666,830.114 816.843,830.114 z" id="boundary" inkscape:connector-curvature="0" />
	<path style="fill:none;stroke:red;stroke-width:1px;stroke-linecap:butt;stroke-linejoin:miter;stroke-opacity:1" d="M 793.619,4 826.796,4 z" id="boundary" inkscape:connector-curvature="0" />
	<path style="fill:none;stroke:red;stroke-width:1px;stroke-linecap:butt;stroke-linejoin:miter;stroke-opacity:1" d="M 803.572,445.258 836.749,445.258 z" id="boundary" inkscape:connector-curvature="0" />
	<path style="fill:none;stroke:red;stroke-width:1px;stroke-linecap:butt;stroke-linejoin:miter;stroke-opacity:1" d="M 806.89,760.441 840.067,760.441 z" id="boundary" inkscape:connector-curvature="0" />
	<path style="fill:none;stroke:red;stroke-width:1px;stroke-linecap:butt;stroke-linejoin:miter;stroke-opacity:1" d="M 816.843,830.114 850.02,830.114 z" id="boundary" inkscape:connector-curvature="0" />
	<path style="fill:none;stroke:red;stroke-width:1px;stroke-linecap:butt;stroke-linejoin:miter;stroke-opacity:1" d="M 820.161,584.602 869.926,554.742 z" id="boundary" inkscape:connector-curvature="0" />
	<path style="fill:none;stroke:red;stroke-width:1px;stroke-linecap:butt;stroke-linejoin:miter;stroke-opacity:1" d="M 820.161,690.769 869.926,660.91 z" id="boundary" inkscape:connector-curvature="0" />
	<path style="fill:none;stroke:red;stroke-width:1px;stroke-linecap:butt;stroke-linejoin:miter;stroke-opacity:1" d="M 826.796,4 859.973,4 z" id="boundary" inkscape:connector-curvature="0" />
	<path style="fill:none;stroke:red;stroke-width:1px;stroke-linecap:butt;stroke-linejoin:miter;stroke-opacity:1" d="M 836.749,445.258 869.926,445.258 z" id="boundary" inkscape:connector-curvature="0" />
	<path style="fill:none;stroke:red;stroke-width:1px;stroke-linecap:butt;stroke-linejoin:miter;stroke-opacity:1" d="M 840.067,760.441 873.244,760.441 z" id="boundary" inkscape:connector-curvature="0" />
	<path style="fill:none;stroke:red;stroke-width:1px;stroke-linecap:butt;stroke-linejoin:miter;stroke-opacity:1" d="M 850.02,830.114 883.197,830.114 z" id="boundary" inkscape:connector-curvature="0" />
	<path style="fill:none;stroke:red;stroke-width:1px;stroke-linecap:butt;stroke-linejoin:miter;stroke-opacity:1" d="M 859.973,4 893.151,10.6355 z" id="boundary" inkscape:connector-curvature="0" />
	<path style="fill:none;stroke:red;stroke-width:1px;stroke-linecap:butt;stroke-linejoin:miter;stroke-opacity:1" d="M 869.926,445.258 896.468,408.763 z" id="boundary" inkscape:connector-curvature="0" />
	<path style="fill:none;stroke:red;stroke-width:1px;stroke-linecap:butt;stroke-linejoin:miter;stroke-opacity:1" d="M 869.926,554.742 903.104,554.742 z" id="boundary" inkscape:connector-curvature="0" />
	<path style="fill:none;stroke:red;stroke-width:1px;stroke-linecap:butt;stroke-linejoin:miter;stroke-opacity:1" d="M 869.926,660.91 919.692,690.769 z" id="boundary" inkscape:connector-curvature="0" />
	<path style="fill:none;stroke:red;stroke-width:1px;stroke-linecap:butt;stroke-linejoin:miter;stroke-opacity:1" d="M 873.244,760.441 906.421,760.441 z" id="boundary" inkscape:connector-curvature="0" />
	<path style="fill:none;stroke:red;stroke-width:1px;stroke-linecap:butt;stroke-linejoin:miter;stroke-opacity:1" d="M 883.197,830.114 916.375,830.114 z" id="boundary" inkscape:connector-curvature="0" />
	<path style="fill:none;stroke:red;stroke-width:1px;stroke-linecap:butt;stroke-linejoin:miter;stroke-opacity:1" d="M 893.151,10.6355 896.468,43.8127 z" id="boundary" inkscape:connector-curvature="0" />
	<path style="fill:none;stroke:red;stroke-width:1px;stroke-linecap:butt;stroke-linejoin:miter;stroke-opacity:1" d="M 896.468,43.8127 896.468,76.99 z" id="boundary" inkscape:connector-curvature="0" />
	<path style="fill:none;stroke:red;stroke-width:1px;stroke-linecap:butt;stroke-linejoin:miter;stroke-opacity:1" d="M 896.468,76.99 896.468,110.167 z" id="boundary" inkscape:connector-curvature="0" />
	<path style="fill:none;stroke:red;stroke-width:1px;stroke-linecap:butt;stroke-linejoin:miter;stroke-opacity:1" d="M 896.468,110.167 896.468,143.344 z" id="boundary" inkscape:connector-curvature="0" />
	<path style="fill:none;stroke:red;stroke-width:1px;stroke-linecap:butt;stroke-linejoin:miter;stroke-opacity:1" d="M 896.468,143.344 896.468,176.522 z" id="boundary" inkscape:connector-curvature="0" />
	<path style="fill:none;stroke:red;stroke-width:1px;stroke-linecap:butt;stroke-linejoin:miter;stroke-opacity:1" d="M 896.468,176.522 896.468,209.699 z" id="boundary" inkscape:connector-curvature="0" />
	<path style="fill:none;stroke:red;stroke-width:1px;stroke-linecap:butt;stroke-linejoin:miter;stroke-opacity:1" d="M 896.468,209.699 896.468,242.876 z" id="boundary" inkscape:connector-curvature="0" />
	<path style="fill:none;stroke:red;stroke-width:1px;stroke-linecap:butt;stroke-linejoin:miter;stroke-opacity:1" d="M 896.468,242.876 896.468,276.054 z" id="boundary" inkscape:connector-curvature="0" />
	<path style="fill:none;stroke:red;stroke-width:1px;stroke-linecap:butt;stroke-linejoin:miter;stroke-opacity:1" d="M 896.468,276.054 896.468,309.231 z" id="boundary" inkscape:connector-curvature="0" />
	<path style="fill:none;stroke:red;stroke-width:1px;stroke-linecap:butt;stroke-linejoin:miter;stroke-opacity:1" d="M 896.468,309.231 896.468,342.408 z" id="boundary" inkscape:connector-curvature="0" />
	<path style="fill:none;stroke:red;stroke-width:1px;stroke-linecap:butt;stroke-linejoin:miter;stroke-opacity:1" d="M 896.468,342.408 896.468,375.585 z" id="boundary" inkscape:connector-curvature="0" />
	<path style="fill:none;stroke:red;stroke-width:1px;stroke-linecap:butt;stroke-linejoin:miter;stroke-opacity:1" d="M 896.468,375.585 896.468,408.763 z" id="boundary" inkscape:connector-curvature="0" />
	<path style="fill:none;stroke:red;stroke-width:1px;stroke-linecap:butt;stroke-linejoin:miter;stroke-opacity:1" d="M 903.104,554.742 919.692,584.602 z" id="boundary" inkscape:connector-curvature="0" />
	<path style="fill:none;stroke:red;stroke-width:1px;stroke-linecap:butt;stroke-linejoin:miter;stroke-opacity:1" d="M 906.421,760.441 939.599,760.441 z" id="boundary" inkscape:connector-curvature="0" />
	<path style="fill:none;stroke:red;stroke-width:1px;stroke-linecap:butt;stroke-linejoin:miter;stroke-opacity:1" d="M 916.375,830.114 949.552,836.749 z" id="boundary" inkscape:connector-curvature="0" />
	<path style="fill:none;stroke:red;stroke-width:1px;stroke-linecap:butt;stroke-linejoin:miter;stroke-opacity:1" d="M 919.692,584.602 919.692,690.769 z" id="boundary" inkscape:connector-curvature="0" />
	<path style="fill:none;stroke:red;stroke-width:1px;stroke-linecap:butt;stroke-linejoin:miter;stroke-opacity:1" d="M 939.599,760.441 972.776,760.441 z" id="boundary" inkscape:connector-curvature="0" />
	<path style="fill:none;stroke:red;stroke-width:1px;stroke-linecap:butt;stroke-linejoin:miter;stroke-opacity:1" d="M 949.552,836.749 982.729,830.114 z" id="boundary" inkscape:connector-curvature="0" />
	<path style="fill:none;stroke:red;stroke-width:1px;stroke-linecap:butt;stroke-linejoin:miter;stroke-opacity:1" d="M 972.776,760.441 996,786.983 z" id="boundary" inkscape:connector-curvature="0" />
	<path style="fill:none;stroke:red;stroke-width:1px;stroke-linecap:butt;stroke-linejoin:miter;stroke-opacity:1" d="M 982.729,830.114 996,786.983 z" id="boundary" inkscape:connector-curvature="0" />
	<circle cx="4" cy="767.077" r="4" fill="#0" id="circle0"/>
	<circle cx="11.4507" cy="799.721" r="4" fill="#0" id="circle1"/>
	<circle cx="20.5886" cy="830.114" r="4" fill="#0" id="circle2"/>
	<circle cx="-nan" cy="-nan" r="4" fill="#0" id="circle3"/>
	<circle cx="53.7659" cy="843.385" r="4" fill="#0" id="circle4"/>
	<circle cx="57.0836" cy="561.378" r="4" fill="#0" id="circle5"/>
	<circle cx="57.0836" cy="660.91" r="4" fill="#0" id="circle6"/>
	<circle cx="70.3545" cy="760.441" r="4" fill="#0" id="circle7"/>
	<circle cx="73.6722" cy="690.769" r="4" fill="#0" id="circle8"/>
	<circle cx="83.6254" cy="584.602" r="4" fill="#0" id="circle9"/>
	<circle cx="86.9431" cy="830.114" r="4" fill="#0" id="circle10"/>
	<circle cx="90.2609" cy="660.91" r="4" fill="#0" id="circle11"/>
	<circle cx="96.8963" cy="17.2709" r="4" fill="#0" id="circle12"/>
	<circle cx="96.8963" cy="50.4482" r="4" fill="#0" id="circle13"/>
	<circle cx="96.8963" cy="83.6254" r="4" fill="#0" id="circle14"/>
	<circle cx="96.8963" cy="116.803" r="4" fill="#0" id="circle15"/>
	<circle cx="96.8963" cy="149.98" r="4" fill="#0" id="circle16"/>
	<circle cx="96.8963" cy="183.157" r="4" fill="#0" id="circle17"/>
	<circle cx="96.8963" cy="216.334" r="4" fill="#0" id="circle18"/>
	<circle cx="96.8963" cy="249.512" r="4" fill="#0" id="circle19"/>
	<circle cx="96.8963" cy="282.689" r="4" fill="#0" id="circle20"/>
	<circle cx="96.8963" cy="315.866" r="4" fill="#0" id="circle21"/>
	<circle cx="96.8963" cy="349.043" r="4" fill="#0" id="circle22"/>
	<circle cx="96.8963" cy="382.221" r="4" fill="#0" id="circle23"/>
	<circle cx="96.8963" cy="415.398" r="4" fill="#0" id="circle24"/>
	<circle cx="100.214" cy="554.742" r="4" fill="#0" id="circle25"/>
	<circle cx="103.532" cy="760.441" r="4" fill="#0" id="circle26"/>
	<circle cx="-nan" cy="-nan" r="4" fill="#0" id="circle27"/>
	<circle cx="113.485" cy="445.258" r="4" fill="#0" id="circle28"/>
	<circle cx="116.803" cy="584.602" r="4" fill="#0" id="circle29"/>
	<circle cx="120.12" cy="830.114" r="4" fill="#0" id="circle30"/>
	<circle cx="123.438" cy="660.91" r="4" fill="#0" id="circle31"/>
	<circle cx="130.074" cy="4" r="4" fill="#0" id="circle32"/>
	<circle cx="133.391" cy="554.742" r="4" fill="#0" id="circle33"/>
	<circle cx="-nan" cy="-nan" r="4" fill="#0" id="circle34"/>
	<circle cx="140.027" cy="690.769" r="4" fill="#0" id="circle35"/>
	<circle cx="146.662" cy="445.258" r="4" fill="#0" id="circle36"/>
	<circle cx="149.98" cy="584.602" r="4" fill="#0" id="circle37"/>
	<circle cx="153.298" cy="830.114" r="4" fill="#0" id="circle38"/>
	<circle cx="156.615" cy="660.91" r="4" fill="#0" id="circle39"/>
	<circle cx="163.251" cy="4" r="4" fill="#0" id="circle40"/>
	<circle cx="166.569" cy="554.742" r="4" fill="#0" id="circle41"/>
	<circle cx="-nan" cy="-nan" r="4" fill="#0" id="circle42"/>
	<circle cx="173.204" cy="690.769" r="4" fill="#0" id="circle43"/>
	<circle cx="179.839" cy="445.258" r="4" fill="#0" id="circle44"/>
	<circle cx="183.157" cy="584.602" r="4" fill="#0" id="circle45"/>
	<circle cx="186.475" cy="830.114" r="4" fill="#0" id="circle46"/>
	<circle cx="189.793" cy="660.91" r="4" fill="#0" id="circle47"/>
	<circle cx="196.428" cy="4" r="4" fill="#0" id="circle48"/>
	<circle cx="199.746" cy="554.742" r="4" fill="#0" id="circle49"/>
	<circle cx="-nan" cy="-nan" r="4" fill="#0" id="circle50"/>
	<circle cx="206.381" cy="690.769" r="4" fill="#0" id="circle51"/>
	<circle cx="213.017" cy="445.258" r="4" fill="#0" id="circle52"/>
	<circle cx="216.334" cy="584.602" r="4" fill="#0" id="circle53"/>
	<circle cx="219.652" cy="830.114" r="4" fill="#0" id="circle54"/>
	<circle cx="222.97" cy="660.91" r="4" fill="#0" id="circle55"/>
	<circle cx="229.605" cy="4" r="4" fill="#0" id="circle56"/>
	<circle cx="232.923" cy="554.742" r="4" fill="#0" id="circle57"/>
	<circle cx="-nan" cy="-nan" r="4" fill="#0" id="circle58"/>
	<circle cx="239.559" cy="690.769" r="4" fill="#0" id="circle59"/>
	<circle cx="246.194" cy="445.258" r="4" fill="#0" id="circle60"/>
	<circle cx="249.512" cy="584.602" r="4" fill="#0" id="circle61"/>
	<circle cx="252.829" cy="830.114" r="4" fill="#0" id="circle62"/>
	<circle cx="256.147" cy="660.91" r="4" fill="#0" id="circle63"/>
	<circle cx="262.783" cy="4" r="4" fill="#0" id="circle64"/>
	<circle cx="266.1" cy="554.742" r="4" fill="#0" id="circle65"/>
	<circle cx="-nan" cy="-nan" r="4" fill="#0" id="circle66"/>
	<circle cx="272.736" cy="690.769" r="4" fill="#0" id="circle67"/>
	<circle cx="279.371" cy="445.258" r="4" fill="#0" id="circle68"/>
	<circle cx="282.689" cy="584.602" r="4" fill="#0" id="circle69"/>
	<circle cx="286.007" cy="830.114" r="4" fill="#0" id="circle70"/>
	<circle cx="289.324" cy="660.91" r="4" fill="#0" id="circle71"/>
	<circle cx="295.96" cy="4" r="4" fill="#0" id="circle72"/>
	<circle cx="299.278" cy="554.742" r="4" fill="#0" id="circle73"/>
	<circle cx="-nan" cy="-nan" r="4" fill="#0" id="circle74"/>
	<circle cx="305.913" cy="690.769" r="4" fill="#0" id="circle75"/>
	<circle cx="312.548" cy="445.258" r="4" fill="#0" id="circle76"/>
	<circle cx="nan" cy="nan" r="4" fill="#0" id="circle77"/>
	<circle cx="319.184" cy="830.114" r="4" fill="#0" id="circle78"/>
	<circle cx="322.502" cy="660.91" r="4" fill="#0" id="circle79"/>
	<circle cx="329.137" cy="4" r="4" fill="#0" id="circle80"/>
	<circle cx="332.455" cy="554.742" r="4" fill="#0" id="circle81"/>
	<circle cx="-nan" cy="-nan" r="4" fill="#0" id="circle82"/>
	<circle cx="339.09" cy="690.769" r="4" fill="#0" id="circle83"/>
	<circle cx="345.726" cy="445.258" r="4" fill="#0" id="circle84"/>
	<circle cx="nan" cy="nan" r="4" fill="#0" id="circle85"/>
	<circle cx="352.361" cy="830.114" r="4" fill="#0" id="circle86"/>
	<circle cx="355.679" cy="660.91" r="4" fill="#0" id="circle87"/>
	<circle cx="362.314" cy="4" r="4" fill="#0" id="circle88"/>
	<circle cx="nan" cy="nan" r="4" fill="#0" id="circle89"/>
	<circle cx="-nan" cy="-nan" r="4" fill="#0" id="circle90"/>
	<circle cx="372.268" cy="690.769" r="4" fill="#0" id="circle91"/>
	<circle cx="378.903" cy="445.258" r="4" fill="#0" id="circle92"/>
	<circle cx="382.221" cy="584.602" r="4" fill="#0" id="circle93"/>
	<circle cx="385.538" cy="830.114" r="4" fill="#0" id="circle94"/>
	<circle cx="nan" cy="nan" r="4" fill="#0" id="circle95"/>
	<circle cx="395.492" cy="4" r="4" fill="#0" id="circle96"/>
	<circle cx="398.809" cy="554.742" r="4" fill="#0" id="circle97"/>
	<circle cx="nan" cy="nan" r="4" fill="#0" id="circle98"/>
	<circle cx="nan" cy="nan" r="4" fill="#0" id="circle99"/>
	<circle cx="408.763" cy="461.846" r="4" fill="#0" id="circle100"/>
	<circle cx="408.763" cy="495.023" r="4" fill="#0" id="circle101"/>
	<circle cx="nan" cy="nan" r="4" fill="#0" id="circle102"/>
	<circle cx="nan" cy="nan" r="4" fill="#0" id="circle103"/>
	<circle cx="418.716" cy="830.114" r="4" fill="#0" id="circle104"/>
	<circle cx="428.669" cy="4" r="4" fill="#0" id="circle105"/>
	<circle cx="451.893" cy="830.114" r="4" fill="#0" id="circle106"/>
	<circle cx="461.846" cy="4" r="4" fill="#0" id="circle107"/>
	<circle cx="485.07" cy="830.114" r="4" fill="#0" id="circle108"/>
	<circle cx="495.023" cy="4" r="4" fill="#0" id="circle109"/>
	<circle cx="518.247" cy="830.114" r="4" fill="#0" id="circle110"/>
	<circle cx="528.201" cy="4" r="4" fill="#0" id="circle111"/>
	<circle cx="551.425" cy="830.114" r="4" fill="#0" id="circle112"/>
	<circle cx="561.378" cy="4" r="4" fill="#0" id="circle113"/>
	<circle cx="584.602" cy="830.114" r="4" fill="#0" id="circle114"/>
	<circle cx="594.555" cy="4" r="4" fill="#0" id="circle115"/>
	<circle cx="604.508" cy="448.575" r="4" fill="#0" id="circle116"/>
	<circle cx="604.508" cy="481.753" r="4" fill="#0" id="circle117"/>
	<circle cx="604.508" cy="514.93" r="4" fill="#0" id="circle118"/>
	<circle cx="604.508" cy="548.107" r="4" fill="#0" id="circle119"/>
	<circle cx="604.508" cy="587.92" r="4" fill="#0" id="circle120"/>
	<circle cx="604.508" cy="621.097" r="4" fill="#0" id="circle121"/>
	<circle cx="604.508" cy="654.274" r="4" fill="#0" id="circle122"/>
	<circle cx="604.508" cy="694.087" r="4" fill="#0" id="circle123"/>
	<circle cx="604.508" cy="727.264" r="4" fill="#0" id="circle124"/>
	<circle cx="607.826" cy="760.441" r="4" fill="#0" id="circle125"/>
	<circle cx="617.779" cy="830.114" r="4" fill="#0" id="circle126"/>
	<circle cx="627.732" cy="4" r="4" fill="#0" id="circle127"/>
	<circle cx="637.686" cy="445.258" r="4" fill="#0" id="circle128"/>
	<circle cx="637.686" cy="554.742" r="4" fill="#0" id="circle129"/>
	<circle cx="637.686" cy="660.91" r="4" fill="#0" id="circle130"/>
	<circle cx="641.003" cy="760.441" r="4" fill="#0" id="circle131"/>
	<circle cx="650.957" cy="830.114" r="4" fill="#0" id="circle132"/>
	<circle cx="654.274" cy="584.602" r="4" fill="#0" id="circle133"/>
	<circle cx="654.274" cy="690.769" r="4" fill="#0" id="circle134"/>
	<circle cx="660.91" cy="4" r="4" fill="#0" id="circle135"/>
	<circle cx="670.863" cy="445.258" r="4" fill="#0" id="circle136"/>
	<circle cx="670.863" cy="554.742" r="4" fill="#0" id="circle137"/>
	<circle cx="670.863" cy="660.91" r="4" fill="#0" id="circle138"/>
	<circle cx="674.181" cy="760.441" r="4" fill="#0" id="circle139"/>
	<circle cx="684.134" cy="830.114" r="4" fill="#0" id="circle140"/>
	<circle cx="687.452" cy="584.602" r="4" fill="#0" id="circle141"/>
	<circle cx="687.452" cy="690.769" r="4" fill="#0" id="circle142"/>
	<circle cx="694.087" cy="4" r="4" fill="#0" id="circle143"/>
	<circle cx="704.04" cy="445.258" r="4" fill="#0" id="circle144"/>
	<circle cx="704.04" cy="554.742" r="4" fill="#0" id="circle145"/>
	<circle cx="704.04" cy="660.91" r="4" fill="#0" id="circle146"/>
	<circle cx="707.358" cy="760.441" r="4" fill="#0" id="circle147"/>
	<circle cx="717.311" cy="830.114" r="4" fill="#0" id="circle148"/>
	<circle cx="720.629" cy="584.602" r="4" fill="#0" id="circle149"/>
	<circle cx="720.629" cy="690.769" r="4" fill="#0" id="circle150"/>
	<circle cx="727.264" cy="4" r="4" fill="#0" id="circle151"/>
	<circle cx="737.217" cy="445.258" r="4" fill="#0" id="circle152"/>
	<circle cx="737.217" cy="554.742" r="4" fill="#0" id="circle153"/>
	<circle cx="737.217" cy="660.91" r="4" fill="#0" id="circle154"/>
	<circle cx="740.535" cy="760.441" r="4" fill="#0" id="circle155"/>
	<circle cx="750.488" cy="830.114" r="4" fill="#0" id="circle156"/>
	<circle cx="753.806" cy="584.602" r="4" fill="#0" id="circle157"/>
	<circle cx="753.806" cy="690.769" r="4" fill="#0" id="circle158"/>
	<circle cx="760.441" cy="4" r="4" fill="#0" id="circle159"/>
	<circle cx="770.395" cy="445.258" r="4" fill="#0" id="circle160"/>
	<circle cx="770.395" cy="554.742" r="4" fill="#0" id="circle161"/>
	<circle cx="770.395" cy="660.91" r="4" fill="#0" id="circle162"/>
	<circle cx="773.712" cy="760.441" r="4" fill="#0" id="circle163"/>
	<circle cx="783.666" cy="830.114" r="4" fill="#0" id="circle164"/>
	<circle cx="786.983" cy="584.602" r="4" fill="#0" id="circle165"/>
	<circle cx="786.983" cy="690.769" r="4" fill="#0" id="circle166"/>
	<circle cx="793.619" cy="4" r="4" fill="#0" id="circle167"/>
	<circle cx="803.572" cy="445.258" r="4" fill="#0" id="circle168"/>
	<circle cx="803.572" cy="554.742" r="4" fill="#0" id="circle169"/>
	<circle cx="803.572" cy="660.91" r="4" fill="#0" id="circle170"/>
	<circle cx="806.89" cy="760.441" r="4" fill="#0" id="circle171"/>
	<circle cx="816.843" cy="830.114" r="4" fill="#0" id="circle172"/>
	<circle cx="820.161" cy="584.602" r="4" fill="#0" id="circle173"/>
	<circle cx="820.161" cy="690.769" r="4" fill="#0" id="circle174"/>
	<circle cx="826.796" cy="4" r="4" fill="#0" id="circle175"/>
	<circle cx="836.749" cy="445.258" r="4" fill="#0" id="circle176"/>
	<circle cx="836.749" cy="554.742" r="4" fill="#0" id="circle177"/>
	<circle cx="836.749" cy="660.91" r="4" fill="#0" id="circle178"/>
	<circle cx="840.067" cy="760.441" r="4" fill="#0" id="circle179"/>
	<circle cx="850.02" cy="830.114" r="4" fill="#0" id="circle180"/>
	<circle cx="853.338" cy="584.602" r="4" fill="#0" id="circle181"/>
	<circle cx="853.338" cy="690.769" r="4" fill="#0" id="circle182"/>
	<circle cx="859.973" cy="4" r="4" fill="#0" id="circle183"/>
	<circle cx="869.926" cy="445.258" r="4" fill="#0" id="circle184"/>
	<circle cx="869.926" cy="554.742" r="4" fill="#0" id="circle185"/>
	<circle cx="869.926" cy="660.91" r="4" fill="#0" id="circle186"/>
	<circle cx="873.244" cy="760.441" r="4" fill="#0" id="circle187"/>
	<circle cx="883.197" cy="830.114" r="4" fill="#0" id="circle188"/>
	<circle cx="886.515" cy="584.602" r="4" fill="#0" id="circle189"/>
	<circle cx="886.515" cy="690.769" r="4" fill="#0" id="circle190"/>
	<circle cx="893.151" cy="10.6355" r="4" fill="#0" id="circle191"/>
	<circle cx="896.468" cy="43.8127" r="4" fill="#0" id="circle192"/>
	<circle cx="896.468" cy="76.99" r="4" fill="#0" id="circle193"/>
	<circle cx="896.468" cy="110.167" r="4" fill="#0" id="circle194"/>
	<circle cx="896.468" cy="143.344" r="4" fill="#0" id="circle195"/>
	<circle cx="896.468" cy="176.522" r="4" fill="#0" id="circle196"/>
	<circle cx="896.468" cy="209.699" r="4" fill="#0" id="circle197"/>
	<circle cx="896.468" cy="242.876" r="4" fill="#0" id="circle198"/>
	<circle cx="896.468" cy="276.054" r="4" fill="#0" id="circle199"/>
	<circle cx="896.468" cy="309.231" r="4" fill="#0" id="circle200"/>
	<circle cx="896.468" cy="342.408" r="4" fill="#0" id="circle201"/>
	<circle cx="896.468" cy="375.585" r="4" fill="#0" id="circle202"/>
	<circle cx="896.468" cy="408.763" r="4" fill="#0" id="circle203"/>
	<circle cx="903.104" cy="554.742" r="4" fill="#0" id="circle204"/>
	<circle cx="903.104" cy="660.91" r="4" fill="#0" id="circle205"/>
	<circle cx="906.421" cy="760.441" r="4" fill="#0" id="circle206"/>
	<circle cx="916.375" cy="830.114" r="4" fill="#0" id="circle207"/>
	<circle cx="919.692" cy="584.602" r="4" fill="#0" id="circle208"/>
	<circle cx="919.692" cy="690.769" r="4" fill="#0" id="circle209"/>
	<circle cx="939.599" cy="760.441" r="4" fill="#0" id="circle210"/>
	<circle cx="949.552" cy="836.749" r="4" fill="#0" id="circle211"/>
	<circle cx="972.776" cy="760.441" r="4" fill="#0" id="circle212"/>
	<circle cx="982.729" cy="830.114" r="4" fill="#0" id="circle213"/>
	<circle cx="996" cy="786.983" r="4" fill="#0" id="circle214"/>
	</g>
</svg>