<?xml version="1.0" encoding="UTF-8" standalone="no"?>
<!-- Created with CurveBenchmark -->
<svg
	xmlns:dc="http://purl.org/dc/elements/1.1/"
	xmlns:cc="http://creativecommons.org/ns#"
	xmlns:rdf="http://www.w3.org/1999/02/22-rdf-syntax-ns#"
	xmlns:svg="http://www.w3.org/2000/svg"
	xmlns="http://www.w3.org/2000/svg"
	xmlns:sodipodi="http://sodipodi.sourceforge.net/DTD/sodipodi-0.dtd"
	xmlns:inkscape="http://www.inkscape.org/namespaces/inkscape"
	width="1000"
	height="1000"
	id="svg2"
	version="1.1"
	sodipodi:docname="manifold/stretchdenoise-guitar320.png.txt">
<defs
	id="defs4" />
<metadata
	id="metadata7">
	<rdf:RDF>
		<cc:Work
			rdf:about="">
			<dc:format>image/svg+xml</dc:format>
			<dc:type
				rdf:resource="http://purl.org/dc/dcmitype/StillImage" />
			<dc:title></dc:title>
		</cc:Work>
	</rdf:RDF>
</metadata>
<g
	inkscape:label="Layer 1"
	inkscape:groupmode="layer"
	id="layer1">
	<path style="fill:none;stroke:red;stroke-width:1px;stroke-linecap:butt;stroke-linejoin:miter;stroke-opacity:1" d="M 4,818.654 19.4956,885.614 z" id="boundary" inkscape:connector-curvature="0" />
	<path style="fill:none;stroke:red;stroke-width:1px;stroke-linecap:butt;stroke-linejoin:miter;stroke-opacity:1" d="M 4,818.654 84.6809,589.774 z" id="boundary" inkscape:connector-curvature="0" />
	<path style="fill:none;stroke:red;stroke-width:1px;stroke-linecap:butt;stroke-linejoin:miter;stroke-opacity:1" d="M 19.4956,885.614 79.7353,972.426 z" id="boundary" inkscape:connector-curvature="0" />
	<path style="fill:none;stroke:red;stroke-width:1px;stroke-linecap:butt;stroke-linejoin:miter;stroke-opacity:1" d="M 84.6809,589.774 141.645,392.165 z" id="boundary" inkscape:connector-curvature="0" />
	<path style="fill:none;stroke:red;stroke-width:1px;stroke-linecap:butt;stroke-linejoin:miter;stroke-opacity:1" d="M 79.7353,972.426 149.725,991.689 z" id="boundary" inkscape:connector-curvature="0" />
	<path style="fill:none;stroke:red;stroke-width:1px;stroke-linecap:butt;stroke-linejoin:miter;stroke-opacity:1" d="M 166.162,218.123 141.645,392.165 z" id="boundary" inkscape:connector-curvature="0" />
	<path style="fill:none;stroke:red;stroke-width:1px;stroke-linecap:butt;stroke-linejoin:miter;stroke-opacity:1" d="M 166.162,218.123 157.153,4 z" id="boundary" inkscape:connector-curvature="0" />
	<path style="fill:none;stroke:red;stroke-width:1px;stroke-linecap:butt;stroke-linejoin:miter;stroke-opacity:1" d="M 149.725,991.689 220.286,991.391 z" id="boundary" inkscape:connector-curvature="0" />
	<path style="fill:none;stroke:red;stroke-width:1px;stroke-linecap:butt;stroke-linejoin:miter;stroke-opacity:1" d="M 157.153,4 331.925,726.953 z" id="boundary" inkscape:connector-curvature="0" />
	<path style="fill:none;stroke:red;stroke-width:1px;stroke-linecap:butt;stroke-linejoin:miter;stroke-opacity:1" d="M 220.286,991.391 289.28,973.93 z" id="boundary" inkscape:connector-curvature="0" />
	<path style="fill:none;stroke:red;stroke-width:1px;stroke-linecap:butt;stroke-linejoin:miter;stroke-opacity:1" d="M 289.28,973.93 318.134,950.834 z" id="boundary" inkscape:connector-curvature="0" />
	<path style="fill:none;stroke:red;stroke-width:1px;stroke-linecap:butt;stroke-linejoin:miter;stroke-opacity:1" d="M 318.134,950.834 357.365,891.581 z" id="boundary" inkscape:connector-curvature="0" />
	<path style="fill:none;stroke:red;stroke-width:1px;stroke-linecap:butt;stroke-linejoin:miter;stroke-opacity:1" d="M 331.925,726.953 358.515,793.64 z" id="boundary" inkscape:connector-curvature="0" />
	<path style="fill:none;stroke:red;stroke-width:1px;stroke-linecap:butt;stroke-linejoin:miter;stroke-opacity:1" d="M 357.365,891.581 358.515,793.64 z" id="boundary" inkscape:connector-curvature="0" />
	<circle cx="4" cy="818.654" r="4" fill="#0" id="circle0"/>
	<circle cx="6.89781" cy="852.748" r="4" fill="#0" id="circle1"/>
	<circle cx="13.8857" cy="782.869" r="4" fill="#0" id="circle2"/>
	<circle cx="19.4956" cy="885.614" r="4" fill="#0" id="circle3"/>
	<circle cx="27.8615" cy="922.627" r="4" fill="#0" id="circle4"/>
	<circle cx="31.3554" cy="751.424" r="4" fill="#0" id="circle5"/>
	<circle cx="84.6809" cy="589.774" r="4" fill="#0" id="circle6"/>
	<circle cx="48.8252" cy="608.172" r="4" fill="#0" id="circle7"/>
	<circle cx="48.8252" cy="712.99" r="4" fill="#0" id="circle8"/>
	<circle cx="52.3191" cy="950.579" r="4" fill="#0" id="circle9"/>
	<circle cx="55.8131" cy="538.293" r="4" fill="#0" id="circle10"/>
	<circle cx="59.307" cy="643.111" r="4" fill="#0" id="circle11"/>
	<circle cx="62.801" cy="678.051" r="4" fill="#0" id="circle12"/>
	<circle cx="79.7353" cy="972.426" r="4" fill="#0" id="circle13"/>
	<circle cx="83.7647" cy="510.341" r="4" fill="#0" id="circle14"/>
	<circle cx="115.21" cy="982.024" r="4" fill="#0" id="circle15"/>
	<circle cx="118.704" cy="503.353" r="4" fill="#0" id="circle16"/>
	<circle cx="132.68" cy="98.0553" r="4" fill="#0" id="circle17"/>
	<circle cx="166.162" cy="218.123" r="4" fill="#0" id="circle18"/>
	<circle cx="132.68" cy="251.789" r="4" fill="#0" id="circle19"/>
	<circle cx="132.68" cy="286.729" r="4" fill="#0" id="circle20"/>
	<circle cx="132.68" cy="321.668" r="4" fill="#0" id="circle21"/>
	<circle cx="132.68" cy="356.607" r="4" fill="#0" id="circle22"/>
	<circle cx="141.645" cy="392.165" r="4" fill="#0" id="circle23"/>
	<circle cx="132.68" cy="426.486" r="4" fill="#0" id="circle24"/>
	<circle cx="132.68" cy="461.426" r="4" fill="#0" id="circle25"/>
	<circle cx="139.668" cy="132.995" r="4" fill="#0" id="circle26"/>
	<circle cx="139.668" cy="167.934" r="4" fill="#0" id="circle27"/>
	<circle cx="146.656" cy="35.1643" r="4" fill="#0" id="circle28"/>
	<circle cx="149.725" cy="991.689" r="4" fill="#0" id="circle29"/>
	<circle cx="157.153" cy="4" r="4" fill="#0" id="circle30"/>
	<circle cx="178.101" cy="139.983" r="4" fill="#0" id="circle31"/>
	<circle cx="178.101" cy="174.922" r="4" fill="#0" id="circle32"/>
	<circle cx="178.101" cy="209.862" r="4" fill="#0" id="circle33"/>
	<circle cx="178.101" cy="244.801" r="4" fill="#0" id="circle34"/>
	<circle cx="185.089" cy="279.741" r="4" fill="#0" id="circle35"/>
	<circle cx="185.089" cy="314.68" r="4" fill="#0" id="circle36"/>
	<circle cx="185.089" cy="349.62" r="4" fill="#0" id="circle37"/>
	<circle cx="185.089" cy="384.559" r="4" fill="#0" id="circle38"/>
	<circle cx="185.089" cy="419.499" r="4" fill="#0" id="circle39"/>
	<circle cx="185.089" cy="454.438" r="4" fill="#0" id="circle40"/>
	<circle cx="185.089" cy="996" r="4" fill="#0" id="circle41"/>
	<circle cx="199.065" cy="84.0795" r="4" fill="#0" id="circle42"/>
	<circle cx="206.053" cy="49.1401" r="4" fill="#0" id="circle43"/>
	<circle cx="206.053" cy="482.39" r="4" fill="#0" id="circle44"/>
	<circle cx="209.547" cy="14.2006" r="4" fill="#0" id="circle45"/>
	<circle cx="220.286" cy="991.391" r="4" fill="#0" id="circle46"/>
	<circle cx="240.992" cy="496.365" r="4" fill="#0" id="circle47"/>
	<circle cx="240.992" cy="531.305" r="4" fill="#0" id="circle48"/>
	<circle cx="254.968" cy="985.518" r="4" fill="#0" id="circle49"/>
	<circle cx="275.932" cy="545.281" r="4" fill="#0" id="circle50"/>
	<circle cx="289.28" cy="973.93" r="4" fill="#0" id="circle51"/>
	<circle cx="310.871" cy="545.281" r="4" fill="#0" id="circle52"/>
	<circle cx="310.871" cy="657.087" r="4" fill="#0" id="circle53"/>
	<circle cx="317.859" cy="692.027" r="4" fill="#0" id="circle54"/>
	<circle cx="318.134" cy="950.834" r="4" fill="#0" id="circle55"/>
	<circle cx="324.847" cy="622.148" r="4" fill="#0" id="circle56"/>
	<circle cx="331.835" cy="573.232" r="4" fill="#0" id="circle57"/>
	<circle cx="331.925" cy="726.953" r="4" fill="#0" id="circle58"/>
	<circle cx="338.823" cy="922.627" r="4" fill="#0" id="circle59"/>
	<circle cx="349.305" cy="758.412" r="4" fill="#0" id="circle60"/>
	<circle cx="357.365" cy="891.581" r="4" fill="#0" id="circle61"/>
	<circle cx="358.515" cy="793.64" r="4" fill="#0" id="circle62"/>
	<circle cx="366.774" cy="828.29" r="4" fill="#0" id="circle63"/>
	</g>
</svg>