<?xml version="1.0" encoding="UTF-8" standalone="no"?>
<!-- Created with CurveBenchmark -->
<svg
	xmlns:dc="http://purl.org/dc/elements/1.1/"
	xmlns:cc="http://creativecommons.org/ns#"
	xmlns:rdf="http://www.w3.org/1999/02/22-rdf-syntax-ns#"
	xmlns:svg="http://www.w3.org/2000/svg"
	xmlns="http://www.w3.org/2000/svg"
	xmlns:sodipodi="http://sodipodi.sourceforge.net/DTD/sodipodi-0.dtd"
	xmlns:inkscape="http://www.inkscape.org/namespaces/inkscape"
	width="1000"
	height="1000"
	id="svg2"
	version="1.1"
	sodipodi:docname="manifold/stretchdenoise-fish015.png.txt">
<defs
	id="defs4" />
<metadata
	id="metadata7">
	<rdf:RDF>
		<cc:Work
			rdf:about="">
			<dc:format>image/svg+xml</dc:format>
			<dc:type
				rdf:resource="http://purl.org/dc/dcmitype/StillImage" />
			<dc:title></dc:title>
		</cc:Work>
	</rdf:RDF>
</metadata>
<g
	inkscape:label="Layer 1"
	inkscape:groupmode="layer"
	id="layer1">
	<path style="fill:none;stroke:red;stroke-width:1px;stroke-linecap:butt;stroke-linejoin:miter;stroke-opacity:1" d="M 4,223.195 20.8612,200.714 z" id="boundary" inkscape:connector-curvature="0" />
	<path style="fill:none;stroke:red;stroke-width:1px;stroke-linecap:butt;stroke-linejoin:miter;stroke-opacity:1" d="M 4,223.195 20.8612,245.677 z" id="boundary" inkscape:connector-curvature="0" />
	<path style="fill:none;stroke:red;stroke-width:1px;stroke-linecap:butt;stroke-linejoin:miter;stroke-opacity:1" d="M 20.8612,200.714 48.7843,189.026 z" id="boundary" inkscape:connector-curvature="0" />
	<path style="fill:none;stroke:red;stroke-width:1px;stroke-linecap:butt;stroke-linejoin:miter;stroke-opacity:1" d="M 20.8612,245.677 40.5326,268.159 z" id="boundary" inkscape:connector-curvature="0" />
	<path style="fill:none;stroke:red;stroke-width:1px;stroke-linecap:butt;stroke-linejoin:miter;stroke-opacity:1" d="M 40.5326,268.159 63.0142,287.83 z" id="boundary" inkscape:connector-curvature="0" />
	<path style="fill:none;stroke:red;stroke-width:1px;stroke-linecap:butt;stroke-linejoin:miter;stroke-opacity:1" d="M 48.7843,189.026 77.2277,178.639 z" id="boundary" inkscape:connector-curvature="0" />
	<path style="fill:none;stroke:red;stroke-width:1px;stroke-linecap:butt;stroke-linejoin:miter;stroke-opacity:1" d="M 63.0142,287.83 85.4958,304.691 z" id="boundary" inkscape:connector-curvature="0" />
	<path style="fill:none;stroke:red;stroke-width:1px;stroke-linecap:butt;stroke-linejoin:miter;stroke-opacity:1" d="M 77.2277,178.639 105.167,166.991 z" id="boundary" inkscape:connector-curvature="0" />
	<path style="fill:none;stroke:red;stroke-width:1px;stroke-linecap:butt;stroke-linejoin:miter;stroke-opacity:1" d="M 85.4958,304.691 107.977,321.552 z" id="boundary" inkscape:connector-curvature="0" />
	<path style="fill:none;stroke:red;stroke-width:1px;stroke-linecap:butt;stroke-linejoin:miter;stroke-opacity:1" d="M 105.167,166.991 130.459,152.94 z" id="boundary" inkscape:connector-curvature="0" />
	<path style="fill:none;stroke:red;stroke-width:1px;stroke-linecap:butt;stroke-linejoin:miter;stroke-opacity:1" d="M 107.977,321.552 136.079,332.793 z" id="boundary" inkscape:connector-curvature="0" />
	<path style="fill:none;stroke:red;stroke-width:1px;stroke-linecap:butt;stroke-linejoin:miter;stroke-opacity:1" d="M 130.459,152.94 158.561,141.7 z" id="boundary" inkscape:connector-curvature="0" />
	<path style="fill:none;stroke:red;stroke-width:1px;stroke-linecap:butt;stroke-linejoin:miter;stroke-opacity:1" d="M 136.079,332.793 164.181,338.414 z" id="boundary" inkscape:connector-curvature="0" />
	<path style="fill:none;stroke:red;stroke-width:1px;stroke-linecap:butt;stroke-linejoin:miter;stroke-opacity:1" d="M 158.561,141.7 186.663,133.269 z" id="boundary" inkscape:connector-curvature="0" />
	<path style="fill:none;stroke:red;stroke-width:1px;stroke-linecap:butt;stroke-linejoin:miter;stroke-opacity:1" d="M 164.181,338.414 195.536,341.522 z" id="boundary" inkscape:connector-curvature="0" />
	<path style="fill:none;stroke:red;stroke-width:1px;stroke-linecap:butt;stroke-linejoin:miter;stroke-opacity:1" d="M 186.663,133.269 214.765,122.028 z" id="boundary" inkscape:connector-curvature="0" />
	<path style="fill:none;stroke:red;stroke-width:1px;stroke-linecap:butt;stroke-linejoin:miter;stroke-opacity:1" d="M 195.536,341.522 217.133,369.027 z" id="boundary" inkscape:connector-curvature="0" />
	<path style="fill:none;stroke:red;stroke-width:1px;stroke-linecap:butt;stroke-linejoin:miter;stroke-opacity:1" d="M 214.765,122.028 242.867,113.598 z" id="boundary" inkscape:connector-curvature="0" />
	<path style="fill:none;stroke:red;stroke-width:1px;stroke-linecap:butt;stroke-linejoin:miter;stroke-opacity:1" d="M 217.133,369.027 248.487,372.136 z" id="boundary" inkscape:connector-curvature="0" />
	<path style="fill:none;stroke:red;stroke-width:1px;stroke-linecap:butt;stroke-linejoin:miter;stroke-opacity:1" d="M 242.867,113.598 270.969,107.977 z" id="boundary" inkscape:connector-curvature="0" />
	<path style="fill:none;stroke:red;stroke-width:1px;stroke-linecap:butt;stroke-linejoin:miter;stroke-opacity:1" d="M 248.487,372.136 276.589,372.136 z" id="boundary" inkscape:connector-curvature="0" />
	<path style="fill:none;stroke:red;stroke-width:1px;stroke-linecap:butt;stroke-linejoin:miter;stroke-opacity:1" d="M 270.969,107.977 299.071,88.3059 z" id="boundary" inkscape:connector-curvature="0" />
	<path style="fill:none;stroke:red;stroke-width:1px;stroke-linecap:butt;stroke-linejoin:miter;stroke-opacity:1" d="M 276.589,372.136 296.261,394.618 z" id="boundary" inkscape:connector-curvature="0" />
	<path style="fill:none;stroke:red;stroke-width:1px;stroke-linecap:butt;stroke-linejoin:miter;stroke-opacity:1" d="M 296.261,60.204 299.071,88.3059 z" id="boundary" inkscape:connector-curvature="0" />
	<path style="fill:none;stroke:red;stroke-width:1px;stroke-linecap:butt;stroke-linejoin:miter;stroke-opacity:1" d="M 296.261,60.204 324.363,48.9632 z" id="boundary" inkscape:connector-curvature="0" />
	<path style="fill:none;stroke:red;stroke-width:1px;stroke-linecap:butt;stroke-linejoin:miter;stroke-opacity:1" d="M 296.261,394.618 307.501,422.72 z" id="boundary" inkscape:connector-curvature="0" />
	<path style="fill:none;stroke:red;stroke-width:1px;stroke-linecap:butt;stroke-linejoin:miter;stroke-opacity:1" d="M 307.501,422.72 324.363,445.201 z" id="boundary" inkscape:connector-curvature="0" />
	<path style="fill:none;stroke:red;stroke-width:1px;stroke-linecap:butt;stroke-linejoin:miter;stroke-opacity:1" d="M 324.363,48.9632 338.414,23.6714 z" id="boundary" inkscape:connector-curvature="0" />
	<path style="fill:none;stroke:red;stroke-width:1px;stroke-linecap:butt;stroke-linejoin:miter;stroke-opacity:1" d="M 324.363,445.201 346.844,462.062 z" id="boundary" inkscape:connector-curvature="0" />
	<path style="fill:none;stroke:red;stroke-width:1px;stroke-linecap:butt;stroke-linejoin:miter;stroke-opacity:1" d="M 338.414,23.6714 360.895,4 z" id="boundary" inkscape:connector-curvature="0" />
	<path style="fill:none;stroke:red;stroke-width:1px;stroke-linecap:butt;stroke-linejoin:miter;stroke-opacity:1" d="M 346.844,462.062 374.946,473.303 z" id="boundary" inkscape:connector-curvature="0" />
	<path style="fill:none;stroke:red;stroke-width:1px;stroke-linecap:butt;stroke-linejoin:miter;stroke-opacity:1" d="M 360.895,4 388.997,9.6204 z" id="boundary" inkscape:connector-curvature="0" />
	<path style="fill:none;stroke:red;stroke-width:1px;stroke-linecap:butt;stroke-linejoin:miter;stroke-opacity:1" d="M 374.946,473.303 403.048,467.683 z" id="boundary" inkscape:connector-curvature="0" />
	<path style="fill:none;stroke:red;stroke-width:1px;stroke-linecap:butt;stroke-linejoin:miter;stroke-opacity:1" d="M 388.997,9.6204 411.479,26.4816 z" id="boundary" inkscape:connector-curvature="0" />
	<path style="fill:none;stroke:red;stroke-width:1px;stroke-linecap:butt;stroke-linejoin:miter;stroke-opacity:1" d="M 403.048,467.683 428.697,463.46 z" id="boundary" inkscape:connector-curvature="0" />
	<path style="fill:none;stroke:red;stroke-width:1px;stroke-linecap:butt;stroke-linejoin:miter;stroke-opacity:1" d="M 411.479,26.4816 439.581,34.9122 z" id="boundary" inkscape:connector-curvature="0" />
	<path style="fill:none;stroke:red;stroke-width:1px;stroke-linecap:butt;stroke-linejoin:miter;stroke-opacity:1" d="M 428.697,463.46 448.068,445.237 z" id="boundary" inkscape:connector-curvature="0" />
	<path style="fill:none;stroke:red;stroke-width:1px;stroke-linecap:butt;stroke-linejoin:miter;stroke-opacity:1" d="M 439.581,34.9122 467.683,43.3428 z" id="boundary" inkscape:connector-curvature="0" />
	<path style="fill:none;stroke:red;stroke-width:1px;stroke-linecap:butt;stroke-linejoin:miter;stroke-opacity:1" d="M 453.788,371.447 448.935,393.732 z" id="boundary" inkscape:connector-curvature="0" />
	<path style="fill:none;stroke:red;stroke-width:1px;stroke-linecap:butt;stroke-linejoin:miter;stroke-opacity:1" d="M 453.788,371.447 470.493,366.516 z" id="boundary" inkscape:connector-curvature="0" />
	<path style="fill:none;stroke:red;stroke-width:1px;stroke-linecap:butt;stroke-linejoin:miter;stroke-opacity:1" d="M 448.068,445.237 448.935,393.732 z" id="boundary" inkscape:connector-curvature="0" />
	<path style="fill:none;stroke:red;stroke-width:1px;stroke-linecap:butt;stroke-linejoin:miter;stroke-opacity:1" d="M 467.683,43.3428 492.975,57.3937 z" id="boundary" inkscape:connector-curvature="0" />
	<path style="fill:none;stroke:red;stroke-width:1px;stroke-linecap:butt;stroke-linejoin:miter;stroke-opacity:1" d="M 470.493,366.516 498.595,360.895 z" id="boundary" inkscape:connector-curvature="0" />
	<path style="fill:none;stroke:red;stroke-width:1px;stroke-linecap:butt;stroke-linejoin:miter;stroke-opacity:1" d="M 492.975,57.3937 521.076,65.8244 z" id="boundary" inkscape:connector-curvature="0" />
	<path style="fill:none;stroke:red;stroke-width:1px;stroke-linecap:butt;stroke-linejoin:miter;stroke-opacity:1" d="M 498.595,360.895 526.697,348.477 z" id="boundary" inkscape:connector-curvature="0" />
	<path style="fill:none;stroke:red;stroke-width:1px;stroke-linecap:butt;stroke-linejoin:miter;stroke-opacity:1" d="M 521.076,65.8244 546.368,79.8753 z" id="boundary" inkscape:connector-curvature="0" />
	<path style="fill:none;stroke:red;stroke-width:1px;stroke-linecap:butt;stroke-linejoin:miter;stroke-opacity:1" d="M 526.697,348.477 554.799,360.895 z" id="boundary" inkscape:connector-curvature="0" />
	<path style="fill:none;stroke:red;stroke-width:1px;stroke-linecap:butt;stroke-linejoin:miter;stroke-opacity:1" d="M 546.368,79.8753 568.85,99.5467 z" id="boundary" inkscape:connector-curvature="0" />
	<path style="fill:none;stroke:red;stroke-width:1px;stroke-linecap:butt;stroke-linejoin:miter;stroke-opacity:1" d="M 554.799,360.895 582.901,358.084 z" id="boundary" inkscape:connector-curvature="0" />
	<path style="fill:none;stroke:red;stroke-width:1px;stroke-linecap:butt;stroke-linejoin:miter;stroke-opacity:1" d="M 568.85,99.5467 596.952,105.167 z" id="boundary" inkscape:connector-curvature="0" />
	<path style="fill:none;stroke:red;stroke-width:1px;stroke-linecap:butt;stroke-linejoin:miter;stroke-opacity:1" d="M 582.901,358.084 611.003,355.275 z" id="boundary" inkscape:connector-curvature="0" />
	<path style="fill:none;stroke:red;stroke-width:1px;stroke-linecap:butt;stroke-linejoin:miter;stroke-opacity:1" d="M 596.952,105.167 625.054,93.9263 z" id="boundary" inkscape:connector-curvature="0" />
	<path style="fill:none;stroke:red;stroke-width:1px;stroke-linecap:butt;stroke-linejoin:miter;stroke-opacity:1" d="M 611.003,355.275 639.105,358.085 z" id="boundary" inkscape:connector-curvature="0" />
	<path style="fill:none;stroke:red;stroke-width:1px;stroke-linecap:butt;stroke-linejoin:miter;stroke-opacity:1" d="M 625.054,93.9263 653.156,82.6855 z" id="boundary" inkscape:connector-curvature="0" />
	<path style="fill:none;stroke:red;stroke-width:1px;stroke-linecap:butt;stroke-linejoin:miter;stroke-opacity:1" d="M 639.105,358.085 666.997,367.215 z" id="boundary" inkscape:connector-curvature="0" />
	<path style="fill:none;stroke:red;stroke-width:1px;stroke-linecap:butt;stroke-linejoin:miter;stroke-opacity:1" d="M 653.156,82.6855 681.258,82.6855 z" id="boundary" inkscape:connector-curvature="0" />
	<path style="fill:none;stroke:red;stroke-width:1px;stroke-linecap:butt;stroke-linejoin:miter;stroke-opacity:1" d="M 666.997,367.215 695.309,374.946 z" id="boundary" inkscape:connector-curvature="0" />
	<path style="fill:none;stroke:red;stroke-width:1px;stroke-linecap:butt;stroke-linejoin:miter;stroke-opacity:1" d="M 681.258,82.6855 706.55,96.7366 z" id="boundary" inkscape:connector-curvature="0" />
	<path style="fill:none;stroke:red;stroke-width:1px;stroke-linecap:butt;stroke-linejoin:miter;stroke-opacity:1" d="M 695.309,374.946 723.411,377.756 z" id="boundary" inkscape:connector-curvature="0" />
	<path style="fill:none;stroke:red;stroke-width:1px;stroke-linecap:butt;stroke-linejoin:miter;stroke-opacity:1" d="M 706.55,96.7366 729.031,116.408 z" id="boundary" inkscape:connector-curvature="0" />
	<path style="fill:none;stroke:red;stroke-width:1px;stroke-linecap:butt;stroke-linejoin:miter;stroke-opacity:1" d="M 723.411,377.756 751.513,372.136 z" id="boundary" inkscape:connector-curvature="0" />
	<path style="fill:none;stroke:red;stroke-width:1px;stroke-linecap:butt;stroke-linejoin:miter;stroke-opacity:1" d="M 729.031,116.408 751.513,136.079 z" id="boundary" inkscape:connector-curvature="0" />
	<path style="fill:none;stroke:red;stroke-width:1px;stroke-linecap:butt;stroke-linejoin:miter;stroke-opacity:1" d="M 751.513,136.079 771.184,158.561 z" id="boundary" inkscape:connector-curvature="0" />
	<path style="fill:none;stroke:red;stroke-width:1px;stroke-linecap:butt;stroke-linejoin:miter;stroke-opacity:1" d="M 751.513,372.136 765.564,346.844 z" id="boundary" inkscape:connector-curvature="0" />
	<path style="fill:none;stroke:red;stroke-width:1px;stroke-linecap:butt;stroke-linejoin:miter;stroke-opacity:1" d="M 765.564,346.844 776.805,318.742 z" id="boundary" inkscape:connector-curvature="0" />
	<path style="fill:none;stroke:red;stroke-width:1px;stroke-linecap:butt;stroke-linejoin:miter;stroke-opacity:1" d="M 771.184,158.561 788.045,181.043 z" id="boundary" inkscape:connector-curvature="0" />
	<path style="fill:none;stroke:red;stroke-width:1px;stroke-linecap:butt;stroke-linejoin:miter;stroke-opacity:1" d="M 776.805,318.742 782.425,285.02 z" id="boundary" inkscape:connector-curvature="0" />
	<path style="fill:none;stroke:red;stroke-width:1px;stroke-linecap:butt;stroke-linejoin:miter;stroke-opacity:1" d="M 782.425,285.02 810.527,282.21 z" id="boundary" inkscape:connector-curvature="0" />
	<path style="fill:none;stroke:red;stroke-width:1px;stroke-linecap:butt;stroke-linejoin:miter;stroke-opacity:1" d="M 788.045,181.043 816.147,189.473 z" id="boundary" inkscape:connector-curvature="0" />
	<path style="fill:none;stroke:red;stroke-width:1px;stroke-linecap:butt;stroke-linejoin:miter;stroke-opacity:1" d="M 810.527,282.21 838.629,293.45 z" id="boundary" inkscape:connector-curvature="0" />
	<path style="fill:none;stroke:red;stroke-width:1px;stroke-linecap:butt;stroke-linejoin:miter;stroke-opacity:1" d="M 816.147,189.473 844.249,175.422 z" id="boundary" inkscape:connector-curvature="0" />
	<path style="fill:none;stroke:red;stroke-width:1px;stroke-linecap:butt;stroke-linejoin:miter;stroke-opacity:1" d="M 838.629,293.45 861.11,310.312 z" id="boundary" inkscape:connector-curvature="0" />
	<path style="fill:none;stroke:red;stroke-width:1px;stroke-linecap:butt;stroke-linejoin:miter;stroke-opacity:1" d="M 844.249,175.422 869.541,161.371 z" id="boundary" inkscape:connector-curvature="0" />
	<path style="fill:none;stroke:red;stroke-width:1px;stroke-linecap:butt;stroke-linejoin:miter;stroke-opacity:1" d="M 861.11,310.312 886.432,324.31 z" id="boundary" inkscape:connector-curvature="0" />
	<path style="fill:none;stroke:red;stroke-width:1px;stroke-linecap:butt;stroke-linejoin:miter;stroke-opacity:1" d="M 869.541,161.371 899.986,155.988 z" id="boundary" inkscape:connector-curvature="0" />
	<path style="fill:none;stroke:red;stroke-width:1px;stroke-linecap:butt;stroke-linejoin:miter;stroke-opacity:1" d="M 886.432,324.31 911.694,338.414 z" id="boundary" inkscape:connector-curvature="0" />
	<path style="fill:none;stroke:red;stroke-width:1px;stroke-linecap:butt;stroke-linejoin:miter;stroke-opacity:1" d="M 899.986,155.988 925.745,138.889 z" id="boundary" inkscape:connector-curvature="0" />
	<path style="fill:none;stroke:red;stroke-width:1px;stroke-linecap:butt;stroke-linejoin:miter;stroke-opacity:1" d="M 911.694,338.414 939.555,345.238 z" id="boundary" inkscape:connector-curvature="0" />
	<path style="fill:none;stroke:red;stroke-width:1px;stroke-linecap:butt;stroke-linejoin:miter;stroke-opacity:1" d="M 925.745,138.889 952.61,127.083 z" id="boundary" inkscape:connector-curvature="0" />
	<path style="fill:none;stroke:red;stroke-width:1px;stroke-linecap:butt;stroke-linejoin:miter;stroke-opacity:1" d="M 939.555,345.238 967.898,349.654 z" id="boundary" inkscape:connector-curvature="0" />
	<path style="fill:none;stroke:red;stroke-width:1px;stroke-linecap:butt;stroke-linejoin:miter;stroke-opacity:1" d="M 952.61,127.083 981.949,127.649 z" id="boundary" inkscape:connector-curvature="0" />
	<path style="fill:none;stroke:red;stroke-width:1px;stroke-linecap:butt;stroke-linejoin:miter;stroke-opacity:1" d="M 967.898,349.654 996,335.603 z" id="boundary" inkscape:connector-curvature="0" />
	<path style="fill:none;stroke:red;stroke-width:1px;stroke-linecap:butt;stroke-linejoin:miter;stroke-opacity:1" d="M 979.139,195.093 979.054,223.195 z" id="boundary" inkscape:connector-curvature="0" />
	<path style="fill:none;stroke:red;stroke-width:1px;stroke-linecap:butt;stroke-linejoin:miter;stroke-opacity:1" d="M 979.139,195.093 990.38,155.751 z" id="boundary" inkscape:connector-curvature="0" />
	<path style="fill:none;stroke:red;stroke-width:1px;stroke-linecap:butt;stroke-linejoin:miter;stroke-opacity:1" d="M 979.054,223.195 979.184,251.297 z" id="boundary" inkscape:connector-curvature="0" />
	<path style="fill:none;stroke:red;stroke-width:1px;stroke-linecap:butt;stroke-linejoin:miter;stroke-opacity:1" d="M 979.184,251.297 979.139,279.399 z" id="boundary" inkscape:connector-curvature="0" />
	<path style="fill:none;stroke:red;stroke-width:1px;stroke-linecap:butt;stroke-linejoin:miter;stroke-opacity:1" d="M 979.139,279.399 984.759,307.501 z" id="boundary" inkscape:connector-curvature="0" />
	<path style="fill:none;stroke:red;stroke-width:1px;stroke-linecap:butt;stroke-linejoin:miter;stroke-opacity:1" d="M 981.949,127.649 990.38,155.751 z" id="boundary" inkscape:connector-curvature="0" />
	<path style="fill:none;stroke:red;stroke-width:1px;stroke-linecap:butt;stroke-linejoin:miter;stroke-opacity:1" d="M 984.759,307.501 996,335.603 z" id="boundary" inkscape:connector-curvature="0" />
	<circle cx="4" cy="223.195" r="4" fill="#0" id="circle0"/>
	<circle cx="20.8612" cy="200.714" r="4" fill="#0" id="circle1"/>
	<circle cx="20.8612" cy="245.677" r="4" fill="#0" id="circle2"/>
	<circle cx="40.5326" cy="268.159" r="4" fill="#0" id="circle3"/>
	<circle cx="48.7843" cy="189.026" r="4" fill="#0" id="circle4"/>
	<circle cx="63.0142" cy="287.83" r="4" fill="#0" id="circle5"/>
	<circle cx="77.2277" cy="178.639" r="4" fill="#0" id="circle6"/>
	<circle cx="85.4958" cy="304.691" r="4" fill="#0" id="circle7"/>
	<circle cx="105.167" cy="166.991" r="4" fill="#0" id="circle8"/>
	<circle cx="107.977" cy="321.552" r="4" fill="#0" id="circle9"/>
	<circle cx="130.459" cy="152.94" r="4" fill="#0" id="circle10"/>
	<circle cx="136.079" cy="332.793" r="4" fill="#0" id="circle11"/>
	<circle cx="158.561" cy="141.7" r="4" fill="#0" id="circle12"/>
	<circle cx="164.181" cy="338.414" r="4" fill="#0" id="circle13"/>
	<circle cx="186.663" cy="133.269" r="4" fill="#0" id="circle14"/>
	<circle cx="195.536" cy="341.522" r="4" fill="#0" id="circle15"/>
	<circle cx="214.765" cy="122.028" r="4" fill="#0" id="circle16"/>
	<circle cx="217.133" cy="369.027" r="4" fill="#0" id="circle17"/>
	<circle cx="242.867" cy="113.598" r="4" fill="#0" id="circle18"/>
	<circle cx="248.487" cy="372.136" r="4" fill="#0" id="circle19"/>
	<circle cx="270.969" cy="107.977" r="4" fill="#0" id="circle20"/>
	<circle cx="276.589" cy="372.136" r="4" fill="#0" id="circle21"/>
	<circle cx="296.261" cy="60.204" r="4" fill="#0" id="circle22"/>
	<circle cx="296.261" cy="394.618" r="4" fill="#0" id="circle23"/>
	<circle cx="299.071" cy="88.3059" r="4" fill="#0" id="circle24"/>
	<circle cx="307.501" cy="422.72" r="4" fill="#0" id="circle25"/>
	<circle cx="324.363" cy="48.9632" r="4" fill="#0" id="circle26"/>
	<circle cx="324.363" cy="445.201" r="4" fill="#0" id="circle27"/>
	<circle cx="338.414" cy="23.6714" r="4" fill="#0" id="circle28"/>
	<circle cx="346.844" cy="462.062" r="4" fill="#0" id="circle29"/>
	<circle cx="360.895" cy="4" r="4" fill="#0" id="circle30"/>
	<circle cx="374.946" cy="473.303" r="4" fill="#0" id="circle31"/>
	<circle cx="388.997" cy="9.6204" r="4" fill="#0" id="circle32"/>
	<circle cx="403.048" cy="467.683" r="4" fill="#0" id="circle33"/>
	<circle cx="411.479" cy="26.4816" r="4" fill="#0" id="circle34"/>
	<circle cx="428.697" cy="463.46" r="4" fill="#0" id="circle35"/>
	<circle cx="439.581" cy="34.9122" r="4" fill="#0" id="circle36"/>
	<circle cx="453.788" cy="371.447" r="4" fill="#0" id="circle37"/>
	<circle cx="448.068" cy="445.237" r="4" fill="#0" id="circle38"/>
	<circle cx="448.935" cy="393.732" r="4" fill="#0" id="circle39"/>
	<circle cx="467.683" cy="43.3428" r="4" fill="#0" id="circle40"/>
	<circle cx="470.493" cy="366.516" r="4" fill="#0" id="circle41"/>
	<circle cx="492.975" cy="57.3937" r="4" fill="#0" id="circle42"/>
	<circle cx="498.595" cy="360.895" r="4" fill="#0" id="circle43"/>
	<circle cx="521.076" cy="65.8244" r="4" fill="#0" id="circle44"/>
	<circle cx="526.697" cy="348.477" r="4" fill="#0" id="circle45"/>
	<circle cx="546.368" cy="79.8753" r="4" fill="#0" id="circle46"/>
	<circle cx="554.799" cy="360.895" r="4" fill="#0" id="circle47"/>
	<circle cx="568.85" cy="99.5467" r="4" fill="#0" id="circle48"/>
	<circle cx="582.901" cy="358.084" r="4" fill="#0" id="circle49"/>
	<circle cx="596.952" cy="105.167" r="4" fill="#0" id="circle50"/>
	<circle cx="611.003" cy="355.275" r="4" fill="#0" id="circle51"/>
	<circle cx="625.054" cy="93.9263" r="4" fill="#0" id="circle52"/>
	<circle cx="639.105" cy="358.085" r="4" fill="#0" id="circle53"/>
	<circle cx="653.156" cy="82.6855" r="4" fill="#0" id="circle54"/>
	<circle cx="666.997" cy="367.215" r="4" fill="#0" id="circle55"/>
	<circle cx="681.258" cy="82.6855" r="4" fill="#0" id="circle56"/>
	<circle cx="695.309" cy="374.946" r="4" fill="#0" id="circle57"/>
	<circle cx="706.55" cy="96.7366" r="4" fill="#0" id="circle58"/>
	<circle cx="723.411" cy="377.756" r="4" fill="#0" id="circle59"/>
	<circle cx="729.031" cy="116.408" r="4" fill="#0" id="circle60"/>
	<circle cx="751.513" cy="136.079" r="4" fill="#0" id="circle61"/>
	<circle cx="751.513" cy="372.136" r="4" fill="#0" id="circle62"/>
	<circle cx="765.564" cy="346.844" r="4" fill="#0" id="circle63"/>
	<circle cx="771.184" cy="158.561" r="4" fill="#0" id="circle64"/>
	<circle cx="776.805" cy="318.742" r="4" fill="#0" id="circle65"/>
	<circle cx="782.425" cy="285.02" r="4" fill="#0" id="circle66"/>
	<circle cx="788.045" cy="181.043" r="4" fill="#0" id="circle67"/>
	<circle cx="810.527" cy="282.21" r="4" fill="#0" id="circle68"/>
	<circle cx="816.147" cy="189.473" r="4" fill="#0" id="circle69"/>
	<circle cx="838.629" cy="293.45" r="4" fill="#0" id="circle70"/>
	<circle cx="844.249" cy="175.422" r="4" fill="#0" id="circle71"/>
	<circle cx="861.11" cy="310.312" r="4" fill="#0" id="circle72"/>
	<circle cx="869.541" cy="161.371" r="4" fill="#0" id="circle73"/>
	<circle cx="886.432" cy="324.31" r="4" fill="#0" id="circle74"/>
	<circle cx="899.986" cy="155.988" r="4" fill="#0" id="circle75"/>
	<circle cx="911.694" cy="338.414" r="4" fill="#0" id="circle76"/>
	<circle cx="925.745" cy="138.889" r="4" fill="#0" id="circle77"/>
	<circle cx="939.555" cy="345.238" r="4" fill="#0" id="circle78"/>
	<circle cx="952.61" cy="127.083" r="4" fill="#0" id="circle79"/>
	<circle cx="967.898" cy="349.654" r="4" fill="#0" id="circle80"/>
	<circle cx="979.139" cy="195.093" r="4" fill="#0" id="circle81"/>
	<circle cx="979.054" cy="223.195" r="4" fill="#0" id="circle82"/>
	<circle cx="979.184" cy="251.297" r="4" fill="#0" id="circle83"/>
	<circle cx="979.139" cy="279.399" r="4" fill="#0" id="circle84"/>
	<circle cx="981.949" cy="127.649" r="4" fill="#0" id="circle85"/>
	<circle cx="984.759" cy="307.501" r="4" fill="#0" id="circle86"/>
	<circle cx="990.38" cy="155.751" r="4" fill="#0" id="circle87"/>
	<circle cx="996" cy="335.603" r="4" fill="#0" id="circle88"/>
	</g>
</svg>