<?xml version="1.0" encoding="UTF-8" standalone="no"?>
<!-- Created with CurveBenchmark -->
<svg
	xmlns:dc="http://purl.org/dc/elements/1.1/"
	xmlns:cc="http://creativecommons.org/ns#"
	xmlns:rdf="http://www.w3.org/1999/02/22-rdf-syntax-ns#"
	xmlns:svg="http://www.w3.org/2000/svg"
	xmlns="http://www.w3.org/2000/svg"
	xmlns:sodipodi="http://sodipodi.sourceforge.net/DTD/sodipodi-0.dtd"
	xmlns:inkscape="http://www.inkscape.org/namespaces/inkscape"
	width="1000"
	height="1000"
	id="svg2"
	version="1.1"
	sodipodi:docname="manifold/stretchdenoise-fish105.png.txt">
<defs
	id="defs4" />
<metadata
	id="metadata7">
	<rdf:RDF>
		<cc:Work
			rdf:about="">
			<dc:format>image/svg+xml</dc:format>
			<dc:type
				rdf:resource="http://purl.org/dc/dcmitype/StillImage" />
			<dc:title></dc:title>
		</cc:Work>
	</rdf:RDF>
</metadata>
<g
	inkscape:label="Layer 1"
	inkscape:groupmode="layer"
	id="layer1">
	<path style="fill:none;stroke:red;stroke-width:1px;stroke-linecap:butt;stroke-linejoin:miter;stroke-opacity:1" d="M 26.1778,262.783 4,324.397 z" id="boundary" inkscape:connector-curvature="0" />
	<path style="fill:none;stroke:red;stroke-width:1px;stroke-linecap:butt;stroke-linejoin:miter;stroke-opacity:1" d="M 26.1778,262.783 51.9572,294.07 z" id="boundary" inkscape:connector-curvature="0" />
	<path style="fill:none;stroke:red;stroke-width:1px;stroke-linecap:butt;stroke-linejoin:miter;stroke-opacity:1" d="M 4,324.397 26.1778,386.012 z" id="boundary" inkscape:connector-curvature="0" />
	<path style="fill:none;stroke:red;stroke-width:1px;stroke-linecap:butt;stroke-linejoin:miter;stroke-opacity:1" d="M 26.1778,386.012 38.5008,447.627 z" id="boundary" inkscape:connector-curvature="0" />
	<path style="fill:none;stroke:red;stroke-width:1px;stroke-linecap:butt;stroke-linejoin:miter;stroke-opacity:1" d="M 26.1778,558.534 26.1778,620.149 z" id="boundary" inkscape:connector-curvature="0" />
	<path style="fill:none;stroke:red;stroke-width:1px;stroke-linecap:butt;stroke-linejoin:miter;stroke-opacity:1" d="M 26.1778,558.534 38.5008,447.627 z" id="boundary" inkscape:connector-curvature="0" />
	<path style="fill:none;stroke:red;stroke-width:1px;stroke-linecap:butt;stroke-linejoin:miter;stroke-opacity:1" d="M 26.1778,620.149 26.1778,681.764 z" id="boundary" inkscape:connector-curvature="0" />
	<path style="fill:none;stroke:red;stroke-width:1px;stroke-linecap:butt;stroke-linejoin:miter;stroke-opacity:1" d="M 26.1778,681.764 75.4698,724.894 z" id="boundary" inkscape:connector-curvature="0" />
	<path style="fill:none;stroke:red;stroke-width:1px;stroke-linecap:butt;stroke-linejoin:miter;stroke-opacity:1" d="M 75.4698,724.894 137.085,731.056 z" id="boundary" inkscape:connector-curvature="0" />
	<path style="fill:none;stroke:red;stroke-width:1px;stroke-linecap:butt;stroke-linejoin:miter;stroke-opacity:1" d="M 51.9572,294.07 165.047,265.155 z" id="boundary" inkscape:connector-curvature="0" />
	<path style="fill:none;stroke:red;stroke-width:1px;stroke-linecap:butt;stroke-linejoin:miter;stroke-opacity:1" d="M 137.085,731.056 170.516,783.659 z" id="boundary" inkscape:connector-curvature="0" />
	<path style="fill:none;stroke:red;stroke-width:1px;stroke-linecap:butt;stroke-linejoin:miter;stroke-opacity:1" d="M 165.047,265.155 186.377,188.845 z" id="boundary" inkscape:connector-curvature="0" />
	<path style="fill:none;stroke:red;stroke-width:1px;stroke-linecap:butt;stroke-linejoin:miter;stroke-opacity:1" d="M 170.516,783.659 214.142,874.836 z" id="boundary" inkscape:connector-curvature="0" />
	<path style="fill:none;stroke:red;stroke-width:1px;stroke-linecap:butt;stroke-linejoin:miter;stroke-opacity:1" d="M 186.377,188.845 235.669,151.876 z" id="boundary" inkscape:connector-curvature="0" />
	<path style="fill:none;stroke:red;stroke-width:1px;stroke-linecap:butt;stroke-linejoin:miter;stroke-opacity:1" d="M 214.142,874.836 312.397,896.876 z" id="boundary" inkscape:connector-curvature="0" />
	<path style="fill:none;stroke:red;stroke-width:1px;stroke-linecap:butt;stroke-linejoin:miter;stroke-opacity:1" d="M 235.669,151.876 297.283,114.907 z" id="boundary" inkscape:connector-curvature="0" />
	<path style="fill:none;stroke:red;stroke-width:1px;stroke-linecap:butt;stroke-linejoin:miter;stroke-opacity:1" d="M 297.283,114.907 334.252,53.2919 z" id="boundary" inkscape:connector-curvature="0" />
	<path style="fill:none;stroke:red;stroke-width:1px;stroke-linecap:butt;stroke-linejoin:miter;stroke-opacity:1" d="M 312.397,896.876 356.81,852.341 z" id="boundary" inkscape:connector-curvature="0" />
	<path style="fill:none;stroke:red;stroke-width:1px;stroke-linecap:butt;stroke-linejoin:miter;stroke-opacity:1" d="M 334.252,53.2919 383.544,4 z" id="boundary" inkscape:connector-curvature="0" />
	<path style="fill:none;stroke:red;stroke-width:1px;stroke-linecap:butt;stroke-linejoin:miter;stroke-opacity:1" d="M 356.81,852.341 377.383,780.348 z" id="boundary" inkscape:connector-curvature="0" />
	<path style="fill:none;stroke:red;stroke-width:1px;stroke-linecap:butt;stroke-linejoin:miter;stroke-opacity:1" d="M 377.383,780.348 432.836,811.155 z" id="boundary" inkscape:connector-curvature="0" />
	<path style="fill:none;stroke:red;stroke-width:1px;stroke-linecap:butt;stroke-linejoin:miter;stroke-opacity:1" d="M 383.544,4 432.836,40.9689 z" id="boundary" inkscape:connector-curvature="0" />
	<path style="fill:none;stroke:red;stroke-width:1px;stroke-linecap:butt;stroke-linejoin:miter;stroke-opacity:1" d="M 432.836,40.9689 445.159,102.584 z" id="boundary" inkscape:connector-curvature="0" />
	<path style="fill:none;stroke:red;stroke-width:1px;stroke-linecap:butt;stroke-linejoin:miter;stroke-opacity:1" d="M 432.836,811.155 457.482,872.77 z" id="boundary" inkscape:connector-curvature="0" />
	<path style="fill:none;stroke:red;stroke-width:1px;stroke-linecap:butt;stroke-linejoin:miter;stroke-opacity:1" d="M 445.159,102.584 451.321,164.199 z" id="boundary" inkscape:connector-curvature="0" />
	<path style="fill:none;stroke:red;stroke-width:1px;stroke-linecap:butt;stroke-linejoin:miter;stroke-opacity:1" d="M 451.321,164.199 488.29,213.491 z" id="boundary" inkscape:connector-curvature="0" />
	<path style="fill:none;stroke:red;stroke-width:1px;stroke-linecap:butt;stroke-linejoin:miter;stroke-opacity:1" d="M 457.482,872.77 494.451,922.062 z" id="boundary" inkscape:connector-curvature="0" />
	<path style="fill:none;stroke:red;stroke-width:1px;stroke-linecap:butt;stroke-linejoin:miter;stroke-opacity:1" d="M 488.29,213.491 549.905,238.137 z" id="boundary" inkscape:connector-curvature="0" />
	<path style="fill:none;stroke:red;stroke-width:1px;stroke-linecap:butt;stroke-linejoin:miter;stroke-opacity:1" d="M 494.451,922.062 525.259,977.515 z" id="boundary" inkscape:connector-curvature="0" />
	<path style="fill:none;stroke:red;stroke-width:1px;stroke-linecap:butt;stroke-linejoin:miter;stroke-opacity:1" d="M 525.259,977.515 580.712,940.547 z" id="boundary" inkscape:connector-curvature="0" />
	<path style="fill:none;stroke:red;stroke-width:1px;stroke-linecap:butt;stroke-linejoin:miter;stroke-opacity:1" d="M 537.582,755.702 549.905,817.317 z" id="boundary" inkscape:connector-curvature="0" />
	<path style="fill:none;stroke:red;stroke-width:1px;stroke-linecap:butt;stroke-linejoin:miter;stroke-opacity:1" d="M 537.582,755.702 599.196,731.056 z" id="boundary" inkscape:connector-curvature="0" />
	<path style="fill:none;stroke:red;stroke-width:1px;stroke-linecap:butt;stroke-linejoin:miter;stroke-opacity:1" d="M 549.905,238.137 593.035,287.429 z" id="boundary" inkscape:connector-curvature="0" />
	<path style="fill:none;stroke:red;stroke-width:1px;stroke-linecap:butt;stroke-linejoin:miter;stroke-opacity:1" d="M 549.905,817.317 568.389,878.932 z" id="boundary" inkscape:connector-curvature="0" />
	<path style="fill:none;stroke:red;stroke-width:1px;stroke-linecap:butt;stroke-linejoin:miter;stroke-opacity:1" d="M 568.389,878.932 580.712,940.547 z" id="boundary" inkscape:connector-curvature="0" />
	<path style="fill:none;stroke:red;stroke-width:1px;stroke-linecap:butt;stroke-linejoin:miter;stroke-opacity:1" d="M 593.035,287.429 648.488,318.236 z" id="boundary" inkscape:connector-curvature="0" />
	<path style="fill:none;stroke:red;stroke-width:1px;stroke-linecap:butt;stroke-linejoin:miter;stroke-opacity:1" d="M 599.196,731.056 636.165,681.764 z" id="boundary" inkscape:connector-curvature="0" />
	<path style="fill:none;stroke:red;stroke-width:1px;stroke-linecap:butt;stroke-linejoin:miter;stroke-opacity:1" d="M 636.165,681.764 673.134,620.149 z" id="boundary" inkscape:connector-curvature="0" />
	<path style="fill:none;stroke:red;stroke-width:1px;stroke-linecap:butt;stroke-linejoin:miter;stroke-opacity:1" d="M 648.488,318.236 685.457,367.528 z" id="boundary" inkscape:connector-curvature="0" />
	<path style="fill:none;stroke:red;stroke-width:1px;stroke-linecap:butt;stroke-linejoin:miter;stroke-opacity:1" d="M 673.134,620.149 697.78,552.373 z" id="boundary" inkscape:connector-curvature="0" />
	<path style="fill:none;stroke:red;stroke-width:1px;stroke-linecap:butt;stroke-linejoin:miter;stroke-opacity:1" d="M 685.457,367.528 685.457,429.143 z" id="boundary" inkscape:connector-curvature="0" />
	<path style="fill:none;stroke:red;stroke-width:1px;stroke-linecap:butt;stroke-linejoin:miter;stroke-opacity:1" d="M 685.457,429.143 697.78,490.758 z" id="boundary" inkscape:connector-curvature="0" />
	<path style="fill:none;stroke:red;stroke-width:1px;stroke-linecap:butt;stroke-linejoin:miter;stroke-opacity:1" d="M 697.78,490.758 697.78,552.373 z" id="boundary" inkscape:connector-curvature="0" />
	<circle cx="26.1778" cy="262.783" r="4" fill="#0" id="circle0"/>
	<circle cx="4" cy="324.397" r="4" fill="#0" id="circle1"/>
	<circle cx="26.1778" cy="386.012" r="4" fill="#0" id="circle2"/>
	<circle cx="26.1778" cy="558.534" r="4" fill="#0" id="circle3"/>
	<circle cx="26.1778" cy="620.149" r="4" fill="#0" id="circle4"/>
	<circle cx="26.1778" cy="681.764" r="4" fill="#0" id="circle5"/>
	<circle cx="38.5008" cy="447.627" r="4" fill="#0" id="circle6"/>
	<circle cx="75.4698" cy="724.894" r="4" fill="#0" id="circle7"/>
	<circle cx="51.9572" cy="294.07" r="4" fill="#0" id="circle8"/>
	<circle cx="118.6" cy="324.397" r="4" fill="#0" id="circle9"/>
	<circle cx="137.085" cy="731.056" r="4" fill="#0" id="circle10"/>
	<circle cx="165.047" cy="265.155" r="4" fill="#0" id="circle11"/>
	<circle cx="170.516" cy="783.659" r="4" fill="#0" id="circle12"/>
	<circle cx="186.377" cy="188.845" r="4" fill="#0" id="circle13"/>
	<circle cx="186.377" cy="940.547" r="4" fill="#0" id="circle14"/>
	<circle cx="214.142" cy="874.836" r="4" fill="#0" id="circle15"/>
	<circle cx="217.184" cy="996" r="4" fill="#0" id="circle16"/>
	<circle cx="235.669" cy="151.876" r="4" fill="#0" id="circle17"/>
	<circle cx="235.669" cy="774.186" r="4" fill="#0" id="circle18"/>
	<circle cx="260.314" cy="946.708" r="4" fill="#0" id="circle19"/>
	<circle cx="297.283" cy="114.907" r="4" fill="#0" id="circle20"/>
	<circle cx="312.397" cy="896.876" r="4" fill="#0" id="circle21"/>
	<circle cx="334.252" cy="53.2919" r="4" fill="#0" id="circle22"/>
	<circle cx="356.81" cy="852.341" r="4" fill="#0" id="circle23"/>
	<circle cx="377.383" cy="780.348" r="4" fill="#0" id="circle24"/>
	<circle cx="383.544" cy="4" r="4" fill="#0" id="circle25"/>
	<circle cx="432.836" cy="40.9689" r="4" fill="#0" id="circle26"/>
	<circle cx="432.836" cy="811.155" r="4" fill="#0" id="circle27"/>
	<circle cx="445.159" cy="102.584" r="4" fill="#0" id="circle28"/>
	<circle cx="451.321" cy="164.199" r="4" fill="#0" id="circle29"/>
	<circle cx="457.482" cy="872.77" r="4" fill="#0" id="circle30"/>
	<circle cx="488.29" cy="213.491" r="4" fill="#0" id="circle31"/>
	<circle cx="494.451" cy="922.062" r="4" fill="#0" id="circle32"/>
	<circle cx="525.259" cy="977.515" r="4" fill="#0" id="circle33"/>
	<circle cx="537.582" cy="755.702" r="4" fill="#0" id="circle34"/>
	<circle cx="549.905" cy="238.137" r="4" fill="#0" id="circle35"/>
	<circle cx="549.905" cy="817.317" r="4" fill="#0" id="circle36"/>
	<circle cx="568.389" cy="878.932" r="4" fill="#0" id="circle37"/>
	<circle cx="580.712" cy="940.547" r="4" fill="#0" id="circle38"/>
	<circle cx="593.035" cy="287.429" r="4" fill="#0" id="circle39"/>
	<circle cx="599.196" cy="731.056" r="4" fill="#0" id="circle40"/>
	<circle cx="636.165" cy="681.764" r="4" fill="#0" id="circle41"/>
	<circle cx="648.488" cy="318.236" r="4" fill="#0" id="circle42"/>
	<circle cx="673.134" cy="620.149" r="4" fill="#0" id="circle43"/>
	<circle cx="685.457" cy="367.528" r="4" fill="#0" id="circle44"/>
	<circle cx="685.457" cy="429.143" r="4" fill="#0" id="circle45"/>
	<circle cx="697.78" cy="490.758" r="4" fill="#0" id="circle46"/>
	<circle cx="697.78" cy="552.373" r="4" fill="#0" id="circle47"/>
	</g>
</svg>