<?xml version="1.0" encoding="UTF-8" standalone="no"?>
<!-- Created with CurveBenchmark -->
<svg
	xmlns:dc="http://purl.org/dc/elements/1.1/"
	xmlns:cc="http://creativecommons.org/ns#"
	xmlns:rdf="http://www.w3.org/1999/02/22-rdf-syntax-ns#"
	xmlns:svg="http://www.w3.org/2000/svg"
	xmlns="http://www.w3.org/2000/svg"
	xmlns:sodipodi="http://sodipodi.sourceforge.net/DTD/sodipodi-0.dtd"
	xmlns:inkscape="http://www.inkscape.org/namespaces/inkscape"
	width="1000"
	height="1000"
	id="svg2"
	version="1.1"
	sodipodi:docname="manifold/stretchdenoise-cat04.png.txt">
<defs
	id="defs4" />
<metadata
	id="metadata7">
	<rdf:RDF>
		<cc:Work
			rdf:about="">
			<dc:format>image/svg+xml</dc:format>
			<dc:type
				rdf:resource="http://purl.org/dc/dcmitype/StillImage" />
			<dc:title></dc:title>
		</cc:Work>
	</rdf:RDF>
</metadata>
<g
	inkscape:label="Layer 1"
	inkscape:groupmode="layer"
	id="layer1">
	<path style="fill:none;stroke:red;stroke-width:1px;stroke-linecap:butt;stroke-linejoin:miter;stroke-opacity:1" d="M 6.50851,111.993 4,138.089 z" id="boundary" inkscape:connector-curvature="0" />
	<path style="fill:none;stroke:red;stroke-width:1px;stroke-linecap:butt;stroke-linejoin:miter;stroke-opacity:1" d="M 6.50851,111.993 14.9725,99.7767 z" id="boundary" inkscape:connector-curvature="0" />
	<path style="fill:none;stroke:red;stroke-width:1px;stroke-linecap:butt;stroke-linejoin:miter;stroke-opacity:1" d="M 4,138.089 11.1885,163.954 z" id="boundary" inkscape:connector-curvature="0" />
	<path style="fill:none;stroke:red;stroke-width:1px;stroke-linecap:butt;stroke-linejoin:miter;stroke-opacity:1" d="M 11.1885,163.954 30.903,197.097 z" id="boundary" inkscape:connector-curvature="0" />
	<path style="fill:none;stroke:red;stroke-width:1px;stroke-linecap:butt;stroke-linejoin:miter;stroke-opacity:1" d="M 14.9725,99.7767 27.2866,92.9356 z" id="boundary" inkscape:connector-curvature="0" />
	<path style="fill:none;stroke:red;stroke-width:1px;stroke-linecap:butt;stroke-linejoin:miter;stroke-opacity:1" d="M 27.2866,92.9356 40.969,87.4626 z" id="boundary" inkscape:connector-curvature="0" />
	<path style="fill:none;stroke:red;stroke-width:1px;stroke-linecap:butt;stroke-linejoin:miter;stroke-opacity:1" d="M 30.903,197.097 35.73,209.443 z" id="boundary" inkscape:connector-curvature="0" />
	<path style="fill:none;stroke:red;stroke-width:1px;stroke-linecap:butt;stroke-linejoin:miter;stroke-opacity:1" d="M 35.73,209.443 41.4174,244.027 z" id="boundary" inkscape:connector-curvature="0" />
	<path style="fill:none;stroke:red;stroke-width:1px;stroke-linecap:butt;stroke-linejoin:miter;stroke-opacity:1" d="M 48.5901,289.97 38.3198,261.315 z" id="boundary" inkscape:connector-curvature="0" />
	<path style="fill:none;stroke:red;stroke-width:1px;stroke-linecap:butt;stroke-linejoin:miter;stroke-opacity:1" d="M 48.5901,289.97 69.5969,443.967 z" id="boundary" inkscape:connector-curvature="0" />
	<path style="fill:none;stroke:red;stroke-width:1px;stroke-linecap:butt;stroke-linejoin:miter;stroke-opacity:1" d="M 40.969,87.4626 52.8286,77.4304 z" id="boundary" inkscape:connector-curvature="0" />
	<path style="fill:none;stroke:red;stroke-width:1px;stroke-linecap:butt;stroke-linejoin:miter;stroke-opacity:1" d="M 38.3198,261.315 41.4174,244.027 z" id="boundary" inkscape:connector-curvature="0" />
	<path style="fill:none;stroke:red;stroke-width:1px;stroke-linecap:butt;stroke-linejoin:miter;stroke-opacity:1" d="M 52.8286,77.4304 62.4071,65.1171 z" id="boundary" inkscape:connector-curvature="0" />
	<path style="fill:none;stroke:red;stroke-width:1px;stroke-linecap:butt;stroke-linejoin:miter;stroke-opacity:1" d="M 62.4071,65.1171 73.8068,54.6249 z" id="boundary" inkscape:connector-curvature="0" />
	<path style="fill:none;stroke:red;stroke-width:1px;stroke-linecap:butt;stroke-linejoin:miter;stroke-opacity:1" d="M 73.8068,54.6249 87.4892,51.8884 z" id="boundary" inkscape:connector-curvature="0" />
	<path style="fill:none;stroke:red;stroke-width:1px;stroke-linecap:butt;stroke-linejoin:miter;stroke-opacity:1" d="M 87.4892,51.8884 99.8033,42.3107 z" id="boundary" inkscape:connector-curvature="0" />
	<path style="fill:none;stroke:red;stroke-width:1px;stroke-linecap:butt;stroke-linejoin:miter;stroke-opacity:1" d="M 99.8033,42.3107 106.645,21.7871 z" id="boundary" inkscape:connector-curvature="0" />
	<path style="fill:none;stroke:red;stroke-width:1px;stroke-linecap:butt;stroke-linejoin:miter;stroke-opacity:1" d="M 69.5969,443.967 160.559,530.292 z" id="boundary" inkscape:connector-curvature="0" />
	<path style="fill:none;stroke:red;stroke-width:1px;stroke-linecap:butt;stroke-linejoin:miter;stroke-opacity:1" d="M 106.645,21.7871 113.486,8.10472 z" id="boundary" inkscape:connector-curvature="0" />
	<path style="fill:none;stroke:red;stroke-width:1px;stroke-linecap:butt;stroke-linejoin:miter;stroke-opacity:1" d="M 113.486,8.10472 127.168,4 z" id="boundary" inkscape:connector-curvature="0" />
	<path style="fill:none;stroke:red;stroke-width:1px;stroke-linecap:butt;stroke-linejoin:miter;stroke-opacity:1" d="M 127.168,4 135.378,14.9459 z" id="boundary" inkscape:connector-curvature="0" />
	<path style="fill:none;stroke:red;stroke-width:1px;stroke-linecap:butt;stroke-linejoin:miter;stroke-opacity:1" d="M 135.378,14.9459 140.85,28.6283 z" id="boundary" inkscape:connector-curvature="0" />
	<path style="fill:none;stroke:red;stroke-width:1px;stroke-linecap:butt;stroke-linejoin:miter;stroke-opacity:1" d="M 140.85,28.6283 149.06,39.5742 z" id="boundary" inkscape:connector-curvature="0" />
	<path style="fill:none;stroke:red;stroke-width:1px;stroke-linecap:butt;stroke-linejoin:miter;stroke-opacity:1" d="M 149.06,39.5742 151.796,53.2566 z" id="boundary" inkscape:connector-curvature="0" />
	<path style="fill:none;stroke:red;stroke-width:1px;stroke-linecap:butt;stroke-linejoin:miter;stroke-opacity:1" d="M 151.796,53.2566 165.479,58.7296 z" id="boundary" inkscape:connector-curvature="0" />
	<path style="fill:none;stroke:red;stroke-width:1px;stroke-linecap:butt;stroke-linejoin:miter;stroke-opacity:1" d="M 165.479,58.7296 179.161,58.7296 z" id="boundary" inkscape:connector-curvature="0" />
	<path style="fill:none;stroke:red;stroke-width:1px;stroke-linecap:butt;stroke-linejoin:miter;stroke-opacity:1" d="M 160.559,530.292 240.207,537.706 z" id="boundary" inkscape:connector-curvature="0" />
	<path style="fill:none;stroke:red;stroke-width:1px;stroke-linecap:butt;stroke-linejoin:miter;stroke-opacity:1" d="M 179.161,58.7296 183.266,72.412 z" id="boundary" inkscape:connector-curvature="0" />
	<path style="fill:none;stroke:red;stroke-width:1px;stroke-linecap:butt;stroke-linejoin:miter;stroke-opacity:1" d="M 183.266,72.412 194.212,80.6214 z" id="boundary" inkscape:connector-curvature="0" />
	<path style="fill:none;stroke:red;stroke-width:1px;stroke-linecap:butt;stroke-linejoin:miter;stroke-opacity:1" d="M 194.212,80.6214 203.789,91.5673 z" id="boundary" inkscape:connector-curvature="0" />
	<path style="fill:none;stroke:red;stroke-width:1px;stroke-linecap:butt;stroke-linejoin:miter;stroke-opacity:1" d="M 203.789,91.5673 210.631,103.881 z" id="boundary" inkscape:connector-curvature="0" />
	<path style="fill:none;stroke:red;stroke-width:1px;stroke-linecap:butt;stroke-linejoin:miter;stroke-opacity:1" d="M 210.631,103.881 210.631,117.564 z" id="boundary" inkscape:connector-curvature="0" />
	<path style="fill:none;stroke:red;stroke-width:1px;stroke-linecap:butt;stroke-linejoin:miter;stroke-opacity:1" d="M 210.631,117.564 210.631,131.246 z" id="boundary" inkscape:connector-curvature="0" />
	<path style="fill:none;stroke:red;stroke-width:1px;stroke-linecap:butt;stroke-linejoin:miter;stroke-opacity:1" d="M 210.631,131.246 216.104,144.929 z" id="boundary" inkscape:connector-curvature="0" />
	<path style="fill:none;stroke:red;stroke-width:1px;stroke-linecap:butt;stroke-linejoin:miter;stroke-opacity:1" d="M 216.104,144.929 217.472,158.611 z" id="boundary" inkscape:connector-curvature="0" />
	<path style="fill:none;stroke:red;stroke-width:1px;stroke-linecap:butt;stroke-linejoin:miter;stroke-opacity:1" d="M 217.472,158.611 222.945,172.293 z" id="boundary" inkscape:connector-curvature="0" />
	<path style="fill:none;stroke:red;stroke-width:1px;stroke-linecap:butt;stroke-linejoin:miter;stroke-opacity:1" d="M 222.945,172.293 229.786,184.608 z" id="boundary" inkscape:connector-curvature="0" />
	<path style="fill:none;stroke:red;stroke-width:1px;stroke-linecap:butt;stroke-linejoin:miter;stroke-opacity:1" d="M 240.207,537.706 319.092,501.365 z" id="boundary" inkscape:connector-curvature="0" />
	<path style="fill:none;stroke:red;stroke-width:1px;stroke-linecap:butt;stroke-linejoin:miter;stroke-opacity:1" d="M 229.786,184.608 243.468,188.712 z" id="boundary" inkscape:connector-curvature="0" />
	<path style="fill:none;stroke:red;stroke-width:1px;stroke-linecap:butt;stroke-linejoin:miter;stroke-opacity:1" d="M 243.468,188.712 257.151,191.449 z" id="boundary" inkscape:connector-curvature="0" />
	<path style="fill:none;stroke:red;stroke-width:1px;stroke-linecap:butt;stroke-linejoin:miter;stroke-opacity:1" d="M 257.151,191.449 269.465,198.29 z" id="boundary" inkscape:connector-curvature="0" />
	<path style="fill:none;stroke:red;stroke-width:1px;stroke-linecap:butt;stroke-linejoin:miter;stroke-opacity:1" d="M 269.465,198.29 283.147,202.395 z" id="boundary" inkscape:connector-curvature="0" />
	<path style="fill:none;stroke:red;stroke-width:1px;stroke-linecap:butt;stroke-linejoin:miter;stroke-opacity:1" d="M 283.147,202.395 295.462,195.553 z" id="boundary" inkscape:connector-curvature="0" />
	<path style="fill:none;stroke:red;stroke-width:1px;stroke-linecap:butt;stroke-linejoin:miter;stroke-opacity:1" d="M 295.462,195.553 309.144,195.553 z" id="boundary" inkscape:connector-curvature="0" />
	<path style="fill:none;stroke:red;stroke-width:1px;stroke-linecap:butt;stroke-linejoin:miter;stroke-opacity:1" d="M 319.092,501.365 426.199,427.919 z" id="boundary" inkscape:connector-curvature="0" />
	<path style="fill:none;stroke:red;stroke-width:1px;stroke-linecap:butt;stroke-linejoin:miter;stroke-opacity:1" d="M 309.144,195.553 321.458,188.712 z" id="boundary" inkscape:connector-curvature="0" />
	<path style="fill:none;stroke:red;stroke-width:1px;stroke-linecap:butt;stroke-linejoin:miter;stroke-opacity:1" d="M 321.458,188.712 335.14,188.712 z" id="boundary" inkscape:connector-curvature="0" />
	<path style="fill:none;stroke:red;stroke-width:1px;stroke-linecap:butt;stroke-linejoin:miter;stroke-opacity:1" d="M 335.14,188.712 348.823,188.712 z" id="boundary" inkscape:connector-curvature="0" />
	<path style="fill:none;stroke:red;stroke-width:1px;stroke-linecap:butt;stroke-linejoin:miter;stroke-opacity:1" d="M 348.823,188.712 361.137,181.871 z" id="boundary" inkscape:connector-curvature="0" />
	<path style="fill:none;stroke:red;stroke-width:1px;stroke-linecap:butt;stroke-linejoin:miter;stroke-opacity:1" d="M 361.137,181.871 373.451,175.03 z" id="boundary" inkscape:connector-curvature="0" />
	<path style="fill:none;stroke:red;stroke-width:1px;stroke-linecap:butt;stroke-linejoin:miter;stroke-opacity:1" d="M 373.451,175.03 387.134,175.03 z" id="boundary" inkscape:connector-curvature="0" />
	<path style="fill:none;stroke:red;stroke-width:1px;stroke-linecap:butt;stroke-linejoin:miter;stroke-opacity:1" d="M 387.134,175.03 400.816,175.03 z" id="boundary" inkscape:connector-curvature="0" />
	<path style="fill:none;stroke:red;stroke-width:1px;stroke-linecap:butt;stroke-linejoin:miter;stroke-opacity:1" d="M 400.816,175.03 413.13,168.189 z" id="boundary" inkscape:connector-curvature="0" />
	<path style="fill:none;stroke:red;stroke-width:1px;stroke-linecap:butt;stroke-linejoin:miter;stroke-opacity:1" d="M 413.13,168.189 426.812,168.189 z" id="boundary" inkscape:connector-curvature="0" />
	<path style="fill:none;stroke:red;stroke-width:1px;stroke-linecap:butt;stroke-linejoin:miter;stroke-opacity:1" d="M 426.812,168.189 439.127,161.348 z" id="boundary" inkscape:connector-curvature="0" />
	<path style="fill:none;stroke:red;stroke-width:1px;stroke-linecap:butt;stroke-linejoin:miter;stroke-opacity:1" d="M 426.199,427.919 457.44,467.651 z" id="boundary" inkscape:connector-curvature="0" />
	<path style="fill:none;stroke:red;stroke-width:1px;stroke-linecap:butt;stroke-linejoin:miter;stroke-opacity:1" d="M 439.127,161.348 452.809,161.348 z" id="boundary" inkscape:connector-curvature="0" />
	<path style="fill:none;stroke:red;stroke-width:1px;stroke-linecap:butt;stroke-linejoin:miter;stroke-opacity:1" d="M 452.809,161.348 466.491,161.348 z" id="boundary" inkscape:connector-curvature="0" />
	<path style="fill:none;stroke:red;stroke-width:1px;stroke-linecap:butt;stroke-linejoin:miter;stroke-opacity:1" d="M 457.44,467.651 462.667,569.865 z" id="boundary" inkscape:connector-curvature="0" />
	<path style="fill:none;stroke:red;stroke-width:1px;stroke-linecap:butt;stroke-linejoin:miter;stroke-opacity:1" d="M 462.667,569.865 495.65,579.637 z" id="boundary" inkscape:connector-curvature="0" />
	<path style="fill:none;stroke:red;stroke-width:1px;stroke-linecap:butt;stroke-linejoin:miter;stroke-opacity:1" d="M 466.491,161.348 478.806,154.506 z" id="boundary" inkscape:connector-curvature="0" />
	<path style="fill:none;stroke:red;stroke-width:1px;stroke-linecap:butt;stroke-linejoin:miter;stroke-opacity:1" d="M 478.806,154.506 491.12,161.348 z" id="boundary" inkscape:connector-curvature="0" />
	<path style="fill:none;stroke:red;stroke-width:1px;stroke-linecap:butt;stroke-linejoin:miter;stroke-opacity:1" d="M 491.12,161.348 503.434,154.506 z" id="boundary" inkscape:connector-curvature="0" />
	<path style="fill:none;stroke:red;stroke-width:1px;stroke-linecap:butt;stroke-linejoin:miter;stroke-opacity:1" d="M 495.65,579.637 544.069,569.653 z" id="boundary" inkscape:connector-curvature="0" />
	<path style="fill:none;stroke:red;stroke-width:1px;stroke-linecap:butt;stroke-linejoin:miter;stroke-opacity:1" d="M 503.434,154.506 515.748,161.348 z" id="boundary" inkscape:connector-curvature="0" />
	<path style="fill:none;stroke:red;stroke-width:1px;stroke-linecap:butt;stroke-linejoin:miter;stroke-opacity:1" d="M 515.748,161.348 529.43,161.348 z" id="boundary" inkscape:connector-curvature="0" />
	<path style="fill:none;stroke:red;stroke-width:1px;stroke-linecap:butt;stroke-linejoin:miter;stroke-opacity:1" d="M 529.43,161.348 541.745,168.189 z" id="boundary" inkscape:connector-curvature="0" />
	<path style="fill:none;stroke:red;stroke-width:1px;stroke-linecap:butt;stroke-linejoin:miter;stroke-opacity:1" d="M 541.745,168.189 555.427,168.189 z" id="boundary" inkscape:connector-curvature="0" />
	<path style="fill:none;stroke:red;stroke-width:1px;stroke-linecap:butt;stroke-linejoin:miter;stroke-opacity:1" d="M 544.069,569.653 575.73,552.612 z" id="boundary" inkscape:connector-curvature="0" />
	<path style="fill:none;stroke:red;stroke-width:1px;stroke-linecap:butt;stroke-linejoin:miter;stroke-opacity:1" d="M 555.427,168.189 567.741,175.03 z" id="boundary" inkscape:connector-curvature="0" />
	<path style="fill:none;stroke:red;stroke-width:1px;stroke-linecap:butt;stroke-linejoin:miter;stroke-opacity:1" d="M 567.741,175.03 580.055,181.871 z" id="boundary" inkscape:connector-curvature="0" />
	<path style="fill:none;stroke:red;stroke-width:1px;stroke-linecap:butt;stroke-linejoin:miter;stroke-opacity:1" d="M 575.73,552.612 596.783,520.043 z" id="boundary" inkscape:connector-curvature="0" />
	<path style="fill:none;stroke:red;stroke-width:1px;stroke-linecap:butt;stroke-linejoin:miter;stroke-opacity:1" d="M 580.055,181.871 593.738,185.976 z" id="boundary" inkscape:connector-curvature="0" />
	<path style="fill:none;stroke:red;stroke-width:1px;stroke-linecap:butt;stroke-linejoin:miter;stroke-opacity:1" d="M 586.896,381.634 586.896,402.158 z" id="boundary" inkscape:connector-curvature="0" />
	<path style="fill:none;stroke:red;stroke-width:1px;stroke-linecap:butt;stroke-linejoin:miter;stroke-opacity:1" d="M 586.896,381.634 593.738,361.11 z" id="boundary" inkscape:connector-curvature="0" />
	<path style="fill:none;stroke:red;stroke-width:1px;stroke-linecap:butt;stroke-linejoin:miter;stroke-opacity:1" d="M 586.896,402.158 589.633,415.84 z" id="boundary" inkscape:connector-curvature="0" />
	<path style="fill:none;stroke:red;stroke-width:1px;stroke-linecap:butt;stroke-linejoin:miter;stroke-opacity:1" d="M 589.633,415.84 603.315,421.313 z" id="boundary" inkscape:connector-curvature="0" />
	<path style="fill:none;stroke:red;stroke-width:1px;stroke-linecap:butt;stroke-linejoin:miter;stroke-opacity:1" d="M 593.738,185.976 604.684,195.553 z" id="boundary" inkscape:connector-curvature="0" />
	<path style="fill:none;stroke:red;stroke-width:1px;stroke-linecap:butt;stroke-linejoin:miter;stroke-opacity:1" d="M 593.738,347.428 593.738,361.11 z" id="boundary" inkscape:connector-curvature="0" />
	<path style="fill:none;stroke:red;stroke-width:1px;stroke-linecap:butt;stroke-linejoin:miter;stroke-opacity:1" d="M 593.738,347.428 604.684,337.85 z" id="boundary" inkscape:connector-curvature="0" />
	<path style="fill:none;stroke:red;stroke-width:1px;stroke-linecap:butt;stroke-linejoin:miter;stroke-opacity:1" d="M 596.783,520.043 600.579,497.934 z" id="boundary" inkscape:connector-curvature="0" />
	<path style="fill:none;stroke:red;stroke-width:1px;stroke-linecap:butt;stroke-linejoin:miter;stroke-opacity:1" d="M 600.579,497.934 611.525,488.357 z" id="boundary" inkscape:connector-curvature="0" />
	<path style="fill:none;stroke:red;stroke-width:1px;stroke-linecap:butt;stroke-linejoin:miter;stroke-opacity:1" d="M 603.315,421.313 615.629,428.154 z" id="boundary" inkscape:connector-curvature="0" />
	<path style="fill:none;stroke:red;stroke-width:1px;stroke-linecap:butt;stroke-linejoin:miter;stroke-opacity:1" d="M 604.684,195.553 618.366,196.922 z" id="boundary" inkscape:connector-curvature="0" />
	<path style="fill:none;stroke:red;stroke-width:1px;stroke-linecap:butt;stroke-linejoin:miter;stroke-opacity:1" d="M 604.684,337.85 607.42,320.063 z" id="boundary" inkscape:connector-curvature="0" />
	<path style="fill:none;stroke:red;stroke-width:1px;stroke-linecap:butt;stroke-linejoin:miter;stroke-opacity:1" d="M 607.42,320.063 614.261,299.54 z" id="boundary" inkscape:connector-curvature="0" />
	<path style="fill:none;stroke:red;stroke-width:1px;stroke-linecap:butt;stroke-linejoin:miter;stroke-opacity:1" d="M 611.525,488.357 618.366,474.674 z" id="boundary" inkscape:connector-curvature="0" />
	<path style="fill:none;stroke:red;stroke-width:1px;stroke-linecap:butt;stroke-linejoin:miter;stroke-opacity:1" d="M 614.261,299.54 627.944,292.698 z" id="boundary" inkscape:connector-curvature="0" />
	<path style="fill:none;stroke:red;stroke-width:1px;stroke-linecap:butt;stroke-linejoin:miter;stroke-opacity:1" d="M 615.629,428.154 626.575,437.732 z" id="boundary" inkscape:connector-curvature="0" />
	<path style="fill:none;stroke:red;stroke-width:1px;stroke-linecap:butt;stroke-linejoin:miter;stroke-opacity:1" d="M 618.366,196.922 627.944,207.868 z" id="boundary" inkscape:connector-curvature="0" />
	<path style="fill:none;stroke:red;stroke-width:1px;stroke-linecap:butt;stroke-linejoin:miter;stroke-opacity:1" d="M 618.366,474.674 625.207,460.992 z" id="boundary" inkscape:connector-curvature="0" />
	<path style="fill:none;stroke:red;stroke-width:1px;stroke-linecap:butt;stroke-linejoin:miter;stroke-opacity:1" d="M 625.207,460.992 626.575,437.732 z" id="boundary" inkscape:connector-curvature="0" />
	<path style="fill:none;stroke:red;stroke-width:1px;stroke-linecap:butt;stroke-linejoin:miter;stroke-opacity:1" d="M 627.944,207.868 641.626,209.236 z" id="boundary" inkscape:connector-curvature="0" />
	<path style="fill:none;stroke:red;stroke-width:1px;stroke-linecap:butt;stroke-linejoin:miter;stroke-opacity:1" d="M 627.944,292.698 641.626,292.698 z" id="boundary" inkscape:connector-curvature="0" />
	<path style="fill:none;stroke:red;stroke-width:1px;stroke-linecap:butt;stroke-linejoin:miter;stroke-opacity:1" d="M 641.626,209.236 653.94,216.077 z" id="boundary" inkscape:connector-curvature="0" />
	<path style="fill:none;stroke:red;stroke-width:1px;stroke-linecap:butt;stroke-linejoin:miter;stroke-opacity:1" d="M 641.626,292.698 655.308,285.857 z" id="boundary" inkscape:connector-curvature="0" />
	<path style="fill:none;stroke:red;stroke-width:1px;stroke-linecap:butt;stroke-linejoin:miter;stroke-opacity:1" d="M 653.94,216.077 666.254,209.236 z" id="boundary" inkscape:connector-curvature="0" />
	<path style="fill:none;stroke:red;stroke-width:1px;stroke-linecap:butt;stroke-linejoin:miter;stroke-opacity:1" d="M 655.308,285.857 667.623,279.016 z" id="boundary" inkscape:connector-curvature="0" />
	<path style="fill:none;stroke:red;stroke-width:1px;stroke-linecap:butt;stroke-linejoin:miter;stroke-opacity:1" d="M 666.254,209.236 679.937,209.236 z" id="boundary" inkscape:connector-curvature="0" />
	<path style="fill:none;stroke:red;stroke-width:1px;stroke-linecap:butt;stroke-linejoin:miter;stroke-opacity:1" d="M 667.623,279.016 681.305,274.911 z" id="boundary" inkscape:connector-curvature="0" />
	<path style="fill:none;stroke:red;stroke-width:1px;stroke-linecap:butt;stroke-linejoin:miter;stroke-opacity:1" d="M 679.937,209.236 692.251,202.395 z" id="boundary" inkscape:connector-curvature="0" />
	<path style="fill:none;stroke:red;stroke-width:1px;stroke-linecap:butt;stroke-linejoin:miter;stroke-opacity:1" d="M 681.305,274.911 694.987,272.175 z" id="boundary" inkscape:connector-curvature="0" />
	<path style="fill:none;stroke:red;stroke-width:1px;stroke-linecap:butt;stroke-linejoin:miter;stroke-opacity:1" d="M 692.251,202.395 705.933,202.395 z" id="boundary" inkscape:connector-curvature="0" />
	<path style="fill:none;stroke:red;stroke-width:1px;stroke-linecap:butt;stroke-linejoin:miter;stroke-opacity:1" d="M 694.987,272.175 707.302,265.334 z" id="boundary" inkscape:connector-curvature="0" />
	<path style="fill:none;stroke:red;stroke-width:1px;stroke-linecap:butt;stroke-linejoin:miter;stroke-opacity:1" d="M 705.933,202.395 718.247,195.553 z" id="boundary" inkscape:connector-curvature="0" />
	<path style="fill:none;stroke:red;stroke-width:1px;stroke-linecap:butt;stroke-linejoin:miter;stroke-opacity:1" d="M 707.302,265.334 719.616,258.492 z" id="boundary" inkscape:connector-curvature="0" />
	<path style="fill:none;stroke:red;stroke-width:1px;stroke-linecap:butt;stroke-linejoin:miter;stroke-opacity:1" d="M 718.247,195.553 731.93,195.553 z" id="boundary" inkscape:connector-curvature="0" />
	<path style="fill:none;stroke:red;stroke-width:1px;stroke-linecap:butt;stroke-linejoin:miter;stroke-opacity:1" d="M 719.616,258.492 733.298,258.492 z" id="boundary" inkscape:connector-curvature="0" />
	<path style="fill:none;stroke:red;stroke-width:1px;stroke-linecap:butt;stroke-linejoin:miter;stroke-opacity:1" d="M 731.93,195.553 744.244,188.712 z" id="boundary" inkscape:connector-curvature="0" />
	<path style="fill:none;stroke:red;stroke-width:1px;stroke-linecap:butt;stroke-linejoin:miter;stroke-opacity:1" d="M 733.298,258.492 746.98,257.124 z" id="boundary" inkscape:connector-curvature="0" />
	<path style="fill:none;stroke:red;stroke-width:1px;stroke-linecap:butt;stroke-linejoin:miter;stroke-opacity:1" d="M 744.244,188.712 757.926,188.712 z" id="boundary" inkscape:connector-curvature="0" />
	<path style="fill:none;stroke:red;stroke-width:1px;stroke-linecap:butt;stroke-linejoin:miter;stroke-opacity:1" d="M 746.98,257.124 760.663,251.651 z" id="boundary" inkscape:connector-curvature="0" />
	<path style="fill:none;stroke:red;stroke-width:1px;stroke-linecap:butt;stroke-linejoin:miter;stroke-opacity:1" d="M 757.926,188.712 771.609,184.608 z" id="boundary" inkscape:connector-curvature="0" />
	<path style="fill:none;stroke:red;stroke-width:1px;stroke-linecap:butt;stroke-linejoin:miter;stroke-opacity:1" d="M 760.663,251.651 772.977,244.81 z" id="boundary" inkscape:connector-curvature="0" />
	<path style="fill:none;stroke:red;stroke-width:1px;stroke-linecap:butt;stroke-linejoin:miter;stroke-opacity:1" d="M 771.609,184.608 784.807,176.797 z" id="boundary" inkscape:connector-curvature="0" />
	<path style="fill:none;stroke:red;stroke-width:1px;stroke-linecap:butt;stroke-linejoin:miter;stroke-opacity:1" d="M 772.977,244.81 786.659,244.81 z" id="boundary" inkscape:connector-curvature="0" />
	<path style="fill:none;stroke:red;stroke-width:1px;stroke-linecap:butt;stroke-linejoin:miter;stroke-opacity:1" d="M 784.807,176.797 798.974,170.925 z" id="boundary" inkscape:connector-curvature="0" />
	<path style="fill:none;stroke:red;stroke-width:1px;stroke-linecap:butt;stroke-linejoin:miter;stroke-opacity:1" d="M 786.659,244.81 798.974,237.969 z" id="boundary" inkscape:connector-curvature="0" />
	<path style="fill:none;stroke:red;stroke-width:1px;stroke-linecap:butt;stroke-linejoin:miter;stroke-opacity:1" d="M 798.974,170.925 812.656,168.189 z" id="boundary" inkscape:connector-curvature="0" />
	<path style="fill:none;stroke:red;stroke-width:1px;stroke-linecap:butt;stroke-linejoin:miter;stroke-opacity:1" d="M 798.974,237.969 811.288,231.128 z" id="boundary" inkscape:connector-curvature="0" />
	<path style="fill:none;stroke:red;stroke-width:1px;stroke-linecap:butt;stroke-linejoin:miter;stroke-opacity:1" d="M 811.288,231.128 824.97,227.023 z" id="boundary" inkscape:connector-curvature="0" />
	<path style="fill:none;stroke:red;stroke-width:1px;stroke-linecap:butt;stroke-linejoin:miter;stroke-opacity:1" d="M 812.656,168.189 824.968,161.344 z" id="boundary" inkscape:connector-curvature="0" />
	<path style="fill:none;stroke:red;stroke-width:1px;stroke-linecap:butt;stroke-linejoin:miter;stroke-opacity:1" d="M 824.968,161.344 837.284,154.506 z" id="boundary" inkscape:connector-curvature="0" />
	<path style="fill:none;stroke:red;stroke-width:1px;stroke-linecap:butt;stroke-linejoin:miter;stroke-opacity:1" d="M 824.97,227.023 838.652,224.287 z" id="boundary" inkscape:connector-curvature="0" />
	<path style="fill:none;stroke:red;stroke-width:1px;stroke-linecap:butt;stroke-linejoin:miter;stroke-opacity:1" d="M 837.284,154.506 846.862,143.56 z" id="boundary" inkscape:connector-curvature="0" />
	<path style="fill:none;stroke:red;stroke-width:1px;stroke-linecap:butt;stroke-linejoin:miter;stroke-opacity:1" d="M 838.652,224.287 849.598,216.077 z" id="boundary" inkscape:connector-curvature="0" />
	<path style="fill:none;stroke:red;stroke-width:1px;stroke-linecap:butt;stroke-linejoin:miter;stroke-opacity:1" d="M 846.862,143.56 857.808,133.983 z" id="boundary" inkscape:connector-curvature="0" />
	<path style="fill:none;stroke:red;stroke-width:1px;stroke-linecap:butt;stroke-linejoin:miter;stroke-opacity:1" d="M 849.598,216.077 863.281,209.236 z" id="boundary" inkscape:connector-curvature="0" />
	<path style="fill:none;stroke:red;stroke-width:1px;stroke-linecap:butt;stroke-linejoin:miter;stroke-opacity:1" d="M 857.808,133.983 870.122,127.142 z" id="boundary" inkscape:connector-curvature="0" />
	<path style="fill:none;stroke:red;stroke-width:1px;stroke-linecap:butt;stroke-linejoin:miter;stroke-opacity:1" d="M 863.281,209.236 876.963,202.395 z" id="boundary" inkscape:connector-curvature="0" />
	<path style="fill:none;stroke:red;stroke-width:1px;stroke-linecap:butt;stroke-linejoin:miter;stroke-opacity:1" d="M 870.122,127.142 876.963,113.459 z" id="boundary" inkscape:connector-curvature="0" />
	<path style="fill:none;stroke:red;stroke-width:1px;stroke-linecap:butt;stroke-linejoin:miter;stroke-opacity:1" d="M 876.963,113.459 887.909,102.513 z" id="boundary" inkscape:connector-curvature="0" />
	<path style="fill:none;stroke:red;stroke-width:1px;stroke-linecap:butt;stroke-linejoin:miter;stroke-opacity:1" d="M 876.963,202.395 887.909,190.081 z" id="boundary" inkscape:connector-curvature="0" />
	<path style="fill:none;stroke:red;stroke-width:1px;stroke-linecap:butt;stroke-linejoin:miter;stroke-opacity:1" d="M 887.909,102.513 894.75,88.8308 z" id="boundary" inkscape:connector-curvature="0" />
	<path style="fill:none;stroke:red;stroke-width:1px;stroke-linecap:butt;stroke-linejoin:miter;stroke-opacity:1" d="M 887.909,190.081 894.75,176.398 z" id="boundary" inkscape:connector-curvature="0" />
	<path style="fill:none;stroke:red;stroke-width:1px;stroke-linecap:butt;stroke-linejoin:miter;stroke-opacity:1" d="M 894.75,88.8308 905.696,79.2531 z" id="boundary" inkscape:connector-curvature="0" />
	<path style="fill:none;stroke:red;stroke-width:1px;stroke-linecap:butt;stroke-linejoin:miter;stroke-opacity:1" d="M 894.75,176.398 908.433,169.557 z" id="boundary" inkscape:connector-curvature="0" />
	<path style="fill:none;stroke:red;stroke-width:1px;stroke-linecap:butt;stroke-linejoin:miter;stroke-opacity:1" d="M 905.696,79.2531 911.169,65.5708 z" id="boundary" inkscape:connector-curvature="0" />
	<path style="fill:none;stroke:red;stroke-width:1px;stroke-linecap:butt;stroke-linejoin:miter;stroke-opacity:1" d="M 908.433,169.557 915.274,155.875 z" id="boundary" inkscape:connector-curvature="0" />
	<path style="fill:none;stroke:red;stroke-width:1px;stroke-linecap:butt;stroke-linejoin:miter;stroke-opacity:1" d="M 911.169,65.5708 920.747,49.1519 z" id="boundary" inkscape:connector-curvature="0" />
	<path style="fill:none;stroke:red;stroke-width:1px;stroke-linecap:butt;stroke-linejoin:miter;stroke-opacity:1" d="M 915.274,155.875 926.22,146.297 z" id="boundary" inkscape:connector-curvature="0" />
	<path style="fill:none;stroke:red;stroke-width:1px;stroke-linecap:butt;stroke-linejoin:miter;stroke-opacity:1" d="M 920.747,49.1519 934.429,42.3107 z" id="boundary" inkscape:connector-curvature="0" />
	<path style="fill:none;stroke:red;stroke-width:1px;stroke-linecap:butt;stroke-linejoin:miter;stroke-opacity:1" d="M 926.22,146.297 928.956,128.51 z" id="boundary" inkscape:connector-curvature="0" />
	<path style="fill:none;stroke:red;stroke-width:1px;stroke-linecap:butt;stroke-linejoin:miter;stroke-opacity:1" d="M 928.956,128.51 939.902,118.932 z" id="boundary" inkscape:connector-curvature="0" />
	<path style="fill:none;stroke:red;stroke-width:1px;stroke-linecap:butt;stroke-linejoin:miter;stroke-opacity:1" d="M 934.429,42.3107 945.375,31.3648 z" id="boundary" inkscape:connector-curvature="0" />
	<path style="fill:none;stroke:red;stroke-width:1px;stroke-linecap:butt;stroke-linejoin:miter;stroke-opacity:1" d="M 939.902,118.932 949.48,107.986 z" id="boundary" inkscape:connector-curvature="0" />
	<path style="fill:none;stroke:red;stroke-width:1px;stroke-linecap:butt;stroke-linejoin:miter;stroke-opacity:1" d="M 945.375,31.3648 959.058,31.3648 z" id="boundary" inkscape:connector-curvature="0" />
	<path style="fill:none;stroke:red;stroke-width:1px;stroke-linecap:butt;stroke-linejoin:miter;stroke-opacity:1" d="M 949.48,94.3038 949.48,107.986 z" id="boundary" inkscape:connector-curvature="0" />
	<path style="fill:none;stroke:red;stroke-width:1px;stroke-linecap:butt;stroke-linejoin:miter;stroke-opacity:1" d="M 949.48,94.3038 960.426,84.7261 z" id="boundary" inkscape:connector-curvature="0" />
	<path style="fill:none;stroke:red;stroke-width:1px;stroke-linecap:butt;stroke-linejoin:miter;stroke-opacity:1" d="M 959.058,31.3648 971.372,24.5236 z" id="boundary" inkscape:connector-curvature="0" />
	<path style="fill:none;stroke:red;stroke-width:1px;stroke-linecap:butt;stroke-linejoin:miter;stroke-opacity:1" d="M 960.426,84.7261 970.003,73.7802 z" id="boundary" inkscape:connector-curvature="0" />
	<path style="fill:none;stroke:red;stroke-width:1px;stroke-linecap:butt;stroke-linejoin:miter;stroke-opacity:1" d="M 970.003,73.7802 976.845,60.0978 z" id="boundary" inkscape:connector-curvature="0" />
	<path style="fill:none;stroke:red;stroke-width:1px;stroke-linecap:butt;stroke-linejoin:miter;stroke-opacity:1" d="M 971.372,24.5236 985.054,24.5236 z" id="boundary" inkscape:connector-curvature="0" />
	<path style="fill:none;stroke:red;stroke-width:1px;stroke-linecap:butt;stroke-linejoin:miter;stroke-opacity:1" d="M 976.845,60.0978 987.791,50.5201 z" id="boundary" inkscape:connector-curvature="0" />
	<path style="fill:none;stroke:red;stroke-width:1px;stroke-linecap:butt;stroke-linejoin:miter;stroke-opacity:1" d="M 985.054,24.5236 996,34.1013 z" id="boundary" inkscape:connector-curvature="0" />
	<path style="fill:none;stroke:red;stroke-width:1px;stroke-linecap:butt;stroke-linejoin:miter;stroke-opacity:1" d="M 987.791,50.5201 996,34.1013 z" id="boundary" inkscape:connector-curvature="0" />
	<circle cx="6.50851" cy="111.993" r="4" fill="#0" id="circle0"/>
	<circle cx="4.02657" cy="124.405" r="4" fill="#0" id="circle1"/>
	<circle cx="4" cy="138.089" r="4" fill="#0" id="circle2"/>
	<circle cx="4.02657" cy="151.77" r="4" fill="#0" id="circle3"/>
	<circle cx="11.1885" cy="163.954" r="4" fill="#0" id="circle4"/>
	<circle cx="14.9725" cy="99.7767" r="4" fill="#0" id="circle5"/>
	<circle cx="20.4454" cy="175.03" r="4" fill="#0" id="circle6"/>
	<circle cx="27.2866" cy="92.9356" r="4" fill="#0" id="circle7"/>
	<circle cx="31.3914" cy="183.239" r="4" fill="#0" id="circle8"/>
	<circle cx="30.903" cy="197.097" r="4" fill="#0" id="circle9"/>
	<circle cx="35.73" cy="209.443" r="4" fill="#0" id="circle10"/>
	<circle cx="31.3914" cy="224.287" r="4" fill="#0" id="circle11"/>
	<circle cx="48.5901" cy="289.97" r="4" fill="#0" id="circle12"/>
	<circle cx="35.4961" cy="237.969" r="4" fill="#0" id="circle13"/>
	<circle cx="38.2325" cy="274.911" r="4" fill="#0" id="circle14"/>
	<circle cx="38.2325" cy="307.749" r="4" fill="#0" id="circle15"/>
	<circle cx="38.2325" cy="321.431" r="4" fill="#0" id="circle16"/>
	<circle cx="40.969" cy="87.4626" r="4" fill="#0" id="circle17"/>
	<circle cx="38.3198" cy="261.315" r="4" fill="#0" id="circle18"/>
	<circle cx="45.0737" cy="333.746" r="4" fill="#0" id="circle19"/>
	<circle cx="41.4174" cy="244.027" r="4" fill="#0" id="circle20"/>
	<circle cx="52.8286" cy="77.4304" r="4" fill="#0" id="circle21"/>
	<circle cx="53.2832" cy="344.692" r="4" fill="#0" id="circle22"/>
	<circle cx="62.4071" cy="65.1171" r="4" fill="#0" id="circle23"/>
	<circle cx="64.2291" cy="354.269" r="4" fill="#0" id="circle24"/>
	<circle cx="73.8068" cy="54.6249" r="4" fill="#0" id="circle25"/>
	<circle cx="73.8068" cy="365.215" r="4" fill="#0" id="circle26"/>
	<circle cx="79.2797" cy="555.4" r="4" fill="#0" id="circle27"/>
	<circle cx="79.2797" cy="569.083" r="4" fill="#0" id="circle28"/>
	<circle cx="84.7527" cy="374.793" r="4" fill="#0" id="circle29"/>
	<circle cx="87.4892" cy="51.8884" r="4" fill="#0" id="circle30"/>
	<circle cx="90.2256" cy="544.454" r="4" fill="#0" id="circle31"/>
	<circle cx="92.9621" cy="385.739" r="4" fill="#0" id="circle32"/>
	<circle cx="92.9621" cy="573.188" r="4" fill="#0" id="circle33"/>
	<circle cx="99.8033" cy="42.3107" r="4" fill="#0" id="circle34"/>
	<circle cx="99.8033" cy="398.053" r="4" fill="#0" id="circle35"/>
	<circle cx="69.5969" cy="443.967" r="4" fill="#0" id="circle36"/>
	<circle cx="102.54" cy="537.613" r="4" fill="#0" id="circle37"/>
	<circle cx="106.645" cy="21.7871" r="4" fill="#0" id="circle38"/>
	<circle cx="106.645" cy="473.306" r="4" fill="#0" id="circle39"/>
	<circle cx="106.645" cy="486.988" r="4" fill="#0" id="circle40"/>
	<circle cx="106.645" cy="500.671" r="4" fill="#0" id="circle41"/>
	<circle cx="106.645" cy="514.353" r="4" fill="#0" id="circle42"/>
	<circle cx="106.645" cy="573.188" r="4" fill="#0" id="circle43"/>
	<circle cx="110.749" cy="421.313" r="4" fill="#0" id="circle44"/>
	<circle cx="113.486" cy="8.10472" r="4" fill="#0" id="circle45"/>
	<circle cx="113.486" cy="434.995" r="4" fill="#0" id="circle46"/>
	<circle cx="113.486" cy="459.624" r="4" fill="#0" id="circle47"/>
	<circle cx="120.327" cy="447.31" r="4" fill="#0" id="circle48"/>
	<circle cx="120.327" cy="573.188" r="4" fill="#0" id="circle49"/>
	<circle cx="127.168" cy="4" r="4" fill="#0" id="circle50"/>
	<circle cx="134.009" cy="573.188" r="4" fill="#0" id="circle51"/>
	<circle cx="135.378" cy="14.9459" r="4" fill="#0" id="circle52"/>
	<circle cx="140.85" cy="28.6283" r="4" fill="#0" id="circle53"/>
	<circle cx="147.692" cy="573.188" r="4" fill="#0" id="circle54"/>
	<circle cx="149.06" cy="39.5742" r="4" fill="#0" id="circle55"/>
	<circle cx="151.796" cy="53.2566" r="4" fill="#0" id="circle56"/>
	<circle cx="155.901" cy="552.664" r="4" fill="#0" id="circle57"/>
	<circle cx="165.479" cy="58.7296" r="4" fill="#0" id="circle58"/>
	<circle cx="169.584" cy="525.299" r="4" fill="#0" id="circle59"/>
	<circle cx="169.584" cy="545.823" r="4" fill="#0" id="circle60"/>
	<circle cx="175.056" cy="562.242" r="4" fill="#0" id="circle61"/>
	<circle cx="176.425" cy="477.411" r="4" fill="#0" id="circle62"/>
	<circle cx="176.425" cy="491.093" r="4" fill="#0" id="circle63"/>
	<circle cx="160.559" cy="530.292" r="4" fill="#0" id="circle64"/>
	<circle cx="179.161" cy="58.7296" r="4" fill="#0" id="circle65"/>
	<circle cx="183.266" cy="72.412" r="4" fill="#0" id="circle66"/>
	<circle cx="183.266" cy="456.887" r="4" fill="#0" id="circle67"/>
	<circle cx="183.266" cy="573.188" r="4" fill="#0" id="circle68"/>
	<circle cx="186.002" cy="551.296" r="4" fill="#0" id="circle69"/>
	<circle cx="194.212" cy="80.6214" r="4" fill="#0" id="circle70"/>
	<circle cx="196.948" cy="456.887" r="4" fill="#0" id="circle71"/>
	<circle cx="196.948" cy="573.188" r="4" fill="#0" id="circle72"/>
	<circle cx="198.317" cy="544.454" r="4" fill="#0" id="circle73"/>
	<circle cx="203.789" cy="91.5673" r="4" fill="#0" id="circle74"/>
	<circle cx="209.262" cy="463.728" r="4" fill="#0" id="circle75"/>
	<circle cx="209.262" cy="493.83" r="4" fill="#0" id="circle76"/>
	<circle cx="209.262" cy="507.512" r="4" fill="#0" id="circle77"/>
	<circle cx="209.262" cy="521.194" r="4" fill="#0" id="circle78"/>
	<circle cx="209.262" cy="534.877" r="4" fill="#0" id="circle79"/>
	<circle cx="210.631" cy="103.881" r="4" fill="#0" id="circle80"/>
	<circle cx="210.631" cy="117.564" r="4" fill="#0" id="circle81"/>
	<circle cx="210.631" cy="131.246" r="4" fill="#0" id="circle82"/>
	<circle cx="210.631" cy="573.188" r="4" fill="#0" id="circle83"/>
	<circle cx="216.104" cy="144.929" r="4" fill="#0" id="circle84"/>
	<circle cx="216.104" cy="476.043" r="4" fill="#0" id="circle85"/>
	<circle cx="217.472" cy="158.611" r="4" fill="#0" id="circle86"/>
	<circle cx="222.945" cy="172.293" r="4" fill="#0" id="circle87"/>
	<circle cx="240.207" cy="537.706" r="4" fill="#0" id="circle88"/>
	<circle cx="229.786" cy="184.608" r="4" fill="#0" id="circle89"/>
	<circle cx="237.995" cy="573.188" r="4" fill="#0" id="circle90"/>
	<circle cx="243.468" cy="188.712" r="4" fill="#0" id="circle91"/>
	<circle cx="251.678" cy="575.924" r="4" fill="#0" id="circle92"/>
	<circle cx="257.151" cy="191.449" r="4" fill="#0" id="circle93"/>
	<circle cx="261.256" cy="564.978" r="4" fill="#0" id="circle94"/>
	<circle cx="265.36" cy="525.299" r="4" fill="#0" id="circle95"/>
	<circle cx="265.36" cy="538.982" r="4" fill="#0" id="circle96"/>
	<circle cx="269.465" cy="198.29" r="4" fill="#0" id="circle97"/>
	<circle cx="272.201" cy="511.617" r="4" fill="#0" id="circle98"/>
	<circle cx="279.043" cy="484.252" r="4" fill="#0" id="circle99"/>
	<circle cx="279.043" cy="497.934" r="4" fill="#0" id="circle100"/>
	<circle cx="283.147" cy="202.395" r="4" fill="#0" id="circle101"/>
	<circle cx="285.884" cy="470.57" r="4" fill="#0" id="circle102"/>
	<circle cx="295.462" cy="195.553" r="4" fill="#0" id="circle103"/>
	<circle cx="296.83" cy="460.992" r="4" fill="#0" id="circle104"/>
	<circle cx="319.092" cy="501.365" r="4" fill="#0" id="circle105"/>
	<circle cx="309.144" cy="195.553" r="4" fill="#0" id="circle106"/>
	<circle cx="317.353" cy="456.887" r="4" fill="#0" id="circle107"/>
	<circle cx="321.458" cy="188.712" r="4" fill="#0" id="circle108"/>
	<circle cx="331.036" cy="456.887" r="4" fill="#0" id="circle109"/>
	<circle cx="335.14" cy="188.712" r="4" fill="#0" id="circle110"/>
	<circle cx="343.35" cy="450.046" r="4" fill="#0" id="circle111"/>
	<circle cx="348.823" cy="188.712" r="4" fill="#0" id="circle112"/>
	<circle cx="355.664" cy="443.205" r="4" fill="#0" id="circle113"/>
	<circle cx="361.137" cy="181.871" r="4" fill="#0" id="circle114"/>
	<circle cx="367.978" cy="436.364" r="4" fill="#0" id="circle115"/>
	<circle cx="373.451" cy="175.03" r="4" fill="#0" id="circle116"/>
	<circle cx="381.661" cy="429.522" r="4" fill="#0" id="circle117"/>
	<circle cx="387.134" cy="175.03" r="4" fill="#0" id="circle118"/>
	<circle cx="395.343" cy="429.522" r="4" fill="#0" id="circle119"/>
	<circle cx="400.816" cy="175.03" r="4" fill="#0" id="circle120"/>
	<circle cx="406.289" cy="419.945" r="4" fill="#0" id="circle121"/>
	<circle cx="413.13" cy="168.189" r="4" fill="#0" id="circle122"/>
	<circle cx="419.971" cy="413.104" r="4" fill="#0" id="circle123"/>
	<circle cx="421.34" cy="555.4" r="4" fill="#0" id="circle124"/>
	<circle cx="421.34" cy="569.083" r="4" fill="#0" id="circle125"/>
	<circle cx="426.812" cy="168.189" r="4" fill="#0" id="circle126"/>
	<circle cx="426.199" cy="427.919" r="4" fill="#0" id="circle127"/>
	<circle cx="428.181" cy="437.732" r="4" fill="#0" id="circle128"/>
	<circle cx="428.181" cy="581.397" r="4" fill="#0" id="circle129"/>
	<circle cx="435.022" cy="450.046" r="4" fill="#0" id="circle130"/>
	<circle cx="435.022" cy="548.559" r="4" fill="#0" id="circle131"/>
	<circle cx="439.127" cy="161.348" r="4" fill="#0" id="circle132"/>
	<circle cx="441.863" cy="586.87" r="4" fill="#0" id="circle133"/>
	<circle cx="443.231" cy="460.992" r="4" fill="#0" id="circle134"/>
	<circle cx="448.704" cy="544.454" r="4" fill="#0" id="circle135"/>
	<circle cx="452.809" cy="161.348" r="4" fill="#0" id="circle136"/>
	<circle cx="457.44" cy="467.651" r="4" fill="#0" id="circle137"/>
	<circle cx="462.667" cy="569.865" r="4" fill="#0" id="circle138"/>
	<circle cx="461.018" cy="537.613" r="4" fill="#0" id="circle139"/>
	<circle cx="466.491" cy="161.348" r="4" fill="#0" id="circle140"/>
	<circle cx="466.491" cy="477.411" r="4" fill="#0" id="circle141"/>
	<circle cx="469.228" cy="586.87" r="4" fill="#0" id="circle142"/>
	<circle cx="473.333" cy="530.772" r="4" fill="#0" id="circle143"/>
	<circle cx="478.806" cy="154.506" r="4" fill="#0" id="circle144"/>
	<circle cx="480.174" cy="482.884" r="4" fill="#0" id="circle145"/>
	<circle cx="482.91" cy="586.87" r="4" fill="#0" id="circle146"/>
	<circle cx="484.279" cy="519.826" r="4" fill="#0" id="circle147"/>
	<circle cx="491.12" cy="161.348" r="4" fill="#0" id="circle148"/>
	<circle cx="492.488" cy="489.725" r="4" fill="#0" id="circle149"/>
	<circle cx="495.224" cy="510.249" r="4" fill="#0" id="circle150"/>
	<circle cx="495.65" cy="579.637" r="4" fill="#0" id="circle151"/>
	<circle cx="503.434" cy="154.506" r="4" fill="#0" id="circle152"/>
	<circle cx="504.802" cy="566.346" r="4" fill="#0" id="circle153"/>
	<circle cx="515.748" cy="161.348" r="4" fill="#0" id="circle154"/>
	<circle cx="517.116" cy="559.505" r="4" fill="#0" id="circle155"/>
	<circle cx="529.43" cy="161.348" r="4" fill="#0" id="circle156"/>
	<circle cx="529.43" cy="566.346" r="4" fill="#0" id="circle157"/>
	<circle cx="541.745" cy="168.189" r="4" fill="#0" id="circle158"/>
	<circle cx="544.069" cy="569.653" r="4" fill="#0" id="circle159"/>
	<circle cx="555.427" cy="168.189" r="4" fill="#0" id="circle160"/>
	<circle cx="555.427" cy="573.188" r="4" fill="#0" id="circle161"/>
	<circle cx="567.741" cy="175.03" r="4" fill="#0" id="circle162"/>
	<circle cx="567.741" cy="566.346" r="4" fill="#0" id="circle163"/>
	<circle cx="575.73" cy="552.612" r="4" fill="#0" id="circle164"/>
	<circle cx="580.055" cy="181.871" r="4" fill="#0" id="circle165"/>
	<circle cx="586.896" cy="381.634" r="4" fill="#0" id="circle166"/>
	<circle cx="586.896" cy="402.158" r="4" fill="#0" id="circle167"/>
	<circle cx="586.896" cy="532.14" r="4" fill="#0" id="circle168"/>
	<circle cx="589.633" cy="415.84" r="4" fill="#0" id="circle169"/>
	<circle cx="593.738" cy="185.976" r="4" fill="#0" id="circle170"/>
	<circle cx="593.738" cy="347.428" r="4" fill="#0" id="circle171"/>
	<circle cx="593.738" cy="361.11" r="4" fill="#0" id="circle172"/>
	<circle cx="596.783" cy="520.043" r="4" fill="#0" id="circle173"/>
	<circle cx="600.579" cy="497.934" r="4" fill="#0" id="circle174"/>
	<circle cx="603.315" cy="421.313" r="4" fill="#0" id="circle175"/>
	<circle cx="604.684" cy="195.553" r="4" fill="#0" id="circle176"/>
	<circle cx="604.684" cy="337.85" r="4" fill="#0" id="circle177"/>
	<circle cx="607.42" cy="320.063" r="4" fill="#0" id="circle178"/>
	<circle cx="611.525" cy="488.357" r="4" fill="#0" id="circle179"/>
	<circle cx="614.261" cy="299.54" r="4" fill="#0" id="circle180"/>
	<circle cx="615.629" cy="428.154" r="4" fill="#0" id="circle181"/>
	<circle cx="618.366" cy="196.922" r="4" fill="#0" id="circle182"/>
	<circle cx="618.366" cy="474.674" r="4" fill="#0" id="circle183"/>
	<circle cx="625.207" cy="460.992" r="4" fill="#0" id="circle184"/>
	<circle cx="626.575" cy="437.732" r="4" fill="#0" id="circle185"/>
	<circle cx="627.944" cy="207.868" r="4" fill="#0" id="circle186"/>
	<circle cx="627.944" cy="292.698" r="4" fill="#0" id="circle187"/>
	<circle cx="641.626" cy="209.236" r="4" fill="#0" id="circle188"/>
	<circle cx="641.626" cy="292.698" r="4" fill="#0" id="circle189"/>
	<circle cx="653.94" cy="216.077" r="4" fill="#0" id="circle190"/>
	<circle cx="655.308" cy="285.857" r="4" fill="#0" id="circle191"/>
	<circle cx="666.254" cy="209.236" r="4" fill="#0" id="circle192"/>
	<circle cx="667.623" cy="279.016" r="4" fill="#0" id="circle193"/>
	<circle cx="679.937" cy="209.236" r="4" fill="#0" id="circle194"/>
	<circle cx="681.305" cy="274.911" r="4" fill="#0" id="circle195"/>
	<circle cx="692.251" cy="202.395" r="4" fill="#0" id="circle196"/>
	<circle cx="694.987" cy="272.175" r="4" fill="#0" id="circle197"/>
	<circle cx="705.933" cy="202.395" r="4" fill="#0" id="circle198"/>
	<circle cx="707.302" cy="265.334" r="4" fill="#0" id="circle199"/>
	<circle cx="718.247" cy="195.553" r="4" fill="#0" id="circle200"/>
	<circle cx="719.616" cy="258.492" r="4" fill="#0" id="circle201"/>
	<circle cx="731.93" cy="195.553" r="4" fill="#0" id="circle202"/>
	<circle cx="733.298" cy="258.492" r="4" fill="#0" id="circle203"/>
	<circle cx="744.244" cy="188.712" r="4" fill="#0" id="circle204"/>
	<circle cx="746.98" cy="257.124" r="4" fill="#0" id="circle205"/>
	<circle cx="757.926" cy="188.712" r="4" fill="#0" id="circle206"/>
	<circle cx="760.663" cy="251.651" r="4" fill="#0" id="circle207"/>
	<circle cx="771.609" cy="184.608" r="4" fill="#0" id="circle208"/>
	<circle cx="772.977" cy="244.81" r="4" fill="#0" id="circle209"/>
	<circle cx="784.807" cy="176.797" r="4" fill="#0" id="circle210"/>
	<circle cx="786.659" cy="244.81" r="4" fill="#0" id="circle211"/>
	<circle cx="798.974" cy="170.925" r="4" fill="#0" id="circle212"/>
	<circle cx="798.974" cy="237.969" r="4" fill="#0" id="circle213"/>
	<circle cx="811.288" cy="231.128" r="4" fill="#0" id="circle214"/>
	<circle cx="812.656" cy="168.189" r="4" fill="#0" id="circle215"/>
	<circle cx="824.968" cy="161.344" r="4" fill="#0" id="circle216"/>
	<circle cx="824.97" cy="227.023" r="4" fill="#0" id="circle217"/>
	<circle cx="837.284" cy="154.506" r="4" fill="#0" id="circle218"/>
	<circle cx="838.652" cy="224.287" r="4" fill="#0" id="circle219"/>
	<circle cx="846.862" cy="143.56" r="4" fill="#0" id="circle220"/>
	<circle cx="849.598" cy="216.077" r="4" fill="#0" id="circle221"/>
	<circle cx="857.808" cy="133.983" r="4" fill="#0" id="circle222"/>
	<circle cx="863.281" cy="209.236" r="4" fill="#0" id="circle223"/>
	<circle cx="870.122" cy="127.142" r="4" fill="#0" id="circle224"/>
	<circle cx="876.963" cy="113.459" r="4" fill="#0" id="circle225"/>
	<circle cx="876.963" cy="202.395" r="4" fill="#0" id="circle226"/>
	<circle cx="887.909" cy="102.513" r="4" fill="#0" id="circle227"/>
	<circle cx="887.909" cy="190.081" r="4" fill="#0" id="circle228"/>
	<circle cx="894.75" cy="88.8308" r="4" fill="#0" id="circle229"/>
	<circle cx="894.75" cy="176.398" r="4" fill="#0" id="circle230"/>
	<circle cx="905.696" cy="79.2531" r="4" fill="#0" id="circle231"/>
	<circle cx="908.433" cy="169.557" r="4" fill="#0" id="circle232"/>
	<circle cx="911.169" cy="65.5708" r="4" fill="#0" id="circle233"/>
	<circle cx="915.274" cy="155.875" r="4" fill="#0" id="circle234"/>
	<circle cx="920.747" cy="49.1519" r="4" fill="#0" id="circle235"/>
	<circle cx="926.22" cy="146.297" r="4" fill="#0" id="circle236"/>
	<circle cx="928.956" cy="128.51" r="4" fill="#0" id="circle237"/>
	<circle cx="934.429" cy="42.3107" r="4" fill="#0" id="circle238"/>
	<circle cx="939.902" cy="118.932" r="4" fill="#0" id="circle239"/>
	<circle cx="945.375" cy="31.3648" r="4" fill="#0" id="circle240"/>
	<circle cx="949.48" cy="94.3038" r="4" fill="#0" id="circle241"/>
	<circle cx="949.48" cy="107.986" r="4" fill="#0" id="circle242"/>
	<circle cx="959.058" cy="31.3648" r="4" fill="#0" id="circle243"/>
	<circle cx="960.426" cy="84.7261" r="4" fill="#0" id="circle244"/>
	<circle cx="970.003" cy="73.7802" r="4" fill="#0" id="circle245"/>
	<circle cx="971.372" cy="24.5236" r="4" fill="#0" id="circle246"/>
	<circle cx="976.845" cy="60.0978" r="4" fill="#0" id="circle247"/>
	<circle cx="985.054" cy="24.5236" r="4" fill="#0" id="circle248"/>
	<circle cx="987.791" cy="50.5201" r="4" fill="#0" id="circle249"/>
	<circle cx="996" cy="34.1013" r="4" fill="#0" id="circle250"/>
	</g>
</svg>