<?xml version="1.0" encoding="UTF-8" standalone="no"?>
<!-- Created with CurveBenchmark -->
<svg
	xmlns:dc="http://purl.org/dc/elements/1.1/"
	xmlns:cc="http://creativecommons.org/ns#"
	xmlns:rdf="http://www.w3.org/1999/02/22-rdf-syntax-ns#"
	xmlns:svg="http://www.w3.org/2000/svg"
	xmlns="http://www.w3.org/2000/svg"
	xmlns:sodipodi="http://sodipodi.sourceforge.net/DTD/sodipodi-0.dtd"
	xmlns:inkscape="http://www.inkscape.org/namespaces/inkscape"
	width="1000"
	height="1000"
	id="svg2"
	version="1.1"
	sodipodi:docname="manifold/stretchdenoise-elephant01.png.txt">
<defs
	id="defs4" />
<metadata
	id="metadata7">
	<rdf:RDF>
		<cc:Work
			rdf:about="">
			<dc:format>image/svg+xml</dc:format>
			<dc:type
				rdf:resource="http://purl.org/dc/dcmitype/StillImage" />
			<dc:title></dc:title>
		</cc:Work>
	</rdf:RDF>
</metadata>
<g
	inkscape:label="Layer 1"
	inkscape:groupmode="layer"
	id="layer1">
	<path style="fill:none;stroke:red;stroke-width:1px;stroke-linecap:butt;stroke-linejoin:miter;stroke-opacity:1" d="M 54.4121,431.54 59.1777,426.127 z" id="boundary" inkscape:connector-curvature="0" />
	<path style="fill:none;stroke:red;stroke-width:1px;stroke-linecap:butt;stroke-linejoin:miter;stroke-opacity:1" d="M 54.4121,431.54 235.531,668.589 z" id="boundary" inkscape:connector-curvature="0" />
	<path style="fill:none;stroke:red;stroke-width:1px;stroke-linecap:butt;stroke-linejoin:miter;stroke-opacity:1" d="M 59.1777,426.127 104.302,370.86 z" id="boundary" inkscape:connector-curvature="0" />
	<path style="fill:none;stroke:red;stroke-width:1px;stroke-linecap:butt;stroke-linejoin:miter;stroke-opacity:1" d="M 235.531,668.589 376.058,902.148 z" id="boundary" inkscape:connector-curvature="0" />
	<path style="fill:none;stroke:red;stroke-width:1px;stroke-linecap:butt;stroke-linejoin:miter;stroke-opacity:1" d="M 104.302,370.86 139.021,350.978 z" id="boundary" inkscape:connector-curvature="0" />
	<path style="fill:none;stroke:red;stroke-width:1px;stroke-linecap:butt;stroke-linejoin:miter;stroke-opacity:1" d="M 139.021,350.978 153.686,303.09 z" id="boundary" inkscape:connector-curvature="0" />
	<path style="fill:none;stroke:red;stroke-width:1px;stroke-linecap:butt;stroke-linejoin:miter;stroke-opacity:1" d="M 153.686,303.09 167.443,263.873 z" id="boundary" inkscape:connector-curvature="0" />
	<path style="fill:none;stroke:red;stroke-width:1px;stroke-linecap:butt;stroke-linejoin:miter;stroke-opacity:1" d="M 167.443,263.873 177.046,245.629 z" id="boundary" inkscape:connector-curvature="0" />
	<path style="fill:none;stroke:red;stroke-width:1px;stroke-linecap:butt;stroke-linejoin:miter;stroke-opacity:1" d="M 177.046,245.629 188.923,229.105 z" id="boundary" inkscape:connector-curvature="0" />
	<path style="fill:none;stroke:red;stroke-width:1px;stroke-linecap:butt;stroke-linejoin:miter;stroke-opacity:1" d="M 188.923,229.105 216.19,202.073 z" id="boundary" inkscape:connector-curvature="0" />
	<path style="fill:none;stroke:red;stroke-width:1px;stroke-linecap:butt;stroke-linejoin:miter;stroke-opacity:1" d="M 216.19,202.073 235.693,164.558 z" id="boundary" inkscape:connector-curvature="0" />
	<path style="fill:none;stroke:red;stroke-width:1px;stroke-linecap:butt;stroke-linejoin:miter;stroke-opacity:1" d="M 235.693,164.558 244.254,136.777 z" id="boundary" inkscape:connector-curvature="0" />
	<path style="fill:none;stroke:red;stroke-width:1px;stroke-linecap:butt;stroke-linejoin:miter;stroke-opacity:1" d="M 244.254,136.777 249.654,116.822 z" id="boundary" inkscape:connector-curvature="0" />
	<path style="fill:none;stroke:red;stroke-width:1px;stroke-linecap:butt;stroke-linejoin:miter;stroke-opacity:1" d="M 249.654,116.822 262.671,91.3177 z" id="boundary" inkscape:connector-curvature="0" />
	<path style="fill:none;stroke:red;stroke-width:1px;stroke-linecap:butt;stroke-linejoin:miter;stroke-opacity:1" d="M 262.671,91.3177 275.476,75.3001 z" id="boundary" inkscape:connector-curvature="0" />
	<path style="fill:none;stroke:red;stroke-width:1px;stroke-linecap:butt;stroke-linejoin:miter;stroke-opacity:1" d="M 275.476,75.3001 291.159,61.5367 z" id="boundary" inkscape:connector-curvature="0" />
	<path style="fill:none;stroke:red;stroke-width:1px;stroke-linecap:butt;stroke-linejoin:miter;stroke-opacity:1" d="M 291.159,61.5367 305.274,48.0889 z" id="boundary" inkscape:connector-curvature="0" />
	<path style="fill:none;stroke:red;stroke-width:1px;stroke-linecap:butt;stroke-linejoin:miter;stroke-opacity:1" d="M 305.274,48.0889 318.133,33.3926 z" id="boundary" inkscape:connector-curvature="0" />
	<path style="fill:none;stroke:red;stroke-width:1px;stroke-linecap:butt;stroke-linejoin:miter;stroke-opacity:1" d="M 318.133,33.3926 336.504,29.7185 z" id="boundary" inkscape:connector-curvature="0" />
	<path style="fill:none;stroke:red;stroke-width:1px;stroke-linecap:butt;stroke-linejoin:miter;stroke-opacity:1" d="M 336.504,29.7185 354.874,24.2074 z" id="boundary" inkscape:connector-curvature="0" />
	<path style="fill:none;stroke:red;stroke-width:1px;stroke-linecap:butt;stroke-linejoin:miter;stroke-opacity:1" d="M 354.874,24.2074 373.244,20.5333 z" id="boundary" inkscape:connector-curvature="0" />
	<path style="fill:none;stroke:red;stroke-width:1px;stroke-linecap:butt;stroke-linejoin:miter;stroke-opacity:1" d="M 373.244,20.5333 391.615,15.0222 z" id="boundary" inkscape:connector-curvature="0" />
	<path style="fill:none;stroke:red;stroke-width:1px;stroke-linecap:butt;stroke-linejoin:miter;stroke-opacity:1" d="M 391.615,15.0222 406.311,4 z" id="boundary" inkscape:connector-curvature="0" />
	<path style="fill:none;stroke:red;stroke-width:1px;stroke-linecap:butt;stroke-linejoin:miter;stroke-opacity:1" d="M 406.311,4 422.844,13.1852 z" id="boundary" inkscape:connector-curvature="0" />
	<path style="fill:none;stroke:red;stroke-width:1px;stroke-linecap:butt;stroke-linejoin:miter;stroke-opacity:1" d="M 422.844,13.1852 437.541,26.0445 z" id="boundary" inkscape:connector-curvature="0" />
	<path style="fill:none;stroke:red;stroke-width:1px;stroke-linecap:butt;stroke-linejoin:miter;stroke-opacity:1" d="M 437.541,26.0445 446.726,42.5778 z" id="boundary" inkscape:connector-curvature="0" />
	<path style="fill:none;stroke:red;stroke-width:1px;stroke-linecap:butt;stroke-linejoin:miter;stroke-opacity:1" d="M 446.726,42.5778 457.748,57.2741 z" id="boundary" inkscape:connector-curvature="0" />
	<path style="fill:none;stroke:red;stroke-width:1px;stroke-linecap:butt;stroke-linejoin:miter;stroke-opacity:1" d="M 376.058,902.148 399.243,888.736 z" id="boundary" inkscape:connector-curvature="0" />
	<path style="fill:none;stroke:red;stroke-width:1px;stroke-linecap:butt;stroke-linejoin:miter;stroke-opacity:1" d="M 457.748,57.2741 476.119,57.2741 z" id="boundary" inkscape:connector-curvature="0" />
	<path style="fill:none;stroke:red;stroke-width:1px;stroke-linecap:butt;stroke-linejoin:miter;stroke-opacity:1" d="M 476.119,57.2741 492.652,66.4593 z" id="boundary" inkscape:connector-curvature="0" />
	<path style="fill:none;stroke:red;stroke-width:1px;stroke-linecap:butt;stroke-linejoin:miter;stroke-opacity:1" d="M 492.652,66.4593 511.022,71.9704 z" id="boundary" inkscape:connector-curvature="0" />
	<path style="fill:none;stroke:red;stroke-width:1px;stroke-linecap:butt;stroke-linejoin:miter;stroke-opacity:1" d="M 511.022,71.9704 529.393,75.6444 z" id="boundary" inkscape:connector-curvature="0" />
	<path style="fill:none;stroke:red;stroke-width:1px;stroke-linecap:butt;stroke-linejoin:miter;stroke-opacity:1" d="M 399.243,888.736 537.555,837.062 z" id="boundary" inkscape:connector-curvature="0" />
	<path style="fill:none;stroke:red;stroke-width:1px;stroke-linecap:butt;stroke-linejoin:miter;stroke-opacity:1" d="M 529.393,75.6444 545.926,84.8296 z" id="boundary" inkscape:connector-curvature="0" />
	<path style="fill:none;stroke:red;stroke-width:1px;stroke-linecap:butt;stroke-linejoin:miter;stroke-opacity:1" d="M 545.926,84.8296 564.296,88.5037 z" id="boundary" inkscape:connector-curvature="0" />
	<path style="fill:none;stroke:red;stroke-width:1px;stroke-linecap:butt;stroke-linejoin:miter;stroke-opacity:1" d="M 564.296,88.5037 580.83,97.6889 z" id="boundary" inkscape:connector-curvature="0" />
	<path style="fill:none;stroke:red;stroke-width:1px;stroke-linecap:butt;stroke-linejoin:miter;stroke-opacity:1" d="M 537.555,837.062 703.644,935.192 z" id="boundary" inkscape:connector-curvature="0" />
	<path style="fill:none;stroke:red;stroke-width:1px;stroke-linecap:butt;stroke-linejoin:miter;stroke-opacity:1" d="M 580.83,97.6889 599.2,105.037 z" id="boundary" inkscape:connector-curvature="0" />
	<path style="fill:none;stroke:red;stroke-width:1px;stroke-linecap:butt;stroke-linejoin:miter;stroke-opacity:1" d="M 599.2,105.037 612.059,119.733 z" id="boundary" inkscape:connector-curvature="0" />
	<path style="fill:none;stroke:red;stroke-width:1px;stroke-linecap:butt;stroke-linejoin:miter;stroke-opacity:1" d="M 612.059,119.733 630.43,127.081 z" id="boundary" inkscape:connector-curvature="0" />
	<path style="fill:none;stroke:red;stroke-width:1px;stroke-linecap:butt;stroke-linejoin:miter;stroke-opacity:1" d="M 630.43,127.081 646.963,136.267 z" id="boundary" inkscape:connector-curvature="0" />
	<path style="fill:none;stroke:red;stroke-width:1px;stroke-linecap:butt;stroke-linejoin:miter;stroke-opacity:1" d="M 646.963,136.267 657.985,150.963 z" id="boundary" inkscape:connector-curvature="0" />
	<path style="fill:none;stroke:red;stroke-width:1px;stroke-linecap:butt;stroke-linejoin:miter;stroke-opacity:1" d="M 657.985,150.963 667.17,167.496 z" id="boundary" inkscape:connector-curvature="0" />
	<path style="fill:none;stroke:red;stroke-width:1px;stroke-linecap:butt;stroke-linejoin:miter;stroke-opacity:1" d="M 667.17,167.496 683.704,176.681 z" id="boundary" inkscape:connector-curvature="0" />
	<path style="fill:none;stroke:red;stroke-width:1px;stroke-linecap:butt;stroke-linejoin:miter;stroke-opacity:1" d="M 703.644,935.192 802.084,864.658 z" id="boundary" inkscape:connector-curvature="0" />
	<path style="fill:none;stroke:red;stroke-width:1px;stroke-linecap:butt;stroke-linejoin:miter;stroke-opacity:1" d="M 683.704,176.681 702.074,171.17 z" id="boundary" inkscape:connector-curvature="0" />
	<path style="fill:none;stroke:red;stroke-width:1px;stroke-linecap:butt;stroke-linejoin:miter;stroke-opacity:1" d="M 702.074,171.17 720.444,173.007 z" id="boundary" inkscape:connector-curvature="0" />
	<path style="fill:none;stroke:red;stroke-width:1px;stroke-linecap:butt;stroke-linejoin:miter;stroke-opacity:1" d="M 720.444,173.007 738.815,176.681 z" id="boundary" inkscape:connector-curvature="0" />
	<path style="fill:none;stroke:red;stroke-width:1px;stroke-linecap:butt;stroke-linejoin:miter;stroke-opacity:1" d="M 738.815,176.681 757.185,180.356 z" id="boundary" inkscape:connector-curvature="0" />
	<path style="fill:none;stroke:red;stroke-width:1px;stroke-linecap:butt;stroke-linejoin:miter;stroke-opacity:1" d="M 757.185,180.356 773.719,189.541 z" id="boundary" inkscape:connector-curvature="0" />
	<path style="fill:none;stroke:red;stroke-width:1px;stroke-linecap:butt;stroke-linejoin:miter;stroke-opacity:1" d="M 773.719,189.541 792.089,196.889 z" id="boundary" inkscape:connector-curvature="0" />
	<path style="fill:none;stroke:red;stroke-width:1px;stroke-linecap:butt;stroke-linejoin:miter;stroke-opacity:1" d="M 792.089,196.889 808.622,206.074 z" id="boundary" inkscape:connector-curvature="0" />
	<path style="fill:none;stroke:red;stroke-width:1px;stroke-linecap:butt;stroke-linejoin:miter;stroke-opacity:1" d="M 808.622,206.074 826.993,213.422 z" id="boundary" inkscape:connector-curvature="0" />
	<path style="fill:none;stroke:red;stroke-width:1px;stroke-linecap:butt;stroke-linejoin:miter;stroke-opacity:1" d="M 826.993,213.422 839.852,228.119 z" id="boundary" inkscape:connector-curvature="0" />
	<path style="fill:none;stroke:red;stroke-width:1px;stroke-linecap:butt;stroke-linejoin:miter;stroke-opacity:1" d="M 802.084,864.658 940.561,707.34 z" id="boundary" inkscape:connector-curvature="0" />
	<path style="fill:none;stroke:red;stroke-width:1px;stroke-linecap:butt;stroke-linejoin:miter;stroke-opacity:1" d="M 839.852,228.119 854.548,240.978 z" id="boundary" inkscape:connector-curvature="0" />
	<path style="fill:none;stroke:red;stroke-width:1px;stroke-linecap:butt;stroke-linejoin:miter;stroke-opacity:1" d="M 854.548,240.978 867.407,255.674 z" id="boundary" inkscape:connector-curvature="0" />
	<path style="fill:none;stroke:red;stroke-width:1px;stroke-linecap:butt;stroke-linejoin:miter;stroke-opacity:1" d="M 867.407,255.674 882.104,268.533 z" id="boundary" inkscape:connector-curvature="0" />
	<path style="fill:none;stroke:red;stroke-width:1px;stroke-linecap:butt;stroke-linejoin:miter;stroke-opacity:1" d="M 882.104,268.533 898.637,277.719 z" id="boundary" inkscape:connector-curvature="0" />
	<path style="fill:none;stroke:red;stroke-width:1px;stroke-linecap:butt;stroke-linejoin:miter;stroke-opacity:1" d="M 898.637,277.719 905.985,296.089 z" id="boundary" inkscape:connector-curvature="0" />
	<path style="fill:none;stroke:red;stroke-width:1px;stroke-linecap:butt;stroke-linejoin:miter;stroke-opacity:1" d="M 905.985,296.089 920.108,307.674 z" id="boundary" inkscape:connector-curvature="0" />
	<path style="fill:none;stroke:red;stroke-width:1px;stroke-linecap:butt;stroke-linejoin:miter;stroke-opacity:1" d="M 920.108,307.674 932.269,322.655 z" id="boundary" inkscape:connector-curvature="0" />
	<path style="fill:none;stroke:red;stroke-width:1px;stroke-linecap:butt;stroke-linejoin:miter;stroke-opacity:1" d="M 932.269,322.655 951.089,356.224 z" id="boundary" inkscape:connector-curvature="0" />
	<path style="fill:none;stroke:red;stroke-width:1px;stroke-linecap:butt;stroke-linejoin:miter;stroke-opacity:1" d="M 951.089,356.224 966.238,389.151 z" id="boundary" inkscape:connector-curvature="0" />
	<path style="fill:none;stroke:red;stroke-width:1px;stroke-linecap:butt;stroke-linejoin:miter;stroke-opacity:1" d="M 950.955,651.12 940.561,707.34 z" id="boundary" inkscape:connector-curvature="0" />
	<path style="fill:none;stroke:red;stroke-width:1px;stroke-linecap:butt;stroke-linejoin:miter;stroke-opacity:1" d="M 950.955,651.12 975.7,558.608 z" id="boundary" inkscape:connector-curvature="0" />
	<path style="fill:none;stroke:red;stroke-width:1px;stroke-linecap:butt;stroke-linejoin:miter;stroke-opacity:1" d="M 966.238,389.151 980.346,424.449 z" id="boundary" inkscape:connector-curvature="0" />
	<path style="fill:none;stroke:red;stroke-width:1px;stroke-linecap:butt;stroke-linejoin:miter;stroke-opacity:1" d="M 980.346,424.449 986.056,459.977 z" id="boundary" inkscape:connector-curvature="0" />
	<path style="fill:none;stroke:red;stroke-width:1px;stroke-linecap:butt;stroke-linejoin:miter;stroke-opacity:1" d="M 975.7,558.608 986.056,459.977 z" id="boundary" inkscape:connector-curvature="0" />
	<circle cx="4" cy="430.193" r="4" fill="#0" id="circle0"/>
	<circle cx="4" cy="448.563" r="4" fill="#0" id="circle1"/>
	<circle cx="4" cy="742.489" r="4" fill="#0" id="circle2"/>
	<circle cx="13.1852" cy="724.119" r="4" fill="#0" id="circle3"/>
	<circle cx="13.1852" cy="759.022" r="4" fill="#0" id="circle4"/>
	<circle cx="54.4121" cy="431.54" r="4" fill="#0" id="circle5"/>
	<circle cx="22.3704" cy="454.074" r="4" fill="#0" id="circle6"/>
	<circle cx="27.8815" cy="709.422" r="4" fill="#0" id="circle7"/>
	<circle cx="31.5556" cy="766.37" r="4" fill="#0" id="circle8"/>
	<circle cx="38.9037" cy="415.496" r="4" fill="#0" id="circle9"/>
	<circle cx="40.7407" cy="448.563" r="4" fill="#0" id="circle10"/>
	<circle cx="44.4148" cy="718.607" r="4" fill="#0" id="circle11"/>
	<circle cx="48.0889" cy="775.556" r="4" fill="#0" id="circle12"/>
	<circle cx="51.763" cy="400.8" r="4" fill="#0" id="circle13"/>
	<circle cx="59.1111" cy="439.378" r="4" fill="#0" id="circle14"/>
	<circle cx="59.1111" cy="696.563" r="4" fill="#0" id="circle15"/>
	<circle cx="64.6222" cy="784.741" r="4" fill="#0" id="circle16"/>
	<circle cx="59.1777" cy="426.127" r="4" fill="#0" id="circle17"/>
	<circle cx="73.8074" cy="426.519" r="4" fill="#0" id="circle18"/>
	<circle cx="73.8074" cy="681.867" r="4" fill="#0" id="circle19"/>
	<circle cx="235.531" cy="668.589" r="4" fill="#0" id="circle20"/>
	<circle cx="86.6667" cy="641.452" r="4" fill="#0" id="circle21"/>
	<circle cx="86.6667" cy="659.822" r="4" fill="#0" id="circle22"/>
	<circle cx="88.5037" cy="382.43" r="4" fill="#0" id="circle23"/>
	<circle cx="92.1778" cy="424.681" r="4" fill="#0" id="circle24"/>
	<circle cx="95.8519" cy="613.896" r="4" fill="#0" id="circle25"/>
	<circle cx="95.8519" cy="760.859" r="4" fill="#0" id="circle26"/>
	<circle cx="104.302" cy="370.86" r="4" fill="#0" id="circle27"/>
	<circle cx="105.037" cy="448.563" r="4" fill="#0" id="circle28"/>
	<circle cx="105.037" cy="567.97" r="4" fill="#0" id="circle29"/>
	<circle cx="105.037" cy="586.341" r="4" fill="#0" id="circle30"/>
	<circle cx="105.037" cy="742.489" r="4" fill="#0" id="circle31"/>
	<circle cx="110.548" cy="417.333" r="4" fill="#0" id="circle32"/>
	<circle cx="114.222" cy="540.415" r="4" fill="#0" id="circle33"/>
	<circle cx="116.059" cy="354.874" r="4" fill="#0" id="circle34"/>
	<circle cx="116.059" cy="463.259" r="4" fill="#0" id="circle35"/>
	<circle cx="119.733" cy="433.867" r="4" fill="#0" id="circle36"/>
	<circle cx="119.733" cy="727.793" r="4" fill="#0" id="circle37"/>
	<circle cx="123.407" cy="503.674" r="4" fill="#0" id="circle38"/>
	<circle cx="123.407" cy="522.044" r="4" fill="#0" id="circle39"/>
	<circle cx="127.081" cy="408.148" r="4" fill="#0" id="circle40"/>
	<circle cx="128.919" cy="709.422" r="4" fill="#0" id="circle41"/>
	<circle cx="139.021" cy="350.978" r="4" fill="#0" id="circle42"/>
	<circle cx="132.593" cy="476.119" r="4" fill="#0" id="circle43"/>
	<circle cx="138.104" cy="323.644" r="4" fill="#0" id="circle44"/>
	<circle cx="138.104" cy="433.867" r="4" fill="#0" id="circle45"/>
	<circle cx="143.615" cy="398.963" r="4" fill="#0" id="circle46"/>
	<circle cx="143.615" cy="683.704" r="4" fill="#0" id="circle47"/>
	<circle cx="147.289" cy="417.333" r="4" fill="#0" id="circle48"/>
	<circle cx="153.686" cy="303.09" r="4" fill="#0" id="circle49"/>
	<circle cx="152.8" cy="665.333" r="4" fill="#0" id="circle50"/>
	<circle cx="160.148" cy="283.23" r="4" fill="#0" id="circle51"/>
	<circle cx="161.985" cy="637.778" r="4" fill="#0" id="circle52"/>
	<circle cx="167.443" cy="263.873" r="4" fill="#0" id="circle53"/>
	<circle cx="171.17" cy="610.222" r="4" fill="#0" id="circle54"/>
	<circle cx="177.046" cy="245.629" r="4" fill="#0" id="circle55"/>
	<circle cx="180.356" cy="591.852" r="4" fill="#0" id="circle56"/>
	<circle cx="188.923" cy="229.105" r="4" fill="#0" id="circle57"/>
	<circle cx="189.541" cy="573.481" r="4" fill="#0" id="circle58"/>
	<circle cx="198.726" cy="545.926" r="4" fill="#0" id="circle59"/>
	<circle cx="202.4" cy="213.422" r="4" fill="#0" id="circle60"/>
	<circle cx="207.911" cy="527.556" r="4" fill="#0" id="circle61"/>
	<circle cx="217.096" cy="500" r="4" fill="#0" id="circle62"/>
	<circle cx="216.19" cy="202.073" r="4" fill="#0" id="circle63"/>
	<circle cx="224.444" cy="733.304" r="4" fill="#0" id="circle64"/>
	<circle cx="228.119" cy="187.704" r="4" fill="#0" id="circle65"/>
	<circle cx="235.693" cy="164.558" r="4" fill="#0" id="circle66"/>
	<circle cx="233.63" cy="705.748" r="4" fill="#0" id="circle67"/>
	<circle cx="233.63" cy="749.837" r="4" fill="#0" id="circle68"/>
	<circle cx="235.467" cy="490.815" r="4" fill="#0" id="circle69"/>
	<circle cx="244.254" cy="136.777" r="4" fill="#0" id="circle70"/>
	<circle cx="242.815" cy="766.37" r="4" fill="#0" id="circle71"/>
	<circle cx="242.815" cy="784.741" r="4" fill="#0" id="circle72"/>
	<circle cx="242.815" cy="834.341" r="4" fill="#0" id="circle73"/>
	<circle cx="248.326" cy="691.052" r="4" fill="#0" id="circle74"/>
	<circle cx="249.654" cy="116.822" r="4" fill="#0" id="circle75"/>
	<circle cx="252" cy="481.63" r="4" fill="#0" id="circle76"/>
	<circle cx="252" cy="850.874" r="4" fill="#0" id="circle77"/>
	<circle cx="257.511" cy="819.644" r="4" fill="#0" id="circle78"/>
	<circle cx="262.671" cy="91.3177" r="4" fill="#0" id="circle79"/>
	<circle cx="261.185" cy="669.007" r="4" fill="#0" id="circle80"/>
	<circle cx="261.185" cy="788.415" r="4" fill="#0" id="circle81"/>
	<circle cx="266.696" cy="470.607" r="4" fill="#0" id="circle82"/>
	<circle cx="270.37" cy="804.948" r="4" fill="#0" id="circle83"/>
	<circle cx="270.37" cy="858.222" r="4" fill="#0" id="circle84"/>
	<circle cx="272.207" cy="766.37" r="4" fill="#0" id="circle85"/>
	<circle cx="275.476" cy="75.3001" r="4" fill="#0" id="circle86"/>
	<circle cx="279.556" cy="577.156" r="4" fill="#0" id="circle87"/>
	<circle cx="279.556" cy="604.711" r="4" fill="#0" id="circle88"/>
	<circle cx="279.556" cy="623.081" r="4" fill="#0" id="circle89"/>
	<circle cx="279.556" cy="641.452" r="4" fill="#0" id="circle90"/>
	<circle cx="279.556" cy="663.496" r="4" fill="#0" id="circle91"/>
	<circle cx="279.556" cy="784.741" r="4" fill="#0" id="circle92"/>
	<circle cx="285.067" cy="461.422" r="4" fill="#0" id="circle93"/>
	<circle cx="286.904" cy="867.407" r="4" fill="#0" id="circle94"/>
	<circle cx="288.741" cy="522.044" r="4" fill="#0" id="circle95"/>
	<circle cx="288.741" cy="540.415" r="4" fill="#0" id="circle96"/>
	<circle cx="288.741" cy="558.785" r="4" fill="#0" id="circle97"/>
	<circle cx="291.159" cy="61.5367" r="4" fill="#0" id="circle98"/>
	<circle cx="297.926" cy="503.674" r="4" fill="#0" id="circle99"/>
	<circle cx="299.763" cy="444.889" r="4" fill="#0" id="circle100"/>
	<circle cx="305.274" cy="48.0889" r="4" fill="#0" id="circle101"/>
	<circle cx="305.274" cy="867.407" r="4" fill="#0" id="circle102"/>
	<circle cx="307.111" cy="476.119" r="4" fill="#0" id="circle103"/>
	<circle cx="308.948" cy="417.333" r="4" fill="#0" id="circle104"/>
	<circle cx="318.133" cy="33.3926" r="4" fill="#0" id="circle105"/>
	<circle cx="318.133" cy="389.778" r="4" fill="#0" id="circle106"/>
	<circle cx="318.133" cy="437.541" r="4" fill="#0" id="circle107"/>
	<circle cx="321.807" cy="856.385" r="4" fill="#0" id="circle108"/>
	<circle cx="327.319" cy="371.407" r="4" fill="#0" id="circle109"/>
	<circle cx="327.319" cy="409.985" r="4" fill="#0" id="circle110"/>
	<circle cx="330.993" cy="838.015" r="4" fill="#0" id="circle111"/>
	<circle cx="336.504" cy="29.7185" r="4" fill="#0" id="circle112"/>
	<circle cx="336.504" cy="391.615" r="4" fill="#0" id="circle113"/>
	<circle cx="340.178" cy="821.481" r="4" fill="#0" id="circle114"/>
	<circle cx="354.874" cy="24.2074" r="4" fill="#0" id="circle115"/>
	<circle cx="356.711" cy="812.296" r="4" fill="#0" id="circle116"/>
	<circle cx="371.407" cy="797.6" r="4" fill="#0" id="circle117"/>
	<circle cx="373.244" cy="20.5333" r="4" fill="#0" id="circle118"/>
	<circle cx="382.43" cy="766.37" r="4" fill="#0" id="circle119"/>
	<circle cx="386.104" cy="784.741" r="4" fill="#0" id="circle120"/>
	<circle cx="391.615" cy="15.0222" r="4" fill="#0" id="circle121"/>
	<circle cx="400.8" cy="748" r="4" fill="#0" id="circle122"/>
	<circle cx="406.311" cy="4" r="4" fill="#0" id="circle123"/>
	<circle cx="417.333" cy="738.815" r="4" fill="#0" id="circle124"/>
	<circle cx="422.844" cy="13.1852" r="4" fill="#0" id="circle125"/>
	<circle cx="432.03" cy="727.793" r="4" fill="#0" id="circle126"/>
	<circle cx="437.541" cy="26.0445" r="4" fill="#0" id="circle127"/>
	<circle cx="446.726" cy="42.5778" r="4" fill="#0" id="circle128"/>
	<circle cx="376.058" cy="902.148" r="4" fill="#0" id="circle129"/>
	<circle cx="457.748" cy="57.2741" r="4" fill="#0" id="circle130"/>
	<circle cx="463.259" cy="702.074" r="4" fill="#0" id="circle131"/>
	<circle cx="476.119" cy="57.2741" r="4" fill="#0" id="circle132"/>
	<circle cx="479.793" cy="692.889" r="4" fill="#0" id="circle133"/>
	<circle cx="492.652" cy="66.4593" r="4" fill="#0" id="circle134"/>
	<circle cx="496.326" cy="683.704" r="4" fill="#0" id="circle135"/>
	<circle cx="511.022" cy="71.9704" r="4" fill="#0" id="circle136"/>
	<circle cx="399.243" cy="888.736" r="4" fill="#0" id="circle137"/>
	<circle cx="518.37" cy="825.156" r="4" fill="#0" id="circle138"/>
	<circle cx="518.37" cy="843.526" r="4" fill="#0" id="circle139"/>
	<circle cx="529.393" cy="75.6444" r="4" fill="#0" id="circle140"/>
	<circle cx="529.393" cy="665.333" r="4" fill="#0" id="circle141"/>
	<circle cx="533.067" cy="856.385" r="4" fill="#0" id="circle142"/>
	<circle cx="536.741" cy="815.97" r="4" fill="#0" id="circle143"/>
	<circle cx="545.926" cy="84.8296" r="4" fill="#0" id="circle144"/>
	<circle cx="545.926" cy="656.148" r="4" fill="#0" id="circle145"/>
	<circle cx="545.926" cy="871.081" r="4" fill="#0" id="circle146"/>
	<circle cx="551.437" cy="801.274" r="4" fill="#0" id="circle147"/>
	<circle cx="560.622" cy="883.941" r="4" fill="#0" id="circle148"/>
	<circle cx="562.459" cy="665.333" r="4" fill="#0" id="circle149"/>
	<circle cx="564.296" cy="88.5037" r="4" fill="#0" id="circle150"/>
	<circle cx="569.807" cy="801.274" r="4" fill="#0" id="circle151"/>
	<circle cx="573.481" cy="898.637" r="4" fill="#0" id="circle152"/>
	<circle cx="537.555" cy="837.062" r="4" fill="#0" id="circle153"/>
	<circle cx="580.83" cy="97.6889" r="4" fill="#0" id="circle154"/>
	<circle cx="582.667" cy="779.23" r="4" fill="#0" id="circle155"/>
	<circle cx="591.852" cy="904.148" r="4" fill="#0" id="circle156"/>
	<circle cx="597.363" cy="681.867" r="4" fill="#0" id="circle157"/>
	<circle cx="597.363" cy="764.533" r="4" fill="#0" id="circle158"/>
	<circle cx="599.2" cy="105.037" r="4" fill="#0" id="circle159"/>
	<circle cx="602.874" cy="918.844" r="4" fill="#0" id="circle160"/>
	<circle cx="610.222" cy="733.304" r="4" fill="#0" id="circle161"/>
	<circle cx="612.059" cy="119.733" r="4" fill="#0" id="circle162"/>
	<circle cx="613.896" cy="691.052" r="4" fill="#0" id="circle163"/>
	<circle cx="621.244" cy="922.519" r="4" fill="#0" id="circle164"/>
	<circle cx="624.919" cy="718.607" r="4" fill="#0" id="circle165"/>
	<circle cx="630.43" cy="127.081" r="4" fill="#0" id="circle166"/>
	<circle cx="635.941" cy="909.659" r="4" fill="#0" id="circle167"/>
	<circle cx="645.126" cy="891.289" r="4" fill="#0" id="circle168"/>
	<circle cx="646.963" cy="136.267" r="4" fill="#0" id="circle169"/>
	<circle cx="654.311" cy="872.919" r="4" fill="#0" id="circle170"/>
	<circle cx="657.985" cy="150.963" r="4" fill="#0" id="circle171"/>
	<circle cx="667.17" cy="167.496" r="4" fill="#0" id="circle172"/>
	<circle cx="667.17" cy="858.222" r="4" fill="#0" id="circle173"/>
	<circle cx="703.644" cy="935.192" r="4" fill="#0" id="circle174"/>
	<circle cx="683.704" cy="176.681" r="4" fill="#0" id="circle175"/>
	<circle cx="691.052" cy="826.993" r="4" fill="#0" id="circle176"/>
	<circle cx="702.074" cy="171.17" r="4" fill="#0" id="circle177"/>
	<circle cx="702.074" cy="972.119" r="4" fill="#0" id="circle178"/>
	<circle cx="703.911" cy="812.296" r="4" fill="#0" id="circle179"/>
	<circle cx="711.259" cy="944.563" r="4" fill="#0" id="circle180"/>
	<circle cx="718.607" cy="799.437" r="4" fill="#0" id="circle181"/>
	<circle cx="720.444" cy="173.007" r="4" fill="#0" id="circle182"/>
	<circle cx="720.444" cy="977.63" r="4" fill="#0" id="circle183"/>
	<circle cx="725.956" cy="929.867" r="4" fill="#0" id="circle184"/>
	<circle cx="729.63" cy="784.741" r="4" fill="#0" id="circle185"/>
	<circle cx="736.978" cy="986.815" r="4" fill="#0" id="circle186"/>
	<circle cx="738.815" cy="176.681" r="4" fill="#0" id="circle187"/>
	<circle cx="738.815" cy="880.267" r="4" fill="#0" id="circle188"/>
	<circle cx="738.815" cy="898.637" r="4" fill="#0" id="circle189"/>
	<circle cx="746.163" cy="793.926" r="4" fill="#0" id="circle190"/>
	<circle cx="748" cy="812.296" r="4" fill="#0" id="circle191"/>
	<circle cx="748" cy="830.667" r="4" fill="#0" id="circle192"/>
	<circle cx="748" cy="849.037" r="4" fill="#0" id="circle193"/>
	<circle cx="753.511" cy="996" r="4" fill="#0" id="circle194"/>
	<circle cx="757.185" cy="180.356" r="4" fill="#0" id="circle195"/>
	<circle cx="771.881" cy="996" r="4" fill="#0" id="circle196"/>
	<circle cx="773.719" cy="189.541" r="4" fill="#0" id="circle197"/>
	<circle cx="790.252" cy="996" r="4" fill="#0" id="circle198"/>
	<circle cx="792.089" cy="196.889" r="4" fill="#0" id="circle199"/>
	<circle cx="808.622" cy="206.074" r="4" fill="#0" id="circle200"/>
	<circle cx="808.622" cy="994.163" r="4" fill="#0" id="circle201"/>
	<circle cx="823.319" cy="977.63" r="4" fill="#0" id="circle202"/>
	<circle cx="826.993" cy="213.422" r="4" fill="#0" id="circle203"/>
	<circle cx="832.504" cy="830.667" r="4" fill="#0" id="circle204"/>
	<circle cx="832.504" cy="922.519" r="4" fill="#0" id="circle205"/>
	<circle cx="836.178" cy="849.037" r="4" fill="#0" id="circle206"/>
	<circle cx="802.084" cy="864.658" r="4" fill="#0" id="circle207"/>
	<circle cx="838.015" cy="964.77" r="4" fill="#0" id="circle208"/>
	<circle cx="839.852" cy="228.119" r="4" fill="#0" id="circle209"/>
	<circle cx="841.689" cy="803.111" r="4" fill="#0" id="circle210"/>
	<circle cx="841.689" cy="867.407" r="4" fill="#0" id="circle211"/>
	<circle cx="841.689" cy="885.778" r="4" fill="#0" id="circle212"/>
	<circle cx="841.689" cy="904.148" r="4" fill="#0" id="circle213"/>
	<circle cx="850.874" cy="748" r="4" fill="#0" id="circle214"/>
	<circle cx="850.874" cy="766.37" r="4" fill="#0" id="circle215"/>
	<circle cx="850.874" cy="784.741" r="4" fill="#0" id="circle216"/>
	<circle cx="854.548" cy="240.978" r="4" fill="#0" id="circle217"/>
	<circle cx="860.059" cy="729.63" r="4" fill="#0" id="circle218"/>
	<circle cx="867.407" cy="255.674" r="4" fill="#0" id="circle219"/>
	<circle cx="869.244" cy="711.259" r="4" fill="#0" id="circle220"/>
	<circle cx="878.43" cy="683.704" r="4" fill="#0" id="circle221"/>
	<circle cx="882.104" cy="268.533" r="4" fill="#0" id="circle222"/>
	<circle cx="893.126" cy="670.844" r="4" fill="#0" id="circle223"/>
	<circle cx="898.637" cy="277.719" r="4" fill="#0" id="circle224"/>
	<circle cx="905.985" cy="296.089" r="4" fill="#0" id="circle225"/>
	<circle cx="905.985" cy="656.148" r="4" fill="#0" id="circle226"/>
	<circle cx="917.007" cy="670.844" r="4" fill="#0" id="circle227"/>
	<circle cx="920.108" cy="307.674" r="4" fill="#0" id="circle228"/>
	<circle cx="922.519" cy="646.963" r="4" fill="#0" id="circle229"/>
	<circle cx="922.519" cy="689.215" r="4" fill="#0" id="circle230"/>
	<circle cx="924.356" cy="707.585" r="4" fill="#0" id="circle231"/>
	<circle cx="932.269" cy="322.655" r="4" fill="#0" id="circle232"/>
	<circle cx="939.052" cy="720.444" r="4" fill="#0" id="circle233"/>
	<circle cx="940.889" cy="738.815" r="4" fill="#0" id="circle234"/>
	<circle cx="940.889" cy="757.185" r="4" fill="#0" id="circle235"/>
	<circle cx="940.889" cy="775.556" r="4" fill="#0" id="circle236"/>
	<circle cx="940.889" cy="806.785" r="4" fill="#0" id="circle237"/>
	<circle cx="942.726" cy="338.341" r="4" fill="#0" id="circle238"/>
	<circle cx="951.089" cy="356.224" r="4" fill="#0" id="circle239"/>
	<circle cx="955.585" cy="819.644" r="4" fill="#0" id="circle240"/>
	<circle cx="961.096" cy="371.407" r="4" fill="#0" id="circle241"/>
	<circle cx="961.096" cy="591.852" r="4" fill="#0" id="circle242"/>
	<circle cx="961.096" cy="610.222" r="4" fill="#0" id="circle243"/>
	<circle cx="961.096" cy="628.593" r="4" fill="#0" id="circle244"/>
	<circle cx="961.096" cy="646.963" r="4" fill="#0" id="circle245"/>
	<circle cx="950.955" cy="651.12" r="4" fill="#0" id="circle246"/>
	<circle cx="961.096" cy="683.704" r="4" fill="#0" id="circle247"/>
	<circle cx="966.238" cy="389.151" r="4" fill="#0" id="circle248"/>
	<circle cx="964.77" cy="702.074" r="4" fill="#0" id="circle249"/>
	<circle cx="970.281" cy="408.148" r="4" fill="#0" id="circle250"/>
	<circle cx="940.561" cy="707.34" r="4" fill="#0" id="circle251"/>
	<circle cx="970.281" cy="738.815" r="4" fill="#0" id="circle252"/>
	<circle cx="970.281" cy="757.185" r="4" fill="#0" id="circle253"/>
	<circle cx="970.281" cy="775.556" r="4" fill="#0" id="circle254"/>
	<circle cx="970.281" cy="793.926" r="4" fill="#0" id="circle255"/>
	<circle cx="975.793" cy="578.993" r="4" fill="#0" id="circle256"/>
	<circle cx="980.346" cy="424.449" r="4" fill="#0" id="circle257"/>
	<circle cx="975.7" cy="558.608" r="4" fill="#0" id="circle258"/>
	<circle cx="988.652" cy="441.215" r="4" fill="#0" id="circle259"/>
	<circle cx="986.056" cy="459.977" r="4" fill="#0" id="circle260"/>
	<circle cx="988.652" cy="481.63" r="4" fill="#0" id="circle261"/>
	<circle cx="988.652" cy="509.185" r="4" fill="#0" id="circle262"/>
	<circle cx="988.652" cy="527.556" r="4" fill="#0" id="circle263"/>
	</g>
</svg>