<?xml version="1.0" encoding="UTF-8" standalone="no"?>
<!-- Created with CurveBenchmark -->
<svg
	xmlns:dc="http://purl.org/dc/elements/1.1/"
	xmlns:cc="http://creativecommons.org/ns#"
	xmlns:rdf="http://www.w3.org/1999/02/22-rdf-syntax-ns#"
	xmlns:svg="http://www.w3.org/2000/svg"
	xmlns="http://www.w3.org/2000/svg"
	xmlns:sodipodi="http://sodipodi.sourceforge.net/DTD/sodipodi-0.dtd"
	xmlns:inkscape="http://www.inkscape.org/namespaces/inkscape"
	width="1000"
	height="1000"
	id="svg2"
	version="1.1"
	sodipodi:docname="manifold/stretchdenoise-television140.png.txt">
<defs
	id="defs4" />
<metadata
	id="metadata7">
	<rdf:RDF>
		<cc:Work
			rdf:about="">
			<dc:format>image/svg+xml</dc:format>
			<dc:type
				rdf:resource="http://purl.org/dc/dcmitype/StillImage" />
			<dc:title></dc:title>
		</cc:Work>
	</rdf:RDF>
</metadata>
<g
	inkscape:label="Layer 1"
	inkscape:groupmode="layer"
	id="layer1">
	<path style="fill:none;stroke:red;stroke-width:1px;stroke-linecap:butt;stroke-linejoin:miter;stroke-opacity:1" d="M 4,345.373 29.1985,376.114 z" id="boundary" inkscape:connector-curvature="0" />
	<path style="fill:none;stroke:red;stroke-width:1px;stroke-linecap:butt;stroke-linejoin:miter;stroke-opacity:1" d="M 4,345.373 52.2321,357.783 z" id="boundary" inkscape:connector-curvature="0" />
	<path style="fill:none;stroke:red;stroke-width:1px;stroke-linecap:butt;stroke-linejoin:miter;stroke-opacity:1" d="M 29.1985,376.114 63.9755,390.025 z" id="boundary" inkscape:connector-curvature="0" />
	<path style="fill:none;stroke:red;stroke-width:1px;stroke-linecap:butt;stroke-linejoin:miter;stroke-opacity:1" d="M 73.8183,113.917 127.166,161.291 z" id="boundary" inkscape:connector-curvature="0" />
	<path style="fill:none;stroke:red;stroke-width:1px;stroke-linecap:butt;stroke-linejoin:miter;stroke-opacity:1" d="M 73.8183,113.917 134.586,108.179 z" id="boundary" inkscape:connector-curvature="0" />
	<path style="fill:none;stroke:red;stroke-width:1px;stroke-linecap:butt;stroke-linejoin:miter;stroke-opacity:1" d="M 127.166,161.291 65.6764,229.797 z" id="boundary" inkscape:connector-curvature="0" />
	<path style="fill:none;stroke:red;stroke-width:1px;stroke-linecap:butt;stroke-linejoin:miter;stroke-opacity:1" d="M 63.9755,390.025 98.7525,376.114 z" id="boundary" inkscape:connector-curvature="0" />
	<path style="fill:none;stroke:red;stroke-width:1px;stroke-linecap:butt;stroke-linejoin:miter;stroke-opacity:1" d="M 65.6764,229.797 52.2321,357.783 z" id="boundary" inkscape:connector-curvature="0" />
	<path style="fill:none;stroke:red;stroke-width:1px;stroke-linecap:butt;stroke-linejoin:miter;stroke-opacity:1" d="M 98.7525,376.114 133.53,376.114 z" id="boundary" inkscape:connector-curvature="0" />
	<path style="fill:none;stroke:red;stroke-width:1px;stroke-linecap:butt;stroke-linejoin:miter;stroke-opacity:1" d="M 134.586,108.179 185.695,94.6645 z" id="boundary" inkscape:connector-curvature="0" />
	<path style="fill:none;stroke:red;stroke-width:1px;stroke-linecap:butt;stroke-linejoin:miter;stroke-opacity:1" d="M 133.53,376.114 168.307,376.114 z" id="boundary" inkscape:connector-curvature="0" />
	<path style="fill:none;stroke:red;stroke-width:1px;stroke-linecap:butt;stroke-linejoin:miter;stroke-opacity:1" d="M 168.307,376.114 203.084,376.114 z" id="boundary" inkscape:connector-curvature="0" />
	<path style="fill:none;stroke:red;stroke-width:1px;stroke-linecap:butt;stroke-linejoin:miter;stroke-opacity:1" d="M 185.695,94.6645 237.861,66.2247 z" id="boundary" inkscape:connector-curvature="0" />
	<path style="fill:none;stroke:red;stroke-width:1px;stroke-linecap:butt;stroke-linejoin:miter;stroke-opacity:1" d="M 185.695,303.082 220.472,303.082 z" id="boundary" inkscape:connector-curvature="0" />
	<path style="fill:none;stroke:red;stroke-width:1px;stroke-linecap:butt;stroke-linejoin:miter;stroke-opacity:1" d="M nan,nan nan,nan z" id="boundary" inkscape:connector-curvature="0" />
	<path style="fill:none;stroke:red;stroke-width:1px;stroke-linecap:butt;stroke-linejoin:miter;stroke-opacity:1" d="M nan,nan nan,nan z" id="boundary" inkscape:connector-curvature="0" />
	<path style="fill:none;stroke:red;stroke-width:1px;stroke-linecap:butt;stroke-linejoin:miter;stroke-opacity:1" d="M nan,nan nan,nan z" id="boundary" inkscape:connector-curvature="0" />
	<path style="fill:none;stroke:red;stroke-width:1px;stroke-linecap:butt;stroke-linejoin:miter;stroke-opacity:1" d="M nan,nan nan,nan z" id="boundary" inkscape:connector-curvature="0" />
	<path style="fill:none;stroke:red;stroke-width:1px;stroke-linecap:butt;stroke-linejoin:miter;stroke-opacity:1" d="M nan,nan nan,nan z" id="boundary" inkscape:connector-curvature="0" />
	<path style="fill:none;stroke:red;stroke-width:1px;stroke-linecap:butt;stroke-linejoin:miter;stroke-opacity:1" d="M nan,nan nan,nan z" id="boundary" inkscape:connector-curvature="0" />
	<path style="fill:none;stroke:red;stroke-width:1px;stroke-linecap:butt;stroke-linejoin:miter;stroke-opacity:1" d="M nan,nan nan,nan z" id="boundary" inkscape:connector-curvature="0" />
	<path style="fill:none;stroke:red;stroke-width:1px;stroke-linecap:butt;stroke-linejoin:miter;stroke-opacity:1" d="M nan,nan nan,nan z" id="boundary" inkscape:connector-curvature="0" />
	<path style="fill:none;stroke:red;stroke-width:1px;stroke-linecap:butt;stroke-linejoin:miter;stroke-opacity:1" d="M nan,nan nan,nan z" id="boundary" inkscape:connector-curvature="0" />
	<path style="fill:none;stroke:red;stroke-width:1px;stroke-linecap:butt;stroke-linejoin:miter;stroke-opacity:1" d="M nan,nan nan,nan z" id="boundary" inkscape:connector-curvature="0" />
	<path style="fill:none;stroke:red;stroke-width:1px;stroke-linecap:butt;stroke-linejoin:miter;stroke-opacity:1" d="M nan,nan nan,nan z" id="boundary" inkscape:connector-curvature="0" />
	<path style="fill:none;stroke:red;stroke-width:1px;stroke-linecap:butt;stroke-linejoin:miter;stroke-opacity:1" d="M nan,nan nan,nan z" id="boundary" inkscape:connector-curvature="0" />
	<path style="fill:none;stroke:red;stroke-width:1px;stroke-linecap:butt;stroke-linejoin:miter;stroke-opacity:1" d="M nan,nan nan,nan z" id="boundary" inkscape:connector-curvature="0" />
	<path style="fill:none;stroke:red;stroke-width:1px;stroke-linecap:butt;stroke-linejoin:miter;stroke-opacity:1" d="M nan,nan nan,nan z" id="boundary" inkscape:connector-curvature="0" />
	<path style="fill:none;stroke:red;stroke-width:1px;stroke-linecap:butt;stroke-linejoin:miter;stroke-opacity:1" d="M nan,nan nan,nan z" id="boundary" inkscape:connector-curvature="0" />
	<path style="fill:none;stroke:red;stroke-width:1px;stroke-linecap:butt;stroke-linejoin:miter;stroke-opacity:1" d="M 203.084,376.114 237.861,376.114 z" id="boundary" inkscape:connector-curvature="0" />
	<path style="fill:none;stroke:red;stroke-width:1px;stroke-linecap:butt;stroke-linejoin:miter;stroke-opacity:1" d="M 220.472,303.082 255.249,303.082 z" id="boundary" inkscape:connector-curvature="0" />
	<path style="fill:none;stroke:red;stroke-width:1px;stroke-linecap:butt;stroke-linejoin:miter;stroke-opacity:1" d="M nan,nan nan,nan z" id="boundary" inkscape:connector-curvature="0" />
	<path style="fill:none;stroke:red;stroke-width:1px;stroke-linecap:butt;stroke-linejoin:miter;stroke-opacity:1" d="M 227.428,198.751 244.816,230.051 z" id="boundary" inkscape:connector-curvature="0" />
	<path style="fill:none;stroke:red;stroke-width:1px;stroke-linecap:butt;stroke-linejoin:miter;stroke-opacity:1" d="M nan,nan nan,nan z" id="boundary" inkscape:connector-curvature="0" />
	<path style="fill:none;stroke:red;stroke-width:1px;stroke-linecap:butt;stroke-linejoin:miter;stroke-opacity:1" d="M 237.861,66.2247 290.026,97.524 z" id="boundary" inkscape:connector-curvature="0" />
	<path style="fill:none;stroke:red;stroke-width:1px;stroke-linecap:butt;stroke-linejoin:miter;stroke-opacity:1" d="M 237.861,376.114 272.638,376.114 z" id="boundary" inkscape:connector-curvature="0" />
	<path style="fill:none;stroke:red;stroke-width:1px;stroke-linecap:butt;stroke-linejoin:miter;stroke-opacity:1" d="M 244.816,230.051 296.982,198.751 z" id="boundary" inkscape:connector-curvature="0" />
	<path style="fill:none;stroke:red;stroke-width:1px;stroke-linecap:butt;stroke-linejoin:miter;stroke-opacity:1" d="M 255.249,303.082 283.071,323.949 z" id="boundary" inkscape:connector-curvature="0" />
	<path style="fill:none;stroke:red;stroke-width:1px;stroke-linecap:butt;stroke-linejoin:miter;stroke-opacity:1" d="M nan,nan nan,nan z" id="boundary" inkscape:connector-curvature="0" />
	<path style="fill:none;stroke:red;stroke-width:1px;stroke-linecap:butt;stroke-linejoin:miter;stroke-opacity:1" d="M nan,nan nan,nan z" id="boundary" inkscape:connector-curvature="0" />
	<path style="fill:none;stroke:red;stroke-width:1px;stroke-linecap:butt;stroke-linejoin:miter;stroke-opacity:1" d="M 272.638,376.114 307.415,376.114 z" id="boundary" inkscape:connector-curvature="0" />
	<path style="fill:none;stroke:red;stroke-width:1px;stroke-linecap:butt;stroke-linejoin:miter;stroke-opacity:1" d="M 283.071,323.949 310.892,303.082 z" id="boundary" inkscape:connector-curvature="0" />
	<path style="fill:none;stroke:red;stroke-width:1px;stroke-linecap:butt;stroke-linejoin:miter;stroke-opacity:1" d="M 290.026,97.524 307.415,99.3225 z" id="boundary" inkscape:connector-curvature="0" />
	<path style="fill:none;stroke:red;stroke-width:1px;stroke-linecap:butt;stroke-linejoin:miter;stroke-opacity:1" d="M nan,nan nan,nan z" id="boundary" inkscape:connector-curvature="0" />
	<path style="fill:none;stroke:red;stroke-width:1px;stroke-linecap:butt;stroke-linejoin:miter;stroke-opacity:1" d="M 296.982,198.751 331.759,198.751 z" id="boundary" inkscape:connector-curvature="0" />
	<path style="fill:none;stroke:red;stroke-width:1px;stroke-linecap:butt;stroke-linejoin:miter;stroke-opacity:1" d="M nan,nan nan,nan z" id="boundary" inkscape:connector-curvature="0" />
	<path style="fill:none;stroke:red;stroke-width:1px;stroke-linecap:butt;stroke-linejoin:miter;stroke-opacity:1" d="M 307.415,99.3225 359.58,97.524 z" id="boundary" inkscape:connector-curvature="0" />
	<path style="fill:none;stroke:red;stroke-width:1px;stroke-linecap:butt;stroke-linejoin:miter;stroke-opacity:1" d="M 307.415,376.114 342.192,376.114 z" id="boundary" inkscape:connector-curvature="0" />
	<path style="fill:none;stroke:red;stroke-width:1px;stroke-linecap:butt;stroke-linejoin:miter;stroke-opacity:1" d="M 310.892,303.082 338.714,323.949 z" id="boundary" inkscape:connector-curvature="0" />
	<path style="fill:none;stroke:red;stroke-width:1px;stroke-linecap:butt;stroke-linejoin:miter;stroke-opacity:1" d="M nan,nan nan,nan z" id="boundary" inkscape:connector-curvature="0" />
	<path style="fill:none;stroke:red;stroke-width:1px;stroke-linecap:butt;stroke-linejoin:miter;stroke-opacity:1" d="M 331.759,198.751 349.147,230.051 z" id="boundary" inkscape:connector-curvature="0" />
	<path style="fill:none;stroke:red;stroke-width:1px;stroke-linecap:butt;stroke-linejoin:miter;stroke-opacity:1" d="M nan,nan nan,nan z" id="boundary" inkscape:connector-curvature="0" />
	<path style="fill:none;stroke:red;stroke-width:1px;stroke-linecap:butt;stroke-linejoin:miter;stroke-opacity:1" d="M 338.714,323.949 366.536,303.082 z" id="boundary" inkscape:connector-curvature="0" />
	<path style="fill:none;stroke:red;stroke-width:1px;stroke-linecap:butt;stroke-linejoin:miter;stroke-opacity:1" d="M 342.192,376.114 376.969,376.114 z" id="boundary" inkscape:connector-curvature="0" />
	<path style="fill:none;stroke:red;stroke-width:1px;stroke-linecap:butt;stroke-linejoin:miter;stroke-opacity:1" d="M 349.147,230.051 401.313,198.751 z" id="boundary" inkscape:connector-curvature="0" />
	<path style="fill:none;stroke:red;stroke-width:1px;stroke-linecap:butt;stroke-linejoin:miter;stroke-opacity:1" d="M 359.58,97.524 397.984,89.8306 z" id="boundary" inkscape:connector-curvature="0" />
	<path style="fill:none;stroke:red;stroke-width:1px;stroke-linecap:butt;stroke-linejoin:miter;stroke-opacity:1" d="M nan,nan nan,nan z" id="boundary" inkscape:connector-curvature="0" />
	<path style="fill:none;stroke:red;stroke-width:1px;stroke-linecap:butt;stroke-linejoin:miter;stroke-opacity:1" d="M 366.536,303.082 394.357,323.949 z" id="boundary" inkscape:connector-curvature="0" />
	<path style="fill:none;stroke:red;stroke-width:1px;stroke-linecap:butt;stroke-linejoin:miter;stroke-opacity:1" d="M nan,nan nan,nan z" id="boundary" inkscape:connector-curvature="0" />
	<path style="fill:none;stroke:red;stroke-width:1px;stroke-linecap:butt;stroke-linejoin:miter;stroke-opacity:1" d="M 376.969,376.114 411.746,376.114 z" id="boundary" inkscape:connector-curvature="0" />
	<path style="fill:none;stroke:red;stroke-width:1px;stroke-linecap:butt;stroke-linejoin:miter;stroke-opacity:1" d="M 397.984,89.8306 456.594,139.775 z" id="boundary" inkscape:connector-curvature="0" />
	<path style="fill:none;stroke:red;stroke-width:1px;stroke-linecap:butt;stroke-linejoin:miter;stroke-opacity:1" d="M 394.357,323.949 422.179,303.082 z" id="boundary" inkscape:connector-curvature="0" />
	<path style="fill:none;stroke:red;stroke-width:1px;stroke-linecap:butt;stroke-linejoin:miter;stroke-opacity:1" d="M nan,nan nan,nan z" id="boundary" inkscape:connector-curvature="0" />
	<path style="fill:none;stroke:red;stroke-width:1px;stroke-linecap:butt;stroke-linejoin:miter;stroke-opacity:1" d="M 401.313,198.751 418.701,230.051 z" id="boundary" inkscape:connector-curvature="0" />
	<path style="fill:none;stroke:red;stroke-width:1px;stroke-linecap:butt;stroke-linejoin:miter;stroke-opacity:1" d="M nan,nan -nan,-nan z" id="boundary" inkscape:connector-curvature="0" />
	<path style="fill:none;stroke:red;stroke-width:1px;stroke-linecap:butt;stroke-linejoin:miter;stroke-opacity:1" d="M 411.746,376.114 446.523,376.114 z" id="boundary" inkscape:connector-curvature="0" />
	<path style="fill:none;stroke:red;stroke-width:1px;stroke-linecap:butt;stroke-linejoin:miter;stroke-opacity:1" d="M 418.701,230.051 456.956,264.828 z" id="boundary" inkscape:connector-curvature="0" />
	<path style="fill:none;stroke:red;stroke-width:1px;stroke-linecap:butt;stroke-linejoin:miter;stroke-opacity:1" d="M 422.179,303.082 456.956,264.828 z" id="boundary" inkscape:connector-curvature="0" />
	<path style="fill:none;stroke:red;stroke-width:1px;stroke-linecap:butt;stroke-linejoin:miter;stroke-opacity:1" d="M nan,nan nan,nan z" id="boundary" inkscape:connector-curvature="0" />
	<path style="fill:none;stroke:red;stroke-width:1px;stroke-linecap:butt;stroke-linejoin:miter;stroke-opacity:1" d="M -nan,-nan 456.956,4 z" id="boundary" inkscape:connector-curvature="0" />
	<path style="fill:none;stroke:red;stroke-width:1px;stroke-linecap:butt;stroke-linejoin:miter;stroke-opacity:1" d="M 446.523,376.114 481.3,376.114 z" id="boundary" inkscape:connector-curvature="0" />
	<path style="fill:none;stroke:red;stroke-width:1px;stroke-linecap:butt;stroke-linejoin:miter;stroke-opacity:1" d="M 456.956,4 417.168,42.7421 z" id="boundary" inkscape:connector-curvature="0" />
	<path style="fill:none;stroke:red;stroke-width:1px;stroke-linecap:butt;stroke-linejoin:miter;stroke-opacity:1" d="M 417.168,42.7421 456.594,139.775 z" id="boundary" inkscape:connector-curvature="0" />
	<path style="fill:none;stroke:red;stroke-width:1px;stroke-linecap:butt;stroke-linejoin:miter;stroke-opacity:1" d="M nan,nan nan,nan z" id="boundary" inkscape:connector-curvature="0" />
	<path style="fill:none;stroke:red;stroke-width:1px;stroke-linecap:butt;stroke-linejoin:miter;stroke-opacity:1" d="M 481.3,376.114 516.077,376.114 z" id="boundary" inkscape:connector-curvature="0" />
	<path style="fill:none;stroke:red;stroke-width:1px;stroke-linecap:butt;stroke-linejoin:miter;stroke-opacity:1" d="M nan,nan nan,nan z" id="boundary" inkscape:connector-curvature="0" />
	<path style="fill:none;stroke:red;stroke-width:1px;stroke-linecap:butt;stroke-linejoin:miter;stroke-opacity:1" d="M 516.077,376.114 550.854,376.114 z" id="boundary" inkscape:connector-curvature="0" />
	<path style="fill:none;stroke:red;stroke-width:1px;stroke-linecap:butt;stroke-linejoin:miter;stroke-opacity:1" d="M nan,nan nan,nan z" id="boundary" inkscape:connector-curvature="0" />
	<path style="fill:none;stroke:red;stroke-width:1px;stroke-linecap:butt;stroke-linejoin:miter;stroke-opacity:1" d="M 550.854,376.114 620.408,376.114 z" id="boundary" inkscape:connector-curvature="0" />
	<path style="fill:none;stroke:red;stroke-width:1px;stroke-linecap:butt;stroke-linejoin:miter;stroke-opacity:1" d="M nan,nan nan,nan z" id="boundary" inkscape:connector-curvature="0" />
	<path style="fill:none;stroke:red;stroke-width:1px;stroke-linecap:butt;stroke-linejoin:miter;stroke-opacity:1" d="M nan,nan nan,nan z" id="boundary" inkscape:connector-curvature="0" />
	<path style="fill:none;stroke:red;stroke-width:1px;stroke-linecap:butt;stroke-linejoin:miter;stroke-opacity:1" d="M 620.408,376.114 724.739,376.114 z" id="boundary" inkscape:connector-curvature="0" />
	<path style="fill:none;stroke:red;stroke-width:1px;stroke-linecap:butt;stroke-linejoin:miter;stroke-opacity:1" d="M nan,nan nan,nan z" id="boundary" inkscape:connector-curvature="0" />
	<path style="fill:none;stroke:red;stroke-width:1px;stroke-linecap:butt;stroke-linejoin:miter;stroke-opacity:1" d="M nan,nan nan,nan z" id="boundary" inkscape:connector-curvature="0" />
	<path style="fill:none;stroke:red;stroke-width:1px;stroke-linecap:butt;stroke-linejoin:miter;stroke-opacity:1" d="M nan,nan nan,nan z" id="boundary" inkscape:connector-curvature="0" />
	<path style="fill:none;stroke:red;stroke-width:1px;stroke-linecap:butt;stroke-linejoin:miter;stroke-opacity:1" d="M nan,nan nan,nan z" id="boundary" inkscape:connector-curvature="0" />
	<path style="fill:none;stroke:red;stroke-width:1px;stroke-linecap:butt;stroke-linejoin:miter;stroke-opacity:1" d="M nan,nan nan,nan z" id="boundary" inkscape:connector-curvature="0" />
	<path style="fill:none;stroke:red;stroke-width:1px;stroke-linecap:butt;stroke-linejoin:miter;stroke-opacity:1" d="M nan,nan nan,nan z" id="boundary" inkscape:connector-curvature="0" />
	<path style="fill:none;stroke:red;stroke-width:1px;stroke-linecap:butt;stroke-linejoin:miter;stroke-opacity:1" d="M nan,nan nan,nan z" id="boundary" inkscape:connector-curvature="0" />
	<path style="fill:none;stroke:red;stroke-width:1px;stroke-linecap:butt;stroke-linejoin:miter;stroke-opacity:1" d="M nan,nan nan,nan z" id="boundary" inkscape:connector-curvature="0" />
	<path style="fill:none;stroke:red;stroke-width:1px;stroke-linecap:butt;stroke-linejoin:miter;stroke-opacity:1" d="M nan,nan nan,nan z" id="boundary" inkscape:connector-curvature="0" />
	<path style="fill:none;stroke:red;stroke-width:1px;stroke-linecap:butt;stroke-linejoin:miter;stroke-opacity:1" d="M nan,nan nan,nan z" id="boundary" inkscape:connector-curvature="0" />
	<path style="fill:none;stroke:red;stroke-width:1px;stroke-linecap:butt;stroke-linejoin:miter;stroke-opacity:1" d="M nan,nan nan,nan z" id="boundary" inkscape:connector-curvature="0" />
	<path style="fill:none;stroke:red;stroke-width:1px;stroke-linecap:butt;stroke-linejoin:miter;stroke-opacity:1" d="M nan,nan nan,nan z" id="boundary" inkscape:connector-curvature="0" />
	<path style="fill:none;stroke:red;stroke-width:1px;stroke-linecap:butt;stroke-linejoin:miter;stroke-opacity:1" d="M nan,nan nan,nan z" id="boundary" inkscape:connector-curvature="0" />
	<path style="fill:none;stroke:red;stroke-width:1px;stroke-linecap:butt;stroke-linejoin:miter;stroke-opacity:1" d="M 724.739,376.114 759.516,376.114 z" id="boundary" inkscape:connector-curvature="0" />
	<path style="fill:none;stroke:red;stroke-width:1px;stroke-linecap:butt;stroke-linejoin:miter;stroke-opacity:1" d="M nan,nan nan,nan z" id="boundary" inkscape:connector-curvature="0" />
	<path style="fill:none;stroke:red;stroke-width:1px;stroke-linecap:butt;stroke-linejoin:miter;stroke-opacity:1" d="M nan,nan nan,nan z" id="boundary" inkscape:connector-curvature="0" />
	<path style="fill:none;stroke:red;stroke-width:1px;stroke-linecap:butt;stroke-linejoin:miter;stroke-opacity:1" d="M 759.516,376.114 794.293,386.547 z" id="boundary" inkscape:connector-curvature="0" />
	<path style="fill:none;stroke:red;stroke-width:1px;stroke-linecap:butt;stroke-linejoin:miter;stroke-opacity:1" d="M nan,nan nan,nan z" id="boundary" inkscape:connector-curvature="0" />
	<path style="fill:none;stroke:red;stroke-width:1px;stroke-linecap:butt;stroke-linejoin:miter;stroke-opacity:1" d="M nan,nan nan,nan z" id="boundary" inkscape:connector-curvature="0" />
	<path style="fill:none;stroke:red;stroke-width:1px;stroke-linecap:butt;stroke-linejoin:miter;stroke-opacity:1" d="M nan,nan nan,nan z" id="boundary" inkscape:connector-curvature="0" />
	<path style="fill:none;stroke:red;stroke-width:1px;stroke-linecap:butt;stroke-linejoin:miter;stroke-opacity:1" d="M 794.293,386.547 829.07,376.114 z" id="boundary" inkscape:connector-curvature="0" />
	<path style="fill:none;stroke:red;stroke-width:1px;stroke-linecap:butt;stroke-linejoin:miter;stroke-opacity:1" d="M nan,nan nan,nan z" id="boundary" inkscape:connector-curvature="0" />
	<path style="fill:none;stroke:red;stroke-width:1px;stroke-linecap:butt;stroke-linejoin:miter;stroke-opacity:1" d="M nan,nan nan,nan z" id="boundary" inkscape:connector-curvature="0" />
	<path style="fill:none;stroke:red;stroke-width:1px;stroke-linecap:butt;stroke-linejoin:miter;stroke-opacity:1" d="M nan,nan nan,nan z" id="boundary" inkscape:connector-curvature="0" />
	<path style="fill:none;stroke:red;stroke-width:1px;stroke-linecap:butt;stroke-linejoin:miter;stroke-opacity:1" d="M 829.07,376.114 863.847,376.114 z" id="boundary" inkscape:connector-curvature="0" />
	<path style="fill:none;stroke:red;stroke-width:1px;stroke-linecap:butt;stroke-linejoin:miter;stroke-opacity:1" d="M nan,nan nan,nan z" id="boundary" inkscape:connector-curvature="0" />
	<path style="fill:none;stroke:red;stroke-width:1px;stroke-linecap:butt;stroke-linejoin:miter;stroke-opacity:1" d="M nan,nan nan,nan z" id="boundary" inkscape:connector-curvature="0" />
	<path style="fill:none;stroke:red;stroke-width:1px;stroke-linecap:butt;stroke-linejoin:miter;stroke-opacity:1" d="M nan,nan nan,nan z" id="boundary" inkscape:connector-curvature="0" />
	<path style="fill:none;stroke:red;stroke-width:1px;stroke-linecap:butt;stroke-linejoin:miter;stroke-opacity:1" d="M nan,nan nan,nan z" id="boundary" inkscape:connector-curvature="0" />
	<path style="fill:none;stroke:red;stroke-width:1px;stroke-linecap:butt;stroke-linejoin:miter;stroke-opacity:1" d="M nan,nan nan,nan z" id="boundary" inkscape:connector-curvature="0" />
	<path style="fill:none;stroke:red;stroke-width:1px;stroke-linecap:butt;stroke-linejoin:miter;stroke-opacity:1" d="M nan,nan nan,nan z" id="boundary" inkscape:connector-curvature="0" />
	<path style="fill:none;stroke:red;stroke-width:1px;stroke-linecap:butt;stroke-linejoin:miter;stroke-opacity:1" d="M nan,nan nan,nan z" id="boundary" inkscape:connector-curvature="0" />
	<path style="fill:none;stroke:red;stroke-width:1px;stroke-linecap:butt;stroke-linejoin:miter;stroke-opacity:1" d="M nan,nan nan,nan z" id="boundary" inkscape:connector-curvature="0" />
	<path style="fill:none;stroke:red;stroke-width:1px;stroke-linecap:butt;stroke-linejoin:miter;stroke-opacity:1" d="M nan,nan nan,nan z" id="boundary" inkscape:connector-curvature="0" />
	<path style="fill:none;stroke:red;stroke-width:1px;stroke-linecap:butt;stroke-linejoin:miter;stroke-opacity:1" d="M nan,nan nan,nan z" id="boundary" inkscape:connector-curvature="0" />
	<path style="fill:none;stroke:red;stroke-width:1px;stroke-linecap:butt;stroke-linejoin:miter;stroke-opacity:1" d="M nan,nan nan,nan z" id="boundary" inkscape:connector-curvature="0" />
	<path style="fill:none;stroke:red;stroke-width:1px;stroke-linecap:butt;stroke-linejoin:miter;stroke-opacity:1" d="M nan,nan nan,nan z" id="boundary" inkscape:connector-curvature="0" />
	<path style="fill:none;stroke:red;stroke-width:1px;stroke-linecap:butt;stroke-linejoin:miter;stroke-opacity:1" d="M nan,nan nan,nan z" id="boundary" inkscape:connector-curvature="0" />
	<path style="fill:none;stroke:red;stroke-width:1px;stroke-linecap:butt;stroke-linejoin:miter;stroke-opacity:1" d="M 863.847,376.114 898.624,376.114 z" id="boundary" inkscape:connector-curvature="0" />
	<path style="fill:none;stroke:red;stroke-width:1px;stroke-linecap:butt;stroke-linejoin:miter;stroke-opacity:1" d="M 867.325,303.082 902.102,303.082 z" id="boundary" inkscape:connector-curvature="0" />
	<path style="fill:none;stroke:red;stroke-width:1px;stroke-linecap:butt;stroke-linejoin:miter;stroke-opacity:1" d="M 898.624,376.114 933.401,376.114 z" id="boundary" inkscape:connector-curvature="0" />
	<path style="fill:none;stroke:red;stroke-width:1px;stroke-linecap:butt;stroke-linejoin:miter;stroke-opacity:1" d="M 902.102,303.082 936.879,303.082 z" id="boundary" inkscape:connector-curvature="0" />
	<path style="fill:none;stroke:red;stroke-width:1px;stroke-linecap:butt;stroke-linejoin:miter;stroke-opacity:1" d="M 933.401,376.114 968.178,379.592 z" id="boundary" inkscape:connector-curvature="0" />
	<path style="fill:none;stroke:red;stroke-width:1px;stroke-linecap:butt;stroke-linejoin:miter;stroke-opacity:1" d="M 936.879,303.082 971.656,303.082 z" id="boundary" inkscape:connector-curvature="0" />
	<path style="fill:none;stroke:red;stroke-width:1px;stroke-linecap:butt;stroke-linejoin:miter;stroke-opacity:1" d="M 968.178,379.592 996,330.904 z" id="boundary" inkscape:connector-curvature="0" />
	<path style="fill:none;stroke:red;stroke-width:1px;stroke-linecap:butt;stroke-linejoin:miter;stroke-opacity:1" d="M 971.656,303.082 996,330.904 z" id="boundary" inkscape:connector-curvature="0" />
	<circle cx="11.8099" cy="310.038" r="4" fill="#0" id="circle0"/>
	<circle cx="4" cy="345.373" r="4" fill="#0" id="circle1"/>
	<circle cx="29.1985" cy="376.114" r="4" fill="#0" id="circle2"/>
	<circle cx="46.587" cy="303.082" r="4" fill="#0" id="circle3"/>
	<circle cx="73.8183" cy="113.917" r="4" fill="#0" id="circle4"/>
	<circle cx="127.166" cy="161.291" r="4" fill="#0" id="circle5"/>
	<circle cx="63.9755" cy="390.025" r="4" fill="#0" id="circle6"/>
	<circle cx="65.6764" cy="229.797" r="4" fill="#0" id="circle7"/>
	<circle cx="81.364" cy="118.764" r="4" fill="#0" id="circle8"/>
	<circle cx="81.364" cy="303.082" r="4" fill="#0" id="circle9"/>
	<circle cx="88.3194" cy="198.751" r="4" fill="#0" id="circle10"/>
	<circle cx="98.7525" cy="87.4649" r="4" fill="#0" id="circle11"/>
	<circle cx="98.7525" cy="376.114" r="4" fill="#0" id="circle12"/>
	<circle cx="105.708" cy="230.051" r="4" fill="#0" id="circle13"/>
	<circle cx="116.141" cy="118.764" r="4" fill="#0" id="circle14"/>
	<circle cx="116.141" cy="303.082" r="4" fill="#0" id="circle15"/>
	<circle cx="123.096" cy="198.751" r="4" fill="#0" id="circle16"/>
	<circle cx="134.586" cy="108.179" r="4" fill="#0" id="circle17"/>
	<circle cx="133.53" cy="376.114" r="4" fill="#0" id="circle18"/>
	<circle cx="140.485" cy="230.051" r="4" fill="#0" id="circle19"/>
	<circle cx="150.918" cy="118.764" r="4" fill="#0" id="circle20"/>
	<circle cx="52.2321" cy="357.783" r="4" fill="#0" id="circle21"/>
	<circle cx="157.873" cy="198.751" r="4" fill="#0" id="circle22"/>
	<circle cx="168.307" cy="87.4649" r="4" fill="#0" id="circle23"/>
	<circle cx="168.307" cy="376.114" r="4" fill="#0" id="circle24"/>
	<circle cx="175.262" cy="230.051" r="4" fill="#0" id="circle25"/>
	<circle cx="185.695" cy="94.6645" r="4" fill="#0" id="circle26"/>
	<circle cx="185.695" cy="303.082" r="4" fill="#0" id="circle27"/>
	<circle cx="nan" cy="nan" r="4" fill="#0" id="circle28"/>
	<circle cx="nan" cy="nan" r="4" fill="#0" id="circle29"/>
	<circle cx="nan" cy="nan" r="4" fill="#0" id="circle30"/>
	<circle cx="nan" cy="nan" r="4" fill="#0" id="circle31"/>
	<circle cx="nan" cy="nan" r="4" fill="#0" id="circle32"/>
	<circle cx="nan" cy="nan" r="4" fill="#0" id="circle33"/>
	<circle cx="nan" cy="nan" r="4" fill="#0" id="circle34"/>
	<circle cx="nan" cy="nan" r="4" fill="#0" id="circle35"/>
	<circle cx="nan" cy="nan" r="4" fill="#0" id="circle36"/>
	<circle cx="nan" cy="nan" r="4" fill="#0" id="circle37"/>
	<circle cx="nan" cy="nan" r="4" fill="#0" id="circle38"/>
	<circle cx="nan" cy="nan" r="4" fill="#0" id="circle39"/>
	<circle cx="nan" cy="nan" r="4" fill="#0" id="circle40"/>
	<circle cx="192.651" cy="198.751" r="4" fill="#0" id="circle41"/>
	<circle cx="nan" cy="nan" r="4" fill="#0" id="circle42"/>
	<circle cx="203.084" cy="87.4649" r="4" fill="#0" id="circle43"/>
	<circle cx="203.084" cy="376.114" r="4" fill="#0" id="circle44"/>
	<circle cx="210.039" cy="230.051" r="4" fill="#0" id="circle45"/>
	<circle cx="220.472" cy="118.764" r="4" fill="#0" id="circle46"/>
	<circle cx="220.472" cy="303.082" r="4" fill="#0" id="circle47"/>
	<circle cx="nan" cy="nan" r="4" fill="#0" id="circle48"/>
	<circle cx="227.428" cy="198.751" r="4" fill="#0" id="circle49"/>
	<circle cx="nan" cy="nan" r="4" fill="#0" id="circle50"/>
	<circle cx="237.861" cy="66.2247" r="4" fill="#0" id="circle51"/>
	<circle cx="237.861" cy="376.114" r="4" fill="#0" id="circle52"/>
	<circle cx="244.816" cy="230.051" r="4" fill="#0" id="circle53"/>
	<circle cx="255.249" cy="118.764" r="4" fill="#0" id="circle54"/>
	<circle cx="255.249" cy="303.082" r="4" fill="#0" id="circle55"/>
	<circle cx="nan" cy="nan" r="4" fill="#0" id="circle56"/>
	<circle cx="262.205" cy="198.751" r="4" fill="#0" id="circle57"/>
	<circle cx="nan" cy="nan" r="4" fill="#0" id="circle58"/>
	<circle cx="272.638" cy="87.4649" r="4" fill="#0" id="circle59"/>
	<circle cx="272.638" cy="376.114" r="4" fill="#0" id="circle60"/>
	<circle cx="279.593" cy="230.051" r="4" fill="#0" id="circle61"/>
	<circle cx="283.071" cy="323.949" r="4" fill="#0" id="circle62"/>
	<circle cx="290.026" cy="97.524" r="4" fill="#0" id="circle63"/>
	<circle cx="nan" cy="nan" r="4" fill="#0" id="circle64"/>
	<circle cx="296.982" cy="198.751" r="4" fill="#0" id="circle65"/>
	<circle cx="nan" cy="nan" r="4" fill="#0" id="circle66"/>
	<circle cx="307.415" cy="99.3225" r="4" fill="#0" id="circle67"/>
	<circle cx="307.415" cy="376.114" r="4" fill="#0" id="circle68"/>
	<circle cx="310.892" cy="303.082" r="4" fill="#0" id="circle69"/>
	<circle cx="314.37" cy="230.051" r="4" fill="#0" id="circle70"/>
	<circle cx="324.803" cy="118.764" r="4" fill="#0" id="circle71"/>
	<circle cx="nan" cy="nan" r="4" fill="#0" id="circle72"/>
	<circle cx="331.759" cy="198.751" r="4" fill="#0" id="circle73"/>
	<circle cx="nan" cy="nan" r="4" fill="#0" id="circle74"/>
	<circle cx="338.714" cy="323.949" r="4" fill="#0" id="circle75"/>
	<circle cx="342.192" cy="87.4649" r="4" fill="#0" id="circle76"/>
	<circle cx="342.192" cy="376.114" r="4" fill="#0" id="circle77"/>
	<circle cx="349.147" cy="230.051" r="4" fill="#0" id="circle78"/>
	<circle cx="359.58" cy="97.524" r="4" fill="#0" id="circle79"/>
	<circle cx="nan" cy="nan" r="4" fill="#0" id="circle80"/>
	<circle cx="366.536" cy="198.751" r="4" fill="#0" id="circle81"/>
	<circle cx="366.536" cy="303.082" r="4" fill="#0" id="circle82"/>
	<circle cx="nan" cy="nan" r="4" fill="#0" id="circle83"/>
	<circle cx="376.969" cy="87.4649" r="4" fill="#0" id="circle84"/>
	<circle cx="376.969" cy="376.114" r="4" fill="#0" id="circle85"/>
	<circle cx="383.924" cy="230.051" r="4" fill="#0" id="circle86"/>
	<circle cx="397.984" cy="89.8306" r="4" fill="#0" id="circle87"/>
	<circle cx="394.357" cy="323.949" r="4" fill="#0" id="circle88"/>
	<circle cx="nan" cy="nan" r="4" fill="#0" id="circle89"/>
	<circle cx="401.313" cy="198.751" r="4" fill="#0" id="circle90"/>
	<circle cx="nan" cy="nan" r="4" fill="#0" id="circle91"/>
	<circle cx="411.746" cy="87.4649" r="4" fill="#0" id="circle92"/>
	<circle cx="411.746" cy="376.114" r="4" fill="#0" id="circle93"/>
	<circle cx="418.701" cy="230.051" r="4" fill="#0" id="circle94"/>
	<circle cx="422.179" cy="303.082" r="4" fill="#0" id="circle95"/>
	<circle cx="429.134" cy="118.764" r="4" fill="#0" id="circle96"/>
	<circle cx="nan" cy="nan" r="4" fill="#0" id="circle97"/>
	<circle cx="436.09" cy="198.751" r="4" fill="#0" id="circle98"/>
	<circle cx="-nan" cy="-nan" r="4" fill="#0" id="circle99"/>
	<circle cx="446.523" cy="87.4649" r="4" fill="#0" id="circle100"/>
	<circle cx="446.523" cy="376.114" r="4" fill="#0" id="circle101"/>
	<circle cx="450.001" cy="323.949" r="4" fill="#0" id="circle102"/>
	<circle cx="453.478" cy="230.051" r="4" fill="#0" id="circle103"/>
	<circle cx="456.956" cy="4" r="4" fill="#0" id="circle104"/>
	<circle cx="417.168" cy="42.7421" r="4" fill="#0" id="circle105"/>
	<circle cx="456.594" cy="139.775" r="4" fill="#0" id="circle106"/>
	<circle cx="456.956" cy="264.828" r="4" fill="#0" id="circle107"/>
	<circle cx="nan" cy="nan" r="4" fill="#0" id="circle108"/>
	<circle cx="481.3" cy="376.114" r="4" fill="#0" id="circle109"/>
	<circle cx="nan" cy="nan" r="4" fill="#0" id="circle110"/>
	<circle cx="516.077" cy="376.114" r="4" fill="#0" id="circle111"/>
	<circle cx="nan" cy="nan" r="4" fill="#0" id="circle112"/>
	<circle cx="550.854" cy="376.114" r="4" fill="#0" id="circle113"/>
	<circle cx="nan" cy="nan" r="4" fill="#0" id="circle114"/>
	<circle cx="585.631" cy="376.114" r="4" fill="#0" id="circle115"/>
	<circle cx="nan" cy="nan" r="4" fill="#0" id="circle116"/>
	<circle cx="620.408" cy="376.114" r="4" fill="#0" id="circle117"/>
	<circle cx="nan" cy="nan" r="4" fill="#0" id="circle118"/>
	<circle cx="nan" cy="nan" r="4" fill="#0" id="circle119"/>
	<circle cx="nan" cy="nan" r="4" fill="#0" id="circle120"/>
	<circle cx="nan" cy="nan" r="4" fill="#0" id="circle121"/>
	<circle cx="648.23" cy="80.5095" r="4" fill="#0" id="circle122"/>
	<circle cx="nan" cy="nan" r="4" fill="#0" id="circle123"/>
	<circle cx="nan" cy="nan" r="4" fill="#0" id="circle124"/>
	<circle cx="648.23" cy="191.796" r="4" fill="#0" id="circle125"/>
	<circle cx="648.23" cy="233.528" r="4" fill="#0" id="circle126"/>
	<circle cx="648.23" cy="268.305" r="4" fill="#0" id="circle127"/>
	<circle cx="651.707" cy="303.082" r="4" fill="#0" id="circle128"/>
	<circle cx="655.185" cy="376.114" r="4" fill="#0" id="circle129"/>
	<circle cx="nan" cy="nan" r="4" fill="#0" id="circle130"/>
	<circle cx="679.529" cy="323.949" r="4" fill="#0" id="circle131"/>
	<circle cx="nan" cy="nan" r="4" fill="#0" id="circle132"/>
	<circle cx="683.007" cy="87.4649" r="4" fill="#0" id="circle133"/>
	<circle cx="nan" cy="nan" r="4" fill="#0" id="circle134"/>
	<circle cx="689.962" cy="376.114" r="4" fill="#0" id="circle135"/>
	<circle cx="700.395" cy="118.764" r="4" fill="#0" id="circle136"/>
	<circle cx="700.395" cy="230.051" r="4" fill="#0" id="circle137"/>
	<circle cx="707.351" cy="303.082" r="4" fill="#0" id="circle138"/>
	<circle cx="nan" cy="nan" r="4" fill="#0" id="circle139"/>
	<circle cx="nan" cy="nan" r="4" fill="#0" id="circle140"/>
	<circle cx="nan" cy="nan" r="4" fill="#0" id="circle141"/>
	<circle cx="717.784" cy="198.751" r="4" fill="#0" id="circle142"/>
	<circle cx="724.739" cy="376.114" r="4" fill="#0" id="circle143"/>
	<circle cx="735.172" cy="118.764" r="4" fill="#0" id="circle144"/>
	<circle cx="735.172" cy="230.051" r="4" fill="#0" id="circle145"/>
	<circle cx="735.172" cy="323.949" r="4" fill="#0" id="circle146"/>
	<circle cx="nan" cy="nan" r="4" fill="#0" id="circle147"/>
	<circle cx="nan" cy="nan" r="4" fill="#0" id="circle148"/>
	<circle cx="752.561" cy="87.4649" r="4" fill="#0" id="circle149"/>
	<circle cx="752.561" cy="198.751" r="4" fill="#0" id="circle150"/>
	<circle cx="759.516" cy="376.114" r="4" fill="#0" id="circle151"/>
	<circle cx="762.994" cy="303.082" r="4" fill="#0" id="circle152"/>
	<circle cx="nan" cy="nan" r="4" fill="#0" id="circle153"/>
	<circle cx="769.949" cy="230.051" r="4" fill="#0" id="circle154"/>
	<circle cx="nan" cy="nan" r="4" fill="#0" id="circle155"/>
	<circle cx="nan" cy="nan" r="4" fill="#0" id="circle156"/>
	<circle cx="787.338" cy="87.4649" r="4" fill="#0" id="circle157"/>
	<circle cx="787.338" cy="198.751" r="4" fill="#0" id="circle158"/>
	<circle cx="794.293" cy="386.547" r="4" fill="#0" id="circle159"/>
	<circle cx="797.771" cy="303.082" r="4" fill="#0" id="circle160"/>
	<circle cx="804.726" cy="118.764" r="4" fill="#0" id="circle161"/>
	<circle cx="804.726" cy="230.051" r="4" fill="#0" id="circle162"/>
	<circle cx="nan" cy="nan" r="4" fill="#0" id="circle163"/>
	<circle cx="nan" cy="nan" r="4" fill="#0" id="circle164"/>
	<circle cx="nan" cy="nan" r="4" fill="#0" id="circle165"/>
	<circle cx="822.115" cy="198.751" r="4" fill="#0" id="circle166"/>
	<circle cx="829.07" cy="376.114" r="4" fill="#0" id="circle167"/>
	<circle cx="832.548" cy="303.082" r="4" fill="#0" id="circle168"/>
	<circle cx="nan" cy="nan" r="4" fill="#0" id="circle169"/>
	<circle cx="839.503" cy="230.051" r="4" fill="#0" id="circle170"/>
	<circle cx="nan" cy="nan" r="4" fill="#0" id="circle171"/>
	<circle cx="nan" cy="nan" r="4" fill="#0" id="circle172"/>
	<circle cx="nan" cy="nan" r="4" fill="#0" id="circle173"/>
	<circle cx="nan" cy="nan" r="4" fill="#0" id="circle174"/>
	<circle cx="nan" cy="nan" r="4" fill="#0" id="circle175"/>
	<circle cx="nan" cy="nan" r="4" fill="#0" id="circle176"/>
	<circle cx="nan" cy="nan" r="4" fill="#0" id="circle177"/>
	<circle cx="nan" cy="nan" r="4" fill="#0" id="circle178"/>
	<circle cx="nan" cy="nan" r="4" fill="#0" id="circle179"/>
	<circle cx="nan" cy="nan" r="4" fill="#0" id="circle180"/>
	<circle cx="nan" cy="nan" r="4" fill="#0" id="circle181"/>
	<circle cx="nan" cy="nan" r="4" fill="#0" id="circle182"/>
	<circle cx="856.892" cy="87.4649" r="4" fill="#0" id="circle183"/>
	<circle cx="nan" cy="nan" r="4" fill="#0" id="circle184"/>
	<circle cx="863.847" cy="376.114" r="4" fill="#0" id="circle185"/>
	<circle cx="867.325" cy="303.082" r="4" fill="#0" id="circle186"/>
	<circle cx="nan" cy="nan" r="4" fill="#0" id="circle187"/>
	<circle cx="874.28" cy="230.051" r="4" fill="#0" id="circle188"/>
	<circle cx="898.624" cy="376.114" r="4" fill="#0" id="circle189"/>
	<circle cx="902.102" cy="303.082" r="4" fill="#0" id="circle190"/>
	<circle cx="933.401" cy="376.114" r="4" fill="#0" id="circle191"/>
	<circle cx="936.879" cy="303.082" r="4" fill="#0" id="circle192"/>
	<circle cx="968.178" cy="379.592" r="4" fill="#0" id="circle193"/>
	<circle cx="971.656" cy="303.082" r="4" fill="#0" id="circle194"/>
	<circle cx="996" cy="330.904" r="4" fill="#0" id="circle195"/>
	</g>
</svg>