<?xml version="1.0" encoding="UTF-8" standalone="no"?>
<!-- Created with CurveBenchmark -->
<svg
	xmlns:dc="http://purl.org/dc/elements/1.1/"
	xmlns:cc="http://creativecommons.org/ns#"
	xmlns:rdf="http://www.w3.org/1999/02/22-rdf-syntax-ns#"
	xmlns:svg="http://www.w3.org/2000/svg"
	xmlns="http://www.w3.org/2000/svg"
	xmlns:sodipodi="http://sodipodi.sourceforge.net/DTD/sodipodi-0.dtd"
	xmlns:inkscape="http://www.inkscape.org/namespaces/inkscape"
	width="1000"
	height="1000"
	id="svg2"
	version="1.1"
	sodipodi:docname="manifold/stretchdenoise-key14.png.txt">
<defs
	id="defs4" />
<metadata
	id="metadata7">
	<rdf:RDF>
		<cc:Work
			rdf:about="">
			<dc:format>image/svg+xml</dc:format>
			<dc:type
				rdf:resource="http://purl.org/dc/dcmitype/StillImage" />
			<dc:title></dc:title>
		</cc:Work>
	</rdf:RDF>
</metadata>
<g
	inkscape:label="Layer 1"
	inkscape:groupmode="layer"
	id="layer1">
	<path style="fill:none;stroke:red;stroke-width:1px;stroke-linecap:butt;stroke-linejoin:miter;stroke-opacity:1" d="M 17.1956,210.352 26.3262,192.091 z" id="boundary" inkscape:connector-curvature="0" />
	<path style="fill:none;stroke:red;stroke-width:1px;stroke-linecap:butt;stroke-linejoin:miter;stroke-opacity:1" d="M 17.1956,210.352 26.3262,226.788 z" id="boundary" inkscape:connector-curvature="0" />
	<path style="fill:none;stroke:red;stroke-width:1px;stroke-linecap:butt;stroke-linejoin:miter;stroke-opacity:1" d="M 17.1956,256.006 23.6483,274.267 z" id="boundary" inkscape:connector-curvature="0" />
	<path style="fill:none;stroke:red;stroke-width:1px;stroke-linecap:butt;stroke-linejoin:miter;stroke-opacity:1" d="M 17.1956,256.006 26.3262,226.788 z" id="boundary" inkscape:connector-curvature="0" />
	<path style="fill:none;stroke:red;stroke-width:1px;stroke-linecap:butt;stroke-linejoin:miter;stroke-opacity:1" d="M 23.6483,274.267 19.2902,292.528 z" id="boundary" inkscape:connector-curvature="0" />
	<path style="fill:none;stroke:red;stroke-width:1px;stroke-linecap:butt;stroke-linejoin:miter;stroke-opacity:1" d="M 19.2902,292.528 4,310.789 z" id="boundary" inkscape:connector-curvature="0" />
	<path style="fill:none;stroke:red;stroke-width:1px;stroke-linecap:butt;stroke-linejoin:miter;stroke-opacity:1" d="M 4,310.789 23.0557,316.028 z" id="boundary" inkscape:connector-curvature="0" />
	<path style="fill:none;stroke:red;stroke-width:1px;stroke-linecap:butt;stroke-linejoin:miter;stroke-opacity:1" d="M 23.0557,316.028 17.1956,356.443 z" id="boundary" inkscape:connector-curvature="0" />
	<path style="fill:none;stroke:red;stroke-width:1px;stroke-linecap:butt;stroke-linejoin:miter;stroke-opacity:1" d="M 17.1956,356.443 26.3262,372.878 z" id="boundary" inkscape:connector-curvature="0" />
	<path style="fill:none;stroke:red;stroke-width:1px;stroke-linecap:butt;stroke-linejoin:miter;stroke-opacity:1" d="M 26.3262,137.307 39.5217,155.569 z" id="boundary" inkscape:connector-curvature="0" />
	<path style="fill:none;stroke:red;stroke-width:1px;stroke-linecap:butt;stroke-linejoin:miter;stroke-opacity:1" d="M 26.3262,137.307 44.5875,119.046 z" id="boundary" inkscape:connector-curvature="0" />
	<path style="fill:none;stroke:red;stroke-width:1px;stroke-linecap:butt;stroke-linejoin:miter;stroke-opacity:1" d="M 39.5217,155.569 13.1306,173.83 z" id="boundary" inkscape:connector-curvature="0" />
	<path style="fill:none;stroke:red;stroke-width:1px;stroke-linecap:butt;stroke-linejoin:miter;stroke-opacity:1" d="M 13.1306,173.83 26.3262,192.091 z" id="boundary" inkscape:connector-curvature="0" />
	<path style="fill:none;stroke:red;stroke-width:1px;stroke-linecap:butt;stroke-linejoin:miter;stroke-opacity:1" d="M 26.3262,372.878 26.815,400.727 z" id="boundary" inkscape:connector-curvature="0" />
	<path style="fill:none;stroke:red;stroke-width:1px;stroke-linecap:butt;stroke-linejoin:miter;stroke-opacity:1" d="M 26.815,400.727 26.3262,420.357 z" id="boundary" inkscape:connector-curvature="0" />
	<path style="fill:none;stroke:red;stroke-width:1px;stroke-linecap:butt;stroke-linejoin:miter;stroke-opacity:1" d="M 26.3262,420.357 35.4568,436.792 z" id="boundary" inkscape:connector-curvature="0" />
	<path style="fill:none;stroke:red;stroke-width:1px;stroke-linecap:butt;stroke-linejoin:miter;stroke-opacity:1" d="M 35.4568,436.792 48.2397,451.401 z" id="boundary" inkscape:connector-curvature="0" />
	<path style="fill:none;stroke:red;stroke-width:1px;stroke-linecap:butt;stroke-linejoin:miter;stroke-opacity:1" d="M 44.5875,82.5235 44.5875,100.785 z" id="boundary" inkscape:connector-curvature="0" />
	<path style="fill:none;stroke:red;stroke-width:1px;stroke-linecap:butt;stroke-linejoin:miter;stroke-opacity:1" d="M 44.5875,82.5235 53.7181,64.2622 z" id="boundary" inkscape:connector-curvature="0" />
	<path style="fill:none;stroke:red;stroke-width:1px;stroke-linecap:butt;stroke-linejoin:miter;stroke-opacity:1" d="M 44.5875,100.785 44.5875,119.046 z" id="boundary" inkscape:connector-curvature="0" />
	<path style="fill:none;stroke:red;stroke-width:1px;stroke-linecap:butt;stroke-linejoin:miter;stroke-opacity:1" d="M 48.2397,451.401 62.8487,462.358 z" id="boundary" inkscape:connector-curvature="0" />
	<path style="fill:none;stroke:red;stroke-width:1px;stroke-linecap:butt;stroke-linejoin:miter;stroke-opacity:1" d="M 53.7181,64.2622 62.8487,36.8703 z" id="boundary" inkscape:connector-curvature="0" />
	<path style="fill:none;stroke:red;stroke-width:1px;stroke-linecap:butt;stroke-linejoin:miter;stroke-opacity:1" d="M 62.8487,36.8703 81.11,31.3919 z" id="boundary" inkscape:connector-curvature="0" />
	<path style="fill:none;stroke:red;stroke-width:1px;stroke-linecap:butt;stroke-linejoin:miter;stroke-opacity:1" d="M 62.8487,462.358 79.2839,471.489 z" id="boundary" inkscape:connector-curvature="0" />
	<path style="fill:none;stroke:red;stroke-width:1px;stroke-linecap:butt;stroke-linejoin:miter;stroke-opacity:1" d="M 79.2839,471.489 95.719,462.358 z" id="boundary" inkscape:connector-curvature="0" />
	<path style="fill:none;stroke:red;stroke-width:1px;stroke-linecap:butt;stroke-linejoin:miter;stroke-opacity:1" d="M 81.11,31.3919 99.3713,32.9892 z" id="boundary" inkscape:connector-curvature="0" />
	<path style="fill:none;stroke:red;stroke-width:1px;stroke-linecap:butt;stroke-linejoin:miter;stroke-opacity:1" d="M 95.719,462.358 113.98,469.663 z" id="boundary" inkscape:connector-curvature="0" />
	<path style="fill:none;stroke:red;stroke-width:1px;stroke-linecap:butt;stroke-linejoin:miter;stroke-opacity:1" d="M 99.3713,32.9892 117.633,31.3919 z" id="boundary" inkscape:connector-curvature="0" />
	<path style="fill:none;stroke:red;stroke-width:1px;stroke-linecap:butt;stroke-linejoin:miter;stroke-opacity:1" d="M 113.98,469.663 132.242,471.489 z" id="boundary" inkscape:connector-curvature="0" />
	<path style="fill:none;stroke:red;stroke-width:1px;stroke-linecap:butt;stroke-linejoin:miter;stroke-opacity:1" d="M 117.633,31.3919 133.292,20.865 z" id="boundary" inkscape:connector-curvature="0" />
	<path style="fill:none;stroke:red;stroke-width:1px;stroke-linecap:butt;stroke-linejoin:miter;stroke-opacity:1" d="M 132.242,471.489 148.677,480.619 z" id="boundary" inkscape:connector-curvature="0" />
	<path style="fill:none;stroke:red;stroke-width:1px;stroke-linecap:butt;stroke-linejoin:miter;stroke-opacity:1" d="M 133.292,20.865 150.503,13.1306 z" id="boundary" inkscape:connector-curvature="0" />
	<path style="fill:none;stroke:red;stroke-width:1px;stroke-linecap:butt;stroke-linejoin:miter;stroke-opacity:1" d="M 148.677,480.619 166.938,480.619 z" id="boundary" inkscape:connector-curvature="0" />
	<path style="fill:none;stroke:red;stroke-width:1px;stroke-linecap:butt;stroke-linejoin:miter;stroke-opacity:1" d="M 150.503,13.1306 166.938,22.2613 z" id="boundary" inkscape:connector-curvature="0" />
	<path style="fill:none;stroke:red;stroke-width:1px;stroke-linecap:butt;stroke-linejoin:miter;stroke-opacity:1" d="M 166.938,22.2613 185.199,22.2605 z" id="boundary" inkscape:connector-curvature="0" />
	<path style="fill:none;stroke:red;stroke-width:1px;stroke-linecap:butt;stroke-linejoin:miter;stroke-opacity:1" d="M 166.938,480.619 185.199,480.619 z" id="boundary" inkscape:connector-curvature="0" />
	<path style="fill:none;stroke:red;stroke-width:1px;stroke-linecap:butt;stroke-linejoin:miter;stroke-opacity:1" d="M 185.199,22.2605 203.461,22.2613 z" id="boundary" inkscape:connector-curvature="0" />
	<path style="fill:none;stroke:red;stroke-width:1px;stroke-linecap:butt;stroke-linejoin:miter;stroke-opacity:1" d="M 185.199,480.619 203.461,486.098 z" id="boundary" inkscape:connector-curvature="0" />
	<path style="fill:none;stroke:red;stroke-width:1px;stroke-linecap:butt;stroke-linejoin:miter;stroke-opacity:1" d="M 203.461,22.2613 219.896,13.1306 z" id="boundary" inkscape:connector-curvature="0" />
	<path style="fill:none;stroke:red;stroke-width:1px;stroke-linecap:butt;stroke-linejoin:miter;stroke-opacity:1" d="M 203.461,486.098 221.722,480.619 z" id="boundary" inkscape:connector-curvature="0" />
	<path style="fill:none;stroke:red;stroke-width:1px;stroke-linecap:butt;stroke-linejoin:miter;stroke-opacity:1" d="M 219.896,13.1306 238.157,9.47839 z" id="boundary" inkscape:connector-curvature="0" />
	<path style="fill:none;stroke:red;stroke-width:1px;stroke-linecap:butt;stroke-linejoin:miter;stroke-opacity:1" d="M 221.722,480.619 230.852,497.054 z" id="boundary" inkscape:connector-curvature="0" />
	<path style="fill:none;stroke:red;stroke-width:1px;stroke-linecap:butt;stroke-linejoin:miter;stroke-opacity:1" d="M 230.852,497.054 249.114,495.228 z" id="boundary" inkscape:connector-curvature="0" />
	<path style="fill:none;stroke:red;stroke-width:1px;stroke-linecap:butt;stroke-linejoin:miter;stroke-opacity:1" d="M 238.157,9.47839 256.418,9.47838 z" id="boundary" inkscape:connector-curvature="0" />
	<path style="fill:none;stroke:red;stroke-width:1px;stroke-linecap:butt;stroke-linejoin:miter;stroke-opacity:1" d="M 249.114,495.228 267.375,495.228 z" id="boundary" inkscape:connector-curvature="0" />
	<path style="fill:none;stroke:red;stroke-width:1px;stroke-linecap:butt;stroke-linejoin:miter;stroke-opacity:1" d="M 256.418,9.47838 274.68,4 z" id="boundary" inkscape:connector-curvature="0" />
	<path style="fill:none;stroke:red;stroke-width:1px;stroke-linecap:butt;stroke-linejoin:miter;stroke-opacity:1" d="M 267.375,495.228 283.81,504.359 z" id="boundary" inkscape:connector-curvature="0" />
	<path style="fill:none;stroke:red;stroke-width:1px;stroke-linecap:butt;stroke-linejoin:miter;stroke-opacity:1" d="M 274.68,4 291.115,13.1306 z" id="boundary" inkscape:connector-curvature="0" />
	<path style="fill:none;stroke:red;stroke-width:1px;stroke-linecap:butt;stroke-linejoin:miter;stroke-opacity:1" d="M 283.81,504.359 302.071,498.881 z" id="boundary" inkscape:connector-curvature="0" />
	<path style="fill:none;stroke:red;stroke-width:1px;stroke-linecap:butt;stroke-linejoin:miter;stroke-opacity:1" d="M 291.115,13.1306 307.55,4 z" id="boundary" inkscape:connector-curvature="0" />
	<path style="fill:none;stroke:red;stroke-width:1px;stroke-linecap:butt;stroke-linejoin:miter;stroke-opacity:1" d="M 302.071,498.881 320.333,498.881 z" id="boundary" inkscape:connector-curvature="0" />
	<path style="fill:none;stroke:red;stroke-width:1px;stroke-linecap:butt;stroke-linejoin:miter;stroke-opacity:1" d="M 307.55,4 325.811,17.1956 z" id="boundary" inkscape:connector-curvature="0" />
	<path style="fill:none;stroke:red;stroke-width:1px;stroke-linecap:butt;stroke-linejoin:miter;stroke-opacity:1" d="M 320.333,498.881 336.768,508.011 z" id="boundary" inkscape:connector-curvature="0" />
	<path style="fill:none;stroke:red;stroke-width:1px;stroke-linecap:butt;stroke-linejoin:miter;stroke-opacity:1" d="M 325.811,17.1956 344.072,4 z" id="boundary" inkscape:connector-curvature="0" />
	<path style="fill:none;stroke:red;stroke-width:1px;stroke-linecap:butt;stroke-linejoin:miter;stroke-opacity:1" d="M 336.768,508.011 353.203,498.881 z" id="boundary" inkscape:connector-curvature="0" />
	<path style="fill:none;stroke:red;stroke-width:1px;stroke-linecap:butt;stroke-linejoin:miter;stroke-opacity:1" d="M 344.072,4 362.334,7.0845 z" id="boundary" inkscape:connector-curvature="0" />
	<path style="fill:none;stroke:red;stroke-width:1px;stroke-linecap:butt;stroke-linejoin:miter;stroke-opacity:1" d="M 353.203,498.881 371.464,495.228 z" id="boundary" inkscape:connector-curvature="0" />
	<path style="fill:none;stroke:red;stroke-width:1px;stroke-linecap:butt;stroke-linejoin:miter;stroke-opacity:1" d="M 362.334,7.0845 380.595,4 z" id="boundary" inkscape:connector-curvature="0" />
	<path style="fill:none;stroke:red;stroke-width:1px;stroke-linecap:butt;stroke-linejoin:miter;stroke-opacity:1" d="M 371.464,495.228 389.726,495.228 z" id="boundary" inkscape:connector-curvature="0" />
	<path style="fill:none;stroke:red;stroke-width:1px;stroke-linecap:butt;stroke-linejoin:miter;stroke-opacity:1" d="M 380.595,4 397.03,13.1306 z" id="boundary" inkscape:connector-curvature="0" />
	<path style="fill:none;stroke:red;stroke-width:1px;stroke-linecap:butt;stroke-linejoin:miter;stroke-opacity:1" d="M 389.726,495.228 398.856,476.967 z" id="boundary" inkscape:connector-curvature="0" />
	<path style="fill:none;stroke:red;stroke-width:1px;stroke-linecap:butt;stroke-linejoin:miter;stroke-opacity:1" d="M 397.03,13.1306 402.508,31.3919 z" id="boundary" inkscape:connector-curvature="0" />
	<path style="fill:none;stroke:red;stroke-width:1px;stroke-linecap:butt;stroke-linejoin:miter;stroke-opacity:1" d="M 398.856,476.967 402.509,453.227 z" id="boundary" inkscape:connector-curvature="0" />
	<path style="fill:none;stroke:red;stroke-width:1px;stroke-linecap:butt;stroke-linejoin:miter;stroke-opacity:1" d="M 402.508,31.3919 417.118,42.3487 z" id="boundary" inkscape:connector-curvature="0" />
	<path style="fill:none;stroke:red;stroke-width:1px;stroke-linecap:butt;stroke-linejoin:miter;stroke-opacity:1" d="M 402.509,453.227 417.118,440.445 z" id="boundary" inkscape:connector-curvature="0" />
	<path style="fill:none;stroke:red;stroke-width:1px;stroke-linecap:butt;stroke-linejoin:miter;stroke-opacity:1" d="M 417.118,42.3487 429.9,56.9577 z" id="boundary" inkscape:connector-curvature="0" />
	<path style="fill:none;stroke:red;stroke-width:1px;stroke-linecap:butt;stroke-linejoin:miter;stroke-opacity:1" d="M 417.118,440.445 420.77,416.705 z" id="boundary" inkscape:connector-curvature="0" />
	<path style="fill:none;stroke:red;stroke-width:1px;stroke-linecap:butt;stroke-linejoin:miter;stroke-opacity:1" d="M 420.77,398.444 420.77,416.705 z" id="boundary" inkscape:connector-curvature="0" />
	<path style="fill:none;stroke:red;stroke-width:1px;stroke-linecap:butt;stroke-linejoin:miter;stroke-opacity:1" d="M 420.77,398.444 429.9,380.182 z" id="boundary" inkscape:connector-curvature="0" />
	<path style="fill:none;stroke:red;stroke-width:1px;stroke-linecap:butt;stroke-linejoin:miter;stroke-opacity:1" d="M 429.9,56.9577 429.9,75.219 z" id="boundary" inkscape:connector-curvature="0" />
	<path style="fill:none;stroke:red;stroke-width:1px;stroke-linecap:butt;stroke-linejoin:miter;stroke-opacity:1" d="M 429.9,75.219 429.9,93.4803 z" id="boundary" inkscape:connector-curvature="0" />
	<path style="fill:none;stroke:red;stroke-width:1px;stroke-linecap:butt;stroke-linejoin:miter;stroke-opacity:1" d="M 429.9,93.4803 439.031,109.915 z" id="boundary" inkscape:connector-curvature="0" />
	<path style="fill:none;stroke:red;stroke-width:1px;stroke-linecap:butt;stroke-linejoin:miter;stroke-opacity:1" d="M 429.9,380.182 448.162,371.052 z" id="boundary" inkscape:connector-curvature="0" />
	<path style="fill:none;stroke:red;stroke-width:1px;stroke-linecap:butt;stroke-linejoin:miter;stroke-opacity:1" d="M 439.031,109.915 439.031,128.177 z" id="boundary" inkscape:connector-curvature="0" />
	<path style="fill:none;stroke:red;stroke-width:1px;stroke-linecap:butt;stroke-linejoin:miter;stroke-opacity:1" d="M 439.031,128.177 448.162,144.612 z" id="boundary" inkscape:connector-curvature="0" />
	<path style="fill:none;stroke:red;stroke-width:1px;stroke-linecap:butt;stroke-linejoin:miter;stroke-opacity:1" d="M 448.162,144.612 459.118,159.221 z" id="boundary" inkscape:connector-curvature="0" />
	<path style="fill:none;stroke:red;stroke-width:1px;stroke-linecap:butt;stroke-linejoin:miter;stroke-opacity:1" d="M 448.162,371.052 464.597,361.921 z" id="boundary" inkscape:connector-curvature="0" />
	<path style="fill:none;stroke:red;stroke-width:1px;stroke-linecap:butt;stroke-linejoin:miter;stroke-opacity:1" d="M 459.118,159.221 466.423,177.482 z" id="boundary" inkscape:connector-curvature="0" />
	<path style="fill:none;stroke:red;stroke-width:1px;stroke-linecap:butt;stroke-linejoin:miter;stroke-opacity:1" d="M 464.597,361.921 482.858,361.921 z" id="boundary" inkscape:connector-curvature="0" />
	<path style="fill:none;stroke:red;stroke-width:1px;stroke-linecap:butt;stroke-linejoin:miter;stroke-opacity:1" d="M 466.423,177.482 484.684,172.004 z" id="boundary" inkscape:connector-curvature="0" />
	<path style="fill:none;stroke:red;stroke-width:1px;stroke-linecap:butt;stroke-linejoin:miter;stroke-opacity:1" d="M 482.858,361.921 501.119,361.921 z" id="boundary" inkscape:connector-curvature="0" />
	<path style="fill:none;stroke:red;stroke-width:1px;stroke-linecap:butt;stroke-linejoin:miter;stroke-opacity:1" d="M 484.684,172.004 502.946,177.482 z" id="boundary" inkscape:connector-curvature="0" />
	<path style="fill:none;stroke:red;stroke-width:1px;stroke-linecap:butt;stroke-linejoin:miter;stroke-opacity:1" d="M 501.119,361.921 519.381,356.443 z" id="boundary" inkscape:connector-curvature="0" />
	<path style="fill:none;stroke:red;stroke-width:1px;stroke-linecap:butt;stroke-linejoin:miter;stroke-opacity:1" d="M 502.946,177.482 521.207,182.961 z" id="boundary" inkscape:connector-curvature="0" />
	<path style="fill:none;stroke:red;stroke-width:1px;stroke-linecap:butt;stroke-linejoin:miter;stroke-opacity:1" d="M 519.381,356.443 537.642,352.79 z" id="boundary" inkscape:connector-curvature="0" />
	<path style="fill:none;stroke:red;stroke-width:1px;stroke-linecap:butt;stroke-linejoin:miter;stroke-opacity:1" d="M 521.207,182.961 537.642,192.091 z" id="boundary" inkscape:connector-curvature="0" />
	<path style="fill:none;stroke:red;stroke-width:1px;stroke-linecap:butt;stroke-linejoin:miter;stroke-opacity:1" d="M 537.642,192.091 555.903,186.613 z" id="boundary" inkscape:connector-curvature="0" />
	<path style="fill:none;stroke:red;stroke-width:1px;stroke-linecap:butt;stroke-linejoin:miter;stroke-opacity:1" d="M 537.642,352.79 554.077,343.66 z" id="boundary" inkscape:connector-curvature="0" />
	<path style="fill:none;stroke:red;stroke-width:1px;stroke-linecap:butt;stroke-linejoin:miter;stroke-opacity:1" d="M 554.077,343.66 572.338,343.66 z" id="boundary" inkscape:connector-curvature="0" />
	<path style="fill:none;stroke:red;stroke-width:1px;stroke-linecap:butt;stroke-linejoin:miter;stroke-opacity:1" d="M 555.903,186.613 574.165,190.265 z" id="boundary" inkscape:connector-curvature="0" />
	<path style="fill:none;stroke:red;stroke-width:1px;stroke-linecap:butt;stroke-linejoin:miter;stroke-opacity:1" d="M 572.338,343.66 588.774,352.79 z" id="boundary" inkscape:connector-curvature="0" />
	<path style="fill:none;stroke:red;stroke-width:1px;stroke-linecap:butt;stroke-linejoin:miter;stroke-opacity:1" d="M 574.165,190.265 592.426,195.743 z" id="boundary" inkscape:connector-curvature="0" />
	<path style="fill:none;stroke:red;stroke-width:1px;stroke-linecap:butt;stroke-linejoin:miter;stroke-opacity:1" d="M 588.774,352.79 607.035,350.964 z" id="boundary" inkscape:connector-curvature="0" />
	<path style="fill:none;stroke:red;stroke-width:1px;stroke-linecap:butt;stroke-linejoin:miter;stroke-opacity:1" d="M 592.426,195.743 610.687,192.091 z" id="boundary" inkscape:connector-curvature="0" />
	<path style="fill:none;stroke:red;stroke-width:1px;stroke-linecap:butt;stroke-linejoin:miter;stroke-opacity:1" d="M 607.035,350.964 625.296,343.66 z" id="boundary" inkscape:connector-curvature="0" />
	<path style="fill:none;stroke:red;stroke-width:1px;stroke-linecap:butt;stroke-linejoin:miter;stroke-opacity:1" d="M 610.687,192.091 628.948,190.265 z" id="boundary" inkscape:connector-curvature="0" />
	<path style="fill:none;stroke:red;stroke-width:1px;stroke-linecap:butt;stroke-linejoin:miter;stroke-opacity:1" d="M 625.296,343.66 643.557,343.66 z" id="boundary" inkscape:connector-curvature="0" />
	<path style="fill:none;stroke:red;stroke-width:1px;stroke-linecap:butt;stroke-linejoin:miter;stroke-opacity:1" d="M 628.948,190.265 647.21,195.743 z" id="boundary" inkscape:connector-curvature="0" />
	<path style="fill:none;stroke:red;stroke-width:1px;stroke-linecap:butt;stroke-linejoin:miter;stroke-opacity:1" d="M 643.557,343.66 659.993,352.79 z" id="boundary" inkscape:connector-curvature="0" />
	<path style="fill:none;stroke:red;stroke-width:1px;stroke-linecap:butt;stroke-linejoin:miter;stroke-opacity:1" d="M 647.21,195.743 665.471,190.265 z" id="boundary" inkscape:connector-curvature="0" />
	<path style="fill:none;stroke:red;stroke-width:1px;stroke-linecap:butt;stroke-linejoin:miter;stroke-opacity:1" d="M 659.993,352.79 678.254,349.138 z" id="boundary" inkscape:connector-curvature="0" />
	<path style="fill:none;stroke:red;stroke-width:1px;stroke-linecap:butt;stroke-linejoin:miter;stroke-opacity:1" d="M 665.471,190.265 683.732,195.743 z" id="boundary" inkscape:connector-curvature="0" />
	<path style="fill:none;stroke:red;stroke-width:1px;stroke-linecap:butt;stroke-linejoin:miter;stroke-opacity:1" d="M 678.254,349.138 696.515,343.66 z" id="boundary" inkscape:connector-curvature="0" />
	<path style="fill:none;stroke:red;stroke-width:1px;stroke-linecap:butt;stroke-linejoin:miter;stroke-opacity:1" d="M 683.732,195.743 701.993,190.265 z" id="boundary" inkscape:connector-curvature="0" />
	<path style="fill:none;stroke:red;stroke-width:1px;stroke-linecap:butt;stroke-linejoin:miter;stroke-opacity:1" d="M 696.515,343.66 712.95,352.79 z" id="boundary" inkscape:connector-curvature="0" />
	<path style="fill:none;stroke:red;stroke-width:1px;stroke-linecap:butt;stroke-linejoin:miter;stroke-opacity:1" d="M 701.993,190.265 720.255,192.091 z" id="boundary" inkscape:connector-curvature="0" />
	<path style="fill:none;stroke:red;stroke-width:1px;stroke-linecap:butt;stroke-linejoin:miter;stroke-opacity:1" d="M 712.95,352.79 731.211,343.66 z" id="boundary" inkscape:connector-curvature="0" />
	<path style="fill:none;stroke:red;stroke-width:1px;stroke-linecap:butt;stroke-linejoin:miter;stroke-opacity:1" d="M 720.255,192.091 738.516,190.265 z" id="boundary" inkscape:connector-curvature="0" />
	<path style="fill:none;stroke:red;stroke-width:1px;stroke-linecap:butt;stroke-linejoin:miter;stroke-opacity:1" d="M 731.211,343.66 749.473,347.312 z" id="boundary" inkscape:connector-curvature="0" />
	<path style="fill:none;stroke:red;stroke-width:1px;stroke-linecap:butt;stroke-linejoin:miter;stroke-opacity:1" d="M 738.516,190.265 756.777,195.743 z" id="boundary" inkscape:connector-curvature="0" />
	<path style="fill:none;stroke:red;stroke-width:1px;stroke-linecap:butt;stroke-linejoin:miter;stroke-opacity:1" d="M 749.473,347.312 767.734,347.312 z" id="boundary" inkscape:connector-curvature="0" />
	<path style="fill:none;stroke:red;stroke-width:1px;stroke-linecap:butt;stroke-linejoin:miter;stroke-opacity:1" d="M 756.777,195.743 773.212,204.874 z" id="boundary" inkscape:connector-curvature="0" />
	<path style="fill:none;stroke:red;stroke-width:1px;stroke-linecap:butt;stroke-linejoin:miter;stroke-opacity:1" d="M 767.734,347.312 785.995,347.312 z" id="boundary" inkscape:connector-curvature="0" />
	<path style="fill:none;stroke:red;stroke-width:1px;stroke-linecap:butt;stroke-linejoin:miter;stroke-opacity:1" d="M 773.212,204.874 791.474,204.874 z" id="boundary" inkscape:connector-curvature="0" />
	<path style="fill:none;stroke:red;stroke-width:1px;stroke-linecap:butt;stroke-linejoin:miter;stroke-opacity:1" d="M 785.995,347.312 804.257,343.66 z" id="boundary" inkscape:connector-curvature="0" />
	<path style="fill:none;stroke:red;stroke-width:1px;stroke-linecap:butt;stroke-linejoin:miter;stroke-opacity:1" d="M 791.474,204.874 807.909,195.743 z" id="boundary" inkscape:connector-curvature="0" />
	<path style="fill:none;stroke:red;stroke-width:1px;stroke-linecap:butt;stroke-linejoin:miter;stroke-opacity:1" d="M 804.257,343.66 822.518,343.66 z" id="boundary" inkscape:connector-curvature="0" />
	<path style="fill:none;stroke:red;stroke-width:1px;stroke-linecap:butt;stroke-linejoin:miter;stroke-opacity:1" d="M 807.909,195.743 826.17,182.548 z" id="boundary" inkscape:connector-curvature="0" />
	<path style="fill:none;stroke:red;stroke-width:1px;stroke-linecap:butt;stroke-linejoin:miter;stroke-opacity:1" d="M 822.518,343.66 838.953,352.79 z" id="boundary" inkscape:connector-curvature="0" />
	<path style="fill:none;stroke:red;stroke-width:1px;stroke-linecap:butt;stroke-linejoin:miter;stroke-opacity:1" d="M 826.17,182.548 844.431,200.536 z" id="boundary" inkscape:connector-curvature="0" />
	<path style="fill:none;stroke:red;stroke-width:1px;stroke-linecap:butt;stroke-linejoin:miter;stroke-opacity:1" d="M 838.953,352.79 855.388,343.66 z" id="boundary" inkscape:connector-curvature="0" />
	<path style="fill:none;stroke:red;stroke-width:1px;stroke-linecap:butt;stroke-linejoin:miter;stroke-opacity:1" d="M 844.431,200.536 862.693,195.743 z" id="boundary" inkscape:connector-curvature="0" />
	<path style="fill:none;stroke:red;stroke-width:1px;stroke-linecap:butt;stroke-linejoin:miter;stroke-opacity:1" d="M 855.388,343.66 873.649,343.66 z" id="boundary" inkscape:connector-curvature="0" />
	<path style="fill:none;stroke:red;stroke-width:1px;stroke-linecap:butt;stroke-linejoin:miter;stroke-opacity:1" d="M 862.693,195.743 879.128,204.874 z" id="boundary" inkscape:connector-curvature="0" />
	<path style="fill:none;stroke:red;stroke-width:1px;stroke-linecap:butt;stroke-linejoin:miter;stroke-opacity:1" d="M 873.649,343.66 890.085,334.529 z" id="boundary" inkscape:connector-curvature="0" />
	<path style="fill:none;stroke:red;stroke-width:1px;stroke-linecap:butt;stroke-linejoin:miter;stroke-opacity:1" d="M 879.128,204.874 895.563,195.743 z" id="boundary" inkscape:connector-curvature="0" />
	<path style="fill:none;stroke:red;stroke-width:1px;stroke-linecap:butt;stroke-linejoin:miter;stroke-opacity:1" d="M 890.085,334.529 906.841,343.081 z" id="boundary" inkscape:connector-curvature="0" />
	<path style="fill:none;stroke:red;stroke-width:1px;stroke-linecap:butt;stroke-linejoin:miter;stroke-opacity:1" d="M 895.563,195.743 911.998,204.874 z" id="boundary" inkscape:connector-curvature="0" />
	<path style="fill:none;stroke:red;stroke-width:1px;stroke-linecap:butt;stroke-linejoin:miter;stroke-opacity:1" d="M 906.841,343.081 922.955,352.79 z" id="boundary" inkscape:connector-curvature="0" />
	<path style="fill:none;stroke:red;stroke-width:1px;stroke-linecap:butt;stroke-linejoin:miter;stroke-opacity:1" d="M 911.998,204.874 928.433,214.005 z" id="boundary" inkscape:connector-curvature="0" />
	<path style="fill:none;stroke:red;stroke-width:1px;stroke-linecap:butt;stroke-linejoin:miter;stroke-opacity:1" d="M 922.955,352.79 939.98,344.722 z" id="boundary" inkscape:connector-curvature="0" />
	<path style="fill:none;stroke:red;stroke-width:1px;stroke-linecap:butt;stroke-linejoin:miter;stroke-opacity:1" d="M 928.433,214.005 944.868,204.874 z" id="boundary" inkscape:connector-curvature="0" />
	<path style="fill:none;stroke:red;stroke-width:1px;stroke-linecap:butt;stroke-linejoin:miter;stroke-opacity:1" d="M 939.98,344.722 955.825,334.529 z" id="boundary" inkscape:connector-curvature="0" />
	<path style="fill:none;stroke:red;stroke-width:1px;stroke-linecap:butt;stroke-linejoin:miter;stroke-opacity:1" d="M 944.868,204.874 967.925,202.087 z" id="boundary" inkscape:connector-curvature="0" />
	<path style="fill:none;stroke:red;stroke-width:1px;stroke-linecap:butt;stroke-linejoin:miter;stroke-opacity:1" d="M 955.825,334.529 974.086,334.529 z" id="boundary" inkscape:connector-curvature="0" />
	<path style="fill:none;stroke:red;stroke-width:1px;stroke-linecap:butt;stroke-linejoin:miter;stroke-opacity:1" d="M 967.925,202.087 977.739,223.135 z" id="boundary" inkscape:connector-curvature="0" />
	<path style="fill:none;stroke:red;stroke-width:1px;stroke-linecap:butt;stroke-linejoin:miter;stroke-opacity:1" d="M 974.086,334.529 986.869,307.137 z" id="boundary" inkscape:connector-curvature="0" />
	<path style="fill:none;stroke:red;stroke-width:1px;stroke-linecap:butt;stroke-linejoin:miter;stroke-opacity:1" d="M 977.739,223.135 986.869,239.57 z" id="boundary" inkscape:connector-curvature="0" />
	<path style="fill:none;stroke:red;stroke-width:1px;stroke-linecap:butt;stroke-linejoin:miter;stroke-opacity:1" d="M 986.869,239.57 986.869,270.615 z" id="boundary" inkscape:connector-curvature="0" />
	<path style="fill:none;stroke:red;stroke-width:1px;stroke-linecap:butt;stroke-linejoin:miter;stroke-opacity:1" d="M 986.869,270.615 996,287.05 z" id="boundary" inkscape:connector-curvature="0" />
	<path style="fill:none;stroke:red;stroke-width:1px;stroke-linecap:butt;stroke-linejoin:miter;stroke-opacity:1" d="M 986.869,307.137 996,287.05 z" id="boundary" inkscape:connector-curvature="0" />
	<circle cx="17.1956" cy="210.352" r="4" fill="#0" id="circle0"/>
	<circle cx="17.1956" cy="256.006" r="4" fill="#0" id="circle1"/>
	<circle cx="23.6483" cy="274.267" r="4" fill="#0" id="circle2"/>
	<circle cx="19.2902" cy="292.528" r="4" fill="#0" id="circle3"/>
	<circle cx="4" cy="310.789" r="4" fill="#0" id="circle4"/>
	<circle cx="23.0557" cy="316.028" r="4" fill="#0" id="circle5"/>
	<circle cx="17.1956" cy="356.443" r="4" fill="#0" id="circle6"/>
	<circle cx="26.3262" cy="137.307" r="4" fill="#0" id="circle7"/>
	<circle cx="39.5217" cy="155.569" r="4" fill="#0" id="circle8"/>
	<circle cx="13.1306" cy="173.83" r="4" fill="#0" id="circle9"/>
	<circle cx="26.3262" cy="192.091" r="4" fill="#0" id="circle10"/>
	<circle cx="26.3262" cy="226.788" r="4" fill="#0" id="circle11"/>
	<circle cx="26.3262" cy="372.878" r="4" fill="#0" id="circle12"/>
	<circle cx="26.815" cy="400.727" r="4" fill="#0" id="circle13"/>
	<circle cx="26.3262" cy="420.357" r="4" fill="#0" id="circle14"/>
	<circle cx="35.4568" cy="436.792" r="4" fill="#0" id="circle15"/>
	<circle cx="44.5875" cy="82.5235" r="4" fill="#0" id="circle16"/>
	<circle cx="44.5875" cy="100.785" r="4" fill="#0" id="circle17"/>
	<circle cx="44.5875" cy="119.046" r="4" fill="#0" id="circle18"/>
	<circle cx="48.2397" cy="451.401" r="4" fill="#0" id="circle19"/>
	<circle cx="53.7181" cy="64.2622" r="4" fill="#0" id="circle20"/>
	<circle cx="62.8487" cy="36.8703" r="4" fill="#0" id="circle21"/>
	<circle cx="62.8487" cy="462.358" r="4" fill="#0" id="circle22"/>
	<circle cx="79.2839" cy="471.489" r="4" fill="#0" id="circle23"/>
	<circle cx="81.11" cy="31.3919" r="4" fill="#0" id="circle24"/>
	<circle cx="95.719" cy="462.358" r="4" fill="#0" id="circle25"/>
	<circle cx="99.3713" cy="32.9892" r="4" fill="#0" id="circle26"/>
	<circle cx="113.98" cy="469.663" r="4" fill="#0" id="circle27"/>
	<circle cx="117.633" cy="31.3919" r="4" fill="#0" id="circle28"/>
	<circle cx="132.242" cy="471.489" r="4" fill="#0" id="circle29"/>
	<circle cx="133.292" cy="20.865" r="4" fill="#0" id="circle30"/>
	<circle cx="148.677" cy="480.619" r="4" fill="#0" id="circle31"/>
	<circle cx="150.503" cy="13.1306" r="4" fill="#0" id="circle32"/>
	<circle cx="166.938" cy="22.2613" r="4" fill="#0" id="circle33"/>
	<circle cx="166.938" cy="480.619" r="4" fill="#0" id="circle34"/>
	<circle cx="185.199" cy="22.2605" r="4" fill="#0" id="circle35"/>
	<circle cx="185.199" cy="480.619" r="4" fill="#0" id="circle36"/>
	<circle cx="203.461" cy="22.2613" r="4" fill="#0" id="circle37"/>
	<circle cx="203.461" cy="486.098" r="4" fill="#0" id="circle38"/>
	<circle cx="219.896" cy="13.1306" r="4" fill="#0" id="circle39"/>
	<circle cx="221.722" cy="480.619" r="4" fill="#0" id="circle40"/>
	<circle cx="230.852" cy="497.054" r="4" fill="#0" id="circle41"/>
	<circle cx="238.157" cy="9.47839" r="4" fill="#0" id="circle42"/>
	<circle cx="249.114" cy="495.228" r="4" fill="#0" id="circle43"/>
	<circle cx="256.418" cy="9.47838" r="4" fill="#0" id="circle44"/>
	<circle cx="267.375" cy="495.228" r="4" fill="#0" id="circle45"/>
	<circle cx="274.68" cy="4" r="4" fill="#0" id="circle46"/>
	<circle cx="283.81" cy="504.359" r="4" fill="#0" id="circle47"/>
	<circle cx="291.115" cy="13.1306" r="4" fill="#0" id="circle48"/>
	<circle cx="302.071" cy="498.881" r="4" fill="#0" id="circle49"/>
	<circle cx="307.55" cy="4" r="4" fill="#0" id="circle50"/>
	<circle cx="320.333" cy="498.881" r="4" fill="#0" id="circle51"/>
	<circle cx="325.811" cy="17.1956" r="4" fill="#0" id="circle52"/>
	<circle cx="336.768" cy="508.011" r="4" fill="#0" id="circle53"/>
	<circle cx="344.072" cy="4" r="4" fill="#0" id="circle54"/>
	<circle cx="353.203" cy="498.881" r="4" fill="#0" id="circle55"/>
	<circle cx="362.334" cy="7.0845" r="4" fill="#0" id="circle56"/>
	<circle cx="371.464" cy="495.228" r="4" fill="#0" id="circle57"/>
	<circle cx="380.595" cy="4" r="4" fill="#0" id="circle58"/>
	<circle cx="389.726" cy="495.228" r="4" fill="#0" id="circle59"/>
	<circle cx="397.03" cy="13.1306" r="4" fill="#0" id="circle60"/>
	<circle cx="398.856" cy="476.967" r="4" fill="#0" id="circle61"/>
	<circle cx="402.508" cy="31.3919" r="4" fill="#0" id="circle62"/>
	<circle cx="402.509" cy="453.227" r="4" fill="#0" id="circle63"/>
	<circle cx="417.118" cy="42.3487" r="4" fill="#0" id="circle64"/>
	<circle cx="417.118" cy="440.445" r="4" fill="#0" id="circle65"/>
	<circle cx="420.77" cy="398.444" r="4" fill="#0" id="circle66"/>
	<circle cx="420.77" cy="416.705" r="4" fill="#0" id="circle67"/>
	<circle cx="429.9" cy="56.9577" r="4" fill="#0" id="circle68"/>
	<circle cx="429.9" cy="75.219" r="4" fill="#0" id="circle69"/>
	<circle cx="429.9" cy="93.4803" r="4" fill="#0" id="circle70"/>
	<circle cx="429.9" cy="380.182" r="4" fill="#0" id="circle71"/>
	<circle cx="439.031" cy="109.915" r="4" fill="#0" id="circle72"/>
	<circle cx="439.031" cy="128.177" r="4" fill="#0" id="circle73"/>
	<circle cx="448.162" cy="144.612" r="4" fill="#0" id="circle74"/>
	<circle cx="448.162" cy="371.052" r="4" fill="#0" id="circle75"/>
	<circle cx="459.118" cy="159.221" r="4" fill="#0" id="circle76"/>
	<circle cx="464.597" cy="361.921" r="4" fill="#0" id="circle77"/>
	<circle cx="466.423" cy="177.482" r="4" fill="#0" id="circle78"/>
	<circle cx="482.858" cy="361.921" r="4" fill="#0" id="circle79"/>
	<circle cx="484.684" cy="172.004" r="4" fill="#0" id="circle80"/>
	<circle cx="501.119" cy="361.921" r="4" fill="#0" id="circle81"/>
	<circle cx="502.946" cy="177.482" r="4" fill="#0" id="circle82"/>
	<circle cx="519.381" cy="356.443" r="4" fill="#0" id="circle83"/>
	<circle cx="521.207" cy="182.961" r="4" fill="#0" id="circle84"/>
	<circle cx="537.642" cy="192.091" r="4" fill="#0" id="circle85"/>
	<circle cx="537.642" cy="352.79" r="4" fill="#0" id="circle86"/>
	<circle cx="554.077" cy="343.66" r="4" fill="#0" id="circle87"/>
	<circle cx="555.903" cy="186.613" r="4" fill="#0" id="circle88"/>
	<circle cx="572.338" cy="343.66" r="4" fill="#0" id="circle89"/>
	<circle cx="574.165" cy="190.265" r="4" fill="#0" id="circle90"/>
	<circle cx="588.774" cy="352.79" r="4" fill="#0" id="circle91"/>
	<circle cx="592.426" cy="195.743" r="4" fill="#0" id="circle92"/>
	<circle cx="607.035" cy="350.964" r="4" fill="#0" id="circle93"/>
	<circle cx="610.687" cy="192.091" r="4" fill="#0" id="circle94"/>
	<circle cx="625.296" cy="343.66" r="4" fill="#0" id="circle95"/>
	<circle cx="628.948" cy="190.265" r="4" fill="#0" id="circle96"/>
	<circle cx="643.557" cy="343.66" r="4" fill="#0" id="circle97"/>
	<circle cx="647.21" cy="195.743" r="4" fill="#0" id="circle98"/>
	<circle cx="659.993" cy="352.79" r="4" fill="#0" id="circle99"/>
	<circle cx="665.471" cy="190.265" r="4" fill="#0" id="circle100"/>
	<circle cx="678.254" cy="349.138" r="4" fill="#0" id="circle101"/>
	<circle cx="683.732" cy="195.743" r="4" fill="#0" id="circle102"/>
	<circle cx="696.515" cy="343.66" r="4" fill="#0" id="circle103"/>
	<circle cx="701.993" cy="190.265" r="4" fill="#0" id="circle104"/>
	<circle cx="712.95" cy="352.79" r="4" fill="#0" id="circle105"/>
	<circle cx="720.255" cy="192.091" r="4" fill="#0" id="circle106"/>
	<circle cx="731.211" cy="343.66" r="4" fill="#0" id="circle107"/>
	<circle cx="738.516" cy="190.265" r="4" fill="#0" id="circle108"/>
	<circle cx="749.473" cy="347.312" r="4" fill="#0" id="circle109"/>
	<circle cx="756.777" cy="195.743" r="4" fill="#0" id="circle110"/>
	<circle cx="767.734" cy="347.312" r="4" fill="#0" id="circle111"/>
	<circle cx="773.212" cy="204.874" r="4" fill="#0" id="circle112"/>
	<circle cx="785.995" cy="347.312" r="4" fill="#0" id="circle113"/>
	<circle cx="791.474" cy="204.874" r="4" fill="#0" id="circle114"/>
	<circle cx="804.257" cy="343.66" r="4" fill="#0" id="circle115"/>
	<circle cx="807.909" cy="195.743" r="4" fill="#0" id="circle116"/>
	<circle cx="822.518" cy="343.66" r="4" fill="#0" id="circle117"/>
	<circle cx="826.17" cy="182.548" r="4" fill="#0" id="circle118"/>
	<circle cx="838.953" cy="352.79" r="4" fill="#0" id="circle119"/>
	<circle cx="844.431" cy="200.536" r="4" fill="#0" id="circle120"/>
	<circle cx="855.388" cy="343.66" r="4" fill="#0" id="circle121"/>
	<circle cx="862.693" cy="195.743" r="4" fill="#0" id="circle122"/>
	<circle cx="873.649" cy="343.66" r="4" fill="#0" id="circle123"/>
	<circle cx="879.128" cy="204.874" r="4" fill="#0" id="circle124"/>
	<circle cx="890.085" cy="334.529" r="4" fill="#0" id="circle125"/>
	<circle cx="895.563" cy="195.743" r="4" fill="#0" id="circle126"/>
	<circle cx="906.841" cy="343.081" r="4" fill="#0" id="circle127"/>
	<circle cx="911.998" cy="204.874" r="4" fill="#0" id="circle128"/>
	<circle cx="922.955" cy="352.79" r="4" fill="#0" id="circle129"/>
	<circle cx="928.433" cy="214.005" r="4" fill="#0" id="circle130"/>
	<circle cx="939.98" cy="344.722" r="4" fill="#0" id="circle131"/>
	<circle cx="944.868" cy="204.874" r="4" fill="#0" id="circle132"/>
	<circle cx="955.825" cy="334.529" r="4" fill="#0" id="circle133"/>
	<circle cx="967.925" cy="202.087" r="4" fill="#0" id="circle134"/>
	<circle cx="974.086" cy="334.529" r="4" fill="#0" id="circle135"/>
	<circle cx="977.739" cy="223.135" r="4" fill="#0" id="circle136"/>
	<circle cx="986.869" cy="239.57" r="4" fill="#0" id="circle137"/>
	<circle cx="986.869" cy="270.615" r="4" fill="#0" id="circle138"/>
	<circle cx="986.869" cy="307.137" r="4" fill="#0" id="circle139"/>
	<circle cx="996" cy="287.05" r="4" fill="#0" id="circle140"/>
	</g>
</svg>