<?xml version="1.0" encoding="UTF-8" standalone="no"?>
<!-- Created with CurveBenchmark -->
<svg
	xmlns:dc="http://purl.org/dc/elements/1.1/"
	xmlns:cc="http://creativecommons.org/ns#"
	xmlns:rdf="http://www.w3.org/1999/02/22-rdf-syntax-ns#"
	xmlns:svg="http://www.w3.org/2000/svg"
	xmlns="http://www.w3.org/2000/svg"
	xmlns:sodipodi="http://sodipodi.sourceforge.net/DTD/sodipodi-0.dtd"
	xmlns:inkscape="http://www.inkscape.org/namespaces/inkscape"
	width="1000"
	height="1000"
	id="svg2"
	version="1.1"
	sodipodi:docname="manifold/stretchdenoise-teddy345.png.txt">
<defs
	id="defs4" />
<metadata
	id="metadata7">
	<rdf:RDF>
		<cc:Work
			rdf:about="">
			<dc:format>image/svg+xml</dc:format>
			<dc:type
				rdf:resource="http://purl.org/dc/dcmitype/StillImage" />
			<dc:title></dc:title>
		</cc:Work>
	</rdf:RDF>
</metadata>
<g
	inkscape:label="Layer 1"
	inkscape:groupmode="layer"
	id="layer1">
	<path style="fill:none;stroke:red;stroke-width:1px;stroke-linecap:butt;stroke-linejoin:miter;stroke-opacity:1" d="M 4,829.254 4,857.516 z" id="boundary" inkscape:connector-curvature="0" />
	<path style="fill:none;stroke:red;stroke-width:1px;stroke-linecap:butt;stroke-linejoin:miter;stroke-opacity:1" d="M 4,829.254 9.65242,800.991 z" id="boundary" inkscape:connector-curvature="0" />
	<path style="fill:none;stroke:red;stroke-width:1px;stroke-linecap:butt;stroke-linejoin:miter;stroke-opacity:1" d="M 4,857.516 6.82621,885.778 z" id="boundary" inkscape:connector-curvature="0" />
	<path style="fill:none;stroke:red;stroke-width:1px;stroke-linecap:butt;stroke-linejoin:miter;stroke-opacity:1" d="M 6.82621,885.778 9.65242,914.04 z" id="boundary" inkscape:connector-curvature="0" />
	<path style="fill:none;stroke:red;stroke-width:1px;stroke-linecap:butt;stroke-linejoin:miter;stroke-opacity:1" d="M 9.65242,772.729 9.65242,800.991 z" id="boundary" inkscape:connector-curvature="0" />
	<path style="fill:none;stroke:red;stroke-width:1px;stroke-linecap:butt;stroke-linejoin:miter;stroke-opacity:1" d="M 9.65242,772.729 26.6097,750.12 z" id="boundary" inkscape:connector-curvature="0" />
	<path style="fill:none;stroke:red;stroke-width:1px;stroke-linecap:butt;stroke-linejoin:miter;stroke-opacity:1" d="M 9.65242,914.04 15.3049,942.302 z" id="boundary" inkscape:connector-curvature="0" />
	<path style="fill:none;stroke:red;stroke-width:1px;stroke-linecap:butt;stroke-linejoin:miter;stroke-opacity:1" d="M 15.3049,942.302 32.2621,964.912 z" id="boundary" inkscape:connector-curvature="0" />
	<path style="fill:none;stroke:red;stroke-width:1px;stroke-linecap:butt;stroke-linejoin:miter;stroke-opacity:1" d="M 26.6097,750.12 49.2194,733.162 z" id="boundary" inkscape:connector-curvature="0" />
	<path style="fill:none;stroke:red;stroke-width:1px;stroke-linecap:butt;stroke-linejoin:miter;stroke-opacity:1" d="M 32.2621,964.912 57.698,979.043 z" id="boundary" inkscape:connector-curvature="0" />
	<path style="fill:none;stroke:red;stroke-width:1px;stroke-linecap:butt;stroke-linejoin:miter;stroke-opacity:1" d="M 49.2194,733.162 77.4815,727.51 z" id="boundary" inkscape:connector-curvature="0" />
	<path style="fill:none;stroke:red;stroke-width:1px;stroke-linecap:butt;stroke-linejoin:miter;stroke-opacity:1" d="M 57.698,979.043 85.9601,990.348 z" id="boundary" inkscape:connector-curvature="0" />
	<path style="fill:none;stroke:red;stroke-width:1px;stroke-linecap:butt;stroke-linejoin:miter;stroke-opacity:1" d="M 77.4815,727.51 105.744,727.51 z" id="boundary" inkscape:connector-curvature="0" />
	<path style="fill:none;stroke:red;stroke-width:1px;stroke-linecap:butt;stroke-linejoin:miter;stroke-opacity:1" d="M 83.1339,484.456 83.1339,512.718 z" id="boundary" inkscape:connector-curvature="0" />
	<path style="fill:none;stroke:red;stroke-width:1px;stroke-linecap:butt;stroke-linejoin:miter;stroke-opacity:1" d="M 83.1339,484.456 105.744,461.846 z" id="boundary" inkscape:connector-curvature="0" />
	<path style="fill:none;stroke:red;stroke-width:1px;stroke-linecap:butt;stroke-linejoin:miter;stroke-opacity:1" d="M 83.1339,512.718 83.1339,540.98 z" id="boundary" inkscape:connector-curvature="0" />
	<path style="fill:none;stroke:red;stroke-width:1px;stroke-linecap:butt;stroke-linejoin:miter;stroke-opacity:1" d="M 83.1339,540.98 88.7863,569.242 z" id="boundary" inkscape:connector-curvature="0" />
	<path style="fill:none;stroke:red;stroke-width:1px;stroke-linecap:butt;stroke-linejoin:miter;stroke-opacity:1" d="M 85.9601,990.348 114.222,996 z" id="boundary" inkscape:connector-curvature="0" />
	<path style="fill:none;stroke:red;stroke-width:1px;stroke-linecap:butt;stroke-linejoin:miter;stroke-opacity:1" d="M 88.7863,569.242 105.744,591.852 z" id="boundary" inkscape:connector-curvature="0" />
	<path style="fill:none;stroke:red;stroke-width:1px;stroke-linecap:butt;stroke-linejoin:miter;stroke-opacity:1" d="M 105.744,461.846 131.179,447.715 z" id="boundary" inkscape:connector-curvature="0" />
	<path style="fill:none;stroke:red;stroke-width:1px;stroke-linecap:butt;stroke-linejoin:miter;stroke-opacity:1" d="M 105.744,591.852 128.353,611.635 z" id="boundary" inkscape:connector-curvature="0" />
	<path style="fill:none;stroke:red;stroke-width:1px;stroke-linecap:butt;stroke-linejoin:miter;stroke-opacity:1" d="M 105.744,727.51 134.006,727.51 z" id="boundary" inkscape:connector-curvature="0" />
	<path style="fill:none;stroke:red;stroke-width:1px;stroke-linecap:butt;stroke-linejoin:miter;stroke-opacity:1" d="M 114.222,996 142.484,995.743 z" id="boundary" inkscape:connector-curvature="0" />
	<path style="fill:none;stroke:red;stroke-width:1px;stroke-linecap:butt;stroke-linejoin:miter;stroke-opacity:1" d="M 128.353,611.635 150.963,628.593 z" id="boundary" inkscape:connector-curvature="0" />
	<path style="fill:none;stroke:red;stroke-width:1px;stroke-linecap:butt;stroke-linejoin:miter;stroke-opacity:1" d="M 131.179,447.715 159.442,439.236 z" id="boundary" inkscape:connector-curvature="0" />
	<path style="fill:none;stroke:red;stroke-width:1px;stroke-linecap:butt;stroke-linejoin:miter;stroke-opacity:1" d="M 134.006,727.51 162.268,735.989 z" id="boundary" inkscape:connector-curvature="0" />
	<path style="fill:none;stroke:red;stroke-width:1px;stroke-linecap:butt;stroke-linejoin:miter;stroke-opacity:1" d="M 142.484,995.743 170.746,996 z" id="boundary" inkscape:connector-curvature="0" />
	<path style="fill:none;stroke:red;stroke-width:1px;stroke-linecap:butt;stroke-linejoin:miter;stroke-opacity:1" d="M 150.963,628.593 179.225,639.897 z" id="boundary" inkscape:connector-curvature="0" />
	<path style="fill:none;stroke:red;stroke-width:1px;stroke-linecap:butt;stroke-linejoin:miter;stroke-opacity:1" d="M 159.442,439.236 187.704,433.584 z" id="boundary" inkscape:connector-curvature="0" />
	<path style="fill:none;stroke:red;stroke-width:1px;stroke-linecap:butt;stroke-linejoin:miter;stroke-opacity:1" d="M 162.268,735.989 190.53,738.815 z" id="boundary" inkscape:connector-curvature="0" />
	<path style="fill:none;stroke:red;stroke-width:1px;stroke-linecap:butt;stroke-linejoin:miter;stroke-opacity:1" d="M 170.746,996 196.232,977.753 z" id="boundary" inkscape:connector-curvature="0" />
	<path style="fill:none;stroke:red;stroke-width:1px;stroke-linecap:butt;stroke-linejoin:miter;stroke-opacity:1" d="M 179.225,639.897 207.487,645.55 z" id="boundary" inkscape:connector-curvature="0" />
	<path style="fill:none;stroke:red;stroke-width:1px;stroke-linecap:butt;stroke-linejoin:miter;stroke-opacity:1" d="M 187.704,433.584 215.966,433.584 z" id="boundary" inkscape:connector-curvature="0" />
	<path style="fill:none;stroke:red;stroke-width:1px;stroke-linecap:butt;stroke-linejoin:miter;stroke-opacity:1" d="M 190.53,738.815 213.14,716.205 z" id="boundary" inkscape:connector-curvature="0" />
	<path style="fill:none;stroke:red;stroke-width:1px;stroke-linecap:butt;stroke-linejoin:miter;stroke-opacity:1" d="M 196.232,977.753 227.271,973.39 z" id="boundary" inkscape:connector-curvature="0" />
	<path style="fill:none;stroke:red;stroke-width:1px;stroke-linecap:butt;stroke-linejoin:miter;stroke-opacity:1" d="M 207.487,645.55 218.792,676.638 z" id="boundary" inkscape:connector-curvature="0" />
	<path style="fill:none;stroke:red;stroke-width:1px;stroke-linecap:butt;stroke-linejoin:miter;stroke-opacity:1" d="M 213.14,716.205 218.792,676.638 z" id="boundary" inkscape:connector-curvature="0" />
	<path style="fill:none;stroke:red;stroke-width:1px;stroke-linecap:butt;stroke-linejoin:miter;stroke-opacity:1" d="M 215.966,433.584 244.228,427.932 z" id="boundary" inkscape:connector-curvature="0" />
	<path style="fill:none;stroke:red;stroke-width:1px;stroke-linecap:butt;stroke-linejoin:miter;stroke-opacity:1" d="M 227.271,973.39 255.533,970.564 z" id="boundary" inkscape:connector-curvature="0" />
	<path style="fill:none;stroke:red;stroke-width:1px;stroke-linecap:butt;stroke-linejoin:miter;stroke-opacity:1" d="M 241.402,230.097 241.402,258.359 z" id="boundary" inkscape:connector-curvature="0" />
	<path style="fill:none;stroke:red;stroke-width:1px;stroke-linecap:butt;stroke-linejoin:miter;stroke-opacity:1" d="M 241.402,230.097 264.011,213.14 z" id="boundary" inkscape:connector-curvature="0" />
	<path style="fill:none;stroke:red;stroke-width:1px;stroke-linecap:butt;stroke-linejoin:miter;stroke-opacity:1" d="M 241.402,258.359 244.228,286.621 z" id="boundary" inkscape:connector-curvature="0" />
	<path style="fill:none;stroke:red;stroke-width:1px;stroke-linecap:butt;stroke-linejoin:miter;stroke-opacity:1" d="M 244.228,286.621 249.88,314.883 z" id="boundary" inkscape:connector-curvature="0" />
	<path style="fill:none;stroke:red;stroke-width:1px;stroke-linecap:butt;stroke-linejoin:miter;stroke-opacity:1" d="M 244.228,427.932 272.49,419.453 z" id="boundary" inkscape:connector-curvature="0" />
	<path style="fill:none;stroke:red;stroke-width:1px;stroke-linecap:butt;stroke-linejoin:miter;stroke-opacity:1" d="M 249.88,314.883 261.185,343.145 z" id="boundary" inkscape:connector-curvature="0" />
	<path style="fill:none;stroke:red;stroke-width:1px;stroke-linecap:butt;stroke-linejoin:miter;stroke-opacity:1" d="M 255.533,970.564 283.795,973.39 z" id="boundary" inkscape:connector-curvature="0" />
	<path style="fill:none;stroke:red;stroke-width:1px;stroke-linecap:butt;stroke-linejoin:miter;stroke-opacity:1" d="M 261.185,343.145 286.621,357.276 z" id="boundary" inkscape:connector-curvature="0" />
	<path style="fill:none;stroke:red;stroke-width:1px;stroke-linecap:butt;stroke-linejoin:miter;stroke-opacity:1" d="M 264.011,213.14 286.621,196.182 z" id="boundary" inkscape:connector-curvature="0" />
	<path style="fill:none;stroke:red;stroke-width:1px;stroke-linecap:butt;stroke-linejoin:miter;stroke-opacity:1" d="M 272.49,419.453 289.447,396.843 z" id="boundary" inkscape:connector-curvature="0" />
	<path style="fill:none;stroke:red;stroke-width:1px;stroke-linecap:butt;stroke-linejoin:miter;stroke-opacity:1" d="M 283.795,973.39 312.057,973.39 z" id="boundary" inkscape:connector-curvature="0" />
	<path style="fill:none;stroke:red;stroke-width:1px;stroke-linecap:butt;stroke-linejoin:miter;stroke-opacity:1" d="M 286.621,196.182 314.883,184.877 z" id="boundary" inkscape:connector-curvature="0" />
	<path style="fill:none;stroke:red;stroke-width:1px;stroke-linecap:butt;stroke-linejoin:miter;stroke-opacity:1" d="M 286.621,357.276 289.447,396.843 z" id="boundary" inkscape:connector-curvature="0" />
	<path style="fill:none;stroke:red;stroke-width:1px;stroke-linecap:butt;stroke-linejoin:miter;stroke-opacity:1" d="M 312.057,973.39 340.319,973.39 z" id="boundary" inkscape:connector-curvature="0" />
	<path style="fill:none;stroke:red;stroke-width:1px;stroke-linecap:butt;stroke-linejoin:miter;stroke-opacity:1" d="M 314.883,184.877 331.84,162.268 z" id="boundary" inkscape:connector-curvature="0" />
	<path style="fill:none;stroke:red;stroke-width:1px;stroke-linecap:butt;stroke-linejoin:miter;stroke-opacity:1" d="M 331.84,162.268 348.798,117.048 z" id="boundary" inkscape:connector-curvature="0" />
	<path style="fill:none;stroke:red;stroke-width:1px;stroke-linecap:butt;stroke-linejoin:miter;stroke-opacity:1" d="M 340.319,973.39 362.929,990.348 z" id="boundary" inkscape:connector-curvature="0" />
	<path style="fill:none;stroke:red;stroke-width:1px;stroke-linecap:butt;stroke-linejoin:miter;stroke-opacity:1" d="M 348.798,60.5242 348.798,88.7863 z" id="boundary" inkscape:connector-curvature="0" />
	<path style="fill:none;stroke:red;stroke-width:1px;stroke-linecap:butt;stroke-linejoin:miter;stroke-opacity:1" d="M 348.798,60.5242 365.755,37.9145 z" id="boundary" inkscape:connector-curvature="0" />
	<path style="fill:none;stroke:red;stroke-width:1px;stroke-linecap:butt;stroke-linejoin:miter;stroke-opacity:1" d="M 348.798,88.7863 348.798,117.048 z" id="boundary" inkscape:connector-curvature="0" />
	<path style="fill:none;stroke:red;stroke-width:1px;stroke-linecap:butt;stroke-linejoin:miter;stroke-opacity:1" d="M 362.929,990.348 391.191,996 z" id="boundary" inkscape:connector-curvature="0" />
	<path style="fill:none;stroke:red;stroke-width:1px;stroke-linecap:butt;stroke-linejoin:miter;stroke-opacity:1" d="M 365.755,37.9145 388.365,15.3048 z" id="boundary" inkscape:connector-curvature="0" />
	<path style="fill:none;stroke:red;stroke-width:1px;stroke-linecap:butt;stroke-linejoin:miter;stroke-opacity:1" d="M 388.365,15.3048 416.627,4 z" id="boundary" inkscape:connector-curvature="0" />
	<path style="fill:none;stroke:red;stroke-width:1px;stroke-linecap:butt;stroke-linejoin:miter;stroke-opacity:1" d="M 391.191,996 419.453,996 z" id="boundary" inkscape:connector-curvature="0" />
	<path style="fill:none;stroke:red;stroke-width:1px;stroke-linecap:butt;stroke-linejoin:miter;stroke-opacity:1" d="M 416.627,4 444.889,9.65237 z" id="boundary" inkscape:connector-curvature="0" />
	<path style="fill:none;stroke:red;stroke-width:1px;stroke-linecap:butt;stroke-linejoin:miter;stroke-opacity:1" d="M 419.453,996 447.715,996 z" id="boundary" inkscape:connector-curvature="0" />
	<path style="fill:none;stroke:red;stroke-width:1px;stroke-linecap:butt;stroke-linejoin:miter;stroke-opacity:1" d="M 444.889,9.65237 473.151,15.3048 z" id="boundary" inkscape:connector-curvature="0" />
	<path style="fill:none;stroke:red;stroke-width:1px;stroke-linecap:butt;stroke-linejoin:miter;stroke-opacity:1" d="M 447.715,996 475.977,996 z" id="boundary" inkscape:connector-curvature="0" />
	<path style="fill:none;stroke:red;stroke-width:1px;stroke-linecap:butt;stroke-linejoin:miter;stroke-opacity:1" d="M 473.151,15.3048 495.761,32.2621 z" id="boundary" inkscape:connector-curvature="0" />
	<path style="fill:none;stroke:red;stroke-width:1px;stroke-linecap:butt;stroke-linejoin:miter;stroke-opacity:1" d="M 475.977,996 504.239,990.348 z" id="boundary" inkscape:connector-curvature="0" />
	<path style="fill:none;stroke:red;stroke-width:1px;stroke-linecap:butt;stroke-linejoin:miter;stroke-opacity:1" d="M 495.761,32.2621 524.023,43.5669 z" id="boundary" inkscape:connector-curvature="0" />
	<path style="fill:none;stroke:red;stroke-width:1px;stroke-linecap:butt;stroke-linejoin:miter;stroke-opacity:1" d="M 504.239,990.348 532.501,996 z" id="boundary" inkscape:connector-curvature="0" />
	<path style="fill:none;stroke:red;stroke-width:1px;stroke-linecap:butt;stroke-linejoin:miter;stroke-opacity:1" d="M 524.023,43.5669 549.459,29.4359 z" id="boundary" inkscape:connector-curvature="0" />
	<path style="fill:none;stroke:red;stroke-width:1px;stroke-linecap:butt;stroke-linejoin:miter;stroke-opacity:1" d="M 532.501,996 560.764,996 z" id="boundary" inkscape:connector-curvature="0" />
	<path style="fill:none;stroke:red;stroke-width:1px;stroke-linecap:butt;stroke-linejoin:miter;stroke-opacity:1" d="M 549.459,29.4359 574.895,15.3048 z" id="boundary" inkscape:connector-curvature="0" />
	<path style="fill:none;stroke:red;stroke-width:1px;stroke-linecap:butt;stroke-linejoin:miter;stroke-opacity:1" d="M 560.764,996 589.026,990.348 z" id="boundary" inkscape:connector-curvature="0" />
	<path style="fill:none;stroke:red;stroke-width:1px;stroke-linecap:butt;stroke-linejoin:miter;stroke-opacity:1" d="M 574.895,15.3048 603.157,4.00001 z" id="boundary" inkscape:connector-curvature="0" />
	<path style="fill:none;stroke:red;stroke-width:1px;stroke-linecap:butt;stroke-linejoin:miter;stroke-opacity:1" d="M 589.026,990.348 617.288,979.043 z" id="boundary" inkscape:connector-curvature="0" />
	<path style="fill:none;stroke:red;stroke-width:1px;stroke-linecap:butt;stroke-linejoin:miter;stroke-opacity:1" d="M 603.157,4.00001 631.419,9.65241 z" id="boundary" inkscape:connector-curvature="0" />
	<path style="fill:none;stroke:red;stroke-width:1px;stroke-linecap:butt;stroke-linejoin:miter;stroke-opacity:1" d="M 617.288,979.043 645.55,964.912 z" id="boundary" inkscape:connector-curvature="0" />
	<path style="fill:none;stroke:red;stroke-width:1px;stroke-linecap:butt;stroke-linejoin:miter;stroke-opacity:1" d="M 631.419,9.65241 659.681,18.1311 z" id="boundary" inkscape:connector-curvature="0" />
	<path style="fill:none;stroke:red;stroke-width:1px;stroke-linecap:butt;stroke-linejoin:miter;stroke-opacity:1" d="M 645.55,964.912 656.855,914.04 z" id="boundary" inkscape:connector-curvature="0" />
	<path style="fill:none;stroke:red;stroke-width:1px;stroke-linecap:butt;stroke-linejoin:miter;stroke-opacity:1" d="M 656.855,914.04 668.16,874.473 z" id="boundary" inkscape:connector-curvature="0" />
	<path style="fill:none;stroke:red;stroke-width:1px;stroke-linecap:butt;stroke-linejoin:miter;stroke-opacity:1" d="M 659.681,18.1311 679.464,40.7407 z" id="boundary" inkscape:connector-curvature="0" />
	<path style="fill:none;stroke:red;stroke-width:1px;stroke-linecap:butt;stroke-linejoin:miter;stroke-opacity:1" d="M 668.16,388.365 676.638,416.627 z" id="boundary" inkscape:connector-curvature="0" />
	<path style="fill:none;stroke:red;stroke-width:1px;stroke-linecap:butt;stroke-linejoin:miter;stroke-opacity:1" d="M 668.16,388.365 679.464,360.103 z" id="boundary" inkscape:connector-curvature="0" />
	<path style="fill:none;stroke:red;stroke-width:1px;stroke-linecap:butt;stroke-linejoin:miter;stroke-opacity:1" d="M 668.16,789.687 667.219,817.949 z" id="boundary" inkscape:connector-curvature="0" />
	<path style="fill:none;stroke:red;stroke-width:1px;stroke-linecap:butt;stroke-linejoin:miter;stroke-opacity:1" d="M 668.16,789.687 679.464,761.424 z" id="boundary" inkscape:connector-curvature="0" />
	<path style="fill:none;stroke:red;stroke-width:1px;stroke-linecap:butt;stroke-linejoin:miter;stroke-opacity:1" d="M 667.219,817.949 668.949,846.211 z" id="boundary" inkscape:connector-curvature="0" />
	<path style="fill:none;stroke:red;stroke-width:1px;stroke-linecap:butt;stroke-linejoin:miter;stroke-opacity:1" d="M 668.949,846.211 668.16,874.473 z" id="boundary" inkscape:connector-curvature="0" />
	<path style="fill:none;stroke:red;stroke-width:1px;stroke-linecap:butt;stroke-linejoin:miter;stroke-opacity:1" d="M 673.812,648.376 663.922,676.638 z" id="boundary" inkscape:connector-curvature="0" />
	<path style="fill:none;stroke:red;stroke-width:1px;stroke-linecap:butt;stroke-linejoin:miter;stroke-opacity:1" d="M 673.812,648.376 679.464,620.114 z" id="boundary" inkscape:connector-curvature="0" />
	<path style="fill:none;stroke:red;stroke-width:1px;stroke-linecap:butt;stroke-linejoin:miter;stroke-opacity:1" d="M 663.922,676.638 673.812,704.9 z" id="boundary" inkscape:connector-curvature="0" />
	<path style="fill:none;stroke:red;stroke-width:1px;stroke-linecap:butt;stroke-linejoin:miter;stroke-opacity:1" d="M 673.812,704.9 680.632,732.763 z" id="boundary" inkscape:connector-curvature="0" />
	<path style="fill:none;stroke:red;stroke-width:1px;stroke-linecap:butt;stroke-linejoin:miter;stroke-opacity:1" d="M 676.638,416.627 693.595,439.236 z" id="boundary" inkscape:connector-curvature="0" />
	<path style="fill:none;stroke:red;stroke-width:1px;stroke-linecap:butt;stroke-linejoin:miter;stroke-opacity:1" d="M 680.632,732.763 679.464,761.424 z" id="boundary" inkscape:connector-curvature="0" />
	<path style="fill:none;stroke:red;stroke-width:1px;stroke-linecap:butt;stroke-linejoin:miter;stroke-opacity:1" d="M 679.464,40.7407 685.117,69.0028 z" id="boundary" inkscape:connector-curvature="0" />
	<path style="fill:none;stroke:red;stroke-width:1px;stroke-linecap:butt;stroke-linejoin:miter;stroke-opacity:1" d="M 679.464,360.103 693.595,334.667 z" id="boundary" inkscape:connector-curvature="0" />
	<path style="fill:none;stroke:red;stroke-width:1px;stroke-linecap:butt;stroke-linejoin:miter;stroke-opacity:1" d="M 679.464,620.114 693.595,594.678 z" id="boundary" inkscape:connector-curvature="0" />
	<path style="fill:none;stroke:red;stroke-width:1px;stroke-linecap:butt;stroke-linejoin:miter;stroke-opacity:1" d="M 682.291,114.222 685.117,69.0028 z" id="boundary" inkscape:connector-curvature="0" />
	<path style="fill:none;stroke:red;stroke-width:1px;stroke-linecap:butt;stroke-linejoin:miter;stroke-opacity:1" d="M 682.291,114.222 696.422,139.658 z" id="boundary" inkscape:connector-curvature="0" />
	<path style="fill:none;stroke:red;stroke-width:1px;stroke-linecap:butt;stroke-linejoin:miter;stroke-opacity:1" d="M 693.595,334.667 707.727,297.926 z" id="boundary" inkscape:connector-curvature="0" />
	<path style="fill:none;stroke:red;stroke-width:1px;stroke-linecap:butt;stroke-linejoin:miter;stroke-opacity:1" d="M 693.595,439.236 713.379,461.846 z" id="boundary" inkscape:connector-curvature="0" />
	<path style="fill:none;stroke:red;stroke-width:1px;stroke-linecap:butt;stroke-linejoin:miter;stroke-opacity:1" d="M 693.595,594.678 710.553,572.068 z" id="boundary" inkscape:connector-curvature="0" />
	<path style="fill:none;stroke:red;stroke-width:1px;stroke-linecap:butt;stroke-linejoin:miter;stroke-opacity:1" d="M 696.422,139.658 707.727,167.92 z" id="boundary" inkscape:connector-curvature="0" />
	<path style="fill:none;stroke:red;stroke-width:1px;stroke-linecap:butt;stroke-linejoin:miter;stroke-opacity:1" d="M 707.727,167.92 716.205,196.182 z" id="boundary" inkscape:connector-curvature="0" />
	<path style="fill:none;stroke:red;stroke-width:1px;stroke-linecap:butt;stroke-linejoin:miter;stroke-opacity:1" d="M 707.727,297.926 719.031,252.707 z" id="boundary" inkscape:connector-curvature="0" />
	<path style="fill:none;stroke:red;stroke-width:1px;stroke-linecap:butt;stroke-linejoin:miter;stroke-opacity:1" d="M 710.553,572.068 721.858,543.806 z" id="boundary" inkscape:connector-curvature="0" />
	<path style="fill:none;stroke:red;stroke-width:1px;stroke-linecap:butt;stroke-linejoin:miter;stroke-opacity:1" d="M 713.379,461.846 721.858,490.108 z" id="boundary" inkscape:connector-curvature="0" />
	<path style="fill:none;stroke:red;stroke-width:1px;stroke-linecap:butt;stroke-linejoin:miter;stroke-opacity:1" d="M 716.205,196.182 719.031,224.444 z" id="boundary" inkscape:connector-curvature="0" />
	<path style="fill:none;stroke:red;stroke-width:1px;stroke-linecap:butt;stroke-linejoin:miter;stroke-opacity:1" d="M 719.031,224.444 719.031,252.707 z" id="boundary" inkscape:connector-curvature="0" />
	<path style="fill:none;stroke:red;stroke-width:1px;stroke-linecap:butt;stroke-linejoin:miter;stroke-opacity:1" d="M 721.858,490.108 721.858,543.806 z" id="boundary" inkscape:connector-curvature="0" />
	<circle cx="4" cy="829.254" r="4" fill="#0" id="circle0"/>
	<circle cx="4" cy="857.516" r="4" fill="#0" id="circle1"/>
	<circle cx="6.82621" cy="885.778" r="4" fill="#0" id="circle2"/>
	<circle cx="9.65242" cy="772.729" r="4" fill="#0" id="circle3"/>
	<circle cx="9.65242" cy="800.991" r="4" fill="#0" id="circle4"/>
	<circle cx="9.65242" cy="914.04" r="4" fill="#0" id="circle5"/>
	<circle cx="15.3049" cy="942.302" r="4" fill="#0" id="circle6"/>
	<circle cx="26.6097" cy="750.12" r="4" fill="#0" id="circle7"/>
	<circle cx="32.2621" cy="964.912" r="4" fill="#0" id="circle8"/>
	<circle cx="49.2194" cy="733.162" r="4" fill="#0" id="circle9"/>
	<circle cx="57.698" cy="979.043" r="4" fill="#0" id="circle10"/>
	<circle cx="77.4815" cy="727.51" r="4" fill="#0" id="circle11"/>
	<circle cx="83.1339" cy="484.456" r="4" fill="#0" id="circle12"/>
	<circle cx="83.1339" cy="512.718" r="4" fill="#0" id="circle13"/>
	<circle cx="83.1339" cy="540.98" r="4" fill="#0" id="circle14"/>
	<circle cx="85.9601" cy="990.348" r="4" fill="#0" id="circle15"/>
	<circle cx="88.7863" cy="569.242" r="4" fill="#0" id="circle16"/>
	<circle cx="105.744" cy="461.846" r="4" fill="#0" id="circle17"/>
	<circle cx="105.744" cy="591.852" r="4" fill="#0" id="circle18"/>
	<circle cx="105.744" cy="727.51" r="4" fill="#0" id="circle19"/>
	<circle cx="114.222" cy="996" r="4" fill="#0" id="circle20"/>
	<circle cx="128.353" cy="611.635" r="4" fill="#0" id="circle21"/>
	<circle cx="131.179" cy="447.715" r="4" fill="#0" id="circle22"/>
	<circle cx="134.006" cy="727.51" r="4" fill="#0" id="circle23"/>
	<circle cx="142.484" cy="995.743" r="4" fill="#0" id="circle24"/>
	<circle cx="150.963" cy="628.593" r="4" fill="#0" id="circle25"/>
	<circle cx="159.442" cy="439.236" r="4" fill="#0" id="circle26"/>
	<circle cx="162.268" cy="735.989" r="4" fill="#0" id="circle27"/>
	<circle cx="170.746" cy="996" r="4" fill="#0" id="circle28"/>
	<circle cx="179.225" cy="639.897" r="4" fill="#0" id="circle29"/>
	<circle cx="187.704" cy="433.584" r="4" fill="#0" id="circle30"/>
	<circle cx="190.53" cy="738.815" r="4" fill="#0" id="circle31"/>
	<circle cx="196.232" cy="977.753" r="4" fill="#0" id="circle32"/>
	<circle cx="207.487" cy="645.55" r="4" fill="#0" id="circle33"/>
	<circle cx="213.14" cy="716.205" r="4" fill="#0" id="circle34"/>
	<circle cx="215.966" cy="433.584" r="4" fill="#0" id="circle35"/>
	<circle cx="218.792" cy="676.638" r="4" fill="#0" id="circle36"/>
	<circle cx="227.271" cy="973.39" r="4" fill="#0" id="circle37"/>
	<circle cx="241.402" cy="230.097" r="4" fill="#0" id="circle38"/>
	<circle cx="241.402" cy="258.359" r="4" fill="#0" id="circle39"/>
	<circle cx="244.228" cy="286.621" r="4" fill="#0" id="circle40"/>
	<circle cx="244.228" cy="427.932" r="4" fill="#0" id="circle41"/>
	<circle cx="249.88" cy="314.883" r="4" fill="#0" id="circle42"/>
	<circle cx="255.533" cy="970.564" r="4" fill="#0" id="circle43"/>
	<circle cx="261.185" cy="343.145" r="4" fill="#0" id="circle44"/>
	<circle cx="264.011" cy="213.14" r="4" fill="#0" id="circle45"/>
	<circle cx="272.49" cy="419.453" r="4" fill="#0" id="circle46"/>
	<circle cx="283.795" cy="973.39" r="4" fill="#0" id="circle47"/>
	<circle cx="286.621" cy="196.182" r="4" fill="#0" id="circle48"/>
	<circle cx="286.621" cy="357.276" r="4" fill="#0" id="circle49"/>
	<circle cx="289.447" cy="396.843" r="4" fill="#0" id="circle50"/>
	<circle cx="312.057" cy="973.39" r="4" fill="#0" id="circle51"/>
	<circle cx="314.883" cy="184.877" r="4" fill="#0" id="circle52"/>
	<circle cx="331.84" cy="162.268" r="4" fill="#0" id="circle53"/>
	<circle cx="340.319" cy="973.39" r="4" fill="#0" id="circle54"/>
	<circle cx="348.798" cy="60.5242" r="4" fill="#0" id="circle55"/>
	<circle cx="348.798" cy="88.7863" r="4" fill="#0" id="circle56"/>
	<circle cx="348.798" cy="117.048" r="4" fill="#0" id="circle57"/>
	<circle cx="362.929" cy="990.348" r="4" fill="#0" id="circle58"/>
	<circle cx="365.755" cy="37.9145" r="4" fill="#0" id="circle59"/>
	<circle cx="388.365" cy="15.3048" r="4" fill="#0" id="circle60"/>
	<circle cx="391.191" cy="996" r="4" fill="#0" id="circle61"/>
	<circle cx="416.627" cy="4" r="4" fill="#0" id="circle62"/>
	<circle cx="419.453" cy="996" r="4" fill="#0" id="circle63"/>
	<circle cx="444.889" cy="9.65237" r="4" fill="#0" id="circle64"/>
	<circle cx="447.715" cy="996" r="4" fill="#0" id="circle65"/>
	<circle cx="473.151" cy="15.3048" r="4" fill="#0" id="circle66"/>
	<circle cx="475.977" cy="996" r="4" fill="#0" id="circle67"/>
	<circle cx="495.761" cy="32.2621" r="4" fill="#0" id="circle68"/>
	<circle cx="504.239" cy="990.348" r="4" fill="#0" id="circle69"/>
	<circle cx="524.023" cy="43.5669" r="4" fill="#0" id="circle70"/>
	<circle cx="532.501" cy="996" r="4" fill="#0" id="circle71"/>
	<circle cx="549.459" cy="29.4359" r="4" fill="#0" id="circle72"/>
	<circle cx="560.764" cy="996" r="4" fill="#0" id="circle73"/>
	<circle cx="574.895" cy="15.3048" r="4" fill="#0" id="circle74"/>
	<circle cx="589.026" cy="990.348" r="4" fill="#0" id="circle75"/>
	<circle cx="603.157" cy="4.00001" r="4" fill="#0" id="circle76"/>
	<circle cx="617.288" cy="979.043" r="4" fill="#0" id="circle77"/>
	<circle cx="631.419" cy="9.65241" r="4" fill="#0" id="circle78"/>
	<circle cx="645.55" cy="964.912" r="4" fill="#0" id="circle79"/>
	<circle cx="656.855" cy="914.04" r="4" fill="#0" id="circle80"/>
	<circle cx="659.681" cy="18.1311" r="4" fill="#0" id="circle81"/>
	<circle cx="668.16" cy="388.365" r="4" fill="#0" id="circle82"/>
	<circle cx="668.16" cy="789.687" r="4" fill="#0" id="circle83"/>
	<circle cx="667.219" cy="817.949" r="4" fill="#0" id="circle84"/>
	<circle cx="668.949" cy="846.211" r="4" fill="#0" id="circle85"/>
	<circle cx="668.16" cy="874.473" r="4" fill="#0" id="circle86"/>
	<circle cx="673.812" cy="648.376" r="4" fill="#0" id="circle87"/>
	<circle cx="663.922" cy="676.638" r="4" fill="#0" id="circle88"/>
	<circle cx="673.812" cy="704.9" r="4" fill="#0" id="circle89"/>
	<circle cx="676.638" cy="416.627" r="4" fill="#0" id="circle90"/>
	<circle cx="680.632" cy="732.763" r="4" fill="#0" id="circle91"/>
	<circle cx="679.464" cy="40.7407" r="4" fill="#0" id="circle92"/>
	<circle cx="679.464" cy="360.103" r="4" fill="#0" id="circle93"/>
	<circle cx="679.464" cy="620.114" r="4" fill="#0" id="circle94"/>
	<circle cx="679.464" cy="761.424" r="4" fill="#0" id="circle95"/>
	<circle cx="682.291" cy="114.222" r="4" fill="#0" id="circle96"/>
	<circle cx="685.117" cy="69.0028" r="4" fill="#0" id="circle97"/>
	<circle cx="693.595" cy="334.667" r="4" fill="#0" id="circle98"/>
	<circle cx="693.595" cy="439.236" r="4" fill="#0" id="circle99"/>
	<circle cx="693.595" cy="594.678" r="4" fill="#0" id="circle100"/>
	<circle cx="696.422" cy="139.658" r="4" fill="#0" id="circle101"/>
	<circle cx="707.727" cy="167.92" r="4" fill="#0" id="circle102"/>
	<circle cx="707.727" cy="297.926" r="4" fill="#0" id="circle103"/>
	<circle cx="710.553" cy="572.068" r="4" fill="#0" id="circle104"/>
	<circle cx="713.379" cy="461.846" r="4" fill="#0" id="circle105"/>
	<circle cx="716.205" cy="196.182" r="4" fill="#0" id="circle106"/>
	<circle cx="719.031" cy="224.444" r="4" fill="#0" id="circle107"/>
	<circle cx="719.031" cy="252.707" r="4" fill="#0" id="circle108"/>
	<circle cx="721.858" cy="490.108" r="4" fill="#0" id="circle109"/>
	<circle cx="721.858" cy="543.806" r="4" fill="#0" id="circle110"/>
	</g>
</svg>