<?xml version="1.0" encoding="UTF-8" standalone="no"?>
<!-- Created with CurveBenchmark -->
<svg
	xmlns:dc="http://purl.org/dc/elements/1.1/"
	xmlns:cc="http://creativecommons.org/ns#"
	xmlns:rdf="http://www.w3.org/1999/02/22-rdf-syntax-ns#"
	xmlns:svg="http://www.w3.org/2000/svg"
	xmlns="http://www.w3.org/2000/svg"
	xmlns:sodipodi="http://sodipodi.sourceforge.net/DTD/sodipodi-0.dtd"
	xmlns:inkscape="http://www.inkscape.org/namespaces/inkscape"
	width="1000"
	height="1000"
	id="svg2"
	version="1.1"
	sodipodi:docname="manifold/stretchdenoise-mc19.txt">
<defs
	id="defs4" />
<metadata
	id="metadata7">
	<rdf:RDF>
		<cc:Work
			rdf:about="">
			<dc:format>image/svg+xml</dc:format>
			<dc:type
				rdf:resource="http://purl.org/dc/dcmitype/StillImage" />
			<dc:title></dc:title>
		</cc:Work>
	</rdf:RDF>
</metadata>
<g
	inkscape:label="Layer 1"
	inkscape:groupmode="layer"
	id="layer1">
	<path style="fill:none;stroke:red;stroke-width:1px;stroke-linecap:butt;stroke-linejoin:miter;stroke-opacity:1" d="M 4,665.838 28.7187,542.533 z" id="boundary" inkscape:connector-curvature="0" />
	<path style="fill:none;stroke:red;stroke-width:1px;stroke-linecap:butt;stroke-linejoin:miter;stroke-opacity:1" d="M 4,665.838 111.348,883.983 z" id="boundary" inkscape:connector-curvature="0" />
	<path style="fill:none;stroke:red;stroke-width:1px;stroke-linecap:butt;stroke-linejoin:miter;stroke-opacity:1" d="M 28.7187,542.533 197.804,446.071 z" id="boundary" inkscape:connector-curvature="0" />
	<path style="fill:none;stroke:red;stroke-width:1px;stroke-linecap:butt;stroke-linejoin:miter;stroke-opacity:1" d="M 111.348,883.983 212.374,924.38 z" id="boundary" inkscape:connector-curvature="0" />
	<path style="fill:none;stroke:red;stroke-width:1px;stroke-linecap:butt;stroke-linejoin:miter;stroke-opacity:1" d="M 197.804,446.071 294.057,347.165 z" id="boundary" inkscape:connector-curvature="0" />
	<path style="fill:none;stroke:red;stroke-width:1px;stroke-linecap:butt;stroke-linejoin:miter;stroke-opacity:1" d="M 212.374,924.38 349.415,913.355 z" id="boundary" inkscape:connector-curvature="0" />
	<path style="fill:none;stroke:red;stroke-width:1px;stroke-linecap:butt;stroke-linejoin:miter;stroke-opacity:1" d="M 294.057,347.165 510.877,314.329 z" id="boundary" inkscape:connector-curvature="0" />
	<path style="fill:none;stroke:red;stroke-width:1px;stroke-linecap:butt;stroke-linejoin:miter;stroke-opacity:1" d="M 349.415,913.355 549.279,753.356 z" id="boundary" inkscape:connector-curvature="0" />
	<path style="fill:none;stroke:red;stroke-width:1px;stroke-linecap:butt;stroke-linejoin:miter;stroke-opacity:1" d="M 425.466,163.181 510.877,314.329 z" id="boundary" inkscape:connector-curvature="0" />
	<path style="fill:none;stroke:red;stroke-width:1px;stroke-linecap:butt;stroke-linejoin:miter;stroke-opacity:1" d="M 425.466,163.181 686.957,608.528 z" id="boundary" inkscape:connector-curvature="0" />
	<path style="fill:none;stroke:red;stroke-width:1px;stroke-linecap:butt;stroke-linejoin:miter;stroke-opacity:1" d="M 549.279,753.356 686.957,608.528 z" id="boundary" inkscape:connector-curvature="0" />
	<path style="fill:none;stroke:red;stroke-width:1px;stroke-linecap:butt;stroke-linejoin:miter;stroke-opacity:1" d="M 562.557,100.392 651.179,75.9348 z" id="boundary" inkscape:connector-curvature="0" />
	<path style="fill:none;stroke:red;stroke-width:1px;stroke-linecap:butt;stroke-linejoin:miter;stroke-opacity:1" d="M 651.179,75.9348 755.471,79.9984 z" id="boundary" inkscape:connector-curvature="0" />
	<path style="fill:none;stroke:red;stroke-width:1px;stroke-linecap:butt;stroke-linejoin:miter;stroke-opacity:1" d="M 675.496,239.874 755.471,79.9984 z" id="boundary" inkscape:connector-curvature="0" />
	<circle cx="4" cy="665.838" r="4" fill="#0" id="circle0"/>
	<circle cx="31.3678" cy="731.075" r="4" fill="#0" id="circle1"/>
	<circle cx="28.7187" cy="542.533" r="4" fill="#0" id="circle2"/>
	<circle cx="111.348" cy="883.983" r="4" fill="#0" id="circle3"/>
	<circle cx="197.804" cy="446.071" r="4" fill="#0" id="circle4"/>
	<circle cx="212.374" cy="924.38" r="4" fill="#0" id="circle5"/>
	<circle cx="215.636" cy="975.93" r="4" fill="#0" id="circle6"/>
	<circle cx="222.12" cy="996" r="4" fill="#0" id="circle7"/>
	<circle cx="232.928" cy="968.906" r="4" fill="#0" id="circle8"/>
	<circle cx="244.276" cy="986.987" r="4" fill="#0" id="circle9"/>
	<circle cx="249.139" cy="794.17" r="4" fill="#0" id="circle10"/>
	<circle cx="253.462" cy="964.723" r="4" fill="#0" id="circle11"/>
	<circle cx="266.431" cy="982.826" r="4" fill="#0" id="circle12"/>
	<circle cx="275.618" cy="959.881" r="4" fill="#0" id="circle13"/>
	<circle cx="284.264" cy="794.299" r="4" fill="#0" id="circle14"/>
	<circle cx="286.425" cy="942.362" r="4" fill="#0" id="circle15"/>
	<circle cx="291.289" cy="850.099" r="4" fill="#0" id="circle16"/>
	<circle cx="291.289" cy="908.459" r="4" fill="#0" id="circle17"/>
	<circle cx="293.45" cy="888.325" r="4" fill="#0" id="circle18"/>
	<circle cx="293.45" cy="980.189" r="4" fill="#0" id="circle19"/>
	<circle cx="310.742" cy="843.538" r="4" fill="#0" id="circle20"/>
	<circle cx="312.904" cy="951.008" r="4" fill="#0" id="circle21"/>
	<circle cx="294.057" cy="347.165" r="4" fill="#0" id="circle22"/>
	<circle cx="315.065" cy="984.987" r="4" fill="#0" id="circle23"/>
	<circle cx="317.227" cy="789.501" r="4" fill="#0" id="circle24"/>
	<circle cx="317.227" cy="930.95" r="4" fill="#0" id="circle25"/>
	<circle cx="317.227" cy="964.583" r="4" fill="#0" id="circle26"/>
	<circle cx="319.928" cy="906.384" r="4" fill="#0" id="circle27"/>
	<circle cx="329.115" cy="856.918" r="4" fill="#0" id="circle28"/>
	<circle cx="329.115" cy="881.44" r="4" fill="#0" id="circle29"/>
	<circle cx="335.599" cy="969.046" r="4" fill="#0" id="circle30"/>
	<circle cx="337.761" cy="991.407" r="4" fill="#0" id="circle31"/>
	<circle cx="355.593" cy="973.704" r="4" fill="#0" id="circle32"/>
	<circle cx="349.415" cy="913.355" r="4" fill="#0" id="circle33"/>
	<circle cx="399.904" cy="776.078" r="4" fill="#0" id="circle34"/>
	<circle cx="430.705" cy="428.4" r="4" fill="#0" id="circle35"/>
	<circle cx="425.466" cy="163.181" r="4" fill="#0" id="circle36"/>
	<circle cx="446.917" cy="75.6646" r="4" fill="#0" id="circle37"/>
	<circle cx="466.37" cy="93.9077" r="4" fill="#0" id="circle38"/>
	<circle cx="470.693" cy="57.7674" r="4" fill="#0" id="circle39"/>
	<circle cx="493.389" cy="93.7024" r="4" fill="#0" id="circle40"/>
	<circle cx="518.246" cy="98.2307" r="4" fill="#0" id="circle41"/>
	<circle cx="524.731" cy="33.3856" r="4" fill="#0" id="circle42"/>
	<circle cx="510.877" cy="314.329" r="4" fill="#0" id="circle43"/>
	<circle cx="549.279" cy="753.356" r="4" fill="#0" id="circle44"/>
	<circle cx="551.209" cy="12.9919" r="4" fill="#0" id="circle45"/>
	<circle cx="562.557" cy="100.392" r="4" fill="#0" id="circle46"/>
	<circle cx="575.526" cy="6.1615" r="4" fill="#0" id="circle47"/>
	<circle cx="598.222" cy="4" r="4" fill="#0" id="circle48"/>
	<circle cx="600.383" cy="78.0315" r="4" fill="#0" id="circle49"/>
	<circle cx="635.508" cy="309.269" r="4" fill="#0" id="circle50"/>
	<circle cx="637.669" cy="708.844" r="4" fill="#0" id="circle51"/>
	<circle cx="651.179" cy="75.9348" r="4" fill="#0" id="circle52"/>
	<circle cx="668.471" cy="8.25816" r="4" fill="#0" id="circle53"/>
	<circle cx="668.471" cy="89.1092" r="4" fill="#0" id="circle54"/>
	<circle cx="675.496" cy="239.874" r="4" fill="#0" id="circle55"/>
	<circle cx="695.49" cy="19.6709" r="4" fill="#0" id="circle56"/>
	<circle cx="697.651" cy="156.526" r="4" fill="#0" id="circle57"/>
	<circle cx="686.957" cy="608.528" r="4" fill="#0" id="circle58"/>
	<circle cx="726.831" cy="551.606" r="4" fill="#0" id="circle59"/>
	<circle cx="739.8" cy="502.162" r="4" fill="#0" id="circle60"/>
	<circle cx="748.446" cy="434.885" r="4" fill="#0" id="circle61"/>
	<circle cx="751.148" cy="371.953" r="4" fill="#0" id="circle62"/>
	<circle cx="755.471" cy="79.9984" r="4" fill="#0" id="circle63"/>
	<circle cx="762.496" cy="105.115" r="4" fill="#0" id="circle64"/>
	<circle cx="762.496" cy="311.614" r="4" fill="#0" id="circle65"/>
	<circle cx="773.304" cy="255.415" r="4" fill="#0" id="circle66"/>
	<circle cx="775.465" cy="181.449" r="4" fill="#0" id="circle67"/>
	<circle cx="777.627" cy="210.629" r="4" fill="#0" id="circle68"/>
	<circle cx="557.651" cy="45.7386" r="4" fill="#0" id="circle69"/>
	<circle cx="565.14" cy="53.2174" r="4" fill="#0" id="circle70"/>
	<circle cx="575.948" cy="48.2352" r="4" fill="#0" id="circle71"/>
	<circle cx="577.612" cy="34.9203" r="4" fill="#0" id="circle72"/>
	<circle cx="566.794" cy="34.0881" r="4" fill="#0" id="circle73"/>
	</g>
</svg>