<?xml version="1.0" encoding="UTF-8" standalone="no"?>
<!-- Created with CurveBenchmark -->
<svg
	xmlns:dc="http://purl.org/dc/elements/1.1/"
	xmlns:cc="http://creativecommons.org/ns#"
	xmlns:rdf="http://www.w3.org/1999/02/22-rdf-syntax-ns#"
	xmlns:svg="http://www.w3.org/2000/svg"
	xmlns="http://www.w3.org/2000/svg"
	xmlns:sodipodi="http://sodipodi.sourceforge.net/DTD/sodipodi-0.dtd"
	xmlns:inkscape="http://www.inkscape.org/namespaces/inkscape"
	width="1000"
	height="1000"
	id="svg2"
	version="1.1"
	sodipodi:docname="manifold/stretchdenoise-guitar005.png.txt">
<defs
	id="defs4" />
<metadata
	id="metadata7">
	<rdf:RDF>
		<cc:Work
			rdf:about="">
			<dc:format>image/svg+xml</dc:format>
			<dc:type
				rdf:resource="http://purl.org/dc/dcmitype/StillImage" />
			<dc:title></dc:title>
		</cc:Work>
	</rdf:RDF>
</metadata>
<g
	inkscape:label="Layer 1"
	inkscape:groupmode="layer"
	id="layer1">
	<path style="fill:none;stroke:red;stroke-width:1px;stroke-linecap:butt;stroke-linejoin:miter;stroke-opacity:1" d="M 46.4077,804.051 55.4412,935.263 z" id="boundary" inkscape:connector-curvature="0" />
	<path style="fill:none;stroke:red;stroke-width:1px;stroke-linecap:butt;stroke-linejoin:miter;stroke-opacity:1" d="M 46.4077,804.051 62.0355,707.568 z" id="boundary" inkscape:connector-curvature="0" />
	<path style="fill:none;stroke:red;stroke-width:1px;stroke-linecap:butt;stroke-linejoin:miter;stroke-opacity:1" d="M 55.4412,935.263 150.157,986.961 z" id="boundary" inkscape:connector-curvature="0" />
	<path style="fill:none;stroke:red;stroke-width:1px;stroke-linecap:butt;stroke-linejoin:miter;stroke-opacity:1" d="M 62.0355,707.568 58.9885,105.034 z" id="boundary" inkscape:connector-curvature="0" />
	<path style="fill:none;stroke:red;stroke-width:1px;stroke-linecap:butt;stroke-linejoin:miter;stroke-opacity:1" d="M 150.157,986.961 222.323,996 z" id="boundary" inkscape:connector-curvature="0" />
	<path style="fill:none;stroke:red;stroke-width:1px;stroke-linecap:butt;stroke-linejoin:miter;stroke-opacity:1" d="M 58.9885,105.034 78.3011,75.4892 z" id="boundary" inkscape:connector-curvature="0" />
	<path style="fill:none;stroke:red;stroke-width:1px;stroke-linecap:butt;stroke-linejoin:miter;stroke-opacity:1" d="M 222.323,996 342.556,924.344 z" id="boundary" inkscape:connector-curvature="0" />
	<path style="fill:none;stroke:red;stroke-width:1px;stroke-linecap:butt;stroke-linejoin:miter;stroke-opacity:1" d="M 78.3011,75.4892 391.727,647.51 z" id="boundary" inkscape:connector-curvature="0" />
	<path style="fill:none;stroke:red;stroke-width:1px;stroke-linecap:butt;stroke-linejoin:miter;stroke-opacity:1" d="M 391.727,647.51 342.556,924.344 z" id="boundary" inkscape:connector-curvature="0" />
	<circle cx="46.4077" cy="804.051" r="4" fill="#0" id="circle0"/>
	<circle cx="4" cy="846.916" r="4" fill="#0" id="circle1"/>
	<circle cx="10.9952" cy="881.892" r="4" fill="#0" id="circle2"/>
	<circle cx="17.9903" cy="769.969" r="4" fill="#0" id="circle3"/>
	<circle cx="31.9806" cy="909.873" r="4" fill="#0" id="circle4"/>
	<circle cx="38.9758" cy="734.994" r="4" fill="#0" id="circle5"/>
	<circle cx="52.9661" cy="553.12" r="4" fill="#0" id="circle6"/>
	<circle cx="52.9661" cy="588.095" r="4" fill="#0" id="circle7"/>
	<circle cx="55.4412" cy="935.263" r="4" fill="#0" id="circle8"/>
	<circle cx="62.0355" cy="707.568" r="4" fill="#0" id="circle9"/>
	<circle cx="63.4588" cy="623.071" r="4" fill="#0" id="circle10"/>
	<circle cx="73.9516" cy="525.139" r="4" fill="#0" id="circle11"/>
	<circle cx="73.9516" cy="658.047" r="4" fill="#0" id="circle12"/>
	<circle cx="80.9467" cy="958.839" r="4" fill="#0" id="circle13"/>
	<circle cx="101.932" cy="504.154" r="4" fill="#0" id="circle14"/>
	<circle cx="115.922" cy="972.829" r="4" fill="#0" id="circle15"/>
	<circle cx="136.908" cy="497.158" r="4" fill="#0" id="circle16"/>
	<circle cx="150.157" cy="986.961" r="4" fill="#0" id="circle17"/>
	<circle cx="58.9885" cy="105.034" r="4" fill="#0" id="circle18"/>
	<circle cx="157.893" cy="63.4588" r="4" fill="#0" id="circle19"/>
	<circle cx="157.893" cy="98.4346" r="4" fill="#0" id="circle20"/>
	<circle cx="171.884" cy="483.168" r="4" fill="#0" id="circle21"/>
	<circle cx="178.879" cy="259.323" r="4" fill="#0" id="circle22"/>
	<circle cx="178.879" cy="294.299" r="4" fill="#0" id="circle23"/>
	<circle cx="178.879" cy="329.275" r="4" fill="#0" id="circle24"/>
	<circle cx="178.879" cy="364.25" r="4" fill="#0" id="circle25"/>
	<circle cx="178.879" cy="399.226" r="4" fill="#0" id="circle26"/>
	<circle cx="178.879" cy="434.202" r="4" fill="#0" id="circle27"/>
	<circle cx="182.376" cy="126.415" r="4" fill="#0" id="circle28"/>
	<circle cx="185.874" cy="7.49758" r="4" fill="#0" id="circle29"/>
	<circle cx="185.874" cy="161.391" r="4" fill="#0" id="circle30"/>
	<circle cx="185.874" cy="196.367" r="4" fill="#0" id="circle31"/>
	<circle cx="185.874" cy="983.322" r="4" fill="#0" id="circle32"/>
	<circle cx="220.85" cy="4" r="4" fill="#0" id="circle33"/>
	<circle cx="222.323" cy="996" r="4" fill="#0" id="circle34"/>
	<circle cx="231.343" cy="126.415" r="4" fill="#0" id="circle35"/>
	<circle cx="231.343" cy="161.391" r="4" fill="#0" id="circle36"/>
	<circle cx="231.343" cy="196.367" r="4" fill="#0" id="circle37"/>
	<circle cx="231.343" cy="231.343" r="4" fill="#0" id="circle38"/>
	<circle cx="231.343" cy="266.318" r="4" fill="#0" id="circle39"/>
	<circle cx="231.343" cy="301.294" r="4" fill="#0" id="circle40"/>
	<circle cx="234.84" cy="336.27" r="4" fill="#0" id="circle41"/>
	<circle cx="78.3011" cy="75.4892" r="4" fill="#0" id="circle42"/>
	<circle cx="238.338" cy="77.4491" r="4" fill="#0" id="circle43"/>
	<circle cx="238.338" cy="371.246" r="4" fill="#0" id="circle44"/>
	<circle cx="238.338" cy="406.221" r="4" fill="#0" id="circle45"/>
	<circle cx="238.338" cy="441.197" r="4" fill="#0" id="circle46"/>
	<circle cx="238.338" cy="476.173" r="4" fill="#0" id="circle47"/>
	<circle cx="238.338" cy="511.149" r="4" fill="#0" id="circle48"/>
	<circle cx="245.333" cy="546.125" r="4" fill="#0" id="circle49"/>
	<circle cx="255.826" cy="976.327" r="4" fill="#0" id="circle50"/>
	<circle cx="269.816" cy="574.105" r="4" fill="#0" id="circle51"/>
	<circle cx="290.801" cy="969.331" r="4" fill="#0" id="circle52"/>
	<circle cx="304.792" cy="567.11" r="4" fill="#0" id="circle53"/>
	<circle cx="325.777" cy="539.129" r="4" fill="#0" id="circle54"/>
	<circle cx="325.777" cy="955.341" r="4" fill="#0" id="circle55"/>
	<circle cx="391.727" cy="647.51" r="4" fill="#0" id="circle56"/>
	<circle cx="329.275" cy="679.032" r="4" fill="#0" id="circle57"/>
	<circle cx="346.763" cy="612.578" r="4" fill="#0" id="circle58"/>
	<circle cx="346.763" cy="710.511" r="4" fill="#0" id="circle59"/>
	<circle cx="353.758" cy="560.115" r="4" fill="#0" id="circle60"/>
	<circle cx="342.556" cy="924.344" r="4" fill="#0" id="circle61"/>
	<circle cx="367.748" cy="738.491" r="4" fill="#0" id="circle62"/>
	<circle cx="374.743" cy="906.375" r="4" fill="#0" id="circle63"/>
	<circle cx="385.236" cy="769.969" r="4" fill="#0" id="circle64"/>
	<circle cx="392.231" cy="804.945" r="4" fill="#0" id="circle65"/>
	<circle cx="392.231" cy="860.906" r="4" fill="#0" id="circle66"/>
	</g>
</svg>