<?xml version="1.0" encoding="UTF-8" standalone="no"?>
<!-- Created with CurveBenchmark -->
<svg
	xmlns:dc="http://purl.org/dc/elements/1.1/"
	xmlns:cc="http://creativecommons.org/ns#"
	xmlns:rdf="http://www.w3.org/1999/02/22-rdf-syntax-ns#"
	xmlns:svg="http://www.w3.org/2000/svg"
	xmlns="http://www.w3.org/2000/svg"
	xmlns:sodipodi="http://sodipodi.sourceforge.net/DTD/sodipodi-0.dtd"
	xmlns:inkscape="http://www.inkscape.org/namespaces/inkscape"
	width="1000"
	height="1000"
	id="svg2"
	version="1.1"
	sodipodi:docname="manifold/stretchdenoise-hammer175.png.txt">
<defs
	id="defs4" />
<metadata
	id="metadata7">
	<rdf:RDF>
		<cc:Work
			rdf:about="">
			<dc:format>image/svg+xml</dc:format>
			<dc:type
				rdf:resource="http://purl.org/dc/dcmitype/StillImage" />
			<dc:title></dc:title>
		</cc:Work>
	</rdf:RDF>
</metadata>
<g
	inkscape:label="Layer 1"
	inkscape:groupmode="layer"
	id="layer1">
	<path style="fill:none;stroke:red;stroke-width:1px;stroke-linecap:butt;stroke-linejoin:miter;stroke-opacity:1" d="M 4,15.2976 291.304,996 z" id="boundary" inkscape:connector-curvature="0" />
	<path style="fill:none;stroke:red;stroke-width:1px;stroke-linecap:butt;stroke-linejoin:miter;stroke-opacity:1" d="M 291.304,996 141.781,971.411 z" id="boundary" inkscape:connector-curvature="0" />
	<path style="fill:none;stroke:red;stroke-width:1px;stroke-linecap:butt;stroke-linejoin:miter;stroke-opacity:1" d="M 141.781,971.411 226.628,989.733 z" id="boundary" inkscape:connector-curvature="0" />
	<circle cx="4" cy="15.2976" r="4" fill="#0" id="circle0"/>
	<circle cx="4" cy="43.5417" r="4" fill="#0" id="circle1"/>
	<circle cx="4" cy="71.7858" r="4" fill="#0" id="circle2"/>
	<circle cx="26.5953" cy="91.5567" r="4" fill="#0" id="circle3"/>
	<circle cx="32.2441" cy="4" r="4" fill="#0" id="circle4"/>
	<circle cx="54.8394" cy="80.259" r="4" fill="#0" id="circle5"/>
	<circle cx="60.4882" cy="12.4732" r="4" fill="#0" id="circle6"/>
	<circle cx="83.0835" cy="74.6102" r="4" fill="#0" id="circle7"/>
	<circle cx="88.7323" cy="15.2976" r="4" fill="#0" id="circle8"/>
	<circle cx="111.328" cy="77.4346" r="4" fill="#0" id="circle9"/>
	<circle cx="291.304" cy="996" r="4" fill="#0" id="circle10"/>
	<circle cx="116.976" cy="15.2976" r="4" fill="#0" id="circle11"/>
	<circle cx="116.976" cy="907.811" r="4" fill="#0" id="circle12"/>
	<circle cx="116.976" cy="936.055" r="4" fill="#0" id="circle13"/>
	<circle cx="122.625" cy="523.691" r="4" fill="#0" id="circle14"/>
	<circle cx="122.625" cy="551.935" r="4" fill="#0" id="circle15"/>
	<circle cx="122.625" cy="580.179" r="4" fill="#0" id="circle16"/>
	<circle cx="122.625" cy="608.424" r="4" fill="#0" id="circle17"/>
	<circle cx="122.625" cy="636.668" r="4" fill="#0" id="circle18"/>
	<circle cx="122.625" cy="664.912" r="4" fill="#0" id="circle19"/>
	<circle cx="122.625" cy="693.156" r="4" fill="#0" id="circle20"/>
	<circle cx="122.625" cy="721.4" r="4" fill="#0" id="circle21"/>
	<circle cx="122.625" cy="749.644" r="4" fill="#0" id="circle22"/>
	<circle cx="122.625" cy="777.888" r="4" fill="#0" id="circle23"/>
	<circle cx="122.625" cy="806.132" r="4" fill="#0" id="circle24"/>
	<circle cx="122.625" cy="834.376" r="4" fill="#0" id="circle25"/>
	<circle cx="122.625" cy="862.62" r="4" fill="#0" id="circle26"/>
	<circle cx="128.274" cy="100.03" r="4" fill="#0" id="circle27"/>
	<circle cx="128.274" cy="467.203" r="4" fill="#0" id="circle28"/>
	<circle cx="128.274" cy="495.447" r="4" fill="#0" id="circle29"/>
	<circle cx="133.923" cy="128.274" r="4" fill="#0" id="circle30"/>
	<circle cx="136.747" cy="156.518" r="4" fill="#0" id="circle31"/>
	<circle cx="141.781" cy="971.411" r="4" fill="#0" id="circle32"/>
	<circle cx="145.22" cy="4" r="4" fill="#0" id="circle33"/>
	<circle cx="145.22" cy="444.608" r="4" fill="#0" id="circle34"/>
	<circle cx="148.045" cy="184.762" r="4" fill="#0" id="circle35"/>
	<circle cx="153.694" cy="213.006" r="4" fill="#0" id="circle36"/>
	<circle cx="156.518" cy="241.25" r="4" fill="#0" id="circle37"/>
	<circle cx="156.518" cy="269.494" r="4" fill="#0" id="circle38"/>
	<circle cx="156.518" cy="297.739" r="4" fill="#0" id="circle39"/>
	<circle cx="156.518" cy="325.983" r="4" fill="#0" id="circle40"/>
	<circle cx="156.518" cy="354.227" r="4" fill="#0" id="circle41"/>
	<circle cx="156.518" cy="382.471" r="4" fill="#0" id="circle42"/>
	<circle cx="156.518" cy="410.715" r="4" fill="#0" id="circle43"/>
	<circle cx="226.628" cy="989.733" r="4" fill="#0" id="circle44"/>
	<circle cx="173.465" cy="4" r="4" fill="#0" id="circle45"/>
	<circle cx="193.235" cy="978.421" r="4" fill="#0" id="circle46"/>
	<circle cx="201.709" cy="4" r="4" fill="#0" id="circle47"/>
	<circle cx="221.48" cy="978.421" r="4" fill="#0" id="circle48"/>
	<circle cx="227.128" cy="235.602" r="4" fill="#0" id="circle49"/>
	<circle cx="227.128" cy="263.846" r="4" fill="#0" id="circle50"/>
	<circle cx="227.128" cy="292.09" r="4" fill="#0" id="circle51"/>
	<circle cx="227.128" cy="320.334" r="4" fill="#0" id="circle52"/>
	<circle cx="227.128" cy="348.578" r="4" fill="#0" id="circle53"/>
	<circle cx="227.128" cy="376.822" r="4" fill="#0" id="circle54"/>
	<circle cx="227.128" cy="405.066" r="4" fill="#0" id="circle55"/>
	<circle cx="229.953" cy="4" r="4" fill="#0" id="circle56"/>
	<circle cx="232.777" cy="190.411" r="4" fill="#0" id="circle57"/>
	<circle cx="232.777" cy="433.31" r="4" fill="#0" id="circle58"/>
	<circle cx="241.25" cy="461.554" r="4" fill="#0" id="circle59"/>
	<circle cx="244.075" cy="156.518" r="4" fill="#0" id="circle60"/>
	<circle cx="249.724" cy="122.625" r="4" fill="#0" id="circle61"/>
	<circle cx="249.724" cy="978.421" r="4" fill="#0" id="circle62"/>
	<circle cx="255.372" cy="83.0835" r="4" fill="#0" id="circle63"/>
	<circle cx="255.372" cy="486.974" r="4" fill="#0" id="circle64"/>
	<circle cx="258.197" cy="4" r="4" fill="#0" id="circle65"/>
	<circle cx="261.021" cy="515.218" r="4" fill="#0" id="circle66"/>
	<circle cx="261.021" cy="543.462" r="4" fill="#0" id="circle67"/>
	<circle cx="261.021" cy="571.706" r="4" fill="#0" id="circle68"/>
	<circle cx="261.021" cy="599.95" r="4" fill="#0" id="circle69"/>
	<circle cx="261.021" cy="628.194" r="4" fill="#0" id="circle70"/>
	<circle cx="261.021" cy="656.439" r="4" fill="#0" id="circle71"/>
	<circle cx="261.021" cy="684.683" r="4" fill="#0" id="circle72"/>
	<circle cx="261.021" cy="712.927" r="4" fill="#0" id="circle73"/>
	<circle cx="261.021" cy="741.171" r="4" fill="#0" id="circle74"/>
	<circle cx="261.021" cy="769.415" r="4" fill="#0" id="circle75"/>
	<circle cx="261.021" cy="797.659" r="4" fill="#0" id="circle76"/>
	<circle cx="261.021" cy="825.903" r="4" fill="#0" id="circle77"/>
	<circle cx="261.021" cy="854.147" r="4" fill="#0" id="circle78"/>
	<circle cx="266.67" cy="882.391" r="4" fill="#0" id="circle79"/>
	<circle cx="266.67" cy="910.635" r="4" fill="#0" id="circle80"/>
	<circle cx="266.67" cy="938.879" r="4" fill="#0" id="circle81"/>
	<circle cx="280.792" cy="20.9465" r="4" fill="#0" id="circle82"/>
	<circle cx="283.617" cy="85.9079" r="4" fill="#0" id="circle83"/>
	<circle cx="303.387" cy="37.8929" r="4" fill="#0" id="circle84"/>
	<circle cx="311.861" cy="97.2055" r="4" fill="#0" id="circle85"/>
	<circle cx="325.983" cy="54.8394" r="4" fill="#0" id="circle86"/>
	<circle cx="334.456" cy="114.152" r="4" fill="#0" id="circle87"/>
	<circle cx="342.929" cy="77.4346" r="4" fill="#0" id="circle88"/>
	<circle cx="354.227" cy="136.747" r="4" fill="#0" id="circle89"/>
	<circle cx="359.876" cy="100.03" r="4" fill="#0" id="circle90"/>
	<circle cx="371.173" cy="159.343" r="4" fill="#0" id="circle91"/>
	</g>
</svg>