<?xml version="1.0" encoding="UTF-8" standalone="no"?>
<!-- Created with CurveBenchmark -->
<svg
	xmlns:dc="http://purl.org/dc/elements/1.1/"
	xmlns:cc="http://creativecommons.org/ns#"
	xmlns:rdf="http://www.w3.org/1999/02/22-rdf-syntax-ns#"
	xmlns:svg="http://www.w3.org/2000/svg"
	xmlns="http://www.w3.org/2000/svg"
	xmlns:sodipodi="http://sodipodi.sourceforge.net/DTD/sodipodi-0.dtd"
	xmlns:inkscape="http://www.inkscape.org/namespaces/inkscape"
	width="1000"
	height="1000"
	id="svg2"
	version="1.1"
	sodipodi:docname="manifold/stretchdenoise-television010.png.txt">
<defs
	id="defs4" />
<metadata
	id="metadata7">
	<rdf:RDF>
		<cc:Work
			rdf:about="">
			<dc:format>image/svg+xml</dc:format>
			<dc:type
				rdf:resource="http://purl.org/dc/dcmitype/StillImage" />
			<dc:title></dc:title>
		</cc:Work>
	</rdf:RDF>
</metadata>
<g
	inkscape:label="Layer 1"
	inkscape:groupmode="layer"
	id="layer1">
	<path style="fill:none;stroke:red;stroke-width:1px;stroke-linecap:butt;stroke-linejoin:miter;stroke-opacity:1" d="M 8.90169,788.761 20.3696,819.208 z" id="boundary" inkscape:connector-curvature="0" />
	<path style="fill:none;stroke:red;stroke-width:1px;stroke-linecap:butt;stroke-linejoin:miter;stroke-opacity:1" d="M 8.90169,788.761 nan,nan z" id="boundary" inkscape:connector-curvature="0" />
	<path style="fill:none;stroke:red;stroke-width:1px;stroke-linecap:butt;stroke-linejoin:miter;stroke-opacity:1" d="M 20.3696,819.208 53.1089,829.03 z" id="boundary" inkscape:connector-curvature="0" />
	<path style="fill:none;stroke:red;stroke-width:1px;stroke-linecap:butt;stroke-linejoin:miter;stroke-opacity:1" d="M 49.835,560.568 76.0264,681.703 z" id="boundary" inkscape:connector-curvature="0" />
	<path style="fill:none;stroke:red;stroke-width:1px;stroke-linecap:butt;stroke-linejoin:miter;stroke-opacity:1" d="M 49.835,560.568 95.67,547.472 z" id="boundary" inkscape:connector-curvature="0" />
	<path style="fill:none;stroke:red;stroke-width:1px;stroke-linecap:butt;stroke-linejoin:miter;stroke-opacity:1" d="M 53.1089,829.03 85.8482,832.304 z" id="boundary" inkscape:connector-curvature="0" />
	<path style="fill:none;stroke:red;stroke-width:1px;stroke-linecap:butt;stroke-linejoin:miter;stroke-opacity:1" d="M 76.0264,681.703 125.135,652.238 z" id="boundary" inkscape:connector-curvature="0" />
	<path style="fill:none;stroke:red;stroke-width:1px;stroke-linecap:butt;stroke-linejoin:miter;stroke-opacity:1" d="M 85.8482,832.304 118.587,819.208 z" id="boundary" inkscape:connector-curvature="0" />
	<path style="fill:none;stroke:red;stroke-width:1px;stroke-linecap:butt;stroke-linejoin:miter;stroke-opacity:1" d="M 95.67,547.472 128.409,547.472 z" id="boundary" inkscape:connector-curvature="0" />
	<path style="fill:none;stroke:red;stroke-width:1px;stroke-linecap:butt;stroke-linejoin:miter;stroke-opacity:1" d="M 102.218,750.455 134.957,750.455 z" id="boundary" inkscape:connector-curvature="0" />
	<path style="fill:none;stroke:red;stroke-width:1px;stroke-linecap:butt;stroke-linejoin:miter;stroke-opacity:1" d="M 108.766,10.5479 108.766,43.2871 z" id="boundary" inkscape:connector-curvature="0" />
	<path style="fill:none;stroke:red;stroke-width:1px;stroke-linecap:butt;stroke-linejoin:miter;stroke-opacity:1" d="M 108.766,10.5479 141.505,4 z" id="boundary" inkscape:connector-curvature="0" />
	<path style="fill:none;stroke:red;stroke-width:1px;stroke-linecap:butt;stroke-linejoin:miter;stroke-opacity:1" d="M 108.766,43.2871 108.766,76.0264 z" id="boundary" inkscape:connector-curvature="0" />
	<path style="fill:none;stroke:red;stroke-width:1px;stroke-linecap:butt;stroke-linejoin:miter;stroke-opacity:1" d="M 108.766,76.0264 108.766,108.766 z" id="boundary" inkscape:connector-curvature="0" />
	<path style="fill:none;stroke:red;stroke-width:1px;stroke-linecap:butt;stroke-linejoin:miter;stroke-opacity:1" d="M 108.766,108.766 108.766,141.505 z" id="boundary" inkscape:connector-curvature="0" />
	<path style="fill:none;stroke:red;stroke-width:1px;stroke-linecap:butt;stroke-linejoin:miter;stroke-opacity:1" d="M 108.766,141.505 108.766,174.244 z" id="boundary" inkscape:connector-curvature="0" />
	<path style="fill:none;stroke:red;stroke-width:1px;stroke-linecap:butt;stroke-linejoin:miter;stroke-opacity:1" d="M 108.766,174.244 108.766,206.983 z" id="boundary" inkscape:connector-curvature="0" />
	<path style="fill:none;stroke:red;stroke-width:1px;stroke-linecap:butt;stroke-linejoin:miter;stroke-opacity:1" d="M 108.766,206.983 108.766,239.723 z" id="boundary" inkscape:connector-curvature="0" />
	<path style="fill:none;stroke:red;stroke-width:1px;stroke-linecap:butt;stroke-linejoin:miter;stroke-opacity:1" d="M 108.766,239.723 108.766,272.462 z" id="boundary" inkscape:connector-curvature="0" />
	<path style="fill:none;stroke:red;stroke-width:1px;stroke-linecap:butt;stroke-linejoin:miter;stroke-opacity:1" d="M 108.766,272.462 108.766,305.201 z" id="boundary" inkscape:connector-curvature="0" />
	<path style="fill:none;stroke:red;stroke-width:1px;stroke-linecap:butt;stroke-linejoin:miter;stroke-opacity:1" d="M 108.766,305.201 108.766,337.941 z" id="boundary" inkscape:connector-curvature="0" />
	<path style="fill:none;stroke:red;stroke-width:1px;stroke-linecap:butt;stroke-linejoin:miter;stroke-opacity:1" d="M 108.766,337.941 108.766,370.68 z" id="boundary" inkscape:connector-curvature="0" />
	<path style="fill:none;stroke:red;stroke-width:1px;stroke-linecap:butt;stroke-linejoin:miter;stroke-opacity:1" d="M 108.766,370.68 108.766,403.419 z" id="boundary" inkscape:connector-curvature="0" />
	<path style="fill:none;stroke:red;stroke-width:1px;stroke-linecap:butt;stroke-linejoin:miter;stroke-opacity:1" d="M 108.766,403.419 112.04,436.158 z" id="boundary" inkscape:connector-curvature="0" />
	<path style="fill:none;stroke:red;stroke-width:1px;stroke-linecap:butt;stroke-linejoin:miter;stroke-opacity:1" d="M 112.04,436.158 144.779,439.432 z" id="boundary" inkscape:connector-curvature="0" />
	<path style="fill:none;stroke:red;stroke-width:1px;stroke-linecap:butt;stroke-linejoin:miter;stroke-opacity:1" d="M 118.587,819.208 151.327,819.208 z" id="boundary" inkscape:connector-curvature="0" />
	<path style="fill:none;stroke:red;stroke-width:1px;stroke-linecap:butt;stroke-linejoin:miter;stroke-opacity:1" d="M 125.135,652.238 141.505,681.703 z" id="boundary" inkscape:connector-curvature="0" />
	<path style="fill:none;stroke:red;stroke-width:1px;stroke-linecap:butt;stroke-linejoin:miter;stroke-opacity:1" d="M 128.409,547.472 177.518,576.937 z" id="boundary" inkscape:connector-curvature="0" />
	<path style="fill:none;stroke:red;stroke-width:1px;stroke-linecap:butt;stroke-linejoin:miter;stroke-opacity:1" d="M 134.957,750.455 167.696,750.455 z" id="boundary" inkscape:connector-curvature="0" />
	<path style="fill:none;stroke:red;stroke-width:1px;stroke-linecap:butt;stroke-linejoin:miter;stroke-opacity:1" d="M 141.505,4 174.244,4 z" id="boundary" inkscape:connector-curvature="0" />
	<path style="fill:none;stroke:red;stroke-width:1px;stroke-linecap:butt;stroke-linejoin:miter;stroke-opacity:1" d="M 141.505,681.703 157.875,652.238 z" id="boundary" inkscape:connector-curvature="0" />
	<path style="fill:none;stroke:red;stroke-width:1px;stroke-linecap:butt;stroke-linejoin:miter;stroke-opacity:1" d="M 144.779,439.432 177.518,439.432 z" id="boundary" inkscape:connector-curvature="0" />
	<path style="fill:none;stroke:red;stroke-width:1px;stroke-linecap:butt;stroke-linejoin:miter;stroke-opacity:1" d="M 151.327,819.208 184.066,819.208 z" id="boundary" inkscape:connector-curvature="0" />
	<path style="fill:none;stroke:red;stroke-width:1px;stroke-linecap:butt;stroke-linejoin:miter;stroke-opacity:1" d="M 157.875,652.238 206.983,681.703 z" id="boundary" inkscape:connector-curvature="0" />
	<path style="fill:none;stroke:red;stroke-width:1px;stroke-linecap:butt;stroke-linejoin:miter;stroke-opacity:1" d="M 167.696,750.455 200.436,750.455 z" id="boundary" inkscape:connector-curvature="0" />
	<path style="fill:none;stroke:red;stroke-width:1px;stroke-linecap:butt;stroke-linejoin:miter;stroke-opacity:1" d="M 174.244,4 206.983,4 z" id="boundary" inkscape:connector-curvature="0" />
	<path style="fill:none;stroke:red;stroke-width:1px;stroke-linecap:butt;stroke-linejoin:miter;stroke-opacity:1" d="M 177.518,439.432 210.257,439.432 z" id="boundary" inkscape:connector-curvature="0" />
	<path style="fill:none;stroke:red;stroke-width:1px;stroke-linecap:butt;stroke-linejoin:miter;stroke-opacity:1" d="M 177.518,576.937 226.627,547.472 z" id="boundary" inkscape:connector-curvature="0" />
	<path style="fill:none;stroke:red;stroke-width:1px;stroke-linecap:butt;stroke-linejoin:miter;stroke-opacity:1" d="M 184.066,819.208 216.805,819.208 z" id="boundary" inkscape:connector-curvature="0" />
	<path style="fill:none;stroke:red;stroke-width:1px;stroke-linecap:butt;stroke-linejoin:miter;stroke-opacity:1" d="M 200.436,750.455 233.175,750.455 z" id="boundary" inkscape:connector-curvature="0" />
	<path style="fill:none;stroke:red;stroke-width:1px;stroke-linecap:butt;stroke-linejoin:miter;stroke-opacity:1" d="M 206.983,4 239.723,4 z" id="boundary" inkscape:connector-curvature="0" />
	<path style="fill:none;stroke:red;stroke-width:1px;stroke-linecap:butt;stroke-linejoin:miter;stroke-opacity:1" d="M 210.257,439.432 242.997,439.432 z" id="boundary" inkscape:connector-curvature="0" />
	<path style="fill:none;stroke:red;stroke-width:1px;stroke-linecap:butt;stroke-linejoin:miter;stroke-opacity:1" d="M 216.805,819.208 249.545,819.208 z" id="boundary" inkscape:connector-curvature="0" />
	<path style="fill:none;stroke:red;stroke-width:1px;stroke-linecap:butt;stroke-linejoin:miter;stroke-opacity:1" d="M 226.627,547.472 242.997,576.937 z" id="boundary" inkscape:connector-curvature="0" />
	<path style="fill:none;stroke:red;stroke-width:1px;stroke-linecap:butt;stroke-linejoin:miter;stroke-opacity:1" d="M 233.175,750.455 265.914,750.455 z" id="boundary" inkscape:connector-curvature="0" />
	<path style="fill:none;stroke:red;stroke-width:1px;stroke-linecap:butt;stroke-linejoin:miter;stroke-opacity:1" d="M 239.723,4 272.462,4 z" id="boundary" inkscape:connector-curvature="0" />
	<path style="fill:none;stroke:red;stroke-width:1px;stroke-linecap:butt;stroke-linejoin:miter;stroke-opacity:1" d="M 242.997,439.432 275.736,439.432 z" id="boundary" inkscape:connector-curvature="0" />
	<path style="fill:none;stroke:red;stroke-width:1px;stroke-linecap:butt;stroke-linejoin:miter;stroke-opacity:1" d="M 242.997,576.937 259.366,547.472 z" id="boundary" inkscape:connector-curvature="0" />
	<path style="fill:none;stroke:red;stroke-width:1px;stroke-linecap:butt;stroke-linejoin:miter;stroke-opacity:1" d="M 249.545,819.208 282.284,819.208 z" id="boundary" inkscape:connector-curvature="0" />
	<path style="fill:none;stroke:red;stroke-width:1px;stroke-linecap:butt;stroke-linejoin:miter;stroke-opacity:1" d="M 259.366,547.472 308.475,576.937 z" id="boundary" inkscape:connector-curvature="0" />
	<path style="fill:none;stroke:red;stroke-width:1px;stroke-linecap:butt;stroke-linejoin:miter;stroke-opacity:1" d="M 265.914,750.455 298.653,750.455 z" id="boundary" inkscape:connector-curvature="0" />
	<path style="fill:none;stroke:red;stroke-width:1px;stroke-linecap:butt;stroke-linejoin:miter;stroke-opacity:1" d="M 272.462,4 305.201,4 z" id="boundary" inkscape:connector-curvature="0" />
	<path style="fill:none;stroke:red;stroke-width:1px;stroke-linecap:butt;stroke-linejoin:miter;stroke-opacity:1" d="M 275.736,439.432 308.475,439.432 z" id="boundary" inkscape:connector-curvature="0" />
	<path style="fill:none;stroke:red;stroke-width:1px;stroke-linecap:butt;stroke-linejoin:miter;stroke-opacity:1" d="M 282.284,819.208 315.023,819.208 z" id="boundary" inkscape:connector-curvature="0" />
	<path style="fill:none;stroke:red;stroke-width:1px;stroke-linecap:butt;stroke-linejoin:miter;stroke-opacity:1" d="M 298.653,750.455 331.393,750.455 z" id="boundary" inkscape:connector-curvature="0" />
	<path style="fill:none;stroke:red;stroke-width:1px;stroke-linecap:butt;stroke-linejoin:miter;stroke-opacity:1" d="M 305.201,4 337.941,4 z" id="boundary" inkscape:connector-curvature="0" />
	<path style="fill:none;stroke:red;stroke-width:1px;stroke-linecap:butt;stroke-linejoin:miter;stroke-opacity:1" d="M 305.201,681.703 337.941,681.703 z" id="boundary" inkscape:connector-curvature="0" />
	<path style="fill:none;stroke:red;stroke-width:1px;stroke-linecap:butt;stroke-linejoin:miter;stroke-opacity:1" d="M 308.475,439.432 341.215,439.432 z" id="boundary" inkscape:connector-curvature="0" />
	<path style="fill:none;stroke:red;stroke-width:1px;stroke-linecap:butt;stroke-linejoin:miter;stroke-opacity:1" d="M 308.475,576.937 341.215,576.937 z" id="boundary" inkscape:connector-curvature="0" />
	<path style="fill:none;stroke:red;stroke-width:1px;stroke-linecap:butt;stroke-linejoin:miter;stroke-opacity:1" d="M 315.023,819.208 347.762,819.208 z" id="boundary" inkscape:connector-curvature="0" />
	<path style="fill:none;stroke:red;stroke-width:1px;stroke-linecap:butt;stroke-linejoin:miter;stroke-opacity:1" d="M 331.393,750.455 364.132,750.455 z" id="boundary" inkscape:connector-curvature="0" />
	<path style="fill:none;stroke:red;stroke-width:1px;stroke-linecap:butt;stroke-linejoin:miter;stroke-opacity:1" d="M 337.941,4 370.68,4 z" id="boundary" inkscape:connector-curvature="0" />
	<path style="fill:none;stroke:red;stroke-width:1px;stroke-linecap:butt;stroke-linejoin:miter;stroke-opacity:1" d="M 337.941,681.703 403.419,681.703 z" id="boundary" inkscape:connector-curvature="0" />
	<path style="fill:none;stroke:red;stroke-width:1px;stroke-linecap:butt;stroke-linejoin:miter;stroke-opacity:1" d="M 341.215,439.432 373.954,439.432 z" id="boundary" inkscape:connector-curvature="0" />
	<path style="fill:none;stroke:red;stroke-width:1px;stroke-linecap:butt;stroke-linejoin:miter;stroke-opacity:1" d="M 341.215,576.937 406.693,576.937 z" id="boundary" inkscape:connector-curvature="0" />
	<path style="fill:none;stroke:red;stroke-width:1px;stroke-linecap:butt;stroke-linejoin:miter;stroke-opacity:1" d="M 347.762,819.208 380.502,819.208 z" id="boundary" inkscape:connector-curvature="0" />
	<path style="fill:none;stroke:red;stroke-width:1px;stroke-linecap:butt;stroke-linejoin:miter;stroke-opacity:1" d="M 364.132,750.455 396.871,750.455 z" id="boundary" inkscape:connector-curvature="0" />
	<path style="fill:none;stroke:red;stroke-width:1px;stroke-linecap:butt;stroke-linejoin:miter;stroke-opacity:1" d="M 370.68,4 403.419,4 z" id="boundary" inkscape:connector-curvature="0" />
	<path style="fill:none;stroke:red;stroke-width:1px;stroke-linecap:butt;stroke-linejoin:miter;stroke-opacity:1" d="M 373.954,439.432 406.693,439.432 z" id="boundary" inkscape:connector-curvature="0" />
	<path style="fill:none;stroke:red;stroke-width:1px;stroke-linecap:butt;stroke-linejoin:miter;stroke-opacity:1" d="M 380.502,819.208 413.241,819.208 z" id="boundary" inkscape:connector-curvature="0" />
	<path style="fill:none;stroke:red;stroke-width:1px;stroke-linecap:butt;stroke-linejoin:miter;stroke-opacity:1" d="M 396.871,750.455 409.967,714.442 z" id="boundary" inkscape:connector-curvature="0" />
	<path style="fill:none;stroke:red;stroke-width:1px;stroke-linecap:butt;stroke-linejoin:miter;stroke-opacity:1" d="M 403.419,4 436.158,4 z" id="boundary" inkscape:connector-curvature="0" />
	<path style="fill:none;stroke:red;stroke-width:1px;stroke-linecap:butt;stroke-linejoin:miter;stroke-opacity:1" d="M 403.419,681.703 409.967,714.442 z" id="boundary" inkscape:connector-curvature="0" />
	<path style="fill:none;stroke:red;stroke-width:1px;stroke-linecap:butt;stroke-linejoin:miter;stroke-opacity:1" d="M 406.693,439.432 409.967,472.172 z" id="boundary" inkscape:connector-curvature="0" />
	<path style="fill:none;stroke:red;stroke-width:1px;stroke-linecap:butt;stroke-linejoin:miter;stroke-opacity:1" d="M 406.693,576.937 409.967,504.911 z" id="boundary" inkscape:connector-curvature="0" />
	<path style="fill:none;stroke:red;stroke-width:1px;stroke-linecap:butt;stroke-linejoin:miter;stroke-opacity:1" d="M 409.967,472.172 409.967,504.911 z" id="boundary" inkscape:connector-curvature="0" />
	<path style="fill:none;stroke:red;stroke-width:1px;stroke-linecap:butt;stroke-linejoin:miter;stroke-opacity:1" d="M 413.241,819.208 445.98,819.208 z" id="boundary" inkscape:connector-curvature="0" />
	<path style="fill:none;stroke:red;stroke-width:1px;stroke-linecap:butt;stroke-linejoin:miter;stroke-opacity:1" d="M 436.158,4 468.898,4 z" id="boundary" inkscape:connector-curvature="0" />
	<path style="fill:none;stroke:red;stroke-width:1px;stroke-linecap:butt;stroke-linejoin:miter;stroke-opacity:1" d="M 445.98,819.208 478.719,819.208 z" id="boundary" inkscape:connector-curvature="0" />
	<path style="fill:none;stroke:red;stroke-width:1px;stroke-linecap:butt;stroke-linejoin:miter;stroke-opacity:1" d="M 468.898,4 501.637,4 z" id="boundary" inkscape:connector-curvature="0" />
	<path style="fill:none;stroke:red;stroke-width:1px;stroke-linecap:butt;stroke-linejoin:miter;stroke-opacity:1" d="M 478.719,819.208 511.459,819.208 z" id="boundary" inkscape:connector-curvature="0" />
	<path style="fill:none;stroke:red;stroke-width:1px;stroke-linecap:butt;stroke-linejoin:miter;stroke-opacity:1" d="M 501.637,4 534.376,4 z" id="boundary" inkscape:connector-curvature="0" />
	<path style="fill:none;stroke:red;stroke-width:1px;stroke-linecap:butt;stroke-linejoin:miter;stroke-opacity:1" d="M 511.459,819.208 544.198,819.208 z" id="boundary" inkscape:connector-curvature="0" />
	<path style="fill:none;stroke:red;stroke-width:1px;stroke-linecap:butt;stroke-linejoin:miter;stroke-opacity:1" d="M 534.376,4 567.116,4 z" id="boundary" inkscape:connector-curvature="0" />
	<path style="fill:none;stroke:red;stroke-width:1px;stroke-linecap:butt;stroke-linejoin:miter;stroke-opacity:1" d="M 544.198,819.208 576.937,819.208 z" id="boundary" inkscape:connector-curvature="0" />
	<path style="fill:none;stroke:red;stroke-width:1px;stroke-linecap:butt;stroke-linejoin:miter;stroke-opacity:1" d="M 567.116,4 599.855,4 z" id="boundary" inkscape:connector-curvature="0" />
	<path style="fill:none;stroke:red;stroke-width:1px;stroke-linecap:butt;stroke-linejoin:miter;stroke-opacity:1" d="M 576.937,819.208 609.677,819.208 z" id="boundary" inkscape:connector-curvature="0" />
	<path style="fill:none;stroke:red;stroke-width:1px;stroke-linecap:butt;stroke-linejoin:miter;stroke-opacity:1" d="M 599.855,4 632.594,4 z" id="boundary" inkscape:connector-curvature="0" />
	<path style="fill:none;stroke:red;stroke-width:1px;stroke-linecap:butt;stroke-linejoin:miter;stroke-opacity:1" d="M 609.677,442.706 609.677,475.446 z" id="boundary" inkscape:connector-curvature="0" />
	<path style="fill:none;stroke:red;stroke-width:1px;stroke-linecap:butt;stroke-linejoin:miter;stroke-opacity:1" d="M 609.677,442.706 642.416,439.432 z" id="boundary" inkscape:connector-curvature="0" />
	<path style="fill:none;stroke:red;stroke-width:1px;stroke-linecap:butt;stroke-linejoin:miter;stroke-opacity:1" d="M 609.677,475.446 609.677,508.185 z" id="boundary" inkscape:connector-curvature="0" />
	<path style="fill:none;stroke:red;stroke-width:1px;stroke-linecap:butt;stroke-linejoin:miter;stroke-opacity:1" d="M 609.677,508.185 609.677,540.924 z" id="boundary" inkscape:connector-curvature="0" />
	<path style="fill:none;stroke:red;stroke-width:1px;stroke-linecap:butt;stroke-linejoin:miter;stroke-opacity:1" d="M 609.677,540.924 658.785,576.937 z" id="boundary" inkscape:connector-curvature="0" />
	<path style="fill:none;stroke:red;stroke-width:1px;stroke-linecap:butt;stroke-linejoin:miter;stroke-opacity:1" d="M 609.677,717.716 612.95,750.455 z" id="boundary" inkscape:connector-curvature="0" />
	<path style="fill:none;stroke:red;stroke-width:1px;stroke-linecap:butt;stroke-linejoin:miter;stroke-opacity:1" d="M 609.677,717.716 658.785,681.703 z" id="boundary" inkscape:connector-curvature="0" />
	<path style="fill:none;stroke:red;stroke-width:1px;stroke-linecap:butt;stroke-linejoin:miter;stroke-opacity:1" d="M 609.677,819.208 642.416,819.208 z" id="boundary" inkscape:connector-curvature="0" />
	<path style="fill:none;stroke:red;stroke-width:1px;stroke-linecap:butt;stroke-linejoin:miter;stroke-opacity:1" d="M 612.95,750.455 645.69,750.455 z" id="boundary" inkscape:connector-curvature="0" />
	<path style="fill:none;stroke:red;stroke-width:1px;stroke-linecap:butt;stroke-linejoin:miter;stroke-opacity:1" d="M 632.594,4 665.333,4 z" id="boundary" inkscape:connector-curvature="0" />
	<path style="fill:none;stroke:red;stroke-width:1px;stroke-linecap:butt;stroke-linejoin:miter;stroke-opacity:1" d="M 642.416,439.432 675.155,439.432 z" id="boundary" inkscape:connector-curvature="0" />
	<path style="fill:none;stroke:red;stroke-width:1px;stroke-linecap:butt;stroke-linejoin:miter;stroke-opacity:1" d="M 642.416,819.208 675.155,819.208 z" id="boundary" inkscape:connector-curvature="0" />
	<path style="fill:none;stroke:red;stroke-width:1px;stroke-linecap:butt;stroke-linejoin:miter;stroke-opacity:1" d="M 645.69,750.455 678.429,750.455 z" id="boundary" inkscape:connector-curvature="0" />
	<path style="fill:none;stroke:red;stroke-width:1px;stroke-linecap:butt;stroke-linejoin:miter;stroke-opacity:1" d="M 658.785,576.937 724.264,576.937 z" id="boundary" inkscape:connector-curvature="0" />
	<path style="fill:none;stroke:red;stroke-width:1px;stroke-linecap:butt;stroke-linejoin:miter;stroke-opacity:1" d="M 658.785,681.703 707.894,652.238 z" id="boundary" inkscape:connector-curvature="0" />
	<path style="fill:none;stroke:red;stroke-width:1px;stroke-linecap:butt;stroke-linejoin:miter;stroke-opacity:1" d="M 665.333,4 698.073,4 z" id="boundary" inkscape:connector-curvature="0" />
	<path style="fill:none;stroke:red;stroke-width:1px;stroke-linecap:butt;stroke-linejoin:miter;stroke-opacity:1" d="M 675.155,439.432 707.894,439.432 z" id="boundary" inkscape:connector-curvature="0" />
	<path style="fill:none;stroke:red;stroke-width:1px;stroke-linecap:butt;stroke-linejoin:miter;stroke-opacity:1" d="M 675.155,819.208 707.894,819.208 z" id="boundary" inkscape:connector-curvature="0" />
	<path style="fill:none;stroke:red;stroke-width:1px;stroke-linecap:butt;stroke-linejoin:miter;stroke-opacity:1" d="M 678.429,750.455 711.168,750.455 z" id="boundary" inkscape:connector-curvature="0" />
	<path style="fill:none;stroke:red;stroke-width:1px;stroke-linecap:butt;stroke-linejoin:miter;stroke-opacity:1" d="M 698.073,4 730.812,4 z" id="boundary" inkscape:connector-curvature="0" />
	<path style="fill:none;stroke:red;stroke-width:1px;stroke-linecap:butt;stroke-linejoin:miter;stroke-opacity:1" d="M 707.894,439.432 740.634,439.432 z" id="boundary" inkscape:connector-curvature="0" />
	<path style="fill:none;stroke:red;stroke-width:1px;stroke-linecap:butt;stroke-linejoin:miter;stroke-opacity:1" d="M 707.894,652.238 724.264,681.703 z" id="boundary" inkscape:connector-curvature="0" />
	<path style="fill:none;stroke:red;stroke-width:1px;stroke-linecap:butt;stroke-linejoin:miter;stroke-opacity:1" d="M 707.894,819.208 740.634,819.208 z" id="boundary" inkscape:connector-curvature="0" />
	<path style="fill:none;stroke:red;stroke-width:1px;stroke-linecap:butt;stroke-linejoin:miter;stroke-opacity:1" d="M 711.168,750.455 743.908,750.455 z" id="boundary" inkscape:connector-curvature="0" />
	<path style="fill:none;stroke:red;stroke-width:1px;stroke-linecap:butt;stroke-linejoin:miter;stroke-opacity:1" d="M 724.264,576.937 773.373,547.472 z" id="boundary" inkscape:connector-curvature="0" />
	<path style="fill:none;stroke:red;stroke-width:1px;stroke-linecap:butt;stroke-linejoin:miter;stroke-opacity:1" d="M 724.264,681.703 757.003,681.703 z" id="boundary" inkscape:connector-curvature="0" />
	<path style="fill:none;stroke:red;stroke-width:1px;stroke-linecap:butt;stroke-linejoin:miter;stroke-opacity:1" d="M 730.812,4 763.551,4 z" id="boundary" inkscape:connector-curvature="0" />
	<path style="fill:none;stroke:red;stroke-width:1px;stroke-linecap:butt;stroke-linejoin:miter;stroke-opacity:1" d="M 740.634,439.432 773.373,439.432 z" id="boundary" inkscape:connector-curvature="0" />
	<path style="fill:none;stroke:red;stroke-width:1px;stroke-linecap:butt;stroke-linejoin:miter;stroke-opacity:1" d="M 740.634,819.208 773.373,819.208 z" id="boundary" inkscape:connector-curvature="0" />
	<path style="fill:none;stroke:red;stroke-width:1px;stroke-linecap:butt;stroke-linejoin:miter;stroke-opacity:1" d="M 743.908,750.455 776.647,750.455 z" id="boundary" inkscape:connector-curvature="0" />
	<path style="fill:none;stroke:red;stroke-width:1px;stroke-linecap:butt;stroke-linejoin:miter;stroke-opacity:1" d="M 757.003,681.703 806.112,652.238 z" id="boundary" inkscape:connector-curvature="0" />
	<path style="fill:none;stroke:red;stroke-width:1px;stroke-linecap:butt;stroke-linejoin:miter;stroke-opacity:1" d="M 763.551,4 796.29,4 z" id="boundary" inkscape:connector-curvature="0" />
	<path style="fill:none;stroke:red;stroke-width:1px;stroke-linecap:butt;stroke-linejoin:miter;stroke-opacity:1" d="M 773.373,439.432 806.112,439.432 z" id="boundary" inkscape:connector-curvature="0" />
	<path style="fill:none;stroke:red;stroke-width:1px;stroke-linecap:butt;stroke-linejoin:miter;stroke-opacity:1" d="M 773.373,547.472 822.482,576.937 z" id="boundary" inkscape:connector-curvature="0" />
	<path style="fill:none;stroke:red;stroke-width:1px;stroke-linecap:butt;stroke-linejoin:miter;stroke-opacity:1" d="M 773.373,819.208 806.112,819.208 z" id="boundary" inkscape:connector-curvature="0" />
	<path style="fill:none;stroke:red;stroke-width:1px;stroke-linecap:butt;stroke-linejoin:miter;stroke-opacity:1" d="M 776.647,750.455 809.386,750.455 z" id="boundary" inkscape:connector-curvature="0" />
	<path style="fill:none;stroke:red;stroke-width:1px;stroke-linecap:butt;stroke-linejoin:miter;stroke-opacity:1" d="M 796.29,4 829.03,4 z" id="boundary" inkscape:connector-curvature="0" />
	<path style="fill:none;stroke:red;stroke-width:1px;stroke-linecap:butt;stroke-linejoin:miter;stroke-opacity:1" d="M 806.112,439.432 838.851,439.432 z" id="boundary" inkscape:connector-curvature="0" />
	<path style="fill:none;stroke:red;stroke-width:1px;stroke-linecap:butt;stroke-linejoin:miter;stroke-opacity:1" d="M 806.112,652.238 855.221,681.703 z" id="boundary" inkscape:connector-curvature="0" />
	<path style="fill:none;stroke:red;stroke-width:1px;stroke-linecap:butt;stroke-linejoin:miter;stroke-opacity:1" d="M 806.112,819.208 838.851,819.208 z" id="boundary" inkscape:connector-curvature="0" />
	<path style="fill:none;stroke:red;stroke-width:1px;stroke-linecap:butt;stroke-linejoin:miter;stroke-opacity:1" d="M 809.386,750.455 842.125,750.455 z" id="boundary" inkscape:connector-curvature="0" />
	<path style="fill:none;stroke:red;stroke-width:1px;stroke-linecap:butt;stroke-linejoin:miter;stroke-opacity:1" d="M 822.482,576.937 871.591,547.472 z" id="boundary" inkscape:connector-curvature="0" />
	<path style="fill:none;stroke:red;stroke-width:1px;stroke-linecap:butt;stroke-linejoin:miter;stroke-opacity:1" d="M 829.03,4 861.769,4 z" id="boundary" inkscape:connector-curvature="0" />
	<path style="fill:none;stroke:red;stroke-width:1px;stroke-linecap:butt;stroke-linejoin:miter;stroke-opacity:1" d="M 838.851,439.432 871.591,439.432 z" id="boundary" inkscape:connector-curvature="0" />
	<path style="fill:none;stroke:red;stroke-width:1px;stroke-linecap:butt;stroke-linejoin:miter;stroke-opacity:1" d="M 838.851,819.208 871.591,819.208 z" id="boundary" inkscape:connector-curvature="0" />
	<path style="fill:none;stroke:red;stroke-width:1px;stroke-linecap:butt;stroke-linejoin:miter;stroke-opacity:1" d="M 842.125,750.455 874.865,750.455 z" id="boundary" inkscape:connector-curvature="0" />
	<path style="fill:none;stroke:red;stroke-width:1px;stroke-linecap:butt;stroke-linejoin:miter;stroke-opacity:1" d="M 855.221,681.703 904.33,652.238 z" id="boundary" inkscape:connector-curvature="0" />
	<path style="fill:none;stroke:red;stroke-width:1px;stroke-linecap:butt;stroke-linejoin:miter;stroke-opacity:1" d="M 861.769,4 884.686,30.1914 z" id="boundary" inkscape:connector-curvature="0" />
	<path style="fill:none;stroke:red;stroke-width:1px;stroke-linecap:butt;stroke-linejoin:miter;stroke-opacity:1" d="M 871.591,439.432 884.686,390.323 z" id="boundary" inkscape:connector-curvature="0" />
	<path style="fill:none;stroke:red;stroke-width:1px;stroke-linecap:butt;stroke-linejoin:miter;stroke-opacity:1" d="M 871.591,547.472 904.33,547.472 z" id="boundary" inkscape:connector-curvature="0" />
	<path style="fill:none;stroke:red;stroke-width:1px;stroke-linecap:butt;stroke-linejoin:miter;stroke-opacity:1" d="M 871.591,819.208 904.33,825.756 z" id="boundary" inkscape:connector-curvature="0" />
	<path style="fill:none;stroke:red;stroke-width:1px;stroke-linecap:butt;stroke-linejoin:miter;stroke-opacity:1" d="M 874.865,750.455 907.604,750.455 z" id="boundary" inkscape:connector-curvature="0" />
	<path style="fill:none;stroke:red;stroke-width:1px;stroke-linecap:butt;stroke-linejoin:miter;stroke-opacity:1" d="M 884.686,30.1914 884.686,62.9307 z" id="boundary" inkscape:connector-curvature="0" />
	<path style="fill:none;stroke:red;stroke-width:1px;stroke-linecap:butt;stroke-linejoin:miter;stroke-opacity:1" d="M 884.686,62.9307 884.686,95.67 z" id="boundary" inkscape:connector-curvature="0" />
	<path style="fill:none;stroke:red;stroke-width:1px;stroke-linecap:butt;stroke-linejoin:miter;stroke-opacity:1" d="M 884.686,95.67 884.686,128.409 z" id="boundary" inkscape:connector-curvature="0" />
	<path style="fill:none;stroke:red;stroke-width:1px;stroke-linecap:butt;stroke-linejoin:miter;stroke-opacity:1" d="M 884.686,128.409 884.686,161.149 z" id="boundary" inkscape:connector-curvature="0" />
	<path style="fill:none;stroke:red;stroke-width:1px;stroke-linecap:butt;stroke-linejoin:miter;stroke-opacity:1" d="M 884.686,161.149 884.686,193.888 z" id="boundary" inkscape:connector-curvature="0" />
	<path style="fill:none;stroke:red;stroke-width:1px;stroke-linecap:butt;stroke-linejoin:miter;stroke-opacity:1" d="M 884.686,193.888 884.686,226.627 z" id="boundary" inkscape:connector-curvature="0" />
	<path style="fill:none;stroke:red;stroke-width:1px;stroke-linecap:butt;stroke-linejoin:miter;stroke-opacity:1" d="M 884.686,226.627 884.686,259.366 z" id="boundary" inkscape:connector-curvature="0" />
	<path style="fill:none;stroke:red;stroke-width:1px;stroke-linecap:butt;stroke-linejoin:miter;stroke-opacity:1" d="M 884.686,259.366 884.686,292.106 z" id="boundary" inkscape:connector-curvature="0" />
	<path style="fill:none;stroke:red;stroke-width:1px;stroke-linecap:butt;stroke-linejoin:miter;stroke-opacity:1" d="M 884.686,292.106 884.686,324.845 z" id="boundary" inkscape:connector-curvature="0" />
	<path style="fill:none;stroke:red;stroke-width:1px;stroke-linecap:butt;stroke-linejoin:miter;stroke-opacity:1" d="M 884.686,324.845 884.686,357.584 z" id="boundary" inkscape:connector-curvature="0" />
	<path style="fill:none;stroke:red;stroke-width:1px;stroke-linecap:butt;stroke-linejoin:miter;stroke-opacity:1" d="M 884.686,357.584 884.686,390.323 z" id="boundary" inkscape:connector-curvature="0" />
	<path style="fill:none;stroke:red;stroke-width:1px;stroke-linecap:butt;stroke-linejoin:miter;stroke-opacity:1" d="M 904.33,547.472 920.7,576.937 z" id="boundary" inkscape:connector-curvature="0" />
	<path style="fill:none;stroke:red;stroke-width:1px;stroke-linecap:butt;stroke-linejoin:miter;stroke-opacity:1" d="M 904.33,652.238 920.7,576.937 z" id="boundary" inkscape:connector-curvature="0" />
	<path style="fill:none;stroke:red;stroke-width:1px;stroke-linecap:butt;stroke-linejoin:miter;stroke-opacity:1" d="M 904.33,825.756 937.069,819.208 z" id="boundary" inkscape:connector-curvature="0" />
	<path style="fill:none;stroke:red;stroke-width:1px;stroke-linecap:butt;stroke-linejoin:miter;stroke-opacity:1" d="M 907.604,750.455 940.343,750.455 z" id="boundary" inkscape:connector-curvature="0" />
	<path style="fill:none;stroke:red;stroke-width:1px;stroke-linecap:butt;stroke-linejoin:miter;stroke-opacity:1" d="M 937.069,819.208 969.809,819.208 z" id="boundary" inkscape:connector-curvature="0" />
	<path style="fill:none;stroke:red;stroke-width:1px;stroke-linecap:butt;stroke-linejoin:miter;stroke-opacity:1" d="M 940.343,750.455 973.083,750.455 z" id="boundary" inkscape:connector-curvature="0" />
	<path style="fill:none;stroke:red;stroke-width:1px;stroke-linecap:butt;stroke-linejoin:miter;stroke-opacity:1" d="M 969.809,819.208 996,776.647 z" id="boundary" inkscape:connector-curvature="0" />
	<path style="fill:none;stroke:red;stroke-width:1px;stroke-linecap:butt;stroke-linejoin:miter;stroke-opacity:1" d="M 973.083,750.455 996,776.647 z" id="boundary" inkscape:connector-curvature="0" />
	<circle cx="4" cy="757.003" r="4" fill="#0" id="circle0"/>
	<circle cx="8.90169" cy="788.761" r="4" fill="#0" id="circle1"/>
	<circle cx="20.3696" cy="819.208" r="4" fill="#0" id="circle2"/>
	<circle cx="nan" cy="nan" r="4" fill="#0" id="circle3"/>
	<circle cx="49.835" cy="560.568" r="4" fill="#0" id="circle4"/>
	<circle cx="49.835" cy="658.785" r="4" fill="#0" id="circle5"/>
	<circle cx="53.1089" cy="829.03" r="4" fill="#0" id="circle6"/>
	<circle cx="69.4785" cy="750.455" r="4" fill="#0" id="circle7"/>
	<circle cx="76.0264" cy="681.703" r="4" fill="#0" id="circle8"/>
	<circle cx="79.3003" cy="576.937" r="4" fill="#0" id="circle9"/>
	<circle cx="85.8482" cy="832.304" r="4" fill="#0" id="circle10"/>
	<circle cx="92.396" cy="652.238" r="4" fill="#0" id="circle11"/>
	<circle cx="95.67" cy="547.472" r="4" fill="#0" id="circle12"/>
	<circle cx="102.218" cy="750.455" r="4" fill="#0" id="circle13"/>
	<circle cx="108.766" cy="10.5479" r="4" fill="#0" id="circle14"/>
	<circle cx="108.766" cy="43.2871" r="4" fill="#0" id="circle15"/>
	<circle cx="108.766" cy="76.0264" r="4" fill="#0" id="circle16"/>
	<circle cx="108.766" cy="108.766" r="4" fill="#0" id="circle17"/>
	<circle cx="108.766" cy="141.505" r="4" fill="#0" id="circle18"/>
	<circle cx="108.766" cy="174.244" r="4" fill="#0" id="circle19"/>
	<circle cx="108.766" cy="206.983" r="4" fill="#0" id="circle20"/>
	<circle cx="108.766" cy="239.723" r="4" fill="#0" id="circle21"/>
	<circle cx="108.766" cy="272.462" r="4" fill="#0" id="circle22"/>
	<circle cx="108.766" cy="305.201" r="4" fill="#0" id="circle23"/>
	<circle cx="108.766" cy="337.941" r="4" fill="#0" id="circle24"/>
	<circle cx="108.766" cy="370.68" r="4" fill="#0" id="circle25"/>
	<circle cx="108.766" cy="403.419" r="4" fill="#0" id="circle26"/>
	<circle cx="108.766" cy="681.703" r="4" fill="#0" id="circle27"/>
	<circle cx="112.04" cy="436.158" r="4" fill="#0" id="circle28"/>
	<circle cx="112.04" cy="576.937" r="4" fill="#0" id="circle29"/>
	<circle cx="118.587" cy="819.208" r="4" fill="#0" id="circle30"/>
	<circle cx="125.135" cy="652.238" r="4" fill="#0" id="circle31"/>
	<circle cx="128.409" cy="547.472" r="4" fill="#0" id="circle32"/>
	<circle cx="134.957" cy="750.455" r="4" fill="#0" id="circle33"/>
	<circle cx="141.505" cy="4" r="4" fill="#0" id="circle34"/>
	<circle cx="141.505" cy="681.703" r="4" fill="#0" id="circle35"/>
	<circle cx="144.779" cy="439.432" r="4" fill="#0" id="circle36"/>
	<circle cx="144.779" cy="576.937" r="4" fill="#0" id="circle37"/>
	<circle cx="151.327" cy="819.208" r="4" fill="#0" id="circle38"/>
	<circle cx="157.875" cy="652.238" r="4" fill="#0" id="circle39"/>
	<circle cx="161.149" cy="547.472" r="4" fill="#0" id="circle40"/>
	<circle cx="167.696" cy="750.455" r="4" fill="#0" id="circle41"/>
	<circle cx="174.244" cy="4" r="4" fill="#0" id="circle42"/>
	<circle cx="174.244" cy="681.703" r="4" fill="#0" id="circle43"/>
	<circle cx="177.518" cy="439.432" r="4" fill="#0" id="circle44"/>
	<circle cx="177.518" cy="576.937" r="4" fill="#0" id="circle45"/>
	<circle cx="184.066" cy="819.208" r="4" fill="#0" id="circle46"/>
	<circle cx="190.614" cy="652.238" r="4" fill="#0" id="circle47"/>
	<circle cx="193.888" cy="547.472" r="4" fill="#0" id="circle48"/>
	<circle cx="200.436" cy="750.455" r="4" fill="#0" id="circle49"/>
	<circle cx="206.983" cy="4" r="4" fill="#0" id="circle50"/>
	<circle cx="206.983" cy="681.703" r="4" fill="#0" id="circle51"/>
	<circle cx="210.257" cy="439.432" r="4" fill="#0" id="circle52"/>
	<circle cx="210.257" cy="576.937" r="4" fill="#0" id="circle53"/>
	<circle cx="216.805" cy="819.208" r="4" fill="#0" id="circle54"/>
	<circle cx="223.353" cy="652.238" r="4" fill="#0" id="circle55"/>
	<circle cx="226.627" cy="547.472" r="4" fill="#0" id="circle56"/>
	<circle cx="233.175" cy="750.455" r="4" fill="#0" id="circle57"/>
	<circle cx="239.723" cy="4" r="4" fill="#0" id="circle58"/>
	<circle cx="239.723" cy="681.703" r="4" fill="#0" id="circle59"/>
	<circle cx="242.997" cy="439.432" r="4" fill="#0" id="circle60"/>
	<circle cx="242.997" cy="576.937" r="4" fill="#0" id="circle61"/>
	<circle cx="249.545" cy="819.208" r="4" fill="#0" id="circle62"/>
	<circle cx="256.092" cy="652.238" r="4" fill="#0" id="circle63"/>
	<circle cx="259.366" cy="547.472" r="4" fill="#0" id="circle64"/>
	<circle cx="265.914" cy="750.455" r="4" fill="#0" id="circle65"/>
	<circle cx="272.462" cy="4" r="4" fill="#0" id="circle66"/>
	<circle cx="272.462" cy="681.703" r="4" fill="#0" id="circle67"/>
	<circle cx="275.736" cy="439.432" r="4" fill="#0" id="circle68"/>
	<circle cx="275.736" cy="576.937" r="4" fill="#0" id="circle69"/>
	<circle cx="282.284" cy="819.208" r="4" fill="#0" id="circle70"/>
	<circle cx="288.832" cy="652.238" r="4" fill="#0" id="circle71"/>
	<circle cx="292.106" cy="547.472" r="4" fill="#0" id="circle72"/>
	<circle cx="298.653" cy="750.455" r="4" fill="#0" id="circle73"/>
	<circle cx="305.201" cy="4" r="4" fill="#0" id="circle74"/>
	<circle cx="305.201" cy="681.703" r="4" fill="#0" id="circle75"/>
	<circle cx="308.475" cy="439.432" r="4" fill="#0" id="circle76"/>
	<circle cx="308.475" cy="576.937" r="4" fill="#0" id="circle77"/>
	<circle cx="315.023" cy="819.208" r="4" fill="#0" id="circle78"/>
	<circle cx="321.571" cy="652.238" r="4" fill="#0" id="circle79"/>
	<circle cx="324.845" cy="547.472" r="4" fill="#0" id="circle80"/>
	<circle cx="331.393" cy="750.455" r="4" fill="#0" id="circle81"/>
	<circle cx="337.941" cy="4" r="4" fill="#0" id="circle82"/>
	<circle cx="337.941" cy="681.703" r="4" fill="#0" id="circle83"/>
	<circle cx="341.215" cy="439.432" r="4" fill="#0" id="circle84"/>
	<circle cx="341.215" cy="576.937" r="4" fill="#0" id="circle85"/>
	<circle cx="347.762" cy="819.208" r="4" fill="#0" id="circle86"/>
	<circle cx="354.31" cy="652.238" r="4" fill="#0" id="circle87"/>
	<circle cx="357.584" cy="547.472" r="4" fill="#0" id="circle88"/>
	<circle cx="364.132" cy="750.455" r="4" fill="#0" id="circle89"/>
	<circle cx="370.68" cy="4" r="4" fill="#0" id="circle90"/>
	<circle cx="370.68" cy="681.703" r="4" fill="#0" id="circle91"/>
	<circle cx="373.954" cy="439.432" r="4" fill="#0" id="circle92"/>
	<circle cx="373.954" cy="576.937" r="4" fill="#0" id="circle93"/>
	<circle cx="380.502" cy="819.208" r="4" fill="#0" id="circle94"/>
	<circle cx="387.05" cy="652.238" r="4" fill="#0" id="circle95"/>
	<circle cx="390.323" cy="547.472" r="4" fill="#0" id="circle96"/>
	<circle cx="396.871" cy="750.455" r="4" fill="#0" id="circle97"/>
	<circle cx="403.419" cy="4" r="4" fill="#0" id="circle98"/>
	<circle cx="403.419" cy="681.703" r="4" fill="#0" id="circle99"/>
	<circle cx="406.693" cy="439.432" r="4" fill="#0" id="circle100"/>
	<circle cx="406.693" cy="576.937" r="4" fill="#0" id="circle101"/>
	<circle cx="409.967" cy="472.172" r="4" fill="#0" id="circle102"/>
	<circle cx="409.967" cy="504.911" r="4" fill="#0" id="circle103"/>
	<circle cx="409.967" cy="609.677" r="4" fill="#0" id="circle104"/>
	<circle cx="409.967" cy="714.442" r="4" fill="#0" id="circle105"/>
	<circle cx="413.241" cy="819.208" r="4" fill="#0" id="circle106"/>
	<circle cx="436.158" cy="4" r="4" fill="#0" id="circle107"/>
	<circle cx="445.98" cy="819.208" r="4" fill="#0" id="circle108"/>
	<circle cx="468.898" cy="4" r="4" fill="#0" id="circle109"/>
	<circle cx="478.719" cy="819.208" r="4" fill="#0" id="circle110"/>
	<circle cx="501.637" cy="4" r="4" fill="#0" id="circle111"/>
	<circle cx="511.459" cy="819.208" r="4" fill="#0" id="circle112"/>
	<circle cx="534.376" cy="4" r="4" fill="#0" id="circle113"/>
	<circle cx="544.198" cy="819.208" r="4" fill="#0" id="circle114"/>
	<circle cx="567.116" cy="4" r="4" fill="#0" id="circle115"/>
	<circle cx="576.937" cy="819.208" r="4" fill="#0" id="circle116"/>
	<circle cx="599.855" cy="4" r="4" fill="#0" id="circle117"/>
	<circle cx="609.677" cy="442.706" r="4" fill="#0" id="circle118"/>
	<circle cx="609.677" cy="475.446" r="4" fill="#0" id="circle119"/>
	<circle cx="609.677" cy="508.185" r="4" fill="#0" id="circle120"/>
	<circle cx="609.677" cy="540.924" r="4" fill="#0" id="circle121"/>
	<circle cx="609.677" cy="580.211" r="4" fill="#0" id="circle122"/>
	<circle cx="609.677" cy="612.95" r="4" fill="#0" id="circle123"/>
	<circle cx="609.677" cy="645.69" r="4" fill="#0" id="circle124"/>
	<circle cx="609.677" cy="684.977" r="4" fill="#0" id="circle125"/>
	<circle cx="609.677" cy="717.716" r="4" fill="#0" id="circle126"/>
	<circle cx="609.677" cy="819.208" r="4" fill="#0" id="circle127"/>
	<circle cx="612.95" cy="750.455" r="4" fill="#0" id="circle128"/>
	<circle cx="632.594" cy="4" r="4" fill="#0" id="circle129"/>
	<circle cx="642.416" cy="439.432" r="4" fill="#0" id="circle130"/>
	<circle cx="642.416" cy="547.472" r="4" fill="#0" id="circle131"/>
	<circle cx="642.416" cy="652.238" r="4" fill="#0" id="circle132"/>
	<circle cx="642.416" cy="819.208" r="4" fill="#0" id="circle133"/>
	<circle cx="645.69" cy="750.455" r="4" fill="#0" id="circle134"/>
	<circle cx="658.785" cy="576.937" r="4" fill="#0" id="circle135"/>
	<circle cx="658.785" cy="681.703" r="4" fill="#0" id="circle136"/>
	<circle cx="665.333" cy="4" r="4" fill="#0" id="circle137"/>
	<circle cx="675.155" cy="439.432" r="4" fill="#0" id="circle138"/>
	<circle cx="675.155" cy="547.472" r="4" fill="#0" id="circle139"/>
	<circle cx="675.155" cy="652.238" r="4" fill="#0" id="circle140"/>
	<circle cx="675.155" cy="819.208" r="4" fill="#0" id="circle141"/>
	<circle cx="678.429" cy="750.455" r="4" fill="#0" id="circle142"/>
	<circle cx="691.525" cy="576.937" r="4" fill="#0" id="circle143"/>
	<circle cx="691.525" cy="681.703" r="4" fill="#0" id="circle144"/>
	<circle cx="698.073" cy="4" r="4" fill="#0" id="circle145"/>
	<circle cx="707.894" cy="439.432" r="4" fill="#0" id="circle146"/>
	<circle cx="707.894" cy="547.472" r="4" fill="#0" id="circle147"/>
	<circle cx="707.894" cy="652.238" r="4" fill="#0" id="circle148"/>
	<circle cx="707.894" cy="819.208" r="4" fill="#0" id="circle149"/>
	<circle cx="711.168" cy="750.455" r="4" fill="#0" id="circle150"/>
	<circle cx="724.264" cy="576.937" r="4" fill="#0" id="circle151"/>
	<circle cx="724.264" cy="681.703" r="4" fill="#0" id="circle152"/>
	<circle cx="730.812" cy="4" r="4" fill="#0" id="circle153"/>
	<circle cx="740.634" cy="439.432" r="4" fill="#0" id="circle154"/>
	<circle cx="740.634" cy="547.472" r="4" fill="#0" id="circle155"/>
	<circle cx="740.634" cy="652.238" r="4" fill="#0" id="circle156"/>
	<circle cx="740.634" cy="819.208" r="4" fill="#0" id="circle157"/>
	<circle cx="743.908" cy="750.455" r="4" fill="#0" id="circle158"/>
	<circle cx="757.003" cy="576.937" r="4" fill="#0" id="circle159"/>
	<circle cx="757.003" cy="681.703" r="4" fill="#0" id="circle160"/>
	<circle cx="763.551" cy="4" r="4" fill="#0" id="circle161"/>
	<circle cx="773.373" cy="439.432" r="4" fill="#0" id="circle162"/>
	<circle cx="773.373" cy="547.472" r="4" fill="#0" id="circle163"/>
	<circle cx="773.373" cy="652.238" r="4" fill="#0" id="circle164"/>
	<circle cx="773.373" cy="819.208" r="4" fill="#0" id="circle165"/>
	<circle cx="776.647" cy="750.455" r="4" fill="#0" id="circle166"/>
	<circle cx="789.743" cy="576.937" r="4" fill="#0" id="circle167"/>
	<circle cx="789.743" cy="681.703" r="4" fill="#0" id="circle168"/>
	<circle cx="796.29" cy="4" r="4" fill="#0" id="circle169"/>
	<circle cx="806.112" cy="439.432" r="4" fill="#0" id="circle170"/>
	<circle cx="806.112" cy="547.472" r="4" fill="#0" id="circle171"/>
	<circle cx="806.112" cy="652.238" r="4" fill="#0" id="circle172"/>
	<circle cx="806.112" cy="819.208" r="4" fill="#0" id="circle173"/>
	<circle cx="809.386" cy="750.455" r="4" fill="#0" id="circle174"/>
	<circle cx="822.482" cy="576.937" r="4" fill="#0" id="circle175"/>
	<circle cx="822.482" cy="681.703" r="4" fill="#0" id="circle176"/>
	<circle cx="829.03" cy="4" r="4" fill="#0" id="circle177"/>
	<circle cx="838.851" cy="439.432" r="4" fill="#0" id="circle178"/>
	<circle cx="838.851" cy="547.472" r="4" fill="#0" id="circle179"/>
	<circle cx="838.851" cy="652.238" r="4" fill="#0" id="circle180"/>
	<circle cx="838.851" cy="819.208" r="4" fill="#0" id="circle181"/>
	<circle cx="842.125" cy="750.455" r="4" fill="#0" id="circle182"/>
	<circle cx="855.221" cy="576.937" r="4" fill="#0" id="circle183"/>
	<circle cx="855.221" cy="681.703" r="4" fill="#0" id="circle184"/>
	<circle cx="861.769" cy="4" r="4" fill="#0" id="circle185"/>
	<circle cx="871.591" cy="439.432" r="4" fill="#0" id="circle186"/>
	<circle cx="871.591" cy="547.472" r="4" fill="#0" id="circle187"/>
	<circle cx="871.591" cy="652.238" r="4" fill="#0" id="circle188"/>
	<circle cx="871.591" cy="819.208" r="4" fill="#0" id="circle189"/>
	<circle cx="874.865" cy="750.455" r="4" fill="#0" id="circle190"/>
	<circle cx="884.686" cy="30.1914" r="4" fill="#0" id="circle191"/>
	<circle cx="884.686" cy="62.9307" r="4" fill="#0" id="circle192"/>
	<circle cx="884.686" cy="95.67" r="4" fill="#0" id="circle193"/>
	<circle cx="884.686" cy="128.409" r="4" fill="#0" id="circle194"/>
	<circle cx="884.686" cy="161.149" r="4" fill="#0" id="circle195"/>
	<circle cx="884.686" cy="193.888" r="4" fill="#0" id="circle196"/>
	<circle cx="884.686" cy="226.627" r="4" fill="#0" id="circle197"/>
	<circle cx="884.686" cy="259.366" r="4" fill="#0" id="circle198"/>
	<circle cx="884.686" cy="292.106" r="4" fill="#0" id="circle199"/>
	<circle cx="884.686" cy="324.845" r="4" fill="#0" id="circle200"/>
	<circle cx="884.686" cy="357.584" r="4" fill="#0" id="circle201"/>
	<circle cx="884.686" cy="390.323" r="4" fill="#0" id="circle202"/>
	<circle cx="887.96" cy="576.937" r="4" fill="#0" id="circle203"/>
	<circle cx="887.96" cy="681.703" r="4" fill="#0" id="circle204"/>
	<circle cx="904.33" cy="547.472" r="4" fill="#0" id="circle205"/>
	<circle cx="904.33" cy="652.238" r="4" fill="#0" id="circle206"/>
	<circle cx="904.33" cy="825.756" r="4" fill="#0" id="circle207"/>
	<circle cx="907.604" cy="750.455" r="4" fill="#0" id="circle208"/>
	<circle cx="920.7" cy="576.937" r="4" fill="#0" id="circle209"/>
	<circle cx="937.069" cy="819.208" r="4" fill="#0" id="circle210"/>
	<circle cx="940.343" cy="750.455" r="4" fill="#0" id="circle211"/>
	<circle cx="969.809" cy="819.208" r="4" fill="#0" id="circle212"/>
	<circle cx="973.083" cy="750.455" r="4" fill="#0" id="circle213"/>
	<circle cx="996" cy="776.647" r="4" fill="#0" id="circle214"/>
	</g>
</svg>