<?xml version="1.0" encoding="UTF-8" standalone="no"?>
<!-- Created with CurveBenchmark -->
<svg
	xmlns:dc="http://purl.org/dc/elements/1.1/"
	xmlns:cc="http://creativecommons.org/ns#"
	xmlns:rdf="http://www.w3.org/1999/02/22-rdf-syntax-ns#"
	xmlns:svg="http://www.w3.org/2000/svg"
	xmlns="http://www.w3.org/2000/svg"
	xmlns:sodipodi="http://sodipodi.sourceforge.net/DTD/sodipodi-0.dtd"
	xmlns:inkscape="http://www.inkscape.org/namespaces/inkscape"
	width="1000"
	height="1000"
	id="svg2"
	version="1.1"
	sodipodi:docname="manifold/vicur-sink335.png.txt">
<defs
	id="defs4" />
<metadata
	id="metadata7">
	<rdf:RDF>
		<cc:Work
			rdf:about="">
			<dc:format>image/svg+xml</dc:format>
			<dc:type
				rdf:resource="http://purl.org/dc/dcmitype/StillImage" />
			<dc:title></dc:title>
		</cc:Work>
	</rdf:RDF>
</metadata>
<g
	inkscape:label="Layer 1"
	inkscape:groupmode="layer"
	id="layer1">
	<path style="fill:none;stroke:red;stroke-width:1px;stroke-linecap:butt;stroke-linejoin:miter;stroke-opacity:1" d="M 4,187.883 4,236.273 z" id="boundary" inkscape:connector-curvature="0" />
	<path style="fill:none;stroke:red;stroke-width:1px;stroke-linecap:butt;stroke-linejoin:miter;stroke-opacity:1" d="M 4,187.883 52.3902,168.527 z" id="boundary" inkscape:connector-curvature="0" />
	<path style="fill:none;stroke:red;stroke-width:1px;stroke-linecap:butt;stroke-linejoin:miter;stroke-opacity:1" d="M 4,236.273 4,284.663 z" id="boundary" inkscape:connector-curvature="0" />
	<path style="fill:none;stroke:red;stroke-width:1px;stroke-linecap:butt;stroke-linejoin:miter;stroke-opacity:1" d="M 4,284.663 42.7122,318.537 z" id="boundary" inkscape:connector-curvature="0" />
	<path style="fill:none;stroke:red;stroke-width:1px;stroke-linecap:butt;stroke-linejoin:miter;stroke-opacity:1" d="M 42.7122,318.537 91.1024,318.537 z" id="boundary" inkscape:connector-curvature="0" />
	<path style="fill:none;stroke:red;stroke-width:1px;stroke-linecap:butt;stroke-linejoin:miter;stroke-opacity:1" d="M 52.3902,168.527 100.78,168.527 z" id="boundary" inkscape:connector-curvature="0" />
	<path style="fill:none;stroke:red;stroke-width:1px;stroke-linecap:butt;stroke-linejoin:miter;stroke-opacity:1" d="M 91.1024,318.537 139.493,318.537 z" id="boundary" inkscape:connector-curvature="0" />
	<path style="fill:none;stroke:red;stroke-width:1px;stroke-linecap:butt;stroke-linejoin:miter;stroke-opacity:1" d="M 100.78,168.527 149.171,168.527 z" id="boundary" inkscape:connector-curvature="0" />
	<path style="fill:none;stroke:red;stroke-width:1px;stroke-linecap:butt;stroke-linejoin:miter;stroke-opacity:1" d="M 139.493,318.537 187.883,318.537 z" id="boundary" inkscape:connector-curvature="0" />
	<path style="fill:none;stroke:red;stroke-width:1px;stroke-linecap:butt;stroke-linejoin:miter;stroke-opacity:1" d="M 149.171,168.527 197.561,168.527 z" id="boundary" inkscape:connector-curvature="0" />
	<path style="fill:none;stroke:red;stroke-width:1px;stroke-linecap:butt;stroke-linejoin:miter;stroke-opacity:1" d="M 187.883,318.537 212.078,362.088 z" id="boundary" inkscape:connector-curvature="0" />
	<path style="fill:none;stroke:red;stroke-width:1px;stroke-linecap:butt;stroke-linejoin:miter;stroke-opacity:1" d="M 197.561,168.527 245.951,168.527 z" id="boundary" inkscape:connector-curvature="0" />
	<path style="fill:none;stroke:red;stroke-width:1px;stroke-linecap:butt;stroke-linejoin:miter;stroke-opacity:1" d="M 212.078,362.088 241.112,400.8 z" id="boundary" inkscape:connector-curvature="0" />
	<path style="fill:none;stroke:red;stroke-width:1px;stroke-linecap:butt;stroke-linejoin:miter;stroke-opacity:1" d="M 241.112,400.8 279.824,429.834 z" id="boundary" inkscape:connector-curvature="0" />
	<path style="fill:none;stroke:red;stroke-width:1px;stroke-linecap:butt;stroke-linejoin:miter;stroke-opacity:1" d="M 279.824,429.834 323.376,454.029 z" id="boundary" inkscape:connector-curvature="0" />
	<path style="fill:none;stroke:red;stroke-width:1px;stroke-linecap:butt;stroke-linejoin:miter;stroke-opacity:1" d="M 294.341,81.4244 294.341,129.815 z" id="boundary" inkscape:connector-curvature="0" />
	<path style="fill:none;stroke:red;stroke-width:1px;stroke-linecap:butt;stroke-linejoin:miter;stroke-opacity:1" d="M 294.341,81.4244 313.698,33.0341 z" id="boundary" inkscape:connector-curvature="0" />
	<path style="fill:none;stroke:red;stroke-width:1px;stroke-linecap:butt;stroke-linejoin:miter;stroke-opacity:1" d="M 294.341,129.815 333.054,163.688 z" id="boundary" inkscape:connector-curvature="0" />
	<path style="fill:none;stroke:red;stroke-width:1px;stroke-linecap:butt;stroke-linejoin:miter;stroke-opacity:1" d="M 313.698,33.0341 352.41,4 z" id="boundary" inkscape:connector-curvature="0" />
	<path style="fill:none;stroke:red;stroke-width:1px;stroke-linecap:butt;stroke-linejoin:miter;stroke-opacity:1" d="M 323.376,454.029 371.766,454.029 z" id="boundary" inkscape:connector-curvature="0" />
	<path style="fill:none;stroke:red;stroke-width:1px;stroke-linecap:butt;stroke-linejoin:miter;stroke-opacity:1" d="M 333.054,163.688 381.444,168.527 z" id="boundary" inkscape:connector-curvature="0" />
	<path style="fill:none;stroke:red;stroke-width:1px;stroke-linecap:butt;stroke-linejoin:miter;stroke-opacity:1" d="M 333.054,952.449 357.249,996 z" id="boundary" inkscape:connector-curvature="0" />
	<path style="fill:none;stroke:red;stroke-width:1px;stroke-linecap:butt;stroke-linejoin:miter;stroke-opacity:1" d="M 333.054,952.449 362.088,894.38 z" id="boundary" inkscape:connector-curvature="0" />
	<path style="fill:none;stroke:red;stroke-width:1px;stroke-linecap:butt;stroke-linejoin:miter;stroke-opacity:1" d="M 352.41,4 381.444,42.7122 z" id="boundary" inkscape:connector-curvature="0" />
	<path style="fill:none;stroke:red;stroke-width:1px;stroke-linecap:butt;stroke-linejoin:miter;stroke-opacity:1" d="M 357.249,996 405.639,996 z" id="boundary" inkscape:connector-curvature="0" />
	<path style="fill:none;stroke:red;stroke-width:1px;stroke-linecap:butt;stroke-linejoin:miter;stroke-opacity:1" d="M 362.088,894.38 381.444,841.151 z" id="boundary" inkscape:connector-curvature="0" />
	<path style="fill:none;stroke:red;stroke-width:1px;stroke-linecap:butt;stroke-linejoin:miter;stroke-opacity:1" d="M 371.766,454.029 381.444,502.42 z" id="boundary" inkscape:connector-curvature="0" />
	<path style="fill:none;stroke:red;stroke-width:1px;stroke-linecap:butt;stroke-linejoin:miter;stroke-opacity:1" d="M 381.444,42.7122 395.961,91.1024 z" id="boundary" inkscape:connector-curvature="0" />
	<path style="fill:none;stroke:red;stroke-width:1px;stroke-linecap:butt;stroke-linejoin:miter;stroke-opacity:1" d="M 381.444,168.527 429.834,168.527 z" id="boundary" inkscape:connector-curvature="0" />
	<path style="fill:none;stroke:red;stroke-width:1px;stroke-linecap:butt;stroke-linejoin:miter;stroke-opacity:1" d="M 381.444,502.42 381.444,550.81 z" id="boundary" inkscape:connector-curvature="0" />
	<path style="fill:none;stroke:red;stroke-width:1px;stroke-linecap:butt;stroke-linejoin:miter;stroke-opacity:1" d="M 381.444,550.81 381.444,599.2 z" id="boundary" inkscape:connector-curvature="0" />
	<path style="fill:none;stroke:red;stroke-width:1px;stroke-linecap:butt;stroke-linejoin:miter;stroke-opacity:1" d="M 381.444,599.2 381.444,647.59 z" id="boundary" inkscape:connector-curvature="0" />
	<path style="fill:none;stroke:red;stroke-width:1px;stroke-linecap:butt;stroke-linejoin:miter;stroke-opacity:1" d="M 381.444,647.59 381.444,695.98 z" id="boundary" inkscape:connector-curvature="0" />
	<path style="fill:none;stroke:red;stroke-width:1px;stroke-linecap:butt;stroke-linejoin:miter;stroke-opacity:1" d="M 381.444,695.98 381.444,744.371 z" id="boundary" inkscape:connector-curvature="0" />
	<path style="fill:none;stroke:red;stroke-width:1px;stroke-linecap:butt;stroke-linejoin:miter;stroke-opacity:1" d="M 381.444,744.371 381.444,792.761 z" id="boundary" inkscape:connector-curvature="0" />
	<path style="fill:none;stroke:red;stroke-width:1px;stroke-linecap:butt;stroke-linejoin:miter;stroke-opacity:1" d="M 381.444,792.761 381.444,841.151 z" id="boundary" inkscape:connector-curvature="0" />
	<path style="fill:none;stroke:red;stroke-width:1px;stroke-linecap:butt;stroke-linejoin:miter;stroke-opacity:1" d="M 405.639,996 454.029,996 z" id="boundary" inkscape:connector-curvature="0" />
	<path style="fill:none;stroke:red;stroke-width:1px;stroke-linecap:butt;stroke-linejoin:miter;stroke-opacity:1" d="M 429.834,168.527 478.224,168.527 z" id="boundary" inkscape:connector-curvature="0" />
	<path style="fill:none;stroke:red;stroke-width:1px;stroke-linecap:butt;stroke-linejoin:miter;stroke-opacity:1" d="M 454.029,996 502.42,996 z" id="boundary" inkscape:connector-curvature="0" />
	<path style="fill:none;stroke:red;stroke-width:1px;stroke-linecap:butt;stroke-linejoin:miter;stroke-opacity:1" d="M 478.224,168.527 526.615,168.527 z" id="boundary" inkscape:connector-curvature="0" />
	<path style="fill:none;stroke:red;stroke-width:1px;stroke-linecap:butt;stroke-linejoin:miter;stroke-opacity:1" d="M 502.42,996 550.81,996 z" id="boundary" inkscape:connector-curvature="0" />
	<path style="fill:none;stroke:red;stroke-width:1px;stroke-linecap:butt;stroke-linejoin:miter;stroke-opacity:1" d="M 526.615,168.527 575.005,168.527 z" id="boundary" inkscape:connector-curvature="0" />
	<path style="fill:none;stroke:red;stroke-width:1px;stroke-linecap:butt;stroke-linejoin:miter;stroke-opacity:1" d="M 550.81,439.512 560.488,487.902 z" id="boundary" inkscape:connector-curvature="0" />
	<path style="fill:none;stroke:red;stroke-width:1px;stroke-linecap:butt;stroke-linejoin:miter;stroke-opacity:1" d="M 550.81,439.512 589.522,410.478 z" id="boundary" inkscape:connector-curvature="0" />
	<path style="fill:none;stroke:red;stroke-width:1px;stroke-linecap:butt;stroke-linejoin:miter;stroke-opacity:1" d="M 550.81,826.634 560.488,778.244 z" id="boundary" inkscape:connector-curvature="0" />
	<path style="fill:none;stroke:red;stroke-width:1px;stroke-linecap:butt;stroke-linejoin:miter;stroke-opacity:1" d="M 550.81,826.634 560.488,875.024 z" id="boundary" inkscape:connector-curvature="0" />
	<path style="fill:none;stroke:red;stroke-width:1px;stroke-linecap:butt;stroke-linejoin:miter;stroke-opacity:1" d="M 550.81,996 599.2,996 z" id="boundary" inkscape:connector-curvature="0" />
	<path style="fill:none;stroke:red;stroke-width:1px;stroke-linecap:butt;stroke-linejoin:miter;stroke-opacity:1" d="M 560.488,487.902 560.488,536.293 z" id="boundary" inkscape:connector-curvature="0" />
	<path style="fill:none;stroke:red;stroke-width:1px;stroke-linecap:butt;stroke-linejoin:miter;stroke-opacity:1" d="M 560.488,536.293 560.488,584.683 z" id="boundary" inkscape:connector-curvature="0" />
	<path style="fill:none;stroke:red;stroke-width:1px;stroke-linecap:butt;stroke-linejoin:miter;stroke-opacity:1" d="M 560.488,584.683 560.488,633.073 z" id="boundary" inkscape:connector-curvature="0" />
	<path style="fill:none;stroke:red;stroke-width:1px;stroke-linecap:butt;stroke-linejoin:miter;stroke-opacity:1" d="M 560.488,633.073 560.488,681.463 z" id="boundary" inkscape:connector-curvature="0" />
	<path style="fill:none;stroke:red;stroke-width:1px;stroke-linecap:butt;stroke-linejoin:miter;stroke-opacity:1" d="M 560.488,681.463 560.488,729.854 z" id="boundary" inkscape:connector-curvature="0" />
	<path style="fill:none;stroke:red;stroke-width:1px;stroke-linecap:butt;stroke-linejoin:miter;stroke-opacity:1" d="M 560.488,729.854 560.488,778.244 z" id="boundary" inkscape:connector-curvature="0" />
	<path style="fill:none;stroke:red;stroke-width:1px;stroke-linecap:butt;stroke-linejoin:miter;stroke-opacity:1" d="M 560.488,875.024 579.844,923.415 z" id="boundary" inkscape:connector-curvature="0" />
	<path style="fill:none;stroke:red;stroke-width:1px;stroke-linecap:butt;stroke-linejoin:miter;stroke-opacity:1" d="M 575.005,168.527 623.395,168.527 z" id="boundary" inkscape:connector-curvature="0" />
	<path style="fill:none;stroke:red;stroke-width:1px;stroke-linecap:butt;stroke-linejoin:miter;stroke-opacity:1" d="M 579.844,923.415 599.2,996 z" id="boundary" inkscape:connector-curvature="0" />
	<path style="fill:none;stroke:red;stroke-width:1px;stroke-linecap:butt;stroke-linejoin:miter;stroke-opacity:1" d="M 589.522,410.478 628.234,371.766 z" id="boundary" inkscape:connector-curvature="0" />
	<path style="fill:none;stroke:red;stroke-width:1px;stroke-linecap:butt;stroke-linejoin:miter;stroke-opacity:1" d="M 623.395,168.527 666.946,192.722 z" id="boundary" inkscape:connector-curvature="0" />
	<path style="fill:none;stroke:red;stroke-width:1px;stroke-linecap:butt;stroke-linejoin:miter;stroke-opacity:1" d="M 628.234,371.766 647.59,323.376 z" id="boundary" inkscape:connector-curvature="0" />
	<path style="fill:none;stroke:red;stroke-width:1px;stroke-linecap:butt;stroke-linejoin:miter;stroke-opacity:1" d="M 647.59,323.376 695.98,318.537 z" id="boundary" inkscape:connector-curvature="0" />
	<path style="fill:none;stroke:red;stroke-width:1px;stroke-linecap:butt;stroke-linejoin:miter;stroke-opacity:1" d="M 666.946,192.722 676.624,241.112 z" id="boundary" inkscape:connector-curvature="0" />
	<path style="fill:none;stroke:red;stroke-width:1px;stroke-linecap:butt;stroke-linejoin:miter;stroke-opacity:1" d="M 676.624,241.112 720.176,265.307 z" id="boundary" inkscape:connector-curvature="0" />
	<path style="fill:none;stroke:red;stroke-width:1px;stroke-linecap:butt;stroke-linejoin:miter;stroke-opacity:1" d="M 695.98,318.537 744.371,318.537 z" id="boundary" inkscape:connector-curvature="0" />
	<path style="fill:none;stroke:red;stroke-width:1px;stroke-linecap:butt;stroke-linejoin:miter;stroke-opacity:1" d="M 720.176,265.307 768.566,265.307 z" id="boundary" inkscape:connector-curvature="0" />
	<path style="fill:none;stroke:red;stroke-width:1px;stroke-linecap:butt;stroke-linejoin:miter;stroke-opacity:1" d="M 744.371,318.537 792.761,318.537 z" id="boundary" inkscape:connector-curvature="0" />
	<path style="fill:none;stroke:red;stroke-width:1px;stroke-linecap:butt;stroke-linejoin:miter;stroke-opacity:1" d="M 768.566,265.307 792.761,318.537 z" id="boundary" inkscape:connector-curvature="0" />
	<circle cx="4" cy="187.883" r="4" fill="#0" id="circle0"/>
	<circle cx="4" cy="236.273" r="4" fill="#0" id="circle1"/>
	<circle cx="4" cy="284.663" r="4" fill="#0" id="circle2"/>
	<circle cx="42.7122" cy="318.537" r="4" fill="#0" id="circle3"/>
	<circle cx="52.3902" cy="168.527" r="4" fill="#0" id="circle4"/>
	<circle cx="91.1024" cy="318.537" r="4" fill="#0" id="circle5"/>
	<circle cx="100.78" cy="168.527" r="4" fill="#0" id="circle6"/>
	<circle cx="139.493" cy="318.537" r="4" fill="#0" id="circle7"/>
	<circle cx="149.171" cy="168.527" r="4" fill="#0" id="circle8"/>
	<circle cx="187.883" cy="318.537" r="4" fill="#0" id="circle9"/>
	<circle cx="197.561" cy="168.527" r="4" fill="#0" id="circle10"/>
	<circle cx="212.078" cy="362.088" r="4" fill="#0" id="circle11"/>
	<circle cx="241.112" cy="400.8" r="4" fill="#0" id="circle12"/>
	<circle cx="245.951" cy="168.527" r="4" fill="#0" id="circle13"/>
	<circle cx="279.824" cy="429.834" r="4" fill="#0" id="circle14"/>
	<circle cx="294.341" cy="81.4244" r="4" fill="#0" id="circle15"/>
	<circle cx="294.341" cy="129.815" r="4" fill="#0" id="circle16"/>
	<circle cx="313.698" cy="33.0341" r="4" fill="#0" id="circle17"/>
	<circle cx="323.376" cy="454.029" r="4" fill="#0" id="circle18"/>
	<circle cx="333.054" cy="163.688" r="4" fill="#0" id="circle19"/>
	<circle cx="333.054" cy="952.449" r="4" fill="#0" id="circle20"/>
	<circle cx="352.41" cy="4" r="4" fill="#0" id="circle21"/>
	<circle cx="357.249" cy="996" r="4" fill="#0" id="circle22"/>
	<circle cx="362.088" cy="894.38" r="4" fill="#0" id="circle23"/>
	<circle cx="371.766" cy="454.029" r="4" fill="#0" id="circle24"/>
	<circle cx="381.444" cy="42.7122" r="4" fill="#0" id="circle25"/>
	<circle cx="381.444" cy="168.527" r="4" fill="#0" id="circle26"/>
	<circle cx="381.444" cy="502.42" r="4" fill="#0" id="circle27"/>
	<circle cx="381.444" cy="550.81" r="4" fill="#0" id="circle28"/>
	<circle cx="381.444" cy="599.2" r="4" fill="#0" id="circle29"/>
	<circle cx="381.444" cy="647.59" r="4" fill="#0" id="circle30"/>
	<circle cx="381.444" cy="695.98" r="4" fill="#0" id="circle31"/>
	<circle cx="381.444" cy="744.371" r="4" fill="#0" id="circle32"/>
	<circle cx="381.444" cy="792.761" r="4" fill="#0" id="circle33"/>
	<circle cx="381.444" cy="841.151" r="4" fill="#0" id="circle34"/>
	<circle cx="395.961" cy="91.1024" r="4" fill="#0" id="circle35"/>
	<circle cx="405.639" cy="996" r="4" fill="#0" id="circle36"/>
	<circle cx="429.834" cy="168.527" r="4" fill="#0" id="circle37"/>
	<circle cx="454.029" cy="996" r="4" fill="#0" id="circle38"/>
	<circle cx="478.224" cy="168.527" r="4" fill="#0" id="circle39"/>
	<circle cx="502.42" cy="996" r="4" fill="#0" id="circle40"/>
	<circle cx="526.615" cy="168.527" r="4" fill="#0" id="circle41"/>
	<circle cx="550.81" cy="439.512" r="4" fill="#0" id="circle42"/>
	<circle cx="550.81" cy="826.634" r="4" fill="#0" id="circle43"/>
	<circle cx="550.81" cy="996" r="4" fill="#0" id="circle44"/>
	<circle cx="560.488" cy="487.902" r="4" fill="#0" id="circle45"/>
	<circle cx="560.488" cy="536.293" r="4" fill="#0" id="circle46"/>
	<circle cx="560.488" cy="584.683" r="4" fill="#0" id="circle47"/>
	<circle cx="560.488" cy="633.073" r="4" fill="#0" id="circle48"/>
	<circle cx="560.488" cy="681.463" r="4" fill="#0" id="circle49"/>
	<circle cx="560.488" cy="729.854" r="4" fill="#0" id="circle50"/>
	<circle cx="560.488" cy="778.244" r="4" fill="#0" id="circle51"/>
	<circle cx="560.488" cy="875.024" r="4" fill="#0" id="circle52"/>
	<circle cx="575.005" cy="168.527" r="4" fill="#0" id="circle53"/>
	<circle cx="579.844" cy="923.415" r="4" fill="#0" id="circle54"/>
	<circle cx="589.522" cy="410.478" r="4" fill="#0" id="circle55"/>
	<circle cx="599.2" cy="996" r="4" fill="#0" id="circle56"/>
	<circle cx="623.395" cy="168.527" r="4" fill="#0" id="circle57"/>
	<circle cx="628.234" cy="371.766" r="4" fill="#0" id="circle58"/>
	<circle cx="647.59" cy="323.376" r="4" fill="#0" id="circle59"/>
	<circle cx="666.946" cy="192.722" r="4" fill="#0" id="circle60"/>
	<circle cx="676.624" cy="241.112" r="4" fill="#0" id="circle61"/>
	<circle cx="695.98" cy="318.537" r="4" fill="#0" id="circle62"/>
	<circle cx="720.176" cy="265.307" r="4" fill="#0" id="circle63"/>
	<circle cx="744.371" cy="318.537" r="4" fill="#0" id="circle64"/>
	<circle cx="768.566" cy="265.307" r="4" fill="#0" id="circle65"/>
	<circle cx="792.761" cy="318.537" r="4" fill="#0" id="circle66"/>
	</g>
</svg>