<?xml version="1.0" encoding="UTF-8" standalone="no"?>
<!-- Created with CurveBenchmark -->
<svg
	xmlns:dc="http://purl.org/dc/elements/1.1/"
	xmlns:cc="http://creativecommons.org/ns#"
	xmlns:rdf="http://www.w3.org/1999/02/22-rdf-syntax-ns#"
	xmlns:svg="http://www.w3.org/2000/svg"
	xmlns="http://www.w3.org/2000/svg"
	xmlns:sodipodi="http://sodipodi.sourceforge.net/DTD/sodipodi-0.dtd"
	xmlns:inkscape="http://www.inkscape.org/namespaces/inkscape"
	width="1000"
	height="1000"
	id="svg2"
	version="1.1"
	sodipodi:docname="manifold/vicur-fork25.png.txt">
<defs
	id="defs4" />
<metadata
	id="metadata7">
	<rdf:RDF>
		<cc:Work
			rdf:about="">
			<dc:format>image/svg+xml</dc:format>
			<dc:type
				rdf:resource="http://purl.org/dc/dcmitype/StillImage" />
			<dc:title></dc:title>
		</cc:Work>
	</rdf:RDF>
</metadata>
<g
	inkscape:label="Layer 1"
	inkscape:groupmode="layer"
	id="layer1">
	<path style="fill:none;stroke:red;stroke-width:1px;stroke-linecap:butt;stroke-linejoin:miter;stroke-opacity:1" d="M 4,316.296 14.2058,334.667 z" id="boundary" inkscape:connector-curvature="0" />
	<path style="fill:none;stroke:red;stroke-width:1px;stroke-linecap:butt;stroke-linejoin:miter;stroke-opacity:1" d="M 4,316.296 20.3292,299.967 z" id="boundary" inkscape:connector-curvature="0" />
	<path style="fill:none;stroke:red;stroke-width:1px;stroke-linecap:butt;stroke-linejoin:miter;stroke-opacity:1" d="M 14.2058,334.667 28.4938,350.996 z" id="boundary" inkscape:connector-curvature="0" />
	<path style="fill:none;stroke:red;stroke-width:1px;stroke-linecap:butt;stroke-linejoin:miter;stroke-opacity:1" d="M 20.3292,299.967 36.6584,283.638 z" id="boundary" inkscape:connector-curvature="0" />
	<path style="fill:none;stroke:red;stroke-width:1px;stroke-linecap:butt;stroke-linejoin:miter;stroke-opacity:1" d="M 28.4938,350.996 44.823,363.243 z" id="boundary" inkscape:connector-curvature="0" />
	<path style="fill:none;stroke:red;stroke-width:1px;stroke-linecap:butt;stroke-linejoin:miter;stroke-opacity:1" d="M 36.6584,283.638 57.07,285.679 z" id="boundary" inkscape:connector-curvature="0" />
	<path style="fill:none;stroke:red;stroke-width:1px;stroke-linecap:butt;stroke-linejoin:miter;stroke-opacity:1" d="M 44.823,363.243 57.07,379.572 z" id="boundary" inkscape:connector-curvature="0" />
	<path style="fill:none;stroke:red;stroke-width:1px;stroke-linecap:butt;stroke-linejoin:miter;stroke-opacity:1" d="M 57.07,285.679 71.358,302.008 z" id="boundary" inkscape:connector-curvature="0" />
	<path style="fill:none;stroke:red;stroke-width:1px;stroke-linecap:butt;stroke-linejoin:miter;stroke-opacity:1" d="M 57.07,379.572 73.3992,393.86 z" id="boundary" inkscape:connector-curvature="0" />
	<path style="fill:none;stroke:red;stroke-width:1px;stroke-linecap:butt;stroke-linejoin:miter;stroke-opacity:1" d="M 71.358,302.008 91.7695,310.173 z" id="boundary" inkscape:connector-curvature="0" />
	<path style="fill:none;stroke:red;stroke-width:1px;stroke-linecap:butt;stroke-linejoin:miter;stroke-opacity:1" d="M 73.3992,393.86 93.8107,393.86 z" id="boundary" inkscape:connector-curvature="0" />
	<path style="fill:none;stroke:red;stroke-width:1px;stroke-linecap:butt;stroke-linejoin:miter;stroke-opacity:1" d="M 75.4403,224.444 91.7695,208.115 z" id="boundary" inkscape:connector-curvature="0" />
	<path style="fill:none;stroke:red;stroke-width:1px;stroke-linecap:butt;stroke-linejoin:miter;stroke-opacity:1" d="M 75.4403,224.444 91.7695,238.733 z" id="boundary" inkscape:connector-curvature="0" />
	<path style="fill:none;stroke:red;stroke-width:1px;stroke-linecap:butt;stroke-linejoin:miter;stroke-opacity:1" d="M 91.7695,208.115 108.099,191.786 z" id="boundary" inkscape:connector-curvature="0" />
	<path style="fill:none;stroke:red;stroke-width:1px;stroke-linecap:butt;stroke-linejoin:miter;stroke-opacity:1" d="M 91.7695,238.733 106.058,255.062 z" id="boundary" inkscape:connector-curvature="0" />
	<path style="fill:none;stroke:red;stroke-width:1px;stroke-linecap:butt;stroke-linejoin:miter;stroke-opacity:1" d="M 91.7695,310.173 106.058,326.502 z" id="boundary" inkscape:connector-curvature="0" />
	<path style="fill:none;stroke:red;stroke-width:1px;stroke-linecap:butt;stroke-linejoin:miter;stroke-opacity:1" d="M 93.8107,393.86 108.099,410.189 z" id="boundary" inkscape:connector-curvature="0" />
	<path style="fill:none;stroke:red;stroke-width:1px;stroke-linecap:butt;stroke-linejoin:miter;stroke-opacity:1" d="M 106.058,255.062 122.387,269.35 z" id="boundary" inkscape:connector-curvature="0" />
	<path style="fill:none;stroke:red;stroke-width:1px;stroke-linecap:butt;stroke-linejoin:miter;stroke-opacity:1" d="M 106.058,326.502 122.387,340.79 z" id="boundary" inkscape:connector-curvature="0" />
	<path style="fill:none;stroke:red;stroke-width:1px;stroke-linecap:butt;stroke-linejoin:miter;stroke-opacity:1" d="M 108.099,191.786 128.51,197.909 z" id="boundary" inkscape:connector-curvature="0" />
	<path style="fill:none;stroke:red;stroke-width:1px;stroke-linecap:butt;stroke-linejoin:miter;stroke-opacity:1" d="M 108.099,410.189 124.428,424.477 z" id="boundary" inkscape:connector-curvature="0" />
	<path style="fill:none;stroke:red;stroke-width:1px;stroke-linecap:butt;stroke-linejoin:miter;stroke-opacity:1" d="M 122.387,269.35 136.675,285.679 z" id="boundary" inkscape:connector-curvature="0" />
	<path style="fill:none;stroke:red;stroke-width:1px;stroke-linecap:butt;stroke-linejoin:miter;stroke-opacity:1" d="M 122.387,340.79 136.675,357.119 z" id="boundary" inkscape:connector-curvature="0" />
	<path style="fill:none;stroke:red;stroke-width:1px;stroke-linecap:butt;stroke-linejoin:miter;stroke-opacity:1" d="M 124.428,424.477 138.716,440.807 z" id="boundary" inkscape:connector-curvature="0" />
	<path style="fill:none;stroke:red;stroke-width:1px;stroke-linecap:butt;stroke-linejoin:miter;stroke-opacity:1" d="M 128.51,197.909 148.922,204.033 z" id="boundary" inkscape:connector-curvature="0" />
	<path style="fill:none;stroke:red;stroke-width:1px;stroke-linecap:butt;stroke-linejoin:miter;stroke-opacity:1" d="M 136.675,285.679 153.004,299.967 z" id="boundary" inkscape:connector-curvature="0" />
	<path style="fill:none;stroke:red;stroke-width:1px;stroke-linecap:butt;stroke-linejoin:miter;stroke-opacity:1" d="M 136.675,357.119 153.004,371.407 z" id="boundary" inkscape:connector-curvature="0" />
	<path style="fill:none;stroke:red;stroke-width:1px;stroke-linecap:butt;stroke-linejoin:miter;stroke-opacity:1" d="M 138.716,440.807 155.045,455.095 z" id="boundary" inkscape:connector-curvature="0" />
	<path style="fill:none;stroke:red;stroke-width:1px;stroke-linecap:butt;stroke-linejoin:miter;stroke-opacity:1" d="M 148.922,204.033 163.21,220.362 z" id="boundary" inkscape:connector-curvature="0" />
	<path style="fill:none;stroke:red;stroke-width:1px;stroke-linecap:butt;stroke-linejoin:miter;stroke-opacity:1" d="M 153.004,299.967 167.292,316.296 z" id="boundary" inkscape:connector-curvature="0" />
	<path style="fill:none;stroke:red;stroke-width:1px;stroke-linecap:butt;stroke-linejoin:miter;stroke-opacity:1" d="M 153.004,371.407 167.292,387.737 z" id="boundary" inkscape:connector-curvature="0" />
	<path style="fill:none;stroke:red;stroke-width:1px;stroke-linecap:butt;stroke-linejoin:miter;stroke-opacity:1" d="M 155.045,455.095 173.416,465.3 z" id="boundary" inkscape:connector-curvature="0" />
	<path style="fill:none;stroke:red;stroke-width:1px;stroke-linecap:butt;stroke-linejoin:miter;stroke-opacity:1" d="M 157.086,132.593 167.292,150.963 z" id="boundary" inkscape:connector-curvature="0" />
	<path style="fill:none;stroke:red;stroke-width:1px;stroke-linecap:butt;stroke-linejoin:miter;stroke-opacity:1" d="M 157.086,132.593 173.416,116.263 z" id="boundary" inkscape:connector-curvature="0" />
	<path style="fill:none;stroke:red;stroke-width:1px;stroke-linecap:butt;stroke-linejoin:miter;stroke-opacity:1" d="M 163.21,220.362 179.539,234.65 z" id="boundary" inkscape:connector-curvature="0" />
	<path style="fill:none;stroke:red;stroke-width:1px;stroke-linecap:butt;stroke-linejoin:miter;stroke-opacity:1" d="M 167.292,150.963 181.58,167.292 z" id="boundary" inkscape:connector-curvature="0" />
	<path style="fill:none;stroke:red;stroke-width:1px;stroke-linecap:butt;stroke-linejoin:miter;stroke-opacity:1" d="M 167.292,316.296 183.621,330.584 z" id="boundary" inkscape:connector-curvature="0" />
	<path style="fill:none;stroke:red;stroke-width:1px;stroke-linecap:butt;stroke-linejoin:miter;stroke-opacity:1" d="M 167.292,387.737 187.704,391.819 z" id="boundary" inkscape:connector-curvature="0" />
	<path style="fill:none;stroke:red;stroke-width:1px;stroke-linecap:butt;stroke-linejoin:miter;stroke-opacity:1" d="M 173.416,116.263 189.745,99.9342 z" id="boundary" inkscape:connector-curvature="0" />
	<path style="fill:none;stroke:red;stroke-width:1px;stroke-linecap:butt;stroke-linejoin:miter;stroke-opacity:1" d="M 173.416,465.3 189.745,479.588 z" id="boundary" inkscape:connector-curvature="0" />
	<path style="fill:none;stroke:red;stroke-width:1px;stroke-linecap:butt;stroke-linejoin:miter;stroke-opacity:1" d="M 179.539,234.65 195.868,248.938 z" id="boundary" inkscape:connector-curvature="0" />
	<path style="fill:none;stroke:red;stroke-width:1px;stroke-linecap:butt;stroke-linejoin:miter;stroke-opacity:1" d="M 181.58,167.292 201.992,175.457 z" id="boundary" inkscape:connector-curvature="0" />
	<path style="fill:none;stroke:red;stroke-width:1px;stroke-linecap:butt;stroke-linejoin:miter;stroke-opacity:1" d="M 183.621,330.584 197.909,346.914 z" id="boundary" inkscape:connector-curvature="0" />
	<path style="fill:none;stroke:red;stroke-width:1px;stroke-linecap:butt;stroke-linejoin:miter;stroke-opacity:1" d="M 187.704,391.819 204.033,404.066 z" id="boundary" inkscape:connector-curvature="0" />
	<path style="fill:none;stroke:red;stroke-width:1px;stroke-linecap:butt;stroke-linejoin:miter;stroke-opacity:1" d="M 189.745,99.9342 208.115,110.14 z" id="boundary" inkscape:connector-curvature="0" />
	<path style="fill:none;stroke:red;stroke-width:1px;stroke-linecap:butt;stroke-linejoin:miter;stroke-opacity:1" d="M 189.745,479.588 204.033,495.918 z" id="boundary" inkscape:connector-curvature="0" />
	<path style="fill:none;stroke:red;stroke-width:1px;stroke-linecap:butt;stroke-linejoin:miter;stroke-opacity:1" d="M 195.868,248.938 214.239,259.144 z" id="boundary" inkscape:connector-curvature="0" />
	<path style="fill:none;stroke:red;stroke-width:1px;stroke-linecap:butt;stroke-linejoin:miter;stroke-opacity:1" d="M 197.909,346.914 218.321,353.037 z" id="boundary" inkscape:connector-curvature="0" />
	<path style="fill:none;stroke:red;stroke-width:1px;stroke-linecap:butt;stroke-linejoin:miter;stroke-opacity:1" d="M 201.992,175.457 218.321,189.745 z" id="boundary" inkscape:connector-curvature="0" />
	<path style="fill:none;stroke:red;stroke-width:1px;stroke-linecap:butt;stroke-linejoin:miter;stroke-opacity:1" d="M 204.033,404.066 220.362,418.354 z" id="boundary" inkscape:connector-curvature="0" />
	<path style="fill:none;stroke:red;stroke-width:1px;stroke-linecap:butt;stroke-linejoin:miter;stroke-opacity:1" d="M 204.033,495.918 220.362,510.206 z" id="boundary" inkscape:connector-curvature="0" />
	<path style="fill:none;stroke:red;stroke-width:1px;stroke-linecap:butt;stroke-linejoin:miter;stroke-opacity:1" d="M 208.115,110.14 220.362,126.469 z" id="boundary" inkscape:connector-curvature="0" />
	<path style="fill:none;stroke:red;stroke-width:1px;stroke-linecap:butt;stroke-linejoin:miter;stroke-opacity:1" d="M 214.239,259.144 228.527,275.473 z" id="boundary" inkscape:connector-curvature="0" />
	<path style="fill:none;stroke:red;stroke-width:1px;stroke-linecap:butt;stroke-linejoin:miter;stroke-opacity:1" d="M 218.321,189.745 230.568,206.074 z" id="boundary" inkscape:connector-curvature="0" />
	<path style="fill:none;stroke:red;stroke-width:1px;stroke-linecap:butt;stroke-linejoin:miter;stroke-opacity:1" d="M 218.321,353.037 236.691,363.243 z" id="boundary" inkscape:connector-curvature="0" />
	<path style="fill:none;stroke:red;stroke-width:1px;stroke-linecap:butt;stroke-linejoin:miter;stroke-opacity:1" d="M 220.362,126.469 236.691,138.716 z" id="boundary" inkscape:connector-curvature="0" />
	<path style="fill:none;stroke:red;stroke-width:1px;stroke-linecap:butt;stroke-linejoin:miter;stroke-opacity:1" d="M 220.362,418.354 236.691,432.642 z" id="boundary" inkscape:connector-curvature="0" />
	<path style="fill:none;stroke:red;stroke-width:1px;stroke-linecap:butt;stroke-linejoin:miter;stroke-opacity:1" d="M 220.362,510.206 234.65,526.535 z" id="boundary" inkscape:connector-curvature="0" />
	<path style="fill:none;stroke:red;stroke-width:1px;stroke-linecap:butt;stroke-linejoin:miter;stroke-opacity:1" d="M 228.527,30.535 228.527,50.9465 z" id="boundary" inkscape:connector-curvature="0" />
	<path style="fill:none;stroke:red;stroke-width:1px;stroke-linecap:butt;stroke-linejoin:miter;stroke-opacity:1" d="M 228.527,30.535 244.856,14.2058 z" id="boundary" inkscape:connector-curvature="0" />
	<path style="fill:none;stroke:red;stroke-width:1px;stroke-linecap:butt;stroke-linejoin:miter;stroke-opacity:1" d="M 228.527,50.9465 248.938,57.07 z" id="boundary" inkscape:connector-curvature="0" />
	<path style="fill:none;stroke:red;stroke-width:1px;stroke-linecap:butt;stroke-linejoin:miter;stroke-opacity:1" d="M 228.527,275.473 244.856,289.761 z" id="boundary" inkscape:connector-curvature="0" />
	<path style="fill:none;stroke:red;stroke-width:1px;stroke-linecap:butt;stroke-linejoin:miter;stroke-opacity:1" d="M 230.568,206.074 246.897,220.362 z" id="boundary" inkscape:connector-curvature="0" />
	<path style="fill:none;stroke:red;stroke-width:1px;stroke-linecap:butt;stroke-linejoin:miter;stroke-opacity:1" d="M 234.65,526.535 255.062,526.535 z" id="boundary" inkscape:connector-curvature="0" />
	<path style="fill:none;stroke:red;stroke-width:1px;stroke-linecap:butt;stroke-linejoin:miter;stroke-opacity:1" d="M 236.691,138.716 250.979,155.045 z" id="boundary" inkscape:connector-curvature="0" />
	<path style="fill:none;stroke:red;stroke-width:1px;stroke-linecap:butt;stroke-linejoin:miter;stroke-opacity:1" d="M 236.691,363.243 250.979,379.572 z" id="boundary" inkscape:connector-curvature="0" />
	<path style="fill:none;stroke:red;stroke-width:1px;stroke-linecap:butt;stroke-linejoin:miter;stroke-opacity:1" d="M 236.691,432.642 255.062,422.436 z" id="boundary" inkscape:connector-curvature="0" />
	<path style="fill:none;stroke:red;stroke-width:1px;stroke-linecap:butt;stroke-linejoin:miter;stroke-opacity:1" d="M 244.856,14.2058 263.226,4 z" id="boundary" inkscape:connector-curvature="0" />
	<path style="fill:none;stroke:red;stroke-width:1px;stroke-linecap:butt;stroke-linejoin:miter;stroke-opacity:1" d="M 244.856,289.761 259.144,306.091 z" id="boundary" inkscape:connector-curvature="0" />
	<path style="fill:none;stroke:red;stroke-width:1px;stroke-linecap:butt;stroke-linejoin:miter;stroke-opacity:1" d="M 246.897,220.362 261.185,236.691 z" id="boundary" inkscape:connector-curvature="0" />
	<path style="fill:none;stroke:red;stroke-width:1px;stroke-linecap:butt;stroke-linejoin:miter;stroke-opacity:1" d="M 248.938,57.07 261.185,73.3992 z" id="boundary" inkscape:connector-curvature="0" />
	<path style="fill:none;stroke:red;stroke-width:1px;stroke-linecap:butt;stroke-linejoin:miter;stroke-opacity:1" d="M 250.979,155.045 267.309,167.292 z" id="boundary" inkscape:connector-curvature="0" />
	<path style="fill:none;stroke:red;stroke-width:1px;stroke-linecap:butt;stroke-linejoin:miter;stroke-opacity:1" d="M 250.979,379.572 267.309,393.86 z" id="boundary" inkscape:connector-curvature="0" />
	<path style="fill:none;stroke:red;stroke-width:1px;stroke-linecap:butt;stroke-linejoin:miter;stroke-opacity:1" d="M 255.062,422.436 267.309,393.86 z" id="boundary" inkscape:connector-curvature="0" />
	<path style="fill:none;stroke:red;stroke-width:1px;stroke-linecap:butt;stroke-linejoin:miter;stroke-opacity:1" d="M 255.062,526.535 271.391,540.823 z" id="boundary" inkscape:connector-curvature="0" />
	<path style="fill:none;stroke:red;stroke-width:1px;stroke-linecap:butt;stroke-linejoin:miter;stroke-opacity:1" d="M 259.144,306.091 275.473,320.379 z" id="boundary" inkscape:connector-curvature="0" />
	<path style="fill:none;stroke:red;stroke-width:1px;stroke-linecap:butt;stroke-linejoin:miter;stroke-opacity:1" d="M 261.185,73.3992 277.514,87.6872 z" id="boundary" inkscape:connector-curvature="0" />
	<path style="fill:none;stroke:red;stroke-width:1px;stroke-linecap:butt;stroke-linejoin:miter;stroke-opacity:1" d="M 261.185,236.691 277.514,250.979 z" id="boundary" inkscape:connector-curvature="0" />
	<path style="fill:none;stroke:red;stroke-width:1px;stroke-linecap:butt;stroke-linejoin:miter;stroke-opacity:1" d="M 263.226,4 279.556,18.2881 z" id="boundary" inkscape:connector-curvature="0" />
	<path style="fill:none;stroke:red;stroke-width:1px;stroke-linecap:butt;stroke-linejoin:miter;stroke-opacity:1" d="M 267.309,167.292 287.72,169.333 z" id="boundary" inkscape:connector-curvature="0" />
	<path style="fill:none;stroke:red;stroke-width:1px;stroke-linecap:butt;stroke-linejoin:miter;stroke-opacity:1" d="M 271.391,540.823 285.679,557.152 z" id="boundary" inkscape:connector-curvature="0" />
	<path style="fill:none;stroke:red;stroke-width:1px;stroke-linecap:butt;stroke-linejoin:miter;stroke-opacity:1" d="M 275.473,320.379 295.885,320.379 z" id="boundary" inkscape:connector-curvature="0" />
	<path style="fill:none;stroke:red;stroke-width:1px;stroke-linecap:butt;stroke-linejoin:miter;stroke-opacity:1" d="M 277.514,87.6872 291.802,104.016 z" id="boundary" inkscape:connector-curvature="0" />
	<path style="fill:none;stroke:red;stroke-width:1px;stroke-linecap:butt;stroke-linejoin:miter;stroke-opacity:1" d="M 277.514,250.979 291.802,267.309 z" id="boundary" inkscape:connector-curvature="0" />
	<path style="fill:none;stroke:red;stroke-width:1px;stroke-linecap:butt;stroke-linejoin:miter;stroke-opacity:1" d="M 279.556,18.2881 291.802,34.6173 z" id="boundary" inkscape:connector-curvature="0" />
	<path style="fill:none;stroke:red;stroke-width:1px;stroke-linecap:butt;stroke-linejoin:miter;stroke-opacity:1" d="M 285.679,557.152 304.049,567.358 z" id="boundary" inkscape:connector-curvature="0" />
	<path style="fill:none;stroke:red;stroke-width:1px;stroke-linecap:butt;stroke-linejoin:miter;stroke-opacity:1" d="M 287.72,169.333 302.008,185.663 z" id="boundary" inkscape:connector-curvature="0" />
	<path style="fill:none;stroke:red;stroke-width:1px;stroke-linecap:butt;stroke-linejoin:miter;stroke-opacity:1" d="M 291.802,34.6173 310.173,44.823 z" id="boundary" inkscape:connector-curvature="0" />
	<path style="fill:none;stroke:red;stroke-width:1px;stroke-linecap:butt;stroke-linejoin:miter;stroke-opacity:1" d="M 291.802,104.016 308.132,118.305 z" id="boundary" inkscape:connector-curvature="0" />
	<path style="fill:none;stroke:red;stroke-width:1px;stroke-linecap:butt;stroke-linejoin:miter;stroke-opacity:1" d="M 291.802,267.309 308.132,281.597 z" id="boundary" inkscape:connector-curvature="0" />
	<path style="fill:none;stroke:red;stroke-width:1px;stroke-linecap:butt;stroke-linejoin:miter;stroke-opacity:1" d="M 295.885,320.379 310.173,336.708 z" id="boundary" inkscape:connector-curvature="0" />
	<path style="fill:none;stroke:red;stroke-width:1px;stroke-linecap:butt;stroke-linejoin:miter;stroke-opacity:1" d="M 302.008,185.663 318.337,199.951 z" id="boundary" inkscape:connector-curvature="0" />
	<path style="fill:none;stroke:red;stroke-width:1px;stroke-linecap:butt;stroke-linejoin:miter;stroke-opacity:1" d="M 304.049,567.358 324.461,567.358 z" id="boundary" inkscape:connector-curvature="0" />
	<path style="fill:none;stroke:red;stroke-width:1px;stroke-linecap:butt;stroke-linejoin:miter;stroke-opacity:1" d="M 308.132,118.305 322.42,134.634 z" id="boundary" inkscape:connector-curvature="0" />
	<path style="fill:none;stroke:red;stroke-width:1px;stroke-linecap:butt;stroke-linejoin:miter;stroke-opacity:1" d="M 308.132,281.597 322.42,297.926 z" id="boundary" inkscape:connector-curvature="0" />
	<path style="fill:none;stroke:red;stroke-width:1px;stroke-linecap:butt;stroke-linejoin:miter;stroke-opacity:1" d="M 310.173,44.823 326.502,57.07 z" id="boundary" inkscape:connector-curvature="0" />
	<path style="fill:none;stroke:red;stroke-width:1px;stroke-linecap:butt;stroke-linejoin:miter;stroke-opacity:1" d="M 310.173,336.708 330.584,338.749 z" id="boundary" inkscape:connector-curvature="0" />
	<path style="fill:none;stroke:red;stroke-width:1px;stroke-linecap:butt;stroke-linejoin:miter;stroke-opacity:1" d="M 318.337,199.951 336.708,210.156 z" id="boundary" inkscape:connector-curvature="0" />
	<path style="fill:none;stroke:red;stroke-width:1px;stroke-linecap:butt;stroke-linejoin:miter;stroke-opacity:1" d="M 322.42,134.634 338.749,148.922 z" id="boundary" inkscape:connector-curvature="0" />
	<path style="fill:none;stroke:red;stroke-width:1px;stroke-linecap:butt;stroke-linejoin:miter;stroke-opacity:1" d="M 322.42,297.926 330.584,318.337 z" id="boundary" inkscape:connector-curvature="0" />
	<path style="fill:none;stroke:red;stroke-width:1px;stroke-linecap:butt;stroke-linejoin:miter;stroke-opacity:1" d="M 324.461,567.358 340.79,551.029 z" id="boundary" inkscape:connector-curvature="0" />
	<path style="fill:none;stroke:red;stroke-width:1px;stroke-linecap:butt;stroke-linejoin:miter;stroke-opacity:1" d="M 326.502,57.07 342.831,71.358 z" id="boundary" inkscape:connector-curvature="0" />
	<path style="fill:none;stroke:red;stroke-width:1px;stroke-linecap:butt;stroke-linejoin:miter;stroke-opacity:1" d="M 330.584,318.337 330.584,338.749 z" id="boundary" inkscape:connector-curvature="0" />
	<path style="fill:none;stroke:red;stroke-width:1px;stroke-linecap:butt;stroke-linejoin:miter;stroke-opacity:1" d="M 336.708,210.156 353.037,224.444 z" id="boundary" inkscape:connector-curvature="0" />
	<path style="fill:none;stroke:red;stroke-width:1px;stroke-linecap:butt;stroke-linejoin:miter;stroke-opacity:1" d="M 338.749,148.922 353.037,165.251 z" id="boundary" inkscape:connector-curvature="0" />
	<path style="fill:none;stroke:red;stroke-width:1px;stroke-linecap:butt;stroke-linejoin:miter;stroke-opacity:1" d="M 340.79,551.029 353.037,526.535 z" id="boundary" inkscape:connector-curvature="0" />
	<path style="fill:none;stroke:red;stroke-width:1px;stroke-linecap:butt;stroke-linejoin:miter;stroke-opacity:1" d="M 342.831,71.358 357.119,87.6872 z" id="boundary" inkscape:connector-curvature="0" />
	<path style="fill:none;stroke:red;stroke-width:1px;stroke-linecap:butt;stroke-linejoin:miter;stroke-opacity:1" d="M 353.037,165.251 373.449,173.416 z" id="boundary" inkscape:connector-curvature="0" />
	<path style="fill:none;stroke:red;stroke-width:1px;stroke-linecap:butt;stroke-linejoin:miter;stroke-opacity:1" d="M 353.037,224.444 367.325,240.774 z" id="boundary" inkscape:connector-curvature="0" />
	<path style="fill:none;stroke:red;stroke-width:1px;stroke-linecap:butt;stroke-linejoin:miter;stroke-opacity:1" d="M 353.037,526.535 369.366,512.247 z" id="boundary" inkscape:connector-curvature="0" />
	<path style="fill:none;stroke:red;stroke-width:1px;stroke-linecap:butt;stroke-linejoin:miter;stroke-opacity:1" d="M 357.119,87.6872 373.449,101.975 z" id="boundary" inkscape:connector-curvature="0" />
	<path style="fill:none;stroke:red;stroke-width:1px;stroke-linecap:butt;stroke-linejoin:miter;stroke-opacity:1" d="M 367.325,240.774 383.654,255.062 z" id="boundary" inkscape:connector-curvature="0" />
	<path style="fill:none;stroke:red;stroke-width:1px;stroke-linecap:butt;stroke-linejoin:miter;stroke-opacity:1" d="M 369.366,512.247 383.654,495.918 z" id="boundary" inkscape:connector-curvature="0" />
	<path style="fill:none;stroke:red;stroke-width:1px;stroke-linecap:butt;stroke-linejoin:miter;stroke-opacity:1" d="M 373.449,101.975 389.778,116.263 z" id="boundary" inkscape:connector-curvature="0" />
	<path style="fill:none;stroke:red;stroke-width:1px;stroke-linecap:butt;stroke-linejoin:miter;stroke-opacity:1" d="M 373.449,173.416 387.737,189.745 z" id="boundary" inkscape:connector-curvature="0" />
	<path style="fill:none;stroke:red;stroke-width:1px;stroke-linecap:butt;stroke-linejoin:miter;stroke-opacity:1" d="M 383.654,255.062 402.025,244.856 z" id="boundary" inkscape:connector-curvature="0" />
	<path style="fill:none;stroke:red;stroke-width:1px;stroke-linecap:butt;stroke-linejoin:miter;stroke-opacity:1" d="M 383.654,495.918 402.025,485.712 z" id="boundary" inkscape:connector-curvature="0" />
	<path style="fill:none;stroke:red;stroke-width:1px;stroke-linecap:butt;stroke-linejoin:miter;stroke-opacity:1" d="M 387.737,189.745 404.066,204.033 z" id="boundary" inkscape:connector-curvature="0" />
	<path style="fill:none;stroke:red;stroke-width:1px;stroke-linecap:butt;stroke-linejoin:miter;stroke-opacity:1" d="M 389.778,116.263 410.189,118.305 z" id="boundary" inkscape:connector-curvature="0" />
	<path style="fill:none;stroke:red;stroke-width:1px;stroke-linecap:butt;stroke-linejoin:miter;stroke-opacity:1" d="M 402.025,244.856 418.354,220.362 z" id="boundary" inkscape:connector-curvature="0" />
	<path style="fill:none;stroke:red;stroke-width:1px;stroke-linecap:butt;stroke-linejoin:miter;stroke-opacity:1" d="M 402.025,485.712 414.272,502.041 z" id="boundary" inkscape:connector-curvature="0" />
	<path style="fill:none;stroke:red;stroke-width:1px;stroke-linecap:butt;stroke-linejoin:miter;stroke-opacity:1" d="M 404.066,204.033 418.354,220.362 z" id="boundary" inkscape:connector-curvature="0" />
	<path style="fill:none;stroke:red;stroke-width:1px;stroke-linecap:butt;stroke-linejoin:miter;stroke-opacity:1" d="M 410.189,118.305 424.477,134.634 z" id="boundary" inkscape:connector-curvature="0" />
	<path style="fill:none;stroke:red;stroke-width:1px;stroke-linecap:butt;stroke-linejoin:miter;stroke-opacity:1" d="M 414.272,502.041 430.601,516.329 z" id="boundary" inkscape:connector-curvature="0" />
	<path style="fill:none;stroke:red;stroke-width:1px;stroke-linecap:butt;stroke-linejoin:miter;stroke-opacity:1" d="M 424.477,134.634 440.807,148.922 z" id="boundary" inkscape:connector-curvature="0" />
	<path style="fill:none;stroke:red;stroke-width:1px;stroke-linecap:butt;stroke-linejoin:miter;stroke-opacity:1" d="M 430.601,516.329 444.889,532.658 z" id="boundary" inkscape:connector-curvature="0" />
	<path style="fill:none;stroke:red;stroke-width:1px;stroke-linecap:butt;stroke-linejoin:miter;stroke-opacity:1" d="M 440.807,148.922 459.177,159.128 z" id="boundary" inkscape:connector-curvature="0" />
	<path style="fill:none;stroke:red;stroke-width:1px;stroke-linecap:butt;stroke-linejoin:miter;stroke-opacity:1" d="M 444.889,532.658 461.218,546.947 z" id="boundary" inkscape:connector-curvature="0" />
	<path style="fill:none;stroke:red;stroke-width:1px;stroke-linecap:butt;stroke-linejoin:miter;stroke-opacity:1" d="M 459.177,159.128 475.506,173.416 z" id="boundary" inkscape:connector-curvature="0" />
	<path style="fill:none;stroke:red;stroke-width:1px;stroke-linecap:butt;stroke-linejoin:miter;stroke-opacity:1" d="M 461.218,546.947 475.506,563.276 z" id="boundary" inkscape:connector-curvature="0" />
	<path style="fill:none;stroke:red;stroke-width:1px;stroke-linecap:butt;stroke-linejoin:miter;stroke-opacity:1" d="M 475.506,173.416 489.794,189.745 z" id="boundary" inkscape:connector-curvature="0" />
	<path style="fill:none;stroke:red;stroke-width:1px;stroke-linecap:butt;stroke-linejoin:miter;stroke-opacity:1" d="M 475.506,373.449 479.588,393.86 z" id="boundary" inkscape:connector-curvature="0" />
	<path style="fill:none;stroke:red;stroke-width:1px;stroke-linecap:butt;stroke-linejoin:miter;stroke-opacity:1" d="M 475.506,373.449 491.835,359.16 z" id="boundary" inkscape:connector-curvature="0" />
	<path style="fill:none;stroke:red;stroke-width:1px;stroke-linecap:butt;stroke-linejoin:miter;stroke-opacity:1" d="M 475.506,563.276 495.918,571.44 z" id="boundary" inkscape:connector-curvature="0" />
	<path style="fill:none;stroke:red;stroke-width:1px;stroke-linecap:butt;stroke-linejoin:miter;stroke-opacity:1" d="M 479.588,393.86 495.918,408.148 z" id="boundary" inkscape:connector-curvature="0" />
	<path style="fill:none;stroke:red;stroke-width:1px;stroke-linecap:butt;stroke-linejoin:miter;stroke-opacity:1" d="M 489.794,189.745 506.123,204.033 z" id="boundary" inkscape:connector-curvature="0" />
	<path style="fill:none;stroke:red;stroke-width:1px;stroke-linecap:butt;stroke-linejoin:miter;stroke-opacity:1" d="M 491.835,359.16 506.123,342.831 z" id="boundary" inkscape:connector-curvature="0" />
	<path style="fill:none;stroke:red;stroke-width:1px;stroke-linecap:butt;stroke-linejoin:miter;stroke-opacity:1" d="M 495.918,408.148 514.288,418.354 z" id="boundary" inkscape:connector-curvature="0" />
	<path style="fill:none;stroke:red;stroke-width:1px;stroke-linecap:butt;stroke-linejoin:miter;stroke-opacity:1" d="M 495.918,571.44 510.206,587.77 z" id="boundary" inkscape:connector-curvature="0" />
	<path style="fill:none;stroke:red;stroke-width:1px;stroke-linecap:butt;stroke-linejoin:miter;stroke-opacity:1" d="M 506.123,204.033 520.412,220.362 z" id="boundary" inkscape:connector-curvature="0" />
	<path style="fill:none;stroke:red;stroke-width:1px;stroke-linecap:butt;stroke-linejoin:miter;stroke-opacity:1" d="M 506.123,342.831 522.453,328.543 z" id="boundary" inkscape:connector-curvature="0" />
	<path style="fill:none;stroke:red;stroke-width:1px;stroke-linecap:butt;stroke-linejoin:miter;stroke-opacity:1" d="M 510.206,587.77 526.535,602.058 z" id="boundary" inkscape:connector-curvature="0" />
	<path style="fill:none;stroke:red;stroke-width:1px;stroke-linecap:butt;stroke-linejoin:miter;stroke-opacity:1" d="M 514.288,418.354 530.617,432.642 z" id="boundary" inkscape:connector-curvature="0" />
	<path style="fill:none;stroke:red;stroke-width:1px;stroke-linecap:butt;stroke-linejoin:miter;stroke-opacity:1" d="M 520.412,220.362 536.741,234.65 z" id="boundary" inkscape:connector-curvature="0" />
	<path style="fill:none;stroke:red;stroke-width:1px;stroke-linecap:butt;stroke-linejoin:miter;stroke-opacity:1" d="M 522.453,328.543 536.741,302.008 z" id="boundary" inkscape:connector-curvature="0" />
	<path style="fill:none;stroke:red;stroke-width:1px;stroke-linecap:butt;stroke-linejoin:miter;stroke-opacity:1" d="M 526.535,602.058 540.823,618.387 z" id="boundary" inkscape:connector-curvature="0" />
	<path style="fill:none;stroke:red;stroke-width:1px;stroke-linecap:butt;stroke-linejoin:miter;stroke-opacity:1" d="M 530.617,432.642 544.905,448.971 z" id="boundary" inkscape:connector-curvature="0" />
	<path style="fill:none;stroke:red;stroke-width:1px;stroke-linecap:butt;stroke-linejoin:miter;stroke-opacity:1" d="M 536.741,234.65 551.029,250.979 z" id="boundary" inkscape:connector-curvature="0" />
	<path style="fill:none;stroke:red;stroke-width:1px;stroke-linecap:butt;stroke-linejoin:miter;stroke-opacity:1" d="M 536.741,302.008 553.07,287.72 z" id="boundary" inkscape:connector-curvature="0" />
	<path style="fill:none;stroke:red;stroke-width:1px;stroke-linecap:butt;stroke-linejoin:miter;stroke-opacity:1" d="M 540.823,618.387 559.193,628.593 z" id="boundary" inkscape:connector-curvature="0" />
	<path style="fill:none;stroke:red;stroke-width:1px;stroke-linecap:butt;stroke-linejoin:miter;stroke-opacity:1" d="M 544.905,448.971 561.235,463.259 z" id="boundary" inkscape:connector-curvature="0" />
	<path style="fill:none;stroke:red;stroke-width:1px;stroke-linecap:butt;stroke-linejoin:miter;stroke-opacity:1" d="M 551.029,250.979 567.358,265.267 z" id="boundary" inkscape:connector-curvature="0" />
	<path style="fill:none;stroke:red;stroke-width:1px;stroke-linecap:butt;stroke-linejoin:miter;stroke-opacity:1" d="M 553.07,287.72 567.358,265.267 z" id="boundary" inkscape:connector-curvature="0" />
	<path style="fill:none;stroke:red;stroke-width:1px;stroke-linecap:butt;stroke-linejoin:miter;stroke-opacity:1" d="M 559.193,628.593 579.605,634.716 z" id="boundary" inkscape:connector-curvature="0" />
	<path style="fill:none;stroke:red;stroke-width:1px;stroke-linecap:butt;stroke-linejoin:miter;stroke-opacity:1" d="M 561.235,463.259 575.523,479.588 z" id="boundary" inkscape:connector-curvature="0" />
	<path style="fill:none;stroke:red;stroke-width:1px;stroke-linecap:butt;stroke-linejoin:miter;stroke-opacity:1" d="M 575.523,479.588 595.934,483.671 z" id="boundary" inkscape:connector-curvature="0" />
	<path style="fill:none;stroke:red;stroke-width:1px;stroke-linecap:butt;stroke-linejoin:miter;stroke-opacity:1" d="M 579.605,634.716 595.934,649.004 z" id="boundary" inkscape:connector-curvature="0" />
	<path style="fill:none;stroke:red;stroke-width:1px;stroke-linecap:butt;stroke-linejoin:miter;stroke-opacity:1" d="M 595.934,483.671 612.263,495.918 z" id="boundary" inkscape:connector-curvature="0" />
	<path style="fill:none;stroke:red;stroke-width:1px;stroke-linecap:butt;stroke-linejoin:miter;stroke-opacity:1" d="M 595.934,649.004 608.181,665.333 z" id="boundary" inkscape:connector-curvature="0" />
	<path style="fill:none;stroke:red;stroke-width:1px;stroke-linecap:butt;stroke-linejoin:miter;stroke-opacity:1" d="M 608.181,665.333 624.51,679.621 z" id="boundary" inkscape:connector-curvature="0" />
	<path style="fill:none;stroke:red;stroke-width:1px;stroke-linecap:butt;stroke-linejoin:miter;stroke-opacity:1" d="M 612.263,495.918 628.593,510.206 z" id="boundary" inkscape:connector-curvature="0" />
	<path style="fill:none;stroke:red;stroke-width:1px;stroke-linecap:butt;stroke-linejoin:miter;stroke-opacity:1" d="M 624.51,679.621 642.881,689.827 z" id="boundary" inkscape:connector-curvature="0" />
	<path style="fill:none;stroke:red;stroke-width:1px;stroke-linecap:butt;stroke-linejoin:miter;stroke-opacity:1" d="M 628.593,510.206 642.881,526.535 z" id="boundary" inkscape:connector-curvature="0" />
	<path style="fill:none;stroke:red;stroke-width:1px;stroke-linecap:butt;stroke-linejoin:miter;stroke-opacity:1" d="M 642.881,526.535 663.292,534.7 z" id="boundary" inkscape:connector-curvature="0" />
	<path style="fill:none;stroke:red;stroke-width:1px;stroke-linecap:butt;stroke-linejoin:miter;stroke-opacity:1" d="M 642.881,689.827 659.21,704.115 z" id="boundary" inkscape:connector-curvature="0" />
	<path style="fill:none;stroke:red;stroke-width:1px;stroke-linecap:butt;stroke-linejoin:miter;stroke-opacity:1" d="M 659.21,704.115 673.498,720.444 z" id="boundary" inkscape:connector-curvature="0" />
	<path style="fill:none;stroke:red;stroke-width:1px;stroke-linecap:butt;stroke-linejoin:miter;stroke-opacity:1" d="M 663.292,534.7 677.58,551.029 z" id="boundary" inkscape:connector-curvature="0" />
	<path style="fill:none;stroke:red;stroke-width:1px;stroke-linecap:butt;stroke-linejoin:miter;stroke-opacity:1" d="M 673.498,720.444 689.827,734.733 z" id="boundary" inkscape:connector-curvature="0" />
	<path style="fill:none;stroke:red;stroke-width:1px;stroke-linecap:butt;stroke-linejoin:miter;stroke-opacity:1" d="M 677.58,551.029 693.909,565.317 z" id="boundary" inkscape:connector-curvature="0" />
	<path style="fill:none;stroke:red;stroke-width:1px;stroke-linecap:butt;stroke-linejoin:miter;stroke-opacity:1" d="M 689.827,734.733 704.115,751.062 z" id="boundary" inkscape:connector-curvature="0" />
	<path style="fill:none;stroke:red;stroke-width:1px;stroke-linecap:butt;stroke-linejoin:miter;stroke-opacity:1" d="M 693.909,565.317 708.198,581.646 z" id="boundary" inkscape:connector-curvature="0" />
	<path style="fill:none;stroke:red;stroke-width:1px;stroke-linecap:butt;stroke-linejoin:miter;stroke-opacity:1" d="M 704.115,751.062 724.527,751.062 z" id="boundary" inkscape:connector-curvature="0" />
	<path style="fill:none;stroke:red;stroke-width:1px;stroke-linecap:butt;stroke-linejoin:miter;stroke-opacity:1" d="M 708.198,581.646 724.527,595.934 z" id="boundary" inkscape:connector-curvature="0" />
	<path style="fill:none;stroke:red;stroke-width:1px;stroke-linecap:butt;stroke-linejoin:miter;stroke-opacity:1" d="M 724.527,595.934 738.815,612.263 z" id="boundary" inkscape:connector-curvature="0" />
	<path style="fill:none;stroke:red;stroke-width:1px;stroke-linecap:butt;stroke-linejoin:miter;stroke-opacity:1" d="M 724.527,751.062 740.856,765.35 z" id="boundary" inkscape:connector-curvature="0" />
	<path style="fill:none;stroke:red;stroke-width:1px;stroke-linecap:butt;stroke-linejoin:miter;stroke-opacity:1" d="M 738.815,612.263 755.144,626.551 z" id="boundary" inkscape:connector-curvature="0" />
	<path style="fill:none;stroke:red;stroke-width:1px;stroke-linecap:butt;stroke-linejoin:miter;stroke-opacity:1" d="M 740.856,765.35 755.144,781.679 z" id="boundary" inkscape:connector-curvature="0" />
	<path style="fill:none;stroke:red;stroke-width:1px;stroke-linecap:butt;stroke-linejoin:miter;stroke-opacity:1" d="M 755.144,626.551 769.432,642.881 z" id="boundary" inkscape:connector-curvature="0" />
	<path style="fill:none;stroke:red;stroke-width:1px;stroke-linecap:butt;stroke-linejoin:miter;stroke-opacity:1" d="M 755.144,781.679 771.473,795.967 z" id="boundary" inkscape:connector-curvature="0" />
	<path style="fill:none;stroke:red;stroke-width:1px;stroke-linecap:butt;stroke-linejoin:miter;stroke-opacity:1" d="M 769.432,642.881 785.761,657.169 z" id="boundary" inkscape:connector-curvature="0" />
	<path style="fill:none;stroke:red;stroke-width:1px;stroke-linecap:butt;stroke-linejoin:miter;stroke-opacity:1" d="M 771.473,795.967 785.761,812.296 z" id="boundary" inkscape:connector-curvature="0" />
	<path style="fill:none;stroke:red;stroke-width:1px;stroke-linecap:butt;stroke-linejoin:miter;stroke-opacity:1" d="M 785.761,657.169 806.173,657.169 z" id="boundary" inkscape:connector-curvature="0" />
	<path style="fill:none;stroke:red;stroke-width:1px;stroke-linecap:butt;stroke-linejoin:miter;stroke-opacity:1" d="M 785.761,812.296 802.091,826.584 z" id="boundary" inkscape:connector-curvature="0" />
	<path style="fill:none;stroke:red;stroke-width:1px;stroke-linecap:butt;stroke-linejoin:miter;stroke-opacity:1" d="M 802.091,826.584 816.379,842.914 z" id="boundary" inkscape:connector-curvature="0" />
	<path style="fill:none;stroke:red;stroke-width:1px;stroke-linecap:butt;stroke-linejoin:miter;stroke-opacity:1" d="M 806.173,657.169 820.461,673.498 z" id="boundary" inkscape:connector-curvature="0" />
	<path style="fill:none;stroke:red;stroke-width:1px;stroke-linecap:butt;stroke-linejoin:miter;stroke-opacity:1" d="M 816.379,842.914 832.708,857.202 z" id="boundary" inkscape:connector-curvature="0" />
	<path style="fill:none;stroke:red;stroke-width:1px;stroke-linecap:butt;stroke-linejoin:miter;stroke-opacity:1" d="M 820.461,673.498 836.79,687.786 z" id="boundary" inkscape:connector-curvature="0" />
	<path style="fill:none;stroke:red;stroke-width:1px;stroke-linecap:butt;stroke-linejoin:miter;stroke-opacity:1" d="M 832.708,857.202 846.996,873.531 z" id="boundary" inkscape:connector-curvature="0" />
	<path style="fill:none;stroke:red;stroke-width:1px;stroke-linecap:butt;stroke-linejoin:miter;stroke-opacity:1" d="M 836.79,687.786 851.078,704.115 z" id="boundary" inkscape:connector-curvature="0" />
	<path style="fill:none;stroke:red;stroke-width:1px;stroke-linecap:butt;stroke-linejoin:miter;stroke-opacity:1" d="M 846.996,873.531 867.407,881.695 z" id="boundary" inkscape:connector-curvature="0" />
	<path style="fill:none;stroke:red;stroke-width:1px;stroke-linecap:butt;stroke-linejoin:miter;stroke-opacity:1" d="M 851.078,704.115 867.407,718.403 z" id="boundary" inkscape:connector-curvature="0" />
	<path style="fill:none;stroke:red;stroke-width:1px;stroke-linecap:butt;stroke-linejoin:miter;stroke-opacity:1" d="M 867.407,718.403 885.778,728.609 z" id="boundary" inkscape:connector-curvature="0" />
	<path style="fill:none;stroke:red;stroke-width:1px;stroke-linecap:butt;stroke-linejoin:miter;stroke-opacity:1" d="M 867.407,881.695 881.695,898.025 z" id="boundary" inkscape:connector-curvature="0" />
	<path style="fill:none;stroke:red;stroke-width:1px;stroke-linecap:butt;stroke-linejoin:miter;stroke-opacity:1" d="M 881.695,898.025 898.025,912.313 z" id="boundary" inkscape:connector-curvature="0" />
	<path style="fill:none;stroke:red;stroke-width:1px;stroke-linecap:butt;stroke-linejoin:miter;stroke-opacity:1" d="M 885.778,728.609 902.107,742.897 z" id="boundary" inkscape:connector-curvature="0" />
	<path style="fill:none;stroke:red;stroke-width:1px;stroke-linecap:butt;stroke-linejoin:miter;stroke-opacity:1" d="M 898.025,912.313 912.313,928.642 z" id="boundary" inkscape:connector-curvature="0" />
	<path style="fill:none;stroke:red;stroke-width:1px;stroke-linecap:butt;stroke-linejoin:miter;stroke-opacity:1" d="M 902.107,742.897 914.354,759.226 z" id="boundary" inkscape:connector-curvature="0" />
	<path style="fill:none;stroke:red;stroke-width:1px;stroke-linecap:butt;stroke-linejoin:miter;stroke-opacity:1" d="M 912.313,928.642 932.724,918.436 z" id="boundary" inkscape:connector-curvature="0" />
	<path style="fill:none;stroke:red;stroke-width:1px;stroke-linecap:butt;stroke-linejoin:miter;stroke-opacity:1" d="M 914.354,759.226 930.683,771.473 z" id="boundary" inkscape:connector-curvature="0" />
	<path style="fill:none;stroke:red;stroke-width:1px;stroke-linecap:butt;stroke-linejoin:miter;stroke-opacity:1" d="M 930.683,771.473 949.053,781.679 z" id="boundary" inkscape:connector-curvature="0" />
	<path style="fill:none;stroke:red;stroke-width:1px;stroke-linecap:butt;stroke-linejoin:miter;stroke-opacity:1" d="M 932.724,918.436 949.053,902.107 z" id="boundary" inkscape:connector-curvature="0" />
	<path style="fill:none;stroke:red;stroke-width:1px;stroke-linecap:butt;stroke-linejoin:miter;stroke-opacity:1" d="M 949.053,781.679 965.383,795.967 z" id="boundary" inkscape:connector-curvature="0" />
	<path style="fill:none;stroke:red;stroke-width:1px;stroke-linecap:butt;stroke-linejoin:miter;stroke-opacity:1" d="M 949.053,902.107 965.383,883.737 z" id="boundary" inkscape:connector-curvature="0" />
	<path style="fill:none;stroke:red;stroke-width:1px;stroke-linecap:butt;stroke-linejoin:miter;stroke-opacity:1" d="M 965.383,795.967 979.671,812.296 z" id="boundary" inkscape:connector-curvature="0" />
	<path style="fill:none;stroke:red;stroke-width:1px;stroke-linecap:butt;stroke-linejoin:miter;stroke-opacity:1" d="M 965.383,883.737 981.712,869.449 z" id="boundary" inkscape:connector-curvature="0" />
	<path style="fill:none;stroke:red;stroke-width:1px;stroke-linecap:butt;stroke-linejoin:miter;stroke-opacity:1" d="M 979.671,812.296 996,826.584 z" id="boundary" inkscape:connector-curvature="0" />
	<path style="fill:none;stroke:red;stroke-width:1px;stroke-linecap:butt;stroke-linejoin:miter;stroke-opacity:1" d="M 981.712,869.449 996,853.119 z" id="boundary" inkscape:connector-curvature="0" />
	<path style="fill:none;stroke:red;stroke-width:1px;stroke-linecap:butt;stroke-linejoin:miter;stroke-opacity:1" d="M 996,826.584 996,853.119 z" id="boundary" inkscape:connector-curvature="0" />
	<circle cx="4" cy="316.296" r="4" fill="#0" id="circle0"/>
	<circle cx="14.2058" cy="334.667" r="4" fill="#0" id="circle1"/>
	<circle cx="20.3292" cy="299.967" r="4" fill="#0" id="circle2"/>
	<circle cx="28.4938" cy="350.996" r="4" fill="#0" id="circle3"/>
	<circle cx="36.6584" cy="283.638" r="4" fill="#0" id="circle4"/>
	<circle cx="44.823" cy="363.243" r="4" fill="#0" id="circle5"/>
	<circle cx="57.07" cy="285.679" r="4" fill="#0" id="circle6"/>
	<circle cx="57.07" cy="379.572" r="4" fill="#0" id="circle7"/>
	<circle cx="71.358" cy="302.008" r="4" fill="#0" id="circle8"/>
	<circle cx="73.3992" cy="393.86" r="4" fill="#0" id="circle9"/>
	<circle cx="75.4403" cy="224.444" r="4" fill="#0" id="circle10"/>
	<circle cx="91.7695" cy="208.115" r="4" fill="#0" id="circle11"/>
	<circle cx="91.7695" cy="238.733" r="4" fill="#0" id="circle12"/>
	<circle cx="91.7695" cy="310.173" r="4" fill="#0" id="circle13"/>
	<circle cx="93.8107" cy="393.86" r="4" fill="#0" id="circle14"/>
	<circle cx="106.058" cy="255.062" r="4" fill="#0" id="circle15"/>
	<circle cx="106.058" cy="326.502" r="4" fill="#0" id="circle16"/>
	<circle cx="108.099" cy="191.786" r="4" fill="#0" id="circle17"/>
	<circle cx="108.099" cy="410.189" r="4" fill="#0" id="circle18"/>
	<circle cx="122.387" cy="269.35" r="4" fill="#0" id="circle19"/>
	<circle cx="122.387" cy="340.79" r="4" fill="#0" id="circle20"/>
	<circle cx="124.428" cy="424.477" r="4" fill="#0" id="circle21"/>
	<circle cx="128.51" cy="197.909" r="4" fill="#0" id="circle22"/>
	<circle cx="136.675" cy="285.679" r="4" fill="#0" id="circle23"/>
	<circle cx="136.675" cy="357.119" r="4" fill="#0" id="circle24"/>
	<circle cx="138.716" cy="440.807" r="4" fill="#0" id="circle25"/>
	<circle cx="148.922" cy="204.033" r="4" fill="#0" id="circle26"/>
	<circle cx="153.004" cy="299.967" r="4" fill="#0" id="circle27"/>
	<circle cx="153.004" cy="371.407" r="4" fill="#0" id="circle28"/>
	<circle cx="155.045" cy="455.095" r="4" fill="#0" id="circle29"/>
	<circle cx="157.086" cy="132.593" r="4" fill="#0" id="circle30"/>
	<circle cx="163.21" cy="220.362" r="4" fill="#0" id="circle31"/>
	<circle cx="167.292" cy="150.963" r="4" fill="#0" id="circle32"/>
	<circle cx="167.292" cy="316.296" r="4" fill="#0" id="circle33"/>
	<circle cx="167.292" cy="387.737" r="4" fill="#0" id="circle34"/>
	<circle cx="173.416" cy="116.263" r="4" fill="#0" id="circle35"/>
	<circle cx="173.416" cy="465.3" r="4" fill="#0" id="circle36"/>
	<circle cx="179.539" cy="234.65" r="4" fill="#0" id="circle37"/>
	<circle cx="181.58" cy="167.292" r="4" fill="#0" id="circle38"/>
	<circle cx="183.621" cy="330.584" r="4" fill="#0" id="circle39"/>
	<circle cx="187.704" cy="391.819" r="4" fill="#0" id="circle40"/>
	<circle cx="189.745" cy="99.9342" r="4" fill="#0" id="circle41"/>
	<circle cx="189.745" cy="479.588" r="4" fill="#0" id="circle42"/>
	<circle cx="195.868" cy="248.938" r="4" fill="#0" id="circle43"/>
	<circle cx="197.909" cy="346.914" r="4" fill="#0" id="circle44"/>
	<circle cx="201.992" cy="175.457" r="4" fill="#0" id="circle45"/>
	<circle cx="204.033" cy="404.066" r="4" fill="#0" id="circle46"/>
	<circle cx="204.033" cy="495.918" r="4" fill="#0" id="circle47"/>
	<circle cx="208.115" cy="110.14" r="4" fill="#0" id="circle48"/>
	<circle cx="214.239" cy="259.144" r="4" fill="#0" id="circle49"/>
	<circle cx="218.321" cy="189.745" r="4" fill="#0" id="circle50"/>
	<circle cx="218.321" cy="353.037" r="4" fill="#0" id="circle51"/>
	<circle cx="220.362" cy="126.469" r="4" fill="#0" id="circle52"/>
	<circle cx="220.362" cy="418.354" r="4" fill="#0" id="circle53"/>
	<circle cx="220.362" cy="510.206" r="4" fill="#0" id="circle54"/>
	<circle cx="228.527" cy="30.535" r="4" fill="#0" id="circle55"/>
	<circle cx="228.527" cy="50.9465" r="4" fill="#0" id="circle56"/>
	<circle cx="228.527" cy="275.473" r="4" fill="#0" id="circle57"/>
	<circle cx="230.568" cy="206.074" r="4" fill="#0" id="circle58"/>
	<circle cx="234.65" cy="526.535" r="4" fill="#0" id="circle59"/>
	<circle cx="236.691" cy="138.716" r="4" fill="#0" id="circle60"/>
	<circle cx="236.691" cy="363.243" r="4" fill="#0" id="circle61"/>
	<circle cx="236.691" cy="432.642" r="4" fill="#0" id="circle62"/>
	<circle cx="244.856" cy="14.2058" r="4" fill="#0" id="circle63"/>
	<circle cx="244.856" cy="289.761" r="4" fill="#0" id="circle64"/>
	<circle cx="246.897" cy="220.362" r="4" fill="#0" id="circle65"/>
	<circle cx="248.938" cy="57.07" r="4" fill="#0" id="circle66"/>
	<circle cx="250.979" cy="155.045" r="4" fill="#0" id="circle67"/>
	<circle cx="250.979" cy="379.572" r="4" fill="#0" id="circle68"/>
	<circle cx="255.062" cy="422.436" r="4" fill="#0" id="circle69"/>
	<circle cx="255.062" cy="526.535" r="4" fill="#0" id="circle70"/>
	<circle cx="259.144" cy="306.091" r="4" fill="#0" id="circle71"/>
	<circle cx="261.185" cy="73.3992" r="4" fill="#0" id="circle72"/>
	<circle cx="261.185" cy="236.691" r="4" fill="#0" id="circle73"/>
	<circle cx="263.226" cy="4" r="4" fill="#0" id="circle74"/>
	<circle cx="267.309" cy="167.292" r="4" fill="#0" id="circle75"/>
	<circle cx="267.309" cy="393.86" r="4" fill="#0" id="circle76"/>
	<circle cx="271.391" cy="540.823" r="4" fill="#0" id="circle77"/>
	<circle cx="275.473" cy="320.379" r="4" fill="#0" id="circle78"/>
	<circle cx="277.514" cy="87.6872" r="4" fill="#0" id="circle79"/>
	<circle cx="277.514" cy="250.979" r="4" fill="#0" id="circle80"/>
	<circle cx="279.556" cy="18.2881" r="4" fill="#0" id="circle81"/>
	<circle cx="285.679" cy="557.152" r="4" fill="#0" id="circle82"/>
	<circle cx="287.72" cy="169.333" r="4" fill="#0" id="circle83"/>
	<circle cx="291.802" cy="34.6173" r="4" fill="#0" id="circle84"/>
	<circle cx="291.802" cy="104.016" r="4" fill="#0" id="circle85"/>
	<circle cx="291.802" cy="267.309" r="4" fill="#0" id="circle86"/>
	<circle cx="295.885" cy="320.379" r="4" fill="#0" id="circle87"/>
	<circle cx="302.008" cy="185.663" r="4" fill="#0" id="circle88"/>
	<circle cx="304.049" cy="567.358" r="4" fill="#0" id="circle89"/>
	<circle cx="308.132" cy="118.305" r="4" fill="#0" id="circle90"/>
	<circle cx="308.132" cy="281.597" r="4" fill="#0" id="circle91"/>
	<circle cx="310.173" cy="44.823" r="4" fill="#0" id="circle92"/>
	<circle cx="310.173" cy="336.708" r="4" fill="#0" id="circle93"/>
	<circle cx="318.337" cy="199.951" r="4" fill="#0" id="circle94"/>
	<circle cx="322.42" cy="134.634" r="4" fill="#0" id="circle95"/>
	<circle cx="322.42" cy="297.926" r="4" fill="#0" id="circle96"/>
	<circle cx="324.461" cy="567.358" r="4" fill="#0" id="circle97"/>
	<circle cx="326.502" cy="57.07" r="4" fill="#0" id="circle98"/>
	<circle cx="330.584" cy="318.337" r="4" fill="#0" id="circle99"/>
	<circle cx="330.584" cy="338.749" r="4" fill="#0" id="circle100"/>
	<circle cx="336.708" cy="210.156" r="4" fill="#0" id="circle101"/>
	<circle cx="338.749" cy="148.922" r="4" fill="#0" id="circle102"/>
	<circle cx="340.79" cy="551.029" r="4" fill="#0" id="circle103"/>
	<circle cx="342.831" cy="71.358" r="4" fill="#0" id="circle104"/>
	<circle cx="353.037" cy="165.251" r="4" fill="#0" id="circle105"/>
	<circle cx="353.037" cy="224.444" r="4" fill="#0" id="circle106"/>
	<circle cx="353.037" cy="526.535" r="4" fill="#0" id="circle107"/>
	<circle cx="357.119" cy="87.6872" r="4" fill="#0" id="circle108"/>
	<circle cx="367.325" cy="240.774" r="4" fill="#0" id="circle109"/>
	<circle cx="369.366" cy="512.247" r="4" fill="#0" id="circle110"/>
	<circle cx="373.449" cy="101.975" r="4" fill="#0" id="circle111"/>
	<circle cx="373.449" cy="173.416" r="4" fill="#0" id="circle112"/>
	<circle cx="383.654" cy="255.062" r="4" fill="#0" id="circle113"/>
	<circle cx="383.654" cy="495.918" r="4" fill="#0" id="circle114"/>
	<circle cx="387.737" cy="189.745" r="4" fill="#0" id="circle115"/>
	<circle cx="389.778" cy="116.263" r="4" fill="#0" id="circle116"/>
	<circle cx="402.025" cy="244.856" r="4" fill="#0" id="circle117"/>
	<circle cx="402.025" cy="485.712" r="4" fill="#0" id="circle118"/>
	<circle cx="404.066" cy="204.033" r="4" fill="#0" id="circle119"/>
	<circle cx="410.189" cy="118.305" r="4" fill="#0" id="circle120"/>
	<circle cx="414.272" cy="502.041" r="4" fill="#0" id="circle121"/>
	<circle cx="418.354" cy="220.362" r="4" fill="#0" id="circle122"/>
	<circle cx="424.477" cy="134.634" r="4" fill="#0" id="circle123"/>
	<circle cx="430.601" cy="516.329" r="4" fill="#0" id="circle124"/>
	<circle cx="440.807" cy="148.922" r="4" fill="#0" id="circle125"/>
	<circle cx="444.889" cy="532.658" r="4" fill="#0" id="circle126"/>
	<circle cx="459.177" cy="159.128" r="4" fill="#0" id="circle127"/>
	<circle cx="461.218" cy="546.947" r="4" fill="#0" id="circle128"/>
	<circle cx="475.506" cy="173.416" r="4" fill="#0" id="circle129"/>
	<circle cx="475.506" cy="373.449" r="4" fill="#0" id="circle130"/>
	<circle cx="475.506" cy="563.276" r="4" fill="#0" id="circle131"/>
	<circle cx="479.588" cy="393.86" r="4" fill="#0" id="circle132"/>
	<circle cx="489.794" cy="189.745" r="4" fill="#0" id="circle133"/>
	<circle cx="491.835" cy="359.16" r="4" fill="#0" id="circle134"/>
	<circle cx="495.918" cy="408.148" r="4" fill="#0" id="circle135"/>
	<circle cx="495.918" cy="571.44" r="4" fill="#0" id="circle136"/>
	<circle cx="506.123" cy="204.033" r="4" fill="#0" id="circle137"/>
	<circle cx="506.123" cy="342.831" r="4" fill="#0" id="circle138"/>
	<circle cx="510.206" cy="587.77" r="4" fill="#0" id="circle139"/>
	<circle cx="514.288" cy="418.354" r="4" fill="#0" id="circle140"/>
	<circle cx="520.412" cy="220.362" r="4" fill="#0" id="circle141"/>
	<circle cx="522.453" cy="328.543" r="4" fill="#0" id="circle142"/>
	<circle cx="526.535" cy="602.058" r="4" fill="#0" id="circle143"/>
	<circle cx="530.617" cy="432.642" r="4" fill="#0" id="circle144"/>
	<circle cx="536.741" cy="234.65" r="4" fill="#0" id="circle145"/>
	<circle cx="536.741" cy="302.008" r="4" fill="#0" id="circle146"/>
	<circle cx="540.823" cy="618.387" r="4" fill="#0" id="circle147"/>
	<circle cx="544.905" cy="448.971" r="4" fill="#0" id="circle148"/>
	<circle cx="551.029" cy="250.979" r="4" fill="#0" id="circle149"/>
	<circle cx="553.07" cy="287.72" r="4" fill="#0" id="circle150"/>
	<circle cx="559.193" cy="628.593" r="4" fill="#0" id="circle151"/>
	<circle cx="561.235" cy="463.259" r="4" fill="#0" id="circle152"/>
	<circle cx="567.358" cy="265.267" r="4" fill="#0" id="circle153"/>
	<circle cx="575.523" cy="479.588" r="4" fill="#0" id="circle154"/>
	<circle cx="579.605" cy="634.716" r="4" fill="#0" id="circle155"/>
	<circle cx="595.934" cy="483.671" r="4" fill="#0" id="circle156"/>
	<circle cx="595.934" cy="649.004" r="4" fill="#0" id="circle157"/>
	<circle cx="608.181" cy="665.333" r="4" fill="#0" id="circle158"/>
	<circle cx="612.263" cy="495.918" r="4" fill="#0" id="circle159"/>
	<circle cx="624.51" cy="679.621" r="4" fill="#0" id="circle160"/>
	<circle cx="628.593" cy="510.206" r="4" fill="#0" id="circle161"/>
	<circle cx="642.881" cy="526.535" r="4" fill="#0" id="circle162"/>
	<circle cx="642.881" cy="689.827" r="4" fill="#0" id="circle163"/>
	<circle cx="659.21" cy="704.115" r="4" fill="#0" id="circle164"/>
	<circle cx="663.292" cy="534.7" r="4" fill="#0" id="circle165"/>
	<circle cx="673.498" cy="720.444" r="4" fill="#0" id="circle166"/>
	<circle cx="677.58" cy="551.029" r="4" fill="#0" id="circle167"/>
	<circle cx="689.827" cy="734.733" r="4" fill="#0" id="circle168"/>
	<circle cx="693.909" cy="565.317" r="4" fill="#0" id="circle169"/>
	<circle cx="704.115" cy="751.062" r="4" fill="#0" id="circle170"/>
	<circle cx="708.198" cy="581.646" r="4" fill="#0" id="circle171"/>
	<circle cx="724.527" cy="595.934" r="4" fill="#0" id="circle172"/>
	<circle cx="724.527" cy="751.062" r="4" fill="#0" id="circle173"/>
	<circle cx="738.815" cy="612.263" r="4" fill="#0" id="circle174"/>
	<circle cx="740.856" cy="765.35" r="4" fill="#0" id="circle175"/>
	<circle cx="755.144" cy="626.551" r="4" fill="#0" id="circle176"/>
	<circle cx="755.144" cy="781.679" r="4" fill="#0" id="circle177"/>
	<circle cx="769.432" cy="642.881" r="4" fill="#0" id="circle178"/>
	<circle cx="771.473" cy="795.967" r="4" fill="#0" id="circle179"/>
	<circle cx="785.761" cy="657.169" r="4" fill="#0" id="circle180"/>
	<circle cx="785.761" cy="812.296" r="4" fill="#0" id="circle181"/>
	<circle cx="802.091" cy="826.584" r="4" fill="#0" id="circle182"/>
	<circle cx="806.173" cy="657.169" r="4" fill="#0" id="circle183"/>
	<circle cx="816.379" cy="842.914" r="4" fill="#0" id="circle184"/>
	<circle cx="820.461" cy="673.498" r="4" fill="#0" id="circle185"/>
	<circle cx="832.708" cy="857.202" r="4" fill="#0" id="circle186"/>
	<circle cx="836.79" cy="687.786" r="4" fill="#0" id="circle187"/>
	<circle cx="846.996" cy="873.531" r="4" fill="#0" id="circle188"/>
	<circle cx="851.078" cy="704.115" r="4" fill="#0" id="circle189"/>
	<circle cx="867.407" cy="718.403" r="4" fill="#0" id="circle190"/>
	<circle cx="867.407" cy="881.695" r="4" fill="#0" id="circle191"/>
	<circle cx="881.695" cy="898.025" r="4" fill="#0" id="circle192"/>
	<circle cx="885.778" cy="728.609" r="4" fill="#0" id="circle193"/>
	<circle cx="898.025" cy="912.313" r="4" fill="#0" id="circle194"/>
	<circle cx="902.107" cy="742.897" r="4" fill="#0" id="circle195"/>
	<circle cx="912.313" cy="928.642" r="4" fill="#0" id="circle196"/>
	<circle cx="914.354" cy="759.226" r="4" fill="#0" id="circle197"/>
	<circle cx="930.683" cy="771.473" r="4" fill="#0" id="circle198"/>
	<circle cx="932.724" cy="918.436" r="4" fill="#0" id="circle199"/>
	<circle cx="949.053" cy="781.679" r="4" fill="#0" id="circle200"/>
	<circle cx="949.053" cy="902.107" r="4" fill="#0" id="circle201"/>
	<circle cx="965.383" cy="795.967" r="4" fill="#0" id="circle202"/>
	<circle cx="965.383" cy="883.737" r="4" fill="#0" id="circle203"/>
	<circle cx="979.671" cy="812.296" r="4" fill="#0" id="circle204"/>
	<circle cx="981.712" cy="869.449" r="4" fill="#0" id="circle205"/>
	<circle cx="996" cy="826.584" r="4" fill="#0" id="circle206"/>
	<circle cx="996" cy="853.119" r="4" fill="#0" id="circle207"/>
	</g>
</svg>