<?xml version="1.0" encoding="UTF-8" standalone="no"?>
<!-- Created with CurveBenchmark -->
<svg
	xmlns:dc="http://purl.org/dc/elements/1.1/"
	xmlns:cc="http://creativecommons.org/ns#"
	xmlns:rdf="http://www.w3.org/1999/02/22-rdf-syntax-ns#"
	xmlns:svg="http://www.w3.org/2000/svg"
	xmlns="http://www.w3.org/2000/svg"
	xmlns:sodipodi="http://sodipodi.sourceforge.net/DTD/sodipodi-0.dtd"
	xmlns:inkscape="http://www.inkscape.org/namespaces/inkscape"
	width="1000"
	height="1000"
	id="svg2"
	version="1.1"
	sodipodi:docname="manifold/vicur-teddy310.png.txt">
<defs
	id="defs4" />
<metadata
	id="metadata7">
	<rdf:RDF>
		<cc:Work
			rdf:about="">
			<dc:format>image/svg+xml</dc:format>
			<dc:type
				rdf:resource="http://purl.org/dc/dcmitype/StillImage" />
			<dc:title></dc:title>
		</cc:Work>
	</rdf:RDF>
</metadata>
<g
	inkscape:label="Layer 1"
	inkscape:groupmode="layer"
	id="layer1">
	<path style="fill:none;stroke:red;stroke-width:1px;stroke-linecap:butt;stroke-linejoin:miter;stroke-opacity:1" d="M 4,761.425 4,789.687 z" id="boundary" inkscape:connector-curvature="0" />
	<path style="fill:none;stroke:red;stroke-width:1px;stroke-linecap:butt;stroke-linejoin:miter;stroke-opacity:1" d="M 4,761.425 18.1311,735.989 z" id="boundary" inkscape:connector-curvature="0" />
	<path style="fill:none;stroke:red;stroke-width:1px;stroke-linecap:butt;stroke-linejoin:miter;stroke-opacity:1" d="M 4,789.687 4,817.949 z" id="boundary" inkscape:connector-curvature="0" />
	<path style="fill:none;stroke:red;stroke-width:1px;stroke-linecap:butt;stroke-linejoin:miter;stroke-opacity:1" d="M 4,817.949 4,846.211 z" id="boundary" inkscape:connector-curvature="0" />
	<path style="fill:none;stroke:red;stroke-width:1px;stroke-linecap:butt;stroke-linejoin:miter;stroke-opacity:1" d="M 4,846.211 4,874.473 z" id="boundary" inkscape:connector-curvature="0" />
	<path style="fill:none;stroke:red;stroke-width:1px;stroke-linecap:butt;stroke-linejoin:miter;stroke-opacity:1" d="M 4,874.473 6.82621,902.735 z" id="boundary" inkscape:connector-curvature="0" />
	<path style="fill:none;stroke:red;stroke-width:1px;stroke-linecap:butt;stroke-linejoin:miter;stroke-opacity:1" d="M 6.82621,902.735 9.65242,930.997 z" id="boundary" inkscape:connector-curvature="0" />
	<path style="fill:none;stroke:red;stroke-width:1px;stroke-linecap:butt;stroke-linejoin:miter;stroke-opacity:1" d="M 9.65242,930.997 18.1311,959.259 z" id="boundary" inkscape:connector-curvature="0" />
	<path style="fill:none;stroke:red;stroke-width:1px;stroke-linecap:butt;stroke-linejoin:miter;stroke-opacity:1" d="M 18.1311,735.989 46.3932,727.51 z" id="boundary" inkscape:connector-curvature="0" />
	<path style="fill:none;stroke:red;stroke-width:1px;stroke-linecap:butt;stroke-linejoin:miter;stroke-opacity:1" d="M 18.1311,959.259 32.2621,984.695 z" id="boundary" inkscape:connector-curvature="0" />
	<path style="fill:none;stroke:red;stroke-width:1px;stroke-linecap:butt;stroke-linejoin:miter;stroke-opacity:1" d="M 32.2621,984.695 60.5242,996 z" id="boundary" inkscape:connector-curvature="0" />
	<path style="fill:none;stroke:red;stroke-width:1px;stroke-linecap:butt;stroke-linejoin:miter;stroke-opacity:1" d="M 46.3932,727.51 74.6553,727.51 z" id="boundary" inkscape:connector-curvature="0" />
	<path style="fill:none;stroke:red;stroke-width:1px;stroke-linecap:butt;stroke-linejoin:miter;stroke-opacity:1" d="M 60.5242,996 88.7863,996 z" id="boundary" inkscape:connector-curvature="0" />
	<path style="fill:none;stroke:red;stroke-width:1px;stroke-linecap:butt;stroke-linejoin:miter;stroke-opacity:1" d="M 74.6553,727.51 102.917,724.684 z" id="boundary" inkscape:connector-curvature="0" />
	<path style="fill:none;stroke:red;stroke-width:1px;stroke-linecap:butt;stroke-linejoin:miter;stroke-opacity:1" d="M 83.1339,501.413 83.1339,529.675 z" id="boundary" inkscape:connector-curvature="0" />
	<path style="fill:none;stroke:red;stroke-width:1px;stroke-linecap:butt;stroke-linejoin:miter;stroke-opacity:1" d="M 83.1339,501.413 97.265,475.977 z" id="boundary" inkscape:connector-curvature="0" />
	<path style="fill:none;stroke:red;stroke-width:1px;stroke-linecap:butt;stroke-linejoin:miter;stroke-opacity:1" d="M 83.1339,529.675 94.4387,557.937 z" id="boundary" inkscape:connector-curvature="0" />
	<path style="fill:none;stroke:red;stroke-width:1px;stroke-linecap:butt;stroke-linejoin:miter;stroke-opacity:1" d="M 88.7863,235.749 88.7863,264.011 z" id="boundary" inkscape:connector-curvature="0" />
	<path style="fill:none;stroke:red;stroke-width:1px;stroke-linecap:butt;stroke-linejoin:miter;stroke-opacity:1" d="M 88.7863,235.749 111.396,218.792 z" id="boundary" inkscape:connector-curvature="0" />
	<path style="fill:none;stroke:red;stroke-width:1px;stroke-linecap:butt;stroke-linejoin:miter;stroke-opacity:1" d="M 88.7863,264.011 100.091,292.274 z" id="boundary" inkscape:connector-curvature="0" />
	<path style="fill:none;stroke:red;stroke-width:1px;stroke-linecap:butt;stroke-linejoin:miter;stroke-opacity:1" d="M 88.7863,996 117.048,996 z" id="boundary" inkscape:connector-curvature="0" />
	<path style="fill:none;stroke:red;stroke-width:1px;stroke-linecap:butt;stroke-linejoin:miter;stroke-opacity:1" d="M 94.4387,557.937 105.744,586.199 z" id="boundary" inkscape:connector-curvature="0" />
	<path style="fill:none;stroke:red;stroke-width:1px;stroke-linecap:butt;stroke-linejoin:miter;stroke-opacity:1" d="M 97.265,475.977 119.875,456.194 z" id="boundary" inkscape:connector-curvature="0" />
	<path style="fill:none;stroke:red;stroke-width:1px;stroke-linecap:butt;stroke-linejoin:miter;stroke-opacity:1" d="M 100.091,292.274 100.091,320.536 z" id="boundary" inkscape:connector-curvature="0" />
	<path style="fill:none;stroke:red;stroke-width:1px;stroke-linecap:butt;stroke-linejoin:miter;stroke-opacity:1" d="M 100.091,320.536 111.396,348.798 z" id="boundary" inkscape:connector-curvature="0" />
	<path style="fill:none;stroke:red;stroke-width:1px;stroke-linecap:butt;stroke-linejoin:miter;stroke-opacity:1" d="M 100.091,654.028 100.091,682.291 z" id="boundary" inkscape:connector-curvature="0" />
	<path style="fill:none;stroke:red;stroke-width:1px;stroke-linecap:butt;stroke-linejoin:miter;stroke-opacity:1" d="M 100.091,654.028 105.744,614.462 z" id="boundary" inkscape:connector-curvature="0" />
	<path style="fill:none;stroke:red;stroke-width:1px;stroke-linecap:butt;stroke-linejoin:miter;stroke-opacity:1" d="M 100.091,682.291 102.917,724.684 z" id="boundary" inkscape:connector-curvature="0" />
	<path style="fill:none;stroke:red;stroke-width:1px;stroke-linecap:butt;stroke-linejoin:miter;stroke-opacity:1" d="M 105.744,586.199 105.744,614.462 z" id="boundary" inkscape:connector-curvature="0" />
	<path style="fill:none;stroke:red;stroke-width:1px;stroke-linecap:butt;stroke-linejoin:miter;stroke-opacity:1" d="M 111.396,218.792 134.006,196.182 z" id="boundary" inkscape:connector-curvature="0" />
	<path style="fill:none;stroke:red;stroke-width:1px;stroke-linecap:butt;stroke-linejoin:miter;stroke-opacity:1" d="M 111.396,348.798 136.832,362.929 z" id="boundary" inkscape:connector-curvature="0" />
	<path style="fill:none;stroke:red;stroke-width:1px;stroke-linecap:butt;stroke-linejoin:miter;stroke-opacity:1" d="M 117.048,996 145.311,996 z" id="boundary" inkscape:connector-curvature="0" />
	<path style="fill:none;stroke:red;stroke-width:1px;stroke-linecap:butt;stroke-linejoin:miter;stroke-opacity:1" d="M 119.875,456.194 148.137,444.889 z" id="boundary" inkscape:connector-curvature="0" />
	<path style="fill:none;stroke:red;stroke-width:1px;stroke-linecap:butt;stroke-linejoin:miter;stroke-opacity:1" d="M 134.006,196.182 162.268,190.53 z" id="boundary" inkscape:connector-curvature="0" />
	<path style="fill:none;stroke:red;stroke-width:1px;stroke-linecap:butt;stroke-linejoin:miter;stroke-opacity:1" d="M 136.832,362.929 165.094,368.581 z" id="boundary" inkscape:connector-curvature="0" />
	<path style="fill:none;stroke:red;stroke-width:1px;stroke-linecap:butt;stroke-linejoin:miter;stroke-opacity:1" d="M 145.311,996 173.573,996 z" id="boundary" inkscape:connector-curvature="0" />
	<path style="fill:none;stroke:red;stroke-width:1px;stroke-linecap:butt;stroke-linejoin:miter;stroke-opacity:1" d="M 148.137,444.889 176.399,430.758 z" id="boundary" inkscape:connector-curvature="0" />
	<path style="fill:none;stroke:red;stroke-width:1px;stroke-linecap:butt;stroke-linejoin:miter;stroke-opacity:1" d="M 162.268,190.53 190.53,184.877 z" id="boundary" inkscape:connector-curvature="0" />
	<path style="fill:none;stroke:red;stroke-width:1px;stroke-linecap:butt;stroke-linejoin:miter;stroke-opacity:1" d="M 165.094,368.581 187.704,385.538 z" id="boundary" inkscape:connector-curvature="0" />
	<path style="fill:none;stroke:red;stroke-width:1px;stroke-linecap:butt;stroke-linejoin:miter;stroke-opacity:1" d="M 173.573,996 201.835,990.348 z" id="boundary" inkscape:connector-curvature="0" />
	<path style="fill:none;stroke:red;stroke-width:1px;stroke-linecap:butt;stroke-linejoin:miter;stroke-opacity:1" d="M 176.399,430.758 187.704,385.538 z" id="boundary" inkscape:connector-curvature="0" />
	<path style="fill:none;stroke:red;stroke-width:1px;stroke-linecap:butt;stroke-linejoin:miter;stroke-opacity:1" d="M 190.53,184.877 215.966,170.746 z" id="boundary" inkscape:connector-curvature="0" />
	<path style="fill:none;stroke:red;stroke-width:1px;stroke-linecap:butt;stroke-linejoin:miter;stroke-opacity:1" d="M 201.835,990.348 227.271,976.217 z" id="boundary" inkscape:connector-curvature="0" />
	<path style="fill:none;stroke:red;stroke-width:1px;stroke-linecap:butt;stroke-linejoin:miter;stroke-opacity:1" d="M 215.966,170.746 235.749,145.311 z" id="boundary" inkscape:connector-curvature="0" />
	<path style="fill:none;stroke:red;stroke-width:1px;stroke-linecap:butt;stroke-linejoin:miter;stroke-opacity:1" d="M 227.271,976.217 255.533,973.39 z" id="boundary" inkscape:connector-curvature="0" />
	<path style="fill:none;stroke:red;stroke-width:1px;stroke-linecap:butt;stroke-linejoin:miter;stroke-opacity:1" d="M 235.749,145.311 252.707,117.048 z" id="boundary" inkscape:connector-curvature="0" />
	<path style="fill:none;stroke:red;stroke-width:1px;stroke-linecap:butt;stroke-linejoin:miter;stroke-opacity:1" d="M 252.707,117.048 269.664,94.4387 z" id="boundary" inkscape:connector-curvature="0" />
	<path style="fill:none;stroke:red;stroke-width:1px;stroke-linecap:butt;stroke-linejoin:miter;stroke-opacity:1" d="M 255.533,973.39 283.795,979.043 z" id="boundary" inkscape:connector-curvature="0" />
	<path style="fill:none;stroke:red;stroke-width:1px;stroke-linecap:butt;stroke-linejoin:miter;stroke-opacity:1" d="M 269.664,94.4387 292.274,71.8291 z" id="boundary" inkscape:connector-curvature="0" />
	<path style="fill:none;stroke:red;stroke-width:1px;stroke-linecap:butt;stroke-linejoin:miter;stroke-opacity:1" d="M 283.795,979.043 312.057,984.695 z" id="boundary" inkscape:connector-curvature="0" />
	<path style="fill:none;stroke:red;stroke-width:1px;stroke-linecap:butt;stroke-linejoin:miter;stroke-opacity:1" d="M 292.274,71.8291 314.883,54.8718 z" id="boundary" inkscape:connector-curvature="0" />
	<path style="fill:none;stroke:red;stroke-width:1px;stroke-linecap:butt;stroke-linejoin:miter;stroke-opacity:1" d="M 312.057,984.695 340.319,984.695 z" id="boundary" inkscape:connector-curvature="0" />
	<path style="fill:none;stroke:red;stroke-width:1px;stroke-linecap:butt;stroke-linejoin:miter;stroke-opacity:1" d="M 314.883,54.8718 340.319,40.7407 z" id="boundary" inkscape:connector-curvature="0" />
	<path style="fill:none;stroke:red;stroke-width:1px;stroke-linecap:butt;stroke-linejoin:miter;stroke-opacity:1" d="M 340.319,40.7407 354.45,15.3048 z" id="boundary" inkscape:connector-curvature="0" />
	<path style="fill:none;stroke:red;stroke-width:1px;stroke-linecap:butt;stroke-linejoin:miter;stroke-opacity:1" d="M 340.319,984.695 368.581,990.348 z" id="boundary" inkscape:connector-curvature="0" />
	<path style="fill:none;stroke:red;stroke-width:1px;stroke-linecap:butt;stroke-linejoin:miter;stroke-opacity:1" d="M 354.45,15.3048 382.712,4 z" id="boundary" inkscape:connector-curvature="0" />
	<path style="fill:none;stroke:red;stroke-width:1px;stroke-linecap:butt;stroke-linejoin:miter;stroke-opacity:1" d="M 368.581,990.348 396.843,990.348 z" id="boundary" inkscape:connector-curvature="0" />
	<path style="fill:none;stroke:red;stroke-width:1px;stroke-linecap:butt;stroke-linejoin:miter;stroke-opacity:1" d="M 382.712,4 410.974,4 z" id="boundary" inkscape:connector-curvature="0" />
	<path style="fill:none;stroke:red;stroke-width:1px;stroke-linecap:butt;stroke-linejoin:miter;stroke-opacity:1" d="M 396.843,990.348 425.105,996 z" id="boundary" inkscape:connector-curvature="0" />
	<path style="fill:none;stroke:red;stroke-width:1px;stroke-linecap:butt;stroke-linejoin:miter;stroke-opacity:1" d="M 410.974,4 439.236,9.65242 z" id="boundary" inkscape:connector-curvature="0" />
	<path style="fill:none;stroke:red;stroke-width:1px;stroke-linecap:butt;stroke-linejoin:miter;stroke-opacity:1" d="M 425.105,996 453.368,993.174 z" id="boundary" inkscape:connector-curvature="0" />
	<path style="fill:none;stroke:red;stroke-width:1px;stroke-linecap:butt;stroke-linejoin:miter;stroke-opacity:1" d="M 439.236,9.65242 464.672,23.7835 z" id="boundary" inkscape:connector-curvature="0" />
	<path style="fill:none;stroke:red;stroke-width:1px;stroke-linecap:butt;stroke-linejoin:miter;stroke-opacity:1" d="M 453.368,993.174 478.803,979.043 z" id="boundary" inkscape:connector-curvature="0" />
	<path style="fill:none;stroke:red;stroke-width:1px;stroke-linecap:butt;stroke-linejoin:miter;stroke-opacity:1" d="M 464.672,23.7835 475.977,52.0456 z" id="boundary" inkscape:connector-curvature="0" />
	<path style="fill:none;stroke:red;stroke-width:1px;stroke-linecap:butt;stroke-linejoin:miter;stroke-opacity:1" d="M 475.977,52.0456 498.587,71.8291 z" id="boundary" inkscape:connector-curvature="0" />
	<path style="fill:none;stroke:red;stroke-width:1px;stroke-linecap:butt;stroke-linejoin:miter;stroke-opacity:1" d="M 478.803,979.043 507.066,967.738 z" id="boundary" inkscape:connector-curvature="0" />
	<path style="fill:none;stroke:red;stroke-width:1px;stroke-linecap:butt;stroke-linejoin:miter;stroke-opacity:1" d="M 498.587,71.8291 524.023,85.9601 z" id="boundary" inkscape:connector-curvature="0" />
	<path style="fill:none;stroke:red;stroke-width:1px;stroke-linecap:butt;stroke-linejoin:miter;stroke-opacity:1" d="M 507.066,967.738 515.544,919.692 z" id="boundary" inkscape:connector-curvature="0" />
	<path style="fill:none;stroke:red;stroke-width:1px;stroke-linecap:butt;stroke-linejoin:miter;stroke-opacity:1" d="M 515.544,919.692 521.197,891.43 z" id="boundary" inkscape:connector-curvature="0" />
	<path style="fill:none;stroke:red;stroke-width:1px;stroke-linecap:butt;stroke-linejoin:miter;stroke-opacity:1" d="M 521.197,795.339 521.197,823.601 z" id="boundary" inkscape:connector-curvature="0" />
	<path style="fill:none;stroke:red;stroke-width:1px;stroke-linecap:butt;stroke-linejoin:miter;stroke-opacity:1" d="M 521.197,795.339 538.154,772.729 z" id="boundary" inkscape:connector-curvature="0" />
	<path style="fill:none;stroke:red;stroke-width:1px;stroke-linecap:butt;stroke-linejoin:miter;stroke-opacity:1" d="M 521.197,823.601 526.849,851.863 z" id="boundary" inkscape:connector-curvature="0" />
	<path style="fill:none;stroke:red;stroke-width:1px;stroke-linecap:butt;stroke-linejoin:miter;stroke-opacity:1" d="M 521.197,891.43 526.849,851.863 z" id="boundary" inkscape:connector-curvature="0" />
	<path style="fill:none;stroke:red;stroke-width:1px;stroke-linecap:butt;stroke-linejoin:miter;stroke-opacity:1" d="M 524.023,85.9601 543.806,108.57 z" id="boundary" inkscape:connector-curvature="0" />
	<path style="fill:none;stroke:red;stroke-width:1px;stroke-linecap:butt;stroke-linejoin:miter;stroke-opacity:1" d="M 526.849,399.67 532.501,427.932 z" id="boundary" inkscape:connector-curvature="0" />
	<path style="fill:none;stroke:red;stroke-width:1px;stroke-linecap:butt;stroke-linejoin:miter;stroke-opacity:1" d="M 526.849,399.67 540.98,374.234 z" id="boundary" inkscape:connector-curvature="0" />
	<path style="fill:none;stroke:red;stroke-width:1px;stroke-linecap:butt;stroke-linejoin:miter;stroke-opacity:1" d="M 526.849,461.846 526.849,490.108 z" id="boundary" inkscape:connector-curvature="0" />
	<path style="fill:none;stroke:red;stroke-width:1px;stroke-linecap:butt;stroke-linejoin:miter;stroke-opacity:1" d="M 526.849,461.846 532.501,427.932 z" id="boundary" inkscape:connector-curvature="0" />
	<path style="fill:none;stroke:red;stroke-width:1px;stroke-linecap:butt;stroke-linejoin:miter;stroke-opacity:1" d="M 526.849,490.108 529.675,518.37 z" id="boundary" inkscape:connector-curvature="0" />
	<path style="fill:none;stroke:red;stroke-width:1px;stroke-linecap:butt;stroke-linejoin:miter;stroke-opacity:1" d="M 529.675,518.37 532.501,546.632 z" id="boundary" inkscape:connector-curvature="0" />
	<path style="fill:none;stroke:red;stroke-width:1px;stroke-linecap:butt;stroke-linejoin:miter;stroke-opacity:1" d="M 532.501,546.632 532.501,574.895 z" id="boundary" inkscape:connector-curvature="0" />
	<path style="fill:none;stroke:red;stroke-width:1px;stroke-linecap:butt;stroke-linejoin:miter;stroke-opacity:1" d="M 532.501,574.895 532.501,603.157 z" id="boundary" inkscape:connector-curvature="0" />
	<path style="fill:none;stroke:red;stroke-width:1px;stroke-linecap:butt;stroke-linejoin:miter;stroke-opacity:1" d="M 532.501,603.157 538.154,631.419 z" id="boundary" inkscape:connector-curvature="0" />
	<path style="fill:none;stroke:red;stroke-width:1px;stroke-linecap:butt;stroke-linejoin:miter;stroke-opacity:1" d="M 538.154,631.419 538.154,659.681 z" id="boundary" inkscape:connector-curvature="0" />
	<path style="fill:none;stroke:red;stroke-width:1px;stroke-linecap:butt;stroke-linejoin:miter;stroke-opacity:1" d="M 538.154,659.681 538.154,687.943 z" id="boundary" inkscape:connector-curvature="0" />
	<path style="fill:none;stroke:red;stroke-width:1px;stroke-linecap:butt;stroke-linejoin:miter;stroke-opacity:1" d="M 538.154,687.943 538.154,716.205 z" id="boundary" inkscape:connector-curvature="0" />
	<path style="fill:none;stroke:red;stroke-width:1px;stroke-linecap:butt;stroke-linejoin:miter;stroke-opacity:1" d="M 538.154,716.205 538.154,744.467 z" id="boundary" inkscape:connector-curvature="0" />
	<path style="fill:none;stroke:red;stroke-width:1px;stroke-linecap:butt;stroke-linejoin:miter;stroke-opacity:1" d="M 538.154,744.467 538.154,772.729 z" id="boundary" inkscape:connector-curvature="0" />
	<path style="fill:none;stroke:red;stroke-width:1px;stroke-linecap:butt;stroke-linejoin:miter;stroke-opacity:1" d="M 540.98,374.234 555.111,348.798 z" id="boundary" inkscape:connector-curvature="0" />
	<path style="fill:none;stroke:red;stroke-width:1px;stroke-linecap:butt;stroke-linejoin:miter;stroke-opacity:1" d="M 543.806,108.57 560.764,131.179 z" id="boundary" inkscape:connector-curvature="0" />
	<path style="fill:none;stroke:red;stroke-width:1px;stroke-linecap:butt;stroke-linejoin:miter;stroke-opacity:1" d="M 555.111,348.798 572.068,326.188 z" id="boundary" inkscape:connector-curvature="0" />
	<path style="fill:none;stroke:red;stroke-width:1px;stroke-linecap:butt;stroke-linejoin:miter;stroke-opacity:1" d="M 560.764,131.179 572.068,159.442 z" id="boundary" inkscape:connector-curvature="0" />
	<path style="fill:none;stroke:red;stroke-width:1px;stroke-linecap:butt;stroke-linejoin:miter;stroke-opacity:1" d="M 572.068,159.442 583.373,187.704 z" id="boundary" inkscape:connector-curvature="0" />
	<path style="fill:none;stroke:red;stroke-width:1px;stroke-linecap:butt;stroke-linejoin:miter;stroke-opacity:1" d="M 572.068,326.188 586.199,300.752 z" id="boundary" inkscape:connector-curvature="0" />
	<path style="fill:none;stroke:red;stroke-width:1px;stroke-linecap:butt;stroke-linejoin:miter;stroke-opacity:1" d="M 583.373,187.704 589.026,215.966 z" id="boundary" inkscape:connector-curvature="0" />
	<path style="fill:none;stroke:red;stroke-width:1px;stroke-linecap:butt;stroke-linejoin:miter;stroke-opacity:1" d="M 586.199,300.752 589.026,269.664 z" id="boundary" inkscape:connector-curvature="0" />
	<path style="fill:none;stroke:red;stroke-width:1px;stroke-linecap:butt;stroke-linejoin:miter;stroke-opacity:1" d="M 589.026,215.966 589.026,269.664 z" id="boundary" inkscape:connector-curvature="0" />
	<circle cx="4" cy="761.425" r="4" fill="#0" id="circle0"/>
	<circle cx="4" cy="789.687" r="4" fill="#0" id="circle1"/>
	<circle cx="4" cy="817.949" r="4" fill="#0" id="circle2"/>
	<circle cx="4" cy="846.211" r="4" fill="#0" id="circle3"/>
	<circle cx="4" cy="874.473" r="4" fill="#0" id="circle4"/>
	<circle cx="6.82621" cy="902.735" r="4" fill="#0" id="circle5"/>
	<circle cx="9.65242" cy="930.997" r="4" fill="#0" id="circle6"/>
	<circle cx="18.1311" cy="735.989" r="4" fill="#0" id="circle7"/>
	<circle cx="18.1311" cy="959.259" r="4" fill="#0" id="circle8"/>
	<circle cx="32.2621" cy="984.695" r="4" fill="#0" id="circle9"/>
	<circle cx="46.3932" cy="727.51" r="4" fill="#0" id="circle10"/>
	<circle cx="60.5242" cy="996" r="4" fill="#0" id="circle11"/>
	<circle cx="74.6553" cy="727.51" r="4" fill="#0" id="circle12"/>
	<circle cx="83.1339" cy="501.413" r="4" fill="#0" id="circle13"/>
	<circle cx="83.1339" cy="529.675" r="4" fill="#0" id="circle14"/>
	<circle cx="88.7863" cy="235.749" r="4" fill="#0" id="circle15"/>
	<circle cx="88.7863" cy="264.011" r="4" fill="#0" id="circle16"/>
	<circle cx="88.7863" cy="996" r="4" fill="#0" id="circle17"/>
	<circle cx="94.4387" cy="557.937" r="4" fill="#0" id="circle18"/>
	<circle cx="97.265" cy="475.977" r="4" fill="#0" id="circle19"/>
	<circle cx="100.091" cy="292.274" r="4" fill="#0" id="circle20"/>
	<circle cx="100.091" cy="320.536" r="4" fill="#0" id="circle21"/>
	<circle cx="100.091" cy="654.028" r="4" fill="#0" id="circle22"/>
	<circle cx="100.091" cy="682.291" r="4" fill="#0" id="circle23"/>
	<circle cx="102.917" cy="724.684" r="4" fill="#0" id="circle24"/>
	<circle cx="105.744" cy="586.199" r="4" fill="#0" id="circle25"/>
	<circle cx="105.744" cy="614.462" r="4" fill="#0" id="circle26"/>
	<circle cx="111.396" cy="218.792" r="4" fill="#0" id="circle27"/>
	<circle cx="111.396" cy="348.798" r="4" fill="#0" id="circle28"/>
	<circle cx="117.048" cy="996" r="4" fill="#0" id="circle29"/>
	<circle cx="119.875" cy="456.194" r="4" fill="#0" id="circle30"/>
	<circle cx="134.006" cy="196.182" r="4" fill="#0" id="circle31"/>
	<circle cx="136.832" cy="362.929" r="4" fill="#0" id="circle32"/>
	<circle cx="145.311" cy="996" r="4" fill="#0" id="circle33"/>
	<circle cx="148.137" cy="444.889" r="4" fill="#0" id="circle34"/>
	<circle cx="162.268" cy="190.53" r="4" fill="#0" id="circle35"/>
	<circle cx="165.094" cy="368.581" r="4" fill="#0" id="circle36"/>
	<circle cx="173.573" cy="996" r="4" fill="#0" id="circle37"/>
	<circle cx="176.399" cy="430.758" r="4" fill="#0" id="circle38"/>
	<circle cx="187.704" cy="385.538" r="4" fill="#0" id="circle39"/>
	<circle cx="190.53" cy="184.877" r="4" fill="#0" id="circle40"/>
	<circle cx="201.835" cy="990.348" r="4" fill="#0" id="circle41"/>
	<circle cx="215.966" cy="170.746" r="4" fill="#0" id="circle42"/>
	<circle cx="227.271" cy="976.217" r="4" fill="#0" id="circle43"/>
	<circle cx="235.749" cy="145.311" r="4" fill="#0" id="circle44"/>
	<circle cx="252.707" cy="117.048" r="4" fill="#0" id="circle45"/>
	<circle cx="255.533" cy="973.39" r="4" fill="#0" id="circle46"/>
	<circle cx="269.664" cy="94.4387" r="4" fill="#0" id="circle47"/>
	<circle cx="283.795" cy="979.043" r="4" fill="#0" id="circle48"/>
	<circle cx="292.274" cy="71.8291" r="4" fill="#0" id="circle49"/>
	<circle cx="312.057" cy="984.695" r="4" fill="#0" id="circle50"/>
	<circle cx="314.883" cy="54.8718" r="4" fill="#0" id="circle51"/>
	<circle cx="340.319" cy="40.7407" r="4" fill="#0" id="circle52"/>
	<circle cx="340.319" cy="984.695" r="4" fill="#0" id="circle53"/>
	<circle cx="354.45" cy="15.3048" r="4" fill="#0" id="circle54"/>
	<circle cx="368.581" cy="990.348" r="4" fill="#0" id="circle55"/>
	<circle cx="382.712" cy="4" r="4" fill="#0" id="circle56"/>
	<circle cx="396.843" cy="990.348" r="4" fill="#0" id="circle57"/>
	<circle cx="410.974" cy="4" r="4" fill="#0" id="circle58"/>
	<circle cx="425.105" cy="996" r="4" fill="#0" id="circle59"/>
	<circle cx="439.236" cy="9.65242" r="4" fill="#0" id="circle60"/>
	<circle cx="453.368" cy="993.174" r="4" fill="#0" id="circle61"/>
	<circle cx="464.672" cy="23.7835" r="4" fill="#0" id="circle62"/>
	<circle cx="475.977" cy="52.0456" r="4" fill="#0" id="circle63"/>
	<circle cx="478.803" cy="979.043" r="4" fill="#0" id="circle64"/>
	<circle cx="498.587" cy="71.8291" r="4" fill="#0" id="circle65"/>
	<circle cx="507.066" cy="967.738" r="4" fill="#0" id="circle66"/>
	<circle cx="515.544" cy="919.692" r="4" fill="#0" id="circle67"/>
	<circle cx="521.197" cy="795.339" r="4" fill="#0" id="circle68"/>
	<circle cx="521.197" cy="823.601" r="4" fill="#0" id="circle69"/>
	<circle cx="521.197" cy="891.43" r="4" fill="#0" id="circle70"/>
	<circle cx="524.023" cy="85.9601" r="4" fill="#0" id="circle71"/>
	<circle cx="526.849" cy="399.67" r="4" fill="#0" id="circle72"/>
	<circle cx="526.849" cy="461.846" r="4" fill="#0" id="circle73"/>
	<circle cx="526.849" cy="490.108" r="4" fill="#0" id="circle74"/>
	<circle cx="526.849" cy="851.863" r="4" fill="#0" id="circle75"/>
	<circle cx="529.675" cy="518.37" r="4" fill="#0" id="circle76"/>
	<circle cx="532.501" cy="427.932" r="4" fill="#0" id="circle77"/>
	<circle cx="532.501" cy="546.632" r="4" fill="#0" id="circle78"/>
	<circle cx="532.501" cy="574.895" r="4" fill="#0" id="circle79"/>
	<circle cx="532.501" cy="603.157" r="4" fill="#0" id="circle80"/>
	<circle cx="538.154" cy="631.419" r="4" fill="#0" id="circle81"/>
	<circle cx="538.154" cy="659.681" r="4" fill="#0" id="circle82"/>
	<circle cx="538.154" cy="687.943" r="4" fill="#0" id="circle83"/>
	<circle cx="538.154" cy="716.205" r="4" fill="#0" id="circle84"/>
	<circle cx="538.154" cy="744.467" r="4" fill="#0" id="circle85"/>
	<circle cx="538.154" cy="772.729" r="4" fill="#0" id="circle86"/>
	<circle cx="540.98" cy="374.234" r="4" fill="#0" id="circle87"/>
	<circle cx="543.806" cy="108.57" r="4" fill="#0" id="circle88"/>
	<circle cx="555.111" cy="348.798" r="4" fill="#0" id="circle89"/>
	<circle cx="560.764" cy="131.179" r="4" fill="#0" id="circle90"/>
	<circle cx="572.068" cy="159.442" r="4" fill="#0" id="circle91"/>
	<circle cx="572.068" cy="326.188" r="4" fill="#0" id="circle92"/>
	<circle cx="583.373" cy="187.704" r="4" fill="#0" id="circle93"/>
	<circle cx="586.199" cy="300.752" r="4" fill="#0" id="circle94"/>
	<circle cx="589.026" cy="215.966" r="4" fill="#0" id="circle95"/>
	<circle cx="589.026" cy="269.664" r="4" fill="#0" id="circle96"/>
	</g>
</svg>