<?xml version="1.0" encoding="UTF-8" standalone="no"?>
<!-- Created with CurveBenchmark -->
<svg
	xmlns:dc="http://purl.org/dc/elements/1.1/"
	xmlns:cc="http://creativecommons.org/ns#"
	xmlns:rdf="http://www.w3.org/1999/02/22-rdf-syntax-ns#"
	xmlns:svg="http://www.w3.org/2000/svg"
	xmlns="http://www.w3.org/2000/svg"
	xmlns:sodipodi="http://sodipodi.sourceforge.net/DTD/sodipodi-0.dtd"
	xmlns:inkscape="http://www.inkscape.org/namespaces/inkscape"
	width="1000"
	height="1000"
	id="svg2"
	version="1.1"
	sodipodi:docname="manifold/vicur-children08.png.txt">
<defs
	id="defs4" />
<metadata
	id="metadata7">
	<rdf:RDF>
		<cc:Work
			rdf:about="">
			<dc:format>image/svg+xml</dc:format>
			<dc:type
				rdf:resource="http://purl.org/dc/dcmitype/StillImage" />
			<dc:title></dc:title>
		</cc:Work>
	</rdf:RDF>
</metadata>
<g
	inkscape:label="Layer 1"
	inkscape:groupmode="layer"
	id="layer1">
	<path style="fill:none;stroke:red;stroke-width:1px;stroke-linecap:butt;stroke-linejoin:miter;stroke-opacity:1" d="M 4,300.268 4,316.913 z" id="boundary" inkscape:connector-curvature="0" />
	<path style="fill:none;stroke:red;stroke-width:1px;stroke-linecap:butt;stroke-linejoin:miter;stroke-opacity:1" d="M 4,300.268 12.3221,283.624 z" id="boundary" inkscape:connector-curvature="0" />
	<path style="fill:none;stroke:red;stroke-width:1px;stroke-linecap:butt;stroke-linejoin:miter;stroke-opacity:1" d="M 4,316.913 4,333.557 z" id="boundary" inkscape:connector-curvature="0" />
	<path style="fill:none;stroke:red;stroke-width:1px;stroke-linecap:butt;stroke-linejoin:miter;stroke-opacity:1" d="M 4,333.557 4,350.201 z" id="boundary" inkscape:connector-curvature="0" />
	<path style="fill:none;stroke:red;stroke-width:1px;stroke-linecap:butt;stroke-linejoin:miter;stroke-opacity:1" d="M 4,350.201 4,366.846 z" id="boundary" inkscape:connector-curvature="0" />
	<path style="fill:none;stroke:red;stroke-width:1px;stroke-linecap:butt;stroke-linejoin:miter;stroke-opacity:1" d="M 4,366.846 4,383.49 z" id="boundary" inkscape:connector-curvature="0" />
	<path style="fill:none;stroke:red;stroke-width:1px;stroke-linecap:butt;stroke-linejoin:miter;stroke-opacity:1" d="M 4,383.49 12.3221,398.47 z" id="boundary" inkscape:connector-curvature="0" />
	<path style="fill:none;stroke:red;stroke-width:1px;stroke-linecap:butt;stroke-linejoin:miter;stroke-opacity:1" d="M 12.3221,283.624 20.6443,266.98 z" id="boundary" inkscape:connector-curvature="0" />
	<path style="fill:none;stroke:red;stroke-width:1px;stroke-linecap:butt;stroke-linejoin:miter;stroke-opacity:1" d="M 12.3221,398.47 12.3221,415.114 z" id="boundary" inkscape:connector-curvature="0" />
	<path style="fill:none;stroke:red;stroke-width:1px;stroke-linecap:butt;stroke-linejoin:miter;stroke-opacity:1" d="M 12.3221,415.114 12.3221,431.758 z" id="boundary" inkscape:connector-curvature="0" />
	<path style="fill:none;stroke:red;stroke-width:1px;stroke-linecap:butt;stroke-linejoin:miter;stroke-opacity:1" d="M 12.3221,431.758 12.3221,448.403 z" id="boundary" inkscape:connector-curvature="0" />
	<path style="fill:none;stroke:red;stroke-width:1px;stroke-linecap:butt;stroke-linejoin:miter;stroke-opacity:1" d="M 12.3221,448.403 12.3221,465.047 z" id="boundary" inkscape:connector-curvature="0" />
	<path style="fill:none;stroke:red;stroke-width:1px;stroke-linecap:butt;stroke-linejoin:miter;stroke-opacity:1" d="M 12.3221,465.047 20.6443,480.027 z" id="boundary" inkscape:connector-curvature="0" />
	<path style="fill:none;stroke:red;stroke-width:1px;stroke-linecap:butt;stroke-linejoin:miter;stroke-opacity:1" d="M 20.6443,92.2148 20.6443,108.859 z" id="boundary" inkscape:connector-curvature="0" />
	<path style="fill:none;stroke:red;stroke-width:1px;stroke-linecap:butt;stroke-linejoin:miter;stroke-opacity:1" d="M 20.6443,92.2148 28.9664,67.2483 z" id="boundary" inkscape:connector-curvature="0" />
	<path style="fill:none;stroke:red;stroke-width:1px;stroke-linecap:butt;stroke-linejoin:miter;stroke-opacity:1" d="M 20.6443,108.859 28.9664,123.839 z" id="boundary" inkscape:connector-curvature="0" />
	<path style="fill:none;stroke:red;stroke-width:1px;stroke-linecap:butt;stroke-linejoin:miter;stroke-opacity:1" d="M 20.6443,266.98 33.9597,253.664 z" id="boundary" inkscape:connector-curvature="0" />
	<path style="fill:none;stroke:red;stroke-width:1px;stroke-linecap:butt;stroke-linejoin:miter;stroke-opacity:1" d="M 20.6443,480.027 20.6443,496.671 z" id="boundary" inkscape:connector-curvature="0" />
	<path style="fill:none;stroke:red;stroke-width:1px;stroke-linecap:butt;stroke-linejoin:miter;stroke-opacity:1" d="M 20.6443,496.671 20.6443,513.315 z" id="boundary" inkscape:connector-curvature="0" />
	<path style="fill:none;stroke:red;stroke-width:1px;stroke-linecap:butt;stroke-linejoin:miter;stroke-opacity:1" d="M 20.6443,513.315 25.6376,529.96 z" id="boundary" inkscape:connector-curvature="0" />
	<path style="fill:none;stroke:red;stroke-width:1px;stroke-linecap:butt;stroke-linejoin:miter;stroke-opacity:1" d="M 25.6376,529.96 28.9664,546.604 z" id="boundary" inkscape:connector-curvature="0" />
	<path style="fill:none;stroke:red;stroke-width:1px;stroke-linecap:butt;stroke-linejoin:miter;stroke-opacity:1" d="M 28.9664,67.2483 37.2886,50.604 z" id="boundary" inkscape:connector-curvature="0" />
	<path style="fill:none;stroke:red;stroke-width:1px;stroke-linecap:butt;stroke-linejoin:miter;stroke-opacity:1" d="M 28.9664,123.839 37.2886,138.819 z" id="boundary" inkscape:connector-curvature="0" />
	<path style="fill:none;stroke:red;stroke-width:1px;stroke-linecap:butt;stroke-linejoin:miter;stroke-opacity:1" d="M 28.9664,546.604 37.2886,561.584 z" id="boundary" inkscape:connector-curvature="0" />
	<path style="fill:none;stroke:red;stroke-width:1px;stroke-linecap:butt;stroke-linejoin:miter;stroke-opacity:1" d="M 33.9597,253.664 50.604,245.342 z" id="boundary" inkscape:connector-curvature="0" />
	<path style="fill:none;stroke:red;stroke-width:1px;stroke-linecap:butt;stroke-linejoin:miter;stroke-opacity:1" d="M 37.2886,50.604 50.604,37.2886 z" id="boundary" inkscape:connector-curvature="0" />
	<path style="fill:none;stroke:red;stroke-width:1px;stroke-linecap:butt;stroke-linejoin:miter;stroke-opacity:1" d="M 37.2886,138.819 42.2819,155.463 z" id="boundary" inkscape:connector-curvature="0" />
	<path style="fill:none;stroke:red;stroke-width:1px;stroke-linecap:butt;stroke-linejoin:miter;stroke-opacity:1" d="M 37.2886,561.584 37.2886,578.228 z" id="boundary" inkscape:connector-curvature="0" />
	<path style="fill:none;stroke:red;stroke-width:1px;stroke-linecap:butt;stroke-linejoin:miter;stroke-opacity:1" d="M 37.2886,578.228 37.2886,594.872 z" id="boundary" inkscape:connector-curvature="0" />
	<path style="fill:none;stroke:red;stroke-width:1px;stroke-linecap:butt;stroke-linejoin:miter;stroke-opacity:1" d="M 37.2886,594.872 37.2886,611.517 z" id="boundary" inkscape:connector-curvature="0" />
	<path style="fill:none;stroke:red;stroke-width:1px;stroke-linecap:butt;stroke-linejoin:miter;stroke-opacity:1" d="M 37.2886,611.517 47.2752,624.832 z" id="boundary" inkscape:connector-curvature="0" />
	<path style="fill:none;stroke:red;stroke-width:1px;stroke-linecap:butt;stroke-linejoin:miter;stroke-opacity:1" d="M 42.2819,155.463 55.5973,167.114 z" id="boundary" inkscape:connector-curvature="0" />
	<path style="fill:none;stroke:red;stroke-width:1px;stroke-linecap:butt;stroke-linejoin:miter;stroke-opacity:1" d="M 47.2752,624.832 53.9329,641.477 z" id="boundary" inkscape:connector-curvature="0" />
	<path style="fill:none;stroke:red;stroke-width:1px;stroke-linecap:butt;stroke-linejoin:miter;stroke-opacity:1" d="M 50.604,37.2886 63.9195,23.9732 z" id="boundary" inkscape:connector-curvature="0" />
	<path style="fill:none;stroke:red;stroke-width:1px;stroke-linecap:butt;stroke-linejoin:miter;stroke-opacity:1" d="M 50.604,245.342 63.9195,232.027 z" id="boundary" inkscape:connector-curvature="0" />
	<path style="fill:none;stroke:red;stroke-width:1px;stroke-linecap:butt;stroke-linejoin:miter;stroke-opacity:1" d="M 53.9329,641.477 53.9329,658.121 z" id="boundary" inkscape:connector-curvature="0" />
	<path style="fill:none;stroke:red;stroke-width:1px;stroke-linecap:butt;stroke-linejoin:miter;stroke-opacity:1" d="M 53.9329,658.121 67.2483,669.772 z" id="boundary" inkscape:connector-curvature="0" />
	<path style="fill:none;stroke:red;stroke-width:1px;stroke-linecap:butt;stroke-linejoin:miter;stroke-opacity:1" d="M 55.5973,167.114 62.255,183.758 z" id="boundary" inkscape:connector-curvature="0" />
	<path style="fill:none;stroke:red;stroke-width:1px;stroke-linecap:butt;stroke-linejoin:miter;stroke-opacity:1" d="M 62.255,183.758 70.5772,198.738 z" id="boundary" inkscape:connector-curvature="0" />
	<path style="fill:none;stroke:red;stroke-width:1px;stroke-linecap:butt;stroke-linejoin:miter;stroke-opacity:1" d="M 63.9195,23.9732 77.2349,12.3221 z" id="boundary" inkscape:connector-curvature="0" />
	<path style="fill:none;stroke:red;stroke-width:1px;stroke-linecap:butt;stroke-linejoin:miter;stroke-opacity:1" d="M 63.9195,232.027 70.5772,215.383 z" id="boundary" inkscape:connector-curvature="0" />
	<path style="fill:none;stroke:red;stroke-width:1px;stroke-linecap:butt;stroke-linejoin:miter;stroke-opacity:1" d="M 67.2483,669.772 78.8993,683.087 z" id="boundary" inkscape:connector-curvature="0" />
	<path style="fill:none;stroke:red;stroke-width:1px;stroke-linecap:butt;stroke-linejoin:miter;stroke-opacity:1" d="M 70.5772,198.738 70.5772,215.383 z" id="boundary" inkscape:connector-curvature="0" />
	<path style="fill:none;stroke:red;stroke-width:1px;stroke-linecap:butt;stroke-linejoin:miter;stroke-opacity:1" d="M 77.2349,12.3221 92.2148,4 z" id="boundary" inkscape:connector-curvature="0" />
	<path style="fill:none;stroke:red;stroke-width:1px;stroke-linecap:butt;stroke-linejoin:miter;stroke-opacity:1" d="M 78.8993,683.087 92.2148,694.738 z" id="boundary" inkscape:connector-curvature="0" />
	<path style="fill:none;stroke:red;stroke-width:1px;stroke-linecap:butt;stroke-linejoin:miter;stroke-opacity:1" d="M 87.2215,807.919 87.2215,824.564 z" id="boundary" inkscape:connector-curvature="0" />
	<path style="fill:none;stroke:red;stroke-width:1px;stroke-linecap:butt;stroke-linejoin:miter;stroke-opacity:1" d="M 87.2215,807.919 95.5436,782.953 z" id="boundary" inkscape:connector-curvature="0" />
	<path style="fill:none;stroke:red;stroke-width:1px;stroke-linecap:butt;stroke-linejoin:miter;stroke-opacity:1" d="M 87.2215,824.564 95.5436,839.544 z" id="boundary" inkscape:connector-curvature="0" />
	<path style="fill:none;stroke:red;stroke-width:1px;stroke-linecap:butt;stroke-linejoin:miter;stroke-opacity:1" d="M 92.2148,4 108.859,4 z" id="boundary" inkscape:connector-curvature="0" />
	<path style="fill:none;stroke:red;stroke-width:1px;stroke-linecap:butt;stroke-linejoin:miter;stroke-opacity:1" d="M 92.2148,694.738 103.866,708.054 z" id="boundary" inkscape:connector-curvature="0" />
	<path style="fill:none;stroke:red;stroke-width:1px;stroke-linecap:butt;stroke-linejoin:miter;stroke-opacity:1" d="M 95.5436,782.953 103.866,757.987 z" id="boundary" inkscape:connector-curvature="0" />
	<path style="fill:none;stroke:red;stroke-width:1px;stroke-linecap:butt;stroke-linejoin:miter;stroke-opacity:1" d="M 95.5436,839.544 95.5436,856.188 z" id="boundary" inkscape:connector-curvature="0" />
	<path style="fill:none;stroke:red;stroke-width:1px;stroke-linecap:butt;stroke-linejoin:miter;stroke-opacity:1" d="M 95.5436,856.188 103.866,871.168 z" id="boundary" inkscape:connector-curvature="0" />
	<path style="fill:none;stroke:red;stroke-width:1px;stroke-linecap:butt;stroke-linejoin:miter;stroke-opacity:1" d="M 103.866,708.054 103.866,724.698 z" id="boundary" inkscape:connector-curvature="0" />
	<path style="fill:none;stroke:red;stroke-width:1px;stroke-linecap:butt;stroke-linejoin:miter;stroke-opacity:1" d="M 103.866,724.698 103.866,741.342 z" id="boundary" inkscape:connector-curvature="0" />
	<path style="fill:none;stroke:red;stroke-width:1px;stroke-linecap:butt;stroke-linejoin:miter;stroke-opacity:1" d="M 103.866,741.342 103.866,757.987 z" id="boundary" inkscape:connector-curvature="0" />
	<path style="fill:none;stroke:red;stroke-width:1px;stroke-linecap:butt;stroke-linejoin:miter;stroke-opacity:1" d="M 103.866,871.168 103.866,887.812 z" id="boundary" inkscape:connector-curvature="0" />
	<path style="fill:none;stroke:red;stroke-width:1px;stroke-linecap:butt;stroke-linejoin:miter;stroke-opacity:1" d="M 103.866,887.812 103.866,904.456 z" id="boundary" inkscape:connector-curvature="0" />
	<path style="fill:none;stroke:red;stroke-width:1px;stroke-linecap:butt;stroke-linejoin:miter;stroke-opacity:1" d="M 103.866,904.456 103.866,921.101 z" id="boundary" inkscape:connector-curvature="0" />
	<path style="fill:none;stroke:red;stroke-width:1px;stroke-linecap:butt;stroke-linejoin:miter;stroke-opacity:1" d="M 103.866,921.101 103.866,937.745 z" id="boundary" inkscape:connector-curvature="0" />
	<path style="fill:none;stroke:red;stroke-width:1px;stroke-linecap:butt;stroke-linejoin:miter;stroke-opacity:1" d="M 103.866,937.745 108.859,954.389 z" id="boundary" inkscape:connector-curvature="0" />
	<path style="fill:none;stroke:red;stroke-width:1px;stroke-linecap:butt;stroke-linejoin:miter;stroke-opacity:1" d="M 108.859,4 125.503,4 z" id="boundary" inkscape:connector-curvature="0" />
	<path style="fill:none;stroke:red;stroke-width:1px;stroke-linecap:butt;stroke-linejoin:miter;stroke-opacity:1" d="M 108.859,954.389 117.181,969.369 z" id="boundary" inkscape:connector-curvature="0" />
	<path style="fill:none;stroke:red;stroke-width:1px;stroke-linecap:butt;stroke-linejoin:miter;stroke-opacity:1" d="M 117.181,969.369 128.832,982.685 z" id="boundary" inkscape:connector-curvature="0" />
	<path style="fill:none;stroke:red;stroke-width:1px;stroke-linecap:butt;stroke-linejoin:miter;stroke-opacity:1" d="M 125.503,4 142.148,4 z" id="boundary" inkscape:connector-curvature="0" />
	<path style="fill:none;stroke:red;stroke-width:1px;stroke-linecap:butt;stroke-linejoin:miter;stroke-opacity:1" d="M 128.832,982.685 145.477,987.678 z" id="boundary" inkscape:connector-curvature="0" />
	<path style="fill:none;stroke:red;stroke-width:1px;stroke-linecap:butt;stroke-linejoin:miter;stroke-opacity:1" d="M 142.148,4 158.792,4 z" id="boundary" inkscape:connector-curvature="0" />
	<path style="fill:none;stroke:red;stroke-width:1px;stroke-linecap:butt;stroke-linejoin:miter;stroke-opacity:1" d="M 145.477,987.678 162.121,987.678 z" id="boundary" inkscape:connector-curvature="0" />
	<path style="fill:none;stroke:red;stroke-width:1px;stroke-linecap:butt;stroke-linejoin:miter;stroke-opacity:1" d="M 158.792,4 175.436,4 z" id="boundary" inkscape:connector-curvature="0" />
	<path style="fill:none;stroke:red;stroke-width:1px;stroke-linecap:butt;stroke-linejoin:miter;stroke-opacity:1" d="M 162.121,987.678 177.101,996 z" id="boundary" inkscape:connector-curvature="0" />
	<path style="fill:none;stroke:red;stroke-width:1px;stroke-linecap:butt;stroke-linejoin:miter;stroke-opacity:1" d="M 175.436,4 190.416,12.3221 z" id="boundary" inkscape:connector-curvature="0" />
	<path style="fill:none;stroke:red;stroke-width:1px;stroke-linecap:butt;stroke-linejoin:miter;stroke-opacity:1" d="M 177.101,996 193.745,996 z" id="boundary" inkscape:connector-curvature="0" />
	<path style="fill:none;stroke:red;stroke-width:1px;stroke-linecap:butt;stroke-linejoin:miter;stroke-opacity:1" d="M 190.416,12.3221 205.396,20.6443 z" id="boundary" inkscape:connector-curvature="0" />
	<path style="fill:none;stroke:red;stroke-width:1px;stroke-linecap:butt;stroke-linejoin:miter;stroke-opacity:1" d="M 193.745,996 210.389,996 z" id="boundary" inkscape:connector-curvature="0" />
	<path style="fill:none;stroke:red;stroke-width:1px;stroke-linecap:butt;stroke-linejoin:miter;stroke-opacity:1" d="M 205.396,20.6443 222.04,20.6443 z" id="boundary" inkscape:connector-curvature="0" />
	<path style="fill:none;stroke:red;stroke-width:1px;stroke-linecap:butt;stroke-linejoin:miter;stroke-opacity:1" d="M 210.389,996 227.034,996 z" id="boundary" inkscape:connector-curvature="0" />
	<path style="fill:none;stroke:red;stroke-width:1px;stroke-linecap:butt;stroke-linejoin:miter;stroke-opacity:1" d="M 222.04,20.6443 237.02,28.9664 z" id="boundary" inkscape:connector-curvature="0" />
	<path style="fill:none;stroke:red;stroke-width:1px;stroke-linecap:butt;stroke-linejoin:miter;stroke-opacity:1" d="M 227.034,996 243.678,996 z" id="boundary" inkscape:connector-curvature="0" />
	<path style="fill:none;stroke:red;stroke-width:1px;stroke-linecap:butt;stroke-linejoin:miter;stroke-opacity:1" d="M 237.02,28.9664 250.336,38.953 z" id="boundary" inkscape:connector-curvature="0" />
	<path style="fill:none;stroke:red;stroke-width:1px;stroke-linecap:butt;stroke-linejoin:miter;stroke-opacity:1" d="M 243.678,996 260.322,996 z" id="boundary" inkscape:connector-curvature="0" />
	<path style="fill:none;stroke:red;stroke-width:1px;stroke-linecap:butt;stroke-linejoin:miter;stroke-opacity:1" d="M 247.007,871.168 255.329,846.201 z" id="boundary" inkscape:connector-curvature="0" />
	<path style="fill:none;stroke:red;stroke-width:1px;stroke-linecap:butt;stroke-linejoin:miter;stroke-opacity:1" d="M 247.007,871.168 255.329,886.148 z" id="boundary" inkscape:connector-curvature="0" />
	<path style="fill:none;stroke:red;stroke-width:1px;stroke-linecap:butt;stroke-linejoin:miter;stroke-opacity:1" d="M 250.336,38.953 258.658,53.9329 z" id="boundary" inkscape:connector-curvature="0" />
	<path style="fill:none;stroke:red;stroke-width:1px;stroke-linecap:butt;stroke-linejoin:miter;stroke-opacity:1" d="M 255.329,213.718 255.329,230.362 z" id="boundary" inkscape:connector-curvature="0" />
	<path style="fill:none;stroke:red;stroke-width:1px;stroke-linecap:butt;stroke-linejoin:miter;stroke-opacity:1" d="M 255.329,213.718 263.651,197.074 z" id="boundary" inkscape:connector-curvature="0" />
	<path style="fill:none;stroke:red;stroke-width:1px;stroke-linecap:butt;stroke-linejoin:miter;stroke-opacity:1" d="M 255.329,230.362 258.658,247.007 z" id="boundary" inkscape:connector-curvature="0" />
	<path style="fill:none;stroke:red;stroke-width:1px;stroke-linecap:butt;stroke-linejoin:miter;stroke-opacity:1" d="M 255.329,846.201 263.651,829.557 z" id="boundary" inkscape:connector-curvature="0" />
	<path style="fill:none;stroke:red;stroke-width:1px;stroke-linecap:butt;stroke-linejoin:miter;stroke-opacity:1" d="M 255.329,886.148 268.644,896.134 z" id="boundary" inkscape:connector-curvature="0" />
	<path style="fill:none;stroke:red;stroke-width:1px;stroke-linecap:butt;stroke-linejoin:miter;stroke-opacity:1" d="M 258.658,53.9329 263.651,70.5772 z" id="boundary" inkscape:connector-curvature="0" />
	<path style="fill:none;stroke:red;stroke-width:1px;stroke-linecap:butt;stroke-linejoin:miter;stroke-opacity:1" d="M 258.658,247.007 266.98,261.987 z" id="boundary" inkscape:connector-curvature="0" />
	<path style="fill:none;stroke:red;stroke-width:1px;stroke-linecap:butt;stroke-linejoin:miter;stroke-opacity:1" d="M 260.322,996 276.966,992.671 z" id="boundary" inkscape:connector-curvature="0" />
	<path style="fill:none;stroke:red;stroke-width:1px;stroke-linecap:butt;stroke-linejoin:miter;stroke-opacity:1" d="M 263.651,70.5772 271.973,85.557 z" id="boundary" inkscape:connector-curvature="0" />
	<path style="fill:none;stroke:red;stroke-width:1px;stroke-linecap:butt;stroke-linejoin:miter;stroke-opacity:1" d="M 263.651,197.074 271.973,168.779 z" id="boundary" inkscape:connector-curvature="0" />
	<path style="fill:none;stroke:red;stroke-width:1px;stroke-linecap:butt;stroke-linejoin:miter;stroke-opacity:1" d="M 263.651,829.557 271.973,804.591 z" id="boundary" inkscape:connector-curvature="0" />
	<path style="fill:none;stroke:red;stroke-width:1px;stroke-linecap:butt;stroke-linejoin:miter;stroke-opacity:1" d="M 266.98,261.987 278.631,275.302 z" id="boundary" inkscape:connector-curvature="0" />
	<path style="fill:none;stroke:red;stroke-width:1px;stroke-linecap:butt;stroke-linejoin:miter;stroke-opacity:1" d="M 268.644,896.134 280.295,909.45 z" id="boundary" inkscape:connector-curvature="0" />
	<path style="fill:none;stroke:red;stroke-width:1px;stroke-linecap:butt;stroke-linejoin:miter;stroke-opacity:1" d="M 271.973,85.557 271.973,102.201 z" id="boundary" inkscape:connector-curvature="0" />
	<path style="fill:none;stroke:red;stroke-width:1px;stroke-linecap:butt;stroke-linejoin:miter;stroke-opacity:1" d="M 271.973,102.201 271.973,118.846 z" id="boundary" inkscape:connector-curvature="0" />
	<path style="fill:none;stroke:red;stroke-width:1px;stroke-linecap:butt;stroke-linejoin:miter;stroke-opacity:1" d="M 271.973,118.846 271.973,135.49 z" id="boundary" inkscape:connector-curvature="0" />
	<path style="fill:none;stroke:red;stroke-width:1px;stroke-linecap:butt;stroke-linejoin:miter;stroke-opacity:1" d="M 271.973,135.49 271.973,152.134 z" id="boundary" inkscape:connector-curvature="0" />
	<path style="fill:none;stroke:red;stroke-width:1px;stroke-linecap:butt;stroke-linejoin:miter;stroke-opacity:1" d="M 271.973,152.134 271.973,168.779 z" id="boundary" inkscape:connector-curvature="0" />
	<path style="fill:none;stroke:red;stroke-width:1px;stroke-linecap:butt;stroke-linejoin:miter;stroke-opacity:1" d="M 271.973,804.591 280.295,779.624 z" id="boundary" inkscape:connector-curvature="0" />
	<path style="fill:none;stroke:red;stroke-width:1px;stroke-linecap:butt;stroke-linejoin:miter;stroke-opacity:1" d="M 276.966,992.671 293.611,987.678 z" id="boundary" inkscape:connector-curvature="0" />
	<path style="fill:none;stroke:red;stroke-width:1px;stroke-linecap:butt;stroke-linejoin:miter;stroke-opacity:1" d="M 278.631,275.302 280.295,291.946 z" id="boundary" inkscape:connector-curvature="0" />
	<path style="fill:none;stroke:red;stroke-width:1px;stroke-linecap:butt;stroke-linejoin:miter;stroke-opacity:1" d="M 280.295,291.946 286.953,308.591 z" id="boundary" inkscape:connector-curvature="0" />
	<path style="fill:none;stroke:red;stroke-width:1px;stroke-linecap:butt;stroke-linejoin:miter;stroke-opacity:1" d="M 280.295,762.98 280.295,779.624 z" id="boundary" inkscape:connector-curvature="0" />
	<path style="fill:none;stroke:red;stroke-width:1px;stroke-linecap:butt;stroke-linejoin:miter;stroke-opacity:1" d="M 280.295,762.98 288.617,746.336 z" id="boundary" inkscape:connector-curvature="0" />
	<path style="fill:none;stroke:red;stroke-width:1px;stroke-linecap:butt;stroke-linejoin:miter;stroke-opacity:1" d="M 280.295,909.45 293.611,919.436 z" id="boundary" inkscape:connector-curvature="0" />
	<path style="fill:none;stroke:red;stroke-width:1px;stroke-linecap:butt;stroke-linejoin:miter;stroke-opacity:1" d="M 286.953,308.591 288.617,325.235 z" id="boundary" inkscape:connector-curvature="0" />
	<path style="fill:none;stroke:red;stroke-width:1px;stroke-linecap:butt;stroke-linejoin:miter;stroke-opacity:1" d="M 288.617,325.235 296.94,340.215 z" id="boundary" inkscape:connector-curvature="0" />
	<path style="fill:none;stroke:red;stroke-width:1px;stroke-linecap:butt;stroke-linejoin:miter;stroke-opacity:1" d="M 288.617,363.517 291.946,380.161 z" id="boundary" inkscape:connector-curvature="0" />
	<path style="fill:none;stroke:red;stroke-width:1px;stroke-linecap:butt;stroke-linejoin:miter;stroke-opacity:1" d="M 288.617,363.517 296.94,340.215 z" id="boundary" inkscape:connector-curvature="0" />
	<path style="fill:none;stroke:red;stroke-width:1px;stroke-linecap:butt;stroke-linejoin:miter;stroke-opacity:1" d="M 288.617,746.336 296.94,729.691 z" id="boundary" inkscape:connector-curvature="0" />
	<path style="fill:none;stroke:red;stroke-width:1px;stroke-linecap:butt;stroke-linejoin:miter;stroke-opacity:1" d="M 291.946,380.161 296.94,396.805 z" id="boundary" inkscape:connector-curvature="0" />
	<path style="fill:none;stroke:red;stroke-width:1px;stroke-linecap:butt;stroke-linejoin:miter;stroke-opacity:1" d="M 293.611,919.436 310.255,921.101 z" id="boundary" inkscape:connector-curvature="0" />
	<path style="fill:none;stroke:red;stroke-width:1px;stroke-linecap:butt;stroke-linejoin:miter;stroke-opacity:1" d="M 293.611,987.678 308.591,977.691 z" id="boundary" inkscape:connector-curvature="0" />
	<path style="fill:none;stroke:red;stroke-width:1px;stroke-linecap:butt;stroke-linejoin:miter;stroke-opacity:1" d="M 296.94,396.805 305.262,411.785 z" id="boundary" inkscape:connector-curvature="0" />
	<path style="fill:none;stroke:red;stroke-width:1px;stroke-linecap:butt;stroke-linejoin:miter;stroke-opacity:1" d="M 296.94,679.758 296.94,696.403 z" id="boundary" inkscape:connector-curvature="0" />
	<path style="fill:none;stroke:red;stroke-width:1px;stroke-linecap:butt;stroke-linejoin:miter;stroke-opacity:1" d="M 296.94,679.758 310.255,668.107 z" id="boundary" inkscape:connector-curvature="0" />
	<path style="fill:none;stroke:red;stroke-width:1px;stroke-linecap:butt;stroke-linejoin:miter;stroke-opacity:1" d="M 296.94,696.403 296.94,713.047 z" id="boundary" inkscape:connector-curvature="0" />
	<path style="fill:none;stroke:red;stroke-width:1px;stroke-linecap:butt;stroke-linejoin:miter;stroke-opacity:1" d="M 296.94,713.047 296.94,729.691 z" id="boundary" inkscape:connector-curvature="0" />
	<path style="fill:none;stroke:red;stroke-width:1px;stroke-linecap:butt;stroke-linejoin:miter;stroke-opacity:1" d="M 305.262,411.785 313.584,426.765 z" id="boundary" inkscape:connector-curvature="0" />
	<path style="fill:none;stroke:red;stroke-width:1px;stroke-linecap:butt;stroke-linejoin:miter;stroke-opacity:1" d="M 308.591,977.691 325.235,969.369 z" id="boundary" inkscape:connector-curvature="0" />
	<path style="fill:none;stroke:red;stroke-width:1px;stroke-linecap:butt;stroke-linejoin:miter;stroke-opacity:1" d="M 310.255,668.107 318.577,651.463 z" id="boundary" inkscape:connector-curvature="0" />
	<path style="fill:none;stroke:red;stroke-width:1px;stroke-linecap:butt;stroke-linejoin:miter;stroke-opacity:1" d="M 310.255,921.101 325.235,929.423 z" id="boundary" inkscape:connector-curvature="0" />
	<path style="fill:none;stroke:red;stroke-width:1px;stroke-linecap:butt;stroke-linejoin:miter;stroke-opacity:1" d="M 313.584,426.765 313.584,443.409 z" id="boundary" inkscape:connector-curvature="0" />
	<path style="fill:none;stroke:red;stroke-width:1px;stroke-linecap:butt;stroke-linejoin:miter;stroke-opacity:1" d="M 313.584,443.409 313.584,460.054 z" id="boundary" inkscape:connector-curvature="0" />
	<path style="fill:none;stroke:red;stroke-width:1px;stroke-linecap:butt;stroke-linejoin:miter;stroke-opacity:1" d="M 313.584,460.054 321.906,475.034 z" id="boundary" inkscape:connector-curvature="0" />
	<path style="fill:none;stroke:red;stroke-width:1px;stroke-linecap:butt;stroke-linejoin:miter;stroke-opacity:1" d="M 318.577,651.463 321.906,621.503 z" id="boundary" inkscape:connector-curvature="0" />
	<path style="fill:none;stroke:red;stroke-width:1px;stroke-linecap:butt;stroke-linejoin:miter;stroke-opacity:1" d="M 321.906,475.034 328.564,491.678 z" id="boundary" inkscape:connector-curvature="0" />
	<path style="fill:none;stroke:red;stroke-width:1px;stroke-linecap:butt;stroke-linejoin:miter;stroke-opacity:1" d="M 321.906,621.503 330.228,604.859 z" id="boundary" inkscape:connector-curvature="0" />
	<path style="fill:none;stroke:red;stroke-width:1px;stroke-linecap:butt;stroke-linejoin:miter;stroke-opacity:1" d="M 325.235,929.423 338.55,941.074 z" id="boundary" inkscape:connector-curvature="0" />
	<path style="fill:none;stroke:red;stroke-width:1px;stroke-linecap:butt;stroke-linejoin:miter;stroke-opacity:1" d="M 325.235,969.369 338.55,957.718 z" id="boundary" inkscape:connector-curvature="0" />
	<path style="fill:none;stroke:red;stroke-width:1px;stroke-linecap:butt;stroke-linejoin:miter;stroke-opacity:1" d="M 328.564,491.678 330.228,508.322 z" id="boundary" inkscape:connector-curvature="0" />
	<path style="fill:none;stroke:red;stroke-width:1px;stroke-linecap:butt;stroke-linejoin:miter;stroke-opacity:1" d="M 330.228,508.322 338.55,523.302 z" id="boundary" inkscape:connector-curvature="0" />
	<path style="fill:none;stroke:red;stroke-width:1px;stroke-linecap:butt;stroke-linejoin:miter;stroke-opacity:1" d="M 330.228,604.859 343.544,593.208 z" id="boundary" inkscape:connector-curvature="0" />
	<path style="fill:none;stroke:red;stroke-width:1px;stroke-linecap:butt;stroke-linejoin:miter;stroke-opacity:1" d="M 338.55,523.302 343.544,539.946 z" id="boundary" inkscape:connector-curvature="0" />
	<path style="fill:none;stroke:red;stroke-width:1px;stroke-linecap:butt;stroke-linejoin:miter;stroke-opacity:1" d="M 338.55,941.074 338.55,957.718 z" id="boundary" inkscape:connector-curvature="0" />
	<path style="fill:none;stroke:red;stroke-width:1px;stroke-linecap:butt;stroke-linejoin:miter;stroke-opacity:1" d="M 343.544,539.946 346.872,556.591 z" id="boundary" inkscape:connector-curvature="0" />
	<path style="fill:none;stroke:red;stroke-width:1px;stroke-linecap:butt;stroke-linejoin:miter;stroke-opacity:1" d="M 343.544,593.208 346.872,573.235 z" id="boundary" inkscape:connector-curvature="0" />
	<path style="fill:none;stroke:red;stroke-width:1px;stroke-linecap:butt;stroke-linejoin:miter;stroke-opacity:1" d="M 346.872,556.591 346.872,573.235 z" id="boundary" inkscape:connector-curvature="0" />
	<circle cx="4" cy="300.268" r="4" fill="#0" id="circle0"/>
	<circle cx="4" cy="316.913" r="4" fill="#0" id="circle1"/>
	<circle cx="4" cy="333.557" r="4" fill="#0" id="circle2"/>
	<circle cx="4" cy="350.201" r="4" fill="#0" id="circle3"/>
	<circle cx="4" cy="366.846" r="4" fill="#0" id="circle4"/>
	<circle cx="4" cy="383.49" r="4" fill="#0" id="circle5"/>
	<circle cx="12.3221" cy="283.624" r="4" fill="#0" id="circle6"/>
	<circle cx="12.3221" cy="398.47" r="4" fill="#0" id="circle7"/>
	<circle cx="12.3221" cy="415.114" r="4" fill="#0" id="circle8"/>
	<circle cx="12.3221" cy="431.758" r="4" fill="#0" id="circle9"/>
	<circle cx="12.3221" cy="448.403" r="4" fill="#0" id="circle10"/>
	<circle cx="12.3221" cy="465.047" r="4" fill="#0" id="circle11"/>
	<circle cx="20.6443" cy="92.2148" r="4" fill="#0" id="circle12"/>
	<circle cx="20.6443" cy="108.859" r="4" fill="#0" id="circle13"/>
	<circle cx="20.6443" cy="266.98" r="4" fill="#0" id="circle14"/>
	<circle cx="20.6443" cy="480.027" r="4" fill="#0" id="circle15"/>
	<circle cx="20.6443" cy="496.671" r="4" fill="#0" id="circle16"/>
	<circle cx="20.6443" cy="513.315" r="4" fill="#0" id="circle17"/>
	<circle cx="25.6376" cy="529.96" r="4" fill="#0" id="circle18"/>
	<circle cx="28.9664" cy="67.2483" r="4" fill="#0" id="circle19"/>
	<circle cx="28.9664" cy="123.839" r="4" fill="#0" id="circle20"/>
	<circle cx="28.9664" cy="546.604" r="4" fill="#0" id="circle21"/>
	<circle cx="33.9597" cy="253.664" r="4" fill="#0" id="circle22"/>
	<circle cx="37.2886" cy="50.604" r="4" fill="#0" id="circle23"/>
	<circle cx="37.2886" cy="138.819" r="4" fill="#0" id="circle24"/>
	<circle cx="37.2886" cy="561.584" r="4" fill="#0" id="circle25"/>
	<circle cx="37.2886" cy="578.228" r="4" fill="#0" id="circle26"/>
	<circle cx="37.2886" cy="594.872" r="4" fill="#0" id="circle27"/>
	<circle cx="37.2886" cy="611.517" r="4" fill="#0" id="circle28"/>
	<circle cx="42.2819" cy="155.463" r="4" fill="#0" id="circle29"/>
	<circle cx="47.2752" cy="624.832" r="4" fill="#0" id="circle30"/>
	<circle cx="50.604" cy="37.2886" r="4" fill="#0" id="circle31"/>
	<circle cx="50.604" cy="245.342" r="4" fill="#0" id="circle32"/>
	<circle cx="53.9329" cy="641.477" r="4" fill="#0" id="circle33"/>
	<circle cx="53.9329" cy="658.121" r="4" fill="#0" id="circle34"/>
	<circle cx="55.5973" cy="167.114" r="4" fill="#0" id="circle35"/>
	<circle cx="62.255" cy="183.758" r="4" fill="#0" id="circle36"/>
	<circle cx="63.9195" cy="23.9732" r="4" fill="#0" id="circle37"/>
	<circle cx="63.9195" cy="232.027" r="4" fill="#0" id="circle38"/>
	<circle cx="67.2483" cy="669.772" r="4" fill="#0" id="circle39"/>
	<circle cx="70.5772" cy="198.738" r="4" fill="#0" id="circle40"/>
	<circle cx="70.5772" cy="215.383" r="4" fill="#0" id="circle41"/>
	<circle cx="77.2349" cy="12.3221" r="4" fill="#0" id="circle42"/>
	<circle cx="78.8993" cy="683.087" r="4" fill="#0" id="circle43"/>
	<circle cx="87.2215" cy="807.919" r="4" fill="#0" id="circle44"/>
	<circle cx="87.2215" cy="824.564" r="4" fill="#0" id="circle45"/>
	<circle cx="92.2148" cy="4" r="4" fill="#0" id="circle46"/>
	<circle cx="92.2148" cy="694.738" r="4" fill="#0" id="circle47"/>
	<circle cx="95.5436" cy="782.953" r="4" fill="#0" id="circle48"/>
	<circle cx="95.5436" cy="839.544" r="4" fill="#0" id="circle49"/>
	<circle cx="95.5436" cy="856.188" r="4" fill="#0" id="circle50"/>
	<circle cx="103.866" cy="708.054" r="4" fill="#0" id="circle51"/>
	<circle cx="103.866" cy="724.698" r="4" fill="#0" id="circle52"/>
	<circle cx="103.866" cy="741.342" r="4" fill="#0" id="circle53"/>
	<circle cx="103.866" cy="757.987" r="4" fill="#0" id="circle54"/>
	<circle cx="103.866" cy="871.168" r="4" fill="#0" id="circle55"/>
	<circle cx="103.866" cy="887.812" r="4" fill="#0" id="circle56"/>
	<circle cx="103.866" cy="904.456" r="4" fill="#0" id="circle57"/>
	<circle cx="103.866" cy="921.101" r="4" fill="#0" id="circle58"/>
	<circle cx="103.866" cy="937.745" r="4" fill="#0" id="circle59"/>
	<circle cx="108.859" cy="4" r="4" fill="#0" id="circle60"/>
	<circle cx="108.859" cy="954.389" r="4" fill="#0" id="circle61"/>
	<circle cx="117.181" cy="969.369" r="4" fill="#0" id="circle62"/>
	<circle cx="125.503" cy="4" r="4" fill="#0" id="circle63"/>
	<circle cx="128.832" cy="982.685" r="4" fill="#0" id="circle64"/>
	<circle cx="142.148" cy="4" r="4" fill="#0" id="circle65"/>
	<circle cx="145.477" cy="987.678" r="4" fill="#0" id="circle66"/>
	<circle cx="158.792" cy="4" r="4" fill="#0" id="circle67"/>
	<circle cx="162.121" cy="987.678" r="4" fill="#0" id="circle68"/>
	<circle cx="175.436" cy="4" r="4" fill="#0" id="circle69"/>
	<circle cx="177.101" cy="996" r="4" fill="#0" id="circle70"/>
	<circle cx="190.416" cy="12.3221" r="4" fill="#0" id="circle71"/>
	<circle cx="193.745" cy="996" r="4" fill="#0" id="circle72"/>
	<circle cx="205.396" cy="20.6443" r="4" fill="#0" id="circle73"/>
	<circle cx="210.389" cy="996" r="4" fill="#0" id="circle74"/>
	<circle cx="222.04" cy="20.6443" r="4" fill="#0" id="circle75"/>
	<circle cx="227.034" cy="996" r="4" fill="#0" id="circle76"/>
	<circle cx="237.02" cy="28.9664" r="4" fill="#0" id="circle77"/>
	<circle cx="243.678" cy="996" r="4" fill="#0" id="circle78"/>
	<circle cx="247.007" cy="871.168" r="4" fill="#0" id="circle79"/>
	<circle cx="250.336" cy="38.953" r="4" fill="#0" id="circle80"/>
	<circle cx="255.329" cy="213.718" r="4" fill="#0" id="circle81"/>
	<circle cx="255.329" cy="230.362" r="4" fill="#0" id="circle82"/>
	<circle cx="255.329" cy="846.201" r="4" fill="#0" id="circle83"/>
	<circle cx="255.329" cy="886.148" r="4" fill="#0" id="circle84"/>
	<circle cx="258.658" cy="53.9329" r="4" fill="#0" id="circle85"/>
	<circle cx="258.658" cy="247.007" r="4" fill="#0" id="circle86"/>
	<circle cx="260.322" cy="996" r="4" fill="#0" id="circle87"/>
	<circle cx="263.651" cy="70.5772" r="4" fill="#0" id="circle88"/>
	<circle cx="263.651" cy="197.074" r="4" fill="#0" id="circle89"/>
	<circle cx="263.651" cy="829.557" r="4" fill="#0" id="circle90"/>
	<circle cx="266.98" cy="261.987" r="4" fill="#0" id="circle91"/>
	<circle cx="268.644" cy="896.134" r="4" fill="#0" id="circle92"/>
	<circle cx="271.973" cy="85.557" r="4" fill="#0" id="circle93"/>
	<circle cx="271.973" cy="102.201" r="4" fill="#0" id="circle94"/>
	<circle cx="271.973" cy="118.846" r="4" fill="#0" id="circle95"/>
	<circle cx="271.973" cy="135.49" r="4" fill="#0" id="circle96"/>
	<circle cx="271.973" cy="152.134" r="4" fill="#0" id="circle97"/>
	<circle cx="271.973" cy="168.779" r="4" fill="#0" id="circle98"/>
	<circle cx="271.973" cy="804.591" r="4" fill="#0" id="circle99"/>
	<circle cx="276.966" cy="992.671" r="4" fill="#0" id="circle100"/>
	<circle cx="278.631" cy="275.302" r="4" fill="#0" id="circle101"/>
	<circle cx="280.295" cy="291.946" r="4" fill="#0" id="circle102"/>
	<circle cx="280.295" cy="762.98" r="4" fill="#0" id="circle103"/>
	<circle cx="280.295" cy="779.624" r="4" fill="#0" id="circle104"/>
	<circle cx="280.295" cy="909.45" r="4" fill="#0" id="circle105"/>
	<circle cx="286.953" cy="308.591" r="4" fill="#0" id="circle106"/>
	<circle cx="288.617" cy="325.235" r="4" fill="#0" id="circle107"/>
	<circle cx="288.617" cy="363.517" r="4" fill="#0" id="circle108"/>
	<circle cx="288.617" cy="746.336" r="4" fill="#0" id="circle109"/>
	<circle cx="291.946" cy="380.161" r="4" fill="#0" id="circle110"/>
	<circle cx="293.611" cy="919.436" r="4" fill="#0" id="circle111"/>
	<circle cx="293.611" cy="987.678" r="4" fill="#0" id="circle112"/>
	<circle cx="296.94" cy="340.215" r="4" fill="#0" id="circle113"/>
	<circle cx="296.94" cy="396.805" r="4" fill="#0" id="circle114"/>
	<circle cx="296.94" cy="679.758" r="4" fill="#0" id="circle115"/>
	<circle cx="296.94" cy="696.403" r="4" fill="#0" id="circle116"/>
	<circle cx="296.94" cy="713.047" r="4" fill="#0" id="circle117"/>
	<circle cx="296.94" cy="729.691" r="4" fill="#0" id="circle118"/>
	<circle cx="305.262" cy="411.785" r="4" fill="#0" id="circle119"/>
	<circle cx="308.591" cy="977.691" r="4" fill="#0" id="circle120"/>
	<circle cx="310.255" cy="668.107" r="4" fill="#0" id="circle121"/>
	<circle cx="310.255" cy="921.101" r="4" fill="#0" id="circle122"/>
	<circle cx="313.584" cy="426.765" r="4" fill="#0" id="circle123"/>
	<circle cx="313.584" cy="443.409" r="4" fill="#0" id="circle124"/>
	<circle cx="313.584" cy="460.054" r="4" fill="#0" id="circle125"/>
	<circle cx="318.577" cy="651.463" r="4" fill="#0" id="circle126"/>
	<circle cx="321.906" cy="475.034" r="4" fill="#0" id="circle127"/>
	<circle cx="321.906" cy="621.503" r="4" fill="#0" id="circle128"/>
	<circle cx="325.235" cy="929.423" r="4" fill="#0" id="circle129"/>
	<circle cx="325.235" cy="969.369" r="4" fill="#0" id="circle130"/>
	<circle cx="328.564" cy="491.678" r="4" fill="#0" id="circle131"/>
	<circle cx="330.228" cy="508.322" r="4" fill="#0" id="circle132"/>
	<circle cx="330.228" cy="604.859" r="4" fill="#0" id="circle133"/>
	<circle cx="338.55" cy="523.302" r="4" fill="#0" id="circle134"/>
	<circle cx="338.55" cy="941.074" r="4" fill="#0" id="circle135"/>
	<circle cx="338.55" cy="957.718" r="4" fill="#0" id="circle136"/>
	<circle cx="343.544" cy="539.946" r="4" fill="#0" id="circle137"/>
	<circle cx="343.544" cy="593.208" r="4" fill="#0" id="circle138"/>
	<circle cx="346.872" cy="556.591" r="4" fill="#0" id="circle139"/>
	<circle cx="346.872" cy="573.235" r="4" fill="#0" id="circle140"/>
	</g>
</svg>