<?xml version="1.0" encoding="UTF-8" standalone="no"?>
<!-- Created with CurveBenchmark -->
<svg
	xmlns:dc="http://purl.org/dc/elements/1.1/"
	xmlns:cc="http://creativecommons.org/ns#"
	xmlns:rdf="http://www.w3.org/1999/02/22-rdf-syntax-ns#"
	xmlns:svg="http://www.w3.org/2000/svg"
	xmlns="http://www.w3.org/2000/svg"
	xmlns:sodipodi="http://sodipodi.sourceforge.net/DTD/sodipodi-0.dtd"
	xmlns:inkscape="http://www.inkscape.org/namespaces/inkscape"
	width="1000"
	height="1000"
	id="svg2"
	version="1.1"
	sodipodi:docname="manifold/vicur-bird50.png.txt">
<defs
	id="defs4" />
<metadata
	id="metadata7">
	<rdf:RDF>
		<cc:Work
			rdf:about="">
			<dc:format>image/svg+xml</dc:format>
			<dc:type
				rdf:resource="http://purl.org/dc/dcmitype/StillImage" />
			<dc:title></dc:title>
		</cc:Work>
	</rdf:RDF>
</metadata>
<g
	inkscape:label="Layer 1"
	inkscape:groupmode="layer"
	id="layer1">
	<path style="fill:none;stroke:red;stroke-width:1px;stroke-linecap:butt;stroke-linejoin:miter;stroke-opacity:1" d="M 4,123.04 11.6308,107.778 z" id="boundary" inkscape:connector-curvature="0" />
	<path style="fill:none;stroke:red;stroke-width:1px;stroke-linecap:butt;stroke-linejoin:miter;stroke-opacity:1" d="M 4,123.04 19.2615,127.618 z" id="boundary" inkscape:connector-curvature="0" />
	<path style="fill:none;stroke:red;stroke-width:1px;stroke-linecap:butt;stroke-linejoin:miter;stroke-opacity:1" d="M 11.6308,107.778 26.8923,103.2 z" id="boundary" inkscape:connector-curvature="0" />
	<path style="fill:none;stroke:red;stroke-width:1px;stroke-linecap:butt;stroke-linejoin:miter;stroke-opacity:1" d="M 19.2615,127.618 34.5231,127.618 z" id="boundary" inkscape:connector-curvature="0" />
	<path style="fill:none;stroke:red;stroke-width:1px;stroke-linecap:butt;stroke-linejoin:miter;stroke-opacity:1" d="M 26.8923,103.2 42.1538,103.2 z" id="boundary" inkscape:connector-curvature="0" />
	<path style="fill:none;stroke:red;stroke-width:1px;stroke-linecap:butt;stroke-linejoin:miter;stroke-opacity:1" d="M 34.5231,127.618 48.2585,119.988 z" id="boundary" inkscape:connector-curvature="0" />
	<path style="fill:none;stroke:red;stroke-width:1px;stroke-linecap:butt;stroke-linejoin:miter;stroke-opacity:1" d="M 42.1538,103.2 55.8892,95.5692 z" id="boundary" inkscape:connector-curvature="0" />
	<path style="fill:none;stroke:red;stroke-width:1px;stroke-linecap:butt;stroke-linejoin:miter;stroke-opacity:1" d="M 48.2585,119.988 63.52,119.988 z" id="boundary" inkscape:connector-curvature="0" />
	<path style="fill:none;stroke:red;stroke-width:1px;stroke-linecap:butt;stroke-linejoin:miter;stroke-opacity:1" d="M 55.8892,95.5692 69.6246,87.9385 z" id="boundary" inkscape:connector-curvature="0" />
	<path style="fill:none;stroke:red;stroke-width:1px;stroke-linecap:butt;stroke-linejoin:miter;stroke-opacity:1" d="M 63.52,119.988 78.7815,119.988 z" id="boundary" inkscape:connector-curvature="0" />
	<path style="fill:none;stroke:red;stroke-width:1px;stroke-linecap:butt;stroke-linejoin:miter;stroke-opacity:1" d="M 69.6246,87.9385 84.8862,80.3077 z" id="boundary" inkscape:connector-curvature="0" />
	<path style="fill:none;stroke:red;stroke-width:1px;stroke-linecap:butt;stroke-linejoin:miter;stroke-opacity:1" d="M 78.7815,119.988 94.0431,119.988 z" id="boundary" inkscape:connector-curvature="0" />
	<path style="fill:none;stroke:red;stroke-width:1px;stroke-linecap:butt;stroke-linejoin:miter;stroke-opacity:1" d="M 84.8862,80.3077 95.5692,54.3631 z" id="boundary" inkscape:connector-curvature="0" />
	<path style="fill:none;stroke:red;stroke-width:1px;stroke-linecap:butt;stroke-linejoin:miter;stroke-opacity:1" d="M 94.0431,119.988 107.778,127.618 z" id="boundary" inkscape:connector-curvature="0" />
	<path style="fill:none;stroke:red;stroke-width:1px;stroke-linecap:butt;stroke-linejoin:miter;stroke-opacity:1" d="M 95.5692,54.3631 103.2,39.1015 z" id="boundary" inkscape:connector-curvature="0" />
	<path style="fill:none;stroke:red;stroke-width:1px;stroke-linecap:butt;stroke-linejoin:miter;stroke-opacity:1" d="M 103.2,39.1015 115.409,26.8923 z" id="boundary" inkscape:connector-curvature="0" />
	<path style="fill:none;stroke:red;stroke-width:1px;stroke-linecap:butt;stroke-linejoin:miter;stroke-opacity:1" d="M 107.778,127.618 118.462,139.828 z" id="boundary" inkscape:connector-curvature="0" />
	<path style="fill:none;stroke:red;stroke-width:1px;stroke-linecap:butt;stroke-linejoin:miter;stroke-opacity:1" d="M 115.409,26.8923 129.145,19.2615 z" id="boundary" inkscape:connector-curvature="0" />
	<path style="fill:none;stroke:red;stroke-width:1px;stroke-linecap:butt;stroke-linejoin:miter;stroke-opacity:1" d="M 118.462,139.828 118.462,155.089 z" id="boundary" inkscape:connector-curvature="0" />
	<path style="fill:none;stroke:red;stroke-width:1px;stroke-linecap:butt;stroke-linejoin:miter;stroke-opacity:1" d="M 118.462,155.089 118.462,170.351 z" id="boundary" inkscape:connector-curvature="0" />
	<path style="fill:none;stroke:red;stroke-width:1px;stroke-linecap:butt;stroke-linejoin:miter;stroke-opacity:1" d="M 118.462,170.351 118.462,185.612 z" id="boundary" inkscape:connector-curvature="0" />
	<path style="fill:none;stroke:red;stroke-width:1px;stroke-linecap:butt;stroke-linejoin:miter;stroke-opacity:1" d="M 118.462,185.612 118.462,200.874 z" id="boundary" inkscape:connector-curvature="0" />
	<path style="fill:none;stroke:red;stroke-width:1px;stroke-linecap:butt;stroke-linejoin:miter;stroke-opacity:1" d="M 118.462,200.874 118.462,216.135 z" id="boundary" inkscape:connector-curvature="0" />
	<path style="fill:none;stroke:red;stroke-width:1px;stroke-linecap:butt;stroke-linejoin:miter;stroke-opacity:1" d="M 118.462,216.135 118.462,231.397 z" id="boundary" inkscape:connector-curvature="0" />
	<path style="fill:none;stroke:red;stroke-width:1px;stroke-linecap:butt;stroke-linejoin:miter;stroke-opacity:1" d="M 118.462,231.397 118.462,246.658 z" id="boundary" inkscape:connector-curvature="0" />
	<path style="fill:none;stroke:red;stroke-width:1px;stroke-linecap:butt;stroke-linejoin:miter;stroke-opacity:1" d="M 118.462,246.658 119.988,261.92 z" id="boundary" inkscape:connector-curvature="0" />
	<path style="fill:none;stroke:red;stroke-width:1px;stroke-linecap:butt;stroke-linejoin:miter;stroke-opacity:1" d="M 119.988,261.92 126.092,277.182 z" id="boundary" inkscape:connector-curvature="0" />
	<path style="fill:none;stroke:red;stroke-width:1px;stroke-linecap:butt;stroke-linejoin:miter;stroke-opacity:1" d="M 126.092,277.182 127.618,292.443 z" id="boundary" inkscape:connector-curvature="0" />
	<path style="fill:none;stroke:red;stroke-width:1px;stroke-linecap:butt;stroke-linejoin:miter;stroke-opacity:1" d="M 127.618,292.443 139.828,303.126 z" id="boundary" inkscape:connector-curvature="0" />
	<path style="fill:none;stroke:red;stroke-width:1px;stroke-linecap:butt;stroke-linejoin:miter;stroke-opacity:1" d="M 129.145,19.2615 142.88,11.6308 z" id="boundary" inkscape:connector-curvature="0" />
	<path style="fill:none;stroke:red;stroke-width:1px;stroke-linecap:butt;stroke-linejoin:miter;stroke-opacity:1" d="M 139.828,303.126 145.932,318.388 z" id="boundary" inkscape:connector-curvature="0" />
	<path style="fill:none;stroke:red;stroke-width:1px;stroke-linecap:butt;stroke-linejoin:miter;stroke-opacity:1" d="M 142.88,11.6308 156.615,4 z" id="boundary" inkscape:connector-curvature="0" />
	<path style="fill:none;stroke:red;stroke-width:1px;stroke-linecap:butt;stroke-linejoin:miter;stroke-opacity:1" d="M 145.932,318.388 158.142,329.071 z" id="boundary" inkscape:connector-curvature="0" />
	<path style="fill:none;stroke:red;stroke-width:1px;stroke-linecap:butt;stroke-linejoin:miter;stroke-opacity:1" d="M 156.615,4 171.877,4 z" id="boundary" inkscape:connector-curvature="0" />
	<path style="fill:none;stroke:red;stroke-width:1px;stroke-linecap:butt;stroke-linejoin:miter;stroke-opacity:1" d="M 158.142,329.071 168.825,341.28 z" id="boundary" inkscape:connector-curvature="0" />
	<path style="fill:none;stroke:red;stroke-width:1px;stroke-linecap:butt;stroke-linejoin:miter;stroke-opacity:1" d="M 168.825,341.28 181.034,351.963 z" id="boundary" inkscape:connector-curvature="0" />
	<path style="fill:none;stroke:red;stroke-width:1px;stroke-linecap:butt;stroke-linejoin:miter;stroke-opacity:1" d="M 171.877,4 187.138,4 z" id="boundary" inkscape:connector-curvature="0" />
	<path style="fill:none;stroke:red;stroke-width:1px;stroke-linecap:butt;stroke-linejoin:miter;stroke-opacity:1" d="M 181.034,351.963 191.717,364.172 z" id="boundary" inkscape:connector-curvature="0" />
	<path style="fill:none;stroke:red;stroke-width:1px;stroke-linecap:butt;stroke-linejoin:miter;stroke-opacity:1" d="M 187.138,4 202.4,4 z" id="boundary" inkscape:connector-curvature="0" />
	<path style="fill:none;stroke:red;stroke-width:1px;stroke-linecap:butt;stroke-linejoin:miter;stroke-opacity:1" d="M 191.717,364.172 203.926,374.855 z" id="boundary" inkscape:connector-curvature="0" />
	<path style="fill:none;stroke:red;stroke-width:1px;stroke-linecap:butt;stroke-linejoin:miter;stroke-opacity:1" d="M 202.4,4 216.135,11.6308 z" id="boundary" inkscape:connector-curvature="0" />
	<path style="fill:none;stroke:red;stroke-width:1px;stroke-linecap:butt;stroke-linejoin:miter;stroke-opacity:1" d="M 203.926,374.855 214.609,387.065 z" id="boundary" inkscape:connector-curvature="0" />
	<path style="fill:none;stroke:red;stroke-width:1px;stroke-linecap:butt;stroke-linejoin:miter;stroke-opacity:1" d="M 214.609,387.065 229.871,393.169 z" id="boundary" inkscape:connector-curvature="0" />
	<path style="fill:none;stroke:red;stroke-width:1px;stroke-linecap:butt;stroke-linejoin:miter;stroke-opacity:1" d="M 216.135,11.6308 231.397,13.1569 z" id="boundary" inkscape:connector-curvature="0" />
	<path style="fill:none;stroke:red;stroke-width:1px;stroke-linecap:butt;stroke-linejoin:miter;stroke-opacity:1" d="M 229.871,393.169 243.606,400.8 z" id="boundary" inkscape:connector-curvature="0" />
	<path style="fill:none;stroke:red;stroke-width:1px;stroke-linecap:butt;stroke-linejoin:miter;stroke-opacity:1" d="M 231.397,13.1569 245.132,20.7877 z" id="boundary" inkscape:connector-curvature="0" />
	<path style="fill:none;stroke:red;stroke-width:1px;stroke-linecap:butt;stroke-linejoin:miter;stroke-opacity:1" d="M 243.606,400.8 255.815,409.957 z" id="boundary" inkscape:connector-curvature="0" />
	<path style="fill:none;stroke:red;stroke-width:1px;stroke-linecap:butt;stroke-linejoin:miter;stroke-opacity:1" d="M 245.132,20.7877 257.342,31.4708 z" id="boundary" inkscape:connector-curvature="0" />
	<path style="fill:none;stroke:red;stroke-width:1px;stroke-linecap:butt;stroke-linejoin:miter;stroke-opacity:1" d="M 255.815,409.957 271.077,409.957 z" id="boundary" inkscape:connector-curvature="0" />
	<path style="fill:none;stroke:red;stroke-width:1px;stroke-linecap:butt;stroke-linejoin:miter;stroke-opacity:1" d="M 257.342,31.4708 263.446,46.7323 z" id="boundary" inkscape:connector-curvature="0" />
	<path style="fill:none;stroke:red;stroke-width:1px;stroke-linecap:butt;stroke-linejoin:miter;stroke-opacity:1" d="M 263.446,46.7323 272.603,58.9415 z" id="boundary" inkscape:connector-curvature="0" />
	<path style="fill:none;stroke:red;stroke-width:1px;stroke-linecap:butt;stroke-linejoin:miter;stroke-opacity:1" d="M 271.077,409.957 286.338,409.957 z" id="boundary" inkscape:connector-curvature="0" />
	<path style="fill:none;stroke:red;stroke-width:1px;stroke-linecap:butt;stroke-linejoin:miter;stroke-opacity:1" d="M 271.077,664.825 280.234,677.034 z" id="boundary" inkscape:connector-curvature="0" />
	<path style="fill:none;stroke:red;stroke-width:1px;stroke-linecap:butt;stroke-linejoin:miter;stroke-opacity:1" d="M 271.077,664.825 286.338,657.194 z" id="boundary" inkscape:connector-curvature="0" />
	<path style="fill:none;stroke:red;stroke-width:1px;stroke-linecap:butt;stroke-linejoin:miter;stroke-opacity:1" d="M 272.603,58.9415 272.603,74.2031 z" id="boundary" inkscape:connector-curvature="0" />
	<path style="fill:none;stroke:red;stroke-width:1px;stroke-linecap:butt;stroke-linejoin:miter;stroke-opacity:1" d="M 272.603,74.2031 272.603,89.4646 z" id="boundary" inkscape:connector-curvature="0" />
	<path style="fill:none;stroke:red;stroke-width:1px;stroke-linecap:butt;stroke-linejoin:miter;stroke-opacity:1" d="M 272.603,89.4646 280.234,103.2 z" id="boundary" inkscape:connector-curvature="0" />
	<path style="fill:none;stroke:red;stroke-width:1px;stroke-linecap:butt;stroke-linejoin:miter;stroke-opacity:1" d="M 280.234,103.2 287.865,116.935 z" id="boundary" inkscape:connector-curvature="0" />
	<path style="fill:none;stroke:red;stroke-width:1px;stroke-linecap:butt;stroke-linejoin:miter;stroke-opacity:1" d="M 280.234,677.034 295.495,677.034 z" id="boundary" inkscape:connector-curvature="0" />
	<path style="fill:none;stroke:red;stroke-width:1px;stroke-linecap:butt;stroke-linejoin:miter;stroke-opacity:1" d="M 286.338,409.957 300.074,417.588 z" id="boundary" inkscape:connector-curvature="0" />
	<path style="fill:none;stroke:red;stroke-width:1px;stroke-linecap:butt;stroke-linejoin:miter;stroke-opacity:1" d="M 286.338,657.194 301.6,649.563 z" id="boundary" inkscape:connector-curvature="0" />
	<path style="fill:none;stroke:red;stroke-width:1px;stroke-linecap:butt;stroke-linejoin:miter;stroke-opacity:1" d="M 287.865,116.935 303.126,118.462 z" id="boundary" inkscape:connector-curvature="0" />
	<path style="fill:none;stroke:red;stroke-width:1px;stroke-linecap:butt;stroke-linejoin:miter;stroke-opacity:1" d="M 295.495,677.034 309.231,669.403 z" id="boundary" inkscape:connector-curvature="0" />
	<path style="fill:none;stroke:red;stroke-width:1px;stroke-linecap:butt;stroke-linejoin:miter;stroke-opacity:1" d="M 300.074,417.588 315.335,417.588 z" id="boundary" inkscape:connector-curvature="0" />
	<path style="fill:none;stroke:red;stroke-width:1px;stroke-linecap:butt;stroke-linejoin:miter;stroke-opacity:1" d="M 301.6,649.563 316.862,644.985 z" id="boundary" inkscape:connector-curvature="0" />
	<path style="fill:none;stroke:red;stroke-width:1px;stroke-linecap:butt;stroke-linejoin:miter;stroke-opacity:1" d="M 303.126,118.462 316.862,126.092 z" id="boundary" inkscape:connector-curvature="0" />
	<path style="fill:none;stroke:red;stroke-width:1px;stroke-linecap:butt;stroke-linejoin:miter;stroke-opacity:1" d="M 309.231,669.403 324.492,669.403 z" id="boundary" inkscape:connector-curvature="0" />
	<path style="fill:none;stroke:red;stroke-width:1px;stroke-linecap:butt;stroke-linejoin:miter;stroke-opacity:1" d="M 315.335,417.588 330.597,417.588 z" id="boundary" inkscape:connector-curvature="0" />
	<path style="fill:none;stroke:red;stroke-width:1px;stroke-linecap:butt;stroke-linejoin:miter;stroke-opacity:1" d="M 316.862,126.092 332.123,126.092 z" id="boundary" inkscape:connector-curvature="0" />
	<path style="fill:none;stroke:red;stroke-width:1px;stroke-linecap:butt;stroke-linejoin:miter;stroke-opacity:1" d="M 316.862,644.985 332.123,641.932 z" id="boundary" inkscape:connector-curvature="0" />
	<path style="fill:none;stroke:red;stroke-width:1px;stroke-linecap:butt;stroke-linejoin:miter;stroke-opacity:1" d="M 324.492,669.403 338.228,661.772 z" id="boundary" inkscape:connector-curvature="0" />
	<path style="fill:none;stroke:red;stroke-width:1px;stroke-linecap:butt;stroke-linejoin:miter;stroke-opacity:1" d="M 330.597,417.588 344.332,425.218 z" id="boundary" inkscape:connector-curvature="0" />
	<path style="fill:none;stroke:red;stroke-width:1px;stroke-linecap:butt;stroke-linejoin:miter;stroke-opacity:1" d="M 332.123,126.092 347.385,129.145 z" id="boundary" inkscape:connector-curvature="0" />
	<path style="fill:none;stroke:red;stroke-width:1px;stroke-linecap:butt;stroke-linejoin:miter;stroke-opacity:1" d="M 332.123,641.932 339.754,626.671 z" id="boundary" inkscape:connector-curvature="0" />
	<path style="fill:none;stroke:red;stroke-width:1px;stroke-linecap:butt;stroke-linejoin:miter;stroke-opacity:1" d="M 339.754,626.671 347.385,611.409 z" id="boundary" inkscape:connector-curvature="0" />
	<path style="fill:none;stroke:red;stroke-width:1px;stroke-linecap:butt;stroke-linejoin:miter;stroke-opacity:1" d="M 344.332,425.218 359.594,431.323 z" id="boundary" inkscape:connector-curvature="0" />
	<path style="fill:none;stroke:red;stroke-width:1px;stroke-linecap:butt;stroke-linejoin:miter;stroke-opacity:1" d="M 347.385,129.145 362.646,133.723 z" id="boundary" inkscape:connector-curvature="0" />
	<path style="fill:none;stroke:red;stroke-width:1px;stroke-linecap:butt;stroke-linejoin:miter;stroke-opacity:1" d="M 347.385,611.409 355.015,596.148 z" id="boundary" inkscape:connector-curvature="0" />
	<path style="fill:none;stroke:red;stroke-width:1px;stroke-linecap:butt;stroke-linejoin:miter;stroke-opacity:1" d="M 353.489,658.72 362.646,680.086 z" id="boundary" inkscape:connector-curvature="0" />
	<path style="fill:none;stroke:red;stroke-width:1px;stroke-linecap:butt;stroke-linejoin:miter;stroke-opacity:1" d="M 353.489,658.72 364.172,646.511 z" id="boundary" inkscape:connector-curvature="0" />
	<path style="fill:none;stroke:red;stroke-width:1px;stroke-linecap:butt;stroke-linejoin:miter;stroke-opacity:1" d="M 355.015,596.148 364.172,615.988 z" id="boundary" inkscape:connector-curvature="0" />
	<path style="fill:none;stroke:red;stroke-width:1px;stroke-linecap:butt;stroke-linejoin:miter;stroke-opacity:1" d="M 359.594,431.323 362.646,446.585 z" id="boundary" inkscape:connector-curvature="0" />
	<path style="fill:none;stroke:red;stroke-width:1px;stroke-linecap:butt;stroke-linejoin:miter;stroke-opacity:1" d="M 362.646,133.723 376.382,141.354 z" id="boundary" inkscape:connector-curvature="0" />
	<path style="fill:none;stroke:red;stroke-width:1px;stroke-linecap:butt;stroke-linejoin:miter;stroke-opacity:1" d="M 362.646,446.585 371.803,458.794 z" id="boundary" inkscape:connector-curvature="0" />
	<path style="fill:none;stroke:red;stroke-width:1px;stroke-linecap:butt;stroke-linejoin:miter;stroke-opacity:1" d="M 362.646,542.732 362.646,557.994 z" id="boundary" inkscape:connector-curvature="0" />
	<path style="fill:none;stroke:red;stroke-width:1px;stroke-linecap:butt;stroke-linejoin:miter;stroke-opacity:1" d="M 362.646,542.732 370.277,527.471 z" id="boundary" inkscape:connector-curvature="0" />
	<path style="fill:none;stroke:red;stroke-width:1px;stroke-linecap:butt;stroke-linejoin:miter;stroke-opacity:1" d="M 362.646,557.994 362.646,573.255 z" id="boundary" inkscape:connector-curvature="0" />
	<path style="fill:none;stroke:red;stroke-width:1px;stroke-linecap:butt;stroke-linejoin:miter;stroke-opacity:1" d="M 362.646,680.086 371.803,692.295 z" id="boundary" inkscape:connector-curvature="0" />
	<path style="fill:none;stroke:red;stroke-width:1px;stroke-linecap:butt;stroke-linejoin:miter;stroke-opacity:1" d="M 364.172,615.988 364.172,631.249 z" id="boundary" inkscape:connector-curvature="0" />
	<path style="fill:none;stroke:red;stroke-width:1px;stroke-linecap:butt;stroke-linejoin:miter;stroke-opacity:1" d="M 364.172,631.249 364.172,646.511 z" id="boundary" inkscape:connector-curvature="0" />
	<path style="fill:none;stroke:red;stroke-width:1px;stroke-linecap:butt;stroke-linejoin:miter;stroke-opacity:1" d="M 370.277,496.948 370.277,512.209 z" id="boundary" inkscape:connector-curvature="0" />
	<path style="fill:none;stroke:red;stroke-width:1px;stroke-linecap:butt;stroke-linejoin:miter;stroke-opacity:1" d="M 370.277,496.948 377.908,474.055 z" id="boundary" inkscape:connector-curvature="0" />
	<path style="fill:none;stroke:red;stroke-width:1px;stroke-linecap:butt;stroke-linejoin:miter;stroke-opacity:1" d="M 370.277,512.209 370.277,527.471 z" id="boundary" inkscape:connector-curvature="0" />
	<path style="fill:none;stroke:red;stroke-width:1px;stroke-linecap:butt;stroke-linejoin:miter;stroke-opacity:1" d="M 371.803,458.794 377.908,474.055 z" id="boundary" inkscape:connector-curvature="0" />
	<path style="fill:none;stroke:red;stroke-width:1px;stroke-linecap:butt;stroke-linejoin:miter;stroke-opacity:1" d="M 371.803,600.726 379.434,585.465 z" id="boundary" inkscape:connector-curvature="0" />
	<path style="fill:none;stroke:red;stroke-width:1px;stroke-linecap:butt;stroke-linejoin:miter;stroke-opacity:1" d="M 371.803,600.726 400.8,619.04 z" id="boundary" inkscape:connector-curvature="0" />
	<path style="fill:none;stroke:red;stroke-width:1px;stroke-linecap:butt;stroke-linejoin:miter;stroke-opacity:1" d="M 371.803,692.295 387.065,692.295 z" id="boundary" inkscape:connector-curvature="0" />
	<path style="fill:none;stroke:red;stroke-width:1px;stroke-linecap:butt;stroke-linejoin:miter;stroke-opacity:1" d="M 376.382,141.354 391.643,141.354 z" id="boundary" inkscape:connector-curvature="0" />
	<path style="fill:none;stroke:red;stroke-width:1px;stroke-linecap:butt;stroke-linejoin:miter;stroke-opacity:1" d="M 377.908,672.455 390.117,660.246 z" id="boundary" inkscape:connector-curvature="0" />
	<path style="fill:none;stroke:red;stroke-width:1px;stroke-linecap:butt;stroke-linejoin:miter;stroke-opacity:1" d="M 379.434,554.942 379.434,570.203 z" id="boundary" inkscape:connector-curvature="0" />
	<path style="fill:none;stroke:red;stroke-width:1px;stroke-linecap:butt;stroke-linejoin:miter;stroke-opacity:1" d="M 379.434,554.942 387.065,532.049 z" id="boundary" inkscape:connector-curvature="0" />
	<path style="fill:none;stroke:red;stroke-width:1px;stroke-linecap:butt;stroke-linejoin:miter;stroke-opacity:1" d="M 379.434,570.203 379.434,585.465 z" id="boundary" inkscape:connector-curvature="0" />
	<path style="fill:none;stroke:red;stroke-width:1px;stroke-linecap:butt;stroke-linejoin:miter;stroke-opacity:1" d="M 387.065,432.849 387.065,448.111 z" id="boundary" inkscape:connector-curvature="0" />
	<path style="fill:none;stroke:red;stroke-width:1px;stroke-linecap:butt;stroke-linejoin:miter;stroke-opacity:1" d="M 387.065,432.849 400.8,425.218 z" id="boundary" inkscape:connector-curvature="0" />
	<path style="fill:none;stroke:red;stroke-width:1px;stroke-linecap:butt;stroke-linejoin:miter;stroke-opacity:1" d="M 387.065,448.111 394.695,461.846 z" id="boundary" inkscape:connector-curvature="0" />
	<path style="fill:none;stroke:red;stroke-width:1px;stroke-linecap:butt;stroke-linejoin:miter;stroke-opacity:1" d="M 387.065,516.788 387.065,532.049 z" id="boundary" inkscape:connector-curvature="0" />
	<path style="fill:none;stroke:red;stroke-width:1px;stroke-linecap:butt;stroke-linejoin:miter;stroke-opacity:1" d="M 387.065,516.788 394.695,493.895 z" id="boundary" inkscape:connector-curvature="0" />
	<path style="fill:none;stroke:red;stroke-width:1px;stroke-linecap:butt;stroke-linejoin:miter;stroke-opacity:1" d="M 387.065,692.295 402.326,692.295 z" id="boundary" inkscape:connector-curvature="0" />
	<path style="fill:none;stroke:red;stroke-width:1px;stroke-linecap:butt;stroke-linejoin:miter;stroke-opacity:1" d="M 390.117,660.246 397.748,644.985 z" id="boundary" inkscape:connector-curvature="0" />
	<path style="fill:none;stroke:red;stroke-width:1px;stroke-linecap:butt;stroke-linejoin:miter;stroke-opacity:1" d="M 391.643,141.354 405.378,148.985 z" id="boundary" inkscape:connector-curvature="0" />
	<path style="fill:none;stroke:red;stroke-width:1px;stroke-linecap:butt;stroke-linejoin:miter;stroke-opacity:1" d="M 394.695,461.846 402.326,475.582 z" id="boundary" inkscape:connector-curvature="0" />
	<path style="fill:none;stroke:red;stroke-width:1px;stroke-linecap:butt;stroke-linejoin:miter;stroke-opacity:1" d="M 394.695,493.895 402.326,475.582 z" id="boundary" inkscape:connector-curvature="0" />
	<path style="fill:none;stroke:red;stroke-width:1px;stroke-linecap:butt;stroke-linejoin:miter;stroke-opacity:1" d="M 397.748,644.985 417.588,631.249 z" id="boundary" inkscape:connector-curvature="0" />
	<path style="fill:none;stroke:red;stroke-width:1px;stroke-linecap:butt;stroke-linejoin:miter;stroke-opacity:1" d="M 400.8,425.218 425.218,432.849 z" id="boundary" inkscape:connector-curvature="0" />
	<path style="fill:none;stroke:red;stroke-width:1px;stroke-linecap:butt;stroke-linejoin:miter;stroke-opacity:1" d="M 400.8,619.04 408.431,603.778 z" id="boundary" inkscape:connector-curvature="0" />
	<path style="fill:none;stroke:red;stroke-width:1px;stroke-linecap:butt;stroke-linejoin:miter;stroke-opacity:1" d="M 402.326,692.295 409.957,669.403 z" id="boundary" inkscape:connector-curvature="0" />
	<path style="fill:none;stroke:red;stroke-width:1px;stroke-linecap:butt;stroke-linejoin:miter;stroke-opacity:1" d="M 405.378,148.985 419.114,156.615 z" id="boundary" inkscape:connector-curvature="0" />
	<path style="fill:none;stroke:red;stroke-width:1px;stroke-linecap:butt;stroke-linejoin:miter;stroke-opacity:1" d="M 408.431,438.954 416.062,452.689 z" id="boundary" inkscape:connector-curvature="0" />
	<path style="fill:none;stroke:red;stroke-width:1px;stroke-linecap:butt;stroke-linejoin:miter;stroke-opacity:1" d="M 408.431,573.255 408.431,588.517 z" id="boundary" inkscape:connector-curvature="0" />
	<path style="fill:none;stroke:red;stroke-width:1px;stroke-linecap:butt;stroke-linejoin:miter;stroke-opacity:1" d="M 408.431,588.517 408.431,603.778 z" id="boundary" inkscape:connector-curvature="0" />
	<path style="fill:none;stroke:red;stroke-width:1px;stroke-linecap:butt;stroke-linejoin:miter;stroke-opacity:1" d="M 409.957,669.403 417.588,646.511 z" id="boundary" inkscape:connector-curvature="0" />
	<path style="fill:none;stroke:red;stroke-width:1px;stroke-linecap:butt;stroke-linejoin:miter;stroke-opacity:1" d="M 416.062,452.689 417.588,467.951 z" id="boundary" inkscape:connector-curvature="0" />
	<path style="fill:none;stroke:red;stroke-width:1px;stroke-linecap:butt;stroke-linejoin:miter;stroke-opacity:1" d="M 416.062,542.732 416.062,557.994 z" id="boundary" inkscape:connector-curvature="0" />
	<path style="fill:none;stroke:red;stroke-width:1px;stroke-linecap:butt;stroke-linejoin:miter;stroke-opacity:1" d="M 416.062,542.732 423.692,528.997 z" id="boundary" inkscape:connector-curvature="0" />
	<path style="fill:none;stroke:red;stroke-width:1px;stroke-linecap:butt;stroke-linejoin:miter;stroke-opacity:1" d="M 416.062,557.994 425.218,570.203 z" id="boundary" inkscape:connector-curvature="0" />
	<path style="fill:none;stroke:red;stroke-width:1px;stroke-linecap:butt;stroke-linejoin:miter;stroke-opacity:1" d="M 417.588,467.951 423.692,483.212 z" id="boundary" inkscape:connector-curvature="0" />
	<path style="fill:none;stroke:red;stroke-width:1px;stroke-linecap:butt;stroke-linejoin:miter;stroke-opacity:1" d="M 417.588,631.249 425.218,615.988 z" id="boundary" inkscape:connector-curvature="0" />
	<path style="fill:none;stroke:red;stroke-width:1px;stroke-linecap:butt;stroke-linejoin:miter;stroke-opacity:1" d="M 419.114,156.615 434.375,156.615 z" id="boundary" inkscape:connector-curvature="0" />
	<path style="fill:none;stroke:red;stroke-width:1px;stroke-linecap:butt;stroke-linejoin:miter;stroke-opacity:1" d="M 423.692,483.212 423.692,498.474 z" id="boundary" inkscape:connector-curvature="0" />
	<path style="fill:none;stroke:red;stroke-width:1px;stroke-linecap:butt;stroke-linejoin:miter;stroke-opacity:1" d="M 423.692,498.474 423.692,513.735 z" id="boundary" inkscape:connector-curvature="0" />
	<path style="fill:none;stroke:red;stroke-width:1px;stroke-linecap:butt;stroke-linejoin:miter;stroke-opacity:1" d="M 423.692,528.997 440.48,524.418 z" id="boundary" inkscape:connector-curvature="0" />
	<path style="fill:none;stroke:red;stroke-width:1px;stroke-linecap:butt;stroke-linejoin:miter;stroke-opacity:1" d="M 425.218,432.849 432.849,446.585 z" id="boundary" inkscape:connector-curvature="0" />
	<path style="fill:none;stroke:red;stroke-width:1px;stroke-linecap:butt;stroke-linejoin:miter;stroke-opacity:1" d="M 425.218,570.203 425.218,585.465 z" id="boundary" inkscape:connector-curvature="0" />
	<path style="fill:none;stroke:red;stroke-width:1px;stroke-linecap:butt;stroke-linejoin:miter;stroke-opacity:1" d="M 425.218,585.465 425.218,600.726 z" id="boundary" inkscape:connector-curvature="0" />
	<path style="fill:none;stroke:red;stroke-width:1px;stroke-linecap:butt;stroke-linejoin:miter;stroke-opacity:1" d="M 425.218,600.726 425.218,615.988 z" id="boundary" inkscape:connector-curvature="0" />
	<path style="fill:none;stroke:red;stroke-width:1px;stroke-linecap:butt;stroke-linejoin:miter;stroke-opacity:1" d="M 432.849,417.588 448.111,417.588 z" id="boundary" inkscape:connector-curvature="0" />
	<path style="fill:none;stroke:red;stroke-width:1px;stroke-linecap:butt;stroke-linejoin:miter;stroke-opacity:1" d="M 432.849,446.585 440.48,460.32 z" id="boundary" inkscape:connector-curvature="0" />
	<path style="fill:none;stroke:red;stroke-width:1px;stroke-linecap:butt;stroke-linejoin:miter;stroke-opacity:1" d="M 434.375,156.615 448.111,164.246 z" id="boundary" inkscape:connector-curvature="0" />
	<path style="fill:none;stroke:red;stroke-width:1px;stroke-linecap:butt;stroke-linejoin:miter;stroke-opacity:1" d="M 440.48,460.32 448.111,474.055 z" id="boundary" inkscape:connector-curvature="0" />
	<path style="fill:none;stroke:red;stroke-width:1px;stroke-linecap:butt;stroke-linejoin:miter;stroke-opacity:1" d="M 440.48,524.418 448.111,504.578 z" id="boundary" inkscape:connector-curvature="0" />
	<path style="fill:none;stroke:red;stroke-width:1px;stroke-linecap:butt;stroke-linejoin:miter;stroke-opacity:1" d="M 448.111,164.246 463.372,168.825 z" id="boundary" inkscape:connector-curvature="0" />
	<path style="fill:none;stroke:red;stroke-width:1px;stroke-linecap:butt;stroke-linejoin:miter;stroke-opacity:1" d="M 448.111,417.588 461.846,409.957 z" id="boundary" inkscape:connector-curvature="0" />
	<path style="fill:none;stroke:red;stroke-width:1px;stroke-linecap:butt;stroke-linejoin:miter;stroke-opacity:1" d="M 448.111,474.055 448.111,489.317 z" id="boundary" inkscape:connector-curvature="0" />
	<path style="fill:none;stroke:red;stroke-width:1px;stroke-linecap:butt;stroke-linejoin:miter;stroke-opacity:1" d="M 448.111,489.317 448.111,504.578 z" id="boundary" inkscape:connector-curvature="0" />
	<path style="fill:none;stroke:red;stroke-width:1px;stroke-linecap:butt;stroke-linejoin:miter;stroke-opacity:1" d="M 461.846,409.957 475.582,417.588 z" id="boundary" inkscape:connector-curvature="0" />
	<path style="fill:none;stroke:red;stroke-width:1px;stroke-linecap:butt;stroke-linejoin:miter;stroke-opacity:1" d="M 463.372,168.825 475.582,179.508 z" id="boundary" inkscape:connector-curvature="0" />
	<path style="fill:none;stroke:red;stroke-width:1px;stroke-linecap:butt;stroke-linejoin:miter;stroke-opacity:1" d="M 475.582,179.508 490.843,181.034 z" id="boundary" inkscape:connector-curvature="0" />
	<path style="fill:none;stroke:red;stroke-width:1px;stroke-linecap:butt;stroke-linejoin:miter;stroke-opacity:1" d="M 475.582,417.588 490.843,417.588 z" id="boundary" inkscape:connector-curvature="0" />
	<path style="fill:none;stroke:red;stroke-width:1px;stroke-linecap:butt;stroke-linejoin:miter;stroke-opacity:1" d="M 490.843,181.034 504.578,188.665 z" id="boundary" inkscape:connector-curvature="0" />
	<path style="fill:none;stroke:red;stroke-width:1px;stroke-linecap:butt;stroke-linejoin:miter;stroke-opacity:1" d="M 490.843,417.588 506.105,417.588 z" id="boundary" inkscape:connector-curvature="0" />
	<path style="fill:none;stroke:red;stroke-width:1px;stroke-linecap:butt;stroke-linejoin:miter;stroke-opacity:1" d="M 504.578,188.665 519.84,194.769 z" id="boundary" inkscape:connector-curvature="0" />
	<path style="fill:none;stroke:red;stroke-width:1px;stroke-linecap:butt;stroke-linejoin:miter;stroke-opacity:1" d="M 506.105,417.588 521.366,414.535 z" id="boundary" inkscape:connector-curvature="0" />
	<path style="fill:none;stroke:red;stroke-width:1px;stroke-linecap:butt;stroke-linejoin:miter;stroke-opacity:1" d="M 519.84,194.769 533.575,202.4 z" id="boundary" inkscape:connector-curvature="0" />
	<path style="fill:none;stroke:red;stroke-width:1px;stroke-linecap:butt;stroke-linejoin:miter;stroke-opacity:1" d="M 521.366,414.535 536.628,409.957 z" id="boundary" inkscape:connector-curvature="0" />
	<path style="fill:none;stroke:red;stroke-width:1px;stroke-linecap:butt;stroke-linejoin:miter;stroke-opacity:1" d="M 533.575,202.4 548.837,202.4 z" id="boundary" inkscape:connector-curvature="0" />
	<path style="fill:none;stroke:red;stroke-width:1px;stroke-linecap:butt;stroke-linejoin:miter;stroke-opacity:1" d="M 536.628,409.957 550.363,402.326 z" id="boundary" inkscape:connector-curvature="0" />
	<path style="fill:none;stroke:red;stroke-width:1px;stroke-linecap:butt;stroke-linejoin:miter;stroke-opacity:1" d="M 548.837,202.4 562.572,210.031 z" id="boundary" inkscape:connector-curvature="0" />
	<path style="fill:none;stroke:red;stroke-width:1px;stroke-linecap:butt;stroke-linejoin:miter;stroke-opacity:1" d="M 550.363,402.326 564.098,394.695 z" id="boundary" inkscape:connector-curvature="0" />
	<path style="fill:none;stroke:red;stroke-width:1px;stroke-linecap:butt;stroke-linejoin:miter;stroke-opacity:1" d="M 562.572,210.031 577.834,214.609 z" id="boundary" inkscape:connector-curvature="0" />
	<path style="fill:none;stroke:red;stroke-width:1px;stroke-linecap:butt;stroke-linejoin:miter;stroke-opacity:1" d="M 564.098,394.695 579.36,394.695 z" id="boundary" inkscape:connector-curvature="0" />
	<path style="fill:none;stroke:red;stroke-width:1px;stroke-linecap:butt;stroke-linejoin:miter;stroke-opacity:1" d="M 577.834,214.609 593.095,217.662 z" id="boundary" inkscape:connector-curvature="0" />
	<path style="fill:none;stroke:red;stroke-width:1px;stroke-linecap:butt;stroke-linejoin:miter;stroke-opacity:1" d="M 579.36,394.695 593.095,387.065 z" id="boundary" inkscape:connector-curvature="0" />
	<path style="fill:none;stroke:red;stroke-width:1px;stroke-linecap:butt;stroke-linejoin:miter;stroke-opacity:1" d="M 593.095,217.662 606.831,225.292 z" id="boundary" inkscape:connector-curvature="0" />
	<path style="fill:none;stroke:red;stroke-width:1px;stroke-linecap:butt;stroke-linejoin:miter;stroke-opacity:1" d="M 593.095,387.065 608.357,379.434 z" id="boundary" inkscape:connector-curvature="0" />
	<path style="fill:none;stroke:red;stroke-width:1px;stroke-linecap:butt;stroke-linejoin:miter;stroke-opacity:1" d="M 606.831,225.292 622.092,225.292 z" id="boundary" inkscape:connector-curvature="0" />
	<path style="fill:none;stroke:red;stroke-width:1px;stroke-linecap:butt;stroke-linejoin:miter;stroke-opacity:1" d="M 608.357,379.434 623.618,379.434 z" id="boundary" inkscape:connector-curvature="0" />
	<path style="fill:none;stroke:red;stroke-width:1px;stroke-linecap:butt;stroke-linejoin:miter;stroke-opacity:1" d="M 622.092,225.292 635.828,232.923 z" id="boundary" inkscape:connector-curvature="0" />
	<path style="fill:none;stroke:red;stroke-width:1px;stroke-linecap:butt;stroke-linejoin:miter;stroke-opacity:1" d="M 623.618,379.434 638.88,371.803 z" id="boundary" inkscape:connector-curvature="0" />
	<path style="fill:none;stroke:red;stroke-width:1px;stroke-linecap:butt;stroke-linejoin:miter;stroke-opacity:1" d="M 635.828,232.923 651.089,232.923 z" id="boundary" inkscape:connector-curvature="0" />
	<path style="fill:none;stroke:red;stroke-width:1px;stroke-linecap:butt;stroke-linejoin:miter;stroke-opacity:1" d="M 638.88,371.803 654.142,371.803 z" id="boundary" inkscape:connector-curvature="0" />
	<path style="fill:none;stroke:red;stroke-width:1px;stroke-linecap:butt;stroke-linejoin:miter;stroke-opacity:1" d="M 651.089,232.923 666.351,232.923 z" id="boundary" inkscape:connector-curvature="0" />
	<path style="fill:none;stroke:red;stroke-width:1px;stroke-linecap:butt;stroke-linejoin:miter;stroke-opacity:1" d="M 654.142,371.803 669.403,371.803 z" id="boundary" inkscape:connector-curvature="0" />
	<path style="fill:none;stroke:red;stroke-width:1px;stroke-linecap:butt;stroke-linejoin:miter;stroke-opacity:1" d="M 666.351,232.923 681.612,234.449 z" id="boundary" inkscape:connector-curvature="0" />
	<path style="fill:none;stroke:red;stroke-width:1px;stroke-linecap:butt;stroke-linejoin:miter;stroke-opacity:1" d="M 669.403,371.803 683.138,364.172 z" id="boundary" inkscape:connector-curvature="0" />
	<path style="fill:none;stroke:red;stroke-width:1px;stroke-linecap:butt;stroke-linejoin:miter;stroke-opacity:1" d="M 681.612,234.449 696.874,240.554 z" id="boundary" inkscape:connector-curvature="0" />
	<path style="fill:none;stroke:red;stroke-width:1px;stroke-linecap:butt;stroke-linejoin:miter;stroke-opacity:1" d="M 683.138,364.172 696.874,356.542 z" id="boundary" inkscape:connector-curvature="0" />
	<path style="fill:none;stroke:red;stroke-width:1px;stroke-linecap:butt;stroke-linejoin:miter;stroke-opacity:1" d="M 696.874,240.554 712.135,242.08 z" id="boundary" inkscape:connector-curvature="0" />
	<path style="fill:none;stroke:red;stroke-width:1px;stroke-linecap:butt;stroke-linejoin:miter;stroke-opacity:1" d="M 696.874,356.542 710.609,348.911 z" id="boundary" inkscape:connector-curvature="0" />
	<path style="fill:none;stroke:red;stroke-width:1px;stroke-linecap:butt;stroke-linejoin:miter;stroke-opacity:1" d="M 710.609,348.911 725.871,347.385 z" id="boundary" inkscape:connector-curvature="0" />
	<path style="fill:none;stroke:red;stroke-width:1px;stroke-linecap:butt;stroke-linejoin:miter;stroke-opacity:1" d="M 712.135,242.08 727.397,248.185 z" id="boundary" inkscape:connector-curvature="0" />
	<path style="fill:none;stroke:red;stroke-width:1px;stroke-linecap:butt;stroke-linejoin:miter;stroke-opacity:1" d="M 725.871,347.385 741.132,341.28 z" id="boundary" inkscape:connector-curvature="0" />
	<path style="fill:none;stroke:red;stroke-width:1px;stroke-linecap:butt;stroke-linejoin:miter;stroke-opacity:1" d="M 727.397,248.185 742.658,248.185 z" id="boundary" inkscape:connector-curvature="0" />
	<path style="fill:none;stroke:red;stroke-width:1px;stroke-linecap:butt;stroke-linejoin:miter;stroke-opacity:1" d="M 741.132,341.28 756.394,341.28 z" id="boundary" inkscape:connector-curvature="0" />
	<path style="fill:none;stroke:red;stroke-width:1px;stroke-linecap:butt;stroke-linejoin:miter;stroke-opacity:1" d="M 742.658,248.185 757.92,248.185 z" id="boundary" inkscape:connector-curvature="0" />
	<path style="fill:none;stroke:red;stroke-width:1px;stroke-linecap:butt;stroke-linejoin:miter;stroke-opacity:1" d="M 756.394,341.28 770.129,333.649 z" id="boundary" inkscape:connector-curvature="0" />
	<path style="fill:none;stroke:red;stroke-width:1px;stroke-linecap:butt;stroke-linejoin:miter;stroke-opacity:1" d="M 757.92,248.185 773.182,248.185 z" id="boundary" inkscape:connector-curvature="0" />
	<path style="fill:none;stroke:red;stroke-width:1px;stroke-linecap:butt;stroke-linejoin:miter;stroke-opacity:1" d="M 770.129,333.649 785.391,333.649 z" id="boundary" inkscape:connector-curvature="0" />
	<path style="fill:none;stroke:red;stroke-width:1px;stroke-linecap:butt;stroke-linejoin:miter;stroke-opacity:1" d="M 773.182,248.185 786.917,255.815 z" id="boundary" inkscape:connector-curvature="0" />
	<path style="fill:none;stroke:red;stroke-width:1px;stroke-linecap:butt;stroke-linejoin:miter;stroke-opacity:1" d="M 785.391,333.649 800.652,333.649 z" id="boundary" inkscape:connector-curvature="0" />
	<path style="fill:none;stroke:red;stroke-width:1px;stroke-linecap:butt;stroke-linejoin:miter;stroke-opacity:1" d="M 786.917,255.815 802.178,255.815 z" id="boundary" inkscape:connector-curvature="0" />
	<path style="fill:none;stroke:red;stroke-width:1px;stroke-linecap:butt;stroke-linejoin:miter;stroke-opacity:1" d="M 800.652,333.649 814.388,326.018 z" id="boundary" inkscape:connector-curvature="0" />
	<path style="fill:none;stroke:red;stroke-width:1px;stroke-linecap:butt;stroke-linejoin:miter;stroke-opacity:1" d="M 802.178,255.815 817.44,255.815 z" id="boundary" inkscape:connector-curvature="0" />
	<path style="fill:none;stroke:red;stroke-width:1px;stroke-linecap:butt;stroke-linejoin:miter;stroke-opacity:1" d="M 814.388,326.018 829.649,326.018 z" id="boundary" inkscape:connector-curvature="0" />
	<path style="fill:none;stroke:red;stroke-width:1px;stroke-linecap:butt;stroke-linejoin:miter;stroke-opacity:1" d="M 817.44,255.815 832.702,255.815 z" id="boundary" inkscape:connector-curvature="0" />
	<path style="fill:none;stroke:red;stroke-width:1px;stroke-linecap:butt;stroke-linejoin:miter;stroke-opacity:1" d="M 829.649,326.018 844.911,326.018 z" id="boundary" inkscape:connector-curvature="0" />
	<path style="fill:none;stroke:red;stroke-width:1px;stroke-linecap:butt;stroke-linejoin:miter;stroke-opacity:1" d="M 832.702,255.815 844.911,264.972 z" id="boundary" inkscape:connector-curvature="0" />
	<path style="fill:none;stroke:red;stroke-width:1px;stroke-linecap:butt;stroke-linejoin:miter;stroke-opacity:1" d="M 844.911,264.972 847.963,280.234 z" id="boundary" inkscape:connector-curvature="0" />
	<path style="fill:none;stroke:red;stroke-width:1px;stroke-linecap:butt;stroke-linejoin:miter;stroke-opacity:1" d="M 844.911,326.018 860.172,326.018 z" id="boundary" inkscape:connector-curvature="0" />
	<path style="fill:none;stroke:red;stroke-width:1px;stroke-linecap:butt;stroke-linejoin:miter;stroke-opacity:1" d="M 847.963,280.234 863.225,286.338 z" id="boundary" inkscape:connector-curvature="0" />
	<path style="fill:none;stroke:red;stroke-width:1px;stroke-linecap:butt;stroke-linejoin:miter;stroke-opacity:1" d="M 860.172,326.018 875.434,326.018 z" id="boundary" inkscape:connector-curvature="0" />
	<path style="fill:none;stroke:red;stroke-width:1px;stroke-linecap:butt;stroke-linejoin:miter;stroke-opacity:1" d="M 863.225,286.338 878.486,286.338 z" id="boundary" inkscape:connector-curvature="0" />
	<path style="fill:none;stroke:red;stroke-width:1px;stroke-linecap:butt;stroke-linejoin:miter;stroke-opacity:1" d="M 875.434,326.018 890.695,326.018 z" id="boundary" inkscape:connector-curvature="0" />
	<path style="fill:none;stroke:red;stroke-width:1px;stroke-linecap:butt;stroke-linejoin:miter;stroke-opacity:1" d="M 878.486,286.338 893.748,286.338 z" id="boundary" inkscape:connector-curvature="0" />
	<path style="fill:none;stroke:red;stroke-width:1px;stroke-linecap:butt;stroke-linejoin:miter;stroke-opacity:1" d="M 890.695,326.018 905.957,326.018 z" id="boundary" inkscape:connector-curvature="0" />
	<path style="fill:none;stroke:red;stroke-width:1px;stroke-linecap:butt;stroke-linejoin:miter;stroke-opacity:1" d="M 893.748,286.338 909.009,286.338 z" id="boundary" inkscape:connector-curvature="0" />
	<path style="fill:none;stroke:red;stroke-width:1px;stroke-linecap:butt;stroke-linejoin:miter;stroke-opacity:1" d="M 905.957,326.018 919.692,318.388 z" id="boundary" inkscape:connector-curvature="0" />
	<path style="fill:none;stroke:red;stroke-width:1px;stroke-linecap:butt;stroke-linejoin:miter;stroke-opacity:1" d="M 909.009,286.338 924.271,286.338 z" id="boundary" inkscape:connector-curvature="0" />
	<path style="fill:none;stroke:red;stroke-width:1px;stroke-linecap:butt;stroke-linejoin:miter;stroke-opacity:1" d="M 919.692,318.388 934.954,318.388 z" id="boundary" inkscape:connector-curvature="0" />
	<path style="fill:none;stroke:red;stroke-width:1px;stroke-linecap:butt;stroke-linejoin:miter;stroke-opacity:1" d="M 924.271,286.338 939.532,286.338 z" id="boundary" inkscape:connector-curvature="0" />
	<path style="fill:none;stroke:red;stroke-width:1px;stroke-linecap:butt;stroke-linejoin:miter;stroke-opacity:1" d="M 934.954,318.388 950.215,318.388 z" id="boundary" inkscape:connector-curvature="0" />
	<path style="fill:none;stroke:red;stroke-width:1px;stroke-linecap:butt;stroke-linejoin:miter;stroke-opacity:1" d="M 939.532,286.338 954.794,286.338 z" id="boundary" inkscape:connector-curvature="0" />
	<path style="fill:none;stroke:red;stroke-width:1px;stroke-linecap:butt;stroke-linejoin:miter;stroke-opacity:1" d="M 950.215,318.388 965.477,313.809 z" id="boundary" inkscape:connector-curvature="0" />
	<path style="fill:none;stroke:red;stroke-width:1px;stroke-linecap:butt;stroke-linejoin:miter;stroke-opacity:1" d="M 954.794,286.338 970.055,286.338 z" id="boundary" inkscape:connector-curvature="0" />
	<path style="fill:none;stroke:red;stroke-width:1px;stroke-linecap:butt;stroke-linejoin:miter;stroke-opacity:1" d="M 965.477,313.809 980.738,310.757 z" id="boundary" inkscape:connector-curvature="0" />
	<path style="fill:none;stroke:red;stroke-width:1px;stroke-linecap:butt;stroke-linejoin:miter;stroke-opacity:1" d="M 970.055,286.338 985.317,286.338 z" id="boundary" inkscape:connector-curvature="0" />
	<path style="fill:none;stroke:red;stroke-width:1px;stroke-linecap:butt;stroke-linejoin:miter;stroke-opacity:1" d="M 980.738,310.757 996,306.178 z" id="boundary" inkscape:connector-curvature="0" />
	<path style="fill:none;stroke:red;stroke-width:1px;stroke-linecap:butt;stroke-linejoin:miter;stroke-opacity:1" d="M 985.317,286.338 996,306.178 z" id="boundary" inkscape:connector-curvature="0" />
	<circle cx="4" cy="123.04" r="4" fill="#0" id="circle0"/>
	<circle cx="11.6308" cy="107.778" r="4" fill="#0" id="circle1"/>
	<circle cx="19.2615" cy="127.618" r="4" fill="#0" id="circle2"/>
	<circle cx="26.8923" cy="103.2" r="4" fill="#0" id="circle3"/>
	<circle cx="34.5231" cy="127.618" r="4" fill="#0" id="circle4"/>
	<circle cx="42.1538" cy="103.2" r="4" fill="#0" id="circle5"/>
	<circle cx="48.2585" cy="119.988" r="4" fill="#0" id="circle6"/>
	<circle cx="55.8892" cy="95.5692" r="4" fill="#0" id="circle7"/>
	<circle cx="63.52" cy="119.988" r="4" fill="#0" id="circle8"/>
	<circle cx="69.6246" cy="87.9385" r="4" fill="#0" id="circle9"/>
	<circle cx="78.7815" cy="119.988" r="4" fill="#0" id="circle10"/>
	<circle cx="84.8862" cy="80.3077" r="4" fill="#0" id="circle11"/>
	<circle cx="94.0431" cy="119.988" r="4" fill="#0" id="circle12"/>
	<circle cx="95.5692" cy="54.3631" r="4" fill="#0" id="circle13"/>
	<circle cx="103.2" cy="39.1015" r="4" fill="#0" id="circle14"/>
	<circle cx="107.778" cy="127.618" r="4" fill="#0" id="circle15"/>
	<circle cx="115.409" cy="26.8923" r="4" fill="#0" id="circle16"/>
	<circle cx="118.462" cy="139.828" r="4" fill="#0" id="circle17"/>
	<circle cx="118.462" cy="155.089" r="4" fill="#0" id="circle18"/>
	<circle cx="118.462" cy="170.351" r="4" fill="#0" id="circle19"/>
	<circle cx="118.462" cy="185.612" r="4" fill="#0" id="circle20"/>
	<circle cx="118.462" cy="200.874" r="4" fill="#0" id="circle21"/>
	<circle cx="118.462" cy="216.135" r="4" fill="#0" id="circle22"/>
	<circle cx="118.462" cy="231.397" r="4" fill="#0" id="circle23"/>
	<circle cx="118.462" cy="246.658" r="4" fill="#0" id="circle24"/>
	<circle cx="119.988" cy="261.92" r="4" fill="#0" id="circle25"/>
	<circle cx="126.092" cy="277.182" r="4" fill="#0" id="circle26"/>
	<circle cx="127.618" cy="292.443" r="4" fill="#0" id="circle27"/>
	<circle cx="129.145" cy="19.2615" r="4" fill="#0" id="circle28"/>
	<circle cx="139.828" cy="303.126" r="4" fill="#0" id="circle29"/>
	<circle cx="142.88" cy="11.6308" r="4" fill="#0" id="circle30"/>
	<circle cx="145.932" cy="318.388" r="4" fill="#0" id="circle31"/>
	<circle cx="156.615" cy="4" r="4" fill="#0" id="circle32"/>
	<circle cx="158.142" cy="329.071" r="4" fill="#0" id="circle33"/>
	<circle cx="168.825" cy="341.28" r="4" fill="#0" id="circle34"/>
	<circle cx="171.877" cy="4" r="4" fill="#0" id="circle35"/>
	<circle cx="181.034" cy="351.963" r="4" fill="#0" id="circle36"/>
	<circle cx="187.138" cy="4" r="4" fill="#0" id="circle37"/>
	<circle cx="191.717" cy="364.172" r="4" fill="#0" id="circle38"/>
	<circle cx="202.4" cy="4" r="4" fill="#0" id="circle39"/>
	<circle cx="203.926" cy="374.855" r="4" fill="#0" id="circle40"/>
	<circle cx="214.609" cy="387.065" r="4" fill="#0" id="circle41"/>
	<circle cx="216.135" cy="11.6308" r="4" fill="#0" id="circle42"/>
	<circle cx="229.871" cy="393.169" r="4" fill="#0" id="circle43"/>
	<circle cx="231.397" cy="13.1569" r="4" fill="#0" id="circle44"/>
	<circle cx="243.606" cy="400.8" r="4" fill="#0" id="circle45"/>
	<circle cx="245.132" cy="20.7877" r="4" fill="#0" id="circle46"/>
	<circle cx="255.815" cy="409.957" r="4" fill="#0" id="circle47"/>
	<circle cx="257.342" cy="31.4708" r="4" fill="#0" id="circle48"/>
	<circle cx="263.446" cy="46.7323" r="4" fill="#0" id="circle49"/>
	<circle cx="271.077" cy="409.957" r="4" fill="#0" id="circle50"/>
	<circle cx="271.077" cy="664.825" r="4" fill="#0" id="circle51"/>
	<circle cx="272.603" cy="58.9415" r="4" fill="#0" id="circle52"/>
	<circle cx="272.603" cy="74.2031" r="4" fill="#0" id="circle53"/>
	<circle cx="272.603" cy="89.4646" r="4" fill="#0" id="circle54"/>
	<circle cx="280.234" cy="103.2" r="4" fill="#0" id="circle55"/>
	<circle cx="280.234" cy="677.034" r="4" fill="#0" id="circle56"/>
	<circle cx="286.338" cy="409.957" r="4" fill="#0" id="circle57"/>
	<circle cx="286.338" cy="657.194" r="4" fill="#0" id="circle58"/>
	<circle cx="287.865" cy="116.935" r="4" fill="#0" id="circle59"/>
	<circle cx="295.495" cy="677.034" r="4" fill="#0" id="circle60"/>
	<circle cx="300.074" cy="417.588" r="4" fill="#0" id="circle61"/>
	<circle cx="301.6" cy="649.563" r="4" fill="#0" id="circle62"/>
	<circle cx="303.126" cy="118.462" r="4" fill="#0" id="circle63"/>
	<circle cx="309.231" cy="669.403" r="4" fill="#0" id="circle64"/>
	<circle cx="315.335" cy="417.588" r="4" fill="#0" id="circle65"/>
	<circle cx="316.862" cy="126.092" r="4" fill="#0" id="circle66"/>
	<circle cx="316.862" cy="644.985" r="4" fill="#0" id="circle67"/>
	<circle cx="324.492" cy="669.403" r="4" fill="#0" id="circle68"/>
	<circle cx="330.597" cy="417.588" r="4" fill="#0" id="circle69"/>
	<circle cx="332.123" cy="126.092" r="4" fill="#0" id="circle70"/>
	<circle cx="332.123" cy="641.932" r="4" fill="#0" id="circle71"/>
	<circle cx="338.228" cy="661.772" r="4" fill="#0" id="circle72"/>
	<circle cx="339.754" cy="626.671" r="4" fill="#0" id="circle73"/>
	<circle cx="344.332" cy="425.218" r="4" fill="#0" id="circle74"/>
	<circle cx="347.385" cy="129.145" r="4" fill="#0" id="circle75"/>
	<circle cx="347.385" cy="611.409" r="4" fill="#0" id="circle76"/>
	<circle cx="353.489" cy="658.72" r="4" fill="#0" id="circle77"/>
	<circle cx="355.015" cy="596.148" r="4" fill="#0" id="circle78"/>
	<circle cx="359.594" cy="431.323" r="4" fill="#0" id="circle79"/>
	<circle cx="362.646" cy="133.723" r="4" fill="#0" id="circle80"/>
	<circle cx="362.646" cy="446.585" r="4" fill="#0" id="circle81"/>
	<circle cx="362.646" cy="542.732" r="4" fill="#0" id="circle82"/>
	<circle cx="362.646" cy="557.994" r="4" fill="#0" id="circle83"/>
	<circle cx="362.646" cy="573.255" r="4" fill="#0" id="circle84"/>
	<circle cx="362.646" cy="680.086" r="4" fill="#0" id="circle85"/>
	<circle cx="364.172" cy="615.988" r="4" fill="#0" id="circle86"/>
	<circle cx="364.172" cy="631.249" r="4" fill="#0" id="circle87"/>
	<circle cx="364.172" cy="646.511" r="4" fill="#0" id="circle88"/>
	<circle cx="370.277" cy="496.948" r="4" fill="#0" id="circle89"/>
	<circle cx="370.277" cy="512.209" r="4" fill="#0" id="circle90"/>
	<circle cx="370.277" cy="527.471" r="4" fill="#0" id="circle91"/>
	<circle cx="371.803" cy="458.794" r="4" fill="#0" id="circle92"/>
	<circle cx="371.803" cy="600.726" r="4" fill="#0" id="circle93"/>
	<circle cx="371.803" cy="692.295" r="4" fill="#0" id="circle94"/>
	<circle cx="376.382" cy="141.354" r="4" fill="#0" id="circle95"/>
	<circle cx="377.908" cy="474.055" r="4" fill="#0" id="circle96"/>
	<circle cx="377.908" cy="672.455" r="4" fill="#0" id="circle97"/>
	<circle cx="379.434" cy="554.942" r="4" fill="#0" id="circle98"/>
	<circle cx="379.434" cy="570.203" r="4" fill="#0" id="circle99"/>
	<circle cx="379.434" cy="585.465" r="4" fill="#0" id="circle100"/>
	<circle cx="387.065" cy="432.849" r="4" fill="#0" id="circle101"/>
	<circle cx="387.065" cy="448.111" r="4" fill="#0" id="circle102"/>
	<circle cx="387.065" cy="516.788" r="4" fill="#0" id="circle103"/>
	<circle cx="387.065" cy="532.049" r="4" fill="#0" id="circle104"/>
	<circle cx="387.065" cy="692.295" r="4" fill="#0" id="circle105"/>
	<circle cx="390.117" cy="660.246" r="4" fill="#0" id="circle106"/>
	<circle cx="391.643" cy="141.354" r="4" fill="#0" id="circle107"/>
	<circle cx="394.695" cy="461.846" r="4" fill="#0" id="circle108"/>
	<circle cx="394.695" cy="493.895" r="4" fill="#0" id="circle109"/>
	<circle cx="397.748" cy="644.985" r="4" fill="#0" id="circle110"/>
	<circle cx="400.8" cy="425.218" r="4" fill="#0" id="circle111"/>
	<circle cx="400.8" cy="619.04" r="4" fill="#0" id="circle112"/>
	<circle cx="402.326" cy="475.582" r="4" fill="#0" id="circle113"/>
	<circle cx="402.326" cy="692.295" r="4" fill="#0" id="circle114"/>
	<circle cx="405.378" cy="148.985" r="4" fill="#0" id="circle115"/>
	<circle cx="408.431" cy="438.954" r="4" fill="#0" id="circle116"/>
	<circle cx="408.431" cy="573.255" r="4" fill="#0" id="circle117"/>
	<circle cx="408.431" cy="588.517" r="4" fill="#0" id="circle118"/>
	<circle cx="408.431" cy="603.778" r="4" fill="#0" id="circle119"/>
	<circle cx="409.957" cy="669.403" r="4" fill="#0" id="circle120"/>
	<circle cx="416.062" cy="452.689" r="4" fill="#0" id="circle121"/>
	<circle cx="416.062" cy="542.732" r="4" fill="#0" id="circle122"/>
	<circle cx="416.062" cy="557.994" r="4" fill="#0" id="circle123"/>
	<circle cx="417.588" cy="467.951" r="4" fill="#0" id="circle124"/>
	<circle cx="417.588" cy="631.249" r="4" fill="#0" id="circle125"/>
	<circle cx="417.588" cy="646.511" r="4" fill="#0" id="circle126"/>
	<circle cx="419.114" cy="156.615" r="4" fill="#0" id="circle127"/>
	<circle cx="423.692" cy="483.212" r="4" fill="#0" id="circle128"/>
	<circle cx="423.692" cy="498.474" r="4" fill="#0" id="circle129"/>
	<circle cx="423.692" cy="513.735" r="4" fill="#0" id="circle130"/>
	<circle cx="423.692" cy="528.997" r="4" fill="#0" id="circle131"/>
	<circle cx="425.218" cy="432.849" r="4" fill="#0" id="circle132"/>
	<circle cx="425.218" cy="570.203" r="4" fill="#0" id="circle133"/>
	<circle cx="425.218" cy="585.465" r="4" fill="#0" id="circle134"/>
	<circle cx="425.218" cy="600.726" r="4" fill="#0" id="circle135"/>
	<circle cx="425.218" cy="615.988" r="4" fill="#0" id="circle136"/>
	<circle cx="432.849" cy="417.588" r="4" fill="#0" id="circle137"/>
	<circle cx="432.849" cy="446.585" r="4" fill="#0" id="circle138"/>
	<circle cx="432.849" cy="547.311" r="4" fill="#0" id="circle139"/>
	<circle cx="434.375" cy="156.615" r="4" fill="#0" id="circle140"/>
	<circle cx="440.48" cy="460.32" r="4" fill="#0" id="circle141"/>
	<circle cx="440.48" cy="524.418" r="4" fill="#0" id="circle142"/>
	<circle cx="448.111" cy="164.246" r="4" fill="#0" id="circle143"/>
	<circle cx="448.111" cy="417.588" r="4" fill="#0" id="circle144"/>
	<circle cx="448.111" cy="474.055" r="4" fill="#0" id="circle145"/>
	<circle cx="448.111" cy="489.317" r="4" fill="#0" id="circle146"/>
	<circle cx="448.111" cy="504.578" r="4" fill="#0" id="circle147"/>
	<circle cx="461.846" cy="409.957" r="4" fill="#0" id="circle148"/>
	<circle cx="463.372" cy="168.825" r="4" fill="#0" id="circle149"/>
	<circle cx="475.582" cy="179.508" r="4" fill="#0" id="circle150"/>
	<circle cx="475.582" cy="417.588" r="4" fill="#0" id="circle151"/>
	<circle cx="490.843" cy="181.034" r="4" fill="#0" id="circle152"/>
	<circle cx="490.843" cy="417.588" r="4" fill="#0" id="circle153"/>
	<circle cx="504.578" cy="188.665" r="4" fill="#0" id="circle154"/>
	<circle cx="506.105" cy="417.588" r="4" fill="#0" id="circle155"/>
	<circle cx="519.84" cy="194.769" r="4" fill="#0" id="circle156"/>
	<circle cx="521.366" cy="414.535" r="4" fill="#0" id="circle157"/>
	<circle cx="533.575" cy="202.4" r="4" fill="#0" id="circle158"/>
	<circle cx="536.628" cy="409.957" r="4" fill="#0" id="circle159"/>
	<circle cx="548.837" cy="202.4" r="4" fill="#0" id="circle160"/>
	<circle cx="550.363" cy="402.326" r="4" fill="#0" id="circle161"/>
	<circle cx="562.572" cy="210.031" r="4" fill="#0" id="circle162"/>
	<circle cx="564.098" cy="394.695" r="4" fill="#0" id="circle163"/>
	<circle cx="577.834" cy="214.609" r="4" fill="#0" id="circle164"/>
	<circle cx="579.36" cy="394.695" r="4" fill="#0" id="circle165"/>
	<circle cx="593.095" cy="217.662" r="4" fill="#0" id="circle166"/>
	<circle cx="593.095" cy="387.065" r="4" fill="#0" id="circle167"/>
	<circle cx="606.831" cy="225.292" r="4" fill="#0" id="circle168"/>
	<circle cx="608.357" cy="379.434" r="4" fill="#0" id="circle169"/>
	<circle cx="622.092" cy="225.292" r="4" fill="#0" id="circle170"/>
	<circle cx="623.618" cy="379.434" r="4" fill="#0" id="circle171"/>
	<circle cx="635.828" cy="232.923" r="4" fill="#0" id="circle172"/>
	<circle cx="638.88" cy="371.803" r="4" fill="#0" id="circle173"/>
	<circle cx="651.089" cy="232.923" r="4" fill="#0" id="circle174"/>
	<circle cx="654.142" cy="371.803" r="4" fill="#0" id="circle175"/>
	<circle cx="666.351" cy="232.923" r="4" fill="#0" id="circle176"/>
	<circle cx="669.403" cy="371.803" r="4" fill="#0" id="circle177"/>
	<circle cx="681.612" cy="234.449" r="4" fill="#0" id="circle178"/>
	<circle cx="683.138" cy="364.172" r="4" fill="#0" id="circle179"/>
	<circle cx="696.874" cy="240.554" r="4" fill="#0" id="circle180"/>
	<circle cx="696.874" cy="356.542" r="4" fill="#0" id="circle181"/>
	<circle cx="710.609" cy="348.911" r="4" fill="#0" id="circle182"/>
	<circle cx="712.135" cy="242.08" r="4" fill="#0" id="circle183"/>
	<circle cx="725.871" cy="347.385" r="4" fill="#0" id="circle184"/>
	<circle cx="727.397" cy="248.185" r="4" fill="#0" id="circle185"/>
	<circle cx="741.132" cy="341.28" r="4" fill="#0" id="circle186"/>
	<circle cx="742.658" cy="248.185" r="4" fill="#0" id="circle187"/>
	<circle cx="756.394" cy="341.28" r="4" fill="#0" id="circle188"/>
	<circle cx="757.92" cy="248.185" r="4" fill="#0" id="circle189"/>
	<circle cx="770.129" cy="333.649" r="4" fill="#0" id="circle190"/>
	<circle cx="773.182" cy="248.185" r="4" fill="#0" id="circle191"/>
	<circle cx="785.391" cy="333.649" r="4" fill="#0" id="circle192"/>
	<circle cx="786.917" cy="255.815" r="4" fill="#0" id="circle193"/>
	<circle cx="800.652" cy="333.649" r="4" fill="#0" id="circle194"/>
	<circle cx="802.178" cy="255.815" r="4" fill="#0" id="circle195"/>
	<circle cx="814.388" cy="326.018" r="4" fill="#0" id="circle196"/>
	<circle cx="817.44" cy="255.815" r="4" fill="#0" id="circle197"/>
	<circle cx="829.649" cy="326.018" r="4" fill="#0" id="circle198"/>
	<circle cx="832.702" cy="255.815" r="4" fill="#0" id="circle199"/>
	<circle cx="844.911" cy="264.972" r="4" fill="#0" id="circle200"/>
	<circle cx="844.911" cy="326.018" r="4" fill="#0" id="circle201"/>
	<circle cx="847.963" cy="280.234" r="4" fill="#0" id="circle202"/>
	<circle cx="860.172" cy="260.394" r="4" fill="#0" id="circle203"/>
	<circle cx="860.172" cy="326.018" r="4" fill="#0" id="circle204"/>
	<circle cx="863.225" cy="286.338" r="4" fill="#0" id="circle205"/>
	<circle cx="875.434" cy="326.018" r="4" fill="#0" id="circle206"/>
	<circle cx="878.486" cy="286.338" r="4" fill="#0" id="circle207"/>
	<circle cx="890.695" cy="326.018" r="4" fill="#0" id="circle208"/>
	<circle cx="893.748" cy="286.338" r="4" fill="#0" id="circle209"/>
	<circle cx="905.957" cy="326.018" r="4" fill="#0" id="circle210"/>
	<circle cx="909.009" cy="286.338" r="4" fill="#0" id="circle211"/>
	<circle cx="919.692" cy="318.388" r="4" fill="#0" id="circle212"/>
	<circle cx="924.271" cy="286.338" r="4" fill="#0" id="circle213"/>
	<circle cx="934.954" cy="318.388" r="4" fill="#0" id="circle214"/>
	<circle cx="939.532" cy="286.338" r="4" fill="#0" id="circle215"/>
	<circle cx="950.215" cy="318.388" r="4" fill="#0" id="circle216"/>
	<circle cx="954.794" cy="286.338" r="4" fill="#0" id="circle217"/>
	<circle cx="965.477" cy="313.809" r="4" fill="#0" id="circle218"/>
	<circle cx="970.055" cy="286.338" r="4" fill="#0" id="circle219"/>
	<circle cx="980.738" cy="310.757" r="4" fill="#0" id="circle220"/>
	<circle cx="985.317" cy="286.338" r="4" fill="#0" id="circle221"/>
	<circle cx="996" cy="306.178" r="4" fill="#0" id="circle222"/>
	</g>
</svg>