<?xml version="1.0" encoding="UTF-8" standalone="no"?>
<!-- Created with CurveBenchmark -->
<svg
	xmlns:dc="http://purl.org/dc/elements/1.1/"
	xmlns:cc="http://creativecommons.org/ns#"
	xmlns:rdf="http://www.w3.org/1999/02/22-rdf-syntax-ns#"
	xmlns:svg="http://www.w3.org/2000/svg"
	xmlns="http://www.w3.org/2000/svg"
	xmlns:sodipodi="http://sodipodi.sourceforge.net/DTD/sodipodi-0.dtd"
	xmlns:inkscape="http://www.inkscape.org/namespaces/inkscape"
	width="1000"
	height="1000"
	id="svg2"
	version="1.1"
	sodipodi:docname="manifold/vicur-Glas15.png.txt">
<defs
	id="defs4" />
<metadata
	id="metadata7">
	<rdf:RDF>
		<cc:Work
			rdf:about="">
			<dc:format>image/svg+xml</dc:format>
			<dc:type
				rdf:resource="http://purl.org/dc/dcmitype/StillImage" />
			<dc:title></dc:title>
		</cc:Work>
	</rdf:RDF>
</metadata>
<g
	inkscape:label="Layer 1"
	inkscape:groupmode="layer"
	id="layer1">
	<path style="fill:none;stroke:red;stroke-width:1px;stroke-linecap:butt;stroke-linejoin:miter;stroke-opacity:1" d="M 4,10.0611 4,30.2648 z" id="boundary" inkscape:connector-curvature="0" />
	<path style="fill:none;stroke:red;stroke-width:1px;stroke-linecap:butt;stroke-linejoin:miter;stroke-opacity:1" d="M 4,10.0611 24.2037,4 z" id="boundary" inkscape:connector-curvature="0" />
	<path style="fill:none;stroke:red;stroke-width:1px;stroke-linecap:butt;stroke-linejoin:miter;stroke-opacity:1" d="M 4,30.2648 4,50.4684 z" id="boundary" inkscape:connector-curvature="0" />
	<path style="fill:none;stroke:red;stroke-width:1px;stroke-linecap:butt;stroke-linejoin:miter;stroke-opacity:1" d="M 4,50.4684 4,70.6721 z" id="boundary" inkscape:connector-curvature="0" />
	<path style="fill:none;stroke:red;stroke-width:1px;stroke-linecap:butt;stroke-linejoin:miter;stroke-opacity:1" d="M 4,70.6721 4,90.8758 z" id="boundary" inkscape:connector-curvature="0" />
	<path style="fill:none;stroke:red;stroke-width:1px;stroke-linecap:butt;stroke-linejoin:miter;stroke-opacity:1" d="M 4,90.8758 4,111.079 z" id="boundary" inkscape:connector-curvature="0" />
	<path style="fill:none;stroke:red;stroke-width:1px;stroke-linecap:butt;stroke-linejoin:miter;stroke-opacity:1" d="M 4,111.079 4,131.283 z" id="boundary" inkscape:connector-curvature="0" />
	<path style="fill:none;stroke:red;stroke-width:1px;stroke-linecap:butt;stroke-linejoin:miter;stroke-opacity:1" d="M 4,131.283 4,151.487 z" id="boundary" inkscape:connector-curvature="0" />
	<path style="fill:none;stroke:red;stroke-width:1px;stroke-linecap:butt;stroke-linejoin:miter;stroke-opacity:1" d="M 4,151.487 14.1018,169.67 z" id="boundary" inkscape:connector-curvature="0" />
	<path style="fill:none;stroke:red;stroke-width:1px;stroke-linecap:butt;stroke-linejoin:miter;stroke-opacity:1" d="M 14.1018,169.67 14.1018,189.874 z" id="boundary" inkscape:connector-curvature="0" />
	<path style="fill:none;stroke:red;stroke-width:1px;stroke-linecap:butt;stroke-linejoin:miter;stroke-opacity:1" d="M 14.1018,189.874 14.1018,210.077 z" id="boundary" inkscape:connector-curvature="0" />
	<path style="fill:none;stroke:red;stroke-width:1px;stroke-linecap:butt;stroke-linejoin:miter;stroke-opacity:1" d="M 14.1018,210.077 14.1018,230.281 z" id="boundary" inkscape:connector-curvature="0" />
	<path style="fill:none;stroke:red;stroke-width:1px;stroke-linecap:butt;stroke-linejoin:miter;stroke-opacity:1" d="M 14.1018,230.281 28.2444,246.444 z" id="boundary" inkscape:connector-curvature="0" />
	<path style="fill:none;stroke:red;stroke-width:1px;stroke-linecap:butt;stroke-linejoin:miter;stroke-opacity:1" d="M 24.2037,4 44.4073,4 z" id="boundary" inkscape:connector-curvature="0" />
	<path style="fill:none;stroke:red;stroke-width:1px;stroke-linecap:butt;stroke-linejoin:miter;stroke-opacity:1" d="M 28.2444,246.444 44.4073,258.566 z" id="boundary" inkscape:connector-curvature="0" />
	<path style="fill:none;stroke:red;stroke-width:1px;stroke-linecap:butt;stroke-linejoin:miter;stroke-opacity:1" d="M 44.4073,4 64.611,4 z" id="boundary" inkscape:connector-curvature="0" />
	<path style="fill:none;stroke:red;stroke-width:1px;stroke-linecap:butt;stroke-linejoin:miter;stroke-opacity:1" d="M 44.4073,258.566 56.5295,274.729 z" id="boundary" inkscape:connector-curvature="0" />
	<path style="fill:none;stroke:red;stroke-width:1px;stroke-linecap:butt;stroke-linejoin:miter;stroke-opacity:1" d="M 44.4073,888.921 56.5295,905.084 z" id="boundary" inkscape:connector-curvature="0" />
	<path style="fill:none;stroke:red;stroke-width:1px;stroke-linecap:butt;stroke-linejoin:miter;stroke-opacity:1" d="M 44.4073,888.921 64.611,882.859 z" id="boundary" inkscape:connector-curvature="0" />
	<path style="fill:none;stroke:red;stroke-width:1px;stroke-linecap:butt;stroke-linejoin:miter;stroke-opacity:1" d="M 56.5295,274.729 72.6925,288.872 z" id="boundary" inkscape:connector-curvature="0" />
	<path style="fill:none;stroke:red;stroke-width:1px;stroke-linecap:butt;stroke-linejoin:miter;stroke-opacity:1" d="M 56.5295,905.084 74.7128,915.185 z" id="boundary" inkscape:connector-curvature="0" />
	<path style="fill:none;stroke:red;stroke-width:1px;stroke-linecap:butt;stroke-linejoin:miter;stroke-opacity:1" d="M 64.611,4 84.8147,4 z" id="boundary" inkscape:connector-curvature="0" />
	<path style="fill:none;stroke:red;stroke-width:1px;stroke-linecap:butt;stroke-linejoin:miter;stroke-opacity:1" d="M 64.611,882.859 84.8147,882.859 z" id="boundary" inkscape:connector-curvature="0" />
	<path style="fill:none;stroke:red;stroke-width:1px;stroke-linecap:butt;stroke-linejoin:miter;stroke-opacity:1" d="M 72.6925,288.872 90.8758,298.974 z" id="boundary" inkscape:connector-curvature="0" />
	<path style="fill:none;stroke:red;stroke-width:1px;stroke-linecap:butt;stroke-linejoin:miter;stroke-opacity:1" d="M 74.7128,915.185 94.9165,915.185 z" id="boundary" inkscape:connector-curvature="0" />
	<path style="fill:none;stroke:red;stroke-width:1px;stroke-linecap:butt;stroke-linejoin:miter;stroke-opacity:1" d="M 84.8147,4 105.018,4 z" id="boundary" inkscape:connector-curvature="0" />
	<path style="fill:none;stroke:red;stroke-width:1px;stroke-linecap:butt;stroke-linejoin:miter;stroke-opacity:1" d="M 84.8147,882.859 105.018,882.859 z" id="boundary" inkscape:connector-curvature="0" />
	<path style="fill:none;stroke:red;stroke-width:1px;stroke-linecap:butt;stroke-linejoin:miter;stroke-opacity:1" d="M 90.8758,298.974 107.039,313.116 z" id="boundary" inkscape:connector-curvature="0" />
	<path style="fill:none;stroke:red;stroke-width:1px;stroke-linecap:butt;stroke-linejoin:miter;stroke-opacity:1" d="M 94.9165,915.185 115.12,915.185 z" id="boundary" inkscape:connector-curvature="0" />
	<path style="fill:none;stroke:red;stroke-width:1px;stroke-linecap:butt;stroke-linejoin:miter;stroke-opacity:1" d="M 105.018,4 125.222,4 z" id="boundary" inkscape:connector-curvature="0" />
	<path style="fill:none;stroke:red;stroke-width:1px;stroke-linecap:butt;stroke-linejoin:miter;stroke-opacity:1" d="M 105.018,882.859 125.222,882.859 z" id="boundary" inkscape:connector-curvature="0" />
	<path style="fill:none;stroke:red;stroke-width:1px;stroke-linecap:butt;stroke-linejoin:miter;stroke-opacity:1" d="M 107.039,313.116 121.181,329.279 z" id="boundary" inkscape:connector-curvature="0" />
	<path style="fill:none;stroke:red;stroke-width:1px;stroke-linecap:butt;stroke-linejoin:miter;stroke-opacity:1" d="M 115.12,915.185 133.303,925.287 z" id="boundary" inkscape:connector-curvature="0" />
	<path style="fill:none;stroke:red;stroke-width:1px;stroke-linecap:butt;stroke-linejoin:miter;stroke-opacity:1" d="M 121.181,329.279 141.385,337.36 z" id="boundary" inkscape:connector-curvature="0" />
	<path style="fill:none;stroke:red;stroke-width:1px;stroke-linecap:butt;stroke-linejoin:miter;stroke-opacity:1" d="M 125.222,4 145.426,4 z" id="boundary" inkscape:connector-curvature="0" />
	<path style="fill:none;stroke:red;stroke-width:1px;stroke-linecap:butt;stroke-linejoin:miter;stroke-opacity:1" d="M 125.222,882.859 145.426,878.819 z" id="boundary" inkscape:connector-curvature="0" />
	<path style="fill:none;stroke:red;stroke-width:1px;stroke-linecap:butt;stroke-linejoin:miter;stroke-opacity:1" d="M 133.303,925.287 153.507,925.287 z" id="boundary" inkscape:connector-curvature="0" />
	<path style="fill:none;stroke:red;stroke-width:1px;stroke-linecap:butt;stroke-linejoin:miter;stroke-opacity:1" d="M 141.385,337.36 159.568,347.462 z" id="boundary" inkscape:connector-curvature="0" />
	<path style="fill:none;stroke:red;stroke-width:1px;stroke-linecap:butt;stroke-linejoin:miter;stroke-opacity:1" d="M 145.426,4 165.629,4 z" id="boundary" inkscape:connector-curvature="0" />
	<path style="fill:none;stroke:red;stroke-width:1px;stroke-linecap:butt;stroke-linejoin:miter;stroke-opacity:1" d="M 145.426,878.819 165.629,872.758 z" id="boundary" inkscape:connector-curvature="0" />
	<path style="fill:none;stroke:red;stroke-width:1px;stroke-linecap:butt;stroke-linejoin:miter;stroke-opacity:1" d="M 153.507,925.287 171.69,935.389 z" id="boundary" inkscape:connector-curvature="0" />
	<path style="fill:none;stroke:red;stroke-width:1px;stroke-linecap:butt;stroke-linejoin:miter;stroke-opacity:1" d="M 159.568,347.462 179.772,349.483 z" id="boundary" inkscape:connector-curvature="0" />
	<path style="fill:none;stroke:red;stroke-width:1px;stroke-linecap:butt;stroke-linejoin:miter;stroke-opacity:1" d="M 165.629,4 185.833,4 z" id="boundary" inkscape:connector-curvature="0" />
	<path style="fill:none;stroke:red;stroke-width:1px;stroke-linecap:butt;stroke-linejoin:miter;stroke-opacity:1" d="M 165.629,872.758 185.833,872.758 z" id="boundary" inkscape:connector-curvature="0" />
	<path style="fill:none;stroke:red;stroke-width:1px;stroke-linecap:butt;stroke-linejoin:miter;stroke-opacity:1" d="M 171.69,935.389 191.894,935.389 z" id="boundary" inkscape:connector-curvature="0" />
	<path style="fill:none;stroke:red;stroke-width:1px;stroke-linecap:butt;stroke-linejoin:miter;stroke-opacity:1" d="M 179.772,349.483 197.955,359.585 z" id="boundary" inkscape:connector-curvature="0" />
	<path style="fill:none;stroke:red;stroke-width:1px;stroke-linecap:butt;stroke-linejoin:miter;stroke-opacity:1" d="M 185.833,4 206.037,4 z" id="boundary" inkscape:connector-curvature="0" />
	<path style="fill:none;stroke:red;stroke-width:1px;stroke-linecap:butt;stroke-linejoin:miter;stroke-opacity:1" d="M 185.833,872.758 206.037,872.758 z" id="boundary" inkscape:connector-curvature="0" />
	<path style="fill:none;stroke:red;stroke-width:1px;stroke-linecap:butt;stroke-linejoin:miter;stroke-opacity:1" d="M 191.894,935.389 212.098,935.389 z" id="boundary" inkscape:connector-curvature="0" />
	<path style="fill:none;stroke:red;stroke-width:1px;stroke-linecap:butt;stroke-linejoin:miter;stroke-opacity:1" d="M 197.955,359.585 216.138,369.686 z" id="boundary" inkscape:connector-curvature="0" />
	<path style="fill:none;stroke:red;stroke-width:1px;stroke-linecap:butt;stroke-linejoin:miter;stroke-opacity:1" d="M 206.037,4 226.24,4 z" id="boundary" inkscape:connector-curvature="0" />
	<path style="fill:none;stroke:red;stroke-width:1px;stroke-linecap:butt;stroke-linejoin:miter;stroke-opacity:1" d="M 206.037,872.758 226.24,872.758 z" id="boundary" inkscape:connector-curvature="0" />
	<path style="fill:none;stroke:red;stroke-width:1px;stroke-linecap:butt;stroke-linejoin:miter;stroke-opacity:1" d="M 212.098,935.389 230.281,945.491 z" id="boundary" inkscape:connector-curvature="0" />
	<path style="fill:none;stroke:red;stroke-width:1px;stroke-linecap:butt;stroke-linejoin:miter;stroke-opacity:1" d="M 216.138,369.686 236.342,369.686 z" id="boundary" inkscape:connector-curvature="0" />
	<path style="fill:none;stroke:red;stroke-width:1px;stroke-linecap:butt;stroke-linejoin:miter;stroke-opacity:1" d="M 226.24,4 246.444,4 z" id="boundary" inkscape:connector-curvature="0" />
	<path style="fill:none;stroke:red;stroke-width:1px;stroke-linecap:butt;stroke-linejoin:miter;stroke-opacity:1" d="M 226.24,872.758 246.444,868.717 z" id="boundary" inkscape:connector-curvature="0" />
	<path style="fill:none;stroke:red;stroke-width:1px;stroke-linecap:butt;stroke-linejoin:miter;stroke-opacity:1" d="M 230.281,945.491 250.485,951.552 z" id="boundary" inkscape:connector-curvature="0" />
	<path style="fill:none;stroke:red;stroke-width:1px;stroke-linecap:butt;stroke-linejoin:miter;stroke-opacity:1" d="M 236.342,369.686 256.546,369.686 z" id="boundary" inkscape:connector-curvature="0" />
	<path style="fill:none;stroke:red;stroke-width:1px;stroke-linecap:butt;stroke-linejoin:miter;stroke-opacity:1" d="M 246.444,4 266.648,4 z" id="boundary" inkscape:connector-curvature="0" />
	<path style="fill:none;stroke:red;stroke-width:1px;stroke-linecap:butt;stroke-linejoin:miter;stroke-opacity:1" d="M 246.444,868.717 266.648,862.656 z" id="boundary" inkscape:connector-curvature="0" />
	<path style="fill:none;stroke:red;stroke-width:1px;stroke-linecap:butt;stroke-linejoin:miter;stroke-opacity:1" d="M 250.485,951.552 270.688,955.593 z" id="boundary" inkscape:connector-curvature="0" />
	<path style="fill:none;stroke:red;stroke-width:1px;stroke-linecap:butt;stroke-linejoin:miter;stroke-opacity:1" d="M 256.546,369.686 274.729,379.788 z" id="boundary" inkscape:connector-curvature="0" />
	<path style="fill:none;stroke:red;stroke-width:1px;stroke-linecap:butt;stroke-linejoin:miter;stroke-opacity:1" d="M 266.648,4 286.851,4 z" id="boundary" inkscape:connector-curvature="0" />
	<path style="fill:none;stroke:red;stroke-width:1px;stroke-linecap:butt;stroke-linejoin:miter;stroke-opacity:1" d="M 266.648,862.656 286.851,862.656 z" id="boundary" inkscape:connector-curvature="0" />
	<path style="fill:none;stroke:red;stroke-width:1px;stroke-linecap:butt;stroke-linejoin:miter;stroke-opacity:1" d="M 270.688,955.593 290.892,955.593 z" id="boundary" inkscape:connector-curvature="0" />
	<path style="fill:none;stroke:red;stroke-width:1px;stroke-linecap:butt;stroke-linejoin:miter;stroke-opacity:1" d="M 274.729,379.788 292.912,389.89 z" id="boundary" inkscape:connector-curvature="0" />
	<path style="fill:none;stroke:red;stroke-width:1px;stroke-linecap:butt;stroke-linejoin:miter;stroke-opacity:1" d="M 286.851,4 307.055,4 z" id="boundary" inkscape:connector-curvature="0" />
	<path style="fill:none;stroke:red;stroke-width:1px;stroke-linecap:butt;stroke-linejoin:miter;stroke-opacity:1" d="M 286.851,862.656 307.055,862.656 z" id="boundary" inkscape:connector-curvature="0" />
	<path style="fill:none;stroke:red;stroke-width:1px;stroke-linecap:butt;stroke-linejoin:miter;stroke-opacity:1" d="M 290.892,955.593 309.075,965.695 z" id="boundary" inkscape:connector-curvature="0" />
	<path style="fill:none;stroke:red;stroke-width:1px;stroke-linecap:butt;stroke-linejoin:miter;stroke-opacity:1" d="M 292.912,389.89 313.116,397.971 z" id="boundary" inkscape:connector-curvature="0" />
	<path style="fill:none;stroke:red;stroke-width:1px;stroke-linecap:butt;stroke-linejoin:miter;stroke-opacity:1" d="M 307.055,4 327.259,4 z" id="boundary" inkscape:connector-curvature="0" />
	<path style="fill:none;stroke:red;stroke-width:1px;stroke-linecap:butt;stroke-linejoin:miter;stroke-opacity:1" d="M 307.055,862.656 327.259,862.656 z" id="boundary" inkscape:connector-curvature="0" />
	<path style="fill:none;stroke:red;stroke-width:1px;stroke-linecap:butt;stroke-linejoin:miter;stroke-opacity:1" d="M 309.075,965.695 329.279,965.695 z" id="boundary" inkscape:connector-curvature="0" />
	<path style="fill:none;stroke:red;stroke-width:1px;stroke-linecap:butt;stroke-linejoin:miter;stroke-opacity:1" d="M 313.116,397.971 333.32,399.992 z" id="boundary" inkscape:connector-curvature="0" />
	<path style="fill:none;stroke:red;stroke-width:1px;stroke-linecap:butt;stroke-linejoin:miter;stroke-opacity:1" d="M 327.259,4 347.462,4 z" id="boundary" inkscape:connector-curvature="0" />
	<path style="fill:none;stroke:red;stroke-width:1px;stroke-linecap:butt;stroke-linejoin:miter;stroke-opacity:1" d="M 327.259,862.656 347.462,858.615 z" id="boundary" inkscape:connector-curvature="0" />
	<path style="fill:none;stroke:red;stroke-width:1px;stroke-linecap:butt;stroke-linejoin:miter;stroke-opacity:1" d="M 329.279,965.695 347.462,975.796 z" id="boundary" inkscape:connector-curvature="0" />
	<path style="fill:none;stroke:red;stroke-width:1px;stroke-linecap:butt;stroke-linejoin:miter;stroke-opacity:1" d="M 333.32,399.992 353.523,399.992 z" id="boundary" inkscape:connector-curvature="0" />
	<path style="fill:none;stroke:red;stroke-width:1px;stroke-linecap:butt;stroke-linejoin:miter;stroke-opacity:1" d="M 347.462,4 367.666,4 z" id="boundary" inkscape:connector-curvature="0" />
	<path style="fill:none;stroke:red;stroke-width:1px;stroke-linecap:butt;stroke-linejoin:miter;stroke-opacity:1" d="M 347.462,858.615 367.666,852.554 z" id="boundary" inkscape:connector-curvature="0" />
	<path style="fill:none;stroke:red;stroke-width:1px;stroke-linecap:butt;stroke-linejoin:miter;stroke-opacity:1" d="M 347.462,975.796 367.666,975.796 z" id="boundary" inkscape:connector-curvature="0" />
	<path style="fill:none;stroke:red;stroke-width:1px;stroke-linecap:butt;stroke-linejoin:miter;stroke-opacity:1" d="M 353.523,399.992 371.707,410.094 z" id="boundary" inkscape:connector-curvature="0" />
	<path style="fill:none;stroke:red;stroke-width:1px;stroke-linecap:butt;stroke-linejoin:miter;stroke-opacity:1" d="M 367.666,4 387.87,4 z" id="boundary" inkscape:connector-curvature="0" />
	<path style="fill:none;stroke:red;stroke-width:1px;stroke-linecap:butt;stroke-linejoin:miter;stroke-opacity:1" d="M 367.666,852.554 387.87,852.554 z" id="boundary" inkscape:connector-curvature="0" />
	<path style="fill:none;stroke:red;stroke-width:1px;stroke-linecap:butt;stroke-linejoin:miter;stroke-opacity:1" d="M 367.666,975.796 387.87,975.796 z" id="boundary" inkscape:connector-curvature="0" />
	<path style="fill:none;stroke:red;stroke-width:1px;stroke-linecap:butt;stroke-linejoin:miter;stroke-opacity:1" d="M 371.707,410.094 377.768,430.297 z" id="boundary" inkscape:connector-curvature="0" />
	<path style="fill:none;stroke:red;stroke-width:1px;stroke-linecap:butt;stroke-linejoin:miter;stroke-opacity:1" d="M 377.768,430.297 377.768,450.501 z" id="boundary" inkscape:connector-curvature="0" />
	<path style="fill:none;stroke:red;stroke-width:1px;stroke-linecap:butt;stroke-linejoin:miter;stroke-opacity:1" d="M 377.768,450.501 377.768,470.705 z" id="boundary" inkscape:connector-curvature="0" />
	<path style="fill:none;stroke:red;stroke-width:1px;stroke-linecap:butt;stroke-linejoin:miter;stroke-opacity:1" d="M 377.768,470.705 383.829,490.908 z" id="boundary" inkscape:connector-curvature="0" />
	<path style="fill:none;stroke:red;stroke-width:1px;stroke-linecap:butt;stroke-linejoin:miter;stroke-opacity:1" d="M 383.829,490.908 387.87,511.112 z" id="boundary" inkscape:connector-curvature="0" />
	<path style="fill:none;stroke:red;stroke-width:1px;stroke-linecap:butt;stroke-linejoin:miter;stroke-opacity:1" d="M 387.87,4 408.073,4 z" id="boundary" inkscape:connector-curvature="0" />
	<path style="fill:none;stroke:red;stroke-width:1px;stroke-linecap:butt;stroke-linejoin:miter;stroke-opacity:1" d="M 387.87,511.112 387.87,531.316 z" id="boundary" inkscape:connector-curvature="0" />
	<path style="fill:none;stroke:red;stroke-width:1px;stroke-linecap:butt;stroke-linejoin:miter;stroke-opacity:1" d="M 387.87,531.316 387.87,551.519 z" id="boundary" inkscape:connector-curvature="0" />
	<path style="fill:none;stroke:red;stroke-width:1px;stroke-linecap:butt;stroke-linejoin:miter;stroke-opacity:1" d="M 387.87,551.519 387.87,571.723 z" id="boundary" inkscape:connector-curvature="0" />
	<path style="fill:none;stroke:red;stroke-width:1px;stroke-linecap:butt;stroke-linejoin:miter;stroke-opacity:1" d="M 387.87,571.723 387.87,591.927 z" id="boundary" inkscape:connector-curvature="0" />
	<path style="fill:none;stroke:red;stroke-width:1px;stroke-linecap:butt;stroke-linejoin:miter;stroke-opacity:1" d="M 387.87,591.927 387.87,612.13 z" id="boundary" inkscape:connector-curvature="0" />
	<path style="fill:none;stroke:red;stroke-width:1px;stroke-linecap:butt;stroke-linejoin:miter;stroke-opacity:1" d="M 387.87,612.13 387.87,632.334 z" id="boundary" inkscape:connector-curvature="0" />
	<path style="fill:none;stroke:red;stroke-width:1px;stroke-linecap:butt;stroke-linejoin:miter;stroke-opacity:1" d="M 387.87,632.334 387.87,652.538 z" id="boundary" inkscape:connector-curvature="0" />
	<path style="fill:none;stroke:red;stroke-width:1px;stroke-linecap:butt;stroke-linejoin:miter;stroke-opacity:1" d="M 387.87,652.538 393.931,672.741 z" id="boundary" inkscape:connector-curvature="0" />
	<path style="fill:none;stroke:red;stroke-width:1px;stroke-linecap:butt;stroke-linejoin:miter;stroke-opacity:1" d="M 387.87,852.554 397.971,834.371 z" id="boundary" inkscape:connector-curvature="0" />
	<path style="fill:none;stroke:red;stroke-width:1px;stroke-linecap:butt;stroke-linejoin:miter;stroke-opacity:1" d="M 387.87,975.796 406.053,985.898 z" id="boundary" inkscape:connector-curvature="0" />
	<path style="fill:none;stroke:red;stroke-width:1px;stroke-linecap:butt;stroke-linejoin:miter;stroke-opacity:1" d="M 393.931,672.741 397.971,692.945 z" id="boundary" inkscape:connector-curvature="0" />
	<path style="fill:none;stroke:red;stroke-width:1px;stroke-linecap:butt;stroke-linejoin:miter;stroke-opacity:1" d="M 397.971,692.945 397.971,713.149 z" id="boundary" inkscape:connector-curvature="0" />
	<path style="fill:none;stroke:red;stroke-width:1px;stroke-linecap:butt;stroke-linejoin:miter;stroke-opacity:1" d="M 397.971,713.149 397.971,733.352 z" id="boundary" inkscape:connector-curvature="0" />
	<path style="fill:none;stroke:red;stroke-width:1px;stroke-linecap:butt;stroke-linejoin:miter;stroke-opacity:1" d="M 397.971,733.352 397.971,753.556 z" id="boundary" inkscape:connector-curvature="0" />
	<path style="fill:none;stroke:red;stroke-width:1px;stroke-linecap:butt;stroke-linejoin:miter;stroke-opacity:1" d="M 397.971,753.556 397.971,773.76 z" id="boundary" inkscape:connector-curvature="0" />
	<path style="fill:none;stroke:red;stroke-width:1px;stroke-linecap:butt;stroke-linejoin:miter;stroke-opacity:1" d="M 397.971,773.76 397.971,793.963 z" id="boundary" inkscape:connector-curvature="0" />
	<path style="fill:none;stroke:red;stroke-width:1px;stroke-linecap:butt;stroke-linejoin:miter;stroke-opacity:1" d="M 397.971,793.963 397.971,814.167 z" id="boundary" inkscape:connector-curvature="0" />
	<path style="fill:none;stroke:red;stroke-width:1px;stroke-linecap:butt;stroke-linejoin:miter;stroke-opacity:1" d="M 397.971,814.167 397.971,834.371 z" id="boundary" inkscape:connector-curvature="0" />
	<path style="fill:none;stroke:red;stroke-width:1px;stroke-linecap:butt;stroke-linejoin:miter;stroke-opacity:1" d="M 406.053,985.898 424.236,996 z" id="boundary" inkscape:connector-curvature="0" />
	<path style="fill:none;stroke:red;stroke-width:1px;stroke-linecap:butt;stroke-linejoin:miter;stroke-opacity:1" d="M 408.073,4 428.277,4 z" id="boundary" inkscape:connector-curvature="0" />
	<path style="fill:none;stroke:red;stroke-width:1px;stroke-linecap:butt;stroke-linejoin:miter;stroke-opacity:1" d="M 424.236,996 444.44,996 z" id="boundary" inkscape:connector-curvature="0" />
	<path style="fill:none;stroke:red;stroke-width:1px;stroke-linecap:butt;stroke-linejoin:miter;stroke-opacity:1" d="M 428.277,4 448.481,4 z" id="boundary" inkscape:connector-curvature="0" />
	<path style="fill:none;stroke:red;stroke-width:1px;stroke-linecap:butt;stroke-linejoin:miter;stroke-opacity:1" d="M 444.44,996 464.644,996 z" id="boundary" inkscape:connector-curvature="0" />
	<path style="fill:none;stroke:red;stroke-width:1px;stroke-linecap:butt;stroke-linejoin:miter;stroke-opacity:1" d="M 448.481,4 468.684,4 z" id="boundary" inkscape:connector-curvature="0" />
	<path style="fill:none;stroke:red;stroke-width:1px;stroke-linecap:butt;stroke-linejoin:miter;stroke-opacity:1" d="M 464.644,996 484.847,996 z" id="boundary" inkscape:connector-curvature="0" />
	<path style="fill:none;stroke:red;stroke-width:1px;stroke-linecap:butt;stroke-linejoin:miter;stroke-opacity:1" d="M 468.684,4 488.888,4 z" id="boundary" inkscape:connector-curvature="0" />
	<path style="fill:none;stroke:red;stroke-width:1px;stroke-linecap:butt;stroke-linejoin:miter;stroke-opacity:1" d="M 484.847,996 505.051,996 z" id="boundary" inkscape:connector-curvature="0" />
	<path style="fill:none;stroke:red;stroke-width:1px;stroke-linecap:butt;stroke-linejoin:miter;stroke-opacity:1" d="M 488.888,4 509.092,4 z" id="boundary" inkscape:connector-curvature="0" />
	<path style="fill:none;stroke:red;stroke-width:1px;stroke-linecap:butt;stroke-linejoin:miter;stroke-opacity:1" d="M 505.051,996 525.255,993.98 z" id="boundary" inkscape:connector-curvature="0" />
	<path style="fill:none;stroke:red;stroke-width:1px;stroke-linecap:butt;stroke-linejoin:miter;stroke-opacity:1" d="M 509.092,4 529.295,4 z" id="boundary" inkscape:connector-curvature="0" />
	<path style="fill:none;stroke:red;stroke-width:1px;stroke-linecap:butt;stroke-linejoin:miter;stroke-opacity:1" d="M 525.255,993.98 545.458,983.878 z" id="boundary" inkscape:connector-curvature="0" />
	<path style="fill:none;stroke:red;stroke-width:1px;stroke-linecap:butt;stroke-linejoin:miter;stroke-opacity:1" d="M 529.295,4 549.499,4 z" id="boundary" inkscape:connector-curvature="0" />
	<path style="fill:none;stroke:red;stroke-width:1px;stroke-linecap:butt;stroke-linejoin:miter;stroke-opacity:1" d="M 545.458,983.878 565.662,975.796 z" id="boundary" inkscape:connector-curvature="0" />
	<path style="fill:none;stroke:red;stroke-width:1px;stroke-linecap:butt;stroke-linejoin:miter;stroke-opacity:1" d="M 549.499,4 569.703,4 z" id="boundary" inkscape:connector-curvature="0" />
	<path style="fill:none;stroke:red;stroke-width:1px;stroke-linecap:butt;stroke-linejoin:miter;stroke-opacity:1" d="M 551.519,591.927 551.519,612.13 z" id="boundary" inkscape:connector-curvature="0" />
	<path style="fill:none;stroke:red;stroke-width:1px;stroke-linecap:butt;stroke-linejoin:miter;stroke-opacity:1" d="M 551.519,591.927 561.621,571.723 z" id="boundary" inkscape:connector-curvature="0" />
	<path style="fill:none;stroke:red;stroke-width:1px;stroke-linecap:butt;stroke-linejoin:miter;stroke-opacity:1" d="M 551.519,612.13 551.519,632.334 z" id="boundary" inkscape:connector-curvature="0" />
	<path style="fill:none;stroke:red;stroke-width:1px;stroke-linecap:butt;stroke-linejoin:miter;stroke-opacity:1" d="M 551.519,632.334 551.519,652.538 z" id="boundary" inkscape:connector-curvature="0" />
	<path style="fill:none;stroke:red;stroke-width:1px;stroke-linecap:butt;stroke-linejoin:miter;stroke-opacity:1" d="M 551.519,652.538 551.519,672.741 z" id="boundary" inkscape:connector-curvature="0" />
	<path style="fill:none;stroke:red;stroke-width:1px;stroke-linecap:butt;stroke-linejoin:miter;stroke-opacity:1" d="M 551.519,672.741 551.519,692.945 z" id="boundary" inkscape:connector-curvature="0" />
	<path style="fill:none;stroke:red;stroke-width:1px;stroke-linecap:butt;stroke-linejoin:miter;stroke-opacity:1" d="M 551.519,692.945 551.519,713.149 z" id="boundary" inkscape:connector-curvature="0" />
	<path style="fill:none;stroke:red;stroke-width:1px;stroke-linecap:butt;stroke-linejoin:miter;stroke-opacity:1" d="M 551.519,713.149 551.519,733.352 z" id="boundary" inkscape:connector-curvature="0" />
	<path style="fill:none;stroke:red;stroke-width:1px;stroke-linecap:butt;stroke-linejoin:miter;stroke-opacity:1" d="M 551.519,733.352 551.519,753.556 z" id="boundary" inkscape:connector-curvature="0" />
	<path style="fill:none;stroke:red;stroke-width:1px;stroke-linecap:butt;stroke-linejoin:miter;stroke-opacity:1" d="M 551.519,753.556 551.519,773.76 z" id="boundary" inkscape:connector-curvature="0" />
	<path style="fill:none;stroke:red;stroke-width:1px;stroke-linecap:butt;stroke-linejoin:miter;stroke-opacity:1" d="M 551.519,773.76 551.519,793.963 z" id="boundary" inkscape:connector-curvature="0" />
	<path style="fill:none;stroke:red;stroke-width:1px;stroke-linecap:butt;stroke-linejoin:miter;stroke-opacity:1" d="M 551.519,793.963 551.519,814.167 z" id="boundary" inkscape:connector-curvature="0" />
	<path style="fill:none;stroke:red;stroke-width:1px;stroke-linecap:butt;stroke-linejoin:miter;stroke-opacity:1" d="M 551.519,814.167 551.519,834.371 z" id="boundary" inkscape:connector-curvature="0" />
	<path style="fill:none;stroke:red;stroke-width:1px;stroke-linecap:butt;stroke-linejoin:miter;stroke-opacity:1" d="M 551.519,834.371 561.621,852.554 z" id="boundary" inkscape:connector-curvature="0" />
	<path style="fill:none;stroke:red;stroke-width:1px;stroke-linecap:butt;stroke-linejoin:miter;stroke-opacity:1" d="M 561.621,410.094 561.621,430.297 z" id="boundary" inkscape:connector-curvature="0" />
	<path style="fill:none;stroke:red;stroke-width:1px;stroke-linecap:butt;stroke-linejoin:miter;stroke-opacity:1" d="M 561.621,410.094 577.784,395.951 z" id="boundary" inkscape:connector-curvature="0" />
	<path style="fill:none;stroke:red;stroke-width:1px;stroke-linecap:butt;stroke-linejoin:miter;stroke-opacity:1" d="M 561.621,430.297 561.621,450.501 z" id="boundary" inkscape:connector-curvature="0" />
	<path style="fill:none;stroke:red;stroke-width:1px;stroke-linecap:butt;stroke-linejoin:miter;stroke-opacity:1" d="M 561.621,450.501 561.621,470.705 z" id="boundary" inkscape:connector-curvature="0" />
	<path style="fill:none;stroke:red;stroke-width:1px;stroke-linecap:butt;stroke-linejoin:miter;stroke-opacity:1" d="M 561.621,470.705 561.621,490.908 z" id="boundary" inkscape:connector-curvature="0" />
	<path style="fill:none;stroke:red;stroke-width:1px;stroke-linecap:butt;stroke-linejoin:miter;stroke-opacity:1" d="M 561.621,490.908 561.621,511.112 z" id="boundary" inkscape:connector-curvature="0" />
	<path style="fill:none;stroke:red;stroke-width:1px;stroke-linecap:butt;stroke-linejoin:miter;stroke-opacity:1" d="M 561.621,511.112 561.621,531.316 z" id="boundary" inkscape:connector-curvature="0" />
	<path style="fill:none;stroke:red;stroke-width:1px;stroke-linecap:butt;stroke-linejoin:miter;stroke-opacity:1" d="M 561.621,531.316 561.621,551.519 z" id="boundary" inkscape:connector-curvature="0" />
	<path style="fill:none;stroke:red;stroke-width:1px;stroke-linecap:butt;stroke-linejoin:miter;stroke-opacity:1" d="M 561.621,551.519 561.621,571.723 z" id="boundary" inkscape:connector-curvature="0" />
	<path style="fill:none;stroke:red;stroke-width:1px;stroke-linecap:butt;stroke-linejoin:miter;stroke-opacity:1" d="M 561.621,852.554 581.825,852.554 z" id="boundary" inkscape:connector-curvature="0" />
	<path style="fill:none;stroke:red;stroke-width:1px;stroke-linecap:butt;stroke-linejoin:miter;stroke-opacity:1" d="M 565.662,975.796 585.866,975.796 z" id="boundary" inkscape:connector-curvature="0" />
	<path style="fill:none;stroke:red;stroke-width:1px;stroke-linecap:butt;stroke-linejoin:miter;stroke-opacity:1" d="M 569.703,4 589.906,4 z" id="boundary" inkscape:connector-curvature="0" />
	<path style="fill:none;stroke:red;stroke-width:1px;stroke-linecap:butt;stroke-linejoin:miter;stroke-opacity:1" d="M 577.784,395.951 597.988,385.849 z" id="boundary" inkscape:connector-curvature="0" />
	<path style="fill:none;stroke:red;stroke-width:1px;stroke-linecap:butt;stroke-linejoin:miter;stroke-opacity:1" d="M 581.825,852.554 600.008,862.656 z" id="boundary" inkscape:connector-curvature="0" />
	<path style="fill:none;stroke:red;stroke-width:1px;stroke-linecap:butt;stroke-linejoin:miter;stroke-opacity:1" d="M 585.866,975.796 604.049,965.695 z" id="boundary" inkscape:connector-curvature="0" />
	<path style="fill:none;stroke:red;stroke-width:1px;stroke-linecap:butt;stroke-linejoin:miter;stroke-opacity:1" d="M 589.906,4 610.11,4 z" id="boundary" inkscape:connector-curvature="0" />
	<path style="fill:none;stroke:red;stroke-width:1px;stroke-linecap:butt;stroke-linejoin:miter;stroke-opacity:1" d="M 597.988,385.849 618.191,375.747 z" id="boundary" inkscape:connector-curvature="0" />
	<path style="fill:none;stroke:red;stroke-width:1px;stroke-linecap:butt;stroke-linejoin:miter;stroke-opacity:1" d="M 600.008,862.656 620.212,862.656 z" id="boundary" inkscape:connector-curvature="0" />
	<path style="fill:none;stroke:red;stroke-width:1px;stroke-linecap:butt;stroke-linejoin:miter;stroke-opacity:1" d="M 604.049,965.695 624.253,965.695 z" id="boundary" inkscape:connector-curvature="0" />
	<path style="fill:none;stroke:red;stroke-width:1px;stroke-linecap:butt;stroke-linejoin:miter;stroke-opacity:1" d="M 610.11,4 630.314,4 z" id="boundary" inkscape:connector-curvature="0" />
	<path style="fill:none;stroke:red;stroke-width:1px;stroke-linecap:butt;stroke-linejoin:miter;stroke-opacity:1" d="M 618.191,375.747 638.395,365.646 z" id="boundary" inkscape:connector-curvature="0" />
	<path style="fill:none;stroke:red;stroke-width:1px;stroke-linecap:butt;stroke-linejoin:miter;stroke-opacity:1" d="M 620.212,862.656 640.415,862.656 z" id="boundary" inkscape:connector-curvature="0" />
	<path style="fill:none;stroke:red;stroke-width:1px;stroke-linecap:butt;stroke-linejoin:miter;stroke-opacity:1" d="M 624.253,965.695 644.456,965.695 z" id="boundary" inkscape:connector-curvature="0" />
	<path style="fill:none;stroke:red;stroke-width:1px;stroke-linecap:butt;stroke-linejoin:miter;stroke-opacity:1" d="M 630.314,4 650.517,4 z" id="boundary" inkscape:connector-curvature="0" />
	<path style="fill:none;stroke:red;stroke-width:1px;stroke-linecap:butt;stroke-linejoin:miter;stroke-opacity:1" d="M 638.395,365.646 658.599,355.544 z" id="boundary" inkscape:connector-curvature="0" />
	<path style="fill:none;stroke:red;stroke-width:1px;stroke-linecap:butt;stroke-linejoin:miter;stroke-opacity:1" d="M 640.415,862.656 660.619,862.656 z" id="boundary" inkscape:connector-curvature="0" />
	<path style="fill:none;stroke:red;stroke-width:1px;stroke-linecap:butt;stroke-linejoin:miter;stroke-opacity:1" d="M 644.456,965.695 662.64,955.593 z" id="boundary" inkscape:connector-curvature="0" />
	<path style="fill:none;stroke:red;stroke-width:1px;stroke-linecap:butt;stroke-linejoin:miter;stroke-opacity:1" d="M 650.517,4 670.721,4 z" id="boundary" inkscape:connector-curvature="0" />
	<path style="fill:none;stroke:red;stroke-width:1px;stroke-linecap:butt;stroke-linejoin:miter;stroke-opacity:1" d="M 658.599,355.544 672.741,339.381 z" id="boundary" inkscape:connector-curvature="0" />
	<path style="fill:none;stroke:red;stroke-width:1px;stroke-linecap:butt;stroke-linejoin:miter;stroke-opacity:1" d="M 660.619,862.656 680.823,862.656 z" id="boundary" inkscape:connector-curvature="0" />
	<path style="fill:none;stroke:red;stroke-width:1px;stroke-linecap:butt;stroke-linejoin:miter;stroke-opacity:1" d="M 662.64,955.593 680.823,945.491 z" id="boundary" inkscape:connector-curvature="0" />
	<path style="fill:none;stroke:red;stroke-width:1px;stroke-linecap:butt;stroke-linejoin:miter;stroke-opacity:1" d="M 670.721,4 690.925,4 z" id="boundary" inkscape:connector-curvature="0" />
	<path style="fill:none;stroke:red;stroke-width:1px;stroke-linecap:butt;stroke-linejoin:miter;stroke-opacity:1" d="M 672.741,339.381 692.945,329.279 z" id="boundary" inkscape:connector-curvature="0" />
	<path style="fill:none;stroke:red;stroke-width:1px;stroke-linecap:butt;stroke-linejoin:miter;stroke-opacity:1" d="M 680.823,862.656 699.006,872.758 z" id="boundary" inkscape:connector-curvature="0" />
	<path style="fill:none;stroke:red;stroke-width:1px;stroke-linecap:butt;stroke-linejoin:miter;stroke-opacity:1" d="M 680.823,945.491 701.026,945.491 z" id="boundary" inkscape:connector-curvature="0" />
	<path style="fill:none;stroke:red;stroke-width:1px;stroke-linecap:butt;stroke-linejoin:miter;stroke-opacity:1" d="M 690.925,4 711.128,4 z" id="boundary" inkscape:connector-curvature="0" />
	<path style="fill:none;stroke:red;stroke-width:1px;stroke-linecap:butt;stroke-linejoin:miter;stroke-opacity:1" d="M 692.945,329.279 713.149,329.279 z" id="boundary" inkscape:connector-curvature="0" />
	<path style="fill:none;stroke:red;stroke-width:1px;stroke-linecap:butt;stroke-linejoin:miter;stroke-opacity:1" d="M 699.006,872.758 719.21,872.758 z" id="boundary" inkscape:connector-curvature="0" />
	<path style="fill:none;stroke:red;stroke-width:1px;stroke-linecap:butt;stroke-linejoin:miter;stroke-opacity:1" d="M 701.026,945.491 721.23,939.43 z" id="boundary" inkscape:connector-curvature="0" />
	<path style="fill:none;stroke:red;stroke-width:1px;stroke-linecap:butt;stroke-linejoin:miter;stroke-opacity:1" d="M 711.128,4 731.332,4 z" id="boundary" inkscape:connector-curvature="0" />
	<path style="fill:none;stroke:red;stroke-width:1px;stroke-linecap:butt;stroke-linejoin:miter;stroke-opacity:1" d="M 713.149,329.279 731.332,319.177 z" id="boundary" inkscape:connector-curvature="0" />
	<path style="fill:none;stroke:red;stroke-width:1px;stroke-linecap:butt;stroke-linejoin:miter;stroke-opacity:1" d="M 719.21,872.758 739.413,872.758 z" id="boundary" inkscape:connector-curvature="0" />
	<path style="fill:none;stroke:red;stroke-width:1px;stroke-linecap:butt;stroke-linejoin:miter;stroke-opacity:1" d="M 721.23,939.43 741.434,935.389 z" id="boundary" inkscape:connector-curvature="0" />
	<path style="fill:none;stroke:red;stroke-width:1px;stroke-linecap:butt;stroke-linejoin:miter;stroke-opacity:1" d="M 731.332,4 751.536,4 z" id="boundary" inkscape:connector-curvature="0" />
	<path style="fill:none;stroke:red;stroke-width:1px;stroke-linecap:butt;stroke-linejoin:miter;stroke-opacity:1" d="M 731.332,319.177 747.495,307.055 z" id="boundary" inkscape:connector-curvature="0" />
	<path style="fill:none;stroke:red;stroke-width:1px;stroke-linecap:butt;stroke-linejoin:miter;stroke-opacity:1" d="M 739.413,872.758 759.617,874.778 z" id="boundary" inkscape:connector-curvature="0" />
	<path style="fill:none;stroke:red;stroke-width:1px;stroke-linecap:butt;stroke-linejoin:miter;stroke-opacity:1" d="M 741.434,935.389 759.617,925.287 z" id="boundary" inkscape:connector-curvature="0" />
	<path style="fill:none;stroke:red;stroke-width:1px;stroke-linecap:butt;stroke-linejoin:miter;stroke-opacity:1" d="M 747.495,307.055 763.658,288.872 z" id="boundary" inkscape:connector-curvature="0" />
	<path style="fill:none;stroke:red;stroke-width:1px;stroke-linecap:butt;stroke-linejoin:miter;stroke-opacity:1" d="M 751.536,4 771.739,4 z" id="boundary" inkscape:connector-curvature="0" />
	<path style="fill:none;stroke:red;stroke-width:1px;stroke-linecap:butt;stroke-linejoin:miter;stroke-opacity:1" d="M 759.617,874.778 779.821,882.859 z" id="boundary" inkscape:connector-curvature="0" />
	<path style="fill:none;stroke:red;stroke-width:1px;stroke-linecap:butt;stroke-linejoin:miter;stroke-opacity:1" d="M 759.617,925.287 779.821,925.287 z" id="boundary" inkscape:connector-curvature="0" />
	<path style="fill:none;stroke:red;stroke-width:1px;stroke-linecap:butt;stroke-linejoin:miter;stroke-opacity:1" d="M 763.658,288.872 779.821,274.729 z" id="boundary" inkscape:connector-curvature="0" />
	<path style="fill:none;stroke:red;stroke-width:1px;stroke-linecap:butt;stroke-linejoin:miter;stroke-opacity:1" d="M 771.739,4 791.943,4 z" id="boundary" inkscape:connector-curvature="0" />
	<path style="fill:none;stroke:red;stroke-width:1px;stroke-linecap:butt;stroke-linejoin:miter;stroke-opacity:1" d="M 779.821,274.729 793.963,248.464 z" id="boundary" inkscape:connector-curvature="0" />
	<path style="fill:none;stroke:red;stroke-width:1px;stroke-linecap:butt;stroke-linejoin:miter;stroke-opacity:1" d="M 779.821,882.859 800.024,882.859 z" id="boundary" inkscape:connector-curvature="0" />
	<path style="fill:none;stroke:red;stroke-width:1px;stroke-linecap:butt;stroke-linejoin:miter;stroke-opacity:1" d="M 779.821,925.287 800.024,921.246 z" id="boundary" inkscape:connector-curvature="0" />
	<path style="fill:none;stroke:red;stroke-width:1px;stroke-linecap:butt;stroke-linejoin:miter;stroke-opacity:1" d="M 791.943,4 812.147,4 z" id="boundary" inkscape:connector-curvature="0" />
	<path style="fill:none;stroke:red;stroke-width:1px;stroke-linecap:butt;stroke-linejoin:miter;stroke-opacity:1" d="M 793.963,248.464 810.126,234.322 z" id="boundary" inkscape:connector-curvature="0" />
	<path style="fill:none;stroke:red;stroke-width:1px;stroke-linecap:butt;stroke-linejoin:miter;stroke-opacity:1" d="M 800.024,882.859 818.208,892.961 z" id="boundary" inkscape:connector-curvature="0" />
	<path style="fill:none;stroke:red;stroke-width:1px;stroke-linecap:butt;stroke-linejoin:miter;stroke-opacity:1" d="M 800.024,921.246 820.228,915.185 z" id="boundary" inkscape:connector-curvature="0" />
	<path style="fill:none;stroke:red;stroke-width:1px;stroke-linecap:butt;stroke-linejoin:miter;stroke-opacity:1" d="M 810.126,234.322 824.269,218.159 z" id="boundary" inkscape:connector-curvature="0" />
	<path style="fill:none;stroke:red;stroke-width:1px;stroke-linecap:butt;stroke-linejoin:miter;stroke-opacity:1" d="M 812.147,4 832.35,8.04073 z" id="boundary" inkscape:connector-curvature="0" />
	<path style="fill:none;stroke:red;stroke-width:1px;stroke-linecap:butt;stroke-linejoin:miter;stroke-opacity:1" d="M 818.208,892.961 838.411,892.961 z" id="boundary" inkscape:connector-curvature="0" />
	<path style="fill:none;stroke:red;stroke-width:1px;stroke-linecap:butt;stroke-linejoin:miter;stroke-opacity:1" d="M 820.228,915.185 840.432,913.165 z" id="boundary" inkscape:connector-curvature="0" />
	<path style="fill:none;stroke:red;stroke-width:1px;stroke-linecap:butt;stroke-linejoin:miter;stroke-opacity:1" d="M 824.269,197.955 824.269,218.159 z" id="boundary" inkscape:connector-curvature="0" />
	<path style="fill:none;stroke:red;stroke-width:1px;stroke-linecap:butt;stroke-linejoin:miter;stroke-opacity:1" d="M 824.269,197.955 834.371,169.67 z" id="boundary" inkscape:connector-curvature="0" />
	<path style="fill:none;stroke:red;stroke-width:1px;stroke-linecap:butt;stroke-linejoin:miter;stroke-opacity:1" d="M 832.35,8.04073 834.371,28.2444 z" id="boundary" inkscape:connector-curvature="0" />
	<path style="fill:none;stroke:red;stroke-width:1px;stroke-linecap:butt;stroke-linejoin:miter;stroke-opacity:1" d="M 834.371,28.2444 834.371,48.4481 z" id="boundary" inkscape:connector-curvature="0" />
	<path style="fill:none;stroke:red;stroke-width:1px;stroke-linecap:butt;stroke-linejoin:miter;stroke-opacity:1" d="M 834.371,48.4481 834.371,68.6517 z" id="boundary" inkscape:connector-curvature="0" />
	<path style="fill:none;stroke:red;stroke-width:1px;stroke-linecap:butt;stroke-linejoin:miter;stroke-opacity:1" d="M 834.371,68.6517 834.371,88.8554 z" id="boundary" inkscape:connector-curvature="0" />
	<path style="fill:none;stroke:red;stroke-width:1px;stroke-linecap:butt;stroke-linejoin:miter;stroke-opacity:1" d="M 834.371,88.8554 834.371,109.059 z" id="boundary" inkscape:connector-curvature="0" />
	<path style="fill:none;stroke:red;stroke-width:1px;stroke-linecap:butt;stroke-linejoin:miter;stroke-opacity:1" d="M 834.371,109.059 834.371,129.263 z" id="boundary" inkscape:connector-curvature="0" />
	<path style="fill:none;stroke:red;stroke-width:1px;stroke-linecap:butt;stroke-linejoin:miter;stroke-opacity:1" d="M 834.371,129.263 834.371,149.466 z" id="boundary" inkscape:connector-curvature="0" />
	<path style="fill:none;stroke:red;stroke-width:1px;stroke-linecap:butt;stroke-linejoin:miter;stroke-opacity:1" d="M 834.371,149.466 834.371,169.67 z" id="boundary" inkscape:connector-curvature="0" />
	<path style="fill:none;stroke:red;stroke-width:1px;stroke-linecap:butt;stroke-linejoin:miter;stroke-opacity:1" d="M 838.411,892.961 840.432,913.165 z" id="boundary" inkscape:connector-curvature="0" />
	<circle cx="4" cy="10.0611" r="4" fill="#0" id="circle0"/>
	<circle cx="4" cy="30.2648" r="4" fill="#0" id="circle1"/>
	<circle cx="4" cy="50.4684" r="4" fill="#0" id="circle2"/>
	<circle cx="4" cy="70.6721" r="4" fill="#0" id="circle3"/>
	<circle cx="4" cy="90.8758" r="4" fill="#0" id="circle4"/>
	<circle cx="4" cy="111.079" r="4" fill="#0" id="circle5"/>
	<circle cx="4" cy="131.283" r="4" fill="#0" id="circle6"/>
	<circle cx="4" cy="151.487" r="4" fill="#0" id="circle7"/>
	<circle cx="14.1018" cy="169.67" r="4" fill="#0" id="circle8"/>
	<circle cx="14.1018" cy="189.874" r="4" fill="#0" id="circle9"/>
	<circle cx="14.1018" cy="210.077" r="4" fill="#0" id="circle10"/>
	<circle cx="14.1018" cy="230.281" r="4" fill="#0" id="circle11"/>
	<circle cx="24.2037" cy="4" r="4" fill="#0" id="circle12"/>
	<circle cx="28.2444" cy="246.444" r="4" fill="#0" id="circle13"/>
	<circle cx="44.4073" cy="4" r="4" fill="#0" id="circle14"/>
	<circle cx="44.4073" cy="258.566" r="4" fill="#0" id="circle15"/>
	<circle cx="44.4073" cy="888.921" r="4" fill="#0" id="circle16"/>
	<circle cx="56.5295" cy="274.729" r="4" fill="#0" id="circle17"/>
	<circle cx="56.5295" cy="905.084" r="4" fill="#0" id="circle18"/>
	<circle cx="64.611" cy="4" r="4" fill="#0" id="circle19"/>
	<circle cx="64.611" cy="882.859" r="4" fill="#0" id="circle20"/>
	<circle cx="72.6925" cy="288.872" r="4" fill="#0" id="circle21"/>
	<circle cx="74.7128" cy="915.185" r="4" fill="#0" id="circle22"/>
	<circle cx="84.8147" cy="4" r="4" fill="#0" id="circle23"/>
	<circle cx="84.8147" cy="882.859" r="4" fill="#0" id="circle24"/>
	<circle cx="90.8758" cy="298.974" r="4" fill="#0" id="circle25"/>
	<circle cx="94.9165" cy="915.185" r="4" fill="#0" id="circle26"/>
	<circle cx="105.018" cy="4" r="4" fill="#0" id="circle27"/>
	<circle cx="105.018" cy="882.859" r="4" fill="#0" id="circle28"/>
	<circle cx="107.039" cy="313.116" r="4" fill="#0" id="circle29"/>
	<circle cx="115.12" cy="915.185" r="4" fill="#0" id="circle30"/>
	<circle cx="121.181" cy="329.279" r="4" fill="#0" id="circle31"/>
	<circle cx="125.222" cy="4" r="4" fill="#0" id="circle32"/>
	<circle cx="125.222" cy="882.859" r="4" fill="#0" id="circle33"/>
	<circle cx="133.303" cy="925.287" r="4" fill="#0" id="circle34"/>
	<circle cx="141.385" cy="337.36" r="4" fill="#0" id="circle35"/>
	<circle cx="145.426" cy="4" r="4" fill="#0" id="circle36"/>
	<circle cx="145.426" cy="878.819" r="4" fill="#0" id="circle37"/>
	<circle cx="153.507" cy="925.287" r="4" fill="#0" id="circle38"/>
	<circle cx="159.568" cy="347.462" r="4" fill="#0" id="circle39"/>
	<circle cx="165.629" cy="4" r="4" fill="#0" id="circle40"/>
	<circle cx="165.629" cy="872.758" r="4" fill="#0" id="circle41"/>
	<circle cx="171.69" cy="935.389" r="4" fill="#0" id="circle42"/>
	<circle cx="179.772" cy="349.483" r="4" fill="#0" id="circle43"/>
	<circle cx="185.833" cy="4" r="4" fill="#0" id="circle44"/>
	<circle cx="185.833" cy="872.758" r="4" fill="#0" id="circle45"/>
	<circle cx="191.894" cy="935.389" r="4" fill="#0" id="circle46"/>
	<circle cx="197.955" cy="359.585" r="4" fill="#0" id="circle47"/>
	<circle cx="206.037" cy="4" r="4" fill="#0" id="circle48"/>
	<circle cx="206.037" cy="872.758" r="4" fill="#0" id="circle49"/>
	<circle cx="212.098" cy="935.389" r="4" fill="#0" id="circle50"/>
	<circle cx="216.138" cy="369.686" r="4" fill="#0" id="circle51"/>
	<circle cx="226.24" cy="4" r="4" fill="#0" id="circle52"/>
	<circle cx="226.24" cy="872.758" r="4" fill="#0" id="circle53"/>
	<circle cx="230.281" cy="945.491" r="4" fill="#0" id="circle54"/>
	<circle cx="236.342" cy="369.686" r="4" fill="#0" id="circle55"/>
	<circle cx="246.444" cy="4" r="4" fill="#0" id="circle56"/>
	<circle cx="246.444" cy="868.717" r="4" fill="#0" id="circle57"/>
	<circle cx="250.485" cy="951.552" r="4" fill="#0" id="circle58"/>
	<circle cx="256.546" cy="369.686" r="4" fill="#0" id="circle59"/>
	<circle cx="266.648" cy="4" r="4" fill="#0" id="circle60"/>
	<circle cx="266.648" cy="862.656" r="4" fill="#0" id="circle61"/>
	<circle cx="270.688" cy="955.593" r="4" fill="#0" id="circle62"/>
	<circle cx="274.729" cy="379.788" r="4" fill="#0" id="circle63"/>
	<circle cx="286.851" cy="4" r="4" fill="#0" id="circle64"/>
	<circle cx="286.851" cy="862.656" r="4" fill="#0" id="circle65"/>
	<circle cx="290.892" cy="955.593" r="4" fill="#0" id="circle66"/>
	<circle cx="292.912" cy="389.89" r="4" fill="#0" id="circle67"/>
	<circle cx="307.055" cy="4" r="4" fill="#0" id="circle68"/>
	<circle cx="307.055" cy="862.656" r="4" fill="#0" id="circle69"/>
	<circle cx="309.075" cy="965.695" r="4" fill="#0" id="circle70"/>
	<circle cx="313.116" cy="397.971" r="4" fill="#0" id="circle71"/>
	<circle cx="327.259" cy="4" r="4" fill="#0" id="circle72"/>
	<circle cx="327.259" cy="862.656" r="4" fill="#0" id="circle73"/>
	<circle cx="329.279" cy="965.695" r="4" fill="#0" id="circle74"/>
	<circle cx="333.32" cy="399.992" r="4" fill="#0" id="circle75"/>
	<circle cx="347.462" cy="4" r="4" fill="#0" id="circle76"/>
	<circle cx="347.462" cy="858.615" r="4" fill="#0" id="circle77"/>
	<circle cx="347.462" cy="975.796" r="4" fill="#0" id="circle78"/>
	<circle cx="353.523" cy="399.992" r="4" fill="#0" id="circle79"/>
	<circle cx="367.666" cy="4" r="4" fill="#0" id="circle80"/>
	<circle cx="367.666" cy="852.554" r="4" fill="#0" id="circle81"/>
	<circle cx="367.666" cy="975.796" r="4" fill="#0" id="circle82"/>
	<circle cx="371.707" cy="410.094" r="4" fill="#0" id="circle83"/>
	<circle cx="377.768" cy="430.297" r="4" fill="#0" id="circle84"/>
	<circle cx="377.768" cy="450.501" r="4" fill="#0" id="circle85"/>
	<circle cx="377.768" cy="470.705" r="4" fill="#0" id="circle86"/>
	<circle cx="383.829" cy="490.908" r="4" fill="#0" id="circle87"/>
	<circle cx="387.87" cy="4" r="4" fill="#0" id="circle88"/>
	<circle cx="387.87" cy="511.112" r="4" fill="#0" id="circle89"/>
	<circle cx="387.87" cy="531.316" r="4" fill="#0" id="circle90"/>
	<circle cx="387.87" cy="551.519" r="4" fill="#0" id="circle91"/>
	<circle cx="387.87" cy="571.723" r="4" fill="#0" id="circle92"/>
	<circle cx="387.87" cy="591.927" r="4" fill="#0" id="circle93"/>
	<circle cx="387.87" cy="612.13" r="4" fill="#0" id="circle94"/>
	<circle cx="387.87" cy="632.334" r="4" fill="#0" id="circle95"/>
	<circle cx="387.87" cy="652.538" r="4" fill="#0" id="circle96"/>
	<circle cx="387.87" cy="852.554" r="4" fill="#0" id="circle97"/>
	<circle cx="387.87" cy="975.796" r="4" fill="#0" id="circle98"/>
	<circle cx="393.931" cy="672.741" r="4" fill="#0" id="circle99"/>
	<circle cx="397.971" cy="692.945" r="4" fill="#0" id="circle100"/>
	<circle cx="397.971" cy="713.149" r="4" fill="#0" id="circle101"/>
	<circle cx="397.971" cy="733.352" r="4" fill="#0" id="circle102"/>
	<circle cx="397.971" cy="753.556" r="4" fill="#0" id="circle103"/>
	<circle cx="397.971" cy="773.76" r="4" fill="#0" id="circle104"/>
	<circle cx="397.971" cy="793.963" r="4" fill="#0" id="circle105"/>
	<circle cx="397.971" cy="814.167" r="4" fill="#0" id="circle106"/>
	<circle cx="397.971" cy="834.371" r="4" fill="#0" id="circle107"/>
	<circle cx="406.053" cy="985.898" r="4" fill="#0" id="circle108"/>
	<circle cx="408.073" cy="4" r="4" fill="#0" id="circle109"/>
	<circle cx="424.236" cy="996" r="4" fill="#0" id="circle110"/>
	<circle cx="428.277" cy="4" r="4" fill="#0" id="circle111"/>
	<circle cx="444.44" cy="996" r="4" fill="#0" id="circle112"/>
	<circle cx="448.481" cy="4" r="4" fill="#0" id="circle113"/>
	<circle cx="464.644" cy="996" r="4" fill="#0" id="circle114"/>
	<circle cx="468.684" cy="4" r="4" fill="#0" id="circle115"/>
	<circle cx="484.847" cy="996" r="4" fill="#0" id="circle116"/>
	<circle cx="488.888" cy="4" r="4" fill="#0" id="circle117"/>
	<circle cx="505.051" cy="996" r="4" fill="#0" id="circle118"/>
	<circle cx="509.092" cy="4" r="4" fill="#0" id="circle119"/>
	<circle cx="525.255" cy="993.98" r="4" fill="#0" id="circle120"/>
	<circle cx="529.295" cy="4" r="4" fill="#0" id="circle121"/>
	<circle cx="545.458" cy="983.878" r="4" fill="#0" id="circle122"/>
	<circle cx="549.499" cy="4" r="4" fill="#0" id="circle123"/>
	<circle cx="551.519" cy="591.927" r="4" fill="#0" id="circle124"/>
	<circle cx="551.519" cy="612.13" r="4" fill="#0" id="circle125"/>
	<circle cx="551.519" cy="632.334" r="4" fill="#0" id="circle126"/>
	<circle cx="551.519" cy="652.538" r="4" fill="#0" id="circle127"/>
	<circle cx="551.519" cy="672.741" r="4" fill="#0" id="circle128"/>
	<circle cx="551.519" cy="692.945" r="4" fill="#0" id="circle129"/>
	<circle cx="551.519" cy="713.149" r="4" fill="#0" id="circle130"/>
	<circle cx="551.519" cy="733.352" r="4" fill="#0" id="circle131"/>
	<circle cx="551.519" cy="753.556" r="4" fill="#0" id="circle132"/>
	<circle cx="551.519" cy="773.76" r="4" fill="#0" id="circle133"/>
	<circle cx="551.519" cy="793.963" r="4" fill="#0" id="circle134"/>
	<circle cx="551.519" cy="814.167" r="4" fill="#0" id="circle135"/>
	<circle cx="551.519" cy="834.371" r="4" fill="#0" id="circle136"/>
	<circle cx="561.621" cy="410.094" r="4" fill="#0" id="circle137"/>
	<circle cx="561.621" cy="430.297" r="4" fill="#0" id="circle138"/>
	<circle cx="561.621" cy="450.501" r="4" fill="#0" id="circle139"/>
	<circle cx="561.621" cy="470.705" r="4" fill="#0" id="circle140"/>
	<circle cx="561.621" cy="490.908" r="4" fill="#0" id="circle141"/>
	<circle cx="561.621" cy="511.112" r="4" fill="#0" id="circle142"/>
	<circle cx="561.621" cy="531.316" r="4" fill="#0" id="circle143"/>
	<circle cx="561.621" cy="551.519" r="4" fill="#0" id="circle144"/>
	<circle cx="561.621" cy="571.723" r="4" fill="#0" id="circle145"/>
	<circle cx="561.621" cy="852.554" r="4" fill="#0" id="circle146"/>
	<circle cx="565.662" cy="975.796" r="4" fill="#0" id="circle147"/>
	<circle cx="569.703" cy="4" r="4" fill="#0" id="circle148"/>
	<circle cx="577.784" cy="395.951" r="4" fill="#0" id="circle149"/>
	<circle cx="581.825" cy="852.554" r="4" fill="#0" id="circle150"/>
	<circle cx="585.866" cy="975.796" r="4" fill="#0" id="circle151"/>
	<circle cx="589.906" cy="4" r="4" fill="#0" id="circle152"/>
	<circle cx="597.988" cy="385.849" r="4" fill="#0" id="circle153"/>
	<circle cx="600.008" cy="862.656" r="4" fill="#0" id="circle154"/>
	<circle cx="604.049" cy="965.695" r="4" fill="#0" id="circle155"/>
	<circle cx="610.11" cy="4" r="4" fill="#0" id="circle156"/>
	<circle cx="618.191" cy="375.747" r="4" fill="#0" id="circle157"/>
	<circle cx="620.212" cy="862.656" r="4" fill="#0" id="circle158"/>
	<circle cx="624.253" cy="965.695" r="4" fill="#0" id="circle159"/>
	<circle cx="630.314" cy="4" r="4" fill="#0" id="circle160"/>
	<circle cx="638.395" cy="365.646" r="4" fill="#0" id="circle161"/>
	<circle cx="640.415" cy="862.656" r="4" fill="#0" id="circle162"/>
	<circle cx="644.456" cy="965.695" r="4" fill="#0" id="circle163"/>
	<circle cx="650.517" cy="4" r="4" fill="#0" id="circle164"/>
	<circle cx="658.599" cy="355.544" r="4" fill="#0" id="circle165"/>
	<circle cx="660.619" cy="862.656" r="4" fill="#0" id="circle166"/>
	<circle cx="662.64" cy="955.593" r="4" fill="#0" id="circle167"/>
	<circle cx="670.721" cy="4" r="4" fill="#0" id="circle168"/>
	<circle cx="672.741" cy="339.381" r="4" fill="#0" id="circle169"/>
	<circle cx="680.823" cy="862.656" r="4" fill="#0" id="circle170"/>
	<circle cx="680.823" cy="945.491" r="4" fill="#0" id="circle171"/>
	<circle cx="690.925" cy="4" r="4" fill="#0" id="circle172"/>
	<circle cx="692.945" cy="329.279" r="4" fill="#0" id="circle173"/>
	<circle cx="699.006" cy="872.758" r="4" fill="#0" id="circle174"/>
	<circle cx="701.026" cy="945.491" r="4" fill="#0" id="circle175"/>
	<circle cx="711.128" cy="4" r="4" fill="#0" id="circle176"/>
	<circle cx="713.149" cy="329.279" r="4" fill="#0" id="circle177"/>
	<circle cx="719.21" cy="872.758" r="4" fill="#0" id="circle178"/>
	<circle cx="721.23" cy="939.43" r="4" fill="#0" id="circle179"/>
	<circle cx="731.332" cy="4" r="4" fill="#0" id="circle180"/>
	<circle cx="731.332" cy="319.177" r="4" fill="#0" id="circle181"/>
	<circle cx="739.413" cy="872.758" r="4" fill="#0" id="circle182"/>
	<circle cx="741.434" cy="935.389" r="4" fill="#0" id="circle183"/>
	<circle cx="747.495" cy="307.055" r="4" fill="#0" id="circle184"/>
	<circle cx="751.536" cy="4" r="4" fill="#0" id="circle185"/>
	<circle cx="759.617" cy="874.778" r="4" fill="#0" id="circle186"/>
	<circle cx="759.617" cy="925.287" r="4" fill="#0" id="circle187"/>
	<circle cx="763.658" cy="288.872" r="4" fill="#0" id="circle188"/>
	<circle cx="771.739" cy="4" r="4" fill="#0" id="circle189"/>
	<circle cx="779.821" cy="274.729" r="4" fill="#0" id="circle190"/>
	<circle cx="779.821" cy="882.859" r="4" fill="#0" id="circle191"/>
	<circle cx="779.821" cy="925.287" r="4" fill="#0" id="circle192"/>
	<circle cx="791.943" cy="4" r="4" fill="#0" id="circle193"/>
	<circle cx="793.963" cy="248.464" r="4" fill="#0" id="circle194"/>
	<circle cx="800.024" cy="882.859" r="4" fill="#0" id="circle195"/>
	<circle cx="800.024" cy="921.246" r="4" fill="#0" id="circle196"/>
	<circle cx="810.126" cy="234.322" r="4" fill="#0" id="circle197"/>
	<circle cx="812.147" cy="4" r="4" fill="#0" id="circle198"/>
	<circle cx="818.208" cy="892.961" r="4" fill="#0" id="circle199"/>
	<circle cx="820.228" cy="915.185" r="4" fill="#0" id="circle200"/>
	<circle cx="824.269" cy="197.955" r="4" fill="#0" id="circle201"/>
	<circle cx="824.269" cy="218.159" r="4" fill="#0" id="circle202"/>
	<circle cx="832.35" cy="8.04073" r="4" fill="#0" id="circle203"/>
	<circle cx="834.371" cy="28.2444" r="4" fill="#0" id="circle204"/>
	<circle cx="834.371" cy="48.4481" r="4" fill="#0" id="circle205"/>
	<circle cx="834.371" cy="68.6517" r="4" fill="#0" id="circle206"/>
	<circle cx="834.371" cy="88.8554" r="4" fill="#0" id="circle207"/>
	<circle cx="834.371" cy="109.059" r="4" fill="#0" id="circle208"/>
	<circle cx="834.371" cy="129.263" r="4" fill="#0" id="circle209"/>
	<circle cx="834.371" cy="149.466" r="4" fill="#0" id="circle210"/>
	<circle cx="834.371" cy="169.67" r="4" fill="#0" id="circle211"/>
	<circle cx="838.411" cy="892.961" r="4" fill="#0" id="circle212"/>
	<circle cx="840.432" cy="913.165" r="4" fill="#0" id="circle213"/>
	</g>
</svg>