<?xml version="1.0" encoding="UTF-8" standalone="no"?>
<!-- Created with CurveBenchmark -->
<svg
	xmlns:dc="http://purl.org/dc/elements/1.1/"
	xmlns:cc="http://creativecommons.org/ns#"
	xmlns:rdf="http://www.w3.org/1999/02/22-rdf-syntax-ns#"
	xmlns:svg="http://www.w3.org/2000/svg"
	xmlns="http://www.w3.org/2000/svg"
	xmlns:sodipodi="http://sodipodi.sourceforge.net/DTD/sodipodi-0.dtd"
	xmlns:inkscape="http://www.inkscape.org/namespaces/inkscape"
	width="1000"
	height="1000"
	id="svg2"
	version="1.1"
	sodipodi:docname="manifold/vicur-ray09.png.txt">
<defs
	id="defs4" />
<metadata
	id="metadata7">
	<rdf:RDF>
		<cc:Work
			rdf:about="">
			<dc:format>image/svg+xml</dc:format>
			<dc:type
				rdf:resource="http://purl.org/dc/dcmitype/StillImage" />
			<dc:title></dc:title>
		</cc:Work>
	</rdf:RDF>
</metadata>
<g
	inkscape:label="Layer 1"
	inkscape:groupmode="layer"
	id="layer1">
	<path style="fill:none;stroke:red;stroke-width:1px;stroke-linecap:butt;stroke-linejoin:miter;stroke-opacity:1" d="M 4,927.311 11.9871,911.337 z" id="boundary" inkscape:connector-curvature="0" />
	<path style="fill:none;stroke:red;stroke-width:1px;stroke-linecap:butt;stroke-linejoin:miter;stroke-opacity:1" d="M 4,927.311 16.7794,938.493 z" id="boundary" inkscape:connector-curvature="0" />
	<path style="fill:none;stroke:red;stroke-width:1px;stroke-linecap:butt;stroke-linejoin:miter;stroke-opacity:1" d="M 11.9871,408.148 11.9871,424.122 z" id="boundary" inkscape:connector-curvature="0" />
	<path style="fill:none;stroke:red;stroke-width:1px;stroke-linecap:butt;stroke-linejoin:miter;stroke-opacity:1" d="M 11.9871,408.148 19.9742,392.174 z" id="boundary" inkscape:connector-curvature="0" />
	<path style="fill:none;stroke:red;stroke-width:1px;stroke-linecap:butt;stroke-linejoin:miter;stroke-opacity:1" d="M 11.9871,424.122 19.9742,438.499 z" id="boundary" inkscape:connector-curvature="0" />
	<path style="fill:none;stroke:red;stroke-width:1px;stroke-linecap:butt;stroke-linejoin:miter;stroke-opacity:1" d="M 11.9871,911.337 27.9614,906.544 z" id="boundary" inkscape:connector-curvature="0" />
	<path style="fill:none;stroke:red;stroke-width:1px;stroke-linecap:butt;stroke-linejoin:miter;stroke-opacity:1" d="M 16.7794,938.493 32.7536,940.09 z" id="boundary" inkscape:connector-curvature="0" />
	<path style="fill:none;stroke:red;stroke-width:1px;stroke-linecap:butt;stroke-linejoin:miter;stroke-opacity:1" d="M 19.9742,392.174 35.9485,384.187 z" id="boundary" inkscape:connector-curvature="0" />
	<path style="fill:none;stroke:red;stroke-width:1px;stroke-linecap:butt;stroke-linejoin:miter;stroke-opacity:1" d="M 19.9742,438.499 31.1562,451.279 z" id="boundary" inkscape:connector-curvature="0" />
	<path style="fill:none;stroke:red;stroke-width:1px;stroke-linecap:butt;stroke-linejoin:miter;stroke-opacity:1" d="M 27.9614,906.544 43.9356,906.544 z" id="boundary" inkscape:connector-curvature="0" />
	<path style="fill:none;stroke:red;stroke-width:1px;stroke-linecap:butt;stroke-linejoin:miter;stroke-opacity:1" d="M 31.1562,451.279 43.9356,460.863 z" id="boundary" inkscape:connector-curvature="0" />
	<path style="fill:none;stroke:red;stroke-width:1px;stroke-linecap:butt;stroke-linejoin:miter;stroke-opacity:1" d="M 32.7536,940.09 48.7279,940.09 z" id="boundary" inkscape:connector-curvature="0" />
	<path style="fill:none;stroke:red;stroke-width:1px;stroke-linecap:butt;stroke-linejoin:miter;stroke-opacity:1" d="M 35.9485,384.187 48.7279,371.407 z" id="boundary" inkscape:connector-curvature="0" />
	<path style="fill:none;stroke:red;stroke-width:1px;stroke-linecap:butt;stroke-linejoin:miter;stroke-opacity:1" d="M 43.9356,460.863 53.5201,473.643 z" id="boundary" inkscape:connector-curvature="0" />
	<path style="fill:none;stroke:red;stroke-width:1px;stroke-linecap:butt;stroke-linejoin:miter;stroke-opacity:1" d="M 43.9356,906.544 59.9098,903.349 z" id="boundary" inkscape:connector-curvature="0" />
	<path style="fill:none;stroke:red;stroke-width:1px;stroke-linecap:butt;stroke-linejoin:miter;stroke-opacity:1" d="M 48.7279,371.407 64.7021,363.42 z" id="boundary" inkscape:connector-curvature="0" />
	<path style="fill:none;stroke:red;stroke-width:1px;stroke-linecap:butt;stroke-linejoin:miter;stroke-opacity:1" d="M 48.7279,940.09 64.7021,940.09 z" id="boundary" inkscape:connector-curvature="0" />
	<path style="fill:none;stroke:red;stroke-width:1px;stroke-linecap:butt;stroke-linejoin:miter;stroke-opacity:1" d="M 53.5201,473.643 69.4944,480.032 z" id="boundary" inkscape:connector-curvature="0" />
	<path style="fill:none;stroke:red;stroke-width:1px;stroke-linecap:butt;stroke-linejoin:miter;stroke-opacity:1" d="M 59.9098,903.349 72.6892,890.57 z" id="boundary" inkscape:connector-curvature="0" />
	<path style="fill:none;stroke:red;stroke-width:1px;stroke-linecap:butt;stroke-linejoin:miter;stroke-opacity:1" d="M 64.7021,363.42 77.4815,350.641 z" id="boundary" inkscape:connector-curvature="0" />
	<path style="fill:none;stroke:red;stroke-width:1px;stroke-linecap:butt;stroke-linejoin:miter;stroke-opacity:1" d="M 64.7021,940.09 80.6763,940.09 z" id="boundary" inkscape:connector-curvature="0" />
	<path style="fill:none;stroke:red;stroke-width:1px;stroke-linecap:butt;stroke-linejoin:miter;stroke-opacity:1" d="M 69.4944,480.032 80.6763,492.812 z" id="boundary" inkscape:connector-curvature="0" />
	<path style="fill:none;stroke:red;stroke-width:1px;stroke-linecap:butt;stroke-linejoin:miter;stroke-opacity:1" d="M 72.6892,890.57 88.6634,882.583 z" id="boundary" inkscape:connector-curvature="0" />
	<path style="fill:none;stroke:red;stroke-width:1px;stroke-linecap:butt;stroke-linejoin:miter;stroke-opacity:1" d="M 77.4815,350.641 93.4557,342.654 z" id="boundary" inkscape:connector-curvature="0" />
	<path style="fill:none;stroke:red;stroke-width:1px;stroke-linecap:butt;stroke-linejoin:miter;stroke-opacity:1" d="M 80.6763,492.812 95.0531,500.799 z" id="boundary" inkscape:connector-curvature="0" />
	<path style="fill:none;stroke:red;stroke-width:1px;stroke-linecap:butt;stroke-linejoin:miter;stroke-opacity:1" d="M 80.6763,940.09 96.6506,946.48 z" id="boundary" inkscape:connector-curvature="0" />
	<path style="fill:none;stroke:red;stroke-width:1px;stroke-linecap:butt;stroke-linejoin:miter;stroke-opacity:1" d="M 88.6634,882.583 104.638,882.583 z" id="boundary" inkscape:connector-curvature="0" />
	<path style="fill:none;stroke:red;stroke-width:1px;stroke-linecap:butt;stroke-linejoin:miter;stroke-opacity:1" d="M 93.4557,342.654 106.235,331.472 z" id="boundary" inkscape:connector-curvature="0" />
	<path style="fill:none;stroke:red;stroke-width:1px;stroke-linecap:butt;stroke-linejoin:miter;stroke-opacity:1" d="M 95.0531,500.799 107.833,510.383 z" id="boundary" inkscape:connector-curvature="0" />
	<path style="fill:none;stroke:red;stroke-width:1px;stroke-linecap:butt;stroke-linejoin:miter;stroke-opacity:1" d="M 96.6506,946.48 107.833,959.259 z" id="boundary" inkscape:connector-curvature="0" />
	<path style="fill:none;stroke:red;stroke-width:1px;stroke-linecap:butt;stroke-linejoin:miter;stroke-opacity:1" d="M 104.638,882.583 120.612,882.583 z" id="boundary" inkscape:connector-curvature="0" />
	<path style="fill:none;stroke:red;stroke-width:1px;stroke-linecap:butt;stroke-linejoin:miter;stroke-opacity:1" d="M 106.235,331.472 120.612,323.485 z" id="boundary" inkscape:connector-curvature="0" />
	<path style="fill:none;stroke:red;stroke-width:1px;stroke-linecap:butt;stroke-linejoin:miter;stroke-opacity:1" d="M 107.833,510.383 119.014,523.163 z" id="boundary" inkscape:connector-curvature="0" />
	<path style="fill:none;stroke:red;stroke-width:1px;stroke-linecap:butt;stroke-linejoin:miter;stroke-opacity:1" d="M 107.833,959.259 123.807,964.052 z" id="boundary" inkscape:connector-curvature="0" />
	<path style="fill:none;stroke:red;stroke-width:1px;stroke-linecap:butt;stroke-linejoin:miter;stroke-opacity:1" d="M 119.014,523.163 131.794,532.747 z" id="boundary" inkscape:connector-curvature="0" />
	<path style="fill:none;stroke:red;stroke-width:1px;stroke-linecap:butt;stroke-linejoin:miter;stroke-opacity:1" d="M 120.612,323.485 136.586,315.498 z" id="boundary" inkscape:connector-curvature="0" />
	<path style="fill:none;stroke:red;stroke-width:1px;stroke-linecap:butt;stroke-linejoin:miter;stroke-opacity:1" d="M 120.612,882.583 131.794,895.362 z" id="boundary" inkscape:connector-curvature="0" />
	<path style="fill:none;stroke:red;stroke-width:1px;stroke-linecap:butt;stroke-linejoin:miter;stroke-opacity:1" d="M 123.807,964.052 138.184,972.039 z" id="boundary" inkscape:connector-curvature="0" />
	<path style="fill:none;stroke:red;stroke-width:1px;stroke-linecap:butt;stroke-linejoin:miter;stroke-opacity:1" d="M 131.794,532.747 139.781,547.124 z" id="boundary" inkscape:connector-curvature="0" />
	<path style="fill:none;stroke:red;stroke-width:1px;stroke-linecap:butt;stroke-linejoin:miter;stroke-opacity:1" d="M 131.794,895.362 147.768,901.752 z" id="boundary" inkscape:connector-curvature="0" />
	<path style="fill:none;stroke:red;stroke-width:1px;stroke-linecap:butt;stroke-linejoin:miter;stroke-opacity:1" d="M 136.586,315.498 149.366,302.718 z" id="boundary" inkscape:connector-curvature="0" />
	<path style="fill:none;stroke:red;stroke-width:1px;stroke-linecap:butt;stroke-linejoin:miter;stroke-opacity:1" d="M 138.184,972.039 152.56,980.026 z" id="boundary" inkscape:connector-curvature="0" />
	<path style="fill:none;stroke:red;stroke-width:1px;stroke-linecap:butt;stroke-linejoin:miter;stroke-opacity:1" d="M 139.781,547.124 149.366,559.903 z" id="boundary" inkscape:connector-curvature="0" />
	<path style="fill:none;stroke:red;stroke-width:1px;stroke-linecap:butt;stroke-linejoin:miter;stroke-opacity:1" d="M 147.768,901.752 163.742,906.544 z" id="boundary" inkscape:connector-curvature="0" />
	<path style="fill:none;stroke:red;stroke-width:1px;stroke-linecap:butt;stroke-linejoin:miter;stroke-opacity:1" d="M 149.366,302.718 165.34,294.731 z" id="boundary" inkscape:connector-curvature="0" />
	<path style="fill:none;stroke:red;stroke-width:1px;stroke-linecap:butt;stroke-linejoin:miter;stroke-opacity:1" d="M 149.366,559.903 160.548,572.683 z" id="boundary" inkscape:connector-curvature="0" />
	<path style="fill:none;stroke:red;stroke-width:1px;stroke-linecap:butt;stroke-linejoin:miter;stroke-opacity:1" d="M 152.56,980.026 168.535,980.026 z" id="boundary" inkscape:connector-curvature="0" />
	<path style="fill:none;stroke:red;stroke-width:1px;stroke-linecap:butt;stroke-linejoin:miter;stroke-opacity:1" d="M 160.548,572.683 173.327,583.865 z" id="boundary" inkscape:connector-curvature="0" />
	<path style="fill:none;stroke:red;stroke-width:1px;stroke-linecap:butt;stroke-linejoin:miter;stroke-opacity:1" d="M 163.742,906.544 179.717,906.544 z" id="boundary" inkscape:connector-curvature="0" />
	<path style="fill:none;stroke:red;stroke-width:1px;stroke-linecap:butt;stroke-linejoin:miter;stroke-opacity:1" d="M 165.34,294.731 181.314,286.744 z" id="boundary" inkscape:connector-curvature="0" />
	<path style="fill:none;stroke:red;stroke-width:1px;stroke-linecap:butt;stroke-linejoin:miter;stroke-opacity:1" d="M 168.535,980.026 184.509,980.026 z" id="boundary" inkscape:connector-curvature="0" />
	<path style="fill:none;stroke:red;stroke-width:1px;stroke-linecap:butt;stroke-linejoin:miter;stroke-opacity:1" d="M 173.327,583.865 184.509,596.644 z" id="boundary" inkscape:connector-curvature="0" />
	<path style="fill:none;stroke:red;stroke-width:1px;stroke-linecap:butt;stroke-linejoin:miter;stroke-opacity:1" d="M 179.717,906.544 194.093,914.531 z" id="boundary" inkscape:connector-curvature="0" />
	<path style="fill:none;stroke:red;stroke-width:1px;stroke-linecap:butt;stroke-linejoin:miter;stroke-opacity:1" d="M 181.314,286.744 194.093,275.562 z" id="boundary" inkscape:connector-curvature="0" />
	<path style="fill:none;stroke:red;stroke-width:1px;stroke-linecap:butt;stroke-linejoin:miter;stroke-opacity:1" d="M 184.509,596.644 197.288,607.826 z" id="boundary" inkscape:connector-curvature="0" />
	<path style="fill:none;stroke:red;stroke-width:1px;stroke-linecap:butt;stroke-linejoin:miter;stroke-opacity:1" d="M 184.509,980.026 198.886,988.013 z" id="boundary" inkscape:connector-curvature="0" />
	<path style="fill:none;stroke:red;stroke-width:1px;stroke-linecap:butt;stroke-linejoin:miter;stroke-opacity:1" d="M 194.093,275.562 208.47,267.575 z" id="boundary" inkscape:connector-curvature="0" />
	<path style="fill:none;stroke:red;stroke-width:1px;stroke-linecap:butt;stroke-linejoin:miter;stroke-opacity:1" d="M 194.093,914.531 208.47,922.519 z" id="boundary" inkscape:connector-curvature="0" />
	<path style="fill:none;stroke:red;stroke-width:1px;stroke-linecap:butt;stroke-linejoin:miter;stroke-opacity:1" d="M 197.288,607.826 208.47,620.605 z" id="boundary" inkscape:connector-curvature="0" />
	<path style="fill:none;stroke:red;stroke-width:1px;stroke-linecap:butt;stroke-linejoin:miter;stroke-opacity:1" d="M 198.886,988.013 214.86,992.805 z" id="boundary" inkscape:connector-curvature="0" />
	<path style="fill:none;stroke:red;stroke-width:1px;stroke-linecap:butt;stroke-linejoin:miter;stroke-opacity:1" d="M 208.47,267.575 224.444,259.588 z" id="boundary" inkscape:connector-curvature="0" />
	<path style="fill:none;stroke:red;stroke-width:1px;stroke-linecap:butt;stroke-linejoin:miter;stroke-opacity:1" d="M 208.47,620.605 221.25,631.787 z" id="boundary" inkscape:connector-curvature="0" />
	<path style="fill:none;stroke:red;stroke-width:1px;stroke-linecap:butt;stroke-linejoin:miter;stroke-opacity:1" d="M 208.47,922.519 222.847,930.506 z" id="boundary" inkscape:connector-curvature="0" />
	<path style="fill:none;stroke:red;stroke-width:1px;stroke-linecap:butt;stroke-linejoin:miter;stroke-opacity:1" d="M 214.86,992.805 230.834,996 z" id="boundary" inkscape:connector-curvature="0" />
	<path style="fill:none;stroke:red;stroke-width:1px;stroke-linecap:butt;stroke-linejoin:miter;stroke-opacity:1" d="M 221.25,631.787 232.432,644.567 z" id="boundary" inkscape:connector-curvature="0" />
	<path style="fill:none;stroke:red;stroke-width:1px;stroke-linecap:butt;stroke-linejoin:miter;stroke-opacity:1" d="M 222.847,930.506 237.224,938.493 z" id="boundary" inkscape:connector-curvature="0" />
	<path style="fill:none;stroke:red;stroke-width:1px;stroke-linecap:butt;stroke-linejoin:miter;stroke-opacity:1" d="M 224.444,259.588 238.821,251.601 z" id="boundary" inkscape:connector-curvature="0" />
	<path style="fill:none;stroke:red;stroke-width:1px;stroke-linecap:butt;stroke-linejoin:miter;stroke-opacity:1" d="M 230.834,996 245.211,988.013 z" id="boundary" inkscape:connector-curvature="0" />
	<path style="fill:none;stroke:red;stroke-width:1px;stroke-linecap:butt;stroke-linejoin:miter;stroke-opacity:1" d="M 232.432,644.567 248.406,650.957 z" id="boundary" inkscape:connector-curvature="0" />
	<path style="fill:none;stroke:red;stroke-width:1px;stroke-linecap:butt;stroke-linejoin:miter;stroke-opacity:1" d="M 237.224,938.493 251.601,946.48 z" id="boundary" inkscape:connector-curvature="0" />
	<path style="fill:none;stroke:red;stroke-width:1px;stroke-linecap:butt;stroke-linejoin:miter;stroke-opacity:1" d="M 238.821,251.601 251.601,240.419 z" id="boundary" inkscape:connector-curvature="0" />
	<path style="fill:none;stroke:red;stroke-width:1px;stroke-linecap:butt;stroke-linejoin:miter;stroke-opacity:1" d="M 245.211,988.013 259.588,996 z" id="boundary" inkscape:connector-curvature="0" />
	<path style="fill:none;stroke:red;stroke-width:1px;stroke-linecap:butt;stroke-linejoin:miter;stroke-opacity:1" d="M 248.406,650.957 264.38,652.554 z" id="boundary" inkscape:connector-curvature="0" />
	<path style="fill:none;stroke:red;stroke-width:1px;stroke-linecap:butt;stroke-linejoin:miter;stroke-opacity:1" d="M 251.601,240.419 264.38,227.639 z" id="boundary" inkscape:connector-curvature="0" />
	<path style="fill:none;stroke:red;stroke-width:1px;stroke-linecap:butt;stroke-linejoin:miter;stroke-opacity:1" d="M 251.601,946.48 267.575,943.285 z" id="boundary" inkscape:connector-curvature="0" />
	<path style="fill:none;stroke:red;stroke-width:1px;stroke-linecap:butt;stroke-linejoin:miter;stroke-opacity:1" d="M 259.588,996 275.562,996 z" id="boundary" inkscape:connector-curvature="0" />
	<path style="fill:none;stroke:red;stroke-width:1px;stroke-linecap:butt;stroke-linejoin:miter;stroke-opacity:1" d="M 264.38,227.639 277.159,214.86 z" id="boundary" inkscape:connector-curvature="0" />
	<path style="fill:none;stroke:red;stroke-width:1px;stroke-linecap:butt;stroke-linejoin:miter;stroke-opacity:1" d="M 264.38,652.554 280.354,658.944 z" id="boundary" inkscape:connector-curvature="0" />
	<path style="fill:none;stroke:red;stroke-width:1px;stroke-linecap:butt;stroke-linejoin:miter;stroke-opacity:1" d="M 267.575,943.285 283.549,938.493 z" id="boundary" inkscape:connector-curvature="0" />
	<path style="fill:none;stroke:red;stroke-width:1px;stroke-linecap:butt;stroke-linejoin:miter;stroke-opacity:1" d="M 275.562,996 291.536,996 z" id="boundary" inkscape:connector-curvature="0" />
	<path style="fill:none;stroke:red;stroke-width:1px;stroke-linecap:butt;stroke-linejoin:miter;stroke-opacity:1" d="M 277.159,214.86 285.147,198.886 z" id="boundary" inkscape:connector-curvature="0" />
	<path style="fill:none;stroke:red;stroke-width:1px;stroke-linecap:butt;stroke-linejoin:miter;stroke-opacity:1" d="M 280.354,658.944 296.329,660.541 z" id="boundary" inkscape:connector-curvature="0" />
	<path style="fill:none;stroke:red;stroke-width:1px;stroke-linecap:butt;stroke-linejoin:miter;stroke-opacity:1" d="M 283.549,938.493 299.523,938.493 z" id="boundary" inkscape:connector-curvature="0" />
	<path style="fill:none;stroke:red;stroke-width:1px;stroke-linecap:butt;stroke-linejoin:miter;stroke-opacity:1" d="M 285.147,198.886 297.926,187.704 z" id="boundary" inkscape:connector-curvature="0" />
	<path style="fill:none;stroke:red;stroke-width:1px;stroke-linecap:butt;stroke-linejoin:miter;stroke-opacity:1" d="M 291.536,996 305.913,988.013 z" id="boundary" inkscape:connector-curvature="0" />
	<path style="fill:none;stroke:red;stroke-width:1px;stroke-linecap:butt;stroke-linejoin:miter;stroke-opacity:1" d="M 296.329,660.541 312.303,660.541 z" id="boundary" inkscape:connector-curvature="0" />
	<path style="fill:none;stroke:red;stroke-width:1px;stroke-linecap:butt;stroke-linejoin:miter;stroke-opacity:1" d="M 297.926,187.704 309.108,174.924 z" id="boundary" inkscape:connector-curvature="0" />
	<path style="fill:none;stroke:red;stroke-width:1px;stroke-linecap:butt;stroke-linejoin:miter;stroke-opacity:1" d="M 299.523,938.493 313.9,930.506 z" id="boundary" inkscape:connector-curvature="0" />
	<path style="fill:none;stroke:red;stroke-width:1px;stroke-linecap:butt;stroke-linejoin:miter;stroke-opacity:1" d="M 305.913,988.013 321.887,984.818 z" id="boundary" inkscape:connector-curvature="0" />
	<path style="fill:none;stroke:red;stroke-width:1px;stroke-linecap:butt;stroke-linejoin:miter;stroke-opacity:1" d="M 309.108,174.924 321.887,163.742 z" id="boundary" inkscape:connector-curvature="0" />
	<path style="fill:none;stroke:red;stroke-width:1px;stroke-linecap:butt;stroke-linejoin:miter;stroke-opacity:1" d="M 312.303,660.541 326.68,652.554 z" id="boundary" inkscape:connector-curvature="0" />
	<path style="fill:none;stroke:red;stroke-width:1px;stroke-linecap:butt;stroke-linejoin:miter;stroke-opacity:1" d="M 313.9,930.506 328.277,922.519 z" id="boundary" inkscape:connector-curvature="0" />
	<path style="fill:none;stroke:red;stroke-width:1px;stroke-linecap:butt;stroke-linejoin:miter;stroke-opacity:1" d="M 321.887,163.742 328.277,147.768 z" id="boundary" inkscape:connector-curvature="0" />
	<path style="fill:none;stroke:red;stroke-width:1px;stroke-linecap:butt;stroke-linejoin:miter;stroke-opacity:1" d="M 321.887,984.818 337.862,976.831 z" id="boundary" inkscape:connector-curvature="0" />
	<path style="fill:none;stroke:red;stroke-width:1px;stroke-linecap:butt;stroke-linejoin:miter;stroke-opacity:1" d="M 326.68,652.554 341.056,644.567 z" id="boundary" inkscape:connector-curvature="0" />
	<path style="fill:none;stroke:red;stroke-width:1px;stroke-linecap:butt;stroke-linejoin:miter;stroke-opacity:1" d="M 328.277,147.768 336.264,131.794 z" id="boundary" inkscape:connector-curvature="0" />
	<path style="fill:none;stroke:red;stroke-width:1px;stroke-linecap:butt;stroke-linejoin:miter;stroke-opacity:1" d="M 328.277,922.519 341.056,909.739 z" id="boundary" inkscape:connector-curvature="0" />
	<path style="fill:none;stroke:red;stroke-width:1px;stroke-linecap:butt;stroke-linejoin:miter;stroke-opacity:1" d="M 336.264,131.794 349.043,119.014 z" id="boundary" inkscape:connector-curvature="0" />
	<path style="fill:none;stroke:red;stroke-width:1px;stroke-linecap:butt;stroke-linejoin:miter;stroke-opacity:1" d="M 337.862,976.831 353.836,968.844 z" id="boundary" inkscape:connector-curvature="0" />
	<path style="fill:none;stroke:red;stroke-width:1px;stroke-linecap:butt;stroke-linejoin:miter;stroke-opacity:1" d="M 339.459,687.697 347.446,660.541 z" id="boundary" inkscape:connector-curvature="0" />
	<path style="fill:none;stroke:red;stroke-width:1px;stroke-linecap:butt;stroke-linejoin:miter;stroke-opacity:1" d="M 339.459,687.697 352.238,698.879 z" id="boundary" inkscape:connector-curvature="0" />
	<path style="fill:none;stroke:red;stroke-width:1px;stroke-linecap:butt;stroke-linejoin:miter;stroke-opacity:1" d="M 341.056,644.567 347.446,660.541 z" id="boundary" inkscape:connector-curvature="0" />
	<path style="fill:none;stroke:red;stroke-width:1px;stroke-linecap:butt;stroke-linejoin:miter;stroke-opacity:1" d="M 341.056,909.739 353.836,898.557 z" id="boundary" inkscape:connector-curvature="0" />
	<path style="fill:none;stroke:red;stroke-width:1px;stroke-linecap:butt;stroke-linejoin:miter;stroke-opacity:1" d="M 349.043,119.014 361.823,107.833 z" id="boundary" inkscape:connector-curvature="0" />
	<path style="fill:none;stroke:red;stroke-width:1px;stroke-linecap:butt;stroke-linejoin:miter;stroke-opacity:1" d="M 352.238,698.879 368.213,698.879 z" id="boundary" inkscape:connector-curvature="0" />
	<path style="fill:none;stroke:red;stroke-width:1px;stroke-linecap:butt;stroke-linejoin:miter;stroke-opacity:1" d="M 353.836,898.557 363.42,879.388 z" id="boundary" inkscape:connector-curvature="0" />
	<path style="fill:none;stroke:red;stroke-width:1px;stroke-linecap:butt;stroke-linejoin:miter;stroke-opacity:1" d="M 353.836,968.844 365.018,956.064 z" id="boundary" inkscape:connector-curvature="0" />
	<path style="fill:none;stroke:red;stroke-width:1px;stroke-linecap:butt;stroke-linejoin:miter;stroke-opacity:1" d="M 361.823,107.833 373.005,95.0531 z" id="boundary" inkscape:connector-curvature="0" />
	<path style="fill:none;stroke:red;stroke-width:1px;stroke-linecap:butt;stroke-linejoin:miter;stroke-opacity:1" d="M 363.42,879.388 371.407,863.414 z" id="boundary" inkscape:connector-curvature="0" />
	<path style="fill:none;stroke:red;stroke-width:1px;stroke-linecap:butt;stroke-linejoin:miter;stroke-opacity:1" d="M 365.018,956.064 380.992,948.077 z" id="boundary" inkscape:connector-curvature="0" />
	<path style="fill:none;stroke:red;stroke-width:1px;stroke-linecap:butt;stroke-linejoin:miter;stroke-opacity:1" d="M 368.213,698.879 376.2,682.905 z" id="boundary" inkscape:connector-curvature="0" />
	<path style="fill:none;stroke:red;stroke-width:1px;stroke-linecap:butt;stroke-linejoin:miter;stroke-opacity:1" d="M 371.407,863.414 384.187,850.634 z" id="boundary" inkscape:connector-curvature="0" />
	<path style="fill:none;stroke:red;stroke-width:1px;stroke-linecap:butt;stroke-linejoin:miter;stroke-opacity:1" d="M 373.005,95.0531 385.784,83.8712 z" id="boundary" inkscape:connector-curvature="0" />
	<path style="fill:none;stroke:red;stroke-width:1px;stroke-linecap:butt;stroke-linejoin:miter;stroke-opacity:1" d="M 376.2,682.905 387.382,695.684 z" id="boundary" inkscape:connector-curvature="0" />
	<path style="fill:none;stroke:red;stroke-width:1px;stroke-linecap:butt;stroke-linejoin:miter;stroke-opacity:1" d="M 380.992,948.077 396.966,940.09 z" id="boundary" inkscape:connector-curvature="0" />
	<path style="fill:none;stroke:red;stroke-width:1px;stroke-linecap:butt;stroke-linejoin:miter;stroke-opacity:1" d="M 384.187,850.634 392.174,834.66 z" id="boundary" inkscape:connector-curvature="0" />
	<path style="fill:none;stroke:red;stroke-width:1px;stroke-linecap:butt;stroke-linejoin:miter;stroke-opacity:1" d="M 385.784,83.8712 400.161,75.8841 z" id="boundary" inkscape:connector-curvature="0" />
	<path style="fill:none;stroke:red;stroke-width:1px;stroke-linecap:butt;stroke-linejoin:miter;stroke-opacity:1" d="M 387.382,695.684 387.382,711.659 z" id="boundary" inkscape:connector-curvature="0" />
	<path style="fill:none;stroke:red;stroke-width:1px;stroke-linecap:butt;stroke-linejoin:miter;stroke-opacity:1" d="M 387.382,711.659 387.382,727.633 z" id="boundary" inkscape:connector-curvature="0" />
	<path style="fill:none;stroke:red;stroke-width:1px;stroke-linecap:butt;stroke-linejoin:miter;stroke-opacity:1" d="M 387.382,727.633 395.369,742.01 z" id="boundary" inkscape:connector-curvature="0" />
	<path style="fill:none;stroke:red;stroke-width:1px;stroke-linecap:butt;stroke-linejoin:miter;stroke-opacity:1" d="M 392.174,834.66 395.369,815.491 z" id="boundary" inkscape:connector-curvature="0" />
	<path style="fill:none;stroke:red;stroke-width:1px;stroke-linecap:butt;stroke-linejoin:miter;stroke-opacity:1" d="M 395.369,742.01 395.369,757.984 z" id="boundary" inkscape:connector-curvature="0" />
	<path style="fill:none;stroke:red;stroke-width:1px;stroke-linecap:butt;stroke-linejoin:miter;stroke-opacity:1" d="M 395.369,757.984 403.356,772.361 z" id="boundary" inkscape:connector-curvature="0" />
	<path style="fill:none;stroke:red;stroke-width:1px;stroke-linecap:butt;stroke-linejoin:miter;stroke-opacity:1" d="M 395.369,815.491 403.356,788.335 z" id="boundary" inkscape:connector-curvature="0" />
	<path style="fill:none;stroke:red;stroke-width:1px;stroke-linecap:butt;stroke-linejoin:miter;stroke-opacity:1" d="M 396.966,940.09 409.746,928.908 z" id="boundary" inkscape:connector-curvature="0" />
	<path style="fill:none;stroke:red;stroke-width:1px;stroke-linecap:butt;stroke-linejoin:miter;stroke-opacity:1" d="M 400.161,75.8841 416.135,67.8969 z" id="boundary" inkscape:connector-curvature="0" />
	<path style="fill:none;stroke:red;stroke-width:1px;stroke-linecap:butt;stroke-linejoin:miter;stroke-opacity:1" d="M 403.356,772.361 403.356,788.335 z" id="boundary" inkscape:connector-curvature="0" />
	<path style="fill:none;stroke:red;stroke-width:1px;stroke-linecap:butt;stroke-linejoin:miter;stroke-opacity:1" d="M 409.746,928.908 420.928,916.129 z" id="boundary" inkscape:connector-curvature="0" />
	<path style="fill:none;stroke:red;stroke-width:1px;stroke-linecap:butt;stroke-linejoin:miter;stroke-opacity:1" d="M 416.135,67.8969 430.512,59.9098 z" id="boundary" inkscape:connector-curvature="0" />
	<path style="fill:none;stroke:red;stroke-width:1px;stroke-linecap:butt;stroke-linejoin:miter;stroke-opacity:1" d="M 420.928,916.129 428.915,900.155 z" id="boundary" inkscape:connector-curvature="0" />
	<path style="fill:none;stroke:red;stroke-width:1px;stroke-linecap:butt;stroke-linejoin:miter;stroke-opacity:1" d="M 428.915,900.155 441.694,888.973 z" id="boundary" inkscape:connector-curvature="0" />
	<path style="fill:none;stroke:red;stroke-width:1px;stroke-linecap:butt;stroke-linejoin:miter;stroke-opacity:1" d="M 430.512,59.9098 443.291,48.7279 z" id="boundary" inkscape:connector-curvature="0" />
	<path style="fill:none;stroke:red;stroke-width:1px;stroke-linecap:butt;stroke-linejoin:miter;stroke-opacity:1" d="M 441.694,888.973 452.876,876.193 z" id="boundary" inkscape:connector-curvature="0" />
	<path style="fill:none;stroke:red;stroke-width:1px;stroke-linecap:butt;stroke-linejoin:miter;stroke-opacity:1" d="M 443.291,48.7279 451.279,32.7536 z" id="boundary" inkscape:connector-curvature="0" />
	<path style="fill:none;stroke:red;stroke-width:1px;stroke-linecap:butt;stroke-linejoin:miter;stroke-opacity:1" d="M 451.279,32.7536 459.266,16.7794 z" id="boundary" inkscape:connector-curvature="0" />
	<path style="fill:none;stroke:red;stroke-width:1px;stroke-linecap:butt;stroke-linejoin:miter;stroke-opacity:1" d="M 452.876,876.193 460.863,860.219 z" id="boundary" inkscape:connector-curvature="0" />
	<path style="fill:none;stroke:red;stroke-width:1px;stroke-linecap:butt;stroke-linejoin:miter;stroke-opacity:1" d="M 459.266,16.7794 472.045,4 z" id="boundary" inkscape:connector-curvature="0" />
	<path style="fill:none;stroke:red;stroke-width:1px;stroke-linecap:butt;stroke-linejoin:miter;stroke-opacity:1" d="M 460.863,860.219 468.85,844.245 z" id="boundary" inkscape:connector-curvature="0" />
	<path style="fill:none;stroke:red;stroke-width:1px;stroke-linecap:butt;stroke-linejoin:miter;stroke-opacity:1" d="M 468.85,844.245 481.63,833.063 z" id="boundary" inkscape:connector-curvature="0" />
	<path style="fill:none;stroke:red;stroke-width:1px;stroke-linecap:butt;stroke-linejoin:miter;stroke-opacity:1" d="M 472.045,4 488.019,4 z" id="boundary" inkscape:connector-curvature="0" />
	<path style="fill:none;stroke:red;stroke-width:1px;stroke-linecap:butt;stroke-linejoin:miter;stroke-opacity:1" d="M 481.63,833.063 484.824,804.309 z" id="boundary" inkscape:connector-curvature="0" />
	<path style="fill:none;stroke:red;stroke-width:1px;stroke-linecap:butt;stroke-linejoin:miter;stroke-opacity:1" d="M 484.824,804.309 497.604,793.127 z" id="boundary" inkscape:connector-curvature="0" />
	<path style="fill:none;stroke:red;stroke-width:1px;stroke-linecap:butt;stroke-linejoin:miter;stroke-opacity:1" d="M 488.019,4 500.799,13.5845 z" id="boundary" inkscape:connector-curvature="0" />
	<path style="fill:none;stroke:red;stroke-width:1px;stroke-linecap:butt;stroke-linejoin:miter;stroke-opacity:1" d="M 497.604,793.127 500.799,772.361 z" id="boundary" inkscape:connector-curvature="0" />
	<path style="fill:none;stroke:red;stroke-width:1px;stroke-linecap:butt;stroke-linejoin:miter;stroke-opacity:1" d="M 500.799,13.5845 508.786,27.9614 z" id="boundary" inkscape:connector-curvature="0" />
	<path style="fill:none;stroke:red;stroke-width:1px;stroke-linecap:butt;stroke-linejoin:miter;stroke-opacity:1" d="M 500.799,756.386 500.799,772.361 z" id="boundary" inkscape:connector-curvature="0" />
	<path style="fill:none;stroke:red;stroke-width:1px;stroke-linecap:butt;stroke-linejoin:miter;stroke-opacity:1" d="M 500.799,756.386 515.176,748.399 z" id="boundary" inkscape:connector-curvature="0" />
	<path style="fill:none;stroke:red;stroke-width:1px;stroke-linecap:butt;stroke-linejoin:miter;stroke-opacity:1" d="M 508.786,27.9614 516.773,42.3382 z" id="boundary" inkscape:connector-curvature="0" />
	<path style="fill:none;stroke:red;stroke-width:1px;stroke-linecap:butt;stroke-linejoin:miter;stroke-opacity:1" d="M 515.176,748.399 519.968,764.374 z" id="boundary" inkscape:connector-curvature="0" />
	<path style="fill:none;stroke:red;stroke-width:1px;stroke-linecap:butt;stroke-linejoin:miter;stroke-opacity:1" d="M 516.773,42.3382 529.552,53.5201 z" id="boundary" inkscape:connector-curvature="0" />
	<path style="fill:none;stroke:red;stroke-width:1px;stroke-linecap:butt;stroke-linejoin:miter;stroke-opacity:1" d="M 519.968,764.374 532.747,775.556 z" id="boundary" inkscape:connector-curvature="0" />
	<path style="fill:none;stroke:red;stroke-width:1px;stroke-linecap:butt;stroke-linejoin:miter;stroke-opacity:1" d="M 529.552,53.5201 540.734,66.2995 z" id="boundary" inkscape:connector-curvature="0" />
	<path style="fill:none;stroke:red;stroke-width:1px;stroke-linecap:butt;stroke-linejoin:miter;stroke-opacity:1" d="M 532.747,775.556 543.929,762.776 z" id="boundary" inkscape:connector-curvature="0" />
	<path style="fill:none;stroke:red;stroke-width:1px;stroke-linecap:butt;stroke-linejoin:miter;stroke-opacity:1" d="M 540.734,66.2995 556.709,67.8969 z" id="boundary" inkscape:connector-curvature="0" />
	<path style="fill:none;stroke:red;stroke-width:1px;stroke-linecap:butt;stroke-linejoin:miter;stroke-opacity:1" d="M 543.929,762.776 556.709,748.399 z" id="boundary" inkscape:connector-curvature="0" />
	<path style="fill:none;stroke:red;stroke-width:1px;stroke-linecap:butt;stroke-linejoin:miter;stroke-opacity:1" d="M 556.709,67.8969 571.085,75.8841 z" id="boundary" inkscape:connector-curvature="0" />
	<path style="fill:none;stroke:red;stroke-width:1px;stroke-linecap:butt;stroke-linejoin:miter;stroke-opacity:1" d="M 556.709,732.425 556.709,748.399 z" id="boundary" inkscape:connector-curvature="0" />
	<path style="fill:none;stroke:red;stroke-width:1px;stroke-linecap:butt;stroke-linejoin:miter;stroke-opacity:1" d="M 556.709,732.425 564.696,708.464 z" id="boundary" inkscape:connector-curvature="0" />
	<path style="fill:none;stroke:red;stroke-width:1px;stroke-linecap:butt;stroke-linejoin:miter;stroke-opacity:1" d="M 564.696,692.49 564.696,708.464 z" id="boundary" inkscape:connector-curvature="0" />
	<path style="fill:none;stroke:red;stroke-width:1px;stroke-linecap:butt;stroke-linejoin:miter;stroke-opacity:1" d="M 564.696,692.49 572.683,676.515 z" id="boundary" inkscape:connector-curvature="0" />
	<path style="fill:none;stroke:red;stroke-width:1px;stroke-linecap:butt;stroke-linejoin:miter;stroke-opacity:1" d="M 571.085,75.8841 583.865,85.4686 z" id="boundary" inkscape:connector-curvature="0" />
	<path style="fill:none;stroke:red;stroke-width:1px;stroke-linecap:butt;stroke-linejoin:miter;stroke-opacity:1" d="M 572.683,676.515 587.06,684.502 z" id="boundary" inkscape:connector-curvature="0" />
	<path style="fill:none;stroke:red;stroke-width:1px;stroke-linecap:butt;stroke-linejoin:miter;stroke-opacity:1" d="M 583.865,85.4686 596.644,96.6506 z" id="boundary" inkscape:connector-curvature="0" />
	<path style="fill:none;stroke:red;stroke-width:1px;stroke-linecap:butt;stroke-linejoin:miter;stroke-opacity:1" d="M 587.06,684.502 596.644,697.282 z" id="boundary" inkscape:connector-curvature="0" />
	<path style="fill:none;stroke:red;stroke-width:1px;stroke-linecap:butt;stroke-linejoin:miter;stroke-opacity:1" d="M 596.644,96.6506 607.826,109.43 z" id="boundary" inkscape:connector-curvature="0" />
	<path style="fill:none;stroke:red;stroke-width:1px;stroke-linecap:butt;stroke-linejoin:miter;stroke-opacity:1" d="M 596.644,697.282 609.424,708.464 z" id="boundary" inkscape:connector-curvature="0" />
	<path style="fill:none;stroke:red;stroke-width:1px;stroke-linecap:butt;stroke-linejoin:miter;stroke-opacity:1" d="M 607.826,109.43 620.605,120.612 z" id="boundary" inkscape:connector-curvature="0" />
	<path style="fill:none;stroke:red;stroke-width:1px;stroke-linecap:butt;stroke-linejoin:miter;stroke-opacity:1" d="M 609.424,708.464 620.605,692.49 z" id="boundary" inkscape:connector-curvature="0" />
	<path style="fill:none;stroke:red;stroke-width:1px;stroke-linecap:butt;stroke-linejoin:miter;stroke-opacity:1" d="M 620.605,120.612 628.593,134.989 z" id="boundary" inkscape:connector-curvature="0" />
	<path style="fill:none;stroke:red;stroke-width:1px;stroke-linecap:butt;stroke-linejoin:miter;stroke-opacity:1" d="M 620.605,692.49 628.593,676.515 z" id="boundary" inkscape:connector-curvature="0" />
	<path style="fill:none;stroke:red;stroke-width:1px;stroke-linecap:butt;stroke-linejoin:miter;stroke-opacity:1" d="M 628.593,134.989 638.177,147.768 z" id="boundary" inkscape:connector-curvature="0" />
	<path style="fill:none;stroke:red;stroke-width:1px;stroke-linecap:butt;stroke-linejoin:miter;stroke-opacity:1" d="M 628.593,676.515 636.58,660.541 z" id="boundary" inkscape:connector-curvature="0" />
	<path style="fill:none;stroke:red;stroke-width:1px;stroke-linecap:butt;stroke-linejoin:miter;stroke-opacity:1" d="M 636.58,660.541 652.554,660.541 z" id="boundary" inkscape:connector-curvature="0" />
	<path style="fill:none;stroke:red;stroke-width:1px;stroke-linecap:butt;stroke-linejoin:miter;stroke-opacity:1" d="M 638.177,147.768 644.567,163.742 z" id="boundary" inkscape:connector-curvature="0" />
	<path style="fill:none;stroke:red;stroke-width:1px;stroke-linecap:butt;stroke-linejoin:miter;stroke-opacity:1" d="M 644.567,163.742 652.554,178.119 z" id="boundary" inkscape:connector-curvature="0" />
	<path style="fill:none;stroke:red;stroke-width:1px;stroke-linecap:butt;stroke-linejoin:miter;stroke-opacity:1" d="M 652.554,178.119 665.333,189.301 z" id="boundary" inkscape:connector-curvature="0" />
	<path style="fill:none;stroke:red;stroke-width:1px;stroke-linecap:butt;stroke-linejoin:miter;stroke-opacity:1" d="M 652.554,660.541 668.528,660.541 z" id="boundary" inkscape:connector-curvature="0" />
	<path style="fill:none;stroke:red;stroke-width:1px;stroke-linecap:butt;stroke-linejoin:miter;stroke-opacity:1" d="M 665.333,189.301 676.515,202.081 z" id="boundary" inkscape:connector-curvature="0" />
	<path style="fill:none;stroke:red;stroke-width:1px;stroke-linecap:butt;stroke-linejoin:miter;stroke-opacity:1" d="M 668.528,660.541 684.502,660.541 z" id="boundary" inkscape:connector-curvature="0" />
	<path style="fill:none;stroke:red;stroke-width:1px;stroke-linecap:butt;stroke-linejoin:miter;stroke-opacity:1" d="M 676.515,202.081 689.295,213.262 z" id="boundary" inkscape:connector-curvature="0" />
	<path style="fill:none;stroke:red;stroke-width:1px;stroke-linecap:butt;stroke-linejoin:miter;stroke-opacity:1" d="M 684.502,660.541 700.477,652.554 z" id="boundary" inkscape:connector-curvature="0" />
	<path style="fill:none;stroke:red;stroke-width:1px;stroke-linecap:butt;stroke-linejoin:miter;stroke-opacity:1" d="M 689.295,213.262 700.477,226.042 z" id="boundary" inkscape:connector-curvature="0" />
	<path style="fill:none;stroke:red;stroke-width:1px;stroke-linecap:butt;stroke-linejoin:miter;stroke-opacity:1" d="M 700.477,226.042 713.256,237.224 z" id="boundary" inkscape:connector-curvature="0" />
	<path style="fill:none;stroke:red;stroke-width:1px;stroke-linecap:butt;stroke-linejoin:miter;stroke-opacity:1" d="M 700.477,652.554 716.451,644.567 z" id="boundary" inkscape:connector-curvature="0" />
	<path style="fill:none;stroke:red;stroke-width:1px;stroke-linecap:butt;stroke-linejoin:miter;stroke-opacity:1" d="M 713.256,237.224 724.438,250.003 z" id="boundary" inkscape:connector-curvature="0" />
	<path style="fill:none;stroke:red;stroke-width:1px;stroke-linecap:butt;stroke-linejoin:miter;stroke-opacity:1" d="M 716.451,644.567 732.425,636.58 z" id="boundary" inkscape:connector-curvature="0" />
	<path style="fill:none;stroke:red;stroke-width:1px;stroke-linecap:butt;stroke-linejoin:miter;stroke-opacity:1" d="M 724.438,250.003 737.217,261.185 z" id="boundary" inkscape:connector-curvature="0" />
	<path style="fill:none;stroke:red;stroke-width:1px;stroke-linecap:butt;stroke-linejoin:miter;stroke-opacity:1" d="M 732.425,636.58 745.205,625.398 z" id="boundary" inkscape:connector-curvature="0" />
	<path style="fill:none;stroke:red;stroke-width:1px;stroke-linecap:butt;stroke-linejoin:miter;stroke-opacity:1" d="M 737.217,261.185 748.399,273.965 z" id="boundary" inkscape:connector-curvature="0" />
	<path style="fill:none;stroke:red;stroke-width:1px;stroke-linecap:butt;stroke-linejoin:miter;stroke-opacity:1" d="M 745.205,625.398 756.386,612.618 z" id="boundary" inkscape:connector-curvature="0" />
	<path style="fill:none;stroke:red;stroke-width:1px;stroke-linecap:butt;stroke-linejoin:miter;stroke-opacity:1" d="M 748.399,273.965 761.179,283.549 z" id="boundary" inkscape:connector-curvature="0" />
	<path style="fill:none;stroke:red;stroke-width:1px;stroke-linecap:butt;stroke-linejoin:miter;stroke-opacity:1" d="M 756.386,612.618 769.166,601.436 z" id="boundary" inkscape:connector-curvature="0" />
	<path style="fill:none;stroke:red;stroke-width:1px;stroke-linecap:butt;stroke-linejoin:miter;stroke-opacity:1" d="M 761.179,283.549 775.556,291.536 z" id="boundary" inkscape:connector-curvature="0" />
	<path style="fill:none;stroke:red;stroke-width:1px;stroke-linecap:butt;stroke-linejoin:miter;stroke-opacity:1" d="M 769.166,601.436 780.348,580.67 z" id="boundary" inkscape:connector-curvature="0" />
	<path style="fill:none;stroke:red;stroke-width:1px;stroke-linecap:butt;stroke-linejoin:miter;stroke-opacity:1" d="M 775.556,291.536 789.932,299.523 z" id="boundary" inkscape:connector-curvature="0" />
	<path style="fill:none;stroke:red;stroke-width:1px;stroke-linecap:butt;stroke-linejoin:miter;stroke-opacity:1" d="M 780.348,580.67 788.335,564.696 z" id="boundary" inkscape:connector-curvature="0" />
	<path style="fill:none;stroke:red;stroke-width:1px;stroke-linecap:butt;stroke-linejoin:miter;stroke-opacity:1" d="M 788.335,564.696 801.114,553.514 z" id="boundary" inkscape:connector-curvature="0" />
	<path style="fill:none;stroke:red;stroke-width:1px;stroke-linecap:butt;stroke-linejoin:miter;stroke-opacity:1" d="M 789.932,299.523 804.309,307.51 z" id="boundary" inkscape:connector-curvature="0" />
	<path style="fill:none;stroke:red;stroke-width:1px;stroke-linecap:butt;stroke-linejoin:miter;stroke-opacity:1" d="M 801.114,553.514 812.296,540.734 z" id="boundary" inkscape:connector-curvature="0" />
	<path style="fill:none;stroke:red;stroke-width:1px;stroke-linecap:butt;stroke-linejoin:miter;stroke-opacity:1" d="M 804.309,307.51 820.283,312.303 z" id="boundary" inkscape:connector-curvature="0" />
	<path style="fill:none;stroke:red;stroke-width:1px;stroke-linecap:butt;stroke-linejoin:miter;stroke-opacity:1" d="M 812.296,540.734 820.283,524.76 z" id="boundary" inkscape:connector-curvature="0" />
	<path style="fill:none;stroke:red;stroke-width:1px;stroke-linecap:butt;stroke-linejoin:miter;stroke-opacity:1" d="M 820.283,312.303 834.66,320.29 z" id="boundary" inkscape:connector-curvature="0" />
	<path style="fill:none;stroke:red;stroke-width:1px;stroke-linecap:butt;stroke-linejoin:miter;stroke-opacity:1" d="M 820.283,524.76 834.66,516.773 z" id="boundary" inkscape:connector-curvature="0" />
	<path style="fill:none;stroke:red;stroke-width:1px;stroke-linecap:butt;stroke-linejoin:miter;stroke-opacity:1" d="M 834.66,320.29 850.634,326.68 z" id="boundary" inkscape:connector-curvature="0" />
	<path style="fill:none;stroke:red;stroke-width:1px;stroke-linecap:butt;stroke-linejoin:miter;stroke-opacity:1" d="M 834.66,516.773 847.44,507.188 z" id="boundary" inkscape:connector-curvature="0" />
	<path style="fill:none;stroke:red;stroke-width:1px;stroke-linecap:butt;stroke-linejoin:miter;stroke-opacity:1" d="M 847.44,507.188 860.219,492.812 z" id="boundary" inkscape:connector-curvature="0" />
	<path style="fill:none;stroke:red;stroke-width:1px;stroke-linecap:butt;stroke-linejoin:miter;stroke-opacity:1" d="M 850.634,326.68 865.011,334.667 z" id="boundary" inkscape:connector-curvature="0" />
	<path style="fill:none;stroke:red;stroke-width:1px;stroke-linecap:butt;stroke-linejoin:miter;stroke-opacity:1" d="M 860.219,492.812 872.998,481.63 z" id="boundary" inkscape:connector-curvature="0" />
	<path style="fill:none;stroke:red;stroke-width:1px;stroke-linecap:butt;stroke-linejoin:miter;stroke-opacity:1" d="M 865.011,334.667 876.193,347.446 z" id="boundary" inkscape:connector-curvature="0" />
	<path style="fill:none;stroke:red;stroke-width:1px;stroke-linecap:butt;stroke-linejoin:miter;stroke-opacity:1" d="M 872.998,481.63 888.973,473.643 z" id="boundary" inkscape:connector-curvature="0" />
	<path style="fill:none;stroke:red;stroke-width:1px;stroke-linecap:butt;stroke-linejoin:miter;stroke-opacity:1" d="M 876.193,347.446 892.167,352.238 z" id="boundary" inkscape:connector-curvature="0" />
	<path style="fill:none;stroke:red;stroke-width:1px;stroke-linecap:butt;stroke-linejoin:miter;stroke-opacity:1" d="M 888.973,473.643 900.155,460.863 z" id="boundary" inkscape:connector-curvature="0" />
	<path style="fill:none;stroke:red;stroke-width:1px;stroke-linecap:butt;stroke-linejoin:miter;stroke-opacity:1" d="M 892.167,352.238 903.349,365.018 z" id="boundary" inkscape:connector-curvature="0" />
	<path style="fill:none;stroke:red;stroke-width:1px;stroke-linecap:butt;stroke-linejoin:miter;stroke-opacity:1" d="M 900.155,460.863 916.129,452.876 z" id="boundary" inkscape:connector-curvature="0" />
	<path style="fill:none;stroke:red;stroke-width:1px;stroke-linecap:butt;stroke-linejoin:miter;stroke-opacity:1" d="M 903.349,365.018 919.324,371.407 z" id="boundary" inkscape:connector-curvature="0" />
	<path style="fill:none;stroke:red;stroke-width:1px;stroke-linecap:butt;stroke-linejoin:miter;stroke-opacity:1" d="M 916.129,452.876 928.908,441.694 z" id="boundary" inkscape:connector-curvature="0" />
	<path style="fill:none;stroke:red;stroke-width:1px;stroke-linecap:butt;stroke-linejoin:miter;stroke-opacity:1" d="M 919.324,371.407 930.506,384.187 z" id="boundary" inkscape:connector-curvature="0" />
	<path style="fill:none;stroke:red;stroke-width:1px;stroke-linecap:butt;stroke-linejoin:miter;stroke-opacity:1" d="M 928.908,441.694 940.09,414.538 z" id="boundary" inkscape:connector-curvature="0" />
	<path style="fill:none;stroke:red;stroke-width:1px;stroke-linecap:butt;stroke-linejoin:miter;stroke-opacity:1" d="M 930.506,384.187 932.103,400.161 z" id="boundary" inkscape:connector-curvature="0" />
	<path style="fill:none;stroke:red;stroke-width:1px;stroke-linecap:butt;stroke-linejoin:miter;stroke-opacity:1" d="M 932.103,400.161 940.09,414.538 z" id="boundary" inkscape:connector-curvature="0" />
	<circle cx="4" cy="927.311" r="4" fill="#0" id="circle0"/>
	<circle cx="11.9871" cy="408.148" r="4" fill="#0" id="circle1"/>
	<circle cx="11.9871" cy="424.122" r="4" fill="#0" id="circle2"/>
	<circle cx="11.9871" cy="911.337" r="4" fill="#0" id="circle3"/>
	<circle cx="16.7794" cy="938.493" r="4" fill="#0" id="circle4"/>
	<circle cx="19.9742" cy="392.174" r="4" fill="#0" id="circle5"/>
	<circle cx="19.9742" cy="438.499" r="4" fill="#0" id="circle6"/>
	<circle cx="27.9614" cy="906.544" r="4" fill="#0" id="circle7"/>
	<circle cx="31.1562" cy="451.279" r="4" fill="#0" id="circle8"/>
	<circle cx="32.7536" cy="940.09" r="4" fill="#0" id="circle9"/>
	<circle cx="35.9485" cy="384.187" r="4" fill="#0" id="circle10"/>
	<circle cx="43.9356" cy="460.863" r="4" fill="#0" id="circle11"/>
	<circle cx="43.9356" cy="906.544" r="4" fill="#0" id="circle12"/>
	<circle cx="48.7279" cy="371.407" r="4" fill="#0" id="circle13"/>
	<circle cx="48.7279" cy="940.09" r="4" fill="#0" id="circle14"/>
	<circle cx="53.5201" cy="473.643" r="4" fill="#0" id="circle15"/>
	<circle cx="59.9098" cy="903.349" r="4" fill="#0" id="circle16"/>
	<circle cx="64.7021" cy="363.42" r="4" fill="#0" id="circle17"/>
	<circle cx="64.7021" cy="940.09" r="4" fill="#0" id="circle18"/>
	<circle cx="69.4944" cy="480.032" r="4" fill="#0" id="circle19"/>
	<circle cx="72.6892" cy="890.57" r="4" fill="#0" id="circle20"/>
	<circle cx="77.4815" cy="350.641" r="4" fill="#0" id="circle21"/>
	<circle cx="80.6763" cy="492.812" r="4" fill="#0" id="circle22"/>
	<circle cx="80.6763" cy="940.09" r="4" fill="#0" id="circle23"/>
	<circle cx="88.6634" cy="882.583" r="4" fill="#0" id="circle24"/>
	<circle cx="93.4557" cy="342.654" r="4" fill="#0" id="circle25"/>
	<circle cx="95.0531" cy="500.799" r="4" fill="#0" id="circle26"/>
	<circle cx="96.6506" cy="946.48" r="4" fill="#0" id="circle27"/>
	<circle cx="104.638" cy="882.583" r="4" fill="#0" id="circle28"/>
	<circle cx="106.235" cy="331.472" r="4" fill="#0" id="circle29"/>
	<circle cx="107.833" cy="510.383" r="4" fill="#0" id="circle30"/>
	<circle cx="107.833" cy="959.259" r="4" fill="#0" id="circle31"/>
	<circle cx="119.014" cy="523.163" r="4" fill="#0" id="circle32"/>
	<circle cx="120.612" cy="323.485" r="4" fill="#0" id="circle33"/>
	<circle cx="120.612" cy="882.583" r="4" fill="#0" id="circle34"/>
	<circle cx="123.807" cy="964.052" r="4" fill="#0" id="circle35"/>
	<circle cx="131.794" cy="532.747" r="4" fill="#0" id="circle36"/>
	<circle cx="131.794" cy="895.362" r="4" fill="#0" id="circle37"/>
	<circle cx="136.586" cy="315.498" r="4" fill="#0" id="circle38"/>
	<circle cx="138.184" cy="972.039" r="4" fill="#0" id="circle39"/>
	<circle cx="139.781" cy="547.124" r="4" fill="#0" id="circle40"/>
	<circle cx="147.768" cy="901.752" r="4" fill="#0" id="circle41"/>
	<circle cx="149.366" cy="302.718" r="4" fill="#0" id="circle42"/>
	<circle cx="149.366" cy="559.903" r="4" fill="#0" id="circle43"/>
	<circle cx="152.56" cy="980.026" r="4" fill="#0" id="circle44"/>
	<circle cx="160.548" cy="572.683" r="4" fill="#0" id="circle45"/>
	<circle cx="163.742" cy="906.544" r="4" fill="#0" id="circle46"/>
	<circle cx="165.34" cy="294.731" r="4" fill="#0" id="circle47"/>
	<circle cx="168.535" cy="980.026" r="4" fill="#0" id="circle48"/>
	<circle cx="173.327" cy="583.865" r="4" fill="#0" id="circle49"/>
	<circle cx="179.717" cy="906.544" r="4" fill="#0" id="circle50"/>
	<circle cx="181.314" cy="286.744" r="4" fill="#0" id="circle51"/>
	<circle cx="184.509" cy="596.644" r="4" fill="#0" id="circle52"/>
	<circle cx="184.509" cy="980.026" r="4" fill="#0" id="circle53"/>
	<circle cx="194.093" cy="275.562" r="4" fill="#0" id="circle54"/>
	<circle cx="194.093" cy="914.531" r="4" fill="#0" id="circle55"/>
	<circle cx="197.288" cy="607.826" r="4" fill="#0" id="circle56"/>
	<circle cx="198.886" cy="988.013" r="4" fill="#0" id="circle57"/>
	<circle cx="208.47" cy="267.575" r="4" fill="#0" id="circle58"/>
	<circle cx="208.47" cy="620.605" r="4" fill="#0" id="circle59"/>
	<circle cx="208.47" cy="922.519" r="4" fill="#0" id="circle60"/>
	<circle cx="214.86" cy="992.805" r="4" fill="#0" id="circle61"/>
	<circle cx="221.25" cy="631.787" r="4" fill="#0" id="circle62"/>
	<circle cx="222.847" cy="930.506" r="4" fill="#0" id="circle63"/>
	<circle cx="224.444" cy="259.588" r="4" fill="#0" id="circle64"/>
	<circle cx="230.834" cy="996" r="4" fill="#0" id="circle65"/>
	<circle cx="232.432" cy="644.567" r="4" fill="#0" id="circle66"/>
	<circle cx="237.224" cy="938.493" r="4" fill="#0" id="circle67"/>
	<circle cx="238.821" cy="251.601" r="4" fill="#0" id="circle68"/>
	<circle cx="245.211" cy="988.013" r="4" fill="#0" id="circle69"/>
	<circle cx="248.406" cy="650.957" r="4" fill="#0" id="circle70"/>
	<circle cx="251.601" cy="240.419" r="4" fill="#0" id="circle71"/>
	<circle cx="251.601" cy="946.48" r="4" fill="#0" id="circle72"/>
	<circle cx="259.588" cy="996" r="4" fill="#0" id="circle73"/>
	<circle cx="264.38" cy="227.639" r="4" fill="#0" id="circle74"/>
	<circle cx="264.38" cy="652.554" r="4" fill="#0" id="circle75"/>
	<circle cx="267.575" cy="943.285" r="4" fill="#0" id="circle76"/>
	<circle cx="275.562" cy="996" r="4" fill="#0" id="circle77"/>
	<circle cx="277.159" cy="214.86" r="4" fill="#0" id="circle78"/>
	<circle cx="280.354" cy="658.944" r="4" fill="#0" id="circle79"/>
	<circle cx="283.549" cy="938.493" r="4" fill="#0" id="circle80"/>
	<circle cx="285.147" cy="198.886" r="4" fill="#0" id="circle81"/>
	<circle cx="291.536" cy="996" r="4" fill="#0" id="circle82"/>
	<circle cx="296.329" cy="660.541" r="4" fill="#0" id="circle83"/>
	<circle cx="297.926" cy="187.704" r="4" fill="#0" id="circle84"/>
	<circle cx="299.523" cy="938.493" r="4" fill="#0" id="circle85"/>
	<circle cx="305.913" cy="988.013" r="4" fill="#0" id="circle86"/>
	<circle cx="309.108" cy="174.924" r="4" fill="#0" id="circle87"/>
	<circle cx="312.303" cy="660.541" r="4" fill="#0" id="circle88"/>
	<circle cx="313.9" cy="930.506" r="4" fill="#0" id="circle89"/>
	<circle cx="321.887" cy="163.742" r="4" fill="#0" id="circle90"/>
	<circle cx="321.887" cy="984.818" r="4" fill="#0" id="circle91"/>
	<circle cx="326.68" cy="652.554" r="4" fill="#0" id="circle92"/>
	<circle cx="328.277" cy="147.768" r="4" fill="#0" id="circle93"/>
	<circle cx="328.277" cy="922.519" r="4" fill="#0" id="circle94"/>
	<circle cx="336.264" cy="131.794" r="4" fill="#0" id="circle95"/>
	<circle cx="337.862" cy="976.831" r="4" fill="#0" id="circle96"/>
	<circle cx="339.459" cy="687.697" r="4" fill="#0" id="circle97"/>
	<circle cx="341.056" cy="644.567" r="4" fill="#0" id="circle98"/>
	<circle cx="341.056" cy="909.739" r="4" fill="#0" id="circle99"/>
	<circle cx="347.446" cy="660.541" r="4" fill="#0" id="circle100"/>
	<circle cx="349.043" cy="119.014" r="4" fill="#0" id="circle101"/>
	<circle cx="352.238" cy="698.879" r="4" fill="#0" id="circle102"/>
	<circle cx="353.836" cy="898.557" r="4" fill="#0" id="circle103"/>
	<circle cx="353.836" cy="968.844" r="4" fill="#0" id="circle104"/>
	<circle cx="361.823" cy="107.833" r="4" fill="#0" id="circle105"/>
	<circle cx="363.42" cy="879.388" r="4" fill="#0" id="circle106"/>
	<circle cx="365.018" cy="956.064" r="4" fill="#0" id="circle107"/>
	<circle cx="368.213" cy="698.879" r="4" fill="#0" id="circle108"/>
	<circle cx="371.407" cy="863.414" r="4" fill="#0" id="circle109"/>
	<circle cx="373.005" cy="95.0531" r="4" fill="#0" id="circle110"/>
	<circle cx="376.2" cy="682.905" r="4" fill="#0" id="circle111"/>
	<circle cx="380.992" cy="948.077" r="4" fill="#0" id="circle112"/>
	<circle cx="384.187" cy="850.634" r="4" fill="#0" id="circle113"/>
	<circle cx="385.784" cy="83.8712" r="4" fill="#0" id="circle114"/>
	<circle cx="387.382" cy="695.684" r="4" fill="#0" id="circle115"/>
	<circle cx="387.382" cy="711.659" r="4" fill="#0" id="circle116"/>
	<circle cx="387.382" cy="727.633" r="4" fill="#0" id="circle117"/>
	<circle cx="392.174" cy="834.66" r="4" fill="#0" id="circle118"/>
	<circle cx="395.369" cy="742.01" r="4" fill="#0" id="circle119"/>
	<circle cx="395.369" cy="757.984" r="4" fill="#0" id="circle120"/>
	<circle cx="395.369" cy="815.491" r="4" fill="#0" id="circle121"/>
	<circle cx="396.966" cy="940.09" r="4" fill="#0" id="circle122"/>
	<circle cx="400.161" cy="75.8841" r="4" fill="#0" id="circle123"/>
	<circle cx="403.356" cy="772.361" r="4" fill="#0" id="circle124"/>
	<circle cx="403.356" cy="788.335" r="4" fill="#0" id="circle125"/>
	<circle cx="409.746" cy="928.908" r="4" fill="#0" id="circle126"/>
	<circle cx="416.135" cy="67.8969" r="4" fill="#0" id="circle127"/>
	<circle cx="420.928" cy="916.129" r="4" fill="#0" id="circle128"/>
	<circle cx="428.915" cy="900.155" r="4" fill="#0" id="circle129"/>
	<circle cx="430.512" cy="59.9098" r="4" fill="#0" id="circle130"/>
	<circle cx="441.694" cy="888.973" r="4" fill="#0" id="circle131"/>
	<circle cx="443.291" cy="48.7279" r="4" fill="#0" id="circle132"/>
	<circle cx="451.279" cy="32.7536" r="4" fill="#0" id="circle133"/>
	<circle cx="452.876" cy="876.193" r="4" fill="#0" id="circle134"/>
	<circle cx="459.266" cy="16.7794" r="4" fill="#0" id="circle135"/>
	<circle cx="460.863" cy="860.219" r="4" fill="#0" id="circle136"/>
	<circle cx="468.85" cy="844.245" r="4" fill="#0" id="circle137"/>
	<circle cx="472.045" cy="4" r="4" fill="#0" id="circle138"/>
	<circle cx="481.63" cy="833.063" r="4" fill="#0" id="circle139"/>
	<circle cx="484.824" cy="804.309" r="4" fill="#0" id="circle140"/>
	<circle cx="488.019" cy="4" r="4" fill="#0" id="circle141"/>
	<circle cx="497.604" cy="793.127" r="4" fill="#0" id="circle142"/>
	<circle cx="500.799" cy="13.5845" r="4" fill="#0" id="circle143"/>
	<circle cx="500.799" cy="756.386" r="4" fill="#0" id="circle144"/>
	<circle cx="500.799" cy="772.361" r="4" fill="#0" id="circle145"/>
	<circle cx="508.786" cy="27.9614" r="4" fill="#0" id="circle146"/>
	<circle cx="515.176" cy="748.399" r="4" fill="#0" id="circle147"/>
	<circle cx="516.773" cy="42.3382" r="4" fill="#0" id="circle148"/>
	<circle cx="519.968" cy="764.374" r="4" fill="#0" id="circle149"/>
	<circle cx="529.552" cy="53.5201" r="4" fill="#0" id="circle150"/>
	<circle cx="532.747" cy="775.556" r="4" fill="#0" id="circle151"/>
	<circle cx="540.734" cy="66.2995" r="4" fill="#0" id="circle152"/>
	<circle cx="543.929" cy="762.776" r="4" fill="#0" id="circle153"/>
	<circle cx="556.709" cy="67.8969" r="4" fill="#0" id="circle154"/>
	<circle cx="556.709" cy="732.425" r="4" fill="#0" id="circle155"/>
	<circle cx="556.709" cy="748.399" r="4" fill="#0" id="circle156"/>
	<circle cx="564.696" cy="692.49" r="4" fill="#0" id="circle157"/>
	<circle cx="564.696" cy="708.464" r="4" fill="#0" id="circle158"/>
	<circle cx="571.085" cy="75.8841" r="4" fill="#0" id="circle159"/>
	<circle cx="572.683" cy="676.515" r="4" fill="#0" id="circle160"/>
	<circle cx="583.865" cy="85.4686" r="4" fill="#0" id="circle161"/>
	<circle cx="587.06" cy="684.502" r="4" fill="#0" id="circle162"/>
	<circle cx="596.644" cy="96.6506" r="4" fill="#0" id="circle163"/>
	<circle cx="596.644" cy="697.282" r="4" fill="#0" id="circle164"/>
	<circle cx="607.826" cy="109.43" r="4" fill="#0" id="circle165"/>
	<circle cx="609.424" cy="708.464" r="4" fill="#0" id="circle166"/>
	<circle cx="620.605" cy="120.612" r="4" fill="#0" id="circle167"/>
	<circle cx="620.605" cy="692.49" r="4" fill="#0" id="circle168"/>
	<circle cx="628.593" cy="134.989" r="4" fill="#0" id="circle169"/>
	<circle cx="628.593" cy="676.515" r="4" fill="#0" id="circle170"/>
	<circle cx="636.58" cy="660.541" r="4" fill="#0" id="circle171"/>
	<circle cx="638.177" cy="147.768" r="4" fill="#0" id="circle172"/>
	<circle cx="644.567" cy="163.742" r="4" fill="#0" id="circle173"/>
	<circle cx="652.554" cy="178.119" r="4" fill="#0" id="circle174"/>
	<circle cx="652.554" cy="660.541" r="4" fill="#0" id="circle175"/>
	<circle cx="665.333" cy="189.301" r="4" fill="#0" id="circle176"/>
	<circle cx="668.528" cy="660.541" r="4" fill="#0" id="circle177"/>
	<circle cx="676.515" cy="202.081" r="4" fill="#0" id="circle178"/>
	<circle cx="684.502" cy="660.541" r="4" fill="#0" id="circle179"/>
	<circle cx="689.295" cy="213.262" r="4" fill="#0" id="circle180"/>
	<circle cx="700.477" cy="226.042" r="4" fill="#0" id="circle181"/>
	<circle cx="700.477" cy="652.554" r="4" fill="#0" id="circle182"/>
	<circle cx="713.256" cy="237.224" r="4" fill="#0" id="circle183"/>
	<circle cx="716.451" cy="644.567" r="4" fill="#0" id="circle184"/>
	<circle cx="724.438" cy="250.003" r="4" fill="#0" id="circle185"/>
	<circle cx="732.425" cy="636.58" r="4" fill="#0" id="circle186"/>
	<circle cx="737.217" cy="261.185" r="4" fill="#0" id="circle187"/>
	<circle cx="745.205" cy="625.398" r="4" fill="#0" id="circle188"/>
	<circle cx="748.399" cy="273.965" r="4" fill="#0" id="circle189"/>
	<circle cx="756.386" cy="612.618" r="4" fill="#0" id="circle190"/>
	<circle cx="761.179" cy="283.549" r="4" fill="#0" id="circle191"/>
	<circle cx="769.166" cy="601.436" r="4" fill="#0" id="circle192"/>
	<circle cx="775.556" cy="291.536" r="4" fill="#0" id="circle193"/>
	<circle cx="780.348" cy="580.67" r="4" fill="#0" id="circle194"/>
	<circle cx="788.335" cy="564.696" r="4" fill="#0" id="circle195"/>
	<circle cx="789.932" cy="299.523" r="4" fill="#0" id="circle196"/>
	<circle cx="801.114" cy="553.514" r="4" fill="#0" id="circle197"/>
	<circle cx="804.309" cy="307.51" r="4" fill="#0" id="circle198"/>
	<circle cx="812.296" cy="540.734" r="4" fill="#0" id="circle199"/>
	<circle cx="820.283" cy="312.303" r="4" fill="#0" id="circle200"/>
	<circle cx="820.283" cy="524.76" r="4" fill="#0" id="circle201"/>
	<circle cx="834.66" cy="320.29" r="4" fill="#0" id="circle202"/>
	<circle cx="834.66" cy="516.773" r="4" fill="#0" id="circle203"/>
	<circle cx="847.44" cy="507.188" r="4" fill="#0" id="circle204"/>
	<circle cx="850.634" cy="326.68" r="4" fill="#0" id="circle205"/>
	<circle cx="860.219" cy="492.812" r="4" fill="#0" id="circle206"/>
	<circle cx="865.011" cy="334.667" r="4" fill="#0" id="circle207"/>
	<circle cx="872.998" cy="481.63" r="4" fill="#0" id="circle208"/>
	<circle cx="876.193" cy="347.446" r="4" fill="#0" id="circle209"/>
	<circle cx="888.973" cy="473.643" r="4" fill="#0" id="circle210"/>
	<circle cx="892.167" cy="352.238" r="4" fill="#0" id="circle211"/>
	<circle cx="900.155" cy="460.863" r="4" fill="#0" id="circle212"/>
	<circle cx="903.349" cy="365.018" r="4" fill="#0" id="circle213"/>
	<circle cx="916.129" cy="452.876" r="4" fill="#0" id="circle214"/>
	<circle cx="919.324" cy="371.407" r="4" fill="#0" id="circle215"/>
	<circle cx="928.908" cy="441.694" r="4" fill="#0" id="circle216"/>
	<circle cx="930.506" cy="384.187" r="4" fill="#0" id="circle217"/>
	<circle cx="932.103" cy="400.161" r="4" fill="#0" id="circle218"/>
	<circle cx="940.09" cy="414.538" r="4" fill="#0" id="circle219"/>
	</g>
</svg>