<?xml version="1.0" encoding="UTF-8" standalone="no"?>
<!-- Created with CurveBenchmark -->
<svg
	xmlns:dc="http://purl.org/dc/elements/1.1/"
	xmlns:cc="http://creativecommons.org/ns#"
	xmlns:rdf="http://www.w3.org/1999/02/22-rdf-syntax-ns#"
	xmlns:svg="http://www.w3.org/2000/svg"
	xmlns="http://www.w3.org/2000/svg"
	xmlns:sodipodi="http://sodipodi.sourceforge.net/DTD/sodipodi-0.dtd"
	xmlns:inkscape="http://www.inkscape.org/namespaces/inkscape"
	width="1000"
	height="1000"
	id="svg2"
	version="1.1"
	sodipodi:docname="manifold/vicur-cat22.png.txt">
<defs
	id="defs4" />
<metadata
	id="metadata7">
	<rdf:RDF>
		<cc:Work
			rdf:about="">
			<dc:format>image/svg+xml</dc:format>
			<dc:type
				rdf:resource="http://purl.org/dc/dcmitype/StillImage" />
			<dc:title></dc:title>
		</cc:Work>
	</rdf:RDF>
</metadata>
<g
	inkscape:label="Layer 1"
	inkscape:groupmode="layer"
	id="layer1">
	<path style="fill:none;stroke:red;stroke-width:1px;stroke-linecap:butt;stroke-linejoin:miter;stroke-opacity:1" d="M 4,73.4111 4,87.8717 z" id="boundary" inkscape:connector-curvature="0" />
	<path style="fill:none;stroke:red;stroke-width:1px;stroke-linecap:butt;stroke-linejoin:miter;stroke-opacity:1" d="M 4,73.4111 15.5685,61.8426 z" id="boundary" inkscape:connector-curvature="0" />
	<path style="fill:none;stroke:red;stroke-width:1px;stroke-linecap:butt;stroke-linejoin:miter;stroke-opacity:1" d="M 4,87.8717 4,102.332 z" id="boundary" inkscape:connector-curvature="0" />
	<path style="fill:none;stroke:red;stroke-width:1px;stroke-linecap:butt;stroke-linejoin:miter;stroke-opacity:1" d="M 4,102.332 4,116.793 z" id="boundary" inkscape:connector-curvature="0" />
	<path style="fill:none;stroke:red;stroke-width:1px;stroke-linecap:butt;stroke-linejoin:miter;stroke-opacity:1" d="M 4,116.793 4,131.254 z" id="boundary" inkscape:connector-curvature="0" />
	<path style="fill:none;stroke:red;stroke-width:1px;stroke-linecap:butt;stroke-linejoin:miter;stroke-opacity:1" d="M 4,131.254 11.2303,144.268 z" id="boundary" inkscape:connector-curvature="0" />
	<path style="fill:none;stroke:red;stroke-width:1px;stroke-linecap:butt;stroke-linejoin:miter;stroke-opacity:1" d="M 11.2303,144.268 18.4606,157.283 z" id="boundary" inkscape:connector-curvature="0" />
	<path style="fill:none;stroke:red;stroke-width:1px;stroke-linecap:butt;stroke-linejoin:miter;stroke-opacity:1" d="M 15.5685,61.8426 27.137,50.2741 z" id="boundary" inkscape:connector-curvature="0" />
	<path style="fill:none;stroke:red;stroke-width:1px;stroke-linecap:butt;stroke-linejoin:miter;stroke-opacity:1" d="M 18.4606,157.283 31.4752,164.513 z" id="boundary" inkscape:connector-curvature="0" />
	<path style="fill:none;stroke:red;stroke-width:1px;stroke-linecap:butt;stroke-linejoin:miter;stroke-opacity:1" d="M 25.691,15.5685 32.9213,28.5831 z" id="boundary" inkscape:connector-curvature="0" />
	<path style="fill:none;stroke:red;stroke-width:1px;stroke-linecap:butt;stroke-linejoin:miter;stroke-opacity:1" d="M 25.691,15.5685 37.2595,4 z" id="boundary" inkscape:connector-curvature="0" />
	<path style="fill:none;stroke:red;stroke-width:1px;stroke-linecap:butt;stroke-linejoin:miter;stroke-opacity:1" d="M 27.137,50.2741 32.9213,28.5831 z" id="boundary" inkscape:connector-curvature="0" />
	<path style="fill:none;stroke:red;stroke-width:1px;stroke-linecap:butt;stroke-linejoin:miter;stroke-opacity:1" d="M 31.4752,164.513 44.4898,171.743 z" id="boundary" inkscape:connector-curvature="0" />
	<path style="fill:none;stroke:red;stroke-width:1px;stroke-linecap:butt;stroke-linejoin:miter;stroke-opacity:1" d="M 37.2595,4 50.2741,11.2303 z" id="boundary" inkscape:connector-curvature="0" />
	<path style="fill:none;stroke:red;stroke-width:1px;stroke-linecap:butt;stroke-linejoin:miter;stroke-opacity:1" d="M 44.4898,171.743 58.9504,171.743 z" id="boundary" inkscape:connector-curvature="0" />
	<path style="fill:none;stroke:red;stroke-width:1px;stroke-linecap:butt;stroke-linejoin:miter;stroke-opacity:1" d="M 50.2741,11.2303 64.7347,12.6764 z" id="boundary" inkscape:connector-curvature="0" />
	<path style="fill:none;stroke:red;stroke-width:1px;stroke-linecap:butt;stroke-linejoin:miter;stroke-opacity:1" d="M 58.9504,171.743 73.4111,177.528 z" id="boundary" inkscape:connector-curvature="0" />
	<path style="fill:none;stroke:red;stroke-width:1px;stroke-linecap:butt;stroke-linejoin:miter;stroke-opacity:1" d="M 64.7347,12.6764 79.1953,11.2303 z" id="boundary" inkscape:connector-curvature="0" />
	<path style="fill:none;stroke:red;stroke-width:1px;stroke-linecap:butt;stroke-linejoin:miter;stroke-opacity:1" d="M 73.4111,177.528 87.8717,178.974 z" id="boundary" inkscape:connector-curvature="0" />
	<path style="fill:none;stroke:red;stroke-width:1px;stroke-linecap:butt;stroke-linejoin:miter;stroke-opacity:1" d="M 79.1953,11.2303 92.2099,18.4606 z" id="boundary" inkscape:connector-curvature="0" />
	<path style="fill:none;stroke:red;stroke-width:1px;stroke-linecap:butt;stroke-linejoin:miter;stroke-opacity:1" d="M 87.8717,178.974 102.332,178.974 z" id="boundary" inkscape:connector-curvature="0" />
	<path style="fill:none;stroke:red;stroke-width:1px;stroke-linecap:butt;stroke-linejoin:miter;stroke-opacity:1" d="M 92.2099,18.4606 106.671,18.4606 z" id="boundary" inkscape:connector-curvature="0" />
	<path style="fill:none;stroke:red;stroke-width:1px;stroke-linecap:butt;stroke-linejoin:miter;stroke-opacity:1" d="M 102.332,178.974 116.793,184.758 z" id="boundary" inkscape:connector-curvature="0" />
	<path style="fill:none;stroke:red;stroke-width:1px;stroke-linecap:butt;stroke-linejoin:miter;stroke-opacity:1" d="M 106.671,18.4606 121.131,22.7988 z" id="boundary" inkscape:connector-curvature="0" />
	<path style="fill:none;stroke:red;stroke-width:1px;stroke-linecap:butt;stroke-linejoin:miter;stroke-opacity:1" d="M 116.793,184.758 129.808,191.988 z" id="boundary" inkscape:connector-curvature="0" />
	<path style="fill:none;stroke:red;stroke-width:1px;stroke-linecap:butt;stroke-linejoin:miter;stroke-opacity:1" d="M 121.131,22.7988 135.592,25.691 z" id="boundary" inkscape:connector-curvature="0" />
	<path style="fill:none;stroke:red;stroke-width:1px;stroke-linecap:butt;stroke-linejoin:miter;stroke-opacity:1" d="M 129.808,191.988 141.376,200.665 z" id="boundary" inkscape:connector-curvature="0" />
	<path style="fill:none;stroke:red;stroke-width:1px;stroke-linecap:butt;stroke-linejoin:miter;stroke-opacity:1" d="M 135.592,25.691 150.052,30.0292 z" id="boundary" inkscape:connector-curvature="0" />
	<path style="fill:none;stroke:red;stroke-width:1px;stroke-linecap:butt;stroke-linejoin:miter;stroke-opacity:1" d="M 141.376,200.665 148.606,213.679 z" id="boundary" inkscape:connector-curvature="0" />
	<path style="fill:none;stroke:red;stroke-width:1px;stroke-linecap:butt;stroke-linejoin:miter;stroke-opacity:1" d="M 148.606,213.679 157.283,225.248 z" id="boundary" inkscape:connector-curvature="0" />
	<path style="fill:none;stroke:red;stroke-width:1px;stroke-linecap:butt;stroke-linejoin:miter;stroke-opacity:1" d="M 150.052,30.0292 164.513,32.9213 z" id="boundary" inkscape:connector-curvature="0" />
	<path style="fill:none;stroke:red;stroke-width:1px;stroke-linecap:butt;stroke-linejoin:miter;stroke-opacity:1" d="M 155.837,420.466 164.513,432.035 z" id="boundary" inkscape:connector-curvature="0" />
	<path style="fill:none;stroke:red;stroke-width:1px;stroke-linecap:butt;stroke-linejoin:miter;stroke-opacity:1" d="M 155.837,420.466 167.405,408.898 z" id="boundary" inkscape:connector-curvature="0" />
	<path style="fill:none;stroke:red;stroke-width:1px;stroke-linecap:butt;stroke-linejoin:miter;stroke-opacity:1" d="M 157.283,225.248 170.297,232.478 z" id="boundary" inkscape:connector-curvature="0" />
	<path style="fill:none;stroke:red;stroke-width:1px;stroke-linecap:butt;stroke-linejoin:miter;stroke-opacity:1" d="M 164.513,32.9213 178.974,37.2595 z" id="boundary" inkscape:connector-curvature="0" />
	<path style="fill:none;stroke:red;stroke-width:1px;stroke-linecap:butt;stroke-linejoin:miter;stroke-opacity:1" d="M 164.513,432.035 178.974,432.035 z" id="boundary" inkscape:connector-curvature="0" />
	<path style="fill:none;stroke:red;stroke-width:1px;stroke-linecap:butt;stroke-linejoin:miter;stroke-opacity:1" d="M 167.405,408.898 180.42,401.668 z" id="boundary" inkscape:connector-curvature="0" />
	<path style="fill:none;stroke:red;stroke-width:1px;stroke-linecap:butt;stroke-linejoin:miter;stroke-opacity:1" d="M 170.297,232.478 181.866,242.601 z" id="boundary" inkscape:connector-curvature="0" />
	<path style="fill:none;stroke:red;stroke-width:1px;stroke-linecap:butt;stroke-linejoin:miter;stroke-opacity:1" d="M 178.974,37.2595 193.434,32.9213 z" id="boundary" inkscape:connector-curvature="0" />
	<path style="fill:none;stroke:red;stroke-width:1px;stroke-linecap:butt;stroke-linejoin:miter;stroke-opacity:1" d="M 178.974,432.035 193.434,432.035 z" id="boundary" inkscape:connector-curvature="0" />
	<path style="fill:none;stroke:red;stroke-width:1px;stroke-linecap:butt;stroke-linejoin:miter;stroke-opacity:1" d="M 180.42,401.668 191.988,391.545 z" id="boundary" inkscape:connector-curvature="0" />
	<path style="fill:none;stroke:red;stroke-width:1px;stroke-linecap:butt;stroke-linejoin:miter;stroke-opacity:1" d="M 181.866,242.601 191.988,254.169 z" id="boundary" inkscape:connector-curvature="0" />
	<path style="fill:none;stroke:red;stroke-width:1px;stroke-linecap:butt;stroke-linejoin:miter;stroke-opacity:1" d="M 191.988,254.169 203.557,264.292 z" id="boundary" inkscape:connector-curvature="0" />
	<path style="fill:none;stroke:red;stroke-width:1px;stroke-linecap:butt;stroke-linejoin:miter;stroke-opacity:1" d="M 191.988,391.545 203.557,379.977 z" id="boundary" inkscape:connector-curvature="0" />
	<path style="fill:none;stroke:red;stroke-width:1px;stroke-linecap:butt;stroke-linejoin:miter;stroke-opacity:1" d="M 193.434,32.9213 207.895,32.9213 z" id="boundary" inkscape:connector-curvature="0" />
	<path style="fill:none;stroke:red;stroke-width:1px;stroke-linecap:butt;stroke-linejoin:miter;stroke-opacity:1" d="M 193.434,432.035 207.895,432.035 z" id="boundary" inkscape:connector-curvature="0" />
	<path style="fill:none;stroke:red;stroke-width:1px;stroke-linecap:butt;stroke-linejoin:miter;stroke-opacity:1" d="M 203.557,264.292 209.341,278.752 z" id="boundary" inkscape:connector-curvature="0" />
	<path style="fill:none;stroke:red;stroke-width:1px;stroke-linecap:butt;stroke-linejoin:miter;stroke-opacity:1" d="M 203.557,379.977 206.449,355.394 z" id="boundary" inkscape:connector-curvature="0" />
	<path style="fill:none;stroke:red;stroke-width:1px;stroke-linecap:butt;stroke-linejoin:miter;stroke-opacity:1" d="M 206.449,355.394 213.679,336.595 z" id="boundary" inkscape:connector-curvature="0" />
	<path style="fill:none;stroke:red;stroke-width:1px;stroke-linecap:butt;stroke-linejoin:miter;stroke-opacity:1" d="M 207.895,32.9213 222.356,32.9213 z" id="boundary" inkscape:connector-curvature="0" />
	<path style="fill:none;stroke:red;stroke-width:1px;stroke-linecap:butt;stroke-linejoin:miter;stroke-opacity:1" d="M 207.895,432.035 222.356,424.805 z" id="boundary" inkscape:connector-curvature="0" />
	<path style="fill:none;stroke:red;stroke-width:1px;stroke-linecap:butt;stroke-linejoin:miter;stroke-opacity:1" d="M 209.341,278.752 213.679,293.213 z" id="boundary" inkscape:connector-curvature="0" />
	<path style="fill:none;stroke:red;stroke-width:1px;stroke-linecap:butt;stroke-linejoin:miter;stroke-opacity:1" d="M 213.679,293.213 213.679,307.673 z" id="boundary" inkscape:connector-curvature="0" />
	<path style="fill:none;stroke:red;stroke-width:1px;stroke-linecap:butt;stroke-linejoin:miter;stroke-opacity:1" d="M 213.679,307.673 213.679,322.134 z" id="boundary" inkscape:connector-curvature="0" />
	<path style="fill:none;stroke:red;stroke-width:1px;stroke-linecap:butt;stroke-linejoin:miter;stroke-opacity:1" d="M 213.679,322.134 213.679,336.595 z" id="boundary" inkscape:connector-curvature="0" />
	<path style="fill:none;stroke:red;stroke-width:1px;stroke-linecap:butt;stroke-linejoin:miter;stroke-opacity:1" d="M 222.356,32.9213 236.816,32.9213 z" id="boundary" inkscape:connector-curvature="0" />
	<path style="fill:none;stroke:red;stroke-width:1px;stroke-linecap:butt;stroke-linejoin:miter;stroke-opacity:1" d="M 222.356,424.805 233.924,414.682 z" id="boundary" inkscape:connector-curvature="0" />
	<path style="fill:none;stroke:red;stroke-width:1px;stroke-linecap:butt;stroke-linejoin:miter;stroke-opacity:1" d="M 233.924,414.682 244.047,403.114 z" id="boundary" inkscape:connector-curvature="0" />
	<path style="fill:none;stroke:red;stroke-width:1px;stroke-linecap:butt;stroke-linejoin:miter;stroke-opacity:1" d="M 236.816,32.9213 251.277,32.9213 z" id="boundary" inkscape:connector-curvature="0" />
	<path style="fill:none;stroke:red;stroke-width:1px;stroke-linecap:butt;stroke-linejoin:miter;stroke-opacity:1" d="M 244.047,403.114 251.277,381.423 z" id="boundary" inkscape:connector-curvature="0" />
	<path style="fill:none;stroke:red;stroke-width:1px;stroke-linecap:butt;stroke-linejoin:miter;stroke-opacity:1" d="M 251.277,32.9213 265.738,32.9213 z" id="boundary" inkscape:connector-curvature="0" />
	<path style="fill:none;stroke:red;stroke-width:1px;stroke-linecap:butt;stroke-linejoin:miter;stroke-opacity:1" d="M 251.277,381.423 262.845,371.3 z" id="boundary" inkscape:connector-curvature="0" />
	<path style="fill:none;stroke:red;stroke-width:1px;stroke-linecap:butt;stroke-linejoin:miter;stroke-opacity:1" d="M 262.845,371.3 272.968,352.501 z" id="boundary" inkscape:connector-curvature="0" />
	<path style="fill:none;stroke:red;stroke-width:1px;stroke-linecap:butt;stroke-linejoin:miter;stroke-opacity:1" d="M 265.738,32.9213 280.198,32.9213 z" id="boundary" inkscape:connector-curvature="0" />
	<path style="fill:none;stroke:red;stroke-width:1px;stroke-linecap:butt;stroke-linejoin:miter;stroke-opacity:1" d="M 272.968,352.501 285.983,345.271 z" id="boundary" inkscape:connector-curvature="0" />
	<path style="fill:none;stroke:red;stroke-width:1px;stroke-linecap:butt;stroke-linejoin:miter;stroke-opacity:1" d="M 280.198,32.9213 294.659,32.9213 z" id="boundary" inkscape:connector-curvature="0" />
	<path style="fill:none;stroke:red;stroke-width:1px;stroke-linecap:butt;stroke-linejoin:miter;stroke-opacity:1" d="M 285.983,345.271 300.443,345.271 z" id="boundary" inkscape:connector-curvature="0" />
	<path style="fill:none;stroke:red;stroke-width:1px;stroke-linecap:butt;stroke-linejoin:miter;stroke-opacity:1" d="M 294.659,32.9213 309.12,32.9213 z" id="boundary" inkscape:connector-curvature="0" />
	<path style="fill:none;stroke:red;stroke-width:1px;stroke-linecap:butt;stroke-linejoin:miter;stroke-opacity:1" d="M 300.443,345.271 309.12,356.84 z" id="boundary" inkscape:connector-curvature="0" />
	<path style="fill:none;stroke:red;stroke-width:1px;stroke-linecap:butt;stroke-linejoin:miter;stroke-opacity:1" d="M 309.12,32.9213 323.58,32.9213 z" id="boundary" inkscape:connector-curvature="0" />
	<path style="fill:none;stroke:red;stroke-width:1px;stroke-linecap:butt;stroke-linejoin:miter;stroke-opacity:1" d="M 309.12,356.84 322.134,364.07 z" id="boundary" inkscape:connector-curvature="0" />
	<path style="fill:none;stroke:red;stroke-width:1px;stroke-linecap:butt;stroke-linejoin:miter;stroke-opacity:1" d="M 322.134,364.07 323.58,378.531 z" id="boundary" inkscape:connector-curvature="0" />
	<path style="fill:none;stroke:red;stroke-width:1px;stroke-linecap:butt;stroke-linejoin:miter;stroke-opacity:1" d="M 323.58,32.9213 338.041,32.9213 z" id="boundary" inkscape:connector-curvature="0" />
	<path style="fill:none;stroke:red;stroke-width:1px;stroke-linecap:butt;stroke-linejoin:miter;stroke-opacity:1" d="M 323.58,301.889 326.472,316.35 z" id="boundary" inkscape:connector-curvature="0" />
	<path style="fill:none;stroke:red;stroke-width:1px;stroke-linecap:butt;stroke-linejoin:miter;stroke-opacity:1" d="M 323.58,301.889 330.81,287.429 z" id="boundary" inkscape:connector-curvature="0" />
	<path style="fill:none;stroke:red;stroke-width:1px;stroke-linecap:butt;stroke-linejoin:miter;stroke-opacity:1" d="M 323.58,378.531 335.149,388.653 z" id="boundary" inkscape:connector-curvature="0" />
	<path style="fill:none;stroke:red;stroke-width:1px;stroke-linecap:butt;stroke-linejoin:miter;stroke-opacity:1" d="M 326.472,316.35 338.041,326.472 z" id="boundary" inkscape:connector-curvature="0" />
	<path style="fill:none;stroke:red;stroke-width:1px;stroke-linecap:butt;stroke-linejoin:miter;stroke-opacity:1" d="M 330.81,287.429 345.271,287.429 z" id="boundary" inkscape:connector-curvature="0" />
	<path style="fill:none;stroke:red;stroke-width:1px;stroke-linecap:butt;stroke-linejoin:miter;stroke-opacity:1" d="M 335.149,388.653 349.609,385.761 z" id="boundary" inkscape:connector-curvature="0" />
	<path style="fill:none;stroke:red;stroke-width:1px;stroke-linecap:butt;stroke-linejoin:miter;stroke-opacity:1" d="M 338.041,32.9213 351.055,25.691 z" id="boundary" inkscape:connector-curvature="0" />
	<path style="fill:none;stroke:red;stroke-width:1px;stroke-linecap:butt;stroke-linejoin:miter;stroke-opacity:1" d="M 338.041,326.472 348.163,338.041 z" id="boundary" inkscape:connector-curvature="0" />
	<path style="fill:none;stroke:red;stroke-width:1px;stroke-linecap:butt;stroke-linejoin:miter;stroke-opacity:1" d="M 345.271,287.429 358.286,280.198 z" id="boundary" inkscape:connector-curvature="0" />
	<path style="fill:none;stroke:red;stroke-width:1px;stroke-linecap:butt;stroke-linejoin:miter;stroke-opacity:1" d="M 348.163,338.041 352.501,352.501 z" id="boundary" inkscape:connector-curvature="0" />
	<path style="fill:none;stroke:red;stroke-width:1px;stroke-linecap:butt;stroke-linejoin:miter;stroke-opacity:1" d="M 349.609,385.761 375.638,387.207 z" id="boundary" inkscape:connector-curvature="0" />
	<path style="fill:none;stroke:red;stroke-width:1px;stroke-linecap:butt;stroke-linejoin:miter;stroke-opacity:1" d="M 351.055,25.691 365.516,25.691 z" id="boundary" inkscape:connector-curvature="0" />
	<path style="fill:none;stroke:red;stroke-width:1px;stroke-linecap:butt;stroke-linejoin:miter;stroke-opacity:1" d="M 352.501,352.501 359.732,365.516 z" id="boundary" inkscape:connector-curvature="0" />
	<path style="fill:none;stroke:red;stroke-width:1px;stroke-linecap:butt;stroke-linejoin:miter;stroke-opacity:1" d="M 358.286,280.198 371.3,272.968 z" id="boundary" inkscape:connector-curvature="0" />
	<path style="fill:none;stroke:red;stroke-width:1px;stroke-linecap:butt;stroke-linejoin:miter;stroke-opacity:1" d="M 359.732,365.516 372.746,372.746 z" id="boundary" inkscape:connector-curvature="0" />
	<path style="fill:none;stroke:red;stroke-width:1px;stroke-linecap:butt;stroke-linejoin:miter;stroke-opacity:1" d="M 365.516,25.691 378.531,18.4606 z" id="boundary" inkscape:connector-curvature="0" />
	<path style="fill:none;stroke:red;stroke-width:1px;stroke-linecap:butt;stroke-linejoin:miter;stroke-opacity:1" d="M 371.3,272.968 385.761,272.968 z" id="boundary" inkscape:connector-curvature="0" />
	<path style="fill:none;stroke:red;stroke-width:1px;stroke-linecap:butt;stroke-linejoin:miter;stroke-opacity:1" d="M 372.746,372.746 385.761,365.516 z" id="boundary" inkscape:connector-curvature="0" />
	<path style="fill:none;stroke:red;stroke-width:1px;stroke-linecap:butt;stroke-linejoin:miter;stroke-opacity:1" d="M 375.638,387.207 387.207,395.883 z" id="boundary" inkscape:connector-curvature="0" />
	<path style="fill:none;stroke:red;stroke-width:1px;stroke-linecap:butt;stroke-linejoin:miter;stroke-opacity:1" d="M 378.531,18.4606 392.991,18.4606 z" id="boundary" inkscape:connector-curvature="0" />
	<path style="fill:none;stroke:red;stroke-width:1px;stroke-linecap:butt;stroke-linejoin:miter;stroke-opacity:1" d="M 385.761,272.968 400.222,272.968 z" id="boundary" inkscape:connector-curvature="0" />
	<path style="fill:none;stroke:red;stroke-width:1px;stroke-linecap:butt;stroke-linejoin:miter;stroke-opacity:1" d="M 385.761,365.516 398.776,358.286 z" id="boundary" inkscape:connector-curvature="0" />
	<path style="fill:none;stroke:red;stroke-width:1px;stroke-linecap:butt;stroke-linejoin:miter;stroke-opacity:1" d="M 387.207,395.883 401.668,395.883 z" id="boundary" inkscape:connector-curvature="0" />
	<path style="fill:none;stroke:red;stroke-width:1px;stroke-linecap:butt;stroke-linejoin:miter;stroke-opacity:1" d="M 392.991,18.4606 407.452,18.4606 z" id="boundary" inkscape:connector-curvature="0" />
	<path style="fill:none;stroke:red;stroke-width:1px;stroke-linecap:butt;stroke-linejoin:miter;stroke-opacity:1" d="M 398.776,358.286 413.236,358.286 z" id="boundary" inkscape:connector-curvature="0" />
	<path style="fill:none;stroke:red;stroke-width:1px;stroke-linecap:butt;stroke-linejoin:miter;stroke-opacity:1" d="M 400.222,272.968 414.682,272.968 z" id="boundary" inkscape:connector-curvature="0" />
	<path style="fill:none;stroke:red;stroke-width:1px;stroke-linecap:butt;stroke-linejoin:miter;stroke-opacity:1" d="M 401.668,395.883 416.128,395.883 z" id="boundary" inkscape:connector-curvature="0" />
	<path style="fill:none;stroke:red;stroke-width:1px;stroke-linecap:butt;stroke-linejoin:miter;stroke-opacity:1" d="M 407.452,18.4606 420.466,11.2303 z" id="boundary" inkscape:connector-curvature="0" />
	<path style="fill:none;stroke:red;stroke-width:1px;stroke-linecap:butt;stroke-linejoin:miter;stroke-opacity:1" d="M 413.236,358.286 424.805,346.717 z" id="boundary" inkscape:connector-curvature="0" />
	<path style="fill:none;stroke:red;stroke-width:1px;stroke-linecap:butt;stroke-linejoin:miter;stroke-opacity:1" d="M 414.682,272.968 429.143,272.968 z" id="boundary" inkscape:connector-curvature="0" />
	<path style="fill:none;stroke:red;stroke-width:1px;stroke-linecap:butt;stroke-linejoin:miter;stroke-opacity:1" d="M 416.128,395.883 429.143,388.653 z" id="boundary" inkscape:connector-curvature="0" />
	<path style="fill:none;stroke:red;stroke-width:1px;stroke-linecap:butt;stroke-linejoin:miter;stroke-opacity:1" d="M 420.466,11.2303 434.927,11.2303 z" id="boundary" inkscape:connector-curvature="0" />
	<path style="fill:none;stroke:red;stroke-width:1px;stroke-linecap:butt;stroke-linejoin:miter;stroke-opacity:1" d="M 424.805,346.717 436.373,336.595 z" id="boundary" inkscape:connector-curvature="0" />
	<path style="fill:none;stroke:red;stroke-width:1px;stroke-linecap:butt;stroke-linejoin:miter;stroke-opacity:1" d="M 429.143,272.968 439.265,284.536 z" id="boundary" inkscape:connector-curvature="0" />
	<path style="fill:none;stroke:red;stroke-width:1px;stroke-linecap:butt;stroke-linejoin:miter;stroke-opacity:1" d="M 429.143,388.653 442.157,381.423 z" id="boundary" inkscape:connector-curvature="0" />
	<path style="fill:none;stroke:red;stroke-width:1px;stroke-linecap:butt;stroke-linejoin:miter;stroke-opacity:1" d="M 434.927,11.2303 449.388,11.2303 z" id="boundary" inkscape:connector-curvature="0" />
	<path style="fill:none;stroke:red;stroke-width:1px;stroke-linecap:butt;stroke-linejoin:miter;stroke-opacity:1" d="M 436.373,336.595 449.388,329.364 z" id="boundary" inkscape:connector-curvature="0" />
	<path style="fill:none;stroke:red;stroke-width:1px;stroke-linecap:butt;stroke-linejoin:miter;stroke-opacity:1" d="M 439.265,284.536 453.726,290.321 z" id="boundary" inkscape:connector-curvature="0" />
	<path style="fill:none;stroke:red;stroke-width:1px;stroke-linecap:butt;stroke-linejoin:miter;stroke-opacity:1" d="M 442.157,381.423 455.172,374.192 z" id="boundary" inkscape:connector-curvature="0" />
	<path style="fill:none;stroke:red;stroke-width:1px;stroke-linecap:butt;stroke-linejoin:miter;stroke-opacity:1" d="M 449.388,11.2303 463.848,11.2303 z" id="boundary" inkscape:connector-curvature="0" />
	<path style="fill:none;stroke:red;stroke-width:1px;stroke-linecap:butt;stroke-linejoin:miter;stroke-opacity:1" d="M 449.388,329.364 459.51,304.781 z" id="boundary" inkscape:connector-curvature="0" />
	<path style="fill:none;stroke:red;stroke-width:1px;stroke-linecap:butt;stroke-linejoin:miter;stroke-opacity:1" d="M 453.726,290.321 459.51,304.781 z" id="boundary" inkscape:connector-curvature="0" />
	<path style="fill:none;stroke:red;stroke-width:1px;stroke-linecap:butt;stroke-linejoin:miter;stroke-opacity:1" d="M 455.172,374.192 468.187,366.962 z" id="boundary" inkscape:connector-curvature="0" />
	<path style="fill:none;stroke:red;stroke-width:1px;stroke-linecap:butt;stroke-linejoin:miter;stroke-opacity:1" d="M 463.848,11.2303 478.309,11.2303 z" id="boundary" inkscape:connector-curvature="0" />
	<path style="fill:none;stroke:red;stroke-width:1px;stroke-linecap:butt;stroke-linejoin:miter;stroke-opacity:1" d="M 468.187,366.962 482.647,359.732 z" id="boundary" inkscape:connector-curvature="0" />
	<path style="fill:none;stroke:red;stroke-width:1px;stroke-linecap:butt;stroke-linejoin:miter;stroke-opacity:1" d="M 478.309,11.2303 491.324,18.4606 z" id="boundary" inkscape:connector-curvature="0" />
	<path style="fill:none;stroke:red;stroke-width:1px;stroke-linecap:butt;stroke-linejoin:miter;stroke-opacity:1" d="M 482.647,359.732 497.108,352.501 z" id="boundary" inkscape:connector-curvature="0" />
	<path style="fill:none;stroke:red;stroke-width:1px;stroke-linecap:butt;stroke-linejoin:miter;stroke-opacity:1" d="M 491.324,18.4606 505.784,18.4606 z" id="boundary" inkscape:connector-curvature="0" />
	<path style="fill:none;stroke:red;stroke-width:1px;stroke-linecap:butt;stroke-linejoin:miter;stroke-opacity:1" d="M 497.108,352.501 508.676,342.379 z" id="boundary" inkscape:connector-curvature="0" />
	<path style="fill:none;stroke:red;stroke-width:1px;stroke-linecap:butt;stroke-linejoin:miter;stroke-opacity:1" d="M 505.784,18.4606 520.245,18.4606 z" id="boundary" inkscape:connector-curvature="0" />
	<path style="fill:none;stroke:red;stroke-width:1px;stroke-linecap:butt;stroke-linejoin:miter;stroke-opacity:1" d="M 508.676,342.379 518.799,330.81 z" id="boundary" inkscape:connector-curvature="0" />
	<path style="fill:none;stroke:red;stroke-width:1px;stroke-linecap:butt;stroke-linejoin:miter;stroke-opacity:1" d="M 518.799,330.81 526.029,316.35 z" id="boundary" inkscape:connector-curvature="0" />
	<path style="fill:none;stroke:red;stroke-width:1px;stroke-linecap:butt;stroke-linejoin:miter;stroke-opacity:1" d="M 520.245,18.4606 533.259,25.691 z" id="boundary" inkscape:connector-curvature="0" />
	<path style="fill:none;stroke:red;stroke-width:1px;stroke-linecap:butt;stroke-linejoin:miter;stroke-opacity:1" d="M 526.029,316.35 540.49,309.12 z" id="boundary" inkscape:connector-curvature="0" />
	<path style="fill:none;stroke:red;stroke-width:1px;stroke-linecap:butt;stroke-linejoin:miter;stroke-opacity:1" d="M 533.259,25.691 547.72,25.691 z" id="boundary" inkscape:connector-curvature="0" />
	<path style="fill:none;stroke:red;stroke-width:1px;stroke-linecap:butt;stroke-linejoin:miter;stroke-opacity:1" d="M 540.49,309.12 553.504,301.889 z" id="boundary" inkscape:connector-curvature="0" />
	<path style="fill:none;stroke:red;stroke-width:1px;stroke-linecap:butt;stroke-linejoin:miter;stroke-opacity:1" d="M 547.72,25.691 560.735,32.9213 z" id="boundary" inkscape:connector-curvature="0" />
	<path style="fill:none;stroke:red;stroke-width:1px;stroke-linecap:butt;stroke-linejoin:miter;stroke-opacity:1" d="M 553.504,301.889 567.965,297.551 z" id="boundary" inkscape:connector-curvature="0" />
	<path style="fill:none;stroke:red;stroke-width:1px;stroke-linecap:butt;stroke-linejoin:miter;stroke-opacity:1" d="M 560.735,32.9213 575.195,35.8134 z" id="boundary" inkscape:connector-curvature="0" />
	<path style="fill:none;stroke:red;stroke-width:1px;stroke-linecap:butt;stroke-linejoin:miter;stroke-opacity:1" d="M 567.965,297.551 582.426,294.659 z" id="boundary" inkscape:connector-curvature="0" />
	<path style="fill:none;stroke:red;stroke-width:1px;stroke-linecap:butt;stroke-linejoin:miter;stroke-opacity:1" d="M 575.195,35.8134 589.656,40.1516 z" id="boundary" inkscape:connector-curvature="0" />
	<path style="fill:none;stroke:red;stroke-width:1px;stroke-linecap:butt;stroke-linejoin:miter;stroke-opacity:1" d="M 582.426,294.659 596.886,294.659 z" id="boundary" inkscape:connector-curvature="0" />
	<path style="fill:none;stroke:red;stroke-width:1px;stroke-linecap:butt;stroke-linejoin:miter;stroke-opacity:1" d="M 589.656,40.1516 602.671,47.3819 z" id="boundary" inkscape:connector-curvature="0" />
	<path style="fill:none;stroke:red;stroke-width:1px;stroke-linecap:butt;stroke-linejoin:miter;stroke-opacity:1" d="M 596.886,294.659 609.901,301.889 z" id="boundary" inkscape:connector-curvature="0" />
	<path style="fill:none;stroke:red;stroke-width:1px;stroke-linecap:butt;stroke-linejoin:miter;stroke-opacity:1" d="M 602.671,47.3819 617.131,48.828 z" id="boundary" inkscape:connector-curvature="0" />
	<path style="fill:none;stroke:red;stroke-width:1px;stroke-linecap:butt;stroke-linejoin:miter;stroke-opacity:1" d="M 609.901,301.889 624.362,301.889 z" id="boundary" inkscape:connector-curvature="0" />
	<path style="fill:none;stroke:red;stroke-width:1px;stroke-linecap:butt;stroke-linejoin:miter;stroke-opacity:1" d="M 617.131,48.828 630.146,56.0583 z" id="boundary" inkscape:connector-curvature="0" />
	<path style="fill:none;stroke:red;stroke-width:1px;stroke-linecap:butt;stroke-linejoin:miter;stroke-opacity:1" d="M 624.362,301.889 637.376,309.12 z" id="boundary" inkscape:connector-curvature="0" />
	<path style="fill:none;stroke:red;stroke-width:1px;stroke-linecap:butt;stroke-linejoin:miter;stroke-opacity:1" d="M 630.146,56.0583 644.606,61.8426 z" id="boundary" inkscape:connector-curvature="0" />
	<path style="fill:none;stroke:red;stroke-width:1px;stroke-linecap:butt;stroke-linejoin:miter;stroke-opacity:1" d="M 637.376,309.12 650.391,316.35 z" id="boundary" inkscape:connector-curvature="0" />
	<path style="fill:none;stroke:red;stroke-width:1px;stroke-linecap:butt;stroke-linejoin:miter;stroke-opacity:1" d="M 640.268,398.776 647.499,384.315 z" id="boundary" inkscape:connector-curvature="0" />
	<path style="fill:none;stroke:red;stroke-width:1px;stroke-linecap:butt;stroke-linejoin:miter;stroke-opacity:1" d="M 640.268,398.776 651.837,408.898 z" id="boundary" inkscape:connector-curvature="0" />
	<path style="fill:none;stroke:red;stroke-width:1px;stroke-linecap:butt;stroke-linejoin:miter;stroke-opacity:1" d="M 644.606,61.8426 654.729,73.4111 z" id="boundary" inkscape:connector-curvature="0" />
	<path style="fill:none;stroke:red;stroke-width:1px;stroke-linecap:butt;stroke-linejoin:miter;stroke-opacity:1" d="M 647.499,384.315 661.959,377.085 z" id="boundary" inkscape:connector-curvature="0" />
	<path style="fill:none;stroke:red;stroke-width:1px;stroke-linecap:butt;stroke-linejoin:miter;stroke-opacity:1" d="M 650.391,316.35 664.851,320.688 z" id="boundary" inkscape:connector-curvature="0" />
	<path style="fill:none;stroke:red;stroke-width:1px;stroke-linecap:butt;stroke-linejoin:miter;stroke-opacity:1" d="M 651.837,408.898 663.405,417.574 z" id="boundary" inkscape:connector-curvature="0" />
	<path style="fill:none;stroke:red;stroke-width:1px;stroke-linecap:butt;stroke-linejoin:miter;stroke-opacity:1" d="M 654.729,73.4111 666.297,83.5335 z" id="boundary" inkscape:connector-curvature="0" />
	<path style="fill:none;stroke:red;stroke-width:1px;stroke-linecap:butt;stroke-linejoin:miter;stroke-opacity:1" d="M 661.959,377.085 673.528,365.516 z" id="boundary" inkscape:connector-curvature="0" />
	<path style="fill:none;stroke:red;stroke-width:1px;stroke-linecap:butt;stroke-linejoin:miter;stroke-opacity:1" d="M 663.405,417.574 677.866,417.574 z" id="boundary" inkscape:connector-curvature="0" />
	<path style="fill:none;stroke:red;stroke-width:1px;stroke-linecap:butt;stroke-linejoin:miter;stroke-opacity:1" d="M 664.851,320.688 679.312,323.58 z" id="boundary" inkscape:connector-curvature="0" />
	<path style="fill:none;stroke:red;stroke-width:1px;stroke-linecap:butt;stroke-linejoin:miter;stroke-opacity:1" d="M 666.297,83.5335 679.312,90.7638 z" id="boundary" inkscape:connector-curvature="0" />
	<path style="fill:none;stroke:red;stroke-width:1px;stroke-linecap:butt;stroke-linejoin:miter;stroke-opacity:1" d="M 673.528,365.516 683.65,352.501 z" id="boundary" inkscape:connector-curvature="0" />
	<path style="fill:none;stroke:red;stroke-width:1px;stroke-linecap:butt;stroke-linejoin:miter;stroke-opacity:1" d="M 677.866,417.574 692.327,410.344 z" id="boundary" inkscape:connector-curvature="0" />
	<path style="fill:none;stroke:red;stroke-width:1px;stroke-linecap:butt;stroke-linejoin:miter;stroke-opacity:1" d="M 679.312,90.7638 692.327,97.9942 z" id="boundary" inkscape:connector-curvature="0" />
	<path style="fill:none;stroke:red;stroke-width:1px;stroke-linecap:butt;stroke-linejoin:miter;stroke-opacity:1" d="M 679.312,323.58 683.65,338.041 z" id="boundary" inkscape:connector-curvature="0" />
	<path style="fill:none;stroke:red;stroke-width:1px;stroke-linecap:butt;stroke-linejoin:miter;stroke-opacity:1" d="M 683.65,338.041 683.65,352.501 z" id="boundary" inkscape:connector-curvature="0" />
	<path style="fill:none;stroke:red;stroke-width:1px;stroke-linecap:butt;stroke-linejoin:miter;stroke-opacity:1" d="M 692.327,97.9942 705.341,105.224 z" id="boundary" inkscape:connector-curvature="0" />
	<path style="fill:none;stroke:red;stroke-width:1px;stroke-linecap:butt;stroke-linejoin:miter;stroke-opacity:1" d="M 692.327,410.344 703.895,400.222 z" id="boundary" inkscape:connector-curvature="0" />
	<path style="fill:none;stroke:red;stroke-width:1px;stroke-linecap:butt;stroke-linejoin:miter;stroke-opacity:1" d="M 703.895,400.222 714.017,388.653 z" id="boundary" inkscape:connector-curvature="0" />
	<path style="fill:none;stroke:red;stroke-width:1px;stroke-linecap:butt;stroke-linejoin:miter;stroke-opacity:1" d="M 705.341,105.224 718.356,112.455 z" id="boundary" inkscape:connector-curvature="0" />
	<path style="fill:none;stroke:red;stroke-width:1px;stroke-linecap:butt;stroke-linejoin:miter;stroke-opacity:1" d="M 714.017,186.204 714.017,200.665 z" id="boundary" inkscape:connector-curvature="0" />
	<path style="fill:none;stroke:red;stroke-width:1px;stroke-linecap:butt;stroke-linejoin:miter;stroke-opacity:1" d="M 714.017,186.204 728.478,186.204 z" id="boundary" inkscape:connector-curvature="0" />
	<path style="fill:none;stroke:red;stroke-width:1px;stroke-linecap:butt;stroke-linejoin:miter;stroke-opacity:1" d="M 714.017,200.665 714.017,215.125 z" id="boundary" inkscape:connector-curvature="0" />
	<path style="fill:none;stroke:red;stroke-width:1px;stroke-linecap:butt;stroke-linejoin:miter;stroke-opacity:1" d="M 714.017,215.125 714.017,229.586 z" id="boundary" inkscape:connector-curvature="0" />
	<path style="fill:none;stroke:red;stroke-width:1px;stroke-linecap:butt;stroke-linejoin:miter;stroke-opacity:1" d="M 714.017,229.586 716.91,244.047 z" id="boundary" inkscape:connector-curvature="0" />
	<path style="fill:none;stroke:red;stroke-width:1px;stroke-linecap:butt;stroke-linejoin:miter;stroke-opacity:1" d="M 714.017,374.192 714.017,388.653 z" id="boundary" inkscape:connector-curvature="0" />
	<path style="fill:none;stroke:red;stroke-width:1px;stroke-linecap:butt;stroke-linejoin:miter;stroke-opacity:1" d="M 714.017,374.192 725.586,364.07 z" id="boundary" inkscape:connector-curvature="0" />
	<path style="fill:none;stroke:red;stroke-width:1px;stroke-linecap:butt;stroke-linejoin:miter;stroke-opacity:1" d="M 716.91,244.047 721.248,258.507 z" id="boundary" inkscape:connector-curvature="0" />
	<path style="fill:none;stroke:red;stroke-width:1px;stroke-linecap:butt;stroke-linejoin:miter;stroke-opacity:1" d="M 718.356,112.455 732.816,112.455 z" id="boundary" inkscape:connector-curvature="0" />
	<path style="fill:none;stroke:red;stroke-width:1px;stroke-linecap:butt;stroke-linejoin:miter;stroke-opacity:1" d="M 721.248,258.507 728.478,271.522 z" id="boundary" inkscape:connector-curvature="0" />
	<path style="fill:none;stroke:red;stroke-width:1px;stroke-linecap:butt;stroke-linejoin:miter;stroke-opacity:1" d="M 725.586,364.07 728.478,345.271 z" id="boundary" inkscape:connector-curvature="0" />
	<path style="fill:none;stroke:red;stroke-width:1px;stroke-linecap:butt;stroke-linejoin:miter;stroke-opacity:1" d="M 728.478,186.204 742.939,186.204 z" id="boundary" inkscape:connector-curvature="0" />
	<path style="fill:none;stroke:red;stroke-width:1px;stroke-linecap:butt;stroke-linejoin:miter;stroke-opacity:1" d="M 728.478,271.522 735.708,284.536 z" id="boundary" inkscape:connector-curvature="0" />
	<path style="fill:none;stroke:red;stroke-width:1px;stroke-linecap:butt;stroke-linejoin:miter;stroke-opacity:1" d="M 728.478,330.81 728.478,345.271 z" id="boundary" inkscape:connector-curvature="0" />
	<path style="fill:none;stroke:red;stroke-width:1px;stroke-linecap:butt;stroke-linejoin:miter;stroke-opacity:1" d="M 728.478,330.81 735.708,313.458 z" id="boundary" inkscape:connector-curvature="0" />
	<path style="fill:none;stroke:red;stroke-width:1px;stroke-linecap:butt;stroke-linejoin:miter;stroke-opacity:1" d="M 732.816,112.455 745.831,119.685 z" id="boundary" inkscape:connector-curvature="0" />
	<path style="fill:none;stroke:red;stroke-width:1px;stroke-linecap:butt;stroke-linejoin:miter;stroke-opacity:1" d="M 735.708,284.536 735.708,298.997 z" id="boundary" inkscape:connector-curvature="0" />
	<path style="fill:none;stroke:red;stroke-width:1px;stroke-linecap:butt;stroke-linejoin:miter;stroke-opacity:1" d="M 735.708,298.997 735.708,313.458 z" id="boundary" inkscape:connector-curvature="0" />
	<path style="fill:none;stroke:red;stroke-width:1px;stroke-linecap:butt;stroke-linejoin:miter;stroke-opacity:1" d="M 742.939,186.204 755.953,193.434 z" id="boundary" inkscape:connector-curvature="0" />
	<path style="fill:none;stroke:red;stroke-width:1px;stroke-linecap:butt;stroke-linejoin:miter;stroke-opacity:1" d="M 745.831,119.685 760.292,119.685 z" id="boundary" inkscape:connector-curvature="0" />
	<path style="fill:none;stroke:red;stroke-width:1px;stroke-linecap:butt;stroke-linejoin:miter;stroke-opacity:1" d="M 755.953,193.434 770.414,193.434 z" id="boundary" inkscape:connector-curvature="0" />
	<path style="fill:none;stroke:red;stroke-width:1px;stroke-linecap:butt;stroke-linejoin:miter;stroke-opacity:1" d="M 760.292,119.685 773.306,126.915 z" id="boundary" inkscape:connector-curvature="0" />
	<path style="fill:none;stroke:red;stroke-width:1px;stroke-linecap:butt;stroke-linejoin:miter;stroke-opacity:1" d="M 770.414,193.434 783.429,186.204 z" id="boundary" inkscape:connector-curvature="0" />
	<path style="fill:none;stroke:red;stroke-width:1px;stroke-linecap:butt;stroke-linejoin:miter;stroke-opacity:1" d="M 773.306,126.915 787.767,126.915 z" id="boundary" inkscape:connector-curvature="0" />
	<path style="fill:none;stroke:red;stroke-width:1px;stroke-linecap:butt;stroke-linejoin:miter;stroke-opacity:1" d="M 783.429,186.204 797.889,186.204 z" id="boundary" inkscape:connector-curvature="0" />
	<path style="fill:none;stroke:red;stroke-width:1px;stroke-linecap:butt;stroke-linejoin:miter;stroke-opacity:1" d="M 787.767,126.915 800.781,134.146 z" id="boundary" inkscape:connector-curvature="0" />
	<path style="fill:none;stroke:red;stroke-width:1px;stroke-linecap:butt;stroke-linejoin:miter;stroke-opacity:1" d="M 797.889,186.204 812.35,186.204 z" id="boundary" inkscape:connector-curvature="0" />
	<path style="fill:none;stroke:red;stroke-width:1px;stroke-linecap:butt;stroke-linejoin:miter;stroke-opacity:1" d="M 800.781,134.146 815.242,134.146 z" id="boundary" inkscape:connector-curvature="0" />
	<path style="fill:none;stroke:red;stroke-width:1px;stroke-linecap:butt;stroke-linejoin:miter;stroke-opacity:1" d="M 812.35,186.204 825.364,178.974 z" id="boundary" inkscape:connector-curvature="0" />
	<path style="fill:none;stroke:red;stroke-width:1px;stroke-linecap:butt;stroke-linejoin:miter;stroke-opacity:1" d="M 815.242,134.146 828.257,126.915 z" id="boundary" inkscape:connector-curvature="0" />
	<path style="fill:none;stroke:red;stroke-width:1px;stroke-linecap:butt;stroke-linejoin:miter;stroke-opacity:1" d="M 825.364,178.974 839.825,178.974 z" id="boundary" inkscape:connector-curvature="0" />
	<path style="fill:none;stroke:red;stroke-width:1px;stroke-linecap:butt;stroke-linejoin:miter;stroke-opacity:1" d="M 828.257,126.915 842.717,126.915 z" id="boundary" inkscape:connector-curvature="0" />
	<path style="fill:none;stroke:red;stroke-width:1px;stroke-linecap:butt;stroke-linejoin:miter;stroke-opacity:1" d="M 839.825,178.974 852.84,171.743 z" id="boundary" inkscape:connector-curvature="0" />
	<path style="fill:none;stroke:red;stroke-width:1px;stroke-linecap:butt;stroke-linejoin:miter;stroke-opacity:1" d="M 842.717,126.915 857.178,126.915 z" id="boundary" inkscape:connector-curvature="0" />
	<path style="fill:none;stroke:red;stroke-width:1px;stroke-linecap:butt;stroke-linejoin:miter;stroke-opacity:1" d="M 852.84,171.743 867.3,171.743 z" id="boundary" inkscape:connector-curvature="0" />
	<path style="fill:none;stroke:red;stroke-width:1px;stroke-linecap:butt;stroke-linejoin:miter;stroke-opacity:1" d="M 857.178,126.915 870.192,119.685 z" id="boundary" inkscape:connector-curvature="0" />
	<path style="fill:none;stroke:red;stroke-width:1px;stroke-linecap:butt;stroke-linejoin:miter;stroke-opacity:1" d="M 867.3,171.743 881.761,171.743 z" id="boundary" inkscape:connector-curvature="0" />
	<path style="fill:none;stroke:red;stroke-width:1px;stroke-linecap:butt;stroke-linejoin:miter;stroke-opacity:1" d="M 870.192,119.685 884.653,119.685 z" id="boundary" inkscape:connector-curvature="0" />
	<path style="fill:none;stroke:red;stroke-width:1px;stroke-linecap:butt;stroke-linejoin:miter;stroke-opacity:1" d="M 881.761,171.743 896.222,171.743 z" id="boundary" inkscape:connector-curvature="0" />
	<path style="fill:none;stroke:red;stroke-width:1px;stroke-linecap:butt;stroke-linejoin:miter;stroke-opacity:1" d="M 884.653,119.685 899.114,119.685 z" id="boundary" inkscape:connector-curvature="0" />
	<path style="fill:none;stroke:red;stroke-width:1px;stroke-linecap:butt;stroke-linejoin:miter;stroke-opacity:1" d="M 896.222,171.743 910.682,171.743 z" id="boundary" inkscape:connector-curvature="0" />
	<path style="fill:none;stroke:red;stroke-width:1px;stroke-linecap:butt;stroke-linejoin:miter;stroke-opacity:1" d="M 899.114,119.685 913.574,119.685 z" id="boundary" inkscape:connector-curvature="0" />
	<path style="fill:none;stroke:red;stroke-width:1px;stroke-linecap:butt;stroke-linejoin:miter;stroke-opacity:1" d="M 910.682,171.743 925.143,171.743 z" id="boundary" inkscape:connector-curvature="0" />
	<path style="fill:none;stroke:red;stroke-width:1px;stroke-linecap:butt;stroke-linejoin:miter;stroke-opacity:1" d="M 913.574,119.685 928.035,119.685 z" id="boundary" inkscape:connector-curvature="0" />
	<path style="fill:none;stroke:red;stroke-width:1px;stroke-linecap:butt;stroke-linejoin:miter;stroke-opacity:1" d="M 925.143,171.743 938.157,164.513 z" id="boundary" inkscape:connector-curvature="0" />
	<path style="fill:none;stroke:red;stroke-width:1px;stroke-linecap:butt;stroke-linejoin:miter;stroke-opacity:1" d="M 928.035,119.685 942.496,119.685 z" id="boundary" inkscape:connector-curvature="0" />
	<path style="fill:none;stroke:red;stroke-width:1px;stroke-linecap:butt;stroke-linejoin:miter;stroke-opacity:1" d="M 938.157,164.513 952.618,157.283 z" id="boundary" inkscape:connector-curvature="0" />
	<path style="fill:none;stroke:red;stroke-width:1px;stroke-linecap:butt;stroke-linejoin:miter;stroke-opacity:1" d="M 942.496,119.685 952.618,108.117 z" id="boundary" inkscape:connector-curvature="0" />
	<path style="fill:none;stroke:red;stroke-width:1px;stroke-linecap:butt;stroke-linejoin:miter;stroke-opacity:1" d="M 952.618,108.117 967.079,100.886 z" id="boundary" inkscape:connector-curvature="0" />
	<path style="fill:none;stroke:red;stroke-width:1px;stroke-linecap:butt;stroke-linejoin:miter;stroke-opacity:1" d="M 952.618,157.283 967.079,150.052 z" id="boundary" inkscape:connector-curvature="0" />
	<path style="fill:none;stroke:red;stroke-width:1px;stroke-linecap:butt;stroke-linejoin:miter;stroke-opacity:1" d="M 967.079,100.886 981.539,93.656 z" id="boundary" inkscape:connector-curvature="0" />
	<path style="fill:none;stroke:red;stroke-width:1px;stroke-linecap:butt;stroke-linejoin:miter;stroke-opacity:1" d="M 967.079,150.052 978.647,139.93 z" id="boundary" inkscape:connector-curvature="0" />
	<path style="fill:none;stroke:red;stroke-width:1px;stroke-linecap:butt;stroke-linejoin:miter;stroke-opacity:1" d="M 978.647,139.93 988.77,128.362 z" id="boundary" inkscape:connector-curvature="0" />
	<path style="fill:none;stroke:red;stroke-width:1px;stroke-linecap:butt;stroke-linejoin:miter;stroke-opacity:1" d="M 981.539,93.656 996,95.102 z" id="boundary" inkscape:connector-curvature="0" />
	<path style="fill:none;stroke:red;stroke-width:1px;stroke-linecap:butt;stroke-linejoin:miter;stroke-opacity:1" d="M 988.77,128.362 996,113.901 z" id="boundary" inkscape:connector-curvature="0" />
	<path style="fill:none;stroke:red;stroke-width:1px;stroke-linecap:butt;stroke-linejoin:miter;stroke-opacity:1" d="M 996,95.102 996,113.901 z" id="boundary" inkscape:connector-curvature="0" />
	<circle cx="4" cy="73.4111" r="4" fill="#0" id="circle0"/>
	<circle cx="4" cy="87.8717" r="4" fill="#0" id="circle1"/>
	<circle cx="4" cy="102.332" r="4" fill="#0" id="circle2"/>
	<circle cx="4" cy="116.793" r="4" fill="#0" id="circle3"/>
	<circle cx="4" cy="131.254" r="4" fill="#0" id="circle4"/>
	<circle cx="11.2303" cy="144.268" r="4" fill="#0" id="circle5"/>
	<circle cx="15.5685" cy="61.8426" r="4" fill="#0" id="circle6"/>
	<circle cx="18.4606" cy="157.283" r="4" fill="#0" id="circle7"/>
	<circle cx="25.691" cy="15.5685" r="4" fill="#0" id="circle8"/>
	<circle cx="27.137" cy="50.2741" r="4" fill="#0" id="circle9"/>
	<circle cx="31.4752" cy="164.513" r="4" fill="#0" id="circle10"/>
	<circle cx="32.9213" cy="28.5831" r="4" fill="#0" id="circle11"/>
	<circle cx="37.2595" cy="4" r="4" fill="#0" id="circle12"/>
	<circle cx="44.4898" cy="171.743" r="4" fill="#0" id="circle13"/>
	<circle cx="50.2741" cy="11.2303" r="4" fill="#0" id="circle14"/>
	<circle cx="58.9504" cy="171.743" r="4" fill="#0" id="circle15"/>
	<circle cx="64.7347" cy="12.6764" r="4" fill="#0" id="circle16"/>
	<circle cx="73.4111" cy="177.528" r="4" fill="#0" id="circle17"/>
	<circle cx="79.1953" cy="11.2303" r="4" fill="#0" id="circle18"/>
	<circle cx="87.8717" cy="178.974" r="4" fill="#0" id="circle19"/>
	<circle cx="92.2099" cy="18.4606" r="4" fill="#0" id="circle20"/>
	<circle cx="102.332" cy="178.974" r="4" fill="#0" id="circle21"/>
	<circle cx="106.671" cy="18.4606" r="4" fill="#0" id="circle22"/>
	<circle cx="116.793" cy="184.758" r="4" fill="#0" id="circle23"/>
	<circle cx="121.131" cy="22.7988" r="4" fill="#0" id="circle24"/>
	<circle cx="129.808" cy="191.988" r="4" fill="#0" id="circle25"/>
	<circle cx="135.592" cy="25.691" r="4" fill="#0" id="circle26"/>
	<circle cx="141.376" cy="200.665" r="4" fill="#0" id="circle27"/>
	<circle cx="148.606" cy="213.679" r="4" fill="#0" id="circle28"/>
	<circle cx="150.052" cy="30.0292" r="4" fill="#0" id="circle29"/>
	<circle cx="155.837" cy="420.466" r="4" fill="#0" id="circle30"/>
	<circle cx="157.283" cy="225.248" r="4" fill="#0" id="circle31"/>
	<circle cx="164.513" cy="32.9213" r="4" fill="#0" id="circle32"/>
	<circle cx="164.513" cy="432.035" r="4" fill="#0" id="circle33"/>
	<circle cx="167.405" cy="408.898" r="4" fill="#0" id="circle34"/>
	<circle cx="170.297" cy="232.478" r="4" fill="#0" id="circle35"/>
	<circle cx="178.974" cy="37.2595" r="4" fill="#0" id="circle36"/>
	<circle cx="178.974" cy="432.035" r="4" fill="#0" id="circle37"/>
	<circle cx="180.42" cy="401.668" r="4" fill="#0" id="circle38"/>
	<circle cx="181.866" cy="242.601" r="4" fill="#0" id="circle39"/>
	<circle cx="191.988" cy="254.169" r="4" fill="#0" id="circle40"/>
	<circle cx="191.988" cy="391.545" r="4" fill="#0" id="circle41"/>
	<circle cx="193.434" cy="32.9213" r="4" fill="#0" id="circle42"/>
	<circle cx="193.434" cy="432.035" r="4" fill="#0" id="circle43"/>
	<circle cx="203.557" cy="264.292" r="4" fill="#0" id="circle44"/>
	<circle cx="203.557" cy="379.977" r="4" fill="#0" id="circle45"/>
	<circle cx="206.449" cy="355.394" r="4" fill="#0" id="circle46"/>
	<circle cx="207.895" cy="32.9213" r="4" fill="#0" id="circle47"/>
	<circle cx="207.895" cy="432.035" r="4" fill="#0" id="circle48"/>
	<circle cx="209.341" cy="278.752" r="4" fill="#0" id="circle49"/>
	<circle cx="213.679" cy="293.213" r="4" fill="#0" id="circle50"/>
	<circle cx="213.679" cy="307.673" r="4" fill="#0" id="circle51"/>
	<circle cx="213.679" cy="322.134" r="4" fill="#0" id="circle52"/>
	<circle cx="213.679" cy="336.595" r="4" fill="#0" id="circle53"/>
	<circle cx="222.356" cy="32.9213" r="4" fill="#0" id="circle54"/>
	<circle cx="222.356" cy="424.805" r="4" fill="#0" id="circle55"/>
	<circle cx="233.924" cy="414.682" r="4" fill="#0" id="circle56"/>
	<circle cx="236.816" cy="32.9213" r="4" fill="#0" id="circle57"/>
	<circle cx="244.047" cy="403.114" r="4" fill="#0" id="circle58"/>
	<circle cx="251.277" cy="32.9213" r="4" fill="#0" id="circle59"/>
	<circle cx="251.277" cy="381.423" r="4" fill="#0" id="circle60"/>
	<circle cx="262.845" cy="371.3" r="4" fill="#0" id="circle61"/>
	<circle cx="265.738" cy="32.9213" r="4" fill="#0" id="circle62"/>
	<circle cx="272.968" cy="352.501" r="4" fill="#0" id="circle63"/>
	<circle cx="280.198" cy="32.9213" r="4" fill="#0" id="circle64"/>
	<circle cx="285.983" cy="345.271" r="4" fill="#0" id="circle65"/>
	<circle cx="294.659" cy="32.9213" r="4" fill="#0" id="circle66"/>
	<circle cx="300.443" cy="345.271" r="4" fill="#0" id="circle67"/>
	<circle cx="309.12" cy="32.9213" r="4" fill="#0" id="circle68"/>
	<circle cx="309.12" cy="356.84" r="4" fill="#0" id="circle69"/>
	<circle cx="322.134" cy="364.07" r="4" fill="#0" id="circle70"/>
	<circle cx="323.58" cy="32.9213" r="4" fill="#0" id="circle71"/>
	<circle cx="323.58" cy="301.889" r="4" fill="#0" id="circle72"/>
	<circle cx="323.58" cy="378.531" r="4" fill="#0" id="circle73"/>
	<circle cx="326.472" cy="316.35" r="4" fill="#0" id="circle74"/>
	<circle cx="330.81" cy="287.429" r="4" fill="#0" id="circle75"/>
	<circle cx="335.149" cy="388.653" r="4" fill="#0" id="circle76"/>
	<circle cx="338.041" cy="32.9213" r="4" fill="#0" id="circle77"/>
	<circle cx="338.041" cy="326.472" r="4" fill="#0" id="circle78"/>
	<circle cx="345.271" cy="287.429" r="4" fill="#0" id="circle79"/>
	<circle cx="348.163" cy="338.041" r="4" fill="#0" id="circle80"/>
	<circle cx="349.609" cy="385.761" r="4" fill="#0" id="circle81"/>
	<circle cx="351.055" cy="25.691" r="4" fill="#0" id="circle82"/>
	<circle cx="352.501" cy="352.501" r="4" fill="#0" id="circle83"/>
	<circle cx="358.286" cy="280.198" r="4" fill="#0" id="circle84"/>
	<circle cx="359.732" cy="365.516" r="4" fill="#0" id="circle85"/>
	<circle cx="365.516" cy="25.691" r="4" fill="#0" id="circle86"/>
	<circle cx="371.3" cy="272.968" r="4" fill="#0" id="circle87"/>
	<circle cx="372.746" cy="372.746" r="4" fill="#0" id="circle88"/>
	<circle cx="375.638" cy="387.207" r="4" fill="#0" id="circle89"/>
	<circle cx="378.531" cy="18.4606" r="4" fill="#0" id="circle90"/>
	<circle cx="385.761" cy="272.968" r="4" fill="#0" id="circle91"/>
	<circle cx="385.761" cy="365.516" r="4" fill="#0" id="circle92"/>
	<circle cx="387.207" cy="395.883" r="4" fill="#0" id="circle93"/>
	<circle cx="392.991" cy="18.4606" r="4" fill="#0" id="circle94"/>
	<circle cx="398.776" cy="358.286" r="4" fill="#0" id="circle95"/>
	<circle cx="400.222" cy="272.968" r="4" fill="#0" id="circle96"/>
	<circle cx="401.668" cy="395.883" r="4" fill="#0" id="circle97"/>
	<circle cx="407.452" cy="18.4606" r="4" fill="#0" id="circle98"/>
	<circle cx="413.236" cy="358.286" r="4" fill="#0" id="circle99"/>
	<circle cx="414.682" cy="272.968" r="4" fill="#0" id="circle100"/>
	<circle cx="416.128" cy="395.883" r="4" fill="#0" id="circle101"/>
	<circle cx="420.466" cy="11.2303" r="4" fill="#0" id="circle102"/>
	<circle cx="424.805" cy="346.717" r="4" fill="#0" id="circle103"/>
	<circle cx="429.143" cy="272.968" r="4" fill="#0" id="circle104"/>
	<circle cx="429.143" cy="388.653" r="4" fill="#0" id="circle105"/>
	<circle cx="434.927" cy="11.2303" r="4" fill="#0" id="circle106"/>
	<circle cx="436.373" cy="336.595" r="4" fill="#0" id="circle107"/>
	<circle cx="439.265" cy="284.536" r="4" fill="#0" id="circle108"/>
	<circle cx="442.157" cy="381.423" r="4" fill="#0" id="circle109"/>
	<circle cx="449.388" cy="11.2303" r="4" fill="#0" id="circle110"/>
	<circle cx="449.388" cy="329.364" r="4" fill="#0" id="circle111"/>
	<circle cx="453.726" cy="290.321" r="4" fill="#0" id="circle112"/>
	<circle cx="455.172" cy="374.192" r="4" fill="#0" id="circle113"/>
	<circle cx="459.51" cy="304.781" r="4" fill="#0" id="circle114"/>
	<circle cx="463.848" cy="11.2303" r="4" fill="#0" id="circle115"/>
	<circle cx="468.187" cy="366.962" r="4" fill="#0" id="circle116"/>
	<circle cx="478.309" cy="11.2303" r="4" fill="#0" id="circle117"/>
	<circle cx="482.647" cy="359.732" r="4" fill="#0" id="circle118"/>
	<circle cx="491.324" cy="18.4606" r="4" fill="#0" id="circle119"/>
	<circle cx="497.108" cy="352.501" r="4" fill="#0" id="circle120"/>
	<circle cx="505.784" cy="18.4606" r="4" fill="#0" id="circle121"/>
	<circle cx="508.676" cy="342.379" r="4" fill="#0" id="circle122"/>
	<circle cx="518.799" cy="330.81" r="4" fill="#0" id="circle123"/>
	<circle cx="520.245" cy="18.4606" r="4" fill="#0" id="circle124"/>
	<circle cx="526.029" cy="316.35" r="4" fill="#0" id="circle125"/>
	<circle cx="533.259" cy="25.691" r="4" fill="#0" id="circle126"/>
	<circle cx="540.49" cy="309.12" r="4" fill="#0" id="circle127"/>
	<circle cx="547.72" cy="25.691" r="4" fill="#0" id="circle128"/>
	<circle cx="553.504" cy="301.889" r="4" fill="#0" id="circle129"/>
	<circle cx="560.735" cy="32.9213" r="4" fill="#0" id="circle130"/>
	<circle cx="567.965" cy="297.551" r="4" fill="#0" id="circle131"/>
	<circle cx="575.195" cy="35.8134" r="4" fill="#0" id="circle132"/>
	<circle cx="582.426" cy="294.659" r="4" fill="#0" id="circle133"/>
	<circle cx="589.656" cy="40.1516" r="4" fill="#0" id="circle134"/>
	<circle cx="596.886" cy="294.659" r="4" fill="#0" id="circle135"/>
	<circle cx="602.671" cy="47.3819" r="4" fill="#0" id="circle136"/>
	<circle cx="609.901" cy="301.889" r="4" fill="#0" id="circle137"/>
	<circle cx="617.131" cy="48.828" r="4" fill="#0" id="circle138"/>
	<circle cx="624.362" cy="301.889" r="4" fill="#0" id="circle139"/>
	<circle cx="630.146" cy="56.0583" r="4" fill="#0" id="circle140"/>
	<circle cx="637.376" cy="309.12" r="4" fill="#0" id="circle141"/>
	<circle cx="640.268" cy="398.776" r="4" fill="#0" id="circle142"/>
	<circle cx="644.606" cy="61.8426" r="4" fill="#0" id="circle143"/>
	<circle cx="647.499" cy="384.315" r="4" fill="#0" id="circle144"/>
	<circle cx="650.391" cy="316.35" r="4" fill="#0" id="circle145"/>
	<circle cx="651.837" cy="408.898" r="4" fill="#0" id="circle146"/>
	<circle cx="654.729" cy="73.4111" r="4" fill="#0" id="circle147"/>
	<circle cx="661.959" cy="377.085" r="4" fill="#0" id="circle148"/>
	<circle cx="663.405" cy="417.574" r="4" fill="#0" id="circle149"/>
	<circle cx="664.851" cy="320.688" r="4" fill="#0" id="circle150"/>
	<circle cx="666.297" cy="83.5335" r="4" fill="#0" id="circle151"/>
	<circle cx="673.528" cy="365.516" r="4" fill="#0" id="circle152"/>
	<circle cx="677.866" cy="417.574" r="4" fill="#0" id="circle153"/>
	<circle cx="679.312" cy="90.7638" r="4" fill="#0" id="circle154"/>
	<circle cx="679.312" cy="323.58" r="4" fill="#0" id="circle155"/>
	<circle cx="683.65" cy="338.041" r="4" fill="#0" id="circle156"/>
	<circle cx="683.65" cy="352.501" r="4" fill="#0" id="circle157"/>
	<circle cx="692.327" cy="97.9942" r="4" fill="#0" id="circle158"/>
	<circle cx="692.327" cy="410.344" r="4" fill="#0" id="circle159"/>
	<circle cx="703.895" cy="400.222" r="4" fill="#0" id="circle160"/>
	<circle cx="705.341" cy="105.224" r="4" fill="#0" id="circle161"/>
	<circle cx="714.017" cy="186.204" r="4" fill="#0" id="circle162"/>
	<circle cx="714.017" cy="200.665" r="4" fill="#0" id="circle163"/>
	<circle cx="714.017" cy="215.125" r="4" fill="#0" id="circle164"/>
	<circle cx="714.017" cy="229.586" r="4" fill="#0" id="circle165"/>
	<circle cx="714.017" cy="374.192" r="4" fill="#0" id="circle166"/>
	<circle cx="714.017" cy="388.653" r="4" fill="#0" id="circle167"/>
	<circle cx="716.91" cy="244.047" r="4" fill="#0" id="circle168"/>
	<circle cx="718.356" cy="112.455" r="4" fill="#0" id="circle169"/>
	<circle cx="721.248" cy="258.507" r="4" fill="#0" id="circle170"/>
	<circle cx="725.586" cy="364.07" r="4" fill="#0" id="circle171"/>
	<circle cx="728.478" cy="186.204" r="4" fill="#0" id="circle172"/>
	<circle cx="728.478" cy="271.522" r="4" fill="#0" id="circle173"/>
	<circle cx="728.478" cy="330.81" r="4" fill="#0" id="circle174"/>
	<circle cx="728.478" cy="345.271" r="4" fill="#0" id="circle175"/>
	<circle cx="732.816" cy="112.455" r="4" fill="#0" id="circle176"/>
	<circle cx="735.708" cy="284.536" r="4" fill="#0" id="circle177"/>
	<circle cx="735.708" cy="298.997" r="4" fill="#0" id="circle178"/>
	<circle cx="735.708" cy="313.458" r="4" fill="#0" id="circle179"/>
	<circle cx="742.939" cy="186.204" r="4" fill="#0" id="circle180"/>
	<circle cx="745.831" cy="119.685" r="4" fill="#0" id="circle181"/>
	<circle cx="755.953" cy="193.434" r="4" fill="#0" id="circle182"/>
	<circle cx="760.292" cy="119.685" r="4" fill="#0" id="circle183"/>
	<circle cx="770.414" cy="193.434" r="4" fill="#0" id="circle184"/>
	<circle cx="773.306" cy="126.915" r="4" fill="#0" id="circle185"/>
	<circle cx="783.429" cy="186.204" r="4" fill="#0" id="circle186"/>
	<circle cx="787.767" cy="126.915" r="4" fill="#0" id="circle187"/>
	<circle cx="797.889" cy="186.204" r="4" fill="#0" id="circle188"/>
	<circle cx="800.781" cy="134.146" r="4" fill="#0" id="circle189"/>
	<circle cx="812.35" cy="186.204" r="4" fill="#0" id="circle190"/>
	<circle cx="815.242" cy="134.146" r="4" fill="#0" id="circle191"/>
	<circle cx="825.364" cy="178.974" r="4" fill="#0" id="circle192"/>
	<circle cx="828.257" cy="126.915" r="4" fill="#0" id="circle193"/>
	<circle cx="839.825" cy="178.974" r="4" fill="#0" id="circle194"/>
	<circle cx="842.717" cy="126.915" r="4" fill="#0" id="circle195"/>
	<circle cx="852.84" cy="171.743" r="4" fill="#0" id="circle196"/>
	<circle cx="857.178" cy="126.915" r="4" fill="#0" id="circle197"/>
	<circle cx="867.3" cy="171.743" r="4" fill="#0" id="circle198"/>
	<circle cx="870.192" cy="119.685" r="4" fill="#0" id="circle199"/>
	<circle cx="881.761" cy="171.743" r="4" fill="#0" id="circle200"/>
	<circle cx="884.653" cy="119.685" r="4" fill="#0" id="circle201"/>
	<circle cx="896.222" cy="171.743" r="4" fill="#0" id="circle202"/>
	<circle cx="899.114" cy="119.685" r="4" fill="#0" id="circle203"/>
	<circle cx="910.682" cy="171.743" r="4" fill="#0" id="circle204"/>
	<circle cx="913.574" cy="119.685" r="4" fill="#0" id="circle205"/>
	<circle cx="925.143" cy="171.743" r="4" fill="#0" id="circle206"/>
	<circle cx="928.035" cy="119.685" r="4" fill="#0" id="circle207"/>
	<circle cx="938.157" cy="164.513" r="4" fill="#0" id="circle208"/>
	<circle cx="942.496" cy="119.685" r="4" fill="#0" id="circle209"/>
	<circle cx="952.618" cy="108.117" r="4" fill="#0" id="circle210"/>
	<circle cx="952.618" cy="157.283" r="4" fill="#0" id="circle211"/>
	<circle cx="967.079" cy="100.886" r="4" fill="#0" id="circle212"/>
	<circle cx="967.079" cy="150.052" r="4" fill="#0" id="circle213"/>
	<circle cx="978.647" cy="139.93" r="4" fill="#0" id="circle214"/>
	<circle cx="981.539" cy="93.656" r="4" fill="#0" id="circle215"/>
	<circle cx="988.77" cy="128.362" r="4" fill="#0" id="circle216"/>
	<circle cx="996" cy="95.102" r="4" fill="#0" id="circle217"/>
	<circle cx="996" cy="113.901" r="4" fill="#0" id="circle218"/>
	</g>
</svg>