<?xml version="1.0" encoding="UTF-8" standalone="no"?>
<!-- Created with CurveBenchmark -->
<svg
	xmlns:dc="http://purl.org/dc/elements/1.1/"
	xmlns:cc="http://creativecommons.org/ns#"
	xmlns:rdf="http://www.w3.org/1999/02/22-rdf-syntax-ns#"
	xmlns:svg="http://www.w3.org/2000/svg"
	xmlns="http://www.w3.org/2000/svg"
	xmlns:sodipodi="http://sodipodi.sourceforge.net/DTD/sodipodi-0.dtd"
	xmlns:inkscape="http://www.inkscape.org/namespaces/inkscape"
	width="1000"
	height="1000"
	id="svg2"
	version="1.1"
	sodipodi:docname="manifold/vicur-carriage-18.png.txt">
<defs
	id="defs4" />
<metadata
	id="metadata7">
	<rdf:RDF>
		<cc:Work
			rdf:about="">
			<dc:format>image/svg+xml</dc:format>
			<dc:type
				rdf:resource="http://purl.org/dc/dcmitype/StillImage" />
			<dc:title></dc:title>
		</cc:Work>
	</rdf:RDF>
</metadata>
<g
	inkscape:label="Layer 1"
	inkscape:groupmode="layer"
	id="layer1">
	<path style="fill:none;stroke:red;stroke-width:1px;stroke-linecap:butt;stroke-linejoin:miter;stroke-opacity:1" d="M 4,151.032 8.65291,137.073 z" id="boundary" inkscape:connector-curvature="0" />
	<path style="fill:none;stroke:red;stroke-width:1px;stroke-linecap:butt;stroke-linejoin:miter;stroke-opacity:1" d="M 4,151.032 8.65291,159.407 z" id="boundary" inkscape:connector-curvature="0" />
	<path style="fill:none;stroke:red;stroke-width:1px;stroke-linecap:butt;stroke-linejoin:miter;stroke-opacity:1" d="M 8.65291,159.407 24.4728,167.782 z" id="boundary" inkscape:connector-curvature="0" />
	<path style="fill:none;stroke:red;stroke-width:1px;stroke-linecap:butt;stroke-linejoin:miter;stroke-opacity:1" d="M 24.4728,167.782 33.7786,167.782 z" id="boundary" inkscape:connector-curvature="0" />
	<path style="fill:none;stroke:red;stroke-width:1px;stroke-linecap:butt;stroke-linejoin:miter;stroke-opacity:1" d="M 27.2645,109.156 31.9174,99.8499 z" id="boundary" inkscape:connector-curvature="0" />
	<path style="fill:none;stroke:red;stroke-width:1px;stroke-linecap:butt;stroke-linejoin:miter;stroke-opacity:1" d="M 33.7786,167.782 51.4597,158.477 z" id="boundary" inkscape:connector-curvature="0" />
	<path style="fill:none;stroke:red;stroke-width:1px;stroke-linecap:butt;stroke-linejoin:miter;stroke-opacity:1" d="M 41.2233,95.197 48.6679,87.7523 z" id="boundary" inkscape:connector-curvature="0" />
	<path style="fill:none;stroke:red;stroke-width:1px;stroke-linecap:butt;stroke-linejoin:miter;stroke-opacity:1" d="M 48.6679,87.7523 56.1126,80.3077 z" id="boundary" inkscape:connector-curvature="0" />
	<path style="fill:none;stroke:red;stroke-width:1px;stroke-linecap:butt;stroke-linejoin:miter;stroke-opacity:1" d="M 51.4597,158.477 58.9043,151.962 z" id="boundary" inkscape:connector-curvature="0" />
	<path style="fill:none;stroke:red;stroke-width:1px;stroke-linecap:butt;stroke-linejoin:miter;stroke-opacity:1" d="M 58.9043,151.962 74.7242,144.518 z" id="boundary" inkscape:connector-curvature="0" />
	<path style="fill:none;stroke:red;stroke-width:1px;stroke-linecap:butt;stroke-linejoin:miter;stroke-opacity:1" d="M 74.7242,144.518 84.03,144.518 z" id="boundary" inkscape:connector-curvature="0" />
	<path style="fill:none;stroke:red;stroke-width:1px;stroke-linecap:butt;stroke-linejoin:miter;stroke-opacity:1" d="M 78.4465,59.8349 95.197,69.1407 z" id="boundary" inkscape:connector-curvature="0" />
	<path style="fill:none;stroke:red;stroke-width:1px;stroke-linecap:butt;stroke-linejoin:miter;stroke-opacity:1" d="M 84.03,144.518 92.4053,158.477 z" id="boundary" inkscape:connector-curvature="0" />
	<path style="fill:none;stroke:red;stroke-width:1px;stroke-linecap:butt;stroke-linejoin:miter;stroke-opacity:1" d="M 92.4053,158.477 95.197,167.782 z" id="boundary" inkscape:connector-curvature="0" />
	<path style="fill:none;stroke:red;stroke-width:1px;stroke-linecap:butt;stroke-linejoin:miter;stroke-opacity:1" d="M 95.197,69.1407 103.572,73.7936 z" id="boundary" inkscape:connector-curvature="0" />
	<path style="fill:none;stroke:red;stroke-width:1px;stroke-linecap:butt;stroke-linejoin:miter;stroke-opacity:1" d="M 95.197,167.782 97.0582,177.088 z" id="boundary" inkscape:connector-curvature="0" />
	<path style="fill:none;stroke:red;stroke-width:1px;stroke-linecap:butt;stroke-linejoin:miter;stroke-opacity:1" d="M 97.0582,177.088 99.8499,186.394 z" id="boundary" inkscape:connector-curvature="0" />
	<path style="fill:none;stroke:red;stroke-width:1px;stroke-linecap:butt;stroke-linejoin:miter;stroke-opacity:1" d="M 99.8499,186.394 101.711,195.7 z" id="boundary" inkscape:connector-curvature="0" />
	<path style="fill:none;stroke:red;stroke-width:1px;stroke-linecap:butt;stroke-linejoin:miter;stroke-opacity:1" d="M 101.711,195.7 106.364,204.075 z" id="boundary" inkscape:connector-curvature="0" />
	<path style="fill:none;stroke:red;stroke-width:1px;stroke-linecap:butt;stroke-linejoin:miter;stroke-opacity:1" d="M 101.711,365.066 101.711,374.371 z" id="boundary" inkscape:connector-curvature="0" />
	<path style="fill:none;stroke:red;stroke-width:1px;stroke-linecap:butt;stroke-linejoin:miter;stroke-opacity:1" d="M 101.711,365.066 106.364,355.76 z" id="boundary" inkscape:connector-curvature="0" />
	<path style="fill:none;stroke:red;stroke-width:1px;stroke-linecap:butt;stroke-linejoin:miter;stroke-opacity:1" d="M 101.711,374.371 106.364,382.747 z" id="boundary" inkscape:connector-curvature="0" />
	<path style="fill:none;stroke:red;stroke-width:1px;stroke-linecap:butt;stroke-linejoin:miter;stroke-opacity:1" d="M 103.572,73.7936 111.947,78.4465 z" id="boundary" inkscape:connector-curvature="0" />
	<path style="fill:none;stroke:red;stroke-width:1px;stroke-linecap:butt;stroke-linejoin:miter;stroke-opacity:1" d="M 106.364,204.075 115.67,220.826 z" id="boundary" inkscape:connector-curvature="0" />
	<path style="fill:none;stroke:red;stroke-width:1px;stroke-linecap:butt;stroke-linejoin:miter;stroke-opacity:1" d="M 106.364,346.454 106.364,355.76 z" id="boundary" inkscape:connector-curvature="0" />
	<path style="fill:none;stroke:red;stroke-width:1px;stroke-linecap:butt;stroke-linejoin:miter;stroke-opacity:1" d="M 106.364,346.454 111.017,337.148 z" id="boundary" inkscape:connector-curvature="0" />
	<path style="fill:none;stroke:red;stroke-width:1px;stroke-linecap:butt;stroke-linejoin:miter;stroke-opacity:1" d="M 106.364,382.747 122.184,391.122 z" id="boundary" inkscape:connector-curvature="0" />
	<path style="fill:none;stroke:red;stroke-width:1px;stroke-linecap:butt;stroke-linejoin:miter;stroke-opacity:1" d="M 111.017,337.148 115.67,323.189 z" id="boundary" inkscape:connector-curvature="0" />
	<path style="fill:none;stroke:red;stroke-width:1px;stroke-linecap:butt;stroke-linejoin:miter;stroke-opacity:1" d="M 111.947,78.4465 128.698,87.7523 z" id="boundary" inkscape:connector-curvature="0" />
	<path style="fill:none;stroke:red;stroke-width:1px;stroke-linecap:butt;stroke-linejoin:miter;stroke-opacity:1" d="M 115.67,220.826 115.67,230.131 z" id="boundary" inkscape:connector-curvature="0" />
	<path style="fill:none;stroke:red;stroke-width:1px;stroke-linecap:butt;stroke-linejoin:miter;stroke-opacity:1" d="M 115.67,230.131 115.67,239.437 z" id="boundary" inkscape:connector-curvature="0" />
	<path style="fill:none;stroke:red;stroke-width:1px;stroke-linecap:butt;stroke-linejoin:miter;stroke-opacity:1" d="M 115.67,239.437 115.67,248.743 z" id="boundary" inkscape:connector-curvature="0" />
	<path style="fill:none;stroke:red;stroke-width:1px;stroke-linecap:butt;stroke-linejoin:miter;stroke-opacity:1" d="M 115.67,248.743 115.67,258.049 z" id="boundary" inkscape:connector-curvature="0" />
	<path style="fill:none;stroke:red;stroke-width:1px;stroke-linecap:butt;stroke-linejoin:miter;stroke-opacity:1" d="M 115.67,258.049 115.67,267.355 z" id="boundary" inkscape:connector-curvature="0" />
	<path style="fill:none;stroke:red;stroke-width:1px;stroke-linecap:butt;stroke-linejoin:miter;stroke-opacity:1" d="M 115.67,267.355 115.67,276.66 z" id="boundary" inkscape:connector-curvature="0" />
	<path style="fill:none;stroke:red;stroke-width:1px;stroke-linecap:butt;stroke-linejoin:miter;stroke-opacity:1" d="M 115.67,276.66 115.67,285.966 z" id="boundary" inkscape:connector-curvature="0" />
	<path style="fill:none;stroke:red;stroke-width:1px;stroke-linecap:butt;stroke-linejoin:miter;stroke-opacity:1" d="M 115.67,285.966 115.67,295.272 z" id="boundary" inkscape:connector-curvature="0" />
	<path style="fill:none;stroke:red;stroke-width:1px;stroke-linecap:butt;stroke-linejoin:miter;stroke-opacity:1" d="M 115.67,295.272 115.67,304.578 z" id="boundary" inkscape:connector-curvature="0" />
	<path style="fill:none;stroke:red;stroke-width:1px;stroke-linecap:butt;stroke-linejoin:miter;stroke-opacity:1" d="M 115.67,304.578 115.67,313.884 z" id="boundary" inkscape:connector-curvature="0" />
	<path style="fill:none;stroke:red;stroke-width:1px;stroke-linecap:butt;stroke-linejoin:miter;stroke-opacity:1" d="M 115.67,313.884 115.67,323.189 z" id="boundary" inkscape:connector-curvature="0" />
	<path style="fill:none;stroke:red;stroke-width:1px;stroke-linecap:butt;stroke-linejoin:miter;stroke-opacity:1" d="M 122.184,391.122 131.49,391.122 z" id="boundary" inkscape:connector-curvature="0" />
	<path style="fill:none;stroke:red;stroke-width:1px;stroke-linecap:butt;stroke-linejoin:miter;stroke-opacity:1" d="M 131.49,391.122 140.795,391.122 z" id="boundary" inkscape:connector-curvature="0" />
	<path style="fill:none;stroke:red;stroke-width:1px;stroke-linecap:butt;stroke-linejoin:miter;stroke-opacity:1" d="M 146.379,93.3358 153.824,99.8499 z" id="boundary" inkscape:connector-curvature="0" />
	<path style="fill:none;stroke:red;stroke-width:1px;stroke-linecap:butt;stroke-linejoin:miter;stroke-opacity:1" d="M 153.824,99.8499 160.338,107.295 z" id="boundary" inkscape:connector-curvature="0" />
	<path style="fill:none;stroke:red;stroke-width:1px;stroke-linecap:butt;stroke-linejoin:miter;stroke-opacity:1" d="M 153.824,372.51 158.477,358.552 z" id="boundary" inkscape:connector-curvature="0" />
	<path style="fill:none;stroke:red;stroke-width:1px;stroke-linecap:butt;stroke-linejoin:miter;stroke-opacity:1" d="M 158.477,293.411 158.477,302.717 z" id="boundary" inkscape:connector-curvature="0" />
	<path style="fill:none;stroke:red;stroke-width:1px;stroke-linecap:butt;stroke-linejoin:miter;stroke-opacity:1" d="M 158.477,293.411 163.129,279.452 z" id="boundary" inkscape:connector-curvature="0" />
	<path style="fill:none;stroke:red;stroke-width:1px;stroke-linecap:butt;stroke-linejoin:miter;stroke-opacity:1" d="M 158.477,302.717 158.477,312.023 z" id="boundary" inkscape:connector-curvature="0" />
	<path style="fill:none;stroke:red;stroke-width:1px;stroke-linecap:butt;stroke-linejoin:miter;stroke-opacity:1" d="M 158.477,312.023 158.477,321.328 z" id="boundary" inkscape:connector-curvature="0" />
	<path style="fill:none;stroke:red;stroke-width:1px;stroke-linecap:butt;stroke-linejoin:miter;stroke-opacity:1" d="M 158.477,321.328 158.477,330.634 z" id="boundary" inkscape:connector-curvature="0" />
	<path style="fill:none;stroke:red;stroke-width:1px;stroke-linecap:butt;stroke-linejoin:miter;stroke-opacity:1" d="M 158.477,330.634 158.477,339.94 z" id="boundary" inkscape:connector-curvature="0" />
	<path style="fill:none;stroke:red;stroke-width:1px;stroke-linecap:butt;stroke-linejoin:miter;stroke-opacity:1" d="M 158.477,339.94 158.477,349.246 z" id="boundary" inkscape:connector-curvature="0" />
	<path style="fill:none;stroke:red;stroke-width:1px;stroke-linecap:butt;stroke-linejoin:miter;stroke-opacity:1" d="M 158.477,349.246 158.477,358.552 z" id="boundary" inkscape:connector-curvature="0" />
	<path style="fill:none;stroke:red;stroke-width:1px;stroke-linecap:butt;stroke-linejoin:miter;stroke-opacity:1" d="M 160.338,107.295 167.782,113.809 z" id="boundary" inkscape:connector-curvature="0" />
	<path style="fill:none;stroke:red;stroke-width:1px;stroke-linecap:butt;stroke-linejoin:miter;stroke-opacity:1" d="M 163.129,279.452 167.782,270.146 z" id="boundary" inkscape:connector-curvature="0" />
	<path style="fill:none;stroke:red;stroke-width:1px;stroke-linecap:butt;stroke-linejoin:miter;stroke-opacity:1" d="M 167.782,270.146 184.533,260.841 z" id="boundary" inkscape:connector-curvature="0" />
	<path style="fill:none;stroke:red;stroke-width:1px;stroke-linecap:butt;stroke-linejoin:miter;stroke-opacity:1" d="M 184.533,260.841 192.908,256.188 z" id="boundary" inkscape:connector-curvature="0" />
	<path style="fill:none;stroke:red;stroke-width:1px;stroke-linecap:butt;stroke-linejoin:miter;stroke-opacity:1" d="M 192.908,256.188 210.589,251.535 z" id="boundary" inkscape:connector-curvature="0" />
	<path style="fill:none;stroke:red;stroke-width:1px;stroke-linecap:butt;stroke-linejoin:miter;stroke-opacity:1" d="M 194.769,140.795 204.075,143.587 z" id="boundary" inkscape:connector-curvature="0" />
	<path style="fill:none;stroke:red;stroke-width:1px;stroke-linecap:butt;stroke-linejoin:miter;stroke-opacity:1" d="M 204.075,143.587 213.381,143.587 z" id="boundary" inkscape:connector-curvature="0" />
	<path style="fill:none;stroke:red;stroke-width:1px;stroke-linecap:butt;stroke-linejoin:miter;stroke-opacity:1" d="M 210.589,251.535 219.895,251.535 z" id="boundary" inkscape:connector-curvature="0" />
	<path style="fill:none;stroke:red;stroke-width:1px;stroke-linecap:butt;stroke-linejoin:miter;stroke-opacity:1" d="M 213.381,143.587 222.687,143.587 z" id="boundary" inkscape:connector-curvature="0" />
	<path style="fill:none;stroke:red;stroke-width:1px;stroke-linecap:butt;stroke-linejoin:miter;stroke-opacity:1" d="M 219.895,251.535 229.201,251.535 z" id="boundary" inkscape:connector-curvature="0" />
	<path style="fill:none;stroke:red;stroke-width:1px;stroke-linecap:butt;stroke-linejoin:miter;stroke-opacity:1" d="M 222.687,143.587 231.992,143.587 z" id="boundary" inkscape:connector-curvature="0" />
	<path style="fill:none;stroke:red;stroke-width:1px;stroke-linecap:butt;stroke-linejoin:miter;stroke-opacity:1" d="M 229.201,251.535 238.507,251.535 z" id="boundary" inkscape:connector-curvature="0" />
	<path style="fill:none;stroke:red;stroke-width:1px;stroke-linecap:butt;stroke-linejoin:miter;stroke-opacity:1" d="M 231.992,143.587 241.298,143.587 z" id="boundary" inkscape:connector-curvature="0" />
	<path style="fill:none;stroke:red;stroke-width:1px;stroke-linecap:butt;stroke-linejoin:miter;stroke-opacity:1" d="M 238.507,251.535 247.812,251.535 z" id="boundary" inkscape:connector-curvature="0" />
	<path style="fill:none;stroke:red;stroke-width:1px;stroke-linecap:butt;stroke-linejoin:miter;stroke-opacity:1" d="M 241.298,143.587 250.604,143.587 z" id="boundary" inkscape:connector-curvature="0" />
	<path style="fill:none;stroke:red;stroke-width:1px;stroke-linecap:butt;stroke-linejoin:miter;stroke-opacity:1" d="M 247.812,251.535 257.118,251.535 z" id="boundary" inkscape:connector-curvature="0" />
	<path style="fill:none;stroke:red;stroke-width:1px;stroke-linecap:butt;stroke-linejoin:miter;stroke-opacity:1" d="M 250.604,143.587 259.91,143.587 z" id="boundary" inkscape:connector-curvature="0" />
	<path style="fill:none;stroke:red;stroke-width:1px;stroke-linecap:butt;stroke-linejoin:miter;stroke-opacity:1" d="M 257.118,251.535 266.424,251.535 z" id="boundary" inkscape:connector-curvature="0" />
	<path style="fill:none;stroke:red;stroke-width:1px;stroke-linecap:butt;stroke-linejoin:miter;stroke-opacity:1" d="M 259.91,143.587 269.216,143.587 z" id="boundary" inkscape:connector-curvature="0" />
	<path style="fill:none;stroke:red;stroke-width:1px;stroke-linecap:butt;stroke-linejoin:miter;stroke-opacity:1" d="M 266.424,251.535 275.73,251.535 z" id="boundary" inkscape:connector-curvature="0" />
	<path style="fill:none;stroke:red;stroke-width:1px;stroke-linecap:butt;stroke-linejoin:miter;stroke-opacity:1" d="M 269.216,143.587 278.522,143.587 z" id="boundary" inkscape:connector-curvature="0" />
	<path style="fill:none;stroke:red;stroke-width:1px;stroke-linecap:butt;stroke-linejoin:miter;stroke-opacity:1" d="M 275.73,251.535 285.036,251.535 z" id="boundary" inkscape:connector-curvature="0" />
	<path style="fill:none;stroke:red;stroke-width:1px;stroke-linecap:butt;stroke-linejoin:miter;stroke-opacity:1" d="M 278.522,143.587 287.827,143.587 z" id="boundary" inkscape:connector-curvature="0" />
	<path style="fill:none;stroke:red;stroke-width:1px;stroke-linecap:butt;stroke-linejoin:miter;stroke-opacity:1" d="M 285.036,251.535 294.341,251.535 z" id="boundary" inkscape:connector-curvature="0" />
	<path style="fill:none;stroke:red;stroke-width:1px;stroke-linecap:butt;stroke-linejoin:miter;stroke-opacity:1" d="M 287.827,143.587 297.133,143.587 z" id="boundary" inkscape:connector-curvature="0" />
	<path style="fill:none;stroke:red;stroke-width:1px;stroke-linecap:butt;stroke-linejoin:miter;stroke-opacity:1" d="M 294.341,251.535 303.647,251.535 z" id="boundary" inkscape:connector-curvature="0" />
	<path style="fill:none;stroke:red;stroke-width:1px;stroke-linecap:butt;stroke-linejoin:miter;stroke-opacity:1" d="M 297.133,143.587 306.439,143.587 z" id="boundary" inkscape:connector-curvature="0" />
	<path style="fill:none;stroke:red;stroke-width:1px;stroke-linecap:butt;stroke-linejoin:miter;stroke-opacity:1" d="M 303.647,251.535 312.953,254.326 z" id="boundary" inkscape:connector-curvature="0" />
	<path style="fill:none;stroke:red;stroke-width:1px;stroke-linecap:butt;stroke-linejoin:miter;stroke-opacity:1" d="M 306.439,143.587 315.745,143.587 z" id="boundary" inkscape:connector-curvature="0" />
	<path style="fill:none;stroke:red;stroke-width:1px;stroke-linecap:butt;stroke-linejoin:miter;stroke-opacity:1" d="M 312.953,254.326 316.675,263.632 z" id="boundary" inkscape:connector-curvature="0" />
	<path style="fill:none;stroke:red;stroke-width:1px;stroke-linecap:butt;stroke-linejoin:miter;stroke-opacity:1" d="M 315.745,143.587 325.051,143.587 z" id="boundary" inkscape:connector-curvature="0" />
	<path style="fill:none;stroke:red;stroke-width:1px;stroke-linecap:butt;stroke-linejoin:miter;stroke-opacity:1" d="M 316.675,263.632 325.051,281.313 z" id="boundary" inkscape:connector-curvature="0" />
	<path style="fill:none;stroke:red;stroke-width:1px;stroke-linecap:butt;stroke-linejoin:miter;stroke-opacity:1" d="M 325.051,143.587 334.356,143.587 z" id="boundary" inkscape:connector-curvature="0" />
	<path style="fill:none;stroke:red;stroke-width:1px;stroke-linecap:butt;stroke-linejoin:miter;stroke-opacity:1" d="M 325.051,281.313 334.356,298.064 z" id="boundary" inkscape:connector-curvature="0" />
	<path style="fill:none;stroke:red;stroke-width:1px;stroke-linecap:butt;stroke-linejoin:miter;stroke-opacity:1" d="M 334.356,143.587 343.662,143.587 z" id="boundary" inkscape:connector-curvature="0" />
	<path style="fill:none;stroke:red;stroke-width:1px;stroke-linecap:butt;stroke-linejoin:miter;stroke-opacity:1" d="M 334.356,298.064 334.356,307.37 z" id="boundary" inkscape:connector-curvature="0" />
	<path style="fill:none;stroke:red;stroke-width:1px;stroke-linecap:butt;stroke-linejoin:miter;stroke-opacity:1" d="M 334.356,307.37 334.356,316.675 z" id="boundary" inkscape:connector-curvature="0" />
	<path style="fill:none;stroke:red;stroke-width:1px;stroke-linecap:butt;stroke-linejoin:miter;stroke-opacity:1" d="M 334.356,316.675 334.356,325.981 z" id="boundary" inkscape:connector-curvature="0" />
	<path style="fill:none;stroke:red;stroke-width:1px;stroke-linecap:butt;stroke-linejoin:miter;stroke-opacity:1" d="M 334.356,325.981 334.356,335.287 z" id="boundary" inkscape:connector-curvature="0" />
	<path style="fill:none;stroke:red;stroke-width:1px;stroke-linecap:butt;stroke-linejoin:miter;stroke-opacity:1" d="M 334.356,335.287 334.356,344.593 z" id="boundary" inkscape:connector-curvature="0" />
	<path style="fill:none;stroke:red;stroke-width:1px;stroke-linecap:butt;stroke-linejoin:miter;stroke-opacity:1" d="M 334.356,344.593 334.356,353.899 z" id="boundary" inkscape:connector-curvature="0" />
	<path style="fill:none;stroke:red;stroke-width:1px;stroke-linecap:butt;stroke-linejoin:miter;stroke-opacity:1" d="M 334.356,353.899 334.356,363.205 z" id="boundary" inkscape:connector-curvature="0" />
	<path style="fill:none;stroke:red;stroke-width:1px;stroke-linecap:butt;stroke-linejoin:miter;stroke-opacity:1" d="M 334.356,363.205 334.356,372.51 z" id="boundary" inkscape:connector-curvature="0" />
	<path style="fill:none;stroke:red;stroke-width:1px;stroke-linecap:butt;stroke-linejoin:miter;stroke-opacity:1" d="M 334.356,372.51 337.148,381.816 z" id="boundary" inkscape:connector-curvature="0" />
	<path style="fill:none;stroke:red;stroke-width:1px;stroke-linecap:butt;stroke-linejoin:miter;stroke-opacity:1" d="M 337.148,381.816 353.899,391.122 z" id="boundary" inkscape:connector-curvature="0" />
	<path style="fill:none;stroke:red;stroke-width:1px;stroke-linecap:butt;stroke-linejoin:miter;stroke-opacity:1" d="M 343.662,143.587 352.968,143.587 z" id="boundary" inkscape:connector-curvature="0" />
	<path style="fill:none;stroke:red;stroke-width:1px;stroke-linecap:butt;stroke-linejoin:miter;stroke-opacity:1" d="M 352.968,143.587 362.274,143.587 z" id="boundary" inkscape:connector-curvature="0" />
	<path style="fill:none;stroke:red;stroke-width:1px;stroke-linecap:butt;stroke-linejoin:miter;stroke-opacity:1" d="M 353.899,391.122 363.205,391.122 z" id="boundary" inkscape:connector-curvature="0" />
	<path style="fill:none;stroke:red;stroke-width:1px;stroke-linecap:butt;stroke-linejoin:miter;stroke-opacity:1" d="M 362.274,143.587 371.58,143.587 z" id="boundary" inkscape:connector-curvature="0" />
	<path style="fill:none;stroke:red;stroke-width:1px;stroke-linecap:butt;stroke-linejoin:miter;stroke-opacity:1" d="M 363.205,391.122 377.163,377.163 z" id="boundary" inkscape:connector-curvature="0" />
	<path style="fill:none;stroke:red;stroke-width:1px;stroke-linecap:butt;stroke-linejoin:miter;stroke-opacity:1" d="M 371.58,143.587 379.024,149.171 z" id="boundary" inkscape:connector-curvature="0" />
	<path style="fill:none;stroke:red;stroke-width:1px;stroke-linecap:butt;stroke-linejoin:miter;stroke-opacity:1" d="M 377.163,377.163 381.816,363.205 z" id="boundary" inkscape:connector-curvature="0" />
	<path style="fill:none;stroke:red;stroke-width:1px;stroke-linecap:butt;stroke-linejoin:miter;stroke-opacity:1" d="M 381.816,316.675 381.816,325.981 z" id="boundary" inkscape:connector-curvature="0" />
	<path style="fill:none;stroke:red;stroke-width:1px;stroke-linecap:butt;stroke-linejoin:miter;stroke-opacity:1" d="M 381.816,316.675 386.469,307.37 z" id="boundary" inkscape:connector-curvature="0" />
	<path style="fill:none;stroke:red;stroke-width:1px;stroke-linecap:butt;stroke-linejoin:miter;stroke-opacity:1" d="M 381.816,325.981 381.816,335.287 z" id="boundary" inkscape:connector-curvature="0" />
	<path style="fill:none;stroke:red;stroke-width:1px;stroke-linecap:butt;stroke-linejoin:miter;stroke-opacity:1" d="M 381.816,335.287 381.816,344.593 z" id="boundary" inkscape:connector-curvature="0" />
	<path style="fill:none;stroke:red;stroke-width:1px;stroke-linecap:butt;stroke-linejoin:miter;stroke-opacity:1" d="M 381.816,344.593 381.816,353.899 z" id="boundary" inkscape:connector-curvature="0" />
	<path style="fill:none;stroke:red;stroke-width:1px;stroke-linecap:butt;stroke-linejoin:miter;stroke-opacity:1" d="M 381.816,353.899 381.816,363.205 z" id="boundary" inkscape:connector-curvature="0" />
	<path style="fill:none;stroke:red;stroke-width:1px;stroke-linecap:butt;stroke-linejoin:miter;stroke-opacity:1" d="M 386.469,307.37 395.775,307.37 z" id="boundary" inkscape:connector-curvature="0" />
	<path style="fill:none;stroke:red;stroke-width:1px;stroke-linecap:butt;stroke-linejoin:miter;stroke-opacity:1" d="M 395.775,307.37 404.15,302.717 z" id="boundary" inkscape:connector-curvature="0" />
	<path style="fill:none;stroke:red;stroke-width:1px;stroke-linecap:butt;stroke-linejoin:miter;stroke-opacity:1" d="M 404.15,302.717 413.456,302.717 z" id="boundary" inkscape:connector-curvature="0" />
	<path style="fill:none;stroke:red;stroke-width:1px;stroke-linecap:butt;stroke-linejoin:miter;stroke-opacity:1" d="M 405.081,189.186 421.831,194.769 z" id="boundary" inkscape:connector-curvature="0" />
	<path style="fill:none;stroke:red;stroke-width:1px;stroke-linecap:butt;stroke-linejoin:miter;stroke-opacity:1" d="M 413.456,302.717 421.831,307.37 z" id="boundary" inkscape:connector-curvature="0" />
	<path style="fill:none;stroke:red;stroke-width:1px;stroke-linecap:butt;stroke-linejoin:miter;stroke-opacity:1" d="M 421.831,194.769 431.137,194.769 z" id="boundary" inkscape:connector-curvature="0" />
	<path style="fill:none;stroke:red;stroke-width:1px;stroke-linecap:butt;stroke-linejoin:miter;stroke-opacity:1" d="M 421.831,307.37 422.762,316.675 z" id="boundary" inkscape:connector-curvature="0" />
	<path style="fill:none;stroke:red;stroke-width:1px;stroke-linecap:butt;stroke-linejoin:miter;stroke-opacity:1" d="M 422.762,316.675 422.762,325.981 z" id="boundary" inkscape:connector-curvature="0" />
	<path style="fill:none;stroke:red;stroke-width:1px;stroke-linecap:butt;stroke-linejoin:miter;stroke-opacity:1" d="M 422.762,325.981 427.415,334.356 z" id="boundary" inkscape:connector-curvature="0" />
	<path style="fill:none;stroke:red;stroke-width:1px;stroke-linecap:butt;stroke-linejoin:miter;stroke-opacity:1" d="M 427.415,334.356 427.415,343.662 z" id="boundary" inkscape:connector-curvature="0" />
	<path style="fill:none;stroke:red;stroke-width:1px;stroke-linecap:butt;stroke-linejoin:miter;stroke-opacity:1" d="M 427.415,343.662 427.415,352.968 z" id="boundary" inkscape:connector-curvature="0" />
	<path style="fill:none;stroke:red;stroke-width:1px;stroke-linecap:butt;stroke-linejoin:miter;stroke-opacity:1" d="M 427.415,352.968 429.276,362.274 z" id="boundary" inkscape:connector-curvature="0" />
	<path style="fill:none;stroke:red;stroke-width:1px;stroke-linecap:butt;stroke-linejoin:miter;stroke-opacity:1" d="M 429.276,362.274 433.929,370.649 z" id="boundary" inkscape:connector-curvature="0" />
	<path style="fill:none;stroke:red;stroke-width:1px;stroke-linecap:butt;stroke-linejoin:miter;stroke-opacity:1" d="M 431.137,194.769 440.443,194.769 z" id="boundary" inkscape:connector-curvature="0" />
	<path style="fill:none;stroke:red;stroke-width:1px;stroke-linecap:butt;stroke-linejoin:miter;stroke-opacity:1" d="M 433.929,370.649 437.651,379.955 z" id="boundary" inkscape:connector-curvature="0" />
	<path style="fill:none;stroke:red;stroke-width:1px;stroke-linecap:butt;stroke-linejoin:miter;stroke-opacity:1" d="M 437.651,379.955 442.304,388.33 z" id="boundary" inkscape:connector-curvature="0" />
	<path style="fill:none;stroke:red;stroke-width:1px;stroke-linecap:butt;stroke-linejoin:miter;stroke-opacity:1" d="M 440.443,194.769 449.749,194.769 z" id="boundary" inkscape:connector-curvature="0" />
	<path style="fill:none;stroke:red;stroke-width:1px;stroke-linecap:butt;stroke-linejoin:miter;stroke-opacity:1" d="M 442.304,388.33 448.818,395.775 z" id="boundary" inkscape:connector-curvature="0" />
	<path style="fill:none;stroke:red;stroke-width:1px;stroke-linecap:butt;stroke-linejoin:miter;stroke-opacity:1" d="M 448.818,395.775 465.568,405.081 z" id="boundary" inkscape:connector-curvature="0" />
	<path style="fill:none;stroke:red;stroke-width:1px;stroke-linecap:butt;stroke-linejoin:miter;stroke-opacity:1" d="M 449.749,194.769 459.054,194.769 z" id="boundary" inkscape:connector-curvature="0" />
	<path style="fill:none;stroke:red;stroke-width:1px;stroke-linecap:butt;stroke-linejoin:miter;stroke-opacity:1" d="M 459.054,194.769 468.36,194.769 z" id="boundary" inkscape:connector-curvature="0" />
	<path style="fill:none;stroke:red;stroke-width:1px;stroke-linecap:butt;stroke-linejoin:miter;stroke-opacity:1" d="M 465.568,405.081 474.874,406.942 z" id="boundary" inkscape:connector-curvature="0" />
	<path style="fill:none;stroke:red;stroke-width:1px;stroke-linecap:butt;stroke-linejoin:miter;stroke-opacity:1" d="M 468.36,194.769 473.944,183.602 z" id="boundary" inkscape:connector-curvature="0" />
	<path style="fill:none;stroke:red;stroke-width:1px;stroke-linecap:butt;stroke-linejoin:miter;stroke-opacity:1" d="M 473.944,155.685 473.944,164.991 z" id="boundary" inkscape:connector-curvature="0" />
	<path style="fill:none;stroke:red;stroke-width:1px;stroke-linecap:butt;stroke-linejoin:miter;stroke-opacity:1" d="M 473.944,155.685 478.597,141.726 z" id="boundary" inkscape:connector-curvature="0" />
	<path style="fill:none;stroke:red;stroke-width:1px;stroke-linecap:butt;stroke-linejoin:miter;stroke-opacity:1" d="M 473.944,164.991 473.944,174.296 z" id="boundary" inkscape:connector-curvature="0" />
	<path style="fill:none;stroke:red;stroke-width:1px;stroke-linecap:butt;stroke-linejoin:miter;stroke-opacity:1" d="M 473.944,174.296 473.944,183.602 z" id="boundary" inkscape:connector-curvature="0" />
	<path style="fill:none;stroke:red;stroke-width:1px;stroke-linecap:butt;stroke-linejoin:miter;stroke-opacity:1" d="M 474.874,406.942 484.18,409.734 z" id="boundary" inkscape:connector-curvature="0" />
	<path style="fill:none;stroke:red;stroke-width:1px;stroke-linecap:butt;stroke-linejoin:miter;stroke-opacity:1" d="M 478.597,141.726 483.25,132.42 z" id="boundary" inkscape:connector-curvature="0" />
	<path style="fill:none;stroke:red;stroke-width:1px;stroke-linecap:butt;stroke-linejoin:miter;stroke-opacity:1" d="M 483.25,132.42 487.902,123.114 z" id="boundary" inkscape:connector-curvature="0" />
	<path style="fill:none;stroke:red;stroke-width:1px;stroke-linecap:butt;stroke-linejoin:miter;stroke-opacity:1" d="M 484.18,409.734 493.486,411.595 z" id="boundary" inkscape:connector-curvature="0" />
	<path style="fill:none;stroke:red;stroke-width:1px;stroke-linecap:butt;stroke-linejoin:miter;stroke-opacity:1" d="M 487.902,123.114 495.347,115.67 z" id="boundary" inkscape:connector-curvature="0" />
	<path style="fill:none;stroke:red;stroke-width:1px;stroke-linecap:butt;stroke-linejoin:miter;stroke-opacity:1" d="M 493.486,411.595 502.792,414.386 z" id="boundary" inkscape:connector-curvature="0" />
	<path style="fill:none;stroke:red;stroke-width:1px;stroke-linecap:butt;stroke-linejoin:miter;stroke-opacity:1" d="M 502.792,414.386 511.167,419.039 z" id="boundary" inkscape:connector-curvature="0" />
	<path style="fill:none;stroke:red;stroke-width:1px;stroke-linecap:butt;stroke-linejoin:miter;stroke-opacity:1" d="M 511.167,419.039 520.473,419.039 z" id="boundary" inkscape:connector-curvature="0" />
	<path style="fill:none;stroke:red;stroke-width:1px;stroke-linecap:butt;stroke-linejoin:miter;stroke-opacity:1" d="M 512.098,103.572 519.542,97.0582 z" id="boundary" inkscape:connector-curvature="0" />
	<path style="fill:none;stroke:red;stroke-width:1px;stroke-linecap:butt;stroke-linejoin:miter;stroke-opacity:1" d="M 519.542,97.0582 526.056,89.6135 z" id="boundary" inkscape:connector-curvature="0" />
	<path style="fill:none;stroke:red;stroke-width:1px;stroke-linecap:butt;stroke-linejoin:miter;stroke-opacity:1" d="M 520.473,20.7505 520.473,30.0563 z" id="boundary" inkscape:connector-curvature="0" />
	<path style="fill:none;stroke:red;stroke-width:1px;stroke-linecap:butt;stroke-linejoin:miter;stroke-opacity:1" d="M 520.473,20.7505 525.126,11.4447 z" id="boundary" inkscape:connector-curvature="0" />
	<path style="fill:none;stroke:red;stroke-width:1px;stroke-linecap:butt;stroke-linejoin:miter;stroke-opacity:1" d="M 520.473,30.0563 520.473,39.3621 z" id="boundary" inkscape:connector-curvature="0" />
	<path style="fill:none;stroke:red;stroke-width:1px;stroke-linecap:butt;stroke-linejoin:miter;stroke-opacity:1" d="M 520.473,39.3621 525.126,47.7373 z" id="boundary" inkscape:connector-curvature="0" />
	<path style="fill:none;stroke:red;stroke-width:1px;stroke-linecap:butt;stroke-linejoin:miter;stroke-opacity:1" d="M 520.473,419.039 529.779,419.039 z" id="boundary" inkscape:connector-curvature="0" />
	<path style="fill:none;stroke:red;stroke-width:1px;stroke-linecap:butt;stroke-linejoin:miter;stroke-opacity:1" d="M 525.126,11.4447 534.432,6.79174 z" id="boundary" inkscape:connector-curvature="0" />
	<path style="fill:none;stroke:red;stroke-width:1px;stroke-linecap:butt;stroke-linejoin:miter;stroke-opacity:1" d="M 525.126,47.7373 534.432,64.4878 z" id="boundary" inkscape:connector-curvature="0" />
	<path style="fill:none;stroke:red;stroke-width:1px;stroke-linecap:butt;stroke-linejoin:miter;stroke-opacity:1" d="M 526.056,89.6135 534.432,73.7936 z" id="boundary" inkscape:connector-curvature="0" />
	<path style="fill:none;stroke:red;stroke-width:1px;stroke-linecap:butt;stroke-linejoin:miter;stroke-opacity:1" d="M 529.779,419.039 539.084,419.039 z" id="boundary" inkscape:connector-curvature="0" />
	<path style="fill:none;stroke:red;stroke-width:1px;stroke-linecap:butt;stroke-linejoin:miter;stroke-opacity:1" d="M 534.432,6.79174 543.737,4 z" id="boundary" inkscape:connector-curvature="0" />
	<path style="fill:none;stroke:red;stroke-width:1px;stroke-linecap:butt;stroke-linejoin:miter;stroke-opacity:1" d="M 534.432,64.4878 534.432,73.7936 z" id="boundary" inkscape:connector-curvature="0" />
	<path style="fill:none;stroke:red;stroke-width:1px;stroke-linecap:butt;stroke-linejoin:miter;stroke-opacity:1" d="M 539.084,419.039 548.39,419.039 z" id="boundary" inkscape:connector-curvature="0" />
	<path style="fill:none;stroke:red;stroke-width:1px;stroke-linecap:butt;stroke-linejoin:miter;stroke-opacity:1" d="M 543.737,4 553.043,4 z" id="boundary" inkscape:connector-curvature="0" />
	<path style="fill:none;stroke:red;stroke-width:1px;stroke-linecap:butt;stroke-linejoin:miter;stroke-opacity:1" d="M 548.39,419.039 557.696,419.039 z" id="boundary" inkscape:connector-curvature="0" />
	<path style="fill:none;stroke:red;stroke-width:1px;stroke-linecap:butt;stroke-linejoin:miter;stroke-opacity:1" d="M 553.043,4 562.349,5.86116 z" id="boundary" inkscape:connector-curvature="0" />
	<path style="fill:none;stroke:red;stroke-width:1px;stroke-linecap:butt;stroke-linejoin:miter;stroke-opacity:1" d="M 557.696,419.039 567.002,416.248 z" id="boundary" inkscape:connector-curvature="0" />
	<path style="fill:none;stroke:red;stroke-width:1px;stroke-linecap:butt;stroke-linejoin:miter;stroke-opacity:1" d="M 562.349,5.86116 570.724,10.5141 z" id="boundary" inkscape:connector-curvature="0" />
	<path style="fill:none;stroke:red;stroke-width:1px;stroke-linecap:butt;stroke-linejoin:miter;stroke-opacity:1" d="M 567.002,416.248 576.308,411.595 z" id="boundary" inkscape:connector-curvature="0" />
	<path style="fill:none;stroke:red;stroke-width:1px;stroke-linecap:butt;stroke-linejoin:miter;stroke-opacity:1" d="M 570.724,10.5141 580.03,14.2364 z" id="boundary" inkscape:connector-curvature="0" />
	<path style="fill:none;stroke:red;stroke-width:1px;stroke-linecap:butt;stroke-linejoin:miter;stroke-opacity:1" d="M 576.308,411.595 581.891,400.428 z" id="boundary" inkscape:connector-curvature="0" />
	<path style="fill:none;stroke:red;stroke-width:1px;stroke-linecap:butt;stroke-linejoin:miter;stroke-opacity:1" d="M 580.03,14.2364 591.197,30.0563 z" id="boundary" inkscape:connector-curvature="0" />
	<path style="fill:none;stroke:red;stroke-width:1px;stroke-linecap:butt;stroke-linejoin:miter;stroke-opacity:1" d="M 581.891,400.428 586.544,391.122 z" id="boundary" inkscape:connector-curvature="0" />
	<path style="fill:none;stroke:red;stroke-width:1px;stroke-linecap:butt;stroke-linejoin:miter;stroke-opacity:1" d="M 586.544,242.229 586.544,251.535 z" id="boundary" inkscape:connector-curvature="0" />
	<path style="fill:none;stroke:red;stroke-width:1px;stroke-linecap:butt;stroke-linejoin:miter;stroke-opacity:1" d="M 586.544,242.229 595.85,242.229 z" id="boundary" inkscape:connector-curvature="0" />
	<path style="fill:none;stroke:red;stroke-width:1px;stroke-linecap:butt;stroke-linejoin:miter;stroke-opacity:1" d="M 586.544,251.535 586.544,260.841 z" id="boundary" inkscape:connector-curvature="0" />
	<path style="fill:none;stroke:red;stroke-width:1px;stroke-linecap:butt;stroke-linejoin:miter;stroke-opacity:1" d="M 586.544,260.841 586.544,270.146 z" id="boundary" inkscape:connector-curvature="0" />
	<path style="fill:none;stroke:red;stroke-width:1px;stroke-linecap:butt;stroke-linejoin:miter;stroke-opacity:1" d="M 586.544,270.146 591.197,278.522 z" id="boundary" inkscape:connector-curvature="0" />
	<path style="fill:none;stroke:red;stroke-width:1px;stroke-linecap:butt;stroke-linejoin:miter;stroke-opacity:1" d="M 586.544,391.122 591.197,380.886 z" id="boundary" inkscape:connector-curvature="0" />
	<path style="fill:none;stroke:red;stroke-width:1px;stroke-linecap:butt;stroke-linejoin:miter;stroke-opacity:1" d="M 591.197,30.0563 594.919,39.3621 z" id="boundary" inkscape:connector-curvature="0" />
	<path style="fill:none;stroke:red;stroke-width:1px;stroke-linecap:butt;stroke-linejoin:miter;stroke-opacity:1" d="M 591.197,278.522 591.197,287.827 z" id="boundary" inkscape:connector-curvature="0" />
	<path style="fill:none;stroke:red;stroke-width:1px;stroke-linecap:butt;stroke-linejoin:miter;stroke-opacity:1" d="M 591.197,287.827 591.197,297.133 z" id="boundary" inkscape:connector-curvature="0" />
	<path style="fill:none;stroke:red;stroke-width:1px;stroke-linecap:butt;stroke-linejoin:miter;stroke-opacity:1" d="M 591.197,297.133 591.197,306.439 z" id="boundary" inkscape:connector-curvature="0" />
	<path style="fill:none;stroke:red;stroke-width:1px;stroke-linecap:butt;stroke-linejoin:miter;stroke-opacity:1" d="M 591.197,306.439 591.197,315.745 z" id="boundary" inkscape:connector-curvature="0" />
	<path style="fill:none;stroke:red;stroke-width:1px;stroke-linecap:butt;stroke-linejoin:miter;stroke-opacity:1" d="M 591.197,315.745 591.197,325.051 z" id="boundary" inkscape:connector-curvature="0" />
	<path style="fill:none;stroke:red;stroke-width:1px;stroke-linecap:butt;stroke-linejoin:miter;stroke-opacity:1" d="M 591.197,325.051 591.197,334.356 z" id="boundary" inkscape:connector-curvature="0" />
	<path style="fill:none;stroke:red;stroke-width:1px;stroke-linecap:butt;stroke-linejoin:miter;stroke-opacity:1" d="M 591.197,334.356 591.197,343.662 z" id="boundary" inkscape:connector-curvature="0" />
	<path style="fill:none;stroke:red;stroke-width:1px;stroke-linecap:butt;stroke-linejoin:miter;stroke-opacity:1" d="M 591.197,343.662 591.197,352.968 z" id="boundary" inkscape:connector-curvature="0" />
	<path style="fill:none;stroke:red;stroke-width:1px;stroke-linecap:butt;stroke-linejoin:miter;stroke-opacity:1" d="M 591.197,352.968 591.197,362.274 z" id="boundary" inkscape:connector-curvature="0" />
	<path style="fill:none;stroke:red;stroke-width:1px;stroke-linecap:butt;stroke-linejoin:miter;stroke-opacity:1" d="M 591.197,362.274 591.197,371.58 z" id="boundary" inkscape:connector-curvature="0" />
	<path style="fill:none;stroke:red;stroke-width:1px;stroke-linecap:butt;stroke-linejoin:miter;stroke-opacity:1" d="M 591.197,371.58 591.197,380.886 z" id="boundary" inkscape:connector-curvature="0" />
	<path style="fill:none;stroke:red;stroke-width:1px;stroke-linecap:butt;stroke-linejoin:miter;stroke-opacity:1" d="M 594.919,39.3621 599.572,47.7373 z" id="boundary" inkscape:connector-curvature="0" />
	<path style="fill:none;stroke:red;stroke-width:1px;stroke-linecap:butt;stroke-linejoin:miter;stroke-opacity:1" d="M 595.85,242.229 605.156,242.229 z" id="boundary" inkscape:connector-curvature="0" />
	<path style="fill:none;stroke:red;stroke-width:1px;stroke-linecap:butt;stroke-linejoin:miter;stroke-opacity:1" d="M 599.572,47.7373 603.295,57.0432 z" id="boundary" inkscape:connector-curvature="0" />
	<path style="fill:none;stroke:red;stroke-width:1px;stroke-linecap:butt;stroke-linejoin:miter;stroke-opacity:1" d="M 603.295,57.0432 605.156,66.349 z" id="boundary" inkscape:connector-curvature="0" />
	<path style="fill:none;stroke:red;stroke-width:1px;stroke-linecap:butt;stroke-linejoin:miter;stroke-opacity:1" d="M 605.156,242.229 613.531,246.882 z" id="boundary" inkscape:connector-curvature="0" />
	<path style="fill:none;stroke:red;stroke-width:1px;stroke-linecap:butt;stroke-linejoin:miter;stroke-opacity:1" d="M 613.531,246.882 621.906,251.535 z" id="boundary" inkscape:connector-curvature="0" />
	<path style="fill:none;stroke:red;stroke-width:1px;stroke-linecap:butt;stroke-linejoin:miter;stroke-opacity:1" d="M 619.114,100.78 623.767,109.156 z" id="boundary" inkscape:connector-curvature="0" />
	<path style="fill:none;stroke:red;stroke-width:1px;stroke-linecap:butt;stroke-linejoin:miter;stroke-opacity:1" d="M 621.906,251.535 628.42,258.979 z" id="boundary" inkscape:connector-curvature="0" />
	<path style="fill:none;stroke:red;stroke-width:1px;stroke-linecap:butt;stroke-linejoin:miter;stroke-opacity:1" d="M 623.767,109.156 623.767,118.462 z" id="boundary" inkscape:connector-curvature="0" />
	<path style="fill:none;stroke:red;stroke-width:1px;stroke-linecap:butt;stroke-linejoin:miter;stroke-opacity:1" d="M 623.767,118.462 628.42,126.837 z" id="boundary" inkscape:connector-curvature="0" />
	<path style="fill:none;stroke:red;stroke-width:1px;stroke-linecap:butt;stroke-linejoin:miter;stroke-opacity:1" d="M 628.42,126.837 628.42,136.143 z" id="boundary" inkscape:connector-curvature="0" />
	<path style="fill:none;stroke:red;stroke-width:1px;stroke-linecap:butt;stroke-linejoin:miter;stroke-opacity:1" d="M 628.42,136.143 628.42,145.448 z" id="boundary" inkscape:connector-curvature="0" />
	<path style="fill:none;stroke:red;stroke-width:1px;stroke-linecap:butt;stroke-linejoin:miter;stroke-opacity:1" d="M 628.42,145.448 628.42,154.754 z" id="boundary" inkscape:connector-curvature="0" />
	<path style="fill:none;stroke:red;stroke-width:1px;stroke-linecap:butt;stroke-linejoin:miter;stroke-opacity:1" d="M 628.42,154.754 628.42,164.06 z" id="boundary" inkscape:connector-curvature="0" />
	<path style="fill:none;stroke:red;stroke-width:1px;stroke-linecap:butt;stroke-linejoin:miter;stroke-opacity:1" d="M 628.42,164.06 628.42,173.366 z" id="boundary" inkscape:connector-curvature="0" />
	<path style="fill:none;stroke:red;stroke-width:1px;stroke-linecap:butt;stroke-linejoin:miter;stroke-opacity:1" d="M 628.42,173.366 628.42,182.672 z" id="boundary" inkscape:connector-curvature="0" />
	<path style="fill:none;stroke:red;stroke-width:1px;stroke-linecap:butt;stroke-linejoin:miter;stroke-opacity:1" d="M 628.42,182.672 631.212,191.977 z" id="boundary" inkscape:connector-curvature="0" />
	<path style="fill:none;stroke:red;stroke-width:1px;stroke-linecap:butt;stroke-linejoin:miter;stroke-opacity:1" d="M 628.42,258.979 635.865,265.493 z" id="boundary" inkscape:connector-curvature="0" />
	<path style="fill:none;stroke:red;stroke-width:1px;stroke-linecap:butt;stroke-linejoin:miter;stroke-opacity:1" d="M 631.212,191.977 640.518,194.769 z" id="boundary" inkscape:connector-curvature="0" />
	<path style="fill:none;stroke:red;stroke-width:1px;stroke-linecap:butt;stroke-linejoin:miter;stroke-opacity:1" d="M 635.865,265.493 642.379,272.938 z" id="boundary" inkscape:connector-curvature="0" />
	<path style="fill:none;stroke:red;stroke-width:1px;stroke-linecap:butt;stroke-linejoin:miter;stroke-opacity:1" d="M 640.518,194.769 649.824,194.769 z" id="boundary" inkscape:connector-curvature="0" />
	<path style="fill:none;stroke:red;stroke-width:1px;stroke-linecap:butt;stroke-linejoin:miter;stroke-opacity:1" d="M 642.379,272.938 649.824,279.452 z" id="boundary" inkscape:connector-curvature="0" />
	<path style="fill:none;stroke:red;stroke-width:1px;stroke-linecap:butt;stroke-linejoin:miter;stroke-opacity:1" d="M 649.824,194.769 659.129,195.7 z" id="boundary" inkscape:connector-curvature="0" />
	<path style="fill:none;stroke:red;stroke-width:1px;stroke-linecap:butt;stroke-linejoin:miter;stroke-opacity:1" d="M 649.824,279.452 660.991,295.272 z" id="boundary" inkscape:connector-curvature="0" />
	<path style="fill:none;stroke:red;stroke-width:1px;stroke-linecap:butt;stroke-linejoin:miter;stroke-opacity:1" d="M 659.129,195.7 668.435,199.422 z" id="boundary" inkscape:connector-curvature="0" />
	<path style="fill:none;stroke:red;stroke-width:1px;stroke-linecap:butt;stroke-linejoin:miter;stroke-opacity:1" d="M 660.991,295.272 664.713,304.578 z" id="boundary" inkscape:connector-curvature="0" />
	<path style="fill:none;stroke:red;stroke-width:1px;stroke-linecap:butt;stroke-linejoin:miter;stroke-opacity:1" d="M 664.713,304.578 674.019,320.398 z" id="boundary" inkscape:connector-curvature="0" />
	<path style="fill:none;stroke:red;stroke-width:1px;stroke-linecap:butt;stroke-linejoin:miter;stroke-opacity:1" d="M 668.435,199.422 677.741,199.422 z" id="boundary" inkscape:connector-curvature="0" />
	<path style="fill:none;stroke:red;stroke-width:1px;stroke-linecap:butt;stroke-linejoin:miter;stroke-opacity:1" d="M 674.019,320.398 674.019,329.704 z" id="boundary" inkscape:connector-curvature="0" />
	<path style="fill:none;stroke:red;stroke-width:1px;stroke-linecap:butt;stroke-linejoin:miter;stroke-opacity:1" d="M 674.019,329.704 674.019,339.009 z" id="boundary" inkscape:connector-curvature="0" />
	<path style="fill:none;stroke:red;stroke-width:1px;stroke-linecap:butt;stroke-linejoin:miter;stroke-opacity:1" d="M 674.019,339.009 679.602,346.454 z" id="boundary" inkscape:connector-curvature="0" />
	<path style="fill:none;stroke:red;stroke-width:1px;stroke-linecap:butt;stroke-linejoin:miter;stroke-opacity:1" d="M 677.741,199.422 687.047,199.422 z" id="boundary" inkscape:connector-curvature="0" />
	<path style="fill:none;stroke:red;stroke-width:1px;stroke-linecap:butt;stroke-linejoin:miter;stroke-opacity:1" d="M 679.602,346.454 695.422,353.899 z" id="boundary" inkscape:connector-curvature="0" />
	<path style="fill:none;stroke:red;stroke-width:1px;stroke-linecap:butt;stroke-linejoin:miter;stroke-opacity:1" d="M 687.047,199.422 695.422,194.769 z" id="boundary" inkscape:connector-curvature="0" />
	<path style="fill:none;stroke:red;stroke-width:1px;stroke-linecap:butt;stroke-linejoin:miter;stroke-opacity:1" d="M 695.422,194.769 697.283,183.602 z" id="boundary" inkscape:connector-curvature="0" />
	<path style="fill:none;stroke:red;stroke-width:1px;stroke-linecap:butt;stroke-linejoin:miter;stroke-opacity:1" d="M 695.422,353.899 704.728,357.621 z" id="boundary" inkscape:connector-curvature="0" />
	<path style="fill:none;stroke:red;stroke-width:1px;stroke-linecap:butt;stroke-linejoin:miter;stroke-opacity:1" d="M 697.283,183.602 701.936,174.296 z" id="boundary" inkscape:connector-curvature="0" />
	<path style="fill:none;stroke:red;stroke-width:1px;stroke-linecap:butt;stroke-linejoin:miter;stroke-opacity:1" d="M 701.936,174.296 706.589,164.991 z" id="boundary" inkscape:connector-curvature="0" />
	<path style="fill:none;stroke:red;stroke-width:1px;stroke-linecap:butt;stroke-linejoin:miter;stroke-opacity:1" d="M 704.728,357.621 714.034,358.552 z" id="boundary" inkscape:connector-curvature="0" />
	<path style="fill:none;stroke:red;stroke-width:1px;stroke-linecap:butt;stroke-linejoin:miter;stroke-opacity:1" d="M 714.034,358.552 722.409,363.205 z" id="boundary" inkscape:connector-curvature="0" />
	<path style="fill:none;stroke:red;stroke-width:1px;stroke-linecap:butt;stroke-linejoin:miter;stroke-opacity:1" d="M 722.409,363.205 731.715,363.205 z" id="boundary" inkscape:connector-curvature="0" />
	<path style="fill:none;stroke:red;stroke-width:1px;stroke-linecap:butt;stroke-linejoin:miter;stroke-opacity:1" d="M 723.34,152.893 740.09,140.795 z" id="boundary" inkscape:connector-curvature="0" />
	<path style="fill:none;stroke:red;stroke-width:1px;stroke-linecap:butt;stroke-linejoin:miter;stroke-opacity:1" d="M 731.715,363.205 741.021,363.205 z" id="boundary" inkscape:connector-curvature="0" />
	<path style="fill:none;stroke:red;stroke-width:1px;stroke-linecap:butt;stroke-linejoin:miter;stroke-opacity:1" d="M 740.09,140.795 748.465,132.42 z" id="boundary" inkscape:connector-curvature="0" />
	<path style="fill:none;stroke:red;stroke-width:1px;stroke-linecap:butt;stroke-linejoin:miter;stroke-opacity:1" d="M 741.021,363.205 750.326,363.205 z" id="boundary" inkscape:connector-curvature="0" />
	<path style="fill:none;stroke:red;stroke-width:1px;stroke-linecap:butt;stroke-linejoin:miter;stroke-opacity:1" d="M 748.465,104.503 748.465,113.809 z" id="boundary" inkscape:connector-curvature="0" />
	<path style="fill:none;stroke:red;stroke-width:1px;stroke-linecap:butt;stroke-linejoin:miter;stroke-opacity:1" d="M 748.465,104.503 753.118,90.5441 z" id="boundary" inkscape:connector-curvature="0" />
	<path style="fill:none;stroke:red;stroke-width:1px;stroke-linecap:butt;stroke-linejoin:miter;stroke-opacity:1" d="M 748.465,113.809 748.465,123.114 z" id="boundary" inkscape:connector-curvature="0" />
	<path style="fill:none;stroke:red;stroke-width:1px;stroke-linecap:butt;stroke-linejoin:miter;stroke-opacity:1" d="M 748.465,123.114 748.465,132.42 z" id="boundary" inkscape:connector-curvature="0" />
	<path style="fill:none;stroke:red;stroke-width:1px;stroke-linecap:butt;stroke-linejoin:miter;stroke-opacity:1" d="M 750.326,363.205 759.632,363.205 z" id="boundary" inkscape:connector-curvature="0" />
	<path style="fill:none;stroke:red;stroke-width:1px;stroke-linecap:butt;stroke-linejoin:miter;stroke-opacity:1" d="M 753.118,90.5441 768.938,78.4465 z" id="boundary" inkscape:connector-curvature="0" />
	<path style="fill:none;stroke:red;stroke-width:1px;stroke-linecap:butt;stroke-linejoin:miter;stroke-opacity:1" d="M 759.632,363.205 768.938,363.205 z" id="boundary" inkscape:connector-curvature="0" />
	<path style="fill:none;stroke:red;stroke-width:1px;stroke-linecap:butt;stroke-linejoin:miter;stroke-opacity:1" d="M 768.938,78.4465 785.689,69.1407 z" id="boundary" inkscape:connector-curvature="0" />
	<path style="fill:none;stroke:red;stroke-width:1px;stroke-linecap:butt;stroke-linejoin:miter;stroke-opacity:1" d="M 768.938,363.205 778.244,379.955 z" id="boundary" inkscape:connector-curvature="0" />
	<path style="fill:none;stroke:red;stroke-width:1px;stroke-linecap:butt;stroke-linejoin:miter;stroke-opacity:1" d="M 778.244,379.955 788.48,395.775 z" id="boundary" inkscape:connector-curvature="0" />
	<path style="fill:none;stroke:red;stroke-width:1px;stroke-linecap:butt;stroke-linejoin:miter;stroke-opacity:1" d="M 785.689,69.1407 794.994,69.1407 z" id="boundary" inkscape:connector-curvature="0" />
	<path style="fill:none;stroke:red;stroke-width:1px;stroke-linecap:butt;stroke-linejoin:miter;stroke-opacity:1" d="M 788.48,395.775 794.994,403.22 z" id="boundary" inkscape:connector-curvature="0" />
	<path style="fill:none;stroke:red;stroke-width:1px;stroke-linecap:butt;stroke-linejoin:miter;stroke-opacity:1" d="M 794.994,69.1407 804.3,69.1407 z" id="boundary" inkscape:connector-curvature="0" />
	<path style="fill:none;stroke:red;stroke-width:1px;stroke-linecap:butt;stroke-linejoin:miter;stroke-opacity:1" d="M 794.994,403.22 802.439,409.734 z" id="boundary" inkscape:connector-curvature="0" />
	<path style="fill:none;stroke:red;stroke-width:1px;stroke-linecap:butt;stroke-linejoin:miter;stroke-opacity:1" d="M 802.439,409.734 818.259,420.901 z" id="boundary" inkscape:connector-curvature="0" />
	<path style="fill:none;stroke:red;stroke-width:1px;stroke-linecap:butt;stroke-linejoin:miter;stroke-opacity:1" d="M 804.3,69.1407 813.606,69.1407 z" id="boundary" inkscape:connector-curvature="0" />
	<path style="fill:none;stroke:red;stroke-width:1px;stroke-linecap:butt;stroke-linejoin:miter;stroke-opacity:1" d="M 813.606,69.1407 822.912,71.0019 z" id="boundary" inkscape:connector-curvature="0" />
	<path style="fill:none;stroke:red;stroke-width:1px;stroke-linecap:butt;stroke-linejoin:miter;stroke-opacity:1" d="M 818.259,420.901 827.565,423.692 z" id="boundary" inkscape:connector-curvature="0" />
	<path style="fill:none;stroke:red;stroke-width:1px;stroke-linecap:butt;stroke-linejoin:miter;stroke-opacity:1" d="M 822.912,71.0019 833.148,86.8218 z" id="boundary" inkscape:connector-curvature="0" />
	<path style="fill:none;stroke:red;stroke-width:1px;stroke-linecap:butt;stroke-linejoin:miter;stroke-opacity:1" d="M 827.565,423.692 835.94,428.345 z" id="boundary" inkscape:connector-curvature="0" />
	<path style="fill:none;stroke:red;stroke-width:1px;stroke-linecap:butt;stroke-linejoin:miter;stroke-opacity:1" d="M 833.148,86.8218 837.801,95.197 z" id="boundary" inkscape:connector-curvature="0" />
	<path style="fill:none;stroke:red;stroke-width:1px;stroke-linecap:butt;stroke-linejoin:miter;stroke-opacity:1" d="M 835.94,428.345 853.621,432.998 z" id="boundary" inkscape:connector-curvature="0" />
	<path style="fill:none;stroke:red;stroke-width:1px;stroke-linecap:butt;stroke-linejoin:miter;stroke-opacity:1" d="M 837.801,95.197 837.801,104.503 z" id="boundary" inkscape:connector-curvature="0" />
	<path style="fill:none;stroke:red;stroke-width:1px;stroke-linecap:butt;stroke-linejoin:miter;stroke-opacity:1" d="M 837.801,104.503 837.801,113.809 z" id="boundary" inkscape:connector-curvature="0" />
	<path style="fill:none;stroke:red;stroke-width:1px;stroke-linecap:butt;stroke-linejoin:miter;stroke-opacity:1" d="M 837.801,113.809 837.801,123.114 z" id="boundary" inkscape:connector-curvature="0" />
	<path style="fill:none;stroke:red;stroke-width:1px;stroke-linecap:butt;stroke-linejoin:miter;stroke-opacity:1" d="M 837.801,123.114 846.176,127.767 z" id="boundary" inkscape:connector-curvature="0" />
	<path style="fill:none;stroke:red;stroke-width:1px;stroke-linecap:butt;stroke-linejoin:miter;stroke-opacity:1" d="M 846.176,127.767 862.927,134.281 z" id="boundary" inkscape:connector-curvature="0" />
	<path style="fill:none;stroke:red;stroke-width:1px;stroke-linecap:butt;stroke-linejoin:miter;stroke-opacity:1" d="M 853.621,432.998 871.302,437.651 z" id="boundary" inkscape:connector-curvature="0" />
	<path style="fill:none;stroke:red;stroke-width:1px;stroke-linecap:butt;stroke-linejoin:miter;stroke-opacity:1" d="M 862.927,134.281 872.233,134.281 z" id="boundary" inkscape:connector-curvature="0" />
	<path style="fill:none;stroke:red;stroke-width:1px;stroke-linecap:butt;stroke-linejoin:miter;stroke-opacity:1" d="M 871.302,437.651 880.608,437.651 z" id="boundary" inkscape:connector-curvature="0" />
	<path style="fill:none;stroke:red;stroke-width:1px;stroke-linecap:butt;stroke-linejoin:miter;stroke-opacity:1" d="M 872.233,134.281 881.538,134.281 z" id="boundary" inkscape:connector-curvature="0" />
	<path style="fill:none;stroke:red;stroke-width:1px;stroke-linecap:butt;stroke-linejoin:miter;stroke-opacity:1" d="M 880.608,437.651 889.914,437.651 z" id="boundary" inkscape:connector-curvature="0" />
	<path style="fill:none;stroke:red;stroke-width:1px;stroke-linecap:butt;stroke-linejoin:miter;stroke-opacity:1" d="M 881.538,134.281 890.844,134.281 z" id="boundary" inkscape:connector-curvature="0" />
	<path style="fill:none;stroke:red;stroke-width:1px;stroke-linecap:butt;stroke-linejoin:miter;stroke-opacity:1" d="M 889.914,437.651 899.22,437.651 z" id="boundary" inkscape:connector-curvature="0" />
	<path style="fill:none;stroke:red;stroke-width:1px;stroke-linecap:butt;stroke-linejoin:miter;stroke-opacity:1" d="M 890.844,134.281 900.15,134.281 z" id="boundary" inkscape:connector-curvature="0" />
	<path style="fill:none;stroke:red;stroke-width:1px;stroke-linecap:butt;stroke-linejoin:miter;stroke-opacity:1" d="M 899.22,437.651 908.525,437.651 z" id="boundary" inkscape:connector-curvature="0" />
	<path style="fill:none;stroke:red;stroke-width:1px;stroke-linecap:butt;stroke-linejoin:miter;stroke-opacity:1" d="M 900.15,134.281 912.248,148.24 z" id="boundary" inkscape:connector-curvature="0" />
	<path style="fill:none;stroke:red;stroke-width:1px;stroke-linecap:butt;stroke-linejoin:miter;stroke-opacity:1" d="M 908.525,437.651 917.831,437.651 z" id="boundary" inkscape:connector-curvature="0" />
	<path style="fill:none;stroke:red;stroke-width:1px;stroke-linecap:butt;stroke-linejoin:miter;stroke-opacity:1" d="M 912.248,148.24 916.901,165.921 z" id="boundary" inkscape:connector-curvature="0" />
	<path style="fill:none;stroke:red;stroke-width:1px;stroke-linecap:butt;stroke-linejoin:miter;stroke-opacity:1" d="M 916.901,165.921 916.901,175.227 z" id="boundary" inkscape:connector-curvature="0" />
	<path style="fill:none;stroke:red;stroke-width:1px;stroke-linecap:butt;stroke-linejoin:miter;stroke-opacity:1" d="M 916.901,175.227 916.901,184.533 z" id="boundary" inkscape:connector-curvature="0" />
	<path style="fill:none;stroke:red;stroke-width:1px;stroke-linecap:butt;stroke-linejoin:miter;stroke-opacity:1" d="M 916.901,184.533 916.901,193.839 z" id="boundary" inkscape:connector-curvature="0" />
	<path style="fill:none;stroke:red;stroke-width:1px;stroke-linecap:butt;stroke-linejoin:miter;stroke-opacity:1" d="M 916.901,193.839 916.901,203.144 z" id="boundary" inkscape:connector-curvature="0" />
	<path style="fill:none;stroke:red;stroke-width:1px;stroke-linecap:butt;stroke-linejoin:miter;stroke-opacity:1" d="M 916.901,203.144 916.901,212.45 z" id="boundary" inkscape:connector-curvature="0" />
	<path style="fill:none;stroke:red;stroke-width:1px;stroke-linecap:butt;stroke-linejoin:miter;stroke-opacity:1" d="M 916.901,212.45 921.553,220.826 z" id="boundary" inkscape:connector-curvature="0" />
	<path style="fill:none;stroke:red;stroke-width:1px;stroke-linecap:butt;stroke-linejoin:miter;stroke-opacity:1" d="M 917.831,437.651 927.137,437.651 z" id="boundary" inkscape:connector-curvature="0" />
	<path style="fill:none;stroke:red;stroke-width:1px;stroke-linecap:butt;stroke-linejoin:miter;stroke-opacity:1" d="M 927.137,437.651 936.443,437.651 z" id="boundary" inkscape:connector-curvature="0" />
	<path style="fill:none;stroke:red;stroke-width:1px;stroke-linecap:butt;stroke-linejoin:miter;stroke-opacity:1" d="M 936.443,437.651 944.818,432.998 z" id="boundary" inkscape:connector-curvature="0" />
	<path style="fill:none;stroke:red;stroke-width:1px;stroke-linecap:butt;stroke-linejoin:miter;stroke-opacity:1" d="M 937.373,231.992 946.679,231.992 z" id="boundary" inkscape:connector-curvature="0" />
	<path style="fill:none;stroke:red;stroke-width:1px;stroke-linecap:butt;stroke-linejoin:miter;stroke-opacity:1" d="M 944.818,432.998 952.263,426.484 z" id="boundary" inkscape:connector-curvature="0" />
	<path style="fill:none;stroke:red;stroke-width:1px;stroke-linecap:butt;stroke-linejoin:miter;stroke-opacity:1" d="M 946.679,231.992 955.054,236.645 z" id="boundary" inkscape:connector-curvature="0" />
	<path style="fill:none;stroke:red;stroke-width:1px;stroke-linecap:butt;stroke-linejoin:miter;stroke-opacity:1" d="M 952.263,426.484 958.777,419.039 z" id="boundary" inkscape:connector-curvature="0" />
	<path style="fill:none;stroke:red;stroke-width:1px;stroke-linecap:butt;stroke-linejoin:miter;stroke-opacity:1" d="M 955.054,236.645 962.499,243.159 z" id="boundary" inkscape:connector-curvature="0" />
	<path style="fill:none;stroke:red;stroke-width:1px;stroke-linecap:butt;stroke-linejoin:miter;stroke-opacity:1" d="M 958.777,419.039 966.221,412.525 z" id="boundary" inkscape:connector-curvature="0" />
	<path style="fill:none;stroke:red;stroke-width:1px;stroke-linecap:butt;stroke-linejoin:miter;stroke-opacity:1" d="M 962.499,243.159 968.083,250.604 z" id="boundary" inkscape:connector-curvature="0" />
	<path style="fill:none;stroke:red;stroke-width:1px;stroke-linecap:butt;stroke-linejoin:miter;stroke-opacity:1" d="M 966.221,412.525 972.735,405.081 z" id="boundary" inkscape:connector-curvature="0" />
	<path style="fill:none;stroke:red;stroke-width:1px;stroke-linecap:butt;stroke-linejoin:miter;stroke-opacity:1" d="M 968.083,250.604 979.25,265.493 z" id="boundary" inkscape:connector-curvature="0" />
	<path style="fill:none;stroke:red;stroke-width:1px;stroke-linecap:butt;stroke-linejoin:miter;stroke-opacity:1" d="M 972.735,405.081 984.833,389.261 z" id="boundary" inkscape:connector-curvature="0" />
	<path style="fill:none;stroke:red;stroke-width:1px;stroke-linecap:butt;stroke-linejoin:miter;stroke-opacity:1" d="M 979.25,265.493 982.041,274.799 z" id="boundary" inkscape:connector-curvature="0" />
	<path style="fill:none;stroke:red;stroke-width:1px;stroke-linecap:butt;stroke-linejoin:miter;stroke-opacity:1" d="M 982.041,274.799 986.694,292.48 z" id="boundary" inkscape:connector-curvature="0" />
	<path style="fill:none;stroke:red;stroke-width:1px;stroke-linecap:butt;stroke-linejoin:miter;stroke-opacity:1" d="M 984.833,389.261 989.486,379.955 z" id="boundary" inkscape:connector-curvature="0" />
	<path style="fill:none;stroke:red;stroke-width:1px;stroke-linecap:butt;stroke-linejoin:miter;stroke-opacity:1" d="M 986.694,292.48 996,309.231 z" id="boundary" inkscape:connector-curvature="0" />
	<path style="fill:none;stroke:red;stroke-width:1px;stroke-linecap:butt;stroke-linejoin:miter;stroke-opacity:1" d="M 989.486,379.955 991.347,367.857 z" id="boundary" inkscape:connector-curvature="0" />
	<path style="fill:none;stroke:red;stroke-width:1px;stroke-linecap:butt;stroke-linejoin:miter;stroke-opacity:1" d="M 991.347,367.857 996,355.76 z" id="boundary" inkscape:connector-curvature="0" />
	<path style="fill:none;stroke:red;stroke-width:1px;stroke-linecap:butt;stroke-linejoin:miter;stroke-opacity:1" d="M 996,309.231 996,318.537 z" id="boundary" inkscape:connector-curvature="0" />
	<path style="fill:none;stroke:red;stroke-width:1px;stroke-linecap:butt;stroke-linejoin:miter;stroke-opacity:1" d="M 996,318.537 996,327.842 z" id="boundary" inkscape:connector-curvature="0" />
	<path style="fill:none;stroke:red;stroke-width:1px;stroke-linecap:butt;stroke-linejoin:miter;stroke-opacity:1" d="M 996,327.842 996,337.148 z" id="boundary" inkscape:connector-curvature="0" />
	<path style="fill:none;stroke:red;stroke-width:1px;stroke-linecap:butt;stroke-linejoin:miter;stroke-opacity:1" d="M 996,337.148 996,346.454 z" id="boundary" inkscape:connector-curvature="0" />
	<path style="fill:none;stroke:red;stroke-width:1px;stroke-linecap:butt;stroke-linejoin:miter;stroke-opacity:1" d="M 996,346.454 996,355.76 z" id="boundary" inkscape:connector-curvature="0" />
	<circle cx="4" cy="151.032" r="4" fill="#0" id="circle0"/>
	<circle cx="8.65291" cy="137.073" r="4" fill="#0" id="circle1"/>
	<circle cx="8.65291" cy="159.407" r="4" fill="#0" id="circle2"/>
	<circle cx="13.3058" cy="127.767" r="4" fill="#0" id="circle3"/>
	<circle cx="15.167" cy="166.852" r="4" fill="#0" id="circle4"/>
	<circle cx="20.7505" cy="120.323" r="4" fill="#0" id="circle5"/>
	<circle cx="24.4728" cy="167.782" r="4" fill="#0" id="circle6"/>
	<circle cx="27.2645" cy="109.156" r="4" fill="#0" id="circle7"/>
	<circle cx="31.9174" cy="99.8499" r="4" fill="#0" id="circle8"/>
	<circle cx="33.7786" cy="167.782" r="4" fill="#0" id="circle9"/>
	<circle cx="41.2233" cy="95.197" r="4" fill="#0" id="circle10"/>
	<circle cx="42.1538" cy="163.129" r="4" fill="#0" id="circle11"/>
	<circle cx="48.6679" cy="87.7523" r="4" fill="#0" id="circle12"/>
	<circle cx="51.4597" cy="158.477" r="4" fill="#0" id="circle13"/>
	<circle cx="56.1126" cy="80.3077" r="4" fill="#0" id="circle14"/>
	<circle cx="58.9043" cy="151.962" r="4" fill="#0" id="circle15"/>
	<circle cx="63.5572" cy="73.7936" r="4" fill="#0" id="circle16"/>
	<circle cx="65.4184" cy="144.518" r="4" fill="#0" id="circle17"/>
	<circle cx="69.1407" cy="62.6266" r="4" fill="#0" id="circle18"/>
	<circle cx="74.7242" cy="144.518" r="4" fill="#0" id="circle19"/>
	<circle cx="78.4465" cy="59.8349" r="4" fill="#0" id="circle20"/>
	<circle cx="84.03" cy="144.518" r="4" fill="#0" id="circle21"/>
	<circle cx="85.8912" cy="65.4184" r="4" fill="#0" id="circle22"/>
	<circle cx="92.4053" cy="149.171" r="4" fill="#0" id="circle23"/>
	<circle cx="92.4053" cy="158.477" r="4" fill="#0" id="circle24"/>
	<circle cx="95.197" cy="69.1407" r="4" fill="#0" id="circle25"/>
	<circle cx="95.197" cy="167.782" r="4" fill="#0" id="circle26"/>
	<circle cx="97.0582" cy="177.088" r="4" fill="#0" id="circle27"/>
	<circle cx="99.8499" cy="186.394" r="4" fill="#0" id="circle28"/>
	<circle cx="101.711" cy="195.7" r="4" fill="#0" id="circle29"/>
	<circle cx="101.711" cy="365.066" r="4" fill="#0" id="circle30"/>
	<circle cx="101.711" cy="374.371" r="4" fill="#0" id="circle31"/>
	<circle cx="103.572" cy="73.7936" r="4" fill="#0" id="circle32"/>
	<circle cx="106.364" cy="204.075" r="4" fill="#0" id="circle33"/>
	<circle cx="106.364" cy="346.454" r="4" fill="#0" id="circle34"/>
	<circle cx="106.364" cy="355.76" r="4" fill="#0" id="circle35"/>
	<circle cx="106.364" cy="382.747" r="4" fill="#0" id="circle36"/>
	<circle cx="111.017" cy="337.148" r="4" fill="#0" id="circle37"/>
	<circle cx="111.947" cy="78.4465" r="4" fill="#0" id="circle38"/>
	<circle cx="111.947" cy="211.52" r="4" fill="#0" id="circle39"/>
	<circle cx="112.878" cy="390.191" r="4" fill="#0" id="circle40"/>
	<circle cx="115.67" cy="220.826" r="4" fill="#0" id="circle41"/>
	<circle cx="115.67" cy="230.131" r="4" fill="#0" id="circle42"/>
	<circle cx="115.67" cy="239.437" r="4" fill="#0" id="circle43"/>
	<circle cx="115.67" cy="248.743" r="4" fill="#0" id="circle44"/>
	<circle cx="115.67" cy="258.049" r="4" fill="#0" id="circle45"/>
	<circle cx="115.67" cy="267.355" r="4" fill="#0" id="circle46"/>
	<circle cx="115.67" cy="276.66" r="4" fill="#0" id="circle47"/>
	<circle cx="115.67" cy="285.966" r="4" fill="#0" id="circle48"/>
	<circle cx="115.67" cy="295.272" r="4" fill="#0" id="circle49"/>
	<circle cx="115.67" cy="304.578" r="4" fill="#0" id="circle50"/>
	<circle cx="115.67" cy="313.884" r="4" fill="#0" id="circle51"/>
	<circle cx="115.67" cy="323.189" r="4" fill="#0" id="circle52"/>
	<circle cx="120.323" cy="83.0994" r="4" fill="#0" id="circle53"/>
	<circle cx="122.184" cy="391.122" r="4" fill="#0" id="circle54"/>
	<circle cx="128.698" cy="87.7523" r="4" fill="#0" id="circle55"/>
	<circle cx="131.49" cy="391.122" r="4" fill="#0" id="circle56"/>
	<circle cx="138.004" cy="88.6829" r="4" fill="#0" id="circle57"/>
	<circle cx="140.795" cy="391.122" r="4" fill="#0" id="circle58"/>
	<circle cx="146.379" cy="93.3358" r="4" fill="#0" id="circle59"/>
	<circle cx="148.24" cy="383.677" r="4" fill="#0" id="circle60"/>
	<circle cx="153.824" cy="99.8499" r="4" fill="#0" id="circle61"/>
	<circle cx="153.824" cy="372.51" r="4" fill="#0" id="circle62"/>
	<circle cx="158.477" cy="293.411" r="4" fill="#0" id="circle63"/>
	<circle cx="158.477" cy="302.717" r="4" fill="#0" id="circle64"/>
	<circle cx="158.477" cy="312.023" r="4" fill="#0" id="circle65"/>
	<circle cx="158.477" cy="321.328" r="4" fill="#0" id="circle66"/>
	<circle cx="158.477" cy="330.634" r="4" fill="#0" id="circle67"/>
	<circle cx="158.477" cy="339.94" r="4" fill="#0" id="circle68"/>
	<circle cx="158.477" cy="349.246" r="4" fill="#0" id="circle69"/>
	<circle cx="158.477" cy="358.552" r="4" fill="#0" id="circle70"/>
	<circle cx="160.338" cy="107.295" r="4" fill="#0" id="circle71"/>
	<circle cx="163.129" cy="279.452" r="4" fill="#0" id="circle72"/>
	<circle cx="167.782" cy="113.809" r="4" fill="#0" id="circle73"/>
	<circle cx="167.782" cy="270.146" r="4" fill="#0" id="circle74"/>
	<circle cx="174.296" cy="121.253" r="4" fill="#0" id="circle75"/>
	<circle cx="175.227" cy="263.632" r="4" fill="#0" id="circle76"/>
	<circle cx="183.602" cy="124.976" r="4" fill="#0" id="circle77"/>
	<circle cx="184.533" cy="260.841" r="4" fill="#0" id="circle78"/>
	<circle cx="190.116" cy="132.42" r="4" fill="#0" id="circle79"/>
	<circle cx="192.908" cy="256.188" r="4" fill="#0" id="circle80"/>
	<circle cx="194.769" cy="140.795" r="4" fill="#0" id="circle81"/>
	<circle cx="201.283" cy="251.535" r="4" fill="#0" id="circle82"/>
	<circle cx="204.075" cy="143.587" r="4" fill="#0" id="circle83"/>
	<circle cx="210.589" cy="251.535" r="4" fill="#0" id="circle84"/>
	<circle cx="213.381" cy="143.587" r="4" fill="#0" id="circle85"/>
	<circle cx="219.895" cy="251.535" r="4" fill="#0" id="circle86"/>
	<circle cx="222.687" cy="143.587" r="4" fill="#0" id="circle87"/>
	<circle cx="229.201" cy="251.535" r="4" fill="#0" id="circle88"/>
	<circle cx="231.992" cy="143.587" r="4" fill="#0" id="circle89"/>
	<circle cx="238.507" cy="251.535" r="4" fill="#0" id="circle90"/>
	<circle cx="241.298" cy="143.587" r="4" fill="#0" id="circle91"/>
	<circle cx="247.812" cy="251.535" r="4" fill="#0" id="circle92"/>
	<circle cx="250.604" cy="143.587" r="4" fill="#0" id="circle93"/>
	<circle cx="257.118" cy="251.535" r="4" fill="#0" id="circle94"/>
	<circle cx="259.91" cy="143.587" r="4" fill="#0" id="circle95"/>
	<circle cx="266.424" cy="251.535" r="4" fill="#0" id="circle96"/>
	<circle cx="269.216" cy="143.587" r="4" fill="#0" id="circle97"/>
	<circle cx="275.73" cy="251.535" r="4" fill="#0" id="circle98"/>
	<circle cx="278.522" cy="143.587" r="4" fill="#0" id="circle99"/>
	<circle cx="285.036" cy="251.535" r="4" fill="#0" id="circle100"/>
	<circle cx="287.827" cy="143.587" r="4" fill="#0" id="circle101"/>
	<circle cx="294.341" cy="251.535" r="4" fill="#0" id="circle102"/>
	<circle cx="297.133" cy="143.587" r="4" fill="#0" id="circle103"/>
	<circle cx="303.647" cy="251.535" r="4" fill="#0" id="circle104"/>
	<circle cx="306.439" cy="143.587" r="4" fill="#0" id="circle105"/>
	<circle cx="312.953" cy="254.326" r="4" fill="#0" id="circle106"/>
	<circle cx="315.745" cy="143.587" r="4" fill="#0" id="circle107"/>
	<circle cx="316.675" cy="263.632" r="4" fill="#0" id="circle108"/>
	<circle cx="321.328" cy="272.008" r="4" fill="#0" id="circle109"/>
	<circle cx="325.051" cy="143.587" r="4" fill="#0" id="circle110"/>
	<circle cx="325.051" cy="281.313" r="4" fill="#0" id="circle111"/>
	<circle cx="329.704" cy="289.689" r="4" fill="#0" id="circle112"/>
	<circle cx="334.356" cy="143.587" r="4" fill="#0" id="circle113"/>
	<circle cx="334.356" cy="298.064" r="4" fill="#0" id="circle114"/>
	<circle cx="334.356" cy="307.37" r="4" fill="#0" id="circle115"/>
	<circle cx="334.356" cy="316.675" r="4" fill="#0" id="circle116"/>
	<circle cx="334.356" cy="325.981" r="4" fill="#0" id="circle117"/>
	<circle cx="334.356" cy="335.287" r="4" fill="#0" id="circle118"/>
	<circle cx="334.356" cy="344.593" r="4" fill="#0" id="circle119"/>
	<circle cx="334.356" cy="353.899" r="4" fill="#0" id="circle120"/>
	<circle cx="334.356" cy="363.205" r="4" fill="#0" id="circle121"/>
	<circle cx="334.356" cy="372.51" r="4" fill="#0" id="circle122"/>
	<circle cx="337.148" cy="381.816" r="4" fill="#0" id="circle123"/>
	<circle cx="343.662" cy="143.587" r="4" fill="#0" id="circle124"/>
	<circle cx="344.593" cy="388.33" r="4" fill="#0" id="circle125"/>
	<circle cx="352.968" cy="143.587" r="4" fill="#0" id="circle126"/>
	<circle cx="353.899" cy="391.122" r="4" fill="#0" id="circle127"/>
	<circle cx="362.274" cy="143.587" r="4" fill="#0" id="circle128"/>
	<circle cx="363.205" cy="391.122" r="4" fill="#0" id="circle129"/>
	<circle cx="371.58" cy="143.587" r="4" fill="#0" id="circle130"/>
	<circle cx="371.58" cy="386.469" r="4" fill="#0" id="circle131"/>
	<circle cx="377.163" cy="377.163" r="4" fill="#0" id="circle132"/>
	<circle cx="379.024" cy="149.171" r="4" fill="#0" id="circle133"/>
	<circle cx="381.816" cy="316.675" r="4" fill="#0" id="circle134"/>
	<circle cx="381.816" cy="325.981" r="4" fill="#0" id="circle135"/>
	<circle cx="381.816" cy="335.287" r="4" fill="#0" id="circle136"/>
	<circle cx="381.816" cy="344.593" r="4" fill="#0" id="circle137"/>
	<circle cx="381.816" cy="353.899" r="4" fill="#0" id="circle138"/>
	<circle cx="381.816" cy="363.205" r="4" fill="#0" id="circle139"/>
	<circle cx="386.469" cy="155.685" r="4" fill="#0" id="circle140"/>
	<circle cx="386.469" cy="307.37" r="4" fill="#0" id="circle141"/>
	<circle cx="390.191" cy="164.991" r="4" fill="#0" id="circle142"/>
	<circle cx="394.844" cy="173.366" r="4" fill="#0" id="circle143"/>
	<circle cx="395.775" cy="307.37" r="4" fill="#0" id="circle144"/>
	<circle cx="400.428" cy="180.811" r="4" fill="#0" id="circle145"/>
	<circle cx="404.15" cy="302.717" r="4" fill="#0" id="circle146"/>
	<circle cx="405.081" cy="189.186" r="4" fill="#0" id="circle147"/>
	<circle cx="412.525" cy="194.769" r="4" fill="#0" id="circle148"/>
	<circle cx="413.456" cy="302.717" r="4" fill="#0" id="circle149"/>
	<circle cx="421.831" cy="194.769" r="4" fill="#0" id="circle150"/>
	<circle cx="421.831" cy="307.37" r="4" fill="#0" id="circle151"/>
	<circle cx="422.762" cy="316.675" r="4" fill="#0" id="circle152"/>
	<circle cx="422.762" cy="325.981" r="4" fill="#0" id="circle153"/>
	<circle cx="427.415" cy="334.356" r="4" fill="#0" id="circle154"/>
	<circle cx="427.415" cy="343.662" r="4" fill="#0" id="circle155"/>
	<circle cx="427.415" cy="352.968" r="4" fill="#0" id="circle156"/>
	<circle cx="429.276" cy="362.274" r="4" fill="#0" id="circle157"/>
	<circle cx="431.137" cy="194.769" r="4" fill="#0" id="circle158"/>
	<circle cx="433.929" cy="370.649" r="4" fill="#0" id="circle159"/>
	<circle cx="437.651" cy="379.955" r="4" fill="#0" id="circle160"/>
	<circle cx="440.443" cy="194.769" r="4" fill="#0" id="circle161"/>
	<circle cx="442.304" cy="388.33" r="4" fill="#0" id="circle162"/>
	<circle cx="448.818" cy="395.775" r="4" fill="#0" id="circle163"/>
	<circle cx="449.749" cy="194.769" r="4" fill="#0" id="circle164"/>
	<circle cx="456.263" cy="402.289" r="4" fill="#0" id="circle165"/>
	<circle cx="459.054" cy="194.769" r="4" fill="#0" id="circle166"/>
	<circle cx="465.568" cy="405.081" r="4" fill="#0" id="circle167"/>
	<circle cx="468.36" cy="194.769" r="4" fill="#0" id="circle168"/>
	<circle cx="473.944" cy="155.685" r="4" fill="#0" id="circle169"/>
	<circle cx="473.944" cy="164.991" r="4" fill="#0" id="circle170"/>
	<circle cx="473.944" cy="174.296" r="4" fill="#0" id="circle171"/>
	<circle cx="473.944" cy="183.602" r="4" fill="#0" id="circle172"/>
	<circle cx="474.874" cy="406.942" r="4" fill="#0" id="circle173"/>
	<circle cx="478.597" cy="141.726" r="4" fill="#0" id="circle174"/>
	<circle cx="483.25" cy="132.42" r="4" fill="#0" id="circle175"/>
	<circle cx="484.18" cy="409.734" r="4" fill="#0" id="circle176"/>
	<circle cx="487.902" cy="123.114" r="4" fill="#0" id="circle177"/>
	<circle cx="493.486" cy="411.595" r="4" fill="#0" id="circle178"/>
	<circle cx="495.347" cy="115.67" r="4" fill="#0" id="circle179"/>
	<circle cx="502.792" cy="108.225" r="4" fill="#0" id="circle180"/>
	<circle cx="502.792" cy="414.386" r="4" fill="#0" id="circle181"/>
	<circle cx="511.167" cy="419.039" r="4" fill="#0" id="circle182"/>
	<circle cx="512.098" cy="103.572" r="4" fill="#0" id="circle183"/>
	<circle cx="519.542" cy="97.0582" r="4" fill="#0" id="circle184"/>
	<circle cx="520.473" cy="20.7505" r="4" fill="#0" id="circle185"/>
	<circle cx="520.473" cy="30.0563" r="4" fill="#0" id="circle186"/>
	<circle cx="520.473" cy="39.3621" r="4" fill="#0" id="circle187"/>
	<circle cx="520.473" cy="419.039" r="4" fill="#0" id="circle188"/>
	<circle cx="525.126" cy="11.4447" r="4" fill="#0" id="circle189"/>
	<circle cx="525.126" cy="47.7373" r="4" fill="#0" id="circle190"/>
	<circle cx="526.056" cy="89.6135" r="4" fill="#0" id="circle191"/>
	<circle cx="529.779" cy="419.039" r="4" fill="#0" id="circle192"/>
	<circle cx="531.64" cy="55.182" r="4" fill="#0" id="circle193"/>
	<circle cx="533.501" cy="83.0994" r="4" fill="#0" id="circle194"/>
	<circle cx="534.432" cy="6.79174" r="4" fill="#0" id="circle195"/>
	<circle cx="534.432" cy="64.4878" r="4" fill="#0" id="circle196"/>
	<circle cx="534.432" cy="73.7936" r="4" fill="#0" id="circle197"/>
	<circle cx="539.084" cy="419.039" r="4" fill="#0" id="circle198"/>
	<circle cx="543.737" cy="4" r="4" fill="#0" id="circle199"/>
	<circle cx="548.39" cy="419.039" r="4" fill="#0" id="circle200"/>
	<circle cx="553.043" cy="4" r="4" fill="#0" id="circle201"/>
	<circle cx="557.696" cy="419.039" r="4" fill="#0" id="circle202"/>
	<circle cx="562.349" cy="5.86116" r="4" fill="#0" id="circle203"/>
	<circle cx="567.002" cy="416.248" r="4" fill="#0" id="circle204"/>
	<circle cx="570.724" cy="10.5141" r="4" fill="#0" id="circle205"/>
	<circle cx="576.308" cy="411.595" r="4" fill="#0" id="circle206"/>
	<circle cx="580.03" cy="14.2364" r="4" fill="#0" id="circle207"/>
	<circle cx="581.891" cy="400.428" r="4" fill="#0" id="circle208"/>
	<circle cx="586.544" cy="21.6811" r="4" fill="#0" id="circle209"/>
	<circle cx="586.544" cy="242.229" r="4" fill="#0" id="circle210"/>
	<circle cx="586.544" cy="251.535" r="4" fill="#0" id="circle211"/>
	<circle cx="586.544" cy="260.841" r="4" fill="#0" id="circle212"/>
	<circle cx="586.544" cy="270.146" r="4" fill="#0" id="circle213"/>
	<circle cx="586.544" cy="391.122" r="4" fill="#0" id="circle214"/>
	<circle cx="591.197" cy="30.0563" r="4" fill="#0" id="circle215"/>
	<circle cx="591.197" cy="278.522" r="4" fill="#0" id="circle216"/>
	<circle cx="591.197" cy="287.827" r="4" fill="#0" id="circle217"/>
	<circle cx="591.197" cy="297.133" r="4" fill="#0" id="circle218"/>
	<circle cx="591.197" cy="306.439" r="4" fill="#0" id="circle219"/>
	<circle cx="591.197" cy="315.745" r="4" fill="#0" id="circle220"/>
	<circle cx="591.197" cy="325.051" r="4" fill="#0" id="circle221"/>
	<circle cx="591.197" cy="334.356" r="4" fill="#0" id="circle222"/>
	<circle cx="591.197" cy="343.662" r="4" fill="#0" id="circle223"/>
	<circle cx="591.197" cy="352.968" r="4" fill="#0" id="circle224"/>
	<circle cx="591.197" cy="362.274" r="4" fill="#0" id="circle225"/>
	<circle cx="591.197" cy="371.58" r="4" fill="#0" id="circle226"/>
	<circle cx="591.197" cy="380.886" r="4" fill="#0" id="circle227"/>
	<circle cx="594.919" cy="39.3621" r="4" fill="#0" id="circle228"/>
	<circle cx="595.85" cy="242.229" r="4" fill="#0" id="circle229"/>
	<circle cx="599.572" cy="47.7373" r="4" fill="#0" id="circle230"/>
	<circle cx="603.295" cy="57.0432" r="4" fill="#0" id="circle231"/>
	<circle cx="605.156" cy="66.349" r="4" fill="#0" id="circle232"/>
	<circle cx="605.156" cy="242.229" r="4" fill="#0" id="circle233"/>
	<circle cx="609.809" cy="74.7242" r="4" fill="#0" id="circle234"/>
	<circle cx="609.809" cy="84.03" r="4" fill="#0" id="circle235"/>
	<circle cx="613.531" cy="246.882" r="4" fill="#0" id="circle236"/>
	<circle cx="614.462" cy="92.4053" r="4" fill="#0" id="circle237"/>
	<circle cx="619.114" cy="100.78" r="4" fill="#0" id="circle238"/>
	<circle cx="621.906" cy="251.535" r="4" fill="#0" id="circle239"/>
	<circle cx="623.767" cy="109.156" r="4" fill="#0" id="circle240"/>
	<circle cx="623.767" cy="118.462" r="4" fill="#0" id="circle241"/>
	<circle cx="628.42" cy="126.837" r="4" fill="#0" id="circle242"/>
	<circle cx="628.42" cy="136.143" r="4" fill="#0" id="circle243"/>
	<circle cx="628.42" cy="145.448" r="4" fill="#0" id="circle244"/>
	<circle cx="628.42" cy="154.754" r="4" fill="#0" id="circle245"/>
	<circle cx="628.42" cy="164.06" r="4" fill="#0" id="circle246"/>
	<circle cx="628.42" cy="173.366" r="4" fill="#0" id="circle247"/>
	<circle cx="628.42" cy="182.672" r="4" fill="#0" id="circle248"/>
	<circle cx="628.42" cy="258.979" r="4" fill="#0" id="circle249"/>
	<circle cx="631.212" cy="191.977" r="4" fill="#0" id="circle250"/>
	<circle cx="635.865" cy="265.493" r="4" fill="#0" id="circle251"/>
	<circle cx="640.518" cy="194.769" r="4" fill="#0" id="circle252"/>
	<circle cx="642.379" cy="272.938" r="4" fill="#0" id="circle253"/>
	<circle cx="649.824" cy="194.769" r="4" fill="#0" id="circle254"/>
	<circle cx="649.824" cy="279.452" r="4" fill="#0" id="circle255"/>
	<circle cx="656.338" cy="286.897" r="4" fill="#0" id="circle256"/>
	<circle cx="659.129" cy="195.7" r="4" fill="#0" id="circle257"/>
	<circle cx="660.991" cy="295.272" r="4" fill="#0" id="circle258"/>
	<circle cx="664.713" cy="304.578" r="4" fill="#0" id="circle259"/>
	<circle cx="668.435" cy="199.422" r="4" fill="#0" id="circle260"/>
	<circle cx="672.158" cy="311.092" r="4" fill="#0" id="circle261"/>
	<circle cx="674.019" cy="320.398" r="4" fill="#0" id="circle262"/>
	<circle cx="674.019" cy="329.704" r="4" fill="#0" id="circle263"/>
	<circle cx="674.019" cy="339.009" r="4" fill="#0" id="circle264"/>
	<circle cx="677.741" cy="199.422" r="4" fill="#0" id="circle265"/>
	<circle cx="679.602" cy="346.454" r="4" fill="#0" id="circle266"/>
	<circle cx="686.116" cy="353.899" r="4" fill="#0" id="circle267"/>
	<circle cx="687.047" cy="199.422" r="4" fill="#0" id="circle268"/>
	<circle cx="695.422" cy="194.769" r="4" fill="#0" id="circle269"/>
	<circle cx="695.422" cy="353.899" r="4" fill="#0" id="circle270"/>
	<circle cx="697.283" cy="183.602" r="4" fill="#0" id="circle271"/>
	<circle cx="701.936" cy="174.296" r="4" fill="#0" id="circle272"/>
	<circle cx="704.728" cy="357.621" r="4" fill="#0" id="circle273"/>
	<circle cx="706.589" cy="164.991" r="4" fill="#0" id="circle274"/>
	<circle cx="714.034" cy="157.546" r="4" fill="#0" id="circle275"/>
	<circle cx="714.034" cy="358.552" r="4" fill="#0" id="circle276"/>
	<circle cx="722.409" cy="363.205" r="4" fill="#0" id="circle277"/>
	<circle cx="723.34" cy="152.893" r="4" fill="#0" id="circle278"/>
	<circle cx="730.784" cy="145.448" r="4" fill="#0" id="circle279"/>
	<circle cx="731.715" cy="363.205" r="4" fill="#0" id="circle280"/>
	<circle cx="740.09" cy="140.795" r="4" fill="#0" id="circle281"/>
	<circle cx="741.021" cy="363.205" r="4" fill="#0" id="circle282"/>
	<circle cx="748.465" cy="104.503" r="4" fill="#0" id="circle283"/>
	<circle cx="748.465" cy="113.809" r="4" fill="#0" id="circle284"/>
	<circle cx="748.465" cy="123.114" r="4" fill="#0" id="circle285"/>
	<circle cx="748.465" cy="132.42" r="4" fill="#0" id="circle286"/>
	<circle cx="750.326" cy="363.205" r="4" fill="#0" id="circle287"/>
	<circle cx="753.118" cy="90.5441" r="4" fill="#0" id="circle288"/>
	<circle cx="759.632" cy="363.205" r="4" fill="#0" id="circle289"/>
	<circle cx="760.563" cy="83.0994" r="4" fill="#0" id="circle290"/>
	<circle cx="768.938" cy="78.4465" r="4" fill="#0" id="circle291"/>
	<circle cx="768.938" cy="363.205" r="4" fill="#0" id="circle292"/>
	<circle cx="773.591" cy="371.58" r="4" fill="#0" id="circle293"/>
	<circle cx="777.313" cy="73.7936" r="4" fill="#0" id="circle294"/>
	<circle cx="778.244" cy="379.955" r="4" fill="#0" id="circle295"/>
	<circle cx="785.689" cy="69.1407" r="4" fill="#0" id="circle296"/>
	<circle cx="785.689" cy="386.469" r="4" fill="#0" id="circle297"/>
	<circle cx="788.48" cy="395.775" r="4" fill="#0" id="circle298"/>
	<circle cx="794.994" cy="69.1407" r="4" fill="#0" id="circle299"/>
	<circle cx="794.994" cy="403.22" r="4" fill="#0" id="circle300"/>
	<circle cx="802.439" cy="409.734" r="4" fill="#0" id="circle301"/>
	<circle cx="804.3" cy="69.1407" r="4" fill="#0" id="circle302"/>
	<circle cx="809.884" cy="416.248" r="4" fill="#0" id="circle303"/>
	<circle cx="813.606" cy="69.1407" r="4" fill="#0" id="circle304"/>
	<circle cx="818.259" cy="420.901" r="4" fill="#0" id="circle305"/>
	<circle cx="822.912" cy="71.0019" r="4" fill="#0" id="circle306"/>
	<circle cx="827.565" cy="423.692" r="4" fill="#0" id="circle307"/>
	<circle cx="828.495" cy="78.4465" r="4" fill="#0" id="circle308"/>
	<circle cx="833.148" cy="86.8218" r="4" fill="#0" id="circle309"/>
	<circle cx="835.94" cy="428.345" r="4" fill="#0" id="circle310"/>
	<circle cx="837.801" cy="95.197" r="4" fill="#0" id="circle311"/>
	<circle cx="837.801" cy="104.503" r="4" fill="#0" id="circle312"/>
	<circle cx="837.801" cy="113.809" r="4" fill="#0" id="circle313"/>
	<circle cx="837.801" cy="123.114" r="4" fill="#0" id="circle314"/>
	<circle cx="844.315" cy="432.998" r="4" fill="#0" id="circle315"/>
	<circle cx="846.176" cy="127.767" r="4" fill="#0" id="circle316"/>
	<circle cx="853.621" cy="134.281" r="4" fill="#0" id="circle317"/>
	<circle cx="853.621" cy="432.998" r="4" fill="#0" id="circle318"/>
	<circle cx="861.996" cy="437.651" r="4" fill="#0" id="circle319"/>
	<circle cx="862.927" cy="134.281" r="4" fill="#0" id="circle320"/>
	<circle cx="871.302" cy="437.651" r="4" fill="#0" id="circle321"/>
	<circle cx="872.233" cy="134.281" r="4" fill="#0" id="circle322"/>
	<circle cx="880.608" cy="437.651" r="4" fill="#0" id="circle323"/>
	<circle cx="881.538" cy="134.281" r="4" fill="#0" id="circle324"/>
	<circle cx="889.914" cy="437.651" r="4" fill="#0" id="circle325"/>
	<circle cx="890.844" cy="134.281" r="4" fill="#0" id="circle326"/>
	<circle cx="899.22" cy="437.651" r="4" fill="#0" id="circle327"/>
	<circle cx="900.15" cy="134.281" r="4" fill="#0" id="circle328"/>
	<circle cx="908.525" cy="138.934" r="4" fill="#0" id="circle329"/>
	<circle cx="908.525" cy="437.651" r="4" fill="#0" id="circle330"/>
	<circle cx="912.248" cy="148.24" r="4" fill="#0" id="circle331"/>
	<circle cx="916.901" cy="156.615" r="4" fill="#0" id="circle332"/>
	<circle cx="916.901" cy="165.921" r="4" fill="#0" id="circle333"/>
	<circle cx="916.901" cy="175.227" r="4" fill="#0" id="circle334"/>
	<circle cx="916.901" cy="184.533" r="4" fill="#0" id="circle335"/>
	<circle cx="916.901" cy="193.839" r="4" fill="#0" id="circle336"/>
	<circle cx="916.901" cy="203.144" r="4" fill="#0" id="circle337"/>
	<circle cx="916.901" cy="212.45" r="4" fill="#0" id="circle338"/>
	<circle cx="917.831" cy="437.651" r="4" fill="#0" id="circle339"/>
	<circle cx="921.553" cy="220.826" r="4" fill="#0" id="circle340"/>
	<circle cx="927.137" cy="437.651" r="4" fill="#0" id="circle341"/>
	<circle cx="928.998" cy="227.34" r="4" fill="#0" id="circle342"/>
	<circle cx="936.443" cy="437.651" r="4" fill="#0" id="circle343"/>
	<circle cx="937.373" cy="231.992" r="4" fill="#0" id="circle344"/>
	<circle cx="944.818" cy="432.998" r="4" fill="#0" id="circle345"/>
	<circle cx="946.679" cy="231.992" r="4" fill="#0" id="circle346"/>
	<circle cx="952.263" cy="426.484" r="4" fill="#0" id="circle347"/>
	<circle cx="955.054" cy="236.645" r="4" fill="#0" id="circle348"/>
	<circle cx="958.777" cy="419.039" r="4" fill="#0" id="circle349"/>
	<circle cx="962.499" cy="243.159" r="4" fill="#0" id="circle350"/>
	<circle cx="966.221" cy="412.525" r="4" fill="#0" id="circle351"/>
	<circle cx="968.083" cy="250.604" r="4" fill="#0" id="circle352"/>
	<circle cx="972.735" cy="405.081" r="4" fill="#0" id="circle353"/>
	<circle cx="975.527" cy="256.188" r="4" fill="#0" id="circle354"/>
	<circle cx="979.25" cy="265.493" r="4" fill="#0" id="circle355"/>
	<circle cx="980.18" cy="398.567" r="4" fill="#0" id="circle356"/>
	<circle cx="982.041" cy="274.799" r="4" fill="#0" id="circle357"/>
	<circle cx="984.833" cy="389.261" r="4" fill="#0" id="circle358"/>
	<circle cx="986.694" cy="283.174" r="4" fill="#0" id="circle359"/>
	<circle cx="986.694" cy="292.48" r="4" fill="#0" id="circle360"/>
	<circle cx="989.486" cy="379.955" r="4" fill="#0" id="circle361"/>
	<circle cx="991.347" cy="300.856" r="4" fill="#0" id="circle362"/>
	<circle cx="991.347" cy="367.857" r="4" fill="#0" id="circle363"/>
	<circle cx="996" cy="309.231" r="4" fill="#0" id="circle364"/>
	<circle cx="996" cy="318.537" r="4" fill="#0" id="circle365"/>
	<circle cx="996" cy="327.842" r="4" fill="#0" id="circle366"/>
	<circle cx="996" cy="337.148" r="4" fill="#0" id="circle367"/>
	<circle cx="996" cy="346.454" r="4" fill="#0" id="circle368"/>
	<circle cx="996" cy="355.76" r="4" fill="#0" id="circle369"/>
	</g>
</svg>