<?xml version="1.0" encoding="UTF-8" standalone="no"?>
<!-- Created with CurveBenchmark -->
<svg
	xmlns:dc="http://purl.org/dc/elements/1.1/"
	xmlns:cc="http://creativecommons.org/ns#"
	xmlns:rdf="http://www.w3.org/1999/02/22-rdf-syntax-ns#"
	xmlns:svg="http://www.w3.org/2000/svg"
	xmlns="http://www.w3.org/2000/svg"
	xmlns:sodipodi="http://sodipodi.sourceforge.net/DTD/sodipodi-0.dtd"
	xmlns:inkscape="http://www.inkscape.org/namespaces/inkscape"
	width="1000"
	height="1000"
	id="svg2"
	version="1.1"
	sodipodi:docname="manifold/vicur-chopper-17.png.txt">
<defs
	id="defs4" />
<metadata
	id="metadata7">
	<rdf:RDF>
		<cc:Work
			rdf:about="">
			<dc:format>image/svg+xml</dc:format>
			<dc:type
				rdf:resource="http://purl.org/dc/dcmitype/StillImage" />
			<dc:title></dc:title>
		</cc:Work>
	</rdf:RDF>
</metadata>
<g
	inkscape:label="Layer 1"
	inkscape:groupmode="layer"
	id="layer1">
	<path style="fill:none;stroke:red;stroke-width:1px;stroke-linecap:butt;stroke-linejoin:miter;stroke-opacity:1" d="M 4,357.813 4,374.347 z" id="boundary" inkscape:connector-curvature="0" />
	<path style="fill:none;stroke:red;stroke-width:1px;stroke-linecap:butt;stroke-linejoin:miter;stroke-opacity:1" d="M 4,357.813 8.13333,341.28 z" id="boundary" inkscape:connector-curvature="0" />
	<path style="fill:none;stroke:red;stroke-width:1px;stroke-linecap:butt;stroke-linejoin:miter;stroke-opacity:1" d="M 4,374.347 4,390.88 z" id="boundary" inkscape:connector-curvature="0" />
	<path style="fill:none;stroke:red;stroke-width:1px;stroke-linecap:butt;stroke-linejoin:miter;stroke-opacity:1" d="M 4,390.88 4,399.147 z" id="boundary" inkscape:connector-curvature="0" />
	<path style="fill:none;stroke:red;stroke-width:1px;stroke-linecap:butt;stroke-linejoin:miter;stroke-opacity:1" d="M 4,415.68 8.13333,423.12 z" id="boundary" inkscape:connector-curvature="0" />
	<path style="fill:none;stroke:red;stroke-width:1px;stroke-linecap:butt;stroke-linejoin:miter;stroke-opacity:1" d="M 8.13333,341.28 12.2667,320.613 z" id="boundary" inkscape:connector-curvature="0" />
	<path style="fill:none;stroke:red;stroke-width:1px;stroke-linecap:butt;stroke-linejoin:miter;stroke-opacity:1" d="M 8.13333,423.12 12.2667,430.56 z" id="boundary" inkscape:connector-curvature="0" />
	<path style="fill:none;stroke:red;stroke-width:1px;stroke-linecap:butt;stroke-linejoin:miter;stroke-opacity:1" d="M 12.2667,320.613 16.4,308.213 z" id="boundary" inkscape:connector-curvature="0" />
	<path style="fill:none;stroke:red;stroke-width:1px;stroke-linecap:butt;stroke-linejoin:miter;stroke-opacity:1" d="M 12.2667,430.56 17.2267,437.173 z" id="boundary" inkscape:connector-curvature="0" />
	<path style="fill:none;stroke:red;stroke-width:1px;stroke-linecap:butt;stroke-linejoin:miter;stroke-opacity:1" d="M 16.4,308.213 20.5333,299.947 z" id="boundary" inkscape:connector-curvature="0" />
	<path style="fill:none;stroke:red;stroke-width:1px;stroke-linecap:butt;stroke-linejoin:miter;stroke-opacity:1" d="M 17.2267,437.173 25.4933,440.48 z" id="boundary" inkscape:connector-curvature="0" />
	<path style="fill:none;stroke:red;stroke-width:1px;stroke-linecap:butt;stroke-linejoin:miter;stroke-opacity:1" d="M 31.28,285.067 37.8933,278.453 z" id="boundary" inkscape:connector-curvature="0" />
	<path style="fill:none;stroke:red;stroke-width:1px;stroke-linecap:butt;stroke-linejoin:miter;stroke-opacity:1" d="M 37.8933,278.453 42.0267,270.187 z" id="boundary" inkscape:connector-curvature="0" />
	<path style="fill:none;stroke:red;stroke-width:1px;stroke-linecap:butt;stroke-linejoin:miter;stroke-opacity:1" d="M 42.0267,270.187 48.64,264.4 z" id="boundary" inkscape:connector-curvature="0" />
	<path style="fill:none;stroke:red;stroke-width:1px;stroke-linecap:butt;stroke-linejoin:miter;stroke-opacity:1" d="M 45.3333,519.013 51.9467,524.8 z" id="boundary" inkscape:connector-curvature="0" />
	<path style="fill:none;stroke:red;stroke-width:1px;stroke-linecap:butt;stroke-linejoin:miter;stroke-opacity:1" d="M 48.64,264.4 54.4267,257.787 z" id="boundary" inkscape:connector-curvature="0" />
	<path style="fill:none;stroke:red;stroke-width:1px;stroke-linecap:butt;stroke-linejoin:miter;stroke-opacity:1" d="M 51.9467,524.8 58.56,529.76 z" id="boundary" inkscape:connector-curvature="0" />
	<path style="fill:none;stroke:red;stroke-width:1px;stroke-linecap:butt;stroke-linejoin:miter;stroke-opacity:1" d="M 53.6,502.48 60.2133,495.867 z" id="boundary" inkscape:connector-curvature="0" />
	<path style="fill:none;stroke:red;stroke-width:1px;stroke-linecap:butt;stroke-linejoin:miter;stroke-opacity:1" d="M 54.4267,257.787 58.56,249.52 z" id="boundary" inkscape:connector-curvature="0" />
	<path style="fill:none;stroke:red;stroke-width:1px;stroke-linecap:butt;stroke-linejoin:miter;stroke-opacity:1" d="M 58.56,249.52 65.1733,243.733 z" id="boundary" inkscape:connector-curvature="0" />
	<path style="fill:none;stroke:red;stroke-width:1px;stroke-linecap:butt;stroke-linejoin:miter;stroke-opacity:1" d="M 60.2133,495.867 67.6533,491.733 z" id="boundary" inkscape:connector-curvature="0" />
	<path style="fill:none;stroke:red;stroke-width:1px;stroke-linecap:butt;stroke-linejoin:miter;stroke-opacity:1" d="M 65.1733,243.733 70.96,237.12 z" id="boundary" inkscape:connector-curvature="0" />
	<path style="fill:none;stroke:red;stroke-width:1px;stroke-linecap:butt;stroke-linejoin:miter;stroke-opacity:1" d="M 70.96,237.12 77.5733,231.333 z" id="boundary" inkscape:connector-curvature="0" />
	<path style="fill:none;stroke:red;stroke-width:1px;stroke-linecap:butt;stroke-linejoin:miter;stroke-opacity:1" d="M 77.5733,231.333 83.36,224.72 z" id="boundary" inkscape:connector-curvature="0" />
	<path style="fill:none;stroke:red;stroke-width:1px;stroke-linecap:butt;stroke-linejoin:miter;stroke-opacity:1" d="M 83.36,224.72 89.9733,218.933 z" id="boundary" inkscape:connector-curvature="0" />
	<path style="fill:none;stroke:red;stroke-width:1px;stroke-linecap:butt;stroke-linejoin:miter;stroke-opacity:1" d="M 84.1867,491.733 91.6267,495.867 z" id="boundary" inkscape:connector-curvature="0" />
	<path style="fill:none;stroke:red;stroke-width:1px;stroke-linecap:butt;stroke-linejoin:miter;stroke-opacity:1" d="M 89.9733,218.933 95.76,212.32 z" id="boundary" inkscape:connector-curvature="0" />
	<path style="fill:none;stroke:red;stroke-width:1px;stroke-linecap:butt;stroke-linejoin:miter;stroke-opacity:1" d="M 91.6267,495.867 95.76,503.307 z" id="boundary" inkscape:connector-curvature="0" />
	<path style="fill:none;stroke:red;stroke-width:1px;stroke-linecap:butt;stroke-linejoin:miter;stroke-opacity:1" d="M 95.76,212.32 102.373,206.533 z" id="boundary" inkscape:connector-curvature="0" />
	<path style="fill:none;stroke:red;stroke-width:1px;stroke-linecap:butt;stroke-linejoin:miter;stroke-opacity:1" d="M 95.76,503.307 105.68,517.36 z" id="boundary" inkscape:connector-curvature="0" />
	<path style="fill:none;stroke:red;stroke-width:1px;stroke-linecap:butt;stroke-linejoin:miter;stroke-opacity:1" d="M 102.373,206.533 108.16,199.92 z" id="boundary" inkscape:connector-curvature="0" />
	<path style="fill:none;stroke:red;stroke-width:1px;stroke-linecap:butt;stroke-linejoin:miter;stroke-opacity:1" d="M 105.68,517.36 114.773,524.8 z" id="boundary" inkscape:connector-curvature="0" />
	<path style="fill:none;stroke:red;stroke-width:1px;stroke-linecap:butt;stroke-linejoin:miter;stroke-opacity:1" d="M 108.16,199.92 116.427,195.787 z" id="boundary" inkscape:connector-curvature="0" />
	<path style="fill:none;stroke:red;stroke-width:1px;stroke-linecap:butt;stroke-linejoin:miter;stroke-opacity:1" d="M 108.16,529.76 114.773,524.8 z" id="boundary" inkscape:connector-curvature="0" />
	<path style="fill:none;stroke:red;stroke-width:1px;stroke-linecap:butt;stroke-linejoin:miter;stroke-opacity:1" d="M 116.427,195.787 123.04,190 z" id="boundary" inkscape:connector-curvature="0" />
	<path style="fill:none;stroke:red;stroke-width:1px;stroke-linecap:butt;stroke-linejoin:miter;stroke-opacity:1" d="M 120.56,518.187 121.387,529.76 z" id="boundary" inkscape:connector-curvature="0" />
	<path style="fill:none;stroke:red;stroke-width:1px;stroke-linecap:butt;stroke-linejoin:miter;stroke-opacity:1" d="M 120.56,518.187 135.44,512.4 z" id="boundary" inkscape:connector-curvature="0" />
	<path style="fill:none;stroke:red;stroke-width:1px;stroke-linecap:butt;stroke-linejoin:miter;stroke-opacity:1" d="M 121.387,529.76 137.92,529.76 z" id="boundary" inkscape:connector-curvature="0" />
	<path style="fill:none;stroke:red;stroke-width:1px;stroke-linecap:butt;stroke-linejoin:miter;stroke-opacity:1" d="M 123.04,190 130.48,185.867 z" id="boundary" inkscape:connector-curvature="0" />
	<path style="fill:none;stroke:red;stroke-width:1px;stroke-linecap:butt;stroke-linejoin:miter;stroke-opacity:1" d="M 130.48,185.867 137.093,179.253 z" id="boundary" inkscape:connector-curvature="0" />
	<path style="fill:none;stroke:red;stroke-width:1px;stroke-linecap:butt;stroke-linejoin:miter;stroke-opacity:1" d="M 135.44,512.4 151.973,512.4 z" id="boundary" inkscape:connector-curvature="0" />
	<path style="fill:none;stroke:red;stroke-width:1px;stroke-linecap:butt;stroke-linejoin:miter;stroke-opacity:1" d="M 137.92,529.76 154.453,529.76 z" id="boundary" inkscape:connector-curvature="0" />
	<path style="fill:none;stroke:red;stroke-width:1px;stroke-linecap:butt;stroke-linejoin:miter;stroke-opacity:1" d="M 151.973,512.4 167.68,508.267 z" id="boundary" inkscape:connector-curvature="0" />
	<path style="fill:none;stroke:red;stroke-width:1px;stroke-linecap:butt;stroke-linejoin:miter;stroke-opacity:1" d="M 153.627,170.987 160.24,165.2 z" id="boundary" inkscape:connector-curvature="0" />
	<path style="fill:none;stroke:red;stroke-width:1px;stroke-linecap:butt;stroke-linejoin:miter;stroke-opacity:1" d="M 154.453,529.76 170.16,525.627 z" id="boundary" inkscape:connector-curvature="0" />
	<path style="fill:none;stroke:red;stroke-width:1px;stroke-linecap:butt;stroke-linejoin:miter;stroke-opacity:1" d="M 160.24,165.2 167.68,161.067 z" id="boundary" inkscape:connector-curvature="0" />
	<path style="fill:none;stroke:red;stroke-width:1px;stroke-linecap:butt;stroke-linejoin:miter;stroke-opacity:1" d="M 167.68,508.267 184.213,504.133 z" id="boundary" inkscape:connector-curvature="0" />
	<path style="fill:none;stroke:red;stroke-width:1px;stroke-linecap:butt;stroke-linejoin:miter;stroke-opacity:1" d="M 170.16,525.627 186.693,525.627 z" id="boundary" inkscape:connector-curvature="0" />
	<path style="fill:none;stroke:red;stroke-width:1px;stroke-linecap:butt;stroke-linejoin:miter;stroke-opacity:1" d="M 184.213,504.133 200.747,500 z" id="boundary" inkscape:connector-curvature="0" />
	<path style="fill:none;stroke:red;stroke-width:1px;stroke-linecap:butt;stroke-linejoin:miter;stroke-opacity:1" d="M 186.693,525.627 194.96,525.627 z" id="boundary" inkscape:connector-curvature="0" />
	<path style="fill:none;stroke:red;stroke-width:1px;stroke-linecap:butt;stroke-linejoin:miter;stroke-opacity:1" d="M 194.96,525.627 211.493,525.627 z" id="boundary" inkscape:connector-curvature="0" />
	<path style="fill:none;stroke:red;stroke-width:1px;stroke-linecap:butt;stroke-linejoin:miter;stroke-opacity:1" d="M 211.493,525.627 228.027,525.627 z" id="boundary" inkscape:connector-curvature="0" />
	<path style="fill:none;stroke:red;stroke-width:1px;stroke-linecap:butt;stroke-linejoin:miter;stroke-opacity:1" d="M 228.027,525.627 244.56,521.493 z" id="boundary" inkscape:connector-curvature="0" />
	<path style="fill:none;stroke:red;stroke-width:1px;stroke-linecap:butt;stroke-linejoin:miter;stroke-opacity:1" d="M 244.56,521.493 252.827,521.493 z" id="boundary" inkscape:connector-curvature="0" />
	<path style="fill:none;stroke:red;stroke-width:1px;stroke-linecap:butt;stroke-linejoin:miter;stroke-opacity:1" d="M 252.827,521.493 269.36,521.493 z" id="boundary" inkscape:connector-curvature="0" />
	<path style="fill:none;stroke:red;stroke-width:1px;stroke-linecap:butt;stroke-linejoin:miter;stroke-opacity:1" d="M 269.36,521.493 277.627,521.493 z" id="boundary" inkscape:connector-curvature="0" />
	<path style="fill:none;stroke:red;stroke-width:1px;stroke-linecap:butt;stroke-linejoin:miter;stroke-opacity:1" d="M 277.627,521.493 285.067,517.36 z" id="boundary" inkscape:connector-curvature="0" />
	<path style="fill:none;stroke:red;stroke-width:1px;stroke-linecap:butt;stroke-linejoin:miter;stroke-opacity:1" d="M 285.067,517.36 301.6,517.36 z" id="boundary" inkscape:connector-curvature="0" />
	<path style="fill:none;stroke:red;stroke-width:1px;stroke-linecap:butt;stroke-linejoin:miter;stroke-opacity:1" d="M 318.133,37.8933 326.4,37.8933 z" id="boundary" inkscape:connector-curvature="0" />
	<path style="fill:none;stroke:red;stroke-width:1px;stroke-linecap:butt;stroke-linejoin:miter;stroke-opacity:1" d="M 318.133,517.36 325.573,513.227 z" id="boundary" inkscape:connector-curvature="0" />
	<path style="fill:none;stroke:red;stroke-width:1px;stroke-linecap:butt;stroke-linejoin:miter;stroke-opacity:1" d="M 325.573,513.227 333.84,513.227 z" id="boundary" inkscape:connector-curvature="0" />
	<path style="fill:none;stroke:red;stroke-width:1px;stroke-linecap:butt;stroke-linejoin:miter;stroke-opacity:1" d="M 326.4,37.8933 333.84,42.0267 z" id="boundary" inkscape:connector-curvature="0" />
	<path style="fill:none;stroke:red;stroke-width:1px;stroke-linecap:butt;stroke-linejoin:miter;stroke-opacity:1" d="M 333.84,42.0267 341.28,46.16 z" id="boundary" inkscape:connector-curvature="0" />
	<path style="fill:none;stroke:red;stroke-width:1px;stroke-linecap:butt;stroke-linejoin:miter;stroke-opacity:1" d="M 345.413,12.2667 353.68,12.2667 z" id="boundary" inkscape:connector-curvature="0" />
	<path style="fill:none;stroke:red;stroke-width:1px;stroke-linecap:butt;stroke-linejoin:miter;stroke-opacity:1" d="M 353.68,12.2667 361.12,8.13333 z" id="boundary" inkscape:connector-curvature="0" />
	<path style="fill:none;stroke:red;stroke-width:1px;stroke-linecap:butt;stroke-linejoin:miter;stroke-opacity:1" d="M 357.813,50.2933 366.08,50.2933 z" id="boundary" inkscape:connector-curvature="0" />
	<path style="fill:none;stroke:red;stroke-width:1px;stroke-linecap:butt;stroke-linejoin:miter;stroke-opacity:1" d="M 361.12,8.13333 368.56,4 z" id="boundary" inkscape:connector-curvature="0" />
	<path style="fill:none;stroke:red;stroke-width:1px;stroke-linecap:butt;stroke-linejoin:miter;stroke-opacity:1" d="M 363.6,85.0133 367.733,76.7467 z" id="boundary" inkscape:connector-curvature="0" />
	<path style="fill:none;stroke:red;stroke-width:1px;stroke-linecap:butt;stroke-linejoin:miter;stroke-opacity:1" d="M 366.08,50.2933 371.867,64.3467 z" id="boundary" inkscape:connector-curvature="0" />
	<path style="fill:none;stroke:red;stroke-width:1px;stroke-linecap:butt;stroke-linejoin:miter;stroke-opacity:1" d="M 367.733,76.7467 371.867,64.3467 z" id="boundary" inkscape:connector-curvature="0" />
	<path style="fill:none;stroke:red;stroke-width:1px;stroke-linecap:butt;stroke-linejoin:miter;stroke-opacity:1" d="M 401.627,4 409.067,8.13333 z" id="boundary" inkscape:connector-curvature="0" />
	<path style="fill:none;stroke:red;stroke-width:1px;stroke-linecap:butt;stroke-linejoin:miter;stroke-opacity:1" d="M 409.067,8.13333 416.507,12.2667 z" id="boundary" inkscape:connector-curvature="0" />
	<path style="fill:none;stroke:red;stroke-width:1px;stroke-linecap:butt;stroke-linejoin:miter;stroke-opacity:1" d="M 414.027,46.16 421.467,42.0267 z" id="boundary" inkscape:connector-curvature="0" />
	<path style="fill:none;stroke:red;stroke-width:1px;stroke-linecap:butt;stroke-linejoin:miter;stroke-opacity:1" d="M 416.507,12.2667 423.947,16.4 z" id="boundary" inkscape:connector-curvature="0" />
	<path style="fill:none;stroke:red;stroke-width:1px;stroke-linecap:butt;stroke-linejoin:miter;stroke-opacity:1" d="M 421.467,42.0267 428.907,37.8933 z" id="boundary" inkscape:connector-curvature="0" />
	<path style="fill:none;stroke:red;stroke-width:1px;stroke-linecap:butt;stroke-linejoin:miter;stroke-opacity:1" d="M 424.773,504.96 433.04,503.307 z" id="boundary" inkscape:connector-curvature="0" />
	<path style="fill:none;stroke:red;stroke-width:1px;stroke-linecap:butt;stroke-linejoin:miter;stroke-opacity:1" d="M 433.04,503.307 445.44,490.907 z" id="boundary" inkscape:connector-curvature="0" />
	<path style="fill:none;stroke:red;stroke-width:1px;stroke-linecap:butt;stroke-linejoin:miter;stroke-opacity:1" d="M 445.44,490.907 447.093,476.027 z" id="boundary" inkscape:connector-curvature="0" />
	<path style="fill:none;stroke:red;stroke-width:1px;stroke-linecap:butt;stroke-linejoin:miter;stroke-opacity:1" d="M 447.093,459.493 447.093,476.027 z" id="boundary" inkscape:connector-curvature="0" />
	<path style="fill:none;stroke:red;stroke-width:1px;stroke-linecap:butt;stroke-linejoin:miter;stroke-opacity:1" d="M 454.533,455.36 461.973,451.227 z" id="boundary" inkscape:connector-curvature="0" />
	<path style="fill:none;stroke:red;stroke-width:1px;stroke-linecap:butt;stroke-linejoin:miter;stroke-opacity:1" d="M 461.973,451.227 477.68,447.093 z" id="boundary" inkscape:connector-curvature="0" />
	<path style="fill:none;stroke:red;stroke-width:1px;stroke-linecap:butt;stroke-linejoin:miter;stroke-opacity:1" d="M 477.68,447.093 494.213,442.96 z" id="boundary" inkscape:connector-curvature="0" />
	<path style="fill:none;stroke:red;stroke-width:1px;stroke-linecap:butt;stroke-linejoin:miter;stroke-opacity:1" d="M 494.213,442.96 502.48,442.96 z" id="boundary" inkscape:connector-curvature="0" />
	<path style="fill:none;stroke:red;stroke-width:1px;stroke-linecap:butt;stroke-linejoin:miter;stroke-opacity:1" d="M 502.48,442.96 509.92,438.827 z" id="boundary" inkscape:connector-curvature="0" />
	<path style="fill:none;stroke:red;stroke-width:1px;stroke-linecap:butt;stroke-linejoin:miter;stroke-opacity:1" d="M 509.92,438.827 526.453,438.827 z" id="boundary" inkscape:connector-curvature="0" />
	<path style="fill:none;stroke:red;stroke-width:1px;stroke-linecap:butt;stroke-linejoin:miter;stroke-opacity:1" d="M 512.4,108.987 519.84,113.12 z" id="boundary" inkscape:connector-curvature="0" />
	<path style="fill:none;stroke:red;stroke-width:1px;stroke-linecap:butt;stroke-linejoin:miter;stroke-opacity:1" d="M 519.84,113.12 525.627,119.733 z" id="boundary" inkscape:connector-curvature="0" />
	<path style="fill:none;stroke:red;stroke-width:1px;stroke-linecap:butt;stroke-linejoin:miter;stroke-opacity:1" d="M 525.627,119.733 533.067,123.867 z" id="boundary" inkscape:connector-curvature="0" />
	<path style="fill:none;stroke:red;stroke-width:1px;stroke-linecap:butt;stroke-linejoin:miter;stroke-opacity:1" d="M 526.453,438.827 534.72,438.827 z" id="boundary" inkscape:connector-curvature="0" />
	<path style="fill:none;stroke:red;stroke-width:1px;stroke-linecap:butt;stroke-linejoin:miter;stroke-opacity:1" d="M 533.067,123.867 540.507,128 z" id="boundary" inkscape:connector-curvature="0" />
	<path style="fill:none;stroke:red;stroke-width:1px;stroke-linecap:butt;stroke-linejoin:miter;stroke-opacity:1" d="M 534.72,438.827 542.987,438.827 z" id="boundary" inkscape:connector-curvature="0" />
	<path style="fill:none;stroke:red;stroke-width:1px;stroke-linecap:butt;stroke-linejoin:miter;stroke-opacity:1" d="M 540.507,128 548.773,128 z" id="boundary" inkscape:connector-curvature="0" />
	<path style="fill:none;stroke:red;stroke-width:1px;stroke-linecap:butt;stroke-linejoin:miter;stroke-opacity:1" d="M 548.773,128 557.04,128 z" id="boundary" inkscape:connector-curvature="0" />
	<path style="fill:none;stroke:red;stroke-width:1px;stroke-linecap:butt;stroke-linejoin:miter;stroke-opacity:1" d="M 575.227,430.56 583.493,430.56 z" id="boundary" inkscape:connector-curvature="0" />
	<path style="fill:none;stroke:red;stroke-width:1px;stroke-linecap:butt;stroke-linejoin:miter;stroke-opacity:1" d="M 583.493,430.56 590.933,426.427 z" id="boundary" inkscape:connector-curvature="0" />
	<path style="fill:none;stroke:red;stroke-width:1px;stroke-linecap:butt;stroke-linejoin:miter;stroke-opacity:1" d="M 590.933,426.427 599.2,426.427 z" id="boundary" inkscape:connector-curvature="0" />
	<path style="fill:none;stroke:red;stroke-width:1px;stroke-linecap:butt;stroke-linejoin:miter;stroke-opacity:1" d="M 591.76,335.493 591.76,343.76 z" id="boundary" inkscape:connector-curvature="0" />
	<path style="fill:none;stroke:red;stroke-width:1px;stroke-linecap:butt;stroke-linejoin:miter;stroke-opacity:1" d="M 591.76,335.493 600.027,331.36 z" id="boundary" inkscape:connector-curvature="0" />
	<path style="fill:none;stroke:red;stroke-width:1px;stroke-linecap:butt;stroke-linejoin:miter;stroke-opacity:1" d="M 591.76,343.76 591.76,352.027 z" id="boundary" inkscape:connector-curvature="0" />
	<path style="fill:none;stroke:red;stroke-width:1px;stroke-linecap:butt;stroke-linejoin:miter;stroke-opacity:1" d="M 591.76,352.027 595.893,359.467 z" id="boundary" inkscape:connector-curvature="0" />
	<path style="fill:none;stroke:red;stroke-width:1px;stroke-linecap:butt;stroke-linejoin:miter;stroke-opacity:1" d="M 595.893,190.827 600.027,198.267 z" id="boundary" inkscape:connector-curvature="0" />
	<path style="fill:none;stroke:red;stroke-width:1px;stroke-linecap:butt;stroke-linejoin:miter;stroke-opacity:1" d="M 595.893,190.827 604.16,186.693 z" id="boundary" inkscape:connector-curvature="0" />
	<path style="fill:none;stroke:red;stroke-width:1px;stroke-linecap:butt;stroke-linejoin:miter;stroke-opacity:1" d="M 599.2,426.427 606.64,422.293 z" id="boundary" inkscape:connector-curvature="0" />
	<path style="fill:none;stroke:red;stroke-width:1px;stroke-linecap:butt;stroke-linejoin:miter;stroke-opacity:1" d="M 600.027,198.267 606.64,203.227 z" id="boundary" inkscape:connector-curvature="0" />
	<path style="fill:none;stroke:red;stroke-width:1px;stroke-linecap:butt;stroke-linejoin:miter;stroke-opacity:1" d="M 600.027,331.36 616.56,331.36 z" id="boundary" inkscape:connector-curvature="0" />
	<path style="fill:none;stroke:red;stroke-width:1px;stroke-linecap:butt;stroke-linejoin:miter;stroke-opacity:1" d="M 616.56,331.36 624.827,331.36 z" id="boundary" inkscape:connector-curvature="0" />
	<path style="fill:none;stroke:red;stroke-width:1px;stroke-linecap:butt;stroke-linejoin:miter;stroke-opacity:1" d="M 623.173,422.293 630.613,418.16 z" id="boundary" inkscape:connector-curvature="0" />
	<path style="fill:none;stroke:red;stroke-width:1px;stroke-linecap:butt;stroke-linejoin:miter;stroke-opacity:1" d="M 624.827,331.36 641.36,327.227 z" id="boundary" inkscape:connector-curvature="0" />
	<path style="fill:none;stroke:red;stroke-width:1px;stroke-linecap:butt;stroke-linejoin:miter;stroke-opacity:1" d="M 628.133,355.333 636.4,356.987 z" id="boundary" inkscape:connector-curvature="0" />
	<path style="fill:none;stroke:red;stroke-width:1px;stroke-linecap:butt;stroke-linejoin:miter;stroke-opacity:1" d="M 630.613,418.16 645.493,404.107 z" id="boundary" inkscape:connector-curvature="0" />
	<path style="fill:none;stroke:red;stroke-width:1px;stroke-linecap:butt;stroke-linejoin:miter;stroke-opacity:1" d="M 636.4,356.987 641.36,363.6 z" id="boundary" inkscape:connector-curvature="0" />
	<path style="fill:none;stroke:red;stroke-width:1px;stroke-linecap:butt;stroke-linejoin:miter;stroke-opacity:1" d="M 637.227,182.56 645.493,178.427 z" id="boundary" inkscape:connector-curvature="0" />
	<path style="fill:none;stroke:red;stroke-width:1px;stroke-linecap:butt;stroke-linejoin:miter;stroke-opacity:1" d="M 641.36,327.227 657.893,323.093 z" id="boundary" inkscape:connector-curvature="0" />
	<path style="fill:none;stroke:red;stroke-width:1px;stroke-linecap:butt;stroke-linejoin:miter;stroke-opacity:1" d="M 641.36,363.6 645.493,379.307 z" id="boundary" inkscape:connector-curvature="0" />
	<path style="fill:none;stroke:red;stroke-width:1px;stroke-linecap:butt;stroke-linejoin:miter;stroke-opacity:1" d="M 645.493,178.427 652.107,172.64 z" id="boundary" inkscape:connector-curvature="0" />
	<path style="fill:none;stroke:red;stroke-width:1px;stroke-linecap:butt;stroke-linejoin:miter;stroke-opacity:1" d="M 645.493,379.307 645.493,387.573 z" id="boundary" inkscape:connector-curvature="0" />
	<path style="fill:none;stroke:red;stroke-width:1px;stroke-linecap:butt;stroke-linejoin:miter;stroke-opacity:1" d="M 645.493,387.573 645.493,404.107 z" id="boundary" inkscape:connector-curvature="0" />
	<path style="fill:none;stroke:red;stroke-width:1px;stroke-linecap:butt;stroke-linejoin:miter;stroke-opacity:1" d="M 657.893,323.093 674.427,323.093 z" id="boundary" inkscape:connector-curvature="0" />
	<path style="fill:none;stroke:red;stroke-width:1px;stroke-linecap:butt;stroke-linejoin:miter;stroke-opacity:1" d="M 674.427,323.093 682.693,323.093 z" id="boundary" inkscape:connector-curvature="0" />
	<path style="fill:none;stroke:red;stroke-width:1px;stroke-linecap:butt;stroke-linejoin:miter;stroke-opacity:1" d="M 682.693,323.093 699.227,318.96 z" id="boundary" inkscape:connector-curvature="0" />
	<path style="fill:none;stroke:red;stroke-width:1px;stroke-linecap:butt;stroke-linejoin:miter;stroke-opacity:1" d="M 699.227,318.96 715.76,318.96 z" id="boundary" inkscape:connector-curvature="0" />
	<path style="fill:none;stroke:red;stroke-width:1px;stroke-linecap:butt;stroke-linejoin:miter;stroke-opacity:1" d="M 715.76,318.96 724.027,318.96 z" id="boundary" inkscape:connector-curvature="0" />
	<path style="fill:none;stroke:red;stroke-width:1px;stroke-linecap:butt;stroke-linejoin:miter;stroke-opacity:1" d="M 724.027,318.96 731.467,314.827 z" id="boundary" inkscape:connector-curvature="0" />
	<path style="fill:none;stroke:red;stroke-width:1px;stroke-linecap:butt;stroke-linejoin:miter;stroke-opacity:1" d="M 736.427,202.4 744.693,202.4 z" id="boundary" inkscape:connector-curvature="0" />
	<path style="fill:none;stroke:red;stroke-width:1px;stroke-linecap:butt;stroke-linejoin:miter;stroke-opacity:1" d="M 744.693,202.4 752.133,198.267 z" id="boundary" inkscape:connector-curvature="0" />
	<path style="fill:none;stroke:red;stroke-width:1px;stroke-linecap:butt;stroke-linejoin:miter;stroke-opacity:1" d="M 748,312.347 756.267,308.213 z" id="boundary" inkscape:connector-curvature="0" />
	<path style="fill:none;stroke:red;stroke-width:1px;stroke-linecap:butt;stroke-linejoin:miter;stroke-opacity:1" d="M 752.133,198.267 760.4,198.267 z" id="boundary" inkscape:connector-curvature="0" />
	<path style="fill:none;stroke:red;stroke-width:1px;stroke-linecap:butt;stroke-linejoin:miter;stroke-opacity:1" d="M 756.267,308.213 762.88,302.427 z" id="boundary" inkscape:connector-curvature="0" />
	<path style="fill:none;stroke:red;stroke-width:1px;stroke-linecap:butt;stroke-linejoin:miter;stroke-opacity:1" d="M 801.733,287.547 810,283.413 z" id="boundary" inkscape:connector-curvature="0" />
	<path style="fill:none;stroke:red;stroke-width:1px;stroke-linecap:butt;stroke-linejoin:miter;stroke-opacity:1" d="M 810,283.413 818.267,281.76 z" id="boundary" inkscape:connector-curvature="0" />
	<path style="fill:none;stroke:red;stroke-width:1px;stroke-linecap:butt;stroke-linejoin:miter;stroke-opacity:1" d="M 818.267,281.76 825.707,277.627 z" id="boundary" inkscape:connector-curvature="0" />
	<path style="fill:none;stroke:red;stroke-width:1px;stroke-linecap:butt;stroke-linejoin:miter;stroke-opacity:1" d="M 825.707,277.627 833.147,273.493 z" id="boundary" inkscape:connector-curvature="0" />
	<path style="fill:none;stroke:red;stroke-width:1px;stroke-linecap:butt;stroke-linejoin:miter;stroke-opacity:1" d="M 849.68,269.36 857.12,265.227 z" id="boundary" inkscape:connector-curvature="0" />
	<path style="fill:none;stroke:red;stroke-width:1px;stroke-linecap:butt;stroke-linejoin:miter;stroke-opacity:1" d="M 857.12,265.227 865.387,265.227 z" id="boundary" inkscape:connector-curvature="0" />
	<path style="fill:none;stroke:red;stroke-width:1px;stroke-linecap:butt;stroke-linejoin:miter;stroke-opacity:1" d="M 865.387,265.227 872.827,261.093 z" id="boundary" inkscape:connector-curvature="0" />
	<path style="fill:none;stroke:red;stroke-width:1px;stroke-linecap:butt;stroke-linejoin:miter;stroke-opacity:1" d="M 872.827,261.093 881.093,261.093 z" id="boundary" inkscape:connector-curvature="0" />
	<path style="fill:none;stroke:red;stroke-width:1px;stroke-linecap:butt;stroke-linejoin:miter;stroke-opacity:1" d="M 881.093,261.093 888.533,256.96 z" id="boundary" inkscape:connector-curvature="0" />
	<path style="fill:none;stroke:red;stroke-width:1px;stroke-linecap:butt;stroke-linejoin:miter;stroke-opacity:1" d="M 905.067,252.827 912.507,248.693 z" id="boundary" inkscape:connector-curvature="0" />
	<path style="fill:none;stroke:red;stroke-width:1px;stroke-linecap:butt;stroke-linejoin:miter;stroke-opacity:1" d="M 912.507,248.693 919.947,244.56 z" id="boundary" inkscape:connector-curvature="0" />
	<path style="fill:none;stroke:red;stroke-width:1px;stroke-linecap:butt;stroke-linejoin:miter;stroke-opacity:1" d="M 919.947,244.56 927.387,240.427 z" id="boundary" inkscape:connector-curvature="0" />
	<path style="fill:none;stroke:red;stroke-width:1px;stroke-linecap:butt;stroke-linejoin:miter;stroke-opacity:1" d="M 927.387,240.427 934.827,236.293 z" id="boundary" inkscape:connector-curvature="0" />
	<path style="fill:none;stroke:red;stroke-width:1px;stroke-linecap:butt;stroke-linejoin:miter;stroke-opacity:1" d="M 951.36,232.16 958.8,228.027 z" id="boundary" inkscape:connector-curvature="0" />
	<path style="fill:none;stroke:red;stroke-width:1px;stroke-linecap:butt;stroke-linejoin:miter;stroke-opacity:1" d="M 958.8,228.027 966.24,223.893 z" id="boundary" inkscape:connector-curvature="0" />
	<path style="fill:none;stroke:red;stroke-width:1px;stroke-linecap:butt;stroke-linejoin:miter;stroke-opacity:1" d="M 966.24,223.893 973.68,219.76 z" id="boundary" inkscape:connector-curvature="0" />
	<path style="fill:none;stroke:red;stroke-width:1px;stroke-linecap:butt;stroke-linejoin:miter;stroke-opacity:1" d="M 972.853,181.733 981.12,181.733 z" id="boundary" inkscape:connector-curvature="0" />
	<path style="fill:none;stroke:red;stroke-width:1px;stroke-linecap:butt;stroke-linejoin:miter;stroke-opacity:1" d="M 973.68,219.76 981.12,215.627 z" id="boundary" inkscape:connector-curvature="0" />
	<path style="fill:none;stroke:red;stroke-width:1px;stroke-linecap:butt;stroke-linejoin:miter;stroke-opacity:1" d="M 981.12,181.733 989.387,181.733 z" id="boundary" inkscape:connector-curvature="0" />
	<circle cx="4" cy="357.813" r="4" fill="#0" id="circle0"/>
	<circle cx="4" cy="366.08" r="4" fill="#0" id="circle1"/>
	<circle cx="4" cy="374.347" r="4" fill="#0" id="circle2"/>
	<circle cx="4" cy="382.613" r="4" fill="#0" id="circle3"/>
	<circle cx="4" cy="390.88" r="4" fill="#0" id="circle4"/>
	<circle cx="4" cy="399.147" r="4" fill="#0" id="circle5"/>
	<circle cx="4" cy="407.413" r="4" fill="#0" id="circle6"/>
	<circle cx="4" cy="415.68" r="4" fill="#0" id="circle7"/>
	<circle cx="8.13333" cy="333.013" r="4" fill="#0" id="circle8"/>
	<circle cx="8.13333" cy="341.28" r="4" fill="#0" id="circle9"/>
	<circle cx="8.13333" cy="349.547" r="4" fill="#0" id="circle10"/>
	<circle cx="8.13333" cy="423.12" r="4" fill="#0" id="circle11"/>
	<circle cx="12.2667" cy="320.613" r="4" fill="#0" id="circle12"/>
	<circle cx="12.2667" cy="430.56" r="4" fill="#0" id="circle13"/>
	<circle cx="16.4" cy="308.213" r="4" fill="#0" id="circle14"/>
	<circle cx="17.2267" cy="437.173" r="4" fill="#0" id="circle15"/>
	<circle cx="20.5333" cy="299.947" r="4" fill="#0" id="circle16"/>
	<circle cx="25.4933" cy="440.48" r="4" fill="#0" id="circle17"/>
	<circle cx="27.1467" cy="293.333" r="4" fill="#0" id="circle18"/>
	<circle cx="31.28" cy="285.067" r="4" fill="#0" id="circle19"/>
	<circle cx="32.9333" cy="444.613" r="4" fill="#0" id="circle20"/>
	<circle cx="37.8933" cy="278.453" r="4" fill="#0" id="circle21"/>
	<circle cx="41.2" cy="447.093" r="4" fill="#0" id="circle22"/>
	<circle cx="42.0267" cy="270.187" r="4" fill="#0" id="circle23"/>
	<circle cx="45.3333" cy="519.013" r="4" fill="#0" id="circle24"/>
	<circle cx="48.64" cy="264.4" r="4" fill="#0" id="circle25"/>
	<circle cx="48.64" cy="451.227" r="4" fill="#0" id="circle26"/>
	<circle cx="49.4667" cy="510.747" r="4" fill="#0" id="circle27"/>
	<circle cx="51.9467" cy="524.8" r="4" fill="#0" id="circle28"/>
	<circle cx="53.6" cy="502.48" r="4" fill="#0" id="circle29"/>
	<circle cx="54.4267" cy="257.787" r="4" fill="#0" id="circle30"/>
	<circle cx="56.9067" cy="451.227" r="4" fill="#0" id="circle31"/>
	<circle cx="58.56" cy="249.52" r="4" fill="#0" id="circle32"/>
	<circle cx="58.56" cy="529.76" r="4" fill="#0" id="circle33"/>
	<circle cx="60.2133" cy="495.867" r="4" fill="#0" id="circle34"/>
	<circle cx="65.1733" cy="243.733" r="4" fill="#0" id="circle35"/>
	<circle cx="65.1733" cy="451.227" r="4" fill="#0" id="circle36"/>
	<circle cx="66.8267" cy="529.76" r="4" fill="#0" id="circle37"/>
	<circle cx="67.6533" cy="491.733" r="4" fill="#0" id="circle38"/>
	<circle cx="70.96" cy="237.12" r="4" fill="#0" id="circle39"/>
	<circle cx="73.44" cy="451.227" r="4" fill="#0" id="circle40"/>
	<circle cx="75.0933" cy="529.76" r="4" fill="#0" id="circle41"/>
	<circle cx="75.92" cy="491.733" r="4" fill="#0" id="circle42"/>
	<circle cx="77.5733" cy="231.333" r="4" fill="#0" id="circle43"/>
	<circle cx="81.7067" cy="451.227" r="4" fill="#0" id="circle44"/>
	<circle cx="83.36" cy="224.72" r="4" fill="#0" id="circle45"/>
	<circle cx="83.36" cy="529.76" r="4" fill="#0" id="circle46"/>
	<circle cx="84.1867" cy="491.733" r="4" fill="#0" id="circle47"/>
	<circle cx="89.1467" cy="455.36" r="4" fill="#0" id="circle48"/>
	<circle cx="89.9733" cy="218.933" r="4" fill="#0" id="circle49"/>
	<circle cx="91.6267" cy="495.867" r="4" fill="#0" id="circle50"/>
	<circle cx="91.6267" cy="529.76" r="4" fill="#0" id="circle51"/>
	<circle cx="95.76" cy="212.32" r="4" fill="#0" id="circle52"/>
	<circle cx="95.76" cy="503.307" r="4" fill="#0" id="circle53"/>
	<circle cx="97.4133" cy="455.36" r="4" fill="#0" id="circle54"/>
	<circle cx="99.8933" cy="529.76" r="4" fill="#0" id="circle55"/>
	<circle cx="102.373" cy="206.533" r="4" fill="#0" id="circle56"/>
	<circle cx="102.373" cy="509.093" r="4" fill="#0" id="circle57"/>
	<circle cx="105.68" cy="455.36" r="4" fill="#0" id="circle58"/>
	<circle cx="105.68" cy="517.36" r="4" fill="#0" id="circle59"/>
	<circle cx="108.16" cy="199.92" r="4" fill="#0" id="circle60"/>
	<circle cx="108.16" cy="529.76" r="4" fill="#0" id="circle61"/>
	<circle cx="113.947" cy="458.667" r="4" fill="#0" id="circle62"/>
	<circle cx="114.773" cy="524.8" r="4" fill="#0" id="circle63"/>
	<circle cx="116.427" cy="195.787" r="4" fill="#0" id="circle64"/>
	<circle cx="120.56" cy="518.187" r="4" fill="#0" id="circle65"/>
	<circle cx="121.387" cy="529.76" r="4" fill="#0" id="circle66"/>
	<circle cx="122.213" cy="459.493" r="4" fill="#0" id="circle67"/>
	<circle cx="123.04" cy="190" r="4" fill="#0" id="circle68"/>
	<circle cx="127.173" cy="512.4" r="4" fill="#0" id="circle69"/>
	<circle cx="129.653" cy="529.76" r="4" fill="#0" id="circle70"/>
	<circle cx="130.48" cy="185.867" r="4" fill="#0" id="circle71"/>
	<circle cx="130.48" cy="459.493" r="4" fill="#0" id="circle72"/>
	<circle cx="135.44" cy="512.4" r="4" fill="#0" id="circle73"/>
	<circle cx="137.093" cy="179.253" r="4" fill="#0" id="circle74"/>
	<circle cx="137.92" cy="529.76" r="4" fill="#0" id="circle75"/>
	<circle cx="138.747" cy="459.493" r="4" fill="#0" id="circle76"/>
	<circle cx="143.707" cy="512.4" r="4" fill="#0" id="circle77"/>
	<circle cx="145.36" cy="175.12" r="4" fill="#0" id="circle78"/>
	<circle cx="146.187" cy="529.76" r="4" fill="#0" id="circle79"/>
	<circle cx="147.013" cy="462.8" r="4" fill="#0" id="circle80"/>
	<circle cx="151.973" cy="512.4" r="4" fill="#0" id="circle81"/>
	<circle cx="153.627" cy="170.987" r="4" fill="#0" id="circle82"/>
	<circle cx="154.453" cy="529.76" r="4" fill="#0" id="circle83"/>
	<circle cx="155.28" cy="463.627" r="4" fill="#0" id="circle84"/>
	<circle cx="159.413" cy="508.267" r="4" fill="#0" id="circle85"/>
	<circle cx="160.24" cy="165.2" r="4" fill="#0" id="circle86"/>
	<circle cx="161.893" cy="525.627" r="4" fill="#0" id="circle87"/>
	<circle cx="163.547" cy="463.627" r="4" fill="#0" id="circle88"/>
	<circle cx="167.68" cy="161.067" r="4" fill="#0" id="circle89"/>
	<circle cx="167.68" cy="508.267" r="4" fill="#0" id="circle90"/>
	<circle cx="170.16" cy="525.627" r="4" fill="#0" id="circle91"/>
	<circle cx="171.813" cy="463.627" r="4" fill="#0" id="circle92"/>
	<circle cx="175.947" cy="156.933" r="4" fill="#0" id="circle93"/>
	<circle cx="175.947" cy="504.133" r="4" fill="#0" id="circle94"/>
	<circle cx="178.427" cy="525.627" r="4" fill="#0" id="circle95"/>
	<circle cx="180.08" cy="463.627" r="4" fill="#0" id="circle96"/>
	<circle cx="184.213" cy="156.933" r="4" fill="#0" id="circle97"/>
	<circle cx="184.213" cy="504.133" r="4" fill="#0" id="circle98"/>
	<circle cx="186.693" cy="525.627" r="4" fill="#0" id="circle99"/>
	<circle cx="188.347" cy="463.627" r="4" fill="#0" id="circle100"/>
	<circle cx="191.653" cy="152.8" r="4" fill="#0" id="circle101"/>
	<circle cx="192.48" cy="500" r="4" fill="#0" id="circle102"/>
	<circle cx="194.96" cy="525.627" r="4" fill="#0" id="circle103"/>
	<circle cx="196.613" cy="463.627" r="4" fill="#0" id="circle104"/>
	<circle cx="199.92" cy="149.493" r="4" fill="#0" id="circle105"/>
	<circle cx="200.747" cy="500" r="4" fill="#0" id="circle106"/>
	<circle cx="203.227" cy="525.627" r="4" fill="#0" id="circle107"/>
	<circle cx="204.88" cy="463.627" r="4" fill="#0" id="circle108"/>
	<circle cx="206.533" cy="477.68" r="4" fill="#0" id="circle109"/>
	<circle cx="206.533" cy="490.08" r="4" fill="#0" id="circle110"/>
	<circle cx="208.187" cy="148.667" r="4" fill="#0" id="circle111"/>
	<circle cx="211.493" cy="525.627" r="4" fill="#0" id="circle112"/>
	<circle cx="213.147" cy="466.933" r="4" fill="#0" id="circle113"/>
	<circle cx="214.8" cy="475.2" r="4" fill="#0" id="circle114"/>
	<circle cx="214.8" cy="483.467" r="4" fill="#0" id="circle115"/>
	<circle cx="214.8" cy="491.733" r="4" fill="#0" id="circle116"/>
	<circle cx="216.453" cy="145.36" r="4" fill="#0" id="circle117"/>
	<circle cx="219.76" cy="525.627" r="4" fill="#0" id="circle118"/>
	<circle cx="224.72" cy="144.533" r="4" fill="#0" id="circle119"/>
	<circle cx="228.027" cy="525.627" r="4" fill="#0" id="circle120"/>
	<circle cx="232.987" cy="144.533" r="4" fill="#0" id="circle121"/>
	<circle cx="236.293" cy="525.627" r="4" fill="#0" id="circle122"/>
	<circle cx="240.427" cy="140.4" r="4" fill="#0" id="circle123"/>
	<circle cx="244.56" cy="521.493" r="4" fill="#0" id="circle124"/>
	<circle cx="248.693" cy="137.92" r="4" fill="#0" id="circle125"/>
	<circle cx="252.827" cy="521.493" r="4" fill="#0" id="circle126"/>
	<circle cx="256.96" cy="136.267" r="4" fill="#0" id="circle127"/>
	<circle cx="261.093" cy="521.493" r="4" fill="#0" id="circle128"/>
	<circle cx="265.227" cy="136.267" r="4" fill="#0" id="circle129"/>
	<circle cx="269.36" cy="521.493" r="4" fill="#0" id="circle130"/>
	<circle cx="273.493" cy="133.787" r="4" fill="#0" id="circle131"/>
	<circle cx="277.627" cy="521.493" r="4" fill="#0" id="circle132"/>
	<circle cx="281.76" cy="132.133" r="4" fill="#0" id="circle133"/>
	<circle cx="285.067" cy="517.36" r="4" fill="#0" id="circle134"/>
	<circle cx="290.027" cy="132.133" r="4" fill="#0" id="circle135"/>
	<circle cx="293.333" cy="517.36" r="4" fill="#0" id="circle136"/>
	<circle cx="298.293" cy="132.133" r="4" fill="#0" id="circle137"/>
	<circle cx="301.6" cy="517.36" r="4" fill="#0" id="circle138"/>
	<circle cx="305.733" cy="27.1467" r="4" fill="#0" id="circle139"/>
	<circle cx="306.56" cy="132.133" r="4" fill="#0" id="circle140"/>
	<circle cx="309.867" cy="34.5867" r="4" fill="#0" id="circle141"/>
	<circle cx="309.867" cy="517.36" r="4" fill="#0" id="circle142"/>
	<circle cx="312.347" cy="20.5333" r="4" fill="#0" id="circle143"/>
	<circle cx="314.827" cy="132.133" r="4" fill="#0" id="circle144"/>
	<circle cx="318.133" cy="37.8933" r="4" fill="#0" id="circle145"/>
	<circle cx="318.133" cy="517.36" r="4" fill="#0" id="circle146"/>
	<circle cx="320.613" cy="20.5333" r="4" fill="#0" id="circle147"/>
	<circle cx="323.093" cy="132.133" r="4" fill="#0" id="circle148"/>
	<circle cx="325.573" cy="513.227" r="4" fill="#0" id="circle149"/>
	<circle cx="326.4" cy="37.8933" r="4" fill="#0" id="circle150"/>
	<circle cx="328.88" cy="20.5333" r="4" fill="#0" id="circle151"/>
	<circle cx="331.36" cy="132.133" r="4" fill="#0" id="circle152"/>
	<circle cx="333.84" cy="42.0267" r="4" fill="#0" id="circle153"/>
	<circle cx="333.84" cy="513.227" r="4" fill="#0" id="circle154"/>
	<circle cx="337.147" cy="16.4" r="4" fill="#0" id="circle155"/>
	<circle cx="339.627" cy="132.133" r="4" fill="#0" id="circle156"/>
	<circle cx="341.28" cy="46.16" r="4" fill="#0" id="circle157"/>
	<circle cx="342.107" cy="513.227" r="4" fill="#0" id="circle158"/>
	<circle cx="345.413" cy="12.2667" r="4" fill="#0" id="circle159"/>
	<circle cx="347.893" cy="129.653" r="4" fill="#0" id="circle160"/>
	<circle cx="349.547" cy="49.4667" r="4" fill="#0" id="circle161"/>
	<circle cx="350.373" cy="513.227" r="4" fill="#0" id="circle162"/>
	<circle cx="353.68" cy="12.2667" r="4" fill="#0" id="circle163"/>
	<circle cx="356.16" cy="128" r="4" fill="#0" id="circle164"/>
	<circle cx="357.813" cy="50.2933" r="4" fill="#0" id="circle165"/>
	<circle cx="358.64" cy="511.573" r="4" fill="#0" id="circle166"/>
	<circle cx="361.12" cy="8.13333" r="4" fill="#0" id="circle167"/>
	<circle cx="363.6" cy="85.0133" r="4" fill="#0" id="circle168"/>
	<circle cx="364.427" cy="128" r="4" fill="#0" id="circle169"/>
	<circle cx="366.08" cy="50.2933" r="4" fill="#0" id="circle170"/>
	<circle cx="366.907" cy="509.093" r="4" fill="#0" id="circle171"/>
	<circle cx="367.733" cy="76.7467" r="4" fill="#0" id="circle172"/>
	<circle cx="367.733" cy="92.4533" r="4" fill="#0" id="circle173"/>
	<circle cx="367.733" cy="100.72" r="4" fill="#0" id="circle174"/>
	<circle cx="367.733" cy="108.987" r="4" fill="#0" id="circle175"/>
	<circle cx="367.733" cy="117.253" r="4" fill="#0" id="circle176"/>
	<circle cx="368.56" cy="4" r="4" fill="#0" id="circle177"/>
	<circle cx="371.867" cy="64.3467" r="4" fill="#0" id="circle178"/>
	<circle cx="374.347" cy="50.2933" r="4" fill="#0" id="circle179"/>
	<circle cx="375.173" cy="509.093" r="4" fill="#0" id="circle180"/>
	<circle cx="376.827" cy="4" r="4" fill="#0" id="circle181"/>
	<circle cx="383.44" cy="509.093" r="4" fill="#0" id="circle182"/>
	<circle cx="385.093" cy="4" r="4" fill="#0" id="circle183"/>
	<circle cx="391.707" cy="509.093" r="4" fill="#0" id="circle184"/>
	<circle cx="393.36" cy="4" r="4" fill="#0" id="circle185"/>
	<circle cx="397.493" cy="70.96" r="4" fill="#0" id="circle186"/>
	<circle cx="397.493" cy="79.2267" r="4" fill="#0" id="circle187"/>
	<circle cx="397.493" cy="87.4933" r="4" fill="#0" id="circle188"/>
	<circle cx="397.493" cy="95.76" r="4" fill="#0" id="circle189"/>
	<circle cx="397.493" cy="104.027" r="4" fill="#0" id="circle190"/>
	<circle cx="399.973" cy="509.093" r="4" fill="#0" id="circle191"/>
	<circle cx="401.627" cy="4" r="4" fill="#0" id="circle192"/>
	<circle cx="401.627" cy="111.467" r="4" fill="#0" id="circle193"/>
	<circle cx="405.76" cy="70.96" r="4" fill="#0" id="circle194"/>
	<circle cx="405.76" cy="118.907" r="4" fill="#0" id="circle195"/>
	<circle cx="408.24" cy="507.44" r="4" fill="#0" id="circle196"/>
	<circle cx="409.067" cy="8.13333" r="4" fill="#0" id="circle197"/>
	<circle cx="412.373" cy="65.1733" r="4" fill="#0" id="circle198"/>
	<circle cx="414.027" cy="46.16" r="4" fill="#0" id="circle199"/>
	<circle cx="414.027" cy="54.4267" r="4" fill="#0" id="circle200"/>
	<circle cx="414.027" cy="119.733" r="4" fill="#0" id="circle201"/>
	<circle cx="416.507" cy="12.2667" r="4" fill="#0" id="circle202"/>
	<circle cx="416.507" cy="504.96" r="4" fill="#0" id="circle203"/>
	<circle cx="421.467" cy="42.0267" r="4" fill="#0" id="circle204"/>
	<circle cx="422.293" cy="119.733" r="4" fill="#0" id="circle205"/>
	<circle cx="423.947" cy="16.4" r="4" fill="#0" id="circle206"/>
	<circle cx="424.773" cy="504.96" r="4" fill="#0" id="circle207"/>
	<circle cx="428.907" cy="37.8933" r="4" fill="#0" id="circle208"/>
	<circle cx="429.733" cy="23.0133" r="4" fill="#0" id="circle209"/>
	<circle cx="430.56" cy="119.733" r="4" fill="#0" id="circle210"/>
	<circle cx="433.04" cy="503.307" r="4" fill="#0" id="circle211"/>
	<circle cx="434.693" cy="29.6267" r="4" fill="#0" id="circle212"/>
	<circle cx="438.827" cy="119.733" r="4" fill="#0" id="circle213"/>
	<circle cx="441.307" cy="499.173" r="4" fill="#0" id="circle214"/>
	<circle cx="445.44" cy="490.907" r="4" fill="#0" id="circle215"/>
	<circle cx="446.267" cy="113.947" r="4" fill="#0" id="circle216"/>
	<circle cx="447.093" cy="459.493" r="4" fill="#0" id="circle217"/>
	<circle cx="447.093" cy="467.76" r="4" fill="#0" id="circle218"/>
	<circle cx="447.093" cy="476.027" r="4" fill="#0" id="circle219"/>
	<circle cx="454.533" cy="109.813" r="4" fill="#0" id="circle220"/>
	<circle cx="454.533" cy="455.36" r="4" fill="#0" id="circle221"/>
	<circle cx="461.973" cy="451.227" r="4" fill="#0" id="circle222"/>
	<circle cx="462.8" cy="107.333" r="4" fill="#0" id="circle223"/>
	<circle cx="469.413" cy="447.093" r="4" fill="#0" id="circle224"/>
	<circle cx="471.067" cy="107.333" r="4" fill="#0" id="circle225"/>
	<circle cx="477.68" cy="447.093" r="4" fill="#0" id="circle226"/>
	<circle cx="479.333" cy="107.333" r="4" fill="#0" id="circle227"/>
	<circle cx="485.947" cy="446.267" r="4" fill="#0" id="circle228"/>
	<circle cx="487.6" cy="107.333" r="4" fill="#0" id="circle229"/>
	<circle cx="494.213" cy="442.96" r="4" fill="#0" id="circle230"/>
	<circle cx="495.867" cy="107.333" r="4" fill="#0" id="circle231"/>
	<circle cx="502.48" cy="442.96" r="4" fill="#0" id="circle232"/>
	<circle cx="504.133" cy="107.333" r="4" fill="#0" id="circle233"/>
	<circle cx="509.92" cy="438.827" r="4" fill="#0" id="circle234"/>
	<circle cx="512.4" cy="108.987" r="4" fill="#0" id="circle235"/>
	<circle cx="518.187" cy="438.827" r="4" fill="#0" id="circle236"/>
	<circle cx="519.84" cy="113.12" r="4" fill="#0" id="circle237"/>
	<circle cx="525.627" cy="119.733" r="4" fill="#0" id="circle238"/>
	<circle cx="526.453" cy="438.827" r="4" fill="#0" id="circle239"/>
	<circle cx="533.067" cy="123.867" r="4" fill="#0" id="circle240"/>
	<circle cx="534.72" cy="438.827" r="4" fill="#0" id="circle241"/>
	<circle cx="540.507" cy="128" r="4" fill="#0" id="circle242"/>
	<circle cx="542.987" cy="438.827" r="4" fill="#0" id="circle243"/>
	<circle cx="548.773" cy="128" r="4" fill="#0" id="circle244"/>
	<circle cx="550.427" cy="434.693" r="4" fill="#0" id="circle245"/>
	<circle cx="557.04" cy="128" r="4" fill="#0" id="circle246"/>
	<circle cx="558.693" cy="434.693" r="4" fill="#0" id="circle247"/>
	<circle cx="564.48" cy="132.133" r="4" fill="#0" id="circle248"/>
	<circle cx="566.96" cy="430.56" r="4" fill="#0" id="circle249"/>
	<circle cx="572.747" cy="132.133" r="4" fill="#0" id="circle250"/>
	<circle cx="575.227" cy="430.56" r="4" fill="#0" id="circle251"/>
	<circle cx="581.013" cy="132.133" r="4" fill="#0" id="circle252"/>
	<circle cx="583.493" cy="430.56" r="4" fill="#0" id="circle253"/>
	<circle cx="589.28" cy="132.133" r="4" fill="#0" id="circle254"/>
	<circle cx="590.933" cy="426.427" r="4" fill="#0" id="circle255"/>
	<circle cx="591.76" cy="335.493" r="4" fill="#0" id="circle256"/>
	<circle cx="591.76" cy="343.76" r="4" fill="#0" id="circle257"/>
	<circle cx="591.76" cy="352.027" r="4" fill="#0" id="circle258"/>
	<circle cx="595.893" cy="190.827" r="4" fill="#0" id="circle259"/>
	<circle cx="595.893" cy="359.467" r="4" fill="#0" id="circle260"/>
	<circle cx="597.547" cy="132.133" r="4" fill="#0" id="circle261"/>
	<circle cx="599.2" cy="426.427" r="4" fill="#0" id="circle262"/>
	<circle cx="600.027" cy="198.267" r="4" fill="#0" id="circle263"/>
	<circle cx="600.027" cy="331.36" r="4" fill="#0" id="circle264"/>
	<circle cx="603.333" cy="355.333" r="4" fill="#0" id="circle265"/>
	<circle cx="604.16" cy="186.693" r="4" fill="#0" id="circle266"/>
	<circle cx="605.813" cy="132.133" r="4" fill="#0" id="circle267"/>
	<circle cx="606.64" cy="203.227" r="4" fill="#0" id="circle268"/>
	<circle cx="606.64" cy="422.293" r="4" fill="#0" id="circle269"/>
	<circle cx="608.293" cy="331.36" r="4" fill="#0" id="circle270"/>
	<circle cx="611.6" cy="355.333" r="4" fill="#0" id="circle271"/>
	<circle cx="612.427" cy="186.693" r="4" fill="#0" id="circle272"/>
	<circle cx="612.427" cy="209.84" r="4" fill="#0" id="circle273"/>
	<circle cx="614.08" cy="132.133" r="4" fill="#0" id="circle274"/>
	<circle cx="614.907" cy="422.293" r="4" fill="#0" id="circle275"/>
	<circle cx="616.56" cy="331.36" r="4" fill="#0" id="circle276"/>
	<circle cx="619.867" cy="355.333" r="4" fill="#0" id="circle277"/>
	<circle cx="620.693" cy="182.56" r="4" fill="#0" id="circle278"/>
	<circle cx="620.693" cy="210.667" r="4" fill="#0" id="circle279"/>
	<circle cx="622.347" cy="132.133" r="4" fill="#0" id="circle280"/>
	<circle cx="623.173" cy="422.293" r="4" fill="#0" id="circle281"/>
	<circle cx="624.827" cy="331.36" r="4" fill="#0" id="circle282"/>
	<circle cx="628.133" cy="355.333" r="4" fill="#0" id="circle283"/>
	<circle cx="628.96" cy="182.56" r="4" fill="#0" id="circle284"/>
	<circle cx="628.96" cy="210.667" r="4" fill="#0" id="circle285"/>
	<circle cx="630.613" cy="132.133" r="4" fill="#0" id="circle286"/>
	<circle cx="630.613" cy="418.16" r="4" fill="#0" id="circle287"/>
	<circle cx="633.093" cy="327.227" r="4" fill="#0" id="circle288"/>
	<circle cx="636.4" cy="356.987" r="4" fill="#0" id="circle289"/>
	<circle cx="637.227" cy="182.56" r="4" fill="#0" id="circle290"/>
	<circle cx="637.227" cy="210.667" r="4" fill="#0" id="circle291"/>
	<circle cx="638.053" cy="136.267" r="4" fill="#0" id="circle292"/>
	<circle cx="638.88" cy="417.333" r="4" fill="#0" id="circle293"/>
	<circle cx="641.36" cy="144.533" r="4" fill="#0" id="circle294"/>
	<circle cx="641.36" cy="327.227" r="4" fill="#0" id="circle295"/>
	<circle cx="641.36" cy="363.6" r="4" fill="#0" id="circle296"/>
	<circle cx="645.493" cy="178.427" r="4" fill="#0" id="circle297"/>
	<circle cx="645.493" cy="210.667" r="4" fill="#0" id="circle298"/>
	<circle cx="645.493" cy="371.04" r="4" fill="#0" id="circle299"/>
	<circle cx="645.493" cy="379.307" r="4" fill="#0" id="circle300"/>
	<circle cx="645.493" cy="387.573" r="4" fill="#0" id="circle301"/>
	<circle cx="645.493" cy="395.84" r="4" fill="#0" id="circle302"/>
	<circle cx="645.493" cy="404.107" r="4" fill="#0" id="circle303"/>
	<circle cx="648.8" cy="148.667" r="4" fill="#0" id="circle304"/>
	<circle cx="649.627" cy="323.093" r="4" fill="#0" id="circle305"/>
	<circle cx="652.107" cy="172.64" r="4" fill="#0" id="circle306"/>
	<circle cx="653.76" cy="210.667" r="4" fill="#0" id="circle307"/>
	<circle cx="655.413" cy="153.627" r="4" fill="#0" id="circle308"/>
	<circle cx="656.24" cy="164.373" r="4" fill="#0" id="circle309"/>
	<circle cx="657.893" cy="323.093" r="4" fill="#0" id="circle310"/>
	<circle cx="662.027" cy="208.187" r="4" fill="#0" id="circle311"/>
	<circle cx="666.16" cy="323.093" r="4" fill="#0" id="circle312"/>
	<circle cx="670.293" cy="206.533" r="4" fill="#0" id="circle313"/>
	<circle cx="674.427" cy="323.093" r="4" fill="#0" id="circle314"/>
	<circle cx="678.56" cy="206.533" r="4" fill="#0" id="circle315"/>
	<circle cx="682.693" cy="323.093" r="4" fill="#0" id="circle316"/>
	<circle cx="686.827" cy="206.533" r="4" fill="#0" id="circle317"/>
	<circle cx="690.96" cy="318.96" r="4" fill="#0" id="circle318"/>
	<circle cx="695.093" cy="204.053" r="4" fill="#0" id="circle319"/>
	<circle cx="699.227" cy="318.96" r="4" fill="#0" id="circle320"/>
	<circle cx="703.36" cy="202.4" r="4" fill="#0" id="circle321"/>
	<circle cx="707.493" cy="318.96" r="4" fill="#0" id="circle322"/>
	<circle cx="711.627" cy="202.4" r="4" fill="#0" id="circle323"/>
	<circle cx="715.76" cy="318.96" r="4" fill="#0" id="circle324"/>
	<circle cx="719.893" cy="202.4" r="4" fill="#0" id="circle325"/>
	<circle cx="724.027" cy="318.96" r="4" fill="#0" id="circle326"/>
	<circle cx="728.16" cy="202.4" r="4" fill="#0" id="circle327"/>
	<circle cx="731.467" cy="314.827" r="4" fill="#0" id="circle328"/>
	<circle cx="736.427" cy="202.4" r="4" fill="#0" id="circle329"/>
	<circle cx="739.733" cy="314.827" r="4" fill="#0" id="circle330"/>
	<circle cx="744.693" cy="202.4" r="4" fill="#0" id="circle331"/>
	<circle cx="748" cy="312.347" r="4" fill="#0" id="circle332"/>
	<circle cx="752.133" cy="198.267" r="4" fill="#0" id="circle333"/>
	<circle cx="756.267" cy="308.213" r="4" fill="#0" id="circle334"/>
	<circle cx="760.4" cy="198.267" r="4" fill="#0" id="circle335"/>
	<circle cx="762.88" cy="302.427" r="4" fill="#0" id="circle336"/>
	<circle cx="767.84" cy="194.133" r="4" fill="#0" id="circle337"/>
	<circle cx="770.32" cy="298.293" r="4" fill="#0" id="circle338"/>
	<circle cx="776.107" cy="194.133" r="4" fill="#0" id="circle339"/>
	<circle cx="778.587" cy="298.293" r="4" fill="#0" id="circle340"/>
	<circle cx="784.373" cy="194.133" r="4" fill="#0" id="circle341"/>
	<circle cx="786.027" cy="294.16" r="4" fill="#0" id="circle342"/>
	<circle cx="791.813" cy="190" r="4" fill="#0" id="circle343"/>
	<circle cx="793.467" cy="290.027" r="4" fill="#0" id="circle344"/>
	<circle cx="800.08" cy="190" r="4" fill="#0" id="circle345"/>
	<circle cx="801.733" cy="287.547" r="4" fill="#0" id="circle346"/>
	<circle cx="808.347" cy="185.867" r="4" fill="#0" id="circle347"/>
	<circle cx="810" cy="283.413" r="4" fill="#0" id="circle348"/>
	<circle cx="816.613" cy="185.867" r="4" fill="#0" id="circle349"/>
	<circle cx="818.267" cy="281.76" r="4" fill="#0" id="circle350"/>
	<circle cx="824.88" cy="185.867" r="4" fill="#0" id="circle351"/>
	<circle cx="825.707" cy="277.627" r="4" fill="#0" id="circle352"/>
	<circle cx="833.147" cy="185.867" r="4" fill="#0" id="circle353"/>
	<circle cx="833.147" cy="273.493" r="4" fill="#0" id="circle354"/>
	<circle cx="841.413" cy="185.867" r="4" fill="#0" id="circle355"/>
	<circle cx="841.413" cy="272.667" r="4" fill="#0" id="circle356"/>
	<circle cx="848.853" cy="181.733" r="4" fill="#0" id="circle357"/>
	<circle cx="849.68" cy="269.36" r="4" fill="#0" id="circle358"/>
	<circle cx="857.12" cy="181.733" r="4" fill="#0" id="circle359"/>
	<circle cx="857.12" cy="265.227" r="4" fill="#0" id="circle360"/>
	<circle cx="865.387" cy="181.733" r="4" fill="#0" id="circle361"/>
	<circle cx="865.387" cy="265.227" r="4" fill="#0" id="circle362"/>
	<circle cx="872.827" cy="261.093" r="4" fill="#0" id="circle363"/>
	<circle cx="873.653" cy="181.733" r="4" fill="#0" id="circle364"/>
	<circle cx="881.093" cy="261.093" r="4" fill="#0" id="circle365"/>
	<circle cx="881.92" cy="181.733" r="4" fill="#0" id="circle366"/>
	<circle cx="888.533" cy="256.96" r="4" fill="#0" id="circle367"/>
	<circle cx="890.187" cy="181.733" r="4" fill="#0" id="circle368"/>
	<circle cx="896.8" cy="254.48" r="4" fill="#0" id="circle369"/>
	<circle cx="898.453" cy="181.733" r="4" fill="#0" id="circle370"/>
	<circle cx="905.067" cy="252.827" r="4" fill="#0" id="circle371"/>
	<circle cx="906.72" cy="181.733" r="4" fill="#0" id="circle372"/>
	<circle cx="912.507" cy="248.693" r="4" fill="#0" id="circle373"/>
	<circle cx="914.987" cy="181.733" r="4" fill="#0" id="circle374"/>
	<circle cx="919.947" cy="244.56" r="4" fill="#0" id="circle375"/>
	<circle cx="923.253" cy="181.733" r="4" fill="#0" id="circle376"/>
	<circle cx="927.387" cy="240.427" r="4" fill="#0" id="circle377"/>
	<circle cx="931.52" cy="181.733" r="4" fill="#0" id="circle378"/>
	<circle cx="934.827" cy="236.293" r="4" fill="#0" id="circle379"/>
	<circle cx="939.787" cy="181.733" r="4" fill="#0" id="circle380"/>
	<circle cx="943.093" cy="232.16" r="4" fill="#0" id="circle381"/>
	<circle cx="948.053" cy="181.733" r="4" fill="#0" id="circle382"/>
	<circle cx="951.36" cy="232.16" r="4" fill="#0" id="circle383"/>
	<circle cx="956.32" cy="181.733" r="4" fill="#0" id="circle384"/>
	<circle cx="958.8" cy="228.027" r="4" fill="#0" id="circle385"/>
	<circle cx="964.587" cy="181.733" r="4" fill="#0" id="circle386"/>
	<circle cx="966.24" cy="223.893" r="4" fill="#0" id="circle387"/>
	<circle cx="972.853" cy="181.733" r="4" fill="#0" id="circle388"/>
	<circle cx="973.68" cy="219.76" r="4" fill="#0" id="circle389"/>
	<circle cx="981.12" cy="181.733" r="4" fill="#0" id="circle390"/>
	<circle cx="981.12" cy="215.627" r="4" fill="#0" id="circle391"/>
	<circle cx="987.733" cy="209.013" r="4" fill="#0" id="circle392"/>
	<circle cx="989.387" cy="181.733" r="4" fill="#0" id="circle393"/>
	<circle cx="992.693" cy="199.093" r="4" fill="#0" id="circle394"/>
	<circle cx="996" cy="187.52" r="4" fill="#0" id="circle395"/>
	</g>
</svg>