<?xml version="1.0" encoding="UTF-8" standalone="no"?>
<!-- Created with CurveBenchmark -->
<svg
	xmlns:dc="http://purl.org/dc/elements/1.1/"
	xmlns:cc="http://creativecommons.org/ns#"
	xmlns:rdf="http://www.w3.org/1999/02/22-rdf-syntax-ns#"
	xmlns:svg="http://www.w3.org/2000/svg"
	xmlns="http://www.w3.org/2000/svg"
	xmlns:sodipodi="http://sodipodi.sourceforge.net/DTD/sodipodi-0.dtd"
	xmlns:inkscape="http://www.inkscape.org/namespaces/inkscape"
	width="1000"
	height="1000"
	id="svg2"
	version="1.1"
	sodipodi:docname="manifold/vicur-children19.png.txt">
<defs
	id="defs4" />
<metadata
	id="metadata7">
	<rdf:RDF>
		<cc:Work
			rdf:about="">
			<dc:format>image/svg+xml</dc:format>
			<dc:type
				rdf:resource="http://purl.org/dc/dcmitype/StillImage" />
			<dc:title></dc:title>
		</cc:Work>
	</rdf:RDF>
</metadata>
<g
	inkscape:label="Layer 1"
	inkscape:groupmode="layer"
	id="layer1">
	<path style="fill:none;stroke:red;stroke-width:1px;stroke-linecap:butt;stroke-linejoin:miter;stroke-opacity:1" d="M 4,330.815 12.2529,314.309 z" id="boundary" inkscape:connector-curvature="0" />
	<path style="fill:none;stroke:red;stroke-width:1px;stroke-linecap:butt;stroke-linejoin:miter;stroke-opacity:1" d="M 4,330.815 12.2529,345.671 z" id="boundary" inkscape:connector-curvature="0" />
	<path style="fill:none;stroke:red;stroke-width:1px;stroke-linecap:butt;stroke-linejoin:miter;stroke-opacity:1" d="M 12.2529,314.309 20.5058,297.804 z" id="boundary" inkscape:connector-curvature="0" />
	<path style="fill:none;stroke:red;stroke-width:1px;stroke-linecap:butt;stroke-linejoin:miter;stroke-opacity:1" d="M 12.2529,345.671 12.2529,362.176 z" id="boundary" inkscape:connector-curvature="0" />
	<path style="fill:none;stroke:red;stroke-width:1px;stroke-linecap:butt;stroke-linejoin:miter;stroke-opacity:1" d="M 12.2529,362.176 12.2529,378.682 z" id="boundary" inkscape:connector-curvature="0" />
	<path style="fill:none;stroke:red;stroke-width:1px;stroke-linecap:butt;stroke-linejoin:miter;stroke-opacity:1" d="M 12.2529,378.682 20.5058,393.537 z" id="boundary" inkscape:connector-curvature="0" />
	<path style="fill:none;stroke:red;stroke-width:1px;stroke-linecap:butt;stroke-linejoin:miter;stroke-opacity:1" d="M 20.5058,91.4809 20.5058,107.987 z" id="boundary" inkscape:connector-curvature="0" />
	<path style="fill:none;stroke:red;stroke-width:1px;stroke-linecap:butt;stroke-linejoin:miter;stroke-opacity:1" d="M 20.5058,91.4809 28.7587,74.975 z" id="boundary" inkscape:connector-curvature="0" />
	<path style="fill:none;stroke:red;stroke-width:1px;stroke-linecap:butt;stroke-linejoin:miter;stroke-opacity:1" d="M 20.5058,107.987 28.7587,122.842 z" id="boundary" inkscape:connector-curvature="0" />
	<path style="fill:none;stroke:red;stroke-width:1px;stroke-linecap:butt;stroke-linejoin:miter;stroke-opacity:1" d="M 20.5058,297.804 33.7105,284.599 z" id="boundary" inkscape:connector-curvature="0" />
	<path style="fill:none;stroke:red;stroke-width:1px;stroke-linecap:butt;stroke-linejoin:miter;stroke-opacity:1" d="M 20.5058,393.537 25.4576,410.043 z" id="boundary" inkscape:connector-curvature="0" />
	<path style="fill:none;stroke:red;stroke-width:1px;stroke-linecap:butt;stroke-linejoin:miter;stroke-opacity:1" d="M 25.4576,410.043 28.7587,426.549 z" id="boundary" inkscape:connector-curvature="0" />
	<path style="fill:none;stroke:red;stroke-width:1px;stroke-linecap:butt;stroke-linejoin:miter;stroke-opacity:1" d="M 28.7587,74.975 37.0116,58.4692 z" id="boundary" inkscape:connector-curvature="0" />
	<path style="fill:none;stroke:red;stroke-width:1px;stroke-linecap:butt;stroke-linejoin:miter;stroke-opacity:1" d="M 28.7587,122.842 37.0116,137.697 z" id="boundary" inkscape:connector-curvature="0" />
	<path style="fill:none;stroke:red;stroke-width:1px;stroke-linecap:butt;stroke-linejoin:miter;stroke-opacity:1" d="M 28.7587,426.549 28.7587,443.055 z" id="boundary" inkscape:connector-curvature="0" />
	<path style="fill:none;stroke:red;stroke-width:1px;stroke-linecap:butt;stroke-linejoin:miter;stroke-opacity:1" d="M 28.7587,443.055 28.7587,459.561 z" id="boundary" inkscape:connector-curvature="0" />
	<path style="fill:none;stroke:red;stroke-width:1px;stroke-linecap:butt;stroke-linejoin:miter;stroke-opacity:1" d="M 28.7587,459.561 37.0116,474.416 z" id="boundary" inkscape:connector-curvature="0" />
	<path style="fill:none;stroke:red;stroke-width:1px;stroke-linecap:butt;stroke-linejoin:miter;stroke-opacity:1" d="M 33.7105,284.599 46.9151,271.394 z" id="boundary" inkscape:connector-curvature="0" />
	<path style="fill:none;stroke:red;stroke-width:1px;stroke-linecap:butt;stroke-linejoin:miter;stroke-opacity:1" d="M 37.0116,58.4692 50.2163,45.2646 z" id="boundary" inkscape:connector-curvature="0" />
	<path style="fill:none;stroke:red;stroke-width:1px;stroke-linecap:butt;stroke-linejoin:miter;stroke-opacity:1" d="M 37.0116,137.697 41.9634,154.203 z" id="boundary" inkscape:connector-curvature="0" />
	<path style="fill:none;stroke:red;stroke-width:1px;stroke-linecap:butt;stroke-linejoin:miter;stroke-opacity:1" d="M 37.0116,474.416 40.3128,490.922 z" id="boundary" inkscape:connector-curvature="0" />
	<path style="fill:none;stroke:red;stroke-width:1px;stroke-linecap:butt;stroke-linejoin:miter;stroke-opacity:1" d="M 40.3128,490.922 45.2646,507.428 z" id="boundary" inkscape:connector-curvature="0" />
	<path style="fill:none;stroke:red;stroke-width:1px;stroke-linecap:butt;stroke-linejoin:miter;stroke-opacity:1" d="M 41.9634,154.203 50.2163,169.058 z" id="boundary" inkscape:connector-curvature="0" />
	<path style="fill:none;stroke:red;stroke-width:1px;stroke-linecap:butt;stroke-linejoin:miter;stroke-opacity:1" d="M 45.2646,507.428 45.2646,523.933 z" id="boundary" inkscape:connector-curvature="0" />
	<path style="fill:none;stroke:red;stroke-width:1px;stroke-linecap:butt;stroke-linejoin:miter;stroke-opacity:1" d="M 45.2646,523.933 48.5657,540.439 z" id="boundary" inkscape:connector-curvature="0" />
	<path style="fill:none;stroke:red;stroke-width:1px;stroke-linecap:butt;stroke-linejoin:miter;stroke-opacity:1" d="M 46.9151,271.394 60.1198,259.84 z" id="boundary" inkscape:connector-curvature="0" />
	<path style="fill:none;stroke:red;stroke-width:1px;stroke-linecap:butt;stroke-linejoin:miter;stroke-opacity:1" d="M 48.5657,540.439 53.5175,556.945 z" id="boundary" inkscape:connector-curvature="0" />
	<path style="fill:none;stroke:red;stroke-width:1px;stroke-linecap:butt;stroke-linejoin:miter;stroke-opacity:1" d="M 50.2163,45.2646 63.421,32.0599 z" id="boundary" inkscape:connector-curvature="0" />
	<path style="fill:none;stroke:red;stroke-width:1px;stroke-linecap:butt;stroke-linejoin:miter;stroke-opacity:1" d="M 50.2163,169.058 61.7704,182.263 z" id="boundary" inkscape:connector-curvature="0" />
	<path style="fill:none;stroke:red;stroke-width:1px;stroke-linecap:butt;stroke-linejoin:miter;stroke-opacity:1" d="M 53.5175,556.945 53.5175,573.451 z" id="boundary" inkscape:connector-curvature="0" />
	<path style="fill:none;stroke:red;stroke-width:1px;stroke-linecap:butt;stroke-linejoin:miter;stroke-opacity:1" d="M 53.5175,573.451 61.7704,588.306 z" id="boundary" inkscape:connector-curvature="0" />
	<path style="fill:none;stroke:red;stroke-width:1px;stroke-linecap:butt;stroke-linejoin:miter;stroke-opacity:1" d="M 60.1198,259.84 66.7221,243.334 z" id="boundary" inkscape:connector-curvature="0" />
	<path style="fill:none;stroke:red;stroke-width:1px;stroke-linecap:butt;stroke-linejoin:miter;stroke-opacity:1" d="M 61.7704,182.263 70.0233,197.118 z" id="boundary" inkscape:connector-curvature="0" />
	<path style="fill:none;stroke:red;stroke-width:1px;stroke-linecap:butt;stroke-linejoin:miter;stroke-opacity:1" d="M 61.7704,588.306 61.7704,604.812 z" id="boundary" inkscape:connector-curvature="0" />
	<path style="fill:none;stroke:red;stroke-width:1px;stroke-linecap:butt;stroke-linejoin:miter;stroke-opacity:1" d="M 61.7704,604.812 61.7704,621.318 z" id="boundary" inkscape:connector-curvature="0" />
	<path style="fill:none;stroke:red;stroke-width:1px;stroke-linecap:butt;stroke-linejoin:miter;stroke-opacity:1" d="M 61.7704,621.318 70.0233,636.173 z" id="boundary" inkscape:connector-curvature="0" />
	<path style="fill:none;stroke:red;stroke-width:1px;stroke-linecap:butt;stroke-linejoin:miter;stroke-opacity:1" d="M 63.421,32.0599 76.6256,20.5058 z" id="boundary" inkscape:connector-curvature="0" />
	<path style="fill:none;stroke:red;stroke-width:1px;stroke-linecap:butt;stroke-linejoin:miter;stroke-opacity:1" d="M 66.7221,243.334 70.0233,213.624 z" id="boundary" inkscape:connector-curvature="0" />
	<path style="fill:none;stroke:red;stroke-width:1px;stroke-linecap:butt;stroke-linejoin:miter;stroke-opacity:1" d="M 70.0233,197.118 70.0233,213.624 z" id="boundary" inkscape:connector-curvature="0" />
	<path style="fill:none;stroke:red;stroke-width:1px;stroke-linecap:butt;stroke-linejoin:miter;stroke-opacity:1" d="M 70.0233,636.173 70.0233,652.679 z" id="boundary" inkscape:connector-curvature="0" />
	<path style="fill:none;stroke:red;stroke-width:1px;stroke-linecap:butt;stroke-linejoin:miter;stroke-opacity:1" d="M 70.0233,652.679 78.2762,667.534 z" id="boundary" inkscape:connector-curvature="0" />
	<path style="fill:none;stroke:red;stroke-width:1px;stroke-linecap:butt;stroke-linejoin:miter;stroke-opacity:1" d="M 76.6256,20.5058 91.4809,12.2529 z" id="boundary" inkscape:connector-curvature="0" />
	<path style="fill:none;stroke:red;stroke-width:1px;stroke-linecap:butt;stroke-linejoin:miter;stroke-opacity:1" d="M 78.2762,667.534 89.8303,680.739 z" id="boundary" inkscape:connector-curvature="0" />
	<path style="fill:none;stroke:red;stroke-width:1px;stroke-linecap:butt;stroke-linejoin:miter;stroke-opacity:1" d="M 86.5291,809.484 94.782,792.978 z" id="boundary" inkscape:connector-curvature="0" />
	<path style="fill:none;stroke:red;stroke-width:1px;stroke-linecap:butt;stroke-linejoin:miter;stroke-opacity:1" d="M 86.5291,809.484 94.782,824.339 z" id="boundary" inkscape:connector-curvature="0" />
	<path style="fill:none;stroke:red;stroke-width:1px;stroke-linecap:butt;stroke-linejoin:miter;stroke-opacity:1" d="M 89.8303,680.739 103.035,690.642 z" id="boundary" inkscape:connector-curvature="0" />
	<path style="fill:none;stroke:red;stroke-width:1px;stroke-linecap:butt;stroke-linejoin:miter;stroke-opacity:1" d="M 91.4809,12.2529 107.987,12.2529 z" id="boundary" inkscape:connector-curvature="0" />
	<path style="fill:none;stroke:red;stroke-width:1px;stroke-linecap:butt;stroke-linejoin:miter;stroke-opacity:1" d="M 94.782,792.978 103.035,776.473 z" id="boundary" inkscape:connector-curvature="0" />
	<path style="fill:none;stroke:red;stroke-width:1px;stroke-linecap:butt;stroke-linejoin:miter;stroke-opacity:1" d="M 94.782,824.339 94.782,840.845 z" id="boundary" inkscape:connector-curvature="0" />
	<path style="fill:none;stroke:red;stroke-width:1px;stroke-linecap:butt;stroke-linejoin:miter;stroke-opacity:1" d="M 94.782,840.845 103.035,855.7 z" id="boundary" inkscape:connector-curvature="0" />
	<path style="fill:none;stroke:red;stroke-width:1px;stroke-linecap:butt;stroke-linejoin:miter;stroke-opacity:1" d="M 94.782,949.784 103.035,925.025 z" id="boundary" inkscape:connector-curvature="0" />
	<path style="fill:none;stroke:red;stroke-width:1px;stroke-linecap:butt;stroke-linejoin:miter;stroke-opacity:1" d="M 94.782,949.784 103.035,964.639 z" id="boundary" inkscape:connector-curvature="0" />
	<path style="fill:none;stroke:red;stroke-width:1px;stroke-linecap:butt;stroke-linejoin:miter;stroke-opacity:1" d="M 103.035,690.642 112.938,703.847 z" id="boundary" inkscape:connector-curvature="0" />
	<path style="fill:none;stroke:red;stroke-width:1px;stroke-linecap:butt;stroke-linejoin:miter;stroke-opacity:1" d="M 103.035,776.473 111.288,759.967 z" id="boundary" inkscape:connector-curvature="0" />
	<path style="fill:none;stroke:red;stroke-width:1px;stroke-linecap:butt;stroke-linejoin:miter;stroke-opacity:1" d="M 103.035,855.7 107.987,872.206 z" id="boundary" inkscape:connector-curvature="0" />
	<path style="fill:none;stroke:red;stroke-width:1px;stroke-linecap:butt;stroke-linejoin:miter;stroke-opacity:1" d="M 103.035,908.519 103.035,925.025 z" id="boundary" inkscape:connector-curvature="0" />
	<path style="fill:none;stroke:red;stroke-width:1px;stroke-linecap:butt;stroke-linejoin:miter;stroke-opacity:1" d="M 103.035,908.519 111.288,888.712 z" id="boundary" inkscape:connector-curvature="0" />
	<path style="fill:none;stroke:red;stroke-width:1px;stroke-linecap:butt;stroke-linejoin:miter;stroke-opacity:1" d="M 103.035,964.639 114.589,977.844 z" id="boundary" inkscape:connector-curvature="0" />
	<path style="fill:none;stroke:red;stroke-width:1px;stroke-linecap:butt;stroke-linejoin:miter;stroke-opacity:1" d="M 107.987,12.2529 124.493,4 z" id="boundary" inkscape:connector-curvature="0" />
	<path style="fill:none;stroke:red;stroke-width:1px;stroke-linecap:butt;stroke-linejoin:miter;stroke-opacity:1" d="M 107.987,872.206 111.288,888.712 z" id="boundary" inkscape:connector-curvature="0" />
	<path style="fill:none;stroke:red;stroke-width:1px;stroke-linecap:butt;stroke-linejoin:miter;stroke-opacity:1" d="M 111.288,759.967 119.541,736.859 z" id="boundary" inkscape:connector-curvature="0" />
	<path style="fill:none;stroke:red;stroke-width:1px;stroke-linecap:butt;stroke-linejoin:miter;stroke-opacity:1" d="M 112.938,703.847 119.541,720.353 z" id="boundary" inkscape:connector-curvature="0" />
	<path style="fill:none;stroke:red;stroke-width:1px;stroke-linecap:butt;stroke-linejoin:miter;stroke-opacity:1" d="M 114.589,977.844 127.794,987.747 z" id="boundary" inkscape:connector-curvature="0" />
	<path style="fill:none;stroke:red;stroke-width:1px;stroke-linecap:butt;stroke-linejoin:miter;stroke-opacity:1" d="M 119.541,720.353 119.541,736.859 z" id="boundary" inkscape:connector-curvature="0" />
	<path style="fill:none;stroke:red;stroke-width:1px;stroke-linecap:butt;stroke-linejoin:miter;stroke-opacity:1" d="M 124.493,4 140.998,4 z" id="boundary" inkscape:connector-curvature="0" />
	<path style="fill:none;stroke:red;stroke-width:1px;stroke-linecap:butt;stroke-linejoin:miter;stroke-opacity:1" d="M 127.794,987.747 144.3,987.747 z" id="boundary" inkscape:connector-curvature="0" />
	<path style="fill:none;stroke:red;stroke-width:1px;stroke-linecap:butt;stroke-linejoin:miter;stroke-opacity:1" d="M 140.998,4 155.854,12.2529 z" id="boundary" inkscape:connector-curvature="0" />
	<path style="fill:none;stroke:red;stroke-width:1px;stroke-linecap:butt;stroke-linejoin:miter;stroke-opacity:1" d="M 144.3,987.747 160.805,987.747 z" id="boundary" inkscape:connector-curvature="0" />
	<path style="fill:none;stroke:red;stroke-width:1px;stroke-linecap:butt;stroke-linejoin:miter;stroke-opacity:1" d="M 155.854,12.2529 172.359,12.2529 z" id="boundary" inkscape:connector-curvature="0" />
	<path style="fill:none;stroke:red;stroke-width:1px;stroke-linecap:butt;stroke-linejoin:miter;stroke-opacity:1" d="M 160.805,987.747 175.661,996 z" id="boundary" inkscape:connector-curvature="0" />
	<path style="fill:none;stroke:red;stroke-width:1px;stroke-linecap:butt;stroke-linejoin:miter;stroke-opacity:1" d="M 172.359,12.2529 188.865,12.2529 z" id="boundary" inkscape:connector-curvature="0" />
	<path style="fill:none;stroke:red;stroke-width:1px;stroke-linecap:butt;stroke-linejoin:miter;stroke-opacity:1" d="M 175.661,996 192.166,996 z" id="boundary" inkscape:connector-curvature="0" />
	<path style="fill:none;stroke:red;stroke-width:1px;stroke-linecap:butt;stroke-linejoin:miter;stroke-opacity:1" d="M 188.865,12.2529 203.72,20.5058 z" id="boundary" inkscape:connector-curvature="0" />
	<path style="fill:none;stroke:red;stroke-width:1px;stroke-linecap:butt;stroke-linejoin:miter;stroke-opacity:1" d="M 192.166,996 208.672,996 z" id="boundary" inkscape:connector-curvature="0" />
	<path style="fill:none;stroke:red;stroke-width:1px;stroke-linecap:butt;stroke-linejoin:miter;stroke-opacity:1" d="M 203.72,20.5058 218.576,28.7587 z" id="boundary" inkscape:connector-curvature="0" />
	<path style="fill:none;stroke:red;stroke-width:1px;stroke-linecap:butt;stroke-linejoin:miter;stroke-opacity:1" d="M 208.672,996 225.178,996 z" id="boundary" inkscape:connector-curvature="0" />
	<path style="fill:none;stroke:red;stroke-width:1px;stroke-linecap:butt;stroke-linejoin:miter;stroke-opacity:1" d="M 218.576,28.7587 231.78,38.6622 z" id="boundary" inkscape:connector-curvature="0" />
	<path style="fill:none;stroke:red;stroke-width:1px;stroke-linecap:butt;stroke-linejoin:miter;stroke-opacity:1" d="M 225.178,996 241.684,996 z" id="boundary" inkscape:connector-curvature="0" />
	<path style="fill:none;stroke:red;stroke-width:1px;stroke-linecap:butt;stroke-linejoin:miter;stroke-opacity:1" d="M 231.78,38.6622 244.985,50.2163 z" id="boundary" inkscape:connector-curvature="0" />
	<path style="fill:none;stroke:red;stroke-width:1px;stroke-linecap:butt;stroke-linejoin:miter;stroke-opacity:1" d="M 241.684,996 258.19,996 z" id="boundary" inkscape:connector-curvature="0" />
	<path style="fill:none;stroke:red;stroke-width:1px;stroke-linecap:butt;stroke-linejoin:miter;stroke-opacity:1" d="M 244.985,50.2163 256.539,63.421 z" id="boundary" inkscape:connector-curvature="0" />
	<path style="fill:none;stroke:red;stroke-width:1px;stroke-linecap:butt;stroke-linejoin:miter;stroke-opacity:1" d="M 244.985,880.459 253.238,855.7 z" id="boundary" inkscape:connector-curvature="0" />
	<path style="fill:none;stroke:red;stroke-width:1px;stroke-linecap:butt;stroke-linejoin:miter;stroke-opacity:1" d="M 244.985,880.459 253.238,895.314 z" id="boundary" inkscape:connector-curvature="0" />
	<path style="fill:none;stroke:red;stroke-width:1px;stroke-linecap:butt;stroke-linejoin:miter;stroke-opacity:1" d="M 253.238,220.226 253.238,236.732 z" id="boundary" inkscape:connector-curvature="0" />
	<path style="fill:none;stroke:red;stroke-width:1px;stroke-linecap:butt;stroke-linejoin:miter;stroke-opacity:1" d="M 253.238,220.226 261.491,195.468 z" id="boundary" inkscape:connector-curvature="0" />
	<path style="fill:none;stroke:red;stroke-width:1px;stroke-linecap:butt;stroke-linejoin:miter;stroke-opacity:1" d="M 253.238,236.732 261.491,251.587 z" id="boundary" inkscape:connector-curvature="0" />
	<path style="fill:none;stroke:red;stroke-width:1px;stroke-linecap:butt;stroke-linejoin:miter;stroke-opacity:1" d="M 253.238,855.7 261.491,830.942 z" id="boundary" inkscape:connector-curvature="0" />
	<path style="fill:none;stroke:red;stroke-width:1px;stroke-linecap:butt;stroke-linejoin:miter;stroke-opacity:1" d="M 253.238,895.314 266.443,905.218 z" id="boundary" inkscape:connector-curvature="0" />
	<path style="fill:none;stroke:red;stroke-width:1px;stroke-linecap:butt;stroke-linejoin:miter;stroke-opacity:1" d="M 256.539,63.421 261.491,79.9268 z" id="boundary" inkscape:connector-curvature="0" />
	<path style="fill:none;stroke:red;stroke-width:1px;stroke-linecap:butt;stroke-linejoin:miter;stroke-opacity:1" d="M 258.19,996 274.696,992.699 z" id="boundary" inkscape:connector-curvature="0" />
	<path style="fill:none;stroke:red;stroke-width:1px;stroke-linecap:butt;stroke-linejoin:miter;stroke-opacity:1" d="M 261.491,79.9268 261.491,96.4326 z" id="boundary" inkscape:connector-curvature="0" />
	<path style="fill:none;stroke:red;stroke-width:1px;stroke-linecap:butt;stroke-linejoin:miter;stroke-opacity:1" d="M 261.491,96.4326 264.792,112.938 z" id="boundary" inkscape:connector-curvature="0" />
	<path style="fill:none;stroke:red;stroke-width:1px;stroke-linecap:butt;stroke-linejoin:miter;stroke-opacity:1" d="M 261.491,145.95 264.792,162.456 z" id="boundary" inkscape:connector-curvature="0" />
	<path style="fill:none;stroke:red;stroke-width:1px;stroke-linecap:butt;stroke-linejoin:miter;stroke-opacity:1" d="M 261.491,145.95 269.744,129.444 z" id="boundary" inkscape:connector-curvature="0" />
	<path style="fill:none;stroke:red;stroke-width:1px;stroke-linecap:butt;stroke-linejoin:miter;stroke-opacity:1" d="M 261.491,195.468 269.744,178.962 z" id="boundary" inkscape:connector-curvature="0" />
	<path style="fill:none;stroke:red;stroke-width:1px;stroke-linecap:butt;stroke-linejoin:miter;stroke-opacity:1" d="M 261.491,251.587 269.744,266.443 z" id="boundary" inkscape:connector-curvature="0" />
	<path style="fill:none;stroke:red;stroke-width:1px;stroke-linecap:butt;stroke-linejoin:miter;stroke-opacity:1" d="M 261.491,814.436 261.491,830.942 z" id="boundary" inkscape:connector-curvature="0" />
	<path style="fill:none;stroke:red;stroke-width:1px;stroke-linecap:butt;stroke-linejoin:miter;stroke-opacity:1" d="M 261.491,814.436 269.744,789.677 z" id="boundary" inkscape:connector-curvature="0" />
	<path style="fill:none;stroke:red;stroke-width:1px;stroke-linecap:butt;stroke-linejoin:miter;stroke-opacity:1" d="M 264.792,112.938 269.744,129.444 z" id="boundary" inkscape:connector-curvature="0" />
	<path style="fill:none;stroke:red;stroke-width:1px;stroke-linecap:butt;stroke-linejoin:miter;stroke-opacity:1" d="M 264.792,162.456 269.744,178.962 z" id="boundary" inkscape:connector-curvature="0" />
	<path style="fill:none;stroke:red;stroke-width:1px;stroke-linecap:butt;stroke-linejoin:miter;stroke-opacity:1" d="M 266.443,905.218 281.298,913.471 z" id="boundary" inkscape:connector-curvature="0" />
	<path style="fill:none;stroke:red;stroke-width:1px;stroke-linecap:butt;stroke-linejoin:miter;stroke-opacity:1" d="M 269.744,266.443 277.997,281.298 z" id="boundary" inkscape:connector-curvature="0" />
	<path style="fill:none;stroke:red;stroke-width:1px;stroke-linecap:butt;stroke-linejoin:miter;stroke-opacity:1" d="M 269.744,773.171 269.744,789.677 z" id="boundary" inkscape:connector-curvature="0" />
	<path style="fill:none;stroke:red;stroke-width:1px;stroke-linecap:butt;stroke-linejoin:miter;stroke-opacity:1" d="M 269.744,773.171 277.997,748.413 z" id="boundary" inkscape:connector-curvature="0" />
	<path style="fill:none;stroke:red;stroke-width:1px;stroke-linecap:butt;stroke-linejoin:miter;stroke-opacity:1" d="M 274.696,992.699 286.25,979.494 z" id="boundary" inkscape:connector-curvature="0" />
	<path style="fill:none;stroke:red;stroke-width:1px;stroke-linecap:butt;stroke-linejoin:miter;stroke-opacity:1" d="M 277.997,281.298 286.25,296.153 z" id="boundary" inkscape:connector-curvature="0" />
	<path style="fill:none;stroke:red;stroke-width:1px;stroke-linecap:butt;stroke-linejoin:miter;stroke-opacity:1" d="M 277.997,748.413 286.25,723.654 z" id="boundary" inkscape:connector-curvature="0" />
	<path style="fill:none;stroke:red;stroke-width:1px;stroke-linecap:butt;stroke-linejoin:miter;stroke-opacity:1" d="M 281.298,913.471 297.804,920.073 z" id="boundary" inkscape:connector-curvature="0" />
	<path style="fill:none;stroke:red;stroke-width:1px;stroke-linecap:butt;stroke-linejoin:miter;stroke-opacity:1" d="M 286.25,296.153 286.25,312.659 z" id="boundary" inkscape:connector-curvature="0" />
	<path style="fill:none;stroke:red;stroke-width:1px;stroke-linecap:butt;stroke-linejoin:miter;stroke-opacity:1" d="M 286.25,312.659 291.201,329.165 z" id="boundary" inkscape:connector-curvature="0" />
	<path style="fill:none;stroke:red;stroke-width:1px;stroke-linecap:butt;stroke-linejoin:miter;stroke-opacity:1" d="M 286.25,385.285 294.502,362.176 z" id="boundary" inkscape:connector-curvature="0" />
	<path style="fill:none;stroke:red;stroke-width:1px;stroke-linecap:butt;stroke-linejoin:miter;stroke-opacity:1" d="M 286.25,385.285 294.502,400.14 z" id="boundary" inkscape:connector-curvature="0" />
	<path style="fill:none;stroke:red;stroke-width:1px;stroke-linecap:butt;stroke-linejoin:miter;stroke-opacity:1" d="M 286.25,682.389 294.502,665.884 z" id="boundary" inkscape:connector-curvature="0" />
	<path style="fill:none;stroke:red;stroke-width:1px;stroke-linecap:butt;stroke-linejoin:miter;stroke-opacity:1" d="M 286.25,682.389 294.502,697.245 z" id="boundary" inkscape:connector-curvature="0" />
	<path style="fill:none;stroke:red;stroke-width:1px;stroke-linecap:butt;stroke-linejoin:miter;stroke-opacity:1" d="M 286.25,723.654 294.502,697.245 z" id="boundary" inkscape:connector-curvature="0" />
	<path style="fill:none;stroke:red;stroke-width:1px;stroke-linecap:butt;stroke-linejoin:miter;stroke-opacity:1" d="M 286.25,979.494 301.105,971.241 z" id="boundary" inkscape:connector-curvature="0" />
	<path style="fill:none;stroke:red;stroke-width:1px;stroke-linecap:butt;stroke-linejoin:miter;stroke-opacity:1" d="M 291.201,329.165 294.502,345.671 z" id="boundary" inkscape:connector-curvature="0" />
	<path style="fill:none;stroke:red;stroke-width:1px;stroke-linecap:butt;stroke-linejoin:miter;stroke-opacity:1" d="M 294.502,345.671 294.502,362.176 z" id="boundary" inkscape:connector-curvature="0" />
	<path style="fill:none;stroke:red;stroke-width:1px;stroke-linecap:butt;stroke-linejoin:miter;stroke-opacity:1" d="M 294.502,400.14 302.755,414.995 z" id="boundary" inkscape:connector-curvature="0" />
	<path style="fill:none;stroke:red;stroke-width:1px;stroke-linecap:butt;stroke-linejoin:miter;stroke-opacity:1" d="M 294.502,665.884 311.008,657.631 z" id="boundary" inkscape:connector-curvature="0" />
	<path style="fill:none;stroke:red;stroke-width:1px;stroke-linecap:butt;stroke-linejoin:miter;stroke-opacity:1" d="M 297.804,920.073 312.659,928.326 z" id="boundary" inkscape:connector-curvature="0" />
	<path style="fill:none;stroke:red;stroke-width:1px;stroke-linecap:butt;stroke-linejoin:miter;stroke-opacity:1" d="M 301.105,971.241 317.611,971.241 z" id="boundary" inkscape:connector-curvature="0" />
	<path style="fill:none;stroke:red;stroke-width:1px;stroke-linecap:butt;stroke-linejoin:miter;stroke-opacity:1" d="M 302.755,414.995 302.755,431.501 z" id="boundary" inkscape:connector-curvature="0" />
	<path style="fill:none;stroke:red;stroke-width:1px;stroke-linecap:butt;stroke-linejoin:miter;stroke-opacity:1" d="M 302.755,431.501 311.008,446.356 z" id="boundary" inkscape:connector-curvature="0" />
	<path style="fill:none;stroke:red;stroke-width:1px;stroke-linecap:butt;stroke-linejoin:miter;stroke-opacity:1" d="M 311.008,446.356 317.611,462.862 z" id="boundary" inkscape:connector-curvature="0" />
	<path style="fill:none;stroke:red;stroke-width:1px;stroke-linecap:butt;stroke-linejoin:miter;stroke-opacity:1" d="M 311.008,657.631 324.213,646.077 z" id="boundary" inkscape:connector-curvature="0" />
	<path style="fill:none;stroke:red;stroke-width:1px;stroke-linecap:butt;stroke-linejoin:miter;stroke-opacity:1" d="M 312.659,928.326 327.514,936.579 z" id="boundary" inkscape:connector-curvature="0" />
	<path style="fill:none;stroke:red;stroke-width:1px;stroke-linecap:butt;stroke-linejoin:miter;stroke-opacity:1" d="M 317.611,462.862 319.261,479.368 z" id="boundary" inkscape:connector-curvature="0" />
	<path style="fill:none;stroke:red;stroke-width:1px;stroke-linecap:butt;stroke-linejoin:miter;stroke-opacity:1" d="M 317.611,971.241 330.815,961.338 z" id="boundary" inkscape:connector-curvature="0" />
	<path style="fill:none;stroke:red;stroke-width:1px;stroke-linecap:butt;stroke-linejoin:miter;stroke-opacity:1" d="M 319.261,479.368 327.514,494.223 z" id="boundary" inkscape:connector-curvature="0" />
	<path style="fill:none;stroke:red;stroke-width:1px;stroke-linecap:butt;stroke-linejoin:miter;stroke-opacity:1" d="M 324.213,646.077 327.514,616.366 z" id="boundary" inkscape:connector-curvature="0" />
	<path style="fill:none;stroke:red;stroke-width:1px;stroke-linecap:butt;stroke-linejoin:miter;stroke-opacity:1" d="M 327.514,494.223 332.466,510.729 z" id="boundary" inkscape:connector-curvature="0" />
	<path style="fill:none;stroke:red;stroke-width:1px;stroke-linecap:butt;stroke-linejoin:miter;stroke-opacity:1" d="M 327.514,616.366 335.767,599.86 z" id="boundary" inkscape:connector-curvature="0" />
	<path style="fill:none;stroke:red;stroke-width:1px;stroke-linecap:butt;stroke-linejoin:miter;stroke-opacity:1" d="M 327.514,936.579 330.815,961.338 z" id="boundary" inkscape:connector-curvature="0" />
	<path style="fill:none;stroke:red;stroke-width:1px;stroke-linecap:butt;stroke-linejoin:miter;stroke-opacity:1" d="M 332.466,510.729 340.719,525.584 z" id="boundary" inkscape:connector-curvature="0" />
	<path style="fill:none;stroke:red;stroke-width:1px;stroke-linecap:butt;stroke-linejoin:miter;stroke-opacity:1" d="M 335.767,599.86 348.972,588.306 z" id="boundary" inkscape:connector-curvature="0" />
	<path style="fill:none;stroke:red;stroke-width:1px;stroke-linecap:butt;stroke-linejoin:miter;stroke-opacity:1" d="M 340.719,525.584 344.02,542.09 z" id="boundary" inkscape:connector-curvature="0" />
	<path style="fill:none;stroke:red;stroke-width:1px;stroke-linecap:butt;stroke-linejoin:miter;stroke-opacity:1" d="M 344.02,542.09 352.273,556.945 z" id="boundary" inkscape:connector-curvature="0" />
	<path style="fill:none;stroke:red;stroke-width:1px;stroke-linecap:butt;stroke-linejoin:miter;stroke-opacity:1" d="M 348.972,588.306 352.273,556.945 z" id="boundary" inkscape:connector-curvature="0" />
	<circle cx="4" cy="330.815" r="4" fill="#0" id="circle0"/>
	<circle cx="12.2529" cy="314.309" r="4" fill="#0" id="circle1"/>
	<circle cx="12.2529" cy="345.671" r="4" fill="#0" id="circle2"/>
	<circle cx="12.2529" cy="362.176" r="4" fill="#0" id="circle3"/>
	<circle cx="12.2529" cy="378.682" r="4" fill="#0" id="circle4"/>
	<circle cx="20.5058" cy="91.4809" r="4" fill="#0" id="circle5"/>
	<circle cx="20.5058" cy="107.987" r="4" fill="#0" id="circle6"/>
	<circle cx="20.5058" cy="297.804" r="4" fill="#0" id="circle7"/>
	<circle cx="20.5058" cy="393.537" r="4" fill="#0" id="circle8"/>
	<circle cx="25.4576" cy="410.043" r="4" fill="#0" id="circle9"/>
	<circle cx="28.7587" cy="74.975" r="4" fill="#0" id="circle10"/>
	<circle cx="28.7587" cy="122.842" r="4" fill="#0" id="circle11"/>
	<circle cx="28.7587" cy="426.549" r="4" fill="#0" id="circle12"/>
	<circle cx="28.7587" cy="443.055" r="4" fill="#0" id="circle13"/>
	<circle cx="28.7587" cy="459.561" r="4" fill="#0" id="circle14"/>
	<circle cx="33.7105" cy="284.599" r="4" fill="#0" id="circle15"/>
	<circle cx="37.0116" cy="58.4692" r="4" fill="#0" id="circle16"/>
	<circle cx="37.0116" cy="137.697" r="4" fill="#0" id="circle17"/>
	<circle cx="37.0116" cy="474.416" r="4" fill="#0" id="circle18"/>
	<circle cx="40.3128" cy="490.922" r="4" fill="#0" id="circle19"/>
	<circle cx="41.9634" cy="154.203" r="4" fill="#0" id="circle20"/>
	<circle cx="45.2646" cy="507.428" r="4" fill="#0" id="circle21"/>
	<circle cx="45.2646" cy="523.933" r="4" fill="#0" id="circle22"/>
	<circle cx="46.9151" cy="271.394" r="4" fill="#0" id="circle23"/>
	<circle cx="48.5657" cy="540.439" r="4" fill="#0" id="circle24"/>
	<circle cx="50.2163" cy="45.2646" r="4" fill="#0" id="circle25"/>
	<circle cx="50.2163" cy="169.058" r="4" fill="#0" id="circle26"/>
	<circle cx="53.5175" cy="556.945" r="4" fill="#0" id="circle27"/>
	<circle cx="53.5175" cy="573.451" r="4" fill="#0" id="circle28"/>
	<circle cx="60.1198" cy="259.84" r="4" fill="#0" id="circle29"/>
	<circle cx="61.7704" cy="182.263" r="4" fill="#0" id="circle30"/>
	<circle cx="61.7704" cy="588.306" r="4" fill="#0" id="circle31"/>
	<circle cx="61.7704" cy="604.812" r="4" fill="#0" id="circle32"/>
	<circle cx="61.7704" cy="621.318" r="4" fill="#0" id="circle33"/>
	<circle cx="63.421" cy="32.0599" r="4" fill="#0" id="circle34"/>
	<circle cx="66.7221" cy="243.334" r="4" fill="#0" id="circle35"/>
	<circle cx="70.0233" cy="197.118" r="4" fill="#0" id="circle36"/>
	<circle cx="70.0233" cy="213.624" r="4" fill="#0" id="circle37"/>
	<circle cx="70.0233" cy="636.173" r="4" fill="#0" id="circle38"/>
	<circle cx="70.0233" cy="652.679" r="4" fill="#0" id="circle39"/>
	<circle cx="76.6256" cy="20.5058" r="4" fill="#0" id="circle40"/>
	<circle cx="78.2762" cy="667.534" r="4" fill="#0" id="circle41"/>
	<circle cx="86.5291" cy="809.484" r="4" fill="#0" id="circle42"/>
	<circle cx="89.8303" cy="680.739" r="4" fill="#0" id="circle43"/>
	<circle cx="91.4809" cy="12.2529" r="4" fill="#0" id="circle44"/>
	<circle cx="94.782" cy="792.978" r="4" fill="#0" id="circle45"/>
	<circle cx="94.782" cy="824.339" r="4" fill="#0" id="circle46"/>
	<circle cx="94.782" cy="840.845" r="4" fill="#0" id="circle47"/>
	<circle cx="94.782" cy="949.784" r="4" fill="#0" id="circle48"/>
	<circle cx="103.035" cy="690.642" r="4" fill="#0" id="circle49"/>
	<circle cx="103.035" cy="776.473" r="4" fill="#0" id="circle50"/>
	<circle cx="103.035" cy="855.7" r="4" fill="#0" id="circle51"/>
	<circle cx="103.035" cy="908.519" r="4" fill="#0" id="circle52"/>
	<circle cx="103.035" cy="925.025" r="4" fill="#0" id="circle53"/>
	<circle cx="103.035" cy="964.639" r="4" fill="#0" id="circle54"/>
	<circle cx="107.987" cy="12.2529" r="4" fill="#0" id="circle55"/>
	<circle cx="107.987" cy="872.206" r="4" fill="#0" id="circle56"/>
	<circle cx="111.288" cy="759.967" r="4" fill="#0" id="circle57"/>
	<circle cx="111.288" cy="888.712" r="4" fill="#0" id="circle58"/>
	<circle cx="112.938" cy="703.847" r="4" fill="#0" id="circle59"/>
	<circle cx="114.589" cy="977.844" r="4" fill="#0" id="circle60"/>
	<circle cx="119.541" cy="720.353" r="4" fill="#0" id="circle61"/>
	<circle cx="119.541" cy="736.859" r="4" fill="#0" id="circle62"/>
	<circle cx="124.493" cy="4" r="4" fill="#0" id="circle63"/>
	<circle cx="127.794" cy="987.747" r="4" fill="#0" id="circle64"/>
	<circle cx="140.998" cy="4" r="4" fill="#0" id="circle65"/>
	<circle cx="144.3" cy="987.747" r="4" fill="#0" id="circle66"/>
	<circle cx="155.854" cy="12.2529" r="4" fill="#0" id="circle67"/>
	<circle cx="160.805" cy="987.747" r="4" fill="#0" id="circle68"/>
	<circle cx="172.359" cy="12.2529" r="4" fill="#0" id="circle69"/>
	<circle cx="175.661" cy="996" r="4" fill="#0" id="circle70"/>
	<circle cx="188.865" cy="12.2529" r="4" fill="#0" id="circle71"/>
	<circle cx="192.166" cy="996" r="4" fill="#0" id="circle72"/>
	<circle cx="203.72" cy="20.5058" r="4" fill="#0" id="circle73"/>
	<circle cx="208.672" cy="996" r="4" fill="#0" id="circle74"/>
	<circle cx="218.576" cy="28.7587" r="4" fill="#0" id="circle75"/>
	<circle cx="225.178" cy="996" r="4" fill="#0" id="circle76"/>
	<circle cx="231.78" cy="38.6622" r="4" fill="#0" id="circle77"/>
	<circle cx="241.684" cy="996" r="4" fill="#0" id="circle78"/>
	<circle cx="244.985" cy="50.2163" r="4" fill="#0" id="circle79"/>
	<circle cx="244.985" cy="880.459" r="4" fill="#0" id="circle80"/>
	<circle cx="253.238" cy="220.226" r="4" fill="#0" id="circle81"/>
	<circle cx="253.238" cy="236.732" r="4" fill="#0" id="circle82"/>
	<circle cx="253.238" cy="855.7" r="4" fill="#0" id="circle83"/>
	<circle cx="253.238" cy="895.314" r="4" fill="#0" id="circle84"/>
	<circle cx="256.539" cy="63.421" r="4" fill="#0" id="circle85"/>
	<circle cx="258.19" cy="996" r="4" fill="#0" id="circle86"/>
	<circle cx="261.491" cy="79.9268" r="4" fill="#0" id="circle87"/>
	<circle cx="261.491" cy="96.4326" r="4" fill="#0" id="circle88"/>
	<circle cx="261.491" cy="145.95" r="4" fill="#0" id="circle89"/>
	<circle cx="261.491" cy="195.468" r="4" fill="#0" id="circle90"/>
	<circle cx="261.491" cy="251.587" r="4" fill="#0" id="circle91"/>
	<circle cx="261.491" cy="814.436" r="4" fill="#0" id="circle92"/>
	<circle cx="261.491" cy="830.942" r="4" fill="#0" id="circle93"/>
	<circle cx="264.792" cy="112.938" r="4" fill="#0" id="circle94"/>
	<circle cx="264.792" cy="162.456" r="4" fill="#0" id="circle95"/>
	<circle cx="266.443" cy="905.218" r="4" fill="#0" id="circle96"/>
	<circle cx="269.744" cy="129.444" r="4" fill="#0" id="circle97"/>
	<circle cx="269.744" cy="178.962" r="4" fill="#0" id="circle98"/>
	<circle cx="269.744" cy="266.443" r="4" fill="#0" id="circle99"/>
	<circle cx="269.744" cy="773.171" r="4" fill="#0" id="circle100"/>
	<circle cx="269.744" cy="789.677" r="4" fill="#0" id="circle101"/>
	<circle cx="274.696" cy="992.699" r="4" fill="#0" id="circle102"/>
	<circle cx="277.997" cy="281.298" r="4" fill="#0" id="circle103"/>
	<circle cx="277.997" cy="748.413" r="4" fill="#0" id="circle104"/>
	<circle cx="281.298" cy="913.471" r="4" fill="#0" id="circle105"/>
	<circle cx="286.25" cy="296.153" r="4" fill="#0" id="circle106"/>
	<circle cx="286.25" cy="312.659" r="4" fill="#0" id="circle107"/>
	<circle cx="286.25" cy="385.285" r="4" fill="#0" id="circle108"/>
	<circle cx="286.25" cy="682.389" r="4" fill="#0" id="circle109"/>
	<circle cx="286.25" cy="723.654" r="4" fill="#0" id="circle110"/>
	<circle cx="286.25" cy="979.494" r="4" fill="#0" id="circle111"/>
	<circle cx="291.201" cy="329.165" r="4" fill="#0" id="circle112"/>
	<circle cx="294.502" cy="345.671" r="4" fill="#0" id="circle113"/>
	<circle cx="294.502" cy="362.176" r="4" fill="#0" id="circle114"/>
	<circle cx="294.502" cy="400.14" r="4" fill="#0" id="circle115"/>
	<circle cx="294.502" cy="665.884" r="4" fill="#0" id="circle116"/>
	<circle cx="294.502" cy="697.245" r="4" fill="#0" id="circle117"/>
	<circle cx="297.804" cy="920.073" r="4" fill="#0" id="circle118"/>
	<circle cx="301.105" cy="971.241" r="4" fill="#0" id="circle119"/>
	<circle cx="302.755" cy="414.995" r="4" fill="#0" id="circle120"/>
	<circle cx="302.755" cy="431.501" r="4" fill="#0" id="circle121"/>
	<circle cx="311.008" cy="446.356" r="4" fill="#0" id="circle122"/>
	<circle cx="311.008" cy="657.631" r="4" fill="#0" id="circle123"/>
	<circle cx="312.659" cy="928.326" r="4" fill="#0" id="circle124"/>
	<circle cx="317.611" cy="462.862" r="4" fill="#0" id="circle125"/>
	<circle cx="317.611" cy="971.241" r="4" fill="#0" id="circle126"/>
	<circle cx="319.261" cy="479.368" r="4" fill="#0" id="circle127"/>
	<circle cx="324.213" cy="646.077" r="4" fill="#0" id="circle128"/>
	<circle cx="327.514" cy="494.223" r="4" fill="#0" id="circle129"/>
	<circle cx="327.514" cy="616.366" r="4" fill="#0" id="circle130"/>
	<circle cx="327.514" cy="936.579" r="4" fill="#0" id="circle131"/>
	<circle cx="330.815" cy="961.338" r="4" fill="#0" id="circle132"/>
	<circle cx="332.466" cy="510.729" r="4" fill="#0" id="circle133"/>
	<circle cx="335.767" cy="599.86" r="4" fill="#0" id="circle134"/>
	<circle cx="340.719" cy="525.584" r="4" fill="#0" id="circle135"/>
	<circle cx="344.02" cy="542.09" r="4" fill="#0" id="circle136"/>
	<circle cx="348.972" cy="588.306" r="4" fill="#0" id="circle137"/>
	<circle cx="352.273" cy="556.945" r="4" fill="#0" id="circle138"/>
	</g>
</svg>