<?xml version="1.0" encoding="UTF-8" standalone="no"?>
<!-- Created with CurveBenchmark -->
<svg
	xmlns:dc="http://purl.org/dc/elements/1.1/"
	xmlns:cc="http://creativecommons.org/ns#"
	xmlns:rdf="http://www.w3.org/1999/02/22-rdf-syntax-ns#"
	xmlns:svg="http://www.w3.org/2000/svg"
	xmlns="http://www.w3.org/2000/svg"
	xmlns:sodipodi="http://sodipodi.sourceforge.net/DTD/sodipodi-0.dtd"
	xmlns:inkscape="http://www.inkscape.org/namespaces/inkscape"
	width="1000"
	height="1000"
	id="svg2"
	version="1.1"
	sodipodi:docname="manifold/vicur-television050.png.txt">
<defs
	id="defs4" />
<metadata
	id="metadata7">
	<rdf:RDF>
		<cc:Work
			rdf:about="">
			<dc:format>image/svg+xml</dc:format>
			<dc:type
				rdf:resource="http://purl.org/dc/dcmitype/StillImage" />
			<dc:title></dc:title>
		</cc:Work>
	</rdf:RDF>
</metadata>
<g
	inkscape:label="Layer 1"
	inkscape:groupmode="layer"
	id="layer1">
	<path style="fill:none;stroke:red;stroke-width:1px;stroke-linecap:butt;stroke-linejoin:miter;stroke-opacity:1" d="M 4,884.927 4,923.228 z" id="boundary" inkscape:connector-curvature="0" />
	<path style="fill:none;stroke:red;stroke-width:1px;stroke-linecap:butt;stroke-linejoin:miter;stroke-opacity:1" d="M 4,884.927 42.3012,877.266 z" id="boundary" inkscape:connector-curvature="0" />
	<path style="fill:none;stroke:red;stroke-width:1px;stroke-linecap:butt;stroke-linejoin:miter;stroke-opacity:1" d="M 4,923.228 23.1506,957.699 z" id="boundary" inkscape:connector-curvature="0" />
	<path style="fill:none;stroke:red;stroke-width:1px;stroke-linecap:butt;stroke-linejoin:miter;stroke-opacity:1" d="M 23.1506,957.699 61.4517,973.019 z" id="boundary" inkscape:connector-curvature="0" />
	<path style="fill:none;stroke:red;stroke-width:1px;stroke-linecap:butt;stroke-linejoin:miter;stroke-opacity:1" d="M 42.3012,647.459 72.9421,674.27 z" id="boundary" inkscape:connector-curvature="0" />
	<path style="fill:none;stroke:red;stroke-width:1px;stroke-linecap:butt;stroke-linejoin:miter;stroke-opacity:1" d="M 42.3012,647.459 92.0927,639.799 z" id="boundary" inkscape:connector-curvature="0" />
	<path style="fill:none;stroke:red;stroke-width:1px;stroke-linecap:butt;stroke-linejoin:miter;stroke-opacity:1" d="M 42.3012,762.363 61.4517,796.834 z" id="boundary" inkscape:connector-curvature="0" />
	<path style="fill:none;stroke:red;stroke-width:1px;stroke-linecap:butt;stroke-linejoin:miter;stroke-opacity:1" d="M 42.3012,762.363 80.6023,762.363 z" id="boundary" inkscape:connector-curvature="0" />
	<path style="fill:none;stroke:red;stroke-width:1px;stroke-linecap:butt;stroke-linejoin:miter;stroke-opacity:1" d="M 42.3012,877.266 80.6023,877.266 z" id="boundary" inkscape:connector-curvature="0" />
	<path style="fill:none;stroke:red;stroke-width:1px;stroke-linecap:butt;stroke-linejoin:miter;stroke-opacity:1" d="M 61.4517,796.834 99.7529,796.834 z" id="boundary" inkscape:connector-curvature="0" />
	<path style="fill:none;stroke:red;stroke-width:1px;stroke-linecap:butt;stroke-linejoin:miter;stroke-opacity:1" d="M 61.4517,973.019 99.7529,957.699 z" id="boundary" inkscape:connector-curvature="0" />
	<path style="fill:none;stroke:red;stroke-width:1px;stroke-linecap:butt;stroke-linejoin:miter;stroke-opacity:1" d="M 72.9421,674.27 111.243,674.27 z" id="boundary" inkscape:connector-curvature="0" />
	<path style="fill:none;stroke:red;stroke-width:1px;stroke-linecap:butt;stroke-linejoin:miter;stroke-opacity:1" d="M 80.6023,762.363 118.903,762.363 z" id="boundary" inkscape:connector-curvature="0" />
	<path style="fill:none;stroke:red;stroke-width:1px;stroke-linecap:butt;stroke-linejoin:miter;stroke-opacity:1" d="M 80.6023,877.266 118.903,877.266 z" id="boundary" inkscape:connector-curvature="0" />
	<path style="fill:none;stroke:red;stroke-width:1px;stroke-linecap:butt;stroke-linejoin:miter;stroke-opacity:1" d="M 92.0927,639.799 130.394,639.799 z" id="boundary" inkscape:connector-curvature="0" />
	<path style="fill:none;stroke:red;stroke-width:1px;stroke-linecap:butt;stroke-linejoin:miter;stroke-opacity:1" d="M 99.7529,796.834 138.054,796.834 z" id="boundary" inkscape:connector-curvature="0" />
	<path style="fill:none;stroke:red;stroke-width:1px;stroke-linecap:butt;stroke-linejoin:miter;stroke-opacity:1" d="M 99.7529,957.699 138.054,957.699 z" id="boundary" inkscape:connector-curvature="0" />
	<path style="fill:none;stroke:red;stroke-width:1px;stroke-linecap:butt;stroke-linejoin:miter;stroke-opacity:1" d="M 111.243,674.27 149.544,674.27 z" id="boundary" inkscape:connector-curvature="0" />
	<path style="fill:none;stroke:red;stroke-width:1px;stroke-linecap:butt;stroke-linejoin:miter;stroke-opacity:1" d="M 118.903,762.363 157.205,762.363 z" id="boundary" inkscape:connector-curvature="0" />
	<path style="fill:none;stroke:red;stroke-width:1px;stroke-linecap:butt;stroke-linejoin:miter;stroke-opacity:1" d="M 118.903,877.266 157.205,877.266 z" id="boundary" inkscape:connector-curvature="0" />
	<path style="fill:none;stroke:red;stroke-width:1px;stroke-linecap:butt;stroke-linejoin:miter;stroke-opacity:1" d="M 130.394,639.799 168.695,639.799 z" id="boundary" inkscape:connector-curvature="0" />
	<path style="fill:none;stroke:red;stroke-width:1px;stroke-linecap:butt;stroke-linejoin:miter;stroke-opacity:1" d="M 138.054,796.834 176.355,796.834 z" id="boundary" inkscape:connector-curvature="0" />
	<path style="fill:none;stroke:red;stroke-width:1px;stroke-linecap:butt;stroke-linejoin:miter;stroke-opacity:1" d="M 138.054,957.699 176.355,957.699 z" id="boundary" inkscape:connector-curvature="0" />
	<path style="fill:none;stroke:red;stroke-width:1px;stroke-linecap:butt;stroke-linejoin:miter;stroke-opacity:1" d="M 149.544,674.27 187.846,674.27 z" id="boundary" inkscape:connector-curvature="0" />
	<path style="fill:none;stroke:red;stroke-width:1px;stroke-linecap:butt;stroke-linejoin:miter;stroke-opacity:1" d="M 157.205,762.363 195.506,762.363 z" id="boundary" inkscape:connector-curvature="0" />
	<path style="fill:none;stroke:red;stroke-width:1px;stroke-linecap:butt;stroke-linejoin:miter;stroke-opacity:1" d="M 157.205,877.266 195.506,877.266 z" id="boundary" inkscape:connector-curvature="0" />
	<path style="fill:none;stroke:red;stroke-width:1px;stroke-linecap:butt;stroke-linejoin:miter;stroke-opacity:1" d="M 168.695,639.799 206.996,639.799 z" id="boundary" inkscape:connector-curvature="0" />
	<path style="fill:none;stroke:red;stroke-width:1px;stroke-linecap:butt;stroke-linejoin:miter;stroke-opacity:1" d="M 176.355,796.834 214.656,796.834 z" id="boundary" inkscape:connector-curvature="0" />
	<path style="fill:none;stroke:red;stroke-width:1px;stroke-linecap:butt;stroke-linejoin:miter;stroke-opacity:1" d="M 176.355,957.699 214.656,957.699 z" id="boundary" inkscape:connector-curvature="0" />
	<path style="fill:none;stroke:red;stroke-width:1px;stroke-linecap:butt;stroke-linejoin:miter;stroke-opacity:1" d="M 187.846,674.27 226.147,674.27 z" id="boundary" inkscape:connector-curvature="0" />
	<path style="fill:none;stroke:red;stroke-width:1px;stroke-linecap:butt;stroke-linejoin:miter;stroke-opacity:1" d="M 195.506,762.363 233.807,762.363 z" id="boundary" inkscape:connector-curvature="0" />
	<path style="fill:none;stroke:red;stroke-width:1px;stroke-linecap:butt;stroke-linejoin:miter;stroke-opacity:1" d="M 195.506,877.266 233.807,877.266 z" id="boundary" inkscape:connector-curvature="0" />
	<path style="fill:none;stroke:red;stroke-width:1px;stroke-linecap:butt;stroke-linejoin:miter;stroke-opacity:1" d="M 203.166,11.6602 203.166,49.9614 z" id="boundary" inkscape:connector-curvature="0" />
	<path style="fill:none;stroke:red;stroke-width:1px;stroke-linecap:butt;stroke-linejoin:miter;stroke-opacity:1" d="M 203.166,11.6602 241.467,4 z" id="boundary" inkscape:connector-curvature="0" />
	<path style="fill:none;stroke:red;stroke-width:1px;stroke-linecap:butt;stroke-linejoin:miter;stroke-opacity:1" d="M 203.166,49.9614 203.166,88.2625 z" id="boundary" inkscape:connector-curvature="0" />
	<path style="fill:none;stroke:red;stroke-width:1px;stroke-linecap:butt;stroke-linejoin:miter;stroke-opacity:1" d="M 203.166,88.2625 203.166,126.564 z" id="boundary" inkscape:connector-curvature="0" />
	<path style="fill:none;stroke:red;stroke-width:1px;stroke-linecap:butt;stroke-linejoin:miter;stroke-opacity:1" d="M 203.166,126.564 203.166,164.865 z" id="boundary" inkscape:connector-curvature="0" />
	<path style="fill:none;stroke:red;stroke-width:1px;stroke-linecap:butt;stroke-linejoin:miter;stroke-opacity:1" d="M 203.166,164.865 203.166,203.166 z" id="boundary" inkscape:connector-curvature="0" />
	<path style="fill:none;stroke:red;stroke-width:1px;stroke-linecap:butt;stroke-linejoin:miter;stroke-opacity:1" d="M 203.166,203.166 203.166,241.467 z" id="boundary" inkscape:connector-curvature="0" />
	<path style="fill:none;stroke:red;stroke-width:1px;stroke-linecap:butt;stroke-linejoin:miter;stroke-opacity:1" d="M 203.166,241.467 203.166,279.768 z" id="boundary" inkscape:connector-curvature="0" />
	<path style="fill:none;stroke:red;stroke-width:1px;stroke-linecap:butt;stroke-linejoin:miter;stroke-opacity:1" d="M 203.166,279.768 203.166,318.069 z" id="boundary" inkscape:connector-curvature="0" />
	<path style="fill:none;stroke:red;stroke-width:1px;stroke-linecap:butt;stroke-linejoin:miter;stroke-opacity:1" d="M 203.166,318.069 203.166,356.371 z" id="boundary" inkscape:connector-curvature="0" />
	<path style="fill:none;stroke:red;stroke-width:1px;stroke-linecap:butt;stroke-linejoin:miter;stroke-opacity:1" d="M 203.166,356.371 203.166,394.672 z" id="boundary" inkscape:connector-curvature="0" />
	<path style="fill:none;stroke:red;stroke-width:1px;stroke-linecap:butt;stroke-linejoin:miter;stroke-opacity:1" d="M 203.166,394.672 203.166,432.973 z" id="boundary" inkscape:connector-curvature="0" />
	<path style="fill:none;stroke:red;stroke-width:1px;stroke-linecap:butt;stroke-linejoin:miter;stroke-opacity:1" d="M 203.166,432.973 203.166,471.274 z" id="boundary" inkscape:connector-curvature="0" />
	<path style="fill:none;stroke:red;stroke-width:1px;stroke-linecap:butt;stroke-linejoin:miter;stroke-opacity:1" d="M 203.166,471.274 206.996,509.575 z" id="boundary" inkscape:connector-curvature="0" />
	<path style="fill:none;stroke:red;stroke-width:1px;stroke-linecap:butt;stroke-linejoin:miter;stroke-opacity:1" d="M 206.996,509.575 245.297,513.405 z" id="boundary" inkscape:connector-curvature="0" />
	<path style="fill:none;stroke:red;stroke-width:1px;stroke-linecap:butt;stroke-linejoin:miter;stroke-opacity:1" d="M 206.996,639.799 245.297,639.799 z" id="boundary" inkscape:connector-curvature="0" />
	<path style="fill:none;stroke:red;stroke-width:1px;stroke-linecap:butt;stroke-linejoin:miter;stroke-opacity:1" d="M 214.656,796.834 252.958,796.834 z" id="boundary" inkscape:connector-curvature="0" />
	<path style="fill:none;stroke:red;stroke-width:1px;stroke-linecap:butt;stroke-linejoin:miter;stroke-opacity:1" d="M 214.656,957.699 252.958,957.699 z" id="boundary" inkscape:connector-curvature="0" />
	<path style="fill:none;stroke:red;stroke-width:1px;stroke-linecap:butt;stroke-linejoin:miter;stroke-opacity:1" d="M 226.147,674.27 264.448,674.27 z" id="boundary" inkscape:connector-curvature="0" />
	<path style="fill:none;stroke:red;stroke-width:1px;stroke-linecap:butt;stroke-linejoin:miter;stroke-opacity:1" d="M 233.807,762.363 272.108,762.363 z" id="boundary" inkscape:connector-curvature="0" />
	<path style="fill:none;stroke:red;stroke-width:1px;stroke-linecap:butt;stroke-linejoin:miter;stroke-opacity:1" d="M 233.807,877.266 272.108,877.266 z" id="boundary" inkscape:connector-curvature="0" />
	<path style="fill:none;stroke:red;stroke-width:1px;stroke-linecap:butt;stroke-linejoin:miter;stroke-opacity:1" d="M 241.467,4 279.768,4 z" id="boundary" inkscape:connector-curvature="0" />
	<path style="fill:none;stroke:red;stroke-width:1px;stroke-linecap:butt;stroke-linejoin:miter;stroke-opacity:1" d="M 245.297,513.405 283.598,513.405 z" id="boundary" inkscape:connector-curvature="0" />
	<path style="fill:none;stroke:red;stroke-width:1px;stroke-linecap:butt;stroke-linejoin:miter;stroke-opacity:1" d="M 245.297,639.799 283.598,639.799 z" id="boundary" inkscape:connector-curvature="0" />
	<path style="fill:none;stroke:red;stroke-width:1px;stroke-linecap:butt;stroke-linejoin:miter;stroke-opacity:1" d="M 252.958,796.834 291.259,796.834 z" id="boundary" inkscape:connector-curvature="0" />
	<path style="fill:none;stroke:red;stroke-width:1px;stroke-linecap:butt;stroke-linejoin:miter;stroke-opacity:1" d="M 252.958,957.699 291.259,973.019 z" id="boundary" inkscape:connector-curvature="0" />
	<path style="fill:none;stroke:red;stroke-width:1px;stroke-linecap:butt;stroke-linejoin:miter;stroke-opacity:1" d="M 264.448,674.27 302.749,674.27 z" id="boundary" inkscape:connector-curvature="0" />
	<path style="fill:none;stroke:red;stroke-width:1px;stroke-linecap:butt;stroke-linejoin:miter;stroke-opacity:1" d="M 272.108,762.363 310.409,762.363 z" id="boundary" inkscape:connector-curvature="0" />
	<path style="fill:none;stroke:red;stroke-width:1px;stroke-linecap:butt;stroke-linejoin:miter;stroke-opacity:1" d="M 272.108,877.266 310.409,877.266 z" id="boundary" inkscape:connector-curvature="0" />
	<path style="fill:none;stroke:red;stroke-width:1px;stroke-linecap:butt;stroke-linejoin:miter;stroke-opacity:1" d="M 279.768,4 318.069,4 z" id="boundary" inkscape:connector-curvature="0" />
	<path style="fill:none;stroke:red;stroke-width:1px;stroke-linecap:butt;stroke-linejoin:miter;stroke-opacity:1" d="M 283.598,513.405 321.9,513.405 z" id="boundary" inkscape:connector-curvature="0" />
	<path style="fill:none;stroke:red;stroke-width:1px;stroke-linecap:butt;stroke-linejoin:miter;stroke-opacity:1" d="M 283.598,639.799 321.9,639.799 z" id="boundary" inkscape:connector-curvature="0" />
	<path style="fill:none;stroke:red;stroke-width:1px;stroke-linecap:butt;stroke-linejoin:miter;stroke-opacity:1" d="M 291.259,796.834 329.56,796.834 z" id="boundary" inkscape:connector-curvature="0" />
	<path style="fill:none;stroke:red;stroke-width:1px;stroke-linecap:butt;stroke-linejoin:miter;stroke-opacity:1" d="M 291.259,973.019 329.56,957.699 z" id="boundary" inkscape:connector-curvature="0" />
	<path style="fill:none;stroke:red;stroke-width:1px;stroke-linecap:butt;stroke-linejoin:miter;stroke-opacity:1" d="M 302.749,674.27 341.05,674.27 z" id="boundary" inkscape:connector-curvature="0" />
	<path style="fill:none;stroke:red;stroke-width:1px;stroke-linecap:butt;stroke-linejoin:miter;stroke-opacity:1" d="M 310.409,762.363 348.71,762.363 z" id="boundary" inkscape:connector-curvature="0" />
	<path style="fill:none;stroke:red;stroke-width:1px;stroke-linecap:butt;stroke-linejoin:miter;stroke-opacity:1" d="M 310.409,877.266 348.71,877.266 z" id="boundary" inkscape:connector-curvature="0" />
	<path style="fill:none;stroke:red;stroke-width:1px;stroke-linecap:butt;stroke-linejoin:miter;stroke-opacity:1" d="M 318.069,4 356.371,4 z" id="boundary" inkscape:connector-curvature="0" />
	<path style="fill:none;stroke:red;stroke-width:1px;stroke-linecap:butt;stroke-linejoin:miter;stroke-opacity:1" d="M 321.9,513.405 360.201,513.405 z" id="boundary" inkscape:connector-curvature="0" />
	<path style="fill:none;stroke:red;stroke-width:1px;stroke-linecap:butt;stroke-linejoin:miter;stroke-opacity:1" d="M 321.9,639.799 360.201,639.799 z" id="boundary" inkscape:connector-curvature="0" />
	<path style="fill:none;stroke:red;stroke-width:1px;stroke-linecap:butt;stroke-linejoin:miter;stroke-opacity:1" d="M 329.56,796.834 367.861,796.834 z" id="boundary" inkscape:connector-curvature="0" />
	<path style="fill:none;stroke:red;stroke-width:1px;stroke-linecap:butt;stroke-linejoin:miter;stroke-opacity:1" d="M 329.56,957.699 367.861,957.699 z" id="boundary" inkscape:connector-curvature="0" />
	<path style="fill:none;stroke:red;stroke-width:1px;stroke-linecap:butt;stroke-linejoin:miter;stroke-opacity:1" d="M 341.05,674.27 379.351,674.27 z" id="boundary" inkscape:connector-curvature="0" />
	<path style="fill:none;stroke:red;stroke-width:1px;stroke-linecap:butt;stroke-linejoin:miter;stroke-opacity:1" d="M 348.71,762.363 387.012,762.363 z" id="boundary" inkscape:connector-curvature="0" />
	<path style="fill:none;stroke:red;stroke-width:1px;stroke-linecap:butt;stroke-linejoin:miter;stroke-opacity:1" d="M 348.71,877.266 387.012,877.266 z" id="boundary" inkscape:connector-curvature="0" />
	<path style="fill:none;stroke:red;stroke-width:1px;stroke-linecap:butt;stroke-linejoin:miter;stroke-opacity:1" d="M 356.371,4 394.672,4 z" id="boundary" inkscape:connector-curvature="0" />
	<path style="fill:none;stroke:red;stroke-width:1px;stroke-linecap:butt;stroke-linejoin:miter;stroke-opacity:1" d="M 360.201,513.405 398.502,513.405 z" id="boundary" inkscape:connector-curvature="0" />
	<path style="fill:none;stroke:red;stroke-width:1px;stroke-linecap:butt;stroke-linejoin:miter;stroke-opacity:1" d="M 360.201,639.799 398.502,639.799 z" id="boundary" inkscape:connector-curvature="0" />
	<path style="fill:none;stroke:red;stroke-width:1px;stroke-linecap:butt;stroke-linejoin:miter;stroke-opacity:1" d="M 367.861,796.834 406.162,796.834 z" id="boundary" inkscape:connector-curvature="0" />
	<path style="fill:none;stroke:red;stroke-width:1px;stroke-linecap:butt;stroke-linejoin:miter;stroke-opacity:1" d="M 367.861,957.699 406.162,957.699 z" id="boundary" inkscape:connector-curvature="0" />
	<path style="fill:none;stroke:red;stroke-width:1px;stroke-linecap:butt;stroke-linejoin:miter;stroke-opacity:1" d="M 379.351,674.27 417.653,674.27 z" id="boundary" inkscape:connector-curvature="0" />
	<path style="fill:none;stroke:red;stroke-width:1px;stroke-linecap:butt;stroke-linejoin:miter;stroke-opacity:1" d="M 387.012,762.363 425.313,762.363 z" id="boundary" inkscape:connector-curvature="0" />
	<path style="fill:none;stroke:red;stroke-width:1px;stroke-linecap:butt;stroke-linejoin:miter;stroke-opacity:1" d="M 387.012,877.266 425.313,877.266 z" id="boundary" inkscape:connector-curvature="0" />
	<path style="fill:none;stroke:red;stroke-width:1px;stroke-linecap:butt;stroke-linejoin:miter;stroke-opacity:1" d="M 394.672,4 432.973,4 z" id="boundary" inkscape:connector-curvature="0" />
	<path style="fill:none;stroke:red;stroke-width:1px;stroke-linecap:butt;stroke-linejoin:miter;stroke-opacity:1" d="M 398.502,513.405 436.803,513.405 z" id="boundary" inkscape:connector-curvature="0" />
	<path style="fill:none;stroke:red;stroke-width:1px;stroke-linecap:butt;stroke-linejoin:miter;stroke-opacity:1" d="M 398.502,639.799 436.803,639.799 z" id="boundary" inkscape:connector-curvature="0" />
	<path style="fill:none;stroke:red;stroke-width:1px;stroke-linecap:butt;stroke-linejoin:miter;stroke-opacity:1" d="M 406.162,796.834 444.463,796.834 z" id="boundary" inkscape:connector-curvature="0" />
	<path style="fill:none;stroke:red;stroke-width:1px;stroke-linecap:butt;stroke-linejoin:miter;stroke-opacity:1" d="M 406.162,957.699 444.463,957.699 z" id="boundary" inkscape:connector-curvature="0" />
	<path style="fill:none;stroke:red;stroke-width:1px;stroke-linecap:butt;stroke-linejoin:miter;stroke-opacity:1" d="M 417.653,674.27 455.954,674.27 z" id="boundary" inkscape:connector-curvature="0" />
	<path style="fill:none;stroke:red;stroke-width:1px;stroke-linecap:butt;stroke-linejoin:miter;stroke-opacity:1" d="M 425.313,762.363 463.614,762.363 z" id="boundary" inkscape:connector-curvature="0" />
	<path style="fill:none;stroke:red;stroke-width:1px;stroke-linecap:butt;stroke-linejoin:miter;stroke-opacity:1" d="M 425.313,877.266 463.614,877.266 z" id="boundary" inkscape:connector-curvature="0" />
	<path style="fill:none;stroke:red;stroke-width:1px;stroke-linecap:butt;stroke-linejoin:miter;stroke-opacity:1" d="M 432.973,4 471.274,4 z" id="boundary" inkscape:connector-curvature="0" />
	<path style="fill:none;stroke:red;stroke-width:1px;stroke-linecap:butt;stroke-linejoin:miter;stroke-opacity:1" d="M 436.803,513.405 471.274,532.556 z" id="boundary" inkscape:connector-curvature="0" />
	<path style="fill:none;stroke:red;stroke-width:1px;stroke-linecap:butt;stroke-linejoin:miter;stroke-opacity:1" d="M 436.803,639.799 471.274,609.158 z" id="boundary" inkscape:connector-curvature="0" />
	<path style="fill:none;stroke:red;stroke-width:1px;stroke-linecap:butt;stroke-linejoin:miter;stroke-opacity:1" d="M 444.463,796.834 471.274,827.475 z" id="boundary" inkscape:connector-curvature="0" />
	<path style="fill:none;stroke:red;stroke-width:1px;stroke-linecap:butt;stroke-linejoin:miter;stroke-opacity:1" d="M 444.463,957.699 482.764,957.699 z" id="boundary" inkscape:connector-curvature="0" />
	<path style="fill:none;stroke:red;stroke-width:1px;stroke-linecap:butt;stroke-linejoin:miter;stroke-opacity:1" d="M 455.954,674.27 471.274,712.571 z" id="boundary" inkscape:connector-curvature="0" />
	<path style="fill:none;stroke:red;stroke-width:1px;stroke-linecap:butt;stroke-linejoin:miter;stroke-opacity:1" d="M 463.614,762.363 471.274,712.571 z" id="boundary" inkscape:connector-curvature="0" />
	<path style="fill:none;stroke:red;stroke-width:1px;stroke-linecap:butt;stroke-linejoin:miter;stroke-opacity:1" d="M 463.614,877.266 471.274,827.475 z" id="boundary" inkscape:connector-curvature="0" />
	<path style="fill:none;stroke:red;stroke-width:1px;stroke-linecap:butt;stroke-linejoin:miter;stroke-opacity:1" d="M 471.274,4 509.575,4 z" id="boundary" inkscape:connector-curvature="0" />
	<path style="fill:none;stroke:red;stroke-width:1px;stroke-linecap:butt;stroke-linejoin:miter;stroke-opacity:1" d="M 471.274,532.556 471.274,570.857 z" id="boundary" inkscape:connector-curvature="0" />
	<path style="fill:none;stroke:red;stroke-width:1px;stroke-linecap:butt;stroke-linejoin:miter;stroke-opacity:1" d="M 471.274,570.857 471.274,609.158 z" id="boundary" inkscape:connector-curvature="0" />
	<path style="fill:none;stroke:red;stroke-width:1px;stroke-linecap:butt;stroke-linejoin:miter;stroke-opacity:1" d="M 482.764,957.699 521.066,957.699 z" id="boundary" inkscape:connector-curvature="0" />
	<path style="fill:none;stroke:red;stroke-width:1px;stroke-linecap:butt;stroke-linejoin:miter;stroke-opacity:1" d="M 509.575,4 547.876,4 z" id="boundary" inkscape:connector-curvature="0" />
	<path style="fill:none;stroke:red;stroke-width:1px;stroke-linecap:butt;stroke-linejoin:miter;stroke-opacity:1" d="M 521.066,957.699 559.367,957.699 z" id="boundary" inkscape:connector-curvature="0" />
	<path style="fill:none;stroke:red;stroke-width:1px;stroke-linecap:butt;stroke-linejoin:miter;stroke-opacity:1" d="M 547.876,4 586.178,4 z" id="boundary" inkscape:connector-curvature="0" />
	<path style="fill:none;stroke:red;stroke-width:1px;stroke-linecap:butt;stroke-linejoin:miter;stroke-opacity:1" d="M 559.367,957.699 597.668,957.699 z" id="boundary" inkscape:connector-curvature="0" />
	<path style="fill:none;stroke:red;stroke-width:1px;stroke-linecap:butt;stroke-linejoin:miter;stroke-opacity:1" d="M 586.178,4 624.479,4 z" id="boundary" inkscape:connector-curvature="0" />
	<path style="fill:none;stroke:red;stroke-width:1px;stroke-linecap:butt;stroke-linejoin:miter;stroke-opacity:1" d="M 597.668,957.699 635.969,957.699 z" id="boundary" inkscape:connector-curvature="0" />
	<path style="fill:none;stroke:red;stroke-width:1px;stroke-linecap:butt;stroke-linejoin:miter;stroke-opacity:1" d="M 624.479,4 662.78,4 z" id="boundary" inkscape:connector-curvature="0" />
	<path style="fill:none;stroke:red;stroke-width:1px;stroke-linecap:butt;stroke-linejoin:miter;stroke-opacity:1" d="M 635.969,957.699 674.27,957.699 z" id="boundary" inkscape:connector-curvature="0" />
	<path style="fill:none;stroke:red;stroke-width:1px;stroke-linecap:butt;stroke-linejoin:miter;stroke-opacity:1" d="M 662.78,4 701.081,4 z" id="boundary" inkscape:connector-curvature="0" />
	<path style="fill:none;stroke:red;stroke-width:1px;stroke-linecap:butt;stroke-linejoin:miter;stroke-opacity:1" d="M 666.61,517.236 666.61,555.537 z" id="boundary" inkscape:connector-curvature="0" />
	<path style="fill:none;stroke:red;stroke-width:1px;stroke-linecap:butt;stroke-linejoin:miter;stroke-opacity:1" d="M 666.61,517.236 704.911,513.405 z" id="boundary" inkscape:connector-curvature="0" />
	<path style="fill:none;stroke:red;stroke-width:1px;stroke-linecap:butt;stroke-linejoin:miter;stroke-opacity:1" d="M 666.61,555.537 666.61,593.838 z" id="boundary" inkscape:connector-curvature="0" />
	<path style="fill:none;stroke:red;stroke-width:1px;stroke-linecap:butt;stroke-linejoin:miter;stroke-opacity:1" d="M 666.61,593.838 666.61,632.139 z" id="boundary" inkscape:connector-curvature="0" />
	<path style="fill:none;stroke:red;stroke-width:1px;stroke-linecap:butt;stroke-linejoin:miter;stroke-opacity:1" d="M 666.61,632.139 704.911,639.799 z" id="boundary" inkscape:connector-curvature="0" />
	<path style="fill:none;stroke:red;stroke-width:1px;stroke-linecap:butt;stroke-linejoin:miter;stroke-opacity:1" d="M 666.61,678.1 666.61,716.402 z" id="boundary" inkscape:connector-curvature="0" />
	<path style="fill:none;stroke:red;stroke-width:1px;stroke-linecap:butt;stroke-linejoin:miter;stroke-opacity:1" d="M 666.61,678.1 724.062,674.27 z" id="boundary" inkscape:connector-curvature="0" />
	<path style="fill:none;stroke:red;stroke-width:1px;stroke-linecap:butt;stroke-linejoin:miter;stroke-opacity:1" d="M 666.61,716.402 666.61,754.703 z" id="boundary" inkscape:connector-curvature="0" />
	<path style="fill:none;stroke:red;stroke-width:1px;stroke-linecap:butt;stroke-linejoin:miter;stroke-opacity:1" d="M 666.61,754.703 704.911,762.363 z" id="boundary" inkscape:connector-curvature="0" />
	<path style="fill:none;stroke:red;stroke-width:1px;stroke-linecap:butt;stroke-linejoin:miter;stroke-opacity:1" d="M 666.61,800.664 666.61,838.965 z" id="boundary" inkscape:connector-curvature="0" />
	<path style="fill:none;stroke:red;stroke-width:1px;stroke-linecap:butt;stroke-linejoin:miter;stroke-opacity:1" d="M 666.61,800.664 724.062,796.834 z" id="boundary" inkscape:connector-curvature="0" />
	<path style="fill:none;stroke:red;stroke-width:1px;stroke-linecap:butt;stroke-linejoin:miter;stroke-opacity:1" d="M 666.61,838.965 670.44,877.266 z" id="boundary" inkscape:connector-curvature="0" />
	<path style="fill:none;stroke:red;stroke-width:1px;stroke-linecap:butt;stroke-linejoin:miter;stroke-opacity:1" d="M 670.44,877.266 708.741,877.266 z" id="boundary" inkscape:connector-curvature="0" />
	<path style="fill:none;stroke:red;stroke-width:1px;stroke-linecap:butt;stroke-linejoin:miter;stroke-opacity:1" d="M 674.27,957.699 712.571,965.359 z" id="boundary" inkscape:connector-curvature="0" />
	<path style="fill:none;stroke:red;stroke-width:1px;stroke-linecap:butt;stroke-linejoin:miter;stroke-opacity:1" d="M 701.081,4 739.382,4 z" id="boundary" inkscape:connector-curvature="0" />
	<path style="fill:none;stroke:red;stroke-width:1px;stroke-linecap:butt;stroke-linejoin:miter;stroke-opacity:1" d="M 704.911,513.405 743.212,513.405 z" id="boundary" inkscape:connector-curvature="0" />
	<path style="fill:none;stroke:red;stroke-width:1px;stroke-linecap:butt;stroke-linejoin:miter;stroke-opacity:1" d="M 704.911,639.799 743.212,639.799 z" id="boundary" inkscape:connector-curvature="0" />
	<path style="fill:none;stroke:red;stroke-width:1px;stroke-linecap:butt;stroke-linejoin:miter;stroke-opacity:1" d="M 704.911,762.363 743.212,762.363 z" id="boundary" inkscape:connector-curvature="0" />
	<path style="fill:none;stroke:red;stroke-width:1px;stroke-linecap:butt;stroke-linejoin:miter;stroke-opacity:1" d="M 708.741,877.266 747.042,877.266 z" id="boundary" inkscape:connector-curvature="0" />
	<path style="fill:none;stroke:red;stroke-width:1px;stroke-linecap:butt;stroke-linejoin:miter;stroke-opacity:1" d="M 712.571,965.359 750.873,957.699 z" id="boundary" inkscape:connector-curvature="0" />
	<path style="fill:none;stroke:red;stroke-width:1px;stroke-linecap:butt;stroke-linejoin:miter;stroke-opacity:1" d="M 724.062,674.27 762.363,674.27 z" id="boundary" inkscape:connector-curvature="0" />
	<path style="fill:none;stroke:red;stroke-width:1px;stroke-linecap:butt;stroke-linejoin:miter;stroke-opacity:1" d="M 724.062,796.834 762.363,796.834 z" id="boundary" inkscape:connector-curvature="0" />
	<path style="fill:none;stroke:red;stroke-width:1px;stroke-linecap:butt;stroke-linejoin:miter;stroke-opacity:1" d="M 739.382,4 777.683,4 z" id="boundary" inkscape:connector-curvature="0" />
	<path style="fill:none;stroke:red;stroke-width:1px;stroke-linecap:butt;stroke-linejoin:miter;stroke-opacity:1" d="M 743.212,513.405 781.514,513.405 z" id="boundary" inkscape:connector-curvature="0" />
	<path style="fill:none;stroke:red;stroke-width:1px;stroke-linecap:butt;stroke-linejoin:miter;stroke-opacity:1" d="M 743.212,639.799 781.514,639.799 z" id="boundary" inkscape:connector-curvature="0" />
	<path style="fill:none;stroke:red;stroke-width:1px;stroke-linecap:butt;stroke-linejoin:miter;stroke-opacity:1" d="M 743.212,762.363 781.514,762.363 z" id="boundary" inkscape:connector-curvature="0" />
	<path style="fill:none;stroke:red;stroke-width:1px;stroke-linecap:butt;stroke-linejoin:miter;stroke-opacity:1" d="M 747.042,877.266 785.344,877.266 z" id="boundary" inkscape:connector-curvature="0" />
	<path style="fill:none;stroke:red;stroke-width:1px;stroke-linecap:butt;stroke-linejoin:miter;stroke-opacity:1" d="M 750.873,957.699 789.174,957.699 z" id="boundary" inkscape:connector-curvature="0" />
	<path style="fill:none;stroke:red;stroke-width:1px;stroke-linecap:butt;stroke-linejoin:miter;stroke-opacity:1" d="M 762.363,674.27 800.664,674.27 z" id="boundary" inkscape:connector-curvature="0" />
	<path style="fill:none;stroke:red;stroke-width:1px;stroke-linecap:butt;stroke-linejoin:miter;stroke-opacity:1" d="M 762.363,796.834 800.664,796.834 z" id="boundary" inkscape:connector-curvature="0" />
	<path style="fill:none;stroke:red;stroke-width:1px;stroke-linecap:butt;stroke-linejoin:miter;stroke-opacity:1" d="M 777.683,4 815.985,15.4903 z" id="boundary" inkscape:connector-curvature="0" />
	<path style="fill:none;stroke:red;stroke-width:1px;stroke-linecap:butt;stroke-linejoin:miter;stroke-opacity:1" d="M 781.514,513.405 819.815,475.104 z" id="boundary" inkscape:connector-curvature="0" />
	<path style="fill:none;stroke:red;stroke-width:1px;stroke-linecap:butt;stroke-linejoin:miter;stroke-opacity:1" d="M 781.514,639.799 819.815,639.799 z" id="boundary" inkscape:connector-curvature="0" />
	<path style="fill:none;stroke:red;stroke-width:1px;stroke-linecap:butt;stroke-linejoin:miter;stroke-opacity:1" d="M 781.514,762.363 819.815,762.363 z" id="boundary" inkscape:connector-curvature="0" />
	<path style="fill:none;stroke:red;stroke-width:1px;stroke-linecap:butt;stroke-linejoin:miter;stroke-opacity:1" d="M 785.344,877.266 823.645,877.266 z" id="boundary" inkscape:connector-curvature="0" />
	<path style="fill:none;stroke:red;stroke-width:1px;stroke-linecap:butt;stroke-linejoin:miter;stroke-opacity:1" d="M 789.174,957.699 827.475,957.699 z" id="boundary" inkscape:connector-curvature="0" />
	<path style="fill:none;stroke:red;stroke-width:1px;stroke-linecap:butt;stroke-linejoin:miter;stroke-opacity:1" d="M 800.664,674.27 838.965,674.27 z" id="boundary" inkscape:connector-curvature="0" />
	<path style="fill:none;stroke:red;stroke-width:1px;stroke-linecap:butt;stroke-linejoin:miter;stroke-opacity:1" d="M 800.664,796.834 838.965,796.834 z" id="boundary" inkscape:connector-curvature="0" />
	<path style="fill:none;stroke:red;stroke-width:1px;stroke-linecap:butt;stroke-linejoin:miter;stroke-opacity:1" d="M 815.985,15.4903 819.815,53.7915 z" id="boundary" inkscape:connector-curvature="0" />
	<path style="fill:none;stroke:red;stroke-width:1px;stroke-linecap:butt;stroke-linejoin:miter;stroke-opacity:1" d="M 819.815,53.7915 819.815,92.0927 z" id="boundary" inkscape:connector-curvature="0" />
	<path style="fill:none;stroke:red;stroke-width:1px;stroke-linecap:butt;stroke-linejoin:miter;stroke-opacity:1" d="M 819.815,92.0927 819.815,130.394 z" id="boundary" inkscape:connector-curvature="0" />
	<path style="fill:none;stroke:red;stroke-width:1px;stroke-linecap:butt;stroke-linejoin:miter;stroke-opacity:1" d="M 819.815,130.394 819.815,168.695 z" id="boundary" inkscape:connector-curvature="0" />
	<path style="fill:none;stroke:red;stroke-width:1px;stroke-linecap:butt;stroke-linejoin:miter;stroke-opacity:1" d="M 819.815,168.695 819.815,206.996 z" id="boundary" inkscape:connector-curvature="0" />
	<path style="fill:none;stroke:red;stroke-width:1px;stroke-linecap:butt;stroke-linejoin:miter;stroke-opacity:1" d="M 819.815,206.996 819.815,245.297 z" id="boundary" inkscape:connector-curvature="0" />
	<path style="fill:none;stroke:red;stroke-width:1px;stroke-linecap:butt;stroke-linejoin:miter;stroke-opacity:1" d="M 819.815,245.297 819.815,283.598 z" id="boundary" inkscape:connector-curvature="0" />
	<path style="fill:none;stroke:red;stroke-width:1px;stroke-linecap:butt;stroke-linejoin:miter;stroke-opacity:1" d="M 819.815,283.598 819.815,321.9 z" id="boundary" inkscape:connector-curvature="0" />
	<path style="fill:none;stroke:red;stroke-width:1px;stroke-linecap:butt;stroke-linejoin:miter;stroke-opacity:1" d="M 819.815,321.9 819.815,360.201 z" id="boundary" inkscape:connector-curvature="0" />
	<path style="fill:none;stroke:red;stroke-width:1px;stroke-linecap:butt;stroke-linejoin:miter;stroke-opacity:1" d="M 819.815,360.201 819.815,398.502 z" id="boundary" inkscape:connector-curvature="0" />
	<path style="fill:none;stroke:red;stroke-width:1px;stroke-linecap:butt;stroke-linejoin:miter;stroke-opacity:1" d="M 819.815,398.502 819.815,436.803 z" id="boundary" inkscape:connector-curvature="0" />
	<path style="fill:none;stroke:red;stroke-width:1px;stroke-linecap:butt;stroke-linejoin:miter;stroke-opacity:1" d="M 819.815,436.803 819.815,475.104 z" id="boundary" inkscape:connector-curvature="0" />
	<path style="fill:none;stroke:red;stroke-width:1px;stroke-linecap:butt;stroke-linejoin:miter;stroke-opacity:1" d="M 819.815,639.799 858.116,639.799 z" id="boundary" inkscape:connector-curvature="0" />
	<path style="fill:none;stroke:red;stroke-width:1px;stroke-linecap:butt;stroke-linejoin:miter;stroke-opacity:1" d="M 819.815,762.363 858.116,762.363 z" id="boundary" inkscape:connector-curvature="0" />
	<path style="fill:none;stroke:red;stroke-width:1px;stroke-linecap:butt;stroke-linejoin:miter;stroke-opacity:1" d="M 823.645,877.266 861.946,877.266 z" id="boundary" inkscape:connector-curvature="0" />
	<path style="fill:none;stroke:red;stroke-width:1px;stroke-linecap:butt;stroke-linejoin:miter;stroke-opacity:1" d="M 827.475,957.699 865.776,957.699 z" id="boundary" inkscape:connector-curvature="0" />
	<path style="fill:none;stroke:red;stroke-width:1px;stroke-linecap:butt;stroke-linejoin:miter;stroke-opacity:1" d="M 838.965,674.27 858.116,639.799 z" id="boundary" inkscape:connector-curvature="0" />
	<path style="fill:none;stroke:red;stroke-width:1px;stroke-linecap:butt;stroke-linejoin:miter;stroke-opacity:1" d="M 838.965,796.834 858.116,762.363 z" id="boundary" inkscape:connector-curvature="0" />
	<path style="fill:none;stroke:red;stroke-width:1px;stroke-linecap:butt;stroke-linejoin:miter;stroke-opacity:1" d="M 861.946,877.266 900.247,877.266 z" id="boundary" inkscape:connector-curvature="0" />
	<path style="fill:none;stroke:red;stroke-width:1px;stroke-linecap:butt;stroke-linejoin:miter;stroke-opacity:1" d="M 865.776,957.699 904.077,957.699 z" id="boundary" inkscape:connector-curvature="0" />
	<path style="fill:none;stroke:red;stroke-width:1px;stroke-linecap:butt;stroke-linejoin:miter;stroke-opacity:1" d="M 900.247,877.266 938.548,877.266 z" id="boundary" inkscape:connector-curvature="0" />
	<path style="fill:none;stroke:red;stroke-width:1px;stroke-linecap:butt;stroke-linejoin:miter;stroke-opacity:1" d="M 904.077,957.699 942.378,957.699 z" id="boundary" inkscape:connector-curvature="0" />
	<path style="fill:none;stroke:red;stroke-width:1px;stroke-linecap:butt;stroke-linejoin:miter;stroke-opacity:1" d="M 938.548,877.266 976.849,877.266 z" id="boundary" inkscape:connector-curvature="0" />
	<path style="fill:none;stroke:red;stroke-width:1px;stroke-linecap:butt;stroke-linejoin:miter;stroke-opacity:1" d="M 942.378,957.699 980.68,957.699 z" id="boundary" inkscape:connector-curvature="0" />
	<path style="fill:none;stroke:red;stroke-width:1px;stroke-linecap:butt;stroke-linejoin:miter;stroke-opacity:1" d="M 976.849,877.266 996,911.737 z" id="boundary" inkscape:connector-curvature="0" />
	<path style="fill:none;stroke:red;stroke-width:1px;stroke-linecap:butt;stroke-linejoin:miter;stroke-opacity:1" d="M 980.68,957.699 996,911.737 z" id="boundary" inkscape:connector-curvature="0" />
	<circle cx="4" cy="884.927" r="4" fill="#0" id="circle0"/>
	<circle cx="4" cy="923.228" r="4" fill="#0" id="circle1"/>
	<circle cx="23.1506" cy="957.699" r="4" fill="#0" id="circle2"/>
	<circle cx="42.3012" cy="647.459" r="4" fill="#0" id="circle3"/>
	<circle cx="42.3012" cy="762.363" r="4" fill="#0" id="circle4"/>
	<circle cx="42.3012" cy="877.266" r="4" fill="#0" id="circle5"/>
	<circle cx="61.4517" cy="796.834" r="4" fill="#0" id="circle6"/>
	<circle cx="61.4517" cy="973.019" r="4" fill="#0" id="circle7"/>
	<circle cx="72.9421" cy="674.27" r="4" fill="#0" id="circle8"/>
	<circle cx="80.6023" cy="762.363" r="4" fill="#0" id="circle9"/>
	<circle cx="80.6023" cy="877.266" r="4" fill="#0" id="circle10"/>
	<circle cx="92.0927" cy="639.799" r="4" fill="#0" id="circle11"/>
	<circle cx="99.7529" cy="796.834" r="4" fill="#0" id="circle12"/>
	<circle cx="99.7529" cy="957.699" r="4" fill="#0" id="circle13"/>
	<circle cx="111.243" cy="674.27" r="4" fill="#0" id="circle14"/>
	<circle cx="118.903" cy="762.363" r="4" fill="#0" id="circle15"/>
	<circle cx="118.903" cy="877.266" r="4" fill="#0" id="circle16"/>
	<circle cx="130.394" cy="639.799" r="4" fill="#0" id="circle17"/>
	<circle cx="138.054" cy="796.834" r="4" fill="#0" id="circle18"/>
	<circle cx="138.054" cy="957.699" r="4" fill="#0" id="circle19"/>
	<circle cx="149.544" cy="674.27" r="4" fill="#0" id="circle20"/>
	<circle cx="157.205" cy="762.363" r="4" fill="#0" id="circle21"/>
	<circle cx="157.205" cy="877.266" r="4" fill="#0" id="circle22"/>
	<circle cx="168.695" cy="639.799" r="4" fill="#0" id="circle23"/>
	<circle cx="176.355" cy="796.834" r="4" fill="#0" id="circle24"/>
	<circle cx="176.355" cy="957.699" r="4" fill="#0" id="circle25"/>
	<circle cx="187.846" cy="674.27" r="4" fill="#0" id="circle26"/>
	<circle cx="195.506" cy="762.363" r="4" fill="#0" id="circle27"/>
	<circle cx="195.506" cy="877.266" r="4" fill="#0" id="circle28"/>
	<circle cx="203.166" cy="11.6602" r="4" fill="#0" id="circle29"/>
	<circle cx="203.166" cy="49.9614" r="4" fill="#0" id="circle30"/>
	<circle cx="203.166" cy="88.2625" r="4" fill="#0" id="circle31"/>
	<circle cx="203.166" cy="126.564" r="4" fill="#0" id="circle32"/>
	<circle cx="203.166" cy="164.865" r="4" fill="#0" id="circle33"/>
	<circle cx="203.166" cy="203.166" r="4" fill="#0" id="circle34"/>
	<circle cx="203.166" cy="241.467" r="4" fill="#0" id="circle35"/>
	<circle cx="203.166" cy="279.768" r="4" fill="#0" id="circle36"/>
	<circle cx="203.166" cy="318.069" r="4" fill="#0" id="circle37"/>
	<circle cx="203.166" cy="356.371" r="4" fill="#0" id="circle38"/>
	<circle cx="203.166" cy="394.672" r="4" fill="#0" id="circle39"/>
	<circle cx="203.166" cy="432.973" r="4" fill="#0" id="circle40"/>
	<circle cx="203.166" cy="471.274" r="4" fill="#0" id="circle41"/>
	<circle cx="206.996" cy="509.575" r="4" fill="#0" id="circle42"/>
	<circle cx="206.996" cy="639.799" r="4" fill="#0" id="circle43"/>
	<circle cx="214.656" cy="796.834" r="4" fill="#0" id="circle44"/>
	<circle cx="214.656" cy="957.699" r="4" fill="#0" id="circle45"/>
	<circle cx="226.147" cy="674.27" r="4" fill="#0" id="circle46"/>
	<circle cx="233.807" cy="762.363" r="4" fill="#0" id="circle47"/>
	<circle cx="233.807" cy="877.266" r="4" fill="#0" id="circle48"/>
	<circle cx="241.467" cy="4" r="4" fill="#0" id="circle49"/>
	<circle cx="245.297" cy="513.405" r="4" fill="#0" id="circle50"/>
	<circle cx="245.297" cy="639.799" r="4" fill="#0" id="circle51"/>
	<circle cx="252.958" cy="796.834" r="4" fill="#0" id="circle52"/>
	<circle cx="252.958" cy="957.699" r="4" fill="#0" id="circle53"/>
	<circle cx="264.448" cy="674.27" r="4" fill="#0" id="circle54"/>
	<circle cx="272.108" cy="762.363" r="4" fill="#0" id="circle55"/>
	<circle cx="272.108" cy="877.266" r="4" fill="#0" id="circle56"/>
	<circle cx="279.768" cy="4" r="4" fill="#0" id="circle57"/>
	<circle cx="283.598" cy="513.405" r="4" fill="#0" id="circle58"/>
	<circle cx="283.598" cy="639.799" r="4" fill="#0" id="circle59"/>
	<circle cx="291.259" cy="796.834" r="4" fill="#0" id="circle60"/>
	<circle cx="291.259" cy="973.019" r="4" fill="#0" id="circle61"/>
	<circle cx="302.749" cy="674.27" r="4" fill="#0" id="circle62"/>
	<circle cx="310.409" cy="762.363" r="4" fill="#0" id="circle63"/>
	<circle cx="310.409" cy="877.266" r="4" fill="#0" id="circle64"/>
	<circle cx="318.069" cy="4" r="4" fill="#0" id="circle65"/>
	<circle cx="321.9" cy="513.405" r="4" fill="#0" id="circle66"/>
	<circle cx="321.9" cy="639.799" r="4" fill="#0" id="circle67"/>
	<circle cx="329.56" cy="796.834" r="4" fill="#0" id="circle68"/>
	<circle cx="329.56" cy="957.699" r="4" fill="#0" id="circle69"/>
	<circle cx="341.05" cy="674.27" r="4" fill="#0" id="circle70"/>
	<circle cx="348.71" cy="762.363" r="4" fill="#0" id="circle71"/>
	<circle cx="348.71" cy="877.266" r="4" fill="#0" id="circle72"/>
	<circle cx="356.371" cy="4" r="4" fill="#0" id="circle73"/>
	<circle cx="360.201" cy="513.405" r="4" fill="#0" id="circle74"/>
	<circle cx="360.201" cy="639.799" r="4" fill="#0" id="circle75"/>
	<circle cx="367.861" cy="796.834" r="4" fill="#0" id="circle76"/>
	<circle cx="367.861" cy="957.699" r="4" fill="#0" id="circle77"/>
	<circle cx="379.351" cy="674.27" r="4" fill="#0" id="circle78"/>
	<circle cx="387.012" cy="762.363" r="4" fill="#0" id="circle79"/>
	<circle cx="387.012" cy="877.266" r="4" fill="#0" id="circle80"/>
	<circle cx="394.672" cy="4" r="4" fill="#0" id="circle81"/>
	<circle cx="398.502" cy="513.405" r="4" fill="#0" id="circle82"/>
	<circle cx="398.502" cy="639.799" r="4" fill="#0" id="circle83"/>
	<circle cx="406.162" cy="796.834" r="4" fill="#0" id="circle84"/>
	<circle cx="406.162" cy="957.699" r="4" fill="#0" id="circle85"/>
	<circle cx="417.653" cy="674.27" r="4" fill="#0" id="circle86"/>
	<circle cx="425.313" cy="762.363" r="4" fill="#0" id="circle87"/>
	<circle cx="425.313" cy="877.266" r="4" fill="#0" id="circle88"/>
	<circle cx="432.973" cy="4" r="4" fill="#0" id="circle89"/>
	<circle cx="436.803" cy="513.405" r="4" fill="#0" id="circle90"/>
	<circle cx="436.803" cy="639.799" r="4" fill="#0" id="circle91"/>
	<circle cx="444.463" cy="796.834" r="4" fill="#0" id="circle92"/>
	<circle cx="444.463" cy="957.699" r="4" fill="#0" id="circle93"/>
	<circle cx="455.954" cy="674.27" r="4" fill="#0" id="circle94"/>
	<circle cx="463.614" cy="762.363" r="4" fill="#0" id="circle95"/>
	<circle cx="463.614" cy="877.266" r="4" fill="#0" id="circle96"/>
	<circle cx="471.274" cy="4" r="4" fill="#0" id="circle97"/>
	<circle cx="471.274" cy="532.556" r="4" fill="#0" id="circle98"/>
	<circle cx="471.274" cy="570.857" r="4" fill="#0" id="circle99"/>
	<circle cx="471.274" cy="609.158" r="4" fill="#0" id="circle100"/>
	<circle cx="471.274" cy="712.571" r="4" fill="#0" id="circle101"/>
	<circle cx="471.274" cy="827.475" r="4" fill="#0" id="circle102"/>
	<circle cx="482.764" cy="957.699" r="4" fill="#0" id="circle103"/>
	<circle cx="509.575" cy="4" r="4" fill="#0" id="circle104"/>
	<circle cx="521.066" cy="957.699" r="4" fill="#0" id="circle105"/>
	<circle cx="547.876" cy="4" r="4" fill="#0" id="circle106"/>
	<circle cx="559.367" cy="957.699" r="4" fill="#0" id="circle107"/>
	<circle cx="586.178" cy="4" r="4" fill="#0" id="circle108"/>
	<circle cx="597.668" cy="957.699" r="4" fill="#0" id="circle109"/>
	<circle cx="624.479" cy="4" r="4" fill="#0" id="circle110"/>
	<circle cx="635.969" cy="957.699" r="4" fill="#0" id="circle111"/>
	<circle cx="662.78" cy="4" r="4" fill="#0" id="circle112"/>
	<circle cx="666.61" cy="517.236" r="4" fill="#0" id="circle113"/>
	<circle cx="666.61" cy="555.537" r="4" fill="#0" id="circle114"/>
	<circle cx="666.61" cy="593.838" r="4" fill="#0" id="circle115"/>
	<circle cx="666.61" cy="632.139" r="4" fill="#0" id="circle116"/>
	<circle cx="666.61" cy="678.1" r="4" fill="#0" id="circle117"/>
	<circle cx="666.61" cy="716.402" r="4" fill="#0" id="circle118"/>
	<circle cx="666.61" cy="754.703" r="4" fill="#0" id="circle119"/>
	<circle cx="666.61" cy="800.664" r="4" fill="#0" id="circle120"/>
	<circle cx="666.61" cy="838.965" r="4" fill="#0" id="circle121"/>
	<circle cx="670.44" cy="877.266" r="4" fill="#0" id="circle122"/>
	<circle cx="674.27" cy="957.699" r="4" fill="#0" id="circle123"/>
	<circle cx="701.081" cy="4" r="4" fill="#0" id="circle124"/>
	<circle cx="704.911" cy="513.405" r="4" fill="#0" id="circle125"/>
	<circle cx="704.911" cy="639.799" r="4" fill="#0" id="circle126"/>
	<circle cx="704.911" cy="762.363" r="4" fill="#0" id="circle127"/>
	<circle cx="708.741" cy="877.266" r="4" fill="#0" id="circle128"/>
	<circle cx="712.571" cy="965.359" r="4" fill="#0" id="circle129"/>
	<circle cx="724.062" cy="674.27" r="4" fill="#0" id="circle130"/>
	<circle cx="724.062" cy="796.834" r="4" fill="#0" id="circle131"/>
	<circle cx="739.382" cy="4" r="4" fill="#0" id="circle132"/>
	<circle cx="743.212" cy="513.405" r="4" fill="#0" id="circle133"/>
	<circle cx="743.212" cy="639.799" r="4" fill="#0" id="circle134"/>
	<circle cx="743.212" cy="762.363" r="4" fill="#0" id="circle135"/>
	<circle cx="747.042" cy="877.266" r="4" fill="#0" id="circle136"/>
	<circle cx="750.873" cy="957.699" r="4" fill="#0" id="circle137"/>
	<circle cx="762.363" cy="674.27" r="4" fill="#0" id="circle138"/>
	<circle cx="762.363" cy="796.834" r="4" fill="#0" id="circle139"/>
	<circle cx="777.683" cy="4" r="4" fill="#0" id="circle140"/>
	<circle cx="781.514" cy="513.405" r="4" fill="#0" id="circle141"/>
	<circle cx="781.514" cy="639.799" r="4" fill="#0" id="circle142"/>
	<circle cx="781.514" cy="762.363" r="4" fill="#0" id="circle143"/>
	<circle cx="785.344" cy="877.266" r="4" fill="#0" id="circle144"/>
	<circle cx="789.174" cy="957.699" r="4" fill="#0" id="circle145"/>
	<circle cx="800.664" cy="674.27" r="4" fill="#0" id="circle146"/>
	<circle cx="800.664" cy="796.834" r="4" fill="#0" id="circle147"/>
	<circle cx="815.985" cy="15.4903" r="4" fill="#0" id="circle148"/>
	<circle cx="819.815" cy="53.7915" r="4" fill="#0" id="circle149"/>
	<circle cx="819.815" cy="92.0927" r="4" fill="#0" id="circle150"/>
	<circle cx="819.815" cy="130.394" r="4" fill="#0" id="circle151"/>
	<circle cx="819.815" cy="168.695" r="4" fill="#0" id="circle152"/>
	<circle cx="819.815" cy="206.996" r="4" fill="#0" id="circle153"/>
	<circle cx="819.815" cy="245.297" r="4" fill="#0" id="circle154"/>
	<circle cx="819.815" cy="283.598" r="4" fill="#0" id="circle155"/>
	<circle cx="819.815" cy="321.9" r="4" fill="#0" id="circle156"/>
	<circle cx="819.815" cy="360.201" r="4" fill="#0" id="circle157"/>
	<circle cx="819.815" cy="398.502" r="4" fill="#0" id="circle158"/>
	<circle cx="819.815" cy="436.803" r="4" fill="#0" id="circle159"/>
	<circle cx="819.815" cy="475.104" r="4" fill="#0" id="circle160"/>
	<circle cx="819.815" cy="639.799" r="4" fill="#0" id="circle161"/>
	<circle cx="819.815" cy="762.363" r="4" fill="#0" id="circle162"/>
	<circle cx="823.645" cy="877.266" r="4" fill="#0" id="circle163"/>
	<circle cx="827.475" cy="957.699" r="4" fill="#0" id="circle164"/>
	<circle cx="838.965" cy="674.27" r="4" fill="#0" id="circle165"/>
	<circle cx="838.965" cy="796.834" r="4" fill="#0" id="circle166"/>
	<circle cx="858.116" cy="639.799" r="4" fill="#0" id="circle167"/>
	<circle cx="858.116" cy="762.363" r="4" fill="#0" id="circle168"/>
	<circle cx="861.946" cy="877.266" r="4" fill="#0" id="circle169"/>
	<circle cx="865.776" cy="957.699" r="4" fill="#0" id="circle170"/>
	<circle cx="900.247" cy="877.266" r="4" fill="#0" id="circle171"/>
	<circle cx="904.077" cy="957.699" r="4" fill="#0" id="circle172"/>
	<circle cx="938.548" cy="877.266" r="4" fill="#0" id="circle173"/>
	<circle cx="942.378" cy="957.699" r="4" fill="#0" id="circle174"/>
	<circle cx="976.849" cy="877.266" r="4" fill="#0" id="circle175"/>
	<circle cx="980.68" cy="957.699" r="4" fill="#0" id="circle176"/>
	<circle cx="996" cy="911.737" r="4" fill="#0" id="circle177"/>
	</g>
</svg>