<?xml version="1.0" encoding="UTF-8" standalone="no"?>
<!-- Created with CurveBenchmark -->
<svg
	xmlns:dc="http://purl.org/dc/elements/1.1/"
	xmlns:cc="http://creativecommons.org/ns#"
	xmlns:rdf="http://www.w3.org/1999/02/22-rdf-syntax-ns#"
	xmlns:svg="http://www.w3.org/2000/svg"
	xmlns="http://www.w3.org/2000/svg"
	xmlns:sodipodi="http://sodipodi.sourceforge.net/DTD/sodipodi-0.dtd"
	xmlns:inkscape="http://www.inkscape.org/namespaces/inkscape"
	width="1000"
	height="1000"
	id="svg2"
	version="1.1"
	sodipodi:docname="manifold/vicur-bird335.png.txt">
<defs
	id="defs4" />
<metadata
	id="metadata7">
	<rdf:RDF>
		<cc:Work
			rdf:about="">
			<dc:format>image/svg+xml</dc:format>
			<dc:type
				rdf:resource="http://purl.org/dc/dcmitype/StillImage" />
			<dc:title></dc:title>
		</cc:Work>
	</rdf:RDF>
</metadata>
<g
	inkscape:label="Layer 1"
	inkscape:groupmode="layer"
	id="layer1">
	<path style="fill:none;stroke:red;stroke-width:1px;stroke-linecap:butt;stroke-linejoin:miter;stroke-opacity:1" d="M 4,385.239 4,424.141 z" id="boundary" inkscape:connector-curvature="0" />
	<path style="fill:none;stroke:red;stroke-width:1px;stroke-linecap:butt;stroke-linejoin:miter;stroke-opacity:1" d="M 4,385.239 19.5608,346.337 z" id="boundary" inkscape:connector-curvature="0" />
	<path style="fill:none;stroke:red;stroke-width:1px;stroke-linecap:butt;stroke-linejoin:miter;stroke-opacity:1" d="M 4,424.141 42.902,435.812 z" id="boundary" inkscape:connector-curvature="0" />
	<path style="fill:none;stroke:red;stroke-width:1px;stroke-linecap:butt;stroke-linejoin:miter;stroke-opacity:1" d="M 19.5608,346.337 39.0118,311.325 z" id="boundary" inkscape:connector-curvature="0" />
	<path style="fill:none;stroke:red;stroke-width:1px;stroke-linecap:butt;stroke-linejoin:miter;stroke-opacity:1" d="M 39.0118,311.325 58.4627,276.314 z" id="boundary" inkscape:connector-curvature="0" />
	<path style="fill:none;stroke:red;stroke-width:1px;stroke-linecap:butt;stroke-linejoin:miter;stroke-opacity:1" d="M 42.902,435.812 81.8039,420.251 z" id="boundary" inkscape:connector-curvature="0" />
	<path style="fill:none;stroke:red;stroke-width:1px;stroke-linecap:butt;stroke-linejoin:miter;stroke-opacity:1" d="M 58.4627,276.314 81.8039,237.412 z" id="boundary" inkscape:connector-curvature="0" />
	<path style="fill:none;stroke:red;stroke-width:1px;stroke-linecap:butt;stroke-linejoin:miter;stroke-opacity:1" d="M 81.8039,237.412 112.925,206.29 z" id="boundary" inkscape:connector-curvature="0" />
	<path style="fill:none;stroke:red;stroke-width:1px;stroke-linecap:butt;stroke-linejoin:miter;stroke-opacity:1" d="M 81.8039,420.251 120.706,435.812 z" id="boundary" inkscape:connector-curvature="0" />
	<path style="fill:none;stroke:red;stroke-width:1px;stroke-linecap:butt;stroke-linejoin:miter;stroke-opacity:1" d="M 112.925,206.29 144.047,175.169 z" id="boundary" inkscape:connector-curvature="0" />
	<path style="fill:none;stroke:red;stroke-width:1px;stroke-linecap:butt;stroke-linejoin:miter;stroke-opacity:1" d="M 120.706,435.812 159.608,435.812 z" id="boundary" inkscape:connector-curvature="0" />
	<path style="fill:none;stroke:red;stroke-width:1px;stroke-linecap:butt;stroke-linejoin:miter;stroke-opacity:1" d="M 144.047,175.169 175.169,144.047 z" id="boundary" inkscape:connector-curvature="0" />
	<path style="fill:none;stroke:red;stroke-width:1px;stroke-linecap:butt;stroke-linejoin:miter;stroke-opacity:1" d="M 159.608,435.812 198.51,420.251 z" id="boundary" inkscape:connector-curvature="0" />
	<path style="fill:none;stroke:red;stroke-width:1px;stroke-linecap:butt;stroke-linejoin:miter;stroke-opacity:1" d="M 175.169,144.047 198.51,112.925 z" id="boundary" inkscape:connector-curvature="0" />
	<path style="fill:none;stroke:red;stroke-width:1px;stroke-linecap:butt;stroke-linejoin:miter;stroke-opacity:1" d="M 198.51,112.925 229.631,89.5843 z" id="boundary" inkscape:connector-curvature="0" />
	<path style="fill:none;stroke:red;stroke-width:1px;stroke-linecap:butt;stroke-linejoin:miter;stroke-opacity:1" d="M 198.51,420.251 237.412,404.69 z" id="boundary" inkscape:connector-curvature="0" />
	<path style="fill:none;stroke:red;stroke-width:1px;stroke-linecap:butt;stroke-linejoin:miter;stroke-opacity:1" d="M 229.631,89.5843 260.753,58.4627 z" id="boundary" inkscape:connector-curvature="0" />
	<path style="fill:none;stroke:red;stroke-width:1px;stroke-linecap:butt;stroke-linejoin:miter;stroke-opacity:1" d="M 237.412,404.69 276.314,389.129 z" id="boundary" inkscape:connector-curvature="0" />
	<path style="fill:none;stroke:red;stroke-width:1px;stroke-linecap:butt;stroke-linejoin:miter;stroke-opacity:1" d="M 260.753,58.4627 299.655,42.902 z" id="boundary" inkscape:connector-curvature="0" />
	<path style="fill:none;stroke:red;stroke-width:1px;stroke-linecap:butt;stroke-linejoin:miter;stroke-opacity:1" d="M 276.314,389.129 311.325,369.678 z" id="boundary" inkscape:connector-curvature="0" />
	<path style="fill:none;stroke:red;stroke-width:1px;stroke-linecap:butt;stroke-linejoin:miter;stroke-opacity:1" d="M 299.655,42.902 334.667,23.451 z" id="boundary" inkscape:connector-curvature="0" />
	<path style="fill:none;stroke:red;stroke-width:1px;stroke-linecap:butt;stroke-linejoin:miter;stroke-opacity:1" d="M 311.325,369.678 338.557,400.8 z" id="boundary" inkscape:connector-curvature="0" />
	<path style="fill:none;stroke:red;stroke-width:1px;stroke-linecap:butt;stroke-linejoin:miter;stroke-opacity:1" d="M 334.667,23.451 373.569,7.8902 z" id="boundary" inkscape:connector-curvature="0" />
	<path style="fill:none;stroke:red;stroke-width:1px;stroke-linecap:butt;stroke-linejoin:miter;stroke-opacity:1" d="M 338.557,400.8 338.557,439.702 z" id="boundary" inkscape:connector-curvature="0" />
	<path style="fill:none;stroke:red;stroke-width:1px;stroke-linecap:butt;stroke-linejoin:miter;stroke-opacity:1" d="M 338.557,439.702 338.557,478.604 z" id="boundary" inkscape:connector-curvature="0" />
	<path style="fill:none;stroke:red;stroke-width:1px;stroke-linecap:butt;stroke-linejoin:miter;stroke-opacity:1" d="M 338.557,478.604 338.557,517.506 z" id="boundary" inkscape:connector-curvature="0" />
	<path style="fill:none;stroke:red;stroke-width:1px;stroke-linecap:butt;stroke-linejoin:miter;stroke-opacity:1" d="M 338.557,517.506 338.557,556.408 z" id="boundary" inkscape:connector-curvature="0" />
	<path style="fill:none;stroke:red;stroke-width:1px;stroke-linecap:butt;stroke-linejoin:miter;stroke-opacity:1" d="M 338.557,556.408 338.557,595.31 z" id="boundary" inkscape:connector-curvature="0" />
	<path style="fill:none;stroke:red;stroke-width:1px;stroke-linecap:butt;stroke-linejoin:miter;stroke-opacity:1" d="M 338.557,595.31 338.557,634.212 z" id="boundary" inkscape:connector-curvature="0" />
	<path style="fill:none;stroke:red;stroke-width:1px;stroke-linecap:butt;stroke-linejoin:miter;stroke-opacity:1" d="M 338.557,634.212 338.557,673.114 z" id="boundary" inkscape:connector-curvature="0" />
	<path style="fill:none;stroke:red;stroke-width:1px;stroke-linecap:butt;stroke-linejoin:miter;stroke-opacity:1" d="M 338.557,673.114 346.337,712.016 z" id="boundary" inkscape:connector-curvature="0" />
	<path style="fill:none;stroke:red;stroke-width:1px;stroke-linecap:butt;stroke-linejoin:miter;stroke-opacity:1" d="M 346.337,712.016 346.337,750.918 z" id="boundary" inkscape:connector-curvature="0" />
	<path style="fill:none;stroke:red;stroke-width:1px;stroke-linecap:butt;stroke-linejoin:miter;stroke-opacity:1" d="M 346.337,750.918 354.118,789.82 z" id="boundary" inkscape:connector-curvature="0" />
	<path style="fill:none;stroke:red;stroke-width:1px;stroke-linecap:butt;stroke-linejoin:miter;stroke-opacity:1" d="M 354.118,789.82 361.898,828.722 z" id="boundary" inkscape:connector-curvature="0" />
	<path style="fill:none;stroke:red;stroke-width:1px;stroke-linecap:butt;stroke-linejoin:miter;stroke-opacity:1" d="M 361.898,828.722 365.788,867.624 z" id="boundary" inkscape:connector-curvature="0" />
	<path style="fill:none;stroke:red;stroke-width:1px;stroke-linecap:butt;stroke-linejoin:miter;stroke-opacity:1" d="M 365.788,867.624 369.678,906.525 z" id="boundary" inkscape:connector-curvature="0" />
	<path style="fill:none;stroke:red;stroke-width:1px;stroke-linecap:butt;stroke-linejoin:miter;stroke-opacity:1" d="M 369.678,906.525 377.459,945.427 z" id="boundary" inkscape:connector-curvature="0" />
	<path style="fill:none;stroke:red;stroke-width:1px;stroke-linecap:butt;stroke-linejoin:miter;stroke-opacity:1" d="M 373.569,7.8902 412.471,4 z" id="boundary" inkscape:connector-curvature="0" />
	<path style="fill:none;stroke:red;stroke-width:1px;stroke-linecap:butt;stroke-linejoin:miter;stroke-opacity:1" d="M 377.459,945.427 381.349,984.329 z" id="boundary" inkscape:connector-curvature="0" />
	<path style="fill:none;stroke:red;stroke-width:1px;stroke-linecap:butt;stroke-linejoin:miter;stroke-opacity:1" d="M 381.349,984.329 420.251,996 z" id="boundary" inkscape:connector-curvature="0" />
	<path style="fill:none;stroke:red;stroke-width:1px;stroke-linecap:butt;stroke-linejoin:miter;stroke-opacity:1" d="M 412.471,4 451.373,4 z" id="boundary" inkscape:connector-curvature="0" />
	<path style="fill:none;stroke:red;stroke-width:1px;stroke-linecap:butt;stroke-linejoin:miter;stroke-opacity:1" d="M 420.251,996 459.153,996 z" id="boundary" inkscape:connector-curvature="0" />
	<path style="fill:none;stroke:red;stroke-width:1px;stroke-linecap:butt;stroke-linejoin:miter;stroke-opacity:1" d="M 431.922,692.565 435.812,649.773 z" id="boundary" inkscape:connector-curvature="0" />
	<path style="fill:none;stroke:red;stroke-width:1px;stroke-linecap:butt;stroke-linejoin:miter;stroke-opacity:1" d="M 431.922,692.565 435.812,731.467 z" id="boundary" inkscape:connector-curvature="0" />
	<path style="fill:none;stroke:red;stroke-width:1px;stroke-linecap:butt;stroke-linejoin:miter;stroke-opacity:1" d="M 435.812,610.871 435.812,649.773 z" id="boundary" inkscape:connector-curvature="0" />
	<path style="fill:none;stroke:red;stroke-width:1px;stroke-linecap:butt;stroke-linejoin:miter;stroke-opacity:1" d="M 435.812,610.871 443.592,571.969 z" id="boundary" inkscape:connector-curvature="0" />
	<path style="fill:none;stroke:red;stroke-width:1px;stroke-linecap:butt;stroke-linejoin:miter;stroke-opacity:1" d="M 435.812,731.467 443.592,770.369 z" id="boundary" inkscape:connector-curvature="0" />
	<path style="fill:none;stroke:red;stroke-width:1px;stroke-linecap:butt;stroke-linejoin:miter;stroke-opacity:1" d="M 443.592,571.969 459.153,509.725 z" id="boundary" inkscape:connector-curvature="0" />
	<path style="fill:none;stroke:red;stroke-width:1px;stroke-linecap:butt;stroke-linejoin:miter;stroke-opacity:1" d="M 443.592,770.369 443.592,809.271 z" id="boundary" inkscape:connector-curvature="0" />
	<path style="fill:none;stroke:red;stroke-width:1px;stroke-linecap:butt;stroke-linejoin:miter;stroke-opacity:1" d="M 443.592,809.271 451.373,848.173 z" id="boundary" inkscape:connector-curvature="0" />
	<path style="fill:none;stroke:red;stroke-width:1px;stroke-linecap:butt;stroke-linejoin:miter;stroke-opacity:1" d="M 451.373,4 490.275,4 z" id="boundary" inkscape:connector-curvature="0" />
	<path style="fill:none;stroke:red;stroke-width:1px;stroke-linecap:butt;stroke-linejoin:miter;stroke-opacity:1" d="M 451.373,848.173 459.153,887.075 z" id="boundary" inkscape:connector-curvature="0" />
	<path style="fill:none;stroke:red;stroke-width:1px;stroke-linecap:butt;stroke-linejoin:miter;stroke-opacity:1" d="M 459.153,509.725 474.714,447.482 z" id="boundary" inkscape:connector-curvature="0" />
	<path style="fill:none;stroke:red;stroke-width:1px;stroke-linecap:butt;stroke-linejoin:miter;stroke-opacity:1" d="M 459.153,887.075 466.933,925.976 z" id="boundary" inkscape:connector-curvature="0" />
	<path style="fill:none;stroke:red;stroke-width:1px;stroke-linecap:butt;stroke-linejoin:miter;stroke-opacity:1" d="M 459.153,996 498.055,996 z" id="boundary" inkscape:connector-curvature="0" />
	<path style="fill:none;stroke:red;stroke-width:1px;stroke-linecap:butt;stroke-linejoin:miter;stroke-opacity:1" d="M 466.933,925.976 501.945,945.427 z" id="boundary" inkscape:connector-curvature="0" />
	<path style="fill:none;stroke:red;stroke-width:1px;stroke-linecap:butt;stroke-linejoin:miter;stroke-opacity:1" d="M 474.714,447.482 482.494,408.58 z" id="boundary" inkscape:connector-curvature="0" />
	<path style="fill:none;stroke:red;stroke-width:1px;stroke-linecap:butt;stroke-linejoin:miter;stroke-opacity:1" d="M 482.494,408.58 490.275,361.898 z" id="boundary" inkscape:connector-curvature="0" />
	<path style="fill:none;stroke:red;stroke-width:1px;stroke-linecap:butt;stroke-linejoin:miter;stroke-opacity:1" d="M 490.275,4 529.176,19.5608 z" id="boundary" inkscape:connector-curvature="0" />
	<path style="fill:none;stroke:red;stroke-width:1px;stroke-linecap:butt;stroke-linejoin:miter;stroke-opacity:1" d="M 490.275,361.898 498.055,315.216 z" id="boundary" inkscape:connector-curvature="0" />
	<path style="fill:none;stroke:red;stroke-width:1px;stroke-linecap:butt;stroke-linejoin:miter;stroke-opacity:1" d="M 498.055,315.216 513.616,268.533 z" id="boundary" inkscape:connector-curvature="0" />
	<path style="fill:none;stroke:red;stroke-width:1px;stroke-linecap:butt;stroke-linejoin:miter;stroke-opacity:1" d="M 498.055,996 536.957,988.22 z" id="boundary" inkscape:connector-curvature="0" />
	<path style="fill:none;stroke:red;stroke-width:1px;stroke-linecap:butt;stroke-linejoin:miter;stroke-opacity:1" d="M 501.945,945.427 556.408,953.208 z" id="boundary" inkscape:connector-curvature="0" />
	<path style="fill:none;stroke:red;stroke-width:1px;stroke-linecap:butt;stroke-linejoin:miter;stroke-opacity:1" d="M 513.616,268.533 536.957,237.412 z" id="boundary" inkscape:connector-curvature="0" />
	<path style="fill:none;stroke:red;stroke-width:1px;stroke-linecap:butt;stroke-linejoin:miter;stroke-opacity:1" d="M 529.176,19.5608 568.078,35.1216 z" id="boundary" inkscape:connector-curvature="0" />
	<path style="fill:none;stroke:red;stroke-width:1px;stroke-linecap:butt;stroke-linejoin:miter;stroke-opacity:1" d="M 536.957,237.412 575.859,225.741 z" id="boundary" inkscape:connector-curvature="0" />
	<path style="fill:none;stroke:red;stroke-width:1px;stroke-linecap:butt;stroke-linejoin:miter;stroke-opacity:1" d="M 536.957,988.22 575.859,988.22 z" id="boundary" inkscape:connector-curvature="0" />
	<path style="fill:none;stroke:red;stroke-width:1px;stroke-linecap:butt;stroke-linejoin:miter;stroke-opacity:1" d="M 556.408,953.208 575.859,988.22 z" id="boundary" inkscape:connector-curvature="0" />
	<path style="fill:none;stroke:red;stroke-width:1px;stroke-linecap:butt;stroke-linejoin:miter;stroke-opacity:1" d="M 568.078,35.1216 606.98,50.6824 z" id="boundary" inkscape:connector-curvature="0" />
	<path style="fill:none;stroke:red;stroke-width:1px;stroke-linecap:butt;stroke-linejoin:miter;stroke-opacity:1" d="M 575.859,225.741 587.529,264.643 z" id="boundary" inkscape:connector-curvature="0" />
	<path style="fill:none;stroke:red;stroke-width:1px;stroke-linecap:butt;stroke-linejoin:miter;stroke-opacity:1" d="M 587.529,264.643 595.31,303.545 z" id="boundary" inkscape:connector-curvature="0" />
	<path style="fill:none;stroke:red;stroke-width:1px;stroke-linecap:butt;stroke-linejoin:miter;stroke-opacity:1" d="M 595.31,303.545 610.871,342.447 z" id="boundary" inkscape:connector-curvature="0" />
	<path style="fill:none;stroke:red;stroke-width:1px;stroke-linecap:butt;stroke-linejoin:miter;stroke-opacity:1" d="M 606.98,50.6824 630.322,81.8039 z" id="boundary" inkscape:connector-curvature="0" />
	<path style="fill:none;stroke:red;stroke-width:1px;stroke-linecap:butt;stroke-linejoin:miter;stroke-opacity:1" d="M 610.871,342.447 641.992,365.788 z" id="boundary" inkscape:connector-curvature="0" />
	<path style="fill:none;stroke:red;stroke-width:1px;stroke-linecap:butt;stroke-linejoin:miter;stroke-opacity:1" d="M 630.322,81.8039 645.882,120.706 z" id="boundary" inkscape:connector-curvature="0" />
	<path style="fill:none;stroke:red;stroke-width:1px;stroke-linecap:butt;stroke-linejoin:miter;stroke-opacity:1" d="M 641.992,365.788 680.894,373.569 z" id="boundary" inkscape:connector-curvature="0" />
	<path style="fill:none;stroke:red;stroke-width:1px;stroke-linecap:butt;stroke-linejoin:miter;stroke-opacity:1" d="M 645.882,120.706 661.443,159.608 z" id="boundary" inkscape:connector-curvature="0" />
	<path style="fill:none;stroke:red;stroke-width:1px;stroke-linecap:butt;stroke-linejoin:miter;stroke-opacity:1" d="M 661.443,159.608 688.675,128.486 z" id="boundary" inkscape:connector-curvature="0" />
	<path style="fill:none;stroke:red;stroke-width:1px;stroke-linecap:butt;stroke-linejoin:miter;stroke-opacity:1" d="M 680.894,373.569 719.796,358.008 z" id="boundary" inkscape:connector-curvature="0" />
	<path style="fill:none;stroke:red;stroke-width:1px;stroke-linecap:butt;stroke-linejoin:miter;stroke-opacity:1" d="M 688.675,128.486 712.016,97.3647 z" id="boundary" inkscape:connector-curvature="0" />
	<path style="fill:none;stroke:red;stroke-width:1px;stroke-linecap:butt;stroke-linejoin:miter;stroke-opacity:1" d="M 712.016,97.3647 750.918,81.8039 z" id="boundary" inkscape:connector-curvature="0" />
	<path style="fill:none;stroke:red;stroke-width:1px;stroke-linecap:butt;stroke-linejoin:miter;stroke-opacity:1" d="M 719.796,358.008 747.027,322.996 z" id="boundary" inkscape:connector-curvature="0" />
	<path style="fill:none;stroke:red;stroke-width:1px;stroke-linecap:butt;stroke-linejoin:miter;stroke-opacity:1" d="M 747.027,322.996 754.808,260.753 z" id="boundary" inkscape:connector-curvature="0" />
	<path style="fill:none;stroke:red;stroke-width:1px;stroke-linecap:butt;stroke-linejoin:miter;stroke-opacity:1" d="M 750.918,81.8039 789.82,74.0235 z" id="boundary" inkscape:connector-curvature="0" />
	<path style="fill:none;stroke:red;stroke-width:1px;stroke-linecap:butt;stroke-linejoin:miter;stroke-opacity:1" d="M 754.808,182.949 754.808,221.851 z" id="boundary" inkscape:connector-curvature="0" />
	<path style="fill:none;stroke:red;stroke-width:1px;stroke-linecap:butt;stroke-linejoin:miter;stroke-opacity:1" d="M 754.808,182.949 793.71,194.62 z" id="boundary" inkscape:connector-curvature="0" />
	<path style="fill:none;stroke:red;stroke-width:1px;stroke-linecap:butt;stroke-linejoin:miter;stroke-opacity:1" d="M 754.808,221.851 754.808,260.753 z" id="boundary" inkscape:connector-curvature="0" />
	<path style="fill:none;stroke:red;stroke-width:1px;stroke-linecap:butt;stroke-linejoin:miter;stroke-opacity:1" d="M 789.82,74.0235 828.722,74.0235 z" id="boundary" inkscape:connector-curvature="0" />
	<path style="fill:none;stroke:red;stroke-width:1px;stroke-linecap:butt;stroke-linejoin:miter;stroke-opacity:1" d="M 793.71,194.62 832.612,210.18 z" id="boundary" inkscape:connector-curvature="0" />
	<path style="fill:none;stroke:red;stroke-width:1px;stroke-linecap:butt;stroke-linejoin:miter;stroke-opacity:1" d="M 828.722,74.0235 863.733,93.4745 z" id="boundary" inkscape:connector-curvature="0" />
	<path style="fill:none;stroke:red;stroke-width:1px;stroke-linecap:butt;stroke-linejoin:miter;stroke-opacity:1" d="M 832.612,210.18 867.624,229.631 z" id="boundary" inkscape:connector-curvature="0" />
	<path style="fill:none;stroke:red;stroke-width:1px;stroke-linecap:butt;stroke-linejoin:miter;stroke-opacity:1" d="M 863.733,93.4745 894.855,120.706 z" id="boundary" inkscape:connector-curvature="0" />
	<path style="fill:none;stroke:red;stroke-width:1px;stroke-linecap:butt;stroke-linejoin:miter;stroke-opacity:1" d="M 867.624,229.631 898.745,252.973 z" id="boundary" inkscape:connector-curvature="0" />
	<path style="fill:none;stroke:red;stroke-width:1px;stroke-linecap:butt;stroke-linejoin:miter;stroke-opacity:1" d="M 894.855,120.706 902.635,159.608 z" id="boundary" inkscape:connector-curvature="0" />
	<path style="fill:none;stroke:red;stroke-width:1px;stroke-linecap:butt;stroke-linejoin:miter;stroke-opacity:1" d="M 898.745,252.973 929.867,280.204 z" id="boundary" inkscape:connector-curvature="0" />
	<path style="fill:none;stroke:red;stroke-width:1px;stroke-linecap:butt;stroke-linejoin:miter;stroke-opacity:1" d="M 902.635,159.608 925.976,190.729 z" id="boundary" inkscape:connector-curvature="0" />
	<path style="fill:none;stroke:red;stroke-width:1px;stroke-linecap:butt;stroke-linejoin:miter;stroke-opacity:1" d="M 925.976,190.729 949.318,221.851 z" id="boundary" inkscape:connector-curvature="0" />
	<path style="fill:none;stroke:red;stroke-width:1px;stroke-linecap:butt;stroke-linejoin:miter;stroke-opacity:1" d="M 929.867,280.204 968.769,295.765 z" id="boundary" inkscape:connector-curvature="0" />
	<path style="fill:none;stroke:red;stroke-width:1px;stroke-linecap:butt;stroke-linejoin:miter;stroke-opacity:1" d="M 949.318,221.851 972.659,252.973 z" id="boundary" inkscape:connector-curvature="0" />
	<path style="fill:none;stroke:red;stroke-width:1px;stroke-linecap:butt;stroke-linejoin:miter;stroke-opacity:1" d="M 968.769,295.765 972.659,252.973 z" id="boundary" inkscape:connector-curvature="0" />
	<circle cx="4" cy="385.239" r="4" fill="#0" id="circle0"/>
	<circle cx="4" cy="424.141" r="4" fill="#0" id="circle1"/>
	<circle cx="19.5608" cy="346.337" r="4" fill="#0" id="circle2"/>
	<circle cx="39.0118" cy="311.325" r="4" fill="#0" id="circle3"/>
	<circle cx="42.902" cy="435.812" r="4" fill="#0" id="circle4"/>
	<circle cx="58.4627" cy="276.314" r="4" fill="#0" id="circle5"/>
	<circle cx="81.8039" cy="237.412" r="4" fill="#0" id="circle6"/>
	<circle cx="81.8039" cy="420.251" r="4" fill="#0" id="circle7"/>
	<circle cx="112.925" cy="206.29" r="4" fill="#0" id="circle8"/>
	<circle cx="120.706" cy="435.812" r="4" fill="#0" id="circle9"/>
	<circle cx="144.047" cy="175.169" r="4" fill="#0" id="circle10"/>
	<circle cx="159.608" cy="435.812" r="4" fill="#0" id="circle11"/>
	<circle cx="175.169" cy="144.047" r="4" fill="#0" id="circle12"/>
	<circle cx="198.51" cy="112.925" r="4" fill="#0" id="circle13"/>
	<circle cx="198.51" cy="420.251" r="4" fill="#0" id="circle14"/>
	<circle cx="229.631" cy="89.5843" r="4" fill="#0" id="circle15"/>
	<circle cx="237.412" cy="404.69" r="4" fill="#0" id="circle16"/>
	<circle cx="260.753" cy="58.4627" r="4" fill="#0" id="circle17"/>
	<circle cx="276.314" cy="389.129" r="4" fill="#0" id="circle18"/>
	<circle cx="299.655" cy="42.902" r="4" fill="#0" id="circle19"/>
	<circle cx="311.325" cy="369.678" r="4" fill="#0" id="circle20"/>
	<circle cx="334.667" cy="23.451" r="4" fill="#0" id="circle21"/>
	<circle cx="338.557" cy="400.8" r="4" fill="#0" id="circle22"/>
	<circle cx="338.557" cy="439.702" r="4" fill="#0" id="circle23"/>
	<circle cx="338.557" cy="478.604" r="4" fill="#0" id="circle24"/>
	<circle cx="338.557" cy="517.506" r="4" fill="#0" id="circle25"/>
	<circle cx="338.557" cy="556.408" r="4" fill="#0" id="circle26"/>
	<circle cx="338.557" cy="595.31" r="4" fill="#0" id="circle27"/>
	<circle cx="338.557" cy="634.212" r="4" fill="#0" id="circle28"/>
	<circle cx="338.557" cy="673.114" r="4" fill="#0" id="circle29"/>
	<circle cx="346.337" cy="712.016" r="4" fill="#0" id="circle30"/>
	<circle cx="346.337" cy="750.918" r="4" fill="#0" id="circle31"/>
	<circle cx="354.118" cy="789.82" r="4" fill="#0" id="circle32"/>
	<circle cx="361.898" cy="828.722" r="4" fill="#0" id="circle33"/>
	<circle cx="365.788" cy="867.624" r="4" fill="#0" id="circle34"/>
	<circle cx="369.678" cy="906.525" r="4" fill="#0" id="circle35"/>
	<circle cx="373.569" cy="7.8902" r="4" fill="#0" id="circle36"/>
	<circle cx="377.459" cy="945.427" r="4" fill="#0" id="circle37"/>
	<circle cx="381.349" cy="984.329" r="4" fill="#0" id="circle38"/>
	<circle cx="412.471" cy="4" r="4" fill="#0" id="circle39"/>
	<circle cx="420.251" cy="996" r="4" fill="#0" id="circle40"/>
	<circle cx="431.922" cy="692.565" r="4" fill="#0" id="circle41"/>
	<circle cx="435.812" cy="610.871" r="4" fill="#0" id="circle42"/>
	<circle cx="435.812" cy="649.773" r="4" fill="#0" id="circle43"/>
	<circle cx="435.812" cy="731.467" r="4" fill="#0" id="circle44"/>
	<circle cx="443.592" cy="571.969" r="4" fill="#0" id="circle45"/>
	<circle cx="443.592" cy="770.369" r="4" fill="#0" id="circle46"/>
	<circle cx="443.592" cy="809.271" r="4" fill="#0" id="circle47"/>
	<circle cx="451.373" cy="4" r="4" fill="#0" id="circle48"/>
	<circle cx="451.373" cy="848.173" r="4" fill="#0" id="circle49"/>
	<circle cx="459.153" cy="509.725" r="4" fill="#0" id="circle50"/>
	<circle cx="459.153" cy="887.075" r="4" fill="#0" id="circle51"/>
	<circle cx="459.153" cy="996" r="4" fill="#0" id="circle52"/>
	<circle cx="466.933" cy="925.976" r="4" fill="#0" id="circle53"/>
	<circle cx="474.714" cy="447.482" r="4" fill="#0" id="circle54"/>
	<circle cx="482.494" cy="408.58" r="4" fill="#0" id="circle55"/>
	<circle cx="490.275" cy="4" r="4" fill="#0" id="circle56"/>
	<circle cx="490.275" cy="361.898" r="4" fill="#0" id="circle57"/>
	<circle cx="498.055" cy="315.216" r="4" fill="#0" id="circle58"/>
	<circle cx="498.055" cy="996" r="4" fill="#0" id="circle59"/>
	<circle cx="501.945" cy="945.427" r="4" fill="#0" id="circle60"/>
	<circle cx="513.616" cy="268.533" r="4" fill="#0" id="circle61"/>
	<circle cx="529.176" cy="19.5608" r="4" fill="#0" id="circle62"/>
	<circle cx="536.957" cy="237.412" r="4" fill="#0" id="circle63"/>
	<circle cx="536.957" cy="988.22" r="4" fill="#0" id="circle64"/>
	<circle cx="556.408" cy="953.208" r="4" fill="#0" id="circle65"/>
	<circle cx="568.078" cy="35.1216" r="4" fill="#0" id="circle66"/>
	<circle cx="575.859" cy="225.741" r="4" fill="#0" id="circle67"/>
	<circle cx="575.859" cy="988.22" r="4" fill="#0" id="circle68"/>
	<circle cx="587.529" cy="264.643" r="4" fill="#0" id="circle69"/>
	<circle cx="595.31" cy="303.545" r="4" fill="#0" id="circle70"/>
	<circle cx="606.98" cy="50.6824" r="4" fill="#0" id="circle71"/>
	<circle cx="610.871" cy="342.447" r="4" fill="#0" id="circle72"/>
	<circle cx="630.322" cy="81.8039" r="4" fill="#0" id="circle73"/>
	<circle cx="641.992" cy="365.788" r="4" fill="#0" id="circle74"/>
	<circle cx="645.882" cy="120.706" r="4" fill="#0" id="circle75"/>
	<circle cx="661.443" cy="159.608" r="4" fill="#0" id="circle76"/>
	<circle cx="680.894" cy="373.569" r="4" fill="#0" id="circle77"/>
	<circle cx="688.675" cy="128.486" r="4" fill="#0" id="circle78"/>
	<circle cx="712.016" cy="97.3647" r="4" fill="#0" id="circle79"/>
	<circle cx="719.796" cy="358.008" r="4" fill="#0" id="circle80"/>
	<circle cx="747.027" cy="322.996" r="4" fill="#0" id="circle81"/>
	<circle cx="750.918" cy="81.8039" r="4" fill="#0" id="circle82"/>
	<circle cx="754.808" cy="182.949" r="4" fill="#0" id="circle83"/>
	<circle cx="754.808" cy="221.851" r="4" fill="#0" id="circle84"/>
	<circle cx="754.808" cy="260.753" r="4" fill="#0" id="circle85"/>
	<circle cx="789.82" cy="74.0235" r="4" fill="#0" id="circle86"/>
	<circle cx="793.71" cy="194.62" r="4" fill="#0" id="circle87"/>
	<circle cx="828.722" cy="74.0235" r="4" fill="#0" id="circle88"/>
	<circle cx="832.612" cy="210.18" r="4" fill="#0" id="circle89"/>
	<circle cx="863.733" cy="93.4745" r="4" fill="#0" id="circle90"/>
	<circle cx="867.624" cy="229.631" r="4" fill="#0" id="circle91"/>
	<circle cx="894.855" cy="120.706" r="4" fill="#0" id="circle92"/>
	<circle cx="898.745" cy="252.973" r="4" fill="#0" id="circle93"/>
	<circle cx="902.635" cy="159.608" r="4" fill="#0" id="circle94"/>
	<circle cx="925.976" cy="190.729" r="4" fill="#0" id="circle95"/>
	<circle cx="929.867" cy="280.204" r="4" fill="#0" id="circle96"/>
	<circle cx="949.318" cy="221.851" r="4" fill="#0" id="circle97"/>
	<circle cx="968.769" cy="295.765" r="4" fill="#0" id="circle98"/>
	<circle cx="972.659" cy="252.973" r="4" fill="#0" id="circle99"/>
	</g>
</svg>