<?xml version="1.0" encoding="UTF-8" standalone="no"?>
<!-- Created with CurveBenchmark -->
<svg
	xmlns:dc="http://purl.org/dc/elements/1.1/"
	xmlns:cc="http://creativecommons.org/ns#"
	xmlns:rdf="http://www.w3.org/1999/02/22-rdf-syntax-ns#"
	xmlns:svg="http://www.w3.org/2000/svg"
	xmlns="http://www.w3.org/2000/svg"
	xmlns:sodipodi="http://sodipodi.sourceforge.net/DTD/sodipodi-0.dtd"
	xmlns:inkscape="http://www.inkscape.org/namespaces/inkscape"
	width="1000"
	height="1000"
	id="svg2"
	version="1.1"
	sodipodi:docname="manifold/vicur-fish28aff1.png.txt">
<defs
	id="defs4" />
<metadata
	id="metadata7">
	<rdf:RDF>
		<cc:Work
			rdf:about="">
			<dc:format>image/svg+xml</dc:format>
			<dc:type
				rdf:resource="http://purl.org/dc/dcmitype/StillImage" />
			<dc:title></dc:title>
		</cc:Work>
	</rdf:RDF>
</metadata>
<g
	inkscape:label="Layer 1"
	inkscape:groupmode="layer"
	id="layer1">
	<path style="fill:none;stroke:red;stroke-width:1px;stroke-linecap:butt;stroke-linejoin:miter;stroke-opacity:1" d="M 4,10.4555 4,31.974 z" id="boundary" inkscape:connector-curvature="0" />
	<path style="fill:none;stroke:red;stroke-width:1px;stroke-linecap:butt;stroke-linejoin:miter;stroke-opacity:1" d="M 4,10.4555 25.5184,4 z" id="boundary" inkscape:connector-curvature="0" />
	<path style="fill:none;stroke:red;stroke-width:1px;stroke-linecap:butt;stroke-linejoin:miter;stroke-opacity:1" d="M 4,31.974 4,53.4924 z" id="boundary" inkscape:connector-curvature="0" />
	<path style="fill:none;stroke:red;stroke-width:1px;stroke-linecap:butt;stroke-linejoin:miter;stroke-opacity:1" d="M 4,53.4924 14.7592,72.859 z" id="boundary" inkscape:connector-curvature="0" />
	<path style="fill:none;stroke:red;stroke-width:1px;stroke-linecap:butt;stroke-linejoin:miter;stroke-opacity:1" d="M 14.7592,72.859 25.5184,92.2256 z" id="boundary" inkscape:connector-curvature="0" />
	<path style="fill:none;stroke:red;stroke-width:1px;stroke-linecap:butt;stroke-linejoin:miter;stroke-opacity:1" d="M 25.5184,4 47.0369,8.30369 z" id="boundary" inkscape:connector-curvature="0" />
	<path style="fill:none;stroke:red;stroke-width:1px;stroke-linecap:butt;stroke-linejoin:miter;stroke-opacity:1" d="M 25.5184,92.2256 38.4295,109.44 z" id="boundary" inkscape:connector-curvature="0" />
	<path style="fill:none;stroke:red;stroke-width:1px;stroke-linecap:butt;stroke-linejoin:miter;stroke-opacity:1" d="M 38.4295,109.44 55.6443,124.503 z" id="boundary" inkscape:connector-curvature="0" />
	<path style="fill:none;stroke:red;stroke-width:1px;stroke-linecap:butt;stroke-linejoin:miter;stroke-opacity:1" d="M 47.0369,8.30369 68.5553,14.7592 z" id="boundary" inkscape:connector-curvature="0" />
	<path style="fill:none;stroke:red;stroke-width:1px;stroke-linecap:butt;stroke-linejoin:miter;stroke-opacity:1" d="M 55.6443,124.503 64.2516,146.022 z" id="boundary" inkscape:connector-curvature="0" />
	<path style="fill:none;stroke:red;stroke-width:1px;stroke-linecap:butt;stroke-linejoin:miter;stroke-opacity:1" d="M 64.2516,146.022 75.0108,165.388 z" id="boundary" inkscape:connector-curvature="0" />
	<path style="fill:none;stroke:red;stroke-width:1px;stroke-linecap:butt;stroke-linejoin:miter;stroke-opacity:1" d="M 68.5553,14.7592 87.9219,25.5184 z" id="boundary" inkscape:connector-curvature="0" />
	<path style="fill:none;stroke:red;stroke-width:1px;stroke-linecap:butt;stroke-linejoin:miter;stroke-opacity:1" d="M 75.0108,165.388 90.0738,182.603 z" id="boundary" inkscape:connector-curvature="0" />
	<path style="fill:none;stroke:red;stroke-width:1px;stroke-linecap:butt;stroke-linejoin:miter;stroke-opacity:1" d="M 87.9219,25.5184 107.289,36.2777 z" id="boundary" inkscape:connector-curvature="0" />
	<path style="fill:none;stroke:red;stroke-width:1px;stroke-linecap:butt;stroke-linejoin:miter;stroke-opacity:1" d="M 90.0738,182.603 107.289,197.666 z" id="boundary" inkscape:connector-curvature="0" />
	<path style="fill:none;stroke:red;stroke-width:1px;stroke-linecap:butt;stroke-linejoin:miter;stroke-opacity:1" d="M 107.289,36.2777 126.655,47.0369 z" id="boundary" inkscape:connector-curvature="0" />
	<path style="fill:none;stroke:red;stroke-width:1px;stroke-linecap:butt;stroke-linejoin:miter;stroke-opacity:1" d="M 107.289,197.666 115.896,219.184 z" id="boundary" inkscape:connector-curvature="0" />
	<path style="fill:none;stroke:red;stroke-width:1px;stroke-linecap:butt;stroke-linejoin:miter;stroke-opacity:1" d="M 115.896,219.184 126.655,238.551 z" id="boundary" inkscape:connector-curvature="0" />
	<path style="fill:none;stroke:red;stroke-width:1px;stroke-linecap:butt;stroke-linejoin:miter;stroke-opacity:1" d="M 126.655,47.0369 143.87,62.0998 z" id="boundary" inkscape:connector-curvature="0" />
	<path style="fill:none;stroke:red;stroke-width:1px;stroke-linecap:butt;stroke-linejoin:miter;stroke-opacity:1" d="M 126.655,238.551 143.87,253.614 z" id="boundary" inkscape:connector-curvature="0" />
	<path style="fill:none;stroke:red;stroke-width:1px;stroke-linecap:butt;stroke-linejoin:miter;stroke-opacity:1" d="M 143.87,62.0998 163.236,72.859 z" id="boundary" inkscape:connector-curvature="0" />
	<path style="fill:none;stroke:red;stroke-width:1px;stroke-linecap:butt;stroke-linejoin:miter;stroke-opacity:1" d="M 143.87,253.614 154.629,272.98 z" id="boundary" inkscape:connector-curvature="0" />
	<path style="fill:none;stroke:red;stroke-width:1px;stroke-linecap:butt;stroke-linejoin:miter;stroke-opacity:1" d="M 154.629,272.98 165.388,292.347 z" id="boundary" inkscape:connector-curvature="0" />
	<path style="fill:none;stroke:red;stroke-width:1px;stroke-linecap:butt;stroke-linejoin:miter;stroke-opacity:1" d="M 163.236,72.859 184.755,81.4664 z" id="boundary" inkscape:connector-curvature="0" />
	<path style="fill:none;stroke:red;stroke-width:1px;stroke-linecap:butt;stroke-linejoin:miter;stroke-opacity:1" d="M 165.388,292.347 176.148,311.714 z" id="boundary" inkscape:connector-curvature="0" />
	<path style="fill:none;stroke:red;stroke-width:1px;stroke-linecap:butt;stroke-linejoin:miter;stroke-opacity:1" d="M 176.148,311.714 186.907,331.08 z" id="boundary" inkscape:connector-curvature="0" />
	<path style="fill:none;stroke:red;stroke-width:1px;stroke-linecap:butt;stroke-linejoin:miter;stroke-opacity:1" d="M 184.755,81.4664 199.818,98.6811 z" id="boundary" inkscape:connector-curvature="0" />
	<path style="fill:none;stroke:red;stroke-width:1px;stroke-linecap:butt;stroke-linejoin:miter;stroke-opacity:1" d="M 186.907,331.08 201.97,348.295 z" id="boundary" inkscape:connector-curvature="0" />
	<path style="fill:none;stroke:red;stroke-width:1px;stroke-linecap:butt;stroke-linejoin:miter;stroke-opacity:1" d="M 199.818,98.6811 221.336,107.289 z" id="boundary" inkscape:connector-curvature="0" />
	<path style="fill:none;stroke:red;stroke-width:1px;stroke-linecap:butt;stroke-linejoin:miter;stroke-opacity:1" d="M 201.97,348.295 223.488,356.902 z" id="boundary" inkscape:connector-curvature="0" />
	<path style="fill:none;stroke:red;stroke-width:1px;stroke-linecap:butt;stroke-linejoin:miter;stroke-opacity:1" d="M 221.336,107.289 236.399,124.503 z" id="boundary" inkscape:connector-curvature="0" />
	<path style="fill:none;stroke:red;stroke-width:1px;stroke-linecap:butt;stroke-linejoin:miter;stroke-opacity:1" d="M 223.488,356.902 242.855,367.662 z" id="boundary" inkscape:connector-curvature="0" />
	<path style="fill:none;stroke:red;stroke-width:1px;stroke-linecap:butt;stroke-linejoin:miter;stroke-opacity:1" d="M 236.399,124.503 253.614,139.566 z" id="boundary" inkscape:connector-curvature="0" />
	<path style="fill:none;stroke:red;stroke-width:1px;stroke-linecap:butt;stroke-linejoin:miter;stroke-opacity:1" d="M 242.855,367.662 260.069,382.725 z" id="boundary" inkscape:connector-curvature="0" />
	<path style="fill:none;stroke:red;stroke-width:1px;stroke-linecap:butt;stroke-linejoin:miter;stroke-opacity:1" d="M 253.614,139.566 268.677,156.781 z" id="boundary" inkscape:connector-curvature="0" />
	<path style="fill:none;stroke:red;stroke-width:1px;stroke-linecap:butt;stroke-linejoin:miter;stroke-opacity:1" d="M 260.069,382.725 268.677,404.243 z" id="boundary" inkscape:connector-curvature="0" />
	<path style="fill:none;stroke:red;stroke-width:1px;stroke-linecap:butt;stroke-linejoin:miter;stroke-opacity:1" d="M 268.677,156.781 285.892,171.844 z" id="boundary" inkscape:connector-curvature="0" />
	<path style="fill:none;stroke:red;stroke-width:1px;stroke-linecap:butt;stroke-linejoin:miter;stroke-opacity:1" d="M 268.677,404.243 288.043,415.002 z" id="boundary" inkscape:connector-curvature="0" />
	<path style="fill:none;stroke:red;stroke-width:1px;stroke-linecap:butt;stroke-linejoin:miter;stroke-opacity:1" d="M 285.892,171.844 300.954,189.059 z" id="boundary" inkscape:connector-curvature="0" />
	<path style="fill:none;stroke:red;stroke-width:1px;stroke-linecap:butt;stroke-linejoin:miter;stroke-opacity:1" d="M 288.043,415.002 305.258,427.913 z" id="boundary" inkscape:connector-curvature="0" />
	<path style="fill:none;stroke:red;stroke-width:1px;stroke-linecap:butt;stroke-linejoin:miter;stroke-opacity:1" d="M 300.954,189.059 322.473,197.666 z" id="boundary" inkscape:connector-curvature="0" />
	<path style="fill:none;stroke:red;stroke-width:1px;stroke-linecap:butt;stroke-linejoin:miter;stroke-opacity:1" d="M 305.258,427.913 320.321,445.128 z" id="boundary" inkscape:connector-curvature="0" />
	<path style="fill:none;stroke:red;stroke-width:1px;stroke-linecap:butt;stroke-linejoin:miter;stroke-opacity:1" d="M 320.321,445.128 337.536,458.039 z" id="boundary" inkscape:connector-curvature="0" />
	<path style="fill:none;stroke:red;stroke-width:1px;stroke-linecap:butt;stroke-linejoin:miter;stroke-opacity:1" d="M 322.473,197.666 337.536,214.881 z" id="boundary" inkscape:connector-curvature="0" />
	<path style="fill:none;stroke:red;stroke-width:1px;stroke-linecap:butt;stroke-linejoin:miter;stroke-opacity:1" d="M 337.536,214.881 350.447,232.095 z" id="boundary" inkscape:connector-curvature="0" />
	<path style="fill:none;stroke:red;stroke-width:1px;stroke-linecap:butt;stroke-linejoin:miter;stroke-opacity:1" d="M 337.536,458.039 343.991,479.557 z" id="boundary" inkscape:connector-curvature="0" />
	<path style="fill:none;stroke:red;stroke-width:1px;stroke-linecap:butt;stroke-linejoin:miter;stroke-opacity:1" d="M 343.991,479.557 361.206,494.62 z" id="boundary" inkscape:connector-curvature="0" />
	<path style="fill:none;stroke:red;stroke-width:1px;stroke-linecap:butt;stroke-linejoin:miter;stroke-opacity:1" d="M 350.447,232.095 361.206,251.462 z" id="boundary" inkscape:connector-curvature="0" />
	<path style="fill:none;stroke:red;stroke-width:1px;stroke-linecap:butt;stroke-linejoin:miter;stroke-opacity:1" d="M 361.206,251.462 378.421,264.373 z" id="boundary" inkscape:connector-curvature="0" />
	<path style="fill:none;stroke:red;stroke-width:1px;stroke-linecap:butt;stroke-linejoin:miter;stroke-opacity:1" d="M 361.206,494.62 376.269,511.835 z" id="boundary" inkscape:connector-curvature="0" />
	<path style="fill:none;stroke:red;stroke-width:1px;stroke-linecap:butt;stroke-linejoin:miter;stroke-opacity:1" d="M 376.269,511.835 391.332,529.05 z" id="boundary" inkscape:connector-curvature="0" />
	<path style="fill:none;stroke:red;stroke-width:1px;stroke-linecap:butt;stroke-linejoin:miter;stroke-opacity:1" d="M 378.421,264.373 387.028,285.892 z" id="boundary" inkscape:connector-curvature="0" />
	<path style="fill:none;stroke:red;stroke-width:1px;stroke-linecap:butt;stroke-linejoin:miter;stroke-opacity:1" d="M 387.028,285.892 404.243,300.954 z" id="boundary" inkscape:connector-curvature="0" />
	<path style="fill:none;stroke:red;stroke-width:1px;stroke-linecap:butt;stroke-linejoin:miter;stroke-opacity:1" d="M 391.332,529.05 402.091,548.416 z" id="boundary" inkscape:connector-curvature="0" />
	<path style="fill:none;stroke:red;stroke-width:1px;stroke-linecap:butt;stroke-linejoin:miter;stroke-opacity:1" d="M 402.091,548.416 402.091,569.935 z" id="boundary" inkscape:connector-curvature="0" />
	<path style="fill:none;stroke:red;stroke-width:1px;stroke-linecap:butt;stroke-linejoin:miter;stroke-opacity:1" d="M 402.091,569.935 412.85,589.302 z" id="boundary" inkscape:connector-curvature="0" />
	<path style="fill:none;stroke:red;stroke-width:1px;stroke-linecap:butt;stroke-linejoin:miter;stroke-opacity:1" d="M 404.243,300.954 419.306,318.169 z" id="boundary" inkscape:connector-curvature="0" />
	<path style="fill:none;stroke:red;stroke-width:1px;stroke-linecap:butt;stroke-linejoin:miter;stroke-opacity:1" d="M 412.85,589.302 427.913,606.516 z" id="boundary" inkscape:connector-curvature="0" />
	<path style="fill:none;stroke:red;stroke-width:1px;stroke-linecap:butt;stroke-linejoin:miter;stroke-opacity:1" d="M 419.306,318.169 430.065,337.536 z" id="boundary" inkscape:connector-curvature="0" />
	<path style="fill:none;stroke:red;stroke-width:1px;stroke-linecap:butt;stroke-linejoin:miter;stroke-opacity:1" d="M 427.913,606.516 445.128,619.427 z" id="boundary" inkscape:connector-curvature="0" />
	<path style="fill:none;stroke:red;stroke-width:1px;stroke-linecap:butt;stroke-linejoin:miter;stroke-opacity:1" d="M 430.065,337.536 445.128,354.751 z" id="boundary" inkscape:connector-curvature="0" />
	<path style="fill:none;stroke:red;stroke-width:1px;stroke-linecap:butt;stroke-linejoin:miter;stroke-opacity:1" d="M 445.128,354.751 462.343,369.813 z" id="boundary" inkscape:connector-curvature="0" />
	<path style="fill:none;stroke:red;stroke-width:1px;stroke-linecap:butt;stroke-linejoin:miter;stroke-opacity:1" d="M 445.128,619.427 464.495,630.187 z" id="boundary" inkscape:connector-curvature="0" />
	<path style="fill:none;stroke:red;stroke-width:1px;stroke-linecap:butt;stroke-linejoin:miter;stroke-opacity:1" d="M 462.343,369.813 481.709,380.573 z" id="boundary" inkscape:connector-curvature="0" />
	<path style="fill:none;stroke:red;stroke-width:1px;stroke-linecap:butt;stroke-linejoin:miter;stroke-opacity:1" d="M 464.495,630.187 483.861,640.946 z" id="boundary" inkscape:connector-curvature="0" />
	<path style="fill:none;stroke:red;stroke-width:1px;stroke-linecap:butt;stroke-linejoin:miter;stroke-opacity:1" d="M 481.709,380.573 498.924,395.636 z" id="boundary" inkscape:connector-curvature="0" />
	<path style="fill:none;stroke:red;stroke-width:1px;stroke-linecap:butt;stroke-linejoin:miter;stroke-opacity:1" d="M 483.861,640.946 505.38,649.553 z" id="boundary" inkscape:connector-curvature="0" />
	<path style="fill:none;stroke:red;stroke-width:1px;stroke-linecap:butt;stroke-linejoin:miter;stroke-opacity:1" d="M 498.924,395.636 518.291,406.395 z" id="boundary" inkscape:connector-curvature="0" />
	<path style="fill:none;stroke:red;stroke-width:1px;stroke-linecap:butt;stroke-linejoin:miter;stroke-opacity:1" d="M 505.38,649.553 520.443,666.768 z" id="boundary" inkscape:connector-curvature="0" />
	<path style="fill:none;stroke:red;stroke-width:1px;stroke-linecap:butt;stroke-linejoin:miter;stroke-opacity:1" d="M 518.291,406.395 533.354,423.61 z" id="boundary" inkscape:connector-curvature="0" />
	<path style="fill:none;stroke:red;stroke-width:1px;stroke-linecap:butt;stroke-linejoin:miter;stroke-opacity:1" d="M 520.443,666.768 531.202,686.134 z" id="boundary" inkscape:connector-curvature="0" />
	<path style="fill:none;stroke:red;stroke-width:1px;stroke-linecap:butt;stroke-linejoin:miter;stroke-opacity:1" d="M 531.202,686.134 541.961,705.501 z" id="boundary" inkscape:connector-curvature="0" />
	<path style="fill:none;stroke:red;stroke-width:1px;stroke-linecap:butt;stroke-linejoin:miter;stroke-opacity:1" d="M 533.354,423.61 554.872,430.065 z" id="boundary" inkscape:connector-curvature="0" />
	<path style="fill:none;stroke:red;stroke-width:1px;stroke-linecap:butt;stroke-linejoin:miter;stroke-opacity:1" d="M 541.961,705.501 552.72,724.868 z" id="boundary" inkscape:connector-curvature="0" />
	<path style="fill:none;stroke:red;stroke-width:1px;stroke-linecap:butt;stroke-linejoin:miter;stroke-opacity:1" d="M 552.72,724.868 565.631,742.082 z" id="boundary" inkscape:connector-curvature="0" />
	<path style="fill:none;stroke:red;stroke-width:1px;stroke-linecap:butt;stroke-linejoin:miter;stroke-opacity:1" d="M 554.872,430.065 574.239,440.824 z" id="boundary" inkscape:connector-curvature="0" />
	<path style="fill:none;stroke:red;stroke-width:1px;stroke-linecap:butt;stroke-linejoin:miter;stroke-opacity:1" d="M 565.631,742.082 580.694,759.297 z" id="boundary" inkscape:connector-curvature="0" />
	<path style="fill:none;stroke:red;stroke-width:1px;stroke-linecap:butt;stroke-linejoin:miter;stroke-opacity:1" d="M 574.239,440.824 591.453,455.887 z" id="boundary" inkscape:connector-curvature="0" />
	<path style="fill:none;stroke:red;stroke-width:1px;stroke-linecap:butt;stroke-linejoin:miter;stroke-opacity:1" d="M 580.694,759.297 602.213,767.905 z" id="boundary" inkscape:connector-curvature="0" />
	<path style="fill:none;stroke:red;stroke-width:1px;stroke-linecap:butt;stroke-linejoin:miter;stroke-opacity:1" d="M 587.15,554.872 597.909,574.239 z" id="boundary" inkscape:connector-curvature="0" />
	<path style="fill:none;stroke:red;stroke-width:1px;stroke-linecap:butt;stroke-linejoin:miter;stroke-opacity:1" d="M 587.15,554.872 604.364,539.809 z" id="boundary" inkscape:connector-curvature="0" />
	<path style="fill:none;stroke:red;stroke-width:1px;stroke-linecap:butt;stroke-linejoin:miter;stroke-opacity:1" d="M 591.453,455.887 606.516,473.102 z" id="boundary" inkscape:connector-curvature="0" />
	<path style="fill:none;stroke:red;stroke-width:1px;stroke-linecap:butt;stroke-linejoin:miter;stroke-opacity:1" d="M 597.909,574.239 608.668,593.605 z" id="boundary" inkscape:connector-curvature="0" />
	<path style="fill:none;stroke:red;stroke-width:1px;stroke-linecap:butt;stroke-linejoin:miter;stroke-opacity:1" d="M 602.213,767.905 623.731,770.056 z" id="boundary" inkscape:connector-curvature="0" />
	<path style="fill:none;stroke:red;stroke-width:1px;stroke-linecap:butt;stroke-linejoin:miter;stroke-opacity:1" d="M 604.364,539.809 619.427,511.835 z" id="boundary" inkscape:connector-curvature="0" />
	<path style="fill:none;stroke:red;stroke-width:1px;stroke-linecap:butt;stroke-linejoin:miter;stroke-opacity:1" d="M 606.516,473.102 619.427,490.317 z" id="boundary" inkscape:connector-curvature="0" />
	<path style="fill:none;stroke:red;stroke-width:1px;stroke-linecap:butt;stroke-linejoin:miter;stroke-opacity:1" d="M 608.668,593.605 625.883,608.668 z" id="boundary" inkscape:connector-curvature="0" />
	<path style="fill:none;stroke:red;stroke-width:1px;stroke-linecap:butt;stroke-linejoin:miter;stroke-opacity:1" d="M 619.427,490.317 619.427,511.835 z" id="boundary" inkscape:connector-curvature="0" />
	<path style="fill:none;stroke:red;stroke-width:1px;stroke-linecap:butt;stroke-linejoin:miter;stroke-opacity:1" d="M 623.731,770.056 645.249,770.056 z" id="boundary" inkscape:connector-curvature="0" />
	<path style="fill:none;stroke:red;stroke-width:1px;stroke-linecap:butt;stroke-linejoin:miter;stroke-opacity:1" d="M 625.883,608.668 640.946,625.883 z" id="boundary" inkscape:connector-curvature="0" />
	<path style="fill:none;stroke:red;stroke-width:1px;stroke-linecap:butt;stroke-linejoin:miter;stroke-opacity:1" d="M 640.946,625.883 651.705,645.249 z" id="boundary" inkscape:connector-curvature="0" />
	<path style="fill:none;stroke:red;stroke-width:1px;stroke-linecap:butt;stroke-linejoin:miter;stroke-opacity:1" d="M 645.249,770.056 662.464,785.119 z" id="boundary" inkscape:connector-curvature="0" />
	<path style="fill:none;stroke:red;stroke-width:1px;stroke-linecap:butt;stroke-linejoin:miter;stroke-opacity:1" d="M 651.705,645.249 666.768,662.464 z" id="boundary" inkscape:connector-curvature="0" />
	<path style="fill:none;stroke:red;stroke-width:1px;stroke-linecap:butt;stroke-linejoin:miter;stroke-opacity:1" d="M 662.464,785.119 677.527,802.334 z" id="boundary" inkscape:connector-curvature="0" />
	<path style="fill:none;stroke:red;stroke-width:1px;stroke-linecap:butt;stroke-linejoin:miter;stroke-opacity:1" d="M 666.768,662.464 688.286,671.072 z" id="boundary" inkscape:connector-curvature="0" />
	<path style="fill:none;stroke:red;stroke-width:1px;stroke-linecap:butt;stroke-linejoin:miter;stroke-opacity:1" d="M 677.527,802.334 688.286,821.701 z" id="boundary" inkscape:connector-curvature="0" />
	<path style="fill:none;stroke:red;stroke-width:1px;stroke-linecap:butt;stroke-linejoin:miter;stroke-opacity:1" d="M 688.286,671.072 703.349,688.286 z" id="boundary" inkscape:connector-curvature="0" />
	<path style="fill:none;stroke:red;stroke-width:1px;stroke-linecap:butt;stroke-linejoin:miter;stroke-opacity:1" d="M 688.286,821.701 696.894,843.219 z" id="boundary" inkscape:connector-curvature="0" />
	<path style="fill:none;stroke:red;stroke-width:1px;stroke-linecap:butt;stroke-linejoin:miter;stroke-opacity:1" d="M 696.894,843.219 707.653,862.586 z" id="boundary" inkscape:connector-curvature="0" />
	<path style="fill:none;stroke:red;stroke-width:1px;stroke-linecap:butt;stroke-linejoin:miter;stroke-opacity:1" d="M 703.349,688.286 716.26,705.501 z" id="boundary" inkscape:connector-curvature="0" />
	<path style="fill:none;stroke:red;stroke-width:1px;stroke-linecap:butt;stroke-linejoin:miter;stroke-opacity:1" d="M 707.653,862.586 716.26,884.104 z" id="boundary" inkscape:connector-curvature="0" />
	<path style="fill:none;stroke:red;stroke-width:1px;stroke-linecap:butt;stroke-linejoin:miter;stroke-opacity:1" d="M 716.26,705.501 716.26,727.02 z" id="boundary" inkscape:connector-curvature="0" />
	<path style="fill:none;stroke:red;stroke-width:1px;stroke-linecap:butt;stroke-linejoin:miter;stroke-opacity:1" d="M 716.26,727.02 720.564,748.538 z" id="boundary" inkscape:connector-curvature="0" />
	<path style="fill:none;stroke:red;stroke-width:1px;stroke-linecap:butt;stroke-linejoin:miter;stroke-opacity:1" d="M 716.26,884.104 724.868,905.623 z" id="boundary" inkscape:connector-curvature="0" />
	<path style="fill:none;stroke:red;stroke-width:1px;stroke-linecap:butt;stroke-linejoin:miter;stroke-opacity:1" d="M 720.564,748.538 731.323,767.905 z" id="boundary" inkscape:connector-curvature="0" />
	<path style="fill:none;stroke:red;stroke-width:1px;stroke-linecap:butt;stroke-linejoin:miter;stroke-opacity:1" d="M 724.868,905.623 735.627,924.989 z" id="boundary" inkscape:connector-curvature="0" />
	<path style="fill:none;stroke:red;stroke-width:1px;stroke-linecap:butt;stroke-linejoin:miter;stroke-opacity:1" d="M 731.323,767.905 746.386,785.119 z" id="boundary" inkscape:connector-curvature="0" />
	<path style="fill:none;stroke:red;stroke-width:1px;stroke-linecap:butt;stroke-linejoin:miter;stroke-opacity:1" d="M 735.627,924.989 746.386,944.356 z" id="boundary" inkscape:connector-curvature="0" />
	<path style="fill:none;stroke:red;stroke-width:1px;stroke-linecap:butt;stroke-linejoin:miter;stroke-opacity:1" d="M 746.386,785.119 763.601,800.182 z" id="boundary" inkscape:connector-curvature="0" />
	<path style="fill:none;stroke:red;stroke-width:1px;stroke-linecap:butt;stroke-linejoin:miter;stroke-opacity:1" d="M 746.386,944.356 757.145,963.722 z" id="boundary" inkscape:connector-curvature="0" />
	<path style="fill:none;stroke:red;stroke-width:1px;stroke-linecap:butt;stroke-linejoin:miter;stroke-opacity:1" d="M 757.145,963.722 770.056,980.937 z" id="boundary" inkscape:connector-curvature="0" />
	<path style="fill:none;stroke:red;stroke-width:1px;stroke-linecap:butt;stroke-linejoin:miter;stroke-opacity:1" d="M 763.601,800.182 778.664,817.397 z" id="boundary" inkscape:connector-curvature="0" />
	<path style="fill:none;stroke:red;stroke-width:1px;stroke-linecap:butt;stroke-linejoin:miter;stroke-opacity:1" d="M 770.056,980.937 787.271,996 z" id="boundary" inkscape:connector-curvature="0" />
	<path style="fill:none;stroke:red;stroke-width:1px;stroke-linecap:butt;stroke-linejoin:miter;stroke-opacity:1" d="M 778.664,817.397 795.879,832.46 z" id="boundary" inkscape:connector-curvature="0" />
	<path style="fill:none;stroke:red;stroke-width:1px;stroke-linecap:butt;stroke-linejoin:miter;stroke-opacity:1" d="M 787.271,996 806.638,983.089 z" id="boundary" inkscape:connector-curvature="0" />
	<path style="fill:none;stroke:red;stroke-width:1px;stroke-linecap:butt;stroke-linejoin:miter;stroke-opacity:1" d="M 795.879,832.46 815.245,843.219 z" id="boundary" inkscape:connector-curvature="0" />
	<path style="fill:none;stroke:red;stroke-width:1px;stroke-linecap:butt;stroke-linejoin:miter;stroke-opacity:1" d="M 806.638,983.089 813.093,952.963 z" id="boundary" inkscape:connector-curvature="0" />
	<path style="fill:none;stroke:red;stroke-width:1px;stroke-linecap:butt;stroke-linejoin:miter;stroke-opacity:1" d="M 813.093,931.445 813.093,952.963 z" id="boundary" inkscape:connector-curvature="0" />
	<path style="fill:none;stroke:red;stroke-width:1px;stroke-linecap:butt;stroke-linejoin:miter;stroke-opacity:1" d="M 813.093,931.445 832.46,920.685 z" id="boundary" inkscape:connector-curvature="0" />
	<path style="fill:none;stroke:red;stroke-width:1px;stroke-linecap:butt;stroke-linejoin:miter;stroke-opacity:1" d="M 815.245,843.219 823.852,864.738 z" id="boundary" inkscape:connector-curvature="0" />
	<path style="fill:none;stroke:red;stroke-width:1px;stroke-linecap:butt;stroke-linejoin:miter;stroke-opacity:1" d="M 823.852,864.738 845.371,871.193 z" id="boundary" inkscape:connector-curvature="0" />
	<path style="fill:none;stroke:red;stroke-width:1px;stroke-linecap:butt;stroke-linejoin:miter;stroke-opacity:1" d="M 832.46,920.685 851.826,931.445 z" id="boundary" inkscape:connector-curvature="0" />
	<path style="fill:none;stroke:red;stroke-width:1px;stroke-linecap:butt;stroke-linejoin:miter;stroke-opacity:1" d="M 845.371,871.193 862.586,886.256 z" id="boundary" inkscape:connector-curvature="0" />
	<path style="fill:none;stroke:red;stroke-width:1px;stroke-linecap:butt;stroke-linejoin:miter;stroke-opacity:1" d="M 851.826,931.445 871.193,942.204 z" id="boundary" inkscape:connector-curvature="0" />
	<path style="fill:none;stroke:red;stroke-width:1px;stroke-linecap:butt;stroke-linejoin:miter;stroke-opacity:1" d="M 862.586,886.256 877.649,903.471 z" id="boundary" inkscape:connector-curvature="0" />
	<path style="fill:none;stroke:red;stroke-width:1px;stroke-linecap:butt;stroke-linejoin:miter;stroke-opacity:1" d="M 871.193,942.204 892.711,942.204 z" id="boundary" inkscape:connector-curvature="0" />
	<path style="fill:none;stroke:red;stroke-width:1px;stroke-linecap:butt;stroke-linejoin:miter;stroke-opacity:1" d="M 877.649,903.471 897.015,914.23 z" id="boundary" inkscape:connector-curvature="0" />
	<path style="fill:none;stroke:red;stroke-width:1px;stroke-linecap:butt;stroke-linejoin:miter;stroke-opacity:1" d="M 892.711,942.204 897.015,914.23 z" id="boundary" inkscape:connector-curvature="0" />
	<circle cx="4" cy="10.4555" r="4" fill="#0" id="circle0"/>
	<circle cx="4" cy="31.974" r="4" fill="#0" id="circle1"/>
	<circle cx="4" cy="53.4924" r="4" fill="#0" id="circle2"/>
	<circle cx="14.7592" cy="72.859" r="4" fill="#0" id="circle3"/>
	<circle cx="25.5184" cy="4" r="4" fill="#0" id="circle4"/>
	<circle cx="25.5184" cy="92.2256" r="4" fill="#0" id="circle5"/>
	<circle cx="38.4295" cy="109.44" r="4" fill="#0" id="circle6"/>
	<circle cx="47.0369" cy="8.30369" r="4" fill="#0" id="circle7"/>
	<circle cx="55.6443" cy="124.503" r="4" fill="#0" id="circle8"/>
	<circle cx="64.2516" cy="146.022" r="4" fill="#0" id="circle9"/>
	<circle cx="68.5553" cy="14.7592" r="4" fill="#0" id="circle10"/>
	<circle cx="75.0108" cy="165.388" r="4" fill="#0" id="circle11"/>
	<circle cx="87.9219" cy="25.5184" r="4" fill="#0" id="circle12"/>
	<circle cx="90.0738" cy="182.603" r="4" fill="#0" id="circle13"/>
	<circle cx="107.289" cy="36.2777" r="4" fill="#0" id="circle14"/>
	<circle cx="107.289" cy="197.666" r="4" fill="#0" id="circle15"/>
	<circle cx="115.896" cy="219.184" r="4" fill="#0" id="circle16"/>
	<circle cx="126.655" cy="47.0369" r="4" fill="#0" id="circle17"/>
	<circle cx="126.655" cy="238.551" r="4" fill="#0" id="circle18"/>
	<circle cx="143.87" cy="62.0998" r="4" fill="#0" id="circle19"/>
	<circle cx="143.87" cy="253.614" r="4" fill="#0" id="circle20"/>
	<circle cx="154.629" cy="272.98" r="4" fill="#0" id="circle21"/>
	<circle cx="163.236" cy="72.859" r="4" fill="#0" id="circle22"/>
	<circle cx="165.388" cy="292.347" r="4" fill="#0" id="circle23"/>
	<circle cx="176.148" cy="311.714" r="4" fill="#0" id="circle24"/>
	<circle cx="184.755" cy="81.4664" r="4" fill="#0" id="circle25"/>
	<circle cx="186.907" cy="331.08" r="4" fill="#0" id="circle26"/>
	<circle cx="199.818" cy="98.6811" r="4" fill="#0" id="circle27"/>
	<circle cx="201.97" cy="348.295" r="4" fill="#0" id="circle28"/>
	<circle cx="221.336" cy="107.289" r="4" fill="#0" id="circle29"/>
	<circle cx="223.488" cy="356.902" r="4" fill="#0" id="circle30"/>
	<circle cx="236.399" cy="124.503" r="4" fill="#0" id="circle31"/>
	<circle cx="242.855" cy="367.662" r="4" fill="#0" id="circle32"/>
	<circle cx="253.614" cy="139.566" r="4" fill="#0" id="circle33"/>
	<circle cx="260.069" cy="382.725" r="4" fill="#0" id="circle34"/>
	<circle cx="268.677" cy="156.781" r="4" fill="#0" id="circle35"/>
	<circle cx="268.677" cy="404.243" r="4" fill="#0" id="circle36"/>
	<circle cx="285.892" cy="171.844" r="4" fill="#0" id="circle37"/>
	<circle cx="288.043" cy="415.002" r="4" fill="#0" id="circle38"/>
	<circle cx="300.954" cy="189.059" r="4" fill="#0" id="circle39"/>
	<circle cx="305.258" cy="427.913" r="4" fill="#0" id="circle40"/>
	<circle cx="320.321" cy="445.128" r="4" fill="#0" id="circle41"/>
	<circle cx="322.473" cy="197.666" r="4" fill="#0" id="circle42"/>
	<circle cx="337.536" cy="214.881" r="4" fill="#0" id="circle43"/>
	<circle cx="337.536" cy="458.039" r="4" fill="#0" id="circle44"/>
	<circle cx="343.991" cy="479.557" r="4" fill="#0" id="circle45"/>
	<circle cx="350.447" cy="232.095" r="4" fill="#0" id="circle46"/>
	<circle cx="361.206" cy="251.462" r="4" fill="#0" id="circle47"/>
	<circle cx="361.206" cy="494.62" r="4" fill="#0" id="circle48"/>
	<circle cx="376.269" cy="511.835" r="4" fill="#0" id="circle49"/>
	<circle cx="378.421" cy="264.373" r="4" fill="#0" id="circle50"/>
	<circle cx="387.028" cy="285.892" r="4" fill="#0" id="circle51"/>
	<circle cx="391.332" cy="529.05" r="4" fill="#0" id="circle52"/>
	<circle cx="402.091" cy="548.416" r="4" fill="#0" id="circle53"/>
	<circle cx="402.091" cy="569.935" r="4" fill="#0" id="circle54"/>
	<circle cx="404.243" cy="300.954" r="4" fill="#0" id="circle55"/>
	<circle cx="412.85" cy="589.302" r="4" fill="#0" id="circle56"/>
	<circle cx="419.306" cy="318.169" r="4" fill="#0" id="circle57"/>
	<circle cx="427.913" cy="606.516" r="4" fill="#0" id="circle58"/>
	<circle cx="430.065" cy="337.536" r="4" fill="#0" id="circle59"/>
	<circle cx="445.128" cy="354.751" r="4" fill="#0" id="circle60"/>
	<circle cx="445.128" cy="619.427" r="4" fill="#0" id="circle61"/>
	<circle cx="462.343" cy="369.813" r="4" fill="#0" id="circle62"/>
	<circle cx="464.495" cy="630.187" r="4" fill="#0" id="circle63"/>
	<circle cx="481.709" cy="380.573" r="4" fill="#0" id="circle64"/>
	<circle cx="483.861" cy="640.946" r="4" fill="#0" id="circle65"/>
	<circle cx="498.924" cy="395.636" r="4" fill="#0" id="circle66"/>
	<circle cx="505.38" cy="649.553" r="4" fill="#0" id="circle67"/>
	<circle cx="518.291" cy="406.395" r="4" fill="#0" id="circle68"/>
	<circle cx="520.443" cy="666.768" r="4" fill="#0" id="circle69"/>
	<circle cx="531.202" cy="686.134" r="4" fill="#0" id="circle70"/>
	<circle cx="533.354" cy="423.61" r="4" fill="#0" id="circle71"/>
	<circle cx="541.961" cy="705.501" r="4" fill="#0" id="circle72"/>
	<circle cx="552.72" cy="724.868" r="4" fill="#0" id="circle73"/>
	<circle cx="554.872" cy="430.065" r="4" fill="#0" id="circle74"/>
	<circle cx="565.631" cy="742.082" r="4" fill="#0" id="circle75"/>
	<circle cx="574.239" cy="440.824" r="4" fill="#0" id="circle76"/>
	<circle cx="580.694" cy="759.297" r="4" fill="#0" id="circle77"/>
	<circle cx="587.15" cy="554.872" r="4" fill="#0" id="circle78"/>
	<circle cx="591.453" cy="455.887" r="4" fill="#0" id="circle79"/>
	<circle cx="597.909" cy="574.239" r="4" fill="#0" id="circle80"/>
	<circle cx="602.213" cy="767.905" r="4" fill="#0" id="circle81"/>
	<circle cx="604.364" cy="539.809" r="4" fill="#0" id="circle82"/>
	<circle cx="606.516" cy="473.102" r="4" fill="#0" id="circle83"/>
	<circle cx="608.668" cy="593.605" r="4" fill="#0" id="circle84"/>
	<circle cx="619.427" cy="490.317" r="4" fill="#0" id="circle85"/>
	<circle cx="619.427" cy="511.835" r="4" fill="#0" id="circle86"/>
	<circle cx="623.731" cy="770.056" r="4" fill="#0" id="circle87"/>
	<circle cx="625.883" cy="608.668" r="4" fill="#0" id="circle88"/>
	<circle cx="640.946" cy="625.883" r="4" fill="#0" id="circle89"/>
	<circle cx="645.249" cy="770.056" r="4" fill="#0" id="circle90"/>
	<circle cx="651.705" cy="645.249" r="4" fill="#0" id="circle91"/>
	<circle cx="662.464" cy="785.119" r="4" fill="#0" id="circle92"/>
	<circle cx="666.768" cy="662.464" r="4" fill="#0" id="circle93"/>
	<circle cx="677.527" cy="802.334" r="4" fill="#0" id="circle94"/>
	<circle cx="688.286" cy="671.072" r="4" fill="#0" id="circle95"/>
	<circle cx="688.286" cy="821.701" r="4" fill="#0" id="circle96"/>
	<circle cx="696.894" cy="843.219" r="4" fill="#0" id="circle97"/>
	<circle cx="703.349" cy="688.286" r="4" fill="#0" id="circle98"/>
	<circle cx="707.653" cy="862.586" r="4" fill="#0" id="circle99"/>
	<circle cx="716.26" cy="705.501" r="4" fill="#0" id="circle100"/>
	<circle cx="716.26" cy="727.02" r="4" fill="#0" id="circle101"/>
	<circle cx="716.26" cy="884.104" r="4" fill="#0" id="circle102"/>
	<circle cx="720.564" cy="748.538" r="4" fill="#0" id="circle103"/>
	<circle cx="724.868" cy="905.623" r="4" fill="#0" id="circle104"/>
	<circle cx="731.323" cy="767.905" r="4" fill="#0" id="circle105"/>
	<circle cx="735.627" cy="924.989" r="4" fill="#0" id="circle106"/>
	<circle cx="746.386" cy="785.119" r="4" fill="#0" id="circle107"/>
	<circle cx="746.386" cy="944.356" r="4" fill="#0" id="circle108"/>
	<circle cx="757.145" cy="963.722" r="4" fill="#0" id="circle109"/>
	<circle cx="763.601" cy="800.182" r="4" fill="#0" id="circle110"/>
	<circle cx="770.056" cy="980.937" r="4" fill="#0" id="circle111"/>
	<circle cx="778.664" cy="817.397" r="4" fill="#0" id="circle112"/>
	<circle cx="787.271" cy="996" r="4" fill="#0" id="circle113"/>
	<circle cx="795.879" cy="832.46" r="4" fill="#0" id="circle114"/>
	<circle cx="806.638" cy="983.089" r="4" fill="#0" id="circle115"/>
	<circle cx="813.093" cy="931.445" r="4" fill="#0" id="circle116"/>
	<circle cx="813.093" cy="952.963" r="4" fill="#0" id="circle117"/>
	<circle cx="815.245" cy="843.219" r="4" fill="#0" id="circle118"/>
	<circle cx="823.852" cy="864.738" r="4" fill="#0" id="circle119"/>
	<circle cx="832.46" cy="920.685" r="4" fill="#0" id="circle120"/>
	<circle cx="845.371" cy="871.193" r="4" fill="#0" id="circle121"/>
	<circle cx="851.826" cy="931.445" r="4" fill="#0" id="circle122"/>
	<circle cx="862.586" cy="886.256" r="4" fill="#0" id="circle123"/>
	<circle cx="871.193" cy="942.204" r="4" fill="#0" id="circle124"/>
	<circle cx="877.649" cy="903.471" r="4" fill="#0" id="circle125"/>
	<circle cx="892.711" cy="942.204" r="4" fill="#0" id="circle126"/>
	<circle cx="897.015" cy="914.23" r="4" fill="#0" id="circle127"/>
	</g>
</svg>