<?xml version="1.0" encoding="UTF-8" standalone="no"?>
<!-- Created with CurveBenchmark -->
<svg
	xmlns:dc="http://purl.org/dc/elements/1.1/"
	xmlns:cc="http://creativecommons.org/ns#"
	xmlns:rdf="http://www.w3.org/1999/02/22-rdf-syntax-ns#"
	xmlns:svg="http://www.w3.org/2000/svg"
	xmlns="http://www.w3.org/2000/svg"
	xmlns:sodipodi="http://sodipodi.sourceforge.net/DTD/sodipodi-0.dtd"
	xmlns:inkscape="http://www.inkscape.org/namespaces/inkscape"
	width="1000"
	height="1000"
	id="svg2"
	version="1.1"
	sodipodi:docname="manifold/vicur-flightbird11.png.txt">
<defs
	id="defs4" />
<metadata
	id="metadata7">
	<rdf:RDF>
		<cc:Work
			rdf:about="">
			<dc:format>image/svg+xml</dc:format>
			<dc:type
				rdf:resource="http://purl.org/dc/dcmitype/StillImage" />
			<dc:title></dc:title>
		</cc:Work>
	</rdf:RDF>
</metadata>
<g
	inkscape:label="Layer 1"
	inkscape:groupmode="layer"
	id="layer1">
	<path style="fill:none;stroke:red;stroke-width:1px;stroke-linecap:butt;stroke-linejoin:miter;stroke-opacity:1" d="M 4,725.455 18.1462,711.308 z" id="boundary" inkscape:connector-curvature="0" />
	<path style="fill:none;stroke:red;stroke-width:1px;stroke-linecap:butt;stroke-linejoin:miter;stroke-opacity:1" d="M 4,725.455 30.5241,743.137 z" id="boundary" inkscape:connector-curvature="0" />
	<path style="fill:none;stroke:red;stroke-width:1px;stroke-linecap:butt;stroke-linejoin:miter;stroke-opacity:1" d="M 18.1462,711.308 30.5241,681.248 z" id="boundary" inkscape:connector-curvature="0" />
	<path style="fill:none;stroke:red;stroke-width:1px;stroke-linecap:butt;stroke-linejoin:miter;stroke-opacity:1" d="M 21.6827,654.724 35.8289,640.578 z" id="boundary" inkscape:connector-curvature="0" />
	<path style="fill:none;stroke:red;stroke-width:1px;stroke-linecap:butt;stroke-linejoin:miter;stroke-opacity:1" d="M 21.6827,654.724 39.3654,660.029 z" id="boundary" inkscape:connector-curvature="0" />
	<path style="fill:none;stroke:red;stroke-width:1px;stroke-linecap:butt;stroke-linejoin:miter;stroke-opacity:1" d="M 30.5241,681.248 39.3654,660.029 z" id="boundary" inkscape:connector-curvature="0" />
	<path style="fill:none;stroke:red;stroke-width:1px;stroke-linecap:butt;stroke-linejoin:miter;stroke-opacity:1" d="M 30.5241,743.137 48.2068,743.137 z" id="boundary" inkscape:connector-curvature="0" />
	<path style="fill:none;stroke:red;stroke-width:1px;stroke-linecap:butt;stroke-linejoin:miter;stroke-opacity:1" d="M 35.8289,640.578 49.975,626.431 z" id="boundary" inkscape:connector-curvature="0" />
	<path style="fill:none;stroke:red;stroke-width:1px;stroke-linecap:butt;stroke-linejoin:miter;stroke-opacity:1" d="M 35.8289,713.077 57.0481,725.455 z" id="boundary" inkscape:connector-curvature="0" />
	<path style="fill:none;stroke:red;stroke-width:1px;stroke-linecap:butt;stroke-linejoin:miter;stroke-opacity:1" d="M 35.8289,713.077 74.7308,721.918 z" id="boundary" inkscape:connector-curvature="0" />
	<path style="fill:none;stroke:red;stroke-width:1px;stroke-linecap:butt;stroke-linejoin:miter;stroke-opacity:1" d="M 48.2068,743.137 57.0481,759.052 z" id="boundary" inkscape:connector-curvature="0" />
	<path style="fill:none;stroke:red;stroke-width:1px;stroke-linecap:butt;stroke-linejoin:miter;stroke-opacity:1" d="M 49.975,626.431 58.8164,608.749 z" id="boundary" inkscape:connector-curvature="0" />
	<path style="fill:none;stroke:red;stroke-width:1px;stroke-linecap:butt;stroke-linejoin:miter;stroke-opacity:1" d="M 57.0481,725.455 65.8895,741.369 z" id="boundary" inkscape:connector-curvature="0" />
	<path style="fill:none;stroke:red;stroke-width:1px;stroke-linecap:butt;stroke-linejoin:miter;stroke-opacity:1" d="M 57.0481,759.052 74.7308,757.283 z" id="boundary" inkscape:connector-curvature="0" />
	<path style="fill:none;stroke:red;stroke-width:1px;stroke-linecap:butt;stroke-linejoin:miter;stroke-opacity:1" d="M 58.8164,608.749 72.9626,596.371 z" id="boundary" inkscape:connector-curvature="0" />
	<path style="fill:none;stroke:red;stroke-width:1px;stroke-linecap:butt;stroke-linejoin:miter;stroke-opacity:1" d="M 65.8895,741.369 74.7308,757.283 z" id="boundary" inkscape:connector-curvature="0" />
	<path style="fill:none;stroke:red;stroke-width:1px;stroke-linecap:butt;stroke-linejoin:miter;stroke-opacity:1" d="M 72.9626,596.371 88.877,587.529 z" id="boundary" inkscape:connector-curvature="0" />
	<path style="fill:none;stroke:red;stroke-width:1px;stroke-linecap:butt;stroke-linejoin:miter;stroke-opacity:1" d="M 74.7308,721.918 94.1818,721.918 z" id="boundary" inkscape:connector-curvature="0" />
	<path style="fill:none;stroke:red;stroke-width:1px;stroke-linecap:butt;stroke-linejoin:miter;stroke-opacity:1" d="M 85.3405,739.601 101.255,748.442 z" id="boundary" inkscape:connector-curvature="0" />
	<path style="fill:none;stroke:red;stroke-width:1px;stroke-linecap:butt;stroke-linejoin:miter;stroke-opacity:1" d="M 88.877,587.529 92.4135,566.31 z" id="boundary" inkscape:connector-curvature="0" />
	<path style="fill:none;stroke:red;stroke-width:1px;stroke-linecap:butt;stroke-linejoin:miter;stroke-opacity:1" d="M 92.4135,566.31 106.56,552.164 z" id="boundary" inkscape:connector-curvature="0" />
	<path style="fill:none;stroke:red;stroke-width:1px;stroke-linecap:butt;stroke-linejoin:miter;stroke-opacity:1" d="M 94.1818,721.918 117.169,739.601 z" id="boundary" inkscape:connector-curvature="0" />
	<path style="fill:none;stroke:red;stroke-width:1px;stroke-linecap:butt;stroke-linejoin:miter;stroke-opacity:1" d="M 101.255,748.442 124.242,757.283 z" id="boundary" inkscape:connector-curvature="0" />
	<path style="fill:none;stroke:red;stroke-width:1px;stroke-linecap:butt;stroke-linejoin:miter;stroke-opacity:1" d="M 106.56,552.164 120.706,538.018 z" id="boundary" inkscape:connector-curvature="0" />
	<path style="fill:none;stroke:red;stroke-width:1px;stroke-linecap:butt;stroke-linejoin:miter;stroke-opacity:1" d="M 120.706,538.018 134.852,525.64 z" id="boundary" inkscape:connector-curvature="0" />
	<path style="fill:none;stroke:red;stroke-width:1px;stroke-linecap:butt;stroke-linejoin:miter;stroke-opacity:1" d="M 124.242,757.283 136.62,743.137 z" id="boundary" inkscape:connector-curvature="0" />
	<path style="fill:none;stroke:red;stroke-width:1px;stroke-linecap:butt;stroke-linejoin:miter;stroke-opacity:1" d="M 134.852,525.64 150.766,516.799 z" id="boundary" inkscape:connector-curvature="0" />
	<path style="fill:none;stroke:red;stroke-width:1px;stroke-linecap:butt;stroke-linejoin:miter;stroke-opacity:1" d="M 136.62,743.137 150.766,730.759 z" id="boundary" inkscape:connector-curvature="0" />
	<path style="fill:none;stroke:red;stroke-width:1px;stroke-linecap:butt;stroke-linejoin:miter;stroke-opacity:1" d="M 150.766,516.799 164.913,502.652 z" id="boundary" inkscape:connector-curvature="0" />
	<path style="fill:none;stroke:red;stroke-width:1px;stroke-linecap:butt;stroke-linejoin:miter;stroke-opacity:1" d="M 150.766,730.759 168.449,728.991 z" id="boundary" inkscape:connector-curvature="0" />
	<path style="fill:none;stroke:red;stroke-width:1px;stroke-linecap:butt;stroke-linejoin:miter;stroke-opacity:1" d="M 164.913,502.652 179.059,490.275 z" id="boundary" inkscape:connector-curvature="0" />
	<path style="fill:none;stroke:red;stroke-width:1px;stroke-linecap:butt;stroke-linejoin:miter;stroke-opacity:1" d="M 168.449,728.991 182.595,713.077 z" id="boundary" inkscape:connector-curvature="0" />
	<path style="fill:none;stroke:red;stroke-width:1px;stroke-linecap:butt;stroke-linejoin:miter;stroke-opacity:1" d="M 179.059,490.275 194.973,481.433 z" id="boundary" inkscape:connector-curvature="0" />
	<path style="fill:none;stroke:red;stroke-width:1px;stroke-linecap:butt;stroke-linejoin:miter;stroke-opacity:1" d="M 182.595,713.077 198.51,704.235 z" id="boundary" inkscape:connector-curvature="0" />
	<path style="fill:none;stroke:red;stroke-width:1px;stroke-linecap:butt;stroke-linejoin:miter;stroke-opacity:1" d="M 194.973,481.433 212.656,472.592 z" id="boundary" inkscape:connector-curvature="0" />
	<path style="fill:none;stroke:red;stroke-width:1px;stroke-linecap:butt;stroke-linejoin:miter;stroke-opacity:1" d="M 198.51,704.235 209.119,686.553 z" id="boundary" inkscape:connector-curvature="0" />
	<path style="fill:none;stroke:red;stroke-width:1px;stroke-linecap:butt;stroke-linejoin:miter;stroke-opacity:1" d="M 209.119,686.553 223.266,674.175 z" id="boundary" inkscape:connector-curvature="0" />
	<path style="fill:none;stroke:red;stroke-width:1px;stroke-linecap:butt;stroke-linejoin:miter;stroke-opacity:1" d="M 212.656,472.592 228.57,463.75 z" id="boundary" inkscape:connector-curvature="0" />
	<path style="fill:none;stroke:red;stroke-width:1px;stroke-linecap:butt;stroke-linejoin:miter;stroke-opacity:1" d="M 223.266,674.175 235.643,660.029 z" id="boundary" inkscape:connector-curvature="0" />
	<path style="fill:none;stroke:red;stroke-width:1px;stroke-linecap:butt;stroke-linejoin:miter;stroke-opacity:1" d="M 228.57,463.75 242.717,442.531 z" id="boundary" inkscape:connector-curvature="0" />
	<path style="fill:none;stroke:red;stroke-width:1px;stroke-linecap:butt;stroke-linejoin:miter;stroke-opacity:1" d="M 235.643,660.029 251.558,651.187 z" id="boundary" inkscape:connector-curvature="0" />
	<path style="fill:none;stroke:red;stroke-width:1px;stroke-linecap:butt;stroke-linejoin:miter;stroke-opacity:1" d="M 242.717,442.531 260.399,433.69 z" id="boundary" inkscape:connector-curvature="0" />
	<path style="fill:none;stroke:red;stroke-width:1px;stroke-linecap:butt;stroke-linejoin:miter;stroke-opacity:1" d="M 251.558,651.187 269.241,645.882 z" id="boundary" inkscape:connector-curvature="0" />
	<path style="fill:none;stroke:red;stroke-width:1px;stroke-linecap:butt;stroke-linejoin:miter;stroke-opacity:1" d="M 260.399,433.69 278.082,424.848 z" id="boundary" inkscape:connector-curvature="0" />
	<path style="fill:none;stroke:red;stroke-width:1px;stroke-linecap:butt;stroke-linejoin:miter;stroke-opacity:1" d="M 269.241,645.882 286.923,637.041 z" id="boundary" inkscape:connector-curvature="0" />
	<path style="fill:none;stroke:red;stroke-width:1px;stroke-linecap:butt;stroke-linejoin:miter;stroke-opacity:1" d="M 278.082,424.848 295.765,416.007 z" id="boundary" inkscape:connector-curvature="0" />
	<path style="fill:none;stroke:red;stroke-width:1px;stroke-linecap:butt;stroke-linejoin:miter;stroke-opacity:1" d="M 286.923,637.041 304.606,633.504 z" id="boundary" inkscape:connector-curvature="0" />
	<path style="fill:none;stroke:red;stroke-width:1px;stroke-linecap:butt;stroke-linejoin:miter;stroke-opacity:1" d="M 295.765,416.007 309.911,401.861 z" id="boundary" inkscape:connector-curvature="0" />
	<path style="fill:none;stroke:red;stroke-width:1px;stroke-linecap:butt;stroke-linejoin:miter;stroke-opacity:1" d="M 304.606,633.504 320.52,624.663 z" id="boundary" inkscape:connector-curvature="0" />
	<path style="fill:none;stroke:red;stroke-width:1px;stroke-linecap:butt;stroke-linejoin:miter;stroke-opacity:1" d="M 309.911,401.861 327.594,401.861 z" id="boundary" inkscape:connector-curvature="0" />
	<path style="fill:none;stroke:red;stroke-width:1px;stroke-linecap:butt;stroke-linejoin:miter;stroke-opacity:1" d="M 320.52,624.663 338.203,621.127 z" id="boundary" inkscape:connector-curvature="0" />
	<path style="fill:none;stroke:red;stroke-width:1px;stroke-linecap:butt;stroke-linejoin:miter;stroke-opacity:1" d="M 327.594,401.861 343.508,393.02 z" id="boundary" inkscape:connector-curvature="0" />
	<path style="fill:none;stroke:red;stroke-width:1px;stroke-linecap:butt;stroke-linejoin:miter;stroke-opacity:1" d="M 338.203,621.127 355.886,615.822 z" id="boundary" inkscape:connector-curvature="0" />
	<path style="fill:none;stroke:red;stroke-width:1px;stroke-linecap:butt;stroke-linejoin:miter;stroke-opacity:1" d="M 343.508,393.02 357.654,380.642 z" id="boundary" inkscape:connector-curvature="0" />
	<path style="fill:none;stroke:red;stroke-width:1px;stroke-linecap:butt;stroke-linejoin:miter;stroke-opacity:1" d="M 355.886,615.822 371.8,606.98 z" id="boundary" inkscape:connector-curvature="0" />
	<path style="fill:none;stroke:red;stroke-width:1px;stroke-linecap:butt;stroke-linejoin:miter;stroke-opacity:1" d="M 357.654,380.642 375.337,371.8 z" id="boundary" inkscape:connector-curvature="0" />
	<path style="fill:none;stroke:red;stroke-width:1px;stroke-linecap:butt;stroke-linejoin:miter;stroke-opacity:1" d="M 371.8,606.98 387.715,598.139 z" id="boundary" inkscape:connector-curvature="0" />
	<path style="fill:none;stroke:red;stroke-width:1px;stroke-linecap:butt;stroke-linejoin:miter;stroke-opacity:1" d="M 375.337,371.8 389.483,357.654 z" id="boundary" inkscape:connector-curvature="0" />
	<path style="fill:none;stroke:red;stroke-width:1px;stroke-linecap:butt;stroke-linejoin:miter;stroke-opacity:1" d="M 387.715,598.139 403.629,589.298 z" id="boundary" inkscape:connector-curvature="0" />
	<path style="fill:none;stroke:red;stroke-width:1px;stroke-linecap:butt;stroke-linejoin:miter;stroke-opacity:1" d="M 389.483,357.654 401.861,336.435 z" id="boundary" inkscape:connector-curvature="0" />
	<path style="fill:none;stroke:red;stroke-width:1px;stroke-linecap:butt;stroke-linejoin:miter;stroke-opacity:1" d="M 401.861,239.18 401.861,256.863 z" id="boundary" inkscape:connector-curvature="0" />
	<path style="fill:none;stroke:red;stroke-width:1px;stroke-linecap:butt;stroke-linejoin:miter;stroke-opacity:1" d="M 401.861,239.18 419.544,237.412 z" id="boundary" inkscape:connector-curvature="0" />
	<path style="fill:none;stroke:red;stroke-width:1px;stroke-linecap:butt;stroke-linejoin:miter;stroke-opacity:1" d="M 401.861,256.863 401.861,274.545 z" id="boundary" inkscape:connector-curvature="0" />
	<path style="fill:none;stroke:red;stroke-width:1px;stroke-linecap:butt;stroke-linejoin:miter;stroke-opacity:1" d="M 401.861,274.545 410.702,290.46 z" id="boundary" inkscape:connector-curvature="0" />
	<path style="fill:none;stroke:red;stroke-width:1px;stroke-linecap:butt;stroke-linejoin:miter;stroke-opacity:1" d="M 401.861,336.435 410.702,308.143 z" id="boundary" inkscape:connector-curvature="0" />
	<path style="fill:none;stroke:red;stroke-width:1px;stroke-linecap:butt;stroke-linejoin:miter;stroke-opacity:1" d="M 403.629,589.298 421.312,580.456 z" id="boundary" inkscape:connector-curvature="0" />
	<path style="fill:none;stroke:red;stroke-width:1px;stroke-linecap:butt;stroke-linejoin:miter;stroke-opacity:1" d="M 410.702,290.46 410.702,308.143 z" id="boundary" inkscape:connector-curvature="0" />
	<path style="fill:none;stroke:red;stroke-width:1px;stroke-linecap:butt;stroke-linejoin:miter;stroke-opacity:1" d="M 419.544,237.412 435.458,246.253 z" id="boundary" inkscape:connector-curvature="0" />
	<path style="fill:none;stroke:red;stroke-width:1px;stroke-linecap:butt;stroke-linejoin:miter;stroke-opacity:1" d="M 421.312,580.456 430.153,562.774 z" id="boundary" inkscape:connector-curvature="0" />
	<path style="fill:none;stroke:red;stroke-width:1px;stroke-linecap:butt;stroke-linejoin:miter;stroke-opacity:1" d="M 430.153,562.774 447.836,562.774 z" id="boundary" inkscape:connector-curvature="0" />
	<path style="fill:none;stroke:red;stroke-width:1px;stroke-linecap:butt;stroke-linejoin:miter;stroke-opacity:1" d="M 435.458,246.253 453.141,253.326 z" id="boundary" inkscape:connector-curvature="0" />
	<path style="fill:none;stroke:red;stroke-width:1px;stroke-linecap:butt;stroke-linejoin:miter;stroke-opacity:1" d="M 447.836,562.774 461.982,550.396 z" id="boundary" inkscape:connector-curvature="0" />
	<path style="fill:none;stroke:red;stroke-width:1px;stroke-linecap:butt;stroke-linejoin:miter;stroke-opacity:1" d="M 453.141,253.326 469.055,262.168 z" id="boundary" inkscape:connector-curvature="0" />
	<path style="fill:none;stroke:red;stroke-width:1px;stroke-linecap:butt;stroke-linejoin:miter;stroke-opacity:1" d="M 461.982,550.396 474.36,536.25 z" id="boundary" inkscape:connector-curvature="0" />
	<path style="fill:none;stroke:red;stroke-width:1px;stroke-linecap:butt;stroke-linejoin:miter;stroke-opacity:1" d="M 469.055,262.168 486.738,269.241 z" id="boundary" inkscape:connector-curvature="0" />
	<path style="fill:none;stroke:red;stroke-width:1px;stroke-linecap:butt;stroke-linejoin:miter;stroke-opacity:1" d="M 474.36,536.25 492.043,527.408 z" id="boundary" inkscape:connector-curvature="0" />
	<path style="fill:none;stroke:red;stroke-width:1px;stroke-linecap:butt;stroke-linejoin:miter;stroke-opacity:1" d="M 486.738,269.241 504.421,269.241 z" id="boundary" inkscape:connector-curvature="0" />
	<path style="fill:none;stroke:red;stroke-width:1px;stroke-linecap:butt;stroke-linejoin:miter;stroke-opacity:1" d="M 492.043,527.408 506.189,515.03 z" id="boundary" inkscape:connector-curvature="0" />
	<path style="fill:none;stroke:red;stroke-width:1px;stroke-linecap:butt;stroke-linejoin:miter;stroke-opacity:1" d="M 504.421,269.241 522.103,260.399 z" id="boundary" inkscape:connector-curvature="0" />
	<path style="fill:none;stroke:red;stroke-width:1px;stroke-linecap:butt;stroke-linejoin:miter;stroke-opacity:1" d="M 506.189,515.03 518.567,500.884 z" id="boundary" inkscape:connector-curvature="0" />
	<path style="fill:none;stroke:red;stroke-width:1px;stroke-linecap:butt;stroke-linejoin:miter;stroke-opacity:1" d="M 518.567,500.884 525.64,518.567 z" id="boundary" inkscape:connector-curvature="0" />
	<path style="fill:none;stroke:red;stroke-width:1px;stroke-linecap:butt;stroke-linejoin:miter;stroke-opacity:1" d="M 522.103,260.399 538.018,251.558 z" id="boundary" inkscape:connector-curvature="0" />
	<path style="fill:none;stroke:red;stroke-width:1px;stroke-linecap:butt;stroke-linejoin:miter;stroke-opacity:1" d="M 525.64,518.567 534.481,534.481 z" id="boundary" inkscape:connector-curvature="0" />
	<path style="fill:none;stroke:red;stroke-width:1px;stroke-linecap:butt;stroke-linejoin:miter;stroke-opacity:1" d="M 534.481,534.481 534.481,552.164 z" id="boundary" inkscape:connector-curvature="0" />
	<path style="fill:none;stroke:red;stroke-width:1px;stroke-linecap:butt;stroke-linejoin:miter;stroke-opacity:1" d="M 534.481,552.164 543.323,568.078 z" id="boundary" inkscape:connector-curvature="0" />
	<path style="fill:none;stroke:red;stroke-width:1px;stroke-linecap:butt;stroke-linejoin:miter;stroke-opacity:1" d="M 538.018,251.558 552.164,239.18 z" id="boundary" inkscape:connector-curvature="0" />
	<path style="fill:none;stroke:red;stroke-width:1px;stroke-linecap:butt;stroke-linejoin:miter;stroke-opacity:1" d="M 543.323,568.078 543.323,585.761 z" id="boundary" inkscape:connector-curvature="0" />
	<path style="fill:none;stroke:red;stroke-width:1px;stroke-linecap:butt;stroke-linejoin:miter;stroke-opacity:1" d="M 543.323,585.761 552.164,601.676 z" id="boundary" inkscape:connector-curvature="0" />
	<path style="fill:none;stroke:red;stroke-width:1px;stroke-linecap:butt;stroke-linejoin:miter;stroke-opacity:1" d="M 552.164,239.18 569.847,230.339 z" id="boundary" inkscape:connector-curvature="0" />
	<path style="fill:none;stroke:red;stroke-width:1px;stroke-linecap:butt;stroke-linejoin:miter;stroke-opacity:1" d="M 552.164,601.676 569.847,606.98 z" id="boundary" inkscape:connector-curvature="0" />
	<path style="fill:none;stroke:red;stroke-width:1px;stroke-linecap:butt;stroke-linejoin:miter;stroke-opacity:1" d="M 569.847,230.339 583.993,216.193 z" id="boundary" inkscape:connector-curvature="0" />
	<path style="fill:none;stroke:red;stroke-width:1px;stroke-linecap:butt;stroke-linejoin:miter;stroke-opacity:1" d="M 569.847,606.98 585.761,615.822 z" id="boundary" inkscape:connector-curvature="0" />
	<path style="fill:none;stroke:red;stroke-width:1px;stroke-linecap:butt;stroke-linejoin:miter;stroke-opacity:1" d="M 583.993,216.193 601.676,207.351 z" id="boundary" inkscape:connector-curvature="0" />
	<path style="fill:none;stroke:red;stroke-width:1px;stroke-linecap:butt;stroke-linejoin:miter;stroke-opacity:1" d="M 585.761,615.822 603.444,615.822 z" id="boundary" inkscape:connector-curvature="0" />
	<path style="fill:none;stroke:red;stroke-width:1px;stroke-linecap:butt;stroke-linejoin:miter;stroke-opacity:1" d="M 601.676,207.351 610.517,189.668 z" id="boundary" inkscape:connector-curvature="0" />
	<path style="fill:none;stroke:red;stroke-width:1px;stroke-linecap:butt;stroke-linejoin:miter;stroke-opacity:1" d="M 603.444,615.822 621.127,612.285 z" id="boundary" inkscape:connector-curvature="0" />
	<path style="fill:none;stroke:red;stroke-width:1px;stroke-linecap:butt;stroke-linejoin:miter;stroke-opacity:1" d="M 610.517,189.668 624.663,175.522 z" id="boundary" inkscape:connector-curvature="0" />
	<path style="fill:none;stroke:red;stroke-width:1px;stroke-linecap:butt;stroke-linejoin:miter;stroke-opacity:1" d="M 615.822,421.312 624.663,437.226 z" id="boundary" inkscape:connector-curvature="0" />
	<path style="fill:none;stroke:red;stroke-width:1px;stroke-linecap:butt;stroke-linejoin:miter;stroke-opacity:1" d="M 621.127,612.285 638.809,603.444 z" id="boundary" inkscape:connector-curvature="0" />
	<path style="fill:none;stroke:red;stroke-width:1px;stroke-linecap:butt;stroke-linejoin:miter;stroke-opacity:1" d="M 624.663,175.522 638.809,163.144 z" id="boundary" inkscape:connector-curvature="0" />
	<path style="fill:none;stroke:red;stroke-width:1px;stroke-linecap:butt;stroke-linejoin:miter;stroke-opacity:1" d="M 624.663,437.226 642.346,442.531 z" id="boundary" inkscape:connector-curvature="0" />
	<path style="fill:none;stroke:red;stroke-width:1px;stroke-linecap:butt;stroke-linejoin:miter;stroke-opacity:1" d="M 633.504,421.312 642.346,442.531 z" id="boundary" inkscape:connector-curvature="0" />
	<path style="fill:none;stroke:red;stroke-width:1px;stroke-linecap:butt;stroke-linejoin:miter;stroke-opacity:1" d="M 633.504,421.312 647.651,408.934 z" id="boundary" inkscape:connector-curvature="0" />
	<path style="fill:none;stroke:red;stroke-width:1px;stroke-linecap:butt;stroke-linejoin:miter;stroke-opacity:1" d="M 638.809,163.144 651.187,148.998 z" id="boundary" inkscape:connector-curvature="0" />
	<path style="fill:none;stroke:red;stroke-width:1px;stroke-linecap:butt;stroke-linejoin:miter;stroke-opacity:1" d="M 638.809,603.444 656.492,594.602 z" id="boundary" inkscape:connector-curvature="0" />
	<path style="fill:none;stroke:red;stroke-width:1px;stroke-linecap:butt;stroke-linejoin:miter;stroke-opacity:1" d="M 647.651,408.934 665.333,400.093 z" id="boundary" inkscape:connector-curvature="0" />
	<path style="fill:none;stroke:red;stroke-width:1px;stroke-linecap:butt;stroke-linejoin:miter;stroke-opacity:1" d="M 649.419,460.214 667.102,467.287 z" id="boundary" inkscape:connector-curvature="0" />
	<path style="fill:none;stroke:red;stroke-width:1px;stroke-linecap:butt;stroke-linejoin:miter;stroke-opacity:1" d="M 651.187,148.998 665.333,136.62 z" id="boundary" inkscape:connector-curvature="0" />
	<path style="fill:none;stroke:red;stroke-width:1px;stroke-linecap:butt;stroke-linejoin:miter;stroke-opacity:1" d="M 656.492,594.602 668.87,580.456 z" id="boundary" inkscape:connector-curvature="0" />
	<path style="fill:none;stroke:red;stroke-width:1px;stroke-linecap:butt;stroke-linejoin:miter;stroke-opacity:1" d="M 665.333,136.62 677.711,122.474 z" id="boundary" inkscape:connector-curvature="0" />
	<path style="fill:none;stroke:red;stroke-width:1px;stroke-linecap:butt;stroke-linejoin:miter;stroke-opacity:1" d="M 665.333,400.093 677.711,385.947 z" id="boundary" inkscape:connector-curvature="0" />
	<path style="fill:none;stroke:red;stroke-width:1px;stroke-linecap:butt;stroke-linejoin:miter;stroke-opacity:1" d="M 667.102,467.287 677.711,481.433 z" id="boundary" inkscape:connector-curvature="0" />
	<path style="fill:none;stroke:red;stroke-width:1px;stroke-linecap:butt;stroke-linejoin:miter;stroke-opacity:1" d="M 668.87,580.456 677.711,562.774 z" id="boundary" inkscape:connector-curvature="0" />
	<path style="fill:none;stroke:red;stroke-width:1px;stroke-linecap:butt;stroke-linejoin:miter;stroke-opacity:1" d="M 677.711,122.474 695.394,118.938 z" id="boundary" inkscape:connector-curvature="0" />
	<path style="fill:none;stroke:red;stroke-width:1px;stroke-linecap:butt;stroke-linejoin:miter;stroke-opacity:1" d="M 677.711,385.947 695.394,385.947 z" id="boundary" inkscape:connector-curvature="0" />
	<path style="fill:none;stroke:red;stroke-width:1px;stroke-linecap:butt;stroke-linejoin:miter;stroke-opacity:1" d="M 677.711,481.433 695.394,486.738 z" id="boundary" inkscape:connector-curvature="0" />
	<path style="fill:none;stroke:red;stroke-width:1px;stroke-linecap:butt;stroke-linejoin:miter;stroke-opacity:1" d="M 677.711,562.774 695.394,553.932 z" id="boundary" inkscape:connector-curvature="0" />
	<path style="fill:none;stroke:red;stroke-width:1px;stroke-linecap:butt;stroke-linejoin:miter;stroke-opacity:1" d="M 695.394,118.938 711.308,106.56 z" id="boundary" inkscape:connector-curvature="0" />
	<path style="fill:none;stroke:red;stroke-width:1px;stroke-linecap:butt;stroke-linejoin:miter;stroke-opacity:1" d="M 695.394,385.947 709.54,373.569 z" id="boundary" inkscape:connector-curvature="0" />
	<path style="fill:none;stroke:red;stroke-width:1px;stroke-linecap:butt;stroke-linejoin:miter;stroke-opacity:1" d="M 695.394,486.738 707.772,500.884 z" id="boundary" inkscape:connector-curvature="0" />
	<path style="fill:none;stroke:red;stroke-width:1px;stroke-linecap:butt;stroke-linejoin:miter;stroke-opacity:1" d="M 695.394,553.932 704.235,536.25 z" id="boundary" inkscape:connector-curvature="0" />
	<path style="fill:none;stroke:red;stroke-width:1px;stroke-linecap:butt;stroke-linejoin:miter;stroke-opacity:1" d="M 704.235,536.25 718.381,523.872 z" id="boundary" inkscape:connector-curvature="0" />
	<path style="fill:none;stroke:red;stroke-width:1px;stroke-linecap:butt;stroke-linejoin:miter;stroke-opacity:1" d="M 707.772,500.884 718.381,523.872 z" id="boundary" inkscape:connector-curvature="0" />
	<path style="fill:none;stroke:red;stroke-width:1px;stroke-linecap:butt;stroke-linejoin:miter;stroke-opacity:1" d="M 709.54,373.569 721.918,359.422 z" id="boundary" inkscape:connector-curvature="0" />
	<path style="fill:none;stroke:red;stroke-width:1px;stroke-linecap:butt;stroke-linejoin:miter;stroke-opacity:1" d="M 711.308,106.56 725.455,92.4135 z" id="boundary" inkscape:connector-curvature="0" />
	<path style="fill:none;stroke:red;stroke-width:1px;stroke-linecap:butt;stroke-linejoin:miter;stroke-opacity:1" d="M 721.918,359.422 739.601,350.581 z" id="boundary" inkscape:connector-curvature="0" />
	<path style="fill:none;stroke:red;stroke-width:1px;stroke-linecap:butt;stroke-linejoin:miter;stroke-opacity:1" d="M 725.455,92.4135 743.137,83.5722 z" id="boundary" inkscape:connector-curvature="0" />
	<path style="fill:none;stroke:red;stroke-width:1px;stroke-linecap:butt;stroke-linejoin:miter;stroke-opacity:1" d="M 739.601,350.581 753.747,338.203 z" id="boundary" inkscape:connector-curvature="0" />
	<path style="fill:none;stroke:red;stroke-width:1px;stroke-linecap:butt;stroke-linejoin:miter;stroke-opacity:1" d="M 743.137,83.5722 757.283,69.426 z" id="boundary" inkscape:connector-curvature="0" />
	<path style="fill:none;stroke:red;stroke-width:1px;stroke-linecap:butt;stroke-linejoin:miter;stroke-opacity:1" d="M 753.747,338.203 766.125,324.057 z" id="boundary" inkscape:connector-curvature="0" />
	<path style="fill:none;stroke:red;stroke-width:1px;stroke-linecap:butt;stroke-linejoin:miter;stroke-opacity:1" d="M 757.283,69.426 771.43,57.0481 z" id="boundary" inkscape:connector-curvature="0" />
	<path style="fill:none;stroke:red;stroke-width:1px;stroke-linecap:butt;stroke-linejoin:miter;stroke-opacity:1" d="M 766.125,306.374 766.125,324.057 z" id="boundary" inkscape:connector-curvature="0" />
	<path style="fill:none;stroke:red;stroke-width:1px;stroke-linecap:butt;stroke-linejoin:miter;stroke-opacity:1" d="M 766.125,306.374 780.271,293.996 z" id="boundary" inkscape:connector-curvature="0" />
	<path style="fill:none;stroke:red;stroke-width:1px;stroke-linecap:butt;stroke-linejoin:miter;stroke-opacity:1" d="M 771.43,57.0481 787.344,48.2068 z" id="boundary" inkscape:connector-curvature="0" />
	<path style="fill:none;stroke:red;stroke-width:1px;stroke-linecap:butt;stroke-linejoin:miter;stroke-opacity:1" d="M 780.271,293.996 792.649,279.85 z" id="boundary" inkscape:connector-curvature="0" />
	<path style="fill:none;stroke:red;stroke-width:1px;stroke-linecap:butt;stroke-linejoin:miter;stroke-opacity:1" d="M 787.344,48.2068 805.027,39.3654 z" id="boundary" inkscape:connector-curvature="0" />
	<path style="fill:none;stroke:red;stroke-width:1px;stroke-linecap:butt;stroke-linejoin:miter;stroke-opacity:1" d="M 792.649,279.85 808.563,271.009 z" id="boundary" inkscape:connector-curvature="0" />
	<path style="fill:none;stroke:red;stroke-width:1px;stroke-linecap:butt;stroke-linejoin:miter;stroke-opacity:1" d="M 805.027,39.3654 822.709,39.3654 z" id="boundary" inkscape:connector-curvature="0" />
	<path style="fill:none;stroke:red;stroke-width:1px;stroke-linecap:butt;stroke-linejoin:miter;stroke-opacity:1" d="M 808.563,271.009 822.709,260.399 z" id="boundary" inkscape:connector-curvature="0" />
	<path style="fill:none;stroke:red;stroke-width:1px;stroke-linecap:butt;stroke-linejoin:miter;stroke-opacity:1" d="M 822.709,39.3654 840.392,30.5241 z" id="boundary" inkscape:connector-curvature="0" />
	<path style="fill:none;stroke:red;stroke-width:1px;stroke-linecap:butt;stroke-linejoin:miter;stroke-opacity:1" d="M 822.709,260.399 831.551,242.717 z" id="boundary" inkscape:connector-curvature="0" />
	<path style="fill:none;stroke:red;stroke-width:1px;stroke-linecap:butt;stroke-linejoin:miter;stroke-opacity:1" d="M 831.551,242.717 845.697,226.802 z" id="boundary" inkscape:connector-curvature="0" />
	<path style="fill:none;stroke:red;stroke-width:1px;stroke-linecap:butt;stroke-linejoin:miter;stroke-opacity:1" d="M 840.392,30.5241 858.075,21.6827 z" id="boundary" inkscape:connector-curvature="0" />
	<path style="fill:none;stroke:red;stroke-width:1px;stroke-linecap:butt;stroke-linejoin:miter;stroke-opacity:1" d="M 845.697,226.802 859.843,214.424 z" id="boundary" inkscape:connector-curvature="0" />
	<path style="fill:none;stroke:red;stroke-width:1px;stroke-linecap:butt;stroke-linejoin:miter;stroke-opacity:1" d="M 858.075,21.6827 875.758,21.6827 z" id="boundary" inkscape:connector-curvature="0" />
	<path style="fill:none;stroke:red;stroke-width:1px;stroke-linecap:butt;stroke-linejoin:miter;stroke-opacity:1" d="M 859.843,214.424 877.526,205.583 z" id="boundary" inkscape:connector-curvature="0" />
	<path style="fill:none;stroke:red;stroke-width:1px;stroke-linecap:butt;stroke-linejoin:miter;stroke-opacity:1" d="M 875.758,21.6827 891.672,12.8414 z" id="boundary" inkscape:connector-curvature="0" />
	<path style="fill:none;stroke:red;stroke-width:1px;stroke-linecap:butt;stroke-linejoin:miter;stroke-opacity:1" d="M 877.526,205.583 888.135,191.437 z" id="boundary" inkscape:connector-curvature="0" />
	<path style="fill:none;stroke:red;stroke-width:1px;stroke-linecap:butt;stroke-linejoin:miter;stroke-opacity:1" d="M 888.135,191.437 904.05,182.595 z" id="boundary" inkscape:connector-curvature="0" />
	<path style="fill:none;stroke:red;stroke-width:1px;stroke-linecap:butt;stroke-linejoin:miter;stroke-opacity:1" d="M 891.672,12.8414 907.586,4 z" id="boundary" inkscape:connector-curvature="0" />
	<path style="fill:none;stroke:red;stroke-width:1px;stroke-linecap:butt;stroke-linejoin:miter;stroke-opacity:1" d="M 904.05,182.595 919.964,171.986 z" id="boundary" inkscape:connector-curvature="0" />
	<path style="fill:none;stroke:red;stroke-width:1px;stroke-linecap:butt;stroke-linejoin:miter;stroke-opacity:1" d="M 907.586,4 916.428,19.9144 z" id="boundary" inkscape:connector-curvature="0" />
	<path style="fill:none;stroke:red;stroke-width:1px;stroke-linecap:butt;stroke-linejoin:miter;stroke-opacity:1" d="M 916.428,19.9144 934.111,21.6827 z" id="boundary" inkscape:connector-curvature="0" />
	<path style="fill:none;stroke:red;stroke-width:1px;stroke-linecap:butt;stroke-linejoin:miter;stroke-opacity:1" d="M 919.964,171.986 937.647,164.913 z" id="boundary" inkscape:connector-curvature="0" />
	<path style="fill:none;stroke:red;stroke-width:1px;stroke-linecap:butt;stroke-linejoin:miter;stroke-opacity:1" d="M 934.111,21.6827 951.793,21.6827 z" id="boundary" inkscape:connector-curvature="0" />
	<path style="fill:none;stroke:red;stroke-width:1px;stroke-linecap:butt;stroke-linejoin:miter;stroke-opacity:1" d="M 937.647,164.913 953.561,156.071 z" id="boundary" inkscape:connector-curvature="0" />
	<path style="fill:none;stroke:red;stroke-width:1px;stroke-linecap:butt;stroke-linejoin:miter;stroke-opacity:1" d="M 951.793,21.6827 969.476,18.1462 z" id="boundary" inkscape:connector-curvature="0" />
	<path style="fill:none;stroke:red;stroke-width:1px;stroke-linecap:butt;stroke-linejoin:miter;stroke-opacity:1" d="M 951.793,138.389 953.561,156.071 z" id="boundary" inkscape:connector-curvature="0" />
	<path style="fill:none;stroke:red;stroke-width:1px;stroke-linecap:butt;stroke-linejoin:miter;stroke-opacity:1" d="M 951.793,138.389 969.476,138.389 z" id="boundary" inkscape:connector-curvature="0" />
	<path style="fill:none;stroke:red;stroke-width:1px;stroke-linecap:butt;stroke-linejoin:miter;stroke-opacity:1" d="M 960.635,37.5971 960.635,58.8164 z" id="boundary" inkscape:connector-curvature="0" />
	<path style="fill:none;stroke:red;stroke-width:1px;stroke-linecap:butt;stroke-linejoin:miter;stroke-opacity:1" d="M 960.635,58.8164 978.317,58.8164 z" id="boundary" inkscape:connector-curvature="0" />
	<path style="fill:none;stroke:red;stroke-width:1px;stroke-linecap:butt;stroke-linejoin:miter;stroke-opacity:1" d="M 969.476,18.1462 978.317,39.3654 z" id="boundary" inkscape:connector-curvature="0" />
	<path style="fill:none;stroke:red;stroke-width:1px;stroke-linecap:butt;stroke-linejoin:miter;stroke-opacity:1" d="M 969.476,138.389 987.159,127.779 z" id="boundary" inkscape:connector-curvature="0" />
	<path style="fill:none;stroke:red;stroke-width:1px;stroke-linecap:butt;stroke-linejoin:miter;stroke-opacity:1" d="M 978.317,39.3654 978.317,58.8164 z" id="boundary" inkscape:connector-curvature="0" />
	<path style="fill:none;stroke:red;stroke-width:1px;stroke-linecap:butt;stroke-linejoin:miter;stroke-opacity:1" d="M 978.317,94.1818 978.317,111.865 z" id="boundary" inkscape:connector-curvature="0" />
	<path style="fill:none;stroke:red;stroke-width:1px;stroke-linecap:butt;stroke-linejoin:miter;stroke-opacity:1" d="M 978.317,94.1818 992.463,69.426 z" id="boundary" inkscape:connector-curvature="0" />
	<path style="fill:none;stroke:red;stroke-width:1px;stroke-linecap:butt;stroke-linejoin:miter;stroke-opacity:1" d="M 978.317,111.865 987.159,127.779 z" id="boundary" inkscape:connector-curvature="0" />
	<path style="fill:none;stroke:red;stroke-width:1px;stroke-linecap:butt;stroke-linejoin:miter;stroke-opacity:1" d="M 992.463,69.426 996,44.6702 z" id="boundary" inkscape:connector-curvature="0" />
	<circle cx="4" cy="725.455" r="4" fill="#0" id="circle0"/>
	<circle cx="18.1462" cy="711.308" r="4" fill="#0" id="circle1"/>
	<circle cx="21.6827" cy="654.724" r="4" fill="#0" id="circle2"/>
	<circle cx="30.5241" cy="681.248" r="4" fill="#0" id="circle3"/>
	<circle cx="30.5241" cy="743.137" r="4" fill="#0" id="circle4"/>
	<circle cx="35.8289" cy="640.578" r="4" fill="#0" id="circle5"/>
	<circle cx="35.8289" cy="713.077" r="4" fill="#0" id="circle6"/>
	<circle cx="39.3654" cy="660.029" r="4" fill="#0" id="circle7"/>
	<circle cx="48.2068" cy="743.137" r="4" fill="#0" id="circle8"/>
	<circle cx="49.975" cy="626.431" r="4" fill="#0" id="circle9"/>
	<circle cx="57.0481" cy="725.455" r="4" fill="#0" id="circle10"/>
	<circle cx="57.0481" cy="759.052" r="4" fill="#0" id="circle11"/>
	<circle cx="58.8164" cy="608.749" r="4" fill="#0" id="circle12"/>
	<circle cx="65.8895" cy="741.369" r="4" fill="#0" id="circle13"/>
	<circle cx="72.9626" cy="596.371" r="4" fill="#0" id="circle14"/>
	<circle cx="74.7308" cy="721.918" r="4" fill="#0" id="circle15"/>
	<circle cx="74.7308" cy="757.283" r="4" fill="#0" id="circle16"/>
	<circle cx="85.3405" cy="739.601" r="4" fill="#0" id="circle17"/>
	<circle cx="88.877" cy="587.529" r="4" fill="#0" id="circle18"/>
	<circle cx="92.4135" cy="566.31" r="4" fill="#0" id="circle19"/>
	<circle cx="94.1818" cy="721.918" r="4" fill="#0" id="circle20"/>
	<circle cx="101.255" cy="748.442" r="4" fill="#0" id="circle21"/>
	<circle cx="106.56" cy="552.164" r="4" fill="#0" id="circle22"/>
	<circle cx="117.169" cy="739.601" r="4" fill="#0" id="circle23"/>
	<circle cx="120.706" cy="538.018" r="4" fill="#0" id="circle24"/>
	<circle cx="124.242" cy="757.283" r="4" fill="#0" id="circle25"/>
	<circle cx="134.852" cy="525.64" r="4" fill="#0" id="circle26"/>
	<circle cx="136.62" cy="743.137" r="4" fill="#0" id="circle27"/>
	<circle cx="150.766" cy="516.799" r="4" fill="#0" id="circle28"/>
	<circle cx="150.766" cy="730.759" r="4" fill="#0" id="circle29"/>
	<circle cx="164.913" cy="502.652" r="4" fill="#0" id="circle30"/>
	<circle cx="168.449" cy="728.991" r="4" fill="#0" id="circle31"/>
	<circle cx="179.059" cy="490.275" r="4" fill="#0" id="circle32"/>
	<circle cx="182.595" cy="713.077" r="4" fill="#0" id="circle33"/>
	<circle cx="194.973" cy="481.433" r="4" fill="#0" id="circle34"/>
	<circle cx="198.51" cy="704.235" r="4" fill="#0" id="circle35"/>
	<circle cx="209.119" cy="686.553" r="4" fill="#0" id="circle36"/>
	<circle cx="212.656" cy="472.592" r="4" fill="#0" id="circle37"/>
	<circle cx="223.266" cy="674.175" r="4" fill="#0" id="circle38"/>
	<circle cx="228.57" cy="463.75" r="4" fill="#0" id="circle39"/>
	<circle cx="235.643" cy="660.029" r="4" fill="#0" id="circle40"/>
	<circle cx="242.717" cy="442.531" r="4" fill="#0" id="circle41"/>
	<circle cx="251.558" cy="651.187" r="4" fill="#0" id="circle42"/>
	<circle cx="260.399" cy="433.69" r="4" fill="#0" id="circle43"/>
	<circle cx="269.241" cy="645.882" r="4" fill="#0" id="circle44"/>
	<circle cx="278.082" cy="424.848" r="4" fill="#0" id="circle45"/>
	<circle cx="286.923" cy="637.041" r="4" fill="#0" id="circle46"/>
	<circle cx="295.765" cy="416.007" r="4" fill="#0" id="circle47"/>
	<circle cx="304.606" cy="633.504" r="4" fill="#0" id="circle48"/>
	<circle cx="309.911" cy="401.861" r="4" fill="#0" id="circle49"/>
	<circle cx="320.52" cy="624.663" r="4" fill="#0" id="circle50"/>
	<circle cx="327.594" cy="401.861" r="4" fill="#0" id="circle51"/>
	<circle cx="338.203" cy="621.127" r="4" fill="#0" id="circle52"/>
	<circle cx="343.508" cy="393.02" r="4" fill="#0" id="circle53"/>
	<circle cx="355.886" cy="615.822" r="4" fill="#0" id="circle54"/>
	<circle cx="357.654" cy="380.642" r="4" fill="#0" id="circle55"/>
	<circle cx="371.8" cy="606.98" r="4" fill="#0" id="circle56"/>
	<circle cx="375.337" cy="371.8" r="4" fill="#0" id="circle57"/>
	<circle cx="387.715" cy="598.139" r="4" fill="#0" id="circle58"/>
	<circle cx="389.483" cy="357.654" r="4" fill="#0" id="circle59"/>
	<circle cx="401.861" cy="239.18" r="4" fill="#0" id="circle60"/>
	<circle cx="401.861" cy="256.863" r="4" fill="#0" id="circle61"/>
	<circle cx="401.861" cy="274.545" r="4" fill="#0" id="circle62"/>
	<circle cx="401.861" cy="336.435" r="4" fill="#0" id="circle63"/>
	<circle cx="403.629" cy="589.298" r="4" fill="#0" id="circle64"/>
	<circle cx="410.702" cy="290.46" r="4" fill="#0" id="circle65"/>
	<circle cx="410.702" cy="308.143" r="4" fill="#0" id="circle66"/>
	<circle cx="419.544" cy="237.412" r="4" fill="#0" id="circle67"/>
	<circle cx="421.312" cy="580.456" r="4" fill="#0" id="circle68"/>
	<circle cx="430.153" cy="562.774" r="4" fill="#0" id="circle69"/>
	<circle cx="435.458" cy="246.253" r="4" fill="#0" id="circle70"/>
	<circle cx="447.836" cy="562.774" r="4" fill="#0" id="circle71"/>
	<circle cx="453.141" cy="253.326" r="4" fill="#0" id="circle72"/>
	<circle cx="461.982" cy="550.396" r="4" fill="#0" id="circle73"/>
	<circle cx="469.055" cy="262.168" r="4" fill="#0" id="circle74"/>
	<circle cx="474.36" cy="536.25" r="4" fill="#0" id="circle75"/>
	<circle cx="486.738" cy="269.241" r="4" fill="#0" id="circle76"/>
	<circle cx="492.043" cy="527.408" r="4" fill="#0" id="circle77"/>
	<circle cx="504.421" cy="269.241" r="4" fill="#0" id="circle78"/>
	<circle cx="506.189" cy="515.03" r="4" fill="#0" id="circle79"/>
	<circle cx="518.567" cy="500.884" r="4" fill="#0" id="circle80"/>
	<circle cx="522.103" cy="260.399" r="4" fill="#0" id="circle81"/>
	<circle cx="525.64" cy="518.567" r="4" fill="#0" id="circle82"/>
	<circle cx="534.481" cy="534.481" r="4" fill="#0" id="circle83"/>
	<circle cx="534.481" cy="552.164" r="4" fill="#0" id="circle84"/>
	<circle cx="538.018" cy="251.558" r="4" fill="#0" id="circle85"/>
	<circle cx="543.323" cy="568.078" r="4" fill="#0" id="circle86"/>
	<circle cx="543.323" cy="585.761" r="4" fill="#0" id="circle87"/>
	<circle cx="552.164" cy="239.18" r="4" fill="#0" id="circle88"/>
	<circle cx="552.164" cy="601.676" r="4" fill="#0" id="circle89"/>
	<circle cx="569.847" cy="230.339" r="4" fill="#0" id="circle90"/>
	<circle cx="569.847" cy="606.98" r="4" fill="#0" id="circle91"/>
	<circle cx="583.993" cy="216.193" r="4" fill="#0" id="circle92"/>
	<circle cx="585.761" cy="615.822" r="4" fill="#0" id="circle93"/>
	<circle cx="601.676" cy="207.351" r="4" fill="#0" id="circle94"/>
	<circle cx="603.444" cy="615.822" r="4" fill="#0" id="circle95"/>
	<circle cx="610.517" cy="189.668" r="4" fill="#0" id="circle96"/>
	<circle cx="615.822" cy="421.312" r="4" fill="#0" id="circle97"/>
	<circle cx="621.127" cy="612.285" r="4" fill="#0" id="circle98"/>
	<circle cx="624.663" cy="175.522" r="4" fill="#0" id="circle99"/>
	<circle cx="624.663" cy="437.226" r="4" fill="#0" id="circle100"/>
	<circle cx="633.504" cy="421.312" r="4" fill="#0" id="circle101"/>
	<circle cx="638.809" cy="163.144" r="4" fill="#0" id="circle102"/>
	<circle cx="638.809" cy="603.444" r="4" fill="#0" id="circle103"/>
	<circle cx="642.346" cy="442.531" r="4" fill="#0" id="circle104"/>
	<circle cx="647.651" cy="408.934" r="4" fill="#0" id="circle105"/>
	<circle cx="649.419" cy="460.214" r="4" fill="#0" id="circle106"/>
	<circle cx="651.187" cy="148.998" r="4" fill="#0" id="circle107"/>
	<circle cx="656.492" cy="594.602" r="4" fill="#0" id="circle108"/>
	<circle cx="665.333" cy="136.62" r="4" fill="#0" id="circle109"/>
	<circle cx="665.333" cy="400.093" r="4" fill="#0" id="circle110"/>
	<circle cx="667.102" cy="467.287" r="4" fill="#0" id="circle111"/>
	<circle cx="668.87" cy="580.456" r="4" fill="#0" id="circle112"/>
	<circle cx="677.711" cy="122.474" r="4" fill="#0" id="circle113"/>
	<circle cx="677.711" cy="385.947" r="4" fill="#0" id="circle114"/>
	<circle cx="677.711" cy="481.433" r="4" fill="#0" id="circle115"/>
	<circle cx="677.711" cy="562.774" r="4" fill="#0" id="circle116"/>
	<circle cx="695.394" cy="118.938" r="4" fill="#0" id="circle117"/>
	<circle cx="695.394" cy="385.947" r="4" fill="#0" id="circle118"/>
	<circle cx="695.394" cy="486.738" r="4" fill="#0" id="circle119"/>
	<circle cx="695.394" cy="553.932" r="4" fill="#0" id="circle120"/>
	<circle cx="704.235" cy="536.25" r="4" fill="#0" id="circle121"/>
	<circle cx="707.772" cy="500.884" r="4" fill="#0" id="circle122"/>
	<circle cx="709.54" cy="373.569" r="4" fill="#0" id="circle123"/>
	<circle cx="711.308" cy="106.56" r="4" fill="#0" id="circle124"/>
	<circle cx="718.381" cy="523.872" r="4" fill="#0" id="circle125"/>
	<circle cx="721.918" cy="359.422" r="4" fill="#0" id="circle126"/>
	<circle cx="725.455" cy="92.4135" r="4" fill="#0" id="circle127"/>
	<circle cx="739.601" cy="350.581" r="4" fill="#0" id="circle128"/>
	<circle cx="743.137" cy="83.5722" r="4" fill="#0" id="circle129"/>
	<circle cx="753.747" cy="338.203" r="4" fill="#0" id="circle130"/>
	<circle cx="757.283" cy="69.426" r="4" fill="#0" id="circle131"/>
	<circle cx="766.125" cy="306.374" r="4" fill="#0" id="circle132"/>
	<circle cx="766.125" cy="324.057" r="4" fill="#0" id="circle133"/>
	<circle cx="771.43" cy="57.0481" r="4" fill="#0" id="circle134"/>
	<circle cx="780.271" cy="293.996" r="4" fill="#0" id="circle135"/>
	<circle cx="787.344" cy="48.2068" r="4" fill="#0" id="circle136"/>
	<circle cx="792.649" cy="279.85" r="4" fill="#0" id="circle137"/>
	<circle cx="805.027" cy="39.3654" r="4" fill="#0" id="circle138"/>
	<circle cx="808.563" cy="271.009" r="4" fill="#0" id="circle139"/>
	<circle cx="822.709" cy="39.3654" r="4" fill="#0" id="circle140"/>
	<circle cx="822.709" cy="260.399" r="4" fill="#0" id="circle141"/>
	<circle cx="831.551" cy="242.717" r="4" fill="#0" id="circle142"/>
	<circle cx="840.392" cy="30.5241" r="4" fill="#0" id="circle143"/>
	<circle cx="845.697" cy="226.802" r="4" fill="#0" id="circle144"/>
	<circle cx="858.075" cy="21.6827" r="4" fill="#0" id="circle145"/>
	<circle cx="859.843" cy="214.424" r="4" fill="#0" id="circle146"/>
	<circle cx="875.758" cy="21.6827" r="4" fill="#0" id="circle147"/>
	<circle cx="877.526" cy="205.583" r="4" fill="#0" id="circle148"/>
	<circle cx="888.135" cy="191.437" r="4" fill="#0" id="circle149"/>
	<circle cx="891.672" cy="12.8414" r="4" fill="#0" id="circle150"/>
	<circle cx="904.05" cy="182.595" r="4" fill="#0" id="circle151"/>
	<circle cx="907.586" cy="4" r="4" fill="#0" id="circle152"/>
	<circle cx="916.428" cy="19.9144" r="4" fill="#0" id="circle153"/>
	<circle cx="919.964" cy="171.986" r="4" fill="#0" id="circle154"/>
	<circle cx="934.111" cy="21.6827" r="4" fill="#0" id="circle155"/>
	<circle cx="937.647" cy="164.913" r="4" fill="#0" id="circle156"/>
	<circle cx="951.793" cy="21.6827" r="4" fill="#0" id="circle157"/>
	<circle cx="951.793" cy="138.389" r="4" fill="#0" id="circle158"/>
	<circle cx="953.561" cy="156.071" r="4" fill="#0" id="circle159"/>
	<circle cx="960.635" cy="37.5971" r="4" fill="#0" id="circle160"/>
	<circle cx="960.635" cy="58.8164" r="4" fill="#0" id="circle161"/>
	<circle cx="960.635" cy="94.1818" r="4" fill="#0" id="circle162"/>
	<circle cx="969.476" cy="18.1462" r="4" fill="#0" id="circle163"/>
	<circle cx="969.476" cy="138.389" r="4" fill="#0" id="circle164"/>
	<circle cx="978.317" cy="39.3654" r="4" fill="#0" id="circle165"/>
	<circle cx="978.317" cy="58.8164" r="4" fill="#0" id="circle166"/>
	<circle cx="978.317" cy="94.1818" r="4" fill="#0" id="circle167"/>
	<circle cx="978.317" cy="111.865" r="4" fill="#0" id="circle168"/>
	<circle cx="987.159" cy="127.779" r="4" fill="#0" id="circle169"/>
	<circle cx="992.463" cy="69.426" r="4" fill="#0" id="circle170"/>
	<circle cx="996" cy="44.6702" r="4" fill="#0" id="circle171"/>
	<circle cx="996" cy="101.255" r="4" fill="#0" id="circle172"/>
	</g>
</svg>