<?xml version="1.0" encoding="UTF-8" standalone="no"?>
<!-- Created with CurveBenchmark -->
<svg
	xmlns:dc="http://purl.org/dc/elements/1.1/"
	xmlns:cc="http://creativecommons.org/ns#"
	xmlns:rdf="http://www.w3.org/1999/02/22-rdf-syntax-ns#"
	xmlns:svg="http://www.w3.org/2000/svg"
	xmlns="http://www.w3.org/2000/svg"
	xmlns:sodipodi="http://sodipodi.sourceforge.net/DTD/sodipodi-0.dtd"
	xmlns:inkscape="http://www.inkscape.org/namespaces/inkscape"
	width="1000"
	height="1000"
	id="svg2"
	version="1.1"
	sodipodi:docname="manifold/vicur-teddy040.png.txt">
<defs
	id="defs4" />
<metadata
	id="metadata7">
	<rdf:RDF>
		<cc:Work
			rdf:about="">
			<dc:format>image/svg+xml</dc:format>
			<dc:type
				rdf:resource="http://purl.org/dc/dcmitype/StillImage" />
			<dc:title></dc:title>
		</cc:Work>
	</rdf:RDF>
</metadata>
<g
	inkscape:label="Layer 1"
	inkscape:groupmode="layer"
	id="layer1">
	<path style="fill:none;stroke:red;stroke-width:1px;stroke-linecap:butt;stroke-linejoin:miter;stroke-opacity:1" d="M 4,512.718 9.65242,540.98 z" id="boundary" inkscape:connector-curvature="0" />
	<path style="fill:none;stroke:red;stroke-width:1px;stroke-linecap:butt;stroke-linejoin:miter;stroke-opacity:1" d="M 4,512.718 15.3048,484.456 z" id="boundary" inkscape:connector-curvature="0" />
	<path style="fill:none;stroke:red;stroke-width:1px;stroke-linecap:butt;stroke-linejoin:miter;stroke-opacity:1" d="M 9.65242,540.98 20.9573,569.242 z" id="boundary" inkscape:connector-curvature="0" />
	<path style="fill:none;stroke:red;stroke-width:1px;stroke-linecap:butt;stroke-linejoin:miter;stroke-opacity:1" d="M 15.3048,484.456 32.2621,461.846 z" id="boundary" inkscape:connector-curvature="0" />
	<path style="fill:none;stroke:red;stroke-width:1px;stroke-linecap:butt;stroke-linejoin:miter;stroke-opacity:1" d="M 20.9573,569.242 40.7407,591.852 z" id="boundary" inkscape:connector-curvature="0" />
	<path style="fill:none;stroke:red;stroke-width:1px;stroke-linecap:butt;stroke-linejoin:miter;stroke-opacity:1" d="M 32.2621,461.846 60.5242,450.541 z" id="boundary" inkscape:connector-curvature="0" />
	<path style="fill:none;stroke:red;stroke-width:1px;stroke-linecap:butt;stroke-linejoin:miter;stroke-opacity:1" d="M 37.9145,840.558 37.9145,868.821 z" id="boundary" inkscape:connector-curvature="0" />
	<path style="fill:none;stroke:red;stroke-width:1px;stroke-linecap:butt;stroke-linejoin:miter;stroke-opacity:1" d="M 37.9145,840.558 49.2194,800.991 z" id="boundary" inkscape:connector-curvature="0" />
	<path style="fill:none;stroke:red;stroke-width:1px;stroke-linecap:butt;stroke-linejoin:miter;stroke-opacity:1" d="M 37.9145,868.821 37.9145,897.083 z" id="boundary" inkscape:connector-curvature="0" />
	<path style="fill:none;stroke:red;stroke-width:1px;stroke-linecap:butt;stroke-linejoin:miter;stroke-opacity:1" d="M 37.9145,897.083 37.9145,925.345 z" id="boundary" inkscape:connector-curvature="0" />
	<path style="fill:none;stroke:red;stroke-width:1px;stroke-linecap:butt;stroke-linejoin:miter;stroke-opacity:1" d="M 37.9145,925.345 49.2194,953.607 z" id="boundary" inkscape:connector-curvature="0" />
	<path style="fill:none;stroke:red;stroke-width:1px;stroke-linecap:butt;stroke-linejoin:miter;stroke-opacity:1" d="M 40.7407,591.852 63.3504,611.635 z" id="boundary" inkscape:connector-curvature="0" />
	<path style="fill:none;stroke:red;stroke-width:1px;stroke-linecap:butt;stroke-linejoin:miter;stroke-opacity:1" d="M 49.2194,800.991 60.5242,767.077 z" id="boundary" inkscape:connector-curvature="0" />
	<path style="fill:none;stroke:red;stroke-width:1px;stroke-linecap:butt;stroke-linejoin:miter;stroke-opacity:1" d="M 49.2194,953.607 71.8291,970.564 z" id="boundary" inkscape:connector-curvature="0" />
	<path style="fill:none;stroke:red;stroke-width:1px;stroke-linecap:butt;stroke-linejoin:miter;stroke-opacity:1" d="M 60.5242,450.541 88.7863,439.236 z" id="boundary" inkscape:connector-curvature="0" />
	<path style="fill:none;stroke:red;stroke-width:1px;stroke-linecap:butt;stroke-linejoin:miter;stroke-opacity:1" d="M 60.5242,767.077 83.1339,750.12 z" id="boundary" inkscape:connector-curvature="0" />
	<path style="fill:none;stroke:red;stroke-width:1px;stroke-linecap:butt;stroke-linejoin:miter;stroke-opacity:1" d="M 63.3504,611.635 85.9601,628.593 z" id="boundary" inkscape:connector-curvature="0" />
	<path style="fill:none;stroke:red;stroke-width:1px;stroke-linecap:butt;stroke-linejoin:miter;stroke-opacity:1" d="M 71.8291,970.564 94.4387,987.521 z" id="boundary" inkscape:connector-curvature="0" />
	<path style="fill:none;stroke:red;stroke-width:1px;stroke-linecap:butt;stroke-linejoin:miter;stroke-opacity:1" d="M 83.1339,750.12 105.744,733.162 z" id="boundary" inkscape:connector-curvature="0" />
	<path style="fill:none;stroke:red;stroke-width:1px;stroke-linecap:butt;stroke-linejoin:miter;stroke-opacity:1" d="M 85.9601,628.593 114.222,639.897 z" id="boundary" inkscape:connector-curvature="0" />
	<path style="fill:none;stroke:red;stroke-width:1px;stroke-linecap:butt;stroke-linejoin:miter;stroke-opacity:1" d="M 88.7863,439.236 117.048,433.584 z" id="boundary" inkscape:connector-curvature="0" />
	<path style="fill:none;stroke:red;stroke-width:1px;stroke-linecap:butt;stroke-linejoin:miter;stroke-opacity:1" d="M 94.4387,987.521 122.701,996 z" id="boundary" inkscape:connector-curvature="0" />
	<path style="fill:none;stroke:red;stroke-width:1px;stroke-linecap:butt;stroke-linejoin:miter;stroke-opacity:1" d="M 105.744,733.162 134.006,727.51 z" id="boundary" inkscape:connector-curvature="0" />
	<path style="fill:none;stroke:red;stroke-width:1px;stroke-linecap:butt;stroke-linejoin:miter;stroke-opacity:1" d="M 114.222,639.897 142.484,651.202 z" id="boundary" inkscape:connector-curvature="0" />
	<path style="fill:none;stroke:red;stroke-width:1px;stroke-linecap:butt;stroke-linejoin:miter;stroke-opacity:1" d="M 117.048,433.584 134.006,410.974 z" id="boundary" inkscape:connector-curvature="0" />
	<path style="fill:none;stroke:red;stroke-width:1px;stroke-linecap:butt;stroke-linejoin:miter;stroke-opacity:1" d="M 122.701,996 150.963,996 z" id="boundary" inkscape:connector-curvature="0" />
	<path style="fill:none;stroke:red;stroke-width:1px;stroke-linecap:butt;stroke-linejoin:miter;stroke-opacity:1" d="M 134.006,410.974 162.268,399.67 z" id="boundary" inkscape:connector-curvature="0" />
	<path style="fill:none;stroke:red;stroke-width:1px;stroke-linecap:butt;stroke-linejoin:miter;stroke-opacity:1" d="M 134.006,727.51 162.268,727.51 z" id="boundary" inkscape:connector-curvature="0" />
	<path style="fill:none;stroke:red;stroke-width:1px;stroke-linecap:butt;stroke-linejoin:miter;stroke-opacity:1" d="M 142.484,651.202 170.746,659.681 z" id="boundary" inkscape:connector-curvature="0" />
	<path style="fill:none;stroke:red;stroke-width:1px;stroke-linecap:butt;stroke-linejoin:miter;stroke-opacity:1" d="M 150.963,996 179.225,996 z" id="boundary" inkscape:connector-curvature="0" />
	<path style="fill:none;stroke:red;stroke-width:1px;stroke-linecap:butt;stroke-linejoin:miter;stroke-opacity:1" d="M 162.268,399.67 190.53,388.365 z" id="boundary" inkscape:connector-curvature="0" />
	<path style="fill:none;stroke:red;stroke-width:1px;stroke-linecap:butt;stroke-linejoin:miter;stroke-opacity:1" d="M 162.268,727.51 190.53,727.51 z" id="boundary" inkscape:connector-curvature="0" />
	<path style="fill:none;stroke:red;stroke-width:1px;stroke-linecap:butt;stroke-linejoin:miter;stroke-opacity:1" d="M 170.746,659.681 199.009,668.16 z" id="boundary" inkscape:connector-curvature="0" />
	<path style="fill:none;stroke:red;stroke-width:1px;stroke-linecap:butt;stroke-linejoin:miter;stroke-opacity:1" d="M 179.225,996 207.487,996 z" id="boundary" inkscape:connector-curvature="0" />
	<path style="fill:none;stroke:red;stroke-width:1px;stroke-linecap:butt;stroke-linejoin:miter;stroke-opacity:1" d="M 184.877,60.5242 184.877,88.7863 z" id="boundary" inkscape:connector-curvature="0" />
	<path style="fill:none;stroke:red;stroke-width:1px;stroke-linecap:butt;stroke-linejoin:miter;stroke-opacity:1" d="M 184.877,60.5242 201.835,37.9145 z" id="boundary" inkscape:connector-curvature="0" />
	<path style="fill:none;stroke:red;stroke-width:1px;stroke-linecap:butt;stroke-linejoin:miter;stroke-opacity:1" d="M 184.877,88.7863 190.53,117.048 z" id="boundary" inkscape:connector-curvature="0" />
	<path style="fill:none;stroke:red;stroke-width:1px;stroke-linecap:butt;stroke-linejoin:miter;stroke-opacity:1" d="M 190.53,117.048 199.009,145.311 z" id="boundary" inkscape:connector-curvature="0" />
	<path style="fill:none;stroke:red;stroke-width:1px;stroke-linecap:butt;stroke-linejoin:miter;stroke-opacity:1" d="M 190.53,388.365 218.792,382.712 z" id="boundary" inkscape:connector-curvature="0" />
	<path style="fill:none;stroke:red;stroke-width:1px;stroke-linecap:butt;stroke-linejoin:miter;stroke-opacity:1" d="M 190.53,727.51 218.792,716.205 z" id="boundary" inkscape:connector-curvature="0" />
	<path style="fill:none;stroke:red;stroke-width:1px;stroke-linecap:butt;stroke-linejoin:miter;stroke-opacity:1" d="M 199.009,145.311 213.14,170.746 z" id="boundary" inkscape:connector-curvature="0" />
	<path style="fill:none;stroke:red;stroke-width:1px;stroke-linecap:butt;stroke-linejoin:miter;stroke-opacity:1" d="M 199.009,668.16 227.271,668.16 z" id="boundary" inkscape:connector-curvature="0" />
	<path style="fill:none;stroke:red;stroke-width:1px;stroke-linecap:butt;stroke-linejoin:miter;stroke-opacity:1" d="M 201.835,37.9145 224.444,20.9573 z" id="boundary" inkscape:connector-curvature="0" />
	<path style="fill:none;stroke:red;stroke-width:1px;stroke-linecap:butt;stroke-linejoin:miter;stroke-opacity:1" d="M 207.487,996 235.749,990.348 z" id="boundary" inkscape:connector-curvature="0" />
	<path style="fill:none;stroke:red;stroke-width:1px;stroke-linecap:butt;stroke-linejoin:miter;stroke-opacity:1" d="M 213.14,170.746 218.792,199.009 z" id="boundary" inkscape:connector-curvature="0" />
	<path style="fill:none;stroke:red;stroke-width:1px;stroke-linecap:butt;stroke-linejoin:miter;stroke-opacity:1" d="M 218.792,199.009 218.792,227.271 z" id="boundary" inkscape:connector-curvature="0" />
	<path style="fill:none;stroke:red;stroke-width:1px;stroke-linecap:butt;stroke-linejoin:miter;stroke-opacity:1" d="M 218.792,227.271 218.792,255.533 z" id="boundary" inkscape:connector-curvature="0" />
	<path style="fill:none;stroke:red;stroke-width:1px;stroke-linecap:butt;stroke-linejoin:miter;stroke-opacity:1" d="M 218.792,255.533 218.792,283.795 z" id="boundary" inkscape:connector-curvature="0" />
	<path style="fill:none;stroke:red;stroke-width:1px;stroke-linecap:butt;stroke-linejoin:miter;stroke-opacity:1" d="M 218.792,283.795 224.444,312.057 z" id="boundary" inkscape:connector-curvature="0" />
	<path style="fill:none;stroke:red;stroke-width:1px;stroke-linecap:butt;stroke-linejoin:miter;stroke-opacity:1" d="M 218.792,382.712 247.054,368.581 z" id="boundary" inkscape:connector-curvature="0" />
	<path style="fill:none;stroke:red;stroke-width:1px;stroke-linecap:butt;stroke-linejoin:miter;stroke-opacity:1" d="M 218.792,716.205 241.402,693.595 z" id="boundary" inkscape:connector-curvature="0" />
	<path style="fill:none;stroke:red;stroke-width:1px;stroke-linecap:butt;stroke-linejoin:miter;stroke-opacity:1" d="M 224.444,20.9573 252.707,9.65242 z" id="boundary" inkscape:connector-curvature="0" />
	<path style="fill:none;stroke:red;stroke-width:1px;stroke-linecap:butt;stroke-linejoin:miter;stroke-opacity:1" d="M 224.444,312.057 235.749,340.319 z" id="boundary" inkscape:connector-curvature="0" />
	<path style="fill:none;stroke:red;stroke-width:1px;stroke-linecap:butt;stroke-linejoin:miter;stroke-opacity:1" d="M 227.271,668.16 241.402,693.595 z" id="boundary" inkscape:connector-curvature="0" />
	<path style="fill:none;stroke:red;stroke-width:1px;stroke-linecap:butt;stroke-linejoin:miter;stroke-opacity:1" d="M 235.749,340.319 247.054,368.581 z" id="boundary" inkscape:connector-curvature="0" />
	<path style="fill:none;stroke:red;stroke-width:1px;stroke-linecap:butt;stroke-linejoin:miter;stroke-opacity:1" d="M 235.749,990.348 261.185,976.217 z" id="boundary" inkscape:connector-curvature="0" />
	<path style="fill:none;stroke:red;stroke-width:1px;stroke-linecap:butt;stroke-linejoin:miter;stroke-opacity:1" d="M 252.707,9.65242 280.969,4 z" id="boundary" inkscape:connector-curvature="0" />
	<path style="fill:none;stroke:red;stroke-width:1px;stroke-linecap:butt;stroke-linejoin:miter;stroke-opacity:1" d="M 261.185,976.217 289.447,979.043 z" id="boundary" inkscape:connector-curvature="0" />
	<path style="fill:none;stroke:red;stroke-width:1px;stroke-linecap:butt;stroke-linejoin:miter;stroke-opacity:1" d="M 280.969,4 309.231,9.65242 z" id="boundary" inkscape:connector-curvature="0" />
	<path style="fill:none;stroke:red;stroke-width:1px;stroke-linecap:butt;stroke-linejoin:miter;stroke-opacity:1" d="M 289.447,979.043 317.709,984.695 z" id="boundary" inkscape:connector-curvature="0" />
	<path style="fill:none;stroke:red;stroke-width:1px;stroke-linecap:butt;stroke-linejoin:miter;stroke-opacity:1" d="M 309.231,9.65242 337.493,15.3048 z" id="boundary" inkscape:connector-curvature="0" />
	<path style="fill:none;stroke:red;stroke-width:1px;stroke-linecap:butt;stroke-linejoin:miter;stroke-opacity:1" d="M 317.709,984.695 345.972,990.348 z" id="boundary" inkscape:connector-curvature="0" />
	<path style="fill:none;stroke:red;stroke-width:1px;stroke-linecap:butt;stroke-linejoin:miter;stroke-opacity:1" d="M 337.493,15.3048 362.929,29.4359 z" id="boundary" inkscape:connector-curvature="0" />
	<path style="fill:none;stroke:red;stroke-width:1px;stroke-linecap:butt;stroke-linejoin:miter;stroke-opacity:1" d="M 345.972,990.348 374.234,990.348 z" id="boundary" inkscape:connector-curvature="0" />
	<path style="fill:none;stroke:red;stroke-width:1px;stroke-linecap:butt;stroke-linejoin:miter;stroke-opacity:1" d="M 362.929,29.4359 388.365,43.567 z" id="boundary" inkscape:connector-curvature="0" />
	<path style="fill:none;stroke:red;stroke-width:1px;stroke-linecap:butt;stroke-linejoin:miter;stroke-opacity:1" d="M 374.234,990.348 402.496,996 z" id="boundary" inkscape:connector-curvature="0" />
	<path style="fill:none;stroke:red;stroke-width:1px;stroke-linecap:butt;stroke-linejoin:miter;stroke-opacity:1" d="M 388.365,43.567 416.627,43.567 z" id="boundary" inkscape:connector-curvature="0" />
	<path style="fill:none;stroke:red;stroke-width:1px;stroke-linecap:butt;stroke-linejoin:miter;stroke-opacity:1" d="M 402.496,996 430.758,996 z" id="boundary" inkscape:connector-curvature="0" />
	<path style="fill:none;stroke:red;stroke-width:1px;stroke-linecap:butt;stroke-linejoin:miter;stroke-opacity:1" d="M 416.627,43.567 444.889,43.567 z" id="boundary" inkscape:connector-curvature="0" />
	<path style="fill:none;stroke:red;stroke-width:1px;stroke-linecap:butt;stroke-linejoin:miter;stroke-opacity:1" d="M 430.758,996 459.02,996 z" id="boundary" inkscape:connector-curvature="0" />
	<path style="fill:none;stroke:red;stroke-width:1px;stroke-linecap:butt;stroke-linejoin:miter;stroke-opacity:1" d="M 444.889,43.567 473.151,43.567 z" id="boundary" inkscape:connector-curvature="0" />
	<path style="fill:none;stroke:red;stroke-width:1px;stroke-linecap:butt;stroke-linejoin:miter;stroke-opacity:1" d="M 459.02,996 487.282,996 z" id="boundary" inkscape:connector-curvature="0" />
	<path style="fill:none;stroke:red;stroke-width:1px;stroke-linecap:butt;stroke-linejoin:miter;stroke-opacity:1" d="M 473.151,43.567 501.413,43.567 z" id="boundary" inkscape:connector-curvature="0" />
	<path style="fill:none;stroke:red;stroke-width:1px;stroke-linecap:butt;stroke-linejoin:miter;stroke-opacity:1" d="M 487.282,996 515.544,996 z" id="boundary" inkscape:connector-curvature="0" />
	<path style="fill:none;stroke:red;stroke-width:1px;stroke-linecap:butt;stroke-linejoin:miter;stroke-opacity:1" d="M 501.413,43.567 529.675,43.567 z" id="boundary" inkscape:connector-curvature="0" />
	<path style="fill:none;stroke:red;stroke-width:1px;stroke-linecap:butt;stroke-linejoin:miter;stroke-opacity:1" d="M 515.544,996 543.806,990.348 z" id="boundary" inkscape:connector-curvature="0" />
	<path style="fill:none;stroke:red;stroke-width:1px;stroke-linecap:butt;stroke-linejoin:miter;stroke-opacity:1" d="M 529.675,43.567 557.937,32.2621 z" id="boundary" inkscape:connector-curvature="0" />
	<path style="fill:none;stroke:red;stroke-width:1px;stroke-linecap:butt;stroke-linejoin:miter;stroke-opacity:1" d="M 543.806,990.348 572.068,990.348 z" id="boundary" inkscape:connector-curvature="0" />
	<path style="fill:none;stroke:red;stroke-width:1px;stroke-linecap:butt;stroke-linejoin:miter;stroke-opacity:1" d="M 557.937,32.2621 583.373,18.1311 z" id="boundary" inkscape:connector-curvature="0" />
	<path style="fill:none;stroke:red;stroke-width:1px;stroke-linecap:butt;stroke-linejoin:miter;stroke-opacity:1" d="M 572.068,990.348 600.33,984.695 z" id="boundary" inkscape:connector-curvature="0" />
	<path style="fill:none;stroke:red;stroke-width:1px;stroke-linecap:butt;stroke-linejoin:miter;stroke-opacity:1" d="M 583.373,18.1311 611.635,9.65242 z" id="boundary" inkscape:connector-curvature="0" />
	<path style="fill:none;stroke:red;stroke-width:1px;stroke-linecap:butt;stroke-linejoin:miter;stroke-opacity:1" d="M 600.33,984.695 628.593,979.043 z" id="boundary" inkscape:connector-curvature="0" />
	<path style="fill:none;stroke:red;stroke-width:1px;stroke-linecap:butt;stroke-linejoin:miter;stroke-opacity:1" d="M 611.635,9.65242 639.897,4 z" id="boundary" inkscape:connector-curvature="0" />
	<path style="fill:none;stroke:red;stroke-width:1px;stroke-linecap:butt;stroke-linejoin:miter;stroke-opacity:1" d="M 628.593,979.043 656.855,973.39 z" id="boundary" inkscape:connector-curvature="0" />
	<path style="fill:none;stroke:red;stroke-width:1px;stroke-linecap:butt;stroke-linejoin:miter;stroke-opacity:1" d="M 639.897,4 668.16,9.65242 z" id="boundary" inkscape:connector-curvature="0" />
	<path style="fill:none;stroke:red;stroke-width:1px;stroke-linecap:butt;stroke-linejoin:miter;stroke-opacity:1" d="M 656.855,973.39 682.291,987.521 z" id="boundary" inkscape:connector-curvature="0" />
	<path style="fill:none;stroke:red;stroke-width:1px;stroke-linecap:butt;stroke-linejoin:miter;stroke-opacity:1" d="M 668.16,9.65242 696.422,15.3048 z" id="boundary" inkscape:connector-curvature="0" />
	<path style="fill:none;stroke:red;stroke-width:1px;stroke-linecap:butt;stroke-linejoin:miter;stroke-opacity:1" d="M 673.812,365.755 690.769,337.493 z" id="boundary" inkscape:connector-curvature="0" />
	<path style="fill:none;stroke:red;stroke-width:1px;stroke-linecap:butt;stroke-linejoin:miter;stroke-opacity:1" d="M 673.812,365.755 696.422,382.712 z" id="boundary" inkscape:connector-curvature="0" />
	<path style="fill:none;stroke:red;stroke-width:1px;stroke-linecap:butt;stroke-linejoin:miter;stroke-opacity:1" d="M 679.464,665.333 685.117,693.595 z" id="boundary" inkscape:connector-curvature="0" />
	<path style="fill:none;stroke:red;stroke-width:1px;stroke-linecap:butt;stroke-linejoin:miter;stroke-opacity:1" d="M 679.464,665.333 707.726,668.16 z" id="boundary" inkscape:connector-curvature="0" />
	<path style="fill:none;stroke:red;stroke-width:1px;stroke-linecap:butt;stroke-linejoin:miter;stroke-opacity:1" d="M 682.291,987.521 710.553,996 z" id="boundary" inkscape:connector-curvature="0" />
	<path style="fill:none;stroke:red;stroke-width:1px;stroke-linecap:butt;stroke-linejoin:miter;stroke-opacity:1" d="M 685.117,693.595 702.074,716.205 z" id="boundary" inkscape:connector-curvature="0" />
	<path style="fill:none;stroke:red;stroke-width:1px;stroke-linecap:butt;stroke-linejoin:miter;stroke-opacity:1" d="M 690.769,337.493 702.074,286.621 z" id="boundary" inkscape:connector-curvature="0" />
	<path style="fill:none;stroke:red;stroke-width:1px;stroke-linecap:butt;stroke-linejoin:miter;stroke-opacity:1" d="M 696.422,15.3048 719.031,32.2621 z" id="boundary" inkscape:connector-curvature="0" />
	<path style="fill:none;stroke:red;stroke-width:1px;stroke-linecap:butt;stroke-linejoin:miter;stroke-opacity:1" d="M 696.422,382.712 724.684,382.712 z" id="boundary" inkscape:connector-curvature="0" />
	<path style="fill:none;stroke:red;stroke-width:1px;stroke-linecap:butt;stroke-linejoin:miter;stroke-opacity:1" d="M 702.074,196.182 707.726,224.444 z" id="boundary" inkscape:connector-curvature="0" />
	<path style="fill:none;stroke:red;stroke-width:1px;stroke-linecap:butt;stroke-linejoin:miter;stroke-opacity:1" d="M 702.074,196.182 713.379,167.92 z" id="boundary" inkscape:connector-curvature="0" />
	<path style="fill:none;stroke:red;stroke-width:1px;stroke-linecap:butt;stroke-linejoin:miter;stroke-opacity:1" d="M 702.074,286.621 707.726,252.707 z" id="boundary" inkscape:connector-curvature="0" />
	<path style="fill:none;stroke:red;stroke-width:1px;stroke-linecap:butt;stroke-linejoin:miter;stroke-opacity:1" d="M 702.074,716.205 730.336,721.858 z" id="boundary" inkscape:connector-curvature="0" />
	<path style="fill:none;stroke:red;stroke-width:1px;stroke-linecap:butt;stroke-linejoin:miter;stroke-opacity:1" d="M 707.726,224.444 707.726,252.707 z" id="boundary" inkscape:connector-curvature="0" />
	<path style="fill:none;stroke:red;stroke-width:1px;stroke-linecap:butt;stroke-linejoin:miter;stroke-opacity:1" d="M 707.726,668.16 735.989,665.333 z" id="boundary" inkscape:connector-curvature="0" />
	<path style="fill:none;stroke:red;stroke-width:1px;stroke-linecap:butt;stroke-linejoin:miter;stroke-opacity:1" d="M 710.553,996 738.815,996 z" id="boundary" inkscape:connector-curvature="0" />
	<path style="fill:none;stroke:red;stroke-width:1px;stroke-linecap:butt;stroke-linejoin:miter;stroke-opacity:1" d="M 713.379,167.92 724.684,139.658 z" id="boundary" inkscape:connector-curvature="0" />
	<path style="fill:none;stroke:red;stroke-width:1px;stroke-linecap:butt;stroke-linejoin:miter;stroke-opacity:1" d="M 719.031,32.2621 735.989,54.8718 z" id="boundary" inkscape:connector-curvature="0" />
	<path style="fill:none;stroke:red;stroke-width:1px;stroke-linecap:butt;stroke-linejoin:miter;stroke-opacity:1" d="M 724.684,139.658 735.989,111.396 z" id="boundary" inkscape:connector-curvature="0" />
	<path style="fill:none;stroke:red;stroke-width:1px;stroke-linecap:butt;stroke-linejoin:miter;stroke-opacity:1" d="M 724.684,382.712 752.946,394.017 z" id="boundary" inkscape:connector-curvature="0" />
	<path style="fill:none;stroke:red;stroke-width:1px;stroke-linecap:butt;stroke-linejoin:miter;stroke-opacity:1" d="M 730.336,721.858 758.598,727.51 z" id="boundary" inkscape:connector-curvature="0" />
	<path style="fill:none;stroke:red;stroke-width:1px;stroke-linecap:butt;stroke-linejoin:miter;stroke-opacity:1" d="M 735.989,54.8718 735.989,83.1339 z" id="boundary" inkscape:connector-curvature="0" />
	<path style="fill:none;stroke:red;stroke-width:1px;stroke-linecap:butt;stroke-linejoin:miter;stroke-opacity:1" d="M 735.989,83.1339 735.989,111.396 z" id="boundary" inkscape:connector-curvature="0" />
	<path style="fill:none;stroke:red;stroke-width:1px;stroke-linecap:butt;stroke-linejoin:miter;stroke-opacity:1" d="M 735.989,665.333 764.251,662.507 z" id="boundary" inkscape:connector-curvature="0" />
	<path style="fill:none;stroke:red;stroke-width:1px;stroke-linecap:butt;stroke-linejoin:miter;stroke-opacity:1" d="M 738.815,996 767.077,996 z" id="boundary" inkscape:connector-curvature="0" />
	<path style="fill:none;stroke:red;stroke-width:1px;stroke-linecap:butt;stroke-linejoin:miter;stroke-opacity:1" d="M 752.946,394.017 781.208,405.322 z" id="boundary" inkscape:connector-curvature="0" />
	<path style="fill:none;stroke:red;stroke-width:1px;stroke-linecap:butt;stroke-linejoin:miter;stroke-opacity:1" d="M 758.598,727.51 786.86,727.51 z" id="boundary" inkscape:connector-curvature="0" />
	<path style="fill:none;stroke:red;stroke-width:1px;stroke-linecap:butt;stroke-linejoin:miter;stroke-opacity:1" d="M 764.251,662.507 792.513,651.202 z" id="boundary" inkscape:connector-curvature="0" />
	<path style="fill:none;stroke:red;stroke-width:1px;stroke-linecap:butt;stroke-linejoin:miter;stroke-opacity:1" d="M 767.077,996 795.339,996 z" id="boundary" inkscape:connector-curvature="0" />
	<path style="fill:none;stroke:red;stroke-width:1px;stroke-linecap:butt;stroke-linejoin:miter;stroke-opacity:1" d="M 781.208,405.322 800.991,427.932 z" id="boundary" inkscape:connector-curvature="0" />
	<path style="fill:none;stroke:red;stroke-width:1px;stroke-linecap:butt;stroke-linejoin:miter;stroke-opacity:1" d="M 786.86,727.51 815.123,733.162 z" id="boundary" inkscape:connector-curvature="0" />
	<path style="fill:none;stroke:red;stroke-width:1px;stroke-linecap:butt;stroke-linejoin:miter;stroke-opacity:1" d="M 792.513,651.202 820.775,639.897 z" id="boundary" inkscape:connector-curvature="0" />
	<path style="fill:none;stroke:red;stroke-width:1px;stroke-linecap:butt;stroke-linejoin:miter;stroke-opacity:1" d="M 795.339,996 823.601,990.348 z" id="boundary" inkscape:connector-curvature="0" />
	<path style="fill:none;stroke:red;stroke-width:1px;stroke-linecap:butt;stroke-linejoin:miter;stroke-opacity:1" d="M 800.991,427.932 829.254,436.41 z" id="boundary" inkscape:connector-curvature="0" />
	<path style="fill:none;stroke:red;stroke-width:1px;stroke-linecap:butt;stroke-linejoin:miter;stroke-opacity:1" d="M 815.123,733.162 840.558,747.293 z" id="boundary" inkscape:connector-curvature="0" />
	<path style="fill:none;stroke:red;stroke-width:1px;stroke-linecap:butt;stroke-linejoin:miter;stroke-opacity:1" d="M 820.775,639.897 846.211,622.94 z" id="boundary" inkscape:connector-curvature="0" />
	<path style="fill:none;stroke:red;stroke-width:1px;stroke-linecap:butt;stroke-linejoin:miter;stroke-opacity:1" d="M 823.601,990.348 849.037,976.217 z" id="boundary" inkscape:connector-curvature="0" />
	<path style="fill:none;stroke:red;stroke-width:1px;stroke-linecap:butt;stroke-linejoin:miter;stroke-opacity:1" d="M 829.254,436.41 857.516,444.889 z" id="boundary" inkscape:connector-curvature="0" />
	<path style="fill:none;stroke:red;stroke-width:1px;stroke-linecap:butt;stroke-linejoin:miter;stroke-opacity:1" d="M 840.558,747.293 863.168,764.251 z" id="boundary" inkscape:connector-curvature="0" />
	<path style="fill:none;stroke:red;stroke-width:1px;stroke-linecap:butt;stroke-linejoin:miter;stroke-opacity:1" d="M 846.211,622.94 868.821,605.983 z" id="boundary" inkscape:connector-curvature="0" />
	<path style="fill:none;stroke:red;stroke-width:1px;stroke-linecap:butt;stroke-linejoin:miter;stroke-opacity:1" d="M 849.037,976.217 871.647,956.433 z" id="boundary" inkscape:connector-curvature="0" />
	<path style="fill:none;stroke:red;stroke-width:1px;stroke-linecap:butt;stroke-linejoin:miter;stroke-opacity:1" d="M 857.516,444.889 885.778,456.194 z" id="boundary" inkscape:connector-curvature="0" />
	<path style="fill:none;stroke:red;stroke-width:1px;stroke-linecap:butt;stroke-linejoin:miter;stroke-opacity:1" d="M 863.168,764.251 871.647,792.513 z" id="boundary" inkscape:connector-curvature="0" />
	<path style="fill:none;stroke:red;stroke-width:1px;stroke-linecap:butt;stroke-linejoin:miter;stroke-opacity:1" d="M 868.821,605.983 891.43,583.373 z" id="boundary" inkscape:connector-curvature="0" />
	<path style="fill:none;stroke:red;stroke-width:1px;stroke-linecap:butt;stroke-linejoin:miter;stroke-opacity:1" d="M 871.647,792.513 877.299,820.775 z" id="boundary" inkscape:connector-curvature="0" />
	<path style="fill:none;stroke:red;stroke-width:1px;stroke-linecap:butt;stroke-linejoin:miter;stroke-opacity:1" d="M 871.647,956.433 882.952,914.04 z" id="boundary" inkscape:connector-curvature="0" />
	<path style="fill:none;stroke:red;stroke-width:1px;stroke-linecap:butt;stroke-linejoin:miter;stroke-opacity:1" d="M 877.299,820.775 888.604,849.037 z" id="boundary" inkscape:connector-curvature="0" />
	<path style="fill:none;stroke:red;stroke-width:1px;stroke-linecap:butt;stroke-linejoin:miter;stroke-opacity:1" d="M 882.952,914.04 888.604,877.299 z" id="boundary" inkscape:connector-curvature="0" />
	<path style="fill:none;stroke:red;stroke-width:1px;stroke-linecap:butt;stroke-linejoin:miter;stroke-opacity:1" d="M 885.778,456.194 902.735,478.803 z" id="boundary" inkscape:connector-curvature="0" />
	<path style="fill:none;stroke:red;stroke-width:1px;stroke-linecap:butt;stroke-linejoin:miter;stroke-opacity:1" d="M 888.604,849.037 888.604,877.299 z" id="boundary" inkscape:connector-curvature="0" />
	<path style="fill:none;stroke:red;stroke-width:1px;stroke-linecap:butt;stroke-linejoin:miter;stroke-opacity:1" d="M 891.43,583.373 905.561,557.937 z" id="boundary" inkscape:connector-curvature="0" />
	<path style="fill:none;stroke:red;stroke-width:1px;stroke-linecap:butt;stroke-linejoin:miter;stroke-opacity:1" d="M 902.735,478.803 916.866,504.239 z" id="boundary" inkscape:connector-curvature="0" />
	<circle cx="4" cy="512.718" r="4" fill="#0" id="circle0"/>
	<circle cx="9.65242" cy="540.98" r="4" fill="#0" id="circle1"/>
	<circle cx="15.3048" cy="484.456" r="4" fill="#0" id="circle2"/>
	<circle cx="20.9573" cy="569.242" r="4" fill="#0" id="circle3"/>
	<circle cx="32.2621" cy="461.846" r="4" fill="#0" id="circle4"/>
	<circle cx="37.9145" cy="840.558" r="4" fill="#0" id="circle5"/>
	<circle cx="37.9145" cy="868.821" r="4" fill="#0" id="circle6"/>
	<circle cx="37.9145" cy="897.083" r="4" fill="#0" id="circle7"/>
	<circle cx="37.9145" cy="925.345" r="4" fill="#0" id="circle8"/>
	<circle cx="40.7407" cy="591.852" r="4" fill="#0" id="circle9"/>
	<circle cx="49.2194" cy="800.991" r="4" fill="#0" id="circle10"/>
	<circle cx="49.2194" cy="953.607" r="4" fill="#0" id="circle11"/>
	<circle cx="60.5242" cy="450.541" r="4" fill="#0" id="circle12"/>
	<circle cx="60.5242" cy="767.077" r="4" fill="#0" id="circle13"/>
	<circle cx="63.3504" cy="611.635" r="4" fill="#0" id="circle14"/>
	<circle cx="71.8291" cy="970.564" r="4" fill="#0" id="circle15"/>
	<circle cx="83.1339" cy="750.12" r="4" fill="#0" id="circle16"/>
	<circle cx="85.9601" cy="628.593" r="4" fill="#0" id="circle17"/>
	<circle cx="88.7863" cy="439.236" r="4" fill="#0" id="circle18"/>
	<circle cx="94.4387" cy="987.521" r="4" fill="#0" id="circle19"/>
	<circle cx="105.744" cy="733.162" r="4" fill="#0" id="circle20"/>
	<circle cx="114.222" cy="639.897" r="4" fill="#0" id="circle21"/>
	<circle cx="117.048" cy="433.584" r="4" fill="#0" id="circle22"/>
	<circle cx="122.701" cy="996" r="4" fill="#0" id="circle23"/>
	<circle cx="134.006" cy="410.974" r="4" fill="#0" id="circle24"/>
	<circle cx="134.006" cy="727.51" r="4" fill="#0" id="circle25"/>
	<circle cx="142.484" cy="651.202" r="4" fill="#0" id="circle26"/>
	<circle cx="150.963" cy="996" r="4" fill="#0" id="circle27"/>
	<circle cx="162.268" cy="399.67" r="4" fill="#0" id="circle28"/>
	<circle cx="162.268" cy="727.51" r="4" fill="#0" id="circle29"/>
	<circle cx="170.746" cy="659.681" r="4" fill="#0" id="circle30"/>
	<circle cx="179.225" cy="996" r="4" fill="#0" id="circle31"/>
	<circle cx="184.877" cy="60.5242" r="4" fill="#0" id="circle32"/>
	<circle cx="184.877" cy="88.7863" r="4" fill="#0" id="circle33"/>
	<circle cx="190.53" cy="117.048" r="4" fill="#0" id="circle34"/>
	<circle cx="190.53" cy="388.365" r="4" fill="#0" id="circle35"/>
	<circle cx="190.53" cy="727.51" r="4" fill="#0" id="circle36"/>
	<circle cx="199.009" cy="145.311" r="4" fill="#0" id="circle37"/>
	<circle cx="199.009" cy="668.16" r="4" fill="#0" id="circle38"/>
	<circle cx="201.835" cy="37.9145" r="4" fill="#0" id="circle39"/>
	<circle cx="207.487" cy="996" r="4" fill="#0" id="circle40"/>
	<circle cx="213.14" cy="170.746" r="4" fill="#0" id="circle41"/>
	<circle cx="218.792" cy="199.009" r="4" fill="#0" id="circle42"/>
	<circle cx="218.792" cy="227.271" r="4" fill="#0" id="circle43"/>
	<circle cx="218.792" cy="255.533" r="4" fill="#0" id="circle44"/>
	<circle cx="218.792" cy="283.795" r="4" fill="#0" id="circle45"/>
	<circle cx="218.792" cy="382.712" r="4" fill="#0" id="circle46"/>
	<circle cx="218.792" cy="716.205" r="4" fill="#0" id="circle47"/>
	<circle cx="224.444" cy="20.9573" r="4" fill="#0" id="circle48"/>
	<circle cx="224.444" cy="312.057" r="4" fill="#0" id="circle49"/>
	<circle cx="227.271" cy="668.16" r="4" fill="#0" id="circle50"/>
	<circle cx="235.749" cy="340.319" r="4" fill="#0" id="circle51"/>
	<circle cx="235.749" cy="990.348" r="4" fill="#0" id="circle52"/>
	<circle cx="241.402" cy="693.595" r="4" fill="#0" id="circle53"/>
	<circle cx="247.054" cy="368.581" r="4" fill="#0" id="circle54"/>
	<circle cx="252.707" cy="9.65242" r="4" fill="#0" id="circle55"/>
	<circle cx="261.185" cy="976.217" r="4" fill="#0" id="circle56"/>
	<circle cx="280.969" cy="4" r="4" fill="#0" id="circle57"/>
	<circle cx="289.447" cy="979.043" r="4" fill="#0" id="circle58"/>
	<circle cx="309.231" cy="9.65242" r="4" fill="#0" id="circle59"/>
	<circle cx="317.709" cy="984.695" r="4" fill="#0" id="circle60"/>
	<circle cx="337.493" cy="15.3048" r="4" fill="#0" id="circle61"/>
	<circle cx="345.972" cy="990.348" r="4" fill="#0" id="circle62"/>
	<circle cx="362.929" cy="29.4359" r="4" fill="#0" id="circle63"/>
	<circle cx="374.234" cy="990.348" r="4" fill="#0" id="circle64"/>
	<circle cx="388.365" cy="43.567" r="4" fill="#0" id="circle65"/>
	<circle cx="402.496" cy="996" r="4" fill="#0" id="circle66"/>
	<circle cx="416.627" cy="43.567" r="4" fill="#0" id="circle67"/>
	<circle cx="430.758" cy="996" r="4" fill="#0" id="circle68"/>
	<circle cx="444.889" cy="43.567" r="4" fill="#0" id="circle69"/>
	<circle cx="459.02" cy="996" r="4" fill="#0" id="circle70"/>
	<circle cx="473.151" cy="43.567" r="4" fill="#0" id="circle71"/>
	<circle cx="487.282" cy="996" r="4" fill="#0" id="circle72"/>
	<circle cx="501.413" cy="43.567" r="4" fill="#0" id="circle73"/>
	<circle cx="515.544" cy="996" r="4" fill="#0" id="circle74"/>
	<circle cx="529.675" cy="43.567" r="4" fill="#0" id="circle75"/>
	<circle cx="543.806" cy="990.348" r="4" fill="#0" id="circle76"/>
	<circle cx="557.937" cy="32.2621" r="4" fill="#0" id="circle77"/>
	<circle cx="572.068" cy="990.348" r="4" fill="#0" id="circle78"/>
	<circle cx="583.373" cy="18.1311" r="4" fill="#0" id="circle79"/>
	<circle cx="600.33" cy="984.695" r="4" fill="#0" id="circle80"/>
	<circle cx="611.635" cy="9.65242" r="4" fill="#0" id="circle81"/>
	<circle cx="628.593" cy="979.043" r="4" fill="#0" id="circle82"/>
	<circle cx="639.897" cy="4" r="4" fill="#0" id="circle83"/>
	<circle cx="656.855" cy="973.39" r="4" fill="#0" id="circle84"/>
	<circle cx="668.16" cy="9.65242" r="4" fill="#0" id="circle85"/>
	<circle cx="673.812" cy="365.755" r="4" fill="#0" id="circle86"/>
	<circle cx="679.464" cy="665.333" r="4" fill="#0" id="circle87"/>
	<circle cx="682.291" cy="987.521" r="4" fill="#0" id="circle88"/>
	<circle cx="685.117" cy="693.595" r="4" fill="#0" id="circle89"/>
	<circle cx="690.769" cy="337.493" r="4" fill="#0" id="circle90"/>
	<circle cx="696.422" cy="15.3048" r="4" fill="#0" id="circle91"/>
	<circle cx="696.422" cy="382.712" r="4" fill="#0" id="circle92"/>
	<circle cx="702.074" cy="196.182" r="4" fill="#0" id="circle93"/>
	<circle cx="702.074" cy="286.621" r="4" fill="#0" id="circle94"/>
	<circle cx="702.074" cy="716.205" r="4" fill="#0" id="circle95"/>
	<circle cx="707.726" cy="224.444" r="4" fill="#0" id="circle96"/>
	<circle cx="707.726" cy="252.707" r="4" fill="#0" id="circle97"/>
	<circle cx="707.726" cy="668.16" r="4" fill="#0" id="circle98"/>
	<circle cx="710.553" cy="996" r="4" fill="#0" id="circle99"/>
	<circle cx="713.379" cy="167.92" r="4" fill="#0" id="circle100"/>
	<circle cx="719.031" cy="32.2621" r="4" fill="#0" id="circle101"/>
	<circle cx="724.684" cy="139.658" r="4" fill="#0" id="circle102"/>
	<circle cx="724.684" cy="382.712" r="4" fill="#0" id="circle103"/>
	<circle cx="730.336" cy="721.858" r="4" fill="#0" id="circle104"/>
	<circle cx="735.989" cy="54.8718" r="4" fill="#0" id="circle105"/>
	<circle cx="735.989" cy="83.1339" r="4" fill="#0" id="circle106"/>
	<circle cx="735.989" cy="111.396" r="4" fill="#0" id="circle107"/>
	<circle cx="735.989" cy="665.333" r="4" fill="#0" id="circle108"/>
	<circle cx="738.815" cy="996" r="4" fill="#0" id="circle109"/>
	<circle cx="752.946" cy="394.017" r="4" fill="#0" id="circle110"/>
	<circle cx="758.598" cy="727.51" r="4" fill="#0" id="circle111"/>
	<circle cx="764.251" cy="662.507" r="4" fill="#0" id="circle112"/>
	<circle cx="767.077" cy="996" r="4" fill="#0" id="circle113"/>
	<circle cx="781.208" cy="405.322" r="4" fill="#0" id="circle114"/>
	<circle cx="786.86" cy="727.51" r="4" fill="#0" id="circle115"/>
	<circle cx="792.513" cy="651.202" r="4" fill="#0" id="circle116"/>
	<circle cx="795.339" cy="996" r="4" fill="#0" id="circle117"/>
	<circle cx="800.991" cy="427.932" r="4" fill="#0" id="circle118"/>
	<circle cx="815.123" cy="733.162" r="4" fill="#0" id="circle119"/>
	<circle cx="820.775" cy="639.897" r="4" fill="#0" id="circle120"/>
	<circle cx="823.601" cy="990.348" r="4" fill="#0" id="circle121"/>
	<circle cx="829.254" cy="436.41" r="4" fill="#0" id="circle122"/>
	<circle cx="840.558" cy="747.293" r="4" fill="#0" id="circle123"/>
	<circle cx="846.211" cy="622.94" r="4" fill="#0" id="circle124"/>
	<circle cx="849.037" cy="976.217" r="4" fill="#0" id="circle125"/>
	<circle cx="857.516" cy="444.889" r="4" fill="#0" id="circle126"/>
	<circle cx="863.168" cy="764.251" r="4" fill="#0" id="circle127"/>
	<circle cx="868.821" cy="605.983" r="4" fill="#0" id="circle128"/>
	<circle cx="871.647" cy="792.513" r="4" fill="#0" id="circle129"/>
	<circle cx="871.647" cy="956.433" r="4" fill="#0" id="circle130"/>
	<circle cx="877.299" cy="820.775" r="4" fill="#0" id="circle131"/>
	<circle cx="882.952" cy="914.04" r="4" fill="#0" id="circle132"/>
	<circle cx="885.778" cy="456.194" r="4" fill="#0" id="circle133"/>
	<circle cx="888.604" cy="849.037" r="4" fill="#0" id="circle134"/>
	<circle cx="888.604" cy="877.299" r="4" fill="#0" id="circle135"/>
	<circle cx="891.43" cy="583.373" r="4" fill="#0" id="circle136"/>
	<circle cx="902.735" cy="478.803" r="4" fill="#0" id="circle137"/>
	<circle cx="905.561" cy="557.937" r="4" fill="#0" id="circle138"/>
	<circle cx="916.866" cy="504.239" r="4" fill="#0" id="circle139"/>
	</g>
</svg>