<?xml version="1.0" encoding="UTF-8" standalone="no"?>
<!-- Created with CurveBenchmark -->
<svg
	xmlns:dc="http://purl.org/dc/elements/1.1/"
	xmlns:cc="http://creativecommons.org/ns#"
	xmlns:rdf="http://www.w3.org/1999/02/22-rdf-syntax-ns#"
	xmlns:svg="http://www.w3.org/2000/svg"
	xmlns="http://www.w3.org/2000/svg"
	xmlns:sodipodi="http://sodipodi.sourceforge.net/DTD/sodipodi-0.dtd"
	xmlns:inkscape="http://www.inkscape.org/namespaces/inkscape"
	width="1000"
	height="1000"
	id="svg2"
	version="1.1"
	sodipodi:docname="manifold/vicur-teddy120.png.txt">
<defs
	id="defs4" />
<metadata
	id="metadata7">
	<rdf:RDF>
		<cc:Work
			rdf:about="">
			<dc:format>image/svg+xml</dc:format>
			<dc:type
				rdf:resource="http://purl.org/dc/dcmitype/StillImage" />
			<dc:title></dc:title>
		</cc:Work>
	</rdf:RDF>
</metadata>
<g
	inkscape:label="Layer 1"
	inkscape:groupmode="layer"
	id="layer1">
	<path style="fill:none;stroke:red;stroke-width:1px;stroke-linecap:butt;stroke-linejoin:miter;stroke-opacity:1" d="M 4,252.707 9.65242,213.14 z" id="boundary" inkscape:connector-curvature="0" />
	<path style="fill:none;stroke:red;stroke-width:1px;stroke-linecap:butt;stroke-linejoin:miter;stroke-opacity:1" d="M 4,252.707 9.65242,280.969 z" id="boundary" inkscape:connector-curvature="0" />
	<path style="fill:none;stroke:red;stroke-width:1px;stroke-linecap:butt;stroke-linejoin:miter;stroke-opacity:1" d="M 9.65242,213.14 15.3048,184.877 z" id="boundary" inkscape:connector-curvature="0" />
	<path style="fill:none;stroke:red;stroke-width:1px;stroke-linecap:butt;stroke-linejoin:miter;stroke-opacity:1" d="M 9.65242,280.969 18.1311,309.231 z" id="boundary" inkscape:connector-curvature="0" />
	<path style="fill:none;stroke:red;stroke-width:1px;stroke-linecap:butt;stroke-linejoin:miter;stroke-opacity:1" d="M 15.3048,184.877 26.6097,156.615 z" id="boundary" inkscape:connector-curvature="0" />
	<path style="fill:none;stroke:red;stroke-width:1px;stroke-linecap:butt;stroke-linejoin:miter;stroke-opacity:1" d="M 18.1311,309.231 32.2621,334.667 z" id="boundary" inkscape:connector-curvature="0" />
	<path style="fill:none;stroke:red;stroke-width:1px;stroke-linecap:butt;stroke-linejoin:miter;stroke-opacity:1" d="M 26.6097,156.615 37.9145,128.353 z" id="boundary" inkscape:connector-curvature="0" />
	<path style="fill:none;stroke:red;stroke-width:1px;stroke-linecap:butt;stroke-linejoin:miter;stroke-opacity:1" d="M 32.2621,334.667 46.3932,360.103 z" id="boundary" inkscape:connector-curvature="0" />
	<path style="fill:none;stroke:red;stroke-width:1px;stroke-linecap:butt;stroke-linejoin:miter;stroke-opacity:1" d="M 37.9145,128.353 54.8718,105.744 z" id="boundary" inkscape:connector-curvature="0" />
	<path style="fill:none;stroke:red;stroke-width:1px;stroke-linecap:butt;stroke-linejoin:miter;stroke-opacity:1" d="M 46.3932,360.103 60.5242,385.538 z" id="boundary" inkscape:connector-curvature="0" />
	<path style="fill:none;stroke:red;stroke-width:1px;stroke-linecap:butt;stroke-linejoin:miter;stroke-opacity:1" d="M 54.8718,105.744 77.4815,83.1339 z" id="boundary" inkscape:connector-curvature="0" />
	<path style="fill:none;stroke:red;stroke-width:1px;stroke-linecap:butt;stroke-linejoin:miter;stroke-opacity:1" d="M 54.8718,761.425 60.5242,721.858 z" id="boundary" inkscape:connector-curvature="0" />
	<path style="fill:none;stroke:red;stroke-width:1px;stroke-linecap:butt;stroke-linejoin:miter;stroke-opacity:1" d="M 54.8718,761.425 60.5242,789.687 z" id="boundary" inkscape:connector-curvature="0" />
	<path style="fill:none;stroke:red;stroke-width:1px;stroke-linecap:butt;stroke-linejoin:miter;stroke-opacity:1" d="M 60.5242,385.538 66.1766,413.801 z" id="boundary" inkscape:connector-curvature="0" />
	<path style="fill:none;stroke:red;stroke-width:1px;stroke-linecap:butt;stroke-linejoin:miter;stroke-opacity:1" d="M 60.5242,552.285 60.5242,580.547 z" id="boundary" inkscape:connector-curvature="0" />
	<path style="fill:none;stroke:red;stroke-width:1px;stroke-linecap:butt;stroke-linejoin:miter;stroke-opacity:1" d="M 60.5242,552.285 66.1766,498.587 z" id="boundary" inkscape:connector-curvature="0" />
	<path style="fill:none;stroke:red;stroke-width:1px;stroke-linecap:butt;stroke-linejoin:miter;stroke-opacity:1" d="M 60.5242,580.547 60.5242,608.809 z" id="boundary" inkscape:connector-curvature="0" />
	<path style="fill:none;stroke:red;stroke-width:1px;stroke-linecap:butt;stroke-linejoin:miter;stroke-opacity:1" d="M 60.5242,608.809 60.5242,637.071 z" id="boundary" inkscape:connector-curvature="0" />
	<path style="fill:none;stroke:red;stroke-width:1px;stroke-linecap:butt;stroke-linejoin:miter;stroke-opacity:1" d="M 60.5242,637.071 60.5242,665.333 z" id="boundary" inkscape:connector-curvature="0" />
	<path style="fill:none;stroke:red;stroke-width:1px;stroke-linecap:butt;stroke-linejoin:miter;stroke-opacity:1" d="M 60.5242,665.333 60.5242,693.595 z" id="boundary" inkscape:connector-curvature="0" />
	<path style="fill:none;stroke:red;stroke-width:1px;stroke-linecap:butt;stroke-linejoin:miter;stroke-opacity:1" d="M 60.5242,693.595 60.5242,721.858 z" id="boundary" inkscape:connector-curvature="0" />
	<path style="fill:none;stroke:red;stroke-width:1px;stroke-linecap:butt;stroke-linejoin:miter;stroke-opacity:1" d="M 60.5242,789.687 71.8291,817.949 z" id="boundary" inkscape:connector-curvature="0" />
	<path style="fill:none;stroke:red;stroke-width:1px;stroke-linecap:butt;stroke-linejoin:miter;stroke-opacity:1" d="M 66.1766,413.801 66.1766,442.063 z" id="boundary" inkscape:connector-curvature="0" />
	<path style="fill:none;stroke:red;stroke-width:1px;stroke-linecap:butt;stroke-linejoin:miter;stroke-opacity:1" d="M 66.1766,442.063 66.1766,470.325 z" id="boundary" inkscape:connector-curvature="0" />
	<path style="fill:none;stroke:red;stroke-width:1px;stroke-linecap:butt;stroke-linejoin:miter;stroke-opacity:1" d="M 66.1766,470.325 66.1766,498.587 z" id="boundary" inkscape:connector-curvature="0" />
	<path style="fill:none;stroke:red;stroke-width:1px;stroke-linecap:butt;stroke-linejoin:miter;stroke-opacity:1" d="M 71.8291,817.949 71.8291,846.211 z" id="boundary" inkscape:connector-curvature="0" />
	<path style="fill:none;stroke:red;stroke-width:1px;stroke-linecap:butt;stroke-linejoin:miter;stroke-opacity:1" d="M 71.8291,846.211 71.8291,874.473 z" id="boundary" inkscape:connector-curvature="0" />
	<path style="fill:none;stroke:red;stroke-width:1px;stroke-linecap:butt;stroke-linejoin:miter;stroke-opacity:1" d="M 71.8291,874.473 74.6553,902.735 z" id="boundary" inkscape:connector-curvature="0" />
	<path style="fill:none;stroke:red;stroke-width:1px;stroke-linecap:butt;stroke-linejoin:miter;stroke-opacity:1" d="M 74.6553,902.735 80.3077,930.997 z" id="boundary" inkscape:connector-curvature="0" />
	<path style="fill:none;stroke:red;stroke-width:1px;stroke-linecap:butt;stroke-linejoin:miter;stroke-opacity:1" d="M 77.4815,83.1339 105.744,71.8291 z" id="boundary" inkscape:connector-curvature="0" />
	<path style="fill:none;stroke:red;stroke-width:1px;stroke-linecap:butt;stroke-linejoin:miter;stroke-opacity:1" d="M 80.3077,930.997 85.9601,959.259 z" id="boundary" inkscape:connector-curvature="0" />
	<path style="fill:none;stroke:red;stroke-width:1px;stroke-linecap:butt;stroke-linejoin:miter;stroke-opacity:1" d="M 85.9601,959.259 108.57,979.043 z" id="boundary" inkscape:connector-curvature="0" />
	<path style="fill:none;stroke:red;stroke-width:1px;stroke-linecap:butt;stroke-linejoin:miter;stroke-opacity:1" d="M 105.744,43.567 105.744,71.8291 z" id="boundary" inkscape:connector-curvature="0" />
	<path style="fill:none;stroke:red;stroke-width:1px;stroke-linecap:butt;stroke-linejoin:miter;stroke-opacity:1" d="M 105.744,43.567 119.875,18.1311 z" id="boundary" inkscape:connector-curvature="0" />
	<path style="fill:none;stroke:red;stroke-width:1px;stroke-linecap:butt;stroke-linejoin:miter;stroke-opacity:1" d="M 108.57,979.043 136.832,990.348 z" id="boundary" inkscape:connector-curvature="0" />
	<path style="fill:none;stroke:red;stroke-width:1px;stroke-linecap:butt;stroke-linejoin:miter;stroke-opacity:1" d="M 119.875,18.1311 148.137,9.65242 z" id="boundary" inkscape:connector-curvature="0" />
	<path style="fill:none;stroke:red;stroke-width:1px;stroke-linecap:butt;stroke-linejoin:miter;stroke-opacity:1" d="M 136.832,990.348 165.094,996 z" id="boundary" inkscape:connector-curvature="0" />
	<path style="fill:none;stroke:red;stroke-width:1px;stroke-linecap:butt;stroke-linejoin:miter;stroke-opacity:1" d="M 148.137,9.65242 176.399,4 z" id="boundary" inkscape:connector-curvature="0" />
	<path style="fill:none;stroke:red;stroke-width:1px;stroke-linecap:butt;stroke-linejoin:miter;stroke-opacity:1" d="M 165.094,996 193.356,990.348 z" id="boundary" inkscape:connector-curvature="0" />
	<path style="fill:none;stroke:red;stroke-width:1px;stroke-linecap:butt;stroke-linejoin:miter;stroke-opacity:1" d="M 176.399,4 204.661,9.65242 z" id="boundary" inkscape:connector-curvature="0" />
	<path style="fill:none;stroke:red;stroke-width:1px;stroke-linecap:butt;stroke-linejoin:miter;stroke-opacity:1" d="M 193.356,990.348 221.618,990.348 z" id="boundary" inkscape:connector-curvature="0" />
	<path style="fill:none;stroke:red;stroke-width:1px;stroke-linecap:butt;stroke-linejoin:miter;stroke-opacity:1" d="M 204.661,9.65242 232.923,4 z" id="boundary" inkscape:connector-curvature="0" />
	<path style="fill:none;stroke:red;stroke-width:1px;stroke-linecap:butt;stroke-linejoin:miter;stroke-opacity:1" d="M 221.618,990.348 249.88,984.695 z" id="boundary" inkscape:connector-curvature="0" />
	<path style="fill:none;stroke:red;stroke-width:1px;stroke-linecap:butt;stroke-linejoin:miter;stroke-opacity:1" d="M 232.923,4 261.185,15.3048 z" id="boundary" inkscape:connector-curvature="0" />
	<path style="fill:none;stroke:red;stroke-width:1px;stroke-linecap:butt;stroke-linejoin:miter;stroke-opacity:1" d="M 249.88,984.695 278.142,984.695 z" id="boundary" inkscape:connector-curvature="0" />
	<path style="fill:none;stroke:red;stroke-width:1px;stroke-linecap:butt;stroke-linejoin:miter;stroke-opacity:1" d="M 261.185,15.3048 278.142,37.9145 z" id="boundary" inkscape:connector-curvature="0" />
	<path style="fill:none;stroke:red;stroke-width:1px;stroke-linecap:butt;stroke-linejoin:miter;stroke-opacity:1" d="M 278.142,37.9145 295.1,60.5242 z" id="boundary" inkscape:connector-curvature="0" />
	<path style="fill:none;stroke:red;stroke-width:1px;stroke-linecap:butt;stroke-linejoin:miter;stroke-opacity:1" d="M 278.142,984.695 306.405,979.043 z" id="boundary" inkscape:connector-curvature="0" />
	<path style="fill:none;stroke:red;stroke-width:1px;stroke-linecap:butt;stroke-linejoin:miter;stroke-opacity:1" d="M 295.1,60.5242 314.883,83.1339 z" id="boundary" inkscape:connector-curvature="0" />
	<path style="fill:none;stroke:red;stroke-width:1px;stroke-linecap:butt;stroke-linejoin:miter;stroke-opacity:1" d="M 306.405,979.043 334.667,979.043 z" id="boundary" inkscape:connector-curvature="0" />
	<path style="fill:none;stroke:red;stroke-width:1px;stroke-linecap:butt;stroke-linejoin:miter;stroke-opacity:1" d="M 314.883,83.1339 337.493,102.917 z" id="boundary" inkscape:connector-curvature="0" />
	<path style="fill:none;stroke:red;stroke-width:1px;stroke-linecap:butt;stroke-linejoin:miter;stroke-opacity:1" d="M 334.667,979.043 362.929,990.348 z" id="boundary" inkscape:connector-curvature="0" />
	<path style="fill:none;stroke:red;stroke-width:1px;stroke-linecap:butt;stroke-linejoin:miter;stroke-opacity:1" d="M 337.493,102.917 351.624,128.353 z" id="boundary" inkscape:connector-curvature="0" />
	<path style="fill:none;stroke:red;stroke-width:1px;stroke-linecap:butt;stroke-linejoin:miter;stroke-opacity:1" d="M 351.624,128.353 368.581,150.963 z" id="boundary" inkscape:connector-curvature="0" />
	<path style="fill:none;stroke:red;stroke-width:1px;stroke-linecap:butt;stroke-linejoin:miter;stroke-opacity:1" d="M 362.929,990.348 391.191,996 z" id="boundary" inkscape:connector-curvature="0" />
	<path style="fill:none;stroke:red;stroke-width:1px;stroke-linecap:butt;stroke-linejoin:miter;stroke-opacity:1" d="M 368.581,150.963 385.538,173.573 z" id="boundary" inkscape:connector-curvature="0" />
	<path style="fill:none;stroke:red;stroke-width:1px;stroke-linecap:butt;stroke-linejoin:miter;stroke-opacity:1" d="M 385.538,173.573 413.801,184.877 z" id="boundary" inkscape:connector-curvature="0" />
	<path style="fill:none;stroke:red;stroke-width:1px;stroke-linecap:butt;stroke-linejoin:miter;stroke-opacity:1" d="M 391.191,996 419.453,996 z" id="boundary" inkscape:connector-curvature="0" />
	<path style="fill:none;stroke:red;stroke-width:1px;stroke-linecap:butt;stroke-linejoin:miter;stroke-opacity:1" d="M 399.67,396.843 413.801,422.279 z" id="boundary" inkscape:connector-curvature="0" />
	<path style="fill:none;stroke:red;stroke-width:1px;stroke-linecap:butt;stroke-linejoin:miter;stroke-opacity:1" d="M 399.67,396.843 422.279,374.234 z" id="boundary" inkscape:connector-curvature="0" />
	<path style="fill:none;stroke:red;stroke-width:1px;stroke-linecap:butt;stroke-linejoin:miter;stroke-opacity:1" d="M 413.801,184.877 442.063,190.53 z" id="boundary" inkscape:connector-curvature="0" />
	<path style="fill:none;stroke:red;stroke-width:1px;stroke-linecap:butt;stroke-linejoin:miter;stroke-opacity:1" d="M 413.801,422.279 442.063,433.584 z" id="boundary" inkscape:connector-curvature="0" />
	<path style="fill:none;stroke:red;stroke-width:1px;stroke-linecap:butt;stroke-linejoin:miter;stroke-opacity:1" d="M 419.453,996 447.715,996 z" id="boundary" inkscape:connector-curvature="0" />
	<path style="fill:none;stroke:red;stroke-width:1px;stroke-linecap:butt;stroke-linejoin:miter;stroke-opacity:1" d="M 422.279,374.234 450.541,362.929 z" id="boundary" inkscape:connector-curvature="0" />
	<path style="fill:none;stroke:red;stroke-width:1px;stroke-linecap:butt;stroke-linejoin:miter;stroke-opacity:1" d="M 442.063,190.53 467.499,204.661 z" id="boundary" inkscape:connector-curvature="0" />
	<path style="fill:none;stroke:red;stroke-width:1px;stroke-linecap:butt;stroke-linejoin:miter;stroke-opacity:1" d="M 442.063,433.584 470.325,439.236 z" id="boundary" inkscape:connector-curvature="0" />
	<path style="fill:none;stroke:red;stroke-width:1px;stroke-linecap:butt;stroke-linejoin:miter;stroke-opacity:1" d="M 447.715,996 475.977,993.174 z" id="boundary" inkscape:connector-curvature="0" />
	<path style="fill:none;stroke:red;stroke-width:1px;stroke-linecap:butt;stroke-linejoin:miter;stroke-opacity:1" d="M 450.541,362.929 478.803,351.624 z" id="boundary" inkscape:connector-curvature="0" />
	<path style="fill:none;stroke:red;stroke-width:1px;stroke-linecap:butt;stroke-linejoin:miter;stroke-opacity:1" d="M 467.499,204.661 492.934,218.792 z" id="boundary" inkscape:connector-curvature="0" />
	<path style="fill:none;stroke:red;stroke-width:1px;stroke-linecap:butt;stroke-linejoin:miter;stroke-opacity:1" d="M 470.325,439.236 498.587,450.541 z" id="boundary" inkscape:connector-curvature="0" />
	<path style="fill:none;stroke:red;stroke-width:1px;stroke-linecap:butt;stroke-linejoin:miter;stroke-opacity:1" d="M 475.977,993.174 504.239,996 z" id="boundary" inkscape:connector-curvature="0" />
	<path style="fill:none;stroke:red;stroke-width:1px;stroke-linecap:butt;stroke-linejoin:miter;stroke-opacity:1" d="M 478.803,351.624 492.934,320.536 z" id="boundary" inkscape:connector-curvature="0" />
	<path style="fill:none;stroke:red;stroke-width:1px;stroke-linecap:butt;stroke-linejoin:miter;stroke-opacity:1" d="M 492.934,218.792 509.892,241.402 z" id="boundary" inkscape:connector-curvature="0" />
	<path style="fill:none;stroke:red;stroke-width:1px;stroke-linecap:butt;stroke-linejoin:miter;stroke-opacity:1" d="M 492.934,320.536 498.587,280.969 z" id="boundary" inkscape:connector-curvature="0" />
	<path style="fill:none;stroke:red;stroke-width:1px;stroke-linecap:butt;stroke-linejoin:miter;stroke-opacity:1" d="M 492.934,614.462 498.587,642.724 z" id="boundary" inkscape:connector-curvature="0" />
	<path style="fill:none;stroke:red;stroke-width:1px;stroke-linecap:butt;stroke-linejoin:miter;stroke-opacity:1" d="M 492.934,614.462 515.544,597.504 z" id="boundary" inkscape:connector-curvature="0" />
	<path style="fill:none;stroke:red;stroke-width:1px;stroke-linecap:butt;stroke-linejoin:miter;stroke-opacity:1" d="M 498.587,280.969 509.892,241.402 z" id="boundary" inkscape:connector-curvature="0" />
	<path style="fill:none;stroke:red;stroke-width:1px;stroke-linecap:butt;stroke-linejoin:miter;stroke-opacity:1" d="M 498.587,450.541 524.023,464.672 z" id="boundary" inkscape:connector-curvature="0" />
	<path style="fill:none;stroke:red;stroke-width:1px;stroke-linecap:butt;stroke-linejoin:miter;stroke-opacity:1" d="M 498.587,642.724 498.587,682.291 z" id="boundary" inkscape:connector-curvature="0" />
	<path style="fill:none;stroke:red;stroke-width:1px;stroke-linecap:butt;stroke-linejoin:miter;stroke-opacity:1" d="M 498.587,682.291 498.587,710.553 z" id="boundary" inkscape:connector-curvature="0" />
	<path style="fill:none;stroke:red;stroke-width:1px;stroke-linecap:butt;stroke-linejoin:miter;stroke-opacity:1" d="M 498.587,710.553 521.197,727.51 z" id="boundary" inkscape:connector-curvature="0" />
	<path style="fill:none;stroke:red;stroke-width:1px;stroke-linecap:butt;stroke-linejoin:miter;stroke-opacity:1" d="M 504.239,996 532.501,996 z" id="boundary" inkscape:connector-curvature="0" />
	<path style="fill:none;stroke:red;stroke-width:1px;stroke-linecap:butt;stroke-linejoin:miter;stroke-opacity:1" d="M 515.544,597.504 532.501,563.59 z" id="boundary" inkscape:connector-curvature="0" />
	<path style="fill:none;stroke:red;stroke-width:1px;stroke-linecap:butt;stroke-linejoin:miter;stroke-opacity:1" d="M 521.197,727.51 549.459,727.51 z" id="boundary" inkscape:connector-curvature="0" />
	<path style="fill:none;stroke:red;stroke-width:1px;stroke-linecap:butt;stroke-linejoin:miter;stroke-opacity:1" d="M 524.023,464.672 538.154,490.108 z" id="boundary" inkscape:connector-curvature="0" />
	<path style="fill:none;stroke:red;stroke-width:1px;stroke-linecap:butt;stroke-linejoin:miter;stroke-opacity:1" d="M 532.501,563.59 543.806,518.37 z" id="boundary" inkscape:connector-curvature="0" />
	<path style="fill:none;stroke:red;stroke-width:1px;stroke-linecap:butt;stroke-linejoin:miter;stroke-opacity:1" d="M 532.501,996 560.764,996 z" id="boundary" inkscape:connector-curvature="0" />
	<path style="fill:none;stroke:red;stroke-width:1px;stroke-linecap:butt;stroke-linejoin:miter;stroke-opacity:1" d="M 538.154,490.108 543.806,518.37 z" id="boundary" inkscape:connector-curvature="0" />
	<path style="fill:none;stroke:red;stroke-width:1px;stroke-linecap:butt;stroke-linejoin:miter;stroke-opacity:1" d="M 549.459,727.51 577.721,727.51 z" id="boundary" inkscape:connector-curvature="0" />
	<path style="fill:none;stroke:red;stroke-width:1px;stroke-linecap:butt;stroke-linejoin:miter;stroke-opacity:1" d="M 560.764,996 586.199,979.043 z" id="boundary" inkscape:connector-curvature="0" />
	<path style="fill:none;stroke:red;stroke-width:1px;stroke-linecap:butt;stroke-linejoin:miter;stroke-opacity:1" d="M 577.721,727.51 605.983,733.162 z" id="boundary" inkscape:connector-curvature="0" />
	<path style="fill:none;stroke:red;stroke-width:1px;stroke-linecap:butt;stroke-linejoin:miter;stroke-opacity:1" d="M 586.199,979.043 608.809,962.085 z" id="boundary" inkscape:connector-curvature="0" />
	<path style="fill:none;stroke:red;stroke-width:1px;stroke-linecap:butt;stroke-linejoin:miter;stroke-opacity:1" d="M 605.983,733.162 620.114,758.598 z" id="boundary" inkscape:connector-curvature="0" />
	<path style="fill:none;stroke:red;stroke-width:1px;stroke-linecap:butt;stroke-linejoin:miter;stroke-opacity:1" d="M 608.809,962.085 617.288,925.345 z" id="boundary" inkscape:connector-curvature="0" />
	<path style="fill:none;stroke:red;stroke-width:1px;stroke-linecap:butt;stroke-linejoin:miter;stroke-opacity:1" d="M 617.288,925.345 622.94,885.778 z" id="boundary" inkscape:connector-curvature="0" />
	<path style="fill:none;stroke:red;stroke-width:1px;stroke-linecap:butt;stroke-linejoin:miter;stroke-opacity:1" d="M 620.114,758.598 622.94,786.86 z" id="boundary" inkscape:connector-curvature="0" />
	<path style="fill:none;stroke:red;stroke-width:1px;stroke-linecap:butt;stroke-linejoin:miter;stroke-opacity:1" d="M 622.94,786.86 628.593,815.123 z" id="boundary" inkscape:connector-curvature="0" />
	<path style="fill:none;stroke:red;stroke-width:1px;stroke-linecap:butt;stroke-linejoin:miter;stroke-opacity:1" d="M 622.94,885.778 628.593,843.385 z" id="boundary" inkscape:connector-curvature="0" />
	<path style="fill:none;stroke:red;stroke-width:1px;stroke-linecap:butt;stroke-linejoin:miter;stroke-opacity:1" d="M 628.593,815.123 628.593,843.385 z" id="boundary" inkscape:connector-curvature="0" />
	<circle cx="4" cy="252.707" r="4" fill="#0" id="circle0"/>
	<circle cx="9.65242" cy="213.14" r="4" fill="#0" id="circle1"/>
	<circle cx="9.65242" cy="280.969" r="4" fill="#0" id="circle2"/>
	<circle cx="15.3048" cy="184.877" r="4" fill="#0" id="circle3"/>
	<circle cx="18.1311" cy="309.231" r="4" fill="#0" id="circle4"/>
	<circle cx="26.6097" cy="156.615" r="4" fill="#0" id="circle5"/>
	<circle cx="32.2621" cy="334.667" r="4" fill="#0" id="circle6"/>
	<circle cx="37.9145" cy="128.353" r="4" fill="#0" id="circle7"/>
	<circle cx="46.3932" cy="360.103" r="4" fill="#0" id="circle8"/>
	<circle cx="54.8718" cy="105.744" r="4" fill="#0" id="circle9"/>
	<circle cx="54.8718" cy="761.425" r="4" fill="#0" id="circle10"/>
	<circle cx="60.5242" cy="385.538" r="4" fill="#0" id="circle11"/>
	<circle cx="60.5242" cy="552.285" r="4" fill="#0" id="circle12"/>
	<circle cx="60.5242" cy="580.547" r="4" fill="#0" id="circle13"/>
	<circle cx="60.5242" cy="608.809" r="4" fill="#0" id="circle14"/>
	<circle cx="60.5242" cy="637.071" r="4" fill="#0" id="circle15"/>
	<circle cx="60.5242" cy="665.333" r="4" fill="#0" id="circle16"/>
	<circle cx="60.5242" cy="693.595" r="4" fill="#0" id="circle17"/>
	<circle cx="60.5242" cy="721.858" r="4" fill="#0" id="circle18"/>
	<circle cx="60.5242" cy="789.687" r="4" fill="#0" id="circle19"/>
	<circle cx="66.1766" cy="413.801" r="4" fill="#0" id="circle20"/>
	<circle cx="66.1766" cy="442.063" r="4" fill="#0" id="circle21"/>
	<circle cx="66.1766" cy="470.325" r="4" fill="#0" id="circle22"/>
	<circle cx="66.1766" cy="498.587" r="4" fill="#0" id="circle23"/>
	<circle cx="71.8291" cy="817.949" r="4" fill="#0" id="circle24"/>
	<circle cx="71.8291" cy="846.211" r="4" fill="#0" id="circle25"/>
	<circle cx="71.8291" cy="874.473" r="4" fill="#0" id="circle26"/>
	<circle cx="74.6553" cy="902.735" r="4" fill="#0" id="circle27"/>
	<circle cx="77.4815" cy="83.1339" r="4" fill="#0" id="circle28"/>
	<circle cx="80.3077" cy="930.997" r="4" fill="#0" id="circle29"/>
	<circle cx="85.9601" cy="959.259" r="4" fill="#0" id="circle30"/>
	<circle cx="105.744" cy="43.567" r="4" fill="#0" id="circle31"/>
	<circle cx="105.744" cy="71.8291" r="4" fill="#0" id="circle32"/>
	<circle cx="108.57" cy="979.043" r="4" fill="#0" id="circle33"/>
	<circle cx="119.875" cy="18.1311" r="4" fill="#0" id="circle34"/>
	<circle cx="136.832" cy="990.348" r="4" fill="#0" id="circle35"/>
	<circle cx="148.137" cy="9.65242" r="4" fill="#0" id="circle36"/>
	<circle cx="165.094" cy="996" r="4" fill="#0" id="circle37"/>
	<circle cx="176.399" cy="4" r="4" fill="#0" id="circle38"/>
	<circle cx="193.356" cy="990.348" r="4" fill="#0" id="circle39"/>
	<circle cx="204.661" cy="9.65242" r="4" fill="#0" id="circle40"/>
	<circle cx="221.618" cy="990.348" r="4" fill="#0" id="circle41"/>
	<circle cx="232.923" cy="4" r="4" fill="#0" id="circle42"/>
	<circle cx="249.88" cy="984.695" r="4" fill="#0" id="circle43"/>
	<circle cx="261.185" cy="15.3048" r="4" fill="#0" id="circle44"/>
	<circle cx="278.142" cy="37.9145" r="4" fill="#0" id="circle45"/>
	<circle cx="278.142" cy="984.695" r="4" fill="#0" id="circle46"/>
	<circle cx="295.1" cy="60.5242" r="4" fill="#0" id="circle47"/>
	<circle cx="306.405" cy="979.043" r="4" fill="#0" id="circle48"/>
	<circle cx="314.883" cy="83.1339" r="4" fill="#0" id="circle49"/>
	<circle cx="334.667" cy="979.043" r="4" fill="#0" id="circle50"/>
	<circle cx="337.493" cy="102.917" r="4" fill="#0" id="circle51"/>
	<circle cx="351.624" cy="128.353" r="4" fill="#0" id="circle52"/>
	<circle cx="362.929" cy="990.348" r="4" fill="#0" id="circle53"/>
	<circle cx="368.581" cy="150.963" r="4" fill="#0" id="circle54"/>
	<circle cx="385.538" cy="173.573" r="4" fill="#0" id="circle55"/>
	<circle cx="391.191" cy="996" r="4" fill="#0" id="circle56"/>
	<circle cx="399.67" cy="396.843" r="4" fill="#0" id="circle57"/>
	<circle cx="413.801" cy="184.877" r="4" fill="#0" id="circle58"/>
	<circle cx="413.801" cy="422.279" r="4" fill="#0" id="circle59"/>
	<circle cx="419.453" cy="996" r="4" fill="#0" id="circle60"/>
	<circle cx="422.279" cy="374.234" r="4" fill="#0" id="circle61"/>
	<circle cx="442.063" cy="190.53" r="4" fill="#0" id="circle62"/>
	<circle cx="442.063" cy="433.584" r="4" fill="#0" id="circle63"/>
	<circle cx="447.715" cy="996" r="4" fill="#0" id="circle64"/>
	<circle cx="450.541" cy="362.929" r="4" fill="#0" id="circle65"/>
	<circle cx="467.499" cy="204.661" r="4" fill="#0" id="circle66"/>
	<circle cx="470.325" cy="439.236" r="4" fill="#0" id="circle67"/>
	<circle cx="475.977" cy="993.174" r="4" fill="#0" id="circle68"/>
	<circle cx="478.803" cy="351.624" r="4" fill="#0" id="circle69"/>
	<circle cx="492.934" cy="218.792" r="4" fill="#0" id="circle70"/>
	<circle cx="492.934" cy="320.536" r="4" fill="#0" id="circle71"/>
	<circle cx="492.934" cy="614.462" r="4" fill="#0" id="circle72"/>
	<circle cx="498.587" cy="280.969" r="4" fill="#0" id="circle73"/>
	<circle cx="498.587" cy="450.541" r="4" fill="#0" id="circle74"/>
	<circle cx="498.587" cy="642.724" r="4" fill="#0" id="circle75"/>
	<circle cx="498.587" cy="682.291" r="4" fill="#0" id="circle76"/>
	<circle cx="498.587" cy="710.553" r="4" fill="#0" id="circle77"/>
	<circle cx="504.239" cy="996" r="4" fill="#0" id="circle78"/>
	<circle cx="509.892" cy="241.402" r="4" fill="#0" id="circle79"/>
	<circle cx="515.544" cy="597.504" r="4" fill="#0" id="circle80"/>
	<circle cx="521.197" cy="727.51" r="4" fill="#0" id="circle81"/>
	<circle cx="524.023" cy="464.672" r="4" fill="#0" id="circle82"/>
	<circle cx="532.501" cy="563.59" r="4" fill="#0" id="circle83"/>
	<circle cx="532.501" cy="996" r="4" fill="#0" id="circle84"/>
	<circle cx="538.154" cy="490.108" r="4" fill="#0" id="circle85"/>
	<circle cx="543.806" cy="518.37" r="4" fill="#0" id="circle86"/>
	<circle cx="549.459" cy="727.51" r="4" fill="#0" id="circle87"/>
	<circle cx="560.764" cy="996" r="4" fill="#0" id="circle88"/>
	<circle cx="577.721" cy="727.51" r="4" fill="#0" id="circle89"/>
	<circle cx="586.199" cy="979.043" r="4" fill="#0" id="circle90"/>
	<circle cx="605.983" cy="733.162" r="4" fill="#0" id="circle91"/>
	<circle cx="608.809" cy="962.085" r="4" fill="#0" id="circle92"/>
	<circle cx="617.288" cy="925.345" r="4" fill="#0" id="circle93"/>
	<circle cx="620.114" cy="758.598" r="4" fill="#0" id="circle94"/>
	<circle cx="622.94" cy="786.86" r="4" fill="#0" id="circle95"/>
	<circle cx="622.94" cy="885.778" r="4" fill="#0" id="circle96"/>
	<circle cx="628.593" cy="815.123" r="4" fill="#0" id="circle97"/>
	<circle cx="628.593" cy="843.385" r="4" fill="#0" id="circle98"/>
	</g>
</svg>