<?xml version="1.0" encoding="UTF-8" standalone="no"?>
<!-- Created with CurveBenchmark -->
<svg
	xmlns:dc="http://purl.org/dc/elements/1.1/"
	xmlns:cc="http://creativecommons.org/ns#"
	xmlns:rdf="http://www.w3.org/1999/02/22-rdf-syntax-ns#"
	xmlns:svg="http://www.w3.org/2000/svg"
	xmlns="http://www.w3.org/2000/svg"
	xmlns:sodipodi="http://sodipodi.sourceforge.net/DTD/sodipodi-0.dtd"
	xmlns:inkscape="http://www.inkscape.org/namespaces/inkscape"
	width="1000"
	height="1000"
	id="svg2"
	version="1.1"
	sodipodi:docname="manifold/vicur-car15.png.txt">
<defs
	id="defs4" />
<metadata
	id="metadata7">
	<rdf:RDF>
		<cc:Work
			rdf:about="">
			<dc:format>image/svg+xml</dc:format>
			<dc:type
				rdf:resource="http://purl.org/dc/dcmitype/StillImage" />
			<dc:title></dc:title>
		</cc:Work>
	</rdf:RDF>
</metadata>
<g
	inkscape:label="Layer 1"
	inkscape:groupmode="layer"
	id="layer1">
	<path style="fill:none;stroke:red;stroke-width:1px;stroke-linecap:butt;stroke-linejoin:miter;stroke-opacity:1" d="M 4,256.863 4,274.545 z" id="boundary" inkscape:connector-curvature="0" />
	<path style="fill:none;stroke:red;stroke-width:1px;stroke-linecap:butt;stroke-linejoin:miter;stroke-opacity:1" d="M 4,256.863 12.8414,239.18 z" id="boundary" inkscape:connector-curvature="0" />
	<path style="fill:none;stroke:red;stroke-width:1px;stroke-linecap:butt;stroke-linejoin:miter;stroke-opacity:1" d="M 4,274.545 4,292.228 z" id="boundary" inkscape:connector-curvature="0" />
	<path style="fill:none;stroke:red;stroke-width:1px;stroke-linecap:butt;stroke-linejoin:miter;stroke-opacity:1" d="M 4,292.228 18.1462,304.606 z" id="boundary" inkscape:connector-curvature="0" />
	<path style="fill:none;stroke:red;stroke-width:1px;stroke-linecap:butt;stroke-linejoin:miter;stroke-opacity:1" d="M 12.8414,239.18 21.6827,212.656 z" id="boundary" inkscape:connector-curvature="0" />
	<path style="fill:none;stroke:red;stroke-width:1px;stroke-linecap:butt;stroke-linejoin:miter;stroke-opacity:1" d="M 18.1462,304.606 30.5241,318.752 z" id="boundary" inkscape:connector-curvature="0" />
	<path style="fill:none;stroke:red;stroke-width:1px;stroke-linecap:butt;stroke-linejoin:miter;stroke-opacity:1" d="M 21.6827,212.656 39.3654,212.656 z" id="boundary" inkscape:connector-curvature="0" />
	<path style="fill:none;stroke:red;stroke-width:1px;stroke-linecap:butt;stroke-linejoin:miter;stroke-opacity:1" d="M 30.5241,318.752 30.5241,336.435 z" id="boundary" inkscape:connector-curvature="0" />
	<path style="fill:none;stroke:red;stroke-width:1px;stroke-linecap:butt;stroke-linejoin:miter;stroke-opacity:1" d="M 30.5241,336.435 30.5241,354.118 z" id="boundary" inkscape:connector-curvature="0" />
	<path style="fill:none;stroke:red;stroke-width:1px;stroke-linecap:butt;stroke-linejoin:miter;stroke-opacity:1" d="M 30.5241,354.118 30.5241,371.8 z" id="boundary" inkscape:connector-curvature="0" />
	<path style="fill:none;stroke:red;stroke-width:1px;stroke-linecap:butt;stroke-linejoin:miter;stroke-opacity:1" d="M 30.5241,371.8 30.5241,389.483 z" id="boundary" inkscape:connector-curvature="0" />
	<path style="fill:none;stroke:red;stroke-width:1px;stroke-linecap:butt;stroke-linejoin:miter;stroke-opacity:1" d="M 30.5241,389.483 30.5241,407.166 z" id="boundary" inkscape:connector-curvature="0" />
	<path style="fill:none;stroke:red;stroke-width:1px;stroke-linecap:butt;stroke-linejoin:miter;stroke-opacity:1" d="M 30.5241,407.166 30.5241,424.848 z" id="boundary" inkscape:connector-curvature="0" />
	<path style="fill:none;stroke:red;stroke-width:1px;stroke-linecap:butt;stroke-linejoin:miter;stroke-opacity:1" d="M 30.5241,424.848 44.6702,437.226 z" id="boundary" inkscape:connector-curvature="0" />
	<path style="fill:none;stroke:red;stroke-width:1px;stroke-linecap:butt;stroke-linejoin:miter;stroke-opacity:1" d="M 39.3654,212.656 53.5116,198.51 z" id="boundary" inkscape:connector-curvature="0" />
	<path style="fill:none;stroke:red;stroke-width:1px;stroke-linecap:butt;stroke-linejoin:miter;stroke-opacity:1" d="M 44.6702,437.226 57.0481,451.373 z" id="boundary" inkscape:connector-curvature="0" />
	<path style="fill:none;stroke:red;stroke-width:1px;stroke-linecap:butt;stroke-linejoin:miter;stroke-opacity:1" d="M 53.5116,198.51 71.1943,189.668 z" id="boundary" inkscape:connector-curvature="0" />
	<path style="fill:none;stroke:red;stroke-width:1px;stroke-linecap:butt;stroke-linejoin:miter;stroke-opacity:1" d="M 57.0481,451.373 71.1943,463.75 z" id="boundary" inkscape:connector-curvature="0" />
	<path style="fill:none;stroke:red;stroke-width:1px;stroke-linecap:butt;stroke-linejoin:miter;stroke-opacity:1" d="M 71.1943,189.668 87.1087,180.827 z" id="boundary" inkscape:connector-curvature="0" />
	<path style="fill:none;stroke:red;stroke-width:1px;stroke-linecap:butt;stroke-linejoin:miter;stroke-opacity:1" d="M 71.1943,463.75 87.1087,472.592 z" id="boundary" inkscape:connector-curvature="0" />
	<path style="fill:none;stroke:red;stroke-width:1px;stroke-linecap:butt;stroke-linejoin:miter;stroke-opacity:1" d="M 87.1087,180.827 103.023,171.986 z" id="boundary" inkscape:connector-curvature="0" />
	<path style="fill:none;stroke:red;stroke-width:1px;stroke-linecap:butt;stroke-linejoin:miter;stroke-opacity:1" d="M 87.1087,472.592 104.791,474.36 z" id="boundary" inkscape:connector-curvature="0" />
	<path style="fill:none;stroke:red;stroke-width:1px;stroke-linecap:butt;stroke-linejoin:miter;stroke-opacity:1" d="M 103.023,171.986 120.706,166.681 z" id="boundary" inkscape:connector-curvature="0" />
	<path style="fill:none;stroke:red;stroke-width:1px;stroke-linecap:butt;stroke-linejoin:miter;stroke-opacity:1" d="M 104.791,474.36 120.706,465.519 z" id="boundary" inkscape:connector-curvature="0" />
	<path style="fill:none;stroke:red;stroke-width:1px;stroke-linecap:butt;stroke-linejoin:miter;stroke-opacity:1" d="M 120.706,166.681 138.389,166.681 z" id="boundary" inkscape:connector-curvature="0" />
	<path style="fill:none;stroke:red;stroke-width:1px;stroke-linecap:butt;stroke-linejoin:miter;stroke-opacity:1" d="M 120.706,465.519 136.62,456.677 z" id="boundary" inkscape:connector-curvature="0" />
	<path style="fill:none;stroke:red;stroke-width:1px;stroke-linecap:butt;stroke-linejoin:miter;stroke-opacity:1" d="M 136.62,456.677 147.23,438.995 z" id="boundary" inkscape:connector-curvature="0" />
	<path style="fill:none;stroke:red;stroke-width:1px;stroke-linecap:butt;stroke-linejoin:miter;stroke-opacity:1" d="M 138.389,166.681 156.071,163.144 z" id="boundary" inkscape:connector-curvature="0" />
	<path style="fill:none;stroke:red;stroke-width:1px;stroke-linecap:butt;stroke-linejoin:miter;stroke-opacity:1" d="M 147.23,438.995 163.144,430.153 z" id="boundary" inkscape:connector-curvature="0" />
	<path style="fill:none;stroke:red;stroke-width:1px;stroke-linecap:butt;stroke-linejoin:miter;stroke-opacity:1" d="M 156.071,163.144 173.754,163.144 z" id="boundary" inkscape:connector-curvature="0" />
	<path style="fill:none;stroke:red;stroke-width:1px;stroke-linecap:butt;stroke-linejoin:miter;stroke-opacity:1" d="M 163.144,430.153 180.827,430.153 z" id="boundary" inkscape:connector-curvature="0" />
	<path style="fill:none;stroke:red;stroke-width:1px;stroke-linecap:butt;stroke-linejoin:miter;stroke-opacity:1" d="M 173.754,163.144 191.437,163.144 z" id="boundary" inkscape:connector-curvature="0" />
	<path style="fill:none;stroke:red;stroke-width:1px;stroke-linecap:butt;stroke-linejoin:miter;stroke-opacity:1" d="M 180.827,430.153 198.51,433.69 z" id="boundary" inkscape:connector-curvature="0" />
	<path style="fill:none;stroke:red;stroke-width:1px;stroke-linecap:butt;stroke-linejoin:miter;stroke-opacity:1" d="M 191.437,163.144 209.119,163.144 z" id="boundary" inkscape:connector-curvature="0" />
	<path style="fill:none;stroke:red;stroke-width:1px;stroke-linecap:butt;stroke-linejoin:miter;stroke-opacity:1" d="M 198.51,433.69 216.193,433.69 z" id="boundary" inkscape:connector-curvature="0" />
	<path style="fill:none;stroke:red;stroke-width:1px;stroke-linecap:butt;stroke-linejoin:miter;stroke-opacity:1" d="M 209.119,163.144 226.802,163.144 z" id="boundary" inkscape:connector-curvature="0" />
	<path style="fill:none;stroke:red;stroke-width:1px;stroke-linecap:butt;stroke-linejoin:miter;stroke-opacity:1" d="M 216.193,433.69 233.875,433.69 z" id="boundary" inkscape:connector-curvature="0" />
	<path style="fill:none;stroke:red;stroke-width:1px;stroke-linecap:butt;stroke-linejoin:miter;stroke-opacity:1" d="M 226.802,163.144 244.485,163.144 z" id="boundary" inkscape:connector-curvature="0" />
	<path style="fill:none;stroke:red;stroke-width:1px;stroke-linecap:butt;stroke-linejoin:miter;stroke-opacity:1" d="M 233.875,433.69 251.558,430.153 z" id="boundary" inkscape:connector-curvature="0" />
	<path style="fill:none;stroke:red;stroke-width:1px;stroke-linecap:butt;stroke-linejoin:miter;stroke-opacity:1" d="M 244.485,163.144 255.094,147.23 z" id="boundary" inkscape:connector-curvature="0" />
	<path style="fill:none;stroke:red;stroke-width:1px;stroke-linecap:butt;stroke-linejoin:miter;stroke-opacity:1" d="M 251.558,430.153 269.241,430.153 z" id="boundary" inkscape:connector-curvature="0" />
	<path style="fill:none;stroke:red;stroke-width:1px;stroke-linecap:butt;stroke-linejoin:miter;stroke-opacity:1" d="M 255.094,147.23 269.241,124.242 z" id="boundary" inkscape:connector-curvature="0" />
	<path style="fill:none;stroke:red;stroke-width:1px;stroke-linecap:butt;stroke-linejoin:miter;stroke-opacity:1" d="M 269.241,124.242 286.923,127.779 z" id="boundary" inkscape:connector-curvature="0" />
	<path style="fill:none;stroke:red;stroke-width:1px;stroke-linecap:butt;stroke-linejoin:miter;stroke-opacity:1" d="M 269.241,430.153 286.923,430.153 z" id="boundary" inkscape:connector-curvature="0" />
	<path style="fill:none;stroke:red;stroke-width:1px;stroke-linecap:butt;stroke-linejoin:miter;stroke-opacity:1" d="M 286.923,127.779 297.533,141.925 z" id="boundary" inkscape:connector-curvature="0" />
	<path style="fill:none;stroke:red;stroke-width:1px;stroke-linecap:butt;stroke-linejoin:miter;stroke-opacity:1" d="M 286.923,430.153 304.606,430.153 z" id="boundary" inkscape:connector-curvature="0" />
	<path style="fill:none;stroke:red;stroke-width:1px;stroke-linecap:butt;stroke-linejoin:miter;stroke-opacity:1" d="M 297.533,141.925 315.216,140.157 z" id="boundary" inkscape:connector-curvature="0" />
	<path style="fill:none;stroke:red;stroke-width:1px;stroke-linecap:butt;stroke-linejoin:miter;stroke-opacity:1" d="M 304.606,430.153 322.289,430.153 z" id="boundary" inkscape:connector-curvature="0" />
	<path style="fill:none;stroke:red;stroke-width:1px;stroke-linecap:butt;stroke-linejoin:miter;stroke-opacity:1" d="M 315.216,140.157 329.362,127.779 z" id="boundary" inkscape:connector-curvature="0" />
	<path style="fill:none;stroke:red;stroke-width:1px;stroke-linecap:butt;stroke-linejoin:miter;stroke-opacity:1" d="M 322.289,430.153 339.971,430.153 z" id="boundary" inkscape:connector-curvature="0" />
	<path style="fill:none;stroke:red;stroke-width:1px;stroke-linecap:butt;stroke-linejoin:miter;stroke-opacity:1" d="M 329.362,127.779 341.74,113.633 z" id="boundary" inkscape:connector-curvature="0" />
	<path style="fill:none;stroke:red;stroke-width:1px;stroke-linecap:butt;stroke-linejoin:miter;stroke-opacity:1" d="M 339.971,430.153 357.654,433.69 z" id="boundary" inkscape:connector-curvature="0" />
	<path style="fill:none;stroke:red;stroke-width:1px;stroke-linecap:butt;stroke-linejoin:miter;stroke-opacity:1" d="M 341.74,113.633 359.422,110.096 z" id="boundary" inkscape:connector-curvature="0" />
	<path style="fill:none;stroke:red;stroke-width:1px;stroke-linecap:butt;stroke-linejoin:miter;stroke-opacity:1" d="M 357.654,433.69 375.337,438.995 z" id="boundary" inkscape:connector-curvature="0" />
	<path style="fill:none;stroke:red;stroke-width:1px;stroke-linecap:butt;stroke-linejoin:miter;stroke-opacity:1" d="M 359.422,110.096 377.105,110.096 z" id="boundary" inkscape:connector-curvature="0" />
	<path style="fill:none;stroke:red;stroke-width:1px;stroke-linecap:butt;stroke-linejoin:miter;stroke-opacity:1" d="M 375.337,438.995 393.02,433.69 z" id="boundary" inkscape:connector-curvature="0" />
	<path style="fill:none;stroke:red;stroke-width:1px;stroke-linecap:butt;stroke-linejoin:miter;stroke-opacity:1" d="M 377.105,110.096 394.788,110.096 z" id="boundary" inkscape:connector-curvature="0" />
	<path style="fill:none;stroke:red;stroke-width:1px;stroke-linecap:butt;stroke-linejoin:miter;stroke-opacity:1" d="M 393.02,433.69 403.629,412.471 z" id="boundary" inkscape:connector-curvature="0" />
	<path style="fill:none;stroke:red;stroke-width:1px;stroke-linecap:butt;stroke-linejoin:miter;stroke-opacity:1" d="M 394.788,110.096 408.934,120.706 z" id="boundary" inkscape:connector-curvature="0" />
	<path style="fill:none;stroke:red;stroke-width:1px;stroke-linecap:butt;stroke-linejoin:miter;stroke-opacity:1" d="M 403.629,412.471 414.239,426.617 z" id="boundary" inkscape:connector-curvature="0" />
	<path style="fill:none;stroke:red;stroke-width:1px;stroke-linecap:butt;stroke-linejoin:miter;stroke-opacity:1" d="M 408.934,120.706 426.617,127.779 z" id="boundary" inkscape:connector-curvature="0" />
	<path style="fill:none;stroke:red;stroke-width:1px;stroke-linecap:butt;stroke-linejoin:miter;stroke-opacity:1" d="M 414.239,426.617 419.544,444.299 z" id="boundary" inkscape:connector-curvature="0" />
	<path style="fill:none;stroke:red;stroke-width:1px;stroke-linecap:butt;stroke-linejoin:miter;stroke-opacity:1" d="M 419.544,444.299 421.312,461.982 z" id="boundary" inkscape:connector-curvature="0" />
	<path style="fill:none;stroke:red;stroke-width:1px;stroke-linecap:butt;stroke-linejoin:miter;stroke-opacity:1" d="M 421.312,461.982 435.458,474.36 z" id="boundary" inkscape:connector-curvature="0" />
	<path style="fill:none;stroke:red;stroke-width:1px;stroke-linecap:butt;stroke-linejoin:miter;stroke-opacity:1" d="M 426.617,127.779 442.531,136.62 z" id="boundary" inkscape:connector-curvature="0" />
	<path style="fill:none;stroke:red;stroke-width:1px;stroke-linecap:butt;stroke-linejoin:miter;stroke-opacity:1" d="M 435.458,474.36 451.373,483.201 z" id="boundary" inkscape:connector-curvature="0" />
	<path style="fill:none;stroke:red;stroke-width:1px;stroke-linecap:butt;stroke-linejoin:miter;stroke-opacity:1" d="M 438.995,113.633 442.531,136.62 z" id="boundary" inkscape:connector-curvature="0" />
	<path style="fill:none;stroke:red;stroke-width:1px;stroke-linecap:butt;stroke-linejoin:miter;stroke-opacity:1" d="M 438.995,113.633 446.068,88.877 z" id="boundary" inkscape:connector-curvature="0" />
	<path style="fill:none;stroke:red;stroke-width:1px;stroke-linecap:butt;stroke-linejoin:miter;stroke-opacity:1" d="M 446.068,18.1462 446.068,35.8289 z" id="boundary" inkscape:connector-curvature="0" />
	<path style="fill:none;stroke:red;stroke-width:1px;stroke-linecap:butt;stroke-linejoin:miter;stroke-opacity:1" d="M 446.068,18.1462 460.214,4 z" id="boundary" inkscape:connector-curvature="0" />
	<path style="fill:none;stroke:red;stroke-width:1px;stroke-linecap:butt;stroke-linejoin:miter;stroke-opacity:1" d="M 446.068,35.8289 446.068,53.5116 z" id="boundary" inkscape:connector-curvature="0" />
	<path style="fill:none;stroke:red;stroke-width:1px;stroke-linecap:butt;stroke-linejoin:miter;stroke-opacity:1" d="M 446.068,53.5116 446.068,71.1943 z" id="boundary" inkscape:connector-curvature="0" />
	<path style="fill:none;stroke:red;stroke-width:1px;stroke-linecap:butt;stroke-linejoin:miter;stroke-opacity:1" d="M 446.068,71.1943 446.068,88.877 z" id="boundary" inkscape:connector-curvature="0" />
	<path style="fill:none;stroke:red;stroke-width:1px;stroke-linecap:butt;stroke-linejoin:miter;stroke-opacity:1" d="M 451.373,483.201 467.287,492.043 z" id="boundary" inkscape:connector-curvature="0" />
	<path style="fill:none;stroke:red;stroke-width:1px;stroke-linecap:butt;stroke-linejoin:miter;stroke-opacity:1" d="M 460.214,4 477.897,4 z" id="boundary" inkscape:connector-curvature="0" />
	<path style="fill:none;stroke:red;stroke-width:1px;stroke-linecap:butt;stroke-linejoin:miter;stroke-opacity:1" d="M 467.287,492.043 484.97,492.043 z" id="boundary" inkscape:connector-curvature="0" />
	<path style="fill:none;stroke:red;stroke-width:1px;stroke-linecap:butt;stroke-linejoin:miter;stroke-opacity:1" d="M 477.897,4 495.579,4 z" id="boundary" inkscape:connector-curvature="0" />
	<path style="fill:none;stroke:red;stroke-width:1px;stroke-linecap:butt;stroke-linejoin:miter;stroke-opacity:1" d="M 484.97,492.043 502.652,497.348 z" id="boundary" inkscape:connector-curvature="0" />
	<path style="fill:none;stroke:red;stroke-width:1px;stroke-linecap:butt;stroke-linejoin:miter;stroke-opacity:1" d="M 495.579,4 513.262,4 z" id="boundary" inkscape:connector-curvature="0" />
	<path style="fill:none;stroke:red;stroke-width:1px;stroke-linecap:butt;stroke-linejoin:miter;stroke-opacity:1" d="M 502.652,497.348 520.335,500.884 z" id="boundary" inkscape:connector-curvature="0" />
	<path style="fill:none;stroke:red;stroke-width:1px;stroke-linecap:butt;stroke-linejoin:miter;stroke-opacity:1" d="M 513.262,4 530.945,4 z" id="boundary" inkscape:connector-curvature="0" />
	<path style="fill:none;stroke:red;stroke-width:1px;stroke-linecap:butt;stroke-linejoin:miter;stroke-opacity:1" d="M 520.335,500.884 536.25,492.043 z" id="boundary" inkscape:connector-curvature="0" />
	<path style="fill:none;stroke:red;stroke-width:1px;stroke-linecap:butt;stroke-linejoin:miter;stroke-opacity:1" d="M 530.945,4 548.627,4 z" id="boundary" inkscape:connector-curvature="0" />
	<path style="fill:none;stroke:red;stroke-width:1px;stroke-linecap:butt;stroke-linejoin:miter;stroke-opacity:1" d="M 536.25,492.043 553.932,474.36 z" id="boundary" inkscape:connector-curvature="0" />
	<path style="fill:none;stroke:red;stroke-width:1px;stroke-linecap:butt;stroke-linejoin:miter;stroke-opacity:1" d="M 548.627,4 564.542,12.8414 z" id="boundary" inkscape:connector-curvature="0" />
	<path style="fill:none;stroke:red;stroke-width:1px;stroke-linecap:butt;stroke-linejoin:miter;stroke-opacity:1" d="M 553.932,474.36 562.774,456.677 z" id="boundary" inkscape:connector-curvature="0" />
	<path style="fill:none;stroke:red;stroke-width:1px;stroke-linecap:butt;stroke-linejoin:miter;stroke-opacity:1" d="M 562.774,438.995 562.774,456.677 z" id="boundary" inkscape:connector-curvature="0" />
	<path style="fill:none;stroke:red;stroke-width:1px;stroke-linecap:butt;stroke-linejoin:miter;stroke-opacity:1" d="M 562.774,438.995 578.688,430.153 z" id="boundary" inkscape:connector-curvature="0" />
	<path style="fill:none;stroke:red;stroke-width:1px;stroke-linecap:butt;stroke-linejoin:miter;stroke-opacity:1" d="M 564.542,12.8414 582.225,12.8414 z" id="boundary" inkscape:connector-curvature="0" />
	<path style="fill:none;stroke:red;stroke-width:1px;stroke-linecap:butt;stroke-linejoin:miter;stroke-opacity:1" d="M 578.688,430.153 596.371,430.153 z" id="boundary" inkscape:connector-curvature="0" />
	<path style="fill:none;stroke:red;stroke-width:1px;stroke-linecap:butt;stroke-linejoin:miter;stroke-opacity:1" d="M 582.225,12.8414 599.907,14.6096 z" id="boundary" inkscape:connector-curvature="0" />
	<path style="fill:none;stroke:red;stroke-width:1px;stroke-linecap:butt;stroke-linejoin:miter;stroke-opacity:1" d="M 596.371,430.153 614.053,430.153 z" id="boundary" inkscape:connector-curvature="0" />
	<path style="fill:none;stroke:red;stroke-width:1px;stroke-linecap:butt;stroke-linejoin:miter;stroke-opacity:1" d="M 599.907,14.6096 617.59,14.6096 z" id="boundary" inkscape:connector-curvature="0" />
	<path style="fill:none;stroke:red;stroke-width:1px;stroke-linecap:butt;stroke-linejoin:miter;stroke-opacity:1" d="M 614.053,430.153 631.736,430.153 z" id="boundary" inkscape:connector-curvature="0" />
	<path style="fill:none;stroke:red;stroke-width:1px;stroke-linecap:butt;stroke-linejoin:miter;stroke-opacity:1" d="M 617.59,14.6096 635.273,21.6827 z" id="boundary" inkscape:connector-curvature="0" />
	<path style="fill:none;stroke:red;stroke-width:1px;stroke-linecap:butt;stroke-linejoin:miter;stroke-opacity:1" d="M 631.736,430.153 649.419,430.153 z" id="boundary" inkscape:connector-curvature="0" />
	<path style="fill:none;stroke:red;stroke-width:1px;stroke-linecap:butt;stroke-linejoin:miter;stroke-opacity:1" d="M 635.273,21.6827 652.955,14.6096 z" id="boundary" inkscape:connector-curvature="0" />
	<path style="fill:none;stroke:red;stroke-width:1px;stroke-linecap:butt;stroke-linejoin:miter;stroke-opacity:1" d="M 649.419,430.153 667.102,430.153 z" id="boundary" inkscape:connector-curvature="0" />
	<path style="fill:none;stroke:red;stroke-width:1px;stroke-linecap:butt;stroke-linejoin:miter;stroke-opacity:1" d="M 652.955,14.6096 670.638,14.6096 z" id="boundary" inkscape:connector-curvature="0" />
	<path style="fill:none;stroke:red;stroke-width:1px;stroke-linecap:butt;stroke-linejoin:miter;stroke-opacity:1" d="M 667.102,430.153 684.784,433.69 z" id="boundary" inkscape:connector-curvature="0" />
	<path style="fill:none;stroke:red;stroke-width:1px;stroke-linecap:butt;stroke-linejoin:miter;stroke-opacity:1" d="M 670.638,14.6096 688.321,21.6827 z" id="boundary" inkscape:connector-curvature="0" />
	<path style="fill:none;stroke:red;stroke-width:1px;stroke-linecap:butt;stroke-linejoin:miter;stroke-opacity:1" d="M 684.784,433.69 702.467,433.69 z" id="boundary" inkscape:connector-curvature="0" />
	<path style="fill:none;stroke:red;stroke-width:1px;stroke-linecap:butt;stroke-linejoin:miter;stroke-opacity:1" d="M 688.321,21.6827 704.235,12.8414 z" id="boundary" inkscape:connector-curvature="0" />
	<path style="fill:none;stroke:red;stroke-width:1px;stroke-linecap:butt;stroke-linejoin:miter;stroke-opacity:1" d="M 702.467,433.69 720.15,438.995 z" id="boundary" inkscape:connector-curvature="0" />
	<path style="fill:none;stroke:red;stroke-width:1px;stroke-linecap:butt;stroke-linejoin:miter;stroke-opacity:1" d="M 704.235,12.8414 720.15,21.6827 z" id="boundary" inkscape:connector-curvature="0" />
	<path style="fill:none;stroke:red;stroke-width:1px;stroke-linecap:butt;stroke-linejoin:miter;stroke-opacity:1" d="M 720.15,21.6827 736.064,30.5241 z" id="boundary" inkscape:connector-curvature="0" />
	<path style="fill:none;stroke:red;stroke-width:1px;stroke-linecap:butt;stroke-linejoin:miter;stroke-opacity:1" d="M 720.15,438.995 736.064,430.153 z" id="boundary" inkscape:connector-curvature="0" />
	<path style="fill:none;stroke:red;stroke-width:1px;stroke-linecap:butt;stroke-linejoin:miter;stroke-opacity:1" d="M 736.064,30.5241 751.979,39.3654 z" id="boundary" inkscape:connector-curvature="0" />
	<path style="fill:none;stroke:red;stroke-width:1px;stroke-linecap:butt;stroke-linejoin:miter;stroke-opacity:1" d="M 736.064,430.153 751.979,421.312 z" id="boundary" inkscape:connector-curvature="0" />
	<path style="fill:none;stroke:red;stroke-width:1px;stroke-linecap:butt;stroke-linejoin:miter;stroke-opacity:1" d="M 751.979,39.3654 766.125,49.975 z" id="boundary" inkscape:connector-curvature="0" />
	<path style="fill:none;stroke:red;stroke-width:1px;stroke-linecap:butt;stroke-linejoin:miter;stroke-opacity:1" d="M 751.979,421.312 769.661,421.312 z" id="boundary" inkscape:connector-curvature="0" />
	<path style="fill:none;stroke:red;stroke-width:1px;stroke-linecap:butt;stroke-linejoin:miter;stroke-opacity:1" d="M 766.125,49.975 766.125,67.6578 z" id="boundary" inkscape:connector-curvature="0" />
	<path style="fill:none;stroke:red;stroke-width:1px;stroke-linecap:butt;stroke-linejoin:miter;stroke-opacity:1" d="M 766.125,67.6578 766.125,85.3405 z" id="boundary" inkscape:connector-curvature="0" />
	<path style="fill:none;stroke:red;stroke-width:1px;stroke-linecap:butt;stroke-linejoin:miter;stroke-opacity:1" d="M 766.125,85.3405 766.125,103.023 z" id="boundary" inkscape:connector-curvature="0" />
	<path style="fill:none;stroke:red;stroke-width:1px;stroke-linecap:butt;stroke-linejoin:miter;stroke-opacity:1" d="M 766.125,103.023 769.661,120.706 z" id="boundary" inkscape:connector-curvature="0" />
	<path style="fill:none;stroke:red;stroke-width:1px;stroke-linecap:butt;stroke-linejoin:miter;stroke-opacity:1" d="M 769.661,120.706 787.344,127.779 z" id="boundary" inkscape:connector-curvature="0" />
	<path style="fill:none;stroke:red;stroke-width:1px;stroke-linecap:butt;stroke-linejoin:miter;stroke-opacity:1" d="M 769.661,421.312 787.344,421.312 z" id="boundary" inkscape:connector-curvature="0" />
	<path style="fill:none;stroke:red;stroke-width:1px;stroke-linecap:butt;stroke-linejoin:miter;stroke-opacity:1" d="M 787.344,127.779 799.722,141.925 z" id="boundary" inkscape:connector-curvature="0" />
	<path style="fill:none;stroke:red;stroke-width:1px;stroke-linecap:butt;stroke-linejoin:miter;stroke-opacity:1" d="M 787.344,421.312 805.027,428.385 z" id="boundary" inkscape:connector-curvature="0" />
	<path style="fill:none;stroke:red;stroke-width:1px;stroke-linecap:butt;stroke-linejoin:miter;stroke-opacity:1" d="M 799.722,141.925 813.868,154.303 z" id="boundary" inkscape:connector-curvature="0" />
	<path style="fill:none;stroke:red;stroke-width:1px;stroke-linecap:butt;stroke-linejoin:miter;stroke-opacity:1" d="M 805.027,428.385 817.405,442.531 z" id="boundary" inkscape:connector-curvature="0" />
	<path style="fill:none;stroke:red;stroke-width:1px;stroke-linecap:butt;stroke-linejoin:miter;stroke-opacity:1" d="M 813.868,154.303 831.551,154.303 z" id="boundary" inkscape:connector-curvature="0" />
	<path style="fill:none;stroke:red;stroke-width:1px;stroke-linecap:butt;stroke-linejoin:miter;stroke-opacity:1" d="M 817.405,442.531 828.014,456.677 z" id="boundary" inkscape:connector-curvature="0" />
	<path style="fill:none;stroke:red;stroke-width:1px;stroke-linecap:butt;stroke-linejoin:miter;stroke-opacity:1" d="M 828.014,456.677 845.697,447.836 z" id="boundary" inkscape:connector-curvature="0" />
	<path style="fill:none;stroke:red;stroke-width:1px;stroke-linecap:butt;stroke-linejoin:miter;stroke-opacity:1" d="M 831.551,154.303 849.234,154.303 z" id="boundary" inkscape:connector-curvature="0" />
	<path style="fill:none;stroke:red;stroke-width:1px;stroke-linecap:butt;stroke-linejoin:miter;stroke-opacity:1" d="M 845.697,447.836 861.611,438.995 z" id="boundary" inkscape:connector-curvature="0" />
	<path style="fill:none;stroke:red;stroke-width:1px;stroke-linecap:butt;stroke-linejoin:miter;stroke-opacity:1" d="M 849.234,154.303 866.916,154.303 z" id="boundary" inkscape:connector-curvature="0" />
	<path style="fill:none;stroke:red;stroke-width:1px;stroke-linecap:butt;stroke-linejoin:miter;stroke-opacity:1" d="M 861.611,438.995 875.758,428.385 z" id="boundary" inkscape:connector-curvature="0" />
	<path style="fill:none;stroke:red;stroke-width:1px;stroke-linecap:butt;stroke-linejoin:miter;stroke-opacity:1" d="M 866.916,154.303 884.599,154.303 z" id="boundary" inkscape:connector-curvature="0" />
	<path style="fill:none;stroke:red;stroke-width:1px;stroke-linecap:butt;stroke-linejoin:miter;stroke-opacity:1" d="M 875.758,428.385 881.062,403.629 z" id="boundary" inkscape:connector-curvature="0" />
	<path style="fill:none;stroke:red;stroke-width:1px;stroke-linecap:butt;stroke-linejoin:miter;stroke-opacity:1" d="M 881.062,350.581 881.062,368.264 z" id="boundary" inkscape:connector-curvature="0" />
	<path style="fill:none;stroke:red;stroke-width:1px;stroke-linecap:butt;stroke-linejoin:miter;stroke-opacity:1" d="M 881.062,350.581 896.977,341.74 z" id="boundary" inkscape:connector-curvature="0" />
	<path style="fill:none;stroke:red;stroke-width:1px;stroke-linecap:butt;stroke-linejoin:miter;stroke-opacity:1" d="M 881.062,368.264 884.599,385.947 z" id="boundary" inkscape:connector-curvature="0" />
	<path style="fill:none;stroke:red;stroke-width:1px;stroke-linecap:butt;stroke-linejoin:miter;stroke-opacity:1" d="M 881.062,403.629 884.599,385.947 z" id="boundary" inkscape:connector-curvature="0" />
	<path style="fill:none;stroke:red;stroke-width:1px;stroke-linecap:butt;stroke-linejoin:miter;stroke-opacity:1" d="M 884.599,154.303 902.282,154.303 z" id="boundary" inkscape:connector-curvature="0" />
	<path style="fill:none;stroke:red;stroke-width:1px;stroke-linecap:butt;stroke-linejoin:miter;stroke-opacity:1" d="M 896.977,341.74 912.891,332.898 z" id="boundary" inkscape:connector-curvature="0" />
	<path style="fill:none;stroke:red;stroke-width:1px;stroke-linecap:butt;stroke-linejoin:miter;stroke-opacity:1" d="M 902.282,154.303 919.964,154.303 z" id="boundary" inkscape:connector-curvature="0" />
	<path style="fill:none;stroke:red;stroke-width:1px;stroke-linecap:butt;stroke-linejoin:miter;stroke-opacity:1" d="M 912.891,332.898 928.806,322.289 z" id="boundary" inkscape:connector-curvature="0" />
	<path style="fill:none;stroke:red;stroke-width:1px;stroke-linecap:butt;stroke-linejoin:miter;stroke-opacity:1" d="M 919.964,154.303 937.647,154.303 z" id="boundary" inkscape:connector-curvature="0" />
	<path style="fill:none;stroke:red;stroke-width:1px;stroke-linecap:butt;stroke-linejoin:miter;stroke-opacity:1" d="M 928.806,322.289 942.952,306.374 z" id="boundary" inkscape:connector-curvature="0" />
	<path style="fill:none;stroke:red;stroke-width:1px;stroke-linecap:butt;stroke-linejoin:miter;stroke-opacity:1" d="M 937.647,154.303 955.33,154.303 z" id="boundary" inkscape:connector-curvature="0" />
	<path style="fill:none;stroke:red;stroke-width:1px;stroke-linecap:butt;stroke-linejoin:miter;stroke-opacity:1" d="M 942.952,306.374 957.098,293.996 z" id="boundary" inkscape:connector-curvature="0" />
	<path style="fill:none;stroke:red;stroke-width:1px;stroke-linecap:butt;stroke-linejoin:miter;stroke-opacity:1" d="M 955.33,154.303 973.012,154.303 z" id="boundary" inkscape:connector-curvature="0" />
	<path style="fill:none;stroke:red;stroke-width:1px;stroke-linecap:butt;stroke-linejoin:miter;stroke-opacity:1" d="M 957.098,293.996 965.939,276.314 z" id="boundary" inkscape:connector-curvature="0" />
	<path style="fill:none;stroke:red;stroke-width:1px;stroke-linecap:butt;stroke-linejoin:miter;stroke-opacity:1" d="M 965.939,276.314 969.476,253.326 z" id="boundary" inkscape:connector-curvature="0" />
	<path style="fill:none;stroke:red;stroke-width:1px;stroke-linecap:butt;stroke-linejoin:miter;stroke-opacity:1" d="M 969.476,253.326 983.622,240.948 z" id="boundary" inkscape:connector-curvature="0" />
	<path style="fill:none;stroke:red;stroke-width:1px;stroke-linecap:butt;stroke-linejoin:miter;stroke-opacity:1" d="M 973.012,154.303 985.39,168.449 z" id="boundary" inkscape:connector-curvature="0" />
	<path style="fill:none;stroke:red;stroke-width:1px;stroke-linecap:butt;stroke-linejoin:miter;stroke-opacity:1" d="M 983.622,240.948 996,217.961 z" id="boundary" inkscape:connector-curvature="0" />
	<path style="fill:none;stroke:red;stroke-width:1px;stroke-linecap:butt;stroke-linejoin:miter;stroke-opacity:1" d="M 985.39,168.449 996,182.595 z" id="boundary" inkscape:connector-curvature="0" />
	<path style="fill:none;stroke:red;stroke-width:1px;stroke-linecap:butt;stroke-linejoin:miter;stroke-opacity:1" d="M 996,182.595 996,200.278 z" id="boundary" inkscape:connector-curvature="0" />
	<path style="fill:none;stroke:red;stroke-width:1px;stroke-linecap:butt;stroke-linejoin:miter;stroke-opacity:1" d="M 996,200.278 996,217.961 z" id="boundary" inkscape:connector-curvature="0" />
	<circle cx="4" cy="256.863" r="4" fill="#0" id="circle0"/>
	<circle cx="4" cy="274.545" r="4" fill="#0" id="circle1"/>
	<circle cx="4" cy="292.228" r="4" fill="#0" id="circle2"/>
	<circle cx="12.8414" cy="239.18" r="4" fill="#0" id="circle3"/>
	<circle cx="18.1462" cy="304.606" r="4" fill="#0" id="circle4"/>
	<circle cx="21.6827" cy="212.656" r="4" fill="#0" id="circle5"/>
	<circle cx="30.5241" cy="318.752" r="4" fill="#0" id="circle6"/>
	<circle cx="30.5241" cy="336.435" r="4" fill="#0" id="circle7"/>
	<circle cx="30.5241" cy="354.118" r="4" fill="#0" id="circle8"/>
	<circle cx="30.5241" cy="371.8" r="4" fill="#0" id="circle9"/>
	<circle cx="30.5241" cy="389.483" r="4" fill="#0" id="circle10"/>
	<circle cx="30.5241" cy="407.166" r="4" fill="#0" id="circle11"/>
	<circle cx="30.5241" cy="424.848" r="4" fill="#0" id="circle12"/>
	<circle cx="39.3654" cy="212.656" r="4" fill="#0" id="circle13"/>
	<circle cx="44.6702" cy="437.226" r="4" fill="#0" id="circle14"/>
	<circle cx="53.5116" cy="198.51" r="4" fill="#0" id="circle15"/>
	<circle cx="57.0481" cy="451.373" r="4" fill="#0" id="circle16"/>
	<circle cx="71.1943" cy="189.668" r="4" fill="#0" id="circle17"/>
	<circle cx="71.1943" cy="463.75" r="4" fill="#0" id="circle18"/>
	<circle cx="87.1087" cy="180.827" r="4" fill="#0" id="circle19"/>
	<circle cx="87.1087" cy="472.592" r="4" fill="#0" id="circle20"/>
	<circle cx="103.023" cy="171.986" r="4" fill="#0" id="circle21"/>
	<circle cx="104.791" cy="474.36" r="4" fill="#0" id="circle22"/>
	<circle cx="120.706" cy="166.681" r="4" fill="#0" id="circle23"/>
	<circle cx="120.706" cy="465.519" r="4" fill="#0" id="circle24"/>
	<circle cx="136.62" cy="456.677" r="4" fill="#0" id="circle25"/>
	<circle cx="138.389" cy="166.681" r="4" fill="#0" id="circle26"/>
	<circle cx="147.23" cy="438.995" r="4" fill="#0" id="circle27"/>
	<circle cx="156.071" cy="163.144" r="4" fill="#0" id="circle28"/>
	<circle cx="163.144" cy="430.153" r="4" fill="#0" id="circle29"/>
	<circle cx="173.754" cy="163.144" r="4" fill="#0" id="circle30"/>
	<circle cx="180.827" cy="430.153" r="4" fill="#0" id="circle31"/>
	<circle cx="191.437" cy="163.144" r="4" fill="#0" id="circle32"/>
	<circle cx="198.51" cy="433.69" r="4" fill="#0" id="circle33"/>
	<circle cx="209.119" cy="163.144" r="4" fill="#0" id="circle34"/>
	<circle cx="216.193" cy="433.69" r="4" fill="#0" id="circle35"/>
	<circle cx="226.802" cy="163.144" r="4" fill="#0" id="circle36"/>
	<circle cx="233.875" cy="433.69" r="4" fill="#0" id="circle37"/>
	<circle cx="244.485" cy="163.144" r="4" fill="#0" id="circle38"/>
	<circle cx="251.558" cy="430.153" r="4" fill="#0" id="circle39"/>
	<circle cx="255.094" cy="147.23" r="4" fill="#0" id="circle40"/>
	<circle cx="269.241" cy="124.242" r="4" fill="#0" id="circle41"/>
	<circle cx="269.241" cy="430.153" r="4" fill="#0" id="circle42"/>
	<circle cx="286.923" cy="127.779" r="4" fill="#0" id="circle43"/>
	<circle cx="286.923" cy="430.153" r="4" fill="#0" id="circle44"/>
	<circle cx="297.533" cy="141.925" r="4" fill="#0" id="circle45"/>
	<circle cx="304.606" cy="430.153" r="4" fill="#0" id="circle46"/>
	<circle cx="315.216" cy="140.157" r="4" fill="#0" id="circle47"/>
	<circle cx="322.289" cy="430.153" r="4" fill="#0" id="circle48"/>
	<circle cx="329.362" cy="127.779" r="4" fill="#0" id="circle49"/>
	<circle cx="339.971" cy="430.153" r="4" fill="#0" id="circle50"/>
	<circle cx="341.74" cy="113.633" r="4" fill="#0" id="circle51"/>
	<circle cx="357.654" cy="433.69" r="4" fill="#0" id="circle52"/>
	<circle cx="359.422" cy="110.096" r="4" fill="#0" id="circle53"/>
	<circle cx="375.337" cy="438.995" r="4" fill="#0" id="circle54"/>
	<circle cx="377.105" cy="110.096" r="4" fill="#0" id="circle55"/>
	<circle cx="393.02" cy="433.69" r="4" fill="#0" id="circle56"/>
	<circle cx="394.788" cy="110.096" r="4" fill="#0" id="circle57"/>
	<circle cx="403.629" cy="412.471" r="4" fill="#0" id="circle58"/>
	<circle cx="408.934" cy="120.706" r="4" fill="#0" id="circle59"/>
	<circle cx="414.239" cy="426.617" r="4" fill="#0" id="circle60"/>
	<circle cx="419.544" cy="444.299" r="4" fill="#0" id="circle61"/>
	<circle cx="421.312" cy="461.982" r="4" fill="#0" id="circle62"/>
	<circle cx="426.617" cy="127.779" r="4" fill="#0" id="circle63"/>
	<circle cx="435.458" cy="474.36" r="4" fill="#0" id="circle64"/>
	<circle cx="438.995" cy="113.633" r="4" fill="#0" id="circle65"/>
	<circle cx="442.531" cy="136.62" r="4" fill="#0" id="circle66"/>
	<circle cx="446.068" cy="18.1462" r="4" fill="#0" id="circle67"/>
	<circle cx="446.068" cy="35.8289" r="4" fill="#0" id="circle68"/>
	<circle cx="446.068" cy="53.5116" r="4" fill="#0" id="circle69"/>
	<circle cx="446.068" cy="71.1943" r="4" fill="#0" id="circle70"/>
	<circle cx="446.068" cy="88.877" r="4" fill="#0" id="circle71"/>
	<circle cx="451.373" cy="483.201" r="4" fill="#0" id="circle72"/>
	<circle cx="460.214" cy="4" r="4" fill="#0" id="circle73"/>
	<circle cx="467.287" cy="492.043" r="4" fill="#0" id="circle74"/>
	<circle cx="477.897" cy="4" r="4" fill="#0" id="circle75"/>
	<circle cx="484.97" cy="492.043" r="4" fill="#0" id="circle76"/>
	<circle cx="495.579" cy="4" r="4" fill="#0" id="circle77"/>
	<circle cx="502.652" cy="497.348" r="4" fill="#0" id="circle78"/>
	<circle cx="513.262" cy="4" r="4" fill="#0" id="circle79"/>
	<circle cx="520.335" cy="500.884" r="4" fill="#0" id="circle80"/>
	<circle cx="530.945" cy="4" r="4" fill="#0" id="circle81"/>
	<circle cx="536.25" cy="492.043" r="4" fill="#0" id="circle82"/>
	<circle cx="548.627" cy="4" r="4" fill="#0" id="circle83"/>
	<circle cx="553.932" cy="474.36" r="4" fill="#0" id="circle84"/>
	<circle cx="562.774" cy="438.995" r="4" fill="#0" id="circle85"/>
	<circle cx="562.774" cy="456.677" r="4" fill="#0" id="circle86"/>
	<circle cx="564.542" cy="12.8414" r="4" fill="#0" id="circle87"/>
	<circle cx="578.688" cy="430.153" r="4" fill="#0" id="circle88"/>
	<circle cx="582.225" cy="12.8414" r="4" fill="#0" id="circle89"/>
	<circle cx="596.371" cy="430.153" r="4" fill="#0" id="circle90"/>
	<circle cx="599.907" cy="14.6096" r="4" fill="#0" id="circle91"/>
	<circle cx="614.053" cy="430.153" r="4" fill="#0" id="circle92"/>
	<circle cx="617.59" cy="14.6096" r="4" fill="#0" id="circle93"/>
	<circle cx="631.736" cy="430.153" r="4" fill="#0" id="circle94"/>
	<circle cx="635.273" cy="21.6827" r="4" fill="#0" id="circle95"/>
	<circle cx="649.419" cy="430.153" r="4" fill="#0" id="circle96"/>
	<circle cx="652.955" cy="14.6096" r="4" fill="#0" id="circle97"/>
	<circle cx="667.102" cy="430.153" r="4" fill="#0" id="circle98"/>
	<circle cx="670.638" cy="14.6096" r="4" fill="#0" id="circle99"/>
	<circle cx="684.784" cy="433.69" r="4" fill="#0" id="circle100"/>
	<circle cx="688.321" cy="21.6827" r="4" fill="#0" id="circle101"/>
	<circle cx="702.467" cy="433.69" r="4" fill="#0" id="circle102"/>
	<circle cx="704.235" cy="12.8414" r="4" fill="#0" id="circle103"/>
	<circle cx="720.15" cy="21.6827" r="4" fill="#0" id="circle104"/>
	<circle cx="720.15" cy="438.995" r="4" fill="#0" id="circle105"/>
	<circle cx="736.064" cy="30.5241" r="4" fill="#0" id="circle106"/>
	<circle cx="736.064" cy="430.153" r="4" fill="#0" id="circle107"/>
	<circle cx="751.979" cy="39.3654" r="4" fill="#0" id="circle108"/>
	<circle cx="751.979" cy="421.312" r="4" fill="#0" id="circle109"/>
	<circle cx="766.125" cy="49.975" r="4" fill="#0" id="circle110"/>
	<circle cx="766.125" cy="67.6578" r="4" fill="#0" id="circle111"/>
	<circle cx="766.125" cy="85.3405" r="4" fill="#0" id="circle112"/>
	<circle cx="766.125" cy="103.023" r="4" fill="#0" id="circle113"/>
	<circle cx="769.661" cy="120.706" r="4" fill="#0" id="circle114"/>
	<circle cx="769.661" cy="421.312" r="4" fill="#0" id="circle115"/>
	<circle cx="787.344" cy="127.779" r="4" fill="#0" id="circle116"/>
	<circle cx="787.344" cy="421.312" r="4" fill="#0" id="circle117"/>
	<circle cx="799.722" cy="141.925" r="4" fill="#0" id="circle118"/>
	<circle cx="805.027" cy="428.385" r="4" fill="#0" id="circle119"/>
	<circle cx="813.868" cy="154.303" r="4" fill="#0" id="circle120"/>
	<circle cx="817.405" cy="442.531" r="4" fill="#0" id="circle121"/>
	<circle cx="828.014" cy="456.677" r="4" fill="#0" id="circle122"/>
	<circle cx="831.551" cy="154.303" r="4" fill="#0" id="circle123"/>
	<circle cx="845.697" cy="447.836" r="4" fill="#0" id="circle124"/>
	<circle cx="849.234" cy="154.303" r="4" fill="#0" id="circle125"/>
	<circle cx="861.611" cy="438.995" r="4" fill="#0" id="circle126"/>
	<circle cx="866.916" cy="154.303" r="4" fill="#0" id="circle127"/>
	<circle cx="875.758" cy="428.385" r="4" fill="#0" id="circle128"/>
	<circle cx="881.062" cy="350.581" r="4" fill="#0" id="circle129"/>
	<circle cx="881.062" cy="368.264" r="4" fill="#0" id="circle130"/>
	<circle cx="881.062" cy="403.629" r="4" fill="#0" id="circle131"/>
	<circle cx="884.599" cy="154.303" r="4" fill="#0" id="circle132"/>
	<circle cx="884.599" cy="385.947" r="4" fill="#0" id="circle133"/>
	<circle cx="896.977" cy="341.74" r="4" fill="#0" id="circle134"/>
	<circle cx="902.282" cy="154.303" r="4" fill="#0" id="circle135"/>
	<circle cx="912.891" cy="332.898" r="4" fill="#0" id="circle136"/>
	<circle cx="919.964" cy="154.303" r="4" fill="#0" id="circle137"/>
	<circle cx="928.806" cy="322.289" r="4" fill="#0" id="circle138"/>
	<circle cx="937.647" cy="154.303" r="4" fill="#0" id="circle139"/>
	<circle cx="942.952" cy="306.374" r="4" fill="#0" id="circle140"/>
	<circle cx="955.33" cy="154.303" r="4" fill="#0" id="circle141"/>
	<circle cx="957.098" cy="293.996" r="4" fill="#0" id="circle142"/>
	<circle cx="965.939" cy="276.314" r="4" fill="#0" id="circle143"/>
	<circle cx="969.476" cy="253.326" r="4" fill="#0" id="circle144"/>
	<circle cx="973.012" cy="154.303" r="4" fill="#0" id="circle145"/>
	<circle cx="983.622" cy="240.948" r="4" fill="#0" id="circle146"/>
	<circle cx="985.39" cy="168.449" r="4" fill="#0" id="circle147"/>
	<circle cx="996" cy="182.595" r="4" fill="#0" id="circle148"/>
	<circle cx="996" cy="200.278" r="4" fill="#0" id="circle149"/>
	<circle cx="996" cy="217.961" r="4" fill="#0" id="circle150"/>
	</g>
</svg>