<?xml version="1.0" encoding="UTF-8" standalone="no"?>
<!-- Created with CurveBenchmark -->
<svg
	xmlns:dc="http://purl.org/dc/elements/1.1/"
	xmlns:cc="http://creativecommons.org/ns#"
	xmlns:rdf="http://www.w3.org/1999/02/22-rdf-syntax-ns#"
	xmlns:svg="http://www.w3.org/2000/svg"
	xmlns="http://www.w3.org/2000/svg"
	xmlns:sodipodi="http://sodipodi.sourceforge.net/DTD/sodipodi-0.dtd"
	xmlns:inkscape="http://www.inkscape.org/namespaces/inkscape"
	width="1000"
	height="1000"
	id="svg2"
	version="1.1"
	sodipodi:docname="manifold/vicur-skyhawkocc1.png.txt">
<defs
	id="defs4" />
<metadata
	id="metadata7">
	<rdf:RDF>
		<cc:Work
			rdf:about="">
			<dc:format>image/svg+xml</dc:format>
			<dc:type
				rdf:resource="http://purl.org/dc/dcmitype/StillImage" />
			<dc:title></dc:title>
		</cc:Work>
	</rdf:RDF>
</metadata>
<g
	inkscape:label="Layer 1"
	inkscape:groupmode="layer"
	id="layer1">
	<path style="fill:none;stroke:red;stroke-width:1px;stroke-linecap:butt;stroke-linejoin:miter;stroke-opacity:1" d="M 4,548.312 4,564.416 z" id="boundary" inkscape:connector-curvature="0" />
	<path style="fill:none;stroke:red;stroke-width:1px;stroke-linecap:butt;stroke-linejoin:miter;stroke-opacity:1" d="M 4,548.312 16.8831,535.429 z" id="boundary" inkscape:connector-curvature="0" />
	<path style="fill:none;stroke:red;stroke-width:1px;stroke-linecap:butt;stroke-linejoin:miter;stroke-opacity:1" d="M 4,564.416 20.1039,569.247 z" id="boundary" inkscape:connector-curvature="0" />
	<path style="fill:none;stroke:red;stroke-width:1px;stroke-linecap:butt;stroke-linejoin:miter;stroke-opacity:1" d="M 16.8831,535.429 29.7662,522.545 z" id="boundary" inkscape:connector-curvature="0" />
	<path style="fill:none;stroke:red;stroke-width:1px;stroke-linecap:butt;stroke-linejoin:miter;stroke-opacity:1" d="M 20.1039,569.247 36.2078,569.247 z" id="boundary" inkscape:connector-curvature="0" />
	<path style="fill:none;stroke:red;stroke-width:1px;stroke-linecap:butt;stroke-linejoin:miter;stroke-opacity:1" d="M 29.7662,522.545 45.8701,514.494 z" id="boundary" inkscape:connector-curvature="0" />
	<path style="fill:none;stroke:red;stroke-width:1px;stroke-linecap:butt;stroke-linejoin:miter;stroke-opacity:1" d="M 36.2078,569.247 52.3117,569.247 z" id="boundary" inkscape:connector-curvature="0" />
	<path style="fill:none;stroke:red;stroke-width:1px;stroke-linecap:butt;stroke-linejoin:miter;stroke-opacity:1" d="M 45.8701,514.494 61.974,506.442 z" id="boundary" inkscape:connector-curvature="0" />
	<path style="fill:none;stroke:red;stroke-width:1px;stroke-linecap:butt;stroke-linejoin:miter;stroke-opacity:1" d="M 52.3117,569.247 66.8052,561.195 z" id="boundary" inkscape:connector-curvature="0" />
	<path style="fill:none;stroke:red;stroke-width:1px;stroke-linecap:butt;stroke-linejoin:miter;stroke-opacity:1" d="M 61.974,506.442 78.0779,498.39 z" id="boundary" inkscape:connector-curvature="0" />
	<path style="fill:none;stroke:red;stroke-width:1px;stroke-linecap:butt;stroke-linejoin:miter;stroke-opacity:1" d="M 66.8052,561.195 82.9091,561.195 z" id="boundary" inkscape:connector-curvature="0" />
	<path style="fill:none;stroke:red;stroke-width:1px;stroke-linecap:butt;stroke-linejoin:miter;stroke-opacity:1" d="M 78.0779,498.39 94.1818,490.338 z" id="boundary" inkscape:connector-curvature="0" />
	<path style="fill:none;stroke:red;stroke-width:1px;stroke-linecap:butt;stroke-linejoin:miter;stroke-opacity:1" d="M 82.9091,561.195 97.4026,553.143 z" id="boundary" inkscape:connector-curvature="0" />
	<path style="fill:none;stroke:red;stroke-width:1px;stroke-linecap:butt;stroke-linejoin:miter;stroke-opacity:1" d="M 94.1818,490.338 110.286,482.286 z" id="boundary" inkscape:connector-curvature="0" />
	<path style="fill:none;stroke:red;stroke-width:1px;stroke-linecap:butt;stroke-linejoin:miter;stroke-opacity:1" d="M 97.4026,553.143 113.506,553.143 z" id="boundary" inkscape:connector-curvature="0" />
	<path style="fill:none;stroke:red;stroke-width:1px;stroke-linecap:butt;stroke-linejoin:miter;stroke-opacity:1" d="M 110.286,482.286 126.39,474.234 z" id="boundary" inkscape:connector-curvature="0" />
	<path style="fill:none;stroke:red;stroke-width:1px;stroke-linecap:butt;stroke-linejoin:miter;stroke-opacity:1" d="M 113.506,553.143 128,545.091 z" id="boundary" inkscape:connector-curvature="0" />
	<path style="fill:none;stroke:red;stroke-width:1px;stroke-linecap:butt;stroke-linejoin:miter;stroke-opacity:1" d="M 126.39,474.234 139.273,462.961 z" id="boundary" inkscape:connector-curvature="0" />
	<path style="fill:none;stroke:red;stroke-width:1px;stroke-linecap:butt;stroke-linejoin:miter;stroke-opacity:1" d="M 128,545.091 144.104,545.091 z" id="boundary" inkscape:connector-curvature="0" />
	<path style="fill:none;stroke:red;stroke-width:1px;stroke-linecap:butt;stroke-linejoin:miter;stroke-opacity:1" d="M 139.273,462.961 153.766,454.909 z" id="boundary" inkscape:connector-curvature="0" />
	<path style="fill:none;stroke:red;stroke-width:1px;stroke-linecap:butt;stroke-linejoin:miter;stroke-opacity:1" d="M 144.104,545.091 158.597,537.039 z" id="boundary" inkscape:connector-curvature="0" />
	<path style="fill:none;stroke:red;stroke-width:1px;stroke-linecap:butt;stroke-linejoin:miter;stroke-opacity:1" d="M 153.766,454.909 169.87,446.857 z" id="boundary" inkscape:connector-curvature="0" />
	<path style="fill:none;stroke:red;stroke-width:1px;stroke-linecap:butt;stroke-linejoin:miter;stroke-opacity:1" d="M 158.597,537.039 174.701,537.039 z" id="boundary" inkscape:connector-curvature="0" />
	<path style="fill:none;stroke:red;stroke-width:1px;stroke-linecap:butt;stroke-linejoin:miter;stroke-opacity:1" d="M 169.87,446.857 185.974,438.805 z" id="boundary" inkscape:connector-curvature="0" />
	<path style="fill:none;stroke:red;stroke-width:1px;stroke-linecap:butt;stroke-linejoin:miter;stroke-opacity:1" d="M 174.701,537.039 189.195,528.987 z" id="boundary" inkscape:connector-curvature="0" />
	<path style="fill:none;stroke:red;stroke-width:1px;stroke-linecap:butt;stroke-linejoin:miter;stroke-opacity:1" d="M 185.974,438.805 202.078,430.753 z" id="boundary" inkscape:connector-curvature="0" />
	<path style="fill:none;stroke:red;stroke-width:1px;stroke-linecap:butt;stroke-linejoin:miter;stroke-opacity:1" d="M 189.195,528.987 205.299,524.156 z" id="boundary" inkscape:connector-curvature="0" />
	<path style="fill:none;stroke:red;stroke-width:1px;stroke-linecap:butt;stroke-linejoin:miter;stroke-opacity:1" d="M 202.078,430.753 218.182,422.701 z" id="boundary" inkscape:connector-curvature="0" />
	<path style="fill:none;stroke:red;stroke-width:1px;stroke-linecap:butt;stroke-linejoin:miter;stroke-opacity:1" d="M 205.299,524.156 221.403,520.935 z" id="boundary" inkscape:connector-curvature="0" />
	<path style="fill:none;stroke:red;stroke-width:1px;stroke-linecap:butt;stroke-linejoin:miter;stroke-opacity:1" d="M 218.182,422.701 234.286,422.701 z" id="boundary" inkscape:connector-curvature="0" />
	<path style="fill:none;stroke:red;stroke-width:1px;stroke-linecap:butt;stroke-linejoin:miter;stroke-opacity:1" d="M 221.403,520.935 237.506,516.104 z" id="boundary" inkscape:connector-curvature="0" />
	<path style="fill:none;stroke:red;stroke-width:1px;stroke-linecap:butt;stroke-linejoin:miter;stroke-opacity:1" d="M 234.286,422.701 248.779,414.649 z" id="boundary" inkscape:connector-curvature="0" />
	<path style="fill:none;stroke:red;stroke-width:1px;stroke-linecap:butt;stroke-linejoin:miter;stroke-opacity:1" d="M 237.506,516.104 253.61,512.883 z" id="boundary" inkscape:connector-curvature="0" />
	<path style="fill:none;stroke:red;stroke-width:1px;stroke-linecap:butt;stroke-linejoin:miter;stroke-opacity:1" d="M 248.779,414.649 261.662,403.377 z" id="boundary" inkscape:connector-curvature="0" />
	<path style="fill:none;stroke:red;stroke-width:1px;stroke-linecap:butt;stroke-linejoin:miter;stroke-opacity:1" d="M 253.61,512.883 268.104,504.831 z" id="boundary" inkscape:connector-curvature="0" />
	<path style="fill:none;stroke:red;stroke-width:1px;stroke-linecap:butt;stroke-linejoin:miter;stroke-opacity:1" d="M 261.662,387.273 261.662,403.377 z" id="boundary" inkscape:connector-curvature="0" />
	<path style="fill:none;stroke:red;stroke-width:1px;stroke-linecap:butt;stroke-linejoin:miter;stroke-opacity:1" d="M 261.662,387.273 277.766,379.221 z" id="boundary" inkscape:connector-curvature="0" />
	<path style="fill:none;stroke:red;stroke-width:1px;stroke-linecap:butt;stroke-linejoin:miter;stroke-opacity:1" d="M 268.104,504.831 284.208,501.61 z" id="boundary" inkscape:connector-curvature="0" />
	<path style="fill:none;stroke:red;stroke-width:1px;stroke-linecap:butt;stroke-linejoin:miter;stroke-opacity:1" d="M 277.766,379.221 293.87,374.39 z" id="boundary" inkscape:connector-curvature="0" />
	<path style="fill:none;stroke:red;stroke-width:1px;stroke-linecap:butt;stroke-linejoin:miter;stroke-opacity:1" d="M 284.208,501.61 300.312,496.779 z" id="boundary" inkscape:connector-curvature="0" />
	<path style="fill:none;stroke:red;stroke-width:1px;stroke-linecap:butt;stroke-linejoin:miter;stroke-opacity:1" d="M 293.87,234.286 301.922,248.779 z" id="boundary" inkscape:connector-curvature="0" />
	<path style="fill:none;stroke:red;stroke-width:1px;stroke-linecap:butt;stroke-linejoin:miter;stroke-opacity:1" d="M 293.87,234.286 306.753,221.403 z" id="boundary" inkscape:connector-curvature="0" />
	<path style="fill:none;stroke:red;stroke-width:1px;stroke-linecap:butt;stroke-linejoin:miter;stroke-opacity:1" d="M 293.87,374.39 308.364,366.338 z" id="boundary" inkscape:connector-curvature="0" />
	<path style="fill:none;stroke:red;stroke-width:1px;stroke-linecap:butt;stroke-linejoin:miter;stroke-opacity:1" d="M 300.312,496.779 311.584,509.662 z" id="boundary" inkscape:connector-curvature="0" />
	<path style="fill:none;stroke:red;stroke-width:1px;stroke-linecap:butt;stroke-linejoin:miter;stroke-opacity:1" d="M 301.922,248.779 318.026,250.39 z" id="boundary" inkscape:connector-curvature="0" />
	<path style="fill:none;stroke:red;stroke-width:1px;stroke-linecap:butt;stroke-linejoin:miter;stroke-opacity:1" d="M 306.753,221.403 321.247,213.351 z" id="boundary" inkscape:connector-curvature="0" />
	<path style="fill:none;stroke:red;stroke-width:1px;stroke-linecap:butt;stroke-linejoin:miter;stroke-opacity:1" d="M 308.364,366.338 318.026,347.013 z" id="boundary" inkscape:connector-curvature="0" />
	<path style="fill:none;stroke:red;stroke-width:1px;stroke-linecap:butt;stroke-linejoin:miter;stroke-opacity:1" d="M 311.584,509.662 327.688,504.831 z" id="boundary" inkscape:connector-curvature="0" />
	<path style="fill:none;stroke:red;stroke-width:1px;stroke-linecap:butt;stroke-linejoin:miter;stroke-opacity:1" d="M 318.026,250.39 334.13,247.169 z" id="boundary" inkscape:connector-curvature="0" />
	<path style="fill:none;stroke:red;stroke-width:1px;stroke-linecap:butt;stroke-linejoin:miter;stroke-opacity:1" d="M 318.026,347.013 326.078,322.857 z" id="boundary" inkscape:connector-curvature="0" />
	<path style="fill:none;stroke:red;stroke-width:1px;stroke-linecap:butt;stroke-linejoin:miter;stroke-opacity:1" d="M 321.247,213.351 335.74,205.299 z" id="boundary" inkscape:connector-curvature="0" />
	<path style="fill:none;stroke:red;stroke-width:1px;stroke-linecap:butt;stroke-linejoin:miter;stroke-opacity:1" d="M 326.078,322.857 334.13,306.753 z" id="boundary" inkscape:connector-curvature="0" />
	<path style="fill:none;stroke:red;stroke-width:1px;stroke-linecap:butt;stroke-linejoin:miter;stroke-opacity:1" d="M 327.688,504.831 343.792,496.779 z" id="boundary" inkscape:connector-curvature="0" />
	<path style="fill:none;stroke:red;stroke-width:1px;stroke-linecap:butt;stroke-linejoin:miter;stroke-opacity:1" d="M 334.13,247.169 350.234,247.169 z" id="boundary" inkscape:connector-curvature="0" />
	<path style="fill:none;stroke:red;stroke-width:1px;stroke-linecap:butt;stroke-linejoin:miter;stroke-opacity:1" d="M 334.13,306.753 342.182,290.649 z" id="boundary" inkscape:connector-curvature="0" />
	<path style="fill:none;stroke:red;stroke-width:1px;stroke-linecap:butt;stroke-linejoin:miter;stroke-opacity:1" d="M 335.74,205.299 351.844,200.468 z" id="boundary" inkscape:connector-curvature="0" />
	<path style="fill:none;stroke:red;stroke-width:1px;stroke-linecap:butt;stroke-linejoin:miter;stroke-opacity:1" d="M 342.182,274.545 342.182,290.649 z" id="boundary" inkscape:connector-curvature="0" />
	<path style="fill:none;stroke:red;stroke-width:1px;stroke-linecap:butt;stroke-linejoin:miter;stroke-opacity:1" d="M 342.182,274.545 350.234,247.169 z" id="boundary" inkscape:connector-curvature="0" />
	<path style="fill:none;stroke:red;stroke-width:1px;stroke-linecap:butt;stroke-linejoin:miter;stroke-opacity:1" d="M 343.792,496.779 359.896,496.779 z" id="boundary" inkscape:connector-curvature="0" />
	<path style="fill:none;stroke:red;stroke-width:1px;stroke-linecap:butt;stroke-linejoin:miter;stroke-opacity:1" d="M 351.844,200.468 367.948,192.416 z" id="boundary" inkscape:connector-curvature="0" />
	<path style="fill:none;stroke:red;stroke-width:1px;stroke-linecap:butt;stroke-linejoin:miter;stroke-opacity:1" d="M 359.896,496.779 374.39,488.727 z" id="boundary" inkscape:connector-curvature="0" />
	<path style="fill:none;stroke:red;stroke-width:1px;stroke-linecap:butt;stroke-linejoin:miter;stroke-opacity:1" d="M 367.948,192.416 380.831,181.143 z" id="boundary" inkscape:connector-curvature="0" />
	<path style="fill:none;stroke:red;stroke-width:1px;stroke-linecap:butt;stroke-linejoin:miter;stroke-opacity:1" d="M 374.39,488.727 388.883,496.779 z" id="boundary" inkscape:connector-curvature="0" />
	<path style="fill:none;stroke:red;stroke-width:1px;stroke-linecap:butt;stroke-linejoin:miter;stroke-opacity:1" d="M 380.831,181.143 387.273,165.039 z" id="boundary" inkscape:connector-curvature="0" />
	<path style="fill:none;stroke:red;stroke-width:1px;stroke-linecap:butt;stroke-linejoin:miter;stroke-opacity:1" d="M 387.273,165.039 390.494,145.714 z" id="boundary" inkscape:connector-curvature="0" />
	<path style="fill:none;stroke:red;stroke-width:1px;stroke-linecap:butt;stroke-linejoin:miter;stroke-opacity:1" d="M 388.883,496.779 403.377,504.831 z" id="boundary" inkscape:connector-curvature="0" />
	<path style="fill:none;stroke:red;stroke-width:1px;stroke-linecap:butt;stroke-linejoin:miter;stroke-opacity:1" d="M 390.494,145.714 398.545,121.558 z" id="boundary" inkscape:connector-curvature="0" />
	<path style="fill:none;stroke:red;stroke-width:1px;stroke-linecap:butt;stroke-linejoin:miter;stroke-opacity:1" d="M 398.545,121.558 406.597,97.4026 z" id="boundary" inkscape:connector-curvature="0" />
	<path style="fill:none;stroke:red;stroke-width:1px;stroke-linecap:butt;stroke-linejoin:miter;stroke-opacity:1" d="M 403.377,504.831 417.87,512.883 z" id="boundary" inkscape:connector-curvature="0" />
	<path style="fill:none;stroke:red;stroke-width:1px;stroke-linecap:butt;stroke-linejoin:miter;stroke-opacity:1" d="M 406.597,97.4026 414.649,81.2987 z" id="boundary" inkscape:connector-curvature="0" />
	<path style="fill:none;stroke:red;stroke-width:1px;stroke-linecap:butt;stroke-linejoin:miter;stroke-opacity:1" d="M 414.649,81.2987 422.701,65.1948 z" id="boundary" inkscape:connector-curvature="0" />
	<path style="fill:none;stroke:red;stroke-width:1px;stroke-linecap:butt;stroke-linejoin:miter;stroke-opacity:1" d="M 417.87,512.883 430.753,522.545 z" id="boundary" inkscape:connector-curvature="0" />
	<path style="fill:none;stroke:red;stroke-width:1px;stroke-linecap:butt;stroke-linejoin:miter;stroke-opacity:1" d="M 422.701,65.1948 430.753,49.0909 z" id="boundary" inkscape:connector-curvature="0" />
	<path style="fill:none;stroke:red;stroke-width:1px;stroke-linecap:butt;stroke-linejoin:miter;stroke-opacity:1" d="M 430.753,49.0909 443.636,36.2078 z" id="boundary" inkscape:connector-curvature="0" />
	<path style="fill:none;stroke:red;stroke-width:1px;stroke-linecap:butt;stroke-linejoin:miter;stroke-opacity:1" d="M 430.753,522.545 442.026,535.429 z" id="boundary" inkscape:connector-curvature="0" />
	<path style="fill:none;stroke:red;stroke-width:1px;stroke-linecap:butt;stroke-linejoin:miter;stroke-opacity:1" d="M 430.753,572.468 430.753,588.571 z" id="boundary" inkscape:connector-curvature="0" />
	<path style="fill:none;stroke:red;stroke-width:1px;stroke-linecap:butt;stroke-linejoin:miter;stroke-opacity:1" d="M 430.753,572.468 443.636,559.584 z" id="boundary" inkscape:connector-curvature="0" />
	<path style="fill:none;stroke:red;stroke-width:1px;stroke-linecap:butt;stroke-linejoin:miter;stroke-opacity:1" d="M 430.753,588.571 446.857,593.403 z" id="boundary" inkscape:connector-curvature="0" />
	<path style="fill:none;stroke:red;stroke-width:1px;stroke-linecap:butt;stroke-linejoin:miter;stroke-opacity:1" d="M 442.026,535.429 458.13,541.87 z" id="boundary" inkscape:connector-curvature="0" />
	<path style="fill:none;stroke:red;stroke-width:1px;stroke-linecap:butt;stroke-linejoin:miter;stroke-opacity:1" d="M 443.636,36.2078 456.519,23.3247 z" id="boundary" inkscape:connector-curvature="0" />
	<path style="fill:none;stroke:red;stroke-width:1px;stroke-linecap:butt;stroke-linejoin:miter;stroke-opacity:1" d="M 443.636,559.584 458.13,541.87 z" id="boundary" inkscape:connector-curvature="0" />
	<path style="fill:none;stroke:red;stroke-width:1px;stroke-linecap:butt;stroke-linejoin:miter;stroke-opacity:1" d="M 446.857,593.403 462.961,593.403 z" id="boundary" inkscape:connector-curvature="0" />
	<path style="fill:none;stroke:red;stroke-width:1px;stroke-linecap:butt;stroke-linejoin:miter;stroke-opacity:1" d="M 456.519,23.3247 469.403,12.0519 z" id="boundary" inkscape:connector-curvature="0" />
	<path style="fill:none;stroke:red;stroke-width:1px;stroke-linecap:butt;stroke-linejoin:miter;stroke-opacity:1" d="M 462.961,593.403 479.065,588.571 z" id="boundary" inkscape:connector-curvature="0" />
	<path style="fill:none;stroke:red;stroke-width:1px;stroke-linecap:butt;stroke-linejoin:miter;stroke-opacity:1" d="M 469.403,12.0519 483.896,4 z" id="boundary" inkscape:connector-curvature="0" />
	<path style="fill:none;stroke:red;stroke-width:1px;stroke-linecap:butt;stroke-linejoin:miter;stroke-opacity:1" d="M 479.065,588.571 495.169,585.351 z" id="boundary" inkscape:connector-curvature="0" />
	<path style="fill:none;stroke:red;stroke-width:1px;stroke-linecap:butt;stroke-linejoin:miter;stroke-opacity:1" d="M 483.896,4 500,4 z" id="boundary" inkscape:connector-curvature="0" />
	<path style="fill:none;stroke:red;stroke-width:1px;stroke-linecap:butt;stroke-linejoin:miter;stroke-opacity:1" d="M 495.169,585.351 509.662,577.299 z" id="boundary" inkscape:connector-curvature="0" />
	<path style="fill:none;stroke:red;stroke-width:1px;stroke-linecap:butt;stroke-linejoin:miter;stroke-opacity:1" d="M 500,4 512.883,13.6623 z" id="boundary" inkscape:connector-curvature="0" />
	<path style="fill:none;stroke:red;stroke-width:1px;stroke-linecap:butt;stroke-linejoin:miter;stroke-opacity:1" d="M 509.662,577.299 525.766,574.078 z" id="boundary" inkscape:connector-curvature="0" />
	<path style="fill:none;stroke:red;stroke-width:1px;stroke-linecap:butt;stroke-linejoin:miter;stroke-opacity:1" d="M 512.883,13.6623 520.935,28.1558 z" id="boundary" inkscape:connector-curvature="0" />
	<path style="fill:none;stroke:red;stroke-width:1px;stroke-linecap:butt;stroke-linejoin:miter;stroke-opacity:1" d="M 520.935,28.1558 520.935,44.2597 z" id="boundary" inkscape:connector-curvature="0" />
	<path style="fill:none;stroke:red;stroke-width:1px;stroke-linecap:butt;stroke-linejoin:miter;stroke-opacity:1" d="M 520.935,44.2597 528.987,58.7532 z" id="boundary" inkscape:connector-curvature="0" />
	<path style="fill:none;stroke:red;stroke-width:1px;stroke-linecap:butt;stroke-linejoin:miter;stroke-opacity:1" d="M 525.766,574.078 541.87,577.299 z" id="boundary" inkscape:connector-curvature="0" />
	<path style="fill:none;stroke:red;stroke-width:1px;stroke-linecap:butt;stroke-linejoin:miter;stroke-opacity:1" d="M 528.987,58.7532 537.039,73.2468 z" id="boundary" inkscape:connector-curvature="0" />
	<path style="fill:none;stroke:red;stroke-width:1px;stroke-linecap:butt;stroke-linejoin:miter;stroke-opacity:1" d="M 537.039,73.2468 543.481,89.3506 z" id="boundary" inkscape:connector-curvature="0" />
	<path style="fill:none;stroke:red;stroke-width:1px;stroke-linecap:butt;stroke-linejoin:miter;stroke-opacity:1" d="M 541.87,577.299 556.364,585.351 z" id="boundary" inkscape:connector-curvature="0" />
	<path style="fill:none;stroke:red;stroke-width:1px;stroke-linecap:butt;stroke-linejoin:miter;stroke-opacity:1" d="M 543.481,89.3506 551.532,103.844 z" id="boundary" inkscape:connector-curvature="0" />
	<path style="fill:none;stroke:red;stroke-width:1px;stroke-linecap:butt;stroke-linejoin:miter;stroke-opacity:1" d="M 551.532,103.844 557.974,119.948 z" id="boundary" inkscape:connector-curvature="0" />
	<path style="fill:none;stroke:red;stroke-width:1px;stroke-linecap:butt;stroke-linejoin:miter;stroke-opacity:1" d="M 556.364,585.351 572.468,591.792 z" id="boundary" inkscape:connector-curvature="0" />
	<path style="fill:none;stroke:red;stroke-width:1px;stroke-linecap:butt;stroke-linejoin:miter;stroke-opacity:1" d="M 557.974,119.948 574.078,124.779 z" id="boundary" inkscape:connector-curvature="0" />
	<path style="fill:none;stroke:red;stroke-width:1px;stroke-linecap:butt;stroke-linejoin:miter;stroke-opacity:1" d="M 572.468,591.792 586.961,599.844 z" id="boundary" inkscape:connector-curvature="0" />
	<path style="fill:none;stroke:red;stroke-width:1px;stroke-linecap:butt;stroke-linejoin:miter;stroke-opacity:1" d="M 574.078,124.779 583.74,105.455 z" id="boundary" inkscape:connector-curvature="0" />
	<path style="fill:none;stroke:red;stroke-width:1px;stroke-linecap:butt;stroke-linejoin:miter;stroke-opacity:1" d="M 577.299,150.545 577.299,166.649 z" id="boundary" inkscape:connector-curvature="0" />
	<path style="fill:none;stroke:red;stroke-width:1px;stroke-linecap:butt;stroke-linejoin:miter;stroke-opacity:1" d="M 577.299,150.545 593.403,150.545 z" id="boundary" inkscape:connector-curvature="0" />
	<path style="fill:none;stroke:red;stroke-width:1px;stroke-linecap:butt;stroke-linejoin:miter;stroke-opacity:1" d="M 577.299,166.649 585.351,181.143 z" id="boundary" inkscape:connector-curvature="0" />
	<path style="fill:none;stroke:red;stroke-width:1px;stroke-linecap:butt;stroke-linejoin:miter;stroke-opacity:1" d="M 583.74,105.455 596.623,92.5714 z" id="boundary" inkscape:connector-curvature="0" />
	<path style="fill:none;stroke:red;stroke-width:1px;stroke-linecap:butt;stroke-linejoin:miter;stroke-opacity:1" d="M 585.351,181.143 593.403,195.636 z" id="boundary" inkscape:connector-curvature="0" />
	<path style="fill:none;stroke:red;stroke-width:1px;stroke-linecap:butt;stroke-linejoin:miter;stroke-opacity:1" d="M 586.961,599.844 603.065,606.286 z" id="boundary" inkscape:connector-curvature="0" />
	<path style="fill:none;stroke:red;stroke-width:1px;stroke-linecap:butt;stroke-linejoin:miter;stroke-opacity:1" d="M 593.403,150.545 607.896,158.597 z" id="boundary" inkscape:connector-curvature="0" />
	<path style="fill:none;stroke:red;stroke-width:1px;stroke-linecap:butt;stroke-linejoin:miter;stroke-opacity:1" d="M 593.403,195.636 593.403,211.74 z" id="boundary" inkscape:connector-curvature="0" />
	<path style="fill:none;stroke:red;stroke-width:1px;stroke-linecap:butt;stroke-linejoin:miter;stroke-opacity:1" d="M 593.403,211.74 601.455,226.234 z" id="boundary" inkscape:connector-curvature="0" />
	<path style="fill:none;stroke:red;stroke-width:1px;stroke-linecap:butt;stroke-linejoin:miter;stroke-opacity:1" d="M 596.623,92.5714 612.727,92.5714 z" id="boundary" inkscape:connector-curvature="0" />
	<path style="fill:none;stroke:red;stroke-width:1px;stroke-linecap:butt;stroke-linejoin:miter;stroke-opacity:1" d="M 601.455,226.234 607.896,242.338 z" id="boundary" inkscape:connector-curvature="0" />
	<path style="fill:none;stroke:red;stroke-width:1px;stroke-linecap:butt;stroke-linejoin:miter;stroke-opacity:1" d="M 603.065,606.286 617.558,614.338 z" id="boundary" inkscape:connector-curvature="0" />
	<path style="fill:none;stroke:red;stroke-width:1px;stroke-linecap:butt;stroke-linejoin:miter;stroke-opacity:1" d="M 607.896,158.597 624,153.766 z" id="boundary" inkscape:connector-curvature="0" />
	<path style="fill:none;stroke:red;stroke-width:1px;stroke-linecap:butt;stroke-linejoin:miter;stroke-opacity:1" d="M 607.896,242.338 609.506,258.442 z" id="boundary" inkscape:connector-curvature="0" />
	<path style="fill:none;stroke:red;stroke-width:1px;stroke-linecap:butt;stroke-linejoin:miter;stroke-opacity:1" d="M 609.506,258.442 625.61,261.662 z" id="boundary" inkscape:connector-curvature="0" />
	<path style="fill:none;stroke:red;stroke-width:1px;stroke-linecap:butt;stroke-linejoin:miter;stroke-opacity:1" d="M 612.727,92.5714 624,105.455 z" id="boundary" inkscape:connector-curvature="0" />
	<path style="fill:none;stroke:red;stroke-width:1px;stroke-linecap:butt;stroke-linejoin:miter;stroke-opacity:1" d="M 617.558,614.338 633.662,620.779 z" id="boundary" inkscape:connector-curvature="0" />
	<path style="fill:none;stroke:red;stroke-width:1px;stroke-linecap:butt;stroke-linejoin:miter;stroke-opacity:1" d="M 624,105.455 632.052,119.948 z" id="boundary" inkscape:connector-curvature="0" />
	<path style="fill:none;stroke:red;stroke-width:1px;stroke-linecap:butt;stroke-linejoin:miter;stroke-opacity:1" d="M 624,153.766 633.662,136.052 z" id="boundary" inkscape:connector-curvature="0" />
	<path style="fill:none;stroke:red;stroke-width:1px;stroke-linecap:butt;stroke-linejoin:miter;stroke-opacity:1" d="M 625.61,261.662 641.714,256.831 z" id="boundary" inkscape:connector-curvature="0" />
	<path style="fill:none;stroke:red;stroke-width:1px;stroke-linecap:butt;stroke-linejoin:miter;stroke-opacity:1" d="M 632.052,119.948 633.662,136.052 z" id="boundary" inkscape:connector-curvature="0" />
	<path style="fill:none;stroke:red;stroke-width:1px;stroke-linecap:butt;stroke-linejoin:miter;stroke-opacity:1" d="M 633.662,620.779 648.156,628.831 z" id="boundary" inkscape:connector-curvature="0" />
	<path style="fill:none;stroke:red;stroke-width:1px;stroke-linecap:butt;stroke-linejoin:miter;stroke-opacity:1" d="M 641.714,256.831 657.818,253.61 z" id="boundary" inkscape:connector-curvature="0" />
	<path style="fill:none;stroke:red;stroke-width:1px;stroke-linecap:butt;stroke-linejoin:miter;stroke-opacity:1" d="M 648.156,628.831 664.26,633.662 z" id="boundary" inkscape:connector-curvature="0" />
	<path style="fill:none;stroke:red;stroke-width:1px;stroke-linecap:butt;stroke-linejoin:miter;stroke-opacity:1" d="M 657.818,253.61 673.922,248.779 z" id="boundary" inkscape:connector-curvature="0" />
	<path style="fill:none;stroke:red;stroke-width:1px;stroke-linecap:butt;stroke-linejoin:miter;stroke-opacity:1" d="M 657.818,351.844 657.818,367.948 z" id="boundary" inkscape:connector-curvature="0" />
	<path style="fill:none;stroke:red;stroke-width:1px;stroke-linecap:butt;stroke-linejoin:miter;stroke-opacity:1" d="M 657.818,351.844 672.312,343.792 z" id="boundary" inkscape:connector-curvature="0" />
	<path style="fill:none;stroke:red;stroke-width:1px;stroke-linecap:butt;stroke-linejoin:miter;stroke-opacity:1" d="M 657.818,367.948 665.87,382.442 z" id="boundary" inkscape:connector-curvature="0" />
	<path style="fill:none;stroke:red;stroke-width:1px;stroke-linecap:butt;stroke-linejoin:miter;stroke-opacity:1" d="M 664.26,633.662 678.753,641.714 z" id="boundary" inkscape:connector-curvature="0" />
	<path style="fill:none;stroke:red;stroke-width:1px;stroke-linecap:butt;stroke-linejoin:miter;stroke-opacity:1" d="M 665.87,382.442 673.922,396.935 z" id="boundary" inkscape:connector-curvature="0" />
	<path style="fill:none;stroke:red;stroke-width:1px;stroke-linecap:butt;stroke-linejoin:miter;stroke-opacity:1" d="M 672.312,343.792 686.805,335.74 z" id="boundary" inkscape:connector-curvature="0" />
	<path style="fill:none;stroke:red;stroke-width:1px;stroke-linecap:butt;stroke-linejoin:miter;stroke-opacity:1" d="M 673.922,248.779 690.026,245.558 z" id="boundary" inkscape:connector-curvature="0" />
	<path style="fill:none;stroke:red;stroke-width:1px;stroke-linecap:butt;stroke-linejoin:miter;stroke-opacity:1" d="M 673.922,396.935 681.974,411.429 z" id="boundary" inkscape:connector-curvature="0" />
	<path style="fill:none;stroke:red;stroke-width:1px;stroke-linecap:butt;stroke-linejoin:miter;stroke-opacity:1" d="M 678.753,641.714 694.857,641.714 z" id="boundary" inkscape:connector-curvature="0" />
	<path style="fill:none;stroke:red;stroke-width:1px;stroke-linecap:butt;stroke-linejoin:miter;stroke-opacity:1" d="M 681.974,411.429 688.416,427.532 z" id="boundary" inkscape:connector-curvature="0" />
	<path style="fill:none;stroke:red;stroke-width:1px;stroke-linecap:butt;stroke-linejoin:miter;stroke-opacity:1" d="M 686.805,335.74 701.299,327.688 z" id="boundary" inkscape:connector-curvature="0" />
	<path style="fill:none;stroke:red;stroke-width:1px;stroke-linecap:butt;stroke-linejoin:miter;stroke-opacity:1" d="M 688.416,427.532 690.026,443.636 z" id="boundary" inkscape:connector-curvature="0" />
	<path style="fill:none;stroke:red;stroke-width:1px;stroke-linecap:butt;stroke-linejoin:miter;stroke-opacity:1" d="M 690.026,245.558 706.13,240.727 z" id="boundary" inkscape:connector-curvature="0" />
	<path style="fill:none;stroke:red;stroke-width:1px;stroke-linecap:butt;stroke-linejoin:miter;stroke-opacity:1" d="M 690.026,443.636 696.468,459.74 z" id="boundary" inkscape:connector-curvature="0" />
	<path style="fill:none;stroke:red;stroke-width:1px;stroke-linecap:butt;stroke-linejoin:miter;stroke-opacity:1" d="M 694.857,641.714 710.961,641.714 z" id="boundary" inkscape:connector-curvature="0" />
	<path style="fill:none;stroke:red;stroke-width:1px;stroke-linecap:butt;stroke-linejoin:miter;stroke-opacity:1" d="M 696.468,459.74 712.571,459.74 z" id="boundary" inkscape:connector-curvature="0" />
	<path style="fill:none;stroke:red;stroke-width:1px;stroke-linecap:butt;stroke-linejoin:miter;stroke-opacity:1" d="M 701.299,327.688 715.792,319.636 z" id="boundary" inkscape:connector-curvature="0" />
	<path style="fill:none;stroke:red;stroke-width:1px;stroke-linecap:butt;stroke-linejoin:miter;stroke-opacity:1" d="M 706.13,240.727 722.234,237.506 z" id="boundary" inkscape:connector-curvature="0" />
	<path style="fill:none;stroke:red;stroke-width:1px;stroke-linecap:butt;stroke-linejoin:miter;stroke-opacity:1" d="M 710.961,641.714 725.455,633.662 z" id="boundary" inkscape:connector-curvature="0" />
	<path style="fill:none;stroke:red;stroke-width:1px;stroke-linecap:butt;stroke-linejoin:miter;stroke-opacity:1" d="M 712.571,459.74 720.623,443.636 z" id="boundary" inkscape:connector-curvature="0" />
	<path style="fill:none;stroke:red;stroke-width:1px;stroke-linecap:butt;stroke-linejoin:miter;stroke-opacity:1" d="M 714.182,488.727 714.182,504.831 z" id="boundary" inkscape:connector-curvature="0" />
	<path style="fill:none;stroke:red;stroke-width:1px;stroke-linecap:butt;stroke-linejoin:miter;stroke-opacity:1" d="M 714.182,488.727 730.286,488.727 z" id="boundary" inkscape:connector-curvature="0" />
	<path style="fill:none;stroke:red;stroke-width:1px;stroke-linecap:butt;stroke-linejoin:miter;stroke-opacity:1" d="M 714.182,504.831 717.403,520.935 z" id="boundary" inkscape:connector-curvature="0" />
	<path style="fill:none;stroke:red;stroke-width:1px;stroke-linecap:butt;stroke-linejoin:miter;stroke-opacity:1" d="M 715.792,319.636 730.286,311.584 z" id="boundary" inkscape:connector-curvature="0" />
	<path style="fill:none;stroke:red;stroke-width:1px;stroke-linecap:butt;stroke-linejoin:miter;stroke-opacity:1" d="M 717.403,520.935 725.455,535.429 z" id="boundary" inkscape:connector-curvature="0" />
	<path style="fill:none;stroke:red;stroke-width:1px;stroke-linecap:butt;stroke-linejoin:miter;stroke-opacity:1" d="M 720.623,443.636 733.506,430.753 z" id="boundary" inkscape:connector-curvature="0" />
	<path style="fill:none;stroke:red;stroke-width:1px;stroke-linecap:butt;stroke-linejoin:miter;stroke-opacity:1" d="M 722.234,237.506 738.338,232.675 z" id="boundary" inkscape:connector-curvature="0" />
	<path style="fill:none;stroke:red;stroke-width:1px;stroke-linecap:butt;stroke-linejoin:miter;stroke-opacity:1" d="M 725.455,535.429 730.286,551.532 z" id="boundary" inkscape:connector-curvature="0" />
	<path style="fill:none;stroke:red;stroke-width:1px;stroke-linecap:butt;stroke-linejoin:miter;stroke-opacity:1" d="M 725.455,633.662 739.948,625.61 z" id="boundary" inkscape:connector-curvature="0" />
	<path style="fill:none;stroke:red;stroke-width:1px;stroke-linecap:butt;stroke-linejoin:miter;stroke-opacity:1" d="M 730.286,311.584 746.39,303.532 z" id="boundary" inkscape:connector-curvature="0" />
	<path style="fill:none;stroke:red;stroke-width:1px;stroke-linecap:butt;stroke-linejoin:miter;stroke-opacity:1" d="M 730.286,488.727 744.779,496.779 z" id="boundary" inkscape:connector-curvature="0" />
	<path style="fill:none;stroke:red;stroke-width:1px;stroke-linecap:butt;stroke-linejoin:miter;stroke-opacity:1" d="M 730.286,551.532 738.338,566.026 z" id="boundary" inkscape:connector-curvature="0" />
	<path style="fill:none;stroke:red;stroke-width:1px;stroke-linecap:butt;stroke-linejoin:miter;stroke-opacity:1" d="M 733.506,430.753 749.61,430.753 z" id="boundary" inkscape:connector-curvature="0" />
	<path style="fill:none;stroke:red;stroke-width:1px;stroke-linecap:butt;stroke-linejoin:miter;stroke-opacity:1" d="M 738.338,232.675 754.442,229.455 z" id="boundary" inkscape:connector-curvature="0" />
	<path style="fill:none;stroke:red;stroke-width:1px;stroke-linecap:butt;stroke-linejoin:miter;stroke-opacity:1" d="M 738.338,566.026 738.338,582.13 z" id="boundary" inkscape:connector-curvature="0" />
	<path style="fill:none;stroke:red;stroke-width:1px;stroke-linecap:butt;stroke-linejoin:miter;stroke-opacity:1" d="M 738.338,582.13 746.39,596.623 z" id="boundary" inkscape:connector-curvature="0" />
	<path style="fill:none;stroke:red;stroke-width:1px;stroke-linecap:butt;stroke-linejoin:miter;stroke-opacity:1" d="M 739.948,625.61 752.831,612.727 z" id="boundary" inkscape:connector-curvature="0" />
	<path style="fill:none;stroke:red;stroke-width:1px;stroke-linecap:butt;stroke-linejoin:miter;stroke-opacity:1" d="M 744.779,496.779 760.883,491.948 z" id="boundary" inkscape:connector-curvature="0" />
	<path style="fill:none;stroke:red;stroke-width:1px;stroke-linecap:butt;stroke-linejoin:miter;stroke-opacity:1" d="M 746.39,303.532 760.883,295.481 z" id="boundary" inkscape:connector-curvature="0" />
	<path style="fill:none;stroke:red;stroke-width:1px;stroke-linecap:butt;stroke-linejoin:miter;stroke-opacity:1" d="M 746.39,596.623 752.831,612.727 z" id="boundary" inkscape:connector-curvature="0" />
	<path style="fill:none;stroke:red;stroke-width:1px;stroke-linecap:butt;stroke-linejoin:miter;stroke-opacity:1" d="M 749.61,430.753 760.883,443.636 z" id="boundary" inkscape:connector-curvature="0" />
	<path style="fill:none;stroke:red;stroke-width:1px;stroke-linecap:butt;stroke-linejoin:miter;stroke-opacity:1" d="M 752.831,73.2468 752.831,89.3506 z" id="boundary" inkscape:connector-curvature="0" />
	<path style="fill:none;stroke:red;stroke-width:1px;stroke-linecap:butt;stroke-linejoin:miter;stroke-opacity:1" d="M 752.831,73.2468 768.935,68.4156 z" id="boundary" inkscape:connector-curvature="0" />
	<path style="fill:none;stroke:red;stroke-width:1px;stroke-linecap:butt;stroke-linejoin:miter;stroke-opacity:1" d="M 752.831,89.3506 752.831,105.455 z" id="boundary" inkscape:connector-curvature="0" />
	<path style="fill:none;stroke:red;stroke-width:1px;stroke-linecap:butt;stroke-linejoin:miter;stroke-opacity:1" d="M 752.831,105.455 752.831,121.558 z" id="boundary" inkscape:connector-curvature="0" />
	<path style="fill:none;stroke:red;stroke-width:1px;stroke-linecap:butt;stroke-linejoin:miter;stroke-opacity:1" d="M 752.831,121.558 752.831,137.662 z" id="boundary" inkscape:connector-curvature="0" />
	<path style="fill:none;stroke:red;stroke-width:1px;stroke-linecap:butt;stroke-linejoin:miter;stroke-opacity:1" d="M 752.831,137.662 752.831,153.766 z" id="boundary" inkscape:connector-curvature="0" />
	<path style="fill:none;stroke:red;stroke-width:1px;stroke-linecap:butt;stroke-linejoin:miter;stroke-opacity:1" d="M 752.831,153.766 760.883,168.26 z" id="boundary" inkscape:connector-curvature="0" />
	<path style="fill:none;stroke:red;stroke-width:1px;stroke-linecap:butt;stroke-linejoin:miter;stroke-opacity:1" d="M 754.442,229.455 760.883,200.468 z" id="boundary" inkscape:connector-curvature="0" />
	<path style="fill:none;stroke:red;stroke-width:1px;stroke-linecap:butt;stroke-linejoin:miter;stroke-opacity:1" d="M 760.883,168.26 760.883,184.364 z" id="boundary" inkscape:connector-curvature="0" />
	<path style="fill:none;stroke:red;stroke-width:1px;stroke-linecap:butt;stroke-linejoin:miter;stroke-opacity:1" d="M 760.883,184.364 760.883,200.468 z" id="boundary" inkscape:connector-curvature="0" />
	<path style="fill:none;stroke:red;stroke-width:1px;stroke-linecap:butt;stroke-linejoin:miter;stroke-opacity:1" d="M 760.883,295.481 776.987,290.649 z" id="boundary" inkscape:connector-curvature="0" />
	<path style="fill:none;stroke:red;stroke-width:1px;stroke-linecap:butt;stroke-linejoin:miter;stroke-opacity:1" d="M 760.883,443.636 768.935,458.13 z" id="boundary" inkscape:connector-curvature="0" />
	<path style="fill:none;stroke:red;stroke-width:1px;stroke-linecap:butt;stroke-linejoin:miter;stroke-opacity:1" d="M 760.883,491.948 770.545,474.234 z" id="boundary" inkscape:connector-curvature="0" />
	<path style="fill:none;stroke:red;stroke-width:1px;stroke-linecap:butt;stroke-linejoin:miter;stroke-opacity:1" d="M 768.935,68.4156 785.039,68.4156 z" id="boundary" inkscape:connector-curvature="0" />
	<path style="fill:none;stroke:red;stroke-width:1px;stroke-linecap:butt;stroke-linejoin:miter;stroke-opacity:1" d="M 768.935,458.13 770.545,474.234 z" id="boundary" inkscape:connector-curvature="0" />
	<path style="fill:none;stroke:red;stroke-width:1px;stroke-linecap:butt;stroke-linejoin:miter;stroke-opacity:1" d="M 776.987,290.649 793.091,282.597 z" id="boundary" inkscape:connector-curvature="0" />
	<path style="fill:none;stroke:red;stroke-width:1px;stroke-linecap:butt;stroke-linejoin:miter;stroke-opacity:1" d="M 785.039,68.4156 801.143,68.4156 z" id="boundary" inkscape:connector-curvature="0" />
	<path style="fill:none;stroke:red;stroke-width:1px;stroke-linecap:butt;stroke-linejoin:miter;stroke-opacity:1" d="M 793.091,282.597 809.195,279.377 z" id="boundary" inkscape:connector-curvature="0" />
	<path style="fill:none;stroke:red;stroke-width:1px;stroke-linecap:butt;stroke-linejoin:miter;stroke-opacity:1" d="M 801.143,68.4156 817.247,68.4156 z" id="boundary" inkscape:connector-curvature="0" />
	<path style="fill:none;stroke:red;stroke-width:1px;stroke-linecap:butt;stroke-linejoin:miter;stroke-opacity:1" d="M 809.195,279.377 809.195,295.481 z" id="boundary" inkscape:connector-curvature="0" />
	<path style="fill:none;stroke:red;stroke-width:1px;stroke-linecap:butt;stroke-linejoin:miter;stroke-opacity:1" d="M 809.195,295.481 809.195,311.584 z" id="boundary" inkscape:connector-curvature="0" />
	<path style="fill:none;stroke:red;stroke-width:1px;stroke-linecap:butt;stroke-linejoin:miter;stroke-opacity:1" d="M 809.195,311.584 809.195,327.688 z" id="boundary" inkscape:connector-curvature="0" />
	<path style="fill:none;stroke:red;stroke-width:1px;stroke-linecap:butt;stroke-linejoin:miter;stroke-opacity:1" d="M 809.195,327.688 809.195,343.792 z" id="boundary" inkscape:connector-curvature="0" />
	<path style="fill:none;stroke:red;stroke-width:1px;stroke-linecap:butt;stroke-linejoin:miter;stroke-opacity:1" d="M 809.195,343.792 814.026,359.896 z" id="boundary" inkscape:connector-curvature="0" />
	<path style="fill:none;stroke:red;stroke-width:1px;stroke-linecap:butt;stroke-linejoin:miter;stroke-opacity:1" d="M 814.026,359.896 830.13,359.896 z" id="boundary" inkscape:connector-curvature="0" />
	<path style="fill:none;stroke:red;stroke-width:1px;stroke-linecap:butt;stroke-linejoin:miter;stroke-opacity:1" d="M 817.247,68.4156 833.351,68.4156 z" id="boundary" inkscape:connector-curvature="0" />
	<path style="fill:none;stroke:red;stroke-width:1px;stroke-linecap:butt;stroke-linejoin:miter;stroke-opacity:1" d="M 830.13,359.896 846.234,359.896 z" id="boundary" inkscape:connector-curvature="0" />
	<path style="fill:none;stroke:red;stroke-width:1px;stroke-linecap:butt;stroke-linejoin:miter;stroke-opacity:1" d="M 833.351,68.4156 849.455,68.4156 z" id="boundary" inkscape:connector-curvature="0" />
	<path style="fill:none;stroke:red;stroke-width:1px;stroke-linecap:butt;stroke-linejoin:miter;stroke-opacity:1" d="M 846.234,359.896 862.338,359.896 z" id="boundary" inkscape:connector-curvature="0" />
	<path style="fill:none;stroke:red;stroke-width:1px;stroke-linecap:butt;stroke-linejoin:miter;stroke-opacity:1" d="M 849.455,68.4156 865.558,68.4156 z" id="boundary" inkscape:connector-curvature="0" />
	<path style="fill:none;stroke:red;stroke-width:1px;stroke-linecap:butt;stroke-linejoin:miter;stroke-opacity:1" d="M 862.338,359.896 878.442,359.896 z" id="boundary" inkscape:connector-curvature="0" />
	<path style="fill:none;stroke:red;stroke-width:1px;stroke-linecap:butt;stroke-linejoin:miter;stroke-opacity:1" d="M 865.558,68.4156 881.662,68.4156 z" id="boundary" inkscape:connector-curvature="0" />
	<path style="fill:none;stroke:red;stroke-width:1px;stroke-linecap:butt;stroke-linejoin:miter;stroke-opacity:1" d="M 878.442,359.896 894.545,359.896 z" id="boundary" inkscape:connector-curvature="0" />
	<path style="fill:none;stroke:red;stroke-width:1px;stroke-linecap:butt;stroke-linejoin:miter;stroke-opacity:1" d="M 881.662,68.4156 897.766,68.4156 z" id="boundary" inkscape:connector-curvature="0" />
	<path style="fill:none;stroke:red;stroke-width:1px;stroke-linecap:butt;stroke-linejoin:miter;stroke-opacity:1" d="M 894.545,359.896 910.649,359.896 z" id="boundary" inkscape:connector-curvature="0" />
	<path style="fill:none;stroke:red;stroke-width:1px;stroke-linecap:butt;stroke-linejoin:miter;stroke-opacity:1" d="M 897.766,68.4156 913.87,68.4156 z" id="boundary" inkscape:connector-curvature="0" />
	<path style="fill:none;stroke:red;stroke-width:1px;stroke-linecap:butt;stroke-linejoin:miter;stroke-opacity:1" d="M 910.649,359.896 926.753,359.896 z" id="boundary" inkscape:connector-curvature="0" />
	<path style="fill:none;stroke:red;stroke-width:1px;stroke-linecap:butt;stroke-linejoin:miter;stroke-opacity:1" d="M 913.87,68.4156 929.974,68.4156 z" id="boundary" inkscape:connector-curvature="0" />
	<path style="fill:none;stroke:red;stroke-width:1px;stroke-linecap:butt;stroke-linejoin:miter;stroke-opacity:1" d="M 926.753,359.896 942.857,359.896 z" id="boundary" inkscape:connector-curvature="0" />
	<path style="fill:none;stroke:red;stroke-width:1px;stroke-linecap:butt;stroke-linejoin:miter;stroke-opacity:1" d="M 929.974,68.4156 946.078,68.4156 z" id="boundary" inkscape:connector-curvature="0" />
	<path style="fill:none;stroke:red;stroke-width:1px;stroke-linecap:butt;stroke-linejoin:miter;stroke-opacity:1" d="M 942.857,359.896 958.961,359.896 z" id="boundary" inkscape:connector-curvature="0" />
	<path style="fill:none;stroke:red;stroke-width:1px;stroke-linecap:butt;stroke-linejoin:miter;stroke-opacity:1" d="M 946.078,68.4156 962.182,68.4156 z" id="boundary" inkscape:connector-curvature="0" />
	<path style="fill:none;stroke:red;stroke-width:1px;stroke-linecap:butt;stroke-linejoin:miter;stroke-opacity:1" d="M 958.961,359.896 975.065,359.896 z" id="boundary" inkscape:connector-curvature="0" />
	<path style="fill:none;stroke:red;stroke-width:1px;stroke-linecap:butt;stroke-linejoin:miter;stroke-opacity:1" d="M 962.182,68.4156 978.286,68.4156 z" id="boundary" inkscape:connector-curvature="0" />
	<path style="fill:none;stroke:red;stroke-width:1px;stroke-linecap:butt;stroke-linejoin:miter;stroke-opacity:1" d="M 975.065,359.896 991.169,358.286 z" id="boundary" inkscape:connector-curvature="0" />
	<path style="fill:none;stroke:red;stroke-width:1px;stroke-linecap:butt;stroke-linejoin:miter;stroke-opacity:1" d="M 978.286,68.4156 994.39,71.6364 z" id="boundary" inkscape:connector-curvature="0" />
	<path style="fill:none;stroke:red;stroke-width:1px;stroke-linecap:butt;stroke-linejoin:miter;stroke-opacity:1" d="M 991.169,358.286 996,329.299 z" id="boundary" inkscape:connector-curvature="0" />
	<path style="fill:none;stroke:red;stroke-width:1px;stroke-linecap:butt;stroke-linejoin:miter;stroke-opacity:1" d="M 994.39,71.6364 996,87.7403 z" id="boundary" inkscape:connector-curvature="0" />
	<path style="fill:none;stroke:red;stroke-width:1px;stroke-linecap:butt;stroke-linejoin:miter;stroke-opacity:1" d="M 996,87.7403 996,103.844 z" id="boundary" inkscape:connector-curvature="0" />
	<path style="fill:none;stroke:red;stroke-width:1px;stroke-linecap:butt;stroke-linejoin:miter;stroke-opacity:1" d="M 996,103.844 996,119.948 z" id="boundary" inkscape:connector-curvature="0" />
	<path style="fill:none;stroke:red;stroke-width:1px;stroke-linecap:butt;stroke-linejoin:miter;stroke-opacity:1" d="M 996,119.948 996,136.052 z" id="boundary" inkscape:connector-curvature="0" />
	<path style="fill:none;stroke:red;stroke-width:1px;stroke-linecap:butt;stroke-linejoin:miter;stroke-opacity:1" d="M 996,136.052 996,152.156 z" id="boundary" inkscape:connector-curvature="0" />
	<path style="fill:none;stroke:red;stroke-width:1px;stroke-linecap:butt;stroke-linejoin:miter;stroke-opacity:1" d="M 996,152.156 996,168.26 z" id="boundary" inkscape:connector-curvature="0" />
	<path style="fill:none;stroke:red;stroke-width:1px;stroke-linecap:butt;stroke-linejoin:miter;stroke-opacity:1" d="M 996,168.26 996,184.364 z" id="boundary" inkscape:connector-curvature="0" />
	<path style="fill:none;stroke:red;stroke-width:1px;stroke-linecap:butt;stroke-linejoin:miter;stroke-opacity:1" d="M 996,184.364 996,200.468 z" id="boundary" inkscape:connector-curvature="0" />
	<path style="fill:none;stroke:red;stroke-width:1px;stroke-linecap:butt;stroke-linejoin:miter;stroke-opacity:1" d="M 996,200.468 996,216.571 z" id="boundary" inkscape:connector-curvature="0" />
	<path style="fill:none;stroke:red;stroke-width:1px;stroke-linecap:butt;stroke-linejoin:miter;stroke-opacity:1" d="M 996,216.571 996,232.675 z" id="boundary" inkscape:connector-curvature="0" />
	<path style="fill:none;stroke:red;stroke-width:1px;stroke-linecap:butt;stroke-linejoin:miter;stroke-opacity:1" d="M 996,232.675 996,248.779 z" id="boundary" inkscape:connector-curvature="0" />
	<path style="fill:none;stroke:red;stroke-width:1px;stroke-linecap:butt;stroke-linejoin:miter;stroke-opacity:1" d="M 996,248.779 996,264.883 z" id="boundary" inkscape:connector-curvature="0" />
	<path style="fill:none;stroke:red;stroke-width:1px;stroke-linecap:butt;stroke-linejoin:miter;stroke-opacity:1" d="M 996,264.883 996,280.987 z" id="boundary" inkscape:connector-curvature="0" />
	<path style="fill:none;stroke:red;stroke-width:1px;stroke-linecap:butt;stroke-linejoin:miter;stroke-opacity:1" d="M 996,280.987 996,297.091 z" id="boundary" inkscape:connector-curvature="0" />
	<path style="fill:none;stroke:red;stroke-width:1px;stroke-linecap:butt;stroke-linejoin:miter;stroke-opacity:1" d="M 996,297.091 996,313.195 z" id="boundary" inkscape:connector-curvature="0" />
	<path style="fill:none;stroke:red;stroke-width:1px;stroke-linecap:butt;stroke-linejoin:miter;stroke-opacity:1" d="M 996,313.195 996,329.299 z" id="boundary" inkscape:connector-curvature="0" />
	<circle cx="4" cy="548.312" r="4" fill="#0" id="circle0"/>
	<circle cx="4" cy="564.416" r="4" fill="#0" id="circle1"/>
	<circle cx="16.8831" cy="535.429" r="4" fill="#0" id="circle2"/>
	<circle cx="20.1039" cy="569.247" r="4" fill="#0" id="circle3"/>
	<circle cx="29.7662" cy="522.545" r="4" fill="#0" id="circle4"/>
	<circle cx="36.2078" cy="569.247" r="4" fill="#0" id="circle5"/>
	<circle cx="45.8701" cy="514.494" r="4" fill="#0" id="circle6"/>
	<circle cx="52.3117" cy="569.247" r="4" fill="#0" id="circle7"/>
	<circle cx="61.974" cy="506.442" r="4" fill="#0" id="circle8"/>
	<circle cx="66.8052" cy="561.195" r="4" fill="#0" id="circle9"/>
	<circle cx="78.0779" cy="498.39" r="4" fill="#0" id="circle10"/>
	<circle cx="82.9091" cy="561.195" r="4" fill="#0" id="circle11"/>
	<circle cx="94.1818" cy="490.338" r="4" fill="#0" id="circle12"/>
	<circle cx="97.4026" cy="553.143" r="4" fill="#0" id="circle13"/>
	<circle cx="110.286" cy="482.286" r="4" fill="#0" id="circle14"/>
	<circle cx="113.506" cy="553.143" r="4" fill="#0" id="circle15"/>
	<circle cx="126.39" cy="474.234" r="4" fill="#0" id="circle16"/>
	<circle cx="128" cy="545.091" r="4" fill="#0" id="circle17"/>
	<circle cx="139.273" cy="462.961" r="4" fill="#0" id="circle18"/>
	<circle cx="144.104" cy="545.091" r="4" fill="#0" id="circle19"/>
	<circle cx="153.766" cy="454.909" r="4" fill="#0" id="circle20"/>
	<circle cx="158.597" cy="537.039" r="4" fill="#0" id="circle21"/>
	<circle cx="169.87" cy="446.857" r="4" fill="#0" id="circle22"/>
	<circle cx="174.701" cy="537.039" r="4" fill="#0" id="circle23"/>
	<circle cx="185.974" cy="438.805" r="4" fill="#0" id="circle24"/>
	<circle cx="189.195" cy="528.987" r="4" fill="#0" id="circle25"/>
	<circle cx="202.078" cy="430.753" r="4" fill="#0" id="circle26"/>
	<circle cx="205.299" cy="524.156" r="4" fill="#0" id="circle27"/>
	<circle cx="218.182" cy="422.701" r="4" fill="#0" id="circle28"/>
	<circle cx="221.403" cy="520.935" r="4" fill="#0" id="circle29"/>
	<circle cx="234.286" cy="422.701" r="4" fill="#0" id="circle30"/>
	<circle cx="237.506" cy="516.104" r="4" fill="#0" id="circle31"/>
	<circle cx="248.779" cy="414.649" r="4" fill="#0" id="circle32"/>
	<circle cx="253.61" cy="512.883" r="4" fill="#0" id="circle33"/>
	<circle cx="261.662" cy="387.273" r="4" fill="#0" id="circle34"/>
	<circle cx="261.662" cy="403.377" r="4" fill="#0" id="circle35"/>
	<circle cx="268.104" cy="504.831" r="4" fill="#0" id="circle36"/>
	<circle cx="277.766" cy="379.221" r="4" fill="#0" id="circle37"/>
	<circle cx="284.208" cy="501.61" r="4" fill="#0" id="circle38"/>
	<circle cx="293.87" cy="234.286" r="4" fill="#0" id="circle39"/>
	<circle cx="293.87" cy="374.39" r="4" fill="#0" id="circle40"/>
	<circle cx="300.312" cy="496.779" r="4" fill="#0" id="circle41"/>
	<circle cx="301.922" cy="248.779" r="4" fill="#0" id="circle42"/>
	<circle cx="306.753" cy="221.403" r="4" fill="#0" id="circle43"/>
	<circle cx="308.364" cy="366.338" r="4" fill="#0" id="circle44"/>
	<circle cx="311.584" cy="509.662" r="4" fill="#0" id="circle45"/>
	<circle cx="318.026" cy="250.39" r="4" fill="#0" id="circle46"/>
	<circle cx="318.026" cy="347.013" r="4" fill="#0" id="circle47"/>
	<circle cx="321.247" cy="213.351" r="4" fill="#0" id="circle48"/>
	<circle cx="326.078" cy="322.857" r="4" fill="#0" id="circle49"/>
	<circle cx="327.688" cy="504.831" r="4" fill="#0" id="circle50"/>
	<circle cx="334.13" cy="247.169" r="4" fill="#0" id="circle51"/>
	<circle cx="334.13" cy="306.753" r="4" fill="#0" id="circle52"/>
	<circle cx="335.74" cy="205.299" r="4" fill="#0" id="circle53"/>
	<circle cx="342.182" cy="274.545" r="4" fill="#0" id="circle54"/>
	<circle cx="342.182" cy="290.649" r="4" fill="#0" id="circle55"/>
	<circle cx="343.792" cy="496.779" r="4" fill="#0" id="circle56"/>
	<circle cx="350.234" cy="247.169" r="4" fill="#0" id="circle57"/>
	<circle cx="351.844" cy="200.468" r="4" fill="#0" id="circle58"/>
	<circle cx="359.896" cy="496.779" r="4" fill="#0" id="circle59"/>
	<circle cx="367.948" cy="192.416" r="4" fill="#0" id="circle60"/>
	<circle cx="374.39" cy="488.727" r="4" fill="#0" id="circle61"/>
	<circle cx="380.831" cy="181.143" r="4" fill="#0" id="circle62"/>
	<circle cx="387.273" cy="165.039" r="4" fill="#0" id="circle63"/>
	<circle cx="388.883" cy="496.779" r="4" fill="#0" id="circle64"/>
	<circle cx="390.494" cy="145.714" r="4" fill="#0" id="circle65"/>
	<circle cx="398.545" cy="121.558" r="4" fill="#0" id="circle66"/>
	<circle cx="403.377" cy="504.831" r="4" fill="#0" id="circle67"/>
	<circle cx="406.597" cy="97.4026" r="4" fill="#0" id="circle68"/>
	<circle cx="414.649" cy="81.2987" r="4" fill="#0" id="circle69"/>
	<circle cx="417.87" cy="512.883" r="4" fill="#0" id="circle70"/>
	<circle cx="422.701" cy="65.1948" r="4" fill="#0" id="circle71"/>
	<circle cx="430.753" cy="49.0909" r="4" fill="#0" id="circle72"/>
	<circle cx="430.753" cy="522.545" r="4" fill="#0" id="circle73"/>
	<circle cx="430.753" cy="572.468" r="4" fill="#0" id="circle74"/>
	<circle cx="430.753" cy="588.571" r="4" fill="#0" id="circle75"/>
	<circle cx="442.026" cy="535.429" r="4" fill="#0" id="circle76"/>
	<circle cx="443.636" cy="36.2078" r="4" fill="#0" id="circle77"/>
	<circle cx="443.636" cy="559.584" r="4" fill="#0" id="circle78"/>
	<circle cx="446.857" cy="593.403" r="4" fill="#0" id="circle79"/>
	<circle cx="456.519" cy="23.3247" r="4" fill="#0" id="circle80"/>
	<circle cx="458.13" cy="541.87" r="4" fill="#0" id="circle81"/>
	<circle cx="462.961" cy="593.403" r="4" fill="#0" id="circle82"/>
	<circle cx="469.403" cy="12.0519" r="4" fill="#0" id="circle83"/>
	<circle cx="479.065" cy="588.571" r="4" fill="#0" id="circle84"/>
	<circle cx="483.896" cy="4" r="4" fill="#0" id="circle85"/>
	<circle cx="495.169" cy="585.351" r="4" fill="#0" id="circle86"/>
	<circle cx="500" cy="4" r="4" fill="#0" id="circle87"/>
	<circle cx="509.662" cy="577.299" r="4" fill="#0" id="circle88"/>
	<circle cx="512.883" cy="13.6623" r="4" fill="#0" id="circle89"/>
	<circle cx="520.935" cy="28.1558" r="4" fill="#0" id="circle90"/>
	<circle cx="520.935" cy="44.2597" r="4" fill="#0" id="circle91"/>
	<circle cx="525.766" cy="574.078" r="4" fill="#0" id="circle92"/>
	<circle cx="528.987" cy="58.7532" r="4" fill="#0" id="circle93"/>
	<circle cx="537.039" cy="73.2468" r="4" fill="#0" id="circle94"/>
	<circle cx="541.87" cy="577.299" r="4" fill="#0" id="circle95"/>
	<circle cx="543.481" cy="89.3506" r="4" fill="#0" id="circle96"/>
	<circle cx="551.532" cy="103.844" r="4" fill="#0" id="circle97"/>
	<circle cx="556.364" cy="585.351" r="4" fill="#0" id="circle98"/>
	<circle cx="557.974" cy="119.948" r="4" fill="#0" id="circle99"/>
	<circle cx="572.468" cy="591.792" r="4" fill="#0" id="circle100"/>
	<circle cx="574.078" cy="124.779" r="4" fill="#0" id="circle101"/>
	<circle cx="577.299" cy="150.545" r="4" fill="#0" id="circle102"/>
	<circle cx="577.299" cy="166.649" r="4" fill="#0" id="circle103"/>
	<circle cx="583.74" cy="105.455" r="4" fill="#0" id="circle104"/>
	<circle cx="585.351" cy="181.143" r="4" fill="#0" id="circle105"/>
	<circle cx="586.961" cy="599.844" r="4" fill="#0" id="circle106"/>
	<circle cx="593.403" cy="150.545" r="4" fill="#0" id="circle107"/>
	<circle cx="593.403" cy="195.636" r="4" fill="#0" id="circle108"/>
	<circle cx="593.403" cy="211.74" r="4" fill="#0" id="circle109"/>
	<circle cx="596.623" cy="92.5714" r="4" fill="#0" id="circle110"/>
	<circle cx="601.455" cy="226.234" r="4" fill="#0" id="circle111"/>
	<circle cx="603.065" cy="606.286" r="4" fill="#0" id="circle112"/>
	<circle cx="607.896" cy="158.597" r="4" fill="#0" id="circle113"/>
	<circle cx="607.896" cy="242.338" r="4" fill="#0" id="circle114"/>
	<circle cx="609.506" cy="258.442" r="4" fill="#0" id="circle115"/>
	<circle cx="612.727" cy="92.5714" r="4" fill="#0" id="circle116"/>
	<circle cx="617.558" cy="614.338" r="4" fill="#0" id="circle117"/>
	<circle cx="624" cy="105.455" r="4" fill="#0" id="circle118"/>
	<circle cx="624" cy="153.766" r="4" fill="#0" id="circle119"/>
	<circle cx="625.61" cy="261.662" r="4" fill="#0" id="circle120"/>
	<circle cx="632.052" cy="119.948" r="4" fill="#0" id="circle121"/>
	<circle cx="633.662" cy="136.052" r="4" fill="#0" id="circle122"/>
	<circle cx="633.662" cy="620.779" r="4" fill="#0" id="circle123"/>
	<circle cx="641.714" cy="256.831" r="4" fill="#0" id="circle124"/>
	<circle cx="648.156" cy="628.831" r="4" fill="#0" id="circle125"/>
	<circle cx="657.818" cy="253.61" r="4" fill="#0" id="circle126"/>
	<circle cx="657.818" cy="351.844" r="4" fill="#0" id="circle127"/>
	<circle cx="657.818" cy="367.948" r="4" fill="#0" id="circle128"/>
	<circle cx="664.26" cy="633.662" r="4" fill="#0" id="circle129"/>
	<circle cx="665.87" cy="382.442" r="4" fill="#0" id="circle130"/>
	<circle cx="672.312" cy="343.792" r="4" fill="#0" id="circle131"/>
	<circle cx="673.922" cy="248.779" r="4" fill="#0" id="circle132"/>
	<circle cx="673.922" cy="396.935" r="4" fill="#0" id="circle133"/>
	<circle cx="678.753" cy="641.714" r="4" fill="#0" id="circle134"/>
	<circle cx="681.974" cy="411.429" r="4" fill="#0" id="circle135"/>
	<circle cx="686.805" cy="335.74" r="4" fill="#0" id="circle136"/>
	<circle cx="688.416" cy="427.532" r="4" fill="#0" id="circle137"/>
	<circle cx="690.026" cy="245.558" r="4" fill="#0" id="circle138"/>
	<circle cx="690.026" cy="443.636" r="4" fill="#0" id="circle139"/>
	<circle cx="694.857" cy="641.714" r="4" fill="#0" id="circle140"/>
	<circle cx="696.468" cy="459.74" r="4" fill="#0" id="circle141"/>
	<circle cx="701.299" cy="327.688" r="4" fill="#0" id="circle142"/>
	<circle cx="706.13" cy="240.727" r="4" fill="#0" id="circle143"/>
	<circle cx="710.961" cy="641.714" r="4" fill="#0" id="circle144"/>
	<circle cx="712.571" cy="459.74" r="4" fill="#0" id="circle145"/>
	<circle cx="714.182" cy="488.727" r="4" fill="#0" id="circle146"/>
	<circle cx="714.182" cy="504.831" r="4" fill="#0" id="circle147"/>
	<circle cx="715.792" cy="319.636" r="4" fill="#0" id="circle148"/>
	<circle cx="717.403" cy="520.935" r="4" fill="#0" id="circle149"/>
	<circle cx="720.623" cy="443.636" r="4" fill="#0" id="circle150"/>
	<circle cx="722.234" cy="237.506" r="4" fill="#0" id="circle151"/>
	<circle cx="725.455" cy="535.429" r="4" fill="#0" id="circle152"/>
	<circle cx="725.455" cy="633.662" r="4" fill="#0" id="circle153"/>
	<circle cx="730.286" cy="311.584" r="4" fill="#0" id="circle154"/>
	<circle cx="730.286" cy="488.727" r="4" fill="#0" id="circle155"/>
	<circle cx="730.286" cy="551.532" r="4" fill="#0" id="circle156"/>
	<circle cx="733.506" cy="430.753" r="4" fill="#0" id="circle157"/>
	<circle cx="738.338" cy="232.675" r="4" fill="#0" id="circle158"/>
	<circle cx="738.338" cy="566.026" r="4" fill="#0" id="circle159"/>
	<circle cx="738.338" cy="582.13" r="4" fill="#0" id="circle160"/>
	<circle cx="739.948" cy="625.61" r="4" fill="#0" id="circle161"/>
	<circle cx="744.779" cy="496.779" r="4" fill="#0" id="circle162"/>
	<circle cx="746.39" cy="303.532" r="4" fill="#0" id="circle163"/>
	<circle cx="746.39" cy="596.623" r="4" fill="#0" id="circle164"/>
	<circle cx="749.61" cy="430.753" r="4" fill="#0" id="circle165"/>
	<circle cx="752.831" cy="73.2468" r="4" fill="#0" id="circle166"/>
	<circle cx="752.831" cy="89.3506" r="4" fill="#0" id="circle167"/>
	<circle cx="752.831" cy="105.455" r="4" fill="#0" id="circle168"/>
	<circle cx="752.831" cy="121.558" r="4" fill="#0" id="circle169"/>
	<circle cx="752.831" cy="137.662" r="4" fill="#0" id="circle170"/>
	<circle cx="752.831" cy="153.766" r="4" fill="#0" id="circle171"/>
	<circle cx="752.831" cy="612.727" r="4" fill="#0" id="circle172"/>
	<circle cx="754.442" cy="229.455" r="4" fill="#0" id="circle173"/>
	<circle cx="760.883" cy="168.26" r="4" fill="#0" id="circle174"/>
	<circle cx="760.883" cy="184.364" r="4" fill="#0" id="circle175"/>
	<circle cx="760.883" cy="200.468" r="4" fill="#0" id="circle176"/>
	<circle cx="760.883" cy="295.481" r="4" fill="#0" id="circle177"/>
	<circle cx="760.883" cy="443.636" r="4" fill="#0" id="circle178"/>
	<circle cx="760.883" cy="491.948" r="4" fill="#0" id="circle179"/>
	<circle cx="768.935" cy="68.4156" r="4" fill="#0" id="circle180"/>
	<circle cx="768.935" cy="458.13" r="4" fill="#0" id="circle181"/>
	<circle cx="770.545" cy="474.234" r="4" fill="#0" id="circle182"/>
	<circle cx="776.987" cy="290.649" r="4" fill="#0" id="circle183"/>
	<circle cx="785.039" cy="68.4156" r="4" fill="#0" id="circle184"/>
	<circle cx="793.091" cy="282.597" r="4" fill="#0" id="circle185"/>
	<circle cx="801.143" cy="68.4156" r="4" fill="#0" id="circle186"/>
	<circle cx="809.195" cy="279.377" r="4" fill="#0" id="circle187"/>
	<circle cx="809.195" cy="295.481" r="4" fill="#0" id="circle188"/>
	<circle cx="809.195" cy="311.584" r="4" fill="#0" id="circle189"/>
	<circle cx="809.195" cy="327.688" r="4" fill="#0" id="circle190"/>
	<circle cx="809.195" cy="343.792" r="4" fill="#0" id="circle191"/>
	<circle cx="814.026" cy="359.896" r="4" fill="#0" id="circle192"/>
	<circle cx="817.247" cy="68.4156" r="4" fill="#0" id="circle193"/>
	<circle cx="830.13" cy="359.896" r="4" fill="#0" id="circle194"/>
	<circle cx="833.351" cy="68.4156" r="4" fill="#0" id="circle195"/>
	<circle cx="846.234" cy="359.896" r="4" fill="#0" id="circle196"/>
	<circle cx="849.455" cy="68.4156" r="4" fill="#0" id="circle197"/>
	<circle cx="862.338" cy="359.896" r="4" fill="#0" id="circle198"/>
	<circle cx="865.558" cy="68.4156" r="4" fill="#0" id="circle199"/>
	<circle cx="878.442" cy="359.896" r="4" fill="#0" id="circle200"/>
	<circle cx="881.662" cy="68.4156" r="4" fill="#0" id="circle201"/>
	<circle cx="894.545" cy="359.896" r="4" fill="#0" id="circle202"/>
	<circle cx="897.766" cy="68.4156" r="4" fill="#0" id="circle203"/>
	<circle cx="910.649" cy="359.896" r="4" fill="#0" id="circle204"/>
	<circle cx="913.87" cy="68.4156" r="4" fill="#0" id="circle205"/>
	<circle cx="926.753" cy="359.896" r="4" fill="#0" id="circle206"/>
	<circle cx="929.974" cy="68.4156" r="4" fill="#0" id="circle207"/>
	<circle cx="942.857" cy="359.896" r="4" fill="#0" id="circle208"/>
	<circle cx="946.078" cy="68.4156" r="4" fill="#0" id="circle209"/>
	<circle cx="958.961" cy="359.896" r="4" fill="#0" id="circle210"/>
	<circle cx="962.182" cy="68.4156" r="4" fill="#0" id="circle211"/>
	<circle cx="975.065" cy="359.896" r="4" fill="#0" id="circle212"/>
	<circle cx="978.286" cy="68.4156" r="4" fill="#0" id="circle213"/>
	<circle cx="991.169" cy="358.286" r="4" fill="#0" id="circle214"/>
	<circle cx="994.39" cy="71.6364" r="4" fill="#0" id="circle215"/>
	<circle cx="996" cy="87.7403" r="4" fill="#0" id="circle216"/>
	<circle cx="996" cy="103.844" r="4" fill="#0" id="circle217"/>
	<circle cx="996" cy="119.948" r="4" fill="#0" id="circle218"/>
	<circle cx="996" cy="136.052" r="4" fill="#0" id="circle219"/>
	<circle cx="996" cy="152.156" r="4" fill="#0" id="circle220"/>
	<circle cx="996" cy="168.26" r="4" fill="#0" id="circle221"/>
	<circle cx="996" cy="184.364" r="4" fill="#0" id="circle222"/>
	<circle cx="996" cy="200.468" r="4" fill="#0" id="circle223"/>
	<circle cx="996" cy="216.571" r="4" fill="#0" id="circle224"/>
	<circle cx="996" cy="232.675" r="4" fill="#0" id="circle225"/>
	<circle cx="996" cy="248.779" r="4" fill="#0" id="circle226"/>
	<circle cx="996" cy="264.883" r="4" fill="#0" id="circle227"/>
	<circle cx="996" cy="280.987" r="4" fill="#0" id="circle228"/>
	<circle cx="996" cy="297.091" r="4" fill="#0" id="circle229"/>
	<circle cx="996" cy="313.195" r="4" fill="#0" id="circle230"/>
	<circle cx="996" cy="329.299" r="4" fill="#0" id="circle231"/>
	</g>
</svg>