<?xml version="1.0" encoding="UTF-8" standalone="no"?>
<!-- Created with CurveBenchmark -->
<svg
	xmlns:dc="http://purl.org/dc/elements/1.1/"
	xmlns:cc="http://creativecommons.org/ns#"
	xmlns:rdf="http://www.w3.org/1999/02/22-rdf-syntax-ns#"
	xmlns:svg="http://www.w3.org/2000/svg"
	xmlns="http://www.w3.org/2000/svg"
	xmlns:sodipodi="http://sodipodi.sourceforge.net/DTD/sodipodi-0.dtd"
	xmlns:inkscape="http://www.inkscape.org/namespaces/inkscape"
	width="1000"
	height="1000"
	id="svg2"
	version="1.1"
	sodipodi:docname="manifold/vicur-dino07.png.txt">
<defs
	id="defs4" />
<metadata
	id="metadata7">
	<rdf:RDF>
		<cc:Work
			rdf:about="">
			<dc:format>image/svg+xml</dc:format>
			<dc:type
				rdf:resource="http://purl.org/dc/dcmitype/StillImage" />
			<dc:title></dc:title>
		</cc:Work>
	</rdf:RDF>
</metadata>
<g
	inkscape:label="Layer 1"
	inkscape:groupmode="layer"
	id="layer1">
	<path style="fill:none;stroke:red;stroke-width:1px;stroke-linecap:butt;stroke-linejoin:miter;stroke-opacity:1" d="M 4,79.7082 4,90.8418 z" id="boundary" inkscape:connector-curvature="0" />
	<path style="fill:none;stroke:red;stroke-width:1px;stroke-linecap:butt;stroke-linejoin:miter;stroke-opacity:1" d="M 4,79.7082 9.56678,68.5746 z" id="boundary" inkscape:connector-curvature="0" />
	<path style="fill:none;stroke:red;stroke-width:1px;stroke-linecap:butt;stroke-linejoin:miter;stroke-opacity:1" d="M 4,90.8418 9.56678,100.862 z" id="boundary" inkscape:connector-curvature="0" />
	<path style="fill:none;stroke:red;stroke-width:1px;stroke-linecap:butt;stroke-linejoin:miter;stroke-opacity:1" d="M 9.56678,68.5746 18.4736,59.6678 z" id="boundary" inkscape:connector-curvature="0" />
	<path style="fill:none;stroke:red;stroke-width:1px;stroke-linecap:butt;stroke-linejoin:miter;stroke-opacity:1" d="M 9.56678,100.862 17.3603,109.769 z" id="boundary" inkscape:connector-curvature="0" />
	<path style="fill:none;stroke:red;stroke-width:1px;stroke-linecap:butt;stroke-linejoin:miter;stroke-opacity:1" d="M 17.3603,109.769 26.2671,116.449 z" id="boundary" inkscape:connector-curvature="0" />
	<path style="fill:none;stroke:red;stroke-width:1px;stroke-linecap:butt;stroke-linejoin:miter;stroke-opacity:1" d="M 18.4736,59.6678 20.7003,46.3075 z" id="boundary" inkscape:connector-curvature="0" />
	<path style="fill:none;stroke:red;stroke-width:1px;stroke-linecap:butt;stroke-linejoin:miter;stroke-opacity:1" d="M 20.7003,46.3075 26.2671,29.6072 z" id="boundary" inkscape:connector-curvature="0" />
	<path style="fill:none;stroke:red;stroke-width:1px;stroke-linecap:butt;stroke-linejoin:miter;stroke-opacity:1" d="M 26.2671,29.6072 35.174,20.7003 z" id="boundary" inkscape:connector-curvature="0" />
	<path style="fill:none;stroke:red;stroke-width:1px;stroke-linecap:butt;stroke-linejoin:miter;stroke-opacity:1" d="M 26.2671,116.449 32.9473,125.356 z" id="boundary" inkscape:connector-curvature="0" />
	<path style="fill:none;stroke:red;stroke-width:1px;stroke-linecap:butt;stroke-linejoin:miter;stroke-opacity:1" d="M 31.8339,152.076 37.4007,162.097 z" id="boundary" inkscape:connector-curvature="0" />
	<path style="fill:none;stroke:red;stroke-width:1px;stroke-linecap:butt;stroke-linejoin:miter;stroke-opacity:1" d="M 31.8339,152.076 40.7407,143.169 z" id="boundary" inkscape:connector-curvature="0" />
	<path style="fill:none;stroke:red;stroke-width:1px;stroke-linecap:butt;stroke-linejoin:miter;stroke-opacity:1" d="M 32.9473,125.356 40.7407,143.169 z" id="boundary" inkscape:connector-curvature="0" />
	<path style="fill:none;stroke:red;stroke-width:1px;stroke-linecap:butt;stroke-linejoin:miter;stroke-opacity:1" d="M 35.174,20.7003 40.7407,9.56678 z" id="boundary" inkscape:connector-curvature="0" />
	<path style="fill:none;stroke:red;stroke-width:1px;stroke-linecap:butt;stroke-linejoin:miter;stroke-opacity:1" d="M 37.4007,162.097 42.9675,172.117 z" id="boundary" inkscape:connector-curvature="0" />
	<path style="fill:none;stroke:red;stroke-width:1px;stroke-linecap:butt;stroke-linejoin:miter;stroke-opacity:1" d="M 40.7407,9.56678 51.8743,4 z" id="boundary" inkscape:connector-curvature="0" />
	<path style="fill:none;stroke:red;stroke-width:1px;stroke-linecap:butt;stroke-linejoin:miter;stroke-opacity:1" d="M 42.9675,172.117 52.9877,177.684 z" id="boundary" inkscape:connector-curvature="0" />
	<path style="fill:none;stroke:red;stroke-width:1px;stroke-linecap:butt;stroke-linejoin:miter;stroke-opacity:1" d="M 51.8743,4 63.0079,4 z" id="boundary" inkscape:connector-curvature="0" />
	<path style="fill:none;stroke:red;stroke-width:1px;stroke-linecap:butt;stroke-linejoin:miter;stroke-opacity:1" d="M 52.9877,177.684 64.1212,175.457 z" id="boundary" inkscape:connector-curvature="0" />
	<path style="fill:none;stroke:red;stroke-width:1px;stroke-linecap:butt;stroke-linejoin:miter;stroke-opacity:1" d="M 63.0079,4 74.1414,4 z" id="boundary" inkscape:connector-curvature="0" />
	<path style="fill:none;stroke:red;stroke-width:1px;stroke-linecap:butt;stroke-linejoin:miter;stroke-opacity:1" d="M 64.1212,175.457 71.9147,160.983 z" id="boundary" inkscape:connector-curvature="0" />
	<path style="fill:none;stroke:red;stroke-width:1px;stroke-linecap:butt;stroke-linejoin:miter;stroke-opacity:1" d="M 71.9147,160.983 81.9349,155.416 z" id="boundary" inkscape:connector-curvature="0" />
	<path style="fill:none;stroke:red;stroke-width:1px;stroke-linecap:butt;stroke-linejoin:miter;stroke-opacity:1" d="M 74.1414,4 85.275,4 z" id="boundary" inkscape:connector-curvature="0" />
	<path style="fill:none;stroke:red;stroke-width:1px;stroke-linecap:butt;stroke-linejoin:miter;stroke-opacity:1" d="M 81.9349,155.416 91.9551,160.983 z" id="boundary" inkscape:connector-curvature="0" />
	<path style="fill:none;stroke:red;stroke-width:1px;stroke-linecap:butt;stroke-linejoin:miter;stroke-opacity:1" d="M 85.275,4 96.4085,4 z" id="boundary" inkscape:connector-curvature="0" />
	<path style="fill:none;stroke:red;stroke-width:1px;stroke-linecap:butt;stroke-linejoin:miter;stroke-opacity:1" d="M 91.9551,160.983 101.975,166.55 z" id="boundary" inkscape:connector-curvature="0" />
	<path style="fill:none;stroke:red;stroke-width:1px;stroke-linecap:butt;stroke-linejoin:miter;stroke-opacity:1" d="M 96.4085,4 107.542,4 z" id="boundary" inkscape:connector-curvature="0" />
	<path style="fill:none;stroke:red;stroke-width:1px;stroke-linecap:butt;stroke-linejoin:miter;stroke-opacity:1" d="M 101.975,166.55 113.109,171.003 z" id="boundary" inkscape:connector-curvature="0" />
	<path style="fill:none;stroke:red;stroke-width:1px;stroke-linecap:butt;stroke-linejoin:miter;stroke-opacity:1" d="M 107.542,4 115.336,12.9068 z" id="boundary" inkscape:connector-curvature="0" />
	<path style="fill:none;stroke:red;stroke-width:1px;stroke-linecap:butt;stroke-linejoin:miter;stroke-opacity:1" d="M 113.109,171.003 123.129,176.57 z" id="boundary" inkscape:connector-curvature="0" />
	<path style="fill:none;stroke:red;stroke-width:1px;stroke-linecap:butt;stroke-linejoin:miter;stroke-opacity:1" d="M 115.336,12.9068 126.469,17.3603 z" id="boundary" inkscape:connector-curvature="0" />
	<path style="fill:none;stroke:red;stroke-width:1px;stroke-linecap:butt;stroke-linejoin:miter;stroke-opacity:1" d="M 123.129,176.57 132.036,183.25 z" id="boundary" inkscape:connector-curvature="0" />
	<path style="fill:none;stroke:red;stroke-width:1px;stroke-linecap:butt;stroke-linejoin:miter;stroke-opacity:1" d="M 126.469,17.3603 133.149,26.2671 z" id="boundary" inkscape:connector-curvature="0" />
	<path style="fill:none;stroke:red;stroke-width:1px;stroke-linecap:butt;stroke-linejoin:miter;stroke-opacity:1" d="M 132.036,183.25 135.376,194.384 z" id="boundary" inkscape:connector-curvature="0" />
	<path style="fill:none;stroke:red;stroke-width:1px;stroke-linecap:butt;stroke-linejoin:miter;stroke-opacity:1" d="M 133.149,26.2671 144.283,29.6072 z" id="boundary" inkscape:connector-curvature="0" />
	<path style="fill:none;stroke:red;stroke-width:1px;stroke-linecap:butt;stroke-linejoin:miter;stroke-opacity:1" d="M 135.376,194.384 137.603,205.517 z" id="boundary" inkscape:connector-curvature="0" />
	<path style="fill:none;stroke:red;stroke-width:1px;stroke-linecap:butt;stroke-linejoin:miter;stroke-opacity:1" d="M 137.603,205.517 144.283,214.424 z" id="boundary" inkscape:connector-curvature="0" />
	<path style="fill:none;stroke:red;stroke-width:1px;stroke-linecap:butt;stroke-linejoin:miter;stroke-opacity:1" d="M 143.169,291.246 152.076,282.339 z" id="boundary" inkscape:connector-curvature="0" />
	<path style="fill:none;stroke:red;stroke-width:1px;stroke-linecap:butt;stroke-linejoin:miter;stroke-opacity:1" d="M 143.169,291.246 154.303,294.586 z" id="boundary" inkscape:connector-curvature="0" />
	<path style="fill:none;stroke:red;stroke-width:1px;stroke-linecap:butt;stroke-linejoin:miter;stroke-opacity:1" d="M 144.283,29.6072 148.736,40.7407 z" id="boundary" inkscape:connector-curvature="0" />
	<path style="fill:none;stroke:red;stroke-width:1px;stroke-linecap:butt;stroke-linejoin:miter;stroke-opacity:1" d="M 144.283,214.424 153.19,222.218 z" id="boundary" inkscape:connector-curvature="0" />
	<path style="fill:none;stroke:red;stroke-width:1px;stroke-linecap:butt;stroke-linejoin:miter;stroke-opacity:1" d="M 148.736,40.7407 157.643,48.5342 z" id="boundary" inkscape:connector-curvature="0" />
	<path style="fill:none;stroke:red;stroke-width:1px;stroke-linecap:butt;stroke-linejoin:miter;stroke-opacity:1" d="M 152.076,282.339 157.643,271.205 z" id="boundary" inkscape:connector-curvature="0" />
	<path style="fill:none;stroke:red;stroke-width:1px;stroke-linecap:butt;stroke-linejoin:miter;stroke-opacity:1" d="M 153.19,222.218 154.303,233.351 z" id="boundary" inkscape:connector-curvature="0" />
	<path style="fill:none;stroke:red;stroke-width:1px;stroke-linecap:butt;stroke-linejoin:miter;stroke-opacity:1" d="M 154.303,233.351 159.87,243.371 z" id="boundary" inkscape:connector-curvature="0" />
	<path style="fill:none;stroke:red;stroke-width:1px;stroke-linecap:butt;stroke-linejoin:miter;stroke-opacity:1" d="M 154.303,294.586 163.21,287.906 z" id="boundary" inkscape:connector-curvature="0" />
	<path style="fill:none;stroke:red;stroke-width:1px;stroke-linecap:butt;stroke-linejoin:miter;stroke-opacity:1" d="M 157.643,48.5342 165.437,57.4411 z" id="boundary" inkscape:connector-curvature="0" />
	<path style="fill:none;stroke:red;stroke-width:1px;stroke-linecap:butt;stroke-linejoin:miter;stroke-opacity:1" d="M 157.643,271.205 159.87,254.505 z" id="boundary" inkscape:connector-curvature="0" />
	<path style="fill:none;stroke:red;stroke-width:1px;stroke-linecap:butt;stroke-linejoin:miter;stroke-opacity:1" d="M 159.87,243.371 159.87,254.505 z" id="boundary" inkscape:connector-curvature="0" />
	<path style="fill:none;stroke:red;stroke-width:1px;stroke-linecap:butt;stroke-linejoin:miter;stroke-opacity:1" d="M 163.21,287.906 168.777,276.772 z" id="boundary" inkscape:connector-curvature="0" />
	<path style="fill:none;stroke:red;stroke-width:1px;stroke-linecap:butt;stroke-linejoin:miter;stroke-opacity:1" d="M 165.437,57.4411 171.003,67.4613 z" id="boundary" inkscape:connector-curvature="0" />
	<path style="fill:none;stroke:red;stroke-width:1px;stroke-linecap:butt;stroke-linejoin:miter;stroke-opacity:1" d="M 168.777,276.772 172.117,261.185 z" id="boundary" inkscape:connector-curvature="0" />
	<path style="fill:none;stroke:red;stroke-width:1px;stroke-linecap:butt;stroke-linejoin:miter;stroke-opacity:1" d="M 171.003,67.4613 177.684,76.3681 z" id="boundary" inkscape:connector-curvature="0" />
	<path style="fill:none;stroke:red;stroke-width:1px;stroke-linecap:butt;stroke-linejoin:miter;stroke-opacity:1" d="M 172.117,227.785 172.117,238.918 z" id="boundary" inkscape:connector-curvature="0" />
	<path style="fill:none;stroke:red;stroke-width:1px;stroke-linecap:butt;stroke-linejoin:miter;stroke-opacity:1" d="M 172.117,227.785 182.137,222.218 z" id="boundary" inkscape:connector-curvature="0" />
	<path style="fill:none;stroke:red;stroke-width:1px;stroke-linecap:butt;stroke-linejoin:miter;stroke-opacity:1" d="M 172.117,238.918 172.117,250.052 z" id="boundary" inkscape:connector-curvature="0" />
	<path style="fill:none;stroke:red;stroke-width:1px;stroke-linecap:butt;stroke-linejoin:miter;stroke-opacity:1" d="M 172.117,250.052 172.117,261.185 z" id="boundary" inkscape:connector-curvature="0" />
	<path style="fill:none;stroke:red;stroke-width:1px;stroke-linecap:butt;stroke-linejoin:miter;stroke-opacity:1" d="M 177.684,76.3681 188.817,79.7082 z" id="boundary" inkscape:connector-curvature="0" />
	<path style="fill:none;stroke:red;stroke-width:1px;stroke-linecap:butt;stroke-linejoin:miter;stroke-opacity:1" d="M 182.137,222.218 192.157,227.785 z" id="boundary" inkscape:connector-curvature="0" />
	<path style="fill:none;stroke:red;stroke-width:1px;stroke-linecap:butt;stroke-linejoin:miter;stroke-opacity:1" d="M 188.817,79.7082 199.951,81.9349 z" id="boundary" inkscape:connector-curvature="0" />
	<path style="fill:none;stroke:red;stroke-width:1px;stroke-linecap:butt;stroke-linejoin:miter;stroke-opacity:1" d="M 198.837,246.712 198.837,257.845 z" id="boundary" inkscape:connector-curvature="0" />
	<path style="fill:none;stroke:red;stroke-width:1px;stroke-linecap:butt;stroke-linejoin:miter;stroke-opacity:1" d="M 198.837,246.712 211.084,244.485 z" id="boundary" inkscape:connector-curvature="0" />
	<path style="fill:none;stroke:red;stroke-width:1px;stroke-linecap:butt;stroke-linejoin:miter;stroke-opacity:1" d="M 198.837,257.845 198.837,268.979 z" id="boundary" inkscape:connector-curvature="0" />
	<path style="fill:none;stroke:red;stroke-width:1px;stroke-linecap:butt;stroke-linejoin:miter;stroke-opacity:1" d="M 198.837,268.979 207.744,276.772 z" id="boundary" inkscape:connector-curvature="0" />
	<path style="fill:none;stroke:red;stroke-width:1px;stroke-linecap:butt;stroke-linejoin:miter;stroke-opacity:1" d="M 199.951,81.9349 209.971,76.3681 z" id="boundary" inkscape:connector-curvature="0" />
	<path style="fill:none;stroke:red;stroke-width:1px;stroke-linecap:butt;stroke-linejoin:miter;stroke-opacity:1" d="M 209.971,76.3681 221.104,74.1414 z" id="boundary" inkscape:connector-curvature="0" />
	<path style="fill:none;stroke:red;stroke-width:1px;stroke-linecap:butt;stroke-linejoin:miter;stroke-opacity:1" d="M 209.971,497.217 218.878,505.01 z" id="boundary" inkscape:connector-curvature="0" />
	<path style="fill:none;stroke:red;stroke-width:1px;stroke-linecap:butt;stroke-linejoin:miter;stroke-opacity:1" d="M 209.971,497.217 221.104,493.877 z" id="boundary" inkscape:connector-curvature="0" />
	<path style="fill:none;stroke:red;stroke-width:1px;stroke-linecap:butt;stroke-linejoin:miter;stroke-opacity:1" d="M 211.084,244.485 221.104,238.918 z" id="boundary" inkscape:connector-curvature="0" />
	<path style="fill:none;stroke:red;stroke-width:1px;stroke-linecap:butt;stroke-linejoin:miter;stroke-opacity:1" d="M 218.878,505.01 230.011,506.123 z" id="boundary" inkscape:connector-curvature="0" />
	<path style="fill:none;stroke:red;stroke-width:1px;stroke-linecap:butt;stroke-linejoin:miter;stroke-opacity:1" d="M 221.104,74.1414 232.238,70.8013 z" id="boundary" inkscape:connector-curvature="0" />
	<path style="fill:none;stroke:red;stroke-width:1px;stroke-linecap:butt;stroke-linejoin:miter;stroke-opacity:1" d="M 221.104,238.918 227.785,247.825 z" id="boundary" inkscape:connector-curvature="0" />
	<path style="fill:none;stroke:red;stroke-width:1px;stroke-linecap:butt;stroke-linejoin:miter;stroke-opacity:1" d="M 221.104,493.877 232.238,493.877 z" id="boundary" inkscape:connector-curvature="0" />
	<path style="fill:none;stroke:red;stroke-width:1px;stroke-linecap:butt;stroke-linejoin:miter;stroke-opacity:1" d="M 227.785,247.825 236.691,255.618 z" id="boundary" inkscape:connector-curvature="0" />
	<path style="fill:none;stroke:red;stroke-width:1px;stroke-linecap:butt;stroke-linejoin:miter;stroke-opacity:1" d="M 230.011,506.123 241.145,506.123 z" id="boundary" inkscape:connector-curvature="0" />
	<path style="fill:none;stroke:red;stroke-width:1px;stroke-linecap:butt;stroke-linejoin:miter;stroke-opacity:1" d="M 232.238,70.8013 243.371,70.8013 z" id="boundary" inkscape:connector-curvature="0" />
	<path style="fill:none;stroke:red;stroke-width:1px;stroke-linecap:butt;stroke-linejoin:miter;stroke-opacity:1" d="M 232.238,493.877 242.258,488.31 z" id="boundary" inkscape:connector-curvature="0" />
	<path style="fill:none;stroke:red;stroke-width:1px;stroke-linecap:butt;stroke-linejoin:miter;stroke-opacity:1" d="M 236.691,255.618 244.485,264.525 z" id="boundary" inkscape:connector-curvature="0" />
	<path style="fill:none;stroke:red;stroke-width:1px;stroke-linecap:butt;stroke-linejoin:miter;stroke-opacity:1" d="M 241.145,506.123 252.278,506.123 z" id="boundary" inkscape:connector-curvature="0" />
	<path style="fill:none;stroke:red;stroke-width:1px;stroke-linecap:butt;stroke-linejoin:miter;stroke-opacity:1" d="M 242.258,488.31 253.392,488.31 z" id="boundary" inkscape:connector-curvature="0" />
	<path style="fill:none;stroke:red;stroke-width:1px;stroke-linecap:butt;stroke-linejoin:miter;stroke-opacity:1" d="M 243.371,70.8013 253.392,65.2346 z" id="boundary" inkscape:connector-curvature="0" />
	<path style="fill:none;stroke:red;stroke-width:1px;stroke-linecap:butt;stroke-linejoin:miter;stroke-opacity:1" d="M 244.485,264.525 253.392,272.319 z" id="boundary" inkscape:connector-curvature="0" />
	<path style="fill:none;stroke:red;stroke-width:1px;stroke-linecap:butt;stroke-linejoin:miter;stroke-opacity:1" d="M 252.278,506.123 263.412,506.123 z" id="boundary" inkscape:connector-curvature="0" />
	<path style="fill:none;stroke:red;stroke-width:1px;stroke-linecap:butt;stroke-linejoin:miter;stroke-opacity:1" d="M 253.392,65.2346 264.525,65.2346 z" id="boundary" inkscape:connector-curvature="0" />
	<path style="fill:none;stroke:red;stroke-width:1px;stroke-linecap:butt;stroke-linejoin:miter;stroke-opacity:1" d="M 253.392,272.319 261.185,281.226 z" id="boundary" inkscape:connector-curvature="0" />
	<path style="fill:none;stroke:red;stroke-width:1px;stroke-linecap:butt;stroke-linejoin:miter;stroke-opacity:1" d="M 253.392,488.31 264.525,488.31 z" id="boundary" inkscape:connector-curvature="0" />
	<path style="fill:none;stroke:red;stroke-width:1px;stroke-linecap:butt;stroke-linejoin:miter;stroke-opacity:1" d="M 261.185,281.226 270.092,289.019 z" id="boundary" inkscape:connector-curvature="0" />
	<path style="fill:none;stroke:red;stroke-width:1px;stroke-linecap:butt;stroke-linejoin:miter;stroke-opacity:1" d="M 263.412,506.123 274.545,506.123 z" id="boundary" inkscape:connector-curvature="0" />
	<path style="fill:none;stroke:red;stroke-width:1px;stroke-linecap:butt;stroke-linejoin:miter;stroke-opacity:1" d="M 264.525,65.2346 275.659,65.2346 z" id="boundary" inkscape:connector-curvature="0" />
	<path style="fill:none;stroke:red;stroke-width:1px;stroke-linecap:butt;stroke-linejoin:miter;stroke-opacity:1" d="M 264.525,488.31 272.319,479.403 z" id="boundary" inkscape:connector-curvature="0" />
	<path style="fill:none;stroke:red;stroke-width:1px;stroke-linecap:butt;stroke-linejoin:miter;stroke-opacity:1" d="M 270.092,289.019 276.772,297.926 z" id="boundary" inkscape:connector-curvature="0" />
	<path style="fill:none;stroke:red;stroke-width:1px;stroke-linecap:butt;stroke-linejoin:miter;stroke-opacity:1" d="M 272.319,479.403 277.886,468.269 z" id="boundary" inkscape:connector-curvature="0" />
	<path style="fill:none;stroke:red;stroke-width:1px;stroke-linecap:butt;stroke-linejoin:miter;stroke-opacity:1" d="M 274.545,506.123 285.679,506.123 z" id="boundary" inkscape:connector-curvature="0" />
	<path style="fill:none;stroke:red;stroke-width:1px;stroke-linecap:butt;stroke-linejoin:miter;stroke-opacity:1" d="M 275.659,65.2346 285.679,59.6678 z" id="boundary" inkscape:connector-curvature="0" />
	<path style="fill:none;stroke:red;stroke-width:1px;stroke-linecap:butt;stroke-linejoin:miter;stroke-opacity:1" d="M 276.772,297.926 276.772,309.059 z" id="boundary" inkscape:connector-curvature="0" />
	<path style="fill:none;stroke:red;stroke-width:1px;stroke-linecap:butt;stroke-linejoin:miter;stroke-opacity:1" d="M 276.772,309.059 276.772,320.193 z" id="boundary" inkscape:connector-curvature="0" />
	<path style="fill:none;stroke:red;stroke-width:1px;stroke-linecap:butt;stroke-linejoin:miter;stroke-opacity:1" d="M 276.772,320.193 277.886,331.327 z" id="boundary" inkscape:connector-curvature="0" />
	<path style="fill:none;stroke:red;stroke-width:1px;stroke-linecap:butt;stroke-linejoin:miter;stroke-opacity:1" d="M 277.886,331.327 282.339,342.46 z" id="boundary" inkscape:connector-curvature="0" />
	<path style="fill:none;stroke:red;stroke-width:1px;stroke-linecap:butt;stroke-linejoin:miter;stroke-opacity:1" d="M 277.886,468.269 282.339,447.116 z" id="boundary" inkscape:connector-curvature="0" />
	<path style="fill:none;stroke:red;stroke-width:1px;stroke-linecap:butt;stroke-linejoin:miter;stroke-opacity:1" d="M 282.339,342.46 282.339,353.594 z" id="boundary" inkscape:connector-curvature="0" />
	<path style="fill:none;stroke:red;stroke-width:1px;stroke-linecap:butt;stroke-linejoin:miter;stroke-opacity:1" d="M 282.339,353.594 287.906,363.614 z" id="boundary" inkscape:connector-curvature="0" />
	<path style="fill:none;stroke:red;stroke-width:1px;stroke-linecap:butt;stroke-linejoin:miter;stroke-opacity:1" d="M 282.339,447.116 287.906,430.415 z" id="boundary" inkscape:connector-curvature="0" />
	<path style="fill:none;stroke:red;stroke-width:1px;stroke-linecap:butt;stroke-linejoin:miter;stroke-opacity:1" d="M 285.679,59.6678 295.699,54.101 z" id="boundary" inkscape:connector-curvature="0" />
	<path style="fill:none;stroke:red;stroke-width:1px;stroke-linecap:butt;stroke-linejoin:miter;stroke-opacity:1" d="M 285.679,506.123 296.813,505.01 z" id="boundary" inkscape:connector-curvature="0" />
	<path style="fill:none;stroke:red;stroke-width:1px;stroke-linecap:butt;stroke-linejoin:miter;stroke-opacity:1" d="M 287.906,363.614 287.906,374.747 z" id="boundary" inkscape:connector-curvature="0" />
	<path style="fill:none;stroke:red;stroke-width:1px;stroke-linecap:butt;stroke-linejoin:miter;stroke-opacity:1" d="M 287.906,374.747 287.906,385.881 z" id="boundary" inkscape:connector-curvature="0" />
	<path style="fill:none;stroke:red;stroke-width:1px;stroke-linecap:butt;stroke-linejoin:miter;stroke-opacity:1" d="M 287.906,385.881 287.906,397.015 z" id="boundary" inkscape:connector-curvature="0" />
	<path style="fill:none;stroke:red;stroke-width:1px;stroke-linecap:butt;stroke-linejoin:miter;stroke-opacity:1" d="M 287.906,397.015 287.906,408.148 z" id="boundary" inkscape:connector-curvature="0" />
	<path style="fill:none;stroke:red;stroke-width:1px;stroke-linecap:butt;stroke-linejoin:miter;stroke-opacity:1" d="M 287.906,408.148 287.906,419.282 z" id="boundary" inkscape:connector-curvature="0" />
	<path style="fill:none;stroke:red;stroke-width:1px;stroke-linecap:butt;stroke-linejoin:miter;stroke-opacity:1" d="M 287.906,419.282 287.906,430.415 z" id="boundary" inkscape:connector-curvature="0" />
	<path style="fill:none;stroke:red;stroke-width:1px;stroke-linecap:butt;stroke-linejoin:miter;stroke-opacity:1" d="M 295.699,54.101 305.719,59.6678 z" id="boundary" inkscape:connector-curvature="0" />
	<path style="fill:none;stroke:red;stroke-width:1px;stroke-linecap:butt;stroke-linejoin:miter;stroke-opacity:1" d="M 296.813,505.01 305.719,489.423 z" id="boundary" inkscape:connector-curvature="0" />
	<path style="fill:none;stroke:red;stroke-width:1px;stroke-linecap:butt;stroke-linejoin:miter;stroke-opacity:1" d="M 305.719,59.6678 316.853,59.6678 z" id="boundary" inkscape:connector-curvature="0" />
	<path style="fill:none;stroke:red;stroke-width:1px;stroke-linecap:butt;stroke-linejoin:miter;stroke-opacity:1" d="M 305.719,478.29 305.719,489.423 z" id="boundary" inkscape:connector-curvature="0" />
	<path style="fill:none;stroke:red;stroke-width:1px;stroke-linecap:butt;stroke-linejoin:miter;stroke-opacity:1" d="M 305.719,478.29 311.286,467.156 z" id="boundary" inkscape:connector-curvature="0" />
	<path style="fill:none;stroke:red;stroke-width:1px;stroke-linecap:butt;stroke-linejoin:miter;stroke-opacity:1" d="M 311.286,467.156 316.853,450.456 z" id="boundary" inkscape:connector-curvature="0" />
	<path style="fill:none;stroke:red;stroke-width:1px;stroke-linecap:butt;stroke-linejoin:miter;stroke-opacity:1" d="M 316.853,59.6678 326.873,65.2346 z" id="boundary" inkscape:connector-curvature="0" />
	<path style="fill:none;stroke:red;stroke-width:1px;stroke-linecap:butt;stroke-linejoin:miter;stroke-opacity:1" d="M 316.853,450.456 325.76,442.662 z" id="boundary" inkscape:connector-curvature="0" />
	<path style="fill:none;stroke:red;stroke-width:1px;stroke-linecap:butt;stroke-linejoin:miter;stroke-opacity:1" d="M 325.76,442.662 327.987,428.189 z" id="boundary" inkscape:connector-curvature="0" />
	<path style="fill:none;stroke:red;stroke-width:1px;stroke-linecap:butt;stroke-linejoin:miter;stroke-opacity:1" d="M 326.873,65.2346 338.007,65.2346 z" id="boundary" inkscape:connector-curvature="0" />
	<path style="fill:none;stroke:red;stroke-width:1px;stroke-linecap:butt;stroke-linejoin:miter;stroke-opacity:1" d="M 327.987,394.788 327.987,405.921 z" id="boundary" inkscape:connector-curvature="0" />
	<path style="fill:none;stroke:red;stroke-width:1px;stroke-linecap:butt;stroke-linejoin:miter;stroke-opacity:1" d="M 327.987,394.788 333.553,383.654 z" id="boundary" inkscape:connector-curvature="0" />
	<path style="fill:none;stroke:red;stroke-width:1px;stroke-linecap:butt;stroke-linejoin:miter;stroke-opacity:1" d="M 327.987,405.921 333.553,415.942 z" id="boundary" inkscape:connector-curvature="0" />
	<path style="fill:none;stroke:red;stroke-width:1px;stroke-linecap:butt;stroke-linejoin:miter;stroke-opacity:1" d="M 327.987,428.189 333.553,415.942 z" id="boundary" inkscape:connector-curvature="0" />
	<path style="fill:none;stroke:red;stroke-width:1px;stroke-linecap:butt;stroke-linejoin:miter;stroke-opacity:1" d="M 333.553,372.521 333.553,383.654 z" id="boundary" inkscape:connector-curvature="0" />
	<path style="fill:none;stroke:red;stroke-width:1px;stroke-linecap:butt;stroke-linejoin:miter;stroke-opacity:1" d="M 333.553,372.521 339.12,361.387 z" id="boundary" inkscape:connector-curvature="0" />
	<path style="fill:none;stroke:red;stroke-width:1px;stroke-linecap:butt;stroke-linejoin:miter;stroke-opacity:1" d="M 338.007,65.2346 348.027,70.8013 z" id="boundary" inkscape:connector-curvature="0" />
	<path style="fill:none;stroke:red;stroke-width:1px;stroke-linecap:butt;stroke-linejoin:miter;stroke-opacity:1" d="M 339.12,350.254 339.12,361.387 z" id="boundary" inkscape:connector-curvature="0" />
	<path style="fill:none;stroke:red;stroke-width:1px;stroke-linecap:butt;stroke-linejoin:miter;stroke-opacity:1" d="M 339.12,350.254 344.687,333.553 z" id="boundary" inkscape:connector-curvature="0" />
	<path style="fill:none;stroke:red;stroke-width:1px;stroke-linecap:butt;stroke-linejoin:miter;stroke-opacity:1" d="M 344.687,333.553 350.254,322.42 z" id="boundary" inkscape:connector-curvature="0" />
	<path style="fill:none;stroke:red;stroke-width:1px;stroke-linecap:butt;stroke-linejoin:miter;stroke-opacity:1" d="M 348.027,70.8013 359.16,71.9147 z" id="boundary" inkscape:connector-curvature="0" />
	<path style="fill:none;stroke:red;stroke-width:1px;stroke-linecap:butt;stroke-linejoin:miter;stroke-opacity:1" d="M 350.254,322.42 360.274,316.853 z" id="boundary" inkscape:connector-curvature="0" />
	<path style="fill:none;stroke:red;stroke-width:1px;stroke-linecap:butt;stroke-linejoin:miter;stroke-opacity:1" d="M 359.16,71.9147 370.294,76.3681 z" id="boundary" inkscape:connector-curvature="0" />
	<path style="fill:none;stroke:red;stroke-width:1px;stroke-linecap:butt;stroke-linejoin:miter;stroke-opacity:1" d="M 360.274,316.853 371.407,316.853 z" id="boundary" inkscape:connector-curvature="0" />
	<path style="fill:none;stroke:red;stroke-width:1px;stroke-linecap:butt;stroke-linejoin:miter;stroke-opacity:1" d="M 370.294,76.3681 381.428,77.4815 z" id="boundary" inkscape:connector-curvature="0" />
	<path style="fill:none;stroke:red;stroke-width:1px;stroke-linecap:butt;stroke-linejoin:miter;stroke-opacity:1" d="M 371.407,316.853 381.428,322.42 z" id="boundary" inkscape:connector-curvature="0" />
	<path style="fill:none;stroke:red;stroke-width:1px;stroke-linecap:butt;stroke-linejoin:miter;stroke-opacity:1" d="M 381.428,77.4815 392.561,81.9349 z" id="boundary" inkscape:connector-curvature="0" />
	<path style="fill:none;stroke:red;stroke-width:1px;stroke-linecap:butt;stroke-linejoin:miter;stroke-opacity:1" d="M 381.428,322.42 388.108,331.327 z" id="boundary" inkscape:connector-curvature="0" />
	<path style="fill:none;stroke:red;stroke-width:1px;stroke-linecap:butt;stroke-linejoin:miter;stroke-opacity:1" d="M 388.108,331.327 393.675,341.347 z" id="boundary" inkscape:connector-curvature="0" />
	<path style="fill:none;stroke:red;stroke-width:1px;stroke-linecap:butt;stroke-linejoin:miter;stroke-opacity:1" d="M 392.561,81.9349 403.695,83.0483 z" id="boundary" inkscape:connector-curvature="0" />
	<path style="fill:none;stroke:red;stroke-width:1px;stroke-linecap:butt;stroke-linejoin:miter;stroke-opacity:1" d="M 393.675,341.347 399.241,351.367 z" id="boundary" inkscape:connector-curvature="0" />
	<path style="fill:none;stroke:red;stroke-width:1px;stroke-linecap:butt;stroke-linejoin:miter;stroke-opacity:1" d="M 399.241,351.367 407.035,360.274 z" id="boundary" inkscape:connector-curvature="0" />
	<path style="fill:none;stroke:red;stroke-width:1px;stroke-linecap:butt;stroke-linejoin:miter;stroke-opacity:1" d="M 403.695,83.0483 413.715,88.615 z" id="boundary" inkscape:connector-curvature="0" />
	<path style="fill:none;stroke:red;stroke-width:1px;stroke-linecap:butt;stroke-linejoin:miter;stroke-opacity:1" d="M 407.035,360.274 415.942,366.954 z" id="boundary" inkscape:connector-curvature="0" />
	<path style="fill:none;stroke:red;stroke-width:1px;stroke-linecap:butt;stroke-linejoin:miter;stroke-opacity:1" d="M 413.715,88.615 424.848,93.0685 z" id="boundary" inkscape:connector-curvature="0" />
	<path style="fill:none;stroke:red;stroke-width:1px;stroke-linecap:butt;stroke-linejoin:miter;stroke-opacity:1" d="M 415.942,366.954 425.962,372.521 z" id="boundary" inkscape:connector-curvature="0" />
	<path style="fill:none;stroke:red;stroke-width:1px;stroke-linecap:butt;stroke-linejoin:miter;stroke-opacity:1" d="M 424.848,93.0685 434.869,98.6352 z" id="boundary" inkscape:connector-curvature="0" />
	<path style="fill:none;stroke:red;stroke-width:1px;stroke-linecap:butt;stroke-linejoin:miter;stroke-opacity:1" d="M 425.962,372.521 433.755,381.428 z" id="boundary" inkscape:connector-curvature="0" />
	<path style="fill:none;stroke:red;stroke-width:1px;stroke-linecap:butt;stroke-linejoin:miter;stroke-opacity:1" d="M 427.075,491.65 438.209,488.31 z" id="boundary" inkscape:connector-curvature="0" />
	<path style="fill:none;stroke:red;stroke-width:1px;stroke-linecap:butt;stroke-linejoin:miter;stroke-opacity:1" d="M 427.075,491.65 440.435,499.443 z" id="boundary" inkscape:connector-curvature="0" />
	<path style="fill:none;stroke:red;stroke-width:1px;stroke-linecap:butt;stroke-linejoin:miter;stroke-opacity:1" d="M 433.755,381.428 442.662,389.221 z" id="boundary" inkscape:connector-curvature="0" />
	<path style="fill:none;stroke:red;stroke-width:1px;stroke-linecap:butt;stroke-linejoin:miter;stroke-opacity:1" d="M 434.869,98.6352 443.776,106.429 z" id="boundary" inkscape:connector-curvature="0" />
	<path style="fill:none;stroke:red;stroke-width:1px;stroke-linecap:butt;stroke-linejoin:miter;stroke-opacity:1" d="M 438.209,488.31 448.229,482.743 z" id="boundary" inkscape:connector-curvature="0" />
	<path style="fill:none;stroke:red;stroke-width:1px;stroke-linecap:butt;stroke-linejoin:miter;stroke-opacity:1" d="M 440.435,499.443 451.569,500.557 z" id="boundary" inkscape:connector-curvature="0" />
	<path style="fill:none;stroke:red;stroke-width:1px;stroke-linecap:butt;stroke-linejoin:miter;stroke-opacity:1" d="M 442.662,389.221 447.116,400.355 z" id="boundary" inkscape:connector-curvature="0" />
	<path style="fill:none;stroke:red;stroke-width:1px;stroke-linecap:butt;stroke-linejoin:miter;stroke-opacity:1" d="M 443.776,106.429 450.456,115.336 z" id="boundary" inkscape:connector-curvature="0" />
	<path style="fill:none;stroke:red;stroke-width:1px;stroke-linecap:butt;stroke-linejoin:miter;stroke-opacity:1" d="M 444.889,311.286 444.889,322.42 z" id="boundary" inkscape:connector-curvature="0" />
	<path style="fill:none;stroke:red;stroke-width:1px;stroke-linecap:butt;stroke-linejoin:miter;stroke-opacity:1" d="M 444.889,311.286 453.796,303.493 z" id="boundary" inkscape:connector-curvature="0" />
	<path style="fill:none;stroke:red;stroke-width:1px;stroke-linecap:butt;stroke-linejoin:miter;stroke-opacity:1" d="M 444.889,322.42 450.456,332.44 z" id="boundary" inkscape:connector-curvature="0" />
	<path style="fill:none;stroke:red;stroke-width:1px;stroke-linecap:butt;stroke-linejoin:miter;stroke-opacity:1" d="M 447.116,400.355 452.682,410.375 z" id="boundary" inkscape:connector-curvature="0" />
	<path style="fill:none;stroke:red;stroke-width:1px;stroke-linecap:butt;stroke-linejoin:miter;stroke-opacity:1" d="M 448.229,482.743 458.249,477.176 z" id="boundary" inkscape:connector-curvature="0" />
	<path style="fill:none;stroke:red;stroke-width:1px;stroke-linecap:butt;stroke-linejoin:miter;stroke-opacity:1" d="M 450.456,115.336 461.589,118.676 z" id="boundary" inkscape:connector-curvature="0" />
	<path style="fill:none;stroke:red;stroke-width:1px;stroke-linecap:butt;stroke-linejoin:miter;stroke-opacity:1" d="M 450.456,332.44 456.022,342.46 z" id="boundary" inkscape:connector-curvature="0" />
	<path style="fill:none;stroke:red;stroke-width:1px;stroke-linecap:butt;stroke-linejoin:miter;stroke-opacity:1" d="M 451.569,500.557 462.703,500.557 z" id="boundary" inkscape:connector-curvature="0" />
	<path style="fill:none;stroke:red;stroke-width:1px;stroke-linecap:butt;stroke-linejoin:miter;stroke-opacity:1" d="M 452.682,410.375 457.136,421.508 z" id="boundary" inkscape:connector-curvature="0" />
	<path style="fill:none;stroke:red;stroke-width:1px;stroke-linecap:butt;stroke-linejoin:miter;stroke-opacity:1" d="M 453.796,303.493 464.929,297.926 z" id="boundary" inkscape:connector-curvature="0" />
	<path style="fill:none;stroke:red;stroke-width:1px;stroke-linecap:butt;stroke-linejoin:miter;stroke-opacity:1" d="M 456.022,342.46 461.589,352.48 z" id="boundary" inkscape:connector-curvature="0" />
	<path style="fill:none;stroke:red;stroke-width:1px;stroke-linecap:butt;stroke-linejoin:miter;stroke-opacity:1" d="M 457.136,421.508 462.703,431.529 z" id="boundary" inkscape:connector-curvature="0" />
	<path style="fill:none;stroke:red;stroke-width:1px;stroke-linecap:butt;stroke-linejoin:miter;stroke-opacity:1" d="M 458.249,477.176 466.043,464.929 z" id="boundary" inkscape:connector-curvature="0" />
	<path style="fill:none;stroke:red;stroke-width:1px;stroke-linecap:butt;stroke-linejoin:miter;stroke-opacity:1" d="M 461.589,118.676 471.609,124.242 z" id="boundary" inkscape:connector-curvature="0" />
	<path style="fill:none;stroke:red;stroke-width:1px;stroke-linecap:butt;stroke-linejoin:miter;stroke-opacity:1" d="M 461.589,352.48 466.043,363.614 z" id="boundary" inkscape:connector-curvature="0" />
	<path style="fill:none;stroke:red;stroke-width:1px;stroke-linecap:butt;stroke-linejoin:miter;stroke-opacity:1" d="M 462.703,431.529 466.043,442.662 z" id="boundary" inkscape:connector-curvature="0" />
	<path style="fill:none;stroke:red;stroke-width:1px;stroke-linecap:butt;stroke-linejoin:miter;stroke-opacity:1" d="M 462.703,500.557 472.723,494.99 z" id="boundary" inkscape:connector-curvature="0" />
	<path style="fill:none;stroke:red;stroke-width:1px;stroke-linecap:butt;stroke-linejoin:miter;stroke-opacity:1" d="M 464.929,297.926 476.063,292.359 z" id="boundary" inkscape:connector-curvature="0" />
	<path style="fill:none;stroke:red;stroke-width:1px;stroke-linecap:butt;stroke-linejoin:miter;stroke-opacity:1" d="M 466.043,363.614 472.723,372.521 z" id="boundary" inkscape:connector-curvature="0" />
	<path style="fill:none;stroke:red;stroke-width:1px;stroke-linecap:butt;stroke-linejoin:miter;stroke-opacity:1" d="M 466.043,442.662 466.043,453.796 z" id="boundary" inkscape:connector-curvature="0" />
	<path style="fill:none;stroke:red;stroke-width:1px;stroke-linecap:butt;stroke-linejoin:miter;stroke-opacity:1" d="M 466.043,453.796 466.043,464.929 z" id="boundary" inkscape:connector-curvature="0" />
	<path style="fill:none;stroke:red;stroke-width:1px;stroke-linecap:butt;stroke-linejoin:miter;stroke-opacity:1" d="M 471.609,124.242 482.743,128.696 z" id="boundary" inkscape:connector-curvature="0" />
	<path style="fill:none;stroke:red;stroke-width:1px;stroke-linecap:butt;stroke-linejoin:miter;stroke-opacity:1" d="M 472.723,372.521 478.29,382.541 z" id="boundary" inkscape:connector-curvature="0" />
	<path style="fill:none;stroke:red;stroke-width:1px;stroke-linecap:butt;stroke-linejoin:miter;stroke-opacity:1" d="M 472.723,494.99 483.856,483.856 z" id="boundary" inkscape:connector-curvature="0" />
	<path style="fill:none;stroke:red;stroke-width:1px;stroke-linecap:butt;stroke-linejoin:miter;stroke-opacity:1" d="M 476.063,292.359 487.196,289.019 z" id="boundary" inkscape:connector-curvature="0" />
	<path style="fill:none;stroke:red;stroke-width:1px;stroke-linecap:butt;stroke-linejoin:miter;stroke-opacity:1" d="M 478.29,382.541 483.856,392.561 z" id="boundary" inkscape:connector-curvature="0" />
	<path style="fill:none;stroke:red;stroke-width:1px;stroke-linecap:butt;stroke-linejoin:miter;stroke-opacity:1" d="M 482.743,128.696 492.763,134.263 z" id="boundary" inkscape:connector-curvature="0" />
	<path style="fill:none;stroke:red;stroke-width:1px;stroke-linecap:butt;stroke-linejoin:miter;stroke-opacity:1" d="M 483.856,392.561 483.856,403.695 z" id="boundary" inkscape:connector-curvature="0" />
	<path style="fill:none;stroke:red;stroke-width:1px;stroke-linecap:butt;stroke-linejoin:miter;stroke-opacity:1" d="M 483.856,403.695 489.423,413.715 z" id="boundary" inkscape:connector-curvature="0" />
	<path style="fill:none;stroke:red;stroke-width:1px;stroke-linecap:butt;stroke-linejoin:miter;stroke-opacity:1" d="M 483.856,483.856 492.763,476.063 z" id="boundary" inkscape:connector-curvature="0" />
	<path style="fill:none;stroke:red;stroke-width:1px;stroke-linecap:butt;stroke-linejoin:miter;stroke-opacity:1" d="M 487.196,289.019 497.217,294.586 z" id="boundary" inkscape:connector-curvature="0" />
	<path style="fill:none;stroke:red;stroke-width:1px;stroke-linecap:butt;stroke-linejoin:miter;stroke-opacity:1" d="M 489.423,413.715 497.217,422.622 z" id="boundary" inkscape:connector-curvature="0" />
	<path style="fill:none;stroke:red;stroke-width:1px;stroke-linecap:butt;stroke-linejoin:miter;stroke-opacity:1" d="M 489.423,439.322 489.423,450.456 z" id="boundary" inkscape:connector-curvature="0" />
	<path style="fill:none;stroke:red;stroke-width:1px;stroke-linecap:butt;stroke-linejoin:miter;stroke-opacity:1" d="M 489.423,439.322 497.217,422.622 z" id="boundary" inkscape:connector-curvature="0" />
	<path style="fill:none;stroke:red;stroke-width:1px;stroke-linecap:butt;stroke-linejoin:miter;stroke-opacity:1" d="M 489.423,450.456 494.99,460.476 z" id="boundary" inkscape:connector-curvature="0" />
	<path style="fill:none;stroke:red;stroke-width:1px;stroke-linecap:butt;stroke-linejoin:miter;stroke-opacity:1" d="M 492.763,134.263 503.897,138.716 z" id="boundary" inkscape:connector-curvature="0" />
	<path style="fill:none;stroke:red;stroke-width:1px;stroke-linecap:butt;stroke-linejoin:miter;stroke-opacity:1" d="M 492.763,476.063 494.99,460.476 z" id="boundary" inkscape:connector-curvature="0" />
	<path style="fill:none;stroke:red;stroke-width:1px;stroke-linecap:butt;stroke-linejoin:miter;stroke-opacity:1" d="M 497.217,294.586 508.35,294.586 z" id="boundary" inkscape:connector-curvature="0" />
	<path style="fill:none;stroke:red;stroke-width:1px;stroke-linecap:butt;stroke-linejoin:miter;stroke-opacity:1" d="M 503.897,138.716 515.03,143.169 z" id="boundary" inkscape:connector-curvature="0" />
	<path style="fill:none;stroke:red;stroke-width:1px;stroke-linecap:butt;stroke-linejoin:miter;stroke-opacity:1" d="M 508.35,294.586 519.484,294.586 z" id="boundary" inkscape:connector-curvature="0" />
	<path style="fill:none;stroke:red;stroke-width:1px;stroke-linecap:butt;stroke-linejoin:miter;stroke-opacity:1" d="M 515.03,143.169 525.051,148.736 z" id="boundary" inkscape:connector-curvature="0" />
	<path style="fill:none;stroke:red;stroke-width:1px;stroke-linecap:butt;stroke-linejoin:miter;stroke-opacity:1" d="M 519.484,294.586 529.504,300.153 z" id="boundary" inkscape:connector-curvature="0" />
	<path style="fill:none;stroke:red;stroke-width:1px;stroke-linecap:butt;stroke-linejoin:miter;stroke-opacity:1" d="M 525.051,148.736 535.071,154.303 z" id="boundary" inkscape:connector-curvature="0" />
	<path style="fill:none;stroke:red;stroke-width:1px;stroke-linecap:butt;stroke-linejoin:miter;stroke-opacity:1" d="M 529.504,300.153 540.637,300.153 z" id="boundary" inkscape:connector-curvature="0" />
	<path style="fill:none;stroke:red;stroke-width:1px;stroke-linecap:butt;stroke-linejoin:miter;stroke-opacity:1" d="M 535.071,154.303 545.091,159.87 z" id="boundary" inkscape:connector-curvature="0" />
	<path style="fill:none;stroke:red;stroke-width:1px;stroke-linecap:butt;stroke-linejoin:miter;stroke-opacity:1" d="M 540.637,300.153 550.658,305.719 z" id="boundary" inkscape:connector-curvature="0" />
	<path style="fill:none;stroke:red;stroke-width:1px;stroke-linecap:butt;stroke-linejoin:miter;stroke-opacity:1" d="M 545.091,159.87 555.111,165.437 z" id="boundary" inkscape:connector-curvature="0" />
	<path style="fill:none;stroke:red;stroke-width:1px;stroke-linecap:butt;stroke-linejoin:miter;stroke-opacity:1" d="M 550.658,305.719 561.791,305.719 z" id="boundary" inkscape:connector-curvature="0" />
	<path style="fill:none;stroke:red;stroke-width:1px;stroke-linecap:butt;stroke-linejoin:miter;stroke-opacity:1" d="M 555.111,165.437 565.131,171.003 z" id="boundary" inkscape:connector-curvature="0" />
	<path style="fill:none;stroke:red;stroke-width:1px;stroke-linecap:butt;stroke-linejoin:miter;stroke-opacity:1" d="M 561.791,305.719 572.925,307.946 z" id="boundary" inkscape:connector-curvature="0" />
	<path style="fill:none;stroke:red;stroke-width:1px;stroke-linecap:butt;stroke-linejoin:miter;stroke-opacity:1" d="M 565.131,171.003 575.152,176.57 z" id="boundary" inkscape:connector-curvature="0" />
	<path style="fill:none;stroke:red;stroke-width:1px;stroke-linecap:butt;stroke-linejoin:miter;stroke-opacity:1" d="M 572.925,307.946 584.058,311.286 z" id="boundary" inkscape:connector-curvature="0" />
	<path style="fill:none;stroke:red;stroke-width:1px;stroke-linecap:butt;stroke-linejoin:miter;stroke-opacity:1" d="M 575.152,176.57 582.945,185.477 z" id="boundary" inkscape:connector-curvature="0" />
	<path style="fill:none;stroke:red;stroke-width:1px;stroke-linecap:butt;stroke-linejoin:miter;stroke-opacity:1" d="M 582.945,185.477 591.852,193.27 z" id="boundary" inkscape:connector-curvature="0" />
	<path style="fill:none;stroke:red;stroke-width:1px;stroke-linecap:butt;stroke-linejoin:miter;stroke-opacity:1" d="M 584.058,311.286 595.192,313.513 z" id="boundary" inkscape:connector-curvature="0" />
	<path style="fill:none;stroke:red;stroke-width:1px;stroke-linecap:butt;stroke-linejoin:miter;stroke-opacity:1" d="M 591.852,193.27 601.872,198.837 z" id="boundary" inkscape:connector-curvature="0" />
	<path style="fill:none;stroke:red;stroke-width:1px;stroke-linecap:butt;stroke-linejoin:miter;stroke-opacity:1" d="M 595.192,313.513 606.325,316.853 z" id="boundary" inkscape:connector-curvature="0" />
	<path style="fill:none;stroke:red;stroke-width:1px;stroke-linecap:butt;stroke-linejoin:miter;stroke-opacity:1" d="M 601.872,198.837 611.892,204.404 z" id="boundary" inkscape:connector-curvature="0" />
	<path style="fill:none;stroke:red;stroke-width:1px;stroke-linecap:butt;stroke-linejoin:miter;stroke-opacity:1" d="M 606.325,316.853 617.459,319.08 z" id="boundary" inkscape:connector-curvature="0" />
	<path style="fill:none;stroke:red;stroke-width:1px;stroke-linecap:butt;stroke-linejoin:miter;stroke-opacity:1" d="M 611.892,204.404 621.912,209.971 z" id="boundary" inkscape:connector-curvature="0" />
	<path style="fill:none;stroke:red;stroke-width:1px;stroke-linecap:butt;stroke-linejoin:miter;stroke-opacity:1" d="M 617.459,319.08 628.593,322.42 z" id="boundary" inkscape:connector-curvature="0" />
	<path style="fill:none;stroke:red;stroke-width:1px;stroke-linecap:butt;stroke-linejoin:miter;stroke-opacity:1" d="M 621.912,209.971 630.819,216.651 z" id="boundary" inkscape:connector-curvature="0" />
	<path style="fill:none;stroke:red;stroke-width:1px;stroke-linecap:butt;stroke-linejoin:miter;stroke-opacity:1" d="M 628.593,322.42 638.613,327.987 z" id="boundary" inkscape:connector-curvature="0" />
	<path style="fill:none;stroke:red;stroke-width:1px;stroke-linecap:butt;stroke-linejoin:miter;stroke-opacity:1" d="M 630.819,216.651 639.726,224.444 z" id="boundary" inkscape:connector-curvature="0" />
	<path style="fill:none;stroke:red;stroke-width:1px;stroke-linecap:butt;stroke-linejoin:miter;stroke-opacity:1" d="M 638.613,327.987 649.746,327.987 z" id="boundary" inkscape:connector-curvature="0" />
	<path style="fill:none;stroke:red;stroke-width:1px;stroke-linecap:butt;stroke-linejoin:miter;stroke-opacity:1" d="M 639.726,224.444 649.746,230.011 z" id="boundary" inkscape:connector-curvature="0" />
	<path style="fill:none;stroke:red;stroke-width:1px;stroke-linecap:butt;stroke-linejoin:miter;stroke-opacity:1" d="M 649.746,230.011 658.653,237.805 z" id="boundary" inkscape:connector-curvature="0" />
	<path style="fill:none;stroke:red;stroke-width:1px;stroke-linecap:butt;stroke-linejoin:miter;stroke-opacity:1" d="M 649.746,327.987 659.767,333.553 z" id="boundary" inkscape:connector-curvature="0" />
	<path style="fill:none;stroke:red;stroke-width:1px;stroke-linecap:butt;stroke-linejoin:miter;stroke-opacity:1" d="M 658.653,237.805 668.673,243.371 z" id="boundary" inkscape:connector-curvature="0" />
	<path style="fill:none;stroke:red;stroke-width:1px;stroke-linecap:butt;stroke-linejoin:miter;stroke-opacity:1" d="M 659.767,333.553 670.9,333.553 z" id="boundary" inkscape:connector-curvature="0" />
	<path style="fill:none;stroke:red;stroke-width:1px;stroke-linecap:butt;stroke-linejoin:miter;stroke-opacity:1" d="M 668.673,243.371 678.694,248.938 z" id="boundary" inkscape:connector-curvature="0" />
	<path style="fill:none;stroke:red;stroke-width:1px;stroke-linecap:butt;stroke-linejoin:miter;stroke-opacity:1" d="M 670.9,333.553 680.92,339.12 z" id="boundary" inkscape:connector-curvature="0" />
	<path style="fill:none;stroke:red;stroke-width:1px;stroke-linecap:butt;stroke-linejoin:miter;stroke-opacity:1" d="M 678.694,248.938 687.6,255.618 z" id="boundary" inkscape:connector-curvature="0" />
	<path style="fill:none;stroke:red;stroke-width:1px;stroke-linecap:butt;stroke-linejoin:miter;stroke-opacity:1" d="M 680.92,339.12 692.054,343.574 z" id="boundary" inkscape:connector-curvature="0" />
	<path style="fill:none;stroke:red;stroke-width:1px;stroke-linecap:butt;stroke-linejoin:miter;stroke-opacity:1" d="M 687.6,255.618 697.621,261.185 z" id="boundary" inkscape:connector-curvature="0" />
	<path style="fill:none;stroke:red;stroke-width:1px;stroke-linecap:butt;stroke-linejoin:miter;stroke-opacity:1" d="M 692.054,343.574 703.187,344.687 z" id="boundary" inkscape:connector-curvature="0" />
	<path style="fill:none;stroke:red;stroke-width:1px;stroke-linecap:butt;stroke-linejoin:miter;stroke-opacity:1" d="M 697.621,261.185 708.754,265.639 z" id="boundary" inkscape:connector-curvature="0" />
	<path style="fill:none;stroke:red;stroke-width:1px;stroke-linecap:butt;stroke-linejoin:miter;stroke-opacity:1" d="M 703.187,344.687 714.321,349.14 z" id="boundary" inkscape:connector-curvature="0" />
	<path style="fill:none;stroke:red;stroke-width:1px;stroke-linecap:butt;stroke-linejoin:miter;stroke-opacity:1" d="M 708.754,265.639 716.548,274.545 z" id="boundary" inkscape:connector-curvature="0" />
	<path style="fill:none;stroke:red;stroke-width:1px;stroke-linecap:butt;stroke-linejoin:miter;stroke-opacity:1" d="M 714.321,349.14 725.455,350.254 z" id="boundary" inkscape:connector-curvature="0" />
	<path style="fill:none;stroke:red;stroke-width:1px;stroke-linecap:butt;stroke-linejoin:miter;stroke-opacity:1" d="M 716.548,274.545 727.681,278.999 z" id="boundary" inkscape:connector-curvature="0" />
	<path style="fill:none;stroke:red;stroke-width:1px;stroke-linecap:butt;stroke-linejoin:miter;stroke-opacity:1" d="M 725.455,350.254 735.475,355.82 z" id="boundary" inkscape:connector-curvature="0" />
	<path style="fill:none;stroke:red;stroke-width:1px;stroke-linecap:butt;stroke-linejoin:miter;stroke-opacity:1" d="M 727.681,278.999 738.815,282.339 z" id="boundary" inkscape:connector-curvature="0" />
	<path style="fill:none;stroke:red;stroke-width:1px;stroke-linecap:butt;stroke-linejoin:miter;stroke-opacity:1" d="M 735.475,355.82 746.608,355.82 z" id="boundary" inkscape:connector-curvature="0" />
	<path style="fill:none;stroke:red;stroke-width:1px;stroke-linecap:butt;stroke-linejoin:miter;stroke-opacity:1" d="M 738.815,282.339 747.722,289.019 z" id="boundary" inkscape:connector-curvature="0" />
	<path style="fill:none;stroke:red;stroke-width:1px;stroke-linecap:butt;stroke-linejoin:miter;stroke-opacity:1" d="M 746.608,355.82 757.742,359.16 z" id="boundary" inkscape:connector-curvature="0" />
	<path style="fill:none;stroke:red;stroke-width:1px;stroke-linecap:butt;stroke-linejoin:miter;stroke-opacity:1" d="M 747.722,289.019 758.855,293.473 z" id="boundary" inkscape:connector-curvature="0" />
	<path style="fill:none;stroke:red;stroke-width:1px;stroke-linecap:butt;stroke-linejoin:miter;stroke-opacity:1" d="M 757.742,359.16 768.875,361.387 z" id="boundary" inkscape:connector-curvature="0" />
	<path style="fill:none;stroke:red;stroke-width:1px;stroke-linecap:butt;stroke-linejoin:miter;stroke-opacity:1" d="M 758.855,293.473 768.875,299.039 z" id="boundary" inkscape:connector-curvature="0" />
	<path style="fill:none;stroke:red;stroke-width:1px;stroke-linecap:butt;stroke-linejoin:miter;stroke-opacity:1" d="M 768.875,299.039 778.896,304.606 z" id="boundary" inkscape:connector-curvature="0" />
	<path style="fill:none;stroke:red;stroke-width:1px;stroke-linecap:butt;stroke-linejoin:miter;stroke-opacity:1" d="M 768.875,361.387 780.009,361.387 z" id="boundary" inkscape:connector-curvature="0" />
	<path style="fill:none;stroke:red;stroke-width:1px;stroke-linecap:butt;stroke-linejoin:miter;stroke-opacity:1" d="M 778.896,304.606 790.029,307.946 z" id="boundary" inkscape:connector-curvature="0" />
	<path style="fill:none;stroke:red;stroke-width:1px;stroke-linecap:butt;stroke-linejoin:miter;stroke-opacity:1" d="M 780.009,361.387 791.143,364.727 z" id="boundary" inkscape:connector-curvature="0" />
	<path style="fill:none;stroke:red;stroke-width:1px;stroke-linecap:butt;stroke-linejoin:miter;stroke-opacity:1" d="M 790.029,307.946 800.049,313.513 z" id="boundary" inkscape:connector-curvature="0" />
	<path style="fill:none;stroke:red;stroke-width:1px;stroke-linecap:butt;stroke-linejoin:miter;stroke-opacity:1" d="M 791.143,364.727 802.276,366.954 z" id="boundary" inkscape:connector-curvature="0" />
	<path style="fill:none;stroke:red;stroke-width:1px;stroke-linecap:butt;stroke-linejoin:miter;stroke-opacity:1" d="M 800.049,313.513 811.183,315.74 z" id="boundary" inkscape:connector-curvature="0" />
	<path style="fill:none;stroke:red;stroke-width:1px;stroke-linecap:butt;stroke-linejoin:miter;stroke-opacity:1" d="M 802.276,366.954 813.41,366.954 z" id="boundary" inkscape:connector-curvature="0" />
	<path style="fill:none;stroke:red;stroke-width:1px;stroke-linecap:butt;stroke-linejoin:miter;stroke-opacity:1" d="M 811.183,315.74 822.316,317.966 z" id="boundary" inkscape:connector-curvature="0" />
	<path style="fill:none;stroke:red;stroke-width:1px;stroke-linecap:butt;stroke-linejoin:miter;stroke-opacity:1" d="M 813.41,366.954 824.543,366.954 z" id="boundary" inkscape:connector-curvature="0" />
	<path style="fill:none;stroke:red;stroke-width:1px;stroke-linecap:butt;stroke-linejoin:miter;stroke-opacity:1" d="M 822.316,317.966 833.45,321.306 z" id="boundary" inkscape:connector-curvature="0" />
	<path style="fill:none;stroke:red;stroke-width:1px;stroke-linecap:butt;stroke-linejoin:miter;stroke-opacity:1" d="M 824.543,366.954 834.563,372.521 z" id="boundary" inkscape:connector-curvature="0" />
	<path style="fill:none;stroke:red;stroke-width:1px;stroke-linecap:butt;stroke-linejoin:miter;stroke-opacity:1" d="M 833.45,321.306 843.47,326.873 z" id="boundary" inkscape:connector-curvature="0" />
	<path style="fill:none;stroke:red;stroke-width:1px;stroke-linecap:butt;stroke-linejoin:miter;stroke-opacity:1" d="M 834.563,372.521 845.697,372.521 z" id="boundary" inkscape:connector-curvature="0" />
	<path style="fill:none;stroke:red;stroke-width:1px;stroke-linecap:butt;stroke-linejoin:miter;stroke-opacity:1" d="M 843.47,326.873 854.604,326.873 z" id="boundary" inkscape:connector-curvature="0" />
	<path style="fill:none;stroke:red;stroke-width:1px;stroke-linecap:butt;stroke-linejoin:miter;stroke-opacity:1" d="M 845.697,372.521 856.831,372.521 z" id="boundary" inkscape:connector-curvature="0" />
	<path style="fill:none;stroke:red;stroke-width:1px;stroke-linecap:butt;stroke-linejoin:miter;stroke-opacity:1" d="M 854.604,326.873 864.624,332.44 z" id="boundary" inkscape:connector-curvature="0" />
	<path style="fill:none;stroke:red;stroke-width:1px;stroke-linecap:butt;stroke-linejoin:miter;stroke-opacity:1" d="M 856.831,372.521 867.964,372.521 z" id="boundary" inkscape:connector-curvature="0" />
	<path style="fill:none;stroke:red;stroke-width:1px;stroke-linecap:butt;stroke-linejoin:miter;stroke-opacity:1" d="M 864.624,332.44 875.758,332.44 z" id="boundary" inkscape:connector-curvature="0" />
	<path style="fill:none;stroke:red;stroke-width:1px;stroke-linecap:butt;stroke-linejoin:miter;stroke-opacity:1" d="M 867.964,372.521 879.098,372.521 z" id="boundary" inkscape:connector-curvature="0" />
	<path style="fill:none;stroke:red;stroke-width:1px;stroke-linecap:butt;stroke-linejoin:miter;stroke-opacity:1" d="M 875.758,332.44 885.778,338.007 z" id="boundary" inkscape:connector-curvature="0" />
	<path style="fill:none;stroke:red;stroke-width:1px;stroke-linecap:butt;stroke-linejoin:miter;stroke-opacity:1" d="M 879.098,372.521 890.231,374.747 z" id="boundary" inkscape:connector-curvature="0" />
	<path style="fill:none;stroke:red;stroke-width:1px;stroke-linecap:butt;stroke-linejoin:miter;stroke-opacity:1" d="M 885.778,338.007 896.911,338.007 z" id="boundary" inkscape:connector-curvature="0" />
	<path style="fill:none;stroke:red;stroke-width:1px;stroke-linecap:butt;stroke-linejoin:miter;stroke-opacity:1" d="M 890.231,374.747 901.365,378.088 z" id="boundary" inkscape:connector-curvature="0" />
	<path style="fill:none;stroke:red;stroke-width:1px;stroke-linecap:butt;stroke-linejoin:miter;stroke-opacity:1" d="M 896.911,338.007 908.045,338.007 z" id="boundary" inkscape:connector-curvature="0" />
	<path style="fill:none;stroke:red;stroke-width:1px;stroke-linecap:butt;stroke-linejoin:miter;stroke-opacity:1" d="M 901.365,378.088 912.498,372.521 z" id="boundary" inkscape:connector-curvature="0" />
	<path style="fill:none;stroke:red;stroke-width:1px;stroke-linecap:butt;stroke-linejoin:miter;stroke-opacity:1" d="M 908.045,338.007 919.178,338.007 z" id="boundary" inkscape:connector-curvature="0" />
	<path style="fill:none;stroke:red;stroke-width:1px;stroke-linecap:butt;stroke-linejoin:miter;stroke-opacity:1" d="M 912.498,372.521 923.632,366.954 z" id="boundary" inkscape:connector-curvature="0" />
	<path style="fill:none;stroke:red;stroke-width:1px;stroke-linecap:butt;stroke-linejoin:miter;stroke-opacity:1" d="M 919.178,338.007 930.312,338.007 z" id="boundary" inkscape:connector-curvature="0" />
	<path style="fill:none;stroke:red;stroke-width:1px;stroke-linecap:butt;stroke-linejoin:miter;stroke-opacity:1" d="M 923.632,366.954 933.652,372.521 z" id="boundary" inkscape:connector-curvature="0" />
	<path style="fill:none;stroke:red;stroke-width:1px;stroke-linecap:butt;stroke-linejoin:miter;stroke-opacity:1" d="M 930.312,338.007 941.446,338.007 z" id="boundary" inkscape:connector-curvature="0" />
	<path style="fill:none;stroke:red;stroke-width:1px;stroke-linecap:butt;stroke-linejoin:miter;stroke-opacity:1" d="M 933.652,372.521 943.672,366.954 z" id="boundary" inkscape:connector-curvature="0" />
	<path style="fill:none;stroke:red;stroke-width:1px;stroke-linecap:butt;stroke-linejoin:miter;stroke-opacity:1" d="M 941.446,338.007 952.579,338.007 z" id="boundary" inkscape:connector-curvature="0" />
	<path style="fill:none;stroke:red;stroke-width:1px;stroke-linecap:butt;stroke-linejoin:miter;stroke-opacity:1" d="M 943.672,366.954 954.806,364.727 z" id="boundary" inkscape:connector-curvature="0" />
	<path style="fill:none;stroke:red;stroke-width:1px;stroke-linecap:butt;stroke-linejoin:miter;stroke-opacity:1" d="M 952.579,338.007 963.713,338.007 z" id="boundary" inkscape:connector-curvature="0" />
	<path style="fill:none;stroke:red;stroke-width:1px;stroke-linecap:butt;stroke-linejoin:miter;stroke-opacity:1" d="M 954.806,364.727 965.939,361.387 z" id="boundary" inkscape:connector-curvature="0" />
	<path style="fill:none;stroke:red;stroke-width:1px;stroke-linecap:butt;stroke-linejoin:miter;stroke-opacity:1" d="M 963.713,338.007 974.846,338.007 z" id="boundary" inkscape:connector-curvature="0" />
	<path style="fill:none;stroke:red;stroke-width:1px;stroke-linecap:butt;stroke-linejoin:miter;stroke-opacity:1" d="M 965.939,361.387 977.073,359.16 z" id="boundary" inkscape:connector-curvature="0" />
	<path style="fill:none;stroke:red;stroke-width:1px;stroke-linecap:butt;stroke-linejoin:miter;stroke-opacity:1" d="M 974.846,338.007 985.98,338.007 z" id="boundary" inkscape:connector-curvature="0" />
	<path style="fill:none;stroke:red;stroke-width:1px;stroke-linecap:butt;stroke-linejoin:miter;stroke-opacity:1" d="M 977.073,359.16 988.207,353.594 z" id="boundary" inkscape:connector-curvature="0" />
	<path style="fill:none;stroke:red;stroke-width:1px;stroke-linecap:butt;stroke-linejoin:miter;stroke-opacity:1" d="M 985.98,338.007 996,343.574 z" id="boundary" inkscape:connector-curvature="0" />
	<path style="fill:none;stroke:red;stroke-width:1px;stroke-linecap:butt;stroke-linejoin:miter;stroke-opacity:1" d="M 988.207,353.594 996,343.574 z" id="boundary" inkscape:connector-curvature="0" />
	<circle cx="4" cy="79.7082" r="4" fill="#0" id="circle0"/>
	<circle cx="4" cy="90.8418" r="4" fill="#0" id="circle1"/>
	<circle cx="9.56678" cy="68.5746" r="4" fill="#0" id="circle2"/>
	<circle cx="9.56678" cy="100.862" r="4" fill="#0" id="circle3"/>
	<circle cx="17.3603" cy="109.769" r="4" fill="#0" id="circle4"/>
	<circle cx="18.4736" cy="59.6678" r="4" fill="#0" id="circle5"/>
	<circle cx="20.7003" cy="46.3075" r="4" fill="#0" id="circle6"/>
	<circle cx="26.2671" cy="29.6072" r="4" fill="#0" id="circle7"/>
	<circle cx="26.2671" cy="116.449" r="4" fill="#0" id="circle8"/>
	<circle cx="31.8339" cy="152.076" r="4" fill="#0" id="circle9"/>
	<circle cx="32.9473" cy="125.356" r="4" fill="#0" id="circle10"/>
	<circle cx="35.174" cy="20.7003" r="4" fill="#0" id="circle11"/>
	<circle cx="37.4007" cy="162.097" r="4" fill="#0" id="circle12"/>
	<circle cx="40.7407" cy="9.56678" r="4" fill="#0" id="circle13"/>
	<circle cx="40.7407" cy="143.169" r="4" fill="#0" id="circle14"/>
	<circle cx="42.9675" cy="172.117" r="4" fill="#0" id="circle15"/>
	<circle cx="51.8743" cy="4" r="4" fill="#0" id="circle16"/>
	<circle cx="52.9877" cy="177.684" r="4" fill="#0" id="circle17"/>
	<circle cx="63.0079" cy="4" r="4" fill="#0" id="circle18"/>
	<circle cx="64.1212" cy="175.457" r="4" fill="#0" id="circle19"/>
	<circle cx="71.9147" cy="160.983" r="4" fill="#0" id="circle20"/>
	<circle cx="74.1414" cy="4" r="4" fill="#0" id="circle21"/>
	<circle cx="81.9349" cy="155.416" r="4" fill="#0" id="circle22"/>
	<circle cx="85.275" cy="4" r="4" fill="#0" id="circle23"/>
	<circle cx="91.9551" cy="160.983" r="4" fill="#0" id="circle24"/>
	<circle cx="96.4085" cy="4" r="4" fill="#0" id="circle25"/>
	<circle cx="101.975" cy="166.55" r="4" fill="#0" id="circle26"/>
	<circle cx="107.542" cy="4" r="4" fill="#0" id="circle27"/>
	<circle cx="113.109" cy="171.003" r="4" fill="#0" id="circle28"/>
	<circle cx="115.336" cy="12.9068" r="4" fill="#0" id="circle29"/>
	<circle cx="123.129" cy="176.57" r="4" fill="#0" id="circle30"/>
	<circle cx="126.469" cy="17.3603" r="4" fill="#0" id="circle31"/>
	<circle cx="132.036" cy="183.25" r="4" fill="#0" id="circle32"/>
	<circle cx="133.149" cy="26.2671" r="4" fill="#0" id="circle33"/>
	<circle cx="135.376" cy="194.384" r="4" fill="#0" id="circle34"/>
	<circle cx="137.603" cy="205.517" r="4" fill="#0" id="circle35"/>
	<circle cx="143.169" cy="291.246" r="4" fill="#0" id="circle36"/>
	<circle cx="144.283" cy="29.6072" r="4" fill="#0" id="circle37"/>
	<circle cx="144.283" cy="214.424" r="4" fill="#0" id="circle38"/>
	<circle cx="148.736" cy="40.7407" r="4" fill="#0" id="circle39"/>
	<circle cx="152.076" cy="282.339" r="4" fill="#0" id="circle40"/>
	<circle cx="153.19" cy="222.218" r="4" fill="#0" id="circle41"/>
	<circle cx="154.303" cy="233.351" r="4" fill="#0" id="circle42"/>
	<circle cx="154.303" cy="294.586" r="4" fill="#0" id="circle43"/>
	<circle cx="157.643" cy="48.5342" r="4" fill="#0" id="circle44"/>
	<circle cx="157.643" cy="271.205" r="4" fill="#0" id="circle45"/>
	<circle cx="159.87" cy="243.371" r="4" fill="#0" id="circle46"/>
	<circle cx="159.87" cy="254.505" r="4" fill="#0" id="circle47"/>
	<circle cx="163.21" cy="287.906" r="4" fill="#0" id="circle48"/>
	<circle cx="165.437" cy="57.4411" r="4" fill="#0" id="circle49"/>
	<circle cx="168.777" cy="276.772" r="4" fill="#0" id="circle50"/>
	<circle cx="171.003" cy="67.4613" r="4" fill="#0" id="circle51"/>
	<circle cx="172.117" cy="227.785" r="4" fill="#0" id="circle52"/>
	<circle cx="172.117" cy="238.918" r="4" fill="#0" id="circle53"/>
	<circle cx="172.117" cy="250.052" r="4" fill="#0" id="circle54"/>
	<circle cx="172.117" cy="261.185" r="4" fill="#0" id="circle55"/>
	<circle cx="177.684" cy="76.3681" r="4" fill="#0" id="circle56"/>
	<circle cx="182.137" cy="222.218" r="4" fill="#0" id="circle57"/>
	<circle cx="188.817" cy="79.7082" r="4" fill="#0" id="circle58"/>
	<circle cx="192.157" cy="227.785" r="4" fill="#0" id="circle59"/>
	<circle cx="198.837" cy="246.712" r="4" fill="#0" id="circle60"/>
	<circle cx="198.837" cy="257.845" r="4" fill="#0" id="circle61"/>
	<circle cx="198.837" cy="268.979" r="4" fill="#0" id="circle62"/>
	<circle cx="199.951" cy="81.9349" r="4" fill="#0" id="circle63"/>
	<circle cx="207.744" cy="276.772" r="4" fill="#0" id="circle64"/>
	<circle cx="209.971" cy="76.3681" r="4" fill="#0" id="circle65"/>
	<circle cx="209.971" cy="497.217" r="4" fill="#0" id="circle66"/>
	<circle cx="211.084" cy="244.485" r="4" fill="#0" id="circle67"/>
	<circle cx="211.084" cy="255.618" r="4" fill="#0" id="circle68"/>
	<circle cx="218.878" cy="505.01" r="4" fill="#0" id="circle69"/>
	<circle cx="221.104" cy="74.1414" r="4" fill="#0" id="circle70"/>
	<circle cx="221.104" cy="238.918" r="4" fill="#0" id="circle71"/>
	<circle cx="221.104" cy="493.877" r="4" fill="#0" id="circle72"/>
	<circle cx="227.785" cy="247.825" r="4" fill="#0" id="circle73"/>
	<circle cx="230.011" cy="506.123" r="4" fill="#0" id="circle74"/>
	<circle cx="232.238" cy="70.8013" r="4" fill="#0" id="circle75"/>
	<circle cx="232.238" cy="493.877" r="4" fill="#0" id="circle76"/>
	<circle cx="236.691" cy="255.618" r="4" fill="#0" id="circle77"/>
	<circle cx="241.145" cy="506.123" r="4" fill="#0" id="circle78"/>
	<circle cx="242.258" cy="488.31" r="4" fill="#0" id="circle79"/>
	<circle cx="243.371" cy="70.8013" r="4" fill="#0" id="circle80"/>
	<circle cx="244.485" cy="264.525" r="4" fill="#0" id="circle81"/>
	<circle cx="252.278" cy="506.123" r="4" fill="#0" id="circle82"/>
	<circle cx="253.392" cy="65.2346" r="4" fill="#0" id="circle83"/>
	<circle cx="253.392" cy="272.319" r="4" fill="#0" id="circle84"/>
	<circle cx="253.392" cy="488.31" r="4" fill="#0" id="circle85"/>
	<circle cx="261.185" cy="281.226" r="4" fill="#0" id="circle86"/>
	<circle cx="263.412" cy="506.123" r="4" fill="#0" id="circle87"/>
	<circle cx="264.525" cy="65.2346" r="4" fill="#0" id="circle88"/>
	<circle cx="264.525" cy="488.31" r="4" fill="#0" id="circle89"/>
	<circle cx="270.092" cy="289.019" r="4" fill="#0" id="circle90"/>
	<circle cx="272.319" cy="479.403" r="4" fill="#0" id="circle91"/>
	<circle cx="274.545" cy="506.123" r="4" fill="#0" id="circle92"/>
	<circle cx="275.659" cy="65.2346" r="4" fill="#0" id="circle93"/>
	<circle cx="276.772" cy="297.926" r="4" fill="#0" id="circle94"/>
	<circle cx="276.772" cy="309.059" r="4" fill="#0" id="circle95"/>
	<circle cx="276.772" cy="320.193" r="4" fill="#0" id="circle96"/>
	<circle cx="277.886" cy="331.327" r="4" fill="#0" id="circle97"/>
	<circle cx="277.886" cy="468.269" r="4" fill="#0" id="circle98"/>
	<circle cx="282.339" cy="342.46" r="4" fill="#0" id="circle99"/>
	<circle cx="282.339" cy="353.594" r="4" fill="#0" id="circle100"/>
	<circle cx="282.339" cy="447.116" r="4" fill="#0" id="circle101"/>
	<circle cx="285.679" cy="59.6678" r="4" fill="#0" id="circle102"/>
	<circle cx="285.679" cy="506.123" r="4" fill="#0" id="circle103"/>
	<circle cx="287.906" cy="363.614" r="4" fill="#0" id="circle104"/>
	<circle cx="287.906" cy="374.747" r="4" fill="#0" id="circle105"/>
	<circle cx="287.906" cy="385.881" r="4" fill="#0" id="circle106"/>
	<circle cx="287.906" cy="397.015" r="4" fill="#0" id="circle107"/>
	<circle cx="287.906" cy="408.148" r="4" fill="#0" id="circle108"/>
	<circle cx="287.906" cy="419.282" r="4" fill="#0" id="circle109"/>
	<circle cx="287.906" cy="430.415" r="4" fill="#0" id="circle110"/>
	<circle cx="295.699" cy="54.101" r="4" fill="#0" id="circle111"/>
	<circle cx="296.813" cy="505.01" r="4" fill="#0" id="circle112"/>
	<circle cx="305.719" cy="59.6678" r="4" fill="#0" id="circle113"/>
	<circle cx="305.719" cy="478.29" r="4" fill="#0" id="circle114"/>
	<circle cx="305.719" cy="489.423" r="4" fill="#0" id="circle115"/>
	<circle cx="311.286" cy="467.156" r="4" fill="#0" id="circle116"/>
	<circle cx="316.853" cy="59.6678" r="4" fill="#0" id="circle117"/>
	<circle cx="316.853" cy="450.456" r="4" fill="#0" id="circle118"/>
	<circle cx="325.76" cy="442.662" r="4" fill="#0" id="circle119"/>
	<circle cx="326.873" cy="65.2346" r="4" fill="#0" id="circle120"/>
	<circle cx="327.987" cy="394.788" r="4" fill="#0" id="circle121"/>
	<circle cx="327.987" cy="405.921" r="4" fill="#0" id="circle122"/>
	<circle cx="327.987" cy="428.189" r="4" fill="#0" id="circle123"/>
	<circle cx="333.553" cy="372.521" r="4" fill="#0" id="circle124"/>
	<circle cx="333.553" cy="383.654" r="4" fill="#0" id="circle125"/>
	<circle cx="333.553" cy="415.942" r="4" fill="#0" id="circle126"/>
	<circle cx="338.007" cy="65.2346" r="4" fill="#0" id="circle127"/>
	<circle cx="339.12" cy="350.254" r="4" fill="#0" id="circle128"/>
	<circle cx="339.12" cy="361.387" r="4" fill="#0" id="circle129"/>
	<circle cx="344.687" cy="333.553" r="4" fill="#0" id="circle130"/>
	<circle cx="348.027" cy="70.8013" r="4" fill="#0" id="circle131"/>
	<circle cx="350.254" cy="322.42" r="4" fill="#0" id="circle132"/>
	<circle cx="359.16" cy="71.9147" r="4" fill="#0" id="circle133"/>
	<circle cx="360.274" cy="316.853" r="4" fill="#0" id="circle134"/>
	<circle cx="370.294" cy="76.3681" r="4" fill="#0" id="circle135"/>
	<circle cx="371.407" cy="316.853" r="4" fill="#0" id="circle136"/>
	<circle cx="381.428" cy="77.4815" r="4" fill="#0" id="circle137"/>
	<circle cx="381.428" cy="322.42" r="4" fill="#0" id="circle138"/>
	<circle cx="388.108" cy="331.327" r="4" fill="#0" id="circle139"/>
	<circle cx="392.561" cy="81.9349" r="4" fill="#0" id="circle140"/>
	<circle cx="393.675" cy="341.347" r="4" fill="#0" id="circle141"/>
	<circle cx="399.241" cy="351.367" r="4" fill="#0" id="circle142"/>
	<circle cx="403.695" cy="83.0483" r="4" fill="#0" id="circle143"/>
	<circle cx="407.035" cy="360.274" r="4" fill="#0" id="circle144"/>
	<circle cx="413.715" cy="88.615" r="4" fill="#0" id="circle145"/>
	<circle cx="415.942" cy="366.954" r="4" fill="#0" id="circle146"/>
	<circle cx="424.848" cy="93.0685" r="4" fill="#0" id="circle147"/>
	<circle cx="425.962" cy="372.521" r="4" fill="#0" id="circle148"/>
	<circle cx="427.075" cy="491.65" r="4" fill="#0" id="circle149"/>
	<circle cx="433.755" cy="381.428" r="4" fill="#0" id="circle150"/>
	<circle cx="434.869" cy="98.6352" r="4" fill="#0" id="circle151"/>
	<circle cx="438.209" cy="488.31" r="4" fill="#0" id="circle152"/>
	<circle cx="440.435" cy="499.443" r="4" fill="#0" id="circle153"/>
	<circle cx="442.662" cy="389.221" r="4" fill="#0" id="circle154"/>
	<circle cx="443.776" cy="106.429" r="4" fill="#0" id="circle155"/>
	<circle cx="444.889" cy="311.286" r="4" fill="#0" id="circle156"/>
	<circle cx="444.889" cy="322.42" r="4" fill="#0" id="circle157"/>
	<circle cx="447.116" cy="400.355" r="4" fill="#0" id="circle158"/>
	<circle cx="448.229" cy="482.743" r="4" fill="#0" id="circle159"/>
	<circle cx="450.456" cy="115.336" r="4" fill="#0" id="circle160"/>
	<circle cx="450.456" cy="332.44" r="4" fill="#0" id="circle161"/>
	<circle cx="451.569" cy="500.557" r="4" fill="#0" id="circle162"/>
	<circle cx="452.682" cy="410.375" r="4" fill="#0" id="circle163"/>
	<circle cx="453.796" cy="303.493" r="4" fill="#0" id="circle164"/>
	<circle cx="456.022" cy="342.46" r="4" fill="#0" id="circle165"/>
	<circle cx="457.136" cy="421.508" r="4" fill="#0" id="circle166"/>
	<circle cx="458.249" cy="477.176" r="4" fill="#0" id="circle167"/>
	<circle cx="461.589" cy="118.676" r="4" fill="#0" id="circle168"/>
	<circle cx="461.589" cy="352.48" r="4" fill="#0" id="circle169"/>
	<circle cx="462.703" cy="431.529" r="4" fill="#0" id="circle170"/>
	<circle cx="462.703" cy="500.557" r="4" fill="#0" id="circle171"/>
	<circle cx="464.929" cy="297.926" r="4" fill="#0" id="circle172"/>
	<circle cx="466.043" cy="363.614" r="4" fill="#0" id="circle173"/>
	<circle cx="466.043" cy="442.662" r="4" fill="#0" id="circle174"/>
	<circle cx="466.043" cy="453.796" r="4" fill="#0" id="circle175"/>
	<circle cx="466.043" cy="464.929" r="4" fill="#0" id="circle176"/>
	<circle cx="471.609" cy="124.242" r="4" fill="#0" id="circle177"/>
	<circle cx="472.723" cy="372.521" r="4" fill="#0" id="circle178"/>
	<circle cx="472.723" cy="494.99" r="4" fill="#0" id="circle179"/>
	<circle cx="476.063" cy="292.359" r="4" fill="#0" id="circle180"/>
	<circle cx="478.29" cy="382.541" r="4" fill="#0" id="circle181"/>
	<circle cx="482.743" cy="128.696" r="4" fill="#0" id="circle182"/>
	<circle cx="483.856" cy="392.561" r="4" fill="#0" id="circle183"/>
	<circle cx="483.856" cy="403.695" r="4" fill="#0" id="circle184"/>
	<circle cx="483.856" cy="483.856" r="4" fill="#0" id="circle185"/>
	<circle cx="487.196" cy="289.019" r="4" fill="#0" id="circle186"/>
	<circle cx="489.423" cy="413.715" r="4" fill="#0" id="circle187"/>
	<circle cx="489.423" cy="439.322" r="4" fill="#0" id="circle188"/>
	<circle cx="489.423" cy="450.456" r="4" fill="#0" id="circle189"/>
	<circle cx="492.763" cy="134.263" r="4" fill="#0" id="circle190"/>
	<circle cx="492.763" cy="476.063" r="4" fill="#0" id="circle191"/>
	<circle cx="494.99" cy="460.476" r="4" fill="#0" id="circle192"/>
	<circle cx="497.217" cy="294.586" r="4" fill="#0" id="circle193"/>
	<circle cx="497.217" cy="422.622" r="4" fill="#0" id="circle194"/>
	<circle cx="503.897" cy="138.716" r="4" fill="#0" id="circle195"/>
	<circle cx="508.35" cy="294.586" r="4" fill="#0" id="circle196"/>
	<circle cx="515.03" cy="143.169" r="4" fill="#0" id="circle197"/>
	<circle cx="519.484" cy="294.586" r="4" fill="#0" id="circle198"/>
	<circle cx="525.051" cy="148.736" r="4" fill="#0" id="circle199"/>
	<circle cx="529.504" cy="300.153" r="4" fill="#0" id="circle200"/>
	<circle cx="535.071" cy="154.303" r="4" fill="#0" id="circle201"/>
	<circle cx="540.637" cy="300.153" r="4" fill="#0" id="circle202"/>
	<circle cx="545.091" cy="159.87" r="4" fill="#0" id="circle203"/>
	<circle cx="550.658" cy="305.719" r="4" fill="#0" id="circle204"/>
	<circle cx="555.111" cy="165.437" r="4" fill="#0" id="circle205"/>
	<circle cx="561.791" cy="305.719" r="4" fill="#0" id="circle206"/>
	<circle cx="565.131" cy="171.003" r="4" fill="#0" id="circle207"/>
	<circle cx="572.925" cy="307.946" r="4" fill="#0" id="circle208"/>
	<circle cx="575.152" cy="176.57" r="4" fill="#0" id="circle209"/>
	<circle cx="582.945" cy="185.477" r="4" fill="#0" id="circle210"/>
	<circle cx="584.058" cy="311.286" r="4" fill="#0" id="circle211"/>
	<circle cx="591.852" cy="193.27" r="4" fill="#0" id="circle212"/>
	<circle cx="595.192" cy="313.513" r="4" fill="#0" id="circle213"/>
	<circle cx="601.872" cy="198.837" r="4" fill="#0" id="circle214"/>
	<circle cx="606.325" cy="316.853" r="4" fill="#0" id="circle215"/>
	<circle cx="611.892" cy="204.404" r="4" fill="#0" id="circle216"/>
	<circle cx="617.459" cy="319.08" r="4" fill="#0" id="circle217"/>
	<circle cx="621.912" cy="209.971" r="4" fill="#0" id="circle218"/>
	<circle cx="628.593" cy="322.42" r="4" fill="#0" id="circle219"/>
	<circle cx="630.819" cy="216.651" r="4" fill="#0" id="circle220"/>
	<circle cx="638.613" cy="327.987" r="4" fill="#0" id="circle221"/>
	<circle cx="639.726" cy="224.444" r="4" fill="#0" id="circle222"/>
	<circle cx="649.746" cy="230.011" r="4" fill="#0" id="circle223"/>
	<circle cx="649.746" cy="327.987" r="4" fill="#0" id="circle224"/>
	<circle cx="658.653" cy="237.805" r="4" fill="#0" id="circle225"/>
	<circle cx="659.767" cy="333.553" r="4" fill="#0" id="circle226"/>
	<circle cx="668.673" cy="243.371" r="4" fill="#0" id="circle227"/>
	<circle cx="670.9" cy="333.553" r="4" fill="#0" id="circle228"/>
	<circle cx="678.694" cy="248.938" r="4" fill="#0" id="circle229"/>
	<circle cx="680.92" cy="339.12" r="4" fill="#0" id="circle230"/>
	<circle cx="687.6" cy="255.618" r="4" fill="#0" id="circle231"/>
	<circle cx="692.054" cy="343.574" r="4" fill="#0" id="circle232"/>
	<circle cx="697.621" cy="261.185" r="4" fill="#0" id="circle233"/>
	<circle cx="703.187" cy="344.687" r="4" fill="#0" id="circle234"/>
	<circle cx="708.754" cy="265.639" r="4" fill="#0" id="circle235"/>
	<circle cx="714.321" cy="349.14" r="4" fill="#0" id="circle236"/>
	<circle cx="716.548" cy="274.545" r="4" fill="#0" id="circle237"/>
	<circle cx="725.455" cy="350.254" r="4" fill="#0" id="circle238"/>
	<circle cx="727.681" cy="278.999" r="4" fill="#0" id="circle239"/>
	<circle cx="735.475" cy="355.82" r="4" fill="#0" id="circle240"/>
	<circle cx="738.815" cy="282.339" r="4" fill="#0" id="circle241"/>
	<circle cx="746.608" cy="355.82" r="4" fill="#0" id="circle242"/>
	<circle cx="747.722" cy="289.019" r="4" fill="#0" id="circle243"/>
	<circle cx="757.742" cy="359.16" r="4" fill="#0" id="circle244"/>
	<circle cx="758.855" cy="293.473" r="4" fill="#0" id="circle245"/>
	<circle cx="768.875" cy="299.039" r="4" fill="#0" id="circle246"/>
	<circle cx="768.875" cy="361.387" r="4" fill="#0" id="circle247"/>
	<circle cx="778.896" cy="304.606" r="4" fill="#0" id="circle248"/>
	<circle cx="780.009" cy="361.387" r="4" fill="#0" id="circle249"/>
	<circle cx="790.029" cy="307.946" r="4" fill="#0" id="circle250"/>
	<circle cx="791.143" cy="364.727" r="4" fill="#0" id="circle251"/>
	<circle cx="800.049" cy="313.513" r="4" fill="#0" id="circle252"/>
	<circle cx="802.276" cy="366.954" r="4" fill="#0" id="circle253"/>
	<circle cx="811.183" cy="315.74" r="4" fill="#0" id="circle254"/>
	<circle cx="813.41" cy="366.954" r="4" fill="#0" id="circle255"/>
	<circle cx="822.316" cy="317.966" r="4" fill="#0" id="circle256"/>
	<circle cx="824.543" cy="366.954" r="4" fill="#0" id="circle257"/>
	<circle cx="833.45" cy="321.306" r="4" fill="#0" id="circle258"/>
	<circle cx="834.563" cy="372.521" r="4" fill="#0" id="circle259"/>
	<circle cx="843.47" cy="326.873" r="4" fill="#0" id="circle260"/>
	<circle cx="845.697" cy="372.521" r="4" fill="#0" id="circle261"/>
	<circle cx="854.604" cy="326.873" r="4" fill="#0" id="circle262"/>
	<circle cx="856.831" cy="372.521" r="4" fill="#0" id="circle263"/>
	<circle cx="864.624" cy="332.44" r="4" fill="#0" id="circle264"/>
	<circle cx="867.964" cy="372.521" r="4" fill="#0" id="circle265"/>
	<circle cx="875.758" cy="332.44" r="4" fill="#0" id="circle266"/>
	<circle cx="879.098" cy="372.521" r="4" fill="#0" id="circle267"/>
	<circle cx="885.778" cy="338.007" r="4" fill="#0" id="circle268"/>
	<circle cx="890.231" cy="374.747" r="4" fill="#0" id="circle269"/>
	<circle cx="896.911" cy="338.007" r="4" fill="#0" id="circle270"/>
	<circle cx="901.365" cy="378.088" r="4" fill="#0" id="circle271"/>
	<circle cx="908.045" cy="338.007" r="4" fill="#0" id="circle272"/>
	<circle cx="912.498" cy="372.521" r="4" fill="#0" id="circle273"/>
	<circle cx="919.178" cy="338.007" r="4" fill="#0" id="circle274"/>
	<circle cx="923.632" cy="366.954" r="4" fill="#0" id="circle275"/>
	<circle cx="930.312" cy="338.007" r="4" fill="#0" id="circle276"/>
	<circle cx="933.652" cy="372.521" r="4" fill="#0" id="circle277"/>
	<circle cx="941.446" cy="338.007" r="4" fill="#0" id="circle278"/>
	<circle cx="943.672" cy="366.954" r="4" fill="#0" id="circle279"/>
	<circle cx="952.579" cy="338.007" r="4" fill="#0" id="circle280"/>
	<circle cx="954.806" cy="364.727" r="4" fill="#0" id="circle281"/>
	<circle cx="963.713" cy="338.007" r="4" fill="#0" id="circle282"/>
	<circle cx="965.939" cy="361.387" r="4" fill="#0" id="circle283"/>
	<circle cx="974.846" cy="338.007" r="4" fill="#0" id="circle284"/>
	<circle cx="977.073" cy="359.16" r="4" fill="#0" id="circle285"/>
	<circle cx="985.98" cy="338.007" r="4" fill="#0" id="circle286"/>
	<circle cx="988.207" cy="353.594" r="4" fill="#0" id="circle287"/>
	<circle cx="996" cy="343.574" r="4" fill="#0" id="circle288"/>
	</g>
</svg>