<?xml version="1.0" encoding="UTF-8" standalone="no"?>
<!-- Created with CurveBenchmark -->
<svg
	xmlns:dc="http://purl.org/dc/elements/1.1/"
	xmlns:cc="http://creativecommons.org/ns#"
	xmlns:rdf="http://www.w3.org/1999/02/22-rdf-syntax-ns#"
	xmlns:svg="http://www.w3.org/2000/svg"
	xmlns="http://www.w3.org/2000/svg"
	xmlns:sodipodi="http://sodipodi.sourceforge.net/DTD/sodipodi-0.dtd"
	xmlns:inkscape="http://www.inkscape.org/namespaces/inkscape"
	width="1000"
	height="1000"
	id="svg2"
	version="1.1"
	sodipodi:docname="manifold/vicur-bed330.png.txt">
<defs
	id="defs4" />
<metadata
	id="metadata7">
	<rdf:RDF>
		<cc:Work
			rdf:about="">
			<dc:format>image/svg+xml</dc:format>
			<dc:type
				rdf:resource="http://purl.org/dc/dcmitype/StillImage" />
			<dc:title></dc:title>
		</cc:Work>
	</rdf:RDF>
</metadata>
<g
	inkscape:label="Layer 1"
	inkscape:groupmode="layer"
	id="layer1">
	<path style="fill:none;stroke:red;stroke-width:1px;stroke-linecap:butt;stroke-linejoin:miter;stroke-opacity:1" d="M 4,343.508 4,361.191 z" id="boundary" inkscape:connector-curvature="0" />
	<path style="fill:none;stroke:red;stroke-width:1px;stroke-linecap:butt;stroke-linejoin:miter;stroke-opacity:1" d="M 4,343.508 18.1462,329.362 z" id="boundary" inkscape:connector-curvature="0" />
	<path style="fill:none;stroke:red;stroke-width:1px;stroke-linecap:butt;stroke-linejoin:miter;stroke-opacity:1" d="M 4,361.191 16.3779,375.337 z" id="boundary" inkscape:connector-curvature="0" />
	<path style="fill:none;stroke:red;stroke-width:1px;stroke-linecap:butt;stroke-linejoin:miter;stroke-opacity:1" d="M 14.6096,541.554 18.1462,523.872 z" id="boundary" inkscape:connector-curvature="0" />
	<path style="fill:none;stroke:red;stroke-width:1px;stroke-linecap:butt;stroke-linejoin:miter;stroke-opacity:1" d="M 14.6096,541.554 32.2923,543.323 z" id="boundary" inkscape:connector-curvature="0" />
	<path style="fill:none;stroke:red;stroke-width:1px;stroke-linecap:butt;stroke-linejoin:miter;stroke-opacity:1" d="M 16.3779,375.337 21.6827,393.02 z" id="boundary" inkscape:connector-curvature="0" />
	<path style="fill:none;stroke:red;stroke-width:1px;stroke-linecap:butt;stroke-linejoin:miter;stroke-opacity:1" d="M 18.1462,329.362 35.8289,322.289 z" id="boundary" inkscape:connector-curvature="0" />
	<path style="fill:none;stroke:red;stroke-width:1px;stroke-linecap:butt;stroke-linejoin:miter;stroke-opacity:1" d="M 18.1462,523.872 28.7558,509.725 z" id="boundary" inkscape:connector-curvature="0" />
	<path style="fill:none;stroke:red;stroke-width:1px;stroke-linecap:butt;stroke-linejoin:miter;stroke-opacity:1" d="M 21.6827,393.02 21.6827,410.702 z" id="boundary" inkscape:connector-curvature="0" />
	<path style="fill:none;stroke:red;stroke-width:1px;stroke-linecap:butt;stroke-linejoin:miter;stroke-opacity:1" d="M 21.6827,410.702 21.6827,428.385 z" id="boundary" inkscape:connector-curvature="0" />
	<path style="fill:none;stroke:red;stroke-width:1px;stroke-linecap:butt;stroke-linejoin:miter;stroke-opacity:1" d="M 21.6827,428.385 25.2193,446.068 z" id="boundary" inkscape:connector-curvature="0" />
	<path style="fill:none;stroke:red;stroke-width:1px;stroke-linecap:butt;stroke-linejoin:miter;stroke-opacity:1" d="M 21.6827,474.36 21.6827,492.043 z" id="boundary" inkscape:connector-curvature="0" />
	<path style="fill:none;stroke:red;stroke-width:1px;stroke-linecap:butt;stroke-linejoin:miter;stroke-opacity:1" d="M 21.6827,474.36 25.2193,446.068 z" id="boundary" inkscape:connector-curvature="0" />
	<path style="fill:none;stroke:red;stroke-width:1px;stroke-linecap:butt;stroke-linejoin:miter;stroke-opacity:1" d="M 21.6827,492.043 28.7558,509.725 z" id="boundary" inkscape:connector-curvature="0" />
	<path style="fill:none;stroke:red;stroke-width:1px;stroke-linecap:butt;stroke-linejoin:miter;stroke-opacity:1" d="M 35.8289,322.289 49.975,311.679 z" id="boundary" inkscape:connector-curvature="0" />
	<path style="fill:none;stroke:red;stroke-width:1px;stroke-linecap:butt;stroke-linejoin:miter;stroke-opacity:1" d="M 39.3654,490.275 57.0481,486.738 z" id="boundary" inkscape:connector-curvature="0" />
	<path style="fill:none;stroke:red;stroke-width:1px;stroke-linecap:butt;stroke-linejoin:miter;stroke-opacity:1" d="M 49.975,311.679 67.6578,308.143 z" id="boundary" inkscape:connector-curvature="0" />
	<path style="fill:none;stroke:red;stroke-width:1px;stroke-linecap:butt;stroke-linejoin:miter;stroke-opacity:1" d="M 57.0481,486.738 74.7308,486.738 z" id="boundary" inkscape:connector-curvature="0" />
	<path style="fill:none;stroke:red;stroke-width:1px;stroke-linecap:butt;stroke-linejoin:miter;stroke-opacity:1" d="M 67.6578,308.143 85.3405,304.606 z" id="boundary" inkscape:connector-curvature="0" />
	<path style="fill:none;stroke:red;stroke-width:1px;stroke-linecap:butt;stroke-linejoin:miter;stroke-opacity:1" d="M 74.7308,486.738 92.4135,490.275 z" id="boundary" inkscape:connector-curvature="0" />
	<path style="fill:none;stroke:red;stroke-width:1px;stroke-linecap:butt;stroke-linejoin:miter;stroke-opacity:1" d="M 85.3405,304.606 103.023,301.07 z" id="boundary" inkscape:connector-curvature="0" />
	<path style="fill:none;stroke:red;stroke-width:1px;stroke-linecap:butt;stroke-linejoin:miter;stroke-opacity:1" d="M 92.4135,490.275 110.096,493.811 z" id="boundary" inkscape:connector-curvature="0" />
	<path style="fill:none;stroke:red;stroke-width:1px;stroke-linecap:butt;stroke-linejoin:miter;stroke-opacity:1" d="M 103.023,301.07 120.706,293.996 z" id="boundary" inkscape:connector-curvature="0" />
	<path style="fill:none;stroke:red;stroke-width:1px;stroke-linecap:butt;stroke-linejoin:miter;stroke-opacity:1" d="M 110.096,493.811 127.779,497.348 z" id="boundary" inkscape:connector-curvature="0" />
	<path style="fill:none;stroke:red;stroke-width:1px;stroke-linecap:butt;stroke-linejoin:miter;stroke-opacity:1" d="M 120.706,293.996 138.389,293.996 z" id="boundary" inkscape:connector-curvature="0" />
	<path style="fill:none;stroke:red;stroke-width:1px;stroke-linecap:butt;stroke-linejoin:miter;stroke-opacity:1" d="M 127.779,497.348 143.693,488.506 z" id="boundary" inkscape:connector-curvature="0" />
	<path style="fill:none;stroke:red;stroke-width:1px;stroke-linecap:butt;stroke-linejoin:miter;stroke-opacity:1" d="M 138.389,293.996 156.071,290.46 z" id="boundary" inkscape:connector-curvature="0" />
	<path style="fill:none;stroke:red;stroke-width:1px;stroke-linecap:butt;stroke-linejoin:miter;stroke-opacity:1" d="M 143.693,488.506 161.376,481.433 z" id="boundary" inkscape:connector-curvature="0" />
	<path style="fill:none;stroke:red;stroke-width:1px;stroke-linecap:butt;stroke-linejoin:miter;stroke-opacity:1" d="M 156.071,290.46 173.754,290.46 z" id="boundary" inkscape:connector-curvature="0" />
	<path style="fill:none;stroke:red;stroke-width:1px;stroke-linecap:butt;stroke-linejoin:miter;stroke-opacity:1" d="M 161.376,481.433 179.059,479.665 z" id="boundary" inkscape:connector-curvature="0" />
	<path style="fill:none;stroke:red;stroke-width:1px;stroke-linecap:butt;stroke-linejoin:miter;stroke-opacity:1" d="M 173.754,290.46 191.437,290.46 z" id="boundary" inkscape:connector-curvature="0" />
	<path style="fill:none;stroke:red;stroke-width:1px;stroke-linecap:butt;stroke-linejoin:miter;stroke-opacity:1" d="M 179.059,479.665 196.742,486.738 z" id="boundary" inkscape:connector-curvature="0" />
	<path style="fill:none;stroke:red;stroke-width:1px;stroke-linecap:butt;stroke-linejoin:miter;stroke-opacity:1" d="M 191.437,290.46 209.119,286.923 z" id="boundary" inkscape:connector-curvature="0" />
	<path style="fill:none;stroke:red;stroke-width:1px;stroke-linecap:butt;stroke-linejoin:miter;stroke-opacity:1" d="M 196.742,486.738 214.424,493.811 z" id="boundary" inkscape:connector-curvature="0" />
	<path style="fill:none;stroke:red;stroke-width:1px;stroke-linecap:butt;stroke-linejoin:miter;stroke-opacity:1" d="M 209.119,286.923 226.802,286.923 z" id="boundary" inkscape:connector-curvature="0" />
	<path style="fill:none;stroke:red;stroke-width:1px;stroke-linecap:butt;stroke-linejoin:miter;stroke-opacity:1" d="M 214.424,493.811 232.107,497.348 z" id="boundary" inkscape:connector-curvature="0" />
	<path style="fill:none;stroke:red;stroke-width:1px;stroke-linecap:butt;stroke-linejoin:miter;stroke-opacity:1" d="M 226.802,286.923 240.948,269.241 z" id="boundary" inkscape:connector-curvature="0" />
	<path style="fill:none;stroke:red;stroke-width:1px;stroke-linecap:butt;stroke-linejoin:miter;stroke-opacity:1" d="M 232.107,497.348 248.021,506.189 z" id="boundary" inkscape:connector-curvature="0" />
	<path style="fill:none;stroke:red;stroke-width:1px;stroke-linecap:butt;stroke-linejoin:miter;stroke-opacity:1" d="M 240.948,269.241 258.631,269.241 z" id="boundary" inkscape:connector-curvature="0" />
	<path style="fill:none;stroke:red;stroke-width:1px;stroke-linecap:butt;stroke-linejoin:miter;stroke-opacity:1" d="M 248.021,506.189 265.704,511.494 z" id="boundary" inkscape:connector-curvature="0" />
	<path style="fill:none;stroke:red;stroke-width:1px;stroke-linecap:butt;stroke-linejoin:miter;stroke-opacity:1" d="M 258.631,269.241 274.545,260.399 z" id="boundary" inkscape:connector-curvature="0" />
	<path style="fill:none;stroke:red;stroke-width:1px;stroke-linecap:butt;stroke-linejoin:miter;stroke-opacity:1" d="M 265.704,511.494 283.387,515.03 z" id="boundary" inkscape:connector-curvature="0" />
	<path style="fill:none;stroke:red;stroke-width:1px;stroke-linecap:butt;stroke-linejoin:miter;stroke-opacity:1" d="M 274.545,260.399 288.692,249.79 z" id="boundary" inkscape:connector-curvature="0" />
	<path style="fill:none;stroke:red;stroke-width:1px;stroke-linecap:butt;stroke-linejoin:miter;stroke-opacity:1" d="M 283.387,515.03 301.07,518.567 z" id="boundary" inkscape:connector-curvature="0" />
	<path style="fill:none;stroke:red;stroke-width:1px;stroke-linecap:butt;stroke-linejoin:miter;stroke-opacity:1" d="M 288.692,249.79 306.374,244.485 z" id="boundary" inkscape:connector-curvature="0" />
	<path style="fill:none;stroke:red;stroke-width:1px;stroke-linecap:butt;stroke-linejoin:miter;stroke-opacity:1" d="M 301.07,518.567 318.752,518.567 z" id="boundary" inkscape:connector-curvature="0" />
	<path style="fill:none;stroke:red;stroke-width:1px;stroke-linecap:butt;stroke-linejoin:miter;stroke-opacity:1" d="M 306.374,244.485 324.057,248.021 z" id="boundary" inkscape:connector-curvature="0" />
	<path style="fill:none;stroke:red;stroke-width:1px;stroke-linecap:butt;stroke-linejoin:miter;stroke-opacity:1" d="M 318.752,518.567 336.435,515.03 z" id="boundary" inkscape:connector-curvature="0" />
	<path style="fill:none;stroke:red;stroke-width:1px;stroke-linecap:butt;stroke-linejoin:miter;stroke-opacity:1" d="M 324.057,248.021 341.74,255.094 z" id="boundary" inkscape:connector-curvature="0" />
	<path style="fill:none;stroke:red;stroke-width:1px;stroke-linecap:butt;stroke-linejoin:miter;stroke-opacity:1" d="M 336.435,515.03 354.118,511.494 z" id="boundary" inkscape:connector-curvature="0" />
	<path style="fill:none;stroke:red;stroke-width:1px;stroke-linecap:butt;stroke-linejoin:miter;stroke-opacity:1" d="M 341.74,255.094 357.654,263.936 z" id="boundary" inkscape:connector-curvature="0" />
	<path style="fill:none;stroke:red;stroke-width:1px;stroke-linecap:butt;stroke-linejoin:miter;stroke-opacity:1" d="M 354.118,511.494 371.8,507.957 z" id="boundary" inkscape:connector-curvature="0" />
	<path style="fill:none;stroke:red;stroke-width:1px;stroke-linecap:butt;stroke-linejoin:miter;stroke-opacity:1" d="M 357.654,263.936 375.337,269.241 z" id="boundary" inkscape:connector-curvature="0" />
	<path style="fill:none;stroke:red;stroke-width:1px;stroke-linecap:butt;stroke-linejoin:miter;stroke-opacity:1" d="M 371.8,507.957 385.947,497.348 z" id="boundary" inkscape:connector-curvature="0" />
	<path style="fill:none;stroke:red;stroke-width:1px;stroke-linecap:butt;stroke-linejoin:miter;stroke-opacity:1" d="M 375.337,269.241 389.483,281.619 z" id="boundary" inkscape:connector-curvature="0" />
	<path style="fill:none;stroke:red;stroke-width:1px;stroke-linecap:butt;stroke-linejoin:miter;stroke-opacity:1" d="M 385.947,497.348 403.629,490.275 z" id="boundary" inkscape:connector-curvature="0" />
	<path style="fill:none;stroke:red;stroke-width:1px;stroke-linecap:butt;stroke-linejoin:miter;stroke-opacity:1" d="M 389.483,281.619 407.166,286.923 z" id="boundary" inkscape:connector-curvature="0" />
	<path style="fill:none;stroke:red;stroke-width:1px;stroke-linecap:butt;stroke-linejoin:miter;stroke-opacity:1" d="M 403.629,490.275 421.312,486.738 z" id="boundary" inkscape:connector-curvature="0" />
	<path style="fill:none;stroke:red;stroke-width:1px;stroke-linecap:butt;stroke-linejoin:miter;stroke-opacity:1" d="M 407.166,286.923 421.312,276.314 z" id="boundary" inkscape:connector-curvature="0" />
	<path style="fill:none;stroke:red;stroke-width:1px;stroke-linecap:butt;stroke-linejoin:miter;stroke-opacity:1" d="M 421.312,276.314 435.458,262.168 z" id="boundary" inkscape:connector-curvature="0" />
	<path style="fill:none;stroke:red;stroke-width:1px;stroke-linecap:butt;stroke-linejoin:miter;stroke-opacity:1" d="M 421.312,486.738 438.995,479.665 z" id="boundary" inkscape:connector-curvature="0" />
	<path style="fill:none;stroke:red;stroke-width:1px;stroke-linecap:butt;stroke-linejoin:miter;stroke-opacity:1" d="M 435.458,262.168 449.604,248.021 z" id="boundary" inkscape:connector-curvature="0" />
	<path style="fill:none;stroke:red;stroke-width:1px;stroke-linecap:butt;stroke-linejoin:miter;stroke-opacity:1" d="M 438.995,479.665 456.677,481.433 z" id="boundary" inkscape:connector-curvature="0" />
	<path style="fill:none;stroke:red;stroke-width:1px;stroke-linecap:butt;stroke-linejoin:miter;stroke-opacity:1" d="M 449.604,248.021 463.75,237.412 z" id="boundary" inkscape:connector-curvature="0" />
	<path style="fill:none;stroke:red;stroke-width:1px;stroke-linecap:butt;stroke-linejoin:miter;stroke-opacity:1" d="M 456.677,481.433 467.287,495.579 z" id="boundary" inkscape:connector-curvature="0" />
	<path style="fill:none;stroke:red;stroke-width:1px;stroke-linecap:butt;stroke-linejoin:miter;stroke-opacity:1" d="M 460.214,134.852 460.214,152.535 z" id="boundary" inkscape:connector-curvature="0" />
	<path style="fill:none;stroke:red;stroke-width:1px;stroke-linecap:butt;stroke-linejoin:miter;stroke-opacity:1" d="M 460.214,134.852 474.36,120.706 z" id="boundary" inkscape:connector-curvature="0" />
	<path style="fill:none;stroke:red;stroke-width:1px;stroke-linecap:butt;stroke-linejoin:miter;stroke-opacity:1" d="M 460.214,152.535 470.824,166.681 z" id="boundary" inkscape:connector-curvature="0" />
	<path style="fill:none;stroke:red;stroke-width:1px;stroke-linecap:butt;stroke-linejoin:miter;stroke-opacity:1" d="M 463.75,237.412 481.433,233.875 z" id="boundary" inkscape:connector-curvature="0" />
	<path style="fill:none;stroke:red;stroke-width:1px;stroke-linecap:butt;stroke-linejoin:miter;stroke-opacity:1" d="M 467.287,495.579 483.201,504.421 z" id="boundary" inkscape:connector-curvature="0" />
	<path style="fill:none;stroke:red;stroke-width:1px;stroke-linecap:butt;stroke-linejoin:miter;stroke-opacity:1" d="M 467.287,513.262 467.287,541.554 z" id="boundary" inkscape:connector-curvature="0" />
	<path style="fill:none;stroke:red;stroke-width:1px;stroke-linecap:butt;stroke-linejoin:miter;stroke-opacity:1" d="M 467.287,513.262 483.201,522.103 z" id="boundary" inkscape:connector-curvature="0" />
	<path style="fill:none;stroke:red;stroke-width:1px;stroke-linecap:butt;stroke-linejoin:miter;stroke-opacity:1" d="M 467.287,541.554 483.201,522.103 z" id="boundary" inkscape:connector-curvature="0" />
	<path style="fill:none;stroke:red;stroke-width:1px;stroke-linecap:butt;stroke-linejoin:miter;stroke-opacity:1" d="M 470.824,166.681 477.897,184.364 z" id="boundary" inkscape:connector-curvature="0" />
	<path style="fill:none;stroke:red;stroke-width:1px;stroke-linecap:butt;stroke-linejoin:miter;stroke-opacity:1" d="M 474.36,120.706 492.043,113.633 z" id="boundary" inkscape:connector-curvature="0" />
	<path style="fill:none;stroke:red;stroke-width:1px;stroke-linecap:butt;stroke-linejoin:miter;stroke-opacity:1" d="M 477.897,184.364 477.897,202.046 z" id="boundary" inkscape:connector-curvature="0" />
	<path style="fill:none;stroke:red;stroke-width:1px;stroke-linecap:butt;stroke-linejoin:miter;stroke-opacity:1" d="M 477.897,202.046 481.433,233.875 z" id="boundary" inkscape:connector-curvature="0" />
	<path style="fill:none;stroke:red;stroke-width:1px;stroke-linecap:butt;stroke-linejoin:miter;stroke-opacity:1" d="M 483.201,504.421 500.884,495.579 z" id="boundary" inkscape:connector-curvature="0" />
	<path style="fill:none;stroke:red;stroke-width:1px;stroke-linecap:butt;stroke-linejoin:miter;stroke-opacity:1" d="M 492.043,113.633 506.189,103.023 z" id="boundary" inkscape:connector-curvature="0" />
	<path style="fill:none;stroke:red;stroke-width:1px;stroke-linecap:butt;stroke-linejoin:miter;stroke-opacity:1" d="M 500.884,495.579 518.567,490.275 z" id="boundary" inkscape:connector-curvature="0" />
	<path style="fill:none;stroke:red;stroke-width:1px;stroke-linecap:butt;stroke-linejoin:miter;stroke-opacity:1" d="M 506.189,103.023 523.872,99.4866 z" id="boundary" inkscape:connector-curvature="0" />
	<path style="fill:none;stroke:red;stroke-width:1px;stroke-linecap:butt;stroke-linejoin:miter;stroke-opacity:1" d="M 518.567,490.275 536.25,486.738 z" id="boundary" inkscape:connector-curvature="0" />
	<path style="fill:none;stroke:red;stroke-width:1px;stroke-linecap:butt;stroke-linejoin:miter;stroke-opacity:1" d="M 523.872,99.4866 541.554,92.4135 z" id="boundary" inkscape:connector-curvature="0" />
	<path style="fill:none;stroke:red;stroke-width:1px;stroke-linecap:butt;stroke-linejoin:miter;stroke-opacity:1" d="M 536.25,486.738 553.932,486.738 z" id="boundary" inkscape:connector-curvature="0" />
	<path style="fill:none;stroke:red;stroke-width:1px;stroke-linecap:butt;stroke-linejoin:miter;stroke-opacity:1" d="M 541.554,92.4135 559.237,85.3405 z" id="boundary" inkscape:connector-curvature="0" />
	<path style="fill:none;stroke:red;stroke-width:1px;stroke-linecap:butt;stroke-linejoin:miter;stroke-opacity:1" d="M 553.932,486.738 571.615,490.275 z" id="boundary" inkscape:connector-curvature="0" />
	<path style="fill:none;stroke:red;stroke-width:1px;stroke-linecap:butt;stroke-linejoin:miter;stroke-opacity:1" d="M 559.237,85.3405 576.92,81.8039 z" id="boundary" inkscape:connector-curvature="0" />
	<path style="fill:none;stroke:red;stroke-width:1px;stroke-linecap:butt;stroke-linejoin:miter;stroke-opacity:1" d="M 571.615,490.275 573.383,507.957 z" id="boundary" inkscape:connector-curvature="0" />
	<path style="fill:none;stroke:red;stroke-width:1px;stroke-linecap:butt;stroke-linejoin:miter;stroke-opacity:1" d="M 573.383,507.957 580.456,525.64 z" id="boundary" inkscape:connector-curvature="0" />
	<path style="fill:none;stroke:red;stroke-width:1px;stroke-linecap:butt;stroke-linejoin:miter;stroke-opacity:1" d="M 576.92,81.8039 594.602,78.2674 z" id="boundary" inkscape:connector-curvature="0" />
	<path style="fill:none;stroke:red;stroke-width:1px;stroke-linecap:butt;stroke-linejoin:miter;stroke-opacity:1" d="M 580.456,525.64 583.993,543.323 z" id="boundary" inkscape:connector-curvature="0" />
	<path style="fill:none;stroke:red;stroke-width:1px;stroke-linecap:butt;stroke-linejoin:miter;stroke-opacity:1" d="M 583.993,543.323 598.139,522.103 z" id="boundary" inkscape:connector-curvature="0" />
	<path style="fill:none;stroke:red;stroke-width:1px;stroke-linecap:butt;stroke-linejoin:miter;stroke-opacity:1" d="M 594.602,78.2674 612.285,74.7308 z" id="boundary" inkscape:connector-curvature="0" />
	<path style="fill:none;stroke:red;stroke-width:1px;stroke-linecap:butt;stroke-linejoin:miter;stroke-opacity:1" d="M 598.139,522.103 599.907,495.579 z" id="boundary" inkscape:connector-curvature="0" />
	<path style="fill:none;stroke:red;stroke-width:1px;stroke-linecap:butt;stroke-linejoin:miter;stroke-opacity:1" d="M 599.907,477.897 599.907,495.579 z" id="boundary" inkscape:connector-curvature="0" />
	<path style="fill:none;stroke:red;stroke-width:1px;stroke-linecap:butt;stroke-linejoin:miter;stroke-opacity:1" d="M 599.907,477.897 617.59,476.128 z" id="boundary" inkscape:connector-curvature="0" />
	<path style="fill:none;stroke:red;stroke-width:1px;stroke-linecap:butt;stroke-linejoin:miter;stroke-opacity:1" d="M 612.285,74.7308 629.968,67.6578 z" id="boundary" inkscape:connector-curvature="0" />
	<path style="fill:none;stroke:red;stroke-width:1px;stroke-linecap:butt;stroke-linejoin:miter;stroke-opacity:1" d="M 617.59,476.128 635.273,476.128 z" id="boundary" inkscape:connector-curvature="0" />
	<path style="fill:none;stroke:red;stroke-width:1px;stroke-linecap:butt;stroke-linejoin:miter;stroke-opacity:1" d="M 629.968,67.6578 647.651,57.0481 z" id="boundary" inkscape:connector-curvature="0" />
	<path style="fill:none;stroke:red;stroke-width:1px;stroke-linecap:butt;stroke-linejoin:miter;stroke-opacity:1" d="M 635.273,476.128 652.955,476.128 z" id="boundary" inkscape:connector-curvature="0" />
	<path style="fill:none;stroke:red;stroke-width:1px;stroke-linecap:butt;stroke-linejoin:miter;stroke-opacity:1" d="M 647.651,57.0481 661.797,46.4385 z" id="boundary" inkscape:connector-curvature="0" />
	<path style="fill:none;stroke:red;stroke-width:1px;stroke-linecap:butt;stroke-linejoin:miter;stroke-opacity:1" d="M 652.955,476.128 670.638,476.128 z" id="boundary" inkscape:connector-curvature="0" />
	<path style="fill:none;stroke:red;stroke-width:1px;stroke-linecap:butt;stroke-linejoin:miter;stroke-opacity:1" d="M 661.797,46.4385 679.48,42.902 z" id="boundary" inkscape:connector-curvature="0" />
	<path style="fill:none;stroke:red;stroke-width:1px;stroke-linecap:butt;stroke-linejoin:miter;stroke-opacity:1" d="M 670.638,476.128 688.321,476.128 z" id="boundary" inkscape:connector-curvature="0" />
	<path style="fill:none;stroke:red;stroke-width:1px;stroke-linecap:butt;stroke-linejoin:miter;stroke-opacity:1" d="M 679.48,42.902 697.162,28.7558 z" id="boundary" inkscape:connector-curvature="0" />
	<path style="fill:none;stroke:red;stroke-width:1px;stroke-linecap:butt;stroke-linejoin:miter;stroke-opacity:1" d="M 688.321,476.128 706.004,476.128 z" id="boundary" inkscape:connector-curvature="0" />
	<path style="fill:none;stroke:red;stroke-width:1px;stroke-linecap:butt;stroke-linejoin:miter;stroke-opacity:1" d="M 697.162,28.7558 711.308,18.1462 z" id="boundary" inkscape:connector-curvature="0" />
	<path style="fill:none;stroke:red;stroke-width:1px;stroke-linecap:butt;stroke-linejoin:miter;stroke-opacity:1" d="M 706.004,476.128 723.686,476.128 z" id="boundary" inkscape:connector-curvature="0" />
	<path style="fill:none;stroke:red;stroke-width:1px;stroke-linecap:butt;stroke-linejoin:miter;stroke-opacity:1" d="M 711.308,18.1462 721.918,4 z" id="boundary" inkscape:connector-curvature="0" />
	<path style="fill:none;stroke:red;stroke-width:1px;stroke-linecap:butt;stroke-linejoin:miter;stroke-opacity:1" d="M 721.918,4 737.832,12.8414 z" id="boundary" inkscape:connector-curvature="0" />
	<path style="fill:none;stroke:red;stroke-width:1px;stroke-linecap:butt;stroke-linejoin:miter;stroke-opacity:1" d="M 723.686,476.128 741.369,476.128 z" id="boundary" inkscape:connector-curvature="0" />
	<path style="fill:none;stroke:red;stroke-width:1px;stroke-linecap:butt;stroke-linejoin:miter;stroke-opacity:1" d="M 737.832,12.8414 751.979,23.451 z" id="boundary" inkscape:connector-curvature="0" />
	<path style="fill:none;stroke:red;stroke-width:1px;stroke-linecap:butt;stroke-linejoin:miter;stroke-opacity:1" d="M 741.369,476.128 759.052,476.128 z" id="boundary" inkscape:connector-curvature="0" />
	<path style="fill:none;stroke:red;stroke-width:1px;stroke-linecap:butt;stroke-linejoin:miter;stroke-opacity:1" d="M 751.979,23.451 760.82,39.3654 z" id="boundary" inkscape:connector-curvature="0" />
	<path style="fill:none;stroke:red;stroke-width:1px;stroke-linecap:butt;stroke-linejoin:miter;stroke-opacity:1" d="M 759.052,476.128 776.734,476.128 z" id="boundary" inkscape:connector-curvature="0" />
	<path style="fill:none;stroke:red;stroke-width:1px;stroke-linecap:butt;stroke-linejoin:miter;stroke-opacity:1" d="M 760.82,39.3654 778.503,44.6702 z" id="boundary" inkscape:connector-curvature="0" />
	<path style="fill:none;stroke:red;stroke-width:1px;stroke-linecap:butt;stroke-linejoin:miter;stroke-opacity:1" d="M 776.734,476.128 794.417,476.128 z" id="boundary" inkscape:connector-curvature="0" />
	<path style="fill:none;stroke:red;stroke-width:1px;stroke-linecap:butt;stroke-linejoin:miter;stroke-opacity:1" d="M 778.503,44.6702 794.417,53.5116 z" id="boundary" inkscape:connector-curvature="0" />
	<path style="fill:none;stroke:red;stroke-width:1px;stroke-linecap:butt;stroke-linejoin:miter;stroke-opacity:1" d="M 794.417,53.5116 808.563,64.1212 z" id="boundary" inkscape:connector-curvature="0" />
	<path style="fill:none;stroke:red;stroke-width:1px;stroke-linecap:butt;stroke-linejoin:miter;stroke-opacity:1" d="M 794.417,476.128 812.1,476.128 z" id="boundary" inkscape:connector-curvature="0" />
	<path style="fill:none;stroke:red;stroke-width:1px;stroke-linecap:butt;stroke-linejoin:miter;stroke-opacity:1" d="M 808.563,64.1212 826.246,67.6578 z" id="boundary" inkscape:connector-curvature="0" />
	<path style="fill:none;stroke:red;stroke-width:1px;stroke-linecap:butt;stroke-linejoin:miter;stroke-opacity:1" d="M 812.1,476.128 829.783,476.128 z" id="boundary" inkscape:connector-curvature="0" />
	<path style="fill:none;stroke:red;stroke-width:1px;stroke-linecap:butt;stroke-linejoin:miter;stroke-opacity:1" d="M 826.246,67.6578 843.929,74.7308 z" id="boundary" inkscape:connector-curvature="0" />
	<path style="fill:none;stroke:red;stroke-width:1px;stroke-linecap:butt;stroke-linejoin:miter;stroke-opacity:1" d="M 829.783,476.128 847.465,476.128 z" id="boundary" inkscape:connector-curvature="0" />
	<path style="fill:none;stroke:red;stroke-width:1px;stroke-linecap:butt;stroke-linejoin:miter;stroke-opacity:1" d="M 843.929,74.7308 861.611,78.2674 z" id="boundary" inkscape:connector-curvature="0" />
	<path style="fill:none;stroke:red;stroke-width:1px;stroke-linecap:butt;stroke-linejoin:miter;stroke-opacity:1" d="M 847.465,476.128 865.148,476.128 z" id="boundary" inkscape:connector-curvature="0" />
	<path style="fill:none;stroke:red;stroke-width:1px;stroke-linecap:butt;stroke-linejoin:miter;stroke-opacity:1" d="M 861.611,78.2674 879.294,81.8039 z" id="boundary" inkscape:connector-curvature="0" />
	<path style="fill:none;stroke:red;stroke-width:1px;stroke-linecap:butt;stroke-linejoin:miter;stroke-opacity:1" d="M 865.148,476.128 882.831,476.128 z" id="boundary" inkscape:connector-curvature="0" />
	<path style="fill:none;stroke:red;stroke-width:1px;stroke-linecap:butt;stroke-linejoin:miter;stroke-opacity:1" d="M 879.294,81.8039 896.977,85.3405 z" id="boundary" inkscape:connector-curvature="0" />
	<path style="fill:none;stroke:red;stroke-width:1px;stroke-linecap:butt;stroke-linejoin:miter;stroke-opacity:1" d="M 882.831,476.128 900.513,476.128 z" id="boundary" inkscape:connector-curvature="0" />
	<path style="fill:none;stroke:red;stroke-width:1px;stroke-linecap:butt;stroke-linejoin:miter;stroke-opacity:1" d="M 896.977,85.3405 914.66,92.4135 z" id="boundary" inkscape:connector-curvature="0" />
	<path style="fill:none;stroke:red;stroke-width:1px;stroke-linecap:butt;stroke-linejoin:miter;stroke-opacity:1" d="M 900.513,476.128 918.196,476.128 z" id="boundary" inkscape:connector-curvature="0" />
	<path style="fill:none;stroke:red;stroke-width:1px;stroke-linecap:butt;stroke-linejoin:miter;stroke-opacity:1" d="M 914.66,92.4135 932.342,95.9501 z" id="boundary" inkscape:connector-curvature="0" />
	<path style="fill:none;stroke:red;stroke-width:1px;stroke-linecap:butt;stroke-linejoin:miter;stroke-opacity:1" d="M 918.196,476.128 935.879,476.128 z" id="boundary" inkscape:connector-curvature="0" />
	<path style="fill:none;stroke:red;stroke-width:1px;stroke-linecap:butt;stroke-linejoin:miter;stroke-opacity:1" d="M 932.342,95.9501 950.025,103.023 z" id="boundary" inkscape:connector-curvature="0" />
	<path style="fill:none;stroke:red;stroke-width:1px;stroke-linecap:butt;stroke-linejoin:miter;stroke-opacity:1" d="M 935.879,476.128 953.561,476.128 z" id="boundary" inkscape:connector-curvature="0" />
	<path style="fill:none;stroke:red;stroke-width:1px;stroke-linecap:butt;stroke-linejoin:miter;stroke-opacity:1" d="M 950.025,103.023 964.171,113.633 z" id="boundary" inkscape:connector-curvature="0" />
	<path style="fill:none;stroke:red;stroke-width:1px;stroke-linecap:butt;stroke-linejoin:miter;stroke-opacity:1" d="M 953.561,476.128 971.244,476.128 z" id="boundary" inkscape:connector-curvature="0" />
	<path style="fill:none;stroke:red;stroke-width:1px;stroke-linecap:butt;stroke-linejoin:miter;stroke-opacity:1" d="M 964.171,113.633 981.854,120.706 z" id="boundary" inkscape:connector-curvature="0" />
	<path style="fill:none;stroke:red;stroke-width:1px;stroke-linecap:butt;stroke-linejoin:miter;stroke-opacity:1" d="M 971.244,476.128 973.012,493.811 z" id="boundary" inkscape:connector-curvature="0" />
	<path style="fill:none;stroke:red;stroke-width:1px;stroke-linecap:butt;stroke-linejoin:miter;stroke-opacity:1" d="M 973.012,493.811 973.012,511.494 z" id="boundary" inkscape:connector-curvature="0" />
	<path style="fill:none;stroke:red;stroke-width:1px;stroke-linecap:butt;stroke-linejoin:miter;stroke-opacity:1" d="M 973.012,511.494 976.549,529.176 z" id="boundary" inkscape:connector-curvature="0" />
	<path style="fill:none;stroke:red;stroke-width:1px;stroke-linecap:butt;stroke-linejoin:miter;stroke-opacity:1" d="M 976.549,529.176 976.549,546.859 z" id="boundary" inkscape:connector-curvature="0" />
	<path style="fill:none;stroke:red;stroke-width:1px;stroke-linecap:butt;stroke-linejoin:miter;stroke-opacity:1" d="M 981.854,120.706 994.232,134.852 z" id="boundary" inkscape:connector-curvature="0" />
	<path style="fill:none;stroke:red;stroke-width:1px;stroke-linecap:butt;stroke-linejoin:miter;stroke-opacity:1" d="M 981.854,184.364 981.854,202.046 z" id="boundary" inkscape:connector-curvature="0" />
	<path style="fill:none;stroke:red;stroke-width:1px;stroke-linecap:butt;stroke-linejoin:miter;stroke-opacity:1" d="M 981.854,184.364 988.927,163.144 z" id="boundary" inkscape:connector-curvature="0" />
	<path style="fill:none;stroke:red;stroke-width:1px;stroke-linecap:butt;stroke-linejoin:miter;stroke-opacity:1" d="M 981.854,202.046 981.854,219.729 z" id="boundary" inkscape:connector-curvature="0" />
	<path style="fill:none;stroke:red;stroke-width:1px;stroke-linecap:butt;stroke-linejoin:miter;stroke-opacity:1" d="M 981.854,219.729 981.854,237.412 z" id="boundary" inkscape:connector-curvature="0" />
	<path style="fill:none;stroke:red;stroke-width:1px;stroke-linecap:butt;stroke-linejoin:miter;stroke-opacity:1" d="M 981.854,237.412 981.854,255.094 z" id="boundary" inkscape:connector-curvature="0" />
	<path style="fill:none;stroke:red;stroke-width:1px;stroke-linecap:butt;stroke-linejoin:miter;stroke-opacity:1" d="M 981.854,255.094 981.854,272.777 z" id="boundary" inkscape:connector-curvature="0" />
	<path style="fill:none;stroke:red;stroke-width:1px;stroke-linecap:butt;stroke-linejoin:miter;stroke-opacity:1" d="M 981.854,272.777 981.854,290.46 z" id="boundary" inkscape:connector-curvature="0" />
	<path style="fill:none;stroke:red;stroke-width:1px;stroke-linecap:butt;stroke-linejoin:miter;stroke-opacity:1" d="M 981.854,290.46 983.622,308.143 z" id="boundary" inkscape:connector-curvature="0" />
	<path style="fill:none;stroke:red;stroke-width:1px;stroke-linecap:butt;stroke-linejoin:miter;stroke-opacity:1" d="M 983.622,308.143 988.927,325.825 z" id="boundary" inkscape:connector-curvature="0" />
	<path style="fill:none;stroke:red;stroke-width:1px;stroke-linecap:butt;stroke-linejoin:miter;stroke-opacity:1" d="M 988.927,163.144 994.232,134.852 z" id="boundary" inkscape:connector-curvature="0" />
	<path style="fill:none;stroke:red;stroke-width:1px;stroke-linecap:butt;stroke-linejoin:miter;stroke-opacity:1" d="M 988.927,325.825 992.463,343.508 z" id="boundary" inkscape:connector-curvature="0" />
	<path style="fill:none;stroke:red;stroke-width:1px;stroke-linecap:butt;stroke-linejoin:miter;stroke-opacity:1" d="M 992.463,343.508 992.463,361.191 z" id="boundary" inkscape:connector-curvature="0" />
	<path style="fill:none;stroke:red;stroke-width:1px;stroke-linecap:butt;stroke-linejoin:miter;stroke-opacity:1" d="M 992.463,361.191 992.463,378.873 z" id="boundary" inkscape:connector-curvature="0" />
	<path style="fill:none;stroke:red;stroke-width:1px;stroke-linecap:butt;stroke-linejoin:miter;stroke-opacity:1" d="M 992.463,378.873 994.232,396.556 z" id="boundary" inkscape:connector-curvature="0" />
	<path style="fill:none;stroke:red;stroke-width:1px;stroke-linecap:butt;stroke-linejoin:miter;stroke-opacity:1" d="M 992.463,460.214 992.463,477.897 z" id="boundary" inkscape:connector-curvature="0" />
	<path style="fill:none;stroke:red;stroke-width:1px;stroke-linecap:butt;stroke-linejoin:miter;stroke-opacity:1" d="M 992.463,460.214 996,431.922 z" id="boundary" inkscape:connector-curvature="0" />
	<path style="fill:none;stroke:red;stroke-width:1px;stroke-linecap:butt;stroke-linejoin:miter;stroke-opacity:1" d="M 992.463,477.897 992.463,495.579 z" id="boundary" inkscape:connector-curvature="0" />
	<path style="fill:none;stroke:red;stroke-width:1px;stroke-linecap:butt;stroke-linejoin:miter;stroke-opacity:1" d="M 992.463,495.579 992.463,513.262 z" id="boundary" inkscape:connector-curvature="0" />
	<path style="fill:none;stroke:red;stroke-width:1px;stroke-linecap:butt;stroke-linejoin:miter;stroke-opacity:1" d="M 994.232,396.556 996,414.239 z" id="boundary" inkscape:connector-curvature="0" />
	<path style="fill:none;stroke:red;stroke-width:1px;stroke-linecap:butt;stroke-linejoin:miter;stroke-opacity:1" d="M 996,414.239 996,431.922 z" id="boundary" inkscape:connector-curvature="0" />
	<circle cx="4" cy="343.508" r="4" fill="#0" id="circle0"/>
	<circle cx="4" cy="361.191" r="4" fill="#0" id="circle1"/>
	<circle cx="11.0731" cy="506.189" r="4" fill="#0" id="circle2"/>
	<circle cx="14.6096" cy="541.554" r="4" fill="#0" id="circle3"/>
	<circle cx="16.3779" cy="375.337" r="4" fill="#0" id="circle4"/>
	<circle cx="18.1462" cy="329.362" r="4" fill="#0" id="circle5"/>
	<circle cx="18.1462" cy="523.872" r="4" fill="#0" id="circle6"/>
	<circle cx="21.6827" cy="393.02" r="4" fill="#0" id="circle7"/>
	<circle cx="21.6827" cy="410.702" r="4" fill="#0" id="circle8"/>
	<circle cx="21.6827" cy="428.385" r="4" fill="#0" id="circle9"/>
	<circle cx="21.6827" cy="474.36" r="4" fill="#0" id="circle10"/>
	<circle cx="21.6827" cy="492.043" r="4" fill="#0" id="circle11"/>
	<circle cx="25.2193" cy="446.068" r="4" fill="#0" id="circle12"/>
	<circle cx="28.7558" cy="509.725" r="4" fill="#0" id="circle13"/>
	<circle cx="32.2923" cy="543.323" r="4" fill="#0" id="circle14"/>
	<circle cx="35.8289" cy="322.289" r="4" fill="#0" id="circle15"/>
	<circle cx="39.3654" cy="490.275" r="4" fill="#0" id="circle16"/>
	<circle cx="49.975" cy="311.679" r="4" fill="#0" id="circle17"/>
	<circle cx="57.0481" cy="486.738" r="4" fill="#0" id="circle18"/>
	<circle cx="67.6578" cy="308.143" r="4" fill="#0" id="circle19"/>
	<circle cx="74.7308" cy="486.738" r="4" fill="#0" id="circle20"/>
	<circle cx="85.3405" cy="304.606" r="4" fill="#0" id="circle21"/>
	<circle cx="92.4135" cy="490.275" r="4" fill="#0" id="circle22"/>
	<circle cx="103.023" cy="301.07" r="4" fill="#0" id="circle23"/>
	<circle cx="110.096" cy="493.811" r="4" fill="#0" id="circle24"/>
	<circle cx="120.706" cy="293.996" r="4" fill="#0" id="circle25"/>
	<circle cx="127.779" cy="497.348" r="4" fill="#0" id="circle26"/>
	<circle cx="138.389" cy="293.996" r="4" fill="#0" id="circle27"/>
	<circle cx="143.693" cy="488.506" r="4" fill="#0" id="circle28"/>
	<circle cx="156.071" cy="290.46" r="4" fill="#0" id="circle29"/>
	<circle cx="161.376" cy="481.433" r="4" fill="#0" id="circle30"/>
	<circle cx="173.754" cy="290.46" r="4" fill="#0" id="circle31"/>
	<circle cx="179.059" cy="479.665" r="4" fill="#0" id="circle32"/>
	<circle cx="191.437" cy="290.46" r="4" fill="#0" id="circle33"/>
	<circle cx="196.742" cy="486.738" r="4" fill="#0" id="circle34"/>
	<circle cx="209.119" cy="286.923" r="4" fill="#0" id="circle35"/>
	<circle cx="214.424" cy="493.811" r="4" fill="#0" id="circle36"/>
	<circle cx="226.802" cy="286.923" r="4" fill="#0" id="circle37"/>
	<circle cx="232.107" cy="497.348" r="4" fill="#0" id="circle38"/>
	<circle cx="240.948" cy="269.241" r="4" fill="#0" id="circle39"/>
	<circle cx="248.021" cy="506.189" r="4" fill="#0" id="circle40"/>
	<circle cx="258.631" cy="269.241" r="4" fill="#0" id="circle41"/>
	<circle cx="265.704" cy="511.494" r="4" fill="#0" id="circle42"/>
	<circle cx="274.545" cy="260.399" r="4" fill="#0" id="circle43"/>
	<circle cx="283.387" cy="515.03" r="4" fill="#0" id="circle44"/>
	<circle cx="288.692" cy="249.79" r="4" fill="#0" id="circle45"/>
	<circle cx="301.07" cy="518.567" r="4" fill="#0" id="circle46"/>
	<circle cx="306.374" cy="244.485" r="4" fill="#0" id="circle47"/>
	<circle cx="318.752" cy="518.567" r="4" fill="#0" id="circle48"/>
	<circle cx="324.057" cy="248.021" r="4" fill="#0" id="circle49"/>
	<circle cx="336.435" cy="515.03" r="4" fill="#0" id="circle50"/>
	<circle cx="341.74" cy="255.094" r="4" fill="#0" id="circle51"/>
	<circle cx="354.118" cy="511.494" r="4" fill="#0" id="circle52"/>
	<circle cx="357.654" cy="263.936" r="4" fill="#0" id="circle53"/>
	<circle cx="371.8" cy="507.957" r="4" fill="#0" id="circle54"/>
	<circle cx="375.337" cy="269.241" r="4" fill="#0" id="circle55"/>
	<circle cx="385.947" cy="497.348" r="4" fill="#0" id="circle56"/>
	<circle cx="389.483" cy="281.619" r="4" fill="#0" id="circle57"/>
	<circle cx="403.629" cy="490.275" r="4" fill="#0" id="circle58"/>
	<circle cx="407.166" cy="286.923" r="4" fill="#0" id="circle59"/>
	<circle cx="421.312" cy="276.314" r="4" fill="#0" id="circle60"/>
	<circle cx="421.312" cy="486.738" r="4" fill="#0" id="circle61"/>
	<circle cx="435.458" cy="262.168" r="4" fill="#0" id="circle62"/>
	<circle cx="438.995" cy="479.665" r="4" fill="#0" id="circle63"/>
	<circle cx="449.604" cy="248.021" r="4" fill="#0" id="circle64"/>
	<circle cx="456.677" cy="481.433" r="4" fill="#0" id="circle65"/>
	<circle cx="460.214" cy="134.852" r="4" fill="#0" id="circle66"/>
	<circle cx="460.214" cy="152.535" r="4" fill="#0" id="circle67"/>
	<circle cx="463.75" cy="237.412" r="4" fill="#0" id="circle68"/>
	<circle cx="467.287" cy="495.579" r="4" fill="#0" id="circle69"/>
	<circle cx="467.287" cy="513.262" r="4" fill="#0" id="circle70"/>
	<circle cx="467.287" cy="541.554" r="4" fill="#0" id="circle71"/>
	<circle cx="470.824" cy="166.681" r="4" fill="#0" id="circle72"/>
	<circle cx="474.36" cy="120.706" r="4" fill="#0" id="circle73"/>
	<circle cx="477.897" cy="184.364" r="4" fill="#0" id="circle74"/>
	<circle cx="477.897" cy="202.046" r="4" fill="#0" id="circle75"/>
	<circle cx="481.433" cy="233.875" r="4" fill="#0" id="circle76"/>
	<circle cx="483.201" cy="504.421" r="4" fill="#0" id="circle77"/>
	<circle cx="483.201" cy="522.103" r="4" fill="#0" id="circle78"/>
	<circle cx="492.043" cy="113.633" r="4" fill="#0" id="circle79"/>
	<circle cx="500.884" cy="495.579" r="4" fill="#0" id="circle80"/>
	<circle cx="506.189" cy="103.023" r="4" fill="#0" id="circle81"/>
	<circle cx="518.567" cy="490.275" r="4" fill="#0" id="circle82"/>
	<circle cx="523.872" cy="99.4866" r="4" fill="#0" id="circle83"/>
	<circle cx="536.25" cy="486.738" r="4" fill="#0" id="circle84"/>
	<circle cx="541.554" cy="92.4135" r="4" fill="#0" id="circle85"/>
	<circle cx="553.932" cy="486.738" r="4" fill="#0" id="circle86"/>
	<circle cx="559.237" cy="85.3405" r="4" fill="#0" id="circle87"/>
	<circle cx="571.615" cy="490.275" r="4" fill="#0" id="circle88"/>
	<circle cx="573.383" cy="507.957" r="4" fill="#0" id="circle89"/>
	<circle cx="576.92" cy="81.8039" r="4" fill="#0" id="circle90"/>
	<circle cx="580.456" cy="525.64" r="4" fill="#0" id="circle91"/>
	<circle cx="583.993" cy="543.323" r="4" fill="#0" id="circle92"/>
	<circle cx="594.602" cy="78.2674" r="4" fill="#0" id="circle93"/>
	<circle cx="598.139" cy="522.103" r="4" fill="#0" id="circle94"/>
	<circle cx="599.907" cy="477.897" r="4" fill="#0" id="circle95"/>
	<circle cx="599.907" cy="495.579" r="4" fill="#0" id="circle96"/>
	<circle cx="612.285" cy="74.7308" r="4" fill="#0" id="circle97"/>
	<circle cx="617.59" cy="476.128" r="4" fill="#0" id="circle98"/>
	<circle cx="629.968" cy="67.6578" r="4" fill="#0" id="circle99"/>
	<circle cx="635.273" cy="476.128" r="4" fill="#0" id="circle100"/>
	<circle cx="647.651" cy="57.0481" r="4" fill="#0" id="circle101"/>
	<circle cx="652.955" cy="476.128" r="4" fill="#0" id="circle102"/>
	<circle cx="661.797" cy="46.4385" r="4" fill="#0" id="circle103"/>
	<circle cx="670.638" cy="476.128" r="4" fill="#0" id="circle104"/>
	<circle cx="679.48" cy="42.902" r="4" fill="#0" id="circle105"/>
	<circle cx="688.321" cy="476.128" r="4" fill="#0" id="circle106"/>
	<circle cx="697.162" cy="28.7558" r="4" fill="#0" id="circle107"/>
	<circle cx="706.004" cy="476.128" r="4" fill="#0" id="circle108"/>
	<circle cx="711.308" cy="18.1462" r="4" fill="#0" id="circle109"/>
	<circle cx="721.918" cy="4" r="4" fill="#0" id="circle110"/>
	<circle cx="723.686" cy="476.128" r="4" fill="#0" id="circle111"/>
	<circle cx="737.832" cy="12.8414" r="4" fill="#0" id="circle112"/>
	<circle cx="741.369" cy="476.128" r="4" fill="#0" id="circle113"/>
	<circle cx="751.979" cy="23.451" r="4" fill="#0" id="circle114"/>
	<circle cx="759.052" cy="476.128" r="4" fill="#0" id="circle115"/>
	<circle cx="760.82" cy="39.3654" r="4" fill="#0" id="circle116"/>
	<circle cx="776.734" cy="476.128" r="4" fill="#0" id="circle117"/>
	<circle cx="778.503" cy="44.6702" r="4" fill="#0" id="circle118"/>
	<circle cx="794.417" cy="53.5116" r="4" fill="#0" id="circle119"/>
	<circle cx="794.417" cy="476.128" r="4" fill="#0" id="circle120"/>
	<circle cx="808.563" cy="64.1212" r="4" fill="#0" id="circle121"/>
	<circle cx="812.1" cy="476.128" r="4" fill="#0" id="circle122"/>
	<circle cx="826.246" cy="67.6578" r="4" fill="#0" id="circle123"/>
	<circle cx="829.783" cy="476.128" r="4" fill="#0" id="circle124"/>
	<circle cx="843.929" cy="74.7308" r="4" fill="#0" id="circle125"/>
	<circle cx="847.465" cy="476.128" r="4" fill="#0" id="circle126"/>
	<circle cx="861.611" cy="78.2674" r="4" fill="#0" id="circle127"/>
	<circle cx="865.148" cy="476.128" r="4" fill="#0" id="circle128"/>
	<circle cx="879.294" cy="81.8039" r="4" fill="#0" id="circle129"/>
	<circle cx="882.831" cy="476.128" r="4" fill="#0" id="circle130"/>
	<circle cx="896.977" cy="85.3405" r="4" fill="#0" id="circle131"/>
	<circle cx="900.513" cy="476.128" r="4" fill="#0" id="circle132"/>
	<circle cx="914.66" cy="92.4135" r="4" fill="#0" id="circle133"/>
	<circle cx="918.196" cy="476.128" r="4" fill="#0" id="circle134"/>
	<circle cx="932.342" cy="95.9501" r="4" fill="#0" id="circle135"/>
	<circle cx="935.879" cy="476.128" r="4" fill="#0" id="circle136"/>
	<circle cx="950.025" cy="103.023" r="4" fill="#0" id="circle137"/>
	<circle cx="953.561" cy="476.128" r="4" fill="#0" id="circle138"/>
	<circle cx="964.171" cy="113.633" r="4" fill="#0" id="circle139"/>
	<circle cx="971.244" cy="476.128" r="4" fill="#0" id="circle140"/>
	<circle cx="973.012" cy="493.811" r="4" fill="#0" id="circle141"/>
	<circle cx="973.012" cy="511.494" r="4" fill="#0" id="circle142"/>
	<circle cx="976.549" cy="529.176" r="4" fill="#0" id="circle143"/>
	<circle cx="976.549" cy="546.859" r="4" fill="#0" id="circle144"/>
	<circle cx="981.854" cy="120.706" r="4" fill="#0" id="circle145"/>
	<circle cx="981.854" cy="184.364" r="4" fill="#0" id="circle146"/>
	<circle cx="981.854" cy="202.046" r="4" fill="#0" id="circle147"/>
	<circle cx="981.854" cy="219.729" r="4" fill="#0" id="circle148"/>
	<circle cx="981.854" cy="237.412" r="4" fill="#0" id="circle149"/>
	<circle cx="981.854" cy="255.094" r="4" fill="#0" id="circle150"/>
	<circle cx="981.854" cy="272.777" r="4" fill="#0" id="circle151"/>
	<circle cx="981.854" cy="290.46" r="4" fill="#0" id="circle152"/>
	<circle cx="983.622" cy="308.143" r="4" fill="#0" id="circle153"/>
	<circle cx="988.927" cy="163.144" r="4" fill="#0" id="circle154"/>
	<circle cx="988.927" cy="325.825" r="4" fill="#0" id="circle155"/>
	<circle cx="992.463" cy="343.508" r="4" fill="#0" id="circle156"/>
	<circle cx="992.463" cy="361.191" r="4" fill="#0" id="circle157"/>
	<circle cx="992.463" cy="378.873" r="4" fill="#0" id="circle158"/>
	<circle cx="992.463" cy="460.214" r="4" fill="#0" id="circle159"/>
	<circle cx="992.463" cy="477.897" r="4" fill="#0" id="circle160"/>
	<circle cx="992.463" cy="495.579" r="4" fill="#0" id="circle161"/>
	<circle cx="992.463" cy="513.262" r="4" fill="#0" id="circle162"/>
	<circle cx="994.232" cy="134.852" r="4" fill="#0" id="circle163"/>
	<circle cx="994.232" cy="396.556" r="4" fill="#0" id="circle164"/>
	<circle cx="996" cy="414.239" r="4" fill="#0" id="circle165"/>
	<circle cx="996" cy="431.922" r="4" fill="#0" id="circle166"/>
	</g>
</svg>