<?xml version="1.0" encoding="UTF-8" standalone="no"?>
<!-- Created with CurveBenchmark -->
<svg
	xmlns:dc="http://purl.org/dc/elements/1.1/"
	xmlns:cc="http://creativecommons.org/ns#"
	xmlns:rdf="http://www.w3.org/1999/02/22-rdf-syntax-ns#"
	xmlns:svg="http://www.w3.org/2000/svg"
	xmlns="http://www.w3.org/2000/svg"
	xmlns:sodipodi="http://sodipodi.sourceforge.net/DTD/sodipodi-0.dtd"
	xmlns:inkscape="http://www.inkscape.org/namespaces/inkscape"
	width="1000"
	height="1000"
	id="svg2"
	version="1.1"
	sodipodi:docname="manifold/vicur-fish270.png.txt">
<defs
	id="defs4" />
<metadata
	id="metadata7">
	<rdf:RDF>
		<cc:Work
			rdf:about="">
			<dc:format>image/svg+xml</dc:format>
			<dc:type
				rdf:resource="http://purl.org/dc/dcmitype/StillImage" />
			<dc:title></dc:title>
		</cc:Work>
	</rdf:RDF>
</metadata>
<g
	inkscape:label="Layer 1"
	inkscape:groupmode="layer"
	id="layer1">
	<path style="fill:none;stroke:red;stroke-width:1px;stroke-linecap:butt;stroke-linejoin:miter;stroke-opacity:1" d="M 4,531.392 4,594.177 z" id="boundary" inkscape:connector-curvature="0" />
	<path style="fill:none;stroke:red;stroke-width:1px;stroke-linecap:butt;stroke-linejoin:miter;stroke-opacity:1" d="M 4,531.392 54.2278,493.722 z" id="boundary" inkscape:connector-curvature="0" />
	<path style="fill:none;stroke:red;stroke-width:1px;stroke-linecap:butt;stroke-linejoin:miter;stroke-opacity:1" d="M 4,594.177 16.557,656.962 z" id="boundary" inkscape:connector-curvature="0" />
	<path style="fill:none;stroke:red;stroke-width:1px;stroke-linecap:butt;stroke-linejoin:miter;stroke-opacity:1" d="M 16.557,656.962 47.9494,713.468 z" id="boundary" inkscape:connector-curvature="0" />
	<path style="fill:none;stroke:red;stroke-width:1px;stroke-linecap:butt;stroke-linejoin:miter;stroke-opacity:1" d="M 47.9494,713.468 98.1772,751.139 z" id="boundary" inkscape:connector-curvature="0" />
	<path style="fill:none;stroke:red;stroke-width:1px;stroke-linecap:butt;stroke-linejoin:miter;stroke-opacity:1" d="M 54.2278,493.722 129.57,430.937 z" id="boundary" inkscape:connector-curvature="0" />
	<path style="fill:none;stroke:red;stroke-width:1px;stroke-linecap:butt;stroke-linejoin:miter;stroke-opacity:1" d="M 98.1772,751.139 160.962,732.304 z" id="boundary" inkscape:connector-curvature="0" />
	<path style="fill:none;stroke:red;stroke-width:1px;stroke-linecap:butt;stroke-linejoin:miter;stroke-opacity:1" d="M 129.57,430.937 154.684,355.595 z" id="boundary" inkscape:connector-curvature="0" />
	<path style="fill:none;stroke:red;stroke-width:1px;stroke-linecap:butt;stroke-linejoin:miter;stroke-opacity:1" d="M 142.127,958.329 173.519,901.823 z" id="boundary" inkscape:connector-curvature="0" />
	<path style="fill:none;stroke:red;stroke-width:1px;stroke-linecap:butt;stroke-linejoin:miter;stroke-opacity:1" d="M 142.127,958.329 236.304,889.266 z" id="boundary" inkscape:connector-curvature="0" />
	<path style="fill:none;stroke:red;stroke-width:1px;stroke-linecap:butt;stroke-linejoin:miter;stroke-opacity:1" d="M 154.684,355.595 192.354,292.81 z" id="boundary" inkscape:connector-curvature="0" />
	<path style="fill:none;stroke:red;stroke-width:1px;stroke-linecap:butt;stroke-linejoin:miter;stroke-opacity:1" d="M 160.962,732.304 223.747,751.139 z" id="boundary" inkscape:connector-curvature="0" />
	<path style="fill:none;stroke:red;stroke-width:1px;stroke-linecap:butt;stroke-linejoin:miter;stroke-opacity:1" d="M 173.519,901.823 198.633,839.038 z" id="boundary" inkscape:connector-curvature="0" />
	<path style="fill:none;stroke:red;stroke-width:1px;stroke-linecap:butt;stroke-linejoin:miter;stroke-opacity:1" d="M 192.354,292.81 242.582,242.582 z" id="boundary" inkscape:connector-curvature="0" />
	<path style="fill:none;stroke:red;stroke-width:1px;stroke-linecap:butt;stroke-linejoin:miter;stroke-opacity:1" d="M 198.633,839.038 223.747,751.139 z" id="boundary" inkscape:connector-curvature="0" />
	<path style="fill:none;stroke:red;stroke-width:1px;stroke-linecap:butt;stroke-linejoin:miter;stroke-opacity:1" d="M 236.304,889.266 261.418,820.203 z" id="boundary" inkscape:connector-curvature="0" />
	<path style="fill:none;stroke:red;stroke-width:1px;stroke-linecap:butt;stroke-linejoin:miter;stroke-opacity:1" d="M 261.418,820.203 317.924,788.81 z" id="boundary" inkscape:connector-curvature="0" />
	<path style="fill:none;stroke:red;stroke-width:1px;stroke-linecap:butt;stroke-linejoin:miter;stroke-opacity:1" d="M 305.367,217.468 317.924,129.57 z" id="boundary" inkscape:connector-curvature="0" />
	<path style="fill:none;stroke:red;stroke-width:1px;stroke-linecap:butt;stroke-linejoin:miter;stroke-opacity:1" d="M 305.367,217.468 361.873,179.797 z" id="boundary" inkscape:connector-curvature="0" />
	<path style="fill:none;stroke:red;stroke-width:1px;stroke-linecap:butt;stroke-linejoin:miter;stroke-opacity:1" d="M 317.924,4 317.924,66.7848 z" id="boundary" inkscape:connector-curvature="0" />
	<path style="fill:none;stroke:red;stroke-width:1px;stroke-linecap:butt;stroke-linejoin:miter;stroke-opacity:1" d="M 317.924,66.7848 317.924,129.57 z" id="boundary" inkscape:connector-curvature="0" />
	<path style="fill:none;stroke:red;stroke-width:1px;stroke-linecap:butt;stroke-linejoin:miter;stroke-opacity:1" d="M 317.924,788.81 380.709,788.81 z" id="boundary" inkscape:connector-curvature="0" />
	<path style="fill:none;stroke:red;stroke-width:1px;stroke-linecap:butt;stroke-linejoin:miter;stroke-opacity:1" d="M 361.873,179.797 399.544,230.025 z" id="boundary" inkscape:connector-curvature="0" />
	<path style="fill:none;stroke:red;stroke-width:1px;stroke-linecap:butt;stroke-linejoin:miter;stroke-opacity:1" d="M 380.709,788.81 443.494,763.696 z" id="boundary" inkscape:connector-curvature="0" />
	<path style="fill:none;stroke:red;stroke-width:1px;stroke-linecap:butt;stroke-linejoin:miter;stroke-opacity:1" d="M 399.544,230.025 456.051,261.418 z" id="boundary" inkscape:connector-curvature="0" />
	<path style="fill:none;stroke:red;stroke-width:1px;stroke-linecap:butt;stroke-linejoin:miter;stroke-opacity:1" d="M 418.38,839.038 443.494,901.823 z" id="boundary" inkscape:connector-curvature="0" />
	<path style="fill:none;stroke:red;stroke-width:1px;stroke-linecap:butt;stroke-linejoin:miter;stroke-opacity:1" d="M 418.38,839.038 481.165,851.595 z" id="boundary" inkscape:connector-curvature="0" />
	<path style="fill:none;stroke:red;stroke-width:1px;stroke-linecap:butt;stroke-linejoin:miter;stroke-opacity:1" d="M 443.494,763.696 474.886,707.19 z" id="boundary" inkscape:connector-curvature="0" />
	<path style="fill:none;stroke:red;stroke-width:1px;stroke-linecap:butt;stroke-linejoin:miter;stroke-opacity:1" d="M 443.494,901.823 474.886,958.329 z" id="boundary" inkscape:connector-curvature="0" />
	<path style="fill:none;stroke:red;stroke-width:1px;stroke-linecap:butt;stroke-linejoin:miter;stroke-opacity:1" d="M 456.051,261.418 493.722,311.646 z" id="boundary" inkscape:connector-curvature="0" />
	<path style="fill:none;stroke:red;stroke-width:1px;stroke-linecap:butt;stroke-linejoin:miter;stroke-opacity:1" d="M 474.886,707.19 525.114,744.861 z" id="boundary" inkscape:connector-curvature="0" />
	<path style="fill:none;stroke:red;stroke-width:1px;stroke-linecap:butt;stroke-linejoin:miter;stroke-opacity:1" d="M 474.886,958.329 525.114,996 z" id="boundary" inkscape:connector-curvature="0" />
	<path style="fill:none;stroke:red;stroke-width:1px;stroke-linecap:butt;stroke-linejoin:miter;stroke-opacity:1" d="M 481.165,851.595 512.557,908.101 z" id="boundary" inkscape:connector-curvature="0" />
	<path style="fill:none;stroke:red;stroke-width:1px;stroke-linecap:butt;stroke-linejoin:miter;stroke-opacity:1" d="M 493.722,311.646 525.114,368.152 z" id="boundary" inkscape:connector-curvature="0" />
	<path style="fill:none;stroke:red;stroke-width:1px;stroke-linecap:butt;stroke-linejoin:miter;stroke-opacity:1" d="M 512.557,908.101 525.114,996 z" id="boundary" inkscape:connector-curvature="0" />
	<path style="fill:none;stroke:red;stroke-width:1px;stroke-linecap:butt;stroke-linejoin:miter;stroke-opacity:1" d="M 525.114,368.152 537.671,430.937 z" id="boundary" inkscape:connector-curvature="0" />
	<path style="fill:none;stroke:red;stroke-width:1px;stroke-linecap:butt;stroke-linejoin:miter;stroke-opacity:1" d="M 525.114,744.861 587.899,744.861 z" id="boundary" inkscape:connector-curvature="0" />
	<path style="fill:none;stroke:red;stroke-width:1px;stroke-linecap:butt;stroke-linejoin:miter;stroke-opacity:1" d="M 537.671,430.937 550.228,493.722 z" id="boundary" inkscape:connector-curvature="0" />
	<path style="fill:none;stroke:red;stroke-width:1px;stroke-linecap:butt;stroke-linejoin:miter;stroke-opacity:1" d="M 550.228,493.722 613.013,493.722 z" id="boundary" inkscape:connector-curvature="0" />
	<path style="fill:none;stroke:red;stroke-width:1px;stroke-linecap:butt;stroke-linejoin:miter;stroke-opacity:1" d="M 587.899,744.861 638.127,694.633 z" id="boundary" inkscape:connector-curvature="0" />
	<path style="fill:none;stroke:red;stroke-width:1px;stroke-linecap:butt;stroke-linejoin:miter;stroke-opacity:1" d="M 613.013,493.722 663.241,531.392 z" id="boundary" inkscape:connector-curvature="0" />
	<path style="fill:none;stroke:red;stroke-width:1px;stroke-linecap:butt;stroke-linejoin:miter;stroke-opacity:1" d="M 638.127,694.633 663.241,594.177 z" id="boundary" inkscape:connector-curvature="0" />
	<path style="fill:none;stroke:red;stroke-width:1px;stroke-linecap:butt;stroke-linejoin:miter;stroke-opacity:1" d="M 663.241,531.392 663.241,594.177 z" id="boundary" inkscape:connector-curvature="0" />
	<circle cx="4" cy="531.392" r="4" fill="#0" id="circle0"/>
	<circle cx="4" cy="594.177" r="4" fill="#0" id="circle1"/>
	<circle cx="16.557" cy="656.962" r="4" fill="#0" id="circle2"/>
	<circle cx="47.9494" cy="713.468" r="4" fill="#0" id="circle3"/>
	<circle cx="54.2278" cy="493.722" r="4" fill="#0" id="circle4"/>
	<circle cx="98.1772" cy="751.139" r="4" fill="#0" id="circle5"/>
	<circle cx="117.013" cy="518.835" r="4" fill="#0" id="circle6"/>
	<circle cx="129.57" cy="430.937" r="4" fill="#0" id="circle7"/>
	<circle cx="142.127" cy="958.329" r="4" fill="#0" id="circle8"/>
	<circle cx="154.684" cy="355.595" r="4" fill="#0" id="circle9"/>
	<circle cx="160.962" cy="732.304" r="4" fill="#0" id="circle10"/>
	<circle cx="173.519" cy="901.823" r="4" fill="#0" id="circle11"/>
	<circle cx="192.354" cy="292.81" r="4" fill="#0" id="circle12"/>
	<circle cx="198.633" cy="839.038" r="4" fill="#0" id="circle13"/>
	<circle cx="223.747" cy="751.139" r="4" fill="#0" id="circle14"/>
	<circle cx="236.304" cy="889.266" r="4" fill="#0" id="circle15"/>
	<circle cx="242.582" cy="242.582" r="4" fill="#0" id="circle16"/>
	<circle cx="261.418" cy="820.203" r="4" fill="#0" id="circle17"/>
	<circle cx="305.367" cy="217.468" r="4" fill="#0" id="circle18"/>
	<circle cx="317.924" cy="4" r="4" fill="#0" id="circle19"/>
	<circle cx="317.924" cy="66.7848" r="4" fill="#0" id="circle20"/>
	<circle cx="317.924" cy="129.57" r="4" fill="#0" id="circle21"/>
	<circle cx="317.924" cy="788.81" r="4" fill="#0" id="circle22"/>
	<circle cx="361.873" cy="179.797" r="4" fill="#0" id="circle23"/>
	<circle cx="380.709" cy="788.81" r="4" fill="#0" id="circle24"/>
	<circle cx="399.544" cy="230.025" r="4" fill="#0" id="circle25"/>
	<circle cx="418.38" cy="839.038" r="4" fill="#0" id="circle26"/>
	<circle cx="443.494" cy="763.696" r="4" fill="#0" id="circle27"/>
	<circle cx="443.494" cy="901.823" r="4" fill="#0" id="circle28"/>
	<circle cx="456.051" cy="261.418" r="4" fill="#0" id="circle29"/>
	<circle cx="474.886" cy="707.19" r="4" fill="#0" id="circle30"/>
	<circle cx="474.886" cy="958.329" r="4" fill="#0" id="circle31"/>
	<circle cx="481.165" cy="851.595" r="4" fill="#0" id="circle32"/>
	<circle cx="493.722" cy="311.646" r="4" fill="#0" id="circle33"/>
	<circle cx="512.557" cy="908.101" r="4" fill="#0" id="circle34"/>
	<circle cx="525.114" cy="368.152" r="4" fill="#0" id="circle35"/>
	<circle cx="525.114" cy="744.861" r="4" fill="#0" id="circle36"/>
	<circle cx="525.114" cy="996" r="4" fill="#0" id="circle37"/>
	<circle cx="537.671" cy="430.937" r="4" fill="#0" id="circle38"/>
	<circle cx="550.228" cy="493.722" r="4" fill="#0" id="circle39"/>
	<circle cx="587.899" cy="744.861" r="4" fill="#0" id="circle40"/>
	<circle cx="613.013" cy="493.722" r="4" fill="#0" id="circle41"/>
	<circle cx="638.127" cy="694.633" r="4" fill="#0" id="circle42"/>
	<circle cx="663.241" cy="531.392" r="4" fill="#0" id="circle43"/>
	<circle cx="663.241" cy="594.177" r="4" fill="#0" id="circle44"/>
	</g>
</svg>