<?xml version="1.0" encoding="UTF-8" standalone="no"?>
<!-- Created with CurveBenchmark -->
<svg
	xmlns:dc="http://purl.org/dc/elements/1.1/"
	xmlns:cc="http://creativecommons.org/ns#"
	xmlns:rdf="http://www.w3.org/1999/02/22-rdf-syntax-ns#"
	xmlns:svg="http://www.w3.org/2000/svg"
	xmlns="http://www.w3.org/2000/svg"
	xmlns:sodipodi="http://sodipodi.sourceforge.net/DTD/sodipodi-0.dtd"
	xmlns:inkscape="http://www.inkscape.org/namespaces/inkscape"
	width="1000"
	height="1000"
	id="svg2"
	version="1.1"
	sodipodi:docname="manifold/vicur-tool04.png.txt">
<defs
	id="defs4" />
<metadata
	id="metadata7">
	<rdf:RDF>
		<cc:Work
			rdf:about="">
			<dc:format>image/svg+xml</dc:format>
			<dc:type
				rdf:resource="http://purl.org/dc/dcmitype/StillImage" />
			<dc:title></dc:title>
		</cc:Work>
	</rdf:RDF>
</metadata>
<g
	inkscape:label="Layer 1"
	inkscape:groupmode="layer"
	id="layer1">
	<path style="fill:none;stroke:red;stroke-width:1px;stroke-linecap:butt;stroke-linejoin:miter;stroke-opacity:1" d="M 4,127.283 4,155.954 z" id="boundary" inkscape:connector-curvature="0" />
	<path style="fill:none;stroke:red;stroke-width:1px;stroke-linecap:butt;stroke-linejoin:miter;stroke-opacity:1" d="M 4,127.283 32.6705,118.682 z" id="boundary" inkscape:connector-curvature="0" />
	<path style="fill:none;stroke:red;stroke-width:1px;stroke-linecap:butt;stroke-linejoin:miter;stroke-opacity:1" d="M 4,155.954 4,184.624 z" id="boundary" inkscape:connector-curvature="0" />
	<path style="fill:none;stroke:red;stroke-width:1px;stroke-linecap:butt;stroke-linejoin:miter;stroke-opacity:1" d="M 4,184.624 18.3353,210.428 z" id="boundary" inkscape:connector-curvature="0" />
	<path style="fill:none;stroke:red;stroke-width:1px;stroke-linecap:butt;stroke-linejoin:miter;stroke-opacity:1" d="M 18.3353,210.428 32.6705,236.231 z" id="boundary" inkscape:connector-curvature="0" />
	<path style="fill:none;stroke:red;stroke-width:1px;stroke-linecap:butt;stroke-linejoin:miter;stroke-opacity:1" d="M 32.6705,118.682 61.341,118.682 z" id="boundary" inkscape:connector-curvature="0" />
	<path style="fill:none;stroke:red;stroke-width:1px;stroke-linecap:butt;stroke-linejoin:miter;stroke-opacity:1" d="M 32.6705,236.231 58.474,250.566 z" id="boundary" inkscape:connector-curvature="0" />
	<path style="fill:none;stroke:red;stroke-width:1px;stroke-linecap:butt;stroke-linejoin:miter;stroke-opacity:1" d="M 58.474,250.566 84.2775,264.902 z" id="boundary" inkscape:connector-curvature="0" />
	<path style="fill:none;stroke:red;stroke-width:1px;stroke-linecap:butt;stroke-linejoin:miter;stroke-opacity:1" d="M 61.341,118.682 87.1445,133.017 z" id="boundary" inkscape:connector-curvature="0" />
	<path style="fill:none;stroke:red;stroke-width:1px;stroke-linecap:butt;stroke-linejoin:miter;stroke-opacity:1" d="M 75.6763,12.6012 75.6763,41.2717 z" id="boundary" inkscape:connector-curvature="0" />
	<path style="fill:none;stroke:red;stroke-width:1px;stroke-linecap:butt;stroke-linejoin:miter;stroke-opacity:1" d="M 75.6763,12.6012 104.347,4 z" id="boundary" inkscape:connector-curvature="0" />
	<path style="fill:none;stroke:red;stroke-width:1px;stroke-linecap:butt;stroke-linejoin:miter;stroke-opacity:1" d="M 75.6763,41.2717 104.347,49.8728 z" id="boundary" inkscape:connector-curvature="0" />
	<path style="fill:none;stroke:red;stroke-width:1px;stroke-linecap:butt;stroke-linejoin:miter;stroke-opacity:1" d="M 84.2775,264.902 112.948,264.902 z" id="boundary" inkscape:connector-curvature="0" />
	<path style="fill:none;stroke:red;stroke-width:1px;stroke-linecap:butt;stroke-linejoin:miter;stroke-opacity:1" d="M 87.1445,133.017 115.815,133.017 z" id="boundary" inkscape:connector-curvature="0" />
	<path style="fill:none;stroke:red;stroke-width:1px;stroke-linecap:butt;stroke-linejoin:miter;stroke-opacity:1" d="M 104.347,4 133.017,4 z" id="boundary" inkscape:connector-curvature="0" />
	<path style="fill:none;stroke:red;stroke-width:1px;stroke-linecap:butt;stroke-linejoin:miter;stroke-opacity:1" d="M 104.347,49.8728 121.549,72.8092 z" id="boundary" inkscape:connector-curvature="0" />
	<path style="fill:none;stroke:red;stroke-width:1px;stroke-linecap:butt;stroke-linejoin:miter;stroke-opacity:1" d="M 112.948,264.902 141.618,262.035 z" id="boundary" inkscape:connector-curvature="0" />
	<path style="fill:none;stroke:red;stroke-width:1px;stroke-linecap:butt;stroke-linejoin:miter;stroke-opacity:1" d="M 115.815,133.017 141.618,118.682 z" id="boundary" inkscape:connector-curvature="0" />
	<path style="fill:none;stroke:red;stroke-width:1px;stroke-linecap:butt;stroke-linejoin:miter;stroke-opacity:1" d="M 121.549,72.8092 141.618,118.682 z" id="boundary" inkscape:connector-curvature="0" />
	<path style="fill:none;stroke:red;stroke-width:1px;stroke-linecap:butt;stroke-linejoin:miter;stroke-opacity:1" d="M 133.017,4 161.688,4 z" id="boundary" inkscape:connector-curvature="0" />
	<path style="fill:none;stroke:red;stroke-width:1px;stroke-linecap:butt;stroke-linejoin:miter;stroke-opacity:1" d="M 141.618,262.035 170.289,250.566 z" id="boundary" inkscape:connector-curvature="0" />
	<path style="fill:none;stroke:red;stroke-width:1px;stroke-linecap:butt;stroke-linejoin:miter;stroke-opacity:1" d="M 161.688,4 187.491,18.3353 z" id="boundary" inkscape:connector-curvature="0" />
	<path style="fill:none;stroke:red;stroke-width:1px;stroke-linecap:butt;stroke-linejoin:miter;stroke-opacity:1" d="M 170.289,250.566 196.092,236.231 z" id="boundary" inkscape:connector-curvature="0" />
	<path style="fill:none;stroke:red;stroke-width:1px;stroke-linecap:butt;stroke-linejoin:miter;stroke-opacity:1" d="M 187.491,18.3353 213.295,32.6705 z" id="boundary" inkscape:connector-curvature="0" />
	<path style="fill:none;stroke:red;stroke-width:1px;stroke-linecap:butt;stroke-linejoin:miter;stroke-opacity:1" d="M 196.092,236.231 224.763,236.231 z" id="boundary" inkscape:connector-curvature="0" />
	<path style="fill:none;stroke:red;stroke-width:1px;stroke-linecap:butt;stroke-linejoin:miter;stroke-opacity:1" d="M 213.295,32.6705 233.364,55.6069 z" id="boundary" inkscape:connector-curvature="0" />
	<path style="fill:none;stroke:red;stroke-width:1px;stroke-linecap:butt;stroke-linejoin:miter;stroke-opacity:1" d="M 224.763,236.231 253.434,236.231 z" id="boundary" inkscape:connector-curvature="0" />
	<path style="fill:none;stroke:red;stroke-width:1px;stroke-linecap:butt;stroke-linejoin:miter;stroke-opacity:1" d="M 233.364,55.6069 236.231,84.2775 z" id="boundary" inkscape:connector-curvature="0" />
	<path style="fill:none;stroke:red;stroke-width:1px;stroke-linecap:butt;stroke-linejoin:miter;stroke-opacity:1" d="M 236.231,84.2775 250.566,110.081 z" id="boundary" inkscape:connector-curvature="0" />
	<path style="fill:none;stroke:red;stroke-width:1px;stroke-linecap:butt;stroke-linejoin:miter;stroke-opacity:1" d="M 250.566,110.081 267.769,133.017 z" id="boundary" inkscape:connector-curvature="0" />
	<path style="fill:none;stroke:red;stroke-width:1px;stroke-linecap:butt;stroke-linejoin:miter;stroke-opacity:1" d="M 253.434,236.231 282.104,244.832 z" id="boundary" inkscape:connector-curvature="0" />
	<path style="fill:none;stroke:red;stroke-width:1px;stroke-linecap:butt;stroke-linejoin:miter;stroke-opacity:1" d="M 267.769,133.017 293.572,147.353 z" id="boundary" inkscape:connector-curvature="0" />
	<path style="fill:none;stroke:red;stroke-width:1px;stroke-linecap:butt;stroke-linejoin:miter;stroke-opacity:1" d="M 282.104,244.832 307.908,259.168 z" id="boundary" inkscape:connector-curvature="0" />
	<path style="fill:none;stroke:red;stroke-width:1px;stroke-linecap:butt;stroke-linejoin:miter;stroke-opacity:1" d="M 293.572,147.353 319.376,161.688 z" id="boundary" inkscape:connector-curvature="0" />
	<path style="fill:none;stroke:red;stroke-width:1px;stroke-linecap:butt;stroke-linejoin:miter;stroke-opacity:1" d="M 307.908,259.168 336.578,264.902 z" id="boundary" inkscape:connector-curvature="0" />
	<path style="fill:none;stroke:red;stroke-width:1px;stroke-linecap:butt;stroke-linejoin:miter;stroke-opacity:1" d="M 319.376,161.688 348.046,167.422 z" id="boundary" inkscape:connector-curvature="0" />
	<path style="fill:none;stroke:red;stroke-width:1px;stroke-linecap:butt;stroke-linejoin:miter;stroke-opacity:1" d="M 336.578,264.902 362.382,279.237 z" id="boundary" inkscape:connector-curvature="0" />
	<path style="fill:none;stroke:red;stroke-width:1px;stroke-linecap:butt;stroke-linejoin:miter;stroke-opacity:1" d="M 348.046,167.422 373.85,181.757 z" id="boundary" inkscape:connector-curvature="0" />
	<path style="fill:none;stroke:red;stroke-width:1px;stroke-linecap:butt;stroke-linejoin:miter;stroke-opacity:1" d="M 362.382,279.237 388.185,293.572 z" id="boundary" inkscape:connector-curvature="0" />
	<path style="fill:none;stroke:red;stroke-width:1px;stroke-linecap:butt;stroke-linejoin:miter;stroke-opacity:1" d="M 373.85,181.757 402.52,193.225 z" id="boundary" inkscape:connector-curvature="0" />
	<path style="fill:none;stroke:red;stroke-width:1px;stroke-linecap:butt;stroke-linejoin:miter;stroke-opacity:1" d="M 388.185,293.572 416.855,293.572 z" id="boundary" inkscape:connector-curvature="0" />
	<path style="fill:none;stroke:red;stroke-width:1px;stroke-linecap:butt;stroke-linejoin:miter;stroke-opacity:1" d="M 402.52,193.225 431.191,204.694 z" id="boundary" inkscape:connector-curvature="0" />
	<path style="fill:none;stroke:red;stroke-width:1px;stroke-linecap:butt;stroke-linejoin:miter;stroke-opacity:1" d="M 416.855,293.572 442.659,307.908 z" id="boundary" inkscape:connector-curvature="0" />
	<path style="fill:none;stroke:red;stroke-width:1px;stroke-linecap:butt;stroke-linejoin:miter;stroke-opacity:1" d="M 431.191,204.694 456.994,219.029 z" id="boundary" inkscape:connector-curvature="0" />
	<path style="fill:none;stroke:red;stroke-width:1px;stroke-linecap:butt;stroke-linejoin:miter;stroke-opacity:1" d="M 442.659,307.908 468.462,322.243 z" id="boundary" inkscape:connector-curvature="0" />
	<path style="fill:none;stroke:red;stroke-width:1px;stroke-linecap:butt;stroke-linejoin:miter;stroke-opacity:1" d="M 456.994,219.029 482.798,233.364 z" id="boundary" inkscape:connector-curvature="0" />
	<path style="fill:none;stroke:red;stroke-width:1px;stroke-linecap:butt;stroke-linejoin:miter;stroke-opacity:1" d="M 468.462,322.243 494.266,336.578 z" id="boundary" inkscape:connector-curvature="0" />
	<path style="fill:none;stroke:red;stroke-width:1px;stroke-linecap:butt;stroke-linejoin:miter;stroke-opacity:1" d="M 482.798,233.364 508.601,247.699 z" id="boundary" inkscape:connector-curvature="0" />
	<path style="fill:none;stroke:red;stroke-width:1px;stroke-linecap:butt;stroke-linejoin:miter;stroke-opacity:1" d="M 494.266,336.578 520.069,350.913 z" id="boundary" inkscape:connector-curvature="0" />
	<path style="fill:none;stroke:red;stroke-width:1px;stroke-linecap:butt;stroke-linejoin:miter;stroke-opacity:1" d="M 508.601,247.699 537.272,247.699 z" id="boundary" inkscape:connector-curvature="0" />
	<path style="fill:none;stroke:red;stroke-width:1px;stroke-linecap:butt;stroke-linejoin:miter;stroke-opacity:1" d="M 520.069,350.913 548.74,350.913 z" id="boundary" inkscape:connector-curvature="0" />
	<path style="fill:none;stroke:red;stroke-width:1px;stroke-linecap:butt;stroke-linejoin:miter;stroke-opacity:1" d="M 537.272,247.699 560.208,264.902 z" id="boundary" inkscape:connector-curvature="0" />
	<path style="fill:none;stroke:red;stroke-width:1px;stroke-linecap:butt;stroke-linejoin:miter;stroke-opacity:1" d="M 548.74,350.913 565.942,373.85 z" id="boundary" inkscape:connector-curvature="0" />
	<path style="fill:none;stroke:red;stroke-width:1px;stroke-linecap:butt;stroke-linejoin:miter;stroke-opacity:1" d="M 560.208,264.902 586.012,279.237 z" id="boundary" inkscape:connector-curvature="0" />
	<path style="fill:none;stroke:red;stroke-width:1px;stroke-linecap:butt;stroke-linejoin:miter;stroke-opacity:1" d="M 565.942,373.85 594.613,385.318 z" id="boundary" inkscape:connector-curvature="0" />
	<path style="fill:none;stroke:red;stroke-width:1px;stroke-linecap:butt;stroke-linejoin:miter;stroke-opacity:1" d="M 586.012,279.237 614.682,290.705 z" id="boundary" inkscape:connector-curvature="0" />
	<path style="fill:none;stroke:red;stroke-width:1px;stroke-linecap:butt;stroke-linejoin:miter;stroke-opacity:1" d="M 594.613,385.318 620.416,399.653 z" id="boundary" inkscape:connector-curvature="0" />
	<path style="fill:none;stroke:red;stroke-width:1px;stroke-linecap:butt;stroke-linejoin:miter;stroke-opacity:1" d="M 614.682,290.705 640.486,305.04 z" id="boundary" inkscape:connector-curvature="0" />
	<path style="fill:none;stroke:red;stroke-width:1px;stroke-linecap:butt;stroke-linejoin:miter;stroke-opacity:1" d="M 620.416,399.653 643.353,419.723 z" id="boundary" inkscape:connector-curvature="0" />
	<path style="fill:none;stroke:red;stroke-width:1px;stroke-linecap:butt;stroke-linejoin:miter;stroke-opacity:1" d="M 640.486,305.04 666.289,319.376 z" id="boundary" inkscape:connector-curvature="0" />
	<path style="fill:none;stroke:red;stroke-width:1px;stroke-linecap:butt;stroke-linejoin:miter;stroke-opacity:1" d="M 643.353,419.723 672.023,422.59 z" id="boundary" inkscape:connector-curvature="0" />
	<path style="fill:none;stroke:red;stroke-width:1px;stroke-linecap:butt;stroke-linejoin:miter;stroke-opacity:1" d="M 666.289,319.376 694.96,327.977 z" id="boundary" inkscape:connector-curvature="0" />
	<path style="fill:none;stroke:red;stroke-width:1px;stroke-linecap:butt;stroke-linejoin:miter;stroke-opacity:1" d="M 672.023,422.59 697.827,436.925 z" id="boundary" inkscape:connector-curvature="0" />
	<path style="fill:none;stroke:red;stroke-width:1px;stroke-linecap:butt;stroke-linejoin:miter;stroke-opacity:1" d="M 694.96,327.977 720.763,342.312 z" id="boundary" inkscape:connector-curvature="0" />
	<path style="fill:none;stroke:red;stroke-width:1px;stroke-linecap:butt;stroke-linejoin:miter;stroke-opacity:1" d="M 697.827,436.925 723.63,451.26 z" id="boundary" inkscape:connector-curvature="0" />
	<path style="fill:none;stroke:red;stroke-width:1px;stroke-linecap:butt;stroke-linejoin:miter;stroke-opacity:1" d="M 720.763,342.312 749.434,348.046 z" id="boundary" inkscape:connector-curvature="0" />
	<path style="fill:none;stroke:red;stroke-width:1px;stroke-linecap:butt;stroke-linejoin:miter;stroke-opacity:1" d="M 723.63,451.26 749.434,465.595 z" id="boundary" inkscape:connector-curvature="0" />
	<path style="fill:none;stroke:red;stroke-width:1px;stroke-linecap:butt;stroke-linejoin:miter;stroke-opacity:1" d="M 749.434,348.046 775.237,362.382 z" id="boundary" inkscape:connector-curvature="0" />
	<path style="fill:none;stroke:red;stroke-width:1px;stroke-linecap:butt;stroke-linejoin:miter;stroke-opacity:1" d="M 749.434,465.595 775.237,479.931 z" id="boundary" inkscape:connector-curvature="0" />
	<path style="fill:none;stroke:red;stroke-width:1px;stroke-linecap:butt;stroke-linejoin:miter;stroke-opacity:1" d="M 775.237,362.382 801.04,376.717 z" id="boundary" inkscape:connector-curvature="0" />
	<path style="fill:none;stroke:red;stroke-width:1px;stroke-linecap:butt;stroke-linejoin:miter;stroke-opacity:1" d="M 775.237,479.931 792.439,502.867 z" id="boundary" inkscape:connector-curvature="0" />
	<path style="fill:none;stroke:red;stroke-width:1px;stroke-linecap:butt;stroke-linejoin:miter;stroke-opacity:1" d="M 792.439,502.867 792.439,531.538 z" id="boundary" inkscape:connector-curvature="0" />
	<path style="fill:none;stroke:red;stroke-width:1px;stroke-linecap:butt;stroke-linejoin:miter;stroke-opacity:1" d="M 792.439,531.538 806.775,557.341 z" id="boundary" inkscape:connector-curvature="0" />
	<path style="fill:none;stroke:red;stroke-width:1px;stroke-linecap:butt;stroke-linejoin:miter;stroke-opacity:1" d="M 801.04,376.717 829.711,376.717 z" id="boundary" inkscape:connector-curvature="0" />
	<path style="fill:none;stroke:red;stroke-width:1px;stroke-linecap:butt;stroke-linejoin:miter;stroke-opacity:1" d="M 806.775,557.341 823.977,580.277 z" id="boundary" inkscape:connector-curvature="0" />
	<path style="fill:none;stroke:red;stroke-width:1px;stroke-linecap:butt;stroke-linejoin:miter;stroke-opacity:1" d="M 823.977,580.277 849.78,594.613 z" id="boundary" inkscape:connector-curvature="0" />
	<path style="fill:none;stroke:red;stroke-width:1px;stroke-linecap:butt;stroke-linejoin:miter;stroke-opacity:1" d="M 829.711,376.717 858.382,376.717 z" id="boundary" inkscape:connector-curvature="0" />
	<path style="fill:none;stroke:red;stroke-width:1px;stroke-linecap:butt;stroke-linejoin:miter;stroke-opacity:1" d="M 849.78,594.613 875.584,608.948 z" id="boundary" inkscape:connector-curvature="0" />
	<path style="fill:none;stroke:red;stroke-width:1px;stroke-linecap:butt;stroke-linejoin:miter;stroke-opacity:1" d="M 858.382,376.717 887.052,376.717 z" id="boundary" inkscape:connector-curvature="0" />
	<path style="fill:none;stroke:red;stroke-width:1px;stroke-linecap:butt;stroke-linejoin:miter;stroke-opacity:1" d="M 866.983,494.266 872.717,522.936 z" id="boundary" inkscape:connector-curvature="0" />
	<path style="fill:none;stroke:red;stroke-width:1px;stroke-linecap:butt;stroke-linejoin:miter;stroke-opacity:1" d="M 866.983,494.266 892.786,479.931 z" id="boundary" inkscape:connector-curvature="0" />
	<path style="fill:none;stroke:red;stroke-width:1px;stroke-linecap:butt;stroke-linejoin:miter;stroke-opacity:1" d="M 872.717,522.936 895.653,543.006 z" id="boundary" inkscape:connector-curvature="0" />
	<path style="fill:none;stroke:red;stroke-width:1px;stroke-linecap:butt;stroke-linejoin:miter;stroke-opacity:1" d="M 875.584,608.948 901.387,623.283 z" id="boundary" inkscape:connector-curvature="0" />
	<path style="fill:none;stroke:red;stroke-width:1px;stroke-linecap:butt;stroke-linejoin:miter;stroke-opacity:1" d="M 887.052,376.717 912.855,391.052 z" id="boundary" inkscape:connector-curvature="0" />
	<path style="fill:none;stroke:red;stroke-width:1px;stroke-linecap:butt;stroke-linejoin:miter;stroke-opacity:1" d="M 892.786,479.931 909.988,502.867 z" id="boundary" inkscape:connector-curvature="0" />
	<path style="fill:none;stroke:red;stroke-width:1px;stroke-linecap:butt;stroke-linejoin:miter;stroke-opacity:1" d="M 895.653,543.006 909.988,568.809 z" id="boundary" inkscape:connector-curvature="0" />
	<path style="fill:none;stroke:red;stroke-width:1px;stroke-linecap:butt;stroke-linejoin:miter;stroke-opacity:1" d="M 909.988,502.867 932.925,522.936 z" id="boundary" inkscape:connector-curvature="0" />
	<path style="fill:none;stroke:red;stroke-width:1px;stroke-linecap:butt;stroke-linejoin:miter;stroke-opacity:1" d="M 912.855,391.052 941.526,391.052 z" id="boundary" inkscape:connector-curvature="0" />
	<path style="fill:none;stroke:red;stroke-width:1px;stroke-linecap:butt;stroke-linejoin:miter;stroke-opacity:1" d="M 932.925,522.936 952.994,545.873 z" id="boundary" inkscape:connector-curvature="0" />
	<path style="fill:none;stroke:red;stroke-width:1px;stroke-linecap:butt;stroke-linejoin:miter;stroke-opacity:1" d="M 941.526,391.052 964.462,411.121 z" id="boundary" inkscape:connector-curvature="0" />
	<path style="fill:none;stroke:red;stroke-width:1px;stroke-linecap:butt;stroke-linejoin:miter;stroke-opacity:1" d="M 952.994,545.873 981.665,551.607 z" id="boundary" inkscape:connector-curvature="0" />
	<path style="fill:none;stroke:red;stroke-width:1px;stroke-linecap:butt;stroke-linejoin:miter;stroke-opacity:1" d="M 964.462,411.121 967.329,439.792 z" id="boundary" inkscape:connector-curvature="0" />
	<path style="fill:none;stroke:red;stroke-width:1px;stroke-linecap:butt;stroke-linejoin:miter;stroke-opacity:1" d="M 967.329,439.792 975.931,468.462 z" id="boundary" inkscape:connector-curvature="0" />
	<path style="fill:none;stroke:red;stroke-width:1px;stroke-linecap:butt;stroke-linejoin:miter;stroke-opacity:1" d="M 975.931,468.462 990.266,494.266 z" id="boundary" inkscape:connector-curvature="0" />
	<path style="fill:none;stroke:red;stroke-width:1px;stroke-linecap:butt;stroke-linejoin:miter;stroke-opacity:1" d="M 981.665,551.607 996,522.936 z" id="boundary" inkscape:connector-curvature="0" />
	<path style="fill:none;stroke:red;stroke-width:1px;stroke-linecap:butt;stroke-linejoin:miter;stroke-opacity:1" d="M 990.266,494.266 996,522.936 z" id="boundary" inkscape:connector-curvature="0" />
	<circle cx="4" cy="127.283" r="4" fill="#0" id="circle0"/>
	<circle cx="4" cy="155.954" r="4" fill="#0" id="circle1"/>
	<circle cx="4" cy="184.624" r="4" fill="#0" id="circle2"/>
	<circle cx="18.3353" cy="210.428" r="4" fill="#0" id="circle3"/>
	<circle cx="32.6705" cy="118.682" r="4" fill="#0" id="circle4"/>
	<circle cx="32.6705" cy="236.231" r="4" fill="#0" id="circle5"/>
	<circle cx="58.474" cy="250.566" r="4" fill="#0" id="circle6"/>
	<circle cx="61.341" cy="118.682" r="4" fill="#0" id="circle7"/>
	<circle cx="75.6763" cy="12.6012" r="4" fill="#0" id="circle8"/>
	<circle cx="75.6763" cy="41.2717" r="4" fill="#0" id="circle9"/>
	<circle cx="84.2775" cy="264.902" r="4" fill="#0" id="circle10"/>
	<circle cx="87.1445" cy="133.017" r="4" fill="#0" id="circle11"/>
	<circle cx="104.347" cy="4" r="4" fill="#0" id="circle12"/>
	<circle cx="104.347" cy="49.8728" r="4" fill="#0" id="circle13"/>
	<circle cx="112.948" cy="264.902" r="4" fill="#0" id="circle14"/>
	<circle cx="115.815" cy="133.017" r="4" fill="#0" id="circle15"/>
	<circle cx="121.549" cy="72.8092" r="4" fill="#0" id="circle16"/>
	<circle cx="133.017" cy="4" r="4" fill="#0" id="circle17"/>
	<circle cx="141.618" cy="118.682" r="4" fill="#0" id="circle18"/>
	<circle cx="141.618" cy="262.035" r="4" fill="#0" id="circle19"/>
	<circle cx="161.688" cy="4" r="4" fill="#0" id="circle20"/>
	<circle cx="170.289" cy="250.566" r="4" fill="#0" id="circle21"/>
	<circle cx="187.491" cy="18.3353" r="4" fill="#0" id="circle22"/>
	<circle cx="196.092" cy="236.231" r="4" fill="#0" id="circle23"/>
	<circle cx="213.295" cy="32.6705" r="4" fill="#0" id="circle24"/>
	<circle cx="224.763" cy="236.231" r="4" fill="#0" id="circle25"/>
	<circle cx="233.364" cy="55.6069" r="4" fill="#0" id="circle26"/>
	<circle cx="236.231" cy="84.2775" r="4" fill="#0" id="circle27"/>
	<circle cx="250.566" cy="110.081" r="4" fill="#0" id="circle28"/>
	<circle cx="253.434" cy="236.231" r="4" fill="#0" id="circle29"/>
	<circle cx="267.769" cy="133.017" r="4" fill="#0" id="circle30"/>
	<circle cx="282.104" cy="244.832" r="4" fill="#0" id="circle31"/>
	<circle cx="293.572" cy="147.353" r="4" fill="#0" id="circle32"/>
	<circle cx="307.908" cy="259.168" r="4" fill="#0" id="circle33"/>
	<circle cx="319.376" cy="161.688" r="4" fill="#0" id="circle34"/>
	<circle cx="336.578" cy="264.902" r="4" fill="#0" id="circle35"/>
	<circle cx="348.046" cy="167.422" r="4" fill="#0" id="circle36"/>
	<circle cx="362.382" cy="279.237" r="4" fill="#0" id="circle37"/>
	<circle cx="373.85" cy="181.757" r="4" fill="#0" id="circle38"/>
	<circle cx="388.185" cy="293.572" r="4" fill="#0" id="circle39"/>
	<circle cx="402.52" cy="193.225" r="4" fill="#0" id="circle40"/>
	<circle cx="416.855" cy="293.572" r="4" fill="#0" id="circle41"/>
	<circle cx="431.191" cy="204.694" r="4" fill="#0" id="circle42"/>
	<circle cx="442.659" cy="307.908" r="4" fill="#0" id="circle43"/>
	<circle cx="456.994" cy="219.029" r="4" fill="#0" id="circle44"/>
	<circle cx="468.462" cy="322.243" r="4" fill="#0" id="circle45"/>
	<circle cx="482.798" cy="233.364" r="4" fill="#0" id="circle46"/>
	<circle cx="494.266" cy="336.578" r="4" fill="#0" id="circle47"/>
	<circle cx="508.601" cy="247.699" r="4" fill="#0" id="circle48"/>
	<circle cx="520.069" cy="350.913" r="4" fill="#0" id="circle49"/>
	<circle cx="537.272" cy="247.699" r="4" fill="#0" id="circle50"/>
	<circle cx="548.74" cy="350.913" r="4" fill="#0" id="circle51"/>
	<circle cx="560.208" cy="264.902" r="4" fill="#0" id="circle52"/>
	<circle cx="565.942" cy="373.85" r="4" fill="#0" id="circle53"/>
	<circle cx="586.012" cy="279.237" r="4" fill="#0" id="circle54"/>
	<circle cx="594.613" cy="385.318" r="4" fill="#0" id="circle55"/>
	<circle cx="614.682" cy="290.705" r="4" fill="#0" id="circle56"/>
	<circle cx="620.416" cy="399.653" r="4" fill="#0" id="circle57"/>
	<circle cx="640.486" cy="305.04" r="4" fill="#0" id="circle58"/>
	<circle cx="643.353" cy="419.723" r="4" fill="#0" id="circle59"/>
	<circle cx="666.289" cy="319.376" r="4" fill="#0" id="circle60"/>
	<circle cx="672.023" cy="422.59" r="4" fill="#0" id="circle61"/>
	<circle cx="694.96" cy="327.977" r="4" fill="#0" id="circle62"/>
	<circle cx="697.827" cy="436.925" r="4" fill="#0" id="circle63"/>
	<circle cx="720.763" cy="342.312" r="4" fill="#0" id="circle64"/>
	<circle cx="723.63" cy="451.26" r="4" fill="#0" id="circle65"/>
	<circle cx="749.434" cy="348.046" r="4" fill="#0" id="circle66"/>
	<circle cx="749.434" cy="465.595" r="4" fill="#0" id="circle67"/>
	<circle cx="775.237" cy="362.382" r="4" fill="#0" id="circle68"/>
	<circle cx="775.237" cy="479.931" r="4" fill="#0" id="circle69"/>
	<circle cx="792.439" cy="502.867" r="4" fill="#0" id="circle70"/>
	<circle cx="792.439" cy="531.538" r="4" fill="#0" id="circle71"/>
	<circle cx="801.04" cy="376.717" r="4" fill="#0" id="circle72"/>
	<circle cx="806.775" cy="557.341" r="4" fill="#0" id="circle73"/>
	<circle cx="823.977" cy="580.277" r="4" fill="#0" id="circle74"/>
	<circle cx="829.711" cy="376.717" r="4" fill="#0" id="circle75"/>
	<circle cx="849.78" cy="594.613" r="4" fill="#0" id="circle76"/>
	<circle cx="858.382" cy="376.717" r="4" fill="#0" id="circle77"/>
	<circle cx="866.983" cy="494.266" r="4" fill="#0" id="circle78"/>
	<circle cx="872.717" cy="522.936" r="4" fill="#0" id="circle79"/>
	<circle cx="875.584" cy="608.948" r="4" fill="#0" id="circle80"/>
	<circle cx="887.052" cy="376.717" r="4" fill="#0" id="circle81"/>
	<circle cx="892.786" cy="479.931" r="4" fill="#0" id="circle82"/>
	<circle cx="895.653" cy="543.006" r="4" fill="#0" id="circle83"/>
	<circle cx="901.387" cy="623.283" r="4" fill="#0" id="circle84"/>
	<circle cx="909.988" cy="502.867" r="4" fill="#0" id="circle85"/>
	<circle cx="909.988" cy="568.809" r="4" fill="#0" id="circle86"/>
	<circle cx="912.855" cy="391.052" r="4" fill="#0" id="circle87"/>
	<circle cx="932.925" cy="522.936" r="4" fill="#0" id="circle88"/>
	<circle cx="941.526" cy="391.052" r="4" fill="#0" id="circle89"/>
	<circle cx="952.994" cy="545.873" r="4" fill="#0" id="circle90"/>
	<circle cx="964.462" cy="411.121" r="4" fill="#0" id="circle91"/>
	<circle cx="967.329" cy="439.792" r="4" fill="#0" id="circle92"/>
	<circle cx="975.931" cy="468.462" r="4" fill="#0" id="circle93"/>
	<circle cx="981.665" cy="551.607" r="4" fill="#0" id="circle94"/>
	<circle cx="990.266" cy="494.266" r="4" fill="#0" id="circle95"/>
	<circle cx="996" cy="522.936" r="4" fill="#0" id="circle96"/>
	</g>
</svg>