<?xml version="1.0" encoding="UTF-8" standalone="no"?>
<!-- Created with CurveBenchmark -->
<svg
	xmlns:dc="http://purl.org/dc/elements/1.1/"
	xmlns:cc="http://creativecommons.org/ns#"
	xmlns:rdf="http://www.w3.org/1999/02/22-rdf-syntax-ns#"
	xmlns:svg="http://www.w3.org/2000/svg"
	xmlns="http://www.w3.org/2000/svg"
	xmlns:sodipodi="http://sodipodi.sourceforge.net/DTD/sodipodi-0.dtd"
	xmlns:inkscape="http://www.inkscape.org/namespaces/inkscape"
	width="1000"
	height="1000"
	id="svg2"
	version="1.1"
	sodipodi:docname="manifold/vicur-face-13.png.txt">
<defs
	id="defs4" />
<metadata
	id="metadata7">
	<rdf:RDF>
		<cc:Work
			rdf:about="">
			<dc:format>image/svg+xml</dc:format>
			<dc:type
				rdf:resource="http://purl.org/dc/dcmitype/StillImage" />
			<dc:title></dc:title>
		</cc:Work>
	</rdf:RDF>
</metadata>
<g
	inkscape:label="Layer 1"
	inkscape:groupmode="layer"
	id="layer1">
	<path style="fill:none;stroke:red;stroke-width:1px;stroke-linecap:butt;stroke-linejoin:miter;stroke-opacity:1" d="M 12.5745,519.128 15.8723,525.064 z" id="boundary" inkscape:connector-curvature="0" />
	<path style="fill:none;stroke:red;stroke-width:1px;stroke-linecap:butt;stroke-linejoin:miter;stroke-opacity:1" d="M 15.8723,525.064 20.4894,530.34 z" id="boundary" inkscape:connector-curvature="0" />
	<path style="fill:none;stroke:red;stroke-width:1px;stroke-linecap:butt;stroke-linejoin:miter;stroke-opacity:1" d="M 20.4894,530.34 23.7872,536.277 z" id="boundary" inkscape:connector-curvature="0" />
	<path style="fill:none;stroke:red;stroke-width:1px;stroke-linecap:butt;stroke-linejoin:miter;stroke-opacity:1" d="M 23.7872,536.277 27.0851,542.213 z" id="boundary" inkscape:connector-curvature="0" />
	<path style="fill:none;stroke:red;stroke-width:1px;stroke-linecap:butt;stroke-linejoin:miter;stroke-opacity:1" d="M 27.0851,542.213 31.0426,547.489 z" id="boundary" inkscape:connector-curvature="0" />
	<path style="fill:none;stroke:red;stroke-width:1px;stroke-linecap:butt;stroke-linejoin:miter;stroke-opacity:1" d="M 31.0426,547.489 34.3404,553.426 z" id="boundary" inkscape:connector-curvature="0" />
	<path style="fill:none;stroke:red;stroke-width:1px;stroke-linecap:butt;stroke-linejoin:miter;stroke-opacity:1" d="M 47.5319,583.766 52.8085,588.383 z" id="boundary" inkscape:connector-curvature="0" />
	<path style="fill:none;stroke:red;stroke-width:1px;stroke-linecap:butt;stroke-linejoin:miter;stroke-opacity:1" d="M 52.8085,588.383 56.766,593.66 z" id="boundary" inkscape:connector-curvature="0" />
	<path style="fill:none;stroke:red;stroke-width:1px;stroke-linecap:butt;stroke-linejoin:miter;stroke-opacity:1" d="M 56.766,593.66 60.0638,599.596 z" id="boundary" inkscape:connector-curvature="0" />
	<path style="fill:none;stroke:red;stroke-width:1px;stroke-linecap:butt;stroke-linejoin:miter;stroke-opacity:1" d="M 60.0638,599.596 64.0213,604.872 z" id="boundary" inkscape:connector-curvature="0" />
	<path style="fill:none;stroke:red;stroke-width:1px;stroke-linecap:butt;stroke-linejoin:miter;stroke-opacity:1" d="M 64.0213,604.872 69.9574,608.17 z" id="boundary" inkscape:connector-curvature="0" />
	<path style="fill:none;stroke:red;stroke-width:1px;stroke-linecap:butt;stroke-linejoin:miter;stroke-opacity:1" d="M 69.9574,170.872 75.234,165.596 z" id="boundary" inkscape:connector-curvature="0" />
	<path style="fill:none;stroke:red;stroke-width:1px;stroke-linecap:butt;stroke-linejoin:miter;stroke-opacity:1" d="M 69.9574,608.17 73.9149,613.447 z" id="boundary" inkscape:connector-curvature="0" />
	<path style="fill:none;stroke:red;stroke-width:1px;stroke-linecap:butt;stroke-linejoin:miter;stroke-opacity:1" d="M 73.9149,613.447 80.5106,614.766 z" id="boundary" inkscape:connector-curvature="0" />
	<path style="fill:none;stroke:red;stroke-width:1px;stroke-linecap:butt;stroke-linejoin:miter;stroke-opacity:1" d="M 75.234,165.596 81.8298,152.404 z" id="boundary" inkscape:connector-curvature="0" />
	<path style="fill:none;stroke:red;stroke-width:1px;stroke-linecap:butt;stroke-linejoin:miter;stroke-opacity:1" d="M 80.5106,614.766 86.4468,618.064 z" id="boundary" inkscape:connector-curvature="0" />
	<path style="fill:none;stroke:red;stroke-width:1px;stroke-linecap:butt;stroke-linejoin:miter;stroke-opacity:1" d="M 81.8298,152.404 86.4468,144.489 z" id="boundary" inkscape:connector-curvature="0" />
	<path style="fill:none;stroke:red;stroke-width:1px;stroke-linecap:butt;stroke-linejoin:miter;stroke-opacity:1" d="M 86.4468,144.489 89.7447,137.894 z" id="boundary" inkscape:connector-curvature="0" />
	<path style="fill:none;stroke:red;stroke-width:1px;stroke-linecap:butt;stroke-linejoin:miter;stroke-opacity:1" d="M 86.4468,618.064 92.383,621.362 z" id="boundary" inkscape:connector-curvature="0" />
	<path style="fill:none;stroke:red;stroke-width:1px;stroke-linecap:butt;stroke-linejoin:miter;stroke-opacity:1" d="M 92.383,621.362 98.3191,624.66 z" id="boundary" inkscape:connector-curvature="0" />
	<path style="fill:none;stroke:red;stroke-width:1px;stroke-linecap:butt;stroke-linejoin:miter;stroke-opacity:1" d="M 96.3404,124.702 101.617,119.426 z" id="boundary" inkscape:connector-curvature="0" />
	<path style="fill:none;stroke:red;stroke-width:1px;stroke-linecap:butt;stroke-linejoin:miter;stroke-opacity:1" d="M 98.3191,624.66 102.936,629.936 z" id="boundary" inkscape:connector-curvature="0" />
	<path style="fill:none;stroke:red;stroke-width:1px;stroke-linecap:butt;stroke-linejoin:miter;stroke-opacity:1" d="M 101.617,119.426 106.894,114.149 z" id="boundary" inkscape:connector-curvature="0" />
	<path style="fill:none;stroke:red;stroke-width:1px;stroke-linecap:butt;stroke-linejoin:miter;stroke-opacity:1" d="M 102.936,629.936 103.596,636.532 z" id="boundary" inkscape:connector-curvature="0" />
	<path style="fill:none;stroke:red;stroke-width:1px;stroke-linecap:butt;stroke-linejoin:miter;stroke-opacity:1" d="M 103.596,636.532 108.872,641.149 z" id="boundary" inkscape:connector-curvature="0" />
	<path style="fill:none;stroke:red;stroke-width:1px;stroke-linecap:butt;stroke-linejoin:miter;stroke-opacity:1" d="M 106.894,114.149 110.191,107.553 z" id="boundary" inkscape:connector-curvature="0" />
	<path style="fill:none;stroke:red;stroke-width:1px;stroke-linecap:butt;stroke-linejoin:miter;stroke-opacity:1" d="M 108.872,641.149 112.83,646.426 z" id="boundary" inkscape:connector-curvature="0" />
	<path style="fill:none;stroke:red;stroke-width:1px;stroke-linecap:butt;stroke-linejoin:miter;stroke-opacity:1" d="M 110.191,107.553 115.468,102.936 z" id="boundary" inkscape:connector-curvature="0" />
	<path style="fill:none;stroke:red;stroke-width:1px;stroke-linecap:butt;stroke-linejoin:miter;stroke-opacity:1" d="M 112.83,646.426 113.489,653.021 z" id="boundary" inkscape:connector-curvature="0" />
	<path style="fill:none;stroke:red;stroke-width:1px;stroke-linecap:butt;stroke-linejoin:miter;stroke-opacity:1" d="M 113.489,653.021 118.766,657.638 z" id="boundary" inkscape:connector-curvature="0" />
	<path style="fill:none;stroke:red;stroke-width:1px;stroke-linecap:butt;stroke-linejoin:miter;stroke-opacity:1" d="M 115.468,102.936 120.085,97.6596 z" id="boundary" inkscape:connector-curvature="0" />
	<path style="fill:none;stroke:red;stroke-width:1px;stroke-linecap:butt;stroke-linejoin:miter;stroke-opacity:1" d="M 118.766,657.638 119.426,664.234 z" id="boundary" inkscape:connector-curvature="0" />
	<path style="fill:none;stroke:red;stroke-width:1px;stroke-linecap:butt;stroke-linejoin:miter;stroke-opacity:1" d="M 119.426,664.234 123.383,669.511 z" id="boundary" inkscape:connector-curvature="0" />
	<path style="fill:none;stroke:red;stroke-width:1px;stroke-linecap:butt;stroke-linejoin:miter;stroke-opacity:1" d="M 120.085,97.6596 125.362,93.0426 z" id="boundary" inkscape:connector-curvature="0" />
	<path style="fill:none;stroke:red;stroke-width:1px;stroke-linecap:butt;stroke-linejoin:miter;stroke-opacity:1" d="M 123.383,669.511 128.66,674.128 z" id="boundary" inkscape:connector-curvature="0" />
	<path style="fill:none;stroke:red;stroke-width:1px;stroke-linecap:butt;stroke-linejoin:miter;stroke-opacity:1" d="M 125.362,93.0426 131.298,89.7447 z" id="boundary" inkscape:connector-curvature="0" />
	<path style="fill:none;stroke:red;stroke-width:1px;stroke-linecap:butt;stroke-linejoin:miter;stroke-opacity:1" d="M 126.021,813.957 126.021,820.553 z" id="boundary" inkscape:connector-curvature="0" />
	<path style="fill:none;stroke:red;stroke-width:1px;stroke-linecap:butt;stroke-linejoin:miter;stroke-opacity:1" d="M 126.021,820.553 126.021,827.149 z" id="boundary" inkscape:connector-curvature="0" />
	<path style="fill:none;stroke:red;stroke-width:1px;stroke-linecap:butt;stroke-linejoin:miter;stroke-opacity:1" d="M 126.021,827.149 126.021,833.745 z" id="boundary" inkscape:connector-curvature="0" />
	<path style="fill:none;stroke:red;stroke-width:1px;stroke-linecap:butt;stroke-linejoin:miter;stroke-opacity:1" d="M 126.021,833.745 131.298,838.362 z" id="boundary" inkscape:connector-curvature="0" />
	<path style="fill:none;stroke:red;stroke-width:1px;stroke-linecap:butt;stroke-linejoin:miter;stroke-opacity:1" d="M 131.298,89.7447 136.574,84.4681 z" id="boundary" inkscape:connector-curvature="0" />
	<path style="fill:none;stroke:red;stroke-width:1px;stroke-linecap:butt;stroke-linejoin:miter;stroke-opacity:1" d="M 131.298,838.362 135.915,843.638 z" id="boundary" inkscape:connector-curvature="0" />
	<path style="fill:none;stroke:red;stroke-width:1px;stroke-linecap:butt;stroke-linejoin:miter;stroke-opacity:1" d="M 135.915,843.638 139.213,849.574 z" id="boundary" inkscape:connector-curvature="0" />
	<path style="fill:none;stroke:red;stroke-width:1px;stroke-linecap:butt;stroke-linejoin:miter;stroke-opacity:1" d="M 139.213,849.574 142.511,855.511 z" id="boundary" inkscape:connector-curvature="0" />
	<path style="fill:none;stroke:red;stroke-width:1px;stroke-linecap:butt;stroke-linejoin:miter;stroke-opacity:1" d="M 142.511,855.511 142.511,862.106 z" id="boundary" inkscape:connector-curvature="0" />
	<path style="fill:none;stroke:red;stroke-width:1px;stroke-linecap:butt;stroke-linejoin:miter;stroke-opacity:1" d="M 155.702,892.447 159,898.383 z" id="boundary" inkscape:connector-curvature="0" />
	<path style="fill:none;stroke:red;stroke-width:1px;stroke-linecap:butt;stroke-linejoin:miter;stroke-opacity:1" d="M 159,898.383 162.957,903.66 z" id="boundary" inkscape:connector-curvature="0" />
	<path style="fill:none;stroke:red;stroke-width:1px;stroke-linecap:butt;stroke-linejoin:miter;stroke-opacity:1" d="M 162.957,71.2766 169.553,67.9787 z" id="boundary" inkscape:connector-curvature="0" />
	<path style="fill:none;stroke:red;stroke-width:1px;stroke-linecap:butt;stroke-linejoin:miter;stroke-opacity:1" d="M 162.957,903.66 168.234,908.277 z" id="boundary" inkscape:connector-curvature="0" />
	<path style="fill:none;stroke:red;stroke-width:1px;stroke-linecap:butt;stroke-linejoin:miter;stroke-opacity:1" d="M 168.234,908.277 172.851,913.553 z" id="boundary" inkscape:connector-curvature="0" />
	<path style="fill:none;stroke:red;stroke-width:1px;stroke-linecap:butt;stroke-linejoin:miter;stroke-opacity:1" d="M 169.553,67.9787 174.83,63.3617 z" id="boundary" inkscape:connector-curvature="0" />
	<path style="fill:none;stroke:red;stroke-width:1px;stroke-linecap:butt;stroke-linejoin:miter;stroke-opacity:1" d="M 172.851,913.553 178.128,918.17 z" id="boundary" inkscape:connector-curvature="0" />
	<path style="fill:none;stroke:red;stroke-width:1px;stroke-linecap:butt;stroke-linejoin:miter;stroke-opacity:1" d="M 174.83,63.3617 179.447,58.0851 z" id="boundary" inkscape:connector-curvature="0" />
	<path style="fill:none;stroke:red;stroke-width:1px;stroke-linecap:butt;stroke-linejoin:miter;stroke-opacity:1" d="M 178.128,918.17 182.745,923.447 z" id="boundary" inkscape:connector-curvature="0" />
	<path style="fill:none;stroke:red;stroke-width:1px;stroke-linecap:butt;stroke-linejoin:miter;stroke-opacity:1" d="M 179.447,58.0851 184.723,53.4681 z" id="boundary" inkscape:connector-curvature="0" />
	<path style="fill:none;stroke:red;stroke-width:1px;stroke-linecap:butt;stroke-linejoin:miter;stroke-opacity:1" d="M 182.745,923.447 188.021,928.064 z" id="boundary" inkscape:connector-curvature="0" />
	<path style="fill:none;stroke:red;stroke-width:1px;stroke-linecap:butt;stroke-linejoin:miter;stroke-opacity:1" d="M 188.021,928.064 192.638,933.34 z" id="boundary" inkscape:connector-curvature="0" />
	<path style="fill:none;stroke:red;stroke-width:1px;stroke-linecap:butt;stroke-linejoin:miter;stroke-opacity:1" d="M 192.638,933.34 197.915,937.957 z" id="boundary" inkscape:connector-curvature="0" />
	<path style="fill:none;stroke:red;stroke-width:1px;stroke-linecap:butt;stroke-linejoin:miter;stroke-opacity:1" d="M 197.915,937.957 203.851,941.255 z" id="boundary" inkscape:connector-curvature="0" />
	<path style="fill:none;stroke:red;stroke-width:1px;stroke-linecap:butt;stroke-linejoin:miter;stroke-opacity:1" d="M 203.851,941.255 208.468,946.532 z" id="boundary" inkscape:connector-curvature="0" />
	<path style="fill:none;stroke:red;stroke-width:1px;stroke-linecap:butt;stroke-linejoin:miter;stroke-opacity:1" d="M 208.468,946.532 211.766,952.468 z" id="boundary" inkscape:connector-curvature="0" />
	<path style="fill:none;stroke:red;stroke-width:1px;stroke-linecap:butt;stroke-linejoin:miter;stroke-opacity:1" d="M 211.766,952.468 217.043,957.085 z" id="boundary" inkscape:connector-curvature="0" />
	<path style="fill:none;stroke:red;stroke-width:1px;stroke-linecap:butt;stroke-linejoin:miter;stroke-opacity:1" d="M 217.043,957.085 221.66,962.362 z" id="boundary" inkscape:connector-curvature="0" />
	<path style="fill:none;stroke:red;stroke-width:1px;stroke-linecap:butt;stroke-linejoin:miter;stroke-opacity:1" d="M 221.66,962.362 228.255,964.34 z" id="boundary" inkscape:connector-curvature="0" />
	<path style="fill:none;stroke:red;stroke-width:1px;stroke-linecap:butt;stroke-linejoin:miter;stroke-opacity:1" d="M 233.532,30.383 240.128,30.383 z" id="boundary" inkscape:connector-curvature="0" />
	<path style="fill:none;stroke:red;stroke-width:1px;stroke-linecap:butt;stroke-linejoin:miter;stroke-opacity:1" d="M 238.809,972.255 245.404,974.234 z" id="boundary" inkscape:connector-curvature="0" />
	<path style="fill:none;stroke:red;stroke-width:1px;stroke-linecap:butt;stroke-linejoin:miter;stroke-opacity:1" d="M 240.128,30.383 246.064,27.0851 z" id="boundary" inkscape:connector-curvature="0" />
	<path style="fill:none;stroke:red;stroke-width:1px;stroke-linecap:butt;stroke-linejoin:miter;stroke-opacity:1" d="M 245.404,974.234 251.34,977.532 z" id="boundary" inkscape:connector-curvature="0" />
	<path style="fill:none;stroke:red;stroke-width:1px;stroke-linecap:butt;stroke-linejoin:miter;stroke-opacity:1" d="M 246.064,27.0851 252,23.7872 z" id="boundary" inkscape:connector-curvature="0" />
	<path style="fill:none;stroke:red;stroke-width:1px;stroke-linecap:butt;stroke-linejoin:miter;stroke-opacity:1" d="M 251.34,977.532 257.277,980.83 z" id="boundary" inkscape:connector-curvature="0" />
	<path style="fill:none;stroke:red;stroke-width:1px;stroke-linecap:butt;stroke-linejoin:miter;stroke-opacity:1" d="M 257.277,980.83 269.809,984.128 z" id="boundary" inkscape:connector-curvature="0" />
	<path style="fill:none;stroke:red;stroke-width:1px;stroke-linecap:butt;stroke-linejoin:miter;stroke-opacity:1" d="M 269.809,984.128 276.404,986.766 z" id="boundary" inkscape:connector-curvature="0" />
	<path style="fill:none;stroke:red;stroke-width:1px;stroke-linecap:butt;stroke-linejoin:miter;stroke-opacity:1" d="M 276.404,986.766 288.936,992.702 z" id="boundary" inkscape:connector-curvature="0" />
	<path style="fill:none;stroke:red;stroke-width:1px;stroke-linecap:butt;stroke-linejoin:miter;stroke-opacity:1" d="M 277.723,12.5745 284.319,9.2766 z" id="boundary" inkscape:connector-curvature="0" />
	<path style="fill:none;stroke:red;stroke-width:1px;stroke-linecap:butt;stroke-linejoin:miter;stroke-opacity:1" d="M 284.319,9.2766 290.915,7.29787 z" id="boundary" inkscape:connector-curvature="0" />
	<path style="fill:none;stroke:red;stroke-width:1px;stroke-linecap:butt;stroke-linejoin:miter;stroke-opacity:1" d="M 288.936,992.702 295.532,994.021 z" id="boundary" inkscape:connector-curvature="0" />
	<path style="fill:none;stroke:red;stroke-width:1px;stroke-linecap:butt;stroke-linejoin:miter;stroke-opacity:1" d="M 340.383,978.851 345.66,974.234 z" id="boundary" inkscape:connector-curvature="0" />
	<path style="fill:none;stroke:red;stroke-width:1px;stroke-linecap:butt;stroke-linejoin:miter;stroke-opacity:1" d="M 345.66,974.234 351.596,970.936 z" id="boundary" inkscape:connector-curvature="0" />
	<path style="fill:none;stroke:red;stroke-width:1px;stroke-linecap:butt;stroke-linejoin:miter;stroke-opacity:1" d="M 368.085,10.5957 374.681,10.5957 z" id="boundary" inkscape:connector-curvature="0" />
	<path style="fill:none;stroke:red;stroke-width:1px;stroke-linecap:butt;stroke-linejoin:miter;stroke-opacity:1" d="M 374.681,10.5957 380.617,13.8936 z" id="boundary" inkscape:connector-curvature="0" />
	<path style="fill:none;stroke:red;stroke-width:1px;stroke-linecap:butt;stroke-linejoin:miter;stroke-opacity:1" d="M 380.617,13.8936 387.213,13.8936 z" id="boundary" inkscape:connector-curvature="0" />
	<path style="fill:none;stroke:red;stroke-width:1px;stroke-linecap:butt;stroke-linejoin:miter;stroke-opacity:1" d="M 380.617,951.149 386.553,947.851 z" id="boundary" inkscape:connector-curvature="0" />
	<path style="fill:none;stroke:red;stroke-width:1px;stroke-linecap:butt;stroke-linejoin:miter;stroke-opacity:1" d="M 386.553,947.851 391.83,943.894 z" id="boundary" inkscape:connector-curvature="0" />
	<path style="fill:none;stroke:red;stroke-width:1px;stroke-linecap:butt;stroke-linejoin:miter;stroke-opacity:1" d="M 387.213,13.8936 393.149,17.1915 z" id="boundary" inkscape:connector-curvature="0" />
	<path style="fill:none;stroke:red;stroke-width:1px;stroke-linecap:butt;stroke-linejoin:miter;stroke-opacity:1" d="M 391.83,943.894 397.106,937.957 z" id="boundary" inkscape:connector-curvature="0" />
	<path style="fill:none;stroke:red;stroke-width:1px;stroke-linecap:butt;stroke-linejoin:miter;stroke-opacity:1" d="M 405.021,23.7872 409.638,29.0638 z" id="boundary" inkscape:connector-curvature="0" />
	<path style="fill:none;stroke:red;stroke-width:1px;stroke-linecap:butt;stroke-linejoin:miter;stroke-opacity:1" d="M 409.638,29.0638 414.915,33.6809 z" id="boundary" inkscape:connector-curvature="0" />
	<path style="fill:none;stroke:red;stroke-width:1px;stroke-linecap:butt;stroke-linejoin:miter;stroke-opacity:1" d="M 410.298,931.362 415.574,926.745 z" id="boundary" inkscape:connector-curvature="0" />
	<path style="fill:none;stroke:red;stroke-width:1px;stroke-linecap:butt;stroke-linejoin:miter;stroke-opacity:1" d="M 414.915,33.6809 416.894,40.2766 z" id="boundary" inkscape:connector-curvature="0" />
	<path style="fill:none;stroke:red;stroke-width:1px;stroke-linecap:butt;stroke-linejoin:miter;stroke-opacity:1" d="M 415.574,926.745 422.17,923.447 z" id="boundary" inkscape:connector-curvature="0" />
	<path style="fill:none;stroke:red;stroke-width:1px;stroke-linecap:butt;stroke-linejoin:miter;stroke-opacity:1" d="M 416.894,40.2766 420.191,46.2128 z" id="boundary" inkscape:connector-curvature="0" />
	<path style="fill:none;stroke:red;stroke-width:1px;stroke-linecap:butt;stroke-linejoin:miter;stroke-opacity:1" d="M 420.191,46.2128 425.468,50.1702 z" id="boundary" inkscape:connector-curvature="0" />
	<path style="fill:none;stroke:red;stroke-width:1px;stroke-linecap:butt;stroke-linejoin:miter;stroke-opacity:1" d="M 422.17,923.447 426.787,918.17 z" id="boundary" inkscape:connector-curvature="0" />
	<path style="fill:none;stroke:red;stroke-width:1px;stroke-linecap:butt;stroke-linejoin:miter;stroke-opacity:1" d="M 425.468,50.1702 432.064,50.1702 z" id="boundary" inkscape:connector-curvature="0" />
	<path style="fill:none;stroke:red;stroke-width:1px;stroke-linecap:butt;stroke-linejoin:miter;stroke-opacity:1" d="M 439.979,911.574 446.574,908.277 z" id="boundary" inkscape:connector-curvature="0" />
	<path style="fill:none;stroke:red;stroke-width:1px;stroke-linecap:butt;stroke-linejoin:miter;stroke-opacity:1" d="M 446.574,908.277 451.851,903.66 z" id="boundary" inkscape:connector-curvature="0" />
	<path style="fill:none;stroke:red;stroke-width:1px;stroke-linecap:butt;stroke-linejoin:miter;stroke-opacity:1" d="M 451.851,903.66 456.468,898.383 z" id="boundary" inkscape:connector-curvature="0" />
	<path style="fill:none;stroke:red;stroke-width:1px;stroke-linecap:butt;stroke-linejoin:miter;stroke-opacity:1" d="M 458.447,50.1702 465.043,50.1702 z" id="boundary" inkscape:connector-curvature="0" />
	<path style="fill:none;stroke:red;stroke-width:1px;stroke-linecap:butt;stroke-linejoin:miter;stroke-opacity:1" d="M 465.043,50.1702 470.979,53.4681 z" id="boundary" inkscape:connector-curvature="0" />
	<path style="fill:none;stroke:red;stroke-width:1px;stroke-linecap:butt;stroke-linejoin:miter;stroke-opacity:1" d="M 470.979,53.4681 476.915,56.766 z" id="boundary" inkscape:connector-curvature="0" />
	<path style="fill:none;stroke:red;stroke-width:1px;stroke-linecap:butt;stroke-linejoin:miter;stroke-opacity:1" d="M 476.915,56.766 482.851,60.0638 z" id="boundary" inkscape:connector-curvature="0" />
	<path style="fill:none;stroke:red;stroke-width:1px;stroke-linecap:butt;stroke-linejoin:miter;stroke-opacity:1" d="M 492.745,789.553 492.745,796.149 z" id="boundary" inkscape:connector-curvature="0" />
	<path style="fill:none;stroke:red;stroke-width:1px;stroke-linecap:butt;stroke-linejoin:miter;stroke-opacity:1" d="M 492.745,789.553 496.043,776.362 z" id="boundary" inkscape:connector-curvature="0" />
	<path style="fill:none;stroke:red;stroke-width:1px;stroke-linecap:butt;stroke-linejoin:miter;stroke-opacity:1" d="M 495.383,64.6809 499.34,69.9574 z" id="boundary" inkscape:connector-curvature="0" />
	<path style="fill:none;stroke:red;stroke-width:1px;stroke-linecap:butt;stroke-linejoin:miter;stroke-opacity:1" d="M 496.043,776.362 499.34,766.468 z" id="boundary" inkscape:connector-curvature="0" />
	<path style="fill:none;stroke:red;stroke-width:1px;stroke-linecap:butt;stroke-linejoin:miter;stroke-opacity:1" d="M 499.34,69.9574 504.617,73.9149 z" id="boundary" inkscape:connector-curvature="0" />
	<path style="fill:none;stroke:red;stroke-width:1px;stroke-linecap:butt;stroke-linejoin:miter;stroke-opacity:1" d="M 499.34,740.085 504.617,735.468 z" id="boundary" inkscape:connector-curvature="0" />
	<path style="fill:none;stroke:red;stroke-width:1px;stroke-linecap:butt;stroke-linejoin:miter;stroke-opacity:1" d="M 499.34,746.681 499.34,753.277 z" id="boundary" inkscape:connector-curvature="0" />
	<path style="fill:none;stroke:red;stroke-width:1px;stroke-linecap:butt;stroke-linejoin:miter;stroke-opacity:1" d="M 499.34,753.277 499.34,766.468 z" id="boundary" inkscape:connector-curvature="0" />
	<path style="fill:none;stroke:red;stroke-width:1px;stroke-linecap:butt;stroke-linejoin:miter;stroke-opacity:1" d="M 504.617,73.9149 509.234,79.1915 z" id="boundary" inkscape:connector-curvature="0" />
	<path style="fill:none;stroke:red;stroke-width:1px;stroke-linecap:butt;stroke-linejoin:miter;stroke-opacity:1" d="M 504.617,735.468 509.234,730.191 z" id="boundary" inkscape:connector-curvature="0" />
	<path style="fill:none;stroke:red;stroke-width:1px;stroke-linecap:butt;stroke-linejoin:miter;stroke-opacity:1" d="M 509.234,79.1915 514.511,83.1489 z" id="boundary" inkscape:connector-curvature="0" />
	<path style="fill:none;stroke:red;stroke-width:1px;stroke-linecap:butt;stroke-linejoin:miter;stroke-opacity:1" d="M 509.234,730.191 514.511,725.574 z" id="boundary" inkscape:connector-curvature="0" />
	<path style="fill:none;stroke:red;stroke-width:1px;stroke-linecap:butt;stroke-linejoin:miter;stroke-opacity:1" d="M 514.511,83.1489 520.447,86.4468 z" id="boundary" inkscape:connector-curvature="0" />
	<path style="fill:none;stroke:red;stroke-width:1px;stroke-linecap:butt;stroke-linejoin:miter;stroke-opacity:1" d="M 514.511,725.574 521.106,712.383 z" id="boundary" inkscape:connector-curvature="0" />
	<path style="fill:none;stroke:red;stroke-width:1px;stroke-linecap:butt;stroke-linejoin:miter;stroke-opacity:1" d="M 520.447,86.4468 526.383,89.7447 z" id="boundary" inkscape:connector-curvature="0" />
	<path style="fill:none;stroke:red;stroke-width:1px;stroke-linecap:butt;stroke-linejoin:miter;stroke-opacity:1" d="M 521.106,712.383 524.404,705.787 z" id="boundary" inkscape:connector-curvature="0" />
	<path style="fill:none;stroke:red;stroke-width:1px;stroke-linecap:butt;stroke-linejoin:miter;stroke-opacity:1" d="M 524.404,705.787 532.319,690.617 z" id="boundary" inkscape:connector-curvature="0" />
	<path style="fill:none;stroke:red;stroke-width:1px;stroke-linecap:butt;stroke-linejoin:miter;stroke-opacity:1" d="M 526.383,89.7447 532.319,93.0426 z" id="boundary" inkscape:connector-curvature="0" />
	<path style="fill:none;stroke:red;stroke-width:1px;stroke-linecap:butt;stroke-linejoin:miter;stroke-opacity:1" d="M 532.319,93.0426 537.596,97 z" id="boundary" inkscape:connector-curvature="0" />
	<path style="fill:none;stroke:red;stroke-width:1px;stroke-linecap:butt;stroke-linejoin:miter;stroke-opacity:1" d="M 532.319,690.617 535.617,680.723 z" id="boundary" inkscape:connector-curvature="0" />
	<path style="fill:none;stroke:red;stroke-width:1px;stroke-linecap:butt;stroke-linejoin:miter;stroke-opacity:1" d="M 535.617,680.723 538.915,670.83 z" id="boundary" inkscape:connector-curvature="0" />
	<path style="fill:none;stroke:red;stroke-width:1px;stroke-linecap:butt;stroke-linejoin:miter;stroke-opacity:1" d="M 537.596,97 542.213,102.277 z" id="boundary" inkscape:connector-curvature="0" />
	<path style="fill:none;stroke:red;stroke-width:1px;stroke-linecap:butt;stroke-linejoin:miter;stroke-opacity:1" d="M 538.915,664.234 538.915,670.83 z" id="boundary" inkscape:connector-curvature="0" />
	<path style="fill:none;stroke:red;stroke-width:1px;stroke-linecap:butt;stroke-linejoin:miter;stroke-opacity:1" d="M 538.915,664.234 542.213,654.34 z" id="boundary" inkscape:connector-curvature="0" />
	<path style="fill:none;stroke:red;stroke-width:1px;stroke-linecap:butt;stroke-linejoin:miter;stroke-opacity:1" d="M 542.213,102.277 547.489,106.894 z" id="boundary" inkscape:connector-curvature="0" />
	<path style="fill:none;stroke:red;stroke-width:1px;stroke-linecap:butt;stroke-linejoin:miter;stroke-opacity:1" d="M 542.213,627.957 542.213,641.149 z" id="boundary" inkscape:connector-curvature="0" />
	<path style="fill:none;stroke:red;stroke-width:1px;stroke-linecap:butt;stroke-linejoin:miter;stroke-opacity:1" d="M 542.213,641.149 542.213,654.34 z" id="boundary" inkscape:connector-curvature="0" />
	<path style="fill:none;stroke:red;stroke-width:1px;stroke-linecap:butt;stroke-linejoin:miter;stroke-opacity:1" d="M 545.511,611.468 550.787,606.851 z" id="boundary" inkscape:connector-curvature="0" />
	<path style="fill:none;stroke:red;stroke-width:1px;stroke-linecap:butt;stroke-linejoin:miter;stroke-opacity:1" d="M 547.489,106.894 552.106,112.17 z" id="boundary" inkscape:connector-curvature="0" />
	<path style="fill:none;stroke:red;stroke-width:1px;stroke-linecap:butt;stroke-linejoin:miter;stroke-opacity:1" d="M 550.787,606.851 554.085,600.255 z" id="boundary" inkscape:connector-curvature="0" />
	<path style="fill:none;stroke:red;stroke-width:1px;stroke-linecap:butt;stroke-linejoin:miter;stroke-opacity:1" d="M 552.106,112.17 555.404,118.106 z" id="boundary" inkscape:connector-curvature="0" />
	<path style="fill:none;stroke:red;stroke-width:1px;stroke-linecap:butt;stroke-linejoin:miter;stroke-opacity:1" d="M 554.085,600.255 558.702,594.979 z" id="boundary" inkscape:connector-curvature="0" />
	<path style="fill:none;stroke:red;stroke-width:1px;stroke-linecap:butt;stroke-linejoin:miter;stroke-opacity:1" d="M 555.404,118.106 555.404,124.702 z" id="boundary" inkscape:connector-curvature="0" />
	<path style="fill:none;stroke:red;stroke-width:1px;stroke-linecap:butt;stroke-linejoin:miter;stroke-opacity:1" d="M 555.404,124.702 560.021,129.979 z" id="boundary" inkscape:connector-curvature="0" />
	<path style="fill:none;stroke:red;stroke-width:1px;stroke-linecap:butt;stroke-linejoin:miter;stroke-opacity:1" d="M 558.702,594.979 564.638,591.681 z" id="boundary" inkscape:connector-curvature="0" />
	<path style="fill:none;stroke:red;stroke-width:1px;stroke-linecap:butt;stroke-linejoin:miter;stroke-opacity:1" d="M 560.021,129.979 563.319,135.915 z" id="boundary" inkscape:connector-curvature="0" />
	<path style="fill:none;stroke:red;stroke-width:1px;stroke-linecap:butt;stroke-linejoin:miter;stroke-opacity:1" d="M 564.638,591.681 569.915,587.723 z" id="boundary" inkscape:connector-curvature="0" />
	<path style="fill:none;stroke:red;stroke-width:1px;stroke-linecap:butt;stroke-linejoin:miter;stroke-opacity:1" d="M 569.915,587.723 578.489,571.894 z" id="boundary" inkscape:connector-curvature="0" />
	<path style="fill:none;stroke:red;stroke-width:1px;stroke-linecap:butt;stroke-linejoin:miter;stroke-opacity:1" d="M 571.894,160.979 571.894,167.574 z" id="boundary" inkscape:connector-curvature="0" />
	<path style="fill:none;stroke:red;stroke-width:1px;stroke-linecap:butt;stroke-linejoin:miter;stroke-opacity:1" d="M 571.894,167.574 575.191,173.511 z" id="boundary" inkscape:connector-curvature="0" />
	<path style="fill:none;stroke:red;stroke-width:1px;stroke-linecap:butt;stroke-linejoin:miter;stroke-opacity:1" d="M 575.191,173.511 575.191,180.106 z" id="boundary" inkscape:connector-curvature="0" />
	<path style="fill:none;stroke:red;stroke-width:1px;stroke-linecap:butt;stroke-linejoin:miter;stroke-opacity:1" d="M 578.489,304.766 581.787,310.702 z" id="boundary" inkscape:connector-curvature="0" />
	<path style="fill:none;stroke:red;stroke-width:1px;stroke-linecap:butt;stroke-linejoin:miter;stroke-opacity:1" d="M 578.489,571.894 581.787,562 z" id="boundary" inkscape:connector-curvature="0" />
	<path style="fill:none;stroke:red;stroke-width:1px;stroke-linecap:butt;stroke-linejoin:miter;stroke-opacity:1" d="M 581.787,310.702 581.787,317.298 z" id="boundary" inkscape:connector-curvature="0" />
	<path style="fill:none;stroke:red;stroke-width:1px;stroke-linecap:butt;stroke-linejoin:miter;stroke-opacity:1" d="M 581.787,542.213 581.787,548.809 z" id="boundary" inkscape:connector-curvature="0" />
	<path style="fill:none;stroke:red;stroke-width:1px;stroke-linecap:butt;stroke-linejoin:miter;stroke-opacity:1" d="M 581.787,542.213 585.085,532.319 z" id="boundary" inkscape:connector-curvature="0" />
	<path style="fill:none;stroke:red;stroke-width:1px;stroke-linecap:butt;stroke-linejoin:miter;stroke-opacity:1" d="M 581.787,548.809 581.787,562 z" id="boundary" inkscape:connector-curvature="0" />
	<path style="fill:none;stroke:red;stroke-width:1px;stroke-linecap:butt;stroke-linejoin:miter;stroke-opacity:1" d="M 585.085,525.723 585.085,532.319 z" id="boundary" inkscape:connector-curvature="0" />
	<path style="fill:none;stroke:red;stroke-width:1px;stroke-linecap:butt;stroke-linejoin:miter;stroke-opacity:1" d="M 585.085,525.723 588.383,515.83 z" id="boundary" inkscape:connector-curvature="0" />
	<path style="fill:none;stroke:red;stroke-width:1px;stroke-linecap:butt;stroke-linejoin:miter;stroke-opacity:1" d="M 588.383,489.447 588.383,502.638 z" id="boundary" inkscape:connector-curvature="0" />
	<path style="fill:none;stroke:red;stroke-width:1px;stroke-linecap:butt;stroke-linejoin:miter;stroke-opacity:1" d="M 588.383,489.447 591.681,474.936 z" id="boundary" inkscape:connector-curvature="0" />
	<path style="fill:none;stroke:red;stroke-width:1px;stroke-linecap:butt;stroke-linejoin:miter;stroke-opacity:1" d="M 588.383,502.638 588.383,515.83 z" id="boundary" inkscape:connector-curvature="0" />
	<path style="fill:none;stroke:red;stroke-width:1px;stroke-linecap:butt;stroke-linejoin:miter;stroke-opacity:1" d="M 591.681,448.553 591.681,461.745 z" id="boundary" inkscape:connector-curvature="0" />
	<path style="fill:none;stroke:red;stroke-width:1px;stroke-linecap:butt;stroke-linejoin:miter;stroke-opacity:1" d="M 591.681,461.745 591.681,474.936 z" id="boundary" inkscape:connector-curvature="0" />
	<circle cx="4" cy="454.489" r="4" fill="#0" id="circle0"/>
	<circle cx="4" cy="461.085" r="4" fill="#0" id="circle1"/>
	<circle cx="4" cy="467.681" r="4" fill="#0" id="circle2"/>
	<circle cx="4" cy="474.277" r="4" fill="#0" id="circle3"/>
	<circle cx="4" cy="480.872" r="4" fill="#0" id="circle4"/>
	<circle cx="4" cy="487.468" r="4" fill="#0" id="circle5"/>
	<circle cx="7.29787" cy="438" r="4" fill="#0" id="circle6"/>
	<circle cx="7.29787" cy="444.596" r="4" fill="#0" id="circle7"/>
	<circle cx="7.29787" cy="493.404" r="4" fill="#0" id="circle8"/>
	<circle cx="7.29787" cy="500" r="4" fill="#0" id="circle9"/>
	<circle cx="7.29787" cy="506.596" r="4" fill="#0" id="circle10"/>
	<circle cx="10.5957" cy="431.404" r="4" fill="#0" id="circle11"/>
	<circle cx="10.5957" cy="512.532" r="4" fill="#0" id="circle12"/>
	<circle cx="12.5745" cy="519.128" r="4" fill="#0" id="circle13"/>
	<circle cx="13.8936" cy="424.809" r="4" fill="#0" id="circle14"/>
	<circle cx="15.8723" cy="525.064" r="4" fill="#0" id="circle15"/>
	<circle cx="19.1702" cy="419.532" r="4" fill="#0" id="circle16"/>
	<circle cx="20.4894" cy="530.34" r="4" fill="#0" id="circle17"/>
	<circle cx="22.4681" cy="412.936" r="4" fill="#0" id="circle18"/>
	<circle cx="23.7872" cy="536.277" r="4" fill="#0" id="circle19"/>
	<circle cx="27.0851" cy="542.213" r="4" fill="#0" id="circle20"/>
	<circle cx="27.7447" cy="407.66" r="4" fill="#0" id="circle21"/>
	<circle cx="31.0426" cy="547.489" r="4" fill="#0" id="circle22"/>
	<circle cx="33.0213" cy="403.043" r="4" fill="#0" id="circle23"/>
	<circle cx="34.3404" cy="553.426" r="4" fill="#0" id="circle24"/>
	<circle cx="38.9574" cy="558.702" r="4" fill="#0" id="circle25"/>
	<circle cx="39.617" cy="403.043" r="4" fill="#0" id="circle26"/>
	<circle cx="40.2766" cy="565.298" r="4" fill="#0" id="circle27"/>
	<circle cx="43.5745" cy="571.234" r="4" fill="#0" id="circle28"/>
	<circle cx="46.2128" cy="403.043" r="4" fill="#0" id="circle29"/>
	<circle cx="46.8723" cy="240.128" r="4" fill="#0" id="circle30"/>
	<circle cx="46.8723" cy="246.723" r="4" fill="#0" id="circle31"/>
	<circle cx="46.8723" cy="253.319" r="4" fill="#0" id="circle32"/>
	<circle cx="46.8723" cy="259.915" r="4" fill="#0" id="circle33"/>
	<circle cx="46.8723" cy="266.511" r="4" fill="#0" id="circle34"/>
	<circle cx="46.8723" cy="273.106" r="4" fill="#0" id="circle35"/>
	<circle cx="46.8723" cy="279.702" r="4" fill="#0" id="circle36"/>
	<circle cx="46.8723" cy="286.298" r="4" fill="#0" id="circle37"/>
	<circle cx="46.8723" cy="292.894" r="4" fill="#0" id="circle38"/>
	<circle cx="46.8723" cy="299.489" r="4" fill="#0" id="circle39"/>
	<circle cx="46.8723" cy="306.085" r="4" fill="#0" id="circle40"/>
	<circle cx="46.8723" cy="312.681" r="4" fill="#0" id="circle41"/>
	<circle cx="46.8723" cy="319.277" r="4" fill="#0" id="circle42"/>
	<circle cx="46.8723" cy="325.872" r="4" fill="#0" id="circle43"/>
	<circle cx="46.8723" cy="332.468" r="4" fill="#0" id="circle44"/>
	<circle cx="46.8723" cy="339.064" r="4" fill="#0" id="circle45"/>
	<circle cx="46.8723" cy="345.66" r="4" fill="#0" id="circle46"/>
	<circle cx="46.8723" cy="352.255" r="4" fill="#0" id="circle47"/>
	<circle cx="46.8723" cy="358.851" r="4" fill="#0" id="circle48"/>
	<circle cx="46.8723" cy="365.447" r="4" fill="#0" id="circle49"/>
	<circle cx="46.8723" cy="372.043" r="4" fill="#0" id="circle50"/>
	<circle cx="46.8723" cy="378.638" r="4" fill="#0" id="circle51"/>
	<circle cx="46.8723" cy="385.234" r="4" fill="#0" id="circle52"/>
	<circle cx="46.8723" cy="391.83" r="4" fill="#0" id="circle53"/>
	<circle cx="46.8723" cy="577.17" r="4" fill="#0" id="circle54"/>
	<circle cx="47.5319" cy="583.766" r="4" fill="#0" id="circle55"/>
	<circle cx="50.1702" cy="223.638" r="4" fill="#0" id="circle56"/>
	<circle cx="50.1702" cy="230.234" r="4" fill="#0" id="circle57"/>
	<circle cx="52.8085" cy="588.383" r="4" fill="#0" id="circle58"/>
	<circle cx="53.4681" cy="217.043" r="4" fill="#0" id="circle59"/>
	<circle cx="56.766" cy="210.447" r="4" fill="#0" id="circle60"/>
	<circle cx="56.766" cy="593.66" r="4" fill="#0" id="circle61"/>
	<circle cx="60.0638" cy="197.255" r="4" fill="#0" id="circle62"/>
	<circle cx="60.0638" cy="203.851" r="4" fill="#0" id="circle63"/>
	<circle cx="60.0638" cy="599.596" r="4" fill="#0" id="circle64"/>
	<circle cx="63.3617" cy="190.66" r="4" fill="#0" id="circle65"/>
	<circle cx="64.0213" cy="604.872" r="4" fill="#0" id="circle66"/>
	<circle cx="66.6596" cy="184.064" r="4" fill="#0" id="circle67"/>
	<circle cx="69.9574" cy="170.872" r="4" fill="#0" id="circle68"/>
	<circle cx="69.9574" cy="177.468" r="4" fill="#0" id="circle69"/>
	<circle cx="69.9574" cy="608.17" r="4" fill="#0" id="circle70"/>
	<circle cx="73.9149" cy="613.447" r="4" fill="#0" id="circle71"/>
	<circle cx="75.234" cy="165.596" r="4" fill="#0" id="circle72"/>
	<circle cx="78.5319" cy="159" r="4" fill="#0" id="circle73"/>
	<circle cx="80.5106" cy="614.766" r="4" fill="#0" id="circle74"/>
	<circle cx="81.8298" cy="152.404" r="4" fill="#0" id="circle75"/>
	<circle cx="86.4468" cy="144.489" r="4" fill="#0" id="circle76"/>
	<circle cx="86.4468" cy="618.064" r="4" fill="#0" id="circle77"/>
	<circle cx="89.7447" cy="137.894" r="4" fill="#0" id="circle78"/>
	<circle cx="92.383" cy="621.362" r="4" fill="#0" id="circle79"/>
	<circle cx="93.0426" cy="131.298" r="4" fill="#0" id="circle80"/>
	<circle cx="96.3404" cy="124.702" r="4" fill="#0" id="circle81"/>
	<circle cx="98.3191" cy="624.66" r="4" fill="#0" id="circle82"/>
	<circle cx="101.617" cy="119.426" r="4" fill="#0" id="circle83"/>
	<circle cx="102.936" cy="629.936" r="4" fill="#0" id="circle84"/>
	<circle cx="103.596" cy="636.532" r="4" fill="#0" id="circle85"/>
	<circle cx="106.894" cy="114.149" r="4" fill="#0" id="circle86"/>
	<circle cx="108.872" cy="641.149" r="4" fill="#0" id="circle87"/>
	<circle cx="110.191" cy="107.553" r="4" fill="#0" id="circle88"/>
	<circle cx="112.83" cy="646.426" r="4" fill="#0" id="circle89"/>
	<circle cx="113.489" cy="653.021" r="4" fill="#0" id="circle90"/>
	<circle cx="115.468" cy="102.936" r="4" fill="#0" id="circle91"/>
	<circle cx="118.766" cy="657.638" r="4" fill="#0" id="circle92"/>
	<circle cx="119.426" cy="664.234" r="4" fill="#0" id="circle93"/>
	<circle cx="120.085" cy="97.6596" r="4" fill="#0" id="circle94"/>
	<circle cx="123.383" cy="669.511" r="4" fill="#0" id="circle95"/>
	<circle cx="125.362" cy="93.0426" r="4" fill="#0" id="circle96"/>
	<circle cx="126.021" cy="813.957" r="4" fill="#0" id="circle97"/>
	<circle cx="126.021" cy="820.553" r="4" fill="#0" id="circle98"/>
	<circle cx="126.021" cy="827.149" r="4" fill="#0" id="circle99"/>
	<circle cx="126.021" cy="833.745" r="4" fill="#0" id="circle100"/>
	<circle cx="128.66" cy="674.128" r="4" fill="#0" id="circle101"/>
	<circle cx="129.319" cy="680.723" r="4" fill="#0" id="circle102"/>
	<circle cx="129.319" cy="797.468" r="4" fill="#0" id="circle103"/>
	<circle cx="129.319" cy="804.064" r="4" fill="#0" id="circle104"/>
	<circle cx="131.298" cy="89.7447" r="4" fill="#0" id="circle105"/>
	<circle cx="131.298" cy="687.319" r="4" fill="#0" id="circle106"/>
	<circle cx="131.298" cy="838.362" r="4" fill="#0" id="circle107"/>
	<circle cx="132.617" cy="693.915" r="4" fill="#0" id="circle108"/>
	<circle cx="132.617" cy="700.511" r="4" fill="#0" id="circle109"/>
	<circle cx="132.617" cy="707.106" r="4" fill="#0" id="circle110"/>
	<circle cx="132.617" cy="713.702" r="4" fill="#0" id="circle111"/>
	<circle cx="132.617" cy="720.298" r="4" fill="#0" id="circle112"/>
	<circle cx="132.617" cy="726.894" r="4" fill="#0" id="circle113"/>
	<circle cx="132.617" cy="733.489" r="4" fill="#0" id="circle114"/>
	<circle cx="132.617" cy="740.085" r="4" fill="#0" id="circle115"/>
	<circle cx="132.617" cy="746.681" r="4" fill="#0" id="circle116"/>
	<circle cx="132.617" cy="753.277" r="4" fill="#0" id="circle117"/>
	<circle cx="132.617" cy="759.872" r="4" fill="#0" id="circle118"/>
	<circle cx="132.617" cy="766.468" r="4" fill="#0" id="circle119"/>
	<circle cx="132.617" cy="773.064" r="4" fill="#0" id="circle120"/>
	<circle cx="132.617" cy="779.66" r="4" fill="#0" id="circle121"/>
	<circle cx="132.617" cy="786.255" r="4" fill="#0" id="circle122"/>
	<circle cx="135.915" cy="843.638" r="4" fill="#0" id="circle123"/>
	<circle cx="136.574" cy="84.4681" r="4" fill="#0" id="circle124"/>
	<circle cx="139.213" cy="849.574" r="4" fill="#0" id="circle125"/>
	<circle cx="142.511" cy="855.511" r="4" fill="#0" id="circle126"/>
	<circle cx="142.511" cy="862.106" r="4" fill="#0" id="circle127"/>
	<circle cx="143.17" cy="81.1702" r="4" fill="#0" id="circle128"/>
	<circle cx="146.468" cy="867.383" r="4" fill="#0" id="circle129"/>
	<circle cx="149.106" cy="873.979" r="4" fill="#0" id="circle130"/>
	<circle cx="149.766" cy="77.8723" r="4" fill="#0" id="circle131"/>
	<circle cx="152.404" cy="879.915" r="4" fill="#0" id="circle132"/>
	<circle cx="155.702" cy="885.851" r="4" fill="#0" id="circle133"/>
	<circle cx="155.702" cy="892.447" r="4" fill="#0" id="circle134"/>
	<circle cx="156.362" cy="74.5745" r="4" fill="#0" id="circle135"/>
	<circle cx="159" cy="898.383" r="4" fill="#0" id="circle136"/>
	<circle cx="162.957" cy="71.2766" r="4" fill="#0" id="circle137"/>
	<circle cx="162.957" cy="903.66" r="4" fill="#0" id="circle138"/>
	<circle cx="168.234" cy="908.277" r="4" fill="#0" id="circle139"/>
	<circle cx="169.553" cy="67.9787" r="4" fill="#0" id="circle140"/>
	<circle cx="172.851" cy="913.553" r="4" fill="#0" id="circle141"/>
	<circle cx="174.83" cy="63.3617" r="4" fill="#0" id="circle142"/>
	<circle cx="178.128" cy="918.17" r="4" fill="#0" id="circle143"/>
	<circle cx="179.447" cy="58.0851" r="4" fill="#0" id="circle144"/>
	<circle cx="182.745" cy="923.447" r="4" fill="#0" id="circle145"/>
	<circle cx="184.723" cy="53.4681" r="4" fill="#0" id="circle146"/>
	<circle cx="188.021" cy="928.064" r="4" fill="#0" id="circle147"/>
	<circle cx="189.34" cy="48.1915" r="4" fill="#0" id="circle148"/>
	<circle cx="192.638" cy="933.34" r="4" fill="#0" id="circle149"/>
	<circle cx="195.936" cy="46.8723" r="4" fill="#0" id="circle150"/>
	<circle cx="197.915" cy="937.957" r="4" fill="#0" id="circle151"/>
	<circle cx="201.872" cy="43.5745" r="4" fill="#0" id="circle152"/>
	<circle cx="203.851" cy="941.255" r="4" fill="#0" id="circle153"/>
	<circle cx="207.809" cy="40.2766" r="4" fill="#0" id="circle154"/>
	<circle cx="208.468" cy="946.532" r="4" fill="#0" id="circle155"/>
	<circle cx="211.766" cy="952.468" r="4" fill="#0" id="circle156"/>
	<circle cx="214.404" cy="40.2766" r="4" fill="#0" id="circle157"/>
	<circle cx="217.043" cy="957.085" r="4" fill="#0" id="circle158"/>
	<circle cx="220.34" cy="36.9787" r="4" fill="#0" id="circle159"/>
	<circle cx="221.66" cy="962.362" r="4" fill="#0" id="circle160"/>
	<circle cx="226.936" cy="33.6809" r="4" fill="#0" id="circle161"/>
	<circle cx="228.255" cy="964.34" r="4" fill="#0" id="circle162"/>
	<circle cx="232.213" cy="969.617" r="4" fill="#0" id="circle163"/>
	<circle cx="233.532" cy="30.383" r="4" fill="#0" id="circle164"/>
	<circle cx="238.809" cy="972.255" r="4" fill="#0" id="circle165"/>
	<circle cx="240.128" cy="30.383" r="4" fill="#0" id="circle166"/>
	<circle cx="245.404" cy="974.234" r="4" fill="#0" id="circle167"/>
	<circle cx="246.064" cy="27.0851" r="4" fill="#0" id="circle168"/>
	<circle cx="251.34" cy="977.532" r="4" fill="#0" id="circle169"/>
	<circle cx="252" cy="23.7872" r="4" fill="#0" id="circle170"/>
	<circle cx="257.277" cy="980.83" r="4" fill="#0" id="circle171"/>
	<circle cx="257.936" cy="19.1702" r="4" fill="#0" id="circle172"/>
	<circle cx="263.213" cy="984.128" r="4" fill="#0" id="circle173"/>
	<circle cx="264.532" cy="17.1915" r="4" fill="#0" id="circle174"/>
	<circle cx="269.809" cy="984.128" r="4" fill="#0" id="circle175"/>
	<circle cx="271.128" cy="15.8723" r="4" fill="#0" id="circle176"/>
	<circle cx="276.404" cy="986.766" r="4" fill="#0" id="circle177"/>
	<circle cx="277.723" cy="12.5745" r="4" fill="#0" id="circle178"/>
	<circle cx="282.34" cy="990.064" r="4" fill="#0" id="circle179"/>
	<circle cx="284.319" cy="9.2766" r="4" fill="#0" id="circle180"/>
	<circle cx="288.936" cy="992.702" r="4" fill="#0" id="circle181"/>
	<circle cx="290.915" cy="7.29787" r="4" fill="#0" id="circle182"/>
	<circle cx="295.532" cy="994.021" r="4" fill="#0" id="circle183"/>
	<circle cx="296.851" cy="4" r="4" fill="#0" id="circle184"/>
	<circle cx="302.128" cy="996" r="4" fill="#0" id="circle185"/>
	<circle cx="303.447" cy="4" r="4" fill="#0" id="circle186"/>
	<circle cx="308.723" cy="994.021" r="4" fill="#0" id="circle187"/>
	<circle cx="310.043" cy="4" r="4" fill="#0" id="circle188"/>
	<circle cx="314.66" cy="990.723" r="4" fill="#0" id="circle189"/>
	<circle cx="316.638" cy="4" r="4" fill="#0" id="circle190"/>
	<circle cx="320.596" cy="987.426" r="4" fill="#0" id="circle191"/>
	<circle cx="323.234" cy="4" r="4" fill="#0" id="circle192"/>
	<circle cx="327.191" cy="985.447" r="4" fill="#0" id="circle193"/>
	<circle cx="329.83" cy="4" r="4" fill="#0" id="circle194"/>
	<circle cx="333.787" cy="982.149" r="4" fill="#0" id="circle195"/>
	<circle cx="336.426" cy="4" r="4" fill="#0" id="circle196"/>
	<circle cx="340.383" cy="978.851" r="4" fill="#0" id="circle197"/>
	<circle cx="343.021" cy="4" r="4" fill="#0" id="circle198"/>
	<circle cx="345.66" cy="974.234" r="4" fill="#0" id="circle199"/>
	<circle cx="349.617" cy="4" r="4" fill="#0" id="circle200"/>
	<circle cx="351.596" cy="970.936" r="4" fill="#0" id="circle201"/>
	<circle cx="355.553" cy="7.29787" r="4" fill="#0" id="circle202"/>
	<circle cx="357.532" cy="967.638" r="4" fill="#0" id="circle203"/>
	<circle cx="361.489" cy="10.5957" r="4" fill="#0" id="circle204"/>
	<circle cx="364.128" cy="964.34" r="4" fill="#0" id="circle205"/>
	<circle cx="368.085" cy="10.5957" r="4" fill="#0" id="circle206"/>
	<circle cx="369.404" cy="959.723" r="4" fill="#0" id="circle207"/>
	<circle cx="374.021" cy="954.447" r="4" fill="#0" id="circle208"/>
	<circle cx="374.681" cy="10.5957" r="4" fill="#0" id="circle209"/>
	<circle cx="380.617" cy="13.8936" r="4" fill="#0" id="circle210"/>
	<circle cx="380.617" cy="951.149" r="4" fill="#0" id="circle211"/>
	<circle cx="386.553" cy="947.851" r="4" fill="#0" id="circle212"/>
	<circle cx="387.213" cy="13.8936" r="4" fill="#0" id="circle213"/>
	<circle cx="391.83" cy="943.894" r="4" fill="#0" id="circle214"/>
	<circle cx="393.149" cy="17.1915" r="4" fill="#0" id="circle215"/>
	<circle cx="397.106" cy="937.957" r="4" fill="#0" id="circle216"/>
	<circle cx="398.426" cy="21.1489" r="4" fill="#0" id="circle217"/>
	<circle cx="403.702" cy="934.66" r="4" fill="#0" id="circle218"/>
	<circle cx="405.021" cy="23.7872" r="4" fill="#0" id="circle219"/>
	<circle cx="409.638" cy="29.0638" r="4" fill="#0" id="circle220"/>
	<circle cx="410.298" cy="931.362" r="4" fill="#0" id="circle221"/>
	<circle cx="414.915" cy="33.6809" r="4" fill="#0" id="circle222"/>
	<circle cx="415.574" cy="926.745" r="4" fill="#0" id="circle223"/>
	<circle cx="416.894" cy="40.2766" r="4" fill="#0" id="circle224"/>
	<circle cx="420.191" cy="46.2128" r="4" fill="#0" id="circle225"/>
	<circle cx="422.17" cy="923.447" r="4" fill="#0" id="circle226"/>
	<circle cx="425.468" cy="50.1702" r="4" fill="#0" id="circle227"/>
	<circle cx="426.787" cy="918.17" r="4" fill="#0" id="circle228"/>
	<circle cx="432.064" cy="50.1702" r="4" fill="#0" id="circle229"/>
	<circle cx="433.383" cy="914.872" r="4" fill="#0" id="circle230"/>
	<circle cx="438.66" cy="50.1702" r="4" fill="#0" id="circle231"/>
	<circle cx="439.979" cy="911.574" r="4" fill="#0" id="circle232"/>
	<circle cx="445.255" cy="50.1702" r="4" fill="#0" id="circle233"/>
	<circle cx="446.574" cy="908.277" r="4" fill="#0" id="circle234"/>
	<circle cx="451.851" cy="50.1702" r="4" fill="#0" id="circle235"/>
	<circle cx="451.851" cy="903.66" r="4" fill="#0" id="circle236"/>
	<circle cx="456.468" cy="898.383" r="4" fill="#0" id="circle237"/>
	<circle cx="458.447" cy="50.1702" r="4" fill="#0" id="circle238"/>
	<circle cx="461.745" cy="893.766" r="4" fill="#0" id="circle239"/>
	<circle cx="465.043" cy="50.1702" r="4" fill="#0" id="circle240"/>
	<circle cx="465.043" cy="887.17" r="4" fill="#0" id="circle241"/>
	<circle cx="468.34" cy="880.574" r="4" fill="#0" id="circle242"/>
	<circle cx="470.979" cy="53.4681" r="4" fill="#0" id="circle243"/>
	<circle cx="471.638" cy="873.979" r="4" fill="#0" id="circle244"/>
	<circle cx="472.957" cy="865.404" r="4" fill="#0" id="circle245"/>
	<circle cx="476.255" cy="858.809" r="4" fill="#0" id="circle246"/>
	<circle cx="476.915" cy="56.766" r="4" fill="#0" id="circle247"/>
	<circle cx="479.553" cy="848.915" r="4" fill="#0" id="circle248"/>
	<circle cx="482.851" cy="60.0638" r="4" fill="#0" id="circle249"/>
	<circle cx="484.83" cy="844.298" r="4" fill="#0" id="circle250"/>
	<circle cx="486.149" cy="829.128" r="4" fill="#0" id="circle251"/>
	<circle cx="486.149" cy="835.723" r="4" fill="#0" id="circle252"/>
	<circle cx="488.787" cy="63.3617" r="4" fill="#0" id="circle253"/>
	<circle cx="489.447" cy="815.936" r="4" fill="#0" id="circle254"/>
	<circle cx="489.447" cy="822.532" r="4" fill="#0" id="circle255"/>
	<circle cx="492.745" cy="789.553" r="4" fill="#0" id="circle256"/>
	<circle cx="492.745" cy="796.149" r="4" fill="#0" id="circle257"/>
	<circle cx="492.745" cy="802.745" r="4" fill="#0" id="circle258"/>
	<circle cx="492.745" cy="809.34" r="4" fill="#0" id="circle259"/>
	<circle cx="495.383" cy="64.6809" r="4" fill="#0" id="circle260"/>
	<circle cx="496.043" cy="776.362" r="4" fill="#0" id="circle261"/>
	<circle cx="496.043" cy="782.957" r="4" fill="#0" id="circle262"/>
	<circle cx="499.34" cy="69.9574" r="4" fill="#0" id="circle263"/>
	<circle cx="499.34" cy="740.085" r="4" fill="#0" id="circle264"/>
	<circle cx="499.34" cy="746.681" r="4" fill="#0" id="circle265"/>
	<circle cx="499.34" cy="753.277" r="4" fill="#0" id="circle266"/>
	<circle cx="499.34" cy="759.872" r="4" fill="#0" id="circle267"/>
	<circle cx="499.34" cy="766.468" r="4" fill="#0" id="circle268"/>
	<circle cx="504.617" cy="73.9149" r="4" fill="#0" id="circle269"/>
	<circle cx="504.617" cy="735.468" r="4" fill="#0" id="circle270"/>
	<circle cx="509.234" cy="79.1915" r="4" fill="#0" id="circle271"/>
	<circle cx="509.234" cy="730.191" r="4" fill="#0" id="circle272"/>
	<circle cx="514.511" cy="83.1489" r="4" fill="#0" id="circle273"/>
	<circle cx="514.511" cy="725.574" r="4" fill="#0" id="circle274"/>
	<circle cx="517.809" cy="718.979" r="4" fill="#0" id="circle275"/>
	<circle cx="520.447" cy="86.4468" r="4" fill="#0" id="circle276"/>
	<circle cx="521.106" cy="712.383" r="4" fill="#0" id="circle277"/>
	<circle cx="524.404" cy="705.787" r="4" fill="#0" id="circle278"/>
	<circle cx="526.383" cy="89.7447" r="4" fill="#0" id="circle279"/>
	<circle cx="529.021" cy="700.511" r="4" fill="#0" id="circle280"/>
	<circle cx="532.319" cy="93.0426" r="4" fill="#0" id="circle281"/>
	<circle cx="532.319" cy="690.617" r="4" fill="#0" id="circle282"/>
	<circle cx="535.617" cy="680.723" r="4" fill="#0" id="circle283"/>
	<circle cx="537.596" cy="97" r="4" fill="#0" id="circle284"/>
	<circle cx="538.915" cy="664.234" r="4" fill="#0" id="circle285"/>
	<circle cx="538.915" cy="670.83" r="4" fill="#0" id="circle286"/>
	<circle cx="542.213" cy="102.277" r="4" fill="#0" id="circle287"/>
	<circle cx="542.213" cy="621.362" r="4" fill="#0" id="circle288"/>
	<circle cx="542.213" cy="627.957" r="4" fill="#0" id="circle289"/>
	<circle cx="542.213" cy="634.553" r="4" fill="#0" id="circle290"/>
	<circle cx="542.213" cy="641.149" r="4" fill="#0" id="circle291"/>
	<circle cx="542.213" cy="647.745" r="4" fill="#0" id="circle292"/>
	<circle cx="542.213" cy="654.34" r="4" fill="#0" id="circle293"/>
	<circle cx="545.511" cy="611.468" r="4" fill="#0" id="circle294"/>
	<circle cx="547.489" cy="106.894" r="4" fill="#0" id="circle295"/>
	<circle cx="550.787" cy="606.851" r="4" fill="#0" id="circle296"/>
	<circle cx="552.106" cy="112.17" r="4" fill="#0" id="circle297"/>
	<circle cx="554.085" cy="600.255" r="4" fill="#0" id="circle298"/>
	<circle cx="555.404" cy="118.106" r="4" fill="#0" id="circle299"/>
	<circle cx="555.404" cy="124.702" r="4" fill="#0" id="circle300"/>
	<circle cx="558.702" cy="594.979" r="4" fill="#0" id="circle301"/>
	<circle cx="560.021" cy="129.979" r="4" fill="#0" id="circle302"/>
	<circle cx="563.319" cy="135.915" r="4" fill="#0" id="circle303"/>
	<circle cx="564.638" cy="591.681" r="4" fill="#0" id="circle304"/>
	<circle cx="567.936" cy="141.191" r="4" fill="#0" id="circle305"/>
	<circle cx="568.596" cy="147.787" r="4" fill="#0" id="circle306"/>
	<circle cx="569.915" cy="587.723" r="4" fill="#0" id="circle307"/>
	<circle cx="571.234" cy="154.383" r="4" fill="#0" id="circle308"/>
	<circle cx="571.894" cy="160.979" r="4" fill="#0" id="circle309"/>
	<circle cx="571.894" cy="167.574" r="4" fill="#0" id="circle310"/>
	<circle cx="575.191" cy="173.511" r="4" fill="#0" id="circle311"/>
	<circle cx="575.191" cy="180.106" r="4" fill="#0" id="circle312"/>
	<circle cx="575.191" cy="581.787" r="4" fill="#0" id="circle313"/>
	<circle cx="578.489" cy="186.043" r="4" fill="#0" id="circle314"/>
	<circle cx="578.489" cy="192.638" r="4" fill="#0" id="circle315"/>
	<circle cx="578.489" cy="199.234" r="4" fill="#0" id="circle316"/>
	<circle cx="578.489" cy="205.83" r="4" fill="#0" id="circle317"/>
	<circle cx="578.489" cy="212.426" r="4" fill="#0" id="circle318"/>
	<circle cx="578.489" cy="219.021" r="4" fill="#0" id="circle319"/>
	<circle cx="578.489" cy="225.617" r="4" fill="#0" id="circle320"/>
	<circle cx="578.489" cy="232.213" r="4" fill="#0" id="circle321"/>
	<circle cx="578.489" cy="238.809" r="4" fill="#0" id="circle322"/>
	<circle cx="578.489" cy="245.404" r="4" fill="#0" id="circle323"/>
	<circle cx="578.489" cy="252" r="4" fill="#0" id="circle324"/>
	<circle cx="578.489" cy="258.596" r="4" fill="#0" id="circle325"/>
	<circle cx="578.489" cy="265.191" r="4" fill="#0" id="circle326"/>
	<circle cx="578.489" cy="271.787" r="4" fill="#0" id="circle327"/>
	<circle cx="578.489" cy="278.383" r="4" fill="#0" id="circle328"/>
	<circle cx="578.489" cy="284.979" r="4" fill="#0" id="circle329"/>
	<circle cx="578.489" cy="291.574" r="4" fill="#0" id="circle330"/>
	<circle cx="578.489" cy="298.17" r="4" fill="#0" id="circle331"/>
	<circle cx="578.489" cy="304.766" r="4" fill="#0" id="circle332"/>
	<circle cx="578.489" cy="571.894" r="4" fill="#0" id="circle333"/>
	<circle cx="581.787" cy="310.702" r="4" fill="#0" id="circle334"/>
	<circle cx="581.787" cy="317.298" r="4" fill="#0" id="circle335"/>
	<circle cx="581.787" cy="323.894" r="4" fill="#0" id="circle336"/>
	<circle cx="581.787" cy="330.489" r="4" fill="#0" id="circle337"/>
	<circle cx="581.787" cy="337.085" r="4" fill="#0" id="circle338"/>
	<circle cx="581.787" cy="343.681" r="4" fill="#0" id="circle339"/>
	<circle cx="581.787" cy="350.277" r="4" fill="#0" id="circle340"/>
	<circle cx="581.787" cy="356.872" r="4" fill="#0" id="circle341"/>
	<circle cx="581.787" cy="363.468" r="4" fill="#0" id="circle342"/>
	<circle cx="581.787" cy="370.064" r="4" fill="#0" id="circle343"/>
	<circle cx="581.787" cy="376.66" r="4" fill="#0" id="circle344"/>
	<circle cx="581.787" cy="383.255" r="4" fill="#0" id="circle345"/>
	<circle cx="581.787" cy="389.851" r="4" fill="#0" id="circle346"/>
	<circle cx="581.787" cy="396.447" r="4" fill="#0" id="circle347"/>
	<circle cx="581.787" cy="403.043" r="4" fill="#0" id="circle348"/>
	<circle cx="581.787" cy="409.638" r="4" fill="#0" id="circle349"/>
	<circle cx="581.787" cy="416.234" r="4" fill="#0" id="circle350"/>
	<circle cx="581.787" cy="542.213" r="4" fill="#0" id="circle351"/>
	<circle cx="581.787" cy="548.809" r="4" fill="#0" id="circle352"/>
	<circle cx="581.787" cy="555.404" r="4" fill="#0" id="circle353"/>
	<circle cx="581.787" cy="562" r="4" fill="#0" id="circle354"/>
	<circle cx="585.085" cy="525.723" r="4" fill="#0" id="circle355"/>
	<circle cx="585.085" cy="532.319" r="4" fill="#0" id="circle356"/>
	<circle cx="588.383" cy="416.234" r="4" fill="#0" id="circle357"/>
	<circle cx="588.383" cy="489.447" r="4" fill="#0" id="circle358"/>
	<circle cx="588.383" cy="496.043" r="4" fill="#0" id="circle359"/>
	<circle cx="588.383" cy="502.638" r="4" fill="#0" id="circle360"/>
	<circle cx="588.383" cy="509.234" r="4" fill="#0" id="circle361"/>
	<circle cx="588.383" cy="515.83" r="4" fill="#0" id="circle362"/>
	<circle cx="591.681" cy="422.17" r="4" fill="#0" id="circle363"/>
	<circle cx="591.681" cy="428.766" r="4" fill="#0" id="circle364"/>
	<circle cx="591.681" cy="435.362" r="4" fill="#0" id="circle365"/>
	<circle cx="591.681" cy="441.957" r="4" fill="#0" id="circle366"/>
	<circle cx="591.681" cy="448.553" r="4" fill="#0" id="circle367"/>
	<circle cx="591.681" cy="455.149" r="4" fill="#0" id="circle368"/>
	<circle cx="591.681" cy="461.745" r="4" fill="#0" id="circle369"/>
	<circle cx="591.681" cy="468.34" r="4" fill="#0" id="circle370"/>
	<circle cx="591.681" cy="474.936" r="4" fill="#0" id="circle371"/>
	<circle cx="591.681" cy="481.532" r="4" fill="#0" id="circle372"/>
	</g>
</svg>