<?xml version="1.0" encoding="UTF-8" standalone="no"?>
<!-- Created with CurveBenchmark -->
<svg
	xmlns:dc="http://purl.org/dc/elements/1.1/"
	xmlns:cc="http://creativecommons.org/ns#"
	xmlns:rdf="http://www.w3.org/1999/02/22-rdf-syntax-ns#"
	xmlns:svg="http://www.w3.org/2000/svg"
	xmlns="http://www.w3.org/2000/svg"
	xmlns:sodipodi="http://sodipodi.sourceforge.net/DTD/sodipodi-0.dtd"
	xmlns:inkscape="http://www.inkscape.org/namespaces/inkscape"
	width="1000"
	height="1000"
	id="svg2"
	version="1.1"
	sodipodi:docname="manifold/vicur-chopper-01.png.txt">
<defs
	id="defs4" />
<metadata
	id="metadata7">
	<rdf:RDF>
		<cc:Work
			rdf:about="">
			<dc:format>image/svg+xml</dc:format>
			<dc:type
				rdf:resource="http://purl.org/dc/dcmitype/StillImage" />
			<dc:title></dc:title>
		</cc:Work>
	</rdf:RDF>
</metadata>
<g
	inkscape:label="Layer 1"
	inkscape:groupmode="layer"
	id="layer1">
	<path style="fill:none;stroke:red;stroke-width:1px;stroke-linecap:butt;stroke-linejoin:miter;stroke-opacity:1" d="M 4,383.518 4,400.461 z" id="boundary" inkscape:connector-curvature="0" />
	<path style="fill:none;stroke:red;stroke-width:1px;stroke-linecap:butt;stroke-linejoin:miter;stroke-opacity:1" d="M 4,400.461 4,408.933 z" id="boundary" inkscape:connector-curvature="0" />
	<path style="fill:none;stroke:red;stroke-width:1px;stroke-linecap:butt;stroke-linejoin:miter;stroke-opacity:1" d="M 4,408.933 4,425.875 z" id="boundary" inkscape:connector-curvature="0" />
	<path style="fill:none;stroke:red;stroke-width:1px;stroke-linecap:butt;stroke-linejoin:miter;stroke-opacity:1" d="M 4,425.875 4,434.347 z" id="boundary" inkscape:connector-curvature="0" />
	<path style="fill:none;stroke:red;stroke-width:1px;stroke-linecap:butt;stroke-linejoin:miter;stroke-opacity:1" d="M 4,434.347 8.2357,441.971 z" id="boundary" inkscape:connector-curvature="0" />
	<path style="fill:none;stroke:red;stroke-width:1px;stroke-linecap:butt;stroke-linejoin:miter;stroke-opacity:1" d="M 4,527.532 4,536.003 z" id="boundary" inkscape:connector-curvature="0" />
	<path style="fill:none;stroke:red;stroke-width:1px;stroke-linecap:butt;stroke-linejoin:miter;stroke-opacity:1" d="M 4,527.532 8.2357,519.061 z" id="boundary" inkscape:connector-curvature="0" />
	<path style="fill:none;stroke:red;stroke-width:1px;stroke-linecap:butt;stroke-linejoin:miter;stroke-opacity:1" d="M 4,536.003 4,544.475 z" id="boundary" inkscape:connector-curvature="0" />
	<path style="fill:none;stroke:red;stroke-width:1px;stroke-linecap:butt;stroke-linejoin:miter;stroke-opacity:1" d="M 4,544.475 8.2357,552.099 z" id="boundary" inkscape:connector-curvature="0" />
	<path style="fill:none;stroke:red;stroke-width:1px;stroke-linecap:butt;stroke-linejoin:miter;stroke-opacity:1" d="M 8.2357,441.971 12.4714,449.595 z" id="boundary" inkscape:connector-curvature="0" />
	<path style="fill:none;stroke:red;stroke-width:1px;stroke-linecap:butt;stroke-linejoin:miter;stroke-opacity:1" d="M 8.2357,519.061 15.0128,512.284 z" id="boundary" inkscape:connector-curvature="0" />
	<path style="fill:none;stroke:red;stroke-width:1px;stroke-linecap:butt;stroke-linejoin:miter;stroke-opacity:1" d="M 8.2357,552.099 12.4714,559.723 z" id="boundary" inkscape:connector-curvature="0" />
	<path style="fill:none;stroke:red;stroke-width:1px;stroke-linecap:butt;stroke-linejoin:miter;stroke-opacity:1" d="M 12.4714,315.747 16.7071,303.04 z" id="boundary" inkscape:connector-curvature="0" />
	<path style="fill:none;stroke:red;stroke-width:1px;stroke-linecap:butt;stroke-linejoin:miter;stroke-opacity:1" d="M 12.4714,449.595 15.0128,458.067 z" id="boundary" inkscape:connector-curvature="0" />
	<path style="fill:none;stroke:red;stroke-width:1px;stroke-linecap:butt;stroke-linejoin:miter;stroke-opacity:1" d="M 15.0128,458.067 21.7899,463.997 z" id="boundary" inkscape:connector-curvature="0" />
	<path style="fill:none;stroke:red;stroke-width:1px;stroke-linecap:butt;stroke-linejoin:miter;stroke-opacity:1" d="M 16.7071,303.04 20.9428,290.333 z" id="boundary" inkscape:connector-curvature="0" />
	<path style="fill:none;stroke:red;stroke-width:1px;stroke-linecap:butt;stroke-linejoin:miter;stroke-opacity:1" d="M 20.9428,290.333 25.1785,277.626 z" id="boundary" inkscape:connector-curvature="0" />
	<path style="fill:none;stroke:red;stroke-width:1px;stroke-linecap:butt;stroke-linejoin:miter;stroke-opacity:1" d="M 21.7899,463.997 37.8856,470.774 z" id="boundary" inkscape:connector-curvature="0" />
	<path style="fill:none;stroke:red;stroke-width:1px;stroke-linecap:butt;stroke-linejoin:miter;stroke-opacity:1" d="M 25.1785,277.626 29.4142,269.155 z" id="boundary" inkscape:connector-curvature="0" />
	<path style="fill:none;stroke:red;stroke-width:1px;stroke-linecap:butt;stroke-linejoin:miter;stroke-opacity:1" d="M 29.4142,269.155 33.6499,260.683 z" id="boundary" inkscape:connector-curvature="0" />
	<path style="fill:none;stroke:red;stroke-width:1px;stroke-linecap:butt;stroke-linejoin:miter;stroke-opacity:1" d="M 33.6499,260.683 37.8856,252.212 z" id="boundary" inkscape:connector-curvature="0" />
	<path style="fill:none;stroke:red;stroke-width:1px;stroke-linecap:butt;stroke-linejoin:miter;stroke-opacity:1" d="M 37.8856,252.212 44.6627,245.435 z" id="boundary" inkscape:connector-curvature="0" />
	<path style="fill:none;stroke:red;stroke-width:1px;stroke-linecap:butt;stroke-linejoin:miter;stroke-opacity:1" d="M 37.8856,470.774 45.5098,475.009 z" id="boundary" inkscape:connector-curvature="0" />
	<path style="fill:none;stroke:red;stroke-width:1px;stroke-linecap:butt;stroke-linejoin:miter;stroke-opacity:1" d="M 44.6627,245.435 53.1341,241.199 z" id="boundary" inkscape:connector-curvature="0" />
	<path style="fill:none;stroke:red;stroke-width:1px;stroke-linecap:butt;stroke-linejoin:miter;stroke-opacity:1" d="M 45.5098,475.009 61.6055,482.634 z" id="boundary" inkscape:connector-curvature="0" />
	<path style="fill:none;stroke:red;stroke-width:1px;stroke-linecap:butt;stroke-linejoin:miter;stroke-opacity:1" d="M 47.2041,514.825 53.9812,520.755 z" id="boundary" inkscape:connector-curvature="0" />
	<path style="fill:none;stroke:red;stroke-width:1px;stroke-linecap:butt;stroke-linejoin:miter;stroke-opacity:1" d="M 53.1341,241.199 65.8412,228.492 z" id="boundary" inkscape:connector-curvature="0" />
	<path style="fill:none;stroke:red;stroke-width:1px;stroke-linecap:butt;stroke-linejoin:miter;stroke-opacity:1" d="M 53.9812,520.755 61.6055,524.991 z" id="boundary" inkscape:connector-curvature="0" />
	<path style="fill:none;stroke:red;stroke-width:1px;stroke-linecap:butt;stroke-linejoin:miter;stroke-opacity:1" d="M 61.6055,482.634 70.0769,483.481 z" id="boundary" inkscape:connector-curvature="0" />
	<path style="fill:none;stroke:red;stroke-width:1px;stroke-linecap:butt;stroke-linejoin:miter;stroke-opacity:1" d="M 61.6055,524.991 70.0769,524.991 z" id="boundary" inkscape:connector-curvature="0" />
	<path style="fill:none;stroke:red;stroke-width:1px;stroke-linecap:butt;stroke-linejoin:miter;stroke-opacity:1" d="M 70.0769,483.481 77.7011,487.716 z" id="boundary" inkscape:connector-curvature="0" />
	<path style="fill:none;stroke:red;stroke-width:1px;stroke-linecap:butt;stroke-linejoin:miter;stroke-opacity:1" d="M 89.5611,213.243 96.3382,207.313 z" id="boundary" inkscape:connector-curvature="0" />
	<path style="fill:none;stroke:red;stroke-width:1px;stroke-linecap:butt;stroke-linejoin:miter;stroke-opacity:1" d="M 94.6439,490.258 103.115,491.952 z" id="boundary" inkscape:connector-curvature="0" />
	<path style="fill:none;stroke:red;stroke-width:1px;stroke-linecap:butt;stroke-linejoin:miter;stroke-opacity:1" d="M 96.3382,207.313 103.962,203.078 z" id="boundary" inkscape:connector-curvature="0" />
	<path style="fill:none;stroke:red;stroke-width:1px;stroke-linecap:butt;stroke-linejoin:miter;stroke-opacity:1" d="M 103.115,491.952 111.587,491.952 z" id="boundary" inkscape:connector-curvature="0" />
	<path style="fill:none;stroke:red;stroke-width:1px;stroke-linecap:butt;stroke-linejoin:miter;stroke-opacity:1" d="M 103.962,203.078 110.74,196.301 z" id="boundary" inkscape:connector-curvature="0" />
	<path style="fill:none;stroke:red;stroke-width:1px;stroke-linecap:butt;stroke-linejoin:miter;stroke-opacity:1" d="M 127.682,187.829 134.459,181.899 z" id="boundary" inkscape:connector-curvature="0" />
	<path style="fill:none;stroke:red;stroke-width:1px;stroke-linecap:butt;stroke-linejoin:miter;stroke-opacity:1" d="M 127.682,496.188 136.154,496.188 z" id="boundary" inkscape:connector-curvature="0" />
	<path style="fill:none;stroke:red;stroke-width:1px;stroke-linecap:butt;stroke-linejoin:miter;stroke-opacity:1" d="M 127.682,568.195 136.154,568.195 z" id="boundary" inkscape:connector-curvature="0" />
	<path style="fill:none;stroke:red;stroke-width:1px;stroke-linecap:butt;stroke-linejoin:miter;stroke-opacity:1" d="M 134.459,181.899 142.084,177.664 z" id="boundary" inkscape:connector-curvature="0" />
	<path style="fill:none;stroke:red;stroke-width:1px;stroke-linecap:butt;stroke-linejoin:miter;stroke-opacity:1" d="M 136.154,496.188 144.625,496.188 z" id="boundary" inkscape:connector-curvature="0" />
	<path style="fill:none;stroke:red;stroke-width:1px;stroke-linecap:butt;stroke-linejoin:miter;stroke-opacity:1" d="M 136.154,568.195 143.778,563.959 z" id="boundary" inkscape:connector-curvature="0" />
	<path style="fill:none;stroke:red;stroke-width:1px;stroke-linecap:butt;stroke-linejoin:miter;stroke-opacity:1" d="M 142.084,177.664 149.708,173.428 z" id="boundary" inkscape:connector-curvature="0" />
	<path style="fill:none;stroke:red;stroke-width:1px;stroke-linecap:butt;stroke-linejoin:miter;stroke-opacity:1" d="M 143.778,563.959 152.249,563.959 z" id="boundary" inkscape:connector-curvature="0" />
	<path style="fill:none;stroke:red;stroke-width:1px;stroke-linecap:butt;stroke-linejoin:miter;stroke-opacity:1" d="M 144.625,496.188 152.249,500.424 z" id="boundary" inkscape:connector-curvature="0" />
	<path style="fill:none;stroke:red;stroke-width:1px;stroke-linecap:butt;stroke-linejoin:miter;stroke-opacity:1" d="M 149.708,173.428 157.332,169.192 z" id="boundary" inkscape:connector-curvature="0" />
	<path style="fill:none;stroke:red;stroke-width:1px;stroke-linecap:butt;stroke-linejoin:miter;stroke-opacity:1" d="M 157.332,169.192 164.956,164.956 z" id="boundary" inkscape:connector-curvature="0" />
	<path style="fill:none;stroke:red;stroke-width:1px;stroke-linecap:butt;stroke-linejoin:miter;stroke-opacity:1" d="M 164.956,164.956 172.581,160.721 z" id="boundary" inkscape:connector-curvature="0" />
	<path style="fill:none;stroke:red;stroke-width:1px;stroke-linecap:butt;stroke-linejoin:miter;stroke-opacity:1" d="M 186.135,500.424 194.606,500.424 z" id="boundary" inkscape:connector-curvature="0" />
	<path style="fill:none;stroke:red;stroke-width:1px;stroke-linecap:butt;stroke-linejoin:miter;stroke-opacity:1" d="M 188.676,520.755 197.148,520.755 z" id="boundary" inkscape:connector-curvature="0" />
	<path style="fill:none;stroke:red;stroke-width:1px;stroke-linecap:butt;stroke-linejoin:miter;stroke-opacity:1" d="M 194.606,500.424 197.148,520.755 z" id="boundary" inkscape:connector-curvature="0" />
	<path style="fill:none;stroke:red;stroke-width:1px;stroke-linecap:butt;stroke-linejoin:miter;stroke-opacity:1" d="M 300.499,31.9556 300.499,40.427 z" id="boundary" inkscape:connector-curvature="0" />
	<path style="fill:none;stroke:red;stroke-width:1px;stroke-linecap:butt;stroke-linejoin:miter;stroke-opacity:1" d="M 300.499,31.9556 308.97,15.0128 z" id="boundary" inkscape:connector-curvature="0" />
	<path style="fill:none;stroke:red;stroke-width:1px;stroke-linecap:butt;stroke-linejoin:miter;stroke-opacity:1" d="M 300.499,40.427 300.499,48.8984 z" id="boundary" inkscape:connector-curvature="0" />
	<path style="fill:none;stroke:red;stroke-width:1px;stroke-linecap:butt;stroke-linejoin:miter;stroke-opacity:1" d="M 300.499,48.8984 304.734,56.5226 z" id="boundary" inkscape:connector-curvature="0" />
	<path style="fill:none;stroke:red;stroke-width:1px;stroke-linecap:butt;stroke-linejoin:miter;stroke-opacity:1" d="M 304.734,56.5226 308.97,64.1469 z" id="boundary" inkscape:connector-curvature="0" />
	<path style="fill:none;stroke:red;stroke-width:1px;stroke-linecap:butt;stroke-linejoin:miter;stroke-opacity:1" d="M 308.97,15.0128 315.747,8.2357 z" id="boundary" inkscape:connector-curvature="0" />
	<path style="fill:none;stroke:red;stroke-width:1px;stroke-linecap:butt;stroke-linejoin:miter;stroke-opacity:1" d="M 308.97,64.1469 316.594,68.3826 z" id="boundary" inkscape:connector-curvature="0" />
	<path style="fill:none;stroke:red;stroke-width:1px;stroke-linecap:butt;stroke-linejoin:miter;stroke-opacity:1" d="M 315.747,8.2357 324.219,4 z" id="boundary" inkscape:connector-curvature="0" />
	<path style="fill:none;stroke:red;stroke-width:1px;stroke-linecap:butt;stroke-linejoin:miter;stroke-opacity:1" d="M 316.594,68.3826 324.219,72.6183 z" id="boundary" inkscape:connector-curvature="0" />
	<path style="fill:none;stroke:red;stroke-width:1px;stroke-linecap:butt;stroke-linejoin:miter;stroke-opacity:1" d="M 324.219,4 341.161,4 z" id="boundary" inkscape:connector-curvature="0" />
	<path style="fill:none;stroke:red;stroke-width:1px;stroke-linecap:butt;stroke-linejoin:miter;stroke-opacity:1" d="M 324.219,72.6183 341.161,72.6183 z" id="boundary" inkscape:connector-curvature="0" />
	<path style="fill:none;stroke:red;stroke-width:1px;stroke-linecap:butt;stroke-linejoin:miter;stroke-opacity:1" d="M 334.384,91.2553 338.62,98.8796 z" id="boundary" inkscape:connector-curvature="0" />
	<path style="fill:none;stroke:red;stroke-width:1px;stroke-linecap:butt;stroke-linejoin:miter;stroke-opacity:1" d="M 338.62,98.8796 347.091,102.268 z" id="boundary" inkscape:connector-curvature="0" />
	<path style="fill:none;stroke:red;stroke-width:1px;stroke-linecap:butt;stroke-linejoin:miter;stroke-opacity:1" d="M 341.161,4 358.104,4 z" id="boundary" inkscape:connector-curvature="0" />
	<path style="fill:none;stroke:red;stroke-width:1px;stroke-linecap:butt;stroke-linejoin:miter;stroke-opacity:1" d="M 347.091,102.268 354.716,106.504 z" id="boundary" inkscape:connector-curvature="0" />
	<path style="fill:none;stroke:red;stroke-width:1px;stroke-linecap:butt;stroke-linejoin:miter;stroke-opacity:1" d="M 354.716,106.504 359.798,113.281 z" id="boundary" inkscape:connector-curvature="0" />
	<path style="fill:none;stroke:red;stroke-width:1px;stroke-linecap:butt;stroke-linejoin:miter;stroke-opacity:1" d="M 358.104,4 366.576,4 z" id="boundary" inkscape:connector-curvature="0" />
	<path style="fill:none;stroke:red;stroke-width:1px;stroke-linecap:butt;stroke-linejoin:miter;stroke-opacity:1" d="M 366.576,4 383.518,4 z" id="boundary" inkscape:connector-curvature="0" />
	<path style="fill:none;stroke:red;stroke-width:1px;stroke-linecap:butt;stroke-linejoin:miter;stroke-opacity:1" d="M 383.518,4 400.461,4 z" id="boundary" inkscape:connector-curvature="0" />
	<path style="fill:none;stroke:red;stroke-width:1px;stroke-linecap:butt;stroke-linejoin:miter;stroke-opacity:1" d="M 394.531,51.4398 402.155,55.6755 z" id="boundary" inkscape:connector-curvature="0" />
	<path style="fill:none;stroke:red;stroke-width:1px;stroke-linecap:butt;stroke-linejoin:miter;stroke-opacity:1" d="M 394.531,59.9112 398.767,67.5354 z" id="boundary" inkscape:connector-curvature="0" />
	<path style="fill:none;stroke:red;stroke-width:1px;stroke-linecap:butt;stroke-linejoin:miter;stroke-opacity:1" d="M 398.767,89.5611 398.767,106.504 z" id="boundary" inkscape:connector-curvature="0" />
	<path style="fill:none;stroke:red;stroke-width:1px;stroke-linecap:butt;stroke-linejoin:miter;stroke-opacity:1" d="M 398.767,89.5611 407.238,85.3254 z" id="boundary" inkscape:connector-curvature="0" />
	<path style="fill:none;stroke:red;stroke-width:1px;stroke-linecap:butt;stroke-linejoin:miter;stroke-opacity:1" d="M 398.767,106.504 400.461,114.975 z" id="boundary" inkscape:connector-curvature="0" />
	<path style="fill:none;stroke:red;stroke-width:1px;stroke-linecap:butt;stroke-linejoin:miter;stroke-opacity:1" d="M 400.461,114.975 404.697,122.599 z" id="boundary" inkscape:connector-curvature="0" />
	<path style="fill:none;stroke:red;stroke-width:1px;stroke-linecap:butt;stroke-linejoin:miter;stroke-opacity:1" d="M 402.155,55.6755 410.627,55.6755 z" id="boundary" inkscape:connector-curvature="0" />
	<path style="fill:none;stroke:red;stroke-width:1px;stroke-linecap:butt;stroke-linejoin:miter;stroke-opacity:1" d="M 404.697,122.599 412.321,126.835 z" id="boundary" inkscape:connector-curvature="0" />
	<path style="fill:none;stroke:red;stroke-width:1px;stroke-linecap:butt;stroke-linejoin:miter;stroke-opacity:1" d="M 410.627,55.6755 418.251,51.4398 z" id="boundary" inkscape:connector-curvature="0" />
	<path style="fill:none;stroke:red;stroke-width:1px;stroke-linecap:butt;stroke-linejoin:miter;stroke-opacity:1" d="M 412.321,126.835 428.417,131.071 z" id="boundary" inkscape:connector-curvature="0" />
	<path style="fill:none;stroke:red;stroke-width:1px;stroke-linecap:butt;stroke-linejoin:miter;stroke-opacity:1" d="M 425.875,4 434.347,4 z" id="boundary" inkscape:connector-curvature="0" />
	<path style="fill:none;stroke:red;stroke-width:1px;stroke-linecap:butt;stroke-linejoin:miter;stroke-opacity:1" d="M 428.417,131.071 445.36,131.071 z" id="boundary" inkscape:connector-curvature="0" />
	<path style="fill:none;stroke:red;stroke-width:1px;stroke-linecap:butt;stroke-linejoin:miter;stroke-opacity:1" d="M 434.347,4 441.971,8.2357 z" id="boundary" inkscape:connector-curvature="0" />
	<path style="fill:none;stroke:red;stroke-width:1px;stroke-linecap:butt;stroke-linejoin:miter;stroke-opacity:1" d="M 435.194,45.5098 441.124,38.7327 z" id="boundary" inkscape:connector-curvature="0" />
	<path style="fill:none;stroke:red;stroke-width:1px;stroke-linecap:butt;stroke-linejoin:miter;stroke-opacity:1" d="M 441.124,38.7327 445.36,30.2613 z" id="boundary" inkscape:connector-curvature="0" />
	<path style="fill:none;stroke:red;stroke-width:1px;stroke-linecap:butt;stroke-linejoin:miter;stroke-opacity:1" d="M 445.36,131.071 452.984,126.835 z" id="boundary" inkscape:connector-curvature="0" />
	<path style="fill:none;stroke:red;stroke-width:1px;stroke-linecap:butt;stroke-linejoin:miter;stroke-opacity:1" d="M 452.984,126.835 458.067,120.058 z" id="boundary" inkscape:connector-curvature="0" />
	<path style="fill:none;stroke:red;stroke-width:1px;stroke-linecap:butt;stroke-linejoin:miter;stroke-opacity:1" d="M 458.067,120.058 464.844,114.128 z" id="boundary" inkscape:connector-curvature="0" />
	<path style="fill:none;stroke:red;stroke-width:1px;stroke-linecap:butt;stroke-linejoin:miter;stroke-opacity:1" d="M 464.844,114.128 472.468,109.892 z" id="boundary" inkscape:connector-curvature="0" />
	<path style="fill:none;stroke:red;stroke-width:1px;stroke-linecap:butt;stroke-linejoin:miter;stroke-opacity:1" d="M 472.468,109.892 480.092,105.657 z" id="boundary" inkscape:connector-curvature="0" />
	<path style="fill:none;stroke:red;stroke-width:1px;stroke-linecap:butt;stroke-linejoin:miter;stroke-opacity:1" d="M 480.092,105.657 497.035,105.657 z" id="boundary" inkscape:connector-curvature="0" />
	<path style="fill:none;stroke:red;stroke-width:1px;stroke-linecap:butt;stroke-linejoin:miter;stroke-opacity:1" d="M 497.035,105.657 505.506,105.657 z" id="boundary" inkscape:connector-curvature="0" />
	<path style="fill:none;stroke:red;stroke-width:1px;stroke-linecap:butt;stroke-linejoin:miter;stroke-opacity:1" d="M 505.506,105.657 513.131,109.892 z" id="boundary" inkscape:connector-curvature="0" />
	<path style="fill:none;stroke:red;stroke-width:1px;stroke-linecap:butt;stroke-linejoin:miter;stroke-opacity:1" d="M 513.131,109.892 521.602,112.434 z" id="boundary" inkscape:connector-curvature="0" />
	<path style="fill:none;stroke:red;stroke-width:1px;stroke-linecap:butt;stroke-linejoin:miter;stroke-opacity:1" d="M 521.602,112.434 529.226,116.67 z" id="boundary" inkscape:connector-curvature="0" />
	<path style="fill:none;stroke:red;stroke-width:1px;stroke-linecap:butt;stroke-linejoin:miter;stroke-opacity:1" d="M 529.226,116.67 537.698,120.058 z" id="boundary" inkscape:connector-curvature="0" />
	<path style="fill:none;stroke:red;stroke-width:1px;stroke-linecap:butt;stroke-linejoin:miter;stroke-opacity:1" d="M 537.698,120.058 545.322,124.294 z" id="boundary" inkscape:connector-curvature="0" />
	<path style="fill:none;stroke:red;stroke-width:1px;stroke-linecap:butt;stroke-linejoin:miter;stroke-opacity:1" d="M 545.322,124.294 551.252,131.071 z" id="boundary" inkscape:connector-curvature="0" />
	<path style="fill:none;stroke:red;stroke-width:1px;stroke-linecap:butt;stroke-linejoin:miter;stroke-opacity:1" d="M 551.252,131.071 567.348,137.001 z" id="boundary" inkscape:connector-curvature="0" />
	<path style="fill:none;stroke:red;stroke-width:1px;stroke-linecap:butt;stroke-linejoin:miter;stroke-opacity:1" d="M 567.348,137.001 575.819,139.542 z" id="boundary" inkscape:connector-curvature="0" />
	<path style="fill:none;stroke:red;stroke-width:1px;stroke-linecap:butt;stroke-linejoin:miter;stroke-opacity:1" d="M 572.43,199.689 580.902,199.689 z" id="boundary" inkscape:connector-curvature="0" />
	<path style="fill:none;stroke:red;stroke-width:1px;stroke-linecap:butt;stroke-linejoin:miter;stroke-opacity:1" d="M 575.819,139.542 592.762,139.542 z" id="boundary" inkscape:connector-curvature="0" />
	<path style="fill:none;stroke:red;stroke-width:1px;stroke-linecap:butt;stroke-linejoin:miter;stroke-opacity:1" d="M 580.902,199.689 589.373,199.689 z" id="boundary" inkscape:connector-curvature="0" />
	<path style="fill:none;stroke:red;stroke-width:1px;stroke-linecap:butt;stroke-linejoin:miter;stroke-opacity:1" d="M 589.373,199.689 596.997,195.453 z" id="boundary" inkscape:connector-curvature="0" />
	<path style="fill:none;stroke:red;stroke-width:1px;stroke-linecap:butt;stroke-linejoin:miter;stroke-opacity:1" d="M 589.373,381.824 593.609,389.448 z" id="boundary" inkscape:connector-curvature="0" />
	<path style="fill:none;stroke:red;stroke-width:1px;stroke-linecap:butt;stroke-linejoin:miter;stroke-opacity:1" d="M 592.762,139.542 609.705,139.542 z" id="boundary" inkscape:connector-curvature="0" />
	<path style="fill:none;stroke:red;stroke-width:1px;stroke-linecap:butt;stroke-linejoin:miter;stroke-opacity:1" d="M 593.609,389.448 601.233,385.213 z" id="boundary" inkscape:connector-curvature="0" />
	<path style="fill:none;stroke:red;stroke-width:1px;stroke-linecap:butt;stroke-linejoin:miter;stroke-opacity:1" d="M 601.233,385.213 608.857,380.977 z" id="boundary" inkscape:connector-curvature="0" />
	<path style="fill:none;stroke:red;stroke-width:1px;stroke-linecap:butt;stroke-linejoin:miter;stroke-opacity:1" d="M 608.857,380.977 617.329,380.977 z" id="boundary" inkscape:connector-curvature="0" />
	<path style="fill:none;stroke:red;stroke-width:1px;stroke-linecap:butt;stroke-linejoin:miter;stroke-opacity:1" d="M 609.705,139.542 618.176,139.542 z" id="boundary" inkscape:connector-curvature="0" />
	<path style="fill:none;stroke:red;stroke-width:1px;stroke-linecap:butt;stroke-linejoin:miter;stroke-opacity:1" d="M 614.787,462.302 623.259,458.067 z" id="boundary" inkscape:connector-curvature="0" />
	<path style="fill:none;stroke:red;stroke-width:1px;stroke-linecap:butt;stroke-linejoin:miter;stroke-opacity:1" d="M 623.259,458.067 640.202,449.595 z" id="boundary" inkscape:connector-curvature="0" />
	<path style="fill:none;stroke:red;stroke-width:1px;stroke-linecap:butt;stroke-linejoin:miter;stroke-opacity:1" d="M 630.883,343.703 639.354,343.703 z" id="boundary" inkscape:connector-curvature="0" />
	<path style="fill:none;stroke:red;stroke-width:1px;stroke-linecap:butt;stroke-linejoin:miter;stroke-opacity:1" d="M 635.119,139.542 643.59,139.542 z" id="boundary" inkscape:connector-curvature="0" />
	<path style="fill:none;stroke:red;stroke-width:1px;stroke-linecap:butt;stroke-linejoin:miter;stroke-opacity:1" d="M 639.354,343.703 647.826,343.703 z" id="boundary" inkscape:connector-curvature="0" />
	<path style="fill:none;stroke:red;stroke-width:1px;stroke-linecap:butt;stroke-linejoin:miter;stroke-opacity:1" d="M 640.202,449.595 644.437,441.124 z" id="boundary" inkscape:connector-curvature="0" />
	<path style="fill:none;stroke:red;stroke-width:1px;stroke-linecap:butt;stroke-linejoin:miter;stroke-opacity:1" d="M 641.049,380.977 648.673,385.213 z" id="boundary" inkscape:connector-curvature="0" />
	<path style="fill:none;stroke:red;stroke-width:1px;stroke-linecap:butt;stroke-linejoin:miter;stroke-opacity:1" d="M 643.59,139.542 651.214,143.778 z" id="boundary" inkscape:connector-curvature="0" />
	<path style="fill:none;stroke:red;stroke-width:1px;stroke-linecap:butt;stroke-linejoin:miter;stroke-opacity:1" d="M 644.437,441.124 648.673,432.652 z" id="boundary" inkscape:connector-curvature="0" />
	<path style="fill:none;stroke:red;stroke-width:1px;stroke-linecap:butt;stroke-linejoin:miter;stroke-opacity:1" d="M 648.673,385.213 652.909,392.837 z" id="boundary" inkscape:connector-curvature="0" />
	<path style="fill:none;stroke:red;stroke-width:1px;stroke-linecap:butt;stroke-linejoin:miter;stroke-opacity:1" d="M 651.214,143.778 658.839,148.014 z" id="boundary" inkscape:connector-curvature="0" />
	<path style="fill:none;stroke:red;stroke-width:1px;stroke-linecap:butt;stroke-linejoin:miter;stroke-opacity:1" d="M 652.909,392.837 657.144,400.461 z" id="boundary" inkscape:connector-curvature="0" />
	<path style="fill:none;stroke:red;stroke-width:1px;stroke-linecap:butt;stroke-linejoin:miter;stroke-opacity:1" d="M 663.921,339.467 672.393,339.467 z" id="boundary" inkscape:connector-curvature="0" />
	<path style="fill:none;stroke:red;stroke-width:1px;stroke-linecap:butt;stroke-linejoin:miter;stroke-opacity:1" d="M 672.393,339.467 680.017,335.231 z" id="boundary" inkscape:connector-curvature="0" />
	<path style="fill:none;stroke:red;stroke-width:1px;stroke-linecap:butt;stroke-linejoin:miter;stroke-opacity:1" d="M 680.017,335.231 688.488,335.231 z" id="boundary" inkscape:connector-curvature="0" />
	<path style="fill:none;stroke:red;stroke-width:1px;stroke-linecap:butt;stroke-linejoin:miter;stroke-opacity:1" d="M 688.488,335.231 696.113,330.996 z" id="boundary" inkscape:connector-curvature="0" />
	<path style="fill:none;stroke:red;stroke-width:1px;stroke-linecap:butt;stroke-linejoin:miter;stroke-opacity:1" d="M 696.113,330.996 703.737,326.76 z" id="boundary" inkscape:connector-curvature="0" />
	<path style="fill:none;stroke:red;stroke-width:1px;stroke-linecap:butt;stroke-linejoin:miter;stroke-opacity:1" d="M 703.737,326.76 712.208,326.76 z" id="boundary" inkscape:connector-curvature="0" />
	<path style="fill:none;stroke:red;stroke-width:1px;stroke-linecap:butt;stroke-linejoin:miter;stroke-opacity:1" d="M 712.208,326.76 719.833,322.524 z" id="boundary" inkscape:connector-curvature="0" />
	<path style="fill:none;stroke:red;stroke-width:1px;stroke-linecap:butt;stroke-linejoin:miter;stroke-opacity:1" d="M 890.108,183.594 898.579,181.899 z" id="boundary" inkscape:connector-curvature="0" />
	<path style="fill:none;stroke:red;stroke-width:1px;stroke-linecap:butt;stroke-linejoin:miter;stroke-opacity:1" d="M 898.579,181.899 906.203,177.664 z" id="boundary" inkscape:connector-curvature="0" />
	<path style="fill:none;stroke:red;stroke-width:1px;stroke-linecap:butt;stroke-linejoin:miter;stroke-opacity:1" d="M 906.203,177.664 914.675,175.969 z" id="boundary" inkscape:connector-curvature="0" />
	<path style="fill:none;stroke:red;stroke-width:1px;stroke-linecap:butt;stroke-linejoin:miter;stroke-opacity:1" d="M 948.56,173.428 957.032,173.428 z" id="boundary" inkscape:connector-curvature="0" />
	<path style="fill:none;stroke:red;stroke-width:1px;stroke-linecap:butt;stroke-linejoin:miter;stroke-opacity:1" d="M 953.643,246.282 962.114,246.282 z" id="boundary" inkscape:connector-curvature="0" />
	<path style="fill:none;stroke:red;stroke-width:1px;stroke-linecap:butt;stroke-linejoin:miter;stroke-opacity:1" d="M 957.032,173.428 964.656,177.664 z" id="boundary" inkscape:connector-curvature="0" />
	<path style="fill:none;stroke:red;stroke-width:1px;stroke-linecap:butt;stroke-linejoin:miter;stroke-opacity:1" d="M 962.114,246.282 970.586,246.282 z" id="boundary" inkscape:connector-curvature="0" />
	<path style="fill:none;stroke:red;stroke-width:1px;stroke-linecap:butt;stroke-linejoin:miter;stroke-opacity:1" d="M 964.656,177.664 972.28,181.899 z" id="boundary" inkscape:connector-curvature="0" />
	<path style="fill:none;stroke:red;stroke-width:1px;stroke-linecap:butt;stroke-linejoin:miter;stroke-opacity:1" d="M 970.586,246.282 978.21,242.046 z" id="boundary" inkscape:connector-curvature="0" />
	<path style="fill:none;stroke:red;stroke-width:1px;stroke-linecap:butt;stroke-linejoin:miter;stroke-opacity:1" d="M 972.28,181.899 979.904,186.135 z" id="boundary" inkscape:connector-curvature="0" />
	<path style="fill:none;stroke:red;stroke-width:1px;stroke-linecap:butt;stroke-linejoin:miter;stroke-opacity:1" d="M 979.904,186.135 986.681,192.065 z" id="boundary" inkscape:connector-curvature="0" />
	<path style="fill:none;stroke:red;stroke-width:1px;stroke-linecap:butt;stroke-linejoin:miter;stroke-opacity:1" d="M 986.681,192.065 991.764,198.842 z" id="boundary" inkscape:connector-curvature="0" />
	<path style="fill:none;stroke:red;stroke-width:1px;stroke-linecap:butt;stroke-linejoin:miter;stroke-opacity:1" d="M 991.764,198.842 996,206.466 z" id="boundary" inkscape:connector-curvature="0" />
	<circle cx="4" cy="358.104" r="4" fill="#0" id="circle0"/>
	<circle cx="4" cy="366.576" r="4" fill="#0" id="circle1"/>
	<circle cx="4" cy="375.047" r="4" fill="#0" id="circle2"/>
	<circle cx="4" cy="383.518" r="4" fill="#0" id="circle3"/>
	<circle cx="4" cy="391.99" r="4" fill="#0" id="circle4"/>
	<circle cx="4" cy="400.461" r="4" fill="#0" id="circle5"/>
	<circle cx="4" cy="408.933" r="4" fill="#0" id="circle6"/>
	<circle cx="4" cy="417.404" r="4" fill="#0" id="circle7"/>
	<circle cx="4" cy="425.875" r="4" fill="#0" id="circle8"/>
	<circle cx="4" cy="434.347" r="4" fill="#0" id="circle9"/>
	<circle cx="4" cy="527.532" r="4" fill="#0" id="circle10"/>
	<circle cx="4" cy="536.003" r="4" fill="#0" id="circle11"/>
	<circle cx="4" cy="544.475" r="4" fill="#0" id="circle12"/>
	<circle cx="8.2357" cy="336.926" r="4" fill="#0" id="circle13"/>
	<circle cx="8.2357" cy="345.397" r="4" fill="#0" id="circle14"/>
	<circle cx="8.2357" cy="441.971" r="4" fill="#0" id="circle15"/>
	<circle cx="8.2357" cy="519.061" r="4" fill="#0" id="circle16"/>
	<circle cx="8.2357" cy="552.099" r="4" fill="#0" id="circle17"/>
	<circle cx="12.4714" cy="315.747" r="4" fill="#0" id="circle18"/>
	<circle cx="12.4714" cy="324.219" r="4" fill="#0" id="circle19"/>
	<circle cx="12.4714" cy="449.595" r="4" fill="#0" id="circle20"/>
	<circle cx="12.4714" cy="559.723" r="4" fill="#0" id="circle21"/>
	<circle cx="15.0128" cy="458.067" r="4" fill="#0" id="circle22"/>
	<circle cx="15.0128" cy="512.284" r="4" fill="#0" id="circle23"/>
	<circle cx="16.7071" cy="303.04" r="4" fill="#0" id="circle24"/>
	<circle cx="17.5542" cy="566.5" r="4" fill="#0" id="circle25"/>
	<circle cx="20.9428" cy="290.333" r="4" fill="#0" id="circle26"/>
	<circle cx="21.7899" cy="463.997" r="4" fill="#0" id="circle27"/>
	<circle cx="22.6371" cy="508.048" r="4" fill="#0" id="circle28"/>
	<circle cx="25.1785" cy="277.626" r="4" fill="#0" id="circle29"/>
	<circle cx="26.0256" cy="568.195" r="4" fill="#0" id="circle30"/>
	<circle cx="29.4142" cy="269.155" r="4" fill="#0" id="circle31"/>
	<circle cx="29.4142" cy="468.232" r="4" fill="#0" id="circle32"/>
	<circle cx="31.1085" cy="508.048" r="4" fill="#0" id="circle33"/>
	<circle cx="33.6499" cy="260.683" r="4" fill="#0" id="circle34"/>
	<circle cx="34.497" cy="568.195" r="4" fill="#0" id="circle35"/>
	<circle cx="37.8856" cy="252.212" r="4" fill="#0" id="circle36"/>
	<circle cx="37.8856" cy="470.774" r="4" fill="#0" id="circle37"/>
	<circle cx="38.7327" cy="512.284" r="4" fill="#0" id="circle38"/>
	<circle cx="42.9684" cy="568.195" r="4" fill="#0" id="circle39"/>
	<circle cx="44.6627" cy="245.435" r="4" fill="#0" id="circle40"/>
	<circle cx="45.5098" cy="475.009" r="4" fill="#0" id="circle41"/>
	<circle cx="47.2041" cy="514.825" r="4" fill="#0" id="circle42"/>
	<circle cx="51.4398" cy="568.195" r="4" fill="#0" id="circle43"/>
	<circle cx="53.1341" cy="241.199" r="4" fill="#0" id="circle44"/>
	<circle cx="53.1341" cy="479.245" r="4" fill="#0" id="circle45"/>
	<circle cx="53.9812" cy="520.755" r="4" fill="#0" id="circle46"/>
	<circle cx="57.3698" cy="232.728" r="4" fill="#0" id="circle47"/>
	<circle cx="59.9112" cy="568.195" r="4" fill="#0" id="circle48"/>
	<circle cx="61.6055" cy="482.634" r="4" fill="#0" id="circle49"/>
	<circle cx="61.6055" cy="524.991" r="4" fill="#0" id="circle50"/>
	<circle cx="65.8412" cy="228.492" r="4" fill="#0" id="circle51"/>
	<circle cx="68.3826" cy="568.195" r="4" fill="#0" id="circle52"/>
	<circle cx="70.0769" cy="483.481" r="4" fill="#0" id="circle53"/>
	<circle cx="70.0769" cy="524.991" r="4" fill="#0" id="circle54"/>
	<circle cx="74.3126" cy="224.256" r="4" fill="#0" id="circle55"/>
	<circle cx="76.854" cy="568.195" r="4" fill="#0" id="circle56"/>
	<circle cx="77.7011" cy="487.716" r="4" fill="#0" id="circle57"/>
	<circle cx="78.5482" cy="524.991" r="4" fill="#0" id="circle58"/>
	<circle cx="81.0897" cy="217.479" r="4" fill="#0" id="circle59"/>
	<circle cx="85.3254" cy="568.195" r="4" fill="#0" id="circle60"/>
	<circle cx="86.1725" cy="487.716" r="4" fill="#0" id="circle61"/>
	<circle cx="87.0196" cy="524.991" r="4" fill="#0" id="circle62"/>
	<circle cx="89.5611" cy="213.243" r="4" fill="#0" id="circle63"/>
	<circle cx="93.7968" cy="568.195" r="4" fill="#0" id="circle64"/>
	<circle cx="94.6439" cy="490.258" r="4" fill="#0" id="circle65"/>
	<circle cx="95.491" cy="524.991" r="4" fill="#0" id="circle66"/>
	<circle cx="96.3382" cy="207.313" r="4" fill="#0" id="circle67"/>
	<circle cx="102.268" cy="568.195" r="4" fill="#0" id="circle68"/>
	<circle cx="103.115" cy="491.952" r="4" fill="#0" id="circle69"/>
	<circle cx="103.962" cy="203.078" r="4" fill="#0" id="circle70"/>
	<circle cx="103.962" cy="524.991" r="4" fill="#0" id="circle71"/>
	<circle cx="110.74" cy="196.301" r="4" fill="#0" id="circle72"/>
	<circle cx="110.74" cy="568.195" r="4" fill="#0" id="circle73"/>
	<circle cx="111.587" cy="491.952" r="4" fill="#0" id="circle74"/>
	<circle cx="112.434" cy="524.991" r="4" fill="#0" id="circle75"/>
	<circle cx="119.211" cy="192.065" r="4" fill="#0" id="circle76"/>
	<circle cx="119.211" cy="496.188" r="4" fill="#0" id="circle77"/>
	<circle cx="119.211" cy="568.195" r="4" fill="#0" id="circle78"/>
	<circle cx="120.905" cy="524.991" r="4" fill="#0" id="circle79"/>
	<circle cx="127.682" cy="187.829" r="4" fill="#0" id="circle80"/>
	<circle cx="127.682" cy="496.188" r="4" fill="#0" id="circle81"/>
	<circle cx="127.682" cy="568.195" r="4" fill="#0" id="circle82"/>
	<circle cx="129.377" cy="524.991" r="4" fill="#0" id="circle83"/>
	<circle cx="134.459" cy="181.899" r="4" fill="#0" id="circle84"/>
	<circle cx="136.154" cy="496.188" r="4" fill="#0" id="circle85"/>
	<circle cx="136.154" cy="568.195" r="4" fill="#0" id="circle86"/>
	<circle cx="137.848" cy="524.991" r="4" fill="#0" id="circle87"/>
	<circle cx="142.084" cy="177.664" r="4" fill="#0" id="circle88"/>
	<circle cx="143.778" cy="563.959" r="4" fill="#0" id="circle89"/>
	<circle cx="144.625" cy="496.188" r="4" fill="#0" id="circle90"/>
	<circle cx="146.319" cy="524.991" r="4" fill="#0" id="circle91"/>
	<circle cx="149.708" cy="173.428" r="4" fill="#0" id="circle92"/>
	<circle cx="152.249" cy="500.424" r="4" fill="#0" id="circle93"/>
	<circle cx="152.249" cy="563.959" r="4" fill="#0" id="circle94"/>
	<circle cx="154.791" cy="524.991" r="4" fill="#0" id="circle95"/>
	<circle cx="157.332" cy="169.192" r="4" fill="#0" id="circle96"/>
	<circle cx="160.721" cy="500.424" r="4" fill="#0" id="circle97"/>
	<circle cx="160.721" cy="563.959" r="4" fill="#0" id="circle98"/>
	<circle cx="163.262" cy="524.991" r="4" fill="#0" id="circle99"/>
	<circle cx="164.956" cy="164.956" r="4" fill="#0" id="circle100"/>
	<circle cx="169.192" cy="500.424" r="4" fill="#0" id="circle101"/>
	<circle cx="169.192" cy="563.959" r="4" fill="#0" id="circle102"/>
	<circle cx="171.734" cy="524.991" r="4" fill="#0" id="circle103"/>
	<circle cx="172.581" cy="160.721" r="4" fill="#0" id="circle104"/>
	<circle cx="177.664" cy="500.424" r="4" fill="#0" id="circle105"/>
	<circle cx="177.664" cy="563.959" r="4" fill="#0" id="circle106"/>
	<circle cx="180.205" cy="156.485" r="4" fill="#0" id="circle107"/>
	<circle cx="180.205" cy="524.991" r="4" fill="#0" id="circle108"/>
	<circle cx="186.135" cy="500.424" r="4" fill="#0" id="circle109"/>
	<circle cx="186.135" cy="563.959" r="4" fill="#0" id="circle110"/>
	<circle cx="188.676" cy="156.485" r="4" fill="#0" id="circle111"/>
	<circle cx="188.676" cy="520.755" r="4" fill="#0" id="circle112"/>
	<circle cx="194.606" cy="500.424" r="4" fill="#0" id="circle113"/>
	<circle cx="194.606" cy="563.959" r="4" fill="#0" id="circle114"/>
	<circle cx="196.301" cy="152.249" r="4" fill="#0" id="circle115"/>
	<circle cx="197.148" cy="520.755" r="4" fill="#0" id="circle116"/>
	<circle cx="203.078" cy="500.424" r="4" fill="#0" id="circle117"/>
	<circle cx="203.078" cy="563.959" r="4" fill="#0" id="circle118"/>
	<circle cx="204.772" cy="148.861" r="4" fill="#0" id="circle119"/>
	<circle cx="205.619" cy="516.519" r="4" fill="#0" id="circle120"/>
	<circle cx="210.702" cy="559.723" r="4" fill="#0" id="circle121"/>
	<circle cx="211.549" cy="500.424" r="4" fill="#0" id="circle122"/>
	<circle cx="213.243" cy="148.014" r="4" fill="#0" id="circle123"/>
	<circle cx="214.091" cy="516.519" r="4" fill="#0" id="circle124"/>
	<circle cx="219.173" cy="559.723" r="4" fill="#0" id="circle125"/>
	<circle cx="220.02" cy="500.424" r="4" fill="#0" id="circle126"/>
	<circle cx="220.02" cy="508.895" r="4" fill="#0" id="circle127"/>
	<circle cx="220.868" cy="143.778" r="4" fill="#0" id="circle128"/>
	<circle cx="227.645" cy="559.723" r="4" fill="#0" id="circle129"/>
	<circle cx="229.339" cy="143.778" r="4" fill="#0" id="circle130"/>
	<circle cx="235.269" cy="555.488" r="4" fill="#0" id="circle131"/>
	<circle cx="237.81" cy="141.237" r="4" fill="#0" id="circle132"/>
	<circle cx="243.74" cy="555.488" r="4" fill="#0" id="circle133"/>
	<circle cx="246.282" cy="139.542" r="4" fill="#0" id="circle134"/>
	<circle cx="252.212" cy="554.64" r="4" fill="#0" id="circle135"/>
	<circle cx="254.753" cy="139.542" r="4" fill="#0" id="circle136"/>
	<circle cx="260.683" cy="551.252" r="4" fill="#0" id="circle137"/>
	<circle cx="262.377" cy="135.307" r="4" fill="#0" id="circle138"/>
	<circle cx="269.155" cy="551.252" r="4" fill="#0" id="circle139"/>
	<circle cx="270.849" cy="135.307" r="4" fill="#0" id="circle140"/>
	<circle cx="277.626" cy="550.405" r="4" fill="#0" id="circle141"/>
	<circle cx="279.32" cy="135.307" r="4" fill="#0" id="circle142"/>
	<circle cx="286.097" cy="547.016" r="4" fill="#0" id="circle143"/>
	<circle cx="287.792" cy="135.307" r="4" fill="#0" id="circle144"/>
	<circle cx="294.569" cy="547.016" r="4" fill="#0" id="circle145"/>
	<circle cx="296.263" cy="135.307" r="4" fill="#0" id="circle146"/>
	<circle cx="300.499" cy="31.9556" r="4" fill="#0" id="circle147"/>
	<circle cx="300.499" cy="40.427" r="4" fill="#0" id="circle148"/>
	<circle cx="300.499" cy="48.8984" r="4" fill="#0" id="circle149"/>
	<circle cx="303.04" cy="546.169" r="4" fill="#0" id="circle150"/>
	<circle cx="304.734" cy="23.4842" r="4" fill="#0" id="circle151"/>
	<circle cx="304.734" cy="56.5226" r="4" fill="#0" id="circle152"/>
	<circle cx="304.734" cy="135.307" r="4" fill="#0" id="circle153"/>
	<circle cx="308.97" cy="15.0128" r="4" fill="#0" id="circle154"/>
	<circle cx="308.97" cy="64.1469" r="4" fill="#0" id="circle155"/>
	<circle cx="311.512" cy="542.781" r="4" fill="#0" id="circle156"/>
	<circle cx="313.206" cy="135.307" r="4" fill="#0" id="circle157"/>
	<circle cx="315.747" cy="8.2357" r="4" fill="#0" id="circle158"/>
	<circle cx="316.594" cy="68.3826" r="4" fill="#0" id="circle159"/>
	<circle cx="319.983" cy="541.933" r="4" fill="#0" id="circle160"/>
	<circle cx="321.677" cy="135.307" r="4" fill="#0" id="circle161"/>
	<circle cx="324.219" cy="4" r="4" fill="#0" id="circle162"/>
	<circle cx="324.219" cy="72.6183" r="4" fill="#0" id="circle163"/>
	<circle cx="328.454" cy="538.545" r="4" fill="#0" id="circle164"/>
	<circle cx="330.149" cy="135.307" r="4" fill="#0" id="circle165"/>
	<circle cx="332.69" cy="4" r="4" fill="#0" id="circle166"/>
	<circle cx="332.69" cy="72.6183" r="4" fill="#0" id="circle167"/>
	<circle cx="334.384" cy="91.2553" r="4" fill="#0" id="circle168"/>
	<circle cx="336.926" cy="537.698" r="4" fill="#0" id="circle169"/>
	<circle cx="338.62" cy="82.7839" r="4" fill="#0" id="circle170"/>
	<circle cx="338.62" cy="98.8796" r="4" fill="#0" id="circle171"/>
	<circle cx="338.62" cy="135.307" r="4" fill="#0" id="circle172"/>
	<circle cx="341.161" cy="4" r="4" fill="#0" id="circle173"/>
	<circle cx="341.161" cy="72.6183" r="4" fill="#0" id="circle174"/>
	<circle cx="345.397" cy="534.309" r="4" fill="#0" id="circle175"/>
	<circle cx="347.091" cy="102.268" r="4" fill="#0" id="circle176"/>
	<circle cx="347.091" cy="135.307" r="4" fill="#0" id="circle177"/>
	<circle cx="349.633" cy="4" r="4" fill="#0" id="circle178"/>
	<circle cx="353.021" cy="530.073" r="4" fill="#0" id="circle179"/>
	<circle cx="354.716" cy="106.504" r="4" fill="#0" id="circle180"/>
	<circle cx="355.563" cy="135.307" r="4" fill="#0" id="circle181"/>
	<circle cx="358.104" cy="4" r="4" fill="#0" id="circle182"/>
	<circle cx="359.798" cy="113.281" r="4" fill="#0" id="circle183"/>
	<circle cx="359.798" cy="121.752" r="4" fill="#0" id="circle184"/>
	<circle cx="361.493" cy="530.073" r="4" fill="#0" id="circle185"/>
	<circle cx="366.576" cy="4" r="4" fill="#0" id="circle186"/>
	<circle cx="369.964" cy="530.073" r="4" fill="#0" id="circle187"/>
	<circle cx="375.047" cy="4" r="4" fill="#0" id="circle188"/>
	<circle cx="377.588" cy="525.838" r="4" fill="#0" id="circle189"/>
	<circle cx="383.518" cy="4" r="4" fill="#0" id="circle190"/>
	<circle cx="386.06" cy="525.838" r="4" fill="#0" id="circle191"/>
	<circle cx="391.99" cy="4" r="4" fill="#0" id="circle192"/>
	<circle cx="394.531" cy="51.4398" r="4" fill="#0" id="circle193"/>
	<circle cx="394.531" cy="59.9112" r="4" fill="#0" id="circle194"/>
	<circle cx="394.531" cy="521.602" r="4" fill="#0" id="circle195"/>
	<circle cx="398.767" cy="67.5354" r="4" fill="#0" id="circle196"/>
	<circle cx="398.767" cy="89.5611" r="4" fill="#0" id="circle197"/>
	<circle cx="398.767" cy="98.0325" r="4" fill="#0" id="circle198"/>
	<circle cx="398.767" cy="106.504" r="4" fill="#0" id="circle199"/>
	<circle cx="400.461" cy="4" r="4" fill="#0" id="circle200"/>
	<circle cx="400.461" cy="114.975" r="4" fill="#0" id="circle201"/>
	<circle cx="402.155" cy="55.6755" r="4" fill="#0" id="circle202"/>
	<circle cx="403.003" cy="521.602" r="4" fill="#0" id="circle203"/>
	<circle cx="404.697" cy="122.599" r="4" fill="#0" id="circle204"/>
	<circle cx="406.391" cy="71.7711" r="4" fill="#0" id="circle205"/>
	<circle cx="407.238" cy="85.3254" r="4" fill="#0" id="circle206"/>
	<circle cx="408.933" cy="4" r="4" fill="#0" id="circle207"/>
	<circle cx="410.627" cy="55.6755" r="4" fill="#0" id="circle208"/>
	<circle cx="411.474" cy="517.366" r="4" fill="#0" id="circle209"/>
	<circle cx="412.321" cy="126.835" r="4" fill="#0" id="circle210"/>
	<circle cx="417.404" cy="4" r="4" fill="#0" id="circle211"/>
	<circle cx="418.251" cy="51.4398" r="4" fill="#0" id="circle212"/>
	<circle cx="419.945" cy="131.071" r="4" fill="#0" id="circle213"/>
	<circle cx="419.945" cy="517.366" r="4" fill="#0" id="circle214"/>
	<circle cx="425.875" cy="4" r="4" fill="#0" id="circle215"/>
	<circle cx="426.722" cy="49.7455" r="4" fill="#0" id="circle216"/>
	<circle cx="428.417" cy="131.071" r="4" fill="#0" id="circle217"/>
	<circle cx="428.417" cy="517.366" r="4" fill="#0" id="circle218"/>
	<circle cx="434.347" cy="4" r="4" fill="#0" id="circle219"/>
	<circle cx="435.194" cy="45.5098" r="4" fill="#0" id="circle220"/>
	<circle cx="436.888" cy="131.071" r="4" fill="#0" id="circle221"/>
	<circle cx="436.888" cy="513.131" r="4" fill="#0" id="circle222"/>
	<circle cx="441.124" cy="38.7327" r="4" fill="#0" id="circle223"/>
	<circle cx="441.971" cy="8.2357" r="4" fill="#0" id="circle224"/>
	<circle cx="445.36" cy="30.2613" r="4" fill="#0" id="circle225"/>
	<circle cx="445.36" cy="131.071" r="4" fill="#0" id="circle226"/>
	<circle cx="445.36" cy="508.895" r="4" fill="#0" id="circle227"/>
	<circle cx="448.748" cy="14.1657" r="4" fill="#0" id="circle228"/>
	<circle cx="449.595" cy="22.6371" r="4" fill="#0" id="circle229"/>
	<circle cx="452.137" cy="502.965" r="4" fill="#0" id="circle230"/>
	<circle cx="452.984" cy="126.835" r="4" fill="#0" id="circle231"/>
	<circle cx="453.831" cy="470.774" r="4" fill="#0" id="circle232"/>
	<circle cx="453.831" cy="479.245" r="4" fill="#0" id="circle233"/>
	<circle cx="453.831" cy="487.716" r="4" fill="#0" id="circle234"/>
	<circle cx="458.067" cy="120.058" r="4" fill="#0" id="circle235"/>
	<circle cx="462.302" cy="466.538" r="4" fill="#0" id="circle236"/>
	<circle cx="464.844" cy="114.128" r="4" fill="#0" id="circle237"/>
	<circle cx="470.774" cy="466.538" r="4" fill="#0" id="circle238"/>
	<circle cx="472.468" cy="109.892" r="4" fill="#0" id="circle239"/>
	<circle cx="479.245" cy="466.538" r="4" fill="#0" id="circle240"/>
	<circle cx="480.092" cy="105.657" r="4" fill="#0" id="circle241"/>
	<circle cx="487.716" cy="466.538" r="4" fill="#0" id="circle242"/>
	<circle cx="488.564" cy="105.657" r="4" fill="#0" id="circle243"/>
	<circle cx="496.188" cy="466.538" r="4" fill="#0" id="circle244"/>
	<circle cx="497.035" cy="105.657" r="4" fill="#0" id="circle245"/>
	<circle cx="504.659" cy="466.538" r="4" fill="#0" id="circle246"/>
	<circle cx="505.506" cy="105.657" r="4" fill="#0" id="circle247"/>
	<circle cx="513.131" cy="109.892" r="4" fill="#0" id="circle248"/>
	<circle cx="513.131" cy="466.538" r="4" fill="#0" id="circle249"/>
	<circle cx="521.602" cy="112.434" r="4" fill="#0" id="circle250"/>
	<circle cx="521.602" cy="466.538" r="4" fill="#0" id="circle251"/>
	<circle cx="529.226" cy="116.67" r="4" fill="#0" id="circle252"/>
	<circle cx="530.073" cy="466.538" r="4" fill="#0" id="circle253"/>
	<circle cx="537.698" cy="120.058" r="4" fill="#0" id="circle254"/>
	<circle cx="538.545" cy="466.538" r="4" fill="#0" id="circle255"/>
	<circle cx="545.322" cy="124.294" r="4" fill="#0" id="circle256"/>
	<circle cx="547.016" cy="466.538" r="4" fill="#0" id="circle257"/>
	<circle cx="551.252" cy="131.071" r="4" fill="#0" id="circle258"/>
	<circle cx="555.488" cy="466.538" r="4" fill="#0" id="circle259"/>
	<circle cx="558.876" cy="135.307" r="4" fill="#0" id="circle260"/>
	<circle cx="563.959" cy="199.689" r="4" fill="#0" id="circle261"/>
	<circle cx="563.959" cy="208.161" r="4" fill="#0" id="circle262"/>
	<circle cx="563.959" cy="216.632" r="4" fill="#0" id="circle263"/>
	<circle cx="563.959" cy="466.538" r="4" fill="#0" id="circle264"/>
	<circle cx="567.348" cy="137.001" r="4" fill="#0" id="circle265"/>
	<circle cx="572.43" cy="199.689" r="4" fill="#0" id="circle266"/>
	<circle cx="572.43" cy="220.02" r="4" fill="#0" id="circle267"/>
	<circle cx="572.43" cy="466.538" r="4" fill="#0" id="circle268"/>
	<circle cx="575.819" cy="139.542" r="4" fill="#0" id="circle269"/>
	<circle cx="580.902" cy="199.689" r="4" fill="#0" id="circle270"/>
	<circle cx="580.902" cy="220.02" r="4" fill="#0" id="circle271"/>
	<circle cx="580.902" cy="466.538" r="4" fill="#0" id="circle272"/>
	<circle cx="584.29" cy="139.542" r="4" fill="#0" id="circle273"/>
	<circle cx="589.373" cy="199.689" r="4" fill="#0" id="circle274"/>
	<circle cx="589.373" cy="220.02" r="4" fill="#0" id="circle275"/>
	<circle cx="589.373" cy="356.41" r="4" fill="#0" id="circle276"/>
	<circle cx="589.373" cy="364.881" r="4" fill="#0" id="circle277"/>
	<circle cx="589.373" cy="373.353" r="4" fill="#0" id="circle278"/>
	<circle cx="589.373" cy="381.824" r="4" fill="#0" id="circle279"/>
	<circle cx="589.373" cy="466.538" r="4" fill="#0" id="circle280"/>
	<circle cx="592.762" cy="139.542" r="4" fill="#0" id="circle281"/>
	<circle cx="593.609" cy="389.448" r="4" fill="#0" id="circle282"/>
	<circle cx="596.997" cy="195.453" r="4" fill="#0" id="circle283"/>
	<circle cx="596.997" cy="352.174" r="4" fill="#0" id="circle284"/>
	<circle cx="597.845" cy="220.02" r="4" fill="#0" id="circle285"/>
	<circle cx="597.845" cy="466.538" r="4" fill="#0" id="circle286"/>
	<circle cx="601.233" cy="139.542" r="4" fill="#0" id="circle287"/>
	<circle cx="601.233" cy="385.213" r="4" fill="#0" id="circle288"/>
	<circle cx="605.469" cy="195.453" r="4" fill="#0" id="circle289"/>
	<circle cx="605.469" cy="349.633" r="4" fill="#0" id="circle290"/>
	<circle cx="606.316" cy="220.02" r="4" fill="#0" id="circle291"/>
	<circle cx="606.316" cy="462.302" r="4" fill="#0" id="circle292"/>
	<circle cx="608.857" cy="380.977" r="4" fill="#0" id="circle293"/>
	<circle cx="609.705" cy="139.542" r="4" fill="#0" id="circle294"/>
	<circle cx="613.94" cy="195.453" r="4" fill="#0" id="circle295"/>
	<circle cx="613.94" cy="215.785" r="4" fill="#0" id="circle296"/>
	<circle cx="613.94" cy="347.939" r="4" fill="#0" id="circle297"/>
	<circle cx="614.787" cy="462.302" r="4" fill="#0" id="circle298"/>
	<circle cx="617.329" cy="380.977" r="4" fill="#0" id="circle299"/>
	<circle cx="618.176" cy="139.542" r="4" fill="#0" id="circle300"/>
	<circle cx="622.412" cy="195.453" r="4" fill="#0" id="circle301"/>
	<circle cx="622.412" cy="215.785" r="4" fill="#0" id="circle302"/>
	<circle cx="622.412" cy="345.397" r="4" fill="#0" id="circle303"/>
	<circle cx="623.259" cy="458.067" r="4" fill="#0" id="circle304"/>
	<circle cx="624.953" cy="376.741" r="4" fill="#0" id="circle305"/>
	<circle cx="626.647" cy="139.542" r="4" fill="#0" id="circle306"/>
	<circle cx="630.883" cy="192.912" r="4" fill="#0" id="circle307"/>
	<circle cx="630.883" cy="215.785" r="4" fill="#0" id="circle308"/>
	<circle cx="630.883" cy="343.703" r="4" fill="#0" id="circle309"/>
	<circle cx="631.73" cy="453.831" r="4" fill="#0" id="circle310"/>
	<circle cx="633.424" cy="376.741" r="4" fill="#0" id="circle311"/>
	<circle cx="635.119" cy="139.542" r="4" fill="#0" id="circle312"/>
	<circle cx="639.354" cy="188.676" r="4" fill="#0" id="circle313"/>
	<circle cx="639.354" cy="215.785" r="4" fill="#0" id="circle314"/>
	<circle cx="639.354" cy="343.703" r="4" fill="#0" id="circle315"/>
	<circle cx="640.202" cy="449.595" r="4" fill="#0" id="circle316"/>
	<circle cx="641.049" cy="380.977" r="4" fill="#0" id="circle317"/>
	<circle cx="643.59" cy="139.542" r="4" fill="#0" id="circle318"/>
	<circle cx="644.437" cy="441.124" r="4" fill="#0" id="circle319"/>
	<circle cx="646.979" cy="211.549" r="4" fill="#0" id="circle320"/>
	<circle cx="647.826" cy="184.441" r="4" fill="#0" id="circle321"/>
	<circle cx="647.826" cy="343.703" r="4" fill="#0" id="circle322"/>
	<circle cx="648.673" cy="385.213" r="4" fill="#0" id="circle323"/>
	<circle cx="648.673" cy="432.652" r="4" fill="#0" id="circle324"/>
	<circle cx="651.214" cy="143.778" r="4" fill="#0" id="circle325"/>
	<circle cx="652.909" cy="392.837" r="4" fill="#0" id="circle326"/>
	<circle cx="652.909" cy="424.181" r="4" fill="#0" id="circle327"/>
	<circle cx="655.45" cy="211.549" r="4" fill="#0" id="circle328"/>
	<circle cx="655.45" cy="339.467" r="4" fill="#0" id="circle329"/>
	<circle cx="656.297" cy="180.205" r="4" fill="#0" id="circle330"/>
	<circle cx="657.144" cy="400.461" r="4" fill="#0" id="circle331"/>
	<circle cx="657.144" cy="408.933" r="4" fill="#0" id="circle332"/>
	<circle cx="658.839" cy="148.014" r="4" fill="#0" id="circle333"/>
	<circle cx="663.074" cy="173.428" r="4" fill="#0" id="circle334"/>
	<circle cx="663.921" cy="211.549" r="4" fill="#0" id="circle335"/>
	<circle cx="663.921" cy="339.467" r="4" fill="#0" id="circle336"/>
	<circle cx="665.616" cy="153.096" r="4" fill="#0" id="circle337"/>
	<circle cx="667.31" cy="164.956" r="4" fill="#0" id="circle338"/>
	<circle cx="672.393" cy="211.549" r="4" fill="#0" id="circle339"/>
	<circle cx="672.393" cy="339.467" r="4" fill="#0" id="circle340"/>
	<circle cx="680.017" cy="335.231" r="4" fill="#0" id="circle341"/>
	<circle cx="680.864" cy="211.549" r="4" fill="#0" id="circle342"/>
	<circle cx="688.488" cy="207.313" r="4" fill="#0" id="circle343"/>
	<circle cx="688.488" cy="335.231" r="4" fill="#0" id="circle344"/>
	<circle cx="696.113" cy="330.996" r="4" fill="#0" id="circle345"/>
	<circle cx="696.96" cy="207.313" r="4" fill="#0" id="circle346"/>
	<circle cx="703.737" cy="326.76" r="4" fill="#0" id="circle347"/>
	<circle cx="705.431" cy="207.313" r="4" fill="#0" id="circle348"/>
	<circle cx="712.208" cy="326.76" r="4" fill="#0" id="circle349"/>
	<circle cx="713.903" cy="207.313" r="4" fill="#0" id="circle350"/>
	<circle cx="719.833" cy="322.524" r="4" fill="#0" id="circle351"/>
	<circle cx="722.374" cy="207.313" r="4" fill="#0" id="circle352"/>
	<circle cx="728.304" cy="319.983" r="4" fill="#0" id="circle353"/>
	<circle cx="730.845" cy="207.313" r="4" fill="#0" id="circle354"/>
	<circle cx="736.775" cy="318.289" r="4" fill="#0" id="circle355"/>
	<circle cx="739.317" cy="207.313" r="4" fill="#0" id="circle356"/>
	<circle cx="745.247" cy="315.747" r="4" fill="#0" id="circle357"/>
	<circle cx="747.788" cy="207.313" r="4" fill="#0" id="circle358"/>
	<circle cx="753.718" cy="311.512" r="4" fill="#0" id="circle359"/>
	<circle cx="755.412" cy="203.078" r="4" fill="#0" id="circle360"/>
	<circle cx="762.19" cy="307.276" r="4" fill="#0" id="circle361"/>
	<circle cx="763.884" cy="203.078" r="4" fill="#0" id="circle362"/>
	<circle cx="770.661" cy="303.04" r="4" fill="#0" id="circle363"/>
	<circle cx="772.355" cy="203.078" r="4" fill="#0" id="circle364"/>
	<circle cx="779.132" cy="298.804" r="4" fill="#0" id="circle365"/>
	<circle cx="780.827" cy="203.078" r="4" fill="#0" id="circle366"/>
	<circle cx="787.604" cy="294.569" r="4" fill="#0" id="circle367"/>
	<circle cx="788.451" cy="198.842" r="4" fill="#0" id="circle368"/>
	<circle cx="796.075" cy="290.333" r="4" fill="#0" id="circle369"/>
	<circle cx="796.922" cy="198.842" r="4" fill="#0" id="circle370"/>
	<circle cx="804.547" cy="288.639" r="4" fill="#0" id="circle371"/>
	<circle cx="805.394" cy="198.842" r="4" fill="#0" id="circle372"/>
	<circle cx="813.018" cy="286.097" r="4" fill="#0" id="circle373"/>
	<circle cx="813.865" cy="198.842" r="4" fill="#0" id="circle374"/>
	<circle cx="821.489" cy="281.862" r="4" fill="#0" id="circle375"/>
	<circle cx="822.336" cy="198.842" r="4" fill="#0" id="circle376"/>
	<circle cx="829.961" cy="280.167" r="4" fill="#0" id="circle377"/>
	<circle cx="830.808" cy="198.842" r="4" fill="#0" id="circle378"/>
	<circle cx="838.432" cy="277.626" r="4" fill="#0" id="circle379"/>
	<circle cx="839.279" cy="198.842" r="4" fill="#0" id="circle380"/>
	<circle cx="846.904" cy="273.39" r="4" fill="#0" id="circle381"/>
	<circle cx="847.751" cy="196.301" r="4" fill="#0" id="circle382"/>
	<circle cx="853.681" cy="267.46" r="4" fill="#0" id="circle383"/>
	<circle cx="856.222" cy="194.606" r="4" fill="#0" id="circle384"/>
	<circle cx="862.152" cy="267.46" r="4" fill="#0" id="circle385"/>
	<circle cx="864.693" cy="192.065" r="4" fill="#0" id="circle386"/>
	<circle cx="869.776" cy="263.225" r="4" fill="#0" id="circle387"/>
	<circle cx="873.165" cy="190.371" r="4" fill="#0" id="circle388"/>
	<circle cx="878.248" cy="263.225" r="4" fill="#0" id="circle389"/>
	<circle cx="881.636" cy="187.829" r="4" fill="#0" id="circle390"/>
	<circle cx="885.872" cy="258.989" r="4" fill="#0" id="circle391"/>
	<circle cx="890.108" cy="183.594" r="4" fill="#0" id="circle392"/>
	<circle cx="894.343" cy="254.753" r="4" fill="#0" id="circle393"/>
	<circle cx="898.579" cy="181.899" r="4" fill="#0" id="circle394"/>
	<circle cx="902.815" cy="254.753" r="4" fill="#0" id="circle395"/>
	<circle cx="906.203" cy="177.664" r="4" fill="#0" id="circle396"/>
	<circle cx="911.286" cy="250.518" r="4" fill="#0" id="circle397"/>
	<circle cx="914.675" cy="175.969" r="4" fill="#0" id="circle398"/>
	<circle cx="919.757" cy="250.518" r="4" fill="#0" id="circle399"/>
	<circle cx="923.146" cy="173.428" r="4" fill="#0" id="circle400"/>
	<circle cx="928.229" cy="250.518" r="4" fill="#0" id="circle401"/>
	<circle cx="931.617" cy="173.428" r="4" fill="#0" id="circle402"/>
	<circle cx="936.7" cy="246.282" r="4" fill="#0" id="circle403"/>
	<circle cx="940.089" cy="173.428" r="4" fill="#0" id="circle404"/>
	<circle cx="945.172" cy="246.282" r="4" fill="#0" id="circle405"/>
	<circle cx="948.56" cy="173.428" r="4" fill="#0" id="circle406"/>
	<circle cx="953.643" cy="246.282" r="4" fill="#0" id="circle407"/>
	<circle cx="957.032" cy="173.428" r="4" fill="#0" id="circle408"/>
	<circle cx="962.114" cy="246.282" r="4" fill="#0" id="circle409"/>
	<circle cx="964.656" cy="177.664" r="4" fill="#0" id="circle410"/>
	<circle cx="970.586" cy="246.282" r="4" fill="#0" id="circle411"/>
	<circle cx="972.28" cy="181.899" r="4" fill="#0" id="circle412"/>
	<circle cx="978.21" cy="242.046" r="4" fill="#0" id="circle413"/>
	<circle cx="979.904" cy="186.135" r="4" fill="#0" id="circle414"/>
	<circle cx="984.987" cy="236.963" r="4" fill="#0" id="circle415"/>
	<circle cx="986.681" cy="192.065" r="4" fill="#0" id="circle416"/>
	<circle cx="991.764" cy="198.842" r="4" fill="#0" id="circle417"/>
	<circle cx="991.764" cy="225.103" r="4" fill="#0" id="circle418"/>
	<circle cx="996" cy="206.466" r="4" fill="#0" id="circle419"/>
	<circle cx="996" cy="214.938" r="4" fill="#0" id="circle420"/>
	</g>
</svg>