<?xml version="1.0" encoding="UTF-8" standalone="no"?>
<!-- Created with CurveBenchmark -->
<svg
	xmlns:dc="http://purl.org/dc/elements/1.1/"
	xmlns:cc="http://creativecommons.org/ns#"
	xmlns:rdf="http://www.w3.org/1999/02/22-rdf-syntax-ns#"
	xmlns:svg="http://www.w3.org/2000/svg"
	xmlns="http://www.w3.org/2000/svg"
	xmlns:sodipodi="http://sodipodi.sourceforge.net/DTD/sodipodi-0.dtd"
	xmlns:inkscape="http://www.inkscape.org/namespaces/inkscape"
	width="1000"
	height="1000"
	id="svg2"
	version="1.1"
	sodipodi:docname="manifold/vicur-cat12.png.txt">
<defs
	id="defs4" />
<metadata
	id="metadata7">
	<rdf:RDF>
		<cc:Work
			rdf:about="">
			<dc:format>image/svg+xml</dc:format>
			<dc:type
				rdf:resource="http://purl.org/dc/dcmitype/StillImage" />
			<dc:title></dc:title>
		</cc:Work>
	</rdf:RDF>
</metadata>
<g
	inkscape:label="Layer 1"
	inkscape:groupmode="layer"
	id="layer1">
	<path style="fill:none;stroke:red;stroke-width:1px;stroke-linecap:butt;stroke-linejoin:miter;stroke-opacity:1" d="M 4,161.322 4,175.888 z" id="boundary" inkscape:connector-curvature="0" />
	<path style="fill:none;stroke:red;stroke-width:1px;stroke-linecap:butt;stroke-linejoin:miter;stroke-opacity:1" d="M 4,161.322 11.2834,139.471 z" id="boundary" inkscape:connector-curvature="0" />
	<path style="fill:none;stroke:red;stroke-width:1px;stroke-linecap:butt;stroke-linejoin:miter;stroke-opacity:1" d="M 4,175.888 4,190.455 z" id="boundary" inkscape:connector-curvature="0" />
	<path style="fill:none;stroke:red;stroke-width:1px;stroke-linecap:butt;stroke-linejoin:miter;stroke-opacity:1" d="M 4,190.455 4,205.022 z" id="boundary" inkscape:connector-curvature="0" />
	<path style="fill:none;stroke:red;stroke-width:1px;stroke-linecap:butt;stroke-linejoin:miter;stroke-opacity:1" d="M 4,205.022 4,219.589 z" id="boundary" inkscape:connector-curvature="0" />
	<path style="fill:none;stroke:red;stroke-width:1px;stroke-linecap:butt;stroke-linejoin:miter;stroke-opacity:1" d="M 4,219.589 4,234.156 z" id="boundary" inkscape:connector-curvature="0" />
	<path style="fill:none;stroke:red;stroke-width:1px;stroke-linecap:butt;stroke-linejoin:miter;stroke-opacity:1" d="M 4,234.156 4,248.722 z" id="boundary" inkscape:connector-curvature="0" />
	<path style="fill:none;stroke:red;stroke-width:1px;stroke-linecap:butt;stroke-linejoin:miter;stroke-opacity:1" d="M 4,248.722 11.2834,261.833 z" id="boundary" inkscape:connector-curvature="0" />
	<path style="fill:none;stroke:red;stroke-width:1px;stroke-linecap:butt;stroke-linejoin:miter;stroke-opacity:1" d="M 11.2834,15.6535 11.2834,30.2203 z" id="boundary" inkscape:connector-curvature="0" />
	<path style="fill:none;stroke:red;stroke-width:1px;stroke-linecap:butt;stroke-linejoin:miter;stroke-opacity:1" d="M 11.2834,15.6535 22.9369,4 z" id="boundary" inkscape:connector-curvature="0" />
	<path style="fill:none;stroke:red;stroke-width:1px;stroke-linecap:butt;stroke-linejoin:miter;stroke-opacity:1" d="M 11.2834,30.2203 11.2834,44.7871 z" id="boundary" inkscape:connector-curvature="0" />
	<path style="fill:none;stroke:red;stroke-width:1px;stroke-linecap:butt;stroke-linejoin:miter;stroke-opacity:1" d="M 11.2834,44.7871 11.2834,59.3539 z" id="boundary" inkscape:connector-curvature="0" />
	<path style="fill:none;stroke:red;stroke-width:1px;stroke-linecap:butt;stroke-linejoin:miter;stroke-opacity:1" d="M 11.2834,59.3539 11.2834,73.9207 z" id="boundary" inkscape:connector-curvature="0" />
	<path style="fill:none;stroke:red;stroke-width:1px;stroke-linecap:butt;stroke-linejoin:miter;stroke-opacity:1" d="M 11.2834,73.9207 11.2834,88.4875 z" id="boundary" inkscape:connector-curvature="0" />
	<path style="fill:none;stroke:red;stroke-width:1px;stroke-linecap:butt;stroke-linejoin:miter;stroke-opacity:1" d="M 11.2834,88.4875 11.2834,103.054 z" id="boundary" inkscape:connector-curvature="0" />
	<path style="fill:none;stroke:red;stroke-width:1px;stroke-linecap:butt;stroke-linejoin:miter;stroke-opacity:1" d="M 11.2834,103.054 11.2834,117.621 z" id="boundary" inkscape:connector-curvature="0" />
	<path style="fill:none;stroke:red;stroke-width:1px;stroke-linecap:butt;stroke-linejoin:miter;stroke-opacity:1" d="M 11.2834,117.621 11.2834,139.471 z" id="boundary" inkscape:connector-curvature="0" />
	<path style="fill:none;stroke:red;stroke-width:1px;stroke-linecap:butt;stroke-linejoin:miter;stroke-opacity:1" d="M 11.2834,261.833 18.5668,274.943 z" id="boundary" inkscape:connector-curvature="0" />
	<path style="fill:none;stroke:red;stroke-width:1px;stroke-linecap:butt;stroke-linejoin:miter;stroke-opacity:1" d="M 11.2834,292.423 18.5668,274.943 z" id="boundary" inkscape:connector-curvature="0" />
	<path style="fill:none;stroke:red;stroke-width:1px;stroke-linecap:butt;stroke-linejoin:miter;stroke-opacity:1" d="M 11.2834,292.423 18.5668,305.533 z" id="boundary" inkscape:connector-curvature="0" />
	<path style="fill:none;stroke:red;stroke-width:1px;stroke-linecap:butt;stroke-linejoin:miter;stroke-opacity:1" d="M 18.5668,305.533 18.5668,320.1 z" id="boundary" inkscape:connector-curvature="0" />
	<path style="fill:none;stroke:red;stroke-width:1px;stroke-linecap:butt;stroke-linejoin:miter;stroke-opacity:1" d="M 18.5668,320.1 28.7636,331.753 z" id="boundary" inkscape:connector-curvature="0" />
	<path style="fill:none;stroke:red;stroke-width:1px;stroke-linecap:butt;stroke-linejoin:miter;stroke-opacity:1" d="M 22.9369,4 37.5037,4 z" id="boundary" inkscape:connector-curvature="0" />
	<path style="fill:none;stroke:red;stroke-width:1px;stroke-linecap:butt;stroke-linejoin:miter;stroke-opacity:1" d="M 28.7636,331.753 36.047,344.863 z" id="boundary" inkscape:connector-curvature="0" />
	<path style="fill:none;stroke:red;stroke-width:1px;stroke-linecap:butt;stroke-linejoin:miter;stroke-opacity:1" d="M 36.047,344.863 47.7004,355.06 z" id="boundary" inkscape:connector-curvature="0" />
	<path style="fill:none;stroke:red;stroke-width:1px;stroke-linecap:butt;stroke-linejoin:miter;stroke-opacity:1" d="M 37.5037,4 50.6138,11.2834 z" id="boundary" inkscape:connector-curvature="0" />
	<path style="fill:none;stroke:red;stroke-width:1px;stroke-linecap:butt;stroke-linejoin:miter;stroke-opacity:1" d="M 47.7004,355.06 52.0705,369.627 z" id="boundary" inkscape:connector-curvature="0" />
	<path style="fill:none;stroke:red;stroke-width:1px;stroke-linecap:butt;stroke-linejoin:miter;stroke-opacity:1" d="M 50.6138,11.2834 63.7239,18.5668 z" id="boundary" inkscape:connector-curvature="0" />
	<path style="fill:none;stroke:red;stroke-width:1px;stroke-linecap:butt;stroke-linejoin:miter;stroke-opacity:1" d="M 52.0705,369.627 63.7239,379.824 z" id="boundary" inkscape:connector-curvature="0" />
	<path style="fill:none;stroke:red;stroke-width:1px;stroke-linecap:butt;stroke-linejoin:miter;stroke-opacity:1" d="M 63.7239,18.5668 78.2907,22.9369 z" id="boundary" inkscape:connector-curvature="0" />
	<path style="fill:none;stroke:red;stroke-width:1px;stroke-linecap:butt;stroke-linejoin:miter;stroke-opacity:1" d="M 63.7239,379.824 69.5507,394.391 z" id="boundary" inkscape:connector-curvature="0" />
	<path style="fill:none;stroke:red;stroke-width:1px;stroke-linecap:butt;stroke-linejoin:miter;stroke-opacity:1" d="M 69.5507,394.391 81.2041,404.587 z" id="boundary" inkscape:connector-curvature="0" />
	<path style="fill:none;stroke:red;stroke-width:1px;stroke-linecap:butt;stroke-linejoin:miter;stroke-opacity:1" d="M 78.2907,22.9369 92.8576,25.8502 z" id="boundary" inkscape:connector-curvature="0" />
	<path style="fill:none;stroke:red;stroke-width:1px;stroke-linecap:butt;stroke-linejoin:miter;stroke-opacity:1" d="M 81.2041,404.587 91.4009,416.241 z" id="boundary" inkscape:connector-curvature="0" />
	<path style="fill:none;stroke:red;stroke-width:1px;stroke-linecap:butt;stroke-linejoin:miter;stroke-opacity:1" d="M 91.4009,416.241 98.6843,429.351 z" id="boundary" inkscape:connector-curvature="0" />
	<path style="fill:none;stroke:red;stroke-width:1px;stroke-linecap:butt;stroke-linejoin:miter;stroke-opacity:1" d="M 91.4009,612.893 91.4009,627.46 z" id="boundary" inkscape:connector-curvature="0" />
	<path style="fill:none;stroke:red;stroke-width:1px;stroke-linecap:butt;stroke-linejoin:miter;stroke-opacity:1" d="M 91.4009,612.893 103.054,601.239 z" id="boundary" inkscape:connector-curvature="0" />
	<path style="fill:none;stroke:red;stroke-width:1px;stroke-linecap:butt;stroke-linejoin:miter;stroke-opacity:1" d="M 91.4009,627.46 98.6843,640.57 z" id="boundary" inkscape:connector-curvature="0" />
	<path style="fill:none;stroke:red;stroke-width:1px;stroke-linecap:butt;stroke-linejoin:miter;stroke-opacity:1" d="M 92.8576,25.8502 107.424,25.8502 z" id="boundary" inkscape:connector-curvature="0" />
	<path style="fill:none;stroke:red;stroke-width:1px;stroke-linecap:butt;stroke-linejoin:miter;stroke-opacity:1" d="M 98.6843,429.351 105.968,442.461 z" id="boundary" inkscape:connector-curvature="0" />
	<path style="fill:none;stroke:red;stroke-width:1px;stroke-linecap:butt;stroke-linejoin:miter;stroke-opacity:1" d="M 98.6843,640.57 113.251,646.396 z" id="boundary" inkscape:connector-curvature="0" />
	<path style="fill:none;stroke:red;stroke-width:1px;stroke-linecap:butt;stroke-linejoin:miter;stroke-opacity:1" d="M 103.054,601.239 113.251,589.586 z" id="boundary" inkscape:connector-curvature="0" />
	<path style="fill:none;stroke:red;stroke-width:1px;stroke-linecap:butt;stroke-linejoin:miter;stroke-opacity:1" d="M 105.968,442.461 110.338,457.028 z" id="boundary" inkscape:connector-curvature="0" />
	<path style="fill:none;stroke:red;stroke-width:1px;stroke-linecap:butt;stroke-linejoin:miter;stroke-opacity:1" d="M 105.968,474.508 110.338,457.028 z" id="boundary" inkscape:connector-curvature="0" />
	<path style="fill:none;stroke:red;stroke-width:1px;stroke-linecap:butt;stroke-linejoin:miter;stroke-opacity:1" d="M 105.968,474.508 113.251,487.618 z" id="boundary" inkscape:connector-curvature="0" />
	<path style="fill:none;stroke:red;stroke-width:1px;stroke-linecap:butt;stroke-linejoin:miter;stroke-opacity:1" d="M 107.424,25.8502 121.991,25.8502 z" id="boundary" inkscape:connector-curvature="0" />
	<path style="fill:none;stroke:red;stroke-width:1px;stroke-linecap:butt;stroke-linejoin:miter;stroke-opacity:1" d="M 113.251,487.618 113.251,502.185 z" id="boundary" inkscape:connector-curvature="0" />
	<path style="fill:none;stroke:red;stroke-width:1px;stroke-linecap:butt;stroke-linejoin:miter;stroke-opacity:1" d="M 113.251,502.185 113.251,516.752 z" id="boundary" inkscape:connector-curvature="0" />
	<path style="fill:none;stroke:red;stroke-width:1px;stroke-linecap:butt;stroke-linejoin:miter;stroke-opacity:1" d="M 113.251,516.752 113.251,531.319 z" id="boundary" inkscape:connector-curvature="0" />
	<path style="fill:none;stroke:red;stroke-width:1px;stroke-linecap:butt;stroke-linejoin:miter;stroke-opacity:1" d="M 113.251,531.319 113.251,545.885 z" id="boundary" inkscape:connector-curvature="0" />
	<path style="fill:none;stroke:red;stroke-width:1px;stroke-linecap:butt;stroke-linejoin:miter;stroke-opacity:1" d="M 113.251,545.885 113.251,560.452 z" id="boundary" inkscape:connector-curvature="0" />
	<path style="fill:none;stroke:red;stroke-width:1px;stroke-linecap:butt;stroke-linejoin:miter;stroke-opacity:1" d="M 113.251,560.452 113.251,575.019 z" id="boundary" inkscape:connector-curvature="0" />
	<path style="fill:none;stroke:red;stroke-width:1px;stroke-linecap:butt;stroke-linejoin:miter;stroke-opacity:1" d="M 113.251,575.019 113.251,589.586 z" id="boundary" inkscape:connector-curvature="0" />
	<path style="fill:none;stroke:red;stroke-width:1px;stroke-linecap:butt;stroke-linejoin:miter;stroke-opacity:1" d="M 113.251,646.396 127.818,649.31 z" id="boundary" inkscape:connector-curvature="0" />
	<path style="fill:none;stroke:red;stroke-width:1px;stroke-linecap:butt;stroke-linejoin:miter;stroke-opacity:1" d="M 121.991,25.8502 136.558,25.8502 z" id="boundary" inkscape:connector-curvature="0" />
	<path style="fill:none;stroke:red;stroke-width:1px;stroke-linecap:butt;stroke-linejoin:miter;stroke-opacity:1" d="M 127.818,649.31 142.385,646.396 z" id="boundary" inkscape:connector-curvature="0" />
	<path style="fill:none;stroke:red;stroke-width:1px;stroke-linecap:butt;stroke-linejoin:miter;stroke-opacity:1" d="M 136.558,25.8502 151.125,25.8502 z" id="boundary" inkscape:connector-curvature="0" />
	<path style="fill:none;stroke:red;stroke-width:1px;stroke-linecap:butt;stroke-linejoin:miter;stroke-opacity:1" d="M 142.385,646.396 156.952,642.026 z" id="boundary" inkscape:connector-curvature="0" />
	<path style="fill:none;stroke:red;stroke-width:1px;stroke-linecap:butt;stroke-linejoin:miter;stroke-opacity:1" d="M 151.125,25.8502 165.692,25.8502 z" id="boundary" inkscape:connector-curvature="0" />
	<path style="fill:none;stroke:red;stroke-width:1px;stroke-linecap:butt;stroke-linejoin:miter;stroke-opacity:1" d="M 156.952,642.026 168.605,630.373 z" id="boundary" inkscape:connector-curvature="0" />
	<path style="fill:none;stroke:red;stroke-width:1px;stroke-linecap:butt;stroke-linejoin:miter;stroke-opacity:1" d="M 165.692,25.8502 180.258,25.8502 z" id="boundary" inkscape:connector-curvature="0" />
	<path style="fill:none;stroke:red;stroke-width:1px;stroke-linecap:butt;stroke-linejoin:miter;stroke-opacity:1" d="M 168.605,630.373 172.975,609.979 z" id="boundary" inkscape:connector-curvature="0" />
	<path style="fill:none;stroke:red;stroke-width:1px;stroke-linecap:butt;stroke-linejoin:miter;stroke-opacity:1" d="M 172.975,609.979 180.258,595.413 z" id="boundary" inkscape:connector-curvature="0" />
	<path style="fill:none;stroke:red;stroke-width:1px;stroke-linecap:butt;stroke-linejoin:miter;stroke-opacity:1" d="M 180.258,25.8502 194.825,21.4802 z" id="boundary" inkscape:connector-curvature="0" />
	<path style="fill:none;stroke:red;stroke-width:1px;stroke-linecap:butt;stroke-linejoin:miter;stroke-opacity:1" d="M 180.258,551.712 180.258,566.279 z" id="boundary" inkscape:connector-curvature="0" />
	<path style="fill:none;stroke:red;stroke-width:1px;stroke-linecap:butt;stroke-linejoin:miter;stroke-opacity:1" d="M 180.258,551.712 187.542,537.145 z" id="boundary" inkscape:connector-curvature="0" />
	<path style="fill:none;stroke:red;stroke-width:1px;stroke-linecap:butt;stroke-linejoin:miter;stroke-opacity:1" d="M 180.258,566.279 180.258,580.846 z" id="boundary" inkscape:connector-curvature="0" />
	<path style="fill:none;stroke:red;stroke-width:1px;stroke-linecap:butt;stroke-linejoin:miter;stroke-opacity:1" d="M 180.258,580.846 180.258,595.413 z" id="boundary" inkscape:connector-curvature="0" />
	<path style="fill:none;stroke:red;stroke-width:1px;stroke-linecap:butt;stroke-linejoin:miter;stroke-opacity:1" d="M 187.542,508.012 187.542,522.579 z" id="boundary" inkscape:connector-curvature="0" />
	<path style="fill:none;stroke:red;stroke-width:1px;stroke-linecap:butt;stroke-linejoin:miter;stroke-opacity:1" d="M 187.542,508.012 194.825,486.162 z" id="boundary" inkscape:connector-curvature="0" />
	<path style="fill:none;stroke:red;stroke-width:1px;stroke-linecap:butt;stroke-linejoin:miter;stroke-opacity:1" d="M 187.542,522.579 187.542,537.145 z" id="boundary" inkscape:connector-curvature="0" />
	<path style="fill:none;stroke:red;stroke-width:1px;stroke-linecap:butt;stroke-linejoin:miter;stroke-opacity:1" d="M 194.825,21.4802 209.392,14.1968 z" id="boundary" inkscape:connector-curvature="0" />
	<path style="fill:none;stroke:red;stroke-width:1px;stroke-linecap:butt;stroke-linejoin:miter;stroke-opacity:1" d="M 194.825,486.162 202.109,471.595 z" id="boundary" inkscape:connector-curvature="0" />
	<path style="fill:none;stroke:red;stroke-width:1px;stroke-linecap:butt;stroke-linejoin:miter;stroke-opacity:1" d="M 200.652,649.31 207.935,634.743 z" id="boundary" inkscape:connector-curvature="0" />
	<path style="fill:none;stroke:red;stroke-width:1px;stroke-linecap:butt;stroke-linejoin:miter;stroke-opacity:1" d="M 200.652,649.31 207.935,662.42 z" id="boundary" inkscape:connector-curvature="0" />
	<path style="fill:none;stroke:red;stroke-width:1px;stroke-linecap:butt;stroke-linejoin:miter;stroke-opacity:1" d="M 202.109,471.595 215.219,478.878 z" id="boundary" inkscape:connector-curvature="0" />
	<path style="fill:none;stroke:red;stroke-width:1px;stroke-linecap:butt;stroke-linejoin:miter;stroke-opacity:1" d="M 207.935,634.743 219.589,623.09 z" id="boundary" inkscape:connector-curvature="0" />
	<path style="fill:none;stroke:red;stroke-width:1px;stroke-linecap:butt;stroke-linejoin:miter;stroke-opacity:1" d="M 207.935,662.42 218.132,674.073 z" id="boundary" inkscape:connector-curvature="0" />
	<path style="fill:none;stroke:red;stroke-width:1px;stroke-linecap:butt;stroke-linejoin:miter;stroke-opacity:1" d="M 209.392,14.1968 223.959,6.91336 z" id="boundary" inkscape:connector-curvature="0" />
	<path style="fill:none;stroke:red;stroke-width:1px;stroke-linecap:butt;stroke-linejoin:miter;stroke-opacity:1" d="M 215.219,478.878 215.219,493.445 z" id="boundary" inkscape:connector-curvature="0" />
	<path style="fill:none;stroke:red;stroke-width:1px;stroke-linecap:butt;stroke-linejoin:miter;stroke-opacity:1" d="M 215.219,493.445 219.589,508.012 z" id="boundary" inkscape:connector-curvature="0" />
	<path style="fill:none;stroke:red;stroke-width:1px;stroke-linecap:butt;stroke-linejoin:miter;stroke-opacity:1" d="M 218.132,674.073 232.699,675.53 z" id="boundary" inkscape:connector-curvature="0" />
	<path style="fill:none;stroke:red;stroke-width:1px;stroke-linecap:butt;stroke-linejoin:miter;stroke-opacity:1" d="M 219.589,508.012 222.502,522.579 z" id="boundary" inkscape:connector-curvature="0" />
	<path style="fill:none;stroke:red;stroke-width:1px;stroke-linecap:butt;stroke-linejoin:miter;stroke-opacity:1" d="M 219.589,623.09 229.786,608.523 z" id="boundary" inkscape:connector-curvature="0" />
	<path style="fill:none;stroke:red;stroke-width:1px;stroke-linecap:butt;stroke-linejoin:miter;stroke-opacity:1" d="M 222.502,522.579 229.786,535.689 z" id="boundary" inkscape:connector-curvature="0" />
	<path style="fill:none;stroke:red;stroke-width:1px;stroke-linecap:butt;stroke-linejoin:miter;stroke-opacity:1" d="M 223.959,6.91336 238.526,4 z" id="boundary" inkscape:connector-curvature="0" />
	<path style="fill:none;stroke:red;stroke-width:1px;stroke-linecap:butt;stroke-linejoin:miter;stroke-opacity:1" d="M 223.959,63.7239 223.959,78.2907 z" id="boundary" inkscape:connector-curvature="0" />
	<path style="fill:none;stroke:red;stroke-width:1px;stroke-linecap:butt;stroke-linejoin:miter;stroke-opacity:1" d="M 223.959,63.7239 231.242,49.1571 z" id="boundary" inkscape:connector-curvature="0" />
	<path style="fill:none;stroke:red;stroke-width:1px;stroke-linecap:butt;stroke-linejoin:miter;stroke-opacity:1" d="M 223.959,78.2907 226.872,92.8576 z" id="boundary" inkscape:connector-curvature="0" />
	<path style="fill:none;stroke:red;stroke-width:1px;stroke-linecap:butt;stroke-linejoin:miter;stroke-opacity:1" d="M 226.872,92.8576 238.526,103.054 z" id="boundary" inkscape:connector-curvature="0" />
	<path style="fill:none;stroke:red;stroke-width:1px;stroke-linecap:butt;stroke-linejoin:miter;stroke-opacity:1" d="M 229.786,535.689 229.786,550.256 z" id="boundary" inkscape:connector-curvature="0" />
	<path style="fill:none;stroke:red;stroke-width:1px;stroke-linecap:butt;stroke-linejoin:miter;stroke-opacity:1" d="M 229.786,550.256 229.786,564.822 z" id="boundary" inkscape:connector-curvature="0" />
	<path style="fill:none;stroke:red;stroke-width:1px;stroke-linecap:butt;stroke-linejoin:miter;stroke-opacity:1" d="M 229.786,564.822 229.786,579.389 z" id="boundary" inkscape:connector-curvature="0" />
	<path style="fill:none;stroke:red;stroke-width:1px;stroke-linecap:butt;stroke-linejoin:miter;stroke-opacity:1" d="M 229.786,579.389 229.786,593.956 z" id="boundary" inkscape:connector-curvature="0" />
	<path style="fill:none;stroke:red;stroke-width:1px;stroke-linecap:butt;stroke-linejoin:miter;stroke-opacity:1" d="M 229.786,593.956 229.786,608.523 z" id="boundary" inkscape:connector-curvature="0" />
	<path style="fill:none;stroke:red;stroke-width:1px;stroke-linecap:butt;stroke-linejoin:miter;stroke-opacity:1" d="M 231.242,49.1571 238.526,27.3069 z" id="boundary" inkscape:connector-curvature="0" />
	<path style="fill:none;stroke:red;stroke-width:1px;stroke-linecap:butt;stroke-linejoin:miter;stroke-opacity:1" d="M 232.699,675.53 247.266,675.53 z" id="boundary" inkscape:connector-curvature="0" />
	<path style="fill:none;stroke:red;stroke-width:1px;stroke-linecap:butt;stroke-linejoin:miter;stroke-opacity:1" d="M 238.526,4 253.093,8.37004 z" id="boundary" inkscape:connector-curvature="0" />
	<path style="fill:none;stroke:red;stroke-width:1px;stroke-linecap:butt;stroke-linejoin:miter;stroke-opacity:1" d="M 238.526,27.3069 253.093,8.37004 z" id="boundary" inkscape:connector-curvature="0" />
	<path style="fill:none;stroke:red;stroke-width:1px;stroke-linecap:butt;stroke-linejoin:miter;stroke-opacity:1" d="M 238.526,103.054 251.636,110.338 z" id="boundary" inkscape:connector-curvature="0" />
	<path style="fill:none;stroke:red;stroke-width:1px;stroke-linecap:butt;stroke-linejoin:miter;stroke-opacity:1" d="M 247.266,675.53 260.376,668.247 z" id="boundary" inkscape:connector-curvature="0" />
	<path style="fill:none;stroke:red;stroke-width:1px;stroke-linecap:butt;stroke-linejoin:miter;stroke-opacity:1" d="M 251.636,110.338 266.203,113.251 z" id="boundary" inkscape:connector-curvature="0" />
	<path style="fill:none;stroke:red;stroke-width:1px;stroke-linecap:butt;stroke-linejoin:miter;stroke-opacity:1" d="M 260.376,668.247 274.943,660.963 z" id="boundary" inkscape:connector-curvature="0" />
	<path style="fill:none;stroke:red;stroke-width:1px;stroke-linecap:butt;stroke-linejoin:miter;stroke-opacity:1" d="M 266.203,113.251 280.769,116.164 z" id="boundary" inkscape:connector-curvature="0" />
	<path style="fill:none;stroke:red;stroke-width:1px;stroke-linecap:butt;stroke-linejoin:miter;stroke-opacity:1" d="M 274.943,660.963 282.226,646.396 z" id="boundary" inkscape:connector-curvature="0" />
	<path style="fill:none;stroke:red;stroke-width:1px;stroke-linecap:butt;stroke-linejoin:miter;stroke-opacity:1" d="M 280.769,116.164 295.336,120.535 z" id="boundary" inkscape:connector-curvature="0" />
	<path style="fill:none;stroke:red;stroke-width:1px;stroke-linecap:butt;stroke-linejoin:miter;stroke-opacity:1" d="M 282.226,617.263 282.226,631.83 z" id="boundary" inkscape:connector-curvature="0" />
	<path style="fill:none;stroke:red;stroke-width:1px;stroke-linecap:butt;stroke-linejoin:miter;stroke-opacity:1" d="M 282.226,617.263 289.51,602.696 z" id="boundary" inkscape:connector-curvature="0" />
	<path style="fill:none;stroke:red;stroke-width:1px;stroke-linecap:butt;stroke-linejoin:miter;stroke-opacity:1" d="M 282.226,631.83 282.226,646.396 z" id="boundary" inkscape:connector-curvature="0" />
	<path style="fill:none;stroke:red;stroke-width:1px;stroke-linecap:butt;stroke-linejoin:miter;stroke-opacity:1" d="M 289.51,588.129 289.51,602.696 z" id="boundary" inkscape:connector-curvature="0" />
	<path style="fill:none;stroke:red;stroke-width:1px;stroke-linecap:butt;stroke-linejoin:miter;stroke-opacity:1" d="M 289.51,588.129 296.793,573.562 z" id="boundary" inkscape:connector-curvature="0" />
	<path style="fill:none;stroke:red;stroke-width:1px;stroke-linecap:butt;stroke-linejoin:miter;stroke-opacity:1" d="M 295.336,120.535 309.903,120.535 z" id="boundary" inkscape:connector-curvature="0" />
	<path style="fill:none;stroke:red;stroke-width:1px;stroke-linecap:butt;stroke-linejoin:miter;stroke-opacity:1" d="M 296.793,558.996 296.793,573.562 z" id="boundary" inkscape:connector-curvature="0" />
	<path style="fill:none;stroke:red;stroke-width:1px;stroke-linecap:butt;stroke-linejoin:miter;stroke-opacity:1" d="M 296.793,558.996 304.076,537.145 z" id="boundary" inkscape:connector-curvature="0" />
	<path style="fill:none;stroke:red;stroke-width:1px;stroke-linecap:butt;stroke-linejoin:miter;stroke-opacity:1" d="M 304.076,522.579 304.076,537.145 z" id="boundary" inkscape:connector-curvature="0" />
	<path style="fill:none;stroke:red;stroke-width:1px;stroke-linecap:butt;stroke-linejoin:miter;stroke-opacity:1" d="M 304.076,522.579 311.36,508.012 z" id="boundary" inkscape:connector-curvature="0" />
	<path style="fill:none;stroke:red;stroke-width:1px;stroke-linecap:butt;stroke-linejoin:miter;stroke-opacity:1" d="M 309.903,120.535 324.47,120.535 z" id="boundary" inkscape:connector-curvature="0" />
	<path style="fill:none;stroke:red;stroke-width:1px;stroke-linecap:butt;stroke-linejoin:miter;stroke-opacity:1" d="M 311.36,493.445 311.36,508.012 z" id="boundary" inkscape:connector-curvature="0" />
	<path style="fill:none;stroke:red;stroke-width:1px;stroke-linecap:butt;stroke-linejoin:miter;stroke-opacity:1" d="M 311.36,493.445 318.643,471.595 z" id="boundary" inkscape:connector-curvature="0" />
	<path style="fill:none;stroke:red;stroke-width:1px;stroke-linecap:butt;stroke-linejoin:miter;stroke-opacity:1" d="M 318.643,471.595 330.297,461.398 z" id="boundary" inkscape:connector-curvature="0" />
	<path style="fill:none;stroke:red;stroke-width:1px;stroke-linecap:butt;stroke-linejoin:miter;stroke-opacity:1" d="M 324.47,120.535 339.037,120.535 z" id="boundary" inkscape:connector-curvature="0" />
	<path style="fill:none;stroke:red;stroke-width:1px;stroke-linecap:butt;stroke-linejoin:miter;stroke-opacity:1" d="M 330.297,461.398 340.493,449.744 z" id="boundary" inkscape:connector-curvature="0" />
	<path style="fill:none;stroke:red;stroke-width:1px;stroke-linecap:butt;stroke-linejoin:miter;stroke-opacity:1" d="M 339.037,120.535 353.604,120.535 z" id="boundary" inkscape:connector-curvature="0" />
	<path style="fill:none;stroke:red;stroke-width:1px;stroke-linecap:butt;stroke-linejoin:miter;stroke-opacity:1" d="M 340.493,449.744 355.06,449.744 z" id="boundary" inkscape:connector-curvature="0" />
	<path style="fill:none;stroke:red;stroke-width:1px;stroke-linecap:butt;stroke-linejoin:miter;stroke-opacity:1" d="M 353.604,120.535 368.17,120.535 z" id="boundary" inkscape:connector-curvature="0" />
	<path style="fill:none;stroke:red;stroke-width:1px;stroke-linecap:butt;stroke-linejoin:miter;stroke-opacity:1" d="M 355.06,449.744 369.627,449.744 z" id="boundary" inkscape:connector-curvature="0" />
	<path style="fill:none;stroke:red;stroke-width:1px;stroke-linecap:butt;stroke-linejoin:miter;stroke-opacity:1" d="M 368.17,120.535 382.737,120.535 z" id="boundary" inkscape:connector-curvature="0" />
	<path style="fill:none;stroke:red;stroke-width:1px;stroke-linecap:butt;stroke-linejoin:miter;stroke-opacity:1" d="M 369.627,449.744 384.194,449.744 z" id="boundary" inkscape:connector-curvature="0" />
	<path style="fill:none;stroke:red;stroke-width:1px;stroke-linecap:butt;stroke-linejoin:miter;stroke-opacity:1" d="M 382.737,120.535 397.304,120.535 z" id="boundary" inkscape:connector-curvature="0" />
	<path style="fill:none;stroke:red;stroke-width:1px;stroke-linecap:butt;stroke-linejoin:miter;stroke-opacity:1" d="M 384.194,449.744 397.304,457.028 z" id="boundary" inkscape:connector-curvature="0" />
	<path style="fill:none;stroke:red;stroke-width:1px;stroke-linecap:butt;stroke-linejoin:miter;stroke-opacity:1" d="M 397.304,120.535 411.871,123.448 z" id="boundary" inkscape:connector-curvature="0" />
	<path style="fill:none;stroke:red;stroke-width:1px;stroke-linecap:butt;stroke-linejoin:miter;stroke-opacity:1" d="M 397.304,457.028 406.044,468.681 z" id="boundary" inkscape:connector-curvature="0" />
	<path style="fill:none;stroke:red;stroke-width:1px;stroke-linecap:butt;stroke-linejoin:miter;stroke-opacity:1" d="M 397.304,598.326 397.304,612.893 z" id="boundary" inkscape:connector-curvature="0" />
	<path style="fill:none;stroke:red;stroke-width:1px;stroke-linecap:butt;stroke-linejoin:miter;stroke-opacity:1" d="M 397.304,598.326 408.957,586.673 z" id="boundary" inkscape:connector-curvature="0" />
	<path style="fill:none;stroke:red;stroke-width:1px;stroke-linecap:butt;stroke-linejoin:miter;stroke-opacity:1" d="M 397.304,612.893 411.871,617.263 z" id="boundary" inkscape:connector-curvature="0" />
	<path style="fill:none;stroke:red;stroke-width:1px;stroke-linecap:butt;stroke-linejoin:miter;stroke-opacity:1" d="M 406.044,468.681 420.611,474.508 z" id="boundary" inkscape:connector-curvature="0" />
	<path style="fill:none;stroke:red;stroke-width:1px;stroke-linecap:butt;stroke-linejoin:miter;stroke-opacity:1" d="M 408.957,586.673 422.068,579.389 z" id="boundary" inkscape:connector-curvature="0" />
	<path style="fill:none;stroke:red;stroke-width:1px;stroke-linecap:butt;stroke-linejoin:miter;stroke-opacity:1" d="M 411.871,123.448 426.438,127.818 z" id="boundary" inkscape:connector-curvature="0" />
	<path style="fill:none;stroke:red;stroke-width:1px;stroke-linecap:butt;stroke-linejoin:miter;stroke-opacity:1" d="M 411.871,617.263 426.438,617.263 z" id="boundary" inkscape:connector-curvature="0" />
	<path style="fill:none;stroke:red;stroke-width:1px;stroke-linecap:butt;stroke-linejoin:miter;stroke-opacity:1" d="M 420.611,474.508 430.808,486.162 z" id="boundary" inkscape:connector-curvature="0" />
	<path style="fill:none;stroke:red;stroke-width:1px;stroke-linecap:butt;stroke-linejoin:miter;stroke-opacity:1" d="M 422.068,579.389 435.178,572.106 z" id="boundary" inkscape:connector-curvature="0" />
	<path style="fill:none;stroke:red;stroke-width:1px;stroke-linecap:butt;stroke-linejoin:miter;stroke-opacity:1" d="M 426.438,127.818 441.004,127.818 z" id="boundary" inkscape:connector-curvature="0" />
	<path style="fill:none;stroke:red;stroke-width:1px;stroke-linecap:butt;stroke-linejoin:miter;stroke-opacity:1" d="M 426.438,617.263 441.004,617.263 z" id="boundary" inkscape:connector-curvature="0" />
	<path style="fill:none;stroke:red;stroke-width:1px;stroke-linecap:butt;stroke-linejoin:miter;stroke-opacity:1" d="M 430.808,486.162 442.461,496.358 z" id="boundary" inkscape:connector-curvature="0" />
	<path style="fill:none;stroke:red;stroke-width:1px;stroke-linecap:butt;stroke-linejoin:miter;stroke-opacity:1" d="M 435.178,572.106 443.918,558.996 z" id="boundary" inkscape:connector-curvature="0" />
	<path style="fill:none;stroke:red;stroke-width:1px;stroke-linecap:butt;stroke-linejoin:miter;stroke-opacity:1" d="M 441.004,127.818 455.571,127.818 z" id="boundary" inkscape:connector-curvature="0" />
	<path style="fill:none;stroke:red;stroke-width:1px;stroke-linecap:butt;stroke-linejoin:miter;stroke-opacity:1" d="M 441.004,617.263 454.115,609.979 z" id="boundary" inkscape:connector-curvature="0" />
	<path style="fill:none;stroke:red;stroke-width:1px;stroke-linecap:butt;stroke-linejoin:miter;stroke-opacity:1" d="M 442.461,496.358 455.571,503.642 z" id="boundary" inkscape:connector-curvature="0" />
	<path style="fill:none;stroke:red;stroke-width:1px;stroke-linecap:butt;stroke-linejoin:miter;stroke-opacity:1" d="M 443.918,558.996 455.571,540.059 z" id="boundary" inkscape:connector-curvature="0" />
	<path style="fill:none;stroke:red;stroke-width:1px;stroke-linecap:butt;stroke-linejoin:miter;stroke-opacity:1" d="M 454.115,609.979 468.681,607.066 z" id="boundary" inkscape:connector-curvature="0" />
	<path style="fill:none;stroke:red;stroke-width:1px;stroke-linecap:butt;stroke-linejoin:miter;stroke-opacity:1" d="M 455.571,127.818 470.138,127.818 z" id="boundary" inkscape:connector-curvature="0" />
	<path style="fill:none;stroke:red;stroke-width:1px;stroke-linecap:butt;stroke-linejoin:miter;stroke-opacity:1" d="M 455.571,503.642 462.855,516.752 z" id="boundary" inkscape:connector-curvature="0" />
	<path style="fill:none;stroke:red;stroke-width:1px;stroke-linecap:butt;stroke-linejoin:miter;stroke-opacity:1" d="M 455.571,540.059 462.855,516.752 z" id="boundary" inkscape:connector-curvature="0" />
	<path style="fill:none;stroke:red;stroke-width:1px;stroke-linecap:butt;stroke-linejoin:miter;stroke-opacity:1" d="M 468.681,607.066 483.248,599.783 z" id="boundary" inkscape:connector-curvature="0" />
	<path style="fill:none;stroke:red;stroke-width:1px;stroke-linecap:butt;stroke-linejoin:miter;stroke-opacity:1" d="M 470.138,127.818 484.705,127.818 z" id="boundary" inkscape:connector-curvature="0" />
	<path style="fill:none;stroke:red;stroke-width:1px;stroke-linecap:butt;stroke-linejoin:miter;stroke-opacity:1" d="M 483.248,599.783 497.815,592.499 z" id="boundary" inkscape:connector-curvature="0" />
	<path style="fill:none;stroke:red;stroke-width:1px;stroke-linecap:butt;stroke-linejoin:miter;stroke-opacity:1" d="M 484.705,127.818 497.815,135.101 z" id="boundary" inkscape:connector-curvature="0" />
	<path style="fill:none;stroke:red;stroke-width:1px;stroke-linecap:butt;stroke-linejoin:miter;stroke-opacity:1" d="M 497.815,135.101 512.382,135.101 z" id="boundary" inkscape:connector-curvature="0" />
	<path style="fill:none;stroke:red;stroke-width:1px;stroke-linecap:butt;stroke-linejoin:miter;stroke-opacity:1" d="M 497.815,592.499 508.012,580.846 z" id="boundary" inkscape:connector-curvature="0" />
	<path style="fill:none;stroke:red;stroke-width:1px;stroke-linecap:butt;stroke-linejoin:miter;stroke-opacity:1" d="M 499.272,620.176 499.272,634.743 z" id="boundary" inkscape:connector-curvature="0" />
	<path style="fill:none;stroke:red;stroke-width:1px;stroke-linecap:butt;stroke-linejoin:miter;stroke-opacity:1" d="M 499.272,620.176 513.838,612.893 z" id="boundary" inkscape:connector-curvature="0" />
	<path style="fill:none;stroke:red;stroke-width:1px;stroke-linecap:butt;stroke-linejoin:miter;stroke-opacity:1" d="M 499.272,634.743 499.272,649.31 z" id="boundary" inkscape:connector-curvature="0" />
	<path style="fill:none;stroke:red;stroke-width:1px;stroke-linecap:butt;stroke-linejoin:miter;stroke-opacity:1" d="M 499.272,649.31 513.838,653.68 z" id="boundary" inkscape:connector-curvature="0" />
	<path style="fill:none;stroke:red;stroke-width:1px;stroke-linecap:butt;stroke-linejoin:miter;stroke-opacity:1" d="M 508.012,580.846 519.665,570.649 z" id="boundary" inkscape:connector-curvature="0" />
	<path style="fill:none;stroke:red;stroke-width:1px;stroke-linecap:butt;stroke-linejoin:miter;stroke-opacity:1" d="M 512.382,135.101 526.949,135.101 z" id="boundary" inkscape:connector-curvature="0" />
	<path style="fill:none;stroke:red;stroke-width:1px;stroke-linecap:butt;stroke-linejoin:miter;stroke-opacity:1" d="M 513.838,612.893 525.492,601.239 z" id="boundary" inkscape:connector-curvature="0" />
	<path style="fill:none;stroke:red;stroke-width:1px;stroke-linecap:butt;stroke-linejoin:miter;stroke-opacity:1" d="M 513.838,653.68 526.949,660.963 z" id="boundary" inkscape:connector-curvature="0" />
	<path style="fill:none;stroke:red;stroke-width:1px;stroke-linecap:butt;stroke-linejoin:miter;stroke-opacity:1" d="M 519.665,570.649 534.232,563.366 z" id="boundary" inkscape:connector-curvature="0" />
	<path style="fill:none;stroke:red;stroke-width:1px;stroke-linecap:butt;stroke-linejoin:miter;stroke-opacity:1" d="M 525.492,601.239 540.059,601.239 z" id="boundary" inkscape:connector-curvature="0" />
	<path style="fill:none;stroke:red;stroke-width:1px;stroke-linecap:butt;stroke-linejoin:miter;stroke-opacity:1" d="M 526.949,135.101 540.059,142.385 z" id="boundary" inkscape:connector-curvature="0" />
	<path style="fill:none;stroke:red;stroke-width:1px;stroke-linecap:butt;stroke-linejoin:miter;stroke-opacity:1" d="M 526.949,660.963 541.515,660.963 z" id="boundary" inkscape:connector-curvature="0" />
	<path style="fill:none;stroke:red;stroke-width:1px;stroke-linecap:butt;stroke-linejoin:miter;stroke-opacity:1" d="M 534.232,563.366 544.429,551.712 z" id="boundary" inkscape:connector-curvature="0" />
	<path style="fill:none;stroke:red;stroke-width:1px;stroke-linecap:butt;stroke-linejoin:miter;stroke-opacity:1" d="M 540.059,142.385 554.626,142.385 z" id="boundary" inkscape:connector-curvature="0" />
	<path style="fill:none;stroke:red;stroke-width:1px;stroke-linecap:butt;stroke-linejoin:miter;stroke-opacity:1" d="M 540.059,601.239 551.712,589.586 z" id="boundary" inkscape:connector-curvature="0" />
	<path style="fill:none;stroke:red;stroke-width:1px;stroke-linecap:butt;stroke-linejoin:miter;stroke-opacity:1" d="M 541.515,660.963 556.082,658.05 z" id="boundary" inkscape:connector-curvature="0" />
	<path style="fill:none;stroke:red;stroke-width:1px;stroke-linecap:butt;stroke-linejoin:miter;stroke-opacity:1" d="M 544.429,551.712 557.539,544.429 z" id="boundary" inkscape:connector-curvature="0" />
	<path style="fill:none;stroke:red;stroke-width:1px;stroke-linecap:butt;stroke-linejoin:miter;stroke-opacity:1" d="M 551.712,589.586 558.996,575.019 z" id="boundary" inkscape:connector-curvature="0" />
	<path style="fill:none;stroke:red;stroke-width:1px;stroke-linecap:butt;stroke-linejoin:miter;stroke-opacity:1" d="M 554.626,142.385 567.736,149.668 z" id="boundary" inkscape:connector-curvature="0" />
	<path style="fill:none;stroke:red;stroke-width:1px;stroke-linecap:butt;stroke-linejoin:miter;stroke-opacity:1" d="M 556.082,658.05 570.649,650.767 z" id="boundary" inkscape:connector-curvature="0" />
	<path style="fill:none;stroke:red;stroke-width:1px;stroke-linecap:butt;stroke-linejoin:miter;stroke-opacity:1" d="M 557.539,544.429 564.822,557.539 z" id="boundary" inkscape:connector-curvature="0" />
	<path style="fill:none;stroke:red;stroke-width:1px;stroke-linecap:butt;stroke-linejoin:miter;stroke-opacity:1" d="M 558.996,575.019 564.822,557.539 z" id="boundary" inkscape:connector-curvature="0" />
	<path style="fill:none;stroke:red;stroke-width:1px;stroke-linecap:butt;stroke-linejoin:miter;stroke-opacity:1" d="M 567.736,149.668 580.846,156.952 z" id="boundary" inkscape:connector-curvature="0" />
	<path style="fill:none;stroke:red;stroke-width:1px;stroke-linecap:butt;stroke-linejoin:miter;stroke-opacity:1" d="M 570.649,650.767 577.932,636.2 z" id="boundary" inkscape:connector-curvature="0" />
	<path style="fill:none;stroke:red;stroke-width:1px;stroke-linecap:butt;stroke-linejoin:miter;stroke-opacity:1" d="M 577.932,636.2 588.129,624.546 z" id="boundary" inkscape:connector-curvature="0" />
	<path style="fill:none;stroke:red;stroke-width:1px;stroke-linecap:butt;stroke-linejoin:miter;stroke-opacity:1" d="M 580.846,156.952 593.956,164.235 z" id="boundary" inkscape:connector-curvature="0" />
	<path style="fill:none;stroke:red;stroke-width:1px;stroke-linecap:butt;stroke-linejoin:miter;stroke-opacity:1" d="M 588.129,624.546 599.783,614.349 z" id="boundary" inkscape:connector-curvature="0" />
	<path style="fill:none;stroke:red;stroke-width:1px;stroke-linecap:butt;stroke-linejoin:miter;stroke-opacity:1" d="M 593.956,164.235 608.523,167.148 z" id="boundary" inkscape:connector-curvature="0" />
	<path style="fill:none;stroke:red;stroke-width:1px;stroke-linecap:butt;stroke-linejoin:miter;stroke-opacity:1" d="M 599.783,614.349 609.979,602.696 z" id="boundary" inkscape:connector-curvature="0" />
	<path style="fill:none;stroke:red;stroke-width:1px;stroke-linecap:butt;stroke-linejoin:miter;stroke-opacity:1" d="M 608.523,167.148 617.263,178.802 z" id="boundary" inkscape:connector-curvature="0" />
	<path style="fill:none;stroke:red;stroke-width:1px;stroke-linecap:butt;stroke-linejoin:miter;stroke-opacity:1" d="M 609.979,602.696 617.263,588.129 z" id="boundary" inkscape:connector-curvature="0" />
	<path style="fill:none;stroke:red;stroke-width:1px;stroke-linecap:butt;stroke-linejoin:miter;stroke-opacity:1" d="M 617.263,178.802 628.916,187.542 z" id="boundary" inkscape:connector-curvature="0" />
	<path style="fill:none;stroke:red;stroke-width:1px;stroke-linecap:butt;stroke-linejoin:miter;stroke-opacity:1" d="M 617.263,588.129 628.916,577.932 z" id="boundary" inkscape:connector-curvature="0" />
	<path style="fill:none;stroke:red;stroke-width:1px;stroke-linecap:butt;stroke-linejoin:miter;stroke-opacity:1" d="M 628.916,187.542 642.026,194.825 z" id="boundary" inkscape:connector-curvature="0" />
	<path style="fill:none;stroke:red;stroke-width:1px;stroke-linecap:butt;stroke-linejoin:miter;stroke-opacity:1" d="M 628.916,577.932 636.2,563.366 z" id="boundary" inkscape:connector-curvature="0" />
	<path style="fill:none;stroke:red;stroke-width:1px;stroke-linecap:butt;stroke-linejoin:miter;stroke-opacity:1" d="M 636.2,563.366 643.483,548.799 z" id="boundary" inkscape:connector-curvature="0" />
	<path style="fill:none;stroke:red;stroke-width:1px;stroke-linecap:butt;stroke-linejoin:miter;stroke-opacity:1" d="M 642.026,194.825 653.68,205.022 z" id="boundary" inkscape:connector-curvature="0" />
	<path style="fill:none;stroke:red;stroke-width:1px;stroke-linecap:butt;stroke-linejoin:miter;stroke-opacity:1" d="M 643.483,548.799 650.767,534.232 z" id="boundary" inkscape:connector-curvature="0" />
	<path style="fill:none;stroke:red;stroke-width:1px;stroke-linecap:butt;stroke-linejoin:miter;stroke-opacity:1" d="M 646.396,457.028 646.396,471.595 z" id="boundary" inkscape:connector-curvature="0" />
	<path style="fill:none;stroke:red;stroke-width:1px;stroke-linecap:butt;stroke-linejoin:miter;stroke-opacity:1" d="M 646.396,457.028 653.68,442.461 z" id="boundary" inkscape:connector-curvature="0" />
	<path style="fill:none;stroke:red;stroke-width:1px;stroke-linecap:butt;stroke-linejoin:miter;stroke-opacity:1" d="M 646.396,471.595 649.31,486.162 z" id="boundary" inkscape:connector-curvature="0" />
	<path style="fill:none;stroke:red;stroke-width:1px;stroke-linecap:butt;stroke-linejoin:miter;stroke-opacity:1" d="M 649.31,486.162 656.593,499.272 z" id="boundary" inkscape:connector-curvature="0" />
	<path style="fill:none;stroke:red;stroke-width:1px;stroke-linecap:butt;stroke-linejoin:miter;stroke-opacity:1" d="M 650.767,534.232 658.05,519.665 z" id="boundary" inkscape:connector-curvature="0" />
	<path style="fill:none;stroke:red;stroke-width:1px;stroke-linecap:butt;stroke-linejoin:miter;stroke-opacity:1" d="M 653.68,205.022 663.877,216.675 z" id="boundary" inkscape:connector-curvature="0" />
	<path style="fill:none;stroke:red;stroke-width:1px;stroke-linecap:butt;stroke-linejoin:miter;stroke-opacity:1" d="M 653.68,442.461 666.79,435.178 z" id="boundary" inkscape:connector-curvature="0" />
	<path style="fill:none;stroke:red;stroke-width:1px;stroke-linecap:butt;stroke-linejoin:miter;stroke-opacity:1" d="M 656.593,499.272 658.05,519.665 z" id="boundary" inkscape:connector-curvature="0" />
	<path style="fill:none;stroke:red;stroke-width:1px;stroke-linecap:butt;stroke-linejoin:miter;stroke-opacity:1" d="M 663.877,216.675 671.16,229.786 z" id="boundary" inkscape:connector-curvature="0" />
	<path style="fill:none;stroke:red;stroke-width:1px;stroke-linecap:butt;stroke-linejoin:miter;stroke-opacity:1" d="M 666.79,435.178 681.357,435.178 z" id="boundary" inkscape:connector-curvature="0" />
	<path style="fill:none;stroke:red;stroke-width:1px;stroke-linecap:butt;stroke-linejoin:miter;stroke-opacity:1" d="M 671.16,229.786 681.357,241.439 z" id="boundary" inkscape:connector-curvature="0" />
	<path style="fill:none;stroke:red;stroke-width:1px;stroke-linecap:butt;stroke-linejoin:miter;stroke-opacity:1" d="M 681.357,241.439 690.097,253.093 z" id="boundary" inkscape:connector-curvature="0" />
	<path style="fill:none;stroke:red;stroke-width:1px;stroke-linecap:butt;stroke-linejoin:miter;stroke-opacity:1" d="M 681.357,435.178 685.727,449.744 z" id="boundary" inkscape:connector-curvature="0" />
	<path style="fill:none;stroke:red;stroke-width:1px;stroke-linecap:butt;stroke-linejoin:miter;stroke-opacity:1" d="M 685.727,449.744 695.924,461.398 z" id="boundary" inkscape:connector-curvature="0" />
	<path style="fill:none;stroke:red;stroke-width:1px;stroke-linecap:butt;stroke-linejoin:miter;stroke-opacity:1" d="M 690.097,253.093 693.01,267.659 z" id="boundary" inkscape:connector-curvature="0" />
	<path style="fill:none;stroke:red;stroke-width:1px;stroke-linecap:butt;stroke-linejoin:miter;stroke-opacity:1" d="M 693.01,267.659 700.294,280.769 z" id="boundary" inkscape:connector-curvature="0" />
	<path style="fill:none;stroke:red;stroke-width:1px;stroke-linecap:butt;stroke-linejoin:miter;stroke-opacity:1" d="M 695.924,461.398 703.207,474.508 z" id="boundary" inkscape:connector-curvature="0" />
	<path style="fill:none;stroke:red;stroke-width:1px;stroke-linecap:butt;stroke-linejoin:miter;stroke-opacity:1" d="M 700.294,280.769 704.664,295.336 z" id="boundary" inkscape:connector-curvature="0" />
	<path style="fill:none;stroke:red;stroke-width:1px;stroke-linecap:butt;stroke-linejoin:miter;stroke-opacity:1" d="M 703.207,474.508 714.86,484.705 z" id="boundary" inkscape:connector-curvature="0" />
	<path style="fill:none;stroke:red;stroke-width:1px;stroke-linecap:butt;stroke-linejoin:miter;stroke-opacity:1" d="M 704.664,295.336 711.947,308.446 z" id="boundary" inkscape:connector-curvature="0" />
	<path style="fill:none;stroke:red;stroke-width:1px;stroke-linecap:butt;stroke-linejoin:miter;stroke-opacity:1" d="M 711.947,308.446 719.231,321.557 z" id="boundary" inkscape:connector-curvature="0" />
	<path style="fill:none;stroke:red;stroke-width:1px;stroke-linecap:butt;stroke-linejoin:miter;stroke-opacity:1" d="M 714.86,484.705 725.057,496.358 z" id="boundary" inkscape:connector-curvature="0" />
	<path style="fill:none;stroke:red;stroke-width:1px;stroke-linecap:butt;stroke-linejoin:miter;stroke-opacity:1" d="M 719.231,321.557 725.057,336.123 z" id="boundary" inkscape:connector-curvature="0" />
	<path style="fill:none;stroke:red;stroke-width:1px;stroke-linecap:butt;stroke-linejoin:miter;stroke-opacity:1" d="M 725.057,336.123 726.514,350.69 z" id="boundary" inkscape:connector-curvature="0" />
	<path style="fill:none;stroke:red;stroke-width:1px;stroke-linecap:butt;stroke-linejoin:miter;stroke-opacity:1" d="M 725.057,496.358 736.711,506.555 z" id="boundary" inkscape:connector-curvature="0" />
	<path style="fill:none;stroke:red;stroke-width:1px;stroke-linecap:butt;stroke-linejoin:miter;stroke-opacity:1" d="M 726.514,350.69 733.797,363.8 z" id="boundary" inkscape:connector-curvature="0" />
	<path style="fill:none;stroke:red;stroke-width:1px;stroke-linecap:butt;stroke-linejoin:miter;stroke-opacity:1" d="M 733.797,363.8 741.081,376.91 z" id="boundary" inkscape:connector-curvature="0" />
	<path style="fill:none;stroke:red;stroke-width:1px;stroke-linecap:butt;stroke-linejoin:miter;stroke-opacity:1" d="M 736.711,506.555 748.364,515.295 z" id="boundary" inkscape:connector-curvature="0" />
	<path style="fill:none;stroke:red;stroke-width:1px;stroke-linecap:butt;stroke-linejoin:miter;stroke-opacity:1" d="M 741.081,376.91 741.081,391.477 z" id="boundary" inkscape:connector-curvature="0" />
	<path style="fill:none;stroke:red;stroke-width:1px;stroke-linecap:butt;stroke-linejoin:miter;stroke-opacity:1" d="M 741.081,391.477 748.364,404.587 z" id="boundary" inkscape:connector-curvature="0" />
	<path style="fill:none;stroke:red;stroke-width:1px;stroke-linecap:butt;stroke-linejoin:miter;stroke-opacity:1" d="M 748.364,404.587 755.648,417.698 z" id="boundary" inkscape:connector-curvature="0" />
	<path style="fill:none;stroke:red;stroke-width:1px;stroke-linecap:butt;stroke-linejoin:miter;stroke-opacity:1" d="M 748.364,515.295 761.474,522.579 z" id="boundary" inkscape:connector-curvature="0" />
	<path style="fill:none;stroke:red;stroke-width:1px;stroke-linecap:butt;stroke-linejoin:miter;stroke-opacity:1" d="M 755.648,417.698 762.931,430.808 z" id="boundary" inkscape:connector-curvature="0" />
	<path style="fill:none;stroke:red;stroke-width:1px;stroke-linecap:butt;stroke-linejoin:miter;stroke-opacity:1" d="M 761.474,522.579 770.214,534.232 z" id="boundary" inkscape:connector-curvature="0" />
	<path style="fill:none;stroke:red;stroke-width:1px;stroke-linecap:butt;stroke-linejoin:miter;stroke-opacity:1" d="M 762.931,430.808 770.214,443.918 z" id="boundary" inkscape:connector-curvature="0" />
	<path style="fill:none;stroke:red;stroke-width:1px;stroke-linecap:butt;stroke-linejoin:miter;stroke-opacity:1" d="M 770.214,443.918 778.954,455.571 z" id="boundary" inkscape:connector-curvature="0" />
	<path style="fill:none;stroke:red;stroke-width:1px;stroke-linecap:butt;stroke-linejoin:miter;stroke-opacity:1" d="M 770.214,534.232 784.781,540.059 z" id="boundary" inkscape:connector-curvature="0" />
	<path style="fill:none;stroke:red;stroke-width:1px;stroke-linecap:butt;stroke-linejoin:miter;stroke-opacity:1" d="M 778.954,455.571 790.608,465.768 z" id="boundary" inkscape:connector-curvature="0" />
	<path style="fill:none;stroke:red;stroke-width:1px;stroke-linecap:butt;stroke-linejoin:miter;stroke-opacity:1" d="M 784.781,540.059 799.348,544.429 z" id="boundary" inkscape:connector-curvature="0" />
	<path style="fill:none;stroke:red;stroke-width:1px;stroke-linecap:butt;stroke-linejoin:miter;stroke-opacity:1" d="M 790.608,465.768 799.348,477.421 z" id="boundary" inkscape:connector-curvature="0" />
	<path style="fill:none;stroke:red;stroke-width:1px;stroke-linecap:butt;stroke-linejoin:miter;stroke-opacity:1" d="M 799.348,477.421 811.001,486.162 z" id="boundary" inkscape:connector-curvature="0" />
	<path style="fill:none;stroke:red;stroke-width:1px;stroke-linecap:butt;stroke-linejoin:miter;stroke-opacity:1" d="M 799.348,544.429 812.458,551.712 z" id="boundary" inkscape:connector-curvature="0" />
	<path style="fill:none;stroke:red;stroke-width:1px;stroke-linecap:butt;stroke-linejoin:miter;stroke-opacity:1" d="M 811.001,486.162 824.112,493.445 z" id="boundary" inkscape:connector-curvature="0" />
	<path style="fill:none;stroke:red;stroke-width:1px;stroke-linecap:butt;stroke-linejoin:miter;stroke-opacity:1" d="M 812.458,551.712 825.568,558.996 z" id="boundary" inkscape:connector-curvature="0" />
	<path style="fill:none;stroke:red;stroke-width:1px;stroke-linecap:butt;stroke-linejoin:miter;stroke-opacity:1" d="M 824.112,493.445 838.678,499.272 z" id="boundary" inkscape:connector-curvature="0" />
	<path style="fill:none;stroke:red;stroke-width:1px;stroke-linecap:butt;stroke-linejoin:miter;stroke-opacity:1" d="M 825.568,558.996 838.678,566.279 z" id="boundary" inkscape:connector-curvature="0" />
	<path style="fill:none;stroke:red;stroke-width:1px;stroke-linecap:butt;stroke-linejoin:miter;stroke-opacity:1" d="M 838.678,499.272 848.875,510.925 z" id="boundary" inkscape:connector-curvature="0" />
	<path style="fill:none;stroke:red;stroke-width:1px;stroke-linecap:butt;stroke-linejoin:miter;stroke-opacity:1" d="M 838.678,566.279 853.245,566.279 z" id="boundary" inkscape:connector-curvature="0" />
	<path style="fill:none;stroke:red;stroke-width:1px;stroke-linecap:butt;stroke-linejoin:miter;stroke-opacity:1" d="M 848.875,510.925 863.442,513.838 z" id="boundary" inkscape:connector-curvature="0" />
	<path style="fill:none;stroke:red;stroke-width:1px;stroke-linecap:butt;stroke-linejoin:miter;stroke-opacity:1" d="M 853.245,566.279 867.812,566.279 z" id="boundary" inkscape:connector-curvature="0" />
	<path style="fill:none;stroke:red;stroke-width:1px;stroke-linecap:butt;stroke-linejoin:miter;stroke-opacity:1" d="M 863.442,513.838 878.009,516.752 z" id="boundary" inkscape:connector-curvature="0" />
	<path style="fill:none;stroke:red;stroke-width:1px;stroke-linecap:butt;stroke-linejoin:miter;stroke-opacity:1" d="M 867.812,566.279 882.379,566.279 z" id="boundary" inkscape:connector-curvature="0" />
	<path style="fill:none;stroke:red;stroke-width:1px;stroke-linecap:butt;stroke-linejoin:miter;stroke-opacity:1" d="M 878.009,516.752 892.576,521.122 z" id="boundary" inkscape:connector-curvature="0" />
	<path style="fill:none;stroke:red;stroke-width:1px;stroke-linecap:butt;stroke-linejoin:miter;stroke-opacity:1" d="M 882.379,566.279 896.946,566.279 z" id="boundary" inkscape:connector-curvature="0" />
	<path style="fill:none;stroke:red;stroke-width:1px;stroke-linecap:butt;stroke-linejoin:miter;stroke-opacity:1" d="M 892.576,521.122 907.142,521.122 z" id="boundary" inkscape:connector-curvature="0" />
	<path style="fill:none;stroke:red;stroke-width:1px;stroke-linecap:butt;stroke-linejoin:miter;stroke-opacity:1" d="M 896.946,566.279 911.512,566.279 z" id="boundary" inkscape:connector-curvature="0" />
	<path style="fill:none;stroke:red;stroke-width:1px;stroke-linecap:butt;stroke-linejoin:miter;stroke-opacity:1" d="M 907.142,521.122 921.709,521.122 z" id="boundary" inkscape:connector-curvature="0" />
	<path style="fill:none;stroke:red;stroke-width:1px;stroke-linecap:butt;stroke-linejoin:miter;stroke-opacity:1" d="M 911.512,566.279 926.079,566.279 z" id="boundary" inkscape:connector-curvature="0" />
	<path style="fill:none;stroke:red;stroke-width:1px;stroke-linecap:butt;stroke-linejoin:miter;stroke-opacity:1" d="M 921.709,521.122 936.276,521.122 z" id="boundary" inkscape:connector-curvature="0" />
	<path style="fill:none;stroke:red;stroke-width:1px;stroke-linecap:butt;stroke-linejoin:miter;stroke-opacity:1" d="M 926.079,566.279 940.646,566.279 z" id="boundary" inkscape:connector-curvature="0" />
	<path style="fill:none;stroke:red;stroke-width:1px;stroke-linecap:butt;stroke-linejoin:miter;stroke-opacity:1" d="M 936.276,521.122 949.386,513.838 z" id="boundary" inkscape:connector-curvature="0" />
	<path style="fill:none;stroke:red;stroke-width:1px;stroke-linecap:butt;stroke-linejoin:miter;stroke-opacity:1" d="M 940.646,566.279 955.213,566.279 z" id="boundary" inkscape:connector-curvature="0" />
	<path style="fill:none;stroke:red;stroke-width:1px;stroke-linecap:butt;stroke-linejoin:miter;stroke-opacity:1" d="M 949.386,513.838 963.953,513.838 z" id="boundary" inkscape:connector-curvature="0" />
	<path style="fill:none;stroke:red;stroke-width:1px;stroke-linecap:butt;stroke-linejoin:miter;stroke-opacity:1" d="M 955.213,566.279 968.323,558.996 z" id="boundary" inkscape:connector-curvature="0" />
	<path style="fill:none;stroke:red;stroke-width:1px;stroke-linecap:butt;stroke-linejoin:miter;stroke-opacity:1" d="M 963.953,513.838 977.063,506.555 z" id="boundary" inkscape:connector-curvature="0" />
	<path style="fill:none;stroke:red;stroke-width:1px;stroke-linecap:butt;stroke-linejoin:miter;stroke-opacity:1" d="M 968.323,558.996 981.433,551.712 z" id="boundary" inkscape:connector-curvature="0" />
	<path style="fill:none;stroke:red;stroke-width:1px;stroke-linecap:butt;stroke-linejoin:miter;stroke-opacity:1" d="M 977.063,506.555 991.63,506.555 z" id="boundary" inkscape:connector-curvature="0" />
	<path style="fill:none;stroke:red;stroke-width:1px;stroke-linecap:butt;stroke-linejoin:miter;stroke-opacity:1" d="M 981.433,551.712 996,544.429 z" id="boundary" inkscape:connector-curvature="0" />
	<path style="fill:none;stroke:red;stroke-width:1px;stroke-linecap:butt;stroke-linejoin:miter;stroke-opacity:1" d="M 991.63,506.555 996,521.122 z" id="boundary" inkscape:connector-curvature="0" />
	<path style="fill:none;stroke:red;stroke-width:1px;stroke-linecap:butt;stroke-linejoin:miter;stroke-opacity:1" d="M 996,521.122 996,544.429 z" id="boundary" inkscape:connector-curvature="0" />
	<circle cx="4" cy="161.322" r="4" fill="#0" id="circle0"/>
	<circle cx="4" cy="175.888" r="4" fill="#0" id="circle1"/>
	<circle cx="4" cy="190.455" r="4" fill="#0" id="circle2"/>
	<circle cx="4" cy="205.022" r="4" fill="#0" id="circle3"/>
	<circle cx="4" cy="219.589" r="4" fill="#0" id="circle4"/>
	<circle cx="4" cy="234.156" r="4" fill="#0" id="circle5"/>
	<circle cx="4" cy="248.722" r="4" fill="#0" id="circle6"/>
	<circle cx="11.2834" cy="15.6535" r="4" fill="#0" id="circle7"/>
	<circle cx="11.2834" cy="30.2203" r="4" fill="#0" id="circle8"/>
	<circle cx="11.2834" cy="44.7871" r="4" fill="#0" id="circle9"/>
	<circle cx="11.2834" cy="59.3539" r="4" fill="#0" id="circle10"/>
	<circle cx="11.2834" cy="73.9207" r="4" fill="#0" id="circle11"/>
	<circle cx="11.2834" cy="88.4875" r="4" fill="#0" id="circle12"/>
	<circle cx="11.2834" cy="103.054" r="4" fill="#0" id="circle13"/>
	<circle cx="11.2834" cy="117.621" r="4" fill="#0" id="circle14"/>
	<circle cx="11.2834" cy="139.471" r="4" fill="#0" id="circle15"/>
	<circle cx="11.2834" cy="261.833" r="4" fill="#0" id="circle16"/>
	<circle cx="11.2834" cy="292.423" r="4" fill="#0" id="circle17"/>
	<circle cx="18.5668" cy="274.943" r="4" fill="#0" id="circle18"/>
	<circle cx="18.5668" cy="305.533" r="4" fill="#0" id="circle19"/>
	<circle cx="18.5668" cy="320.1" r="4" fill="#0" id="circle20"/>
	<circle cx="22.9369" cy="4" r="4" fill="#0" id="circle21"/>
	<circle cx="28.7636" cy="331.753" r="4" fill="#0" id="circle22"/>
	<circle cx="36.047" cy="344.863" r="4" fill="#0" id="circle23"/>
	<circle cx="37.5037" cy="4" r="4" fill="#0" id="circle24"/>
	<circle cx="47.7004" cy="355.06" r="4" fill="#0" id="circle25"/>
	<circle cx="50.6138" cy="11.2834" r="4" fill="#0" id="circle26"/>
	<circle cx="52.0705" cy="369.627" r="4" fill="#0" id="circle27"/>
	<circle cx="63.7239" cy="18.5668" r="4" fill="#0" id="circle28"/>
	<circle cx="63.7239" cy="379.824" r="4" fill="#0" id="circle29"/>
	<circle cx="69.5507" cy="394.391" r="4" fill="#0" id="circle30"/>
	<circle cx="78.2907" cy="22.9369" r="4" fill="#0" id="circle31"/>
	<circle cx="81.2041" cy="404.587" r="4" fill="#0" id="circle32"/>
	<circle cx="91.4009" cy="416.241" r="4" fill="#0" id="circle33"/>
	<circle cx="91.4009" cy="612.893" r="4" fill="#0" id="circle34"/>
	<circle cx="91.4009" cy="627.46" r="4" fill="#0" id="circle35"/>
	<circle cx="92.8576" cy="25.8502" r="4" fill="#0" id="circle36"/>
	<circle cx="98.6843" cy="429.351" r="4" fill="#0" id="circle37"/>
	<circle cx="98.6843" cy="640.57" r="4" fill="#0" id="circle38"/>
	<circle cx="103.054" cy="601.239" r="4" fill="#0" id="circle39"/>
	<circle cx="105.968" cy="442.461" r="4" fill="#0" id="circle40"/>
	<circle cx="105.968" cy="474.508" r="4" fill="#0" id="circle41"/>
	<circle cx="107.424" cy="25.8502" r="4" fill="#0" id="circle42"/>
	<circle cx="110.338" cy="457.028" r="4" fill="#0" id="circle43"/>
	<circle cx="113.251" cy="487.618" r="4" fill="#0" id="circle44"/>
	<circle cx="113.251" cy="502.185" r="4" fill="#0" id="circle45"/>
	<circle cx="113.251" cy="516.752" r="4" fill="#0" id="circle46"/>
	<circle cx="113.251" cy="531.319" r="4" fill="#0" id="circle47"/>
	<circle cx="113.251" cy="545.885" r="4" fill="#0" id="circle48"/>
	<circle cx="113.251" cy="560.452" r="4" fill="#0" id="circle49"/>
	<circle cx="113.251" cy="575.019" r="4" fill="#0" id="circle50"/>
	<circle cx="113.251" cy="589.586" r="4" fill="#0" id="circle51"/>
	<circle cx="113.251" cy="646.396" r="4" fill="#0" id="circle52"/>
	<circle cx="121.991" cy="25.8502" r="4" fill="#0" id="circle53"/>
	<circle cx="127.818" cy="649.31" r="4" fill="#0" id="circle54"/>
	<circle cx="136.558" cy="25.8502" r="4" fill="#0" id="circle55"/>
	<circle cx="142.385" cy="646.396" r="4" fill="#0" id="circle56"/>
	<circle cx="151.125" cy="25.8502" r="4" fill="#0" id="circle57"/>
	<circle cx="156.952" cy="642.026" r="4" fill="#0" id="circle58"/>
	<circle cx="165.692" cy="25.8502" r="4" fill="#0" id="circle59"/>
	<circle cx="168.605" cy="630.373" r="4" fill="#0" id="circle60"/>
	<circle cx="172.975" cy="609.979" r="4" fill="#0" id="circle61"/>
	<circle cx="180.258" cy="25.8502" r="4" fill="#0" id="circle62"/>
	<circle cx="180.258" cy="551.712" r="4" fill="#0" id="circle63"/>
	<circle cx="180.258" cy="566.279" r="4" fill="#0" id="circle64"/>
	<circle cx="180.258" cy="580.846" r="4" fill="#0" id="circle65"/>
	<circle cx="180.258" cy="595.413" r="4" fill="#0" id="circle66"/>
	<circle cx="187.542" cy="508.012" r="4" fill="#0" id="circle67"/>
	<circle cx="187.542" cy="522.579" r="4" fill="#0" id="circle68"/>
	<circle cx="187.542" cy="537.145" r="4" fill="#0" id="circle69"/>
	<circle cx="194.825" cy="21.4802" r="4" fill="#0" id="circle70"/>
	<circle cx="194.825" cy="486.162" r="4" fill="#0" id="circle71"/>
	<circle cx="200.652" cy="649.31" r="4" fill="#0" id="circle72"/>
	<circle cx="202.109" cy="471.595" r="4" fill="#0" id="circle73"/>
	<circle cx="207.935" cy="634.743" r="4" fill="#0" id="circle74"/>
	<circle cx="207.935" cy="662.42" r="4" fill="#0" id="circle75"/>
	<circle cx="209.392" cy="14.1968" r="4" fill="#0" id="circle76"/>
	<circle cx="215.219" cy="478.878" r="4" fill="#0" id="circle77"/>
	<circle cx="215.219" cy="493.445" r="4" fill="#0" id="circle78"/>
	<circle cx="218.132" cy="674.073" r="4" fill="#0" id="circle79"/>
	<circle cx="219.589" cy="508.012" r="4" fill="#0" id="circle80"/>
	<circle cx="219.589" cy="623.09" r="4" fill="#0" id="circle81"/>
	<circle cx="222.502" cy="522.579" r="4" fill="#0" id="circle82"/>
	<circle cx="223.959" cy="6.91336" r="4" fill="#0" id="circle83"/>
	<circle cx="223.959" cy="63.7239" r="4" fill="#0" id="circle84"/>
	<circle cx="223.959" cy="78.2907" r="4" fill="#0" id="circle85"/>
	<circle cx="226.872" cy="92.8576" r="4" fill="#0" id="circle86"/>
	<circle cx="229.786" cy="535.689" r="4" fill="#0" id="circle87"/>
	<circle cx="229.786" cy="550.256" r="4" fill="#0" id="circle88"/>
	<circle cx="229.786" cy="564.822" r="4" fill="#0" id="circle89"/>
	<circle cx="229.786" cy="579.389" r="4" fill="#0" id="circle90"/>
	<circle cx="229.786" cy="593.956" r="4" fill="#0" id="circle91"/>
	<circle cx="229.786" cy="608.523" r="4" fill="#0" id="circle92"/>
	<circle cx="231.242" cy="49.1571" r="4" fill="#0" id="circle93"/>
	<circle cx="232.699" cy="675.53" r="4" fill="#0" id="circle94"/>
	<circle cx="238.526" cy="4" r="4" fill="#0" id="circle95"/>
	<circle cx="238.526" cy="27.3069" r="4" fill="#0" id="circle96"/>
	<circle cx="238.526" cy="103.054" r="4" fill="#0" id="circle97"/>
	<circle cx="247.266" cy="675.53" r="4" fill="#0" id="circle98"/>
	<circle cx="251.636" cy="110.338" r="4" fill="#0" id="circle99"/>
	<circle cx="253.093" cy="8.37004" r="4" fill="#0" id="circle100"/>
	<circle cx="260.376" cy="668.247" r="4" fill="#0" id="circle101"/>
	<circle cx="266.203" cy="113.251" r="4" fill="#0" id="circle102"/>
	<circle cx="274.943" cy="660.963" r="4" fill="#0" id="circle103"/>
	<circle cx="280.769" cy="116.164" r="4" fill="#0" id="circle104"/>
	<circle cx="282.226" cy="617.263" r="4" fill="#0" id="circle105"/>
	<circle cx="282.226" cy="631.83" r="4" fill="#0" id="circle106"/>
	<circle cx="282.226" cy="646.396" r="4" fill="#0" id="circle107"/>
	<circle cx="289.51" cy="588.129" r="4" fill="#0" id="circle108"/>
	<circle cx="289.51" cy="602.696" r="4" fill="#0" id="circle109"/>
	<circle cx="295.336" cy="120.535" r="4" fill="#0" id="circle110"/>
	<circle cx="296.793" cy="558.996" r="4" fill="#0" id="circle111"/>
	<circle cx="296.793" cy="573.562" r="4" fill="#0" id="circle112"/>
	<circle cx="304.076" cy="522.579" r="4" fill="#0" id="circle113"/>
	<circle cx="304.076" cy="537.145" r="4" fill="#0" id="circle114"/>
	<circle cx="309.903" cy="120.535" r="4" fill="#0" id="circle115"/>
	<circle cx="311.36" cy="493.445" r="4" fill="#0" id="circle116"/>
	<circle cx="311.36" cy="508.012" r="4" fill="#0" id="circle117"/>
	<circle cx="318.643" cy="471.595" r="4" fill="#0" id="circle118"/>
	<circle cx="324.47" cy="120.535" r="4" fill="#0" id="circle119"/>
	<circle cx="330.297" cy="461.398" r="4" fill="#0" id="circle120"/>
	<circle cx="339.037" cy="120.535" r="4" fill="#0" id="circle121"/>
	<circle cx="340.493" cy="449.744" r="4" fill="#0" id="circle122"/>
	<circle cx="353.604" cy="120.535" r="4" fill="#0" id="circle123"/>
	<circle cx="355.06" cy="449.744" r="4" fill="#0" id="circle124"/>
	<circle cx="368.17" cy="120.535" r="4" fill="#0" id="circle125"/>
	<circle cx="369.627" cy="449.744" r="4" fill="#0" id="circle126"/>
	<circle cx="382.737" cy="120.535" r="4" fill="#0" id="circle127"/>
	<circle cx="384.194" cy="449.744" r="4" fill="#0" id="circle128"/>
	<circle cx="397.304" cy="120.535" r="4" fill="#0" id="circle129"/>
	<circle cx="397.304" cy="457.028" r="4" fill="#0" id="circle130"/>
	<circle cx="397.304" cy="598.326" r="4" fill="#0" id="circle131"/>
	<circle cx="397.304" cy="612.893" r="4" fill="#0" id="circle132"/>
	<circle cx="406.044" cy="468.681" r="4" fill="#0" id="circle133"/>
	<circle cx="408.957" cy="586.673" r="4" fill="#0" id="circle134"/>
	<circle cx="411.871" cy="123.448" r="4" fill="#0" id="circle135"/>
	<circle cx="411.871" cy="617.263" r="4" fill="#0" id="circle136"/>
	<circle cx="420.611" cy="474.508" r="4" fill="#0" id="circle137"/>
	<circle cx="422.068" cy="579.389" r="4" fill="#0" id="circle138"/>
	<circle cx="426.438" cy="127.818" r="4" fill="#0" id="circle139"/>
	<circle cx="426.438" cy="617.263" r="4" fill="#0" id="circle140"/>
	<circle cx="430.808" cy="486.162" r="4" fill="#0" id="circle141"/>
	<circle cx="435.178" cy="572.106" r="4" fill="#0" id="circle142"/>
	<circle cx="441.004" cy="127.818" r="4" fill="#0" id="circle143"/>
	<circle cx="441.004" cy="617.263" r="4" fill="#0" id="circle144"/>
	<circle cx="442.461" cy="496.358" r="4" fill="#0" id="circle145"/>
	<circle cx="443.918" cy="558.996" r="4" fill="#0" id="circle146"/>
	<circle cx="454.115" cy="609.979" r="4" fill="#0" id="circle147"/>
	<circle cx="455.571" cy="127.818" r="4" fill="#0" id="circle148"/>
	<circle cx="455.571" cy="503.642" r="4" fill="#0" id="circle149"/>
	<circle cx="455.571" cy="540.059" r="4" fill="#0" id="circle150"/>
	<circle cx="462.855" cy="516.752" r="4" fill="#0" id="circle151"/>
	<circle cx="468.681" cy="607.066" r="4" fill="#0" id="circle152"/>
	<circle cx="470.138" cy="127.818" r="4" fill="#0" id="circle153"/>
	<circle cx="483.248" cy="599.783" r="4" fill="#0" id="circle154"/>
	<circle cx="484.705" cy="127.818" r="4" fill="#0" id="circle155"/>
	<circle cx="497.815" cy="135.101" r="4" fill="#0" id="circle156"/>
	<circle cx="497.815" cy="592.499" r="4" fill="#0" id="circle157"/>
	<circle cx="499.272" cy="620.176" r="4" fill="#0" id="circle158"/>
	<circle cx="499.272" cy="634.743" r="4" fill="#0" id="circle159"/>
	<circle cx="499.272" cy="649.31" r="4" fill="#0" id="circle160"/>
	<circle cx="508.012" cy="580.846" r="4" fill="#0" id="circle161"/>
	<circle cx="512.382" cy="135.101" r="4" fill="#0" id="circle162"/>
	<circle cx="513.838" cy="612.893" r="4" fill="#0" id="circle163"/>
	<circle cx="513.838" cy="653.68" r="4" fill="#0" id="circle164"/>
	<circle cx="519.665" cy="570.649" r="4" fill="#0" id="circle165"/>
	<circle cx="525.492" cy="601.239" r="4" fill="#0" id="circle166"/>
	<circle cx="526.949" cy="135.101" r="4" fill="#0" id="circle167"/>
	<circle cx="526.949" cy="660.963" r="4" fill="#0" id="circle168"/>
	<circle cx="534.232" cy="563.366" r="4" fill="#0" id="circle169"/>
	<circle cx="540.059" cy="142.385" r="4" fill="#0" id="circle170"/>
	<circle cx="540.059" cy="601.239" r="4" fill="#0" id="circle171"/>
	<circle cx="541.515" cy="660.963" r="4" fill="#0" id="circle172"/>
	<circle cx="544.429" cy="551.712" r="4" fill="#0" id="circle173"/>
	<circle cx="551.712" cy="589.586" r="4" fill="#0" id="circle174"/>
	<circle cx="554.626" cy="142.385" r="4" fill="#0" id="circle175"/>
	<circle cx="556.082" cy="658.05" r="4" fill="#0" id="circle176"/>
	<circle cx="557.539" cy="544.429" r="4" fill="#0" id="circle177"/>
	<circle cx="558.996" cy="575.019" r="4" fill="#0" id="circle178"/>
	<circle cx="564.822" cy="557.539" r="4" fill="#0" id="circle179"/>
	<circle cx="567.736" cy="149.668" r="4" fill="#0" id="circle180"/>
	<circle cx="570.649" cy="650.767" r="4" fill="#0" id="circle181"/>
	<circle cx="577.932" cy="636.2" r="4" fill="#0" id="circle182"/>
	<circle cx="580.846" cy="156.952" r="4" fill="#0" id="circle183"/>
	<circle cx="588.129" cy="624.546" r="4" fill="#0" id="circle184"/>
	<circle cx="593.956" cy="164.235" r="4" fill="#0" id="circle185"/>
	<circle cx="599.783" cy="614.349" r="4" fill="#0" id="circle186"/>
	<circle cx="608.523" cy="167.148" r="4" fill="#0" id="circle187"/>
	<circle cx="609.979" cy="602.696" r="4" fill="#0" id="circle188"/>
	<circle cx="617.263" cy="178.802" r="4" fill="#0" id="circle189"/>
	<circle cx="617.263" cy="588.129" r="4" fill="#0" id="circle190"/>
	<circle cx="628.916" cy="187.542" r="4" fill="#0" id="circle191"/>
	<circle cx="628.916" cy="577.932" r="4" fill="#0" id="circle192"/>
	<circle cx="636.2" cy="563.366" r="4" fill="#0" id="circle193"/>
	<circle cx="642.026" cy="194.825" r="4" fill="#0" id="circle194"/>
	<circle cx="643.483" cy="548.799" r="4" fill="#0" id="circle195"/>
	<circle cx="646.396" cy="457.028" r="4" fill="#0" id="circle196"/>
	<circle cx="646.396" cy="471.595" r="4" fill="#0" id="circle197"/>
	<circle cx="649.31" cy="486.162" r="4" fill="#0" id="circle198"/>
	<circle cx="650.767" cy="534.232" r="4" fill="#0" id="circle199"/>
	<circle cx="653.68" cy="205.022" r="4" fill="#0" id="circle200"/>
	<circle cx="653.68" cy="442.461" r="4" fill="#0" id="circle201"/>
	<circle cx="656.593" cy="499.272" r="4" fill="#0" id="circle202"/>
	<circle cx="658.05" cy="519.665" r="4" fill="#0" id="circle203"/>
	<circle cx="663.877" cy="216.675" r="4" fill="#0" id="circle204"/>
	<circle cx="666.79" cy="435.178" r="4" fill="#0" id="circle205"/>
	<circle cx="671.16" cy="229.786" r="4" fill="#0" id="circle206"/>
	<circle cx="681.357" cy="241.439" r="4" fill="#0" id="circle207"/>
	<circle cx="681.357" cy="435.178" r="4" fill="#0" id="circle208"/>
	<circle cx="685.727" cy="449.744" r="4" fill="#0" id="circle209"/>
	<circle cx="690.097" cy="253.093" r="4" fill="#0" id="circle210"/>
	<circle cx="693.01" cy="267.659" r="4" fill="#0" id="circle211"/>
	<circle cx="695.924" cy="461.398" r="4" fill="#0" id="circle212"/>
	<circle cx="700.294" cy="280.769" r="4" fill="#0" id="circle213"/>
	<circle cx="703.207" cy="474.508" r="4" fill="#0" id="circle214"/>
	<circle cx="704.664" cy="295.336" r="4" fill="#0" id="circle215"/>
	<circle cx="711.947" cy="308.446" r="4" fill="#0" id="circle216"/>
	<circle cx="714.86" cy="484.705" r="4" fill="#0" id="circle217"/>
	<circle cx="719.231" cy="321.557" r="4" fill="#0" id="circle218"/>
	<circle cx="725.057" cy="336.123" r="4" fill="#0" id="circle219"/>
	<circle cx="725.057" cy="496.358" r="4" fill="#0" id="circle220"/>
	<circle cx="726.514" cy="350.69" r="4" fill="#0" id="circle221"/>
	<circle cx="733.797" cy="363.8" r="4" fill="#0" id="circle222"/>
	<circle cx="736.711" cy="506.555" r="4" fill="#0" id="circle223"/>
	<circle cx="741.081" cy="376.91" r="4" fill="#0" id="circle224"/>
	<circle cx="741.081" cy="391.477" r="4" fill="#0" id="circle225"/>
	<circle cx="748.364" cy="404.587" r="4" fill="#0" id="circle226"/>
	<circle cx="748.364" cy="515.295" r="4" fill="#0" id="circle227"/>
	<circle cx="755.648" cy="417.698" r="4" fill="#0" id="circle228"/>
	<circle cx="761.474" cy="522.579" r="4" fill="#0" id="circle229"/>
	<circle cx="762.931" cy="430.808" r="4" fill="#0" id="circle230"/>
	<circle cx="770.214" cy="443.918" r="4" fill="#0" id="circle231"/>
	<circle cx="770.214" cy="534.232" r="4" fill="#0" id="circle232"/>
	<circle cx="778.954" cy="455.571" r="4" fill="#0" id="circle233"/>
	<circle cx="784.781" cy="540.059" r="4" fill="#0" id="circle234"/>
	<circle cx="790.608" cy="465.768" r="4" fill="#0" id="circle235"/>
	<circle cx="799.348" cy="477.421" r="4" fill="#0" id="circle236"/>
	<circle cx="799.348" cy="544.429" r="4" fill="#0" id="circle237"/>
	<circle cx="811.001" cy="486.162" r="4" fill="#0" id="circle238"/>
	<circle cx="812.458" cy="551.712" r="4" fill="#0" id="circle239"/>
	<circle cx="824.112" cy="493.445" r="4" fill="#0" id="circle240"/>
	<circle cx="825.568" cy="558.996" r="4" fill="#0" id="circle241"/>
	<circle cx="838.678" cy="499.272" r="4" fill="#0" id="circle242"/>
	<circle cx="838.678" cy="566.279" r="4" fill="#0" id="circle243"/>
	<circle cx="848.875" cy="510.925" r="4" fill="#0" id="circle244"/>
	<circle cx="853.245" cy="566.279" r="4" fill="#0" id="circle245"/>
	<circle cx="863.442" cy="513.838" r="4" fill="#0" id="circle246"/>
	<circle cx="867.812" cy="566.279" r="4" fill="#0" id="circle247"/>
	<circle cx="878.009" cy="516.752" r="4" fill="#0" id="circle248"/>
	<circle cx="882.379" cy="566.279" r="4" fill="#0" id="circle249"/>
	<circle cx="892.576" cy="521.122" r="4" fill="#0" id="circle250"/>
	<circle cx="896.946" cy="566.279" r="4" fill="#0" id="circle251"/>
	<circle cx="907.142" cy="521.122" r="4" fill="#0" id="circle252"/>
	<circle cx="911.512" cy="566.279" r="4" fill="#0" id="circle253"/>
	<circle cx="921.709" cy="521.122" r="4" fill="#0" id="circle254"/>
	<circle cx="926.079" cy="566.279" r="4" fill="#0" id="circle255"/>
	<circle cx="936.276" cy="521.122" r="4" fill="#0" id="circle256"/>
	<circle cx="940.646" cy="566.279" r="4" fill="#0" id="circle257"/>
	<circle cx="949.386" cy="513.838" r="4" fill="#0" id="circle258"/>
	<circle cx="955.213" cy="566.279" r="4" fill="#0" id="circle259"/>
	<circle cx="963.953" cy="513.838" r="4" fill="#0" id="circle260"/>
	<circle cx="968.323" cy="558.996" r="4" fill="#0" id="circle261"/>
	<circle cx="977.063" cy="506.555" r="4" fill="#0" id="circle262"/>
	<circle cx="981.433" cy="551.712" r="4" fill="#0" id="circle263"/>
	<circle cx="991.63" cy="506.555" r="4" fill="#0" id="circle264"/>
	<circle cx="996" cy="521.122" r="4" fill="#0" id="circle265"/>
	<circle cx="996" cy="544.429" r="4" fill="#0" id="circle266"/>
	</g>
</svg>