<?xml version="1.0" encoding="UTF-8" standalone="no"?>
<!-- Created with CurveBenchmark -->
<svg
	xmlns:dc="http://purl.org/dc/elements/1.1/"
	xmlns:cc="http://creativecommons.org/ns#"
	xmlns:rdf="http://www.w3.org/1999/02/22-rdf-syntax-ns#"
	xmlns:svg="http://www.w3.org/2000/svg"
	xmlns="http://www.w3.org/2000/svg"
	xmlns:sodipodi="http://sodipodi.sourceforge.net/DTD/sodipodi-0.dtd"
	xmlns:inkscape="http://www.inkscape.org/namespaces/inkscape"
	width="1000"
	height="1000"
	id="svg2"
	version="1.1"
	sodipodi:docname="manifold/vicur-teddy-18.png.txt">
<defs
	id="defs4" />
<metadata
	id="metadata7">
	<rdf:RDF>
		<cc:Work
			rdf:about="">
			<dc:format>image/svg+xml</dc:format>
			<dc:type
				rdf:resource="http://purl.org/dc/dcmitype/StillImage" />
			<dc:title></dc:title>
		</cc:Work>
	</rdf:RDF>
</metadata>
<g
	inkscape:label="Layer 1"
	inkscape:groupmode="layer"
	id="layer1">
	<path style="fill:none;stroke:red;stroke-width:1px;stroke-linecap:butt;stroke-linejoin:miter;stroke-opacity:1" d="M 4,710.719 4,719.981 z" id="boundary" inkscape:connector-curvature="0" />
	<path style="fill:none;stroke:red;stroke-width:1px;stroke-linecap:butt;stroke-linejoin:miter;stroke-opacity:1" d="M 4,710.719 17.8936,692.194 z" id="boundary" inkscape:connector-curvature="0" />
	<path style="fill:none;stroke:red;stroke-width:1px;stroke-linecap:butt;stroke-linejoin:miter;stroke-opacity:1" d="M 4,719.981 4,729.244 z" id="boundary" inkscape:connector-curvature="0" />
	<path style="fill:none;stroke:red;stroke-width:1px;stroke-linecap:butt;stroke-linejoin:miter;stroke-opacity:1" d="M 4,729.244 4,738.506 z" id="boundary" inkscape:connector-curvature="0" />
	<path style="fill:none;stroke:red;stroke-width:1px;stroke-linecap:butt;stroke-linejoin:miter;stroke-opacity:1" d="M 4,738.506 4,747.768 z" id="boundary" inkscape:connector-curvature="0" />
	<path style="fill:none;stroke:red;stroke-width:1px;stroke-linecap:butt;stroke-linejoin:miter;stroke-opacity:1" d="M 8.63119,493.053 8.63119,502.316 z" id="boundary" inkscape:connector-curvature="0" />
	<path style="fill:none;stroke:red;stroke-width:1px;stroke-linecap:butt;stroke-linejoin:miter;stroke-opacity:1" d="M 8.63119,493.053 13.2624,479.16 z" id="boundary" inkscape:connector-curvature="0" />
	<path style="fill:none;stroke:red;stroke-width:1px;stroke-linecap:butt;stroke-linejoin:miter;stroke-opacity:1" d="M 8.63119,502.316 8.63119,511.578 z" id="boundary" inkscape:connector-curvature="0" />
	<path style="fill:none;stroke:red;stroke-width:1px;stroke-linecap:butt;stroke-linejoin:miter;stroke-opacity:1" d="M 8.63119,511.578 8.63119,520.84 z" id="boundary" inkscape:connector-curvature="0" />
	<path style="fill:none;stroke:red;stroke-width:1px;stroke-linecap:butt;stroke-linejoin:miter;stroke-opacity:1" d="M 8.63119,520.84 8.63119,530.103 z" id="boundary" inkscape:connector-curvature="0" />
	<path style="fill:none;stroke:red;stroke-width:1px;stroke-linecap:butt;stroke-linejoin:miter;stroke-opacity:1" d="M 8.63119,530.103 13.2624,538.439 z" id="boundary" inkscape:connector-curvature="0" />
	<path style="fill:none;stroke:red;stroke-width:1px;stroke-linecap:butt;stroke-linejoin:miter;stroke-opacity:1" d="M 13.2624,432.848 13.2624,442.11 z" id="boundary" inkscape:connector-curvature="0" />
	<path style="fill:none;stroke:red;stroke-width:1px;stroke-linecap:butt;stroke-linejoin:miter;stroke-opacity:1" d="M 13.2624,432.848 17.8936,423.585 z" id="boundary" inkscape:connector-curvature="0" />
	<path style="fill:none;stroke:red;stroke-width:1px;stroke-linecap:butt;stroke-linejoin:miter;stroke-opacity:1" d="M 13.2624,442.11 13.2624,451.373 z" id="boundary" inkscape:connector-curvature="0" />
	<path style="fill:none;stroke:red;stroke-width:1px;stroke-linecap:butt;stroke-linejoin:miter;stroke-opacity:1" d="M 13.2624,451.373 13.2624,460.635 z" id="boundary" inkscape:connector-curvature="0" />
	<path style="fill:none;stroke:red;stroke-width:1px;stroke-linecap:butt;stroke-linejoin:miter;stroke-opacity:1" d="M 13.2624,460.635 13.2624,469.897 z" id="boundary" inkscape:connector-curvature="0" />
	<path style="fill:none;stroke:red;stroke-width:1px;stroke-linecap:butt;stroke-linejoin:miter;stroke-opacity:1" d="M 13.2624,469.897 13.2624,479.16 z" id="boundary" inkscape:connector-curvature="0" />
	<path style="fill:none;stroke:red;stroke-width:1px;stroke-linecap:butt;stroke-linejoin:miter;stroke-opacity:1" d="M 17.8936,423.585 22.5247,414.323 z" id="boundary" inkscape:connector-curvature="0" />
	<path style="fill:none;stroke:red;stroke-width:1px;stroke-linecap:butt;stroke-linejoin:miter;stroke-opacity:1" d="M 17.8936,692.194 29.9346,675.522 z" id="boundary" inkscape:connector-curvature="0" />
	<path style="fill:none;stroke:red;stroke-width:1px;stroke-linecap:butt;stroke-linejoin:miter;stroke-opacity:1" d="M 22.5247,405.061 22.5247,414.323 z" id="boundary" inkscape:connector-curvature="0" />
	<path style="fill:none;stroke:red;stroke-width:1px;stroke-linecap:butt;stroke-linejoin:miter;stroke-opacity:1" d="M 22.5247,405.061 27.1559,395.798 z" id="boundary" inkscape:connector-curvature="0" />
	<path style="fill:none;stroke:red;stroke-width:1px;stroke-linecap:butt;stroke-linejoin:miter;stroke-opacity:1" d="M 22.5247,799.638 23.451,808.9 z" id="boundary" inkscape:connector-curvature="0" />
	<path style="fill:none;stroke:red;stroke-width:1px;stroke-linecap:butt;stroke-linejoin:miter;stroke-opacity:1" d="M 23.451,808.9 28.0822,817.236 z" id="boundary" inkscape:connector-curvature="0" />
	<path style="fill:none;stroke:red;stroke-width:1px;stroke-linecap:butt;stroke-linejoin:miter;stroke-opacity:1" d="M 27.1559,395.798 31.7871,381.905 z" id="boundary" inkscape:connector-curvature="0" />
	<path style="fill:none;stroke:red;stroke-width:1px;stroke-linecap:butt;stroke-linejoin:miter;stroke-opacity:1" d="M 28.0822,817.236 31.7871,826.499 z" id="boundary" inkscape:connector-curvature="0" />
	<path style="fill:none;stroke:red;stroke-width:1px;stroke-linecap:butt;stroke-linejoin:miter;stroke-opacity:1" d="M 29.9346,675.522 46.6069,666.26 z" id="boundary" inkscape:connector-curvature="0" />
	<path style="fill:none;stroke:red;stroke-width:1px;stroke-linecap:butt;stroke-linejoin:miter;stroke-opacity:1" d="M 31.7871,381.905 36.4183,372.642 z" id="boundary" inkscape:connector-curvature="0" />
	<path style="fill:none;stroke:red;stroke-width:1px;stroke-linecap:butt;stroke-linejoin:miter;stroke-opacity:1" d="M 31.7871,826.499 39.197,832.982 z" id="boundary" inkscape:connector-curvature="0" />
	<path style="fill:none;stroke:red;stroke-width:1px;stroke-linecap:butt;stroke-linejoin:miter;stroke-opacity:1" d="M 36.4183,372.642 45.6807,368.011 z" id="boundary" inkscape:connector-curvature="0" />
	<path style="fill:none;stroke:red;stroke-width:1px;stroke-linecap:butt;stroke-linejoin:miter;stroke-opacity:1" d="M 45.6807,368.011 50.3119,358.749 z" id="boundary" inkscape:connector-curvature="0" />
	<path style="fill:none;stroke:red;stroke-width:1px;stroke-linecap:butt;stroke-linejoin:miter;stroke-opacity:1" d="M 46.6069,666.26 63.2792,656.997 z" id="boundary" inkscape:connector-curvature="0" />
	<path style="fill:none;stroke:red;stroke-width:1px;stroke-linecap:butt;stroke-linejoin:miter;stroke-opacity:1" d="M 50.3119,358.749 59.5742,354.118 z" id="boundary" inkscape:connector-curvature="0" />
	<path style="fill:none;stroke:red;stroke-width:1px;stroke-linecap:butt;stroke-linejoin:miter;stroke-opacity:1" d="M 50.3119,848.728 50.3119,857.991 z" id="boundary" inkscape:connector-curvature="0" />
	<path style="fill:none;stroke:red;stroke-width:1px;stroke-linecap:butt;stroke-linejoin:miter;stroke-opacity:1" d="M 50.3119,857.991 54.943,866.327 z" id="boundary" inkscape:connector-curvature="0" />
	<path style="fill:none;stroke:red;stroke-width:1px;stroke-linecap:butt;stroke-linejoin:miter;stroke-opacity:1" d="M 53.0906,565.3 62.3529,565.3 z" id="boundary" inkscape:connector-curvature="0" />
	<path style="fill:none;stroke:red;stroke-width:1px;stroke-linecap:butt;stroke-linejoin:miter;stroke-opacity:1" d="M 54.943,866.327 57.7218,875.589 z" id="boundary" inkscape:connector-curvature="0" />
	<path style="fill:none;stroke:red;stroke-width:1px;stroke-linecap:butt;stroke-linejoin:miter;stroke-opacity:1" d="M 57.7218,875.589 62.3529,883.925 z" id="boundary" inkscape:connector-curvature="0" />
	<path style="fill:none;stroke:red;stroke-width:1px;stroke-linecap:butt;stroke-linejoin:miter;stroke-opacity:1" d="M 59.5742,354.118 68.8366,349.486 z" id="boundary" inkscape:connector-curvature="0" />
	<path style="fill:none;stroke:red;stroke-width:1px;stroke-linecap:butt;stroke-linejoin:miter;stroke-opacity:1" d="M 62.3529,565.3 71.6153,569.005 z" id="boundary" inkscape:connector-curvature="0" />
	<path style="fill:none;stroke:red;stroke-width:1px;stroke-linecap:butt;stroke-linejoin:miter;stroke-opacity:1" d="M 62.3529,883.925 64.2054,893.188 z" id="boundary" inkscape:connector-curvature="0" />
	<path style="fill:none;stroke:red;stroke-width:1px;stroke-linecap:butt;stroke-linejoin:miter;stroke-opacity:1" d="M 63.2792,656.997 72.5415,656.997 z" id="boundary" inkscape:connector-curvature="0" />
	<path style="fill:none;stroke:red;stroke-width:1px;stroke-linecap:butt;stroke-linejoin:miter;stroke-opacity:1" d="M 68.8366,349.486 78.099,346.708 z" id="boundary" inkscape:connector-curvature="0" />
	<path style="fill:none;stroke:red;stroke-width:1px;stroke-linecap:butt;stroke-linejoin:miter;stroke-opacity:1" d="M 71.6153,569.005 80.8777,569.931 z" id="boundary" inkscape:connector-curvature="0" />
	<path style="fill:none;stroke:red;stroke-width:1px;stroke-linecap:butt;stroke-linejoin:miter;stroke-opacity:1" d="M 72.5415,656.997 81.8039,656.997 z" id="boundary" inkscape:connector-curvature="0" />
	<path style="fill:none;stroke:red;stroke-width:1px;stroke-linecap:butt;stroke-linejoin:miter;stroke-opacity:1" d="M 78.099,346.708 87.3613,346.708 z" id="boundary" inkscape:connector-curvature="0" />
	<path style="fill:none;stroke:red;stroke-width:1px;stroke-linecap:butt;stroke-linejoin:miter;stroke-opacity:1" d="M 80.8777,569.931 89.2138,574.562 z" id="boundary" inkscape:connector-curvature="0" />
	<path style="fill:none;stroke:red;stroke-width:1px;stroke-linecap:butt;stroke-linejoin:miter;stroke-opacity:1" d="M 81.8039,656.997 91.0663,656.997 z" id="boundary" inkscape:connector-curvature="0" />
	<path style="fill:none;stroke:red;stroke-width:1px;stroke-linecap:butt;stroke-linejoin:miter;stroke-opacity:1" d="M 87.3613,346.708 96.6237,346.708 z" id="boundary" inkscape:connector-curvature="0" />
	<path style="fill:none;stroke:red;stroke-width:1px;stroke-linecap:butt;stroke-linejoin:miter;stroke-opacity:1" d="M 89.2138,574.562 98.4762,577.341 z" id="boundary" inkscape:connector-curvature="0" />
	<path style="fill:none;stroke:red;stroke-width:1px;stroke-linecap:butt;stroke-linejoin:miter;stroke-opacity:1" d="M 89.2138,933.942 104.96,945.057 z" id="boundary" inkscape:connector-curvature="0" />
	<path style="fill:none;stroke:red;stroke-width:1px;stroke-linecap:butt;stroke-linejoin:miter;stroke-opacity:1" d="M 91.0663,656.997 100.329,656.997 z" id="boundary" inkscape:connector-curvature="0" />
	<path style="fill:none;stroke:red;stroke-width:1px;stroke-linecap:butt;stroke-linejoin:miter;stroke-opacity:1" d="M 96.6237,346.708 105.886,346.708 z" id="boundary" inkscape:connector-curvature="0" />
	<path style="fill:none;stroke:red;stroke-width:1px;stroke-linecap:butt;stroke-linejoin:miter;stroke-opacity:1" d="M 98.4762,577.341 106.812,581.972 z" id="boundary" inkscape:connector-curvature="0" />
	<path style="fill:none;stroke:red;stroke-width:1px;stroke-linecap:butt;stroke-linejoin:miter;stroke-opacity:1" d="M 100.329,656.997 109.591,657.923 z" id="boundary" inkscape:connector-curvature="0" />
	<path style="fill:none;stroke:red;stroke-width:1px;stroke-linecap:butt;stroke-linejoin:miter;stroke-opacity:1" d="M 104.96,945.057 113.296,949.688 z" id="boundary" inkscape:connector-curvature="0" />
	<path style="fill:none;stroke:red;stroke-width:1px;stroke-linecap:butt;stroke-linejoin:miter;stroke-opacity:1" d="M 105.886,346.708 115.148,346.708 z" id="boundary" inkscape:connector-curvature="0" />
	<path style="fill:none;stroke:red;stroke-width:1px;stroke-linecap:butt;stroke-linejoin:miter;stroke-opacity:1" d="M 106.812,581.972 116.075,583.824 z" id="boundary" inkscape:connector-curvature="0" />
	<path style="fill:none;stroke:red;stroke-width:1px;stroke-linecap:butt;stroke-linejoin:miter;stroke-opacity:1" d="M 109.591,657.923 118.853,661.628 z" id="boundary" inkscape:connector-curvature="0" />
	<path style="fill:none;stroke:red;stroke-width:1px;stroke-linecap:butt;stroke-linejoin:miter;stroke-opacity:1" d="M 113.296,949.688 122.558,949.688 z" id="boundary" inkscape:connector-curvature="0" />
	<path style="fill:none;stroke:red;stroke-width:1px;stroke-linecap:butt;stroke-linejoin:miter;stroke-opacity:1" d="M 115.148,346.708 123.485,351.339 z" id="boundary" inkscape:connector-curvature="0" />
	<path style="fill:none;stroke:red;stroke-width:1px;stroke-linecap:butt;stroke-linejoin:miter;stroke-opacity:1" d="M 116.075,583.824 124.411,588.456 z" id="boundary" inkscape:connector-curvature="0" />
	<path style="fill:none;stroke:red;stroke-width:1px;stroke-linecap:butt;stroke-linejoin:miter;stroke-opacity:1" d="M 118.853,661.628 128.116,661.628 z" id="boundary" inkscape:connector-curvature="0" />
	<path style="fill:none;stroke:red;stroke-width:1px;stroke-linecap:butt;stroke-linejoin:miter;stroke-opacity:1" d="M 122.558,949.688 131.821,949.688 z" id="boundary" inkscape:connector-curvature="0" />
	<path style="fill:none;stroke:red;stroke-width:1px;stroke-linecap:butt;stroke-linejoin:miter;stroke-opacity:1" d="M 123.485,351.339 131.821,355.97 z" id="boundary" inkscape:connector-curvature="0" />
	<path style="fill:none;stroke:red;stroke-width:1px;stroke-linecap:butt;stroke-linejoin:miter;stroke-opacity:1" d="M 124.411,588.456 142.009,593.087 z" id="boundary" inkscape:connector-curvature="0" />
	<path style="fill:none;stroke:red;stroke-width:1px;stroke-linecap:butt;stroke-linejoin:miter;stroke-opacity:1" d="M 128.116,661.628 137.378,662.555 z" id="boundary" inkscape:connector-curvature="0" />
	<path style="fill:none;stroke:red;stroke-width:1px;stroke-linecap:butt;stroke-linejoin:miter;stroke-opacity:1" d="M 131.821,355.97 138.304,363.38 z" id="boundary" inkscape:connector-curvature="0" />
	<path style="fill:none;stroke:red;stroke-width:1px;stroke-linecap:butt;stroke-linejoin:miter;stroke-opacity:1" d="M 131.821,949.688 141.083,949.688 z" id="boundary" inkscape:connector-curvature="0" />
	<path style="fill:none;stroke:red;stroke-width:1px;stroke-linecap:butt;stroke-linejoin:miter;stroke-opacity:1" d="M 137.378,662.555 145.714,667.186 z" id="boundary" inkscape:connector-curvature="0" />
	<path style="fill:none;stroke:red;stroke-width:1px;stroke-linecap:butt;stroke-linejoin:miter;stroke-opacity:1" d="M 138.304,363.38 143.862,370.79 z" id="boundary" inkscape:connector-curvature="0" />
	<path style="fill:none;stroke:red;stroke-width:1px;stroke-linecap:butt;stroke-linejoin:miter;stroke-opacity:1" d="M 141.083,949.688 150.345,949.688 z" id="boundary" inkscape:connector-curvature="0" />
	<path style="fill:none;stroke:red;stroke-width:1px;stroke-linecap:butt;stroke-linejoin:miter;stroke-opacity:1" d="M 142.009,593.087 150.345,597.718 z" id="boundary" inkscape:connector-curvature="0" />
	<path style="fill:none;stroke:red;stroke-width:1px;stroke-linecap:butt;stroke-linejoin:miter;stroke-opacity:1" d="M 143.862,370.79 148.493,379.126 z" id="boundary" inkscape:connector-curvature="0" />
	<path style="fill:none;stroke:red;stroke-width:1px;stroke-linecap:butt;stroke-linejoin:miter;stroke-opacity:1" d="M 145.714,667.186 161.46,678.301 z" id="boundary" inkscape:connector-curvature="0" />
	<path style="fill:none;stroke:red;stroke-width:1px;stroke-linecap:butt;stroke-linejoin:miter;stroke-opacity:1" d="M 148.493,379.126 155.903,384.683 z" id="boundary" inkscape:connector-curvature="0" />
	<path style="fill:none;stroke:red;stroke-width:1px;stroke-linecap:butt;stroke-linejoin:miter;stroke-opacity:1" d="M 150.345,597.718 159.608,597.718 z" id="boundary" inkscape:connector-curvature="0" />
	<path style="fill:none;stroke:red;stroke-width:1px;stroke-linecap:butt;stroke-linejoin:miter;stroke-opacity:1" d="M 150.345,949.688 159.608,949.688 z" id="boundary" inkscape:connector-curvature="0" />
	<path style="fill:none;stroke:red;stroke-width:1px;stroke-linecap:butt;stroke-linejoin:miter;stroke-opacity:1" d="M 155.903,384.683 162.387,392.093 z" id="boundary" inkscape:connector-curvature="0" />
	<path style="fill:none;stroke:red;stroke-width:1px;stroke-linecap:butt;stroke-linejoin:miter;stroke-opacity:1" d="M 159.608,597.718 167.944,602.349 z" id="boundary" inkscape:connector-curvature="0" />
	<path style="fill:none;stroke:red;stroke-width:1px;stroke-linecap:butt;stroke-linejoin:miter;stroke-opacity:1" d="M 159.608,949.688 167.944,954.319 z" id="boundary" inkscape:connector-curvature="0" />
	<path style="fill:none;stroke:red;stroke-width:1px;stroke-linecap:butt;stroke-linejoin:miter;stroke-opacity:1" d="M 161.46,215.182 166.092,201.289 z" id="boundary" inkscape:connector-curvature="0" />
	<path style="fill:none;stroke:red;stroke-width:1px;stroke-linecap:butt;stroke-linejoin:miter;stroke-opacity:1" d="M 161.46,215.182 166.092,232.781 z" id="boundary" inkscape:connector-curvature="0" />
	<path style="fill:none;stroke:red;stroke-width:1px;stroke-linecap:butt;stroke-linejoin:miter;stroke-opacity:1" d="M 161.46,678.301 171.649,694.047 z" id="boundary" inkscape:connector-curvature="0" />
	<path style="fill:none;stroke:red;stroke-width:1px;stroke-linecap:butt;stroke-linejoin:miter;stroke-opacity:1" d="M 166.092,232.781 170.723,241.117 z" id="boundary" inkscape:connector-curvature="0" />
	<path style="fill:none;stroke:red;stroke-width:1px;stroke-linecap:butt;stroke-linejoin:miter;stroke-opacity:1" d="M 167.018,409.692 182.764,411.544 z" id="boundary" inkscape:connector-curvature="0" />
	<path style="fill:none;stroke:red;stroke-width:1px;stroke-linecap:butt;stroke-linejoin:miter;stroke-opacity:1" d="M 167.944,602.349 175.354,607.907 z" id="boundary" inkscape:connector-curvature="0" />
	<path style="fill:none;stroke:red;stroke-width:1px;stroke-linecap:butt;stroke-linejoin:miter;stroke-opacity:1" d="M 167.944,954.319 177.206,954.319 z" id="boundary" inkscape:connector-curvature="0" />
	<path style="fill:none;stroke:red;stroke-width:1px;stroke-linecap:butt;stroke-linejoin:miter;stroke-opacity:1" d="M 170.723,192.026 178.133,184.616 z" id="boundary" inkscape:connector-curvature="0" />
	<path style="fill:none;stroke:red;stroke-width:1px;stroke-linecap:butt;stroke-linejoin:miter;stroke-opacity:1" d="M 170.723,241.117 170.723,250.379 z" id="boundary" inkscape:connector-curvature="0" />
	<path style="fill:none;stroke:red;stroke-width:1px;stroke-linecap:butt;stroke-linejoin:miter;stroke-opacity:1" d="M 170.723,250.379 170.723,259.641 z" id="boundary" inkscape:connector-curvature="0" />
	<path style="fill:none;stroke:red;stroke-width:1px;stroke-linecap:butt;stroke-linejoin:miter;stroke-opacity:1" d="M 170.723,259.641 173.501,268.904 z" id="boundary" inkscape:connector-curvature="0" />
	<path style="fill:none;stroke:red;stroke-width:1px;stroke-linecap:butt;stroke-linejoin:miter;stroke-opacity:1" d="M 171.649,694.047 176.28,702.383 z" id="boundary" inkscape:connector-curvature="0" />
	<path style="fill:none;stroke:red;stroke-width:1px;stroke-linecap:butt;stroke-linejoin:miter;stroke-opacity:1" d="M 173.501,268.904 175.354,278.166 z" id="boundary" inkscape:connector-curvature="0" />
	<path style="fill:none;stroke:red;stroke-width:1px;stroke-linecap:butt;stroke-linejoin:miter;stroke-opacity:1" d="M 175.354,278.166 178.133,287.429 z" id="boundary" inkscape:connector-curvature="0" />
	<path style="fill:none;stroke:red;stroke-width:1px;stroke-linecap:butt;stroke-linejoin:miter;stroke-opacity:1" d="M 175.354,607.907 181.838,615.317 z" id="boundary" inkscape:connector-curvature="0" />
	<path style="fill:none;stroke:red;stroke-width:1px;stroke-linecap:butt;stroke-linejoin:miter;stroke-opacity:1" d="M 176.28,702.383 183.69,708.866 z" id="boundary" inkscape:connector-curvature="0" />
	<path style="fill:none;stroke:red;stroke-width:1px;stroke-linecap:butt;stroke-linejoin:miter;stroke-opacity:1" d="M 177.206,954.319 186.469,954.319 z" id="boundary" inkscape:connector-curvature="0" />
	<path style="fill:none;stroke:red;stroke-width:1px;stroke-linecap:butt;stroke-linejoin:miter;stroke-opacity:1" d="M 178.133,184.616 185.542,177.206 z" id="boundary" inkscape:connector-curvature="0" />
	<path style="fill:none;stroke:red;stroke-width:1px;stroke-linecap:butt;stroke-linejoin:miter;stroke-opacity:1" d="M 182.764,411.544 192.026,411.544 z" id="boundary" inkscape:connector-curvature="0" />
	<path style="fill:none;stroke:red;stroke-width:1px;stroke-linecap:butt;stroke-linejoin:miter;stroke-opacity:1" d="M 183.69,708.866 190.174,716.276 z" id="boundary" inkscape:connector-curvature="0" />
	<path style="fill:none;stroke:red;stroke-width:1px;stroke-linecap:butt;stroke-linejoin:miter;stroke-opacity:1" d="M 185.542,177.206 192.952,170.723 z" id="boundary" inkscape:connector-curvature="0" />
	<path style="fill:none;stroke:red;stroke-width:1px;stroke-linecap:butt;stroke-linejoin:miter;stroke-opacity:1" d="M 186.469,954.319 195.731,954.319 z" id="boundary" inkscape:connector-curvature="0" />
	<path style="fill:none;stroke:red;stroke-width:1px;stroke-linecap:butt;stroke-linejoin:miter;stroke-opacity:1" d="M 190.174,716.276 197.584,722.76 z" id="boundary" inkscape:connector-curvature="0" />
	<path style="fill:none;stroke:red;stroke-width:1px;stroke-linecap:butt;stroke-linejoin:miter;stroke-opacity:1" d="M 192.026,411.544 201.289,411.544 z" id="boundary" inkscape:connector-curvature="0" />
	<path style="fill:none;stroke:red;stroke-width:1px;stroke-linecap:butt;stroke-linejoin:miter;stroke-opacity:1" d="M 192.952,170.723 199.436,163.313 z" id="boundary" inkscape:connector-curvature="0" />
	<path style="fill:none;stroke:red;stroke-width:1px;stroke-linecap:butt;stroke-linejoin:miter;stroke-opacity:1" d="M 195.731,954.319 204.067,958.951 z" id="boundary" inkscape:connector-curvature="0" />
	<path style="fill:none;stroke:red;stroke-width:1px;stroke-linecap:butt;stroke-linejoin:miter;stroke-opacity:1" d="M 197.584,625.505 204.067,642.177 z" id="boundary" inkscape:connector-curvature="0" />
	<path style="fill:none;stroke:red;stroke-width:1px;stroke-linecap:butt;stroke-linejoin:miter;stroke-opacity:1" d="M 197.584,722.76 204.067,730.17 z" id="boundary" inkscape:connector-curvature="0" />
	<path style="fill:none;stroke:red;stroke-width:1px;stroke-linecap:butt;stroke-linejoin:miter;stroke-opacity:1" d="M 199.436,163.313 206.846,156.829 z" id="boundary" inkscape:connector-curvature="0" />
	<path style="fill:none;stroke:red;stroke-width:1px;stroke-linecap:butt;stroke-linejoin:miter;stroke-opacity:1" d="M 201.289,411.544 210.551,411.544 z" id="boundary" inkscape:connector-curvature="0" />
	<path style="fill:none;stroke:red;stroke-width:1px;stroke-linecap:butt;stroke-linejoin:miter;stroke-opacity:1" d="M 204.067,642.177 207.772,651.44 z" id="boundary" inkscape:connector-curvature="0" />
	<path style="fill:none;stroke:red;stroke-width:1px;stroke-linecap:butt;stroke-linejoin:miter;stroke-opacity:1" d="M 204.067,730.17 211.477,736.654 z" id="boundary" inkscape:connector-curvature="0" />
	<path style="fill:none;stroke:red;stroke-width:1px;stroke-linecap:butt;stroke-linejoin:miter;stroke-opacity:1" d="M 204.067,958.951 213.33,958.951 z" id="boundary" inkscape:connector-curvature="0" />
	<path style="fill:none;stroke:red;stroke-width:1px;stroke-linecap:butt;stroke-linejoin:miter;stroke-opacity:1" d="M 206.846,156.829 223.518,147.567 z" id="boundary" inkscape:connector-curvature="0" />
	<path style="fill:none;stroke:red;stroke-width:1px;stroke-linecap:butt;stroke-linejoin:miter;stroke-opacity:1" d="M 207.772,651.44 207.772,660.702 z" id="boundary" inkscape:connector-curvature="0" />
	<path style="fill:none;stroke:red;stroke-width:1px;stroke-linecap:butt;stroke-linejoin:miter;stroke-opacity:1" d="M 207.772,660.702 212.403,678.301 z" id="boundary" inkscape:connector-curvature="0" />
	<path style="fill:none;stroke:red;stroke-width:1px;stroke-linecap:butt;stroke-linejoin:miter;stroke-opacity:1" d="M 210.551,411.544 228.149,406.913 z" id="boundary" inkscape:connector-curvature="0" />
	<path style="fill:none;stroke:red;stroke-width:1px;stroke-linecap:butt;stroke-linejoin:miter;stroke-opacity:1" d="M 211.477,315.216 229.076,319.847 z" id="boundary" inkscape:connector-curvature="0" />
	<path style="fill:none;stroke:red;stroke-width:1px;stroke-linecap:butt;stroke-linejoin:miter;stroke-opacity:1" d="M 211.477,736.654 217.035,723.686 z" id="boundary" inkscape:connector-curvature="0" />
	<path style="fill:none;stroke:red;stroke-width:1px;stroke-linecap:butt;stroke-linejoin:miter;stroke-opacity:1" d="M 212.403,678.301 212.403,687.563 z" id="boundary" inkscape:connector-curvature="0" />
	<path style="fill:none;stroke:red;stroke-width:1px;stroke-linecap:butt;stroke-linejoin:miter;stroke-opacity:1" d="M 212.403,687.563 212.403,696.825 z" id="boundary" inkscape:connector-curvature="0" />
	<path style="fill:none;stroke:red;stroke-width:1px;stroke-linecap:butt;stroke-linejoin:miter;stroke-opacity:1" d="M 212.403,696.825 217.035,705.162 z" id="boundary" inkscape:connector-curvature="0" />
	<path style="fill:none;stroke:red;stroke-width:1px;stroke-linecap:butt;stroke-linejoin:miter;stroke-opacity:1" d="M 213.33,958.951 222.592,958.951 z" id="boundary" inkscape:connector-curvature="0" />
	<path style="fill:none;stroke:red;stroke-width:1px;stroke-linecap:butt;stroke-linejoin:miter;stroke-opacity:1" d="M 217.035,705.162 217.035,714.424 z" id="boundary" inkscape:connector-curvature="0" />
	<path style="fill:none;stroke:red;stroke-width:1px;stroke-linecap:butt;stroke-linejoin:miter;stroke-opacity:1" d="M 217.035,714.424 217.035,723.686 z" id="boundary" inkscape:connector-curvature="0" />
	<path style="fill:none;stroke:red;stroke-width:1px;stroke-linecap:butt;stroke-linejoin:miter;stroke-opacity:1" d="M 222.592,958.951 231.854,958.951 z" id="boundary" inkscape:connector-curvature="0" />
	<path style="fill:none;stroke:red;stroke-width:1px;stroke-linecap:butt;stroke-linejoin:miter;stroke-opacity:1" d="M 223.518,147.567 231.854,142.936 z" id="boundary" inkscape:connector-curvature="0" />
	<path style="fill:none;stroke:red;stroke-width:1px;stroke-linecap:butt;stroke-linejoin:miter;stroke-opacity:1" d="M 228.149,406.913 237.412,403.208 z" id="boundary" inkscape:connector-curvature="0" />
	<path style="fill:none;stroke:red;stroke-width:1px;stroke-linecap:butt;stroke-linejoin:miter;stroke-opacity:1" d="M 229.076,319.847 238.338,323.552 z" id="boundary" inkscape:connector-curvature="0" />
	<path style="fill:none;stroke:red;stroke-width:1px;stroke-linecap:butt;stroke-linejoin:miter;stroke-opacity:1" d="M 231.854,142.936 241.117,140.157 z" id="boundary" inkscape:connector-curvature="0" />
	<path style="fill:none;stroke:red;stroke-width:1px;stroke-linecap:butt;stroke-linejoin:miter;stroke-opacity:1" d="M 231.854,958.951 241.117,960.803 z" id="boundary" inkscape:connector-curvature="0" />
	<path style="fill:none;stroke:red;stroke-width:1px;stroke-linecap:butt;stroke-linejoin:miter;stroke-opacity:1" d="M 237.412,403.208 246.674,402.282 z" id="boundary" inkscape:connector-curvature="0" />
	<path style="fill:none;stroke:red;stroke-width:1px;stroke-linecap:butt;stroke-linejoin:miter;stroke-opacity:1" d="M 238.338,323.552 247.6,324.478 z" id="boundary" inkscape:connector-curvature="0" />
	<path style="fill:none;stroke:red;stroke-width:1px;stroke-linecap:butt;stroke-linejoin:miter;stroke-opacity:1" d="M 241.117,140.157 250.379,138.304 z" id="boundary" inkscape:connector-curvature="0" />
	<path style="fill:none;stroke:red;stroke-width:1px;stroke-linecap:butt;stroke-linejoin:miter;stroke-opacity:1" d="M 241.117,960.803 250.379,963.582 z" id="boundary" inkscape:connector-curvature="0" />
	<path style="fill:none;stroke:red;stroke-width:1px;stroke-linecap:butt;stroke-linejoin:miter;stroke-opacity:1" d="M 246.674,402.282 255.01,397.651 z" id="boundary" inkscape:connector-curvature="0" />
	<path style="fill:none;stroke:red;stroke-width:1px;stroke-linecap:butt;stroke-linejoin:miter;stroke-opacity:1" d="M 247.6,324.478 256.863,324.478 z" id="boundary" inkscape:connector-curvature="0" />
	<path style="fill:none;stroke:red;stroke-width:1px;stroke-linecap:butt;stroke-linejoin:miter;stroke-opacity:1" d="M 250.379,138.304 259.641,135.526 z" id="boundary" inkscape:connector-curvature="0" />
	<path style="fill:none;stroke:red;stroke-width:1px;stroke-linecap:butt;stroke-linejoin:miter;stroke-opacity:1" d="M 250.379,963.582 259.641,963.582 z" id="boundary" inkscape:connector-curvature="0" />
	<path style="fill:none;stroke:red;stroke-width:1px;stroke-linecap:butt;stroke-linejoin:miter;stroke-opacity:1" d="M 255.01,397.651 264.273,397.651 z" id="boundary" inkscape:connector-curvature="0" />
	<path style="fill:none;stroke:red;stroke-width:1px;stroke-linecap:butt;stroke-linejoin:miter;stroke-opacity:1" d="M 256.863,324.478 263.346,335.593 z" id="boundary" inkscape:connector-curvature="0" />
	<path style="fill:none;stroke:red;stroke-width:1px;stroke-linecap:butt;stroke-linejoin:miter;stroke-opacity:1" d="M 259.641,135.526 268.904,133.673 z" id="boundary" inkscape:connector-curvature="0" />
	<path style="fill:none;stroke:red;stroke-width:1px;stroke-linecap:butt;stroke-linejoin:miter;stroke-opacity:1" d="M 259.641,963.582 268.904,963.582 z" id="boundary" inkscape:connector-curvature="0" />
	<path style="fill:none;stroke:red;stroke-width:1px;stroke-linecap:butt;stroke-linejoin:miter;stroke-opacity:1" d="M 263.346,335.593 267.978,343.929 z" id="boundary" inkscape:connector-curvature="0" />
	<path style="fill:none;stroke:red;stroke-width:1px;stroke-linecap:butt;stroke-linejoin:miter;stroke-opacity:1" d="M 264.273,397.651 273.535,394.872 z" id="boundary" inkscape:connector-curvature="0" />
	<path style="fill:none;stroke:red;stroke-width:1px;stroke-linecap:butt;stroke-linejoin:miter;stroke-opacity:1" d="M 267.978,343.929 275.387,361.528 z" id="boundary" inkscape:connector-curvature="0" />
	<path style="fill:none;stroke:red;stroke-width:1px;stroke-linecap:butt;stroke-linejoin:miter;stroke-opacity:1" d="M 268.904,133.673 278.166,130.894 z" id="boundary" inkscape:connector-curvature="0" />
	<path style="fill:none;stroke:red;stroke-width:1px;stroke-linecap:butt;stroke-linejoin:miter;stroke-opacity:1" d="M 268.904,963.582 277.24,958.951 z" id="boundary" inkscape:connector-curvature="0" />
	<path style="fill:none;stroke:red;stroke-width:1px;stroke-linecap:butt;stroke-linejoin:miter;stroke-opacity:1" d="M 273.535,394.872 282.797,393.02 z" id="boundary" inkscape:connector-curvature="0" />
	<path style="fill:none;stroke:red;stroke-width:1px;stroke-linecap:butt;stroke-linejoin:miter;stroke-opacity:1" d="M 275.387,361.528 280.019,369.864 z" id="boundary" inkscape:connector-curvature="0" />
	<path style="fill:none;stroke:red;stroke-width:1px;stroke-linecap:butt;stroke-linejoin:miter;stroke-opacity:1" d="M 277.24,958.951 293.912,948.762 z" id="boundary" inkscape:connector-curvature="0" />
	<path style="fill:none;stroke:red;stroke-width:1px;stroke-linecap:butt;stroke-linejoin:miter;stroke-opacity:1" d="M 278.166,130.894 287.429,126.263 z" id="boundary" inkscape:connector-curvature="0" />
	<path style="fill:none;stroke:red;stroke-width:1px;stroke-linecap:butt;stroke-linejoin:miter;stroke-opacity:1" d="M 280.019,369.864 291.134,383.757 z" id="boundary" inkscape:connector-curvature="0" />
	<path style="fill:none;stroke:red;stroke-width:1px;stroke-linecap:butt;stroke-linejoin:miter;stroke-opacity:1" d="M 282.797,393.02 291.134,383.757 z" id="boundary" inkscape:connector-curvature="0" />
	<path style="fill:none;stroke:red;stroke-width:1px;stroke-linecap:butt;stroke-linejoin:miter;stroke-opacity:1" d="M 287.429,126.263 291.134,113.296 z" id="boundary" inkscape:connector-curvature="0" />
	<path style="fill:none;stroke:red;stroke-width:1px;stroke-linecap:butt;stroke-linejoin:miter;stroke-opacity:1" d="M 291.134,113.296 295.765,104.034 z" id="boundary" inkscape:connector-curvature="0" />
	<path style="fill:none;stroke:red;stroke-width:1px;stroke-linecap:butt;stroke-linejoin:miter;stroke-opacity:1" d="M 293.912,948.762 303.175,944.131 z" id="boundary" inkscape:connector-curvature="0" />
	<path style="fill:none;stroke:red;stroke-width:1px;stroke-linecap:butt;stroke-linejoin:miter;stroke-opacity:1" d="M 295.765,25.3035 295.765,34.5658 z" id="boundary" inkscape:connector-curvature="0" />
	<path style="fill:none;stroke:red;stroke-width:1px;stroke-linecap:butt;stroke-linejoin:miter;stroke-opacity:1" d="M 295.765,34.5658 295.765,43.8282 z" id="boundary" inkscape:connector-curvature="0" />
	<path style="fill:none;stroke:red;stroke-width:1px;stroke-linecap:butt;stroke-linejoin:miter;stroke-opacity:1" d="M 295.765,43.8282 295.765,53.0906 z" id="boundary" inkscape:connector-curvature="0" />
	<path style="fill:none;stroke:red;stroke-width:1px;stroke-linecap:butt;stroke-linejoin:miter;stroke-opacity:1" d="M 295.765,53.0906 300.396,61.4267 z" id="boundary" inkscape:connector-curvature="0" />
	<path style="fill:none;stroke:red;stroke-width:1px;stroke-linecap:butt;stroke-linejoin:miter;stroke-opacity:1" d="M 295.765,104.034 300.396,89.2138 z" id="boundary" inkscape:connector-curvature="0" />
	<path style="fill:none;stroke:red;stroke-width:1px;stroke-linecap:butt;stroke-linejoin:miter;stroke-opacity:1" d="M 300.396,61.4267 300.396,70.6891 z" id="boundary" inkscape:connector-curvature="0" />
	<path style="fill:none;stroke:red;stroke-width:1px;stroke-linecap:butt;stroke-linejoin:miter;stroke-opacity:1" d="M 300.396,70.6891 300.396,79.9514 z" id="boundary" inkscape:connector-curvature="0" />
	<path style="fill:none;stroke:red;stroke-width:1px;stroke-linecap:butt;stroke-linejoin:miter;stroke-opacity:1" d="M 300.396,79.9514 300.396,89.2138 z" id="boundary" inkscape:connector-curvature="0" />
	<path style="fill:none;stroke:red;stroke-width:1px;stroke-linecap:butt;stroke-linejoin:miter;stroke-opacity:1" d="M 303.175,944.131 310.585,935.795 z" id="boundary" inkscape:connector-curvature="0" />
	<path style="fill:none;stroke:red;stroke-width:1px;stroke-linecap:butt;stroke-linejoin:miter;stroke-opacity:1" d="M 310.585,935.795 327.257,924.68 z" id="boundary" inkscape:connector-curvature="0" />
	<path style="fill:none;stroke:red;stroke-width:1px;stroke-linecap:butt;stroke-linejoin:miter;stroke-opacity:1" d="M 327.257,924.68 331.888,915.417 z" id="boundary" inkscape:connector-curvature="0" />
	<path style="fill:none;stroke:red;stroke-width:1px;stroke-linecap:butt;stroke-linejoin:miter;stroke-opacity:1" d="M 329.109,8.63119 338.372,8.63119 z" id="boundary" inkscape:connector-curvature="0" />
	<path style="fill:none;stroke:red;stroke-width:1px;stroke-linecap:butt;stroke-linejoin:miter;stroke-opacity:1" d="M 331.888,915.417 341.15,910.786 z" id="boundary" inkscape:connector-curvature="0" />
	<path style="fill:none;stroke:red;stroke-width:1px;stroke-linecap:butt;stroke-linejoin:miter;stroke-opacity:1" d="M 338.372,8.63119 347.634,8.63119 z" id="boundary" inkscape:connector-curvature="0" />
	<path style="fill:none;stroke:red;stroke-width:1px;stroke-linecap:butt;stroke-linejoin:miter;stroke-opacity:1" d="M 341.15,910.786 355.97,908.007 z" id="boundary" inkscape:connector-curvature="0" />
	<path style="fill:none;stroke:red;stroke-width:1px;stroke-linecap:butt;stroke-linejoin:miter;stroke-opacity:1" d="M 347.634,8.63119 356.896,8.63119 z" id="boundary" inkscape:connector-curvature="0" />
	<path style="fill:none;stroke:red;stroke-width:1px;stroke-linecap:butt;stroke-linejoin:miter;stroke-opacity:1" d="M 355.97,908.007 364.306,912.639 z" id="boundary" inkscape:connector-curvature="0" />
	<path style="fill:none;stroke:red;stroke-width:1px;stroke-linecap:butt;stroke-linejoin:miter;stroke-opacity:1" d="M 356.896,8.63119 366.159,11.4099 z" id="boundary" inkscape:connector-curvature="0" />
	<path style="fill:none;stroke:red;stroke-width:1px;stroke-linecap:butt;stroke-linejoin:miter;stroke-opacity:1" d="M 364.306,912.639 380.052,923.754 z" id="boundary" inkscape:connector-curvature="0" />
	<path style="fill:none;stroke:red;stroke-width:1px;stroke-linecap:butt;stroke-linejoin:miter;stroke-opacity:1" d="M 377.274,27.1559 393.02,36.4183 z" id="boundary" inkscape:connector-curvature="0" />
	<path style="fill:none;stroke:red;stroke-width:1px;stroke-linecap:butt;stroke-linejoin:miter;stroke-opacity:1" d="M 380.052,923.754 389.315,926.532 z" id="boundary" inkscape:connector-curvature="0" />
	<path style="fill:none;stroke:red;stroke-width:1px;stroke-linecap:butt;stroke-linejoin:miter;stroke-opacity:1" d="M 389.315,926.532 397.651,931.163 z" id="boundary" inkscape:connector-curvature="0" />
	<path style="fill:none;stroke:red;stroke-width:1px;stroke-linecap:butt;stroke-linejoin:miter;stroke-opacity:1" d="M 393.02,36.4183 401.356,41.0495 z" id="boundary" inkscape:connector-curvature="0" />
	<path style="fill:none;stroke:red;stroke-width:1px;stroke-linecap:butt;stroke-linejoin:miter;stroke-opacity:1" d="M 397.651,931.163 406.913,931.163 z" id="boundary" inkscape:connector-curvature="0" />
	<path style="fill:none;stroke:red;stroke-width:1px;stroke-linecap:butt;stroke-linejoin:miter;stroke-opacity:1" d="M 401.356,41.0495 410.618,41.0495 z" id="boundary" inkscape:connector-curvature="0" />
	<path style="fill:none;stroke:red;stroke-width:1px;stroke-linecap:butt;stroke-linejoin:miter;stroke-opacity:1" d="M 406.913,931.163 415.249,935.795 z" id="boundary" inkscape:connector-curvature="0" />
	<path style="fill:none;stroke:red;stroke-width:1px;stroke-linecap:butt;stroke-linejoin:miter;stroke-opacity:1" d="M 410.618,41.0495 419.88,41.0495 z" id="boundary" inkscape:connector-curvature="0" />
	<path style="fill:none;stroke:red;stroke-width:1px;stroke-linecap:butt;stroke-linejoin:miter;stroke-opacity:1" d="M 415.249,935.795 423.585,940.426 z" id="boundary" inkscape:connector-curvature="0" />
	<path style="fill:none;stroke:red;stroke-width:1px;stroke-linecap:butt;stroke-linejoin:miter;stroke-opacity:1" d="M 419.88,41.0495 429.143,41.0495 z" id="boundary" inkscape:connector-curvature="0" />
	<path style="fill:none;stroke:red;stroke-width:1px;stroke-linecap:butt;stroke-linejoin:miter;stroke-opacity:1" d="M 423.585,940.426 432.848,940.426 z" id="boundary" inkscape:connector-curvature="0" />
	<path style="fill:none;stroke:red;stroke-width:1px;stroke-linecap:butt;stroke-linejoin:miter;stroke-opacity:1" d="M 429.143,41.0495 438.405,41.0495 z" id="boundary" inkscape:connector-curvature="0" />
	<path style="fill:none;stroke:red;stroke-width:1px;stroke-linecap:butt;stroke-linejoin:miter;stroke-opacity:1" d="M 432.848,940.426 441.184,945.057 z" id="boundary" inkscape:connector-curvature="0" />
	<path style="fill:none;stroke:red;stroke-width:1px;stroke-linecap:butt;stroke-linejoin:miter;stroke-opacity:1" d="M 438.405,41.0495 447.668,41.0495 z" id="boundary" inkscape:connector-curvature="0" />
	<path style="fill:none;stroke:red;stroke-width:1px;stroke-linecap:butt;stroke-linejoin:miter;stroke-opacity:1" d="M 441.184,945.057 450.446,945.057 z" id="boundary" inkscape:connector-curvature="0" />
	<path style="fill:none;stroke:red;stroke-width:1px;stroke-linecap:butt;stroke-linejoin:miter;stroke-opacity:1" d="M 447.668,41.0495 456.93,41.0495 z" id="boundary" inkscape:connector-curvature="0" />
	<path style="fill:none;stroke:red;stroke-width:1px;stroke-linecap:butt;stroke-linejoin:miter;stroke-opacity:1" d="M 450.446,945.057 459.709,945.057 z" id="boundary" inkscape:connector-curvature="0" />
	<path style="fill:none;stroke:red;stroke-width:1px;stroke-linecap:butt;stroke-linejoin:miter;stroke-opacity:1" d="M 456.93,41.0495 466.192,41.0495 z" id="boundary" inkscape:connector-curvature="0" />
	<path style="fill:none;stroke:red;stroke-width:1px;stroke-linecap:butt;stroke-linejoin:miter;stroke-opacity:1" d="M 459.709,945.057 468.971,945.057 z" id="boundary" inkscape:connector-curvature="0" />
	<path style="fill:none;stroke:red;stroke-width:1px;stroke-linecap:butt;stroke-linejoin:miter;stroke-opacity:1" d="M 466.192,41.0495 475.455,41.0495 z" id="boundary" inkscape:connector-curvature="0" />
	<path style="fill:none;stroke:red;stroke-width:1px;stroke-linecap:butt;stroke-linejoin:miter;stroke-opacity:1" d="M 468.971,945.057 478.233,945.057 z" id="boundary" inkscape:connector-curvature="0" />
	<path style="fill:none;stroke:red;stroke-width:1px;stroke-linecap:butt;stroke-linejoin:miter;stroke-opacity:1" d="M 475.455,41.0495 484.717,41.0495 z" id="boundary" inkscape:connector-curvature="0" />
	<path style="fill:none;stroke:red;stroke-width:1px;stroke-linecap:butt;stroke-linejoin:miter;stroke-opacity:1" d="M 478.233,945.057 487.496,945.057 z" id="boundary" inkscape:connector-curvature="0" />
	<path style="fill:none;stroke:red;stroke-width:1px;stroke-linecap:butt;stroke-linejoin:miter;stroke-opacity:1" d="M 484.717,41.0495 493.979,41.0495 z" id="boundary" inkscape:connector-curvature="0" />
	<path style="fill:none;stroke:red;stroke-width:1px;stroke-linecap:butt;stroke-linejoin:miter;stroke-opacity:1" d="M 487.496,945.057 496.758,945.057 z" id="boundary" inkscape:connector-curvature="0" />
	<path style="fill:none;stroke:red;stroke-width:1px;stroke-linecap:butt;stroke-linejoin:miter;stroke-opacity:1" d="M 493.979,41.0495 503.242,41.0495 z" id="boundary" inkscape:connector-curvature="0" />
	<path style="fill:none;stroke:red;stroke-width:1px;stroke-linecap:butt;stroke-linejoin:miter;stroke-opacity:1" d="M 496.758,945.057 514.357,949.688 z" id="boundary" inkscape:connector-curvature="0" />
	<path style="fill:none;stroke:red;stroke-width:1px;stroke-linecap:butt;stroke-linejoin:miter;stroke-opacity:1" d="M 503.242,41.0495 512.504,41.0495 z" id="boundary" inkscape:connector-curvature="0" />
	<path style="fill:none;stroke:red;stroke-width:1px;stroke-linecap:butt;stroke-linejoin:miter;stroke-opacity:1" d="M 512.504,41.0495 521.767,41.0495 z" id="boundary" inkscape:connector-curvature="0" />
	<path style="fill:none;stroke:red;stroke-width:1px;stroke-linecap:butt;stroke-linejoin:miter;stroke-opacity:1" d="M 521.767,41.0495 531.029,41.0495 z" id="boundary" inkscape:connector-curvature="0" />
	<path style="fill:none;stroke:red;stroke-width:1px;stroke-linecap:butt;stroke-linejoin:miter;stroke-opacity:1" d="M 523.619,949.688 531.029,943.204 z" id="boundary" inkscape:connector-curvature="0" />
	<path style="fill:none;stroke:red;stroke-width:1px;stroke-linecap:butt;stroke-linejoin:miter;stroke-opacity:1" d="M 531.029,41.0495 540.291,41.0495 z" id="boundary" inkscape:connector-curvature="0" />
	<path style="fill:none;stroke:red;stroke-width:1px;stroke-linecap:butt;stroke-linejoin:miter;stroke-opacity:1" d="M 531.029,943.204 537.513,935.795 z" id="boundary" inkscape:connector-curvature="0" />
	<path style="fill:none;stroke:red;stroke-width:1px;stroke-linecap:butt;stroke-linejoin:miter;stroke-opacity:1" d="M 537.513,935.795 544.923,929.311 z" id="boundary" inkscape:connector-curvature="0" />
	<path style="fill:none;stroke:red;stroke-width:1px;stroke-linecap:butt;stroke-linejoin:miter;stroke-opacity:1" d="M 540.291,41.0495 549.554,41.0495 z" id="boundary" inkscape:connector-curvature="0" />
	<path style="fill:none;stroke:red;stroke-width:1px;stroke-linecap:butt;stroke-linejoin:miter;stroke-opacity:1" d="M 544.923,929.311 559.742,921.901 z" id="boundary" inkscape:connector-curvature="0" />
	<path style="fill:none;stroke:red;stroke-width:1px;stroke-linecap:butt;stroke-linejoin:miter;stroke-opacity:1" d="M 549.554,41.0495 557.89,36.4183 z" id="boundary" inkscape:connector-curvature="0" />
	<path style="fill:none;stroke:red;stroke-width:1px;stroke-linecap:butt;stroke-linejoin:miter;stroke-opacity:1" d="M 557.89,36.4183 564.373,20.6723 z" id="boundary" inkscape:connector-curvature="0" />
	<path style="fill:none;stroke:red;stroke-width:1px;stroke-linecap:butt;stroke-linejoin:miter;stroke-opacity:1" d="M 559.742,921.901 569.005,921.901 z" id="boundary" inkscape:connector-curvature="0" />
	<path style="fill:none;stroke:red;stroke-width:1px;stroke-linecap:butt;stroke-linejoin:miter;stroke-opacity:1" d="M 564.373,20.6723 569.005,11.4099 z" id="boundary" inkscape:connector-curvature="0" />
	<path style="fill:none;stroke:red;stroke-width:1px;stroke-linecap:butt;stroke-linejoin:miter;stroke-opacity:1" d="M 569.005,11.4099 578.267,6.77871 z" id="boundary" inkscape:connector-curvature="0" />
	<path style="fill:none;stroke:red;stroke-width:1px;stroke-linecap:butt;stroke-linejoin:miter;stroke-opacity:1" d="M 569.005,921.901 577.341,926.532 z" id="boundary" inkscape:connector-curvature="0" />
	<path style="fill:none;stroke:red;stroke-width:1px;stroke-linecap:butt;stroke-linejoin:miter;stroke-opacity:1" d="M 577.341,926.532 583.824,933.942 z" id="boundary" inkscape:connector-curvature="0" />
	<path style="fill:none;stroke:red;stroke-width:1px;stroke-linecap:butt;stroke-linejoin:miter;stroke-opacity:1" d="M 578.267,6.77871 587.529,4 z" id="boundary" inkscape:connector-curvature="0" />
	<path style="fill:none;stroke:red;stroke-width:1px;stroke-linecap:butt;stroke-linejoin:miter;stroke-opacity:1" d="M 583.824,933.942 599.57,945.057 z" id="boundary" inkscape:connector-curvature="0" />
	<path style="fill:none;stroke:red;stroke-width:1px;stroke-linecap:butt;stroke-linejoin:miter;stroke-opacity:1" d="M 587.529,4 596.792,4 z" id="boundary" inkscape:connector-curvature="0" />
	<path style="fill:none;stroke:red;stroke-width:1px;stroke-linecap:butt;stroke-linejoin:miter;stroke-opacity:1" d="M 596.792,4 606.054,5.85247 z" id="boundary" inkscape:connector-curvature="0" />
	<path style="fill:none;stroke:red;stroke-width:1px;stroke-linecap:butt;stroke-linejoin:miter;stroke-opacity:1" d="M 599.57,945.057 615.317,956.172 z" id="boundary" inkscape:connector-curvature="0" />
	<path style="fill:none;stroke:red;stroke-width:1px;stroke-linecap:butt;stroke-linejoin:miter;stroke-opacity:1" d="M 606.054,5.85247 614.39,10.4837 z" id="boundary" inkscape:connector-curvature="0" />
	<path style="fill:none;stroke:red;stroke-width:1px;stroke-linecap:butt;stroke-linejoin:miter;stroke-opacity:1" d="M 614.39,10.4837 620.874,17.8936 z" id="boundary" inkscape:connector-curvature="0" />
	<path style="fill:none;stroke:red;stroke-width:1px;stroke-linecap:butt;stroke-linejoin:miter;stroke-opacity:1" d="M 615.317,956.172 631.063,967.287 z" id="boundary" inkscape:connector-curvature="0" />
	<path style="fill:none;stroke:red;stroke-width:1px;stroke-linecap:butt;stroke-linejoin:miter;stroke-opacity:1" d="M 620.874,17.8936 628.284,23.451 z" id="boundary" inkscape:connector-curvature="0" />
	<path style="fill:none;stroke:red;stroke-width:1px;stroke-linecap:butt;stroke-linejoin:miter;stroke-opacity:1" d="M 630.136,347.634 630.136,356.896 z" id="boundary" inkscape:connector-curvature="0" />
	<path style="fill:none;stroke:red;stroke-width:1px;stroke-linecap:butt;stroke-linejoin:miter;stroke-opacity:1" d="M 630.136,347.634 634.768,338.372 z" id="boundary" inkscape:connector-curvature="0" />
	<path style="fill:none;stroke:red;stroke-width:1px;stroke-linecap:butt;stroke-linejoin:miter;stroke-opacity:1" d="M 630.136,356.896 643.104,369.864 z" id="boundary" inkscape:connector-curvature="0" />
	<path style="fill:none;stroke:red;stroke-width:1px;stroke-linecap:butt;stroke-linejoin:miter;stroke-opacity:1" d="M 631.063,967.287 640.325,970.992 z" id="boundary" inkscape:connector-curvature="0" />
	<path style="fill:none;stroke:red;stroke-width:1px;stroke-linecap:butt;stroke-linejoin:miter;stroke-opacity:1" d="M 634.768,338.372 643.104,333.74 z" id="boundary" inkscape:connector-curvature="0" />
	<path style="fill:none;stroke:red;stroke-width:1px;stroke-linecap:butt;stroke-linejoin:miter;stroke-opacity:1" d="M 640.325,970.992 648.661,975.623 z" id="boundary" inkscape:connector-curvature="0" />
	<path style="fill:none;stroke:red;stroke-width:1px;stroke-linecap:butt;stroke-linejoin:miter;stroke-opacity:1" d="M 643.104,333.74 652.366,333.74 z" id="boundary" inkscape:connector-curvature="0" />
	<path style="fill:none;stroke:red;stroke-width:1px;stroke-linecap:butt;stroke-linejoin:miter;stroke-opacity:1" d="M 643.104,369.864 650.514,375.421 z" id="boundary" inkscape:connector-curvature="0" />
	<path style="fill:none;stroke:red;stroke-width:1px;stroke-linecap:butt;stroke-linejoin:miter;stroke-opacity:1" d="M 648.661,975.623 657.923,977.475 z" id="boundary" inkscape:connector-curvature="0" />
	<path style="fill:none;stroke:red;stroke-width:1px;stroke-linecap:butt;stroke-linejoin:miter;stroke-opacity:1" d="M 650.514,375.421 664.407,383.757 z" id="boundary" inkscape:connector-curvature="0" />
	<path style="fill:none;stroke:red;stroke-width:1px;stroke-linecap:butt;stroke-linejoin:miter;stroke-opacity:1" d="M 652.366,333.74 660.702,329.109 z" id="boundary" inkscape:connector-curvature="0" />
	<path style="fill:none;stroke:red;stroke-width:1px;stroke-linecap:butt;stroke-linejoin:miter;stroke-opacity:1" d="M 657.923,977.475 666.26,982.106 z" id="boundary" inkscape:connector-curvature="0" />
	<path style="fill:none;stroke:red;stroke-width:1px;stroke-linecap:butt;stroke-linejoin:miter;stroke-opacity:1" d="M 660.702,329.109 673.669,314.289 z" id="boundary" inkscape:connector-curvature="0" />
	<path style="fill:none;stroke:red;stroke-width:1px;stroke-linecap:butt;stroke-linejoin:miter;stroke-opacity:1" d="M 664.407,383.757 673.669,383.757 z" id="boundary" inkscape:connector-curvature="0" />
	<path style="fill:none;stroke:red;stroke-width:1px;stroke-linecap:butt;stroke-linejoin:miter;stroke-opacity:1" d="M 666.26,982.106 674.596,986.738 z" id="boundary" inkscape:connector-curvature="0" />
	<path style="fill:none;stroke:red;stroke-width:1px;stroke-linecap:butt;stroke-linejoin:miter;stroke-opacity:1" d="M 673.669,314.289 681.079,305.953 z" id="boundary" inkscape:connector-curvature="0" />
	<path style="fill:none;stroke:red;stroke-width:1px;stroke-linecap:butt;stroke-linejoin:miter;stroke-opacity:1" d="M 673.669,383.757 682.932,383.757 z" id="boundary" inkscape:connector-curvature="0" />
	<path style="fill:none;stroke:red;stroke-width:1px;stroke-linecap:butt;stroke-linejoin:miter;stroke-opacity:1" d="M 674.596,986.738 683.858,986.738 z" id="boundary" inkscape:connector-curvature="0" />
	<path style="fill:none;stroke:red;stroke-width:1px;stroke-linecap:butt;stroke-linejoin:miter;stroke-opacity:1" d="M 681.079,305.953 685.711,296.691 z" id="boundary" inkscape:connector-curvature="0" />
	<path style="fill:none;stroke:red;stroke-width:1px;stroke-linecap:butt;stroke-linejoin:miter;stroke-opacity:1" d="M 682.932,383.757 692.194,383.757 z" id="boundary" inkscape:connector-curvature="0" />
	<path style="fill:none;stroke:red;stroke-width:1px;stroke-linecap:butt;stroke-linejoin:miter;stroke-opacity:1" d="M 683.858,986.738 701.457,991.369 z" id="boundary" inkscape:connector-curvature="0" />
	<path style="fill:none;stroke:red;stroke-width:1px;stroke-linecap:butt;stroke-linejoin:miter;stroke-opacity:1" d="M 685.711,296.691 697.752,280.945 z" id="boundary" inkscape:connector-curvature="0" />
	<path style="fill:none;stroke:red;stroke-width:1px;stroke-linecap:butt;stroke-linejoin:miter;stroke-opacity:1" d="M 692.194,383.757 701.457,383.757 z" id="boundary" inkscape:connector-curvature="0" />
	<path style="fill:none;stroke:red;stroke-width:1px;stroke-linecap:butt;stroke-linejoin:miter;stroke-opacity:1" d="M 694.973,171.649 699.604,179.985 z" id="boundary" inkscape:connector-curvature="0" />
	<path style="fill:none;stroke:red;stroke-width:1px;stroke-linecap:butt;stroke-linejoin:miter;stroke-opacity:1" d="M 694.973,171.649 708.866,176.28 z" id="boundary" inkscape:connector-curvature="0" />
	<path style="fill:none;stroke:red;stroke-width:1px;stroke-linecap:butt;stroke-linejoin:miter;stroke-opacity:1" d="M 697.752,280.945 699.604,268.904 z" id="boundary" inkscape:connector-curvature="0" />
	<path style="fill:none;stroke:red;stroke-width:1px;stroke-linecap:butt;stroke-linejoin:miter;stroke-opacity:1" d="M 699.604,179.985 704.235,197.584 z" id="boundary" inkscape:connector-curvature="0" />
	<path style="fill:none;stroke:red;stroke-width:1px;stroke-linecap:butt;stroke-linejoin:miter;stroke-opacity:1" d="M 699.604,268.904 704.235,259.641 z" id="boundary" inkscape:connector-curvature="0" />
	<path style="fill:none;stroke:red;stroke-width:1px;stroke-linecap:butt;stroke-linejoin:miter;stroke-opacity:1" d="M 701.457,383.757 710.719,383.757 z" id="boundary" inkscape:connector-curvature="0" />
	<path style="fill:none;stroke:red;stroke-width:1px;stroke-linecap:butt;stroke-linejoin:miter;stroke-opacity:1" d="M 701.457,991.369 710.719,991.369 z" id="boundary" inkscape:connector-curvature="0" />
	<path style="fill:none;stroke:red;stroke-width:1px;stroke-linecap:butt;stroke-linejoin:miter;stroke-opacity:1" d="M 704.235,197.584 704.235,206.846 z" id="boundary" inkscape:connector-curvature="0" />
	<path style="fill:none;stroke:red;stroke-width:1px;stroke-linecap:butt;stroke-linejoin:miter;stroke-opacity:1" d="M 704.235,206.846 704.235,216.108 z" id="boundary" inkscape:connector-curvature="0" />
	<path style="fill:none;stroke:red;stroke-width:1px;stroke-linecap:butt;stroke-linejoin:miter;stroke-opacity:1" d="M 704.235,216.108 708.866,224.444 z" id="boundary" inkscape:connector-curvature="0" />
	<path style="fill:none;stroke:red;stroke-width:1px;stroke-linecap:butt;stroke-linejoin:miter;stroke-opacity:1" d="M 704.235,259.641 708.866,242.969 z" id="boundary" inkscape:connector-curvature="0" />
	<path style="fill:none;stroke:red;stroke-width:1px;stroke-linecap:butt;stroke-linejoin:miter;stroke-opacity:1" d="M 708.866,176.28 726.465,180.911 z" id="boundary" inkscape:connector-curvature="0" />
	<path style="fill:none;stroke:red;stroke-width:1px;stroke-linecap:butt;stroke-linejoin:miter;stroke-opacity:1" d="M 708.866,224.444 708.866,233.707 z" id="boundary" inkscape:connector-curvature="0" />
	<path style="fill:none;stroke:red;stroke-width:1px;stroke-linecap:butt;stroke-linejoin:miter;stroke-opacity:1" d="M 708.866,233.707 708.866,242.969 z" id="boundary" inkscape:connector-curvature="0" />
	<path style="fill:none;stroke:red;stroke-width:1px;stroke-linecap:butt;stroke-linejoin:miter;stroke-opacity:1" d="M 710.719,383.757 719.981,383.757 z" id="boundary" inkscape:connector-curvature="0" />
	<path style="fill:none;stroke:red;stroke-width:1px;stroke-linecap:butt;stroke-linejoin:miter;stroke-opacity:1" d="M 713.498,130.894 719.055,138.304 z" id="boundary" inkscape:connector-curvature="0" />
	<path style="fill:none;stroke:red;stroke-width:1px;stroke-linecap:butt;stroke-linejoin:miter;stroke-opacity:1" d="M 719.055,138.304 726.465,144.788 z" id="boundary" inkscape:connector-curvature="0" />
	<path style="fill:none;stroke:red;stroke-width:1px;stroke-linecap:butt;stroke-linejoin:miter;stroke-opacity:1" d="M 719.981,383.757 736.654,393.02 z" id="boundary" inkscape:connector-curvature="0" />
	<path style="fill:none;stroke:red;stroke-width:1px;stroke-linecap:butt;stroke-linejoin:miter;stroke-opacity:1" d="M 719.981,991.369 737.58,996 z" id="boundary" inkscape:connector-curvature="0" />
	<path style="fill:none;stroke:red;stroke-width:1px;stroke-linecap:butt;stroke-linejoin:miter;stroke-opacity:1" d="M 726.465,144.788 732.022,152.198 z" id="boundary" inkscape:connector-curvature="0" />
	<path style="fill:none;stroke:red;stroke-width:1px;stroke-linecap:butt;stroke-linejoin:miter;stroke-opacity:1" d="M 726.465,180.911 735.727,182.764 z" id="boundary" inkscape:connector-curvature="0" />
	<path style="fill:none;stroke:red;stroke-width:1px;stroke-linecap:butt;stroke-linejoin:miter;stroke-opacity:1" d="M 732.022,152.198 741.285,168.87 z" id="boundary" inkscape:connector-curvature="0" />
	<path style="fill:none;stroke:red;stroke-width:1px;stroke-linecap:butt;stroke-linejoin:miter;stroke-opacity:1" d="M 735.727,182.764 741.285,168.87 z" id="boundary" inkscape:connector-curvature="0" />
	<path style="fill:none;stroke:red;stroke-width:1px;stroke-linecap:butt;stroke-linejoin:miter;stroke-opacity:1" d="M 736.654,393.02 741.285,401.356 z" id="boundary" inkscape:connector-curvature="0" />
	<path style="fill:none;stroke:red;stroke-width:1px;stroke-linecap:butt;stroke-linejoin:miter;stroke-opacity:1" d="M 737.58,996 746.842,996 z" id="boundary" inkscape:connector-curvature="0" />
	<path style="fill:none;stroke:red;stroke-width:1px;stroke-linecap:butt;stroke-linejoin:miter;stroke-opacity:1" d="M 741.285,401.356 741.285,410.618 z" id="boundary" inkscape:connector-curvature="0" />
	<path style="fill:none;stroke:red;stroke-width:1px;stroke-linecap:butt;stroke-linejoin:miter;stroke-opacity:1" d="M 741.285,410.618 745.916,418.954 z" id="boundary" inkscape:connector-curvature="0" />
	<path style="fill:none;stroke:red;stroke-width:1px;stroke-linecap:butt;stroke-linejoin:miter;stroke-opacity:1" d="M 745.916,418.954 745.916,428.217 z" id="boundary" inkscape:connector-curvature="0" />
	<path style="fill:none;stroke:red;stroke-width:1px;stroke-linecap:butt;stroke-linejoin:miter;stroke-opacity:1" d="M 745.916,428.217 750.547,436.553 z" id="boundary" inkscape:connector-curvature="0" />
	<path style="fill:none;stroke:red;stroke-width:1px;stroke-linecap:butt;stroke-linejoin:miter;stroke-opacity:1" d="M 746.842,996 756.105,996 z" id="boundary" inkscape:connector-curvature="0" />
	<path style="fill:none;stroke:red;stroke-width:1px;stroke-linecap:butt;stroke-linejoin:miter;stroke-opacity:1" d="M 750.547,436.553 756.105,443.963 z" id="boundary" inkscape:connector-curvature="0" />
	<path style="fill:none;stroke:red;stroke-width:1px;stroke-linecap:butt;stroke-linejoin:miter;stroke-opacity:1" d="M 756.105,443.963 767.219,459.709 z" id="boundary" inkscape:connector-curvature="0" />
	<path style="fill:none;stroke:red;stroke-width:1px;stroke-linecap:butt;stroke-linejoin:miter;stroke-opacity:1" d="M 756.105,996 764.441,991.369 z" id="boundary" inkscape:connector-curvature="0" />
	<path style="fill:none;stroke:red;stroke-width:1px;stroke-linecap:butt;stroke-linejoin:miter;stroke-opacity:1" d="M 764.441,991.369 771.851,984.885 z" id="boundary" inkscape:connector-curvature="0" />
	<path style="fill:none;stroke:red;stroke-width:1px;stroke-linecap:butt;stroke-linejoin:miter;stroke-opacity:1" d="M 767.219,459.709 771.851,468.045 z" id="boundary" inkscape:connector-curvature="0" />
	<path style="fill:none;stroke:red;stroke-width:1px;stroke-linecap:butt;stroke-linejoin:miter;stroke-opacity:1" d="M 771.851,468.045 778.334,475.455 z" id="boundary" inkscape:connector-curvature="0" />
	<path style="fill:none;stroke:red;stroke-width:1px;stroke-linecap:butt;stroke-linejoin:miter;stroke-opacity:1" d="M 771.851,984.885 782.965,968.213 z" id="boundary" inkscape:connector-curvature="0" />
	<path style="fill:none;stroke:red;stroke-width:1px;stroke-linecap:butt;stroke-linejoin:miter;stroke-opacity:1" d="M 782.965,968.213 787.597,954.319 z" id="boundary" inkscape:connector-curvature="0" />
	<path style="fill:none;stroke:red;stroke-width:1px;stroke-linecap:butt;stroke-linejoin:miter;stroke-opacity:1" d="M 787.597,492.127 793.154,499.537 z" id="boundary" inkscape:connector-curvature="0" />
	<path style="fill:none;stroke:red;stroke-width:1px;stroke-linecap:butt;stroke-linejoin:miter;stroke-opacity:1" d="M 787.597,954.319 799.638,938.573 z" id="boundary" inkscape:connector-curvature="0" />
	<path style="fill:none;stroke:red;stroke-width:1px;stroke-linecap:butt;stroke-linejoin:miter;stroke-opacity:1" d="M 793.154,499.537 800.564,506.021 z" id="boundary" inkscape:connector-curvature="0" />
	<path style="fill:none;stroke:red;stroke-width:1px;stroke-linecap:butt;stroke-linejoin:miter;stroke-opacity:1" d="M 799.638,938.573 804.269,929.311 z" id="boundary" inkscape:connector-curvature="0" />
	<path style="fill:none;stroke:red;stroke-width:1px;stroke-linecap:butt;stroke-linejoin:miter;stroke-opacity:1" d="M 800.564,506.021 806.121,513.43 z" id="boundary" inkscape:connector-curvature="0" />
	<path style="fill:none;stroke:red;stroke-width:1px;stroke-linecap:butt;stroke-linejoin:miter;stroke-opacity:1" d="M 804.269,929.311 808.9,920.049 z" id="boundary" inkscape:connector-curvature="0" />
	<path style="fill:none;stroke:red;stroke-width:1px;stroke-linecap:butt;stroke-linejoin:miter;stroke-opacity:1" d="M 806.121,513.43 813.531,518.988 z" id="boundary" inkscape:connector-curvature="0" />
	<path style="fill:none;stroke:red;stroke-width:1px;stroke-linecap:butt;stroke-linejoin:miter;stroke-opacity:1" d="M 808.9,920.049 820.015,903.376 z" id="boundary" inkscape:connector-curvature="0" />
	<path style="fill:none;stroke:red;stroke-width:1px;stroke-linecap:butt;stroke-linejoin:miter;stroke-opacity:1" d="M 813.531,518.988 820.015,526.398 z" id="boundary" inkscape:connector-curvature="0" />
	<path style="fill:none;stroke:red;stroke-width:1px;stroke-linecap:butt;stroke-linejoin:miter;stroke-opacity:1" d="M 820.015,526.398 827.425,532.881 z" id="boundary" inkscape:connector-curvature="0" />
	<path style="fill:none;stroke:red;stroke-width:1px;stroke-linecap:butt;stroke-linejoin:miter;stroke-opacity:1" d="M 820.015,903.376 824.646,889.483 z" id="boundary" inkscape:connector-curvature="0" />
	<path style="fill:none;stroke:red;stroke-width:1px;stroke-linecap:butt;stroke-linejoin:miter;stroke-opacity:1" d="M 824.646,880.22 824.646,889.483 z" id="boundary" inkscape:connector-curvature="0" />
	<path style="fill:none;stroke:red;stroke-width:1px;stroke-linecap:butt;stroke-linejoin:miter;stroke-opacity:1" d="M 824.646,880.22 829.277,870.958 z" id="boundary" inkscape:connector-curvature="0" />
	<path style="fill:none;stroke:red;stroke-width:1px;stroke-linecap:butt;stroke-linejoin:miter;stroke-opacity:1" d="M 827.425,532.881 833.908,540.291 z" id="boundary" inkscape:connector-curvature="0" />
	<path style="fill:none;stroke:red;stroke-width:1px;stroke-linecap:butt;stroke-linejoin:miter;stroke-opacity:1" d="M 829.277,870.958 841.318,855.212 z" id="boundary" inkscape:connector-curvature="0" />
	<path style="fill:none;stroke:red;stroke-width:1px;stroke-linecap:butt;stroke-linejoin:miter;stroke-opacity:1" d="M 833.908,540.291 841.318,546.775 z" id="boundary" inkscape:connector-curvature="0" />
	<path style="fill:none;stroke:red;stroke-width:1px;stroke-linecap:butt;stroke-linejoin:miter;stroke-opacity:1" d="M 841.318,855.212 843.171,843.171 z" id="boundary" inkscape:connector-curvature="0" />
	<path style="fill:none;stroke:red;stroke-width:1px;stroke-linecap:butt;stroke-linejoin:miter;stroke-opacity:1" d="M 843.171,843.171 855.212,827.425 z" id="boundary" inkscape:connector-curvature="0" />
	<path style="fill:none;stroke:red;stroke-width:1px;stroke-linecap:butt;stroke-linejoin:miter;stroke-opacity:1" d="M 847.802,690.342 849.655,699.604 z" id="boundary" inkscape:connector-curvature="0" />
	<path style="fill:none;stroke:red;stroke-width:1px;stroke-linecap:butt;stroke-linejoin:miter;stroke-opacity:1" d="M 847.802,690.342 855.212,683.858 z" id="boundary" inkscape:connector-curvature="0" />
	<path style="fill:none;stroke:red;stroke-width:1px;stroke-linecap:butt;stroke-linejoin:miter;stroke-opacity:1" d="M 849.655,699.604 857.064,706.088 z" id="boundary" inkscape:connector-curvature="0" />
	<path style="fill:none;stroke:red;stroke-width:1px;stroke-linecap:butt;stroke-linejoin:miter;stroke-opacity:1" d="M 852.433,562.521 858.917,569.931 z" id="boundary" inkscape:connector-curvature="0" />
	<path style="fill:none;stroke:red;stroke-width:1px;stroke-linecap:butt;stroke-linejoin:miter;stroke-opacity:1" d="M 855.212,683.858 866.327,667.186 z" id="boundary" inkscape:connector-curvature="0" />
	<path style="fill:none;stroke:red;stroke-width:1px;stroke-linecap:butt;stroke-linejoin:miter;stroke-opacity:1" d="M 855.212,827.425 857.064,815.384 z" id="boundary" inkscape:connector-curvature="0" />
	<path style="fill:none;stroke:red;stroke-width:1px;stroke-linecap:butt;stroke-linejoin:miter;stroke-opacity:1" d="M 857.064,706.088 861.696,714.424 z" id="boundary" inkscape:connector-curvature="0" />
	<path style="fill:none;stroke:red;stroke-width:1px;stroke-linecap:butt;stroke-linejoin:miter;stroke-opacity:1" d="M 857.064,815.384 861.696,801.49 z" id="boundary" inkscape:connector-curvature="0" />
	<path style="fill:none;stroke:red;stroke-width:1px;stroke-linecap:butt;stroke-linejoin:miter;stroke-opacity:1" d="M 858.917,569.931 866.327,576.415 z" id="boundary" inkscape:connector-curvature="0" />
	<path style="fill:none;stroke:red;stroke-width:1px;stroke-linecap:butt;stroke-linejoin:miter;stroke-opacity:1" d="M 861.696,714.424 870.958,731.096 z" id="boundary" inkscape:connector-curvature="0" />
	<path style="fill:none;stroke:red;stroke-width:1px;stroke-linecap:butt;stroke-linejoin:miter;stroke-opacity:1" d="M 861.696,801.49 866.327,792.228 z" id="boundary" inkscape:connector-curvature="0" />
	<path style="fill:none;stroke:red;stroke-width:1px;stroke-linecap:butt;stroke-linejoin:miter;stroke-opacity:1" d="M 866.327,576.415 872.81,583.824 z" id="boundary" inkscape:connector-curvature="0" />
	<path style="fill:none;stroke:red;stroke-width:1px;stroke-linecap:butt;stroke-linejoin:miter;stroke-opacity:1" d="M 866.327,667.186 870.958,657.923 z" id="boundary" inkscape:connector-curvature="0" />
	<path style="fill:none;stroke:red;stroke-width:1px;stroke-linecap:butt;stroke-linejoin:miter;stroke-opacity:1" d="M 866.327,782.965 866.327,792.228 z" id="boundary" inkscape:connector-curvature="0" />
	<path style="fill:none;stroke:red;stroke-width:1px;stroke-linecap:butt;stroke-linejoin:miter;stroke-opacity:1" d="M 866.327,782.965 870.958,768.146 z" id="boundary" inkscape:connector-curvature="0" />
	<path style="fill:none;stroke:red;stroke-width:1px;stroke-linecap:butt;stroke-linejoin:miter;stroke-opacity:1" d="M 870.958,657.923 875.589,644.03 z" id="boundary" inkscape:connector-curvature="0" />
	<path style="fill:none;stroke:red;stroke-width:1px;stroke-linecap:butt;stroke-linejoin:miter;stroke-opacity:1" d="M 870.958,731.096 870.958,740.359 z" id="boundary" inkscape:connector-curvature="0" />
	<path style="fill:none;stroke:red;stroke-width:1px;stroke-linecap:butt;stroke-linejoin:miter;stroke-opacity:1" d="M 870.958,740.359 870.958,749.621 z" id="boundary" inkscape:connector-curvature="0" />
	<path style="fill:none;stroke:red;stroke-width:1px;stroke-linecap:butt;stroke-linejoin:miter;stroke-opacity:1" d="M 870.958,749.621 870.958,758.883 z" id="boundary" inkscape:connector-curvature="0" />
	<path style="fill:none;stroke:red;stroke-width:1px;stroke-linecap:butt;stroke-linejoin:miter;stroke-opacity:1" d="M 870.958,758.883 870.958,768.146 z" id="boundary" inkscape:connector-curvature="0" />
	<path style="fill:none;stroke:red;stroke-width:1px;stroke-linecap:butt;stroke-linejoin:miter;stroke-opacity:1" d="M 872.81,583.824 880.22,599.57 z" id="boundary" inkscape:connector-curvature="0" />
	<path style="fill:none;stroke:red;stroke-width:1px;stroke-linecap:butt;stroke-linejoin:miter;stroke-opacity:1" d="M 875.589,644.03 880.22,627.358 z" id="boundary" inkscape:connector-curvature="0" />
	<path style="fill:none;stroke:red;stroke-width:1px;stroke-linecap:butt;stroke-linejoin:miter;stroke-opacity:1" d="M 880.22,599.57 880.22,608.833 z" id="boundary" inkscape:connector-curvature="0" />
	<path style="fill:none;stroke:red;stroke-width:1px;stroke-linecap:butt;stroke-linejoin:miter;stroke-opacity:1" d="M 880.22,608.833 880.22,618.095 z" id="boundary" inkscape:connector-curvature="0" />
	<path style="fill:none;stroke:red;stroke-width:1px;stroke-linecap:butt;stroke-linejoin:miter;stroke-opacity:1" d="M 880.22,618.095 880.22,627.358 z" id="boundary" inkscape:connector-curvature="0" />
	<circle cx="4" cy="710.719" r="4" fill="#0" id="circle0"/>
	<circle cx="4" cy="719.981" r="4" fill="#0" id="circle1"/>
	<circle cx="4" cy="729.244" r="4" fill="#0" id="circle2"/>
	<circle cx="4" cy="738.506" r="4" fill="#0" id="circle3"/>
	<circle cx="4" cy="747.768" r="4" fill="#0" id="circle4"/>
	<circle cx="8.63119" cy="493.053" r="4" fill="#0" id="circle5"/>
	<circle cx="8.63119" cy="502.316" r="4" fill="#0" id="circle6"/>
	<circle cx="8.63119" cy="511.578" r="4" fill="#0" id="circle7"/>
	<circle cx="8.63119" cy="520.84" r="4" fill="#0" id="circle8"/>
	<circle cx="8.63119" cy="530.103" r="4" fill="#0" id="circle9"/>
	<circle cx="8.63119" cy="756.105" r="4" fill="#0" id="circle10"/>
	<circle cx="8.63119" cy="765.367" r="4" fill="#0" id="circle11"/>
	<circle cx="11.4099" cy="703.309" r="4" fill="#0" id="circle12"/>
	<circle cx="13.2624" cy="432.848" r="4" fill="#0" id="circle13"/>
	<circle cx="13.2624" cy="442.11" r="4" fill="#0" id="circle14"/>
	<circle cx="13.2624" cy="451.373" r="4" fill="#0" id="circle15"/>
	<circle cx="13.2624" cy="460.635" r="4" fill="#0" id="circle16"/>
	<circle cx="13.2624" cy="469.897" r="4" fill="#0" id="circle17"/>
	<circle cx="13.2624" cy="479.16" r="4" fill="#0" id="circle18"/>
	<circle cx="13.2624" cy="538.439" r="4" fill="#0" id="circle19"/>
	<circle cx="13.2624" cy="773.703" r="4" fill="#0" id="circle20"/>
	<circle cx="13.2624" cy="782.965" r="4" fill="#0" id="circle21"/>
	<circle cx="17.8936" cy="423.585" r="4" fill="#0" id="circle22"/>
	<circle cx="17.8936" cy="692.194" r="4" fill="#0" id="circle23"/>
	<circle cx="17.8936" cy="791.302" r="4" fill="#0" id="circle24"/>
	<circle cx="19.746" cy="545.849" r="4" fill="#0" id="circle25"/>
	<circle cx="22.5247" cy="405.061" r="4" fill="#0" id="circle26"/>
	<circle cx="22.5247" cy="414.323" r="4" fill="#0" id="circle27"/>
	<circle cx="22.5247" cy="682.932" r="4" fill="#0" id="circle28"/>
	<circle cx="22.5247" cy="799.638" r="4" fill="#0" id="circle29"/>
	<circle cx="23.451" cy="808.9" r="4" fill="#0" id="circle30"/>
	<circle cx="27.1559" cy="395.798" r="4" fill="#0" id="circle31"/>
	<circle cx="28.0822" cy="817.236" r="4" fill="#0" id="circle32"/>
	<circle cx="29.0084" cy="549.554" r="4" fill="#0" id="circle33"/>
	<circle cx="29.9346" cy="675.522" r="4" fill="#0" id="circle34"/>
	<circle cx="31.7871" cy="381.905" r="4" fill="#0" id="circle35"/>
	<circle cx="31.7871" cy="826.499" r="4" fill="#0" id="circle36"/>
	<circle cx="36.4183" cy="372.642" r="4" fill="#0" id="circle37"/>
	<circle cx="37.3445" cy="554.185" r="4" fill="#0" id="circle38"/>
	<circle cx="38.2708" cy="670.891" r="4" fill="#0" id="circle39"/>
	<circle cx="39.197" cy="832.982" r="4" fill="#0" id="circle40"/>
	<circle cx="44.7544" cy="560.669" r="4" fill="#0" id="circle41"/>
	<circle cx="45.6807" cy="368.011" r="4" fill="#0" id="circle42"/>
	<circle cx="45.6807" cy="840.392" r="4" fill="#0" id="circle43"/>
	<circle cx="46.6069" cy="666.26" r="4" fill="#0" id="circle44"/>
	<circle cx="50.3119" cy="358.749" r="4" fill="#0" id="circle45"/>
	<circle cx="50.3119" cy="848.728" r="4" fill="#0" id="circle46"/>
	<circle cx="50.3119" cy="857.991" r="4" fill="#0" id="circle47"/>
	<circle cx="53.0906" cy="565.3" r="4" fill="#0" id="circle48"/>
	<circle cx="54.943" cy="661.628" r="4" fill="#0" id="circle49"/>
	<circle cx="54.943" cy="866.327" r="4" fill="#0" id="circle50"/>
	<circle cx="57.7218" cy="875.589" r="4" fill="#0" id="circle51"/>
	<circle cx="59.5742" cy="354.118" r="4" fill="#0" id="circle52"/>
	<circle cx="62.3529" cy="565.3" r="4" fill="#0" id="circle53"/>
	<circle cx="62.3529" cy="883.925" r="4" fill="#0" id="circle54"/>
	<circle cx="63.2792" cy="656.997" r="4" fill="#0" id="circle55"/>
	<circle cx="64.2054" cy="893.188" r="4" fill="#0" id="circle56"/>
	<circle cx="68.8366" cy="349.486" r="4" fill="#0" id="circle57"/>
	<circle cx="68.8366" cy="901.524" r="4" fill="#0" id="circle58"/>
	<circle cx="71.6153" cy="569.005" r="4" fill="#0" id="circle59"/>
	<circle cx="72.5415" cy="656.997" r="4" fill="#0" id="circle60"/>
	<circle cx="73.4678" cy="909.86" r="4" fill="#0" id="circle61"/>
	<circle cx="78.099" cy="346.708" r="4" fill="#0" id="circle62"/>
	<circle cx="80.8777" cy="569.931" r="4" fill="#0" id="circle63"/>
	<circle cx="80.8777" cy="916.344" r="4" fill="#0" id="circle64"/>
	<circle cx="81.8039" cy="656.997" r="4" fill="#0" id="circle65"/>
	<circle cx="84.5826" cy="925.606" r="4" fill="#0" id="circle66"/>
	<circle cx="87.3613" cy="346.708" r="4" fill="#0" id="circle67"/>
	<circle cx="89.2138" cy="574.562" r="4" fill="#0" id="circle68"/>
	<circle cx="89.2138" cy="933.942" r="4" fill="#0" id="circle69"/>
	<circle cx="91.0663" cy="656.997" r="4" fill="#0" id="circle70"/>
	<circle cx="96.6237" cy="346.708" r="4" fill="#0" id="circle71"/>
	<circle cx="96.6237" cy="940.426" r="4" fill="#0" id="circle72"/>
	<circle cx="98.4762" cy="577.341" r="4" fill="#0" id="circle73"/>
	<circle cx="100.329" cy="656.997" r="4" fill="#0" id="circle74"/>
	<circle cx="104.96" cy="945.057" r="4" fill="#0" id="circle75"/>
	<circle cx="105.886" cy="346.708" r="4" fill="#0" id="circle76"/>
	<circle cx="106.812" cy="581.972" r="4" fill="#0" id="circle77"/>
	<circle cx="109.591" cy="657.923" r="4" fill="#0" id="circle78"/>
	<circle cx="113.296" cy="949.688" r="4" fill="#0" id="circle79"/>
	<circle cx="115.148" cy="346.708" r="4" fill="#0" id="circle80"/>
	<circle cx="116.075" cy="583.824" r="4" fill="#0" id="circle81"/>
	<circle cx="118.853" cy="661.628" r="4" fill="#0" id="circle82"/>
	<circle cx="122.558" cy="949.688" r="4" fill="#0" id="circle83"/>
	<circle cx="123.485" cy="351.339" r="4" fill="#0" id="circle84"/>
	<circle cx="124.411" cy="588.456" r="4" fill="#0" id="circle85"/>
	<circle cx="128.116" cy="661.628" r="4" fill="#0" id="circle86"/>
	<circle cx="131.821" cy="355.97" r="4" fill="#0" id="circle87"/>
	<circle cx="131.821" cy="949.688" r="4" fill="#0" id="circle88"/>
	<circle cx="132.747" cy="593.087" r="4" fill="#0" id="circle89"/>
	<circle cx="137.378" cy="662.555" r="4" fill="#0" id="circle90"/>
	<circle cx="138.304" cy="363.38" r="4" fill="#0" id="circle91"/>
	<circle cx="141.083" cy="949.688" r="4" fill="#0" id="circle92"/>
	<circle cx="142.009" cy="593.087" r="4" fill="#0" id="circle93"/>
	<circle cx="143.862" cy="370.79" r="4" fill="#0" id="circle94"/>
	<circle cx="145.714" cy="667.186" r="4" fill="#0" id="circle95"/>
	<circle cx="148.493" cy="379.126" r="4" fill="#0" id="circle96"/>
	<circle cx="150.345" cy="597.718" r="4" fill="#0" id="circle97"/>
	<circle cx="150.345" cy="949.688" r="4" fill="#0" id="circle98"/>
	<circle cx="153.124" cy="673.669" r="4" fill="#0" id="circle99"/>
	<circle cx="155.903" cy="384.683" r="4" fill="#0" id="circle100"/>
	<circle cx="159.608" cy="597.718" r="4" fill="#0" id="circle101"/>
	<circle cx="159.608" cy="949.688" r="4" fill="#0" id="circle102"/>
	<circle cx="161.46" cy="215.182" r="4" fill="#0" id="circle103"/>
	<circle cx="161.46" cy="678.301" r="4" fill="#0" id="circle104"/>
	<circle cx="162.387" cy="392.093" r="4" fill="#0" id="circle105"/>
	<circle cx="166.092" cy="201.289" r="4" fill="#0" id="circle106"/>
	<circle cx="166.092" cy="223.518" r="4" fill="#0" id="circle107"/>
	<circle cx="166.092" cy="232.781" r="4" fill="#0" id="circle108"/>
	<circle cx="167.018" cy="400.43" r="4" fill="#0" id="circle109"/>
	<circle cx="167.018" cy="409.692" r="4" fill="#0" id="circle110"/>
	<circle cx="167.944" cy="602.349" r="4" fill="#0" id="circle111"/>
	<circle cx="167.944" cy="954.319" r="4" fill="#0" id="circle112"/>
	<circle cx="168.87" cy="684.784" r="4" fill="#0" id="circle113"/>
	<circle cx="170.723" cy="192.026" r="4" fill="#0" id="circle114"/>
	<circle cx="170.723" cy="241.117" r="4" fill="#0" id="circle115"/>
	<circle cx="170.723" cy="250.379" r="4" fill="#0" id="circle116"/>
	<circle cx="170.723" cy="259.641" r="4" fill="#0" id="circle117"/>
	<circle cx="171.649" cy="694.047" r="4" fill="#0" id="circle118"/>
	<circle cx="173.501" cy="268.904" r="4" fill="#0" id="circle119"/>
	<circle cx="174.428" cy="416.176" r="4" fill="#0" id="circle120"/>
	<circle cx="175.354" cy="278.166" r="4" fill="#0" id="circle121"/>
	<circle cx="175.354" cy="607.907" r="4" fill="#0" id="circle122"/>
	<circle cx="176.28" cy="702.383" r="4" fill="#0" id="circle123"/>
	<circle cx="177.206" cy="954.319" r="4" fill="#0" id="circle124"/>
	<circle cx="178.133" cy="184.616" r="4" fill="#0" id="circle125"/>
	<circle cx="178.133" cy="287.429" r="4" fill="#0" id="circle126"/>
	<circle cx="181.838" cy="615.317" r="4" fill="#0" id="circle127"/>
	<circle cx="182.764" cy="295.765" r="4" fill="#0" id="circle128"/>
	<circle cx="182.764" cy="411.544" r="4" fill="#0" id="circle129"/>
	<circle cx="183.69" cy="708.866" r="4" fill="#0" id="circle130"/>
	<circle cx="185.542" cy="177.206" r="4" fill="#0" id="circle131"/>
	<circle cx="186.469" cy="305.027" r="4" fill="#0" id="circle132"/>
	<circle cx="186.469" cy="954.319" r="4" fill="#0" id="circle133"/>
	<circle cx="189.247" cy="620.874" r="4" fill="#0" id="circle134"/>
	<circle cx="190.174" cy="716.276" r="4" fill="#0" id="circle135"/>
	<circle cx="192.026" cy="411.544" r="4" fill="#0" id="circle136"/>
	<circle cx="192.952" cy="170.723" r="4" fill="#0" id="circle137"/>
	<circle cx="193.879" cy="310.585" r="4" fill="#0" id="circle138"/>
	<circle cx="195.731" cy="954.319" r="4" fill="#0" id="circle139"/>
	<circle cx="197.584" cy="625.505" r="4" fill="#0" id="circle140"/>
	<circle cx="197.584" cy="722.76" r="4" fill="#0" id="circle141"/>
	<circle cx="199.436" cy="163.313" r="4" fill="#0" id="circle142"/>
	<circle cx="201.289" cy="411.544" r="4" fill="#0" id="circle143"/>
	<circle cx="202.215" cy="315.216" r="4" fill="#0" id="circle144"/>
	<circle cx="203.141" cy="632.915" r="4" fill="#0" id="circle145"/>
	<circle cx="204.067" cy="642.177" r="4" fill="#0" id="circle146"/>
	<circle cx="204.067" cy="730.17" r="4" fill="#0" id="circle147"/>
	<circle cx="204.067" cy="958.951" r="4" fill="#0" id="circle148"/>
	<circle cx="206.846" cy="156.829" r="4" fill="#0" id="circle149"/>
	<circle cx="207.772" cy="651.44" r="4" fill="#0" id="circle150"/>
	<circle cx="207.772" cy="660.702" r="4" fill="#0" id="circle151"/>
	<circle cx="210.551" cy="411.544" r="4" fill="#0" id="circle152"/>
	<circle cx="211.477" cy="315.216" r="4" fill="#0" id="circle153"/>
	<circle cx="211.477" cy="736.654" r="4" fill="#0" id="circle154"/>
	<circle cx="212.403" cy="669.038" r="4" fill="#0" id="circle155"/>
	<circle cx="212.403" cy="678.301" r="4" fill="#0" id="circle156"/>
	<circle cx="212.403" cy="687.563" r="4" fill="#0" id="circle157"/>
	<circle cx="212.403" cy="696.825" r="4" fill="#0" id="circle158"/>
	<circle cx="213.33" cy="958.951" r="4" fill="#0" id="circle159"/>
	<circle cx="215.182" cy="152.198" r="4" fill="#0" id="circle160"/>
	<circle cx="217.035" cy="705.162" r="4" fill="#0" id="circle161"/>
	<circle cx="217.035" cy="714.424" r="4" fill="#0" id="circle162"/>
	<circle cx="217.035" cy="723.686" r="4" fill="#0" id="circle163"/>
	<circle cx="217.961" cy="744.063" r="4" fill="#0" id="circle164"/>
	<circle cx="218.887" cy="406.913" r="4" fill="#0" id="circle165"/>
	<circle cx="219.813" cy="319.847" r="4" fill="#0" id="circle166"/>
	<circle cx="221.666" cy="732.022" r="4" fill="#0" id="circle167"/>
	<circle cx="222.592" cy="958.951" r="4" fill="#0" id="circle168"/>
	<circle cx="223.518" cy="147.567" r="4" fill="#0" id="circle169"/>
	<circle cx="228.149" cy="406.913" r="4" fill="#0" id="circle170"/>
	<circle cx="229.076" cy="319.847" r="4" fill="#0" id="circle171"/>
	<circle cx="231.854" cy="142.936" r="4" fill="#0" id="circle172"/>
	<circle cx="231.854" cy="958.951" r="4" fill="#0" id="circle173"/>
	<circle cx="237.412" cy="403.208" r="4" fill="#0" id="circle174"/>
	<circle cx="238.338" cy="323.552" r="4" fill="#0" id="circle175"/>
	<circle cx="241.117" cy="140.157" r="4" fill="#0" id="circle176"/>
	<circle cx="241.117" cy="960.803" r="4" fill="#0" id="circle177"/>
	<circle cx="246.674" cy="402.282" r="4" fill="#0" id="circle178"/>
	<circle cx="247.6" cy="324.478" r="4" fill="#0" id="circle179"/>
	<circle cx="250.379" cy="138.304" r="4" fill="#0" id="circle180"/>
	<circle cx="250.379" cy="963.582" r="4" fill="#0" id="circle181"/>
	<circle cx="255.01" cy="397.651" r="4" fill="#0" id="circle182"/>
	<circle cx="256.863" cy="324.478" r="4" fill="#0" id="circle183"/>
	<circle cx="259.641" cy="135.526" r="4" fill="#0" id="circle184"/>
	<circle cx="259.641" cy="963.582" r="4" fill="#0" id="circle185"/>
	<circle cx="263.346" cy="335.593" r="4" fill="#0" id="circle186"/>
	<circle cx="264.273" cy="397.651" r="4" fill="#0" id="circle187"/>
	<circle cx="267.978" cy="343.929" r="4" fill="#0" id="circle188"/>
	<circle cx="268.904" cy="133.673" r="4" fill="#0" id="circle189"/>
	<circle cx="268.904" cy="963.582" r="4" fill="#0" id="circle190"/>
	<circle cx="272.609" cy="352.265" r="4" fill="#0" id="circle191"/>
	<circle cx="273.535" cy="394.872" r="4" fill="#0" id="circle192"/>
	<circle cx="275.387" cy="361.528" r="4" fill="#0" id="circle193"/>
	<circle cx="277.24" cy="958.951" r="4" fill="#0" id="circle194"/>
	<circle cx="278.166" cy="130.894" r="4" fill="#0" id="circle195"/>
	<circle cx="280.019" cy="369.864" r="4" fill="#0" id="circle196"/>
	<circle cx="282.797" cy="393.02" r="4" fill="#0" id="circle197"/>
	<circle cx="284.65" cy="953.393" r="4" fill="#0" id="circle198"/>
	<circle cx="287.429" cy="126.263" r="4" fill="#0" id="circle199"/>
	<circle cx="288.355" cy="374.495" r="4" fill="#0" id="circle200"/>
	<circle cx="291.134" cy="113.296" r="4" fill="#0" id="circle201"/>
	<circle cx="291.134" cy="383.757" r="4" fill="#0" id="circle202"/>
	<circle cx="293.912" cy="948.762" r="4" fill="#0" id="circle203"/>
	<circle cx="295.765" cy="25.3035" r="4" fill="#0" id="circle204"/>
	<circle cx="295.765" cy="34.5658" r="4" fill="#0" id="circle205"/>
	<circle cx="295.765" cy="43.8282" r="4" fill="#0" id="circle206"/>
	<circle cx="295.765" cy="53.0906" r="4" fill="#0" id="circle207"/>
	<circle cx="295.765" cy="104.034" r="4" fill="#0" id="circle208"/>
	<circle cx="300.396" cy="61.4267" r="4" fill="#0" id="circle209"/>
	<circle cx="300.396" cy="70.6891" r="4" fill="#0" id="circle210"/>
	<circle cx="300.396" cy="79.9514" r="4" fill="#0" id="circle211"/>
	<circle cx="300.396" cy="89.2138" r="4" fill="#0" id="circle212"/>
	<circle cx="303.175" cy="17.8936" r="4" fill="#0" id="circle213"/>
	<circle cx="303.175" cy="944.131" r="4" fill="#0" id="circle214"/>
	<circle cx="310.585" cy="935.795" r="4" fill="#0" id="circle215"/>
	<circle cx="311.511" cy="13.2624" r="4" fill="#0" id="circle216"/>
	<circle cx="317.994" cy="929.311" r="4" fill="#0" id="circle217"/>
	<circle cx="319.847" cy="8.63119" r="4" fill="#0" id="circle218"/>
	<circle cx="327.257" cy="924.68" r="4" fill="#0" id="circle219"/>
	<circle cx="329.109" cy="8.63119" r="4" fill="#0" id="circle220"/>
	<circle cx="331.888" cy="915.417" r="4" fill="#0" id="circle221"/>
	<circle cx="338.372" cy="8.63119" r="4" fill="#0" id="circle222"/>
	<circle cx="341.15" cy="910.786" r="4" fill="#0" id="circle223"/>
	<circle cx="347.634" cy="8.63119" r="4" fill="#0" id="circle224"/>
	<circle cx="347.634" cy="903.376" r="4" fill="#0" id="circle225"/>
	<circle cx="355.97" cy="908.007" r="4" fill="#0" id="circle226"/>
	<circle cx="356.896" cy="8.63119" r="4" fill="#0" id="circle227"/>
	<circle cx="364.306" cy="912.639" r="4" fill="#0" id="circle228"/>
	<circle cx="366.159" cy="11.4099" r="4" fill="#0" id="circle229"/>
	<circle cx="370.79" cy="920.049" r="4" fill="#0" id="circle230"/>
	<circle cx="372.642" cy="18.8198" r="4" fill="#0" id="circle231"/>
	<circle cx="377.274" cy="27.1559" r="4" fill="#0" id="circle232"/>
	<circle cx="380.052" cy="923.754" r="4" fill="#0" id="circle233"/>
	<circle cx="383.757" cy="34.5658" r="4" fill="#0" id="circle234"/>
	<circle cx="389.315" cy="926.532" r="4" fill="#0" id="circle235"/>
	<circle cx="393.02" cy="36.4183" r="4" fill="#0" id="circle236"/>
	<circle cx="397.651" cy="931.163" r="4" fill="#0" id="circle237"/>
	<circle cx="401.356" cy="41.0495" r="4" fill="#0" id="circle238"/>
	<circle cx="406.913" cy="931.163" r="4" fill="#0" id="circle239"/>
	<circle cx="410.618" cy="41.0495" r="4" fill="#0" id="circle240"/>
	<circle cx="415.249" cy="935.795" r="4" fill="#0" id="circle241"/>
	<circle cx="419.88" cy="41.0495" r="4" fill="#0" id="circle242"/>
	<circle cx="423.585" cy="940.426" r="4" fill="#0" id="circle243"/>
	<circle cx="429.143" cy="41.0495" r="4" fill="#0" id="circle244"/>
	<circle cx="432.848" cy="940.426" r="4" fill="#0" id="circle245"/>
	<circle cx="438.405" cy="41.0495" r="4" fill="#0" id="circle246"/>
	<circle cx="441.184" cy="945.057" r="4" fill="#0" id="circle247"/>
	<circle cx="447.668" cy="41.0495" r="4" fill="#0" id="circle248"/>
	<circle cx="450.446" cy="945.057" r="4" fill="#0" id="circle249"/>
	<circle cx="456.93" cy="41.0495" r="4" fill="#0" id="circle250"/>
	<circle cx="459.709" cy="945.057" r="4" fill="#0" id="circle251"/>
	<circle cx="466.192" cy="41.0495" r="4" fill="#0" id="circle252"/>
	<circle cx="468.971" cy="945.057" r="4" fill="#0" id="circle253"/>
	<circle cx="475.455" cy="41.0495" r="4" fill="#0" id="circle254"/>
	<circle cx="478.233" cy="945.057" r="4" fill="#0" id="circle255"/>
	<circle cx="484.717" cy="41.0495" r="4" fill="#0" id="circle256"/>
	<circle cx="487.496" cy="945.057" r="4" fill="#0" id="circle257"/>
	<circle cx="493.979" cy="41.0495" r="4" fill="#0" id="circle258"/>
	<circle cx="496.758" cy="945.057" r="4" fill="#0" id="circle259"/>
	<circle cx="503.242" cy="41.0495" r="4" fill="#0" id="circle260"/>
	<circle cx="505.094" cy="949.688" r="4" fill="#0" id="circle261"/>
	<circle cx="512.504" cy="41.0495" r="4" fill="#0" id="circle262"/>
	<circle cx="514.357" cy="949.688" r="4" fill="#0" id="circle263"/>
	<circle cx="521.767" cy="41.0495" r="4" fill="#0" id="circle264"/>
	<circle cx="523.619" cy="949.688" r="4" fill="#0" id="circle265"/>
	<circle cx="531.029" cy="41.0495" r="4" fill="#0" id="circle266"/>
	<circle cx="531.029" cy="943.204" r="4" fill="#0" id="circle267"/>
	<circle cx="537.513" cy="935.795" r="4" fill="#0" id="circle268"/>
	<circle cx="540.291" cy="41.0495" r="4" fill="#0" id="circle269"/>
	<circle cx="544.923" cy="929.311" r="4" fill="#0" id="circle270"/>
	<circle cx="549.554" cy="41.0495" r="4" fill="#0" id="circle271"/>
	<circle cx="550.48" cy="921.901" r="4" fill="#0" id="circle272"/>
	<circle cx="557.89" cy="36.4183" r="4" fill="#0" id="circle273"/>
	<circle cx="559.742" cy="921.901" r="4" fill="#0" id="circle274"/>
	<circle cx="564.373" cy="20.6723" r="4" fill="#0" id="circle275"/>
	<circle cx="569.005" cy="11.4099" r="4" fill="#0" id="circle276"/>
	<circle cx="569.005" cy="921.901" r="4" fill="#0" id="circle277"/>
	<circle cx="577.341" cy="926.532" r="4" fill="#0" id="circle278"/>
	<circle cx="578.267" cy="6.77871" r="4" fill="#0" id="circle279"/>
	<circle cx="583.824" cy="933.942" r="4" fill="#0" id="circle280"/>
	<circle cx="587.529" cy="4" r="4" fill="#0" id="circle281"/>
	<circle cx="591.234" cy="940.426" r="4" fill="#0" id="circle282"/>
	<circle cx="596.792" cy="4" r="4" fill="#0" id="circle283"/>
	<circle cx="599.57" cy="945.057" r="4" fill="#0" id="circle284"/>
	<circle cx="606.054" cy="5.85247" r="4" fill="#0" id="circle285"/>
	<circle cx="606.98" cy="951.541" r="4" fill="#0" id="circle286"/>
	<circle cx="614.39" cy="10.4837" r="4" fill="#0" id="circle287"/>
	<circle cx="615.317" cy="956.172" r="4" fill="#0" id="circle288"/>
	<circle cx="620.874" cy="17.8936" r="4" fill="#0" id="circle289"/>
	<circle cx="622.726" cy="962.655" r="4" fill="#0" id="circle290"/>
	<circle cx="628.284" cy="23.451" r="4" fill="#0" id="circle291"/>
	<circle cx="630.136" cy="347.634" r="4" fill="#0" id="circle292"/>
	<circle cx="630.136" cy="356.896" r="4" fill="#0" id="circle293"/>
	<circle cx="631.063" cy="967.287" r="4" fill="#0" id="circle294"/>
	<circle cx="634.768" cy="30.8609" r="4" fill="#0" id="circle295"/>
	<circle cx="634.768" cy="338.372" r="4" fill="#0" id="circle296"/>
	<circle cx="634.768" cy="365.232" r="4" fill="#0" id="circle297"/>
	<circle cx="639.399" cy="39.197" r="4" fill="#0" id="circle298"/>
	<circle cx="640.325" cy="970.992" r="4" fill="#0" id="circle299"/>
	<circle cx="643.104" cy="333.74" r="4" fill="#0" id="circle300"/>
	<circle cx="643.104" cy="369.864" r="4" fill="#0" id="circle301"/>
	<circle cx="644.03" cy="47.5331" r="4" fill="#0" id="circle302"/>
	<circle cx="648.661" cy="55.8693" r="4" fill="#0" id="circle303"/>
	<circle cx="648.661" cy="975.623" r="4" fill="#0" id="circle304"/>
	<circle cx="650.514" cy="375.421" r="4" fill="#0" id="circle305"/>
	<circle cx="652.366" cy="333.74" r="4" fill="#0" id="circle306"/>
	<circle cx="653.292" cy="64.2054" r="4" fill="#0" id="circle307"/>
	<circle cx="655.145" cy="383.757" r="4" fill="#0" id="circle308"/>
	<circle cx="657.923" cy="72.5415" r="4" fill="#0" id="circle309"/>
	<circle cx="657.923" cy="81.8039" r="4" fill="#0" id="circle310"/>
	<circle cx="657.923" cy="977.475" r="4" fill="#0" id="circle311"/>
	<circle cx="660.702" cy="329.109" r="4" fill="#0" id="circle312"/>
	<circle cx="664.407" cy="383.757" r="4" fill="#0" id="circle313"/>
	<circle cx="665.333" cy="87.3613" r="4" fill="#0" id="circle314"/>
	<circle cx="666.26" cy="982.106" r="4" fill="#0" id="circle315"/>
	<circle cx="669.038" cy="323.552" r="4" fill="#0" id="circle316"/>
	<circle cx="673.669" cy="91.9925" r="4" fill="#0" id="circle317"/>
	<circle cx="673.669" cy="314.289" r="4" fill="#0" id="circle318"/>
	<circle cx="673.669" cy="383.757" r="4" fill="#0" id="circle319"/>
	<circle cx="674.596" cy="986.738" r="4" fill="#0" id="circle320"/>
	<circle cx="681.079" cy="305.953" r="4" fill="#0" id="circle321"/>
	<circle cx="682.006" cy="96.6237" r="4" fill="#0" id="circle322"/>
	<circle cx="682.932" cy="383.757" r="4" fill="#0" id="circle323"/>
	<circle cx="683.858" cy="986.738" r="4" fill="#0" id="circle324"/>
	<circle cx="685.711" cy="296.691" r="4" fill="#0" id="circle325"/>
	<circle cx="690.342" cy="101.255" r="4" fill="#0" id="circle326"/>
	<circle cx="692.194" cy="383.757" r="4" fill="#0" id="circle327"/>
	<circle cx="692.194" cy="991.369" r="4" fill="#0" id="circle328"/>
	<circle cx="693.12" cy="290.207" r="4" fill="#0" id="circle329"/>
	<circle cx="694.973" cy="171.649" r="4" fill="#0" id="circle330"/>
	<circle cx="697.752" cy="106.812" r="4" fill="#0" id="circle331"/>
	<circle cx="697.752" cy="280.945" r="4" fill="#0" id="circle332"/>
	<circle cx="699.604" cy="179.985" r="4" fill="#0" id="circle333"/>
	<circle cx="699.604" cy="268.904" r="4" fill="#0" id="circle334"/>
	<circle cx="701.457" cy="116.075" r="4" fill="#0" id="circle335"/>
	<circle cx="701.457" cy="383.757" r="4" fill="#0" id="circle336"/>
	<circle cx="701.457" cy="991.369" r="4" fill="#0" id="circle337"/>
	<circle cx="704.235" cy="188.321" r="4" fill="#0" id="circle338"/>
	<circle cx="704.235" cy="197.584" r="4" fill="#0" id="circle339"/>
	<circle cx="704.235" cy="206.846" r="4" fill="#0" id="circle340"/>
	<circle cx="704.235" cy="216.108" r="4" fill="#0" id="circle341"/>
	<circle cx="704.235" cy="259.641" r="4" fill="#0" id="circle342"/>
	<circle cx="708.866" cy="122.558" r="4" fill="#0" id="circle343"/>
	<circle cx="708.866" cy="176.28" r="4" fill="#0" id="circle344"/>
	<circle cx="708.866" cy="224.444" r="4" fill="#0" id="circle345"/>
	<circle cx="708.866" cy="233.707" r="4" fill="#0" id="circle346"/>
	<circle cx="708.866" cy="242.969" r="4" fill="#0" id="circle347"/>
	<circle cx="710.719" cy="383.757" r="4" fill="#0" id="circle348"/>
	<circle cx="710.719" cy="991.369" r="4" fill="#0" id="circle349"/>
	<circle cx="713.498" cy="130.894" r="4" fill="#0" id="circle350"/>
	<circle cx="717.203" cy="180.911" r="4" fill="#0" id="circle351"/>
	<circle cx="719.055" cy="138.304" r="4" fill="#0" id="circle352"/>
	<circle cx="719.981" cy="383.757" r="4" fill="#0" id="circle353"/>
	<circle cx="719.981" cy="991.369" r="4" fill="#0" id="circle354"/>
	<circle cx="726.465" cy="144.788" r="4" fill="#0" id="circle355"/>
	<circle cx="726.465" cy="180.911" r="4" fill="#0" id="circle356"/>
	<circle cx="728.317" cy="388.388" r="4" fill="#0" id="circle357"/>
	<circle cx="728.317" cy="996" r="4" fill="#0" id="circle358"/>
	<circle cx="732.022" cy="152.198" r="4" fill="#0" id="circle359"/>
	<circle cx="735.727" cy="182.764" r="4" fill="#0" id="circle360"/>
	<circle cx="736.654" cy="160.534" r="4" fill="#0" id="circle361"/>
	<circle cx="736.654" cy="393.02" r="4" fill="#0" id="circle362"/>
	<circle cx="737.58" cy="996" r="4" fill="#0" id="circle363"/>
	<circle cx="741.285" cy="168.87" r="4" fill="#0" id="circle364"/>
	<circle cx="741.285" cy="401.356" r="4" fill="#0" id="circle365"/>
	<circle cx="741.285" cy="410.618" r="4" fill="#0" id="circle366"/>
	<circle cx="745.916" cy="418.954" r="4" fill="#0" id="circle367"/>
	<circle cx="745.916" cy="428.217" r="4" fill="#0" id="circle368"/>
	<circle cx="746.842" cy="996" r="4" fill="#0" id="circle369"/>
	<circle cx="750.547" cy="436.553" r="4" fill="#0" id="circle370"/>
	<circle cx="756.105" cy="443.963" r="4" fill="#0" id="circle371"/>
	<circle cx="756.105" cy="996" r="4" fill="#0" id="circle372"/>
	<circle cx="763.514" cy="450.446" r="4" fill="#0" id="circle373"/>
	<circle cx="764.441" cy="991.369" r="4" fill="#0" id="circle374"/>
	<circle cx="767.219" cy="459.709" r="4" fill="#0" id="circle375"/>
	<circle cx="771.851" cy="468.045" r="4" fill="#0" id="circle376"/>
	<circle cx="771.851" cy="984.885" r="4" fill="#0" id="circle377"/>
	<circle cx="778.334" cy="475.455" r="4" fill="#0" id="circle378"/>
	<circle cx="778.334" cy="977.475" r="4" fill="#0" id="circle379"/>
	<circle cx="782.965" cy="483.791" r="4" fill="#0" id="circle380"/>
	<circle cx="782.965" cy="968.213" r="4" fill="#0" id="circle381"/>
	<circle cx="787.597" cy="492.127" r="4" fill="#0" id="circle382"/>
	<circle cx="787.597" cy="954.319" r="4" fill="#0" id="circle383"/>
	<circle cx="793.154" cy="499.537" r="4" fill="#0" id="circle384"/>
	<circle cx="795.007" cy="947.836" r="4" fill="#0" id="circle385"/>
	<circle cx="799.638" cy="938.573" r="4" fill="#0" id="circle386"/>
	<circle cx="800.564" cy="506.021" r="4" fill="#0" id="circle387"/>
	<circle cx="804.269" cy="929.311" r="4" fill="#0" id="circle388"/>
	<circle cx="806.121" cy="513.43" r="4" fill="#0" id="circle389"/>
	<circle cx="808.9" cy="920.049" r="4" fill="#0" id="circle390"/>
	<circle cx="813.531" cy="518.988" r="4" fill="#0" id="circle391"/>
	<circle cx="815.384" cy="912.639" r="4" fill="#0" id="circle392"/>
	<circle cx="820.015" cy="526.398" r="4" fill="#0" id="circle393"/>
	<circle cx="820.015" cy="903.376" r="4" fill="#0" id="circle394"/>
	<circle cx="824.646" cy="880.22" r="4" fill="#0" id="circle395"/>
	<circle cx="824.646" cy="889.483" r="4" fill="#0" id="circle396"/>
	<circle cx="827.425" cy="532.881" r="4" fill="#0" id="circle397"/>
	<circle cx="829.277" cy="870.958" r="4" fill="#0" id="circle398"/>
	<circle cx="833.908" cy="540.291" r="4" fill="#0" id="circle399"/>
	<circle cx="836.687" cy="864.474" r="4" fill="#0" id="circle400"/>
	<circle cx="841.318" cy="546.775" r="4" fill="#0" id="circle401"/>
	<circle cx="841.318" cy="855.212" r="4" fill="#0" id="circle402"/>
	<circle cx="843.171" cy="843.171" r="4" fill="#0" id="circle403"/>
	<circle cx="847.802" cy="554.185" r="4" fill="#0" id="circle404"/>
	<circle cx="847.802" cy="690.342" r="4" fill="#0" id="circle405"/>
	<circle cx="849.655" cy="699.604" r="4" fill="#0" id="circle406"/>
	<circle cx="850.581" cy="836.687" r="4" fill="#0" id="circle407"/>
	<circle cx="852.433" cy="562.521" r="4" fill="#0" id="circle408"/>
	<circle cx="855.212" cy="683.858" r="4" fill="#0" id="circle409"/>
	<circle cx="855.212" cy="827.425" r="4" fill="#0" id="circle410"/>
	<circle cx="857.064" cy="706.088" r="4" fill="#0" id="circle411"/>
	<circle cx="857.064" cy="815.384" r="4" fill="#0" id="circle412"/>
	<circle cx="858.917" cy="569.931" r="4" fill="#0" id="circle413"/>
	<circle cx="861.696" cy="676.448" r="4" fill="#0" id="circle414"/>
	<circle cx="861.696" cy="714.424" r="4" fill="#0" id="circle415"/>
	<circle cx="861.696" cy="801.49" r="4" fill="#0" id="circle416"/>
	<circle cx="866.327" cy="576.415" r="4" fill="#0" id="circle417"/>
	<circle cx="866.327" cy="667.186" r="4" fill="#0" id="circle418"/>
	<circle cx="866.327" cy="782.965" r="4" fill="#0" id="circle419"/>
	<circle cx="866.327" cy="792.228" r="4" fill="#0" id="circle420"/>
	<circle cx="867.253" cy="721.834" r="4" fill="#0" id="circle421"/>
	<circle cx="870.958" cy="657.923" r="4" fill="#0" id="circle422"/>
	<circle cx="870.958" cy="731.096" r="4" fill="#0" id="circle423"/>
	<circle cx="870.958" cy="740.359" r="4" fill="#0" id="circle424"/>
	<circle cx="870.958" cy="749.621" r="4" fill="#0" id="circle425"/>
	<circle cx="870.958" cy="758.883" r="4" fill="#0" id="circle426"/>
	<circle cx="870.958" cy="768.146" r="4" fill="#0" id="circle427"/>
	<circle cx="872.81" cy="583.824" r="4" fill="#0" id="circle428"/>
	<circle cx="875.589" cy="644.03" r="4" fill="#0" id="circle429"/>
	<circle cx="880.22" cy="590.308" r="4" fill="#0" id="circle430"/>
	<circle cx="880.22" cy="599.57" r="4" fill="#0" id="circle431"/>
	<circle cx="880.22" cy="608.833" r="4" fill="#0" id="circle432"/>
	<circle cx="880.22" cy="618.095" r="4" fill="#0" id="circle433"/>
	<circle cx="880.22" cy="627.358" r="4" fill="#0" id="circle434"/>
	</g>
</svg>