<?xml version="1.0" encoding="UTF-8" standalone="no"?>
<!-- Created with CurveBenchmark -->
<svg
	xmlns:dc="http://purl.org/dc/elements/1.1/"
	xmlns:cc="http://creativecommons.org/ns#"
	xmlns:rdf="http://www.w3.org/1999/02/22-rdf-syntax-ns#"
	xmlns:svg="http://www.w3.org/2000/svg"
	xmlns="http://www.w3.org/2000/svg"
	xmlns:sodipodi="http://sodipodi.sourceforge.net/DTD/sodipodi-0.dtd"
	xmlns:inkscape="http://www.inkscape.org/namespaces/inkscape"
	width="1000"
	height="1000"
	id="svg2"
	version="1.1"
	sodipodi:docname="manifold/vicur-teddy275.png.txt">
<defs
	id="defs4" />
<metadata
	id="metadata7">
	<rdf:RDF>
		<cc:Work
			rdf:about="">
			<dc:format>image/svg+xml</dc:format>
			<dc:type
				rdf:resource="http://purl.org/dc/dcmitype/StillImage" />
			<dc:title></dc:title>
		</cc:Work>
	</rdf:RDF>
</metadata>
<g
	inkscape:label="Layer 1"
	inkscape:groupmode="layer"
	id="layer1">
	<path style="fill:none;stroke:red;stroke-width:1px;stroke-linecap:butt;stroke-linejoin:miter;stroke-opacity:1" d="M 4,834.906 4,863.168 z" id="boundary" inkscape:connector-curvature="0" />
	<path style="fill:none;stroke:red;stroke-width:1px;stroke-linecap:butt;stroke-linejoin:miter;stroke-opacity:1" d="M 4,834.906 9.65242,795.339 z" id="boundary" inkscape:connector-curvature="0" />
	<path style="fill:none;stroke:red;stroke-width:1px;stroke-linecap:butt;stroke-linejoin:miter;stroke-opacity:1" d="M 4,863.168 9.65242,891.43 z" id="boundary" inkscape:connector-curvature="0" />
	<path style="fill:none;stroke:red;stroke-width:1px;stroke-linecap:butt;stroke-linejoin:miter;stroke-opacity:1" d="M 9.65242,795.339 15.3048,767.077 z" id="boundary" inkscape:connector-curvature="0" />
	<path style="fill:none;stroke:red;stroke-width:1px;stroke-linecap:butt;stroke-linejoin:miter;stroke-opacity:1" d="M 9.65242,891.43 9.65242,919.692 z" id="boundary" inkscape:connector-curvature="0" />
	<path style="fill:none;stroke:red;stroke-width:1px;stroke-linecap:butt;stroke-linejoin:miter;stroke-opacity:1" d="M 9.65242,919.692 20.9573,947.954 z" id="boundary" inkscape:connector-curvature="0" />
	<path style="fill:none;stroke:red;stroke-width:1px;stroke-linecap:butt;stroke-linejoin:miter;stroke-opacity:1" d="M 15.3048,767.077 37.9145,744.467 z" id="boundary" inkscape:connector-curvature="0" />
	<path style="fill:none;stroke:red;stroke-width:1px;stroke-linecap:butt;stroke-linejoin:miter;stroke-opacity:1" d="M 20.9573,947.954 40.7407,970.564 z" id="boundary" inkscape:connector-curvature="0" />
	<path style="fill:none;stroke:red;stroke-width:1px;stroke-linecap:butt;stroke-linejoin:miter;stroke-opacity:1" d="M 37.9145,744.467 60.5242,727.51 z" id="boundary" inkscape:connector-curvature="0" />
	<path style="fill:none;stroke:red;stroke-width:1px;stroke-linecap:butt;stroke-linejoin:miter;stroke-opacity:1" d="M 40.7407,970.564 66.1766,984.695 z" id="boundary" inkscape:connector-curvature="0" />
	<path style="fill:none;stroke:red;stroke-width:1px;stroke-linecap:butt;stroke-linejoin:miter;stroke-opacity:1" d="M 60.5242,727.51 88.7863,727.51 z" id="boundary" inkscape:connector-curvature="0" />
	<path style="fill:none;stroke:red;stroke-width:1px;stroke-linecap:butt;stroke-linejoin:miter;stroke-opacity:1" d="M 66.1766,984.695 94.4387,990.348 z" id="boundary" inkscape:connector-curvature="0" />
	<path style="fill:none;stroke:red;stroke-width:1px;stroke-linecap:butt;stroke-linejoin:miter;stroke-opacity:1" d="M 71.8291,495.761 71.8291,524.023 z" id="boundary" inkscape:connector-curvature="0" />
	<path style="fill:none;stroke:red;stroke-width:1px;stroke-linecap:butt;stroke-linejoin:miter;stroke-opacity:1" d="M 71.8291,495.761 85.9601,470.325 z" id="boundary" inkscape:connector-curvature="0" />
	<path style="fill:none;stroke:red;stroke-width:1px;stroke-linecap:butt;stroke-linejoin:miter;stroke-opacity:1" d="M 71.8291,524.023 71.8291,552.285 z" id="boundary" inkscape:connector-curvature="0" />
	<path style="fill:none;stroke:red;stroke-width:1px;stroke-linecap:butt;stroke-linejoin:miter;stroke-opacity:1" d="M 71.8291,552.285 85.9601,577.721 z" id="boundary" inkscape:connector-curvature="0" />
	<path style="fill:none;stroke:red;stroke-width:1px;stroke-linecap:butt;stroke-linejoin:miter;stroke-opacity:1" d="M 85.9601,470.325 108.57,450.541 z" id="boundary" inkscape:connector-curvature="0" />
	<path style="fill:none;stroke:red;stroke-width:1px;stroke-linecap:butt;stroke-linejoin:miter;stroke-opacity:1" d="M 85.9601,577.721 102.917,600.33 z" id="boundary" inkscape:connector-curvature="0" />
	<path style="fill:none;stroke:red;stroke-width:1px;stroke-linecap:butt;stroke-linejoin:miter;stroke-opacity:1" d="M 88.7863,727.51 117.048,727.51 z" id="boundary" inkscape:connector-curvature="0" />
	<path style="fill:none;stroke:red;stroke-width:1px;stroke-linecap:butt;stroke-linejoin:miter;stroke-opacity:1" d="M 94.4387,990.348 122.701,996 z" id="boundary" inkscape:connector-curvature="0" />
	<path style="fill:none;stroke:red;stroke-width:1px;stroke-linecap:butt;stroke-linejoin:miter;stroke-opacity:1" d="M 102.917,600.33 125.527,617.288 z" id="boundary" inkscape:connector-curvature="0" />
	<path style="fill:none;stroke:red;stroke-width:1px;stroke-linecap:butt;stroke-linejoin:miter;stroke-opacity:1" d="M 108.57,450.541 136.832,444.889 z" id="boundary" inkscape:connector-curvature="0" />
	<path style="fill:none;stroke:red;stroke-width:1px;stroke-linecap:butt;stroke-linejoin:miter;stroke-opacity:1" d="M 117.048,727.51 145.311,727.51 z" id="boundary" inkscape:connector-curvature="0" />
	<path style="fill:none;stroke:red;stroke-width:1px;stroke-linecap:butt;stroke-linejoin:miter;stroke-opacity:1" d="M 122.701,996 150.963,996 z" id="boundary" inkscape:connector-curvature="0" />
	<path style="fill:none;stroke:red;stroke-width:1px;stroke-linecap:butt;stroke-linejoin:miter;stroke-opacity:1" d="M 125.527,617.288 153.789,628.593 z" id="boundary" inkscape:connector-curvature="0" />
	<path style="fill:none;stroke:red;stroke-width:1px;stroke-linecap:butt;stroke-linejoin:miter;stroke-opacity:1" d="M 136.832,444.889 165.094,436.41 z" id="boundary" inkscape:connector-curvature="0" />
	<path style="fill:none;stroke:red;stroke-width:1px;stroke-linecap:butt;stroke-linejoin:miter;stroke-opacity:1" d="M 145.311,727.51 173.573,735.989 z" id="boundary" inkscape:connector-curvature="0" />
	<path style="fill:none;stroke:red;stroke-width:1px;stroke-linecap:butt;stroke-linejoin:miter;stroke-opacity:1" d="M 150.963,996 179.225,996 z" id="boundary" inkscape:connector-curvature="0" />
	<path style="fill:none;stroke:red;stroke-width:1px;stroke-linecap:butt;stroke-linejoin:miter;stroke-opacity:1" d="M 153.789,628.593 182.051,639.897 z" id="boundary" inkscape:connector-curvature="0" />
	<path style="fill:none;stroke:red;stroke-width:1px;stroke-linecap:butt;stroke-linejoin:miter;stroke-opacity:1" d="M 165.094,436.41 193.356,433.584 z" id="boundary" inkscape:connector-curvature="0" />
	<path style="fill:none;stroke:red;stroke-width:1px;stroke-linecap:butt;stroke-linejoin:miter;stroke-opacity:1" d="M 173.573,735.989 201.835,738.815 z" id="boundary" inkscape:connector-curvature="0" />
	<path style="fill:none;stroke:red;stroke-width:1px;stroke-linecap:butt;stroke-linejoin:miter;stroke-opacity:1" d="M 179.225,996 207.487,990.348 z" id="boundary" inkscape:connector-curvature="0" />
	<path style="fill:none;stroke:red;stroke-width:1px;stroke-linecap:butt;stroke-linejoin:miter;stroke-opacity:1" d="M 182.051,639.897 210.313,651.202 z" id="boundary" inkscape:connector-curvature="0" />
	<path style="fill:none;stroke:red;stroke-width:1px;stroke-linecap:butt;stroke-linejoin:miter;stroke-opacity:1" d="M 193.356,433.584 221.618,427.932 z" id="boundary" inkscape:connector-curvature="0" />
	<path style="fill:none;stroke:red;stroke-width:1px;stroke-linecap:butt;stroke-linejoin:miter;stroke-opacity:1" d="M 201.835,738.815 230.097,727.51 z" id="boundary" inkscape:connector-curvature="0" />
	<path style="fill:none;stroke:red;stroke-width:1px;stroke-linecap:butt;stroke-linejoin:miter;stroke-opacity:1" d="M 207.487,990.348 235.749,979.043 z" id="boundary" inkscape:connector-curvature="0" />
	<path style="fill:none;stroke:red;stroke-width:1px;stroke-linecap:butt;stroke-linejoin:miter;stroke-opacity:1" d="M 210.313,651.202 238.575,656.855 z" id="boundary" inkscape:connector-curvature="0" />
	<path style="fill:none;stroke:red;stroke-width:1px;stroke-linecap:butt;stroke-linejoin:miter;stroke-opacity:1" d="M 221.618,427.932 249.88,425.105 z" id="boundary" inkscape:connector-curvature="0" />
	<path style="fill:none;stroke:red;stroke-width:1px;stroke-linecap:butt;stroke-linejoin:miter;stroke-opacity:1" d="M 230.097,727.51 252.707,682.291 z" id="boundary" inkscape:connector-curvature="0" />
	<path style="fill:none;stroke:red;stroke-width:1px;stroke-linecap:butt;stroke-linejoin:miter;stroke-opacity:1" d="M 235.749,979.043 264.011,973.39 z" id="boundary" inkscape:connector-curvature="0" />
	<path style="fill:none;stroke:red;stroke-width:1px;stroke-linecap:butt;stroke-linejoin:miter;stroke-opacity:1" d="M 238.575,656.855 252.707,682.291 z" id="boundary" inkscape:connector-curvature="0" />
	<path style="fill:none;stroke:red;stroke-width:1px;stroke-linecap:butt;stroke-linejoin:miter;stroke-opacity:1" d="M 249.88,425.105 275.316,399.67 z" id="boundary" inkscape:connector-curvature="0" />
	<path style="fill:none;stroke:red;stroke-width:1px;stroke-linecap:butt;stroke-linejoin:miter;stroke-opacity:1" d="M 264.011,973.39 292.274,967.738 z" id="boundary" inkscape:connector-curvature="0" />
	<path style="fill:none;stroke:red;stroke-width:1px;stroke-linecap:butt;stroke-linejoin:miter;stroke-opacity:1" d="M 275.316,399.67 303.578,388.365 z" id="boundary" inkscape:connector-curvature="0" />
	<path style="fill:none;stroke:red;stroke-width:1px;stroke-linecap:butt;stroke-linejoin:miter;stroke-opacity:1" d="M 286.621,241.402 286.621,269.664 z" id="boundary" inkscape:connector-curvature="0" />
	<path style="fill:none;stroke:red;stroke-width:1px;stroke-linecap:butt;stroke-linejoin:miter;stroke-opacity:1" d="M 286.621,241.402 303.578,218.792 z" id="boundary" inkscape:connector-curvature="0" />
	<path style="fill:none;stroke:red;stroke-width:1px;stroke-linecap:butt;stroke-linejoin:miter;stroke-opacity:1" d="M 286.621,269.664 289.447,297.926 z" id="boundary" inkscape:connector-curvature="0" />
	<path style="fill:none;stroke:red;stroke-width:1px;stroke-linecap:butt;stroke-linejoin:miter;stroke-opacity:1" d="M 289.447,297.926 297.926,326.188 z" id="boundary" inkscape:connector-curvature="0" />
	<path style="fill:none;stroke:red;stroke-width:1px;stroke-linecap:butt;stroke-linejoin:miter;stroke-opacity:1" d="M 292.274,967.738 320.536,973.39 z" id="boundary" inkscape:connector-curvature="0" />
	<path style="fill:none;stroke:red;stroke-width:1px;stroke-linecap:butt;stroke-linejoin:miter;stroke-opacity:1" d="M 297.926,326.188 312.057,351.624 z" id="boundary" inkscape:connector-curvature="0" />
	<path style="fill:none;stroke:red;stroke-width:1px;stroke-linecap:butt;stroke-linejoin:miter;stroke-opacity:1" d="M 303.578,218.792 326.188,196.182 z" id="boundary" inkscape:connector-curvature="0" />
	<path style="fill:none;stroke:red;stroke-width:1px;stroke-linecap:butt;stroke-linejoin:miter;stroke-opacity:1" d="M 303.578,388.365 329.014,374.234 z" id="boundary" inkscape:connector-curvature="0" />
	<path style="fill:none;stroke:red;stroke-width:1px;stroke-linecap:butt;stroke-linejoin:miter;stroke-opacity:1" d="M 312.057,351.624 329.014,374.234 z" id="boundary" inkscape:connector-curvature="0" />
	<path style="fill:none;stroke:red;stroke-width:1px;stroke-linecap:butt;stroke-linejoin:miter;stroke-opacity:1" d="M 320.536,973.39 348.798,973.39 z" id="boundary" inkscape:connector-curvature="0" />
	<path style="fill:none;stroke:red;stroke-width:1px;stroke-linecap:butt;stroke-linejoin:miter;stroke-opacity:1" d="M 326.188,196.182 343.145,173.573 z" id="boundary" inkscape:connector-curvature="0" />
	<path style="fill:none;stroke:red;stroke-width:1px;stroke-linecap:butt;stroke-linejoin:miter;stroke-opacity:1" d="M 337.493,66.1766 337.493,94.4387 z" id="boundary" inkscape:connector-curvature="0" />
	<path style="fill:none;stroke:red;stroke-width:1px;stroke-linecap:butt;stroke-linejoin:miter;stroke-opacity:1" d="M 337.493,66.1766 351.624,40.7407 z" id="boundary" inkscape:connector-curvature="0" />
	<path style="fill:none;stroke:red;stroke-width:1px;stroke-linecap:butt;stroke-linejoin:miter;stroke-opacity:1" d="M 337.493,94.4387 343.145,122.701 z" id="boundary" inkscape:connector-curvature="0" />
	<path style="fill:none;stroke:red;stroke-width:1px;stroke-linecap:butt;stroke-linejoin:miter;stroke-opacity:1" d="M 343.145,122.701 343.145,173.573 z" id="boundary" inkscape:connector-curvature="0" />
	<path style="fill:none;stroke:red;stroke-width:1px;stroke-linecap:butt;stroke-linejoin:miter;stroke-opacity:1" d="M 348.798,973.39 377.06,976.217 z" id="boundary" inkscape:connector-curvature="0" />
	<path style="fill:none;stroke:red;stroke-width:1px;stroke-linecap:butt;stroke-linejoin:miter;stroke-opacity:1" d="M 351.624,40.7407 374.234,20.9573 z" id="boundary" inkscape:connector-curvature="0" />
	<path style="fill:none;stroke:red;stroke-width:1px;stroke-linecap:butt;stroke-linejoin:miter;stroke-opacity:1" d="M 374.234,20.9573 402.496,9.65242 z" id="boundary" inkscape:connector-curvature="0" />
	<path style="fill:none;stroke:red;stroke-width:1px;stroke-linecap:butt;stroke-linejoin:miter;stroke-opacity:1" d="M 377.06,976.217 405.322,979.043 z" id="boundary" inkscape:connector-curvature="0" />
	<path style="fill:none;stroke:red;stroke-width:1px;stroke-linecap:butt;stroke-linejoin:miter;stroke-opacity:1" d="M 402.496,9.65242 430.758,4 z" id="boundary" inkscape:connector-curvature="0" />
	<path style="fill:none;stroke:red;stroke-width:1px;stroke-linecap:butt;stroke-linejoin:miter;stroke-opacity:1" d="M 405.322,979.043 433.584,984.695 z" id="boundary" inkscape:connector-curvature="0" />
	<path style="fill:none;stroke:red;stroke-width:1px;stroke-linecap:butt;stroke-linejoin:miter;stroke-opacity:1" d="M 430.758,4 459.02,9.65242 z" id="boundary" inkscape:connector-curvature="0" />
	<path style="fill:none;stroke:red;stroke-width:1px;stroke-linecap:butt;stroke-linejoin:miter;stroke-opacity:1" d="M 433.584,984.695 461.846,996 z" id="boundary" inkscape:connector-curvature="0" />
	<path style="fill:none;stroke:red;stroke-width:1px;stroke-linecap:butt;stroke-linejoin:miter;stroke-opacity:1" d="M 459.02,9.65242 487.282,20.9573 z" id="boundary" inkscape:connector-curvature="0" />
	<path style="fill:none;stroke:red;stroke-width:1px;stroke-linecap:butt;stroke-linejoin:miter;stroke-opacity:1" d="M 461.846,996 490.108,996 z" id="boundary" inkscape:connector-curvature="0" />
	<path style="fill:none;stroke:red;stroke-width:1px;stroke-linecap:butt;stroke-linejoin:miter;stroke-opacity:1" d="M 487.282,20.9573 509.892,37.9145 z" id="boundary" inkscape:connector-curvature="0" />
	<path style="fill:none;stroke:red;stroke-width:1px;stroke-linecap:butt;stroke-linejoin:miter;stroke-opacity:1" d="M 490.108,996 518.37,996 z" id="boundary" inkscape:connector-curvature="0" />
	<path style="fill:none;stroke:red;stroke-width:1px;stroke-linecap:butt;stroke-linejoin:miter;stroke-opacity:1" d="M 509.892,37.9145 538.154,43.567 z" id="boundary" inkscape:connector-curvature="0" />
	<path style="fill:none;stroke:red;stroke-width:1px;stroke-linecap:butt;stroke-linejoin:miter;stroke-opacity:1" d="M 518.37,996 546.632,996 z" id="boundary" inkscape:connector-curvature="0" />
	<path style="fill:none;stroke:red;stroke-width:1px;stroke-linecap:butt;stroke-linejoin:miter;stroke-opacity:1" d="M 538.154,43.567 566.416,43.567 z" id="boundary" inkscape:connector-curvature="0" />
	<path style="fill:none;stroke:red;stroke-width:1px;stroke-linecap:butt;stroke-linejoin:miter;stroke-opacity:1" d="M 546.632,996 574.895,996 z" id="boundary" inkscape:connector-curvature="0" />
	<path style="fill:none;stroke:red;stroke-width:1px;stroke-linecap:butt;stroke-linejoin:miter;stroke-opacity:1" d="M 566.416,43.567 594.678,29.4359 z" id="boundary" inkscape:connector-curvature="0" />
	<path style="fill:none;stroke:red;stroke-width:1px;stroke-linecap:butt;stroke-linejoin:miter;stroke-opacity:1" d="M 574.895,996 603.157,996 z" id="boundary" inkscape:connector-curvature="0" />
	<path style="fill:none;stroke:red;stroke-width:1px;stroke-linecap:butt;stroke-linejoin:miter;stroke-opacity:1" d="M 594.678,29.4359 620.114,15.3048 z" id="boundary" inkscape:connector-curvature="0" />
	<path style="fill:none;stroke:red;stroke-width:1px;stroke-linecap:butt;stroke-linejoin:miter;stroke-opacity:1" d="M 603.157,996 631.419,990.348 z" id="boundary" inkscape:connector-curvature="0" />
	<path style="fill:none;stroke:red;stroke-width:1px;stroke-linecap:butt;stroke-linejoin:miter;stroke-opacity:1" d="M 620.114,15.3048 648.376,4 z" id="boundary" inkscape:connector-curvature="0" />
	<path style="fill:none;stroke:red;stroke-width:1px;stroke-linecap:butt;stroke-linejoin:miter;stroke-opacity:1" d="M 631.419,990.348 656.855,976.217 z" id="boundary" inkscape:connector-curvature="0" />
	<path style="fill:none;stroke:red;stroke-width:1px;stroke-linecap:butt;stroke-linejoin:miter;stroke-opacity:1" d="M 648.376,4 676.638,6.82621 z" id="boundary" inkscape:connector-curvature="0" />
	<path style="fill:none;stroke:red;stroke-width:1px;stroke-linecap:butt;stroke-linejoin:miter;stroke-opacity:1" d="M 656.855,976.217 682.291,962.085 z" id="boundary" inkscape:connector-curvature="0" />
	<path style="fill:none;stroke:red;stroke-width:1px;stroke-linecap:butt;stroke-linejoin:miter;stroke-opacity:1" d="M 676.638,6.82621 704.9,15.3048 z" id="boundary" inkscape:connector-curvature="0" />
	<path style="fill:none;stroke:red;stroke-width:1px;stroke-linecap:butt;stroke-linejoin:miter;stroke-opacity:1" d="M 682.291,962.085 690.769,919.692 z" id="boundary" inkscape:connector-curvature="0" />
	<path style="fill:none;stroke:red;stroke-width:1px;stroke-linecap:butt;stroke-linejoin:miter;stroke-opacity:1" d="M 690.769,919.692 702.074,885.778 z" id="boundary" inkscape:connector-curvature="0" />
	<path style="fill:none;stroke:red;stroke-width:1px;stroke-linecap:butt;stroke-linejoin:miter;stroke-opacity:1" d="M 702.074,382.712 713.379,337.493 z" id="boundary" inkscape:connector-curvature="0" />
	<path style="fill:none;stroke:red;stroke-width:1px;stroke-linecap:butt;stroke-linejoin:miter;stroke-opacity:1" d="M 702.074,382.712 719.031,405.322 z" id="boundary" inkscape:connector-curvature="0" />
	<path style="fill:none;stroke:red;stroke-width:1px;stroke-linecap:butt;stroke-linejoin:miter;stroke-opacity:1" d="M 702.074,800.991 702.074,829.254 z" id="boundary" inkscape:connector-curvature="0" />
	<path style="fill:none;stroke:red;stroke-width:1px;stroke-linecap:butt;stroke-linejoin:miter;stroke-opacity:1" d="M 702.074,800.991 716.205,775.556 z" id="boundary" inkscape:connector-curvature="0" />
	<path style="fill:none;stroke:red;stroke-width:1px;stroke-linecap:butt;stroke-linejoin:miter;stroke-opacity:1" d="M 702.074,829.254 702.074,857.516 z" id="boundary" inkscape:connector-curvature="0" />
	<path style="fill:none;stroke:red;stroke-width:1px;stroke-linecap:butt;stroke-linejoin:miter;stroke-opacity:1" d="M 702.074,857.516 702.074,885.778 z" id="boundary" inkscape:connector-curvature="0" />
	<path style="fill:none;stroke:red;stroke-width:1px;stroke-linecap:butt;stroke-linejoin:miter;stroke-opacity:1" d="M 704.9,15.3048 727.51,32.2621 z" id="boundary" inkscape:connector-curvature="0" />
	<path style="fill:none;stroke:red;stroke-width:1px;stroke-linecap:butt;stroke-linejoin:miter;stroke-opacity:1" d="M 707.726,659.681 707.726,687.943 z" id="boundary" inkscape:connector-curvature="0" />
	<path style="fill:none;stroke:red;stroke-width:1px;stroke-linecap:butt;stroke-linejoin:miter;stroke-opacity:1" d="M 707.726,659.681 724.684,637.071 z" id="boundary" inkscape:connector-curvature="0" />
	<path style="fill:none;stroke:red;stroke-width:1px;stroke-linecap:butt;stroke-linejoin:miter;stroke-opacity:1" d="M 707.726,687.943 713.379,716.205 z" id="boundary" inkscape:connector-curvature="0" />
	<path style="fill:none;stroke:red;stroke-width:1px;stroke-linecap:butt;stroke-linejoin:miter;stroke-opacity:1" d="M 713.379,337.493 730.336,314.883 z" id="boundary" inkscape:connector-curvature="0" />
	<path style="fill:none;stroke:red;stroke-width:1px;stroke-linecap:butt;stroke-linejoin:miter;stroke-opacity:1" d="M 713.379,716.205 716.205,744.467 z" id="boundary" inkscape:connector-curvature="0" />
	<path style="fill:none;stroke:red;stroke-width:1px;stroke-linecap:butt;stroke-linejoin:miter;stroke-opacity:1" d="M 716.205,744.467 716.205,775.556 z" id="boundary" inkscape:connector-curvature="0" />
	<path style="fill:none;stroke:red;stroke-width:1px;stroke-linecap:butt;stroke-linejoin:miter;stroke-opacity:1" d="M 719.031,405.322 741.641,422.279 z" id="boundary" inkscape:connector-curvature="0" />
	<path style="fill:none;stroke:red;stroke-width:1px;stroke-linecap:butt;stroke-linejoin:miter;stroke-opacity:1" d="M 724.684,637.071 747.293,614.462 z" id="boundary" inkscape:connector-curvature="0" />
	<path style="fill:none;stroke:red;stroke-width:1px;stroke-linecap:butt;stroke-linejoin:miter;stroke-opacity:1" d="M 727.51,32.2621 741.641,57.698 z" id="boundary" inkscape:connector-curvature="0" />
	<path style="fill:none;stroke:red;stroke-width:1px;stroke-linecap:butt;stroke-linejoin:miter;stroke-opacity:1" d="M 730.336,128.353 735.989,156.615 z" id="boundary" inkscape:connector-curvature="0" />
	<path style="fill:none;stroke:red;stroke-width:1px;stroke-linecap:butt;stroke-linejoin:miter;stroke-opacity:1" d="M 730.336,128.353 741.641,85.9601 z" id="boundary" inkscape:connector-curvature="0" />
	<path style="fill:none;stroke:red;stroke-width:1px;stroke-linecap:butt;stroke-linejoin:miter;stroke-opacity:1" d="M 730.336,314.883 741.641,286.621 z" id="boundary" inkscape:connector-curvature="0" />
	<path style="fill:none;stroke:red;stroke-width:1px;stroke-linecap:butt;stroke-linejoin:miter;stroke-opacity:1" d="M 735.989,156.615 744.467,184.877 z" id="boundary" inkscape:connector-curvature="0" />
	<path style="fill:none;stroke:red;stroke-width:1px;stroke-linecap:butt;stroke-linejoin:miter;stroke-opacity:1" d="M 741.641,57.698 741.641,85.9601 z" id="boundary" inkscape:connector-curvature="0" />
	<path style="fill:none;stroke:red;stroke-width:1px;stroke-linecap:butt;stroke-linejoin:miter;stroke-opacity:1" d="M 741.641,286.621 747.293,241.402 z" id="boundary" inkscape:connector-curvature="0" />
	<path style="fill:none;stroke:red;stroke-width:1px;stroke-linecap:butt;stroke-linejoin:miter;stroke-opacity:1" d="M 741.641,422.279 761.425,444.889 z" id="boundary" inkscape:connector-curvature="0" />
	<path style="fill:none;stroke:red;stroke-width:1px;stroke-linecap:butt;stroke-linejoin:miter;stroke-opacity:1" d="M 744.467,184.877 747.293,213.14 z" id="boundary" inkscape:connector-curvature="0" />
	<path style="fill:none;stroke:red;stroke-width:1px;stroke-linecap:butt;stroke-linejoin:miter;stroke-opacity:1" d="M 747.293,213.14 747.293,241.402 z" id="boundary" inkscape:connector-curvature="0" />
	<path style="fill:none;stroke:red;stroke-width:1px;stroke-linecap:butt;stroke-linejoin:miter;stroke-opacity:1" d="M 747.293,614.462 764.251,591.852 z" id="boundary" inkscape:connector-curvature="0" />
	<path style="fill:none;stroke:red;stroke-width:1px;stroke-linecap:butt;stroke-linejoin:miter;stroke-opacity:1" d="M 761.425,444.889 778.382,467.499 z" id="boundary" inkscape:connector-curvature="0" />
	<path style="fill:none;stroke:red;stroke-width:1px;stroke-linecap:butt;stroke-linejoin:miter;stroke-opacity:1" d="M 764.251,591.852 781.208,569.242 z" id="boundary" inkscape:connector-curvature="0" />
	<path style="fill:none;stroke:red;stroke-width:1px;stroke-linecap:butt;stroke-linejoin:miter;stroke-opacity:1" d="M 778.382,467.499 786.86,495.761 z" id="boundary" inkscape:connector-curvature="0" />
	<path style="fill:none;stroke:red;stroke-width:1px;stroke-linecap:butt;stroke-linejoin:miter;stroke-opacity:1" d="M 781.208,569.242 786.86,524.023 z" id="boundary" inkscape:connector-curvature="0" />
	<path style="fill:none;stroke:red;stroke-width:1px;stroke-linecap:butt;stroke-linejoin:miter;stroke-opacity:1" d="M 786.86,495.761 786.86,524.023 z" id="boundary" inkscape:connector-curvature="0" />
	<circle cx="4" cy="834.906" r="4" fill="#0" id="circle0"/>
	<circle cx="4" cy="863.168" r="4" fill="#0" id="circle1"/>
	<circle cx="9.65242" cy="795.339" r="4" fill="#0" id="circle2"/>
	<circle cx="9.65242" cy="891.43" r="4" fill="#0" id="circle3"/>
	<circle cx="9.65242" cy="919.692" r="4" fill="#0" id="circle4"/>
	<circle cx="15.3048" cy="767.077" r="4" fill="#0" id="circle5"/>
	<circle cx="20.9573" cy="947.954" r="4" fill="#0" id="circle6"/>
	<circle cx="37.9145" cy="744.467" r="4" fill="#0" id="circle7"/>
	<circle cx="40.7407" cy="970.564" r="4" fill="#0" id="circle8"/>
	<circle cx="60.5242" cy="727.51" r="4" fill="#0" id="circle9"/>
	<circle cx="66.1766" cy="984.695" r="4" fill="#0" id="circle10"/>
	<circle cx="71.8291" cy="495.761" r="4" fill="#0" id="circle11"/>
	<circle cx="71.8291" cy="524.023" r="4" fill="#0" id="circle12"/>
	<circle cx="71.8291" cy="552.285" r="4" fill="#0" id="circle13"/>
	<circle cx="85.9601" cy="470.325" r="4" fill="#0" id="circle14"/>
	<circle cx="85.9601" cy="577.721" r="4" fill="#0" id="circle15"/>
	<circle cx="88.7863" cy="727.51" r="4" fill="#0" id="circle16"/>
	<circle cx="94.4387" cy="990.348" r="4" fill="#0" id="circle17"/>
	<circle cx="102.917" cy="600.33" r="4" fill="#0" id="circle18"/>
	<circle cx="108.57" cy="450.541" r="4" fill="#0" id="circle19"/>
	<circle cx="117.048" cy="727.51" r="4" fill="#0" id="circle20"/>
	<circle cx="122.701" cy="996" r="4" fill="#0" id="circle21"/>
	<circle cx="125.527" cy="617.288" r="4" fill="#0" id="circle22"/>
	<circle cx="136.832" cy="444.889" r="4" fill="#0" id="circle23"/>
	<circle cx="145.311" cy="727.51" r="4" fill="#0" id="circle24"/>
	<circle cx="150.963" cy="996" r="4" fill="#0" id="circle25"/>
	<circle cx="153.789" cy="628.593" r="4" fill="#0" id="circle26"/>
	<circle cx="165.094" cy="436.41" r="4" fill="#0" id="circle27"/>
	<circle cx="173.573" cy="735.989" r="4" fill="#0" id="circle28"/>
	<circle cx="179.225" cy="996" r="4" fill="#0" id="circle29"/>
	<circle cx="182.051" cy="639.897" r="4" fill="#0" id="circle30"/>
	<circle cx="193.356" cy="433.584" r="4" fill="#0" id="circle31"/>
	<circle cx="201.835" cy="738.815" r="4" fill="#0" id="circle32"/>
	<circle cx="207.487" cy="990.348" r="4" fill="#0" id="circle33"/>
	<circle cx="210.313" cy="651.202" r="4" fill="#0" id="circle34"/>
	<circle cx="221.618" cy="427.932" r="4" fill="#0" id="circle35"/>
	<circle cx="230.097" cy="727.51" r="4" fill="#0" id="circle36"/>
	<circle cx="235.749" cy="979.043" r="4" fill="#0" id="circle37"/>
	<circle cx="238.575" cy="656.855" r="4" fill="#0" id="circle38"/>
	<circle cx="249.88" cy="425.105" r="4" fill="#0" id="circle39"/>
	<circle cx="252.707" cy="682.291" r="4" fill="#0" id="circle40"/>
	<circle cx="264.011" cy="973.39" r="4" fill="#0" id="circle41"/>
	<circle cx="275.316" cy="399.67" r="4" fill="#0" id="circle42"/>
	<circle cx="286.621" cy="241.402" r="4" fill="#0" id="circle43"/>
	<circle cx="286.621" cy="269.664" r="4" fill="#0" id="circle44"/>
	<circle cx="289.447" cy="297.926" r="4" fill="#0" id="circle45"/>
	<circle cx="292.274" cy="967.738" r="4" fill="#0" id="circle46"/>
	<circle cx="297.926" cy="326.188" r="4" fill="#0" id="circle47"/>
	<circle cx="303.578" cy="218.792" r="4" fill="#0" id="circle48"/>
	<circle cx="303.578" cy="388.365" r="4" fill="#0" id="circle49"/>
	<circle cx="312.057" cy="351.624" r="4" fill="#0" id="circle50"/>
	<circle cx="320.536" cy="973.39" r="4" fill="#0" id="circle51"/>
	<circle cx="326.188" cy="196.182" r="4" fill="#0" id="circle52"/>
	<circle cx="329.014" cy="374.234" r="4" fill="#0" id="circle53"/>
	<circle cx="337.493" cy="66.1766" r="4" fill="#0" id="circle54"/>
	<circle cx="337.493" cy="94.4387" r="4" fill="#0" id="circle55"/>
	<circle cx="343.145" cy="122.701" r="4" fill="#0" id="circle56"/>
	<circle cx="343.145" cy="173.573" r="4" fill="#0" id="circle57"/>
	<circle cx="348.798" cy="973.39" r="4" fill="#0" id="circle58"/>
	<circle cx="351.624" cy="40.7407" r="4" fill="#0" id="circle59"/>
	<circle cx="374.234" cy="20.9573" r="4" fill="#0" id="circle60"/>
	<circle cx="377.06" cy="976.217" r="4" fill="#0" id="circle61"/>
	<circle cx="402.496" cy="9.65242" r="4" fill="#0" id="circle62"/>
	<circle cx="405.322" cy="979.043" r="4" fill="#0" id="circle63"/>
	<circle cx="430.758" cy="4" r="4" fill="#0" id="circle64"/>
	<circle cx="433.584" cy="984.695" r="4" fill="#0" id="circle65"/>
	<circle cx="459.02" cy="9.65242" r="4" fill="#0" id="circle66"/>
	<circle cx="461.846" cy="996" r="4" fill="#0" id="circle67"/>
	<circle cx="487.282" cy="20.9573" r="4" fill="#0" id="circle68"/>
	<circle cx="490.108" cy="996" r="4" fill="#0" id="circle69"/>
	<circle cx="509.892" cy="37.9145" r="4" fill="#0" id="circle70"/>
	<circle cx="518.37" cy="996" r="4" fill="#0" id="circle71"/>
	<circle cx="538.154" cy="43.567" r="4" fill="#0" id="circle72"/>
	<circle cx="546.632" cy="996" r="4" fill="#0" id="circle73"/>
	<circle cx="566.416" cy="43.567" r="4" fill="#0" id="circle74"/>
	<circle cx="574.895" cy="996" r="4" fill="#0" id="circle75"/>
	<circle cx="594.678" cy="29.4359" r="4" fill="#0" id="circle76"/>
	<circle cx="603.157" cy="996" r="4" fill="#0" id="circle77"/>
	<circle cx="620.114" cy="15.3048" r="4" fill="#0" id="circle78"/>
	<circle cx="631.419" cy="990.348" r="4" fill="#0" id="circle79"/>
	<circle cx="648.376" cy="4" r="4" fill="#0" id="circle80"/>
	<circle cx="656.855" cy="976.217" r="4" fill="#0" id="circle81"/>
	<circle cx="676.638" cy="6.82621" r="4" fill="#0" id="circle82"/>
	<circle cx="682.291" cy="962.085" r="4" fill="#0" id="circle83"/>
	<circle cx="690.769" cy="919.692" r="4" fill="#0" id="circle84"/>
	<circle cx="702.074" cy="382.712" r="4" fill="#0" id="circle85"/>
	<circle cx="702.074" cy="800.991" r="4" fill="#0" id="circle86"/>
	<circle cx="702.074" cy="829.254" r="4" fill="#0" id="circle87"/>
	<circle cx="702.074" cy="857.516" r="4" fill="#0" id="circle88"/>
	<circle cx="702.074" cy="885.778" r="4" fill="#0" id="circle89"/>
	<circle cx="704.9" cy="15.3048" r="4" fill="#0" id="circle90"/>
	<circle cx="707.726" cy="659.681" r="4" fill="#0" id="circle91"/>
	<circle cx="707.726" cy="687.943" r="4" fill="#0" id="circle92"/>
	<circle cx="713.379" cy="337.493" r="4" fill="#0" id="circle93"/>
	<circle cx="713.379" cy="716.205" r="4" fill="#0" id="circle94"/>
	<circle cx="716.205" cy="744.467" r="4" fill="#0" id="circle95"/>
	<circle cx="716.205" cy="775.556" r="4" fill="#0" id="circle96"/>
	<circle cx="719.031" cy="405.322" r="4" fill="#0" id="circle97"/>
	<circle cx="724.684" cy="637.071" r="4" fill="#0" id="circle98"/>
	<circle cx="727.51" cy="32.2621" r="4" fill="#0" id="circle99"/>
	<circle cx="730.336" cy="128.353" r="4" fill="#0" id="circle100"/>
	<circle cx="730.336" cy="314.883" r="4" fill="#0" id="circle101"/>
	<circle cx="735.989" cy="156.615" r="4" fill="#0" id="circle102"/>
	<circle cx="741.641" cy="57.698" r="4" fill="#0" id="circle103"/>
	<circle cx="741.641" cy="85.9601" r="4" fill="#0" id="circle104"/>
	<circle cx="741.641" cy="286.621" r="4" fill="#0" id="circle105"/>
	<circle cx="741.641" cy="422.279" r="4" fill="#0" id="circle106"/>
	<circle cx="744.467" cy="184.877" r="4" fill="#0" id="circle107"/>
	<circle cx="747.293" cy="213.14" r="4" fill="#0" id="circle108"/>
	<circle cx="747.293" cy="241.402" r="4" fill="#0" id="circle109"/>
	<circle cx="747.293" cy="614.462" r="4" fill="#0" id="circle110"/>
	<circle cx="761.425" cy="444.889" r="4" fill="#0" id="circle111"/>
	<circle cx="764.251" cy="591.852" r="4" fill="#0" id="circle112"/>
	<circle cx="778.382" cy="467.499" r="4" fill="#0" id="circle113"/>
	<circle cx="781.208" cy="569.242" r="4" fill="#0" id="circle114"/>
	<circle cx="786.86" cy="495.761" r="4" fill="#0" id="circle115"/>
	<circle cx="786.86" cy="524.023" r="4" fill="#0" id="circle116"/>
	</g>
</svg>