<?xml version="1.0" encoding="UTF-8" standalone="no"?>
<!-- Created with CurveBenchmark -->
<svg
	xmlns:dc="http://purl.org/dc/elements/1.1/"
	xmlns:cc="http://creativecommons.org/ns#"
	xmlns:rdf="http://www.w3.org/1999/02/22-rdf-syntax-ns#"
	xmlns:svg="http://www.w3.org/2000/svg"
	xmlns="http://www.w3.org/2000/svg"
	xmlns:sodipodi="http://sodipodi.sourceforge.net/DTD/sodipodi-0.dtd"
	xmlns:inkscape="http://www.inkscape.org/namespaces/inkscape"
	width="1000"
	height="1000"
	id="svg2"
	version="1.1"
	sodipodi:docname="manifold/vicur-kitchenknifebinary14.png.txt">
<defs
	id="defs4" />
<metadata
	id="metadata7">
	<rdf:RDF>
		<cc:Work
			rdf:about="">
			<dc:format>image/svg+xml</dc:format>
			<dc:type
				rdf:resource="http://purl.org/dc/dcmitype/StillImage" />
			<dc:title></dc:title>
		</cc:Work>
	</rdf:RDF>
</metadata>
<g
	inkscape:label="Layer 1"
	inkscape:groupmode="layer"
	id="layer1">
	<path style="fill:none;stroke:red;stroke-width:1px;stroke-linecap:butt;stroke-linejoin:miter;stroke-opacity:1" d="M 4,4.68556 5.37111,11.5411 z" id="boundary" inkscape:connector-curvature="0" />
	<path style="fill:none;stroke:red;stroke-width:1px;stroke-linecap:butt;stroke-linejoin:miter;stroke-opacity:1" d="M 4,4.68556 10.8556,4 z" id="boundary" inkscape:connector-curvature="0" />
	<path style="fill:none;stroke:red;stroke-width:1px;stroke-linecap:butt;stroke-linejoin:miter;stroke-opacity:1" d="M 5.37111,11.5411 9.48445,17.0256 z" id="boundary" inkscape:connector-curvature="0" />
	<path style="fill:none;stroke:red;stroke-width:1px;stroke-linecap:butt;stroke-linejoin:miter;stroke-opacity:1" d="M 9.48445,17.0256 13.5978,22.51 z" id="boundary" inkscape:connector-curvature="0" />
	<path style="fill:none;stroke:red;stroke-width:1px;stroke-linecap:butt;stroke-linejoin:miter;stroke-opacity:1" d="M 10.8556,4 17.7111,6.05667 z" id="boundary" inkscape:connector-curvature="0" />
	<path style="fill:none;stroke:red;stroke-width:1px;stroke-linecap:butt;stroke-linejoin:miter;stroke-opacity:1" d="M 13.5978,22.51 18.3967,27.9945 z" id="boundary" inkscape:connector-curvature="0" />
	<path style="fill:none;stroke:red;stroke-width:1px;stroke-linecap:butt;stroke-linejoin:miter;stroke-opacity:1" d="M 17.7111,6.05667 24.5667,6.05667 z" id="boundary" inkscape:connector-curvature="0" />
	<path style="fill:none;stroke:red;stroke-width:1px;stroke-linecap:butt;stroke-linejoin:miter;stroke-opacity:1" d="M 18.3967,27.9945 22.51,33.4789 z" id="boundary" inkscape:connector-curvature="0" />
	<path style="fill:none;stroke:red;stroke-width:1px;stroke-linecap:butt;stroke-linejoin:miter;stroke-opacity:1" d="M 22.51,33.4789 26.6234,38.9634 z" id="boundary" inkscape:connector-curvature="0" />
	<path style="fill:none;stroke:red;stroke-width:1px;stroke-linecap:butt;stroke-linejoin:miter;stroke-opacity:1" d="M 24.5667,6.05667 31.4223,6.05667 z" id="boundary" inkscape:connector-curvature="0" />
	<path style="fill:none;stroke:red;stroke-width:1px;stroke-linecap:butt;stroke-linejoin:miter;stroke-opacity:1" d="M 26.6234,38.9634 32.1078,43.0767 z" id="boundary" inkscape:connector-curvature="0" />
	<path style="fill:none;stroke:red;stroke-width:1px;stroke-linecap:butt;stroke-linejoin:miter;stroke-opacity:1" d="M 31.4223,6.05667 38.2778,8.79889 z" id="boundary" inkscape:connector-curvature="0" />
	<path style="fill:none;stroke:red;stroke-width:1px;stroke-linecap:butt;stroke-linejoin:miter;stroke-opacity:1" d="M 32.1078,43.0767 36.2211,48.5612 z" id="boundary" inkscape:connector-curvature="0" />
	<path style="fill:none;stroke:red;stroke-width:1px;stroke-linecap:butt;stroke-linejoin:miter;stroke-opacity:1" d="M 36.2211,48.5612 41.7056,52.6745 z" id="boundary" inkscape:connector-curvature="0" />
	<path style="fill:none;stroke:red;stroke-width:1px;stroke-linecap:butt;stroke-linejoin:miter;stroke-opacity:1" d="M 38.2778,8.79889 45.1334,11.5411 z" id="boundary" inkscape:connector-curvature="0" />
	<path style="fill:none;stroke:red;stroke-width:1px;stroke-linecap:butt;stroke-linejoin:miter;stroke-opacity:1" d="M 41.7056,52.6745 47.19,57.4734 z" id="boundary" inkscape:connector-curvature="0" />
	<path style="fill:none;stroke:red;stroke-width:1px;stroke-linecap:butt;stroke-linejoin:miter;stroke-opacity:1" d="M 45.1334,11.5411 51.9889,12.2267 z" id="boundary" inkscape:connector-curvature="0" />
	<path style="fill:none;stroke:red;stroke-width:1px;stroke-linecap:butt;stroke-linejoin:miter;stroke-opacity:1" d="M 47.19,57.4734 51.9889,62.9578 z" id="boundary" inkscape:connector-curvature="0" />
	<path style="fill:none;stroke:red;stroke-width:1px;stroke-linecap:butt;stroke-linejoin:miter;stroke-opacity:1" d="M 51.9889,12.2267 58.8445,14.2833 z" id="boundary" inkscape:connector-curvature="0" />
	<path style="fill:none;stroke:red;stroke-width:1px;stroke-linecap:butt;stroke-linejoin:miter;stroke-opacity:1" d="M 51.9889,62.9578 56.7878,68.4423 z" id="boundary" inkscape:connector-curvature="0" />
	<path style="fill:none;stroke:red;stroke-width:1px;stroke-linecap:butt;stroke-linejoin:miter;stroke-opacity:1" d="M 56.7878,68.4423 62.9578,71.8701 z" id="boundary" inkscape:connector-curvature="0" />
	<path style="fill:none;stroke:red;stroke-width:1px;stroke-linecap:butt;stroke-linejoin:miter;stroke-opacity:1" d="M 58.8445,14.2833 65.7001,16.34 z" id="boundary" inkscape:connector-curvature="0" />
	<path style="fill:none;stroke:red;stroke-width:1px;stroke-linecap:butt;stroke-linejoin:miter;stroke-opacity:1" d="M 62.9578,71.8701 69.1279,75.2979 z" id="boundary" inkscape:connector-curvature="0" />
	<path style="fill:none;stroke:red;stroke-width:1px;stroke-linecap:butt;stroke-linejoin:miter;stroke-opacity:1" d="M 65.7001,16.34 72.5556,18.3967 z" id="boundary" inkscape:connector-curvature="0" />
	<path style="fill:none;stroke:red;stroke-width:1px;stroke-linecap:butt;stroke-linejoin:miter;stroke-opacity:1" d="M 69.1279,75.2979 73.2412,80.7823 z" id="boundary" inkscape:connector-curvature="0" />
	<path style="fill:none;stroke:red;stroke-width:1px;stroke-linecap:butt;stroke-linejoin:miter;stroke-opacity:1" d="M 72.5556,18.3967 79.4112,19.0822 z" id="boundary" inkscape:connector-curvature="0" />
	<path style="fill:none;stroke:red;stroke-width:1px;stroke-linecap:butt;stroke-linejoin:miter;stroke-opacity:1" d="M 73.2412,80.7823 78.7256,84.8956 z" id="boundary" inkscape:connector-curvature="0" />
	<path style="fill:none;stroke:red;stroke-width:1px;stroke-linecap:butt;stroke-linejoin:miter;stroke-opacity:1" d="M 78.7256,84.8956 84.8956,88.3234 z" id="boundary" inkscape:connector-curvature="0" />
	<path style="fill:none;stroke:red;stroke-width:1px;stroke-linecap:butt;stroke-linejoin:miter;stroke-opacity:1" d="M 79.4112,19.0822 85.5812,22.51 z" id="boundary" inkscape:connector-curvature="0" />
	<path style="fill:none;stroke:red;stroke-width:1px;stroke-linecap:butt;stroke-linejoin:miter;stroke-opacity:1" d="M 84.8956,88.3234 90.3801,92.4368 z" id="boundary" inkscape:connector-curvature="0" />
	<path style="fill:none;stroke:red;stroke-width:1px;stroke-linecap:butt;stroke-linejoin:miter;stroke-opacity:1" d="M 85.5812,22.51 92.4368,23.1956 z" id="boundary" inkscape:connector-curvature="0" />
	<path style="fill:none;stroke:red;stroke-width:1px;stroke-linecap:butt;stroke-linejoin:miter;stroke-opacity:1" d="M 90.3801,92.4368 93.8079,98.6068 z" id="boundary" inkscape:connector-curvature="0" />
	<path style="fill:none;stroke:red;stroke-width:1px;stroke-linecap:butt;stroke-linejoin:miter;stroke-opacity:1" d="M 92.4368,23.1956 98.6068,26.6234 z" id="boundary" inkscape:connector-curvature="0" />
	<path style="fill:none;stroke:red;stroke-width:1px;stroke-linecap:butt;stroke-linejoin:miter;stroke-opacity:1" d="M 93.8079,98.6068 99.2923,102.72 z" id="boundary" inkscape:connector-curvature="0" />
	<path style="fill:none;stroke:red;stroke-width:1px;stroke-linecap:butt;stroke-linejoin:miter;stroke-opacity:1" d="M 98.6068,26.6234 104.777,30.0511 z" id="boundary" inkscape:connector-curvature="0" />
	<path style="fill:none;stroke:red;stroke-width:1px;stroke-linecap:butt;stroke-linejoin:miter;stroke-opacity:1" d="M 99.2923,102.72 105.462,106.148 z" id="boundary" inkscape:connector-curvature="0" />
	<path style="fill:none;stroke:red;stroke-width:1px;stroke-linecap:butt;stroke-linejoin:miter;stroke-opacity:1" d="M 104.777,30.0511 111.632,31.4223 z" id="boundary" inkscape:connector-curvature="0" />
	<path style="fill:none;stroke:red;stroke-width:1px;stroke-linecap:butt;stroke-linejoin:miter;stroke-opacity:1" d="M 105.462,106.148 110.947,110.261 z" id="boundary" inkscape:connector-curvature="0" />
	<path style="fill:none;stroke:red;stroke-width:1px;stroke-linecap:butt;stroke-linejoin:miter;stroke-opacity:1" d="M 110.947,110.261 116.431,115.06 z" id="boundary" inkscape:connector-curvature="0" />
	<path style="fill:none;stroke:red;stroke-width:1px;stroke-linecap:butt;stroke-linejoin:miter;stroke-opacity:1" d="M 111.632,31.4223 118.488,33.4789 z" id="boundary" inkscape:connector-curvature="0" />
	<path style="fill:none;stroke:red;stroke-width:1px;stroke-linecap:butt;stroke-linejoin:miter;stroke-opacity:1" d="M 116.431,115.06 121.916,119.173 z" id="boundary" inkscape:connector-curvature="0" />
	<path style="fill:none;stroke:red;stroke-width:1px;stroke-linecap:butt;stroke-linejoin:miter;stroke-opacity:1" d="M 118.488,33.4789 125.343,36.2211 z" id="boundary" inkscape:connector-curvature="0" />
	<path style="fill:none;stroke:red;stroke-width:1px;stroke-linecap:butt;stroke-linejoin:miter;stroke-opacity:1" d="M 121.916,119.173 127.4,123.287 z" id="boundary" inkscape:connector-curvature="0" />
	<path style="fill:none;stroke:red;stroke-width:1px;stroke-linecap:butt;stroke-linejoin:miter;stroke-opacity:1" d="M 125.343,36.2211 131.513,39.6489 z" id="boundary" inkscape:connector-curvature="0" />
	<path style="fill:none;stroke:red;stroke-width:1px;stroke-linecap:butt;stroke-linejoin:miter;stroke-opacity:1" d="M 127.4,123.287 132.885,127.4 z" id="boundary" inkscape:connector-curvature="0" />
	<path style="fill:none;stroke:red;stroke-width:1px;stroke-linecap:butt;stroke-linejoin:miter;stroke-opacity:1" d="M 131.513,39.6489 138.369,41.02 z" id="boundary" inkscape:connector-curvature="0" />
	<path style="fill:none;stroke:red;stroke-width:1px;stroke-linecap:butt;stroke-linejoin:miter;stroke-opacity:1" d="M 132.885,127.4 139.055,130.828 z" id="boundary" inkscape:connector-curvature="0" />
	<path style="fill:none;stroke:red;stroke-width:1px;stroke-linecap:butt;stroke-linejoin:miter;stroke-opacity:1" d="M 138.369,41.02 144.539,44.4478 z" id="boundary" inkscape:connector-curvature="0" />
	<path style="fill:none;stroke:red;stroke-width:1px;stroke-linecap:butt;stroke-linejoin:miter;stroke-opacity:1" d="M 139.055,130.828 144.539,134.941 z" id="boundary" inkscape:connector-curvature="0" />
	<path style="fill:none;stroke:red;stroke-width:1px;stroke-linecap:butt;stroke-linejoin:miter;stroke-opacity:1" d="M 144.539,44.4478 151.395,45.1334 z" id="boundary" inkscape:connector-curvature="0" />
	<path style="fill:none;stroke:red;stroke-width:1px;stroke-linecap:butt;stroke-linejoin:miter;stroke-opacity:1" d="M 144.539,134.941 150.023,139.055 z" id="boundary" inkscape:connector-curvature="0" />
	<path style="fill:none;stroke:red;stroke-width:1px;stroke-linecap:butt;stroke-linejoin:miter;stroke-opacity:1" d="M 150.023,139.055 156.879,141.797 z" id="boundary" inkscape:connector-curvature="0" />
	<path style="fill:none;stroke:red;stroke-width:1px;stroke-linecap:butt;stroke-linejoin:miter;stroke-opacity:1" d="M 151.395,45.1334 157.565,48.5612 z" id="boundary" inkscape:connector-curvature="0" />
	<path style="fill:none;stroke:red;stroke-width:1px;stroke-linecap:butt;stroke-linejoin:miter;stroke-opacity:1" d="M 156.879,141.797 162.364,146.596 z" id="boundary" inkscape:connector-curvature="0" />
	<path style="fill:none;stroke:red;stroke-width:1px;stroke-linecap:butt;stroke-linejoin:miter;stroke-opacity:1" d="M 157.565,48.5612 164.42,51.3034 z" id="boundary" inkscape:connector-curvature="0" />
	<path style="fill:none;stroke:red;stroke-width:1px;stroke-linecap:butt;stroke-linejoin:miter;stroke-opacity:1" d="M 162.364,146.596 167.848,150.709 z" id="boundary" inkscape:connector-curvature="0" />
	<path style="fill:none;stroke:red;stroke-width:1px;stroke-linecap:butt;stroke-linejoin:miter;stroke-opacity:1" d="M 164.42,51.3034 171.276,54.0456 z" id="boundary" inkscape:connector-curvature="0" />
	<path style="fill:none;stroke:red;stroke-width:1px;stroke-linecap:butt;stroke-linejoin:miter;stroke-opacity:1" d="M 167.848,150.709 173.332,154.822 z" id="boundary" inkscape:connector-curvature="0" />
	<path style="fill:none;stroke:red;stroke-width:1px;stroke-linecap:butt;stroke-linejoin:miter;stroke-opacity:1" d="M 171.276,54.0456 178.131,56.7878 z" id="boundary" inkscape:connector-curvature="0" />
	<path style="fill:none;stroke:red;stroke-width:1px;stroke-linecap:butt;stroke-linejoin:miter;stroke-opacity:1" d="M 173.332,154.822 179.502,158.25 z" id="boundary" inkscape:connector-curvature="0" />
	<path style="fill:none;stroke:red;stroke-width:1px;stroke-linecap:butt;stroke-linejoin:miter;stroke-opacity:1" d="M 178.131,56.7878 184.987,59.5301 z" id="boundary" inkscape:connector-curvature="0" />
	<path style="fill:none;stroke:red;stroke-width:1px;stroke-linecap:butt;stroke-linejoin:miter;stroke-opacity:1" d="M 179.502,158.25 184.301,163.735 z" id="boundary" inkscape:connector-curvature="0" />
	<path style="fill:none;stroke:red;stroke-width:1px;stroke-linecap:butt;stroke-linejoin:miter;stroke-opacity:1" d="M 184.301,163.735 189.786,167.848 z" id="boundary" inkscape:connector-curvature="0" />
	<path style="fill:none;stroke:red;stroke-width:1px;stroke-linecap:butt;stroke-linejoin:miter;stroke-opacity:1" d="M 184.987,59.5301 191.842,62.2723 z" id="boundary" inkscape:connector-curvature="0" />
	<path style="fill:none;stroke:red;stroke-width:1px;stroke-linecap:butt;stroke-linejoin:miter;stroke-opacity:1" d="M 191.842,62.2723 198.012,65.7001 z" id="boundary" inkscape:connector-curvature="0" />
	<path style="fill:none;stroke:red;stroke-width:1px;stroke-linecap:butt;stroke-linejoin:miter;stroke-opacity:1" d="M 198.012,65.7001 204.868,68.4423 z" id="boundary" inkscape:connector-curvature="0" />
	<path style="fill:none;stroke:red;stroke-width:1px;stroke-linecap:butt;stroke-linejoin:miter;stroke-opacity:1" d="M 202.126,171.961 207.61,176.075 z" id="boundary" inkscape:connector-curvature="0" />
	<path style="fill:none;stroke:red;stroke-width:1px;stroke-linecap:butt;stroke-linejoin:miter;stroke-opacity:1" d="M 204.868,68.4423 211.724,71.1845 z" id="boundary" inkscape:connector-curvature="0" />
	<path style="fill:none;stroke:red;stroke-width:1px;stroke-linecap:butt;stroke-linejoin:miter;stroke-opacity:1" d="M 207.61,176.075 213.095,180.188 z" id="boundary" inkscape:connector-curvature="0" />
	<path style="fill:none;stroke:red;stroke-width:1px;stroke-linecap:butt;stroke-linejoin:miter;stroke-opacity:1" d="M 211.724,71.1845 217.894,74.6123 z" id="boundary" inkscape:connector-curvature="0" />
	<path style="fill:none;stroke:red;stroke-width:1px;stroke-linecap:butt;stroke-linejoin:miter;stroke-opacity:1" d="M 213.095,180.188 219.265,183.616 z" id="boundary" inkscape:connector-curvature="0" />
	<path style="fill:none;stroke:red;stroke-width:1px;stroke-linecap:butt;stroke-linejoin:miter;stroke-opacity:1" d="M 217.894,74.6123 224.749,74.6123 z" id="boundary" inkscape:connector-curvature="0" />
	<path style="fill:none;stroke:red;stroke-width:1px;stroke-linecap:butt;stroke-linejoin:miter;stroke-opacity:1" d="M 219.265,183.616 226.12,186.358 z" id="boundary" inkscape:connector-curvature="0" />
	<path style="fill:none;stroke:red;stroke-width:1px;stroke-linecap:butt;stroke-linejoin:miter;stroke-opacity:1" d="M 224.749,74.6123 230.234,79.4112 z" id="boundary" inkscape:connector-curvature="0" />
	<path style="fill:none;stroke:red;stroke-width:1px;stroke-linecap:butt;stroke-linejoin:miter;stroke-opacity:1" d="M 226.12,186.358 230.919,191.842 z" id="boundary" inkscape:connector-curvature="0" />
	<path style="fill:none;stroke:red;stroke-width:1px;stroke-linecap:butt;stroke-linejoin:miter;stroke-opacity:1" d="M 230.234,79.4112 237.089,82.1534 z" id="boundary" inkscape:connector-curvature="0" />
	<path style="fill:none;stroke:red;stroke-width:1px;stroke-linecap:butt;stroke-linejoin:miter;stroke-opacity:1" d="M 230.919,191.842 237.089,195.27 z" id="boundary" inkscape:connector-curvature="0" />
	<path style="fill:none;stroke:red;stroke-width:1px;stroke-linecap:butt;stroke-linejoin:miter;stroke-opacity:1" d="M 237.089,82.1534 243.945,84.2101 z" id="boundary" inkscape:connector-curvature="0" />
	<path style="fill:none;stroke:red;stroke-width:1px;stroke-linecap:butt;stroke-linejoin:miter;stroke-opacity:1" d="M 237.089,195.27 242.574,199.384 z" id="boundary" inkscape:connector-curvature="0" />
	<path style="fill:none;stroke:red;stroke-width:1px;stroke-linecap:butt;stroke-linejoin:miter;stroke-opacity:1" d="M 242.574,199.384 249.429,202.126 z" id="boundary" inkscape:connector-curvature="0" />
	<path style="fill:none;stroke:red;stroke-width:1px;stroke-linecap:butt;stroke-linejoin:miter;stroke-opacity:1" d="M 243.945,84.2101 249.429,88.3234 z" id="boundary" inkscape:connector-curvature="0" />
	<path style="fill:none;stroke:red;stroke-width:1px;stroke-linecap:butt;stroke-linejoin:miter;stroke-opacity:1" d="M 249.429,88.3234 256.285,89.009 z" id="boundary" inkscape:connector-curvature="0" />
	<path style="fill:none;stroke:red;stroke-width:1px;stroke-linecap:butt;stroke-linejoin:miter;stroke-opacity:1" d="M 249.429,202.126 253.543,207.61 z" id="boundary" inkscape:connector-curvature="0" />
	<path style="fill:none;stroke:red;stroke-width:1px;stroke-linecap:butt;stroke-linejoin:miter;stroke-opacity:1" d="M 253.543,207.61 260.398,208.981 z" id="boundary" inkscape:connector-curvature="0" />
	<path style="fill:none;stroke:red;stroke-width:1px;stroke-linecap:butt;stroke-linejoin:miter;stroke-opacity:1" d="M 256.285,89.009 263.14,91.7512 z" id="boundary" inkscape:connector-curvature="0" />
	<path style="fill:none;stroke:red;stroke-width:1px;stroke-linecap:butt;stroke-linejoin:miter;stroke-opacity:1" d="M 260.398,208.981 266.568,212.409 z" id="boundary" inkscape:connector-curvature="0" />
	<path style="fill:none;stroke:red;stroke-width:1px;stroke-linecap:butt;stroke-linejoin:miter;stroke-opacity:1" d="M 263.14,91.7512 269.996,94.4934 z" id="boundary" inkscape:connector-curvature="0" />
	<path style="fill:none;stroke:red;stroke-width:1px;stroke-linecap:butt;stroke-linejoin:miter;stroke-opacity:1" d="M 266.568,212.409 272.053,216.522 z" id="boundary" inkscape:connector-curvature="0" />
	<path style="fill:none;stroke:red;stroke-width:1px;stroke-linecap:butt;stroke-linejoin:miter;stroke-opacity:1" d="M 269.996,94.4934 276.166,97.9212 z" id="boundary" inkscape:connector-curvature="0" />
	<path style="fill:none;stroke:red;stroke-width:1px;stroke-linecap:butt;stroke-linejoin:miter;stroke-opacity:1" d="M 272.053,216.522 278.223,219.95 z" id="boundary" inkscape:connector-curvature="0" />
	<path style="fill:none;stroke:red;stroke-width:1px;stroke-linecap:butt;stroke-linejoin:miter;stroke-opacity:1" d="M 276.166,97.9212 282.336,101.349 z" id="boundary" inkscape:connector-curvature="0" />
	<path style="fill:none;stroke:red;stroke-width:1px;stroke-linecap:butt;stroke-linejoin:miter;stroke-opacity:1" d="M 278.223,219.95 283.021,225.435 z" id="boundary" inkscape:connector-curvature="0" />
	<path style="fill:none;stroke:red;stroke-width:1px;stroke-linecap:butt;stroke-linejoin:miter;stroke-opacity:1" d="M 282.336,101.349 288.506,104.777 z" id="boundary" inkscape:connector-curvature="0" />
	<path style="fill:none;stroke:red;stroke-width:1px;stroke-linecap:butt;stroke-linejoin:miter;stroke-opacity:1" d="M 283.021,225.435 289.877,227.491 z" id="boundary" inkscape:connector-curvature="0" />
	<path style="fill:none;stroke:red;stroke-width:1px;stroke-linecap:butt;stroke-linejoin:miter;stroke-opacity:1" d="M 288.506,104.777 294.676,108.205 z" id="boundary" inkscape:connector-curvature="0" />
	<path style="fill:none;stroke:red;stroke-width:1px;stroke-linecap:butt;stroke-linejoin:miter;stroke-opacity:1" d="M 289.877,227.491 296.733,230.234 z" id="boundary" inkscape:connector-curvature="0" />
	<path style="fill:none;stroke:red;stroke-width:1px;stroke-linecap:butt;stroke-linejoin:miter;stroke-opacity:1" d="M 294.676,108.205 301.531,110.261 z" id="boundary" inkscape:connector-curvature="0" />
	<path style="fill:none;stroke:red;stroke-width:1px;stroke-linecap:butt;stroke-linejoin:miter;stroke-opacity:1" d="M 296.733,230.234 301.531,235.718 z" id="boundary" inkscape:connector-curvature="0" />
	<path style="fill:none;stroke:red;stroke-width:1px;stroke-linecap:butt;stroke-linejoin:miter;stroke-opacity:1" d="M 301.531,110.261 307.016,114.375 z" id="boundary" inkscape:connector-curvature="0" />
	<path style="fill:none;stroke:red;stroke-width:1px;stroke-linecap:butt;stroke-linejoin:miter;stroke-opacity:1" d="M 301.531,235.718 308.387,238.46 z" id="boundary" inkscape:connector-curvature="0" />
	<path style="fill:none;stroke:red;stroke-width:1px;stroke-linecap:butt;stroke-linejoin:miter;stroke-opacity:1" d="M 307.016,114.375 313.871,116.431 z" id="boundary" inkscape:connector-curvature="0" />
	<path style="fill:none;stroke:red;stroke-width:1px;stroke-linecap:butt;stroke-linejoin:miter;stroke-opacity:1" d="M 308.387,238.46 315.243,241.202 z" id="boundary" inkscape:connector-curvature="0" />
	<path style="fill:none;stroke:red;stroke-width:1px;stroke-linecap:butt;stroke-linejoin:miter;stroke-opacity:1" d="M 313.871,116.431 320.727,118.488 z" id="boundary" inkscape:connector-curvature="0" />
	<path style="fill:none;stroke:red;stroke-width:1px;stroke-linecap:butt;stroke-linejoin:miter;stroke-opacity:1" d="M 315.243,241.202 321.413,244.63 z" id="boundary" inkscape:connector-curvature="0" />
	<path style="fill:none;stroke:red;stroke-width:1px;stroke-linecap:butt;stroke-linejoin:miter;stroke-opacity:1" d="M 320.727,118.488 326.211,122.601 z" id="boundary" inkscape:connector-curvature="0" />
	<path style="fill:none;stroke:red;stroke-width:1px;stroke-linecap:butt;stroke-linejoin:miter;stroke-opacity:1" d="M 321.413,244.63 326.897,248.744 z" id="boundary" inkscape:connector-curvature="0" />
	<path style="fill:none;stroke:red;stroke-width:1px;stroke-linecap:butt;stroke-linejoin:miter;stroke-opacity:1" d="M 326.211,122.601 331.696,126.715 z" id="boundary" inkscape:connector-curvature="0" />
	<path style="fill:none;stroke:red;stroke-width:1px;stroke-linecap:butt;stroke-linejoin:miter;stroke-opacity:1" d="M 326.897,248.744 333.067,252.171 z" id="boundary" inkscape:connector-curvature="0" />
	<path style="fill:none;stroke:red;stroke-width:1px;stroke-linecap:butt;stroke-linejoin:miter;stroke-opacity:1" d="M 331.696,126.715 338.551,128.771 z" id="boundary" inkscape:connector-curvature="0" />
	<path style="fill:none;stroke:red;stroke-width:1px;stroke-linecap:butt;stroke-linejoin:miter;stroke-opacity:1" d="M 333.067,252.171 339.237,255.599 z" id="boundary" inkscape:connector-curvature="0" />
	<path style="fill:none;stroke:red;stroke-width:1px;stroke-linecap:butt;stroke-linejoin:miter;stroke-opacity:1" d="M 338.551,128.771 345.407,131.513 z" id="boundary" inkscape:connector-curvature="0" />
	<path style="fill:none;stroke:red;stroke-width:1px;stroke-linecap:butt;stroke-linejoin:miter;stroke-opacity:1" d="M 339.237,255.599 344.721,259.713 z" id="boundary" inkscape:connector-curvature="0" />
	<path style="fill:none;stroke:red;stroke-width:1px;stroke-linecap:butt;stroke-linejoin:miter;stroke-opacity:1" d="M 344.721,259.713 350.891,263.14 z" id="boundary" inkscape:connector-curvature="0" />
	<path style="fill:none;stroke:red;stroke-width:1px;stroke-linecap:butt;stroke-linejoin:miter;stroke-opacity:1" d="M 345.407,131.513 351.577,134.941 z" id="boundary" inkscape:connector-curvature="0" />
	<path style="fill:none;stroke:red;stroke-width:1px;stroke-linecap:butt;stroke-linejoin:miter;stroke-opacity:1" d="M 350.891,263.14 357.062,266.568 z" id="boundary" inkscape:connector-curvature="0" />
	<path style="fill:none;stroke:red;stroke-width:1px;stroke-linecap:butt;stroke-linejoin:miter;stroke-opacity:1" d="M 351.577,134.941 357.747,138.369 z" id="boundary" inkscape:connector-curvature="0" />
	<path style="fill:none;stroke:red;stroke-width:1px;stroke-linecap:butt;stroke-linejoin:miter;stroke-opacity:1" d="M 357.062,266.568 362.546,270.681 z" id="boundary" inkscape:connector-curvature="0" />
	<path style="fill:none;stroke:red;stroke-width:1px;stroke-linecap:butt;stroke-linejoin:miter;stroke-opacity:1" d="M 357.747,138.369 363.917,141.797 z" id="boundary" inkscape:connector-curvature="0" />
	<path style="fill:none;stroke:red;stroke-width:1px;stroke-linecap:butt;stroke-linejoin:miter;stroke-opacity:1" d="M 362.546,270.681 369.402,273.424 z" id="boundary" inkscape:connector-curvature="0" />
	<path style="fill:none;stroke:red;stroke-width:1px;stroke-linecap:butt;stroke-linejoin:miter;stroke-opacity:1" d="M 363.917,141.797 370.773,144.539 z" id="boundary" inkscape:connector-curvature="0" />
	<path style="fill:none;stroke:red;stroke-width:1px;stroke-linecap:butt;stroke-linejoin:miter;stroke-opacity:1" d="M 369.402,273.424 375.572,276.851 z" id="boundary" inkscape:connector-curvature="0" />
	<path style="fill:none;stroke:red;stroke-width:1px;stroke-linecap:butt;stroke-linejoin:miter;stroke-opacity:1" d="M 370.773,144.539 376.943,147.967 z" id="boundary" inkscape:connector-curvature="0" />
	<path style="fill:none;stroke:red;stroke-width:1px;stroke-linecap:butt;stroke-linejoin:miter;stroke-opacity:1" d="M 375.572,276.851 382.427,279.594 z" id="boundary" inkscape:connector-curvature="0" />
	<path style="fill:none;stroke:red;stroke-width:1px;stroke-linecap:butt;stroke-linejoin:miter;stroke-opacity:1" d="M 376.943,147.967 383.113,151.395 z" id="boundary" inkscape:connector-curvature="0" />
	<path style="fill:none;stroke:red;stroke-width:1px;stroke-linecap:butt;stroke-linejoin:miter;stroke-opacity:1" d="M 382.427,279.594 387.912,283.707 z" id="boundary" inkscape:connector-curvature="0" />
	<path style="fill:none;stroke:red;stroke-width:1px;stroke-linecap:butt;stroke-linejoin:miter;stroke-opacity:1" d="M 383.113,151.395 389.968,154.137 z" id="boundary" inkscape:connector-curvature="0" />
	<path style="fill:none;stroke:red;stroke-width:1px;stroke-linecap:butt;stroke-linejoin:miter;stroke-opacity:1" d="M 387.912,283.707 394.767,285.078 z" id="boundary" inkscape:connector-curvature="0" />
	<path style="fill:none;stroke:red;stroke-width:1px;stroke-linecap:butt;stroke-linejoin:miter;stroke-opacity:1" d="M 389.968,154.137 396.824,156.879 z" id="boundary" inkscape:connector-curvature="0" />
	<path style="fill:none;stroke:red;stroke-width:1px;stroke-linecap:butt;stroke-linejoin:miter;stroke-opacity:1" d="M 394.767,285.078 400.252,289.877 z" id="boundary" inkscape:connector-curvature="0" />
	<path style="fill:none;stroke:red;stroke-width:1px;stroke-linecap:butt;stroke-linejoin:miter;stroke-opacity:1" d="M 396.824,156.879 402.994,160.307 z" id="boundary" inkscape:connector-curvature="0" />
	<path style="fill:none;stroke:red;stroke-width:1px;stroke-linecap:butt;stroke-linejoin:miter;stroke-opacity:1" d="M 400.252,289.877 405.736,293.99 z" id="boundary" inkscape:connector-curvature="0" />
	<path style="fill:none;stroke:red;stroke-width:1px;stroke-linecap:butt;stroke-linejoin:miter;stroke-opacity:1" d="M 402.994,160.307 409.849,160.992 z" id="boundary" inkscape:connector-curvature="0" />
	<path style="fill:none;stroke:red;stroke-width:1px;stroke-linecap:butt;stroke-linejoin:miter;stroke-opacity:1" d="M 405.736,293.99 411.22,298.104 z" id="boundary" inkscape:connector-curvature="0" />
	<path style="fill:none;stroke:red;stroke-width:1px;stroke-linecap:butt;stroke-linejoin:miter;stroke-opacity:1" d="M 409.849,160.992 416.019,164.42 z" id="boundary" inkscape:connector-curvature="0" />
	<path style="fill:none;stroke:red;stroke-width:1px;stroke-linecap:butt;stroke-linejoin:miter;stroke-opacity:1" d="M 411.22,298.104 418.076,300.16 z" id="boundary" inkscape:connector-curvature="0" />
	<path style="fill:none;stroke:red;stroke-width:1px;stroke-linecap:butt;stroke-linejoin:miter;stroke-opacity:1" d="M 416.019,164.42 421.504,168.534 z" id="boundary" inkscape:connector-curvature="0" />
	<path style="fill:none;stroke:red;stroke-width:1px;stroke-linecap:butt;stroke-linejoin:miter;stroke-opacity:1" d="M 418.076,300.16 423.56,304.274 z" id="boundary" inkscape:connector-curvature="0" />
	<path style="fill:none;stroke:red;stroke-width:1px;stroke-linecap:butt;stroke-linejoin:miter;stroke-opacity:1" d="M 421.504,168.534 427.674,171.961 z" id="boundary" inkscape:connector-curvature="0" />
	<path style="fill:none;stroke:red;stroke-width:1px;stroke-linecap:butt;stroke-linejoin:miter;stroke-opacity:1" d="M 423.56,304.274 430.416,307.016 z" id="boundary" inkscape:connector-curvature="0" />
	<path style="fill:none;stroke:red;stroke-width:1px;stroke-linecap:butt;stroke-linejoin:miter;stroke-opacity:1" d="M 427.674,171.961 434.529,174.704 z" id="boundary" inkscape:connector-curvature="0" />
	<path style="fill:none;stroke:red;stroke-width:1px;stroke-linecap:butt;stroke-linejoin:miter;stroke-opacity:1" d="M 430.416,307.016 435.9,311.129 z" id="boundary" inkscape:connector-curvature="0" />
	<path style="fill:none;stroke:red;stroke-width:1px;stroke-linecap:butt;stroke-linejoin:miter;stroke-opacity:1" d="M 434.529,174.704 440.699,178.131 z" id="boundary" inkscape:connector-curvature="0" />
	<path style="fill:none;stroke:red;stroke-width:1px;stroke-linecap:butt;stroke-linejoin:miter;stroke-opacity:1" d="M 435.9,311.129 442.756,313.186 z" id="boundary" inkscape:connector-curvature="0" />
	<path style="fill:none;stroke:red;stroke-width:1px;stroke-linecap:butt;stroke-linejoin:miter;stroke-opacity:1" d="M 440.699,178.131 447.555,180.874 z" id="boundary" inkscape:connector-curvature="0" />
	<path style="fill:none;stroke:red;stroke-width:1px;stroke-linecap:butt;stroke-linejoin:miter;stroke-opacity:1" d="M 442.756,313.186 449.612,315.928 z" id="boundary" inkscape:connector-curvature="0" />
	<path style="fill:none;stroke:red;stroke-width:1px;stroke-linecap:butt;stroke-linejoin:miter;stroke-opacity:1" d="M 447.555,180.874 453.039,184.987 z" id="boundary" inkscape:connector-curvature="0" />
	<path style="fill:none;stroke:red;stroke-width:1px;stroke-linecap:butt;stroke-linejoin:miter;stroke-opacity:1" d="M 449.612,315.928 454.411,321.413 z" id="boundary" inkscape:connector-curvature="0" />
	<path style="fill:none;stroke:red;stroke-width:1px;stroke-linecap:butt;stroke-linejoin:miter;stroke-opacity:1" d="M 453.039,184.987 459.895,187.044 z" id="boundary" inkscape:connector-curvature="0" />
	<path style="fill:none;stroke:red;stroke-width:1px;stroke-linecap:butt;stroke-linejoin:miter;stroke-opacity:1" d="M 454.411,321.413 461.266,323.469 z" id="boundary" inkscape:connector-curvature="0" />
	<path style="fill:none;stroke:red;stroke-width:1px;stroke-linecap:butt;stroke-linejoin:miter;stroke-opacity:1" d="M 459.895,187.044 466.065,190.471 z" id="boundary" inkscape:connector-curvature="0" />
	<path style="fill:none;stroke:red;stroke-width:1px;stroke-linecap:butt;stroke-linejoin:miter;stroke-opacity:1" d="M 461.266,323.469 468.122,325.526 z" id="boundary" inkscape:connector-curvature="0" />
	<path style="fill:none;stroke:red;stroke-width:1px;stroke-linecap:butt;stroke-linejoin:miter;stroke-opacity:1" d="M 466.065,190.471 472.921,193.214 z" id="boundary" inkscape:connector-curvature="0" />
	<path style="fill:none;stroke:red;stroke-width:1px;stroke-linecap:butt;stroke-linejoin:miter;stroke-opacity:1" d="M 468.122,325.526 473.606,330.325 z" id="boundary" inkscape:connector-curvature="0" />
	<path style="fill:none;stroke:red;stroke-width:1px;stroke-linecap:butt;stroke-linejoin:miter;stroke-opacity:1" d="M 472.921,193.214 479.091,196.641 z" id="boundary" inkscape:connector-curvature="0" />
	<path style="fill:none;stroke:red;stroke-width:1px;stroke-linecap:butt;stroke-linejoin:miter;stroke-opacity:1" d="M 473.606,330.325 479.091,335.124 z" id="boundary" inkscape:connector-curvature="0" />
	<path style="fill:none;stroke:red;stroke-width:1px;stroke-linecap:butt;stroke-linejoin:miter;stroke-opacity:1" d="M 479.091,196.641 485.261,200.069 z" id="boundary" inkscape:connector-curvature="0" />
	<path style="fill:none;stroke:red;stroke-width:1px;stroke-linecap:butt;stroke-linejoin:miter;stroke-opacity:1" d="M 479.091,335.124 485.261,338.551 z" id="boundary" inkscape:connector-curvature="0" />
	<path style="fill:none;stroke:red;stroke-width:1px;stroke-linecap:butt;stroke-linejoin:miter;stroke-opacity:1" d="M 485.261,200.069 492.116,202.811 z" id="boundary" inkscape:connector-curvature="0" />
	<path style="fill:none;stroke:red;stroke-width:1px;stroke-linecap:butt;stroke-linejoin:miter;stroke-opacity:1" d="M 485.261,338.551 491.431,341.979 z" id="boundary" inkscape:connector-curvature="0" />
	<path style="fill:none;stroke:red;stroke-width:1px;stroke-linecap:butt;stroke-linejoin:miter;stroke-opacity:1" d="M 491.431,341.979 498.286,342.665 z" id="boundary" inkscape:connector-curvature="0" />
	<path style="fill:none;stroke:red;stroke-width:1px;stroke-linecap:butt;stroke-linejoin:miter;stroke-opacity:1" d="M 492.116,202.811 497.601,206.925 z" id="boundary" inkscape:connector-curvature="0" />
	<path style="fill:none;stroke:red;stroke-width:1px;stroke-linecap:butt;stroke-linejoin:miter;stroke-opacity:1" d="M 497.601,206.925 504.456,209.667 z" id="boundary" inkscape:connector-curvature="0" />
	<path style="fill:none;stroke:red;stroke-width:1px;stroke-linecap:butt;stroke-linejoin:miter;stroke-opacity:1" d="M 504.456,209.667 511.312,212.409 z" id="boundary" inkscape:connector-curvature="0" />
	<path style="fill:none;stroke:red;stroke-width:1px;stroke-linecap:butt;stroke-linejoin:miter;stroke-opacity:1" d="M 510.626,347.464 516.796,350.891 z" id="boundary" inkscape:connector-curvature="0" />
	<path style="fill:none;stroke:red;stroke-width:1px;stroke-linecap:butt;stroke-linejoin:miter;stroke-opacity:1" d="M 511.312,212.409 517.482,215.837 z" id="boundary" inkscape:connector-curvature="0" />
	<path style="fill:none;stroke:red;stroke-width:1px;stroke-linecap:butt;stroke-linejoin:miter;stroke-opacity:1" d="M 516.796,350.891 522.966,354.319 z" id="boundary" inkscape:connector-curvature="0" />
	<path style="fill:none;stroke:red;stroke-width:1px;stroke-linecap:butt;stroke-linejoin:miter;stroke-opacity:1" d="M 517.482,215.837 523.652,219.265 z" id="boundary" inkscape:connector-curvature="0" />
	<path style="fill:none;stroke:red;stroke-width:1px;stroke-linecap:butt;stroke-linejoin:miter;stroke-opacity:1" d="M 522.966,354.319 529.136,357.747 z" id="boundary" inkscape:connector-curvature="0" />
	<path style="fill:none;stroke:red;stroke-width:1px;stroke-linecap:butt;stroke-linejoin:miter;stroke-opacity:1" d="M 523.652,219.265 529.822,222.692 z" id="boundary" inkscape:connector-curvature="0" />
	<path style="fill:none;stroke:red;stroke-width:1px;stroke-linecap:butt;stroke-linejoin:miter;stroke-opacity:1" d="M 529.136,357.747 535.992,360.489 z" id="boundary" inkscape:connector-curvature="0" />
	<path style="fill:none;stroke:red;stroke-width:1px;stroke-linecap:butt;stroke-linejoin:miter;stroke-opacity:1" d="M 535.992,360.489 542.847,360.489 z" id="boundary" inkscape:connector-curvature="0" />
	<path style="fill:none;stroke:red;stroke-width:1px;stroke-linecap:butt;stroke-linejoin:miter;stroke-opacity:1" d="M 542.847,360.489 549.017,356.376 z" id="boundary" inkscape:connector-curvature="0" />
	<path style="fill:none;stroke:red;stroke-width:1px;stroke-linecap:butt;stroke-linejoin:miter;stroke-opacity:1" d="M 549.017,356.376 553.131,349.52 z" id="boundary" inkscape:connector-curvature="0" />
	<path style="fill:none;stroke:red;stroke-width:1px;stroke-linecap:butt;stroke-linejoin:miter;stroke-opacity:1" d="M 549.703,230.919 556.558,233.661 z" id="boundary" inkscape:connector-curvature="0" />
	<path style="fill:none;stroke:red;stroke-width:1px;stroke-linecap:butt;stroke-linejoin:miter;stroke-opacity:1" d="M 553.131,349.52 557.244,342.665 z" id="boundary" inkscape:connector-curvature="0" />
	<path style="fill:none;stroke:red;stroke-width:1px;stroke-linecap:butt;stroke-linejoin:miter;stroke-opacity:1" d="M 557.244,342.665 560.672,335.809 z" id="boundary" inkscape:connector-curvature="0" />
	<path style="fill:none;stroke:red;stroke-width:1px;stroke-linecap:butt;stroke-linejoin:miter;stroke-opacity:1" d="M 560.672,335.809 564.1,329.639 z" id="boundary" inkscape:connector-curvature="0" />
	<path style="fill:none;stroke:red;stroke-width:1px;stroke-linecap:butt;stroke-linejoin:miter;stroke-opacity:1" d="M 564.1,329.639 567.527,322.784 z" id="boundary" inkscape:connector-curvature="0" />
	<path style="fill:none;stroke:red;stroke-width:1px;stroke-linecap:butt;stroke-linejoin:miter;stroke-opacity:1" d="M 567.527,322.784 570.955,316.614 z" id="boundary" inkscape:connector-curvature="0" />
	<path style="fill:none;stroke:red;stroke-width:1px;stroke-linecap:butt;stroke-linejoin:miter;stroke-opacity:1" d="M 569.584,239.831 576.44,241.202 z" id="boundary" inkscape:connector-curvature="0" />
	<path style="fill:none;stroke:red;stroke-width:1px;stroke-linecap:butt;stroke-linejoin:miter;stroke-opacity:1" d="M 570.955,316.614 574.383,310.444 z" id="boundary" inkscape:connector-curvature="0" />
	<path style="fill:none;stroke:red;stroke-width:1px;stroke-linecap:butt;stroke-linejoin:miter;stroke-opacity:1" d="M 574.383,310.444 579.867,304.959 z" id="boundary" inkscape:connector-curvature="0" />
	<path style="fill:none;stroke:red;stroke-width:1px;stroke-linecap:butt;stroke-linejoin:miter;stroke-opacity:1" d="M 576.44,241.202 581.238,246.687 z" id="boundary" inkscape:connector-curvature="0" />
	<path style="fill:none;stroke:red;stroke-width:1px;stroke-linecap:butt;stroke-linejoin:miter;stroke-opacity:1" d="M 579.867,304.959 586.723,303.588 z" id="boundary" inkscape:connector-curvature="0" />
	<path style="fill:none;stroke:red;stroke-width:1px;stroke-linecap:butt;stroke-linejoin:miter;stroke-opacity:1" d="M 581.238,246.687 588.094,248.744 z" id="boundary" inkscape:connector-curvature="0" />
	<path style="fill:none;stroke:red;stroke-width:1px;stroke-linecap:butt;stroke-linejoin:miter;stroke-opacity:1" d="M 586.723,303.588 592.893,307.016 z" id="boundary" inkscape:connector-curvature="0" />
	<path style="fill:none;stroke:red;stroke-width:1px;stroke-linecap:butt;stroke-linejoin:miter;stroke-opacity:1" d="M 588.094,248.744 594.95,250.8 z" id="boundary" inkscape:connector-curvature="0" />
	<path style="fill:none;stroke:red;stroke-width:1px;stroke-linecap:butt;stroke-linejoin:miter;stroke-opacity:1" d="M 592.893,307.016 599.748,309.758 z" id="boundary" inkscape:connector-curvature="0" />
	<path style="fill:none;stroke:red;stroke-width:1px;stroke-linecap:butt;stroke-linejoin:miter;stroke-opacity:1" d="M 594.95,250.8 600.434,254.914 z" id="boundary" inkscape:connector-curvature="0" />
	<path style="fill:none;stroke:red;stroke-width:1px;stroke-linecap:butt;stroke-linejoin:miter;stroke-opacity:1" d="M 599.748,309.758 606.604,312.5 z" id="boundary" inkscape:connector-curvature="0" />
	<path style="fill:none;stroke:red;stroke-width:1px;stroke-linecap:butt;stroke-linejoin:miter;stroke-opacity:1" d="M 600.434,254.914 604.547,260.398 z" id="boundary" inkscape:connector-curvature="0" />
	<path style="fill:none;stroke:red;stroke-width:1px;stroke-linecap:butt;stroke-linejoin:miter;stroke-opacity:1" d="M 604.547,260.398 610.717,263.826 z" id="boundary" inkscape:connector-curvature="0" />
	<path style="fill:none;stroke:red;stroke-width:1px;stroke-linecap:butt;stroke-linejoin:miter;stroke-opacity:1" d="M 606.604,312.5 612.774,315.928 z" id="boundary" inkscape:connector-curvature="0" />
	<path style="fill:none;stroke:red;stroke-width:1px;stroke-linecap:butt;stroke-linejoin:miter;stroke-opacity:1" d="M 610.717,263.826 617.573,265.197 z" id="boundary" inkscape:connector-curvature="0" />
	<path style="fill:none;stroke:red;stroke-width:1px;stroke-linecap:butt;stroke-linejoin:miter;stroke-opacity:1" d="M 612.774,315.928 618.944,319.356 z" id="boundary" inkscape:connector-curvature="0" />
	<path style="fill:none;stroke:red;stroke-width:1px;stroke-linecap:butt;stroke-linejoin:miter;stroke-opacity:1" d="M 617.573,265.197 623.057,269.31 z" id="boundary" inkscape:connector-curvature="0" />
	<path style="fill:none;stroke:red;stroke-width:1px;stroke-linecap:butt;stroke-linejoin:miter;stroke-opacity:1" d="M 618.944,319.356 625.8,321.413 z" id="boundary" inkscape:connector-curvature="0" />
	<path style="fill:none;stroke:red;stroke-width:1px;stroke-linecap:butt;stroke-linejoin:miter;stroke-opacity:1" d="M 625.8,321.413 632.655,322.098 z" id="boundary" inkscape:connector-curvature="0" />
	<path style="fill:none;stroke:red;stroke-width:1px;stroke-linecap:butt;stroke-linejoin:miter;stroke-opacity:1" d="M 632.655,322.098 638.14,326.211 z" id="boundary" inkscape:connector-curvature="0" />
	<path style="fill:none;stroke:red;stroke-width:1px;stroke-linecap:butt;stroke-linejoin:miter;stroke-opacity:1" d="M 635.397,276.851 640.882,280.965 z" id="boundary" inkscape:connector-curvature="0" />
	<path style="fill:none;stroke:red;stroke-width:1px;stroke-linecap:butt;stroke-linejoin:miter;stroke-opacity:1" d="M 638.14,326.211 644.31,329.639 z" id="boundary" inkscape:connector-curvature="0" />
	<path style="fill:none;stroke:red;stroke-width:1px;stroke-linecap:butt;stroke-linejoin:miter;stroke-opacity:1" d="M 640.882,280.965 646.366,285.078 z" id="boundary" inkscape:connector-curvature="0" />
	<path style="fill:none;stroke:red;stroke-width:1px;stroke-linecap:butt;stroke-linejoin:miter;stroke-opacity:1" d="M 644.31,329.639 647.737,335.809 z" id="boundary" inkscape:connector-curvature="0" />
	<path style="fill:none;stroke:red;stroke-width:1px;stroke-linecap:butt;stroke-linejoin:miter;stroke-opacity:1" d="M 646.366,285.078 653.222,287.82 z" id="boundary" inkscape:connector-curvature="0" />
	<path style="fill:none;stroke:red;stroke-width:1px;stroke-linecap:butt;stroke-linejoin:miter;stroke-opacity:1" d="M 647.737,335.809 648.423,342.665 z" id="boundary" inkscape:connector-curvature="0" />
	<path style="fill:none;stroke:red;stroke-width:1px;stroke-linecap:butt;stroke-linejoin:miter;stroke-opacity:1" d="M 648.423,342.665 653.907,346.778 z" id="boundary" inkscape:connector-curvature="0" />
	<path style="fill:none;stroke:red;stroke-width:1px;stroke-linecap:butt;stroke-linejoin:miter;stroke-opacity:1" d="M 653.222,287.82 660.077,290.563 z" id="boundary" inkscape:connector-curvature="0" />
	<path style="fill:none;stroke:red;stroke-width:1px;stroke-linecap:butt;stroke-linejoin:miter;stroke-opacity:1" d="M 653.907,346.778 660.763,348.149 z" id="boundary" inkscape:connector-curvature="0" />
	<path style="fill:none;stroke:red;stroke-width:1px;stroke-linecap:butt;stroke-linejoin:miter;stroke-opacity:1" d="M 660.077,290.563 666.933,292.619 z" id="boundary" inkscape:connector-curvature="0" />
	<path style="fill:none;stroke:red;stroke-width:1px;stroke-linecap:butt;stroke-linejoin:miter;stroke-opacity:1" d="M 660.763,348.149 666.247,352.948 z" id="boundary" inkscape:connector-curvature="0" />
	<path style="fill:none;stroke:red;stroke-width:1px;stroke-linecap:butt;stroke-linejoin:miter;stroke-opacity:1" d="M 666.247,352.948 672.417,356.376 z" id="boundary" inkscape:connector-curvature="0" />
	<path style="fill:none;stroke:red;stroke-width:1px;stroke-linecap:butt;stroke-linejoin:miter;stroke-opacity:1" d="M 666.933,292.619 671.046,298.104 z" id="boundary" inkscape:connector-curvature="0" />
	<path style="fill:none;stroke:red;stroke-width:1px;stroke-linecap:butt;stroke-linejoin:miter;stroke-opacity:1" d="M 671.046,298.104 677.902,300.846 z" id="boundary" inkscape:connector-curvature="0" />
	<path style="fill:none;stroke:red;stroke-width:1px;stroke-linecap:butt;stroke-linejoin:miter;stroke-opacity:1" d="M 672.417,356.376 678.587,359.804 z" id="boundary" inkscape:connector-curvature="0" />
	<path style="fill:none;stroke:red;stroke-width:1px;stroke-linecap:butt;stroke-linejoin:miter;stroke-opacity:1" d="M 678.587,359.804 684.072,364.603 z" id="boundary" inkscape:connector-curvature="0" />
	<path style="fill:none;stroke:red;stroke-width:1px;stroke-linecap:butt;stroke-linejoin:miter;stroke-opacity:1" d="M 684.072,364.603 689.556,368.716 z" id="boundary" inkscape:connector-curvature="0" />
	<path style="fill:none;stroke:red;stroke-width:1px;stroke-linecap:butt;stroke-linejoin:miter;stroke-opacity:1" d="M 689.556,368.716 695.041,372.829 z" id="boundary" inkscape:connector-curvature="0" />
	<path style="fill:none;stroke:red;stroke-width:1px;stroke-linecap:butt;stroke-linejoin:miter;stroke-opacity:1" d="M 690.927,306.33 697.097,309.758 z" id="boundary" inkscape:connector-curvature="0" />
	<path style="fill:none;stroke:red;stroke-width:1px;stroke-linecap:butt;stroke-linejoin:miter;stroke-opacity:1" d="M 695.041,372.829 700.525,376.943 z" id="boundary" inkscape:connector-curvature="0" />
	<path style="fill:none;stroke:red;stroke-width:1px;stroke-linecap:butt;stroke-linejoin:miter;stroke-opacity:1" d="M 697.097,309.758 703.953,311.815 z" id="boundary" inkscape:connector-curvature="0" />
	<path style="fill:none;stroke:red;stroke-width:1px;stroke-linecap:butt;stroke-linejoin:miter;stroke-opacity:1" d="M 700.525,376.943 706.01,381.056 z" id="boundary" inkscape:connector-curvature="0" />
	<path style="fill:none;stroke:red;stroke-width:1px;stroke-linecap:butt;stroke-linejoin:miter;stroke-opacity:1" d="M 703.953,311.815 710.123,315.243 z" id="boundary" inkscape:connector-curvature="0" />
	<path style="fill:none;stroke:red;stroke-width:1px;stroke-linecap:butt;stroke-linejoin:miter;stroke-opacity:1" d="M 706.01,381.056 711.494,385.169 z" id="boundary" inkscape:connector-curvature="0" />
	<path style="fill:none;stroke:red;stroke-width:1px;stroke-linecap:butt;stroke-linejoin:miter;stroke-opacity:1" d="M 711.494,385.169 717.664,388.597 z" id="boundary" inkscape:connector-curvature="0" />
	<path style="fill:none;stroke:red;stroke-width:1px;stroke-linecap:butt;stroke-linejoin:miter;stroke-opacity:1" d="M 717.664,388.597 723.834,392.025 z" id="boundary" inkscape:connector-curvature="0" />
	<path style="fill:none;stroke:red;stroke-width:1px;stroke-linecap:butt;stroke-linejoin:miter;stroke-opacity:1" d="M 723.834,320.041 730.004,323.469 z" id="boundary" inkscape:connector-curvature="0" />
	<path style="fill:none;stroke:red;stroke-width:1px;stroke-linecap:butt;stroke-linejoin:miter;stroke-opacity:1" d="M 723.834,392.025 730.004,395.453 z" id="boundary" inkscape:connector-curvature="0" />
	<path style="fill:none;stroke:red;stroke-width:1px;stroke-linecap:butt;stroke-linejoin:miter;stroke-opacity:1" d="M 730.004,323.469 736.174,326.897 z" id="boundary" inkscape:connector-curvature="0" />
	<path style="fill:none;stroke:red;stroke-width:1px;stroke-linecap:butt;stroke-linejoin:miter;stroke-opacity:1" d="M 730.004,395.453 735.489,399.566 z" id="boundary" inkscape:connector-curvature="0" />
	<path style="fill:none;stroke:red;stroke-width:1px;stroke-linecap:butt;stroke-linejoin:miter;stroke-opacity:1" d="M 735.489,399.566 741.659,402.994 z" id="boundary" inkscape:connector-curvature="0" />
	<path style="fill:none;stroke:red;stroke-width:1px;stroke-linecap:butt;stroke-linejoin:miter;stroke-opacity:1" d="M 736.174,326.897 741.659,331.696 z" id="boundary" inkscape:connector-curvature="0" />
	<path style="fill:none;stroke:red;stroke-width:1px;stroke-linecap:butt;stroke-linejoin:miter;stroke-opacity:1" d="M 741.659,331.696 747.143,335.809 z" id="boundary" inkscape:connector-curvature="0" />
	<path style="fill:none;stroke:red;stroke-width:1px;stroke-linecap:butt;stroke-linejoin:miter;stroke-opacity:1" d="M 741.659,402.994 747.143,407.107 z" id="boundary" inkscape:connector-curvature="0" />
	<path style="fill:none;stroke:red;stroke-width:1px;stroke-linecap:butt;stroke-linejoin:miter;stroke-opacity:1" d="M 747.143,335.809 753.999,337.866 z" id="boundary" inkscape:connector-curvature="0" />
	<path style="fill:none;stroke:red;stroke-width:1px;stroke-linecap:butt;stroke-linejoin:miter;stroke-opacity:1" d="M 747.143,407.107 753.313,410.535 z" id="boundary" inkscape:connector-curvature="0" />
	<path style="fill:none;stroke:red;stroke-width:1px;stroke-linecap:butt;stroke-linejoin:miter;stroke-opacity:1" d="M 753.313,410.535 759.483,413.963 z" id="boundary" inkscape:connector-curvature="0" />
	<path style="fill:none;stroke:red;stroke-width:1px;stroke-linecap:butt;stroke-linejoin:miter;stroke-opacity:1" d="M 753.999,337.866 760.854,339.923 z" id="boundary" inkscape:connector-curvature="0" />
	<path style="fill:none;stroke:red;stroke-width:1px;stroke-linecap:butt;stroke-linejoin:miter;stroke-opacity:1" d="M 759.483,413.963 765.653,417.39 z" id="boundary" inkscape:connector-curvature="0" />
	<path style="fill:none;stroke:red;stroke-width:1px;stroke-linecap:butt;stroke-linejoin:miter;stroke-opacity:1" d="M 760.854,339.923 766.339,344.036 z" id="boundary" inkscape:connector-curvature="0" />
	<path style="fill:none;stroke:red;stroke-width:1px;stroke-linecap:butt;stroke-linejoin:miter;stroke-opacity:1" d="M 765.653,417.39 771.823,420.818 z" id="boundary" inkscape:connector-curvature="0" />
	<path style="fill:none;stroke:red;stroke-width:1px;stroke-linecap:butt;stroke-linejoin:miter;stroke-opacity:1" d="M 766.339,344.036 772.509,347.464 z" id="boundary" inkscape:connector-curvature="0" />
	<path style="fill:none;stroke:red;stroke-width:1px;stroke-linecap:butt;stroke-linejoin:miter;stroke-opacity:1" d="M 771.823,420.818 777.308,424.932 z" id="boundary" inkscape:connector-curvature="0" />
	<path style="fill:none;stroke:red;stroke-width:1px;stroke-linecap:butt;stroke-linejoin:miter;stroke-opacity:1" d="M 772.509,347.464 779.364,350.206 z" id="boundary" inkscape:connector-curvature="0" />
	<path style="fill:none;stroke:red;stroke-width:1px;stroke-linecap:butt;stroke-linejoin:miter;stroke-opacity:1" d="M 777.308,424.932 783.478,428.359 z" id="boundary" inkscape:connector-curvature="0" />
	<path style="fill:none;stroke:red;stroke-width:1px;stroke-linecap:butt;stroke-linejoin:miter;stroke-opacity:1" d="M 779.364,350.206 784.849,354.319 z" id="boundary" inkscape:connector-curvature="0" />
	<path style="fill:none;stroke:red;stroke-width:1px;stroke-linecap:butt;stroke-linejoin:miter;stroke-opacity:1" d="M 783.478,428.359 790.333,431.102 z" id="boundary" inkscape:connector-curvature="0" />
	<path style="fill:none;stroke:red;stroke-width:1px;stroke-linecap:butt;stroke-linejoin:miter;stroke-opacity:1" d="M 784.849,354.319 791.704,357.062 z" id="boundary" inkscape:connector-curvature="0" />
	<path style="fill:none;stroke:red;stroke-width:1px;stroke-linecap:butt;stroke-linejoin:miter;stroke-opacity:1" d="M 790.333,431.102 796.503,434.529 z" id="boundary" inkscape:connector-curvature="0" />
	<path style="fill:none;stroke:red;stroke-width:1px;stroke-linecap:butt;stroke-linejoin:miter;stroke-opacity:1" d="M 791.704,357.062 798.56,359.804 z" id="boundary" inkscape:connector-curvature="0" />
	<path style="fill:none;stroke:red;stroke-width:1px;stroke-linecap:butt;stroke-linejoin:miter;stroke-opacity:1" d="M 796.503,434.529 802.673,437.957 z" id="boundary" inkscape:connector-curvature="0" />
	<path style="fill:none;stroke:red;stroke-width:1px;stroke-linecap:butt;stroke-linejoin:miter;stroke-opacity:1" d="M 798.56,359.804 805.415,362.546 z" id="boundary" inkscape:connector-curvature="0" />
	<path style="fill:none;stroke:red;stroke-width:1px;stroke-linecap:butt;stroke-linejoin:miter;stroke-opacity:1" d="M 802.673,437.957 808.158,442.07 z" id="boundary" inkscape:connector-curvature="0" />
	<path style="fill:none;stroke:red;stroke-width:1px;stroke-linecap:butt;stroke-linejoin:miter;stroke-opacity:1" d="M 805.415,362.546 810.9,366.659 z" id="boundary" inkscape:connector-curvature="0" />
	<path style="fill:none;stroke:red;stroke-width:1px;stroke-linecap:butt;stroke-linejoin:miter;stroke-opacity:1" d="M 808.158,442.07 815.013,444.813 z" id="boundary" inkscape:connector-curvature="0" />
	<path style="fill:none;stroke:red;stroke-width:1px;stroke-linecap:butt;stroke-linejoin:miter;stroke-opacity:1" d="M 810.9,366.659 817.755,368.716 z" id="boundary" inkscape:connector-curvature="0" />
	<path style="fill:none;stroke:red;stroke-width:1px;stroke-linecap:butt;stroke-linejoin:miter;stroke-opacity:1" d="M 815.013,444.813 817.07,451.668 z" id="boundary" inkscape:connector-curvature="0" />
	<path style="fill:none;stroke:red;stroke-width:1px;stroke-linecap:butt;stroke-linejoin:miter;stroke-opacity:1" d="M 817.07,451.668 823.24,455.096 z" id="boundary" inkscape:connector-curvature="0" />
	<path style="fill:none;stroke:red;stroke-width:1px;stroke-linecap:butt;stroke-linejoin:miter;stroke-opacity:1" d="M 817.755,368.716 823.24,372.829 z" id="boundary" inkscape:connector-curvature="0" />
	<path style="fill:none;stroke:red;stroke-width:1px;stroke-linecap:butt;stroke-linejoin:miter;stroke-opacity:1" d="M 823.24,372.829 830.095,374.886 z" id="boundary" inkscape:connector-curvature="0" />
	<path style="fill:none;stroke:red;stroke-width:1px;stroke-linecap:butt;stroke-linejoin:miter;stroke-opacity:1" d="M 823.24,455.096 830.095,457.838 z" id="boundary" inkscape:connector-curvature="0" />
	<path style="fill:none;stroke:red;stroke-width:1px;stroke-linecap:butt;stroke-linejoin:miter;stroke-opacity:1" d="M 830.095,374.886 836.265,378.314 z" id="boundary" inkscape:connector-curvature="0" />
	<path style="fill:none;stroke:red;stroke-width:1px;stroke-linecap:butt;stroke-linejoin:miter;stroke-opacity:1" d="M 830.095,457.838 836.951,457.838 z" id="boundary" inkscape:connector-curvature="0" />
	<path style="fill:none;stroke:red;stroke-width:1px;stroke-linecap:butt;stroke-linejoin:miter;stroke-opacity:1" d="M 836.951,457.838 843.806,460.581 z" id="boundary" inkscape:connector-curvature="0" />
	<path style="fill:none;stroke:red;stroke-width:1px;stroke-linecap:butt;stroke-linejoin:miter;stroke-opacity:1" d="M 843.806,460.581 849.977,464.008 z" id="boundary" inkscape:connector-curvature="0" />
	<path style="fill:none;stroke:red;stroke-width:1px;stroke-linecap:butt;stroke-linejoin:miter;stroke-opacity:1" d="M 848.605,384.484 854.775,387.912 z" id="boundary" inkscape:connector-curvature="0" />
	<path style="fill:none;stroke:red;stroke-width:1px;stroke-linecap:butt;stroke-linejoin:miter;stroke-opacity:1" d="M 849.977,464.008 856.832,466.751 z" id="boundary" inkscape:connector-curvature="0" />
	<path style="fill:none;stroke:red;stroke-width:1px;stroke-linecap:butt;stroke-linejoin:miter;stroke-opacity:1" d="M 854.775,387.912 861.631,390.654 z" id="boundary" inkscape:connector-curvature="0" />
	<path style="fill:none;stroke:red;stroke-width:1px;stroke-linecap:butt;stroke-linejoin:miter;stroke-opacity:1" d="M 856.832,466.751 863.688,468.807 z" id="boundary" inkscape:connector-curvature="0" />
	<path style="fill:none;stroke:red;stroke-width:1px;stroke-linecap:butt;stroke-linejoin:miter;stroke-opacity:1" d="M 861.631,390.654 866.43,396.138 z" id="boundary" inkscape:connector-curvature="0" />
	<path style="fill:none;stroke:red;stroke-width:1px;stroke-linecap:butt;stroke-linejoin:miter;stroke-opacity:1" d="M 863.688,468.807 870.543,471.549 z" id="boundary" inkscape:connector-curvature="0" />
	<path style="fill:none;stroke:red;stroke-width:1px;stroke-linecap:butt;stroke-linejoin:miter;stroke-opacity:1" d="M 866.43,396.138 873.285,398.195 z" id="boundary" inkscape:connector-curvature="0" />
	<path style="fill:none;stroke:red;stroke-width:1px;stroke-linecap:butt;stroke-linejoin:miter;stroke-opacity:1" d="M 870.543,471.549 876.713,474.977 z" id="boundary" inkscape:connector-curvature="0" />
	<path style="fill:none;stroke:red;stroke-width:1px;stroke-linecap:butt;stroke-linejoin:miter;stroke-opacity:1" d="M 873.285,398.195 880.141,400.937 z" id="boundary" inkscape:connector-curvature="0" />
	<path style="fill:none;stroke:red;stroke-width:1px;stroke-linecap:butt;stroke-linejoin:miter;stroke-opacity:1" d="M 876.713,474.977 882.883,478.405 z" id="boundary" inkscape:connector-curvature="0" />
	<path style="fill:none;stroke:red;stroke-width:1px;stroke-linecap:butt;stroke-linejoin:miter;stroke-opacity:1" d="M 880.141,400.937 886.997,403.679 z" id="boundary" inkscape:connector-curvature="0" />
	<path style="fill:none;stroke:red;stroke-width:1px;stroke-linecap:butt;stroke-linejoin:miter;stroke-opacity:1" d="M 882.883,478.405 889.053,481.833 z" id="boundary" inkscape:connector-curvature="0" />
	<path style="fill:none;stroke:red;stroke-width:1px;stroke-linecap:butt;stroke-linejoin:miter;stroke-opacity:1" d="M 886.997,403.679 892.481,407.793 z" id="boundary" inkscape:connector-curvature="0" />
	<path style="fill:none;stroke:red;stroke-width:1px;stroke-linecap:butt;stroke-linejoin:miter;stroke-opacity:1" d="M 889.053,481.833 895.909,484.575 z" id="boundary" inkscape:connector-curvature="0" />
	<path style="fill:none;stroke:red;stroke-width:1px;stroke-linecap:butt;stroke-linejoin:miter;stroke-opacity:1" d="M 892.481,407.793 897.965,411.906 z" id="boundary" inkscape:connector-curvature="0" />
	<path style="fill:none;stroke:red;stroke-width:1px;stroke-linecap:butt;stroke-linejoin:miter;stroke-opacity:1" d="M 895.909,484.575 901.393,489.374 z" id="boundary" inkscape:connector-curvature="0" />
	<path style="fill:none;stroke:red;stroke-width:1px;stroke-linecap:butt;stroke-linejoin:miter;stroke-opacity:1" d="M 897.965,411.906 904.821,413.963 z" id="boundary" inkscape:connector-curvature="0" />
	<path style="fill:none;stroke:red;stroke-width:1px;stroke-linecap:butt;stroke-linejoin:miter;stroke-opacity:1" d="M 901.393,489.374 906.878,494.173 z" id="boundary" inkscape:connector-curvature="0" />
	<path style="fill:none;stroke:red;stroke-width:1px;stroke-linecap:butt;stroke-linejoin:miter;stroke-opacity:1" d="M 904.821,413.963 910.305,418.076 z" id="boundary" inkscape:connector-curvature="0" />
	<path style="fill:none;stroke:red;stroke-width:1px;stroke-linecap:butt;stroke-linejoin:miter;stroke-opacity:1" d="M 906.878,494.173 911.677,499.657 z" id="boundary" inkscape:connector-curvature="0" />
	<path style="fill:none;stroke:red;stroke-width:1px;stroke-linecap:butt;stroke-linejoin:miter;stroke-opacity:1" d="M 910.305,418.076 917.161,420.818 z" id="boundary" inkscape:connector-curvature="0" />
	<path style="fill:none;stroke:red;stroke-width:1px;stroke-linecap:butt;stroke-linejoin:miter;stroke-opacity:1" d="M 911.677,499.657 915.104,505.827 z" id="boundary" inkscape:connector-curvature="0" />
	<path style="fill:none;stroke:red;stroke-width:1px;stroke-linecap:butt;stroke-linejoin:miter;stroke-opacity:1" d="M 915.104,505.827 916.475,512.683 z" id="boundary" inkscape:connector-curvature="0" />
	<path style="fill:none;stroke:red;stroke-width:1px;stroke-linecap:butt;stroke-linejoin:miter;stroke-opacity:1" d="M 916.475,512.683 918.532,519.538 z" id="boundary" inkscape:connector-curvature="0" />
	<path style="fill:none;stroke:red;stroke-width:1px;stroke-linecap:butt;stroke-linejoin:miter;stroke-opacity:1" d="M 917.161,420.818 924.017,422.875 z" id="boundary" inkscape:connector-curvature="0" />
	<path style="fill:none;stroke:red;stroke-width:1px;stroke-linecap:butt;stroke-linejoin:miter;stroke-opacity:1" d="M 918.532,519.538 924.017,524.337 z" id="boundary" inkscape:connector-curvature="0" />
	<path style="fill:none;stroke:red;stroke-width:1px;stroke-linecap:butt;stroke-linejoin:miter;stroke-opacity:1" d="M 924.017,422.875 929.501,426.988 z" id="boundary" inkscape:connector-curvature="0" />
	<path style="fill:none;stroke:red;stroke-width:1px;stroke-linecap:butt;stroke-linejoin:miter;stroke-opacity:1" d="M 925.388,483.204 937.042,528.451 z" id="boundary" inkscape:connector-curvature="0" />
	<path style="fill:none;stroke:red;stroke-width:1px;stroke-linecap:butt;stroke-linejoin:miter;stroke-opacity:1" d="M 925.388,483.204 952.124,476.348 z" id="boundary" inkscape:connector-curvature="0" />
	<path style="fill:none;stroke:red;stroke-width:1px;stroke-linecap:butt;stroke-linejoin:miter;stroke-opacity:1" d="M 929.501,426.988 936.357,429.73 z" id="boundary" inkscape:connector-curvature="0" />
	<path style="fill:none;stroke:red;stroke-width:1px;stroke-linecap:butt;stroke-linejoin:miter;stroke-opacity:1" d="M 936.357,429.73 942.527,433.158 z" id="boundary" inkscape:connector-curvature="0" />
	<path style="fill:none;stroke:red;stroke-width:1px;stroke-linecap:butt;stroke-linejoin:miter;stroke-opacity:1" d="M 937.042,528.451 943.898,528.451 z" id="boundary" inkscape:connector-curvature="0" />
	<path style="fill:none;stroke:red;stroke-width:1px;stroke-linecap:butt;stroke-linejoin:miter;stroke-opacity:1" d="M 942.527,433.158 949.382,435.215 z" id="boundary" inkscape:connector-curvature="0" />
	<path style="fill:none;stroke:red;stroke-width:1px;stroke-linecap:butt;stroke-linejoin:miter;stroke-opacity:1" d="M 943.898,528.451 950.753,527.079 z" id="boundary" inkscape:connector-curvature="0" />
	<path style="fill:none;stroke:red;stroke-width:1px;stroke-linecap:butt;stroke-linejoin:miter;stroke-opacity:1" d="M 949.382,435.215 955.552,438.643 z" id="boundary" inkscape:connector-curvature="0" />
	<path style="fill:none;stroke:red;stroke-width:1px;stroke-linecap:butt;stroke-linejoin:miter;stroke-opacity:1" d="M 950.753,527.079 957.609,525.708 z" id="boundary" inkscape:connector-curvature="0" />
	<path style="fill:none;stroke:red;stroke-width:1px;stroke-linecap:butt;stroke-linejoin:miter;stroke-opacity:1" d="M 952.124,476.348 996,475.663 z" id="boundary" inkscape:connector-curvature="0" />
	<path style="fill:none;stroke:red;stroke-width:1px;stroke-linecap:butt;stroke-linejoin:miter;stroke-opacity:1" d="M 955.552,438.643 961.037,443.442 z" id="boundary" inkscape:connector-curvature="0" />
	<path style="fill:none;stroke:red;stroke-width:1px;stroke-linecap:butt;stroke-linejoin:miter;stroke-opacity:1" d="M 957.609,525.708 964.464,522.966 z" id="boundary" inkscape:connector-curvature="0" />
	<path style="fill:none;stroke:red;stroke-width:1px;stroke-linecap:butt;stroke-linejoin:miter;stroke-opacity:1" d="M 961.037,443.442 967.892,446.184 z" id="boundary" inkscape:connector-curvature="0" />
	<path style="fill:none;stroke:red;stroke-width:1px;stroke-linecap:butt;stroke-linejoin:miter;stroke-opacity:1" d="M 964.464,522.966 971.32,520.909 z" id="boundary" inkscape:connector-curvature="0" />
	<path style="fill:none;stroke:red;stroke-width:1px;stroke-linecap:butt;stroke-linejoin:miter;stroke-opacity:1" d="M 967.892,446.184 973.377,450.297 z" id="boundary" inkscape:connector-curvature="0" />
	<path style="fill:none;stroke:red;stroke-width:1px;stroke-linecap:butt;stroke-linejoin:miter;stroke-opacity:1" d="M 971.32,520.909 976.804,514.739 z" id="boundary" inkscape:connector-curvature="0" />
	<path style="fill:none;stroke:red;stroke-width:1px;stroke-linecap:butt;stroke-linejoin:miter;stroke-opacity:1" d="M 973.377,450.297 979.547,453.725 z" id="boundary" inkscape:connector-curvature="0" />
	<path style="fill:none;stroke:red;stroke-width:1px;stroke-linecap:butt;stroke-linejoin:miter;stroke-opacity:1" d="M 976.804,514.739 981.603,509.255 z" id="boundary" inkscape:connector-curvature="0" />
	<path style="fill:none;stroke:red;stroke-width:1px;stroke-linecap:butt;stroke-linejoin:miter;stroke-opacity:1" d="M 979.547,453.725 986.402,456.467 z" id="boundary" inkscape:connector-curvature="0" />
	<path style="fill:none;stroke:red;stroke-width:1px;stroke-linecap:butt;stroke-linejoin:miter;stroke-opacity:1" d="M 981.603,509.255 987.088,504.456 z" id="boundary" inkscape:connector-curvature="0" />
	<path style="fill:none;stroke:red;stroke-width:1px;stroke-linecap:butt;stroke-linejoin:miter;stroke-opacity:1" d="M 986.402,456.467 989.83,462.637 z" id="boundary" inkscape:connector-curvature="0" />
	<path style="fill:none;stroke:red;stroke-width:1px;stroke-linecap:butt;stroke-linejoin:miter;stroke-opacity:1" d="M 987.088,504.456 993.258,501.028 z" id="boundary" inkscape:connector-curvature="0" />
	<path style="fill:none;stroke:red;stroke-width:1px;stroke-linecap:butt;stroke-linejoin:miter;stroke-opacity:1" d="M 989.83,462.637 992.572,469.493 z" id="boundary" inkscape:connector-curvature="0" />
	<path style="fill:none;stroke:red;stroke-width:1px;stroke-linecap:butt;stroke-linejoin:miter;stroke-opacity:1" d="M 992.572,469.493 996,475.663 z" id="boundary" inkscape:connector-curvature="0" />
	<circle cx="4" cy="4.68556" r="4" fill="#0" id="circle0"/>
	<circle cx="5.37111" cy="11.5411" r="4" fill="#0" id="circle1"/>
	<circle cx="9.48445" cy="17.0256" r="4" fill="#0" id="circle2"/>
	<circle cx="10.8556" cy="4" r="4" fill="#0" id="circle3"/>
	<circle cx="13.5978" cy="22.51" r="4" fill="#0" id="circle4"/>
	<circle cx="17.7111" cy="6.05667" r="4" fill="#0" id="circle5"/>
	<circle cx="18.3967" cy="27.9945" r="4" fill="#0" id="circle6"/>
	<circle cx="22.51" cy="33.4789" r="4" fill="#0" id="circle7"/>
	<circle cx="24.5667" cy="6.05667" r="4" fill="#0" id="circle8"/>
	<circle cx="26.6234" cy="38.9634" r="4" fill="#0" id="circle9"/>
	<circle cx="31.4223" cy="6.05667" r="4" fill="#0" id="circle10"/>
	<circle cx="32.1078" cy="43.0767" r="4" fill="#0" id="circle11"/>
	<circle cx="36.2211" cy="48.5612" r="4" fill="#0" id="circle12"/>
	<circle cx="38.2778" cy="8.79889" r="4" fill="#0" id="circle13"/>
	<circle cx="41.7056" cy="52.6745" r="4" fill="#0" id="circle14"/>
	<circle cx="45.1334" cy="11.5411" r="4" fill="#0" id="circle15"/>
	<circle cx="47.19" cy="57.4734" r="4" fill="#0" id="circle16"/>
	<circle cx="51.9889" cy="12.2267" r="4" fill="#0" id="circle17"/>
	<circle cx="51.9889" cy="62.9578" r="4" fill="#0" id="circle18"/>
	<circle cx="56.7878" cy="68.4423" r="4" fill="#0" id="circle19"/>
	<circle cx="58.8445" cy="14.2833" r="4" fill="#0" id="circle20"/>
	<circle cx="62.9578" cy="71.8701" r="4" fill="#0" id="circle21"/>
	<circle cx="65.7001" cy="16.34" r="4" fill="#0" id="circle22"/>
	<circle cx="69.1279" cy="75.2979" r="4" fill="#0" id="circle23"/>
	<circle cx="72.5556" cy="18.3967" r="4" fill="#0" id="circle24"/>
	<circle cx="73.2412" cy="80.7823" r="4" fill="#0" id="circle25"/>
	<circle cx="78.7256" cy="84.8956" r="4" fill="#0" id="circle26"/>
	<circle cx="79.4112" cy="19.0822" r="4" fill="#0" id="circle27"/>
	<circle cx="84.8956" cy="88.3234" r="4" fill="#0" id="circle28"/>
	<circle cx="85.5812" cy="22.51" r="4" fill="#0" id="circle29"/>
	<circle cx="90.3801" cy="92.4368" r="4" fill="#0" id="circle30"/>
	<circle cx="92.4368" cy="23.1956" r="4" fill="#0" id="circle31"/>
	<circle cx="93.8079" cy="98.6068" r="4" fill="#0" id="circle32"/>
	<circle cx="98.6068" cy="26.6234" r="4" fill="#0" id="circle33"/>
	<circle cx="99.2923" cy="102.72" r="4" fill="#0" id="circle34"/>
	<circle cx="104.777" cy="30.0511" r="4" fill="#0" id="circle35"/>
	<circle cx="105.462" cy="106.148" r="4" fill="#0" id="circle36"/>
	<circle cx="110.947" cy="110.261" r="4" fill="#0" id="circle37"/>
	<circle cx="111.632" cy="31.4223" r="4" fill="#0" id="circle38"/>
	<circle cx="116.431" cy="115.06" r="4" fill="#0" id="circle39"/>
	<circle cx="118.488" cy="33.4789" r="4" fill="#0" id="circle40"/>
	<circle cx="121.916" cy="119.173" r="4" fill="#0" id="circle41"/>
	<circle cx="125.343" cy="36.2211" r="4" fill="#0" id="circle42"/>
	<circle cx="127.4" cy="123.287" r="4" fill="#0" id="circle43"/>
	<circle cx="131.513" cy="39.6489" r="4" fill="#0" id="circle44"/>
	<circle cx="132.885" cy="127.4" r="4" fill="#0" id="circle45"/>
	<circle cx="138.369" cy="41.02" r="4" fill="#0" id="circle46"/>
	<circle cx="139.055" cy="130.828" r="4" fill="#0" id="circle47"/>
	<circle cx="144.539" cy="44.4478" r="4" fill="#0" id="circle48"/>
	<circle cx="144.539" cy="134.941" r="4" fill="#0" id="circle49"/>
	<circle cx="150.023" cy="139.055" r="4" fill="#0" id="circle50"/>
	<circle cx="151.395" cy="45.1334" r="4" fill="#0" id="circle51"/>
	<circle cx="156.879" cy="141.797" r="4" fill="#0" id="circle52"/>
	<circle cx="157.565" cy="48.5612" r="4" fill="#0" id="circle53"/>
	<circle cx="162.364" cy="146.596" r="4" fill="#0" id="circle54"/>
	<circle cx="164.42" cy="51.3034" r="4" fill="#0" id="circle55"/>
	<circle cx="167.848" cy="150.709" r="4" fill="#0" id="circle56"/>
	<circle cx="171.276" cy="54.0456" r="4" fill="#0" id="circle57"/>
	<circle cx="173.332" cy="154.822" r="4" fill="#0" id="circle58"/>
	<circle cx="178.131" cy="56.7878" r="4" fill="#0" id="circle59"/>
	<circle cx="179.502" cy="158.25" r="4" fill="#0" id="circle60"/>
	<circle cx="184.301" cy="163.735" r="4" fill="#0" id="circle61"/>
	<circle cx="184.987" cy="59.5301" r="4" fill="#0" id="circle62"/>
	<circle cx="189.786" cy="167.848" r="4" fill="#0" id="circle63"/>
	<circle cx="191.842" cy="62.2723" r="4" fill="#0" id="circle64"/>
	<circle cx="195.27" cy="171.961" r="4" fill="#0" id="circle65"/>
	<circle cx="198.012" cy="65.7001" r="4" fill="#0" id="circle66"/>
	<circle cx="202.126" cy="171.961" r="4" fill="#0" id="circle67"/>
	<circle cx="204.868" cy="68.4423" r="4" fill="#0" id="circle68"/>
	<circle cx="207.61" cy="176.075" r="4" fill="#0" id="circle69"/>
	<circle cx="211.724" cy="71.1845" r="4" fill="#0" id="circle70"/>
	<circle cx="213.095" cy="180.188" r="4" fill="#0" id="circle71"/>
	<circle cx="217.894" cy="74.6123" r="4" fill="#0" id="circle72"/>
	<circle cx="219.265" cy="183.616" r="4" fill="#0" id="circle73"/>
	<circle cx="224.749" cy="74.6123" r="4" fill="#0" id="circle74"/>
	<circle cx="226.12" cy="186.358" r="4" fill="#0" id="circle75"/>
	<circle cx="230.234" cy="79.4112" r="4" fill="#0" id="circle76"/>
	<circle cx="230.919" cy="191.842" r="4" fill="#0" id="circle77"/>
	<circle cx="237.089" cy="82.1534" r="4" fill="#0" id="circle78"/>
	<circle cx="237.089" cy="195.27" r="4" fill="#0" id="circle79"/>
	<circle cx="242.574" cy="199.384" r="4" fill="#0" id="circle80"/>
	<circle cx="243.945" cy="84.2101" r="4" fill="#0" id="circle81"/>
	<circle cx="249.429" cy="88.3234" r="4" fill="#0" id="circle82"/>
	<circle cx="249.429" cy="202.126" r="4" fill="#0" id="circle83"/>
	<circle cx="253.543" cy="207.61" r="4" fill="#0" id="circle84"/>
	<circle cx="256.285" cy="89.009" r="4" fill="#0" id="circle85"/>
	<circle cx="260.398" cy="208.981" r="4" fill="#0" id="circle86"/>
	<circle cx="263.14" cy="91.7512" r="4" fill="#0" id="circle87"/>
	<circle cx="266.568" cy="212.409" r="4" fill="#0" id="circle88"/>
	<circle cx="269.996" cy="94.4934" r="4" fill="#0" id="circle89"/>
	<circle cx="272.053" cy="216.522" r="4" fill="#0" id="circle90"/>
	<circle cx="276.166" cy="97.9212" r="4" fill="#0" id="circle91"/>
	<circle cx="278.223" cy="219.95" r="4" fill="#0" id="circle92"/>
	<circle cx="282.336" cy="101.349" r="4" fill="#0" id="circle93"/>
	<circle cx="283.021" cy="225.435" r="4" fill="#0" id="circle94"/>
	<circle cx="288.506" cy="104.777" r="4" fill="#0" id="circle95"/>
	<circle cx="289.877" cy="227.491" r="4" fill="#0" id="circle96"/>
	<circle cx="294.676" cy="108.205" r="4" fill="#0" id="circle97"/>
	<circle cx="296.733" cy="230.234" r="4" fill="#0" id="circle98"/>
	<circle cx="301.531" cy="110.261" r="4" fill="#0" id="circle99"/>
	<circle cx="301.531" cy="235.718" r="4" fill="#0" id="circle100"/>
	<circle cx="307.016" cy="114.375" r="4" fill="#0" id="circle101"/>
	<circle cx="308.387" cy="238.46" r="4" fill="#0" id="circle102"/>
	<circle cx="313.871" cy="116.431" r="4" fill="#0" id="circle103"/>
	<circle cx="315.243" cy="241.202" r="4" fill="#0" id="circle104"/>
	<circle cx="320.727" cy="118.488" r="4" fill="#0" id="circle105"/>
	<circle cx="321.413" cy="244.63" r="4" fill="#0" id="circle106"/>
	<circle cx="326.211" cy="122.601" r="4" fill="#0" id="circle107"/>
	<circle cx="326.897" cy="248.744" r="4" fill="#0" id="circle108"/>
	<circle cx="331.696" cy="126.715" r="4" fill="#0" id="circle109"/>
	<circle cx="333.067" cy="252.171" r="4" fill="#0" id="circle110"/>
	<circle cx="338.551" cy="128.771" r="4" fill="#0" id="circle111"/>
	<circle cx="339.237" cy="255.599" r="4" fill="#0" id="circle112"/>
	<circle cx="344.721" cy="259.713" r="4" fill="#0" id="circle113"/>
	<circle cx="345.407" cy="131.513" r="4" fill="#0" id="circle114"/>
	<circle cx="350.891" cy="263.14" r="4" fill="#0" id="circle115"/>
	<circle cx="351.577" cy="134.941" r="4" fill="#0" id="circle116"/>
	<circle cx="357.062" cy="266.568" r="4" fill="#0" id="circle117"/>
	<circle cx="357.747" cy="138.369" r="4" fill="#0" id="circle118"/>
	<circle cx="362.546" cy="270.681" r="4" fill="#0" id="circle119"/>
	<circle cx="363.917" cy="141.797" r="4" fill="#0" id="circle120"/>
	<circle cx="369.402" cy="273.424" r="4" fill="#0" id="circle121"/>
	<circle cx="370.773" cy="144.539" r="4" fill="#0" id="circle122"/>
	<circle cx="375.572" cy="276.851" r="4" fill="#0" id="circle123"/>
	<circle cx="376.943" cy="147.967" r="4" fill="#0" id="circle124"/>
	<circle cx="382.427" cy="279.594" r="4" fill="#0" id="circle125"/>
	<circle cx="383.113" cy="151.395" r="4" fill="#0" id="circle126"/>
	<circle cx="387.912" cy="283.707" r="4" fill="#0" id="circle127"/>
	<circle cx="389.968" cy="154.137" r="4" fill="#0" id="circle128"/>
	<circle cx="394.767" cy="285.078" r="4" fill="#0" id="circle129"/>
	<circle cx="396.824" cy="156.879" r="4" fill="#0" id="circle130"/>
	<circle cx="400.252" cy="289.877" r="4" fill="#0" id="circle131"/>
	<circle cx="402.994" cy="160.307" r="4" fill="#0" id="circle132"/>
	<circle cx="405.736" cy="293.99" r="4" fill="#0" id="circle133"/>
	<circle cx="409.849" cy="160.992" r="4" fill="#0" id="circle134"/>
	<circle cx="411.22" cy="298.104" r="4" fill="#0" id="circle135"/>
	<circle cx="416.019" cy="164.42" r="4" fill="#0" id="circle136"/>
	<circle cx="418.076" cy="300.16" r="4" fill="#0" id="circle137"/>
	<circle cx="421.504" cy="168.534" r="4" fill="#0" id="circle138"/>
	<circle cx="423.56" cy="304.274" r="4" fill="#0" id="circle139"/>
	<circle cx="427.674" cy="171.961" r="4" fill="#0" id="circle140"/>
	<circle cx="430.416" cy="307.016" r="4" fill="#0" id="circle141"/>
	<circle cx="434.529" cy="174.704" r="4" fill="#0" id="circle142"/>
	<circle cx="435.9" cy="311.129" r="4" fill="#0" id="circle143"/>
	<circle cx="440.699" cy="178.131" r="4" fill="#0" id="circle144"/>
	<circle cx="442.756" cy="313.186" r="4" fill="#0" id="circle145"/>
	<circle cx="447.555" cy="180.874" r="4" fill="#0" id="circle146"/>
	<circle cx="449.612" cy="315.928" r="4" fill="#0" id="circle147"/>
	<circle cx="453.039" cy="184.987" r="4" fill="#0" id="circle148"/>
	<circle cx="454.411" cy="321.413" r="4" fill="#0" id="circle149"/>
	<circle cx="459.895" cy="187.044" r="4" fill="#0" id="circle150"/>
	<circle cx="461.266" cy="323.469" r="4" fill="#0" id="circle151"/>
	<circle cx="466.065" cy="190.471" r="4" fill="#0" id="circle152"/>
	<circle cx="468.122" cy="325.526" r="4" fill="#0" id="circle153"/>
	<circle cx="472.921" cy="193.214" r="4" fill="#0" id="circle154"/>
	<circle cx="473.606" cy="330.325" r="4" fill="#0" id="circle155"/>
	<circle cx="479.091" cy="196.641" r="4" fill="#0" id="circle156"/>
	<circle cx="479.091" cy="335.124" r="4" fill="#0" id="circle157"/>
	<circle cx="485.261" cy="200.069" r="4" fill="#0" id="circle158"/>
	<circle cx="485.261" cy="338.551" r="4" fill="#0" id="circle159"/>
	<circle cx="491.431" cy="341.979" r="4" fill="#0" id="circle160"/>
	<circle cx="492.116" cy="202.811" r="4" fill="#0" id="circle161"/>
	<circle cx="497.601" cy="206.925" r="4" fill="#0" id="circle162"/>
	<circle cx="498.286" cy="342.665" r="4" fill="#0" id="circle163"/>
	<circle cx="503.771" cy="346.778" r="4" fill="#0" id="circle164"/>
	<circle cx="504.456" cy="209.667" r="4" fill="#0" id="circle165"/>
	<circle cx="510.626" cy="347.464" r="4" fill="#0" id="circle166"/>
	<circle cx="511.312" cy="212.409" r="4" fill="#0" id="circle167"/>
	<circle cx="516.796" cy="350.891" r="4" fill="#0" id="circle168"/>
	<circle cx="517.482" cy="215.837" r="4" fill="#0" id="circle169"/>
	<circle cx="522.966" cy="354.319" r="4" fill="#0" id="circle170"/>
	<circle cx="523.652" cy="219.265" r="4" fill="#0" id="circle171"/>
	<circle cx="529.136" cy="357.747" r="4" fill="#0" id="circle172"/>
	<circle cx="529.822" cy="222.692" r="4" fill="#0" id="circle173"/>
	<circle cx="535.992" cy="360.489" r="4" fill="#0" id="circle174"/>
	<circle cx="536.677" cy="224.749" r="4" fill="#0" id="circle175"/>
	<circle cx="542.847" cy="360.489" r="4" fill="#0" id="circle176"/>
	<circle cx="543.533" cy="227.491" r="4" fill="#0" id="circle177"/>
	<circle cx="549.017" cy="356.376" r="4" fill="#0" id="circle178"/>
	<circle cx="549.703" cy="230.919" r="4" fill="#0" id="circle179"/>
	<circle cx="553.131" cy="349.52" r="4" fill="#0" id="circle180"/>
	<circle cx="556.558" cy="233.661" r="4" fill="#0" id="circle181"/>
	<circle cx="557.244" cy="342.665" r="4" fill="#0" id="circle182"/>
	<circle cx="560.672" cy="335.809" r="4" fill="#0" id="circle183"/>
	<circle cx="562.728" cy="237.089" r="4" fill="#0" id="circle184"/>
	<circle cx="564.1" cy="329.639" r="4" fill="#0" id="circle185"/>
	<circle cx="567.527" cy="322.784" r="4" fill="#0" id="circle186"/>
	<circle cx="569.584" cy="239.831" r="4" fill="#0" id="circle187"/>
	<circle cx="570.955" cy="316.614" r="4" fill="#0" id="circle188"/>
	<circle cx="574.383" cy="310.444" r="4" fill="#0" id="circle189"/>
	<circle cx="576.44" cy="241.202" r="4" fill="#0" id="circle190"/>
	<circle cx="579.867" cy="304.959" r="4" fill="#0" id="circle191"/>
	<circle cx="581.238" cy="246.687" r="4" fill="#0" id="circle192"/>
	<circle cx="586.723" cy="303.588" r="4" fill="#0" id="circle193"/>
	<circle cx="588.094" cy="248.744" r="4" fill="#0" id="circle194"/>
	<circle cx="588.78" cy="275.48" r="4" fill="#0" id="circle195"/>
	<circle cx="592.893" cy="307.016" r="4" fill="#0" id="circle196"/>
	<circle cx="594.95" cy="250.8" r="4" fill="#0" id="circle197"/>
	<circle cx="599.748" cy="309.758" r="4" fill="#0" id="circle198"/>
	<circle cx="600.434" cy="254.914" r="4" fill="#0" id="circle199"/>
	<circle cx="604.547" cy="260.398" r="4" fill="#0" id="circle200"/>
	<circle cx="606.604" cy="312.5" r="4" fill="#0" id="circle201"/>
	<circle cx="610.717" cy="263.826" r="4" fill="#0" id="circle202"/>
	<circle cx="612.774" cy="315.928" r="4" fill="#0" id="circle203"/>
	<circle cx="617.573" cy="265.197" r="4" fill="#0" id="circle204"/>
	<circle cx="618.944" cy="319.356" r="4" fill="#0" id="circle205"/>
	<circle cx="623.057" cy="269.31" r="4" fill="#0" id="circle206"/>
	<circle cx="625.8" cy="321.413" r="4" fill="#0" id="circle207"/>
	<circle cx="628.542" cy="274.109" r="4" fill="#0" id="circle208"/>
	<circle cx="632.655" cy="322.098" r="4" fill="#0" id="circle209"/>
	<circle cx="635.397" cy="276.851" r="4" fill="#0" id="circle210"/>
	<circle cx="638.14" cy="326.211" r="4" fill="#0" id="circle211"/>
	<circle cx="640.882" cy="280.965" r="4" fill="#0" id="circle212"/>
	<circle cx="644.31" cy="329.639" r="4" fill="#0" id="circle213"/>
	<circle cx="646.366" cy="285.078" r="4" fill="#0" id="circle214"/>
	<circle cx="647.737" cy="335.809" r="4" fill="#0" id="circle215"/>
	<circle cx="648.423" cy="342.665" r="4" fill="#0" id="circle216"/>
	<circle cx="653.222" cy="287.82" r="4" fill="#0" id="circle217"/>
	<circle cx="653.907" cy="346.778" r="4" fill="#0" id="circle218"/>
	<circle cx="660.077" cy="290.563" r="4" fill="#0" id="circle219"/>
	<circle cx="660.763" cy="348.149" r="4" fill="#0" id="circle220"/>
	<circle cx="666.247" cy="352.948" r="4" fill="#0" id="circle221"/>
	<circle cx="666.933" cy="292.619" r="4" fill="#0" id="circle222"/>
	<circle cx="671.046" cy="298.104" r="4" fill="#0" id="circle223"/>
	<circle cx="672.417" cy="356.376" r="4" fill="#0" id="circle224"/>
	<circle cx="677.902" cy="300.846" r="4" fill="#0" id="circle225"/>
	<circle cx="678.587" cy="359.804" r="4" fill="#0" id="circle226"/>
	<circle cx="684.072" cy="304.274" r="4" fill="#0" id="circle227"/>
	<circle cx="684.072" cy="364.603" r="4" fill="#0" id="circle228"/>
	<circle cx="689.556" cy="368.716" r="4" fill="#0" id="circle229"/>
	<circle cx="690.927" cy="306.33" r="4" fill="#0" id="circle230"/>
	<circle cx="695.041" cy="372.829" r="4" fill="#0" id="circle231"/>
	<circle cx="697.097" cy="309.758" r="4" fill="#0" id="circle232"/>
	<circle cx="700.525" cy="376.943" r="4" fill="#0" id="circle233"/>
	<circle cx="703.953" cy="311.815" r="4" fill="#0" id="circle234"/>
	<circle cx="706.01" cy="381.056" r="4" fill="#0" id="circle235"/>
	<circle cx="710.123" cy="315.243" r="4" fill="#0" id="circle236"/>
	<circle cx="711.494" cy="385.169" r="4" fill="#0" id="circle237"/>
	<circle cx="716.979" cy="317.985" r="4" fill="#0" id="circle238"/>
	<circle cx="717.664" cy="388.597" r="4" fill="#0" id="circle239"/>
	<circle cx="723.834" cy="320.041" r="4" fill="#0" id="circle240"/>
	<circle cx="723.834" cy="392.025" r="4" fill="#0" id="circle241"/>
	<circle cx="730.004" cy="323.469" r="4" fill="#0" id="circle242"/>
	<circle cx="730.004" cy="395.453" r="4" fill="#0" id="circle243"/>
	<circle cx="735.489" cy="399.566" r="4" fill="#0" id="circle244"/>
	<circle cx="736.174" cy="326.897" r="4" fill="#0" id="circle245"/>
	<circle cx="741.659" cy="331.696" r="4" fill="#0" id="circle246"/>
	<circle cx="741.659" cy="402.994" r="4" fill="#0" id="circle247"/>
	<circle cx="747.143" cy="335.809" r="4" fill="#0" id="circle248"/>
	<circle cx="747.143" cy="407.107" r="4" fill="#0" id="circle249"/>
	<circle cx="753.313" cy="410.535" r="4" fill="#0" id="circle250"/>
	<circle cx="753.999" cy="337.866" r="4" fill="#0" id="circle251"/>
	<circle cx="759.483" cy="413.963" r="4" fill="#0" id="circle252"/>
	<circle cx="760.854" cy="339.923" r="4" fill="#0" id="circle253"/>
	<circle cx="765.653" cy="417.39" r="4" fill="#0" id="circle254"/>
	<circle cx="766.339" cy="344.036" r="4" fill="#0" id="circle255"/>
	<circle cx="771.823" cy="420.818" r="4" fill="#0" id="circle256"/>
	<circle cx="772.509" cy="347.464" r="4" fill="#0" id="circle257"/>
	<circle cx="777.308" cy="424.932" r="4" fill="#0" id="circle258"/>
	<circle cx="779.364" cy="350.206" r="4" fill="#0" id="circle259"/>
	<circle cx="783.478" cy="428.359" r="4" fill="#0" id="circle260"/>
	<circle cx="784.849" cy="354.319" r="4" fill="#0" id="circle261"/>
	<circle cx="790.333" cy="431.102" r="4" fill="#0" id="circle262"/>
	<circle cx="791.704" cy="357.062" r="4" fill="#0" id="circle263"/>
	<circle cx="796.503" cy="434.529" r="4" fill="#0" id="circle264"/>
	<circle cx="798.56" cy="359.804" r="4" fill="#0" id="circle265"/>
	<circle cx="802.673" cy="437.957" r="4" fill="#0" id="circle266"/>
	<circle cx="805.415" cy="362.546" r="4" fill="#0" id="circle267"/>
	<circle cx="808.158" cy="442.07" r="4" fill="#0" id="circle268"/>
	<circle cx="810.9" cy="366.659" r="4" fill="#0" id="circle269"/>
	<circle cx="815.013" cy="444.813" r="4" fill="#0" id="circle270"/>
	<circle cx="817.07" cy="451.668" r="4" fill="#0" id="circle271"/>
	<circle cx="817.755" cy="368.716" r="4" fill="#0" id="circle272"/>
	<circle cx="823.24" cy="372.829" r="4" fill="#0" id="circle273"/>
	<circle cx="823.24" cy="455.096" r="4" fill="#0" id="circle274"/>
	<circle cx="830.095" cy="374.886" r="4" fill="#0" id="circle275"/>
	<circle cx="830.095" cy="457.838" r="4" fill="#0" id="circle276"/>
	<circle cx="836.265" cy="378.314" r="4" fill="#0" id="circle277"/>
	<circle cx="836.951" cy="457.838" r="4" fill="#0" id="circle278"/>
	<circle cx="841.75" cy="382.427" r="4" fill="#0" id="circle279"/>
	<circle cx="843.806" cy="460.581" r="4" fill="#0" id="circle280"/>
	<circle cx="848.605" cy="384.484" r="4" fill="#0" id="circle281"/>
	<circle cx="849.977" cy="464.008" r="4" fill="#0" id="circle282"/>
	<circle cx="854.775" cy="387.912" r="4" fill="#0" id="circle283"/>
	<circle cx="856.832" cy="466.751" r="4" fill="#0" id="circle284"/>
	<circle cx="861.631" cy="390.654" r="4" fill="#0" id="circle285"/>
	<circle cx="863.688" cy="468.807" r="4" fill="#0" id="circle286"/>
	<circle cx="866.43" cy="396.138" r="4" fill="#0" id="circle287"/>
	<circle cx="870.543" cy="471.549" r="4" fill="#0" id="circle288"/>
	<circle cx="873.285" cy="398.195" r="4" fill="#0" id="circle289"/>
	<circle cx="876.713" cy="474.977" r="4" fill="#0" id="circle290"/>
	<circle cx="880.141" cy="400.937" r="4" fill="#0" id="circle291"/>
	<circle cx="882.883" cy="478.405" r="4" fill="#0" id="circle292"/>
	<circle cx="886.997" cy="403.679" r="4" fill="#0" id="circle293"/>
	<circle cx="889.053" cy="481.833" r="4" fill="#0" id="circle294"/>
	<circle cx="892.481" cy="407.793" r="4" fill="#0" id="circle295"/>
	<circle cx="895.909" cy="484.575" r="4" fill="#0" id="circle296"/>
	<circle cx="897.965" cy="411.906" r="4" fill="#0" id="circle297"/>
	<circle cx="901.393" cy="489.374" r="4" fill="#0" id="circle298"/>
	<circle cx="904.821" cy="413.963" r="4" fill="#0" id="circle299"/>
	<circle cx="906.878" cy="494.173" r="4" fill="#0" id="circle300"/>
	<circle cx="910.305" cy="418.076" r="4" fill="#0" id="circle301"/>
	<circle cx="911.677" cy="499.657" r="4" fill="#0" id="circle302"/>
	<circle cx="915.104" cy="505.827" r="4" fill="#0" id="circle303"/>
	<circle cx="916.475" cy="512.683" r="4" fill="#0" id="circle304"/>
	<circle cx="917.161" cy="420.818" r="4" fill="#0" id="circle305"/>
	<circle cx="918.532" cy="519.538" r="4" fill="#0" id="circle306"/>
	<circle cx="924.017" cy="422.875" r="4" fill="#0" id="circle307"/>
	<circle cx="924.017" cy="524.337" r="4" fill="#0" id="circle308"/>
	<circle cx="925.388" cy="483.204" r="4" fill="#0" id="circle309"/>
	<circle cx="929.501" cy="426.988" r="4" fill="#0" id="circle310"/>
	<circle cx="930.187" cy="527.765" r="4" fill="#0" id="circle311"/>
	<circle cx="936.357" cy="429.73" r="4" fill="#0" id="circle312"/>
	<circle cx="937.042" cy="528.451" r="4" fill="#0" id="circle313"/>
	<circle cx="942.527" cy="433.158" r="4" fill="#0" id="circle314"/>
	<circle cx="943.898" cy="528.451" r="4" fill="#0" id="circle315"/>
	<circle cx="949.382" cy="435.215" r="4" fill="#0" id="circle316"/>
	<circle cx="950.753" cy="527.079" r="4" fill="#0" id="circle317"/>
	<circle cx="952.124" cy="476.348" r="4" fill="#0" id="circle318"/>
	<circle cx="955.552" cy="438.643" r="4" fill="#0" id="circle319"/>
	<circle cx="957.609" cy="525.708" r="4" fill="#0" id="circle320"/>
	<circle cx="961.037" cy="443.442" r="4" fill="#0" id="circle321"/>
	<circle cx="964.464" cy="522.966" r="4" fill="#0" id="circle322"/>
	<circle cx="967.892" cy="446.184" r="4" fill="#0" id="circle323"/>
	<circle cx="971.32" cy="520.909" r="4" fill="#0" id="circle324"/>
	<circle cx="973.377" cy="450.297" r="4" fill="#0" id="circle325"/>
	<circle cx="976.804" cy="514.739" r="4" fill="#0" id="circle326"/>
	<circle cx="979.547" cy="453.725" r="4" fill="#0" id="circle327"/>
	<circle cx="981.603" cy="509.255" r="4" fill="#0" id="circle328"/>
	<circle cx="986.402" cy="456.467" r="4" fill="#0" id="circle329"/>
	<circle cx="987.088" cy="504.456" r="4" fill="#0" id="circle330"/>
	<circle cx="989.83" cy="462.637" r="4" fill="#0" id="circle331"/>
	<circle cx="992.572" cy="469.493" r="4" fill="#0" id="circle332"/>
	<circle cx="993.258" cy="501.028" r="4" fill="#0" id="circle333"/>
	<circle cx="996" cy="475.663" r="4" fill="#0" id="circle334"/>
	<circle cx="996" cy="482.518" r="4" fill="#0" id="circle335"/>
	<circle cx="996" cy="494.173" r="4" fill="#0" id="circle336"/>
	</g>
</svg>