<?xml version="1.0" encoding="UTF-8" standalone="no"?>
<!-- Created with CurveBenchmark -->
<svg
	xmlns:dc="http://purl.org/dc/elements/1.1/"
	xmlns:cc="http://creativecommons.org/ns#"
	xmlns:rdf="http://www.w3.org/1999/02/22-rdf-syntax-ns#"
	xmlns:svg="http://www.w3.org/2000/svg"
	xmlns="http://www.w3.org/2000/svg"
	xmlns:sodipodi="http://sodipodi.sourceforge.net/DTD/sodipodi-0.dtd"
	xmlns:inkscape="http://www.inkscape.org/namespaces/inkscape"
	width="1000"
	height="1000"
	id="svg2"
	version="1.1"
	sodipodi:docname="manifold/vicur-children-4.png.txt">
<defs
	id="defs4" />
<metadata
	id="metadata7">
	<rdf:RDF>
		<cc:Work
			rdf:about="">
			<dc:format>image/svg+xml</dc:format>
			<dc:type
				rdf:resource="http://purl.org/dc/dcmitype/StillImage" />
			<dc:title></dc:title>
		</cc:Work>
	</rdf:RDF>
</metadata>
<g
	inkscape:label="Layer 1"
	inkscape:groupmode="layer"
	id="layer1">
	<path style="fill:none;stroke:red;stroke-width:1px;stroke-linecap:butt;stroke-linejoin:miter;stroke-opacity:1" d="M 4,311.986 4,323.923 z" id="boundary" inkscape:connector-curvature="0" />
	<path style="fill:none;stroke:red;stroke-width:1px;stroke-linecap:butt;stroke-linejoin:miter;stroke-opacity:1" d="M 4,311.986 9.96871,300.048 z" id="boundary" inkscape:connector-curvature="0" />
	<path style="fill:none;stroke:red;stroke-width:1px;stroke-linecap:butt;stroke-linejoin:miter;stroke-opacity:1" d="M 4,323.923 4,335.86 z" id="boundary" inkscape:connector-curvature="0" />
	<path style="fill:none;stroke:red;stroke-width:1px;stroke-linecap:butt;stroke-linejoin:miter;stroke-opacity:1" d="M 4,335.86 4,347.798 z" id="boundary" inkscape:connector-curvature="0" />
	<path style="fill:none;stroke:red;stroke-width:1px;stroke-linecap:butt;stroke-linejoin:miter;stroke-opacity:1" d="M 4,347.798 4,359.735 z" id="boundary" inkscape:connector-curvature="0" />
	<path style="fill:none;stroke:red;stroke-width:1px;stroke-linecap:butt;stroke-linejoin:miter;stroke-opacity:1" d="M 4,359.735 4,371.673 z" id="boundary" inkscape:connector-curvature="0" />
	<path style="fill:none;stroke:red;stroke-width:1px;stroke-linecap:butt;stroke-linejoin:miter;stroke-opacity:1" d="M 4,371.673 9.96871,382.416 z" id="boundary" inkscape:connector-curvature="0" />
	<path style="fill:none;stroke:red;stroke-width:1px;stroke-linecap:butt;stroke-linejoin:miter;stroke-opacity:1" d="M 9.96871,300.048 15.9374,288.111 z" id="boundary" inkscape:connector-curvature="0" />
	<path style="fill:none;stroke:red;stroke-width:1px;stroke-linecap:butt;stroke-linejoin:miter;stroke-opacity:1" d="M 9.96871,382.416 15.9374,393.16 z" id="boundary" inkscape:connector-curvature="0" />
	<path style="fill:none;stroke:red;stroke-width:1px;stroke-linecap:butt;stroke-linejoin:miter;stroke-opacity:1" d="M 9.96871,437.329 9.96871,449.266 z" id="boundary" inkscape:connector-curvature="0" />
	<path style="fill:none;stroke:red;stroke-width:1px;stroke-linecap:butt;stroke-linejoin:miter;stroke-opacity:1" d="M 9.96871,437.329 15.9374,417.035 z" id="boundary" inkscape:connector-curvature="0" />
	<path style="fill:none;stroke:red;stroke-width:1px;stroke-linecap:butt;stroke-linejoin:miter;stroke-opacity:1" d="M 9.96871,449.266 15.9374,460.01 z" id="boundary" inkscape:connector-curvature="0" />
	<path style="fill:none;stroke:red;stroke-width:1px;stroke-linecap:butt;stroke-linejoin:miter;stroke-opacity:1" d="M 15.9374,288.111 25.4874,278.561 z" id="boundary" inkscape:connector-curvature="0" />
	<path style="fill:none;stroke:red;stroke-width:1px;stroke-linecap:butt;stroke-linejoin:miter;stroke-opacity:1" d="M 15.9374,393.16 15.9374,405.097 z" id="boundary" inkscape:connector-curvature="0" />
	<path style="fill:none;stroke:red;stroke-width:1px;stroke-linecap:butt;stroke-linejoin:miter;stroke-opacity:1" d="M 15.9374,405.097 15.9374,417.035 z" id="boundary" inkscape:connector-curvature="0" />
	<path style="fill:none;stroke:red;stroke-width:1px;stroke-linecap:butt;stroke-linejoin:miter;stroke-opacity:1" d="M 15.9374,460.01 15.9374,471.947 z" id="boundary" inkscape:connector-curvature="0" />
	<path style="fill:none;stroke:red;stroke-width:1px;stroke-linecap:butt;stroke-linejoin:miter;stroke-opacity:1" d="M 15.9374,471.947 15.9374,483.884 z" id="boundary" inkscape:connector-curvature="0" />
	<path style="fill:none;stroke:red;stroke-width:1px;stroke-linecap:butt;stroke-linejoin:miter;stroke-opacity:1" d="M 15.9374,483.884 21.9061,494.628 z" id="boundary" inkscape:connector-curvature="0" />
	<path style="fill:none;stroke:red;stroke-width:1px;stroke-linecap:butt;stroke-linejoin:miter;stroke-opacity:1" d="M 21.9061,494.628 21.9061,506.566 z" id="boundary" inkscape:connector-curvature="0" />
	<path style="fill:none;stroke:red;stroke-width:1px;stroke-linecap:butt;stroke-linejoin:miter;stroke-opacity:1" d="M 21.9061,506.566 27.8748,517.309 z" id="boundary" inkscape:connector-curvature="0" />
	<path style="fill:none;stroke:red;stroke-width:1px;stroke-linecap:butt;stroke-linejoin:miter;stroke-opacity:1" d="M 25.4874,278.561 31.4561,266.623 z" id="boundary" inkscape:connector-curvature="0" />
	<path style="fill:none;stroke:red;stroke-width:1px;stroke-linecap:butt;stroke-linejoin:miter;stroke-opacity:1" d="M 27.8748,73.2371 27.8748,85.1745 z" id="boundary" inkscape:connector-curvature="0" />
	<path style="fill:none;stroke:red;stroke-width:1px;stroke-linecap:butt;stroke-linejoin:miter;stroke-opacity:1" d="M 27.8748,73.2371 33.8436,61.2996 z" id="boundary" inkscape:connector-curvature="0" />
	<path style="fill:none;stroke:red;stroke-width:1px;stroke-linecap:butt;stroke-linejoin:miter;stroke-opacity:1" d="M 27.8748,85.1745 27.8748,97.1119 z" id="boundary" inkscape:connector-curvature="0" />
	<path style="fill:none;stroke:red;stroke-width:1px;stroke-linecap:butt;stroke-linejoin:miter;stroke-opacity:1" d="M 27.8748,97.1119 27.8748,109.049 z" id="boundary" inkscape:connector-curvature="0" />
	<path style="fill:none;stroke:red;stroke-width:1px;stroke-linecap:butt;stroke-linejoin:miter;stroke-opacity:1" d="M 27.8748,109.049 27.8748,120.987 z" id="boundary" inkscape:connector-curvature="0" />
	<path style="fill:none;stroke:red;stroke-width:1px;stroke-linecap:butt;stroke-linejoin:miter;stroke-opacity:1" d="M 27.8748,120.987 33.8436,131.73 z" id="boundary" inkscape:connector-curvature="0" />
	<path style="fill:none;stroke:red;stroke-width:1px;stroke-linecap:butt;stroke-linejoin:miter;stroke-opacity:1" d="M 27.8748,517.309 27.8748,529.247 z" id="boundary" inkscape:connector-curvature="0" />
	<path style="fill:none;stroke:red;stroke-width:1px;stroke-linecap:butt;stroke-linejoin:miter;stroke-opacity:1" d="M 27.8748,529.247 33.8436,539.99 z" id="boundary" inkscape:connector-curvature="0" />
	<path style="fill:none;stroke:red;stroke-width:1px;stroke-linecap:butt;stroke-linejoin:miter;stroke-opacity:1" d="M 31.4561,266.623 41.006,257.073 z" id="boundary" inkscape:connector-curvature="0" />
	<path style="fill:none;stroke:red;stroke-width:1px;stroke-linecap:butt;stroke-linejoin:miter;stroke-opacity:1" d="M 33.8436,61.2996 39.8123,49.3622 z" id="boundary" inkscape:connector-curvature="0" />
	<path style="fill:none;stroke:red;stroke-width:1px;stroke-linecap:butt;stroke-linejoin:miter;stroke-opacity:1" d="M 33.8436,131.73 39.8123,142.474 z" id="boundary" inkscape:connector-curvature="0" />
	<path style="fill:none;stroke:red;stroke-width:1px;stroke-linecap:butt;stroke-linejoin:miter;stroke-opacity:1" d="M 33.8436,539.99 35.0373,551.928 z" id="boundary" inkscape:connector-curvature="0" />
	<path style="fill:none;stroke:red;stroke-width:1px;stroke-linecap:butt;stroke-linejoin:miter;stroke-opacity:1" d="M 35.0373,551.928 39.8123,563.865 z" id="boundary" inkscape:connector-curvature="0" />
	<path style="fill:none;stroke:red;stroke-width:1px;stroke-linecap:butt;stroke-linejoin:miter;stroke-opacity:1" d="M 39.8123,49.3622 49.3622,39.8123 z" id="boundary" inkscape:connector-curvature="0" />
	<path style="fill:none;stroke:red;stroke-width:1px;stroke-linecap:butt;stroke-linejoin:miter;stroke-opacity:1" d="M 39.8123,142.474 43.3935,154.412 z" id="boundary" inkscape:connector-curvature="0" />
	<path style="fill:none;stroke:red;stroke-width:1px;stroke-linecap:butt;stroke-linejoin:miter;stroke-opacity:1" d="M 39.8123,563.865 39.8123,575.803 z" id="boundary" inkscape:connector-curvature="0" />
	<path style="fill:none;stroke:red;stroke-width:1px;stroke-linecap:butt;stroke-linejoin:miter;stroke-opacity:1" d="M 39.8123,575.803 39.8123,587.74 z" id="boundary" inkscape:connector-curvature="0" />
	<path style="fill:none;stroke:red;stroke-width:1px;stroke-linecap:butt;stroke-linejoin:miter;stroke-opacity:1" d="M 39.8123,587.74 39.8123,599.677 z" id="boundary" inkscape:connector-curvature="0" />
	<path style="fill:none;stroke:red;stroke-width:1px;stroke-linecap:butt;stroke-linejoin:miter;stroke-opacity:1" d="M 39.8123,599.677 39.8123,611.615 z" id="boundary" inkscape:connector-curvature="0" />
	<path style="fill:none;stroke:red;stroke-width:1px;stroke-linecap:butt;stroke-linejoin:miter;stroke-opacity:1" d="M 39.8123,611.615 45.781,622.359 z" id="boundary" inkscape:connector-curvature="0" />
	<path style="fill:none;stroke:red;stroke-width:1px;stroke-linecap:butt;stroke-linejoin:miter;stroke-opacity:1" d="M 41.006,257.073 52.9434,251.105 z" id="boundary" inkscape:connector-curvature="0" />
	<path style="fill:none;stroke:red;stroke-width:1px;stroke-linecap:butt;stroke-linejoin:miter;stroke-opacity:1" d="M 43.3935,154.412 49.3622,165.155 z" id="boundary" inkscape:connector-curvature="0" />
	<path style="fill:none;stroke:red;stroke-width:1px;stroke-linecap:butt;stroke-linejoin:miter;stroke-opacity:1" d="M 45.781,622.359 51.7497,633.102 z" id="boundary" inkscape:connector-curvature="0" />
	<path style="fill:none;stroke:red;stroke-width:1px;stroke-linecap:butt;stroke-linejoin:miter;stroke-opacity:1" d="M 49.3622,39.8123 58.9122,30.2623 z" id="boundary" inkscape:connector-curvature="0" />
	<path style="fill:none;stroke:red;stroke-width:1px;stroke-linecap:butt;stroke-linejoin:miter;stroke-opacity:1" d="M 49.3622,165.155 57.7184,174.705 z" id="boundary" inkscape:connector-curvature="0" />
	<path style="fill:none;stroke:red;stroke-width:1px;stroke-linecap:butt;stroke-linejoin:miter;stroke-opacity:1" d="M 51.7497,633.102 57.7184,643.846 z" id="boundary" inkscape:connector-curvature="0" />
	<path style="fill:none;stroke:red;stroke-width:1px;stroke-linecap:butt;stroke-linejoin:miter;stroke-opacity:1" d="M 52.9434,251.105 62.4934,242.748 z" id="boundary" inkscape:connector-curvature="0" />
	<path style="fill:none;stroke:red;stroke-width:1px;stroke-linecap:butt;stroke-linejoin:miter;stroke-opacity:1" d="M 57.7184,174.705 67.2684,183.061 z" id="boundary" inkscape:connector-curvature="0" />
	<path style="fill:none;stroke:red;stroke-width:1px;stroke-linecap:butt;stroke-linejoin:miter;stroke-opacity:1" d="M 57.7184,643.846 57.7184,655.783 z" id="boundary" inkscape:connector-curvature="0" />
	<path style="fill:none;stroke:red;stroke-width:1px;stroke-linecap:butt;stroke-linejoin:miter;stroke-opacity:1" d="M 57.7184,655.783 63.6871,666.527 z" id="boundary" inkscape:connector-curvature="0" />
	<path style="fill:none;stroke:red;stroke-width:1px;stroke-linecap:butt;stroke-linejoin:miter;stroke-opacity:1" d="M 58.9122,30.2623 70.8496,24.2936 z" id="boundary" inkscape:connector-curvature="0" />
	<path style="fill:none;stroke:red;stroke-width:1px;stroke-linecap:butt;stroke-linejoin:miter;stroke-opacity:1" d="M 62.4934,242.748 70.8496,233.199 z" id="boundary" inkscape:connector-curvature="0" />
	<path style="fill:none;stroke:red;stroke-width:1px;stroke-linecap:butt;stroke-linejoin:miter;stroke-opacity:1" d="M 63.6871,666.527 69.6558,677.271 z" id="boundary" inkscape:connector-curvature="0" />
	<path style="fill:none;stroke:red;stroke-width:1px;stroke-linecap:butt;stroke-linejoin:miter;stroke-opacity:1" d="M 67.2684,183.061 75.6245,192.611 z" id="boundary" inkscape:connector-curvature="0" />
	<path style="fill:none;stroke:red;stroke-width:1px;stroke-linecap:butt;stroke-linejoin:miter;stroke-opacity:1" d="M 69.6558,677.271 75.6245,688.014 z" id="boundary" inkscape:connector-curvature="0" />
	<path style="fill:none;stroke:red;stroke-width:1px;stroke-linecap:butt;stroke-linejoin:miter;stroke-opacity:1" d="M 70.8496,24.2936 80.3995,15.9374 z" id="boundary" inkscape:connector-curvature="0" />
	<path style="fill:none;stroke:red;stroke-width:1px;stroke-linecap:butt;stroke-linejoin:miter;stroke-opacity:1" d="M 70.8496,233.199 80.3995,224.842 z" id="boundary" inkscape:connector-curvature="0" />
	<path style="fill:none;stroke:red;stroke-width:1px;stroke-linecap:butt;stroke-linejoin:miter;stroke-opacity:1" d="M 75.6245,192.611 81.5933,203.355 z" id="boundary" inkscape:connector-curvature="0" />
	<path style="fill:none;stroke:red;stroke-width:1px;stroke-linecap:butt;stroke-linejoin:miter;stroke-opacity:1" d="M 75.6245,688.014 85.1745,696.371 z" id="boundary" inkscape:connector-curvature="0" />
	<path style="fill:none;stroke:red;stroke-width:1px;stroke-linecap:butt;stroke-linejoin:miter;stroke-opacity:1" d="M 80.3995,15.9374 91.1432,9.96871 z" id="boundary" inkscape:connector-curvature="0" />
	<path style="fill:none;stroke:red;stroke-width:1px;stroke-linecap:butt;stroke-linejoin:miter;stroke-opacity:1" d="M 80.3995,224.842 81.5933,203.355 z" id="boundary" inkscape:connector-curvature="0" />
	<path style="fill:none;stroke:red;stroke-width:1px;stroke-linecap:butt;stroke-linejoin:miter;stroke-opacity:1" d="M 85.1745,696.371 97.1119,697.564 z" id="boundary" inkscape:connector-curvature="0" />
	<path style="fill:none;stroke:red;stroke-width:1px;stroke-linecap:butt;stroke-linejoin:miter;stroke-opacity:1" d="M 91.1432,9.96871 103.081,4 z" id="boundary" inkscape:connector-curvature="0" />
	<path style="fill:none;stroke:red;stroke-width:1px;stroke-linecap:butt;stroke-linejoin:miter;stroke-opacity:1" d="M 93.5307,789.483 93.5307,801.42 z" id="boundary" inkscape:connector-curvature="0" />
	<path style="fill:none;stroke:red;stroke-width:1px;stroke-linecap:butt;stroke-linejoin:miter;stroke-opacity:1" d="M 93.5307,789.483 99.4994,777.545 z" id="boundary" inkscape:connector-curvature="0" />
	<path style="fill:none;stroke:red;stroke-width:1px;stroke-linecap:butt;stroke-linejoin:miter;stroke-opacity:1" d="M 93.5307,801.42 93.5307,813.357 z" id="boundary" inkscape:connector-curvature="0" />
	<path style="fill:none;stroke:red;stroke-width:1px;stroke-linecap:butt;stroke-linejoin:miter;stroke-opacity:1" d="M 93.5307,813.357 93.5307,825.295 z" id="boundary" inkscape:connector-curvature="0" />
	<path style="fill:none;stroke:red;stroke-width:1px;stroke-linecap:butt;stroke-linejoin:miter;stroke-opacity:1" d="M 93.5307,825.295 93.5307,837.232 z" id="boundary" inkscape:connector-curvature="0" />
	<path style="fill:none;stroke:red;stroke-width:1px;stroke-linecap:butt;stroke-linejoin:miter;stroke-opacity:1" d="M 93.5307,837.232 99.4994,847.976 z" id="boundary" inkscape:connector-curvature="0" />
	<path style="fill:none;stroke:red;stroke-width:1px;stroke-linecap:butt;stroke-linejoin:miter;stroke-opacity:1" d="M 97.1119,697.564 106.662,705.921 z" id="boundary" inkscape:connector-curvature="0" />
	<path style="fill:none;stroke:red;stroke-width:1px;stroke-linecap:butt;stroke-linejoin:miter;stroke-opacity:1" d="M 99.4994,777.545 105.468,759.639 z" id="boundary" inkscape:connector-curvature="0" />
	<path style="fill:none;stroke:red;stroke-width:1px;stroke-linecap:butt;stroke-linejoin:miter;stroke-opacity:1" d="M 99.4994,847.976 99.4994,859.913 z" id="boundary" inkscape:connector-curvature="0" />
	<path style="fill:none;stroke:red;stroke-width:1px;stroke-linecap:butt;stroke-linejoin:miter;stroke-opacity:1" d="M 99.4994,859.913 105.468,870.657 z" id="boundary" inkscape:connector-curvature="0" />
	<path style="fill:none;stroke:red;stroke-width:1px;stroke-linecap:butt;stroke-linejoin:miter;stroke-opacity:1" d="M 103.081,4 115.018,4 z" id="boundary" inkscape:connector-curvature="0" />
	<path style="fill:none;stroke:red;stroke-width:1px;stroke-linecap:butt;stroke-linejoin:miter;stroke-opacity:1" d="M 105.468,759.639 111.437,741.733 z" id="boundary" inkscape:connector-curvature="0" />
	<path style="fill:none;stroke:red;stroke-width:1px;stroke-linecap:butt;stroke-linejoin:miter;stroke-opacity:1" d="M 105.468,870.657 111.437,881.401 z" id="boundary" inkscape:connector-curvature="0" />
	<path style="fill:none;stroke:red;stroke-width:1px;stroke-linecap:butt;stroke-linejoin:miter;stroke-opacity:1" d="M 105.468,938.7 105.468,950.638 z" id="boundary" inkscape:connector-curvature="0" />
	<path style="fill:none;stroke:red;stroke-width:1px;stroke-linecap:butt;stroke-linejoin:miter;stroke-opacity:1" d="M 105.468,938.7 111.437,920.794 z" id="boundary" inkscape:connector-curvature="0" />
	<path style="fill:none;stroke:red;stroke-width:1px;stroke-linecap:butt;stroke-linejoin:miter;stroke-opacity:1" d="M 105.468,950.638 105.468,962.575 z" id="boundary" inkscape:connector-curvature="0" />
	<path style="fill:none;stroke:red;stroke-width:1px;stroke-linecap:butt;stroke-linejoin:miter;stroke-opacity:1" d="M 105.468,962.575 115.018,970.931 z" id="boundary" inkscape:connector-curvature="0" />
	<path style="fill:none;stroke:red;stroke-width:1px;stroke-linecap:butt;stroke-linejoin:miter;stroke-opacity:1" d="M 106.662,705.921 111.437,717.858 z" id="boundary" inkscape:connector-curvature="0" />
	<path style="fill:none;stroke:red;stroke-width:1px;stroke-linecap:butt;stroke-linejoin:miter;stroke-opacity:1" d="M 111.437,717.858 111.437,729.795 z" id="boundary" inkscape:connector-curvature="0" />
	<path style="fill:none;stroke:red;stroke-width:1px;stroke-linecap:butt;stroke-linejoin:miter;stroke-opacity:1" d="M 111.437,729.795 111.437,741.733 z" id="boundary" inkscape:connector-curvature="0" />
	<path style="fill:none;stroke:red;stroke-width:1px;stroke-linecap:butt;stroke-linejoin:miter;stroke-opacity:1" d="M 111.437,881.401 113.824,893.338 z" id="boundary" inkscape:connector-curvature="0" />
	<path style="fill:none;stroke:red;stroke-width:1px;stroke-linecap:butt;stroke-linejoin:miter;stroke-opacity:1" d="M 111.437,920.794 117.406,905.276 z" id="boundary" inkscape:connector-curvature="0" />
	<path style="fill:none;stroke:red;stroke-width:1px;stroke-linecap:butt;stroke-linejoin:miter;stroke-opacity:1" d="M 113.824,893.338 117.406,905.276 z" id="boundary" inkscape:connector-curvature="0" />
	<path style="fill:none;stroke:red;stroke-width:1px;stroke-linecap:butt;stroke-linejoin:miter;stroke-opacity:1" d="M 115.018,4 126.955,4 z" id="boundary" inkscape:connector-curvature="0" />
	<path style="fill:none;stroke:red;stroke-width:1px;stroke-linecap:butt;stroke-linejoin:miter;stroke-opacity:1" d="M 115.018,970.931 124.568,978.094 z" id="boundary" inkscape:connector-curvature="0" />
	<path style="fill:none;stroke:red;stroke-width:1px;stroke-linecap:butt;stroke-linejoin:miter;stroke-opacity:1" d="M 124.568,978.094 135.312,984.063 z" id="boundary" inkscape:connector-curvature="0" />
	<path style="fill:none;stroke:red;stroke-width:1px;stroke-linecap:butt;stroke-linejoin:miter;stroke-opacity:1" d="M 126.955,4 138.893,4 z" id="boundary" inkscape:connector-curvature="0" />
	<path style="fill:none;stroke:red;stroke-width:1px;stroke-linecap:butt;stroke-linejoin:miter;stroke-opacity:1" d="M 135.312,984.063 147.249,984.063 z" id="boundary" inkscape:connector-curvature="0" />
	<path style="fill:none;stroke:red;stroke-width:1px;stroke-linecap:butt;stroke-linejoin:miter;stroke-opacity:1" d="M 138.893,4 150.83,4 z" id="boundary" inkscape:connector-curvature="0" />
	<path style="fill:none;stroke:red;stroke-width:1px;stroke-linecap:butt;stroke-linejoin:miter;stroke-opacity:1" d="M 147.249,984.063 157.993,990.031 z" id="boundary" inkscape:connector-curvature="0" />
	<path style="fill:none;stroke:red;stroke-width:1px;stroke-linecap:butt;stroke-linejoin:miter;stroke-opacity:1" d="M 150.83,4 162.768,4 z" id="boundary" inkscape:connector-curvature="0" />
	<path style="fill:none;stroke:red;stroke-width:1px;stroke-linecap:butt;stroke-linejoin:miter;stroke-opacity:1" d="M 157.993,990.031 169.93,990.031 z" id="boundary" inkscape:connector-curvature="0" />
	<path style="fill:none;stroke:red;stroke-width:1px;stroke-linecap:butt;stroke-linejoin:miter;stroke-opacity:1" d="M 162.768,4 174.705,4 z" id="boundary" inkscape:connector-curvature="0" />
	<path style="fill:none;stroke:red;stroke-width:1px;stroke-linecap:butt;stroke-linejoin:miter;stroke-opacity:1" d="M 169.93,990.031 180.674,996 z" id="boundary" inkscape:connector-curvature="0" />
	<path style="fill:none;stroke:red;stroke-width:1px;stroke-linecap:butt;stroke-linejoin:miter;stroke-opacity:1" d="M 174.705,4 185.449,9.96871 z" id="boundary" inkscape:connector-curvature="0" />
	<path style="fill:none;stroke:red;stroke-width:1px;stroke-linecap:butt;stroke-linejoin:miter;stroke-opacity:1" d="M 180.674,996 192.611,996 z" id="boundary" inkscape:connector-curvature="0" />
	<path style="fill:none;stroke:red;stroke-width:1px;stroke-linecap:butt;stroke-linejoin:miter;stroke-opacity:1" d="M 185.449,9.96871 197.386,9.96871 z" id="boundary" inkscape:connector-curvature="0" />
	<path style="fill:none;stroke:red;stroke-width:1px;stroke-linecap:butt;stroke-linejoin:miter;stroke-opacity:1" d="M 192.611,996 204.549,996 z" id="boundary" inkscape:connector-curvature="0" />
	<path style="fill:none;stroke:red;stroke-width:1px;stroke-linecap:butt;stroke-linejoin:miter;stroke-opacity:1" d="M 197.386,9.96871 208.13,15.9374 z" id="boundary" inkscape:connector-curvature="0" />
	<path style="fill:none;stroke:red;stroke-width:1px;stroke-linecap:butt;stroke-linejoin:miter;stroke-opacity:1" d="M 204.549,996 216.486,996 z" id="boundary" inkscape:connector-curvature="0" />
	<path style="fill:none;stroke:red;stroke-width:1px;stroke-linecap:butt;stroke-linejoin:miter;stroke-opacity:1" d="M 208.13,15.9374 220.067,19.5187 z" id="boundary" inkscape:connector-curvature="0" />
	<path style="fill:none;stroke:red;stroke-width:1px;stroke-linecap:butt;stroke-linejoin:miter;stroke-opacity:1" d="M 216.486,996 228.424,996 z" id="boundary" inkscape:connector-curvature="0" />
	<path style="fill:none;stroke:red;stroke-width:1px;stroke-linecap:butt;stroke-linejoin:miter;stroke-opacity:1" d="M 220.067,19.5187 229.617,27.8748 z" id="boundary" inkscape:connector-curvature="0" />
	<path style="fill:none;stroke:red;stroke-width:1px;stroke-linecap:butt;stroke-linejoin:miter;stroke-opacity:1" d="M 228.424,996 240.361,996 z" id="boundary" inkscape:connector-curvature="0" />
	<path style="fill:none;stroke:red;stroke-width:1px;stroke-linecap:butt;stroke-linejoin:miter;stroke-opacity:1" d="M 229.617,27.8748 240.361,33.8436 z" id="boundary" inkscape:connector-curvature="0" />
	<path style="fill:none;stroke:red;stroke-width:1px;stroke-linecap:butt;stroke-linejoin:miter;stroke-opacity:1" d="M 240.361,33.8436 248.717,43.3935 z" id="boundary" inkscape:connector-curvature="0" />
	<path style="fill:none;stroke:red;stroke-width:1px;stroke-linecap:butt;stroke-linejoin:miter;stroke-opacity:1" d="M 240.361,996 252.298,996 z" id="boundary" inkscape:connector-curvature="0" />
	<path style="fill:none;stroke:red;stroke-width:1px;stroke-linecap:butt;stroke-linejoin:miter;stroke-opacity:1" d="M 243.942,882.594 249.911,870.657 z" id="boundary" inkscape:connector-curvature="0" />
	<path style="fill:none;stroke:red;stroke-width:1px;stroke-linecap:butt;stroke-linejoin:miter;stroke-opacity:1" d="M 243.942,882.594 249.911,893.338 z" id="boundary" inkscape:connector-curvature="0" />
	<path style="fill:none;stroke:red;stroke-width:1px;stroke-linecap:butt;stroke-linejoin:miter;stroke-opacity:1" d="M 248.717,43.3935 258.267,51.7497 z" id="boundary" inkscape:connector-curvature="0" />
	<path style="fill:none;stroke:red;stroke-width:1px;stroke-linecap:butt;stroke-linejoin:miter;stroke-opacity:1" d="M 249.911,858.72 249.911,870.657 z" id="boundary" inkscape:connector-curvature="0" />
	<path style="fill:none;stroke:red;stroke-width:1px;stroke-linecap:butt;stroke-linejoin:miter;stroke-opacity:1" d="M 249.911,858.72 255.88,846.782 z" id="boundary" inkscape:connector-curvature="0" />
	<path style="fill:none;stroke:red;stroke-width:1px;stroke-linecap:butt;stroke-linejoin:miter;stroke-opacity:1" d="M 249.911,893.338 260.655,899.307 z" id="boundary" inkscape:connector-curvature="0" />
	<path style="fill:none;stroke:red;stroke-width:1px;stroke-linecap:butt;stroke-linejoin:miter;stroke-opacity:1" d="M 252.298,996 264.236,996 z" id="boundary" inkscape:connector-curvature="0" />
	<path style="fill:none;stroke:red;stroke-width:1px;stroke-linecap:butt;stroke-linejoin:miter;stroke-opacity:1" d="M 255.88,232.005 261.848,220.067 z" id="boundary" inkscape:connector-curvature="0" />
	<path style="fill:none;stroke:red;stroke-width:1px;stroke-linecap:butt;stroke-linejoin:miter;stroke-opacity:1" d="M 255.88,232.005 261.848,242.748 z" id="boundary" inkscape:connector-curvature="0" />
	<path style="fill:none;stroke:red;stroke-width:1px;stroke-linecap:butt;stroke-linejoin:miter;stroke-opacity:1" d="M 255.88,846.782 261.848,834.845 z" id="boundary" inkscape:connector-curvature="0" />
	<path style="fill:none;stroke:red;stroke-width:1px;stroke-linecap:butt;stroke-linejoin:miter;stroke-opacity:1" d="M 258.267,51.7497 266.623,61.2996 z" id="boundary" inkscape:connector-curvature="0" />
	<path style="fill:none;stroke:red;stroke-width:1px;stroke-linecap:butt;stroke-linejoin:miter;stroke-opacity:1" d="M 260.655,899.307 271.398,905.276 z" id="boundary" inkscape:connector-curvature="0" />
	<path style="fill:none;stroke:red;stroke-width:1px;stroke-linecap:butt;stroke-linejoin:miter;stroke-opacity:1" d="M 261.848,208.13 261.848,220.067 z" id="boundary" inkscape:connector-curvature="0" />
	<path style="fill:none;stroke:red;stroke-width:1px;stroke-linecap:butt;stroke-linejoin:miter;stroke-opacity:1" d="M 261.848,208.13 267.817,190.224 z" id="boundary" inkscape:connector-curvature="0" />
	<path style="fill:none;stroke:red;stroke-width:1px;stroke-linecap:butt;stroke-linejoin:miter;stroke-opacity:1" d="M 261.848,242.748 267.817,253.492 z" id="boundary" inkscape:connector-curvature="0" />
	<path style="fill:none;stroke:red;stroke-width:1px;stroke-linecap:butt;stroke-linejoin:miter;stroke-opacity:1" d="M 261.848,834.845 267.817,816.939 z" id="boundary" inkscape:connector-curvature="0" />
	<path style="fill:none;stroke:red;stroke-width:1px;stroke-linecap:butt;stroke-linejoin:miter;stroke-opacity:1" d="M 264.236,996 276.173,994.806 z" id="boundary" inkscape:connector-curvature="0" />
	<path style="fill:none;stroke:red;stroke-width:1px;stroke-linecap:butt;stroke-linejoin:miter;stroke-opacity:1" d="M 266.623,61.2996 272.592,72.0433 z" id="boundary" inkscape:connector-curvature="0" />
	<path style="fill:none;stroke:red;stroke-width:1px;stroke-linecap:butt;stroke-linejoin:miter;stroke-opacity:1" d="M 267.817,190.224 273.786,178.286 z" id="boundary" inkscape:connector-curvature="0" />
	<path style="fill:none;stroke:red;stroke-width:1px;stroke-linecap:butt;stroke-linejoin:miter;stroke-opacity:1" d="M 267.817,253.492 277.367,261.848 z" id="boundary" inkscape:connector-curvature="0" />
	<path style="fill:none;stroke:red;stroke-width:1px;stroke-linecap:butt;stroke-linejoin:miter;stroke-opacity:1" d="M 267.817,816.939 273.786,799.032 z" id="boundary" inkscape:connector-curvature="0" />
	<path style="fill:none;stroke:red;stroke-width:1px;stroke-linecap:butt;stroke-linejoin:miter;stroke-opacity:1" d="M 271.398,905.276 282.142,911.244 z" id="boundary" inkscape:connector-curvature="0" />
	<path style="fill:none;stroke:red;stroke-width:1px;stroke-linecap:butt;stroke-linejoin:miter;stroke-opacity:1" d="M 272.592,72.0433 273.786,83.9807 z" id="boundary" inkscape:connector-curvature="0" />
	<path style="fill:none;stroke:red;stroke-width:1px;stroke-linecap:butt;stroke-linejoin:miter;stroke-opacity:1" d="M 273.786,83.9807 273.786,95.9182 z" id="boundary" inkscape:connector-curvature="0" />
	<path style="fill:none;stroke:red;stroke-width:1px;stroke-linecap:butt;stroke-linejoin:miter;stroke-opacity:1" d="M 273.786,95.9182 273.786,107.856 z" id="boundary" inkscape:connector-curvature="0" />
	<path style="fill:none;stroke:red;stroke-width:1px;stroke-linecap:butt;stroke-linejoin:miter;stroke-opacity:1" d="M 273.786,107.856 273.786,119.793 z" id="boundary" inkscape:connector-curvature="0" />
	<path style="fill:none;stroke:red;stroke-width:1px;stroke-linecap:butt;stroke-linejoin:miter;stroke-opacity:1" d="M 273.786,119.793 273.786,131.73 z" id="boundary" inkscape:connector-curvature="0" />
	<path style="fill:none;stroke:red;stroke-width:1px;stroke-linecap:butt;stroke-linejoin:miter;stroke-opacity:1" d="M 273.786,131.73 273.786,143.668 z" id="boundary" inkscape:connector-curvature="0" />
	<path style="fill:none;stroke:red;stroke-width:1px;stroke-linecap:butt;stroke-linejoin:miter;stroke-opacity:1" d="M 273.786,143.668 273.786,155.605 z" id="boundary" inkscape:connector-curvature="0" />
	<path style="fill:none;stroke:red;stroke-width:1px;stroke-linecap:butt;stroke-linejoin:miter;stroke-opacity:1" d="M 273.786,155.605 279.755,166.349 z" id="boundary" inkscape:connector-curvature="0" />
	<path style="fill:none;stroke:red;stroke-width:1px;stroke-linecap:butt;stroke-linejoin:miter;stroke-opacity:1" d="M 273.786,178.286 279.755,166.349 z" id="boundary" inkscape:connector-curvature="0" />
	<path style="fill:none;stroke:red;stroke-width:1px;stroke-linecap:butt;stroke-linejoin:miter;stroke-opacity:1" d="M 273.786,787.095 273.786,799.032 z" id="boundary" inkscape:connector-curvature="0" />
	<path style="fill:none;stroke:red;stroke-width:1px;stroke-linecap:butt;stroke-linejoin:miter;stroke-opacity:1" d="M 273.786,787.095 279.755,775.158 z" id="boundary" inkscape:connector-curvature="0" />
	<path style="fill:none;stroke:red;stroke-width:1px;stroke-linecap:butt;stroke-linejoin:miter;stroke-opacity:1" d="M 276.173,994.806 285.723,984.063 z" id="boundary" inkscape:connector-curvature="0" />
	<path style="fill:none;stroke:red;stroke-width:1px;stroke-linecap:butt;stroke-linejoin:miter;stroke-opacity:1" d="M 277.367,261.848 282.142,273.786 z" id="boundary" inkscape:connector-curvature="0" />
	<path style="fill:none;stroke:red;stroke-width:1px;stroke-linecap:butt;stroke-linejoin:miter;stroke-opacity:1" d="M 279.755,763.22 279.755,775.158 z" id="boundary" inkscape:connector-curvature="0" />
	<path style="fill:none;stroke:red;stroke-width:1px;stroke-linecap:butt;stroke-linejoin:miter;stroke-opacity:1" d="M 279.755,763.22 285.723,751.283 z" id="boundary" inkscape:connector-curvature="0" />
	<path style="fill:none;stroke:red;stroke-width:1px;stroke-linecap:butt;stroke-linejoin:miter;stroke-opacity:1" d="M 282.142,273.786 288.111,284.529 z" id="boundary" inkscape:connector-curvature="0" />
	<path style="fill:none;stroke:red;stroke-width:1px;stroke-linecap:butt;stroke-linejoin:miter;stroke-opacity:1" d="M 282.142,911.244 292.886,917.213 z" id="boundary" inkscape:connector-curvature="0" />
	<path style="fill:none;stroke:red;stroke-width:1px;stroke-linecap:butt;stroke-linejoin:miter;stroke-opacity:1" d="M 285.723,751.283 295.273,742.927 z" id="boundary" inkscape:connector-curvature="0" />
	<path style="fill:none;stroke:red;stroke-width:1px;stroke-linecap:butt;stroke-linejoin:miter;stroke-opacity:1" d="M 285.723,984.063 297.661,978.094 z" id="boundary" inkscape:connector-curvature="0" />
	<path style="fill:none;stroke:red;stroke-width:1px;stroke-linecap:butt;stroke-linejoin:miter;stroke-opacity:1" d="M 288.111,284.529 291.692,296.467 z" id="boundary" inkscape:connector-curvature="0" />
	<path style="fill:none;stroke:red;stroke-width:1px;stroke-linecap:butt;stroke-linejoin:miter;stroke-opacity:1" d="M 291.692,296.467 291.692,308.404 z" id="boundary" inkscape:connector-curvature="0" />
	<path style="fill:none;stroke:red;stroke-width:1px;stroke-linecap:butt;stroke-linejoin:miter;stroke-opacity:1" d="M 291.692,308.404 291.692,320.342 z" id="boundary" inkscape:connector-curvature="0" />
	<path style="fill:none;stroke:red;stroke-width:1px;stroke-linecap:butt;stroke-linejoin:miter;stroke-opacity:1" d="M 291.692,320.342 297.661,331.085 z" id="boundary" inkscape:connector-curvature="0" />
	<path style="fill:none;stroke:red;stroke-width:1px;stroke-linecap:butt;stroke-linejoin:miter;stroke-opacity:1" d="M 291.692,673.69 294.079,685.627 z" id="boundary" inkscape:connector-curvature="0" />
	<path style="fill:none;stroke:red;stroke-width:1px;stroke-linecap:butt;stroke-linejoin:miter;stroke-opacity:1" d="M 291.692,673.69 301.242,665.333 z" id="boundary" inkscape:connector-curvature="0" />
	<path style="fill:none;stroke:red;stroke-width:1px;stroke-linecap:butt;stroke-linejoin:miter;stroke-opacity:1" d="M 292.886,917.213 304.823,917.213 z" id="boundary" inkscape:connector-curvature="0" />
	<path style="fill:none;stroke:red;stroke-width:1px;stroke-linecap:butt;stroke-linejoin:miter;stroke-opacity:1" d="M 294.079,685.627 297.661,697.564 z" id="boundary" inkscape:connector-curvature="0" />
	<path style="fill:none;stroke:red;stroke-width:1px;stroke-linecap:butt;stroke-linejoin:miter;stroke-opacity:1" d="M 295.273,742.927 301.242,730.989 z" id="boundary" inkscape:connector-curvature="0" />
	<path style="fill:none;stroke:red;stroke-width:1px;stroke-linecap:butt;stroke-linejoin:miter;stroke-opacity:1" d="M 297.661,331.085 303.629,341.829 z" id="boundary" inkscape:connector-curvature="0" />
	<path style="fill:none;stroke:red;stroke-width:1px;stroke-linecap:butt;stroke-linejoin:miter;stroke-opacity:1" d="M 297.661,363.316 297.661,375.254 z" id="boundary" inkscape:connector-curvature="0" />
	<path style="fill:none;stroke:red;stroke-width:1px;stroke-linecap:butt;stroke-linejoin:miter;stroke-opacity:1" d="M 297.661,363.316 303.629,341.829 z" id="boundary" inkscape:connector-curvature="0" />
	<path style="fill:none;stroke:red;stroke-width:1px;stroke-linecap:butt;stroke-linejoin:miter;stroke-opacity:1" d="M 297.661,375.254 297.661,387.191 z" id="boundary" inkscape:connector-curvature="0" />
	<path style="fill:none;stroke:red;stroke-width:1px;stroke-linecap:butt;stroke-linejoin:miter;stroke-opacity:1" d="M 297.661,387.191 297.661,399.129 z" id="boundary" inkscape:connector-curvature="0" />
	<path style="fill:none;stroke:red;stroke-width:1px;stroke-linecap:butt;stroke-linejoin:miter;stroke-opacity:1" d="M 297.661,399.129 303.629,409.872 z" id="boundary" inkscape:connector-curvature="0" />
	<path style="fill:none;stroke:red;stroke-width:1px;stroke-linecap:butt;stroke-linejoin:miter;stroke-opacity:1" d="M 297.661,697.564 297.661,709.502 z" id="boundary" inkscape:connector-curvature="0" />
	<path style="fill:none;stroke:red;stroke-width:1px;stroke-linecap:butt;stroke-linejoin:miter;stroke-opacity:1" d="M 297.661,709.502 301.242,730.989 z" id="boundary" inkscape:connector-curvature="0" />
	<path style="fill:none;stroke:red;stroke-width:1px;stroke-linecap:butt;stroke-linejoin:miter;stroke-opacity:1" d="M 297.661,978.094 308.404,972.125 z" id="boundary" inkscape:connector-curvature="0" />
	<path style="fill:none;stroke:red;stroke-width:1px;stroke-linecap:butt;stroke-linejoin:miter;stroke-opacity:1" d="M 301.242,665.333 309.598,655.783 z" id="boundary" inkscape:connector-curvature="0" />
	<path style="fill:none;stroke:red;stroke-width:1px;stroke-linecap:butt;stroke-linejoin:miter;stroke-opacity:1" d="M 303.629,409.872 309.598,420.616 z" id="boundary" inkscape:connector-curvature="0" />
	<path style="fill:none;stroke:red;stroke-width:1px;stroke-linecap:butt;stroke-linejoin:miter;stroke-opacity:1" d="M 304.823,917.213 315.567,923.182 z" id="boundary" inkscape:connector-curvature="0" />
	<path style="fill:none;stroke:red;stroke-width:1px;stroke-linecap:butt;stroke-linejoin:miter;stroke-opacity:1" d="M 308.404,972.125 319.148,966.156 z" id="boundary" inkscape:connector-curvature="0" />
	<path style="fill:none;stroke:red;stroke-width:1px;stroke-linecap:butt;stroke-linejoin:miter;stroke-opacity:1" d="M 309.598,420.616 309.598,432.554 z" id="boundary" inkscape:connector-curvature="0" />
	<path style="fill:none;stroke:red;stroke-width:1px;stroke-linecap:butt;stroke-linejoin:miter;stroke-opacity:1" d="M 309.598,432.554 315.567,443.297 z" id="boundary" inkscape:connector-curvature="0" />
	<path style="fill:none;stroke:red;stroke-width:1px;stroke-linecap:butt;stroke-linejoin:miter;stroke-opacity:1" d="M 309.598,655.783 319.148,647.427 z" id="boundary" inkscape:connector-curvature="0" />
	<path style="fill:none;stroke:red;stroke-width:1px;stroke-linecap:butt;stroke-linejoin:miter;stroke-opacity:1" d="M 315.567,443.297 315.567,455.235 z" id="boundary" inkscape:connector-curvature="0" />
	<path style="fill:none;stroke:red;stroke-width:1px;stroke-linecap:butt;stroke-linejoin:miter;stroke-opacity:1" d="M 315.567,455.235 321.535,465.978 z" id="boundary" inkscape:connector-curvature="0" />
	<path style="fill:none;stroke:red;stroke-width:1px;stroke-linecap:butt;stroke-linejoin:miter;stroke-opacity:1" d="M 315.567,619.971 317.954,631.909 z" id="boundary" inkscape:connector-curvature="0" />
	<path style="fill:none;stroke:red;stroke-width:1px;stroke-linecap:butt;stroke-linejoin:miter;stroke-opacity:1" d="M 315.567,619.971 321.535,608.034 z" id="boundary" inkscape:connector-curvature="0" />
	<path style="fill:none;stroke:red;stroke-width:1px;stroke-linecap:butt;stroke-linejoin:miter;stroke-opacity:1" d="M 315.567,923.182 327.504,926.763 z" id="boundary" inkscape:connector-curvature="0" />
	<path style="fill:none;stroke:red;stroke-width:1px;stroke-linecap:butt;stroke-linejoin:miter;stroke-opacity:1" d="M 317.954,631.909 319.148,647.427 z" id="boundary" inkscape:connector-curvature="0" />
	<path style="fill:none;stroke:red;stroke-width:1px;stroke-linecap:butt;stroke-linejoin:miter;stroke-opacity:1" d="M 319.148,966.156 329.892,958.994 z" id="boundary" inkscape:connector-curvature="0" />
	<path style="fill:none;stroke:red;stroke-width:1px;stroke-linecap:butt;stroke-linejoin:miter;stroke-opacity:1" d="M 321.535,465.978 321.535,477.916 z" id="boundary" inkscape:connector-curvature="0" />
	<path style="fill:none;stroke:red;stroke-width:1px;stroke-linecap:butt;stroke-linejoin:miter;stroke-opacity:1" d="M 321.535,477.916 327.504,488.659 z" id="boundary" inkscape:connector-curvature="0" />
	<path style="fill:none;stroke:red;stroke-width:1px;stroke-linecap:butt;stroke-linejoin:miter;stroke-opacity:1" d="M 321.535,608.034 333.473,602.065 z" id="boundary" inkscape:connector-curvature="0" />
	<path style="fill:none;stroke:red;stroke-width:1px;stroke-linecap:butt;stroke-linejoin:miter;stroke-opacity:1" d="M 327.504,488.659 329.892,500.597 z" id="boundary" inkscape:connector-curvature="0" />
	<path style="fill:none;stroke:red;stroke-width:1px;stroke-linecap:butt;stroke-linejoin:miter;stroke-opacity:1" d="M 327.504,926.763 333.473,937.507 z" id="boundary" inkscape:connector-curvature="0" />
	<path style="fill:none;stroke:red;stroke-width:1px;stroke-linecap:butt;stroke-linejoin:miter;stroke-opacity:1" d="M 329.892,500.597 333.473,512.534 z" id="boundary" inkscape:connector-curvature="0" />
	<path style="fill:none;stroke:red;stroke-width:1px;stroke-linecap:butt;stroke-linejoin:miter;stroke-opacity:1" d="M 329.892,958.994 339.442,948.25 z" id="boundary" inkscape:connector-curvature="0" />
	<path style="fill:none;stroke:red;stroke-width:1px;stroke-linecap:butt;stroke-linejoin:miter;stroke-opacity:1" d="M 333.473,512.534 333.473,524.472 z" id="boundary" inkscape:connector-curvature="0" />
	<path style="fill:none;stroke:red;stroke-width:1px;stroke-linecap:butt;stroke-linejoin:miter;stroke-opacity:1" d="M 333.473,524.472 339.442,535.215 z" id="boundary" inkscape:connector-curvature="0" />
	<path style="fill:none;stroke:red;stroke-width:1px;stroke-linecap:butt;stroke-linejoin:miter;stroke-opacity:1" d="M 333.473,602.065 343.023,593.709 z" id="boundary" inkscape:connector-curvature="0" />
	<path style="fill:none;stroke:red;stroke-width:1px;stroke-linecap:butt;stroke-linejoin:miter;stroke-opacity:1" d="M 333.473,937.507 339.442,948.25 z" id="boundary" inkscape:connector-curvature="0" />
	<path style="fill:none;stroke:red;stroke-width:1px;stroke-linecap:butt;stroke-linejoin:miter;stroke-opacity:1" d="M 339.442,535.215 339.442,547.153 z" id="boundary" inkscape:connector-curvature="0" />
	<path style="fill:none;stroke:red;stroke-width:1px;stroke-linecap:butt;stroke-linejoin:miter;stroke-opacity:1" d="M 339.442,547.153 345.41,557.897 z" id="boundary" inkscape:connector-curvature="0" />
	<path style="fill:none;stroke:red;stroke-width:1px;stroke-linecap:butt;stroke-linejoin:miter;stroke-opacity:1" d="M 343.023,593.709 351.379,580.578 z" id="boundary" inkscape:connector-curvature="0" />
	<path style="fill:none;stroke:red;stroke-width:1px;stroke-linecap:butt;stroke-linejoin:miter;stroke-opacity:1" d="M 345.41,557.897 351.379,568.64 z" id="boundary" inkscape:connector-curvature="0" />
	<path style="fill:none;stroke:red;stroke-width:1px;stroke-linecap:butt;stroke-linejoin:miter;stroke-opacity:1" d="M 351.379,568.64 351.379,580.578 z" id="boundary" inkscape:connector-curvature="0" />
	<circle cx="4" cy="311.986" r="4" fill="#0" id="circle0"/>
	<circle cx="4" cy="323.923" r="4" fill="#0" id="circle1"/>
	<circle cx="4" cy="335.86" r="4" fill="#0" id="circle2"/>
	<circle cx="4" cy="347.798" r="4" fill="#0" id="circle3"/>
	<circle cx="4" cy="359.735" r="4" fill="#0" id="circle4"/>
	<circle cx="4" cy="371.673" r="4" fill="#0" id="circle5"/>
	<circle cx="9.96871" cy="300.048" r="4" fill="#0" id="circle6"/>
	<circle cx="9.96871" cy="382.416" r="4" fill="#0" id="circle7"/>
	<circle cx="9.96871" cy="437.329" r="4" fill="#0" id="circle8"/>
	<circle cx="9.96871" cy="449.266" r="4" fill="#0" id="circle9"/>
	<circle cx="15.9374" cy="288.111" r="4" fill="#0" id="circle10"/>
	<circle cx="15.9374" cy="393.16" r="4" fill="#0" id="circle11"/>
	<circle cx="15.9374" cy="405.097" r="4" fill="#0" id="circle12"/>
	<circle cx="15.9374" cy="417.035" r="4" fill="#0" id="circle13"/>
	<circle cx="15.9374" cy="460.01" r="4" fill="#0" id="circle14"/>
	<circle cx="15.9374" cy="471.947" r="4" fill="#0" id="circle15"/>
	<circle cx="15.9374" cy="483.884" r="4" fill="#0" id="circle16"/>
	<circle cx="21.9061" cy="494.628" r="4" fill="#0" id="circle17"/>
	<circle cx="21.9061" cy="506.566" r="4" fill="#0" id="circle18"/>
	<circle cx="25.4874" cy="278.561" r="4" fill="#0" id="circle19"/>
	<circle cx="27.8748" cy="73.2371" r="4" fill="#0" id="circle20"/>
	<circle cx="27.8748" cy="85.1745" r="4" fill="#0" id="circle21"/>
	<circle cx="27.8748" cy="97.1119" r="4" fill="#0" id="circle22"/>
	<circle cx="27.8748" cy="109.049" r="4" fill="#0" id="circle23"/>
	<circle cx="27.8748" cy="120.987" r="4" fill="#0" id="circle24"/>
	<circle cx="27.8748" cy="517.309" r="4" fill="#0" id="circle25"/>
	<circle cx="27.8748" cy="529.247" r="4" fill="#0" id="circle26"/>
	<circle cx="31.4561" cy="266.623" r="4" fill="#0" id="circle27"/>
	<circle cx="33.8436" cy="61.2996" r="4" fill="#0" id="circle28"/>
	<circle cx="33.8436" cy="131.73" r="4" fill="#0" id="circle29"/>
	<circle cx="33.8436" cy="539.99" r="4" fill="#0" id="circle30"/>
	<circle cx="35.0373" cy="551.928" r="4" fill="#0" id="circle31"/>
	<circle cx="39.8123" cy="49.3622" r="4" fill="#0" id="circle32"/>
	<circle cx="39.8123" cy="142.474" r="4" fill="#0" id="circle33"/>
	<circle cx="39.8123" cy="563.865" r="4" fill="#0" id="circle34"/>
	<circle cx="39.8123" cy="575.803" r="4" fill="#0" id="circle35"/>
	<circle cx="39.8123" cy="587.74" r="4" fill="#0" id="circle36"/>
	<circle cx="39.8123" cy="599.677" r="4" fill="#0" id="circle37"/>
	<circle cx="39.8123" cy="611.615" r="4" fill="#0" id="circle38"/>
	<circle cx="41.006" cy="257.073" r="4" fill="#0" id="circle39"/>
	<circle cx="43.3935" cy="154.412" r="4" fill="#0" id="circle40"/>
	<circle cx="45.781" cy="622.359" r="4" fill="#0" id="circle41"/>
	<circle cx="49.3622" cy="39.8123" r="4" fill="#0" id="circle42"/>
	<circle cx="49.3622" cy="165.155" r="4" fill="#0" id="circle43"/>
	<circle cx="51.7497" cy="633.102" r="4" fill="#0" id="circle44"/>
	<circle cx="52.9434" cy="251.105" r="4" fill="#0" id="circle45"/>
	<circle cx="57.7184" cy="174.705" r="4" fill="#0" id="circle46"/>
	<circle cx="57.7184" cy="643.846" r="4" fill="#0" id="circle47"/>
	<circle cx="57.7184" cy="655.783" r="4" fill="#0" id="circle48"/>
	<circle cx="58.9122" cy="30.2623" r="4" fill="#0" id="circle49"/>
	<circle cx="62.4934" cy="242.748" r="4" fill="#0" id="circle50"/>
	<circle cx="63.6871" cy="666.527" r="4" fill="#0" id="circle51"/>
	<circle cx="67.2684" cy="183.061" r="4" fill="#0" id="circle52"/>
	<circle cx="69.6558" cy="677.271" r="4" fill="#0" id="circle53"/>
	<circle cx="70.8496" cy="24.2936" r="4" fill="#0" id="circle54"/>
	<circle cx="70.8496" cy="233.199" r="4" fill="#0" id="circle55"/>
	<circle cx="75.6245" cy="192.611" r="4" fill="#0" id="circle56"/>
	<circle cx="75.6245" cy="688.014" r="4" fill="#0" id="circle57"/>
	<circle cx="80.3995" cy="15.9374" r="4" fill="#0" id="circle58"/>
	<circle cx="80.3995" cy="224.842" r="4" fill="#0" id="circle59"/>
	<circle cx="81.5933" cy="203.355" r="4" fill="#0" id="circle60"/>
	<circle cx="85.1745" cy="696.371" r="4" fill="#0" id="circle61"/>
	<circle cx="91.1432" cy="9.96871" r="4" fill="#0" id="circle62"/>
	<circle cx="93.5307" cy="789.483" r="4" fill="#0" id="circle63"/>
	<circle cx="93.5307" cy="801.42" r="4" fill="#0" id="circle64"/>
	<circle cx="93.5307" cy="813.357" r="4" fill="#0" id="circle65"/>
	<circle cx="93.5307" cy="825.295" r="4" fill="#0" id="circle66"/>
	<circle cx="93.5307" cy="837.232" r="4" fill="#0" id="circle67"/>
	<circle cx="97.1119" cy="697.564" r="4" fill="#0" id="circle68"/>
	<circle cx="99.4994" cy="777.545" r="4" fill="#0" id="circle69"/>
	<circle cx="99.4994" cy="847.976" r="4" fill="#0" id="circle70"/>
	<circle cx="99.4994" cy="859.913" r="4" fill="#0" id="circle71"/>
	<circle cx="103.081" cy="4" r="4" fill="#0" id="circle72"/>
	<circle cx="105.468" cy="759.639" r="4" fill="#0" id="circle73"/>
	<circle cx="105.468" cy="870.657" r="4" fill="#0" id="circle74"/>
	<circle cx="105.468" cy="938.7" r="4" fill="#0" id="circle75"/>
	<circle cx="105.468" cy="950.638" r="4" fill="#0" id="circle76"/>
	<circle cx="105.468" cy="962.575" r="4" fill="#0" id="circle77"/>
	<circle cx="106.662" cy="705.921" r="4" fill="#0" id="circle78"/>
	<circle cx="111.437" cy="717.858" r="4" fill="#0" id="circle79"/>
	<circle cx="111.437" cy="729.795" r="4" fill="#0" id="circle80"/>
	<circle cx="111.437" cy="741.733" r="4" fill="#0" id="circle81"/>
	<circle cx="111.437" cy="881.401" r="4" fill="#0" id="circle82"/>
	<circle cx="111.437" cy="920.794" r="4" fill="#0" id="circle83"/>
	<circle cx="113.824" cy="893.338" r="4" fill="#0" id="circle84"/>
	<circle cx="115.018" cy="4" r="4" fill="#0" id="circle85"/>
	<circle cx="115.018" cy="970.931" r="4" fill="#0" id="circle86"/>
	<circle cx="117.406" cy="905.276" r="4" fill="#0" id="circle87"/>
	<circle cx="124.568" cy="978.094" r="4" fill="#0" id="circle88"/>
	<circle cx="126.955" cy="4" r="4" fill="#0" id="circle89"/>
	<circle cx="135.312" cy="984.063" r="4" fill="#0" id="circle90"/>
	<circle cx="138.893" cy="4" r="4" fill="#0" id="circle91"/>
	<circle cx="147.249" cy="984.063" r="4" fill="#0" id="circle92"/>
	<circle cx="150.83" cy="4" r="4" fill="#0" id="circle93"/>
	<circle cx="157.993" cy="990.031" r="4" fill="#0" id="circle94"/>
	<circle cx="162.768" cy="4" r="4" fill="#0" id="circle95"/>
	<circle cx="169.93" cy="990.031" r="4" fill="#0" id="circle96"/>
	<circle cx="174.705" cy="4" r="4" fill="#0" id="circle97"/>
	<circle cx="180.674" cy="996" r="4" fill="#0" id="circle98"/>
	<circle cx="185.449" cy="9.96871" r="4" fill="#0" id="circle99"/>
	<circle cx="192.611" cy="996" r="4" fill="#0" id="circle100"/>
	<circle cx="197.386" cy="9.96871" r="4" fill="#0" id="circle101"/>
	<circle cx="204.549" cy="996" r="4" fill="#0" id="circle102"/>
	<circle cx="208.13" cy="15.9374" r="4" fill="#0" id="circle103"/>
	<circle cx="216.486" cy="996" r="4" fill="#0" id="circle104"/>
	<circle cx="220.067" cy="19.5187" r="4" fill="#0" id="circle105"/>
	<circle cx="228.424" cy="996" r="4" fill="#0" id="circle106"/>
	<circle cx="229.617" cy="27.8748" r="4" fill="#0" id="circle107"/>
	<circle cx="240.361" cy="33.8436" r="4" fill="#0" id="circle108"/>
	<circle cx="240.361" cy="996" r="4" fill="#0" id="circle109"/>
	<circle cx="243.942" cy="882.594" r="4" fill="#0" id="circle110"/>
	<circle cx="248.717" cy="43.3935" r="4" fill="#0" id="circle111"/>
	<circle cx="249.911" cy="858.72" r="4" fill="#0" id="circle112"/>
	<circle cx="249.911" cy="870.657" r="4" fill="#0" id="circle113"/>
	<circle cx="249.911" cy="893.338" r="4" fill="#0" id="circle114"/>
	<circle cx="252.298" cy="996" r="4" fill="#0" id="circle115"/>
	<circle cx="255.88" cy="232.005" r="4" fill="#0" id="circle116"/>
	<circle cx="255.88" cy="846.782" r="4" fill="#0" id="circle117"/>
	<circle cx="258.267" cy="51.7497" r="4" fill="#0" id="circle118"/>
	<circle cx="260.655" cy="899.307" r="4" fill="#0" id="circle119"/>
	<circle cx="261.848" cy="208.13" r="4" fill="#0" id="circle120"/>
	<circle cx="261.848" cy="220.067" r="4" fill="#0" id="circle121"/>
	<circle cx="261.848" cy="242.748" r="4" fill="#0" id="circle122"/>
	<circle cx="261.848" cy="834.845" r="4" fill="#0" id="circle123"/>
	<circle cx="264.236" cy="996" r="4" fill="#0" id="circle124"/>
	<circle cx="266.623" cy="61.2996" r="4" fill="#0" id="circle125"/>
	<circle cx="267.817" cy="190.224" r="4" fill="#0" id="circle126"/>
	<circle cx="267.817" cy="253.492" r="4" fill="#0" id="circle127"/>
	<circle cx="267.817" cy="816.939" r="4" fill="#0" id="circle128"/>
	<circle cx="271.398" cy="905.276" r="4" fill="#0" id="circle129"/>
	<circle cx="272.592" cy="72.0433" r="4" fill="#0" id="circle130"/>
	<circle cx="273.786" cy="83.9807" r="4" fill="#0" id="circle131"/>
	<circle cx="273.786" cy="95.9182" r="4" fill="#0" id="circle132"/>
	<circle cx="273.786" cy="107.856" r="4" fill="#0" id="circle133"/>
	<circle cx="273.786" cy="119.793" r="4" fill="#0" id="circle134"/>
	<circle cx="273.786" cy="131.73" r="4" fill="#0" id="circle135"/>
	<circle cx="273.786" cy="143.668" r="4" fill="#0" id="circle136"/>
	<circle cx="273.786" cy="155.605" r="4" fill="#0" id="circle137"/>
	<circle cx="273.786" cy="178.286" r="4" fill="#0" id="circle138"/>
	<circle cx="273.786" cy="787.095" r="4" fill="#0" id="circle139"/>
	<circle cx="273.786" cy="799.032" r="4" fill="#0" id="circle140"/>
	<circle cx="276.173" cy="994.806" r="4" fill="#0" id="circle141"/>
	<circle cx="277.367" cy="261.848" r="4" fill="#0" id="circle142"/>
	<circle cx="279.755" cy="166.349" r="4" fill="#0" id="circle143"/>
	<circle cx="279.755" cy="763.22" r="4" fill="#0" id="circle144"/>
	<circle cx="279.755" cy="775.158" r="4" fill="#0" id="circle145"/>
	<circle cx="282.142" cy="273.786" r="4" fill="#0" id="circle146"/>
	<circle cx="282.142" cy="911.244" r="4" fill="#0" id="circle147"/>
	<circle cx="285.723" cy="751.283" r="4" fill="#0" id="circle148"/>
	<circle cx="285.723" cy="984.063" r="4" fill="#0" id="circle149"/>
	<circle cx="288.111" cy="284.529" r="4" fill="#0" id="circle150"/>
	<circle cx="291.692" cy="296.467" r="4" fill="#0" id="circle151"/>
	<circle cx="291.692" cy="308.404" r="4" fill="#0" id="circle152"/>
	<circle cx="291.692" cy="320.342" r="4" fill="#0" id="circle153"/>
	<circle cx="291.692" cy="673.69" r="4" fill="#0" id="circle154"/>
	<circle cx="292.886" cy="917.213" r="4" fill="#0" id="circle155"/>
	<circle cx="294.079" cy="685.627" r="4" fill="#0" id="circle156"/>
	<circle cx="295.273" cy="742.927" r="4" fill="#0" id="circle157"/>
	<circle cx="297.661" cy="331.085" r="4" fill="#0" id="circle158"/>
	<circle cx="297.661" cy="363.316" r="4" fill="#0" id="circle159"/>
	<circle cx="297.661" cy="375.254" r="4" fill="#0" id="circle160"/>
	<circle cx="297.661" cy="387.191" r="4" fill="#0" id="circle161"/>
	<circle cx="297.661" cy="399.129" r="4" fill="#0" id="circle162"/>
	<circle cx="297.661" cy="697.564" r="4" fill="#0" id="circle163"/>
	<circle cx="297.661" cy="709.502" r="4" fill="#0" id="circle164"/>
	<circle cx="297.661" cy="978.094" r="4" fill="#0" id="circle165"/>
	<circle cx="301.242" cy="665.333" r="4" fill="#0" id="circle166"/>
	<circle cx="301.242" cy="730.989" r="4" fill="#0" id="circle167"/>
	<circle cx="303.629" cy="341.829" r="4" fill="#0" id="circle168"/>
	<circle cx="303.629" cy="409.872" r="4" fill="#0" id="circle169"/>
	<circle cx="304.823" cy="917.213" r="4" fill="#0" id="circle170"/>
	<circle cx="308.404" cy="972.125" r="4" fill="#0" id="circle171"/>
	<circle cx="309.598" cy="420.616" r="4" fill="#0" id="circle172"/>
	<circle cx="309.598" cy="432.554" r="4" fill="#0" id="circle173"/>
	<circle cx="309.598" cy="655.783" r="4" fill="#0" id="circle174"/>
	<circle cx="315.567" cy="443.297" r="4" fill="#0" id="circle175"/>
	<circle cx="315.567" cy="455.235" r="4" fill="#0" id="circle176"/>
	<circle cx="315.567" cy="619.971" r="4" fill="#0" id="circle177"/>
	<circle cx="315.567" cy="923.182" r="4" fill="#0" id="circle178"/>
	<circle cx="317.954" cy="631.909" r="4" fill="#0" id="circle179"/>
	<circle cx="319.148" cy="647.427" r="4" fill="#0" id="circle180"/>
	<circle cx="319.148" cy="966.156" r="4" fill="#0" id="circle181"/>
	<circle cx="321.535" cy="465.978" r="4" fill="#0" id="circle182"/>
	<circle cx="321.535" cy="477.916" r="4" fill="#0" id="circle183"/>
	<circle cx="321.535" cy="608.034" r="4" fill="#0" id="circle184"/>
	<circle cx="327.504" cy="488.659" r="4" fill="#0" id="circle185"/>
	<circle cx="327.504" cy="926.763" r="4" fill="#0" id="circle186"/>
	<circle cx="329.892" cy="500.597" r="4" fill="#0" id="circle187"/>
	<circle cx="329.892" cy="958.994" r="4" fill="#0" id="circle188"/>
	<circle cx="333.473" cy="512.534" r="4" fill="#0" id="circle189"/>
	<circle cx="333.473" cy="524.472" r="4" fill="#0" id="circle190"/>
	<circle cx="333.473" cy="602.065" r="4" fill="#0" id="circle191"/>
	<circle cx="333.473" cy="937.507" r="4" fill="#0" id="circle192"/>
	<circle cx="339.442" cy="535.215" r="4" fill="#0" id="circle193"/>
	<circle cx="339.442" cy="547.153" r="4" fill="#0" id="circle194"/>
	<circle cx="339.442" cy="948.25" r="4" fill="#0" id="circle195"/>
	<circle cx="343.023" cy="593.709" r="4" fill="#0" id="circle196"/>
	<circle cx="345.41" cy="557.897" r="4" fill="#0" id="circle197"/>
	<circle cx="351.379" cy="568.64" r="4" fill="#0" id="circle198"/>
	<circle cx="351.379" cy="580.578" r="4" fill="#0" id="circle199"/>
	</g>
</svg>