<?xml version="1.0" encoding="UTF-8" standalone="no"?>
<!-- Created with CurveBenchmark -->
<svg
	xmlns:dc="http://purl.org/dc/elements/1.1/"
	xmlns:cc="http://creativecommons.org/ns#"
	xmlns:rdf="http://www.w3.org/1999/02/22-rdf-syntax-ns#"
	xmlns:svg="http://www.w3.org/2000/svg"
	xmlns="http://www.w3.org/2000/svg"
	xmlns:sodipodi="http://sodipodi.sourceforge.net/DTD/sodipodi-0.dtd"
	xmlns:inkscape="http://www.inkscape.org/namespaces/inkscape"
	width="1000"
	height="1000"
	id="svg2"
	version="1.1"
	sodipodi:docname="manifold/vicur-teddy-08.png.txt">
<defs
	id="defs4" />
<metadata
	id="metadata7">
	<rdf:RDF>
		<cc:Work
			rdf:about="">
			<dc:format>image/svg+xml</dc:format>
			<dc:type
				rdf:resource="http://purl.org/dc/dcmitype/StillImage" />
			<dc:title></dc:title>
		</cc:Work>
	</rdf:RDF>
</metadata>
<g
	inkscape:label="Layer 1"
	inkscape:groupmode="layer"
	id="layer1">
	<path style="fill:none;stroke:red;stroke-width:1px;stroke-linecap:butt;stroke-linejoin:miter;stroke-opacity:1" d="M 4,715.35 4,724.613 z" id="boundary" inkscape:connector-curvature="0" />
	<path style="fill:none;stroke:red;stroke-width:1px;stroke-linecap:butt;stroke-linejoin:miter;stroke-opacity:1" d="M 4,715.35 8.63119,706.088 z" id="boundary" inkscape:connector-curvature="0" />
	<path style="fill:none;stroke:red;stroke-width:1px;stroke-linecap:butt;stroke-linejoin:miter;stroke-opacity:1" d="M 4,724.613 4,733.875 z" id="boundary" inkscape:connector-curvature="0" />
	<path style="fill:none;stroke:red;stroke-width:1px;stroke-linecap:butt;stroke-linejoin:miter;stroke-opacity:1" d="M 4,733.875 4,743.137 z" id="boundary" inkscape:connector-curvature="0" />
	<path style="fill:none;stroke:red;stroke-width:1px;stroke-linecap:butt;stroke-linejoin:miter;stroke-opacity:1" d="M 4,743.137 4,752.4 z" id="boundary" inkscape:connector-curvature="0" />
	<path style="fill:none;stroke:red;stroke-width:1px;stroke-linecap:butt;stroke-linejoin:miter;stroke-opacity:1" d="M 4,752.4 4,761.662 z" id="boundary" inkscape:connector-curvature="0" />
	<path style="fill:none;stroke:red;stroke-width:1px;stroke-linecap:butt;stroke-linejoin:miter;stroke-opacity:1" d="M 4,761.662 4,770.924 z" id="boundary" inkscape:connector-curvature="0" />
	<path style="fill:none;stroke:red;stroke-width:1px;stroke-linecap:butt;stroke-linejoin:miter;stroke-opacity:1" d="M 4,770.924 4,780.187 z" id="boundary" inkscape:connector-curvature="0" />
	<path style="fill:none;stroke:red;stroke-width:1px;stroke-linecap:butt;stroke-linejoin:miter;stroke-opacity:1" d="M 4,780.187 4,789.449 z" id="boundary" inkscape:connector-curvature="0" />
	<path style="fill:none;stroke:red;stroke-width:1px;stroke-linecap:butt;stroke-linejoin:miter;stroke-opacity:1" d="M 8.63119,706.088 13.2624,696.825 z" id="boundary" inkscape:connector-curvature="0" />
	<path style="fill:none;stroke:red;stroke-width:1px;stroke-linecap:butt;stroke-linejoin:miter;stroke-opacity:1" d="M 13.2624,696.825 17.8936,687.563 z" id="boundary" inkscape:connector-curvature="0" />
	<path style="fill:none;stroke:red;stroke-width:1px;stroke-linecap:butt;stroke-linejoin:miter;stroke-opacity:1" d="M 17.8936,687.563 27.1559,682.932 z" id="boundary" inkscape:connector-curvature="0" />
	<path style="fill:none;stroke:red;stroke-width:1px;stroke-linecap:butt;stroke-linejoin:miter;stroke-opacity:1" d="M 31.7871,414.323 31.7871,423.585 z" id="boundary" inkscape:connector-curvature="0" />
	<path style="fill:none;stroke:red;stroke-width:1px;stroke-linecap:butt;stroke-linejoin:miter;stroke-opacity:1" d="M 31.7871,414.323 36.4183,405.061 z" id="boundary" inkscape:connector-curvature="0" />
	<path style="fill:none;stroke:red;stroke-width:1px;stroke-linecap:butt;stroke-linejoin:miter;stroke-opacity:1" d="M 31.7871,423.585 31.7871,432.848 z" id="boundary" inkscape:connector-curvature="0" />
	<path style="fill:none;stroke:red;stroke-width:1px;stroke-linecap:butt;stroke-linejoin:miter;stroke-opacity:1" d="M 31.7871,432.848 31.7871,442.11 z" id="boundary" inkscape:connector-curvature="0" />
	<path style="fill:none;stroke:red;stroke-width:1px;stroke-linecap:butt;stroke-linejoin:miter;stroke-opacity:1" d="M 31.7871,442.11 31.7871,451.373 z" id="boundary" inkscape:connector-curvature="0" />
	<path style="fill:none;stroke:red;stroke-width:1px;stroke-linecap:butt;stroke-linejoin:miter;stroke-opacity:1" d="M 31.7871,451.373 31.7871,460.635 z" id="boundary" inkscape:connector-curvature="0" />
	<path style="fill:none;stroke:red;stroke-width:1px;stroke-linecap:butt;stroke-linejoin:miter;stroke-opacity:1" d="M 31.7871,460.635 31.7871,469.897 z" id="boundary" inkscape:connector-curvature="0" />
	<path style="fill:none;stroke:red;stroke-width:1px;stroke-linecap:butt;stroke-linejoin:miter;stroke-opacity:1" d="M 31.7871,469.897 31.7871,479.16 z" id="boundary" inkscape:connector-curvature="0" />
	<path style="fill:none;stroke:red;stroke-width:1px;stroke-linecap:butt;stroke-linejoin:miter;stroke-opacity:1" d="M 31.7871,479.16 31.7871,488.422 z" id="boundary" inkscape:connector-curvature="0" />
	<path style="fill:none;stroke:red;stroke-width:1px;stroke-linecap:butt;stroke-linejoin:miter;stroke-opacity:1" d="M 31.7871,488.422 31.7871,497.684 z" id="boundary" inkscape:connector-curvature="0" />
	<path style="fill:none;stroke:red;stroke-width:1px;stroke-linecap:butt;stroke-linejoin:miter;stroke-opacity:1" d="M 31.7871,497.684 31.7871,506.947 z" id="boundary" inkscape:connector-curvature="0" />
	<path style="fill:none;stroke:red;stroke-width:1px;stroke-linecap:butt;stroke-linejoin:miter;stroke-opacity:1" d="M 31.7871,506.947 31.7871,516.209 z" id="boundary" inkscape:connector-curvature="0" />
	<path style="fill:none;stroke:red;stroke-width:1px;stroke-linecap:butt;stroke-linejoin:miter;stroke-opacity:1" d="M 31.7871,516.209 31.7871,525.472 z" id="boundary" inkscape:connector-curvature="0" />
	<path style="fill:none;stroke:red;stroke-width:1px;stroke-linecap:butt;stroke-linejoin:miter;stroke-opacity:1" d="M 31.7871,525.472 36.4183,533.808 z" id="boundary" inkscape:connector-curvature="0" />
	<path style="fill:none;stroke:red;stroke-width:1px;stroke-linecap:butt;stroke-linejoin:miter;stroke-opacity:1" d="M 36.4183,395.798 36.4183,405.061 z" id="boundary" inkscape:connector-curvature="0" />
	<path style="fill:none;stroke:red;stroke-width:1px;stroke-linecap:butt;stroke-linejoin:miter;stroke-opacity:1" d="M 36.4183,395.798 41.0495,386.536 z" id="boundary" inkscape:connector-curvature="0" />
	<path style="fill:none;stroke:red;stroke-width:1px;stroke-linecap:butt;stroke-linejoin:miter;stroke-opacity:1" d="M 36.4183,533.808 45.6807,537.513 z" id="boundary" inkscape:connector-curvature="0" />
	<path style="fill:none;stroke:red;stroke-width:1px;stroke-linecap:butt;stroke-linejoin:miter;stroke-opacity:1" d="M 41.0495,386.536 45.6807,377.274 z" id="boundary" inkscape:connector-curvature="0" />
	<path style="fill:none;stroke:red;stroke-width:1px;stroke-linecap:butt;stroke-linejoin:miter;stroke-opacity:1" d="M 43.8282,670.891 53.0906,666.26 z" id="boundary" inkscape:connector-curvature="0" />
	<path style="fill:none;stroke:red;stroke-width:1px;stroke-linecap:butt;stroke-linejoin:miter;stroke-opacity:1" d="M 45.6807,377.274 53.0906,369.864 z" id="boundary" inkscape:connector-curvature="0" />
	<path style="fill:none;stroke:red;stroke-width:1px;stroke-linecap:butt;stroke-linejoin:miter;stroke-opacity:1" d="M 45.6807,537.513 51.2381,544.923 z" id="boundary" inkscape:connector-curvature="0" />
	<path style="fill:none;stroke:red;stroke-width:1px;stroke-linecap:butt;stroke-linejoin:miter;stroke-opacity:1" d="M 51.2381,544.923 58.648,551.406 z" id="boundary" inkscape:connector-curvature="0" />
	<path style="fill:none;stroke:red;stroke-width:1px;stroke-linecap:butt;stroke-linejoin:miter;stroke-opacity:1" d="M 53.0906,369.864 60.5005,362.454 z" id="boundary" inkscape:connector-curvature="0" />
	<path style="fill:none;stroke:red;stroke-width:1px;stroke-linecap:butt;stroke-linejoin:miter;stroke-opacity:1" d="M 53.0906,666.26 62.3529,661.628 z" id="boundary" inkscape:connector-curvature="0" />
	<path style="fill:none;stroke:red;stroke-width:1px;stroke-linecap:butt;stroke-linejoin:miter;stroke-opacity:1" d="M 58.648,551.406 65.1317,558.816 z" id="boundary" inkscape:connector-curvature="0" />
	<path style="fill:none;stroke:red;stroke-width:1px;stroke-linecap:butt;stroke-linejoin:miter;stroke-opacity:1" d="M 60.5005,362.454 76.2465,351.339 z" id="boundary" inkscape:connector-curvature="0" />
	<path style="fill:none;stroke:red;stroke-width:1px;stroke-linecap:butt;stroke-linejoin:miter;stroke-opacity:1" d="M 62.3529,661.628 71.6153,661.628 z" id="boundary" inkscape:connector-curvature="0" />
	<path style="fill:none;stroke:red;stroke-width:1px;stroke-linecap:butt;stroke-linejoin:miter;stroke-opacity:1" d="M 62.3529,917.27 69.7628,923.754 z" id="boundary" inkscape:connector-curvature="0" />
	<path style="fill:none;stroke:red;stroke-width:1px;stroke-linecap:butt;stroke-linejoin:miter;stroke-opacity:1" d="M 65.1317,558.816 72.5415,565.3 z" id="boundary" inkscape:connector-curvature="0" />
	<path style="fill:none;stroke:red;stroke-width:1px;stroke-linecap:butt;stroke-linejoin:miter;stroke-opacity:1" d="M 69.7628,923.754 76.2465,931.163 z" id="boundary" inkscape:connector-curvature="0" />
	<path style="fill:none;stroke:red;stroke-width:1px;stroke-linecap:butt;stroke-linejoin:miter;stroke-opacity:1" d="M 71.6153,661.628 79.9514,656.997 z" id="boundary" inkscape:connector-curvature="0" />
	<path style="fill:none;stroke:red;stroke-width:1px;stroke-linecap:butt;stroke-linejoin:miter;stroke-opacity:1" d="M 72.5415,565.3 80.8777,569.931 z" id="boundary" inkscape:connector-curvature="0" />
	<path style="fill:none;stroke:red;stroke-width:1px;stroke-linecap:butt;stroke-linejoin:miter;stroke-opacity:1" d="M 76.2465,351.339 85.5089,346.708 z" id="boundary" inkscape:connector-curvature="0" />
	<path style="fill:none;stroke:red;stroke-width:1px;stroke-linecap:butt;stroke-linejoin:miter;stroke-opacity:1" d="M 79.9514,656.997 89.2138,656.997 z" id="boundary" inkscape:connector-curvature="0" />
	<path style="fill:none;stroke:red;stroke-width:1px;stroke-linecap:butt;stroke-linejoin:miter;stroke-opacity:1" d="M 80.8777,569.931 88.2876,576.415 z" id="boundary" inkscape:connector-curvature="0" />
	<path style="fill:none;stroke:red;stroke-width:1px;stroke-linecap:butt;stroke-linejoin:miter;stroke-opacity:1" d="M 85.5089,346.708 94.7712,346.708 z" id="boundary" inkscape:connector-curvature="0" />
	<path style="fill:none;stroke:red;stroke-width:1px;stroke-linecap:butt;stroke-linejoin:miter;stroke-opacity:1" d="M 87.3613,946.909 94.7712,953.393 z" id="boundary" inkscape:connector-curvature="0" />
	<path style="fill:none;stroke:red;stroke-width:1px;stroke-linecap:butt;stroke-linejoin:miter;stroke-opacity:1" d="M 89.2138,656.997 98.4762,656.997 z" id="boundary" inkscape:connector-curvature="0" />
	<path style="fill:none;stroke:red;stroke-width:1px;stroke-linecap:butt;stroke-linejoin:miter;stroke-opacity:1" d="M 94.7712,346.708 104.034,346.708 z" id="boundary" inkscape:connector-curvature="0" />
	<path style="fill:none;stroke:red;stroke-width:1px;stroke-linecap:butt;stroke-linejoin:miter;stroke-opacity:1" d="M 94.7712,953.393 102.181,958.951 z" id="boundary" inkscape:connector-curvature="0" />
	<path style="fill:none;stroke:red;stroke-width:1px;stroke-linecap:butt;stroke-linejoin:miter;stroke-opacity:1" d="M 98.4762,656.997 107.739,656.997 z" id="boundary" inkscape:connector-curvature="0" />
	<path style="fill:none;stroke:red;stroke-width:1px;stroke-linecap:butt;stroke-linejoin:miter;stroke-opacity:1" d="M 104.034,346.708 113.296,346.708 z" id="boundary" inkscape:connector-curvature="0" />
	<path style="fill:none;stroke:red;stroke-width:1px;stroke-linecap:butt;stroke-linejoin:miter;stroke-opacity:1" d="M 107.739,656.997 117.001,656.997 z" id="boundary" inkscape:connector-curvature="0" />
	<path style="fill:none;stroke:red;stroke-width:1px;stroke-linecap:butt;stroke-linejoin:miter;stroke-opacity:1" d="M 113.296,346.708 122.558,346.708 z" id="boundary" inkscape:connector-curvature="0" />
	<path style="fill:none;stroke:red;stroke-width:1px;stroke-linecap:butt;stroke-linejoin:miter;stroke-opacity:1" d="M 117.001,656.997 125.337,661.628 z" id="boundary" inkscape:connector-curvature="0" />
	<path style="fill:none;stroke:red;stroke-width:1px;stroke-linecap:butt;stroke-linejoin:miter;stroke-opacity:1" d="M 122.558,346.708 130.894,351.339 z" id="boundary" inkscape:connector-curvature="0" />
	<path style="fill:none;stroke:red;stroke-width:1px;stroke-linecap:butt;stroke-linejoin:miter;stroke-opacity:1" d="M 125.337,661.628 134.599,664.407 z" id="boundary" inkscape:connector-curvature="0" />
	<path style="fill:none;stroke:red;stroke-width:1px;stroke-linecap:butt;stroke-linejoin:miter;stroke-opacity:1" d="M 136.452,972.844 144.788,977.475 z" id="boundary" inkscape:connector-curvature="0" />
	<path style="fill:none;stroke:red;stroke-width:1px;stroke-linecap:butt;stroke-linejoin:miter;stroke-opacity:1" d="M 144.788,977.475 154.05,977.475 z" id="boundary" inkscape:connector-curvature="0" />
	<path style="fill:none;stroke:red;stroke-width:1px;stroke-linecap:butt;stroke-linejoin:miter;stroke-opacity:1" d="M 154.05,977.475 163.313,977.475 z" id="boundary" inkscape:connector-curvature="0" />
	<path style="fill:none;stroke:red;stroke-width:1px;stroke-linecap:butt;stroke-linejoin:miter;stroke-opacity:1" d="M 156.829,229.076 156.829,238.338 z" id="boundary" inkscape:connector-curvature="0" />
	<path style="fill:none;stroke:red;stroke-width:1px;stroke-linecap:butt;stroke-linejoin:miter;stroke-opacity:1" d="M 156.829,229.076 161.46,215.182 z" id="boundary" inkscape:connector-curvature="0" />
	<path style="fill:none;stroke:red;stroke-width:1px;stroke-linecap:butt;stroke-linejoin:miter;stroke-opacity:1" d="M 156.829,238.338 156.829,247.6 z" id="boundary" inkscape:connector-curvature="0" />
	<path style="fill:none;stroke:red;stroke-width:1px;stroke-linecap:butt;stroke-linejoin:miter;stroke-opacity:1" d="M 156.829,247.6 156.829,256.863 z" id="boundary" inkscape:connector-curvature="0" />
	<path style="fill:none;stroke:red;stroke-width:1px;stroke-linecap:butt;stroke-linejoin:miter;stroke-opacity:1" d="M 156.829,256.863 156.829,266.125 z" id="boundary" inkscape:connector-curvature="0" />
	<path style="fill:none;stroke:red;stroke-width:1px;stroke-linecap:butt;stroke-linejoin:miter;stroke-opacity:1" d="M 156.829,266.125 161.46,274.461 z" id="boundary" inkscape:connector-curvature="0" />
	<path style="fill:none;stroke:red;stroke-width:1px;stroke-linecap:butt;stroke-linejoin:miter;stroke-opacity:1" d="M 157.755,693.12 162.387,701.457 z" id="boundary" inkscape:connector-curvature="0" />
	<path style="fill:none;stroke:red;stroke-width:1px;stroke-linecap:butt;stroke-linejoin:miter;stroke-opacity:1" d="M 161.46,205.92 161.46,215.182 z" id="boundary" inkscape:connector-curvature="0" />
	<path style="fill:none;stroke:red;stroke-width:1px;stroke-linecap:butt;stroke-linejoin:miter;stroke-opacity:1" d="M 161.46,205.92 166.092,196.657 z" id="boundary" inkscape:connector-curvature="0" />
	<path style="fill:none;stroke:red;stroke-width:1px;stroke-linecap:butt;stroke-linejoin:miter;stroke-opacity:1" d="M 162.387,701.457 168.87,708.866 z" id="boundary" inkscape:connector-curvature="0" />
	<path style="fill:none;stroke:red;stroke-width:1px;stroke-linecap:butt;stroke-linejoin:miter;stroke-opacity:1" d="M 166.092,196.657 170.723,187.395 z" id="boundary" inkscape:connector-curvature="0" />
	<path style="fill:none;stroke:red;stroke-width:1px;stroke-linecap:butt;stroke-linejoin:miter;stroke-opacity:1" d="M 168.87,708.866 173.501,717.203 z" id="boundary" inkscape:connector-curvature="0" />
	<path style="fill:none;stroke:red;stroke-width:1px;stroke-linecap:butt;stroke-linejoin:miter;stroke-opacity:1" d="M 170.723,187.395 175.354,178.133 z" id="boundary" inkscape:connector-curvature="0" />
	<path style="fill:none;stroke:red;stroke-width:1px;stroke-linecap:butt;stroke-linejoin:miter;stroke-opacity:1" d="M 170.723,291.134 176.28,298.543 z" id="boundary" inkscape:connector-curvature="0" />
	<path style="fill:none;stroke:red;stroke-width:1px;stroke-linecap:butt;stroke-linejoin:miter;stroke-opacity:1" d="M 172.575,619.021 181.838,620.874 z" id="boundary" inkscape:connector-curvature="0" />
	<path style="fill:none;stroke:red;stroke-width:1px;stroke-linecap:butt;stroke-linejoin:miter;stroke-opacity:1" d="M 173.501,717.203 179.985,724.613 z" id="boundary" inkscape:connector-curvature="0" />
	<path style="fill:none;stroke:red;stroke-width:1px;stroke-linecap:butt;stroke-linejoin:miter;stroke-opacity:1" d="M 175.354,178.133 179.985,168.87 z" id="boundary" inkscape:connector-curvature="0" />
	<path style="fill:none;stroke:red;stroke-width:1px;stroke-linecap:butt;stroke-linejoin:miter;stroke-opacity:1" d="M 176.28,298.543 182.764,305.953 z" id="boundary" inkscape:connector-curvature="0" />
	<path style="fill:none;stroke:red;stroke-width:1px;stroke-linecap:butt;stroke-linejoin:miter;stroke-opacity:1" d="M 180.911,982.106 190.174,982.106 z" id="boundary" inkscape:connector-curvature="0" />
	<path style="fill:none;stroke:red;stroke-width:1px;stroke-linecap:butt;stroke-linejoin:miter;stroke-opacity:1" d="M 181.838,620.874 191.1,620.874 z" id="boundary" inkscape:connector-curvature="0" />
	<path style="fill:none;stroke:red;stroke-width:1px;stroke-linecap:butt;stroke-linejoin:miter;stroke-opacity:1" d="M 182.764,305.953 187.395,314.289 z" id="boundary" inkscape:connector-curvature="0" />
	<path style="fill:none;stroke:red;stroke-width:1px;stroke-linecap:butt;stroke-linejoin:miter;stroke-opacity:1" d="M 185.542,383.757 190.174,392.093 z" id="boundary" inkscape:connector-curvature="0" />
	<path style="fill:none;stroke:red;stroke-width:1px;stroke-linecap:butt;stroke-linejoin:miter;stroke-opacity:1" d="M 190.174,392.093 190.174,401.356 z" id="boundary" inkscape:connector-curvature="0" />
	<path style="fill:none;stroke:red;stroke-width:1px;stroke-linecap:butt;stroke-linejoin:miter;stroke-opacity:1" d="M 190.174,401.356 190.174,410.618 z" id="boundary" inkscape:connector-curvature="0" />
	<path style="fill:none;stroke:red;stroke-width:1px;stroke-linecap:butt;stroke-linejoin:miter;stroke-opacity:1" d="M 190.174,410.618 190.174,419.88 z" id="boundary" inkscape:connector-curvature="0" />
	<path style="fill:none;stroke:red;stroke-width:1px;stroke-linecap:butt;stroke-linejoin:miter;stroke-opacity:1" d="M 190.174,419.88 199.436,416.176 z" id="boundary" inkscape:connector-curvature="0" />
	<path style="fill:none;stroke:red;stroke-width:1px;stroke-linecap:butt;stroke-linejoin:miter;stroke-opacity:1" d="M 190.174,982.106 199.436,982.106 z" id="boundary" inkscape:connector-curvature="0" />
	<path style="fill:none;stroke:red;stroke-width:1px;stroke-linecap:butt;stroke-linejoin:miter;stroke-opacity:1" d="M 191.1,620.874 200.362,620.874 z" id="boundary" inkscape:connector-curvature="0" />
	<path style="fill:none;stroke:red;stroke-width:1px;stroke-linecap:butt;stroke-linejoin:miter;stroke-opacity:1" d="M 196.657,156.829 205.92,152.198 z" id="boundary" inkscape:connector-curvature="0" />
	<path style="fill:none;stroke:red;stroke-width:1px;stroke-linecap:butt;stroke-linejoin:miter;stroke-opacity:1" d="M 196.657,759.81 201.289,768.146 z" id="boundary" inkscape:connector-curvature="0" />
	<path style="fill:none;stroke:red;stroke-width:1px;stroke-linecap:butt;stroke-linejoin:miter;stroke-opacity:1" d="M 199.436,982.106 208.698,977.475 z" id="boundary" inkscape:connector-curvature="0" />
	<path style="fill:none;stroke:red;stroke-width:1px;stroke-linecap:butt;stroke-linejoin:miter;stroke-opacity:1" d="M 200.362,620.874 207.772,635.694 z" id="boundary" inkscape:connector-curvature="0" />
	<path style="fill:none;stroke:red;stroke-width:1px;stroke-linecap:butt;stroke-linejoin:miter;stroke-opacity:1" d="M 201.289,768.146 204.067,777.408 z" id="boundary" inkscape:connector-curvature="0" />
	<path style="fill:none;stroke:red;stroke-width:1px;stroke-linecap:butt;stroke-linejoin:miter;stroke-opacity:1" d="M 204.067,777.408 212.403,782.039 z" id="boundary" inkscape:connector-curvature="0" />
	<path style="fill:none;stroke:red;stroke-width:1px;stroke-linecap:butt;stroke-linejoin:miter;stroke-opacity:1" d="M 204.993,319.847 213.33,324.478 z" id="boundary" inkscape:connector-curvature="0" />
	<path style="fill:none;stroke:red;stroke-width:1px;stroke-linecap:butt;stroke-linejoin:miter;stroke-opacity:1" d="M 205.92,152.198 215.182,147.567 z" id="boundary" inkscape:connector-curvature="0" />
	<path style="fill:none;stroke:red;stroke-width:1px;stroke-linecap:butt;stroke-linejoin:miter;stroke-opacity:1" d="M 207.772,635.694 212.403,644.03 z" id="boundary" inkscape:connector-curvature="0" />
	<path style="fill:none;stroke:red;stroke-width:1px;stroke-linecap:butt;stroke-linejoin:miter;stroke-opacity:1" d="M 208.698,977.475 217.961,977.475 z" id="boundary" inkscape:connector-curvature="0" />
	<path style="fill:none;stroke:red;stroke-width:1px;stroke-linecap:butt;stroke-linejoin:miter;stroke-opacity:1" d="M 212.403,644.03 212.403,653.292 z" id="boundary" inkscape:connector-curvature="0" />
	<path style="fill:none;stroke:red;stroke-width:1px;stroke-linecap:butt;stroke-linejoin:miter;stroke-opacity:1" d="M 212.403,653.292 212.403,662.555 z" id="boundary" inkscape:connector-curvature="0" />
	<path style="fill:none;stroke:red;stroke-width:1px;stroke-linecap:butt;stroke-linejoin:miter;stroke-opacity:1" d="M 212.403,662.555 217.035,670.891 z" id="boundary" inkscape:connector-curvature="0" />
	<path style="fill:none;stroke:red;stroke-width:1px;stroke-linecap:butt;stroke-linejoin:miter;stroke-opacity:1" d="M 212.403,782.039 221.666,782.039 z" id="boundary" inkscape:connector-curvature="0" />
	<path style="fill:none;stroke:red;stroke-width:1px;stroke-linecap:butt;stroke-linejoin:miter;stroke-opacity:1" d="M 213.33,324.478 222.592,324.478 z" id="boundary" inkscape:connector-curvature="0" />
	<path style="fill:none;stroke:red;stroke-width:1px;stroke-linecap:butt;stroke-linejoin:miter;stroke-opacity:1" d="M 215.182,147.567 224.444,147.567 z" id="boundary" inkscape:connector-curvature="0" />
	<path style="fill:none;stroke:red;stroke-width:1px;stroke-linecap:butt;stroke-linejoin:miter;stroke-opacity:1" d="M 216.108,406.913 225.371,406.913 z" id="boundary" inkscape:connector-curvature="0" />
	<path style="fill:none;stroke:red;stroke-width:1px;stroke-linecap:butt;stroke-linejoin:miter;stroke-opacity:1" d="M 217.035,670.891 217.035,680.153 z" id="boundary" inkscape:connector-curvature="0" />
	<path style="fill:none;stroke:red;stroke-width:1px;stroke-linecap:butt;stroke-linejoin:miter;stroke-opacity:1" d="M 217.035,680.153 222.592,697.752 z" id="boundary" inkscape:connector-curvature="0" />
	<path style="fill:none;stroke:red;stroke-width:1px;stroke-linecap:butt;stroke-linejoin:miter;stroke-opacity:1" d="M 217.961,977.475 226.297,972.844 z" id="boundary" inkscape:connector-curvature="0" />
	<path style="fill:none;stroke:red;stroke-width:1px;stroke-linecap:butt;stroke-linejoin:miter;stroke-opacity:1" d="M 221.666,782.039 226.297,771.851 z" id="boundary" inkscape:connector-curvature="0" />
	<path style="fill:none;stroke:red;stroke-width:1px;stroke-linecap:butt;stroke-linejoin:miter;stroke-opacity:1" d="M 222.592,324.478 231.854,324.478 z" id="boundary" inkscape:connector-curvature="0" />
	<path style="fill:none;stroke:red;stroke-width:1px;stroke-linecap:butt;stroke-linejoin:miter;stroke-opacity:1" d="M 222.592,697.752 226.297,707.014 z" id="boundary" inkscape:connector-curvature="0" />
	<path style="fill:none;stroke:red;stroke-width:1px;stroke-linecap:butt;stroke-linejoin:miter;stroke-opacity:1" d="M 224.444,147.567 233.707,142.936 z" id="boundary" inkscape:connector-curvature="0" />
	<path style="fill:none;stroke:red;stroke-width:1px;stroke-linecap:butt;stroke-linejoin:miter;stroke-opacity:1" d="M 225.371,406.913 234.633,406.913 z" id="boundary" inkscape:connector-curvature="0" />
	<path style="fill:none;stroke:red;stroke-width:1px;stroke-linecap:butt;stroke-linejoin:miter;stroke-opacity:1" d="M 226.297,707.014 226.297,716.276 z" id="boundary" inkscape:connector-curvature="0" />
	<path style="fill:none;stroke:red;stroke-width:1px;stroke-linecap:butt;stroke-linejoin:miter;stroke-opacity:1" d="M 226.297,716.276 226.297,725.539 z" id="boundary" inkscape:connector-curvature="0" />
	<path style="fill:none;stroke:red;stroke-width:1px;stroke-linecap:butt;stroke-linejoin:miter;stroke-opacity:1" d="M 226.297,725.539 226.297,734.801 z" id="boundary" inkscape:connector-curvature="0" />
	<path style="fill:none;stroke:red;stroke-width:1px;stroke-linecap:butt;stroke-linejoin:miter;stroke-opacity:1" d="M 226.297,734.801 226.297,744.063 z" id="boundary" inkscape:connector-curvature="0" />
	<path style="fill:none;stroke:red;stroke-width:1px;stroke-linecap:butt;stroke-linejoin:miter;stroke-opacity:1" d="M 226.297,744.063 226.297,753.326 z" id="boundary" inkscape:connector-curvature="0" />
	<path style="fill:none;stroke:red;stroke-width:1px;stroke-linecap:butt;stroke-linejoin:miter;stroke-opacity:1" d="M 226.297,753.326 226.297,762.588 z" id="boundary" inkscape:connector-curvature="0" />
	<path style="fill:none;stroke:red;stroke-width:1px;stroke-linecap:butt;stroke-linejoin:miter;stroke-opacity:1" d="M 226.297,762.588 226.297,771.851 z" id="boundary" inkscape:connector-curvature="0" />
	<path style="fill:none;stroke:red;stroke-width:1px;stroke-linecap:butt;stroke-linejoin:miter;stroke-opacity:1" d="M 226.297,972.844 235.559,972.844 z" id="boundary" inkscape:connector-curvature="0" />
	<path style="fill:none;stroke:red;stroke-width:1px;stroke-linecap:butt;stroke-linejoin:miter;stroke-opacity:1" d="M 231.854,324.478 241.117,324.478 z" id="boundary" inkscape:connector-curvature="0" />
	<path style="fill:none;stroke:red;stroke-width:1px;stroke-linecap:butt;stroke-linejoin:miter;stroke-opacity:1" d="M 233.707,142.936 242.969,142.936 z" id="boundary" inkscape:connector-curvature="0" />
	<path style="fill:none;stroke:red;stroke-width:1px;stroke-linecap:butt;stroke-linejoin:miter;stroke-opacity:1" d="M 234.633,406.913 243.895,406.913 z" id="boundary" inkscape:connector-curvature="0" />
	<path style="fill:none;stroke:red;stroke-width:1px;stroke-linecap:butt;stroke-linejoin:miter;stroke-opacity:1" d="M 241.117,324.478 244.822,333.74 z" id="boundary" inkscape:connector-curvature="0" />
	<path style="fill:none;stroke:red;stroke-width:1px;stroke-linecap:butt;stroke-linejoin:miter;stroke-opacity:1" d="M 242.969,142.936 252.232,142.936 z" id="boundary" inkscape:connector-curvature="0" />
	<path style="fill:none;stroke:red;stroke-width:1px;stroke-linecap:butt;stroke-linejoin:miter;stroke-opacity:1" d="M 243.895,406.913 253.158,406.913 z" id="boundary" inkscape:connector-curvature="0" />
	<path style="fill:none;stroke:red;stroke-width:1px;stroke-linecap:butt;stroke-linejoin:miter;stroke-opacity:1" d="M 244.822,333.74 249.453,342.077 z" id="boundary" inkscape:connector-curvature="0" />
	<path style="fill:none;stroke:red;stroke-width:1px;stroke-linecap:butt;stroke-linejoin:miter;stroke-opacity:1" d="M 252.232,142.936 261.494,142.936 z" id="boundary" inkscape:connector-curvature="0" />
	<path style="fill:none;stroke:red;stroke-width:1px;stroke-linecap:butt;stroke-linejoin:miter;stroke-opacity:1" d="M 252.232,963.582 261.494,962.655 z" id="boundary" inkscape:connector-curvature="0" />
	<path style="fill:none;stroke:red;stroke-width:1px;stroke-linecap:butt;stroke-linejoin:miter;stroke-opacity:1" d="M 253.158,406.913 262.42,406.913 z" id="boundary" inkscape:connector-curvature="0" />
	<path style="fill:none;stroke:red;stroke-width:1px;stroke-linecap:butt;stroke-linejoin:miter;stroke-opacity:1" d="M 261.494,142.936 270.756,142.936 z" id="boundary" inkscape:connector-curvature="0" />
	<path style="fill:none;stroke:red;stroke-width:1px;stroke-linecap:butt;stroke-linejoin:miter;stroke-opacity:1" d="M 261.494,962.655 270.756,958.024 z" id="boundary" inkscape:connector-curvature="0" />
	<path style="fill:none;stroke:red;stroke-width:1px;stroke-linecap:butt;stroke-linejoin:miter;stroke-opacity:1" d="M 262.42,406.913 270.756,411.544 z" id="boundary" inkscape:connector-curvature="0" />
	<path style="fill:none;stroke:red;stroke-width:1px;stroke-linecap:butt;stroke-linejoin:miter;stroke-opacity:1" d="M 270.756,142.936 278.166,135.526 z" id="boundary" inkscape:connector-curvature="0" />
	<path style="fill:none;stroke:red;stroke-width:1px;stroke-linecap:butt;stroke-linejoin:miter;stroke-opacity:1" d="M 270.756,958.024 280.019,953.393 z" id="boundary" inkscape:connector-curvature="0" />
	<path style="fill:none;stroke:red;stroke-width:1px;stroke-linecap:butt;stroke-linejoin:miter;stroke-opacity:1" d="M 280.019,953.393 289.281,948.762 z" id="boundary" inkscape:connector-curvature="0" />
	<path style="fill:none;stroke:red;stroke-width:1px;stroke-linecap:butt;stroke-linejoin:miter;stroke-opacity:1" d="M 281.871,57.7218 281.871,66.9841 z" id="boundary" inkscape:connector-curvature="0" />
	<path style="fill:none;stroke:red;stroke-width:1px;stroke-linecap:butt;stroke-linejoin:miter;stroke-opacity:1" d="M 281.871,57.7218 286.502,48.4594 z" id="boundary" inkscape:connector-curvature="0" />
	<path style="fill:none;stroke:red;stroke-width:1px;stroke-linecap:butt;stroke-linejoin:miter;stroke-opacity:1" d="M 281.871,66.9841 281.871,76.2465 z" id="boundary" inkscape:connector-curvature="0" />
	<path style="fill:none;stroke:red;stroke-width:1px;stroke-linecap:butt;stroke-linejoin:miter;stroke-opacity:1" d="M 281.871,76.2465 286.502,93.845 z" id="boundary" inkscape:connector-curvature="0" />
	<path style="fill:none;stroke:red;stroke-width:1px;stroke-linecap:butt;stroke-linejoin:miter;stroke-opacity:1" d="M 286.502,48.4594 291.134,39.197 z" id="boundary" inkscape:connector-curvature="0" />
	<path style="fill:none;stroke:red;stroke-width:1px;stroke-linecap:butt;stroke-linejoin:miter;stroke-opacity:1" d="M 286.502,93.845 286.502,103.107 z" id="boundary" inkscape:connector-curvature="0" />
	<path style="fill:none;stroke:red;stroke-width:1px;stroke-linecap:butt;stroke-linejoin:miter;stroke-opacity:1" d="M 286.502,103.107 286.502,112.37 z" id="boundary" inkscape:connector-curvature="0" />
	<path style="fill:none;stroke:red;stroke-width:1px;stroke-linecap:butt;stroke-linejoin:miter;stroke-opacity:1" d="M 289.281,948.762 298.543,944.131 z" id="boundary" inkscape:connector-curvature="0" />
	<path style="fill:none;stroke:red;stroke-width:1px;stroke-linecap:butt;stroke-linejoin:miter;stroke-opacity:1" d="M 291.134,39.197 295.765,29.9346 z" id="boundary" inkscape:connector-curvature="0" />
	<path style="fill:none;stroke:red;stroke-width:1px;stroke-linecap:butt;stroke-linejoin:miter;stroke-opacity:1" d="M 298.543,944.131 307.806,939.5 z" id="boundary" inkscape:connector-curvature="0" />
	<path style="fill:none;stroke:red;stroke-width:1px;stroke-linecap:butt;stroke-linejoin:miter;stroke-opacity:1" d="M 307.806,939.5 317.068,934.868 z" id="boundary" inkscape:connector-curvature="0" />
	<path style="fill:none;stroke:red;stroke-width:1px;stroke-linecap:butt;stroke-linejoin:miter;stroke-opacity:1" d="M 316.142,8.63119 333.74,6.77871 z" id="boundary" inkscape:connector-curvature="0" />
	<path style="fill:none;stroke:red;stroke-width:1px;stroke-linecap:butt;stroke-linejoin:miter;stroke-opacity:1" d="M 332.814,921.901 350.413,917.27 z" id="boundary" inkscape:connector-curvature="0" />
	<path style="fill:none;stroke:red;stroke-width:1px;stroke-linecap:butt;stroke-linejoin:miter;stroke-opacity:1" d="M 333.74,6.77871 343.003,8.63119 z" id="boundary" inkscape:connector-curvature="0" />
	<path style="fill:none;stroke:red;stroke-width:1px;stroke-linecap:butt;stroke-linejoin:miter;stroke-opacity:1" d="M 343.003,8.63119 352.265,11.4099 z" id="boundary" inkscape:connector-curvature="0" />
	<path style="fill:none;stroke:red;stroke-width:1px;stroke-linecap:butt;stroke-linejoin:miter;stroke-opacity:1" d="M 350.413,917.27 359.675,917.27 z" id="boundary" inkscape:connector-curvature="0" />
	<path style="fill:none;stroke:red;stroke-width:1px;stroke-linecap:butt;stroke-linejoin:miter;stroke-opacity:1" d="M 352.265,11.4099 361.528,13.2624 z" id="boundary" inkscape:connector-curvature="0" />
	<path style="fill:none;stroke:red;stroke-width:1px;stroke-linecap:butt;stroke-linejoin:miter;stroke-opacity:1" d="M 359.675,917.27 368.937,917.27 z" id="boundary" inkscape:connector-curvature="0" />
	<path style="fill:none;stroke:red;stroke-width:1px;stroke-linecap:butt;stroke-linejoin:miter;stroke-opacity:1" d="M 361.528,13.2624 369.864,17.8936 z" id="boundary" inkscape:connector-curvature="0" />
	<path style="fill:none;stroke:red;stroke-width:1px;stroke-linecap:butt;stroke-linejoin:miter;stroke-opacity:1" d="M 368.937,917.27 377.274,921.901 z" id="boundary" inkscape:connector-curvature="0" />
	<path style="fill:none;stroke:red;stroke-width:1px;stroke-linecap:butt;stroke-linejoin:miter;stroke-opacity:1" d="M 369.864,17.8936 386.536,27.1559 z" id="boundary" inkscape:connector-curvature="0" />
	<path style="fill:none;stroke:red;stroke-width:1px;stroke-linecap:butt;stroke-linejoin:miter;stroke-opacity:1" d="M 377.274,921.901 384.683,928.385 z" id="boundary" inkscape:connector-curvature="0" />
	<path style="fill:none;stroke:red;stroke-width:1px;stroke-linecap:butt;stroke-linejoin:miter;stroke-opacity:1" d="M 384.683,928.385 391.167,935.795 z" id="boundary" inkscape:connector-curvature="0" />
	<path style="fill:none;stroke:red;stroke-width:1px;stroke-linecap:butt;stroke-linejoin:miter;stroke-opacity:1" d="M 386.536,27.1559 394.872,31.7871 z" id="boundary" inkscape:connector-curvature="0" />
	<path style="fill:none;stroke:red;stroke-width:1px;stroke-linecap:butt;stroke-linejoin:miter;stroke-opacity:1" d="M 391.167,935.795 406.913,946.909 z" id="boundary" inkscape:connector-curvature="0" />
	<path style="fill:none;stroke:red;stroke-width:1px;stroke-linecap:butt;stroke-linejoin:miter;stroke-opacity:1" d="M 394.872,31.7871 412.471,39.197 z" id="boundary" inkscape:connector-curvature="0" />
	<path style="fill:none;stroke:red;stroke-width:1px;stroke-linecap:butt;stroke-linejoin:miter;stroke-opacity:1" d="M 406.913,946.909 416.176,949.688 z" id="boundary" inkscape:connector-curvature="0" />
	<path style="fill:none;stroke:red;stroke-width:1px;stroke-linecap:butt;stroke-linejoin:miter;stroke-opacity:1" d="M 412.471,39.197 421.733,41.0495 z" id="boundary" inkscape:connector-curvature="0" />
	<path style="fill:none;stroke:red;stroke-width:1px;stroke-linecap:butt;stroke-linejoin:miter;stroke-opacity:1" d="M 416.176,949.688 425.438,949.688 z" id="boundary" inkscape:connector-curvature="0" />
	<path style="fill:none;stroke:red;stroke-width:1px;stroke-linecap:butt;stroke-linejoin:miter;stroke-opacity:1" d="M 421.733,41.0495 430.995,41.0495 z" id="boundary" inkscape:connector-curvature="0" />
	<path style="fill:none;stroke:red;stroke-width:1px;stroke-linecap:butt;stroke-linejoin:miter;stroke-opacity:1" d="M 425.438,949.688 433.774,954.319 z" id="boundary" inkscape:connector-curvature="0" />
	<path style="fill:none;stroke:red;stroke-width:1px;stroke-linecap:butt;stroke-linejoin:miter;stroke-opacity:1" d="M 430.995,41.0495 440.258,41.0495 z" id="boundary" inkscape:connector-curvature="0" />
	<path style="fill:none;stroke:red;stroke-width:1px;stroke-linecap:butt;stroke-linejoin:miter;stroke-opacity:1" d="M 433.774,954.319 443.036,954.319 z" id="boundary" inkscape:connector-curvature="0" />
	<path style="fill:none;stroke:red;stroke-width:1px;stroke-linecap:butt;stroke-linejoin:miter;stroke-opacity:1" d="M 440.258,41.0495 449.52,41.0495 z" id="boundary" inkscape:connector-curvature="0" />
	<path style="fill:none;stroke:red;stroke-width:1px;stroke-linecap:butt;stroke-linejoin:miter;stroke-opacity:1" d="M 443.036,954.319 452.299,954.319 z" id="boundary" inkscape:connector-curvature="0" />
	<path style="fill:none;stroke:red;stroke-width:1px;stroke-linecap:butt;stroke-linejoin:miter;stroke-opacity:1" d="M 449.52,41.0495 458.782,41.0495 z" id="boundary" inkscape:connector-curvature="0" />
	<path style="fill:none;stroke:red;stroke-width:1px;stroke-linecap:butt;stroke-linejoin:miter;stroke-opacity:1" d="M 452.299,954.319 461.561,954.319 z" id="boundary" inkscape:connector-curvature="0" />
	<path style="fill:none;stroke:red;stroke-width:1px;stroke-linecap:butt;stroke-linejoin:miter;stroke-opacity:1" d="M 458.782,41.0495 468.045,41.0495 z" id="boundary" inkscape:connector-curvature="0" />
	<path style="fill:none;stroke:red;stroke-width:1px;stroke-linecap:butt;stroke-linejoin:miter;stroke-opacity:1" d="M 461.561,954.319 470.824,954.319 z" id="boundary" inkscape:connector-curvature="0" />
	<path style="fill:none;stroke:red;stroke-width:1px;stroke-linecap:butt;stroke-linejoin:miter;stroke-opacity:1" d="M 468.045,41.0495 477.307,41.0495 z" id="boundary" inkscape:connector-curvature="0" />
	<path style="fill:none;stroke:red;stroke-width:1px;stroke-linecap:butt;stroke-linejoin:miter;stroke-opacity:1" d="M 470.824,954.319 480.086,954.319 z" id="boundary" inkscape:connector-curvature="0" />
	<path style="fill:none;stroke:red;stroke-width:1px;stroke-linecap:butt;stroke-linejoin:miter;stroke-opacity:1" d="M 477.307,41.0495 486.57,41.0495 z" id="boundary" inkscape:connector-curvature="0" />
	<path style="fill:none;stroke:red;stroke-width:1px;stroke-linecap:butt;stroke-linejoin:miter;stroke-opacity:1" d="M 480.086,954.319 489.348,952.467 z" id="boundary" inkscape:connector-curvature="0" />
	<path style="fill:none;stroke:red;stroke-width:1px;stroke-linecap:butt;stroke-linejoin:miter;stroke-opacity:1" d="M 486.57,41.0495 494.906,36.4183 z" id="boundary" inkscape:connector-curvature="0" />
	<path style="fill:none;stroke:red;stroke-width:1px;stroke-linecap:butt;stroke-linejoin:miter;stroke-opacity:1" d="M 489.348,952.467 498.611,947.836 z" id="boundary" inkscape:connector-curvature="0" />
	<path style="fill:none;stroke:red;stroke-width:1px;stroke-linecap:butt;stroke-linejoin:miter;stroke-opacity:1" d="M 494.906,36.4183 504.168,36.4183 z" id="boundary" inkscape:connector-curvature="0" />
	<path style="fill:none;stroke:red;stroke-width:1px;stroke-linecap:butt;stroke-linejoin:miter;stroke-opacity:1" d="M 498.611,947.836 507.873,943.204 z" id="boundary" inkscape:connector-curvature="0" />
	<path style="fill:none;stroke:red;stroke-width:1px;stroke-linecap:butt;stroke-linejoin:miter;stroke-opacity:1" d="M 504.168,36.4183 513.43,36.4183 z" id="boundary" inkscape:connector-curvature="0" />
	<path style="fill:none;stroke:red;stroke-width:1px;stroke-linecap:butt;stroke-linejoin:miter;stroke-opacity:1" d="M 513.43,36.4183 521.767,31.7871 z" id="boundary" inkscape:connector-curvature="0" />
	<path style="fill:none;stroke:red;stroke-width:1px;stroke-linecap:butt;stroke-linejoin:miter;stroke-opacity:1" d="M 521.767,31.7871 531.029,31.7871 z" id="boundary" inkscape:connector-curvature="0" />
	<path style="fill:none;stroke:red;stroke-width:1px;stroke-linecap:butt;stroke-linejoin:miter;stroke-opacity:1" d="M 523.619,931.163 532.881,926.532 z" id="boundary" inkscape:connector-curvature="0" />
	<path style="fill:none;stroke:red;stroke-width:1px;stroke-linecap:butt;stroke-linejoin:miter;stroke-opacity:1" d="M 531.029,31.7871 548.627,27.1559 z" id="boundary" inkscape:connector-curvature="0" />
	<path style="fill:none;stroke:red;stroke-width:1px;stroke-linecap:butt;stroke-linejoin:miter;stroke-opacity:1" d="M 532.881,926.532 537.513,917.27 z" id="boundary" inkscape:connector-curvature="0" />
	<path style="fill:none;stroke:red;stroke-width:1px;stroke-linecap:butt;stroke-linejoin:miter;stroke-opacity:1" d="M 537.513,917.27 542.144,908.007 z" id="boundary" inkscape:connector-curvature="0" />
	<path style="fill:none;stroke:red;stroke-width:1px;stroke-linecap:butt;stroke-linejoin:miter;stroke-opacity:1" d="M 542.144,908.007 551.406,909.86 z" id="boundary" inkscape:connector-curvature="0" />
	<path style="fill:none;stroke:red;stroke-width:1px;stroke-linecap:butt;stroke-linejoin:miter;stroke-opacity:1" d="M 548.627,27.1559 557.89,27.1559 z" id="boundary" inkscape:connector-curvature="0" />
	<path style="fill:none;stroke:red;stroke-width:1px;stroke-linecap:butt;stroke-linejoin:miter;stroke-opacity:1" d="M 551.406,909.86 557.89,917.27 z" id="boundary" inkscape:connector-curvature="0" />
	<path style="fill:none;stroke:red;stroke-width:1px;stroke-linecap:butt;stroke-linejoin:miter;stroke-opacity:1" d="M 557.89,27.1559 566.226,22.5247 z" id="boundary" inkscape:connector-curvature="0" />
	<path style="fill:none;stroke:red;stroke-width:1px;stroke-linecap:butt;stroke-linejoin:miter;stroke-opacity:1" d="M 557.89,917.27 562.521,925.606 z" id="boundary" inkscape:connector-curvature="0" />
	<path style="fill:none;stroke:red;stroke-width:1px;stroke-linecap:butt;stroke-linejoin:miter;stroke-opacity:1" d="M 562.521,925.606 569.005,933.016 z" id="boundary" inkscape:connector-curvature="0" />
	<path style="fill:none;stroke:red;stroke-width:1px;stroke-linecap:butt;stroke-linejoin:miter;stroke-opacity:1" d="M 566.226,22.5247 575.488,22.5247 z" id="boundary" inkscape:connector-curvature="0" />
	<path style="fill:none;stroke:red;stroke-width:1px;stroke-linecap:butt;stroke-linejoin:miter;stroke-opacity:1" d="M 569.005,933.016 576.415,939.5 z" id="boundary" inkscape:connector-curvature="0" />
	<path style="fill:none;stroke:red;stroke-width:1px;stroke-linecap:butt;stroke-linejoin:miter;stroke-opacity:1" d="M 575.488,22.5247 584.751,22.5247 z" id="boundary" inkscape:connector-curvature="0" />
	<path style="fill:none;stroke:red;stroke-width:1px;stroke-linecap:butt;stroke-linejoin:miter;stroke-opacity:1" d="M 584.751,22.5247 594.013,22.5247 z" id="boundary" inkscape:connector-curvature="0" />
	<path style="fill:none;stroke:red;stroke-width:1px;stroke-linecap:butt;stroke-linejoin:miter;stroke-opacity:1" d="M 594.013,22.5247 602.349,27.1559 z" id="boundary" inkscape:connector-curvature="0" />
	<path style="fill:none;stroke:red;stroke-width:1px;stroke-linecap:butt;stroke-linejoin:miter;stroke-opacity:1" d="M 618.095,37.3445 625.505,43.8282 z" id="boundary" inkscape:connector-curvature="0" />
	<path style="fill:none;stroke:red;stroke-width:1px;stroke-linecap:butt;stroke-linejoin:miter;stroke-opacity:1" d="M 620.874,343.003 620.874,352.265 z" id="boundary" inkscape:connector-curvature="0" />
	<path style="fill:none;stroke:red;stroke-width:1px;stroke-linecap:butt;stroke-linejoin:miter;stroke-opacity:1" d="M 620.874,352.265 620.874,361.528 z" id="boundary" inkscape:connector-curvature="0" />
	<path style="fill:none;stroke:red;stroke-width:1px;stroke-linecap:butt;stroke-linejoin:miter;stroke-opacity:1" d="M 620.874,361.528 620.874,370.79 z" id="boundary" inkscape:connector-curvature="0" />
	<path style="fill:none;stroke:red;stroke-width:1px;stroke-linecap:butt;stroke-linejoin:miter;stroke-opacity:1" d="M 620.874,370.79 625.505,379.126 z" id="boundary" inkscape:connector-curvature="0" />
	<path style="fill:none;stroke:red;stroke-width:1px;stroke-linecap:butt;stroke-linejoin:miter;stroke-opacity:1" d="M 622.726,971.918 631.063,976.549 z" id="boundary" inkscape:connector-curvature="0" />
	<path style="fill:none;stroke:red;stroke-width:1px;stroke-linecap:butt;stroke-linejoin:miter;stroke-opacity:1" d="M 625.505,43.8282 633.841,48.4594 z" id="boundary" inkscape:connector-curvature="0" />
	<path style="fill:none;stroke:red;stroke-width:1px;stroke-linecap:butt;stroke-linejoin:miter;stroke-opacity:1" d="M 625.505,388.388 639.399,397.651 z" id="boundary" inkscape:connector-curvature="0" />
	<path style="fill:none;stroke:red;stroke-width:1px;stroke-linecap:butt;stroke-linejoin:miter;stroke-opacity:1" d="M 631.063,976.549 640.325,980.254 z" id="boundary" inkscape:connector-curvature="0" />
	<path style="fill:none;stroke:red;stroke-width:1px;stroke-linecap:butt;stroke-linejoin:miter;stroke-opacity:1" d="M 633.841,48.4594 644.03,64.2054 z" id="boundary" inkscape:connector-curvature="0" />
	<path style="fill:none;stroke:red;stroke-width:1px;stroke-linecap:butt;stroke-linejoin:miter;stroke-opacity:1" d="M 639.399,397.651 648.661,397.651 z" id="boundary" inkscape:connector-curvature="0" />
	<path style="fill:none;stroke:red;stroke-width:1px;stroke-linecap:butt;stroke-linejoin:miter;stroke-opacity:1" d="M 640.325,980.254 649.587,982.106 z" id="boundary" inkscape:connector-curvature="0" />
	<path style="fill:none;stroke:red;stroke-width:1px;stroke-linecap:butt;stroke-linejoin:miter;stroke-opacity:1" d="M 644.03,64.2054 648.661,81.8039 z" id="boundary" inkscape:connector-curvature="0" />
	<path style="fill:none;stroke:red;stroke-width:1px;stroke-linecap:butt;stroke-linejoin:miter;stroke-opacity:1" d="M 648.661,81.8039 656.071,88.2876 z" id="boundary" inkscape:connector-curvature="0" />
	<path style="fill:none;stroke:red;stroke-width:1px;stroke-linecap:butt;stroke-linejoin:miter;stroke-opacity:1" d="M 648.661,397.651 657.923,394.872 z" id="boundary" inkscape:connector-curvature="0" />
	<path style="fill:none;stroke:red;stroke-width:1px;stroke-linecap:butt;stroke-linejoin:miter;stroke-opacity:1" d="M 649.587,982.106 658.85,982.106 z" id="boundary" inkscape:connector-curvature="0" />
	<path style="fill:none;stroke:red;stroke-width:1px;stroke-linecap:butt;stroke-linejoin:miter;stroke-opacity:1" d="M 656.071,88.2876 662.555,95.6975 z" id="boundary" inkscape:connector-curvature="0" />
	<path style="fill:none;stroke:red;stroke-width:1px;stroke-linecap:butt;stroke-linejoin:miter;stroke-opacity:1" d="M 657.923,394.872 667.186,393.02 z" id="boundary" inkscape:connector-curvature="0" />
	<path style="fill:none;stroke:red;stroke-width:1px;stroke-linecap:butt;stroke-linejoin:miter;stroke-opacity:1" d="M 658.85,982.106 667.186,986.738 z" id="boundary" inkscape:connector-curvature="0" />
	<path style="fill:none;stroke:red;stroke-width:1px;stroke-linecap:butt;stroke-linejoin:miter;stroke-opacity:1" d="M 662.555,95.6975 667.186,113.296 z" id="boundary" inkscape:connector-curvature="0" />
	<path style="fill:none;stroke:red;stroke-width:1px;stroke-linecap:butt;stroke-linejoin:miter;stroke-opacity:1" d="M 667.186,113.296 682.932,124.411 z" id="boundary" inkscape:connector-curvature="0" />
	<path style="fill:none;stroke:red;stroke-width:1px;stroke-linecap:butt;stroke-linejoin:miter;stroke-opacity:1" d="M 667.186,393.02 676.448,393.02 z" id="boundary" inkscape:connector-curvature="0" />
	<path style="fill:none;stroke:red;stroke-width:1px;stroke-linecap:butt;stroke-linejoin:miter;stroke-opacity:1" d="M 667.186,986.738 676.448,986.738 z" id="boundary" inkscape:connector-curvature="0" />
	<path style="fill:none;stroke:red;stroke-width:1px;stroke-linecap:butt;stroke-linejoin:miter;stroke-opacity:1" d="M 676.448,393.02 685.711,393.02 z" id="boundary" inkscape:connector-curvature="0" />
	<path style="fill:none;stroke:red;stroke-width:1px;stroke-linecap:butt;stroke-linejoin:miter;stroke-opacity:1" d="M 676.448,986.738 685.711,988.59 z" id="boundary" inkscape:connector-curvature="0" />
	<path style="fill:none;stroke:red;stroke-width:1px;stroke-linecap:butt;stroke-linejoin:miter;stroke-opacity:1" d="M 682.932,124.411 689.415,131.821 z" id="boundary" inkscape:connector-curvature="0" />
	<path style="fill:none;stroke:red;stroke-width:1px;stroke-linecap:butt;stroke-linejoin:miter;stroke-opacity:1" d="M 685.711,393.02 694.973,393.02 z" id="boundary" inkscape:connector-curvature="0" />
	<path style="fill:none;stroke:red;stroke-width:1px;stroke-linecap:butt;stroke-linejoin:miter;stroke-opacity:1" d="M 685.711,988.59 694.973,991.369 z" id="boundary" inkscape:connector-curvature="0" />
	<path style="fill:none;stroke:red;stroke-width:1px;stroke-linecap:butt;stroke-linejoin:miter;stroke-opacity:1" d="M 689.415,131.821 696.825,138.304 z" id="boundary" inkscape:connector-curvature="0" />
	<path style="fill:none;stroke:red;stroke-width:1px;stroke-linecap:butt;stroke-linejoin:miter;stroke-opacity:1" d="M 694.973,393.02 703.309,397.651 z" id="boundary" inkscape:connector-curvature="0" />
	<path style="fill:none;stroke:red;stroke-width:1px;stroke-linecap:butt;stroke-linejoin:miter;stroke-opacity:1" d="M 694.973,991.369 704.235,993.221 z" id="boundary" inkscape:connector-curvature="0" />
	<path style="fill:none;stroke:red;stroke-width:1px;stroke-linecap:butt;stroke-linejoin:miter;stroke-opacity:1" d="M 701.457,171.649 708.866,178.133 z" id="boundary" inkscape:connector-curvature="0" />
	<path style="fill:none;stroke:red;stroke-width:1px;stroke-linecap:butt;stroke-linejoin:miter;stroke-opacity:1" d="M 703.309,397.651 712.571,397.651 z" id="boundary" inkscape:connector-curvature="0" />
	<path style="fill:none;stroke:red;stroke-width:1px;stroke-linecap:butt;stroke-linejoin:miter;stroke-opacity:1" d="M 704.235,993.221 713.498,996 z" id="boundary" inkscape:connector-curvature="0" />
	<path style="fill:none;stroke:red;stroke-width:1px;stroke-linecap:butt;stroke-linejoin:miter;stroke-opacity:1" d="M 708.866,178.133 719.981,193.879 z" id="boundary" inkscape:connector-curvature="0" />
	<path style="fill:none;stroke:red;stroke-width:1px;stroke-linecap:butt;stroke-linejoin:miter;stroke-opacity:1" d="M 713.498,996 722.76,996 z" id="boundary" inkscape:connector-curvature="0" />
	<path style="fill:none;stroke:red;stroke-width:1px;stroke-linecap:butt;stroke-linejoin:miter;stroke-opacity:1" d="M 719.981,193.879 722.76,203.141 z" id="boundary" inkscape:connector-curvature="0" />
	<path style="fill:none;stroke:red;stroke-width:1px;stroke-linecap:butt;stroke-linejoin:miter;stroke-opacity:1" d="M 722.76,203.141 727.391,220.739 z" id="boundary" inkscape:connector-curvature="0" />
	<path style="fill:none;stroke:red;stroke-width:1px;stroke-linecap:butt;stroke-linejoin:miter;stroke-opacity:1" d="M 722.76,278.166 727.391,267.051 z" id="boundary" inkscape:connector-curvature="0" />
	<path style="fill:none;stroke:red;stroke-width:1px;stroke-linecap:butt;stroke-linejoin:miter;stroke-opacity:1" d="M 722.76,996 732.022,996 z" id="boundary" inkscape:connector-curvature="0" />
	<path style="fill:none;stroke:red;stroke-width:1px;stroke-linecap:butt;stroke-linejoin:miter;stroke-opacity:1" d="M 727.391,220.739 727.391,230.002 z" id="boundary" inkscape:connector-curvature="0" />
	<path style="fill:none;stroke:red;stroke-width:1px;stroke-linecap:butt;stroke-linejoin:miter;stroke-opacity:1" d="M 727.391,230.002 727.391,239.264 z" id="boundary" inkscape:connector-curvature="0" />
	<path style="fill:none;stroke:red;stroke-width:1px;stroke-linecap:butt;stroke-linejoin:miter;stroke-opacity:1" d="M 727.391,239.264 727.391,248.527 z" id="boundary" inkscape:connector-curvature="0" />
	<path style="fill:none;stroke:red;stroke-width:1px;stroke-linecap:butt;stroke-linejoin:miter;stroke-opacity:1" d="M 727.391,248.527 727.391,257.789 z" id="boundary" inkscape:connector-curvature="0" />
	<path style="fill:none;stroke:red;stroke-width:1px;stroke-linecap:butt;stroke-linejoin:miter;stroke-opacity:1" d="M 727.391,257.789 727.391,267.051 z" id="boundary" inkscape:connector-curvature="0" />
	<path style="fill:none;stroke:red;stroke-width:1px;stroke-linecap:butt;stroke-linejoin:miter;stroke-opacity:1" d="M 729.244,406.913 735.727,414.323 z" id="boundary" inkscape:connector-curvature="0" />
	<path style="fill:none;stroke:red;stroke-width:1px;stroke-linecap:butt;stroke-linejoin:miter;stroke-opacity:1" d="M 732.022,996 741.285,996 z" id="boundary" inkscape:connector-curvature="0" />
	<path style="fill:none;stroke:red;stroke-width:1px;stroke-linecap:butt;stroke-linejoin:miter;stroke-opacity:1" d="M 735.727,414.323 743.137,420.807 z" id="boundary" inkscape:connector-curvature="0" />
	<path style="fill:none;stroke:red;stroke-width:1px;stroke-linecap:butt;stroke-linejoin:miter;stroke-opacity:1" d="M 741.285,996 750.547,996 z" id="boundary" inkscape:connector-curvature="0" />
	<path style="fill:none;stroke:red;stroke-width:1px;stroke-linecap:butt;stroke-linejoin:miter;stroke-opacity:1" d="M 743.137,420.807 749.621,428.217 z" id="boundary" inkscape:connector-curvature="0" />
	<path style="fill:none;stroke:red;stroke-width:1px;stroke-linecap:butt;stroke-linejoin:miter;stroke-opacity:1" d="M 749.621,428.217 757.031,434.7 z" id="boundary" inkscape:connector-curvature="0" />
	<path style="fill:none;stroke:red;stroke-width:1px;stroke-linecap:butt;stroke-linejoin:miter;stroke-opacity:1" d="M 750.547,996 759.81,991.369 z" id="boundary" inkscape:connector-curvature="0" />
	<path style="fill:none;stroke:red;stroke-width:1px;stroke-linecap:butt;stroke-linejoin:miter;stroke-opacity:1" d="M 757.031,434.7 768.146,450.446 z" id="boundary" inkscape:connector-curvature="0" />
	<path style="fill:none;stroke:red;stroke-width:1px;stroke-linecap:butt;stroke-linejoin:miter;stroke-opacity:1" d="M 759.81,991.369 769.072,986.738 z" id="boundary" inkscape:connector-curvature="0" />
	<path style="fill:none;stroke:red;stroke-width:1px;stroke-linecap:butt;stroke-linejoin:miter;stroke-opacity:1" d="M 768.146,450.446 778.334,466.192 z" id="boundary" inkscape:connector-curvature="0" />
	<path style="fill:none;stroke:red;stroke-width:1px;stroke-linecap:butt;stroke-linejoin:miter;stroke-opacity:1" d="M 769.072,986.738 773.703,977.475 z" id="boundary" inkscape:connector-curvature="0" />
	<path style="fill:none;stroke:red;stroke-width:1px;stroke-linecap:butt;stroke-linejoin:miter;stroke-opacity:1" d="M 778.334,466.192 789.449,481.938 z" id="boundary" inkscape:connector-curvature="0" />
	<path style="fill:none;stroke:red;stroke-width:1px;stroke-linecap:butt;stroke-linejoin:miter;stroke-opacity:1" d="M 787.597,958.951 792.228,949.688 z" id="boundary" inkscape:connector-curvature="0" />
	<path style="fill:none;stroke:red;stroke-width:1px;stroke-linecap:butt;stroke-linejoin:miter;stroke-opacity:1" d="M 789.449,481.938 800.564,497.684 z" id="boundary" inkscape:connector-curvature="0" />
	<path style="fill:none;stroke:red;stroke-width:1px;stroke-linecap:butt;stroke-linejoin:miter;stroke-opacity:1" d="M 792.228,949.688 804.269,933.942 z" id="boundary" inkscape:connector-curvature="0" />
	<path style="fill:none;stroke:red;stroke-width:1px;stroke-linecap:butt;stroke-linejoin:miter;stroke-opacity:1" d="M 800.564,497.684 806.121,505.094 z" id="boundary" inkscape:connector-curvature="0" />
	<path style="fill:none;stroke:red;stroke-width:1px;stroke-linecap:butt;stroke-linejoin:miter;stroke-opacity:1" d="M 804.269,933.942 810.753,921.901 z" id="boundary" inkscape:connector-curvature="0" />
	<path style="fill:none;stroke:red;stroke-width:1px;stroke-linecap:butt;stroke-linejoin:miter;stroke-opacity:1" d="M 806.121,505.094 815.384,521.767 z" id="boundary" inkscape:connector-curvature="0" />
	<path style="fill:none;stroke:red;stroke-width:1px;stroke-linecap:butt;stroke-linejoin:miter;stroke-opacity:1" d="M 810.753,921.901 815.384,912.639 z" id="boundary" inkscape:connector-curvature="0" />
	<path style="fill:none;stroke:red;stroke-width:1px;stroke-linecap:butt;stroke-linejoin:miter;stroke-opacity:1" d="M 815.384,521.767 822.794,528.25 z" id="boundary" inkscape:connector-curvature="0" />
	<path style="fill:none;stroke:red;stroke-width:1px;stroke-linecap:butt;stroke-linejoin:miter;stroke-opacity:1" d="M 815.384,912.639 820.015,903.376 z" id="boundary" inkscape:connector-curvature="0" />
	<path style="fill:none;stroke:red;stroke-width:1px;stroke-linecap:butt;stroke-linejoin:miter;stroke-opacity:1" d="M 820.015,903.376 824.646,894.114 z" id="boundary" inkscape:connector-curvature="0" />
	<path style="fill:none;stroke:red;stroke-width:1px;stroke-linecap:butt;stroke-linejoin:miter;stroke-opacity:1" d="M 822.794,528.25 835.761,541.218 z" id="boundary" inkscape:connector-curvature="0" />
	<path style="fill:none;stroke:red;stroke-width:1px;stroke-linecap:butt;stroke-linejoin:miter;stroke-opacity:1" d="M 824.646,894.114 829.277,884.852 z" id="boundary" inkscape:connector-curvature="0" />
	<path style="fill:none;stroke:red;stroke-width:1px;stroke-linecap:butt;stroke-linejoin:miter;stroke-opacity:1" d="M 829.277,884.852 833.908,875.589 z" id="boundary" inkscape:connector-curvature="0" />
	<path style="fill:none;stroke:red;stroke-width:1px;stroke-linecap:butt;stroke-linejoin:miter;stroke-opacity:1" d="M 833.908,857.064 833.908,866.327 z" id="boundary" inkscape:connector-curvature="0" />
	<path style="fill:none;stroke:red;stroke-width:1px;stroke-linecap:butt;stroke-linejoin:miter;stroke-opacity:1" d="M 833.908,857.064 838.54,847.802 z" id="boundary" inkscape:connector-curvature="0" />
	<path style="fill:none;stroke:red;stroke-width:1px;stroke-linecap:butt;stroke-linejoin:miter;stroke-opacity:1" d="M 833.908,866.327 833.908,875.589 z" id="boundary" inkscape:connector-curvature="0" />
	<path style="fill:none;stroke:red;stroke-width:1px;stroke-linecap:butt;stroke-linejoin:miter;stroke-opacity:1" d="M 835.761,541.218 851.507,552.332 z" id="boundary" inkscape:connector-curvature="0" />
	<path style="fill:none;stroke:red;stroke-width:1px;stroke-linecap:butt;stroke-linejoin:miter;stroke-opacity:1" d="M 838.54,838.54 838.54,847.802 z" id="boundary" inkscape:connector-curvature="0" />
	<path style="fill:none;stroke:red;stroke-width:1px;stroke-linecap:butt;stroke-linejoin:miter;stroke-opacity:1" d="M 838.54,838.54 843.171,824.646 z" id="boundary" inkscape:connector-curvature="0" />
	<path style="fill:none;stroke:red;stroke-width:1px;stroke-linecap:butt;stroke-linejoin:miter;stroke-opacity:1" d="M 843.171,815.384 843.171,824.646 z" id="boundary" inkscape:connector-curvature="0" />
	<path style="fill:none;stroke:red;stroke-width:1px;stroke-linecap:butt;stroke-linejoin:miter;stroke-opacity:1" d="M 843.171,815.384 847.802,806.121 z" id="boundary" inkscape:connector-curvature="0" />
	<path style="fill:none;stroke:red;stroke-width:1px;stroke-linecap:butt;stroke-linejoin:miter;stroke-opacity:1" d="M 847.802,806.121 852.433,796.859 z" id="boundary" inkscape:connector-curvature="0" />
	<path style="fill:none;stroke:red;stroke-width:1px;stroke-linecap:butt;stroke-linejoin:miter;stroke-opacity:1" d="M 851.507,552.332 866.327,562.521 z" id="boundary" inkscape:connector-curvature="0" />
	<path style="fill:none;stroke:red;stroke-width:1px;stroke-linecap:butt;stroke-linejoin:miter;stroke-opacity:1" d="M 852.433,787.597 852.433,796.859 z" id="boundary" inkscape:connector-curvature="0" />
	<path style="fill:none;stroke:red;stroke-width:1px;stroke-linecap:butt;stroke-linejoin:miter;stroke-opacity:1" d="M 852.433,787.597 857.064,773.703 z" id="boundary" inkscape:connector-curvature="0" />
	<path style="fill:none;stroke:red;stroke-width:1px;stroke-linecap:butt;stroke-linejoin:miter;stroke-opacity:1" d="M 857.064,773.703 861.696,759.81 z" id="boundary" inkscape:connector-curvature="0" />
	<path style="fill:none;stroke:red;stroke-width:1px;stroke-linecap:butt;stroke-linejoin:miter;stroke-opacity:1" d="M 861.696,704.235 866.327,694.973 z" id="boundary" inkscape:connector-curvature="0" />
	<path style="fill:none;stroke:red;stroke-width:1px;stroke-linecap:butt;stroke-linejoin:miter;stroke-opacity:1" d="M 861.696,704.235 866.327,712.571 z" id="boundary" inkscape:connector-curvature="0" />
	<path style="fill:none;stroke:red;stroke-width:1px;stroke-linecap:butt;stroke-linejoin:miter;stroke-opacity:1" d="M 861.696,732.022 861.696,741.285 z" id="boundary" inkscape:connector-curvature="0" />
	<path style="fill:none;stroke:red;stroke-width:1px;stroke-linecap:butt;stroke-linejoin:miter;stroke-opacity:1" d="M 861.696,732.022 866.327,721.834 z" id="boundary" inkscape:connector-curvature="0" />
	<path style="fill:none;stroke:red;stroke-width:1px;stroke-linecap:butt;stroke-linejoin:miter;stroke-opacity:1" d="M 861.696,741.285 861.696,750.547 z" id="boundary" inkscape:connector-curvature="0" />
	<path style="fill:none;stroke:red;stroke-width:1px;stroke-linecap:butt;stroke-linejoin:miter;stroke-opacity:1" d="M 861.696,750.547 861.696,759.81 z" id="boundary" inkscape:connector-curvature="0" />
	<path style="fill:none;stroke:red;stroke-width:1px;stroke-linecap:butt;stroke-linejoin:miter;stroke-opacity:1" d="M 866.327,562.521 872.81,569.931 z" id="boundary" inkscape:connector-curvature="0" />
	<path style="fill:none;stroke:red;stroke-width:1px;stroke-linecap:butt;stroke-linejoin:miter;stroke-opacity:1" d="M 866.327,694.973 874.663,690.342 z" id="boundary" inkscape:connector-curvature="0" />
	<path style="fill:none;stroke:red;stroke-width:1px;stroke-linecap:butt;stroke-linejoin:miter;stroke-opacity:1" d="M 866.327,712.571 866.327,721.834 z" id="boundary" inkscape:connector-curvature="0" />
	<path style="fill:none;stroke:red;stroke-width:1px;stroke-linecap:butt;stroke-linejoin:miter;stroke-opacity:1" d="M 872.81,569.931 880.22,587.529 z" id="boundary" inkscape:connector-curvature="0" />
	<path style="fill:none;stroke:red;stroke-width:1px;stroke-linecap:butt;stroke-linejoin:miter;stroke-opacity:1" d="M 874.663,690.342 882.073,684.784 z" id="boundary" inkscape:connector-curvature="0" />
	<path style="fill:none;stroke:red;stroke-width:1px;stroke-linecap:butt;stroke-linejoin:miter;stroke-opacity:1" d="M 880.22,587.529 891.335,602.349 z" id="boundary" inkscape:connector-curvature="0" />
	<path style="fill:none;stroke:red;stroke-width:1px;stroke-linecap:butt;stroke-linejoin:miter;stroke-opacity:1" d="M 882.073,684.784 889.483,676.448 z" id="boundary" inkscape:connector-curvature="0" />
	<path style="fill:none;stroke:red;stroke-width:1px;stroke-linecap:butt;stroke-linejoin:miter;stroke-opacity:1" d="M 889.483,676.448 901.524,660.702 z" id="boundary" inkscape:connector-curvature="0" />
	<path style="fill:none;stroke:red;stroke-width:1px;stroke-linecap:butt;stroke-linejoin:miter;stroke-opacity:1" d="M 891.335,602.349 894.114,611.612 z" id="boundary" inkscape:connector-curvature="0" />
	<path style="fill:none;stroke:red;stroke-width:1px;stroke-linecap:butt;stroke-linejoin:miter;stroke-opacity:1" d="M 894.114,611.612 894.114,620.874 z" id="boundary" inkscape:connector-curvature="0" />
	<path style="fill:none;stroke:red;stroke-width:1px;stroke-linecap:butt;stroke-linejoin:miter;stroke-opacity:1" d="M 894.114,620.874 895.966,630.136 z" id="boundary" inkscape:connector-curvature="0" />
	<path style="fill:none;stroke:red;stroke-width:1px;stroke-linecap:butt;stroke-linejoin:miter;stroke-opacity:1" d="M 895.966,630.136 898.745,639.399 z" id="boundary" inkscape:connector-curvature="0" />
	<path style="fill:none;stroke:red;stroke-width:1px;stroke-linecap:butt;stroke-linejoin:miter;stroke-opacity:1" d="M 898.745,639.399 900.598,648.661 z" id="boundary" inkscape:connector-curvature="0" />
	<path style="fill:none;stroke:red;stroke-width:1px;stroke-linecap:butt;stroke-linejoin:miter;stroke-opacity:1" d="M 900.598,648.661 901.524,660.702 z" id="boundary" inkscape:connector-curvature="0" />
	<circle cx="4" cy="715.35" r="4" fill="#0" id="circle0"/>
	<circle cx="4" cy="724.613" r="4" fill="#0" id="circle1"/>
	<circle cx="4" cy="733.875" r="4" fill="#0" id="circle2"/>
	<circle cx="4" cy="743.137" r="4" fill="#0" id="circle3"/>
	<circle cx="4" cy="752.4" r="4" fill="#0" id="circle4"/>
	<circle cx="4" cy="761.662" r="4" fill="#0" id="circle5"/>
	<circle cx="4" cy="770.924" r="4" fill="#0" id="circle6"/>
	<circle cx="4" cy="780.187" r="4" fill="#0" id="circle7"/>
	<circle cx="4" cy="789.449" r="4" fill="#0" id="circle8"/>
	<circle cx="8.63119" cy="706.088" r="4" fill="#0" id="circle9"/>
	<circle cx="8.63119" cy="797.785" r="4" fill="#0" id="circle10"/>
	<circle cx="8.63119" cy="807.048" r="4" fill="#0" id="circle11"/>
	<circle cx="13.2624" cy="696.825" r="4" fill="#0" id="circle12"/>
	<circle cx="13.2624" cy="815.384" r="4" fill="#0" id="circle13"/>
	<circle cx="17.8936" cy="687.563" r="4" fill="#0" id="circle14"/>
	<circle cx="17.8936" cy="823.72" r="4" fill="#0" id="circle15"/>
	<circle cx="22.5247" cy="832.056" r="4" fill="#0" id="circle16"/>
	<circle cx="27.1559" cy="682.932" r="4" fill="#0" id="circle17"/>
	<circle cx="27.1559" cy="840.392" r="4" fill="#0" id="circle18"/>
	<circle cx="27.1559" cy="849.655" r="4" fill="#0" id="circle19"/>
	<circle cx="31.7871" cy="414.323" r="4" fill="#0" id="circle20"/>
	<circle cx="31.7871" cy="423.585" r="4" fill="#0" id="circle21"/>
	<circle cx="31.7871" cy="432.848" r="4" fill="#0" id="circle22"/>
	<circle cx="31.7871" cy="442.11" r="4" fill="#0" id="circle23"/>
	<circle cx="31.7871" cy="451.373" r="4" fill="#0" id="circle24"/>
	<circle cx="31.7871" cy="460.635" r="4" fill="#0" id="circle25"/>
	<circle cx="31.7871" cy="469.897" r="4" fill="#0" id="circle26"/>
	<circle cx="31.7871" cy="479.16" r="4" fill="#0" id="circle27"/>
	<circle cx="31.7871" cy="488.422" r="4" fill="#0" id="circle28"/>
	<circle cx="31.7871" cy="497.684" r="4" fill="#0" id="circle29"/>
	<circle cx="31.7871" cy="506.947" r="4" fill="#0" id="circle30"/>
	<circle cx="31.7871" cy="516.209" r="4" fill="#0" id="circle31"/>
	<circle cx="31.7871" cy="525.472" r="4" fill="#0" id="circle32"/>
	<circle cx="31.7871" cy="857.991" r="4" fill="#0" id="circle33"/>
	<circle cx="34.5658" cy="675.522" r="4" fill="#0" id="circle34"/>
	<circle cx="36.4183" cy="395.798" r="4" fill="#0" id="circle35"/>
	<circle cx="36.4183" cy="405.061" r="4" fill="#0" id="circle36"/>
	<circle cx="36.4183" cy="533.808" r="4" fill="#0" id="circle37"/>
	<circle cx="36.4183" cy="866.327" r="4" fill="#0" id="circle38"/>
	<circle cx="41.0495" cy="386.536" r="4" fill="#0" id="circle39"/>
	<circle cx="41.0495" cy="874.663" r="4" fill="#0" id="circle40"/>
	<circle cx="43.8282" cy="670.891" r="4" fill="#0" id="circle41"/>
	<circle cx="45.6807" cy="377.274" r="4" fill="#0" id="circle42"/>
	<circle cx="45.6807" cy="537.513" r="4" fill="#0" id="circle43"/>
	<circle cx="45.6807" cy="882.999" r="4" fill="#0" id="circle44"/>
	<circle cx="50.3119" cy="891.335" r="4" fill="#0" id="circle45"/>
	<circle cx="51.2381" cy="544.923" r="4" fill="#0" id="circle46"/>
	<circle cx="53.0906" cy="369.864" r="4" fill="#0" id="circle47"/>
	<circle cx="53.0906" cy="666.26" r="4" fill="#0" id="circle48"/>
	<circle cx="54.943" cy="899.671" r="4" fill="#0" id="circle49"/>
	<circle cx="58.648" cy="551.406" r="4" fill="#0" id="circle50"/>
	<circle cx="59.5742" cy="908.007" r="4" fill="#0" id="circle51"/>
	<circle cx="60.5005" cy="362.454" r="4" fill="#0" id="circle52"/>
	<circle cx="62.3529" cy="661.628" r="4" fill="#0" id="circle53"/>
	<circle cx="62.3529" cy="917.27" r="4" fill="#0" id="circle54"/>
	<circle cx="65.1317" cy="558.816" r="4" fill="#0" id="circle55"/>
	<circle cx="67.9104" cy="355.97" r="4" fill="#0" id="circle56"/>
	<circle cx="69.7628" cy="923.754" r="4" fill="#0" id="circle57"/>
	<circle cx="71.6153" cy="661.628" r="4" fill="#0" id="circle58"/>
	<circle cx="72.5415" cy="565.3" r="4" fill="#0" id="circle59"/>
	<circle cx="76.2465" cy="351.339" r="4" fill="#0" id="circle60"/>
	<circle cx="76.2465" cy="931.163" r="4" fill="#0" id="circle61"/>
	<circle cx="79.9514" cy="656.997" r="4" fill="#0" id="circle62"/>
	<circle cx="80.8777" cy="569.931" r="4" fill="#0" id="circle63"/>
	<circle cx="83.6564" cy="937.647" r="4" fill="#0" id="circle64"/>
	<circle cx="85.5089" cy="346.708" r="4" fill="#0" id="circle65"/>
	<circle cx="87.3613" cy="946.909" r="4" fill="#0" id="circle66"/>
	<circle cx="88.2876" cy="576.415" r="4" fill="#0" id="circle67"/>
	<circle cx="89.2138" cy="656.997" r="4" fill="#0" id="circle68"/>
	<circle cx="94.7712" cy="346.708" r="4" fill="#0" id="circle69"/>
	<circle cx="94.7712" cy="583.824" r="4" fill="#0" id="circle70"/>
	<circle cx="94.7712" cy="953.393" r="4" fill="#0" id="circle71"/>
	<circle cx="98.4762" cy="656.997" r="4" fill="#0" id="circle72"/>
	<circle cx="102.181" cy="958.951" r="4" fill="#0" id="circle73"/>
	<circle cx="103.107" cy="588.456" r="4" fill="#0" id="circle74"/>
	<circle cx="104.034" cy="346.708" r="4" fill="#0" id="circle75"/>
	<circle cx="107.739" cy="656.997" r="4" fill="#0" id="circle76"/>
	<circle cx="110.517" cy="963.582" r="4" fill="#0" id="circle77"/>
	<circle cx="111.444" cy="593.087" r="4" fill="#0" id="circle78"/>
	<circle cx="113.296" cy="346.708" r="4" fill="#0" id="circle79"/>
	<circle cx="117.001" cy="656.997" r="4" fill="#0" id="circle80"/>
	<circle cx="118.853" cy="968.213" r="4" fill="#0" id="circle81"/>
	<circle cx="119.78" cy="597.718" r="4" fill="#0" id="circle82"/>
	<circle cx="122.558" cy="346.708" r="4" fill="#0" id="circle83"/>
	<circle cx="125.337" cy="661.628" r="4" fill="#0" id="circle84"/>
	<circle cx="127.19" cy="972.844" r="4" fill="#0" id="circle85"/>
	<circle cx="128.116" cy="602.349" r="4" fill="#0" id="circle86"/>
	<circle cx="130.894" cy="351.339" r="4" fill="#0" id="circle87"/>
	<circle cx="134.599" cy="664.407" r="4" fill="#0" id="circle88"/>
	<circle cx="136.452" cy="606.98" r="4" fill="#0" id="circle89"/>
	<circle cx="136.452" cy="972.844" r="4" fill="#0" id="circle90"/>
	<circle cx="139.231" cy="355.97" r="4" fill="#0" id="circle91"/>
	<circle cx="142.936" cy="669.038" r="4" fill="#0" id="circle92"/>
	<circle cx="144.788" cy="977.475" r="4" fill="#0" id="circle93"/>
	<circle cx="145.714" cy="610.685" r="4" fill="#0" id="circle94"/>
	<circle cx="147.567" cy="677.374" r="4" fill="#0" id="circle95"/>
	<circle cx="148.493" cy="355.97" r="4" fill="#0" id="circle96"/>
	<circle cx="153.124" cy="684.784" r="4" fill="#0" id="circle97"/>
	<circle cx="154.05" cy="977.475" r="4" fill="#0" id="circle98"/>
	<circle cx="154.977" cy="611.612" r="4" fill="#0" id="circle99"/>
	<circle cx="156.829" cy="229.076" r="4" fill="#0" id="circle100"/>
	<circle cx="156.829" cy="238.338" r="4" fill="#0" id="circle101"/>
	<circle cx="156.829" cy="247.6" r="4" fill="#0" id="circle102"/>
	<circle cx="156.829" cy="256.863" r="4" fill="#0" id="circle103"/>
	<circle cx="156.829" cy="266.125" r="4" fill="#0" id="circle104"/>
	<circle cx="156.829" cy="360.601" r="4" fill="#0" id="circle105"/>
	<circle cx="157.755" cy="693.12" r="4" fill="#0" id="circle106"/>
	<circle cx="161.46" cy="205.92" r="4" fill="#0" id="circle107"/>
	<circle cx="161.46" cy="215.182" r="4" fill="#0" id="circle108"/>
	<circle cx="161.46" cy="274.461" r="4" fill="#0" id="circle109"/>
	<circle cx="162.387" cy="701.457" r="4" fill="#0" id="circle110"/>
	<circle cx="163.313" cy="616.243" r="4" fill="#0" id="circle111"/>
	<circle cx="163.313" cy="977.475" r="4" fill="#0" id="circle112"/>
	<circle cx="165.165" cy="365.232" r="4" fill="#0" id="circle113"/>
	<circle cx="166.092" cy="196.657" r="4" fill="#0" id="circle114"/>
	<circle cx="166.092" cy="282.797" r="4" fill="#0" id="circle115"/>
	<circle cx="168.87" cy="708.866" r="4" fill="#0" id="circle116"/>
	<circle cx="170.723" cy="187.395" r="4" fill="#0" id="circle117"/>
	<circle cx="170.723" cy="291.134" r="4" fill="#0" id="circle118"/>
	<circle cx="171.649" cy="982.106" r="4" fill="#0" id="circle119"/>
	<circle cx="172.575" cy="619.021" r="4" fill="#0" id="circle120"/>
	<circle cx="173.501" cy="369.864" r="4" fill="#0" id="circle121"/>
	<circle cx="173.501" cy="717.203" r="4" fill="#0" id="circle122"/>
	<circle cx="175.354" cy="178.133" r="4" fill="#0" id="circle123"/>
	<circle cx="176.28" cy="298.543" r="4" fill="#0" id="circle124"/>
	<circle cx="179.985" cy="168.87" r="4" fill="#0" id="circle125"/>
	<circle cx="179.985" cy="724.613" r="4" fill="#0" id="circle126"/>
	<circle cx="180.911" cy="982.106" r="4" fill="#0" id="circle127"/>
	<circle cx="181.838" cy="374.495" r="4" fill="#0" id="circle128"/>
	<circle cx="181.838" cy="620.874" r="4" fill="#0" id="circle129"/>
	<circle cx="182.764" cy="305.953" r="4" fill="#0" id="circle130"/>
	<circle cx="184.616" cy="732.949" r="4" fill="#0" id="circle131"/>
	<circle cx="185.542" cy="383.757" r="4" fill="#0" id="circle132"/>
	<circle cx="187.395" cy="161.46" r="4" fill="#0" id="circle133"/>
	<circle cx="187.395" cy="314.289" r="4" fill="#0" id="circle134"/>
	<circle cx="188.321" cy="742.211" r="4" fill="#0" id="circle135"/>
	<circle cx="190.174" cy="392.093" r="4" fill="#0" id="circle136"/>
	<circle cx="190.174" cy="401.356" r="4" fill="#0" id="circle137"/>
	<circle cx="190.174" cy="410.618" r="4" fill="#0" id="circle138"/>
	<circle cx="190.174" cy="419.88" r="4" fill="#0" id="circle139"/>
	<circle cx="190.174" cy="982.106" r="4" fill="#0" id="circle140"/>
	<circle cx="191.1" cy="620.874" r="4" fill="#0" id="circle141"/>
	<circle cx="192.952" cy="750.547" r="4" fill="#0" id="circle142"/>
	<circle cx="195.731" cy="318.921" r="4" fill="#0" id="circle143"/>
	<circle cx="196.657" cy="156.829" r="4" fill="#0" id="circle144"/>
	<circle cx="196.657" cy="759.81" r="4" fill="#0" id="circle145"/>
	<circle cx="199.436" cy="416.176" r="4" fill="#0" id="circle146"/>
	<circle cx="199.436" cy="982.106" r="4" fill="#0" id="circle147"/>
	<circle cx="200.362" cy="620.874" r="4" fill="#0" id="circle148"/>
	<circle cx="201.289" cy="768.146" r="4" fill="#0" id="circle149"/>
	<circle cx="204.067" cy="777.408" r="4" fill="#0" id="circle150"/>
	<circle cx="204.993" cy="319.847" r="4" fill="#0" id="circle151"/>
	<circle cx="205.92" cy="152.198" r="4" fill="#0" id="circle152"/>
	<circle cx="207.772" cy="411.544" r="4" fill="#0" id="circle153"/>
	<circle cx="207.772" cy="626.431" r="4" fill="#0" id="circle154"/>
	<circle cx="207.772" cy="635.694" r="4" fill="#0" id="circle155"/>
	<circle cx="208.698" cy="977.475" r="4" fill="#0" id="circle156"/>
	<circle cx="212.403" cy="644.03" r="4" fill="#0" id="circle157"/>
	<circle cx="212.403" cy="653.292" r="4" fill="#0" id="circle158"/>
	<circle cx="212.403" cy="662.555" r="4" fill="#0" id="circle159"/>
	<circle cx="212.403" cy="782.039" r="4" fill="#0" id="circle160"/>
	<circle cx="213.33" cy="324.478" r="4" fill="#0" id="circle161"/>
	<circle cx="215.182" cy="147.567" r="4" fill="#0" id="circle162"/>
	<circle cx="216.108" cy="406.913" r="4" fill="#0" id="circle163"/>
	<circle cx="217.035" cy="670.891" r="4" fill="#0" id="circle164"/>
	<circle cx="217.035" cy="680.153" r="4" fill="#0" id="circle165"/>
	<circle cx="217.961" cy="977.475" r="4" fill="#0" id="circle166"/>
	<circle cx="221.666" cy="688.489" r="4" fill="#0" id="circle167"/>
	<circle cx="221.666" cy="782.039" r="4" fill="#0" id="circle168"/>
	<circle cx="222.592" cy="324.478" r="4" fill="#0" id="circle169"/>
	<circle cx="222.592" cy="697.752" r="4" fill="#0" id="circle170"/>
	<circle cx="224.444" cy="147.567" r="4" fill="#0" id="circle171"/>
	<circle cx="225.371" cy="406.913" r="4" fill="#0" id="circle172"/>
	<circle cx="226.297" cy="707.014" r="4" fill="#0" id="circle173"/>
	<circle cx="226.297" cy="716.276" r="4" fill="#0" id="circle174"/>
	<circle cx="226.297" cy="725.539" r="4" fill="#0" id="circle175"/>
	<circle cx="226.297" cy="734.801" r="4" fill="#0" id="circle176"/>
	<circle cx="226.297" cy="744.063" r="4" fill="#0" id="circle177"/>
	<circle cx="226.297" cy="753.326" r="4" fill="#0" id="circle178"/>
	<circle cx="226.297" cy="762.588" r="4" fill="#0" id="circle179"/>
	<circle cx="226.297" cy="771.851" r="4" fill="#0" id="circle180"/>
	<circle cx="226.297" cy="972.844" r="4" fill="#0" id="circle181"/>
	<circle cx="231.854" cy="324.478" r="4" fill="#0" id="circle182"/>
	<circle cx="233.707" cy="142.936" r="4" fill="#0" id="circle183"/>
	<circle cx="234.633" cy="406.913" r="4" fill="#0" id="circle184"/>
	<circle cx="235.559" cy="972.844" r="4" fill="#0" id="circle185"/>
	<circle cx="241.117" cy="324.478" r="4" fill="#0" id="circle186"/>
	<circle cx="242.969" cy="142.936" r="4" fill="#0" id="circle187"/>
	<circle cx="243.895" cy="406.913" r="4" fill="#0" id="circle188"/>
	<circle cx="243.895" cy="968.213" r="4" fill="#0" id="circle189"/>
	<circle cx="244.822" cy="333.74" r="4" fill="#0" id="circle190"/>
	<circle cx="249.453" cy="342.077" r="4" fill="#0" id="circle191"/>
	<circle cx="252.232" cy="142.936" r="4" fill="#0" id="circle192"/>
	<circle cx="252.232" cy="963.582" r="4" fill="#0" id="circle193"/>
	<circle cx="253.158" cy="406.913" r="4" fill="#0" id="circle194"/>
	<circle cx="254.084" cy="350.413" r="4" fill="#0" id="circle195"/>
	<circle cx="258.715" cy="358.749" r="4" fill="#0" id="circle196"/>
	<circle cx="261.494" cy="142.936" r="4" fill="#0" id="circle197"/>
	<circle cx="261.494" cy="962.655" r="4" fill="#0" id="circle198"/>
	<circle cx="262.42" cy="406.913" r="4" fill="#0" id="circle199"/>
	<circle cx="263.346" cy="367.085" r="4" fill="#0" id="circle200"/>
	<circle cx="267.978" cy="375.421" r="4" fill="#0" id="circle201"/>
	<circle cx="270.756" cy="142.936" r="4" fill="#0" id="circle202"/>
	<circle cx="270.756" cy="411.544" r="4" fill="#0" id="circle203"/>
	<circle cx="270.756" cy="958.024" r="4" fill="#0" id="circle204"/>
	<circle cx="276.314" cy="380.052" r="4" fill="#0" id="circle205"/>
	<circle cx="278.166" cy="135.526" r="4" fill="#0" id="circle206"/>
	<circle cx="278.166" cy="404.134" r="4" fill="#0" id="circle207"/>
	<circle cx="280.019" cy="953.393" r="4" fill="#0" id="circle208"/>
	<circle cx="281.871" cy="57.7218" r="4" fill="#0" id="circle209"/>
	<circle cx="281.871" cy="66.9841" r="4" fill="#0" id="circle210"/>
	<circle cx="281.871" cy="76.2465" r="4" fill="#0" id="circle211"/>
	<circle cx="281.871" cy="387.462" r="4" fill="#0" id="circle212"/>
	<circle cx="285.576" cy="129.042" r="4" fill="#0" id="circle213"/>
	<circle cx="286.502" cy="48.4594" r="4" fill="#0" id="circle214"/>
	<circle cx="286.502" cy="84.5826" r="4" fill="#0" id="circle215"/>
	<circle cx="286.502" cy="93.845" r="4" fill="#0" id="circle216"/>
	<circle cx="286.502" cy="103.107" r="4" fill="#0" id="circle217"/>
	<circle cx="286.502" cy="112.37" r="4" fill="#0" id="circle218"/>
	<circle cx="289.281" cy="948.762" r="4" fill="#0" id="circle219"/>
	<circle cx="291.134" cy="39.197" r="4" fill="#0" id="circle220"/>
	<circle cx="295.765" cy="29.9346" r="4" fill="#0" id="circle221"/>
	<circle cx="298.543" cy="944.131" r="4" fill="#0" id="circle222"/>
	<circle cx="303.175" cy="22.5247" r="4" fill="#0" id="circle223"/>
	<circle cx="307.806" cy="13.2624" r="4" fill="#0" id="circle224"/>
	<circle cx="307.806" cy="939.5" r="4" fill="#0" id="circle225"/>
	<circle cx="316.142" cy="8.63119" r="4" fill="#0" id="circle226"/>
	<circle cx="317.068" cy="934.868" r="4" fill="#0" id="circle227"/>
	<circle cx="324.478" cy="4" r="4" fill="#0" id="circle228"/>
	<circle cx="324.478" cy="926.532" r="4" fill="#0" id="circle229"/>
	<circle cx="332.814" cy="921.901" r="4" fill="#0" id="circle230"/>
	<circle cx="333.74" cy="6.77871" r="4" fill="#0" id="circle231"/>
	<circle cx="341.15" cy="917.27" r="4" fill="#0" id="circle232"/>
	<circle cx="343.003" cy="8.63119" r="4" fill="#0" id="circle233"/>
	<circle cx="350.413" cy="917.27" r="4" fill="#0" id="circle234"/>
	<circle cx="352.265" cy="11.4099" r="4" fill="#0" id="circle235"/>
	<circle cx="359.675" cy="917.27" r="4" fill="#0" id="circle236"/>
	<circle cx="361.528" cy="13.2624" r="4" fill="#0" id="circle237"/>
	<circle cx="368.937" cy="917.27" r="4" fill="#0" id="circle238"/>
	<circle cx="369.864" cy="17.8936" r="4" fill="#0" id="circle239"/>
	<circle cx="377.274" cy="23.451" r="4" fill="#0" id="circle240"/>
	<circle cx="377.274" cy="921.901" r="4" fill="#0" id="circle241"/>
	<circle cx="384.683" cy="928.385" r="4" fill="#0" id="circle242"/>
	<circle cx="386.536" cy="27.1559" r="4" fill="#0" id="circle243"/>
	<circle cx="391.167" cy="935.795" r="4" fill="#0" id="circle244"/>
	<circle cx="394.872" cy="31.7871" r="4" fill="#0" id="circle245"/>
	<circle cx="398.577" cy="942.278" r="4" fill="#0" id="circle246"/>
	<circle cx="403.208" cy="36.4183" r="4" fill="#0" id="circle247"/>
	<circle cx="406.913" cy="946.909" r="4" fill="#0" id="circle248"/>
	<circle cx="412.471" cy="39.197" r="4" fill="#0" id="circle249"/>
	<circle cx="416.176" cy="949.688" r="4" fill="#0" id="circle250"/>
	<circle cx="421.733" cy="41.0495" r="4" fill="#0" id="circle251"/>
	<circle cx="425.438" cy="949.688" r="4" fill="#0" id="circle252"/>
	<circle cx="430.995" cy="41.0495" r="4" fill="#0" id="circle253"/>
	<circle cx="433.774" cy="954.319" r="4" fill="#0" id="circle254"/>
	<circle cx="440.258" cy="41.0495" r="4" fill="#0" id="circle255"/>
	<circle cx="443.036" cy="954.319" r="4" fill="#0" id="circle256"/>
	<circle cx="449.52" cy="41.0495" r="4" fill="#0" id="circle257"/>
	<circle cx="452.299" cy="954.319" r="4" fill="#0" id="circle258"/>
	<circle cx="458.782" cy="41.0495" r="4" fill="#0" id="circle259"/>
	<circle cx="461.561" cy="954.319" r="4" fill="#0" id="circle260"/>
	<circle cx="468.045" cy="41.0495" r="4" fill="#0" id="circle261"/>
	<circle cx="470.824" cy="954.319" r="4" fill="#0" id="circle262"/>
	<circle cx="477.307" cy="41.0495" r="4" fill="#0" id="circle263"/>
	<circle cx="480.086" cy="954.319" r="4" fill="#0" id="circle264"/>
	<circle cx="486.57" cy="41.0495" r="4" fill="#0" id="circle265"/>
	<circle cx="489.348" cy="952.467" r="4" fill="#0" id="circle266"/>
	<circle cx="494.906" cy="36.4183" r="4" fill="#0" id="circle267"/>
	<circle cx="498.611" cy="947.836" r="4" fill="#0" id="circle268"/>
	<circle cx="504.168" cy="36.4183" r="4" fill="#0" id="circle269"/>
	<circle cx="507.873" cy="943.204" r="4" fill="#0" id="circle270"/>
	<circle cx="513.43" cy="36.4183" r="4" fill="#0" id="circle271"/>
	<circle cx="514.357" cy="935.795" r="4" fill="#0" id="circle272"/>
	<circle cx="521.767" cy="31.7871" r="4" fill="#0" id="circle273"/>
	<circle cx="523.619" cy="931.163" r="4" fill="#0" id="circle274"/>
	<circle cx="531.029" cy="31.7871" r="4" fill="#0" id="circle275"/>
	<circle cx="532.881" cy="926.532" r="4" fill="#0" id="circle276"/>
	<circle cx="537.513" cy="917.27" r="4" fill="#0" id="circle277"/>
	<circle cx="539.365" cy="27.1559" r="4" fill="#0" id="circle278"/>
	<circle cx="542.144" cy="908.007" r="4" fill="#0" id="circle279"/>
	<circle cx="548.627" cy="27.1559" r="4" fill="#0" id="circle280"/>
	<circle cx="551.406" cy="909.86" r="4" fill="#0" id="circle281"/>
	<circle cx="557.89" cy="27.1559" r="4" fill="#0" id="circle282"/>
	<circle cx="557.89" cy="917.27" r="4" fill="#0" id="circle283"/>
	<circle cx="562.521" cy="925.606" r="4" fill="#0" id="circle284"/>
	<circle cx="566.226" cy="22.5247" r="4" fill="#0" id="circle285"/>
	<circle cx="569.005" cy="933.016" r="4" fill="#0" id="circle286"/>
	<circle cx="575.488" cy="22.5247" r="4" fill="#0" id="circle287"/>
	<circle cx="576.415" cy="939.5" r="4" fill="#0" id="circle288"/>
	<circle cx="582.898" cy="946.909" r="4" fill="#0" id="circle289"/>
	<circle cx="584.751" cy="22.5247" r="4" fill="#0" id="circle290"/>
	<circle cx="592.161" cy="949.688" r="4" fill="#0" id="circle291"/>
	<circle cx="594.013" cy="22.5247" r="4" fill="#0" id="circle292"/>
	<circle cx="597.718" cy="957.098" r="4" fill="#0" id="circle293"/>
	<circle cx="602.349" cy="27.1559" r="4" fill="#0" id="circle294"/>
	<circle cx="606.98" cy="960.803" r="4" fill="#0" id="circle295"/>
	<circle cx="609.759" cy="32.7134" r="4" fill="#0" id="circle296"/>
	<circle cx="613.464" cy="968.213" r="4" fill="#0" id="circle297"/>
	<circle cx="618.095" cy="37.3445" r="4" fill="#0" id="circle298"/>
	<circle cx="620.874" cy="343.003" r="4" fill="#0" id="circle299"/>
	<circle cx="620.874" cy="352.265" r="4" fill="#0" id="circle300"/>
	<circle cx="620.874" cy="361.528" r="4" fill="#0" id="circle301"/>
	<circle cx="620.874" cy="370.79" r="4" fill="#0" id="circle302"/>
	<circle cx="622.726" cy="971.918" r="4" fill="#0" id="circle303"/>
	<circle cx="625.505" cy="43.8282" r="4" fill="#0" id="circle304"/>
	<circle cx="625.505" cy="379.126" r="4" fill="#0" id="circle305"/>
	<circle cx="625.505" cy="388.388" r="4" fill="#0" id="circle306"/>
	<circle cx="628.284" cy="336.519" r="4" fill="#0" id="circle307"/>
	<circle cx="630.136" cy="396.725" r="4" fill="#0" id="circle308"/>
	<circle cx="631.063" cy="976.549" r="4" fill="#0" id="circle309"/>
	<circle cx="632.915" cy="327.257" r="4" fill="#0" id="circle310"/>
	<circle cx="633.841" cy="48.4594" r="4" fill="#0" id="circle311"/>
	<circle cx="639.399" cy="55.8693" r="4" fill="#0" id="circle312"/>
	<circle cx="639.399" cy="319.847" r="4" fill="#0" id="circle313"/>
	<circle cx="639.399" cy="397.651" r="4" fill="#0" id="circle314"/>
	<circle cx="640.325" cy="980.254" r="4" fill="#0" id="circle315"/>
	<circle cx="644.03" cy="64.2054" r="4" fill="#0" id="circle316"/>
	<circle cx="644.03" cy="73.4678" r="4" fill="#0" id="circle317"/>
	<circle cx="648.661" cy="81.8039" r="4" fill="#0" id="circle318"/>
	<circle cx="648.661" cy="319.847" r="4" fill="#0" id="circle319"/>
	<circle cx="648.661" cy="397.651" r="4" fill="#0" id="circle320"/>
	<circle cx="649.587" cy="982.106" r="4" fill="#0" id="circle321"/>
	<circle cx="656.071" cy="88.2876" r="4" fill="#0" id="circle322"/>
	<circle cx="657.923" cy="319.847" r="4" fill="#0" id="circle323"/>
	<circle cx="657.923" cy="394.872" r="4" fill="#0" id="circle324"/>
	<circle cx="658.85" cy="982.106" r="4" fill="#0" id="circle325"/>
	<circle cx="662.555" cy="95.6975" r="4" fill="#0" id="circle326"/>
	<circle cx="666.26" cy="315.216" r="4" fill="#0" id="circle327"/>
	<circle cx="667.186" cy="104.034" r="4" fill="#0" id="circle328"/>
	<circle cx="667.186" cy="113.296" r="4" fill="#0" id="circle329"/>
	<circle cx="667.186" cy="393.02" r="4" fill="#0" id="circle330"/>
	<circle cx="667.186" cy="986.738" r="4" fill="#0" id="circle331"/>
	<circle cx="673.669" cy="120.706" r="4" fill="#0" id="circle332"/>
	<circle cx="675.522" cy="315.216" r="4" fill="#0" id="circle333"/>
	<circle cx="676.448" cy="393.02" r="4" fill="#0" id="circle334"/>
	<circle cx="676.448" cy="986.738" r="4" fill="#0" id="circle335"/>
	<circle cx="682.932" cy="124.411" r="4" fill="#0" id="circle336"/>
	<circle cx="683.858" cy="310.585" r="4" fill="#0" id="circle337"/>
	<circle cx="685.711" cy="393.02" r="4" fill="#0" id="circle338"/>
	<circle cx="685.711" cy="988.59" r="4" fill="#0" id="circle339"/>
	<circle cx="689.415" cy="131.821" r="4" fill="#0" id="circle340"/>
	<circle cx="692.194" cy="305.953" r="4" fill="#0" id="circle341"/>
	<circle cx="694.973" cy="393.02" r="4" fill="#0" id="circle342"/>
	<circle cx="694.973" cy="991.369" r="4" fill="#0" id="circle343"/>
	<circle cx="696.825" cy="138.304" r="4" fill="#0" id="circle344"/>
	<circle cx="699.604" cy="162.387" r="4" fill="#0" id="circle345"/>
	<circle cx="700.53" cy="301.322" r="4" fill="#0" id="circle346"/>
	<circle cx="701.457" cy="171.649" r="4" fill="#0" id="circle347"/>
	<circle cx="703.309" cy="397.651" r="4" fill="#0" id="circle348"/>
	<circle cx="704.235" cy="143.862" r="4" fill="#0" id="circle349"/>
	<circle cx="704.235" cy="993.221" r="4" fill="#0" id="circle350"/>
	<circle cx="707.014" cy="155.903" r="4" fill="#0" id="circle351"/>
	<circle cx="708.866" cy="178.133" r="4" fill="#0" id="circle352"/>
	<circle cx="708.866" cy="296.691" r="4" fill="#0" id="circle353"/>
	<circle cx="712.571" cy="397.651" r="4" fill="#0" id="circle354"/>
	<circle cx="713.498" cy="996" r="4" fill="#0" id="circle355"/>
	<circle cx="715.35" cy="185.542" r="4" fill="#0" id="circle356"/>
	<circle cx="716.276" cy="290.207" r="4" fill="#0" id="circle357"/>
	<circle cx="719.981" cy="193.879" r="4" fill="#0" id="circle358"/>
	<circle cx="720.908" cy="402.282" r="4" fill="#0" id="circle359"/>
	<circle cx="722.76" cy="203.141" r="4" fill="#0" id="circle360"/>
	<circle cx="722.76" cy="278.166" r="4" fill="#0" id="circle361"/>
	<circle cx="722.76" cy="996" r="4" fill="#0" id="circle362"/>
	<circle cx="727.391" cy="211.477" r="4" fill="#0" id="circle363"/>
	<circle cx="727.391" cy="220.739" r="4" fill="#0" id="circle364"/>
	<circle cx="727.391" cy="230.002" r="4" fill="#0" id="circle365"/>
	<circle cx="727.391" cy="239.264" r="4" fill="#0" id="circle366"/>
	<circle cx="727.391" cy="248.527" r="4" fill="#0" id="circle367"/>
	<circle cx="727.391" cy="257.789" r="4" fill="#0" id="circle368"/>
	<circle cx="727.391" cy="267.051" r="4" fill="#0" id="circle369"/>
	<circle cx="729.244" cy="406.913" r="4" fill="#0" id="circle370"/>
	<circle cx="732.022" cy="996" r="4" fill="#0" id="circle371"/>
	<circle cx="735.727" cy="414.323" r="4" fill="#0" id="circle372"/>
	<circle cx="741.285" cy="996" r="4" fill="#0" id="circle373"/>
	<circle cx="743.137" cy="420.807" r="4" fill="#0" id="circle374"/>
	<circle cx="749.621" cy="428.217" r="4" fill="#0" id="circle375"/>
	<circle cx="750.547" cy="996" r="4" fill="#0" id="circle376"/>
	<circle cx="757.031" cy="434.7" r="4" fill="#0" id="circle377"/>
	<circle cx="759.81" cy="991.369" r="4" fill="#0" id="circle378"/>
	<circle cx="763.514" cy="442.11" r="4" fill="#0" id="circle379"/>
	<circle cx="768.146" cy="450.446" r="4" fill="#0" id="circle380"/>
	<circle cx="769.072" cy="986.738" r="4" fill="#0" id="circle381"/>
	<circle cx="773.703" cy="457.856" r="4" fill="#0" id="circle382"/>
	<circle cx="773.703" cy="977.475" r="4" fill="#0" id="circle383"/>
	<circle cx="778.334" cy="466.192" r="4" fill="#0" id="circle384"/>
	<circle cx="781.113" cy="970.992" r="4" fill="#0" id="circle385"/>
	<circle cx="785.744" cy="472.676" r="4" fill="#0" id="circle386"/>
	<circle cx="787.597" cy="958.951" r="4" fill="#0" id="circle387"/>
	<circle cx="789.449" cy="481.938" r="4" fill="#0" id="circle388"/>
	<circle cx="792.228" cy="949.688" r="4" fill="#0" id="circle389"/>
	<circle cx="796.859" cy="488.422" r="4" fill="#0" id="circle390"/>
	<circle cx="799.638" cy="943.204" r="4" fill="#0" id="circle391"/>
	<circle cx="800.564" cy="497.684" r="4" fill="#0" id="circle392"/>
	<circle cx="804.269" cy="933.942" r="4" fill="#0" id="circle393"/>
	<circle cx="806.121" cy="505.094" r="4" fill="#0" id="circle394"/>
	<circle cx="810.753" cy="513.43" r="4" fill="#0" id="circle395"/>
	<circle cx="810.753" cy="921.901" r="4" fill="#0" id="circle396"/>
	<circle cx="815.384" cy="521.767" r="4" fill="#0" id="circle397"/>
	<circle cx="815.384" cy="912.639" r="4" fill="#0" id="circle398"/>
	<circle cx="820.015" cy="903.376" r="4" fill="#0" id="circle399"/>
	<circle cx="822.794" cy="528.25" r="4" fill="#0" id="circle400"/>
	<circle cx="824.646" cy="894.114" r="4" fill="#0" id="circle401"/>
	<circle cx="829.277" cy="884.852" r="4" fill="#0" id="circle402"/>
	<circle cx="831.13" cy="532.881" r="4" fill="#0" id="circle403"/>
	<circle cx="833.908" cy="857.064" r="4" fill="#0" id="circle404"/>
	<circle cx="833.908" cy="866.327" r="4" fill="#0" id="circle405"/>
	<circle cx="833.908" cy="875.589" r="4" fill="#0" id="circle406"/>
	<circle cx="835.761" cy="541.218" r="4" fill="#0" id="circle407"/>
	<circle cx="838.54" cy="838.54" r="4" fill="#0" id="circle408"/>
	<circle cx="838.54" cy="847.802" r="4" fill="#0" id="circle409"/>
	<circle cx="842.245" cy="548.627" r="4" fill="#0" id="circle410"/>
	<circle cx="843.171" cy="815.384" r="4" fill="#0" id="circle411"/>
	<circle cx="843.171" cy="824.646" r="4" fill="#0" id="circle412"/>
	<circle cx="847.802" cy="806.121" r="4" fill="#0" id="circle413"/>
	<circle cx="851.507" cy="552.332" r="4" fill="#0" id="circle414"/>
	<circle cx="852.433" cy="787.597" r="4" fill="#0" id="circle415"/>
	<circle cx="852.433" cy="796.859" r="4" fill="#0" id="circle416"/>
	<circle cx="857.064" cy="559.742" r="4" fill="#0" id="circle417"/>
	<circle cx="857.064" cy="773.703" r="4" fill="#0" id="circle418"/>
	<circle cx="861.696" cy="704.235" r="4" fill="#0" id="circle419"/>
	<circle cx="861.696" cy="732.022" r="4" fill="#0" id="circle420"/>
	<circle cx="861.696" cy="741.285" r="4" fill="#0" id="circle421"/>
	<circle cx="861.696" cy="750.547" r="4" fill="#0" id="circle422"/>
	<circle cx="861.696" cy="759.81" r="4" fill="#0" id="circle423"/>
	<circle cx="866.327" cy="562.521" r="4" fill="#0" id="circle424"/>
	<circle cx="866.327" cy="694.973" r="4" fill="#0" id="circle425"/>
	<circle cx="866.327" cy="712.571" r="4" fill="#0" id="circle426"/>
	<circle cx="866.327" cy="721.834" r="4" fill="#0" id="circle427"/>
	<circle cx="872.81" cy="569.931" r="4" fill="#0" id="circle428"/>
	<circle cx="874.663" cy="690.342" r="4" fill="#0" id="circle429"/>
	<circle cx="877.442" cy="578.267" r="4" fill="#0" id="circle430"/>
	<circle cx="880.22" cy="587.529" r="4" fill="#0" id="circle431"/>
	<circle cx="882.073" cy="684.784" r="4" fill="#0" id="circle432"/>
	<circle cx="887.63" cy="593.087" r="4" fill="#0" id="circle433"/>
	<circle cx="889.483" cy="676.448" r="4" fill="#0" id="circle434"/>
	<circle cx="891.335" cy="602.349" r="4" fill="#0" id="circle435"/>
	<circle cx="894.114" cy="611.612" r="4" fill="#0" id="circle436"/>
	<circle cx="894.114" cy="620.874" r="4" fill="#0" id="circle437"/>
	<circle cx="895.966" cy="630.136" r="4" fill="#0" id="circle438"/>
	<circle cx="896.893" cy="669.965" r="4" fill="#0" id="circle439"/>
	<circle cx="898.745" cy="639.399" r="4" fill="#0" id="circle440"/>
	<circle cx="900.598" cy="648.661" r="4" fill="#0" id="circle441"/>
	<circle cx="901.524" cy="660.702" r="4" fill="#0" id="circle442"/>
	</g>
</svg>