<?xml version="1.0" encoding="UTF-8" standalone="no"?>
<!-- Created with CurveBenchmark -->
<svg
	xmlns:dc="http://purl.org/dc/elements/1.1/"
	xmlns:cc="http://creativecommons.org/ns#"
	xmlns:rdf="http://www.w3.org/1999/02/22-rdf-syntax-ns#"
	xmlns:svg="http://www.w3.org/2000/svg"
	xmlns="http://www.w3.org/2000/svg"
	xmlns:sodipodi="http://sodipodi.sourceforge.net/DTD/sodipodi-0.dtd"
	xmlns:inkscape="http://www.inkscape.org/namespaces/inkscape"
	width="1000"
	height="1000"
	id="svg2"
	version="1.1"
	sodipodi:docname="manifold/vicur-tool14.png.txt">
<defs
	id="defs4" />
<metadata
	id="metadata7">
	<rdf:RDF>
		<cc:Work
			rdf:about="">
			<dc:format>image/svg+xml</dc:format>
			<dc:type
				rdf:resource="http://purl.org/dc/dcmitype/StillImage" />
			<dc:title></dc:title>
		</cc:Work>
	</rdf:RDF>
</metadata>
<g
	inkscape:label="Layer 1"
	inkscape:groupmode="layer"
	id="layer1">
	<path style="fill:none;stroke:red;stroke-width:1px;stroke-linecap:butt;stroke-linejoin:miter;stroke-opacity:1" d="M 4,47.7647 16.1569,69.6471 z" id="boundary" inkscape:connector-curvature="0" />
	<path style="fill:none;stroke:red;stroke-width:1px;stroke-linecap:butt;stroke-linejoin:miter;stroke-opacity:1" d="M 4,47.7647 23.451,28.3137 z" id="boundary" inkscape:connector-curvature="0" />
	<path style="fill:none;stroke:red;stroke-width:1px;stroke-linecap:butt;stroke-linejoin:miter;stroke-opacity:1" d="M 16.1569,69.6471 16.1569,93.9608 z" id="boundary" inkscape:connector-curvature="0" />
	<path style="fill:none;stroke:red;stroke-width:1px;stroke-linecap:butt;stroke-linejoin:miter;stroke-opacity:1" d="M 16.1569,93.9608 40.4706,103.686 z" id="boundary" inkscape:connector-curvature="0" />
	<path style="fill:none;stroke:red;stroke-width:1px;stroke-linecap:butt;stroke-linejoin:miter;stroke-opacity:1" d="M 23.451,28.3137 47.7647,28.3137 z" id="boundary" inkscape:connector-curvature="0" />
	<path style="fill:none;stroke:red;stroke-width:1px;stroke-linecap:butt;stroke-linejoin:miter;stroke-opacity:1" d="M 40.4706,103.686 64.7843,103.686 z" id="boundary" inkscape:connector-curvature="0" />
	<path style="fill:none;stroke:red;stroke-width:1px;stroke-linecap:butt;stroke-linejoin:miter;stroke-opacity:1" d="M 47.7647,28.3137 72.0784,28.3137 z" id="boundary" inkscape:connector-curvature="0" />
	<path style="fill:none;stroke:red;stroke-width:1px;stroke-linecap:butt;stroke-linejoin:miter;stroke-opacity:1" d="M 64.7843,103.686 89.098,103.686 z" id="boundary" inkscape:connector-curvature="0" />
	<path style="fill:none;stroke:red;stroke-width:1px;stroke-linecap:butt;stroke-linejoin:miter;stroke-opacity:1" d="M 72.0784,28.3137 96.3922,28.3137 z" id="boundary" inkscape:connector-curvature="0" />
	<path style="fill:none;stroke:red;stroke-width:1px;stroke-linecap:butt;stroke-linejoin:miter;stroke-opacity:1" d="M 89.098,103.686 113.412,103.686 z" id="boundary" inkscape:connector-curvature="0" />
	<path style="fill:none;stroke:red;stroke-width:1px;stroke-linecap:butt;stroke-linejoin:miter;stroke-opacity:1" d="M 96.3922,28.3137 120.706,28.3137 z" id="boundary" inkscape:connector-curvature="0" />
	<path style="fill:none;stroke:red;stroke-width:1px;stroke-linecap:butt;stroke-linejoin:miter;stroke-opacity:1" d="M 113.412,103.686 137.725,103.686 z" id="boundary" inkscape:connector-curvature="0" />
	<path style="fill:none;stroke:red;stroke-width:1px;stroke-linecap:butt;stroke-linejoin:miter;stroke-opacity:1" d="M 120.706,28.3137 142.588,16.1569 z" id="boundary" inkscape:connector-curvature="0" />
	<path style="fill:none;stroke:red;stroke-width:1px;stroke-linecap:butt;stroke-linejoin:miter;stroke-opacity:1" d="M 137.725,103.686 162.039,96.3922 z" id="boundary" inkscape:connector-curvature="0" />
	<path style="fill:none;stroke:red;stroke-width:1px;stroke-linecap:butt;stroke-linejoin:miter;stroke-opacity:1" d="M 142.588,16.1569 164.471,4 z" id="boundary" inkscape:connector-curvature="0" />
	<path style="fill:none;stroke:red;stroke-width:1px;stroke-linecap:butt;stroke-linejoin:miter;stroke-opacity:1" d="M 162.039,96.3922 186.353,91.5294 z" id="boundary" inkscape:connector-curvature="0" />
	<path style="fill:none;stroke:red;stroke-width:1px;stroke-linecap:butt;stroke-linejoin:miter;stroke-opacity:1" d="M 164.471,4 188.784,11.2941 z" id="boundary" inkscape:connector-curvature="0" />
	<path style="fill:none;stroke:red;stroke-width:1px;stroke-linecap:butt;stroke-linejoin:miter;stroke-opacity:1" d="M 186.353,91.5294 210.667,91.5294 z" id="boundary" inkscape:connector-curvature="0" />
	<path style="fill:none;stroke:red;stroke-width:1px;stroke-linecap:butt;stroke-linejoin:miter;stroke-opacity:1" d="M 188.784,11.2941 213.098,16.1569 z" id="boundary" inkscape:connector-curvature="0" />
	<path style="fill:none;stroke:red;stroke-width:1px;stroke-linecap:butt;stroke-linejoin:miter;stroke-opacity:1" d="M 210.667,91.5294 232.549,103.686 z" id="boundary" inkscape:connector-curvature="0" />
	<path style="fill:none;stroke:red;stroke-width:1px;stroke-linecap:butt;stroke-linejoin:miter;stroke-opacity:1" d="M 213.098,16.1569 237.412,23.451 z" id="boundary" inkscape:connector-curvature="0" />
	<path style="fill:none;stroke:red;stroke-width:1px;stroke-linecap:butt;stroke-linejoin:miter;stroke-opacity:1" d="M 232.549,103.686 256.863,103.686 z" id="boundary" inkscape:connector-curvature="0" />
	<path style="fill:none;stroke:red;stroke-width:1px;stroke-linecap:butt;stroke-linejoin:miter;stroke-opacity:1" d="M 237.412,23.451 261.725,28.3137 z" id="boundary" inkscape:connector-curvature="0" />
	<path style="fill:none;stroke:red;stroke-width:1px;stroke-linecap:butt;stroke-linejoin:miter;stroke-opacity:1" d="M 256.863,103.686 281.176,103.686 z" id="boundary" inkscape:connector-curvature="0" />
	<path style="fill:none;stroke:red;stroke-width:1px;stroke-linecap:butt;stroke-linejoin:miter;stroke-opacity:1" d="M 261.725,28.3137 286.039,28.3137 z" id="boundary" inkscape:connector-curvature="0" />
	<path style="fill:none;stroke:red;stroke-width:1px;stroke-linecap:butt;stroke-linejoin:miter;stroke-opacity:1" d="M 281.176,103.686 305.49,103.686 z" id="boundary" inkscape:connector-curvature="0" />
	<path style="fill:none;stroke:red;stroke-width:1px;stroke-linecap:butt;stroke-linejoin:miter;stroke-opacity:1" d="M 286.039,28.3137 310.353,28.3137 z" id="boundary" inkscape:connector-curvature="0" />
	<path style="fill:none;stroke:red;stroke-width:1px;stroke-linecap:butt;stroke-linejoin:miter;stroke-opacity:1" d="M 305.49,103.686 327.373,115.843 z" id="boundary" inkscape:connector-curvature="0" />
	<path style="fill:none;stroke:red;stroke-width:1px;stroke-linecap:butt;stroke-linejoin:miter;stroke-opacity:1" d="M 310.353,28.3137 334.667,28.3137 z" id="boundary" inkscape:connector-curvature="0" />
	<path style="fill:none;stroke:red;stroke-width:1px;stroke-linecap:butt;stroke-linejoin:miter;stroke-opacity:1" d="M 327.373,115.843 351.686,115.843 z" id="boundary" inkscape:connector-curvature="0" />
	<path style="fill:none;stroke:red;stroke-width:1px;stroke-linecap:butt;stroke-linejoin:miter;stroke-opacity:1" d="M 334.667,28.3137 358.98,28.3137 z" id="boundary" inkscape:connector-curvature="0" />
	<path style="fill:none;stroke:red;stroke-width:1px;stroke-linecap:butt;stroke-linejoin:miter;stroke-opacity:1" d="M 351.686,115.843 376,125.569 z" id="boundary" inkscape:connector-curvature="0" />
	<path style="fill:none;stroke:red;stroke-width:1px;stroke-linecap:butt;stroke-linejoin:miter;stroke-opacity:1" d="M 358.98,28.3137 383.294,28.3137 z" id="boundary" inkscape:connector-curvature="0" />
	<path style="fill:none;stroke:red;stroke-width:1px;stroke-linecap:butt;stroke-linejoin:miter;stroke-opacity:1" d="M 376,125.569 400.314,128 z" id="boundary" inkscape:connector-curvature="0" />
	<path style="fill:none;stroke:red;stroke-width:1px;stroke-linecap:butt;stroke-linejoin:miter;stroke-opacity:1" d="M 383.294,28.3137 407.608,28.3137 z" id="boundary" inkscape:connector-curvature="0" />
	<path style="fill:none;stroke:red;stroke-width:1px;stroke-linecap:butt;stroke-linejoin:miter;stroke-opacity:1" d="M 400.314,128 422.196,140.157 z" id="boundary" inkscape:connector-curvature="0" />
	<path style="fill:none;stroke:red;stroke-width:1px;stroke-linecap:butt;stroke-linejoin:miter;stroke-opacity:1" d="M 407.608,28.3137 429.49,40.4706 z" id="boundary" inkscape:connector-curvature="0" />
	<path style="fill:none;stroke:red;stroke-width:1px;stroke-linecap:butt;stroke-linejoin:miter;stroke-opacity:1" d="M 422.196,140.157 446.51,147.451 z" id="boundary" inkscape:connector-curvature="0" />
	<path style="fill:none;stroke:red;stroke-width:1px;stroke-linecap:butt;stroke-linejoin:miter;stroke-opacity:1" d="M 429.49,40.4706 453.804,40.4706 z" id="boundary" inkscape:connector-curvature="0" />
	<path style="fill:none;stroke:red;stroke-width:1px;stroke-linecap:butt;stroke-linejoin:miter;stroke-opacity:1" d="M 446.51,147.451 465.961,164.471 z" id="boundary" inkscape:connector-curvature="0" />
	<path style="fill:none;stroke:red;stroke-width:1px;stroke-linecap:butt;stroke-linejoin:miter;stroke-opacity:1" d="M 453.804,40.4706 475.686,52.6275 z" id="boundary" inkscape:connector-curvature="0" />
	<path style="fill:none;stroke:red;stroke-width:1px;stroke-linecap:butt;stroke-linejoin:miter;stroke-opacity:1" d="M 465.961,164.471 487.843,176.627 z" id="boundary" inkscape:connector-curvature="0" />
	<path style="fill:none;stroke:red;stroke-width:1px;stroke-linecap:butt;stroke-linejoin:miter;stroke-opacity:1" d="M 475.686,52.6275 500,55.0588 z" id="boundary" inkscape:connector-curvature="0" />
	<path style="fill:none;stroke:red;stroke-width:1px;stroke-linecap:butt;stroke-linejoin:miter;stroke-opacity:1" d="M 487.843,176.627 512.157,176.627 z" id="boundary" inkscape:connector-curvature="0" />
	<path style="fill:none;stroke:red;stroke-width:1px;stroke-linecap:butt;stroke-linejoin:miter;stroke-opacity:1" d="M 500,55.0588 524.314,64.7843 z" id="boundary" inkscape:connector-curvature="0" />
	<path style="fill:none;stroke:red;stroke-width:1px;stroke-linecap:butt;stroke-linejoin:miter;stroke-opacity:1" d="M 512.157,176.627 534.039,188.784 z" id="boundary" inkscape:connector-curvature="0" />
	<path style="fill:none;stroke:red;stroke-width:1px;stroke-linecap:butt;stroke-linejoin:miter;stroke-opacity:1" d="M 524.314,64.7843 548.627,67.2157 z" id="boundary" inkscape:connector-curvature="0" />
	<path style="fill:none;stroke:red;stroke-width:1px;stroke-linecap:butt;stroke-linejoin:miter;stroke-opacity:1" d="M 534.039,188.784 555.922,200.941 z" id="boundary" inkscape:connector-curvature="0" />
	<path style="fill:none;stroke:red;stroke-width:1px;stroke-linecap:butt;stroke-linejoin:miter;stroke-opacity:1" d="M 548.627,67.2157 565.647,86.6667 z" id="boundary" inkscape:connector-curvature="0" />
	<path style="fill:none;stroke:red;stroke-width:1px;stroke-linecap:butt;stroke-linejoin:miter;stroke-opacity:1" d="M 555.922,200.941 580.235,208.235 z" id="boundary" inkscape:connector-curvature="0" />
	<path style="fill:none;stroke:red;stroke-width:1px;stroke-linecap:butt;stroke-linejoin:miter;stroke-opacity:1" d="M 565.647,86.6667 589.961,89.098 z" id="boundary" inkscape:connector-curvature="0" />
	<path style="fill:none;stroke:red;stroke-width:1px;stroke-linecap:butt;stroke-linejoin:miter;stroke-opacity:1" d="M 580.235,208.235 604.549,213.098 z" id="boundary" inkscape:connector-curvature="0" />
	<path style="fill:none;stroke:red;stroke-width:1px;stroke-linecap:butt;stroke-linejoin:miter;stroke-opacity:1" d="M 589.961,89.098 614.275,89.098 z" id="boundary" inkscape:connector-curvature="0" />
	<path style="fill:none;stroke:red;stroke-width:1px;stroke-linecap:butt;stroke-linejoin:miter;stroke-opacity:1" d="M 604.549,213.098 626.431,225.255 z" id="boundary" inkscape:connector-curvature="0" />
	<path style="fill:none;stroke:red;stroke-width:1px;stroke-linecap:butt;stroke-linejoin:miter;stroke-opacity:1" d="M 614.275,89.098 636.157,101.255 z" id="boundary" inkscape:connector-curvature="0" />
	<path style="fill:none;stroke:red;stroke-width:1px;stroke-linecap:butt;stroke-linejoin:miter;stroke-opacity:1" d="M 626.431,225.255 648.314,237.412 z" id="boundary" inkscape:connector-curvature="0" />
	<path style="fill:none;stroke:red;stroke-width:1px;stroke-linecap:butt;stroke-linejoin:miter;stroke-opacity:1" d="M 636.157,101.255 660.471,106.118 z" id="boundary" inkscape:connector-curvature="0" />
	<path style="fill:none;stroke:red;stroke-width:1px;stroke-linecap:butt;stroke-linejoin:miter;stroke-opacity:1" d="M 648.314,237.412 670.196,249.569 z" id="boundary" inkscape:connector-curvature="0" />
	<path style="fill:none;stroke:red;stroke-width:1px;stroke-linecap:butt;stroke-linejoin:miter;stroke-opacity:1" d="M 660.471,106.118 675.059,125.569 z" id="boundary" inkscape:connector-curvature="0" />
	<path style="fill:none;stroke:red;stroke-width:1px;stroke-linecap:butt;stroke-linejoin:miter;stroke-opacity:1" d="M 670.196,249.569 687.216,269.02 z" id="boundary" inkscape:connector-curvature="0" />
	<path style="fill:none;stroke:red;stroke-width:1px;stroke-linecap:butt;stroke-linejoin:miter;stroke-opacity:1" d="M 675.059,125.569 699.373,125.569 z" id="boundary" inkscape:connector-curvature="0" />
	<path style="fill:none;stroke:red;stroke-width:1px;stroke-linecap:butt;stroke-linejoin:miter;stroke-opacity:1" d="M 687.216,269.02 706.667,286.039 z" id="boundary" inkscape:connector-curvature="0" />
	<path style="fill:none;stroke:red;stroke-width:1px;stroke-linecap:butt;stroke-linejoin:miter;stroke-opacity:1" d="M 699.373,125.569 721.255,137.725 z" id="boundary" inkscape:connector-curvature="0" />
	<path style="fill:none;stroke:red;stroke-width:1px;stroke-linecap:butt;stroke-linejoin:miter;stroke-opacity:1" d="M 706.667,286.039 723.686,305.49 z" id="boundary" inkscape:connector-curvature="0" />
	<path style="fill:none;stroke:red;stroke-width:1px;stroke-linecap:butt;stroke-linejoin:miter;stroke-opacity:1" d="M 721.255,137.725 745.569,142.588 z" id="boundary" inkscape:connector-curvature="0" />
	<path style="fill:none;stroke:red;stroke-width:1px;stroke-linecap:butt;stroke-linejoin:miter;stroke-opacity:1" d="M 723.686,305.49 745.569,317.647 z" id="boundary" inkscape:connector-curvature="0" />
	<path style="fill:none;stroke:red;stroke-width:1px;stroke-linecap:butt;stroke-linejoin:miter;stroke-opacity:1" d="M 745.569,142.588 769.882,149.882 z" id="boundary" inkscape:connector-curvature="0" />
	<path style="fill:none;stroke:red;stroke-width:1px;stroke-linecap:butt;stroke-linejoin:miter;stroke-opacity:1" d="M 745.569,317.647 748,341.961 z" id="boundary" inkscape:connector-curvature="0" />
	<path style="fill:none;stroke:red;stroke-width:1px;stroke-linecap:butt;stroke-linejoin:miter;stroke-opacity:1" d="M 748,341.961 757.725,366.275 z" id="boundary" inkscape:connector-curvature="0" />
	<path style="fill:none;stroke:red;stroke-width:1px;stroke-linecap:butt;stroke-linejoin:miter;stroke-opacity:1" d="M 757.725,366.275 760.157,390.588 z" id="boundary" inkscape:connector-curvature="0" />
	<path style="fill:none;stroke:red;stroke-width:1px;stroke-linecap:butt;stroke-linejoin:miter;stroke-opacity:1" d="M 760.157,390.588 779.608,407.608 z" id="boundary" inkscape:connector-curvature="0" />
	<path style="fill:none;stroke:red;stroke-width:1px;stroke-linecap:butt;stroke-linejoin:miter;stroke-opacity:1" d="M 769.882,149.882 794.196,154.745 z" id="boundary" inkscape:connector-curvature="0" />
	<path style="fill:none;stroke:red;stroke-width:1px;stroke-linecap:butt;stroke-linejoin:miter;stroke-opacity:1" d="M 779.608,407.608 801.49,419.765 z" id="boundary" inkscape:connector-curvature="0" />
	<path style="fill:none;stroke:red;stroke-width:1px;stroke-linecap:butt;stroke-linejoin:miter;stroke-opacity:1" d="M 794.196,154.745 818.51,162.039 z" id="boundary" inkscape:connector-curvature="0" />
	<path style="fill:none;stroke:red;stroke-width:1px;stroke-linecap:butt;stroke-linejoin:miter;stroke-opacity:1" d="M 801.49,419.765 825.804,419.765 z" id="boundary" inkscape:connector-curvature="0" />
	<path style="fill:none;stroke:red;stroke-width:1px;stroke-linecap:butt;stroke-linejoin:miter;stroke-opacity:1" d="M 818.51,162.039 842.824,162.039 z" id="boundary" inkscape:connector-curvature="0" />
	<path style="fill:none;stroke:red;stroke-width:1px;stroke-linecap:butt;stroke-linejoin:miter;stroke-opacity:1" d="M 825.804,419.765 850.118,429.49 z" id="boundary" inkscape:connector-curvature="0" />
	<path style="fill:none;stroke:red;stroke-width:1px;stroke-linecap:butt;stroke-linejoin:miter;stroke-opacity:1" d="M 842.824,162.039 867.137,162.039 z" id="boundary" inkscape:connector-curvature="0" />
	<path style="fill:none;stroke:red;stroke-width:1px;stroke-linecap:butt;stroke-linejoin:miter;stroke-opacity:1" d="M 850.118,429.49 874.431,429.49 z" id="boundary" inkscape:connector-curvature="0" />
	<path style="fill:none;stroke:red;stroke-width:1px;stroke-linecap:butt;stroke-linejoin:miter;stroke-opacity:1" d="M 867.137,162.039 891.451,162.039 z" id="boundary" inkscape:connector-curvature="0" />
	<path style="fill:none;stroke:red;stroke-width:1px;stroke-linecap:butt;stroke-linejoin:miter;stroke-opacity:1" d="M 869.569,310.353 869.569,334.667 z" id="boundary" inkscape:connector-curvature="0" />
	<path style="fill:none;stroke:red;stroke-width:1px;stroke-linecap:butt;stroke-linejoin:miter;stroke-opacity:1" d="M 869.569,310.353 893.882,310.353 z" id="boundary" inkscape:connector-curvature="0" />
	<path style="fill:none;stroke:red;stroke-width:1px;stroke-linecap:butt;stroke-linejoin:miter;stroke-opacity:1" d="M 869.569,334.667 881.725,356.549 z" id="boundary" inkscape:connector-curvature="0" />
	<path style="fill:none;stroke:red;stroke-width:1px;stroke-linecap:butt;stroke-linejoin:miter;stroke-opacity:1" d="M 874.431,429.49 898.745,419.765 z" id="boundary" inkscape:connector-curvature="0" />
	<path style="fill:none;stroke:red;stroke-width:1px;stroke-linecap:butt;stroke-linejoin:miter;stroke-opacity:1" d="M 881.725,356.549 901.176,371.137 z" id="boundary" inkscape:connector-curvature="0" />
	<path style="fill:none;stroke:red;stroke-width:1px;stroke-linecap:butt;stroke-linejoin:miter;stroke-opacity:1" d="M 891.451,162.039 915.765,162.039 z" id="boundary" inkscape:connector-curvature="0" />
	<path style="fill:none;stroke:red;stroke-width:1px;stroke-linecap:butt;stroke-linejoin:miter;stroke-opacity:1" d="M 893.882,310.353 918.196,310.353 z" id="boundary" inkscape:connector-curvature="0" />
	<path style="fill:none;stroke:red;stroke-width:1px;stroke-linecap:butt;stroke-linejoin:miter;stroke-opacity:1" d="M 898.745,419.765 918.196,390.588 z" id="boundary" inkscape:connector-curvature="0" />
	<path style="fill:none;stroke:red;stroke-width:1px;stroke-linecap:butt;stroke-linejoin:miter;stroke-opacity:1" d="M 901.176,371.137 918.196,390.588 z" id="boundary" inkscape:connector-curvature="0" />
	<path style="fill:none;stroke:red;stroke-width:1px;stroke-linecap:butt;stroke-linejoin:miter;stroke-opacity:1" d="M 915.765,162.039 940.078,166.902 z" id="boundary" inkscape:connector-curvature="0" />
	<path style="fill:none;stroke:red;stroke-width:1px;stroke-linecap:butt;stroke-linejoin:miter;stroke-opacity:1" d="M 918.196,310.353 942.51,310.353 z" id="boundary" inkscape:connector-curvature="0" />
	<path style="fill:none;stroke:red;stroke-width:1px;stroke-linecap:butt;stroke-linejoin:miter;stroke-opacity:1" d="M 940.078,166.902 961.961,179.059 z" id="boundary" inkscape:connector-curvature="0" />
	<path style="fill:none;stroke:red;stroke-width:1px;stroke-linecap:butt;stroke-linejoin:miter;stroke-opacity:1" d="M 942.51,310.353 966.824,310.353 z" id="boundary" inkscape:connector-curvature="0" />
	<path style="fill:none;stroke:red;stroke-width:1px;stroke-linecap:butt;stroke-linejoin:miter;stroke-opacity:1" d="M 961.961,179.059 978.98,198.51 z" id="boundary" inkscape:connector-curvature="0" />
	<path style="fill:none;stroke:red;stroke-width:1px;stroke-linecap:butt;stroke-linejoin:miter;stroke-opacity:1" d="M 966.824,310.353 996,307.922 z" id="boundary" inkscape:connector-curvature="0" />
	<path style="fill:none;stroke:red;stroke-width:1px;stroke-linecap:butt;stroke-linejoin:miter;stroke-opacity:1" d="M 978.98,198.51 991.137,220.392 z" id="boundary" inkscape:connector-curvature="0" />
	<path style="fill:none;stroke:red;stroke-width:1px;stroke-linecap:butt;stroke-linejoin:miter;stroke-opacity:1" d="M 981.412,329.804 996,307.922 z" id="boundary" inkscape:connector-curvature="0" />
	<path style="fill:none;stroke:red;stroke-width:1px;stroke-linecap:butt;stroke-linejoin:miter;stroke-opacity:1" d="M 991.137,220.392 991.137,244.706 z" id="boundary" inkscape:connector-curvature="0" />
	<path style="fill:none;stroke:red;stroke-width:1px;stroke-linecap:butt;stroke-linejoin:miter;stroke-opacity:1" d="M 991.137,244.706 991.137,269.02 z" id="boundary" inkscape:connector-curvature="0" />
	<circle cx="4" cy="47.7647" r="4" fill="#0" id="circle0"/>
	<circle cx="16.1569" cy="69.6471" r="4" fill="#0" id="circle1"/>
	<circle cx="16.1569" cy="93.9608" r="4" fill="#0" id="circle2"/>
	<circle cx="23.451" cy="28.3137" r="4" fill="#0" id="circle3"/>
	<circle cx="40.4706" cy="103.686" r="4" fill="#0" id="circle4"/>
	<circle cx="47.7647" cy="28.3137" r="4" fill="#0" id="circle5"/>
	<circle cx="64.7843" cy="103.686" r="4" fill="#0" id="circle6"/>
	<circle cx="72.0784" cy="28.3137" r="4" fill="#0" id="circle7"/>
	<circle cx="89.098" cy="103.686" r="4" fill="#0" id="circle8"/>
	<circle cx="96.3922" cy="28.3137" r="4" fill="#0" id="circle9"/>
	<circle cx="113.412" cy="103.686" r="4" fill="#0" id="circle10"/>
	<circle cx="120.706" cy="28.3137" r="4" fill="#0" id="circle11"/>
	<circle cx="137.725" cy="103.686" r="4" fill="#0" id="circle12"/>
	<circle cx="142.588" cy="16.1569" r="4" fill="#0" id="circle13"/>
	<circle cx="162.039" cy="96.3922" r="4" fill="#0" id="circle14"/>
	<circle cx="164.471" cy="4" r="4" fill="#0" id="circle15"/>
	<circle cx="186.353" cy="91.5294" r="4" fill="#0" id="circle16"/>
	<circle cx="188.784" cy="11.2941" r="4" fill="#0" id="circle17"/>
	<circle cx="210.667" cy="91.5294" r="4" fill="#0" id="circle18"/>
	<circle cx="213.098" cy="16.1569" r="4" fill="#0" id="circle19"/>
	<circle cx="232.549" cy="103.686" r="4" fill="#0" id="circle20"/>
	<circle cx="237.412" cy="23.451" r="4" fill="#0" id="circle21"/>
	<circle cx="256.863" cy="103.686" r="4" fill="#0" id="circle22"/>
	<circle cx="261.725" cy="28.3137" r="4" fill="#0" id="circle23"/>
	<circle cx="281.176" cy="103.686" r="4" fill="#0" id="circle24"/>
	<circle cx="286.039" cy="28.3137" r="4" fill="#0" id="circle25"/>
	<circle cx="305.49" cy="103.686" r="4" fill="#0" id="circle26"/>
	<circle cx="310.353" cy="28.3137" r="4" fill="#0" id="circle27"/>
	<circle cx="327.373" cy="115.843" r="4" fill="#0" id="circle28"/>
	<circle cx="334.667" cy="28.3137" r="4" fill="#0" id="circle29"/>
	<circle cx="351.686" cy="115.843" r="4" fill="#0" id="circle30"/>
	<circle cx="358.98" cy="28.3137" r="4" fill="#0" id="circle31"/>
	<circle cx="376" cy="125.569" r="4" fill="#0" id="circle32"/>
	<circle cx="383.294" cy="28.3137" r="4" fill="#0" id="circle33"/>
	<circle cx="400.314" cy="128" r="4" fill="#0" id="circle34"/>
	<circle cx="407.608" cy="28.3137" r="4" fill="#0" id="circle35"/>
	<circle cx="422.196" cy="140.157" r="4" fill="#0" id="circle36"/>
	<circle cx="429.49" cy="40.4706" r="4" fill="#0" id="circle37"/>
	<circle cx="446.51" cy="147.451" r="4" fill="#0" id="circle38"/>
	<circle cx="453.804" cy="40.4706" r="4" fill="#0" id="circle39"/>
	<circle cx="465.961" cy="164.471" r="4" fill="#0" id="circle40"/>
	<circle cx="475.686" cy="52.6275" r="4" fill="#0" id="circle41"/>
	<circle cx="487.843" cy="176.627" r="4" fill="#0" id="circle42"/>
	<circle cx="500" cy="55.0588" r="4" fill="#0" id="circle43"/>
	<circle cx="512.157" cy="176.627" r="4" fill="#0" id="circle44"/>
	<circle cx="524.314" cy="64.7843" r="4" fill="#0" id="circle45"/>
	<circle cx="534.039" cy="188.784" r="4" fill="#0" id="circle46"/>
	<circle cx="548.627" cy="67.2157" r="4" fill="#0" id="circle47"/>
	<circle cx="555.922" cy="200.941" r="4" fill="#0" id="circle48"/>
	<circle cx="565.647" cy="86.6667" r="4" fill="#0" id="circle49"/>
	<circle cx="580.235" cy="208.235" r="4" fill="#0" id="circle50"/>
	<circle cx="589.961" cy="89.098" r="4" fill="#0" id="circle51"/>
	<circle cx="604.549" cy="213.098" r="4" fill="#0" id="circle52"/>
	<circle cx="614.275" cy="89.098" r="4" fill="#0" id="circle53"/>
	<circle cx="626.431" cy="225.255" r="4" fill="#0" id="circle54"/>
	<circle cx="636.157" cy="101.255" r="4" fill="#0" id="circle55"/>
	<circle cx="648.314" cy="237.412" r="4" fill="#0" id="circle56"/>
	<circle cx="660.471" cy="106.118" r="4" fill="#0" id="circle57"/>
	<circle cx="670.196" cy="249.569" r="4" fill="#0" id="circle58"/>
	<circle cx="675.059" cy="125.569" r="4" fill="#0" id="circle59"/>
	<circle cx="687.216" cy="269.02" r="4" fill="#0" id="circle60"/>
	<circle cx="699.373" cy="125.569" r="4" fill="#0" id="circle61"/>
	<circle cx="706.667" cy="286.039" r="4" fill="#0" id="circle62"/>
	<circle cx="721.255" cy="137.725" r="4" fill="#0" id="circle63"/>
	<circle cx="723.686" cy="305.49" r="4" fill="#0" id="circle64"/>
	<circle cx="745.569" cy="142.588" r="4" fill="#0" id="circle65"/>
	<circle cx="745.569" cy="317.647" r="4" fill="#0" id="circle66"/>
	<circle cx="748" cy="341.961" r="4" fill="#0" id="circle67"/>
	<circle cx="757.725" cy="366.275" r="4" fill="#0" id="circle68"/>
	<circle cx="760.157" cy="390.588" r="4" fill="#0" id="circle69"/>
	<circle cx="769.882" cy="149.882" r="4" fill="#0" id="circle70"/>
	<circle cx="779.608" cy="407.608" r="4" fill="#0" id="circle71"/>
	<circle cx="794.196" cy="154.745" r="4" fill="#0" id="circle72"/>
	<circle cx="801.49" cy="419.765" r="4" fill="#0" id="circle73"/>
	<circle cx="818.51" cy="162.039" r="4" fill="#0" id="circle74"/>
	<circle cx="825.804" cy="419.765" r="4" fill="#0" id="circle75"/>
	<circle cx="842.824" cy="162.039" r="4" fill="#0" id="circle76"/>
	<circle cx="850.118" cy="429.49" r="4" fill="#0" id="circle77"/>
	<circle cx="867.137" cy="162.039" r="4" fill="#0" id="circle78"/>
	<circle cx="869.569" cy="310.353" r="4" fill="#0" id="circle79"/>
	<circle cx="869.569" cy="334.667" r="4" fill="#0" id="circle80"/>
	<circle cx="874.431" cy="429.49" r="4" fill="#0" id="circle81"/>
	<circle cx="881.725" cy="356.549" r="4" fill="#0" id="circle82"/>
	<circle cx="891.451" cy="162.039" r="4" fill="#0" id="circle83"/>
	<circle cx="893.882" cy="310.353" r="4" fill="#0" id="circle84"/>
	<circle cx="898.745" cy="419.765" r="4" fill="#0" id="circle85"/>
	<circle cx="901.176" cy="371.137" r="4" fill="#0" id="circle86"/>
	<circle cx="915.765" cy="162.039" r="4" fill="#0" id="circle87"/>
	<circle cx="918.196" cy="310.353" r="4" fill="#0" id="circle88"/>
	<circle cx="918.196" cy="390.588" r="4" fill="#0" id="circle89"/>
	<circle cx="940.078" cy="166.902" r="4" fill="#0" id="circle90"/>
	<circle cx="942.51" cy="310.353" r="4" fill="#0" id="circle91"/>
	<circle cx="961.961" cy="179.059" r="4" fill="#0" id="circle92"/>
	<circle cx="966.824" cy="310.353" r="4" fill="#0" id="circle93"/>
	<circle cx="978.98" cy="198.51" r="4" fill="#0" id="circle94"/>
	<circle cx="981.412" cy="329.804" r="4" fill="#0" id="circle95"/>
	<circle cx="991.137" cy="220.392" r="4" fill="#0" id="circle96"/>
	<circle cx="991.137" cy="244.706" r="4" fill="#0" id="circle97"/>
	<circle cx="991.137" cy="269.02" r="4" fill="#0" id="circle98"/>
	<circle cx="996" cy="307.922" r="4" fill="#0" id="circle99"/>
	</g>
</svg>