<?xml version="1.0" encoding="UTF-8" standalone="no"?>
<!-- Created with CurveBenchmark -->
<svg
	xmlns:dc="http://purl.org/dc/elements/1.1/"
	xmlns:cc="http://creativecommons.org/ns#"
	xmlns:rdf="http://www.w3.org/1999/02/22-rdf-syntax-ns#"
	xmlns:svg="http://www.w3.org/2000/svg"
	xmlns="http://www.w3.org/2000/svg"
	xmlns:sodipodi="http://sodipodi.sourceforge.net/DTD/sodipodi-0.dtd"
	xmlns:inkscape="http://www.inkscape.org/namespaces/inkscape"
	width="1000"
	height="1000"
	id="svg2"
	version="1.1"
	sodipodi:docname="manifold/vicur-television195.png.txt">
<defs
	id="defs4" />
<metadata
	id="metadata7">
	<rdf:RDF>
		<cc:Work
			rdf:about="">
			<dc:format>image/svg+xml</dc:format>
			<dc:type
				rdf:resource="http://purl.org/dc/dcmitype/StillImage" />
			<dc:title></dc:title>
		</cc:Work>
	</rdf:RDF>
</metadata>
<g
	inkscape:label="Layer 1"
	inkscape:groupmode="layer"
	id="layer1">
	<path style="fill:none;stroke:red;stroke-width:1px;stroke-linecap:butt;stroke-linejoin:miter;stroke-opacity:1" d="M 4,752.066 4,784.59 z" id="boundary" inkscape:connector-curvature="0" />
	<path style="fill:none;stroke:red;stroke-width:1px;stroke-linecap:butt;stroke-linejoin:miter;stroke-opacity:1" d="M 4,752.066 36.5246,745.561 z" id="boundary" inkscape:connector-curvature="0" />
	<path style="fill:none;stroke:red;stroke-width:1px;stroke-linecap:butt;stroke-linejoin:miter;stroke-opacity:1" d="M 4,784.59 20.2623,813.862 z" id="boundary" inkscape:connector-curvature="0" />
	<path style="fill:none;stroke:red;stroke-width:1px;stroke-linecap:butt;stroke-linejoin:miter;stroke-opacity:1" d="M 20.2623,813.862 52.7869,813.862 z" id="boundary" inkscape:connector-curvature="0" />
	<path style="fill:none;stroke:red;stroke-width:1px;stroke-linecap:butt;stroke-linejoin:miter;stroke-opacity:1" d="M 36.5246,745.561 62.5443,765.075 z" id="boundary" inkscape:connector-curvature="0" />
	<path style="fill:none;stroke:red;stroke-width:1px;stroke-linecap:butt;stroke-linejoin:miter;stroke-opacity:1" d="M 52.7869,813.862 85.3115,813.862 z" id="boundary" inkscape:connector-curvature="0" />
	<path style="fill:none;stroke:red;stroke-width:1px;stroke-linecap:butt;stroke-linejoin:miter;stroke-opacity:1" d="M 62.5443,765.075 88.5639,745.561 z" id="boundary" inkscape:connector-curvature="0" />
	<path style="fill:none;stroke:red;stroke-width:1px;stroke-linecap:butt;stroke-linejoin:miter;stroke-opacity:1" d="M 75.5541,550.413 101.574,573.18 z" id="boundary" inkscape:connector-curvature="0" />
	<path style="fill:none;stroke:red;stroke-width:1px;stroke-linecap:butt;stroke-linejoin:miter;stroke-opacity:1" d="M 75.5541,550.413 117.836,543.908 z" id="boundary" inkscape:connector-curvature="0" />
	<path style="fill:none;stroke:red;stroke-width:1px;stroke-linecap:butt;stroke-linejoin:miter;stroke-opacity:1" d="M 75.5541,647.987 91.8164,677.259 z" id="boundary" inkscape:connector-curvature="0" />
	<path style="fill:none;stroke:red;stroke-width:1px;stroke-linecap:butt;stroke-linejoin:miter;stroke-opacity:1" d="M 75.5541,647.987 108.079,647.987 z" id="boundary" inkscape:connector-curvature="0" />
	<path style="fill:none;stroke:red;stroke-width:1px;stroke-linecap:butt;stroke-linejoin:miter;stroke-opacity:1" d="M 85.3115,813.862 117.836,817.115 z" id="boundary" inkscape:connector-curvature="0" />
	<path style="fill:none;stroke:red;stroke-width:1px;stroke-linecap:butt;stroke-linejoin:miter;stroke-opacity:1" d="M 88.5639,745.561 121.089,745.561 z" id="boundary" inkscape:connector-curvature="0" />
	<path style="fill:none;stroke:red;stroke-width:1px;stroke-linecap:butt;stroke-linejoin:miter;stroke-opacity:1" d="M 91.8164,677.259 124.341,677.259 z" id="boundary" inkscape:connector-curvature="0" />
	<path style="fill:none;stroke:red;stroke-width:1px;stroke-linecap:butt;stroke-linejoin:miter;stroke-opacity:1" d="M 101.574,573.18 134.098,573.18 z" id="boundary" inkscape:connector-curvature="0" />
	<path style="fill:none;stroke:red;stroke-width:1px;stroke-linecap:butt;stroke-linejoin:miter;stroke-opacity:1" d="M 108.079,647.987 140.603,647.987 z" id="boundary" inkscape:connector-curvature="0" />
	<path style="fill:none;stroke:red;stroke-width:1px;stroke-linecap:butt;stroke-linejoin:miter;stroke-opacity:1" d="M 114.584,17.0098 114.584,49.5344 z" id="boundary" inkscape:connector-curvature="0" />
	<path style="fill:none;stroke:red;stroke-width:1px;stroke-linecap:butt;stroke-linejoin:miter;stroke-opacity:1" d="M 114.584,17.0098 147.108,4 z" id="boundary" inkscape:connector-curvature="0" />
	<path style="fill:none;stroke:red;stroke-width:1px;stroke-linecap:butt;stroke-linejoin:miter;stroke-opacity:1" d="M 114.584,49.5344 114.584,82.059 z" id="boundary" inkscape:connector-curvature="0" />
	<path style="fill:none;stroke:red;stroke-width:1px;stroke-linecap:butt;stroke-linejoin:miter;stroke-opacity:1" d="M 114.584,82.059 114.584,114.584 z" id="boundary" inkscape:connector-curvature="0" />
	<path style="fill:none;stroke:red;stroke-width:1px;stroke-linecap:butt;stroke-linejoin:miter;stroke-opacity:1" d="M 114.584,114.584 114.584,147.108 z" id="boundary" inkscape:connector-curvature="0" />
	<path style="fill:none;stroke:red;stroke-width:1px;stroke-linecap:butt;stroke-linejoin:miter;stroke-opacity:1" d="M 114.584,147.108 114.584,179.633 z" id="boundary" inkscape:connector-curvature="0" />
	<path style="fill:none;stroke:red;stroke-width:1px;stroke-linecap:butt;stroke-linejoin:miter;stroke-opacity:1" d="M 114.584,179.633 114.584,212.157 z" id="boundary" inkscape:connector-curvature="0" />
	<path style="fill:none;stroke:red;stroke-width:1px;stroke-linecap:butt;stroke-linejoin:miter;stroke-opacity:1" d="M 114.584,212.157 114.584,244.682 z" id="boundary" inkscape:connector-curvature="0" />
	<path style="fill:none;stroke:red;stroke-width:1px;stroke-linecap:butt;stroke-linejoin:miter;stroke-opacity:1" d="M 114.584,244.682 114.584,277.207 z" id="boundary" inkscape:connector-curvature="0" />
	<path style="fill:none;stroke:red;stroke-width:1px;stroke-linecap:butt;stroke-linejoin:miter;stroke-opacity:1" d="M 114.584,277.207 114.584,309.731 z" id="boundary" inkscape:connector-curvature="0" />
	<path style="fill:none;stroke:red;stroke-width:1px;stroke-linecap:butt;stroke-linejoin:miter;stroke-opacity:1" d="M 114.584,309.731 114.584,342.256 z" id="boundary" inkscape:connector-curvature="0" />
	<path style="fill:none;stroke:red;stroke-width:1px;stroke-linecap:butt;stroke-linejoin:miter;stroke-opacity:1" d="M 114.584,342.256 114.584,374.78 z" id="boundary" inkscape:connector-curvature="0" />
	<path style="fill:none;stroke:red;stroke-width:1px;stroke-linecap:butt;stroke-linejoin:miter;stroke-opacity:1" d="M 114.584,374.78 114.584,407.305 z" id="boundary" inkscape:connector-curvature="0" />
	<path style="fill:none;stroke:red;stroke-width:1px;stroke-linecap:butt;stroke-linejoin:miter;stroke-opacity:1" d="M 114.584,407.305 130.846,436.577 z" id="boundary" inkscape:connector-curvature="0" />
	<path style="fill:none;stroke:red;stroke-width:1px;stroke-linecap:butt;stroke-linejoin:miter;stroke-opacity:1" d="M 117.836,543.908 150.361,543.908 z" id="boundary" inkscape:connector-curvature="0" />
	<path style="fill:none;stroke:red;stroke-width:1px;stroke-linecap:butt;stroke-linejoin:miter;stroke-opacity:1" d="M 117.836,817.115 150.361,813.862 z" id="boundary" inkscape:connector-curvature="0" />
	<path style="fill:none;stroke:red;stroke-width:1px;stroke-linecap:butt;stroke-linejoin:miter;stroke-opacity:1" d="M 121.089,745.561 153.613,745.561 z" id="boundary" inkscape:connector-curvature="0" />
	<path style="fill:none;stroke:red;stroke-width:1px;stroke-linecap:butt;stroke-linejoin:miter;stroke-opacity:1" d="M 124.341,677.259 156.866,677.259 z" id="boundary" inkscape:connector-curvature="0" />
	<path style="fill:none;stroke:red;stroke-width:1px;stroke-linecap:butt;stroke-linejoin:miter;stroke-opacity:1" d="M 130.846,436.577 163.37,436.577 z" id="boundary" inkscape:connector-curvature="0" />
	<path style="fill:none;stroke:red;stroke-width:1px;stroke-linecap:butt;stroke-linejoin:miter;stroke-opacity:1" d="M 134.098,573.18 166.623,573.18 z" id="boundary" inkscape:connector-curvature="0" />
	<path style="fill:none;stroke:red;stroke-width:1px;stroke-linecap:butt;stroke-linejoin:miter;stroke-opacity:1" d="M 140.603,647.987 173.128,647.987 z" id="boundary" inkscape:connector-curvature="0" />
	<path style="fill:none;stroke:red;stroke-width:1px;stroke-linecap:butt;stroke-linejoin:miter;stroke-opacity:1" d="M 147.108,4 179.633,4 z" id="boundary" inkscape:connector-curvature="0" />
	<path style="fill:none;stroke:red;stroke-width:1px;stroke-linecap:butt;stroke-linejoin:miter;stroke-opacity:1" d="M 150.361,543.908 182.885,543.908 z" id="boundary" inkscape:connector-curvature="0" />
	<path style="fill:none;stroke:red;stroke-width:1px;stroke-linecap:butt;stroke-linejoin:miter;stroke-opacity:1" d="M 150.361,813.862 182.885,813.862 z" id="boundary" inkscape:connector-curvature="0" />
	<path style="fill:none;stroke:red;stroke-width:1px;stroke-linecap:butt;stroke-linejoin:miter;stroke-opacity:1" d="M 153.613,745.561 186.138,745.561 z" id="boundary" inkscape:connector-curvature="0" />
	<path style="fill:none;stroke:red;stroke-width:1px;stroke-linecap:butt;stroke-linejoin:miter;stroke-opacity:1" d="M 156.866,677.259 189.39,677.259 z" id="boundary" inkscape:connector-curvature="0" />
	<path style="fill:none;stroke:red;stroke-width:1px;stroke-linecap:butt;stroke-linejoin:miter;stroke-opacity:1" d="M 163.37,436.577 195.895,436.577 z" id="boundary" inkscape:connector-curvature="0" />
	<path style="fill:none;stroke:red;stroke-width:1px;stroke-linecap:butt;stroke-linejoin:miter;stroke-opacity:1" d="M 166.623,573.18 199.148,573.18 z" id="boundary" inkscape:connector-curvature="0" />
	<path style="fill:none;stroke:red;stroke-width:1px;stroke-linecap:butt;stroke-linejoin:miter;stroke-opacity:1" d="M 173.128,647.987 205.652,647.987 z" id="boundary" inkscape:connector-curvature="0" />
	<path style="fill:none;stroke:red;stroke-width:1px;stroke-linecap:butt;stroke-linejoin:miter;stroke-opacity:1" d="M 179.633,4 212.157,4 z" id="boundary" inkscape:connector-curvature="0" />
	<path style="fill:none;stroke:red;stroke-width:1px;stroke-linecap:butt;stroke-linejoin:miter;stroke-opacity:1" d="M 182.885,543.908 215.41,543.908 z" id="boundary" inkscape:connector-curvature="0" />
	<path style="fill:none;stroke:red;stroke-width:1px;stroke-linecap:butt;stroke-linejoin:miter;stroke-opacity:1" d="M 182.885,813.862 215.41,813.862 z" id="boundary" inkscape:connector-curvature="0" />
	<path style="fill:none;stroke:red;stroke-width:1px;stroke-linecap:butt;stroke-linejoin:miter;stroke-opacity:1" d="M 186.138,745.561 218.662,745.561 z" id="boundary" inkscape:connector-curvature="0" />
	<path style="fill:none;stroke:red;stroke-width:1px;stroke-linecap:butt;stroke-linejoin:miter;stroke-opacity:1" d="M 189.39,677.259 221.915,677.259 z" id="boundary" inkscape:connector-curvature="0" />
	<path style="fill:none;stroke:red;stroke-width:1px;stroke-linecap:butt;stroke-linejoin:miter;stroke-opacity:1" d="M 195.895,436.577 228.42,436.577 z" id="boundary" inkscape:connector-curvature="0" />
	<path style="fill:none;stroke:red;stroke-width:1px;stroke-linecap:butt;stroke-linejoin:miter;stroke-opacity:1" d="M 199.148,573.18 231.672,573.18 z" id="boundary" inkscape:connector-curvature="0" />
	<path style="fill:none;stroke:red;stroke-width:1px;stroke-linecap:butt;stroke-linejoin:miter;stroke-opacity:1" d="M 205.652,647.987 238.177,647.987 z" id="boundary" inkscape:connector-curvature="0" />
	<path style="fill:none;stroke:red;stroke-width:1px;stroke-linecap:butt;stroke-linejoin:miter;stroke-opacity:1" d="M 212.157,4 244.682,4 z" id="boundary" inkscape:connector-curvature="0" />
	<path style="fill:none;stroke:red;stroke-width:1px;stroke-linecap:butt;stroke-linejoin:miter;stroke-opacity:1" d="M 215.41,543.908 247.934,543.908 z" id="boundary" inkscape:connector-curvature="0" />
	<path style="fill:none;stroke:red;stroke-width:1px;stroke-linecap:butt;stroke-linejoin:miter;stroke-opacity:1" d="M 215.41,813.862 247.934,813.862 z" id="boundary" inkscape:connector-curvature="0" />
	<path style="fill:none;stroke:red;stroke-width:1px;stroke-linecap:butt;stroke-linejoin:miter;stroke-opacity:1" d="M 218.662,745.561 251.187,745.561 z" id="boundary" inkscape:connector-curvature="0" />
	<path style="fill:none;stroke:red;stroke-width:1px;stroke-linecap:butt;stroke-linejoin:miter;stroke-opacity:1" d="M 221.915,677.259 254.439,677.259 z" id="boundary" inkscape:connector-curvature="0" />
	<path style="fill:none;stroke:red;stroke-width:1px;stroke-linecap:butt;stroke-linejoin:miter;stroke-opacity:1" d="M 228.42,436.577 260.944,436.577 z" id="boundary" inkscape:connector-curvature="0" />
	<path style="fill:none;stroke:red;stroke-width:1px;stroke-linecap:butt;stroke-linejoin:miter;stroke-opacity:1" d="M 231.672,573.18 264.197,573.18 z" id="boundary" inkscape:connector-curvature="0" />
	<path style="fill:none;stroke:red;stroke-width:1px;stroke-linecap:butt;stroke-linejoin:miter;stroke-opacity:1" d="M 238.177,647.987 270.702,647.987 z" id="boundary" inkscape:connector-curvature="0" />
	<path style="fill:none;stroke:red;stroke-width:1px;stroke-linecap:butt;stroke-linejoin:miter;stroke-opacity:1" d="M 244.682,4 277.207,4 z" id="boundary" inkscape:connector-curvature="0" />
	<path style="fill:none;stroke:red;stroke-width:1px;stroke-linecap:butt;stroke-linejoin:miter;stroke-opacity:1" d="M 247.934,543.908 280.459,543.908 z" id="boundary" inkscape:connector-curvature="0" />
	<path style="fill:none;stroke:red;stroke-width:1px;stroke-linecap:butt;stroke-linejoin:miter;stroke-opacity:1" d="M 247.934,813.862 280.459,813.862 z" id="boundary" inkscape:connector-curvature="0" />
	<path style="fill:none;stroke:red;stroke-width:1px;stroke-linecap:butt;stroke-linejoin:miter;stroke-opacity:1" d="M 251.187,745.561 283.711,745.561 z" id="boundary" inkscape:connector-curvature="0" />
	<path style="fill:none;stroke:red;stroke-width:1px;stroke-linecap:butt;stroke-linejoin:miter;stroke-opacity:1" d="M 254.439,677.259 286.964,677.259 z" id="boundary" inkscape:connector-curvature="0" />
	<path style="fill:none;stroke:red;stroke-width:1px;stroke-linecap:butt;stroke-linejoin:miter;stroke-opacity:1" d="M 260.944,436.577 293.469,436.577 z" id="boundary" inkscape:connector-curvature="0" />
	<path style="fill:none;stroke:red;stroke-width:1px;stroke-linecap:butt;stroke-linejoin:miter;stroke-opacity:1" d="M 264.197,573.18 296.721,573.18 z" id="boundary" inkscape:connector-curvature="0" />
	<path style="fill:none;stroke:red;stroke-width:1px;stroke-linecap:butt;stroke-linejoin:miter;stroke-opacity:1" d="M 270.702,647.987 303.226,647.987 z" id="boundary" inkscape:connector-curvature="0" />
	<path style="fill:none;stroke:red;stroke-width:1px;stroke-linecap:butt;stroke-linejoin:miter;stroke-opacity:1" d="M 277.207,4 309.731,4 z" id="boundary" inkscape:connector-curvature="0" />
	<path style="fill:none;stroke:red;stroke-width:1px;stroke-linecap:butt;stroke-linejoin:miter;stroke-opacity:1" d="M 280.459,543.908 312.984,543.908 z" id="boundary" inkscape:connector-curvature="0" />
	<path style="fill:none;stroke:red;stroke-width:1px;stroke-linecap:butt;stroke-linejoin:miter;stroke-opacity:1" d="M 280.459,813.862 312.984,813.862 z" id="boundary" inkscape:connector-curvature="0" />
	<path style="fill:none;stroke:red;stroke-width:1px;stroke-linecap:butt;stroke-linejoin:miter;stroke-opacity:1" d="M 283.711,745.561 316.236,745.561 z" id="boundary" inkscape:connector-curvature="0" />
	<path style="fill:none;stroke:red;stroke-width:1px;stroke-linecap:butt;stroke-linejoin:miter;stroke-opacity:1" d="M 286.964,677.259 319.489,677.259 z" id="boundary" inkscape:connector-curvature="0" />
	<path style="fill:none;stroke:red;stroke-width:1px;stroke-linecap:butt;stroke-linejoin:miter;stroke-opacity:1" d="M 293.469,436.577 325.993,436.577 z" id="boundary" inkscape:connector-curvature="0" />
	<path style="fill:none;stroke:red;stroke-width:1px;stroke-linecap:butt;stroke-linejoin:miter;stroke-opacity:1" d="M 296.721,573.18 329.246,573.18 z" id="boundary" inkscape:connector-curvature="0" />
	<path style="fill:none;stroke:red;stroke-width:1px;stroke-linecap:butt;stroke-linejoin:miter;stroke-opacity:1" d="M 303.226,647.987 335.751,647.987 z" id="boundary" inkscape:connector-curvature="0" />
	<path style="fill:none;stroke:red;stroke-width:1px;stroke-linecap:butt;stroke-linejoin:miter;stroke-opacity:1" d="M 309.731,4 342.256,4 z" id="boundary" inkscape:connector-curvature="0" />
	<path style="fill:none;stroke:red;stroke-width:1px;stroke-linecap:butt;stroke-linejoin:miter;stroke-opacity:1" d="M 312.984,543.908 345.508,543.908 z" id="boundary" inkscape:connector-curvature="0" />
	<path style="fill:none;stroke:red;stroke-width:1px;stroke-linecap:butt;stroke-linejoin:miter;stroke-opacity:1" d="M 312.984,813.862 345.508,813.862 z" id="boundary" inkscape:connector-curvature="0" />
	<path style="fill:none;stroke:red;stroke-width:1px;stroke-linecap:butt;stroke-linejoin:miter;stroke-opacity:1" d="M 316.236,745.561 348.761,745.561 z" id="boundary" inkscape:connector-curvature="0" />
	<path style="fill:none;stroke:red;stroke-width:1px;stroke-linecap:butt;stroke-linejoin:miter;stroke-opacity:1" d="M 319.489,677.259 352.013,677.259 z" id="boundary" inkscape:connector-curvature="0" />
	<path style="fill:none;stroke:red;stroke-width:1px;stroke-linecap:butt;stroke-linejoin:miter;stroke-opacity:1" d="M 325.993,436.577 358.518,436.577 z" id="boundary" inkscape:connector-curvature="0" />
	<path style="fill:none;stroke:red;stroke-width:1px;stroke-linecap:butt;stroke-linejoin:miter;stroke-opacity:1" d="M 329.246,573.18 361.77,573.18 z" id="boundary" inkscape:connector-curvature="0" />
	<path style="fill:none;stroke:red;stroke-width:1px;stroke-linecap:butt;stroke-linejoin:miter;stroke-opacity:1" d="M 335.751,647.987 368.275,647.987 z" id="boundary" inkscape:connector-curvature="0" />
	<path style="fill:none;stroke:red;stroke-width:1px;stroke-linecap:butt;stroke-linejoin:miter;stroke-opacity:1" d="M 342.256,4 374.78,4 z" id="boundary" inkscape:connector-curvature="0" />
	<path style="fill:none;stroke:red;stroke-width:1px;stroke-linecap:butt;stroke-linejoin:miter;stroke-opacity:1" d="M 345.508,543.908 378.033,540.656 z" id="boundary" inkscape:connector-curvature="0" />
	<path style="fill:none;stroke:red;stroke-width:1px;stroke-linecap:butt;stroke-linejoin:miter;stroke-opacity:1" d="M 345.508,813.862 378.033,813.862 z" id="boundary" inkscape:connector-curvature="0" />
	<path style="fill:none;stroke:red;stroke-width:1px;stroke-linecap:butt;stroke-linejoin:miter;stroke-opacity:1" d="M 348.761,745.561 374.78,765.075 z" id="boundary" inkscape:connector-curvature="0" />
	<path style="fill:none;stroke:red;stroke-width:1px;stroke-linecap:butt;stroke-linejoin:miter;stroke-opacity:1" d="M 352.013,677.259 381.285,693.521 z" id="boundary" inkscape:connector-curvature="0" />
	<path style="fill:none;stroke:red;stroke-width:1px;stroke-linecap:butt;stroke-linejoin:miter;stroke-opacity:1" d="M 358.518,436.577 381.285,462.597 z" id="boundary" inkscape:connector-curvature="0" />
	<path style="fill:none;stroke:red;stroke-width:1px;stroke-linecap:butt;stroke-linejoin:miter;stroke-opacity:1" d="M 361.77,573.18 381.285,599.2 z" id="boundary" inkscape:connector-curvature="0" />
	<path style="fill:none;stroke:red;stroke-width:1px;stroke-linecap:butt;stroke-linejoin:miter;stroke-opacity:1" d="M 368.275,647.987 381.285,599.2 z" id="boundary" inkscape:connector-curvature="0" />
	<path style="fill:none;stroke:red;stroke-width:1px;stroke-linecap:butt;stroke-linejoin:miter;stroke-opacity:1" d="M 374.78,4 407.305,4 z" id="boundary" inkscape:connector-curvature="0" />
	<path style="fill:none;stroke:red;stroke-width:1px;stroke-linecap:butt;stroke-linejoin:miter;stroke-opacity:1" d="M 374.78,765.075 381.285,726.046 z" id="boundary" inkscape:connector-curvature="0" />
	<path style="fill:none;stroke:red;stroke-width:1px;stroke-linecap:butt;stroke-linejoin:miter;stroke-opacity:1" d="M 378.033,540.656 381.285,495.121 z" id="boundary" inkscape:connector-curvature="0" />
	<path style="fill:none;stroke:red;stroke-width:1px;stroke-linecap:butt;stroke-linejoin:miter;stroke-opacity:1" d="M 378.033,813.862 410.557,813.862 z" id="boundary" inkscape:connector-curvature="0" />
	<path style="fill:none;stroke:red;stroke-width:1px;stroke-linecap:butt;stroke-linejoin:miter;stroke-opacity:1" d="M 381.285,462.597 381.285,495.121 z" id="boundary" inkscape:connector-curvature="0" />
	<path style="fill:none;stroke:red;stroke-width:1px;stroke-linecap:butt;stroke-linejoin:miter;stroke-opacity:1" d="M 381.285,693.521 381.285,726.046 z" id="boundary" inkscape:connector-curvature="0" />
	<path style="fill:none;stroke:red;stroke-width:1px;stroke-linecap:butt;stroke-linejoin:miter;stroke-opacity:1" d="M 407.305,4 439.83,4 z" id="boundary" inkscape:connector-curvature="0" />
	<path style="fill:none;stroke:red;stroke-width:1px;stroke-linecap:butt;stroke-linejoin:miter;stroke-opacity:1" d="M 410.557,813.862 443.082,813.862 z" id="boundary" inkscape:connector-curvature="0" />
	<path style="fill:none;stroke:red;stroke-width:1px;stroke-linecap:butt;stroke-linejoin:miter;stroke-opacity:1" d="M 439.83,4 472.354,4 z" id="boundary" inkscape:connector-curvature="0" />
	<path style="fill:none;stroke:red;stroke-width:1px;stroke-linecap:butt;stroke-linejoin:miter;stroke-opacity:1" d="M 443.082,813.862 475.607,813.862 z" id="boundary" inkscape:connector-curvature="0" />
	<path style="fill:none;stroke:red;stroke-width:1px;stroke-linecap:butt;stroke-linejoin:miter;stroke-opacity:1" d="M 472.354,4 504.879,4 z" id="boundary" inkscape:connector-curvature="0" />
	<path style="fill:none;stroke:red;stroke-width:1px;stroke-linecap:butt;stroke-linejoin:miter;stroke-opacity:1" d="M 475.607,813.862 508.131,813.862 z" id="boundary" inkscape:connector-curvature="0" />
	<path style="fill:none;stroke:red;stroke-width:1px;stroke-linecap:butt;stroke-linejoin:miter;stroke-opacity:1" d="M 504.879,4 537.403,4 z" id="boundary" inkscape:connector-curvature="0" />
	<path style="fill:none;stroke:red;stroke-width:1px;stroke-linecap:butt;stroke-linejoin:miter;stroke-opacity:1" d="M 508.131,813.862 540.656,813.862 z" id="boundary" inkscape:connector-curvature="0" />
	<path style="fill:none;stroke:red;stroke-width:1px;stroke-linecap:butt;stroke-linejoin:miter;stroke-opacity:1" d="M 537.403,4 569.928,4 z" id="boundary" inkscape:connector-curvature="0" />
	<path style="fill:none;stroke:red;stroke-width:1px;stroke-linecap:butt;stroke-linejoin:miter;stroke-opacity:1" d="M 540.656,813.862 573.18,813.862 z" id="boundary" inkscape:connector-curvature="0" />
	<path style="fill:none;stroke:red;stroke-width:1px;stroke-linecap:butt;stroke-linejoin:miter;stroke-opacity:1" d="M 569.928,4 602.452,4 z" id="boundary" inkscape:connector-curvature="0" />
	<path style="fill:none;stroke:red;stroke-width:1px;stroke-linecap:butt;stroke-linejoin:miter;stroke-opacity:1" d="M 573.18,439.83 573.18,472.354 z" id="boundary" inkscape:connector-curvature="0" />
	<path style="fill:none;stroke:red;stroke-width:1px;stroke-linecap:butt;stroke-linejoin:miter;stroke-opacity:1" d="M 573.18,439.83 605.705,436.577 z" id="boundary" inkscape:connector-curvature="0" />
	<path style="fill:none;stroke:red;stroke-width:1px;stroke-linecap:butt;stroke-linejoin:miter;stroke-opacity:1" d="M 573.18,472.354 573.18,504.879 z" id="boundary" inkscape:connector-curvature="0" />
	<path style="fill:none;stroke:red;stroke-width:1px;stroke-linecap:butt;stroke-linejoin:miter;stroke-opacity:1" d="M 573.18,504.879 573.18,537.403 z" id="boundary" inkscape:connector-curvature="0" />
	<path style="fill:none;stroke:red;stroke-width:1px;stroke-linecap:butt;stroke-linejoin:miter;stroke-opacity:1" d="M 573.18,537.403 605.705,543.908 z" id="boundary" inkscape:connector-curvature="0" />
	<path style="fill:none;stroke:red;stroke-width:1px;stroke-linecap:butt;stroke-linejoin:miter;stroke-opacity:1" d="M 573.18,576.433 573.18,608.957 z" id="boundary" inkscape:connector-curvature="0" />
	<path style="fill:none;stroke:red;stroke-width:1px;stroke-linecap:butt;stroke-linejoin:miter;stroke-opacity:1" d="M 573.18,576.433 621.967,573.18 z" id="boundary" inkscape:connector-curvature="0" />
	<path style="fill:none;stroke:red;stroke-width:1px;stroke-linecap:butt;stroke-linejoin:miter;stroke-opacity:1" d="M 573.18,608.957 573.18,641.482 z" id="boundary" inkscape:connector-curvature="0" />
	<path style="fill:none;stroke:red;stroke-width:1px;stroke-linecap:butt;stroke-linejoin:miter;stroke-opacity:1" d="M 573.18,641.482 605.705,647.987 z" id="boundary" inkscape:connector-curvature="0" />
	<path style="fill:none;stroke:red;stroke-width:1px;stroke-linecap:butt;stroke-linejoin:miter;stroke-opacity:1" d="M 573.18,680.511 573.18,713.036 z" id="boundary" inkscape:connector-curvature="0" />
	<path style="fill:none;stroke:red;stroke-width:1px;stroke-linecap:butt;stroke-linejoin:miter;stroke-opacity:1" d="M 573.18,680.511 621.967,677.259 z" id="boundary" inkscape:connector-curvature="0" />
	<path style="fill:none;stroke:red;stroke-width:1px;stroke-linecap:butt;stroke-linejoin:miter;stroke-opacity:1" d="M 573.18,713.036 576.433,745.561 z" id="boundary" inkscape:connector-curvature="0" />
	<path style="fill:none;stroke:red;stroke-width:1px;stroke-linecap:butt;stroke-linejoin:miter;stroke-opacity:1" d="M 573.18,813.862 605.705,813.862 z" id="boundary" inkscape:connector-curvature="0" />
	<path style="fill:none;stroke:red;stroke-width:1px;stroke-linecap:butt;stroke-linejoin:miter;stroke-opacity:1" d="M 576.433,745.561 602.452,765.075 z" id="boundary" inkscape:connector-curvature="0" />
	<path style="fill:none;stroke:red;stroke-width:1px;stroke-linecap:butt;stroke-linejoin:miter;stroke-opacity:1" d="M 602.452,4 634.977,4 z" id="boundary" inkscape:connector-curvature="0" />
	<path style="fill:none;stroke:red;stroke-width:1px;stroke-linecap:butt;stroke-linejoin:miter;stroke-opacity:1" d="M 602.452,765.075 628.472,745.561 z" id="boundary" inkscape:connector-curvature="0" />
	<path style="fill:none;stroke:red;stroke-width:1px;stroke-linecap:butt;stroke-linejoin:miter;stroke-opacity:1" d="M 605.705,436.577 638.23,436.577 z" id="boundary" inkscape:connector-curvature="0" />
	<path style="fill:none;stroke:red;stroke-width:1px;stroke-linecap:butt;stroke-linejoin:miter;stroke-opacity:1" d="M 605.705,543.908 638.23,543.908 z" id="boundary" inkscape:connector-curvature="0" />
	<path style="fill:none;stroke:red;stroke-width:1px;stroke-linecap:butt;stroke-linejoin:miter;stroke-opacity:1" d="M 605.705,647.987 638.23,647.987 z" id="boundary" inkscape:connector-curvature="0" />
	<path style="fill:none;stroke:red;stroke-width:1px;stroke-linecap:butt;stroke-linejoin:miter;stroke-opacity:1" d="M 605.705,813.862 638.23,813.862 z" id="boundary" inkscape:connector-curvature="0" />
	<path style="fill:none;stroke:red;stroke-width:1px;stroke-linecap:butt;stroke-linejoin:miter;stroke-opacity:1" d="M 621.967,573.18 654.492,573.18 z" id="boundary" inkscape:connector-curvature="0" />
	<path style="fill:none;stroke:red;stroke-width:1px;stroke-linecap:butt;stroke-linejoin:miter;stroke-opacity:1" d="M 621.967,677.259 654.492,677.259 z" id="boundary" inkscape:connector-curvature="0" />
	<path style="fill:none;stroke:red;stroke-width:1px;stroke-linecap:butt;stroke-linejoin:miter;stroke-opacity:1" d="M 628.472,745.561 660.997,745.561 z" id="boundary" inkscape:connector-curvature="0" />
	<path style="fill:none;stroke:red;stroke-width:1px;stroke-linecap:butt;stroke-linejoin:miter;stroke-opacity:1" d="M 634.977,4 667.502,4 z" id="boundary" inkscape:connector-curvature="0" />
	<path style="fill:none;stroke:red;stroke-width:1px;stroke-linecap:butt;stroke-linejoin:miter;stroke-opacity:1" d="M 638.23,436.577 670.754,436.577 z" id="boundary" inkscape:connector-curvature="0" />
	<path style="fill:none;stroke:red;stroke-width:1px;stroke-linecap:butt;stroke-linejoin:miter;stroke-opacity:1" d="M 638.23,543.908 670.754,543.908 z" id="boundary" inkscape:connector-curvature="0" />
	<path style="fill:none;stroke:red;stroke-width:1px;stroke-linecap:butt;stroke-linejoin:miter;stroke-opacity:1" d="M 638.23,647.987 670.754,647.987 z" id="boundary" inkscape:connector-curvature="0" />
	<path style="fill:none;stroke:red;stroke-width:1px;stroke-linecap:butt;stroke-linejoin:miter;stroke-opacity:1" d="M 638.23,813.862 670.754,813.862 z" id="boundary" inkscape:connector-curvature="0" />
	<path style="fill:none;stroke:red;stroke-width:1px;stroke-linecap:butt;stroke-linejoin:miter;stroke-opacity:1" d="M 654.492,573.18 687.016,573.18 z" id="boundary" inkscape:connector-curvature="0" />
	<path style="fill:none;stroke:red;stroke-width:1px;stroke-linecap:butt;stroke-linejoin:miter;stroke-opacity:1" d="M 654.492,677.259 687.016,677.259 z" id="boundary" inkscape:connector-curvature="0" />
	<path style="fill:none;stroke:red;stroke-width:1px;stroke-linecap:butt;stroke-linejoin:miter;stroke-opacity:1" d="M 660.997,745.561 693.521,745.561 z" id="boundary" inkscape:connector-curvature="0" />
	<path style="fill:none;stroke:red;stroke-width:1px;stroke-linecap:butt;stroke-linejoin:miter;stroke-opacity:1" d="M 667.502,4 700.026,4 z" id="boundary" inkscape:connector-curvature="0" />
	<path style="fill:none;stroke:red;stroke-width:1px;stroke-linecap:butt;stroke-linejoin:miter;stroke-opacity:1" d="M 670.754,436.577 703.279,436.577 z" id="boundary" inkscape:connector-curvature="0" />
	<path style="fill:none;stroke:red;stroke-width:1px;stroke-linecap:butt;stroke-linejoin:miter;stroke-opacity:1" d="M 670.754,543.908 703.279,543.908 z" id="boundary" inkscape:connector-curvature="0" />
	<path style="fill:none;stroke:red;stroke-width:1px;stroke-linecap:butt;stroke-linejoin:miter;stroke-opacity:1" d="M 670.754,647.987 703.279,647.987 z" id="boundary" inkscape:connector-curvature="0" />
	<path style="fill:none;stroke:red;stroke-width:1px;stroke-linecap:butt;stroke-linejoin:miter;stroke-opacity:1" d="M 670.754,813.862 703.279,813.862 z" id="boundary" inkscape:connector-curvature="0" />
	<path style="fill:none;stroke:red;stroke-width:1px;stroke-linecap:butt;stroke-linejoin:miter;stroke-opacity:1" d="M 687.016,573.18 719.541,573.18 z" id="boundary" inkscape:connector-curvature="0" />
	<path style="fill:none;stroke:red;stroke-width:1px;stroke-linecap:butt;stroke-linejoin:miter;stroke-opacity:1" d="M 687.016,677.259 719.541,677.259 z" id="boundary" inkscape:connector-curvature="0" />
	<path style="fill:none;stroke:red;stroke-width:1px;stroke-linecap:butt;stroke-linejoin:miter;stroke-opacity:1" d="M 693.521,745.561 726.046,745.561 z" id="boundary" inkscape:connector-curvature="0" />
	<path style="fill:none;stroke:red;stroke-width:1px;stroke-linecap:butt;stroke-linejoin:miter;stroke-opacity:1" d="M 700.026,4 732.551,4 z" id="boundary" inkscape:connector-curvature="0" />
	<path style="fill:none;stroke:red;stroke-width:1px;stroke-linecap:butt;stroke-linejoin:miter;stroke-opacity:1" d="M 703.279,436.577 735.803,436.577 z" id="boundary" inkscape:connector-curvature="0" />
	<path style="fill:none;stroke:red;stroke-width:1px;stroke-linecap:butt;stroke-linejoin:miter;stroke-opacity:1" d="M 703.279,543.908 735.803,543.908 z" id="boundary" inkscape:connector-curvature="0" />
	<path style="fill:none;stroke:red;stroke-width:1px;stroke-linecap:butt;stroke-linejoin:miter;stroke-opacity:1" d="M 703.279,647.987 735.803,647.987 z" id="boundary" inkscape:connector-curvature="0" />
	<path style="fill:none;stroke:red;stroke-width:1px;stroke-linecap:butt;stroke-linejoin:miter;stroke-opacity:1" d="M 703.279,813.862 735.803,813.862 z" id="boundary" inkscape:connector-curvature="0" />
	<path style="fill:none;stroke:red;stroke-width:1px;stroke-linecap:butt;stroke-linejoin:miter;stroke-opacity:1" d="M 719.541,573.18 752.066,573.18 z" id="boundary" inkscape:connector-curvature="0" />
	<path style="fill:none;stroke:red;stroke-width:1px;stroke-linecap:butt;stroke-linejoin:miter;stroke-opacity:1" d="M 719.541,677.259 752.066,677.259 z" id="boundary" inkscape:connector-curvature="0" />
	<path style="fill:none;stroke:red;stroke-width:1px;stroke-linecap:butt;stroke-linejoin:miter;stroke-opacity:1" d="M 726.046,745.561 758.57,745.561 z" id="boundary" inkscape:connector-curvature="0" />
	<path style="fill:none;stroke:red;stroke-width:1px;stroke-linecap:butt;stroke-linejoin:miter;stroke-opacity:1" d="M 732.551,4 765.075,4 z" id="boundary" inkscape:connector-curvature="0" />
	<path style="fill:none;stroke:red;stroke-width:1px;stroke-linecap:butt;stroke-linejoin:miter;stroke-opacity:1" d="M 735.803,436.577 768.328,436.577 z" id="boundary" inkscape:connector-curvature="0" />
	<path style="fill:none;stroke:red;stroke-width:1px;stroke-linecap:butt;stroke-linejoin:miter;stroke-opacity:1" d="M 735.803,543.908 768.328,543.908 z" id="boundary" inkscape:connector-curvature="0" />
	<path style="fill:none;stroke:red;stroke-width:1px;stroke-linecap:butt;stroke-linejoin:miter;stroke-opacity:1" d="M 735.803,647.987 768.328,647.987 z" id="boundary" inkscape:connector-curvature="0" />
	<path style="fill:none;stroke:red;stroke-width:1px;stroke-linecap:butt;stroke-linejoin:miter;stroke-opacity:1" d="M 735.803,813.862 768.328,813.862 z" id="boundary" inkscape:connector-curvature="0" />
	<path style="fill:none;stroke:red;stroke-width:1px;stroke-linecap:butt;stroke-linejoin:miter;stroke-opacity:1" d="M 752.066,573.18 784.59,573.18 z" id="boundary" inkscape:connector-curvature="0" />
	<path style="fill:none;stroke:red;stroke-width:1px;stroke-linecap:butt;stroke-linejoin:miter;stroke-opacity:1" d="M 752.066,677.259 784.59,677.259 z" id="boundary" inkscape:connector-curvature="0" />
	<path style="fill:none;stroke:red;stroke-width:1px;stroke-linecap:butt;stroke-linejoin:miter;stroke-opacity:1" d="M 758.57,745.561 791.095,745.561 z" id="boundary" inkscape:connector-curvature="0" />
	<path style="fill:none;stroke:red;stroke-width:1px;stroke-linecap:butt;stroke-linejoin:miter;stroke-opacity:1" d="M 765.075,4 797.6,4 z" id="boundary" inkscape:connector-curvature="0" />
	<path style="fill:none;stroke:red;stroke-width:1px;stroke-linecap:butt;stroke-linejoin:miter;stroke-opacity:1" d="M 768.328,436.577 800.852,436.577 z" id="boundary" inkscape:connector-curvature="0" />
	<path style="fill:none;stroke:red;stroke-width:1px;stroke-linecap:butt;stroke-linejoin:miter;stroke-opacity:1" d="M 768.328,543.908 800.852,543.908 z" id="boundary" inkscape:connector-curvature="0" />
	<path style="fill:none;stroke:red;stroke-width:1px;stroke-linecap:butt;stroke-linejoin:miter;stroke-opacity:1" d="M 768.328,647.987 800.852,647.987 z" id="boundary" inkscape:connector-curvature="0" />
	<path style="fill:none;stroke:red;stroke-width:1px;stroke-linecap:butt;stroke-linejoin:miter;stroke-opacity:1" d="M 768.328,813.862 800.852,813.862 z" id="boundary" inkscape:connector-curvature="0" />
	<path style="fill:none;stroke:red;stroke-width:1px;stroke-linecap:butt;stroke-linejoin:miter;stroke-opacity:1" d="M 784.59,573.18 817.115,573.18 z" id="boundary" inkscape:connector-curvature="0" />
	<path style="fill:none;stroke:red;stroke-width:1px;stroke-linecap:butt;stroke-linejoin:miter;stroke-opacity:1" d="M 784.59,677.259 817.115,677.259 z" id="boundary" inkscape:connector-curvature="0" />
	<path style="fill:none;stroke:red;stroke-width:1px;stroke-linecap:butt;stroke-linejoin:miter;stroke-opacity:1" d="M 791.095,745.561 823.62,745.561 z" id="boundary" inkscape:connector-curvature="0" />
	<path style="fill:none;stroke:red;stroke-width:1px;stroke-linecap:butt;stroke-linejoin:miter;stroke-opacity:1" d="M 797.6,4 830.125,4 z" id="boundary" inkscape:connector-curvature="0" />
	<path style="fill:none;stroke:red;stroke-width:1px;stroke-linecap:butt;stroke-linejoin:miter;stroke-opacity:1" d="M 800.852,436.577 833.377,436.577 z" id="boundary" inkscape:connector-curvature="0" />
	<path style="fill:none;stroke:red;stroke-width:1px;stroke-linecap:butt;stroke-linejoin:miter;stroke-opacity:1" d="M 800.852,543.908 833.377,543.908 z" id="boundary" inkscape:connector-curvature="0" />
	<path style="fill:none;stroke:red;stroke-width:1px;stroke-linecap:butt;stroke-linejoin:miter;stroke-opacity:1" d="M 800.852,647.987 833.377,647.987 z" id="boundary" inkscape:connector-curvature="0" />
	<path style="fill:none;stroke:red;stroke-width:1px;stroke-linecap:butt;stroke-linejoin:miter;stroke-opacity:1" d="M 800.852,813.862 833.377,813.862 z" id="boundary" inkscape:connector-curvature="0" />
	<path style="fill:none;stroke:red;stroke-width:1px;stroke-linecap:butt;stroke-linejoin:miter;stroke-opacity:1" d="M 817.115,573.18 849.639,573.18 z" id="boundary" inkscape:connector-curvature="0" />
	<path style="fill:none;stroke:red;stroke-width:1px;stroke-linecap:butt;stroke-linejoin:miter;stroke-opacity:1" d="M 817.115,677.259 849.639,677.259 z" id="boundary" inkscape:connector-curvature="0" />
	<path style="fill:none;stroke:red;stroke-width:1px;stroke-linecap:butt;stroke-linejoin:miter;stroke-opacity:1" d="M 823.62,745.561 856.144,745.561 z" id="boundary" inkscape:connector-curvature="0" />
	<path style="fill:none;stroke:red;stroke-width:1px;stroke-linecap:butt;stroke-linejoin:miter;stroke-opacity:1" d="M 830.125,4 862.649,4 z" id="boundary" inkscape:connector-curvature="0" />
	<path style="fill:none;stroke:red;stroke-width:1px;stroke-linecap:butt;stroke-linejoin:miter;stroke-opacity:1" d="M 833.377,436.577 865.902,436.577 z" id="boundary" inkscape:connector-curvature="0" />
	<path style="fill:none;stroke:red;stroke-width:1px;stroke-linecap:butt;stroke-linejoin:miter;stroke-opacity:1" d="M 833.377,543.908 865.902,543.908 z" id="boundary" inkscape:connector-curvature="0" />
	<path style="fill:none;stroke:red;stroke-width:1px;stroke-linecap:butt;stroke-linejoin:miter;stroke-opacity:1" d="M 833.377,647.987 865.902,647.987 z" id="boundary" inkscape:connector-curvature="0" />
	<path style="fill:none;stroke:red;stroke-width:1px;stroke-linecap:butt;stroke-linejoin:miter;stroke-opacity:1" d="M 833.377,813.862 865.902,813.862 z" id="boundary" inkscape:connector-curvature="0" />
	<path style="fill:none;stroke:red;stroke-width:1px;stroke-linecap:butt;stroke-linejoin:miter;stroke-opacity:1" d="M 849.639,573.18 882.164,573.18 z" id="boundary" inkscape:connector-curvature="0" />
	<path style="fill:none;stroke:red;stroke-width:1px;stroke-linecap:butt;stroke-linejoin:miter;stroke-opacity:1" d="M 849.639,677.259 882.164,677.259 z" id="boundary" inkscape:connector-curvature="0" />
	<path style="fill:none;stroke:red;stroke-width:1px;stroke-linecap:butt;stroke-linejoin:miter;stroke-opacity:1" d="M 856.144,745.561 888.669,745.561 z" id="boundary" inkscape:connector-curvature="0" />
	<path style="fill:none;stroke:red;stroke-width:1px;stroke-linecap:butt;stroke-linejoin:miter;stroke-opacity:1" d="M 862.649,4 878.911,33.2721 z" id="boundary" inkscape:connector-curvature="0" />
	<path style="fill:none;stroke:red;stroke-width:1px;stroke-linecap:butt;stroke-linejoin:miter;stroke-opacity:1" d="M 865.902,436.577 878.911,391.043 z" id="boundary" inkscape:connector-curvature="0" />
	<path style="fill:none;stroke:red;stroke-width:1px;stroke-linecap:butt;stroke-linejoin:miter;stroke-opacity:1" d="M 865.902,543.908 898.426,543.908 z" id="boundary" inkscape:connector-curvature="0" />
	<path style="fill:none;stroke:red;stroke-width:1px;stroke-linecap:butt;stroke-linejoin:miter;stroke-opacity:1" d="M 865.902,647.987 898.426,647.987 z" id="boundary" inkscape:connector-curvature="0" />
	<path style="fill:none;stroke:red;stroke-width:1px;stroke-linecap:butt;stroke-linejoin:miter;stroke-opacity:1" d="M 865.902,813.862 898.426,820.367 z" id="boundary" inkscape:connector-curvature="0" />
	<path style="fill:none;stroke:red;stroke-width:1px;stroke-linecap:butt;stroke-linejoin:miter;stroke-opacity:1" d="M 878.911,33.2721 878.911,65.7967 z" id="boundary" inkscape:connector-curvature="0" />
	<path style="fill:none;stroke:red;stroke-width:1px;stroke-linecap:butt;stroke-linejoin:miter;stroke-opacity:1" d="M 878.911,65.7967 878.911,98.3213 z" id="boundary" inkscape:connector-curvature="0" />
	<path style="fill:none;stroke:red;stroke-width:1px;stroke-linecap:butt;stroke-linejoin:miter;stroke-opacity:1" d="M 878.911,98.3213 878.911,130.846 z" id="boundary" inkscape:connector-curvature="0" />
	<path style="fill:none;stroke:red;stroke-width:1px;stroke-linecap:butt;stroke-linejoin:miter;stroke-opacity:1" d="M 878.911,130.846 878.911,163.37 z" id="boundary" inkscape:connector-curvature="0" />
	<path style="fill:none;stroke:red;stroke-width:1px;stroke-linecap:butt;stroke-linejoin:miter;stroke-opacity:1" d="M 878.911,163.37 878.911,195.895 z" id="boundary" inkscape:connector-curvature="0" />
	<path style="fill:none;stroke:red;stroke-width:1px;stroke-linecap:butt;stroke-linejoin:miter;stroke-opacity:1" d="M 878.911,195.895 878.911,228.42 z" id="boundary" inkscape:connector-curvature="0" />
	<path style="fill:none;stroke:red;stroke-width:1px;stroke-linecap:butt;stroke-linejoin:miter;stroke-opacity:1" d="M 878.911,228.42 878.911,260.944 z" id="boundary" inkscape:connector-curvature="0" />
	<path style="fill:none;stroke:red;stroke-width:1px;stroke-linecap:butt;stroke-linejoin:miter;stroke-opacity:1" d="M 878.911,260.944 878.911,293.469 z" id="boundary" inkscape:connector-curvature="0" />
	<path style="fill:none;stroke:red;stroke-width:1px;stroke-linecap:butt;stroke-linejoin:miter;stroke-opacity:1" d="M 878.911,293.469 878.911,325.993 z" id="boundary" inkscape:connector-curvature="0" />
	<path style="fill:none;stroke:red;stroke-width:1px;stroke-linecap:butt;stroke-linejoin:miter;stroke-opacity:1" d="M 878.911,325.993 878.911,358.518 z" id="boundary" inkscape:connector-curvature="0" />
	<path style="fill:none;stroke:red;stroke-width:1px;stroke-linecap:butt;stroke-linejoin:miter;stroke-opacity:1" d="M 878.911,358.518 878.911,391.043 z" id="boundary" inkscape:connector-curvature="0" />
	<path style="fill:none;stroke:red;stroke-width:1px;stroke-linecap:butt;stroke-linejoin:miter;stroke-opacity:1" d="M 882.164,573.18 914.689,573.18 z" id="boundary" inkscape:connector-curvature="0" />
	<path style="fill:none;stroke:red;stroke-width:1px;stroke-linecap:butt;stroke-linejoin:miter;stroke-opacity:1" d="M 882.164,677.259 914.689,677.259 z" id="boundary" inkscape:connector-curvature="0" />
	<path style="fill:none;stroke:red;stroke-width:1px;stroke-linecap:butt;stroke-linejoin:miter;stroke-opacity:1" d="M 888.669,745.561 921.193,745.561 z" id="boundary" inkscape:connector-curvature="0" />
	<path style="fill:none;stroke:red;stroke-width:1px;stroke-linecap:butt;stroke-linejoin:miter;stroke-opacity:1" d="M 898.426,543.908 930.951,543.908 z" id="boundary" inkscape:connector-curvature="0" />
	<path style="fill:none;stroke:red;stroke-width:1px;stroke-linecap:butt;stroke-linejoin:miter;stroke-opacity:1" d="M 898.426,647.987 930.951,647.987 z" id="boundary" inkscape:connector-curvature="0" />
	<path style="fill:none;stroke:red;stroke-width:1px;stroke-linecap:butt;stroke-linejoin:miter;stroke-opacity:1" d="M 898.426,820.367 930.951,813.862 z" id="boundary" inkscape:connector-curvature="0" />
	<path style="fill:none;stroke:red;stroke-width:1px;stroke-linecap:butt;stroke-linejoin:miter;stroke-opacity:1" d="M 914.689,573.18 930.951,543.908 z" id="boundary" inkscape:connector-curvature="0" />
	<path style="fill:none;stroke:red;stroke-width:1px;stroke-linecap:butt;stroke-linejoin:miter;stroke-opacity:1" d="M 914.689,677.259 930.951,647.987 z" id="boundary" inkscape:connector-curvature="0" />
	<path style="fill:none;stroke:red;stroke-width:1px;stroke-linecap:butt;stroke-linejoin:miter;stroke-opacity:1" d="M 921.193,745.561 947.213,765.075 z" id="boundary" inkscape:connector-curvature="0" />
	<path style="fill:none;stroke:red;stroke-width:1px;stroke-linecap:butt;stroke-linejoin:miter;stroke-opacity:1" d="M 930.951,813.862 963.475,820.367 z" id="boundary" inkscape:connector-curvature="0" />
	<path style="fill:none;stroke:red;stroke-width:1px;stroke-linecap:butt;stroke-linejoin:miter;stroke-opacity:1" d="M 947.213,765.075 973.233,745.561 z" id="boundary" inkscape:connector-curvature="0" />
	<path style="fill:none;stroke:red;stroke-width:1px;stroke-linecap:butt;stroke-linejoin:miter;stroke-opacity:1" d="M 963.475,820.367 996,804.105 z" id="boundary" inkscape:connector-curvature="0" />
	<path style="fill:none;stroke:red;stroke-width:1px;stroke-linecap:butt;stroke-linejoin:miter;stroke-opacity:1" d="M 973.233,745.561 996,771.58 z" id="boundary" inkscape:connector-curvature="0" />
	<path style="fill:none;stroke:red;stroke-width:1px;stroke-linecap:butt;stroke-linejoin:miter;stroke-opacity:1" d="M 996,771.58 996,804.105 z" id="boundary" inkscape:connector-curvature="0" />
	<circle cx="4" cy="752.066" r="4" fill="#0" id="circle0"/>
	<circle cx="4" cy="784.59" r="4" fill="#0" id="circle1"/>
	<circle cx="20.2623" cy="813.862" r="4" fill="#0" id="circle2"/>
	<circle cx="36.5246" cy="745.561" r="4" fill="#0" id="circle3"/>
	<circle cx="52.7869" cy="813.862" r="4" fill="#0" id="circle4"/>
	<circle cx="62.5443" cy="765.075" r="4" fill="#0" id="circle5"/>
	<circle cx="75.5541" cy="550.413" r="4" fill="#0" id="circle6"/>
	<circle cx="75.5541" cy="647.987" r="4" fill="#0" id="circle7"/>
	<circle cx="85.3115" cy="813.862" r="4" fill="#0" id="circle8"/>
	<circle cx="88.5639" cy="745.561" r="4" fill="#0" id="circle9"/>
	<circle cx="91.8164" cy="677.259" r="4" fill="#0" id="circle10"/>
	<circle cx="101.574" cy="573.18" r="4" fill="#0" id="circle11"/>
	<circle cx="108.079" cy="647.987" r="4" fill="#0" id="circle12"/>
	<circle cx="114.584" cy="17.0098" r="4" fill="#0" id="circle13"/>
	<circle cx="114.584" cy="49.5344" r="4" fill="#0" id="circle14"/>
	<circle cx="114.584" cy="82.059" r="4" fill="#0" id="circle15"/>
	<circle cx="114.584" cy="114.584" r="4" fill="#0" id="circle16"/>
	<circle cx="114.584" cy="147.108" r="4" fill="#0" id="circle17"/>
	<circle cx="114.584" cy="179.633" r="4" fill="#0" id="circle18"/>
	<circle cx="114.584" cy="212.157" r="4" fill="#0" id="circle19"/>
	<circle cx="114.584" cy="244.682" r="4" fill="#0" id="circle20"/>
	<circle cx="114.584" cy="277.207" r="4" fill="#0" id="circle21"/>
	<circle cx="114.584" cy="309.731" r="4" fill="#0" id="circle22"/>
	<circle cx="114.584" cy="342.256" r="4" fill="#0" id="circle23"/>
	<circle cx="114.584" cy="374.78" r="4" fill="#0" id="circle24"/>
	<circle cx="114.584" cy="407.305" r="4" fill="#0" id="circle25"/>
	<circle cx="117.836" cy="543.908" r="4" fill="#0" id="circle26"/>
	<circle cx="117.836" cy="817.115" r="4" fill="#0" id="circle27"/>
	<circle cx="121.089" cy="745.561" r="4" fill="#0" id="circle28"/>
	<circle cx="124.341" cy="677.259" r="4" fill="#0" id="circle29"/>
	<circle cx="130.846" cy="436.577" r="4" fill="#0" id="circle30"/>
	<circle cx="134.098" cy="573.18" r="4" fill="#0" id="circle31"/>
	<circle cx="140.603" cy="647.987" r="4" fill="#0" id="circle32"/>
	<circle cx="147.108" cy="4" r="4" fill="#0" id="circle33"/>
	<circle cx="150.361" cy="543.908" r="4" fill="#0" id="circle34"/>
	<circle cx="150.361" cy="813.862" r="4" fill="#0" id="circle35"/>
	<circle cx="153.613" cy="745.561" r="4" fill="#0" id="circle36"/>
	<circle cx="156.866" cy="677.259" r="4" fill="#0" id="circle37"/>
	<circle cx="163.37" cy="436.577" r="4" fill="#0" id="circle38"/>
	<circle cx="166.623" cy="573.18" r="4" fill="#0" id="circle39"/>
	<circle cx="173.128" cy="647.987" r="4" fill="#0" id="circle40"/>
	<circle cx="179.633" cy="4" r="4" fill="#0" id="circle41"/>
	<circle cx="182.885" cy="543.908" r="4" fill="#0" id="circle42"/>
	<circle cx="182.885" cy="813.862" r="4" fill="#0" id="circle43"/>
	<circle cx="186.138" cy="745.561" r="4" fill="#0" id="circle44"/>
	<circle cx="189.39" cy="677.259" r="4" fill="#0" id="circle45"/>
	<circle cx="195.895" cy="436.577" r="4" fill="#0" id="circle46"/>
	<circle cx="199.148" cy="573.18" r="4" fill="#0" id="circle47"/>
	<circle cx="205.652" cy="647.987" r="4" fill="#0" id="circle48"/>
	<circle cx="212.157" cy="4" r="4" fill="#0" id="circle49"/>
	<circle cx="215.41" cy="543.908" r="4" fill="#0" id="circle50"/>
	<circle cx="215.41" cy="813.862" r="4" fill="#0" id="circle51"/>
	<circle cx="218.662" cy="745.561" r="4" fill="#0" id="circle52"/>
	<circle cx="221.915" cy="677.259" r="4" fill="#0" id="circle53"/>
	<circle cx="228.42" cy="436.577" r="4" fill="#0" id="circle54"/>
	<circle cx="231.672" cy="573.18" r="4" fill="#0" id="circle55"/>
	<circle cx="238.177" cy="647.987" r="4" fill="#0" id="circle56"/>
	<circle cx="244.682" cy="4" r="4" fill="#0" id="circle57"/>
	<circle cx="247.934" cy="543.908" r="4" fill="#0" id="circle58"/>
	<circle cx="247.934" cy="813.862" r="4" fill="#0" id="circle59"/>
	<circle cx="251.187" cy="745.561" r="4" fill="#0" id="circle60"/>
	<circle cx="254.439" cy="677.259" r="4" fill="#0" id="circle61"/>
	<circle cx="260.944" cy="436.577" r="4" fill="#0" id="circle62"/>
	<circle cx="264.197" cy="573.18" r="4" fill="#0" id="circle63"/>
	<circle cx="270.702" cy="647.987" r="4" fill="#0" id="circle64"/>
	<circle cx="277.207" cy="4" r="4" fill="#0" id="circle65"/>
	<circle cx="280.459" cy="543.908" r="4" fill="#0" id="circle66"/>
	<circle cx="280.459" cy="813.862" r="4" fill="#0" id="circle67"/>
	<circle cx="283.711" cy="745.561" r="4" fill="#0" id="circle68"/>
	<circle cx="286.964" cy="677.259" r="4" fill="#0" id="circle69"/>
	<circle cx="293.469" cy="436.577" r="4" fill="#0" id="circle70"/>
	<circle cx="296.721" cy="573.18" r="4" fill="#0" id="circle71"/>
	<circle cx="303.226" cy="647.987" r="4" fill="#0" id="circle72"/>
	<circle cx="309.731" cy="4" r="4" fill="#0" id="circle73"/>
	<circle cx="312.984" cy="543.908" r="4" fill="#0" id="circle74"/>
	<circle cx="312.984" cy="813.862" r="4" fill="#0" id="circle75"/>
	<circle cx="316.236" cy="745.561" r="4" fill="#0" id="circle76"/>
	<circle cx="319.489" cy="677.259" r="4" fill="#0" id="circle77"/>
	<circle cx="325.993" cy="436.577" r="4" fill="#0" id="circle78"/>
	<circle cx="329.246" cy="573.18" r="4" fill="#0" id="circle79"/>
	<circle cx="335.751" cy="647.987" r="4" fill="#0" id="circle80"/>
	<circle cx="342.256" cy="4" r="4" fill="#0" id="circle81"/>
	<circle cx="345.508" cy="543.908" r="4" fill="#0" id="circle82"/>
	<circle cx="345.508" cy="813.862" r="4" fill="#0" id="circle83"/>
	<circle cx="348.761" cy="745.561" r="4" fill="#0" id="circle84"/>
	<circle cx="352.013" cy="677.259" r="4" fill="#0" id="circle85"/>
	<circle cx="358.518" cy="436.577" r="4" fill="#0" id="circle86"/>
	<circle cx="361.77" cy="573.18" r="4" fill="#0" id="circle87"/>
	<circle cx="368.275" cy="647.987" r="4" fill="#0" id="circle88"/>
	<circle cx="374.78" cy="4" r="4" fill="#0" id="circle89"/>
	<circle cx="374.78" cy="765.075" r="4" fill="#0" id="circle90"/>
	<circle cx="378.033" cy="540.656" r="4" fill="#0" id="circle91"/>
	<circle cx="378.033" cy="813.862" r="4" fill="#0" id="circle92"/>
	<circle cx="381.285" cy="462.597" r="4" fill="#0" id="circle93"/>
	<circle cx="381.285" cy="495.121" r="4" fill="#0" id="circle94"/>
	<circle cx="381.285" cy="599.2" r="4" fill="#0" id="circle95"/>
	<circle cx="381.285" cy="693.521" r="4" fill="#0" id="circle96"/>
	<circle cx="381.285" cy="726.046" r="4" fill="#0" id="circle97"/>
	<circle cx="407.305" cy="4" r="4" fill="#0" id="circle98"/>
	<circle cx="410.557" cy="813.862" r="4" fill="#0" id="circle99"/>
	<circle cx="439.83" cy="4" r="4" fill="#0" id="circle100"/>
	<circle cx="443.082" cy="813.862" r="4" fill="#0" id="circle101"/>
	<circle cx="472.354" cy="4" r="4" fill="#0" id="circle102"/>
	<circle cx="475.607" cy="813.862" r="4" fill="#0" id="circle103"/>
	<circle cx="504.879" cy="4" r="4" fill="#0" id="circle104"/>
	<circle cx="508.131" cy="813.862" r="4" fill="#0" id="circle105"/>
	<circle cx="537.403" cy="4" r="4" fill="#0" id="circle106"/>
	<circle cx="540.656" cy="813.862" r="4" fill="#0" id="circle107"/>
	<circle cx="569.928" cy="4" r="4" fill="#0" id="circle108"/>
	<circle cx="573.18" cy="439.83" r="4" fill="#0" id="circle109"/>
	<circle cx="573.18" cy="472.354" r="4" fill="#0" id="circle110"/>
	<circle cx="573.18" cy="504.879" r="4" fill="#0" id="circle111"/>
	<circle cx="573.18" cy="537.403" r="4" fill="#0" id="circle112"/>
	<circle cx="573.18" cy="576.433" r="4" fill="#0" id="circle113"/>
	<circle cx="573.18" cy="608.957" r="4" fill="#0" id="circle114"/>
	<circle cx="573.18" cy="641.482" r="4" fill="#0" id="circle115"/>
	<circle cx="573.18" cy="680.511" r="4" fill="#0" id="circle116"/>
	<circle cx="573.18" cy="713.036" r="4" fill="#0" id="circle117"/>
	<circle cx="573.18" cy="813.862" r="4" fill="#0" id="circle118"/>
	<circle cx="576.433" cy="745.561" r="4" fill="#0" id="circle119"/>
	<circle cx="602.452" cy="4" r="4" fill="#0" id="circle120"/>
	<circle cx="602.452" cy="765.075" r="4" fill="#0" id="circle121"/>
	<circle cx="605.705" cy="436.577" r="4" fill="#0" id="circle122"/>
	<circle cx="605.705" cy="543.908" r="4" fill="#0" id="circle123"/>
	<circle cx="605.705" cy="647.987" r="4" fill="#0" id="circle124"/>
	<circle cx="605.705" cy="813.862" r="4" fill="#0" id="circle125"/>
	<circle cx="621.967" cy="573.18" r="4" fill="#0" id="circle126"/>
	<circle cx="621.967" cy="677.259" r="4" fill="#0" id="circle127"/>
	<circle cx="628.472" cy="745.561" r="4" fill="#0" id="circle128"/>
	<circle cx="634.977" cy="4" r="4" fill="#0" id="circle129"/>
	<circle cx="638.23" cy="436.577" r="4" fill="#0" id="circle130"/>
	<circle cx="638.23" cy="543.908" r="4" fill="#0" id="circle131"/>
	<circle cx="638.23" cy="647.987" r="4" fill="#0" id="circle132"/>
	<circle cx="638.23" cy="813.862" r="4" fill="#0" id="circle133"/>
	<circle cx="654.492" cy="573.18" r="4" fill="#0" id="circle134"/>
	<circle cx="654.492" cy="677.259" r="4" fill="#0" id="circle135"/>
	<circle cx="660.997" cy="745.561" r="4" fill="#0" id="circle136"/>
	<circle cx="667.502" cy="4" r="4" fill="#0" id="circle137"/>
	<circle cx="670.754" cy="436.577" r="4" fill="#0" id="circle138"/>
	<circle cx="670.754" cy="543.908" r="4" fill="#0" id="circle139"/>
	<circle cx="670.754" cy="647.987" r="4" fill="#0" id="circle140"/>
	<circle cx="670.754" cy="813.862" r="4" fill="#0" id="circle141"/>
	<circle cx="687.016" cy="573.18" r="4" fill="#0" id="circle142"/>
	<circle cx="687.016" cy="677.259" r="4" fill="#0" id="circle143"/>
	<circle cx="693.521" cy="745.561" r="4" fill="#0" id="circle144"/>
	<circle cx="700.026" cy="4" r="4" fill="#0" id="circle145"/>
	<circle cx="703.279" cy="436.577" r="4" fill="#0" id="circle146"/>
	<circle cx="703.279" cy="543.908" r="4" fill="#0" id="circle147"/>
	<circle cx="703.279" cy="647.987" r="4" fill="#0" id="circle148"/>
	<circle cx="703.279" cy="813.862" r="4" fill="#0" id="circle149"/>
	<circle cx="719.541" cy="573.18" r="4" fill="#0" id="circle150"/>
	<circle cx="719.541" cy="677.259" r="4" fill="#0" id="circle151"/>
	<circle cx="726.046" cy="745.561" r="4" fill="#0" id="circle152"/>
	<circle cx="732.551" cy="4" r="4" fill="#0" id="circle153"/>
	<circle cx="735.803" cy="436.577" r="4" fill="#0" id="circle154"/>
	<circle cx="735.803" cy="543.908" r="4" fill="#0" id="circle155"/>
	<circle cx="735.803" cy="647.987" r="4" fill="#0" id="circle156"/>
	<circle cx="735.803" cy="813.862" r="4" fill="#0" id="circle157"/>
	<circle cx="752.066" cy="573.18" r="4" fill="#0" id="circle158"/>
	<circle cx="752.066" cy="677.259" r="4" fill="#0" id="circle159"/>
	<circle cx="758.57" cy="745.561" r="4" fill="#0" id="circle160"/>
	<circle cx="765.075" cy="4" r="4" fill="#0" id="circle161"/>
	<circle cx="768.328" cy="436.577" r="4" fill="#0" id="circle162"/>
	<circle cx="768.328" cy="543.908" r="4" fill="#0" id="circle163"/>
	<circle cx="768.328" cy="647.987" r="4" fill="#0" id="circle164"/>
	<circle cx="768.328" cy="813.862" r="4" fill="#0" id="circle165"/>
	<circle cx="784.59" cy="573.18" r="4" fill="#0" id="circle166"/>
	<circle cx="784.59" cy="677.259" r="4" fill="#0" id="circle167"/>
	<circle cx="791.095" cy="745.561" r="4" fill="#0" id="circle168"/>
	<circle cx="797.6" cy="4" r="4" fill="#0" id="circle169"/>
	<circle cx="800.852" cy="436.577" r="4" fill="#0" id="circle170"/>
	<circle cx="800.852" cy="543.908" r="4" fill="#0" id="circle171"/>
	<circle cx="800.852" cy="647.987" r="4" fill="#0" id="circle172"/>
	<circle cx="800.852" cy="813.862" r="4" fill="#0" id="circle173"/>
	<circle cx="817.115" cy="573.18" r="4" fill="#0" id="circle174"/>
	<circle cx="817.115" cy="677.259" r="4" fill="#0" id="circle175"/>
	<circle cx="823.62" cy="745.561" r="4" fill="#0" id="circle176"/>
	<circle cx="830.125" cy="4" r="4" fill="#0" id="circle177"/>
	<circle cx="833.377" cy="436.577" r="4" fill="#0" id="circle178"/>
	<circle cx="833.377" cy="543.908" r="4" fill="#0" id="circle179"/>
	<circle cx="833.377" cy="647.987" r="4" fill="#0" id="circle180"/>
	<circle cx="833.377" cy="813.862" r="4" fill="#0" id="circle181"/>
	<circle cx="849.639" cy="573.18" r="4" fill="#0" id="circle182"/>
	<circle cx="849.639" cy="677.259" r="4" fill="#0" id="circle183"/>
	<circle cx="856.144" cy="745.561" r="4" fill="#0" id="circle184"/>
	<circle cx="862.649" cy="4" r="4" fill="#0" id="circle185"/>
	<circle cx="865.902" cy="436.577" r="4" fill="#0" id="circle186"/>
	<circle cx="865.902" cy="543.908" r="4" fill="#0" id="circle187"/>
	<circle cx="865.902" cy="647.987" r="4" fill="#0" id="circle188"/>
	<circle cx="865.902" cy="813.862" r="4" fill="#0" id="circle189"/>
	<circle cx="878.911" cy="33.2721" r="4" fill="#0" id="circle190"/>
	<circle cx="878.911" cy="65.7967" r="4" fill="#0" id="circle191"/>
	<circle cx="878.911" cy="98.3213" r="4" fill="#0" id="circle192"/>
	<circle cx="878.911" cy="130.846" r="4" fill="#0" id="circle193"/>
	<circle cx="878.911" cy="163.37" r="4" fill="#0" id="circle194"/>
	<circle cx="878.911" cy="195.895" r="4" fill="#0" id="circle195"/>
	<circle cx="878.911" cy="228.42" r="4" fill="#0" id="circle196"/>
	<circle cx="878.911" cy="260.944" r="4" fill="#0" id="circle197"/>
	<circle cx="878.911" cy="293.469" r="4" fill="#0" id="circle198"/>
	<circle cx="878.911" cy="325.993" r="4" fill="#0" id="circle199"/>
	<circle cx="878.911" cy="358.518" r="4" fill="#0" id="circle200"/>
	<circle cx="878.911" cy="391.043" r="4" fill="#0" id="circle201"/>
	<circle cx="882.164" cy="573.18" r="4" fill="#0" id="circle202"/>
	<circle cx="882.164" cy="677.259" r="4" fill="#0" id="circle203"/>
	<circle cx="888.669" cy="745.561" r="4" fill="#0" id="circle204"/>
	<circle cx="898.426" cy="543.908" r="4" fill="#0" id="circle205"/>
	<circle cx="898.426" cy="647.987" r="4" fill="#0" id="circle206"/>
	<circle cx="898.426" cy="820.367" r="4" fill="#0" id="circle207"/>
	<circle cx="914.689" cy="573.18" r="4" fill="#0" id="circle208"/>
	<circle cx="914.689" cy="677.259" r="4" fill="#0" id="circle209"/>
	<circle cx="921.193" cy="745.561" r="4" fill="#0" id="circle210"/>
	<circle cx="930.951" cy="543.908" r="4" fill="#0" id="circle211"/>
	<circle cx="930.951" cy="647.987" r="4" fill="#0" id="circle212"/>
	<circle cx="930.951" cy="813.862" r="4" fill="#0" id="circle213"/>
	<circle cx="947.213" cy="765.075" r="4" fill="#0" id="circle214"/>
	<circle cx="963.475" cy="820.367" r="4" fill="#0" id="circle215"/>
	<circle cx="973.233" cy="745.561" r="4" fill="#0" id="circle216"/>
	<circle cx="996" cy="771.58" r="4" fill="#0" id="circle217"/>
	<circle cx="996" cy="804.105" r="4" fill="#0" id="circle218"/>
	</g>
</svg>