<?xml version="1.0" encoding="UTF-8" standalone="no"?>
<!-- Created with CurveBenchmark -->
<svg
	xmlns:dc="http://purl.org/dc/elements/1.1/"
	xmlns:cc="http://creativecommons.org/ns#"
	xmlns:rdf="http://www.w3.org/1999/02/22-rdf-syntax-ns#"
	xmlns:svg="http://www.w3.org/2000/svg"
	xmlns="http://www.w3.org/2000/svg"
	xmlns:sodipodi="http://sodipodi.sourceforge.net/DTD/sodipodi-0.dtd"
	xmlns:inkscape="http://www.inkscape.org/namespaces/inkscape"
	width="1000"
	height="1000"
	id="svg2"
	version="1.1"
	sodipodi:docname="manifold/vicur-sink080.png.txt">
<defs
	id="defs4" />
<metadata
	id="metadata7">
	<rdf:RDF>
		<cc:Work
			rdf:about="">
			<dc:format>image/svg+xml</dc:format>
			<dc:type
				rdf:resource="http://purl.org/dc/dcmitype/StillImage" />
			<dc:title></dc:title>
		</cc:Work>
	</rdf:RDF>
</metadata>
<g
	inkscape:label="Layer 1"
	inkscape:groupmode="layer"
	id="layer1">
	<path style="fill:none;stroke:red;stroke-width:1px;stroke-linecap:butt;stroke-linejoin:miter;stroke-opacity:1" d="M 4,187.883 4,236.273 z" id="boundary" inkscape:connector-curvature="0" />
	<path style="fill:none;stroke:red;stroke-width:1px;stroke-linecap:butt;stroke-linejoin:miter;stroke-opacity:1" d="M 4,187.883 52.3902,168.527 z" id="boundary" inkscape:connector-curvature="0" />
	<path style="fill:none;stroke:red;stroke-width:1px;stroke-linecap:butt;stroke-linejoin:miter;stroke-opacity:1" d="M 4,236.273 4,284.663 z" id="boundary" inkscape:connector-curvature="0" />
	<path style="fill:none;stroke:red;stroke-width:1px;stroke-linecap:butt;stroke-linejoin:miter;stroke-opacity:1" d="M 4,284.663 42.7122,318.537 z" id="boundary" inkscape:connector-curvature="0" />
	<path style="fill:none;stroke:red;stroke-width:1px;stroke-linecap:butt;stroke-linejoin:miter;stroke-opacity:1" d="M 42.7122,318.537 91.1024,318.537 z" id="boundary" inkscape:connector-curvature="0" />
	<path style="fill:none;stroke:red;stroke-width:1px;stroke-linecap:butt;stroke-linejoin:miter;stroke-opacity:1" d="M 52.3902,168.527 100.78,168.527 z" id="boundary" inkscape:connector-curvature="0" />
	<path style="fill:none;stroke:red;stroke-width:1px;stroke-linecap:butt;stroke-linejoin:miter;stroke-opacity:1" d="M 91.1024,318.537 139.493,318.537 z" id="boundary" inkscape:connector-curvature="0" />
	<path style="fill:none;stroke:red;stroke-width:1px;stroke-linecap:butt;stroke-linejoin:miter;stroke-opacity:1" d="M 100.78,168.527 149.171,168.527 z" id="boundary" inkscape:connector-curvature="0" />
	<path style="fill:none;stroke:red;stroke-width:1px;stroke-linecap:butt;stroke-linejoin:miter;stroke-opacity:1" d="M 139.493,318.537 187.883,318.537 z" id="boundary" inkscape:connector-curvature="0" />
	<path style="fill:none;stroke:red;stroke-width:1px;stroke-linecap:butt;stroke-linejoin:miter;stroke-opacity:1" d="M 149.171,168.527 197.561,178.205 z" id="boundary" inkscape:connector-curvature="0" />
	<path style="fill:none;stroke:red;stroke-width:1px;stroke-linecap:butt;stroke-linejoin:miter;stroke-opacity:1" d="M 187.883,318.537 216.917,357.249 z" id="boundary" inkscape:connector-curvature="0" />
	<path style="fill:none;stroke:red;stroke-width:1px;stroke-linecap:butt;stroke-linejoin:miter;stroke-opacity:1" d="M 197.561,178.205 245.951,178.205 z" id="boundary" inkscape:connector-curvature="0" />
	<path style="fill:none;stroke:red;stroke-width:1px;stroke-linecap:butt;stroke-linejoin:miter;stroke-opacity:1" d="M 216.917,357.249 245.951,395.961 z" id="boundary" inkscape:connector-curvature="0" />
	<path style="fill:none;stroke:red;stroke-width:1px;stroke-linecap:butt;stroke-linejoin:miter;stroke-opacity:1" d="M 245.951,395.961 284.663,429.834 z" id="boundary" inkscape:connector-curvature="0" />
	<path style="fill:none;stroke:red;stroke-width:1px;stroke-linecap:butt;stroke-linejoin:miter;stroke-opacity:1" d="M 284.663,91.1024 284.663,139.493 z" id="boundary" inkscape:connector-curvature="0" />
	<path style="fill:none;stroke:red;stroke-width:1px;stroke-linecap:butt;stroke-linejoin:miter;stroke-opacity:1" d="M 284.663,91.1024 304.02,33.0341 z" id="boundary" inkscape:connector-curvature="0" />
	<path style="fill:none;stroke:red;stroke-width:1px;stroke-linecap:butt;stroke-linejoin:miter;stroke-opacity:1" d="M 284.663,139.493 323.376,173.366 z" id="boundary" inkscape:connector-curvature="0" />
	<path style="fill:none;stroke:red;stroke-width:1px;stroke-linecap:butt;stroke-linejoin:miter;stroke-opacity:1" d="M 284.663,429.834 333.054,444.351 z" id="boundary" inkscape:connector-curvature="0" />
	<path style="fill:none;stroke:red;stroke-width:1px;stroke-linecap:butt;stroke-linejoin:miter;stroke-opacity:1" d="M 304.02,33.0341 342.732,4 z" id="boundary" inkscape:connector-curvature="0" />
	<path style="fill:none;stroke:red;stroke-width:1px;stroke-linecap:butt;stroke-linejoin:miter;stroke-opacity:1" d="M 323.376,173.366 371.766,178.205 z" id="boundary" inkscape:connector-curvature="0" />
	<path style="fill:none;stroke:red;stroke-width:1px;stroke-linecap:butt;stroke-linejoin:miter;stroke-opacity:1" d="M 333.054,444.351 381.444,458.868 z" id="boundary" inkscape:connector-curvature="0" />
	<path style="fill:none;stroke:red;stroke-width:1px;stroke-linecap:butt;stroke-linejoin:miter;stroke-opacity:1" d="M 333.054,952.449 357.249,996 z" id="boundary" inkscape:connector-curvature="0" />
	<path style="fill:none;stroke:red;stroke-width:1px;stroke-linecap:butt;stroke-linejoin:miter;stroke-opacity:1" d="M 333.054,952.449 362.088,894.38 z" id="boundary" inkscape:connector-curvature="0" />
	<path style="fill:none;stroke:red;stroke-width:1px;stroke-linecap:butt;stroke-linejoin:miter;stroke-opacity:1" d="M 342.732,4 371.766,42.7122 z" id="boundary" inkscape:connector-curvature="0" />
	<path style="fill:none;stroke:red;stroke-width:1px;stroke-linecap:butt;stroke-linejoin:miter;stroke-opacity:1" d="M 357.249,996 405.639,996 z" id="boundary" inkscape:connector-curvature="0" />
	<path style="fill:none;stroke:red;stroke-width:1px;stroke-linecap:butt;stroke-linejoin:miter;stroke-opacity:1" d="M 362.088,894.38 381.444,845.99 z" id="boundary" inkscape:connector-curvature="0" />
	<path style="fill:none;stroke:red;stroke-width:1px;stroke-linecap:butt;stroke-linejoin:miter;stroke-opacity:1" d="M 371.766,42.7122 395.961,86.2634 z" id="boundary" inkscape:connector-curvature="0" />
	<path style="fill:none;stroke:red;stroke-width:1px;stroke-linecap:butt;stroke-linejoin:miter;stroke-opacity:1" d="M 371.766,178.205 420.156,168.527 z" id="boundary" inkscape:connector-curvature="0" />
	<path style="fill:none;stroke:red;stroke-width:1px;stroke-linecap:butt;stroke-linejoin:miter;stroke-opacity:1" d="M 381.444,458.868 381.444,507.259 z" id="boundary" inkscape:connector-curvature="0" />
	<path style="fill:none;stroke:red;stroke-width:1px;stroke-linecap:butt;stroke-linejoin:miter;stroke-opacity:1" d="M 381.444,507.259 381.444,555.649 z" id="boundary" inkscape:connector-curvature="0" />
	<path style="fill:none;stroke:red;stroke-width:1px;stroke-linecap:butt;stroke-linejoin:miter;stroke-opacity:1" d="M 381.444,555.649 381.444,604.039 z" id="boundary" inkscape:connector-curvature="0" />
	<path style="fill:none;stroke:red;stroke-width:1px;stroke-linecap:butt;stroke-linejoin:miter;stroke-opacity:1" d="M 381.444,604.039 381.444,652.429 z" id="boundary" inkscape:connector-curvature="0" />
	<path style="fill:none;stroke:red;stroke-width:1px;stroke-linecap:butt;stroke-linejoin:miter;stroke-opacity:1" d="M 381.444,652.429 381.444,700.82 z" id="boundary" inkscape:connector-curvature="0" />
	<path style="fill:none;stroke:red;stroke-width:1px;stroke-linecap:butt;stroke-linejoin:miter;stroke-opacity:1" d="M 381.444,700.82 381.444,749.21 z" id="boundary" inkscape:connector-curvature="0" />
	<path style="fill:none;stroke:red;stroke-width:1px;stroke-linecap:butt;stroke-linejoin:miter;stroke-opacity:1" d="M 381.444,749.21 381.444,797.6 z" id="boundary" inkscape:connector-curvature="0" />
	<path style="fill:none;stroke:red;stroke-width:1px;stroke-linecap:butt;stroke-linejoin:miter;stroke-opacity:1" d="M 381.444,797.6 381.444,845.99 z" id="boundary" inkscape:connector-curvature="0" />
	<path style="fill:none;stroke:red;stroke-width:1px;stroke-linecap:butt;stroke-linejoin:miter;stroke-opacity:1" d="M 405.639,996 454.029,996 z" id="boundary" inkscape:connector-curvature="0" />
	<path style="fill:none;stroke:red;stroke-width:1px;stroke-linecap:butt;stroke-linejoin:miter;stroke-opacity:1" d="M 420.156,168.527 468.546,168.527 z" id="boundary" inkscape:connector-curvature="0" />
	<path style="fill:none;stroke:red;stroke-width:1px;stroke-linecap:butt;stroke-linejoin:miter;stroke-opacity:1" d="M 454.029,996 502.42,996 z" id="boundary" inkscape:connector-curvature="0" />
	<path style="fill:none;stroke:red;stroke-width:1px;stroke-linecap:butt;stroke-linejoin:miter;stroke-opacity:1" d="M 468.546,168.527 516.937,168.527 z" id="boundary" inkscape:connector-curvature="0" />
	<path style="fill:none;stroke:red;stroke-width:1px;stroke-linecap:butt;stroke-linejoin:miter;stroke-opacity:1" d="M 502.42,996 550.81,996 z" id="boundary" inkscape:connector-curvature="0" />
	<path style="fill:none;stroke:red;stroke-width:1px;stroke-linecap:butt;stroke-linejoin:miter;stroke-opacity:1" d="M 516.937,168.527 565.327,168.527 z" id="boundary" inkscape:connector-curvature="0" />
	<path style="fill:none;stroke:red;stroke-width:1px;stroke-linecap:butt;stroke-linejoin:miter;stroke-opacity:1" d="M 550.81,996 599.2,996 z" id="boundary" inkscape:connector-curvature="0" />
	<path style="fill:none;stroke:red;stroke-width:1px;stroke-linecap:butt;stroke-linejoin:miter;stroke-opacity:1" d="M 560.488,429.834 560.488,478.224 z" id="boundary" inkscape:connector-curvature="0" />
	<path style="fill:none;stroke:red;stroke-width:1px;stroke-linecap:butt;stroke-linejoin:miter;stroke-opacity:1" d="M 560.488,429.834 599.2,400.8 z" id="boundary" inkscape:connector-curvature="0" />
	<path style="fill:none;stroke:red;stroke-width:1px;stroke-linecap:butt;stroke-linejoin:miter;stroke-opacity:1" d="M 560.488,478.224 560.488,526.615 z" id="boundary" inkscape:connector-curvature="0" />
	<path style="fill:none;stroke:red;stroke-width:1px;stroke-linecap:butt;stroke-linejoin:miter;stroke-opacity:1" d="M 560.488,526.615 560.488,575.005 z" id="boundary" inkscape:connector-curvature="0" />
	<path style="fill:none;stroke:red;stroke-width:1px;stroke-linecap:butt;stroke-linejoin:miter;stroke-opacity:1" d="M 560.488,575.005 560.488,623.395 z" id="boundary" inkscape:connector-curvature="0" />
	<path style="fill:none;stroke:red;stroke-width:1px;stroke-linecap:butt;stroke-linejoin:miter;stroke-opacity:1" d="M 560.488,623.395 560.488,671.785 z" id="boundary" inkscape:connector-curvature="0" />
	<path style="fill:none;stroke:red;stroke-width:1px;stroke-linecap:butt;stroke-linejoin:miter;stroke-opacity:1" d="M 560.488,671.785 560.488,720.176 z" id="boundary" inkscape:connector-curvature="0" />
	<path style="fill:none;stroke:red;stroke-width:1px;stroke-linecap:butt;stroke-linejoin:miter;stroke-opacity:1" d="M 560.488,720.176 560.488,768.566 z" id="boundary" inkscape:connector-curvature="0" />
	<path style="fill:none;stroke:red;stroke-width:1px;stroke-linecap:butt;stroke-linejoin:miter;stroke-opacity:1" d="M 560.488,768.566 560.488,816.956 z" id="boundary" inkscape:connector-curvature="0" />
	<path style="fill:none;stroke:red;stroke-width:1px;stroke-linecap:butt;stroke-linejoin:miter;stroke-opacity:1" d="M 560.488,816.956 560.488,865.346 z" id="boundary" inkscape:connector-curvature="0" />
	<path style="fill:none;stroke:red;stroke-width:1px;stroke-linecap:butt;stroke-linejoin:miter;stroke-opacity:1" d="M 560.488,865.346 579.844,913.737 z" id="boundary" inkscape:connector-curvature="0" />
	<path style="fill:none;stroke:red;stroke-width:1px;stroke-linecap:butt;stroke-linejoin:miter;stroke-opacity:1" d="M 565.327,168.527 613.717,168.527 z" id="boundary" inkscape:connector-curvature="0" />
	<path style="fill:none;stroke:red;stroke-width:1px;stroke-linecap:butt;stroke-linejoin:miter;stroke-opacity:1" d="M 579.844,913.737 599.2,996 z" id="boundary" inkscape:connector-curvature="0" />
	<path style="fill:none;stroke:red;stroke-width:1px;stroke-linecap:butt;stroke-linejoin:miter;stroke-opacity:1" d="M 599.2,400.8 628.234,362.088 z" id="boundary" inkscape:connector-curvature="0" />
	<path style="fill:none;stroke:red;stroke-width:1px;stroke-linecap:butt;stroke-linejoin:miter;stroke-opacity:1" d="M 613.717,168.527 647.59,207.239 z" id="boundary" inkscape:connector-curvature="0" />
	<path style="fill:none;stroke:red;stroke-width:1px;stroke-linecap:butt;stroke-linejoin:miter;stroke-opacity:1" d="M 628.234,362.088 652.429,318.537 z" id="boundary" inkscape:connector-curvature="0" />
	<path style="fill:none;stroke:red;stroke-width:1px;stroke-linecap:butt;stroke-linejoin:miter;stroke-opacity:1" d="M 647.59,207.239 666.946,255.629 z" id="boundary" inkscape:connector-curvature="0" />
	<path style="fill:none;stroke:red;stroke-width:1px;stroke-linecap:butt;stroke-linejoin:miter;stroke-opacity:1" d="M 652.429,318.537 700.82,318.537 z" id="boundary" inkscape:connector-curvature="0" />
	<path style="fill:none;stroke:red;stroke-width:1px;stroke-linecap:butt;stroke-linejoin:miter;stroke-opacity:1" d="M 666.946,255.629 715.337,265.307 z" id="boundary" inkscape:connector-curvature="0" />
	<path style="fill:none;stroke:red;stroke-width:1px;stroke-linecap:butt;stroke-linejoin:miter;stroke-opacity:1" d="M 700.82,318.537 749.21,318.537 z" id="boundary" inkscape:connector-curvature="0" />
	<path style="fill:none;stroke:red;stroke-width:1px;stroke-linecap:butt;stroke-linejoin:miter;stroke-opacity:1" d="M 715.337,265.307 763.727,265.307 z" id="boundary" inkscape:connector-curvature="0" />
	<path style="fill:none;stroke:red;stroke-width:1px;stroke-linecap:butt;stroke-linejoin:miter;stroke-opacity:1" d="M 749.21,318.537 797.6,318.537 z" id="boundary" inkscape:connector-curvature="0" />
	<path style="fill:none;stroke:red;stroke-width:1px;stroke-linecap:butt;stroke-linejoin:miter;stroke-opacity:1" d="M 763.727,265.307 797.6,318.537 z" id="boundary" inkscape:connector-curvature="0" />
	<circle cx="4" cy="187.883" r="4" fill="#0" id="circle0"/>
	<circle cx="4" cy="236.273" r="4" fill="#0" id="circle1"/>
	<circle cx="4" cy="284.663" r="4" fill="#0" id="circle2"/>
	<circle cx="42.7122" cy="318.537" r="4" fill="#0" id="circle3"/>
	<circle cx="52.3902" cy="168.527" r="4" fill="#0" id="circle4"/>
	<circle cx="91.1024" cy="318.537" r="4" fill="#0" id="circle5"/>
	<circle cx="100.78" cy="168.527" r="4" fill="#0" id="circle6"/>
	<circle cx="139.493" cy="318.537" r="4" fill="#0" id="circle7"/>
	<circle cx="149.171" cy="168.527" r="4" fill="#0" id="circle8"/>
	<circle cx="187.883" cy="318.537" r="4" fill="#0" id="circle9"/>
	<circle cx="197.561" cy="178.205" r="4" fill="#0" id="circle10"/>
	<circle cx="216.917" cy="357.249" r="4" fill="#0" id="circle11"/>
	<circle cx="245.951" cy="178.205" r="4" fill="#0" id="circle12"/>
	<circle cx="245.951" cy="395.961" r="4" fill="#0" id="circle13"/>
	<circle cx="284.663" cy="91.1024" r="4" fill="#0" id="circle14"/>
	<circle cx="284.663" cy="139.493" r="4" fill="#0" id="circle15"/>
	<circle cx="284.663" cy="429.834" r="4" fill="#0" id="circle16"/>
	<circle cx="304.02" cy="33.0341" r="4" fill="#0" id="circle17"/>
	<circle cx="323.376" cy="173.366" r="4" fill="#0" id="circle18"/>
	<circle cx="333.054" cy="444.351" r="4" fill="#0" id="circle19"/>
	<circle cx="333.054" cy="952.449" r="4" fill="#0" id="circle20"/>
	<circle cx="342.732" cy="4" r="4" fill="#0" id="circle21"/>
	<circle cx="357.249" cy="996" r="4" fill="#0" id="circle22"/>
	<circle cx="362.088" cy="894.38" r="4" fill="#0" id="circle23"/>
	<circle cx="371.766" cy="42.7122" r="4" fill="#0" id="circle24"/>
	<circle cx="371.766" cy="178.205" r="4" fill="#0" id="circle25"/>
	<circle cx="381.444" cy="458.868" r="4" fill="#0" id="circle26"/>
	<circle cx="381.444" cy="507.259" r="4" fill="#0" id="circle27"/>
	<circle cx="381.444" cy="555.649" r="4" fill="#0" id="circle28"/>
	<circle cx="381.444" cy="604.039" r="4" fill="#0" id="circle29"/>
	<circle cx="381.444" cy="652.429" r="4" fill="#0" id="circle30"/>
	<circle cx="381.444" cy="700.82" r="4" fill="#0" id="circle31"/>
	<circle cx="381.444" cy="749.21" r="4" fill="#0" id="circle32"/>
	<circle cx="381.444" cy="797.6" r="4" fill="#0" id="circle33"/>
	<circle cx="381.444" cy="845.99" r="4" fill="#0" id="circle34"/>
	<circle cx="395.961" cy="86.2634" r="4" fill="#0" id="circle35"/>
	<circle cx="405.639" cy="996" r="4" fill="#0" id="circle36"/>
	<circle cx="420.156" cy="168.527" r="4" fill="#0" id="circle37"/>
	<circle cx="454.029" cy="996" r="4" fill="#0" id="circle38"/>
	<circle cx="468.546" cy="168.527" r="4" fill="#0" id="circle39"/>
	<circle cx="502.42" cy="996" r="4" fill="#0" id="circle40"/>
	<circle cx="516.937" cy="168.527" r="4" fill="#0" id="circle41"/>
	<circle cx="550.81" cy="996" r="4" fill="#0" id="circle42"/>
	<circle cx="560.488" cy="429.834" r="4" fill="#0" id="circle43"/>
	<circle cx="560.488" cy="478.224" r="4" fill="#0" id="circle44"/>
	<circle cx="560.488" cy="526.615" r="4" fill="#0" id="circle45"/>
	<circle cx="560.488" cy="575.005" r="4" fill="#0" id="circle46"/>
	<circle cx="560.488" cy="623.395" r="4" fill="#0" id="circle47"/>
	<circle cx="560.488" cy="671.785" r="4" fill="#0" id="circle48"/>
	<circle cx="560.488" cy="720.176" r="4" fill="#0" id="circle49"/>
	<circle cx="560.488" cy="768.566" r="4" fill="#0" id="circle50"/>
	<circle cx="560.488" cy="816.956" r="4" fill="#0" id="circle51"/>
	<circle cx="560.488" cy="865.346" r="4" fill="#0" id="circle52"/>
	<circle cx="565.327" cy="168.527" r="4" fill="#0" id="circle53"/>
	<circle cx="579.844" cy="913.737" r="4" fill="#0" id="circle54"/>
	<circle cx="599.2" cy="400.8" r="4" fill="#0" id="circle55"/>
	<circle cx="599.2" cy="996" r="4" fill="#0" id="circle56"/>
	<circle cx="613.717" cy="168.527" r="4" fill="#0" id="circle57"/>
	<circle cx="628.234" cy="362.088" r="4" fill="#0" id="circle58"/>
	<circle cx="647.59" cy="207.239" r="4" fill="#0" id="circle59"/>
	<circle cx="652.429" cy="318.537" r="4" fill="#0" id="circle60"/>
	<circle cx="666.946" cy="255.629" r="4" fill="#0" id="circle61"/>
	<circle cx="700.82" cy="318.537" r="4" fill="#0" id="circle62"/>
	<circle cx="715.337" cy="265.307" r="4" fill="#0" id="circle63"/>
	<circle cx="749.21" cy="318.537" r="4" fill="#0" id="circle64"/>
	<circle cx="763.727" cy="265.307" r="4" fill="#0" id="circle65"/>
	<circle cx="797.6" cy="318.537" r="4" fill="#0" id="circle66"/>
	</g>
</svg>