<?xml version="1.0" encoding="UTF-8" standalone="no"?>
<!-- Created with CurveBenchmark -->
<svg
	xmlns:dc="http://purl.org/dc/elements/1.1/"
	xmlns:cc="http://creativecommons.org/ns#"
	xmlns:rdf="http://www.w3.org/1999/02/22-rdf-syntax-ns#"
	xmlns:svg="http://www.w3.org/2000/svg"
	xmlns="http://www.w3.org/2000/svg"
	xmlns:sodipodi="http://sodipodi.sourceforge.net/DTD/sodipodi-0.dtd"
	xmlns:inkscape="http://www.inkscape.org/namespaces/inkscape"
	width="1000"
	height="1000"
	id="svg2"
	version="1.1"
	sodipodi:docname="manifold/vicur-textbox16.png.txt">
<defs
	id="defs4" />
<metadata
	id="metadata7">
	<rdf:RDF>
		<cc:Work
			rdf:about="">
			<dc:format>image/svg+xml</dc:format>
			<dc:type
				rdf:resource="http://purl.org/dc/dcmitype/StillImage" />
			<dc:title></dc:title>
		</cc:Work>
	</rdf:RDF>
</metadata>
<g
	inkscape:label="Layer 1"
	inkscape:groupmode="layer"
	id="layer1">
	<path style="fill:none;stroke:red;stroke-width:1px;stroke-linecap:butt;stroke-linejoin:miter;stroke-opacity:1" d="M 4,40.3666 4,60.5703 z" id="boundary" inkscape:connector-curvature="0" />
	<path style="fill:none;stroke:red;stroke-width:1px;stroke-linecap:butt;stroke-linejoin:miter;stroke-opacity:1" d="M 4,40.3666 24.2037,34.3055 z" id="boundary" inkscape:connector-curvature="0" />
	<path style="fill:none;stroke:red;stroke-width:1px;stroke-linecap:butt;stroke-linejoin:miter;stroke-opacity:1" d="M 4,60.5703 4,80.7739 z" id="boundary" inkscape:connector-curvature="0" />
	<path style="fill:none;stroke:red;stroke-width:1px;stroke-linecap:butt;stroke-linejoin:miter;stroke-opacity:1" d="M 4,80.7739 4,100.978 z" id="boundary" inkscape:connector-curvature="0" />
	<path style="fill:none;stroke:red;stroke-width:1px;stroke-linecap:butt;stroke-linejoin:miter;stroke-opacity:1" d="M 4,100.978 4,121.181 z" id="boundary" inkscape:connector-curvature="0" />
	<path style="fill:none;stroke:red;stroke-width:1px;stroke-linecap:butt;stroke-linejoin:miter;stroke-opacity:1" d="M 4,121.181 4,141.385 z" id="boundary" inkscape:connector-curvature="0" />
	<path style="fill:none;stroke:red;stroke-width:1px;stroke-linecap:butt;stroke-linejoin:miter;stroke-opacity:1" d="M 4,141.385 4,161.589 z" id="boundary" inkscape:connector-curvature="0" />
	<path style="fill:none;stroke:red;stroke-width:1px;stroke-linecap:butt;stroke-linejoin:miter;stroke-opacity:1" d="M 4,161.589 4,181.792 z" id="boundary" inkscape:connector-curvature="0" />
	<path style="fill:none;stroke:red;stroke-width:1px;stroke-linecap:butt;stroke-linejoin:miter;stroke-opacity:1" d="M 4,181.792 4,201.996 z" id="boundary" inkscape:connector-curvature="0" />
	<path style="fill:none;stroke:red;stroke-width:1px;stroke-linecap:butt;stroke-linejoin:miter;stroke-opacity:1" d="M 4,201.996 4,222.2 z" id="boundary" inkscape:connector-curvature="0" />
	<path style="fill:none;stroke:red;stroke-width:1px;stroke-linecap:butt;stroke-linejoin:miter;stroke-opacity:1" d="M 4,222.2 4,242.403 z" id="boundary" inkscape:connector-curvature="0" />
	<path style="fill:none;stroke:red;stroke-width:1px;stroke-linecap:butt;stroke-linejoin:miter;stroke-opacity:1" d="M 4,242.403 4,262.607 z" id="boundary" inkscape:connector-curvature="0" />
	<path style="fill:none;stroke:red;stroke-width:1px;stroke-linecap:butt;stroke-linejoin:miter;stroke-opacity:1" d="M 4,262.607 4,282.811 z" id="boundary" inkscape:connector-curvature="0" />
	<path style="fill:none;stroke:red;stroke-width:1px;stroke-linecap:butt;stroke-linejoin:miter;stroke-opacity:1" d="M 4,282.811 4,303.014 z" id="boundary" inkscape:connector-curvature="0" />
	<path style="fill:none;stroke:red;stroke-width:1px;stroke-linecap:butt;stroke-linejoin:miter;stroke-opacity:1" d="M 4,303.014 4,323.218 z" id="boundary" inkscape:connector-curvature="0" />
	<path style="fill:none;stroke:red;stroke-width:1px;stroke-linecap:butt;stroke-linejoin:miter;stroke-opacity:1" d="M 4,323.218 4,343.422 z" id="boundary" inkscape:connector-curvature="0" />
	<path style="fill:none;stroke:red;stroke-width:1px;stroke-linecap:butt;stroke-linejoin:miter;stroke-opacity:1" d="M 4,343.422 4,363.625 z" id="boundary" inkscape:connector-curvature="0" />
	<path style="fill:none;stroke:red;stroke-width:1px;stroke-linecap:butt;stroke-linejoin:miter;stroke-opacity:1" d="M 4,363.625 4,383.829 z" id="boundary" inkscape:connector-curvature="0" />
	<path style="fill:none;stroke:red;stroke-width:1px;stroke-linecap:butt;stroke-linejoin:miter;stroke-opacity:1" d="M 4,383.829 24.2037,389.89 z" id="boundary" inkscape:connector-curvature="0" />
	<path style="fill:none;stroke:red;stroke-width:1px;stroke-linecap:butt;stroke-linejoin:miter;stroke-opacity:1" d="M 24.2037,34.3055 44.4073,34.3055 z" id="boundary" inkscape:connector-curvature="0" />
	<path style="fill:none;stroke:red;stroke-width:1px;stroke-linecap:butt;stroke-linejoin:miter;stroke-opacity:1" d="M 24.2037,389.89 24.2037,410.094 z" id="boundary" inkscape:connector-curvature="0" />
	<path style="fill:none;stroke:red;stroke-width:1px;stroke-linecap:butt;stroke-linejoin:miter;stroke-opacity:1" d="M 24.2037,410.094 24.2037,430.297 z" id="boundary" inkscape:connector-curvature="0" />
	<path style="fill:none;stroke:red;stroke-width:1px;stroke-linecap:butt;stroke-linejoin:miter;stroke-opacity:1" d="M 24.2037,430.297 24.2037,450.501 z" id="boundary" inkscape:connector-curvature="0" />
	<path style="fill:none;stroke:red;stroke-width:1px;stroke-linecap:butt;stroke-linejoin:miter;stroke-opacity:1" d="M 24.2037,450.501 24.2037,470.705 z" id="boundary" inkscape:connector-curvature="0" />
	<path style="fill:none;stroke:red;stroke-width:1px;stroke-linecap:butt;stroke-linejoin:miter;stroke-opacity:1" d="M 24.2037,470.705 24.2037,490.908 z" id="boundary" inkscape:connector-curvature="0" />
	<path style="fill:none;stroke:red;stroke-width:1px;stroke-linecap:butt;stroke-linejoin:miter;stroke-opacity:1" d="M 24.2037,490.908 24.2037,511.112 z" id="boundary" inkscape:connector-curvature="0" />
	<path style="fill:none;stroke:red;stroke-width:1px;stroke-linecap:butt;stroke-linejoin:miter;stroke-opacity:1" d="M 24.2037,511.112 24.2037,531.316 z" id="boundary" inkscape:connector-curvature="0" />
	<path style="fill:none;stroke:red;stroke-width:1px;stroke-linecap:butt;stroke-linejoin:miter;stroke-opacity:1" d="M 24.2037,531.316 24.2037,551.519 z" id="boundary" inkscape:connector-curvature="0" />
	<path style="fill:none;stroke:red;stroke-width:1px;stroke-linecap:butt;stroke-linejoin:miter;stroke-opacity:1" d="M 24.2037,551.519 24.2037,571.723 z" id="boundary" inkscape:connector-curvature="0" />
	<path style="fill:none;stroke:red;stroke-width:1px;stroke-linecap:butt;stroke-linejoin:miter;stroke-opacity:1" d="M 24.2037,571.723 24.2037,591.927 z" id="boundary" inkscape:connector-curvature="0" />
	<path style="fill:none;stroke:red;stroke-width:1px;stroke-linecap:butt;stroke-linejoin:miter;stroke-opacity:1" d="M 24.2037,591.927 24.2037,612.13 z" id="boundary" inkscape:connector-curvature="0" />
	<path style="fill:none;stroke:red;stroke-width:1px;stroke-linecap:butt;stroke-linejoin:miter;stroke-opacity:1" d="M 24.2037,612.13 42.387,622.232 z" id="boundary" inkscape:connector-curvature="0" />
	<path style="fill:none;stroke:red;stroke-width:1px;stroke-linecap:butt;stroke-linejoin:miter;stroke-opacity:1" d="M 42.387,622.232 62.5906,622.232 z" id="boundary" inkscape:connector-curvature="0" />
	<path style="fill:none;stroke:red;stroke-width:1px;stroke-linecap:butt;stroke-linejoin:miter;stroke-opacity:1" d="M 44.4073,34.3055 64.611,34.3055 z" id="boundary" inkscape:connector-curvature="0" />
	<path style="fill:none;stroke:red;stroke-width:1px;stroke-linecap:butt;stroke-linejoin:miter;stroke-opacity:1" d="M 62.5906,622.232 82.7943,622.232 z" id="boundary" inkscape:connector-curvature="0" />
	<path style="fill:none;stroke:red;stroke-width:1px;stroke-linecap:butt;stroke-linejoin:miter;stroke-opacity:1" d="M 64.611,34.3055 84.8147,34.3055 z" id="boundary" inkscape:connector-curvature="0" />
	<path style="fill:none;stroke:red;stroke-width:1px;stroke-linecap:butt;stroke-linejoin:miter;stroke-opacity:1" d="M 74.7128,737.393 94.9165,717.189 z" id="boundary" inkscape:connector-curvature="0" />
	<path style="fill:none;stroke:red;stroke-width:1px;stroke-linecap:butt;stroke-linejoin:miter;stroke-opacity:1" d="M 74.7128,737.393 94.9165,743.454 z" id="boundary" inkscape:connector-curvature="0" />
	<path style="fill:none;stroke:red;stroke-width:1px;stroke-linecap:butt;stroke-linejoin:miter;stroke-opacity:1" d="M 82.7943,622.232 102.998,622.232 z" id="boundary" inkscape:connector-curvature="0" />
	<path style="fill:none;stroke:red;stroke-width:1px;stroke-linecap:butt;stroke-linejoin:miter;stroke-opacity:1" d="M 84.8147,34.3055 105.018,34.3055 z" id="boundary" inkscape:connector-curvature="0" />
	<path style="fill:none;stroke:red;stroke-width:1px;stroke-linecap:butt;stroke-linejoin:miter;stroke-opacity:1" d="M 94.9165,717.189 111.079,701.026 z" id="boundary" inkscape:connector-curvature="0" />
	<path style="fill:none;stroke:red;stroke-width:1px;stroke-linecap:butt;stroke-linejoin:miter;stroke-opacity:1" d="M 94.9165,743.454 115.12,743.454 z" id="boundary" inkscape:connector-curvature="0" />
	<path style="fill:none;stroke:red;stroke-width:1px;stroke-linecap:butt;stroke-linejoin:miter;stroke-opacity:1" d="M 102.998,622.232 123.202,622.232 z" id="boundary" inkscape:connector-curvature="0" />
	<path style="fill:none;stroke:red;stroke-width:1px;stroke-linecap:butt;stroke-linejoin:miter;stroke-opacity:1" d="M 105.018,34.3055 125.222,34.3055 z" id="boundary" inkscape:connector-curvature="0" />
	<path style="fill:none;stroke:red;stroke-width:1px;stroke-linecap:butt;stroke-linejoin:miter;stroke-opacity:1" d="M 111.079,701.026 127.242,684.864 z" id="boundary" inkscape:connector-curvature="0" />
	<path style="fill:none;stroke:red;stroke-width:1px;stroke-linecap:butt;stroke-linejoin:miter;stroke-opacity:1" d="M 115.12,743.454 135.324,743.454 z" id="boundary" inkscape:connector-curvature="0" />
	<path style="fill:none;stroke:red;stroke-width:1px;stroke-linecap:butt;stroke-linejoin:miter;stroke-opacity:1" d="M 123.202,622.232 143.405,622.232 z" id="boundary" inkscape:connector-curvature="0" />
	<path style="fill:none;stroke:red;stroke-width:1px;stroke-linecap:butt;stroke-linejoin:miter;stroke-opacity:1" d="M 125.222,34.3055 145.426,34.3055 z" id="boundary" inkscape:connector-curvature="0" />
	<path style="fill:none;stroke:red;stroke-width:1px;stroke-linecap:butt;stroke-linejoin:miter;stroke-opacity:1" d="M 127.242,684.864 135.324,656.578 z" id="boundary" inkscape:connector-curvature="0" />
	<path style="fill:none;stroke:red;stroke-width:1px;stroke-linecap:butt;stroke-linejoin:miter;stroke-opacity:1" d="M 135.324,656.578 155.527,646.477 z" id="boundary" inkscape:connector-curvature="0" />
	<path style="fill:none;stroke:red;stroke-width:1px;stroke-linecap:butt;stroke-linejoin:miter;stroke-opacity:1" d="M 135.324,743.454 155.527,737.393 z" id="boundary" inkscape:connector-curvature="0" />
	<path style="fill:none;stroke:red;stroke-width:1px;stroke-linecap:butt;stroke-linejoin:miter;stroke-opacity:1" d="M 143.405,622.232 163.609,622.232 z" id="boundary" inkscape:connector-curvature="0" />
	<path style="fill:none;stroke:red;stroke-width:1px;stroke-linecap:butt;stroke-linejoin:miter;stroke-opacity:1" d="M 145.426,34.3055 165.629,34.3055 z" id="boundary" inkscape:connector-curvature="0" />
	<path style="fill:none;stroke:red;stroke-width:1px;stroke-linecap:butt;stroke-linejoin:miter;stroke-opacity:1" d="M 155.527,646.477 163.609,622.232 z" id="boundary" inkscape:connector-curvature="0" />
	<path style="fill:none;stroke:red;stroke-width:1px;stroke-linecap:butt;stroke-linejoin:miter;stroke-opacity:1" d="M 155.527,737.393 177.752,713.149 z" id="boundary" inkscape:connector-curvature="0" />
	<path style="fill:none;stroke:red;stroke-width:1px;stroke-linecap:butt;stroke-linejoin:miter;stroke-opacity:1" d="M 165.629,34.3055 185.833,34.3055 z" id="boundary" inkscape:connector-curvature="0" />
	<path style="fill:none;stroke:red;stroke-width:1px;stroke-linecap:butt;stroke-linejoin:miter;stroke-opacity:1" d="M 177.752,713.149 197.955,703.047 z" id="boundary" inkscape:connector-curvature="0" />
	<path style="fill:none;stroke:red;stroke-width:1px;stroke-linecap:butt;stroke-linejoin:miter;stroke-opacity:1" d="M 185.833,34.3055 206.037,34.3055 z" id="boundary" inkscape:connector-curvature="0" />
	<path style="fill:none;stroke:red;stroke-width:1px;stroke-linecap:butt;stroke-linejoin:miter;stroke-opacity:1" d="M 197.955,703.047 218.159,703.047 z" id="boundary" inkscape:connector-curvature="0" />
	<path style="fill:none;stroke:red;stroke-width:1px;stroke-linecap:butt;stroke-linejoin:miter;stroke-opacity:1" d="M 206.037,34.3055 226.24,34.3055 z" id="boundary" inkscape:connector-curvature="0" />
	<path style="fill:none;stroke:red;stroke-width:1px;stroke-linecap:butt;stroke-linejoin:miter;stroke-opacity:1" d="M 218.159,703.047 238.363,682.843 z" id="boundary" inkscape:connector-curvature="0" />
	<path style="fill:none;stroke:red;stroke-width:1px;stroke-linecap:butt;stroke-linejoin:miter;stroke-opacity:1" d="M 226.24,34.3055 244.424,24.2037 z" id="boundary" inkscape:connector-curvature="0" />
	<path style="fill:none;stroke:red;stroke-width:1px;stroke-linecap:butt;stroke-linejoin:miter;stroke-opacity:1" d="M 238.363,682.843 258.566,682.843 z" id="boundary" inkscape:connector-curvature="0" />
	<path style="fill:none;stroke:red;stroke-width:1px;stroke-linecap:butt;stroke-linejoin:miter;stroke-opacity:1" d="M 244.424,24.2037 264.627,24.2037 z" id="boundary" inkscape:connector-curvature="0" />
	<path style="fill:none;stroke:red;stroke-width:1px;stroke-linecap:butt;stroke-linejoin:miter;stroke-opacity:1" d="M 258.566,682.843 276.749,672.741 z" id="boundary" inkscape:connector-curvature="0" />
	<path style="fill:none;stroke:red;stroke-width:1px;stroke-linecap:butt;stroke-linejoin:miter;stroke-opacity:1" d="M 264.627,24.2037 284.831,24.2037 z" id="boundary" inkscape:connector-curvature="0" />
	<path style="fill:none;stroke:red;stroke-width:1px;stroke-linecap:butt;stroke-linejoin:miter;stroke-opacity:1" d="M 276.749,672.741 296.953,672.741 z" id="boundary" inkscape:connector-curvature="0" />
	<path style="fill:none;stroke:red;stroke-width:1px;stroke-linecap:butt;stroke-linejoin:miter;stroke-opacity:1" d="M 284.831,24.2037 305.035,24.2037 z" id="boundary" inkscape:connector-curvature="0" />
	<path style="fill:none;stroke:red;stroke-width:1px;stroke-linecap:butt;stroke-linejoin:miter;stroke-opacity:1" d="M 296.953,672.741 317.157,666.68 z" id="boundary" inkscape:connector-curvature="0" />
	<path style="fill:none;stroke:red;stroke-width:1px;stroke-linecap:butt;stroke-linejoin:miter;stroke-opacity:1" d="M 305.035,24.2037 325.238,24.2037 z" id="boundary" inkscape:connector-curvature="0" />
	<path style="fill:none;stroke:red;stroke-width:1px;stroke-linecap:butt;stroke-linejoin:miter;stroke-opacity:1" d="M 317.157,666.68 333.32,652.538 z" id="boundary" inkscape:connector-curvature="0" />
	<path style="fill:none;stroke:red;stroke-width:1px;stroke-linecap:butt;stroke-linejoin:miter;stroke-opacity:1" d="M 325.238,24.2037 345.442,24.2037 z" id="boundary" inkscape:connector-curvature="0" />
	<path style="fill:none;stroke:red;stroke-width:1px;stroke-linecap:butt;stroke-linejoin:miter;stroke-opacity:1" d="M 333.32,652.538 353.523,650.517 z" id="boundary" inkscape:connector-curvature="0" />
	<path style="fill:none;stroke:red;stroke-width:1px;stroke-linecap:butt;stroke-linejoin:miter;stroke-opacity:1" d="M 345.442,24.2037 365.646,24.2037 z" id="boundary" inkscape:connector-curvature="0" />
	<path style="fill:none;stroke:red;stroke-width:1px;stroke-linecap:butt;stroke-linejoin:miter;stroke-opacity:1" d="M 353.523,650.517 373.727,640.415 z" id="boundary" inkscape:connector-curvature="0" />
	<path style="fill:none;stroke:red;stroke-width:1px;stroke-linecap:butt;stroke-linejoin:miter;stroke-opacity:1" d="M 365.646,24.2037 385.849,24.2037 z" id="boundary" inkscape:connector-curvature="0" />
	<path style="fill:none;stroke:red;stroke-width:1px;stroke-linecap:butt;stroke-linejoin:miter;stroke-opacity:1" d="M 373.727,640.415 383.829,622.232 z" id="boundary" inkscape:connector-curvature="0" />
	<path style="fill:none;stroke:red;stroke-width:1px;stroke-linecap:butt;stroke-linejoin:miter;stroke-opacity:1" d="M 383.829,622.232 404.033,622.232 z" id="boundary" inkscape:connector-curvature="0" />
	<path style="fill:none;stroke:red;stroke-width:1px;stroke-linecap:butt;stroke-linejoin:miter;stroke-opacity:1" d="M 385.849,24.2037 406.053,24.2037 z" id="boundary" inkscape:connector-curvature="0" />
	<path style="fill:none;stroke:red;stroke-width:1px;stroke-linecap:butt;stroke-linejoin:miter;stroke-opacity:1" d="M 404.033,622.232 422.216,612.13 z" id="boundary" inkscape:connector-curvature="0" />
	<path style="fill:none;stroke:red;stroke-width:1px;stroke-linecap:butt;stroke-linejoin:miter;stroke-opacity:1" d="M 406.053,24.2037 426.257,24.2037 z" id="boundary" inkscape:connector-curvature="0" />
	<path style="fill:none;stroke:red;stroke-width:1px;stroke-linecap:butt;stroke-linejoin:miter;stroke-opacity:1" d="M 422.216,612.13 442.42,612.13 z" id="boundary" inkscape:connector-curvature="0" />
	<path style="fill:none;stroke:red;stroke-width:1px;stroke-linecap:butt;stroke-linejoin:miter;stroke-opacity:1" d="M 426.257,24.2037 446.46,24.2037 z" id="boundary" inkscape:connector-curvature="0" />
	<path style="fill:none;stroke:red;stroke-width:1px;stroke-linecap:butt;stroke-linejoin:miter;stroke-opacity:1" d="M 442.42,612.13 462.623,612.13 z" id="boundary" inkscape:connector-curvature="0" />
	<path style="fill:none;stroke:red;stroke-width:1px;stroke-linecap:butt;stroke-linejoin:miter;stroke-opacity:1" d="M 446.46,24.2037 466.664,24.2037 z" id="boundary" inkscape:connector-curvature="0" />
	<path style="fill:none;stroke:red;stroke-width:1px;stroke-linecap:butt;stroke-linejoin:miter;stroke-opacity:1" d="M 462.623,612.13 482.827,612.13 z" id="boundary" inkscape:connector-curvature="0" />
	<path style="fill:none;stroke:red;stroke-width:1px;stroke-linecap:butt;stroke-linejoin:miter;stroke-opacity:1" d="M 466.664,24.2037 486.868,24.2037 z" id="boundary" inkscape:connector-curvature="0" />
	<path style="fill:none;stroke:red;stroke-width:1px;stroke-linecap:butt;stroke-linejoin:miter;stroke-opacity:1" d="M 482.827,612.13 503.031,612.13 z" id="boundary" inkscape:connector-curvature="0" />
	<path style="fill:none;stroke:red;stroke-width:1px;stroke-linecap:butt;stroke-linejoin:miter;stroke-opacity:1" d="M 486.868,24.2037 507.071,24.2037 z" id="boundary" inkscape:connector-curvature="0" />
	<path style="fill:none;stroke:red;stroke-width:1px;stroke-linecap:butt;stroke-linejoin:miter;stroke-opacity:1" d="M 503.031,612.13 523.234,612.13 z" id="boundary" inkscape:connector-curvature="0" />
	<path style="fill:none;stroke:red;stroke-width:1px;stroke-linecap:butt;stroke-linejoin:miter;stroke-opacity:1" d="M 507.071,24.2037 527.275,24.2037 z" id="boundary" inkscape:connector-curvature="0" />
	<path style="fill:none;stroke:red;stroke-width:1px;stroke-linecap:butt;stroke-linejoin:miter;stroke-opacity:1" d="M 523.234,612.13 543.438,612.13 z" id="boundary" inkscape:connector-curvature="0" />
	<path style="fill:none;stroke:red;stroke-width:1px;stroke-linecap:butt;stroke-linejoin:miter;stroke-opacity:1" d="M 527.275,24.2037 547.479,24.2037 z" id="boundary" inkscape:connector-curvature="0" />
	<path style="fill:none;stroke:red;stroke-width:1px;stroke-linecap:butt;stroke-linejoin:miter;stroke-opacity:1" d="M 543.438,612.13 563.642,612.13 z" id="boundary" inkscape:connector-curvature="0" />
	<path style="fill:none;stroke:red;stroke-width:1px;stroke-linecap:butt;stroke-linejoin:miter;stroke-opacity:1" d="M 547.479,24.2037 567.682,24.2037 z" id="boundary" inkscape:connector-curvature="0" />
	<path style="fill:none;stroke:red;stroke-width:1px;stroke-linecap:butt;stroke-linejoin:miter;stroke-opacity:1" d="M 563.642,612.13 583.845,612.13 z" id="boundary" inkscape:connector-curvature="0" />
	<path style="fill:none;stroke:red;stroke-width:1px;stroke-linecap:butt;stroke-linejoin:miter;stroke-opacity:1" d="M 567.682,24.2037 587.886,24.2037 z" id="boundary" inkscape:connector-curvature="0" />
	<path style="fill:none;stroke:red;stroke-width:1px;stroke-linecap:butt;stroke-linejoin:miter;stroke-opacity:1" d="M 583.845,612.13 604.049,612.13 z" id="boundary" inkscape:connector-curvature="0" />
	<path style="fill:none;stroke:red;stroke-width:1px;stroke-linecap:butt;stroke-linejoin:miter;stroke-opacity:1" d="M 587.886,24.2037 608.09,24.2037 z" id="boundary" inkscape:connector-curvature="0" />
	<path style="fill:none;stroke:red;stroke-width:1px;stroke-linecap:butt;stroke-linejoin:miter;stroke-opacity:1" d="M 604.049,612.13 624.253,612.13 z" id="boundary" inkscape:connector-curvature="0" />
	<path style="fill:none;stroke:red;stroke-width:1px;stroke-linecap:butt;stroke-linejoin:miter;stroke-opacity:1" d="M 608.09,24.2037 628.293,24.2037 z" id="boundary" inkscape:connector-curvature="0" />
	<path style="fill:none;stroke:red;stroke-width:1px;stroke-linecap:butt;stroke-linejoin:miter;stroke-opacity:1" d="M 624.253,612.13 644.456,612.13 z" id="boundary" inkscape:connector-curvature="0" />
	<path style="fill:none;stroke:red;stroke-width:1px;stroke-linecap:butt;stroke-linejoin:miter;stroke-opacity:1" d="M 628.293,24.2037 648.497,24.2037 z" id="boundary" inkscape:connector-curvature="0" />
	<path style="fill:none;stroke:red;stroke-width:1px;stroke-linecap:butt;stroke-linejoin:miter;stroke-opacity:1" d="M 644.456,612.13 664.66,612.13 z" id="boundary" inkscape:connector-curvature="0" />
	<path style="fill:none;stroke:red;stroke-width:1px;stroke-linecap:butt;stroke-linejoin:miter;stroke-opacity:1" d="M 648.497,24.2037 668.701,24.2037 z" id="boundary" inkscape:connector-curvature="0" />
	<path style="fill:none;stroke:red;stroke-width:1px;stroke-linecap:butt;stroke-linejoin:miter;stroke-opacity:1" d="M 664.66,612.13 684.864,612.13 z" id="boundary" inkscape:connector-curvature="0" />
	<path style="fill:none;stroke:red;stroke-width:1px;stroke-linecap:butt;stroke-linejoin:miter;stroke-opacity:1" d="M 668.701,24.2037 676.782,4 z" id="boundary" inkscape:connector-curvature="0" />
	<path style="fill:none;stroke:red;stroke-width:1px;stroke-linecap:butt;stroke-linejoin:miter;stroke-opacity:1" d="M 676.782,4 696.986,4 z" id="boundary" inkscape:connector-curvature="0" />
	<path style="fill:none;stroke:red;stroke-width:1px;stroke-linecap:butt;stroke-linejoin:miter;stroke-opacity:1" d="M 684.864,612.13 705.067,612.13 z" id="boundary" inkscape:connector-curvature="0" />
	<path style="fill:none;stroke:red;stroke-width:1px;stroke-linecap:butt;stroke-linejoin:miter;stroke-opacity:1" d="M 696.986,4 717.189,4 z" id="boundary" inkscape:connector-curvature="0" />
	<path style="fill:none;stroke:red;stroke-width:1px;stroke-linecap:butt;stroke-linejoin:miter;stroke-opacity:1" d="M 705.067,612.13 725.271,612.13 z" id="boundary" inkscape:connector-curvature="0" />
	<path style="fill:none;stroke:red;stroke-width:1px;stroke-linecap:butt;stroke-linejoin:miter;stroke-opacity:1" d="M 717.189,4 737.393,4 z" id="boundary" inkscape:connector-curvature="0" />
	<path style="fill:none;stroke:red;stroke-width:1px;stroke-linecap:butt;stroke-linejoin:miter;stroke-opacity:1" d="M 725.271,612.13 745.475,612.13 z" id="boundary" inkscape:connector-curvature="0" />
	<path style="fill:none;stroke:red;stroke-width:1px;stroke-linecap:butt;stroke-linejoin:miter;stroke-opacity:1" d="M 737.393,4 757.597,4 z" id="boundary" inkscape:connector-curvature="0" />
	<path style="fill:none;stroke:red;stroke-width:1px;stroke-linecap:butt;stroke-linejoin:miter;stroke-opacity:1" d="M 745.475,612.13 765.678,612.13 z" id="boundary" inkscape:connector-curvature="0" />
	<path style="fill:none;stroke:red;stroke-width:1px;stroke-linecap:butt;stroke-linejoin:miter;stroke-opacity:1" d="M 757.597,4 777.8,4 z" id="boundary" inkscape:connector-curvature="0" />
	<path style="fill:none;stroke:red;stroke-width:1px;stroke-linecap:butt;stroke-linejoin:miter;stroke-opacity:1" d="M 765.678,612.13 773.76,591.927 z" id="boundary" inkscape:connector-curvature="0" />
	<path style="fill:none;stroke:red;stroke-width:1px;stroke-linecap:butt;stroke-linejoin:miter;stroke-opacity:1" d="M 773.76,591.927 793.963,591.927 z" id="boundary" inkscape:connector-curvature="0" />
	<path style="fill:none;stroke:red;stroke-width:1px;stroke-linecap:butt;stroke-linejoin:miter;stroke-opacity:1" d="M 777.8,4 798.004,4 z" id="boundary" inkscape:connector-curvature="0" />
	<path style="fill:none;stroke:red;stroke-width:1px;stroke-linecap:butt;stroke-linejoin:miter;stroke-opacity:1" d="M 793.963,591.927 814.167,591.927 z" id="boundary" inkscape:connector-curvature="0" />
	<path style="fill:none;stroke:red;stroke-width:1px;stroke-linecap:butt;stroke-linejoin:miter;stroke-opacity:1" d="M 798.004,4 818.208,4 z" id="boundary" inkscape:connector-curvature="0" />
	<path style="fill:none;stroke:red;stroke-width:1px;stroke-linecap:butt;stroke-linejoin:miter;stroke-opacity:1" d="M 814.167,591.927 834.371,591.927 z" id="boundary" inkscape:connector-curvature="0" />
	<path style="fill:none;stroke:red;stroke-width:1px;stroke-linecap:butt;stroke-linejoin:miter;stroke-opacity:1" d="M 818.208,4 838.411,4 z" id="boundary" inkscape:connector-curvature="0" />
	<path style="fill:none;stroke:red;stroke-width:1px;stroke-linecap:butt;stroke-linejoin:miter;stroke-opacity:1" d="M 834.371,591.927 854.574,591.927 z" id="boundary" inkscape:connector-curvature="0" />
	<path style="fill:none;stroke:red;stroke-width:1px;stroke-linecap:butt;stroke-linejoin:miter;stroke-opacity:1" d="M 838.411,4 858.615,4 z" id="boundary" inkscape:connector-curvature="0" />
	<path style="fill:none;stroke:red;stroke-width:1px;stroke-linecap:butt;stroke-linejoin:miter;stroke-opacity:1" d="M 854.574,591.927 874.778,591.927 z" id="boundary" inkscape:connector-curvature="0" />
	<path style="fill:none;stroke:red;stroke-width:1px;stroke-linecap:butt;stroke-linejoin:miter;stroke-opacity:1" d="M 858.615,4 878.819,4 z" id="boundary" inkscape:connector-curvature="0" />
	<path style="fill:none;stroke:red;stroke-width:1px;stroke-linecap:butt;stroke-linejoin:miter;stroke-opacity:1" d="M 874.778,591.927 894.982,591.927 z" id="boundary" inkscape:connector-curvature="0" />
	<path style="fill:none;stroke:red;stroke-width:1px;stroke-linecap:butt;stroke-linejoin:miter;stroke-opacity:1" d="M 878.819,4 899.022,4 z" id="boundary" inkscape:connector-curvature="0" />
	<path style="fill:none;stroke:red;stroke-width:1px;stroke-linecap:butt;stroke-linejoin:miter;stroke-opacity:1" d="M 894.982,591.927 915.185,591.927 z" id="boundary" inkscape:connector-curvature="0" />
	<path style="fill:none;stroke:red;stroke-width:1px;stroke-linecap:butt;stroke-linejoin:miter;stroke-opacity:1" d="M 899.022,4 919.226,4 z" id="boundary" inkscape:connector-curvature="0" />
	<path style="fill:none;stroke:red;stroke-width:1px;stroke-linecap:butt;stroke-linejoin:miter;stroke-opacity:1" d="M 915.185,591.927 935.389,591.927 z" id="boundary" inkscape:connector-curvature="0" />
	<path style="fill:none;stroke:red;stroke-width:1px;stroke-linecap:butt;stroke-linejoin:miter;stroke-opacity:1" d="M 919.226,4 939.43,4 z" id="boundary" inkscape:connector-curvature="0" />
	<path style="fill:none;stroke:red;stroke-width:1px;stroke-linecap:butt;stroke-linejoin:miter;stroke-opacity:1" d="M 935.389,591.927 955.593,591.927 z" id="boundary" inkscape:connector-curvature="0" />
	<path style="fill:none;stroke:red;stroke-width:1px;stroke-linecap:butt;stroke-linejoin:miter;stroke-opacity:1" d="M 939.43,4 959.633,4 z" id="boundary" inkscape:connector-curvature="0" />
	<path style="fill:none;stroke:red;stroke-width:1px;stroke-linecap:butt;stroke-linejoin:miter;stroke-opacity:1" d="M 955.593,591.927 975.796,591.927 z" id="boundary" inkscape:connector-curvature="0" />
	<path style="fill:none;stroke:red;stroke-width:1px;stroke-linecap:butt;stroke-linejoin:miter;stroke-opacity:1" d="M 959.633,4 975.796,16.1222 z" id="boundary" inkscape:connector-curvature="0" />
	<path style="fill:none;stroke:red;stroke-width:1px;stroke-linecap:butt;stroke-linejoin:miter;stroke-opacity:1" d="M 975.796,16.1222 975.796,36.3259 z" id="boundary" inkscape:connector-curvature="0" />
	<path style="fill:none;stroke:red;stroke-width:1px;stroke-linecap:butt;stroke-linejoin:miter;stroke-opacity:1" d="M 975.796,36.3259 975.796,56.5295 z" id="boundary" inkscape:connector-curvature="0" />
	<path style="fill:none;stroke:red;stroke-width:1px;stroke-linecap:butt;stroke-linejoin:miter;stroke-opacity:1" d="M 975.796,56.5295 975.796,76.7332 z" id="boundary" inkscape:connector-curvature="0" />
	<path style="fill:none;stroke:red;stroke-width:1px;stroke-linecap:butt;stroke-linejoin:miter;stroke-opacity:1" d="M 975.796,76.7332 975.796,96.9369 z" id="boundary" inkscape:connector-curvature="0" />
	<path style="fill:none;stroke:red;stroke-width:1px;stroke-linecap:butt;stroke-linejoin:miter;stroke-opacity:1" d="M 975.796,96.9369 975.796,117.141 z" id="boundary" inkscape:connector-curvature="0" />
	<path style="fill:none;stroke:red;stroke-width:1px;stroke-linecap:butt;stroke-linejoin:miter;stroke-opacity:1" d="M 975.796,117.141 975.796,137.344 z" id="boundary" inkscape:connector-curvature="0" />
	<path style="fill:none;stroke:red;stroke-width:1px;stroke-linecap:butt;stroke-linejoin:miter;stroke-opacity:1" d="M 975.796,137.344 975.796,157.548 z" id="boundary" inkscape:connector-curvature="0" />
	<path style="fill:none;stroke:red;stroke-width:1px;stroke-linecap:butt;stroke-linejoin:miter;stroke-opacity:1" d="M 975.796,157.548 975.796,177.752 z" id="boundary" inkscape:connector-curvature="0" />
	<path style="fill:none;stroke:red;stroke-width:1px;stroke-linecap:butt;stroke-linejoin:miter;stroke-opacity:1" d="M 975.796,177.752 975.796,197.955 z" id="boundary" inkscape:connector-curvature="0" />
	<path style="fill:none;stroke:red;stroke-width:1px;stroke-linecap:butt;stroke-linejoin:miter;stroke-opacity:1" d="M 975.796,197.955 975.796,218.159 z" id="boundary" inkscape:connector-curvature="0" />
	<path style="fill:none;stroke:red;stroke-width:1px;stroke-linecap:butt;stroke-linejoin:miter;stroke-opacity:1" d="M 975.796,218.159 975.796,238.363 z" id="boundary" inkscape:connector-curvature="0" />
	<path style="fill:none;stroke:red;stroke-width:1px;stroke-linecap:butt;stroke-linejoin:miter;stroke-opacity:1" d="M 975.796,238.363 975.796,258.566 z" id="boundary" inkscape:connector-curvature="0" />
	<path style="fill:none;stroke:red;stroke-width:1px;stroke-linecap:butt;stroke-linejoin:miter;stroke-opacity:1" d="M 975.796,258.566 991.959,270.688 z" id="boundary" inkscape:connector-curvature="0" />
	<path style="fill:none;stroke:red;stroke-width:1px;stroke-linecap:butt;stroke-linejoin:miter;stroke-opacity:1" d="M 975.796,591.927 996,573.743 z" id="boundary" inkscape:connector-curvature="0" />
	<path style="fill:none;stroke:red;stroke-width:1px;stroke-linecap:butt;stroke-linejoin:miter;stroke-opacity:1" d="M 991.959,270.688 996,290.892 z" id="boundary" inkscape:connector-curvature="0" />
	<path style="fill:none;stroke:red;stroke-width:1px;stroke-linecap:butt;stroke-linejoin:miter;stroke-opacity:1" d="M 996,290.892 996,311.096 z" id="boundary" inkscape:connector-curvature="0" />
	<path style="fill:none;stroke:red;stroke-width:1px;stroke-linecap:butt;stroke-linejoin:miter;stroke-opacity:1" d="M 996,311.096 996,331.299 z" id="boundary" inkscape:connector-curvature="0" />
	<path style="fill:none;stroke:red;stroke-width:1px;stroke-linecap:butt;stroke-linejoin:miter;stroke-opacity:1" d="M 996,331.299 996,351.503 z" id="boundary" inkscape:connector-curvature="0" />
	<path style="fill:none;stroke:red;stroke-width:1px;stroke-linecap:butt;stroke-linejoin:miter;stroke-opacity:1" d="M 996,351.503 996,371.707 z" id="boundary" inkscape:connector-curvature="0" />
	<path style="fill:none;stroke:red;stroke-width:1px;stroke-linecap:butt;stroke-linejoin:miter;stroke-opacity:1" d="M 996,371.707 996,391.91 z" id="boundary" inkscape:connector-curvature="0" />
	<path style="fill:none;stroke:red;stroke-width:1px;stroke-linecap:butt;stroke-linejoin:miter;stroke-opacity:1" d="M 996,391.91 996,412.114 z" id="boundary" inkscape:connector-curvature="0" />
	<path style="fill:none;stroke:red;stroke-width:1px;stroke-linecap:butt;stroke-linejoin:miter;stroke-opacity:1" d="M 996,412.114 996,432.318 z" id="boundary" inkscape:connector-curvature="0" />
	<path style="fill:none;stroke:red;stroke-width:1px;stroke-linecap:butt;stroke-linejoin:miter;stroke-opacity:1" d="M 996,432.318 996,452.521 z" id="boundary" inkscape:connector-curvature="0" />
	<path style="fill:none;stroke:red;stroke-width:1px;stroke-linecap:butt;stroke-linejoin:miter;stroke-opacity:1" d="M 996,452.521 996,472.725 z" id="boundary" inkscape:connector-curvature="0" />
	<path style="fill:none;stroke:red;stroke-width:1px;stroke-linecap:butt;stroke-linejoin:miter;stroke-opacity:1" d="M 996,472.725 996,492.929 z" id="boundary" inkscape:connector-curvature="0" />
	<path style="fill:none;stroke:red;stroke-width:1px;stroke-linecap:butt;stroke-linejoin:miter;stroke-opacity:1" d="M 996,492.929 996,513.132 z" id="boundary" inkscape:connector-curvature="0" />
	<path style="fill:none;stroke:red;stroke-width:1px;stroke-linecap:butt;stroke-linejoin:miter;stroke-opacity:1" d="M 996,513.132 996,533.336 z" id="boundary" inkscape:connector-curvature="0" />
	<path style="fill:none;stroke:red;stroke-width:1px;stroke-linecap:butt;stroke-linejoin:miter;stroke-opacity:1" d="M 996,533.336 996,553.54 z" id="boundary" inkscape:connector-curvature="0" />
	<path style="fill:none;stroke:red;stroke-width:1px;stroke-linecap:butt;stroke-linejoin:miter;stroke-opacity:1" d="M 996,553.54 996,573.743 z" id="boundary" inkscape:connector-curvature="0" />
	<circle cx="4" cy="40.3666" r="4" fill="#0" id="circle0"/>
	<circle cx="4" cy="60.5703" r="4" fill="#0" id="circle1"/>
	<circle cx="4" cy="80.7739" r="4" fill="#0" id="circle2"/>
	<circle cx="4" cy="100.978" r="4" fill="#0" id="circle3"/>
	<circle cx="4" cy="121.181" r="4" fill="#0" id="circle4"/>
	<circle cx="4" cy="141.385" r="4" fill="#0" id="circle5"/>
	<circle cx="4" cy="161.589" r="4" fill="#0" id="circle6"/>
	<circle cx="4" cy="181.792" r="4" fill="#0" id="circle7"/>
	<circle cx="4" cy="201.996" r="4" fill="#0" id="circle8"/>
	<circle cx="4" cy="222.2" r="4" fill="#0" id="circle9"/>
	<circle cx="4" cy="242.403" r="4" fill="#0" id="circle10"/>
	<circle cx="4" cy="262.607" r="4" fill="#0" id="circle11"/>
	<circle cx="4" cy="282.811" r="4" fill="#0" id="circle12"/>
	<circle cx="4" cy="303.014" r="4" fill="#0" id="circle13"/>
	<circle cx="4" cy="323.218" r="4" fill="#0" id="circle14"/>
	<circle cx="4" cy="343.422" r="4" fill="#0" id="circle15"/>
	<circle cx="4" cy="363.625" r="4" fill="#0" id="circle16"/>
	<circle cx="4" cy="383.829" r="4" fill="#0" id="circle17"/>
	<circle cx="24.2037" cy="34.3055" r="4" fill="#0" id="circle18"/>
	<circle cx="24.2037" cy="389.89" r="4" fill="#0" id="circle19"/>
	<circle cx="24.2037" cy="410.094" r="4" fill="#0" id="circle20"/>
	<circle cx="24.2037" cy="430.297" r="4" fill="#0" id="circle21"/>
	<circle cx="24.2037" cy="450.501" r="4" fill="#0" id="circle22"/>
	<circle cx="24.2037" cy="470.705" r="4" fill="#0" id="circle23"/>
	<circle cx="24.2037" cy="490.908" r="4" fill="#0" id="circle24"/>
	<circle cx="24.2037" cy="511.112" r="4" fill="#0" id="circle25"/>
	<circle cx="24.2037" cy="531.316" r="4" fill="#0" id="circle26"/>
	<circle cx="24.2037" cy="551.519" r="4" fill="#0" id="circle27"/>
	<circle cx="24.2037" cy="571.723" r="4" fill="#0" id="circle28"/>
	<circle cx="24.2037" cy="591.927" r="4" fill="#0" id="circle29"/>
	<circle cx="24.2037" cy="612.13" r="4" fill="#0" id="circle30"/>
	<circle cx="42.387" cy="622.232" r="4" fill="#0" id="circle31"/>
	<circle cx="44.4073" cy="34.3055" r="4" fill="#0" id="circle32"/>
	<circle cx="62.5906" cy="622.232" r="4" fill="#0" id="circle33"/>
	<circle cx="64.611" cy="34.3055" r="4" fill="#0" id="circle34"/>
	<circle cx="74.7128" cy="737.393" r="4" fill="#0" id="circle35"/>
	<circle cx="82.7943" cy="622.232" r="4" fill="#0" id="circle36"/>
	<circle cx="84.8147" cy="34.3055" r="4" fill="#0" id="circle37"/>
	<circle cx="94.9165" cy="717.189" r="4" fill="#0" id="circle38"/>
	<circle cx="94.9165" cy="743.454" r="4" fill="#0" id="circle39"/>
	<circle cx="102.998" cy="622.232" r="4" fill="#0" id="circle40"/>
	<circle cx="105.018" cy="34.3055" r="4" fill="#0" id="circle41"/>
	<circle cx="111.079" cy="701.026" r="4" fill="#0" id="circle42"/>
	<circle cx="115.12" cy="743.454" r="4" fill="#0" id="circle43"/>
	<circle cx="123.202" cy="622.232" r="4" fill="#0" id="circle44"/>
	<circle cx="125.222" cy="34.3055" r="4" fill="#0" id="circle45"/>
	<circle cx="127.242" cy="684.864" r="4" fill="#0" id="circle46"/>
	<circle cx="135.324" cy="656.578" r="4" fill="#0" id="circle47"/>
	<circle cx="135.324" cy="743.454" r="4" fill="#0" id="circle48"/>
	<circle cx="143.405" cy="622.232" r="4" fill="#0" id="circle49"/>
	<circle cx="145.426" cy="34.3055" r="4" fill="#0" id="circle50"/>
	<circle cx="155.527" cy="646.477" r="4" fill="#0" id="circle51"/>
	<circle cx="155.527" cy="737.393" r="4" fill="#0" id="circle52"/>
	<circle cx="157.548" cy="713.149" r="4" fill="#0" id="circle53"/>
	<circle cx="163.609" cy="622.232" r="4" fill="#0" id="circle54"/>
	<circle cx="165.629" cy="34.3055" r="4" fill="#0" id="circle55"/>
	<circle cx="177.752" cy="713.149" r="4" fill="#0" id="circle56"/>
	<circle cx="185.833" cy="34.3055" r="4" fill="#0" id="circle57"/>
	<circle cx="197.955" cy="703.047" r="4" fill="#0" id="circle58"/>
	<circle cx="206.037" cy="34.3055" r="4" fill="#0" id="circle59"/>
	<circle cx="218.159" cy="703.047" r="4" fill="#0" id="circle60"/>
	<circle cx="226.24" cy="34.3055" r="4" fill="#0" id="circle61"/>
	<circle cx="238.363" cy="682.843" r="4" fill="#0" id="circle62"/>
	<circle cx="244.424" cy="24.2037" r="4" fill="#0" id="circle63"/>
	<circle cx="258.566" cy="682.843" r="4" fill="#0" id="circle64"/>
	<circle cx="264.627" cy="24.2037" r="4" fill="#0" id="circle65"/>
	<circle cx="276.749" cy="672.741" r="4" fill="#0" id="circle66"/>
	<circle cx="284.831" cy="24.2037" r="4" fill="#0" id="circle67"/>
	<circle cx="296.953" cy="672.741" r="4" fill="#0" id="circle68"/>
	<circle cx="305.035" cy="24.2037" r="4" fill="#0" id="circle69"/>
	<circle cx="317.157" cy="666.68" r="4" fill="#0" id="circle70"/>
	<circle cx="325.238" cy="24.2037" r="4" fill="#0" id="circle71"/>
	<circle cx="333.32" cy="652.538" r="4" fill="#0" id="circle72"/>
	<circle cx="345.442" cy="24.2037" r="4" fill="#0" id="circle73"/>
	<circle cx="353.523" cy="650.517" r="4" fill="#0" id="circle74"/>
	<circle cx="365.646" cy="24.2037" r="4" fill="#0" id="circle75"/>
	<circle cx="373.727" cy="640.415" r="4" fill="#0" id="circle76"/>
	<circle cx="383.829" cy="622.232" r="4" fill="#0" id="circle77"/>
	<circle cx="385.849" cy="24.2037" r="4" fill="#0" id="circle78"/>
	<circle cx="404.033" cy="622.232" r="4" fill="#0" id="circle79"/>
	<circle cx="406.053" cy="24.2037" r="4" fill="#0" id="circle80"/>
	<circle cx="422.216" cy="612.13" r="4" fill="#0" id="circle81"/>
	<circle cx="426.257" cy="24.2037" r="4" fill="#0" id="circle82"/>
	<circle cx="442.42" cy="612.13" r="4" fill="#0" id="circle83"/>
	<circle cx="446.46" cy="24.2037" r="4" fill="#0" id="circle84"/>
	<circle cx="462.623" cy="612.13" r="4" fill="#0" id="circle85"/>
	<circle cx="466.664" cy="24.2037" r="4" fill="#0" id="circle86"/>
	<circle cx="482.827" cy="612.13" r="4" fill="#0" id="circle87"/>
	<circle cx="486.868" cy="24.2037" r="4" fill="#0" id="circle88"/>
	<circle cx="503.031" cy="612.13" r="4" fill="#0" id="circle89"/>
	<circle cx="507.071" cy="24.2037" r="4" fill="#0" id="circle90"/>
	<circle cx="523.234" cy="612.13" r="4" fill="#0" id="circle91"/>
	<circle cx="527.275" cy="24.2037" r="4" fill="#0" id="circle92"/>
	<circle cx="543.438" cy="612.13" r="4" fill="#0" id="circle93"/>
	<circle cx="547.479" cy="24.2037" r="4" fill="#0" id="circle94"/>
	<circle cx="563.642" cy="612.13" r="4" fill="#0" id="circle95"/>
	<circle cx="567.682" cy="24.2037" r="4" fill="#0" id="circle96"/>
	<circle cx="583.845" cy="612.13" r="4" fill="#0" id="circle97"/>
	<circle cx="587.886" cy="24.2037" r="4" fill="#0" id="circle98"/>
	<circle cx="604.049" cy="612.13" r="4" fill="#0" id="circle99"/>
	<circle cx="608.09" cy="24.2037" r="4" fill="#0" id="circle100"/>
	<circle cx="624.253" cy="612.13" r="4" fill="#0" id="circle101"/>
	<circle cx="628.293" cy="24.2037" r="4" fill="#0" id="circle102"/>
	<circle cx="644.456" cy="612.13" r="4" fill="#0" id="circle103"/>
	<circle cx="648.497" cy="24.2037" r="4" fill="#0" id="circle104"/>
	<circle cx="664.66" cy="612.13" r="4" fill="#0" id="circle105"/>
	<circle cx="668.701" cy="24.2037" r="4" fill="#0" id="circle106"/>
	<circle cx="676.782" cy="4" r="4" fill="#0" id="circle107"/>
	<circle cx="684.864" cy="612.13" r="4" fill="#0" id="circle108"/>
	<circle cx="696.986" cy="4" r="4" fill="#0" id="circle109"/>
	<circle cx="705.067" cy="612.13" r="4" fill="#0" id="circle110"/>
	<circle cx="717.189" cy="4" r="4" fill="#0" id="circle111"/>
	<circle cx="725.271" cy="612.13" r="4" fill="#0" id="circle112"/>
	<circle cx="737.393" cy="4" r="4" fill="#0" id="circle113"/>
	<circle cx="745.475" cy="612.13" r="4" fill="#0" id="circle114"/>
	<circle cx="757.597" cy="4" r="4" fill="#0" id="circle115"/>
	<circle cx="765.678" cy="612.13" r="4" fill="#0" id="circle116"/>
	<circle cx="773.76" cy="591.927" r="4" fill="#0" id="circle117"/>
	<circle cx="777.8" cy="4" r="4" fill="#0" id="circle118"/>
	<circle cx="793.963" cy="591.927" r="4" fill="#0" id="circle119"/>
	<circle cx="798.004" cy="4" r="4" fill="#0" id="circle120"/>
	<circle cx="814.167" cy="591.927" r="4" fill="#0" id="circle121"/>
	<circle cx="818.208" cy="4" r="4" fill="#0" id="circle122"/>
	<circle cx="834.371" cy="591.927" r="4" fill="#0" id="circle123"/>
	<circle cx="838.411" cy="4" r="4" fill="#0" id="circle124"/>
	<circle cx="854.574" cy="591.927" r="4" fill="#0" id="circle125"/>
	<circle cx="858.615" cy="4" r="4" fill="#0" id="circle126"/>
	<circle cx="874.778" cy="591.927" r="4" fill="#0" id="circle127"/>
	<circle cx="878.819" cy="4" r="4" fill="#0" id="circle128"/>
	<circle cx="894.982" cy="591.927" r="4" fill="#0" id="circle129"/>
	<circle cx="899.022" cy="4" r="4" fill="#0" id="circle130"/>
	<circle cx="915.185" cy="591.927" r="4" fill="#0" id="circle131"/>
	<circle cx="919.226" cy="4" r="4" fill="#0" id="circle132"/>
	<circle cx="935.389" cy="591.927" r="4" fill="#0" id="circle133"/>
	<circle cx="939.43" cy="4" r="4" fill="#0" id="circle134"/>
	<circle cx="955.593" cy="591.927" r="4" fill="#0" id="circle135"/>
	<circle cx="959.633" cy="4" r="4" fill="#0" id="circle136"/>
	<circle cx="975.796" cy="16.1222" r="4" fill="#0" id="circle137"/>
	<circle cx="975.796" cy="36.3259" r="4" fill="#0" id="circle138"/>
	<circle cx="975.796" cy="56.5295" r="4" fill="#0" id="circle139"/>
	<circle cx="975.796" cy="76.7332" r="4" fill="#0" id="circle140"/>
	<circle cx="975.796" cy="96.9369" r="4" fill="#0" id="circle141"/>
	<circle cx="975.796" cy="117.141" r="4" fill="#0" id="circle142"/>
	<circle cx="975.796" cy="137.344" r="4" fill="#0" id="circle143"/>
	<circle cx="975.796" cy="157.548" r="4" fill="#0" id="circle144"/>
	<circle cx="975.796" cy="177.752" r="4" fill="#0" id="circle145"/>
	<circle cx="975.796" cy="197.955" r="4" fill="#0" id="circle146"/>
	<circle cx="975.796" cy="218.159" r="4" fill="#0" id="circle147"/>
	<circle cx="975.796" cy="238.363" r="4" fill="#0" id="circle148"/>
	<circle cx="975.796" cy="258.566" r="4" fill="#0" id="circle149"/>
	<circle cx="975.796" cy="591.927" r="4" fill="#0" id="circle150"/>
	<circle cx="991.959" cy="270.688" r="4" fill="#0" id="circle151"/>
	<circle cx="996" cy="290.892" r="4" fill="#0" id="circle152"/>
	<circle cx="996" cy="311.096" r="4" fill="#0" id="circle153"/>
	<circle cx="996" cy="331.299" r="4" fill="#0" id="circle154"/>
	<circle cx="996" cy="351.503" r="4" fill="#0" id="circle155"/>
	<circle cx="996" cy="371.707" r="4" fill="#0" id="circle156"/>
	<circle cx="996" cy="391.91" r="4" fill="#0" id="circle157"/>
	<circle cx="996" cy="412.114" r="4" fill="#0" id="circle158"/>
	<circle cx="996" cy="432.318" r="4" fill="#0" id="circle159"/>
	<circle cx="996" cy="452.521" r="4" fill="#0" id="circle160"/>
	<circle cx="996" cy="472.725" r="4" fill="#0" id="circle161"/>
	<circle cx="996" cy="492.929" r="4" fill="#0" id="circle162"/>
	<circle cx="996" cy="513.132" r="4" fill="#0" id="circle163"/>
	<circle cx="996" cy="533.336" r="4" fill="#0" id="circle164"/>
	<circle cx="996" cy="553.54" r="4" fill="#0" id="circle165"/>
	<circle cx="996" cy="573.743" r="4" fill="#0" id="circle166"/>
	</g>
</svg>