<?xml version="1.0" encoding="UTF-8" standalone="no"?>
<!-- Created with CurveBenchmark -->
<svg
	xmlns:dc="http://purl.org/dc/elements/1.1/"
	xmlns:cc="http://creativecommons.org/ns#"
	xmlns:rdf="http://www.w3.org/1999/02/22-rdf-syntax-ns#"
	xmlns:svg="http://www.w3.org/2000/svg"
	xmlns="http://www.w3.org/2000/svg"
	xmlns:sodipodi="http://sodipodi.sourceforge.net/DTD/sodipodi-0.dtd"
	xmlns:inkscape="http://www.inkscape.org/namespaces/inkscape"
	width="1000"
	height="1000"
	id="svg2"
	version="1.1"
	sodipodi:docname="manifold/vicur-stef18.png.txt">
<defs
	id="defs4" />
<metadata
	id="metadata7">
	<rdf:RDF>
		<cc:Work
			rdf:about="">
			<dc:format>image/svg+xml</dc:format>
			<dc:type
				rdf:resource="http://purl.org/dc/dcmitype/StillImage" />
			<dc:title></dc:title>
		</cc:Work>
	</rdf:RDF>
</metadata>
<g
	inkscape:label="Layer 1"
	inkscape:groupmode="layer"
	id="layer1">
	<path style="fill:none;stroke:red;stroke-width:1px;stroke-linecap:butt;stroke-linejoin:miter;stroke-opacity:1" d="M 4,795.879 4,817.397 z" id="boundary" inkscape:connector-curvature="0" />
	<path style="fill:none;stroke:red;stroke-width:1px;stroke-linecap:butt;stroke-linejoin:miter;stroke-opacity:1" d="M 4,795.879 21.2148,778.664 z" id="boundary" inkscape:connector-curvature="0" />
	<path style="fill:none;stroke:red;stroke-width:1px;stroke-linecap:butt;stroke-linejoin:miter;stroke-opacity:1" d="M 4,817.397 21.2148,832.46 z" id="boundary" inkscape:connector-curvature="0" />
	<path style="fill:none;stroke:red;stroke-width:1px;stroke-linecap:butt;stroke-linejoin:miter;stroke-opacity:1" d="M 21.2148,778.664 40.5813,789.423 z" id="boundary" inkscape:connector-curvature="0" />
	<path style="fill:none;stroke:red;stroke-width:1px;stroke-linecap:butt;stroke-linejoin:miter;stroke-opacity:1" d="M 21.2148,832.46 40.5813,843.219 z" id="boundary" inkscape:connector-curvature="0" />
	<path style="fill:none;stroke:red;stroke-width:1px;stroke-linecap:butt;stroke-linejoin:miter;stroke-opacity:1" d="M 40.5813,789.423 59.9479,778.664 z" id="boundary" inkscape:connector-curvature="0" />
	<path style="fill:none;stroke:red;stroke-width:1px;stroke-linecap:butt;stroke-linejoin:miter;stroke-opacity:1" d="M 40.5813,843.219 62.0998,851.826 z" id="boundary" inkscape:connector-curvature="0" />
	<path style="fill:none;stroke:red;stroke-width:1px;stroke-linecap:butt;stroke-linejoin:miter;stroke-opacity:1" d="M 59.9479,778.664 81.4664,785.119 z" id="boundary" inkscape:connector-curvature="0" />
	<path style="fill:none;stroke:red;stroke-width:1px;stroke-linecap:butt;stroke-linejoin:miter;stroke-opacity:1" d="M 62.0998,851.826 79.3145,864.738 z" id="boundary" inkscape:connector-curvature="0" />
	<path style="fill:none;stroke:red;stroke-width:1px;stroke-linecap:butt;stroke-linejoin:miter;stroke-opacity:1" d="M 68.5553,31.974 68.5553,53.4924 z" id="boundary" inkscape:connector-curvature="0" />
	<path style="fill:none;stroke:red;stroke-width:1px;stroke-linecap:butt;stroke-linejoin:miter;stroke-opacity:1" d="M 68.5553,31.974 85.7701,14.7592 z" id="boundary" inkscape:connector-curvature="0" />
	<path style="fill:none;stroke:red;stroke-width:1px;stroke-linecap:butt;stroke-linejoin:miter;stroke-opacity:1" d="M 68.5553,53.4924 79.3145,72.859 z" id="boundary" inkscape:connector-curvature="0" />
	<path style="fill:none;stroke:red;stroke-width:1px;stroke-linecap:butt;stroke-linejoin:miter;stroke-opacity:1" d="M 79.3145,72.859 100.833,81.4664 z" id="boundary" inkscape:connector-curvature="0" />
	<path style="fill:none;stroke:red;stroke-width:1px;stroke-linecap:butt;stroke-linejoin:miter;stroke-opacity:1" d="M 79.3145,864.738 96.5293,877.649 z" id="boundary" inkscape:connector-curvature="0" />
	<path style="fill:none;stroke:red;stroke-width:1px;stroke-linecap:butt;stroke-linejoin:miter;stroke-opacity:1" d="M 81.4664,785.119 102.985,778.664 z" id="boundary" inkscape:connector-curvature="0" />
	<path style="fill:none;stroke:red;stroke-width:1px;stroke-linecap:butt;stroke-linejoin:miter;stroke-opacity:1" d="M 85.7701,14.7592 105.137,4 z" id="boundary" inkscape:connector-curvature="0" />
	<path style="fill:none;stroke:red;stroke-width:1px;stroke-linecap:butt;stroke-linejoin:miter;stroke-opacity:1" d="M 96.5293,877.649 115.896,888.408 z" id="boundary" inkscape:connector-curvature="0" />
	<path style="fill:none;stroke:red;stroke-width:1px;stroke-linecap:butt;stroke-linejoin:miter;stroke-opacity:1" d="M 100.833,81.4664 113.744,98.6811 z" id="boundary" inkscape:connector-curvature="0" />
	<path style="fill:none;stroke:red;stroke-width:1px;stroke-linecap:butt;stroke-linejoin:miter;stroke-opacity:1" d="M 102.985,778.664 122.351,767.905 z" id="boundary" inkscape:connector-curvature="0" />
	<path style="fill:none;stroke:red;stroke-width:1px;stroke-linecap:butt;stroke-linejoin:miter;stroke-opacity:1" d="M 105.137,4 126.655,4 z" id="boundary" inkscape:connector-curvature="0" />
	<path style="fill:none;stroke:red;stroke-width:1px;stroke-linecap:butt;stroke-linejoin:miter;stroke-opacity:1" d="M 113.744,98.6811 130.959,113.744 z" id="boundary" inkscape:connector-curvature="0" />
	<path style="fill:none;stroke:red;stroke-width:1px;stroke-linecap:butt;stroke-linejoin:miter;stroke-opacity:1" d="M 115.896,888.408 135.262,899.167 z" id="boundary" inkscape:connector-curvature="0" />
	<path style="fill:none;stroke:red;stroke-width:1px;stroke-linecap:butt;stroke-linejoin:miter;stroke-opacity:1" d="M 122.351,767.905 141.718,757.145 z" id="boundary" inkscape:connector-curvature="0" />
	<path style="fill:none;stroke:red;stroke-width:1px;stroke-linecap:butt;stroke-linejoin:miter;stroke-opacity:1" d="M 126.655,4 148.174,4 z" id="boundary" inkscape:connector-curvature="0" />
	<path style="fill:none;stroke:red;stroke-width:1px;stroke-linecap:butt;stroke-linejoin:miter;stroke-opacity:1" d="M 130.959,113.744 146.022,130.959 z" id="boundary" inkscape:connector-curvature="0" />
	<path style="fill:none;stroke:red;stroke-width:1px;stroke-linecap:butt;stroke-linejoin:miter;stroke-opacity:1" d="M 135.262,899.167 156.781,888.408 z" id="boundary" inkscape:connector-curvature="0" />
	<path style="fill:none;stroke:red;stroke-width:1px;stroke-linecap:butt;stroke-linejoin:miter;stroke-opacity:1" d="M 141.718,757.145 143.87,731.323 z" id="boundary" inkscape:connector-curvature="0" />
	<path style="fill:none;stroke:red;stroke-width:1px;stroke-linecap:butt;stroke-linejoin:miter;stroke-opacity:1" d="M 143.87,731.323 154.629,709.805 z" id="boundary" inkscape:connector-curvature="0" />
	<path style="fill:none;stroke:red;stroke-width:1px;stroke-linecap:butt;stroke-linejoin:miter;stroke-opacity:1" d="M 146.022,130.959 163.236,146.022 z" id="boundary" inkscape:connector-curvature="0" />
	<path style="fill:none;stroke:red;stroke-width:1px;stroke-linecap:butt;stroke-linejoin:miter;stroke-opacity:1" d="M 148.174,4 169.692,4 z" id="boundary" inkscape:connector-curvature="0" />
	<path style="fill:none;stroke:red;stroke-width:1px;stroke-linecap:butt;stroke-linejoin:miter;stroke-opacity:1" d="M 154.629,709.805 165.388,677.527 z" id="boundary" inkscape:connector-curvature="0" />
	<path style="fill:none;stroke:red;stroke-width:1px;stroke-linecap:butt;stroke-linejoin:miter;stroke-opacity:1" d="M 156.781,888.408 173.996,873.345 z" id="boundary" inkscape:connector-curvature="0" />
	<path style="fill:none;stroke:red;stroke-width:1px;stroke-linecap:butt;stroke-linejoin:miter;stroke-opacity:1" d="M 163.236,146.022 182.603,156.781 z" id="boundary" inkscape:connector-curvature="0" />
	<path style="fill:none;stroke:red;stroke-width:1px;stroke-linecap:butt;stroke-linejoin:miter;stroke-opacity:1" d="M 165.388,677.527 176.148,645.249 z" id="boundary" inkscape:connector-curvature="0" />
	<path style="fill:none;stroke:red;stroke-width:1px;stroke-linecap:butt;stroke-linejoin:miter;stroke-opacity:1" d="M 169.692,4 191.21,4 z" id="boundary" inkscape:connector-curvature="0" />
	<path style="fill:none;stroke:red;stroke-width:1px;stroke-linecap:butt;stroke-linejoin:miter;stroke-opacity:1" d="M 173.996,873.345 178.299,834.612 z" id="boundary" inkscape:connector-curvature="0" />
	<path style="fill:none;stroke:red;stroke-width:1px;stroke-linecap:butt;stroke-linejoin:miter;stroke-opacity:1" d="M 176.148,645.249 186.907,623.731 z" id="boundary" inkscape:connector-curvature="0" />
	<path style="fill:none;stroke:red;stroke-width:1px;stroke-linecap:butt;stroke-linejoin:miter;stroke-opacity:1" d="M 178.299,834.612 195.514,819.549 z" id="boundary" inkscape:connector-curvature="0" />
	<path style="fill:none;stroke:red;stroke-width:1px;stroke-linecap:butt;stroke-linejoin:miter;stroke-opacity:1" d="M 182.603,156.781 199.818,171.844 z" id="boundary" inkscape:connector-curvature="0" />
	<path style="fill:none;stroke:red;stroke-width:1px;stroke-linecap:butt;stroke-linejoin:miter;stroke-opacity:1" d="M 186.907,623.731 197.666,591.453 z" id="boundary" inkscape:connector-curvature="0" />
	<path style="fill:none;stroke:red;stroke-width:1px;stroke-linecap:butt;stroke-linejoin:miter;stroke-opacity:1" d="M 191.21,4 210.577,14.7592 z" id="boundary" inkscape:connector-curvature="0" />
	<path style="fill:none;stroke:red;stroke-width:1px;stroke-linecap:butt;stroke-linejoin:miter;stroke-opacity:1" d="M 195.514,819.549 210.577,802.334 z" id="boundary" inkscape:connector-curvature="0" />
	<path style="fill:none;stroke:red;stroke-width:1px;stroke-linecap:butt;stroke-linejoin:miter;stroke-opacity:1" d="M 197.666,193.362 199.818,171.844 z" id="boundary" inkscape:connector-curvature="0" />
	<path style="fill:none;stroke:red;stroke-width:1px;stroke-linecap:butt;stroke-linejoin:miter;stroke-opacity:1" d="M 197.666,193.362 208.425,212.729 z" id="boundary" inkscape:connector-curvature="0" />
	<path style="fill:none;stroke:red;stroke-width:1px;stroke-linecap:butt;stroke-linejoin:miter;stroke-opacity:1" d="M 197.666,548.416 197.666,569.935 z" id="boundary" inkscape:connector-curvature="0" />
	<path style="fill:none;stroke:red;stroke-width:1px;stroke-linecap:butt;stroke-linejoin:miter;stroke-opacity:1" d="M 197.666,548.416 208.425,526.898 z" id="boundary" inkscape:connector-curvature="0" />
	<path style="fill:none;stroke:red;stroke-width:1px;stroke-linecap:butt;stroke-linejoin:miter;stroke-opacity:1" d="M 197.666,569.935 197.666,591.453 z" id="boundary" inkscape:connector-curvature="0" />
	<path style="fill:none;stroke:red;stroke-width:1px;stroke-linecap:butt;stroke-linejoin:miter;stroke-opacity:1" d="M 208.425,212.729 223.488,229.944 z" id="boundary" inkscape:connector-curvature="0" />
	<path style="fill:none;stroke:red;stroke-width:1px;stroke-linecap:butt;stroke-linejoin:miter;stroke-opacity:1" d="M 208.425,526.898 225.64,509.683 z" id="boundary" inkscape:connector-curvature="0" />
	<path style="fill:none;stroke:red;stroke-width:1px;stroke-linecap:butt;stroke-linejoin:miter;stroke-opacity:1" d="M 210.577,14.7592 227.792,27.6703 z" id="boundary" inkscape:connector-curvature="0" />
	<path style="fill:none;stroke:red;stroke-width:1px;stroke-linecap:butt;stroke-linejoin:miter;stroke-opacity:1" d="M 210.577,802.334 221.336,780.816 z" id="boundary" inkscape:connector-curvature="0" />
	<path style="fill:none;stroke:red;stroke-width:1px;stroke-linecap:butt;stroke-linejoin:miter;stroke-opacity:1" d="M 221.336,780.816 232.095,748.538 z" id="boundary" inkscape:connector-curvature="0" />
	<path style="fill:none;stroke:red;stroke-width:1px;stroke-linecap:butt;stroke-linejoin:miter;stroke-opacity:1" d="M 223.488,229.944 245.007,232.095 z" id="boundary" inkscape:connector-curvature="0" />
	<path style="fill:none;stroke:red;stroke-width:1px;stroke-linecap:butt;stroke-linejoin:miter;stroke-opacity:1" d="M 225.64,509.683 229.944,483.861 z" id="boundary" inkscape:connector-curvature="0" />
	<path style="fill:none;stroke:red;stroke-width:1px;stroke-linecap:butt;stroke-linejoin:miter;stroke-opacity:1" d="M 227.792,27.6703 238.551,47.0369 z" id="boundary" inkscape:connector-curvature="0" />
	<path style="fill:none;stroke:red;stroke-width:1px;stroke-linecap:butt;stroke-linejoin:miter;stroke-opacity:1" d="M 229.944,483.861 251.462,473.102 z" id="boundary" inkscape:connector-curvature="0" />
	<path style="fill:none;stroke:red;stroke-width:1px;stroke-linecap:butt;stroke-linejoin:miter;stroke-opacity:1" d="M 232.095,748.538 242.855,727.02 z" id="boundary" inkscape:connector-curvature="0" />
	<path style="fill:none;stroke:red;stroke-width:1px;stroke-linecap:butt;stroke-linejoin:miter;stroke-opacity:1" d="M 238.551,47.0369 253.614,64.2516 z" id="boundary" inkscape:connector-curvature="0" />
	<path style="fill:none;stroke:red;stroke-width:1px;stroke-linecap:butt;stroke-linejoin:miter;stroke-opacity:1" d="M 242.855,727.02 260.069,711.957 z" id="boundary" inkscape:connector-curvature="0" />
	<path style="fill:none;stroke:red;stroke-width:1px;stroke-linecap:butt;stroke-linejoin:miter;stroke-opacity:1" d="M 245.007,232.095 262.221,245.007 z" id="boundary" inkscape:connector-curvature="0" />
	<path style="fill:none;stroke:red;stroke-width:1px;stroke-linecap:butt;stroke-linejoin:miter;stroke-opacity:1" d="M 251.462,473.102 268.677,455.887 z" id="boundary" inkscape:connector-curvature="0" />
	<path style="fill:none;stroke:red;stroke-width:1px;stroke-linecap:butt;stroke-linejoin:miter;stroke-opacity:1" d="M 253.614,64.2516 272.98,75.0108 z" id="boundary" inkscape:connector-curvature="0" />
	<path style="fill:none;stroke:red;stroke-width:1px;stroke-linecap:butt;stroke-linejoin:miter;stroke-opacity:1" d="M 260.069,711.957 264.373,683.983 z" id="boundary" inkscape:connector-curvature="0" />
	<path style="fill:none;stroke:red;stroke-width:1px;stroke-linecap:butt;stroke-linejoin:miter;stroke-opacity:1" d="M 262.221,245.007 283.74,242.855 z" id="boundary" inkscape:connector-curvature="0" />
	<path style="fill:none;stroke:red;stroke-width:1px;stroke-linecap:butt;stroke-linejoin:miter;stroke-opacity:1" d="M 264.373,662.464 264.373,683.983 z" id="boundary" inkscape:connector-curvature="0" />
	<path style="fill:none;stroke:red;stroke-width:1px;stroke-linecap:butt;stroke-linejoin:miter;stroke-opacity:1" d="M 264.373,662.464 275.132,640.946 z" id="boundary" inkscape:connector-curvature="0" />
	<path style="fill:none;stroke:red;stroke-width:1px;stroke-linecap:butt;stroke-linejoin:miter;stroke-opacity:1" d="M 268.677,455.887 290.195,445.128 z" id="boundary" inkscape:connector-curvature="0" />
	<path style="fill:none;stroke:red;stroke-width:1px;stroke-linecap:butt;stroke-linejoin:miter;stroke-opacity:1" d="M 272.98,75.0108 294.499,68.5553 z" id="boundary" inkscape:connector-curvature="0" />
	<path style="fill:none;stroke:red;stroke-width:1px;stroke-linecap:butt;stroke-linejoin:miter;stroke-opacity:1" d="M 275.132,619.427 275.132,640.946 z" id="boundary" inkscape:connector-curvature="0" />
	<path style="fill:none;stroke:red;stroke-width:1px;stroke-linecap:butt;stroke-linejoin:miter;stroke-opacity:1" d="M 275.132,619.427 285.892,587.15 z" id="boundary" inkscape:connector-curvature="0" />
	<path style="fill:none;stroke:red;stroke-width:1px;stroke-linecap:butt;stroke-linejoin:miter;stroke-opacity:1" d="M 283.74,242.855 296.651,260.069 z" id="boundary" inkscape:connector-curvature="0" />
	<path style="fill:none;stroke:red;stroke-width:1px;stroke-linecap:butt;stroke-linejoin:miter;stroke-opacity:1" d="M 285.892,544.113 285.892,565.631 z" id="boundary" inkscape:connector-curvature="0" />
	<path style="fill:none;stroke:red;stroke-width:1px;stroke-linecap:butt;stroke-linejoin:miter;stroke-opacity:1" d="M 285.892,544.113 303.106,529.05 z" id="boundary" inkscape:connector-curvature="0" />
	<path style="fill:none;stroke:red;stroke-width:1px;stroke-linecap:butt;stroke-linejoin:miter;stroke-opacity:1" d="M 285.892,565.631 285.892,587.15 z" id="boundary" inkscape:connector-curvature="0" />
	<path style="fill:none;stroke:red;stroke-width:1px;stroke-linecap:butt;stroke-linejoin:miter;stroke-opacity:1" d="M 290.195,445.128 307.41,427.913 z" id="boundary" inkscape:connector-curvature="0" />
	<path style="fill:none;stroke:red;stroke-width:1px;stroke-linecap:butt;stroke-linejoin:miter;stroke-opacity:1" d="M 294.499,68.5553 316.017,68.5553 z" id="boundary" inkscape:connector-curvature="0" />
	<path style="fill:none;stroke:red;stroke-width:1px;stroke-linecap:butt;stroke-linejoin:miter;stroke-opacity:1" d="M 296.651,260.069 318.169,268.677 z" id="boundary" inkscape:connector-curvature="0" />
	<path style="fill:none;stroke:red;stroke-width:1px;stroke-linecap:butt;stroke-linejoin:miter;stroke-opacity:1" d="M 303.106,529.05 324.625,529.05 z" id="boundary" inkscape:connector-curvature="0" />
	<path style="fill:none;stroke:red;stroke-width:1px;stroke-linecap:butt;stroke-linejoin:miter;stroke-opacity:1" d="M 307.41,427.913 328.928,417.154 z" id="boundary" inkscape:connector-curvature="0" />
	<path style="fill:none;stroke:red;stroke-width:1px;stroke-linecap:butt;stroke-linejoin:miter;stroke-opacity:1" d="M 316.017,68.5553 337.536,72.859 z" id="boundary" inkscape:connector-curvature="0" />
	<path style="fill:none;stroke:red;stroke-width:1px;stroke-linecap:butt;stroke-linejoin:miter;stroke-opacity:1" d="M 318.169,268.677 337.536,279.436 z" id="boundary" inkscape:connector-curvature="0" />
	<path style="fill:none;stroke:red;stroke-width:1px;stroke-linecap:butt;stroke-linejoin:miter;stroke-opacity:1" d="M 324.625,529.05 339.688,511.835 z" id="boundary" inkscape:connector-curvature="0" />
	<path style="fill:none;stroke:red;stroke-width:1px;stroke-linecap:butt;stroke-linejoin:miter;stroke-opacity:1" d="M 328.928,417.154 350.447,406.395 z" id="boundary" inkscape:connector-curvature="0" />
	<path style="fill:none;stroke:red;stroke-width:1px;stroke-linecap:butt;stroke-linejoin:miter;stroke-opacity:1" d="M 337.536,72.859 359.054,79.3145 z" id="boundary" inkscape:connector-curvature="0" />
	<path style="fill:none;stroke:red;stroke-width:1px;stroke-linecap:butt;stroke-linejoin:miter;stroke-opacity:1" d="M 337.536,279.436 350.447,296.651 z" id="boundary" inkscape:connector-curvature="0" />
	<path style="fill:none;stroke:red;stroke-width:1px;stroke-linecap:butt;stroke-linejoin:miter;stroke-opacity:1" d="M 339.688,511.835 361.206,501.076 z" id="boundary" inkscape:connector-curvature="0" />
	<path style="fill:none;stroke:red;stroke-width:1px;stroke-linecap:butt;stroke-linejoin:miter;stroke-opacity:1" d="M 350.447,296.651 363.358,313.866 z" id="boundary" inkscape:connector-curvature="0" />
	<path style="fill:none;stroke:red;stroke-width:1px;stroke-linecap:butt;stroke-linejoin:miter;stroke-opacity:1" d="M 350.447,406.395 367.662,391.332 z" id="boundary" inkscape:connector-curvature="0" />
	<path style="fill:none;stroke:red;stroke-width:1px;stroke-linecap:butt;stroke-linejoin:miter;stroke-opacity:1" d="M 359.054,79.3145 380.573,83.6182 z" id="boundary" inkscape:connector-curvature="0" />
	<path style="fill:none;stroke:red;stroke-width:1px;stroke-linecap:butt;stroke-linejoin:miter;stroke-opacity:1" d="M 361.206,501.076 382.725,490.317 z" id="boundary" inkscape:connector-curvature="0" />
	<path style="fill:none;stroke:red;stroke-width:1px;stroke-linecap:butt;stroke-linejoin:miter;stroke-opacity:1" d="M 363.358,313.866 380.573,326.777 z" id="boundary" inkscape:connector-curvature="0" />
	<path style="fill:none;stroke:red;stroke-width:1px;stroke-linecap:butt;stroke-linejoin:miter;stroke-opacity:1" d="M 367.662,391.332 380.573,374.117 z" id="boundary" inkscape:connector-curvature="0" />
	<path style="fill:none;stroke:red;stroke-width:1px;stroke-linecap:butt;stroke-linejoin:miter;stroke-opacity:1" d="M 369.813,354.751 380.573,326.777 z" id="boundary" inkscape:connector-curvature="0" />
	<path style="fill:none;stroke:red;stroke-width:1px;stroke-linecap:butt;stroke-linejoin:miter;stroke-opacity:1" d="M 369.813,354.751 380.573,374.117 z" id="boundary" inkscape:connector-curvature="0" />
	<path style="fill:none;stroke:red;stroke-width:1px;stroke-linecap:butt;stroke-linejoin:miter;stroke-opacity:1" d="M 380.573,83.6182 393.484,100.833 z" id="boundary" inkscape:connector-curvature="0" />
	<path style="fill:none;stroke:red;stroke-width:1px;stroke-linecap:butt;stroke-linejoin:miter;stroke-opacity:1" d="M 382.725,490.317 404.243,479.557 z" id="boundary" inkscape:connector-curvature="0" />
	<path style="fill:none;stroke:red;stroke-width:1px;stroke-linecap:butt;stroke-linejoin:miter;stroke-opacity:1" d="M 393.484,100.833 415.002,96.5293 z" id="boundary" inkscape:connector-curvature="0" />
	<path style="fill:none;stroke:red;stroke-width:1px;stroke-linecap:butt;stroke-linejoin:miter;stroke-opacity:1" d="M 404.243,479.557 425.761,479.557 z" id="boundary" inkscape:connector-curvature="0" />
	<path style="fill:none;stroke:red;stroke-width:1px;stroke-linecap:butt;stroke-linejoin:miter;stroke-opacity:1" d="M 415.002,96.5293 434.369,107.289 z" id="boundary" inkscape:connector-curvature="0" />
	<path style="fill:none;stroke:red;stroke-width:1px;stroke-linecap:butt;stroke-linejoin:miter;stroke-opacity:1" d="M 425.761,479.557 447.28,483.861 z" id="boundary" inkscape:connector-curvature="0" />
	<path style="fill:none;stroke:red;stroke-width:1px;stroke-linecap:butt;stroke-linejoin:miter;stroke-opacity:1" d="M 434.369,107.289 455.887,115.896 z" id="boundary" inkscape:connector-curvature="0" />
	<path style="fill:none;stroke:red;stroke-width:1px;stroke-linecap:butt;stroke-linejoin:miter;stroke-opacity:1" d="M 447.28,483.861 468.798,479.557 z" id="boundary" inkscape:connector-curvature="0" />
	<path style="fill:none;stroke:red;stroke-width:1px;stroke-linecap:butt;stroke-linejoin:miter;stroke-opacity:1" d="M 455.887,115.896 475.254,126.655 z" id="boundary" inkscape:connector-curvature="0" />
	<path style="fill:none;stroke:red;stroke-width:1px;stroke-linecap:butt;stroke-linejoin:miter;stroke-opacity:1" d="M 468.798,479.557 490.317,479.557 z" id="boundary" inkscape:connector-curvature="0" />
	<path style="fill:none;stroke:red;stroke-width:1px;stroke-linecap:butt;stroke-linejoin:miter;stroke-opacity:1" d="M 475.254,126.655 496.772,135.262 z" id="boundary" inkscape:connector-curvature="0" />
	<path style="fill:none;stroke:red;stroke-width:1px;stroke-linecap:butt;stroke-linejoin:miter;stroke-opacity:1" d="M 490.317,479.557 509.683,468.798 z" id="boundary" inkscape:connector-curvature="0" />
	<path style="fill:none;stroke:red;stroke-width:1px;stroke-linecap:butt;stroke-linejoin:miter;stroke-opacity:1" d="M 496.772,135.262 516.139,146.022 z" id="boundary" inkscape:connector-curvature="0" />
	<path style="fill:none;stroke:red;stroke-width:1px;stroke-linecap:butt;stroke-linejoin:miter;stroke-opacity:1" d="M 509.683,468.798 531.202,468.798 z" id="boundary" inkscape:connector-curvature="0" />
	<path style="fill:none;stroke:red;stroke-width:1px;stroke-linecap:butt;stroke-linejoin:miter;stroke-opacity:1" d="M 516.139,146.022 526.898,165.388 z" id="boundary" inkscape:connector-curvature="0" />
	<path style="fill:none;stroke:red;stroke-width:1px;stroke-linecap:butt;stroke-linejoin:miter;stroke-opacity:1" d="M 520.443,494.62 531.202,468.798 z" id="boundary" inkscape:connector-curvature="0" />
	<path style="fill:none;stroke:red;stroke-width:1px;stroke-linecap:butt;stroke-linejoin:miter;stroke-opacity:1" d="M 520.443,494.62 531.202,513.987 z" id="boundary" inkscape:connector-curvature="0" />
	<path style="fill:none;stroke:red;stroke-width:1px;stroke-linecap:butt;stroke-linejoin:miter;stroke-opacity:1" d="M 526.898,165.388 541.961,182.603 z" id="boundary" inkscape:connector-curvature="0" />
	<path style="fill:none;stroke:red;stroke-width:1px;stroke-linecap:butt;stroke-linejoin:miter;stroke-opacity:1" d="M 531.202,513.987 541.961,533.354 z" id="boundary" inkscape:connector-curvature="0" />
	<path style="fill:none;stroke:red;stroke-width:1px;stroke-linecap:butt;stroke-linejoin:miter;stroke-opacity:1" d="M 541.961,182.603 559.176,197.666 z" id="boundary" inkscape:connector-curvature="0" />
	<path style="fill:none;stroke:red;stroke-width:1px;stroke-linecap:butt;stroke-linejoin:miter;stroke-opacity:1" d="M 541.961,533.354 548.416,554.872 z" id="boundary" inkscape:connector-curvature="0" />
	<path style="fill:none;stroke:red;stroke-width:1px;stroke-linecap:butt;stroke-linejoin:miter;stroke-opacity:1" d="M 548.416,554.872 552.72,576.39 z" id="boundary" inkscape:connector-curvature="0" />
	<path style="fill:none;stroke:red;stroke-width:1px;stroke-linecap:butt;stroke-linejoin:miter;stroke-opacity:1" d="M 552.72,576.39 563.479,595.757 z" id="boundary" inkscape:connector-curvature="0" />
	<path style="fill:none;stroke:red;stroke-width:1px;stroke-linecap:butt;stroke-linejoin:miter;stroke-opacity:1" d="M 559.176,197.666 565.631,219.184 z" id="boundary" inkscape:connector-curvature="0" />
	<path style="fill:none;stroke:red;stroke-width:1px;stroke-linecap:butt;stroke-linejoin:miter;stroke-opacity:1" d="M 563.479,595.757 576.39,612.972 z" id="boundary" inkscape:connector-curvature="0" />
	<path style="fill:none;stroke:red;stroke-width:1px;stroke-linecap:butt;stroke-linejoin:miter;stroke-opacity:1" d="M 565.631,219.184 576.39,238.551 z" id="boundary" inkscape:connector-curvature="0" />
	<path style="fill:none;stroke:red;stroke-width:1px;stroke-linecap:butt;stroke-linejoin:miter;stroke-opacity:1" d="M 576.39,238.551 587.15,257.918 z" id="boundary" inkscape:connector-curvature="0" />
	<path style="fill:none;stroke:red;stroke-width:1px;stroke-linecap:butt;stroke-linejoin:miter;stroke-opacity:1" d="M 576.39,612.972 591.453,630.187 z" id="boundary" inkscape:connector-curvature="0" />
	<path style="fill:none;stroke:red;stroke-width:1px;stroke-linecap:butt;stroke-linejoin:miter;stroke-opacity:1" d="M 587.15,257.918 587.15,279.436 z" id="boundary" inkscape:connector-curvature="0" />
	<path style="fill:none;stroke:red;stroke-width:1px;stroke-linecap:butt;stroke-linejoin:miter;stroke-opacity:1" d="M 587.15,279.436 604.364,294.499 z" id="boundary" inkscape:connector-curvature="0" />
	<path style="fill:none;stroke:red;stroke-width:1px;stroke-linecap:butt;stroke-linejoin:miter;stroke-opacity:1" d="M 591.453,630.187 608.668,645.249 z" id="boundary" inkscape:connector-curvature="0" />
	<path style="fill:none;stroke:red;stroke-width:1px;stroke-linecap:butt;stroke-linejoin:miter;stroke-opacity:1" d="M 604.364,294.499 623.731,305.258 z" id="boundary" inkscape:connector-curvature="0" />
	<path style="fill:none;stroke:red;stroke-width:1px;stroke-linecap:butt;stroke-linejoin:miter;stroke-opacity:1" d="M 608.668,645.249 630.187,640.946 z" id="boundary" inkscape:connector-curvature="0" />
	<path style="fill:none;stroke:red;stroke-width:1px;stroke-linecap:butt;stroke-linejoin:miter;stroke-opacity:1" d="M 623.731,305.258 643.098,316.017 z" id="boundary" inkscape:connector-curvature="0" />
	<path style="fill:none;stroke:red;stroke-width:1px;stroke-linecap:butt;stroke-linejoin:miter;stroke-opacity:1" d="M 630.187,640.946 649.553,651.705 z" id="boundary" inkscape:connector-curvature="0" />
	<path style="fill:none;stroke:red;stroke-width:1px;stroke-linecap:butt;stroke-linejoin:miter;stroke-opacity:1" d="M 643.098,316.017 651.705,337.536 z" id="boundary" inkscape:connector-curvature="0" />
	<path style="fill:none;stroke:red;stroke-width:1px;stroke-linecap:butt;stroke-linejoin:miter;stroke-opacity:1" d="M 649.553,651.705 671.072,651.705 z" id="boundary" inkscape:connector-curvature="0" />
	<path style="fill:none;stroke:red;stroke-width:1px;stroke-linecap:butt;stroke-linejoin:miter;stroke-opacity:1" d="M 651.705,337.536 668.92,350.447 z" id="boundary" inkscape:connector-curvature="0" />
	<path style="fill:none;stroke:red;stroke-width:1px;stroke-linecap:butt;stroke-linejoin:miter;stroke-opacity:1" d="M 668.92,350.447 673.223,371.965 z" id="boundary" inkscape:connector-curvature="0" />
	<path style="fill:none;stroke:red;stroke-width:1px;stroke-linecap:butt;stroke-linejoin:miter;stroke-opacity:1" d="M 671.072,651.705 683.983,668.92 z" id="boundary" inkscape:connector-curvature="0" />
	<path style="fill:none;stroke:red;stroke-width:1px;stroke-linecap:butt;stroke-linejoin:miter;stroke-opacity:1" d="M 673.223,371.965 673.223,393.484 z" id="boundary" inkscape:connector-curvature="0" />
	<path style="fill:none;stroke:red;stroke-width:1px;stroke-linecap:butt;stroke-linejoin:miter;stroke-opacity:1" d="M 673.223,393.484 673.223,415.002 z" id="boundary" inkscape:connector-curvature="0" />
	<path style="fill:none;stroke:red;stroke-width:1px;stroke-linecap:butt;stroke-linejoin:miter;stroke-opacity:1" d="M 673.223,415.002 673.223,436.521 z" id="boundary" inkscape:connector-curvature="0" />
	<path style="fill:none;stroke:red;stroke-width:1px;stroke-linecap:butt;stroke-linejoin:miter;stroke-opacity:1" d="M 673.223,436.521 673.223,458.039 z" id="boundary" inkscape:connector-curvature="0" />
	<path style="fill:none;stroke:red;stroke-width:1px;stroke-linecap:butt;stroke-linejoin:miter;stroke-opacity:1" d="M 673.223,458.039 673.223,479.557 z" id="boundary" inkscape:connector-curvature="0" />
	<path style="fill:none;stroke:red;stroke-width:1px;stroke-linecap:butt;stroke-linejoin:miter;stroke-opacity:1" d="M 673.223,479.557 673.223,501.076 z" id="boundary" inkscape:connector-curvature="0" />
	<path style="fill:none;stroke:red;stroke-width:1px;stroke-linecap:butt;stroke-linejoin:miter;stroke-opacity:1" d="M 673.223,501.076 673.223,522.594 z" id="boundary" inkscape:connector-curvature="0" />
	<path style="fill:none;stroke:red;stroke-width:1px;stroke-linecap:butt;stroke-linejoin:miter;stroke-opacity:1" d="M 673.223,522.594 673.223,544.113 z" id="boundary" inkscape:connector-curvature="0" />
	<path style="fill:none;stroke:red;stroke-width:1px;stroke-linecap:butt;stroke-linejoin:miter;stroke-opacity:1" d="M 673.223,544.113 673.223,565.631 z" id="boundary" inkscape:connector-curvature="0" />
	<path style="fill:none;stroke:red;stroke-width:1px;stroke-linecap:butt;stroke-linejoin:miter;stroke-opacity:1" d="M 673.223,565.631 673.223,587.15 z" id="boundary" inkscape:connector-curvature="0" />
	<path style="fill:none;stroke:red;stroke-width:1px;stroke-linecap:butt;stroke-linejoin:miter;stroke-opacity:1" d="M 673.223,587.15 694.742,595.757 z" id="boundary" inkscape:connector-curvature="0" />
	<path style="fill:none;stroke:red;stroke-width:1px;stroke-linecap:butt;stroke-linejoin:miter;stroke-opacity:1" d="M 683.983,668.92 705.501,677.527 z" id="boundary" inkscape:connector-curvature="0" />
	<path style="fill:none;stroke:red;stroke-width:1px;stroke-linecap:butt;stroke-linejoin:miter;stroke-opacity:1" d="M 694.742,595.757 716.26,602.213 z" id="boundary" inkscape:connector-curvature="0" />
	<path style="fill:none;stroke:red;stroke-width:1px;stroke-linecap:butt;stroke-linejoin:miter;stroke-opacity:1" d="M 705.501,677.527 720.564,694.742 z" id="boundary" inkscape:connector-curvature="0" />
	<path style="fill:none;stroke:red;stroke-width:1px;stroke-linecap:butt;stroke-linejoin:miter;stroke-opacity:1" d="M 716.26,602.213 735.627,612.972 z" id="boundary" inkscape:connector-curvature="0" />
	<path style="fill:none;stroke:red;stroke-width:1px;stroke-linecap:butt;stroke-linejoin:miter;stroke-opacity:1" d="M 720.564,694.742 752.842,714.108 z" id="boundary" inkscape:connector-curvature="0" />
	<path style="fill:none;stroke:red;stroke-width:1px;stroke-linecap:butt;stroke-linejoin:miter;stroke-opacity:1" d="M 735.627,612.972 757.145,621.579 z" id="boundary" inkscape:connector-curvature="0" />
	<path style="fill:none;stroke:red;stroke-width:1px;stroke-linecap:butt;stroke-linejoin:miter;stroke-opacity:1" d="M 752.842,714.108 772.208,724.868 z" id="boundary" inkscape:connector-curvature="0" />
	<path style="fill:none;stroke:red;stroke-width:1px;stroke-linecap:butt;stroke-linejoin:miter;stroke-opacity:1" d="M 757.145,621.579 776.512,632.338 z" id="boundary" inkscape:connector-curvature="0" />
	<path style="fill:none;stroke:red;stroke-width:1px;stroke-linecap:butt;stroke-linejoin:miter;stroke-opacity:1" d="M 772.208,724.868 789.423,737.779 z" id="boundary" inkscape:connector-curvature="0" />
	<path style="fill:none;stroke:red;stroke-width:1px;stroke-linecap:butt;stroke-linejoin:miter;stroke-opacity:1" d="M 776.512,632.338 798.03,638.794 z" id="boundary" inkscape:connector-curvature="0" />
	<path style="fill:none;stroke:red;stroke-width:1px;stroke-linecap:butt;stroke-linejoin:miter;stroke-opacity:1" d="M 789.423,737.779 808.79,748.538 z" id="boundary" inkscape:connector-curvature="0" />
	<path style="fill:none;stroke:red;stroke-width:1px;stroke-linecap:butt;stroke-linejoin:miter;stroke-opacity:1" d="M 798.03,638.794 817.397,649.553 z" id="boundary" inkscape:connector-curvature="0" />
	<path style="fill:none;stroke:red;stroke-width:1px;stroke-linecap:butt;stroke-linejoin:miter;stroke-opacity:1" d="M 808.79,748.538 823.852,765.753 z" id="boundary" inkscape:connector-curvature="0" />
	<path style="fill:none;stroke:red;stroke-width:1px;stroke-linecap:butt;stroke-linejoin:miter;stroke-opacity:1" d="M 817.397,649.553 836.764,638.794 z" id="boundary" inkscape:connector-curvature="0" />
	<path style="fill:none;stroke:red;stroke-width:1px;stroke-linecap:butt;stroke-linejoin:miter;stroke-opacity:1" d="M 823.852,765.753 841.067,780.816 z" id="boundary" inkscape:connector-curvature="0" />
	<path style="fill:none;stroke:red;stroke-width:1px;stroke-linecap:butt;stroke-linejoin:miter;stroke-opacity:1" d="M 836.764,638.794 856.13,649.553 z" id="boundary" inkscape:connector-curvature="0" />
	<path style="fill:none;stroke:red;stroke-width:1px;stroke-linecap:butt;stroke-linejoin:miter;stroke-opacity:1" d="M 841.067,780.816 860.434,791.575 z" id="boundary" inkscape:connector-curvature="0" />
	<path style="fill:none;stroke:red;stroke-width:1px;stroke-linecap:butt;stroke-linejoin:miter;stroke-opacity:1" d="M 856.13,649.553 877.649,645.249 z" id="boundary" inkscape:connector-curvature="0" />
	<path style="fill:none;stroke:red;stroke-width:1px;stroke-linecap:butt;stroke-linejoin:miter;stroke-opacity:1" d="M 860.434,791.575 875.497,808.79 z" id="boundary" inkscape:connector-curvature="0" />
	<path style="fill:none;stroke:red;stroke-width:1px;stroke-linecap:butt;stroke-linejoin:miter;stroke-opacity:1" d="M 875.497,808.79 897.015,813.093 z" id="boundary" inkscape:connector-curvature="0" />
	<path style="fill:none;stroke:red;stroke-width:1px;stroke-linecap:butt;stroke-linejoin:miter;stroke-opacity:1" d="M 877.649,645.249 897.015,656.009 z" id="boundary" inkscape:connector-curvature="0" />
	<path style="fill:none;stroke:red;stroke-width:1px;stroke-linecap:butt;stroke-linejoin:miter;stroke-opacity:1" d="M 897.015,656.009 914.23,671.072 z" id="boundary" inkscape:connector-curvature="0" />
	<path style="fill:none;stroke:red;stroke-width:1px;stroke-linecap:butt;stroke-linejoin:miter;stroke-opacity:1" d="M 897.015,813.093 909.926,830.308 z" id="boundary" inkscape:connector-curvature="0" />
	<path style="fill:none;stroke:red;stroke-width:1px;stroke-linecap:butt;stroke-linejoin:miter;stroke-opacity:1" d="M 909.926,830.308 931.445,838.915 z" id="boundary" inkscape:connector-curvature="0" />
	<path style="fill:none;stroke:red;stroke-width:1px;stroke-linecap:butt;stroke-linejoin:miter;stroke-opacity:1" d="M 914.23,671.072 933.597,681.831 z" id="boundary" inkscape:connector-curvature="0" />
	<path style="fill:none;stroke:red;stroke-width:1px;stroke-linecap:butt;stroke-linejoin:miter;stroke-opacity:1" d="M 931.445,838.915 950.811,849.675 z" id="boundary" inkscape:connector-curvature="0" />
	<path style="fill:none;stroke:red;stroke-width:1px;stroke-linecap:butt;stroke-linejoin:miter;stroke-opacity:1" d="M 933.597,681.831 950.811,696.894 z" id="boundary" inkscape:connector-curvature="0" />
	<path style="fill:none;stroke:red;stroke-width:1px;stroke-linecap:butt;stroke-linejoin:miter;stroke-opacity:1" d="M 950.811,696.894 963.722,714.108 z" id="boundary" inkscape:connector-curvature="0" />
	<path style="fill:none;stroke:red;stroke-width:1px;stroke-linecap:butt;stroke-linejoin:miter;stroke-opacity:1" d="M 950.811,849.675 972.33,856.13 z" id="boundary" inkscape:connector-curvature="0" />
	<path style="fill:none;stroke:red;stroke-width:1px;stroke-linecap:butt;stroke-linejoin:miter;stroke-opacity:1" d="M 963.722,714.108 974.482,733.475 z" id="boundary" inkscape:connector-curvature="0" />
	<path style="fill:none;stroke:red;stroke-width:1px;stroke-linecap:butt;stroke-linejoin:miter;stroke-opacity:1" d="M 972.33,856.13 989.544,843.219 z" id="boundary" inkscape:connector-curvature="0" />
	<path style="fill:none;stroke:red;stroke-width:1px;stroke-linecap:butt;stroke-linejoin:miter;stroke-opacity:1" d="M 974.482,733.475 985.241,752.842 z" id="boundary" inkscape:connector-curvature="0" />
	<path style="fill:none;stroke:red;stroke-width:1px;stroke-linecap:butt;stroke-linejoin:miter;stroke-opacity:1" d="M 985.241,752.842 996,772.208 z" id="boundary" inkscape:connector-curvature="0" />
	<path style="fill:none;stroke:red;stroke-width:1px;stroke-linecap:butt;stroke-linejoin:miter;stroke-opacity:1" d="M 989.544,843.219 996,815.245 z" id="boundary" inkscape:connector-curvature="0" />
	<path style="fill:none;stroke:red;stroke-width:1px;stroke-linecap:butt;stroke-linejoin:miter;stroke-opacity:1" d="M 996,772.208 996,793.727 z" id="boundary" inkscape:connector-curvature="0" />
	<path style="fill:none;stroke:red;stroke-width:1px;stroke-linecap:butt;stroke-linejoin:miter;stroke-opacity:1" d="M 996,793.727 996,815.245 z" id="boundary" inkscape:connector-curvature="0" />
	<circle cx="4" cy="795.879" r="4" fill="#0" id="circle0"/>
	<circle cx="4" cy="817.397" r="4" fill="#0" id="circle1"/>
	<circle cx="21.2148" cy="778.664" r="4" fill="#0" id="circle2"/>
	<circle cx="21.2148" cy="832.46" r="4" fill="#0" id="circle3"/>
	<circle cx="40.5813" cy="789.423" r="4" fill="#0" id="circle4"/>
	<circle cx="40.5813" cy="843.219" r="4" fill="#0" id="circle5"/>
	<circle cx="59.9479" cy="778.664" r="4" fill="#0" id="circle6"/>
	<circle cx="62.0998" cy="851.826" r="4" fill="#0" id="circle7"/>
	<circle cx="68.5553" cy="31.974" r="4" fill="#0" id="circle8"/>
	<circle cx="68.5553" cy="53.4924" r="4" fill="#0" id="circle9"/>
	<circle cx="79.3145" cy="72.859" r="4" fill="#0" id="circle10"/>
	<circle cx="79.3145" cy="864.738" r="4" fill="#0" id="circle11"/>
	<circle cx="81.4664" cy="785.119" r="4" fill="#0" id="circle12"/>
	<circle cx="85.7701" cy="14.7592" r="4" fill="#0" id="circle13"/>
	<circle cx="96.5293" cy="877.649" r="4" fill="#0" id="circle14"/>
	<circle cx="100.833" cy="81.4664" r="4" fill="#0" id="circle15"/>
	<circle cx="102.985" cy="778.664" r="4" fill="#0" id="circle16"/>
	<circle cx="105.137" cy="4" r="4" fill="#0" id="circle17"/>
	<circle cx="113.744" cy="98.6811" r="4" fill="#0" id="circle18"/>
	<circle cx="115.896" cy="888.408" r="4" fill="#0" id="circle19"/>
	<circle cx="122.351" cy="767.905" r="4" fill="#0" id="circle20"/>
	<circle cx="126.655" cy="4" r="4" fill="#0" id="circle21"/>
	<circle cx="130.959" cy="113.744" r="4" fill="#0" id="circle22"/>
	<circle cx="135.262" cy="899.167" r="4" fill="#0" id="circle23"/>
	<circle cx="141.718" cy="757.145" r="4" fill="#0" id="circle24"/>
	<circle cx="143.87" cy="731.323" r="4" fill="#0" id="circle25"/>
	<circle cx="146.022" cy="130.959" r="4" fill="#0" id="circle26"/>
	<circle cx="148.174" cy="4" r="4" fill="#0" id="circle27"/>
	<circle cx="154.629" cy="709.805" r="4" fill="#0" id="circle28"/>
	<circle cx="156.781" cy="888.408" r="4" fill="#0" id="circle29"/>
	<circle cx="163.236" cy="146.022" r="4" fill="#0" id="circle30"/>
	<circle cx="165.388" cy="677.527" r="4" fill="#0" id="circle31"/>
	<circle cx="169.692" cy="4" r="4" fill="#0" id="circle32"/>
	<circle cx="173.996" cy="873.345" r="4" fill="#0" id="circle33"/>
	<circle cx="176.148" cy="645.249" r="4" fill="#0" id="circle34"/>
	<circle cx="178.299" cy="834.612" r="4" fill="#0" id="circle35"/>
	<circle cx="182.603" cy="156.781" r="4" fill="#0" id="circle36"/>
	<circle cx="186.907" cy="623.731" r="4" fill="#0" id="circle37"/>
	<circle cx="191.21" cy="4" r="4" fill="#0" id="circle38"/>
	<circle cx="195.514" cy="819.549" r="4" fill="#0" id="circle39"/>
	<circle cx="197.666" cy="193.362" r="4" fill="#0" id="circle40"/>
	<circle cx="197.666" cy="548.416" r="4" fill="#0" id="circle41"/>
	<circle cx="197.666" cy="569.935" r="4" fill="#0" id="circle42"/>
	<circle cx="197.666" cy="591.453" r="4" fill="#0" id="circle43"/>
	<circle cx="199.818" cy="171.844" r="4" fill="#0" id="circle44"/>
	<circle cx="208.425" cy="212.729" r="4" fill="#0" id="circle45"/>
	<circle cx="208.425" cy="526.898" r="4" fill="#0" id="circle46"/>
	<circle cx="210.577" cy="14.7592" r="4" fill="#0" id="circle47"/>
	<circle cx="210.577" cy="802.334" r="4" fill="#0" id="circle48"/>
	<circle cx="221.336" cy="780.816" r="4" fill="#0" id="circle49"/>
	<circle cx="223.488" cy="229.944" r="4" fill="#0" id="circle50"/>
	<circle cx="225.64" cy="509.683" r="4" fill="#0" id="circle51"/>
	<circle cx="227.792" cy="27.6703" r="4" fill="#0" id="circle52"/>
	<circle cx="229.944" cy="483.861" r="4" fill="#0" id="circle53"/>
	<circle cx="232.095" cy="748.538" r="4" fill="#0" id="circle54"/>
	<circle cx="238.551" cy="47.0369" r="4" fill="#0" id="circle55"/>
	<circle cx="242.855" cy="727.02" r="4" fill="#0" id="circle56"/>
	<circle cx="245.007" cy="232.095" r="4" fill="#0" id="circle57"/>
	<circle cx="251.462" cy="473.102" r="4" fill="#0" id="circle58"/>
	<circle cx="253.614" cy="64.2516" r="4" fill="#0" id="circle59"/>
	<circle cx="260.069" cy="711.957" r="4" fill="#0" id="circle60"/>
	<circle cx="262.221" cy="245.007" r="4" fill="#0" id="circle61"/>
	<circle cx="264.373" cy="662.464" r="4" fill="#0" id="circle62"/>
	<circle cx="264.373" cy="683.983" r="4" fill="#0" id="circle63"/>
	<circle cx="268.677" cy="455.887" r="4" fill="#0" id="circle64"/>
	<circle cx="272.98" cy="75.0108" r="4" fill="#0" id="circle65"/>
	<circle cx="275.132" cy="619.427" r="4" fill="#0" id="circle66"/>
	<circle cx="275.132" cy="640.946" r="4" fill="#0" id="circle67"/>
	<circle cx="283.74" cy="242.855" r="4" fill="#0" id="circle68"/>
	<circle cx="285.892" cy="544.113" r="4" fill="#0" id="circle69"/>
	<circle cx="285.892" cy="565.631" r="4" fill="#0" id="circle70"/>
	<circle cx="285.892" cy="587.15" r="4" fill="#0" id="circle71"/>
	<circle cx="290.195" cy="445.128" r="4" fill="#0" id="circle72"/>
	<circle cx="294.499" cy="68.5553" r="4" fill="#0" id="circle73"/>
	<circle cx="296.651" cy="260.069" r="4" fill="#0" id="circle74"/>
	<circle cx="303.106" cy="529.05" r="4" fill="#0" id="circle75"/>
	<circle cx="307.41" cy="427.913" r="4" fill="#0" id="circle76"/>
	<circle cx="316.017" cy="68.5553" r="4" fill="#0" id="circle77"/>
	<circle cx="318.169" cy="268.677" r="4" fill="#0" id="circle78"/>
	<circle cx="324.625" cy="529.05" r="4" fill="#0" id="circle79"/>
	<circle cx="328.928" cy="417.154" r="4" fill="#0" id="circle80"/>
	<circle cx="337.536" cy="72.859" r="4" fill="#0" id="circle81"/>
	<circle cx="337.536" cy="279.436" r="4" fill="#0" id="circle82"/>
	<circle cx="339.688" cy="511.835" r="4" fill="#0" id="circle83"/>
	<circle cx="350.447" cy="296.651" r="4" fill="#0" id="circle84"/>
	<circle cx="350.447" cy="406.395" r="4" fill="#0" id="circle85"/>
	<circle cx="359.054" cy="79.3145" r="4" fill="#0" id="circle86"/>
	<circle cx="361.206" cy="501.076" r="4" fill="#0" id="circle87"/>
	<circle cx="363.358" cy="313.866" r="4" fill="#0" id="circle88"/>
	<circle cx="367.662" cy="391.332" r="4" fill="#0" id="circle89"/>
	<circle cx="369.813" cy="354.751" r="4" fill="#0" id="circle90"/>
	<circle cx="380.573" cy="83.6182" r="4" fill="#0" id="circle91"/>
	<circle cx="380.573" cy="326.777" r="4" fill="#0" id="circle92"/>
	<circle cx="380.573" cy="374.117" r="4" fill="#0" id="circle93"/>
	<circle cx="382.725" cy="490.317" r="4" fill="#0" id="circle94"/>
	<circle cx="393.484" cy="100.833" r="4" fill="#0" id="circle95"/>
	<circle cx="404.243" cy="479.557" r="4" fill="#0" id="circle96"/>
	<circle cx="415.002" cy="96.5293" r="4" fill="#0" id="circle97"/>
	<circle cx="425.761" cy="479.557" r="4" fill="#0" id="circle98"/>
	<circle cx="434.369" cy="107.289" r="4" fill="#0" id="circle99"/>
	<circle cx="447.28" cy="483.861" r="4" fill="#0" id="circle100"/>
	<circle cx="455.887" cy="115.896" r="4" fill="#0" id="circle101"/>
	<circle cx="468.798" cy="479.557" r="4" fill="#0" id="circle102"/>
	<circle cx="475.254" cy="126.655" r="4" fill="#0" id="circle103"/>
	<circle cx="490.317" cy="479.557" r="4" fill="#0" id="circle104"/>
	<circle cx="496.772" cy="135.262" r="4" fill="#0" id="circle105"/>
	<circle cx="509.683" cy="468.798" r="4" fill="#0" id="circle106"/>
	<circle cx="516.139" cy="146.022" r="4" fill="#0" id="circle107"/>
	<circle cx="520.443" cy="494.62" r="4" fill="#0" id="circle108"/>
	<circle cx="526.898" cy="165.388" r="4" fill="#0" id="circle109"/>
	<circle cx="531.202" cy="468.798" r="4" fill="#0" id="circle110"/>
	<circle cx="531.202" cy="513.987" r="4" fill="#0" id="circle111"/>
	<circle cx="541.961" cy="182.603" r="4" fill="#0" id="circle112"/>
	<circle cx="541.961" cy="533.354" r="4" fill="#0" id="circle113"/>
	<circle cx="548.416" cy="554.872" r="4" fill="#0" id="circle114"/>
	<circle cx="552.72" cy="576.39" r="4" fill="#0" id="circle115"/>
	<circle cx="559.176" cy="197.666" r="4" fill="#0" id="circle116"/>
	<circle cx="563.479" cy="595.757" r="4" fill="#0" id="circle117"/>
	<circle cx="565.631" cy="219.184" r="4" fill="#0" id="circle118"/>
	<circle cx="576.39" cy="238.551" r="4" fill="#0" id="circle119"/>
	<circle cx="576.39" cy="612.972" r="4" fill="#0" id="circle120"/>
	<circle cx="587.15" cy="257.918" r="4" fill="#0" id="circle121"/>
	<circle cx="587.15" cy="279.436" r="4" fill="#0" id="circle122"/>
	<circle cx="591.453" cy="630.187" r="4" fill="#0" id="circle123"/>
	<circle cx="604.364" cy="294.499" r="4" fill="#0" id="circle124"/>
	<circle cx="608.668" cy="645.249" r="4" fill="#0" id="circle125"/>
	<circle cx="623.731" cy="305.258" r="4" fill="#0" id="circle126"/>
	<circle cx="630.187" cy="640.946" r="4" fill="#0" id="circle127"/>
	<circle cx="643.098" cy="316.017" r="4" fill="#0" id="circle128"/>
	<circle cx="649.553" cy="651.705" r="4" fill="#0" id="circle129"/>
	<circle cx="651.705" cy="337.536" r="4" fill="#0" id="circle130"/>
	<circle cx="668.92" cy="350.447" r="4" fill="#0" id="circle131"/>
	<circle cx="671.072" cy="651.705" r="4" fill="#0" id="circle132"/>
	<circle cx="673.223" cy="371.965" r="4" fill="#0" id="circle133"/>
	<circle cx="673.223" cy="393.484" r="4" fill="#0" id="circle134"/>
	<circle cx="673.223" cy="415.002" r="4" fill="#0" id="circle135"/>
	<circle cx="673.223" cy="436.521" r="4" fill="#0" id="circle136"/>
	<circle cx="673.223" cy="458.039" r="4" fill="#0" id="circle137"/>
	<circle cx="673.223" cy="479.557" r="4" fill="#0" id="circle138"/>
	<circle cx="673.223" cy="501.076" r="4" fill="#0" id="circle139"/>
	<circle cx="673.223" cy="522.594" r="4" fill="#0" id="circle140"/>
	<circle cx="673.223" cy="544.113" r="4" fill="#0" id="circle141"/>
	<circle cx="673.223" cy="565.631" r="4" fill="#0" id="circle142"/>
	<circle cx="673.223" cy="587.15" r="4" fill="#0" id="circle143"/>
	<circle cx="683.983" cy="668.92" r="4" fill="#0" id="circle144"/>
	<circle cx="694.742" cy="595.757" r="4" fill="#0" id="circle145"/>
	<circle cx="705.501" cy="677.527" r="4" fill="#0" id="circle146"/>
	<circle cx="716.26" cy="602.213" r="4" fill="#0" id="circle147"/>
	<circle cx="720.564" cy="694.742" r="4" fill="#0" id="circle148"/>
	<circle cx="735.627" cy="612.972" r="4" fill="#0" id="circle149"/>
	<circle cx="742.082" cy="694.742" r="4" fill="#0" id="circle150"/>
	<circle cx="752.842" cy="714.108" r="4" fill="#0" id="circle151"/>
	<circle cx="757.145" cy="621.579" r="4" fill="#0" id="circle152"/>
	<circle cx="772.208" cy="724.868" r="4" fill="#0" id="circle153"/>
	<circle cx="776.512" cy="632.338" r="4" fill="#0" id="circle154"/>
	<circle cx="789.423" cy="737.779" r="4" fill="#0" id="circle155"/>
	<circle cx="798.03" cy="638.794" r="4" fill="#0" id="circle156"/>
	<circle cx="808.79" cy="748.538" r="4" fill="#0" id="circle157"/>
	<circle cx="817.397" cy="649.553" r="4" fill="#0" id="circle158"/>
	<circle cx="823.852" cy="765.753" r="4" fill="#0" id="circle159"/>
	<circle cx="836.764" cy="638.794" r="4" fill="#0" id="circle160"/>
	<circle cx="841.067" cy="780.816" r="4" fill="#0" id="circle161"/>
	<circle cx="856.13" cy="649.553" r="4" fill="#0" id="circle162"/>
	<circle cx="860.434" cy="791.575" r="4" fill="#0" id="circle163"/>
	<circle cx="875.497" cy="808.79" r="4" fill="#0" id="circle164"/>
	<circle cx="877.649" cy="645.249" r="4" fill="#0" id="circle165"/>
	<circle cx="897.015" cy="656.009" r="4" fill="#0" id="circle166"/>
	<circle cx="897.015" cy="813.093" r="4" fill="#0" id="circle167"/>
	<circle cx="909.926" cy="830.308" r="4" fill="#0" id="circle168"/>
	<circle cx="914.23" cy="671.072" r="4" fill="#0" id="circle169"/>
	<circle cx="931.445" cy="838.915" r="4" fill="#0" id="circle170"/>
	<circle cx="933.597" cy="681.831" r="4" fill="#0" id="circle171"/>
	<circle cx="950.811" cy="696.894" r="4" fill="#0" id="circle172"/>
	<circle cx="950.811" cy="849.675" r="4" fill="#0" id="circle173"/>
	<circle cx="963.722" cy="714.108" r="4" fill="#0" id="circle174"/>
	<circle cx="972.33" cy="856.13" r="4" fill="#0" id="circle175"/>
	<circle cx="974.482" cy="733.475" r="4" fill="#0" id="circle176"/>
	<circle cx="985.241" cy="752.842" r="4" fill="#0" id="circle177"/>
	<circle cx="989.544" cy="843.219" r="4" fill="#0" id="circle178"/>
	<circle cx="996" cy="772.208" r="4" fill="#0" id="circle179"/>
	<circle cx="996" cy="793.727" r="4" fill="#0" id="circle180"/>
	<circle cx="996" cy="815.245" r="4" fill="#0" id="circle181"/>
	</g>
</svg>