<?xml version="1.0" encoding="UTF-8" standalone="no"?>
<!-- Created with CurveBenchmark -->
<svg
	xmlns:dc="http://purl.org/dc/elements/1.1/"
	xmlns:cc="http://creativecommons.org/ns#"
	xmlns:rdf="http://www.w3.org/1999/02/22-rdf-syntax-ns#"
	xmlns:svg="http://www.w3.org/2000/svg"
	xmlns="http://www.w3.org/2000/svg"
	xmlns:sodipodi="http://sodipodi.sourceforge.net/DTD/sodipodi-0.dtd"
	xmlns:inkscape="http://www.inkscape.org/namespaces/inkscape"
	width="1000"
	height="1000"
	id="svg2"
	version="1.1"
	sodipodi:docname="manifold/vicur-children-16.png.txt">
<defs
	id="defs4" />
<metadata
	id="metadata7">
	<rdf:RDF>
		<cc:Work
			rdf:about="">
			<dc:format>image/svg+xml</dc:format>
			<dc:type
				rdf:resource="http://purl.org/dc/dcmitype/StillImage" />
			<dc:title></dc:title>
		</cc:Work>
	</rdf:RDF>
</metadata>
<g
	inkscape:label="Layer 1"
	inkscape:groupmode="layer"
	id="layer1">
	<path style="fill:none;stroke:red;stroke-width:1px;stroke-linecap:butt;stroke-linejoin:miter;stroke-opacity:1" d="M 4,322.01 9.93301,310.144 z" id="boundary" inkscape:connector-curvature="0" />
	<path style="fill:none;stroke:red;stroke-width:1px;stroke-linecap:butt;stroke-linejoin:miter;stroke-opacity:1" d="M 4,322.01 9.93301,332.689 z" id="boundary" inkscape:connector-curvature="0" />
	<path style="fill:none;stroke:red;stroke-width:1px;stroke-linecap:butt;stroke-linejoin:miter;stroke-opacity:1" d="M 9.93301,310.144 15.866,298.278 z" id="boundary" inkscape:connector-curvature="0" />
	<path style="fill:none;stroke:red;stroke-width:1px;stroke-linecap:butt;stroke-linejoin:miter;stroke-opacity:1" d="M 9.93301,332.689 9.93301,344.555 z" id="boundary" inkscape:connector-curvature="0" />
	<path style="fill:none;stroke:red;stroke-width:1px;stroke-linecap:butt;stroke-linejoin:miter;stroke-opacity:1" d="M 9.93301,344.555 9.93301,356.421 z" id="boundary" inkscape:connector-curvature="0" />
	<path style="fill:none;stroke:red;stroke-width:1px;stroke-linecap:butt;stroke-linejoin:miter;stroke-opacity:1" d="M 9.93301,356.421 15.866,367.1 z" id="boundary" inkscape:connector-curvature="0" />
	<path style="fill:none;stroke:red;stroke-width:1px;stroke-linecap:butt;stroke-linejoin:miter;stroke-opacity:1" d="M 15.866,298.278 21.799,286.411 z" id="boundary" inkscape:connector-curvature="0" />
	<path style="fill:none;stroke:red;stroke-width:1px;stroke-linecap:butt;stroke-linejoin:miter;stroke-opacity:1" d="M 15.866,367.1 19.4258,378.967 z" id="boundary" inkscape:connector-curvature="0" />
	<path style="fill:none;stroke:red;stroke-width:1px;stroke-linecap:butt;stroke-linejoin:miter;stroke-opacity:1" d="M 19.4258,378.967 25.3589,389.646 z" id="boundary" inkscape:connector-curvature="0" />
	<path style="fill:none;stroke:red;stroke-width:1px;stroke-linecap:butt;stroke-linejoin:miter;stroke-opacity:1" d="M 21.799,84.689 21.799,96.555 z" id="boundary" inkscape:connector-curvature="0" />
	<path style="fill:none;stroke:red;stroke-width:1px;stroke-linecap:butt;stroke-linejoin:miter;stroke-opacity:1" d="M 21.799,84.689 27.7321,66.89 z" id="boundary" inkscape:connector-curvature="0" />
	<path style="fill:none;stroke:red;stroke-width:1px;stroke-linecap:butt;stroke-linejoin:miter;stroke-opacity:1" d="M 21.799,96.555 21.799,108.421 z" id="boundary" inkscape:connector-curvature="0" />
	<path style="fill:none;stroke:red;stroke-width:1px;stroke-linecap:butt;stroke-linejoin:miter;stroke-opacity:1" d="M 21.799,108.421 21.799,120.287 z" id="boundary" inkscape:connector-curvature="0" />
	<path style="fill:none;stroke:red;stroke-width:1px;stroke-linecap:butt;stroke-linejoin:miter;stroke-opacity:1" d="M 21.799,120.287 27.7321,130.967 z" id="boundary" inkscape:connector-curvature="0" />
	<path style="fill:none;stroke:red;stroke-width:1px;stroke-linecap:butt;stroke-linejoin:miter;stroke-opacity:1" d="M 21.799,286.411 27.7321,274.545 z" id="boundary" inkscape:connector-curvature="0" />
	<path style="fill:none;stroke:red;stroke-width:1px;stroke-linecap:butt;stroke-linejoin:miter;stroke-opacity:1" d="M 25.3589,389.646 30.1053,401.512 z" id="boundary" inkscape:connector-curvature="0" />
	<path style="fill:none;stroke:red;stroke-width:1px;stroke-linecap:butt;stroke-linejoin:miter;stroke-opacity:1" d="M 27.7321,66.89 33.6651,55.0239 z" id="boundary" inkscape:connector-curvature="0" />
	<path style="fill:none;stroke:red;stroke-width:1px;stroke-linecap:butt;stroke-linejoin:miter;stroke-opacity:1" d="M 27.7321,130.967 27.7321,142.833 z" id="boundary" inkscape:connector-curvature="0" />
	<path style="fill:none;stroke:red;stroke-width:1px;stroke-linecap:butt;stroke-linejoin:miter;stroke-opacity:1" d="M 27.7321,142.833 33.6651,153.512 z" id="boundary" inkscape:connector-curvature="0" />
	<path style="fill:none;stroke:red;stroke-width:1px;stroke-linecap:butt;stroke-linejoin:miter;stroke-opacity:1" d="M 27.7321,274.545 37.2249,265.053 z" id="boundary" inkscape:connector-curvature="0" />
	<path style="fill:none;stroke:red;stroke-width:1px;stroke-linecap:butt;stroke-linejoin:miter;stroke-opacity:1" d="M 30.1053,401.512 33.6651,413.378 z" id="boundary" inkscape:connector-curvature="0" />
	<path style="fill:none;stroke:red;stroke-width:1px;stroke-linecap:butt;stroke-linejoin:miter;stroke-opacity:1" d="M 33.6651,55.0239 43.1579,45.5311 z" id="boundary" inkscape:connector-curvature="0" />
	<path style="fill:none;stroke:red;stroke-width:1px;stroke-linecap:butt;stroke-linejoin:miter;stroke-opacity:1" d="M 33.6651,153.512 40.7847,163.005 z" id="boundary" inkscape:connector-curvature="0" />
	<path style="fill:none;stroke:red;stroke-width:1px;stroke-linecap:butt;stroke-linejoin:miter;stroke-opacity:1" d="M 33.6651,413.378 33.6651,425.244 z" id="boundary" inkscape:connector-curvature="0" />
	<path style="fill:none;stroke:red;stroke-width:1px;stroke-linecap:butt;stroke-linejoin:miter;stroke-opacity:1" d="M 33.6651,425.244 33.6651,437.11 z" id="boundary" inkscape:connector-curvature="0" />
	<path style="fill:none;stroke:red;stroke-width:1px;stroke-linecap:butt;stroke-linejoin:miter;stroke-opacity:1" d="M 33.6651,437.11 33.6651,448.976 z" id="boundary" inkscape:connector-curvature="0" />
	<path style="fill:none;stroke:red;stroke-width:1px;stroke-linecap:butt;stroke-linejoin:miter;stroke-opacity:1" d="M 33.6651,448.976 33.6651,460.842 z" id="boundary" inkscape:connector-curvature="0" />
	<path style="fill:none;stroke:red;stroke-width:1px;stroke-linecap:butt;stroke-linejoin:miter;stroke-opacity:1" d="M 33.6651,460.842 36.0383,472.708 z" id="boundary" inkscape:connector-curvature="0" />
	<path style="fill:none;stroke:red;stroke-width:1px;stroke-linecap:butt;stroke-linejoin:miter;stroke-opacity:1" d="M 36.0383,472.708 39.5981,484.574 z" id="boundary" inkscape:connector-curvature="0" />
	<path style="fill:none;stroke:red;stroke-width:1px;stroke-linecap:butt;stroke-linejoin:miter;stroke-opacity:1" d="M 37.2249,265.053 47.9043,259.12 z" id="boundary" inkscape:connector-curvature="0" />
	<path style="fill:none;stroke:red;stroke-width:1px;stroke-linecap:butt;stroke-linejoin:miter;stroke-opacity:1" d="M 39.5981,484.574 41.9713,496.44 z" id="boundary" inkscape:connector-curvature="0" />
	<path style="fill:none;stroke:red;stroke-width:1px;stroke-linecap:butt;stroke-linejoin:miter;stroke-opacity:1" d="M 39.5981,529.665 39.5981,541.531 z" id="boundary" inkscape:connector-curvature="0" />
	<path style="fill:none;stroke:red;stroke-width:1px;stroke-linecap:butt;stroke-linejoin:miter;stroke-opacity:1" d="M 39.5981,529.665 45.5311,508.306 z" id="boundary" inkscape:connector-curvature="0" />
	<path style="fill:none;stroke:red;stroke-width:1px;stroke-linecap:butt;stroke-linejoin:miter;stroke-opacity:1" d="M 39.5981,541.531 39.5981,553.397 z" id="boundary" inkscape:connector-curvature="0" />
	<path style="fill:none;stroke:red;stroke-width:1px;stroke-linecap:butt;stroke-linejoin:miter;stroke-opacity:1" d="M 39.5981,553.397 39.5981,565.263 z" id="boundary" inkscape:connector-curvature="0" />
	<path style="fill:none;stroke:red;stroke-width:1px;stroke-linecap:butt;stroke-linejoin:miter;stroke-opacity:1" d="M 39.5981,565.263 39.5981,577.129 z" id="boundary" inkscape:connector-curvature="0" />
	<path style="fill:none;stroke:red;stroke-width:1px;stroke-linecap:butt;stroke-linejoin:miter;stroke-opacity:1" d="M 39.5981,577.129 45.5311,587.809 z" id="boundary" inkscape:connector-curvature="0" />
	<path style="fill:none;stroke:red;stroke-width:1px;stroke-linecap:butt;stroke-linejoin:miter;stroke-opacity:1" d="M 40.7847,163.005 50.2775,171.311 z" id="boundary" inkscape:connector-curvature="0" />
	<path style="fill:none;stroke:red;stroke-width:1px;stroke-linecap:butt;stroke-linejoin:miter;stroke-opacity:1" d="M 41.9713,496.44 45.5311,508.306 z" id="boundary" inkscape:connector-curvature="0" />
	<path style="fill:none;stroke:red;stroke-width:1px;stroke-linecap:butt;stroke-linejoin:miter;stroke-opacity:1" d="M 43.1579,45.5311 52.6507,36.0383 z" id="boundary" inkscape:connector-curvature="0" />
	<path style="fill:none;stroke:red;stroke-width:1px;stroke-linecap:butt;stroke-linejoin:miter;stroke-opacity:1" d="M 45.5311,587.809 45.5311,599.675 z" id="boundary" inkscape:connector-curvature="0" />
	<path style="fill:none;stroke:red;stroke-width:1px;stroke-linecap:butt;stroke-linejoin:miter;stroke-opacity:1" d="M 45.5311,599.675 45.5311,611.541 z" id="boundary" inkscape:connector-curvature="0" />
	<path style="fill:none;stroke:red;stroke-width:1px;stroke-linecap:butt;stroke-linejoin:miter;stroke-opacity:1" d="M 45.5311,611.541 51.4641,622.22 z" id="boundary" inkscape:connector-curvature="0" />
	<path style="fill:none;stroke:red;stroke-width:1px;stroke-linecap:butt;stroke-linejoin:miter;stroke-opacity:1" d="M 47.9043,259.12 57.3971,250.813 z" id="boundary" inkscape:connector-curvature="0" />
	<path style="fill:none;stroke:red;stroke-width:1px;stroke-linecap:butt;stroke-linejoin:miter;stroke-opacity:1" d="M 50.2775,171.311 58.5837,180.804 z" id="boundary" inkscape:connector-curvature="0" />
	<path style="fill:none;stroke:red;stroke-width:1px;stroke-linecap:butt;stroke-linejoin:miter;stroke-opacity:1" d="M 51.4641,622.22 57.3971,632.9 z" id="boundary" inkscape:connector-curvature="0" />
	<path style="fill:none;stroke:red;stroke-width:1px;stroke-linecap:butt;stroke-linejoin:miter;stroke-opacity:1" d="M 52.6507,36.0383 64.5167,30.1053 z" id="boundary" inkscape:connector-curvature="0" />
	<path style="fill:none;stroke:red;stroke-width:1px;stroke-linecap:butt;stroke-linejoin:miter;stroke-opacity:1" d="M 57.3971,250.813 66.89,241.321 z" id="boundary" inkscape:connector-curvature="0" />
	<path style="fill:none;stroke:red;stroke-width:1px;stroke-linecap:butt;stroke-linejoin:miter;stroke-opacity:1" d="M 57.3971,632.9 57.3971,644.766 z" id="boundary" inkscape:connector-curvature="0" />
	<path style="fill:none;stroke:red;stroke-width:1px;stroke-linecap:butt;stroke-linejoin:miter;stroke-opacity:1" d="M 57.3971,644.766 57.3971,656.632 z" id="boundary" inkscape:connector-curvature="0" />
	<path style="fill:none;stroke:red;stroke-width:1px;stroke-linecap:butt;stroke-linejoin:miter;stroke-opacity:1" d="M 57.3971,656.632 63.3301,667.311 z" id="boundary" inkscape:connector-curvature="0" />
	<path style="fill:none;stroke:red;stroke-width:1px;stroke-linecap:butt;stroke-linejoin:miter;stroke-opacity:1" d="M 58.5837,180.804 68.0766,189.11 z" id="boundary" inkscape:connector-curvature="0" />
	<path style="fill:none;stroke:red;stroke-width:1px;stroke-linecap:butt;stroke-linejoin:miter;stroke-opacity:1" d="M 63.3301,667.311 69.2632,677.99 z" id="boundary" inkscape:connector-curvature="0" />
	<path style="fill:none;stroke:red;stroke-width:1px;stroke-linecap:butt;stroke-linejoin:miter;stroke-opacity:1" d="M 64.5167,30.1053 74.0096,21.799 z" id="boundary" inkscape:connector-curvature="0" />
	<path style="fill:none;stroke:red;stroke-width:1px;stroke-linecap:butt;stroke-linejoin:miter;stroke-opacity:1" d="M 66.89,241.321 75.1962,227.081 z" id="boundary" inkscape:connector-curvature="0" />
	<path style="fill:none;stroke:red;stroke-width:1px;stroke-linecap:butt;stroke-linejoin:miter;stroke-opacity:1" d="M 68.0766,189.11 75.1962,198.603 z" id="boundary" inkscape:connector-curvature="0" />
	<path style="fill:none;stroke:red;stroke-width:1px;stroke-linecap:butt;stroke-linejoin:miter;stroke-opacity:1" d="M 69.2632,677.99 78.756,686.297 z" id="boundary" inkscape:connector-curvature="0" />
	<path style="fill:none;stroke:red;stroke-width:1px;stroke-linecap:butt;stroke-linejoin:miter;stroke-opacity:1" d="M 74.0096,21.799 84.689,15.866 z" id="boundary" inkscape:connector-curvature="0" />
	<path style="fill:none;stroke:red;stroke-width:1px;stroke-linecap:butt;stroke-linejoin:miter;stroke-opacity:1" d="M 75.1962,198.603 81.1292,209.282 z" id="boundary" inkscape:connector-curvature="0" />
	<path style="fill:none;stroke:red;stroke-width:1px;stroke-linecap:butt;stroke-linejoin:miter;stroke-opacity:1" d="M 75.1962,227.081 81.1292,209.282 z" id="boundary" inkscape:connector-curvature="0" />
	<path style="fill:none;stroke:red;stroke-width:1px;stroke-linecap:butt;stroke-linejoin:miter;stroke-opacity:1" d="M 78.756,686.297 87.0622,695.789 z" id="boundary" inkscape:connector-curvature="0" />
	<path style="fill:none;stroke:red;stroke-width:1px;stroke-linecap:butt;stroke-linejoin:miter;stroke-opacity:1" d="M 81.1292,796.651 81.1292,808.517 z" id="boundary" inkscape:connector-curvature="0" />
	<path style="fill:none;stroke:red;stroke-width:1px;stroke-linecap:butt;stroke-linejoin:miter;stroke-opacity:1" d="M 81.1292,796.651 87.0622,778.852 z" id="boundary" inkscape:connector-curvature="0" />
	<path style="fill:none;stroke:red;stroke-width:1px;stroke-linecap:butt;stroke-linejoin:miter;stroke-opacity:1" d="M 81.1292,808.517 81.1292,820.383 z" id="boundary" inkscape:connector-curvature="0" />
	<path style="fill:none;stroke:red;stroke-width:1px;stroke-linecap:butt;stroke-linejoin:miter;stroke-opacity:1" d="M 81.1292,820.383 81.1292,832.249 z" id="boundary" inkscape:connector-curvature="0" />
	<path style="fill:none;stroke:red;stroke-width:1px;stroke-linecap:butt;stroke-linejoin:miter;stroke-opacity:1" d="M 81.1292,832.249 87.0622,842.928 z" id="boundary" inkscape:connector-curvature="0" />
	<path style="fill:none;stroke:red;stroke-width:1px;stroke-linecap:butt;stroke-linejoin:miter;stroke-opacity:1" d="M 84.689,15.866 96.555,9.93301 z" id="boundary" inkscape:connector-curvature="0" />
	<path style="fill:none;stroke:red;stroke-width:1px;stroke-linecap:butt;stroke-linejoin:miter;stroke-opacity:1" d="M 87.0622,695.789 96.555,704.096 z" id="boundary" inkscape:connector-curvature="0" />
	<path style="fill:none;stroke:red;stroke-width:1px;stroke-linecap:butt;stroke-linejoin:miter;stroke-opacity:1" d="M 87.0622,778.852 92.9952,766.986 z" id="boundary" inkscape:connector-curvature="0" />
	<path style="fill:none;stroke:red;stroke-width:1px;stroke-linecap:butt;stroke-linejoin:miter;stroke-opacity:1" d="M 87.0622,842.928 87.0622,854.794 z" id="boundary" inkscape:connector-curvature="0" />
	<path style="fill:none;stroke:red;stroke-width:1px;stroke-linecap:butt;stroke-linejoin:miter;stroke-opacity:1" d="M 87.0622,854.794 87.0622,866.66 z" id="boundary" inkscape:connector-curvature="0" />
	<path style="fill:none;stroke:red;stroke-width:1px;stroke-linecap:butt;stroke-linejoin:miter;stroke-opacity:1" d="M 87.0622,866.66 92.9952,877.34 z" id="boundary" inkscape:connector-curvature="0" />
	<path style="fill:none;stroke:red;stroke-width:1px;stroke-linecap:butt;stroke-linejoin:miter;stroke-opacity:1" d="M 87.0622,939.043 87.0622,950.909 z" id="boundary" inkscape:connector-curvature="0" />
	<path style="fill:none;stroke:red;stroke-width:1px;stroke-linecap:butt;stroke-linejoin:miter;stroke-opacity:1" d="M 87.0622,939.043 92.9952,921.244 z" id="boundary" inkscape:connector-curvature="0" />
	<path style="fill:none;stroke:red;stroke-width:1px;stroke-linecap:butt;stroke-linejoin:miter;stroke-opacity:1" d="M 87.0622,950.909 87.0622,962.775 z" id="boundary" inkscape:connector-curvature="0" />
	<path style="fill:none;stroke:red;stroke-width:1px;stroke-linecap:butt;stroke-linejoin:miter;stroke-opacity:1" d="M 87.0622,962.775 96.555,971.081 z" id="boundary" inkscape:connector-curvature="0" />
	<path style="fill:none;stroke:red;stroke-width:1px;stroke-linecap:butt;stroke-linejoin:miter;stroke-opacity:1" d="M 92.9952,766.986 98.9282,755.12 z" id="boundary" inkscape:connector-curvature="0" />
	<path style="fill:none;stroke:red;stroke-width:1px;stroke-linecap:butt;stroke-linejoin:miter;stroke-opacity:1" d="M 92.9952,877.34 98.9282,888.019 z" id="boundary" inkscape:connector-curvature="0" />
	<path style="fill:none;stroke:red;stroke-width:1px;stroke-linecap:butt;stroke-linejoin:miter;stroke-opacity:1" d="M 92.9952,909.378 92.9952,921.244 z" id="boundary" inkscape:connector-curvature="0" />
	<path style="fill:none;stroke:red;stroke-width:1px;stroke-linecap:butt;stroke-linejoin:miter;stroke-opacity:1" d="M 92.9952,909.378 98.9282,888.019 z" id="boundary" inkscape:connector-curvature="0" />
	<path style="fill:none;stroke:red;stroke-width:1px;stroke-linecap:butt;stroke-linejoin:miter;stroke-opacity:1" d="M 96.555,9.93301 108.421,4 z" id="boundary" inkscape:connector-curvature="0" />
	<path style="fill:none;stroke:red;stroke-width:1px;stroke-linecap:butt;stroke-linejoin:miter;stroke-opacity:1" d="M 96.555,704.096 104.861,713.589 z" id="boundary" inkscape:connector-curvature="0" />
	<path style="fill:none;stroke:red;stroke-width:1px;stroke-linecap:butt;stroke-linejoin:miter;stroke-opacity:1" d="M 96.555,971.081 106.048,978.201 z" id="boundary" inkscape:connector-curvature="0" />
	<path style="fill:none;stroke:red;stroke-width:1px;stroke-linecap:butt;stroke-linejoin:miter;stroke-opacity:1" d="M 98.9282,755.12 104.861,737.321 z" id="boundary" inkscape:connector-curvature="0" />
	<path style="fill:none;stroke:red;stroke-width:1px;stroke-linecap:butt;stroke-linejoin:miter;stroke-opacity:1" d="M 104.861,713.589 104.861,725.455 z" id="boundary" inkscape:connector-curvature="0" />
	<path style="fill:none;stroke:red;stroke-width:1px;stroke-linecap:butt;stroke-linejoin:miter;stroke-opacity:1" d="M 104.861,725.455 104.861,737.321 z" id="boundary" inkscape:connector-curvature="0" />
	<path style="fill:none;stroke:red;stroke-width:1px;stroke-linecap:butt;stroke-linejoin:miter;stroke-opacity:1" d="M 106.048,978.201 116.727,984.134 z" id="boundary" inkscape:connector-curvature="0" />
	<path style="fill:none;stroke:red;stroke-width:1px;stroke-linecap:butt;stroke-linejoin:miter;stroke-opacity:1" d="M 108.421,4 120.287,4 z" id="boundary" inkscape:connector-curvature="0" />
	<path style="fill:none;stroke:red;stroke-width:1px;stroke-linecap:butt;stroke-linejoin:miter;stroke-opacity:1" d="M 116.727,984.134 128.593,984.134 z" id="boundary" inkscape:connector-curvature="0" />
	<path style="fill:none;stroke:red;stroke-width:1px;stroke-linecap:butt;stroke-linejoin:miter;stroke-opacity:1" d="M 120.287,4 132.153,4 z" id="boundary" inkscape:connector-curvature="0" />
	<path style="fill:none;stroke:red;stroke-width:1px;stroke-linecap:butt;stroke-linejoin:miter;stroke-opacity:1" d="M 128.593,984.134 139.273,990.067 z" id="boundary" inkscape:connector-curvature="0" />
	<path style="fill:none;stroke:red;stroke-width:1px;stroke-linecap:butt;stroke-linejoin:miter;stroke-opacity:1" d="M 132.153,4 144.019,4 z" id="boundary" inkscape:connector-curvature="0" />
	<path style="fill:none;stroke:red;stroke-width:1px;stroke-linecap:butt;stroke-linejoin:miter;stroke-opacity:1" d="M 139.273,990.067 151.139,990.067 z" id="boundary" inkscape:connector-curvature="0" />
	<path style="fill:none;stroke:red;stroke-width:1px;stroke-linecap:butt;stroke-linejoin:miter;stroke-opacity:1" d="M 144.019,4 154.699,9.93301 z" id="boundary" inkscape:connector-curvature="0" />
	<path style="fill:none;stroke:red;stroke-width:1px;stroke-linecap:butt;stroke-linejoin:miter;stroke-opacity:1" d="M 151.139,990.067 161.818,996 z" id="boundary" inkscape:connector-curvature="0" />
	<path style="fill:none;stroke:red;stroke-width:1px;stroke-linecap:butt;stroke-linejoin:miter;stroke-opacity:1" d="M 154.699,9.93301 166.565,9.93301 z" id="boundary" inkscape:connector-curvature="0" />
	<path style="fill:none;stroke:red;stroke-width:1px;stroke-linecap:butt;stroke-linejoin:miter;stroke-opacity:1" d="M 161.818,996 173.684,996 z" id="boundary" inkscape:connector-curvature="0" />
	<path style="fill:none;stroke:red;stroke-width:1px;stroke-linecap:butt;stroke-linejoin:miter;stroke-opacity:1" d="M 166.565,9.93301 178.431,9.93301 z" id="boundary" inkscape:connector-curvature="0" />
	<path style="fill:none;stroke:red;stroke-width:1px;stroke-linecap:butt;stroke-linejoin:miter;stroke-opacity:1" d="M 173.684,996 185.55,996 z" id="boundary" inkscape:connector-curvature="0" />
	<path style="fill:none;stroke:red;stroke-width:1px;stroke-linecap:butt;stroke-linejoin:miter;stroke-opacity:1" d="M 178.431,9.93301 189.11,15.866 z" id="boundary" inkscape:connector-curvature="0" />
	<path style="fill:none;stroke:red;stroke-width:1px;stroke-linecap:butt;stroke-linejoin:miter;stroke-opacity:1" d="M 185.55,996 197.416,996 z" id="boundary" inkscape:connector-curvature="0" />
	<path style="fill:none;stroke:red;stroke-width:1px;stroke-linecap:butt;stroke-linejoin:miter;stroke-opacity:1" d="M 189.11,15.866 200.976,15.866 z" id="boundary" inkscape:connector-curvature="0" />
	<path style="fill:none;stroke:red;stroke-width:1px;stroke-linecap:butt;stroke-linejoin:miter;stroke-opacity:1" d="M 197.416,996 209.282,996 z" id="boundary" inkscape:connector-curvature="0" />
	<path style="fill:none;stroke:red;stroke-width:1px;stroke-linecap:butt;stroke-linejoin:miter;stroke-opacity:1" d="M 200.976,15.866 210.469,22.9856 z" id="boundary" inkscape:connector-curvature="0" />
	<path style="fill:none;stroke:red;stroke-width:1px;stroke-linecap:butt;stroke-linejoin:miter;stroke-opacity:1" d="M 209.282,996 221.148,996 z" id="boundary" inkscape:connector-curvature="0" />
	<path style="fill:none;stroke:red;stroke-width:1px;stroke-linecap:butt;stroke-linejoin:miter;stroke-opacity:1" d="M 210.469,22.9856 221.148,28.9187 z" id="boundary" inkscape:connector-curvature="0" />
	<path style="fill:none;stroke:red;stroke-width:1px;stroke-linecap:butt;stroke-linejoin:miter;stroke-opacity:1" d="M 221.148,28.9187 230.641,37.2249 z" id="boundary" inkscape:connector-curvature="0" />
	<path style="fill:none;stroke:red;stroke-width:1px;stroke-linecap:butt;stroke-linejoin:miter;stroke-opacity:1" d="M 221.148,996 233.014,996 z" id="boundary" inkscape:connector-curvature="0" />
	<path style="fill:none;stroke:red;stroke-width:1px;stroke-linecap:butt;stroke-linejoin:miter;stroke-opacity:1" d="M 230.641,37.2249 241.321,43.1579 z" id="boundary" inkscape:connector-curvature="0" />
	<path style="fill:none;stroke:red;stroke-width:1px;stroke-linecap:butt;stroke-linejoin:miter;stroke-opacity:1" d="M 230.641,883.273 233.014,895.139 z" id="boundary" inkscape:connector-curvature="0" />
	<path style="fill:none;stroke:red;stroke-width:1px;stroke-linecap:butt;stroke-linejoin:miter;stroke-opacity:1" d="M 230.641,883.273 236.574,865.474 z" id="boundary" inkscape:connector-curvature="0" />
	<path style="fill:none;stroke:red;stroke-width:1px;stroke-linecap:butt;stroke-linejoin:miter;stroke-opacity:1" d="M 233.014,895.139 242.507,903.445 z" id="boundary" inkscape:connector-curvature="0" />
	<path style="fill:none;stroke:red;stroke-width:1px;stroke-linecap:butt;stroke-linejoin:miter;stroke-opacity:1" d="M 233.014,996 244.88,996 z" id="boundary" inkscape:connector-curvature="0" />
	<path style="fill:none;stroke:red;stroke-width:1px;stroke-linecap:butt;stroke-linejoin:miter;stroke-opacity:1" d="M 236.574,865.474 242.507,847.675 z" id="boundary" inkscape:connector-curvature="0" />
	<path style="fill:none;stroke:red;stroke-width:1px;stroke-linecap:butt;stroke-linejoin:miter;stroke-opacity:1" d="M 241.321,43.1579 250.813,51.4641 z" id="boundary" inkscape:connector-curvature="0" />
	<path style="fill:none;stroke:red;stroke-width:1px;stroke-linecap:butt;stroke-linejoin:miter;stroke-opacity:1" d="M 242.507,847.675 248.44,835.809 z" id="boundary" inkscape:connector-curvature="0" />
	<path style="fill:none;stroke:red;stroke-width:1px;stroke-linecap:butt;stroke-linejoin:miter;stroke-opacity:1" d="M 242.507,903.445 253.187,909.378 z" id="boundary" inkscape:connector-curvature="0" />
	<path style="fill:none;stroke:red;stroke-width:1px;stroke-linecap:butt;stroke-linejoin:miter;stroke-opacity:1" d="M 244.88,996 255.56,990.067 z" id="boundary" inkscape:connector-curvature="0" />
	<path style="fill:none;stroke:red;stroke-width:1px;stroke-linecap:butt;stroke-linejoin:miter;stroke-opacity:1" d="M 248.44,812.077 248.44,823.943 z" id="boundary" inkscape:connector-curvature="0" />
	<path style="fill:none;stroke:red;stroke-width:1px;stroke-linecap:butt;stroke-linejoin:miter;stroke-opacity:1" d="M 248.44,812.077 254.373,800.211 z" id="boundary" inkscape:connector-curvature="0" />
	<path style="fill:none;stroke:red;stroke-width:1px;stroke-linecap:butt;stroke-linejoin:miter;stroke-opacity:1" d="M 248.44,823.943 248.44,835.809 z" id="boundary" inkscape:connector-curvature="0" />
	<path style="fill:none;stroke:red;stroke-width:1px;stroke-linecap:butt;stroke-linejoin:miter;stroke-opacity:1" d="M 250.813,51.4641 259.12,60.9569 z" id="boundary" inkscape:connector-curvature="0" />
	<path style="fill:none;stroke:red;stroke-width:1px;stroke-linecap:butt;stroke-linejoin:miter;stroke-opacity:1" d="M 253.187,909.378 265.053,914.124 z" id="boundary" inkscape:connector-curvature="0" />
	<path style="fill:none;stroke:red;stroke-width:1px;stroke-linecap:butt;stroke-linejoin:miter;stroke-opacity:1" d="M 254.373,218.775 254.373,230.641 z" id="boundary" inkscape:connector-curvature="0" />
	<path style="fill:none;stroke:red;stroke-width:1px;stroke-linecap:butt;stroke-linejoin:miter;stroke-opacity:1" d="M 254.373,218.775 260.306,200.976 z" id="boundary" inkscape:connector-curvature="0" />
	<path style="fill:none;stroke:red;stroke-width:1px;stroke-linecap:butt;stroke-linejoin:miter;stroke-opacity:1" d="M 254.373,230.641 254.373,242.507 z" id="boundary" inkscape:connector-curvature="0" />
	<path style="fill:none;stroke:red;stroke-width:1px;stroke-linecap:butt;stroke-linejoin:miter;stroke-opacity:1" d="M 254.373,242.507 260.306,253.187 z" id="boundary" inkscape:connector-curvature="0" />
	<path style="fill:none;stroke:red;stroke-width:1px;stroke-linecap:butt;stroke-linejoin:miter;stroke-opacity:1" d="M 254.373,764.612 254.373,776.478 z" id="boundary" inkscape:connector-curvature="0" />
	<path style="fill:none;stroke:red;stroke-width:1px;stroke-linecap:butt;stroke-linejoin:miter;stroke-opacity:1" d="M 254.373,764.612 260.306,752.746 z" id="boundary" inkscape:connector-curvature="0" />
	<path style="fill:none;stroke:red;stroke-width:1px;stroke-linecap:butt;stroke-linejoin:miter;stroke-opacity:1" d="M 254.373,776.478 254.373,788.344 z" id="boundary" inkscape:connector-curvature="0" />
	<path style="fill:none;stroke:red;stroke-width:1px;stroke-linecap:butt;stroke-linejoin:miter;stroke-opacity:1" d="M 254.373,788.344 254.373,800.211 z" id="boundary" inkscape:connector-curvature="0" />
	<path style="fill:none;stroke:red;stroke-width:1px;stroke-linecap:butt;stroke-linejoin:miter;stroke-opacity:1" d="M 255.56,990.067 267.426,990.067 z" id="boundary" inkscape:connector-curvature="0" />
	<path style="fill:none;stroke:red;stroke-width:1px;stroke-linecap:butt;stroke-linejoin:miter;stroke-opacity:1" d="M 259.12,60.9569 265.053,71.6364 z" id="boundary" inkscape:connector-curvature="0" />
	<path style="fill:none;stroke:red;stroke-width:1px;stroke-linecap:butt;stroke-linejoin:miter;stroke-opacity:1" d="M 260.306,200.976 266.239,183.177 z" id="boundary" inkscape:connector-curvature="0" />
	<path style="fill:none;stroke:red;stroke-width:1px;stroke-linecap:butt;stroke-linejoin:miter;stroke-opacity:1" d="M 260.306,253.187 266.239,263.866 z" id="boundary" inkscape:connector-curvature="0" />
	<path style="fill:none;stroke:red;stroke-width:1px;stroke-linecap:butt;stroke-linejoin:miter;stroke-opacity:1" d="M 260.306,752.746 266.239,734.947 z" id="boundary" inkscape:connector-curvature="0" />
	<path style="fill:none;stroke:red;stroke-width:1px;stroke-linecap:butt;stroke-linejoin:miter;stroke-opacity:1" d="M 265.053,71.6364 269.799,83.5024 z" id="boundary" inkscape:connector-curvature="0" />
	<path style="fill:none;stroke:red;stroke-width:1px;stroke-linecap:butt;stroke-linejoin:miter;stroke-opacity:1" d="M 265.053,914.124 272.172,923.617 z" id="boundary" inkscape:connector-curvature="0" />
	<path style="fill:none;stroke:red;stroke-width:1px;stroke-linecap:butt;stroke-linejoin:miter;stroke-opacity:1" d="M 266.239,135.713 266.239,147.579 z" id="boundary" inkscape:connector-curvature="0" />
	<path style="fill:none;stroke:red;stroke-width:1px;stroke-linecap:butt;stroke-linejoin:miter;stroke-opacity:1" d="M 266.239,135.713 272.172,119.1 z" id="boundary" inkscape:connector-curvature="0" />
	<path style="fill:none;stroke:red;stroke-width:1px;stroke-linecap:butt;stroke-linejoin:miter;stroke-opacity:1" d="M 266.239,147.579 266.239,159.445 z" id="boundary" inkscape:connector-curvature="0" />
	<path style="fill:none;stroke:red;stroke-width:1px;stroke-linecap:butt;stroke-linejoin:miter;stroke-opacity:1" d="M 266.239,159.445 272.172,170.124 z" id="boundary" inkscape:connector-curvature="0" />
	<path style="fill:none;stroke:red;stroke-width:1px;stroke-linecap:butt;stroke-linejoin:miter;stroke-opacity:1" d="M 266.239,183.177 272.172,170.124 z" id="boundary" inkscape:connector-curvature="0" />
	<path style="fill:none;stroke:red;stroke-width:1px;stroke-linecap:butt;stroke-linejoin:miter;stroke-opacity:1" d="M 266.239,263.866 275.732,272.172 z" id="boundary" inkscape:connector-curvature="0" />
	<path style="fill:none;stroke:red;stroke-width:1px;stroke-linecap:butt;stroke-linejoin:miter;stroke-opacity:1" d="M 266.239,734.947 272.172,717.148 z" id="boundary" inkscape:connector-curvature="0" />
	<path style="fill:none;stroke:red;stroke-width:1px;stroke-linecap:butt;stroke-linejoin:miter;stroke-opacity:1" d="M 267.426,990.067 278.105,984.134 z" id="boundary" inkscape:connector-curvature="0" />
	<path style="fill:none;stroke:red;stroke-width:1px;stroke-linecap:butt;stroke-linejoin:miter;stroke-opacity:1" d="M 269.799,83.5024 272.172,95.3684 z" id="boundary" inkscape:connector-curvature="0" />
	<path style="fill:none;stroke:red;stroke-width:1px;stroke-linecap:butt;stroke-linejoin:miter;stroke-opacity:1" d="M 272.172,95.3684 272.172,107.234 z" id="boundary" inkscape:connector-curvature="0" />
	<path style="fill:none;stroke:red;stroke-width:1px;stroke-linecap:butt;stroke-linejoin:miter;stroke-opacity:1" d="M 272.172,107.234 272.172,119.1 z" id="boundary" inkscape:connector-curvature="0" />
	<path style="fill:none;stroke:red;stroke-width:1px;stroke-linecap:butt;stroke-linejoin:miter;stroke-opacity:1" d="M 272.172,681.55 272.172,693.416 z" id="boundary" inkscape:connector-curvature="0" />
	<path style="fill:none;stroke:red;stroke-width:1px;stroke-linecap:butt;stroke-linejoin:miter;stroke-opacity:1" d="M 272.172,681.55 278.105,669.684 z" id="boundary" inkscape:connector-curvature="0" />
	<path style="fill:none;stroke:red;stroke-width:1px;stroke-linecap:butt;stroke-linejoin:miter;stroke-opacity:1" d="M 272.172,693.416 272.172,705.282 z" id="boundary" inkscape:connector-curvature="0" />
	<path style="fill:none;stroke:red;stroke-width:1px;stroke-linecap:butt;stroke-linejoin:miter;stroke-opacity:1" d="M 272.172,705.282 272.172,717.148 z" id="boundary" inkscape:connector-curvature="0" />
	<path style="fill:none;stroke:red;stroke-width:1px;stroke-linecap:butt;stroke-linejoin:miter;stroke-opacity:1" d="M 272.172,923.617 284.038,927.177 z" id="boundary" inkscape:connector-curvature="0" />
	<path style="fill:none;stroke:red;stroke-width:1px;stroke-linecap:butt;stroke-linejoin:miter;stroke-opacity:1" d="M 275.732,272.172 280.478,284.038 z" id="boundary" inkscape:connector-curvature="0" />
	<path style="fill:none;stroke:red;stroke-width:1px;stroke-linecap:butt;stroke-linejoin:miter;stroke-opacity:1" d="M 278.105,669.684 289.971,663.751 z" id="boundary" inkscape:connector-curvature="0" />
	<path style="fill:none;stroke:red;stroke-width:1px;stroke-linecap:butt;stroke-linejoin:miter;stroke-opacity:1" d="M 278.105,984.134 289.971,978.201 z" id="boundary" inkscape:connector-curvature="0" />
	<path style="fill:none;stroke:red;stroke-width:1px;stroke-linecap:butt;stroke-linejoin:miter;stroke-opacity:1" d="M 280.478,284.038 284.038,295.904 z" id="boundary" inkscape:connector-curvature="0" />
	<path style="fill:none;stroke:red;stroke-width:1px;stroke-linecap:butt;stroke-linejoin:miter;stroke-opacity:1" d="M 284.038,295.904 284.038,307.77 z" id="boundary" inkscape:connector-curvature="0" />
	<path style="fill:none;stroke:red;stroke-width:1px;stroke-linecap:butt;stroke-linejoin:miter;stroke-opacity:1" d="M 284.038,307.77 284.038,319.636 z" id="boundary" inkscape:connector-curvature="0" />
	<path style="fill:none;stroke:red;stroke-width:1px;stroke-linecap:butt;stroke-linejoin:miter;stroke-opacity:1" d="M 284.038,319.636 289.971,330.316 z" id="boundary" inkscape:connector-curvature="0" />
	<path style="fill:none;stroke:red;stroke-width:1px;stroke-linecap:butt;stroke-linejoin:miter;stroke-opacity:1" d="M 284.038,927.177 295.904,929.55 z" id="boundary" inkscape:connector-curvature="0" />
	<path style="fill:none;stroke:red;stroke-width:1px;stroke-linecap:butt;stroke-linejoin:miter;stroke-opacity:1" d="M 289.971,330.316 289.971,342.182 z" id="boundary" inkscape:connector-curvature="0" />
	<path style="fill:none;stroke:red;stroke-width:1px;stroke-linecap:butt;stroke-linejoin:miter;stroke-opacity:1" d="M 289.971,342.182 295.904,352.861 z" id="boundary" inkscape:connector-curvature="0" />
	<path style="fill:none;stroke:red;stroke-width:1px;stroke-linecap:butt;stroke-linejoin:miter;stroke-opacity:1" d="M 289.971,367.1 289.971,378.967 z" id="boundary" inkscape:connector-curvature="0" />
	<path style="fill:none;stroke:red;stroke-width:1px;stroke-linecap:butt;stroke-linejoin:miter;stroke-opacity:1" d="M 289.971,367.1 295.904,352.861 z" id="boundary" inkscape:connector-curvature="0" />
	<path style="fill:none;stroke:red;stroke-width:1px;stroke-linecap:butt;stroke-linejoin:miter;stroke-opacity:1" d="M 289.971,378.967 289.971,390.833 z" id="boundary" inkscape:connector-curvature="0" />
	<path style="fill:none;stroke:red;stroke-width:1px;stroke-linecap:butt;stroke-linejoin:miter;stroke-opacity:1" d="M 289.971,390.833 292.344,402.699 z" id="boundary" inkscape:connector-curvature="0" />
	<path style="fill:none;stroke:red;stroke-width:1px;stroke-linecap:butt;stroke-linejoin:miter;stroke-opacity:1" d="M 289.971,663.751 301.837,663.751 z" id="boundary" inkscape:connector-curvature="0" />
	<path style="fill:none;stroke:red;stroke-width:1px;stroke-linecap:butt;stroke-linejoin:miter;stroke-opacity:1" d="M 289.971,978.201 301.837,978.201 z" id="boundary" inkscape:connector-curvature="0" />
	<path style="fill:none;stroke:red;stroke-width:1px;stroke-linecap:butt;stroke-linejoin:miter;stroke-opacity:1" d="M 292.344,402.699 298.278,413.378 z" id="boundary" inkscape:connector-curvature="0" />
	<path style="fill:none;stroke:red;stroke-width:1px;stroke-linecap:butt;stroke-linejoin:miter;stroke-opacity:1" d="M 295.904,929.55 307.77,933.11 z" id="boundary" inkscape:connector-curvature="0" />
	<path style="fill:none;stroke:red;stroke-width:1px;stroke-linecap:butt;stroke-linejoin:miter;stroke-opacity:1" d="M 298.278,413.378 301.837,425.244 z" id="boundary" inkscape:connector-curvature="0" />
	<path style="fill:none;stroke:red;stroke-width:1px;stroke-linecap:butt;stroke-linejoin:miter;stroke-opacity:1" d="M 301.837,425.244 307.77,435.923 z" id="boundary" inkscape:connector-curvature="0" />
	<path style="fill:none;stroke:red;stroke-width:1px;stroke-linecap:butt;stroke-linejoin:miter;stroke-opacity:1" d="M 301.837,663.751 311.33,655.445 z" id="boundary" inkscape:connector-curvature="0" />
	<path style="fill:none;stroke:red;stroke-width:1px;stroke-linecap:butt;stroke-linejoin:miter;stroke-opacity:1" d="M 301.837,978.201 313.703,972.268 z" id="boundary" inkscape:connector-curvature="0" />
	<path style="fill:none;stroke:red;stroke-width:1px;stroke-linecap:butt;stroke-linejoin:miter;stroke-opacity:1" d="M 307.77,435.923 313.703,446.603 z" id="boundary" inkscape:connector-curvature="0" />
	<path style="fill:none;stroke:red;stroke-width:1px;stroke-linecap:butt;stroke-linejoin:miter;stroke-opacity:1" d="M 307.77,933.11 316.077,942.603 z" id="boundary" inkscape:connector-curvature="0" />
	<path style="fill:none;stroke:red;stroke-width:1px;stroke-linecap:butt;stroke-linejoin:miter;stroke-opacity:1" d="M 311.33,655.445 319.636,638.833 z" id="boundary" inkscape:connector-curvature="0" />
	<path style="fill:none;stroke:red;stroke-width:1px;stroke-linecap:butt;stroke-linejoin:miter;stroke-opacity:1" d="M 313.703,446.603 313.703,458.469 z" id="boundary" inkscape:connector-curvature="0" />
	<path style="fill:none;stroke:red;stroke-width:1px;stroke-linecap:butt;stroke-linejoin:miter;stroke-opacity:1" d="M 313.703,458.469 319.636,469.148 z" id="boundary" inkscape:connector-curvature="0" />
	<path style="fill:none;stroke:red;stroke-width:1px;stroke-linecap:butt;stroke-linejoin:miter;stroke-opacity:1" d="M 313.703,628.153 319.636,616.287 z" id="boundary" inkscape:connector-curvature="0" />
	<path style="fill:none;stroke:red;stroke-width:1px;stroke-linecap:butt;stroke-linejoin:miter;stroke-opacity:1" d="M 313.703,628.153 319.636,638.833 z" id="boundary" inkscape:connector-curvature="0" />
	<path style="fill:none;stroke:red;stroke-width:1px;stroke-linecap:butt;stroke-linejoin:miter;stroke-opacity:1" d="M 313.703,972.268 323.196,963.962 z" id="boundary" inkscape:connector-curvature="0" />
	<path style="fill:none;stroke:red;stroke-width:1px;stroke-linecap:butt;stroke-linejoin:miter;stroke-opacity:1" d="M 316.077,942.603 325.569,950.909 z" id="boundary" inkscape:connector-curvature="0" />
	<path style="fill:none;stroke:red;stroke-width:1px;stroke-linecap:butt;stroke-linejoin:miter;stroke-opacity:1" d="M 319.636,469.148 325.569,479.828 z" id="boundary" inkscape:connector-curvature="0" />
	<path style="fill:none;stroke:red;stroke-width:1px;stroke-linecap:butt;stroke-linejoin:miter;stroke-opacity:1" d="M 319.636,616.287 330.316,610.354 z" id="boundary" inkscape:connector-curvature="0" />
	<path style="fill:none;stroke:red;stroke-width:1px;stroke-linecap:butt;stroke-linejoin:miter;stroke-opacity:1" d="M 323.196,963.962 325.569,950.909 z" id="boundary" inkscape:connector-curvature="0" />
	<path style="fill:none;stroke:red;stroke-width:1px;stroke-linecap:butt;stroke-linejoin:miter;stroke-opacity:1" d="M 325.569,479.828 327.943,491.694 z" id="boundary" inkscape:connector-curvature="0" />
	<path style="fill:none;stroke:red;stroke-width:1px;stroke-linecap:butt;stroke-linejoin:miter;stroke-opacity:1" d="M 327.943,491.694 333.876,502.373 z" id="boundary" inkscape:connector-curvature="0" />
	<path style="fill:none;stroke:red;stroke-width:1px;stroke-linecap:butt;stroke-linejoin:miter;stroke-opacity:1" d="M 330.316,610.354 342.182,610.354 z" id="boundary" inkscape:connector-curvature="0" />
	<path style="fill:none;stroke:red;stroke-width:1px;stroke-linecap:butt;stroke-linejoin:miter;stroke-opacity:1" d="M 333.876,502.373 342.182,511.866 z" id="boundary" inkscape:connector-curvature="0" />
	<path style="fill:none;stroke:red;stroke-width:1px;stroke-linecap:butt;stroke-linejoin:miter;stroke-opacity:1" d="M 342.182,511.866 351.675,520.172 z" id="boundary" inkscape:connector-curvature="0" />
	<path style="fill:none;stroke:red;stroke-width:1px;stroke-linecap:butt;stroke-linejoin:miter;stroke-opacity:1" d="M 342.182,610.354 352.861,604.421 z" id="boundary" inkscape:connector-curvature="0" />
	<path style="fill:none;stroke:red;stroke-width:1px;stroke-linecap:butt;stroke-linejoin:miter;stroke-opacity:1" d="M 351.675,520.172 359.981,529.665 z" id="boundary" inkscape:connector-curvature="0" />
	<path style="fill:none;stroke:red;stroke-width:1px;stroke-linecap:butt;stroke-linejoin:miter;stroke-opacity:1" d="M 352.861,604.421 364.727,602.048 z" id="boundary" inkscape:connector-curvature="0" />
	<path style="fill:none;stroke:red;stroke-width:1px;stroke-linecap:butt;stroke-linejoin:miter;stroke-opacity:1" d="M 359.981,529.665 369.474,537.971 z" id="boundary" inkscape:connector-curvature="0" />
	<path style="fill:none;stroke:red;stroke-width:1px;stroke-linecap:butt;stroke-linejoin:miter;stroke-opacity:1" d="M 364.727,602.048 373.033,592.555 z" id="boundary" inkscape:connector-curvature="0" />
	<path style="fill:none;stroke:red;stroke-width:1px;stroke-linecap:butt;stroke-linejoin:miter;stroke-opacity:1" d="M 369.474,537.971 377.78,547.464 z" id="boundary" inkscape:connector-curvature="0" />
	<path style="fill:none;stroke:red;stroke-width:1px;stroke-linecap:butt;stroke-linejoin:miter;stroke-opacity:1" d="M 373.033,562.89 373.033,574.756 z" id="boundary" inkscape:connector-curvature="0" />
	<path style="fill:none;stroke:red;stroke-width:1px;stroke-linecap:butt;stroke-linejoin:miter;stroke-opacity:1" d="M 373.033,562.89 377.78,547.464 z" id="boundary" inkscape:connector-curvature="0" />
	<path style="fill:none;stroke:red;stroke-width:1px;stroke-linecap:butt;stroke-linejoin:miter;stroke-opacity:1" d="M 373.033,574.756 373.033,592.555 z" id="boundary" inkscape:connector-curvature="0" />
	<circle cx="4" cy="322.01" r="4" fill="#0" id="circle0"/>
	<circle cx="9.93301" cy="310.144" r="4" fill="#0" id="circle1"/>
	<circle cx="9.93301" cy="332.689" r="4" fill="#0" id="circle2"/>
	<circle cx="9.93301" cy="344.555" r="4" fill="#0" id="circle3"/>
	<circle cx="9.93301" cy="356.421" r="4" fill="#0" id="circle4"/>
	<circle cx="15.866" cy="298.278" r="4" fill="#0" id="circle5"/>
	<circle cx="15.866" cy="367.1" r="4" fill="#0" id="circle6"/>
	<circle cx="19.4258" cy="378.967" r="4" fill="#0" id="circle7"/>
	<circle cx="21.799" cy="84.689" r="4" fill="#0" id="circle8"/>
	<circle cx="21.799" cy="96.555" r="4" fill="#0" id="circle9"/>
	<circle cx="21.799" cy="108.421" r="4" fill="#0" id="circle10"/>
	<circle cx="21.799" cy="120.287" r="4" fill="#0" id="circle11"/>
	<circle cx="21.799" cy="286.411" r="4" fill="#0" id="circle12"/>
	<circle cx="25.3589" cy="389.646" r="4" fill="#0" id="circle13"/>
	<circle cx="27.7321" cy="66.89" r="4" fill="#0" id="circle14"/>
	<circle cx="27.7321" cy="130.967" r="4" fill="#0" id="circle15"/>
	<circle cx="27.7321" cy="142.833" r="4" fill="#0" id="circle16"/>
	<circle cx="27.7321" cy="274.545" r="4" fill="#0" id="circle17"/>
	<circle cx="30.1053" cy="401.512" r="4" fill="#0" id="circle18"/>
	<circle cx="33.6651" cy="55.0239" r="4" fill="#0" id="circle19"/>
	<circle cx="33.6651" cy="153.512" r="4" fill="#0" id="circle20"/>
	<circle cx="33.6651" cy="413.378" r="4" fill="#0" id="circle21"/>
	<circle cx="33.6651" cy="425.244" r="4" fill="#0" id="circle22"/>
	<circle cx="33.6651" cy="437.11" r="4" fill="#0" id="circle23"/>
	<circle cx="33.6651" cy="448.976" r="4" fill="#0" id="circle24"/>
	<circle cx="33.6651" cy="460.842" r="4" fill="#0" id="circle25"/>
	<circle cx="36.0383" cy="472.708" r="4" fill="#0" id="circle26"/>
	<circle cx="37.2249" cy="265.053" r="4" fill="#0" id="circle27"/>
	<circle cx="39.5981" cy="484.574" r="4" fill="#0" id="circle28"/>
	<circle cx="39.5981" cy="529.665" r="4" fill="#0" id="circle29"/>
	<circle cx="39.5981" cy="541.531" r="4" fill="#0" id="circle30"/>
	<circle cx="39.5981" cy="553.397" r="4" fill="#0" id="circle31"/>
	<circle cx="39.5981" cy="565.263" r="4" fill="#0" id="circle32"/>
	<circle cx="39.5981" cy="577.129" r="4" fill="#0" id="circle33"/>
	<circle cx="40.7847" cy="163.005" r="4" fill="#0" id="circle34"/>
	<circle cx="41.9713" cy="496.44" r="4" fill="#0" id="circle35"/>
	<circle cx="43.1579" cy="45.5311" r="4" fill="#0" id="circle36"/>
	<circle cx="45.5311" cy="508.306" r="4" fill="#0" id="circle37"/>
	<circle cx="45.5311" cy="587.809" r="4" fill="#0" id="circle38"/>
	<circle cx="45.5311" cy="599.675" r="4" fill="#0" id="circle39"/>
	<circle cx="45.5311" cy="611.541" r="4" fill="#0" id="circle40"/>
	<circle cx="47.9043" cy="259.12" r="4" fill="#0" id="circle41"/>
	<circle cx="50.2775" cy="171.311" r="4" fill="#0" id="circle42"/>
	<circle cx="51.4641" cy="622.22" r="4" fill="#0" id="circle43"/>
	<circle cx="52.6507" cy="36.0383" r="4" fill="#0" id="circle44"/>
	<circle cx="57.3971" cy="250.813" r="4" fill="#0" id="circle45"/>
	<circle cx="57.3971" cy="632.9" r="4" fill="#0" id="circle46"/>
	<circle cx="57.3971" cy="644.766" r="4" fill="#0" id="circle47"/>
	<circle cx="57.3971" cy="656.632" r="4" fill="#0" id="circle48"/>
	<circle cx="58.5837" cy="180.804" r="4" fill="#0" id="circle49"/>
	<circle cx="63.3301" cy="667.311" r="4" fill="#0" id="circle50"/>
	<circle cx="64.5167" cy="30.1053" r="4" fill="#0" id="circle51"/>
	<circle cx="66.89" cy="241.321" r="4" fill="#0" id="circle52"/>
	<circle cx="68.0766" cy="189.11" r="4" fill="#0" id="circle53"/>
	<circle cx="69.2632" cy="677.99" r="4" fill="#0" id="circle54"/>
	<circle cx="74.0096" cy="21.799" r="4" fill="#0" id="circle55"/>
	<circle cx="75.1962" cy="198.603" r="4" fill="#0" id="circle56"/>
	<circle cx="75.1962" cy="227.081" r="4" fill="#0" id="circle57"/>
	<circle cx="78.756" cy="686.297" r="4" fill="#0" id="circle58"/>
	<circle cx="81.1292" cy="209.282" r="4" fill="#0" id="circle59"/>
	<circle cx="81.1292" cy="796.651" r="4" fill="#0" id="circle60"/>
	<circle cx="81.1292" cy="808.517" r="4" fill="#0" id="circle61"/>
	<circle cx="81.1292" cy="820.383" r="4" fill="#0" id="circle62"/>
	<circle cx="81.1292" cy="832.249" r="4" fill="#0" id="circle63"/>
	<circle cx="84.689" cy="15.866" r="4" fill="#0" id="circle64"/>
	<circle cx="87.0622" cy="695.789" r="4" fill="#0" id="circle65"/>
	<circle cx="87.0622" cy="778.852" r="4" fill="#0" id="circle66"/>
	<circle cx="87.0622" cy="842.928" r="4" fill="#0" id="circle67"/>
	<circle cx="87.0622" cy="854.794" r="4" fill="#0" id="circle68"/>
	<circle cx="87.0622" cy="866.66" r="4" fill="#0" id="circle69"/>
	<circle cx="87.0622" cy="939.043" r="4" fill="#0" id="circle70"/>
	<circle cx="87.0622" cy="950.909" r="4" fill="#0" id="circle71"/>
	<circle cx="87.0622" cy="962.775" r="4" fill="#0" id="circle72"/>
	<circle cx="92.9952" cy="766.986" r="4" fill="#0" id="circle73"/>
	<circle cx="92.9952" cy="877.34" r="4" fill="#0" id="circle74"/>
	<circle cx="92.9952" cy="909.378" r="4" fill="#0" id="circle75"/>
	<circle cx="92.9952" cy="921.244" r="4" fill="#0" id="circle76"/>
	<circle cx="96.555" cy="9.93301" r="4" fill="#0" id="circle77"/>
	<circle cx="96.555" cy="704.096" r="4" fill="#0" id="circle78"/>
	<circle cx="96.555" cy="971.081" r="4" fill="#0" id="circle79"/>
	<circle cx="98.9282" cy="755.12" r="4" fill="#0" id="circle80"/>
	<circle cx="98.9282" cy="888.019" r="4" fill="#0" id="circle81"/>
	<circle cx="104.861" cy="713.589" r="4" fill="#0" id="circle82"/>
	<circle cx="104.861" cy="725.455" r="4" fill="#0" id="circle83"/>
	<circle cx="104.861" cy="737.321" r="4" fill="#0" id="circle84"/>
	<circle cx="106.048" cy="978.201" r="4" fill="#0" id="circle85"/>
	<circle cx="108.421" cy="4" r="4" fill="#0" id="circle86"/>
	<circle cx="116.727" cy="984.134" r="4" fill="#0" id="circle87"/>
	<circle cx="120.287" cy="4" r="4" fill="#0" id="circle88"/>
	<circle cx="128.593" cy="984.134" r="4" fill="#0" id="circle89"/>
	<circle cx="132.153" cy="4" r="4" fill="#0" id="circle90"/>
	<circle cx="139.273" cy="990.067" r="4" fill="#0" id="circle91"/>
	<circle cx="144.019" cy="4" r="4" fill="#0" id="circle92"/>
	<circle cx="151.139" cy="990.067" r="4" fill="#0" id="circle93"/>
	<circle cx="154.699" cy="9.93301" r="4" fill="#0" id="circle94"/>
	<circle cx="161.818" cy="996" r="4" fill="#0" id="circle95"/>
	<circle cx="166.565" cy="9.93301" r="4" fill="#0" id="circle96"/>
	<circle cx="173.684" cy="996" r="4" fill="#0" id="circle97"/>
	<circle cx="178.431" cy="9.93301" r="4" fill="#0" id="circle98"/>
	<circle cx="185.55" cy="996" r="4" fill="#0" id="circle99"/>
	<circle cx="189.11" cy="15.866" r="4" fill="#0" id="circle100"/>
	<circle cx="197.416" cy="996" r="4" fill="#0" id="circle101"/>
	<circle cx="200.976" cy="15.866" r="4" fill="#0" id="circle102"/>
	<circle cx="209.282" cy="996" r="4" fill="#0" id="circle103"/>
	<circle cx="210.469" cy="22.9856" r="4" fill="#0" id="circle104"/>
	<circle cx="221.148" cy="28.9187" r="4" fill="#0" id="circle105"/>
	<circle cx="221.148" cy="996" r="4" fill="#0" id="circle106"/>
	<circle cx="230.641" cy="37.2249" r="4" fill="#0" id="circle107"/>
	<circle cx="230.641" cy="883.273" r="4" fill="#0" id="circle108"/>
	<circle cx="233.014" cy="895.139" r="4" fill="#0" id="circle109"/>
	<circle cx="233.014" cy="996" r="4" fill="#0" id="circle110"/>
	<circle cx="236.574" cy="865.474" r="4" fill="#0" id="circle111"/>
	<circle cx="241.321" cy="43.1579" r="4" fill="#0" id="circle112"/>
	<circle cx="242.507" cy="847.675" r="4" fill="#0" id="circle113"/>
	<circle cx="242.507" cy="903.445" r="4" fill="#0" id="circle114"/>
	<circle cx="244.88" cy="996" r="4" fill="#0" id="circle115"/>
	<circle cx="248.44" cy="812.077" r="4" fill="#0" id="circle116"/>
	<circle cx="248.44" cy="823.943" r="4" fill="#0" id="circle117"/>
	<circle cx="248.44" cy="835.809" r="4" fill="#0" id="circle118"/>
	<circle cx="250.813" cy="51.4641" r="4" fill="#0" id="circle119"/>
	<circle cx="253.187" cy="909.378" r="4" fill="#0" id="circle120"/>
	<circle cx="254.373" cy="218.775" r="4" fill="#0" id="circle121"/>
	<circle cx="254.373" cy="230.641" r="4" fill="#0" id="circle122"/>
	<circle cx="254.373" cy="242.507" r="4" fill="#0" id="circle123"/>
	<circle cx="254.373" cy="764.612" r="4" fill="#0" id="circle124"/>
	<circle cx="254.373" cy="776.478" r="4" fill="#0" id="circle125"/>
	<circle cx="254.373" cy="788.344" r="4" fill="#0" id="circle126"/>
	<circle cx="254.373" cy="800.211" r="4" fill="#0" id="circle127"/>
	<circle cx="255.56" cy="990.067" r="4" fill="#0" id="circle128"/>
	<circle cx="259.12" cy="60.9569" r="4" fill="#0" id="circle129"/>
	<circle cx="260.306" cy="200.976" r="4" fill="#0" id="circle130"/>
	<circle cx="260.306" cy="253.187" r="4" fill="#0" id="circle131"/>
	<circle cx="260.306" cy="752.746" r="4" fill="#0" id="circle132"/>
	<circle cx="265.053" cy="71.6364" r="4" fill="#0" id="circle133"/>
	<circle cx="265.053" cy="914.124" r="4" fill="#0" id="circle134"/>
	<circle cx="266.239" cy="135.713" r="4" fill="#0" id="circle135"/>
	<circle cx="266.239" cy="147.579" r="4" fill="#0" id="circle136"/>
	<circle cx="266.239" cy="159.445" r="4" fill="#0" id="circle137"/>
	<circle cx="266.239" cy="183.177" r="4" fill="#0" id="circle138"/>
	<circle cx="266.239" cy="263.866" r="4" fill="#0" id="circle139"/>
	<circle cx="266.239" cy="734.947" r="4" fill="#0" id="circle140"/>
	<circle cx="267.426" cy="990.067" r="4" fill="#0" id="circle141"/>
	<circle cx="269.799" cy="83.5024" r="4" fill="#0" id="circle142"/>
	<circle cx="272.172" cy="95.3684" r="4" fill="#0" id="circle143"/>
	<circle cx="272.172" cy="107.234" r="4" fill="#0" id="circle144"/>
	<circle cx="272.172" cy="119.1" r="4" fill="#0" id="circle145"/>
	<circle cx="272.172" cy="170.124" r="4" fill="#0" id="circle146"/>
	<circle cx="272.172" cy="681.55" r="4" fill="#0" id="circle147"/>
	<circle cx="272.172" cy="693.416" r="4" fill="#0" id="circle148"/>
	<circle cx="272.172" cy="705.282" r="4" fill="#0" id="circle149"/>
	<circle cx="272.172" cy="717.148" r="4" fill="#0" id="circle150"/>
	<circle cx="272.172" cy="923.617" r="4" fill="#0" id="circle151"/>
	<circle cx="275.732" cy="272.172" r="4" fill="#0" id="circle152"/>
	<circle cx="278.105" cy="669.684" r="4" fill="#0" id="circle153"/>
	<circle cx="278.105" cy="984.134" r="4" fill="#0" id="circle154"/>
	<circle cx="280.478" cy="284.038" r="4" fill="#0" id="circle155"/>
	<circle cx="284.038" cy="295.904" r="4" fill="#0" id="circle156"/>
	<circle cx="284.038" cy="307.77" r="4" fill="#0" id="circle157"/>
	<circle cx="284.038" cy="319.636" r="4" fill="#0" id="circle158"/>
	<circle cx="284.038" cy="927.177" r="4" fill="#0" id="circle159"/>
	<circle cx="289.971" cy="330.316" r="4" fill="#0" id="circle160"/>
	<circle cx="289.971" cy="342.182" r="4" fill="#0" id="circle161"/>
	<circle cx="289.971" cy="367.1" r="4" fill="#0" id="circle162"/>
	<circle cx="289.971" cy="378.967" r="4" fill="#0" id="circle163"/>
	<circle cx="289.971" cy="390.833" r="4" fill="#0" id="circle164"/>
	<circle cx="289.971" cy="663.751" r="4" fill="#0" id="circle165"/>
	<circle cx="289.971" cy="978.201" r="4" fill="#0" id="circle166"/>
	<circle cx="292.344" cy="402.699" r="4" fill="#0" id="circle167"/>
	<circle cx="295.904" cy="352.861" r="4" fill="#0" id="circle168"/>
	<circle cx="295.904" cy="929.55" r="4" fill="#0" id="circle169"/>
	<circle cx="298.278" cy="413.378" r="4" fill="#0" id="circle170"/>
	<circle cx="301.837" cy="425.244" r="4" fill="#0" id="circle171"/>
	<circle cx="301.837" cy="663.751" r="4" fill="#0" id="circle172"/>
	<circle cx="301.837" cy="978.201" r="4" fill="#0" id="circle173"/>
	<circle cx="307.77" cy="435.923" r="4" fill="#0" id="circle174"/>
	<circle cx="307.77" cy="933.11" r="4" fill="#0" id="circle175"/>
	<circle cx="311.33" cy="655.445" r="4" fill="#0" id="circle176"/>
	<circle cx="313.703" cy="446.603" r="4" fill="#0" id="circle177"/>
	<circle cx="313.703" cy="458.469" r="4" fill="#0" id="circle178"/>
	<circle cx="313.703" cy="628.153" r="4" fill="#0" id="circle179"/>
	<circle cx="313.703" cy="972.268" r="4" fill="#0" id="circle180"/>
	<circle cx="316.077" cy="942.603" r="4" fill="#0" id="circle181"/>
	<circle cx="319.636" cy="469.148" r="4" fill="#0" id="circle182"/>
	<circle cx="319.636" cy="616.287" r="4" fill="#0" id="circle183"/>
	<circle cx="319.636" cy="638.833" r="4" fill="#0" id="circle184"/>
	<circle cx="323.196" cy="963.962" r="4" fill="#0" id="circle185"/>
	<circle cx="325.569" cy="479.828" r="4" fill="#0" id="circle186"/>
	<circle cx="325.569" cy="950.909" r="4" fill="#0" id="circle187"/>
	<circle cx="327.943" cy="491.694" r="4" fill="#0" id="circle188"/>
	<circle cx="330.316" cy="610.354" r="4" fill="#0" id="circle189"/>
	<circle cx="333.876" cy="502.373" r="4" fill="#0" id="circle190"/>
	<circle cx="342.182" cy="511.866" r="4" fill="#0" id="circle191"/>
	<circle cx="342.182" cy="610.354" r="4" fill="#0" id="circle192"/>
	<circle cx="351.675" cy="520.172" r="4" fill="#0" id="circle193"/>
	<circle cx="352.861" cy="604.421" r="4" fill="#0" id="circle194"/>
	<circle cx="359.981" cy="529.665" r="4" fill="#0" id="circle195"/>
	<circle cx="364.727" cy="602.048" r="4" fill="#0" id="circle196"/>
	<circle cx="369.474" cy="537.971" r="4" fill="#0" id="circle197"/>
	<circle cx="373.033" cy="562.89" r="4" fill="#0" id="circle198"/>
	<circle cx="373.033" cy="574.756" r="4" fill="#0" id="circle199"/>
	<circle cx="373.033" cy="592.555" r="4" fill="#0" id="circle200"/>
	<circle cx="377.78" cy="547.464" r="4" fill="#0" id="circle201"/>
	</g>
</svg>