<?xml version="1.0" encoding="UTF-8" standalone="no"?>
<!-- Created with CurveBenchmark -->
<svg
	xmlns:dc="http://purl.org/dc/elements/1.1/"
	xmlns:cc="http://creativecommons.org/ns#"
	xmlns:rdf="http://www.w3.org/1999/02/22-rdf-syntax-ns#"
	xmlns:svg="http://www.w3.org/2000/svg"
	xmlns="http://www.w3.org/2000/svg"
	xmlns:sodipodi="http://sodipodi.sourceforge.net/DTD/sodipodi-0.dtd"
	xmlns:inkscape="http://www.inkscape.org/namespaces/inkscape"
	width="1000"
	height="1000"
	id="svg2"
	version="1.1"
	sodipodi:docname="manifold/vicur-apple-16.png.txt">
<defs
	id="defs4" />
<metadata
	id="metadata7">
	<rdf:RDF>
		<cc:Work
			rdf:about="">
			<dc:format>image/svg+xml</dc:format>
			<dc:type
				rdf:resource="http://purl.org/dc/dcmitype/StillImage" />
			<dc:title></dc:title>
		</cc:Work>
	</rdf:RDF>
</metadata>
<g
	inkscape:label="Layer 1"
	inkscape:groupmode="layer"
	id="layer1">
	<path style="fill:none;stroke:red;stroke-width:1px;stroke-linecap:butt;stroke-linejoin:miter;stroke-opacity:1" d="M 4,531.271 4,540.892 z" id="boundary" inkscape:connector-curvature="0" />
	<path style="fill:none;stroke:red;stroke-width:1px;stroke-linecap:butt;stroke-linejoin:miter;stroke-opacity:1" d="M 4,531.271 8.81086,521.649 z" id="boundary" inkscape:connector-curvature="0" />
	<path style="fill:none;stroke:red;stroke-width:1px;stroke-linecap:butt;stroke-linejoin:miter;stroke-opacity:1" d="M 4,540.892 4,550.514 z" id="boundary" inkscape:connector-curvature="0" />
	<path style="fill:none;stroke:red;stroke-width:1px;stroke-linecap:butt;stroke-linejoin:miter;stroke-opacity:1" d="M 4,550.514 4,560.136 z" id="boundary" inkscape:connector-curvature="0" />
	<path style="fill:none;stroke:red;stroke-width:1px;stroke-linecap:butt;stroke-linejoin:miter;stroke-opacity:1" d="M 4,560.136 4,569.758 z" id="boundary" inkscape:connector-curvature="0" />
	<path style="fill:none;stroke:red;stroke-width:1px;stroke-linecap:butt;stroke-linejoin:miter;stroke-opacity:1" d="M 4,569.758 4,579.379 z" id="boundary" inkscape:connector-curvature="0" />
	<path style="fill:none;stroke:red;stroke-width:1px;stroke-linecap:butt;stroke-linejoin:miter;stroke-opacity:1" d="M 4,579.379 4,589.001 z" id="boundary" inkscape:connector-curvature="0" />
	<path style="fill:none;stroke:red;stroke-width:1px;stroke-linecap:butt;stroke-linejoin:miter;stroke-opacity:1" d="M 4,589.001 4,598.623 z" id="boundary" inkscape:connector-curvature="0" />
	<path style="fill:none;stroke:red;stroke-width:1px;stroke-linecap:butt;stroke-linejoin:miter;stroke-opacity:1" d="M 4,598.623 4,608.244 z" id="boundary" inkscape:connector-curvature="0" />
	<path style="fill:none;stroke:red;stroke-width:1px;stroke-linecap:butt;stroke-linejoin:miter;stroke-opacity:1" d="M 4,608.244 4,617.866 z" id="boundary" inkscape:connector-curvature="0" />
	<path style="fill:none;stroke:red;stroke-width:1px;stroke-linecap:butt;stroke-linejoin:miter;stroke-opacity:1" d="M 4,617.866 8.81086,626.526 z" id="boundary" inkscape:connector-curvature="0" />
	<path style="fill:none;stroke:red;stroke-width:1px;stroke-linecap:butt;stroke-linejoin:miter;stroke-opacity:1" d="M 8.81086,502.405 8.81086,512.027 z" id="boundary" inkscape:connector-curvature="0" />
	<path style="fill:none;stroke:red;stroke-width:1px;stroke-linecap:butt;stroke-linejoin:miter;stroke-opacity:1" d="M 8.81086,502.405 13.6217,487.973 z" id="boundary" inkscape:connector-curvature="0" />
	<path style="fill:none;stroke:red;stroke-width:1px;stroke-linecap:butt;stroke-linejoin:miter;stroke-opacity:1" d="M 8.81086,512.027 8.81086,521.649 z" id="boundary" inkscape:connector-curvature="0" />
	<path style="fill:none;stroke:red;stroke-width:1px;stroke-linecap:butt;stroke-linejoin:miter;stroke-opacity:1" d="M 8.81086,626.526 8.81086,636.147 z" id="boundary" inkscape:connector-curvature="0" />
	<path style="fill:none;stroke:red;stroke-width:1px;stroke-linecap:butt;stroke-linejoin:miter;stroke-opacity:1" d="M 8.81086,636.147 8.81086,645.769 z" id="boundary" inkscape:connector-curvature="0" />
	<path style="fill:none;stroke:red;stroke-width:1px;stroke-linecap:butt;stroke-linejoin:miter;stroke-opacity:1" d="M 8.81086,645.769 13.6217,654.429 z" id="boundary" inkscape:connector-curvature="0" />
	<path style="fill:none;stroke:red;stroke-width:1px;stroke-linecap:butt;stroke-linejoin:miter;stroke-opacity:1" d="M 13.6217,478.351 13.6217,487.973 z" id="boundary" inkscape:connector-curvature="0" />
	<path style="fill:none;stroke:red;stroke-width:1px;stroke-linecap:butt;stroke-linejoin:miter;stroke-opacity:1" d="M 13.6217,478.351 18.4326,468.729 z" id="boundary" inkscape:connector-curvature="0" />
	<path style="fill:none;stroke:red;stroke-width:1px;stroke-linecap:butt;stroke-linejoin:miter;stroke-opacity:1" d="M 13.6217,654.429 13.6217,664.05 z" id="boundary" inkscape:connector-curvature="0" />
	<path style="fill:none;stroke:red;stroke-width:1px;stroke-linecap:butt;stroke-linejoin:miter;stroke-opacity:1" d="M 13.6217,664.05 16.5082,673.672 z" id="boundary" inkscape:connector-curvature="0" />
	<path style="fill:none;stroke:red;stroke-width:1px;stroke-linecap:butt;stroke-linejoin:miter;stroke-opacity:1" d="M 16.5082,673.672 18.4326,683.294 z" id="boundary" inkscape:connector-curvature="0" />
	<path style="fill:none;stroke:red;stroke-width:1px;stroke-linecap:butt;stroke-linejoin:miter;stroke-opacity:1" d="M 18.4326,459.108 18.4326,468.729 z" id="boundary" inkscape:connector-curvature="0" />
	<path style="fill:none;stroke:red;stroke-width:1px;stroke-linecap:butt;stroke-linejoin:miter;stroke-opacity:1" d="M 18.4326,459.108 23.2435,444.675 z" id="boundary" inkscape:connector-curvature="0" />
	<path style="fill:none;stroke:red;stroke-width:1px;stroke-linecap:butt;stroke-linejoin:miter;stroke-opacity:1" d="M 18.4326,683.294 21.3191,692.916 z" id="boundary" inkscape:connector-curvature="0" />
	<path style="fill:none;stroke:red;stroke-width:1px;stroke-linecap:butt;stroke-linejoin:miter;stroke-opacity:1" d="M 21.3191,692.916 23.2435,702.537 z" id="boundary" inkscape:connector-curvature="0" />
	<path style="fill:none;stroke:red;stroke-width:1px;stroke-linecap:butt;stroke-linejoin:miter;stroke-opacity:1" d="M 23.2435,444.675 28.0543,430.242 z" id="boundary" inkscape:connector-curvature="0" />
	<path style="fill:none;stroke:red;stroke-width:1px;stroke-linecap:butt;stroke-linejoin:miter;stroke-opacity:1" d="M 23.2435,702.537 28.0543,711.197 z" id="boundary" inkscape:connector-curvature="0" />
	<path style="fill:none;stroke:red;stroke-width:1px;stroke-linecap:butt;stroke-linejoin:miter;stroke-opacity:1" d="M 28.0543,430.242 32.8652,420.621 z" id="boundary" inkscape:connector-curvature="0" />
	<path style="fill:none;stroke:red;stroke-width:1px;stroke-linecap:butt;stroke-linejoin:miter;stroke-opacity:1" d="M 28.0543,711.197 29.9787,720.819 z" id="boundary" inkscape:connector-curvature="0" />
	<path style="fill:none;stroke:red;stroke-width:1px;stroke-linecap:butt;stroke-linejoin:miter;stroke-opacity:1" d="M 29.9787,720.819 34.7895,729.478 z" id="boundary" inkscape:connector-curvature="0" />
	<path style="fill:none;stroke:red;stroke-width:1px;stroke-linecap:butt;stroke-linejoin:miter;stroke-opacity:1" d="M 32.8652,420.621 37.676,406.188 z" id="boundary" inkscape:connector-curvature="0" />
	<path style="fill:none;stroke:red;stroke-width:1px;stroke-linecap:butt;stroke-linejoin:miter;stroke-opacity:1" d="M 34.7895,729.478 37.676,739.1 z" id="boundary" inkscape:connector-curvature="0" />
	<path style="fill:none;stroke:red;stroke-width:1px;stroke-linecap:butt;stroke-linejoin:miter;stroke-opacity:1" d="M 37.676,406.188 42.4869,396.566 z" id="boundary" inkscape:connector-curvature="0" />
	<path style="fill:none;stroke:red;stroke-width:1px;stroke-linecap:butt;stroke-linejoin:miter;stroke-opacity:1" d="M 37.676,739.1 42.4869,747.759 z" id="boundary" inkscape:connector-curvature="0" />
	<path style="fill:none;stroke:red;stroke-width:1px;stroke-linecap:butt;stroke-linejoin:miter;stroke-opacity:1" d="M 42.4869,396.566 47.2978,386.945 z" id="boundary" inkscape:connector-curvature="0" />
	<path style="fill:none;stroke:red;stroke-width:1px;stroke-linecap:butt;stroke-linejoin:miter;stroke-opacity:1" d="M 42.4869,747.759 47.2978,756.419 z" id="boundary" inkscape:connector-curvature="0" />
	<path style="fill:none;stroke:red;stroke-width:1px;stroke-linecap:butt;stroke-linejoin:miter;stroke-opacity:1" d="M 47.2978,386.945 52.1086,377.323 z" id="boundary" inkscape:connector-curvature="0" />
	<path style="fill:none;stroke:red;stroke-width:1px;stroke-linecap:butt;stroke-linejoin:miter;stroke-opacity:1" d="M 47.2978,756.419 52.1086,765.079 z" id="boundary" inkscape:connector-curvature="0" />
	<path style="fill:none;stroke:red;stroke-width:1px;stroke-linecap:butt;stroke-linejoin:miter;stroke-opacity:1" d="M 52.1086,377.323 59.806,369.626 z" id="boundary" inkscape:connector-curvature="0" />
	<path style="fill:none;stroke:red;stroke-width:1px;stroke-linecap:butt;stroke-linejoin:miter;stroke-opacity:1" d="M 52.1086,765.079 54.9952,774.7 z" id="boundary" inkscape:connector-curvature="0" />
	<path style="fill:none;stroke:red;stroke-width:1px;stroke-linecap:butt;stroke-linejoin:miter;stroke-opacity:1" d="M 54.9952,774.7 61.7304,782.398 z" id="boundary" inkscape:connector-curvature="0" />
	<path style="fill:none;stroke:red;stroke-width:1px;stroke-linecap:butt;stroke-linejoin:miter;stroke-opacity:1" d="M 59.806,369.626 64.6169,360.004 z" id="boundary" inkscape:connector-curvature="0" />
	<path style="fill:none;stroke:red;stroke-width:1px;stroke-linecap:butt;stroke-linejoin:miter;stroke-opacity:1" d="M 61.7304,782.398 66.5412,791.057 z" id="boundary" inkscape:connector-curvature="0" />
	<path style="fill:none;stroke:red;stroke-width:1px;stroke-linecap:butt;stroke-linejoin:miter;stroke-opacity:1" d="M 64.6169,360.004 69.4277,350.382 z" id="boundary" inkscape:connector-curvature="0" />
	<path style="fill:none;stroke:red;stroke-width:1px;stroke-linecap:butt;stroke-linejoin:miter;stroke-opacity:1" d="M 66.5412,791.057 71.3521,799.717 z" id="boundary" inkscape:connector-curvature="0" />
	<path style="fill:none;stroke:red;stroke-width:1px;stroke-linecap:butt;stroke-linejoin:miter;stroke-opacity:1" d="M 69.4277,350.382 76.1629,338.836 z" id="boundary" inkscape:connector-curvature="0" />
	<path style="fill:none;stroke:red;stroke-width:1px;stroke-linecap:butt;stroke-linejoin:miter;stroke-opacity:1" d="M 71.3521,799.717 76.1629,808.376 z" id="boundary" inkscape:connector-curvature="0" />
	<path style="fill:none;stroke:red;stroke-width:1px;stroke-linecap:butt;stroke-linejoin:miter;stroke-opacity:1" d="M 76.1629,338.836 83.8603,331.139 z" id="boundary" inkscape:connector-curvature="0" />
	<path style="fill:none;stroke:red;stroke-width:1px;stroke-linecap:butt;stroke-linejoin:miter;stroke-opacity:1" d="M 76.1629,808.376 81.936,816.074 z" id="boundary" inkscape:connector-curvature="0" />
	<path style="fill:none;stroke:red;stroke-width:1px;stroke-linecap:butt;stroke-linejoin:miter;stroke-opacity:1" d="M 81.936,816.074 89.6334,822.809 z" id="boundary" inkscape:connector-curvature="0" />
	<path style="fill:none;stroke:red;stroke-width:1px;stroke-linecap:butt;stroke-linejoin:miter;stroke-opacity:1" d="M 83.8603,331.139 90.5955,319.593 z" id="boundary" inkscape:connector-curvature="0" />
	<path style="fill:none;stroke:red;stroke-width:1px;stroke-linecap:butt;stroke-linejoin:miter;stroke-opacity:1" d="M 89.6334,822.809 93.4821,832.431 z" id="boundary" inkscape:connector-curvature="0" />
	<path style="fill:none;stroke:red;stroke-width:1px;stroke-linecap:butt;stroke-linejoin:miter;stroke-opacity:1" d="M 90.5955,319.593 98.2929,311.895 z" id="boundary" inkscape:connector-curvature="0" />
	<path style="fill:none;stroke:red;stroke-width:1px;stroke-linecap:butt;stroke-linejoin:miter;stroke-opacity:1" d="M 93.4821,832.431 101.179,839.166 z" id="boundary" inkscape:connector-curvature="0" />
	<path style="fill:none;stroke:red;stroke-width:1px;stroke-linecap:butt;stroke-linejoin:miter;stroke-opacity:1" d="M 98.2929,311.895 105.99,304.198 z" id="boundary" inkscape:connector-curvature="0" />
	<path style="fill:none;stroke:red;stroke-width:1px;stroke-linecap:butt;stroke-linejoin:miter;stroke-opacity:1" d="M 101.179,839.166 107.915,846.863 z" id="boundary" inkscape:connector-curvature="0" />
	<path style="fill:none;stroke:red;stroke-width:1px;stroke-linecap:butt;stroke-linejoin:miter;stroke-opacity:1" d="M 105.99,304.198 113.688,297.463 z" id="boundary" inkscape:connector-curvature="0" />
	<path style="fill:none;stroke:red;stroke-width:1px;stroke-linecap:butt;stroke-linejoin:miter;stroke-opacity:1" d="M 107.915,846.863 115.612,853.598 z" id="boundary" inkscape:connector-curvature="0" />
	<path style="fill:none;stroke:red;stroke-width:1px;stroke-linecap:butt;stroke-linejoin:miter;stroke-opacity:1" d="M 113.688,297.463 120.423,289.765 z" id="boundary" inkscape:connector-curvature="0" />
	<path style="fill:none;stroke:red;stroke-width:1px;stroke-linecap:butt;stroke-linejoin:miter;stroke-opacity:1" d="M 115.612,853.598 122.347,861.296 z" id="boundary" inkscape:connector-curvature="0" />
	<path style="fill:none;stroke:red;stroke-width:1px;stroke-linecap:butt;stroke-linejoin:miter;stroke-opacity:1" d="M 120.423,289.765 128.12,283.03 z" id="boundary" inkscape:connector-curvature="0" />
	<path style="fill:none;stroke:red;stroke-width:1px;stroke-linecap:butt;stroke-linejoin:miter;stroke-opacity:1" d="M 122.347,861.296 130.045,868.031 z" id="boundary" inkscape:connector-curvature="0" />
	<path style="fill:none;stroke:red;stroke-width:1px;stroke-linecap:butt;stroke-linejoin:miter;stroke-opacity:1" d="M 128.12,283.03 134.855,275.333 z" id="boundary" inkscape:connector-curvature="0" />
	<path style="fill:none;stroke:red;stroke-width:1px;stroke-linecap:butt;stroke-linejoin:miter;stroke-opacity:1" d="M 130.045,868.031 136.78,875.728 z" id="boundary" inkscape:connector-curvature="0" />
	<path style="fill:none;stroke:red;stroke-width:1px;stroke-linecap:butt;stroke-linejoin:miter;stroke-opacity:1" d="M 134.855,275.333 142.553,268.597 z" id="boundary" inkscape:connector-curvature="0" />
	<path style="fill:none;stroke:red;stroke-width:1px;stroke-linecap:butt;stroke-linejoin:miter;stroke-opacity:1" d="M 136.78,875.728 144.477,882.464 z" id="boundary" inkscape:connector-curvature="0" />
	<path style="fill:none;stroke:red;stroke-width:1px;stroke-linecap:butt;stroke-linejoin:miter;stroke-opacity:1" d="M 142.553,268.597 149.288,260.9 z" id="boundary" inkscape:connector-curvature="0" />
	<path style="fill:none;stroke:red;stroke-width:1px;stroke-linecap:butt;stroke-linejoin:miter;stroke-opacity:1" d="M 144.477,882.464 151.212,890.161 z" id="boundary" inkscape:connector-curvature="0" />
	<path style="fill:none;stroke:red;stroke-width:1px;stroke-linecap:butt;stroke-linejoin:miter;stroke-opacity:1" d="M 149.288,260.9 156.985,254.165 z" id="boundary" inkscape:connector-curvature="0" />
	<path style="fill:none;stroke:red;stroke-width:1px;stroke-linecap:butt;stroke-linejoin:miter;stroke-opacity:1" d="M 151.212,890.161 159.872,894.972 z" id="boundary" inkscape:connector-curvature="0" />
	<path style="fill:none;stroke:red;stroke-width:1px;stroke-linecap:butt;stroke-linejoin:miter;stroke-opacity:1" d="M 156.985,254.165 165.645,249.354 z" id="boundary" inkscape:connector-curvature="0" />
	<path style="fill:none;stroke:red;stroke-width:1px;stroke-linecap:butt;stroke-linejoin:miter;stroke-opacity:1" d="M 159.872,894.972 167.569,900.745 z" id="boundary" inkscape:connector-curvature="0" />
	<path style="fill:none;stroke:red;stroke-width:1px;stroke-linecap:butt;stroke-linejoin:miter;stroke-opacity:1" d="M 165.645,249.354 173.342,241.657 z" id="boundary" inkscape:connector-curvature="0" />
	<path style="fill:none;stroke:red;stroke-width:1px;stroke-linecap:butt;stroke-linejoin:miter;stroke-opacity:1" d="M 167.569,900.745 174.305,908.442 z" id="boundary" inkscape:connector-curvature="0" />
	<path style="fill:none;stroke:red;stroke-width:1px;stroke-linecap:butt;stroke-linejoin:miter;stroke-opacity:1" d="M 173.342,241.657 182.964,236.846 z" id="boundary" inkscape:connector-curvature="0" />
	<path style="fill:none;stroke:red;stroke-width:1px;stroke-linecap:butt;stroke-linejoin:miter;stroke-opacity:1" d="M 174.305,908.442 183.926,912.291 z" id="boundary" inkscape:connector-curvature="0" />
	<path style="fill:none;stroke:red;stroke-width:1px;stroke-linecap:butt;stroke-linejoin:miter;stroke-opacity:1" d="M 182.964,236.846 190.661,230.111 z" id="boundary" inkscape:connector-curvature="0" />
	<path style="fill:none;stroke:red;stroke-width:1px;stroke-linecap:butt;stroke-linejoin:miter;stroke-opacity:1" d="M 183.926,912.291 191.624,919.026 z" id="boundary" inkscape:connector-curvature="0" />
	<path style="fill:none;stroke:red;stroke-width:1px;stroke-linecap:butt;stroke-linejoin:miter;stroke-opacity:1" d="M 190.661,230.111 199.321,225.3 z" id="boundary" inkscape:connector-curvature="0" />
	<path style="fill:none;stroke:red;stroke-width:1px;stroke-linecap:butt;stroke-linejoin:miter;stroke-opacity:1" d="M 191.624,919.026 200.283,923.837 z" id="boundary" inkscape:connector-curvature="0" />
	<path style="fill:none;stroke:red;stroke-width:1px;stroke-linecap:butt;stroke-linejoin:miter;stroke-opacity:1" d="M 199.321,225.3 207.981,220.489 z" id="boundary" inkscape:connector-curvature="0" />
	<path style="fill:none;stroke:red;stroke-width:1px;stroke-linecap:butt;stroke-linejoin:miter;stroke-opacity:1" d="M 200.283,923.837 208.943,928.648 z" id="boundary" inkscape:connector-curvature="0" />
	<path style="fill:none;stroke:red;stroke-width:1px;stroke-linecap:butt;stroke-linejoin:miter;stroke-opacity:1" d="M 207.981,220.489 216.64,215.678 z" id="boundary" inkscape:connector-curvature="0" />
	<path style="fill:none;stroke:red;stroke-width:1px;stroke-linecap:butt;stroke-linejoin:miter;stroke-opacity:1" d="M 208.943,928.648 217.602,933.459 z" id="boundary" inkscape:connector-curvature="0" />
	<path style="fill:none;stroke:red;stroke-width:1px;stroke-linecap:butt;stroke-linejoin:miter;stroke-opacity:1" d="M 216.64,215.678 225.3,210.867 z" id="boundary" inkscape:connector-curvature="0" />
	<path style="fill:none;stroke:red;stroke-width:1px;stroke-linecap:butt;stroke-linejoin:miter;stroke-opacity:1" d="M 217.602,933.459 226.262,938.27 z" id="boundary" inkscape:connector-curvature="0" />
	<path style="fill:none;stroke:red;stroke-width:1px;stroke-linecap:butt;stroke-linejoin:miter;stroke-opacity:1" d="M 225.3,210.867 233.959,206.056 z" id="boundary" inkscape:connector-curvature="0" />
	<path style="fill:none;stroke:red;stroke-width:1px;stroke-linecap:butt;stroke-linejoin:miter;stroke-opacity:1" d="M 226.262,938.27 234.921,943.081 z" id="boundary" inkscape:connector-curvature="0" />
	<path style="fill:none;stroke:red;stroke-width:1px;stroke-linecap:butt;stroke-linejoin:miter;stroke-opacity:1" d="M 233.959,206.056 242.619,201.245 z" id="boundary" inkscape:connector-curvature="0" />
	<path style="fill:none;stroke:red;stroke-width:1px;stroke-linecap:butt;stroke-linejoin:miter;stroke-opacity:1" d="M 234.921,943.081 243.581,947.891 z" id="boundary" inkscape:connector-curvature="0" />
	<path style="fill:none;stroke:red;stroke-width:1px;stroke-linecap:butt;stroke-linejoin:miter;stroke-opacity:1" d="M 242.619,201.245 252.241,196.435 z" id="boundary" inkscape:connector-curvature="0" />
	<path style="fill:none;stroke:red;stroke-width:1px;stroke-linecap:butt;stroke-linejoin:miter;stroke-opacity:1" d="M 243.581,947.891 252.241,952.702 z" id="boundary" inkscape:connector-curvature="0" />
	<path style="fill:none;stroke:red;stroke-width:1px;stroke-linecap:butt;stroke-linejoin:miter;stroke-opacity:1" d="M 252.241,196.435 261.862,196.435 z" id="boundary" inkscape:connector-curvature="0" />
	<path style="fill:none;stroke:red;stroke-width:1px;stroke-linecap:butt;stroke-linejoin:miter;stroke-opacity:1" d="M 252.241,952.702 261.862,952.702 z" id="boundary" inkscape:connector-curvature="0" />
	<path style="fill:none;stroke:red;stroke-width:1px;stroke-linecap:butt;stroke-linejoin:miter;stroke-opacity:1" d="M 261.862,196.435 270.522,191.624 z" id="boundary" inkscape:connector-curvature="0" />
	<path style="fill:none;stroke:red;stroke-width:1px;stroke-linecap:butt;stroke-linejoin:miter;stroke-opacity:1" d="M 261.862,952.702 270.522,957.513 z" id="boundary" inkscape:connector-curvature="0" />
	<path style="fill:none;stroke:red;stroke-width:1px;stroke-linecap:butt;stroke-linejoin:miter;stroke-opacity:1" d="M 270.522,191.624 280.144,187.775 z" id="boundary" inkscape:connector-curvature="0" />
	<path style="fill:none;stroke:red;stroke-width:1px;stroke-linecap:butt;stroke-linejoin:miter;stroke-opacity:1" d="M 270.522,957.513 280.144,960.4 z" id="boundary" inkscape:connector-curvature="0" />
	<path style="fill:none;stroke:red;stroke-width:1px;stroke-linecap:butt;stroke-linejoin:miter;stroke-opacity:1" d="M 280.144,187.775 289.765,186.813 z" id="boundary" inkscape:connector-curvature="0" />
	<path style="fill:none;stroke:red;stroke-width:1px;stroke-linecap:butt;stroke-linejoin:miter;stroke-opacity:1" d="M 280.144,960.4 289.765,962.324 z" id="boundary" inkscape:connector-curvature="0" />
	<path style="fill:none;stroke:red;stroke-width:1px;stroke-linecap:butt;stroke-linejoin:miter;stroke-opacity:1" d="M 289.765,186.813 298.425,182.002 z" id="boundary" inkscape:connector-curvature="0" />
	<path style="fill:none;stroke:red;stroke-width:1px;stroke-linecap:butt;stroke-linejoin:miter;stroke-opacity:1" d="M 289.765,962.324 298.425,967.135 z" id="boundary" inkscape:connector-curvature="0" />
	<path style="fill:none;stroke:red;stroke-width:1px;stroke-linecap:butt;stroke-linejoin:miter;stroke-opacity:1" d="M 298.425,182.002 308.047,179.115 z" id="boundary" inkscape:connector-curvature="0" />
	<path style="fill:none;stroke:red;stroke-width:1px;stroke-linecap:butt;stroke-linejoin:miter;stroke-opacity:1" d="M 298.425,967.135 308.047,969.059 z" id="boundary" inkscape:connector-curvature="0" />
	<path style="fill:none;stroke:red;stroke-width:1px;stroke-linecap:butt;stroke-linejoin:miter;stroke-opacity:1" d="M 308.047,179.115 317.668,177.191 z" id="boundary" inkscape:connector-curvature="0" />
	<path style="fill:none;stroke:red;stroke-width:1px;stroke-linecap:butt;stroke-linejoin:miter;stroke-opacity:1" d="M 308.047,969.059 317.668,971.946 z" id="boundary" inkscape:connector-curvature="0" />
	<path style="fill:none;stroke:red;stroke-width:1px;stroke-linecap:butt;stroke-linejoin:miter;stroke-opacity:1" d="M 317.668,177.191 327.29,177.191 z" id="boundary" inkscape:connector-curvature="0" />
	<path style="fill:none;stroke:red;stroke-width:1px;stroke-linecap:butt;stroke-linejoin:miter;stroke-opacity:1" d="M 317.668,971.946 327.29,971.946 z" id="boundary" inkscape:connector-curvature="0" />
	<path style="fill:none;stroke:red;stroke-width:1px;stroke-linecap:butt;stroke-linejoin:miter;stroke-opacity:1" d="M 327.29,177.191 335.95,172.38 z" id="boundary" inkscape:connector-curvature="0" />
	<path style="fill:none;stroke:red;stroke-width:1px;stroke-linecap:butt;stroke-linejoin:miter;stroke-opacity:1" d="M 327.29,971.946 335.95,976.757 z" id="boundary" inkscape:connector-curvature="0" />
	<path style="fill:none;stroke:red;stroke-width:1px;stroke-linecap:butt;stroke-linejoin:miter;stroke-opacity:1" d="M 335.95,172.38 345.571,172.38 z" id="boundary" inkscape:connector-curvature="0" />
	<path style="fill:none;stroke:red;stroke-width:1px;stroke-linecap:butt;stroke-linejoin:miter;stroke-opacity:1" d="M 335.95,976.757 345.571,976.757 z" id="boundary" inkscape:connector-curvature="0" />
	<path style="fill:none;stroke:red;stroke-width:1px;stroke-linecap:butt;stroke-linejoin:miter;stroke-opacity:1" d="M 345.571,172.38 355.193,172.38 z" id="boundary" inkscape:connector-curvature="0" />
	<path style="fill:none;stroke:red;stroke-width:1px;stroke-linecap:butt;stroke-linejoin:miter;stroke-opacity:1" d="M 345.571,976.757 355.193,976.757 z" id="boundary" inkscape:connector-curvature="0" />
	<path style="fill:none;stroke:red;stroke-width:1px;stroke-linecap:butt;stroke-linejoin:miter;stroke-opacity:1" d="M 355.193,172.38 363.853,167.569 z" id="boundary" inkscape:connector-curvature="0" />
	<path style="fill:none;stroke:red;stroke-width:1px;stroke-linecap:butt;stroke-linejoin:miter;stroke-opacity:1" d="M 355.193,976.757 363.853,981.567 z" id="boundary" inkscape:connector-curvature="0" />
	<path style="fill:none;stroke:red;stroke-width:1px;stroke-linecap:butt;stroke-linejoin:miter;stroke-opacity:1" d="M 363.853,167.569 373.474,167.569 z" id="boundary" inkscape:connector-curvature="0" />
	<path style="fill:none;stroke:red;stroke-width:1px;stroke-linecap:butt;stroke-linejoin:miter;stroke-opacity:1" d="M 363.853,981.567 373.474,981.567 z" id="boundary" inkscape:connector-curvature="0" />
	<path style="fill:none;stroke:red;stroke-width:1px;stroke-linecap:butt;stroke-linejoin:miter;stroke-opacity:1" d="M 373.474,167.569 383.096,167.569 z" id="boundary" inkscape:connector-curvature="0" />
	<path style="fill:none;stroke:red;stroke-width:1px;stroke-linecap:butt;stroke-linejoin:miter;stroke-opacity:1" d="M 373.474,981.567 383.096,981.567 z" id="boundary" inkscape:connector-curvature="0" />
	<path style="fill:none;stroke:red;stroke-width:1px;stroke-linecap:butt;stroke-linejoin:miter;stroke-opacity:1" d="M 383.096,167.569 392.718,167.569 z" id="boundary" inkscape:connector-curvature="0" />
	<path style="fill:none;stroke:red;stroke-width:1px;stroke-linecap:butt;stroke-linejoin:miter;stroke-opacity:1" d="M 383.096,981.567 392.718,981.567 z" id="boundary" inkscape:connector-curvature="0" />
	<path style="fill:none;stroke:red;stroke-width:1px;stroke-linecap:butt;stroke-linejoin:miter;stroke-opacity:1" d="M 392.718,167.569 402.339,167.569 z" id="boundary" inkscape:connector-curvature="0" />
	<path style="fill:none;stroke:red;stroke-width:1px;stroke-linecap:butt;stroke-linejoin:miter;stroke-opacity:1" d="M 392.718,981.567 402.339,981.567 z" id="boundary" inkscape:connector-curvature="0" />
	<path style="fill:none;stroke:red;stroke-width:1px;stroke-linecap:butt;stroke-linejoin:miter;stroke-opacity:1" d="M 402.339,167.569 411.961,167.569 z" id="boundary" inkscape:connector-curvature="0" />
	<path style="fill:none;stroke:red;stroke-width:1px;stroke-linecap:butt;stroke-linejoin:miter;stroke-opacity:1" d="M 402.339,981.567 411.961,981.567 z" id="boundary" inkscape:connector-curvature="0" />
	<path style="fill:none;stroke:red;stroke-width:1px;stroke-linecap:butt;stroke-linejoin:miter;stroke-opacity:1" d="M 411.961,167.569 421.583,167.569 z" id="boundary" inkscape:connector-curvature="0" />
	<path style="fill:none;stroke:red;stroke-width:1px;stroke-linecap:butt;stroke-linejoin:miter;stroke-opacity:1" d="M 411.961,981.567 421.583,981.567 z" id="boundary" inkscape:connector-curvature="0" />
	<path style="fill:none;stroke:red;stroke-width:1px;stroke-linecap:butt;stroke-linejoin:miter;stroke-opacity:1" d="M 421.583,167.569 431.205,167.569 z" id="boundary" inkscape:connector-curvature="0" />
	<path style="fill:none;stroke:red;stroke-width:1px;stroke-linecap:butt;stroke-linejoin:miter;stroke-opacity:1" d="M 421.583,981.567 431.205,981.567 z" id="boundary" inkscape:connector-curvature="0" />
	<path style="fill:none;stroke:red;stroke-width:1px;stroke-linecap:butt;stroke-linejoin:miter;stroke-opacity:1" d="M 431.205,167.569 440.826,167.569 z" id="boundary" inkscape:connector-curvature="0" />
	<path style="fill:none;stroke:red;stroke-width:1px;stroke-linecap:butt;stroke-linejoin:miter;stroke-opacity:1" d="M 431.205,981.567 440.826,981.567 z" id="boundary" inkscape:connector-curvature="0" />
	<path style="fill:none;stroke:red;stroke-width:1px;stroke-linecap:butt;stroke-linejoin:miter;stroke-opacity:1" d="M 432.167,54.9952 439.864,61.7304 z" id="boundary" inkscape:connector-curvature="0" />
	<path style="fill:none;stroke:red;stroke-width:1px;stroke-linecap:butt;stroke-linejoin:miter;stroke-opacity:1" d="M 432.167,54.9952 441.789,50.1843 z" id="boundary" inkscape:connector-curvature="0" />
	<path style="fill:none;stroke:red;stroke-width:1px;stroke-linecap:butt;stroke-linejoin:miter;stroke-opacity:1" d="M 440.826,167.569 450.448,168.532 z" id="boundary" inkscape:connector-curvature="0" />
	<path style="fill:none;stroke:red;stroke-width:1px;stroke-linecap:butt;stroke-linejoin:miter;stroke-opacity:1" d="M 440.826,981.567 450.448,979.643 z" id="boundary" inkscape:connector-curvature="0" />
	<path style="fill:none;stroke:red;stroke-width:1px;stroke-linecap:butt;stroke-linejoin:miter;stroke-opacity:1" d="M 441.789,50.1843 451.41,47.2978 z" id="boundary" inkscape:connector-curvature="0" />
	<path style="fill:none;stroke:red;stroke-width:1px;stroke-linecap:butt;stroke-linejoin:miter;stroke-opacity:1" d="M 450.448,168.532 460.07,172.38 z" id="boundary" inkscape:connector-curvature="0" />
	<path style="fill:none;stroke:red;stroke-width:1px;stroke-linecap:butt;stroke-linejoin:miter;stroke-opacity:1" d="M 450.448,979.643 460.07,976.757 z" id="boundary" inkscape:connector-curvature="0" />
	<path style="fill:none;stroke:red;stroke-width:1px;stroke-linecap:butt;stroke-linejoin:miter;stroke-opacity:1" d="M 451.41,47.2978 461.032,49.2221 z" id="boundary" inkscape:connector-curvature="0" />
	<path style="fill:none;stroke:red;stroke-width:1px;stroke-linecap:butt;stroke-linejoin:miter;stroke-opacity:1" d="M 454.297,76.1629 458.145,85.7847 z" id="boundary" inkscape:connector-curvature="0" />
	<path style="fill:none;stroke:red;stroke-width:1px;stroke-linecap:butt;stroke-linejoin:miter;stroke-opacity:1" d="M 458.145,85.7847 465.843,91.5577 z" id="boundary" inkscape:connector-curvature="0" />
	<path style="fill:none;stroke:red;stroke-width:1px;stroke-linecap:butt;stroke-linejoin:miter;stroke-opacity:1" d="M 460.07,172.38 469.692,172.38 z" id="boundary" inkscape:connector-curvature="0" />
	<path style="fill:none;stroke:red;stroke-width:1px;stroke-linecap:butt;stroke-linejoin:miter;stroke-opacity:1" d="M 460.07,976.757 469.692,976.757 z" id="boundary" inkscape:connector-curvature="0" />
	<path style="fill:none;stroke:red;stroke-width:1px;stroke-linecap:butt;stroke-linejoin:miter;stroke-opacity:1" d="M 461.032,49.2221 466.805,56.9195 z" id="boundary" inkscape:connector-curvature="0" />
	<path style="fill:none;stroke:red;stroke-width:1px;stroke-linecap:butt;stroke-linejoin:miter;stroke-opacity:1" d="M 465.843,91.5577 470.654,100.217 z" id="boundary" inkscape:connector-curvature="0" />
	<path style="fill:none;stroke:red;stroke-width:1px;stroke-linecap:butt;stroke-linejoin:miter;stroke-opacity:1" d="M 466.805,56.9195 471.616,65.579 z" id="boundary" inkscape:connector-curvature="0" />
	<path style="fill:none;stroke:red;stroke-width:1px;stroke-linecap:butt;stroke-linejoin:miter;stroke-opacity:1" d="M 469.692,172.38 479.313,173.342 z" id="boundary" inkscape:connector-curvature="0" />
	<path style="fill:none;stroke:red;stroke-width:1px;stroke-linecap:butt;stroke-linejoin:miter;stroke-opacity:1" d="M 469.692,976.757 479.313,976.757 z" id="boundary" inkscape:connector-curvature="0" />
	<path style="fill:none;stroke:red;stroke-width:1px;stroke-linecap:butt;stroke-linejoin:miter;stroke-opacity:1" d="M 470.654,100.217 475.465,108.877 z" id="boundary" inkscape:connector-curvature="0" />
	<path style="fill:none;stroke:red;stroke-width:1px;stroke-linecap:butt;stroke-linejoin:miter;stroke-opacity:1" d="M 471.616,65.579 476.427,74.2386 z" id="boundary" inkscape:connector-curvature="0" />
	<path style="fill:none;stroke:red;stroke-width:1px;stroke-linecap:butt;stroke-linejoin:miter;stroke-opacity:1" d="M 475.465,108.877 480.275,117.536 z" id="boundary" inkscape:connector-curvature="0" />
	<path style="fill:none;stroke:red;stroke-width:1px;stroke-linecap:butt;stroke-linejoin:miter;stroke-opacity:1" d="M 476.427,74.2386 481.238,82.8982 z" id="boundary" inkscape:connector-curvature="0" />
	<path style="fill:none;stroke:red;stroke-width:1px;stroke-linecap:butt;stroke-linejoin:miter;stroke-opacity:1" d="M 479.313,173.342 488.935,177.191 z" id="boundary" inkscape:connector-curvature="0" />
	<path style="fill:none;stroke:red;stroke-width:1px;stroke-linecap:butt;stroke-linejoin:miter;stroke-opacity:1" d="M 479.313,976.757 488.935,976.757 z" id="boundary" inkscape:connector-curvature="0" />
	<path style="fill:none;stroke:red;stroke-width:1px;stroke-linecap:butt;stroke-linejoin:miter;stroke-opacity:1" d="M 480.275,117.536 480.275,127.158 z" id="boundary" inkscape:connector-curvature="0" />
	<path style="fill:none;stroke:red;stroke-width:1px;stroke-linecap:butt;stroke-linejoin:miter;stroke-opacity:1" d="M 480.275,127.158 485.086,135.818 z" id="boundary" inkscape:connector-curvature="0" />
	<path style="fill:none;stroke:red;stroke-width:1px;stroke-linecap:butt;stroke-linejoin:miter;stroke-opacity:1" d="M 481.238,82.8982 486.048,91.5577 z" id="boundary" inkscape:connector-curvature="0" />
	<path style="fill:none;stroke:red;stroke-width:1px;stroke-linecap:butt;stroke-linejoin:miter;stroke-opacity:1" d="M 485.086,135.818 489.897,144.477 z" id="boundary" inkscape:connector-curvature="0" />
	<path style="fill:none;stroke:red;stroke-width:1px;stroke-linecap:butt;stroke-linejoin:miter;stroke-opacity:1" d="M 486.048,91.5577 487.973,101.179 z" id="boundary" inkscape:connector-curvature="0" />
	<path style="fill:none;stroke:red;stroke-width:1px;stroke-linecap:butt;stroke-linejoin:miter;stroke-opacity:1" d="M 487.973,101.179 490.859,110.801 z" id="boundary" inkscape:connector-curvature="0" />
	<path style="fill:none;stroke:red;stroke-width:1px;stroke-linecap:butt;stroke-linejoin:miter;stroke-opacity:1" d="M 488.935,177.191 489.897,163.721 z" id="boundary" inkscape:connector-curvature="0" />
	<path style="fill:none;stroke:red;stroke-width:1px;stroke-linecap:butt;stroke-linejoin:miter;stroke-opacity:1" d="M 488.935,976.757 497.595,981.567 z" id="boundary" inkscape:connector-curvature="0" />
	<path style="fill:none;stroke:red;stroke-width:1px;stroke-linecap:butt;stroke-linejoin:miter;stroke-opacity:1" d="M 489.897,144.477 489.897,154.099 z" id="boundary" inkscape:connector-curvature="0" />
	<path style="fill:none;stroke:red;stroke-width:1px;stroke-linecap:butt;stroke-linejoin:miter;stroke-opacity:1" d="M 489.897,154.099 489.897,163.721 z" id="boundary" inkscape:connector-curvature="0" />
	<path style="fill:none;stroke:red;stroke-width:1px;stroke-linecap:butt;stroke-linejoin:miter;stroke-opacity:1" d="M 490.859,110.801 509.141,117.536 z" id="boundary" inkscape:connector-curvature="0" />
	<path style="fill:none;stroke:red;stroke-width:1px;stroke-linecap:butt;stroke-linejoin:miter;stroke-opacity:1" d="M 495.67,119.461 495.67,129.082 z" id="boundary" inkscape:connector-curvature="0" />
	<path style="fill:none;stroke:red;stroke-width:1px;stroke-linecap:butt;stroke-linejoin:miter;stroke-opacity:1" d="M 495.67,129.082 500.481,137.742 z" id="boundary" inkscape:connector-curvature="0" />
	<path style="fill:none;stroke:red;stroke-width:1px;stroke-linecap:butt;stroke-linejoin:miter;stroke-opacity:1" d="M 497.595,981.567 507.216,981.567 z" id="boundary" inkscape:connector-curvature="0" />
	<path style="fill:none;stroke:red;stroke-width:1px;stroke-linecap:butt;stroke-linejoin:miter;stroke-opacity:1" d="M 500.481,137.742 509.141,127.158 z" id="boundary" inkscape:connector-curvature="0" />
	<path style="fill:none;stroke:red;stroke-width:1px;stroke-linecap:butt;stroke-linejoin:miter;stroke-opacity:1" d="M 507.216,981.567 516.838,981.567 z" id="boundary" inkscape:connector-curvature="0" />
	<path style="fill:none;stroke:red;stroke-width:1px;stroke-linecap:butt;stroke-linejoin:miter;stroke-opacity:1" d="M 509.141,117.536 509.141,127.158 z" id="boundary" inkscape:connector-curvature="0" />
	<path style="fill:none;stroke:red;stroke-width:1px;stroke-linecap:butt;stroke-linejoin:miter;stroke-opacity:1" d="M 513.952,103.104 518.762,93.4821 z" id="boundary" inkscape:connector-curvature="0" />
	<path style="fill:none;stroke:red;stroke-width:1px;stroke-linecap:butt;stroke-linejoin:miter;stroke-opacity:1" d="M 516.838,981.567 526.46,985.416 z" id="boundary" inkscape:connector-curvature="0" />
	<path style="fill:none;stroke:red;stroke-width:1px;stroke-linecap:butt;stroke-linejoin:miter;stroke-opacity:1" d="M 518.762,93.4821 523.573,83.8603 z" id="boundary" inkscape:connector-curvature="0" />
	<path style="fill:none;stroke:red;stroke-width:1px;stroke-linecap:butt;stroke-linejoin:miter;stroke-opacity:1" d="M 523.573,83.8603 531.271,76.1629 z" id="boundary" inkscape:connector-curvature="0" />
	<path style="fill:none;stroke:red;stroke-width:1px;stroke-linecap:butt;stroke-linejoin:miter;stroke-opacity:1" d="M 526.46,985.416 536.081,986.378 z" id="boundary" inkscape:connector-curvature="0" />
	<path style="fill:none;stroke:red;stroke-width:1px;stroke-linecap:butt;stroke-linejoin:miter;stroke-opacity:1" d="M 531.271,76.1629 538.006,64.6169 z" id="boundary" inkscape:connector-curvature="0" />
	<path style="fill:none;stroke:red;stroke-width:1px;stroke-linecap:butt;stroke-linejoin:miter;stroke-opacity:1" d="M 536.081,986.378 545.703,986.378 z" id="boundary" inkscape:connector-curvature="0" />
	<path style="fill:none;stroke:red;stroke-width:1px;stroke-linecap:butt;stroke-linejoin:miter;stroke-opacity:1" d="M 538.006,64.6169 542.817,54.9952 z" id="boundary" inkscape:connector-curvature="0" />
	<path style="fill:none;stroke:red;stroke-width:1px;stroke-linecap:butt;stroke-linejoin:miter;stroke-opacity:1" d="M 542.817,54.9952 550.514,47.2978 z" id="boundary" inkscape:connector-curvature="0" />
	<path style="fill:none;stroke:red;stroke-width:1px;stroke-linecap:butt;stroke-linejoin:miter;stroke-opacity:1" d="M 545.703,986.378 555.325,986.378 z" id="boundary" inkscape:connector-curvature="0" />
	<path style="fill:none;stroke:red;stroke-width:1px;stroke-linecap:butt;stroke-linejoin:miter;stroke-opacity:1" d="M 550.514,47.2978 559.174,42.4869 z" id="boundary" inkscape:connector-curvature="0" />
	<path style="fill:none;stroke:red;stroke-width:1px;stroke-linecap:butt;stroke-linejoin:miter;stroke-opacity:1" d="M 555.325,986.378 564.947,986.378 z" id="boundary" inkscape:connector-curvature="0" />
	<path style="fill:none;stroke:red;stroke-width:1px;stroke-linecap:butt;stroke-linejoin:miter;stroke-opacity:1" d="M 559.174,42.4869 567.833,37.676 z" id="boundary" inkscape:connector-curvature="0" />
	<path style="fill:none;stroke:red;stroke-width:1px;stroke-linecap:butt;stroke-linejoin:miter;stroke-opacity:1" d="M 564.947,986.378 574.568,986.378 z" id="boundary" inkscape:connector-curvature="0" />
	<path style="fill:none;stroke:red;stroke-width:1px;stroke-linecap:butt;stroke-linejoin:miter;stroke-opacity:1" d="M 567.833,37.676 576.493,32.8652 z" id="boundary" inkscape:connector-curvature="0" />
	<path style="fill:none;stroke:red;stroke-width:1px;stroke-linecap:butt;stroke-linejoin:miter;stroke-opacity:1" d="M 574.568,986.378 584.19,986.378 z" id="boundary" inkscape:connector-curvature="0" />
	<path style="fill:none;stroke:red;stroke-width:1px;stroke-linecap:butt;stroke-linejoin:miter;stroke-opacity:1" d="M 576.493,32.8652 585.152,28.0543 z" id="boundary" inkscape:connector-curvature="0" />
	<path style="fill:none;stroke:red;stroke-width:1px;stroke-linecap:butt;stroke-linejoin:miter;stroke-opacity:1" d="M 582.266,168.532 591.887,168.532 z" id="boundary" inkscape:connector-curvature="0" />
	<path style="fill:none;stroke:red;stroke-width:1px;stroke-linecap:butt;stroke-linejoin:miter;stroke-opacity:1" d="M 584.19,986.378 593.812,986.378 z" id="boundary" inkscape:connector-curvature="0" />
	<path style="fill:none;stroke:red;stroke-width:1px;stroke-linecap:butt;stroke-linejoin:miter;stroke-opacity:1" d="M 585.152,28.0543 591.887,20.3569 z" id="boundary" inkscape:connector-curvature="0" />
	<path style="fill:none;stroke:red;stroke-width:1px;stroke-linecap:butt;stroke-linejoin:miter;stroke-opacity:1" d="M 591.887,20.3569 601.509,15.5461 z" id="boundary" inkscape:connector-curvature="0" />
	<path style="fill:none;stroke:red;stroke-width:1px;stroke-linecap:butt;stroke-linejoin:miter;stroke-opacity:1" d="M 591.887,168.532 600.547,163.721 z" id="boundary" inkscape:connector-curvature="0" />
	<path style="fill:none;stroke:red;stroke-width:1px;stroke-linecap:butt;stroke-linejoin:miter;stroke-opacity:1" d="M 593.812,986.378 603.434,986.378 z" id="boundary" inkscape:connector-curvature="0" />
	<path style="fill:none;stroke:red;stroke-width:1px;stroke-linecap:butt;stroke-linejoin:miter;stroke-opacity:1" d="M 600.547,163.721 610.169,163.721 z" id="boundary" inkscape:connector-curvature="0" />
	<path style="fill:none;stroke:red;stroke-width:1px;stroke-linecap:butt;stroke-linejoin:miter;stroke-opacity:1" d="M 601.509,15.5461 611.131,13.6217 z" id="boundary" inkscape:connector-curvature="0" />
	<path style="fill:none;stroke:red;stroke-width:1px;stroke-linecap:butt;stroke-linejoin:miter;stroke-opacity:1" d="M 603.434,986.378 613.055,985.416 z" id="boundary" inkscape:connector-curvature="0" />
	<path style="fill:none;stroke:red;stroke-width:1px;stroke-linecap:butt;stroke-linejoin:miter;stroke-opacity:1" d="M 610.169,163.721 614.98,174.305 z" id="boundary" inkscape:connector-curvature="0" />
	<path style="fill:none;stroke:red;stroke-width:1px;stroke-linecap:butt;stroke-linejoin:miter;stroke-opacity:1" d="M 611.131,13.6217 619.79,8.81086 z" id="boundary" inkscape:connector-curvature="0" />
	<path style="fill:none;stroke:red;stroke-width:1px;stroke-linecap:butt;stroke-linejoin:miter;stroke-opacity:1" d="M 613.055,985.416 622.677,981.567 z" id="boundary" inkscape:connector-curvature="0" />
	<path style="fill:none;stroke:red;stroke-width:1px;stroke-linecap:butt;stroke-linejoin:miter;stroke-opacity:1" d="M 614.98,174.305 624.601,177.191 z" id="boundary" inkscape:connector-curvature="0" />
	<path style="fill:none;stroke:red;stroke-width:1px;stroke-linecap:butt;stroke-linejoin:miter;stroke-opacity:1" d="M 619.79,8.81086 629.412,8.81086 z" id="boundary" inkscape:connector-curvature="0" />
	<path style="fill:none;stroke:red;stroke-width:1px;stroke-linecap:butt;stroke-linejoin:miter;stroke-opacity:1" d="M 619.79,160.834 629.412,158.91 z" id="boundary" inkscape:connector-curvature="0" />
	<path style="fill:none;stroke:red;stroke-width:1px;stroke-linecap:butt;stroke-linejoin:miter;stroke-opacity:1" d="M 622.677,981.567 632.299,981.567 z" id="boundary" inkscape:connector-curvature="0" />
	<path style="fill:none;stroke:red;stroke-width:1px;stroke-linecap:butt;stroke-linejoin:miter;stroke-opacity:1" d="M 624.601,177.191 634.223,177.191 z" id="boundary" inkscape:connector-curvature="0" />
	<path style="fill:none;stroke:red;stroke-width:1px;stroke-linecap:butt;stroke-linejoin:miter;stroke-opacity:1" d="M 629.412,8.81086 638.072,4 z" id="boundary" inkscape:connector-curvature="0" />
	<path style="fill:none;stroke:red;stroke-width:1px;stroke-linecap:butt;stroke-linejoin:miter;stroke-opacity:1" d="M 629.412,158.91 638.072,154.099 z" id="boundary" inkscape:connector-curvature="0" />
	<path style="fill:none;stroke:red;stroke-width:1px;stroke-linecap:butt;stroke-linejoin:miter;stroke-opacity:1" d="M 632.299,981.567 641.92,981.567 z" id="boundary" inkscape:connector-curvature="0" />
	<path style="fill:none;stroke:red;stroke-width:1px;stroke-linecap:butt;stroke-linejoin:miter;stroke-opacity:1" d="M 634.223,177.191 643.845,177.191 z" id="boundary" inkscape:connector-curvature="0" />
	<path style="fill:none;stroke:red;stroke-width:1px;stroke-linecap:butt;stroke-linejoin:miter;stroke-opacity:1" d="M 638.072,4 647.694,4 z" id="boundary" inkscape:connector-curvature="0" />
	<path style="fill:none;stroke:red;stroke-width:1px;stroke-linecap:butt;stroke-linejoin:miter;stroke-opacity:1" d="M 638.072,154.099 646.731,149.288 z" id="boundary" inkscape:connector-curvature="0" />
	<path style="fill:none;stroke:red;stroke-width:1px;stroke-linecap:butt;stroke-linejoin:miter;stroke-opacity:1" d="M 641.92,981.567 650.58,976.757 z" id="boundary" inkscape:connector-curvature="0" />
	<path style="fill:none;stroke:red;stroke-width:1px;stroke-linecap:butt;stroke-linejoin:miter;stroke-opacity:1" d="M 643.845,177.191 652.504,182.002 z" id="boundary" inkscape:connector-curvature="0" />
	<path style="fill:none;stroke:red;stroke-width:1px;stroke-linecap:butt;stroke-linejoin:miter;stroke-opacity:1" d="M 646.731,149.288 656.353,148.326 z" id="boundary" inkscape:connector-curvature="0" />
	<path style="fill:none;stroke:red;stroke-width:1px;stroke-linecap:butt;stroke-linejoin:miter;stroke-opacity:1" d="M 647.694,4 657.315,4 z" id="boundary" inkscape:connector-curvature="0" />
	<path style="fill:none;stroke:red;stroke-width:1px;stroke-linecap:butt;stroke-linejoin:miter;stroke-opacity:1" d="M 650.58,976.757 660.202,976.757 z" id="boundary" inkscape:connector-curvature="0" />
	<path style="fill:none;stroke:red;stroke-width:1px;stroke-linecap:butt;stroke-linejoin:miter;stroke-opacity:1" d="M 652.504,182.002 662.126,182.002 z" id="boundary" inkscape:connector-curvature="0" />
	<path style="fill:none;stroke:red;stroke-width:1px;stroke-linecap:butt;stroke-linejoin:miter;stroke-opacity:1" d="M 656.353,148.326 665.975,143.515 z" id="boundary" inkscape:connector-curvature="0" />
	<path style="fill:none;stroke:red;stroke-width:1px;stroke-linecap:butt;stroke-linejoin:miter;stroke-opacity:1" d="M 657.315,4 666.937,4 z" id="boundary" inkscape:connector-curvature="0" />
	<path style="fill:none;stroke:red;stroke-width:1px;stroke-linecap:butt;stroke-linejoin:miter;stroke-opacity:1" d="M 660.202,976.757 669.823,976.757 z" id="boundary" inkscape:connector-curvature="0" />
	<path style="fill:none;stroke:red;stroke-width:1px;stroke-linecap:butt;stroke-linejoin:miter;stroke-opacity:1" d="M 662.126,182.002 671.748,182.964 z" id="boundary" inkscape:connector-curvature="0" />
	<path style="fill:none;stroke:red;stroke-width:1px;stroke-linecap:butt;stroke-linejoin:miter;stroke-opacity:1" d="M 665.975,143.515 675.597,138.704 z" id="boundary" inkscape:connector-curvature="0" />
	<path style="fill:none;stroke:red;stroke-width:1px;stroke-linecap:butt;stroke-linejoin:miter;stroke-opacity:1" d="M 666.937,4 676.559,4 z" id="boundary" inkscape:connector-curvature="0" />
	<path style="fill:none;stroke:red;stroke-width:1px;stroke-linecap:butt;stroke-linejoin:miter;stroke-opacity:1" d="M 669.823,976.757 678.483,971.946 z" id="boundary" inkscape:connector-curvature="0" />
	<path style="fill:none;stroke:red;stroke-width:1px;stroke-linecap:butt;stroke-linejoin:miter;stroke-opacity:1" d="M 671.748,182.964 681.37,186.813 z" id="boundary" inkscape:connector-curvature="0" />
	<path style="fill:none;stroke:red;stroke-width:1px;stroke-linecap:butt;stroke-linejoin:miter;stroke-opacity:1" d="M 675.597,138.704 683.294,130.045 z" id="boundary" inkscape:connector-curvature="0" />
	<path style="fill:none;stroke:red;stroke-width:1px;stroke-linecap:butt;stroke-linejoin:miter;stroke-opacity:1" d="M 676.559,4 686.18,4 z" id="boundary" inkscape:connector-curvature="0" />
	<path style="fill:none;stroke:red;stroke-width:1px;stroke-linecap:butt;stroke-linejoin:miter;stroke-opacity:1" d="M 678.483,971.946 688.105,971.946 z" id="boundary" inkscape:connector-curvature="0" />
	<path style="fill:none;stroke:red;stroke-width:1px;stroke-linecap:butt;stroke-linejoin:miter;stroke-opacity:1" d="M 681.37,186.813 690.991,187.775 z" id="boundary" inkscape:connector-curvature="0" />
	<path style="fill:none;stroke:red;stroke-width:1px;stroke-linecap:butt;stroke-linejoin:miter;stroke-opacity:1" d="M 683.294,130.045 692.916,125.234 z" id="boundary" inkscape:connector-curvature="0" />
	<path style="fill:none;stroke:red;stroke-width:1px;stroke-linecap:butt;stroke-linejoin:miter;stroke-opacity:1" d="M 686.18,4 695.802,4 z" id="boundary" inkscape:connector-curvature="0" />
	<path style="fill:none;stroke:red;stroke-width:1px;stroke-linecap:butt;stroke-linejoin:miter;stroke-opacity:1" d="M 688.105,971.946 696.764,967.135 z" id="boundary" inkscape:connector-curvature="0" />
	<path style="fill:none;stroke:red;stroke-width:1px;stroke-linecap:butt;stroke-linejoin:miter;stroke-opacity:1" d="M 690.991,187.775 700.613,191.624 z" id="boundary" inkscape:connector-curvature="0" />
	<path style="fill:none;stroke:red;stroke-width:1px;stroke-linecap:butt;stroke-linejoin:miter;stroke-opacity:1" d="M 692.916,125.234 700.613,118.499 z" id="boundary" inkscape:connector-curvature="0" />
	<path style="fill:none;stroke:red;stroke-width:1px;stroke-linecap:butt;stroke-linejoin:miter;stroke-opacity:1" d="M 695.802,4 705.424,4 z" id="boundary" inkscape:connector-curvature="0" />
	<path style="fill:none;stroke:red;stroke-width:1px;stroke-linecap:butt;stroke-linejoin:miter;stroke-opacity:1" d="M 696.764,967.135 706.386,964.248 z" id="boundary" inkscape:connector-curvature="0" />
	<path style="fill:none;stroke:red;stroke-width:1px;stroke-linecap:butt;stroke-linejoin:miter;stroke-opacity:1" d="M 700.613,118.499 710.235,113.688 z" id="boundary" inkscape:connector-curvature="0" />
	<path style="fill:none;stroke:red;stroke-width:1px;stroke-linecap:butt;stroke-linejoin:miter;stroke-opacity:1" d="M 700.613,191.624 709.273,196.435 z" id="boundary" inkscape:connector-curvature="0" />
	<path style="fill:none;stroke:red;stroke-width:1px;stroke-linecap:butt;stroke-linejoin:miter;stroke-opacity:1" d="M 705.424,4 715.046,4 z" id="boundary" inkscape:connector-curvature="0" />
	<path style="fill:none;stroke:red;stroke-width:1px;stroke-linecap:butt;stroke-linejoin:miter;stroke-opacity:1" d="M 706.386,964.248 716.008,962.324 z" id="boundary" inkscape:connector-curvature="0" />
	<path style="fill:none;stroke:red;stroke-width:1px;stroke-linecap:butt;stroke-linejoin:miter;stroke-opacity:1" d="M 709.273,196.435 718.894,196.435 z" id="boundary" inkscape:connector-curvature="0" />
	<path style="fill:none;stroke:red;stroke-width:1px;stroke-linecap:butt;stroke-linejoin:miter;stroke-opacity:1" d="M 710.235,113.688 716.97,105.99 z" id="boundary" inkscape:connector-curvature="0" />
	<path style="fill:none;stroke:red;stroke-width:1px;stroke-linecap:butt;stroke-linejoin:miter;stroke-opacity:1" d="M 715.046,4 724.667,4.96217 z" id="boundary" inkscape:connector-curvature="0" />
	<path style="fill:none;stroke:red;stroke-width:1px;stroke-linecap:butt;stroke-linejoin:miter;stroke-opacity:1" d="M 716.008,962.324 724.667,957.513 z" id="boundary" inkscape:connector-curvature="0" />
	<path style="fill:none;stroke:red;stroke-width:1px;stroke-linecap:butt;stroke-linejoin:miter;stroke-opacity:1" d="M 716.97,105.99 724.667,99.2551 z" id="boundary" inkscape:connector-curvature="0" />
	<path style="fill:none;stroke:red;stroke-width:1px;stroke-linecap:butt;stroke-linejoin:miter;stroke-opacity:1" d="M 718.894,196.435 727.554,201.245 z" id="boundary" inkscape:connector-curvature="0" />
	<path style="fill:none;stroke:red;stroke-width:1px;stroke-linecap:butt;stroke-linejoin:miter;stroke-opacity:1" d="M 724.667,4.96217 734.289,8.81086 z" id="boundary" inkscape:connector-curvature="0" />
	<path style="fill:none;stroke:red;stroke-width:1px;stroke-linecap:butt;stroke-linejoin:miter;stroke-opacity:1" d="M 724.667,99.2551 730.44,91.5577 z" id="boundary" inkscape:connector-curvature="0" />
	<path style="fill:none;stroke:red;stroke-width:1px;stroke-linecap:butt;stroke-linejoin:miter;stroke-opacity:1" d="M 724.667,957.513 734.289,955.589 z" id="boundary" inkscape:connector-curvature="0" />
	<path style="fill:none;stroke:red;stroke-width:1px;stroke-linecap:butt;stroke-linejoin:miter;stroke-opacity:1" d="M 727.554,201.245 736.213,206.056 z" id="boundary" inkscape:connector-curvature="0" />
	<path style="fill:none;stroke:red;stroke-width:1px;stroke-linecap:butt;stroke-linejoin:miter;stroke-opacity:1" d="M 730.44,91.5577 738.138,85.7847 z" id="boundary" inkscape:connector-curvature="0" />
	<path style="fill:none;stroke:red;stroke-width:1px;stroke-linecap:butt;stroke-linejoin:miter;stroke-opacity:1" d="M 734.289,8.81086 743.911,9.77304 z" id="boundary" inkscape:connector-curvature="0" />
	<path style="fill:none;stroke:red;stroke-width:1px;stroke-linecap:butt;stroke-linejoin:miter;stroke-opacity:1" d="M 734.289,955.589 743.911,950.778 z" id="boundary" inkscape:connector-curvature="0" />
	<path style="fill:none;stroke:red;stroke-width:1px;stroke-linecap:butt;stroke-linejoin:miter;stroke-opacity:1" d="M 736.213,206.056 745.835,208.943 z" id="boundary" inkscape:connector-curvature="0" />
	<path style="fill:none;stroke:red;stroke-width:1px;stroke-linecap:butt;stroke-linejoin:miter;stroke-opacity:1" d="M 738.138,85.7847 742.949,76.1629 z" id="boundary" inkscape:connector-curvature="0" />
	<path style="fill:none;stroke:red;stroke-width:1px;stroke-linecap:butt;stroke-linejoin:miter;stroke-opacity:1" d="M 742.949,76.1629 750.646,62.6925 z" id="boundary" inkscape:connector-curvature="0" />
	<path style="fill:none;stroke:red;stroke-width:1px;stroke-linecap:butt;stroke-linejoin:miter;stroke-opacity:1" d="M 743.911,9.77304 752.57,14.5839 z" id="boundary" inkscape:connector-curvature="0" />
	<path style="fill:none;stroke:red;stroke-width:1px;stroke-linecap:butt;stroke-linejoin:miter;stroke-opacity:1" d="M 743.911,950.778 753.532,945.967 z" id="boundary" inkscape:connector-curvature="0" />
	<path style="fill:none;stroke:red;stroke-width:1px;stroke-linecap:butt;stroke-linejoin:miter;stroke-opacity:1" d="M 745.835,208.943 754.495,213.754 z" id="boundary" inkscape:connector-curvature="0" />
	<path style="fill:none;stroke:red;stroke-width:1px;stroke-linecap:butt;stroke-linejoin:miter;stroke-opacity:1" d="M 750.646,62.6925 758.343,55.9573 z" id="boundary" inkscape:connector-curvature="0" />
	<path style="fill:none;stroke:red;stroke-width:1px;stroke-linecap:butt;stroke-linejoin:miter;stroke-opacity:1" d="M 752.57,14.5839 760.268,21.3191 z" id="boundary" inkscape:connector-curvature="0" />
	<path style="fill:none;stroke:red;stroke-width:1px;stroke-linecap:butt;stroke-linejoin:miter;stroke-opacity:1" d="M 753.532,945.967 763.154,941.156 z" id="boundary" inkscape:connector-curvature="0" />
	<path style="fill:none;stroke:red;stroke-width:1px;stroke-linecap:butt;stroke-linejoin:miter;stroke-opacity:1" d="M 754.495,213.754 764.116,217.602 z" id="boundary" inkscape:connector-curvature="0" />
	<path style="fill:none;stroke:red;stroke-width:1px;stroke-linecap:butt;stroke-linejoin:miter;stroke-opacity:1" d="M 758.343,55.9573 760.268,38.6382 z" id="boundary" inkscape:connector-curvature="0" />
	<path style="fill:none;stroke:red;stroke-width:1px;stroke-linecap:butt;stroke-linejoin:miter;stroke-opacity:1" d="M 760.268,21.3191 765.079,29.9787 z" id="boundary" inkscape:connector-curvature="0" />
	<path style="fill:none;stroke:red;stroke-width:1px;stroke-linecap:butt;stroke-linejoin:miter;stroke-opacity:1" d="M 760.268,38.6382 765.079,29.9787 z" id="boundary" inkscape:connector-curvature="0" />
	<path style="fill:none;stroke:red;stroke-width:1px;stroke-linecap:butt;stroke-linejoin:miter;stroke-opacity:1" d="M 763.154,941.156 772.776,936.345 z" id="boundary" inkscape:connector-curvature="0" />
	<path style="fill:none;stroke:red;stroke-width:1px;stroke-linecap:butt;stroke-linejoin:miter;stroke-opacity:1" d="M 764.116,217.602 772.776,222.413 z" id="boundary" inkscape:connector-curvature="0" />
	<path style="fill:none;stroke:red;stroke-width:1px;stroke-linecap:butt;stroke-linejoin:miter;stroke-opacity:1" d="M 772.776,222.413 782.398,226.262 z" id="boundary" inkscape:connector-curvature="0" />
	<path style="fill:none;stroke:red;stroke-width:1px;stroke-linecap:butt;stroke-linejoin:miter;stroke-opacity:1" d="M 772.776,936.345 782.398,931.534 z" id="boundary" inkscape:connector-curvature="0" />
	<path style="fill:none;stroke:red;stroke-width:1px;stroke-linecap:butt;stroke-linejoin:miter;stroke-opacity:1" d="M 782.398,226.262 791.057,231.073 z" id="boundary" inkscape:connector-curvature="0" />
	<path style="fill:none;stroke:red;stroke-width:1px;stroke-linecap:butt;stroke-linejoin:miter;stroke-opacity:1" d="M 782.398,931.534 792.019,926.724 z" id="boundary" inkscape:connector-curvature="0" />
	<path style="fill:none;stroke:red;stroke-width:1px;stroke-linecap:butt;stroke-linejoin:miter;stroke-opacity:1" d="M 791.057,231.073 798.755,237.808 z" id="boundary" inkscape:connector-curvature="0" />
	<path style="fill:none;stroke:red;stroke-width:1px;stroke-linecap:butt;stroke-linejoin:miter;stroke-opacity:1" d="M 792.019,926.724 798.755,919.026 z" id="boundary" inkscape:connector-curvature="0" />
	<path style="fill:none;stroke:red;stroke-width:1px;stroke-linecap:butt;stroke-linejoin:miter;stroke-opacity:1" d="M 798.755,237.808 807.414,242.619 z" id="boundary" inkscape:connector-curvature="0" />
	<path style="fill:none;stroke:red;stroke-width:1px;stroke-linecap:butt;stroke-linejoin:miter;stroke-opacity:1" d="M 798.755,919.026 808.376,914.215 z" id="boundary" inkscape:connector-curvature="0" />
	<path style="fill:none;stroke:red;stroke-width:1px;stroke-linecap:butt;stroke-linejoin:miter;stroke-opacity:1" d="M 807.414,242.619 817.036,246.468 z" id="boundary" inkscape:connector-curvature="0" />
	<path style="fill:none;stroke:red;stroke-width:1px;stroke-linecap:butt;stroke-linejoin:miter;stroke-opacity:1" d="M 808.376,914.215 817.998,909.404 z" id="boundary" inkscape:connector-curvature="0" />
	<path style="fill:none;stroke:red;stroke-width:1px;stroke-linecap:butt;stroke-linejoin:miter;stroke-opacity:1" d="M 817.036,246.468 822.809,254.165 z" id="boundary" inkscape:connector-curvature="0" />
	<path style="fill:none;stroke:red;stroke-width:1px;stroke-linecap:butt;stroke-linejoin:miter;stroke-opacity:1" d="M 817.998,909.404 825.695,902.669 z" id="boundary" inkscape:connector-curvature="0" />
	<path style="fill:none;stroke:red;stroke-width:1px;stroke-linecap:butt;stroke-linejoin:miter;stroke-opacity:1" d="M 822.809,254.165 831.468,258.976 z" id="boundary" inkscape:connector-curvature="0" />
	<path style="fill:none;stroke:red;stroke-width:1px;stroke-linecap:butt;stroke-linejoin:miter;stroke-opacity:1" d="M 825.695,902.669 835.317,897.858 z" id="boundary" inkscape:connector-curvature="0" />
	<path style="fill:none;stroke:red;stroke-width:1px;stroke-linecap:butt;stroke-linejoin:miter;stroke-opacity:1" d="M 831.468,258.976 839.166,264.749 z" id="boundary" inkscape:connector-curvature="0" />
	<path style="fill:none;stroke:red;stroke-width:1px;stroke-linecap:butt;stroke-linejoin:miter;stroke-opacity:1" d="M 835.317,897.858 842.052,890.161 z" id="boundary" inkscape:connector-curvature="0" />
	<path style="fill:none;stroke:red;stroke-width:1px;stroke-linecap:butt;stroke-linejoin:miter;stroke-opacity:1" d="M 839.166,264.749 846.863,271.484 z" id="boundary" inkscape:connector-curvature="0" />
	<path style="fill:none;stroke:red;stroke-width:1px;stroke-linecap:butt;stroke-linejoin:miter;stroke-opacity:1" d="M 842.052,890.161 849.75,883.426 z" id="boundary" inkscape:connector-curvature="0" />
	<path style="fill:none;stroke:red;stroke-width:1px;stroke-linecap:butt;stroke-linejoin:miter;stroke-opacity:1" d="M 846.863,271.484 854.561,278.219 z" id="boundary" inkscape:connector-curvature="0" />
	<path style="fill:none;stroke:red;stroke-width:1px;stroke-linecap:butt;stroke-linejoin:miter;stroke-opacity:1" d="M 849.75,883.426 859.371,878.615 z" id="boundary" inkscape:connector-curvature="0" />
	<path style="fill:none;stroke:red;stroke-width:1px;stroke-linecap:butt;stroke-linejoin:miter;stroke-opacity:1" d="M 854.561,278.219 863.22,283.03 z" id="boundary" inkscape:connector-curvature="0" />
	<path style="fill:none;stroke:red;stroke-width:1px;stroke-linecap:butt;stroke-linejoin:miter;stroke-opacity:1" d="M 859.371,878.615 866.107,870.918 z" id="boundary" inkscape:connector-curvature="0" />
	<path style="fill:none;stroke:red;stroke-width:1px;stroke-linecap:butt;stroke-linejoin:miter;stroke-opacity:1" d="M 863.22,283.03 869.955,290.727 z" id="boundary" inkscape:connector-curvature="0" />
	<path style="fill:none;stroke:red;stroke-width:1px;stroke-linecap:butt;stroke-linejoin:miter;stroke-opacity:1" d="M 866.107,870.918 873.804,864.182 z" id="boundary" inkscape:connector-curvature="0" />
	<path style="fill:none;stroke:red;stroke-width:1px;stroke-linecap:butt;stroke-linejoin:miter;stroke-opacity:1" d="M 869.955,290.727 877.653,297.463 z" id="boundary" inkscape:connector-curvature="0" />
	<path style="fill:none;stroke:red;stroke-width:1px;stroke-linecap:butt;stroke-linejoin:miter;stroke-opacity:1" d="M 873.804,864.182 880.539,856.485 z" id="boundary" inkscape:connector-curvature="0" />
	<path style="fill:none;stroke:red;stroke-width:1px;stroke-linecap:butt;stroke-linejoin:miter;stroke-opacity:1" d="M 877.653,297.463 884.388,305.16 z" id="boundary" inkscape:connector-curvature="0" />
	<path style="fill:none;stroke:red;stroke-width:1px;stroke-linecap:butt;stroke-linejoin:miter;stroke-opacity:1" d="M 880.539,856.485 888.237,849.75 z" id="boundary" inkscape:connector-curvature="0" />
	<path style="fill:none;stroke:red;stroke-width:1px;stroke-linecap:butt;stroke-linejoin:miter;stroke-opacity:1" d="M 884.388,305.16 892.085,311.895 z" id="boundary" inkscape:connector-curvature="0" />
	<path style="fill:none;stroke:red;stroke-width:1px;stroke-linecap:butt;stroke-linejoin:miter;stroke-opacity:1" d="M 888.237,849.75 894.972,842.052 z" id="boundary" inkscape:connector-curvature="0" />
	<path style="fill:none;stroke:red;stroke-width:1px;stroke-linecap:butt;stroke-linejoin:miter;stroke-opacity:1" d="M 892.085,311.895 898.821,319.593 z" id="boundary" inkscape:connector-curvature="0" />
	<path style="fill:none;stroke:red;stroke-width:1px;stroke-linecap:butt;stroke-linejoin:miter;stroke-opacity:1" d="M 894.972,842.052 899.783,832.431 z" id="boundary" inkscape:connector-curvature="0" />
	<path style="fill:none;stroke:red;stroke-width:1px;stroke-linecap:butt;stroke-linejoin:miter;stroke-opacity:1" d="M 898.821,319.593 903.631,328.252 z" id="boundary" inkscape:connector-curvature="0" />
	<path style="fill:none;stroke:red;stroke-width:1px;stroke-linecap:butt;stroke-linejoin:miter;stroke-opacity:1" d="M 899.783,832.431 907.48,825.695 z" id="boundary" inkscape:connector-curvature="0" />
	<path style="fill:none;stroke:red;stroke-width:1px;stroke-linecap:butt;stroke-linejoin:miter;stroke-opacity:1" d="M 903.631,328.252 909.404,335.95 z" id="boundary" inkscape:connector-curvature="0" />
	<path style="fill:none;stroke:red;stroke-width:1px;stroke-linecap:butt;stroke-linejoin:miter;stroke-opacity:1" d="M 907.48,825.695 914.215,817.998 z" id="boundary" inkscape:connector-curvature="0" />
	<path style="fill:none;stroke:red;stroke-width:1px;stroke-linecap:butt;stroke-linejoin:miter;stroke-opacity:1" d="M 909.404,335.95 917.102,341.723 z" id="boundary" inkscape:connector-curvature="0" />
	<path style="fill:none;stroke:red;stroke-width:1px;stroke-linecap:butt;stroke-linejoin:miter;stroke-opacity:1" d="M 914.215,817.998 919.026,808.376 z" id="boundary" inkscape:connector-curvature="0" />
	<path style="fill:none;stroke:red;stroke-width:1px;stroke-linecap:butt;stroke-linejoin:miter;stroke-opacity:1" d="M 917.102,341.723 920.951,351.344 z" id="boundary" inkscape:connector-curvature="0" />
	<path style="fill:none;stroke:red;stroke-width:1px;stroke-linecap:butt;stroke-linejoin:miter;stroke-opacity:1" d="M 919.026,808.376 926.724,801.641 z" id="boundary" inkscape:connector-curvature="0" />
	<path style="fill:none;stroke:red;stroke-width:1px;stroke-linecap:butt;stroke-linejoin:miter;stroke-opacity:1" d="M 920.951,351.344 928.648,358.08 z" id="boundary" inkscape:connector-curvature="0" />
	<path style="fill:none;stroke:red;stroke-width:1px;stroke-linecap:butt;stroke-linejoin:miter;stroke-opacity:1" d="M 926.724,801.641 931.534,792.019 z" id="boundary" inkscape:connector-curvature="0" />
	<path style="fill:none;stroke:red;stroke-width:1px;stroke-linecap:butt;stroke-linejoin:miter;stroke-opacity:1" d="M 928.648,358.08 932.497,367.701 z" id="boundary" inkscape:connector-curvature="0" />
	<path style="fill:none;stroke:red;stroke-width:1px;stroke-linecap:butt;stroke-linejoin:miter;stroke-opacity:1" d="M 931.534,792.019 938.27,779.511 z" id="boundary" inkscape:connector-curvature="0" />
	<path style="fill:none;stroke:red;stroke-width:1px;stroke-linecap:butt;stroke-linejoin:miter;stroke-opacity:1" d="M 938.27,779.511 943.081,769.889 z" id="boundary" inkscape:connector-curvature="0" />
	<path style="fill:none;stroke:red;stroke-width:1px;stroke-linecap:butt;stroke-linejoin:miter;stroke-opacity:1" d="M 943.081,384.058 947.891,392.718 z" id="boundary" inkscape:connector-curvature="0" />
	<path style="fill:none;stroke:red;stroke-width:1px;stroke-linecap:butt;stroke-linejoin:miter;stroke-opacity:1" d="M 943.081,769.889 950.778,763.154 z" id="boundary" inkscape:connector-curvature="0" />
	<path style="fill:none;stroke:red;stroke-width:1px;stroke-linecap:butt;stroke-linejoin:miter;stroke-opacity:1" d="M 947.891,392.718 952.702,401.377 z" id="boundary" inkscape:connector-curvature="0" />
	<path style="fill:none;stroke:red;stroke-width:1px;stroke-linecap:butt;stroke-linejoin:miter;stroke-opacity:1" d="M 950.778,763.154 955.589,753.532 z" id="boundary" inkscape:connector-curvature="0" />
	<path style="fill:none;stroke:red;stroke-width:1px;stroke-linecap:butt;stroke-linejoin:miter;stroke-opacity:1" d="M 952.702,401.377 957.513,410.037 z" id="boundary" inkscape:connector-curvature="0" />
	<path style="fill:none;stroke:red;stroke-width:1px;stroke-linecap:butt;stroke-linejoin:miter;stroke-opacity:1" d="M 955.589,753.532 960.4,743.911 z" id="boundary" inkscape:connector-curvature="0" />
	<path style="fill:none;stroke:red;stroke-width:1px;stroke-linecap:butt;stroke-linejoin:miter;stroke-opacity:1" d="M 957.513,410.037 962.324,418.696 z" id="boundary" inkscape:connector-curvature="0" />
	<path style="fill:none;stroke:red;stroke-width:1px;stroke-linecap:butt;stroke-linejoin:miter;stroke-opacity:1" d="M 960.4,743.911 962.324,731.403 z" id="boundary" inkscape:connector-curvature="0" />
	<path style="fill:none;stroke:red;stroke-width:1px;stroke-linecap:butt;stroke-linejoin:miter;stroke-opacity:1" d="M 962.324,418.696 964.248,428.318 z" id="boundary" inkscape:connector-curvature="0" />
	<path style="fill:none;stroke:red;stroke-width:1px;stroke-linecap:butt;stroke-linejoin:miter;stroke-opacity:1" d="M 962.324,731.403 967.135,721.781 z" id="boundary" inkscape:connector-curvature="0" />
	<path style="fill:none;stroke:red;stroke-width:1px;stroke-linecap:butt;stroke-linejoin:miter;stroke-opacity:1" d="M 964.248,428.318 969.059,436.978 z" id="boundary" inkscape:connector-curvature="0" />
	<path style="fill:none;stroke:red;stroke-width:1px;stroke-linecap:butt;stroke-linejoin:miter;stroke-opacity:1" d="M 967.135,721.781 971.946,707.348 z" id="boundary" inkscape:connector-curvature="0" />
	<path style="fill:none;stroke:red;stroke-width:1px;stroke-linecap:butt;stroke-linejoin:miter;stroke-opacity:1" d="M 969.059,436.978 971.946,446.599 z" id="boundary" inkscape:connector-curvature="0" />
	<path style="fill:none;stroke:red;stroke-width:1px;stroke-linecap:butt;stroke-linejoin:miter;stroke-opacity:1" d="M 971.946,446.599 976.757,455.259 z" id="boundary" inkscape:connector-curvature="0" />
	<path style="fill:none;stroke:red;stroke-width:1px;stroke-linecap:butt;stroke-linejoin:miter;stroke-opacity:1" d="M 971.946,707.348 976.757,692.916 z" id="boundary" inkscape:connector-curvature="0" />
	<path style="fill:none;stroke:red;stroke-width:1px;stroke-linecap:butt;stroke-linejoin:miter;stroke-opacity:1" d="M 976.757,455.259 976.757,464.881 z" id="boundary" inkscape:connector-curvature="0" />
	<path style="fill:none;stroke:red;stroke-width:1px;stroke-linecap:butt;stroke-linejoin:miter;stroke-opacity:1" d="M 976.757,464.881 981.567,473.54 z" id="boundary" inkscape:connector-curvature="0" />
	<path style="fill:none;stroke:red;stroke-width:1px;stroke-linecap:butt;stroke-linejoin:miter;stroke-opacity:1" d="M 976.757,692.916 981.567,683.294 z" id="boundary" inkscape:connector-curvature="0" />
	<path style="fill:none;stroke:red;stroke-width:1px;stroke-linecap:butt;stroke-linejoin:miter;stroke-opacity:1" d="M 981.567,473.54 981.567,483.162 z" id="boundary" inkscape:connector-curvature="0" />
	<path style="fill:none;stroke:red;stroke-width:1px;stroke-linecap:butt;stroke-linejoin:miter;stroke-opacity:1" d="M 981.567,483.162 986.378,491.822 z" id="boundary" inkscape:connector-curvature="0" />
	<path style="fill:none;stroke:red;stroke-width:1px;stroke-linecap:butt;stroke-linejoin:miter;stroke-opacity:1" d="M 981.567,673.672 981.567,683.294 z" id="boundary" inkscape:connector-curvature="0" />
	<path style="fill:none;stroke:red;stroke-width:1px;stroke-linecap:butt;stroke-linejoin:miter;stroke-opacity:1" d="M 981.567,673.672 986.378,664.05 z" id="boundary" inkscape:connector-curvature="0" />
	<path style="fill:none;stroke:red;stroke-width:1px;stroke-linecap:butt;stroke-linejoin:miter;stroke-opacity:1" d="M 986.378,491.822 986.378,501.443 z" id="boundary" inkscape:connector-curvature="0" />
	<path style="fill:none;stroke:red;stroke-width:1px;stroke-linecap:butt;stroke-linejoin:miter;stroke-opacity:1" d="M 986.378,501.443 991.189,510.103 z" id="boundary" inkscape:connector-curvature="0" />
	<path style="fill:none;stroke:red;stroke-width:1px;stroke-linecap:butt;stroke-linejoin:miter;stroke-opacity:1" d="M 986.378,654.429 986.378,664.05 z" id="boundary" inkscape:connector-curvature="0" />
	<path style="fill:none;stroke:red;stroke-width:1px;stroke-linecap:butt;stroke-linejoin:miter;stroke-opacity:1" d="M 986.378,654.429 991.189,639.996 z" id="boundary" inkscape:connector-curvature="0" />
	<path style="fill:none;stroke:red;stroke-width:1px;stroke-linecap:butt;stroke-linejoin:miter;stroke-opacity:1" d="M 991.189,510.103 991.189,519.725 z" id="boundary" inkscape:connector-curvature="0" />
	<path style="fill:none;stroke:red;stroke-width:1px;stroke-linecap:butt;stroke-linejoin:miter;stroke-opacity:1" d="M 991.189,519.725 991.189,529.346 z" id="boundary" inkscape:connector-curvature="0" />
	<path style="fill:none;stroke:red;stroke-width:1px;stroke-linecap:butt;stroke-linejoin:miter;stroke-opacity:1" d="M 991.189,529.346 993.113,538.968 z" id="boundary" inkscape:connector-curvature="0" />
	<path style="fill:none;stroke:red;stroke-width:1px;stroke-linecap:butt;stroke-linejoin:miter;stroke-opacity:1" d="M 991.189,620.753 991.189,630.374 z" id="boundary" inkscape:connector-curvature="0" />
	<path style="fill:none;stroke:red;stroke-width:1px;stroke-linecap:butt;stroke-linejoin:miter;stroke-opacity:1" d="M 991.189,620.753 996,606.32 z" id="boundary" inkscape:connector-curvature="0" />
	<path style="fill:none;stroke:red;stroke-width:1px;stroke-linecap:butt;stroke-linejoin:miter;stroke-opacity:1" d="M 991.189,630.374 991.189,639.996 z" id="boundary" inkscape:connector-curvature="0" />
	<path style="fill:none;stroke:red;stroke-width:1px;stroke-linecap:butt;stroke-linejoin:miter;stroke-opacity:1" d="M 993.113,538.968 996,548.59 z" id="boundary" inkscape:connector-curvature="0" />
	<path style="fill:none;stroke:red;stroke-width:1px;stroke-linecap:butt;stroke-linejoin:miter;stroke-opacity:1" d="M 996,548.59 996,558.211 z" id="boundary" inkscape:connector-curvature="0" />
	<path style="fill:none;stroke:red;stroke-width:1px;stroke-linecap:butt;stroke-linejoin:miter;stroke-opacity:1" d="M 996,558.211 996,567.833 z" id="boundary" inkscape:connector-curvature="0" />
	<path style="fill:none;stroke:red;stroke-width:1px;stroke-linecap:butt;stroke-linejoin:miter;stroke-opacity:1" d="M 996,567.833 996,577.455 z" id="boundary" inkscape:connector-curvature="0" />
	<path style="fill:none;stroke:red;stroke-width:1px;stroke-linecap:butt;stroke-linejoin:miter;stroke-opacity:1" d="M 996,577.455 996,587.077 z" id="boundary" inkscape:connector-curvature="0" />
	<path style="fill:none;stroke:red;stroke-width:1px;stroke-linecap:butt;stroke-linejoin:miter;stroke-opacity:1" d="M 996,587.077 996,596.698 z" id="boundary" inkscape:connector-curvature="0" />
	<path style="fill:none;stroke:red;stroke-width:1px;stroke-linecap:butt;stroke-linejoin:miter;stroke-opacity:1" d="M 996,596.698 996,606.32 z" id="boundary" inkscape:connector-curvature="0" />
	<circle cx="4" cy="531.271" r="4" fill="#0" id="circle0"/>
	<circle cx="4" cy="540.892" r="4" fill="#0" id="circle1"/>
	<circle cx="4" cy="550.514" r="4" fill="#0" id="circle2"/>
	<circle cx="4" cy="560.136" r="4" fill="#0" id="circle3"/>
	<circle cx="4" cy="569.758" r="4" fill="#0" id="circle4"/>
	<circle cx="4" cy="579.379" r="4" fill="#0" id="circle5"/>
	<circle cx="4" cy="589.001" r="4" fill="#0" id="circle6"/>
	<circle cx="4" cy="598.623" r="4" fill="#0" id="circle7"/>
	<circle cx="4" cy="608.244" r="4" fill="#0" id="circle8"/>
	<circle cx="4" cy="617.866" r="4" fill="#0" id="circle9"/>
	<circle cx="8.81086" cy="502.405" r="4" fill="#0" id="circle10"/>
	<circle cx="8.81086" cy="512.027" r="4" fill="#0" id="circle11"/>
	<circle cx="8.81086" cy="521.649" r="4" fill="#0" id="circle12"/>
	<circle cx="8.81086" cy="626.526" r="4" fill="#0" id="circle13"/>
	<circle cx="8.81086" cy="636.147" r="4" fill="#0" id="circle14"/>
	<circle cx="8.81086" cy="645.769" r="4" fill="#0" id="circle15"/>
	<circle cx="13.6217" cy="478.351" r="4" fill="#0" id="circle16"/>
	<circle cx="13.6217" cy="487.973" r="4" fill="#0" id="circle17"/>
	<circle cx="13.6217" cy="654.429" r="4" fill="#0" id="circle18"/>
	<circle cx="13.6217" cy="664.05" r="4" fill="#0" id="circle19"/>
	<circle cx="16.5082" cy="673.672" r="4" fill="#0" id="circle20"/>
	<circle cx="18.4326" cy="459.108" r="4" fill="#0" id="circle21"/>
	<circle cx="18.4326" cy="468.729" r="4" fill="#0" id="circle22"/>
	<circle cx="18.4326" cy="683.294" r="4" fill="#0" id="circle23"/>
	<circle cx="21.3191" cy="692.916" r="4" fill="#0" id="circle24"/>
	<circle cx="23.2435" cy="444.675" r="4" fill="#0" id="circle25"/>
	<circle cx="23.2435" cy="702.537" r="4" fill="#0" id="circle26"/>
	<circle cx="28.0543" cy="430.242" r="4" fill="#0" id="circle27"/>
	<circle cx="28.0543" cy="711.197" r="4" fill="#0" id="circle28"/>
	<circle cx="29.9787" cy="720.819" r="4" fill="#0" id="circle29"/>
	<circle cx="32.8652" cy="420.621" r="4" fill="#0" id="circle30"/>
	<circle cx="34.7895" cy="729.478" r="4" fill="#0" id="circle31"/>
	<circle cx="37.676" cy="406.188" r="4" fill="#0" id="circle32"/>
	<circle cx="37.676" cy="739.1" r="4" fill="#0" id="circle33"/>
	<circle cx="42.4869" cy="396.566" r="4" fill="#0" id="circle34"/>
	<circle cx="42.4869" cy="747.759" r="4" fill="#0" id="circle35"/>
	<circle cx="47.2978" cy="386.945" r="4" fill="#0" id="circle36"/>
	<circle cx="47.2978" cy="756.419" r="4" fill="#0" id="circle37"/>
	<circle cx="52.1086" cy="377.323" r="4" fill="#0" id="circle38"/>
	<circle cx="52.1086" cy="765.079" r="4" fill="#0" id="circle39"/>
	<circle cx="54.9952" cy="774.7" r="4" fill="#0" id="circle40"/>
	<circle cx="59.806" cy="369.626" r="4" fill="#0" id="circle41"/>
	<circle cx="61.7304" cy="782.398" r="4" fill="#0" id="circle42"/>
	<circle cx="64.6169" cy="360.004" r="4" fill="#0" id="circle43"/>
	<circle cx="66.5412" cy="791.057" r="4" fill="#0" id="circle44"/>
	<circle cx="69.4277" cy="350.382" r="4" fill="#0" id="circle45"/>
	<circle cx="71.3521" cy="799.717" r="4" fill="#0" id="circle46"/>
	<circle cx="76.1629" cy="338.836" r="4" fill="#0" id="circle47"/>
	<circle cx="76.1629" cy="808.376" r="4" fill="#0" id="circle48"/>
	<circle cx="81.936" cy="816.074" r="4" fill="#0" id="circle49"/>
	<circle cx="83.8603" cy="331.139" r="4" fill="#0" id="circle50"/>
	<circle cx="89.6334" cy="822.809" r="4" fill="#0" id="circle51"/>
	<circle cx="90.5955" cy="319.593" r="4" fill="#0" id="circle52"/>
	<circle cx="93.4821" cy="832.431" r="4" fill="#0" id="circle53"/>
	<circle cx="98.2929" cy="311.895" r="4" fill="#0" id="circle54"/>
	<circle cx="101.179" cy="839.166" r="4" fill="#0" id="circle55"/>
	<circle cx="105.99" cy="304.198" r="4" fill="#0" id="circle56"/>
	<circle cx="107.915" cy="846.863" r="4" fill="#0" id="circle57"/>
	<circle cx="113.688" cy="297.463" r="4" fill="#0" id="circle58"/>
	<circle cx="115.612" cy="853.598" r="4" fill="#0" id="circle59"/>
	<circle cx="120.423" cy="289.765" r="4" fill="#0" id="circle60"/>
	<circle cx="122.347" cy="861.296" r="4" fill="#0" id="circle61"/>
	<circle cx="128.12" cy="283.03" r="4" fill="#0" id="circle62"/>
	<circle cx="130.045" cy="868.031" r="4" fill="#0" id="circle63"/>
	<circle cx="134.855" cy="275.333" r="4" fill="#0" id="circle64"/>
	<circle cx="136.78" cy="875.728" r="4" fill="#0" id="circle65"/>
	<circle cx="142.553" cy="268.597" r="4" fill="#0" id="circle66"/>
	<circle cx="144.477" cy="882.464" r="4" fill="#0" id="circle67"/>
	<circle cx="149.288" cy="260.9" r="4" fill="#0" id="circle68"/>
	<circle cx="151.212" cy="890.161" r="4" fill="#0" id="circle69"/>
	<circle cx="156.985" cy="254.165" r="4" fill="#0" id="circle70"/>
	<circle cx="159.872" cy="894.972" r="4" fill="#0" id="circle71"/>
	<circle cx="165.645" cy="249.354" r="4" fill="#0" id="circle72"/>
	<circle cx="167.569" cy="900.745" r="4" fill="#0" id="circle73"/>
	<circle cx="173.342" cy="241.657" r="4" fill="#0" id="circle74"/>
	<circle cx="174.305" cy="908.442" r="4" fill="#0" id="circle75"/>
	<circle cx="182.964" cy="236.846" r="4" fill="#0" id="circle76"/>
	<circle cx="183.926" cy="912.291" r="4" fill="#0" id="circle77"/>
	<circle cx="190.661" cy="230.111" r="4" fill="#0" id="circle78"/>
	<circle cx="191.624" cy="919.026" r="4" fill="#0" id="circle79"/>
	<circle cx="199.321" cy="225.3" r="4" fill="#0" id="circle80"/>
	<circle cx="200.283" cy="923.837" r="4" fill="#0" id="circle81"/>
	<circle cx="207.981" cy="220.489" r="4" fill="#0" id="circle82"/>
	<circle cx="208.943" cy="928.648" r="4" fill="#0" id="circle83"/>
	<circle cx="216.64" cy="215.678" r="4" fill="#0" id="circle84"/>
	<circle cx="217.602" cy="933.459" r="4" fill="#0" id="circle85"/>
	<circle cx="225.3" cy="210.867" r="4" fill="#0" id="circle86"/>
	<circle cx="226.262" cy="938.27" r="4" fill="#0" id="circle87"/>
	<circle cx="233.959" cy="206.056" r="4" fill="#0" id="circle88"/>
	<circle cx="234.921" cy="943.081" r="4" fill="#0" id="circle89"/>
	<circle cx="242.619" cy="201.245" r="4" fill="#0" id="circle90"/>
	<circle cx="243.581" cy="947.891" r="4" fill="#0" id="circle91"/>
	<circle cx="252.241" cy="196.435" r="4" fill="#0" id="circle92"/>
	<circle cx="252.241" cy="952.702" r="4" fill="#0" id="circle93"/>
	<circle cx="261.862" cy="196.435" r="4" fill="#0" id="circle94"/>
	<circle cx="261.862" cy="952.702" r="4" fill="#0" id="circle95"/>
	<circle cx="270.522" cy="191.624" r="4" fill="#0" id="circle96"/>
	<circle cx="270.522" cy="957.513" r="4" fill="#0" id="circle97"/>
	<circle cx="280.144" cy="187.775" r="4" fill="#0" id="circle98"/>
	<circle cx="280.144" cy="960.4" r="4" fill="#0" id="circle99"/>
	<circle cx="289.765" cy="186.813" r="4" fill="#0" id="circle100"/>
	<circle cx="289.765" cy="962.324" r="4" fill="#0" id="circle101"/>
	<circle cx="298.425" cy="182.002" r="4" fill="#0" id="circle102"/>
	<circle cx="298.425" cy="967.135" r="4" fill="#0" id="circle103"/>
	<circle cx="308.047" cy="179.115" r="4" fill="#0" id="circle104"/>
	<circle cx="308.047" cy="969.059" r="4" fill="#0" id="circle105"/>
	<circle cx="317.668" cy="177.191" r="4" fill="#0" id="circle106"/>
	<circle cx="317.668" cy="971.946" r="4" fill="#0" id="circle107"/>
	<circle cx="327.29" cy="177.191" r="4" fill="#0" id="circle108"/>
	<circle cx="327.29" cy="971.946" r="4" fill="#0" id="circle109"/>
	<circle cx="335.95" cy="172.38" r="4" fill="#0" id="circle110"/>
	<circle cx="335.95" cy="976.757" r="4" fill="#0" id="circle111"/>
	<circle cx="345.571" cy="172.38" r="4" fill="#0" id="circle112"/>
	<circle cx="345.571" cy="976.757" r="4" fill="#0" id="circle113"/>
	<circle cx="355.193" cy="172.38" r="4" fill="#0" id="circle114"/>
	<circle cx="355.193" cy="976.757" r="4" fill="#0" id="circle115"/>
	<circle cx="363.853" cy="167.569" r="4" fill="#0" id="circle116"/>
	<circle cx="363.853" cy="981.567" r="4" fill="#0" id="circle117"/>
	<circle cx="373.474" cy="167.569" r="4" fill="#0" id="circle118"/>
	<circle cx="373.474" cy="981.567" r="4" fill="#0" id="circle119"/>
	<circle cx="383.096" cy="167.569" r="4" fill="#0" id="circle120"/>
	<circle cx="383.096" cy="981.567" r="4" fill="#0" id="circle121"/>
	<circle cx="392.718" cy="167.569" r="4" fill="#0" id="circle122"/>
	<circle cx="392.718" cy="981.567" r="4" fill="#0" id="circle123"/>
	<circle cx="402.339" cy="167.569" r="4" fill="#0" id="circle124"/>
	<circle cx="402.339" cy="981.567" r="4" fill="#0" id="circle125"/>
	<circle cx="411.961" cy="167.569" r="4" fill="#0" id="circle126"/>
	<circle cx="411.961" cy="981.567" r="4" fill="#0" id="circle127"/>
	<circle cx="421.583" cy="167.569" r="4" fill="#0" id="circle128"/>
	<circle cx="421.583" cy="981.567" r="4" fill="#0" id="circle129"/>
	<circle cx="431.205" cy="167.569" r="4" fill="#0" id="circle130"/>
	<circle cx="431.205" cy="981.567" r="4" fill="#0" id="circle131"/>
	<circle cx="432.167" cy="54.9952" r="4" fill="#0" id="circle132"/>
	<circle cx="439.864" cy="61.7304" r="4" fill="#0" id="circle133"/>
	<circle cx="440.826" cy="167.569" r="4" fill="#0" id="circle134"/>
	<circle cx="440.826" cy="981.567" r="4" fill="#0" id="circle135"/>
	<circle cx="441.789" cy="50.1843" r="4" fill="#0" id="circle136"/>
	<circle cx="446.599" cy="69.4277" r="4" fill="#0" id="circle137"/>
	<circle cx="450.448" cy="168.532" r="4" fill="#0" id="circle138"/>
	<circle cx="450.448" cy="979.643" r="4" fill="#0" id="circle139"/>
	<circle cx="451.41" cy="47.2978" r="4" fill="#0" id="circle140"/>
	<circle cx="454.297" cy="76.1629" r="4" fill="#0" id="circle141"/>
	<circle cx="458.145" cy="85.7847" r="4" fill="#0" id="circle142"/>
	<circle cx="460.07" cy="172.38" r="4" fill="#0" id="circle143"/>
	<circle cx="460.07" cy="976.757" r="4" fill="#0" id="circle144"/>
	<circle cx="461.032" cy="49.2221" r="4" fill="#0" id="circle145"/>
	<circle cx="465.843" cy="91.5577" r="4" fill="#0" id="circle146"/>
	<circle cx="466.805" cy="56.9195" r="4" fill="#0" id="circle147"/>
	<circle cx="469.692" cy="172.38" r="4" fill="#0" id="circle148"/>
	<circle cx="469.692" cy="976.757" r="4" fill="#0" id="circle149"/>
	<circle cx="470.654" cy="100.217" r="4" fill="#0" id="circle150"/>
	<circle cx="471.616" cy="65.579" r="4" fill="#0" id="circle151"/>
	<circle cx="475.465" cy="108.877" r="4" fill="#0" id="circle152"/>
	<circle cx="476.427" cy="74.2386" r="4" fill="#0" id="circle153"/>
	<circle cx="479.313" cy="173.342" r="4" fill="#0" id="circle154"/>
	<circle cx="479.313" cy="976.757" r="4" fill="#0" id="circle155"/>
	<circle cx="480.275" cy="117.536" r="4" fill="#0" id="circle156"/>
	<circle cx="480.275" cy="127.158" r="4" fill="#0" id="circle157"/>
	<circle cx="481.238" cy="82.8982" r="4" fill="#0" id="circle158"/>
	<circle cx="485.086" cy="135.818" r="4" fill="#0" id="circle159"/>
	<circle cx="486.048" cy="91.5577" r="4" fill="#0" id="circle160"/>
	<circle cx="487.973" cy="101.179" r="4" fill="#0" id="circle161"/>
	<circle cx="488.935" cy="177.191" r="4" fill="#0" id="circle162"/>
	<circle cx="488.935" cy="976.757" r="4" fill="#0" id="circle163"/>
	<circle cx="489.897" cy="144.477" r="4" fill="#0" id="circle164"/>
	<circle cx="489.897" cy="154.099" r="4" fill="#0" id="circle165"/>
	<circle cx="489.897" cy="163.721" r="4" fill="#0" id="circle166"/>
	<circle cx="490.859" cy="110.801" r="4" fill="#0" id="circle167"/>
	<circle cx="495.67" cy="119.461" r="4" fill="#0" id="circle168"/>
	<circle cx="495.67" cy="129.082" r="4" fill="#0" id="circle169"/>
	<circle cx="497.595" cy="981.567" r="4" fill="#0" id="circle170"/>
	<circle cx="500.481" cy="137.742" r="4" fill="#0" id="circle171"/>
	<circle cx="507.216" cy="981.567" r="4" fill="#0" id="circle172"/>
	<circle cx="509.141" cy="117.536" r="4" fill="#0" id="circle173"/>
	<circle cx="509.141" cy="127.158" r="4" fill="#0" id="circle174"/>
	<circle cx="513.952" cy="103.104" r="4" fill="#0" id="circle175"/>
	<circle cx="516.838" cy="981.567" r="4" fill="#0" id="circle176"/>
	<circle cx="518.762" cy="93.4821" r="4" fill="#0" id="circle177"/>
	<circle cx="523.573" cy="83.8603" r="4" fill="#0" id="circle178"/>
	<circle cx="526.46" cy="985.416" r="4" fill="#0" id="circle179"/>
	<circle cx="531.271" cy="76.1629" r="4" fill="#0" id="circle180"/>
	<circle cx="536.081" cy="986.378" r="4" fill="#0" id="circle181"/>
	<circle cx="538.006" cy="64.6169" r="4" fill="#0" id="circle182"/>
	<circle cx="542.817" cy="54.9952" r="4" fill="#0" id="circle183"/>
	<circle cx="545.703" cy="986.378" r="4" fill="#0" id="circle184"/>
	<circle cx="550.514" cy="47.2978" r="4" fill="#0" id="circle185"/>
	<circle cx="555.325" cy="986.378" r="4" fill="#0" id="circle186"/>
	<circle cx="559.174" cy="42.4869" r="4" fill="#0" id="circle187"/>
	<circle cx="564.947" cy="986.378" r="4" fill="#0" id="circle188"/>
	<circle cx="567.833" cy="37.676" r="4" fill="#0" id="circle189"/>
	<circle cx="574.568" cy="986.378" r="4" fill="#0" id="circle190"/>
	<circle cx="576.493" cy="32.8652" r="4" fill="#0" id="circle191"/>
	<circle cx="582.266" cy="168.532" r="4" fill="#0" id="circle192"/>
	<circle cx="584.19" cy="986.378" r="4" fill="#0" id="circle193"/>
	<circle cx="585.152" cy="28.0543" r="4" fill="#0" id="circle194"/>
	<circle cx="591.887" cy="20.3569" r="4" fill="#0" id="circle195"/>
	<circle cx="591.887" cy="168.532" r="4" fill="#0" id="circle196"/>
	<circle cx="593.812" cy="986.378" r="4" fill="#0" id="circle197"/>
	<circle cx="600.547" cy="163.721" r="4" fill="#0" id="circle198"/>
	<circle cx="601.509" cy="15.5461" r="4" fill="#0" id="circle199"/>
	<circle cx="603.434" cy="986.378" r="4" fill="#0" id="circle200"/>
	<circle cx="605.358" cy="172.38" r="4" fill="#0" id="circle201"/>
	<circle cx="610.169" cy="163.721" r="4" fill="#0" id="circle202"/>
	<circle cx="611.131" cy="13.6217" r="4" fill="#0" id="circle203"/>
	<circle cx="613.055" cy="985.416" r="4" fill="#0" id="circle204"/>
	<circle cx="614.98" cy="174.305" r="4" fill="#0" id="circle205"/>
	<circle cx="619.79" cy="8.81086" r="4" fill="#0" id="circle206"/>
	<circle cx="619.79" cy="160.834" r="4" fill="#0" id="circle207"/>
	<circle cx="622.677" cy="981.567" r="4" fill="#0" id="circle208"/>
	<circle cx="624.601" cy="177.191" r="4" fill="#0" id="circle209"/>
	<circle cx="629.412" cy="8.81086" r="4" fill="#0" id="circle210"/>
	<circle cx="629.412" cy="158.91" r="4" fill="#0" id="circle211"/>
	<circle cx="632.299" cy="981.567" r="4" fill="#0" id="circle212"/>
	<circle cx="634.223" cy="177.191" r="4" fill="#0" id="circle213"/>
	<circle cx="638.072" cy="4" r="4" fill="#0" id="circle214"/>
	<circle cx="638.072" cy="154.099" r="4" fill="#0" id="circle215"/>
	<circle cx="641.92" cy="981.567" r="4" fill="#0" id="circle216"/>
	<circle cx="643.845" cy="177.191" r="4" fill="#0" id="circle217"/>
	<circle cx="646.731" cy="149.288" r="4" fill="#0" id="circle218"/>
	<circle cx="647.694" cy="4" r="4" fill="#0" id="circle219"/>
	<circle cx="650.58" cy="976.757" r="4" fill="#0" id="circle220"/>
	<circle cx="652.504" cy="182.002" r="4" fill="#0" id="circle221"/>
	<circle cx="656.353" cy="148.326" r="4" fill="#0" id="circle222"/>
	<circle cx="657.315" cy="4" r="4" fill="#0" id="circle223"/>
	<circle cx="660.202" cy="976.757" r="4" fill="#0" id="circle224"/>
	<circle cx="662.126" cy="182.002" r="4" fill="#0" id="circle225"/>
	<circle cx="665.975" cy="143.515" r="4" fill="#0" id="circle226"/>
	<circle cx="666.937" cy="4" r="4" fill="#0" id="circle227"/>
	<circle cx="669.823" cy="976.757" r="4" fill="#0" id="circle228"/>
	<circle cx="671.748" cy="182.964" r="4" fill="#0" id="circle229"/>
	<circle cx="675.597" cy="138.704" r="4" fill="#0" id="circle230"/>
	<circle cx="676.559" cy="4" r="4" fill="#0" id="circle231"/>
	<circle cx="678.483" cy="971.946" r="4" fill="#0" id="circle232"/>
	<circle cx="681.37" cy="186.813" r="4" fill="#0" id="circle233"/>
	<circle cx="683.294" cy="130.045" r="4" fill="#0" id="circle234"/>
	<circle cx="686.18" cy="4" r="4" fill="#0" id="circle235"/>
	<circle cx="688.105" cy="971.946" r="4" fill="#0" id="circle236"/>
	<circle cx="690.991" cy="187.775" r="4" fill="#0" id="circle237"/>
	<circle cx="692.916" cy="125.234" r="4" fill="#0" id="circle238"/>
	<circle cx="695.802" cy="4" r="4" fill="#0" id="circle239"/>
	<circle cx="696.764" cy="967.135" r="4" fill="#0" id="circle240"/>
	<circle cx="700.613" cy="118.499" r="4" fill="#0" id="circle241"/>
	<circle cx="700.613" cy="191.624" r="4" fill="#0" id="circle242"/>
	<circle cx="705.424" cy="4" r="4" fill="#0" id="circle243"/>
	<circle cx="706.386" cy="964.248" r="4" fill="#0" id="circle244"/>
	<circle cx="709.273" cy="196.435" r="4" fill="#0" id="circle245"/>
	<circle cx="710.235" cy="113.688" r="4" fill="#0" id="circle246"/>
	<circle cx="715.046" cy="4" r="4" fill="#0" id="circle247"/>
	<circle cx="716.008" cy="962.324" r="4" fill="#0" id="circle248"/>
	<circle cx="716.97" cy="105.99" r="4" fill="#0" id="circle249"/>
	<circle cx="718.894" cy="196.435" r="4" fill="#0" id="circle250"/>
	<circle cx="724.667" cy="4.96217" r="4" fill="#0" id="circle251"/>
	<circle cx="724.667" cy="99.2551" r="4" fill="#0" id="circle252"/>
	<circle cx="724.667" cy="957.513" r="4" fill="#0" id="circle253"/>
	<circle cx="727.554" cy="201.245" r="4" fill="#0" id="circle254"/>
	<circle cx="730.44" cy="91.5577" r="4" fill="#0" id="circle255"/>
	<circle cx="734.289" cy="8.81086" r="4" fill="#0" id="circle256"/>
	<circle cx="734.289" cy="955.589" r="4" fill="#0" id="circle257"/>
	<circle cx="736.213" cy="206.056" r="4" fill="#0" id="circle258"/>
	<circle cx="738.138" cy="85.7847" r="4" fill="#0" id="circle259"/>
	<circle cx="742.949" cy="76.1629" r="4" fill="#0" id="circle260"/>
	<circle cx="743.911" cy="9.77304" r="4" fill="#0" id="circle261"/>
	<circle cx="743.911" cy="950.778" r="4" fill="#0" id="circle262"/>
	<circle cx="745.835" cy="208.943" r="4" fill="#0" id="circle263"/>
	<circle cx="750.646" cy="62.6925" r="4" fill="#0" id="circle264"/>
	<circle cx="752.57" cy="14.5839" r="4" fill="#0" id="circle265"/>
	<circle cx="753.532" cy="945.967" r="4" fill="#0" id="circle266"/>
	<circle cx="754.495" cy="213.754" r="4" fill="#0" id="circle267"/>
	<circle cx="758.343" cy="55.9573" r="4" fill="#0" id="circle268"/>
	<circle cx="760.268" cy="21.3191" r="4" fill="#0" id="circle269"/>
	<circle cx="760.268" cy="38.6382" r="4" fill="#0" id="circle270"/>
	<circle cx="763.154" cy="941.156" r="4" fill="#0" id="circle271"/>
	<circle cx="764.116" cy="217.602" r="4" fill="#0" id="circle272"/>
	<circle cx="765.079" cy="29.9787" r="4" fill="#0" id="circle273"/>
	<circle cx="772.776" cy="222.413" r="4" fill="#0" id="circle274"/>
	<circle cx="772.776" cy="936.345" r="4" fill="#0" id="circle275"/>
	<circle cx="782.398" cy="226.262" r="4" fill="#0" id="circle276"/>
	<circle cx="782.398" cy="931.534" r="4" fill="#0" id="circle277"/>
	<circle cx="791.057" cy="231.073" r="4" fill="#0" id="circle278"/>
	<circle cx="792.019" cy="926.724" r="4" fill="#0" id="circle279"/>
	<circle cx="798.755" cy="237.808" r="4" fill="#0" id="circle280"/>
	<circle cx="798.755" cy="919.026" r="4" fill="#0" id="circle281"/>
	<circle cx="807.414" cy="242.619" r="4" fill="#0" id="circle282"/>
	<circle cx="808.376" cy="914.215" r="4" fill="#0" id="circle283"/>
	<circle cx="817.036" cy="246.468" r="4" fill="#0" id="circle284"/>
	<circle cx="817.998" cy="909.404" r="4" fill="#0" id="circle285"/>
	<circle cx="822.809" cy="254.165" r="4" fill="#0" id="circle286"/>
	<circle cx="825.695" cy="902.669" r="4" fill="#0" id="circle287"/>
	<circle cx="831.468" cy="258.976" r="4" fill="#0" id="circle288"/>
	<circle cx="835.317" cy="897.858" r="4" fill="#0" id="circle289"/>
	<circle cx="839.166" cy="264.749" r="4" fill="#0" id="circle290"/>
	<circle cx="842.052" cy="890.161" r="4" fill="#0" id="circle291"/>
	<circle cx="846.863" cy="271.484" r="4" fill="#0" id="circle292"/>
	<circle cx="849.75" cy="883.426" r="4" fill="#0" id="circle293"/>
	<circle cx="854.561" cy="278.219" r="4" fill="#0" id="circle294"/>
	<circle cx="859.371" cy="878.615" r="4" fill="#0" id="circle295"/>
	<circle cx="863.22" cy="283.03" r="4" fill="#0" id="circle296"/>
	<circle cx="866.107" cy="870.918" r="4" fill="#0" id="circle297"/>
	<circle cx="869.955" cy="290.727" r="4" fill="#0" id="circle298"/>
	<circle cx="873.804" cy="864.182" r="4" fill="#0" id="circle299"/>
	<circle cx="877.653" cy="297.463" r="4" fill="#0" id="circle300"/>
	<circle cx="880.539" cy="856.485" r="4" fill="#0" id="circle301"/>
	<circle cx="884.388" cy="305.16" r="4" fill="#0" id="circle302"/>
	<circle cx="888.237" cy="849.75" r="4" fill="#0" id="circle303"/>
	<circle cx="892.085" cy="311.895" r="4" fill="#0" id="circle304"/>
	<circle cx="894.972" cy="842.052" r="4" fill="#0" id="circle305"/>
	<circle cx="898.821" cy="319.593" r="4" fill="#0" id="circle306"/>
	<circle cx="899.783" cy="832.431" r="4" fill="#0" id="circle307"/>
	<circle cx="903.631" cy="328.252" r="4" fill="#0" id="circle308"/>
	<circle cx="907.48" cy="825.695" r="4" fill="#0" id="circle309"/>
	<circle cx="909.404" cy="335.95" r="4" fill="#0" id="circle310"/>
	<circle cx="914.215" cy="817.998" r="4" fill="#0" id="circle311"/>
	<circle cx="917.102" cy="341.723" r="4" fill="#0" id="circle312"/>
	<circle cx="919.026" cy="808.376" r="4" fill="#0" id="circle313"/>
	<circle cx="920.951" cy="351.344" r="4" fill="#0" id="circle314"/>
	<circle cx="926.724" cy="801.641" r="4" fill="#0" id="circle315"/>
	<circle cx="928.648" cy="358.08" r="4" fill="#0" id="circle316"/>
	<circle cx="931.534" cy="792.019" r="4" fill="#0" id="circle317"/>
	<circle cx="932.497" cy="367.701" r="4" fill="#0" id="circle318"/>
	<circle cx="938.27" cy="375.399" r="4" fill="#0" id="circle319"/>
	<circle cx="938.27" cy="779.511" r="4" fill="#0" id="circle320"/>
	<circle cx="943.081" cy="384.058" r="4" fill="#0" id="circle321"/>
	<circle cx="943.081" cy="769.889" r="4" fill="#0" id="circle322"/>
	<circle cx="947.891" cy="392.718" r="4" fill="#0" id="circle323"/>
	<circle cx="950.778" cy="763.154" r="4" fill="#0" id="circle324"/>
	<circle cx="952.702" cy="401.377" r="4" fill="#0" id="circle325"/>
	<circle cx="955.589" cy="753.532" r="4" fill="#0" id="circle326"/>
	<circle cx="957.513" cy="410.037" r="4" fill="#0" id="circle327"/>
	<circle cx="960.4" cy="743.911" r="4" fill="#0" id="circle328"/>
	<circle cx="962.324" cy="418.696" r="4" fill="#0" id="circle329"/>
	<circle cx="962.324" cy="731.403" r="4" fill="#0" id="circle330"/>
	<circle cx="964.248" cy="428.318" r="4" fill="#0" id="circle331"/>
	<circle cx="967.135" cy="721.781" r="4" fill="#0" id="circle332"/>
	<circle cx="969.059" cy="436.978" r="4" fill="#0" id="circle333"/>
	<circle cx="971.946" cy="446.599" r="4" fill="#0" id="circle334"/>
	<circle cx="971.946" cy="707.348" r="4" fill="#0" id="circle335"/>
	<circle cx="976.757" cy="455.259" r="4" fill="#0" id="circle336"/>
	<circle cx="976.757" cy="464.881" r="4" fill="#0" id="circle337"/>
	<circle cx="976.757" cy="692.916" r="4" fill="#0" id="circle338"/>
	<circle cx="981.567" cy="473.54" r="4" fill="#0" id="circle339"/>
	<circle cx="981.567" cy="483.162" r="4" fill="#0" id="circle340"/>
	<circle cx="981.567" cy="673.672" r="4" fill="#0" id="circle341"/>
	<circle cx="981.567" cy="683.294" r="4" fill="#0" id="circle342"/>
	<circle cx="986.378" cy="491.822" r="4" fill="#0" id="circle343"/>
	<circle cx="986.378" cy="501.443" r="4" fill="#0" id="circle344"/>
	<circle cx="986.378" cy="654.429" r="4" fill="#0" id="circle345"/>
	<circle cx="986.378" cy="664.05" r="4" fill="#0" id="circle346"/>
	<circle cx="991.189" cy="510.103" r="4" fill="#0" id="circle347"/>
	<circle cx="991.189" cy="519.725" r="4" fill="#0" id="circle348"/>
	<circle cx="991.189" cy="529.346" r="4" fill="#0" id="circle349"/>
	<circle cx="991.189" cy="620.753" r="4" fill="#0" id="circle350"/>
	<circle cx="991.189" cy="630.374" r="4" fill="#0" id="circle351"/>
	<circle cx="991.189" cy="639.996" r="4" fill="#0" id="circle352"/>
	<circle cx="993.113" cy="538.968" r="4" fill="#0" id="circle353"/>
	<circle cx="996" cy="548.59" r="4" fill="#0" id="circle354"/>
	<circle cx="996" cy="558.211" r="4" fill="#0" id="circle355"/>
	<circle cx="996" cy="567.833" r="4" fill="#0" id="circle356"/>
	<circle cx="996" cy="577.455" r="4" fill="#0" id="circle357"/>
	<circle cx="996" cy="587.077" r="4" fill="#0" id="circle358"/>
	<circle cx="996" cy="596.698" r="4" fill="#0" id="circle359"/>
	<circle cx="996" cy="606.32" r="4" fill="#0" id="circle360"/>
	</g>
</svg>