<?xml version="1.0" encoding="UTF-8" standalone="no"?>
<!-- Created with CurveBenchmark -->
<svg
	xmlns:dc="http://purl.org/dc/elements/1.1/"
	xmlns:cc="http://creativecommons.org/ns#"
	xmlns:rdf="http://www.w3.org/1999/02/22-rdf-syntax-ns#"
	xmlns:svg="http://www.w3.org/2000/svg"
	xmlns="http://www.w3.org/2000/svg"
	xmlns:sodipodi="http://sodipodi.sourceforge.net/DTD/sodipodi-0.dtd"
	xmlns:inkscape="http://www.inkscape.org/namespaces/inkscape"
	width="1000"
	height="1000"
	id="svg2"
	version="1.1"
	sodipodi:docname="manifold/vicur-bird110.png.txt">
<defs
	id="defs4" />
<metadata
	id="metadata7">
	<rdf:RDF>
		<cc:Work
			rdf:about="">
			<dc:format>image/svg+xml</dc:format>
			<dc:type
				rdf:resource="http://purl.org/dc/dcmitype/StillImage" />
			<dc:title></dc:title>
		</cc:Work>
	</rdf:RDF>
</metadata>
<g
	inkscape:label="Layer 1"
	inkscape:groupmode="layer"
	id="layer1">
	<path style="fill:none;stroke:red;stroke-width:1px;stroke-linecap:butt;stroke-linejoin:miter;stroke-opacity:1" d="M 4,245.192 11.7804,284.094 z" id="boundary" inkscape:connector-curvature="0" />
	<path style="fill:none;stroke:red;stroke-width:1px;stroke-linecap:butt;stroke-linejoin:miter;stroke-opacity:1" d="M 4,245.192 19.5608,190.729 z" id="boundary" inkscape:connector-curvature="0" />
	<path style="fill:none;stroke:red;stroke-width:1px;stroke-linecap:butt;stroke-linejoin:miter;stroke-opacity:1" d="M 11.7804,284.094 50.6824,287.984 z" id="boundary" inkscape:connector-curvature="0" />
	<path style="fill:none;stroke:red;stroke-width:1px;stroke-linecap:butt;stroke-linejoin:miter;stroke-opacity:1" d="M 19.5608,190.729 27.3412,136.267 z" id="boundary" inkscape:connector-curvature="0" />
	<path style="fill:none;stroke:red;stroke-width:1px;stroke-linecap:butt;stroke-linejoin:miter;stroke-opacity:1" d="M 27.3412,136.267 46.7922,101.255 z" id="boundary" inkscape:connector-curvature="0" />
	<path style="fill:none;stroke:red;stroke-width:1px;stroke-linecap:butt;stroke-linejoin:miter;stroke-opacity:1" d="M 46.7922,101.255 77.9137,74.0235 z" id="boundary" inkscape:connector-curvature="0" />
	<path style="fill:none;stroke:red;stroke-width:1px;stroke-linecap:butt;stroke-linejoin:miter;stroke-opacity:1" d="M 50.6824,287.984 85.6941,307.435 z" id="boundary" inkscape:connector-curvature="0" />
	<path style="fill:none;stroke:red;stroke-width:1px;stroke-linecap:butt;stroke-linejoin:miter;stroke-opacity:1" d="M 77.9137,74.0235 109.035,46.7922 z" id="boundary" inkscape:connector-curvature="0" />
	<path style="fill:none;stroke:red;stroke-width:1px;stroke-linecap:butt;stroke-linejoin:miter;stroke-opacity:1" d="M 85.6941,307.435 101.255,346.337 z" id="boundary" inkscape:connector-curvature="0" />
	<path style="fill:none;stroke:red;stroke-width:1px;stroke-linecap:butt;stroke-linejoin:miter;stroke-opacity:1" d="M 97.3647,968.769 132.376,988.22 z" id="boundary" inkscape:connector-curvature="0" />
	<path style="fill:none;stroke:red;stroke-width:1px;stroke-linecap:butt;stroke-linejoin:miter;stroke-opacity:1" d="M 97.3647,968.769 140.157,949.318 z" id="boundary" inkscape:connector-curvature="0" />
	<path style="fill:none;stroke:red;stroke-width:1px;stroke-linecap:butt;stroke-linejoin:miter;stroke-opacity:1" d="M 101.255,346.337 132.376,373.569 z" id="boundary" inkscape:connector-curvature="0" />
	<path style="fill:none;stroke:red;stroke-width:1px;stroke-linecap:butt;stroke-linejoin:miter;stroke-opacity:1" d="M 109.035,46.7922 144.047,27.3412 z" id="boundary" inkscape:connector-curvature="0" />
	<path style="fill:none;stroke:red;stroke-width:1px;stroke-linecap:butt;stroke-linejoin:miter;stroke-opacity:1" d="M 132.376,373.569 144.047,412.471 z" id="boundary" inkscape:connector-curvature="0" />
	<path style="fill:none;stroke:red;stroke-width:1px;stroke-linecap:butt;stroke-linejoin:miter;stroke-opacity:1" d="M 132.376,988.22 171.278,996 z" id="boundary" inkscape:connector-curvature="0" />
	<path style="fill:none;stroke:red;stroke-width:1px;stroke-linecap:butt;stroke-linejoin:miter;stroke-opacity:1" d="M 140.157,949.318 163.498,918.196 z" id="boundary" inkscape:connector-curvature="0" />
	<path style="fill:none;stroke:red;stroke-width:1px;stroke-linecap:butt;stroke-linejoin:miter;stroke-opacity:1" d="M 144.047,27.3412 182.949,11.7804 z" id="boundary" inkscape:connector-curvature="0" />
	<path style="fill:none;stroke:red;stroke-width:1px;stroke-linecap:butt;stroke-linejoin:miter;stroke-opacity:1" d="M 144.047,412.471 151.827,451.373 z" id="boundary" inkscape:connector-curvature="0" />
	<path style="fill:none;stroke:red;stroke-width:1px;stroke-linecap:butt;stroke-linejoin:miter;stroke-opacity:1" d="M 151.827,451.373 151.827,490.275 z" id="boundary" inkscape:connector-curvature="0" />
	<path style="fill:none;stroke:red;stroke-width:1px;stroke-linecap:butt;stroke-linejoin:miter;stroke-opacity:1" d="M 151.827,490.275 159.608,529.176 z" id="boundary" inkscape:connector-curvature="0" />
	<path style="fill:none;stroke:red;stroke-width:1px;stroke-linecap:butt;stroke-linejoin:miter;stroke-opacity:1" d="M 159.608,529.176 167.388,568.078 z" id="boundary" inkscape:connector-curvature="0" />
	<path style="fill:none;stroke:red;stroke-width:1px;stroke-linecap:butt;stroke-linejoin:miter;stroke-opacity:1" d="M 163.498,918.196 167.388,852.063 z" id="boundary" inkscape:connector-curvature="0" />
	<path style="fill:none;stroke:red;stroke-width:1px;stroke-linecap:butt;stroke-linejoin:miter;stroke-opacity:1" d="M 167.388,568.078 175.169,606.98 z" id="boundary" inkscape:connector-curvature="0" />
	<path style="fill:none;stroke:red;stroke-width:1px;stroke-linecap:butt;stroke-linejoin:miter;stroke-opacity:1" d="M 167.388,813.161 167.388,852.063 z" id="boundary" inkscape:connector-curvature="0" />
	<path style="fill:none;stroke:red;stroke-width:1px;stroke-linecap:butt;stroke-linejoin:miter;stroke-opacity:1" d="M 167.388,813.161 175.169,762.588 z" id="boundary" inkscape:connector-curvature="0" />
	<path style="fill:none;stroke:red;stroke-width:1px;stroke-linecap:butt;stroke-linejoin:miter;stroke-opacity:1" d="M 171.278,996 210.18,976.549 z" id="boundary" inkscape:connector-curvature="0" />
	<path style="fill:none;stroke:red;stroke-width:1px;stroke-linecap:butt;stroke-linejoin:miter;stroke-opacity:1" d="M 175.169,606.98 175.169,645.882 z" id="boundary" inkscape:connector-curvature="0" />
	<path style="fill:none;stroke:red;stroke-width:1px;stroke-linecap:butt;stroke-linejoin:miter;stroke-opacity:1" d="M 175.169,645.882 175.169,684.784 z" id="boundary" inkscape:connector-curvature="0" />
	<path style="fill:none;stroke:red;stroke-width:1px;stroke-linecap:butt;stroke-linejoin:miter;stroke-opacity:1" d="M 175.169,684.784 175.169,723.686 z" id="boundary" inkscape:connector-curvature="0" />
	<path style="fill:none;stroke:red;stroke-width:1px;stroke-linecap:butt;stroke-linejoin:miter;stroke-opacity:1" d="M 175.169,723.686 175.169,762.588 z" id="boundary" inkscape:connector-curvature="0" />
	<path style="fill:none;stroke:red;stroke-width:1px;stroke-linecap:butt;stroke-linejoin:miter;stroke-opacity:1" d="M 182.949,11.7804 221.851,4 z" id="boundary" inkscape:connector-curvature="0" />
	<path style="fill:none;stroke:red;stroke-width:1px;stroke-linecap:butt;stroke-linejoin:miter;stroke-opacity:1" d="M 210.18,820.941 210.18,859.843 z" id="boundary" inkscape:connector-curvature="0" />
	<path style="fill:none;stroke:red;stroke-width:1px;stroke-linecap:butt;stroke-linejoin:miter;stroke-opacity:1" d="M 210.18,820.941 217.961,782.039 z" id="boundary" inkscape:connector-curvature="0" />
	<path style="fill:none;stroke:red;stroke-width:1px;stroke-linecap:butt;stroke-linejoin:miter;stroke-opacity:1" d="M 210.18,859.843 210.18,898.745 z" id="boundary" inkscape:connector-curvature="0" />
	<path style="fill:none;stroke:red;stroke-width:1px;stroke-linecap:butt;stroke-linejoin:miter;stroke-opacity:1" d="M 210.18,898.745 210.18,937.647 z" id="boundary" inkscape:connector-curvature="0" />
	<path style="fill:none;stroke:red;stroke-width:1px;stroke-linecap:butt;stroke-linejoin:miter;stroke-opacity:1" d="M 210.18,937.647 249.082,945.427 z" id="boundary" inkscape:connector-curvature="0" />
	<path style="fill:none;stroke:red;stroke-width:1px;stroke-linecap:butt;stroke-linejoin:miter;stroke-opacity:1" d="M 210.18,976.549 249.082,988.22 z" id="boundary" inkscape:connector-curvature="0" />
	<path style="fill:none;stroke:red;stroke-width:1px;stroke-linecap:butt;stroke-linejoin:miter;stroke-opacity:1" d="M 217.961,377.459 217.961,416.361 z" id="boundary" inkscape:connector-curvature="0" />
	<path style="fill:none;stroke:red;stroke-width:1px;stroke-linecap:butt;stroke-linejoin:miter;stroke-opacity:1" d="M 217.961,377.459 256.863,404.69 z" id="boundary" inkscape:connector-curvature="0" />
	<path style="fill:none;stroke:red;stroke-width:1px;stroke-linecap:butt;stroke-linejoin:miter;stroke-opacity:1" d="M 217.961,416.361 217.961,455.263 z" id="boundary" inkscape:connector-curvature="0" />
	<path style="fill:none;stroke:red;stroke-width:1px;stroke-linecap:butt;stroke-linejoin:miter;stroke-opacity:1" d="M 217.961,455.263 217.961,494.165 z" id="boundary" inkscape:connector-curvature="0" />
	<path style="fill:none;stroke:red;stroke-width:1px;stroke-linecap:butt;stroke-linejoin:miter;stroke-opacity:1" d="M 217.961,494.165 217.961,533.067 z" id="boundary" inkscape:connector-curvature="0" />
	<path style="fill:none;stroke:red;stroke-width:1px;stroke-linecap:butt;stroke-linejoin:miter;stroke-opacity:1" d="M 217.961,533.067 217.961,571.969 z" id="boundary" inkscape:connector-curvature="0" />
	<path style="fill:none;stroke:red;stroke-width:1px;stroke-linecap:butt;stroke-linejoin:miter;stroke-opacity:1" d="M 217.961,571.969 217.961,610.871 z" id="boundary" inkscape:connector-curvature="0" />
	<path style="fill:none;stroke:red;stroke-width:1px;stroke-linecap:butt;stroke-linejoin:miter;stroke-opacity:1" d="M 217.961,610.871 225.741,649.773 z" id="boundary" inkscape:connector-curvature="0" />
	<path style="fill:none;stroke:red;stroke-width:1px;stroke-linecap:butt;stroke-linejoin:miter;stroke-opacity:1" d="M 217.961,704.235 217.961,743.137 z" id="boundary" inkscape:connector-curvature="0" />
	<path style="fill:none;stroke:red;stroke-width:1px;stroke-linecap:butt;stroke-linejoin:miter;stroke-opacity:1" d="M 217.961,704.235 225.741,649.773 z" id="boundary" inkscape:connector-curvature="0" />
	<path style="fill:none;stroke:red;stroke-width:1px;stroke-linecap:butt;stroke-linejoin:miter;stroke-opacity:1" d="M 217.961,743.137 217.961,782.039 z" id="boundary" inkscape:connector-curvature="0" />
	<path style="fill:none;stroke:red;stroke-width:1px;stroke-linecap:butt;stroke-linejoin:miter;stroke-opacity:1" d="M 221.851,4 260.753,7.8902 z" id="boundary" inkscape:connector-curvature="0" />
	<path style="fill:none;stroke:red;stroke-width:1px;stroke-linecap:butt;stroke-linejoin:miter;stroke-opacity:1" d="M 249.082,945.427 260.753,890.965 z" id="boundary" inkscape:connector-curvature="0" />
	<path style="fill:none;stroke:red;stroke-width:1px;stroke-linecap:butt;stroke-linejoin:miter;stroke-opacity:1" d="M 249.082,988.22 287.984,996 z" id="boundary" inkscape:connector-curvature="0" />
	<path style="fill:none;stroke:red;stroke-width:1px;stroke-linecap:butt;stroke-linejoin:miter;stroke-opacity:1" d="M 256.863,404.69 260.753,443.592 z" id="boundary" inkscape:connector-curvature="0" />
	<path style="fill:none;stroke:red;stroke-width:1px;stroke-linecap:butt;stroke-linejoin:miter;stroke-opacity:1" d="M 260.753,7.8902 299.655,23.451 z" id="boundary" inkscape:connector-curvature="0" />
	<path style="fill:none;stroke:red;stroke-width:1px;stroke-linecap:butt;stroke-linejoin:miter;stroke-opacity:1" d="M 260.753,443.592 260.753,482.494 z" id="boundary" inkscape:connector-curvature="0" />
	<path style="fill:none;stroke:red;stroke-width:1px;stroke-linecap:butt;stroke-linejoin:miter;stroke-opacity:1" d="M 260.753,482.494 268.533,521.396 z" id="boundary" inkscape:connector-curvature="0" />
	<path style="fill:none;stroke:red;stroke-width:1px;stroke-linecap:butt;stroke-linejoin:miter;stroke-opacity:1" d="M 260.753,852.063 260.753,890.965 z" id="boundary" inkscape:connector-curvature="0" />
	<path style="fill:none;stroke:red;stroke-width:1px;stroke-linecap:butt;stroke-linejoin:miter;stroke-opacity:1" d="M 260.753,852.063 268.533,793.71 z" id="boundary" inkscape:connector-curvature="0" />
	<path style="fill:none;stroke:red;stroke-width:1px;stroke-linecap:butt;stroke-linejoin:miter;stroke-opacity:1" d="M 268.533,521.396 268.533,560.298 z" id="boundary" inkscape:connector-curvature="0" />
	<path style="fill:none;stroke:red;stroke-width:1px;stroke-linecap:butt;stroke-linejoin:miter;stroke-opacity:1" d="M 268.533,560.298 268.533,599.2 z" id="boundary" inkscape:connector-curvature="0" />
	<path style="fill:none;stroke:red;stroke-width:1px;stroke-linecap:butt;stroke-linejoin:miter;stroke-opacity:1" d="M 268.533,599.2 268.533,638.102 z" id="boundary" inkscape:connector-curvature="0" />
	<path style="fill:none;stroke:red;stroke-width:1px;stroke-linecap:butt;stroke-linejoin:miter;stroke-opacity:1" d="M 268.533,638.102 268.533,677.004 z" id="boundary" inkscape:connector-curvature="0" />
	<path style="fill:none;stroke:red;stroke-width:1px;stroke-linecap:butt;stroke-linejoin:miter;stroke-opacity:1" d="M 268.533,677.004 268.533,715.906 z" id="boundary" inkscape:connector-curvature="0" />
	<path style="fill:none;stroke:red;stroke-width:1px;stroke-linecap:butt;stroke-linejoin:miter;stroke-opacity:1" d="M 268.533,715.906 268.533,754.808 z" id="boundary" inkscape:connector-curvature="0" />
	<path style="fill:none;stroke:red;stroke-width:1px;stroke-linecap:butt;stroke-linejoin:miter;stroke-opacity:1" d="M 268.533,754.808 268.533,793.71 z" id="boundary" inkscape:connector-curvature="0" />
	<path style="fill:none;stroke:red;stroke-width:1px;stroke-linecap:butt;stroke-linejoin:miter;stroke-opacity:1" d="M 287.984,996 303.545,937.647 z" id="boundary" inkscape:connector-curvature="0" />
	<path style="fill:none;stroke:red;stroke-width:1px;stroke-linecap:butt;stroke-linejoin:miter;stroke-opacity:1" d="M 299.655,23.451 330.776,46.7922 z" id="boundary" inkscape:connector-curvature="0" />
	<path style="fill:none;stroke:red;stroke-width:1px;stroke-linecap:butt;stroke-linejoin:miter;stroke-opacity:1" d="M 303.545,859.843 303.545,898.745 z" id="boundary" inkscape:connector-curvature="0" />
	<path style="fill:none;stroke:red;stroke-width:1px;stroke-linecap:butt;stroke-linejoin:miter;stroke-opacity:1" d="M 303.545,859.843 311.325,805.38 z" id="boundary" inkscape:connector-curvature="0" />
	<path style="fill:none;stroke:red;stroke-width:1px;stroke-linecap:butt;stroke-linejoin:miter;stroke-opacity:1" d="M 303.545,898.745 303.545,937.647 z" id="boundary" inkscape:connector-curvature="0" />
	<path style="fill:none;stroke:red;stroke-width:1px;stroke-linecap:butt;stroke-linejoin:miter;stroke-opacity:1" d="M 311.325,688.675 311.325,727.576 z" id="boundary" inkscape:connector-curvature="0" />
	<path style="fill:none;stroke:red;stroke-width:1px;stroke-linecap:butt;stroke-linejoin:miter;stroke-opacity:1" d="M 311.325,688.675 319.106,618.651 z" id="boundary" inkscape:connector-curvature="0" />
	<path style="fill:none;stroke:red;stroke-width:1px;stroke-linecap:butt;stroke-linejoin:miter;stroke-opacity:1" d="M 311.325,727.576 311.325,766.478 z" id="boundary" inkscape:connector-curvature="0" />
	<path style="fill:none;stroke:red;stroke-width:1px;stroke-linecap:butt;stroke-linejoin:miter;stroke-opacity:1" d="M 311.325,766.478 311.325,805.38 z" id="boundary" inkscape:connector-curvature="0" />
	<path style="fill:none;stroke:red;stroke-width:1px;stroke-linecap:butt;stroke-linejoin:miter;stroke-opacity:1" d="M 319.106,501.945 319.106,540.847 z" id="boundary" inkscape:connector-curvature="0" />
	<path style="fill:none;stroke:red;stroke-width:1px;stroke-linecap:butt;stroke-linejoin:miter;stroke-opacity:1" d="M 319.106,501.945 326.886,447.482 z" id="boundary" inkscape:connector-curvature="0" />
	<path style="fill:none;stroke:red;stroke-width:1px;stroke-linecap:butt;stroke-linejoin:miter;stroke-opacity:1" d="M 319.106,540.847 319.106,579.749 z" id="boundary" inkscape:connector-curvature="0" />
	<path style="fill:none;stroke:red;stroke-width:1px;stroke-linecap:butt;stroke-linejoin:miter;stroke-opacity:1" d="M 319.106,579.749 319.106,618.651 z" id="boundary" inkscape:connector-curvature="0" />
	<path style="fill:none;stroke:red;stroke-width:1px;stroke-linecap:butt;stroke-linejoin:miter;stroke-opacity:1" d="M 326.886,447.482 365.788,435.812 z" id="boundary" inkscape:connector-curvature="0" />
	<path style="fill:none;stroke:red;stroke-width:1px;stroke-linecap:butt;stroke-linejoin:miter;stroke-opacity:1" d="M 330.776,46.7922 354.118,77.9137 z" id="boundary" inkscape:connector-curvature="0" />
	<path style="fill:none;stroke:red;stroke-width:1px;stroke-linecap:butt;stroke-linejoin:miter;stroke-opacity:1" d="M 354.118,77.9137 373.569,112.925 z" id="boundary" inkscape:connector-curvature="0" />
	<path style="fill:none;stroke:red;stroke-width:1px;stroke-linecap:butt;stroke-linejoin:miter;stroke-opacity:1" d="M 365.788,435.812 404.69,424.141 z" id="boundary" inkscape:connector-curvature="0" />
	<path style="fill:none;stroke:red;stroke-width:1px;stroke-linecap:butt;stroke-linejoin:miter;stroke-opacity:1" d="M 373.569,112.925 381.349,151.827 z" id="boundary" inkscape:connector-curvature="0" />
	<path style="fill:none;stroke:red;stroke-width:1px;stroke-linecap:butt;stroke-linejoin:miter;stroke-opacity:1" d="M 381.349,151.827 393.02,190.729 z" id="boundary" inkscape:connector-curvature="0" />
	<path style="fill:none;stroke:red;stroke-width:1px;stroke-linecap:butt;stroke-linejoin:miter;stroke-opacity:1" d="M 393.02,190.729 404.69,229.631 z" id="boundary" inkscape:connector-curvature="0" />
	<path style="fill:none;stroke:red;stroke-width:1px;stroke-linecap:butt;stroke-linejoin:miter;stroke-opacity:1" d="M 404.69,229.631 412.471,268.533 z" id="boundary" inkscape:connector-curvature="0" />
	<path style="fill:none;stroke:red;stroke-width:1px;stroke-linecap:butt;stroke-linejoin:miter;stroke-opacity:1" d="M 404.69,424.141 412.471,361.898 z" id="boundary" inkscape:connector-curvature="0" />
	<path style="fill:none;stroke:red;stroke-width:1px;stroke-linecap:butt;stroke-linejoin:miter;stroke-opacity:1" d="M 412.471,268.533 412.471,322.996 z" id="boundary" inkscape:connector-curvature="0" />
	<path style="fill:none;stroke:red;stroke-width:1px;stroke-linecap:butt;stroke-linejoin:miter;stroke-opacity:1" d="M 412.471,322.996 412.471,361.898 z" id="boundary" inkscape:connector-curvature="0" />
	<circle cx="4" cy="245.192" r="4" fill="#0" id="circle0"/>
	<circle cx="11.7804" cy="284.094" r="4" fill="#0" id="circle1"/>
	<circle cx="19.5608" cy="190.729" r="4" fill="#0" id="circle2"/>
	<circle cx="27.3412" cy="136.267" r="4" fill="#0" id="circle3"/>
	<circle cx="46.7922" cy="101.255" r="4" fill="#0" id="circle4"/>
	<circle cx="50.6824" cy="287.984" r="4" fill="#0" id="circle5"/>
	<circle cx="70.1333" cy="252.973" r="4" fill="#0" id="circle6"/>
	<circle cx="77.9137" cy="74.0235" r="4" fill="#0" id="circle7"/>
	<circle cx="85.6941" cy="307.435" r="4" fill="#0" id="circle8"/>
	<circle cx="97.3647" cy="968.769" r="4" fill="#0" id="circle9"/>
	<circle cx="101.255" cy="346.337" r="4" fill="#0" id="circle10"/>
	<circle cx="109.035" cy="46.7922" r="4" fill="#0" id="circle11"/>
	<circle cx="132.376" cy="373.569" r="4" fill="#0" id="circle12"/>
	<circle cx="132.376" cy="988.22" r="4" fill="#0" id="circle13"/>
	<circle cx="140.157" cy="949.318" r="4" fill="#0" id="circle14"/>
	<circle cx="144.047" cy="27.3412" r="4" fill="#0" id="circle15"/>
	<circle cx="144.047" cy="412.471" r="4" fill="#0" id="circle16"/>
	<circle cx="151.827" cy="451.373" r="4" fill="#0" id="circle17"/>
	<circle cx="151.827" cy="490.275" r="4" fill="#0" id="circle18"/>
	<circle cx="159.608" cy="529.176" r="4" fill="#0" id="circle19"/>
	<circle cx="163.498" cy="918.196" r="4" fill="#0" id="circle20"/>
	<circle cx="167.388" cy="568.078" r="4" fill="#0" id="circle21"/>
	<circle cx="167.388" cy="813.161" r="4" fill="#0" id="circle22"/>
	<circle cx="167.388" cy="852.063" r="4" fill="#0" id="circle23"/>
	<circle cx="171.278" cy="996" r="4" fill="#0" id="circle24"/>
	<circle cx="175.169" cy="606.98" r="4" fill="#0" id="circle25"/>
	<circle cx="175.169" cy="645.882" r="4" fill="#0" id="circle26"/>
	<circle cx="175.169" cy="684.784" r="4" fill="#0" id="circle27"/>
	<circle cx="175.169" cy="723.686" r="4" fill="#0" id="circle28"/>
	<circle cx="175.169" cy="762.588" r="4" fill="#0" id="circle29"/>
	<circle cx="182.949" cy="11.7804" r="4" fill="#0" id="circle30"/>
	<circle cx="210.18" cy="820.941" r="4" fill="#0" id="circle31"/>
	<circle cx="210.18" cy="859.843" r="4" fill="#0" id="circle32"/>
	<circle cx="210.18" cy="898.745" r="4" fill="#0" id="circle33"/>
	<circle cx="210.18" cy="937.647" r="4" fill="#0" id="circle34"/>
	<circle cx="210.18" cy="976.549" r="4" fill="#0" id="circle35"/>
	<circle cx="217.961" cy="377.459" r="4" fill="#0" id="circle36"/>
	<circle cx="217.961" cy="416.361" r="4" fill="#0" id="circle37"/>
	<circle cx="217.961" cy="455.263" r="4" fill="#0" id="circle38"/>
	<circle cx="217.961" cy="494.165" r="4" fill="#0" id="circle39"/>
	<circle cx="217.961" cy="533.067" r="4" fill="#0" id="circle40"/>
	<circle cx="217.961" cy="571.969" r="4" fill="#0" id="circle41"/>
	<circle cx="217.961" cy="610.871" r="4" fill="#0" id="circle42"/>
	<circle cx="217.961" cy="704.235" r="4" fill="#0" id="circle43"/>
	<circle cx="217.961" cy="743.137" r="4" fill="#0" id="circle44"/>
	<circle cx="217.961" cy="782.039" r="4" fill="#0" id="circle45"/>
	<circle cx="221.851" cy="4" r="4" fill="#0" id="circle46"/>
	<circle cx="225.741" cy="649.773" r="4" fill="#0" id="circle47"/>
	<circle cx="249.082" cy="945.427" r="4" fill="#0" id="circle48"/>
	<circle cx="249.082" cy="988.22" r="4" fill="#0" id="circle49"/>
	<circle cx="256.863" cy="404.69" r="4" fill="#0" id="circle50"/>
	<circle cx="260.753" cy="7.8902" r="4" fill="#0" id="circle51"/>
	<circle cx="260.753" cy="443.592" r="4" fill="#0" id="circle52"/>
	<circle cx="260.753" cy="482.494" r="4" fill="#0" id="circle53"/>
	<circle cx="260.753" cy="852.063" r="4" fill="#0" id="circle54"/>
	<circle cx="260.753" cy="890.965" r="4" fill="#0" id="circle55"/>
	<circle cx="268.533" cy="521.396" r="4" fill="#0" id="circle56"/>
	<circle cx="268.533" cy="560.298" r="4" fill="#0" id="circle57"/>
	<circle cx="268.533" cy="599.2" r="4" fill="#0" id="circle58"/>
	<circle cx="268.533" cy="638.102" r="4" fill="#0" id="circle59"/>
	<circle cx="268.533" cy="677.004" r="4" fill="#0" id="circle60"/>
	<circle cx="268.533" cy="715.906" r="4" fill="#0" id="circle61"/>
	<circle cx="268.533" cy="754.808" r="4" fill="#0" id="circle62"/>
	<circle cx="268.533" cy="793.71" r="4" fill="#0" id="circle63"/>
	<circle cx="287.984" cy="996" r="4" fill="#0" id="circle64"/>
	<circle cx="299.655" cy="23.451" r="4" fill="#0" id="circle65"/>
	<circle cx="303.545" cy="859.843" r="4" fill="#0" id="circle66"/>
	<circle cx="303.545" cy="898.745" r="4" fill="#0" id="circle67"/>
	<circle cx="303.545" cy="937.647" r="4" fill="#0" id="circle68"/>
	<circle cx="311.325" cy="688.675" r="4" fill="#0" id="circle69"/>
	<circle cx="311.325" cy="727.576" r="4" fill="#0" id="circle70"/>
	<circle cx="311.325" cy="766.478" r="4" fill="#0" id="circle71"/>
	<circle cx="311.325" cy="805.38" r="4" fill="#0" id="circle72"/>
	<circle cx="319.106" cy="501.945" r="4" fill="#0" id="circle73"/>
	<circle cx="319.106" cy="540.847" r="4" fill="#0" id="circle74"/>
	<circle cx="319.106" cy="579.749" r="4" fill="#0" id="circle75"/>
	<circle cx="319.106" cy="618.651" r="4" fill="#0" id="circle76"/>
	<circle cx="326.886" cy="408.58" r="4" fill="#0" id="circle77"/>
	<circle cx="326.886" cy="447.482" r="4" fill="#0" id="circle78"/>
	<circle cx="330.776" cy="46.7922" r="4" fill="#0" id="circle79"/>
	<circle cx="354.118" cy="77.9137" r="4" fill="#0" id="circle80"/>
	<circle cx="365.788" cy="435.812" r="4" fill="#0" id="circle81"/>
	<circle cx="373.569" cy="112.925" r="4" fill="#0" id="circle82"/>
	<circle cx="381.349" cy="151.827" r="4" fill="#0" id="circle83"/>
	<circle cx="393.02" cy="190.729" r="4" fill="#0" id="circle84"/>
	<circle cx="404.69" cy="229.631" r="4" fill="#0" id="circle85"/>
	<circle cx="404.69" cy="424.141" r="4" fill="#0" id="circle86"/>
	<circle cx="412.471" cy="268.533" r="4" fill="#0" id="circle87"/>
	<circle cx="412.471" cy="322.996" r="4" fill="#0" id="circle88"/>
	<circle cx="412.471" cy="361.898" r="4" fill="#0" id="circle89"/>
	</g>
</svg>