<?xml version="1.0" encoding="UTF-8" standalone="no"?>
<!-- Created with CurveBenchmark -->
<svg
	xmlns:dc="http://purl.org/dc/elements/1.1/"
	xmlns:cc="http://creativecommons.org/ns#"
	xmlns:rdf="http://www.w3.org/1999/02/22-rdf-syntax-ns#"
	xmlns:svg="http://www.w3.org/2000/svg"
	xmlns="http://www.w3.org/2000/svg"
	xmlns:sodipodi="http://sodipodi.sourceforge.net/DTD/sodipodi-0.dtd"
	xmlns:inkscape="http://www.inkscape.org/namespaces/inkscape"
	width="1000"
	height="1000"
	id="svg2"
	version="1.1"
	sodipodi:docname="manifold/vicur-fish010.png.txt">
<defs
	id="defs4" />
<metadata
	id="metadata7">
	<rdf:RDF>
		<cc:Work
			rdf:about="">
			<dc:format>image/svg+xml</dc:format>
			<dc:type
				rdf:resource="http://purl.org/dc/dcmitype/StillImage" />
			<dc:title></dc:title>
		</cc:Work>
	</rdf:RDF>
</metadata>
<g
	inkscape:label="Layer 1"
	inkscape:groupmode="layer"
	id="layer1">
	<path style="fill:none;stroke:red;stroke-width:1px;stroke-linecap:butt;stroke-linejoin:miter;stroke-opacity:1" d="M 4,201.289 12.3361,229.076 z" id="boundary" inkscape:connector-curvature="0" />
	<path style="fill:none;stroke:red;stroke-width:1px;stroke-linecap:butt;stroke-linejoin:miter;stroke-opacity:1" d="M 4,201.289 29.0084,187.395 z" id="boundary" inkscape:connector-curvature="0" />
	<path style="fill:none;stroke:red;stroke-width:1px;stroke-linecap:butt;stroke-linejoin:miter;stroke-opacity:1" d="M 12.3361,229.076 34.5658,248.527 z" id="boundary" inkscape:connector-curvature="0" />
	<path style="fill:none;stroke:red;stroke-width:1px;stroke-linecap:butt;stroke-linejoin:miter;stroke-opacity:1" d="M 29.0084,187.395 54.0168,173.501 z" id="boundary" inkscape:connector-curvature="0" />
	<path style="fill:none;stroke:red;stroke-width:1px;stroke-linecap:butt;stroke-linejoin:miter;stroke-opacity:1" d="M 34.5658,248.527 54.0168,270.756 z" id="boundary" inkscape:connector-curvature="0" />
	<path style="fill:none;stroke:red;stroke-width:1px;stroke-linecap:butt;stroke-linejoin:miter;stroke-opacity:1" d="M 54.0168,173.501 81.8039,162.387 z" id="boundary" inkscape:connector-curvature="0" />
	<path style="fill:none;stroke:red;stroke-width:1px;stroke-linecap:butt;stroke-linejoin:miter;stroke-opacity:1" d="M 54.0168,270.756 76.2465,290.207 z" id="boundary" inkscape:connector-curvature="0" />
	<path style="fill:none;stroke:red;stroke-width:1px;stroke-linecap:butt;stroke-linejoin:miter;stroke-opacity:1" d="M 76.2465,290.207 98.4762,306.88 z" id="boundary" inkscape:connector-curvature="0" />
	<path style="fill:none;stroke:red;stroke-width:1px;stroke-linecap:butt;stroke-linejoin:miter;stroke-opacity:1" d="M 81.8039,162.387 109.591,151.272 z" id="boundary" inkscape:connector-curvature="0" />
	<path style="fill:none;stroke:red;stroke-width:1px;stroke-linecap:butt;stroke-linejoin:miter;stroke-opacity:1" d="M 98.4762,306.88 126.263,315.216 z" id="boundary" inkscape:connector-curvature="0" />
	<path style="fill:none;stroke:red;stroke-width:1px;stroke-linecap:butt;stroke-linejoin:miter;stroke-opacity:1" d="M 109.591,151.272 137.378,140.157 z" id="boundary" inkscape:connector-curvature="0" />
	<path style="fill:none;stroke:red;stroke-width:1px;stroke-linecap:butt;stroke-linejoin:miter;stroke-opacity:1" d="M 126.263,315.216 154.05,326.331 z" id="boundary" inkscape:connector-curvature="0" />
	<path style="fill:none;stroke:red;stroke-width:1px;stroke-linecap:butt;stroke-linejoin:miter;stroke-opacity:1" d="M 137.378,140.157 165.165,129.042 z" id="boundary" inkscape:connector-curvature="0" />
	<path style="fill:none;stroke:red;stroke-width:1px;stroke-linecap:butt;stroke-linejoin:miter;stroke-opacity:1" d="M 154.05,326.331 181.838,337.445 z" id="boundary" inkscape:connector-curvature="0" />
	<path style="fill:none;stroke:red;stroke-width:1px;stroke-linecap:butt;stroke-linejoin:miter;stroke-opacity:1" d="M 165.165,129.042 192.952,117.927 z" id="boundary" inkscape:connector-curvature="0" />
	<path style="fill:none;stroke:red;stroke-width:1px;stroke-linecap:butt;stroke-linejoin:miter;stroke-opacity:1" d="M 181.838,337.445 209.625,348.56 z" id="boundary" inkscape:connector-curvature="0" />
	<path style="fill:none;stroke:red;stroke-width:1px;stroke-linecap:butt;stroke-linejoin:miter;stroke-opacity:1" d="M 192.952,117.927 220.739,106.812 z" id="boundary" inkscape:connector-curvature="0" />
	<path style="fill:none;stroke:red;stroke-width:1px;stroke-linecap:butt;stroke-linejoin:miter;stroke-opacity:1" d="M 209.625,348.56 237.412,354.118 z" id="boundary" inkscape:connector-curvature="0" />
	<path style="fill:none;stroke:red;stroke-width:1px;stroke-linecap:butt;stroke-linejoin:miter;stroke-opacity:1" d="M 220.739,106.812 248.527,101.255 z" id="boundary" inkscape:connector-curvature="0" />
	<path style="fill:none;stroke:red;stroke-width:1px;stroke-linecap:butt;stroke-linejoin:miter;stroke-opacity:1" d="M 237.412,354.118 265.199,359.675 z" id="boundary" inkscape:connector-curvature="0" />
	<path style="fill:none;stroke:red;stroke-width:1px;stroke-linecap:butt;stroke-linejoin:miter;stroke-opacity:1" d="M 248.527,101.255 276.314,95.6975 z" id="boundary" inkscape:connector-curvature="0" />
	<path style="fill:none;stroke:red;stroke-width:1px;stroke-linecap:butt;stroke-linejoin:miter;stroke-opacity:1" d="M 265.199,359.675 290.207,373.569 z" id="boundary" inkscape:connector-curvature="0" />
	<path style="fill:none;stroke:red;stroke-width:1px;stroke-linecap:butt;stroke-linejoin:miter;stroke-opacity:1" d="M 276.314,95.6975 292.986,56.7955 z" id="boundary" inkscape:connector-curvature="0" />
	<path style="fill:none;stroke:red;stroke-width:1px;stroke-linecap:butt;stroke-linejoin:miter;stroke-opacity:1" d="M 290.207,373.569 304.101,398.577 z" id="boundary" inkscape:connector-curvature="0" />
	<path style="fill:none;stroke:red;stroke-width:1px;stroke-linecap:butt;stroke-linejoin:miter;stroke-opacity:1" d="M 292.986,56.7955 320.773,40.1232 z" id="boundary" inkscape:connector-curvature="0" />
	<path style="fill:none;stroke:red;stroke-width:1px;stroke-linecap:butt;stroke-linejoin:miter;stroke-opacity:1" d="M 304.101,398.577 320.773,420.807 z" id="boundary" inkscape:connector-curvature="0" />
	<path style="fill:none;stroke:red;stroke-width:1px;stroke-linecap:butt;stroke-linejoin:miter;stroke-opacity:1" d="M 320.773,40.1232 337.445,12.3361 z" id="boundary" inkscape:connector-curvature="0" />
	<path style="fill:none;stroke:red;stroke-width:1px;stroke-linecap:butt;stroke-linejoin:miter;stroke-opacity:1" d="M 320.773,420.807 343.003,440.258 z" id="boundary" inkscape:connector-curvature="0" />
	<path style="fill:none;stroke:red;stroke-width:1px;stroke-linecap:butt;stroke-linejoin:miter;stroke-opacity:1" d="M 337.445,12.3361 365.232,9.55742 z" id="boundary" inkscape:connector-curvature="0" />
	<path style="fill:none;stroke:red;stroke-width:1px;stroke-linecap:butt;stroke-linejoin:miter;stroke-opacity:1" d="M 343.003,440.258 368.011,454.151 z" id="boundary" inkscape:connector-curvature="0" />
	<path style="fill:none;stroke:red;stroke-width:1px;stroke-linecap:butt;stroke-linejoin:miter;stroke-opacity:1" d="M 365.232,9.55742 393.02,4 z" id="boundary" inkscape:connector-curvature="0" />
	<path style="fill:none;stroke:red;stroke-width:1px;stroke-linecap:butt;stroke-linejoin:miter;stroke-opacity:1" d="M 368.011,454.151 395.798,454.151 z" id="boundary" inkscape:connector-curvature="0" />
	<path style="fill:none;stroke:red;stroke-width:1px;stroke-linecap:butt;stroke-linejoin:miter;stroke-opacity:1" d="M 393.02,4 420.807,12.3361 z" id="boundary" inkscape:connector-curvature="0" />
	<path style="fill:none;stroke:red;stroke-width:1px;stroke-linecap:butt;stroke-linejoin:miter;stroke-opacity:1" d="M 395.798,454.151 423.585,454.151 z" id="boundary" inkscape:connector-curvature="0" />
	<path style="fill:none;stroke:red;stroke-width:1px;stroke-linecap:butt;stroke-linejoin:miter;stroke-opacity:1" d="M 420.807,12.3361 448.594,23.451 z" id="boundary" inkscape:connector-curvature="0" />
	<path style="fill:none;stroke:red;stroke-width:1px;stroke-linecap:butt;stroke-linejoin:miter;stroke-opacity:1" d="M 423.585,454.151 440.258,429.143 z" id="boundary" inkscape:connector-curvature="0" />
	<path style="fill:none;stroke:red;stroke-width:1px;stroke-linecap:butt;stroke-linejoin:miter;stroke-opacity:1" d="M 431.922,351.339 445.815,376.347 z" id="boundary" inkscape:connector-curvature="0" />
	<path style="fill:none;stroke:red;stroke-width:1px;stroke-linecap:butt;stroke-linejoin:miter;stroke-opacity:1" d="M 431.922,351.339 462.487,354.118 z" id="boundary" inkscape:connector-curvature="0" />
	<path style="fill:none;stroke:red;stroke-width:1px;stroke-linecap:butt;stroke-linejoin:miter;stroke-opacity:1" d="M 440.258,429.143 445.815,376.347 z" id="boundary" inkscape:connector-curvature="0" />
	<path style="fill:none;stroke:red;stroke-width:1px;stroke-linecap:butt;stroke-linejoin:miter;stroke-opacity:1" d="M 448.594,23.451 476.381,34.5658 z" id="boundary" inkscape:connector-curvature="0" />
	<path style="fill:none;stroke:red;stroke-width:1px;stroke-linecap:butt;stroke-linejoin:miter;stroke-opacity:1" d="M 462.487,354.118 490.275,348.56 z" id="boundary" inkscape:connector-curvature="0" />
	<path style="fill:none;stroke:red;stroke-width:1px;stroke-linecap:butt;stroke-linejoin:miter;stroke-opacity:1" d="M 476.381,34.5658 504.168,45.6807 z" id="boundary" inkscape:connector-curvature="0" />
	<path style="fill:none;stroke:red;stroke-width:1px;stroke-linecap:butt;stroke-linejoin:miter;stroke-opacity:1" d="M 490.275,348.56 518.062,348.56 z" id="boundary" inkscape:connector-curvature="0" />
	<path style="fill:none;stroke:red;stroke-width:1px;stroke-linecap:butt;stroke-linejoin:miter;stroke-opacity:1" d="M 504.168,45.6807 529.176,59.5742 z" id="boundary" inkscape:connector-curvature="0" />
	<path style="fill:none;stroke:red;stroke-width:1px;stroke-linecap:butt;stroke-linejoin:miter;stroke-opacity:1" d="M 518.062,348.56 545.849,348.56 z" id="boundary" inkscape:connector-curvature="0" />
	<path style="fill:none;stroke:red;stroke-width:1px;stroke-linecap:butt;stroke-linejoin:miter;stroke-opacity:1" d="M 529.176,59.5742 551.406,79.0252 z" id="boundary" inkscape:connector-curvature="0" />
	<path style="fill:none;stroke:red;stroke-width:1px;stroke-linecap:butt;stroke-linejoin:miter;stroke-opacity:1" d="M 545.849,348.56 573.636,348.56 z" id="boundary" inkscape:connector-curvature="0" />
	<path style="fill:none;stroke:red;stroke-width:1px;stroke-linecap:butt;stroke-linejoin:miter;stroke-opacity:1" d="M 551.406,79.0252 573.636,95.6975 z" id="boundary" inkscape:connector-curvature="0" />
	<path style="fill:none;stroke:red;stroke-width:1px;stroke-linecap:butt;stroke-linejoin:miter;stroke-opacity:1" d="M 573.636,95.6975 601.423,92.9188 z" id="boundary" inkscape:connector-curvature="0" />
	<path style="fill:none;stroke:red;stroke-width:1px;stroke-linecap:butt;stroke-linejoin:miter;stroke-opacity:1" d="M 573.636,348.56 601.423,343.003 z" id="boundary" inkscape:connector-curvature="0" />
	<path style="fill:none;stroke:red;stroke-width:1px;stroke-linecap:butt;stroke-linejoin:miter;stroke-opacity:1" d="M 601.423,92.9188 629.21,84.5826 z" id="boundary" inkscape:connector-curvature="0" />
	<path style="fill:none;stroke:red;stroke-width:1px;stroke-linecap:butt;stroke-linejoin:miter;stroke-opacity:1" d="M 601.423,343.003 629.21,343.003 z" id="boundary" inkscape:connector-curvature="0" />
	<path style="fill:none;stroke:red;stroke-width:1px;stroke-linecap:butt;stroke-linejoin:miter;stroke-opacity:1" d="M 629.21,84.5826 656.997,73.4678 z" id="boundary" inkscape:connector-curvature="0" />
	<path style="fill:none;stroke:red;stroke-width:1px;stroke-linecap:butt;stroke-linejoin:miter;stroke-opacity:1" d="M 629.21,343.003 656.997,354.118 z" id="boundary" inkscape:connector-curvature="0" />
	<path style="fill:none;stroke:red;stroke-width:1px;stroke-linecap:butt;stroke-linejoin:miter;stroke-opacity:1" d="M 656.997,73.4678 684.784,79.0252 z" id="boundary" inkscape:connector-curvature="0" />
	<path style="fill:none;stroke:red;stroke-width:1px;stroke-linecap:butt;stroke-linejoin:miter;stroke-opacity:1" d="M 656.997,354.118 684.784,359.675 z" id="boundary" inkscape:connector-curvature="0" />
	<path style="fill:none;stroke:red;stroke-width:1px;stroke-linecap:butt;stroke-linejoin:miter;stroke-opacity:1" d="M 684.784,79.0252 712.571,90.1401 z" id="boundary" inkscape:connector-curvature="0" />
	<path style="fill:none;stroke:red;stroke-width:1px;stroke-linecap:butt;stroke-linejoin:miter;stroke-opacity:1" d="M 684.784,359.675 712.571,359.675 z" id="boundary" inkscape:connector-curvature="0" />
	<path style="fill:none;stroke:red;stroke-width:1px;stroke-linecap:butt;stroke-linejoin:miter;stroke-opacity:1" d="M 712.571,90.1401 732.022,112.37 z" id="boundary" inkscape:connector-curvature="0" />
	<path style="fill:none;stroke:red;stroke-width:1px;stroke-linecap:butt;stroke-linejoin:miter;stroke-opacity:1" d="M 712.571,359.675 740.359,365.232 z" id="boundary" inkscape:connector-curvature="0" />
	<path style="fill:none;stroke:red;stroke-width:1px;stroke-linecap:butt;stroke-linejoin:miter;stroke-opacity:1" d="M 732.022,112.37 754.252,129.042 z" id="boundary" inkscape:connector-curvature="0" />
	<path style="fill:none;stroke:red;stroke-width:1px;stroke-linecap:butt;stroke-linejoin:miter;stroke-opacity:1" d="M 740.359,365.232 762.588,345.782 z" id="boundary" inkscape:connector-curvature="0" />
	<path style="fill:none;stroke:red;stroke-width:1px;stroke-linecap:butt;stroke-linejoin:miter;stroke-opacity:1" d="M 754.252,129.042 773.703,151.272 z" id="boundary" inkscape:connector-curvature="0" />
	<path style="fill:none;stroke:red;stroke-width:1px;stroke-linecap:butt;stroke-linejoin:miter;stroke-opacity:1" d="M 762.588,345.782 776.482,320.773 z" id="boundary" inkscape:connector-curvature="0" />
	<path style="fill:none;stroke:red;stroke-width:1px;stroke-linecap:butt;stroke-linejoin:miter;stroke-opacity:1" d="M 773.703,151.272 790.375,173.501 z" id="boundary" inkscape:connector-curvature="0" />
	<path style="fill:none;stroke:red;stroke-width:1px;stroke-linecap:butt;stroke-linejoin:miter;stroke-opacity:1" d="M 776.482,320.773 782.039,270.756 z" id="boundary" inkscape:connector-curvature="0" />
	<path style="fill:none;stroke:red;stroke-width:1px;stroke-linecap:butt;stroke-linejoin:miter;stroke-opacity:1" d="M 782.039,270.756 809.826,270.756 z" id="boundary" inkscape:connector-curvature="0" />
	<path style="fill:none;stroke:red;stroke-width:1px;stroke-linecap:butt;stroke-linejoin:miter;stroke-opacity:1" d="M 790.375,173.501 818.162,179.059 z" id="boundary" inkscape:connector-curvature="0" />
	<path style="fill:none;stroke:red;stroke-width:1px;stroke-linecap:butt;stroke-linejoin:miter;stroke-opacity:1" d="M 809.826,270.756 837.613,281.871 z" id="boundary" inkscape:connector-curvature="0" />
	<path style="fill:none;stroke:red;stroke-width:1px;stroke-linecap:butt;stroke-linejoin:miter;stroke-opacity:1" d="M 818.162,179.059 845.95,165.165 z" id="boundary" inkscape:connector-curvature="0" />
	<path style="fill:none;stroke:red;stroke-width:1px;stroke-linecap:butt;stroke-linejoin:miter;stroke-opacity:1" d="M 837.613,281.871 859.843,298.543 z" id="boundary" inkscape:connector-curvature="0" />
	<path style="fill:none;stroke:red;stroke-width:1px;stroke-linecap:butt;stroke-linejoin:miter;stroke-opacity:1" d="M 845.95,165.165 870.958,151.272 z" id="boundary" inkscape:connector-curvature="0" />
	<path style="fill:none;stroke:red;stroke-width:1px;stroke-linecap:butt;stroke-linejoin:miter;stroke-opacity:1" d="M 859.843,298.543 884.852,312.437 z" id="boundary" inkscape:connector-curvature="0" />
	<path style="fill:none;stroke:red;stroke-width:1px;stroke-linecap:butt;stroke-linejoin:miter;stroke-opacity:1" d="M 870.958,151.272 898.745,140.157 z" id="boundary" inkscape:connector-curvature="0" />
	<path style="fill:none;stroke:red;stroke-width:1px;stroke-linecap:butt;stroke-linejoin:miter;stroke-opacity:1" d="M 884.852,312.437 912.639,320.773 z" id="boundary" inkscape:connector-curvature="0" />
	<path style="fill:none;stroke:red;stroke-width:1px;stroke-linecap:butt;stroke-linejoin:miter;stroke-opacity:1" d="M 898.745,140.157 926.532,129.042 z" id="boundary" inkscape:connector-curvature="0" />
	<path style="fill:none;stroke:red;stroke-width:1px;stroke-linecap:butt;stroke-linejoin:miter;stroke-opacity:1" d="M 912.639,320.773 940.426,331.888 z" id="boundary" inkscape:connector-curvature="0" />
	<path style="fill:none;stroke:red;stroke-width:1px;stroke-linecap:butt;stroke-linejoin:miter;stroke-opacity:1" d="M 926.532,129.042 954.319,123.485 z" id="boundary" inkscape:connector-curvature="0" />
	<path style="fill:none;stroke:red;stroke-width:1px;stroke-linecap:butt;stroke-linejoin:miter;stroke-opacity:1" d="M 940.426,331.888 968.213,337.445 z" id="boundary" inkscape:connector-curvature="0" />
	<path style="fill:none;stroke:red;stroke-width:1px;stroke-linecap:butt;stroke-linejoin:miter;stroke-opacity:1" d="M 954.319,123.485 982.106,117.927 z" id="boundary" inkscape:connector-curvature="0" />
	<path style="fill:none;stroke:red;stroke-width:1px;stroke-linecap:butt;stroke-linejoin:miter;stroke-opacity:1" d="M 968.213,337.445 996,329.109 z" id="boundary" inkscape:connector-curvature="0" />
	<path style="fill:none;stroke:red;stroke-width:1px;stroke-linecap:butt;stroke-linejoin:miter;stroke-opacity:1" d="M 979.328,190.174 979.328,217.961 z" id="boundary" inkscape:connector-curvature="0" />
	<path style="fill:none;stroke:red;stroke-width:1px;stroke-linecap:butt;stroke-linejoin:miter;stroke-opacity:1" d="M 979.328,190.174 990.443,156.829 z" id="boundary" inkscape:connector-curvature="0" />
	<path style="fill:none;stroke:red;stroke-width:1px;stroke-linecap:butt;stroke-linejoin:miter;stroke-opacity:1" d="M 979.328,217.961 979.328,245.748 z" id="boundary" inkscape:connector-curvature="0" />
	<path style="fill:none;stroke:red;stroke-width:1px;stroke-linecap:butt;stroke-linejoin:miter;stroke-opacity:1" d="M 979.328,245.748 984.885,273.535 z" id="boundary" inkscape:connector-curvature="0" />
	<path style="fill:none;stroke:red;stroke-width:1px;stroke-linecap:butt;stroke-linejoin:miter;stroke-opacity:1" d="M 982.106,117.927 990.443,156.829 z" id="boundary" inkscape:connector-curvature="0" />
	<path style="fill:none;stroke:red;stroke-width:1px;stroke-linecap:butt;stroke-linejoin:miter;stroke-opacity:1" d="M 984.885,273.535 990.443,301.322 z" id="boundary" inkscape:connector-curvature="0" />
	<path style="fill:none;stroke:red;stroke-width:1px;stroke-linecap:butt;stroke-linejoin:miter;stroke-opacity:1" d="M 990.443,301.322 996,329.109 z" id="boundary" inkscape:connector-curvature="0" />
	<circle cx="4" cy="201.289" r="4" fill="#0" id="circle0"/>
	<circle cx="12.3361" cy="229.076" r="4" fill="#0" id="circle1"/>
	<circle cx="29.0084" cy="187.395" r="4" fill="#0" id="circle2"/>
	<circle cx="34.5658" cy="248.527" r="4" fill="#0" id="circle3"/>
	<circle cx="54.0168" cy="173.501" r="4" fill="#0" id="circle4"/>
	<circle cx="54.0168" cy="270.756" r="4" fill="#0" id="circle5"/>
	<circle cx="76.2465" cy="290.207" r="4" fill="#0" id="circle6"/>
	<circle cx="81.8039" cy="162.387" r="4" fill="#0" id="circle7"/>
	<circle cx="98.4762" cy="306.88" r="4" fill="#0" id="circle8"/>
	<circle cx="109.591" cy="151.272" r="4" fill="#0" id="circle9"/>
	<circle cx="126.263" cy="315.216" r="4" fill="#0" id="circle10"/>
	<circle cx="137.378" cy="140.157" r="4" fill="#0" id="circle11"/>
	<circle cx="154.05" cy="326.331" r="4" fill="#0" id="circle12"/>
	<circle cx="165.165" cy="129.042" r="4" fill="#0" id="circle13"/>
	<circle cx="181.838" cy="337.445" r="4" fill="#0" id="circle14"/>
	<circle cx="192.952" cy="117.927" r="4" fill="#0" id="circle15"/>
	<circle cx="209.625" cy="348.56" r="4" fill="#0" id="circle16"/>
	<circle cx="220.739" cy="106.812" r="4" fill="#0" id="circle17"/>
	<circle cx="237.412" cy="354.118" r="4" fill="#0" id="circle18"/>
	<circle cx="248.527" cy="101.255" r="4" fill="#0" id="circle19"/>
	<circle cx="265.199" cy="359.675" r="4" fill="#0" id="circle20"/>
	<circle cx="276.314" cy="95.6975" r="4" fill="#0" id="circle21"/>
	<circle cx="290.207" cy="373.569" r="4" fill="#0" id="circle22"/>
	<circle cx="292.986" cy="56.7955" r="4" fill="#0" id="circle23"/>
	<circle cx="304.101" cy="398.577" r="4" fill="#0" id="circle24"/>
	<circle cx="320.773" cy="40.1232" r="4" fill="#0" id="circle25"/>
	<circle cx="320.773" cy="420.807" r="4" fill="#0" id="circle26"/>
	<circle cx="337.445" cy="12.3361" r="4" fill="#0" id="circle27"/>
	<circle cx="343.003" cy="440.258" r="4" fill="#0" id="circle28"/>
	<circle cx="365.232" cy="9.55742" r="4" fill="#0" id="circle29"/>
	<circle cx="368.011" cy="454.151" r="4" fill="#0" id="circle30"/>
	<circle cx="393.02" cy="4" r="4" fill="#0" id="circle31"/>
	<circle cx="395.798" cy="454.151" r="4" fill="#0" id="circle32"/>
	<circle cx="420.807" cy="12.3361" r="4" fill="#0" id="circle33"/>
	<circle cx="423.585" cy="454.151" r="4" fill="#0" id="circle34"/>
	<circle cx="431.922" cy="351.339" r="4" fill="#0" id="circle35"/>
	<circle cx="440.258" cy="429.143" r="4" fill="#0" id="circle36"/>
	<circle cx="445.815" cy="376.347" r="4" fill="#0" id="circle37"/>
	<circle cx="448.594" cy="23.451" r="4" fill="#0" id="circle38"/>
	<circle cx="462.487" cy="354.118" r="4" fill="#0" id="circle39"/>
	<circle cx="476.381" cy="34.5658" r="4" fill="#0" id="circle40"/>
	<circle cx="490.275" cy="348.56" r="4" fill="#0" id="circle41"/>
	<circle cx="504.168" cy="45.6807" r="4" fill="#0" id="circle42"/>
	<circle cx="518.062" cy="348.56" r="4" fill="#0" id="circle43"/>
	<circle cx="529.176" cy="59.5742" r="4" fill="#0" id="circle44"/>
	<circle cx="545.849" cy="348.56" r="4" fill="#0" id="circle45"/>
	<circle cx="551.406" cy="79.0252" r="4" fill="#0" id="circle46"/>
	<circle cx="573.636" cy="95.6975" r="4" fill="#0" id="circle47"/>
	<circle cx="573.636" cy="348.56" r="4" fill="#0" id="circle48"/>
	<circle cx="601.423" cy="92.9188" r="4" fill="#0" id="circle49"/>
	<circle cx="601.423" cy="343.003" r="4" fill="#0" id="circle50"/>
	<circle cx="629.21" cy="84.5826" r="4" fill="#0" id="circle51"/>
	<circle cx="629.21" cy="343.003" r="4" fill="#0" id="circle52"/>
	<circle cx="656.997" cy="73.4678" r="4" fill="#0" id="circle53"/>
	<circle cx="656.997" cy="354.118" r="4" fill="#0" id="circle54"/>
	<circle cx="684.784" cy="79.0252" r="4" fill="#0" id="circle55"/>
	<circle cx="684.784" cy="359.675" r="4" fill="#0" id="circle56"/>
	<circle cx="712.571" cy="90.1401" r="4" fill="#0" id="circle57"/>
	<circle cx="712.571" cy="359.675" r="4" fill="#0" id="circle58"/>
	<circle cx="732.022" cy="112.37" r="4" fill="#0" id="circle59"/>
	<circle cx="740.359" cy="365.232" r="4" fill="#0" id="circle60"/>
	<circle cx="754.252" cy="129.042" r="4" fill="#0" id="circle61"/>
	<circle cx="762.588" cy="345.782" r="4" fill="#0" id="circle62"/>
	<circle cx="773.703" cy="151.272" r="4" fill="#0" id="circle63"/>
	<circle cx="776.482" cy="320.773" r="4" fill="#0" id="circle64"/>
	<circle cx="782.039" cy="270.756" r="4" fill="#0" id="circle65"/>
	<circle cx="790.375" cy="173.501" r="4" fill="#0" id="circle66"/>
	<circle cx="809.826" cy="270.756" r="4" fill="#0" id="circle67"/>
	<circle cx="818.162" cy="179.059" r="4" fill="#0" id="circle68"/>
	<circle cx="837.613" cy="281.871" r="4" fill="#0" id="circle69"/>
	<circle cx="845.95" cy="165.165" r="4" fill="#0" id="circle70"/>
	<circle cx="859.843" cy="298.543" r="4" fill="#0" id="circle71"/>
	<circle cx="870.958" cy="151.272" r="4" fill="#0" id="circle72"/>
	<circle cx="884.852" cy="312.437" r="4" fill="#0" id="circle73"/>
	<circle cx="898.745" cy="140.157" r="4" fill="#0" id="circle74"/>
	<circle cx="912.639" cy="320.773" r="4" fill="#0" id="circle75"/>
	<circle cx="926.532" cy="129.042" r="4" fill="#0" id="circle76"/>
	<circle cx="940.426" cy="331.888" r="4" fill="#0" id="circle77"/>
	<circle cx="954.319" cy="123.485" r="4" fill="#0" id="circle78"/>
	<circle cx="968.213" cy="337.445" r="4" fill="#0" id="circle79"/>
	<circle cx="979.328" cy="190.174" r="4" fill="#0" id="circle80"/>
	<circle cx="979.328" cy="217.961" r="4" fill="#0" id="circle81"/>
	<circle cx="979.328" cy="245.748" r="4" fill="#0" id="circle82"/>
	<circle cx="982.106" cy="117.927" r="4" fill="#0" id="circle83"/>
	<circle cx="984.885" cy="273.535" r="4" fill="#0" id="circle84"/>
	<circle cx="990.443" cy="156.829" r="4" fill="#0" id="circle85"/>
	<circle cx="990.443" cy="301.322" r="4" fill="#0" id="circle86"/>
	<circle cx="996" cy="329.109" r="4" fill="#0" id="circle87"/>
	</g>
</svg>