<?xml version="1.0" encoding="UTF-8" standalone="no"?>
<!-- Created with CurveBenchmark -->
<svg
	xmlns:dc="http://purl.org/dc/elements/1.1/"
	xmlns:cc="http://creativecommons.org/ns#"
	xmlns:rdf="http://www.w3.org/1999/02/22-rdf-syntax-ns#"
	xmlns:svg="http://www.w3.org/2000/svg"
	xmlns="http://www.w3.org/2000/svg"
	xmlns:sodipodi="http://sodipodi.sourceforge.net/DTD/sodipodi-0.dtd"
	xmlns:inkscape="http://www.inkscape.org/namespaces/inkscape"
	width="1000"
	height="1000"
	id="svg2"
	version="1.1"
	sodipodi:docname="manifold/vicur-teddy030.png.txt">
<defs
	id="defs4" />
<metadata
	id="metadata7">
	<rdf:RDF>
		<cc:Work
			rdf:about="">
			<dc:format>image/svg+xml</dc:format>
			<dc:type
				rdf:resource="http://purl.org/dc/dcmitype/StillImage" />
			<dc:title></dc:title>
		</cc:Work>
	</rdf:RDF>
</metadata>
<g
	inkscape:label="Layer 1"
	inkscape:groupmode="layer"
	id="layer1">
	<path style="fill:none;stroke:red;stroke-width:1px;stroke-linecap:butt;stroke-linejoin:miter;stroke-opacity:1" d="M 4,501.413 4,529.675 z" id="boundary" inkscape:connector-curvature="0" />
	<path style="fill:none;stroke:red;stroke-width:1px;stroke-linecap:butt;stroke-linejoin:miter;stroke-opacity:1" d="M 4,501.413 18.1311,475.977 z" id="boundary" inkscape:connector-curvature="0" />
	<path style="fill:none;stroke:red;stroke-width:1px;stroke-linecap:butt;stroke-linejoin:miter;stroke-opacity:1" d="M 4,529.675 15.3048,557.937 z" id="boundary" inkscape:connector-curvature="0" />
	<path style="fill:none;stroke:red;stroke-width:1px;stroke-linecap:butt;stroke-linejoin:miter;stroke-opacity:1" d="M 15.3048,557.937 29.4359,583.373 z" id="boundary" inkscape:connector-curvature="0" />
	<path style="fill:none;stroke:red;stroke-width:1px;stroke-linecap:butt;stroke-linejoin:miter;stroke-opacity:1" d="M 15.3048,834.906 15.3048,863.168 z" id="boundary" inkscape:connector-curvature="0" />
	<path style="fill:none;stroke:red;stroke-width:1px;stroke-linecap:butt;stroke-linejoin:miter;stroke-opacity:1" d="M 15.3048,834.906 26.6097,789.687 z" id="boundary" inkscape:connector-curvature="0" />
	<path style="fill:none;stroke:red;stroke-width:1px;stroke-linecap:butt;stroke-linejoin:miter;stroke-opacity:1" d="M 15.3048,863.168 15.3048,891.43 z" id="boundary" inkscape:connector-curvature="0" />
	<path style="fill:none;stroke:red;stroke-width:1px;stroke-linecap:butt;stroke-linejoin:miter;stroke-opacity:1" d="M 15.3048,891.43 15.3048,919.692 z" id="boundary" inkscape:connector-curvature="0" />
	<path style="fill:none;stroke:red;stroke-width:1px;stroke-linecap:butt;stroke-linejoin:miter;stroke-opacity:1" d="M 15.3048,919.692 23.7835,947.954 z" id="boundary" inkscape:connector-curvature="0" />
	<path style="fill:none;stroke:red;stroke-width:1px;stroke-linecap:butt;stroke-linejoin:miter;stroke-opacity:1" d="M 18.1311,475.977 40.7407,453.368 z" id="boundary" inkscape:connector-curvature="0" />
	<path style="fill:none;stroke:red;stroke-width:1px;stroke-linecap:butt;stroke-linejoin:miter;stroke-opacity:1" d="M 23.7835,947.954 46.3932,967.738 z" id="boundary" inkscape:connector-curvature="0" />
	<path style="fill:none;stroke:red;stroke-width:1px;stroke-linecap:butt;stroke-linejoin:miter;stroke-opacity:1" d="M 26.6097,789.687 37.9145,761.425 z" id="boundary" inkscape:connector-curvature="0" />
	<path style="fill:none;stroke:red;stroke-width:1px;stroke-linecap:butt;stroke-linejoin:miter;stroke-opacity:1" d="M 29.4359,583.373 49.2194,605.983 z" id="boundary" inkscape:connector-curvature="0" />
	<path style="fill:none;stroke:red;stroke-width:1px;stroke-linecap:butt;stroke-linejoin:miter;stroke-opacity:1" d="M 37.9145,761.425 60.5242,744.467 z" id="boundary" inkscape:connector-curvature="0" />
	<path style="fill:none;stroke:red;stroke-width:1px;stroke-linecap:butt;stroke-linejoin:miter;stroke-opacity:1" d="M 40.7407,453.368 69.0028,444.889 z" id="boundary" inkscape:connector-curvature="0" />
	<path style="fill:none;stroke:red;stroke-width:1px;stroke-linecap:butt;stroke-linejoin:miter;stroke-opacity:1" d="M 46.3932,967.738 69.0028,984.695 z" id="boundary" inkscape:connector-curvature="0" />
	<path style="fill:none;stroke:red;stroke-width:1px;stroke-linecap:butt;stroke-linejoin:miter;stroke-opacity:1" d="M 49.2194,605.983 71.8291,622.94 z" id="boundary" inkscape:connector-curvature="0" />
	<path style="fill:none;stroke:red;stroke-width:1px;stroke-linecap:butt;stroke-linejoin:miter;stroke-opacity:1" d="M 60.5242,744.467 85.9601,730.336 z" id="boundary" inkscape:connector-curvature="0" />
	<path style="fill:none;stroke:red;stroke-width:1px;stroke-linecap:butt;stroke-linejoin:miter;stroke-opacity:1" d="M 69.0028,444.889 97.265,436.41 z" id="boundary" inkscape:connector-curvature="0" />
	<path style="fill:none;stroke:red;stroke-width:1px;stroke-linecap:butt;stroke-linejoin:miter;stroke-opacity:1" d="M 69.0028,984.695 97.265,996 z" id="boundary" inkscape:connector-curvature="0" />
	<path style="fill:none;stroke:red;stroke-width:1px;stroke-linecap:butt;stroke-linejoin:miter;stroke-opacity:1" d="M 71.8291,622.94 97.265,637.071 z" id="boundary" inkscape:connector-curvature="0" />
	<path style="fill:none;stroke:red;stroke-width:1px;stroke-linecap:butt;stroke-linejoin:miter;stroke-opacity:1" d="M 85.9601,730.336 114.222,727.51 z" id="boundary" inkscape:connector-curvature="0" />
	<path style="fill:none;stroke:red;stroke-width:1px;stroke-linecap:butt;stroke-linejoin:miter;stroke-opacity:1" d="M 97.265,436.41 125.527,433.584 z" id="boundary" inkscape:connector-curvature="0" />
	<path style="fill:none;stroke:red;stroke-width:1px;stroke-linecap:butt;stroke-linejoin:miter;stroke-opacity:1" d="M 97.265,637.071 125.527,645.55 z" id="boundary" inkscape:connector-curvature="0" />
	<path style="fill:none;stroke:red;stroke-width:1px;stroke-linecap:butt;stroke-linejoin:miter;stroke-opacity:1" d="M 97.265,996 125.527,996 z" id="boundary" inkscape:connector-curvature="0" />
	<path style="fill:none;stroke:red;stroke-width:1px;stroke-linecap:butt;stroke-linejoin:miter;stroke-opacity:1" d="M 114.222,727.51 142.484,727.51 z" id="boundary" inkscape:connector-curvature="0" />
	<path style="fill:none;stroke:red;stroke-width:1px;stroke-linecap:butt;stroke-linejoin:miter;stroke-opacity:1" d="M 125.527,433.584 150.963,416.627 z" id="boundary" inkscape:connector-curvature="0" />
	<path style="fill:none;stroke:red;stroke-width:1px;stroke-linecap:butt;stroke-linejoin:miter;stroke-opacity:1" d="M 125.527,645.55 153.789,656.855 z" id="boundary" inkscape:connector-curvature="0" />
	<path style="fill:none;stroke:red;stroke-width:1px;stroke-linecap:butt;stroke-linejoin:miter;stroke-opacity:1" d="M 125.527,996 153.789,996 z" id="boundary" inkscape:connector-curvature="0" />
	<path style="fill:none;stroke:red;stroke-width:1px;stroke-linecap:butt;stroke-linejoin:miter;stroke-opacity:1" d="M 142.484,727.51 170.746,727.51 z" id="boundary" inkscape:connector-curvature="0" />
	<path style="fill:none;stroke:red;stroke-width:1px;stroke-linecap:butt;stroke-linejoin:miter;stroke-opacity:1" d="M 150.963,416.627 173.573,399.67 z" id="boundary" inkscape:connector-curvature="0" />
	<path style="fill:none;stroke:red;stroke-width:1px;stroke-linecap:butt;stroke-linejoin:miter;stroke-opacity:1" d="M 153.789,656.855 182.051,659.681 z" id="boundary" inkscape:connector-curvature="0" />
	<path style="fill:none;stroke:red;stroke-width:1px;stroke-linecap:butt;stroke-linejoin:miter;stroke-opacity:1" d="M 153.789,996 182.051,996 z" id="boundary" inkscape:connector-curvature="0" />
	<path style="fill:none;stroke:red;stroke-width:1px;stroke-linecap:butt;stroke-linejoin:miter;stroke-opacity:1" d="M 170.746,727.51 199.009,721.858 z" id="boundary" inkscape:connector-curvature="0" />
	<path style="fill:none;stroke:red;stroke-width:1px;stroke-linecap:butt;stroke-linejoin:miter;stroke-opacity:1" d="M 173.573,399.67 201.835,388.365 z" id="boundary" inkscape:connector-curvature="0" />
	<path style="fill:none;stroke:red;stroke-width:1px;stroke-linecap:butt;stroke-linejoin:miter;stroke-opacity:1" d="M 182.051,659.681 210.313,662.507 z" id="boundary" inkscape:connector-curvature="0" />
	<path style="fill:none;stroke:red;stroke-width:1px;stroke-linecap:butt;stroke-linejoin:miter;stroke-opacity:1" d="M 182.051,996 210.313,996 z" id="boundary" inkscape:connector-curvature="0" />
	<path style="fill:none;stroke:red;stroke-width:1px;stroke-linecap:butt;stroke-linejoin:miter;stroke-opacity:1" d="M 199.009,721.858 227.271,716.205 z" id="boundary" inkscape:connector-curvature="0" />
	<path style="fill:none;stroke:red;stroke-width:1px;stroke-linecap:butt;stroke-linejoin:miter;stroke-opacity:1" d="M 201.835,388.365 230.097,382.712 z" id="boundary" inkscape:connector-curvature="0" />
	<path style="fill:none;stroke:red;stroke-width:1px;stroke-linecap:butt;stroke-linejoin:miter;stroke-opacity:1" d="M 210.313,662.507 238.575,668.16 z" id="boundary" inkscape:connector-curvature="0" />
	<path style="fill:none;stroke:red;stroke-width:1px;stroke-linecap:butt;stroke-linejoin:miter;stroke-opacity:1" d="M 210.313,996 235.749,979.043 z" id="boundary" inkscape:connector-curvature="0" />
	<path style="fill:none;stroke:red;stroke-width:1px;stroke-linecap:butt;stroke-linejoin:miter;stroke-opacity:1" d="M 213.14,54.8718 213.14,83.1339 z" id="boundary" inkscape:connector-curvature="0" />
	<path style="fill:none;stroke:red;stroke-width:1px;stroke-linecap:butt;stroke-linejoin:miter;stroke-opacity:1" d="M 213.14,54.8718 235.749,32.2621 z" id="boundary" inkscape:connector-curvature="0" />
	<path style="fill:none;stroke:red;stroke-width:1px;stroke-linecap:butt;stroke-linejoin:miter;stroke-opacity:1" d="M 213.14,83.1339 218.792,111.396 z" id="boundary" inkscape:connector-curvature="0" />
	<path style="fill:none;stroke:red;stroke-width:1px;stroke-linecap:butt;stroke-linejoin:miter;stroke-opacity:1" d="M 218.792,111.396 230.097,139.658 z" id="boundary" inkscape:connector-curvature="0" />
	<path style="fill:none;stroke:red;stroke-width:1px;stroke-linecap:butt;stroke-linejoin:miter;stroke-opacity:1" d="M 227.271,716.205 252.707,693.595 z" id="boundary" inkscape:connector-curvature="0" />
	<path style="fill:none;stroke:red;stroke-width:1px;stroke-linecap:butt;stroke-linejoin:miter;stroke-opacity:1" d="M 230.097,139.658 238.575,167.92 z" id="boundary" inkscape:connector-curvature="0" />
	<path style="fill:none;stroke:red;stroke-width:1px;stroke-linecap:butt;stroke-linejoin:miter;stroke-opacity:1" d="M 230.097,382.712 258.359,382.712 z" id="boundary" inkscape:connector-curvature="0" />
	<path style="fill:none;stroke:red;stroke-width:1px;stroke-linecap:butt;stroke-linejoin:miter;stroke-opacity:1" d="M 235.749,32.2621 258.359,15.3048 z" id="boundary" inkscape:connector-curvature="0" />
	<path style="fill:none;stroke:red;stroke-width:1px;stroke-linecap:butt;stroke-linejoin:miter;stroke-opacity:1" d="M 235.749,979.043 264.011,973.39 z" id="boundary" inkscape:connector-curvature="0" />
	<path style="fill:none;stroke:red;stroke-width:1px;stroke-linecap:butt;stroke-linejoin:miter;stroke-opacity:1" d="M 238.575,167.92 241.402,218.792 z" id="boundary" inkscape:connector-curvature="0" />
	<path style="fill:none;stroke:red;stroke-width:1px;stroke-linecap:butt;stroke-linejoin:miter;stroke-opacity:1" d="M 238.575,668.16 252.707,693.595 z" id="boundary" inkscape:connector-curvature="0" />
	<path style="fill:none;stroke:red;stroke-width:1px;stroke-linecap:butt;stroke-linejoin:miter;stroke-opacity:1" d="M 241.402,218.792 241.402,247.054 z" id="boundary" inkscape:connector-curvature="0" />
	<path style="fill:none;stroke:red;stroke-width:1px;stroke-linecap:butt;stroke-linejoin:miter;stroke-opacity:1" d="M 241.402,247.054 241.402,275.316 z" id="boundary" inkscape:connector-curvature="0" />
	<path style="fill:none;stroke:red;stroke-width:1px;stroke-linecap:butt;stroke-linejoin:miter;stroke-opacity:1" d="M 241.402,275.316 247.054,303.578 z" id="boundary" inkscape:connector-curvature="0" />
	<path style="fill:none;stroke:red;stroke-width:1px;stroke-linecap:butt;stroke-linejoin:miter;stroke-opacity:1" d="M 247.054,303.578 252.707,331.84 z" id="boundary" inkscape:connector-curvature="0" />
	<path style="fill:none;stroke:red;stroke-width:1px;stroke-linecap:butt;stroke-linejoin:miter;stroke-opacity:1" d="M 252.707,331.84 258.359,382.712 z" id="boundary" inkscape:connector-curvature="0" />
	<path style="fill:none;stroke:red;stroke-width:1px;stroke-linecap:butt;stroke-linejoin:miter;stroke-opacity:1" d="M 258.359,15.3048 286.621,9.65242 z" id="boundary" inkscape:connector-curvature="0" />
	<path style="fill:none;stroke:red;stroke-width:1px;stroke-linecap:butt;stroke-linejoin:miter;stroke-opacity:1" d="M 264.011,973.39 292.274,973.39 z" id="boundary" inkscape:connector-curvature="0" />
	<path style="fill:none;stroke:red;stroke-width:1px;stroke-linecap:butt;stroke-linejoin:miter;stroke-opacity:1" d="M 286.621,9.65242 314.883,4 z" id="boundary" inkscape:connector-curvature="0" />
	<path style="fill:none;stroke:red;stroke-width:1px;stroke-linecap:butt;stroke-linejoin:miter;stroke-opacity:1" d="M 292.274,973.39 320.536,979.043 z" id="boundary" inkscape:connector-curvature="0" />
	<path style="fill:none;stroke:red;stroke-width:1px;stroke-linecap:butt;stroke-linejoin:miter;stroke-opacity:1" d="M 314.883,4 343.145,9.65242 z" id="boundary" inkscape:connector-curvature="0" />
	<path style="fill:none;stroke:red;stroke-width:1px;stroke-linecap:butt;stroke-linejoin:miter;stroke-opacity:1" d="M 320.536,979.043 348.798,984.695 z" id="boundary" inkscape:connector-curvature="0" />
	<path style="fill:none;stroke:red;stroke-width:1px;stroke-linecap:butt;stroke-linejoin:miter;stroke-opacity:1" d="M 343.145,9.65242 371.407,18.1311 z" id="boundary" inkscape:connector-curvature="0" />
	<path style="fill:none;stroke:red;stroke-width:1px;stroke-linecap:butt;stroke-linejoin:miter;stroke-opacity:1" d="M 348.798,984.695 377.06,990.348 z" id="boundary" inkscape:connector-curvature="0" />
	<path style="fill:none;stroke:red;stroke-width:1px;stroke-linecap:butt;stroke-linejoin:miter;stroke-opacity:1" d="M 371.407,18.1311 396.843,32.2621 z" id="boundary" inkscape:connector-curvature="0" />
	<path style="fill:none;stroke:red;stroke-width:1px;stroke-linecap:butt;stroke-linejoin:miter;stroke-opacity:1" d="M 377.06,990.348 405.322,990.348 z" id="boundary" inkscape:connector-curvature="0" />
	<path style="fill:none;stroke:red;stroke-width:1px;stroke-linecap:butt;stroke-linejoin:miter;stroke-opacity:1" d="M 396.843,32.2621 425.105,43.567 z" id="boundary" inkscape:connector-curvature="0" />
	<path style="fill:none;stroke:red;stroke-width:1px;stroke-linecap:butt;stroke-linejoin:miter;stroke-opacity:1" d="M 405.322,990.348 433.584,996 z" id="boundary" inkscape:connector-curvature="0" />
	<path style="fill:none;stroke:red;stroke-width:1px;stroke-linecap:butt;stroke-linejoin:miter;stroke-opacity:1" d="M 425.105,43.567 453.368,43.567 z" id="boundary" inkscape:connector-curvature="0" />
	<path style="fill:none;stroke:red;stroke-width:1px;stroke-linecap:butt;stroke-linejoin:miter;stroke-opacity:1" d="M 433.584,996 461.846,996 z" id="boundary" inkscape:connector-curvature="0" />
	<path style="fill:none;stroke:red;stroke-width:1px;stroke-linecap:butt;stroke-linejoin:miter;stroke-opacity:1" d="M 453.368,43.567 481.63,37.9145 z" id="boundary" inkscape:connector-curvature="0" />
	<path style="fill:none;stroke:red;stroke-width:1px;stroke-linecap:butt;stroke-linejoin:miter;stroke-opacity:1" d="M 461.846,996 490.108,996 z" id="boundary" inkscape:connector-curvature="0" />
	<path style="fill:none;stroke:red;stroke-width:1px;stroke-linecap:butt;stroke-linejoin:miter;stroke-opacity:1" d="M 481.63,37.9145 509.892,43.567 z" id="boundary" inkscape:connector-curvature="0" />
	<path style="fill:none;stroke:red;stroke-width:1px;stroke-linecap:butt;stroke-linejoin:miter;stroke-opacity:1" d="M 490.108,996 518.37,996 z" id="boundary" inkscape:connector-curvature="0" />
	<path style="fill:none;stroke:red;stroke-width:1px;stroke-linecap:butt;stroke-linejoin:miter;stroke-opacity:1" d="M 509.892,43.567 538.154,43.567 z" id="boundary" inkscape:connector-curvature="0" />
	<path style="fill:none;stroke:red;stroke-width:1px;stroke-linecap:butt;stroke-linejoin:miter;stroke-opacity:1" d="M 518.37,996 546.632,996 z" id="boundary" inkscape:connector-curvature="0" />
	<path style="fill:none;stroke:red;stroke-width:1px;stroke-linecap:butt;stroke-linejoin:miter;stroke-opacity:1" d="M 538.154,43.567 566.416,37.9145 z" id="boundary" inkscape:connector-curvature="0" />
	<path style="fill:none;stroke:red;stroke-width:1px;stroke-linecap:butt;stroke-linejoin:miter;stroke-opacity:1" d="M 546.632,996 574.895,990.348 z" id="boundary" inkscape:connector-curvature="0" />
	<path style="fill:none;stroke:red;stroke-width:1px;stroke-linecap:butt;stroke-linejoin:miter;stroke-opacity:1" d="M 566.416,37.9145 591.852,20.9573 z" id="boundary" inkscape:connector-curvature="0" />
	<path style="fill:none;stroke:red;stroke-width:1px;stroke-linecap:butt;stroke-linejoin:miter;stroke-opacity:1" d="M 574.895,990.348 603.157,990.348 z" id="boundary" inkscape:connector-curvature="0" />
	<path style="fill:none;stroke:red;stroke-width:1px;stroke-linecap:butt;stroke-linejoin:miter;stroke-opacity:1" d="M 591.852,20.9573 620.114,9.65242 z" id="boundary" inkscape:connector-curvature="0" />
	<path style="fill:none;stroke:red;stroke-width:1px;stroke-linecap:butt;stroke-linejoin:miter;stroke-opacity:1" d="M 603.157,990.348 631.419,979.043 z" id="boundary" inkscape:connector-curvature="0" />
	<path style="fill:none;stroke:red;stroke-width:1px;stroke-linecap:butt;stroke-linejoin:miter;stroke-opacity:1" d="M 620.114,9.65242 648.376,4 z" id="boundary" inkscape:connector-curvature="0" />
	<path style="fill:none;stroke:red;stroke-width:1px;stroke-linecap:butt;stroke-linejoin:miter;stroke-opacity:1" d="M 631.419,979.043 656.855,993.174 z" id="boundary" inkscape:connector-curvature="0" />
	<path style="fill:none;stroke:red;stroke-width:1px;stroke-linecap:butt;stroke-linejoin:miter;stroke-opacity:1" d="M 648.376,4 676.638,4 z" id="boundary" inkscape:connector-curvature="0" />
	<path style="fill:none;stroke:red;stroke-width:1px;stroke-linecap:butt;stroke-linejoin:miter;stroke-opacity:1" d="M 656.855,993.174 685.117,996 z" id="boundary" inkscape:connector-curvature="0" />
	<path style="fill:none;stroke:red;stroke-width:1px;stroke-linecap:butt;stroke-linejoin:miter;stroke-opacity:1" d="M 676.638,4 704.9,15.3048 z" id="boundary" inkscape:connector-curvature="0" />
	<path style="fill:none;stroke:red;stroke-width:1px;stroke-linecap:butt;stroke-linejoin:miter;stroke-opacity:1" d="M 685.117,665.333 690.769,693.595 z" id="boundary" inkscape:connector-curvature="0" />
	<path style="fill:none;stroke:red;stroke-width:1px;stroke-linecap:butt;stroke-linejoin:miter;stroke-opacity:1" d="M 685.117,665.333 713.379,668.16 z" id="boundary" inkscape:connector-curvature="0" />
	<path style="fill:none;stroke:red;stroke-width:1px;stroke-linecap:butt;stroke-linejoin:miter;stroke-opacity:1" d="M 685.117,996 713.379,996 z" id="boundary" inkscape:connector-curvature="0" />
	<path style="fill:none;stroke:red;stroke-width:1px;stroke-linecap:butt;stroke-linejoin:miter;stroke-opacity:1" d="M 690.769,371.407 704.9,345.972 z" id="boundary" inkscape:connector-curvature="0" />
	<path style="fill:none;stroke:red;stroke-width:1px;stroke-linecap:butt;stroke-linejoin:miter;stroke-opacity:1" d="M 690.769,371.407 719.031,382.712 z" id="boundary" inkscape:connector-curvature="0" />
	<path style="fill:none;stroke:red;stroke-width:1px;stroke-linecap:butt;stroke-linejoin:miter;stroke-opacity:1" d="M 690.769,693.595 707.726,716.205 z" id="boundary" inkscape:connector-curvature="0" />
	<path style="fill:none;stroke:red;stroke-width:1px;stroke-linecap:butt;stroke-linejoin:miter;stroke-opacity:1" d="M 704.9,15.3048 733.162,26.6097 z" id="boundary" inkscape:connector-curvature="0" />
	<path style="fill:none;stroke:red;stroke-width:1px;stroke-linecap:butt;stroke-linejoin:miter;stroke-opacity:1" d="M 704.9,345.972 719.031,314.883 z" id="boundary" inkscape:connector-curvature="0" />
	<path style="fill:none;stroke:red;stroke-width:1px;stroke-linecap:butt;stroke-linejoin:miter;stroke-opacity:1" d="M 707.726,716.205 735.989,727.51 z" id="boundary" inkscape:connector-curvature="0" />
	<path style="fill:none;stroke:red;stroke-width:1px;stroke-linecap:butt;stroke-linejoin:miter;stroke-opacity:1" d="M 713.379,668.16 741.641,665.333 z" id="boundary" inkscape:connector-curvature="0" />
	<path style="fill:none;stroke:red;stroke-width:1px;stroke-linecap:butt;stroke-linejoin:miter;stroke-opacity:1" d="M 713.379,996 741.641,996 z" id="boundary" inkscape:connector-curvature="0" />
	<path style="fill:none;stroke:red;stroke-width:1px;stroke-linecap:butt;stroke-linejoin:miter;stroke-opacity:1" d="M 719.031,286.621 719.031,314.883 z" id="boundary" inkscape:connector-curvature="0" />
	<path style="fill:none;stroke:red;stroke-width:1px;stroke-linecap:butt;stroke-linejoin:miter;stroke-opacity:1" d="M 719.031,286.621 724.684,247.054 z" id="boundary" inkscape:connector-curvature="0" />
	<path style="fill:none;stroke:red;stroke-width:1px;stroke-linecap:butt;stroke-linejoin:miter;stroke-opacity:1" d="M 719.031,382.712 747.293,388.365 z" id="boundary" inkscape:connector-curvature="0" />
	<path style="fill:none;stroke:red;stroke-width:1px;stroke-linecap:butt;stroke-linejoin:miter;stroke-opacity:1" d="M 724.684,190.53 724.684,218.792 z" id="boundary" inkscape:connector-curvature="0" />
	<path style="fill:none;stroke:red;stroke-width:1px;stroke-linecap:butt;stroke-linejoin:miter;stroke-opacity:1" d="M 724.684,190.53 738.815,165.094 z" id="boundary" inkscape:connector-curvature="0" />
	<path style="fill:none;stroke:red;stroke-width:1px;stroke-linecap:butt;stroke-linejoin:miter;stroke-opacity:1" d="M 724.684,218.792 724.684,247.054 z" id="boundary" inkscape:connector-curvature="0" />
	<path style="fill:none;stroke:red;stroke-width:1px;stroke-linecap:butt;stroke-linejoin:miter;stroke-opacity:1" d="M 733.162,26.6097 750.12,49.2194 z" id="boundary" inkscape:connector-curvature="0" />
	<path style="fill:none;stroke:red;stroke-width:1px;stroke-linecap:butt;stroke-linejoin:miter;stroke-opacity:1" d="M 735.989,727.51 764.251,727.51 z" id="boundary" inkscape:connector-curvature="0" />
	<path style="fill:none;stroke:red;stroke-width:1px;stroke-linecap:butt;stroke-linejoin:miter;stroke-opacity:1" d="M 738.815,165.094 752.946,128.353 z" id="boundary" inkscape:connector-curvature="0" />
	<path style="fill:none;stroke:red;stroke-width:1px;stroke-linecap:butt;stroke-linejoin:miter;stroke-opacity:1" d="M 741.641,665.333 769.903,656.855 z" id="boundary" inkscape:connector-curvature="0" />
	<path style="fill:none;stroke:red;stroke-width:1px;stroke-linecap:butt;stroke-linejoin:miter;stroke-opacity:1" d="M 741.641,996 769.903,996 z" id="boundary" inkscape:connector-curvature="0" />
	<path style="fill:none;stroke:red;stroke-width:1px;stroke-linecap:butt;stroke-linejoin:miter;stroke-opacity:1" d="M 747.293,388.365 775.556,394.017 z" id="boundary" inkscape:connector-curvature="0" />
	<path style="fill:none;stroke:red;stroke-width:1px;stroke-linecap:butt;stroke-linejoin:miter;stroke-opacity:1" d="M 750.12,49.2194 764.251,74.6553 z" id="boundary" inkscape:connector-curvature="0" />
	<path style="fill:none;stroke:red;stroke-width:1px;stroke-linecap:butt;stroke-linejoin:miter;stroke-opacity:1" d="M 752.946,128.353 764.251,74.6553 z" id="boundary" inkscape:connector-curvature="0" />
	<path style="fill:none;stroke:red;stroke-width:1px;stroke-linecap:butt;stroke-linejoin:miter;stroke-opacity:1" d="M 764.251,727.51 792.513,738.815 z" id="boundary" inkscape:connector-curvature="0" />
	<path style="fill:none;stroke:red;stroke-width:1px;stroke-linecap:butt;stroke-linejoin:miter;stroke-opacity:1" d="M 769.903,656.855 798.165,645.55 z" id="boundary" inkscape:connector-curvature="0" />
	<path style="fill:none;stroke:red;stroke-width:1px;stroke-linecap:butt;stroke-linejoin:miter;stroke-opacity:1" d="M 769.903,996 798.165,990.348 z" id="boundary" inkscape:connector-curvature="0" />
	<path style="fill:none;stroke:red;stroke-width:1px;stroke-linecap:butt;stroke-linejoin:miter;stroke-opacity:1" d="M 775.556,394.017 800.991,408.148 z" id="boundary" inkscape:connector-curvature="0" />
	<path style="fill:none;stroke:red;stroke-width:1px;stroke-linecap:butt;stroke-linejoin:miter;stroke-opacity:1" d="M 792.513,738.815 815.123,755.772 z" id="boundary" inkscape:connector-curvature="0" />
	<path style="fill:none;stroke:red;stroke-width:1px;stroke-linecap:butt;stroke-linejoin:miter;stroke-opacity:1" d="M 798.165,645.55 823.601,628.593 z" id="boundary" inkscape:connector-curvature="0" />
	<path style="fill:none;stroke:red;stroke-width:1px;stroke-linecap:butt;stroke-linejoin:miter;stroke-opacity:1" d="M 798.165,990.348 820.775,973.39 z" id="boundary" inkscape:connector-curvature="0" />
	<path style="fill:none;stroke:red;stroke-width:1px;stroke-linecap:butt;stroke-linejoin:miter;stroke-opacity:1" d="M 800.991,408.148 817.949,430.758 z" id="boundary" inkscape:connector-curvature="0" />
	<path style="fill:none;stroke:red;stroke-width:1px;stroke-linecap:butt;stroke-linejoin:miter;stroke-opacity:1" d="M 815.123,755.772 832.08,778.382 z" id="boundary" inkscape:connector-curvature="0" />
	<path style="fill:none;stroke:red;stroke-width:1px;stroke-linecap:butt;stroke-linejoin:miter;stroke-opacity:1" d="M 817.949,430.758 843.385,444.889 z" id="boundary" inkscape:connector-curvature="0" />
	<path style="fill:none;stroke:red;stroke-width:1px;stroke-linecap:butt;stroke-linejoin:miter;stroke-opacity:1" d="M 820.775,973.39 843.385,953.607 z" id="boundary" inkscape:connector-curvature="0" />
	<path style="fill:none;stroke:red;stroke-width:1px;stroke-linecap:butt;stroke-linejoin:miter;stroke-opacity:1" d="M 823.601,628.593 849.037,614.462 z" id="boundary" inkscape:connector-curvature="0" />
	<path style="fill:none;stroke:red;stroke-width:1px;stroke-linecap:butt;stroke-linejoin:miter;stroke-opacity:1" d="M 832.08,778.382 837.732,806.644 z" id="boundary" inkscape:connector-curvature="0" />
	<path style="fill:none;stroke:red;stroke-width:1px;stroke-linecap:butt;stroke-linejoin:miter;stroke-opacity:1" d="M 837.732,806.644 846.211,834.906 z" id="boundary" inkscape:connector-curvature="0" />
	<path style="fill:none;stroke:red;stroke-width:1px;stroke-linecap:butt;stroke-linejoin:miter;stroke-opacity:1" d="M 843.385,444.889 868.821,459.02 z" id="boundary" inkscape:connector-curvature="0" />
	<path style="fill:none;stroke:red;stroke-width:1px;stroke-linecap:butt;stroke-linejoin:miter;stroke-opacity:1" d="M 843.385,953.607 849.037,919.692 z" id="boundary" inkscape:connector-curvature="0" />
	<path style="fill:none;stroke:red;stroke-width:1px;stroke-linecap:butt;stroke-linejoin:miter;stroke-opacity:1" d="M 846.211,834.906 849.037,863.168 z" id="boundary" inkscape:connector-curvature="0" />
	<path style="fill:none;stroke:red;stroke-width:1px;stroke-linecap:butt;stroke-linejoin:miter;stroke-opacity:1" d="M 849.037,614.462 865.994,591.852 z" id="boundary" inkscape:connector-curvature="0" />
	<path style="fill:none;stroke:red;stroke-width:1px;stroke-linecap:butt;stroke-linejoin:miter;stroke-opacity:1" d="M 849.037,863.168 849.037,891.43 z" id="boundary" inkscape:connector-curvature="0" />
	<path style="fill:none;stroke:red;stroke-width:1px;stroke-linecap:butt;stroke-linejoin:miter;stroke-opacity:1" d="M 849.037,891.43 849.037,919.692 z" id="boundary" inkscape:connector-curvature="0" />
	<path style="fill:none;stroke:red;stroke-width:1px;stroke-linecap:butt;stroke-linejoin:miter;stroke-opacity:1" d="M 865.994,591.852 888.604,563.59 z" id="boundary" inkscape:connector-curvature="0" />
	<path style="fill:none;stroke:red;stroke-width:1px;stroke-linecap:butt;stroke-linejoin:miter;stroke-opacity:1" d="M 868.821,459.02 888.604,481.63 z" id="boundary" inkscape:connector-curvature="0" />
	<path style="fill:none;stroke:red;stroke-width:1px;stroke-linecap:butt;stroke-linejoin:miter;stroke-opacity:1" d="M 888.604,481.63 899.909,509.892 z" id="boundary" inkscape:connector-curvature="0" />
	<path style="fill:none;stroke:red;stroke-width:1px;stroke-linecap:butt;stroke-linejoin:miter;stroke-opacity:1" d="M 888.604,563.59 899.909,509.892 z" id="boundary" inkscape:connector-curvature="0" />
	<circle cx="4" cy="501.413" r="4" fill="#0" id="circle0"/>
	<circle cx="4" cy="529.675" r="4" fill="#0" id="circle1"/>
	<circle cx="15.3048" cy="557.937" r="4" fill="#0" id="circle2"/>
	<circle cx="15.3048" cy="834.906" r="4" fill="#0" id="circle3"/>
	<circle cx="15.3048" cy="863.168" r="4" fill="#0" id="circle4"/>
	<circle cx="15.3048" cy="891.43" r="4" fill="#0" id="circle5"/>
	<circle cx="15.3048" cy="919.692" r="4" fill="#0" id="circle6"/>
	<circle cx="18.1311" cy="475.977" r="4" fill="#0" id="circle7"/>
	<circle cx="23.7835" cy="947.954" r="4" fill="#0" id="circle8"/>
	<circle cx="26.6097" cy="789.687" r="4" fill="#0" id="circle9"/>
	<circle cx="29.4359" cy="583.373" r="4" fill="#0" id="circle10"/>
	<circle cx="37.9145" cy="761.425" r="4" fill="#0" id="circle11"/>
	<circle cx="40.7407" cy="453.368" r="4" fill="#0" id="circle12"/>
	<circle cx="46.3932" cy="967.738" r="4" fill="#0" id="circle13"/>
	<circle cx="49.2194" cy="605.983" r="4" fill="#0" id="circle14"/>
	<circle cx="60.5242" cy="744.467" r="4" fill="#0" id="circle15"/>
	<circle cx="69.0028" cy="444.889" r="4" fill="#0" id="circle16"/>
	<circle cx="69.0028" cy="984.695" r="4" fill="#0" id="circle17"/>
	<circle cx="71.8291" cy="622.94" r="4" fill="#0" id="circle18"/>
	<circle cx="85.9601" cy="730.336" r="4" fill="#0" id="circle19"/>
	<circle cx="97.265" cy="436.41" r="4" fill="#0" id="circle20"/>
	<circle cx="97.265" cy="637.071" r="4" fill="#0" id="circle21"/>
	<circle cx="97.265" cy="996" r="4" fill="#0" id="circle22"/>
	<circle cx="114.222" cy="727.51" r="4" fill="#0" id="circle23"/>
	<circle cx="125.527" cy="433.584" r="4" fill="#0" id="circle24"/>
	<circle cx="125.527" cy="645.55" r="4" fill="#0" id="circle25"/>
	<circle cx="125.527" cy="996" r="4" fill="#0" id="circle26"/>
	<circle cx="142.484" cy="727.51" r="4" fill="#0" id="circle27"/>
	<circle cx="150.963" cy="416.627" r="4" fill="#0" id="circle28"/>
	<circle cx="153.789" cy="656.855" r="4" fill="#0" id="circle29"/>
	<circle cx="153.789" cy="996" r="4" fill="#0" id="circle30"/>
	<circle cx="170.746" cy="727.51" r="4" fill="#0" id="circle31"/>
	<circle cx="173.573" cy="399.67" r="4" fill="#0" id="circle32"/>
	<circle cx="182.051" cy="659.681" r="4" fill="#0" id="circle33"/>
	<circle cx="182.051" cy="996" r="4" fill="#0" id="circle34"/>
	<circle cx="199.009" cy="721.858" r="4" fill="#0" id="circle35"/>
	<circle cx="201.835" cy="388.365" r="4" fill="#0" id="circle36"/>
	<circle cx="210.313" cy="662.507" r="4" fill="#0" id="circle37"/>
	<circle cx="210.313" cy="996" r="4" fill="#0" id="circle38"/>
	<circle cx="213.14" cy="54.8718" r="4" fill="#0" id="circle39"/>
	<circle cx="213.14" cy="83.1339" r="4" fill="#0" id="circle40"/>
	<circle cx="218.792" cy="111.396" r="4" fill="#0" id="circle41"/>
	<circle cx="227.271" cy="716.205" r="4" fill="#0" id="circle42"/>
	<circle cx="230.097" cy="139.658" r="4" fill="#0" id="circle43"/>
	<circle cx="230.097" cy="382.712" r="4" fill="#0" id="circle44"/>
	<circle cx="235.749" cy="32.2621" r="4" fill="#0" id="circle45"/>
	<circle cx="235.749" cy="979.043" r="4" fill="#0" id="circle46"/>
	<circle cx="238.575" cy="167.92" r="4" fill="#0" id="circle47"/>
	<circle cx="238.575" cy="668.16" r="4" fill="#0" id="circle48"/>
	<circle cx="241.402" cy="218.792" r="4" fill="#0" id="circle49"/>
	<circle cx="241.402" cy="247.054" r="4" fill="#0" id="circle50"/>
	<circle cx="241.402" cy="275.316" r="4" fill="#0" id="circle51"/>
	<circle cx="247.054" cy="303.578" r="4" fill="#0" id="circle52"/>
	<circle cx="252.707" cy="331.84" r="4" fill="#0" id="circle53"/>
	<circle cx="252.707" cy="693.595" r="4" fill="#0" id="circle54"/>
	<circle cx="258.359" cy="15.3048" r="4" fill="#0" id="circle55"/>
	<circle cx="258.359" cy="382.712" r="4" fill="#0" id="circle56"/>
	<circle cx="264.011" cy="973.39" r="4" fill="#0" id="circle57"/>
	<circle cx="286.621" cy="9.65242" r="4" fill="#0" id="circle58"/>
	<circle cx="292.274" cy="973.39" r="4" fill="#0" id="circle59"/>
	<circle cx="314.883" cy="4" r="4" fill="#0" id="circle60"/>
	<circle cx="320.536" cy="979.043" r="4" fill="#0" id="circle61"/>
	<circle cx="343.145" cy="9.65242" r="4" fill="#0" id="circle62"/>
	<circle cx="348.798" cy="984.695" r="4" fill="#0" id="circle63"/>
	<circle cx="371.407" cy="18.1311" r="4" fill="#0" id="circle64"/>
	<circle cx="377.06" cy="990.348" r="4" fill="#0" id="circle65"/>
	<circle cx="396.843" cy="32.2621" r="4" fill="#0" id="circle66"/>
	<circle cx="405.322" cy="990.348" r="4" fill="#0" id="circle67"/>
	<circle cx="425.105" cy="43.567" r="4" fill="#0" id="circle68"/>
	<circle cx="433.584" cy="996" r="4" fill="#0" id="circle69"/>
	<circle cx="453.368" cy="43.567" r="4" fill="#0" id="circle70"/>
	<circle cx="461.846" cy="996" r="4" fill="#0" id="circle71"/>
	<circle cx="481.63" cy="37.9145" r="4" fill="#0" id="circle72"/>
	<circle cx="490.108" cy="996" r="4" fill="#0" id="circle73"/>
	<circle cx="509.892" cy="43.567" r="4" fill="#0" id="circle74"/>
	<circle cx="518.37" cy="996" r="4" fill="#0" id="circle75"/>
	<circle cx="538.154" cy="43.567" r="4" fill="#0" id="circle76"/>
	<circle cx="546.632" cy="996" r="4" fill="#0" id="circle77"/>
	<circle cx="566.416" cy="37.9145" r="4" fill="#0" id="circle78"/>
	<circle cx="574.895" cy="990.348" r="4" fill="#0" id="circle79"/>
	<circle cx="591.852" cy="20.9573" r="4" fill="#0" id="circle80"/>
	<circle cx="603.157" cy="990.348" r="4" fill="#0" id="circle81"/>
	<circle cx="620.114" cy="9.65242" r="4" fill="#0" id="circle82"/>
	<circle cx="631.419" cy="979.043" r="4" fill="#0" id="circle83"/>
	<circle cx="648.376" cy="4" r="4" fill="#0" id="circle84"/>
	<circle cx="656.855" cy="993.174" r="4" fill="#0" id="circle85"/>
	<circle cx="676.638" cy="4" r="4" fill="#0" id="circle86"/>
	<circle cx="685.117" cy="665.333" r="4" fill="#0" id="circle87"/>
	<circle cx="685.117" cy="996" r="4" fill="#0" id="circle88"/>
	<circle cx="690.769" cy="371.407" r="4" fill="#0" id="circle89"/>
	<circle cx="690.769" cy="693.595" r="4" fill="#0" id="circle90"/>
	<circle cx="704.9" cy="15.3048" r="4" fill="#0" id="circle91"/>
	<circle cx="704.9" cy="345.972" r="4" fill="#0" id="circle92"/>
	<circle cx="707.726" cy="716.205" r="4" fill="#0" id="circle93"/>
	<circle cx="713.379" cy="668.16" r="4" fill="#0" id="circle94"/>
	<circle cx="713.379" cy="996" r="4" fill="#0" id="circle95"/>
	<circle cx="719.031" cy="286.621" r="4" fill="#0" id="circle96"/>
	<circle cx="719.031" cy="314.883" r="4" fill="#0" id="circle97"/>
	<circle cx="719.031" cy="382.712" r="4" fill="#0" id="circle98"/>
	<circle cx="724.684" cy="190.53" r="4" fill="#0" id="circle99"/>
	<circle cx="724.684" cy="218.792" r="4" fill="#0" id="circle100"/>
	<circle cx="724.684" cy="247.054" r="4" fill="#0" id="circle101"/>
	<circle cx="733.162" cy="26.6097" r="4" fill="#0" id="circle102"/>
	<circle cx="735.989" cy="727.51" r="4" fill="#0" id="circle103"/>
	<circle cx="738.815" cy="165.094" r="4" fill="#0" id="circle104"/>
	<circle cx="741.641" cy="665.333" r="4" fill="#0" id="circle105"/>
	<circle cx="741.641" cy="996" r="4" fill="#0" id="circle106"/>
	<circle cx="747.293" cy="388.365" r="4" fill="#0" id="circle107"/>
	<circle cx="750.12" cy="49.2194" r="4" fill="#0" id="circle108"/>
	<circle cx="752.946" cy="128.353" r="4" fill="#0" id="circle109"/>
	<circle cx="764.251" cy="74.6553" r="4" fill="#0" id="circle110"/>
	<circle cx="764.251" cy="727.51" r="4" fill="#0" id="circle111"/>
	<circle cx="769.903" cy="656.855" r="4" fill="#0" id="circle112"/>
	<circle cx="769.903" cy="996" r="4" fill="#0" id="circle113"/>
	<circle cx="775.556" cy="394.017" r="4" fill="#0" id="circle114"/>
	<circle cx="792.513" cy="738.815" r="4" fill="#0" id="circle115"/>
	<circle cx="798.165" cy="645.55" r="4" fill="#0" id="circle116"/>
	<circle cx="798.165" cy="990.348" r="4" fill="#0" id="circle117"/>
	<circle cx="800.991" cy="408.148" r="4" fill="#0" id="circle118"/>
	<circle cx="815.123" cy="755.772" r="4" fill="#0" id="circle119"/>
	<circle cx="817.949" cy="430.758" r="4" fill="#0" id="circle120"/>
	<circle cx="820.775" cy="973.39" r="4" fill="#0" id="circle121"/>
	<circle cx="823.601" cy="628.593" r="4" fill="#0" id="circle122"/>
	<circle cx="832.08" cy="778.382" r="4" fill="#0" id="circle123"/>
	<circle cx="837.732" cy="806.644" r="4" fill="#0" id="circle124"/>
	<circle cx="843.385" cy="444.889" r="4" fill="#0" id="circle125"/>
	<circle cx="843.385" cy="953.607" r="4" fill="#0" id="circle126"/>
	<circle cx="846.211" cy="834.906" r="4" fill="#0" id="circle127"/>
	<circle cx="849.037" cy="614.462" r="4" fill="#0" id="circle128"/>
	<circle cx="849.037" cy="863.168" r="4" fill="#0" id="circle129"/>
	<circle cx="849.037" cy="891.43" r="4" fill="#0" id="circle130"/>
	<circle cx="849.037" cy="919.692" r="4" fill="#0" id="circle131"/>
	<circle cx="865.994" cy="591.852" r="4" fill="#0" id="circle132"/>
	<circle cx="868.821" cy="459.02" r="4" fill="#0" id="circle133"/>
	<circle cx="888.604" cy="481.63" r="4" fill="#0" id="circle134"/>
	<circle cx="888.604" cy="563.59" r="4" fill="#0" id="circle135"/>
	<circle cx="899.909" cy="509.892" r="4" fill="#0" id="circle136"/>
	</g>
</svg>