<?xml version="1.0" encoding="UTF-8" standalone="no"?>
<!-- Created with CurveBenchmark -->
<svg
	xmlns:dc="http://purl.org/dc/elements/1.1/"
	xmlns:cc="http://creativecommons.org/ns#"
	xmlns:rdf="http://www.w3.org/1999/02/22-rdf-syntax-ns#"
	xmlns:svg="http://www.w3.org/2000/svg"
	xmlns="http://www.w3.org/2000/svg"
	xmlns:sodipodi="http://sodipodi.sourceforge.net/DTD/sodipodi-0.dtd"
	xmlns:inkscape="http://www.inkscape.org/namespaces/inkscape"
	width="1000"
	height="1000"
	id="svg2"
	version="1.1"
	sodipodi:docname="manifold/vicur-hammer350.png.txt">
<defs
	id="defs4" />
<metadata
	id="metadata7">
	<rdf:RDF>
		<cc:Work
			rdf:about="">
			<dc:format>image/svg+xml</dc:format>
			<dc:type
				rdf:resource="http://purl.org/dc/dcmitype/StillImage" />
			<dc:title></dc:title>
		</cc:Work>
	</rdf:RDF>
</metadata>
<g
	inkscape:label="Layer 1"
	inkscape:groupmode="layer"
	id="layer1">
	<path style="fill:none;stroke:red;stroke-width:1px;stroke-linecap:butt;stroke-linejoin:miter;stroke-opacity:1" d="M 4,165.02 15.5014,130.516 z" id="boundary" inkscape:connector-curvature="0" />
	<path style="fill:none;stroke:red;stroke-width:1px;stroke-linecap:butt;stroke-linejoin:miter;stroke-opacity:1" d="M 4,165.02 32.7536,162.145 z" id="boundary" inkscape:connector-curvature="0" />
	<path style="fill:none;stroke:red;stroke-width:1px;stroke-linecap:butt;stroke-linejoin:miter;stroke-opacity:1" d="M 15.5014,130.516 29.8783,104.638 z" id="boundary" inkscape:connector-curvature="0" />
	<path style="fill:none;stroke:red;stroke-width:1px;stroke-linecap:butt;stroke-linejoin:miter;stroke-opacity:1" d="M 29.8783,104.638 47.1304,81.6348 z" id="boundary" inkscape:connector-curvature="0" />
	<path style="fill:none;stroke:red;stroke-width:1px;stroke-linecap:butt;stroke-linejoin:miter;stroke-opacity:1" d="M 32.7536,162.145 47.1304,136.267 z" id="boundary" inkscape:connector-curvature="0" />
	<path style="fill:none;stroke:red;stroke-width:1px;stroke-linecap:butt;stroke-linejoin:miter;stroke-opacity:1" d="M 47.1304,81.6348 64.3826,58.6319 z" id="boundary" inkscape:connector-curvature="0" />
	<path style="fill:none;stroke:red;stroke-width:1px;stroke-linecap:butt;stroke-linejoin:miter;stroke-opacity:1" d="M 47.1304,136.267 70.1333,113.264 z" id="boundary" inkscape:connector-curvature="0" />
	<path style="fill:none;stroke:red;stroke-width:1px;stroke-linecap:butt;stroke-linejoin:miter;stroke-opacity:1" d="M 64.3826,58.6319 87.3855,35.629 z" id="boundary" inkscape:connector-curvature="0" />
	<path style="fill:none;stroke:red;stroke-width:1px;stroke-linecap:butt;stroke-linejoin:miter;stroke-opacity:1" d="M 70.1333,113.264 93.1362,96.0116 z" id="boundary" inkscape:connector-curvature="0" />
	<path style="fill:none;stroke:red;stroke-width:1px;stroke-linecap:butt;stroke-linejoin:miter;stroke-opacity:1" d="M 87.3855,35.629 110.388,18.3768 z" id="boundary" inkscape:connector-curvature="0" />
	<path style="fill:none;stroke:red;stroke-width:1px;stroke-linecap:butt;stroke-linejoin:miter;stroke-opacity:1" d="M 93.1362,96.0116 121.89,87.3855 z" id="boundary" inkscape:connector-curvature="0" />
	<path style="fill:none;stroke:red;stroke-width:1px;stroke-linecap:butt;stroke-linejoin:miter;stroke-opacity:1" d="M 110.388,18.3768 136.267,4 z" id="boundary" inkscape:connector-curvature="0" />
	<path style="fill:none;stroke:red;stroke-width:1px;stroke-linecap:butt;stroke-linejoin:miter;stroke-opacity:1" d="M 121.89,87.3855 142.017,110.388 z" id="boundary" inkscape:connector-curvature="0" />
	<path style="fill:none;stroke:red;stroke-width:1px;stroke-linecap:butt;stroke-linejoin:miter;stroke-opacity:1" d="M 124.765,981.623 130.516,952.87 z" id="boundary" inkscape:connector-curvature="0" />
	<path style="fill:none;stroke:red;stroke-width:1px;stroke-linecap:butt;stroke-linejoin:miter;stroke-opacity:1" d="M 124.765,981.623 150.643,996 z" id="boundary" inkscape:connector-curvature="0" />
	<path style="fill:none;stroke:red;stroke-width:1px;stroke-linecap:butt;stroke-linejoin:miter;stroke-opacity:1" d="M 130.516,924.116 130.516,952.87 z" id="boundary" inkscape:connector-curvature="0" />
	<path style="fill:none;stroke:red;stroke-width:1px;stroke-linecap:butt;stroke-linejoin:miter;stroke-opacity:1" d="M 130.516,924.116 136.267,878.11 z" id="boundary" inkscape:connector-curvature="0" />
	<path style="fill:none;stroke:red;stroke-width:1px;stroke-linecap:butt;stroke-linejoin:miter;stroke-opacity:1" d="M 136.267,4 165.02,4 z" id="boundary" inkscape:connector-curvature="0" />
	<path style="fill:none;stroke:red;stroke-width:1px;stroke-linecap:butt;stroke-linejoin:miter;stroke-opacity:1" d="M 136.267,533.067 136.267,561.82 z" id="boundary" inkscape:connector-curvature="0" />
	<path style="fill:none;stroke:red;stroke-width:1px;stroke-linecap:butt;stroke-linejoin:miter;stroke-opacity:1" d="M 136.267,533.067 142.017,504.313 z" id="boundary" inkscape:connector-curvature="0" />
	<path style="fill:none;stroke:red;stroke-width:1px;stroke-linecap:butt;stroke-linejoin:miter;stroke-opacity:1" d="M 136.267,561.82 136.267,590.574 z" id="boundary" inkscape:connector-curvature="0" />
	<path style="fill:none;stroke:red;stroke-width:1px;stroke-linecap:butt;stroke-linejoin:miter;stroke-opacity:1" d="M 136.267,590.574 136.267,619.328 z" id="boundary" inkscape:connector-curvature="0" />
	<path style="fill:none;stroke:red;stroke-width:1px;stroke-linecap:butt;stroke-linejoin:miter;stroke-opacity:1" d="M 136.267,619.328 136.267,648.081 z" id="boundary" inkscape:connector-curvature="0" />
	<path style="fill:none;stroke:red;stroke-width:1px;stroke-linecap:butt;stroke-linejoin:miter;stroke-opacity:1" d="M 136.267,648.081 136.267,676.835 z" id="boundary" inkscape:connector-curvature="0" />
	<path style="fill:none;stroke:red;stroke-width:1px;stroke-linecap:butt;stroke-linejoin:miter;stroke-opacity:1" d="M 136.267,676.835 136.267,705.588 z" id="boundary" inkscape:connector-curvature="0" />
	<path style="fill:none;stroke:red;stroke-width:1px;stroke-linecap:butt;stroke-linejoin:miter;stroke-opacity:1" d="M 136.267,705.588 136.267,734.342 z" id="boundary" inkscape:connector-curvature="0" />
	<path style="fill:none;stroke:red;stroke-width:1px;stroke-linecap:butt;stroke-linejoin:miter;stroke-opacity:1" d="M 136.267,734.342 136.267,763.096 z" id="boundary" inkscape:connector-curvature="0" />
	<path style="fill:none;stroke:red;stroke-width:1px;stroke-linecap:butt;stroke-linejoin:miter;stroke-opacity:1" d="M 136.267,763.096 136.267,791.849 z" id="boundary" inkscape:connector-curvature="0" />
	<path style="fill:none;stroke:red;stroke-width:1px;stroke-linecap:butt;stroke-linejoin:miter;stroke-opacity:1" d="M 136.267,791.849 136.267,820.603 z" id="boundary" inkscape:connector-curvature="0" />
	<path style="fill:none;stroke:red;stroke-width:1px;stroke-linecap:butt;stroke-linejoin:miter;stroke-opacity:1" d="M 136.267,820.603 136.267,849.357 z" id="boundary" inkscape:connector-curvature="0" />
	<path style="fill:none;stroke:red;stroke-width:1px;stroke-linecap:butt;stroke-linejoin:miter;stroke-opacity:1" d="M 136.267,849.357 136.267,878.11 z" id="boundary" inkscape:connector-curvature="0" />
	<path style="fill:none;stroke:red;stroke-width:1px;stroke-linecap:butt;stroke-linejoin:miter;stroke-opacity:1" d="M 142.017,110.388 147.768,139.142 z" id="boundary" inkscape:connector-curvature="0" />
	<path style="fill:none;stroke:red;stroke-width:1px;stroke-linecap:butt;stroke-linejoin:miter;stroke-opacity:1" d="M 142.017,475.559 142.017,504.313 z" id="boundary" inkscape:connector-curvature="0" />
	<path style="fill:none;stroke:red;stroke-width:1px;stroke-linecap:butt;stroke-linejoin:miter;stroke-opacity:1" d="M 142.017,475.559 159.27,446.806 z" id="boundary" inkscape:connector-curvature="0" />
	<path style="fill:none;stroke:red;stroke-width:1px;stroke-linecap:butt;stroke-linejoin:miter;stroke-opacity:1" d="M 147.768,139.142 153.519,167.896 z" id="boundary" inkscape:connector-curvature="0" />
	<path style="fill:none;stroke:red;stroke-width:1px;stroke-linecap:butt;stroke-linejoin:miter;stroke-opacity:1" d="M 150.643,996 179.397,996 z" id="boundary" inkscape:connector-curvature="0" />
	<path style="fill:none;stroke:red;stroke-width:1px;stroke-linecap:butt;stroke-linejoin:miter;stroke-opacity:1" d="M 153.519,167.896 159.27,196.649 z" id="boundary" inkscape:connector-curvature="0" />
	<path style="fill:none;stroke:red;stroke-width:1px;stroke-linecap:butt;stroke-linejoin:miter;stroke-opacity:1" d="M 159.27,196.649 165.02,225.403 z" id="boundary" inkscape:connector-curvature="0" />
	<path style="fill:none;stroke:red;stroke-width:1px;stroke-linecap:butt;stroke-linejoin:miter;stroke-opacity:1" d="M 159.27,446.806 170.771,397.925 z" id="boundary" inkscape:connector-curvature="0" />
	<path style="fill:none;stroke:red;stroke-width:1px;stroke-linecap:butt;stroke-linejoin:miter;stroke-opacity:1" d="M 165.02,4 193.774,4 z" id="boundary" inkscape:connector-curvature="0" />
	<path style="fill:none;stroke:red;stroke-width:1px;stroke-linecap:butt;stroke-linejoin:miter;stroke-opacity:1" d="M 165.02,225.403 170.771,254.157 z" id="boundary" inkscape:connector-curvature="0" />
	<path style="fill:none;stroke:red;stroke-width:1px;stroke-linecap:butt;stroke-linejoin:miter;stroke-opacity:1" d="M 170.771,254.157 170.771,282.91 z" id="boundary" inkscape:connector-curvature="0" />
	<path style="fill:none;stroke:red;stroke-width:1px;stroke-linecap:butt;stroke-linejoin:miter;stroke-opacity:1" d="M 170.771,282.91 170.771,311.664 z" id="boundary" inkscape:connector-curvature="0" />
	<path style="fill:none;stroke:red;stroke-width:1px;stroke-linecap:butt;stroke-linejoin:miter;stroke-opacity:1" d="M 170.771,311.664 170.771,340.417 z" id="boundary" inkscape:connector-curvature="0" />
	<path style="fill:none;stroke:red;stroke-width:1px;stroke-linecap:butt;stroke-linejoin:miter;stroke-opacity:1" d="M 170.771,340.417 170.771,369.171 z" id="boundary" inkscape:connector-curvature="0" />
	<path style="fill:none;stroke:red;stroke-width:1px;stroke-linecap:butt;stroke-linejoin:miter;stroke-opacity:1" d="M 170.771,369.171 170.771,397.925 z" id="boundary" inkscape:connector-curvature="0" />
	<path style="fill:none;stroke:red;stroke-width:1px;stroke-linecap:butt;stroke-linejoin:miter;stroke-opacity:1" d="M 179.397,996 208.151,996 z" id="boundary" inkscape:connector-curvature="0" />
	<path style="fill:none;stroke:red;stroke-width:1px;stroke-linecap:butt;stroke-linejoin:miter;stroke-opacity:1" d="M 193.774,4 222.528,4 z" id="boundary" inkscape:connector-curvature="0" />
	<path style="fill:none;stroke:red;stroke-width:1px;stroke-linecap:butt;stroke-linejoin:miter;stroke-opacity:1" d="M 208.151,996 236.904,996 z" id="boundary" inkscape:connector-curvature="0" />
	<path style="fill:none;stroke:red;stroke-width:1px;stroke-linecap:butt;stroke-linejoin:miter;stroke-opacity:1" d="M 222.528,4 251.281,4 z" id="boundary" inkscape:connector-curvature="0" />
	<path style="fill:none;stroke:red;stroke-width:1px;stroke-linecap:butt;stroke-linejoin:miter;stroke-opacity:1" d="M 236.904,996 265.658,996 z" id="boundary" inkscape:connector-curvature="0" />
	<path style="fill:none;stroke:red;stroke-width:1px;stroke-linecap:butt;stroke-linejoin:miter;stroke-opacity:1" d="M 242.655,251.281 242.655,280.035 z" id="boundary" inkscape:connector-curvature="0" />
	<path style="fill:none;stroke:red;stroke-width:1px;stroke-linecap:butt;stroke-linejoin:miter;stroke-opacity:1" d="M 242.655,251.281 248.406,199.525 z" id="boundary" inkscape:connector-curvature="0" />
	<path style="fill:none;stroke:red;stroke-width:1px;stroke-linecap:butt;stroke-linejoin:miter;stroke-opacity:1" d="M 242.655,280.035 242.655,308.788 z" id="boundary" inkscape:connector-curvature="0" />
	<path style="fill:none;stroke:red;stroke-width:1px;stroke-linecap:butt;stroke-linejoin:miter;stroke-opacity:1" d="M 242.655,308.788 242.655,337.542 z" id="boundary" inkscape:connector-curvature="0" />
	<path style="fill:none;stroke:red;stroke-width:1px;stroke-linecap:butt;stroke-linejoin:miter;stroke-opacity:1" d="M 242.655,337.542 242.655,366.296 z" id="boundary" inkscape:connector-curvature="0" />
	<path style="fill:none;stroke:red;stroke-width:1px;stroke-linecap:butt;stroke-linejoin:miter;stroke-opacity:1" d="M 242.655,366.296 242.655,395.049 z" id="boundary" inkscape:connector-curvature="0" />
	<path style="fill:none;stroke:red;stroke-width:1px;stroke-linecap:butt;stroke-linejoin:miter;stroke-opacity:1" d="M 242.655,395.049 245.53,423.803 z" id="boundary" inkscape:connector-curvature="0" />
	<path style="fill:none;stroke:red;stroke-width:1px;stroke-linecap:butt;stroke-linejoin:miter;stroke-opacity:1" d="M 245.53,423.803 254.157,452.557 z" id="boundary" inkscape:connector-curvature="0" />
	<path style="fill:none;stroke:red;stroke-width:1px;stroke-linecap:butt;stroke-linejoin:miter;stroke-opacity:1" d="M 248.406,199.525 259.907,159.27 z" id="boundary" inkscape:connector-curvature="0" />
	<path style="fill:none;stroke:red;stroke-width:1px;stroke-linecap:butt;stroke-linejoin:miter;stroke-opacity:1" d="M 251.281,4 280.035,12.6261 z" id="boundary" inkscape:connector-curvature="0" />
	<path style="fill:none;stroke:red;stroke-width:1px;stroke-linecap:butt;stroke-linejoin:miter;stroke-opacity:1" d="M 254.157,452.557 271.409,475.559 z" id="boundary" inkscape:connector-curvature="0" />
	<path style="fill:none;stroke:red;stroke-width:1px;stroke-linecap:butt;stroke-linejoin:miter;stroke-opacity:1" d="M 259.907,159.27 271.409,124.765 z" id="boundary" inkscape:connector-curvature="0" />
	<path style="fill:none;stroke:red;stroke-width:1px;stroke-linecap:butt;stroke-linejoin:miter;stroke-opacity:1" d="M 265.658,996 282.91,964.371 z" id="boundary" inkscape:connector-curvature="0" />
	<path style="fill:none;stroke:red;stroke-width:1px;stroke-linecap:butt;stroke-linejoin:miter;stroke-opacity:1" d="M 271.409,96.0116 271.409,124.765 z" id="boundary" inkscape:connector-curvature="0" />
	<path style="fill:none;stroke:red;stroke-width:1px;stroke-linecap:butt;stroke-linejoin:miter;stroke-opacity:1" d="M 271.409,96.0116 294.412,75.8841 z" id="boundary" inkscape:connector-curvature="0" />
	<path style="fill:none;stroke:red;stroke-width:1px;stroke-linecap:butt;stroke-linejoin:miter;stroke-opacity:1" d="M 271.409,475.559 271.409,504.313 z" id="boundary" inkscape:connector-curvature="0" />
	<path style="fill:none;stroke:red;stroke-width:1px;stroke-linecap:butt;stroke-linejoin:miter;stroke-opacity:1" d="M 271.409,504.313 277.159,533.067 z" id="boundary" inkscape:connector-curvature="0" />
	<path style="fill:none;stroke:red;stroke-width:1px;stroke-linecap:butt;stroke-linejoin:miter;stroke-opacity:1" d="M 277.159,533.067 277.159,561.82 z" id="boundary" inkscape:connector-curvature="0" />
	<path style="fill:none;stroke:red;stroke-width:1px;stroke-linecap:butt;stroke-linejoin:miter;stroke-opacity:1" d="M 277.159,561.82 277.159,590.574 z" id="boundary" inkscape:connector-curvature="0" />
	<path style="fill:none;stroke:red;stroke-width:1px;stroke-linecap:butt;stroke-linejoin:miter;stroke-opacity:1" d="M 277.159,590.574 277.159,619.328 z" id="boundary" inkscape:connector-curvature="0" />
	<path style="fill:none;stroke:red;stroke-width:1px;stroke-linecap:butt;stroke-linejoin:miter;stroke-opacity:1" d="M 277.159,619.328 277.159,648.081 z" id="boundary" inkscape:connector-curvature="0" />
	<path style="fill:none;stroke:red;stroke-width:1px;stroke-linecap:butt;stroke-linejoin:miter;stroke-opacity:1" d="M 277.159,648.081 277.159,676.835 z" id="boundary" inkscape:connector-curvature="0" />
	<path style="fill:none;stroke:red;stroke-width:1px;stroke-linecap:butt;stroke-linejoin:miter;stroke-opacity:1" d="M 277.159,676.835 277.159,705.588 z" id="boundary" inkscape:connector-curvature="0" />
	<path style="fill:none;stroke:red;stroke-width:1px;stroke-linecap:butt;stroke-linejoin:miter;stroke-opacity:1" d="M 277.159,705.588 277.159,734.342 z" id="boundary" inkscape:connector-curvature="0" />
	<path style="fill:none;stroke:red;stroke-width:1px;stroke-linecap:butt;stroke-linejoin:miter;stroke-opacity:1" d="M 277.159,734.342 277.159,763.096 z" id="boundary" inkscape:connector-curvature="0" />
	<path style="fill:none;stroke:red;stroke-width:1px;stroke-linecap:butt;stroke-linejoin:miter;stroke-opacity:1" d="M 277.159,763.096 277.159,791.849 z" id="boundary" inkscape:connector-curvature="0" />
	<path style="fill:none;stroke:red;stroke-width:1px;stroke-linecap:butt;stroke-linejoin:miter;stroke-opacity:1" d="M 277.159,791.849 277.159,820.603 z" id="boundary" inkscape:connector-curvature="0" />
	<path style="fill:none;stroke:red;stroke-width:1px;stroke-linecap:butt;stroke-linejoin:miter;stroke-opacity:1" d="M 277.159,820.603 277.159,849.357 z" id="boundary" inkscape:connector-curvature="0" />
	<path style="fill:none;stroke:red;stroke-width:1px;stroke-linecap:butt;stroke-linejoin:miter;stroke-opacity:1" d="M 277.159,849.357 277.159,878.11 z" id="boundary" inkscape:connector-curvature="0" />
	<path style="fill:none;stroke:red;stroke-width:1px;stroke-linecap:butt;stroke-linejoin:miter;stroke-opacity:1" d="M 277.159,878.11 277.159,906.864 z" id="boundary" inkscape:connector-curvature="0" />
	<path style="fill:none;stroke:red;stroke-width:1px;stroke-linecap:butt;stroke-linejoin:miter;stroke-opacity:1" d="M 277.159,906.864 282.91,935.617 z" id="boundary" inkscape:connector-curvature="0" />
	<path style="fill:none;stroke:red;stroke-width:1px;stroke-linecap:butt;stroke-linejoin:miter;stroke-opacity:1" d="M 280.035,12.6261 308.788,15.5014 z" id="boundary" inkscape:connector-curvature="0" />
	<path style="fill:none;stroke:red;stroke-width:1px;stroke-linecap:butt;stroke-linejoin:miter;stroke-opacity:1" d="M 282.91,935.617 282.91,964.371 z" id="boundary" inkscape:connector-curvature="0" />
	<path style="fill:none;stroke:red;stroke-width:1px;stroke-linecap:butt;stroke-linejoin:miter;stroke-opacity:1" d="M 294.412,75.8841 323.165,75.8841 z" id="boundary" inkscape:connector-curvature="0" />
	<path style="fill:none;stroke:red;stroke-width:1px;stroke-linecap:butt;stroke-linejoin:miter;stroke-opacity:1" d="M 308.788,15.5014 337.542,15.5014 z" id="boundary" inkscape:connector-curvature="0" />
	<path style="fill:none;stroke:red;stroke-width:1px;stroke-linecap:butt;stroke-linejoin:miter;stroke-opacity:1" d="M 323.165,75.8841 351.919,87.3855 z" id="boundary" inkscape:connector-curvature="0" />
	<path style="fill:none;stroke:red;stroke-width:1px;stroke-linecap:butt;stroke-linejoin:miter;stroke-opacity:1" d="M 337.542,15.5014 366.296,4 z" id="boundary" inkscape:connector-curvature="0" />
	<path style="fill:none;stroke:red;stroke-width:1px;stroke-linecap:butt;stroke-linejoin:miter;stroke-opacity:1" d="M 351.919,87.3855 380.672,93.1362 z" id="boundary" inkscape:connector-curvature="0" />
	<path style="fill:none;stroke:red;stroke-width:1px;stroke-linecap:butt;stroke-linejoin:miter;stroke-opacity:1" d="M 366.296,4 395.049,12.6261 z" id="boundary" inkscape:connector-curvature="0" />
	<path style="fill:none;stroke:red;stroke-width:1px;stroke-linecap:butt;stroke-linejoin:miter;stroke-opacity:1" d="M 380.672,93.1362 397.925,70.1333 z" id="boundary" inkscape:connector-curvature="0" />
	<path style="fill:none;stroke:red;stroke-width:1px;stroke-linecap:butt;stroke-linejoin:miter;stroke-opacity:1" d="M 395.049,12.6261 397.925,41.3797 z" id="boundary" inkscape:connector-curvature="0" />
	<path style="fill:none;stroke:red;stroke-width:1px;stroke-linecap:butt;stroke-linejoin:miter;stroke-opacity:1" d="M 397.925,41.3797 397.925,70.1333 z" id="boundary" inkscape:connector-curvature="0" />
	<circle cx="4" cy="165.02" r="4" fill="#0" id="circle0"/>
	<circle cx="15.5014" cy="130.516" r="4" fill="#0" id="circle1"/>
	<circle cx="29.8783" cy="104.638" r="4" fill="#0" id="circle2"/>
	<circle cx="32.7536" cy="162.145" r="4" fill="#0" id="circle3"/>
	<circle cx="47.1304" cy="81.6348" r="4" fill="#0" id="circle4"/>
	<circle cx="47.1304" cy="136.267" r="4" fill="#0" id="circle5"/>
	<circle cx="64.3826" cy="58.6319" r="4" fill="#0" id="circle6"/>
	<circle cx="70.1333" cy="113.264" r="4" fill="#0" id="circle7"/>
	<circle cx="87.3855" cy="35.629" r="4" fill="#0" id="circle8"/>
	<circle cx="93.1362" cy="96.0116" r="4" fill="#0" id="circle9"/>
	<circle cx="110.388" cy="18.3768" r="4" fill="#0" id="circle10"/>
	<circle cx="121.89" cy="87.3855" r="4" fill="#0" id="circle11"/>
	<circle cx="124.765" cy="981.623" r="4" fill="#0" id="circle12"/>
	<circle cx="130.516" cy="924.116" r="4" fill="#0" id="circle13"/>
	<circle cx="130.516" cy="952.87" r="4" fill="#0" id="circle14"/>
	<circle cx="136.267" cy="4" r="4" fill="#0" id="circle15"/>
	<circle cx="136.267" cy="533.067" r="4" fill="#0" id="circle16"/>
	<circle cx="136.267" cy="561.82" r="4" fill="#0" id="circle17"/>
	<circle cx="136.267" cy="590.574" r="4" fill="#0" id="circle18"/>
	<circle cx="136.267" cy="619.328" r="4" fill="#0" id="circle19"/>
	<circle cx="136.267" cy="648.081" r="4" fill="#0" id="circle20"/>
	<circle cx="136.267" cy="676.835" r="4" fill="#0" id="circle21"/>
	<circle cx="136.267" cy="705.588" r="4" fill="#0" id="circle22"/>
	<circle cx="136.267" cy="734.342" r="4" fill="#0" id="circle23"/>
	<circle cx="136.267" cy="763.096" r="4" fill="#0" id="circle24"/>
	<circle cx="136.267" cy="791.849" r="4" fill="#0" id="circle25"/>
	<circle cx="136.267" cy="820.603" r="4" fill="#0" id="circle26"/>
	<circle cx="136.267" cy="849.357" r="4" fill="#0" id="circle27"/>
	<circle cx="136.267" cy="878.11" r="4" fill="#0" id="circle28"/>
	<circle cx="142.017" cy="110.388" r="4" fill="#0" id="circle29"/>
	<circle cx="142.017" cy="475.559" r="4" fill="#0" id="circle30"/>
	<circle cx="142.017" cy="504.313" r="4" fill="#0" id="circle31"/>
	<circle cx="147.768" cy="139.142" r="4" fill="#0" id="circle32"/>
	<circle cx="150.643" cy="996" r="4" fill="#0" id="circle33"/>
	<circle cx="153.519" cy="167.896" r="4" fill="#0" id="circle34"/>
	<circle cx="159.27" cy="196.649" r="4" fill="#0" id="circle35"/>
	<circle cx="159.27" cy="446.806" r="4" fill="#0" id="circle36"/>
	<circle cx="165.02" cy="4" r="4" fill="#0" id="circle37"/>
	<circle cx="165.02" cy="225.403" r="4" fill="#0" id="circle38"/>
	<circle cx="170.771" cy="254.157" r="4" fill="#0" id="circle39"/>
	<circle cx="170.771" cy="282.91" r="4" fill="#0" id="circle40"/>
	<circle cx="170.771" cy="311.664" r="4" fill="#0" id="circle41"/>
	<circle cx="170.771" cy="340.417" r="4" fill="#0" id="circle42"/>
	<circle cx="170.771" cy="369.171" r="4" fill="#0" id="circle43"/>
	<circle cx="170.771" cy="397.925" r="4" fill="#0" id="circle44"/>
	<circle cx="179.397" cy="996" r="4" fill="#0" id="circle45"/>
	<circle cx="193.774" cy="4" r="4" fill="#0" id="circle46"/>
	<circle cx="208.151" cy="996" r="4" fill="#0" id="circle47"/>
	<circle cx="222.528" cy="4" r="4" fill="#0" id="circle48"/>
	<circle cx="236.904" cy="996" r="4" fill="#0" id="circle49"/>
	<circle cx="242.655" cy="251.281" r="4" fill="#0" id="circle50"/>
	<circle cx="242.655" cy="280.035" r="4" fill="#0" id="circle51"/>
	<circle cx="242.655" cy="308.788" r="4" fill="#0" id="circle52"/>
	<circle cx="242.655" cy="337.542" r="4" fill="#0" id="circle53"/>
	<circle cx="242.655" cy="366.296" r="4" fill="#0" id="circle54"/>
	<circle cx="242.655" cy="395.049" r="4" fill="#0" id="circle55"/>
	<circle cx="245.53" cy="423.803" r="4" fill="#0" id="circle56"/>
	<circle cx="248.406" cy="199.525" r="4" fill="#0" id="circle57"/>
	<circle cx="251.281" cy="4" r="4" fill="#0" id="circle58"/>
	<circle cx="254.157" cy="452.557" r="4" fill="#0" id="circle59"/>
	<circle cx="259.907" cy="159.27" r="4" fill="#0" id="circle60"/>
	<circle cx="265.658" cy="996" r="4" fill="#0" id="circle61"/>
	<circle cx="271.409" cy="96.0116" r="4" fill="#0" id="circle62"/>
	<circle cx="271.409" cy="124.765" r="4" fill="#0" id="circle63"/>
	<circle cx="271.409" cy="475.559" r="4" fill="#0" id="circle64"/>
	<circle cx="271.409" cy="504.313" r="4" fill="#0" id="circle65"/>
	<circle cx="277.159" cy="533.067" r="4" fill="#0" id="circle66"/>
	<circle cx="277.159" cy="561.82" r="4" fill="#0" id="circle67"/>
	<circle cx="277.159" cy="590.574" r="4" fill="#0" id="circle68"/>
	<circle cx="277.159" cy="619.328" r="4" fill="#0" id="circle69"/>
	<circle cx="277.159" cy="648.081" r="4" fill="#0" id="circle70"/>
	<circle cx="277.159" cy="676.835" r="4" fill="#0" id="circle71"/>
	<circle cx="277.159" cy="705.588" r="4" fill="#0" id="circle72"/>
	<circle cx="277.159" cy="734.342" r="4" fill="#0" id="circle73"/>
	<circle cx="277.159" cy="763.096" r="4" fill="#0" id="circle74"/>
	<circle cx="277.159" cy="791.849" r="4" fill="#0" id="circle75"/>
	<circle cx="277.159" cy="820.603" r="4" fill="#0" id="circle76"/>
	<circle cx="277.159" cy="849.357" r="4" fill="#0" id="circle77"/>
	<circle cx="277.159" cy="878.11" r="4" fill="#0" id="circle78"/>
	<circle cx="277.159" cy="906.864" r="4" fill="#0" id="circle79"/>
	<circle cx="280.035" cy="12.6261" r="4" fill="#0" id="circle80"/>
	<circle cx="282.91" cy="935.617" r="4" fill="#0" id="circle81"/>
	<circle cx="282.91" cy="964.371" r="4" fill="#0" id="circle82"/>
	<circle cx="294.412" cy="75.8841" r="4" fill="#0" id="circle83"/>
	<circle cx="308.788" cy="15.5014" r="4" fill="#0" id="circle84"/>
	<circle cx="323.165" cy="75.8841" r="4" fill="#0" id="circle85"/>
	<circle cx="337.542" cy="15.5014" r="4" fill="#0" id="circle86"/>
	<circle cx="351.919" cy="87.3855" r="4" fill="#0" id="circle87"/>
	<circle cx="366.296" cy="4" r="4" fill="#0" id="circle88"/>
	<circle cx="380.672" cy="93.1362" r="4" fill="#0" id="circle89"/>
	<circle cx="395.049" cy="12.6261" r="4" fill="#0" id="circle90"/>
	<circle cx="397.925" cy="41.3797" r="4" fill="#0" id="circle91"/>
	<circle cx="397.925" cy="70.1333" r="4" fill="#0" id="circle92"/>
	</g>
</svg>