<?xml version="1.0" encoding="UTF-8" standalone="no"?>
<!-- Created with CurveBenchmark -->
<svg
	xmlns:dc="http://purl.org/dc/elements/1.1/"
	xmlns:cc="http://creativecommons.org/ns#"
	xmlns:rdf="http://www.w3.org/1999/02/22-rdf-syntax-ns#"
	xmlns:svg="http://www.w3.org/2000/svg"
	xmlns="http://www.w3.org/2000/svg"
	xmlns:sodipodi="http://sodipodi.sourceforge.net/DTD/sodipodi-0.dtd"
	xmlns:inkscape="http://www.inkscape.org/namespaces/inkscape"
	width="1000"
	height="1000"
	id="svg2"
	version="1.1"
	sodipodi:docname="manifold/vicur-kitchenknifebinary11.png.txt">
<defs
	id="defs4" />
<metadata
	id="metadata7">
	<rdf:RDF>
		<cc:Work
			rdf:about="">
			<dc:format>image/svg+xml</dc:format>
			<dc:type
				rdf:resource="http://purl.org/dc/dcmitype/StillImage" />
			<dc:title></dc:title>
		</cc:Work>
	</rdf:RDF>
</metadata>
<g
	inkscape:label="Layer 1"
	inkscape:groupmode="layer"
	id="layer1">
	<path style="fill:none;stroke:red;stroke-width:1px;stroke-linecap:butt;stroke-linejoin:miter;stroke-opacity:1" d="M 4,14.8653 5.08653,25.7306 z" id="boundary" inkscape:connector-curvature="0" />
	<path style="fill:none;stroke:red;stroke-width:1px;stroke-linecap:butt;stroke-linejoin:miter;stroke-opacity:1" d="M 5.08653,25.7306 7.25958,39.8554 z" id="boundary" inkscape:connector-curvature="0" />
	<path style="fill:none;stroke:red;stroke-width:1px;stroke-linecap:butt;stroke-linejoin:miter;stroke-opacity:1" d="M 7.25958,39.8554 10.5192,50.7207 z" id="boundary" inkscape:connector-curvature="0" />
	<path style="fill:none;stroke:red;stroke-width:1px;stroke-linecap:butt;stroke-linejoin:miter;stroke-opacity:1" d="M 9.43264,4 19.2114,9.43264 z" id="boundary" inkscape:connector-curvature="0" />
	<path style="fill:none;stroke:red;stroke-width:1px;stroke-linecap:butt;stroke-linejoin:miter;stroke-opacity:1" d="M 10.5192,50.7207 12.6922,61.586 z" id="boundary" inkscape:connector-curvature="0" />
	<path style="fill:none;stroke:red;stroke-width:1px;stroke-linecap:butt;stroke-linejoin:miter;stroke-opacity:1" d="M 12.6922,61.586 17.0383,72.4513 z" id="boundary" inkscape:connector-curvature="0" />
	<path style="fill:none;stroke:red;stroke-width:1px;stroke-linecap:butt;stroke-linejoin:miter;stroke-opacity:1" d="M 19.2114,9.43264 26.8171,18.1249 z" id="boundary" inkscape:connector-curvature="0" />
	<path style="fill:none;stroke:red;stroke-width:1px;stroke-linecap:butt;stroke-linejoin:miter;stroke-opacity:1" d="M 26.8171,18.1249 35.5093,25.7306 z" id="boundary" inkscape:connector-curvature="0" />
	<path style="fill:none;stroke:red;stroke-width:1px;stroke-linecap:butt;stroke-linejoin:miter;stroke-opacity:1" d="M 32.2497,114.826 38.7689,128.951 z" id="boundary" inkscape:connector-curvature="0" />
	<path style="fill:none;stroke:red;stroke-width:1px;stroke-linecap:butt;stroke-linejoin:miter;stroke-opacity:1" d="M 35.5093,25.7306 44.2015,33.3363 z" id="boundary" inkscape:connector-curvature="0" />
	<path style="fill:none;stroke:red;stroke-width:1px;stroke-linecap:butt;stroke-linejoin:miter;stroke-opacity:1" d="M 38.7689,128.951 45.2881,137.643 z" id="boundary" inkscape:connector-curvature="0" />
	<path style="fill:none;stroke:red;stroke-width:1px;stroke-linecap:butt;stroke-linejoin:miter;stroke-opacity:1" d="M 44.2015,33.3363 50.7207,42.0285 z" id="boundary" inkscape:connector-curvature="0" />
	<path style="fill:none;stroke:red;stroke-width:1px;stroke-linecap:butt;stroke-linejoin:miter;stroke-opacity:1" d="M 45.2881,137.643 50.7207,147.422 z" id="boundary" inkscape:connector-curvature="0" />
	<path style="fill:none;stroke:red;stroke-width:1px;stroke-linecap:butt;stroke-linejoin:miter;stroke-opacity:1" d="M 50.7207,42.0285 57.2399,50.7207 z" id="boundary" inkscape:connector-curvature="0" />
	<path style="fill:none;stroke:red;stroke-width:1px;stroke-linecap:butt;stroke-linejoin:miter;stroke-opacity:1" d="M 50.7207,147.422 57.2399,156.114 z" id="boundary" inkscape:connector-curvature="0" />
	<path style="fill:none;stroke:red;stroke-width:1px;stroke-linecap:butt;stroke-linejoin:miter;stroke-opacity:1" d="M 57.2399,50.7207 65.9321,57.2399 z" id="boundary" inkscape:connector-curvature="0" />
	<path style="fill:none;stroke:red;stroke-width:1px;stroke-linecap:butt;stroke-linejoin:miter;stroke-opacity:1" d="M 65.9321,57.2399 74.6243,64.8456 z" id="boundary" inkscape:connector-curvature="0" />
	<path style="fill:none;stroke:red;stroke-width:1px;stroke-linecap:butt;stroke-linejoin:miter;stroke-opacity:1" d="M 68.1051,175.671 76.7974,182.191 z" id="boundary" inkscape:connector-curvature="0" />
	<path style="fill:none;stroke:red;stroke-width:1px;stroke-linecap:butt;stroke-linejoin:miter;stroke-opacity:1" d="M 74.6243,64.8456 81.1435,73.5378 z" id="boundary" inkscape:connector-curvature="0" />
	<path style="fill:none;stroke:red;stroke-width:1px;stroke-linecap:butt;stroke-linejoin:miter;stroke-opacity:1" d="M 76.7974,182.191 82.23,191.969 z" id="boundary" inkscape:connector-curvature="0" />
	<path style="fill:none;stroke:red;stroke-width:1px;stroke-linecap:butt;stroke-linejoin:miter;stroke-opacity:1" d="M 81.1435,73.5378 89.8357,80.057 z" id="boundary" inkscape:connector-curvature="0" />
	<path style="fill:none;stroke:red;stroke-width:1px;stroke-linecap:butt;stroke-linejoin:miter;stroke-opacity:1" d="M 82.23,191.969 89.8357,200.662 z" id="boundary" inkscape:connector-curvature="0" />
	<path style="fill:none;stroke:red;stroke-width:1px;stroke-linecap:butt;stroke-linejoin:miter;stroke-opacity:1" d="M 89.8357,80.057 97.4414,88.7492 z" id="boundary" inkscape:connector-curvature="0" />
	<path style="fill:none;stroke:red;stroke-width:1px;stroke-linecap:butt;stroke-linejoin:miter;stroke-opacity:1" d="M 89.8357,200.662 96.3549,209.354 z" id="boundary" inkscape:connector-curvature="0" />
	<path style="fill:none;stroke:red;stroke-width:1px;stroke-linecap:butt;stroke-linejoin:miter;stroke-opacity:1" d="M 96.3549,209.354 103.961,218.046 z" id="boundary" inkscape:connector-curvature="0" />
	<path style="fill:none;stroke:red;stroke-width:1px;stroke-linecap:butt;stroke-linejoin:miter;stroke-opacity:1" d="M 97.4414,88.7492 106.134,96.3549 z" id="boundary" inkscape:connector-curvature="0" />
	<path style="fill:none;stroke:red;stroke-width:1px;stroke-linecap:butt;stroke-linejoin:miter;stroke-opacity:1" d="M 103.961,218.046 111.566,226.738 z" id="boundary" inkscape:connector-curvature="0" />
	<path style="fill:none;stroke:red;stroke-width:1px;stroke-linecap:butt;stroke-linejoin:miter;stroke-opacity:1" d="M 106.134,96.3549 112.653,105.047 z" id="boundary" inkscape:connector-curvature="0" />
	<path style="fill:none;stroke:red;stroke-width:1px;stroke-linecap:butt;stroke-linejoin:miter;stroke-opacity:1" d="M 111.566,226.738 119.172,235.43 z" id="boundary" inkscape:connector-curvature="0" />
	<path style="fill:none;stroke:red;stroke-width:1px;stroke-linecap:butt;stroke-linejoin:miter;stroke-opacity:1" d="M 112.653,105.047 121.345,111.566 z" id="boundary" inkscape:connector-curvature="0" />
	<path style="fill:none;stroke:red;stroke-width:1px;stroke-linecap:butt;stroke-linejoin:miter;stroke-opacity:1" d="M 119.172,235.43 125.691,244.123 z" id="boundary" inkscape:connector-curvature="0" />
	<path style="fill:none;stroke:red;stroke-width:1px;stroke-linecap:butt;stroke-linejoin:miter;stroke-opacity:1" d="M 121.345,111.566 130.037,118.085 z" id="boundary" inkscape:connector-curvature="0" />
	<path style="fill:none;stroke:red;stroke-width:1px;stroke-linecap:butt;stroke-linejoin:miter;stroke-opacity:1" d="M 125.691,244.123 135.47,249.555 z" id="boundary" inkscape:connector-curvature="0" />
	<path style="fill:none;stroke:red;stroke-width:1px;stroke-linecap:butt;stroke-linejoin:miter;stroke-opacity:1" d="M 130.037,118.085 136.556,126.778 z" id="boundary" inkscape:connector-curvature="0" />
	<path style="fill:none;stroke:red;stroke-width:1px;stroke-linecap:butt;stroke-linejoin:miter;stroke-opacity:1" d="M 135.47,249.555 144.162,257.161 z" id="boundary" inkscape:connector-curvature="0" />
	<path style="fill:none;stroke:red;stroke-width:1px;stroke-linecap:butt;stroke-linejoin:miter;stroke-opacity:1" d="M 136.556,126.778 145.249,134.383 z" id="boundary" inkscape:connector-curvature="0" />
	<path style="fill:none;stroke:red;stroke-width:1px;stroke-linecap:butt;stroke-linejoin:miter;stroke-opacity:1" d="M 144.162,257.161 150.681,265.853 z" id="boundary" inkscape:connector-curvature="0" />
	<path style="fill:none;stroke:red;stroke-width:1px;stroke-linecap:butt;stroke-linejoin:miter;stroke-opacity:1" d="M 145.249,134.383 153.941,141.989 z" id="boundary" inkscape:connector-curvature="0" />
	<path style="fill:none;stroke:red;stroke-width:1px;stroke-linecap:butt;stroke-linejoin:miter;stroke-opacity:1" d="M 150.681,265.853 157.2,274.545 z" id="boundary" inkscape:connector-curvature="0" />
	<path style="fill:none;stroke:red;stroke-width:1px;stroke-linecap:butt;stroke-linejoin:miter;stroke-opacity:1" d="M 153.941,141.989 161.547,150.681 z" id="boundary" inkscape:connector-curvature="0" />
	<path style="fill:none;stroke:red;stroke-width:1px;stroke-linecap:butt;stroke-linejoin:miter;stroke-opacity:1" d="M 157.2,274.545 165.893,281.065 z" id="boundary" inkscape:connector-curvature="0" />
	<path style="fill:none;stroke:red;stroke-width:1px;stroke-linecap:butt;stroke-linejoin:miter;stroke-opacity:1" d="M 161.547,150.681 170.239,158.287 z" id="boundary" inkscape:connector-curvature="0" />
	<path style="fill:none;stroke:red;stroke-width:1px;stroke-linecap:butt;stroke-linejoin:miter;stroke-opacity:1" d="M 165.893,281.065 174.585,287.584 z" id="boundary" inkscape:connector-curvature="0" />
	<path style="fill:none;stroke:red;stroke-width:1px;stroke-linecap:butt;stroke-linejoin:miter;stroke-opacity:1" d="M 170.239,158.287 178.931,165.893 z" id="boundary" inkscape:connector-curvature="0" />
	<path style="fill:none;stroke:red;stroke-width:1px;stroke-linecap:butt;stroke-linejoin:miter;stroke-opacity:1" d="M 174.585,287.584 183.277,294.103 z" id="boundary" inkscape:connector-curvature="0" />
	<path style="fill:none;stroke:red;stroke-width:1px;stroke-linecap:butt;stroke-linejoin:miter;stroke-opacity:1" d="M 178.931,165.893 186.537,174.585 z" id="boundary" inkscape:connector-curvature="0" />
	<path style="fill:none;stroke:red;stroke-width:1px;stroke-linecap:butt;stroke-linejoin:miter;stroke-opacity:1" d="M 183.277,294.103 189.796,302.795 z" id="boundary" inkscape:connector-curvature="0" />
	<path style="fill:none;stroke:red;stroke-width:1px;stroke-linecap:butt;stroke-linejoin:miter;stroke-opacity:1" d="M 186.537,174.585 195.229,181.104 z" id="boundary" inkscape:connector-curvature="0" />
	<path style="fill:none;stroke:red;stroke-width:1px;stroke-linecap:butt;stroke-linejoin:miter;stroke-opacity:1" d="M 189.796,302.795 196.315,311.487 z" id="boundary" inkscape:connector-curvature="0" />
	<path style="fill:none;stroke:red;stroke-width:1px;stroke-linecap:butt;stroke-linejoin:miter;stroke-opacity:1" d="M 195.229,181.104 203.921,188.71 z" id="boundary" inkscape:connector-curvature="0" />
	<path style="fill:none;stroke:red;stroke-width:1px;stroke-linecap:butt;stroke-linejoin:miter;stroke-opacity:1" d="M 196.315,311.487 206.094,316.92 z" id="boundary" inkscape:connector-curvature="0" />
	<path style="fill:none;stroke:red;stroke-width:1px;stroke-linecap:butt;stroke-linejoin:miter;stroke-opacity:1" d="M 203.921,188.71 210.44,197.402 z" id="boundary" inkscape:connector-curvature="0" />
	<path style="fill:none;stroke:red;stroke-width:1px;stroke-linecap:butt;stroke-linejoin:miter;stroke-opacity:1" d="M 206.094,316.92 213.7,325.612 z" id="boundary" inkscape:connector-curvature="0" />
	<path style="fill:none;stroke:red;stroke-width:1px;stroke-linecap:butt;stroke-linejoin:miter;stroke-opacity:1" d="M 210.44,197.402 219.133,203.921 z" id="boundary" inkscape:connector-curvature="0" />
	<path style="fill:none;stroke:red;stroke-width:1px;stroke-linecap:butt;stroke-linejoin:miter;stroke-opacity:1" d="M 213.7,325.612 222.392,332.131 z" id="boundary" inkscape:connector-curvature="0" />
	<path style="fill:none;stroke:red;stroke-width:1px;stroke-linecap:butt;stroke-linejoin:miter;stroke-opacity:1" d="M 219.133,203.921 225.652,212.613 z" id="boundary" inkscape:connector-curvature="0" />
	<path style="fill:none;stroke:red;stroke-width:1px;stroke-linecap:butt;stroke-linejoin:miter;stroke-opacity:1" d="M 222.392,332.131 231.084,339.737 z" id="boundary" inkscape:connector-curvature="0" />
	<path style="fill:none;stroke:red;stroke-width:1px;stroke-linecap:butt;stroke-linejoin:miter;stroke-opacity:1" d="M 225.652,212.613 234.344,219.133 z" id="boundary" inkscape:connector-curvature="0" />
	<path style="fill:none;stroke:red;stroke-width:1px;stroke-linecap:butt;stroke-linejoin:miter;stroke-opacity:1" d="M 231.084,339.737 238.69,348.429 z" id="boundary" inkscape:connector-curvature="0" />
	<path style="fill:none;stroke:red;stroke-width:1px;stroke-linecap:butt;stroke-linejoin:miter;stroke-opacity:1" d="M 234.344,219.133 243.036,225.652 z" id="boundary" inkscape:connector-curvature="0" />
	<path style="fill:none;stroke:red;stroke-width:1px;stroke-linecap:butt;stroke-linejoin:miter;stroke-opacity:1" d="M 238.69,348.429 246.296,357.122 z" id="boundary" inkscape:connector-curvature="0" />
	<path style="fill:none;stroke:red;stroke-width:1px;stroke-linecap:butt;stroke-linejoin:miter;stroke-opacity:1" d="M 243.036,225.652 251.728,232.171 z" id="boundary" inkscape:connector-curvature="0" />
	<path style="fill:none;stroke:red;stroke-width:1px;stroke-linecap:butt;stroke-linejoin:miter;stroke-opacity:1" d="M 246.296,357.122 254.988,363.641 z" id="boundary" inkscape:connector-curvature="0" />
	<path style="fill:none;stroke:red;stroke-width:1px;stroke-linecap:butt;stroke-linejoin:miter;stroke-opacity:1" d="M 251.728,232.171 260.421,239.777 z" id="boundary" inkscape:connector-curvature="0" />
	<path style="fill:none;stroke:red;stroke-width:1px;stroke-linecap:butt;stroke-linejoin:miter;stroke-opacity:1" d="M 254.988,363.641 263.68,370.16 z" id="boundary" inkscape:connector-curvature="0" />
	<path style="fill:none;stroke:red;stroke-width:1px;stroke-linecap:butt;stroke-linejoin:miter;stroke-opacity:1" d="M 260.421,239.777 268.026,248.469 z" id="boundary" inkscape:connector-curvature="0" />
	<path style="fill:none;stroke:red;stroke-width:1px;stroke-linecap:butt;stroke-linejoin:miter;stroke-opacity:1" d="M 263.68,370.16 271.286,378.852 z" id="boundary" inkscape:connector-curvature="0" />
	<path style="fill:none;stroke:red;stroke-width:1px;stroke-linecap:butt;stroke-linejoin:miter;stroke-opacity:1" d="M 268.026,248.469 276.719,256.074 z" id="boundary" inkscape:connector-curvature="0" />
	<path style="fill:none;stroke:red;stroke-width:1px;stroke-linecap:butt;stroke-linejoin:miter;stroke-opacity:1" d="M 271.286,378.852 279.978,385.371 z" id="boundary" inkscape:connector-curvature="0" />
	<path style="fill:none;stroke:red;stroke-width:1px;stroke-linecap:butt;stroke-linejoin:miter;stroke-opacity:1" d="M 276.719,256.074 285.411,262.594 z" id="boundary" inkscape:connector-curvature="0" />
	<path style="fill:none;stroke:red;stroke-width:1px;stroke-linecap:butt;stroke-linejoin:miter;stroke-opacity:1" d="M 279.978,385.371 287.584,394.064 z" id="boundary" inkscape:connector-curvature="0" />
	<path style="fill:none;stroke:red;stroke-width:1px;stroke-linecap:butt;stroke-linejoin:miter;stroke-opacity:1" d="M 285.411,262.594 293.016,271.286 z" id="boundary" inkscape:connector-curvature="0" />
	<path style="fill:none;stroke:red;stroke-width:1px;stroke-linecap:butt;stroke-linejoin:miter;stroke-opacity:1" d="M 287.584,394.064 296.276,401.669 z" id="boundary" inkscape:connector-curvature="0" />
	<path style="fill:none;stroke:red;stroke-width:1px;stroke-linecap:butt;stroke-linejoin:miter;stroke-opacity:1" d="M 293.016,271.286 301.709,277.805 z" id="boundary" inkscape:connector-curvature="0" />
	<path style="fill:none;stroke:red;stroke-width:1px;stroke-linecap:butt;stroke-linejoin:miter;stroke-opacity:1" d="M 296.276,401.669 303.882,410.361 z" id="boundary" inkscape:connector-curvature="0" />
	<path style="fill:none;stroke:red;stroke-width:1px;stroke-linecap:butt;stroke-linejoin:miter;stroke-opacity:1" d="M 301.709,277.805 310.401,284.324 z" id="boundary" inkscape:connector-curvature="0" />
	<path style="fill:none;stroke:red;stroke-width:1px;stroke-linecap:butt;stroke-linejoin:miter;stroke-opacity:1" d="M 303.882,410.361 312.574,416.881 z" id="boundary" inkscape:connector-curvature="0" />
	<path style="fill:none;stroke:red;stroke-width:1px;stroke-linecap:butt;stroke-linejoin:miter;stroke-opacity:1" d="M 310.401,284.324 319.093,291.93 z" id="boundary" inkscape:connector-curvature="0" />
	<path style="fill:none;stroke:red;stroke-width:1px;stroke-linecap:butt;stroke-linejoin:miter;stroke-opacity:1" d="M 312.574,416.881 319.093,425.573 z" id="boundary" inkscape:connector-curvature="0" />
	<path style="fill:none;stroke:red;stroke-width:1px;stroke-linecap:butt;stroke-linejoin:miter;stroke-opacity:1" d="M 319.093,291.93 327.785,298.449 z" id="boundary" inkscape:connector-curvature="0" />
	<path style="fill:none;stroke:red;stroke-width:1px;stroke-linecap:butt;stroke-linejoin:miter;stroke-opacity:1" d="M 319.093,425.573 326.699,434.265 z" id="boundary" inkscape:connector-curvature="0" />
	<path style="fill:none;stroke:red;stroke-width:1px;stroke-linecap:butt;stroke-linejoin:miter;stroke-opacity:1" d="M 326.699,434.265 336.478,439.698 z" id="boundary" inkscape:connector-curvature="0" />
	<path style="fill:none;stroke:red;stroke-width:1px;stroke-linecap:butt;stroke-linejoin:miter;stroke-opacity:1" d="M 327.785,298.449 334.304,307.141 z" id="boundary" inkscape:connector-curvature="0" />
	<path style="fill:none;stroke:red;stroke-width:1px;stroke-linecap:butt;stroke-linejoin:miter;stroke-opacity:1" d="M 334.304,307.141 342.997,313.66 z" id="boundary" inkscape:connector-curvature="0" />
	<path style="fill:none;stroke:red;stroke-width:1px;stroke-linecap:butt;stroke-linejoin:miter;stroke-opacity:1" d="M 336.478,439.698 342.997,448.39 z" id="boundary" inkscape:connector-curvature="0" />
	<path style="fill:none;stroke:red;stroke-width:1px;stroke-linecap:butt;stroke-linejoin:miter;stroke-opacity:1" d="M 342.997,313.66 352.775,319.093 z" id="boundary" inkscape:connector-curvature="0" />
	<path style="fill:none;stroke:red;stroke-width:1px;stroke-linecap:butt;stroke-linejoin:miter;stroke-opacity:1" d="M 342.997,448.39 351.689,454.909 z" id="boundary" inkscape:connector-curvature="0" />
	<path style="fill:none;stroke:red;stroke-width:1px;stroke-linecap:butt;stroke-linejoin:miter;stroke-opacity:1" d="M 351.689,454.909 357.122,464.688 z" id="boundary" inkscape:connector-curvature="0" />
	<path style="fill:none;stroke:red;stroke-width:1px;stroke-linecap:butt;stroke-linejoin:miter;stroke-opacity:1" d="M 352.775,319.093 361.468,325.612 z" id="boundary" inkscape:connector-curvature="0" />
	<path style="fill:none;stroke:red;stroke-width:1px;stroke-linecap:butt;stroke-linejoin:miter;stroke-opacity:1" d="M 357.122,464.688 365.814,471.207 z" id="boundary" inkscape:connector-curvature="0" />
	<path style="fill:none;stroke:red;stroke-width:1px;stroke-linecap:butt;stroke-linejoin:miter;stroke-opacity:1" d="M 365.814,471.207 374.506,477.726 z" id="boundary" inkscape:connector-curvature="0" />
	<path style="fill:none;stroke:red;stroke-width:1px;stroke-linecap:butt;stroke-linejoin:miter;stroke-opacity:1" d="M 374.506,477.726 383.198,484.245 z" id="boundary" inkscape:connector-curvature="0" />
	<path style="fill:none;stroke:red;stroke-width:1px;stroke-linecap:butt;stroke-linejoin:miter;stroke-opacity:1" d="M 379.939,338.651 387.544,347.343 z" id="boundary" inkscape:connector-curvature="0" />
	<path style="fill:none;stroke:red;stroke-width:1px;stroke-linecap:butt;stroke-linejoin:miter;stroke-opacity:1" d="M 383.198,484.245 390.804,492.938 z" id="boundary" inkscape:connector-curvature="0" />
	<path style="fill:none;stroke:red;stroke-width:1px;stroke-linecap:butt;stroke-linejoin:miter;stroke-opacity:1" d="M 387.544,347.343 396.237,353.862 z" id="boundary" inkscape:connector-curvature="0" />
	<path style="fill:none;stroke:red;stroke-width:1px;stroke-linecap:butt;stroke-linejoin:miter;stroke-opacity:1" d="M 390.804,492.938 400.583,498.37 z" id="boundary" inkscape:connector-curvature="0" />
	<path style="fill:none;stroke:red;stroke-width:1px;stroke-linecap:butt;stroke-linejoin:miter;stroke-opacity:1" d="M 396.237,353.862 404.929,360.381 z" id="boundary" inkscape:connector-curvature="0" />
	<path style="fill:none;stroke:red;stroke-width:1px;stroke-linecap:butt;stroke-linejoin:miter;stroke-opacity:1" d="M 400.583,498.37 409.275,504.889 z" id="boundary" inkscape:connector-curvature="0" />
	<path style="fill:none;stroke:red;stroke-width:1px;stroke-linecap:butt;stroke-linejoin:miter;stroke-opacity:1" d="M 404.929,360.381 413.621,366.9 z" id="boundary" inkscape:connector-curvature="0" />
	<path style="fill:none;stroke:red;stroke-width:1px;stroke-linecap:butt;stroke-linejoin:miter;stroke-opacity:1" d="M 409.275,504.889 416.881,513.582 z" id="boundary" inkscape:connector-curvature="0" />
	<path style="fill:none;stroke:red;stroke-width:1px;stroke-linecap:butt;stroke-linejoin:miter;stroke-opacity:1" d="M 413.621,366.9 420.14,375.593 z" id="boundary" inkscape:connector-curvature="0" />
	<path style="fill:none;stroke:red;stroke-width:1px;stroke-linecap:butt;stroke-linejoin:miter;stroke-opacity:1" d="M 416.881,513.582 422.313,523.36 z" id="boundary" inkscape:connector-curvature="0" />
	<path style="fill:none;stroke:red;stroke-width:1px;stroke-linecap:butt;stroke-linejoin:miter;stroke-opacity:1" d="M 420.14,375.593 428.832,382.112 z" id="boundary" inkscape:connector-curvature="0" />
	<path style="fill:none;stroke:red;stroke-width:1px;stroke-linecap:butt;stroke-linejoin:miter;stroke-opacity:1" d="M 422.313,523.36 433.179,526.62 z" id="boundary" inkscape:connector-curvature="0" />
	<path style="fill:none;stroke:red;stroke-width:1px;stroke-linecap:butt;stroke-linejoin:miter;stroke-opacity:1" d="M 428.832,382.112 436.438,390.804 z" id="boundary" inkscape:connector-curvature="0" />
	<path style="fill:none;stroke:red;stroke-width:1px;stroke-linecap:butt;stroke-linejoin:miter;stroke-opacity:1" d="M 433.179,526.62 441.871,534.226 z" id="boundary" inkscape:connector-curvature="0" />
	<path style="fill:none;stroke:red;stroke-width:1px;stroke-linecap:butt;stroke-linejoin:miter;stroke-opacity:1" d="M 436.438,390.804 445.13,397.323 z" id="boundary" inkscape:connector-curvature="0" />
	<path style="fill:none;stroke:red;stroke-width:1px;stroke-linecap:butt;stroke-linejoin:miter;stroke-opacity:1" d="M 441.871,534.226 447.303,544.004 z" id="boundary" inkscape:connector-curvature="0" />
	<path style="fill:none;stroke:red;stroke-width:1px;stroke-linecap:butt;stroke-linejoin:miter;stroke-opacity:1" d="M 445.13,397.323 453.823,404.929 z" id="boundary" inkscape:connector-curvature="0" />
	<path style="fill:none;stroke:red;stroke-width:1px;stroke-linecap:butt;stroke-linejoin:miter;stroke-opacity:1" d="M 447.303,544.004 457.082,549.437 z" id="boundary" inkscape:connector-curvature="0" />
	<path style="fill:none;stroke:red;stroke-width:1px;stroke-linecap:butt;stroke-linejoin:miter;stroke-opacity:1" d="M 453.823,404.929 461.428,413.621 z" id="boundary" inkscape:connector-curvature="0" />
	<path style="fill:none;stroke:red;stroke-width:1px;stroke-linecap:butt;stroke-linejoin:miter;stroke-opacity:1" d="M 457.082,549.437 462.515,559.216 z" id="boundary" inkscape:connector-curvature="0" />
	<path style="fill:none;stroke:red;stroke-width:1px;stroke-linecap:butt;stroke-linejoin:miter;stroke-opacity:1" d="M 461.428,413.621 469.034,422.313 z" id="boundary" inkscape:connector-curvature="0" />
	<path style="fill:none;stroke:red;stroke-width:1px;stroke-linecap:butt;stroke-linejoin:miter;stroke-opacity:1" d="M 462.515,559.216 471.207,565.735 z" id="boundary" inkscape:connector-curvature="0" />
	<path style="fill:none;stroke:red;stroke-width:1px;stroke-linecap:butt;stroke-linejoin:miter;stroke-opacity:1" d="M 469.034,422.313 477.726,428.832 z" id="boundary" inkscape:connector-curvature="0" />
	<path style="fill:none;stroke:red;stroke-width:1px;stroke-linecap:butt;stroke-linejoin:miter;stroke-opacity:1" d="M 471.207,565.735 477.726,574.427 z" id="boundary" inkscape:connector-curvature="0" />
	<path style="fill:none;stroke:red;stroke-width:1px;stroke-linecap:butt;stroke-linejoin:miter;stroke-opacity:1" d="M 477.726,428.832 484.245,437.525 z" id="boundary" inkscape:connector-curvature="0" />
	<path style="fill:none;stroke:red;stroke-width:1px;stroke-linecap:butt;stroke-linejoin:miter;stroke-opacity:1" d="M 477.726,574.427 484.245,583.119 z" id="boundary" inkscape:connector-curvature="0" />
	<path style="fill:none;stroke:red;stroke-width:1px;stroke-linecap:butt;stroke-linejoin:miter;stroke-opacity:1" d="M 484.245,437.525 492.938,444.044 z" id="boundary" inkscape:connector-curvature="0" />
	<path style="fill:none;stroke:red;stroke-width:1px;stroke-linecap:butt;stroke-linejoin:miter;stroke-opacity:1" d="M 484.245,583.119 494.024,588.552 z" id="boundary" inkscape:connector-curvature="0" />
	<path style="fill:none;stroke:red;stroke-width:1px;stroke-linecap:butt;stroke-linejoin:miter;stroke-opacity:1" d="M 492.938,444.044 501.63,451.65 z" id="boundary" inkscape:connector-curvature="0" />
	<path style="fill:none;stroke:red;stroke-width:1px;stroke-linecap:butt;stroke-linejoin:miter;stroke-opacity:1" d="M 501.63,451.65 508.149,460.342 z" id="boundary" inkscape:connector-curvature="0" />
	<path style="fill:none;stroke:red;stroke-width:1px;stroke-linecap:butt;stroke-linejoin:miter;stroke-opacity:1" d="M 508.149,460.342 516.841,466.861 z" id="boundary" inkscape:connector-curvature="0" />
	<path style="fill:none;stroke:red;stroke-width:1px;stroke-linecap:butt;stroke-linejoin:miter;stroke-opacity:1" d="M 516.841,466.861 524.447,475.553 z" id="boundary" inkscape:connector-curvature="0" />
	<path style="fill:none;stroke:red;stroke-width:1px;stroke-linecap:butt;stroke-linejoin:miter;stroke-opacity:1" d="M 523.36,601.59 528.793,611.369 z" id="boundary" inkscape:connector-curvature="0" />
	<path style="fill:none;stroke:red;stroke-width:1px;stroke-linecap:butt;stroke-linejoin:miter;stroke-opacity:1" d="M 524.447,475.553 533.139,482.072 z" id="boundary" inkscape:connector-curvature="0" />
	<path style="fill:none;stroke:red;stroke-width:1px;stroke-linecap:butt;stroke-linejoin:miter;stroke-opacity:1" d="M 528.793,611.369 535.312,620.061 z" id="boundary" inkscape:connector-curvature="0" />
	<path style="fill:none;stroke:red;stroke-width:1px;stroke-linecap:butt;stroke-linejoin:miter;stroke-opacity:1" d="M 533.139,482.072 542.918,487.505 z" id="boundary" inkscape:connector-curvature="0" />
	<path style="fill:none;stroke:red;stroke-width:1px;stroke-linecap:butt;stroke-linejoin:miter;stroke-opacity:1" d="M 535.312,620.061 545.091,625.494 z" id="boundary" inkscape:connector-curvature="0" />
	<path style="fill:none;stroke:red;stroke-width:1px;stroke-linecap:butt;stroke-linejoin:miter;stroke-opacity:1" d="M 542.918,487.505 548.35,497.284 z" id="boundary" inkscape:connector-curvature="0" />
	<path style="fill:none;stroke:red;stroke-width:1px;stroke-linecap:butt;stroke-linejoin:miter;stroke-opacity:1" d="M 545.091,625.494 554.87,630.927 z" id="boundary" inkscape:connector-curvature="0" />
	<path style="fill:none;stroke:red;stroke-width:1px;stroke-linecap:butt;stroke-linejoin:miter;stroke-opacity:1" d="M 548.35,497.284 557.043,503.803 z" id="boundary" inkscape:connector-curvature="0" />
	<path style="fill:none;stroke:red;stroke-width:1px;stroke-linecap:butt;stroke-linejoin:miter;stroke-opacity:1" d="M 554.87,630.927 563.562,638.532 z" id="boundary" inkscape:connector-curvature="0" />
	<path style="fill:none;stroke:red;stroke-width:1px;stroke-linecap:butt;stroke-linejoin:miter;stroke-opacity:1" d="M 557.043,503.803 565.735,511.409 z" id="boundary" inkscape:connector-curvature="0" />
	<path style="fill:none;stroke:red;stroke-width:1px;stroke-linecap:butt;stroke-linejoin:miter;stroke-opacity:1" d="M 565.735,511.409 572.254,520.101 z" id="boundary" inkscape:connector-curvature="0" />
	<path style="fill:none;stroke:red;stroke-width:1px;stroke-linecap:butt;stroke-linejoin:miter;stroke-opacity:1" d="M 572.254,520.101 580.946,539.658 z" id="boundary" inkscape:connector-curvature="0" />
	<path style="fill:none;stroke:red;stroke-width:1px;stroke-linecap:butt;stroke-linejoin:miter;stroke-opacity:1" d="M 579.86,652.657 588.552,660.263 z" id="boundary" inkscape:connector-curvature="0" />
	<path style="fill:none;stroke:red;stroke-width:1px;stroke-linecap:butt;stroke-linejoin:miter;stroke-opacity:1" d="M 580.946,539.658 591.812,541.831 z" id="boundary" inkscape:connector-curvature="0" />
	<path style="fill:none;stroke:red;stroke-width:1px;stroke-linecap:butt;stroke-linejoin:miter;stroke-opacity:1" d="M 588.552,660.263 596.158,668.955 z" id="boundary" inkscape:connector-curvature="0" />
	<path style="fill:none;stroke:red;stroke-width:1px;stroke-linecap:butt;stroke-linejoin:miter;stroke-opacity:1" d="M 591.812,541.831 602.677,544.004 z" id="boundary" inkscape:connector-curvature="0" />
	<path style="fill:none;stroke:red;stroke-width:1px;stroke-linecap:butt;stroke-linejoin:miter;stroke-opacity:1" d="M 596.158,668.955 602.677,677.647 z" id="boundary" inkscape:connector-curvature="0" />
	<path style="fill:none;stroke:red;stroke-width:1px;stroke-linecap:butt;stroke-linejoin:miter;stroke-opacity:1" d="M 602.677,544.004 611.369,550.524 z" id="boundary" inkscape:connector-curvature="0" />
	<path style="fill:none;stroke:red;stroke-width:1px;stroke-linecap:butt;stroke-linejoin:miter;stroke-opacity:1" d="M 602.677,677.647 612.456,683.08 z" id="boundary" inkscape:connector-curvature="0" />
	<path style="fill:none;stroke:red;stroke-width:1px;stroke-linecap:butt;stroke-linejoin:miter;stroke-opacity:1" d="M 611.369,550.524 621.148,555.956 z" id="boundary" inkscape:connector-curvature="0" />
	<path style="fill:none;stroke:red;stroke-width:1px;stroke-linecap:butt;stroke-linejoin:miter;stroke-opacity:1" d="M 612.456,683.08 620.061,691.772 z" id="boundary" inkscape:connector-curvature="0" />
	<path style="fill:none;stroke:red;stroke-width:1px;stroke-linecap:butt;stroke-linejoin:miter;stroke-opacity:1" d="M 620.061,691.772 628.754,698.291 z" id="boundary" inkscape:connector-curvature="0" />
	<path style="fill:none;stroke:red;stroke-width:1px;stroke-linecap:butt;stroke-linejoin:miter;stroke-opacity:1" d="M 621.148,555.956 630.927,561.389 z" id="boundary" inkscape:connector-curvature="0" />
	<path style="fill:none;stroke:red;stroke-width:1px;stroke-linecap:butt;stroke-linejoin:miter;stroke-opacity:1" d="M 628.754,698.291 637.446,705.897 z" id="boundary" inkscape:connector-curvature="0" />
	<path style="fill:none;stroke:red;stroke-width:1px;stroke-linecap:butt;stroke-linejoin:miter;stroke-opacity:1" d="M 630.927,561.389 637.446,570.081 z" id="boundary" inkscape:connector-curvature="0" />
	<path style="fill:none;stroke:red;stroke-width:1px;stroke-linecap:butt;stroke-linejoin:miter;stroke-opacity:1" d="M 637.446,570.081 646.138,577.687 z" id="boundary" inkscape:connector-curvature="0" />
	<path style="fill:none;stroke:red;stroke-width:1px;stroke-linecap:butt;stroke-linejoin:miter;stroke-opacity:1" d="M 637.446,705.897 643.965,714.589 z" id="boundary" inkscape:connector-curvature="0" />
	<path style="fill:none;stroke:red;stroke-width:1px;stroke-linecap:butt;stroke-linejoin:miter;stroke-opacity:1" d="M 643.965,714.589 651.571,723.281 z" id="boundary" inkscape:connector-curvature="0" />
	<path style="fill:none;stroke:red;stroke-width:1px;stroke-linecap:butt;stroke-linejoin:miter;stroke-opacity:1" d="M 646.138,577.687 654.83,585.292 z" id="boundary" inkscape:connector-curvature="0" />
	<path style="fill:none;stroke:red;stroke-width:1px;stroke-linecap:butt;stroke-linejoin:miter;stroke-opacity:1" d="M 651.571,723.281 661.349,728.714 z" id="boundary" inkscape:connector-curvature="0" />
	<path style="fill:none;stroke:red;stroke-width:1px;stroke-linecap:butt;stroke-linejoin:miter;stroke-opacity:1" d="M 654.83,585.292 662.436,593.985 z" id="boundary" inkscape:connector-curvature="0" />
	<path style="fill:none;stroke:red;stroke-width:1px;stroke-linecap:butt;stroke-linejoin:miter;stroke-opacity:1" d="M 661.349,728.714 667.869,737.406 z" id="boundary" inkscape:connector-curvature="0" />
	<path style="fill:none;stroke:red;stroke-width:1px;stroke-linecap:butt;stroke-linejoin:miter;stroke-opacity:1" d="M 662.436,593.985 671.128,600.504 z" id="boundary" inkscape:connector-curvature="0" />
	<path style="fill:none;stroke:red;stroke-width:1px;stroke-linecap:butt;stroke-linejoin:miter;stroke-opacity:1" d="M 667.869,737.406 676.561,743.926 z" id="boundary" inkscape:connector-curvature="0" />
	<path style="fill:none;stroke:red;stroke-width:1px;stroke-linecap:butt;stroke-linejoin:miter;stroke-opacity:1" d="M 671.128,600.504 679.82,607.023 z" id="boundary" inkscape:connector-curvature="0" />
	<path style="fill:none;stroke:red;stroke-width:1px;stroke-linecap:butt;stroke-linejoin:miter;stroke-opacity:1" d="M 676.561,743.926 684.166,752.618 z" id="boundary" inkscape:connector-curvature="0" />
	<path style="fill:none;stroke:red;stroke-width:1px;stroke-linecap:butt;stroke-linejoin:miter;stroke-opacity:1" d="M 679.82,607.023 686.34,615.715 z" id="boundary" inkscape:connector-curvature="0" />
	<path style="fill:none;stroke:red;stroke-width:1px;stroke-linecap:butt;stroke-linejoin:miter;stroke-opacity:1" d="M 684.166,752.618 690.686,761.31 z" id="boundary" inkscape:connector-curvature="0" />
	<path style="fill:none;stroke:red;stroke-width:1px;stroke-linecap:butt;stroke-linejoin:miter;stroke-opacity:1" d="M 686.34,615.715 695.032,622.234 z" id="boundary" inkscape:connector-curvature="0" />
	<path style="fill:none;stroke:red;stroke-width:1px;stroke-linecap:butt;stroke-linejoin:miter;stroke-opacity:1" d="M 690.686,761.31 697.205,770.002 z" id="boundary" inkscape:connector-curvature="0" />
	<path style="fill:none;stroke:red;stroke-width:1px;stroke-linecap:butt;stroke-linejoin:miter;stroke-opacity:1" d="M 695.032,622.234 702.637,630.927 z" id="boundary" inkscape:connector-curvature="0" />
	<path style="fill:none;stroke:red;stroke-width:1px;stroke-linecap:butt;stroke-linejoin:miter;stroke-opacity:1" d="M 697.205,770.002 702.637,779.781 z" id="boundary" inkscape:connector-curvature="0" />
	<path style="fill:none;stroke:red;stroke-width:1px;stroke-linecap:butt;stroke-linejoin:miter;stroke-opacity:1" d="M 702.637,630.927 712.416,636.359 z" id="boundary" inkscape:connector-curvature="0" />
	<path style="fill:none;stroke:red;stroke-width:1px;stroke-linecap:butt;stroke-linejoin:miter;stroke-opacity:1" d="M 702.637,779.781 711.33,786.3 z" id="boundary" inkscape:connector-curvature="0" />
	<path style="fill:none;stroke:red;stroke-width:1px;stroke-linecap:butt;stroke-linejoin:miter;stroke-opacity:1" d="M 711.33,786.3 718.935,794.992 z" id="boundary" inkscape:connector-curvature="0" />
	<path style="fill:none;stroke:red;stroke-width:1px;stroke-linecap:butt;stroke-linejoin:miter;stroke-opacity:1" d="M 712.416,636.359 718.935,645.051 z" id="boundary" inkscape:connector-curvature="0" />
	<path style="fill:none;stroke:red;stroke-width:1px;stroke-linecap:butt;stroke-linejoin:miter;stroke-opacity:1" d="M 718.935,645.051 727.628,652.657 z" id="boundary" inkscape:connector-curvature="0" />
	<path style="fill:none;stroke:red;stroke-width:1px;stroke-linecap:butt;stroke-linejoin:miter;stroke-opacity:1" d="M 718.935,794.992 726.541,803.685 z" id="boundary" inkscape:connector-curvature="0" />
	<path style="fill:none;stroke:red;stroke-width:1px;stroke-linecap:butt;stroke-linejoin:miter;stroke-opacity:1" d="M 726.541,803.685 733.06,812.377 z" id="boundary" inkscape:connector-curvature="0" />
	<path style="fill:none;stroke:red;stroke-width:1px;stroke-linecap:butt;stroke-linejoin:miter;stroke-opacity:1" d="M 727.628,652.657 736.32,660.263 z" id="boundary" inkscape:connector-curvature="0" />
	<path style="fill:none;stroke:red;stroke-width:1px;stroke-linecap:butt;stroke-linejoin:miter;stroke-opacity:1" d="M 733.06,812.377 739.579,821.069 z" id="boundary" inkscape:connector-curvature="0" />
	<path style="fill:none;stroke:red;stroke-width:1px;stroke-linecap:butt;stroke-linejoin:miter;stroke-opacity:1" d="M 736.32,660.263 745.012,667.869 z" id="boundary" inkscape:connector-curvature="0" />
	<path style="fill:none;stroke:red;stroke-width:1px;stroke-linecap:butt;stroke-linejoin:miter;stroke-opacity:1" d="M 739.579,821.069 747.185,829.761 z" id="boundary" inkscape:connector-curvature="0" />
	<path style="fill:none;stroke:red;stroke-width:1px;stroke-linecap:butt;stroke-linejoin:miter;stroke-opacity:1" d="M 745.012,667.869 750.445,677.647 z" id="boundary" inkscape:connector-curvature="0" />
	<path style="fill:none;stroke:red;stroke-width:1px;stroke-linecap:butt;stroke-linejoin:miter;stroke-opacity:1" d="M 747.185,829.761 752.618,839.54 z" id="boundary" inkscape:connector-curvature="0" />
	<path style="fill:none;stroke:red;stroke-width:1px;stroke-linecap:butt;stroke-linejoin:miter;stroke-opacity:1" d="M 750.445,677.647 759.137,684.166 z" id="boundary" inkscape:connector-curvature="0" />
	<path style="fill:none;stroke:red;stroke-width:1px;stroke-linecap:butt;stroke-linejoin:miter;stroke-opacity:1" d="M 752.618,839.54 761.31,846.059 z" id="boundary" inkscape:connector-curvature="0" />
	<path style="fill:none;stroke:red;stroke-width:1px;stroke-linecap:butt;stroke-linejoin:miter;stroke-opacity:1" d="M 759.137,684.166 767.829,690.686 z" id="boundary" inkscape:connector-curvature="0" />
	<path style="fill:none;stroke:red;stroke-width:1px;stroke-linecap:butt;stroke-linejoin:miter;stroke-opacity:1" d="M 761.31,846.059 767.829,854.751 z" id="boundary" inkscape:connector-curvature="0" />
	<path style="fill:none;stroke:red;stroke-width:1px;stroke-linecap:butt;stroke-linejoin:miter;stroke-opacity:1" d="M 767.829,690.686 774.348,699.378 z" id="boundary" inkscape:connector-curvature="0" />
	<path style="fill:none;stroke:red;stroke-width:1px;stroke-linecap:butt;stroke-linejoin:miter;stroke-opacity:1" d="M 767.829,854.751 780.867,868.876 z" id="boundary" inkscape:connector-curvature="0" />
	<path style="fill:none;stroke:red;stroke-width:1px;stroke-linecap:butt;stroke-linejoin:miter;stroke-opacity:1" d="M 774.348,699.378 783.041,706.984 z" id="boundary" inkscape:connector-curvature="0" />
	<path style="fill:none;stroke:red;stroke-width:1px;stroke-linecap:butt;stroke-linejoin:miter;stroke-opacity:1" d="M 780.867,868.876 787.387,877.568 z" id="boundary" inkscape:connector-curvature="0" />
	<path style="fill:none;stroke:red;stroke-width:1px;stroke-linecap:butt;stroke-linejoin:miter;stroke-opacity:1" d="M 783.041,706.984 789.56,715.676 z" id="boundary" inkscape:connector-curvature="0" />
	<path style="fill:none;stroke:red;stroke-width:1px;stroke-linecap:butt;stroke-linejoin:miter;stroke-opacity:1" d="M 787.387,877.568 792.819,887.347 z" id="boundary" inkscape:connector-curvature="0" />
	<path style="fill:none;stroke:red;stroke-width:1px;stroke-linecap:butt;stroke-linejoin:miter;stroke-opacity:1" d="M 789.56,715.676 798.252,722.195 z" id="boundary" inkscape:connector-curvature="0" />
	<path style="fill:none;stroke:red;stroke-width:1px;stroke-linecap:butt;stroke-linejoin:miter;stroke-opacity:1" d="M 792.819,887.347 800.425,896.039 z" id="boundary" inkscape:connector-curvature="0" />
	<path style="fill:none;stroke:red;stroke-width:1px;stroke-linecap:butt;stroke-linejoin:miter;stroke-opacity:1" d="M 798.252,722.195 808.031,727.628 z" id="boundary" inkscape:connector-curvature="0" />
	<path style="fill:none;stroke:red;stroke-width:1px;stroke-linecap:butt;stroke-linejoin:miter;stroke-opacity:1" d="M 800.425,896.039 808.031,904.732 z" id="boundary" inkscape:connector-curvature="0" />
	<path style="fill:none;stroke:red;stroke-width:1px;stroke-linecap:butt;stroke-linejoin:miter;stroke-opacity:1" d="M 808.031,727.628 808.031,738.493 z" id="boundary" inkscape:connector-curvature="0" />
	<path style="fill:none;stroke:red;stroke-width:1px;stroke-linecap:butt;stroke-linejoin:miter;stroke-opacity:1" d="M 808.031,738.493 816.723,745.012 z" id="boundary" inkscape:connector-curvature="0" />
	<path style="fill:none;stroke:red;stroke-width:1px;stroke-linecap:butt;stroke-linejoin:miter;stroke-opacity:1" d="M 808.031,904.732 815.636,913.424 z" id="boundary" inkscape:connector-curvature="0" />
	<path style="fill:none;stroke:red;stroke-width:1px;stroke-linecap:butt;stroke-linejoin:miter;stroke-opacity:1" d="M 815.636,913.424 825.415,918.857 z" id="boundary" inkscape:connector-curvature="0" />
	<path style="fill:none;stroke:red;stroke-width:1px;stroke-linecap:butt;stroke-linejoin:miter;stroke-opacity:1" d="M 816.723,745.012 826.502,750.445 z" id="boundary" inkscape:connector-curvature="0" />
	<path style="fill:none;stroke:red;stroke-width:1px;stroke-linecap:butt;stroke-linejoin:miter;stroke-opacity:1" d="M 825.415,918.857 834.107,926.462 z" id="boundary" inkscape:connector-curvature="0" />
	<path style="fill:none;stroke:red;stroke-width:1px;stroke-linecap:butt;stroke-linejoin:miter;stroke-opacity:1" d="M 826.502,750.445 829.761,761.31 z" id="boundary" inkscape:connector-curvature="0" />
	<path style="fill:none;stroke:red;stroke-width:1px;stroke-linecap:butt;stroke-linejoin:miter;stroke-opacity:1" d="M 829.761,761.31 838.453,768.916 z" id="boundary" inkscape:connector-curvature="0" />
	<path style="fill:none;stroke:red;stroke-width:1px;stroke-linecap:butt;stroke-linejoin:miter;stroke-opacity:1" d="M 834.107,926.462 842.8,932.981 z" id="boundary" inkscape:connector-curvature="0" />
	<path style="fill:none;stroke:red;stroke-width:1px;stroke-linecap:butt;stroke-linejoin:miter;stroke-opacity:1" d="M 838.453,768.916 844.973,777.608 z" id="boundary" inkscape:connector-curvature="0" />
	<path style="fill:none;stroke:red;stroke-width:1px;stroke-linecap:butt;stroke-linejoin:miter;stroke-opacity:1" d="M 842.8,932.981 851.492,940.587 z" id="boundary" inkscape:connector-curvature="0" />
	<path style="fill:none;stroke:red;stroke-width:1px;stroke-linecap:butt;stroke-linejoin:miter;stroke-opacity:1" d="M 844.973,777.608 852.578,786.3 z" id="boundary" inkscape:connector-curvature="0" />
	<path style="fill:none;stroke:red;stroke-width:1px;stroke-linecap:butt;stroke-linejoin:miter;stroke-opacity:1" d="M 851.492,940.587 860.184,947.106 z" id="boundary" inkscape:connector-curvature="0" />
	<path style="fill:none;stroke:red;stroke-width:1px;stroke-linecap:butt;stroke-linejoin:miter;stroke-opacity:1" d="M 852.578,786.3 859.097,794.992 z" id="boundary" inkscape:connector-curvature="0" />
	<path style="fill:none;stroke:red;stroke-width:1px;stroke-linecap:butt;stroke-linejoin:miter;stroke-opacity:1" d="M 859.097,794.992 866.703,803.685 z" id="boundary" inkscape:connector-curvature="0" />
	<path style="fill:none;stroke:red;stroke-width:1px;stroke-linecap:butt;stroke-linejoin:miter;stroke-opacity:1" d="M 860.184,947.106 869.963,952.539 z" id="boundary" inkscape:connector-curvature="0" />
	<path style="fill:none;stroke:red;stroke-width:1px;stroke-linecap:butt;stroke-linejoin:miter;stroke-opacity:1" d="M 866.703,803.685 874.309,812.377 z" id="boundary" inkscape:connector-curvature="0" />
	<path style="fill:none;stroke:red;stroke-width:1px;stroke-linecap:butt;stroke-linejoin:miter;stroke-opacity:1" d="M 869.963,952.539 878.655,960.145 z" id="boundary" inkscape:connector-curvature="0" />
	<path style="fill:none;stroke:red;stroke-width:1px;stroke-linecap:butt;stroke-linejoin:miter;stroke-opacity:1" d="M 874.309,812.377 883.001,818.896 z" id="boundary" inkscape:connector-curvature="0" />
	<path style="fill:none;stroke:red;stroke-width:1px;stroke-linecap:butt;stroke-linejoin:miter;stroke-opacity:1" d="M 878.655,960.145 887.347,966.664 z" id="boundary" inkscape:connector-curvature="0" />
	<path style="fill:none;stroke:red;stroke-width:1px;stroke-linecap:butt;stroke-linejoin:miter;stroke-opacity:1" d="M 883.001,818.896 889.52,827.588 z" id="boundary" inkscape:connector-curvature="0" />
	<path style="fill:none;stroke:red;stroke-width:1px;stroke-linecap:butt;stroke-linejoin:miter;stroke-opacity:1" d="M 887.347,966.664 897.126,972.096 z" id="boundary" inkscape:connector-curvature="0" />
	<path style="fill:none;stroke:red;stroke-width:1px;stroke-linecap:butt;stroke-linejoin:miter;stroke-opacity:1" d="M 889.52,827.588 898.212,835.194 z" id="boundary" inkscape:connector-curvature="0" />
	<path style="fill:none;stroke:red;stroke-width:1px;stroke-linecap:butt;stroke-linejoin:miter;stroke-opacity:1" d="M 898.212,835.194 903.645,844.973 z" id="boundary" inkscape:connector-curvature="0" />
	<path style="fill:none;stroke:red;stroke-width:1px;stroke-linecap:butt;stroke-linejoin:miter;stroke-opacity:1" d="M 903.645,844.973 912.337,851.492 z" id="boundary" inkscape:connector-curvature="0" />
	<path style="fill:none;stroke:red;stroke-width:1px;stroke-linecap:butt;stroke-linejoin:miter;stroke-opacity:1" d="M 912.337,851.492 917.77,861.271 z" id="boundary" inkscape:connector-curvature="0" />
	<path style="fill:none;stroke:red;stroke-width:1px;stroke-linecap:butt;stroke-linejoin:miter;stroke-opacity:1" d="M 917.77,861.271 924.289,869.963 z" id="boundary" inkscape:connector-curvature="0" />
	<path style="fill:none;stroke:red;stroke-width:1px;stroke-linecap:butt;stroke-linejoin:miter;stroke-opacity:1" d="M 924.289,869.963 932.981,877.568 z" id="boundary" inkscape:connector-curvature="0" />
	<path style="fill:none;stroke:red;stroke-width:1px;stroke-linecap:butt;stroke-linejoin:miter;stroke-opacity:1" d="M 929.722,982.962 951.452,984.048 z" id="boundary" inkscape:connector-curvature="0" />
	<path style="fill:none;stroke:red;stroke-width:1px;stroke-linecap:butt;stroke-linejoin:miter;stroke-opacity:1" d="M 932.981,877.568 941.674,884.088 z" id="boundary" inkscape:connector-curvature="0" />
	<path style="fill:none;stroke:red;stroke-width:1px;stroke-linecap:butt;stroke-linejoin:miter;stroke-opacity:1" d="M 941.674,884.088 947.106,893.866 z" id="boundary" inkscape:connector-curvature="0" />
	<path style="fill:none;stroke:red;stroke-width:1px;stroke-linecap:butt;stroke-linejoin:miter;stroke-opacity:1" d="M 947.106,893.866 953.625,902.559 z" id="boundary" inkscape:connector-curvature="0" />
	<path style="fill:none;stroke:red;stroke-width:1px;stroke-linecap:butt;stroke-linejoin:miter;stroke-opacity:1" d="M 951.452,984.048 962.318,984.048 z" id="boundary" inkscape:connector-curvature="0" />
	<path style="fill:none;stroke:red;stroke-width:1px;stroke-linecap:butt;stroke-linejoin:miter;stroke-opacity:1" d="M 953.625,902.559 961.231,911.251 z" id="boundary" inkscape:connector-curvature="0" />
	<path style="fill:none;stroke:red;stroke-width:1px;stroke-linecap:butt;stroke-linejoin:miter;stroke-opacity:1" d="M 961.231,911.251 971.01,916.683 z" id="boundary" inkscape:connector-curvature="0" />
	<path style="fill:none;stroke:red;stroke-width:1px;stroke-linecap:butt;stroke-linejoin:miter;stroke-opacity:1" d="M 962.318,984.048 984.048,977.529 z" id="boundary" inkscape:connector-curvature="0" />
	<path style="fill:none;stroke:red;stroke-width:1px;stroke-linecap:butt;stroke-linejoin:miter;stroke-opacity:1" d="M 971.01,916.683 979.702,924.289 z" id="boundary" inkscape:connector-curvature="0" />
	<path style="fill:none;stroke:red;stroke-width:1px;stroke-linecap:butt;stroke-linejoin:miter;stroke-opacity:1" d="M 979.702,924.289 984.048,935.154 z" id="boundary" inkscape:connector-curvature="0" />
	<path style="fill:none;stroke:red;stroke-width:1px;stroke-linecap:butt;stroke-linejoin:miter;stroke-opacity:1" d="M 984.048,935.154 996,955.798 z" id="boundary" inkscape:connector-curvature="0" />
	<path style="fill:none;stroke:red;stroke-width:1px;stroke-linecap:butt;stroke-linejoin:miter;stroke-opacity:1" d="M 984.048,977.529 996,955.798 z" id="boundary" inkscape:connector-curvature="0" />
	<circle cx="4" cy="14.8653" r="4" fill="#0" id="circle0"/>
	<circle cx="5.08653" cy="25.7306" r="4" fill="#0" id="circle1"/>
	<circle cx="7.25958" cy="39.8554" r="4" fill="#0" id="circle2"/>
	<circle cx="9.43264" cy="4" r="4" fill="#0" id="circle3"/>
	<circle cx="10.5192" cy="50.7207" r="4" fill="#0" id="circle4"/>
	<circle cx="12.6922" cy="61.586" r="4" fill="#0" id="circle5"/>
	<circle cx="17.0383" cy="72.4513" r="4" fill="#0" id="circle6"/>
	<circle cx="19.2114" cy="9.43264" r="4" fill="#0" id="circle7"/>
	<circle cx="20.2979" cy="83.3165" r="4" fill="#0" id="circle8"/>
	<circle cx="24.644" cy="94.1818" r="4" fill="#0" id="circle9"/>
	<circle cx="26.8171" cy="18.1249" r="4" fill="#0" id="circle10"/>
	<circle cx="30.0767" cy="103.961" r="4" fill="#0" id="circle11"/>
	<circle cx="32.2497" cy="114.826" r="4" fill="#0" id="circle12"/>
	<circle cx="35.5093" cy="25.7306" r="4" fill="#0" id="circle13"/>
	<circle cx="38.7689" cy="128.951" r="4" fill="#0" id="circle14"/>
	<circle cx="44.2015" cy="33.3363" r="4" fill="#0" id="circle15"/>
	<circle cx="45.2881" cy="137.643" r="4" fill="#0" id="circle16"/>
	<circle cx="50.7207" cy="42.0285" r="4" fill="#0" id="circle17"/>
	<circle cx="50.7207" cy="147.422" r="4" fill="#0" id="circle18"/>
	<circle cx="57.2399" cy="50.7207" r="4" fill="#0" id="circle19"/>
	<circle cx="57.2399" cy="156.114" r="4" fill="#0" id="circle20"/>
	<circle cx="63.759" cy="164.806" r="4" fill="#0" id="circle21"/>
	<circle cx="65.9321" cy="57.2399" r="4" fill="#0" id="circle22"/>
	<circle cx="68.1051" cy="175.671" r="4" fill="#0" id="circle23"/>
	<circle cx="74.6243" cy="64.8456" r="4" fill="#0" id="circle24"/>
	<circle cx="76.7974" cy="182.191" r="4" fill="#0" id="circle25"/>
	<circle cx="81.1435" cy="73.5378" r="4" fill="#0" id="circle26"/>
	<circle cx="82.23" cy="191.969" r="4" fill="#0" id="circle27"/>
	<circle cx="89.8357" cy="80.057" r="4" fill="#0" id="circle28"/>
	<circle cx="89.8357" cy="200.662" r="4" fill="#0" id="circle29"/>
	<circle cx="96.3549" cy="209.354" r="4" fill="#0" id="circle30"/>
	<circle cx="97.4414" cy="88.7492" r="4" fill="#0" id="circle31"/>
	<circle cx="103.961" cy="218.046" r="4" fill="#0" id="circle32"/>
	<circle cx="106.134" cy="96.3549" r="4" fill="#0" id="circle33"/>
	<circle cx="111.566" cy="226.738" r="4" fill="#0" id="circle34"/>
	<circle cx="112.653" cy="105.047" r="4" fill="#0" id="circle35"/>
	<circle cx="119.172" cy="235.43" r="4" fill="#0" id="circle36"/>
	<circle cx="121.345" cy="111.566" r="4" fill="#0" id="circle37"/>
	<circle cx="125.691" cy="244.123" r="4" fill="#0" id="circle38"/>
	<circle cx="130.037" cy="118.085" r="4" fill="#0" id="circle39"/>
	<circle cx="135.47" cy="249.555" r="4" fill="#0" id="circle40"/>
	<circle cx="136.556" cy="126.778" r="4" fill="#0" id="circle41"/>
	<circle cx="144.162" cy="257.161" r="4" fill="#0" id="circle42"/>
	<circle cx="145.249" cy="134.383" r="4" fill="#0" id="circle43"/>
	<circle cx="150.681" cy="265.853" r="4" fill="#0" id="circle44"/>
	<circle cx="153.941" cy="141.989" r="4" fill="#0" id="circle45"/>
	<circle cx="157.2" cy="274.545" r="4" fill="#0" id="circle46"/>
	<circle cx="161.547" cy="150.681" r="4" fill="#0" id="circle47"/>
	<circle cx="165.893" cy="281.065" r="4" fill="#0" id="circle48"/>
	<circle cx="170.239" cy="158.287" r="4" fill="#0" id="circle49"/>
	<circle cx="174.585" cy="287.584" r="4" fill="#0" id="circle50"/>
	<circle cx="178.931" cy="165.893" r="4" fill="#0" id="circle51"/>
	<circle cx="183.277" cy="294.103" r="4" fill="#0" id="circle52"/>
	<circle cx="186.537" cy="174.585" r="4" fill="#0" id="circle53"/>
	<circle cx="189.796" cy="302.795" r="4" fill="#0" id="circle54"/>
	<circle cx="195.229" cy="181.104" r="4" fill="#0" id="circle55"/>
	<circle cx="196.315" cy="311.487" r="4" fill="#0" id="circle56"/>
	<circle cx="203.921" cy="188.71" r="4" fill="#0" id="circle57"/>
	<circle cx="206.094" cy="316.92" r="4" fill="#0" id="circle58"/>
	<circle cx="210.44" cy="197.402" r="4" fill="#0" id="circle59"/>
	<circle cx="213.7" cy="325.612" r="4" fill="#0" id="circle60"/>
	<circle cx="219.133" cy="203.921" r="4" fill="#0" id="circle61"/>
	<circle cx="222.392" cy="332.131" r="4" fill="#0" id="circle62"/>
	<circle cx="225.652" cy="212.613" r="4" fill="#0" id="circle63"/>
	<circle cx="231.084" cy="339.737" r="4" fill="#0" id="circle64"/>
	<circle cx="234.344" cy="219.133" r="4" fill="#0" id="circle65"/>
	<circle cx="238.69" cy="348.429" r="4" fill="#0" id="circle66"/>
	<circle cx="243.036" cy="225.652" r="4" fill="#0" id="circle67"/>
	<circle cx="246.296" cy="357.122" r="4" fill="#0" id="circle68"/>
	<circle cx="251.728" cy="232.171" r="4" fill="#0" id="circle69"/>
	<circle cx="254.988" cy="363.641" r="4" fill="#0" id="circle70"/>
	<circle cx="260.421" cy="239.777" r="4" fill="#0" id="circle71"/>
	<circle cx="263.68" cy="370.16" r="4" fill="#0" id="circle72"/>
	<circle cx="268.026" cy="248.469" r="4" fill="#0" id="circle73"/>
	<circle cx="271.286" cy="378.852" r="4" fill="#0" id="circle74"/>
	<circle cx="276.719" cy="256.074" r="4" fill="#0" id="circle75"/>
	<circle cx="279.978" cy="385.371" r="4" fill="#0" id="circle76"/>
	<circle cx="285.411" cy="262.594" r="4" fill="#0" id="circle77"/>
	<circle cx="287.584" cy="394.064" r="4" fill="#0" id="circle78"/>
	<circle cx="293.016" cy="271.286" r="4" fill="#0" id="circle79"/>
	<circle cx="296.276" cy="401.669" r="4" fill="#0" id="circle80"/>
	<circle cx="301.709" cy="277.805" r="4" fill="#0" id="circle81"/>
	<circle cx="303.882" cy="410.361" r="4" fill="#0" id="circle82"/>
	<circle cx="310.401" cy="284.324" r="4" fill="#0" id="circle83"/>
	<circle cx="312.574" cy="416.881" r="4" fill="#0" id="circle84"/>
	<circle cx="319.093" cy="291.93" r="4" fill="#0" id="circle85"/>
	<circle cx="319.093" cy="425.573" r="4" fill="#0" id="circle86"/>
	<circle cx="326.699" cy="434.265" r="4" fill="#0" id="circle87"/>
	<circle cx="327.785" cy="298.449" r="4" fill="#0" id="circle88"/>
	<circle cx="334.304" cy="307.141" r="4" fill="#0" id="circle89"/>
	<circle cx="336.478" cy="439.698" r="4" fill="#0" id="circle90"/>
	<circle cx="342.997" cy="313.66" r="4" fill="#0" id="circle91"/>
	<circle cx="342.997" cy="448.39" r="4" fill="#0" id="circle92"/>
	<circle cx="351.689" cy="454.909" r="4" fill="#0" id="circle93"/>
	<circle cx="352.775" cy="319.093" r="4" fill="#0" id="circle94"/>
	<circle cx="357.122" cy="464.688" r="4" fill="#0" id="circle95"/>
	<circle cx="361.468" cy="325.612" r="4" fill="#0" id="circle96"/>
	<circle cx="365.814" cy="471.207" r="4" fill="#0" id="circle97"/>
	<circle cx="370.16" cy="333.218" r="4" fill="#0" id="circle98"/>
	<circle cx="374.506" cy="477.726" r="4" fill="#0" id="circle99"/>
	<circle cx="379.939" cy="338.651" r="4" fill="#0" id="circle100"/>
	<circle cx="383.198" cy="484.245" r="4" fill="#0" id="circle101"/>
	<circle cx="387.544" cy="347.343" r="4" fill="#0" id="circle102"/>
	<circle cx="390.804" cy="492.938" r="4" fill="#0" id="circle103"/>
	<circle cx="396.237" cy="353.862" r="4" fill="#0" id="circle104"/>
	<circle cx="400.583" cy="498.37" r="4" fill="#0" id="circle105"/>
	<circle cx="404.929" cy="360.381" r="4" fill="#0" id="circle106"/>
	<circle cx="409.275" cy="504.889" r="4" fill="#0" id="circle107"/>
	<circle cx="413.621" cy="366.9" r="4" fill="#0" id="circle108"/>
	<circle cx="416.881" cy="513.582" r="4" fill="#0" id="circle109"/>
	<circle cx="420.14" cy="375.593" r="4" fill="#0" id="circle110"/>
	<circle cx="422.313" cy="523.36" r="4" fill="#0" id="circle111"/>
	<circle cx="428.832" cy="382.112" r="4" fill="#0" id="circle112"/>
	<circle cx="433.179" cy="526.62" r="4" fill="#0" id="circle113"/>
	<circle cx="436.438" cy="390.804" r="4" fill="#0" id="circle114"/>
	<circle cx="441.871" cy="534.226" r="4" fill="#0" id="circle115"/>
	<circle cx="445.13" cy="397.323" r="4" fill="#0" id="circle116"/>
	<circle cx="447.303" cy="544.004" r="4" fill="#0" id="circle117"/>
	<circle cx="453.823" cy="404.929" r="4" fill="#0" id="circle118"/>
	<circle cx="457.082" cy="549.437" r="4" fill="#0" id="circle119"/>
	<circle cx="461.428" cy="413.621" r="4" fill="#0" id="circle120"/>
	<circle cx="462.515" cy="559.216" r="4" fill="#0" id="circle121"/>
	<circle cx="469.034" cy="422.313" r="4" fill="#0" id="circle122"/>
	<circle cx="471.207" cy="565.735" r="4" fill="#0" id="circle123"/>
	<circle cx="477.726" cy="428.832" r="4" fill="#0" id="circle124"/>
	<circle cx="477.726" cy="574.427" r="4" fill="#0" id="circle125"/>
	<circle cx="484.245" cy="437.525" r="4" fill="#0" id="circle126"/>
	<circle cx="484.245" cy="583.119" r="4" fill="#0" id="circle127"/>
	<circle cx="492.938" cy="444.044" r="4" fill="#0" id="circle128"/>
	<circle cx="494.024" cy="588.552" r="4" fill="#0" id="circle129"/>
	<circle cx="501.63" cy="451.65" r="4" fill="#0" id="circle130"/>
	<circle cx="501.63" cy="597.244" r="4" fill="#0" id="circle131"/>
	<circle cx="508.149" cy="460.342" r="4" fill="#0" id="circle132"/>
	<circle cx="512.495" cy="600.504" r="4" fill="#0" id="circle133"/>
	<circle cx="516.841" cy="466.861" r="4" fill="#0" id="circle134"/>
	<circle cx="523.36" cy="601.59" r="4" fill="#0" id="circle135"/>
	<circle cx="524.447" cy="475.553" r="4" fill="#0" id="circle136"/>
	<circle cx="528.793" cy="611.369" r="4" fill="#0" id="circle137"/>
	<circle cx="533.139" cy="482.072" r="4" fill="#0" id="circle138"/>
	<circle cx="535.312" cy="620.061" r="4" fill="#0" id="circle139"/>
	<circle cx="542.918" cy="487.505" r="4" fill="#0" id="circle140"/>
	<circle cx="545.091" cy="625.494" r="4" fill="#0" id="circle141"/>
	<circle cx="548.35" cy="497.284" r="4" fill="#0" id="circle142"/>
	<circle cx="554.87" cy="630.927" r="4" fill="#0" id="circle143"/>
	<circle cx="557.043" cy="503.803" r="4" fill="#0" id="circle144"/>
	<circle cx="563.562" cy="638.532" r="4" fill="#0" id="circle145"/>
	<circle cx="565.735" cy="511.409" r="4" fill="#0" id="circle146"/>
	<circle cx="570.081" cy="647.225" r="4" fill="#0" id="circle147"/>
	<circle cx="572.254" cy="520.101" r="4" fill="#0" id="circle148"/>
	<circle cx="578.773" cy="528.793" r="4" fill="#0" id="circle149"/>
	<circle cx="579.86" cy="652.657" r="4" fill="#0" id="circle150"/>
	<circle cx="580.946" cy="539.658" r="4" fill="#0" id="circle151"/>
	<circle cx="588.552" cy="660.263" r="4" fill="#0" id="circle152"/>
	<circle cx="591.812" cy="541.831" r="4" fill="#0" id="circle153"/>
	<circle cx="596.158" cy="668.955" r="4" fill="#0" id="circle154"/>
	<circle cx="602.677" cy="544.004" r="4" fill="#0" id="circle155"/>
	<circle cx="602.677" cy="677.647" r="4" fill="#0" id="circle156"/>
	<circle cx="611.369" cy="550.524" r="4" fill="#0" id="circle157"/>
	<circle cx="612.456" cy="683.08" r="4" fill="#0" id="circle158"/>
	<circle cx="620.061" cy="691.772" r="4" fill="#0" id="circle159"/>
	<circle cx="621.148" cy="555.956" r="4" fill="#0" id="circle160"/>
	<circle cx="628.754" cy="698.291" r="4" fill="#0" id="circle161"/>
	<circle cx="630.927" cy="561.389" r="4" fill="#0" id="circle162"/>
	<circle cx="637.446" cy="570.081" r="4" fill="#0" id="circle163"/>
	<circle cx="637.446" cy="705.897" r="4" fill="#0" id="circle164"/>
	<circle cx="643.965" cy="714.589" r="4" fill="#0" id="circle165"/>
	<circle cx="646.138" cy="577.687" r="4" fill="#0" id="circle166"/>
	<circle cx="651.571" cy="723.281" r="4" fill="#0" id="circle167"/>
	<circle cx="654.83" cy="585.292" r="4" fill="#0" id="circle168"/>
	<circle cx="661.349" cy="728.714" r="4" fill="#0" id="circle169"/>
	<circle cx="662.436" cy="593.985" r="4" fill="#0" id="circle170"/>
	<circle cx="667.869" cy="737.406" r="4" fill="#0" id="circle171"/>
	<circle cx="671.128" cy="600.504" r="4" fill="#0" id="circle172"/>
	<circle cx="676.561" cy="743.926" r="4" fill="#0" id="circle173"/>
	<circle cx="679.82" cy="607.023" r="4" fill="#0" id="circle174"/>
	<circle cx="684.166" cy="752.618" r="4" fill="#0" id="circle175"/>
	<circle cx="686.34" cy="615.715" r="4" fill="#0" id="circle176"/>
	<circle cx="690.686" cy="761.31" r="4" fill="#0" id="circle177"/>
	<circle cx="695.032" cy="622.234" r="4" fill="#0" id="circle178"/>
	<circle cx="697.205" cy="770.002" r="4" fill="#0" id="circle179"/>
	<circle cx="702.637" cy="630.927" r="4" fill="#0" id="circle180"/>
	<circle cx="702.637" cy="779.781" r="4" fill="#0" id="circle181"/>
	<circle cx="711.33" cy="786.3" r="4" fill="#0" id="circle182"/>
	<circle cx="712.416" cy="636.359" r="4" fill="#0" id="circle183"/>
	<circle cx="718.935" cy="645.051" r="4" fill="#0" id="circle184"/>
	<circle cx="718.935" cy="794.992" r="4" fill="#0" id="circle185"/>
	<circle cx="726.541" cy="803.685" r="4" fill="#0" id="circle186"/>
	<circle cx="727.628" cy="652.657" r="4" fill="#0" id="circle187"/>
	<circle cx="733.06" cy="812.377" r="4" fill="#0" id="circle188"/>
	<circle cx="736.32" cy="660.263" r="4" fill="#0" id="circle189"/>
	<circle cx="739.579" cy="821.069" r="4" fill="#0" id="circle190"/>
	<circle cx="745.012" cy="667.869" r="4" fill="#0" id="circle191"/>
	<circle cx="747.185" cy="829.761" r="4" fill="#0" id="circle192"/>
	<circle cx="750.445" cy="677.647" r="4" fill="#0" id="circle193"/>
	<circle cx="752.618" cy="839.54" r="4" fill="#0" id="circle194"/>
	<circle cx="759.137" cy="684.166" r="4" fill="#0" id="circle195"/>
	<circle cx="761.31" cy="846.059" r="4" fill="#0" id="circle196"/>
	<circle cx="767.829" cy="690.686" r="4" fill="#0" id="circle197"/>
	<circle cx="767.829" cy="854.751" r="4" fill="#0" id="circle198"/>
	<circle cx="770.002" cy="865.617" r="4" fill="#0" id="circle199"/>
	<circle cx="774.348" cy="699.378" r="4" fill="#0" id="circle200"/>
	<circle cx="780.867" cy="868.876" r="4" fill="#0" id="circle201"/>
	<circle cx="783.041" cy="706.984" r="4" fill="#0" id="circle202"/>
	<circle cx="787.387" cy="877.568" r="4" fill="#0" id="circle203"/>
	<circle cx="789.56" cy="715.676" r="4" fill="#0" id="circle204"/>
	<circle cx="792.819" cy="887.347" r="4" fill="#0" id="circle205"/>
	<circle cx="798.252" cy="722.195" r="4" fill="#0" id="circle206"/>
	<circle cx="800.425" cy="896.039" r="4" fill="#0" id="circle207"/>
	<circle cx="808.031" cy="727.628" r="4" fill="#0" id="circle208"/>
	<circle cx="808.031" cy="738.493" r="4" fill="#0" id="circle209"/>
	<circle cx="808.031" cy="904.732" r="4" fill="#0" id="circle210"/>
	<circle cx="815.636" cy="913.424" r="4" fill="#0" id="circle211"/>
	<circle cx="816.723" cy="745.012" r="4" fill="#0" id="circle212"/>
	<circle cx="825.415" cy="918.857" r="4" fill="#0" id="circle213"/>
	<circle cx="826.502" cy="750.445" r="4" fill="#0" id="circle214"/>
	<circle cx="829.761" cy="761.31" r="4" fill="#0" id="circle215"/>
	<circle cx="834.107" cy="926.462" r="4" fill="#0" id="circle216"/>
	<circle cx="838.453" cy="768.916" r="4" fill="#0" id="circle217"/>
	<circle cx="842.8" cy="932.981" r="4" fill="#0" id="circle218"/>
	<circle cx="844.973" cy="777.608" r="4" fill="#0" id="circle219"/>
	<circle cx="851.492" cy="940.587" r="4" fill="#0" id="circle220"/>
	<circle cx="852.578" cy="786.3" r="4" fill="#0" id="circle221"/>
	<circle cx="859.097" cy="794.992" r="4" fill="#0" id="circle222"/>
	<circle cx="860.184" cy="947.106" r="4" fill="#0" id="circle223"/>
	<circle cx="866.703" cy="803.685" r="4" fill="#0" id="circle224"/>
	<circle cx="869.963" cy="952.539" r="4" fill="#0" id="circle225"/>
	<circle cx="874.309" cy="812.377" r="4" fill="#0" id="circle226"/>
	<circle cx="878.655" cy="960.145" r="4" fill="#0" id="circle227"/>
	<circle cx="883.001" cy="818.896" r="4" fill="#0" id="circle228"/>
	<circle cx="887.347" cy="966.664" r="4" fill="#0" id="circle229"/>
	<circle cx="889.52" cy="827.588" r="4" fill="#0" id="circle230"/>
	<circle cx="897.126" cy="972.096" r="4" fill="#0" id="circle231"/>
	<circle cx="898.212" cy="835.194" r="4" fill="#0" id="circle232"/>
	<circle cx="903.645" cy="844.973" r="4" fill="#0" id="circle233"/>
	<circle cx="907.991" cy="976.442" r="4" fill="#0" id="circle234"/>
	<circle cx="912.337" cy="851.492" r="4" fill="#0" id="circle235"/>
	<circle cx="917.77" cy="861.271" r="4" fill="#0" id="circle236"/>
	<circle cx="918.857" cy="980.789" r="4" fill="#0" id="circle237"/>
	<circle cx="924.289" cy="869.963" r="4" fill="#0" id="circle238"/>
	<circle cx="929.722" cy="982.962" r="4" fill="#0" id="circle239"/>
	<circle cx="932.981" cy="877.568" r="4" fill="#0" id="circle240"/>
	<circle cx="940.587" cy="982.962" r="4" fill="#0" id="circle241"/>
	<circle cx="941.674" cy="884.088" r="4" fill="#0" id="circle242"/>
	<circle cx="947.106" cy="893.866" r="4" fill="#0" id="circle243"/>
	<circle cx="951.452" cy="984.048" r="4" fill="#0" id="circle244"/>
	<circle cx="953.625" cy="902.559" r="4" fill="#0" id="circle245"/>
	<circle cx="961.231" cy="911.251" r="4" fill="#0" id="circle246"/>
	<circle cx="962.318" cy="984.048" r="4" fill="#0" id="circle247"/>
	<circle cx="971.01" cy="916.683" r="4" fill="#0" id="circle248"/>
	<circle cx="973.183" cy="982.962" r="4" fill="#0" id="circle249"/>
	<circle cx="979.702" cy="924.289" r="4" fill="#0" id="circle250"/>
	<circle cx="984.048" cy="935.154" r="4" fill="#0" id="circle251"/>
	<circle cx="984.048" cy="977.529" r="4" fill="#0" id="circle252"/>
	<circle cx="992.74" cy="944.933" r="4" fill="#0" id="circle253"/>
	<circle cx="992.74" cy="968.837" r="4" fill="#0" id="circle254"/>
	<circle cx="996" cy="955.798" r="4" fill="#0" id="circle255"/>
	</g>
</svg>