<?xml version="1.0" encoding="UTF-8" standalone="no"?>
<!-- Created with CurveBenchmark -->
<svg
	xmlns:dc="http://purl.org/dc/elements/1.1/"
	xmlns:cc="http://creativecommons.org/ns#"
	xmlns:rdf="http://www.w3.org/1999/02/22-rdf-syntax-ns#"
	xmlns:svg="http://www.w3.org/2000/svg"
	xmlns="http://www.w3.org/2000/svg"
	xmlns:sodipodi="http://sodipodi.sourceforge.net/DTD/sodipodi-0.dtd"
	xmlns:inkscape="http://www.inkscape.org/namespaces/inkscape"
	width="1000"
	height="1000"
	id="svg2"
	version="1.1"
	sodipodi:docname="manifold/vicur-carriage14.png.txt">
<defs
	id="defs4" />
<metadata
	id="metadata7">
	<rdf:RDF>
		<cc:Work
			rdf:about="">
			<dc:format>image/svg+xml</dc:format>
			<dc:type
				rdf:resource="http://purl.org/dc/dcmitype/StillImage" />
			<dc:title></dc:title>
		</cc:Work>
	</rdf:RDF>
</metadata>
<g
	inkscape:label="Layer 1"
	inkscape:groupmode="layer"
	id="layer1">
	<path style="fill:none;stroke:red;stroke-width:1px;stroke-linecap:butt;stroke-linejoin:miter;stroke-opacity:1" d="M 4,133.826 12.3221,117.181 z" id="boundary" inkscape:connector-curvature="0" />
	<path style="fill:none;stroke:red;stroke-width:1px;stroke-linecap:butt;stroke-linejoin:miter;stroke-opacity:1" d="M 4,133.826 17.3154,145.477 z" id="boundary" inkscape:connector-curvature="0" />
	<path style="fill:none;stroke:red;stroke-width:1px;stroke-linecap:butt;stroke-linejoin:miter;stroke-opacity:1" d="M 12.3221,117.181 20.6443,92.2148 z" id="boundary" inkscape:connector-curvature="0" />
	<path style="fill:none;stroke:red;stroke-width:1px;stroke-linecap:butt;stroke-linejoin:miter;stroke-opacity:1" d="M 17.3154,145.477 28.9664,158.792 z" id="boundary" inkscape:connector-curvature="0" />
	<path style="fill:none;stroke:red;stroke-width:1px;stroke-linecap:butt;stroke-linejoin:miter;stroke-opacity:1" d="M 20.6443,92.2148 37.2886,75.5705 z" id="boundary" inkscape:connector-curvature="0" />
	<path style="fill:none;stroke:red;stroke-width:1px;stroke-linecap:butt;stroke-linejoin:miter;stroke-opacity:1" d="M 28.9664,158.792 45.6107,158.792 z" id="boundary" inkscape:connector-curvature="0" />
	<path style="fill:none;stroke:red;stroke-width:1px;stroke-linecap:butt;stroke-linejoin:miter;stroke-opacity:1" d="M 37.2886,75.5705 53.9329,67.2483 z" id="boundary" inkscape:connector-curvature="0" />
	<path style="fill:none;stroke:red;stroke-width:1px;stroke-linecap:butt;stroke-linejoin:miter;stroke-opacity:1" d="M 45.6107,158.792 62.255,150.47 z" id="boundary" inkscape:connector-curvature="0" />
	<path style="fill:none;stroke:red;stroke-width:1px;stroke-linecap:butt;stroke-linejoin:miter;stroke-opacity:1" d="M 53.9329,67.2483 67.2483,53.9329 z" id="boundary" inkscape:connector-curvature="0" />
	<path style="fill:none;stroke:red;stroke-width:1px;stroke-linecap:butt;stroke-linejoin:miter;stroke-opacity:1" d="M 62.255,150.47 78.8993,142.148 z" id="boundary" inkscape:connector-curvature="0" />
	<path style="fill:none;stroke:red;stroke-width:1px;stroke-linecap:butt;stroke-linejoin:miter;stroke-opacity:1" d="M 67.2483,53.9329 82.2282,62.255 z" id="boundary" inkscape:connector-curvature="0" />
	<path style="fill:none;stroke:red;stroke-width:1px;stroke-linecap:butt;stroke-linejoin:miter;stroke-opacity:1" d="M 70.5772,333.557 70.5772,350.201 z" id="boundary" inkscape:connector-curvature="0" />
	<path style="fill:none;stroke:red;stroke-width:1px;stroke-linecap:butt;stroke-linejoin:miter;stroke-opacity:1" d="M 70.5772,333.557 83.8926,320.242 z" id="boundary" inkscape:connector-curvature="0" />
	<path style="fill:none;stroke:red;stroke-width:1px;stroke-linecap:butt;stroke-linejoin:miter;stroke-opacity:1" d="M 70.5772,350.201 87.2215,355.195 z" id="boundary" inkscape:connector-curvature="0" />
	<path style="fill:none;stroke:red;stroke-width:1px;stroke-linecap:butt;stroke-linejoin:miter;stroke-opacity:1" d="M 78.8993,142.148 92.2148,130.497 z" id="boundary" inkscape:connector-curvature="0" />
	<path style="fill:none;stroke:red;stroke-width:1px;stroke-linecap:butt;stroke-linejoin:miter;stroke-opacity:1" d="M 82.2282,62.255 97.2081,70.5772 z" id="boundary" inkscape:connector-curvature="0" />
	<path style="fill:none;stroke:red;stroke-width:1px;stroke-linecap:butt;stroke-linejoin:miter;stroke-opacity:1" d="M 83.8926,320.242 92.2148,303.597 z" id="boundary" inkscape:connector-curvature="0" />
	<path style="fill:none;stroke:red;stroke-width:1px;stroke-linecap:butt;stroke-linejoin:miter;stroke-opacity:1" d="M 87.2215,355.195 103.866,355.195 z" id="boundary" inkscape:connector-curvature="0" />
	<path style="fill:none;stroke:red;stroke-width:1px;stroke-linecap:butt;stroke-linejoin:miter;stroke-opacity:1" d="M 92.2148,130.497 103.866,143.812 z" id="boundary" inkscape:connector-curvature="0" />
	<path style="fill:none;stroke:red;stroke-width:1px;stroke-linecap:butt;stroke-linejoin:miter;stroke-opacity:1" d="M 92.2148,303.597 103.866,283.624 z" id="boundary" inkscape:connector-curvature="0" />
	<path style="fill:none;stroke:red;stroke-width:1px;stroke-linecap:butt;stroke-linejoin:miter;stroke-opacity:1" d="M 97.2081,70.5772 113.852,70.5772 z" id="boundary" inkscape:connector-curvature="0" />
	<path style="fill:none;stroke:red;stroke-width:1px;stroke-linecap:butt;stroke-linejoin:miter;stroke-opacity:1" d="M 103.866,143.812 103.866,160.456 z" id="boundary" inkscape:connector-curvature="0" />
	<path style="fill:none;stroke:red;stroke-width:1px;stroke-linecap:butt;stroke-linejoin:miter;stroke-opacity:1" d="M 103.866,160.456 112.188,175.436 z" id="boundary" inkscape:connector-curvature="0" />
	<path style="fill:none;stroke:red;stroke-width:1px;stroke-linecap:butt;stroke-linejoin:miter;stroke-opacity:1" d="M 103.866,283.624 112.188,258.658 z" id="boundary" inkscape:connector-curvature="0" />
	<path style="fill:none;stroke:red;stroke-width:1px;stroke-linecap:butt;stroke-linejoin:miter;stroke-opacity:1" d="M 103.866,355.195 120.51,355.195 z" id="boundary" inkscape:connector-curvature="0" />
	<path style="fill:none;stroke:red;stroke-width:1px;stroke-linecap:butt;stroke-linejoin:miter;stroke-opacity:1" d="M 112.188,175.436 112.188,192.081 z" id="boundary" inkscape:connector-curvature="0" />
	<path style="fill:none;stroke:red;stroke-width:1px;stroke-linecap:butt;stroke-linejoin:miter;stroke-opacity:1" d="M 112.188,192.081 112.188,208.725 z" id="boundary" inkscape:connector-curvature="0" />
	<path style="fill:none;stroke:red;stroke-width:1px;stroke-linecap:butt;stroke-linejoin:miter;stroke-opacity:1" d="M 112.188,208.725 112.188,225.369 z" id="boundary" inkscape:connector-curvature="0" />
	<path style="fill:none;stroke:red;stroke-width:1px;stroke-linecap:butt;stroke-linejoin:miter;stroke-opacity:1" d="M 112.188,225.369 112.188,242.013 z" id="boundary" inkscape:connector-curvature="0" />
	<path style="fill:none;stroke:red;stroke-width:1px;stroke-linecap:butt;stroke-linejoin:miter;stroke-opacity:1" d="M 112.188,242.013 112.188,258.658 z" id="boundary" inkscape:connector-curvature="0" />
	<path style="fill:none;stroke:red;stroke-width:1px;stroke-linecap:butt;stroke-linejoin:miter;stroke-opacity:1" d="M 113.852,70.5772 127.168,80.5638 z" id="boundary" inkscape:connector-curvature="0" />
	<path style="fill:none;stroke:red;stroke-width:1px;stroke-linecap:butt;stroke-linejoin:miter;stroke-opacity:1" d="M 120.51,355.195 133.826,345.208 z" id="boundary" inkscape:connector-curvature="0" />
	<path style="fill:none;stroke:red;stroke-width:1px;stroke-linecap:butt;stroke-linejoin:miter;stroke-opacity:1" d="M 127.168,80.5638 142.148,88.8859 z" id="boundary" inkscape:connector-curvature="0" />
	<path style="fill:none;stroke:red;stroke-width:1px;stroke-linecap:butt;stroke-linejoin:miter;stroke-opacity:1" d="M 133.826,345.208 142.148,328.564 z" id="boundary" inkscape:connector-curvature="0" />
	<path style="fill:none;stroke:red;stroke-width:1px;stroke-linecap:butt;stroke-linejoin:miter;stroke-opacity:1" d="M 142.148,88.8859 155.463,100.537 z" id="boundary" inkscape:connector-curvature="0" />
	<path style="fill:none;stroke:red;stroke-width:1px;stroke-linecap:butt;stroke-linejoin:miter;stroke-opacity:1" d="M 142.148,328.564 147.141,305.262 z" id="boundary" inkscape:connector-curvature="0" />
	<path style="fill:none;stroke:red;stroke-width:1px;stroke-linecap:butt;stroke-linejoin:miter;stroke-opacity:1" d="M 147.141,288.617 147.141,305.262 z" id="boundary" inkscape:connector-curvature="0" />
	<path style="fill:none;stroke:red;stroke-width:1px;stroke-linecap:butt;stroke-linejoin:miter;stroke-opacity:1" d="M 147.141,288.617 160.456,276.966 z" id="boundary" inkscape:connector-curvature="0" />
	<path style="fill:none;stroke:red;stroke-width:1px;stroke-linecap:butt;stroke-linejoin:miter;stroke-opacity:1" d="M 155.463,100.537 172.107,103.866 z" id="boundary" inkscape:connector-curvature="0" />
	<path style="fill:none;stroke:red;stroke-width:1px;stroke-linecap:butt;stroke-linejoin:miter;stroke-opacity:1" d="M 160.456,276.966 172.107,263.651 z" id="boundary" inkscape:connector-curvature="0" />
	<path style="fill:none;stroke:red;stroke-width:1px;stroke-linecap:butt;stroke-linejoin:miter;stroke-opacity:1" d="M 172.107,103.866 187.087,112.188 z" id="boundary" inkscape:connector-curvature="0" />
	<path style="fill:none;stroke:red;stroke-width:1px;stroke-linecap:butt;stroke-linejoin:miter;stroke-opacity:1" d="M 172.107,263.651 188.752,255.329 z" id="boundary" inkscape:connector-curvature="0" />
	<path style="fill:none;stroke:red;stroke-width:1px;stroke-linecap:butt;stroke-linejoin:miter;stroke-opacity:1" d="M 187.087,112.188 197.074,125.503 z" id="boundary" inkscape:connector-curvature="0" />
	<path style="fill:none;stroke:red;stroke-width:1px;stroke-linecap:butt;stroke-linejoin:miter;stroke-opacity:1" d="M 188.752,255.329 205.396,255.329 z" id="boundary" inkscape:connector-curvature="0" />
	<path style="fill:none;stroke:red;stroke-width:1px;stroke-linecap:butt;stroke-linejoin:miter;stroke-opacity:1" d="M 197.074,125.503 213.718,125.503 z" id="boundary" inkscape:connector-curvature="0" />
	<path style="fill:none;stroke:red;stroke-width:1px;stroke-linecap:butt;stroke-linejoin:miter;stroke-opacity:1" d="M 205.396,255.329 222.04,247.007 z" id="boundary" inkscape:connector-curvature="0" />
	<path style="fill:none;stroke:red;stroke-width:1px;stroke-linecap:butt;stroke-linejoin:miter;stroke-opacity:1" d="M 213.718,125.503 230.362,128.832 z" id="boundary" inkscape:connector-curvature="0" />
	<path style="fill:none;stroke:red;stroke-width:1px;stroke-linecap:butt;stroke-linejoin:miter;stroke-opacity:1" d="M 222.04,247.007 238.685,247.007 z" id="boundary" inkscape:connector-curvature="0" />
	<path style="fill:none;stroke:red;stroke-width:1px;stroke-linecap:butt;stroke-linejoin:miter;stroke-opacity:1" d="M 230.362,128.832 247.007,128.832 z" id="boundary" inkscape:connector-curvature="0" />
	<path style="fill:none;stroke:red;stroke-width:1px;stroke-linecap:butt;stroke-linejoin:miter;stroke-opacity:1" d="M 238.685,247.007 255.329,238.685 z" id="boundary" inkscape:connector-curvature="0" />
	<path style="fill:none;stroke:red;stroke-width:1px;stroke-linecap:butt;stroke-linejoin:miter;stroke-opacity:1" d="M 247.007,128.832 263.651,128.832 z" id="boundary" inkscape:connector-curvature="0" />
	<path style="fill:none;stroke:red;stroke-width:1px;stroke-linecap:butt;stroke-linejoin:miter;stroke-opacity:1" d="M 255.329,238.685 271.973,238.685 z" id="boundary" inkscape:connector-curvature="0" />
	<path style="fill:none;stroke:red;stroke-width:1px;stroke-linecap:butt;stroke-linejoin:miter;stroke-opacity:1" d="M 263.651,128.832 280.295,128.832 z" id="boundary" inkscape:connector-curvature="0" />
	<path style="fill:none;stroke:red;stroke-width:1px;stroke-linecap:butt;stroke-linejoin:miter;stroke-opacity:1" d="M 271.973,238.685 288.617,238.685 z" id="boundary" inkscape:connector-curvature="0" />
	<path style="fill:none;stroke:red;stroke-width:1px;stroke-linecap:butt;stroke-linejoin:miter;stroke-opacity:1" d="M 280.295,128.832 296.94,128.832 z" id="boundary" inkscape:connector-curvature="0" />
	<path style="fill:none;stroke:red;stroke-width:1px;stroke-linecap:butt;stroke-linejoin:miter;stroke-opacity:1" d="M 288.617,238.685 305.262,238.685 z" id="boundary" inkscape:connector-curvature="0" />
	<path style="fill:none;stroke:red;stroke-width:1px;stroke-linecap:butt;stroke-linejoin:miter;stroke-opacity:1" d="M 296.94,128.832 311.919,120.51 z" id="boundary" inkscape:connector-curvature="0" />
	<path style="fill:none;stroke:red;stroke-width:1px;stroke-linecap:butt;stroke-linejoin:miter;stroke-opacity:1" d="M 305.262,238.685 311.919,255.329 z" id="boundary" inkscape:connector-curvature="0" />
	<path style="fill:none;stroke:red;stroke-width:1px;stroke-linecap:butt;stroke-linejoin:miter;stroke-opacity:1" d="M 311.919,120.51 328.564,117.181 z" id="boundary" inkscape:connector-curvature="0" />
	<path style="fill:none;stroke:red;stroke-width:1px;stroke-linecap:butt;stroke-linejoin:miter;stroke-opacity:1" d="M 311.919,255.329 311.919,271.973 z" id="boundary" inkscape:connector-curvature="0" />
	<path style="fill:none;stroke:red;stroke-width:1px;stroke-linecap:butt;stroke-linejoin:miter;stroke-opacity:1" d="M 311.919,271.973 311.919,288.617 z" id="boundary" inkscape:connector-curvature="0" />
	<path style="fill:none;stroke:red;stroke-width:1px;stroke-linecap:butt;stroke-linejoin:miter;stroke-opacity:1" d="M 311.919,288.617 311.919,305.262 z" id="boundary" inkscape:connector-curvature="0" />
	<path style="fill:none;stroke:red;stroke-width:1px;stroke-linecap:butt;stroke-linejoin:miter;stroke-opacity:1" d="M 311.919,305.262 311.919,321.906 z" id="boundary" inkscape:connector-curvature="0" />
	<path style="fill:none;stroke:red;stroke-width:1px;stroke-linecap:butt;stroke-linejoin:miter;stroke-opacity:1" d="M 311.919,321.906 311.919,338.55 z" id="boundary" inkscape:connector-curvature="0" />
	<path style="fill:none;stroke:red;stroke-width:1px;stroke-linecap:butt;stroke-linejoin:miter;stroke-opacity:1" d="M 311.919,338.55 316.913,355.195 z" id="boundary" inkscape:connector-curvature="0" />
	<path style="fill:none;stroke:red;stroke-width:1px;stroke-linecap:butt;stroke-linejoin:miter;stroke-opacity:1" d="M 316.913,355.195 333.557,361.852 z" id="boundary" inkscape:connector-curvature="0" />
	<path style="fill:none;stroke:red;stroke-width:1px;stroke-linecap:butt;stroke-linejoin:miter;stroke-opacity:1" d="M 328.564,117.181 345.208,117.181 z" id="boundary" inkscape:connector-curvature="0" />
	<path style="fill:none;stroke:red;stroke-width:1px;stroke-linecap:butt;stroke-linejoin:miter;stroke-opacity:1" d="M 333.557,361.852 350.201,353.53 z" id="boundary" inkscape:connector-curvature="0" />
	<path style="fill:none;stroke:red;stroke-width:1px;stroke-linecap:butt;stroke-linejoin:miter;stroke-opacity:1" d="M 345.208,117.181 361.852,112.188 z" id="boundary" inkscape:connector-curvature="0" />
	<path style="fill:none;stroke:red;stroke-width:1px;stroke-linecap:butt;stroke-linejoin:miter;stroke-opacity:1" d="M 350.201,353.53 355.195,330.228 z" id="boundary" inkscape:connector-curvature="0" />
	<path style="fill:none;stroke:red;stroke-width:1px;stroke-linecap:butt;stroke-linejoin:miter;stroke-opacity:1" d="M 355.195,247.007 355.195,263.651 z" id="boundary" inkscape:connector-curvature="0" />
	<path style="fill:none;stroke:red;stroke-width:1px;stroke-linecap:butt;stroke-linejoin:miter;stroke-opacity:1" d="M 355.195,247.007 371.839,247.007 z" id="boundary" inkscape:connector-curvature="0" />
	<path style="fill:none;stroke:red;stroke-width:1px;stroke-linecap:butt;stroke-linejoin:miter;stroke-opacity:1" d="M 355.195,263.651 355.195,280.295 z" id="boundary" inkscape:connector-curvature="0" />
	<path style="fill:none;stroke:red;stroke-width:1px;stroke-linecap:butt;stroke-linejoin:miter;stroke-opacity:1" d="M 355.195,280.295 355.195,296.94 z" id="boundary" inkscape:connector-curvature="0" />
	<path style="fill:none;stroke:red;stroke-width:1px;stroke-linecap:butt;stroke-linejoin:miter;stroke-opacity:1" d="M 355.195,296.94 355.195,313.584 z" id="boundary" inkscape:connector-curvature="0" />
	<path style="fill:none;stroke:red;stroke-width:1px;stroke-linecap:butt;stroke-linejoin:miter;stroke-opacity:1" d="M 355.195,313.584 355.195,330.228 z" id="boundary" inkscape:connector-curvature="0" />
	<path style="fill:none;stroke:red;stroke-width:1px;stroke-linecap:butt;stroke-linejoin:miter;stroke-opacity:1" d="M 361.852,112.188 376.832,120.51 z" id="boundary" inkscape:connector-curvature="0" />
	<path style="fill:none;stroke:red;stroke-width:1px;stroke-linecap:butt;stroke-linejoin:miter;stroke-opacity:1" d="M 371.839,247.007 388.483,247.007 z" id="boundary" inkscape:connector-curvature="0" />
	<path style="fill:none;stroke:red;stroke-width:1px;stroke-linecap:butt;stroke-linejoin:miter;stroke-opacity:1" d="M 376.832,120.51 388.483,133.826 z" id="boundary" inkscape:connector-curvature="0" />
	<path style="fill:none;stroke:red;stroke-width:1px;stroke-linecap:butt;stroke-linejoin:miter;stroke-opacity:1" d="M 388.483,133.826 388.483,150.47 z" id="boundary" inkscape:connector-curvature="0" />
	<path style="fill:none;stroke:red;stroke-width:1px;stroke-linecap:butt;stroke-linejoin:miter;stroke-opacity:1" d="M 388.483,150.47 396.805,165.45 z" id="boundary" inkscape:connector-curvature="0" />
	<path style="fill:none;stroke:red;stroke-width:1px;stroke-linecap:butt;stroke-linejoin:miter;stroke-opacity:1" d="M 388.483,247.007 405.128,247.007 z" id="boundary" inkscape:connector-curvature="0" />
	<path style="fill:none;stroke:red;stroke-width:1px;stroke-linecap:butt;stroke-linejoin:miter;stroke-opacity:1" d="M 396.805,165.45 405.128,180.43 z" id="boundary" inkscape:connector-curvature="0" />
	<path style="fill:none;stroke:red;stroke-width:1px;stroke-linecap:butt;stroke-linejoin:miter;stroke-opacity:1" d="M 405.128,180.43 413.45,195.409 z" id="boundary" inkscape:connector-curvature="0" />
	<path style="fill:none;stroke:red;stroke-width:1px;stroke-linecap:butt;stroke-linejoin:miter;stroke-opacity:1" d="M 405.128,247.007 421.772,247.007 z" id="boundary" inkscape:connector-curvature="0" />
	<path style="fill:none;stroke:red;stroke-width:1px;stroke-linecap:butt;stroke-linejoin:miter;stroke-opacity:1" d="M 413.45,195.409 413.45,212.054 z" id="boundary" inkscape:connector-curvature="0" />
	<path style="fill:none;stroke:red;stroke-width:1px;stroke-linecap:butt;stroke-linejoin:miter;stroke-opacity:1" d="M 413.45,212.054 430.094,212.054 z" id="boundary" inkscape:connector-curvature="0" />
	<path style="fill:none;stroke:red;stroke-width:1px;stroke-linecap:butt;stroke-linejoin:miter;stroke-opacity:1" d="M 421.772,247.007 438.416,247.007 z" id="boundary" inkscape:connector-curvature="0" />
	<path style="fill:none;stroke:red;stroke-width:1px;stroke-linecap:butt;stroke-linejoin:miter;stroke-opacity:1" d="M 430.094,212.054 446.738,212.054 z" id="boundary" inkscape:connector-curvature="0" />
	<path style="fill:none;stroke:red;stroke-width:1px;stroke-linecap:butt;stroke-linejoin:miter;stroke-opacity:1" d="M 438.416,247.007 448.403,260.322 z" id="boundary" inkscape:connector-curvature="0" />
	<path style="fill:none;stroke:red;stroke-width:1px;stroke-linecap:butt;stroke-linejoin:miter;stroke-opacity:1" d="M 445.074,291.946 453.396,276.966 z" id="boundary" inkscape:connector-curvature="0" />
	<path style="fill:none;stroke:red;stroke-width:1px;stroke-linecap:butt;stroke-linejoin:miter;stroke-opacity:1" d="M 445.074,291.946 453.396,306.926 z" id="boundary" inkscape:connector-curvature="0" />
	<path style="fill:none;stroke:red;stroke-width:1px;stroke-linecap:butt;stroke-linejoin:miter;stroke-opacity:1" d="M 446.738,212.054 463.383,212.054 z" id="boundary" inkscape:connector-curvature="0" />
	<path style="fill:none;stroke:red;stroke-width:1px;stroke-linecap:butt;stroke-linejoin:miter;stroke-opacity:1" d="M 448.403,260.322 453.396,276.966 z" id="boundary" inkscape:connector-curvature="0" />
	<path style="fill:none;stroke:red;stroke-width:1px;stroke-linecap:butt;stroke-linejoin:miter;stroke-opacity:1" d="M 453.396,306.926 453.396,323.57 z" id="boundary" inkscape:connector-curvature="0" />
	<path style="fill:none;stroke:red;stroke-width:1px;stroke-linecap:butt;stroke-linejoin:miter;stroke-opacity:1" d="M 453.396,323.57 453.396,340.215 z" id="boundary" inkscape:connector-curvature="0" />
	<path style="fill:none;stroke:red;stroke-width:1px;stroke-linecap:butt;stroke-linejoin:miter;stroke-opacity:1" d="M 453.396,340.215 461.718,355.195 z" id="boundary" inkscape:connector-curvature="0" />
	<path style="fill:none;stroke:red;stroke-width:1px;stroke-linecap:butt;stroke-linejoin:miter;stroke-opacity:1" d="M 461.718,355.195 466.711,371.839 z" id="boundary" inkscape:connector-curvature="0" />
	<path style="fill:none;stroke:red;stroke-width:1px;stroke-linecap:butt;stroke-linejoin:miter;stroke-opacity:1" d="M 463.383,212.054 480.027,212.054 z" id="boundary" inkscape:connector-curvature="0" />
	<path style="fill:none;stroke:red;stroke-width:1px;stroke-linecap:butt;stroke-linejoin:miter;stroke-opacity:1" d="M 466.711,371.839 478.362,385.154 z" id="boundary" inkscape:connector-curvature="0" />
	<path style="fill:none;stroke:red;stroke-width:1px;stroke-linecap:butt;stroke-linejoin:miter;stroke-opacity:1" d="M 478.362,385.154 491.678,396.805 z" id="boundary" inkscape:connector-curvature="0" />
	<path style="fill:none;stroke:red;stroke-width:1px;stroke-linecap:butt;stroke-linejoin:miter;stroke-opacity:1" d="M 480.027,212.054 490.013,197.074 z" id="boundary" inkscape:connector-curvature="0" />
	<path style="fill:none;stroke:red;stroke-width:1px;stroke-linecap:butt;stroke-linejoin:miter;stroke-opacity:1" d="M 490.013,197.074 495.007,167.114 z" id="boundary" inkscape:connector-curvature="0" />
	<path style="fill:none;stroke:red;stroke-width:1px;stroke-linecap:butt;stroke-linejoin:miter;stroke-opacity:1" d="M 491.678,396.805 508.322,396.805 z" id="boundary" inkscape:connector-curvature="0" />
	<path style="fill:none;stroke:red;stroke-width:1px;stroke-linecap:butt;stroke-linejoin:miter;stroke-opacity:1" d="M 495.007,150.47 495.007,167.114 z" id="boundary" inkscape:connector-curvature="0" />
	<path style="fill:none;stroke:red;stroke-width:1px;stroke-linecap:butt;stroke-linejoin:miter;stroke-opacity:1" d="M 495.007,150.47 503.329,133.826 z" id="boundary" inkscape:connector-curvature="0" />
	<path style="fill:none;stroke:red;stroke-width:1px;stroke-linecap:butt;stroke-linejoin:miter;stroke-opacity:1" d="M 503.329,133.826 516.644,120.51 z" id="boundary" inkscape:connector-curvature="0" />
	<path style="fill:none;stroke:red;stroke-width:1px;stroke-linecap:butt;stroke-linejoin:miter;stroke-opacity:1" d="M 508.322,396.805 524.966,396.805 z" id="boundary" inkscape:connector-curvature="0" />
	<path style="fill:none;stroke:red;stroke-width:1px;stroke-linecap:butt;stroke-linejoin:miter;stroke-opacity:1" d="M 516.644,120.51 533.289,120.51 z" id="boundary" inkscape:connector-curvature="0" />
	<path style="fill:none;stroke:red;stroke-width:1px;stroke-linecap:butt;stroke-linejoin:miter;stroke-opacity:1" d="M 524.966,396.805 541.611,396.805 z" id="boundary" inkscape:connector-curvature="0" />
	<path style="fill:none;stroke:red;stroke-width:1px;stroke-linecap:butt;stroke-linejoin:miter;stroke-opacity:1" d="M 533.289,120.51 546.604,107.195 z" id="boundary" inkscape:connector-curvature="0" />
	<path style="fill:none;stroke:red;stroke-width:1px;stroke-linecap:butt;stroke-linejoin:miter;stroke-opacity:1" d="M 541.611,396.805 556.591,405.128 z" id="boundary" inkscape:connector-curvature="0" />
	<path style="fill:none;stroke:red;stroke-width:1px;stroke-linecap:butt;stroke-linejoin:miter;stroke-opacity:1" d="M 546.604,107.195 563.248,98.8725 z" id="boundary" inkscape:connector-curvature="0" />
	<path style="fill:none;stroke:red;stroke-width:1px;stroke-linecap:butt;stroke-linejoin:miter;stroke-opacity:1" d="M 556.591,405.128 573.235,405.128 z" id="boundary" inkscape:connector-curvature="0" />
	<path style="fill:none;stroke:red;stroke-width:1px;stroke-linecap:butt;stroke-linejoin:miter;stroke-opacity:1" d="M 561.584,8.99329 561.584,25.6376 z" id="boundary" inkscape:connector-curvature="0" />
	<path style="fill:none;stroke:red;stroke-width:1px;stroke-linecap:butt;stroke-linejoin:miter;stroke-opacity:1" d="M 561.584,8.99329 578.228,4 z" id="boundary" inkscape:connector-curvature="0" />
	<path style="fill:none;stroke:red;stroke-width:1px;stroke-linecap:butt;stroke-linejoin:miter;stroke-opacity:1" d="M 561.584,25.6376 569.906,40.6174 z" id="boundary" inkscape:connector-curvature="0" />
	<path style="fill:none;stroke:red;stroke-width:1px;stroke-linecap:butt;stroke-linejoin:miter;stroke-opacity:1" d="M 563.248,98.8725 569.906,73.906 z" id="boundary" inkscape:connector-curvature="0" />
	<path style="fill:none;stroke:red;stroke-width:1px;stroke-linecap:butt;stroke-linejoin:miter;stroke-opacity:1" d="M 569.906,40.6174 569.906,57.2617 z" id="boundary" inkscape:connector-curvature="0" />
	<path style="fill:none;stroke:red;stroke-width:1px;stroke-linecap:butt;stroke-linejoin:miter;stroke-opacity:1" d="M 569.906,57.2617 569.906,73.906 z" id="boundary" inkscape:connector-curvature="0" />
	<path style="fill:none;stroke:red;stroke-width:1px;stroke-linecap:butt;stroke-linejoin:miter;stroke-opacity:1" d="M 573.235,405.128 589.879,405.128 z" id="boundary" inkscape:connector-curvature="0" />
	<path style="fill:none;stroke:red;stroke-width:1px;stroke-linecap:butt;stroke-linejoin:miter;stroke-opacity:1" d="M 578.228,4 593.208,12.3221 z" id="boundary" inkscape:connector-curvature="0" />
	<path style="fill:none;stroke:red;stroke-width:1px;stroke-linecap:butt;stroke-linejoin:miter;stroke-opacity:1" d="M 589.879,405.128 603.195,391.812 z" id="boundary" inkscape:connector-curvature="0" />
	<path style="fill:none;stroke:red;stroke-width:1px;stroke-linecap:butt;stroke-linejoin:miter;stroke-opacity:1" d="M 593.208,12.3221 608.188,20.6443 z" id="boundary" inkscape:connector-curvature="0" />
	<path style="fill:none;stroke:red;stroke-width:1px;stroke-linecap:butt;stroke-linejoin:miter;stroke-opacity:1" d="M 603.195,391.812 604.859,363.517 z" id="boundary" inkscape:connector-curvature="0" />
	<path style="fill:none;stroke:red;stroke-width:1px;stroke-linecap:butt;stroke-linejoin:miter;stroke-opacity:1" d="M 604.859,230.362 604.859,247.007 z" id="boundary" inkscape:connector-curvature="0" />
	<path style="fill:none;stroke:red;stroke-width:1px;stroke-linecap:butt;stroke-linejoin:miter;stroke-opacity:1" d="M 604.859,230.362 621.503,230.362 z" id="boundary" inkscape:connector-curvature="0" />
	<path style="fill:none;stroke:red;stroke-width:1px;stroke-linecap:butt;stroke-linejoin:miter;stroke-opacity:1" d="M 604.859,247.007 604.859,263.651 z" id="boundary" inkscape:connector-curvature="0" />
	<path style="fill:none;stroke:red;stroke-width:1px;stroke-linecap:butt;stroke-linejoin:miter;stroke-opacity:1" d="M 604.859,263.651 604.859,280.295 z" id="boundary" inkscape:connector-curvature="0" />
	<path style="fill:none;stroke:red;stroke-width:1px;stroke-linecap:butt;stroke-linejoin:miter;stroke-opacity:1" d="M 604.859,280.295 604.859,305.262 z" id="boundary" inkscape:connector-curvature="0" />
	<path style="fill:none;stroke:red;stroke-width:1px;stroke-linecap:butt;stroke-linejoin:miter;stroke-opacity:1" d="M 604.859,305.262 613.181,320.242 z" id="boundary" inkscape:connector-curvature="0" />
	<path style="fill:none;stroke:red;stroke-width:1px;stroke-linecap:butt;stroke-linejoin:miter;stroke-opacity:1" d="M 604.859,363.517 613.181,336.886 z" id="boundary" inkscape:connector-curvature="0" />
	<path style="fill:none;stroke:red;stroke-width:1px;stroke-linecap:butt;stroke-linejoin:miter;stroke-opacity:1" d="M 608.188,20.6443 613.181,37.2886 z" id="boundary" inkscape:connector-curvature="0" />
	<path style="fill:none;stroke:red;stroke-width:1px;stroke-linecap:butt;stroke-linejoin:miter;stroke-opacity:1" d="M 613.181,37.2886 621.503,52.2685 z" id="boundary" inkscape:connector-curvature="0" />
	<path style="fill:none;stroke:red;stroke-width:1px;stroke-linecap:butt;stroke-linejoin:miter;stroke-opacity:1" d="M 613.181,320.242 613.181,336.886 z" id="boundary" inkscape:connector-curvature="0" />
	<path style="fill:none;stroke:red;stroke-width:1px;stroke-linecap:butt;stroke-linejoin:miter;stroke-opacity:1" d="M 621.503,52.2685 621.503,68.9128 z" id="boundary" inkscape:connector-curvature="0" />
	<path style="fill:none;stroke:red;stroke-width:1px;stroke-linecap:butt;stroke-linejoin:miter;stroke-opacity:1" d="M 621.503,68.9128 629.826,83.8926 z" id="boundary" inkscape:connector-curvature="0" />
	<path style="fill:none;stroke:red;stroke-width:1px;stroke-linecap:butt;stroke-linejoin:miter;stroke-opacity:1" d="M 621.503,230.362 638.148,230.362 z" id="boundary" inkscape:connector-curvature="0" />
	<path style="fill:none;stroke:red;stroke-width:1px;stroke-linecap:butt;stroke-linejoin:miter;stroke-opacity:1" d="M 629.826,83.8926 636.483,100.537 z" id="boundary" inkscape:connector-curvature="0" />
	<path style="fill:none;stroke:red;stroke-width:1px;stroke-linecap:butt;stroke-linejoin:miter;stroke-opacity:1" d="M 636.483,100.537 649.799,112.188 z" id="boundary" inkscape:connector-curvature="0" />
	<path style="fill:none;stroke:red;stroke-width:1px;stroke-linecap:butt;stroke-linejoin:miter;stroke-opacity:1" d="M 638.148,230.362 648.134,243.678 z" id="boundary" inkscape:connector-curvature="0" />
	<path style="fill:none;stroke:red;stroke-width:1px;stroke-linecap:butt;stroke-linejoin:miter;stroke-opacity:1" d="M 648.134,243.678 661.45,255.329 z" id="boundary" inkscape:connector-curvature="0" />
	<path style="fill:none;stroke:red;stroke-width:1px;stroke-linecap:butt;stroke-linejoin:miter;stroke-opacity:1" d="M 649.799,112.188 654.792,128.832 z" id="boundary" inkscape:connector-curvature="0" />
	<path style="fill:none;stroke:red;stroke-width:1px;stroke-linecap:butt;stroke-linejoin:miter;stroke-opacity:1" d="M 654.792,128.832 654.792,145.477 z" id="boundary" inkscape:connector-curvature="0" />
	<path style="fill:none;stroke:red;stroke-width:1px;stroke-linecap:butt;stroke-linejoin:miter;stroke-opacity:1" d="M 654.792,145.477 654.792,162.121 z" id="boundary" inkscape:connector-curvature="0" />
	<path style="fill:none;stroke:red;stroke-width:1px;stroke-linecap:butt;stroke-linejoin:miter;stroke-opacity:1" d="M 654.792,162.121 654.792,178.765 z" id="boundary" inkscape:connector-curvature="0" />
	<path style="fill:none;stroke:red;stroke-width:1px;stroke-linecap:butt;stroke-linejoin:miter;stroke-opacity:1" d="M 654.792,178.765 654.792,195.409 z" id="boundary" inkscape:connector-curvature="0" />
	<path style="fill:none;stroke:red;stroke-width:1px;stroke-linecap:butt;stroke-linejoin:miter;stroke-opacity:1" d="M 654.792,195.409 663.114,210.389 z" id="boundary" inkscape:connector-curvature="0" />
	<path style="fill:none;stroke:red;stroke-width:1px;stroke-linecap:butt;stroke-linejoin:miter;stroke-opacity:1" d="M 661.45,255.329 661.45,271.973 z" id="boundary" inkscape:connector-curvature="0" />
	<path style="fill:none;stroke:red;stroke-width:1px;stroke-linecap:butt;stroke-linejoin:miter;stroke-opacity:1" d="M 661.45,271.973 661.45,288.617 z" id="boundary" inkscape:connector-curvature="0" />
	<path style="fill:none;stroke:red;stroke-width:1px;stroke-linecap:butt;stroke-linejoin:miter;stroke-opacity:1" d="M 661.45,288.617 661.45,305.262 z" id="boundary" inkscape:connector-curvature="0" />
	<path style="fill:none;stroke:red;stroke-width:1px;stroke-linecap:butt;stroke-linejoin:miter;stroke-opacity:1" d="M 661.45,305.262 666.443,321.906 z" id="boundary" inkscape:connector-curvature="0" />
	<path style="fill:none;stroke:red;stroke-width:1px;stroke-linecap:butt;stroke-linejoin:miter;stroke-opacity:1" d="M 663.114,210.389 679.758,217.047 z" id="boundary" inkscape:connector-curvature="0" />
	<path style="fill:none;stroke:red;stroke-width:1px;stroke-linecap:butt;stroke-linejoin:miter;stroke-opacity:1" d="M 666.443,321.906 674.765,336.886 z" id="boundary" inkscape:connector-curvature="0" />
	<path style="fill:none;stroke:red;stroke-width:1px;stroke-linecap:butt;stroke-linejoin:miter;stroke-opacity:1" d="M 674.765,336.886 691.409,338.55 z" id="boundary" inkscape:connector-curvature="0" />
	<path style="fill:none;stroke:red;stroke-width:1px;stroke-linecap:butt;stroke-linejoin:miter;stroke-opacity:1" d="M 679.758,217.047 696.403,215.383 z" id="boundary" inkscape:connector-curvature="0" />
	<path style="fill:none;stroke:red;stroke-width:1px;stroke-linecap:butt;stroke-linejoin:miter;stroke-opacity:1" d="M 691.409,338.55 708.054,338.55 z" id="boundary" inkscape:connector-curvature="0" />
	<path style="fill:none;stroke:red;stroke-width:1px;stroke-linecap:butt;stroke-linejoin:miter;stroke-opacity:1" d="M 696.403,215.383 713.047,207.06 z" id="boundary" inkscape:connector-curvature="0" />
	<path style="fill:none;stroke:red;stroke-width:1px;stroke-linecap:butt;stroke-linejoin:miter;stroke-opacity:1" d="M 708.054,338.55 724.698,338.55 z" id="boundary" inkscape:connector-curvature="0" />
	<path style="fill:none;stroke:red;stroke-width:1px;stroke-linecap:butt;stroke-linejoin:miter;stroke-opacity:1" d="M 713.047,207.06 721.369,190.416 z" id="boundary" inkscape:connector-curvature="0" />
	<path style="fill:none;stroke:red;stroke-width:1px;stroke-linecap:butt;stroke-linejoin:miter;stroke-opacity:1" d="M 721.369,190.416 728.027,158.792 z" id="boundary" inkscape:connector-curvature="0" />
	<path style="fill:none;stroke:red;stroke-width:1px;stroke-linecap:butt;stroke-linejoin:miter;stroke-opacity:1" d="M 724.698,338.55 741.342,338.55 z" id="boundary" inkscape:connector-curvature="0" />
	<path style="fill:none;stroke:red;stroke-width:1px;stroke-linecap:butt;stroke-linejoin:miter;stroke-opacity:1" d="M 728.027,158.792 736.349,142.148 z" id="boundary" inkscape:connector-curvature="0" />
	<path style="fill:none;stroke:red;stroke-width:1px;stroke-linecap:butt;stroke-linejoin:miter;stroke-opacity:1" d="M 736.349,142.148 749.664,128.832 z" id="boundary" inkscape:connector-curvature="0" />
	<path style="fill:none;stroke:red;stroke-width:1px;stroke-linecap:butt;stroke-linejoin:miter;stroke-opacity:1" d="M 741.342,338.55 757.987,338.55 z" id="boundary" inkscape:connector-curvature="0" />
	<path style="fill:none;stroke:red;stroke-width:1px;stroke-linecap:butt;stroke-linejoin:miter;stroke-opacity:1" d="M 749.664,128.832 766.309,128.832 z" id="boundary" inkscape:connector-curvature="0" />
	<path style="fill:none;stroke:red;stroke-width:1px;stroke-linecap:butt;stroke-linejoin:miter;stroke-opacity:1" d="M 757.987,338.55 772.966,330.228 z" id="boundary" inkscape:connector-curvature="0" />
	<path style="fill:none;stroke:red;stroke-width:1px;stroke-linecap:butt;stroke-linejoin:miter;stroke-opacity:1" d="M 766.309,128.832 777.96,108.859 z" id="boundary" inkscape:connector-curvature="0" />
	<path style="fill:none;stroke:red;stroke-width:1px;stroke-linecap:butt;stroke-linejoin:miter;stroke-opacity:1" d="M 772.966,330.228 787.946,338.55 z" id="boundary" inkscape:connector-curvature="0" />
	<path style="fill:none;stroke:red;stroke-width:1px;stroke-linecap:butt;stroke-linejoin:miter;stroke-opacity:1" d="M 777.96,58.9262 777.96,75.5705 z" id="boundary" inkscape:connector-curvature="0" />
	<path style="fill:none;stroke:red;stroke-width:1px;stroke-linecap:butt;stroke-linejoin:miter;stroke-opacity:1" d="M 777.96,58.9262 791.275,45.6107 z" id="boundary" inkscape:connector-curvature="0" />
	<path style="fill:none;stroke:red;stroke-width:1px;stroke-linecap:butt;stroke-linejoin:miter;stroke-opacity:1" d="M 777.96,75.5705 777.96,92.2148 z" id="boundary" inkscape:connector-curvature="0" />
	<path style="fill:none;stroke:red;stroke-width:1px;stroke-linecap:butt;stroke-linejoin:miter;stroke-opacity:1" d="M 777.96,92.2148 777.96,108.859 z" id="boundary" inkscape:connector-curvature="0" />
	<path style="fill:none;stroke:red;stroke-width:1px;stroke-linecap:butt;stroke-linejoin:miter;stroke-opacity:1" d="M 787.946,338.55 811.248,345.208 z" id="boundary" inkscape:connector-curvature="0" />
	<path style="fill:none;stroke:red;stroke-width:1px;stroke-linecap:butt;stroke-linejoin:miter;stroke-opacity:1" d="M 791.275,45.6107 807.919,45.6107 z" id="boundary" inkscape:connector-curvature="0" />
	<path style="fill:none;stroke:red;stroke-width:1px;stroke-linecap:butt;stroke-linejoin:miter;stroke-opacity:1" d="M 802.926,330.228 811.248,345.208 z" id="boundary" inkscape:connector-curvature="0" />
	<path style="fill:none;stroke:red;stroke-width:1px;stroke-linecap:butt;stroke-linejoin:miter;stroke-opacity:1" d="M 807.919,45.6107 822.899,53.9329 z" id="boundary" inkscape:connector-curvature="0" />
	<path style="fill:none;stroke:red;stroke-width:1px;stroke-linecap:butt;stroke-linejoin:miter;stroke-opacity:1" d="M 811.248,375.168 824.564,386.819 z" id="boundary" inkscape:connector-curvature="0" />
	<path style="fill:none;stroke:red;stroke-width:1px;stroke-linecap:butt;stroke-linejoin:miter;stroke-opacity:1" d="M 822.899,53.9329 836.215,65.5839 z" id="boundary" inkscape:connector-curvature="0" />
	<path style="fill:none;stroke:red;stroke-width:1px;stroke-linecap:butt;stroke-linejoin:miter;stroke-opacity:1" d="M 824.564,386.819 836.215,400.134 z" id="boundary" inkscape:connector-curvature="0" />
	<path style="fill:none;stroke:red;stroke-width:1px;stroke-linecap:butt;stroke-linejoin:miter;stroke-opacity:1" d="M 836.215,65.5839 846.201,78.8993 z" id="boundary" inkscape:connector-curvature="0" />
	<path style="fill:none;stroke:red;stroke-width:1px;stroke-linecap:butt;stroke-linejoin:miter;stroke-opacity:1" d="M 836.215,400.134 849.53,411.785 z" id="boundary" inkscape:connector-curvature="0" />
	<path style="fill:none;stroke:red;stroke-width:1px;stroke-linecap:butt;stroke-linejoin:miter;stroke-opacity:1" d="M 846.201,78.8993 854.523,93.8792 z" id="boundary" inkscape:connector-curvature="0" />
	<path style="fill:none;stroke:red;stroke-width:1px;stroke-linecap:butt;stroke-linejoin:miter;stroke-opacity:1" d="M 849.53,411.785 864.51,420.107 z" id="boundary" inkscape:connector-curvature="0" />
	<path style="fill:none;stroke:red;stroke-width:1px;stroke-linecap:butt;stroke-linejoin:miter;stroke-opacity:1" d="M 854.523,93.8792 867.839,105.53 z" id="boundary" inkscape:connector-curvature="0" />
	<path style="fill:none;stroke:red;stroke-width:1px;stroke-linecap:butt;stroke-linejoin:miter;stroke-opacity:1" d="M 864.51,420.107 881.154,426.765 z" id="boundary" inkscape:connector-curvature="0" />
	<path style="fill:none;stroke:red;stroke-width:1px;stroke-linecap:butt;stroke-linejoin:miter;stroke-opacity:1" d="M 867.839,105.53 876.161,120.51 z" id="boundary" inkscape:connector-curvature="0" />
	<path style="fill:none;stroke:red;stroke-width:1px;stroke-linecap:butt;stroke-linejoin:miter;stroke-opacity:1" d="M 876.161,120.51 892.805,120.51 z" id="boundary" inkscape:connector-curvature="0" />
	<path style="fill:none;stroke:red;stroke-width:1px;stroke-linecap:butt;stroke-linejoin:miter;stroke-opacity:1" d="M 881.154,426.765 897.799,430.094 z" id="boundary" inkscape:connector-curvature="0" />
	<path style="fill:none;stroke:red;stroke-width:1px;stroke-linecap:butt;stroke-linejoin:miter;stroke-opacity:1" d="M 892.805,120.51 909.45,120.51 z" id="boundary" inkscape:connector-curvature="0" />
	<path style="fill:none;stroke:red;stroke-width:1px;stroke-linecap:butt;stroke-linejoin:miter;stroke-opacity:1" d="M 897.799,430.094 914.443,430.094 z" id="boundary" inkscape:connector-curvature="0" />
	<path style="fill:none;stroke:red;stroke-width:1px;stroke-linecap:butt;stroke-linejoin:miter;stroke-opacity:1" d="M 909.45,120.51 926.094,120.51 z" id="boundary" inkscape:connector-curvature="0" />
	<path style="fill:none;stroke:red;stroke-width:1px;stroke-linecap:butt;stroke-linejoin:miter;stroke-opacity:1" d="M 914.443,430.094 931.087,430.094 z" id="boundary" inkscape:connector-curvature="0" />
	<path style="fill:none;stroke:red;stroke-width:1px;stroke-linecap:butt;stroke-linejoin:miter;stroke-opacity:1" d="M 926.094,120.51 937.745,133.826 z" id="boundary" inkscape:connector-curvature="0" />
	<path style="fill:none;stroke:red;stroke-width:1px;stroke-linecap:butt;stroke-linejoin:miter;stroke-opacity:1" d="M 931.087,430.094 947.732,430.094 z" id="boundary" inkscape:connector-curvature="0" />
	<path style="fill:none;stroke:red;stroke-width:1px;stroke-linecap:butt;stroke-linejoin:miter;stroke-opacity:1" d="M 937.745,133.826 937.745,150.47 z" id="boundary" inkscape:connector-curvature="0" />
	<path style="fill:none;stroke:red;stroke-width:1px;stroke-linecap:butt;stroke-linejoin:miter;stroke-opacity:1" d="M 937.745,150.47 937.745,167.114 z" id="boundary" inkscape:connector-curvature="0" />
	<path style="fill:none;stroke:red;stroke-width:1px;stroke-linecap:butt;stroke-linejoin:miter;stroke-opacity:1" d="M 937.745,167.114 937.745,183.758 z" id="boundary" inkscape:connector-curvature="0" />
	<path style="fill:none;stroke:red;stroke-width:1px;stroke-linecap:butt;stroke-linejoin:miter;stroke-opacity:1" d="M 937.745,183.758 937.745,200.403 z" id="boundary" inkscape:connector-curvature="0" />
	<path style="fill:none;stroke:red;stroke-width:1px;stroke-linecap:butt;stroke-linejoin:miter;stroke-opacity:1" d="M 937.745,200.403 937.745,217.047 z" id="boundary" inkscape:connector-curvature="0" />
	<path style="fill:none;stroke:red;stroke-width:1px;stroke-linecap:butt;stroke-linejoin:miter;stroke-opacity:1" d="M 937.745,217.047 951.06,228.698 z" id="boundary" inkscape:connector-curvature="0" />
	<path style="fill:none;stroke:red;stroke-width:1px;stroke-linecap:butt;stroke-linejoin:miter;stroke-opacity:1" d="M 947.732,430.094 962.711,421.772 z" id="boundary" inkscape:connector-curvature="0" />
	<path style="fill:none;stroke:red;stroke-width:1px;stroke-linecap:butt;stroke-linejoin:miter;stroke-opacity:1" d="M 951.06,228.698 966.04,237.02 z" id="boundary" inkscape:connector-curvature="0" />
	<path style="fill:none;stroke:red;stroke-width:1px;stroke-linecap:butt;stroke-linejoin:miter;stroke-opacity:1" d="M 962.711,421.772 976.027,410.121 z" id="boundary" inkscape:connector-curvature="0" />
	<path style="fill:none;stroke:red;stroke-width:1px;stroke-linecap:butt;stroke-linejoin:miter;stroke-opacity:1" d="M 966.04,237.02 977.691,250.336 z" id="boundary" inkscape:connector-curvature="0" />
	<path style="fill:none;stroke:red;stroke-width:1px;stroke-linecap:butt;stroke-linejoin:miter;stroke-opacity:1" d="M 976.027,410.121 984.349,393.477 z" id="boundary" inkscape:connector-curvature="0" />
	<path style="fill:none;stroke:red;stroke-width:1px;stroke-linecap:butt;stroke-linejoin:miter;stroke-opacity:1" d="M 977.691,250.336 986.013,265.315 z" id="boundary" inkscape:connector-curvature="0" />
	<path style="fill:none;stroke:red;stroke-width:1px;stroke-linecap:butt;stroke-linejoin:miter;stroke-opacity:1" d="M 984.349,393.477 996,365.181 z" id="boundary" inkscape:connector-curvature="0" />
	<path style="fill:none;stroke:red;stroke-width:1px;stroke-linecap:butt;stroke-linejoin:miter;stroke-opacity:1" d="M 986.013,265.315 987.678,281.96 z" id="boundary" inkscape:connector-curvature="0" />
	<path style="fill:none;stroke:red;stroke-width:1px;stroke-linecap:butt;stroke-linejoin:miter;stroke-opacity:1" d="M 987.678,281.96 992.671,298.604 z" id="boundary" inkscape:connector-curvature="0" />
	<path style="fill:none;stroke:red;stroke-width:1px;stroke-linecap:butt;stroke-linejoin:miter;stroke-opacity:1" d="M 992.671,298.604 996,315.248 z" id="boundary" inkscape:connector-curvature="0" />
	<path style="fill:none;stroke:red;stroke-width:1px;stroke-linecap:butt;stroke-linejoin:miter;stroke-opacity:1" d="M 996,315.248 996,331.893 z" id="boundary" inkscape:connector-curvature="0" />
	<path style="fill:none;stroke:red;stroke-width:1px;stroke-linecap:butt;stroke-linejoin:miter;stroke-opacity:1" d="M 996,331.893 996,348.537 z" id="boundary" inkscape:connector-curvature="0" />
	<path style="fill:none;stroke:red;stroke-width:1px;stroke-linecap:butt;stroke-linejoin:miter;stroke-opacity:1" d="M 996,348.537 996,365.181 z" id="boundary" inkscape:connector-curvature="0" />
	<circle cx="4" cy="133.826" r="4" fill="#0" id="circle0"/>
	<circle cx="12.3221" cy="117.181" r="4" fill="#0" id="circle1"/>
	<circle cx="17.3154" cy="145.477" r="4" fill="#0" id="circle2"/>
	<circle cx="20.6443" cy="92.2148" r="4" fill="#0" id="circle3"/>
	<circle cx="28.9664" cy="158.792" r="4" fill="#0" id="circle4"/>
	<circle cx="37.2886" cy="75.5705" r="4" fill="#0" id="circle5"/>
	<circle cx="45.6107" cy="158.792" r="4" fill="#0" id="circle6"/>
	<circle cx="53.9329" cy="67.2483" r="4" fill="#0" id="circle7"/>
	<circle cx="62.255" cy="150.47" r="4" fill="#0" id="circle8"/>
	<circle cx="67.2483" cy="53.9329" r="4" fill="#0" id="circle9"/>
	<circle cx="70.5772" cy="333.557" r="4" fill="#0" id="circle10"/>
	<circle cx="70.5772" cy="350.201" r="4" fill="#0" id="circle11"/>
	<circle cx="78.8993" cy="142.148" r="4" fill="#0" id="circle12"/>
	<circle cx="82.2282" cy="62.255" r="4" fill="#0" id="circle13"/>
	<circle cx="83.8926" cy="320.242" r="4" fill="#0" id="circle14"/>
	<circle cx="87.2215" cy="355.195" r="4" fill="#0" id="circle15"/>
	<circle cx="92.2148" cy="130.497" r="4" fill="#0" id="circle16"/>
	<circle cx="92.2148" cy="303.597" r="4" fill="#0" id="circle17"/>
	<circle cx="97.2081" cy="70.5772" r="4" fill="#0" id="circle18"/>
	<circle cx="103.866" cy="143.812" r="4" fill="#0" id="circle19"/>
	<circle cx="103.866" cy="160.456" r="4" fill="#0" id="circle20"/>
	<circle cx="103.866" cy="283.624" r="4" fill="#0" id="circle21"/>
	<circle cx="103.866" cy="355.195" r="4" fill="#0" id="circle22"/>
	<circle cx="112.188" cy="175.436" r="4" fill="#0" id="circle23"/>
	<circle cx="112.188" cy="192.081" r="4" fill="#0" id="circle24"/>
	<circle cx="112.188" cy="208.725" r="4" fill="#0" id="circle25"/>
	<circle cx="112.188" cy="225.369" r="4" fill="#0" id="circle26"/>
	<circle cx="112.188" cy="242.013" r="4" fill="#0" id="circle27"/>
	<circle cx="112.188" cy="258.658" r="4" fill="#0" id="circle28"/>
	<circle cx="113.852" cy="70.5772" r="4" fill="#0" id="circle29"/>
	<circle cx="120.51" cy="355.195" r="4" fill="#0" id="circle30"/>
	<circle cx="127.168" cy="80.5638" r="4" fill="#0" id="circle31"/>
	<circle cx="133.826" cy="345.208" r="4" fill="#0" id="circle32"/>
	<circle cx="142.148" cy="88.8859" r="4" fill="#0" id="circle33"/>
	<circle cx="142.148" cy="328.564" r="4" fill="#0" id="circle34"/>
	<circle cx="147.141" cy="288.617" r="4" fill="#0" id="circle35"/>
	<circle cx="147.141" cy="305.262" r="4" fill="#0" id="circle36"/>
	<circle cx="155.463" cy="100.537" r="4" fill="#0" id="circle37"/>
	<circle cx="160.456" cy="276.966" r="4" fill="#0" id="circle38"/>
	<circle cx="172.107" cy="103.866" r="4" fill="#0" id="circle39"/>
	<circle cx="172.107" cy="263.651" r="4" fill="#0" id="circle40"/>
	<circle cx="187.087" cy="112.188" r="4" fill="#0" id="circle41"/>
	<circle cx="188.752" cy="255.329" r="4" fill="#0" id="circle42"/>
	<circle cx="197.074" cy="125.503" r="4" fill="#0" id="circle43"/>
	<circle cx="205.396" cy="255.329" r="4" fill="#0" id="circle44"/>
	<circle cx="213.718" cy="125.503" r="4" fill="#0" id="circle45"/>
	<circle cx="222.04" cy="247.007" r="4" fill="#0" id="circle46"/>
	<circle cx="230.362" cy="128.832" r="4" fill="#0" id="circle47"/>
	<circle cx="238.685" cy="247.007" r="4" fill="#0" id="circle48"/>
	<circle cx="247.007" cy="128.832" r="4" fill="#0" id="circle49"/>
	<circle cx="255.329" cy="238.685" r="4" fill="#0" id="circle50"/>
	<circle cx="263.651" cy="128.832" r="4" fill="#0" id="circle51"/>
	<circle cx="271.973" cy="238.685" r="4" fill="#0" id="circle52"/>
	<circle cx="280.295" cy="128.832" r="4" fill="#0" id="circle53"/>
	<circle cx="288.617" cy="238.685" r="4" fill="#0" id="circle54"/>
	<circle cx="296.94" cy="128.832" r="4" fill="#0" id="circle55"/>
	<circle cx="305.262" cy="238.685" r="4" fill="#0" id="circle56"/>
	<circle cx="311.919" cy="120.51" r="4" fill="#0" id="circle57"/>
	<circle cx="311.919" cy="255.329" r="4" fill="#0" id="circle58"/>
	<circle cx="311.919" cy="271.973" r="4" fill="#0" id="circle59"/>
	<circle cx="311.919" cy="288.617" r="4" fill="#0" id="circle60"/>
	<circle cx="311.919" cy="305.262" r="4" fill="#0" id="circle61"/>
	<circle cx="311.919" cy="321.906" r="4" fill="#0" id="circle62"/>
	<circle cx="311.919" cy="338.55" r="4" fill="#0" id="circle63"/>
	<circle cx="316.913" cy="355.195" r="4" fill="#0" id="circle64"/>
	<circle cx="328.564" cy="117.181" r="4" fill="#0" id="circle65"/>
	<circle cx="333.557" cy="361.852" r="4" fill="#0" id="circle66"/>
	<circle cx="345.208" cy="117.181" r="4" fill="#0" id="circle67"/>
	<circle cx="350.201" cy="353.53" r="4" fill="#0" id="circle68"/>
	<circle cx="355.195" cy="247.007" r="4" fill="#0" id="circle69"/>
	<circle cx="355.195" cy="263.651" r="4" fill="#0" id="circle70"/>
	<circle cx="355.195" cy="280.295" r="4" fill="#0" id="circle71"/>
	<circle cx="355.195" cy="296.94" r="4" fill="#0" id="circle72"/>
	<circle cx="355.195" cy="313.584" r="4" fill="#0" id="circle73"/>
	<circle cx="355.195" cy="330.228" r="4" fill="#0" id="circle74"/>
	<circle cx="361.852" cy="112.188" r="4" fill="#0" id="circle75"/>
	<circle cx="371.839" cy="247.007" r="4" fill="#0" id="circle76"/>
	<circle cx="376.832" cy="120.51" r="4" fill="#0" id="circle77"/>
	<circle cx="388.483" cy="133.826" r="4" fill="#0" id="circle78"/>
	<circle cx="388.483" cy="150.47" r="4" fill="#0" id="circle79"/>
	<circle cx="388.483" cy="247.007" r="4" fill="#0" id="circle80"/>
	<circle cx="396.805" cy="165.45" r="4" fill="#0" id="circle81"/>
	<circle cx="405.128" cy="180.43" r="4" fill="#0" id="circle82"/>
	<circle cx="405.128" cy="247.007" r="4" fill="#0" id="circle83"/>
	<circle cx="413.45" cy="195.409" r="4" fill="#0" id="circle84"/>
	<circle cx="413.45" cy="212.054" r="4" fill="#0" id="circle85"/>
	<circle cx="421.772" cy="247.007" r="4" fill="#0" id="circle86"/>
	<circle cx="430.094" cy="212.054" r="4" fill="#0" id="circle87"/>
	<circle cx="438.416" cy="247.007" r="4" fill="#0" id="circle88"/>
	<circle cx="445.074" cy="291.946" r="4" fill="#0" id="circle89"/>
	<circle cx="446.738" cy="212.054" r="4" fill="#0" id="circle90"/>
	<circle cx="448.403" cy="260.322" r="4" fill="#0" id="circle91"/>
	<circle cx="453.396" cy="276.966" r="4" fill="#0" id="circle92"/>
	<circle cx="453.396" cy="306.926" r="4" fill="#0" id="circle93"/>
	<circle cx="453.396" cy="323.57" r="4" fill="#0" id="circle94"/>
	<circle cx="453.396" cy="340.215" r="4" fill="#0" id="circle95"/>
	<circle cx="461.718" cy="355.195" r="4" fill="#0" id="circle96"/>
	<circle cx="463.383" cy="212.054" r="4" fill="#0" id="circle97"/>
	<circle cx="466.711" cy="371.839" r="4" fill="#0" id="circle98"/>
	<circle cx="478.362" cy="385.154" r="4" fill="#0" id="circle99"/>
	<circle cx="480.027" cy="212.054" r="4" fill="#0" id="circle100"/>
	<circle cx="490.013" cy="197.074" r="4" fill="#0" id="circle101"/>
	<circle cx="491.678" cy="396.805" r="4" fill="#0" id="circle102"/>
	<circle cx="495.007" cy="150.47" r="4" fill="#0" id="circle103"/>
	<circle cx="495.007" cy="167.114" r="4" fill="#0" id="circle104"/>
	<circle cx="503.329" cy="133.826" r="4" fill="#0" id="circle105"/>
	<circle cx="508.322" cy="396.805" r="4" fill="#0" id="circle106"/>
	<circle cx="516.644" cy="120.51" r="4" fill="#0" id="circle107"/>
	<circle cx="524.966" cy="396.805" r="4" fill="#0" id="circle108"/>
	<circle cx="533.289" cy="120.51" r="4" fill="#0" id="circle109"/>
	<circle cx="541.611" cy="396.805" r="4" fill="#0" id="circle110"/>
	<circle cx="546.604" cy="107.195" r="4" fill="#0" id="circle111"/>
	<circle cx="556.591" cy="405.128" r="4" fill="#0" id="circle112"/>
	<circle cx="561.584" cy="8.99329" r="4" fill="#0" id="circle113"/>
	<circle cx="561.584" cy="25.6376" r="4" fill="#0" id="circle114"/>
	<circle cx="563.248" cy="98.8725" r="4" fill="#0" id="circle115"/>
	<circle cx="569.906" cy="40.6174" r="4" fill="#0" id="circle116"/>
	<circle cx="569.906" cy="57.2617" r="4" fill="#0" id="circle117"/>
	<circle cx="569.906" cy="73.906" r="4" fill="#0" id="circle118"/>
	<circle cx="573.235" cy="405.128" r="4" fill="#0" id="circle119"/>
	<circle cx="578.228" cy="4" r="4" fill="#0" id="circle120"/>
	<circle cx="589.879" cy="405.128" r="4" fill="#0" id="circle121"/>
	<circle cx="593.208" cy="12.3221" r="4" fill="#0" id="circle122"/>
	<circle cx="603.195" cy="391.812" r="4" fill="#0" id="circle123"/>
	<circle cx="604.859" cy="230.362" r="4" fill="#0" id="circle124"/>
	<circle cx="604.859" cy="247.007" r="4" fill="#0" id="circle125"/>
	<circle cx="604.859" cy="263.651" r="4" fill="#0" id="circle126"/>
	<circle cx="604.859" cy="280.295" r="4" fill="#0" id="circle127"/>
	<circle cx="604.859" cy="305.262" r="4" fill="#0" id="circle128"/>
	<circle cx="604.859" cy="363.517" r="4" fill="#0" id="circle129"/>
	<circle cx="608.188" cy="20.6443" r="4" fill="#0" id="circle130"/>
	<circle cx="613.181" cy="37.2886" r="4" fill="#0" id="circle131"/>
	<circle cx="613.181" cy="320.242" r="4" fill="#0" id="circle132"/>
	<circle cx="613.181" cy="336.886" r="4" fill="#0" id="circle133"/>
	<circle cx="621.503" cy="52.2685" r="4" fill="#0" id="circle134"/>
	<circle cx="621.503" cy="68.9128" r="4" fill="#0" id="circle135"/>
	<circle cx="621.503" cy="230.362" r="4" fill="#0" id="circle136"/>
	<circle cx="629.826" cy="83.8926" r="4" fill="#0" id="circle137"/>
	<circle cx="636.483" cy="100.537" r="4" fill="#0" id="circle138"/>
	<circle cx="638.148" cy="230.362" r="4" fill="#0" id="circle139"/>
	<circle cx="648.134" cy="243.678" r="4" fill="#0" id="circle140"/>
	<circle cx="649.799" cy="112.188" r="4" fill="#0" id="circle141"/>
	<circle cx="654.792" cy="128.832" r="4" fill="#0" id="circle142"/>
	<circle cx="654.792" cy="145.477" r="4" fill="#0" id="circle143"/>
	<circle cx="654.792" cy="162.121" r="4" fill="#0" id="circle144"/>
	<circle cx="654.792" cy="178.765" r="4" fill="#0" id="circle145"/>
	<circle cx="654.792" cy="195.409" r="4" fill="#0" id="circle146"/>
	<circle cx="661.45" cy="255.329" r="4" fill="#0" id="circle147"/>
	<circle cx="661.45" cy="271.973" r="4" fill="#0" id="circle148"/>
	<circle cx="661.45" cy="288.617" r="4" fill="#0" id="circle149"/>
	<circle cx="661.45" cy="305.262" r="4" fill="#0" id="circle150"/>
	<circle cx="663.114" cy="210.389" r="4" fill="#0" id="circle151"/>
	<circle cx="666.443" cy="321.906" r="4" fill="#0" id="circle152"/>
	<circle cx="674.765" cy="336.886" r="4" fill="#0" id="circle153"/>
	<circle cx="679.758" cy="217.047" r="4" fill="#0" id="circle154"/>
	<circle cx="691.409" cy="338.55" r="4" fill="#0" id="circle155"/>
	<circle cx="696.403" cy="215.383" r="4" fill="#0" id="circle156"/>
	<circle cx="708.054" cy="338.55" r="4" fill="#0" id="circle157"/>
	<circle cx="713.047" cy="207.06" r="4" fill="#0" id="circle158"/>
	<circle cx="721.369" cy="190.416" r="4" fill="#0" id="circle159"/>
	<circle cx="724.698" cy="338.55" r="4" fill="#0" id="circle160"/>
	<circle cx="728.027" cy="158.792" r="4" fill="#0" id="circle161"/>
	<circle cx="736.349" cy="142.148" r="4" fill="#0" id="circle162"/>
	<circle cx="741.342" cy="338.55" r="4" fill="#0" id="circle163"/>
	<circle cx="749.664" cy="128.832" r="4" fill="#0" id="circle164"/>
	<circle cx="757.987" cy="338.55" r="4" fill="#0" id="circle165"/>
	<circle cx="766.309" cy="128.832" r="4" fill="#0" id="circle166"/>
	<circle cx="772.966" cy="330.228" r="4" fill="#0" id="circle167"/>
	<circle cx="777.96" cy="58.9262" r="4" fill="#0" id="circle168"/>
	<circle cx="777.96" cy="75.5705" r="4" fill="#0" id="circle169"/>
	<circle cx="777.96" cy="92.2148" r="4" fill="#0" id="circle170"/>
	<circle cx="777.96" cy="108.859" r="4" fill="#0" id="circle171"/>
	<circle cx="787.946" cy="338.55" r="4" fill="#0" id="circle172"/>
	<circle cx="791.275" cy="45.6107" r="4" fill="#0" id="circle173"/>
	<circle cx="802.926" cy="330.228" r="4" fill="#0" id="circle174"/>
	<circle cx="807.919" cy="45.6107" r="4" fill="#0" id="circle175"/>
	<circle cx="811.248" cy="345.208" r="4" fill="#0" id="circle176"/>
	<circle cx="811.248" cy="375.168" r="4" fill="#0" id="circle177"/>
	<circle cx="822.899" cy="53.9329" r="4" fill="#0" id="circle178"/>
	<circle cx="824.564" cy="386.819" r="4" fill="#0" id="circle179"/>
	<circle cx="836.215" cy="65.5839" r="4" fill="#0" id="circle180"/>
	<circle cx="836.215" cy="400.134" r="4" fill="#0" id="circle181"/>
	<circle cx="846.201" cy="78.8993" r="4" fill="#0" id="circle182"/>
	<circle cx="849.53" cy="411.785" r="4" fill="#0" id="circle183"/>
	<circle cx="854.523" cy="93.8792" r="4" fill="#0" id="circle184"/>
	<circle cx="864.51" cy="420.107" r="4" fill="#0" id="circle185"/>
	<circle cx="867.839" cy="105.53" r="4" fill="#0" id="circle186"/>
	<circle cx="876.161" cy="120.51" r="4" fill="#0" id="circle187"/>
	<circle cx="881.154" cy="426.765" r="4" fill="#0" id="circle188"/>
	<circle cx="892.805" cy="120.51" r="4" fill="#0" id="circle189"/>
	<circle cx="897.799" cy="430.094" r="4" fill="#0" id="circle190"/>
	<circle cx="909.45" cy="120.51" r="4" fill="#0" id="circle191"/>
	<circle cx="914.443" cy="430.094" r="4" fill="#0" id="circle192"/>
	<circle cx="926.094" cy="120.51" r="4" fill="#0" id="circle193"/>
	<circle cx="931.087" cy="430.094" r="4" fill="#0" id="circle194"/>
	<circle cx="937.745" cy="133.826" r="4" fill="#0" id="circle195"/>
	<circle cx="937.745" cy="150.47" r="4" fill="#0" id="circle196"/>
	<circle cx="937.745" cy="167.114" r="4" fill="#0" id="circle197"/>
	<circle cx="937.745" cy="183.758" r="4" fill="#0" id="circle198"/>
	<circle cx="937.745" cy="200.403" r="4" fill="#0" id="circle199"/>
	<circle cx="937.745" cy="217.047" r="4" fill="#0" id="circle200"/>
	<circle cx="947.732" cy="430.094" r="4" fill="#0" id="circle201"/>
	<circle cx="951.06" cy="228.698" r="4" fill="#0" id="circle202"/>
	<circle cx="962.711" cy="421.772" r="4" fill="#0" id="circle203"/>
	<circle cx="966.04" cy="237.02" r="4" fill="#0" id="circle204"/>
	<circle cx="976.027" cy="410.121" r="4" fill="#0" id="circle205"/>
	<circle cx="977.691" cy="250.336" r="4" fill="#0" id="circle206"/>
	<circle cx="984.349" cy="393.477" r="4" fill="#0" id="circle207"/>
	<circle cx="986.013" cy="265.315" r="4" fill="#0" id="circle208"/>
	<circle cx="987.678" cy="281.96" r="4" fill="#0" id="circle209"/>
	<circle cx="992.671" cy="298.604" r="4" fill="#0" id="circle210"/>
	<circle cx="996" cy="315.248" r="4" fill="#0" id="circle211"/>
	<circle cx="996" cy="331.893" r="4" fill="#0" id="circle212"/>
	<circle cx="996" cy="348.537" r="4" fill="#0" id="circle213"/>
	<circle cx="996" cy="365.181" r="4" fill="#0" id="circle214"/>
	</g>
</svg>