<?xml version="1.0" encoding="UTF-8" standalone="no"?>
<!-- Created with CurveBenchmark -->
<svg
	xmlns:dc="http://purl.org/dc/elements/1.1/"
	xmlns:cc="http://creativecommons.org/ns#"
	xmlns:rdf="http://www.w3.org/1999/02/22-rdf-syntax-ns#"
	xmlns:svg="http://www.w3.org/2000/svg"
	xmlns="http://www.w3.org/2000/svg"
	xmlns:sodipodi="http://sodipodi.sourceforge.net/DTD/sodipodi-0.dtd"
	xmlns:inkscape="http://www.inkscape.org/namespaces/inkscape"
	width="1000"
	height="1000"
	id="svg2"
	version="1.1"
	sodipodi:docname="manifold/vicur-lmfish-3.png.txt">
<defs
	id="defs4" />
<metadata
	id="metadata7">
	<rdf:RDF>
		<cc:Work
			rdf:about="">
			<dc:format>image/svg+xml</dc:format>
			<dc:type
				rdf:resource="http://purl.org/dc/dcmitype/StillImage" />
			<dc:title></dc:title>
		</cc:Work>
	</rdf:RDF>
</metadata>
<g
	inkscape:label="Layer 1"
	inkscape:groupmode="layer"
	id="layer1">
	<path style="fill:none;stroke:red;stroke-width:1px;stroke-linecap:butt;stroke-linejoin:miter;stroke-opacity:1" d="M 4,628.831 4,633.432 z" id="boundary" inkscape:connector-curvature="0" />
	<path style="fill:none;stroke:red;stroke-width:1px;stroke-linecap:butt;stroke-linejoin:miter;stroke-opacity:1" d="M 4,633.432 6.30056,637.573 z" id="boundary" inkscape:connector-curvature="0" />
	<path style="fill:none;stroke:red;stroke-width:1px;stroke-linecap:butt;stroke-linejoin:miter;stroke-opacity:1" d="M 4,930.204 4,934.805 z" id="boundary" inkscape:connector-curvature="0" />
	<path style="fill:none;stroke:red;stroke-width:1px;stroke-linecap:butt;stroke-linejoin:miter;stroke-opacity:1" d="M 4,946.308 4,950.909 z" id="boundary" inkscape:connector-curvature="0" />
	<path style="fill:none;stroke:red;stroke-width:1px;stroke-linecap:butt;stroke-linejoin:miter;stroke-opacity:1" d="M 4,950.909 6.30056,955.05 z" id="boundary" inkscape:connector-curvature="0" />
	<path style="fill:none;stroke:red;stroke-width:1px;stroke-linecap:butt;stroke-linejoin:miter;stroke-opacity:1" d="M 6.30056,637.573 6.30056,642.174 z" id="boundary" inkscape:connector-curvature="0" />
	<path style="fill:none;stroke:red;stroke-width:1px;stroke-linecap:butt;stroke-linejoin:miter;stroke-opacity:1" d="M 6.30056,642.174 6.30056,646.776 z" id="boundary" inkscape:connector-curvature="0" />
	<path style="fill:none;stroke:red;stroke-width:1px;stroke-linecap:butt;stroke-linejoin:miter;stroke-opacity:1" d="M 6.30056,646.776 6.30056,651.377 z" id="boundary" inkscape:connector-curvature="0" />
	<path style="fill:none;stroke:red;stroke-width:1px;stroke-linecap:butt;stroke-linejoin:miter;stroke-opacity:1" d="M 6.30056,651.377 8.60111,655.518 z" id="boundary" inkscape:connector-curvature="0" />
	<path style="fill:none;stroke:red;stroke-width:1px;stroke-linecap:butt;stroke-linejoin:miter;stroke-opacity:1" d="M 6.30056,955.05 6.30056,959.651 z" id="boundary" inkscape:connector-curvature="0" />
	<path style="fill:none;stroke:red;stroke-width:1px;stroke-linecap:butt;stroke-linejoin:miter;stroke-opacity:1" d="M 6.30056,959.651 6.30056,964.252 z" id="boundary" inkscape:connector-curvature="0" />
	<path style="fill:none;stroke:red;stroke-width:1px;stroke-linecap:butt;stroke-linejoin:miter;stroke-opacity:1" d="M 6.30056,964.252 6.30056,968.853 z" id="boundary" inkscape:connector-curvature="0" />
	<path style="fill:none;stroke:red;stroke-width:1px;stroke-linecap:butt;stroke-linejoin:miter;stroke-opacity:1" d="M 6.30056,968.853 9.52134,972.534 z" id="boundary" inkscape:connector-curvature="0" />
	<path style="fill:none;stroke:red;stroke-width:1px;stroke-linecap:butt;stroke-linejoin:miter;stroke-opacity:1" d="M 8.60111,596.623 8.60111,601.224 z" id="boundary" inkscape:connector-curvature="0" />
	<path style="fill:none;stroke:red;stroke-width:1px;stroke-linecap:butt;stroke-linejoin:miter;stroke-opacity:1" d="M 8.60111,596.623 10.9017,592.022 z" id="boundary" inkscape:connector-curvature="0" />
	<path style="fill:none;stroke:red;stroke-width:1px;stroke-linecap:butt;stroke-linejoin:miter;stroke-opacity:1" d="M 8.60111,655.518 8.60111,660.119 z" id="boundary" inkscape:connector-curvature="0" />
	<path style="fill:none;stroke:red;stroke-width:1px;stroke-linecap:butt;stroke-linejoin:miter;stroke-opacity:1" d="M 8.60111,660.119 8.60111,664.72 z" id="boundary" inkscape:connector-curvature="0" />
	<path style="fill:none;stroke:red;stroke-width:1px;stroke-linecap:butt;stroke-linejoin:miter;stroke-opacity:1" d="M 8.60111,664.72 10.9017,668.861 z" id="boundary" inkscape:connector-curvature="0" />
	<path style="fill:none;stroke:red;stroke-width:1px;stroke-linecap:butt;stroke-linejoin:miter;stroke-opacity:1" d="M 9.52134,972.534 13.2022,975.295 z" id="boundary" inkscape:connector-curvature="0" />
	<path style="fill:none;stroke:red;stroke-width:1px;stroke-linecap:butt;stroke-linejoin:miter;stroke-opacity:1" d="M 10.9017,592.022 14.5826,588.341 z" id="boundary" inkscape:connector-curvature="0" />
	<path style="fill:none;stroke:red;stroke-width:1px;stroke-linecap:butt;stroke-linejoin:miter;stroke-opacity:1" d="M 10.9017,668.861 13.6623,672.542 z" id="boundary" inkscape:connector-curvature="0" />
	<path style="fill:none;stroke:red;stroke-width:1px;stroke-linecap:butt;stroke-linejoin:miter;stroke-opacity:1" d="M 13.2022,975.295 17.8033,975.295 z" id="boundary" inkscape:connector-curvature="0" />
	<path style="fill:none;stroke:red;stroke-width:1px;stroke-linecap:butt;stroke-linejoin:miter;stroke-opacity:1" d="M 13.6623,672.542 16.8831,676.223 z" id="boundary" inkscape:connector-curvature="0" />
	<path style="fill:none;stroke:red;stroke-width:1px;stroke-linecap:butt;stroke-linejoin:miter;stroke-opacity:1" d="M 14.5826,588.341 18.7236,586.041 z" id="boundary" inkscape:connector-curvature="0" />
	<path style="fill:none;stroke:red;stroke-width:1px;stroke-linecap:butt;stroke-linejoin:miter;stroke-opacity:1" d="M 16.8831,676.223 21.4842,678.063 z" id="boundary" inkscape:connector-curvature="0" />
	<path style="fill:none;stroke:red;stroke-width:1px;stroke-linecap:butt;stroke-linejoin:miter;stroke-opacity:1" d="M 17.8033,975.295 21.9443,972.994 z" id="boundary" inkscape:connector-curvature="0" />
	<path style="fill:none;stroke:red;stroke-width:1px;stroke-linecap:butt;stroke-linejoin:miter;stroke-opacity:1" d="M 18.7236,586.041 22.8646,588.341 z" id="boundary" inkscape:connector-curvature="0" />
	<path style="fill:none;stroke:red;stroke-width:1px;stroke-linecap:butt;stroke-linejoin:miter;stroke-opacity:1" d="M 21.4842,678.063 22.4045,682.664 z" id="boundary" inkscape:connector-curvature="0" />
	<path style="fill:none;stroke:red;stroke-width:1px;stroke-linecap:butt;stroke-linejoin:miter;stroke-opacity:1" d="M 21.9443,972.994 26.5455,972.994 z" id="boundary" inkscape:connector-curvature="0" />
	<path style="fill:none;stroke:red;stroke-width:1px;stroke-linecap:butt;stroke-linejoin:miter;stroke-opacity:1" d="M 22.4045,682.664 23.3247,687.265 z" id="boundary" inkscape:connector-curvature="0" />
	<path style="fill:none;stroke:red;stroke-width:1px;stroke-linecap:butt;stroke-linejoin:miter;stroke-opacity:1" d="M 22.8646,588.341 27.0056,585.121 z" id="boundary" inkscape:connector-curvature="0" />
	<path style="fill:none;stroke:red;stroke-width:1px;stroke-linecap:butt;stroke-linejoin:miter;stroke-opacity:1" d="M 23.3247,687.265 25.6252,691.406 z" id="boundary" inkscape:connector-curvature="0" />
	<path style="fill:none;stroke:red;stroke-width:1px;stroke-linecap:butt;stroke-linejoin:miter;stroke-opacity:1" d="M 24.705,479.295 27.0056,483.436 z" id="boundary" inkscape:connector-curvature="0" />
	<path style="fill:none;stroke:red;stroke-width:1px;stroke-linecap:butt;stroke-linejoin:miter;stroke-opacity:1" d="M 24.705,500 24.705,504.601 z" id="boundary" inkscape:connector-curvature="0" />
	<path style="fill:none;stroke:red;stroke-width:1px;stroke-linecap:butt;stroke-linejoin:miter;stroke-opacity:1" d="M 24.705,504.601 27.0056,508.742 z" id="boundary" inkscape:connector-curvature="0" />
	<path style="fill:none;stroke:red;stroke-width:1px;stroke-linecap:butt;stroke-linejoin:miter;stroke-opacity:1" d="M 25.6252,691.406 29.3061,694.627 z" id="boundary" inkscape:connector-curvature="0" />
	<path style="fill:none;stroke:red;stroke-width:1px;stroke-linecap:butt;stroke-linejoin:miter;stroke-opacity:1" d="M 26.5455,972.994 30.6865,975.295 z" id="boundary" inkscape:connector-curvature="0" />
	<path style="fill:none;stroke:red;stroke-width:1px;stroke-linecap:butt;stroke-linejoin:miter;stroke-opacity:1" d="M 27.0056,447.087 29.3061,432.824 z" id="boundary" inkscape:connector-curvature="0" />
	<path style="fill:none;stroke:red;stroke-width:1px;stroke-linecap:butt;stroke-linejoin:miter;stroke-opacity:1" d="M 27.0056,447.087 29.3061,451.228 z" id="boundary" inkscape:connector-curvature="0" />
	<path style="fill:none;stroke:red;stroke-width:1px;stroke-linecap:butt;stroke-linejoin:miter;stroke-opacity:1" d="M 27.0056,465.492 29.3061,451.228 z" id="boundary" inkscape:connector-curvature="0" />
	<path style="fill:none;stroke:red;stroke-width:1px;stroke-linecap:butt;stroke-linejoin:miter;stroke-opacity:1" d="M 27.0056,483.436 27.0056,488.037 z" id="boundary" inkscape:connector-curvature="0" />
	<path style="fill:none;stroke:red;stroke-width:1px;stroke-linecap:butt;stroke-linejoin:miter;stroke-opacity:1" d="M 27.0056,508.742 29.3061,512.883 z" id="boundary" inkscape:connector-curvature="0" />
	<path style="fill:none;stroke:red;stroke-width:1px;stroke-linecap:butt;stroke-linejoin:miter;stroke-opacity:1" d="M 27.0056,585.121 29.3061,580.519 z" id="boundary" inkscape:connector-curvature="0" />
	<path style="fill:none;stroke:red;stroke-width:1px;stroke-linecap:butt;stroke-linejoin:miter;stroke-opacity:1" d="M 29.3061,424.082 29.3061,432.824 z" id="boundary" inkscape:connector-curvature="0" />
	<path style="fill:none;stroke:red;stroke-width:1px;stroke-linecap:butt;stroke-linejoin:miter;stroke-opacity:1" d="M 29.3061,424.082 31.6067,410.278 z" id="boundary" inkscape:connector-curvature="0" />
	<path style="fill:none;stroke:red;stroke-width:1px;stroke-linecap:butt;stroke-linejoin:miter;stroke-opacity:1" d="M 29.3061,512.883 29.3061,517.484 z" id="boundary" inkscape:connector-curvature="0" />
	<path style="fill:none;stroke:red;stroke-width:1px;stroke-linecap:butt;stroke-linejoin:miter;stroke-opacity:1" d="M 29.3061,517.484 29.3061,522.085 z" id="boundary" inkscape:connector-curvature="0" />
	<path style="fill:none;stroke:red;stroke-width:1px;stroke-linecap:butt;stroke-linejoin:miter;stroke-opacity:1" d="M 29.3061,522.085 32.0668,525.766 z" id="boundary" inkscape:connector-curvature="0" />
	<path style="fill:none;stroke:red;stroke-width:1px;stroke-linecap:butt;stroke-linejoin:miter;stroke-opacity:1" d="M 29.3061,580.519 33.9072,578.219 z" id="boundary" inkscape:connector-curvature="0" />
	<path style="fill:none;stroke:red;stroke-width:1px;stroke-linecap:butt;stroke-linejoin:miter;stroke-opacity:1" d="M 29.3061,694.627 33.4471,696.928 z" id="boundary" inkscape:connector-curvature="0" />
	<path style="fill:none;stroke:red;stroke-width:1px;stroke-linecap:butt;stroke-linejoin:miter;stroke-opacity:1" d="M 30.6865,975.295 35.2876,975.295 z" id="boundary" inkscape:connector-curvature="0" />
	<path style="fill:none;stroke:red;stroke-width:1px;stroke-linecap:butt;stroke-linejoin:miter;stroke-opacity:1" d="M 31.6067,405.677 31.6067,410.278 z" id="boundary" inkscape:connector-curvature="0" />
	<path style="fill:none;stroke:red;stroke-width:1px;stroke-linecap:butt;stroke-linejoin:miter;stroke-opacity:1" d="M 31.6067,405.677 33.9072,391.874 z" id="boundary" inkscape:connector-curvature="0" />
	<path style="fill:none;stroke:red;stroke-width:1px;stroke-linecap:butt;stroke-linejoin:miter;stroke-opacity:1" d="M 32.0668,525.766 34.3673,529.907 z" id="boundary" inkscape:connector-curvature="0" />
	<path style="fill:none;stroke:red;stroke-width:1px;stroke-linecap:butt;stroke-linejoin:miter;stroke-opacity:1" d="M 33.4471,696.928 36.2078,700.609 z" id="boundary" inkscape:connector-curvature="0" />
	<path style="fill:none;stroke:red;stroke-width:1px;stroke-linecap:butt;stroke-linejoin:miter;stroke-opacity:1" d="M 33.9072,387.273 33.9072,391.874 z" id="boundary" inkscape:connector-curvature="0" />
	<path style="fill:none;stroke:red;stroke-width:1px;stroke-linecap:butt;stroke-linejoin:miter;stroke-opacity:1" d="M 33.9072,387.273 36.2078,375.77 z" id="boundary" inkscape:connector-curvature="0" />
	<path style="fill:none;stroke:red;stroke-width:1px;stroke-linecap:butt;stroke-linejoin:miter;stroke-opacity:1" d="M 33.9072,578.219 37.5881,574.538 z" id="boundary" inkscape:connector-curvature="0" />
	<path style="fill:none;stroke:red;stroke-width:1px;stroke-linecap:butt;stroke-linejoin:miter;stroke-opacity:1" d="M 34.3673,529.907 36.2078,534.508 z" id="boundary" inkscape:connector-curvature="0" />
	<path style="fill:none;stroke:red;stroke-width:1px;stroke-linecap:butt;stroke-linejoin:miter;stroke-opacity:1" d="M 35.2876,975.295 39.4286,972.994 z" id="boundary" inkscape:connector-curvature="0" />
	<path style="fill:none;stroke:red;stroke-width:1px;stroke-linecap:butt;stroke-linejoin:miter;stroke-opacity:1" d="M 36.2078,375.77 38.5083,368.868 z" id="boundary" inkscape:connector-curvature="0" />
	<path style="fill:none;stroke:red;stroke-width:1px;stroke-linecap:butt;stroke-linejoin:miter;stroke-opacity:1" d="M 36.2078,534.508 38.5083,538.649 z" id="boundary" inkscape:connector-curvature="0" />
	<path style="fill:none;stroke:red;stroke-width:1px;stroke-linecap:butt;stroke-linejoin:miter;stroke-opacity:1" d="M 36.2078,700.609 36.6679,705.21 z" id="boundary" inkscape:connector-curvature="0" />
	<path style="fill:none;stroke:red;stroke-width:1px;stroke-linecap:butt;stroke-linejoin:miter;stroke-opacity:1" d="M 36.6679,705.21 40.3488,708.43 z" id="boundary" inkscape:connector-curvature="0" />
	<path style="fill:none;stroke:red;stroke-width:1px;stroke-linecap:butt;stroke-linejoin:miter;stroke-opacity:1" d="M 37.5881,574.538 42.1892,574.538 z" id="boundary" inkscape:connector-curvature="0" />
	<path style="fill:none;stroke:red;stroke-width:1px;stroke-linecap:butt;stroke-linejoin:miter;stroke-opacity:1" d="M 38.5083,368.868 42.1892,365.187 z" id="boundary" inkscape:connector-curvature="0" />
	<path style="fill:none;stroke:red;stroke-width:1px;stroke-linecap:butt;stroke-linejoin:miter;stroke-opacity:1" d="M 38.5083,538.649 40.8089,542.79 z" id="boundary" inkscape:connector-curvature="0" />
	<path style="fill:none;stroke:red;stroke-width:1px;stroke-linecap:butt;stroke-linejoin:miter;stroke-opacity:1" d="M 39.4286,972.994 43.5696,970.694 z" id="boundary" inkscape:connector-curvature="0" />
	<path style="fill:none;stroke:red;stroke-width:1px;stroke-linecap:butt;stroke-linejoin:miter;stroke-opacity:1" d="M 40.3488,708.43 43.1095,712.111 z" id="boundary" inkscape:connector-curvature="0" />
	<path style="fill:none;stroke:red;stroke-width:1px;stroke-linecap:butt;stroke-linejoin:miter;stroke-opacity:1" d="M 40.8089,542.79 44.9499,545.091 z" id="boundary" inkscape:connector-curvature="0" />
	<path style="fill:none;stroke:red;stroke-width:1px;stroke-linecap:butt;stroke-linejoin:miter;stroke-opacity:1" d="M 42.1892,365.187 44.4898,360.586 z" id="boundary" inkscape:connector-curvature="0" />
	<path style="fill:none;stroke:red;stroke-width:1px;stroke-linecap:butt;stroke-linejoin:miter;stroke-opacity:1" d="M 42.1892,574.538 46.7904,572.237 z" id="boundary" inkscape:connector-curvature="0" />
	<path style="fill:none;stroke:red;stroke-width:1px;stroke-linecap:butt;stroke-linejoin:miter;stroke-opacity:1" d="M 43.5696,970.694 47.7106,972.994 z" id="boundary" inkscape:connector-curvature="0" />
	<path style="fill:none;stroke:red;stroke-width:1px;stroke-linecap:butt;stroke-linejoin:miter;stroke-opacity:1" d="M 44.4898,360.586 45.41,350.464 z" id="boundary" inkscape:connector-curvature="0" />
	<path style="fill:none;stroke:red;stroke-width:1px;stroke-linecap:butt;stroke-linejoin:miter;stroke-opacity:1" d="M 44.9499,545.091 47.7106,548.772 z" id="boundary" inkscape:connector-curvature="0" />
	<path style="fill:none;stroke:red;stroke-width:1px;stroke-linecap:butt;stroke-linejoin:miter;stroke-opacity:1" d="M 45.41,350.464 47.7106,338.961 z" id="boundary" inkscape:connector-curvature="0" />
	<path style="fill:none;stroke:red;stroke-width:1px;stroke-linecap:butt;stroke-linejoin:miter;stroke-opacity:1" d="M 45.41,992.319 49.0909,995.54 z" id="boundary" inkscape:connector-curvature="0" />
	<path style="fill:none;stroke:red;stroke-width:1px;stroke-linecap:butt;stroke-linejoin:miter;stroke-opacity:1" d="M 46.7904,572.237 47.7106,566.716 z" id="boundary" inkscape:connector-curvature="0" />
	<path style="fill:none;stroke:red;stroke-width:1px;stroke-linecap:butt;stroke-linejoin:miter;stroke-opacity:1" d="M 47.7106,334.36 47.7106,338.961 z" id="boundary" inkscape:connector-curvature="0" />
	<path style="fill:none;stroke:red;stroke-width:1px;stroke-linecap:butt;stroke-linejoin:miter;stroke-opacity:1" d="M 47.7106,334.36 50.0111,327.458 z" id="boundary" inkscape:connector-curvature="0" />
	<path style="fill:none;stroke:red;stroke-width:1px;stroke-linecap:butt;stroke-linejoin:miter;stroke-opacity:1" d="M 47.7106,548.772 50.0111,552.913 z" id="boundary" inkscape:connector-curvature="0" />
	<path style="fill:none;stroke:red;stroke-width:1px;stroke-linecap:butt;stroke-linejoin:miter;stroke-opacity:1" d="M 47.7106,566.716 51.3915,563.035 z" id="boundary" inkscape:connector-curvature="0" />
	<path style="fill:none;stroke:red;stroke-width:1px;stroke-linecap:butt;stroke-linejoin:miter;stroke-opacity:1" d="M 49.0909,995.54 53.692,996 z" id="boundary" inkscape:connector-curvature="0" />
	<path style="fill:none;stroke:red;stroke-width:1px;stroke-linecap:butt;stroke-linejoin:miter;stroke-opacity:1" d="M 50.0111,327.458 52.3117,313.655 z" id="boundary" inkscape:connector-curvature="0" />
	<path style="fill:none;stroke:red;stroke-width:1px;stroke-linecap:butt;stroke-linejoin:miter;stroke-opacity:1" d="M 51.3915,563.035 55.5325,565.336 z" id="boundary" inkscape:connector-curvature="0" />
	<path style="fill:none;stroke:red;stroke-width:1px;stroke-linecap:butt;stroke-linejoin:miter;stroke-opacity:1" d="M 52.3117,313.655 54.6122,302.152 z" id="boundary" inkscape:connector-curvature="0" />
	<path style="fill:none;stroke:red;stroke-width:1px;stroke-linecap:butt;stroke-linejoin:miter;stroke-opacity:1" d="M 53.692,996 58.2931,996 z" id="boundary" inkscape:connector-curvature="0" />
	<path style="fill:none;stroke:red;stroke-width:1px;stroke-linecap:butt;stroke-linejoin:miter;stroke-opacity:1" d="M 55.5325,565.336 59.6735,567.636 z" id="boundary" inkscape:connector-curvature="0" />
	<path style="fill:none;stroke:red;stroke-width:1px;stroke-linecap:butt;stroke-linejoin:miter;stroke-opacity:1" d="M 59.6735,567.636 63.3544,570.397 z" id="boundary" inkscape:connector-curvature="0" />
	<path style="fill:none;stroke:red;stroke-width:1px;stroke-linecap:butt;stroke-linejoin:miter;stroke-opacity:1" d="M 64.2746,986.798 67.9555,983.577 z" id="boundary" inkscape:connector-curvature="0" />
	<path style="fill:none;stroke:red;stroke-width:1px;stroke-linecap:butt;stroke-linejoin:miter;stroke-opacity:1" d="M 66.115,240.037 69.7959,236.356 z" id="boundary" inkscape:connector-curvature="0" />
	<path style="fill:none;stroke:red;stroke-width:1px;stroke-linecap:butt;stroke-linejoin:miter;stroke-opacity:1" d="M 67.9555,983.577 71.1763,979.896 z" id="boundary" inkscape:connector-curvature="0" />
	<path style="fill:none;stroke:red;stroke-width:1px;stroke-linecap:butt;stroke-linejoin:miter;stroke-opacity:1" d="M 71.1763,979.896 74.8571,976.675 z" id="boundary" inkscape:connector-curvature="0" />
	<path style="fill:none;stroke:red;stroke-width:1px;stroke-linecap:butt;stroke-linejoin:miter;stroke-opacity:1" d="M 73.0167,223.933 75.3173,219.332 z" id="boundary" inkscape:connector-curvature="0" />
	<path style="fill:none;stroke:red;stroke-width:1px;stroke-linecap:butt;stroke-linejoin:miter;stroke-opacity:1" d="M 75.3173,219.332 79.9184,218.872 z" id="boundary" inkscape:connector-curvature="0" />
	<path style="fill:none;stroke:red;stroke-width:1px;stroke-linecap:butt;stroke-linejoin:miter;stroke-opacity:1" d="M 79.9184,218.872 81.7588,223.473 z" id="boundary" inkscape:connector-curvature="0" />
	<path style="fill:none;stroke:red;stroke-width:1px;stroke-linecap:butt;stroke-linejoin:miter;stroke-opacity:1" d="M 81.7588,223.473 84.9796,227.154 z" id="boundary" inkscape:connector-curvature="0" />
	<path style="fill:none;stroke:red;stroke-width:1px;stroke-linecap:butt;stroke-linejoin:miter;stroke-opacity:1" d="M 84.9796,227.154 89.5807,228.534 z" id="boundary" inkscape:connector-curvature="0" />
	<path style="fill:none;stroke:red;stroke-width:1px;stroke-linecap:butt;stroke-linejoin:miter;stroke-opacity:1" d="M 89.5807,228.534 92.8015,232.215 z" id="boundary" inkscape:connector-curvature="0" />
	<path style="fill:none;stroke:red;stroke-width:1px;stroke-linecap:butt;stroke-linejoin:miter;stroke-opacity:1" d="M 92.8015,232.215 96.4824,235.436 z" id="boundary" inkscape:connector-curvature="0" />
	<path style="fill:none;stroke:red;stroke-width:1px;stroke-linecap:butt;stroke-linejoin:miter;stroke-opacity:1" d="M 96.4824,235.436 99.7032,239.117 z" id="boundary" inkscape:connector-curvature="0" />
	<path style="fill:none;stroke:red;stroke-width:1px;stroke-linecap:butt;stroke-linejoin:miter;stroke-opacity:1" d="M 96.4824,929.284 100.623,926.983 z" id="boundary" inkscape:connector-curvature="0" />
	<path style="fill:none;stroke:red;stroke-width:1px;stroke-linecap:butt;stroke-linejoin:miter;stroke-opacity:1" d="M 99.7032,239.117 102.004,243.258 z" id="boundary" inkscape:connector-curvature="0" />
	<path style="fill:none;stroke:red;stroke-width:1px;stroke-linecap:butt;stroke-linejoin:miter;stroke-opacity:1" d="M 100.623,926.983 105.224,925.603 z" id="boundary" inkscape:connector-curvature="0" />
	<path style="fill:none;stroke:red;stroke-width:1px;stroke-linecap:butt;stroke-linejoin:miter;stroke-opacity:1" d="M 102.004,243.258 105.224,246.939 z" id="boundary" inkscape:connector-curvature="0" />
	<path style="fill:none;stroke:red;stroke-width:1px;stroke-linecap:butt;stroke-linejoin:miter;stroke-opacity:1" d="M 105.224,925.603 107.985,915.481 z" id="boundary" inkscape:connector-curvature="0" />
	<path style="fill:none;stroke:red;stroke-width:1px;stroke-linecap:butt;stroke-linejoin:miter;stroke-opacity:1" d="M 107.985,257.521 107.985,262.122 z" id="boundary" inkscape:connector-curvature="0" />
	<path style="fill:none;stroke:red;stroke-width:1px;stroke-linecap:butt;stroke-linejoin:miter;stroke-opacity:1" d="M 107.985,262.122 110.286,266.263 z" id="boundary" inkscape:connector-curvature="0" />
	<path style="fill:none;stroke:red;stroke-width:1px;stroke-linecap:butt;stroke-linejoin:miter;stroke-opacity:1" d="M 107.985,915.481 110.286,908.579 z" id="boundary" inkscape:connector-curvature="0" />
	<path style="fill:none;stroke:red;stroke-width:1px;stroke-linecap:butt;stroke-linejoin:miter;stroke-opacity:1" d="M 110.286,266.263 112.586,270.404 z" id="boundary" inkscape:connector-curvature="0" />
	<path style="fill:none;stroke:red;stroke-width:1px;stroke-linecap:butt;stroke-linejoin:miter;stroke-opacity:1" d="M 110.286,278.226 112.586,270.404 z" id="boundary" inkscape:connector-curvature="0" />
	<path style="fill:none;stroke:red;stroke-width:1px;stroke-linecap:butt;stroke-linejoin:miter;stroke-opacity:1" d="M 110.286,908.579 113.967,905.358 z" id="boundary" inkscape:connector-curvature="0" />
	<path style="fill:none;stroke:red;stroke-width:1px;stroke-linecap:butt;stroke-linejoin:miter;stroke-opacity:1" d="M 113.967,905.358 117.187,894.776 z" id="boundary" inkscape:connector-curvature="0" />
	<path style="fill:none;stroke:red;stroke-width:1px;stroke-linecap:butt;stroke-linejoin:miter;stroke-opacity:1" d="M 117.187,894.776 119.488,887.874 z" id="boundary" inkscape:connector-curvature="0" />
	<path style="fill:none;stroke:red;stroke-width:1px;stroke-linecap:butt;stroke-linejoin:miter;stroke-opacity:1" d="M 119.028,258.442 121.328,249.239 z" id="boundary" inkscape:connector-curvature="0" />
	<path style="fill:none;stroke:red;stroke-width:1px;stroke-linecap:butt;stroke-linejoin:miter;stroke-opacity:1" d="M 119.488,887.874 121.788,883.273 z" id="boundary" inkscape:connector-curvature="0" />
	<path style="fill:none;stroke:red;stroke-width:1px;stroke-linecap:butt;stroke-linejoin:miter;stroke-opacity:1" d="M 121.328,249.239 123.629,242.338 z" id="boundary" inkscape:connector-curvature="0" />
	<path style="fill:none;stroke:red;stroke-width:1px;stroke-linecap:butt;stroke-linejoin:miter;stroke-opacity:1" d="M 121.788,883.273 124.089,874.071 z" id="boundary" inkscape:connector-curvature="0" />
	<path style="fill:none;stroke:red;stroke-width:1px;stroke-linecap:butt;stroke-linejoin:miter;stroke-opacity:1" d="M 123.629,242.338 125.929,237.737 z" id="boundary" inkscape:connector-curvature="0" />
	<path style="fill:none;stroke:red;stroke-width:1px;stroke-linecap:butt;stroke-linejoin:miter;stroke-opacity:1" d="M 125.929,237.737 128.23,223.933 z" id="boundary" inkscape:connector-curvature="0" />
	<path style="fill:none;stroke:red;stroke-width:1px;stroke-linecap:butt;stroke-linejoin:miter;stroke-opacity:1" d="M 126.39,830.36 126.39,834.961 z" id="boundary" inkscape:connector-curvature="0" />
	<path style="fill:none;stroke:red;stroke-width:1px;stroke-linecap:butt;stroke-linejoin:miter;stroke-opacity:1" d="M 126.39,834.961 128.69,839.102 z" id="boundary" inkscape:connector-curvature="0" />
	<path style="fill:none;stroke:red;stroke-width:1px;stroke-linecap:butt;stroke-linejoin:miter;stroke-opacity:1" d="M 128.23,219.332 128.23,223.933 z" id="boundary" inkscape:connector-curvature="0" />
	<path style="fill:none;stroke:red;stroke-width:1px;stroke-linecap:butt;stroke-linejoin:miter;stroke-opacity:1" d="M 128.23,219.332 130.531,207.829 z" id="boundary" inkscape:connector-curvature="0" />
	<path style="fill:none;stroke:red;stroke-width:1px;stroke-linecap:butt;stroke-linejoin:miter;stroke-opacity:1" d="M 128.69,779.748 128.69,784.349 z" id="boundary" inkscape:connector-curvature="0" />
	<path style="fill:none;stroke:red;stroke-width:1px;stroke-linecap:butt;stroke-linejoin:miter;stroke-opacity:1" d="M 128.69,779.748 132.831,777.447 z" id="boundary" inkscape:connector-curvature="0" />
	<path style="fill:none;stroke:red;stroke-width:1px;stroke-linecap:butt;stroke-linejoin:miter;stroke-opacity:1" d="M 128.69,784.349 128.69,788.95 z" id="boundary" inkscape:connector-curvature="0" />
	<path style="fill:none;stroke:red;stroke-width:1px;stroke-linecap:butt;stroke-linejoin:miter;stroke-opacity:1" d="M 128.69,788.95 128.69,793.551 z" id="boundary" inkscape:connector-curvature="0" />
	<path style="fill:none;stroke:red;stroke-width:1px;stroke-linecap:butt;stroke-linejoin:miter;stroke-opacity:1" d="M 128.69,793.551 128.69,798.152 z" id="boundary" inkscape:connector-curvature="0" />
	<path style="fill:none;stroke:red;stroke-width:1px;stroke-linecap:butt;stroke-linejoin:miter;stroke-opacity:1" d="M 128.69,798.152 128.69,802.753 z" id="boundary" inkscape:connector-curvature="0" />
	<path style="fill:none;stroke:red;stroke-width:1px;stroke-linecap:butt;stroke-linejoin:miter;stroke-opacity:1" d="M 128.69,802.753 128.69,807.354 z" id="boundary" inkscape:connector-curvature="0" />
	<path style="fill:none;stroke:red;stroke-width:1px;stroke-linecap:butt;stroke-linejoin:miter;stroke-opacity:1" d="M 128.69,807.354 128.69,811.955 z" id="boundary" inkscape:connector-curvature="0" />
	<path style="fill:none;stroke:red;stroke-width:1px;stroke-linecap:butt;stroke-linejoin:miter;stroke-opacity:1" d="M 128.69,811.955 128.69,816.557 z" id="boundary" inkscape:connector-curvature="0" />
	<path style="fill:none;stroke:red;stroke-width:1px;stroke-linecap:butt;stroke-linejoin:miter;stroke-opacity:1" d="M 128.69,839.102 128.69,843.703 z" id="boundary" inkscape:connector-curvature="0" />
	<path style="fill:none;stroke:red;stroke-width:1px;stroke-linecap:butt;stroke-linejoin:miter;stroke-opacity:1" d="M 128.69,843.703 128.69,848.304 z" id="boundary" inkscape:connector-curvature="0" />
	<path style="fill:none;stroke:red;stroke-width:1px;stroke-linecap:butt;stroke-linejoin:miter;stroke-opacity:1" d="M 128.69,848.304 128.69,852.905 z" id="boundary" inkscape:connector-curvature="0" />
	<path style="fill:none;stroke:red;stroke-width:1px;stroke-linecap:butt;stroke-linejoin:miter;stroke-opacity:1" d="M 128.69,852.905 128.69,857.506 z" id="boundary" inkscape:connector-curvature="0" />
	<path style="fill:none;stroke:red;stroke-width:1px;stroke-linecap:butt;stroke-linejoin:miter;stroke-opacity:1" d="M 130.531,189.425 130.531,194.026 z" id="boundary" inkscape:connector-curvature="0" />
	<path style="fill:none;stroke:red;stroke-width:1px;stroke-linecap:butt;stroke-linejoin:miter;stroke-opacity:1" d="M 130.531,189.425 132.831,184.824 z" id="boundary" inkscape:connector-curvature="0" />
	<path style="fill:none;stroke:red;stroke-width:1px;stroke-linecap:butt;stroke-linejoin:miter;stroke-opacity:1" d="M 130.531,194.026 130.531,198.627 z" id="boundary" inkscape:connector-curvature="0" />
	<path style="fill:none;stroke:red;stroke-width:1px;stroke-linecap:butt;stroke-linejoin:miter;stroke-opacity:1" d="M 130.531,198.627 130.531,203.228 z" id="boundary" inkscape:connector-curvature="0" />
	<path style="fill:none;stroke:red;stroke-width:1px;stroke-linecap:butt;stroke-linejoin:miter;stroke-opacity:1" d="M 130.531,203.228 130.531,207.829 z" id="boundary" inkscape:connector-curvature="0" />
	<path style="fill:none;stroke:red;stroke-width:1px;stroke-linecap:butt;stroke-linejoin:miter;stroke-opacity:1" d="M 132.831,777.447 137.432,776.067 z" id="boundary" inkscape:connector-curvature="0" />
	<path style="fill:none;stroke:red;stroke-width:1px;stroke-linecap:butt;stroke-linejoin:miter;stroke-opacity:1" d="M 137.432,776.067 142.033,775.147 z" id="boundary" inkscape:connector-curvature="0" />
	<path style="fill:none;stroke:red;stroke-width:1px;stroke-linecap:butt;stroke-linejoin:miter;stroke-opacity:1" d="M 142.033,775.147 146.635,775.147 z" id="boundary" inkscape:connector-curvature="0" />
	<path style="fill:none;stroke:red;stroke-width:1px;stroke-linecap:butt;stroke-linejoin:miter;stroke-opacity:1" d="M 146.635,775.147 150.315,772.386 z" id="boundary" inkscape:connector-curvature="0" />
	<path style="fill:none;stroke:red;stroke-width:1px;stroke-linecap:butt;stroke-linejoin:miter;stroke-opacity:1" d="M 148.935,113.506 152.616,105.224 z" id="boundary" inkscape:connector-curvature="0" />
	<path style="fill:none;stroke:red;stroke-width:1px;stroke-linecap:butt;stroke-linejoin:miter;stroke-opacity:1" d="M 149.395,646.315 149.395,650.917 z" id="boundary" inkscape:connector-curvature="0" />
	<path style="fill:none;stroke:red;stroke-width:1px;stroke-linecap:butt;stroke-linejoin:miter;stroke-opacity:1" d="M 149.395,650.917 149.395,655.518 z" id="boundary" inkscape:connector-curvature="0" />
	<path style="fill:none;stroke:red;stroke-width:1px;stroke-linecap:butt;stroke-linejoin:miter;stroke-opacity:1" d="M 149.395,655.518 149.395,660.119 z" id="boundary" inkscape:connector-curvature="0" />
	<path style="fill:none;stroke:red;stroke-width:1px;stroke-linecap:butt;stroke-linejoin:miter;stroke-opacity:1" d="M 149.395,660.119 153.996,665.18 z" id="boundary" inkscape:connector-curvature="0" />
	<path style="fill:none;stroke:red;stroke-width:1px;stroke-linecap:butt;stroke-linejoin:miter;stroke-opacity:1" d="M 150.315,772.386 153.996,768.245 z" id="boundary" inkscape:connector-curvature="0" />
	<path style="fill:none;stroke:red;stroke-width:1px;stroke-linecap:butt;stroke-linejoin:miter;stroke-opacity:1" d="M 152.616,105.224 155.837,95.102 z" id="boundary" inkscape:connector-curvature="0" />
	<path style="fill:none;stroke:red;stroke-width:1px;stroke-linecap:butt;stroke-linejoin:miter;stroke-opacity:1" d="M 153.996,665.18 157.677,661.959 z" id="boundary" inkscape:connector-curvature="0" />
	<path style="fill:none;stroke:red;stroke-width:1px;stroke-linecap:butt;stroke-linejoin:miter;stroke-opacity:1" d="M 153.996,768.245 158.597,768.245 z" id="boundary" inkscape:connector-curvature="0" />
	<path style="fill:none;stroke:red;stroke-width:1px;stroke-linecap:butt;stroke-linejoin:miter;stroke-opacity:1" d="M 155.837,95.102 158.137,90.5009 z" id="boundary" inkscape:connector-curvature="0" />
	<path style="fill:none;stroke:red;stroke-width:1px;stroke-linecap:butt;stroke-linejoin:miter;stroke-opacity:1" d="M 156.297,572.698 156.297,577.299 z" id="boundary" inkscape:connector-curvature="0" />
	<path style="fill:none;stroke:red;stroke-width:1px;stroke-linecap:butt;stroke-linejoin:miter;stroke-opacity:1" d="M 156.297,572.698 158.597,565.796 z" id="boundary" inkscape:connector-curvature="0" />
	<path style="fill:none;stroke:red;stroke-width:1px;stroke-linecap:butt;stroke-linejoin:miter;stroke-opacity:1" d="M 156.297,577.299 157.217,581.9 z" id="boundary" inkscape:connector-curvature="0" />
	<path style="fill:none;stroke:red;stroke-width:1px;stroke-linecap:butt;stroke-linejoin:miter;stroke-opacity:1" d="M 157.677,661.959 159.518,657.358 z" id="boundary" inkscape:connector-curvature="0" />
	<path style="fill:none;stroke:red;stroke-width:1px;stroke-linecap:butt;stroke-linejoin:miter;stroke-opacity:1" d="M 158.137,90.5009 160.438,85.8998 z" id="boundary" inkscape:connector-curvature="0" />
	<path style="fill:none;stroke:red;stroke-width:1px;stroke-linecap:butt;stroke-linejoin:miter;stroke-opacity:1" d="M 158.597,768.245 162.738,770.545 z" id="boundary" inkscape:connector-curvature="0" />
	<path style="fill:none;stroke:red;stroke-width:1px;stroke-linecap:butt;stroke-linejoin:miter;stroke-opacity:1" d="M 159.518,657.358 163.199,653.677 z" id="boundary" inkscape:connector-curvature="0" />
	<path style="fill:none;stroke:red;stroke-width:1px;stroke-linecap:butt;stroke-linejoin:miter;stroke-opacity:1" d="M 160.438,85.8998 162.738,76.6976 z" id="boundary" inkscape:connector-curvature="0" />
	<path style="fill:none;stroke:red;stroke-width:1px;stroke-linecap:butt;stroke-linejoin:miter;stroke-opacity:1" d="M 160.898,554.293 164.579,551.072 z" id="boundary" inkscape:connector-curvature="0" />
	<path style="fill:none;stroke:red;stroke-width:1px;stroke-linecap:butt;stroke-linejoin:miter;stroke-opacity:1" d="M 162.738,76.6976 166.419,73.0167 z" id="boundary" inkscape:connector-curvature="0" />
	<path style="fill:none;stroke:red;stroke-width:1px;stroke-linecap:butt;stroke-linejoin:miter;stroke-opacity:1" d="M 162.738,770.545 167.34,771.466 z" id="boundary" inkscape:connector-curvature="0" />
	<path style="fill:none;stroke:red;stroke-width:1px;stroke-linecap:butt;stroke-linejoin:miter;stroke-opacity:1" d="M 163.199,653.677 166.879,650.456 z" id="boundary" inkscape:connector-curvature="0" />
	<path style="fill:none;stroke:red;stroke-width:1px;stroke-linecap:butt;stroke-linejoin:miter;stroke-opacity:1" d="M 164.579,551.072 167.8,547.391 z" id="boundary" inkscape:connector-curvature="0" />
	<path style="fill:none;stroke:red;stroke-width:1px;stroke-linecap:butt;stroke-linejoin:miter;stroke-opacity:1" d="M 166.419,73.0167 171.02,70.7161 z" id="boundary" inkscape:connector-curvature="0" />
	<path style="fill:none;stroke:red;stroke-width:1px;stroke-linecap:butt;stroke-linejoin:miter;stroke-opacity:1" d="M 166.879,650.456 171.02,648.156 z" id="boundary" inkscape:connector-curvature="0" />
	<path style="fill:none;stroke:red;stroke-width:1px;stroke-linecap:butt;stroke-linejoin:miter;stroke-opacity:1" d="M 167.34,771.466 171.941,769.165 z" id="boundary" inkscape:connector-curvature="0" />
	<path style="fill:none;stroke:red;stroke-width:1px;stroke-linecap:butt;stroke-linejoin:miter;stroke-opacity:1" d="M 167.8,547.391 172.401,545.091 z" id="boundary" inkscape:connector-curvature="0" />
	<path style="fill:none;stroke:red;stroke-width:1px;stroke-linecap:butt;stroke-linejoin:miter;stroke-opacity:1" d="M 171.02,70.7161 174.241,58.2931 z" id="boundary" inkscape:connector-curvature="0" />
	<path style="fill:none;stroke:red;stroke-width:1px;stroke-linecap:butt;stroke-linejoin:miter;stroke-opacity:1" d="M 171.02,648.156 175.161,645.855 z" id="boundary" inkscape:connector-curvature="0" />
	<path style="fill:none;stroke:red;stroke-width:1px;stroke-linecap:butt;stroke-linejoin:miter;stroke-opacity:1" d="M 171.941,769.165 174.241,764.564 z" id="boundary" inkscape:connector-curvature="0" />
	<path style="fill:none;stroke:red;stroke-width:1px;stroke-linecap:butt;stroke-linejoin:miter;stroke-opacity:1" d="M 172.401,545.091 177.002,542.79 z" id="boundary" inkscape:connector-curvature="0" />
	<path style="fill:none;stroke:red;stroke-width:1px;stroke-linecap:butt;stroke-linejoin:miter;stroke-opacity:1" d="M 174.241,58.2931 176.542,51.3915 z" id="boundary" inkscape:connector-curvature="0" />
	<path style="fill:none;stroke:red;stroke-width:1px;stroke-linecap:butt;stroke-linejoin:miter;stroke-opacity:1" d="M 174.241,764.564 177.922,761.343 z" id="boundary" inkscape:connector-curvature="0" />
	<path style="fill:none;stroke:red;stroke-width:1px;stroke-linecap:butt;stroke-linejoin:miter;stroke-opacity:1" d="M 175.161,645.855 179.302,648.156 z" id="boundary" inkscape:connector-curvature="0" />
	<path style="fill:none;stroke:red;stroke-width:1px;stroke-linecap:butt;stroke-linejoin:miter;stroke-opacity:1" d="M 176.542,51.3915 180.223,47.7106 z" id="boundary" inkscape:connector-curvature="0" />
	<path style="fill:none;stroke:red;stroke-width:1px;stroke-linecap:butt;stroke-linejoin:miter;stroke-opacity:1" d="M 177.002,542.79 181.603,540.49 z" id="boundary" inkscape:connector-curvature="0" />
	<path style="fill:none;stroke:red;stroke-width:1px;stroke-linecap:butt;stroke-linejoin:miter;stroke-opacity:1" d="M 179.302,648.156 182.983,650.917 z" id="boundary" inkscape:connector-curvature="0" />
	<path style="fill:none;stroke:red;stroke-width:1px;stroke-linecap:butt;stroke-linejoin:miter;stroke-opacity:1" d="M 180.223,47.7106 183.443,37.5881 z" id="boundary" inkscape:connector-curvature="0" />
	<path style="fill:none;stroke:red;stroke-width:1px;stroke-linecap:butt;stroke-linejoin:miter;stroke-opacity:1" d="M 181.603,540.49 185.284,537.269 z" id="boundary" inkscape:connector-curvature="0" />
	<path style="fill:none;stroke:red;stroke-width:1px;stroke-linecap:butt;stroke-linejoin:miter;stroke-opacity:1" d="M 182.983,650.917 184.824,655.518 z" id="boundary" inkscape:connector-curvature="0" />
	<path style="fill:none;stroke:red;stroke-width:1px;stroke-linecap:butt;stroke-linejoin:miter;stroke-opacity:1" d="M 183.443,37.5881 187.124,33.9072 z" id="boundary" inkscape:connector-curvature="0" />
	<path style="fill:none;stroke:red;stroke-width:1px;stroke-linecap:butt;stroke-linejoin:miter;stroke-opacity:1" d="M 183.904,738.338 183.904,742.939 z" id="boundary" inkscape:connector-curvature="0" />
	<path style="fill:none;stroke:red;stroke-width:1px;stroke-linecap:butt;stroke-linejoin:miter;stroke-opacity:1" d="M 183.904,742.939 183.904,747.54 z" id="boundary" inkscape:connector-curvature="0" />
	<path style="fill:none;stroke:red;stroke-width:1px;stroke-linecap:butt;stroke-linejoin:miter;stroke-opacity:1" d="M 184.824,655.518 186.204,660.119 z" id="boundary" inkscape:connector-curvature="0" />
	<path style="fill:none;stroke:red;stroke-width:1px;stroke-linecap:butt;stroke-linejoin:miter;stroke-opacity:1" d="M 185.284,537.269 189.885,534.968 z" id="boundary" inkscape:connector-curvature="0" />
	<path style="fill:none;stroke:red;stroke-width:1px;stroke-linecap:butt;stroke-linejoin:miter;stroke-opacity:1" d="M 186.204,660.119 187.124,664.72 z" id="boundary" inkscape:connector-curvature="0" />
	<path style="fill:none;stroke:red;stroke-width:1px;stroke-linecap:butt;stroke-linejoin:miter;stroke-opacity:1" d="M 187.124,664.72 188.505,669.321 z" id="boundary" inkscape:connector-curvature="0" />
	<path style="fill:none;stroke:red;stroke-width:1px;stroke-linecap:butt;stroke-linejoin:miter;stroke-opacity:1" d="M 188.505,669.321 188.505,673.922 z" id="boundary" inkscape:connector-curvature="0" />
	<path style="fill:none;stroke:red;stroke-width:1px;stroke-linecap:butt;stroke-linejoin:miter;stroke-opacity:1" d="M 188.505,673.922 188.505,678.523 z" id="boundary" inkscape:connector-curvature="0" />
	<path style="fill:none;stroke:red;stroke-width:1px;stroke-linecap:butt;stroke-linejoin:miter;stroke-opacity:1" d="M 188.505,678.523 188.505,683.124 z" id="boundary" inkscape:connector-curvature="0" />
	<path style="fill:none;stroke:red;stroke-width:1px;stroke-linecap:butt;stroke-linejoin:miter;stroke-opacity:1" d="M 188.505,683.124 188.505,687.725 z" id="boundary" inkscape:connector-curvature="0" />
	<path style="fill:none;stroke:red;stroke-width:1px;stroke-linecap:butt;stroke-linejoin:miter;stroke-opacity:1" d="M 188.505,687.725 188.505,692.327 z" id="boundary" inkscape:connector-curvature="0" />
	<path style="fill:none;stroke:red;stroke-width:1px;stroke-linecap:butt;stroke-linejoin:miter;stroke-opacity:1" d="M 189.885,534.968 193.106,531.288 z" id="boundary" inkscape:connector-curvature="0" />
	<path style="fill:none;stroke:red;stroke-width:1px;stroke-linecap:butt;stroke-linejoin:miter;stroke-opacity:1" d="M 190.345,21.4842 194.026,17.8033 z" id="boundary" inkscape:connector-curvature="0" />
	<path style="fill:none;stroke:red;stroke-width:1px;stroke-linecap:butt;stroke-linejoin:miter;stroke-opacity:1" d="M 193.106,531.288 196.787,528.067 z" id="boundary" inkscape:connector-curvature="0" />
	<path style="fill:none;stroke:red;stroke-width:1px;stroke-linecap:butt;stroke-linejoin:miter;stroke-opacity:1" d="M 194.026,17.8033 198.627,15.5028 z" id="boundary" inkscape:connector-curvature="0" />
	<path style="fill:none;stroke:red;stroke-width:1px;stroke-linecap:butt;stroke-linejoin:miter;stroke-opacity:1" d="M 194.486,254.301 196.787,249.699 z" id="boundary" inkscape:connector-curvature="0" />
	<path style="fill:none;stroke:red;stroke-width:1px;stroke-linecap:butt;stroke-linejoin:miter;stroke-opacity:1" d="M 194.486,254.301 197.247,258.442 z" id="boundary" inkscape:connector-curvature="0" />
	<path style="fill:none;stroke:red;stroke-width:1px;stroke-linecap:butt;stroke-linejoin:miter;stroke-opacity:1" d="M 196.787,249.699 197.707,243.718 z" id="boundary" inkscape:connector-curvature="0" />
	<path style="fill:none;stroke:red;stroke-width:1px;stroke-linecap:butt;stroke-linejoin:miter;stroke-opacity:1" d="M 196.787,528.067 200.007,522.085 z" id="boundary" inkscape:connector-curvature="0" />
	<path style="fill:none;stroke:red;stroke-width:1px;stroke-linecap:butt;stroke-linejoin:miter;stroke-opacity:1" d="M 197.247,258.442 197.247,263.043 z" id="boundary" inkscape:connector-curvature="0" />
	<path style="fill:none;stroke:red;stroke-width:1px;stroke-linecap:butt;stroke-linejoin:miter;stroke-opacity:1" d="M 197.707,243.718 200.007,239.117 z" id="boundary" inkscape:connector-curvature="0" />
	<path style="fill:none;stroke:red;stroke-width:1px;stroke-linecap:butt;stroke-linejoin:miter;stroke-opacity:1" d="M 198.627,15.5028 200.928,10.9017 z" id="boundary" inkscape:connector-curvature="0" />
	<path style="fill:none;stroke:red;stroke-width:1px;stroke-linecap:butt;stroke-linejoin:miter;stroke-opacity:1" d="M 200.007,239.117 204.148,244.638 z" id="boundary" inkscape:connector-curvature="0" />
	<path style="fill:none;stroke:red;stroke-width:1px;stroke-linecap:butt;stroke-linejoin:miter;stroke-opacity:1" d="M 200.007,522.085 202.308,517.484 z" id="boundary" inkscape:connector-curvature="0" />
	<path style="fill:none;stroke:red;stroke-width:1px;stroke-linecap:butt;stroke-linejoin:miter;stroke-opacity:1" d="M 200.928,10.9017 204.609,7.22078 z" id="boundary" inkscape:connector-curvature="0" />
	<path style="fill:none;stroke:red;stroke-width:1px;stroke-linecap:butt;stroke-linejoin:miter;stroke-opacity:1" d="M 202.308,227.614 204.609,220.712 z" id="boundary" inkscape:connector-curvature="0" />
	<path style="fill:none;stroke:red;stroke-width:1px;stroke-linecap:butt;stroke-linejoin:miter;stroke-opacity:1" d="M 204.148,244.638 207.829,240.957 z" id="boundary" inkscape:connector-curvature="0" />
	<path style="fill:none;stroke:red;stroke-width:1px;stroke-linecap:butt;stroke-linejoin:miter;stroke-opacity:1" d="M 204.609,7.22078 208.289,4 z" id="boundary" inkscape:connector-curvature="0" />
	<path style="fill:none;stroke:red;stroke-width:1px;stroke-linecap:butt;stroke-linejoin:miter;stroke-opacity:1" d="M 204.609,220.712 208.289,217.492 z" id="boundary" inkscape:connector-curvature="0" />
	<path style="fill:none;stroke:red;stroke-width:1px;stroke-linecap:butt;stroke-linejoin:miter;stroke-opacity:1" d="M 206.909,501.38 210.59,498.16 z" id="boundary" inkscape:connector-curvature="0" />
	<path style="fill:none;stroke:red;stroke-width:1px;stroke-linecap:butt;stroke-linejoin:miter;stroke-opacity:1" d="M 207.829,240.957 212.43,240.957 z" id="boundary" inkscape:connector-curvature="0" />
	<path style="fill:none;stroke:red;stroke-width:1px;stroke-linecap:butt;stroke-linejoin:miter;stroke-opacity:1" d="M 208.289,4 212.891,4 z" id="boundary" inkscape:connector-curvature="0" />
	<path style="fill:none;stroke:red;stroke-width:1px;stroke-linecap:butt;stroke-linejoin:miter;stroke-opacity:1" d="M 208.289,217.492 211.51,209.21 z" id="boundary" inkscape:connector-curvature="0" />
	<path style="fill:none;stroke:red;stroke-width:1px;stroke-linecap:butt;stroke-linejoin:miter;stroke-opacity:1" d="M 210.59,498.16 213.811,487.577 z" id="boundary" inkscape:connector-curvature="0" />
	<path style="fill:none;stroke:red;stroke-width:1px;stroke-linecap:butt;stroke-linejoin:miter;stroke-opacity:1" d="M 211.51,209.21 213.811,200.007 z" id="boundary" inkscape:connector-curvature="0" />
	<path style="fill:none;stroke:red;stroke-width:1px;stroke-linecap:butt;stroke-linejoin:miter;stroke-opacity:1" d="M 212.43,240.957 216.111,243.718 z" id="boundary" inkscape:connector-curvature="0" />
	<path style="fill:none;stroke:red;stroke-width:1px;stroke-linecap:butt;stroke-linejoin:miter;stroke-opacity:1" d="M 212.891,4 217.492,4.46011 z" id="boundary" inkscape:connector-curvature="0" />
	<path style="fill:none;stroke:red;stroke-width:1px;stroke-linecap:butt;stroke-linejoin:miter;stroke-opacity:1" d="M 213.811,200.007 217.492,196.787 z" id="boundary" inkscape:connector-curvature="0" />
	<path style="fill:none;stroke:red;stroke-width:1px;stroke-linecap:butt;stroke-linejoin:miter;stroke-opacity:1" d="M 213.811,478.375 213.811,487.577 z" id="boundary" inkscape:connector-curvature="0" />
	<path style="fill:none;stroke:red;stroke-width:1px;stroke-linecap:butt;stroke-linejoin:miter;stroke-opacity:1" d="M 216.111,243.718 218.412,247.859 z" id="boundary" inkscape:connector-curvature="0" />
	<path style="fill:none;stroke:red;stroke-width:1px;stroke-linecap:butt;stroke-linejoin:miter;stroke-opacity:1" d="M 217.492,4.46011 220.712,8.141 z" id="boundary" inkscape:connector-curvature="0" />
	<path style="fill:none;stroke:red;stroke-width:1px;stroke-linecap:butt;stroke-linejoin:miter;stroke-opacity:1" d="M 218.412,186.204 222.093,182.983 z" id="boundary" inkscape:connector-curvature="0" />
	<path style="fill:none;stroke:red;stroke-width:1px;stroke-linecap:butt;stroke-linejoin:miter;stroke-opacity:1" d="M 218.412,257.521 218.412,262.122 z" id="boundary" inkscape:connector-curvature="0" />
	<path style="fill:none;stroke:red;stroke-width:1px;stroke-linecap:butt;stroke-linejoin:miter;stroke-opacity:1" d="M 218.412,262.122 220.712,266.263 z" id="boundary" inkscape:connector-curvature="0" />
	<path style="fill:none;stroke:red;stroke-width:1px;stroke-linecap:butt;stroke-linejoin:miter;stroke-opacity:1" d="M 220.712,8.141 224.393,11.3618 z" id="boundary" inkscape:connector-curvature="0" />
	<path style="fill:none;stroke:red;stroke-width:1px;stroke-linecap:butt;stroke-linejoin:miter;stroke-opacity:1" d="M 220.712,266.263 220.712,270.865 z" id="boundary" inkscape:connector-curvature="0" />
	<path style="fill:none;stroke:red;stroke-width:1px;stroke-linecap:butt;stroke-linejoin:miter;stroke-opacity:1" d="M 220.712,270.865 220.712,275.466 z" id="boundary" inkscape:connector-curvature="0" />
	<path style="fill:none;stroke:red;stroke-width:1px;stroke-linecap:butt;stroke-linejoin:miter;stroke-opacity:1" d="M 220.712,275.466 220.712,280.067 z" id="boundary" inkscape:connector-curvature="0" />
	<path style="fill:none;stroke:red;stroke-width:1px;stroke-linecap:butt;stroke-linejoin:miter;stroke-opacity:1" d="M 220.712,280.067 220.712,284.668 z" id="boundary" inkscape:connector-curvature="0" />
	<path style="fill:none;stroke:red;stroke-width:1px;stroke-linecap:butt;stroke-linejoin:miter;stroke-opacity:1" d="M 220.712,284.668 220.712,289.269 z" id="boundary" inkscape:connector-curvature="0" />
	<path style="fill:none;stroke:red;stroke-width:1px;stroke-linecap:butt;stroke-linejoin:miter;stroke-opacity:1" d="M 220.712,289.269 220.712,293.87 z" id="boundary" inkscape:connector-curvature="0" />
	<path style="fill:none;stroke:red;stroke-width:1px;stroke-linecap:butt;stroke-linejoin:miter;stroke-opacity:1" d="M 220.712,293.87 220.712,298.471 z" id="boundary" inkscape:connector-curvature="0" />
	<path style="fill:none;stroke:red;stroke-width:1px;stroke-linecap:butt;stroke-linejoin:miter;stroke-opacity:1" d="M 220.712,298.471 220.712,303.072 z" id="boundary" inkscape:connector-curvature="0" />
	<path style="fill:none;stroke:red;stroke-width:1px;stroke-linecap:butt;stroke-linejoin:miter;stroke-opacity:1" d="M 220.712,351.844 220.712,356.445 z" id="boundary" inkscape:connector-curvature="0" />
	<path style="fill:none;stroke:red;stroke-width:1px;stroke-linecap:butt;stroke-linejoin:miter;stroke-opacity:1" d="M 220.712,356.445 220.712,361.046 z" id="boundary" inkscape:connector-curvature="0" />
	<path style="fill:none;stroke:red;stroke-width:1px;stroke-linecap:butt;stroke-linejoin:miter;stroke-opacity:1" d="M 220.712,361.046 220.712,365.647 z" id="boundary" inkscape:connector-curvature="0" />
	<path style="fill:none;stroke:red;stroke-width:1px;stroke-linecap:butt;stroke-linejoin:miter;stroke-opacity:1" d="M 220.712,365.647 220.712,370.249 z" id="boundary" inkscape:connector-curvature="0" />
	<path style="fill:none;stroke:red;stroke-width:1px;stroke-linecap:butt;stroke-linejoin:miter;stroke-opacity:1" d="M 220.712,370.249 220.712,374.85 z" id="boundary" inkscape:connector-curvature="0" />
	<path style="fill:none;stroke:red;stroke-width:1px;stroke-linecap:butt;stroke-linejoin:miter;stroke-opacity:1" d="M 220.712,374.85 220.712,379.451 z" id="boundary" inkscape:connector-curvature="0" />
	<path style="fill:none;stroke:red;stroke-width:1px;stroke-linecap:butt;stroke-linejoin:miter;stroke-opacity:1" d="M 220.712,379.451 220.712,384.052 z" id="boundary" inkscape:connector-curvature="0" />
	<path style="fill:none;stroke:red;stroke-width:1px;stroke-linecap:butt;stroke-linejoin:miter;stroke-opacity:1" d="M 220.712,384.052 220.712,388.653 z" id="boundary" inkscape:connector-curvature="0" />
	<path style="fill:none;stroke:red;stroke-width:1px;stroke-linecap:butt;stroke-linejoin:miter;stroke-opacity:1" d="M 220.712,388.653 220.712,393.254 z" id="boundary" inkscape:connector-curvature="0" />
	<path style="fill:none;stroke:red;stroke-width:1px;stroke-linecap:butt;stroke-linejoin:miter;stroke-opacity:1" d="M 220.712,393.254 220.712,397.855 z" id="boundary" inkscape:connector-curvature="0" />
	<path style="fill:none;stroke:red;stroke-width:1px;stroke-linecap:butt;stroke-linejoin:miter;stroke-opacity:1" d="M 220.712,407.058 220.712,411.659 z" id="boundary" inkscape:connector-curvature="0" />
	<path style="fill:none;stroke:red;stroke-width:1px;stroke-linecap:butt;stroke-linejoin:miter;stroke-opacity:1" d="M 220.712,411.659 220.712,416.26 z" id="boundary" inkscape:connector-curvature="0" />
	<path style="fill:none;stroke:red;stroke-width:1px;stroke-linecap:butt;stroke-linejoin:miter;stroke-opacity:1" d="M 222.093,182.983 225.314,170.1 z" id="boundary" inkscape:connector-curvature="0" />
	<path style="fill:none;stroke:red;stroke-width:1px;stroke-linecap:butt;stroke-linejoin:miter;stroke-opacity:1" d="M 224.393,11.3618 227.614,15.0427 z" id="boundary" inkscape:connector-curvature="0" />
	<path style="fill:none;stroke:red;stroke-width:1px;stroke-linecap:butt;stroke-linejoin:miter;stroke-opacity:1" d="M 225.314,165.499 225.314,170.1 z" id="boundary" inkscape:connector-curvature="0" />
	<path style="fill:none;stroke:red;stroke-width:1px;stroke-linecap:butt;stroke-linejoin:miter;stroke-opacity:1" d="M 225.314,165.499 227.614,153.996 z" id="boundary" inkscape:connector-curvature="0" />
	<path style="fill:none;stroke:red;stroke-width:1px;stroke-linecap:butt;stroke-linejoin:miter;stroke-opacity:1" d="M 227.614,15.0427 229.915,19.1837 z" id="boundary" inkscape:connector-curvature="0" />
	<path style="fill:none;stroke:red;stroke-width:1px;stroke-linecap:butt;stroke-linejoin:miter;stroke-opacity:1" d="M 227.614,149.395 227.614,153.996 z" id="boundary" inkscape:connector-curvature="0" />
	<path style="fill:none;stroke:red;stroke-width:1px;stroke-linecap:butt;stroke-linejoin:miter;stroke-opacity:1" d="M 227.614,149.395 231.295,146.174 z" id="boundary" inkscape:connector-curvature="0" />
	<path style="fill:none;stroke:red;stroke-width:1px;stroke-linecap:butt;stroke-linejoin:miter;stroke-opacity:1" d="M 229.915,19.1837 229.915,23.7848 z" id="boundary" inkscape:connector-curvature="0" />
	<path style="fill:none;stroke:red;stroke-width:1px;stroke-linecap:butt;stroke-linejoin:miter;stroke-opacity:1" d="M 229.915,23.7848 232.215,27.9258 z" id="boundary" inkscape:connector-curvature="0" />
	<path style="fill:none;stroke:red;stroke-width:1px;stroke-linecap:butt;stroke-linejoin:miter;stroke-opacity:1" d="M 232.215,27.9258 232.215,32.5269 z" id="boundary" inkscape:connector-curvature="0" />
	<path style="fill:none;stroke:red;stroke-width:1px;stroke-linecap:butt;stroke-linejoin:miter;stroke-opacity:1" d="M 232.215,32.5269 232.215,37.128 z" id="boundary" inkscape:connector-curvature="0" />
	<path style="fill:none;stroke:red;stroke-width:1px;stroke-linecap:butt;stroke-linejoin:miter;stroke-opacity:1" d="M 232.215,37.128 232.215,41.7291 z" id="boundary" inkscape:connector-curvature="0" />
	<path style="fill:none;stroke:red;stroke-width:1px;stroke-linecap:butt;stroke-linejoin:miter;stroke-opacity:1" d="M 234.516,52.7718 236.816,56.9128 z" id="boundary" inkscape:connector-curvature="0" />
	<path style="fill:none;stroke:red;stroke-width:1px;stroke-linecap:butt;stroke-linejoin:miter;stroke-opacity:1" d="M 236.816,56.9128 239.117,61.0538 z" id="boundary" inkscape:connector-curvature="0" />
	<circle cx="4" cy="628.831" r="4" fill="#0" id="circle0"/>
	<circle cx="4" cy="633.432" r="4" fill="#0" id="circle1"/>
	<circle cx="4" cy="925.603" r="4" fill="#0" id="circle2"/>
	<circle cx="4" cy="930.204" r="4" fill="#0" id="circle3"/>
	<circle cx="4" cy="934.805" r="4" fill="#0" id="circle4"/>
	<circle cx="4" cy="946.308" r="4" fill="#0" id="circle5"/>
	<circle cx="4" cy="950.909" r="4" fill="#0" id="circle6"/>
	<circle cx="6.30056" cy="612.727" r="4" fill="#0" id="circle7"/>
	<circle cx="6.30056" cy="617.328" r="4" fill="#0" id="circle8"/>
	<circle cx="6.30056" cy="621.929" r="4" fill="#0" id="circle9"/>
	<circle cx="6.30056" cy="637.573" r="4" fill="#0" id="circle10"/>
	<circle cx="6.30056" cy="642.174" r="4" fill="#0" id="circle11"/>
	<circle cx="6.30056" cy="646.776" r="4" fill="#0" id="circle12"/>
	<circle cx="6.30056" cy="651.377" r="4" fill="#0" id="circle13"/>
	<circle cx="6.30056" cy="907.199" r="4" fill="#0" id="circle14"/>
	<circle cx="6.30056" cy="911.8" r="4" fill="#0" id="circle15"/>
	<circle cx="6.30056" cy="916.401" r="4" fill="#0" id="circle16"/>
	<circle cx="6.30056" cy="921.002" r="4" fill="#0" id="circle17"/>
	<circle cx="6.30056" cy="938.946" r="4" fill="#0" id="circle18"/>
	<circle cx="6.30056" cy="955.05" r="4" fill="#0" id="circle19"/>
	<circle cx="6.30056" cy="959.651" r="4" fill="#0" id="circle20"/>
	<circle cx="6.30056" cy="964.252" r="4" fill="#0" id="circle21"/>
	<circle cx="6.30056" cy="968.853" r="4" fill="#0" id="circle22"/>
	<circle cx="8.60111" cy="596.623" r="4" fill="#0" id="circle23"/>
	<circle cx="8.60111" cy="601.224" r="4" fill="#0" id="circle24"/>
	<circle cx="8.60111" cy="605.826" r="4" fill="#0" id="circle25"/>
	<circle cx="8.60111" cy="655.518" r="4" fill="#0" id="circle26"/>
	<circle cx="8.60111" cy="660.119" r="4" fill="#0" id="circle27"/>
	<circle cx="8.60111" cy="664.72" r="4" fill="#0" id="circle28"/>
	<circle cx="8.60111" cy="888.794" r="4" fill="#0" id="circle29"/>
	<circle cx="8.60111" cy="893.395" r="4" fill="#0" id="circle30"/>
	<circle cx="8.60111" cy="897.996" r="4" fill="#0" id="circle31"/>
	<circle cx="8.60111" cy="902.597" r="4" fill="#0" id="circle32"/>
	<circle cx="9.52134" cy="972.534" r="4" fill="#0" id="circle33"/>
	<circle cx="10.9017" cy="592.022" r="4" fill="#0" id="circle34"/>
	<circle cx="10.9017" cy="668.861" r="4" fill="#0" id="circle35"/>
	<circle cx="12.282" cy="885.113" r="4" fill="#0" id="circle36"/>
	<circle cx="13.2022" cy="874.991" r="4" fill="#0" id="circle37"/>
	<circle cx="13.2022" cy="879.592" r="4" fill="#0" id="circle38"/>
	<circle cx="13.2022" cy="975.295" r="4" fill="#0" id="circle39"/>
	<circle cx="13.6623" cy="672.542" r="4" fill="#0" id="circle40"/>
	<circle cx="14.5826" cy="588.341" r="4" fill="#0" id="circle41"/>
	<circle cx="15.5028" cy="870.39" r="4" fill="#0" id="circle42"/>
	<circle cx="16.8831" cy="676.223" r="4" fill="#0" id="circle43"/>
	<circle cx="17.8033" cy="975.295" r="4" fill="#0" id="circle44"/>
	<circle cx="18.7236" cy="586.041" r="4" fill="#0" id="circle45"/>
	<circle cx="19.1837" cy="866.709" r="4" fill="#0" id="circle46"/>
	<circle cx="20.1039" cy="854.286" r="4" fill="#0" id="circle47"/>
	<circle cx="20.1039" cy="858.887" r="4" fill="#0" id="circle48"/>
	<circle cx="21.4842" cy="678.063" r="4" fill="#0" id="circle49"/>
	<circle cx="21.9443" cy="972.994" r="4" fill="#0" id="circle50"/>
	<circle cx="22.4045" cy="682.664" r="4" fill="#0" id="circle51"/>
	<circle cx="22.4045" cy="833.581" r="4" fill="#0" id="circle52"/>
	<circle cx="22.4045" cy="838.182" r="4" fill="#0" id="circle53"/>
	<circle cx="22.4045" cy="842.783" r="4" fill="#0" id="circle54"/>
	<circle cx="22.4045" cy="847.384" r="4" fill="#0" id="circle55"/>
	<circle cx="22.8646" cy="588.341" r="4" fill="#0" id="circle56"/>
	<circle cx="23.3247" cy="687.265" r="4" fill="#0" id="circle57"/>
	<circle cx="24.705" cy="479.295" r="4" fill="#0" id="circle58"/>
	<circle cx="24.705" cy="500" r="4" fill="#0" id="circle59"/>
	<circle cx="24.705" cy="504.601" r="4" fill="#0" id="circle60"/>
	<circle cx="24.705" cy="828.98" r="4" fill="#0" id="circle61"/>
	<circle cx="25.6252" cy="691.406" r="4" fill="#0" id="circle62"/>
	<circle cx="26.5455" cy="972.994" r="4" fill="#0" id="circle63"/>
	<circle cx="27.0056" cy="428.683" r="4" fill="#0" id="circle64"/>
	<circle cx="27.0056" cy="447.087" r="4" fill="#0" id="circle65"/>
	<circle cx="27.0056" cy="465.492" r="4" fill="#0" id="circle66"/>
	<circle cx="27.0056" cy="470.093" r="4" fill="#0" id="circle67"/>
	<circle cx="27.0056" cy="474.694" r="4" fill="#0" id="circle68"/>
	<circle cx="27.0056" cy="483.436" r="4" fill="#0" id="circle69"/>
	<circle cx="27.0056" cy="488.037" r="4" fill="#0" id="circle70"/>
	<circle cx="27.0056" cy="492.638" r="4" fill="#0" id="circle71"/>
	<circle cx="27.0056" cy="508.742" r="4" fill="#0" id="circle72"/>
	<circle cx="27.0056" cy="585.121" r="4" fill="#0" id="circle73"/>
	<circle cx="27.0056" cy="817.477" r="4" fill="#0" id="circle74"/>
	<circle cx="27.0056" cy="822.078" r="4" fill="#0" id="circle75"/>
	<circle cx="29.3061" cy="424.082" r="4" fill="#0" id="circle76"/>
	<circle cx="29.3061" cy="432.824" r="4" fill="#0" id="circle77"/>
	<circle cx="29.3061" cy="442.486" r="4" fill="#0" id="circle78"/>
	<circle cx="29.3061" cy="451.228" r="4" fill="#0" id="circle79"/>
	<circle cx="29.3061" cy="460.891" r="4" fill="#0" id="circle80"/>
	<circle cx="29.3061" cy="512.883" r="4" fill="#0" id="circle81"/>
	<circle cx="29.3061" cy="517.484" r="4" fill="#0" id="circle82"/>
	<circle cx="29.3061" cy="522.085" r="4" fill="#0" id="circle83"/>
	<circle cx="29.3061" cy="580.519" r="4" fill="#0" id="circle84"/>
	<circle cx="29.3061" cy="694.627" r="4" fill="#0" id="circle85"/>
	<circle cx="29.3061" cy="812.876" r="4" fill="#0" id="circle86"/>
	<circle cx="30.6865" cy="975.295" r="4" fill="#0" id="circle87"/>
	<circle cx="31.6067" cy="405.677" r="4" fill="#0" id="circle88"/>
	<circle cx="31.6067" cy="410.278" r="4" fill="#0" id="circle89"/>
	<circle cx="31.6067" cy="414.879" r="4" fill="#0" id="circle90"/>
	<circle cx="31.6067" cy="419.481" r="4" fill="#0" id="circle91"/>
	<circle cx="31.6067" cy="436.965" r="4" fill="#0" id="circle92"/>
	<circle cx="31.6067" cy="455.369" r="4" fill="#0" id="circle93"/>
	<circle cx="31.6067" cy="796.772" r="4" fill="#0" id="circle94"/>
	<circle cx="31.6067" cy="801.373" r="4" fill="#0" id="circle95"/>
	<circle cx="31.6067" cy="805.974" r="4" fill="#0" id="circle96"/>
	<circle cx="32.0668" cy="525.766" r="4" fill="#0" id="circle97"/>
	<circle cx="33.4471" cy="696.928" r="4" fill="#0" id="circle98"/>
	<circle cx="33.9072" cy="387.273" r="4" fill="#0" id="circle99"/>
	<circle cx="33.9072" cy="391.874" r="4" fill="#0" id="circle100"/>
	<circle cx="33.9072" cy="396.475" r="4" fill="#0" id="circle101"/>
	<circle cx="33.9072" cy="401.076" r="4" fill="#0" id="circle102"/>
	<circle cx="33.9072" cy="578.219" r="4" fill="#0" id="circle103"/>
	<circle cx="33.9072" cy="778.367" r="4" fill="#0" id="circle104"/>
	<circle cx="33.9072" cy="782.968" r="4" fill="#0" id="circle105"/>
	<circle cx="33.9072" cy="787.57" r="4" fill="#0" id="circle106"/>
	<circle cx="33.9072" cy="792.171" r="4" fill="#0" id="circle107"/>
	<circle cx="34.3673" cy="529.907" r="4" fill="#0" id="circle108"/>
	<circle cx="35.2876" cy="975.295" r="4" fill="#0" id="circle109"/>
	<circle cx="36.2078" cy="375.77" r="4" fill="#0" id="circle110"/>
	<circle cx="36.2078" cy="380.371" r="4" fill="#0" id="circle111"/>
	<circle cx="36.2078" cy="534.508" r="4" fill="#0" id="circle112"/>
	<circle cx="36.2078" cy="700.609" r="4" fill="#0" id="circle113"/>
	<circle cx="36.2078" cy="762.263" r="4" fill="#0" id="circle114"/>
	<circle cx="36.2078" cy="766.865" r="4" fill="#0" id="circle115"/>
	<circle cx="36.2078" cy="771.466" r="4" fill="#0" id="circle116"/>
	<circle cx="36.6679" cy="705.21" r="4" fill="#0" id="circle117"/>
	<circle cx="37.5881" cy="574.538" r="4" fill="#0" id="circle118"/>
	<circle cx="38.5083" cy="368.868" r="4" fill="#0" id="circle119"/>
	<circle cx="38.5083" cy="538.649" r="4" fill="#0" id="circle120"/>
	<circle cx="38.5083" cy="748.46" r="4" fill="#0" id="circle121"/>
	<circle cx="38.5083" cy="753.061" r="4" fill="#0" id="circle122"/>
	<circle cx="38.5083" cy="757.662" r="4" fill="#0" id="circle123"/>
	<circle cx="39.4286" cy="972.994" r="4" fill="#0" id="circle124"/>
	<circle cx="40.3488" cy="708.43" r="4" fill="#0" id="circle125"/>
	<circle cx="40.8089" cy="542.79" r="4" fill="#0" id="circle126"/>
	<circle cx="40.8089" cy="741.558" r="4" fill="#0" id="circle127"/>
	<circle cx="42.1892" cy="365.187" r="4" fill="#0" id="circle128"/>
	<circle cx="42.1892" cy="574.538" r="4" fill="#0" id="circle129"/>
	<circle cx="43.1095" cy="712.111" r="4" fill="#0" id="circle130"/>
	<circle cx="43.1095" cy="736.957" r="4" fill="#0" id="circle131"/>
	<circle cx="43.5696" cy="970.694" r="4" fill="#0" id="circle132"/>
	<circle cx="44.4898" cy="360.586" r="4" fill="#0" id="circle133"/>
	<circle cx="44.9499" cy="545.091" r="4" fill="#0" id="circle134"/>
	<circle cx="45.41" cy="350.464" r="4" fill="#0" id="circle135"/>
	<circle cx="45.41" cy="355.065" r="4" fill="#0" id="circle136"/>
	<circle cx="45.41" cy="716.252" r="4" fill="#0" id="circle137"/>
	<circle cx="45.41" cy="723.154" r="4" fill="#0" id="circle138"/>
	<circle cx="45.41" cy="727.755" r="4" fill="#0" id="circle139"/>
	<circle cx="45.41" cy="732.356" r="4" fill="#0" id="circle140"/>
	<circle cx="45.41" cy="992.319" r="4" fill="#0" id="circle141"/>
	<circle cx="46.7904" cy="572.237" r="4" fill="#0" id="circle142"/>
	<circle cx="47.7106" cy="334.36" r="4" fill="#0" id="circle143"/>
	<circle cx="47.7106" cy="338.961" r="4" fill="#0" id="circle144"/>
	<circle cx="47.7106" cy="343.562" r="4" fill="#0" id="circle145"/>
	<circle cx="47.7106" cy="548.772" r="4" fill="#0" id="circle146"/>
	<circle cx="47.7106" cy="566.716" r="4" fill="#0" id="circle147"/>
	<circle cx="47.7106" cy="972.994" r="4" fill="#0" id="circle148"/>
	<circle cx="47.7106" cy="983.117" r="4" fill="#0" id="circle149"/>
	<circle cx="47.7106" cy="987.718" r="4" fill="#0" id="circle150"/>
	<circle cx="49.0909" cy="995.54" r="4" fill="#0" id="circle151"/>
	<circle cx="50.0111" cy="327.458" r="4" fill="#0" id="circle152"/>
	<circle cx="50.0111" cy="552.913" r="4" fill="#0" id="circle153"/>
	<circle cx="50.0111" cy="977.135" r="4" fill="#0" id="circle154"/>
	<circle cx="51.3915" cy="563.035" r="4" fill="#0" id="circle155"/>
	<circle cx="52.3117" cy="313.655" r="4" fill="#0" id="circle156"/>
	<circle cx="52.3117" cy="318.256" r="4" fill="#0" id="circle157"/>
	<circle cx="52.3117" cy="322.857" r="4" fill="#0" id="circle158"/>
	<circle cx="53.692" cy="556.134" r="4" fill="#0" id="circle159"/>
	<circle cx="53.692" cy="996" r="4" fill="#0" id="circle160"/>
	<circle cx="54.6122" cy="297.551" r="4" fill="#0" id="circle161"/>
	<circle cx="54.6122" cy="302.152" r="4" fill="#0" id="circle162"/>
	<circle cx="54.6122" cy="306.753" r="4" fill="#0" id="circle163"/>
	<circle cx="55.5325" cy="565.336" r="4" fill="#0" id="circle164"/>
	<circle cx="56.9128" cy="292.95" r="4" fill="#0" id="circle165"/>
	<circle cx="56.9128" cy="559.814" r="4" fill="#0" id="circle166"/>
	<circle cx="58.2931" cy="996" r="4" fill="#0" id="circle167"/>
	<circle cx="59.2134" cy="276.846" r="4" fill="#0" id="circle168"/>
	<circle cx="59.2134" cy="281.447" r="4" fill="#0" id="circle169"/>
	<circle cx="59.2134" cy="286.048" r="4" fill="#0" id="circle170"/>
	<circle cx="59.6735" cy="567.636" r="4" fill="#0" id="circle171"/>
	<circle cx="61.5139" cy="258.442" r="4" fill="#0" id="circle172"/>
	<circle cx="61.5139" cy="263.043" r="4" fill="#0" id="circle173"/>
	<circle cx="61.5139" cy="267.644" r="4" fill="#0" id="circle174"/>
	<circle cx="61.5139" cy="272.245" r="4" fill="#0" id="circle175"/>
	<circle cx="61.5139" cy="561.195" r="4" fill="#0" id="circle176"/>
	<circle cx="62.4341" cy="993.699" r="4" fill="#0" id="circle177"/>
	<circle cx="63.3544" cy="570.397" r="4" fill="#0" id="circle178"/>
	<circle cx="63.8145" cy="244.638" r="4" fill="#0" id="circle179"/>
	<circle cx="63.8145" cy="249.239" r="4" fill="#0" id="circle180"/>
	<circle cx="63.8145" cy="253.84" r="4" fill="#0" id="circle181"/>
	<circle cx="64.2746" cy="564.876" r="4" fill="#0" id="circle182"/>
	<circle cx="64.2746" cy="986.798" r="4" fill="#0" id="circle183"/>
	<circle cx="66.115" cy="240.037" r="4" fill="#0" id="circle184"/>
	<circle cx="67.9555" cy="569.937" r="4" fill="#0" id="circle185"/>
	<circle cx="67.9555" cy="983.577" r="4" fill="#0" id="circle186"/>
	<circle cx="69.7959" cy="236.356" r="4" fill="#0" id="circle187"/>
	<circle cx="71.1763" cy="979.896" r="4" fill="#0" id="circle188"/>
	<circle cx="72.0965" cy="231.755" r="4" fill="#0" id="circle189"/>
	<circle cx="73.0167" cy="223.933" r="4" fill="#0" id="circle190"/>
	<circle cx="74.8571" cy="976.675" r="4" fill="#0" id="circle191"/>
	<circle cx="75.3173" cy="219.332" r="4" fill="#0" id="circle192"/>
	<circle cx="78.0779" cy="972.994" r="4" fill="#0" id="circle193"/>
	<circle cx="79.9184" cy="218.872" r="4" fill="#0" id="circle194"/>
	<circle cx="80.3785" cy="966.093" r="4" fill="#0" id="circle195"/>
	<circle cx="81.7588" cy="223.473" r="4" fill="#0" id="circle196"/>
	<circle cx="84.0594" cy="962.872" r="4" fill="#0" id="circle197"/>
	<circle cx="84.9796" cy="227.154" r="4" fill="#0" id="circle198"/>
	<circle cx="87.2801" cy="954.59" r="4" fill="#0" id="circle199"/>
	<circle cx="87.2801" cy="959.191" r="4" fill="#0" id="circle200"/>
	<circle cx="89.5807" cy="228.534" r="4" fill="#0" id="circle201"/>
	<circle cx="89.5807" cy="947.688" r="4" fill="#0" id="circle202"/>
	<circle cx="91.8813" cy="943.087" r="4" fill="#0" id="circle203"/>
	<circle cx="92.8015" cy="232.215" r="4" fill="#0" id="circle204"/>
	<circle cx="95.5622" cy="939.866" r="4" fill="#0" id="circle205"/>
	<circle cx="96.4824" cy="235.436" r="4" fill="#0" id="circle206"/>
	<circle cx="96.4824" cy="929.284" r="4" fill="#0" id="circle207"/>
	<circle cx="96.4824" cy="933.885" r="4" fill="#0" id="circle208"/>
	<circle cx="99.7032" cy="239.117" r="4" fill="#0" id="circle209"/>
	<circle cx="100.623" cy="926.983" r="4" fill="#0" id="circle210"/>
	<circle cx="102.004" cy="243.258" r="4" fill="#0" id="circle211"/>
	<circle cx="105.224" cy="246.939" r="4" fill="#0" id="circle212"/>
	<circle cx="105.224" cy="925.603" r="4" fill="#0" id="circle213"/>
	<circle cx="107.985" cy="250.62" r="4" fill="#0" id="circle214"/>
	<circle cx="107.985" cy="257.521" r="4" fill="#0" id="circle215"/>
	<circle cx="107.985" cy="262.122" r="4" fill="#0" id="circle216"/>
	<circle cx="107.985" cy="915.481" r="4" fill="#0" id="circle217"/>
	<circle cx="107.985" cy="920.082" r="4" fill="#0" id="circle218"/>
	<circle cx="110.286" cy="266.263" r="4" fill="#0" id="circle219"/>
	<circle cx="110.286" cy="278.226" r="4" fill="#0" id="circle220"/>
	<circle cx="110.286" cy="908.579" r="4" fill="#0" id="circle221"/>
	<circle cx="112.586" cy="270.404" r="4" fill="#0" id="circle222"/>
	<circle cx="112.586" cy="282.367" r="4" fill="#0" id="circle223"/>
	<circle cx="113.967" cy="905.358" r="4" fill="#0" id="circle224"/>
	<circle cx="116.727" cy="276.846" r="4" fill="#0" id="circle225"/>
	<circle cx="117.187" cy="894.776" r="4" fill="#0" id="circle226"/>
	<circle cx="117.187" cy="899.377" r="4" fill="#0" id="circle227"/>
	<circle cx="119.028" cy="258.442" r="4" fill="#0" id="circle228"/>
	<circle cx="119.028" cy="263.043" r="4" fill="#0" id="circle229"/>
	<circle cx="119.028" cy="267.644" r="4" fill="#0" id="circle230"/>
	<circle cx="119.028" cy="272.245" r="4" fill="#0" id="circle231"/>
	<circle cx="119.488" cy="887.874" r="4" fill="#0" id="circle232"/>
	<circle cx="121.328" cy="249.239" r="4" fill="#0" id="circle233"/>
	<circle cx="121.328" cy="253.84" r="4" fill="#0" id="circle234"/>
	<circle cx="121.788" cy="883.273" r="4" fill="#0" id="circle235"/>
	<circle cx="123.629" cy="242.338" r="4" fill="#0" id="circle236"/>
	<circle cx="124.089" cy="874.071" r="4" fill="#0" id="circle237"/>
	<circle cx="124.089" cy="878.672" r="4" fill="#0" id="circle238"/>
	<circle cx="125.929" cy="237.737" r="4" fill="#0" id="circle239"/>
	<circle cx="126.39" cy="830.36" r="4" fill="#0" id="circle240"/>
	<circle cx="126.39" cy="834.961" r="4" fill="#0" id="circle241"/>
	<circle cx="126.39" cy="869.469" r="4" fill="#0" id="circle242"/>
	<circle cx="128.23" cy="219.332" r="4" fill="#0" id="circle243"/>
	<circle cx="128.23" cy="223.933" r="4" fill="#0" id="circle244"/>
	<circle cx="128.23" cy="228.534" r="4" fill="#0" id="circle245"/>
	<circle cx="128.23" cy="233.135" r="4" fill="#0" id="circle246"/>
	<circle cx="128.69" cy="779.748" r="4" fill="#0" id="circle247"/>
	<circle cx="128.69" cy="784.349" r="4" fill="#0" id="circle248"/>
	<circle cx="128.69" cy="788.95" r="4" fill="#0" id="circle249"/>
	<circle cx="128.69" cy="793.551" r="4" fill="#0" id="circle250"/>
	<circle cx="128.69" cy="798.152" r="4" fill="#0" id="circle251"/>
	<circle cx="128.69" cy="802.753" r="4" fill="#0" id="circle252"/>
	<circle cx="128.69" cy="807.354" r="4" fill="#0" id="circle253"/>
	<circle cx="128.69" cy="811.955" r="4" fill="#0" id="circle254"/>
	<circle cx="128.69" cy="816.557" r="4" fill="#0" id="circle255"/>
	<circle cx="128.69" cy="821.158" r="4" fill="#0" id="circle256"/>
	<circle cx="128.69" cy="825.759" r="4" fill="#0" id="circle257"/>
	<circle cx="128.69" cy="839.102" r="4" fill="#0" id="circle258"/>
	<circle cx="128.69" cy="843.703" r="4" fill="#0" id="circle259"/>
	<circle cx="128.69" cy="848.304" r="4" fill="#0" id="circle260"/>
	<circle cx="128.69" cy="852.905" r="4" fill="#0" id="circle261"/>
	<circle cx="128.69" cy="857.506" r="4" fill="#0" id="circle262"/>
	<circle cx="128.69" cy="862.108" r="4" fill="#0" id="circle263"/>
	<circle cx="130.531" cy="189.425" r="4" fill="#0" id="circle264"/>
	<circle cx="130.531" cy="194.026" r="4" fill="#0" id="circle265"/>
	<circle cx="130.531" cy="198.627" r="4" fill="#0" id="circle266"/>
	<circle cx="130.531" cy="203.228" r="4" fill="#0" id="circle267"/>
	<circle cx="130.531" cy="207.829" r="4" fill="#0" id="circle268"/>
	<circle cx="130.531" cy="212.43" r="4" fill="#0" id="circle269"/>
	<circle cx="132.831" cy="184.824" r="4" fill="#0" id="circle270"/>
	<circle cx="132.831" cy="777.447" r="4" fill="#0" id="circle271"/>
	<circle cx="135.132" cy="166.419" r="4" fill="#0" id="circle272"/>
	<circle cx="135.132" cy="171.02" r="4" fill="#0" id="circle273"/>
	<circle cx="135.132" cy="175.622" r="4" fill="#0" id="circle274"/>
	<circle cx="135.132" cy="180.223" r="4" fill="#0" id="circle275"/>
	<circle cx="137.432" cy="150.315" r="4" fill="#0" id="circle276"/>
	<circle cx="137.432" cy="154.917" r="4" fill="#0" id="circle277"/>
	<circle cx="137.432" cy="159.518" r="4" fill="#0" id="circle278"/>
	<circle cx="137.432" cy="776.067" r="4" fill="#0" id="circle279"/>
	<circle cx="141.113" cy="146.635" r="4" fill="#0" id="circle280"/>
	<circle cx="142.033" cy="775.147" r="4" fill="#0" id="circle281"/>
	<circle cx="144.334" cy="129.61" r="4" fill="#0" id="circle282"/>
	<circle cx="144.334" cy="134.212" r="4" fill="#0" id="circle283"/>
	<circle cx="144.334" cy="138.813" r="4" fill="#0" id="circle284"/>
	<circle cx="146.635" cy="125.009" r="4" fill="#0" id="circle285"/>
	<circle cx="146.635" cy="775.147" r="4" fill="#0" id="circle286"/>
	<circle cx="148.935" cy="108.905" r="4" fill="#0" id="circle287"/>
	<circle cx="148.935" cy="113.506" r="4" fill="#0" id="circle288"/>
	<circle cx="148.935" cy="118.108" r="4" fill="#0" id="circle289"/>
	<circle cx="149.395" cy="646.315" r="4" fill="#0" id="circle290"/>
	<circle cx="149.395" cy="650.917" r="4" fill="#0" id="circle291"/>
	<circle cx="149.395" cy="655.518" r="4" fill="#0" id="circle292"/>
	<circle cx="149.395" cy="660.119" r="4" fill="#0" id="circle293"/>
	<circle cx="149.395" cy="664.72" r="4" fill="#0" id="circle294"/>
	<circle cx="150.315" cy="772.386" r="4" fill="#0" id="circle295"/>
	<circle cx="151.696" cy="630.212" r="4" fill="#0" id="circle296"/>
	<circle cx="151.696" cy="634.813" r="4" fill="#0" id="circle297"/>
	<circle cx="151.696" cy="639.414" r="4" fill="#0" id="circle298"/>
	<circle cx="152.616" cy="105.224" r="4" fill="#0" id="circle299"/>
	<circle cx="153.996" cy="609.506" r="4" fill="#0" id="circle300"/>
	<circle cx="153.996" cy="614.108" r="4" fill="#0" id="circle301"/>
	<circle cx="153.996" cy="625.61" r="4" fill="#0" id="circle302"/>
	<circle cx="153.996" cy="665.18" r="4" fill="#0" id="circle303"/>
	<circle cx="153.996" cy="768.245" r="4" fill="#0" id="circle304"/>
	<circle cx="155.837" cy="95.102" r="4" fill="#0" id="circle305"/>
	<circle cx="155.837" cy="99.7032" r="4" fill="#0" id="circle306"/>
	<circle cx="156.297" cy="572.698" r="4" fill="#0" id="circle307"/>
	<circle cx="156.297" cy="577.299" r="4" fill="#0" id="circle308"/>
	<circle cx="156.297" cy="593.403" r="4" fill="#0" id="circle309"/>
	<circle cx="156.297" cy="598.004" r="4" fill="#0" id="circle310"/>
	<circle cx="156.297" cy="602.605" r="4" fill="#0" id="circle311"/>
	<circle cx="156.297" cy="618.249" r="4" fill="#0" id="circle312"/>
	<circle cx="157.217" cy="581.9" r="4" fill="#0" id="circle313"/>
	<circle cx="157.677" cy="661.959" r="4" fill="#0" id="circle314"/>
	<circle cx="158.137" cy="90.5009" r="4" fill="#0" id="circle315"/>
	<circle cx="158.597" cy="565.796" r="4" fill="#0" id="circle316"/>
	<circle cx="158.597" cy="586.501" r="4" fill="#0" id="circle317"/>
	<circle cx="158.597" cy="768.245" r="4" fill="#0" id="circle318"/>
	<circle cx="159.518" cy="657.358" r="4" fill="#0" id="circle319"/>
	<circle cx="160.438" cy="85.8998" r="4" fill="#0" id="circle320"/>
	<circle cx="160.898" cy="554.293" r="4" fill="#0" id="circle321"/>
	<circle cx="160.898" cy="558.894" r="4" fill="#0" id="circle322"/>
	<circle cx="162.738" cy="76.6976" r="4" fill="#0" id="circle323"/>
	<circle cx="162.738" cy="81.2987" r="4" fill="#0" id="circle324"/>
	<circle cx="162.738" cy="770.545" r="4" fill="#0" id="circle325"/>
	<circle cx="163.199" cy="653.677" r="4" fill="#0" id="circle326"/>
	<circle cx="164.579" cy="551.072" r="4" fill="#0" id="circle327"/>
	<circle cx="166.419" cy="73.0167" r="4" fill="#0" id="circle328"/>
	<circle cx="166.879" cy="650.456" r="4" fill="#0" id="circle329"/>
	<circle cx="167.34" cy="771.466" r="4" fill="#0" id="circle330"/>
	<circle cx="167.8" cy="547.391" r="4" fill="#0" id="circle331"/>
	<circle cx="171.02" cy="70.7161" r="4" fill="#0" id="circle332"/>
	<circle cx="171.02" cy="648.156" r="4" fill="#0" id="circle333"/>
	<circle cx="171.941" cy="65.1948" r="4" fill="#0" id="circle334"/>
	<circle cx="171.941" cy="769.165" r="4" fill="#0" id="circle335"/>
	<circle cx="172.401" cy="545.091" r="4" fill="#0" id="circle336"/>
	<circle cx="174.241" cy="58.2931" r="4" fill="#0" id="circle337"/>
	<circle cx="174.241" cy="764.564" r="4" fill="#0" id="circle338"/>
	<circle cx="175.161" cy="645.855" r="4" fill="#0" id="circle339"/>
	<circle cx="176.542" cy="51.3915" r="4" fill="#0" id="circle340"/>
	<circle cx="177.002" cy="542.79" r="4" fill="#0" id="circle341"/>
	<circle cx="177.922" cy="761.343" r="4" fill="#0" id="circle342"/>
	<circle cx="179.302" cy="648.156" r="4" fill="#0" id="circle343"/>
	<circle cx="180.223" cy="47.7106" r="4" fill="#0" id="circle344"/>
	<circle cx="181.603" cy="540.49" r="4" fill="#0" id="circle345"/>
	<circle cx="182.063" cy="759.043" r="4" fill="#0" id="circle346"/>
	<circle cx="182.983" cy="650.917" r="4" fill="#0" id="circle347"/>
	<circle cx="183.443" cy="37.5881" r="4" fill="#0" id="circle348"/>
	<circle cx="183.443" cy="42.1892" r="4" fill="#0" id="circle349"/>
	<circle cx="183.904" cy="724.534" r="4" fill="#0" id="circle350"/>
	<circle cx="183.904" cy="729.135" r="4" fill="#0" id="circle351"/>
	<circle cx="183.904" cy="738.338" r="4" fill="#0" id="circle352"/>
	<circle cx="183.904" cy="742.939" r="4" fill="#0" id="circle353"/>
	<circle cx="183.904" cy="747.54" r="4" fill="#0" id="circle354"/>
	<circle cx="183.904" cy="752.141" r="4" fill="#0" id="circle355"/>
	<circle cx="184.824" cy="655.518" r="4" fill="#0" id="circle356"/>
	<circle cx="185.284" cy="537.269" r="4" fill="#0" id="circle357"/>
	<circle cx="186.204" cy="275.926" r="4" fill="#0" id="circle358"/>
	<circle cx="186.204" cy="280.527" r="4" fill="#0" id="circle359"/>
	<circle cx="186.204" cy="285.128" r="4" fill="#0" id="circle360"/>
	<circle cx="186.204" cy="289.729" r="4" fill="#0" id="circle361"/>
	<circle cx="186.204" cy="294.33" r="4" fill="#0" id="circle362"/>
	<circle cx="186.204" cy="660.119" r="4" fill="#0" id="circle363"/>
	<circle cx="186.204" cy="703.829" r="4" fill="#0" id="circle364"/>
	<circle cx="186.204" cy="733.276" r="4" fill="#0" id="circle365"/>
	<circle cx="187.124" cy="33.9072" r="4" fill="#0" id="circle366"/>
	<circle cx="187.124" cy="664.72" r="4" fill="#0" id="circle367"/>
	<circle cx="187.124" cy="708.43" r="4" fill="#0" id="circle368"/>
	<circle cx="187.584" cy="721.314" r="4" fill="#0" id="circle369"/>
	<circle cx="188.505" cy="266.724" r="4" fill="#0" id="circle370"/>
	<circle cx="188.505" cy="271.325" r="4" fill="#0" id="circle371"/>
	<circle cx="188.505" cy="669.321" r="4" fill="#0" id="circle372"/>
	<circle cx="188.505" cy="673.922" r="4" fill="#0" id="circle373"/>
	<circle cx="188.505" cy="678.523" r="4" fill="#0" id="circle374"/>
	<circle cx="188.505" cy="683.124" r="4" fill="#0" id="circle375"/>
	<circle cx="188.505" cy="687.725" r="4" fill="#0" id="circle376"/>
	<circle cx="188.505" cy="692.327" r="4" fill="#0" id="circle377"/>
	<circle cx="188.505" cy="696.928" r="4" fill="#0" id="circle378"/>
	<circle cx="188.505" cy="713.032" r="4" fill="#0" id="circle379"/>
	<circle cx="189.425" cy="29.3061" r="4" fill="#0" id="circle380"/>
	<circle cx="189.885" cy="534.968" r="4" fill="#0" id="circle381"/>
	<circle cx="190.345" cy="21.4842" r="4" fill="#0" id="circle382"/>
	<circle cx="190.345" cy="287.429" r="4" fill="#0" id="circle383"/>
	<circle cx="190.345" cy="292.03" r="4" fill="#0" id="circle384"/>
	<circle cx="190.805" cy="257.521" r="4" fill="#0" id="circle385"/>
	<circle cx="190.805" cy="262.122" r="4" fill="#0" id="circle386"/>
	<circle cx="192.646" cy="279.147" r="4" fill="#0" id="circle387"/>
	<circle cx="193.106" cy="531.288" r="4" fill="#0" id="circle388"/>
	<circle cx="194.026" cy="17.8033" r="4" fill="#0" id="circle389"/>
	<circle cx="194.486" cy="254.301" r="4" fill="#0" id="circle390"/>
	<circle cx="194.946" cy="274.545" r="4" fill="#0" id="circle391"/>
	<circle cx="196.787" cy="249.699" r="4" fill="#0" id="circle392"/>
	<circle cx="196.787" cy="528.067" r="4" fill="#0" id="circle393"/>
	<circle cx="197.247" cy="258.442" r="4" fill="#0" id="circle394"/>
	<circle cx="197.247" cy="263.043" r="4" fill="#0" id="circle395"/>
	<circle cx="197.247" cy="267.644" r="4" fill="#0" id="circle396"/>
	<circle cx="197.707" cy="243.718" r="4" fill="#0" id="circle397"/>
	<circle cx="198.627" cy="15.5028" r="4" fill="#0" id="circle398"/>
	<circle cx="200.007" cy="239.117" r="4" fill="#0" id="circle399"/>
	<circle cx="200.007" cy="522.085" r="4" fill="#0" id="circle400"/>
	<circle cx="200.928" cy="10.9017" r="4" fill="#0" id="circle401"/>
	<circle cx="200.928" cy="254.761" r="4" fill="#0" id="circle402"/>
	<circle cx="201.848" cy="249.239" r="4" fill="#0" id="circle403"/>
	<circle cx="202.308" cy="227.614" r="4" fill="#0" id="circle404"/>
	<circle cx="202.308" cy="232.215" r="4" fill="#0" id="circle405"/>
	<circle cx="202.308" cy="517.484" r="4" fill="#0" id="circle406"/>
	<circle cx="204.148" cy="244.638" r="4" fill="#0" id="circle407"/>
	<circle cx="204.609" cy="7.22078" r="4" fill="#0" id="circle408"/>
	<circle cx="204.609" cy="220.712" r="4" fill="#0" id="circle409"/>
	<circle cx="205.989" cy="514.263" r="4" fill="#0" id="circle410"/>
	<circle cx="206.909" cy="501.38" r="4" fill="#0" id="circle411"/>
	<circle cx="206.909" cy="505.981" r="4" fill="#0" id="circle412"/>
	<circle cx="207.829" cy="240.957" r="4" fill="#0" id="circle413"/>
	<circle cx="208.289" cy="4" r="4" fill="#0" id="circle414"/>
	<circle cx="208.289" cy="217.492" r="4" fill="#0" id="circle415"/>
	<circle cx="210.59" cy="498.16" r="4" fill="#0" id="circle416"/>
	<circle cx="211.51" cy="209.21" r="4" fill="#0" id="circle417"/>
	<circle cx="211.51" cy="213.811" r="4" fill="#0" id="circle418"/>
	<circle cx="212.43" cy="240.957" r="4" fill="#0" id="circle419"/>
	<circle cx="212.891" cy="4" r="4" fill="#0" id="circle420"/>
	<circle cx="213.811" cy="200.007" r="4" fill="#0" id="circle421"/>
	<circle cx="213.811" cy="204.609" r="4" fill="#0" id="circle422"/>
	<circle cx="213.811" cy="478.375" r="4" fill="#0" id="circle423"/>
	<circle cx="213.811" cy="487.577" r="4" fill="#0" id="circle424"/>
	<circle cx="213.811" cy="492.178" r="4" fill="#0" id="circle425"/>
	<circle cx="214.731" cy="482.976" r="4" fill="#0" id="circle426"/>
	<circle cx="216.111" cy="243.718" r="4" fill="#0" id="circle427"/>
	<circle cx="216.111" cy="473.774" r="4" fill="#0" id="circle428"/>
	<circle cx="217.492" cy="4.46011" r="4" fill="#0" id="circle429"/>
	<circle cx="217.492" cy="196.787" r="4" fill="#0" id="circle430"/>
	<circle cx="218.412" cy="186.204" r="4" fill="#0" id="circle431"/>
	<circle cx="218.412" cy="190.805" r="4" fill="#0" id="circle432"/>
	<circle cx="218.412" cy="247.859" r="4" fill="#0" id="circle433"/>
	<circle cx="218.412" cy="257.521" r="4" fill="#0" id="circle434"/>
	<circle cx="218.412" cy="262.122" r="4" fill="#0" id="circle435"/>
	<circle cx="218.412" cy="443.866" r="4" fill="#0" id="circle436"/>
	<circle cx="218.412" cy="448.468" r="4" fill="#0" id="circle437"/>
	<circle cx="218.412" cy="462.271" r="4" fill="#0" id="circle438"/>
	<circle cx="218.412" cy="466.872" r="4" fill="#0" id="circle439"/>
	<circle cx="219.332" cy="453.069" r="4" fill="#0" id="circle440"/>
	<circle cx="220.712" cy="8.141" r="4" fill="#0" id="circle441"/>
	<circle cx="220.712" cy="252" r="4" fill="#0" id="circle442"/>
	<circle cx="220.712" cy="266.263" r="4" fill="#0" id="circle443"/>
	<circle cx="220.712" cy="270.865" r="4" fill="#0" id="circle444"/>
	<circle cx="220.712" cy="275.466" r="4" fill="#0" id="circle445"/>
	<circle cx="220.712" cy="280.067" r="4" fill="#0" id="circle446"/>
	<circle cx="220.712" cy="284.668" r="4" fill="#0" id="circle447"/>
	<circle cx="220.712" cy="289.269" r="4" fill="#0" id="circle448"/>
	<circle cx="220.712" cy="293.87" r="4" fill="#0" id="circle449"/>
	<circle cx="220.712" cy="298.471" r="4" fill="#0" id="circle450"/>
	<circle cx="220.712" cy="303.072" r="4" fill="#0" id="circle451"/>
	<circle cx="220.712" cy="315.035" r="4" fill="#0" id="circle452"/>
	<circle cx="220.712" cy="319.636" r="4" fill="#0" id="circle453"/>
	<circle cx="220.712" cy="324.237" r="4" fill="#0" id="circle454"/>
	<circle cx="220.712" cy="335.74" r="4" fill="#0" id="circle455"/>
	<circle cx="220.712" cy="340.341" r="4" fill="#0" id="circle456"/>
	<circle cx="220.712" cy="351.844" r="4" fill="#0" id="circle457"/>
	<circle cx="220.712" cy="356.445" r="4" fill="#0" id="circle458"/>
	<circle cx="220.712" cy="361.046" r="4" fill="#0" id="circle459"/>
	<circle cx="220.712" cy="365.647" r="4" fill="#0" id="circle460"/>
	<circle cx="220.712" cy="370.249" r="4" fill="#0" id="circle461"/>
	<circle cx="220.712" cy="374.85" r="4" fill="#0" id="circle462"/>
	<circle cx="220.712" cy="379.451" r="4" fill="#0" id="circle463"/>
	<circle cx="220.712" cy="384.052" r="4" fill="#0" id="circle464"/>
	<circle cx="220.712" cy="388.653" r="4" fill="#0" id="circle465"/>
	<circle cx="220.712" cy="393.254" r="4" fill="#0" id="circle466"/>
	<circle cx="220.712" cy="397.855" r="4" fill="#0" id="circle467"/>
	<circle cx="220.712" cy="407.058" r="4" fill="#0" id="circle468"/>
	<circle cx="220.712" cy="411.659" r="4" fill="#0" id="circle469"/>
	<circle cx="220.712" cy="416.26" r="4" fill="#0" id="circle470"/>
	<circle cx="220.712" cy="427.763" r="4" fill="#0" id="circle471"/>
	<circle cx="220.712" cy="432.364" r="4" fill="#0" id="circle472"/>
	<circle cx="220.712" cy="436.965" r="4" fill="#0" id="circle473"/>
	<circle cx="220.712" cy="457.67" r="4" fill="#0" id="circle474"/>
	<circle cx="221.633" cy="420.861" r="4" fill="#0" id="circle475"/>
	<circle cx="222.093" cy="182.983" r="4" fill="#0" id="circle476"/>
	<circle cx="223.013" cy="307.213" r="4" fill="#0" id="circle477"/>
	<circle cx="223.013" cy="328.378" r="4" fill="#0" id="circle478"/>
	<circle cx="223.013" cy="344.482" r="4" fill="#0" id="circle479"/>
	<circle cx="223.013" cy="401.996" r="4" fill="#0" id="circle480"/>
	<circle cx="224.393" cy="11.3618" r="4" fill="#0" id="circle481"/>
	<circle cx="225.314" cy="165.499" r="4" fill="#0" id="circle482"/>
	<circle cx="225.314" cy="170.1" r="4" fill="#0" id="circle483"/>
	<circle cx="225.314" cy="174.701" r="4" fill="#0" id="circle484"/>
	<circle cx="225.314" cy="179.302" r="4" fill="#0" id="circle485"/>
	<circle cx="227.614" cy="15.0427" r="4" fill="#0" id="circle486"/>
	<circle cx="227.614" cy="149.395" r="4" fill="#0" id="circle487"/>
	<circle cx="227.614" cy="153.996" r="4" fill="#0" id="circle488"/>
	<circle cx="227.614" cy="158.597" r="4" fill="#0" id="circle489"/>
	<circle cx="229.915" cy="19.1837" r="4" fill="#0" id="circle490"/>
	<circle cx="229.915" cy="23.7848" r="4" fill="#0" id="circle491"/>
	<circle cx="231.295" cy="146.174" r="4" fill="#0" id="circle492"/>
	<circle cx="232.215" cy="27.9258" r="4" fill="#0" id="circle493"/>
	<circle cx="232.215" cy="32.5269" r="4" fill="#0" id="circle494"/>
	<circle cx="232.215" cy="37.128" r="4" fill="#0" id="circle495"/>
	<circle cx="232.215" cy="41.7291" r="4" fill="#0" id="circle496"/>
	<circle cx="233.596" cy="141.573" r="4" fill="#0" id="circle497"/>
	<circle cx="234.516" cy="52.7718" r="4" fill="#0" id="circle498"/>
	<circle cx="234.516" cy="110.286" r="4" fill="#0" id="circle499"/>
	<circle cx="234.516" cy="114.887" r="4" fill="#0" id="circle500"/>
	<circle cx="234.516" cy="128.69" r="4" fill="#0" id="circle501"/>
	<circle cx="234.516" cy="133.291" r="4" fill="#0" id="circle502"/>
	<circle cx="234.976" cy="45.41" r="4" fill="#0" id="circle503"/>
	<circle cx="236.816" cy="56.9128" r="4" fill="#0" id="circle504"/>
	<circle cx="236.816" cy="105.685" r="4" fill="#0" id="circle505"/>
	<circle cx="236.816" cy="119.028" r="4" fill="#0" id="circle506"/>
	<circle cx="236.816" cy="124.089" r="4" fill="#0" id="circle507"/>
	<circle cx="239.117" cy="61.0538" r="4" fill="#0" id="circle508"/>
	<circle cx="239.117" cy="73.4768" r="4" fill="#0" id="circle509"/>
	<circle cx="239.117" cy="89.5807" r="4" fill="#0" id="circle510"/>
	<circle cx="239.117" cy="94.1818" r="4" fill="#0" id="circle511"/>
	<circle cx="239.117" cy="98.7829" r="4" fill="#0" id="circle512"/>
	<circle cx="240.037" cy="78.0779" r="4" fill="#0" id="circle513"/>
	<circle cx="241.417" cy="65.1948" r="4" fill="#0" id="circle514"/>
	<circle cx="241.417" cy="82.679" r="4" fill="#0" id="circle515"/>
	</g>
</svg>