<?xml version="1.0" encoding="UTF-8" standalone="no"?>
<!-- Created with CurveBenchmark -->
<svg
	xmlns:dc="http://purl.org/dc/elements/1.1/"
	xmlns:cc="http://creativecommons.org/ns#"
	xmlns:rdf="http://www.w3.org/1999/02/22-rdf-syntax-ns#"
	xmlns:svg="http://www.w3.org/2000/svg"
	xmlns="http://www.w3.org/2000/svg"
	xmlns:sodipodi="http://sodipodi.sourceforge.net/DTD/sodipodi-0.dtd"
	xmlns:inkscape="http://www.inkscape.org/namespaces/inkscape"
	width="1000"
	height="1000"
	id="svg2"
	version="1.1"
	sodipodi:docname="manifold/vicur-kitchenknifebinary16.png.txt">
<defs
	id="defs4" />
<metadata
	id="metadata7">
	<rdf:RDF>
		<cc:Work
			rdf:about="">
			<dc:format>image/svg+xml</dc:format>
			<dc:type
				rdf:resource="http://purl.org/dc/dcmitype/StillImage" />
			<dc:title></dc:title>
		</cc:Work>
	</rdf:RDF>
</metadata>
<g
	inkscape:label="Layer 1"
	inkscape:groupmode="layer"
	id="layer1">
	<path style="fill:none;stroke:red;stroke-width:1px;stroke-linecap:butt;stroke-linejoin:miter;stroke-opacity:1" d="M 4,4.82943 4.82943,13.1237 z" id="boundary" inkscape:connector-curvature="0" />
	<path style="fill:none;stroke:red;stroke-width:1px;stroke-linecap:butt;stroke-linejoin:miter;stroke-opacity:1" d="M 4,4.82943 12.2943,4 z" id="boundary" inkscape:connector-curvature="0" />
	<path style="fill:none;stroke:red;stroke-width:1px;stroke-linecap:butt;stroke-linejoin:miter;stroke-opacity:1" d="M 4.82943,13.1237 5.65886,21.4181 z" id="boundary" inkscape:connector-curvature="0" />
	<path style="fill:none;stroke:red;stroke-width:1px;stroke-linecap:butt;stroke-linejoin:miter;stroke-opacity:1" d="M 11.4649,38.0067 15.612,45.4716 z" id="boundary" inkscape:connector-curvature="0" />
	<path style="fill:none;stroke:red;stroke-width:1px;stroke-linecap:butt;stroke-linejoin:miter;stroke-opacity:1" d="M 12.2943,4 20.5886,4.82943 z" id="boundary" inkscape:connector-curvature="0" />
	<path style="fill:none;stroke:red;stroke-width:1px;stroke-linecap:butt;stroke-linejoin:miter;stroke-opacity:1" d="M 15.612,45.4716 20.5886,62.0602 z" id="boundary" inkscape:connector-curvature="0" />
	<path style="fill:none;stroke:red;stroke-width:1px;stroke-linecap:butt;stroke-linejoin:miter;stroke-opacity:1" d="M 20.5886,4.82943 27.2241,10.6355 z" id="boundary" inkscape:connector-curvature="0" />
	<path style="fill:none;stroke:red;stroke-width:1px;stroke-linecap:butt;stroke-linejoin:miter;stroke-opacity:1" d="M 20.5886,62.0602 23.9064,70.3545 z" id="boundary" inkscape:connector-curvature="0" />
	<path style="fill:none;stroke:red;stroke-width:1px;stroke-linecap:butt;stroke-linejoin:miter;stroke-opacity:1" d="M 23.9064,70.3545 29.7124,76.99 z" id="boundary" inkscape:connector-curvature="0" />
	<path style="fill:none;stroke:red;stroke-width:1px;stroke-linecap:butt;stroke-linejoin:miter;stroke-opacity:1" d="M 27.2241,10.6355 35.5184,11.4649 z" id="boundary" inkscape:connector-curvature="0" />
	<path style="fill:none;stroke:red;stroke-width:1px;stroke-linecap:butt;stroke-linejoin:miter;stroke-opacity:1" d="M 35.5184,11.4649 42.9833,15.612 z" id="boundary" inkscape:connector-curvature="0" />
	<path style="fill:none;stroke:red;stroke-width:1px;stroke-linecap:butt;stroke-linejoin:miter;stroke-opacity:1" d="M 38.0067,91.9197 42.9833,98.5552 z" id="boundary" inkscape:connector-curvature="0" />
	<path style="fill:none;stroke:red;stroke-width:1px;stroke-linecap:butt;stroke-linejoin:miter;stroke-opacity:1" d="M 42.9833,98.5552 47.1304,106.02 z" id="boundary" inkscape:connector-curvature="0" />
	<path style="fill:none;stroke:red;stroke-width:1px;stroke-linecap:butt;stroke-linejoin:miter;stroke-opacity:1" d="M 47.1304,106.02 52.107,112.656 z" id="boundary" inkscape:connector-curvature="0" />
	<path style="fill:none;stroke:red;stroke-width:1px;stroke-linecap:butt;stroke-linejoin:miter;stroke-opacity:1" d="M 52.107,112.656 56.2542,120.12 z" id="boundary" inkscape:connector-curvature="0" />
	<path style="fill:none;stroke:red;stroke-width:1px;stroke-linecap:butt;stroke-linejoin:miter;stroke-opacity:1" d="M 56.2542,120.12 61.2308,126.756 z" id="boundary" inkscape:connector-curvature="0" />
	<path style="fill:none;stroke:red;stroke-width:1px;stroke-linecap:butt;stroke-linejoin:miter;stroke-opacity:1" d="M 58.7425,23.0769 67.0368,25.5652 z" id="boundary" inkscape:connector-curvature="0" />
	<path style="fill:none;stroke:red;stroke-width:1px;stroke-linecap:butt;stroke-linejoin:miter;stroke-opacity:1" d="M 61.2308,126.756 65.3779,134.221 z" id="boundary" inkscape:connector-curvature="0" />
	<path style="fill:none;stroke:red;stroke-width:1px;stroke-linecap:butt;stroke-linejoin:miter;stroke-opacity:1" d="M 65.3779,134.221 72.0134,140.027 z" id="boundary" inkscape:connector-curvature="0" />
	<path style="fill:none;stroke:red;stroke-width:1px;stroke-linecap:butt;stroke-linejoin:miter;stroke-opacity:1" d="M 67.0368,25.5652 73.6722,30.5418 z" id="boundary" inkscape:connector-curvature="0" />
	<path style="fill:none;stroke:red;stroke-width:1px;stroke-linecap:butt;stroke-linejoin:miter;stroke-opacity:1" d="M 72.0134,140.027 76.99,146.662 z" id="boundary" inkscape:connector-curvature="0" />
	<path style="fill:none;stroke:red;stroke-width:1px;stroke-linecap:butt;stroke-linejoin:miter;stroke-opacity:1" d="M 73.6722,30.5418 80.3077,35.5184 z" id="boundary" inkscape:connector-curvature="0" />
	<path style="fill:none;stroke:red;stroke-width:1px;stroke-linecap:butt;stroke-linejoin:miter;stroke-opacity:1" d="M 76.99,146.662 81.1371,154.127 z" id="boundary" inkscape:connector-curvature="0" />
	<path style="fill:none;stroke:red;stroke-width:1px;stroke-linecap:butt;stroke-linejoin:miter;stroke-opacity:1" d="M 80.3077,35.5184 87.7726,39.6656 z" id="boundary" inkscape:connector-curvature="0" />
	<path style="fill:none;stroke:red;stroke-width:1px;stroke-linecap:butt;stroke-linejoin:miter;stroke-opacity:1" d="M 81.1371,154.127 87.7726,159.933 z" id="boundary" inkscape:connector-curvature="0" />
	<path style="fill:none;stroke:red;stroke-width:1px;stroke-linecap:butt;stroke-linejoin:miter;stroke-opacity:1" d="M 87.7726,39.6656 95.2375,43.8127 z" id="boundary" inkscape:connector-curvature="0" />
	<path style="fill:none;stroke:red;stroke-width:1px;stroke-linecap:butt;stroke-linejoin:miter;stroke-opacity:1" d="M 87.7726,159.933 91.9197,167.398 z" id="boundary" inkscape:connector-curvature="0" />
	<path style="fill:none;stroke:red;stroke-width:1px;stroke-linecap:butt;stroke-linejoin:miter;stroke-opacity:1" d="M 91.9197,167.398 97.7258,174.033 z" id="boundary" inkscape:connector-curvature="0" />
	<path style="fill:none;stroke:red;stroke-width:1px;stroke-linecap:butt;stroke-linejoin:miter;stroke-opacity:1" d="M 95.2375,43.8127 101.873,49.6187 z" id="boundary" inkscape:connector-curvature="0" />
	<path style="fill:none;stroke:red;stroke-width:1px;stroke-linecap:butt;stroke-linejoin:miter;stroke-opacity:1" d="M 97.7258,174.033 102.702,180.669 z" id="boundary" inkscape:connector-curvature="0" />
	<path style="fill:none;stroke:red;stroke-width:1px;stroke-linecap:butt;stroke-linejoin:miter;stroke-opacity:1" d="M 101.873,49.6187 109.338,53.7659 z" id="boundary" inkscape:connector-curvature="0" />
	<path style="fill:none;stroke:red;stroke-width:1px;stroke-linecap:butt;stroke-linejoin:miter;stroke-opacity:1" d="M 102.702,180.669 110.167,184.816 z" id="boundary" inkscape:connector-curvature="0" />
	<path style="fill:none;stroke:red;stroke-width:1px;stroke-linecap:butt;stroke-linejoin:miter;stroke-opacity:1" d="M 109.338,53.7659 115.973,58.7425 z" id="boundary" inkscape:connector-curvature="0" />
	<path style="fill:none;stroke:red;stroke-width:1px;stroke-linecap:butt;stroke-linejoin:miter;stroke-opacity:1" d="M 110.167,184.816 114.314,192.281 z" id="boundary" inkscape:connector-curvature="0" />
	<path style="fill:none;stroke:red;stroke-width:1px;stroke-linecap:butt;stroke-linejoin:miter;stroke-opacity:1" d="M 114.314,192.281 120.12,198.916 z" id="boundary" inkscape:connector-curvature="0" />
	<path style="fill:none;stroke:red;stroke-width:1px;stroke-linecap:butt;stroke-linejoin:miter;stroke-opacity:1" d="M 115.973,58.7425 122.609,63.7191 z" id="boundary" inkscape:connector-curvature="0" />
	<path style="fill:none;stroke:red;stroke-width:1px;stroke-linecap:butt;stroke-linejoin:miter;stroke-opacity:1" d="M 120.12,198.916 125.926,205.552 z" id="boundary" inkscape:connector-curvature="0" />
	<path style="fill:none;stroke:red;stroke-width:1px;stroke-linecap:butt;stroke-linejoin:miter;stroke-opacity:1" d="M 122.609,63.7191 130.074,67.8662 z" id="boundary" inkscape:connector-curvature="0" />
	<path style="fill:none;stroke:red;stroke-width:1px;stroke-linecap:butt;stroke-linejoin:miter;stroke-opacity:1" d="M 125.926,205.552 132.562,211.358 z" id="boundary" inkscape:connector-curvature="0" />
	<path style="fill:none;stroke:red;stroke-width:1px;stroke-linecap:butt;stroke-linejoin:miter;stroke-opacity:1" d="M 130.074,67.8662 135.05,74.5017 z" id="boundary" inkscape:connector-curvature="0" />
	<path style="fill:none;stroke:red;stroke-width:1px;stroke-linecap:butt;stroke-linejoin:miter;stroke-opacity:1" d="M 132.562,211.358 136.709,218.823 z" id="boundary" inkscape:connector-curvature="0" />
	<path style="fill:none;stroke:red;stroke-width:1px;stroke-linecap:butt;stroke-linejoin:miter;stroke-opacity:1" d="M 135.05,74.5017 141.686,79.4783 z" id="boundary" inkscape:connector-curvature="0" />
	<path style="fill:none;stroke:red;stroke-width:1px;stroke-linecap:butt;stroke-linejoin:miter;stroke-opacity:1" d="M 136.709,218.823 143.344,224.629 z" id="boundary" inkscape:connector-curvature="0" />
	<path style="fill:none;stroke:red;stroke-width:1px;stroke-linecap:butt;stroke-linejoin:miter;stroke-opacity:1" d="M 141.686,79.4783 148.321,84.4548 z" id="boundary" inkscape:connector-curvature="0" />
	<path style="fill:none;stroke:red;stroke-width:1px;stroke-linecap:butt;stroke-linejoin:miter;stroke-opacity:1" d="M 143.344,224.629 148.321,231.264 z" id="boundary" inkscape:connector-curvature="0" />
	<path style="fill:none;stroke:red;stroke-width:1px;stroke-linecap:butt;stroke-linejoin:miter;stroke-opacity:1" d="M 148.321,84.4548 154.127,91.0903 z" id="boundary" inkscape:connector-curvature="0" />
	<path style="fill:none;stroke:red;stroke-width:1px;stroke-linecap:butt;stroke-linejoin:miter;stroke-opacity:1" d="M 148.321,231.264 153.298,237.9 z" id="boundary" inkscape:connector-curvature="0" />
	<path style="fill:none;stroke:red;stroke-width:1px;stroke-linecap:butt;stroke-linejoin:miter;stroke-opacity:1" d="M 153.298,237.9 159.933,242.876 z" id="boundary" inkscape:connector-curvature="0" />
	<path style="fill:none;stroke:red;stroke-width:1px;stroke-linecap:butt;stroke-linejoin:miter;stroke-opacity:1" d="M 154.127,91.0903 161.592,95.2375 z" id="boundary" inkscape:connector-curvature="0" />
	<path style="fill:none;stroke:red;stroke-width:1px;stroke-linecap:butt;stroke-linejoin:miter;stroke-opacity:1" d="M 159.933,242.876 165.739,249.512 z" id="boundary" inkscape:connector-curvature="0" />
	<path style="fill:none;stroke:red;stroke-width:1px;stroke-linecap:butt;stroke-linejoin:miter;stroke-opacity:1" d="M 161.592,95.2375 168.227,101.043 z" id="boundary" inkscape:connector-curvature="0" />
	<path style="fill:none;stroke:red;stroke-width:1px;stroke-linecap:butt;stroke-linejoin:miter;stroke-opacity:1" d="M 165.739,249.512 170.716,256.147 z" id="boundary" inkscape:connector-curvature="0" />
	<path style="fill:none;stroke:red;stroke-width:1px;stroke-linecap:butt;stroke-linejoin:miter;stroke-opacity:1" d="M 168.227,101.043 174.033,107.679 z" id="boundary" inkscape:connector-curvature="0" />
	<path style="fill:none;stroke:red;stroke-width:1px;stroke-linecap:butt;stroke-linejoin:miter;stroke-opacity:1" d="M 170.716,256.147 174.863,263.612 z" id="boundary" inkscape:connector-curvature="0" />
	<path style="fill:none;stroke:red;stroke-width:1px;stroke-linecap:butt;stroke-linejoin:miter;stroke-opacity:1" d="M 174.033,107.679 180.669,112.656 z" id="boundary" inkscape:connector-curvature="0" />
	<path style="fill:none;stroke:red;stroke-width:1px;stroke-linecap:butt;stroke-linejoin:miter;stroke-opacity:1" d="M 174.863,263.612 182.328,267.759 z" id="boundary" inkscape:connector-curvature="0" />
	<path style="fill:none;stroke:red;stroke-width:1px;stroke-linecap:butt;stroke-linejoin:miter;stroke-opacity:1" d="M 180.669,112.656 187.304,118.462 z" id="boundary" inkscape:connector-curvature="0" />
	<path style="fill:none;stroke:red;stroke-width:1px;stroke-linecap:butt;stroke-linejoin:miter;stroke-opacity:1" d="M 182.328,267.759 186.475,275.224 z" id="boundary" inkscape:connector-curvature="0" />
	<path style="fill:none;stroke:red;stroke-width:1px;stroke-linecap:butt;stroke-linejoin:miter;stroke-opacity:1" d="M 186.475,275.224 193.11,281.03 z" id="boundary" inkscape:connector-curvature="0" />
	<path style="fill:none;stroke:red;stroke-width:1px;stroke-linecap:butt;stroke-linejoin:miter;stroke-opacity:1" d="M 187.304,118.462 193.94,124.268 z" id="boundary" inkscape:connector-curvature="0" />
	<path style="fill:none;stroke:red;stroke-width:1px;stroke-linecap:butt;stroke-linejoin:miter;stroke-opacity:1" d="M 193.11,281.03 198.916,287.666 z" id="boundary" inkscape:connector-curvature="0" />
	<path style="fill:none;stroke:red;stroke-width:1px;stroke-linecap:butt;stroke-linejoin:miter;stroke-opacity:1" d="M 193.94,124.268 200.575,129.244 z" id="boundary" inkscape:connector-curvature="0" />
	<path style="fill:none;stroke:red;stroke-width:1px;stroke-linecap:butt;stroke-linejoin:miter;stroke-opacity:1" d="M 198.916,287.666 205.552,293.472 z" id="boundary" inkscape:connector-curvature="0" />
	<path style="fill:none;stroke:red;stroke-width:1px;stroke-linecap:butt;stroke-linejoin:miter;stroke-opacity:1" d="M 200.575,129.244 206.381,135.88 z" id="boundary" inkscape:connector-curvature="0" />
	<path style="fill:none;stroke:red;stroke-width:1px;stroke-linecap:butt;stroke-linejoin:miter;stroke-opacity:1" d="M 205.552,293.472 210.528,300.107 z" id="boundary" inkscape:connector-curvature="0" />
	<path style="fill:none;stroke:red;stroke-width:1px;stroke-linecap:butt;stroke-linejoin:miter;stroke-opacity:1" d="M 206.381,135.88 213.017,141.686 z" id="boundary" inkscape:connector-curvature="0" />
	<path style="fill:none;stroke:red;stroke-width:1px;stroke-linecap:butt;stroke-linejoin:miter;stroke-opacity:1" d="M 210.528,300.107 215.505,306.742 z" id="boundary" inkscape:connector-curvature="0" />
	<path style="fill:none;stroke:red;stroke-width:1px;stroke-linecap:butt;stroke-linejoin:miter;stroke-opacity:1" d="M 213.017,141.686 219.652,146.662 z" id="boundary" inkscape:connector-curvature="0" />
	<path style="fill:none;stroke:red;stroke-width:1px;stroke-linecap:butt;stroke-linejoin:miter;stroke-opacity:1" d="M 215.505,306.742 222.14,311.719 z" id="boundary" inkscape:connector-curvature="0" />
	<path style="fill:none;stroke:red;stroke-width:1px;stroke-linecap:butt;stroke-linejoin:miter;stroke-opacity:1" d="M 219.652,146.662 223.799,154.127 z" id="boundary" inkscape:connector-curvature="0" />
	<path style="fill:none;stroke:red;stroke-width:1px;stroke-linecap:butt;stroke-linejoin:miter;stroke-opacity:1" d="M 222.14,311.719 225.458,320.013 z" id="boundary" inkscape:connector-curvature="0" />
	<path style="fill:none;stroke:red;stroke-width:1px;stroke-linecap:butt;stroke-linejoin:miter;stroke-opacity:1" d="M 223.799,154.127 230.435,159.104 z" id="boundary" inkscape:connector-curvature="0" />
	<path style="fill:none;stroke:red;stroke-width:1px;stroke-linecap:butt;stroke-linejoin:miter;stroke-opacity:1" d="M 225.458,320.013 232.094,324.99 z" id="boundary" inkscape:connector-curvature="0" />
	<path style="fill:none;stroke:red;stroke-width:1px;stroke-linecap:butt;stroke-linejoin:miter;stroke-opacity:1" d="M 230.435,159.104 235.411,165.739 z" id="boundary" inkscape:connector-curvature="0" />
	<path style="fill:none;stroke:red;stroke-width:1px;stroke-linecap:butt;stroke-linejoin:miter;stroke-opacity:1" d="M 232.094,324.99 238.729,330.796 z" id="boundary" inkscape:connector-curvature="0" />
	<path style="fill:none;stroke:red;stroke-width:1px;stroke-linecap:butt;stroke-linejoin:miter;stroke-opacity:1" d="M 235.411,165.739 242.047,170.716 z" id="boundary" inkscape:connector-curvature="0" />
	<path style="fill:none;stroke:red;stroke-width:1px;stroke-linecap:butt;stroke-linejoin:miter;stroke-opacity:1" d="M 238.729,330.796 243.706,337.431 z" id="boundary" inkscape:connector-curvature="0" />
	<path style="fill:none;stroke:red;stroke-width:1px;stroke-linecap:butt;stroke-linejoin:miter;stroke-opacity:1" d="M 242.047,170.716 247.023,177.351 z" id="boundary" inkscape:connector-curvature="0" />
	<path style="fill:none;stroke:red;stroke-width:1px;stroke-linecap:butt;stroke-linejoin:miter;stroke-opacity:1" d="M 243.706,337.431 249.512,344.067 z" id="boundary" inkscape:connector-curvature="0" />
	<path style="fill:none;stroke:red;stroke-width:1px;stroke-linecap:butt;stroke-linejoin:miter;stroke-opacity:1" d="M 247.023,177.351 253.659,182.328 z" id="boundary" inkscape:connector-curvature="0" />
	<path style="fill:none;stroke:red;stroke-width:1px;stroke-linecap:butt;stroke-linejoin:miter;stroke-opacity:1" d="M 249.512,344.067 254.488,350.702 z" id="boundary" inkscape:connector-curvature="0" />
	<path style="fill:none;stroke:red;stroke-width:1px;stroke-linecap:butt;stroke-linejoin:miter;stroke-opacity:1" d="M 253.659,182.328 260.294,188.134 z" id="boundary" inkscape:connector-curvature="0" />
	<path style="fill:none;stroke:red;stroke-width:1px;stroke-linecap:butt;stroke-linejoin:miter;stroke-opacity:1" d="M 254.488,350.702 261.124,355.679 z" id="boundary" inkscape:connector-curvature="0" />
	<path style="fill:none;stroke:red;stroke-width:1px;stroke-linecap:butt;stroke-linejoin:miter;stroke-opacity:1" d="M 260.294,188.134 265.271,194.769 z" id="boundary" inkscape:connector-curvature="0" />
	<path style="fill:none;stroke:red;stroke-width:1px;stroke-linecap:butt;stroke-linejoin:miter;stroke-opacity:1" d="M 261.124,355.679 267.759,361.485 z" id="boundary" inkscape:connector-curvature="0" />
	<path style="fill:none;stroke:red;stroke-width:1px;stroke-linecap:butt;stroke-linejoin:miter;stroke-opacity:1" d="M 265.271,194.769 271.077,201.405 z" id="boundary" inkscape:connector-curvature="0" />
	<path style="fill:none;stroke:red;stroke-width:1px;stroke-linecap:butt;stroke-linejoin:miter;stroke-opacity:1" d="M 267.759,361.485 272.736,368.12 z" id="boundary" inkscape:connector-curvature="0" />
	<path style="fill:none;stroke:red;stroke-width:1px;stroke-linecap:butt;stroke-linejoin:miter;stroke-opacity:1" d="M 271.077,201.405 277.712,207.211 z" id="boundary" inkscape:connector-curvature="0" />
	<path style="fill:none;stroke:red;stroke-width:1px;stroke-linecap:butt;stroke-linejoin:miter;stroke-opacity:1" d="M 272.736,368.12 277.712,374.756 z" id="boundary" inkscape:connector-curvature="0" />
	<path style="fill:none;stroke:red;stroke-width:1px;stroke-linecap:butt;stroke-linejoin:miter;stroke-opacity:1" d="M 277.712,207.211 283.518,213.846 z" id="boundary" inkscape:connector-curvature="0" />
	<path style="fill:none;stroke:red;stroke-width:1px;stroke-linecap:butt;stroke-linejoin:miter;stroke-opacity:1" d="M 277.712,374.756 283.518,381.391 z" id="boundary" inkscape:connector-curvature="0" />
	<path style="fill:none;stroke:red;stroke-width:1px;stroke-linecap:butt;stroke-linejoin:miter;stroke-opacity:1" d="M 283.518,213.846 290.983,217.993 z" id="boundary" inkscape:connector-curvature="0" />
	<path style="fill:none;stroke:red;stroke-width:1px;stroke-linecap:butt;stroke-linejoin:miter;stroke-opacity:1" d="M 283.518,381.391 290.154,386.368 z" id="boundary" inkscape:connector-curvature="0" />
	<path style="fill:none;stroke:red;stroke-width:1px;stroke-linecap:butt;stroke-linejoin:miter;stroke-opacity:1" d="M 290.154,386.368 294.301,393.833 z" id="boundary" inkscape:connector-curvature="0" />
	<path style="fill:none;stroke:red;stroke-width:1px;stroke-linecap:butt;stroke-linejoin:miter;stroke-opacity:1" d="M 290.983,217.993 295.96,224.629 z" id="boundary" inkscape:connector-curvature="0" />
	<path style="fill:none;stroke:red;stroke-width:1px;stroke-linecap:butt;stroke-linejoin:miter;stroke-opacity:1" d="M 294.301,393.833 300.936,399.639 z" id="boundary" inkscape:connector-curvature="0" />
	<path style="fill:none;stroke:red;stroke-width:1px;stroke-linecap:butt;stroke-linejoin:miter;stroke-opacity:1" d="M 295.96,224.629 303.425,228.776 z" id="boundary" inkscape:connector-curvature="0" />
	<path style="fill:none;stroke:red;stroke-width:1px;stroke-linecap:butt;stroke-linejoin:miter;stroke-opacity:1" d="M 300.936,399.639 305.913,406.274 z" id="boundary" inkscape:connector-curvature="0" />
	<path style="fill:none;stroke:red;stroke-width:1px;stroke-linecap:butt;stroke-linejoin:miter;stroke-opacity:1" d="M 303.425,228.776 309.231,235.411 z" id="boundary" inkscape:connector-curvature="0" />
	<path style="fill:none;stroke:red;stroke-width:1px;stroke-linecap:butt;stroke-linejoin:miter;stroke-opacity:1" d="M 305.913,406.274 312.548,411.251 z" id="boundary" inkscape:connector-curvature="0" />
	<path style="fill:none;stroke:red;stroke-width:1px;stroke-linecap:butt;stroke-linejoin:miter;stroke-opacity:1" d="M 309.231,235.411 316.696,239.559 z" id="boundary" inkscape:connector-curvature="0" />
	<path style="fill:none;stroke:red;stroke-width:1px;stroke-linecap:butt;stroke-linejoin:miter;stroke-opacity:1" d="M 312.548,411.251 318.355,417.886 z" id="boundary" inkscape:connector-curvature="0" />
	<path style="fill:none;stroke:red;stroke-width:1px;stroke-linecap:butt;stroke-linejoin:miter;stroke-opacity:1" d="M 316.696,239.559 321.672,246.194 z" id="boundary" inkscape:connector-curvature="0" />
	<path style="fill:none;stroke:red;stroke-width:1px;stroke-linecap:butt;stroke-linejoin:miter;stroke-opacity:1" d="M 318.355,417.886 324.161,424.522 z" id="boundary" inkscape:connector-curvature="0" />
	<path style="fill:none;stroke:red;stroke-width:1px;stroke-linecap:butt;stroke-linejoin:miter;stroke-opacity:1" d="M 321.672,246.194 326.649,252.829 z" id="boundary" inkscape:connector-curvature="0" />
	<path style="fill:none;stroke:red;stroke-width:1px;stroke-linecap:butt;stroke-linejoin:miter;stroke-opacity:1" d="M 324.161,424.522 329.967,431.157 z" id="boundary" inkscape:connector-curvature="0" />
	<path style="fill:none;stroke:red;stroke-width:1px;stroke-linecap:butt;stroke-linejoin:miter;stroke-opacity:1" d="M 326.649,252.829 331.625,259.465 z" id="boundary" inkscape:connector-curvature="0" />
	<path style="fill:none;stroke:red;stroke-width:1px;stroke-linecap:butt;stroke-linejoin:miter;stroke-opacity:1" d="M 329.967,431.157 334.943,437.793 z" id="boundary" inkscape:connector-curvature="0" />
	<path style="fill:none;stroke:red;stroke-width:1px;stroke-linecap:butt;stroke-linejoin:miter;stroke-opacity:1" d="M 331.625,259.465 337.431,266.1 z" id="boundary" inkscape:connector-curvature="0" />
	<path style="fill:none;stroke:red;stroke-width:1px;stroke-linecap:butt;stroke-linejoin:miter;stroke-opacity:1" d="M 334.943,437.793 341.579,443.599 z" id="boundary" inkscape:connector-curvature="0" />
	<path style="fill:none;stroke:red;stroke-width:1px;stroke-linecap:butt;stroke-linejoin:miter;stroke-opacity:1" d="M 337.431,266.1 342.408,272.736 z" id="boundary" inkscape:connector-curvature="0" />
	<path style="fill:none;stroke:red;stroke-width:1px;stroke-linecap:butt;stroke-linejoin:miter;stroke-opacity:1" d="M 341.579,443.599 348.214,449.405 z" id="boundary" inkscape:connector-curvature="0" />
	<path style="fill:none;stroke:red;stroke-width:1px;stroke-linecap:butt;stroke-linejoin:miter;stroke-opacity:1" d="M 342.408,272.736 347.385,279.371 z" id="boundary" inkscape:connector-curvature="0" />
	<path style="fill:none;stroke:red;stroke-width:1px;stroke-linecap:butt;stroke-linejoin:miter;stroke-opacity:1" d="M 347.385,279.371 352.361,286.007 z" id="boundary" inkscape:connector-curvature="0" />
	<path style="fill:none;stroke:red;stroke-width:1px;stroke-linecap:butt;stroke-linejoin:miter;stroke-opacity:1" d="M 348.214,449.405 354.849,455.211 z" id="boundary" inkscape:connector-curvature="0" />
	<path style="fill:none;stroke:red;stroke-width:1px;stroke-linecap:butt;stroke-linejoin:miter;stroke-opacity:1" d="M 352.361,286.007 357.338,292.642 z" id="boundary" inkscape:connector-curvature="0" />
	<path style="fill:none;stroke:red;stroke-width:1px;stroke-linecap:butt;stroke-linejoin:miter;stroke-opacity:1" d="M 354.849,455.211 359.826,461.846 z" id="boundary" inkscape:connector-curvature="0" />
	<path style="fill:none;stroke:red;stroke-width:1px;stroke-linecap:butt;stroke-linejoin:miter;stroke-opacity:1" d="M 357.338,292.642 363.973,298.448 z" id="boundary" inkscape:connector-curvature="0" />
	<path style="fill:none;stroke:red;stroke-width:1px;stroke-linecap:butt;stroke-linejoin:miter;stroke-opacity:1" d="M 359.826,461.846 364.803,468.482 z" id="boundary" inkscape:connector-curvature="0" />
	<path style="fill:none;stroke:red;stroke-width:1px;stroke-linecap:butt;stroke-linejoin:miter;stroke-opacity:1" d="M 363.973,298.448 368.95,305.084 z" id="boundary" inkscape:connector-curvature="0" />
	<path style="fill:none;stroke:red;stroke-width:1px;stroke-linecap:butt;stroke-linejoin:miter;stroke-opacity:1" d="M 364.803,468.482 370.609,475.117 z" id="boundary" inkscape:connector-curvature="0" />
	<path style="fill:none;stroke:red;stroke-width:1px;stroke-linecap:butt;stroke-linejoin:miter;stroke-opacity:1" d="M 368.95,305.084 375.585,310.89 z" id="boundary" inkscape:connector-curvature="0" />
	<path style="fill:none;stroke:red;stroke-width:1px;stroke-linecap:butt;stroke-linejoin:miter;stroke-opacity:1" d="M 370.609,475.117 376.415,481.753 z" id="boundary" inkscape:connector-curvature="0" />
	<path style="fill:none;stroke:red;stroke-width:1px;stroke-linecap:butt;stroke-linejoin:miter;stroke-opacity:1" d="M 375.585,310.89 380.562,317.525 z" id="boundary" inkscape:connector-curvature="0" />
	<path style="fill:none;stroke:red;stroke-width:1px;stroke-linecap:butt;stroke-linejoin:miter;stroke-opacity:1" d="M 376.415,481.753 382.221,488.388 z" id="boundary" inkscape:connector-curvature="0" />
	<path style="fill:none;stroke:red;stroke-width:1px;stroke-linecap:butt;stroke-linejoin:miter;stroke-opacity:1" d="M 380.562,317.525 385.538,324.161 z" id="boundary" inkscape:connector-curvature="0" />
	<path style="fill:none;stroke:red;stroke-width:1px;stroke-linecap:butt;stroke-linejoin:miter;stroke-opacity:1" d="M 382.221,488.388 388.856,494.194 z" id="boundary" inkscape:connector-curvature="0" />
	<path style="fill:none;stroke:red;stroke-width:1px;stroke-linecap:butt;stroke-linejoin:miter;stroke-opacity:1" d="M 385.538,324.161 390.515,330.796 z" id="boundary" inkscape:connector-curvature="0" />
	<path style="fill:none;stroke:red;stroke-width:1px;stroke-linecap:butt;stroke-linejoin:miter;stroke-opacity:1" d="M 388.856,494.194 389.686,502.488 z" id="boundary" inkscape:connector-curvature="0" />
	<path style="fill:none;stroke:red;stroke-width:1px;stroke-linecap:butt;stroke-linejoin:miter;stroke-opacity:1" d="M 390.515,330.796 396.321,337.431 z" id="boundary" inkscape:connector-curvature="0" />
	<path style="fill:none;stroke:red;stroke-width:1px;stroke-linecap:butt;stroke-linejoin:miter;stroke-opacity:1" d="M 396.321,337.431 402.957,342.408 z" id="boundary" inkscape:connector-curvature="0" />
	<path style="fill:none;stroke:red;stroke-width:1px;stroke-linecap:butt;stroke-linejoin:miter;stroke-opacity:1" d="M 402.957,342.408 407.933,349.043 z" id="boundary" inkscape:connector-curvature="0" />
	<path style="fill:none;stroke:red;stroke-width:1px;stroke-linecap:butt;stroke-linejoin:miter;stroke-opacity:1" d="M 407.933,349.043 414.569,354.02 z" id="boundary" inkscape:connector-curvature="0" />
	<path style="fill:none;stroke:red;stroke-width:1px;stroke-linecap:butt;stroke-linejoin:miter;stroke-opacity:1" d="M 410.421,514.93 414.569,522.395 z" id="boundary" inkscape:connector-curvature="0" />
	<path style="fill:none;stroke:red;stroke-width:1px;stroke-linecap:butt;stroke-linejoin:miter;stroke-opacity:1" d="M 414.569,354.02 419.545,360.656 z" id="boundary" inkscape:connector-curvature="0" />
	<path style="fill:none;stroke:red;stroke-width:1px;stroke-linecap:butt;stroke-linejoin:miter;stroke-opacity:1" d="M 414.569,522.395 419.545,529.03 z" id="boundary" inkscape:connector-curvature="0" />
	<path style="fill:none;stroke:red;stroke-width:1px;stroke-linecap:butt;stroke-linejoin:miter;stroke-opacity:1" d="M 419.545,360.656 424.522,367.291 z" id="boundary" inkscape:connector-curvature="0" />
	<path style="fill:none;stroke:red;stroke-width:1px;stroke-linecap:butt;stroke-linejoin:miter;stroke-opacity:1" d="M 419.545,529.03 426.181,534.007 z" id="boundary" inkscape:connector-curvature="0" />
	<path style="fill:none;stroke:red;stroke-width:1px;stroke-linecap:butt;stroke-linejoin:miter;stroke-opacity:1" d="M 424.522,367.291 429.498,373.926 z" id="boundary" inkscape:connector-curvature="0" />
	<path style="fill:none;stroke:red;stroke-width:1px;stroke-linecap:butt;stroke-linejoin:miter;stroke-opacity:1" d="M 426.181,534.007 431.987,540.642 z" id="boundary" inkscape:connector-curvature="0" />
	<path style="fill:none;stroke:red;stroke-width:1px;stroke-linecap:butt;stroke-linejoin:miter;stroke-opacity:1" d="M 429.498,373.926 436.134,379.732 z" id="boundary" inkscape:connector-curvature="0" />
	<path style="fill:none;stroke:red;stroke-width:1px;stroke-linecap:butt;stroke-linejoin:miter;stroke-opacity:1" d="M 431.987,540.642 438.622,546.448 z" id="boundary" inkscape:connector-curvature="0" />
	<path style="fill:none;stroke:red;stroke-width:1px;stroke-linecap:butt;stroke-linejoin:miter;stroke-opacity:1" d="M 436.134,379.732 441.11,386.368 z" id="boundary" inkscape:connector-curvature="0" />
	<path style="fill:none;stroke:red;stroke-width:1px;stroke-linecap:butt;stroke-linejoin:miter;stroke-opacity:1" d="M 438.622,546.448 443.599,553.084 z" id="boundary" inkscape:connector-curvature="0" />
	<path style="fill:none;stroke:red;stroke-width:1px;stroke-linecap:butt;stroke-linejoin:miter;stroke-opacity:1" d="M 441.11,386.368 447.746,392.174 z" id="boundary" inkscape:connector-curvature="0" />
	<path style="fill:none;stroke:red;stroke-width:1px;stroke-linecap:butt;stroke-linejoin:miter;stroke-opacity:1" d="M 447.746,392.174 453.552,398.809 z" id="boundary" inkscape:connector-curvature="0" />
	<path style="fill:none;stroke:red;stroke-width:1px;stroke-linecap:butt;stroke-linejoin:miter;stroke-opacity:1" d="M 453.552,398.809 458.528,405.445 z" id="boundary" inkscape:connector-curvature="0" />
	<path style="fill:none;stroke:red;stroke-width:1px;stroke-linecap:butt;stroke-linejoin:miter;stroke-opacity:1" d="M 456.87,562.207 468.482,572.161 z" id="boundary" inkscape:connector-curvature="0" />
	<path style="fill:none;stroke:red;stroke-width:1px;stroke-linecap:butt;stroke-linejoin:miter;stroke-opacity:1" d="M 458.528,405.445 465.164,410.421 z" id="boundary" inkscape:connector-curvature="0" />
	<path style="fill:none;stroke:red;stroke-width:1px;stroke-linecap:butt;stroke-linejoin:miter;stroke-opacity:1" d="M 465.164,410.421 469.311,417.886 z" id="boundary" inkscape:connector-curvature="0" />
	<path style="fill:none;stroke:red;stroke-width:1px;stroke-linecap:butt;stroke-linejoin:miter;stroke-opacity:1" d="M 468.482,572.161 470.14,587.09 z" id="boundary" inkscape:connector-curvature="0" />
	<path style="fill:none;stroke:red;stroke-width:1px;stroke-linecap:butt;stroke-linejoin:miter;stroke-opacity:1" d="M 469.311,417.886 475.117,424.522 z" id="boundary" inkscape:connector-curvature="0" />
	<path style="fill:none;stroke:red;stroke-width:1px;stroke-linecap:butt;stroke-linejoin:miter;stroke-opacity:1" d="M 470.14,587.09 472.629,595.385 z" id="boundary" inkscape:connector-curvature="0" />
	<path style="fill:none;stroke:red;stroke-width:1px;stroke-linecap:butt;stroke-linejoin:miter;stroke-opacity:1" d="M 472.629,595.385 477.605,602.02 z" id="boundary" inkscape:connector-curvature="0" />
	<path style="fill:none;stroke:red;stroke-width:1px;stroke-linecap:butt;stroke-linejoin:miter;stroke-opacity:1" d="M 475.117,424.522 481.753,430.328 z" id="boundary" inkscape:connector-curvature="0" />
	<path style="fill:none;stroke:red;stroke-width:1px;stroke-linecap:butt;stroke-linejoin:miter;stroke-opacity:1" d="M 477.605,602.02 480.923,610.314 z" id="boundary" inkscape:connector-curvature="0" />
	<path style="fill:none;stroke:red;stroke-width:1px;stroke-linecap:butt;stroke-linejoin:miter;stroke-opacity:1" d="M 480.923,610.314 488.388,614.462 z" id="boundary" inkscape:connector-curvature="0" />
	<path style="fill:none;stroke:red;stroke-width:1px;stroke-linecap:butt;stroke-linejoin:miter;stroke-opacity:1" d="M 481.753,430.328 486.729,436.963 z" id="boundary" inkscape:connector-curvature="0" />
	<path style="fill:none;stroke:red;stroke-width:1px;stroke-linecap:butt;stroke-linejoin:miter;stroke-opacity:1" d="M 486.729,436.963 492.535,443.599 z" id="boundary" inkscape:connector-curvature="0" />
	<path style="fill:none;stroke:red;stroke-width:1px;stroke-linecap:butt;stroke-linejoin:miter;stroke-opacity:1" d="M 488.388,614.462 503.318,618.609 z" id="boundary" inkscape:connector-curvature="0" />
	<path style="fill:none;stroke:red;stroke-width:1px;stroke-linecap:butt;stroke-linejoin:miter;stroke-opacity:1" d="M 492.535,443.599 499.171,449.405 z" id="boundary" inkscape:connector-curvature="0" />
	<path style="fill:none;stroke:red;stroke-width:1px;stroke-linecap:butt;stroke-linejoin:miter;stroke-opacity:1" d="M 499.171,449.405 504.977,456.04 z" id="boundary" inkscape:connector-curvature="0" />
	<path style="fill:none;stroke:red;stroke-width:1px;stroke-linecap:butt;stroke-linejoin:miter;stroke-opacity:1" d="M 503.318,618.609 519.906,616.95 z" id="boundary" inkscape:connector-curvature="0" />
	<path style="fill:none;stroke:red;stroke-width:1px;stroke-linecap:butt;stroke-linejoin:miter;stroke-opacity:1" d="M 504.977,456.04 510.783,462.676 z" id="boundary" inkscape:connector-curvature="0" />
	<path style="fill:none;stroke:red;stroke-width:1px;stroke-linecap:butt;stroke-linejoin:miter;stroke-opacity:1" d="M 510.783,462.676 516.589,469.311 z" id="boundary" inkscape:connector-curvature="0" />
	<path style="fill:none;stroke:red;stroke-width:1px;stroke-linecap:butt;stroke-linejoin:miter;stroke-opacity:1" d="M 516.589,469.311 521.565,475.946 z" id="boundary" inkscape:connector-curvature="0" />
	<path style="fill:none;stroke:red;stroke-width:1px;stroke-linecap:butt;stroke-linejoin:miter;stroke-opacity:1" d="M 521.565,475.946 534.836,481.753 z" id="boundary" inkscape:connector-curvature="0" />
	<path style="fill:none;stroke:red;stroke-width:1px;stroke-linecap:butt;stroke-linejoin:miter;stroke-opacity:1" d="M 534.836,481.753 543.13,485.07 z" id="boundary" inkscape:connector-curvature="0" />
	<path style="fill:none;stroke:red;stroke-width:1px;stroke-linecap:butt;stroke-linejoin:miter;stroke-opacity:1" d="M 543.13,485.07 548.936,491.706 z" id="boundary" inkscape:connector-curvature="0" />
	<path style="fill:none;stroke:red;stroke-width:1px;stroke-linecap:butt;stroke-linejoin:miter;stroke-opacity:1" d="M 548.936,491.706 555.572,496.682 z" id="boundary" inkscape:connector-curvature="0" />
	<path style="fill:none;stroke:red;stroke-width:1px;stroke-linecap:butt;stroke-linejoin:miter;stroke-opacity:1" d="M 555.572,496.682 560.548,503.318 z" id="boundary" inkscape:connector-curvature="0" />
	<path style="fill:none;stroke:red;stroke-width:1px;stroke-linecap:butt;stroke-linejoin:miter;stroke-opacity:1" d="M 560.548,503.318 565.525,509.953 z" id="boundary" inkscape:connector-curvature="0" />
	<path style="fill:none;stroke:red;stroke-width:1px;stroke-linecap:butt;stroke-linejoin:miter;stroke-opacity:1" d="M 565.525,509.953 572.161,515.759 z" id="boundary" inkscape:connector-curvature="0" />
	<path style="fill:none;stroke:red;stroke-width:1px;stroke-linecap:butt;stroke-linejoin:miter;stroke-opacity:1" d="M 568.843,647.639 571.331,655.933 z" id="boundary" inkscape:connector-curvature="0" />
	<path style="fill:none;stroke:red;stroke-width:1px;stroke-linecap:butt;stroke-linejoin:miter;stroke-opacity:1" d="M 571.331,655.933 577.137,662.569 z" id="boundary" inkscape:connector-curvature="0" />
	<path style="fill:none;stroke:red;stroke-width:1px;stroke-linecap:butt;stroke-linejoin:miter;stroke-opacity:1" d="M 572.161,515.759 577.137,522.395 z" id="boundary" inkscape:connector-curvature="0" />
	<path style="fill:none;stroke:red;stroke-width:1px;stroke-linecap:butt;stroke-linejoin:miter;stroke-opacity:1" d="M 577.137,522.395 582.943,529.03 z" id="boundary" inkscape:connector-curvature="0" />
	<path style="fill:none;stroke:red;stroke-width:1px;stroke-linecap:butt;stroke-linejoin:miter;stroke-opacity:1" d="M 577.137,662.569 583.773,667.545 z" id="boundary" inkscape:connector-curvature="0" />
	<path style="fill:none;stroke:red;stroke-width:1px;stroke-linecap:butt;stroke-linejoin:miter;stroke-opacity:1" d="M 582.943,529.03 587.92,535.666 z" id="boundary" inkscape:connector-curvature="0" />
	<path style="fill:none;stroke:red;stroke-width:1px;stroke-linecap:butt;stroke-linejoin:miter;stroke-opacity:1" d="M 583.773,667.545 584.602,675.839 z" id="boundary" inkscape:connector-curvature="0" />
	<path style="fill:none;stroke:red;stroke-width:1px;stroke-linecap:butt;stroke-linejoin:miter;stroke-opacity:1" d="M 587.92,535.666 594.555,541.472 z" id="boundary" inkscape:connector-curvature="0" />
	<path style="fill:none;stroke:red;stroke-width:1px;stroke-linecap:butt;stroke-linejoin:miter;stroke-opacity:1" d="M 594.555,541.472 601.191,547.278 z" id="boundary" inkscape:connector-curvature="0" />
	<path style="fill:none;stroke:red;stroke-width:1px;stroke-linecap:butt;stroke-linejoin:miter;stroke-opacity:1" d="M 596.214,705.699 602.849,711.505 z" id="boundary" inkscape:connector-curvature="0" />
	<path style="fill:none;stroke:red;stroke-width:1px;stroke-linecap:butt;stroke-linejoin:miter;stroke-opacity:1" d="M 601.191,547.278 606.167,553.913 z" id="boundary" inkscape:connector-curvature="0" />
	<path style="fill:none;stroke:red;stroke-width:1px;stroke-linecap:butt;stroke-linejoin:miter;stroke-opacity:1" d="M 602.849,711.505 606.167,719.799 z" id="boundary" inkscape:connector-curvature="0" />
	<path style="fill:none;stroke:red;stroke-width:1px;stroke-linecap:butt;stroke-linejoin:miter;stroke-opacity:1" d="M 606.167,553.913 612.803,559.719 z" id="boundary" inkscape:connector-curvature="0" />
	<path style="fill:none;stroke:red;stroke-width:1px;stroke-linecap:butt;stroke-linejoin:miter;stroke-opacity:1" d="M 606.167,719.799 612.803,724.776 z" id="boundary" inkscape:connector-curvature="0" />
	<path style="fill:none;stroke:red;stroke-width:1px;stroke-linecap:butt;stroke-linejoin:miter;stroke-opacity:1" d="M 612.803,559.719 619.438,565.525 z" id="boundary" inkscape:connector-curvature="0" />
	<path style="fill:none;stroke:red;stroke-width:1px;stroke-linecap:butt;stroke-linejoin:miter;stroke-opacity:1" d="M 619.438,565.525 626.074,571.331 z" id="boundary" inkscape:connector-curvature="0" />
	<path style="fill:none;stroke:red;stroke-width:1px;stroke-linecap:butt;stroke-linejoin:miter;stroke-opacity:1" d="M 626.074,571.331 632.709,577.137 z" id="boundary" inkscape:connector-curvature="0" />
	<path style="fill:none;stroke:red;stroke-width:1px;stroke-linecap:butt;stroke-linejoin:miter;stroke-opacity:1" d="M 627.732,735.559 634.368,740.535 z" id="boundary" inkscape:connector-curvature="0" />
	<path style="fill:none;stroke:red;stroke-width:1px;stroke-linecap:butt;stroke-linejoin:miter;stroke-opacity:1" d="M 632.709,577.137 639.344,582.943 z" id="boundary" inkscape:connector-curvature="0" />
	<path style="fill:none;stroke:red;stroke-width:1px;stroke-linecap:butt;stroke-linejoin:miter;stroke-opacity:1" d="M 634.368,740.535 642.662,741.365 z" id="boundary" inkscape:connector-curvature="0" />
	<path style="fill:none;stroke:red;stroke-width:1px;stroke-linecap:butt;stroke-linejoin:miter;stroke-opacity:1" d="M 639.344,582.943 645.151,589.579 z" id="boundary" inkscape:connector-curvature="0" />
	<path style="fill:none;stroke:red;stroke-width:1px;stroke-linecap:butt;stroke-linejoin:miter;stroke-opacity:1" d="M 645.151,589.579 651.786,594.555 z" id="boundary" inkscape:connector-curvature="0" />
	<path style="fill:none;stroke:red;stroke-width:1px;stroke-linecap:butt;stroke-linejoin:miter;stroke-opacity:1" d="M 651.786,594.555 658.421,600.361 z" id="boundary" inkscape:connector-curvature="0" />
	<path style="fill:none;stroke:red;stroke-width:1px;stroke-linecap:butt;stroke-linejoin:miter;stroke-opacity:1" d="M 651.786,754.635 658.421,759.612 z" id="boundary" inkscape:connector-curvature="0" />
	<path style="fill:none;stroke:red;stroke-width:1px;stroke-linecap:butt;stroke-linejoin:miter;stroke-opacity:1" d="M 658.421,600.361 664.227,606.997 z" id="boundary" inkscape:connector-curvature="0" />
	<path style="fill:none;stroke:red;stroke-width:1px;stroke-linecap:butt;stroke-linejoin:miter;stroke-opacity:1" d="M 658.421,759.612 665.886,763.759 z" id="boundary" inkscape:connector-curvature="0" />
	<path style="fill:none;stroke:red;stroke-width:1px;stroke-linecap:butt;stroke-linejoin:miter;stroke-opacity:1" d="M 664.227,606.997 670.033,613.632 z" id="boundary" inkscape:connector-curvature="0" />
	<path style="fill:none;stroke:red;stroke-width:1px;stroke-linecap:butt;stroke-linejoin:miter;stroke-opacity:1" d="M 665.886,763.759 674.181,773.712 z" id="boundary" inkscape:connector-curvature="0" />
	<path style="fill:none;stroke:red;stroke-width:1px;stroke-linecap:butt;stroke-linejoin:miter;stroke-opacity:1" d="M 670.033,613.632 675.01,620.268 z" id="boundary" inkscape:connector-curvature="0" />
	<path style="fill:none;stroke:red;stroke-width:1px;stroke-linecap:butt;stroke-linejoin:miter;stroke-opacity:1" d="M 674.181,773.712 676.669,782.007 z" id="boundary" inkscape:connector-curvature="0" />
	<path style="fill:none;stroke:red;stroke-width:1px;stroke-linecap:butt;stroke-linejoin:miter;stroke-opacity:1" d="M 675.01,620.268 680.816,626.903 z" id="boundary" inkscape:connector-curvature="0" />
	<path style="fill:none;stroke:red;stroke-width:1px;stroke-linecap:butt;stroke-linejoin:miter;stroke-opacity:1" d="M 676.669,782.007 684.963,780.348 z" id="boundary" inkscape:connector-curvature="0" />
	<path style="fill:none;stroke:red;stroke-width:1px;stroke-linecap:butt;stroke-linejoin:miter;stroke-opacity:1" d="M 680.816,626.903 687.452,632.709 z" id="boundary" inkscape:connector-curvature="0" />
	<path style="fill:none;stroke:red;stroke-width:1px;stroke-linecap:butt;stroke-linejoin:miter;stroke-opacity:1" d="M 687.452,632.709 692.428,639.344 z" id="boundary" inkscape:connector-curvature="0" />
	<path style="fill:none;stroke:red;stroke-width:1px;stroke-linecap:butt;stroke-linejoin:miter;stroke-opacity:1" d="M 692.428,639.344 698.234,645.98 z" id="boundary" inkscape:connector-curvature="0" />
	<path style="fill:none;stroke:red;stroke-width:1px;stroke-linecap:butt;stroke-linejoin:miter;stroke-opacity:1" d="M 698.234,645.98 703.211,652.615 z" id="boundary" inkscape:connector-curvature="0" />
	<path style="fill:none;stroke:red;stroke-width:1px;stroke-linecap:butt;stroke-linejoin:miter;stroke-opacity:1" d="M 703.211,652.615 709.846,658.421 z" id="boundary" inkscape:connector-curvature="0" />
	<path style="fill:none;stroke:red;stroke-width:1px;stroke-linecap:butt;stroke-linejoin:miter;stroke-opacity:1" d="M 709.846,658.421 714.823,665.057 z" id="boundary" inkscape:connector-curvature="0" />
	<path style="fill:none;stroke:red;stroke-width:1px;stroke-linecap:butt;stroke-linejoin:miter;stroke-opacity:1" d="M 714.823,665.057 719.799,671.692 z" id="boundary" inkscape:connector-curvature="0" />
	<path style="fill:none;stroke:red;stroke-width:1px;stroke-linecap:butt;stroke-linejoin:miter;stroke-opacity:1" d="M 719.799,671.692 726.435,677.498 z" id="boundary" inkscape:connector-curvature="0" />
	<path style="fill:none;stroke:red;stroke-width:1px;stroke-linecap:butt;stroke-linejoin:miter;stroke-opacity:1" d="M 726.435,677.498 731.411,684.134 z" id="boundary" inkscape:connector-curvature="0" />
	<path style="fill:none;stroke:red;stroke-width:1px;stroke-linecap:butt;stroke-linejoin:miter;stroke-opacity:1" d="M 727.264,826.796 732.241,833.431 z" id="boundary" inkscape:connector-curvature="0" />
	<path style="fill:none;stroke:red;stroke-width:1px;stroke-linecap:butt;stroke-linejoin:miter;stroke-opacity:1" d="M 731.411,684.134 736.388,690.769 z" id="boundary" inkscape:connector-curvature="0" />
	<path style="fill:none;stroke:red;stroke-width:1px;stroke-linecap:butt;stroke-linejoin:miter;stroke-opacity:1" d="M 732.241,833.431 735.559,841.726 z" id="boundary" inkscape:connector-curvature="0" />
	<path style="fill:none;stroke:red;stroke-width:1px;stroke-linecap:butt;stroke-linejoin:miter;stroke-opacity:1" d="M 735.559,841.726 742.194,847.532 z" id="boundary" inkscape:connector-curvature="0" />
	<path style="fill:none;stroke:red;stroke-width:1px;stroke-linecap:butt;stroke-linejoin:miter;stroke-opacity:1" d="M 736.388,690.769 741.365,697.405 z" id="boundary" inkscape:connector-curvature="0" />
	<path style="fill:none;stroke:red;stroke-width:1px;stroke-linecap:butt;stroke-linejoin:miter;stroke-opacity:1" d="M 741.365,697.405 748,703.211 z" id="boundary" inkscape:connector-curvature="0" />
	<path style="fill:none;stroke:red;stroke-width:1px;stroke-linecap:butt;stroke-linejoin:miter;stroke-opacity:1" d="M 742.194,847.532 746.341,854.997 z" id="boundary" inkscape:connector-curvature="0" />
	<path style="fill:none;stroke:red;stroke-width:1px;stroke-linecap:butt;stroke-linejoin:miter;stroke-opacity:1" d="M 746.341,854.997 750.488,862.462 z" id="boundary" inkscape:connector-curvature="0" />
	<path style="fill:none;stroke:red;stroke-width:1px;stroke-linecap:butt;stroke-linejoin:miter;stroke-opacity:1" d="M 748,703.211 752.977,709.846 z" id="boundary" inkscape:connector-curvature="0" />
	<path style="fill:none;stroke:red;stroke-width:1px;stroke-linecap:butt;stroke-linejoin:miter;stroke-opacity:1" d="M 750.488,862.462 756.294,869.097 z" id="boundary" inkscape:connector-curvature="0" />
	<path style="fill:none;stroke:red;stroke-width:1px;stroke-linecap:butt;stroke-linejoin:miter;stroke-opacity:1" d="M 752.977,709.846 758.783,716.482 z" id="boundary" inkscape:connector-curvature="0" />
	<path style="fill:none;stroke:red;stroke-width:1px;stroke-linecap:butt;stroke-linejoin:miter;stroke-opacity:1" d="M 756.294,869.097 761.271,875.732 z" id="boundary" inkscape:connector-curvature="0" />
	<path style="fill:none;stroke:red;stroke-width:1px;stroke-linecap:butt;stroke-linejoin:miter;stroke-opacity:1" d="M 758.783,716.482 765.418,721.458 z" id="boundary" inkscape:connector-curvature="0" />
	<path style="fill:none;stroke:red;stroke-width:1px;stroke-linecap:butt;stroke-linejoin:miter;stroke-opacity:1" d="M 761.271,875.732 766.247,882.368 z" id="boundary" inkscape:connector-curvature="0" />
	<path style="fill:none;stroke:red;stroke-width:1px;stroke-linecap:butt;stroke-linejoin:miter;stroke-opacity:1" d="M 765.418,721.458 770.395,728.094 z" id="boundary" inkscape:connector-curvature="0" />
	<path style="fill:none;stroke:red;stroke-width:1px;stroke-linecap:butt;stroke-linejoin:miter;stroke-opacity:1" d="M 770.395,728.094 776.201,734.729 z" id="boundary" inkscape:connector-curvature="0" />
	<path style="fill:none;stroke:red;stroke-width:1px;stroke-linecap:butt;stroke-linejoin:miter;stroke-opacity:1" d="M 776.201,734.729 782.007,741.365 z" id="boundary" inkscape:connector-curvature="0" />
	<path style="fill:none;stroke:red;stroke-width:1px;stroke-linecap:butt;stroke-linejoin:miter;stroke-opacity:1" d="M 782.007,741.365 786.983,748 z" id="boundary" inkscape:connector-curvature="0" />
	<path style="fill:none;stroke:red;stroke-width:1px;stroke-linecap:butt;stroke-linejoin:miter;stroke-opacity:1" d="M 786.983,748 793.619,753.806 z" id="boundary" inkscape:connector-curvature="0" />
	<path style="fill:none;stroke:red;stroke-width:1px;stroke-linecap:butt;stroke-linejoin:miter;stroke-opacity:1" d="M 793.619,753.806 797.766,761.271 z" id="boundary" inkscape:connector-curvature="0" />
	<path style="fill:none;stroke:red;stroke-width:1px;stroke-linecap:butt;stroke-linejoin:miter;stroke-opacity:1" d="M 797.766,761.271 803.572,767.906 z" id="boundary" inkscape:connector-curvature="0" />
	<path style="fill:none;stroke:red;stroke-width:1px;stroke-linecap:butt;stroke-linejoin:miter;stroke-opacity:1" d="M 803.572,767.906 810.207,772.883 z" id="boundary" inkscape:connector-curvature="0" />
	<path style="fill:none;stroke:red;stroke-width:1px;stroke-linecap:butt;stroke-linejoin:miter;stroke-opacity:1" d="M 803.572,966.97 806.89,975.264 z" id="boundary" inkscape:connector-curvature="0" />
	<path style="fill:none;stroke:red;stroke-width:1px;stroke-linecap:butt;stroke-linejoin:miter;stroke-opacity:1" d="M 806.89,975.264 811.037,982.729 z" id="boundary" inkscape:connector-curvature="0" />
	<path style="fill:none;stroke:red;stroke-width:1px;stroke-linecap:butt;stroke-linejoin:miter;stroke-opacity:1" d="M 810.207,772.883 814.355,780.348 z" id="boundary" inkscape:connector-curvature="0" />
	<path style="fill:none;stroke:red;stroke-width:1px;stroke-linecap:butt;stroke-linejoin:miter;stroke-opacity:1" d="M 811.037,982.729 816.013,989.365 z" id="boundary" inkscape:connector-curvature="0" />
	<path style="fill:none;stroke:red;stroke-width:1px;stroke-linecap:butt;stroke-linejoin:miter;stroke-opacity:1" d="M 814.355,780.348 820.99,786.154 z" id="boundary" inkscape:connector-curvature="0" />
	<path style="fill:none;stroke:red;stroke-width:1px;stroke-linecap:butt;stroke-linejoin:miter;stroke-opacity:1" d="M 816.013,989.365 820.99,996 z" id="boundary" inkscape:connector-curvature="0" />
	<path style="fill:none;stroke:red;stroke-width:1px;stroke-linecap:butt;stroke-linejoin:miter;stroke-opacity:1" d="M 820.99,786.154 827.625,791.96 z" id="boundary" inkscape:connector-curvature="0" />
	<path style="fill:none;stroke:red;stroke-width:1px;stroke-linecap:butt;stroke-linejoin:miter;stroke-opacity:1" d="M 827.625,791.96 832.602,798.595 z" id="boundary" inkscape:connector-curvature="0" />
	<path style="fill:none;stroke:red;stroke-width:1px;stroke-linecap:butt;stroke-linejoin:miter;stroke-opacity:1" d="M 832.602,798.595 837.579,805.231 z" id="boundary" inkscape:connector-curvature="0" />
	<path style="fill:none;stroke:red;stroke-width:1px;stroke-linecap:butt;stroke-linejoin:miter;stroke-opacity:1" d="M 837.579,805.231 842.555,811.866 z" id="boundary" inkscape:connector-curvature="0" />
	<path style="fill:none;stroke:red;stroke-width:1px;stroke-linecap:butt;stroke-linejoin:miter;stroke-opacity:1" d="M 842.555,811.866 849.191,817.672 z" id="boundary" inkscape:connector-curvature="0" />
	<path style="fill:none;stroke:red;stroke-width:1px;stroke-linecap:butt;stroke-linejoin:miter;stroke-opacity:1" d="M 849.191,817.672 854.167,824.308 z" id="boundary" inkscape:connector-curvature="0" />
	<path style="fill:none;stroke:red;stroke-width:1px;stroke-linecap:butt;stroke-linejoin:miter;stroke-opacity:1" d="M 854.167,824.308 859.144,830.943 z" id="boundary" inkscape:connector-curvature="0" />
	<path style="fill:none;stroke:red;stroke-width:1px;stroke-linecap:butt;stroke-linejoin:miter;stroke-opacity:1" d="M 859.144,830.943 864.12,837.579 z" id="boundary" inkscape:connector-curvature="0" />
	<path style="fill:none;stroke:red;stroke-width:1px;stroke-linecap:butt;stroke-linejoin:miter;stroke-opacity:1" d="M 864.12,837.579 869.926,844.214 z" id="boundary" inkscape:connector-curvature="0" />
	<path style="fill:none;stroke:red;stroke-width:1px;stroke-linecap:butt;stroke-linejoin:miter;stroke-opacity:1" d="M 869.926,844.214 874.903,850.849 z" id="boundary" inkscape:connector-curvature="0" />
	<path style="fill:none;stroke:red;stroke-width:1px;stroke-linecap:butt;stroke-linejoin:miter;stroke-opacity:1" d="M 874.903,850.849 879.88,857.485 z" id="boundary" inkscape:connector-curvature="0" />
	<path style="fill:none;stroke:red;stroke-width:1px;stroke-linecap:butt;stroke-linejoin:miter;stroke-opacity:1" d="M 878.221,978.582 885.686,973.605 z" id="boundary" inkscape:connector-curvature="0" />
	<path style="fill:none;stroke:red;stroke-width:1px;stroke-linecap:butt;stroke-linejoin:miter;stroke-opacity:1" d="M 879.88,857.485 884.856,864.12 z" id="boundary" inkscape:connector-curvature="0" />
	<path style="fill:none;stroke:red;stroke-width:1px;stroke-linecap:butt;stroke-linejoin:miter;stroke-opacity:1" d="M 884.856,864.12 889.833,870.756 z" id="boundary" inkscape:connector-curvature="0" />
	<path style="fill:none;stroke:red;stroke-width:1px;stroke-linecap:butt;stroke-linejoin:miter;stroke-opacity:1" d="M 885.686,973.605 893.151,969.458 z" id="boundary" inkscape:connector-curvature="0" />
	<path style="fill:none;stroke:red;stroke-width:1px;stroke-linecap:butt;stroke-linejoin:miter;stroke-opacity:1" d="M 889.833,870.756 893.98,878.221 z" id="boundary" inkscape:connector-curvature="0" />
	<path style="fill:none;stroke:red;stroke-width:1px;stroke-linecap:butt;stroke-linejoin:miter;stroke-opacity:1" d="M 893.151,969.458 899.786,963.652 z" id="boundary" inkscape:connector-curvature="0" />
	<path style="fill:none;stroke:red;stroke-width:1px;stroke-linecap:butt;stroke-linejoin:miter;stroke-opacity:1" d="M 893.98,878.221 898.127,885.686 z" id="boundary" inkscape:connector-curvature="0" />
	<path style="fill:none;stroke:red;stroke-width:1px;stroke-linecap:butt;stroke-linejoin:miter;stroke-opacity:1" d="M 898.127,885.686 902.274,893.151 z" id="boundary" inkscape:connector-curvature="0" />
	<path style="fill:none;stroke:red;stroke-width:1px;stroke-linecap:butt;stroke-linejoin:miter;stroke-opacity:1" d="M 902.274,893.151 909.739,908.91 z" id="boundary" inkscape:connector-curvature="0" />
	<path style="fill:none;stroke:red;stroke-width:1px;stroke-linecap:butt;stroke-linejoin:miter;stroke-opacity:1" d="M 909.739,908.91 913.057,925.498 z" id="boundary" inkscape:connector-curvature="0" />
	<path style="fill:none;stroke:red;stroke-width:1px;stroke-linecap:butt;stroke-linejoin:miter;stroke-opacity:1" d="M 909.739,948.722 913.057,938.769 z" id="boundary" inkscape:connector-curvature="0" />
	<path style="fill:none;stroke:red;stroke-width:1px;stroke-linecap:butt;stroke-linejoin:miter;stroke-opacity:1" d="M 913.057,925.498 913.057,938.769 z" id="boundary" inkscape:connector-curvature="0" />
	<circle cx="4" cy="4.82943" r="4" fill="#0" id="circle0"/>
	<circle cx="4.82943" cy="13.1237" r="4" fill="#0" id="circle1"/>
	<circle cx="5.65886" cy="21.4181" r="4" fill="#0" id="circle2"/>
	<circle cx="8.14716" cy="29.7124" r="4" fill="#0" id="circle3"/>
	<circle cx="11.4649" cy="38.0067" r="4" fill="#0" id="circle4"/>
	<circle cx="12.2943" cy="4" r="4" fill="#0" id="circle5"/>
	<circle cx="15.612" cy="45.4716" r="4" fill="#0" id="circle6"/>
	<circle cx="18.1003" cy="53.7659" r="4" fill="#0" id="circle7"/>
	<circle cx="20.5886" cy="4.82943" r="4" fill="#0" id="circle8"/>
	<circle cx="20.5886" cy="62.0602" r="4" fill="#0" id="circle9"/>
	<circle cx="23.9064" cy="70.3545" r="4" fill="#0" id="circle10"/>
	<circle cx="27.2241" cy="10.6355" r="4" fill="#0" id="circle11"/>
	<circle cx="29.7124" cy="76.99" r="4" fill="#0" id="circle12"/>
	<circle cx="34.689" cy="83.6254" r="4" fill="#0" id="circle13"/>
	<circle cx="35.5184" cy="11.4649" r="4" fill="#0" id="circle14"/>
	<circle cx="38.0067" cy="91.9197" r="4" fill="#0" id="circle15"/>
	<circle cx="42.9833" cy="15.612" r="4" fill="#0" id="circle16"/>
	<circle cx="42.9833" cy="98.5552" r="4" fill="#0" id="circle17"/>
	<circle cx="47.1304" cy="106.02" r="4" fill="#0" id="circle18"/>
	<circle cx="50.4482" cy="19.7592" r="4" fill="#0" id="circle19"/>
	<circle cx="52.107" cy="112.656" r="4" fill="#0" id="circle20"/>
	<circle cx="56.2542" cy="120.12" r="4" fill="#0" id="circle21"/>
	<circle cx="58.7425" cy="23.0769" r="4" fill="#0" id="circle22"/>
	<circle cx="61.2308" cy="126.756" r="4" fill="#0" id="circle23"/>
	<circle cx="65.3779" cy="134.221" r="4" fill="#0" id="circle24"/>
	<circle cx="67.0368" cy="25.5652" r="4" fill="#0" id="circle25"/>
	<circle cx="72.0134" cy="140.027" r="4" fill="#0" id="circle26"/>
	<circle cx="73.6722" cy="30.5418" r="4" fill="#0" id="circle27"/>
	<circle cx="76.99" cy="146.662" r="4" fill="#0" id="circle28"/>
	<circle cx="80.3077" cy="35.5184" r="4" fill="#0" id="circle29"/>
	<circle cx="81.1371" cy="154.127" r="4" fill="#0" id="circle30"/>
	<circle cx="87.7726" cy="39.6656" r="4" fill="#0" id="circle31"/>
	<circle cx="87.7726" cy="159.933" r="4" fill="#0" id="circle32"/>
	<circle cx="91.9197" cy="167.398" r="4" fill="#0" id="circle33"/>
	<circle cx="95.2375" cy="43.8127" r="4" fill="#0" id="circle34"/>
	<circle cx="97.7258" cy="174.033" r="4" fill="#0" id="circle35"/>
	<circle cx="101.873" cy="49.6187" r="4" fill="#0" id="circle36"/>
	<circle cx="102.702" cy="180.669" r="4" fill="#0" id="circle37"/>
	<circle cx="109.338" cy="53.7659" r="4" fill="#0" id="circle38"/>
	<circle cx="110.167" cy="184.816" r="4" fill="#0" id="circle39"/>
	<circle cx="114.314" cy="192.281" r="4" fill="#0" id="circle40"/>
	<circle cx="115.973" cy="58.7425" r="4" fill="#0" id="circle41"/>
	<circle cx="120.12" cy="198.916" r="4" fill="#0" id="circle42"/>
	<circle cx="122.609" cy="63.7191" r="4" fill="#0" id="circle43"/>
	<circle cx="125.926" cy="205.552" r="4" fill="#0" id="circle44"/>
	<circle cx="130.074" cy="67.8662" r="4" fill="#0" id="circle45"/>
	<circle cx="132.562" cy="211.358" r="4" fill="#0" id="circle46"/>
	<circle cx="135.05" cy="74.5017" r="4" fill="#0" id="circle47"/>
	<circle cx="136.709" cy="218.823" r="4" fill="#0" id="circle48"/>
	<circle cx="141.686" cy="79.4783" r="4" fill="#0" id="circle49"/>
	<circle cx="143.344" cy="224.629" r="4" fill="#0" id="circle50"/>
	<circle cx="148.321" cy="84.4548" r="4" fill="#0" id="circle51"/>
	<circle cx="148.321" cy="231.264" r="4" fill="#0" id="circle52"/>
	<circle cx="153.298" cy="237.9" r="4" fill="#0" id="circle53"/>
	<circle cx="154.127" cy="91.0903" r="4" fill="#0" id="circle54"/>
	<circle cx="159.933" cy="242.876" r="4" fill="#0" id="circle55"/>
	<circle cx="161.592" cy="95.2375" r="4" fill="#0" id="circle56"/>
	<circle cx="165.739" cy="249.512" r="4" fill="#0" id="circle57"/>
	<circle cx="168.227" cy="101.043" r="4" fill="#0" id="circle58"/>
	<circle cx="170.716" cy="256.147" r="4" fill="#0" id="circle59"/>
	<circle cx="174.033" cy="107.679" r="4" fill="#0" id="circle60"/>
	<circle cx="174.863" cy="263.612" r="4" fill="#0" id="circle61"/>
	<circle cx="180.669" cy="112.656" r="4" fill="#0" id="circle62"/>
	<circle cx="182.328" cy="267.759" r="4" fill="#0" id="circle63"/>
	<circle cx="186.475" cy="275.224" r="4" fill="#0" id="circle64"/>
	<circle cx="187.304" cy="118.462" r="4" fill="#0" id="circle65"/>
	<circle cx="193.11" cy="281.03" r="4" fill="#0" id="circle66"/>
	<circle cx="193.94" cy="124.268" r="4" fill="#0" id="circle67"/>
	<circle cx="198.916" cy="287.666" r="4" fill="#0" id="circle68"/>
	<circle cx="200.575" cy="129.244" r="4" fill="#0" id="circle69"/>
	<circle cx="205.552" cy="293.472" r="4" fill="#0" id="circle70"/>
	<circle cx="206.381" cy="135.88" r="4" fill="#0" id="circle71"/>
	<circle cx="210.528" cy="300.107" r="4" fill="#0" id="circle72"/>
	<circle cx="213.017" cy="141.686" r="4" fill="#0" id="circle73"/>
	<circle cx="215.505" cy="306.742" r="4" fill="#0" id="circle74"/>
	<circle cx="219.652" cy="146.662" r="4" fill="#0" id="circle75"/>
	<circle cx="222.14" cy="311.719" r="4" fill="#0" id="circle76"/>
	<circle cx="223.799" cy="154.127" r="4" fill="#0" id="circle77"/>
	<circle cx="225.458" cy="320.013" r="4" fill="#0" id="circle78"/>
	<circle cx="230.435" cy="159.104" r="4" fill="#0" id="circle79"/>
	<circle cx="232.094" cy="324.99" r="4" fill="#0" id="circle80"/>
	<circle cx="235.411" cy="165.739" r="4" fill="#0" id="circle81"/>
	<circle cx="238.729" cy="330.796" r="4" fill="#0" id="circle82"/>
	<circle cx="242.047" cy="170.716" r="4" fill="#0" id="circle83"/>
	<circle cx="243.706" cy="337.431" r="4" fill="#0" id="circle84"/>
	<circle cx="247.023" cy="177.351" r="4" fill="#0" id="circle85"/>
	<circle cx="249.512" cy="344.067" r="4" fill="#0" id="circle86"/>
	<circle cx="253.659" cy="182.328" r="4" fill="#0" id="circle87"/>
	<circle cx="254.488" cy="350.702" r="4" fill="#0" id="circle88"/>
	<circle cx="260.294" cy="188.134" r="4" fill="#0" id="circle89"/>
	<circle cx="261.124" cy="355.679" r="4" fill="#0" id="circle90"/>
	<circle cx="265.271" cy="194.769" r="4" fill="#0" id="circle91"/>
	<circle cx="267.759" cy="361.485" r="4" fill="#0" id="circle92"/>
	<circle cx="271.077" cy="201.405" r="4" fill="#0" id="circle93"/>
	<circle cx="272.736" cy="368.12" r="4" fill="#0" id="circle94"/>
	<circle cx="277.712" cy="207.211" r="4" fill="#0" id="circle95"/>
	<circle cx="277.712" cy="374.756" r="4" fill="#0" id="circle96"/>
	<circle cx="283.518" cy="213.846" r="4" fill="#0" id="circle97"/>
	<circle cx="283.518" cy="381.391" r="4" fill="#0" id="circle98"/>
	<circle cx="290.154" cy="386.368" r="4" fill="#0" id="circle99"/>
	<circle cx="290.983" cy="217.993" r="4" fill="#0" id="circle100"/>
	<circle cx="294.301" cy="393.833" r="4" fill="#0" id="circle101"/>
	<circle cx="295.96" cy="224.629" r="4" fill="#0" id="circle102"/>
	<circle cx="300.936" cy="399.639" r="4" fill="#0" id="circle103"/>
	<circle cx="303.425" cy="228.776" r="4" fill="#0" id="circle104"/>
	<circle cx="305.913" cy="406.274" r="4" fill="#0" id="circle105"/>
	<circle cx="309.231" cy="235.411" r="4" fill="#0" id="circle106"/>
	<circle cx="312.548" cy="411.251" r="4" fill="#0" id="circle107"/>
	<circle cx="316.696" cy="239.559" r="4" fill="#0" id="circle108"/>
	<circle cx="318.355" cy="417.886" r="4" fill="#0" id="circle109"/>
	<circle cx="321.672" cy="246.194" r="4" fill="#0" id="circle110"/>
	<circle cx="324.161" cy="424.522" r="4" fill="#0" id="circle111"/>
	<circle cx="326.649" cy="252.829" r="4" fill="#0" id="circle112"/>
	<circle cx="329.967" cy="431.157" r="4" fill="#0" id="circle113"/>
	<circle cx="331.625" cy="259.465" r="4" fill="#0" id="circle114"/>
	<circle cx="334.943" cy="437.793" r="4" fill="#0" id="circle115"/>
	<circle cx="337.431" cy="266.1" r="4" fill="#0" id="circle116"/>
	<circle cx="341.579" cy="443.599" r="4" fill="#0" id="circle117"/>
	<circle cx="342.408" cy="272.736" r="4" fill="#0" id="circle118"/>
	<circle cx="347.385" cy="279.371" r="4" fill="#0" id="circle119"/>
	<circle cx="348.214" cy="449.405" r="4" fill="#0" id="circle120"/>
	<circle cx="352.361" cy="286.007" r="4" fill="#0" id="circle121"/>
	<circle cx="354.849" cy="455.211" r="4" fill="#0" id="circle122"/>
	<circle cx="357.338" cy="292.642" r="4" fill="#0" id="circle123"/>
	<circle cx="359.826" cy="461.846" r="4" fill="#0" id="circle124"/>
	<circle cx="363.973" cy="298.448" r="4" fill="#0" id="circle125"/>
	<circle cx="364.803" cy="468.482" r="4" fill="#0" id="circle126"/>
	<circle cx="368.95" cy="305.084" r="4" fill="#0" id="circle127"/>
	<circle cx="370.609" cy="475.117" r="4" fill="#0" id="circle128"/>
	<circle cx="375.585" cy="310.89" r="4" fill="#0" id="circle129"/>
	<circle cx="376.415" cy="481.753" r="4" fill="#0" id="circle130"/>
	<circle cx="380.562" cy="317.525" r="4" fill="#0" id="circle131"/>
	<circle cx="382.221" cy="488.388" r="4" fill="#0" id="circle132"/>
	<circle cx="385.538" cy="324.161" r="4" fill="#0" id="circle133"/>
	<circle cx="388.856" cy="494.194" r="4" fill="#0" id="circle134"/>
	<circle cx="389.686" cy="502.488" r="4" fill="#0" id="circle135"/>
	<circle cx="390.515" cy="330.796" r="4" fill="#0" id="circle136"/>
	<circle cx="393.833" cy="509.953" r="4" fill="#0" id="circle137"/>
	<circle cx="396.321" cy="337.431" r="4" fill="#0" id="circle138"/>
	<circle cx="402.127" cy="511.612" r="4" fill="#0" id="circle139"/>
	<circle cx="402.957" cy="342.408" r="4" fill="#0" id="circle140"/>
	<circle cx="407.933" cy="349.043" r="4" fill="#0" id="circle141"/>
	<circle cx="410.421" cy="514.93" r="4" fill="#0" id="circle142"/>
	<circle cx="414.569" cy="354.02" r="4" fill="#0" id="circle143"/>
	<circle cx="414.569" cy="522.395" r="4" fill="#0" id="circle144"/>
	<circle cx="419.545" cy="360.656" r="4" fill="#0" id="circle145"/>
	<circle cx="419.545" cy="529.03" r="4" fill="#0" id="circle146"/>
	<circle cx="424.522" cy="367.291" r="4" fill="#0" id="circle147"/>
	<circle cx="426.181" cy="534.007" r="4" fill="#0" id="circle148"/>
	<circle cx="429.498" cy="373.926" r="4" fill="#0" id="circle149"/>
	<circle cx="431.987" cy="540.642" r="4" fill="#0" id="circle150"/>
	<circle cx="436.134" cy="379.732" r="4" fill="#0" id="circle151"/>
	<circle cx="438.622" cy="546.448" r="4" fill="#0" id="circle152"/>
	<circle cx="441.11" cy="386.368" r="4" fill="#0" id="circle153"/>
	<circle cx="443.599" cy="553.084" r="4" fill="#0" id="circle154"/>
	<circle cx="447.746" cy="392.174" r="4" fill="#0" id="circle155"/>
	<circle cx="448.575" cy="559.719" r="4" fill="#0" id="circle156"/>
	<circle cx="453.552" cy="398.809" r="4" fill="#0" id="circle157"/>
	<circle cx="456.87" cy="562.207" r="4" fill="#0" id="circle158"/>
	<circle cx="458.528" cy="405.445" r="4" fill="#0" id="circle159"/>
	<circle cx="465.164" cy="410.421" r="4" fill="#0" id="circle160"/>
	<circle cx="465.164" cy="563.866" r="4" fill="#0" id="circle161"/>
	<circle cx="468.482" cy="572.161" r="4" fill="#0" id="circle162"/>
	<circle cx="469.311" cy="417.886" r="4" fill="#0" id="circle163"/>
	<circle cx="470.14" cy="587.09" r="4" fill="#0" id="circle164"/>
	<circle cx="472.629" cy="595.385" r="4" fill="#0" id="circle165"/>
	<circle cx="475.117" cy="424.522" r="4" fill="#0" id="circle166"/>
	<circle cx="477.605" cy="602.02" r="4" fill="#0" id="circle167"/>
	<circle cx="480.923" cy="610.314" r="4" fill="#0" id="circle168"/>
	<circle cx="481.753" cy="430.328" r="4" fill="#0" id="circle169"/>
	<circle cx="486.729" cy="436.963" r="4" fill="#0" id="circle170"/>
	<circle cx="488.388" cy="614.462" r="4" fill="#0" id="circle171"/>
	<circle cx="492.535" cy="443.599" r="4" fill="#0" id="circle172"/>
	<circle cx="495.023" cy="619.438" r="4" fill="#0" id="circle173"/>
	<circle cx="499.171" cy="449.405" r="4" fill="#0" id="circle174"/>
	<circle cx="503.318" cy="618.609" r="4" fill="#0" id="circle175"/>
	<circle cx="504.977" cy="456.04" r="4" fill="#0" id="circle176"/>
	<circle cx="510.783" cy="462.676" r="4" fill="#0" id="circle177"/>
	<circle cx="511.612" cy="618.609" r="4" fill="#0" id="circle178"/>
	<circle cx="516.589" cy="469.311" r="4" fill="#0" id="circle179"/>
	<circle cx="519.906" cy="616.95" r="4" fill="#0" id="circle180"/>
	<circle cx="521.565" cy="475.946" r="4" fill="#0" id="circle181"/>
	<circle cx="526.542" cy="482.582" r="4" fill="#0" id="circle182"/>
	<circle cx="528.201" cy="616.95" r="4" fill="#0" id="circle183"/>
	<circle cx="533.177" cy="623.585" r="4" fill="#0" id="circle184"/>
	<circle cx="534.836" cy="481.753" r="4" fill="#0" id="circle185"/>
	<circle cx="536.495" cy="615.291" r="4" fill="#0" id="circle186"/>
	<circle cx="541.472" cy="623.585" r="4" fill="#0" id="circle187"/>
	<circle cx="543.13" cy="485.07" r="4" fill="#0" id="circle188"/>
	<circle cx="546.448" cy="630.221" r="4" fill="#0" id="circle189"/>
	<circle cx="548.936" cy="491.706" r="4" fill="#0" id="circle190"/>
	<circle cx="554.742" cy="626.903" r="4" fill="#0" id="circle191"/>
	<circle cx="555.572" cy="496.682" r="4" fill="#0" id="circle192"/>
	<circle cx="557.231" cy="635.197" r="4" fill="#0" id="circle193"/>
	<circle cx="560.548" cy="503.318" r="4" fill="#0" id="circle194"/>
	<circle cx="564.696" cy="639.344" r="4" fill="#0" id="circle195"/>
	<circle cx="565.525" cy="509.953" r="4" fill="#0" id="circle196"/>
	<circle cx="568.843" cy="647.639" r="4" fill="#0" id="circle197"/>
	<circle cx="571.331" cy="655.933" r="4" fill="#0" id="circle198"/>
	<circle cx="572.161" cy="515.759" r="4" fill="#0" id="circle199"/>
	<circle cx="577.137" cy="522.395" r="4" fill="#0" id="circle200"/>
	<circle cx="577.137" cy="662.569" r="4" fill="#0" id="circle201"/>
	<circle cx="582.943" cy="529.03" r="4" fill="#0" id="circle202"/>
	<circle cx="583.773" cy="667.545" r="4" fill="#0" id="circle203"/>
	<circle cx="584.602" cy="675.839" r="4" fill="#0" id="circle204"/>
	<circle cx="587.92" cy="535.666" r="4" fill="#0" id="circle205"/>
	<circle cx="591.237" cy="680.816" r="4" fill="#0" id="circle206"/>
	<circle cx="594.555" cy="541.472" r="4" fill="#0" id="circle207"/>
	<circle cx="594.555" cy="689.11" r="4" fill="#0" id="circle208"/>
	<circle cx="594.555" cy="697.405" r="4" fill="#0" id="circle209"/>
	<circle cx="596.214" cy="705.699" r="4" fill="#0" id="circle210"/>
	<circle cx="601.191" cy="547.278" r="4" fill="#0" id="circle211"/>
	<circle cx="602.849" cy="711.505" r="4" fill="#0" id="circle212"/>
	<circle cx="606.167" cy="553.913" r="4" fill="#0" id="circle213"/>
	<circle cx="606.167" cy="719.799" r="4" fill="#0" id="circle214"/>
	<circle cx="612.803" cy="559.719" r="4" fill="#0" id="circle215"/>
	<circle cx="612.803" cy="724.776" r="4" fill="#0" id="circle216"/>
	<circle cx="619.438" cy="565.525" r="4" fill="#0" id="circle217"/>
	<circle cx="621.097" cy="726.435" r="4" fill="#0" id="circle218"/>
	<circle cx="626.074" cy="571.331" r="4" fill="#0" id="circle219"/>
	<circle cx="627.732" cy="735.559" r="4" fill="#0" id="circle220"/>
	<circle cx="632.709" cy="577.137" r="4" fill="#0" id="circle221"/>
	<circle cx="634.368" cy="740.535" r="4" fill="#0" id="circle222"/>
	<circle cx="636.027" cy="732.241" r="4" fill="#0" id="circle223"/>
	<circle cx="639.344" cy="582.943" r="4" fill="#0" id="circle224"/>
	<circle cx="642.662" cy="741.365" r="4" fill="#0" id="circle225"/>
	<circle cx="645.151" cy="589.579" r="4" fill="#0" id="circle226"/>
	<circle cx="649.298" cy="746.341" r="4" fill="#0" id="circle227"/>
	<circle cx="651.786" cy="594.555" r="4" fill="#0" id="circle228"/>
	<circle cx="651.786" cy="754.635" r="4" fill="#0" id="circle229"/>
	<circle cx="658.421" cy="600.361" r="4" fill="#0" id="circle230"/>
	<circle cx="658.421" cy="759.612" r="4" fill="#0" id="circle231"/>
	<circle cx="664.227" cy="606.997" r="4" fill="#0" id="circle232"/>
	<circle cx="665.886" cy="763.759" r="4" fill="#0" id="circle233"/>
	<circle cx="670.033" cy="613.632" r="4" fill="#0" id="circle234"/>
	<circle cx="674.181" cy="765.418" r="4" fill="#0" id="circle235"/>
	<circle cx="674.181" cy="773.712" r="4" fill="#0" id="circle236"/>
	<circle cx="675.01" cy="620.268" r="4" fill="#0" id="circle237"/>
	<circle cx="676.669" cy="782.007" r="4" fill="#0" id="circle238"/>
	<circle cx="680.816" cy="626.903" r="4" fill="#0" id="circle239"/>
	<circle cx="684.963" cy="780.348" r="4" fill="#0" id="circle240"/>
	<circle cx="687.452" cy="632.709" r="4" fill="#0" id="circle241"/>
	<circle cx="689.94" cy="786.983" r="4" fill="#0" id="circle242"/>
	<circle cx="689.94" cy="796.936" r="4" fill="#0" id="circle243"/>
	<circle cx="692.428" cy="639.344" r="4" fill="#0" id="circle244"/>
	<circle cx="692.428" cy="805.231" r="4" fill="#0" id="circle245"/>
	<circle cx="698.234" cy="645.98" r="4" fill="#0" id="circle246"/>
	<circle cx="699.064" cy="811.037" r="4" fill="#0" id="circle247"/>
	<circle cx="703.211" cy="652.615" r="4" fill="#0" id="circle248"/>
	<circle cx="707.358" cy="811.866" r="4" fill="#0" id="circle249"/>
	<circle cx="709.846" cy="658.421" r="4" fill="#0" id="circle250"/>
	<circle cx="712.334" cy="818.502" r="4" fill="#0" id="circle251"/>
	<circle cx="714.823" cy="665.057" r="4" fill="#0" id="circle252"/>
	<circle cx="718.97" cy="824.308" r="4" fill="#0" id="circle253"/>
	<circle cx="719.799" cy="671.692" r="4" fill="#0" id="circle254"/>
	<circle cx="726.435" cy="677.498" r="4" fill="#0" id="circle255"/>
	<circle cx="727.264" cy="826.796" r="4" fill="#0" id="circle256"/>
	<circle cx="731.411" cy="684.134" r="4" fill="#0" id="circle257"/>
	<circle cx="732.241" cy="833.431" r="4" fill="#0" id="circle258"/>
	<circle cx="735.559" cy="841.726" r="4" fill="#0" id="circle259"/>
	<circle cx="736.388" cy="690.769" r="4" fill="#0" id="circle260"/>
	<circle cx="741.365" cy="697.405" r="4" fill="#0" id="circle261"/>
	<circle cx="742.194" cy="847.532" r="4" fill="#0" id="circle262"/>
	<circle cx="746.341" cy="854.997" r="4" fill="#0" id="circle263"/>
	<circle cx="748" cy="703.211" r="4" fill="#0" id="circle264"/>
	<circle cx="750.488" cy="862.462" r="4" fill="#0" id="circle265"/>
	<circle cx="752.977" cy="709.846" r="4" fill="#0" id="circle266"/>
	<circle cx="756.294" cy="869.097" r="4" fill="#0" id="circle267"/>
	<circle cx="758.783" cy="716.482" r="4" fill="#0" id="circle268"/>
	<circle cx="761.271" cy="875.732" r="4" fill="#0" id="circle269"/>
	<circle cx="765.418" cy="721.458" r="4" fill="#0" id="circle270"/>
	<circle cx="766.247" cy="882.368" r="4" fill="#0" id="circle271"/>
	<circle cx="769.565" cy="890.662" r="4" fill="#0" id="circle272"/>
	<circle cx="770.395" cy="728.094" r="4" fill="#0" id="circle273"/>
	<circle cx="771.224" cy="903.933" r="4" fill="#0" id="circle274"/>
	<circle cx="776.201" cy="734.729" r="4" fill="#0" id="circle275"/>
	<circle cx="777.86" cy="909.739" r="4" fill="#0" id="circle276"/>
	<circle cx="782.007" cy="741.365" r="4" fill="#0" id="circle277"/>
	<circle cx="784.495" cy="914.716" r="4" fill="#0" id="circle278"/>
	<circle cx="786.983" cy="748" r="4" fill="#0" id="circle279"/>
	<circle cx="786.983" cy="923.01" r="4" fill="#0" id="circle280"/>
	<circle cx="789.472" cy="931.304" r="4" fill="#0" id="circle281"/>
	<circle cx="790.301" cy="939.599" r="4" fill="#0" id="circle282"/>
	<circle cx="793.619" cy="753.806" r="4" fill="#0" id="circle283"/>
	<circle cx="797.766" cy="761.271" r="4" fill="#0" id="circle284"/>
	<circle cx="798.595" cy="942.087" r="4" fill="#0" id="circle285"/>
	<circle cx="800.254" cy="950.381" r="4" fill="#0" id="circle286"/>
	<circle cx="801.913" cy="958.676" r="4" fill="#0" id="circle287"/>
	<circle cx="803.572" cy="767.906" r="4" fill="#0" id="circle288"/>
	<circle cx="803.572" cy="966.97" r="4" fill="#0" id="circle289"/>
	<circle cx="806.89" cy="975.264" r="4" fill="#0" id="circle290"/>
	<circle cx="810.207" cy="772.883" r="4" fill="#0" id="circle291"/>
	<circle cx="811.037" cy="982.729" r="4" fill="#0" id="circle292"/>
	<circle cx="814.355" cy="780.348" r="4" fill="#0" id="circle293"/>
	<circle cx="816.013" cy="989.365" r="4" fill="#0" id="circle294"/>
	<circle cx="820.99" cy="786.154" r="4" fill="#0" id="circle295"/>
	<circle cx="820.99" cy="996" r="4" fill="#0" id="circle296"/>
	<circle cx="827.625" cy="791.96" r="4" fill="#0" id="circle297"/>
	<circle cx="828.455" cy="991.853" r="4" fill="#0" id="circle298"/>
	<circle cx="832.602" cy="798.595" r="4" fill="#0" id="circle299"/>
	<circle cx="836.749" cy="989.365" r="4" fill="#0" id="circle300"/>
	<circle cx="837.579" cy="805.231" r="4" fill="#0" id="circle301"/>
	<circle cx="842.555" cy="811.866" r="4" fill="#0" id="circle302"/>
	<circle cx="845.043" cy="987.706" r="4" fill="#0" id="circle303"/>
	<circle cx="849.191" cy="817.672" r="4" fill="#0" id="circle304"/>
	<circle cx="853.338" cy="986.047" r="4" fill="#0" id="circle305"/>
	<circle cx="854.167" cy="824.308" r="4" fill="#0" id="circle306"/>
	<circle cx="859.144" cy="830.943" r="4" fill="#0" id="circle307"/>
	<circle cx="861.632" cy="984.388" r="4" fill="#0" id="circle308"/>
	<circle cx="864.12" cy="837.579" r="4" fill="#0" id="circle309"/>
	<circle cx="869.926" cy="844.214" r="4" fill="#0" id="circle310"/>
	<circle cx="869.926" cy="981.9" r="4" fill="#0" id="circle311"/>
	<circle cx="874.903" cy="850.849" r="4" fill="#0" id="circle312"/>
	<circle cx="878.221" cy="978.582" r="4" fill="#0" id="circle313"/>
	<circle cx="879.88" cy="857.485" r="4" fill="#0" id="circle314"/>
	<circle cx="884.856" cy="864.12" r="4" fill="#0" id="circle315"/>
	<circle cx="885.686" cy="973.605" r="4" fill="#0" id="circle316"/>
	<circle cx="889.833" cy="870.756" r="4" fill="#0" id="circle317"/>
	<circle cx="893.151" cy="969.458" r="4" fill="#0" id="circle318"/>
	<circle cx="893.98" cy="878.221" r="4" fill="#0" id="circle319"/>
	<circle cx="898.127" cy="885.686" r="4" fill="#0" id="circle320"/>
	<circle cx="899.786" cy="963.652" r="4" fill="#0" id="circle321"/>
	<circle cx="902.274" cy="893.151" r="4" fill="#0" id="circle322"/>
	<circle cx="906.421" cy="900.615" r="4" fill="#0" id="circle323"/>
	<circle cx="906.421" cy="957.846" r="4" fill="#0" id="circle324"/>
	<circle cx="909.739" cy="908.91" r="4" fill="#0" id="circle325"/>
	<circle cx="909.739" cy="948.722" r="4" fill="#0" id="circle326"/>
	<circle cx="912.227" cy="917.204" r="4" fill="#0" id="circle327"/>
	<circle cx="913.057" cy="925.498" r="4" fill="#0" id="circle328"/>
	<circle cx="913.057" cy="938.769" r="4" fill="#0" id="circle329"/>
	</g>
</svg>