<?xml version="1.0" encoding="UTF-8" standalone="no"?>
<!-- Created with CurveBenchmark -->
<svg
	xmlns:dc="http://purl.org/dc/elements/1.1/"
	xmlns:cc="http://creativecommons.org/ns#"
	xmlns:rdf="http://www.w3.org/1999/02/22-rdf-syntax-ns#"
	xmlns:svg="http://www.w3.org/2000/svg"
	xmlns="http://www.w3.org/2000/svg"
	xmlns:sodipodi="http://sodipodi.sourceforge.net/DTD/sodipodi-0.dtd"
	xmlns:inkscape="http://www.inkscape.org/namespaces/inkscape"
	width="1000"
	height="1000"
	id="svg2"
	version="1.1"
	sodipodi:docname="manifold/vicur-hammer21.png.txt">
<defs
	id="defs4" />
<metadata
	id="metadata7">
	<rdf:RDF>
		<cc:Work
			rdf:about="">
			<dc:format>image/svg+xml</dc:format>
			<dc:type
				rdf:resource="http://purl.org/dc/dcmitype/StillImage" />
			<dc:title></dc:title>
		</cc:Work>
	</rdf:RDF>
</metadata>
<g
	inkscape:label="Layer 1"
	inkscape:groupmode="layer"
	id="layer1">
	<path style="fill:none;stroke:red;stroke-width:1px;stroke-linecap:butt;stroke-linejoin:miter;stroke-opacity:1" d="M 4,254.941 4,274.545 z" id="boundary" inkscape:connector-curvature="0" />
	<path style="fill:none;stroke:red;stroke-width:1px;stroke-linecap:butt;stroke-linejoin:miter;stroke-opacity:1" d="M 4,254.941 19.6838,239.257 z" id="boundary" inkscape:connector-curvature="0" />
	<path style="fill:none;stroke:red;stroke-width:1px;stroke-linecap:butt;stroke-linejoin:miter;stroke-opacity:1" d="M 4,274.545 4,294.15 z" id="boundary" inkscape:connector-curvature="0" />
	<path style="fill:none;stroke:red;stroke-width:1px;stroke-linecap:butt;stroke-linejoin:miter;stroke-opacity:1" d="M 4,294.15 13.8024,311.794 z" id="boundary" inkscape:connector-curvature="0" />
	<path style="fill:none;stroke:red;stroke-width:1px;stroke-linecap:butt;stroke-linejoin:miter;stroke-opacity:1" d="M 13.8024,311.794 13.8024,331.399 z" id="boundary" inkscape:connector-curvature="0" />
	<path style="fill:none;stroke:red;stroke-width:1px;stroke-linecap:butt;stroke-linejoin:miter;stroke-opacity:1" d="M 13.8024,331.399 23.6047,349.043 z" id="boundary" inkscape:connector-curvature="0" />
	<path style="fill:none;stroke:red;stroke-width:1px;stroke-linecap:butt;stroke-linejoin:miter;stroke-opacity:1" d="M 19.6838,239.257 39.2885,239.257 z" id="boundary" inkscape:connector-curvature="0" />
	<path style="fill:none;stroke:red;stroke-width:1px;stroke-linecap:butt;stroke-linejoin:miter;stroke-opacity:1" d="M 23.6047,349.043 29.4862,368.648 z" id="boundary" inkscape:connector-curvature="0" />
	<path style="fill:none;stroke:red;stroke-width:1px;stroke-linecap:butt;stroke-linejoin:miter;stroke-opacity:1" d="M 29.4862,368.648 33.4071,388.253 z" id="boundary" inkscape:connector-curvature="0" />
	<path style="fill:none;stroke:red;stroke-width:1px;stroke-linecap:butt;stroke-linejoin:miter;stroke-opacity:1" d="M 33.4071,388.253 33.4071,407.858 z" id="boundary" inkscape:connector-curvature="0" />
	<path style="fill:none;stroke:red;stroke-width:1px;stroke-linecap:butt;stroke-linejoin:miter;stroke-opacity:1" d="M 33.4071,407.858 43.2095,425.502 z" id="boundary" inkscape:connector-curvature="0" />
	<path style="fill:none;stroke:red;stroke-width:1px;stroke-linecap:butt;stroke-linejoin:miter;stroke-opacity:1" d="M 39.2885,239.257 56.9328,229.455 z" id="boundary" inkscape:connector-curvature="0" />
	<path style="fill:none;stroke:red;stroke-width:1px;stroke-linecap:butt;stroke-linejoin:miter;stroke-opacity:1" d="M 43.2095,425.502 47.1304,445.107 z" id="boundary" inkscape:connector-curvature="0" />
	<path style="fill:none;stroke:red;stroke-width:1px;stroke-linecap:butt;stroke-linejoin:miter;stroke-opacity:1" d="M 47.1304,445.107 62.8142,456.87 z" id="boundary" inkscape:connector-curvature="0" />
	<path style="fill:none;stroke:red;stroke-width:1px;stroke-linecap:butt;stroke-linejoin:miter;stroke-opacity:1" d="M 56.9328,229.455 76.5375,229.455 z" id="boundary" inkscape:connector-curvature="0" />
	<path style="fill:none;stroke:red;stroke-width:1px;stroke-linecap:butt;stroke-linejoin:miter;stroke-opacity:1" d="M 62.8142,456.87 74.5771,472.553 z" id="boundary" inkscape:connector-curvature="0" />
	<path style="fill:none;stroke:red;stroke-width:1px;stroke-linecap:butt;stroke-linejoin:miter;stroke-opacity:1" d="M 74.5771,472.553 90.2609,486.277 z" id="boundary" inkscape:connector-curvature="0" />
	<path style="fill:none;stroke:red;stroke-width:1px;stroke-linecap:butt;stroke-linejoin:miter;stroke-opacity:1" d="M 76.5375,229.455 94.1818,239.257 z" id="boundary" inkscape:connector-curvature="0" />
	<path style="fill:none;stroke:red;stroke-width:1px;stroke-linecap:butt;stroke-linejoin:miter;stroke-opacity:1" d="M 90.2609,486.277 92.2213,505.881 z" id="boundary" inkscape:connector-curvature="0" />
	<path style="fill:none;stroke:red;stroke-width:1px;stroke-linecap:butt;stroke-linejoin:miter;stroke-opacity:1" d="M 92.2213,505.881 92.2213,525.486 z" id="boundary" inkscape:connector-curvature="0" />
	<path style="fill:none;stroke:red;stroke-width:1px;stroke-linecap:butt;stroke-linejoin:miter;stroke-opacity:1" d="M 92.2213,525.486 98.1028,545.091 z" id="boundary" inkscape:connector-curvature="0" />
	<path style="fill:none;stroke:red;stroke-width:1px;stroke-linecap:butt;stroke-linejoin:miter;stroke-opacity:1" d="M 94.1818,239.257 103.984,256.901 z" id="boundary" inkscape:connector-curvature="0" />
	<path style="fill:none;stroke:red;stroke-width:1px;stroke-linecap:butt;stroke-linejoin:miter;stroke-opacity:1" d="M 98.1028,545.091 107.905,562.735 z" id="boundary" inkscape:connector-curvature="0" />
	<path style="fill:none;stroke:red;stroke-width:1px;stroke-linecap:butt;stroke-linejoin:miter;stroke-opacity:1" d="M 103.984,256.901 113.787,274.545 z" id="boundary" inkscape:connector-curvature="0" />
	<path style="fill:none;stroke:red;stroke-width:1px;stroke-linecap:butt;stroke-linejoin:miter;stroke-opacity:1" d="M 107.905,562.735 125.549,572.538 z" id="boundary" inkscape:connector-curvature="0" />
	<path style="fill:none;stroke:red;stroke-width:1px;stroke-linecap:butt;stroke-linejoin:miter;stroke-opacity:1" d="M 113.787,274.545 121.628,294.15 z" id="boundary" inkscape:connector-curvature="0" />
	<path style="fill:none;stroke:red;stroke-width:1px;stroke-linecap:butt;stroke-linejoin:miter;stroke-opacity:1" d="M 121.628,294.15 123.589,313.755 z" id="boundary" inkscape:connector-curvature="0" />
	<path style="fill:none;stroke:red;stroke-width:1px;stroke-linecap:butt;stroke-linejoin:miter;stroke-opacity:1" d="M 123.589,313.755 139.273,327.478 z" id="boundary" inkscape:connector-curvature="0" />
	<path style="fill:none;stroke:red;stroke-width:1px;stroke-linecap:butt;stroke-linejoin:miter;stroke-opacity:1" d="M 125.549,572.538 145.154,574.498 z" id="boundary" inkscape:connector-curvature="0" />
	<path style="fill:none;stroke:red;stroke-width:1px;stroke-linecap:butt;stroke-linejoin:miter;stroke-opacity:1" d="M 139.273,327.478 158.877,327.478 z" id="boundary" inkscape:connector-curvature="0" />
	<path style="fill:none;stroke:red;stroke-width:1px;stroke-linecap:butt;stroke-linejoin:miter;stroke-opacity:1" d="M 145.154,574.498 164.759,574.498 z" id="boundary" inkscape:connector-curvature="0" />
	<path style="fill:none;stroke:red;stroke-width:1px;stroke-linecap:butt;stroke-linejoin:miter;stroke-opacity:1" d="M 158.877,327.478 178.482,327.478 z" id="boundary" inkscape:connector-curvature="0" />
	<path style="fill:none;stroke:red;stroke-width:1px;stroke-linecap:butt;stroke-linejoin:miter;stroke-opacity:1" d="M 164.759,574.498 180.443,558.814 z" id="boundary" inkscape:connector-curvature="0" />
	<path style="fill:none;stroke:red;stroke-width:1px;stroke-linecap:butt;stroke-linejoin:miter;stroke-opacity:1" d="M 172.601,417.66 172.601,437.265 z" id="boundary" inkscape:connector-curvature="0" />
	<path style="fill:none;stroke:red;stroke-width:1px;stroke-linecap:butt;stroke-linejoin:miter;stroke-opacity:1" d="M 172.601,417.66 192.206,417.66 z" id="boundary" inkscape:connector-curvature="0" />
	<path style="fill:none;stroke:red;stroke-width:1px;stroke-linecap:butt;stroke-linejoin:miter;stroke-opacity:1" d="M 172.601,437.265 172.601,456.87 z" id="boundary" inkscape:connector-curvature="0" />
	<path style="fill:none;stroke:red;stroke-width:1px;stroke-linecap:butt;stroke-linejoin:miter;stroke-opacity:1" d="M 172.601,456.87 182.403,474.514 z" id="boundary" inkscape:connector-curvature="0" />
	<path style="fill:none;stroke:red;stroke-width:1px;stroke-linecap:butt;stroke-linejoin:miter;stroke-opacity:1" d="M 178.482,327.478 196.126,317.676 z" id="boundary" inkscape:connector-curvature="0" />
	<path style="fill:none;stroke:red;stroke-width:1px;stroke-linecap:butt;stroke-linejoin:miter;stroke-opacity:1" d="M 180.443,558.814 190.245,539.209 z" id="boundary" inkscape:connector-curvature="0" />
	<path style="fill:none;stroke:red;stroke-width:1px;stroke-linecap:butt;stroke-linejoin:miter;stroke-opacity:1" d="M 182.403,474.514 182.403,494.119 z" id="boundary" inkscape:connector-curvature="0" />
	<path style="fill:none;stroke:red;stroke-width:1px;stroke-linecap:butt;stroke-linejoin:miter;stroke-opacity:1" d="M 182.403,494.119 192.206,511.763 z" id="boundary" inkscape:connector-curvature="0" />
	<path style="fill:none;stroke:red;stroke-width:1px;stroke-linecap:butt;stroke-linejoin:miter;stroke-opacity:1" d="M 190.245,539.209 192.206,511.763 z" id="boundary" inkscape:connector-curvature="0" />
	<path style="fill:none;stroke:red;stroke-width:1px;stroke-linecap:butt;stroke-linejoin:miter;stroke-opacity:1" d="M 192.206,417.66 211.81,417.66 z" id="boundary" inkscape:connector-curvature="0" />
	<path style="fill:none;stroke:red;stroke-width:1px;stroke-linecap:butt;stroke-linejoin:miter;stroke-opacity:1" d="M 196.126,317.676 215.731,317.676 z" id="boundary" inkscape:connector-curvature="0" />
	<path style="fill:none;stroke:red;stroke-width:1px;stroke-linecap:butt;stroke-linejoin:miter;stroke-opacity:1" d="M 211.81,417.66 231.415,417.66 z" id="boundary" inkscape:connector-curvature="0" />
	<path style="fill:none;stroke:red;stroke-width:1px;stroke-linecap:butt;stroke-linejoin:miter;stroke-opacity:1" d="M 215.731,317.676 235.336,307.874 z" id="boundary" inkscape:connector-curvature="0" />
	<path style="fill:none;stroke:red;stroke-width:1px;stroke-linecap:butt;stroke-linejoin:miter;stroke-opacity:1" d="M 231.415,417.66 249.059,407.858 z" id="boundary" inkscape:connector-curvature="0" />
	<path style="fill:none;stroke:red;stroke-width:1px;stroke-linecap:butt;stroke-linejoin:miter;stroke-opacity:1" d="M 235.336,307.874 254.941,307.874 z" id="boundary" inkscape:connector-curvature="0" />
	<path style="fill:none;stroke:red;stroke-width:1px;stroke-linecap:butt;stroke-linejoin:miter;stroke-opacity:1" d="M 249.059,407.858 264.743,396.095 z" id="boundary" inkscape:connector-curvature="0" />
	<path style="fill:none;stroke:red;stroke-width:1px;stroke-linecap:butt;stroke-linejoin:miter;stroke-opacity:1" d="M 254.941,307.874 272.585,298.071 z" id="boundary" inkscape:connector-curvature="0" />
	<path style="fill:none;stroke:red;stroke-width:1px;stroke-linecap:butt;stroke-linejoin:miter;stroke-opacity:1" d="M 264.743,396.095 284.348,388.253 z" id="boundary" inkscape:connector-curvature="0" />
	<path style="fill:none;stroke:red;stroke-width:1px;stroke-linecap:butt;stroke-linejoin:miter;stroke-opacity:1" d="M 272.585,298.071 290.229,288.269 z" id="boundary" inkscape:connector-curvature="0" />
	<path style="fill:none;stroke:red;stroke-width:1px;stroke-linecap:butt;stroke-linejoin:miter;stroke-opacity:1" d="M 284.348,388.253 301.992,378.451 z" id="boundary" inkscape:connector-curvature="0" />
	<path style="fill:none;stroke:red;stroke-width:1px;stroke-linecap:butt;stroke-linejoin:miter;stroke-opacity:1" d="M 290.229,288.269 309.834,282.387 z" id="boundary" inkscape:connector-curvature="0" />
	<path style="fill:none;stroke:red;stroke-width:1px;stroke-linecap:butt;stroke-linejoin:miter;stroke-opacity:1" d="M 301.992,378.451 319.636,368.648 z" id="boundary" inkscape:connector-curvature="0" />
	<path style="fill:none;stroke:red;stroke-width:1px;stroke-linecap:butt;stroke-linejoin:miter;stroke-opacity:1" d="M 309.834,282.387 329.439,272.585 z" id="boundary" inkscape:connector-curvature="0" />
	<path style="fill:none;stroke:red;stroke-width:1px;stroke-linecap:butt;stroke-linejoin:miter;stroke-opacity:1" d="M 319.636,368.648 339.241,368.648 z" id="boundary" inkscape:connector-curvature="0" />
	<path style="fill:none;stroke:red;stroke-width:1px;stroke-linecap:butt;stroke-linejoin:miter;stroke-opacity:1" d="M 329.439,272.585 347.083,254.941 z" id="boundary" inkscape:connector-curvature="0" />
	<path style="fill:none;stroke:red;stroke-width:1px;stroke-linecap:butt;stroke-linejoin:miter;stroke-opacity:1" d="M 339.241,368.648 349.043,349.043 z" id="boundary" inkscape:connector-curvature="0" />
	<path style="fill:none;stroke:red;stroke-width:1px;stroke-linecap:butt;stroke-linejoin:miter;stroke-opacity:1" d="M 347.083,254.941 366.688,249.059 z" id="boundary" inkscape:connector-curvature="0" />
	<path style="fill:none;stroke:red;stroke-width:1px;stroke-linecap:butt;stroke-linejoin:miter;stroke-opacity:1" d="M 349.043,349.043 368.648,349.043 z" id="boundary" inkscape:connector-curvature="0" />
	<path style="fill:none;stroke:red;stroke-width:1px;stroke-linecap:butt;stroke-linejoin:miter;stroke-opacity:1" d="M 366.688,249.059 386.292,245.138 z" id="boundary" inkscape:connector-curvature="0" />
	<path style="fill:none;stroke:red;stroke-width:1px;stroke-linecap:butt;stroke-linejoin:miter;stroke-opacity:1" d="M 368.648,349.043 386.292,339.241 z" id="boundary" inkscape:connector-curvature="0" />
	<path style="fill:none;stroke:red;stroke-width:1px;stroke-linecap:butt;stroke-linejoin:miter;stroke-opacity:1" d="M 386.292,245.138 405.897,235.336 z" id="boundary" inkscape:connector-curvature="0" />
	<path style="fill:none;stroke:red;stroke-width:1px;stroke-linecap:butt;stroke-linejoin:miter;stroke-opacity:1" d="M 386.292,339.241 403.937,329.439 z" id="boundary" inkscape:connector-curvature="0" />
	<path style="fill:none;stroke:red;stroke-width:1px;stroke-linecap:butt;stroke-linejoin:miter;stroke-opacity:1" d="M 403.937,329.439 423.542,329.439 z" id="boundary" inkscape:connector-curvature="0" />
	<path style="fill:none;stroke:red;stroke-width:1px;stroke-linecap:butt;stroke-linejoin:miter;stroke-opacity:1" d="M 405.897,235.336 425.502,225.534 z" id="boundary" inkscape:connector-curvature="0" />
	<path style="fill:none;stroke:red;stroke-width:1px;stroke-linecap:butt;stroke-linejoin:miter;stroke-opacity:1" d="M 423.542,329.439 443.146,329.439 z" id="boundary" inkscape:connector-curvature="0" />
	<path style="fill:none;stroke:red;stroke-width:1px;stroke-linecap:butt;stroke-linejoin:miter;stroke-opacity:1" d="M 425.502,225.534 445.107,215.731 z" id="boundary" inkscape:connector-curvature="0" />
	<path style="fill:none;stroke:red;stroke-width:1px;stroke-linecap:butt;stroke-linejoin:miter;stroke-opacity:1" d="M 443.146,329.439 462.751,325.518 z" id="boundary" inkscape:connector-curvature="0" />
	<path style="fill:none;stroke:red;stroke-width:1px;stroke-linecap:butt;stroke-linejoin:miter;stroke-opacity:1" d="M 445.107,215.731 464.711,205.929 z" id="boundary" inkscape:connector-curvature="0" />
	<path style="fill:none;stroke:red;stroke-width:1px;stroke-linecap:butt;stroke-linejoin:miter;stroke-opacity:1" d="M 462.751,325.518 482.356,319.636 z" id="boundary" inkscape:connector-curvature="0" />
	<path style="fill:none;stroke:red;stroke-width:1px;stroke-linecap:butt;stroke-linejoin:miter;stroke-opacity:1" d="M 464.711,205.929 484.316,196.126 z" id="boundary" inkscape:connector-curvature="0" />
	<path style="fill:none;stroke:red;stroke-width:1px;stroke-linecap:butt;stroke-linejoin:miter;stroke-opacity:1" d="M 482.356,319.636 500,309.834 z" id="boundary" inkscape:connector-curvature="0" />
	<path style="fill:none;stroke:red;stroke-width:1px;stroke-linecap:butt;stroke-linejoin:miter;stroke-opacity:1" d="M 484.316,196.126 503.921,186.324 z" id="boundary" inkscape:connector-curvature="0" />
	<path style="fill:none;stroke:red;stroke-width:1px;stroke-linecap:butt;stroke-linejoin:miter;stroke-opacity:1" d="M 500,309.834 517.644,300.032 z" id="boundary" inkscape:connector-curvature="0" />
	<path style="fill:none;stroke:red;stroke-width:1px;stroke-linecap:butt;stroke-linejoin:miter;stroke-opacity:1" d="M 503.921,186.324 519.605,170.64 z" id="boundary" inkscape:connector-curvature="0" />
	<path style="fill:none;stroke:red;stroke-width:1px;stroke-linecap:butt;stroke-linejoin:miter;stroke-opacity:1" d="M 517.644,300.032 535.289,290.229 z" id="boundary" inkscape:connector-curvature="0" />
	<path style="fill:none;stroke:red;stroke-width:1px;stroke-linecap:butt;stroke-linejoin:miter;stroke-opacity:1" d="M 519.605,170.64 539.209,170.64 z" id="boundary" inkscape:connector-curvature="0" />
	<path style="fill:none;stroke:red;stroke-width:1px;stroke-linecap:butt;stroke-linejoin:miter;stroke-opacity:1" d="M 535.289,290.229 554.893,280.427 z" id="boundary" inkscape:connector-curvature="0" />
	<path style="fill:none;stroke:red;stroke-width:1px;stroke-linecap:butt;stroke-linejoin:miter;stroke-opacity:1" d="M 539.209,170.64 556.854,160.838 z" id="boundary" inkscape:connector-curvature="0" />
	<path style="fill:none;stroke:red;stroke-width:1px;stroke-linecap:butt;stroke-linejoin:miter;stroke-opacity:1" d="M 554.893,280.427 574.498,280.427 z" id="boundary" inkscape:connector-curvature="0" />
	<path style="fill:none;stroke:red;stroke-width:1px;stroke-linecap:butt;stroke-linejoin:miter;stroke-opacity:1" d="M 556.854,160.838 576.458,160.838 z" id="boundary" inkscape:connector-curvature="0" />
	<path style="fill:none;stroke:red;stroke-width:1px;stroke-linecap:butt;stroke-linejoin:miter;stroke-opacity:1" d="M 574.498,280.427 590.182,266.704 z" id="boundary" inkscape:connector-curvature="0" />
	<path style="fill:none;stroke:red;stroke-width:1px;stroke-linecap:butt;stroke-linejoin:miter;stroke-opacity:1" d="M 576.458,160.838 592.142,147.115 z" id="boundary" inkscape:connector-curvature="0" />
	<path style="fill:none;stroke:red;stroke-width:1px;stroke-linecap:butt;stroke-linejoin:miter;stroke-opacity:1" d="M 590.182,266.704 609.787,256.901 z" id="boundary" inkscape:connector-curvature="0" />
	<path style="fill:none;stroke:red;stroke-width:1px;stroke-linecap:butt;stroke-linejoin:miter;stroke-opacity:1" d="M 592.142,147.115 611.747,137.312 z" id="boundary" inkscape:connector-curvature="0" />
	<path style="fill:none;stroke:red;stroke-width:1px;stroke-linecap:butt;stroke-linejoin:miter;stroke-opacity:1" d="M 609.787,256.901 629.391,251.02 z" id="boundary" inkscape:connector-curvature="0" />
	<path style="fill:none;stroke:red;stroke-width:1px;stroke-linecap:butt;stroke-linejoin:miter;stroke-opacity:1" d="M 611.747,137.312 631.352,131.431 z" id="boundary" inkscape:connector-curvature="0" />
	<path style="fill:none;stroke:red;stroke-width:1px;stroke-linecap:butt;stroke-linejoin:miter;stroke-opacity:1" d="M 629.391,251.02 648.996,251.02 z" id="boundary" inkscape:connector-curvature="0" />
	<path style="fill:none;stroke:red;stroke-width:1px;stroke-linecap:butt;stroke-linejoin:miter;stroke-opacity:1" d="M 631.352,131.431 648.996,121.628 z" id="boundary" inkscape:connector-curvature="0" />
	<path style="fill:none;stroke:red;stroke-width:1px;stroke-linecap:butt;stroke-linejoin:miter;stroke-opacity:1" d="M 648.996,121.628 666.64,111.826 z" id="boundary" inkscape:connector-curvature="0" />
	<path style="fill:none;stroke:red;stroke-width:1px;stroke-linecap:butt;stroke-linejoin:miter;stroke-opacity:1" d="M 648.996,251.02 666.64,241.217 z" id="boundary" inkscape:connector-curvature="0" />
	<path style="fill:none;stroke:red;stroke-width:1px;stroke-linecap:butt;stroke-linejoin:miter;stroke-opacity:1" d="M 666.64,111.826 686.245,102.024 z" id="boundary" inkscape:connector-curvature="0" />
	<path style="fill:none;stroke:red;stroke-width:1px;stroke-linecap:butt;stroke-linejoin:miter;stroke-opacity:1" d="M 666.64,241.217 684.285,231.415 z" id="boundary" inkscape:connector-curvature="0" />
	<path style="fill:none;stroke:red;stroke-width:1px;stroke-linecap:butt;stroke-linejoin:miter;stroke-opacity:1" d="M 684.285,231.415 701.929,221.613 z" id="boundary" inkscape:connector-curvature="0" />
	<path style="fill:none;stroke:red;stroke-width:1px;stroke-linecap:butt;stroke-linejoin:miter;stroke-opacity:1" d="M 686.245,102.024 705.85,92.2213 z" id="boundary" inkscape:connector-curvature="0" />
	<path style="fill:none;stroke:red;stroke-width:1px;stroke-linecap:butt;stroke-linejoin:miter;stroke-opacity:1" d="M 701.929,221.613 721.534,221.613 z" id="boundary" inkscape:connector-curvature="0" />
	<path style="fill:none;stroke:red;stroke-width:1px;stroke-linecap:butt;stroke-linejoin:miter;stroke-opacity:1" d="M 705.85,92.2213 725.455,82.419 z" id="boundary" inkscape:connector-curvature="0" />
	<path style="fill:none;stroke:red;stroke-width:1px;stroke-linecap:butt;stroke-linejoin:miter;stroke-opacity:1" d="M 721.534,221.613 739.178,211.81 z" id="boundary" inkscape:connector-curvature="0" />
	<path style="fill:none;stroke:red;stroke-width:1px;stroke-linecap:butt;stroke-linejoin:miter;stroke-opacity:1" d="M 725.455,82.419 745.059,82.419 z" id="boundary" inkscape:connector-curvature="0" />
	<path style="fill:none;stroke:red;stroke-width:1px;stroke-linecap:butt;stroke-linejoin:miter;stroke-opacity:1" d="M 739.178,211.81 754.862,200.047 z" id="boundary" inkscape:connector-curvature="0" />
	<path style="fill:none;stroke:red;stroke-width:1px;stroke-linecap:butt;stroke-linejoin:miter;stroke-opacity:1" d="M 745.059,82.419 762.704,72.6166 z" id="boundary" inkscape:connector-curvature="0" />
	<path style="fill:none;stroke:red;stroke-width:1px;stroke-linecap:butt;stroke-linejoin:miter;stroke-opacity:1" d="M 754.862,200.047 774.466,192.206 z" id="boundary" inkscape:connector-curvature="0" />
	<path style="fill:none;stroke:red;stroke-width:1px;stroke-linecap:butt;stroke-linejoin:miter;stroke-opacity:1" d="M 762.704,72.6166 782.308,64.7747 z" id="boundary" inkscape:connector-curvature="0" />
	<path style="fill:none;stroke:red;stroke-width:1px;stroke-linecap:butt;stroke-linejoin:miter;stroke-opacity:1" d="M 774.466,192.206 792.111,182.403 z" id="boundary" inkscape:connector-curvature="0" />
	<path style="fill:none;stroke:red;stroke-width:1px;stroke-linecap:butt;stroke-linejoin:miter;stroke-opacity:1" d="M 782.308,64.7747 801.913,54.9723 z" id="boundary" inkscape:connector-curvature="0" />
	<path style="fill:none;stroke:red;stroke-width:1px;stroke-linecap:butt;stroke-linejoin:miter;stroke-opacity:1" d="M 792.111,182.403 809.755,172.601 z" id="boundary" inkscape:connector-curvature="0" />
	<path style="fill:none;stroke:red;stroke-width:1px;stroke-linecap:butt;stroke-linejoin:miter;stroke-opacity:1" d="M 801.913,54.9723 821.518,53.0119 z" id="boundary" inkscape:connector-curvature="0" />
	<path style="fill:none;stroke:red;stroke-width:1px;stroke-linecap:butt;stroke-linejoin:miter;stroke-opacity:1" d="M 809.755,172.601 829.36,162.798 z" id="boundary" inkscape:connector-curvature="0" />
	<path style="fill:none;stroke:red;stroke-width:1px;stroke-linecap:butt;stroke-linejoin:miter;stroke-opacity:1" d="M 821.518,53.0119 839.162,43.2095 z" id="boundary" inkscape:connector-curvature="0" />
	<path style="fill:none;stroke:red;stroke-width:1px;stroke-linecap:butt;stroke-linejoin:miter;stroke-opacity:1" d="M 829.36,162.798 848.964,152.996 z" id="boundary" inkscape:connector-curvature="0" />
	<path style="fill:none;stroke:red;stroke-width:1px;stroke-linecap:butt;stroke-linejoin:miter;stroke-opacity:1" d="M 839.162,43.2095 856.806,33.4071 z" id="boundary" inkscape:connector-curvature="0" />
	<path style="fill:none;stroke:red;stroke-width:1px;stroke-linecap:butt;stroke-linejoin:miter;stroke-opacity:1" d="M 848.964,152.996 868.569,152.996 z" id="boundary" inkscape:connector-curvature="0" />
	<path style="fill:none;stroke:red;stroke-width:1px;stroke-linecap:butt;stroke-linejoin:miter;stroke-opacity:1" d="M 856.806,33.4071 874.451,23.6047 z" id="boundary" inkscape:connector-curvature="0" />
	<path style="fill:none;stroke:red;stroke-width:1px;stroke-linecap:butt;stroke-linejoin:miter;stroke-opacity:1" d="M 868.569,152.996 886.213,143.194 z" id="boundary" inkscape:connector-curvature="0" />
	<path style="fill:none;stroke:red;stroke-width:1px;stroke-linecap:butt;stroke-linejoin:miter;stroke-opacity:1" d="M 874.451,23.6047 894.055,23.6047 z" id="boundary" inkscape:connector-curvature="0" />
	<path style="fill:none;stroke:red;stroke-width:1px;stroke-linecap:butt;stroke-linejoin:miter;stroke-opacity:1" d="M 886.213,143.194 903.858,133.391 z" id="boundary" inkscape:connector-curvature="0" />
	<path style="fill:none;stroke:red;stroke-width:1px;stroke-linecap:butt;stroke-linejoin:miter;stroke-opacity:1" d="M 894.055,23.6047 911.7,13.8024 z" id="boundary" inkscape:connector-curvature="0" />
	<path style="fill:none;stroke:red;stroke-width:1px;stroke-linecap:butt;stroke-linejoin:miter;stroke-opacity:1" d="M 903.858,133.391 921.502,121.628 z" id="boundary" inkscape:connector-curvature="0" />
	<path style="fill:none;stroke:red;stroke-width:1px;stroke-linecap:butt;stroke-linejoin:miter;stroke-opacity:1" d="M 911.7,13.8024 929.344,4 z" id="boundary" inkscape:connector-curvature="0" />
	<path style="fill:none;stroke:red;stroke-width:1px;stroke-linecap:butt;stroke-linejoin:miter;stroke-opacity:1" d="M 921.502,121.628 941.107,111.826 z" id="boundary" inkscape:connector-curvature="0" />
	<path style="fill:none;stroke:red;stroke-width:1px;stroke-linecap:butt;stroke-linejoin:miter;stroke-opacity:1" d="M 929.344,4 948.949,4 z" id="boundary" inkscape:connector-curvature="0" />
	<path style="fill:none;stroke:red;stroke-width:1px;stroke-linecap:butt;stroke-linejoin:miter;stroke-opacity:1" d="M 941.107,111.826 960.711,102.024 z" id="boundary" inkscape:connector-curvature="0" />
	<path style="fill:none;stroke:red;stroke-width:1px;stroke-linecap:butt;stroke-linejoin:miter;stroke-opacity:1" d="M 948.949,4 966.593,13.8024 z" id="boundary" inkscape:connector-curvature="0" />
	<path style="fill:none;stroke:red;stroke-width:1px;stroke-linecap:butt;stroke-linejoin:miter;stroke-opacity:1" d="M 960.711,102.024 980.316,92.2213 z" id="boundary" inkscape:connector-curvature="0" />
	<path style="fill:none;stroke:red;stroke-width:1px;stroke-linecap:butt;stroke-linejoin:miter;stroke-opacity:1" d="M 966.593,13.8024 982.277,25.5652 z" id="boundary" inkscape:connector-curvature="0" />
	<path style="fill:none;stroke:red;stroke-width:1px;stroke-linecap:butt;stroke-linejoin:miter;stroke-opacity:1" d="M 980.316,92.2213 996,60.8538 z" id="boundary" inkscape:connector-curvature="0" />
	<path style="fill:none;stroke:red;stroke-width:1px;stroke-linecap:butt;stroke-linejoin:miter;stroke-opacity:1" d="M 982.277,25.5652 996,41.249 z" id="boundary" inkscape:connector-curvature="0" />
	<path style="fill:none;stroke:red;stroke-width:1px;stroke-linecap:butt;stroke-linejoin:miter;stroke-opacity:1" d="M 996,41.249 996,60.8538 z" id="boundary" inkscape:connector-curvature="0" />
	<circle cx="4" cy="254.941" r="4" fill="#0" id="circle0"/>
	<circle cx="4" cy="274.545" r="4" fill="#0" id="circle1"/>
	<circle cx="4" cy="294.15" r="4" fill="#0" id="circle2"/>
	<circle cx="13.8024" cy="311.794" r="4" fill="#0" id="circle3"/>
	<circle cx="13.8024" cy="331.399" r="4" fill="#0" id="circle4"/>
	<circle cx="19.6838" cy="239.257" r="4" fill="#0" id="circle5"/>
	<circle cx="23.6047" cy="349.043" r="4" fill="#0" id="circle6"/>
	<circle cx="29.4862" cy="368.648" r="4" fill="#0" id="circle7"/>
	<circle cx="33.4071" cy="388.253" r="4" fill="#0" id="circle8"/>
	<circle cx="33.4071" cy="407.858" r="4" fill="#0" id="circle9"/>
	<circle cx="39.2885" cy="239.257" r="4" fill="#0" id="circle10"/>
	<circle cx="43.2095" cy="425.502" r="4" fill="#0" id="circle11"/>
	<circle cx="47.1304" cy="445.107" r="4" fill="#0" id="circle12"/>
	<circle cx="56.9328" cy="229.455" r="4" fill="#0" id="circle13"/>
	<circle cx="62.8142" cy="456.87" r="4" fill="#0" id="circle14"/>
	<circle cx="74.5771" cy="472.553" r="4" fill="#0" id="circle15"/>
	<circle cx="76.5375" cy="229.455" r="4" fill="#0" id="circle16"/>
	<circle cx="90.2609" cy="486.277" r="4" fill="#0" id="circle17"/>
	<circle cx="92.2213" cy="505.881" r="4" fill="#0" id="circle18"/>
	<circle cx="92.2213" cy="525.486" r="4" fill="#0" id="circle19"/>
	<circle cx="94.1818" cy="239.257" r="4" fill="#0" id="circle20"/>
	<circle cx="98.1028" cy="545.091" r="4" fill="#0" id="circle21"/>
	<circle cx="103.984" cy="256.901" r="4" fill="#0" id="circle22"/>
	<circle cx="107.905" cy="562.735" r="4" fill="#0" id="circle23"/>
	<circle cx="113.787" cy="274.545" r="4" fill="#0" id="circle24"/>
	<circle cx="121.628" cy="294.15" r="4" fill="#0" id="circle25"/>
	<circle cx="123.589" cy="313.755" r="4" fill="#0" id="circle26"/>
	<circle cx="125.549" cy="572.538" r="4" fill="#0" id="circle27"/>
	<circle cx="139.273" cy="327.478" r="4" fill="#0" id="circle28"/>
	<circle cx="145.154" cy="574.498" r="4" fill="#0" id="circle29"/>
	<circle cx="158.877" cy="327.478" r="4" fill="#0" id="circle30"/>
	<circle cx="164.759" cy="574.498" r="4" fill="#0" id="circle31"/>
	<circle cx="172.601" cy="417.66" r="4" fill="#0" id="circle32"/>
	<circle cx="172.601" cy="437.265" r="4" fill="#0" id="circle33"/>
	<circle cx="172.601" cy="456.87" r="4" fill="#0" id="circle34"/>
	<circle cx="178.482" cy="327.478" r="4" fill="#0" id="circle35"/>
	<circle cx="180.443" cy="558.814" r="4" fill="#0" id="circle36"/>
	<circle cx="182.403" cy="474.514" r="4" fill="#0" id="circle37"/>
	<circle cx="182.403" cy="494.119" r="4" fill="#0" id="circle38"/>
	<circle cx="190.245" cy="539.209" r="4" fill="#0" id="circle39"/>
	<circle cx="192.206" cy="417.66" r="4" fill="#0" id="circle40"/>
	<circle cx="192.206" cy="511.763" r="4" fill="#0" id="circle41"/>
	<circle cx="196.126" cy="317.676" r="4" fill="#0" id="circle42"/>
	<circle cx="211.81" cy="417.66" r="4" fill="#0" id="circle43"/>
	<circle cx="215.731" cy="317.676" r="4" fill="#0" id="circle44"/>
	<circle cx="231.415" cy="417.66" r="4" fill="#0" id="circle45"/>
	<circle cx="235.336" cy="307.874" r="4" fill="#0" id="circle46"/>
	<circle cx="249.059" cy="407.858" r="4" fill="#0" id="circle47"/>
	<circle cx="254.941" cy="307.874" r="4" fill="#0" id="circle48"/>
	<circle cx="264.743" cy="396.095" r="4" fill="#0" id="circle49"/>
	<circle cx="272.585" cy="298.071" r="4" fill="#0" id="circle50"/>
	<circle cx="284.348" cy="388.253" r="4" fill="#0" id="circle51"/>
	<circle cx="290.229" cy="288.269" r="4" fill="#0" id="circle52"/>
	<circle cx="301.992" cy="378.451" r="4" fill="#0" id="circle53"/>
	<circle cx="309.834" cy="282.387" r="4" fill="#0" id="circle54"/>
	<circle cx="319.636" cy="368.648" r="4" fill="#0" id="circle55"/>
	<circle cx="329.439" cy="272.585" r="4" fill="#0" id="circle56"/>
	<circle cx="339.241" cy="368.648" r="4" fill="#0" id="circle57"/>
	<circle cx="347.083" cy="254.941" r="4" fill="#0" id="circle58"/>
	<circle cx="349.043" cy="349.043" r="4" fill="#0" id="circle59"/>
	<circle cx="366.688" cy="249.059" r="4" fill="#0" id="circle60"/>
	<circle cx="368.648" cy="349.043" r="4" fill="#0" id="circle61"/>
	<circle cx="386.292" cy="245.138" r="4" fill="#0" id="circle62"/>
	<circle cx="386.292" cy="339.241" r="4" fill="#0" id="circle63"/>
	<circle cx="403.937" cy="329.439" r="4" fill="#0" id="circle64"/>
	<circle cx="405.897" cy="235.336" r="4" fill="#0" id="circle65"/>
	<circle cx="423.542" cy="329.439" r="4" fill="#0" id="circle66"/>
	<circle cx="425.502" cy="225.534" r="4" fill="#0" id="circle67"/>
	<circle cx="443.146" cy="329.439" r="4" fill="#0" id="circle68"/>
	<circle cx="445.107" cy="215.731" r="4" fill="#0" id="circle69"/>
	<circle cx="462.751" cy="325.518" r="4" fill="#0" id="circle70"/>
	<circle cx="464.711" cy="205.929" r="4" fill="#0" id="circle71"/>
	<circle cx="482.356" cy="319.636" r="4" fill="#0" id="circle72"/>
	<circle cx="484.316" cy="196.126" r="4" fill="#0" id="circle73"/>
	<circle cx="500" cy="309.834" r="4" fill="#0" id="circle74"/>
	<circle cx="503.921" cy="186.324" r="4" fill="#0" id="circle75"/>
	<circle cx="517.644" cy="300.032" r="4" fill="#0" id="circle76"/>
	<circle cx="519.605" cy="170.64" r="4" fill="#0" id="circle77"/>
	<circle cx="535.289" cy="290.229" r="4" fill="#0" id="circle78"/>
	<circle cx="539.209" cy="170.64" r="4" fill="#0" id="circle79"/>
	<circle cx="554.893" cy="280.427" r="4" fill="#0" id="circle80"/>
	<circle cx="556.854" cy="160.838" r="4" fill="#0" id="circle81"/>
	<circle cx="574.498" cy="280.427" r="4" fill="#0" id="circle82"/>
	<circle cx="576.458" cy="160.838" r="4" fill="#0" id="circle83"/>
	<circle cx="590.182" cy="266.704" r="4" fill="#0" id="circle84"/>
	<circle cx="592.142" cy="147.115" r="4" fill="#0" id="circle85"/>
	<circle cx="609.787" cy="256.901" r="4" fill="#0" id="circle86"/>
	<circle cx="611.747" cy="137.312" r="4" fill="#0" id="circle87"/>
	<circle cx="629.391" cy="251.02" r="4" fill="#0" id="circle88"/>
	<circle cx="631.352" cy="131.431" r="4" fill="#0" id="circle89"/>
	<circle cx="648.996" cy="121.628" r="4" fill="#0" id="circle90"/>
	<circle cx="648.996" cy="251.02" r="4" fill="#0" id="circle91"/>
	<circle cx="666.64" cy="111.826" r="4" fill="#0" id="circle92"/>
	<circle cx="666.64" cy="241.217" r="4" fill="#0" id="circle93"/>
	<circle cx="684.285" cy="231.415" r="4" fill="#0" id="circle94"/>
	<circle cx="686.245" cy="102.024" r="4" fill="#0" id="circle95"/>
	<circle cx="701.929" cy="221.613" r="4" fill="#0" id="circle96"/>
	<circle cx="705.85" cy="92.2213" r="4" fill="#0" id="circle97"/>
	<circle cx="721.534" cy="221.613" r="4" fill="#0" id="circle98"/>
	<circle cx="725.455" cy="82.419" r="4" fill="#0" id="circle99"/>
	<circle cx="739.178" cy="211.81" r="4" fill="#0" id="circle100"/>
	<circle cx="745.059" cy="82.419" r="4" fill="#0" id="circle101"/>
	<circle cx="754.862" cy="200.047" r="4" fill="#0" id="circle102"/>
	<circle cx="762.704" cy="72.6166" r="4" fill="#0" id="circle103"/>
	<circle cx="774.466" cy="192.206" r="4" fill="#0" id="circle104"/>
	<circle cx="782.308" cy="64.7747" r="4" fill="#0" id="circle105"/>
	<circle cx="792.111" cy="182.403" r="4" fill="#0" id="circle106"/>
	<circle cx="801.913" cy="54.9723" r="4" fill="#0" id="circle107"/>
	<circle cx="809.755" cy="172.601" r="4" fill="#0" id="circle108"/>
	<circle cx="821.518" cy="53.0119" r="4" fill="#0" id="circle109"/>
	<circle cx="829.36" cy="162.798" r="4" fill="#0" id="circle110"/>
	<circle cx="839.162" cy="43.2095" r="4" fill="#0" id="circle111"/>
	<circle cx="848.964" cy="152.996" r="4" fill="#0" id="circle112"/>
	<circle cx="856.806" cy="33.4071" r="4" fill="#0" id="circle113"/>
	<circle cx="868.569" cy="152.996" r="4" fill="#0" id="circle114"/>
	<circle cx="874.451" cy="23.6047" r="4" fill="#0" id="circle115"/>
	<circle cx="886.213" cy="143.194" r="4" fill="#0" id="circle116"/>
	<circle cx="894.055" cy="23.6047" r="4" fill="#0" id="circle117"/>
	<circle cx="903.858" cy="133.391" r="4" fill="#0" id="circle118"/>
	<circle cx="911.7" cy="13.8024" r="4" fill="#0" id="circle119"/>
	<circle cx="921.502" cy="121.628" r="4" fill="#0" id="circle120"/>
	<circle cx="929.344" cy="4" r="4" fill="#0" id="circle121"/>
	<circle cx="941.107" cy="111.826" r="4" fill="#0" id="circle122"/>
	<circle cx="948.949" cy="4" r="4" fill="#0" id="circle123"/>
	<circle cx="960.711" cy="102.024" r="4" fill="#0" id="circle124"/>
	<circle cx="966.593" cy="13.8024" r="4" fill="#0" id="circle125"/>
	<circle cx="980.316" cy="92.2213" r="4" fill="#0" id="circle126"/>
	<circle cx="982.277" cy="25.5652" r="4" fill="#0" id="circle127"/>
	<circle cx="996" cy="41.249" r="4" fill="#0" id="circle128"/>
	<circle cx="996" cy="60.8538" r="4" fill="#0" id="circle129"/>
	</g>
</svg>