<?xml version="1.0" encoding="UTF-8" standalone="no"?>
<!-- Created with CurveBenchmark -->
<svg
	xmlns:dc="http://purl.org/dc/elements/1.1/"
	xmlns:cc="http://creativecommons.org/ns#"
	xmlns:rdf="http://www.w3.org/1999/02/22-rdf-syntax-ns#"
	xmlns:svg="http://www.w3.org/2000/svg"
	xmlns="http://www.w3.org/2000/svg"
	xmlns:sodipodi="http://sodipodi.sourceforge.net/DTD/sodipodi-0.dtd"
	xmlns:inkscape="http://www.inkscape.org/namespaces/inkscape"
	width="1000"
	height="1000"
	id="svg2"
	version="1.1"
	sodipodi:docname="manifold/vicur-fountain-06.png.txt">
<defs
	id="defs4" />
<metadata
	id="metadata7">
	<rdf:RDF>
		<cc:Work
			rdf:about="">
			<dc:format>image/svg+xml</dc:format>
			<dc:type
				rdf:resource="http://purl.org/dc/dcmitype/StillImage" />
			<dc:title></dc:title>
		</cc:Work>
	</rdf:RDF>
</metadata>
<g
	inkscape:label="Layer 1"
	inkscape:groupmode="layer"
	id="layer1">
	<path style="fill:none;stroke:red;stroke-width:1px;stroke-linecap:butt;stroke-linejoin:miter;stroke-opacity:1" d="M 4,591.668 4,601.578 z" id="boundary" inkscape:connector-curvature="0" />
	<path style="fill:none;stroke:red;stroke-width:1px;stroke-linecap:butt;stroke-linejoin:miter;stroke-opacity:1" d="M 4,591.668 8.95504,581.758 z" id="boundary" inkscape:connector-curvature="0" />
	<path style="fill:none;stroke:red;stroke-width:1px;stroke-linecap:butt;stroke-linejoin:miter;stroke-opacity:1" d="M 4,601.578 4,611.489 z" id="boundary" inkscape:connector-curvature="0" />
	<path style="fill:none;stroke:red;stroke-width:1px;stroke-linecap:butt;stroke-linejoin:miter;stroke-opacity:1" d="M 4,611.489 4,621.399 z" id="boundary" inkscape:connector-curvature="0" />
	<path style="fill:none;stroke:red;stroke-width:1px;stroke-linecap:butt;stroke-linejoin:miter;stroke-opacity:1" d="M 4,621.399 4,631.309 z" id="boundary" inkscape:connector-curvature="0" />
	<path style="fill:none;stroke:red;stroke-width:1px;stroke-linecap:butt;stroke-linejoin:miter;stroke-opacity:1" d="M 4,631.309 8.95504,640.228 z" id="boundary" inkscape:connector-curvature="0" />
	<path style="fill:none;stroke:red;stroke-width:1px;stroke-linecap:butt;stroke-linejoin:miter;stroke-opacity:1" d="M 8.95504,581.758 13.9101,571.848 z" id="boundary" inkscape:connector-curvature="0" />
	<path style="fill:none;stroke:red;stroke-width:1px;stroke-linecap:butt;stroke-linejoin:miter;stroke-opacity:1" d="M 13.9101,571.848 21.8382,563.92 z" id="boundary" inkscape:connector-curvature="0" />
	<path style="fill:none;stroke:red;stroke-width:1px;stroke-linecap:butt;stroke-linejoin:miter;stroke-opacity:1" d="M 16.8831,659.057 25.8022,664.012 z" id="boundary" inkscape:connector-curvature="0" />
	<path style="fill:none;stroke:red;stroke-width:1px;stroke-linecap:butt;stroke-linejoin:miter;stroke-opacity:1" d="M 21.8382,563.92 29.7662,555.992 z" id="boundary" inkscape:connector-curvature="0" />
	<path style="fill:none;stroke:red;stroke-width:1px;stroke-linecap:butt;stroke-linejoin:miter;stroke-opacity:1" d="M 25.8022,664.012 43.6404,673.922 z" id="boundary" inkscape:connector-curvature="0" />
	<path style="fill:none;stroke:red;stroke-width:1px;stroke-linecap:butt;stroke-linejoin:miter;stroke-opacity:1" d="M 29.7662,555.992 46.6134,544.1 z" id="boundary" inkscape:connector-curvature="0" />
	<path style="fill:none;stroke:red;stroke-width:1px;stroke-linecap:butt;stroke-linejoin:miter;stroke-opacity:1" d="M 43.6404,673.922 61.4785,683.832 z" id="boundary" inkscape:connector-curvature="0" />
	<path style="fill:none;stroke:red;stroke-width:1px;stroke-linecap:butt;stroke-linejoin:miter;stroke-opacity:1" d="M 46.6134,544.1 54.5415,536.172 z" id="boundary" inkscape:connector-curvature="0" />
	<path style="fill:none;stroke:red;stroke-width:1px;stroke-linecap:butt;stroke-linejoin:miter;stroke-opacity:1" d="M 54.5415,536.172 71.3886,524.28 z" id="boundary" inkscape:connector-curvature="0" />
	<path style="fill:none;stroke:red;stroke-width:1px;stroke-linecap:butt;stroke-linejoin:miter;stroke-opacity:1" d="M 61.4785,683.832 71.3886,687.796 z" id="boundary" inkscape:connector-curvature="0" />
	<path style="fill:none;stroke:red;stroke-width:1px;stroke-linecap:butt;stroke-linejoin:miter;stroke-opacity:1" d="M 71.3886,524.28 79.3167,516.352 z" id="boundary" inkscape:connector-curvature="0" />
	<path style="fill:none;stroke:red;stroke-width:1px;stroke-linecap:butt;stroke-linejoin:miter;stroke-opacity:1" d="M 71.3886,687.796 81.2987,688.787 z" id="boundary" inkscape:connector-curvature="0" />
	<path style="fill:none;stroke:red;stroke-width:1px;stroke-linecap:butt;stroke-linejoin:miter;stroke-opacity:1" d="M 79.3167,516.352 87.2448,509.415 z" id="boundary" inkscape:connector-curvature="0" />
	<path style="fill:none;stroke:red;stroke-width:1px;stroke-linecap:butt;stroke-linejoin:miter;stroke-opacity:1" d="M 81.2987,688.787 99.1369,698.697 z" id="boundary" inkscape:connector-curvature="0" />
	<path style="fill:none;stroke:red;stroke-width:1px;stroke-linecap:butt;stroke-linejoin:miter;stroke-opacity:1" d="M 87.2448,509.415 94.1818,501.487 z" id="boundary" inkscape:connector-curvature="0" />
	<path style="fill:none;stroke:red;stroke-width:1px;stroke-linecap:butt;stroke-linejoin:miter;stroke-opacity:1" d="M 94.1818,501.487 102.11,494.549 z" id="boundary" inkscape:connector-curvature="0" />
	<path style="fill:none;stroke:red;stroke-width:1px;stroke-linecap:butt;stroke-linejoin:miter;stroke-opacity:1" d="M 99.1369,698.697 116.975,708.607 z" id="boundary" inkscape:connector-curvature="0" />
	<path style="fill:none;stroke:red;stroke-width:1px;stroke-linecap:butt;stroke-linejoin:miter;stroke-opacity:1" d="M 102.11,494.549 109.047,486.621 z" id="boundary" inkscape:connector-curvature="0" />
	<path style="fill:none;stroke:red;stroke-width:1px;stroke-linecap:butt;stroke-linejoin:miter;stroke-opacity:1" d="M 109.047,486.621 116.975,479.684 z" id="boundary" inkscape:connector-curvature="0" />
	<path style="fill:none;stroke:red;stroke-width:1px;stroke-linecap:butt;stroke-linejoin:miter;stroke-opacity:1" d="M 116.975,479.684 125.894,474.729 z" id="boundary" inkscape:connector-curvature="0" />
	<path style="fill:none;stroke:red;stroke-width:1px;stroke-linecap:butt;stroke-linejoin:miter;stroke-opacity:1" d="M 116.975,708.607 126.885,708.607 z" id="boundary" inkscape:connector-curvature="0" />
	<path style="fill:none;stroke:red;stroke-width:1px;stroke-linecap:butt;stroke-linejoin:miter;stroke-opacity:1" d="M 125.894,474.729 143.732,464.819 z" id="boundary" inkscape:connector-curvature="0" />
	<path style="fill:none;stroke:red;stroke-width:1px;stroke-linecap:butt;stroke-linejoin:miter;stroke-opacity:1" d="M 126.885,708.607 135.804,713.562 z" id="boundary" inkscape:connector-curvature="0" />
	<path style="fill:none;stroke:red;stroke-width:1px;stroke-linecap:butt;stroke-linejoin:miter;stroke-opacity:1" d="M 135.804,713.562 143.732,720.5 z" id="boundary" inkscape:connector-curvature="0" />
	<path style="fill:none;stroke:red;stroke-width:1px;stroke-linecap:butt;stroke-linejoin:miter;stroke-opacity:1" d="M 143.732,464.819 153.642,461.846 z" id="boundary" inkscape:connector-curvature="0" />
	<path style="fill:none;stroke:red;stroke-width:1px;stroke-linecap:butt;stroke-linejoin:miter;stroke-opacity:1" d="M 143.732,720.5 160.579,732.392 z" id="boundary" inkscape:connector-curvature="0" />
	<path style="fill:none;stroke:red;stroke-width:1px;stroke-linecap:butt;stroke-linejoin:miter;stroke-opacity:1" d="M 153.642,461.846 163.552,459.864 z" id="boundary" inkscape:connector-curvature="0" />
	<path style="fill:none;stroke:red;stroke-width:1px;stroke-linecap:butt;stroke-linejoin:miter;stroke-opacity:1" d="M 160.579,732.392 179.409,738.338 z" id="boundary" inkscape:connector-curvature="0" />
	<path style="fill:none;stroke:red;stroke-width:1px;stroke-linecap:butt;stroke-linejoin:miter;stroke-opacity:1" d="M 163.552,459.864 167.516,447.972 z" id="boundary" inkscape:connector-curvature="0" />
	<path style="fill:none;stroke:red;stroke-width:1px;stroke-linecap:butt;stroke-linejoin:miter;stroke-opacity:1" d="M 167.516,438.062 167.516,447.972 z" id="boundary" inkscape:connector-curvature="0" />
	<path style="fill:none;stroke:red;stroke-width:1px;stroke-linecap:butt;stroke-linejoin:miter;stroke-opacity:1" d="M 167.516,438.062 172.472,428.152 z" id="boundary" inkscape:connector-curvature="0" />
	<path style="fill:none;stroke:red;stroke-width:1px;stroke-linecap:butt;stroke-linejoin:miter;stroke-opacity:1" d="M 172.472,428.152 177.427,418.242 z" id="boundary" inkscape:connector-curvature="0" />
	<path style="fill:none;stroke:red;stroke-width:1px;stroke-linecap:butt;stroke-linejoin:miter;stroke-opacity:1" d="M 177.427,418.242 185.355,410.314 z" id="boundary" inkscape:connector-curvature="0" />
	<path style="fill:none;stroke:red;stroke-width:1px;stroke-linecap:butt;stroke-linejoin:miter;stroke-opacity:1" d="M 179.409,738.338 198.238,745.275 z" id="boundary" inkscape:connector-curvature="0" />
	<path style="fill:none;stroke:red;stroke-width:1px;stroke-linecap:butt;stroke-linejoin:miter;stroke-opacity:1" d="M 185.355,410.314 193.283,402.386 z" id="boundary" inkscape:connector-curvature="0" />
	<path style="fill:none;stroke:red;stroke-width:1px;stroke-linecap:butt;stroke-linejoin:miter;stroke-opacity:1" d="M 198.238,745.275 208.148,748.248 z" id="boundary" inkscape:connector-curvature="0" />
	<path style="fill:none;stroke:red;stroke-width:1px;stroke-linecap:butt;stroke-linejoin:miter;stroke-opacity:1" d="M 208.148,748.248 218.058,750.23 z" id="boundary" inkscape:connector-curvature="0" />
	<path style="fill:none;stroke:red;stroke-width:1px;stroke-linecap:butt;stroke-linejoin:miter;stroke-opacity:1" d="M 210.13,390.494 219.049,385.538 z" id="boundary" inkscape:connector-curvature="0" />
	<path style="fill:none;stroke:red;stroke-width:1px;stroke-linecap:butt;stroke-linejoin:miter;stroke-opacity:1" d="M 218.058,750.23 227.968,753.203 z" id="boundary" inkscape:connector-curvature="0" />
	<path style="fill:none;stroke:red;stroke-width:1px;stroke-linecap:butt;stroke-linejoin:miter;stroke-opacity:1" d="M 219.049,385.538 236.887,373.646 z" id="boundary" inkscape:connector-curvature="0" />
	<path style="fill:none;stroke:red;stroke-width:1px;stroke-linecap:butt;stroke-linejoin:miter;stroke-opacity:1" d="M 227.968,753.203 237.878,753.203 z" id="boundary" inkscape:connector-curvature="0" />
	<path style="fill:none;stroke:red;stroke-width:1px;stroke-linecap:butt;stroke-linejoin:miter;stroke-opacity:1" d="M 236.887,373.646 246.797,370.673 z" id="boundary" inkscape:connector-curvature="0" />
	<path style="fill:none;stroke:red;stroke-width:1px;stroke-linecap:butt;stroke-linejoin:miter;stroke-opacity:1" d="M 237.878,753.203 247.788,753.203 z" id="boundary" inkscape:connector-curvature="0" />
	<path style="fill:none;stroke:red;stroke-width:1px;stroke-linecap:butt;stroke-linejoin:miter;stroke-opacity:1" d="M 246.797,370.673 264.635,360.763 z" id="boundary" inkscape:connector-curvature="0" />
	<path style="fill:none;stroke:red;stroke-width:1px;stroke-linecap:butt;stroke-linejoin:miter;stroke-opacity:1" d="M 247.788,753.203 257.698,755.185 z" id="boundary" inkscape:connector-curvature="0" />
	<path style="fill:none;stroke:red;stroke-width:1px;stroke-linecap:butt;stroke-linejoin:miter;stroke-opacity:1" d="M 257.698,755.185 267.608,758.158 z" id="boundary" inkscape:connector-curvature="0" />
	<path style="fill:none;stroke:red;stroke-width:1px;stroke-linecap:butt;stroke-linejoin:miter;stroke-opacity:1" d="M 267.608,758.158 277.518,758.158 z" id="boundary" inkscape:connector-curvature="0" />
	<path style="fill:none;stroke:red;stroke-width:1px;stroke-linecap:butt;stroke-linejoin:miter;stroke-opacity:1" d="M 277.518,758.158 287.429,760.14 z" id="boundary" inkscape:connector-curvature="0" />
	<path style="fill:none;stroke:red;stroke-width:1px;stroke-linecap:butt;stroke-linejoin:miter;stroke-opacity:1" d="M 287.429,760.14 297.339,763.113 z" id="boundary" inkscape:connector-curvature="0" />
	<path style="fill:none;stroke:red;stroke-width:1px;stroke-linecap:butt;stroke-linejoin:miter;stroke-opacity:1" d="M 297.339,763.113 307.249,765.095 z" id="boundary" inkscape:connector-curvature="0" />
	<path style="fill:none;stroke:red;stroke-width:1px;stroke-linecap:butt;stroke-linejoin:miter;stroke-opacity:1" d="M 307.249,765.095 317.159,768.068 z" id="boundary" inkscape:connector-curvature="0" />
	<path style="fill:none;stroke:red;stroke-width:1px;stroke-linecap:butt;stroke-linejoin:miter;stroke-opacity:1" d="M 312.204,350.853 322.114,350.853 z" id="boundary" inkscape:connector-curvature="0" />
	<path style="fill:none;stroke:red;stroke-width:1px;stroke-linecap:butt;stroke-linejoin:miter;stroke-opacity:1" d="M 317.159,768.068 327.069,768.068 z" id="boundary" inkscape:connector-curvature="0" />
	<path style="fill:none;stroke:red;stroke-width:1px;stroke-linecap:butt;stroke-linejoin:miter;stroke-opacity:1" d="M 322.114,350.853 332.024,350.853 z" id="boundary" inkscape:connector-curvature="0" />
	<path style="fill:none;stroke:red;stroke-width:1px;stroke-linecap:butt;stroke-linejoin:miter;stroke-opacity:1" d="M 327.069,768.068 345.898,773.023 z" id="boundary" inkscape:connector-curvature="0" />
	<path style="fill:none;stroke:red;stroke-width:1px;stroke-linecap:butt;stroke-linejoin:miter;stroke-opacity:1" d="M 332.024,350.853 341.934,350.853 z" id="boundary" inkscape:connector-curvature="0" />
	<path style="fill:none;stroke:red;stroke-width:1px;stroke-linecap:butt;stroke-linejoin:miter;stroke-opacity:1" d="M 340.943,170.49 345.898,160.579 z" id="boundary" inkscape:connector-curvature="0" />
	<path style="fill:none;stroke:red;stroke-width:1px;stroke-linecap:butt;stroke-linejoin:miter;stroke-opacity:1" d="M 340.943,180.4 348.871,187.337 z" id="boundary" inkscape:connector-curvature="0" />
	<path style="fill:none;stroke:red;stroke-width:1px;stroke-linecap:butt;stroke-linejoin:miter;stroke-opacity:1" d="M 341.934,350.853 351.844,350.853 z" id="boundary" inkscape:connector-curvature="0" />
	<path style="fill:none;stroke:red;stroke-width:1px;stroke-linecap:butt;stroke-linejoin:miter;stroke-opacity:1" d="M 345.898,160.579 350.853,150.669 z" id="boundary" inkscape:connector-curvature="0" />
	<path style="fill:none;stroke:red;stroke-width:1px;stroke-linecap:butt;stroke-linejoin:miter;stroke-opacity:1" d="M 345.898,773.023 355.808,773.023 z" id="boundary" inkscape:connector-curvature="0" />
	<path style="fill:none;stroke:red;stroke-width:1px;stroke-linecap:butt;stroke-linejoin:miter;stroke-opacity:1" d="M 348.871,187.337 366.709,193.283 z" id="boundary" inkscape:connector-curvature="0" />
	<path style="fill:none;stroke:red;stroke-width:1px;stroke-linecap:butt;stroke-linejoin:miter;stroke-opacity:1" d="M 350.853,150.669 360.763,145.714 z" id="boundary" inkscape:connector-curvature="0" />
	<path style="fill:none;stroke:red;stroke-width:1px;stroke-linecap:butt;stroke-linejoin:miter;stroke-opacity:1" d="M 351.844,350.853 361.754,350.853 z" id="boundary" inkscape:connector-curvature="0" />
	<path style="fill:none;stroke:red;stroke-width:1px;stroke-linecap:butt;stroke-linejoin:miter;stroke-opacity:1" d="M 355.808,773.023 365.718,773.023 z" id="boundary" inkscape:connector-curvature="0" />
	<path style="fill:none;stroke:red;stroke-width:1px;stroke-linecap:butt;stroke-linejoin:miter;stroke-opacity:1" d="M 360.763,145.714 370.673,140.759 z" id="boundary" inkscape:connector-curvature="0" />
	<path style="fill:none;stroke:red;stroke-width:1px;stroke-linecap:butt;stroke-linejoin:miter;stroke-opacity:1" d="M 361.754,350.853 371.664,350.853 z" id="boundary" inkscape:connector-curvature="0" />
	<path style="fill:none;stroke:red;stroke-width:1px;stroke-linecap:butt;stroke-linejoin:miter;stroke-opacity:1" d="M 365.718,773.023 384.547,777.978 z" id="boundary" inkscape:connector-curvature="0" />
	<path style="fill:none;stroke:red;stroke-width:1px;stroke-linecap:butt;stroke-linejoin:miter;stroke-opacity:1" d="M 366.709,193.283 376.619,193.283 z" id="boundary" inkscape:connector-curvature="0" />
	<path style="fill:none;stroke:red;stroke-width:1px;stroke-linecap:butt;stroke-linejoin:miter;stroke-opacity:1" d="M 370.673,140.759 380.583,135.804 z" id="boundary" inkscape:connector-curvature="0" />
	<path style="fill:none;stroke:red;stroke-width:1px;stroke-linecap:butt;stroke-linejoin:miter;stroke-opacity:1" d="M 371.664,350.853 381.574,350.853 z" id="boundary" inkscape:connector-curvature="0" />
	<path style="fill:none;stroke:red;stroke-width:1px;stroke-linecap:butt;stroke-linejoin:miter;stroke-opacity:1" d="M 376.619,193.283 386.529,193.283 z" id="boundary" inkscape:connector-curvature="0" />
	<path style="fill:none;stroke:red;stroke-width:1px;stroke-linecap:butt;stroke-linejoin:miter;stroke-opacity:1" d="M 380.583,135.804 390.494,132.831 z" id="boundary" inkscape:connector-curvature="0" />
	<path style="fill:none;stroke:red;stroke-width:1px;stroke-linecap:butt;stroke-linejoin:miter;stroke-opacity:1" d="M 381.574,350.853 391.485,350.853 z" id="boundary" inkscape:connector-curvature="0" />
	<path style="fill:none;stroke:red;stroke-width:1px;stroke-linecap:butt;stroke-linejoin:miter;stroke-opacity:1" d="M 384.547,777.978 394.458,777.978 z" id="boundary" inkscape:connector-curvature="0" />
	<path style="fill:none;stroke:red;stroke-width:1px;stroke-linecap:butt;stroke-linejoin:miter;stroke-opacity:1" d="M 386.529,193.283 396.44,193.283 z" id="boundary" inkscape:connector-curvature="0" />
	<path style="fill:none;stroke:red;stroke-width:1px;stroke-linecap:butt;stroke-linejoin:miter;stroke-opacity:1" d="M 390.494,132.831 399.413,127.876 z" id="boundary" inkscape:connector-curvature="0" />
	<path style="fill:none;stroke:red;stroke-width:1px;stroke-linecap:butt;stroke-linejoin:miter;stroke-opacity:1" d="M 391.485,350.853 401.395,350.853 z" id="boundary" inkscape:connector-curvature="0" />
	<path style="fill:none;stroke:red;stroke-width:1px;stroke-linecap:butt;stroke-linejoin:miter;stroke-opacity:1" d="M 394.458,777.978 404.368,777.978 z" id="boundary" inkscape:connector-curvature="0" />
	<path style="fill:none;stroke:red;stroke-width:1px;stroke-linecap:butt;stroke-linejoin:miter;stroke-opacity:1" d="M 396.44,193.283 406.35,193.283 z" id="boundary" inkscape:connector-curvature="0" />
	<path style="fill:none;stroke:red;stroke-width:1px;stroke-linecap:butt;stroke-linejoin:miter;stroke-opacity:1" d="M 399.413,127.876 409.323,127.876 z" id="boundary" inkscape:connector-curvature="0" />
	<path style="fill:none;stroke:red;stroke-width:1px;stroke-linecap:butt;stroke-linejoin:miter;stroke-opacity:1" d="M 401.395,350.853 411.305,350.853 z" id="boundary" inkscape:connector-curvature="0" />
	<path style="fill:none;stroke:red;stroke-width:1px;stroke-linecap:butt;stroke-linejoin:miter;stroke-opacity:1" d="M 404.368,777.978 414.278,777.978 z" id="boundary" inkscape:connector-curvature="0" />
	<path style="fill:none;stroke:red;stroke-width:1px;stroke-linecap:butt;stroke-linejoin:miter;stroke-opacity:1" d="M 406.35,193.283 416.26,193.283 z" id="boundary" inkscape:connector-curvature="0" />
	<path style="fill:none;stroke:red;stroke-width:1px;stroke-linecap:butt;stroke-linejoin:miter;stroke-opacity:1" d="M 409.323,127.876 419.233,127.876 z" id="boundary" inkscape:connector-curvature="0" />
	<path style="fill:none;stroke:red;stroke-width:1px;stroke-linecap:butt;stroke-linejoin:miter;stroke-opacity:1" d="M 411.305,350.853 421.215,350.853 z" id="boundary" inkscape:connector-curvature="0" />
	<path style="fill:none;stroke:red;stroke-width:1px;stroke-linecap:butt;stroke-linejoin:miter;stroke-opacity:1" d="M 414.278,777.978 424.188,777.978 z" id="boundary" inkscape:connector-curvature="0" />
	<path style="fill:none;stroke:red;stroke-width:1px;stroke-linecap:butt;stroke-linejoin:miter;stroke-opacity:1" d="M 416.26,193.283 426.17,193.283 z" id="boundary" inkscape:connector-curvature="0" />
	<path style="fill:none;stroke:red;stroke-width:1px;stroke-linecap:butt;stroke-linejoin:miter;stroke-opacity:1" d="M 419.233,127.876 429.143,127.876 z" id="boundary" inkscape:connector-curvature="0" />
	<path style="fill:none;stroke:red;stroke-width:1px;stroke-linecap:butt;stroke-linejoin:miter;stroke-opacity:1" d="M 421.215,350.853 430.134,334.006 z" id="boundary" inkscape:connector-curvature="0" />
	<path style="fill:none;stroke:red;stroke-width:1px;stroke-linecap:butt;stroke-linejoin:miter;stroke-opacity:1" d="M 424.188,777.978 434.098,777.978 z" id="boundary" inkscape:connector-curvature="0" />
	<path style="fill:none;stroke:red;stroke-width:1px;stroke-linecap:butt;stroke-linejoin:miter;stroke-opacity:1" d="M 426.17,193.283 436.08,193.283 z" id="boundary" inkscape:connector-curvature="0" />
	<path style="fill:none;stroke:red;stroke-width:1px;stroke-linecap:butt;stroke-linejoin:miter;stroke-opacity:1" d="M 429.143,127.876 439.053,127.876 z" id="boundary" inkscape:connector-curvature="0" />
	<path style="fill:none;stroke:red;stroke-width:1px;stroke-linecap:butt;stroke-linejoin:miter;stroke-opacity:1" d="M 430.134,334.006 435.089,324.096 z" id="boundary" inkscape:connector-curvature="0" />
	<path style="fill:none;stroke:red;stroke-width:1px;stroke-linecap:butt;stroke-linejoin:miter;stroke-opacity:1" d="M 434.098,777.978 452.927,782.933 z" id="boundary" inkscape:connector-curvature="0" />
	<path style="fill:none;stroke:red;stroke-width:1px;stroke-linecap:butt;stroke-linejoin:miter;stroke-opacity:1" d="M 435.089,61.4785 435.089,71.3886 z" id="boundary" inkscape:connector-curvature="0" />
	<path style="fill:none;stroke:red;stroke-width:1px;stroke-linecap:butt;stroke-linejoin:miter;stroke-opacity:1" d="M 435.089,61.4785 440.044,51.5684 z" id="boundary" inkscape:connector-curvature="0" />
	<path style="fill:none;stroke:red;stroke-width:1px;stroke-linecap:butt;stroke-linejoin:miter;stroke-opacity:1" d="M 435.089,71.3886 440.044,80.3077 z" id="boundary" inkscape:connector-curvature="0" />
	<path style="fill:none;stroke:red;stroke-width:1px;stroke-linecap:butt;stroke-linejoin:miter;stroke-opacity:1" d="M 435.089,324.096 440.044,314.186 z" id="boundary" inkscape:connector-curvature="0" />
	<path style="fill:none;stroke:red;stroke-width:1px;stroke-linecap:butt;stroke-linejoin:miter;stroke-opacity:1" d="M 436.08,193.283 444.999,211.121 z" id="boundary" inkscape:connector-curvature="0" />
	<path style="fill:none;stroke:red;stroke-width:1px;stroke-linecap:butt;stroke-linejoin:miter;stroke-opacity:1" d="M 439.053,127.876 444.999,118.957 z" id="boundary" inkscape:connector-curvature="0" />
	<path style="fill:none;stroke:red;stroke-width:1px;stroke-linecap:butt;stroke-linejoin:miter;stroke-opacity:1" d="M 440.044,41.6583 440.044,51.5684 z" id="boundary" inkscape:connector-curvature="0" />
	<path style="fill:none;stroke:red;stroke-width:1px;stroke-linecap:butt;stroke-linejoin:miter;stroke-opacity:1" d="M 440.044,41.6583 444.999,31.7483 z" id="boundary" inkscape:connector-curvature="0" />
	<path style="fill:none;stroke:red;stroke-width:1px;stroke-linecap:butt;stroke-linejoin:miter;stroke-opacity:1" d="M 440.044,80.3077 444.999,99.1369 z" id="boundary" inkscape:connector-curvature="0" />
	<path style="fill:none;stroke:red;stroke-width:1px;stroke-linecap:butt;stroke-linejoin:miter;stroke-opacity:1" d="M 440.044,314.186 444.999,304.276 z" id="boundary" inkscape:connector-curvature="0" />
	<path style="fill:none;stroke:red;stroke-width:1px;stroke-linecap:butt;stroke-linejoin:miter;stroke-opacity:1" d="M 444.999,31.7483 449.954,21.8382 z" id="boundary" inkscape:connector-curvature="0" />
	<path style="fill:none;stroke:red;stroke-width:1px;stroke-linecap:butt;stroke-linejoin:miter;stroke-opacity:1" d="M 444.999,99.1369 444.999,109.047 z" id="boundary" inkscape:connector-curvature="0" />
	<path style="fill:none;stroke:red;stroke-width:1px;stroke-linecap:butt;stroke-linejoin:miter;stroke-opacity:1" d="M 444.999,109.047 444.999,118.957 z" id="boundary" inkscape:connector-curvature="0" />
	<path style="fill:none;stroke:red;stroke-width:1px;stroke-linecap:butt;stroke-linejoin:miter;stroke-opacity:1" d="M 444.999,211.121 449.954,229.95 z" id="boundary" inkscape:connector-curvature="0" />
	<path style="fill:none;stroke:red;stroke-width:1px;stroke-linecap:butt;stroke-linejoin:miter;stroke-opacity:1" d="M 444.999,294.366 444.999,304.276 z" id="boundary" inkscape:connector-curvature="0" />
	<path style="fill:none;stroke:red;stroke-width:1px;stroke-linecap:butt;stroke-linejoin:miter;stroke-opacity:1" d="M 444.999,294.366 449.954,279.5 z" id="boundary" inkscape:connector-curvature="0" />
	<path style="fill:none;stroke:red;stroke-width:1px;stroke-linecap:butt;stroke-linejoin:miter;stroke-opacity:1" d="M 449.954,21.8382 459.864,16.8831 z" id="boundary" inkscape:connector-curvature="0" />
	<path style="fill:none;stroke:red;stroke-width:1px;stroke-linecap:butt;stroke-linejoin:miter;stroke-opacity:1" d="M 449.954,229.95 449.954,239.86 z" id="boundary" inkscape:connector-curvature="0" />
	<path style="fill:none;stroke:red;stroke-width:1px;stroke-linecap:butt;stroke-linejoin:miter;stroke-opacity:1" d="M 449.954,239.86 449.954,249.77 z" id="boundary" inkscape:connector-curvature="0" />
	<path style="fill:none;stroke:red;stroke-width:1px;stroke-linecap:butt;stroke-linejoin:miter;stroke-opacity:1" d="M 449.954,249.77 449.954,259.68 z" id="boundary" inkscape:connector-curvature="0" />
	<path style="fill:none;stroke:red;stroke-width:1px;stroke-linecap:butt;stroke-linejoin:miter;stroke-opacity:1" d="M 449.954,259.68 449.954,269.59 z" id="boundary" inkscape:connector-curvature="0" />
	<path style="fill:none;stroke:red;stroke-width:1px;stroke-linecap:butt;stroke-linejoin:miter;stroke-opacity:1" d="M 449.954,269.59 449.954,279.5 z" id="boundary" inkscape:connector-curvature="0" />
	<path style="fill:none;stroke:red;stroke-width:1px;stroke-linecap:butt;stroke-linejoin:miter;stroke-opacity:1" d="M 452.927,782.933 462.837,782.933 z" id="boundary" inkscape:connector-curvature="0" />
	<path style="fill:none;stroke:red;stroke-width:1px;stroke-linecap:butt;stroke-linejoin:miter;stroke-opacity:1" d="M 462.837,782.933 472.747,782.933 z" id="boundary" inkscape:connector-curvature="0" />
	<path style="fill:none;stroke:red;stroke-width:1px;stroke-linecap:butt;stroke-linejoin:miter;stroke-opacity:1" d="M 472.747,782.933 482.657,782.933 z" id="boundary" inkscape:connector-curvature="0" />
	<path style="fill:none;stroke:red;stroke-width:1px;stroke-linecap:butt;stroke-linejoin:miter;stroke-opacity:1" d="M 477.702,4 487.612,4 z" id="boundary" inkscape:connector-curvature="0" />
	<path style="fill:none;stroke:red;stroke-width:1px;stroke-linecap:butt;stroke-linejoin:miter;stroke-opacity:1" d="M 482.657,782.933 492.567,782.933 z" id="boundary" inkscape:connector-curvature="0" />
	<path style="fill:none;stroke:red;stroke-width:1px;stroke-linecap:butt;stroke-linejoin:miter;stroke-opacity:1" d="M 487.612,4 497.522,4 z" id="boundary" inkscape:connector-curvature="0" />
	<path style="fill:none;stroke:red;stroke-width:1px;stroke-linecap:butt;stroke-linejoin:miter;stroke-opacity:1" d="M 492.567,782.933 502.478,782.933 z" id="boundary" inkscape:connector-curvature="0" />
	<path style="fill:none;stroke:red;stroke-width:1px;stroke-linecap:butt;stroke-linejoin:miter;stroke-opacity:1" d="M 497.522,4 505.451,21.8382 z" id="boundary" inkscape:connector-curvature="0" />
	<path style="fill:none;stroke:red;stroke-width:1px;stroke-linecap:butt;stroke-linejoin:miter;stroke-opacity:1" d="M 502.478,782.933 512.388,782.933 z" id="boundary" inkscape:connector-curvature="0" />
	<path style="fill:none;stroke:red;stroke-width:1px;stroke-linecap:butt;stroke-linejoin:miter;stroke-opacity:1" d="M 505.451,21.8382 510.406,30.7572 z" id="boundary" inkscape:connector-curvature="0" />
	<path style="fill:none;stroke:red;stroke-width:1px;stroke-linecap:butt;stroke-linejoin:miter;stroke-opacity:1" d="M 510.406,30.7572 513.379,40.6673 z" id="boundary" inkscape:connector-curvature="0" />
	<path style="fill:none;stroke:red;stroke-width:1px;stroke-linecap:butt;stroke-linejoin:miter;stroke-opacity:1" d="M 512.388,782.933 522.298,782.933 z" id="boundary" inkscape:connector-curvature="0" />
	<path style="fill:none;stroke:red;stroke-width:1px;stroke-linecap:butt;stroke-linejoin:miter;stroke-opacity:1" d="M 513.379,40.6673 515.361,50.5774 z" id="boundary" inkscape:connector-curvature="0" />
	<path style="fill:none;stroke:red;stroke-width:1px;stroke-linecap:butt;stroke-linejoin:miter;stroke-opacity:1" d="M 515.361,50.5774 520.316,59.4965 z" id="boundary" inkscape:connector-curvature="0" />
	<path style="fill:none;stroke:red;stroke-width:1px;stroke-linecap:butt;stroke-linejoin:miter;stroke-opacity:1" d="M 520.316,59.4965 520.316,69.4066 z" id="boundary" inkscape:connector-curvature="0" />
	<path style="fill:none;stroke:red;stroke-width:1px;stroke-linecap:butt;stroke-linejoin:miter;stroke-opacity:1" d="M 520.316,69.4066 525.271,88.2358 z" id="boundary" inkscape:connector-curvature="0" />
	<path style="fill:none;stroke:red;stroke-width:1px;stroke-linecap:butt;stroke-linejoin:miter;stroke-opacity:1" d="M 520.316,213.103 520.316,223.013 z" id="boundary" inkscape:connector-curvature="0" />
	<path style="fill:none;stroke:red;stroke-width:1px;stroke-linecap:butt;stroke-linejoin:miter;stroke-opacity:1" d="M 520.316,213.103 538.154,203.193 z" id="boundary" inkscape:connector-curvature="0" />
	<path style="fill:none;stroke:red;stroke-width:1px;stroke-linecap:butt;stroke-linejoin:miter;stroke-opacity:1" d="M 520.316,223.013 520.316,232.923 z" id="boundary" inkscape:connector-curvature="0" />
	<path style="fill:none;stroke:red;stroke-width:1px;stroke-linecap:butt;stroke-linejoin:miter;stroke-opacity:1" d="M 520.316,232.923 520.316,242.833 z" id="boundary" inkscape:connector-curvature="0" />
	<path style="fill:none;stroke:red;stroke-width:1px;stroke-linecap:butt;stroke-linejoin:miter;stroke-opacity:1" d="M 520.316,242.833 520.316,252.743 z" id="boundary" inkscape:connector-curvature="0" />
	<path style="fill:none;stroke:red;stroke-width:1px;stroke-linecap:butt;stroke-linejoin:miter;stroke-opacity:1" d="M 520.316,252.743 520.316,262.653 z" id="boundary" inkscape:connector-curvature="0" />
	<path style="fill:none;stroke:red;stroke-width:1px;stroke-linecap:butt;stroke-linejoin:miter;stroke-opacity:1" d="M 520.316,262.653 520.316,272.563 z" id="boundary" inkscape:connector-curvature="0" />
	<path style="fill:none;stroke:red;stroke-width:1px;stroke-linecap:butt;stroke-linejoin:miter;stroke-opacity:1" d="M 520.316,272.563 520.316,282.474 z" id="boundary" inkscape:connector-curvature="0" />
	<path style="fill:none;stroke:red;stroke-width:1px;stroke-linecap:butt;stroke-linejoin:miter;stroke-opacity:1" d="M 520.316,282.474 520.316,292.384 z" id="boundary" inkscape:connector-curvature="0" />
	<path style="fill:none;stroke:red;stroke-width:1px;stroke-linecap:butt;stroke-linejoin:miter;stroke-opacity:1" d="M 520.316,292.384 522.298,302.294 z" id="boundary" inkscape:connector-curvature="0" />
	<path style="fill:none;stroke:red;stroke-width:1px;stroke-linecap:butt;stroke-linejoin:miter;stroke-opacity:1" d="M 522.298,302.294 525.271,312.204 z" id="boundary" inkscape:connector-curvature="0" />
	<path style="fill:none;stroke:red;stroke-width:1px;stroke-linecap:butt;stroke-linejoin:miter;stroke-opacity:1" d="M 522.298,782.933 532.208,782.933 z" id="boundary" inkscape:connector-curvature="0" />
	<path style="fill:none;stroke:red;stroke-width:1px;stroke-linecap:butt;stroke-linejoin:miter;stroke-opacity:1" d="M 525.271,88.2358 525.271,98.1459 z" id="boundary" inkscape:connector-curvature="0" />
	<path style="fill:none;stroke:red;stroke-width:1px;stroke-linecap:butt;stroke-linejoin:miter;stroke-opacity:1" d="M 525.271,98.1459 525.271,108.056 z" id="boundary" inkscape:connector-curvature="0" />
	<path style="fill:none;stroke:red;stroke-width:1px;stroke-linecap:butt;stroke-linejoin:miter;stroke-opacity:1" d="M 525.271,108.056 525.271,117.966 z" id="boundary" inkscape:connector-curvature="0" />
	<path style="fill:none;stroke:red;stroke-width:1px;stroke-linecap:butt;stroke-linejoin:miter;stroke-opacity:1" d="M 525.271,117.966 525.271,127.876 z" id="boundary" inkscape:connector-curvature="0" />
	<path style="fill:none;stroke:red;stroke-width:1px;stroke-linecap:butt;stroke-linejoin:miter;stroke-opacity:1" d="M 525.271,127.876 525.271,137.786 z" id="boundary" inkscape:connector-curvature="0" />
	<path style="fill:none;stroke:red;stroke-width:1px;stroke-linecap:butt;stroke-linejoin:miter;stroke-opacity:1" d="M 525.271,137.786 535.181,137.786 z" id="boundary" inkscape:connector-curvature="0" />
	<path style="fill:none;stroke:red;stroke-width:1px;stroke-linecap:butt;stroke-linejoin:miter;stroke-opacity:1" d="M 525.271,312.204 525.271,322.114 z" id="boundary" inkscape:connector-curvature="0" />
	<path style="fill:none;stroke:red;stroke-width:1px;stroke-linecap:butt;stroke-linejoin:miter;stroke-opacity:1" d="M 525.271,322.114 527.253,332.024 z" id="boundary" inkscape:connector-curvature="0" />
	<path style="fill:none;stroke:red;stroke-width:1px;stroke-linecap:butt;stroke-linejoin:miter;stroke-opacity:1" d="M 532.208,782.933 542.118,782.933 z" id="boundary" inkscape:connector-curvature="0" />
	<path style="fill:none;stroke:red;stroke-width:1px;stroke-linecap:butt;stroke-linejoin:miter;stroke-opacity:1" d="M 535.181,137.786 545.091,137.786 z" id="boundary" inkscape:connector-curvature="0" />
	<path style="fill:none;stroke:red;stroke-width:1px;stroke-linecap:butt;stroke-linejoin:miter;stroke-opacity:1" d="M 538.154,203.193 548.064,203.193 z" id="boundary" inkscape:connector-curvature="0" />
	<path style="fill:none;stroke:red;stroke-width:1px;stroke-linecap:butt;stroke-linejoin:miter;stroke-opacity:1" d="M 542.118,782.933 552.028,782.933 z" id="boundary" inkscape:connector-curvature="0" />
	<path style="fill:none;stroke:red;stroke-width:1px;stroke-linecap:butt;stroke-linejoin:miter;stroke-opacity:1" d="M 545.091,137.786 555.001,137.786 z" id="boundary" inkscape:connector-curvature="0" />
	<path style="fill:none;stroke:red;stroke-width:1px;stroke-linecap:butt;stroke-linejoin:miter;stroke-opacity:1" d="M 548.064,203.193 566.893,197.247 z" id="boundary" inkscape:connector-curvature="0" />
	<path style="fill:none;stroke:red;stroke-width:1px;stroke-linecap:butt;stroke-linejoin:miter;stroke-opacity:1" d="M 552.028,782.933 561.938,782.933 z" id="boundary" inkscape:connector-curvature="0" />
	<path style="fill:none;stroke:red;stroke-width:1px;stroke-linecap:butt;stroke-linejoin:miter;stroke-opacity:1" d="M 554.01,355.808 562.929,360.763 z" id="boundary" inkscape:connector-curvature="0" />
	<path style="fill:none;stroke:red;stroke-width:1px;stroke-linecap:butt;stroke-linejoin:miter;stroke-opacity:1" d="M 555.001,137.786 564.911,137.786 z" id="boundary" inkscape:connector-curvature="0" />
	<path style="fill:none;stroke:red;stroke-width:1px;stroke-linecap:butt;stroke-linejoin:miter;stroke-opacity:1" d="M 561.938,782.933 571.848,782.933 z" id="boundary" inkscape:connector-curvature="0" />
	<path style="fill:none;stroke:red;stroke-width:1px;stroke-linecap:butt;stroke-linejoin:miter;stroke-opacity:1" d="M 562.929,360.763 572.839,360.763 z" id="boundary" inkscape:connector-curvature="0" />
	<path style="fill:none;stroke:red;stroke-width:1px;stroke-linecap:butt;stroke-linejoin:miter;stroke-opacity:1" d="M 564.911,137.786 574.821,137.786 z" id="boundary" inkscape:connector-curvature="0" />
	<path style="fill:none;stroke:red;stroke-width:1px;stroke-linecap:butt;stroke-linejoin:miter;stroke-opacity:1" d="M 566.893,197.247 576.803,193.283 z" id="boundary" inkscape:connector-curvature="0" />
	<path style="fill:none;stroke:red;stroke-width:1px;stroke-linecap:butt;stroke-linejoin:miter;stroke-opacity:1" d="M 571.848,782.933 581.758,782.933 z" id="boundary" inkscape:connector-curvature="0" />
	<path style="fill:none;stroke:red;stroke-width:1px;stroke-linecap:butt;stroke-linejoin:miter;stroke-opacity:1" d="M 572.839,360.763 582.749,360.763 z" id="boundary" inkscape:connector-curvature="0" />
	<path style="fill:none;stroke:red;stroke-width:1px;stroke-linecap:butt;stroke-linejoin:miter;stroke-opacity:1" d="M 574.821,137.786 584.731,137.786 z" id="boundary" inkscape:connector-curvature="0" />
	<path style="fill:none;stroke:red;stroke-width:1px;stroke-linecap:butt;stroke-linejoin:miter;stroke-opacity:1" d="M 576.803,193.283 595.632,188.328 z" id="boundary" inkscape:connector-curvature="0" />
	<path style="fill:none;stroke:red;stroke-width:1px;stroke-linecap:butt;stroke-linejoin:miter;stroke-opacity:1" d="M 581.758,782.933 591.668,782.933 z" id="boundary" inkscape:connector-curvature="0" />
	<path style="fill:none;stroke:red;stroke-width:1px;stroke-linecap:butt;stroke-linejoin:miter;stroke-opacity:1" d="M 582.749,360.763 592.659,360.763 z" id="boundary" inkscape:connector-curvature="0" />
	<path style="fill:none;stroke:red;stroke-width:1px;stroke-linecap:butt;stroke-linejoin:miter;stroke-opacity:1" d="M 584.731,137.786 594.641,137.786 z" id="boundary" inkscape:connector-curvature="0" />
	<path style="fill:none;stroke:red;stroke-width:1px;stroke-linecap:butt;stroke-linejoin:miter;stroke-opacity:1" d="M 591.668,782.933 601.578,782.933 z" id="boundary" inkscape:connector-curvature="0" />
	<path style="fill:none;stroke:red;stroke-width:1px;stroke-linecap:butt;stroke-linejoin:miter;stroke-opacity:1" d="M 592.659,360.763 602.569,360.763 z" id="boundary" inkscape:connector-curvature="0" />
	<path style="fill:none;stroke:red;stroke-width:1px;stroke-linecap:butt;stroke-linejoin:miter;stroke-opacity:1" d="M 594.641,137.786 604.551,137.786 z" id="boundary" inkscape:connector-curvature="0" />
	<path style="fill:none;stroke:red;stroke-width:1px;stroke-linecap:butt;stroke-linejoin:miter;stroke-opacity:1" d="M 595.632,188.328 604.551,183.373 z" id="boundary" inkscape:connector-curvature="0" />
	<path style="fill:none;stroke:red;stroke-width:1px;stroke-linecap:butt;stroke-linejoin:miter;stroke-opacity:1" d="M 601.578,782.933 611.489,782.933 z" id="boundary" inkscape:connector-curvature="0" />
	<path style="fill:none;stroke:red;stroke-width:1px;stroke-linecap:butt;stroke-linejoin:miter;stroke-opacity:1" d="M 602.569,360.763 612.48,360.763 z" id="boundary" inkscape:connector-curvature="0" />
	<path style="fill:none;stroke:red;stroke-width:1px;stroke-linecap:butt;stroke-linejoin:miter;stroke-opacity:1" d="M 604.551,137.786 614.462,137.786 z" id="boundary" inkscape:connector-curvature="0" />
	<path style="fill:none;stroke:red;stroke-width:1px;stroke-linecap:butt;stroke-linejoin:miter;stroke-opacity:1" d="M 604.551,183.373 614.462,183.373 z" id="boundary" inkscape:connector-curvature="0" />
	<path style="fill:none;stroke:red;stroke-width:1px;stroke-linecap:butt;stroke-linejoin:miter;stroke-opacity:1" d="M 611.489,782.933 621.399,782.933 z" id="boundary" inkscape:connector-curvature="0" />
	<path style="fill:none;stroke:red;stroke-width:1px;stroke-linecap:butt;stroke-linejoin:miter;stroke-opacity:1" d="M 612.48,360.763 622.39,360.763 z" id="boundary" inkscape:connector-curvature="0" />
	<path style="fill:none;stroke:red;stroke-width:1px;stroke-linecap:butt;stroke-linejoin:miter;stroke-opacity:1" d="M 614.462,137.786 624.372,137.786 z" id="boundary" inkscape:connector-curvature="0" />
	<path style="fill:none;stroke:red;stroke-width:1px;stroke-linecap:butt;stroke-linejoin:miter;stroke-opacity:1" d="M 614.462,183.373 632.3,173.463 z" id="boundary" inkscape:connector-curvature="0" />
	<path style="fill:none;stroke:red;stroke-width:1px;stroke-linecap:butt;stroke-linejoin:miter;stroke-opacity:1" d="M 621.399,782.933 631.309,782.933 z" id="boundary" inkscape:connector-curvature="0" />
	<path style="fill:none;stroke:red;stroke-width:1px;stroke-linecap:butt;stroke-linejoin:miter;stroke-opacity:1" d="M 622.39,360.763 632.3,361.754 z" id="boundary" inkscape:connector-curvature="0" />
	<path style="fill:none;stroke:red;stroke-width:1px;stroke-linecap:butt;stroke-linejoin:miter;stroke-opacity:1" d="M 624.372,137.786 634.282,140.759 z" id="boundary" inkscape:connector-curvature="0" />
	<path style="fill:none;stroke:red;stroke-width:1px;stroke-linecap:butt;stroke-linejoin:miter;stroke-opacity:1" d="M 631.309,782.933 641.219,782.933 z" id="boundary" inkscape:connector-curvature="0" />
	<path style="fill:none;stroke:red;stroke-width:1px;stroke-linecap:butt;stroke-linejoin:miter;stroke-opacity:1" d="M 632.3,173.463 639.237,163.552 z" id="boundary" inkscape:connector-curvature="0" />
	<path style="fill:none;stroke:red;stroke-width:1px;stroke-linecap:butt;stroke-linejoin:miter;stroke-opacity:1" d="M 632.3,361.754 642.21,365.718 z" id="boundary" inkscape:connector-curvature="0" />
	<path style="fill:none;stroke:red;stroke-width:1px;stroke-linecap:butt;stroke-linejoin:miter;stroke-opacity:1" d="M 634.282,140.759 639.237,163.552 z" id="boundary" inkscape:connector-curvature="0" />
	<path style="fill:none;stroke:red;stroke-width:1px;stroke-linecap:butt;stroke-linejoin:miter;stroke-opacity:1" d="M 641.219,782.933 651.129,782.933 z" id="boundary" inkscape:connector-curvature="0" />
	<path style="fill:none;stroke:red;stroke-width:1px;stroke-linecap:butt;stroke-linejoin:miter;stroke-opacity:1" d="M 642.21,365.718 652.12,365.718 z" id="boundary" inkscape:connector-curvature="0" />
	<path style="fill:none;stroke:red;stroke-width:1px;stroke-linecap:butt;stroke-linejoin:miter;stroke-opacity:1" d="M 651.129,782.933 661.039,782.933 z" id="boundary" inkscape:connector-curvature="0" />
	<path style="fill:none;stroke:red;stroke-width:1px;stroke-linecap:butt;stroke-linejoin:miter;stroke-opacity:1" d="M 652.12,365.718 662.03,366.709 z" id="boundary" inkscape:connector-curvature="0" />
	<path style="fill:none;stroke:red;stroke-width:1px;stroke-linecap:butt;stroke-linejoin:miter;stroke-opacity:1" d="M 661.039,782.933 670.949,782.933 z" id="boundary" inkscape:connector-curvature="0" />
	<path style="fill:none;stroke:red;stroke-width:1px;stroke-linecap:butt;stroke-linejoin:miter;stroke-opacity:1" d="M 662.03,366.709 671.94,370.673 z" id="boundary" inkscape:connector-curvature="0" />
	<path style="fill:none;stroke:red;stroke-width:1px;stroke-linecap:butt;stroke-linejoin:miter;stroke-opacity:1" d="M 670.949,782.933 680.859,782.933 z" id="boundary" inkscape:connector-curvature="0" />
	<path style="fill:none;stroke:red;stroke-width:1px;stroke-linecap:butt;stroke-linejoin:miter;stroke-opacity:1" d="M 671.94,370.673 680.859,375.628 z" id="boundary" inkscape:connector-curvature="0" />
	<path style="fill:none;stroke:red;stroke-width:1px;stroke-linecap:butt;stroke-linejoin:miter;stroke-opacity:1" d="M 680.859,375.628 690.769,375.628 z" id="boundary" inkscape:connector-curvature="0" />
	<path style="fill:none;stroke:red;stroke-width:1px;stroke-linecap:butt;stroke-linejoin:miter;stroke-opacity:1" d="M 680.859,782.933 690.769,782.933 z" id="boundary" inkscape:connector-curvature="0" />
	<path style="fill:none;stroke:red;stroke-width:1px;stroke-linecap:butt;stroke-linejoin:miter;stroke-opacity:1" d="M 690.769,375.628 700.679,375.628 z" id="boundary" inkscape:connector-curvature="0" />
	<path style="fill:none;stroke:red;stroke-width:1px;stroke-linecap:butt;stroke-linejoin:miter;stroke-opacity:1" d="M 690.769,782.933 709.598,777.978 z" id="boundary" inkscape:connector-curvature="0" />
	<path style="fill:none;stroke:red;stroke-width:1px;stroke-linecap:butt;stroke-linejoin:miter;stroke-opacity:1" d="M 709.598,777.978 718.517,773.023 z" id="boundary" inkscape:connector-curvature="0" />
	<path style="fill:none;stroke:red;stroke-width:1px;stroke-linecap:butt;stroke-linejoin:miter;stroke-opacity:1" d="M 718.517,773.023 728.428,768.068 z" id="boundary" inkscape:connector-curvature="0" />
	<path style="fill:none;stroke:red;stroke-width:1px;stroke-linecap:butt;stroke-linejoin:miter;stroke-opacity:1" d="M 728.428,768.068 738.338,763.113 z" id="boundary" inkscape:connector-curvature="0" />
	<path style="fill:none;stroke:red;stroke-width:1px;stroke-linecap:butt;stroke-linejoin:miter;stroke-opacity:1" d="M 729.419,380.583 748.248,385.538 z" id="boundary" inkscape:connector-curvature="0" />
	<path style="fill:none;stroke:red;stroke-width:1px;stroke-linecap:butt;stroke-linejoin:miter;stroke-opacity:1" d="M 738.338,763.113 748.248,763.113 z" id="boundary" inkscape:connector-curvature="0" />
	<path style="fill:none;stroke:red;stroke-width:1px;stroke-linecap:butt;stroke-linejoin:miter;stroke-opacity:1" d="M 748.248,385.538 757.167,390.494 z" id="boundary" inkscape:connector-curvature="0" />
	<path style="fill:none;stroke:red;stroke-width:1px;stroke-linecap:butt;stroke-linejoin:miter;stroke-opacity:1" d="M 748.248,763.113 757.167,758.158 z" id="boundary" inkscape:connector-curvature="0" />
	<path style="fill:none;stroke:red;stroke-width:1px;stroke-linecap:butt;stroke-linejoin:miter;stroke-opacity:1" d="M 757.167,390.494 767.077,390.494 z" id="boundary" inkscape:connector-curvature="0" />
	<path style="fill:none;stroke:red;stroke-width:1px;stroke-linecap:butt;stroke-linejoin:miter;stroke-opacity:1" d="M 757.167,758.158 775.996,751.221 z" id="boundary" inkscape:connector-curvature="0" />
	<path style="fill:none;stroke:red;stroke-width:1px;stroke-linecap:butt;stroke-linejoin:miter;stroke-opacity:1" d="M 767.077,390.494 776.987,392.476 z" id="boundary" inkscape:connector-curvature="0" />
	<path style="fill:none;stroke:red;stroke-width:1px;stroke-linecap:butt;stroke-linejoin:miter;stroke-opacity:1" d="M 775.996,751.221 785.906,746.266 z" id="boundary" inkscape:connector-curvature="0" />
	<path style="fill:none;stroke:red;stroke-width:1px;stroke-linecap:butt;stroke-linejoin:miter;stroke-opacity:1" d="M 776.987,392.476 785.906,397.431 z" id="boundary" inkscape:connector-curvature="0" />
	<path style="fill:none;stroke:red;stroke-width:1px;stroke-linecap:butt;stroke-linejoin:miter;stroke-opacity:1" d="M 785.906,397.431 792.843,405.359 z" id="boundary" inkscape:connector-curvature="0" />
	<path style="fill:none;stroke:red;stroke-width:1px;stroke-linecap:butt;stroke-linejoin:miter;stroke-opacity:1" d="M 785.906,746.266 795.816,741.311 z" id="boundary" inkscape:connector-curvature="0" />
	<path style="fill:none;stroke:red;stroke-width:1px;stroke-linecap:butt;stroke-linejoin:miter;stroke-opacity:1" d="M 792.843,405.359 804.735,421.215 z" id="boundary" inkscape:connector-curvature="0" />
	<path style="fill:none;stroke:red;stroke-width:1px;stroke-linecap:butt;stroke-linejoin:miter;stroke-opacity:1" d="M 795.816,741.311 805.726,736.356 z" id="boundary" inkscape:connector-curvature="0" />
	<path style="fill:none;stroke:red;stroke-width:1px;stroke-linecap:butt;stroke-linejoin:miter;stroke-opacity:1" d="M 804.735,421.215 807.708,431.125 z" id="boundary" inkscape:connector-curvature="0" />
	<path style="fill:none;stroke:red;stroke-width:1px;stroke-linecap:butt;stroke-linejoin:miter;stroke-opacity:1" d="M 805.726,736.356 815.636,731.401 z" id="boundary" inkscape:connector-curvature="0" />
	<path style="fill:none;stroke:red;stroke-width:1px;stroke-linecap:butt;stroke-linejoin:miter;stroke-opacity:1" d="M 807.708,431.125 807.708,441.035 z" id="boundary" inkscape:connector-curvature="0" />
	<path style="fill:none;stroke:red;stroke-width:1px;stroke-linecap:butt;stroke-linejoin:miter;stroke-opacity:1" d="M 807.708,441.035 809.69,450.945 z" id="boundary" inkscape:connector-curvature="0" />
	<path style="fill:none;stroke:red;stroke-width:1px;stroke-linecap:butt;stroke-linejoin:miter;stroke-opacity:1" d="M 809.69,450.945 812.663,460.855 z" id="boundary" inkscape:connector-curvature="0" />
	<path style="fill:none;stroke:red;stroke-width:1px;stroke-linecap:butt;stroke-linejoin:miter;stroke-opacity:1" d="M 812.663,460.855 830.501,469.774 z" id="boundary" inkscape:connector-curvature="0" />
	<path style="fill:none;stroke:red;stroke-width:1px;stroke-linecap:butt;stroke-linejoin:miter;stroke-opacity:1" d="M 815.636,731.401 825.546,726.446 z" id="boundary" inkscape:connector-curvature="0" />
	<path style="fill:none;stroke:red;stroke-width:1px;stroke-linecap:butt;stroke-linejoin:miter;stroke-opacity:1" d="M 825.546,726.446 835.457,721.491 z" id="boundary" inkscape:connector-curvature="0" />
	<path style="fill:none;stroke:red;stroke-width:1px;stroke-linecap:butt;stroke-linejoin:miter;stroke-opacity:1" d="M 830.501,469.774 840.412,470.765 z" id="boundary" inkscape:connector-curvature="0" />
	<path style="fill:none;stroke:red;stroke-width:1px;stroke-linecap:butt;stroke-linejoin:miter;stroke-opacity:1" d="M 835.457,721.491 845.367,718.517 z" id="boundary" inkscape:connector-curvature="0" />
	<path style="fill:none;stroke:red;stroke-width:1px;stroke-linecap:butt;stroke-linejoin:miter;stroke-opacity:1" d="M 840.412,470.765 850.322,474.729 z" id="boundary" inkscape:connector-curvature="0" />
	<path style="fill:none;stroke:red;stroke-width:1px;stroke-linecap:butt;stroke-linejoin:miter;stroke-opacity:1" d="M 845.367,718.517 863.205,708.607 z" id="boundary" inkscape:connector-curvature="0" />
	<path style="fill:none;stroke:red;stroke-width:1px;stroke-linecap:butt;stroke-linejoin:miter;stroke-opacity:1" d="M 850.322,474.729 869.151,479.684 z" id="boundary" inkscape:connector-curvature="0" />
	<path style="fill:none;stroke:red;stroke-width:1px;stroke-linecap:butt;stroke-linejoin:miter;stroke-opacity:1" d="M 863.205,708.607 872.124,703.652 z" id="boundary" inkscape:connector-curvature="0" />
	<path style="fill:none;stroke:red;stroke-width:1px;stroke-linecap:butt;stroke-linejoin:miter;stroke-opacity:1" d="M 872.124,703.652 880.052,696.715 z" id="boundary" inkscape:connector-curvature="0" />
	<path style="fill:none;stroke:red;stroke-width:1px;stroke-linecap:butt;stroke-linejoin:miter;stroke-opacity:1" d="M 878.07,484.639 896.899,492.567 z" id="boundary" inkscape:connector-curvature="0" />
	<path style="fill:none;stroke:red;stroke-width:1px;stroke-linecap:butt;stroke-linejoin:miter;stroke-opacity:1" d="M 880.052,696.715 886.989,688.787 z" id="boundary" inkscape:connector-curvature="0" />
	<path style="fill:none;stroke:red;stroke-width:1px;stroke-linecap:butt;stroke-linejoin:miter;stroke-opacity:1" d="M 886.989,688.787 904.827,678.877 z" id="boundary" inkscape:connector-curvature="0" />
	<path style="fill:none;stroke:red;stroke-width:1px;stroke-linecap:butt;stroke-linejoin:miter;stroke-opacity:1" d="M 896.899,492.567 906.809,494.549 z" id="boundary" inkscape:connector-curvature="0" />
	<path style="fill:none;stroke:red;stroke-width:1px;stroke-linecap:butt;stroke-linejoin:miter;stroke-opacity:1" d="M 904.827,678.877 923.656,668.967 z" id="boundary" inkscape:connector-curvature="0" />
	<path style="fill:none;stroke:red;stroke-width:1px;stroke-linecap:butt;stroke-linejoin:miter;stroke-opacity:1" d="M 906.809,494.549 916.719,497.522 z" id="boundary" inkscape:connector-curvature="0" />
	<path style="fill:none;stroke:red;stroke-width:1px;stroke-linecap:butt;stroke-linejoin:miter;stroke-opacity:1" d="M 916.719,497.522 925.638,502.478 z" id="boundary" inkscape:connector-curvature="0" />
	<path style="fill:none;stroke:red;stroke-width:1px;stroke-linecap:butt;stroke-linejoin:miter;stroke-opacity:1" d="M 923.656,668.967 932.575,664.012 z" id="boundary" inkscape:connector-curvature="0" />
	<path style="fill:none;stroke:red;stroke-width:1px;stroke-linecap:butt;stroke-linejoin:miter;stroke-opacity:1" d="M 925.638,502.478 935.548,506.442 z" id="boundary" inkscape:connector-curvature="0" />
	<path style="fill:none;stroke:red;stroke-width:1px;stroke-linecap:butt;stroke-linejoin:miter;stroke-opacity:1" d="M 932.575,664.012 951.405,654.102 z" id="boundary" inkscape:connector-curvature="0" />
	<path style="fill:none;stroke:red;stroke-width:1px;stroke-linecap:butt;stroke-linejoin:miter;stroke-opacity:1" d="M 951.405,654.102 969.243,642.21 z" id="boundary" inkscape:connector-curvature="0" />
	<path style="fill:none;stroke:red;stroke-width:1px;stroke-linecap:butt;stroke-linejoin:miter;stroke-opacity:1" d="M 954.378,515.361 963.297,520.316 z" id="boundary" inkscape:connector-curvature="0" />
	<path style="fill:none;stroke:red;stroke-width:1px;stroke-linecap:butt;stroke-linejoin:miter;stroke-opacity:1" d="M 963.297,520.316 971.225,527.253 z" id="boundary" inkscape:connector-curvature="0" />
	<path style="fill:none;stroke:red;stroke-width:1px;stroke-linecap:butt;stroke-linejoin:miter;stroke-opacity:1" d="M 969.243,642.21 981.135,624.372 z" id="boundary" inkscape:connector-curvature="0" />
	<path style="fill:none;stroke:red;stroke-width:1px;stroke-linecap:butt;stroke-linejoin:miter;stroke-opacity:1" d="M 971.225,527.253 978.162,535.181 z" id="boundary" inkscape:connector-curvature="0" />
	<path style="fill:none;stroke:red;stroke-width:1px;stroke-linecap:butt;stroke-linejoin:miter;stroke-opacity:1" d="M 978.162,535.181 991.045,551.037 z" id="boundary" inkscape:connector-curvature="0" />
	<path style="fill:none;stroke:red;stroke-width:1px;stroke-linecap:butt;stroke-linejoin:miter;stroke-opacity:1" d="M 981.135,624.372 986.09,614.462 z" id="boundary" inkscape:connector-curvature="0" />
	<path style="fill:none;stroke:red;stroke-width:1px;stroke-linecap:butt;stroke-linejoin:miter;stroke-opacity:1" d="M 986.09,614.462 991.045,604.551 z" id="boundary" inkscape:connector-curvature="0" />
	<path style="fill:none;stroke:red;stroke-width:1px;stroke-linecap:butt;stroke-linejoin:miter;stroke-opacity:1" d="M 991.045,551.037 996,569.866 z" id="boundary" inkscape:connector-curvature="0" />
	<path style="fill:none;stroke:red;stroke-width:1px;stroke-linecap:butt;stroke-linejoin:miter;stroke-opacity:1" d="M 991.045,604.551 996,589.686 z" id="boundary" inkscape:connector-curvature="0" />
	<path style="fill:none;stroke:red;stroke-width:1px;stroke-linecap:butt;stroke-linejoin:miter;stroke-opacity:1" d="M 996,569.866 996,579.776 z" id="boundary" inkscape:connector-curvature="0" />
	<path style="fill:none;stroke:red;stroke-width:1px;stroke-linecap:butt;stroke-linejoin:miter;stroke-opacity:1" d="M 996,579.776 996,589.686 z" id="boundary" inkscape:connector-curvature="0" />
	<circle cx="4" cy="591.668" r="4" fill="#0" id="circle0"/>
	<circle cx="4" cy="601.578" r="4" fill="#0" id="circle1"/>
	<circle cx="4" cy="611.489" r="4" fill="#0" id="circle2"/>
	<circle cx="4" cy="621.399" r="4" fill="#0" id="circle3"/>
	<circle cx="4" cy="631.309" r="4" fill="#0" id="circle4"/>
	<circle cx="8.95504" cy="581.758" r="4" fill="#0" id="circle5"/>
	<circle cx="8.95504" cy="640.228" r="4" fill="#0" id="circle6"/>
	<circle cx="13.9101" cy="571.848" r="4" fill="#0" id="circle7"/>
	<circle cx="13.9101" cy="649.147" r="4" fill="#0" id="circle8"/>
	<circle cx="16.8831" cy="659.057" r="4" fill="#0" id="circle9"/>
	<circle cx="21.8382" cy="563.92" r="4" fill="#0" id="circle10"/>
	<circle cx="25.8022" cy="664.012" r="4" fill="#0" id="circle11"/>
	<circle cx="29.7662" cy="555.992" r="4" fill="#0" id="circle12"/>
	<circle cx="34.7213" cy="668.967" r="4" fill="#0" id="circle13"/>
	<circle cx="37.6943" cy="549.055" r="4" fill="#0" id="circle14"/>
	<circle cx="43.6404" cy="673.922" r="4" fill="#0" id="circle15"/>
	<circle cx="46.6134" cy="544.1" r="4" fill="#0" id="circle16"/>
	<circle cx="52.5594" cy="678.877" r="4" fill="#0" id="circle17"/>
	<circle cx="54.5415" cy="536.172" r="4" fill="#0" id="circle18"/>
	<circle cx="61.4785" cy="683.832" r="4" fill="#0" id="circle19"/>
	<circle cx="62.4695" cy="529.235" r="4" fill="#0" id="circle20"/>
	<circle cx="71.3886" cy="524.28" r="4" fill="#0" id="circle21"/>
	<circle cx="71.3886" cy="687.796" r="4" fill="#0" id="circle22"/>
	<circle cx="79.3167" cy="516.352" r="4" fill="#0" id="circle23"/>
	<circle cx="81.2987" cy="688.787" r="4" fill="#0" id="circle24"/>
	<circle cx="87.2448" cy="509.415" r="4" fill="#0" id="circle25"/>
	<circle cx="90.2178" cy="693.742" r="4" fill="#0" id="circle26"/>
	<circle cx="94.1818" cy="501.487" r="4" fill="#0" id="circle27"/>
	<circle cx="99.1369" cy="698.697" r="4" fill="#0" id="circle28"/>
	<circle cx="102.11" cy="494.549" r="4" fill="#0" id="circle29"/>
	<circle cx="108.056" cy="703.652" r="4" fill="#0" id="circle30"/>
	<circle cx="109.047" cy="486.621" r="4" fill="#0" id="circle31"/>
	<circle cx="116.975" cy="479.684" r="4" fill="#0" id="circle32"/>
	<circle cx="116.975" cy="708.607" r="4" fill="#0" id="circle33"/>
	<circle cx="125.894" cy="474.729" r="4" fill="#0" id="circle34"/>
	<circle cx="126.885" cy="708.607" r="4" fill="#0" id="circle35"/>
	<circle cx="134.813" cy="469.774" r="4" fill="#0" id="circle36"/>
	<circle cx="135.804" cy="713.562" r="4" fill="#0" id="circle37"/>
	<circle cx="143.732" cy="464.819" r="4" fill="#0" id="circle38"/>
	<circle cx="143.732" cy="720.5" r="4" fill="#0" id="circle39"/>
	<circle cx="150.669" cy="728.428" r="4" fill="#0" id="circle40"/>
	<circle cx="153.642" cy="461.846" r="4" fill="#0" id="circle41"/>
	<circle cx="160.579" cy="732.392" r="4" fill="#0" id="circle42"/>
	<circle cx="163.552" cy="459.864" r="4" fill="#0" id="circle43"/>
	<circle cx="167.516" cy="438.062" r="4" fill="#0" id="circle44"/>
	<circle cx="167.516" cy="447.972" r="4" fill="#0" id="circle45"/>
	<circle cx="169.499" cy="737.347" r="4" fill="#0" id="circle46"/>
	<circle cx="172.472" cy="428.152" r="4" fill="#0" id="circle47"/>
	<circle cx="177.427" cy="418.242" r="4" fill="#0" id="circle48"/>
	<circle cx="179.409" cy="738.338" r="4" fill="#0" id="circle49"/>
	<circle cx="185.355" cy="410.314" r="4" fill="#0" id="circle50"/>
	<circle cx="188.328" cy="743.293" r="4" fill="#0" id="circle51"/>
	<circle cx="193.283" cy="402.386" r="4" fill="#0" id="circle52"/>
	<circle cx="198.238" cy="745.275" r="4" fill="#0" id="circle53"/>
	<circle cx="201.211" cy="395.449" r="4" fill="#0" id="circle54"/>
	<circle cx="208.148" cy="748.248" r="4" fill="#0" id="circle55"/>
	<circle cx="210.13" cy="390.494" r="4" fill="#0" id="circle56"/>
	<circle cx="218.058" cy="750.23" r="4" fill="#0" id="circle57"/>
	<circle cx="219.049" cy="385.538" r="4" fill="#0" id="circle58"/>
	<circle cx="226.977" cy="378.601" r="4" fill="#0" id="circle59"/>
	<circle cx="227.968" cy="753.203" r="4" fill="#0" id="circle60"/>
	<circle cx="236.887" cy="373.646" r="4" fill="#0" id="circle61"/>
	<circle cx="237.878" cy="753.203" r="4" fill="#0" id="circle62"/>
	<circle cx="246.797" cy="370.673" r="4" fill="#0" id="circle63"/>
	<circle cx="247.788" cy="753.203" r="4" fill="#0" id="circle64"/>
	<circle cx="255.716" cy="365.718" r="4" fill="#0" id="circle65"/>
	<circle cx="257.698" cy="755.185" r="4" fill="#0" id="circle66"/>
	<circle cx="264.635" cy="360.763" r="4" fill="#0" id="circle67"/>
	<circle cx="267.608" cy="758.158" r="4" fill="#0" id="circle68"/>
	<circle cx="274.545" cy="360.763" r="4" fill="#0" id="circle69"/>
	<circle cx="277.518" cy="758.158" r="4" fill="#0" id="circle70"/>
	<circle cx="283.465" cy="355.808" r="4" fill="#0" id="circle71"/>
	<circle cx="287.429" cy="760.14" r="4" fill="#0" id="circle72"/>
	<circle cx="293.375" cy="355.808" r="4" fill="#0" id="circle73"/>
	<circle cx="297.339" cy="763.113" r="4" fill="#0" id="circle74"/>
	<circle cx="302.294" cy="350.853" r="4" fill="#0" id="circle75"/>
	<circle cx="307.249" cy="765.095" r="4" fill="#0" id="circle76"/>
	<circle cx="312.204" cy="350.853" r="4" fill="#0" id="circle77"/>
	<circle cx="317.159" cy="768.068" r="4" fill="#0" id="circle78"/>
	<circle cx="322.114" cy="350.853" r="4" fill="#0" id="circle79"/>
	<circle cx="327.069" cy="768.068" r="4" fill="#0" id="circle80"/>
	<circle cx="332.024" cy="350.853" r="4" fill="#0" id="circle81"/>
	<circle cx="335.988" cy="773.023" r="4" fill="#0" id="circle82"/>
	<circle cx="340.943" cy="170.49" r="4" fill="#0" id="circle83"/>
	<circle cx="340.943" cy="180.4" r="4" fill="#0" id="circle84"/>
	<circle cx="341.934" cy="350.853" r="4" fill="#0" id="circle85"/>
	<circle cx="345.898" cy="160.579" r="4" fill="#0" id="circle86"/>
	<circle cx="345.898" cy="773.023" r="4" fill="#0" id="circle87"/>
	<circle cx="348.871" cy="187.337" r="4" fill="#0" id="circle88"/>
	<circle cx="350.853" cy="150.669" r="4" fill="#0" id="circle89"/>
	<circle cx="351.844" cy="350.853" r="4" fill="#0" id="circle90"/>
	<circle cx="355.808" cy="773.023" r="4" fill="#0" id="circle91"/>
	<circle cx="356.799" cy="193.283" r="4" fill="#0" id="circle92"/>
	<circle cx="360.763" cy="145.714" r="4" fill="#0" id="circle93"/>
	<circle cx="361.754" cy="350.853" r="4" fill="#0" id="circle94"/>
	<circle cx="365.718" cy="773.023" r="4" fill="#0" id="circle95"/>
	<circle cx="366.709" cy="193.283" r="4" fill="#0" id="circle96"/>
	<circle cx="370.673" cy="140.759" r="4" fill="#0" id="circle97"/>
	<circle cx="371.664" cy="350.853" r="4" fill="#0" id="circle98"/>
	<circle cx="374.637" cy="777.978" r="4" fill="#0" id="circle99"/>
	<circle cx="376.619" cy="193.283" r="4" fill="#0" id="circle100"/>
	<circle cx="380.583" cy="135.804" r="4" fill="#0" id="circle101"/>
	<circle cx="381.574" cy="350.853" r="4" fill="#0" id="circle102"/>
	<circle cx="384.547" cy="777.978" r="4" fill="#0" id="circle103"/>
	<circle cx="386.529" cy="193.283" r="4" fill="#0" id="circle104"/>
	<circle cx="390.494" cy="132.831" r="4" fill="#0" id="circle105"/>
	<circle cx="391.485" cy="350.853" r="4" fill="#0" id="circle106"/>
	<circle cx="394.458" cy="777.978" r="4" fill="#0" id="circle107"/>
	<circle cx="396.44" cy="193.283" r="4" fill="#0" id="circle108"/>
	<circle cx="399.413" cy="127.876" r="4" fill="#0" id="circle109"/>
	<circle cx="401.395" cy="350.853" r="4" fill="#0" id="circle110"/>
	<circle cx="404.368" cy="777.978" r="4" fill="#0" id="circle111"/>
	<circle cx="406.35" cy="193.283" r="4" fill="#0" id="circle112"/>
	<circle cx="409.323" cy="127.876" r="4" fill="#0" id="circle113"/>
	<circle cx="411.305" cy="350.853" r="4" fill="#0" id="circle114"/>
	<circle cx="414.278" cy="777.978" r="4" fill="#0" id="circle115"/>
	<circle cx="416.26" cy="193.283" r="4" fill="#0" id="circle116"/>
	<circle cx="419.233" cy="127.876" r="4" fill="#0" id="circle117"/>
	<circle cx="421.215" cy="350.853" r="4" fill="#0" id="circle118"/>
	<circle cx="424.188" cy="777.978" r="4" fill="#0" id="circle119"/>
	<circle cx="426.17" cy="193.283" r="4" fill="#0" id="circle120"/>
	<circle cx="429.143" cy="127.876" r="4" fill="#0" id="circle121"/>
	<circle cx="430.134" cy="334.006" r="4" fill="#0" id="circle122"/>
	<circle cx="430.134" cy="343.916" r="4" fill="#0" id="circle123"/>
	<circle cx="434.098" cy="777.978" r="4" fill="#0" id="circle124"/>
	<circle cx="435.089" cy="61.4785" r="4" fill="#0" id="circle125"/>
	<circle cx="435.089" cy="71.3886" r="4" fill="#0" id="circle126"/>
	<circle cx="435.089" cy="324.096" r="4" fill="#0" id="circle127"/>
	<circle cx="436.08" cy="193.283" r="4" fill="#0" id="circle128"/>
	<circle cx="439.053" cy="127.876" r="4" fill="#0" id="circle129"/>
	<circle cx="440.044" cy="41.6583" r="4" fill="#0" id="circle130"/>
	<circle cx="440.044" cy="51.5684" r="4" fill="#0" id="circle131"/>
	<circle cx="440.044" cy="80.3077" r="4" fill="#0" id="circle132"/>
	<circle cx="440.044" cy="314.186" r="4" fill="#0" id="circle133"/>
	<circle cx="442.026" cy="201.211" r="4" fill="#0" id="circle134"/>
	<circle cx="443.017" cy="782.933" r="4" fill="#0" id="circle135"/>
	<circle cx="444.999" cy="31.7483" r="4" fill="#0" id="circle136"/>
	<circle cx="444.999" cy="89.2268" r="4" fill="#0" id="circle137"/>
	<circle cx="444.999" cy="99.1369" r="4" fill="#0" id="circle138"/>
	<circle cx="444.999" cy="109.047" r="4" fill="#0" id="circle139"/>
	<circle cx="444.999" cy="118.957" r="4" fill="#0" id="circle140"/>
	<circle cx="444.999" cy="211.121" r="4" fill="#0" id="circle141"/>
	<circle cx="444.999" cy="294.366" r="4" fill="#0" id="circle142"/>
	<circle cx="444.999" cy="304.276" r="4" fill="#0" id="circle143"/>
	<circle cx="449.954" cy="21.8382" r="4" fill="#0" id="circle144"/>
	<circle cx="449.954" cy="220.04" r="4" fill="#0" id="circle145"/>
	<circle cx="449.954" cy="229.95" r="4" fill="#0" id="circle146"/>
	<circle cx="449.954" cy="239.86" r="4" fill="#0" id="circle147"/>
	<circle cx="449.954" cy="249.77" r="4" fill="#0" id="circle148"/>
	<circle cx="449.954" cy="259.68" r="4" fill="#0" id="circle149"/>
	<circle cx="449.954" cy="269.59" r="4" fill="#0" id="circle150"/>
	<circle cx="449.954" cy="279.5" r="4" fill="#0" id="circle151"/>
	<circle cx="452.927" cy="782.933" r="4" fill="#0" id="circle152"/>
	<circle cx="459.864" cy="16.8831" r="4" fill="#0" id="circle153"/>
	<circle cx="462.837" cy="782.933" r="4" fill="#0" id="circle154"/>
	<circle cx="467.792" cy="8.95504" r="4" fill="#0" id="circle155"/>
	<circle cx="472.747" cy="782.933" r="4" fill="#0" id="circle156"/>
	<circle cx="477.702" cy="4" r="4" fill="#0" id="circle157"/>
	<circle cx="482.657" cy="782.933" r="4" fill="#0" id="circle158"/>
	<circle cx="487.612" cy="4" r="4" fill="#0" id="circle159"/>
	<circle cx="492.567" cy="782.933" r="4" fill="#0" id="circle160"/>
	<circle cx="497.522" cy="4" r="4" fill="#0" id="circle161"/>
	<circle cx="502.478" cy="782.933" r="4" fill="#0" id="circle162"/>
	<circle cx="504.46" cy="11.9281" r="4" fill="#0" id="circle163"/>
	<circle cx="505.451" cy="21.8382" r="4" fill="#0" id="circle164"/>
	<circle cx="510.406" cy="30.7572" r="4" fill="#0" id="circle165"/>
	<circle cx="512.388" cy="782.933" r="4" fill="#0" id="circle166"/>
	<circle cx="513.379" cy="40.6673" r="4" fill="#0" id="circle167"/>
	<circle cx="515.361" cy="50.5774" r="4" fill="#0" id="circle168"/>
	<circle cx="520.316" cy="59.4965" r="4" fill="#0" id="circle169"/>
	<circle cx="520.316" cy="69.4066" r="4" fill="#0" id="circle170"/>
	<circle cx="520.316" cy="213.103" r="4" fill="#0" id="circle171"/>
	<circle cx="520.316" cy="223.013" r="4" fill="#0" id="circle172"/>
	<circle cx="520.316" cy="232.923" r="4" fill="#0" id="circle173"/>
	<circle cx="520.316" cy="242.833" r="4" fill="#0" id="circle174"/>
	<circle cx="520.316" cy="252.743" r="4" fill="#0" id="circle175"/>
	<circle cx="520.316" cy="262.653" r="4" fill="#0" id="circle176"/>
	<circle cx="520.316" cy="272.563" r="4" fill="#0" id="circle177"/>
	<circle cx="520.316" cy="282.474" r="4" fill="#0" id="circle178"/>
	<circle cx="520.316" cy="292.384" r="4" fill="#0" id="circle179"/>
	<circle cx="522.298" cy="302.294" r="4" fill="#0" id="circle180"/>
	<circle cx="522.298" cy="782.933" r="4" fill="#0" id="circle181"/>
	<circle cx="525.271" cy="78.3257" r="4" fill="#0" id="circle182"/>
	<circle cx="525.271" cy="88.2358" r="4" fill="#0" id="circle183"/>
	<circle cx="525.271" cy="98.1459" r="4" fill="#0" id="circle184"/>
	<circle cx="525.271" cy="108.056" r="4" fill="#0" id="circle185"/>
	<circle cx="525.271" cy="117.966" r="4" fill="#0" id="circle186"/>
	<circle cx="525.271" cy="127.876" r="4" fill="#0" id="circle187"/>
	<circle cx="525.271" cy="137.786" r="4" fill="#0" id="circle188"/>
	<circle cx="525.271" cy="312.204" r="4" fill="#0" id="circle189"/>
	<circle cx="525.271" cy="322.114" r="4" fill="#0" id="circle190"/>
	<circle cx="527.253" cy="332.024" r="4" fill="#0" id="circle191"/>
	<circle cx="529.235" cy="208.148" r="4" fill="#0" id="circle192"/>
	<circle cx="532.208" cy="340.943" r="4" fill="#0" id="circle193"/>
	<circle cx="532.208" cy="782.933" r="4" fill="#0" id="circle194"/>
	<circle cx="535.181" cy="137.786" r="4" fill="#0" id="circle195"/>
	<circle cx="535.181" cy="350.853" r="4" fill="#0" id="circle196"/>
	<circle cx="538.154" cy="203.193" r="4" fill="#0" id="circle197"/>
	<circle cx="542.118" cy="782.933" r="4" fill="#0" id="circle198"/>
	<circle cx="544.1" cy="355.808" r="4" fill="#0" id="circle199"/>
	<circle cx="545.091" cy="137.786" r="4" fill="#0" id="circle200"/>
	<circle cx="548.064" cy="203.193" r="4" fill="#0" id="circle201"/>
	<circle cx="552.028" cy="782.933" r="4" fill="#0" id="circle202"/>
	<circle cx="554.01" cy="355.808" r="4" fill="#0" id="circle203"/>
	<circle cx="555.001" cy="137.786" r="4" fill="#0" id="circle204"/>
	<circle cx="556.983" cy="198.238" r="4" fill="#0" id="circle205"/>
	<circle cx="561.938" cy="782.933" r="4" fill="#0" id="circle206"/>
	<circle cx="562.929" cy="360.763" r="4" fill="#0" id="circle207"/>
	<circle cx="564.911" cy="137.786" r="4" fill="#0" id="circle208"/>
	<circle cx="566.893" cy="197.247" r="4" fill="#0" id="circle209"/>
	<circle cx="571.848" cy="782.933" r="4" fill="#0" id="circle210"/>
	<circle cx="572.839" cy="360.763" r="4" fill="#0" id="circle211"/>
	<circle cx="574.821" cy="137.786" r="4" fill="#0" id="circle212"/>
	<circle cx="576.803" cy="193.283" r="4" fill="#0" id="circle213"/>
	<circle cx="581.758" cy="782.933" r="4" fill="#0" id="circle214"/>
	<circle cx="582.749" cy="360.763" r="4" fill="#0" id="circle215"/>
	<circle cx="584.731" cy="137.786" r="4" fill="#0" id="circle216"/>
	<circle cx="585.722" cy="188.328" r="4" fill="#0" id="circle217"/>
	<circle cx="591.668" cy="782.933" r="4" fill="#0" id="circle218"/>
	<circle cx="592.659" cy="360.763" r="4" fill="#0" id="circle219"/>
	<circle cx="594.641" cy="137.786" r="4" fill="#0" id="circle220"/>
	<circle cx="595.632" cy="188.328" r="4" fill="#0" id="circle221"/>
	<circle cx="601.578" cy="782.933" r="4" fill="#0" id="circle222"/>
	<circle cx="602.569" cy="360.763" r="4" fill="#0" id="circle223"/>
	<circle cx="604.551" cy="137.786" r="4" fill="#0" id="circle224"/>
	<circle cx="604.551" cy="183.373" r="4" fill="#0" id="circle225"/>
	<circle cx="611.489" cy="782.933" r="4" fill="#0" id="circle226"/>
	<circle cx="612.48" cy="360.763" r="4" fill="#0" id="circle227"/>
	<circle cx="614.462" cy="137.786" r="4" fill="#0" id="circle228"/>
	<circle cx="614.462" cy="183.373" r="4" fill="#0" id="circle229"/>
	<circle cx="621.399" cy="782.933" r="4" fill="#0" id="circle230"/>
	<circle cx="622.39" cy="360.763" r="4" fill="#0" id="circle231"/>
	<circle cx="623.381" cy="178.418" r="4" fill="#0" id="circle232"/>
	<circle cx="624.372" cy="137.786" r="4" fill="#0" id="circle233"/>
	<circle cx="631.309" cy="782.933" r="4" fill="#0" id="circle234"/>
	<circle cx="632.3" cy="173.463" r="4" fill="#0" id="circle235"/>
	<circle cx="632.3" cy="361.754" r="4" fill="#0" id="circle236"/>
	<circle cx="634.282" cy="140.759" r="4" fill="#0" id="circle237"/>
	<circle cx="639.237" cy="163.552" r="4" fill="#0" id="circle238"/>
	<circle cx="641.219" cy="148.687" r="4" fill="#0" id="circle239"/>
	<circle cx="641.219" cy="782.933" r="4" fill="#0" id="circle240"/>
	<circle cx="642.21" cy="365.718" r="4" fill="#0" id="circle241"/>
	<circle cx="651.129" cy="782.933" r="4" fill="#0" id="circle242"/>
	<circle cx="652.12" cy="365.718" r="4" fill="#0" id="circle243"/>
	<circle cx="661.039" cy="782.933" r="4" fill="#0" id="circle244"/>
	<circle cx="662.03" cy="366.709" r="4" fill="#0" id="circle245"/>
	<circle cx="670.949" cy="782.933" r="4" fill="#0" id="circle246"/>
	<circle cx="671.94" cy="370.673" r="4" fill="#0" id="circle247"/>
	<circle cx="680.859" cy="375.628" r="4" fill="#0" id="circle248"/>
	<circle cx="680.859" cy="782.933" r="4" fill="#0" id="circle249"/>
	<circle cx="690.769" cy="375.628" r="4" fill="#0" id="circle250"/>
	<circle cx="690.769" cy="782.933" r="4" fill="#0" id="circle251"/>
	<circle cx="699.688" cy="777.978" r="4" fill="#0" id="circle252"/>
	<circle cx="700.679" cy="375.628" r="4" fill="#0" id="circle253"/>
	<circle cx="709.598" cy="380.583" r="4" fill="#0" id="circle254"/>
	<circle cx="709.598" cy="777.978" r="4" fill="#0" id="circle255"/>
	<circle cx="718.517" cy="773.023" r="4" fill="#0" id="circle256"/>
	<circle cx="719.508" cy="380.583" r="4" fill="#0" id="circle257"/>
	<circle cx="728.428" cy="768.068" r="4" fill="#0" id="circle258"/>
	<circle cx="729.419" cy="380.583" r="4" fill="#0" id="circle259"/>
	<circle cx="738.338" cy="385.538" r="4" fill="#0" id="circle260"/>
	<circle cx="738.338" cy="763.113" r="4" fill="#0" id="circle261"/>
	<circle cx="748.248" cy="385.538" r="4" fill="#0" id="circle262"/>
	<circle cx="748.248" cy="763.113" r="4" fill="#0" id="circle263"/>
	<circle cx="757.167" cy="390.494" r="4" fill="#0" id="circle264"/>
	<circle cx="757.167" cy="758.158" r="4" fill="#0" id="circle265"/>
	<circle cx="766.086" cy="753.203" r="4" fill="#0" id="circle266"/>
	<circle cx="767.077" cy="390.494" r="4" fill="#0" id="circle267"/>
	<circle cx="775.996" cy="751.221" r="4" fill="#0" id="circle268"/>
	<circle cx="776.987" cy="392.476" r="4" fill="#0" id="circle269"/>
	<circle cx="785.906" cy="397.431" r="4" fill="#0" id="circle270"/>
	<circle cx="785.906" cy="746.266" r="4" fill="#0" id="circle271"/>
	<circle cx="792.843" cy="405.359" r="4" fill="#0" id="circle272"/>
	<circle cx="795.816" cy="741.311" r="4" fill="#0" id="circle273"/>
	<circle cx="800.771" cy="411.305" r="4" fill="#0" id="circle274"/>
	<circle cx="804.735" cy="421.215" r="4" fill="#0" id="circle275"/>
	<circle cx="805.726" cy="736.356" r="4" fill="#0" id="circle276"/>
	<circle cx="807.708" cy="431.125" r="4" fill="#0" id="circle277"/>
	<circle cx="807.708" cy="441.035" r="4" fill="#0" id="circle278"/>
	<circle cx="809.69" cy="450.945" r="4" fill="#0" id="circle279"/>
	<circle cx="812.663" cy="460.855" r="4" fill="#0" id="circle280"/>
	<circle cx="815.636" cy="731.401" r="4" fill="#0" id="circle281"/>
	<circle cx="820.591" cy="466.801" r="4" fill="#0" id="circle282"/>
	<circle cx="825.546" cy="726.446" r="4" fill="#0" id="circle283"/>
	<circle cx="830.501" cy="469.774" r="4" fill="#0" id="circle284"/>
	<circle cx="835.457" cy="721.491" r="4" fill="#0" id="circle285"/>
	<circle cx="840.412" cy="470.765" r="4" fill="#0" id="circle286"/>
	<circle cx="845.367" cy="718.517" r="4" fill="#0" id="circle287"/>
	<circle cx="850.322" cy="474.729" r="4" fill="#0" id="circle288"/>
	<circle cx="854.286" cy="713.562" r="4" fill="#0" id="circle289"/>
	<circle cx="859.241" cy="479.684" r="4" fill="#0" id="circle290"/>
	<circle cx="863.205" cy="708.607" r="4" fill="#0" id="circle291"/>
	<circle cx="869.151" cy="479.684" r="4" fill="#0" id="circle292"/>
	<circle cx="872.124" cy="703.652" r="4" fill="#0" id="circle293"/>
	<circle cx="878.07" cy="484.639" r="4" fill="#0" id="circle294"/>
	<circle cx="880.052" cy="696.715" r="4" fill="#0" id="circle295"/>
	<circle cx="886.989" cy="489.594" r="4" fill="#0" id="circle296"/>
	<circle cx="886.989" cy="688.787" r="4" fill="#0" id="circle297"/>
	<circle cx="895.908" cy="683.832" r="4" fill="#0" id="circle298"/>
	<circle cx="896.899" cy="492.567" r="4" fill="#0" id="circle299"/>
	<circle cx="904.827" cy="678.877" r="4" fill="#0" id="circle300"/>
	<circle cx="906.809" cy="494.549" r="4" fill="#0" id="circle301"/>
	<circle cx="913.746" cy="672.931" r="4" fill="#0" id="circle302"/>
	<circle cx="916.719" cy="497.522" r="4" fill="#0" id="circle303"/>
	<circle cx="923.656" cy="668.967" r="4" fill="#0" id="circle304"/>
	<circle cx="925.638" cy="502.478" r="4" fill="#0" id="circle305"/>
	<circle cx="932.575" cy="664.012" r="4" fill="#0" id="circle306"/>
	<circle cx="935.548" cy="506.442" r="4" fill="#0" id="circle307"/>
	<circle cx="941.495" cy="659.057" r="4" fill="#0" id="circle308"/>
	<circle cx="944.468" cy="511.397" r="4" fill="#0" id="circle309"/>
	<circle cx="951.405" cy="654.102" r="4" fill="#0" id="circle310"/>
	<circle cx="954.378" cy="515.361" r="4" fill="#0" id="circle311"/>
	<circle cx="959.333" cy="647.165" r="4" fill="#0" id="circle312"/>
	<circle cx="963.297" cy="520.316" r="4" fill="#0" id="circle313"/>
	<circle cx="969.243" cy="642.21" r="4" fill="#0" id="circle314"/>
	<circle cx="971.225" cy="527.253" r="4" fill="#0" id="circle315"/>
	<circle cx="976.18" cy="634.282" r="4" fill="#0" id="circle316"/>
	<circle cx="978.162" cy="535.181" r="4" fill="#0" id="circle317"/>
	<circle cx="981.135" cy="624.372" r="4" fill="#0" id="circle318"/>
	<circle cx="986.09" cy="542.118" r="4" fill="#0" id="circle319"/>
	<circle cx="986.09" cy="614.462" r="4" fill="#0" id="circle320"/>
	<circle cx="991.045" cy="551.037" r="4" fill="#0" id="circle321"/>
	<circle cx="991.045" cy="604.551" r="4" fill="#0" id="circle322"/>
	<circle cx="996" cy="559.956" r="4" fill="#0" id="circle323"/>
	<circle cx="996" cy="569.866" r="4" fill="#0" id="circle324"/>
	<circle cx="996" cy="579.776" r="4" fill="#0" id="circle325"/>
	<circle cx="996" cy="589.686" r="4" fill="#0" id="circle326"/>
	</g>
</svg>