<?xml version="1.0" encoding="UTF-8" standalone="no"?>
<!-- Created with CurveBenchmark -->
<svg
	xmlns:dc="http://purl.org/dc/elements/1.1/"
	xmlns:cc="http://creativecommons.org/ns#"
	xmlns:rdf="http://www.w3.org/1999/02/22-rdf-syntax-ns#"
	xmlns:svg="http://www.w3.org/2000/svg"
	xmlns="http://www.w3.org/2000/svg"
	xmlns:sodipodi="http://sodipodi.sourceforge.net/DTD/sodipodi-0.dtd"
	xmlns:inkscape="http://www.inkscape.org/namespaces/inkscape"
	width="1000"
	height="1000"
	id="svg2"
	version="1.1"
	sodipodi:docname="manifold/vicur-tree-3.png.txt">
<defs
	id="defs4" />
<metadata
	id="metadata7">
	<rdf:RDF>
		<cc:Work
			rdf:about="">
			<dc:format>image/svg+xml</dc:format>
			<dc:type
				rdf:resource="http://purl.org/dc/dcmitype/StillImage" />
			<dc:title></dc:title>
		</cc:Work>
	</rdf:RDF>
</metadata>
<g
	inkscape:label="Layer 1"
	inkscape:groupmode="layer"
	id="layer1">
	<path style="fill:none;stroke:red;stroke-width:1px;stroke-linecap:butt;stroke-linejoin:miter;stroke-opacity:1" d="M 4,207.762 4,216.699 z" id="boundary" inkscape:connector-curvature="0" />
	<path style="fill:none;stroke:red;stroke-width:1px;stroke-linecap:butt;stroke-linejoin:miter;stroke-opacity:1" d="M 4,207.762 11.1495,200.613 z" id="boundary" inkscape:connector-curvature="0" />
	<path style="fill:none;stroke:red;stroke-width:1px;stroke-linecap:butt;stroke-linejoin:miter;stroke-opacity:1" d="M 4,216.699 8.46847,224.742 z" id="boundary" inkscape:connector-curvature="0" />
	<path style="fill:none;stroke:red;stroke-width:1px;stroke-linecap:butt;stroke-linejoin:miter;stroke-opacity:1" d="M 8.46847,224.742 12.9369,232.786 z" id="boundary" inkscape:connector-curvature="0" />
	<path style="fill:none;stroke:red;stroke-width:1px;stroke-linecap:butt;stroke-linejoin:miter;stroke-opacity:1" d="M 11.1495,200.613 20.0865,200.613 z" id="boundary" inkscape:connector-curvature="0" />
	<path style="fill:none;stroke:red;stroke-width:1px;stroke-linecap:butt;stroke-linejoin:miter;stroke-opacity:1" d="M 12.9369,232.786 17.4054,240.829 z" id="boundary" inkscape:connector-curvature="0" />
	<path style="fill:none;stroke:red;stroke-width:1px;stroke-linecap:butt;stroke-linejoin:miter;stroke-opacity:1" d="M 17.4054,240.829 22.7676,247.978 z" id="boundary" inkscape:connector-curvature="0" />
	<path style="fill:none;stroke:red;stroke-width:1px;stroke-linecap:butt;stroke-linejoin:miter;stroke-opacity:1" d="M 20.0865,200.613 29.0234,200.613 z" id="boundary" inkscape:connector-curvature="0" />
	<path style="fill:none;stroke:red;stroke-width:1px;stroke-linecap:butt;stroke-linejoin:miter;stroke-opacity:1" d="M 22.7676,247.978 29.0234,255.128 z" id="boundary" inkscape:connector-curvature="0" />
	<path style="fill:none;stroke:red;stroke-width:1px;stroke-linecap:butt;stroke-linejoin:miter;stroke-opacity:1" d="M 29.0234,200.613 37.9604,200.613 z" id="boundary" inkscape:connector-curvature="0" />
	<path style="fill:none;stroke:red;stroke-width:1px;stroke-linecap:butt;stroke-linejoin:miter;stroke-opacity:1" d="M 37.9604,200.613 46.8973,200.613 z" id="boundary" inkscape:connector-curvature="0" />
	<path style="fill:none;stroke:red;stroke-width:1px;stroke-linecap:butt;stroke-linejoin:miter;stroke-opacity:1" d="M 39.7477,270.321 44.2162,278.364 z" id="boundary" inkscape:connector-curvature="0" />
	<path style="fill:none;stroke:red;stroke-width:1px;stroke-linecap:butt;stroke-linejoin:miter;stroke-opacity:1" d="M 44.2162,278.364 48.6847,286.407 z" id="boundary" inkscape:connector-curvature="0" />
	<path style="fill:none;stroke:red;stroke-width:1px;stroke-linecap:butt;stroke-linejoin:miter;stroke-opacity:1" d="M 46.8973,200.613 55.8342,200.613 z" id="boundary" inkscape:connector-curvature="0" />
	<path style="fill:none;stroke:red;stroke-width:1px;stroke-linecap:butt;stroke-linejoin:miter;stroke-opacity:1" d="M 48.6847,286.407 53.1532,294.45 z" id="boundary" inkscape:connector-curvature="0" />
	<path style="fill:none;stroke:red;stroke-width:1px;stroke-linecap:butt;stroke-linejoin:miter;stroke-opacity:1" d="M 53.1532,294.45 58.5153,301.6 z" id="boundary" inkscape:connector-curvature="0" />
	<path style="fill:none;stroke:red;stroke-width:1px;stroke-linecap:butt;stroke-linejoin:miter;stroke-opacity:1" d="M 55.8342,200.613 64.7712,200.613 z" id="boundary" inkscape:connector-curvature="0" />
	<path style="fill:none;stroke:red;stroke-width:1px;stroke-linecap:butt;stroke-linejoin:miter;stroke-opacity:1" d="M 58.5153,301.6 64.7712,308.75 z" id="boundary" inkscape:connector-curvature="0" />
	<path style="fill:none;stroke:red;stroke-width:1px;stroke-linecap:butt;stroke-linejoin:miter;stroke-opacity:1" d="M 64.7712,200.613 73.7081,200.613 z" id="boundary" inkscape:connector-curvature="0" />
	<path style="fill:none;stroke:red;stroke-width:1px;stroke-linecap:butt;stroke-linejoin:miter;stroke-opacity:1" d="M 64.7712,308.75 71.027,315.899 z" id="boundary" inkscape:connector-curvature="0" />
	<path style="fill:none;stroke:red;stroke-width:1px;stroke-linecap:butt;stroke-linejoin:miter;stroke-opacity:1" d="M 71.027,315.899 71.9207,324.836 z" id="boundary" inkscape:connector-curvature="0" />
	<path style="fill:none;stroke:red;stroke-width:1px;stroke-linecap:butt;stroke-linejoin:miter;stroke-opacity:1" d="M 71.9207,324.836 79.0703,331.092 z" id="boundary" inkscape:connector-curvature="0" />
	<path style="fill:none;stroke:red;stroke-width:1px;stroke-linecap:butt;stroke-linejoin:miter;stroke-opacity:1" d="M 73.7081,200.613 82.645,200.613 z" id="boundary" inkscape:connector-curvature="0" />
	<path style="fill:none;stroke:red;stroke-width:1px;stroke-linecap:butt;stroke-linejoin:miter;stroke-opacity:1" d="M 79.0703,331.092 84.4324,338.241 z" id="boundary" inkscape:connector-curvature="0" />
	<path style="fill:none;stroke:red;stroke-width:1px;stroke-linecap:butt;stroke-linejoin:miter;stroke-opacity:1" d="M 79.964,422.249 79.964,431.186 z" id="boundary" inkscape:connector-curvature="0" />
	<path style="fill:none;stroke:red;stroke-width:1px;stroke-linecap:butt;stroke-linejoin:miter;stroke-opacity:1" d="M 79.964,422.249 87.1135,415.099 z" id="boundary" inkscape:connector-curvature="0" />
	<path style="fill:none;stroke:red;stroke-width:1px;stroke-linecap:butt;stroke-linejoin:miter;stroke-opacity:1" d="M 79.964,431.186 84.4324,439.229 z" id="boundary" inkscape:connector-curvature="0" />
	<path style="fill:none;stroke:red;stroke-width:1px;stroke-linecap:butt;stroke-linejoin:miter;stroke-opacity:1" d="M 82.645,200.613 91.582,200.613 z" id="boundary" inkscape:connector-curvature="0" />
	<path style="fill:none;stroke:red;stroke-width:1px;stroke-linecap:butt;stroke-linejoin:miter;stroke-opacity:1" d="M 84.4324,338.241 88.9009,346.285 z" id="boundary" inkscape:connector-curvature="0" />
	<path style="fill:none;stroke:red;stroke-width:1px;stroke-linecap:butt;stroke-linejoin:miter;stroke-opacity:1" d="M 84.4324,439.229 88.9009,447.272 z" id="boundary" inkscape:connector-curvature="0" />
	<path style="fill:none;stroke:red;stroke-width:1px;stroke-linecap:butt;stroke-linejoin:miter;stroke-opacity:1" d="M 87.1135,415.099 96.0505,415.099 z" id="boundary" inkscape:connector-curvature="0" />
	<path style="fill:none;stroke:red;stroke-width:1px;stroke-linecap:butt;stroke-linejoin:miter;stroke-opacity:1" d="M 88.9009,346.285 93.3694,354.328 z" id="boundary" inkscape:connector-curvature="0" />
	<path style="fill:none;stroke:red;stroke-width:1px;stroke-linecap:butt;stroke-linejoin:miter;stroke-opacity:1" d="M 88.9009,447.272 93.3694,455.315 z" id="boundary" inkscape:connector-curvature="0" />
	<path style="fill:none;stroke:red;stroke-width:1px;stroke-linecap:butt;stroke-linejoin:miter;stroke-opacity:1" d="M 91.582,200.613 99.6252,205.081 z" id="boundary" inkscape:connector-curvature="0" />
	<path style="fill:none;stroke:red;stroke-width:1px;stroke-linecap:butt;stroke-linejoin:miter;stroke-opacity:1" d="M 93.3694,354.328 99.6252,361.477 z" id="boundary" inkscape:connector-curvature="0" />
	<path style="fill:none;stroke:red;stroke-width:1px;stroke-linecap:butt;stroke-linejoin:miter;stroke-opacity:1" d="M 93.3694,455.315 98.7315,462.465 z" id="boundary" inkscape:connector-curvature="0" />
	<path style="fill:none;stroke:red;stroke-width:1px;stroke-linecap:butt;stroke-linejoin:miter;stroke-opacity:1" d="M 96.0505,415.099 104.987,415.099 z" id="boundary" inkscape:connector-curvature="0" />
	<path style="fill:none;stroke:red;stroke-width:1px;stroke-linecap:butt;stroke-linejoin:miter;stroke-opacity:1" d="M 98.7315,462.465 102.306,471.402 z" id="boundary" inkscape:connector-curvature="0" />
	<path style="fill:none;stroke:red;stroke-width:1px;stroke-linecap:butt;stroke-linejoin:miter;stroke-opacity:1" d="M 99.6252,205.081 107.668,209.55 z" id="boundary" inkscape:connector-curvature="0" />
	<path style="fill:none;stroke:red;stroke-width:1px;stroke-linecap:butt;stroke-linejoin:miter;stroke-opacity:1" d="M 99.6252,361.477 106.775,366.84 z" id="boundary" inkscape:connector-curvature="0" />
	<path style="fill:none;stroke:red;stroke-width:1px;stroke-linecap:butt;stroke-linejoin:miter;stroke-opacity:1" d="M 102.306,471.402 109.456,477.658 z" id="boundary" inkscape:connector-curvature="0" />
	<path style="fill:none;stroke:red;stroke-width:1px;stroke-linecap:butt;stroke-linejoin:miter;stroke-opacity:1" d="M 104.987,415.099 113.031,419.568 z" id="boundary" inkscape:connector-curvature="0" />
	<path style="fill:none;stroke:red;stroke-width:1px;stroke-linecap:butt;stroke-linejoin:miter;stroke-opacity:1" d="M 106.775,366.84 111.243,374.883 z" id="boundary" inkscape:connector-curvature="0" />
	<path style="fill:none;stroke:red;stroke-width:1px;stroke-linecap:butt;stroke-linejoin:miter;stroke-opacity:1" d="M 107.668,209.55 116.605,209.55 z" id="boundary" inkscape:connector-curvature="0" />
	<path style="fill:none;stroke:red;stroke-width:1px;stroke-linecap:butt;stroke-linejoin:miter;stroke-opacity:1" d="M 109.456,477.658 115.712,484.807 z" id="boundary" inkscape:connector-curvature="0" />
	<path style="fill:none;stroke:red;stroke-width:1px;stroke-linecap:butt;stroke-linejoin:miter;stroke-opacity:1" d="M 111.243,374.883 116.605,382.032 z" id="boundary" inkscape:connector-curvature="0" />
	<path style="fill:none;stroke:red;stroke-width:1px;stroke-linecap:butt;stroke-linejoin:miter;stroke-opacity:1" d="M 113.031,419.568 121.968,419.568 z" id="boundary" inkscape:connector-curvature="0" />
	<path style="fill:none;stroke:red;stroke-width:1px;stroke-linecap:butt;stroke-linejoin:miter;stroke-opacity:1" d="M 115.712,484.807 120.18,492.85 z" id="boundary" inkscape:connector-curvature="0" />
	<path style="fill:none;stroke:red;stroke-width:1px;stroke-linecap:butt;stroke-linejoin:miter;stroke-opacity:1" d="M 116.605,209.55 125.542,212.231 z" id="boundary" inkscape:connector-curvature="0" />
	<path style="fill:none;stroke:red;stroke-width:1px;stroke-linecap:butt;stroke-linejoin:miter;stroke-opacity:1" d="M 116.605,382.032 122.861,389.182 z" id="boundary" inkscape:connector-curvature="0" />
	<path style="fill:none;stroke:red;stroke-width:1px;stroke-linecap:butt;stroke-linejoin:miter;stroke-opacity:1" d="M 120.18,492.85 124.649,500.894 z" id="boundary" inkscape:connector-curvature="0" />
	<path style="fill:none;stroke:red;stroke-width:1px;stroke-linecap:butt;stroke-linejoin:miter;stroke-opacity:1" d="M 121.968,419.568 130.011,424.036 z" id="boundary" inkscape:connector-curvature="0" />
	<path style="fill:none;stroke:red;stroke-width:1px;stroke-linecap:butt;stroke-linejoin:miter;stroke-opacity:1" d="M 122.861,389.182 130.011,395.438 z" id="boundary" inkscape:connector-curvature="0" />
	<path style="fill:none;stroke:red;stroke-width:1px;stroke-linecap:butt;stroke-linejoin:miter;stroke-opacity:1" d="M 124.649,500.894 130.011,508.043 z" id="boundary" inkscape:connector-curvature="0" />
	<path style="fill:none;stroke:red;stroke-width:1px;stroke-linecap:butt;stroke-linejoin:miter;stroke-opacity:1" d="M 125.542,212.231 134.479,214.018 z" id="boundary" inkscape:connector-curvature="0" />
	<path style="fill:none;stroke:red;stroke-width:1px;stroke-linecap:butt;stroke-linejoin:miter;stroke-opacity:1" d="M 130.011,395.438 136.267,402.587 z" id="boundary" inkscape:connector-curvature="0" />
	<path style="fill:none;stroke:red;stroke-width:1px;stroke-linecap:butt;stroke-linejoin:miter;stroke-opacity:1" d="M 130.011,424.036 138.948,424.036 z" id="boundary" inkscape:connector-curvature="0" />
	<path style="fill:none;stroke:red;stroke-width:1px;stroke-linecap:butt;stroke-linejoin:miter;stroke-opacity:1" d="M 134.479,214.018 143.416,216.699 z" id="boundary" inkscape:connector-curvature="0" />
	<path style="fill:none;stroke:red;stroke-width:1px;stroke-linecap:butt;stroke-linejoin:miter;stroke-opacity:1" d="M 136.267,402.587 138.054,411.524 z" id="boundary" inkscape:connector-curvature="0" />
	<path style="fill:none;stroke:red;stroke-width:1px;stroke-linecap:butt;stroke-linejoin:miter;stroke-opacity:1" d="M 138.948,424.036 146.991,428.505 z" id="boundary" inkscape:connector-curvature="0" />
	<path style="fill:none;stroke:red;stroke-width:1px;stroke-linecap:butt;stroke-linejoin:miter;stroke-opacity:1" d="M 143.416,216.699 151.459,221.168 z" id="boundary" inkscape:connector-curvature="0" />
	<path style="fill:none;stroke:red;stroke-width:1px;stroke-linecap:butt;stroke-linejoin:miter;stroke-opacity:1" d="M 143.416,521.449 151.459,525.917 z" id="boundary" inkscape:connector-curvature="0" />
	<path style="fill:none;stroke:red;stroke-width:1px;stroke-linecap:butt;stroke-linejoin:miter;stroke-opacity:1" d="M 151.459,104.987 151.459,113.924 z" id="boundary" inkscape:connector-curvature="0" />
	<path style="fill:none;stroke:red;stroke-width:1px;stroke-linecap:butt;stroke-linejoin:miter;stroke-opacity:1" d="M 151.459,104.987 155.928,91.582 z" id="boundary" inkscape:connector-curvature="0" />
	<path style="fill:none;stroke:red;stroke-width:1px;stroke-linecap:butt;stroke-linejoin:miter;stroke-opacity:1" d="M 151.459,113.924 151.459,122.861 z" id="boundary" inkscape:connector-curvature="0" />
	<path style="fill:none;stroke:red;stroke-width:1px;stroke-linecap:butt;stroke-linejoin:miter;stroke-opacity:1" d="M 151.459,122.861 151.459,131.798 z" id="boundary" inkscape:connector-curvature="0" />
	<path style="fill:none;stroke:red;stroke-width:1px;stroke-linecap:butt;stroke-linejoin:miter;stroke-opacity:1" d="M 151.459,131.798 151.459,140.735 z" id="boundary" inkscape:connector-curvature="0" />
	<path style="fill:none;stroke:red;stroke-width:1px;stroke-linecap:butt;stroke-linejoin:miter;stroke-opacity:1" d="M 151.459,140.735 151.459,149.672 z" id="boundary" inkscape:connector-curvature="0" />
	<path style="fill:none;stroke:red;stroke-width:1px;stroke-linecap:butt;stroke-linejoin:miter;stroke-opacity:1" d="M 151.459,149.672 151.459,158.609 z" id="boundary" inkscape:connector-curvature="0" />
	<path style="fill:none;stroke:red;stroke-width:1px;stroke-linecap:butt;stroke-linejoin:miter;stroke-opacity:1" d="M 151.459,158.609 151.459,167.546 z" id="boundary" inkscape:connector-curvature="0" />
	<path style="fill:none;stroke:red;stroke-width:1px;stroke-linecap:butt;stroke-linejoin:miter;stroke-opacity:1" d="M 151.459,167.546 151.459,176.483 z" id="boundary" inkscape:connector-curvature="0" />
	<path style="fill:none;stroke:red;stroke-width:1px;stroke-linecap:butt;stroke-linejoin:miter;stroke-opacity:1" d="M 151.459,176.483 151.459,185.42 z" id="boundary" inkscape:connector-curvature="0" />
	<path style="fill:none;stroke:red;stroke-width:1px;stroke-linecap:butt;stroke-linejoin:miter;stroke-opacity:1" d="M 151.459,185.42 155.928,193.463 z" id="boundary" inkscape:connector-curvature="0" />
	<path style="fill:none;stroke:red;stroke-width:1px;stroke-linecap:butt;stroke-linejoin:miter;stroke-opacity:1" d="M 151.459,221.168 155.928,211.337 z" id="boundary" inkscape:connector-curvature="0" />
	<path style="fill:none;stroke:red;stroke-width:1px;stroke-linecap:butt;stroke-linejoin:miter;stroke-opacity:1" d="M 151.459,525.917 155.928,533.96 z" id="boundary" inkscape:connector-curvature="0" />
	<path style="fill:none;stroke:red;stroke-width:1px;stroke-linecap:butt;stroke-linejoin:miter;stroke-opacity:1" d="M 155.928,73.7081 155.928,82.645 z" id="boundary" inkscape:connector-curvature="0" />
	<path style="fill:none;stroke:red;stroke-width:1px;stroke-linecap:butt;stroke-linejoin:miter;stroke-opacity:1" d="M 155.928,73.7081 160.396,60.3027 z" id="boundary" inkscape:connector-curvature="0" />
	<path style="fill:none;stroke:red;stroke-width:1px;stroke-linecap:butt;stroke-linejoin:miter;stroke-opacity:1" d="M 155.928,82.645 155.928,91.582 z" id="boundary" inkscape:connector-curvature="0" />
	<path style="fill:none;stroke:red;stroke-width:1px;stroke-linecap:butt;stroke-linejoin:miter;stroke-opacity:1" d="M 155.928,193.463 155.928,202.4 z" id="boundary" inkscape:connector-curvature="0" />
	<path style="fill:none;stroke:red;stroke-width:1px;stroke-linecap:butt;stroke-linejoin:miter;stroke-opacity:1" d="M 155.928,202.4 155.928,211.337 z" id="boundary" inkscape:connector-curvature="0" />
	<path style="fill:none;stroke:red;stroke-width:1px;stroke-linecap:butt;stroke-linejoin:miter;stroke-opacity:1" d="M 155.928,533.96 163.077,540.216 z" id="boundary" inkscape:connector-curvature="0" />
	<path style="fill:none;stroke:red;stroke-width:1px;stroke-linecap:butt;stroke-linejoin:miter;stroke-opacity:1" d="M 160.396,51.3658 160.396,60.3027 z" id="boundary" inkscape:connector-curvature="0" />
	<path style="fill:none;stroke:red;stroke-width:1px;stroke-linecap:butt;stroke-linejoin:miter;stroke-opacity:1" d="M 160.396,51.3658 167.546,44.2162 z" id="boundary" inkscape:connector-curvature="0" />
	<path style="fill:none;stroke:red;stroke-width:1px;stroke-linecap:butt;stroke-linejoin:miter;stroke-opacity:1" d="M 163.077,540.216 171.121,544.685 z" id="boundary" inkscape:connector-curvature="0" />
	<path style="fill:none;stroke:red;stroke-width:1px;stroke-linecap:butt;stroke-linejoin:miter;stroke-opacity:1" d="M 167.546,44.2162 176.483,39.7477 z" id="boundary" inkscape:connector-curvature="0" />
	<path style="fill:none;stroke:red;stroke-width:1px;stroke-linecap:butt;stroke-linejoin:miter;stroke-opacity:1" d="M 171.121,544.685 178.27,550.047 z" id="boundary" inkscape:connector-curvature="0" />
	<path style="fill:none;stroke:red;stroke-width:1px;stroke-linecap:butt;stroke-linejoin:miter;stroke-opacity:1" d="M 173.802,668.014 173.802,676.951 z" id="boundary" inkscape:connector-curvature="0" />
	<path style="fill:none;stroke:red;stroke-width:1px;stroke-linecap:butt;stroke-linejoin:miter;stroke-opacity:1" d="M 173.802,668.014 180.951,660.865 z" id="boundary" inkscape:connector-curvature="0" />
	<path style="fill:none;stroke:red;stroke-width:1px;stroke-linecap:butt;stroke-linejoin:miter;stroke-opacity:1" d="M 173.802,676.951 178.27,684.995 z" id="boundary" inkscape:connector-curvature="0" />
	<path style="fill:none;stroke:red;stroke-width:1px;stroke-linecap:butt;stroke-linejoin:miter;stroke-opacity:1" d="M 176.483,39.7477 185.42,39.7477 z" id="boundary" inkscape:connector-curvature="0" />
	<path style="fill:none;stroke:red;stroke-width:1px;stroke-linecap:butt;stroke-linejoin:miter;stroke-opacity:1" d="M 178.27,550.047 186.314,554.515 z" id="boundary" inkscape:connector-curvature="0" />
	<path style="fill:none;stroke:red;stroke-width:1px;stroke-linecap:butt;stroke-linejoin:miter;stroke-opacity:1" d="M 178.27,684.995 182.739,693.038 z" id="boundary" inkscape:connector-curvature="0" />
	<path style="fill:none;stroke:red;stroke-width:1px;stroke-linecap:butt;stroke-linejoin:miter;stroke-opacity:1" d="M 180.951,660.865 188.995,656.396 z" id="boundary" inkscape:connector-curvature="0" />
	<path style="fill:none;stroke:red;stroke-width:1px;stroke-linecap:butt;stroke-linejoin:miter;stroke-opacity:1" d="M 182.739,693.038 188.101,700.187 z" id="boundary" inkscape:connector-curvature="0" />
	<path style="fill:none;stroke:red;stroke-width:1px;stroke-linecap:butt;stroke-linejoin:miter;stroke-opacity:1" d="M 185.42,39.7477 194.357,39.7477 z" id="boundary" inkscape:connector-curvature="0" />
	<path style="fill:none;stroke:red;stroke-width:1px;stroke-linecap:butt;stroke-linejoin:miter;stroke-opacity:1" d="M 186.314,554.515 192.569,561.665 z" id="boundary" inkscape:connector-curvature="0" />
	<path style="fill:none;stroke:red;stroke-width:1px;stroke-linecap:butt;stroke-linejoin:miter;stroke-opacity:1" d="M 188.101,700.187 195.25,706.443 z" id="boundary" inkscape:connector-curvature="0" />
	<path style="fill:none;stroke:red;stroke-width:1px;stroke-linecap:butt;stroke-linejoin:miter;stroke-opacity:1" d="M 188.995,656.396 197.932,656.396 z" id="boundary" inkscape:connector-curvature="0" />
	<path style="fill:none;stroke:red;stroke-width:1px;stroke-linecap:butt;stroke-linejoin:miter;stroke-opacity:1" d="M 192.569,561.665 197.038,569.708 z" id="boundary" inkscape:connector-curvature="0" />
	<path style="fill:none;stroke:red;stroke-width:1px;stroke-linecap:butt;stroke-linejoin:miter;stroke-opacity:1" d="M 194.357,39.7477 203.294,39.7477 z" id="boundary" inkscape:connector-curvature="0" />
	<path style="fill:none;stroke:red;stroke-width:1px;stroke-linecap:butt;stroke-linejoin:miter;stroke-opacity:1" d="M 195.25,706.443 198.825,715.38 z" id="boundary" inkscape:connector-curvature="0" />
	<path style="fill:none;stroke:red;stroke-width:1px;stroke-linecap:butt;stroke-linejoin:miter;stroke-opacity:1" d="M 197.038,569.708 200.613,578.645 z" id="boundary" inkscape:connector-curvature="0" />
	<path style="fill:none;stroke:red;stroke-width:1px;stroke-linecap:butt;stroke-linejoin:miter;stroke-opacity:1" d="M 197.932,656.396 206.868,656.396 z" id="boundary" inkscape:connector-curvature="0" />
	<path style="fill:none;stroke:red;stroke-width:1px;stroke-linecap:butt;stroke-linejoin:miter;stroke-opacity:1" d="M 198.825,715.38 205.081,722.53 z" id="boundary" inkscape:connector-curvature="0" />
	<path style="fill:none;stroke:red;stroke-width:1px;stroke-linecap:butt;stroke-linejoin:miter;stroke-opacity:1" d="M 200.613,578.645 205.081,586.688 z" id="boundary" inkscape:connector-curvature="0" />
	<path style="fill:none;stroke:red;stroke-width:1px;stroke-linecap:butt;stroke-linejoin:miter;stroke-opacity:1" d="M 203.294,39.7477 212.231,39.7477 z" id="boundary" inkscape:connector-curvature="0" />
	<path style="fill:none;stroke:red;stroke-width:1px;stroke-linecap:butt;stroke-linejoin:miter;stroke-opacity:1" d="M 205.081,586.688 209.55,594.732 z" id="boundary" inkscape:connector-curvature="0" />
	<path style="fill:none;stroke:red;stroke-width:1px;stroke-linecap:butt;stroke-linejoin:miter;stroke-opacity:1" d="M 205.081,722.53 209.55,730.573 z" id="boundary" inkscape:connector-curvature="0" />
	<path style="fill:none;stroke:red;stroke-width:1px;stroke-linecap:butt;stroke-linejoin:miter;stroke-opacity:1" d="M 206.868,656.396 214.912,660.865 z" id="boundary" inkscape:connector-curvature="0" />
	<path style="fill:none;stroke:red;stroke-width:1px;stroke-linecap:butt;stroke-linejoin:miter;stroke-opacity:1" d="M 209.55,594.732 214.912,601.881 z" id="boundary" inkscape:connector-curvature="0" />
	<path style="fill:none;stroke:red;stroke-width:1px;stroke-linecap:butt;stroke-linejoin:miter;stroke-opacity:1" d="M 209.55,730.573 214.018,738.616 z" id="boundary" inkscape:connector-curvature="0" />
	<path style="fill:none;stroke:red;stroke-width:1px;stroke-linecap:butt;stroke-linejoin:miter;stroke-opacity:1" d="M 212.231,39.7477 221.168,39.7477 z" id="boundary" inkscape:connector-curvature="0" />
	<path style="fill:none;stroke:red;stroke-width:1px;stroke-linecap:butt;stroke-linejoin:miter;stroke-opacity:1" d="M 214.912,601.881 222.061,608.137 z" id="boundary" inkscape:connector-curvature="0" />
	<path style="fill:none;stroke:red;stroke-width:1px;stroke-linecap:butt;stroke-linejoin:miter;stroke-opacity:1" d="M 214.912,660.865 223.849,663.546 z" id="boundary" inkscape:connector-curvature="0" />
	<path style="fill:none;stroke:red;stroke-width:1px;stroke-linecap:butt;stroke-linejoin:miter;stroke-opacity:1" d="M 221.168,39.7477 230.105,35.2793 z" id="boundary" inkscape:connector-curvature="0" />
	<path style="fill:none;stroke:red;stroke-width:1px;stroke-linecap:butt;stroke-linejoin:miter;stroke-opacity:1" d="M 222.061,608.137 225.636,617.074 z" id="boundary" inkscape:connector-curvature="0" />
	<path style="fill:none;stroke:red;stroke-width:1px;stroke-linecap:butt;stroke-linejoin:miter;stroke-opacity:1" d="M 223.849,663.546 231.892,668.014 z" id="boundary" inkscape:connector-curvature="0" />
	<path style="fill:none;stroke:red;stroke-width:1px;stroke-linecap:butt;stroke-linejoin:miter;stroke-opacity:1" d="M 225.636,617.074 227.423,626.011 z" id="boundary" inkscape:connector-curvature="0" />
	<path style="fill:none;stroke:red;stroke-width:1px;stroke-linecap:butt;stroke-linejoin:miter;stroke-opacity:1" d="M 227.423,626.011 232.786,633.16 z" id="boundary" inkscape:connector-curvature="0" />
	<path style="fill:none;stroke:red;stroke-width:1px;stroke-linecap:butt;stroke-linejoin:miter;stroke-opacity:1" d="M 227.423,751.128 227.423,760.065 z" id="boundary" inkscape:connector-curvature="0" />
	<path style="fill:none;stroke:red;stroke-width:1px;stroke-linecap:butt;stroke-linejoin:miter;stroke-opacity:1" d="M 227.423,760.065 232.786,767.214 z" id="boundary" inkscape:connector-curvature="0" />
	<path style="fill:none;stroke:red;stroke-width:1px;stroke-linecap:butt;stroke-linejoin:miter;stroke-opacity:1" d="M 230.105,35.2793 239.041,35.2793 z" id="boundary" inkscape:connector-curvature="0" />
	<path style="fill:none;stroke:red;stroke-width:1px;stroke-linecap:butt;stroke-linejoin:miter;stroke-opacity:1" d="M 231.892,668.014 240.829,669.802 z" id="boundary" inkscape:connector-curvature="0" />
	<path style="fill:none;stroke:red;stroke-width:1px;stroke-linecap:butt;stroke-linejoin:miter;stroke-opacity:1" d="M 232.786,633.16 239.935,639.416 z" id="boundary" inkscape:connector-curvature="0" />
	<path style="fill:none;stroke:red;stroke-width:1px;stroke-linecap:butt;stroke-linejoin:miter;stroke-opacity:1" d="M 232.786,767.214 239.935,773.47 z" id="boundary" inkscape:connector-curvature="0" />
	<path style="fill:none;stroke:red;stroke-width:1px;stroke-linecap:butt;stroke-linejoin:miter;stroke-opacity:1" d="M 239.041,35.2793 247.978,35.2793 z" id="boundary" inkscape:connector-curvature="0" />
	<path style="fill:none;stroke:red;stroke-width:1px;stroke-linecap:butt;stroke-linejoin:miter;stroke-opacity:1" d="M 239.935,639.416 243.51,648.353 z" id="boundary" inkscape:connector-curvature="0" />
	<path style="fill:none;stroke:red;stroke-width:1px;stroke-linecap:butt;stroke-linejoin:miter;stroke-opacity:1" d="M 239.935,773.47 245.297,780.62 z" id="boundary" inkscape:connector-curvature="0" />
	<path style="fill:none;stroke:red;stroke-width:1px;stroke-linecap:butt;stroke-linejoin:miter;stroke-opacity:1" d="M 240.829,669.802 250.659,674.27 z" id="boundary" inkscape:connector-curvature="0" />
	<path style="fill:none;stroke:red;stroke-width:1px;stroke-linecap:butt;stroke-linejoin:miter;stroke-opacity:1" d="M 243.51,648.353 247.978,656.396 z" id="boundary" inkscape:connector-curvature="0" />
	<path style="fill:none;stroke:red;stroke-width:1px;stroke-linecap:butt;stroke-linejoin:miter;stroke-opacity:1" d="M 245.297,780.62 249.766,788.663 z" id="boundary" inkscape:connector-curvature="0" />
	<path style="fill:none;stroke:red;stroke-width:1px;stroke-linecap:butt;stroke-linejoin:miter;stroke-opacity:1" d="M 247.978,35.2793 256.915,30.8108 z" id="boundary" inkscape:connector-curvature="0" />
	<path style="fill:none;stroke:red;stroke-width:1px;stroke-linecap:butt;stroke-linejoin:miter;stroke-opacity:1" d="M 247.978,656.396 249.766,665.333 z" id="boundary" inkscape:connector-curvature="0" />
	<path style="fill:none;stroke:red;stroke-width:1px;stroke-linecap:butt;stroke-linejoin:miter;stroke-opacity:1" d="M 249.766,665.333 250.659,674.27 z" id="boundary" inkscape:connector-curvature="0" />
	<path style="fill:none;stroke:red;stroke-width:1px;stroke-linecap:butt;stroke-linejoin:miter;stroke-opacity:1" d="M 249.766,788.663 254.234,796.706 z" id="boundary" inkscape:connector-curvature="0" />
	<path style="fill:none;stroke:red;stroke-width:1px;stroke-linecap:butt;stroke-linejoin:miter;stroke-opacity:1" d="M 254.234,796.706 260.49,803.856 z" id="boundary" inkscape:connector-curvature="0" />
	<path style="fill:none;stroke:red;stroke-width:1px;stroke-linecap:butt;stroke-linejoin:miter;stroke-opacity:1" d="M 256.915,30.8108 265.852,30.8108 z" id="boundary" inkscape:connector-curvature="0" />
	<path style="fill:none;stroke:red;stroke-width:1px;stroke-linecap:butt;stroke-linejoin:miter;stroke-opacity:1" d="M 260.49,803.856 264.959,811.899 z" id="boundary" inkscape:connector-curvature="0" />
	<path style="fill:none;stroke:red;stroke-width:1px;stroke-linecap:butt;stroke-linejoin:miter;stroke-opacity:1" d="M 264.959,811.899 272.108,818.155 z" id="boundary" inkscape:connector-curvature="0" />
	<path style="fill:none;stroke:red;stroke-width:1px;stroke-linecap:butt;stroke-linejoin:miter;stroke-opacity:1" d="M 265.852,30.8108 274.789,30.8108 z" id="boundary" inkscape:connector-curvature="0" />
	<path style="fill:none;stroke:red;stroke-width:1px;stroke-linecap:butt;stroke-linejoin:miter;stroke-opacity:1" d="M 272.108,818.155 276.577,826.198 z" id="boundary" inkscape:connector-curvature="0" />
	<path style="fill:none;stroke:red;stroke-width:1px;stroke-linecap:butt;stroke-linejoin:miter;stroke-opacity:1" d="M 274.789,30.8108 282.832,26.3423 z" id="boundary" inkscape:connector-curvature="0" />
	<path style="fill:none;stroke:red;stroke-width:1px;stroke-linecap:butt;stroke-linejoin:miter;stroke-opacity:1" d="M 276.577,826.198 281.045,834.241 z" id="boundary" inkscape:connector-curvature="0" />
	<path style="fill:none;stroke:red;stroke-width:1px;stroke-linecap:butt;stroke-linejoin:miter;stroke-opacity:1" d="M 281.045,834.241 285.514,842.285 z" id="boundary" inkscape:connector-curvature="0" />
	<path style="fill:none;stroke:red;stroke-width:1px;stroke-linecap:butt;stroke-linejoin:miter;stroke-opacity:1" d="M 282.832,26.3423 291.769,26.3423 z" id="boundary" inkscape:connector-curvature="0" />
	<path style="fill:none;stroke:red;stroke-width:1px;stroke-linecap:butt;stroke-linejoin:miter;stroke-opacity:1" d="M 285.514,842.285 292.663,848.541 z" id="boundary" inkscape:connector-curvature="0" />
	<path style="fill:none;stroke:red;stroke-width:1px;stroke-linecap:butt;stroke-linejoin:miter;stroke-opacity:1" d="M 291.769,26.3423 299.813,21.8739 z" id="boundary" inkscape:connector-curvature="0" />
	<path style="fill:none;stroke:red;stroke-width:1px;stroke-linecap:butt;stroke-linejoin:miter;stroke-opacity:1" d="M 292.663,848.541 298.919,855.69 z" id="boundary" inkscape:connector-curvature="0" />
	<path style="fill:none;stroke:red;stroke-width:1px;stroke-linecap:butt;stroke-linejoin:miter;stroke-opacity:1" d="M 298.919,855.69 298.919,864.627 z" id="boundary" inkscape:connector-curvature="0" />
	<path style="fill:none;stroke:red;stroke-width:1px;stroke-linecap:butt;stroke-linejoin:miter;stroke-opacity:1" d="M 298.919,864.627 303.387,872.67 z" id="boundary" inkscape:connector-curvature="0" />
	<path style="fill:none;stroke:red;stroke-width:1px;stroke-linecap:butt;stroke-linejoin:miter;stroke-opacity:1" d="M 299.813,21.8739 308.75,21.8739 z" id="boundary" inkscape:connector-curvature="0" />
	<path style="fill:none;stroke:red;stroke-width:1px;stroke-linecap:butt;stroke-linejoin:miter;stroke-opacity:1" d="M 303.387,872.67 309.643,879.82 z" id="boundary" inkscape:connector-curvature="0" />
	<path style="fill:none;stroke:red;stroke-width:1px;stroke-linecap:butt;stroke-linejoin:miter;stroke-opacity:1" d="M 308.75,21.8739 317.686,21.8739 z" id="boundary" inkscape:connector-curvature="0" />
	<path style="fill:none;stroke:red;stroke-width:1px;stroke-linecap:butt;stroke-linejoin:miter;stroke-opacity:1" d="M 309.643,879.82 314.112,887.863 z" id="boundary" inkscape:connector-curvature="0" />
	<path style="fill:none;stroke:red;stroke-width:1px;stroke-linecap:butt;stroke-linejoin:miter;stroke-opacity:1" d="M 314.112,887.863 317.686,896.8 z" id="boundary" inkscape:connector-curvature="0" />
	<path style="fill:none;stroke:red;stroke-width:1px;stroke-linecap:butt;stroke-linejoin:miter;stroke-opacity:1" d="M 317.686,21.8739 326.623,21.8739 z" id="boundary" inkscape:connector-curvature="0" />
	<path style="fill:none;stroke:red;stroke-width:1px;stroke-linecap:butt;stroke-linejoin:miter;stroke-opacity:1" d="M 317.686,896.8 322.155,904.843 z" id="boundary" inkscape:connector-curvature="0" />
	<path style="fill:none;stroke:red;stroke-width:1px;stroke-linecap:butt;stroke-linejoin:miter;stroke-opacity:1" d="M 322.155,904.843 325.73,913.78 z" id="boundary" inkscape:connector-curvature="0" />
	<path style="fill:none;stroke:red;stroke-width:1px;stroke-linecap:butt;stroke-linejoin:miter;stroke-opacity:1" d="M 325.73,913.78 330.198,921.823 z" id="boundary" inkscape:connector-curvature="0" />
	<path style="fill:none;stroke:red;stroke-width:1px;stroke-linecap:butt;stroke-linejoin:miter;stroke-opacity:1" d="M 326.623,21.8739 335.56,19.1928 z" id="boundary" inkscape:connector-curvature="0" />
	<path style="fill:none;stroke:red;stroke-width:1px;stroke-linecap:butt;stroke-linejoin:miter;stroke-opacity:1" d="M 330.198,921.823 330.198,930.76 z" id="boundary" inkscape:connector-curvature="0" />
	<path style="fill:none;stroke:red;stroke-width:1px;stroke-linecap:butt;stroke-linejoin:miter;stroke-opacity:1" d="M 330.198,930.76 334.667,938.804 z" id="boundary" inkscape:connector-curvature="0" />
	<path style="fill:none;stroke:red;stroke-width:1px;stroke-linecap:butt;stroke-linejoin:miter;stroke-opacity:1" d="M 334.667,938.804 334.667,947.741 z" id="boundary" inkscape:connector-curvature="0" />
	<path style="fill:none;stroke:red;stroke-width:1px;stroke-linecap:butt;stroke-linejoin:miter;stroke-opacity:1" d="M 334.667,947.741 334.667,962.933 z" id="boundary" inkscape:connector-curvature="0" />
	<path style="fill:none;stroke:red;stroke-width:1px;stroke-linecap:butt;stroke-linejoin:miter;stroke-opacity:1" d="M 334.667,962.933 334.667,971.87 z" id="boundary" inkscape:connector-curvature="0" />
	<path style="fill:none;stroke:red;stroke-width:1px;stroke-linecap:butt;stroke-linejoin:miter;stroke-opacity:1" d="M 334.667,971.87 334.667,980.807 z" id="boundary" inkscape:connector-curvature="0" />
	<path style="fill:none;stroke:red;stroke-width:1px;stroke-linecap:butt;stroke-linejoin:miter;stroke-opacity:1" d="M 334.667,980.807 334.667,989.744 z" id="boundary" inkscape:connector-curvature="0" />
	<path style="fill:none;stroke:red;stroke-width:1px;stroke-linecap:butt;stroke-linejoin:miter;stroke-opacity:1" d="M 334.667,989.744 341.816,996 z" id="boundary" inkscape:connector-curvature="0" />
	<path style="fill:none;stroke:red;stroke-width:1px;stroke-linecap:butt;stroke-linejoin:miter;stroke-opacity:1" d="M 335.56,19.1928 344.497,17.4054 z" id="boundary" inkscape:connector-curvature="0" />
	<path style="fill:none;stroke:red;stroke-width:1px;stroke-linecap:butt;stroke-linejoin:miter;stroke-opacity:1" d="M 341.816,996 350.753,996 z" id="boundary" inkscape:connector-curvature="0" />
	<path style="fill:none;stroke:red;stroke-width:1px;stroke-linecap:butt;stroke-linejoin:miter;stroke-opacity:1" d="M 344.497,17.4054 353.434,14.7243 z" id="boundary" inkscape:connector-curvature="0" />
	<path style="fill:none;stroke:red;stroke-width:1px;stroke-linecap:butt;stroke-linejoin:miter;stroke-opacity:1" d="M 350.753,996 357.903,987.957 z" id="boundary" inkscape:connector-curvature="0" />
	<path style="fill:none;stroke:red;stroke-width:1px;stroke-linecap:butt;stroke-linejoin:miter;stroke-opacity:1" d="M 353.434,14.7243 362.371,12.9369 z" id="boundary" inkscape:connector-curvature="0" />
	<path style="fill:none;stroke:red;stroke-width:1px;stroke-linecap:butt;stroke-linejoin:miter;stroke-opacity:1" d="M 357.903,970.083 357.903,979.02 z" id="boundary" inkscape:connector-curvature="0" />
	<path style="fill:none;stroke:red;stroke-width:1px;stroke-linecap:butt;stroke-linejoin:miter;stroke-opacity:1" d="M 357.903,970.083 362.371,961.146 z" id="boundary" inkscape:connector-curvature="0" />
	<path style="fill:none;stroke:red;stroke-width:1px;stroke-linecap:butt;stroke-linejoin:miter;stroke-opacity:1" d="M 357.903,979.02 357.903,987.957 z" id="boundary" inkscape:connector-curvature="0" />
	<path style="fill:none;stroke:red;stroke-width:1px;stroke-linecap:butt;stroke-linejoin:miter;stroke-opacity:1" d="M 362.371,12.9369 370.414,8.46847 z" id="boundary" inkscape:connector-curvature="0" />
	<path style="fill:none;stroke:red;stroke-width:1px;stroke-linecap:butt;stroke-linejoin:miter;stroke-opacity:1" d="M 362.371,952.209 362.371,961.146 z" id="boundary" inkscape:connector-curvature="0" />
	<path style="fill:none;stroke:red;stroke-width:1px;stroke-linecap:butt;stroke-linejoin:miter;stroke-opacity:1" d="M 362.371,952.209 366.84,938.804 z" id="boundary" inkscape:connector-curvature="0" />
	<path style="fill:none;stroke:red;stroke-width:1px;stroke-linecap:butt;stroke-linejoin:miter;stroke-opacity:1" d="M 366.84,938.804 371.308,929.867 z" id="boundary" inkscape:connector-curvature="0" />
	<path style="fill:none;stroke:red;stroke-width:1px;stroke-linecap:butt;stroke-linejoin:miter;stroke-opacity:1" d="M 370.414,8.46847 379.351,8.46847 z" id="boundary" inkscape:connector-curvature="0" />
	<path style="fill:none;stroke:red;stroke-width:1px;stroke-linecap:butt;stroke-linejoin:miter;stroke-opacity:1" d="M 371.308,929.867 378.458,923.611 z" id="boundary" inkscape:connector-curvature="0" />
	<path style="fill:none;stroke:red;stroke-width:1px;stroke-linecap:butt;stroke-linejoin:miter;stroke-opacity:1" d="M 378.458,923.611 382.926,914.674 z" id="boundary" inkscape:connector-curvature="0" />
	<path style="fill:none;stroke:red;stroke-width:1px;stroke-linecap:butt;stroke-linejoin:miter;stroke-opacity:1" d="M 379.351,8.46847 388.288,6.68108 z" id="boundary" inkscape:connector-curvature="0" />
	<path style="fill:none;stroke:red;stroke-width:1px;stroke-linecap:butt;stroke-linejoin:miter;stroke-opacity:1" d="M 382.926,914.674 384.714,903.056 z" id="boundary" inkscape:connector-curvature="0" />
	<path style="fill:none;stroke:red;stroke-width:1px;stroke-linecap:butt;stroke-linejoin:miter;stroke-opacity:1" d="M 384.714,903.056 391.863,896.8 z" id="boundary" inkscape:connector-curvature="0" />
	<path style="fill:none;stroke:red;stroke-width:1px;stroke-linecap:butt;stroke-linejoin:miter;stroke-opacity:1" d="M 388.288,6.68108 397.225,4 z" id="boundary" inkscape:connector-curvature="0" />
	<path style="fill:none;stroke:red;stroke-width:1px;stroke-linecap:butt;stroke-linejoin:miter;stroke-opacity:1" d="M 391.863,896.8 396.332,887.863 z" id="boundary" inkscape:connector-curvature="0" />
	<path style="fill:none;stroke:red;stroke-width:1px;stroke-linecap:butt;stroke-linejoin:miter;stroke-opacity:1" d="M 396.332,887.863 402.587,876.245 z" id="boundary" inkscape:connector-curvature="0" />
	<path style="fill:none;stroke:red;stroke-width:1px;stroke-linecap:butt;stroke-linejoin:miter;stroke-opacity:1" d="M 397.225,4 406.162,5.78739 z" id="boundary" inkscape:connector-curvature="0" />
	<path style="fill:none;stroke:red;stroke-width:1px;stroke-linecap:butt;stroke-linejoin:miter;stroke-opacity:1" d="M 402.587,876.245 407.056,867.308 z" id="boundary" inkscape:connector-curvature="0" />
	<path style="fill:none;stroke:red;stroke-width:1px;stroke-linecap:butt;stroke-linejoin:miter;stroke-opacity:1" d="M 406.162,5.78739 411.524,12.9369 z" id="boundary" inkscape:connector-curvature="0" />
	<path style="fill:none;stroke:red;stroke-width:1px;stroke-linecap:butt;stroke-linejoin:miter;stroke-opacity:1" d="M 407.056,867.308 414.205,861.052 z" id="boundary" inkscape:connector-curvature="0" />
	<path style="fill:none;stroke:red;stroke-width:1px;stroke-linecap:butt;stroke-linejoin:miter;stroke-opacity:1" d="M 411.524,12.9369 415.993,20.9802 z" id="boundary" inkscape:connector-curvature="0" />
	<path style="fill:none;stroke:red;stroke-width:1px;stroke-linecap:butt;stroke-linejoin:miter;stroke-opacity:1" d="M 414.205,861.052 420.461,849.434 z" id="boundary" inkscape:connector-curvature="0" />
	<path style="fill:none;stroke:red;stroke-width:1px;stroke-linecap:butt;stroke-linejoin:miter;stroke-opacity:1" d="M 415.993,20.9802 415.993,29.9171 z" id="boundary" inkscape:connector-curvature="0" />
	<path style="fill:none;stroke:red;stroke-width:1px;stroke-linecap:butt;stroke-linejoin:miter;stroke-opacity:1" d="M 415.993,29.9171 415.993,38.8541 z" id="boundary" inkscape:connector-curvature="0" />
	<path style="fill:none;stroke:red;stroke-width:1px;stroke-linecap:butt;stroke-linejoin:miter;stroke-opacity:1" d="M 415.993,38.8541 415.993,47.791 z" id="boundary" inkscape:connector-curvature="0" />
	<path style="fill:none;stroke:red;stroke-width:1px;stroke-linecap:butt;stroke-linejoin:miter;stroke-opacity:1" d="M 415.993,47.791 415.993,56.7279 z" id="boundary" inkscape:connector-curvature="0" />
	<path style="fill:none;stroke:red;stroke-width:1px;stroke-linecap:butt;stroke-linejoin:miter;stroke-opacity:1" d="M 415.993,56.7279 415.993,65.6649 z" id="boundary" inkscape:connector-curvature="0" />
	<path style="fill:none;stroke:red;stroke-width:1px;stroke-linecap:butt;stroke-linejoin:miter;stroke-opacity:1" d="M 415.993,65.6649 415.993,74.6018 z" id="boundary" inkscape:connector-curvature="0" />
	<path style="fill:none;stroke:red;stroke-width:1px;stroke-linecap:butt;stroke-linejoin:miter;stroke-opacity:1" d="M 415.993,74.6018 415.993,83.5387 z" id="boundary" inkscape:connector-curvature="0" />
	<path style="fill:none;stroke:red;stroke-width:1px;stroke-linecap:butt;stroke-linejoin:miter;stroke-opacity:1" d="M 415.993,83.5387 415.993,92.4757 z" id="boundary" inkscape:connector-curvature="0" />
	<path style="fill:none;stroke:red;stroke-width:1px;stroke-linecap:butt;stroke-linejoin:miter;stroke-opacity:1" d="M 415.993,92.4757 415.993,101.413 z" id="boundary" inkscape:connector-curvature="0" />
	<path style="fill:none;stroke:red;stroke-width:1px;stroke-linecap:butt;stroke-linejoin:miter;stroke-opacity:1" d="M 415.993,101.413 415.993,110.35 z" id="boundary" inkscape:connector-curvature="0" />
	<path style="fill:none;stroke:red;stroke-width:1px;stroke-linecap:butt;stroke-linejoin:miter;stroke-opacity:1" d="M 415.993,110.35 415.993,119.286 z" id="boundary" inkscape:connector-curvature="0" />
	<path style="fill:none;stroke:red;stroke-width:1px;stroke-linecap:butt;stroke-linejoin:miter;stroke-opacity:1" d="M 415.993,119.286 415.993,128.223 z" id="boundary" inkscape:connector-curvature="0" />
	<path style="fill:none;stroke:red;stroke-width:1px;stroke-linecap:butt;stroke-linejoin:miter;stroke-opacity:1" d="M 415.993,128.223 415.993,137.16 z" id="boundary" inkscape:connector-curvature="0" />
	<path style="fill:none;stroke:red;stroke-width:1px;stroke-linecap:butt;stroke-linejoin:miter;stroke-opacity:1" d="M 415.993,137.16 415.993,146.097 z" id="boundary" inkscape:connector-curvature="0" />
	<path style="fill:none;stroke:red;stroke-width:1px;stroke-linecap:butt;stroke-linejoin:miter;stroke-opacity:1" d="M 415.993,146.097 415.993,155.034 z" id="boundary" inkscape:connector-curvature="0" />
	<path style="fill:none;stroke:red;stroke-width:1px;stroke-linecap:butt;stroke-linejoin:miter;stroke-opacity:1" d="M 415.993,155.034 415.993,163.971 z" id="boundary" inkscape:connector-curvature="0" />
	<path style="fill:none;stroke:red;stroke-width:1px;stroke-linecap:butt;stroke-linejoin:miter;stroke-opacity:1" d="M 415.993,163.971 415.993,172.908 z" id="boundary" inkscape:connector-curvature="0" />
	<path style="fill:none;stroke:red;stroke-width:1px;stroke-linecap:butt;stroke-linejoin:miter;stroke-opacity:1" d="M 415.993,172.908 415.993,181.845 z" id="boundary" inkscape:connector-curvature="0" />
	<path style="fill:none;stroke:red;stroke-width:1px;stroke-linecap:butt;stroke-linejoin:miter;stroke-opacity:1" d="M 415.993,181.845 415.993,190.782 z" id="boundary" inkscape:connector-curvature="0" />
	<path style="fill:none;stroke:red;stroke-width:1px;stroke-linecap:butt;stroke-linejoin:miter;stroke-opacity:1" d="M 415.993,190.782 415.993,199.719 z" id="boundary" inkscape:connector-curvature="0" />
	<path style="fill:none;stroke:red;stroke-width:1px;stroke-linecap:butt;stroke-linejoin:miter;stroke-opacity:1" d="M 415.993,199.719 415.993,208.656 z" id="boundary" inkscape:connector-curvature="0" />
	<path style="fill:none;stroke:red;stroke-width:1px;stroke-linecap:butt;stroke-linejoin:miter;stroke-opacity:1" d="M 415.993,208.656 415.993,217.593 z" id="boundary" inkscape:connector-curvature="0" />
	<path style="fill:none;stroke:red;stroke-width:1px;stroke-linecap:butt;stroke-linejoin:miter;stroke-opacity:1" d="M 415.993,217.593 415.993,226.53 z" id="boundary" inkscape:connector-curvature="0" />
	<path style="fill:none;stroke:red;stroke-width:1px;stroke-linecap:butt;stroke-linejoin:miter;stroke-opacity:1" d="M 415.993,226.53 424.93,227.423 z" id="boundary" inkscape:connector-curvature="0" />
	<path style="fill:none;stroke:red;stroke-width:1px;stroke-linecap:butt;stroke-linejoin:miter;stroke-opacity:1" d="M 420.461,849.434 427.611,843.178 z" id="boundary" inkscape:connector-curvature="0" />
	<path style="fill:none;stroke:red;stroke-width:1px;stroke-linecap:butt;stroke-linejoin:miter;stroke-opacity:1" d="M 424.93,227.423 432.973,222.955 z" id="boundary" inkscape:connector-curvature="0" />
	<path style="fill:none;stroke:red;stroke-width:1px;stroke-linecap:butt;stroke-linejoin:miter;stroke-opacity:1" d="M 427.611,843.178 432.079,834.241 z" id="boundary" inkscape:connector-curvature="0" />
	<path style="fill:none;stroke:red;stroke-width:1px;stroke-linecap:butt;stroke-linejoin:miter;stroke-opacity:1" d="M 432.079,834.241 438.335,827.092 z" id="boundary" inkscape:connector-curvature="0" />
	<path style="fill:none;stroke:red;stroke-width:1px;stroke-linecap:butt;stroke-linejoin:miter;stroke-opacity:1" d="M 432.973,222.955 441.016,218.486 z" id="boundary" inkscape:connector-curvature="0" />
	<path style="fill:none;stroke:red;stroke-width:1px;stroke-linecap:butt;stroke-linejoin:miter;stroke-opacity:1" d="M 438.335,827.092 445.485,820.836 z" id="boundary" inkscape:connector-curvature="0" />
	<path style="fill:none;stroke:red;stroke-width:1px;stroke-linecap:butt;stroke-linejoin:miter;stroke-opacity:1" d="M 441.016,218.486 449.953,218.486 z" id="boundary" inkscape:connector-curvature="0" />
	<path style="fill:none;stroke:red;stroke-width:1px;stroke-linecap:butt;stroke-linejoin:miter;stroke-opacity:1" d="M 445.485,820.836 451.741,804.75 z" id="boundary" inkscape:connector-curvature="0" />
	<path style="fill:none;stroke:red;stroke-width:1px;stroke-linecap:butt;stroke-linejoin:miter;stroke-opacity:1" d="M 449.953,218.486 457.996,214.018 z" id="boundary" inkscape:connector-curvature="0" />
	<path style="fill:none;stroke:red;stroke-width:1px;stroke-linecap:butt;stroke-linejoin:miter;stroke-opacity:1" d="M 451.741,804.75 458.89,798.494 z" id="boundary" inkscape:connector-curvature="0" />
	<path style="fill:none;stroke:red;stroke-width:1px;stroke-linecap:butt;stroke-linejoin:miter;stroke-opacity:1" d="M 457.996,214.018 466.933,214.018 z" id="boundary" inkscape:connector-curvature="0" />
	<path style="fill:none;stroke:red;stroke-width:1px;stroke-linecap:butt;stroke-linejoin:miter;stroke-opacity:1" d="M 458.89,798.494 463.359,789.557 z" id="boundary" inkscape:connector-curvature="0" />
	<path style="fill:none;stroke:red;stroke-width:1px;stroke-linecap:butt;stroke-linejoin:miter;stroke-opacity:1" d="M 463.359,789.557 474.083,773.47 z" id="boundary" inkscape:connector-curvature="0" />
	<path style="fill:none;stroke:red;stroke-width:1px;stroke-linecap:butt;stroke-linejoin:miter;stroke-opacity:1" d="M 466.933,214.018 474.977,209.55 z" id="boundary" inkscape:connector-curvature="0" />
	<path style="fill:none;stroke:red;stroke-width:1px;stroke-linecap:butt;stroke-linejoin:miter;stroke-opacity:1" d="M 474.083,773.47 481.232,767.214 z" id="boundary" inkscape:connector-curvature="0" />
	<path style="fill:none;stroke:red;stroke-width:1px;stroke-linecap:butt;stroke-linejoin:miter;stroke-opacity:1" d="M 474.977,209.55 483.914,209.55 z" id="boundary" inkscape:connector-curvature="0" />
	<path style="fill:none;stroke:red;stroke-width:1px;stroke-linecap:butt;stroke-linejoin:miter;stroke-opacity:1" d="M 481.232,767.214 487.488,755.596 z" id="boundary" inkscape:connector-curvature="0" />
	<path style="fill:none;stroke:red;stroke-width:1px;stroke-linecap:butt;stroke-linejoin:miter;stroke-opacity:1" d="M 483.914,209.55 492.85,209.55 z" id="boundary" inkscape:connector-curvature="0" />
	<path style="fill:none;stroke:red;stroke-width:1px;stroke-linecap:butt;stroke-linejoin:miter;stroke-opacity:1" d="M 487.488,661.759 487.488,670.695 z" id="boundary" inkscape:connector-curvature="0" />
	<path style="fill:none;stroke:red;stroke-width:1px;stroke-linecap:butt;stroke-linejoin:miter;stroke-opacity:1" d="M 487.488,661.759 491.957,648.353 z" id="boundary" inkscape:connector-curvature="0" />
	<path style="fill:none;stroke:red;stroke-width:1px;stroke-linecap:butt;stroke-linejoin:miter;stroke-opacity:1" d="M 487.488,670.695 487.488,679.632 z" id="boundary" inkscape:connector-curvature="0" />
	<path style="fill:none;stroke:red;stroke-width:1px;stroke-linecap:butt;stroke-linejoin:miter;stroke-opacity:1" d="M 487.488,679.632 496.425,678.739 z" id="boundary" inkscape:connector-curvature="0" />
	<path style="fill:none;stroke:red;stroke-width:1px;stroke-linecap:butt;stroke-linejoin:miter;stroke-opacity:1" d="M 487.488,755.596 500.894,742.191 z" id="boundary" inkscape:connector-curvature="0" />
	<path style="fill:none;stroke:red;stroke-width:1px;stroke-linecap:butt;stroke-linejoin:miter;stroke-opacity:1" d="M 491.957,648.353 496.425,639.416 z" id="boundary" inkscape:connector-curvature="0" />
	<path style="fill:none;stroke:red;stroke-width:1px;stroke-linecap:butt;stroke-linejoin:miter;stroke-opacity:1" d="M 492.85,209.55 501.787,209.55 z" id="boundary" inkscape:connector-curvature="0" />
	<path style="fill:none;stroke:red;stroke-width:1px;stroke-linecap:butt;stroke-linejoin:miter;stroke-opacity:1" d="M 496.425,639.416 500.894,630.479 z" id="boundary" inkscape:connector-curvature="0" />
	<path style="fill:none;stroke:red;stroke-width:1px;stroke-linecap:butt;stroke-linejoin:miter;stroke-opacity:1" d="M 496.425,678.739 504.468,674.27 z" id="boundary" inkscape:connector-curvature="0" />
	<path style="fill:none;stroke:red;stroke-width:1px;stroke-linecap:butt;stroke-linejoin:miter;stroke-opacity:1" d="M 500.894,621.542 500.894,630.479 z" id="boundary" inkscape:connector-curvature="0" />
	<path style="fill:none;stroke:red;stroke-width:1px;stroke-linecap:butt;stroke-linejoin:miter;stroke-opacity:1" d="M 500.894,621.542 505.362,612.605 z" id="boundary" inkscape:connector-curvature="0" />
	<path style="fill:none;stroke:red;stroke-width:1px;stroke-linecap:butt;stroke-linejoin:miter;stroke-opacity:1" d="M 500.894,742.191 505.362,733.254 z" id="boundary" inkscape:connector-curvature="0" />
	<path style="fill:none;stroke:red;stroke-width:1px;stroke-linecap:butt;stroke-linejoin:miter;stroke-opacity:1" d="M 501.787,209.55 510.724,209.55 z" id="boundary" inkscape:connector-curvature="0" />
	<path style="fill:none;stroke:red;stroke-width:1px;stroke-linecap:butt;stroke-linejoin:miter;stroke-opacity:1" d="M 504.468,674.27 513.405,674.27 z" id="boundary" inkscape:connector-curvature="0" />
	<path style="fill:none;stroke:red;stroke-width:1px;stroke-linecap:butt;stroke-linejoin:miter;stroke-opacity:1" d="M 505.362,438.335 509.831,429.398 z" id="boundary" inkscape:connector-curvature="0" />
	<path style="fill:none;stroke:red;stroke-width:1px;stroke-linecap:butt;stroke-linejoin:miter;stroke-opacity:1" d="M 505.362,438.335 514.299,439.229 z" id="boundary" inkscape:connector-curvature="0" />
	<path style="fill:none;stroke:red;stroke-width:1px;stroke-linecap:butt;stroke-linejoin:miter;stroke-opacity:1" d="M 505.362,603.668 505.362,612.605 z" id="boundary" inkscape:connector-curvature="0" />
	<path style="fill:none;stroke:red;stroke-width:1px;stroke-linecap:butt;stroke-linejoin:miter;stroke-opacity:1" d="M 505.362,603.668 512.512,597.413 z" id="boundary" inkscape:connector-curvature="0" />
	<path style="fill:none;stroke:red;stroke-width:1px;stroke-linecap:butt;stroke-linejoin:miter;stroke-opacity:1" d="M 505.362,733.254 512.512,726.998 z" id="boundary" inkscape:connector-curvature="0" />
	<path style="fill:none;stroke:red;stroke-width:1px;stroke-linecap:butt;stroke-linejoin:miter;stroke-opacity:1" d="M 509.831,429.398 514.299,415.993 z" id="boundary" inkscape:connector-curvature="0" />
	<path style="fill:none;stroke:red;stroke-width:1px;stroke-linecap:butt;stroke-linejoin:miter;stroke-opacity:1" d="M 510.724,209.55 519.661,209.55 z" id="boundary" inkscape:connector-curvature="0" />
	<path style="fill:none;stroke:red;stroke-width:1px;stroke-linecap:butt;stroke-linejoin:miter;stroke-opacity:1" d="M 512.512,597.413 514.299,585.795 z" id="boundary" inkscape:connector-curvature="0" />
	<path style="fill:none;stroke:red;stroke-width:1px;stroke-linecap:butt;stroke-linejoin:miter;stroke-opacity:1" d="M 512.512,726.998 516.98,718.061 z" id="boundary" inkscape:connector-curvature="0" />
	<path style="fill:none;stroke:red;stroke-width:1px;stroke-linecap:butt;stroke-linejoin:miter;stroke-opacity:1" d="M 513.405,674.27 521.449,669.802 z" id="boundary" inkscape:connector-curvature="0" />
	<path style="fill:none;stroke:red;stroke-width:1px;stroke-linecap:butt;stroke-linejoin:miter;stroke-opacity:1" d="M 514.299,415.993 521.449,409.737 z" id="boundary" inkscape:connector-curvature="0" />
	<path style="fill:none;stroke:red;stroke-width:1px;stroke-linecap:butt;stroke-linejoin:miter;stroke-opacity:1" d="M 514.299,439.229 523.236,437.441 z" id="boundary" inkscape:connector-curvature="0" />
	<path style="fill:none;stroke:red;stroke-width:1px;stroke-linecap:butt;stroke-linejoin:miter;stroke-opacity:1" d="M 514.299,585.795 518.768,576.858 z" id="boundary" inkscape:connector-curvature="0" />
	<path style="fill:none;stroke:red;stroke-width:1px;stroke-linecap:butt;stroke-linejoin:miter;stroke-opacity:1" d="M 516.98,718.061 523.236,710.912 z" id="boundary" inkscape:connector-curvature="0" />
	<path style="fill:none;stroke:red;stroke-width:1px;stroke-linecap:butt;stroke-linejoin:miter;stroke-opacity:1" d="M 518.768,576.858 523.236,567.921 z" id="boundary" inkscape:connector-curvature="0" />
	<path style="fill:none;stroke:red;stroke-width:1px;stroke-linecap:butt;stroke-linejoin:miter;stroke-opacity:1" d="M 519.661,209.55 527.705,205.081 z" id="boundary" inkscape:connector-curvature="0" />
	<path style="fill:none;stroke:red;stroke-width:1px;stroke-linecap:butt;stroke-linejoin:miter;stroke-opacity:1" d="M 521.449,409.737 527.705,398.119 z" id="boundary" inkscape:connector-curvature="0" />
	<path style="fill:none;stroke:red;stroke-width:1px;stroke-linecap:butt;stroke-linejoin:miter;stroke-opacity:1" d="M 521.449,669.802 530.386,669.802 z" id="boundary" inkscape:connector-curvature="0" />
	<path style="fill:none;stroke:red;stroke-width:1px;stroke-linecap:butt;stroke-linejoin:miter;stroke-opacity:1" d="M 523.236,437.441 531.279,432.973 z" id="boundary" inkscape:connector-curvature="0" />
	<path style="fill:none;stroke:red;stroke-width:1px;stroke-linecap:butt;stroke-linejoin:miter;stroke-opacity:1" d="M 523.236,567.921 527.705,554.515 z" id="boundary" inkscape:connector-curvature="0" />
	<path style="fill:none;stroke:red;stroke-width:1px;stroke-linecap:butt;stroke-linejoin:miter;stroke-opacity:1" d="M 523.236,710.912 527.705,701.975 z" id="boundary" inkscape:connector-curvature="0" />
	<path style="fill:none;stroke:red;stroke-width:1px;stroke-linecap:butt;stroke-linejoin:miter;stroke-opacity:1" d="M 527.705,205.081 536.641,205.081 z" id="boundary" inkscape:connector-curvature="0" />
	<path style="fill:none;stroke:red;stroke-width:1px;stroke-linecap:butt;stroke-linejoin:miter;stroke-opacity:1" d="M 527.705,398.119 534.854,391.863 z" id="boundary" inkscape:connector-curvature="0" />
	<path style="fill:none;stroke:red;stroke-width:1px;stroke-linecap:butt;stroke-linejoin:miter;stroke-opacity:1" d="M 527.705,554.515 532.173,545.578 z" id="boundary" inkscape:connector-curvature="0" />
	<path style="fill:none;stroke:red;stroke-width:1px;stroke-linecap:butt;stroke-linejoin:miter;stroke-opacity:1" d="M 527.705,701.975 532.173,693.038 z" id="boundary" inkscape:connector-curvature="0" />
	<path style="fill:none;stroke:red;stroke-width:1px;stroke-linecap:butt;stroke-linejoin:miter;stroke-opacity:1" d="M 530.386,669.802 538.429,674.27 z" id="boundary" inkscape:connector-curvature="0" />
	<path style="fill:none;stroke:red;stroke-width:1px;stroke-linecap:butt;stroke-linejoin:miter;stroke-opacity:1" d="M 531.279,432.973 539.323,428.505 z" id="boundary" inkscape:connector-curvature="0" />
	<path style="fill:none;stroke:red;stroke-width:1px;stroke-linecap:butt;stroke-linejoin:miter;stroke-opacity:1" d="M 532.173,536.641 532.173,545.578 z" id="boundary" inkscape:connector-curvature="0" />
	<path style="fill:none;stroke:red;stroke-width:1px;stroke-linecap:butt;stroke-linejoin:miter;stroke-opacity:1" d="M 532.173,536.641 536.641,527.705 z" id="boundary" inkscape:connector-curvature="0" />
	<path style="fill:none;stroke:red;stroke-width:1px;stroke-linecap:butt;stroke-linejoin:miter;stroke-opacity:1" d="M 532.173,693.038 539.323,686.782 z" id="boundary" inkscape:connector-curvature="0" />
	<path style="fill:none;stroke:red;stroke-width:1px;stroke-linecap:butt;stroke-linejoin:miter;stroke-opacity:1" d="M 534.854,391.863 539.323,382.926 z" id="boundary" inkscape:connector-curvature="0" />
	<path style="fill:none;stroke:red;stroke-width:1px;stroke-linecap:butt;stroke-linejoin:miter;stroke-opacity:1" d="M 536.641,205.081 545.578,205.081 z" id="boundary" inkscape:connector-curvature="0" />
	<path style="fill:none;stroke:red;stroke-width:1px;stroke-linecap:butt;stroke-linejoin:miter;stroke-opacity:1" d="M 536.641,527.705 543.791,521.449 z" id="boundary" inkscape:connector-curvature="0" />
	<path style="fill:none;stroke:red;stroke-width:1px;stroke-linecap:butt;stroke-linejoin:miter;stroke-opacity:1" d="M 538.429,674.27 539.323,686.782 z" id="boundary" inkscape:connector-curvature="0" />
	<path style="fill:none;stroke:red;stroke-width:1px;stroke-linecap:butt;stroke-linejoin:miter;stroke-opacity:1" d="M 539.323,382.926 545.578,371.308 z" id="boundary" inkscape:connector-curvature="0" />
	<path style="fill:none;stroke:red;stroke-width:1px;stroke-linecap:butt;stroke-linejoin:miter;stroke-opacity:1" d="M 539.323,428.505 547.366,424.036 z" id="boundary" inkscape:connector-curvature="0" />
	<path style="fill:none;stroke:red;stroke-width:1px;stroke-linecap:butt;stroke-linejoin:miter;stroke-opacity:1" d="M 543.791,521.449 545.578,509.831 z" id="boundary" inkscape:connector-curvature="0" />
	<path style="fill:none;stroke:red;stroke-width:1px;stroke-linecap:butt;stroke-linejoin:miter;stroke-opacity:1" d="M 545.578,205.081 554.515,205.081 z" id="boundary" inkscape:connector-curvature="0" />
	<path style="fill:none;stroke:red;stroke-width:1px;stroke-linecap:butt;stroke-linejoin:miter;stroke-opacity:1" d="M 545.578,371.308 552.728,365.052 z" id="boundary" inkscape:connector-curvature="0" />
	<path style="fill:none;stroke:red;stroke-width:1px;stroke-linecap:butt;stroke-linejoin:miter;stroke-opacity:1" d="M 545.578,509.831 550.047,496.425 z" id="boundary" inkscape:connector-curvature="0" />
	<path style="fill:none;stroke:red;stroke-width:1px;stroke-linecap:butt;stroke-linejoin:miter;stroke-opacity:1" d="M 547.366,424.036 556.303,419.568 z" id="boundary" inkscape:connector-curvature="0" />
	<path style="fill:none;stroke:red;stroke-width:1px;stroke-linecap:butt;stroke-linejoin:miter;stroke-opacity:1" d="M 550.047,496.425 554.515,487.488 z" id="boundary" inkscape:connector-curvature="0" />
	<path style="fill:none;stroke:red;stroke-width:1px;stroke-linecap:butt;stroke-linejoin:miter;stroke-opacity:1" d="M 552.728,365.052 558.984,357.903 z" id="boundary" inkscape:connector-curvature="0" />
	<path style="fill:none;stroke:red;stroke-width:1px;stroke-linecap:butt;stroke-linejoin:miter;stroke-opacity:1" d="M 554.515,205.081 563.452,205.081 z" id="boundary" inkscape:connector-curvature="0" />
	<path style="fill:none;stroke:red;stroke-width:1px;stroke-linecap:butt;stroke-linejoin:miter;stroke-opacity:1" d="M 554.515,487.488 558.984,478.551 z" id="boundary" inkscape:connector-curvature="0" />
	<path style="fill:none;stroke:red;stroke-width:1px;stroke-linecap:butt;stroke-linejoin:miter;stroke-opacity:1" d="M 556.303,419.568 565.24,415.099 z" id="boundary" inkscape:connector-curvature="0" />
	<path style="fill:none;stroke:red;stroke-width:1px;stroke-linecap:butt;stroke-linejoin:miter;stroke-opacity:1" d="M 558.984,348.966 558.984,357.903 z" id="boundary" inkscape:connector-curvature="0" />
	<path style="fill:none;stroke:red;stroke-width:1px;stroke-linecap:butt;stroke-linejoin:miter;stroke-opacity:1" d="M 558.984,348.966 566.133,342.71 z" id="boundary" inkscape:connector-curvature="0" />
	<path style="fill:none;stroke:red;stroke-width:1px;stroke-linecap:butt;stroke-linejoin:miter;stroke-opacity:1" d="M 558.984,478.551 563.452,469.614 z" id="boundary" inkscape:connector-curvature="0" />
	<path style="fill:none;stroke:red;stroke-width:1px;stroke-linecap:butt;stroke-linejoin:miter;stroke-opacity:1" d="M 563.452,205.081 572.389,202.4 z" id="boundary" inkscape:connector-curvature="0" />
	<path style="fill:none;stroke:red;stroke-width:1px;stroke-linecap:butt;stroke-linejoin:miter;stroke-opacity:1" d="M 563.452,469.614 567.921,460.677 z" id="boundary" inkscape:connector-curvature="0" />
	<path style="fill:none;stroke:red;stroke-width:1px;stroke-linecap:butt;stroke-linejoin:miter;stroke-opacity:1" d="M 565.24,415.099 574.177,415.099 z" id="boundary" inkscape:connector-curvature="0" />
	<path style="fill:none;stroke:red;stroke-width:1px;stroke-linecap:butt;stroke-linejoin:miter;stroke-opacity:1" d="M 566.133,342.71 570.602,333.773 z" id="boundary" inkscape:connector-curvature="0" />
	<path style="fill:none;stroke:red;stroke-width:1px;stroke-linecap:butt;stroke-linejoin:miter;stroke-opacity:1" d="M 567.921,460.677 575.07,454.422 z" id="boundary" inkscape:connector-curvature="0" />
	<path style="fill:none;stroke:red;stroke-width:1px;stroke-linecap:butt;stroke-linejoin:miter;stroke-opacity:1" d="M 570.602,333.773 576.858,326.623 z" id="boundary" inkscape:connector-curvature="0" />
	<path style="fill:none;stroke:red;stroke-width:1px;stroke-linecap:butt;stroke-linejoin:miter;stroke-opacity:1" d="M 572.389,202.4 581.326,200.613 z" id="boundary" inkscape:connector-curvature="0" />
	<path style="fill:none;stroke:red;stroke-width:1px;stroke-linecap:butt;stroke-linejoin:miter;stroke-opacity:1" d="M 574.177,415.099 583.114,415.099 z" id="boundary" inkscape:connector-curvature="0" />
	<path style="fill:none;stroke:red;stroke-width:1px;stroke-linecap:butt;stroke-linejoin:miter;stroke-opacity:1" d="M 575.07,454.422 579.539,445.485 z" id="boundary" inkscape:connector-curvature="0" />
	<path style="fill:none;stroke:red;stroke-width:1px;stroke-linecap:butt;stroke-linejoin:miter;stroke-opacity:1" d="M 576.858,326.623 581.326,317.686 z" id="boundary" inkscape:connector-curvature="0" />
	<path style="fill:none;stroke:red;stroke-width:1px;stroke-linecap:butt;stroke-linejoin:miter;stroke-opacity:1" d="M 579.539,445.485 584.007,436.548 z" id="boundary" inkscape:connector-curvature="0" />
	<path style="fill:none;stroke:red;stroke-width:1px;stroke-linecap:butt;stroke-linejoin:miter;stroke-opacity:1" d="M 581.326,200.613 590.263,197.932 z" id="boundary" inkscape:connector-curvature="0" />
	<path style="fill:none;stroke:red;stroke-width:1px;stroke-linecap:butt;stroke-linejoin:miter;stroke-opacity:1" d="M 581.326,317.686 585.795,308.75 z" id="boundary" inkscape:connector-curvature="0" />
	<path style="fill:none;stroke:red;stroke-width:1px;stroke-linecap:butt;stroke-linejoin:miter;stroke-opacity:1" d="M 583.114,415.099 589.369,422.249 z" id="boundary" inkscape:connector-curvature="0" />
	<path style="fill:none;stroke:red;stroke-width:1px;stroke-linecap:butt;stroke-linejoin:miter;stroke-opacity:1" d="M 584.007,436.548 589.369,422.249 z" id="boundary" inkscape:connector-curvature="0" />
	<path style="fill:none;stroke:red;stroke-width:1px;stroke-linecap:butt;stroke-linejoin:miter;stroke-opacity:1" d="M 585.795,299.813 585.795,308.75 z" id="boundary" inkscape:connector-curvature="0" />
	<path style="fill:none;stroke:red;stroke-width:1px;stroke-linecap:butt;stroke-linejoin:miter;stroke-opacity:1" d="M 585.795,299.813 592.944,293.557 z" id="boundary" inkscape:connector-curvature="0" />
	<path style="fill:none;stroke:red;stroke-width:1px;stroke-linecap:butt;stroke-linejoin:miter;stroke-opacity:1" d="M 590.263,197.932 599.2,196.144 z" id="boundary" inkscape:connector-curvature="0" />
	<path style="fill:none;stroke:red;stroke-width:1px;stroke-linecap:butt;stroke-linejoin:miter;stroke-opacity:1" d="M 592.944,293.557 603.668,277.47 z" id="boundary" inkscape:connector-curvature="0" />
	<path style="fill:none;stroke:red;stroke-width:1px;stroke-linecap:butt;stroke-linejoin:miter;stroke-opacity:1" d="M 599.2,196.144 608.137,193.463 z" id="boundary" inkscape:connector-curvature="0" />
	<path style="fill:none;stroke:red;stroke-width:1px;stroke-linecap:butt;stroke-linejoin:miter;stroke-opacity:1" d="M 603.668,277.47 610.818,271.214 z" id="boundary" inkscape:connector-curvature="0" />
	<path style="fill:none;stroke:red;stroke-width:1px;stroke-linecap:butt;stroke-linejoin:miter;stroke-opacity:1" d="M 608.137,193.463 617.074,191.676 z" id="boundary" inkscape:connector-curvature="0" />
	<path style="fill:none;stroke:red;stroke-width:1px;stroke-linecap:butt;stroke-linejoin:miter;stroke-opacity:1" d="M 610.818,271.214 615.286,262.277 z" id="boundary" inkscape:connector-curvature="0" />
	<path style="fill:none;stroke:red;stroke-width:1px;stroke-linecap:butt;stroke-linejoin:miter;stroke-opacity:1" d="M 615.286,262.277 619.755,253.341 z" id="boundary" inkscape:connector-curvature="0" />
	<path style="fill:none;stroke:red;stroke-width:1px;stroke-linecap:butt;stroke-linejoin:miter;stroke-opacity:1" d="M 617.074,191.676 626.011,188.995 z" id="boundary" inkscape:connector-curvature="0" />
	<path style="fill:none;stroke:red;stroke-width:1px;stroke-linecap:butt;stroke-linejoin:miter;stroke-opacity:1" d="M 619.755,253.341 626.011,246.191 z" id="boundary" inkscape:connector-curvature="0" />
	<path style="fill:none;stroke:red;stroke-width:1px;stroke-linecap:butt;stroke-linejoin:miter;stroke-opacity:1" d="M 626.011,188.995 634.948,187.207 z" id="boundary" inkscape:connector-curvature="0" />
	<path style="fill:none;stroke:red;stroke-width:1px;stroke-linecap:butt;stroke-linejoin:miter;stroke-opacity:1" d="M 626.011,246.191 639.416,228.317 z" id="boundary" inkscape:connector-curvature="0" />
	<path style="fill:none;stroke:red;stroke-width:1px;stroke-linecap:butt;stroke-linejoin:miter;stroke-opacity:1" d="M 634.948,187.207 643.885,187.207 z" id="boundary" inkscape:connector-curvature="0" />
	<path style="fill:none;stroke:red;stroke-width:1px;stroke-linecap:butt;stroke-linejoin:miter;stroke-opacity:1" d="M 639.416,228.317 646.566,222.061 z" id="boundary" inkscape:connector-curvature="0" />
	<path style="fill:none;stroke:red;stroke-width:1px;stroke-linecap:butt;stroke-linejoin:miter;stroke-opacity:1" d="M 643.885,187.207 652.822,189.888 z" id="boundary" inkscape:connector-curvature="0" />
	<path style="fill:none;stroke:red;stroke-width:1px;stroke-linecap:butt;stroke-linejoin:miter;stroke-opacity:1" d="M 646.566,222.061 652.822,210.443 z" id="boundary" inkscape:connector-curvature="0" />
	<path style="fill:none;stroke:red;stroke-width:1px;stroke-linecap:butt;stroke-linejoin:miter;stroke-opacity:1" d="M 652.822,189.888 657.29,197.932 z" id="boundary" inkscape:connector-curvature="0" />
	<path style="fill:none;stroke:red;stroke-width:1px;stroke-linecap:butt;stroke-linejoin:miter;stroke-opacity:1" d="M 652.822,210.443 657.29,197.932 z" id="boundary" inkscape:connector-curvature="0" />
	<circle cx="4" cy="207.762" r="4" fill="#0" id="circle0"/>
	<circle cx="4" cy="216.699" r="4" fill="#0" id="circle1"/>
	<circle cx="8.46847" cy="224.742" r="4" fill="#0" id="circle2"/>
	<circle cx="11.1495" cy="200.613" r="4" fill="#0" id="circle3"/>
	<circle cx="12.9369" cy="232.786" r="4" fill="#0" id="circle4"/>
	<circle cx="17.4054" cy="240.829" r="4" fill="#0" id="circle5"/>
	<circle cx="20.0865" cy="200.613" r="4" fill="#0" id="circle6"/>
	<circle cx="22.7676" cy="247.978" r="4" fill="#0" id="circle7"/>
	<circle cx="29.0234" cy="200.613" r="4" fill="#0" id="circle8"/>
	<circle cx="29.0234" cy="255.128" r="4" fill="#0" id="circle9"/>
	<circle cx="35.2793" cy="262.277" r="4" fill="#0" id="circle10"/>
	<circle cx="37.9604" cy="200.613" r="4" fill="#0" id="circle11"/>
	<circle cx="39.7477" cy="270.321" r="4" fill="#0" id="circle12"/>
	<circle cx="44.2162" cy="278.364" r="4" fill="#0" id="circle13"/>
	<circle cx="46.8973" cy="200.613" r="4" fill="#0" id="circle14"/>
	<circle cx="48.6847" cy="286.407" r="4" fill="#0" id="circle15"/>
	<circle cx="53.1532" cy="294.45" r="4" fill="#0" id="circle16"/>
	<circle cx="55.8342" cy="200.613" r="4" fill="#0" id="circle17"/>
	<circle cx="58.5153" cy="301.6" r="4" fill="#0" id="circle18"/>
	<circle cx="64.7712" cy="200.613" r="4" fill="#0" id="circle19"/>
	<circle cx="64.7712" cy="308.75" r="4" fill="#0" id="circle20"/>
	<circle cx="71.027" cy="315.899" r="4" fill="#0" id="circle21"/>
	<circle cx="71.9207" cy="324.836" r="4" fill="#0" id="circle22"/>
	<circle cx="73.7081" cy="200.613" r="4" fill="#0" id="circle23"/>
	<circle cx="79.0703" cy="331.092" r="4" fill="#0" id="circle24"/>
	<circle cx="79.964" cy="422.249" r="4" fill="#0" id="circle25"/>
	<circle cx="79.964" cy="431.186" r="4" fill="#0" id="circle26"/>
	<circle cx="82.645" cy="200.613" r="4" fill="#0" id="circle27"/>
	<circle cx="84.4324" cy="338.241" r="4" fill="#0" id="circle28"/>
	<circle cx="84.4324" cy="439.229" r="4" fill="#0" id="circle29"/>
	<circle cx="87.1135" cy="415.099" r="4" fill="#0" id="circle30"/>
	<circle cx="88.9009" cy="346.285" r="4" fill="#0" id="circle31"/>
	<circle cx="88.9009" cy="447.272" r="4" fill="#0" id="circle32"/>
	<circle cx="91.582" cy="200.613" r="4" fill="#0" id="circle33"/>
	<circle cx="93.3694" cy="354.328" r="4" fill="#0" id="circle34"/>
	<circle cx="93.3694" cy="455.315" r="4" fill="#0" id="circle35"/>
	<circle cx="96.0505" cy="415.099" r="4" fill="#0" id="circle36"/>
	<circle cx="98.7315" cy="462.465" r="4" fill="#0" id="circle37"/>
	<circle cx="99.6252" cy="205.081" r="4" fill="#0" id="circle38"/>
	<circle cx="99.6252" cy="361.477" r="4" fill="#0" id="circle39"/>
	<circle cx="102.306" cy="471.402" r="4" fill="#0" id="circle40"/>
	<circle cx="104.987" cy="415.099" r="4" fill="#0" id="circle41"/>
	<circle cx="106.775" cy="366.84" r="4" fill="#0" id="circle42"/>
	<circle cx="107.668" cy="209.55" r="4" fill="#0" id="circle43"/>
	<circle cx="109.456" cy="477.658" r="4" fill="#0" id="circle44"/>
	<circle cx="111.243" cy="374.883" r="4" fill="#0" id="circle45"/>
	<circle cx="113.031" cy="419.568" r="4" fill="#0" id="circle46"/>
	<circle cx="115.712" cy="484.807" r="4" fill="#0" id="circle47"/>
	<circle cx="116.605" cy="209.55" r="4" fill="#0" id="circle48"/>
	<circle cx="116.605" cy="382.032" r="4" fill="#0" id="circle49"/>
	<circle cx="120.18" cy="492.85" r="4" fill="#0" id="circle50"/>
	<circle cx="121.968" cy="419.568" r="4" fill="#0" id="circle51"/>
	<circle cx="122.861" cy="389.182" r="4" fill="#0" id="circle52"/>
	<circle cx="124.649" cy="500.894" r="4" fill="#0" id="circle53"/>
	<circle cx="125.542" cy="212.231" r="4" fill="#0" id="circle54"/>
	<circle cx="130.011" cy="395.438" r="4" fill="#0" id="circle55"/>
	<circle cx="130.011" cy="424.036" r="4" fill="#0" id="circle56"/>
	<circle cx="130.011" cy="508.043" r="4" fill="#0" id="circle57"/>
	<circle cx="134.479" cy="214.018" r="4" fill="#0" id="circle58"/>
	<circle cx="136.267" cy="402.587" r="4" fill="#0" id="circle59"/>
	<circle cx="137.16" cy="514.299" r="4" fill="#0" id="circle60"/>
	<circle cx="138.054" cy="411.524" r="4" fill="#0" id="circle61"/>
	<circle cx="138.948" cy="424.036" r="4" fill="#0" id="circle62"/>
	<circle cx="143.416" cy="216.699" r="4" fill="#0" id="circle63"/>
	<circle cx="143.416" cy="521.449" r="4" fill="#0" id="circle64"/>
	<circle cx="146.991" cy="428.505" r="4" fill="#0" id="circle65"/>
	<circle cx="151.459" cy="104.987" r="4" fill="#0" id="circle66"/>
	<circle cx="151.459" cy="113.924" r="4" fill="#0" id="circle67"/>
	<circle cx="151.459" cy="122.861" r="4" fill="#0" id="circle68"/>
	<circle cx="151.459" cy="131.798" r="4" fill="#0" id="circle69"/>
	<circle cx="151.459" cy="140.735" r="4" fill="#0" id="circle70"/>
	<circle cx="151.459" cy="149.672" r="4" fill="#0" id="circle71"/>
	<circle cx="151.459" cy="158.609" r="4" fill="#0" id="circle72"/>
	<circle cx="151.459" cy="167.546" r="4" fill="#0" id="circle73"/>
	<circle cx="151.459" cy="176.483" r="4" fill="#0" id="circle74"/>
	<circle cx="151.459" cy="185.42" r="4" fill="#0" id="circle75"/>
	<circle cx="151.459" cy="221.168" r="4" fill="#0" id="circle76"/>
	<circle cx="151.459" cy="525.917" r="4" fill="#0" id="circle77"/>
	<circle cx="155.928" cy="73.7081" r="4" fill="#0" id="circle78"/>
	<circle cx="155.928" cy="82.645" r="4" fill="#0" id="circle79"/>
	<circle cx="155.928" cy="91.582" r="4" fill="#0" id="circle80"/>
	<circle cx="155.928" cy="193.463" r="4" fill="#0" id="circle81"/>
	<circle cx="155.928" cy="202.4" r="4" fill="#0" id="circle82"/>
	<circle cx="155.928" cy="211.337" r="4" fill="#0" id="circle83"/>
	<circle cx="155.928" cy="533.96" r="4" fill="#0" id="circle84"/>
	<circle cx="160.396" cy="51.3658" r="4" fill="#0" id="circle85"/>
	<circle cx="160.396" cy="60.3027" r="4" fill="#0" id="circle86"/>
	<circle cx="163.077" cy="540.216" r="4" fill="#0" id="circle87"/>
	<circle cx="167.546" cy="44.2162" r="4" fill="#0" id="circle88"/>
	<circle cx="171.121" cy="544.685" r="4" fill="#0" id="circle89"/>
	<circle cx="173.802" cy="668.014" r="4" fill="#0" id="circle90"/>
	<circle cx="173.802" cy="676.951" r="4" fill="#0" id="circle91"/>
	<circle cx="176.483" cy="39.7477" r="4" fill="#0" id="circle92"/>
	<circle cx="178.27" cy="550.047" r="4" fill="#0" id="circle93"/>
	<circle cx="178.27" cy="684.995" r="4" fill="#0" id="circle94"/>
	<circle cx="180.951" cy="660.865" r="4" fill="#0" id="circle95"/>
	<circle cx="182.739" cy="693.038" r="4" fill="#0" id="circle96"/>
	<circle cx="185.42" cy="39.7477" r="4" fill="#0" id="circle97"/>
	<circle cx="186.314" cy="554.515" r="4" fill="#0" id="circle98"/>
	<circle cx="188.101" cy="700.187" r="4" fill="#0" id="circle99"/>
	<circle cx="188.995" cy="656.396" r="4" fill="#0" id="circle100"/>
	<circle cx="192.569" cy="561.665" r="4" fill="#0" id="circle101"/>
	<circle cx="194.357" cy="39.7477" r="4" fill="#0" id="circle102"/>
	<circle cx="195.25" cy="706.443" r="4" fill="#0" id="circle103"/>
	<circle cx="197.038" cy="569.708" r="4" fill="#0" id="circle104"/>
	<circle cx="197.932" cy="656.396" r="4" fill="#0" id="circle105"/>
	<circle cx="198.825" cy="715.38" r="4" fill="#0" id="circle106"/>
	<circle cx="200.613" cy="578.645" r="4" fill="#0" id="circle107"/>
	<circle cx="203.294" cy="39.7477" r="4" fill="#0" id="circle108"/>
	<circle cx="205.081" cy="586.688" r="4" fill="#0" id="circle109"/>
	<circle cx="205.081" cy="722.53" r="4" fill="#0" id="circle110"/>
	<circle cx="206.868" cy="656.396" r="4" fill="#0" id="circle111"/>
	<circle cx="209.55" cy="594.732" r="4" fill="#0" id="circle112"/>
	<circle cx="209.55" cy="730.573" r="4" fill="#0" id="circle113"/>
	<circle cx="212.231" cy="39.7477" r="4" fill="#0" id="circle114"/>
	<circle cx="214.018" cy="738.616" r="4" fill="#0" id="circle115"/>
	<circle cx="214.912" cy="601.881" r="4" fill="#0" id="circle116"/>
	<circle cx="214.912" cy="660.865" r="4" fill="#0" id="circle117"/>
	<circle cx="220.274" cy="745.766" r="4" fill="#0" id="circle118"/>
	<circle cx="221.168" cy="39.7477" r="4" fill="#0" id="circle119"/>
	<circle cx="222.061" cy="608.137" r="4" fill="#0" id="circle120"/>
	<circle cx="223.849" cy="663.546" r="4" fill="#0" id="circle121"/>
	<circle cx="225.636" cy="617.074" r="4" fill="#0" id="circle122"/>
	<circle cx="227.423" cy="626.011" r="4" fill="#0" id="circle123"/>
	<circle cx="227.423" cy="751.128" r="4" fill="#0" id="circle124"/>
	<circle cx="227.423" cy="760.065" r="4" fill="#0" id="circle125"/>
	<circle cx="230.105" cy="35.2793" r="4" fill="#0" id="circle126"/>
	<circle cx="231.892" cy="668.014" r="4" fill="#0" id="circle127"/>
	<circle cx="232.786" cy="633.16" r="4" fill="#0" id="circle128"/>
	<circle cx="232.786" cy="767.214" r="4" fill="#0" id="circle129"/>
	<circle cx="239.041" cy="35.2793" r="4" fill="#0" id="circle130"/>
	<circle cx="239.935" cy="639.416" r="4" fill="#0" id="circle131"/>
	<circle cx="239.935" cy="773.47" r="4" fill="#0" id="circle132"/>
	<circle cx="240.829" cy="669.802" r="4" fill="#0" id="circle133"/>
	<circle cx="243.51" cy="648.353" r="4" fill="#0" id="circle134"/>
	<circle cx="245.297" cy="780.62" r="4" fill="#0" id="circle135"/>
	<circle cx="247.978" cy="35.2793" r="4" fill="#0" id="circle136"/>
	<circle cx="247.978" cy="656.396" r="4" fill="#0" id="circle137"/>
	<circle cx="249.766" cy="665.333" r="4" fill="#0" id="circle138"/>
	<circle cx="249.766" cy="788.663" r="4" fill="#0" id="circle139"/>
	<circle cx="250.659" cy="674.27" r="4" fill="#0" id="circle140"/>
	<circle cx="254.234" cy="796.706" r="4" fill="#0" id="circle141"/>
	<circle cx="256.915" cy="30.8108" r="4" fill="#0" id="circle142"/>
	<circle cx="260.49" cy="803.856" r="4" fill="#0" id="circle143"/>
	<circle cx="264.959" cy="811.899" r="4" fill="#0" id="circle144"/>
	<circle cx="265.852" cy="30.8108" r="4" fill="#0" id="circle145"/>
	<circle cx="272.108" cy="818.155" r="4" fill="#0" id="circle146"/>
	<circle cx="274.789" cy="30.8108" r="4" fill="#0" id="circle147"/>
	<circle cx="276.577" cy="826.198" r="4" fill="#0" id="circle148"/>
	<circle cx="281.045" cy="834.241" r="4" fill="#0" id="circle149"/>
	<circle cx="282.832" cy="26.3423" r="4" fill="#0" id="circle150"/>
	<circle cx="285.514" cy="842.285" r="4" fill="#0" id="circle151"/>
	<circle cx="291.769" cy="26.3423" r="4" fill="#0" id="circle152"/>
	<circle cx="292.663" cy="848.541" r="4" fill="#0" id="circle153"/>
	<circle cx="298.919" cy="855.69" r="4" fill="#0" id="circle154"/>
	<circle cx="298.919" cy="864.627" r="4" fill="#0" id="circle155"/>
	<circle cx="299.813" cy="21.8739" r="4" fill="#0" id="circle156"/>
	<circle cx="303.387" cy="872.67" r="4" fill="#0" id="circle157"/>
	<circle cx="308.75" cy="21.8739" r="4" fill="#0" id="circle158"/>
	<circle cx="309.643" cy="879.82" r="4" fill="#0" id="circle159"/>
	<circle cx="314.112" cy="887.863" r="4" fill="#0" id="circle160"/>
	<circle cx="317.686" cy="21.8739" r="4" fill="#0" id="circle161"/>
	<circle cx="317.686" cy="896.8" r="4" fill="#0" id="circle162"/>
	<circle cx="322.155" cy="904.843" r="4" fill="#0" id="circle163"/>
	<circle cx="325.73" cy="913.78" r="4" fill="#0" id="circle164"/>
	<circle cx="326.623" cy="21.8739" r="4" fill="#0" id="circle165"/>
	<circle cx="330.198" cy="921.823" r="4" fill="#0" id="circle166"/>
	<circle cx="330.198" cy="930.76" r="4" fill="#0" id="circle167"/>
	<circle cx="334.667" cy="938.804" r="4" fill="#0" id="circle168"/>
	<circle cx="334.667" cy="947.741" r="4" fill="#0" id="circle169"/>
	<circle cx="334.667" cy="962.933" r="4" fill="#0" id="circle170"/>
	<circle cx="334.667" cy="971.87" r="4" fill="#0" id="circle171"/>
	<circle cx="334.667" cy="980.807" r="4" fill="#0" id="circle172"/>
	<circle cx="334.667" cy="989.744" r="4" fill="#0" id="circle173"/>
	<circle cx="335.56" cy="19.1928" r="4" fill="#0" id="circle174"/>
	<circle cx="341.816" cy="996" r="4" fill="#0" id="circle175"/>
	<circle cx="344.497" cy="17.4054" r="4" fill="#0" id="circle176"/>
	<circle cx="350.753" cy="996" r="4" fill="#0" id="circle177"/>
	<circle cx="353.434" cy="14.7243" r="4" fill="#0" id="circle178"/>
	<circle cx="357.903" cy="970.083" r="4" fill="#0" id="circle179"/>
	<circle cx="357.903" cy="979.02" r="4" fill="#0" id="circle180"/>
	<circle cx="357.903" cy="987.957" r="4" fill="#0" id="circle181"/>
	<circle cx="362.371" cy="12.9369" r="4" fill="#0" id="circle182"/>
	<circle cx="362.371" cy="952.209" r="4" fill="#0" id="circle183"/>
	<circle cx="362.371" cy="961.146" r="4" fill="#0" id="circle184"/>
	<circle cx="366.84" cy="938.804" r="4" fill="#0" id="circle185"/>
	<circle cx="370.414" cy="8.46847" r="4" fill="#0" id="circle186"/>
	<circle cx="371.308" cy="929.867" r="4" fill="#0" id="circle187"/>
	<circle cx="378.458" cy="923.611" r="4" fill="#0" id="circle188"/>
	<circle cx="379.351" cy="8.46847" r="4" fill="#0" id="circle189"/>
	<circle cx="382.926" cy="914.674" r="4" fill="#0" id="circle190"/>
	<circle cx="384.714" cy="903.056" r="4" fill="#0" id="circle191"/>
	<circle cx="388.288" cy="6.68108" r="4" fill="#0" id="circle192"/>
	<circle cx="391.863" cy="896.8" r="4" fill="#0" id="circle193"/>
	<circle cx="396.332" cy="887.863" r="4" fill="#0" id="circle194"/>
	<circle cx="397.225" cy="4" r="4" fill="#0" id="circle195"/>
	<circle cx="402.587" cy="876.245" r="4" fill="#0" id="circle196"/>
	<circle cx="406.162" cy="5.78739" r="4" fill="#0" id="circle197"/>
	<circle cx="407.056" cy="867.308" r="4" fill="#0" id="circle198"/>
	<circle cx="411.524" cy="12.9369" r="4" fill="#0" id="circle199"/>
	<circle cx="414.205" cy="861.052" r="4" fill="#0" id="circle200"/>
	<circle cx="415.993" cy="20.9802" r="4" fill="#0" id="circle201"/>
	<circle cx="415.993" cy="29.9171" r="4" fill="#0" id="circle202"/>
	<circle cx="415.993" cy="38.8541" r="4" fill="#0" id="circle203"/>
	<circle cx="415.993" cy="47.791" r="4" fill="#0" id="circle204"/>
	<circle cx="415.993" cy="56.7279" r="4" fill="#0" id="circle205"/>
	<circle cx="415.993" cy="65.6649" r="4" fill="#0" id="circle206"/>
	<circle cx="415.993" cy="74.6018" r="4" fill="#0" id="circle207"/>
	<circle cx="415.993" cy="83.5387" r="4" fill="#0" id="circle208"/>
	<circle cx="415.993" cy="92.4757" r="4" fill="#0" id="circle209"/>
	<circle cx="415.993" cy="101.413" r="4" fill="#0" id="circle210"/>
	<circle cx="415.993" cy="110.35" r="4" fill="#0" id="circle211"/>
	<circle cx="415.993" cy="119.286" r="4" fill="#0" id="circle212"/>
	<circle cx="415.993" cy="128.223" r="4" fill="#0" id="circle213"/>
	<circle cx="415.993" cy="137.16" r="4" fill="#0" id="circle214"/>
	<circle cx="415.993" cy="146.097" r="4" fill="#0" id="circle215"/>
	<circle cx="415.993" cy="155.034" r="4" fill="#0" id="circle216"/>
	<circle cx="415.993" cy="163.971" r="4" fill="#0" id="circle217"/>
	<circle cx="415.993" cy="172.908" r="4" fill="#0" id="circle218"/>
	<circle cx="415.993" cy="181.845" r="4" fill="#0" id="circle219"/>
	<circle cx="415.993" cy="190.782" r="4" fill="#0" id="circle220"/>
	<circle cx="415.993" cy="199.719" r="4" fill="#0" id="circle221"/>
	<circle cx="415.993" cy="208.656" r="4" fill="#0" id="circle222"/>
	<circle cx="415.993" cy="217.593" r="4" fill="#0" id="circle223"/>
	<circle cx="415.993" cy="226.53" r="4" fill="#0" id="circle224"/>
	<circle cx="420.461" cy="849.434" r="4" fill="#0" id="circle225"/>
	<circle cx="424.93" cy="227.423" r="4" fill="#0" id="circle226"/>
	<circle cx="427.611" cy="843.178" r="4" fill="#0" id="circle227"/>
	<circle cx="432.079" cy="834.241" r="4" fill="#0" id="circle228"/>
	<circle cx="432.973" cy="222.955" r="4" fill="#0" id="circle229"/>
	<circle cx="438.335" cy="827.092" r="4" fill="#0" id="circle230"/>
	<circle cx="441.016" cy="218.486" r="4" fill="#0" id="circle231"/>
	<circle cx="445.485" cy="820.836" r="4" fill="#0" id="circle232"/>
	<circle cx="449.953" cy="218.486" r="4" fill="#0" id="circle233"/>
	<circle cx="451.741" cy="804.75" r="4" fill="#0" id="circle234"/>
	<circle cx="451.741" cy="813.686" r="4" fill="#0" id="circle235"/>
	<circle cx="457.996" cy="214.018" r="4" fill="#0" id="circle236"/>
	<circle cx="458.89" cy="798.494" r="4" fill="#0" id="circle237"/>
	<circle cx="463.359" cy="789.557" r="4" fill="#0" id="circle238"/>
	<circle cx="466.933" cy="214.018" r="4" fill="#0" id="circle239"/>
	<circle cx="469.614" cy="782.407" r="4" fill="#0" id="circle240"/>
	<circle cx="474.083" cy="773.47" r="4" fill="#0" id="circle241"/>
	<circle cx="474.977" cy="209.55" r="4" fill="#0" id="circle242"/>
	<circle cx="481.232" cy="767.214" r="4" fill="#0" id="circle243"/>
	<circle cx="483.914" cy="209.55" r="4" fill="#0" id="circle244"/>
	<circle cx="487.488" cy="661.759" r="4" fill="#0" id="circle245"/>
	<circle cx="487.488" cy="670.695" r="4" fill="#0" id="circle246"/>
	<circle cx="487.488" cy="679.632" r="4" fill="#0" id="circle247"/>
	<circle cx="487.488" cy="755.596" r="4" fill="#0" id="circle248"/>
	<circle cx="491.957" cy="648.353" r="4" fill="#0" id="circle249"/>
	<circle cx="491.957" cy="706.443" r="4" fill="#0" id="circle250"/>
	<circle cx="492.85" cy="209.55" r="4" fill="#0" id="circle251"/>
	<circle cx="494.638" cy="749.341" r="4" fill="#0" id="circle252"/>
	<circle cx="496.425" cy="639.416" r="4" fill="#0" id="circle253"/>
	<circle cx="496.425" cy="678.739" r="4" fill="#0" id="circle254"/>
	<circle cx="500.894" cy="621.542" r="4" fill="#0" id="circle255"/>
	<circle cx="500.894" cy="630.479" r="4" fill="#0" id="circle256"/>
	<circle cx="500.894" cy="742.191" r="4" fill="#0" id="circle257"/>
	<circle cx="501.787" cy="209.55" r="4" fill="#0" id="circle258"/>
	<circle cx="504.468" cy="674.27" r="4" fill="#0" id="circle259"/>
	<circle cx="505.362" cy="438.335" r="4" fill="#0" id="circle260"/>
	<circle cx="505.362" cy="603.668" r="4" fill="#0" id="circle261"/>
	<circle cx="505.362" cy="612.605" r="4" fill="#0" id="circle262"/>
	<circle cx="505.362" cy="733.254" r="4" fill="#0" id="circle263"/>
	<circle cx="509.831" cy="429.398" r="4" fill="#0" id="circle264"/>
	<circle cx="510.724" cy="209.55" r="4" fill="#0" id="circle265"/>
	<circle cx="512.512" cy="597.413" r="4" fill="#0" id="circle266"/>
	<circle cx="512.512" cy="726.998" r="4" fill="#0" id="circle267"/>
	<circle cx="513.405" cy="674.27" r="4" fill="#0" id="circle268"/>
	<circle cx="514.299" cy="415.993" r="4" fill="#0" id="circle269"/>
	<circle cx="514.299" cy="439.229" r="4" fill="#0" id="circle270"/>
	<circle cx="514.299" cy="585.795" r="4" fill="#0" id="circle271"/>
	<circle cx="516.98" cy="718.061" r="4" fill="#0" id="circle272"/>
	<circle cx="518.768" cy="576.858" r="4" fill="#0" id="circle273"/>
	<circle cx="519.661" cy="209.55" r="4" fill="#0" id="circle274"/>
	<circle cx="521.449" cy="409.737" r="4" fill="#0" id="circle275"/>
	<circle cx="521.449" cy="669.802" r="4" fill="#0" id="circle276"/>
	<circle cx="523.236" cy="437.441" r="4" fill="#0" id="circle277"/>
	<circle cx="523.236" cy="567.921" r="4" fill="#0" id="circle278"/>
	<circle cx="523.236" cy="710.912" r="4" fill="#0" id="circle279"/>
	<circle cx="527.705" cy="205.081" r="4" fill="#0" id="circle280"/>
	<circle cx="527.705" cy="398.119" r="4" fill="#0" id="circle281"/>
	<circle cx="527.705" cy="554.515" r="4" fill="#0" id="circle282"/>
	<circle cx="527.705" cy="701.975" r="4" fill="#0" id="circle283"/>
	<circle cx="530.386" cy="669.802" r="4" fill="#0" id="circle284"/>
	<circle cx="531.279" cy="432.973" r="4" fill="#0" id="circle285"/>
	<circle cx="532.173" cy="536.641" r="4" fill="#0" id="circle286"/>
	<circle cx="532.173" cy="545.578" r="4" fill="#0" id="circle287"/>
	<circle cx="532.173" cy="693.038" r="4" fill="#0" id="circle288"/>
	<circle cx="534.854" cy="391.863" r="4" fill="#0" id="circle289"/>
	<circle cx="536.641" cy="205.081" r="4" fill="#0" id="circle290"/>
	<circle cx="536.641" cy="527.705" r="4" fill="#0" id="circle291"/>
	<circle cx="538.429" cy="674.27" r="4" fill="#0" id="circle292"/>
	<circle cx="539.323" cy="382.926" r="4" fill="#0" id="circle293"/>
	<circle cx="539.323" cy="428.505" r="4" fill="#0" id="circle294"/>
	<circle cx="539.323" cy="686.782" r="4" fill="#0" id="circle295"/>
	<circle cx="543.791" cy="521.449" r="4" fill="#0" id="circle296"/>
	<circle cx="545.578" cy="205.081" r="4" fill="#0" id="circle297"/>
	<circle cx="545.578" cy="371.308" r="4" fill="#0" id="circle298"/>
	<circle cx="545.578" cy="509.831" r="4" fill="#0" id="circle299"/>
	<circle cx="547.366" cy="424.036" r="4" fill="#0" id="circle300"/>
	<circle cx="550.047" cy="496.425" r="4" fill="#0" id="circle301"/>
	<circle cx="552.728" cy="365.052" r="4" fill="#0" id="circle302"/>
	<circle cx="554.515" cy="205.081" r="4" fill="#0" id="circle303"/>
	<circle cx="554.515" cy="487.488" r="4" fill="#0" id="circle304"/>
	<circle cx="556.303" cy="419.568" r="4" fill="#0" id="circle305"/>
	<circle cx="558.984" cy="348.966" r="4" fill="#0" id="circle306"/>
	<circle cx="558.984" cy="357.903" r="4" fill="#0" id="circle307"/>
	<circle cx="558.984" cy="478.551" r="4" fill="#0" id="circle308"/>
	<circle cx="563.452" cy="205.081" r="4" fill="#0" id="circle309"/>
	<circle cx="563.452" cy="469.614" r="4" fill="#0" id="circle310"/>
	<circle cx="565.24" cy="415.099" r="4" fill="#0" id="circle311"/>
	<circle cx="566.133" cy="342.71" r="4" fill="#0" id="circle312"/>
	<circle cx="567.921" cy="460.677" r="4" fill="#0" id="circle313"/>
	<circle cx="570.602" cy="333.773" r="4" fill="#0" id="circle314"/>
	<circle cx="572.389" cy="202.4" r="4" fill="#0" id="circle315"/>
	<circle cx="574.177" cy="415.099" r="4" fill="#0" id="circle316"/>
	<circle cx="575.07" cy="454.422" r="4" fill="#0" id="circle317"/>
	<circle cx="576.858" cy="326.623" r="4" fill="#0" id="circle318"/>
	<circle cx="579.539" cy="445.485" r="4" fill="#0" id="circle319"/>
	<circle cx="581.326" cy="200.613" r="4" fill="#0" id="circle320"/>
	<circle cx="581.326" cy="317.686" r="4" fill="#0" id="circle321"/>
	<circle cx="583.114" cy="415.099" r="4" fill="#0" id="circle322"/>
	<circle cx="584.007" cy="436.548" r="4" fill="#0" id="circle323"/>
	<circle cx="585.795" cy="299.813" r="4" fill="#0" id="circle324"/>
	<circle cx="585.795" cy="308.75" r="4" fill="#0" id="circle325"/>
	<circle cx="589.369" cy="422.249" r="4" fill="#0" id="circle326"/>
	<circle cx="590.263" cy="197.932" r="4" fill="#0" id="circle327"/>
	<circle cx="592.944" cy="293.557" r="4" fill="#0" id="circle328"/>
	<circle cx="599.2" cy="196.144" r="4" fill="#0" id="circle329"/>
	<circle cx="599.2" cy="286.407" r="4" fill="#0" id="circle330"/>
	<circle cx="603.668" cy="277.47" r="4" fill="#0" id="circle331"/>
	<circle cx="608.137" cy="193.463" r="4" fill="#0" id="circle332"/>
	<circle cx="610.818" cy="271.214" r="4" fill="#0" id="circle333"/>
	<circle cx="615.286" cy="262.277" r="4" fill="#0" id="circle334"/>
	<circle cx="617.074" cy="191.676" r="4" fill="#0" id="circle335"/>
	<circle cx="617.074" cy="214.912" r="4" fill="#0" id="circle336"/>
	<circle cx="619.755" cy="253.341" r="4" fill="#0" id="circle337"/>
	<circle cx="626.011" cy="188.995" r="4" fill="#0" id="circle338"/>
	<circle cx="626.011" cy="246.191" r="4" fill="#0" id="circle339"/>
	<circle cx="633.16" cy="239.935" r="4" fill="#0" id="circle340"/>
	<circle cx="634.948" cy="187.207" r="4" fill="#0" id="circle341"/>
	<circle cx="639.416" cy="228.317" r="4" fill="#0" id="circle342"/>
	<circle cx="643.885" cy="187.207" r="4" fill="#0" id="circle343"/>
	<circle cx="646.566" cy="222.061" r="4" fill="#0" id="circle344"/>
	<circle cx="652.822" cy="189.888" r="4" fill="#0" id="circle345"/>
	<circle cx="652.822" cy="210.443" r="4" fill="#0" id="circle346"/>
	<circle cx="657.29" cy="197.932" r="4" fill="#0" id="circle347"/>
	</g>
</svg>