<?xml version="1.0" encoding="UTF-8" standalone="no"?>
<!-- Created with CurveBenchmark -->
<svg
	xmlns:dc="http://purl.org/dc/elements/1.1/"
	xmlns:cc="http://creativecommons.org/ns#"
	xmlns:rdf="http://www.w3.org/1999/02/22-rdf-syntax-ns#"
	xmlns:svg="http://www.w3.org/2000/svg"
	xmlns="http://www.w3.org/2000/svg"
	xmlns:sodipodi="http://sodipodi.sourceforge.net/DTD/sodipodi-0.dtd"
	xmlns:inkscape="http://www.inkscape.org/namespaces/inkscape"
	width="1000"
	height="1000"
	id="svg2"
	version="1.1"
	sodipodi:docname="manifold/vicur-hammer32.png.txt">
<defs
	id="defs4" />
<metadata
	id="metadata7">
	<rdf:RDF>
		<cc:Work
			rdf:about="">
			<dc:format>image/svg+xml</dc:format>
			<dc:type
				rdf:resource="http://purl.org/dc/dcmitype/StillImage" />
			<dc:title></dc:title>
		</cc:Work>
	</rdf:RDF>
</metadata>
<g
	inkscape:label="Layer 1"
	inkscape:groupmode="layer"
	id="layer1">
	<path style="fill:none;stroke:red;stroke-width:1px;stroke-linecap:butt;stroke-linejoin:miter;stroke-opacity:1" d="M 4,58.56 4,83.36 z" id="boundary" inkscape:connector-curvature="0" />
	<path style="fill:none;stroke:red;stroke-width:1px;stroke-linecap:butt;stroke-linejoin:miter;stroke-opacity:1" d="M 4,58.56 23.84,38.72 z" id="boundary" inkscape:connector-curvature="0" />
	<path style="fill:none;stroke:red;stroke-width:1px;stroke-linecap:butt;stroke-linejoin:miter;stroke-opacity:1" d="M 4,83.36 4,108.16 z" id="boundary" inkscape:connector-curvature="0" />
	<path style="fill:none;stroke:red;stroke-width:1px;stroke-linecap:butt;stroke-linejoin:miter;stroke-opacity:1" d="M 4,108.16 23.84,125.52 z" id="boundary" inkscape:connector-curvature="0" />
	<path style="fill:none;stroke:red;stroke-width:1px;stroke-linecap:butt;stroke-linejoin:miter;stroke-opacity:1" d="M 23.84,38.72 43.68,18.88 z" id="boundary" inkscape:connector-curvature="0" />
	<path style="fill:none;stroke:red;stroke-width:1px;stroke-linecap:butt;stroke-linejoin:miter;stroke-opacity:1" d="M 23.84,125.52 41.2,145.36 z" id="boundary" inkscape:connector-curvature="0" />
	<path style="fill:none;stroke:red;stroke-width:1px;stroke-linecap:butt;stroke-linejoin:miter;stroke-opacity:1" d="M 41.2,145.36 61.04,162.72 z" id="boundary" inkscape:connector-curvature="0" />
	<path style="fill:none;stroke:red;stroke-width:1px;stroke-linecap:butt;stroke-linejoin:miter;stroke-opacity:1" d="M 43.68,18.88 63.52,4 z" id="boundary" inkscape:connector-curvature="0" />
	<path style="fill:none;stroke:red;stroke-width:1px;stroke-linecap:butt;stroke-linejoin:miter;stroke-opacity:1" d="M 61.04,162.72 78.4,182.56 z" id="boundary" inkscape:connector-curvature="0" />
	<path style="fill:none;stroke:red;stroke-width:1px;stroke-linecap:butt;stroke-linejoin:miter;stroke-opacity:1" d="M 63.52,4 85.84,16.4 z" id="boundary" inkscape:connector-curvature="0" />
	<path style="fill:none;stroke:red;stroke-width:1px;stroke-linecap:butt;stroke-linejoin:miter;stroke-opacity:1" d="M 78.4,182.56 98.24,199.92 z" id="boundary" inkscape:connector-curvature="0" />
	<path style="fill:none;stroke:red;stroke-width:1px;stroke-linecap:butt;stroke-linejoin:miter;stroke-opacity:1" d="M 85.84,16.4 110.64,26.32 z" id="boundary" inkscape:connector-curvature="0" />
	<path style="fill:none;stroke:red;stroke-width:1px;stroke-linecap:butt;stroke-linejoin:miter;stroke-opacity:1" d="M 98.24,199.92 115.6,219.76 z" id="boundary" inkscape:connector-curvature="0" />
	<path style="fill:none;stroke:red;stroke-width:1px;stroke-linecap:butt;stroke-linejoin:miter;stroke-opacity:1" d="M 110.64,26.32 132.96,38.72 z" id="boundary" inkscape:connector-curvature="0" />
	<path style="fill:none;stroke:red;stroke-width:1px;stroke-linecap:butt;stroke-linejoin:miter;stroke-opacity:1" d="M 115.6,219.76 128,242.08 z" id="boundary" inkscape:connector-curvature="0" />
	<path style="fill:none;stroke:red;stroke-width:1px;stroke-linecap:butt;stroke-linejoin:miter;stroke-opacity:1" d="M 128,242.08 145.36,261.92 z" id="boundary" inkscape:connector-curvature="0" />
	<path style="fill:none;stroke:red;stroke-width:1px;stroke-linecap:butt;stroke-linejoin:miter;stroke-opacity:1" d="M 132.96,38.72 152.8,56.08 z" id="boundary" inkscape:connector-curvature="0" />
	<path style="fill:none;stroke:red;stroke-width:1px;stroke-linecap:butt;stroke-linejoin:miter;stroke-opacity:1" d="M 145.36,261.92 165.2,276.8 z" id="boundary" inkscape:connector-curvature="0" />
	<path style="fill:none;stroke:red;stroke-width:1px;stroke-linecap:butt;stroke-linejoin:miter;stroke-opacity:1" d="M 152.8,56.08 167.68,75.92 z" id="boundary" inkscape:connector-curvature="0" />
	<path style="fill:none;stroke:red;stroke-width:1px;stroke-linecap:butt;stroke-linejoin:miter;stroke-opacity:1" d="M 165.2,276.8 180.08,296.64 z" id="boundary" inkscape:connector-curvature="0" />
	<path style="fill:none;stroke:red;stroke-width:1px;stroke-linecap:butt;stroke-linejoin:miter;stroke-opacity:1" d="M 167.68,75.92 180.08,98.24 z" id="boundary" inkscape:connector-curvature="0" />
	<path style="fill:none;stroke:red;stroke-width:1px;stroke-linecap:butt;stroke-linejoin:miter;stroke-opacity:1" d="M 180.08,98.24 199.92,115.6 z" id="boundary" inkscape:connector-curvature="0" />
	<path style="fill:none;stroke:red;stroke-width:1px;stroke-linecap:butt;stroke-linejoin:miter;stroke-opacity:1" d="M 180.08,296.64 199.92,314 z" id="boundary" inkscape:connector-curvature="0" />
	<path style="fill:none;stroke:red;stroke-width:1px;stroke-linecap:butt;stroke-linejoin:miter;stroke-opacity:1" d="M 199.92,115.6 217.28,135.44 z" id="boundary" inkscape:connector-curvature="0" />
	<path style="fill:none;stroke:red;stroke-width:1px;stroke-linecap:butt;stroke-linejoin:miter;stroke-opacity:1" d="M 199.92,314 217.28,333.84 z" id="boundary" inkscape:connector-curvature="0" />
	<path style="fill:none;stroke:red;stroke-width:1px;stroke-linecap:butt;stroke-linejoin:miter;stroke-opacity:1" d="M 217.28,333.84 237.12,351.2 z" id="boundary" inkscape:connector-curvature="0" />
	<path style="fill:none;stroke:red;stroke-width:1px;stroke-linecap:butt;stroke-linejoin:miter;stroke-opacity:1" d="M 237.12,152.8 254.48,172.64 z" id="boundary" inkscape:connector-curvature="0" />
	<path style="fill:none;stroke:red;stroke-width:1px;stroke-linecap:butt;stroke-linejoin:miter;stroke-opacity:1" d="M 237.12,152.8 274.32,190 z" id="boundary" inkscape:connector-curvature="0" />
	<path style="fill:none;stroke:red;stroke-width:1px;stroke-linecap:butt;stroke-linejoin:miter;stroke-opacity:1" d="M 237.12,351.2 254.48,371.04 z" id="boundary" inkscape:connector-curvature="0" />
	<path style="fill:none;stroke:red;stroke-width:1px;stroke-linecap:butt;stroke-linejoin:miter;stroke-opacity:1" d="M 254.48,371.04 274.32,388.4 z" id="boundary" inkscape:connector-curvature="0" />
	<path style="fill:none;stroke:red;stroke-width:1px;stroke-linecap:butt;stroke-linejoin:miter;stroke-opacity:1" d="M 274.32,190 291.68,209.84 z" id="boundary" inkscape:connector-curvature="0" />
	<path style="fill:none;stroke:red;stroke-width:1px;stroke-linecap:butt;stroke-linejoin:miter;stroke-opacity:1" d="M 274.32,388.4 291.68,408.24 z" id="boundary" inkscape:connector-curvature="0" />
	<path style="fill:none;stroke:red;stroke-width:1px;stroke-linecap:butt;stroke-linejoin:miter;stroke-opacity:1" d="M 291.68,209.84 311.52,227.2 z" id="boundary" inkscape:connector-curvature="0" />
	<path style="fill:none;stroke:red;stroke-width:1px;stroke-linecap:butt;stroke-linejoin:miter;stroke-opacity:1" d="M 291.68,408.24 311.52,425.6 z" id="boundary" inkscape:connector-curvature="0" />
	<path style="fill:none;stroke:red;stroke-width:1px;stroke-linecap:butt;stroke-linejoin:miter;stroke-opacity:1" d="M 311.52,227.2 328.88,247.04 z" id="boundary" inkscape:connector-curvature="0" />
	<path style="fill:none;stroke:red;stroke-width:1px;stroke-linecap:butt;stroke-linejoin:miter;stroke-opacity:1" d="M 311.52,425.6 328.88,445.44 z" id="boundary" inkscape:connector-curvature="0" />
	<path style="fill:none;stroke:red;stroke-width:1px;stroke-linecap:butt;stroke-linejoin:miter;stroke-opacity:1" d="M 328.88,247.04 348.72,264.4 z" id="boundary" inkscape:connector-curvature="0" />
	<path style="fill:none;stroke:red;stroke-width:1px;stroke-linecap:butt;stroke-linejoin:miter;stroke-opacity:1" d="M 328.88,445.44 348.72,462.8 z" id="boundary" inkscape:connector-curvature="0" />
	<path style="fill:none;stroke:red;stroke-width:1px;stroke-linecap:butt;stroke-linejoin:miter;stroke-opacity:1" d="M 348.72,264.4 358.64,289.2 z" id="boundary" inkscape:connector-curvature="0" />
	<path style="fill:none;stroke:red;stroke-width:1px;stroke-linecap:butt;stroke-linejoin:miter;stroke-opacity:1" d="M 348.72,462.8 366.08,482.64 z" id="boundary" inkscape:connector-curvature="0" />
	<path style="fill:none;stroke:red;stroke-width:1px;stroke-linecap:butt;stroke-linejoin:miter;stroke-opacity:1" d="M 358.64,289.2 378.48,306.56 z" id="boundary" inkscape:connector-curvature="0" />
	<path style="fill:none;stroke:red;stroke-width:1px;stroke-linecap:butt;stroke-linejoin:miter;stroke-opacity:1" d="M 366.08,482.64 385.92,500 z" id="boundary" inkscape:connector-curvature="0" />
	<path style="fill:none;stroke:red;stroke-width:1px;stroke-linecap:butt;stroke-linejoin:miter;stroke-opacity:1" d="M 378.48,306.56 395.84,326.4 z" id="boundary" inkscape:connector-curvature="0" />
	<path style="fill:none;stroke:red;stroke-width:1px;stroke-linecap:butt;stroke-linejoin:miter;stroke-opacity:1" d="M 385.92,500 403.28,519.84 z" id="boundary" inkscape:connector-curvature="0" />
	<path style="fill:none;stroke:red;stroke-width:1px;stroke-linecap:butt;stroke-linejoin:miter;stroke-opacity:1" d="M 395.84,326.4 415.68,343.76 z" id="boundary" inkscape:connector-curvature="0" />
	<path style="fill:none;stroke:red;stroke-width:1px;stroke-linecap:butt;stroke-linejoin:miter;stroke-opacity:1" d="M 403.28,519.84 423.12,537.2 z" id="boundary" inkscape:connector-curvature="0" />
	<path style="fill:none;stroke:red;stroke-width:1px;stroke-linecap:butt;stroke-linejoin:miter;stroke-opacity:1" d="M 415.68,343.76 433.04,363.6 z" id="boundary" inkscape:connector-curvature="0" />
	<path style="fill:none;stroke:red;stroke-width:1px;stroke-linecap:butt;stroke-linejoin:miter;stroke-opacity:1" d="M 423.12,537.2 440.48,557.04 z" id="boundary" inkscape:connector-curvature="0" />
	<path style="fill:none;stroke:red;stroke-width:1px;stroke-linecap:butt;stroke-linejoin:miter;stroke-opacity:1" d="M 433.04,363.6 452.88,380.96 z" id="boundary" inkscape:connector-curvature="0" />
	<path style="fill:none;stroke:red;stroke-width:1px;stroke-linecap:butt;stroke-linejoin:miter;stroke-opacity:1" d="M 440.48,557.04 460.32,574.4 z" id="boundary" inkscape:connector-curvature="0" />
	<path style="fill:none;stroke:red;stroke-width:1px;stroke-linecap:butt;stroke-linejoin:miter;stroke-opacity:1" d="M 452.88,380.96 462.8,405.76 z" id="boundary" inkscape:connector-curvature="0" />
	<path style="fill:none;stroke:red;stroke-width:1px;stroke-linecap:butt;stroke-linejoin:miter;stroke-opacity:1" d="M 460.32,574.4 477.68,594.24 z" id="boundary" inkscape:connector-curvature="0" />
	<path style="fill:none;stroke:red;stroke-width:1px;stroke-linecap:butt;stroke-linejoin:miter;stroke-opacity:1" d="M 462.8,405.76 482.64,423.12 z" id="boundary" inkscape:connector-curvature="0" />
	<path style="fill:none;stroke:red;stroke-width:1px;stroke-linecap:butt;stroke-linejoin:miter;stroke-opacity:1" d="M 477.68,594.24 497.52,611.6 z" id="boundary" inkscape:connector-curvature="0" />
	<path style="fill:none;stroke:red;stroke-width:1px;stroke-linecap:butt;stroke-linejoin:miter;stroke-opacity:1" d="M 482.64,423.12 500,442.96 z" id="boundary" inkscape:connector-curvature="0" />
	<path style="fill:none;stroke:red;stroke-width:1px;stroke-linecap:butt;stroke-linejoin:miter;stroke-opacity:1" d="M 497.52,611.6 514.88,631.44 z" id="boundary" inkscape:connector-curvature="0" />
	<path style="fill:none;stroke:red;stroke-width:1px;stroke-linecap:butt;stroke-linejoin:miter;stroke-opacity:1" d="M 500,442.96 512.4,465.28 z" id="boundary" inkscape:connector-curvature="0" />
	<path style="fill:none;stroke:red;stroke-width:1px;stroke-linecap:butt;stroke-linejoin:miter;stroke-opacity:1" d="M 512.4,465.28 527.28,485.12 z" id="boundary" inkscape:connector-curvature="0" />
	<path style="fill:none;stroke:red;stroke-width:1px;stroke-linecap:butt;stroke-linejoin:miter;stroke-opacity:1" d="M 514.88,631.44 534.72,648.8 z" id="boundary" inkscape:connector-curvature="0" />
	<path style="fill:none;stroke:red;stroke-width:1px;stroke-linecap:butt;stroke-linejoin:miter;stroke-opacity:1" d="M 527.28,485.12 547.12,500 z" id="boundary" inkscape:connector-curvature="0" />
	<path style="fill:none;stroke:red;stroke-width:1px;stroke-linecap:butt;stroke-linejoin:miter;stroke-opacity:1" d="M 534.72,648.8 549.6,668.64 z" id="boundary" inkscape:connector-curvature="0" />
	<path style="fill:none;stroke:red;stroke-width:1px;stroke-linecap:butt;stroke-linejoin:miter;stroke-opacity:1" d="M 547.12,500 557.04,524.8 z" id="boundary" inkscape:connector-curvature="0" />
	<path style="fill:none;stroke:red;stroke-width:1px;stroke-linecap:butt;stroke-linejoin:miter;stroke-opacity:1" d="M 549.6,668.64 562,690.96 z" id="boundary" inkscape:connector-curvature="0" />
	<path style="fill:none;stroke:red;stroke-width:1px;stroke-linecap:butt;stroke-linejoin:miter;stroke-opacity:1" d="M 557.04,524.8 576.88,542.16 z" id="boundary" inkscape:connector-curvature="0" />
	<path style="fill:none;stroke:red;stroke-width:1px;stroke-linecap:butt;stroke-linejoin:miter;stroke-opacity:1" d="M 562,690.96 581.84,708.32 z" id="boundary" inkscape:connector-curvature="0" />
	<path style="fill:none;stroke:red;stroke-width:1px;stroke-linecap:butt;stroke-linejoin:miter;stroke-opacity:1" d="M 574.4,889.36 586.8,911.68 z" id="boundary" inkscape:connector-curvature="0" />
	<path style="fill:none;stroke:red;stroke-width:1px;stroke-linecap:butt;stroke-linejoin:miter;stroke-opacity:1" d="M 574.4,889.36 594.24,869.52 z" id="boundary" inkscape:connector-curvature="0" />
	<path style="fill:none;stroke:red;stroke-width:1px;stroke-linecap:butt;stroke-linejoin:miter;stroke-opacity:1" d="M 576.88,542.16 594.24,562 z" id="boundary" inkscape:connector-curvature="0" />
	<path style="fill:none;stroke:red;stroke-width:1px;stroke-linecap:butt;stroke-linejoin:miter;stroke-opacity:1" d="M 581.84,708.32 599.2,728.16 z" id="boundary" inkscape:connector-curvature="0" />
	<path style="fill:none;stroke:red;stroke-width:1px;stroke-linecap:butt;stroke-linejoin:miter;stroke-opacity:1" d="M 586.8,911.68 586.8,936.48 z" id="boundary" inkscape:connector-curvature="0" />
	<path style="fill:none;stroke:red;stroke-width:1px;stroke-linecap:butt;stroke-linejoin:miter;stroke-opacity:1" d="M 586.8,936.48 599.2,958.8 z" id="boundary" inkscape:connector-curvature="0" />
	<path style="fill:none;stroke:red;stroke-width:1px;stroke-linecap:butt;stroke-linejoin:miter;stroke-opacity:1" d="M 594.24,562 614.08,579.36 z" id="boundary" inkscape:connector-curvature="0" />
	<path style="fill:none;stroke:red;stroke-width:1px;stroke-linecap:butt;stroke-linejoin:miter;stroke-opacity:1" d="M 594.24,869.52 619.04,869.52 z" id="boundary" inkscape:connector-curvature="0" />
	<path style="fill:none;stroke:red;stroke-width:1px;stroke-linecap:butt;stroke-linejoin:miter;stroke-opacity:1" d="M 599.2,728.16 619.04,745.52 z" id="boundary" inkscape:connector-curvature="0" />
	<path style="fill:none;stroke:red;stroke-width:1px;stroke-linecap:butt;stroke-linejoin:miter;stroke-opacity:1" d="M 599.2,958.8 606.64,983.6 z" id="boundary" inkscape:connector-curvature="0" />
	<path style="fill:none;stroke:red;stroke-width:1px;stroke-linecap:butt;stroke-linejoin:miter;stroke-opacity:1" d="M 606.64,983.6 628.96,996 z" id="boundary" inkscape:connector-curvature="0" />
	<path style="fill:none;stroke:red;stroke-width:1px;stroke-linecap:butt;stroke-linejoin:miter;stroke-opacity:1" d="M 614.08,579.36 631.44,599.2 z" id="boundary" inkscape:connector-curvature="0" />
	<path style="fill:none;stroke:red;stroke-width:1px;stroke-linecap:butt;stroke-linejoin:miter;stroke-opacity:1" d="M 619.04,745.52 636.4,765.36 z" id="boundary" inkscape:connector-curvature="0" />
	<path style="fill:none;stroke:red;stroke-width:1px;stroke-linecap:butt;stroke-linejoin:miter;stroke-opacity:1" d="M 619.04,869.52 641.36,857.12 z" id="boundary" inkscape:connector-curvature="0" />
	<path style="fill:none;stroke:red;stroke-width:1px;stroke-linecap:butt;stroke-linejoin:miter;stroke-opacity:1" d="M 628.96,996 653.76,996 z" id="boundary" inkscape:connector-curvature="0" />
	<path style="fill:none;stroke:red;stroke-width:1px;stroke-linecap:butt;stroke-linejoin:miter;stroke-opacity:1" d="M 631.44,599.2 651.28,616.56 z" id="boundary" inkscape:connector-curvature="0" />
	<path style="fill:none;stroke:red;stroke-width:1px;stroke-linecap:butt;stroke-linejoin:miter;stroke-opacity:1" d="M 636.4,765.36 648.8,787.68 z" id="boundary" inkscape:connector-curvature="0" />
	<path style="fill:none;stroke:red;stroke-width:1px;stroke-linecap:butt;stroke-linejoin:miter;stroke-opacity:1" d="M 641.36,857.12 661.2,839.76 z" id="boundary" inkscape:connector-curvature="0" />
	<path style="fill:none;stroke:red;stroke-width:1px;stroke-linecap:butt;stroke-linejoin:miter;stroke-opacity:1" d="M 648.8,787.68 661.2,810 z" id="boundary" inkscape:connector-curvature="0" />
	<path style="fill:none;stroke:red;stroke-width:1px;stroke-linecap:butt;stroke-linejoin:miter;stroke-opacity:1" d="M 651.28,616.56 668.64,636.4 z" id="boundary" inkscape:connector-curvature="0" />
	<path style="fill:none;stroke:red;stroke-width:1px;stroke-linecap:butt;stroke-linejoin:miter;stroke-opacity:1" d="M 653.76,996 676.08,983.6 z" id="boundary" inkscape:connector-curvature="0" />
	<path style="fill:none;stroke:red;stroke-width:1px;stroke-linecap:butt;stroke-linejoin:miter;stroke-opacity:1" d="M 661.2,810 661.2,839.76 z" id="boundary" inkscape:connector-curvature="0" />
	<path style="fill:none;stroke:red;stroke-width:1px;stroke-linecap:butt;stroke-linejoin:miter;stroke-opacity:1" d="M 668.64,636.4 688.48,653.76 z" id="boundary" inkscape:connector-curvature="0" />
	<path style="fill:none;stroke:red;stroke-width:1px;stroke-linecap:butt;stroke-linejoin:miter;stroke-opacity:1" d="M 676.08,983.6 695.92,966.24 z" id="boundary" inkscape:connector-curvature="0" />
	<path style="fill:none;stroke:red;stroke-width:1px;stroke-linecap:butt;stroke-linejoin:miter;stroke-opacity:1" d="M 688.48,653.76 705.84,673.6 z" id="boundary" inkscape:connector-curvature="0" />
	<path style="fill:none;stroke:red;stroke-width:1px;stroke-linecap:butt;stroke-linejoin:miter;stroke-opacity:1" d="M 695.92,966.24 713.28,946.4 z" id="boundary" inkscape:connector-curvature="0" />
	<path style="fill:none;stroke:red;stroke-width:1px;stroke-linecap:butt;stroke-linejoin:miter;stroke-opacity:1" d="M 705.84,673.6 725.68,690.96 z" id="boundary" inkscape:connector-curvature="0" />
	<path style="fill:none;stroke:red;stroke-width:1px;stroke-linecap:butt;stroke-linejoin:miter;stroke-opacity:1" d="M 713.28,946.4 725.68,921.6 z" id="boundary" inkscape:connector-curvature="0" />
	<path style="fill:none;stroke:red;stroke-width:1px;stroke-linecap:butt;stroke-linejoin:miter;stroke-opacity:1" d="M 725.68,690.96 743.04,710.8 z" id="boundary" inkscape:connector-curvature="0" />
	<path style="fill:none;stroke:red;stroke-width:1px;stroke-linecap:butt;stroke-linejoin:miter;stroke-opacity:1" d="M 725.68,921.6 750.48,921.6 z" id="boundary" inkscape:connector-curvature="0" />
	<path style="fill:none;stroke:red;stroke-width:1px;stroke-linecap:butt;stroke-linejoin:miter;stroke-opacity:1" d="M 743.04,710.8 767.84,720.72 z" id="boundary" inkscape:connector-curvature="0" />
	<path style="fill:none;stroke:red;stroke-width:1px;stroke-linecap:butt;stroke-linejoin:miter;stroke-opacity:1" d="M 750.48,921.6 772.8,909.2 z" id="boundary" inkscape:connector-curvature="0" />
	<path style="fill:none;stroke:red;stroke-width:1px;stroke-linecap:butt;stroke-linejoin:miter;stroke-opacity:1" d="M 767.84,720.72 792.64,720.72 z" id="boundary" inkscape:connector-curvature="0" />
	<path style="fill:none;stroke:red;stroke-width:1px;stroke-linecap:butt;stroke-linejoin:miter;stroke-opacity:1" d="M 772.8,909.2 795.12,896.8 z" id="boundary" inkscape:connector-curvature="0" />
	<path style="fill:none;stroke:red;stroke-width:1px;stroke-linecap:butt;stroke-linejoin:miter;stroke-opacity:1" d="M 792.64,720.72 805.04,695.92 z" id="boundary" inkscape:connector-curvature="0" />
	<path style="fill:none;stroke:red;stroke-width:1px;stroke-linecap:butt;stroke-linejoin:miter;stroke-opacity:1" d="M 795.12,896.8 817.44,881.92 z" id="boundary" inkscape:connector-curvature="0" />
	<path style="fill:none;stroke:red;stroke-width:1px;stroke-linecap:butt;stroke-linejoin:miter;stroke-opacity:1" d="M 805.04,695.92 810,653.76 z" id="boundary" inkscape:connector-curvature="0" />
	<path style="fill:none;stroke:red;stroke-width:1px;stroke-linecap:butt;stroke-linejoin:miter;stroke-opacity:1" d="M 810,579.36 810,604.16 z" id="boundary" inkscape:connector-curvature="0" />
	<path style="fill:none;stroke:red;stroke-width:1px;stroke-linecap:butt;stroke-linejoin:miter;stroke-opacity:1" d="M 810,579.36 829.84,559.52 z" id="boundary" inkscape:connector-curvature="0" />
	<path style="fill:none;stroke:red;stroke-width:1px;stroke-linecap:butt;stroke-linejoin:miter;stroke-opacity:1" d="M 810,604.16 810,628.96 z" id="boundary" inkscape:connector-curvature="0" />
	<path style="fill:none;stroke:red;stroke-width:1px;stroke-linecap:butt;stroke-linejoin:miter;stroke-opacity:1" d="M 810,628.96 810,653.76 z" id="boundary" inkscape:connector-curvature="0" />
	<path style="fill:none;stroke:red;stroke-width:1px;stroke-linecap:butt;stroke-linejoin:miter;stroke-opacity:1" d="M 817.44,881.92 842.24,869.52 z" id="boundary" inkscape:connector-curvature="0" />
	<path style="fill:none;stroke:red;stroke-width:1px;stroke-linecap:butt;stroke-linejoin:miter;stroke-opacity:1" d="M 829.84,559.52 847.2,579.36 z" id="boundary" inkscape:connector-curvature="0" />
	<path style="fill:none;stroke:red;stroke-width:1px;stroke-linecap:butt;stroke-linejoin:miter;stroke-opacity:1" d="M 842.24,869.52 862.08,847.2 z" id="boundary" inkscape:connector-curvature="0" />
	<path style="fill:none;stroke:red;stroke-width:1px;stroke-linecap:butt;stroke-linejoin:miter;stroke-opacity:1" d="M 847.2,579.36 872,589.28 z" id="boundary" inkscape:connector-curvature="0" />
	<path style="fill:none;stroke:red;stroke-width:1px;stroke-linecap:butt;stroke-linejoin:miter;stroke-opacity:1" d="M 862.08,847.2 881.92,829.84 z" id="boundary" inkscape:connector-curvature="0" />
	<path style="fill:none;stroke:red;stroke-width:1px;stroke-linecap:butt;stroke-linejoin:miter;stroke-opacity:1" d="M 872,589.28 894.32,601.68 z" id="boundary" inkscape:connector-curvature="0" />
	<path style="fill:none;stroke:red;stroke-width:1px;stroke-linecap:butt;stroke-linejoin:miter;stroke-opacity:1" d="M 881.92,829.84 899.28,797.6 z" id="boundary" inkscape:connector-curvature="0" />
	<path style="fill:none;stroke:red;stroke-width:1px;stroke-linecap:butt;stroke-linejoin:miter;stroke-opacity:1" d="M 894.32,601.68 906.72,624 z" id="boundary" inkscape:connector-curvature="0" />
	<path style="fill:none;stroke:red;stroke-width:1px;stroke-linecap:butt;stroke-linejoin:miter;stroke-opacity:1" d="M 899.28,797.6 911.68,772.8 z" id="boundary" inkscape:connector-curvature="0" />
	<path style="fill:none;stroke:red;stroke-width:1px;stroke-linecap:butt;stroke-linejoin:miter;stroke-opacity:1" d="M 906.72,624 911.68,648.8 z" id="boundary" inkscape:connector-curvature="0" />
	<path style="fill:none;stroke:red;stroke-width:1px;stroke-linecap:butt;stroke-linejoin:miter;stroke-opacity:1" d="M 911.68,648.8 911.68,673.6 z" id="boundary" inkscape:connector-curvature="0" />
	<path style="fill:none;stroke:red;stroke-width:1px;stroke-linecap:butt;stroke-linejoin:miter;stroke-opacity:1" d="M 911.68,673.6 911.68,698.4 z" id="boundary" inkscape:connector-curvature="0" />
	<path style="fill:none;stroke:red;stroke-width:1px;stroke-linecap:butt;stroke-linejoin:miter;stroke-opacity:1" d="M 911.68,698.4 911.68,723.2 z" id="boundary" inkscape:connector-curvature="0" />
	<path style="fill:none;stroke:red;stroke-width:1px;stroke-linecap:butt;stroke-linejoin:miter;stroke-opacity:1" d="M 911.68,723.2 911.68,748 z" id="boundary" inkscape:connector-curvature="0" />
	<path style="fill:none;stroke:red;stroke-width:1px;stroke-linecap:butt;stroke-linejoin:miter;stroke-opacity:1" d="M 911.68,748 911.68,772.8 z" id="boundary" inkscape:connector-curvature="0" />
	<circle cx="4" cy="58.56" r="4" fill="#0" id="circle0"/>
	<circle cx="4" cy="83.36" r="4" fill="#0" id="circle1"/>
	<circle cx="4" cy="108.16" r="4" fill="#0" id="circle2"/>
	<circle cx="23.84" cy="38.72" r="4" fill="#0" id="circle3"/>
	<circle cx="23.84" cy="125.52" r="4" fill="#0" id="circle4"/>
	<circle cx="41.2" cy="145.36" r="4" fill="#0" id="circle5"/>
	<circle cx="43.68" cy="18.88" r="4" fill="#0" id="circle6"/>
	<circle cx="61.04" cy="162.72" r="4" fill="#0" id="circle7"/>
	<circle cx="63.52" cy="4" r="4" fill="#0" id="circle8"/>
	<circle cx="78.4" cy="182.56" r="4" fill="#0" id="circle9"/>
	<circle cx="85.84" cy="16.4" r="4" fill="#0" id="circle10"/>
	<circle cx="98.24" cy="199.92" r="4" fill="#0" id="circle11"/>
	<circle cx="110.64" cy="26.32" r="4" fill="#0" id="circle12"/>
	<circle cx="115.6" cy="219.76" r="4" fill="#0" id="circle13"/>
	<circle cx="128" cy="242.08" r="4" fill="#0" id="circle14"/>
	<circle cx="132.96" cy="38.72" r="4" fill="#0" id="circle15"/>
	<circle cx="145.36" cy="261.92" r="4" fill="#0" id="circle16"/>
	<circle cx="152.8" cy="56.08" r="4" fill="#0" id="circle17"/>
	<circle cx="165.2" cy="276.8" r="4" fill="#0" id="circle18"/>
	<circle cx="167.68" cy="75.92" r="4" fill="#0" id="circle19"/>
	<circle cx="180.08" cy="98.24" r="4" fill="#0" id="circle20"/>
	<circle cx="180.08" cy="296.64" r="4" fill="#0" id="circle21"/>
	<circle cx="199.92" cy="115.6" r="4" fill="#0" id="circle22"/>
	<circle cx="199.92" cy="314" r="4" fill="#0" id="circle23"/>
	<circle cx="217.28" cy="135.44" r="4" fill="#0" id="circle24"/>
	<circle cx="217.28" cy="333.84" r="4" fill="#0" id="circle25"/>
	<circle cx="237.12" cy="152.8" r="4" fill="#0" id="circle26"/>
	<circle cx="237.12" cy="351.2" r="4" fill="#0" id="circle27"/>
	<circle cx="254.48" cy="172.64" r="4" fill="#0" id="circle28"/>
	<circle cx="254.48" cy="371.04" r="4" fill="#0" id="circle29"/>
	<circle cx="274.32" cy="190" r="4" fill="#0" id="circle30"/>
	<circle cx="274.32" cy="388.4" r="4" fill="#0" id="circle31"/>
	<circle cx="291.68" cy="209.84" r="4" fill="#0" id="circle32"/>
	<circle cx="291.68" cy="408.24" r="4" fill="#0" id="circle33"/>
	<circle cx="311.52" cy="227.2" r="4" fill="#0" id="circle34"/>
	<circle cx="311.52" cy="425.6" r="4" fill="#0" id="circle35"/>
	<circle cx="328.88" cy="247.04" r="4" fill="#0" id="circle36"/>
	<circle cx="328.88" cy="445.44" r="4" fill="#0" id="circle37"/>
	<circle cx="348.72" cy="264.4" r="4" fill="#0" id="circle38"/>
	<circle cx="348.72" cy="462.8" r="4" fill="#0" id="circle39"/>
	<circle cx="358.64" cy="289.2" r="4" fill="#0" id="circle40"/>
	<circle cx="366.08" cy="482.64" r="4" fill="#0" id="circle41"/>
	<circle cx="378.48" cy="306.56" r="4" fill="#0" id="circle42"/>
	<circle cx="385.92" cy="500" r="4" fill="#0" id="circle43"/>
	<circle cx="395.84" cy="326.4" r="4" fill="#0" id="circle44"/>
	<circle cx="403.28" cy="519.84" r="4" fill="#0" id="circle45"/>
	<circle cx="415.68" cy="343.76" r="4" fill="#0" id="circle46"/>
	<circle cx="423.12" cy="537.2" r="4" fill="#0" id="circle47"/>
	<circle cx="433.04" cy="363.6" r="4" fill="#0" id="circle48"/>
	<circle cx="440.48" cy="557.04" r="4" fill="#0" id="circle49"/>
	<circle cx="452.88" cy="380.96" r="4" fill="#0" id="circle50"/>
	<circle cx="460.32" cy="574.4" r="4" fill="#0" id="circle51"/>
	<circle cx="462.8" cy="405.76" r="4" fill="#0" id="circle52"/>
	<circle cx="477.68" cy="594.24" r="4" fill="#0" id="circle53"/>
	<circle cx="482.64" cy="423.12" r="4" fill="#0" id="circle54"/>
	<circle cx="497.52" cy="611.6" r="4" fill="#0" id="circle55"/>
	<circle cx="500" cy="442.96" r="4" fill="#0" id="circle56"/>
	<circle cx="512.4" cy="465.28" r="4" fill="#0" id="circle57"/>
	<circle cx="514.88" cy="631.44" r="4" fill="#0" id="circle58"/>
	<circle cx="527.28" cy="485.12" r="4" fill="#0" id="circle59"/>
	<circle cx="534.72" cy="648.8" r="4" fill="#0" id="circle60"/>
	<circle cx="547.12" cy="500" r="4" fill="#0" id="circle61"/>
	<circle cx="549.6" cy="668.64" r="4" fill="#0" id="circle62"/>
	<circle cx="557.04" cy="524.8" r="4" fill="#0" id="circle63"/>
	<circle cx="562" cy="690.96" r="4" fill="#0" id="circle64"/>
	<circle cx="574.4" cy="889.36" r="4" fill="#0" id="circle65"/>
	<circle cx="576.88" cy="542.16" r="4" fill="#0" id="circle66"/>
	<circle cx="581.84" cy="708.32" r="4" fill="#0" id="circle67"/>
	<circle cx="586.8" cy="911.68" r="4" fill="#0" id="circle68"/>
	<circle cx="586.8" cy="936.48" r="4" fill="#0" id="circle69"/>
	<circle cx="594.24" cy="562" r="4" fill="#0" id="circle70"/>
	<circle cx="594.24" cy="869.52" r="4" fill="#0" id="circle71"/>
	<circle cx="599.2" cy="728.16" r="4" fill="#0" id="circle72"/>
	<circle cx="599.2" cy="958.8" r="4" fill="#0" id="circle73"/>
	<circle cx="606.64" cy="983.6" r="4" fill="#0" id="circle74"/>
	<circle cx="614.08" cy="579.36" r="4" fill="#0" id="circle75"/>
	<circle cx="619.04" cy="745.52" r="4" fill="#0" id="circle76"/>
	<circle cx="619.04" cy="869.52" r="4" fill="#0" id="circle77"/>
	<circle cx="628.96" cy="996" r="4" fill="#0" id="circle78"/>
	<circle cx="631.44" cy="599.2" r="4" fill="#0" id="circle79"/>
	<circle cx="636.4" cy="765.36" r="4" fill="#0" id="circle80"/>
	<circle cx="641.36" cy="857.12" r="4" fill="#0" id="circle81"/>
	<circle cx="648.8" cy="787.68" r="4" fill="#0" id="circle82"/>
	<circle cx="651.28" cy="616.56" r="4" fill="#0" id="circle83"/>
	<circle cx="653.76" cy="996" r="4" fill="#0" id="circle84"/>
	<circle cx="661.2" cy="810" r="4" fill="#0" id="circle85"/>
	<circle cx="661.2" cy="839.76" r="4" fill="#0" id="circle86"/>
	<circle cx="668.64" cy="636.4" r="4" fill="#0" id="circle87"/>
	<circle cx="676.08" cy="983.6" r="4" fill="#0" id="circle88"/>
	<circle cx="688.48" cy="653.76" r="4" fill="#0" id="circle89"/>
	<circle cx="695.92" cy="966.24" r="4" fill="#0" id="circle90"/>
	<circle cx="705.84" cy="673.6" r="4" fill="#0" id="circle91"/>
	<circle cx="713.28" cy="946.4" r="4" fill="#0" id="circle92"/>
	<circle cx="725.68" cy="690.96" r="4" fill="#0" id="circle93"/>
	<circle cx="725.68" cy="921.6" r="4" fill="#0" id="circle94"/>
	<circle cx="743.04" cy="710.8" r="4" fill="#0" id="circle95"/>
	<circle cx="750.48" cy="921.6" r="4" fill="#0" id="circle96"/>
	<circle cx="767.84" cy="720.72" r="4" fill="#0" id="circle97"/>
	<circle cx="772.8" cy="909.2" r="4" fill="#0" id="circle98"/>
	<circle cx="792.64" cy="720.72" r="4" fill="#0" id="circle99"/>
	<circle cx="795.12" cy="896.8" r="4" fill="#0" id="circle100"/>
	<circle cx="805.04" cy="695.92" r="4" fill="#0" id="circle101"/>
	<circle cx="810" cy="579.36" r="4" fill="#0" id="circle102"/>
	<circle cx="810" cy="604.16" r="4" fill="#0" id="circle103"/>
	<circle cx="810" cy="628.96" r="4" fill="#0" id="circle104"/>
	<circle cx="810" cy="653.76" r="4" fill="#0" id="circle105"/>
	<circle cx="817.44" cy="881.92" r="4" fill="#0" id="circle106"/>
	<circle cx="829.84" cy="559.52" r="4" fill="#0" id="circle107"/>
	<circle cx="842.24" cy="869.52" r="4" fill="#0" id="circle108"/>
	<circle cx="847.2" cy="579.36" r="4" fill="#0" id="circle109"/>
	<circle cx="862.08" cy="847.2" r="4" fill="#0" id="circle110"/>
	<circle cx="872" cy="589.28" r="4" fill="#0" id="circle111"/>
	<circle cx="881.92" cy="829.84" r="4" fill="#0" id="circle112"/>
	<circle cx="894.32" cy="601.68" r="4" fill="#0" id="circle113"/>
	<circle cx="899.28" cy="797.6" r="4" fill="#0" id="circle114"/>
	<circle cx="906.72" cy="624" r="4" fill="#0" id="circle115"/>
	<circle cx="911.68" cy="648.8" r="4" fill="#0" id="circle116"/>
	<circle cx="911.68" cy="673.6" r="4" fill="#0" id="circle117"/>
	<circle cx="911.68" cy="698.4" r="4" fill="#0" id="circle118"/>
	<circle cx="911.68" cy="723.2" r="4" fill="#0" id="circle119"/>
	<circle cx="911.68" cy="748" r="4" fill="#0" id="circle120"/>
	<circle cx="911.68" cy="772.8" r="4" fill="#0" id="circle121"/>
	</g>
</svg>