<?xml version="1.0" encoding="UTF-8" standalone="no"?>
<!-- Created with CurveBenchmark -->
<svg
	xmlns:dc="http://purl.org/dc/elements/1.1/"
	xmlns:cc="http://creativecommons.org/ns#"
	xmlns:rdf="http://www.w3.org/1999/02/22-rdf-syntax-ns#"
	xmlns:svg="http://www.w3.org/2000/svg"
	xmlns="http://www.w3.org/2000/svg"
	xmlns:sodipodi="http://sodipodi.sourceforge.net/DTD/sodipodi-0.dtd"
	xmlns:inkscape="http://www.inkscape.org/namespaces/inkscape"
	width="1000"
	height="1000"
	id="svg2"
	version="1.1"
	sodipodi:docname="manifold/vicur-mgen1ep.png.txt">
<defs
	id="defs4" />
<metadata
	id="metadata7">
	<rdf:RDF>
		<cc:Work
			rdf:about="">
			<dc:format>image/svg+xml</dc:format>
			<dc:type
				rdf:resource="http://purl.org/dc/dcmitype/StillImage" />
			<dc:title></dc:title>
		</cc:Work>
	</rdf:RDF>
</metadata>
<g
	inkscape:label="Layer 1"
	inkscape:groupmode="layer"
	id="layer1">
	<path style="fill:none;stroke:red;stroke-width:1px;stroke-linecap:butt;stroke-linejoin:miter;stroke-opacity:1" d="M 4,41.9108 14.5308,60.8662 z" id="boundary" inkscape:connector-curvature="0" />
	<path style="fill:none;stroke:red;stroke-width:1px;stroke-linecap:butt;stroke-linejoin:miter;stroke-opacity:1" d="M 4,41.9108 20.8493,25.0616 z" id="boundary" inkscape:connector-curvature="0" />
	<path style="fill:none;stroke:red;stroke-width:1px;stroke-linecap:butt;stroke-linejoin:miter;stroke-opacity:1" d="M 14.5308,60.8662 29.2739,77.7155 z" id="boundary" inkscape:connector-curvature="0" />
	<path style="fill:none;stroke:red;stroke-width:1px;stroke-linecap:butt;stroke-linejoin:miter;stroke-opacity:1" d="M 14.5308,694.82 31.38,677.97 z" id="boundary" inkscape:connector-curvature="0" />
	<path style="fill:none;stroke:red;stroke-width:1px;stroke-linecap:butt;stroke-linejoin:miter;stroke-opacity:1" d="M 14.5308,694.82 31.38,709.563 z" id="boundary" inkscape:connector-curvature="0" />
	<path style="fill:none;stroke:red;stroke-width:1px;stroke-linecap:butt;stroke-linejoin:miter;stroke-opacity:1" d="M 20.8493,25.0616 39.8047,35.5924 z" id="boundary" inkscape:connector-curvature="0" />
	<path style="fill:none;stroke:red;stroke-width:1px;stroke-linecap:butt;stroke-linejoin:miter;stroke-opacity:1" d="M 29.2739,77.7155 46.1231,90.3524 z" id="boundary" inkscape:connector-curvature="0" />
	<path style="fill:none;stroke:red;stroke-width:1px;stroke-linecap:butt;stroke-linejoin:miter;stroke-opacity:1" d="M 31.38,677.97 48.2293,661.121 z" id="boundary" inkscape:connector-curvature="0" />
	<path style="fill:none;stroke:red;stroke-width:1px;stroke-linecap:butt;stroke-linejoin:miter;stroke-opacity:1" d="M 31.38,709.563 46.1231,726.412 z" id="boundary" inkscape:connector-curvature="0" />
	<path style="fill:none;stroke:red;stroke-width:1px;stroke-linecap:butt;stroke-linejoin:miter;stroke-opacity:1" d="M 39.8047,35.5924 58.7601,46.1231 z" id="boundary" inkscape:connector-curvature="0" />
	<path style="fill:none;stroke:red;stroke-width:1px;stroke-linecap:butt;stroke-linejoin:miter;stroke-opacity:1" d="M 46.1231,90.3524 58.7601,107.202 z" id="boundary" inkscape:connector-curvature="0" />
	<path style="fill:none;stroke:red;stroke-width:1px;stroke-linecap:butt;stroke-linejoin:miter;stroke-opacity:1" d="M 46.1231,294.65 62.9724,277.8 z" id="boundary" inkscape:connector-curvature="0" />
	<path style="fill:none;stroke:red;stroke-width:1px;stroke-linecap:butt;stroke-linejoin:miter;stroke-opacity:1" d="M 46.1231,294.65 62.9724,309.393 z" id="boundary" inkscape:connector-curvature="0" />
	<path style="fill:none;stroke:red;stroke-width:1px;stroke-linecap:butt;stroke-linejoin:miter;stroke-opacity:1" d="M 46.1231,726.412 62.9724,741.155 z" id="boundary" inkscape:connector-curvature="0" />
	<path style="fill:none;stroke:red;stroke-width:1px;stroke-linecap:butt;stroke-linejoin:miter;stroke-opacity:1" d="M 48.2293,661.121 58.7601,640.059 z" id="boundary" inkscape:connector-curvature="0" />
	<path style="fill:none;stroke:red;stroke-width:1px;stroke-linecap:butt;stroke-linejoin:miter;stroke-opacity:1" d="M 58.7601,46.1231 79.8217,46.1231 z" id="boundary" inkscape:connector-curvature="0" />
	<path style="fill:none;stroke:red;stroke-width:1px;stroke-linecap:butt;stroke-linejoin:miter;stroke-opacity:1" d="M 58.7601,107.202 75.6093,121.945 z" id="boundary" inkscape:connector-curvature="0" />
	<path style="fill:none;stroke:red;stroke-width:1px;stroke-linecap:butt;stroke-linejoin:miter;stroke-opacity:1" d="M 58.7601,640.059 79.8217,635.847 z" id="boundary" inkscape:connector-curvature="0" />
	<path style="fill:none;stroke:red;stroke-width:1px;stroke-linecap:butt;stroke-linejoin:miter;stroke-opacity:1" d="M 62.9724,277.8 84.034,277.8 z" id="boundary" inkscape:connector-curvature="0" />
	<path style="fill:none;stroke:red;stroke-width:1px;stroke-linecap:butt;stroke-linejoin:miter;stroke-opacity:1" d="M 62.9724,309.393 77.7155,326.242 z" id="boundary" inkscape:connector-curvature="0" />
	<path style="fill:none;stroke:red;stroke-width:1px;stroke-linecap:butt;stroke-linejoin:miter;stroke-opacity:1" d="M 62.9724,741.155 79.8217,753.792 z" id="boundary" inkscape:connector-curvature="0" />
	<path style="fill:none;stroke:red;stroke-width:1px;stroke-linecap:butt;stroke-linejoin:miter;stroke-opacity:1" d="M 75.6093,121.945 90.3524,138.794 z" id="boundary" inkscape:connector-curvature="0" />
	<path style="fill:none;stroke:red;stroke-width:1px;stroke-linecap:butt;stroke-linejoin:miter;stroke-opacity:1" d="M 77.7155,326.242 94.5648,340.985 z" id="boundary" inkscape:connector-curvature="0" />
	<path style="fill:none;stroke:red;stroke-width:1px;stroke-linecap:butt;stroke-linejoin:miter;stroke-opacity:1" d="M 79.8217,46.1231 98.7771,56.6539 z" id="boundary" inkscape:connector-curvature="0" />
	<path style="fill:none;stroke:red;stroke-width:1px;stroke-linecap:butt;stroke-linejoin:miter;stroke-opacity:1" d="M 79.8217,635.847 92.4586,616.892 z" id="boundary" inkscape:connector-curvature="0" />
	<path style="fill:none;stroke:red;stroke-width:1px;stroke-linecap:butt;stroke-linejoin:miter;stroke-opacity:1" d="M 79.8217,753.792 98.7771,764.323 z" id="boundary" inkscape:connector-curvature="0" />
	<path style="fill:none;stroke:red;stroke-width:1px;stroke-linecap:butt;stroke-linejoin:miter;stroke-opacity:1" d="M 84.034,277.8 98.7771,260.951 z" id="boundary" inkscape:connector-curvature="0" />
	<path style="fill:none;stroke:red;stroke-width:1px;stroke-linecap:butt;stroke-linejoin:miter;stroke-opacity:1" d="M 88.2463,199.873 98.7771,168.28 z" id="boundary" inkscape:connector-curvature="0" />
	<path style="fill:none;stroke:red;stroke-width:1px;stroke-linecap:butt;stroke-linejoin:miter;stroke-opacity:1" d="M 88.2463,199.873 98.7771,218.828 z" id="boundary" inkscape:connector-curvature="0" />
	<path style="fill:none;stroke:red;stroke-width:1px;stroke-linecap:butt;stroke-linejoin:miter;stroke-opacity:1" d="M 88.2463,241.996 98.7771,218.828 z" id="boundary" inkscape:connector-curvature="0" />
	<path style="fill:none;stroke:red;stroke-width:1px;stroke-linecap:butt;stroke-linejoin:miter;stroke-opacity:1" d="M 88.2463,241.996 98.7771,260.951 z" id="boundary" inkscape:connector-curvature="0" />
	<path style="fill:none;stroke:red;stroke-width:1px;stroke-linecap:butt;stroke-linejoin:miter;stroke-opacity:1" d="M 88.2463,557.919 88.2463,578.981 z" id="boundary" inkscape:connector-curvature="0" />
	<path style="fill:none;stroke:red;stroke-width:1px;stroke-linecap:butt;stroke-linejoin:miter;stroke-opacity:1" d="M 88.2463,557.919 98.7771,526.327 z" id="boundary" inkscape:connector-curvature="0" />
	<path style="fill:none;stroke:red;stroke-width:1px;stroke-linecap:butt;stroke-linejoin:miter;stroke-opacity:1" d="M 88.2463,578.981 92.4586,616.892 z" id="boundary" inkscape:connector-curvature="0" />
	<path style="fill:none;stroke:red;stroke-width:1px;stroke-linecap:butt;stroke-linejoin:miter;stroke-opacity:1" d="M 90.3524,138.794 98.7771,168.28 z" id="boundary" inkscape:connector-curvature="0" />
	<path style="fill:none;stroke:red;stroke-width:1px;stroke-linecap:butt;stroke-linejoin:miter;stroke-opacity:1" d="M 94.5648,340.985 113.52,351.516 z" id="boundary" inkscape:connector-curvature="0" />
	<path style="fill:none;stroke:red;stroke-width:1px;stroke-linecap:butt;stroke-linejoin:miter;stroke-opacity:1" d="M 98.7771,56.6539 119.839,60.8662 z" id="boundary" inkscape:connector-curvature="0" />
	<path style="fill:none;stroke:red;stroke-width:1px;stroke-linecap:butt;stroke-linejoin:miter;stroke-opacity:1" d="M 98.7771,505.265 98.7771,526.327 z" id="boundary" inkscape:connector-curvature="0" />
	<path style="fill:none;stroke:red;stroke-width:1px;stroke-linecap:butt;stroke-linejoin:miter;stroke-opacity:1" d="M 98.7771,505.265 109.308,484.204 z" id="boundary" inkscape:connector-curvature="0" />
	<path style="fill:none;stroke:red;stroke-width:1px;stroke-linecap:butt;stroke-linejoin:miter;stroke-opacity:1" d="M 98.7771,764.323 117.732,774.854 z" id="boundary" inkscape:connector-curvature="0" />
	<path style="fill:none;stroke:red;stroke-width:1px;stroke-linecap:butt;stroke-linejoin:miter;stroke-opacity:1" d="M 109.308,484.204 119.839,463.142 z" id="boundary" inkscape:connector-curvature="0" />
	<path style="fill:none;stroke:red;stroke-width:1px;stroke-linecap:butt;stroke-linejoin:miter;stroke-opacity:1" d="M 113.52,351.516 134.582,353.622 z" id="boundary" inkscape:connector-curvature="0" />
	<path style="fill:none;stroke:red;stroke-width:1px;stroke-linecap:butt;stroke-linejoin:miter;stroke-opacity:1" d="M 117.732,774.854 136.688,785.384 z" id="boundary" inkscape:connector-curvature="0" />
	<path style="fill:none;stroke:red;stroke-width:1px;stroke-linecap:butt;stroke-linejoin:miter;stroke-opacity:1" d="M 119.839,60.8662 140.9,67.1847 z" id="boundary" inkscape:connector-curvature="0" />
	<path style="fill:none;stroke:red;stroke-width:1px;stroke-linecap:butt;stroke-linejoin:miter;stroke-opacity:1" d="M 119.839,463.142 130.369,431.55 z" id="boundary" inkscape:connector-curvature="0" />
	<path style="fill:none;stroke:red;stroke-width:1px;stroke-linecap:butt;stroke-linejoin:miter;stroke-opacity:1" d="M 130.369,431.55 147.219,414.701 z" id="boundary" inkscape:connector-curvature="0" />
	<path style="fill:none;stroke:red;stroke-width:1px;stroke-linecap:butt;stroke-linejoin:miter;stroke-opacity:1" d="M 134.582,353.622 153.537,364.153 z" id="boundary" inkscape:connector-curvature="0" />
	<path style="fill:none;stroke:red;stroke-width:1px;stroke-linecap:butt;stroke-linejoin:miter;stroke-opacity:1" d="M 136.688,785.384 155.643,795.915 z" id="boundary" inkscape:connector-curvature="0" />
	<path style="fill:none;stroke:red;stroke-width:1px;stroke-linecap:butt;stroke-linejoin:miter;stroke-opacity:1" d="M 140.9,67.1847 161.962,67.1847 z" id="boundary" inkscape:connector-curvature="0" />
	<path style="fill:none;stroke:red;stroke-width:1px;stroke-linecap:butt;stroke-linejoin:miter;stroke-opacity:1" d="M 147.219,414.701 157.749,393.639 z" id="boundary" inkscape:connector-curvature="0" />
	<path style="fill:none;stroke:red;stroke-width:1px;stroke-linecap:butt;stroke-linejoin:miter;stroke-opacity:1" d="M 153.537,364.153 157.749,393.639 z" id="boundary" inkscape:connector-curvature="0" />
	<path style="fill:none;stroke:red;stroke-width:1px;stroke-linecap:butt;stroke-linejoin:miter;stroke-opacity:1" d="M 155.643,795.915 166.174,814.87 z" id="boundary" inkscape:connector-curvature="0" />
	<path style="fill:none;stroke:red;stroke-width:1px;stroke-linecap:butt;stroke-linejoin:miter;stroke-opacity:1" d="M 161.962,67.1847 183.023,71.397 z" id="boundary" inkscape:connector-curvature="0" />
	<path style="fill:none;stroke:red;stroke-width:1px;stroke-linecap:butt;stroke-linejoin:miter;stroke-opacity:1" d="M 166.174,814.87 176.705,833.826 z" id="boundary" inkscape:connector-curvature="0" />
	<path style="fill:none;stroke:red;stroke-width:1px;stroke-linecap:butt;stroke-linejoin:miter;stroke-opacity:1" d="M 176.705,833.826 185.13,854.887 z" id="boundary" inkscape:connector-curvature="0" />
	<path style="fill:none;stroke:red;stroke-width:1px;stroke-linecap:butt;stroke-linejoin:miter;stroke-opacity:1" d="M 183.023,71.397 204.085,67.1847 z" id="boundary" inkscape:connector-curvature="0" />
	<path style="fill:none;stroke:red;stroke-width:1px;stroke-linecap:butt;stroke-linejoin:miter;stroke-opacity:1" d="M 185.13,854.887 195.66,873.843 z" id="boundary" inkscape:connector-curvature="0" />
	<path style="fill:none;stroke:red;stroke-width:1px;stroke-linecap:butt;stroke-linejoin:miter;stroke-opacity:1" d="M 195.66,873.843 210.403,890.692 z" id="boundary" inkscape:connector-curvature="0" />
	<path style="fill:none;stroke:red;stroke-width:1px;stroke-linecap:butt;stroke-linejoin:miter;stroke-opacity:1" d="M 204.085,67.1847 223.04,56.6539 z" id="boundary" inkscape:connector-curvature="0" />
	<path style="fill:none;stroke:red;stroke-width:1px;stroke-linecap:butt;stroke-linejoin:miter;stroke-opacity:1" d="M 210.403,890.692 220.934,909.648 z" id="boundary" inkscape:connector-curvature="0" />
	<path style="fill:none;stroke:red;stroke-width:1px;stroke-linecap:butt;stroke-linejoin:miter;stroke-opacity:1" d="M 220.934,909.648 229.359,930.709 z" id="boundary" inkscape:connector-curvature="0" />
	<path style="fill:none;stroke:red;stroke-width:1px;stroke-linecap:butt;stroke-linejoin:miter;stroke-opacity:1" d="M 223.04,56.6539 241.996,46.1231 z" id="boundary" inkscape:connector-curvature="0" />
	<path style="fill:none;stroke:red;stroke-width:1px;stroke-linecap:butt;stroke-linejoin:miter;stroke-opacity:1" d="M 229.359,930.709 246.208,943.346 z" id="boundary" inkscape:connector-curvature="0" />
	<path style="fill:none;stroke:red;stroke-width:1px;stroke-linecap:butt;stroke-linejoin:miter;stroke-opacity:1" d="M 241.996,46.1231 263.057,46.1231 z" id="boundary" inkscape:connector-curvature="0" />
	<path style="fill:none;stroke:red;stroke-width:1px;stroke-linecap:butt;stroke-linejoin:miter;stroke-opacity:1" d="M 246.208,943.346 258.845,960.195 z" id="boundary" inkscape:connector-curvature="0" />
	<path style="fill:none;stroke:red;stroke-width:1px;stroke-linecap:butt;stroke-linejoin:miter;stroke-opacity:1" d="M 258.845,960.195 275.694,974.938 z" id="boundary" inkscape:connector-curvature="0" />
	<path style="fill:none;stroke:red;stroke-width:1px;stroke-linecap:butt;stroke-linejoin:miter;stroke-opacity:1" d="M 263.057,46.1231 282.013,35.5924 z" id="boundary" inkscape:connector-curvature="0" />
	<path style="fill:none;stroke:red;stroke-width:1px;stroke-linecap:butt;stroke-linejoin:miter;stroke-opacity:1" d="M 275.694,974.938 294.65,985.469 z" id="boundary" inkscape:connector-curvature="0" />
	<path style="fill:none;stroke:red;stroke-width:1px;stroke-linecap:butt;stroke-linejoin:miter;stroke-opacity:1" d="M 282.013,35.5924 300.968,25.0616 z" id="boundary" inkscape:connector-curvature="0" />
	<path style="fill:none;stroke:red;stroke-width:1px;stroke-linecap:butt;stroke-linejoin:miter;stroke-opacity:1" d="M 294.65,985.469 315.711,985.469 z" id="boundary" inkscape:connector-curvature="0" />
	<path style="fill:none;stroke:red;stroke-width:1px;stroke-linecap:butt;stroke-linejoin:miter;stroke-opacity:1" d="M 300.968,25.0616 322.03,25.0616 z" id="boundary" inkscape:connector-curvature="0" />
	<path style="fill:none;stroke:red;stroke-width:1px;stroke-linecap:butt;stroke-linejoin:miter;stroke-opacity:1" d="M 315.711,985.469 334.667,996 z" id="boundary" inkscape:connector-curvature="0" />
	<path style="fill:none;stroke:red;stroke-width:1px;stroke-linecap:butt;stroke-linejoin:miter;stroke-opacity:1" d="M 322.03,25.0616 340.985,14.5308 z" id="boundary" inkscape:connector-curvature="0" />
	<path style="fill:none;stroke:red;stroke-width:1px;stroke-linecap:butt;stroke-linejoin:miter;stroke-opacity:1" d="M 334.667,996 355.728,996 z" id="boundary" inkscape:connector-curvature="0" />
	<path style="fill:none;stroke:red;stroke-width:1px;stroke-linecap:butt;stroke-linejoin:miter;stroke-opacity:1" d="M 340.985,14.5308 362.047,14.5308 z" id="boundary" inkscape:connector-curvature="0" />
	<path style="fill:none;stroke:red;stroke-width:1px;stroke-linecap:butt;stroke-linejoin:miter;stroke-opacity:1" d="M 355.728,996 376.79,996 z" id="boundary" inkscape:connector-curvature="0" />
	<path style="fill:none;stroke:red;stroke-width:1px;stroke-linecap:butt;stroke-linejoin:miter;stroke-opacity:1" d="M 362.047,14.5308 383.108,8.21231 z" id="boundary" inkscape:connector-curvature="0" />
	<path style="fill:none;stroke:red;stroke-width:1px;stroke-linecap:butt;stroke-linejoin:miter;stroke-opacity:1" d="M 376.79,996 397.851,996 z" id="boundary" inkscape:connector-curvature="0" />
	<path style="fill:none;stroke:red;stroke-width:1px;stroke-linecap:butt;stroke-linejoin:miter;stroke-opacity:1" d="M 383.108,8.21231 404.17,10.3185 z" id="boundary" inkscape:connector-curvature="0" />
	<path style="fill:none;stroke:red;stroke-width:1px;stroke-linecap:butt;stroke-linejoin:miter;stroke-opacity:1" d="M 397.851,996 418.913,996 z" id="boundary" inkscape:connector-curvature="0" />
	<path style="fill:none;stroke:red;stroke-width:1px;stroke-linecap:butt;stroke-linejoin:miter;stroke-opacity:1" d="M 404.17,10.3185 425.231,14.5308 z" id="boundary" inkscape:connector-curvature="0" />
	<path style="fill:none;stroke:red;stroke-width:1px;stroke-linecap:butt;stroke-linejoin:miter;stroke-opacity:1" d="M 418.913,996 437.868,985.469 z" id="boundary" inkscape:connector-curvature="0" />
	<path style="fill:none;stroke:red;stroke-width:1px;stroke-linecap:butt;stroke-linejoin:miter;stroke-opacity:1" d="M 425.231,14.5308 444.187,4 z" id="boundary" inkscape:connector-curvature="0" />
	<path style="fill:none;stroke:red;stroke-width:1px;stroke-linecap:butt;stroke-linejoin:miter;stroke-opacity:1" d="M 437.868,985.469 458.93,985.469 z" id="boundary" inkscape:connector-curvature="0" />
	<path style="fill:none;stroke:red;stroke-width:1px;stroke-linecap:butt;stroke-linejoin:miter;stroke-opacity:1" d="M 444.187,4 463.142,14.5308 z" id="boundary" inkscape:connector-curvature="0" />
	<path style="fill:none;stroke:red;stroke-width:1px;stroke-linecap:butt;stroke-linejoin:miter;stroke-opacity:1" d="M 458.93,985.469 477.885,974.938 z" id="boundary" inkscape:connector-curvature="0" />
	<path style="fill:none;stroke:red;stroke-width:1px;stroke-linecap:butt;stroke-linejoin:miter;stroke-opacity:1" d="M 463.142,14.5308 484.204,14.5308 z" id="boundary" inkscape:connector-curvature="0" />
	<path style="fill:none;stroke:red;stroke-width:1px;stroke-linecap:butt;stroke-linejoin:miter;stroke-opacity:1" d="M 477.885,974.938 496.841,964.408 z" id="boundary" inkscape:connector-curvature="0" />
	<path style="fill:none;stroke:red;stroke-width:1px;stroke-linecap:butt;stroke-linejoin:miter;stroke-opacity:1" d="M 484.204,14.5308 505.265,14.5308 z" id="boundary" inkscape:connector-curvature="0" />
	<path style="fill:none;stroke:red;stroke-width:1px;stroke-linecap:butt;stroke-linejoin:miter;stroke-opacity:1" d="M 496.841,964.408 515.796,951.771 z" id="boundary" inkscape:connector-curvature="0" />
	<path style="fill:none;stroke:red;stroke-width:1px;stroke-linecap:butt;stroke-linejoin:miter;stroke-opacity:1" d="M 505.265,14.5308 524.221,25.0616 z" id="boundary" inkscape:connector-curvature="0" />
	<path style="fill:none;stroke:red;stroke-width:1px;stroke-linecap:butt;stroke-linejoin:miter;stroke-opacity:1" d="M 515.796,951.771 536.858,941.24 z" id="boundary" inkscape:connector-curvature="0" />
	<path style="fill:none;stroke:red;stroke-width:1px;stroke-linecap:butt;stroke-linejoin:miter;stroke-opacity:1" d="M 524.221,25.0616 543.176,35.5924 z" id="boundary" inkscape:connector-curvature="0" />
	<path style="fill:none;stroke:red;stroke-width:1px;stroke-linecap:butt;stroke-linejoin:miter;stroke-opacity:1" d="M 536.858,941.24 553.707,911.754 z" id="boundary" inkscape:connector-curvature="0" />
	<path style="fill:none;stroke:red;stroke-width:1px;stroke-linecap:butt;stroke-linejoin:miter;stroke-opacity:1" d="M 543.176,35.5924 564.238,35.5924 z" id="boundary" inkscape:connector-curvature="0" />
	<path style="fill:none;stroke:red;stroke-width:1px;stroke-linecap:butt;stroke-linejoin:miter;stroke-opacity:1" d="M 553.707,911.754 564.238,890.692 z" id="boundary" inkscape:connector-curvature="0" />
	<path style="fill:none;stroke:red;stroke-width:1px;stroke-linecap:butt;stroke-linejoin:miter;stroke-opacity:1" d="M 564.238,35.5924 583.193,46.1231 z" id="boundary" inkscape:connector-curvature="0" />
	<path style="fill:none;stroke:red;stroke-width:1px;stroke-linecap:butt;stroke-linejoin:miter;stroke-opacity:1" d="M 564.238,890.692 574.769,869.631 z" id="boundary" inkscape:connector-curvature="0" />
	<path style="fill:none;stroke:red;stroke-width:1px;stroke-linecap:butt;stroke-linejoin:miter;stroke-opacity:1" d="M 574.769,869.631 591.618,854.887 z" id="boundary" inkscape:connector-curvature="0" />
	<path style="fill:none;stroke:red;stroke-width:1px;stroke-linecap:butt;stroke-linejoin:miter;stroke-opacity:1" d="M 583.193,46.1231 604.255,50.3355 z" id="boundary" inkscape:connector-curvature="0" />
	<path style="fill:none;stroke:red;stroke-width:1px;stroke-linecap:butt;stroke-linejoin:miter;stroke-opacity:1" d="M 591.618,854.887 595.83,827.507 z" id="boundary" inkscape:connector-curvature="0" />
	<path style="fill:none;stroke:red;stroke-width:1px;stroke-linecap:butt;stroke-linejoin:miter;stroke-opacity:1" d="M 595.83,827.507 612.679,812.764 z" id="boundary" inkscape:connector-curvature="0" />
	<path style="fill:none;stroke:red;stroke-width:1px;stroke-linecap:butt;stroke-linejoin:miter;stroke-opacity:1" d="M 604.255,50.3355 623.21,60.8662 z" id="boundary" inkscape:connector-curvature="0" />
	<path style="fill:none;stroke:red;stroke-width:1px;stroke-linecap:butt;stroke-linejoin:miter;stroke-opacity:1" d="M 612.679,812.764 616.892,785.384 z" id="boundary" inkscape:connector-curvature="0" />
	<path style="fill:none;stroke:red;stroke-width:1px;stroke-linecap:butt;stroke-linejoin:miter;stroke-opacity:1" d="M 616.892,785.384 633.741,770.641 z" id="boundary" inkscape:connector-curvature="0" />
	<path style="fill:none;stroke:red;stroke-width:1px;stroke-linecap:butt;stroke-linejoin:miter;stroke-opacity:1" d="M 623.21,60.8662 637.953,77.7155 z" id="boundary" inkscape:connector-curvature="0" />
	<path style="fill:none;stroke:red;stroke-width:1px;stroke-linecap:butt;stroke-linejoin:miter;stroke-opacity:1" d="M 627.423,322.03 637.953,340.985 z" id="boundary" inkscape:connector-curvature="0" />
	<path style="fill:none;stroke:red;stroke-width:1px;stroke-linecap:butt;stroke-linejoin:miter;stroke-opacity:1" d="M 627.423,322.03 648.484,300.968 z" id="boundary" inkscape:connector-curvature="0" />
	<path style="fill:none;stroke:red;stroke-width:1px;stroke-linecap:butt;stroke-linejoin:miter;stroke-opacity:1" d="M 633.741,770.641 637.953,743.261 z" id="boundary" inkscape:connector-curvature="0" />
	<path style="fill:none;stroke:red;stroke-width:1px;stroke-linecap:butt;stroke-linejoin:miter;stroke-opacity:1" d="M 637.953,77.7155 654.803,90.3524 z" id="boundary" inkscape:connector-curvature="0" />
	<path style="fill:none;stroke:red;stroke-width:1px;stroke-linecap:butt;stroke-linejoin:miter;stroke-opacity:1" d="M 637.953,340.985 648.484,359.941 z" id="boundary" inkscape:connector-curvature="0" />
	<path style="fill:none;stroke:red;stroke-width:1px;stroke-linecap:butt;stroke-linejoin:miter;stroke-opacity:1" d="M 637.953,743.261 648.484,722.2 z" id="boundary" inkscape:connector-curvature="0" />
	<path style="fill:none;stroke:red;stroke-width:1px;stroke-linecap:butt;stroke-linejoin:miter;stroke-opacity:1" d="M 648.484,300.968 667.439,290.437 z" id="boundary" inkscape:connector-curvature="0" />
	<path style="fill:none;stroke:red;stroke-width:1px;stroke-linecap:butt;stroke-linejoin:miter;stroke-opacity:1" d="M 648.484,359.941 659.015,378.896 z" id="boundary" inkscape:connector-curvature="0" />
	<path style="fill:none;stroke:red;stroke-width:1px;stroke-linecap:butt;stroke-linejoin:miter;stroke-opacity:1" d="M 648.484,722.2 659.015,701.138 z" id="boundary" inkscape:connector-curvature="0" />
	<path style="fill:none;stroke:red;stroke-width:1px;stroke-linecap:butt;stroke-linejoin:miter;stroke-opacity:1" d="M 654.803,90.3524 669.546,107.202 z" id="boundary" inkscape:connector-curvature="0" />
	<path style="fill:none;stroke:red;stroke-width:1px;stroke-linecap:butt;stroke-linejoin:miter;stroke-opacity:1" d="M 659.015,378.896 669.546,397.851 z" id="boundary" inkscape:connector-curvature="0" />
	<path style="fill:none;stroke:red;stroke-width:1px;stroke-linecap:butt;stroke-linejoin:miter;stroke-opacity:1" d="M 659.015,701.138 669.546,680.076 z" id="boundary" inkscape:connector-curvature="0" />
	<path style="fill:none;stroke:red;stroke-width:1px;stroke-linecap:butt;stroke-linejoin:miter;stroke-opacity:1" d="M 667.439,290.437 686.395,279.907 z" id="boundary" inkscape:connector-curvature="0" />
	<path style="fill:none;stroke:red;stroke-width:1px;stroke-linecap:butt;stroke-linejoin:miter;stroke-opacity:1" d="M 669.546,107.202 686.395,121.945 z" id="boundary" inkscape:connector-curvature="0" />
	<path style="fill:none;stroke:red;stroke-width:1px;stroke-linecap:butt;stroke-linejoin:miter;stroke-opacity:1" d="M 669.546,397.851 680.076,416.807 z" id="boundary" inkscape:connector-curvature="0" />
	<path style="fill:none;stroke:red;stroke-width:1px;stroke-linecap:butt;stroke-linejoin:miter;stroke-opacity:1" d="M 669.546,680.076 680.076,648.484 z" id="boundary" inkscape:connector-curvature="0" />
	<path style="fill:none;stroke:red;stroke-width:1px;stroke-linecap:butt;stroke-linejoin:miter;stroke-opacity:1" d="M 680.076,416.807 690.607,435.762 z" id="boundary" inkscape:connector-curvature="0" />
	<path style="fill:none;stroke:red;stroke-width:1px;stroke-linecap:butt;stroke-linejoin:miter;stroke-opacity:1" d="M 680.076,648.484 690.607,627.423 z" id="boundary" inkscape:connector-curvature="0" />
	<path style="fill:none;stroke:red;stroke-width:1px;stroke-linecap:butt;stroke-linejoin:miter;stroke-opacity:1" d="M 686.395,121.945 690.607,143.006 z" id="boundary" inkscape:connector-curvature="0" />
	<path style="fill:none;stroke:red;stroke-width:1px;stroke-linecap:butt;stroke-linejoin:miter;stroke-opacity:1" d="M 686.395,279.907 707.456,279.907 z" id="boundary" inkscape:connector-curvature="0" />
	<path style="fill:none;stroke:red;stroke-width:1px;stroke-linecap:butt;stroke-linejoin:miter;stroke-opacity:1" d="M 690.607,143.006 701.138,161.962 z" id="boundary" inkscape:connector-curvature="0" />
	<path style="fill:none;stroke:red;stroke-width:1px;stroke-linecap:butt;stroke-linejoin:miter;stroke-opacity:1" d="M 690.607,435.762 701.138,454.718 z" id="boundary" inkscape:connector-curvature="0" />
	<path style="fill:none;stroke:red;stroke-width:1px;stroke-linecap:butt;stroke-linejoin:miter;stroke-opacity:1" d="M 690.607,606.361 690.607,627.423 z" id="boundary" inkscape:connector-curvature="0" />
	<path style="fill:none;stroke:red;stroke-width:1px;stroke-linecap:butt;stroke-linejoin:miter;stroke-opacity:1" d="M 690.607,606.361 701.138,585.299 z" id="boundary" inkscape:connector-curvature="0" />
	<path style="fill:none;stroke:red;stroke-width:1px;stroke-linecap:butt;stroke-linejoin:miter;stroke-opacity:1" d="M 701.138,161.962 720.093,172.493 z" id="boundary" inkscape:connector-curvature="0" />
	<path style="fill:none;stroke:red;stroke-width:1px;stroke-linecap:butt;stroke-linejoin:miter;stroke-opacity:1" d="M 701.138,454.718 701.138,475.779 z" id="boundary" inkscape:connector-curvature="0" />
	<path style="fill:none;stroke:red;stroke-width:1px;stroke-linecap:butt;stroke-linejoin:miter;stroke-opacity:1" d="M 701.138,475.779 711.669,494.735 z" id="boundary" inkscape:connector-curvature="0" />
	<path style="fill:none;stroke:red;stroke-width:1px;stroke-linecap:butt;stroke-linejoin:miter;stroke-opacity:1" d="M 701.138,522.115 701.138,543.176 z" id="boundary" inkscape:connector-curvature="0" />
	<path style="fill:none;stroke:red;stroke-width:1px;stroke-linecap:butt;stroke-linejoin:miter;stroke-opacity:1" d="M 701.138,522.115 711.669,494.735 z" id="boundary" inkscape:connector-curvature="0" />
	<path style="fill:none;stroke:red;stroke-width:1px;stroke-linecap:butt;stroke-linejoin:miter;stroke-opacity:1" d="M 701.138,543.176 701.138,564.238 z" id="boundary" inkscape:connector-curvature="0" />
	<path style="fill:none;stroke:red;stroke-width:1px;stroke-linecap:butt;stroke-linejoin:miter;stroke-opacity:1" d="M 701.138,564.238 701.138,585.299 z" id="boundary" inkscape:connector-curvature="0" />
	<path style="fill:none;stroke:red;stroke-width:1px;stroke-linecap:butt;stroke-linejoin:miter;stroke-opacity:1" d="M 707.456,279.907 726.412,269.376 z" id="boundary" inkscape:connector-curvature="0" />
	<path style="fill:none;stroke:red;stroke-width:1px;stroke-linecap:butt;stroke-linejoin:miter;stroke-opacity:1" d="M 720.093,172.493 739.049,183.023 z" id="boundary" inkscape:connector-curvature="0" />
	<path style="fill:none;stroke:red;stroke-width:1px;stroke-linecap:butt;stroke-linejoin:miter;stroke-opacity:1" d="M 726.412,269.376 747.473,267.27 z" id="boundary" inkscape:connector-curvature="0" />
	<path style="fill:none;stroke:red;stroke-width:1px;stroke-linecap:butt;stroke-linejoin:miter;stroke-opacity:1" d="M 739.049,183.023 760.11,183.023 z" id="boundary" inkscape:connector-curvature="0" />
	<path style="fill:none;stroke:red;stroke-width:1px;stroke-linecap:butt;stroke-linejoin:miter;stroke-opacity:1" d="M 747.473,267.27 768.535,258.845 z" id="boundary" inkscape:connector-curvature="0" />
	<path style="fill:none;stroke:red;stroke-width:1px;stroke-linecap:butt;stroke-linejoin:miter;stroke-opacity:1" d="M 760.11,183.023 781.172,185.13 z" id="boundary" inkscape:connector-curvature="0" />
	<path style="fill:none;stroke:red;stroke-width:1px;stroke-linecap:butt;stroke-linejoin:miter;stroke-opacity:1" d="M 768.535,258.845 789.597,256.739 z" id="boundary" inkscape:connector-curvature="0" />
	<path style="fill:none;stroke:red;stroke-width:1px;stroke-linecap:butt;stroke-linejoin:miter;stroke-opacity:1" d="M 781.172,185.13 802.234,193.554 z" id="boundary" inkscape:connector-curvature="0" />
	<path style="fill:none;stroke:red;stroke-width:1px;stroke-linecap:butt;stroke-linejoin:miter;stroke-opacity:1" d="M 789.597,256.739 810.658,246.208 z" id="boundary" inkscape:connector-curvature="0" />
	<path style="fill:none;stroke:red;stroke-width:1px;stroke-linecap:butt;stroke-linejoin:miter;stroke-opacity:1" d="M 802.234,193.554 821.189,183.023 z" id="boundary" inkscape:connector-curvature="0" />
	<path style="fill:none;stroke:red;stroke-width:1px;stroke-linecap:butt;stroke-linejoin:miter;stroke-opacity:1" d="M 810.658,246.208 831.72,235.677 z" id="boundary" inkscape:connector-curvature="0" />
	<path style="fill:none;stroke:red;stroke-width:1px;stroke-linecap:butt;stroke-linejoin:miter;stroke-opacity:1" d="M 821.189,183.023 840.144,193.554 z" id="boundary" inkscape:connector-curvature="0" />
	<path style="fill:none;stroke:red;stroke-width:1px;stroke-linecap:butt;stroke-linejoin:miter;stroke-opacity:1" d="M 831.72,235.677 852.781,235.677 z" id="boundary" inkscape:connector-curvature="0" />
	<path style="fill:none;stroke:red;stroke-width:1px;stroke-linecap:butt;stroke-linejoin:miter;stroke-opacity:1" d="M 840.144,193.554 859.1,183.023 z" id="boundary" inkscape:connector-curvature="0" />
	<path style="fill:none;stroke:red;stroke-width:1px;stroke-linecap:butt;stroke-linejoin:miter;stroke-opacity:1" d="M 852.781,235.677 863.312,214.616 z" id="boundary" inkscape:connector-curvature="0" />
	<path style="fill:none;stroke:red;stroke-width:1px;stroke-linecap:butt;stroke-linejoin:miter;stroke-opacity:1" d="M 859.1,183.023 880.161,183.023 z" id="boundary" inkscape:connector-curvature="0" />
	<path style="fill:none;stroke:red;stroke-width:1px;stroke-linecap:butt;stroke-linejoin:miter;stroke-opacity:1" d="M 863.312,214.616 880.161,183.023 z" id="boundary" inkscape:connector-curvature="0" />
	<circle cx="4" cy="41.9108" r="4" fill="#0" id="circle0"/>
	<circle cx="14.5308" cy="60.8662" r="4" fill="#0" id="circle1"/>
	<circle cx="14.5308" cy="694.82" r="4" fill="#0" id="circle2"/>
	<circle cx="20.8493" cy="25.0616" r="4" fill="#0" id="circle3"/>
	<circle cx="29.2739" cy="77.7155" r="4" fill="#0" id="circle4"/>
	<circle cx="31.38" cy="677.97" r="4" fill="#0" id="circle5"/>
	<circle cx="31.38" cy="709.563" r="4" fill="#0" id="circle6"/>
	<circle cx="39.8047" cy="35.5924" r="4" fill="#0" id="circle7"/>
	<circle cx="46.1231" cy="90.3524" r="4" fill="#0" id="circle8"/>
	<circle cx="46.1231" cy="294.65" r="4" fill="#0" id="circle9"/>
	<circle cx="46.1231" cy="726.412" r="4" fill="#0" id="circle10"/>
	<circle cx="48.2293" cy="661.121" r="4" fill="#0" id="circle11"/>
	<circle cx="58.7601" cy="46.1231" r="4" fill="#0" id="circle12"/>
	<circle cx="58.7601" cy="107.202" r="4" fill="#0" id="circle13"/>
	<circle cx="58.7601" cy="640.059" r="4" fill="#0" id="circle14"/>
	<circle cx="62.9724" cy="277.8" r="4" fill="#0" id="circle15"/>
	<circle cx="62.9724" cy="309.393" r="4" fill="#0" id="circle16"/>
	<circle cx="62.9724" cy="741.155" r="4" fill="#0" id="circle17"/>
	<circle cx="75.6093" cy="121.945" r="4" fill="#0" id="circle18"/>
	<circle cx="77.7155" cy="326.242" r="4" fill="#0" id="circle19"/>
	<circle cx="79.8217" cy="46.1231" r="4" fill="#0" id="circle20"/>
	<circle cx="79.8217" cy="635.847" r="4" fill="#0" id="circle21"/>
	<circle cx="79.8217" cy="753.792" r="4" fill="#0" id="circle22"/>
	<circle cx="84.034" cy="277.8" r="4" fill="#0" id="circle23"/>
	<circle cx="88.2463" cy="199.873" r="4" fill="#0" id="circle24"/>
	<circle cx="88.2463" cy="241.996" r="4" fill="#0" id="circle25"/>
	<circle cx="88.2463" cy="557.919" r="4" fill="#0" id="circle26"/>
	<circle cx="88.2463" cy="578.981" r="4" fill="#0" id="circle27"/>
	<circle cx="90.3524" cy="138.794" r="4" fill="#0" id="circle28"/>
	<circle cx="92.4586" cy="616.892" r="4" fill="#0" id="circle29"/>
	<circle cx="94.5648" cy="340.985" r="4" fill="#0" id="circle30"/>
	<circle cx="98.7771" cy="56.6539" r="4" fill="#0" id="circle31"/>
	<circle cx="98.7771" cy="168.28" r="4" fill="#0" id="circle32"/>
	<circle cx="98.7771" cy="218.828" r="4" fill="#0" id="circle33"/>
	<circle cx="98.7771" cy="260.951" r="4" fill="#0" id="circle34"/>
	<circle cx="98.7771" cy="505.265" r="4" fill="#0" id="circle35"/>
	<circle cx="98.7771" cy="526.327" r="4" fill="#0" id="circle36"/>
	<circle cx="98.7771" cy="764.323" r="4" fill="#0" id="circle37"/>
	<circle cx="109.308" cy="484.204" r="4" fill="#0" id="circle38"/>
	<circle cx="113.52" cy="351.516" r="4" fill="#0" id="circle39"/>
	<circle cx="117.732" cy="774.854" r="4" fill="#0" id="circle40"/>
	<circle cx="119.839" cy="60.8662" r="4" fill="#0" id="circle41"/>
	<circle cx="119.839" cy="463.142" r="4" fill="#0" id="circle42"/>
	<circle cx="130.369" cy="431.55" r="4" fill="#0" id="circle43"/>
	<circle cx="134.582" cy="353.622" r="4" fill="#0" id="circle44"/>
	<circle cx="136.688" cy="785.384" r="4" fill="#0" id="circle45"/>
	<circle cx="140.9" cy="67.1847" r="4" fill="#0" id="circle46"/>
	<circle cx="147.219" cy="414.701" r="4" fill="#0" id="circle47"/>
	<circle cx="153.537" cy="364.153" r="4" fill="#0" id="circle48"/>
	<circle cx="155.643" cy="795.915" r="4" fill="#0" id="circle49"/>
	<circle cx="157.749" cy="393.639" r="4" fill="#0" id="circle50"/>
	<circle cx="161.962" cy="67.1847" r="4" fill="#0" id="circle51"/>
	<circle cx="166.174" cy="814.87" r="4" fill="#0" id="circle52"/>
	<circle cx="176.705" cy="833.826" r="4" fill="#0" id="circle53"/>
	<circle cx="183.023" cy="71.397" r="4" fill="#0" id="circle54"/>
	<circle cx="185.13" cy="854.887" r="4" fill="#0" id="circle55"/>
	<circle cx="195.66" cy="873.843" r="4" fill="#0" id="circle56"/>
	<circle cx="204.085" cy="67.1847" r="4" fill="#0" id="circle57"/>
	<circle cx="210.403" cy="890.692" r="4" fill="#0" id="circle58"/>
	<circle cx="220.934" cy="909.648" r="4" fill="#0" id="circle59"/>
	<circle cx="223.04" cy="56.6539" r="4" fill="#0" id="circle60"/>
	<circle cx="229.359" cy="930.709" r="4" fill="#0" id="circle61"/>
	<circle cx="241.996" cy="46.1231" r="4" fill="#0" id="circle62"/>
	<circle cx="246.208" cy="943.346" r="4" fill="#0" id="circle63"/>
	<circle cx="258.845" cy="960.195" r="4" fill="#0" id="circle64"/>
	<circle cx="263.057" cy="46.1231" r="4" fill="#0" id="circle65"/>
	<circle cx="275.694" cy="974.938" r="4" fill="#0" id="circle66"/>
	<circle cx="282.013" cy="35.5924" r="4" fill="#0" id="circle67"/>
	<circle cx="294.65" cy="985.469" r="4" fill="#0" id="circle68"/>
	<circle cx="300.968" cy="25.0616" r="4" fill="#0" id="circle69"/>
	<circle cx="315.711" cy="985.469" r="4" fill="#0" id="circle70"/>
	<circle cx="322.03" cy="25.0616" r="4" fill="#0" id="circle71"/>
	<circle cx="334.667" cy="996" r="4" fill="#0" id="circle72"/>
	<circle cx="340.985" cy="14.5308" r="4" fill="#0" id="circle73"/>
	<circle cx="355.728" cy="996" r="4" fill="#0" id="circle74"/>
	<circle cx="362.047" cy="14.5308" r="4" fill="#0" id="circle75"/>
	<circle cx="376.79" cy="996" r="4" fill="#0" id="circle76"/>
	<circle cx="383.108" cy="8.21231" r="4" fill="#0" id="circle77"/>
	<circle cx="397.851" cy="996" r="4" fill="#0" id="circle78"/>
	<circle cx="404.17" cy="10.3185" r="4" fill="#0" id="circle79"/>
	<circle cx="418.913" cy="996" r="4" fill="#0" id="circle80"/>
	<circle cx="425.231" cy="14.5308" r="4" fill="#0" id="circle81"/>
	<circle cx="437.868" cy="985.469" r="4" fill="#0" id="circle82"/>
	<circle cx="444.187" cy="4" r="4" fill="#0" id="circle83"/>
	<circle cx="458.93" cy="985.469" r="4" fill="#0" id="circle84"/>
	<circle cx="463.142" cy="14.5308" r="4" fill="#0" id="circle85"/>
	<circle cx="477.885" cy="974.938" r="4" fill="#0" id="circle86"/>
	<circle cx="484.204" cy="14.5308" r="4" fill="#0" id="circle87"/>
	<circle cx="496.841" cy="964.408" r="4" fill="#0" id="circle88"/>
	<circle cx="505.265" cy="14.5308" r="4" fill="#0" id="circle89"/>
	<circle cx="515.796" cy="951.771" r="4" fill="#0" id="circle90"/>
	<circle cx="524.221" cy="25.0616" r="4" fill="#0" id="circle91"/>
	<circle cx="536.858" cy="941.24" r="4" fill="#0" id="circle92"/>
	<circle cx="543.176" cy="35.5924" r="4" fill="#0" id="circle93"/>
	<circle cx="553.707" cy="911.754" r="4" fill="#0" id="circle94"/>
	<circle cx="564.238" cy="35.5924" r="4" fill="#0" id="circle95"/>
	<circle cx="564.238" cy="890.692" r="4" fill="#0" id="circle96"/>
	<circle cx="574.769" cy="869.631" r="4" fill="#0" id="circle97"/>
	<circle cx="583.193" cy="46.1231" r="4" fill="#0" id="circle98"/>
	<circle cx="591.618" cy="854.887" r="4" fill="#0" id="circle99"/>
	<circle cx="595.83" cy="827.507" r="4" fill="#0" id="circle100"/>
	<circle cx="604.255" cy="50.3355" r="4" fill="#0" id="circle101"/>
	<circle cx="612.679" cy="812.764" r="4" fill="#0" id="circle102"/>
	<circle cx="616.892" cy="785.384" r="4" fill="#0" id="circle103"/>
	<circle cx="623.21" cy="60.8662" r="4" fill="#0" id="circle104"/>
	<circle cx="627.423" cy="322.03" r="4" fill="#0" id="circle105"/>
	<circle cx="633.741" cy="770.641" r="4" fill="#0" id="circle106"/>
	<circle cx="637.953" cy="77.7155" r="4" fill="#0" id="circle107"/>
	<circle cx="637.953" cy="340.985" r="4" fill="#0" id="circle108"/>
	<circle cx="637.953" cy="743.261" r="4" fill="#0" id="circle109"/>
	<circle cx="648.484" cy="300.968" r="4" fill="#0" id="circle110"/>
	<circle cx="648.484" cy="359.941" r="4" fill="#0" id="circle111"/>
	<circle cx="648.484" cy="722.2" r="4" fill="#0" id="circle112"/>
	<circle cx="654.803" cy="90.3524" r="4" fill="#0" id="circle113"/>
	<circle cx="659.015" cy="378.896" r="4" fill="#0" id="circle114"/>
	<circle cx="659.015" cy="701.138" r="4" fill="#0" id="circle115"/>
	<circle cx="667.439" cy="290.437" r="4" fill="#0" id="circle116"/>
	<circle cx="669.546" cy="107.202" r="4" fill="#0" id="circle117"/>
	<circle cx="669.546" cy="397.851" r="4" fill="#0" id="circle118"/>
	<circle cx="669.546" cy="680.076" r="4" fill="#0" id="circle119"/>
	<circle cx="680.076" cy="416.807" r="4" fill="#0" id="circle120"/>
	<circle cx="680.076" cy="648.484" r="4" fill="#0" id="circle121"/>
	<circle cx="686.395" cy="121.945" r="4" fill="#0" id="circle122"/>
	<circle cx="686.395" cy="279.907" r="4" fill="#0" id="circle123"/>
	<circle cx="690.607" cy="143.006" r="4" fill="#0" id="circle124"/>
	<circle cx="690.607" cy="435.762" r="4" fill="#0" id="circle125"/>
	<circle cx="690.607" cy="606.361" r="4" fill="#0" id="circle126"/>
	<circle cx="690.607" cy="627.423" r="4" fill="#0" id="circle127"/>
	<circle cx="701.138" cy="161.962" r="4" fill="#0" id="circle128"/>
	<circle cx="701.138" cy="454.718" r="4" fill="#0" id="circle129"/>
	<circle cx="701.138" cy="475.779" r="4" fill="#0" id="circle130"/>
	<circle cx="701.138" cy="522.115" r="4" fill="#0" id="circle131"/>
	<circle cx="701.138" cy="543.176" r="4" fill="#0" id="circle132"/>
	<circle cx="701.138" cy="564.238" r="4" fill="#0" id="circle133"/>
	<circle cx="701.138" cy="585.299" r="4" fill="#0" id="circle134"/>
	<circle cx="707.456" cy="279.907" r="4" fill="#0" id="circle135"/>
	<circle cx="711.669" cy="494.735" r="4" fill="#0" id="circle136"/>
	<circle cx="720.093" cy="172.493" r="4" fill="#0" id="circle137"/>
	<circle cx="726.412" cy="269.376" r="4" fill="#0" id="circle138"/>
	<circle cx="739.049" cy="183.023" r="4" fill="#0" id="circle139"/>
	<circle cx="747.473" cy="267.27" r="4" fill="#0" id="circle140"/>
	<circle cx="760.11" cy="183.023" r="4" fill="#0" id="circle141"/>
	<circle cx="768.535" cy="258.845" r="4" fill="#0" id="circle142"/>
	<circle cx="781.172" cy="185.13" r="4" fill="#0" id="circle143"/>
	<circle cx="789.597" cy="256.739" r="4" fill="#0" id="circle144"/>
	<circle cx="802.234" cy="193.554" r="4" fill="#0" id="circle145"/>
	<circle cx="810.658" cy="246.208" r="4" fill="#0" id="circle146"/>
	<circle cx="821.189" cy="183.023" r="4" fill="#0" id="circle147"/>
	<circle cx="831.72" cy="235.677" r="4" fill="#0" id="circle148"/>
	<circle cx="840.144" cy="193.554" r="4" fill="#0" id="circle149"/>
	<circle cx="852.781" cy="235.677" r="4" fill="#0" id="circle150"/>
	<circle cx="859.1" cy="183.023" r="4" fill="#0" id="circle151"/>
	<circle cx="863.312" cy="214.616" r="4" fill="#0" id="circle152"/>
	<circle cx="880.161" cy="183.023" r="4" fill="#0" id="circle153"/>
	</g>
</svg>