<?xml version="1.0" encoding="UTF-8" standalone="no"?>
<!-- Created with CurveBenchmark -->
<svg
	xmlns:dc="http://purl.org/dc/elements/1.1/"
	xmlns:cc="http://creativecommons.org/ns#"
	xmlns:rdf="http://www.w3.org/1999/02/22-rdf-syntax-ns#"
	xmlns:svg="http://www.w3.org/2000/svg"
	xmlns="http://www.w3.org/2000/svg"
	xmlns:sodipodi="http://sodipodi.sourceforge.net/DTD/sodipodi-0.dtd"
	xmlns:inkscape="http://www.inkscape.org/namespaces/inkscape"
	width="1000"
	height="1000"
	id="svg2"
	version="1.1"
	sodipodi:docname="manifold/vicur-easterncottontailocc4.png.txt">
<defs
	id="defs4" />
<metadata
	id="metadata7">
	<rdf:RDF>
		<cc:Work
			rdf:about="">
			<dc:format>image/svg+xml</dc:format>
			<dc:type
				rdf:resource="http://purl.org/dc/dcmitype/StillImage" />
			<dc:title></dc:title>
		</cc:Work>
	</rdf:RDF>
</metadata>
<g
	inkscape:label="Layer 1"
	inkscape:groupmode="layer"
	id="layer1">
	<path style="fill:none;stroke:red;stroke-width:1px;stroke-linecap:butt;stroke-linejoin:miter;stroke-opacity:1" d="M 4,448.69 4,470.069 z" id="boundary" inkscape:connector-curvature="0" />
	<path style="fill:none;stroke:red;stroke-width:1px;stroke-linecap:butt;stroke-linejoin:miter;stroke-opacity:1" d="M 4,448.69 14.6897,427.31 z" id="boundary" inkscape:connector-curvature="0" />
	<path style="fill:none;stroke:red;stroke-width:1px;stroke-linecap:butt;stroke-linejoin:miter;stroke-opacity:1" d="M 4,470.069 25.3793,476.483 z" id="boundary" inkscape:connector-curvature="0" />
	<path style="fill:none;stroke:red;stroke-width:1px;stroke-linecap:butt;stroke-linejoin:miter;stroke-opacity:1" d="M 14.6897,405.931 14.6897,427.31 z" id="boundary" inkscape:connector-curvature="0" />
	<path style="fill:none;stroke:red;stroke-width:1px;stroke-linecap:butt;stroke-linejoin:miter;stroke-opacity:1" d="M 14.6897,405.931 25.3793,373.862 z" id="boundary" inkscape:connector-curvature="0" />
	<path style="fill:none;stroke:red;stroke-width:1px;stroke-linecap:butt;stroke-linejoin:miter;stroke-opacity:1" d="M 25.3793,373.862 42.4828,356.759 z" id="boundary" inkscape:connector-curvature="0" />
	<path style="fill:none;stroke:red;stroke-width:1px;stroke-linecap:butt;stroke-linejoin:miter;stroke-opacity:1" d="M 25.3793,476.483 31.7931,497.862 z" id="boundary" inkscape:connector-curvature="0" />
	<path style="fill:none;stroke:red;stroke-width:1px;stroke-linecap:butt;stroke-linejoin:miter;stroke-opacity:1" d="M 31.7931,497.862 51.0345,508.552 z" id="boundary" inkscape:connector-curvature="0" />
	<path style="fill:none;stroke:red;stroke-width:1px;stroke-linecap:butt;stroke-linejoin:miter;stroke-opacity:1" d="M 42.4828,356.759 57.4483,331.103 z" id="boundary" inkscape:connector-curvature="0" />
	<path style="fill:none;stroke:red;stroke-width:1px;stroke-linecap:butt;stroke-linejoin:miter;stroke-opacity:1" d="M 51.0345,508.552 61.7241,527.793 z" id="boundary" inkscape:connector-curvature="0" />
	<path style="fill:none;stroke:red;stroke-width:1px;stroke-linecap:butt;stroke-linejoin:miter;stroke-opacity:1" d="M 57.4483,331.103 74.5517,314 z" id="boundary" inkscape:connector-curvature="0" />
	<path style="fill:none;stroke:red;stroke-width:1px;stroke-linecap:butt;stroke-linejoin:miter;stroke-opacity:1" d="M 61.7241,527.793 83.1034,529.931 z" id="boundary" inkscape:connector-curvature="0" />
	<path style="fill:none;stroke:red;stroke-width:1px;stroke-linecap:butt;stroke-linejoin:miter;stroke-opacity:1" d="M 74.5517,314 78.8276,288.345 z" id="boundary" inkscape:connector-curvature="0" />
	<path style="fill:none;stroke:red;stroke-width:1px;stroke-linecap:butt;stroke-linejoin:miter;stroke-opacity:1" d="M 78.8276,288.345 95.931,271.241 z" id="boundary" inkscape:connector-curvature="0" />
	<path style="fill:none;stroke:red;stroke-width:1px;stroke-linecap:butt;stroke-linejoin:miter;stroke-opacity:1" d="M 83.1034,529.931 93.7931,549.172 z" id="boundary" inkscape:connector-curvature="0" />
	<path style="fill:none;stroke:red;stroke-width:1px;stroke-linecap:butt;stroke-linejoin:miter;stroke-opacity:1" d="M 93.7931,549.172 115.172,540.621 z" id="boundary" inkscape:connector-curvature="0" />
	<path style="fill:none;stroke:red;stroke-width:1px;stroke-linecap:butt;stroke-linejoin:miter;stroke-opacity:1" d="M 95.931,271.241 117.31,271.241 z" id="boundary" inkscape:connector-curvature="0" />
	<path style="fill:none;stroke:red;stroke-width:1px;stroke-linecap:butt;stroke-linejoin:miter;stroke-opacity:1" d="M 115.172,540.621 136.552,547.034 z" id="boundary" inkscape:connector-curvature="0" />
	<path style="fill:none;stroke:red;stroke-width:1px;stroke-linecap:butt;stroke-linejoin:miter;stroke-opacity:1" d="M 117.31,271.241 132.276,245.586 z" id="boundary" inkscape:connector-curvature="0" />
	<path style="fill:none;stroke:red;stroke-width:1px;stroke-linecap:butt;stroke-linejoin:miter;stroke-opacity:1" d="M 132.276,138.69 132.276,160.069 z" id="boundary" inkscape:connector-curvature="0" />
	<path style="fill:none;stroke:red;stroke-width:1px;stroke-linecap:butt;stroke-linejoin:miter;stroke-opacity:1" d="M 132.276,138.69 142.966,117.31 z" id="boundary" inkscape:connector-curvature="0" />
	<path style="fill:none;stroke:red;stroke-width:1px;stroke-linecap:butt;stroke-linejoin:miter;stroke-opacity:1" d="M 132.276,160.069 142.966,179.31 z" id="boundary" inkscape:connector-curvature="0" />
	<path style="fill:none;stroke:red;stroke-width:1px;stroke-linecap:butt;stroke-linejoin:miter;stroke-opacity:1" d="M 132.276,245.586 153.655,222.069 z" id="boundary" inkscape:connector-curvature="0" />
	<path style="fill:none;stroke:red;stroke-width:1px;stroke-linecap:butt;stroke-linejoin:miter;stroke-opacity:1" d="M 136.552,547.034 157.931,551.31 z" id="boundary" inkscape:connector-curvature="0" />
	<path style="fill:none;stroke:red;stroke-width:1px;stroke-linecap:butt;stroke-linejoin:miter;stroke-opacity:1" d="M 142.966,95.931 142.966,117.31 z" id="boundary" inkscape:connector-curvature="0" />
	<path style="fill:none;stroke:red;stroke-width:1px;stroke-linecap:butt;stroke-linejoin:miter;stroke-opacity:1" d="M 142.966,95.931 160.069,78.8276 z" id="boundary" inkscape:connector-curvature="0" />
	<path style="fill:none;stroke:red;stroke-width:1px;stroke-linecap:butt;stroke-linejoin:miter;stroke-opacity:1" d="M 142.966,179.31 142.966,202.828 z" id="boundary" inkscape:connector-curvature="0" />
	<path style="fill:none;stroke:red;stroke-width:1px;stroke-linecap:butt;stroke-linejoin:miter;stroke-opacity:1" d="M 142.966,202.828 153.655,222.069 z" id="boundary" inkscape:connector-curvature="0" />
	<path style="fill:none;stroke:red;stroke-width:1px;stroke-linecap:butt;stroke-linejoin:miter;stroke-opacity:1" d="M 157.931,551.31 179.31,557.724 z" id="boundary" inkscape:connector-curvature="0" />
	<path style="fill:none;stroke:red;stroke-width:1px;stroke-linecap:butt;stroke-linejoin:miter;stroke-opacity:1" d="M 160.069,78.8276 177.172,61.7241 z" id="boundary" inkscape:connector-curvature="0" />
	<path style="fill:none;stroke:red;stroke-width:1px;stroke-linecap:butt;stroke-linejoin:miter;stroke-opacity:1" d="M 177.172,61.7241 198.552,51.0345 z" id="boundary" inkscape:connector-curvature="0" />
	<path style="fill:none;stroke:red;stroke-width:1px;stroke-linecap:butt;stroke-linejoin:miter;stroke-opacity:1" d="M 179.31,557.724 196.414,572.69 z" id="boundary" inkscape:connector-curvature="0" />
	<path style="fill:none;stroke:red;stroke-width:1px;stroke-linecap:butt;stroke-linejoin:miter;stroke-opacity:1" d="M 196.414,572.69 209.241,589.793 z" id="boundary" inkscape:connector-curvature="0" />
	<path style="fill:none;stroke:red;stroke-width:1px;stroke-linecap:butt;stroke-linejoin:miter;stroke-opacity:1" d="M 198.552,51.0345 219.931,46.7586 z" id="boundary" inkscape:connector-curvature="0" />
	<path style="fill:none;stroke:red;stroke-width:1px;stroke-linecap:butt;stroke-linejoin:miter;stroke-opacity:1" d="M 209.241,589.793 230.621,598.345 z" id="boundary" inkscape:connector-curvature="0" />
	<path style="fill:none;stroke:red;stroke-width:1px;stroke-linecap:butt;stroke-linejoin:miter;stroke-opacity:1" d="M 219.931,46.7586 241.31,53.1724 z" id="boundary" inkscape:connector-curvature="0" />
	<path style="fill:none;stroke:red;stroke-width:1px;stroke-linecap:butt;stroke-linejoin:miter;stroke-opacity:1" d="M 228.483,715.931 228.483,737.31 z" id="boundary" inkscape:connector-curvature="0" />
	<path style="fill:none;stroke:red;stroke-width:1px;stroke-linecap:butt;stroke-linejoin:miter;stroke-opacity:1" d="M 228.483,715.931 249.862,733.034 z" id="boundary" inkscape:connector-curvature="0" />
	<path style="fill:none;stroke:red;stroke-width:1px;stroke-linecap:butt;stroke-linejoin:miter;stroke-opacity:1" d="M 230.621,598.345 239.172,619.724 z" id="boundary" inkscape:connector-curvature="0" />
	<path style="fill:none;stroke:red;stroke-width:1px;stroke-linecap:butt;stroke-linejoin:miter;stroke-opacity:1" d="M 239.172,619.724 260.552,626.138 z" id="boundary" inkscape:connector-curvature="0" />
	<path style="fill:none;stroke:red;stroke-width:1px;stroke-linecap:butt;stroke-linejoin:miter;stroke-opacity:1" d="M 241.31,53.1724 262.69,53.1724 z" id="boundary" inkscape:connector-curvature="0" />
	<path style="fill:none;stroke:red;stroke-width:1px;stroke-linecap:butt;stroke-linejoin:miter;stroke-opacity:1" d="M 245.586,698.828 266.966,698.828 z" id="boundary" inkscape:connector-curvature="0" />
	<path style="fill:none;stroke:red;stroke-width:1px;stroke-linecap:butt;stroke-linejoin:miter;stroke-opacity:1" d="M 249.862,733.034 269.103,743.724 z" id="boundary" inkscape:connector-curvature="0" />
	<path style="fill:none;stroke:red;stroke-width:1px;stroke-linecap:butt;stroke-linejoin:miter;stroke-opacity:1" d="M 249.862,833.517 260.552,812.138 z" id="boundary" inkscape:connector-curvature="0" />
	<path style="fill:none;stroke:red;stroke-width:1px;stroke-linecap:butt;stroke-linejoin:miter;stroke-opacity:1" d="M 249.862,833.517 271.241,839.931 z" id="boundary" inkscape:connector-curvature="0" />
	<path style="fill:none;stroke:red;stroke-width:1px;stroke-linecap:butt;stroke-linejoin:miter;stroke-opacity:1" d="M 260.552,626.138 271.241,651.793 z" id="boundary" inkscape:connector-curvature="0" />
	<path style="fill:none;stroke:red;stroke-width:1px;stroke-linecap:butt;stroke-linejoin:miter;stroke-opacity:1" d="M 260.552,812.138 277.655,795.034 z" id="boundary" inkscape:connector-curvature="0" />
	<path style="fill:none;stroke:red;stroke-width:1px;stroke-linecap:butt;stroke-linejoin:miter;stroke-opacity:1" d="M 262.69,53.1724 277.655,70.2759 z" id="boundary" inkscape:connector-curvature="0" />
	<path style="fill:none;stroke:red;stroke-width:1px;stroke-linecap:butt;stroke-linejoin:miter;stroke-opacity:1" d="M 266.966,698.828 286.207,688.138 z" id="boundary" inkscape:connector-curvature="0" />
	<path style="fill:none;stroke:red;stroke-width:1px;stroke-linecap:butt;stroke-linejoin:miter;stroke-opacity:1" d="M 269.103,743.724 290.483,743.724 z" id="boundary" inkscape:connector-curvature="0" />
	<path style="fill:none;stroke:red;stroke-width:1px;stroke-linecap:butt;stroke-linejoin:miter;stroke-opacity:1" d="M 271.241,651.793 292.621,658.207 z" id="boundary" inkscape:connector-curvature="0" />
	<path style="fill:none;stroke:red;stroke-width:1px;stroke-linecap:butt;stroke-linejoin:miter;stroke-opacity:1" d="M 271.241,839.931 284.069,857.034 z" id="boundary" inkscape:connector-curvature="0" />
	<path style="fill:none;stroke:red;stroke-width:1px;stroke-linecap:butt;stroke-linejoin:miter;stroke-opacity:1" d="M 277.655,70.2759 288.345,89.5172 z" id="boundary" inkscape:connector-curvature="0" />
	<path style="fill:none;stroke:red;stroke-width:1px;stroke-linecap:butt;stroke-linejoin:miter;stroke-opacity:1" d="M 277.655,795.034 288.345,773.655 z" id="boundary" inkscape:connector-curvature="0" />
	<path style="fill:none;stroke:red;stroke-width:1px;stroke-linecap:butt;stroke-linejoin:miter;stroke-opacity:1" d="M 284.069,134.414 294.759,110.897 z" id="boundary" inkscape:connector-curvature="0" />
	<path style="fill:none;stroke:red;stroke-width:1px;stroke-linecap:butt;stroke-linejoin:miter;stroke-opacity:1" d="M 284.069,134.414 301.172,147.241 z" id="boundary" inkscape:connector-curvature="0" />
	<path style="fill:none;stroke:red;stroke-width:1px;stroke-linecap:butt;stroke-linejoin:miter;stroke-opacity:1" d="M 284.069,857.034 305.448,865.586 z" id="boundary" inkscape:connector-curvature="0" />
	<path style="fill:none;stroke:red;stroke-width:1px;stroke-linecap:butt;stroke-linejoin:miter;stroke-opacity:1" d="M 286.207,688.138 292.621,658.207 z" id="boundary" inkscape:connector-curvature="0" />
	<path style="fill:none;stroke:red;stroke-width:1px;stroke-linecap:butt;stroke-linejoin:miter;stroke-opacity:1" d="M 288.345,89.5172 294.759,110.897 z" id="boundary" inkscape:connector-curvature="0" />
	<path style="fill:none;stroke:red;stroke-width:1px;stroke-linecap:butt;stroke-linejoin:miter;stroke-opacity:1" d="M 288.345,773.655 290.483,743.724 z" id="boundary" inkscape:connector-curvature="0" />
	<path style="fill:none;stroke:red;stroke-width:1px;stroke-linecap:butt;stroke-linejoin:miter;stroke-opacity:1" d="M 294.759,177.172 294.759,198.552 z" id="boundary" inkscape:connector-curvature="0" />
	<path style="fill:none;stroke:red;stroke-width:1px;stroke-linecap:butt;stroke-linejoin:miter;stroke-opacity:1" d="M 294.759,177.172 301.172,147.241 z" id="boundary" inkscape:connector-curvature="0" />
	<path style="fill:none;stroke:red;stroke-width:1px;stroke-linecap:butt;stroke-linejoin:miter;stroke-opacity:1" d="M 294.759,198.552 299.034,219.931 z" id="boundary" inkscape:connector-curvature="0" />
	<path style="fill:none;stroke:red;stroke-width:1px;stroke-linecap:butt;stroke-linejoin:miter;stroke-opacity:1" d="M 299.034,219.931 320.414,228.483 z" id="boundary" inkscape:connector-curvature="0" />
	<path style="fill:none;stroke:red;stroke-width:1px;stroke-linecap:butt;stroke-linejoin:miter;stroke-opacity:1" d="M 305.448,865.586 324.69,876.276 z" id="boundary" inkscape:connector-curvature="0" />
	<path style="fill:none;stroke:red;stroke-width:1px;stroke-linecap:butt;stroke-linejoin:miter;stroke-opacity:1" d="M 320.414,228.483 339.655,239.172 z" id="boundary" inkscape:connector-curvature="0" />
	<path style="fill:none;stroke:red;stroke-width:1px;stroke-linecap:butt;stroke-linejoin:miter;stroke-opacity:1" d="M 324.69,876.276 341.793,891.241 z" id="boundary" inkscape:connector-curvature="0" />
	<path style="fill:none;stroke:red;stroke-width:1px;stroke-linecap:butt;stroke-linejoin:miter;stroke-opacity:1" d="M 339.655,239.172 358.897,228.483 z" id="boundary" inkscape:connector-curvature="0" />
	<path style="fill:none;stroke:red;stroke-width:1px;stroke-linecap:butt;stroke-linejoin:miter;stroke-opacity:1" d="M 341.793,891.241 361.034,901.931 z" id="boundary" inkscape:connector-curvature="0" />
	<path style="fill:none;stroke:red;stroke-width:1px;stroke-linecap:butt;stroke-linejoin:miter;stroke-opacity:1" d="M 358.897,228.483 378.138,217.793 z" id="boundary" inkscape:connector-curvature="0" />
	<path style="fill:none;stroke:red;stroke-width:1px;stroke-linecap:butt;stroke-linejoin:miter;stroke-opacity:1" d="M 361.034,901.931 380.276,882.69 z" id="boundary" inkscape:connector-curvature="0" />
	<path style="fill:none;stroke:red;stroke-width:1px;stroke-linecap:butt;stroke-linejoin:miter;stroke-opacity:1" d="M 378.138,217.793 399.517,213.517 z" id="boundary" inkscape:connector-curvature="0" />
	<path style="fill:none;stroke:red;stroke-width:1px;stroke-linecap:butt;stroke-linejoin:miter;stroke-opacity:1" d="M 380.276,882.69 397.379,867.724 z" id="boundary" inkscape:connector-curvature="0" />
	<path style="fill:none;stroke:red;stroke-width:1px;stroke-linecap:butt;stroke-linejoin:miter;stroke-opacity:1" d="M 397.379,867.724 408.069,846.345 z" id="boundary" inkscape:connector-curvature="0" />
	<path style="fill:none;stroke:red;stroke-width:1px;stroke-linecap:butt;stroke-linejoin:miter;stroke-opacity:1" d="M 399.517,213.517 420.897,202.828 z" id="boundary" inkscape:connector-curvature="0" />
	<path style="fill:none;stroke:red;stroke-width:1px;stroke-linecap:butt;stroke-linejoin:miter;stroke-opacity:1" d="M 408.069,846.345 418.759,824.966 z" id="boundary" inkscape:connector-curvature="0" />
	<path style="fill:none;stroke:red;stroke-width:1px;stroke-linecap:butt;stroke-linejoin:miter;stroke-opacity:1" d="M 418.759,824.966 429.448,803.586 z" id="boundary" inkscape:connector-curvature="0" />
	<path style="fill:none;stroke:red;stroke-width:1px;stroke-linecap:butt;stroke-linejoin:miter;stroke-opacity:1" d="M 420.897,202.828 442.276,192.138 z" id="boundary" inkscape:connector-curvature="0" />
	<path style="fill:none;stroke:red;stroke-width:1px;stroke-linecap:butt;stroke-linejoin:miter;stroke-opacity:1" d="M 429.448,803.586 444.414,775.793 z" id="boundary" inkscape:connector-curvature="0" />
	<path style="fill:none;stroke:red;stroke-width:1px;stroke-linecap:butt;stroke-linejoin:miter;stroke-opacity:1" d="M 442.276,192.138 463.655,185.724 z" id="boundary" inkscape:connector-curvature="0" />
	<path style="fill:none;stroke:red;stroke-width:1px;stroke-linecap:butt;stroke-linejoin:miter;stroke-opacity:1" d="M 444.414,775.793 455.103,754.414 z" id="boundary" inkscape:connector-curvature="0" />
	<path style="fill:none;stroke:red;stroke-width:1px;stroke-linecap:butt;stroke-linejoin:miter;stroke-opacity:1" d="M 455.103,754.414 465.793,733.034 z" id="boundary" inkscape:connector-curvature="0" />
	<path style="fill:none;stroke:red;stroke-width:1px;stroke-linecap:butt;stroke-linejoin:miter;stroke-opacity:1" d="M 463.655,185.724 482.897,175.034 z" id="boundary" inkscape:connector-curvature="0" />
	<path style="fill:none;stroke:red;stroke-width:1px;stroke-linecap:butt;stroke-linejoin:miter;stroke-opacity:1" d="M 465.793,733.034 482.897,718.069 z" id="boundary" inkscape:connector-curvature="0" />
	<path style="fill:none;stroke:red;stroke-width:1px;stroke-linecap:butt;stroke-linejoin:miter;stroke-opacity:1" d="M 482.897,175.034 504.276,175.034 z" id="boundary" inkscape:connector-curvature="0" />
	<path style="fill:none;stroke:red;stroke-width:1px;stroke-linecap:butt;stroke-linejoin:miter;stroke-opacity:1" d="M 482.897,718.069 495.724,700.966 z" id="boundary" inkscape:connector-curvature="0" />
	<path style="fill:none;stroke:red;stroke-width:1px;stroke-linecap:butt;stroke-linejoin:miter;stroke-opacity:1" d="M 495.724,700.966 514.966,690.276 z" id="boundary" inkscape:connector-curvature="0" />
	<path style="fill:none;stroke:red;stroke-width:1px;stroke-linecap:butt;stroke-linejoin:miter;stroke-opacity:1" d="M 504.276,175.034 525.655,175.034 z" id="boundary" inkscape:connector-curvature="0" />
	<path style="fill:none;stroke:red;stroke-width:1px;stroke-linecap:butt;stroke-linejoin:miter;stroke-opacity:1" d="M 514.966,690.276 536.345,690.276 z" id="boundary" inkscape:connector-curvature="0" />
	<path style="fill:none;stroke:red;stroke-width:1px;stroke-linecap:butt;stroke-linejoin:miter;stroke-opacity:1" d="M 525.655,175.034 544.897,164.345 z" id="boundary" inkscape:connector-curvature="0" />
	<path style="fill:none;stroke:red;stroke-width:1px;stroke-linecap:butt;stroke-linejoin:miter;stroke-opacity:1" d="M 536.345,690.276 538.483,711.655 z" id="boundary" inkscape:connector-curvature="0" />
	<path style="fill:none;stroke:red;stroke-width:1px;stroke-linecap:butt;stroke-linejoin:miter;stroke-opacity:1" d="M 538.483,711.655 549.172,730.897 z" id="boundary" inkscape:connector-curvature="0" />
	<path style="fill:none;stroke:red;stroke-width:1px;stroke-linecap:butt;stroke-linejoin:miter;stroke-opacity:1" d="M 544.897,164.345 566.276,164.345 z" id="boundary" inkscape:connector-curvature="0" />
	<path style="fill:none;stroke:red;stroke-width:1px;stroke-linecap:butt;stroke-linejoin:miter;stroke-opacity:1" d="M 549.172,730.897 570.552,733.034 z" id="boundary" inkscape:connector-curvature="0" />
	<path style="fill:none;stroke:red;stroke-width:1px;stroke-linecap:butt;stroke-linejoin:miter;stroke-opacity:1" d="M 566.276,164.345 587.655,164.345 z" id="boundary" inkscape:connector-curvature="0" />
	<path style="fill:none;stroke:red;stroke-width:1px;stroke-linecap:butt;stroke-linejoin:miter;stroke-opacity:1" d="M 570.552,733.034 589.793,743.724 z" id="boundary" inkscape:connector-curvature="0" />
	<path style="fill:none;stroke:red;stroke-width:1px;stroke-linecap:butt;stroke-linejoin:miter;stroke-opacity:1" d="M 587.655,164.345 609.034,164.345 z" id="boundary" inkscape:connector-curvature="0" />
	<path style="fill:none;stroke:red;stroke-width:1px;stroke-linecap:butt;stroke-linejoin:miter;stroke-opacity:1" d="M 589.793,743.724 611.172,743.724 z" id="boundary" inkscape:connector-curvature="0" />
	<path style="fill:none;stroke:red;stroke-width:1px;stroke-linecap:butt;stroke-linejoin:miter;stroke-opacity:1" d="M 609.034,164.345 630.414,164.345 z" id="boundary" inkscape:connector-curvature="0" />
	<path style="fill:none;stroke:red;stroke-width:1px;stroke-linecap:butt;stroke-linejoin:miter;stroke-opacity:1" d="M 611.172,743.724 632.552,743.724 z" id="boundary" inkscape:connector-curvature="0" />
	<path style="fill:none;stroke:red;stroke-width:1px;stroke-linecap:butt;stroke-linejoin:miter;stroke-opacity:1" d="M 630.414,164.345 647.517,147.241 z" id="boundary" inkscape:connector-curvature="0" />
	<path style="fill:none;stroke:red;stroke-width:1px;stroke-linecap:butt;stroke-linejoin:miter;stroke-opacity:1" d="M 632.552,743.724 653.931,743.724 z" id="boundary" inkscape:connector-curvature="0" />
	<path style="fill:none;stroke:red;stroke-width:1px;stroke-linecap:butt;stroke-linejoin:miter;stroke-opacity:1" d="M 647.517,147.241 658.207,125.862 z" id="boundary" inkscape:connector-curvature="0" />
	<path style="fill:none;stroke:red;stroke-width:1px;stroke-linecap:butt;stroke-linejoin:miter;stroke-opacity:1" d="M 653.931,743.724 675.31,743.724 z" id="boundary" inkscape:connector-curvature="0" />
	<path style="fill:none;stroke:red;stroke-width:1px;stroke-linecap:butt;stroke-linejoin:miter;stroke-opacity:1" d="M 658.207,125.862 675.31,110.897 z" id="boundary" inkscape:connector-curvature="0" />
	<path style="fill:none;stroke:red;stroke-width:1px;stroke-linecap:butt;stroke-linejoin:miter;stroke-opacity:1" d="M 675.31,110.897 683.862,89.5172 z" id="boundary" inkscape:connector-curvature="0" />
	<path style="fill:none;stroke:red;stroke-width:1px;stroke-linecap:butt;stroke-linejoin:miter;stroke-opacity:1" d="M 675.31,743.724 694.552,733.034 z" id="boundary" inkscape:connector-curvature="0" />
	<path style="fill:none;stroke:red;stroke-width:1px;stroke-linecap:butt;stroke-linejoin:miter;stroke-opacity:1" d="M 683.862,89.5172 694.552,68.1379 z" id="boundary" inkscape:connector-curvature="0" />
	<path style="fill:none;stroke:red;stroke-width:1px;stroke-linecap:butt;stroke-linejoin:miter;stroke-opacity:1" d="M 694.552,68.1379 705.241,46.7586 z" id="boundary" inkscape:connector-curvature="0" />
	<path style="fill:none;stroke:red;stroke-width:1px;stroke-linecap:butt;stroke-linejoin:miter;stroke-opacity:1" d="M 694.552,733.034 715.931,733.034 z" id="boundary" inkscape:connector-curvature="0" />
	<path style="fill:none;stroke:red;stroke-width:1px;stroke-linecap:butt;stroke-linejoin:miter;stroke-opacity:1" d="M 705.241,46.7586 720.207,21.1034 z" id="boundary" inkscape:connector-curvature="0" />
	<path style="fill:none;stroke:red;stroke-width:1px;stroke-linecap:butt;stroke-linejoin:miter;stroke-opacity:1" d="M 715.931,733.034 737.31,733.034 z" id="boundary" inkscape:connector-curvature="0" />
	<path style="fill:none;stroke:red;stroke-width:1px;stroke-linecap:butt;stroke-linejoin:miter;stroke-opacity:1" d="M 720.207,21.1034 737.31,4 z" id="boundary" inkscape:connector-curvature="0" />
	<path style="fill:none;stroke:red;stroke-width:1px;stroke-linecap:butt;stroke-linejoin:miter;stroke-opacity:1" d="M 737.31,4 756.552,14.6897 z" id="boundary" inkscape:connector-curvature="0" />
	<path style="fill:none;stroke:red;stroke-width:1px;stroke-linecap:butt;stroke-linejoin:miter;stroke-opacity:1" d="M 737.31,733.034 756.552,722.345 z" id="boundary" inkscape:connector-curvature="0" />
	<path style="fill:none;stroke:red;stroke-width:1px;stroke-linecap:butt;stroke-linejoin:miter;stroke-opacity:1" d="M 756.552,14.6897 775.793,25.3793 z" id="boundary" inkscape:connector-curvature="0" />
	<path style="fill:none;stroke:red;stroke-width:1px;stroke-linecap:butt;stroke-linejoin:miter;stroke-opacity:1" d="M 756.552,722.345 777.931,722.345 z" id="boundary" inkscape:connector-curvature="0" />
	<path style="fill:none;stroke:red;stroke-width:1px;stroke-linecap:butt;stroke-linejoin:miter;stroke-opacity:1" d="M 775.793,25.3793 795.034,36.069 z" id="boundary" inkscape:connector-curvature="0" />
	<path style="fill:none;stroke:red;stroke-width:1px;stroke-linecap:butt;stroke-linejoin:miter;stroke-opacity:1" d="M 775.793,198.552 780.069,219.931 z" id="boundary" inkscape:connector-curvature="0" />
	<path style="fill:none;stroke:red;stroke-width:1px;stroke-linecap:butt;stroke-linejoin:miter;stroke-opacity:1" d="M 775.793,198.552 786.483,177.172 z" id="boundary" inkscape:connector-curvature="0" />
	<path style="fill:none;stroke:red;stroke-width:1px;stroke-linecap:butt;stroke-linejoin:miter;stroke-opacity:1" d="M 777.931,722.345 797.172,711.655 z" id="boundary" inkscape:connector-curvature="0" />
	<path style="fill:none;stroke:red;stroke-width:1px;stroke-linecap:butt;stroke-linejoin:miter;stroke-opacity:1" d="M 780.069,219.931 801.448,228.483 z" id="boundary" inkscape:connector-curvature="0" />
	<path style="fill:none;stroke:red;stroke-width:1px;stroke-linecap:butt;stroke-linejoin:miter;stroke-opacity:1" d="M 786.483,177.172 803.586,162.207 z" id="boundary" inkscape:connector-curvature="0" />
	<path style="fill:none;stroke:red;stroke-width:1px;stroke-linecap:butt;stroke-linejoin:miter;stroke-opacity:1" d="M 795.034,36.069 812.138,48.8966 z" id="boundary" inkscape:connector-curvature="0" />
	<path style="fill:none;stroke:red;stroke-width:1px;stroke-linecap:butt;stroke-linejoin:miter;stroke-opacity:1" d="M 797.172,711.655 818.552,711.655 z" id="boundary" inkscape:connector-curvature="0" />
	<path style="fill:none;stroke:red;stroke-width:1px;stroke-linecap:butt;stroke-linejoin:miter;stroke-opacity:1" d="M 801.448,228.483 816.414,245.586 z" id="boundary" inkscape:connector-curvature="0" />
	<path style="fill:none;stroke:red;stroke-width:1px;stroke-linecap:butt;stroke-linejoin:miter;stroke-opacity:1" d="M 803.586,162.207 814.276,140.828 z" id="boundary" inkscape:connector-curvature="0" />
	<path style="fill:none;stroke:red;stroke-width:1px;stroke-linecap:butt;stroke-linejoin:miter;stroke-opacity:1" d="M 812.138,48.8966 833.517,57.4483 z" id="boundary" inkscape:connector-curvature="0" />
	<path style="fill:none;stroke:red;stroke-width:1px;stroke-linecap:butt;stroke-linejoin:miter;stroke-opacity:1" d="M 814.276,140.828 824.966,119.448 z" id="boundary" inkscape:connector-curvature="0" />
	<path style="fill:none;stroke:red;stroke-width:1px;stroke-linecap:butt;stroke-linejoin:miter;stroke-opacity:1" d="M 816.414,245.586 833.517,260.552 z" id="boundary" inkscape:connector-curvature="0" />
	<path style="fill:none;stroke:red;stroke-width:1px;stroke-linecap:butt;stroke-linejoin:miter;stroke-opacity:1" d="M 818.552,711.655 837.793,700.966 z" id="boundary" inkscape:connector-curvature="0" />
	<path style="fill:none;stroke:red;stroke-width:1px;stroke-linecap:butt;stroke-linejoin:miter;stroke-opacity:1" d="M 824.966,119.448 839.931,91.6552 z" id="boundary" inkscape:connector-curvature="0" />
	<path style="fill:none;stroke:red;stroke-width:1px;stroke-linecap:butt;stroke-linejoin:miter;stroke-opacity:1" d="M 833.517,57.4483 839.931,91.6552 z" id="boundary" inkscape:connector-curvature="0" />
	<path style="fill:none;stroke:red;stroke-width:1px;stroke-linecap:butt;stroke-linejoin:miter;stroke-opacity:1" d="M 833.517,260.552 848.483,277.655 z" id="boundary" inkscape:connector-curvature="0" />
	<path style="fill:none;stroke:red;stroke-width:1px;stroke-linecap:butt;stroke-linejoin:miter;stroke-opacity:1" d="M 837.793,700.966 859.172,700.966 z" id="boundary" inkscape:connector-curvature="0" />
	<path style="fill:none;stroke:red;stroke-width:1px;stroke-linecap:butt;stroke-linejoin:miter;stroke-opacity:1" d="M 848.483,277.655 865.586,292.621 z" id="boundary" inkscape:connector-curvature="0" />
	<path style="fill:none;stroke:red;stroke-width:1px;stroke-linecap:butt;stroke-linejoin:miter;stroke-opacity:1" d="M 859.172,700.966 880.552,700.966 z" id="boundary" inkscape:connector-curvature="0" />
	<path style="fill:none;stroke:red;stroke-width:1px;stroke-linecap:butt;stroke-linejoin:miter;stroke-opacity:1" d="M 865.586,292.621 882.69,305.448 z" id="boundary" inkscape:connector-curvature="0" />
	<path style="fill:none;stroke:red;stroke-width:1px;stroke-linecap:butt;stroke-linejoin:miter;stroke-opacity:1" d="M 880.552,700.966 901.931,705.241 z" id="boundary" inkscape:connector-curvature="0" />
	<path style="fill:none;stroke:red;stroke-width:1px;stroke-linecap:butt;stroke-linejoin:miter;stroke-opacity:1" d="M 882.69,305.448 899.793,318.276 z" id="boundary" inkscape:connector-curvature="0" />
	<path style="fill:none;stroke:red;stroke-width:1px;stroke-linecap:butt;stroke-linejoin:miter;stroke-opacity:1" d="M 899.793,318.276 914.759,335.379 z" id="boundary" inkscape:connector-curvature="0" />
	<path style="fill:none;stroke:red;stroke-width:1px;stroke-linecap:butt;stroke-linejoin:miter;stroke-opacity:1" d="M 901.931,705.241 923.31,700.966 z" id="boundary" inkscape:connector-curvature="0" />
	<path style="fill:none;stroke:red;stroke-width:1px;stroke-linecap:butt;stroke-linejoin:miter;stroke-opacity:1" d="M 914.759,335.379 925.448,354.621 z" id="boundary" inkscape:connector-curvature="0" />
	<path style="fill:none;stroke:red;stroke-width:1px;stroke-linecap:butt;stroke-linejoin:miter;stroke-opacity:1" d="M 923.31,700.966 942.552,690.276 z" id="boundary" inkscape:connector-curvature="0" />
	<path style="fill:none;stroke:red;stroke-width:1px;stroke-linecap:butt;stroke-linejoin:miter;stroke-opacity:1" d="M 925.448,354.621 925.448,376 z" id="boundary" inkscape:connector-curvature="0" />
	<path style="fill:none;stroke:red;stroke-width:1px;stroke-linecap:butt;stroke-linejoin:miter;stroke-opacity:1" d="M 925.448,376 942.552,390.966 z" id="boundary" inkscape:connector-curvature="0" />
	<path style="fill:none;stroke:red;stroke-width:1px;stroke-linecap:butt;stroke-linejoin:miter;stroke-opacity:1" d="M 942.552,390.966 946.828,412.345 z" id="boundary" inkscape:connector-curvature="0" />
	<path style="fill:none;stroke:red;stroke-width:1px;stroke-linecap:butt;stroke-linejoin:miter;stroke-opacity:1" d="M 942.552,690.276 961.793,677.448 z" id="boundary" inkscape:connector-curvature="0" />
	<path style="fill:none;stroke:red;stroke-width:1px;stroke-linecap:butt;stroke-linejoin:miter;stroke-opacity:1" d="M 946.828,412.345 946.828,433.724 z" id="boundary" inkscape:connector-curvature="0" />
	<path style="fill:none;stroke:red;stroke-width:1px;stroke-linecap:butt;stroke-linejoin:miter;stroke-opacity:1" d="M 946.828,433.724 957.517,452.966 z" id="boundary" inkscape:connector-curvature="0" />
	<path style="fill:none;stroke:red;stroke-width:1px;stroke-linecap:butt;stroke-linejoin:miter;stroke-opacity:1" d="M 957.517,452.966 957.517,487.172 z" id="boundary" inkscape:connector-curvature="0" />
	<path style="fill:none;stroke:red;stroke-width:1px;stroke-linecap:butt;stroke-linejoin:miter;stroke-opacity:1" d="M 957.517,487.172 957.517,508.552 z" id="boundary" inkscape:connector-curvature="0" />
	<path style="fill:none;stroke:red;stroke-width:1px;stroke-linecap:butt;stroke-linejoin:miter;stroke-opacity:1" d="M 957.517,508.552 968.207,527.793 z" id="boundary" inkscape:connector-curvature="0" />
	<path style="fill:none;stroke:red;stroke-width:1px;stroke-linecap:butt;stroke-linejoin:miter;stroke-opacity:1" d="M 961.793,677.448 978.897,658.207 z" id="boundary" inkscape:connector-curvature="0" />
	<path style="fill:none;stroke:red;stroke-width:1px;stroke-linecap:butt;stroke-linejoin:miter;stroke-opacity:1" d="M 968.207,527.793 968.207,549.172 z" id="boundary" inkscape:connector-curvature="0" />
	<path style="fill:none;stroke:red;stroke-width:1px;stroke-linecap:butt;stroke-linejoin:miter;stroke-opacity:1" d="M 968.207,549.172 978.897,568.414 z" id="boundary" inkscape:connector-curvature="0" />
	<path style="fill:none;stroke:red;stroke-width:1px;stroke-linecap:butt;stroke-linejoin:miter;stroke-opacity:1" d="M 978.897,568.414 996,583.379 z" id="boundary" inkscape:connector-curvature="0" />
	<path style="fill:none;stroke:red;stroke-width:1px;stroke-linecap:butt;stroke-linejoin:miter;stroke-opacity:1" d="M 978.897,658.207 989.586,626.138 z" id="boundary" inkscape:connector-curvature="0" />
	<path style="fill:none;stroke:red;stroke-width:1px;stroke-linecap:butt;stroke-linejoin:miter;stroke-opacity:1" d="M 989.586,604.759 989.586,626.138 z" id="boundary" inkscape:connector-curvature="0" />
	<path style="fill:none;stroke:red;stroke-width:1px;stroke-linecap:butt;stroke-linejoin:miter;stroke-opacity:1" d="M 989.586,604.759 996,583.379 z" id="boundary" inkscape:connector-curvature="0" />
	<circle cx="4" cy="448.69" r="4" fill="#0" id="circle0"/>
	<circle cx="4" cy="470.069" r="4" fill="#0" id="circle1"/>
	<circle cx="14.6897" cy="405.931" r="4" fill="#0" id="circle2"/>
	<circle cx="14.6897" cy="427.31" r="4" fill="#0" id="circle3"/>
	<circle cx="25.3793" cy="373.862" r="4" fill="#0" id="circle4"/>
	<circle cx="25.3793" cy="476.483" r="4" fill="#0" id="circle5"/>
	<circle cx="31.7931" cy="497.862" r="4" fill="#0" id="circle6"/>
	<circle cx="42.4828" cy="356.759" r="4" fill="#0" id="circle7"/>
	<circle cx="51.0345" cy="508.552" r="4" fill="#0" id="circle8"/>
	<circle cx="57.4483" cy="331.103" r="4" fill="#0" id="circle9"/>
	<circle cx="61.7241" cy="527.793" r="4" fill="#0" id="circle10"/>
	<circle cx="74.5517" cy="314" r="4" fill="#0" id="circle11"/>
	<circle cx="78.8276" cy="288.345" r="4" fill="#0" id="circle12"/>
	<circle cx="83.1034" cy="529.931" r="4" fill="#0" id="circle13"/>
	<circle cx="93.7931" cy="549.172" r="4" fill="#0" id="circle14"/>
	<circle cx="95.931" cy="271.241" r="4" fill="#0" id="circle15"/>
	<circle cx="115.172" cy="540.621" r="4" fill="#0" id="circle16"/>
	<circle cx="117.31" cy="271.241" r="4" fill="#0" id="circle17"/>
	<circle cx="132.276" cy="138.69" r="4" fill="#0" id="circle18"/>
	<circle cx="132.276" cy="160.069" r="4" fill="#0" id="circle19"/>
	<circle cx="132.276" cy="245.586" r="4" fill="#0" id="circle20"/>
	<circle cx="136.552" cy="547.034" r="4" fill="#0" id="circle21"/>
	<circle cx="142.966" cy="95.931" r="4" fill="#0" id="circle22"/>
	<circle cx="142.966" cy="117.31" r="4" fill="#0" id="circle23"/>
	<circle cx="142.966" cy="179.31" r="4" fill="#0" id="circle24"/>
	<circle cx="142.966" cy="202.828" r="4" fill="#0" id="circle25"/>
	<circle cx="153.655" cy="222.069" r="4" fill="#0" id="circle26"/>
	<circle cx="157.931" cy="551.31" r="4" fill="#0" id="circle27"/>
	<circle cx="160.069" cy="78.8276" r="4" fill="#0" id="circle28"/>
	<circle cx="177.172" cy="61.7241" r="4" fill="#0" id="circle29"/>
	<circle cx="179.31" cy="557.724" r="4" fill="#0" id="circle30"/>
	<circle cx="196.414" cy="572.69" r="4" fill="#0" id="circle31"/>
	<circle cx="198.552" cy="51.0345" r="4" fill="#0" id="circle32"/>
	<circle cx="209.241" cy="589.793" r="4" fill="#0" id="circle33"/>
	<circle cx="219.931" cy="46.7586" r="4" fill="#0" id="circle34"/>
	<circle cx="228.483" cy="715.931" r="4" fill="#0" id="circle35"/>
	<circle cx="228.483" cy="737.31" r="4" fill="#0" id="circle36"/>
	<circle cx="230.621" cy="598.345" r="4" fill="#0" id="circle37"/>
	<circle cx="239.172" cy="619.724" r="4" fill="#0" id="circle38"/>
	<circle cx="241.31" cy="53.1724" r="4" fill="#0" id="circle39"/>
	<circle cx="245.586" cy="698.828" r="4" fill="#0" id="circle40"/>
	<circle cx="249.862" cy="733.034" r="4" fill="#0" id="circle41"/>
	<circle cx="249.862" cy="833.517" r="4" fill="#0" id="circle42"/>
	<circle cx="260.552" cy="626.138" r="4" fill="#0" id="circle43"/>
	<circle cx="260.552" cy="812.138" r="4" fill="#0" id="circle44"/>
	<circle cx="262.69" cy="53.1724" r="4" fill="#0" id="circle45"/>
	<circle cx="266.966" cy="698.828" r="4" fill="#0" id="circle46"/>
	<circle cx="269.103" cy="743.724" r="4" fill="#0" id="circle47"/>
	<circle cx="271.241" cy="651.793" r="4" fill="#0" id="circle48"/>
	<circle cx="271.241" cy="839.931" r="4" fill="#0" id="circle49"/>
	<circle cx="277.655" cy="70.2759" r="4" fill="#0" id="circle50"/>
	<circle cx="277.655" cy="795.034" r="4" fill="#0" id="circle51"/>
	<circle cx="284.069" cy="134.414" r="4" fill="#0" id="circle52"/>
	<circle cx="284.069" cy="857.034" r="4" fill="#0" id="circle53"/>
	<circle cx="286.207" cy="688.138" r="4" fill="#0" id="circle54"/>
	<circle cx="288.345" cy="89.5172" r="4" fill="#0" id="circle55"/>
	<circle cx="288.345" cy="773.655" r="4" fill="#0" id="circle56"/>
	<circle cx="290.483" cy="743.724" r="4" fill="#0" id="circle57"/>
	<circle cx="292.621" cy="658.207" r="4" fill="#0" id="circle58"/>
	<circle cx="294.759" cy="110.897" r="4" fill="#0" id="circle59"/>
	<circle cx="294.759" cy="177.172" r="4" fill="#0" id="circle60"/>
	<circle cx="294.759" cy="198.552" r="4" fill="#0" id="circle61"/>
	<circle cx="299.034" cy="219.931" r="4" fill="#0" id="circle62"/>
	<circle cx="301.172" cy="147.241" r="4" fill="#0" id="circle63"/>
	<circle cx="305.448" cy="865.586" r="4" fill="#0" id="circle64"/>
	<circle cx="320.414" cy="228.483" r="4" fill="#0" id="circle65"/>
	<circle cx="324.69" cy="876.276" r="4" fill="#0" id="circle66"/>
	<circle cx="339.655" cy="239.172" r="4" fill="#0" id="circle67"/>
	<circle cx="341.793" cy="891.241" r="4" fill="#0" id="circle68"/>
	<circle cx="358.897" cy="228.483" r="4" fill="#0" id="circle69"/>
	<circle cx="361.034" cy="901.931" r="4" fill="#0" id="circle70"/>
	<circle cx="378.138" cy="217.793" r="4" fill="#0" id="circle71"/>
	<circle cx="380.276" cy="882.69" r="4" fill="#0" id="circle72"/>
	<circle cx="397.379" cy="867.724" r="4" fill="#0" id="circle73"/>
	<circle cx="399.517" cy="213.517" r="4" fill="#0" id="circle74"/>
	<circle cx="408.069" cy="846.345" r="4" fill="#0" id="circle75"/>
	<circle cx="418.759" cy="824.966" r="4" fill="#0" id="circle76"/>
	<circle cx="420.897" cy="202.828" r="4" fill="#0" id="circle77"/>
	<circle cx="429.448" cy="803.586" r="4" fill="#0" id="circle78"/>
	<circle cx="442.276" cy="192.138" r="4" fill="#0" id="circle79"/>
	<circle cx="444.414" cy="775.793" r="4" fill="#0" id="circle80"/>
	<circle cx="455.103" cy="754.414" r="4" fill="#0" id="circle81"/>
	<circle cx="463.655" cy="185.724" r="4" fill="#0" id="circle82"/>
	<circle cx="465.793" cy="733.034" r="4" fill="#0" id="circle83"/>
	<circle cx="482.897" cy="175.034" r="4" fill="#0" id="circle84"/>
	<circle cx="482.897" cy="718.069" r="4" fill="#0" id="circle85"/>
	<circle cx="495.724" cy="700.966" r="4" fill="#0" id="circle86"/>
	<circle cx="504.276" cy="175.034" r="4" fill="#0" id="circle87"/>
	<circle cx="514.966" cy="690.276" r="4" fill="#0" id="circle88"/>
	<circle cx="525.655" cy="175.034" r="4" fill="#0" id="circle89"/>
	<circle cx="536.345" cy="690.276" r="4" fill="#0" id="circle90"/>
	<circle cx="538.483" cy="711.655" r="4" fill="#0" id="circle91"/>
	<circle cx="544.897" cy="164.345" r="4" fill="#0" id="circle92"/>
	<circle cx="549.172" cy="730.897" r="4" fill="#0" id="circle93"/>
	<circle cx="566.276" cy="164.345" r="4" fill="#0" id="circle94"/>
	<circle cx="570.552" cy="733.034" r="4" fill="#0" id="circle95"/>
	<circle cx="587.655" cy="164.345" r="4" fill="#0" id="circle96"/>
	<circle cx="589.793" cy="743.724" r="4" fill="#0" id="circle97"/>
	<circle cx="609.034" cy="164.345" r="4" fill="#0" id="circle98"/>
	<circle cx="611.172" cy="743.724" r="4" fill="#0" id="circle99"/>
	<circle cx="630.414" cy="164.345" r="4" fill="#0" id="circle100"/>
	<circle cx="632.552" cy="743.724" r="4" fill="#0" id="circle101"/>
	<circle cx="647.517" cy="147.241" r="4" fill="#0" id="circle102"/>
	<circle cx="653.931" cy="743.724" r="4" fill="#0" id="circle103"/>
	<circle cx="658.207" cy="125.862" r="4" fill="#0" id="circle104"/>
	<circle cx="675.31" cy="110.897" r="4" fill="#0" id="circle105"/>
	<circle cx="675.31" cy="743.724" r="4" fill="#0" id="circle106"/>
	<circle cx="683.862" cy="89.5172" r="4" fill="#0" id="circle107"/>
	<circle cx="694.552" cy="68.1379" r="4" fill="#0" id="circle108"/>
	<circle cx="694.552" cy="733.034" r="4" fill="#0" id="circle109"/>
	<circle cx="705.241" cy="46.7586" r="4" fill="#0" id="circle110"/>
	<circle cx="715.931" cy="733.034" r="4" fill="#0" id="circle111"/>
	<circle cx="720.207" cy="21.1034" r="4" fill="#0" id="circle112"/>
	<circle cx="737.31" cy="4" r="4" fill="#0" id="circle113"/>
	<circle cx="737.31" cy="733.034" r="4" fill="#0" id="circle114"/>
	<circle cx="756.552" cy="14.6897" r="4" fill="#0" id="circle115"/>
	<circle cx="756.552" cy="722.345" r="4" fill="#0" id="circle116"/>
	<circle cx="775.793" cy="25.3793" r="4" fill="#0" id="circle117"/>
	<circle cx="775.793" cy="198.552" r="4" fill="#0" id="circle118"/>
	<circle cx="777.931" cy="722.345" r="4" fill="#0" id="circle119"/>
	<circle cx="780.069" cy="219.931" r="4" fill="#0" id="circle120"/>
	<circle cx="786.483" cy="177.172" r="4" fill="#0" id="circle121"/>
	<circle cx="795.034" cy="36.069" r="4" fill="#0" id="circle122"/>
	<circle cx="797.172" cy="711.655" r="4" fill="#0" id="circle123"/>
	<circle cx="801.448" cy="228.483" r="4" fill="#0" id="circle124"/>
	<circle cx="803.586" cy="162.207" r="4" fill="#0" id="circle125"/>
	<circle cx="812.138" cy="48.8966" r="4" fill="#0" id="circle126"/>
	<circle cx="814.276" cy="140.828" r="4" fill="#0" id="circle127"/>
	<circle cx="816.414" cy="245.586" r="4" fill="#0" id="circle128"/>
	<circle cx="818.552" cy="711.655" r="4" fill="#0" id="circle129"/>
	<circle cx="824.966" cy="119.448" r="4" fill="#0" id="circle130"/>
	<circle cx="833.517" cy="57.4483" r="4" fill="#0" id="circle131"/>
	<circle cx="833.517" cy="260.552" r="4" fill="#0" id="circle132"/>
	<circle cx="837.793" cy="700.966" r="4" fill="#0" id="circle133"/>
	<circle cx="839.931" cy="91.6552" r="4" fill="#0" id="circle134"/>
	<circle cx="848.483" cy="277.655" r="4" fill="#0" id="circle135"/>
	<circle cx="859.172" cy="700.966" r="4" fill="#0" id="circle136"/>
	<circle cx="865.586" cy="292.621" r="4" fill="#0" id="circle137"/>
	<circle cx="880.552" cy="700.966" r="4" fill="#0" id="circle138"/>
	<circle cx="882.69" cy="305.448" r="4" fill="#0" id="circle139"/>
	<circle cx="899.793" cy="318.276" r="4" fill="#0" id="circle140"/>
	<circle cx="901.931" cy="705.241" r="4" fill="#0" id="circle141"/>
	<circle cx="914.759" cy="335.379" r="4" fill="#0" id="circle142"/>
	<circle cx="923.31" cy="700.966" r="4" fill="#0" id="circle143"/>
	<circle cx="925.448" cy="354.621" r="4" fill="#0" id="circle144"/>
	<circle cx="925.448" cy="376" r="4" fill="#0" id="circle145"/>
	<circle cx="942.552" cy="390.966" r="4" fill="#0" id="circle146"/>
	<circle cx="942.552" cy="690.276" r="4" fill="#0" id="circle147"/>
	<circle cx="946.828" cy="412.345" r="4" fill="#0" id="circle148"/>
	<circle cx="946.828" cy="433.724" r="4" fill="#0" id="circle149"/>
	<circle cx="957.517" cy="452.966" r="4" fill="#0" id="circle150"/>
	<circle cx="957.517" cy="487.172" r="4" fill="#0" id="circle151"/>
	<circle cx="957.517" cy="508.552" r="4" fill="#0" id="circle152"/>
	<circle cx="961.793" cy="677.448" r="4" fill="#0" id="circle153"/>
	<circle cx="968.207" cy="527.793" r="4" fill="#0" id="circle154"/>
	<circle cx="968.207" cy="549.172" r="4" fill="#0" id="circle155"/>
	<circle cx="978.897" cy="568.414" r="4" fill="#0" id="circle156"/>
	<circle cx="978.897" cy="658.207" r="4" fill="#0" id="circle157"/>
	<circle cx="989.586" cy="604.759" r="4" fill="#0" id="circle158"/>
	<circle cx="989.586" cy="626.138" r="4" fill="#0" id="circle159"/>
	<circle cx="996" cy="583.379" r="4" fill="#0" id="circle160"/>
	</g>
</svg>