<?xml version="1.0" encoding="UTF-8" standalone="no"?>
<!-- Created with CurveBenchmark -->
<svg
	xmlns:dc="http://purl.org/dc/elements/1.1/"
	xmlns:cc="http://creativecommons.org/ns#"
	xmlns:rdf="http://www.w3.org/1999/02/22-rdf-syntax-ns#"
	xmlns:svg="http://www.w3.org/2000/svg"
	xmlns="http://www.w3.org/2000/svg"
	xmlns:sodipodi="http://sodipodi.sourceforge.net/DTD/sodipodi-0.dtd"
	xmlns:inkscape="http://www.inkscape.org/namespaces/inkscape"
	width="1000"
	height="1000"
	id="svg2"
	version="1.1"
	sodipodi:docname="manifold/vicur-bird10.png.txt">
<defs
	id="defs4" />
<metadata
	id="metadata7">
	<rdf:RDF>
		<cc:Work
			rdf:about="">
			<dc:format>image/svg+xml</dc:format>
			<dc:type
				rdf:resource="http://purl.org/dc/dcmitype/StillImage" />
			<dc:title></dc:title>
		</cc:Work>
	</rdf:RDF>
</metadata>
<g
	inkscape:label="Layer 1"
	inkscape:groupmode="layer"
	id="layer1">
	<path style="fill:none;stroke:red;stroke-width:1px;stroke-linecap:butt;stroke-linejoin:miter;stroke-opacity:1" d="M 4,381.905 4,400.073 z" id="boundary" inkscape:connector-curvature="0" />
	<path style="fill:none;stroke:red;stroke-width:1px;stroke-linecap:butt;stroke-linejoin:miter;stroke-opacity:1" d="M 4,381.905 22.1685,376.454 z" id="boundary" inkscape:connector-curvature="0" />
	<path style="fill:none;stroke:red;stroke-width:1px;stroke-linecap:butt;stroke-linejoin:miter;stroke-opacity:1" d="M 4,400.073 4,418.242 z" id="boundary" inkscape:connector-curvature="0" />
	<path style="fill:none;stroke:red;stroke-width:1px;stroke-linecap:butt;stroke-linejoin:miter;stroke-opacity:1" d="M 4,418.242 4,436.41 z" id="boundary" inkscape:connector-curvature="0" />
	<path style="fill:none;stroke:red;stroke-width:1px;stroke-linecap:butt;stroke-linejoin:miter;stroke-opacity:1" d="M 4,436.41 4,454.579 z" id="boundary" inkscape:connector-curvature="0" />
	<path style="fill:none;stroke:red;stroke-width:1px;stroke-linecap:butt;stroke-linejoin:miter;stroke-opacity:1" d="M 4,454.579 4,472.747 z" id="boundary" inkscape:connector-curvature="0" />
	<path style="fill:none;stroke:red;stroke-width:1px;stroke-linecap:butt;stroke-linejoin:miter;stroke-opacity:1" d="M 4,472.747 13.0842,489.099 z" id="boundary" inkscape:connector-curvature="0" />
	<path style="fill:none;stroke:red;stroke-width:1px;stroke-linecap:butt;stroke-linejoin:miter;stroke-opacity:1" d="M 13.0842,489.099 22.1685,505.451 z" id="boundary" inkscape:connector-curvature="0" />
	<path style="fill:none;stroke:red;stroke-width:1px;stroke-linecap:butt;stroke-linejoin:miter;stroke-opacity:1" d="M 22.1685,376.454 40.337,371.004 z" id="boundary" inkscape:connector-curvature="0" />
	<path style="fill:none;stroke:red;stroke-width:1px;stroke-linecap:butt;stroke-linejoin:miter;stroke-opacity:1" d="M 22.1685,505.451 22.1685,523.619 z" id="boundary" inkscape:connector-curvature="0" />
	<path style="fill:none;stroke:red;stroke-width:1px;stroke-linecap:butt;stroke-linejoin:miter;stroke-opacity:1" d="M 22.1685,523.619 22.1685,545.421 z" id="boundary" inkscape:connector-curvature="0" />
	<path style="fill:none;stroke:red;stroke-width:1px;stroke-linecap:butt;stroke-linejoin:miter;stroke-opacity:1" d="M 22.1685,545.421 31.2527,561.773 z" id="boundary" inkscape:connector-curvature="0" />
	<path style="fill:none;stroke:red;stroke-width:1px;stroke-linecap:butt;stroke-linejoin:miter;stroke-opacity:1" d="M 31.2527,561.773 49.4212,559.956 z" id="boundary" inkscape:connector-curvature="0" />
	<path style="fill:none;stroke:red;stroke-width:1px;stroke-linecap:butt;stroke-linejoin:miter;stroke-opacity:1" d="M 40.337,371.004 58.5055,376.454 z" id="boundary" inkscape:connector-curvature="0" />
	<path style="fill:none;stroke:red;stroke-width:1px;stroke-linecap:butt;stroke-linejoin:miter;stroke-opacity:1" d="M 49.4212,559.956 63.956,549.055 z" id="boundary" inkscape:connector-curvature="0" />
	<path style="fill:none;stroke:red;stroke-width:1px;stroke-linecap:butt;stroke-linejoin:miter;stroke-opacity:1" d="M 58.5055,376.454 76.674,372.821 z" id="boundary" inkscape:connector-curvature="0" />
	<path style="fill:none;stroke:red;stroke-width:1px;stroke-linecap:butt;stroke-linejoin:miter;stroke-opacity:1" d="M 63.956,549.055 82.1245,539.971 z" id="boundary" inkscape:connector-curvature="0" />
	<path style="fill:none;stroke:red;stroke-width:1px;stroke-linecap:butt;stroke-linejoin:miter;stroke-opacity:1" d="M 76.674,372.821 94.8425,367.37 z" id="boundary" inkscape:connector-curvature="0" />
	<path style="fill:none;stroke:red;stroke-width:1px;stroke-linecap:butt;stroke-linejoin:miter;stroke-opacity:1" d="M 82.1245,539.971 91.2088,523.619 z" id="boundary" inkscape:connector-curvature="0" />
	<path style="fill:none;stroke:red;stroke-width:1px;stroke-linecap:butt;stroke-linejoin:miter;stroke-opacity:1" d="M 91.2088,523.619 109.377,523.619 z" id="boundary" inkscape:connector-curvature="0" />
	<path style="fill:none;stroke:red;stroke-width:1px;stroke-linecap:butt;stroke-linejoin:miter;stroke-opacity:1" d="M 94.8425,367.37 111.194,376.454 z" id="boundary" inkscape:connector-curvature="0" />
	<path style="fill:none;stroke:red;stroke-width:1px;stroke-linecap:butt;stroke-linejoin:miter;stroke-opacity:1" d="M 109.377,523.619 127.546,530.886 z" id="boundary" inkscape:connector-curvature="0" />
	<path style="fill:none;stroke:red;stroke-width:1px;stroke-linecap:butt;stroke-linejoin:miter;stroke-opacity:1" d="M 111.194,376.454 129.363,376.454 z" id="boundary" inkscape:connector-curvature="0" />
	<path style="fill:none;stroke:red;stroke-width:1px;stroke-linecap:butt;stroke-linejoin:miter;stroke-opacity:1" d="M 127.546,530.886 140.264,545.421 z" id="boundary" inkscape:connector-curvature="0" />
	<path style="fill:none;stroke:red;stroke-width:1px;stroke-linecap:butt;stroke-linejoin:miter;stroke-opacity:1" d="M 129.363,376.454 147.531,378.271 z" id="boundary" inkscape:connector-curvature="0" />
	<path style="fill:none;stroke:red;stroke-width:1px;stroke-linecap:butt;stroke-linejoin:miter;stroke-opacity:1" d="M 140.264,545.421 140.264,563.59 z" id="boundary" inkscape:connector-curvature="0" />
	<path style="fill:none;stroke:red;stroke-width:1px;stroke-linecap:butt;stroke-linejoin:miter;stroke-opacity:1" d="M 140.264,563.59 158.432,559.956 z" id="boundary" inkscape:connector-curvature="0" />
	<path style="fill:none;stroke:red;stroke-width:1px;stroke-linecap:butt;stroke-linejoin:miter;stroke-opacity:1" d="M 147.531,378.271 163.883,387.355 z" id="boundary" inkscape:connector-curvature="0" />
	<path style="fill:none;stroke:red;stroke-width:1px;stroke-linecap:butt;stroke-linejoin:miter;stroke-opacity:1" d="M 158.432,559.956 169.333,574.491 z" id="boundary" inkscape:connector-curvature="0" />
	<path style="fill:none;stroke:red;stroke-width:1px;stroke-linecap:butt;stroke-linejoin:miter;stroke-opacity:1" d="M 163.883,387.355 172.967,403.707 z" id="boundary" inkscape:connector-curvature="0" />
	<path style="fill:none;stroke:red;stroke-width:1px;stroke-linecap:butt;stroke-linejoin:miter;stroke-opacity:1" d="M 169.333,574.491 187.502,578.125 z" id="boundary" inkscape:connector-curvature="0" />
	<path style="fill:none;stroke:red;stroke-width:1px;stroke-linecap:butt;stroke-linejoin:miter;stroke-opacity:1" d="M 172.967,403.707 187.502,414.608 z" id="boundary" inkscape:connector-curvature="0" />
	<path style="fill:none;stroke:red;stroke-width:1px;stroke-linecap:butt;stroke-linejoin:miter;stroke-opacity:1" d="M 187.502,414.608 202.037,425.509 z" id="boundary" inkscape:connector-curvature="0" />
	<path style="fill:none;stroke:red;stroke-width:1px;stroke-linecap:butt;stroke-linejoin:miter;stroke-opacity:1" d="M 187.502,578.125 198.403,592.659 z" id="boundary" inkscape:connector-curvature="0" />
	<path style="fill:none;stroke:red;stroke-width:1px;stroke-linecap:butt;stroke-linejoin:miter;stroke-opacity:1" d="M 198.403,592.659 214.755,601.744 z" id="boundary" inkscape:connector-curvature="0" />
	<path style="fill:none;stroke:red;stroke-width:1px;stroke-linecap:butt;stroke-linejoin:miter;stroke-opacity:1" d="M 202.037,425.509 220.205,423.692 z" id="boundary" inkscape:connector-curvature="0" />
	<path style="fill:none;stroke:red;stroke-width:1px;stroke-linecap:butt;stroke-linejoin:miter;stroke-opacity:1" d="M 214.755,601.744 229.289,614.462 z" id="boundary" inkscape:connector-curvature="0" />
	<path style="fill:none;stroke:red;stroke-width:1px;stroke-linecap:butt;stroke-linejoin:miter;stroke-opacity:1" d="M 220.205,423.692 236.557,432.777 z" id="boundary" inkscape:connector-curvature="0" />
	<path style="fill:none;stroke:red;stroke-width:1px;stroke-linecap:butt;stroke-linejoin:miter;stroke-opacity:1" d="M 229.289,614.462 242.007,628.996 z" id="boundary" inkscape:connector-curvature="0" />
	<path style="fill:none;stroke:red;stroke-width:1px;stroke-linecap:butt;stroke-linejoin:miter;stroke-opacity:1" d="M 236.557,432.777 254.725,430.96 z" id="boundary" inkscape:connector-curvature="0" />
	<path style="fill:none;stroke:red;stroke-width:1px;stroke-linecap:butt;stroke-linejoin:miter;stroke-opacity:1" d="M 242.007,628.996 251.092,645.348 z" id="boundary" inkscape:connector-curvature="0" />
	<path style="fill:none;stroke:red;stroke-width:1px;stroke-linecap:butt;stroke-linejoin:miter;stroke-opacity:1" d="M 251.092,645.348 267.443,654.432 z" id="boundary" inkscape:connector-curvature="0" />
	<path style="fill:none;stroke:red;stroke-width:1px;stroke-linecap:butt;stroke-linejoin:miter;stroke-opacity:1" d="M 254.725,430.96 272.894,421.875 z" id="boundary" inkscape:connector-curvature="0" />
	<path style="fill:none;stroke:red;stroke-width:1px;stroke-linecap:butt;stroke-linejoin:miter;stroke-opacity:1" d="M 267.443,654.432 281.978,667.15 z" id="boundary" inkscape:connector-curvature="0" />
	<path style="fill:none;stroke:red;stroke-width:1px;stroke-linecap:butt;stroke-linejoin:miter;stroke-opacity:1" d="M 272.894,421.875 291.062,421.875 z" id="boundary" inkscape:connector-curvature="0" />
	<path style="fill:none;stroke:red;stroke-width:1px;stroke-linecap:butt;stroke-linejoin:miter;stroke-opacity:1" d="M 281.978,667.15 298.33,676.234 z" id="boundary" inkscape:connector-curvature="0" />
	<path style="fill:none;stroke:red;stroke-width:1px;stroke-linecap:butt;stroke-linejoin:miter;stroke-opacity:1" d="M 291.062,421.875 305.597,407.341 z" id="boundary" inkscape:connector-curvature="0" />
	<path style="fill:none;stroke:red;stroke-width:1px;stroke-linecap:butt;stroke-linejoin:miter;stroke-opacity:1" d="M 298.33,676.234 316.498,678.051 z" id="boundary" inkscape:connector-curvature="0" />
	<path style="fill:none;stroke:red;stroke-width:1px;stroke-linecap:butt;stroke-linejoin:miter;stroke-opacity:1" d="M 305.597,407.341 320.132,394.623 z" id="boundary" inkscape:connector-curvature="0" />
	<path style="fill:none;stroke:red;stroke-width:1px;stroke-linecap:butt;stroke-linejoin:miter;stroke-opacity:1" d="M 316.498,678.051 334.667,683.502 z" id="boundary" inkscape:connector-curvature="0" />
	<path style="fill:none;stroke:red;stroke-width:1px;stroke-linecap:butt;stroke-linejoin:miter;stroke-opacity:1" d="M 320.132,394.623 338.3,394.623 z" id="boundary" inkscape:connector-curvature="0" />
	<path style="fill:none;stroke:red;stroke-width:1px;stroke-linecap:butt;stroke-linejoin:miter;stroke-opacity:1" d="M 334.667,683.502 352.835,687.136 z" id="boundary" inkscape:connector-curvature="0" />
	<path style="fill:none;stroke:red;stroke-width:1px;stroke-linecap:butt;stroke-linejoin:miter;stroke-opacity:1" d="M 338.3,394.623 354.652,385.538 z" id="boundary" inkscape:connector-curvature="0" />
	<path style="fill:none;stroke:red;stroke-width:1px;stroke-linecap:butt;stroke-linejoin:miter;stroke-opacity:1" d="M 352.835,687.136 371.004,692.586 z" id="boundary" inkscape:connector-curvature="0" />
	<path style="fill:none;stroke:red;stroke-width:1px;stroke-linecap:butt;stroke-linejoin:miter;stroke-opacity:1" d="M 354.652,385.538 372.821,385.538 z" id="boundary" inkscape:connector-curvature="0" />
	<path style="fill:none;stroke:red;stroke-width:1px;stroke-linecap:butt;stroke-linejoin:miter;stroke-opacity:1" d="M 371.004,692.586 403.707,698.037 z" id="boundary" inkscape:connector-curvature="0" />
	<path style="fill:none;stroke:red;stroke-width:1px;stroke-linecap:butt;stroke-linejoin:miter;stroke-opacity:1" d="M 372.821,385.538 390.989,385.538 z" id="boundary" inkscape:connector-curvature="0" />
	<path style="fill:none;stroke:red;stroke-width:1px;stroke-linecap:butt;stroke-linejoin:miter;stroke-opacity:1" d="M 390.989,385.538 407.341,376.454 z" id="boundary" inkscape:connector-curvature="0" />
	<path style="fill:none;stroke:red;stroke-width:1px;stroke-linecap:butt;stroke-linejoin:miter;stroke-opacity:1" d="M 403.707,698.037 421.875,696.22 z" id="boundary" inkscape:connector-curvature="0" />
	<path style="fill:none;stroke:red;stroke-width:1px;stroke-linecap:butt;stroke-linejoin:miter;stroke-opacity:1" d="M 407.341,376.454 421.875,363.736 z" id="boundary" inkscape:connector-curvature="0" />
	<path style="fill:none;stroke:red;stroke-width:1px;stroke-linecap:butt;stroke-linejoin:miter;stroke-opacity:1" d="M 421.875,363.736 440.044,358.286 z" id="boundary" inkscape:connector-curvature="0" />
	<path style="fill:none;stroke:red;stroke-width:1px;stroke-linecap:butt;stroke-linejoin:miter;stroke-opacity:1" d="M 421.875,696.22 438.227,705.304 z" id="boundary" inkscape:connector-curvature="0" />
	<path style="fill:none;stroke:red;stroke-width:1px;stroke-linecap:butt;stroke-linejoin:miter;stroke-opacity:1" d="M 438.227,705.304 454.579,714.388 z" id="boundary" inkscape:connector-curvature="0" />
	<path style="fill:none;stroke:red;stroke-width:1px;stroke-linecap:butt;stroke-linejoin:miter;stroke-opacity:1" d="M 440.044,358.286 456.396,349.201 z" id="boundary" inkscape:connector-curvature="0" />
	<path style="fill:none;stroke:red;stroke-width:1px;stroke-linecap:butt;stroke-linejoin:miter;stroke-opacity:1" d="M 454.579,714.388 472.747,712.571 z" id="boundary" inkscape:connector-curvature="0" />
	<path style="fill:none;stroke:red;stroke-width:1px;stroke-linecap:butt;stroke-linejoin:miter;stroke-opacity:1" d="M 456.396,349.201 472.747,340.117 z" id="boundary" inkscape:connector-curvature="0" />
	<path style="fill:none;stroke:red;stroke-width:1px;stroke-linecap:butt;stroke-linejoin:miter;stroke-opacity:1" d="M 472.747,340.117 490.916,340.117 z" id="boundary" inkscape:connector-curvature="0" />
	<path style="fill:none;stroke:red;stroke-width:1px;stroke-linecap:butt;stroke-linejoin:miter;stroke-opacity:1" d="M 472.747,712.571 490.916,714.388 z" id="boundary" inkscape:connector-curvature="0" />
	<path style="fill:none;stroke:red;stroke-width:1px;stroke-linecap:butt;stroke-linejoin:miter;stroke-opacity:1" d="M 490.916,340.117 507.267,331.033 z" id="boundary" inkscape:connector-curvature="0" />
	<path style="fill:none;stroke:red;stroke-width:1px;stroke-linecap:butt;stroke-linejoin:miter;stroke-opacity:1" d="M 490.916,714.388 509.084,721.656 z" id="boundary" inkscape:connector-curvature="0" />
	<path style="fill:none;stroke:red;stroke-width:1px;stroke-linecap:butt;stroke-linejoin:miter;stroke-opacity:1" d="M 507.267,331.033 525.436,331.033 z" id="boundary" inkscape:connector-curvature="0" />
	<path style="fill:none;stroke:red;stroke-width:1px;stroke-linecap:butt;stroke-linejoin:miter;stroke-opacity:1" d="M 509.084,721.656 527.253,721.656 z" id="boundary" inkscape:connector-curvature="0" />
	<path style="fill:none;stroke:red;stroke-width:1px;stroke-linecap:butt;stroke-linejoin:miter;stroke-opacity:1" d="M 525.436,331.033 541.788,321.949 z" id="boundary" inkscape:connector-curvature="0" />
	<path style="fill:none;stroke:red;stroke-width:1px;stroke-linecap:butt;stroke-linejoin:miter;stroke-opacity:1" d="M 527.253,721.656 545.421,714.388 z" id="boundary" inkscape:connector-curvature="0" />
	<path style="fill:none;stroke:red;stroke-width:1px;stroke-linecap:butt;stroke-linejoin:miter;stroke-opacity:1" d="M 541.788,321.949 559.956,321.949 z" id="boundary" inkscape:connector-curvature="0" />
	<path style="fill:none;stroke:red;stroke-width:1px;stroke-linecap:butt;stroke-linejoin:miter;stroke-opacity:1" d="M 545.421,714.388 563.59,714.388 z" id="boundary" inkscape:connector-curvature="0" />
	<path style="fill:none;stroke:red;stroke-width:1px;stroke-linecap:butt;stroke-linejoin:miter;stroke-opacity:1" d="M 559.956,321.949 578.125,321.949 z" id="boundary" inkscape:connector-curvature="0" />
	<path style="fill:none;stroke:red;stroke-width:1px;stroke-linecap:butt;stroke-linejoin:miter;stroke-opacity:1" d="M 563.59,714.388 581.758,714.388 z" id="boundary" inkscape:connector-curvature="0" />
	<path style="fill:none;stroke:red;stroke-width:1px;stroke-linecap:butt;stroke-linejoin:miter;stroke-opacity:1" d="M 578.125,321.949 594.476,309.231 z" id="boundary" inkscape:connector-curvature="0" />
	<path style="fill:none;stroke:red;stroke-width:1px;stroke-linecap:butt;stroke-linejoin:miter;stroke-opacity:1" d="M 581.758,714.388 598.11,723.473 z" id="boundary" inkscape:connector-curvature="0" />
	<path style="fill:none;stroke:red;stroke-width:1px;stroke-linecap:butt;stroke-linejoin:miter;stroke-opacity:1" d="M 594.476,309.231 612.645,303.78 z" id="boundary" inkscape:connector-curvature="0" />
	<path style="fill:none;stroke:red;stroke-width:1px;stroke-linecap:butt;stroke-linejoin:miter;stroke-opacity:1" d="M 598.11,723.473 616.278,719.839 z" id="boundary" inkscape:connector-curvature="0" />
	<path style="fill:none;stroke:red;stroke-width:1px;stroke-linecap:butt;stroke-linejoin:miter;stroke-opacity:1" d="M 612.645,303.78 630.813,303.78 z" id="boundary" inkscape:connector-curvature="0" />
	<path style="fill:none;stroke:red;stroke-width:1px;stroke-linecap:butt;stroke-linejoin:miter;stroke-opacity:1" d="M 616.278,719.839 634.447,714.388 z" id="boundary" inkscape:connector-curvature="0" />
	<path style="fill:none;stroke:red;stroke-width:1px;stroke-linecap:butt;stroke-linejoin:miter;stroke-opacity:1" d="M 630.813,303.78 647.165,294.696 z" id="boundary" inkscape:connector-curvature="0" />
	<path style="fill:none;stroke:red;stroke-width:1px;stroke-linecap:butt;stroke-linejoin:miter;stroke-opacity:1" d="M 634.447,714.388 652.615,714.388 z" id="boundary" inkscape:connector-curvature="0" />
	<path style="fill:none;stroke:red;stroke-width:1px;stroke-linecap:butt;stroke-linejoin:miter;stroke-opacity:1" d="M 647.165,294.696 665.333,294.696 z" id="boundary" inkscape:connector-curvature="0" />
	<path style="fill:none;stroke:red;stroke-width:1px;stroke-linecap:butt;stroke-linejoin:miter;stroke-opacity:1" d="M 648.982,863.37 658.066,879.722 z" id="boundary" inkscape:connector-curvature="0" />
	<path style="fill:none;stroke:red;stroke-width:1px;stroke-linecap:butt;stroke-linejoin:miter;stroke-opacity:1" d="M 648.982,863.37 663.516,848.835 z" id="boundary" inkscape:connector-curvature="0" />
	<path style="fill:none;stroke:red;stroke-width:1px;stroke-linecap:butt;stroke-linejoin:miter;stroke-opacity:1" d="M 652.615,714.388 668.967,705.304 z" id="boundary" inkscape:connector-curvature="0" />
	<path style="fill:none;stroke:red;stroke-width:1px;stroke-linecap:butt;stroke-linejoin:miter;stroke-opacity:1" d="M 658.066,799.78 667.15,781.612 z" id="boundary" inkscape:connector-curvature="0" />
	<path style="fill:none;stroke:red;stroke-width:1px;stroke-linecap:butt;stroke-linejoin:miter;stroke-opacity:1" d="M 658.066,799.78 676.234,799.78 z" id="boundary" inkscape:connector-curvature="0" />
	<path style="fill:none;stroke:red;stroke-width:1px;stroke-linecap:butt;stroke-linejoin:miter;stroke-opacity:1" d="M 658.066,879.722 676.234,872.454 z" id="boundary" inkscape:connector-curvature="0" />
	<path style="fill:none;stroke:red;stroke-width:1px;stroke-linecap:butt;stroke-linejoin:miter;stroke-opacity:1" d="M 663.516,848.835 672.601,830.667 z" id="boundary" inkscape:connector-curvature="0" />
	<path style="fill:none;stroke:red;stroke-width:1px;stroke-linecap:butt;stroke-linejoin:miter;stroke-opacity:1" d="M 665.333,294.696 681.685,285.612 z" id="boundary" inkscape:connector-curvature="0" />
	<path style="fill:none;stroke:red;stroke-width:1px;stroke-linecap:butt;stroke-linejoin:miter;stroke-opacity:1" d="M 667.15,781.612 685.319,772.527 z" id="boundary" inkscape:connector-curvature="0" />
	<path style="fill:none;stroke:red;stroke-width:1px;stroke-linecap:butt;stroke-linejoin:miter;stroke-opacity:1" d="M 668.967,705.304 687.136,708.938 z" id="boundary" inkscape:connector-curvature="0" />
	<path style="fill:none;stroke:red;stroke-width:1px;stroke-linecap:butt;stroke-linejoin:miter;stroke-opacity:1" d="M 672.601,830.667 676.234,799.78 z" id="boundary" inkscape:connector-curvature="0" />
	<path style="fill:none;stroke:red;stroke-width:1px;stroke-linecap:butt;stroke-linejoin:miter;stroke-opacity:1" d="M 676.234,872.454 690.769,857.919 z" id="boundary" inkscape:connector-curvature="0" />
	<path style="fill:none;stroke:red;stroke-width:1px;stroke-linecap:butt;stroke-linejoin:miter;stroke-opacity:1" d="M 681.685,285.612 699.853,276.527 z" id="boundary" inkscape:connector-curvature="0" />
	<path style="fill:none;stroke:red;stroke-width:1px;stroke-linecap:butt;stroke-linejoin:miter;stroke-opacity:1" d="M 685.319,772.527 703.487,763.443 z" id="boundary" inkscape:connector-curvature="0" />
	<path style="fill:none;stroke:red;stroke-width:1px;stroke-linecap:butt;stroke-linejoin:miter;stroke-opacity:1" d="M 687.136,708.938 703.487,718.022 z" id="boundary" inkscape:connector-curvature="0" />
	<path style="fill:none;stroke:red;stroke-width:1px;stroke-linecap:butt;stroke-linejoin:miter;stroke-opacity:1" d="M 690.769,857.919 699.853,839.751 z" id="boundary" inkscape:connector-curvature="0" />
	<path style="fill:none;stroke:red;stroke-width:1px;stroke-linecap:butt;stroke-linejoin:miter;stroke-opacity:1" d="M 699.853,276.527 718.022,267.443 z" id="boundary" inkscape:connector-curvature="0" />
	<path style="fill:none;stroke:red;stroke-width:1px;stroke-linecap:butt;stroke-linejoin:miter;stroke-opacity:1" d="M 699.853,839.751 708.938,823.399 z" id="boundary" inkscape:connector-curvature="0" />
	<path style="fill:none;stroke:red;stroke-width:1px;stroke-linecap:butt;stroke-linejoin:miter;stroke-opacity:1" d="M 703.487,718.022 712.571,734.374 z" id="boundary" inkscape:connector-curvature="0" />
	<path style="fill:none;stroke:red;stroke-width:1px;stroke-linecap:butt;stroke-linejoin:miter;stroke-opacity:1" d="M 703.487,763.443 712.571,734.374 z" id="boundary" inkscape:connector-curvature="0" />
	<path style="fill:none;stroke:red;stroke-width:1px;stroke-linecap:butt;stroke-linejoin:miter;stroke-opacity:1" d="M 708.938,823.399 723.473,805.231 z" id="boundary" inkscape:connector-curvature="0" />
	<path style="fill:none;stroke:red;stroke-width:1px;stroke-linecap:butt;stroke-linejoin:miter;stroke-opacity:1" d="M 718.022,267.443 736.19,267.443 z" id="boundary" inkscape:connector-curvature="0" />
	<path style="fill:none;stroke:red;stroke-width:1px;stroke-linecap:butt;stroke-linejoin:miter;stroke-opacity:1" d="M 723.473,805.231 739.824,796.147 z" id="boundary" inkscape:connector-curvature="0" />
	<path style="fill:none;stroke:red;stroke-width:1px;stroke-linecap:butt;stroke-linejoin:miter;stroke-opacity:1" d="M 736.19,267.443 754.359,258.359 z" id="boundary" inkscape:connector-curvature="0" />
	<path style="fill:none;stroke:red;stroke-width:1px;stroke-linecap:butt;stroke-linejoin:miter;stroke-opacity:1" d="M 739.824,796.147 739.824,827.033 z" id="boundary" inkscape:connector-curvature="0" />
	<path style="fill:none;stroke:red;stroke-width:1px;stroke-linecap:butt;stroke-linejoin:miter;stroke-opacity:1" d="M 739.824,827.033 748.908,843.385 z" id="boundary" inkscape:connector-curvature="0" />
	<path style="fill:none;stroke:red;stroke-width:1px;stroke-linecap:butt;stroke-linejoin:miter;stroke-opacity:1" d="M 748.908,843.385 767.077,841.568 z" id="boundary" inkscape:connector-curvature="0" />
	<path style="fill:none;stroke:red;stroke-width:1px;stroke-linecap:butt;stroke-linejoin:miter;stroke-opacity:1" d="M 750.725,687.136 759.81,703.487 z" id="boundary" inkscape:connector-curvature="0" />
	<path style="fill:none;stroke:red;stroke-width:1px;stroke-linecap:butt;stroke-linejoin:miter;stroke-opacity:1" d="M 750.725,687.136 765.26,674.418 z" id="boundary" inkscape:connector-curvature="0" />
	<path style="fill:none;stroke:red;stroke-width:1px;stroke-linecap:butt;stroke-linejoin:miter;stroke-opacity:1" d="M 754.359,258.359 768.894,243.824 z" id="boundary" inkscape:connector-curvature="0" />
	<path style="fill:none;stroke:red;stroke-width:1px;stroke-linecap:butt;stroke-linejoin:miter;stroke-opacity:1" d="M 759.81,703.487 768.894,719.839 z" id="boundary" inkscape:connector-curvature="0" />
	<path style="fill:none;stroke:red;stroke-width:1px;stroke-linecap:butt;stroke-linejoin:miter;stroke-opacity:1" d="M 765.26,674.418 776.161,659.883 z" id="boundary" inkscape:connector-curvature="0" />
	<path style="fill:none;stroke:red;stroke-width:1px;stroke-linecap:butt;stroke-linejoin:miter;stroke-opacity:1" d="M 767.077,36.7033 767.077,54.8718 z" id="boundary" inkscape:connector-curvature="0" />
	<path style="fill:none;stroke:red;stroke-width:1px;stroke-linecap:butt;stroke-linejoin:miter;stroke-opacity:1" d="M 767.077,36.7033 781.612,22.1685 z" id="boundary" inkscape:connector-curvature="0" />
	<path style="fill:none;stroke:red;stroke-width:1px;stroke-linecap:butt;stroke-linejoin:miter;stroke-opacity:1" d="M 767.077,54.8718 767.077,73.0403 z" id="boundary" inkscape:connector-curvature="0" />
	<path style="fill:none;stroke:red;stroke-width:1px;stroke-linecap:butt;stroke-linejoin:miter;stroke-opacity:1" d="M 767.077,73.0403 767.077,91.2088 z" id="boundary" inkscape:connector-curvature="0" />
	<path style="fill:none;stroke:red;stroke-width:1px;stroke-linecap:butt;stroke-linejoin:miter;stroke-opacity:1" d="M 767.077,91.2088 776.161,107.56 z" id="boundary" inkscape:connector-curvature="0" />
	<path style="fill:none;stroke:red;stroke-width:1px;stroke-linecap:butt;stroke-linejoin:miter;stroke-opacity:1" d="M 767.077,841.568 777.978,814.315 z" id="boundary" inkscape:connector-curvature="0" />
	<path style="fill:none;stroke:red;stroke-width:1px;stroke-linecap:butt;stroke-linejoin:miter;stroke-opacity:1" d="M 768.894,243.824 777.978,225.656 z" id="boundary" inkscape:connector-curvature="0" />
	<path style="fill:none;stroke:red;stroke-width:1px;stroke-linecap:butt;stroke-linejoin:miter;stroke-opacity:1" d="M 768.894,719.839 787.062,727.106 z" id="boundary" inkscape:connector-curvature="0" />
	<path style="fill:none;stroke:red;stroke-width:1px;stroke-linecap:butt;stroke-linejoin:miter;stroke-opacity:1" d="M 776.161,107.56 776.161,125.729 z" id="boundary" inkscape:connector-curvature="0" />
	<path style="fill:none;stroke:red;stroke-width:1px;stroke-linecap:butt;stroke-linejoin:miter;stroke-opacity:1" d="M 776.161,125.729 785.245,142.081 z" id="boundary" inkscape:connector-curvature="0" />
	<path style="fill:none;stroke:red;stroke-width:1px;stroke-linecap:butt;stroke-linejoin:miter;stroke-opacity:1" d="M 776.161,659.883 790.696,648.982 z" id="boundary" inkscape:connector-curvature="0" />
	<path style="fill:none;stroke:red;stroke-width:1px;stroke-linecap:butt;stroke-linejoin:miter;stroke-opacity:1" d="M 777.978,225.656 792.513,212.938 z" id="boundary" inkscape:connector-curvature="0" />
	<path style="fill:none;stroke:red;stroke-width:1px;stroke-linecap:butt;stroke-linejoin:miter;stroke-opacity:1" d="M 777.978,777.978 777.978,796.147 z" id="boundary" inkscape:connector-curvature="0" />
	<path style="fill:none;stroke:red;stroke-width:1px;stroke-linecap:butt;stroke-linejoin:miter;stroke-opacity:1" d="M 777.978,777.978 787.062,750.725 z" id="boundary" inkscape:connector-curvature="0" />
	<path style="fill:none;stroke:red;stroke-width:1px;stroke-linecap:butt;stroke-linejoin:miter;stroke-opacity:1" d="M 777.978,796.147 777.978,814.315 z" id="boundary" inkscape:connector-curvature="0" />
	<path style="fill:none;stroke:red;stroke-width:1px;stroke-linecap:butt;stroke-linejoin:miter;stroke-opacity:1" d="M 781.612,22.1685 796.147,7.6337 z" id="boundary" inkscape:connector-curvature="0" />
	<path style="fill:none;stroke:red;stroke-width:1px;stroke-linecap:butt;stroke-linejoin:miter;stroke-opacity:1" d="M 785.245,142.081 785.245,172.967 z" id="boundary" inkscape:connector-curvature="0" />
	<path style="fill:none;stroke:red;stroke-width:1px;stroke-linecap:butt;stroke-linejoin:miter;stroke-opacity:1" d="M 785.245,172.967 785.245,191.136 z" id="boundary" inkscape:connector-curvature="0" />
	<path style="fill:none;stroke:red;stroke-width:1px;stroke-linecap:butt;stroke-linejoin:miter;stroke-opacity:1" d="M 785.245,191.136 792.513,212.938 z" id="boundary" inkscape:connector-curvature="0" />
	<path style="fill:none;stroke:red;stroke-width:1px;stroke-linecap:butt;stroke-linejoin:miter;stroke-opacity:1" d="M 787.062,727.106 805.231,727.106 z" id="boundary" inkscape:connector-curvature="0" />
	<path style="fill:none;stroke:red;stroke-width:1px;stroke-linecap:butt;stroke-linejoin:miter;stroke-opacity:1" d="M 787.062,750.725 805.231,745.275 z" id="boundary" inkscape:connector-curvature="0" />
	<path style="fill:none;stroke:red;stroke-width:1px;stroke-linecap:butt;stroke-linejoin:miter;stroke-opacity:1" d="M 790.696,648.982 805.231,632.63 z" id="boundary" inkscape:connector-curvature="0" />
	<path style="fill:none;stroke:red;stroke-width:1px;stroke-linecap:butt;stroke-linejoin:miter;stroke-opacity:1" d="M 796.147,7.6337 814.315,4 z" id="boundary" inkscape:connector-curvature="0" />
	<path style="fill:none;stroke:red;stroke-width:1px;stroke-linecap:butt;stroke-linejoin:miter;stroke-opacity:1" d="M 805.231,632.63 819.766,619.912 z" id="boundary" inkscape:connector-curvature="0" />
	<path style="fill:none;stroke:red;stroke-width:1px;stroke-linecap:butt;stroke-linejoin:miter;stroke-opacity:1" d="M 805.231,727.106 805.231,745.275 z" id="boundary" inkscape:connector-curvature="0" />
	<path style="fill:none;stroke:red;stroke-width:1px;stroke-linecap:butt;stroke-linejoin:miter;stroke-opacity:1" d="M 814.315,4 832.484,9.45055 z" id="boundary" inkscape:connector-curvature="0" />
	<path style="fill:none;stroke:red;stroke-width:1px;stroke-linecap:butt;stroke-linejoin:miter;stroke-opacity:1" d="M 819.766,619.912 832.484,596.293 z" id="boundary" inkscape:connector-curvature="0" />
	<path style="fill:none;stroke:red;stroke-width:1px;stroke-linecap:butt;stroke-linejoin:miter;stroke-opacity:1" d="M 832.484,9.45055 850.652,9.45055 z" id="boundary" inkscape:connector-curvature="0" />
	<path style="fill:none;stroke:red;stroke-width:1px;stroke-linecap:butt;stroke-linejoin:miter;stroke-opacity:1" d="M 832.484,596.293 841.568,578.125 z" id="boundary" inkscape:connector-curvature="0" />
	<path style="fill:none;stroke:red;stroke-width:1px;stroke-linecap:butt;stroke-linejoin:miter;stroke-opacity:1" d="M 841.568,578.125 856.103,565.407 z" id="boundary" inkscape:connector-curvature="0" />
	<path style="fill:none;stroke:red;stroke-width:1px;stroke-linecap:butt;stroke-linejoin:miter;stroke-opacity:1" d="M 850.652,9.45055 867.004,18.5348 z" id="boundary" inkscape:connector-curvature="0" />
	<path style="fill:none;stroke:red;stroke-width:1px;stroke-linecap:butt;stroke-linejoin:miter;stroke-opacity:1" d="M 856.103,565.407 859.736,541.788 z" id="boundary" inkscape:connector-curvature="0" />
	<path style="fill:none;stroke:red;stroke-width:1px;stroke-linecap:butt;stroke-linejoin:miter;stroke-opacity:1" d="M 859.736,505.451 859.736,523.619 z" id="boundary" inkscape:connector-curvature="0" />
	<path style="fill:none;stroke:red;stroke-width:1px;stroke-linecap:butt;stroke-linejoin:miter;stroke-opacity:1" d="M 859.736,505.451 868.821,487.282 z" id="boundary" inkscape:connector-curvature="0" />
	<path style="fill:none;stroke:red;stroke-width:1px;stroke-linecap:butt;stroke-linejoin:miter;stroke-opacity:1" d="M 859.736,523.619 859.736,541.788 z" id="boundary" inkscape:connector-curvature="0" />
	<path style="fill:none;stroke:red;stroke-width:1px;stroke-linecap:butt;stroke-linejoin:miter;stroke-opacity:1" d="M 867.004,18.5348 881.538,31.2527 z" id="boundary" inkscape:connector-curvature="0" />
	<path style="fill:none;stroke:red;stroke-width:1px;stroke-linecap:butt;stroke-linejoin:miter;stroke-opacity:1" d="M 868.821,487.282 877.905,469.114 z" id="boundary" inkscape:connector-curvature="0" />
	<path style="fill:none;stroke:red;stroke-width:1px;stroke-linecap:butt;stroke-linejoin:miter;stroke-opacity:1" d="M 877.905,450.945 877.905,469.114 z" id="boundary" inkscape:connector-curvature="0" />
	<path style="fill:none;stroke:red;stroke-width:1px;stroke-linecap:butt;stroke-linejoin:miter;stroke-opacity:1" d="M 877.905,450.945 886.989,432.777 z" id="boundary" inkscape:connector-curvature="0" />
	<path style="fill:none;stroke:red;stroke-width:1px;stroke-linecap:butt;stroke-linejoin:miter;stroke-opacity:1" d="M 881.538,31.2527 899.707,31.2527 z" id="boundary" inkscape:connector-curvature="0" />
	<path style="fill:none;stroke:red;stroke-width:1px;stroke-linecap:butt;stroke-linejoin:miter;stroke-opacity:1" d="M 886.989,414.608 886.989,432.777 z" id="boundary" inkscape:connector-curvature="0" />
	<path style="fill:none;stroke:red;stroke-width:1px;stroke-linecap:butt;stroke-linejoin:miter;stroke-opacity:1" d="M 886.989,414.608 896.073,396.44 z" id="boundary" inkscape:connector-curvature="0" />
	<path style="fill:none;stroke:red;stroke-width:1px;stroke-linecap:butt;stroke-linejoin:miter;stroke-opacity:1" d="M 896.073,396.44 910.608,383.722 z" id="boundary" inkscape:connector-curvature="0" />
	<path style="fill:none;stroke:red;stroke-width:1px;stroke-linecap:butt;stroke-linejoin:miter;stroke-opacity:1" d="M 899.707,31.2527 912.425,45.7875 z" id="boundary" inkscape:connector-curvature="0" />
	<path style="fill:none;stroke:red;stroke-width:1px;stroke-linecap:butt;stroke-linejoin:miter;stroke-opacity:1" d="M 910.608,383.722 914.242,360.103 z" id="boundary" inkscape:connector-curvature="0" />
	<path style="fill:none;stroke:red;stroke-width:1px;stroke-linecap:butt;stroke-linejoin:miter;stroke-opacity:1" d="M 912.425,45.7875 921.509,62.1392 z" id="boundary" inkscape:connector-curvature="0" />
	<path style="fill:none;stroke:red;stroke-width:1px;stroke-linecap:butt;stroke-linejoin:miter;stroke-opacity:1" d="M 914.242,360.103 923.326,332.85 z" id="boundary" inkscape:connector-curvature="0" />
	<path style="fill:none;stroke:red;stroke-width:1px;stroke-linecap:butt;stroke-linejoin:miter;stroke-opacity:1" d="M 921.509,62.1392 937.861,71.2234 z" id="boundary" inkscape:connector-curvature="0" />
	<path style="fill:none;stroke:red;stroke-width:1px;stroke-linecap:butt;stroke-linejoin:miter;stroke-opacity:1" d="M 923.326,332.85 932.41,314.681 z" id="boundary" inkscape:connector-curvature="0" />
	<path style="fill:none;stroke:red;stroke-width:1px;stroke-linecap:butt;stroke-linejoin:miter;stroke-opacity:1" d="M 932.41,296.513 932.41,314.681 z" id="boundary" inkscape:connector-curvature="0" />
	<path style="fill:none;stroke:red;stroke-width:1px;stroke-linecap:butt;stroke-linejoin:miter;stroke-opacity:1" d="M 932.41,296.513 946.945,283.795 z" id="boundary" inkscape:connector-curvature="0" />
	<path style="fill:none;stroke:red;stroke-width:1px;stroke-linecap:butt;stroke-linejoin:miter;stroke-opacity:1" d="M 937.861,71.2234 950.579,85.7582 z" id="boundary" inkscape:connector-curvature="0" />
	<path style="fill:none;stroke:red;stroke-width:1px;stroke-linecap:butt;stroke-linejoin:miter;stroke-opacity:1" d="M 946.945,283.795 959.663,269.26 z" id="boundary" inkscape:connector-curvature="0" />
	<path style="fill:none;stroke:red;stroke-width:1px;stroke-linecap:butt;stroke-linejoin:miter;stroke-opacity:1" d="M 950.579,85.7582 965.114,96.6593 z" id="boundary" inkscape:connector-curvature="0" />
	<path style="fill:none;stroke:red;stroke-width:1px;stroke-linecap:butt;stroke-linejoin:miter;stroke-opacity:1" d="M 959.663,269.26 968.747,251.092 z" id="boundary" inkscape:connector-curvature="0" />
	<path style="fill:none;stroke:red;stroke-width:1px;stroke-linecap:butt;stroke-linejoin:miter;stroke-opacity:1" d="M 965.114,96.6593 968.747,114.828 z" id="boundary" inkscape:connector-curvature="0" />
	<path style="fill:none;stroke:red;stroke-width:1px;stroke-linecap:butt;stroke-linejoin:miter;stroke-opacity:1" d="M 968.747,114.828 977.832,131.179 z" id="boundary" inkscape:connector-curvature="0" />
	<path style="fill:none;stroke:red;stroke-width:1px;stroke-linecap:butt;stroke-linejoin:miter;stroke-opacity:1" d="M 968.747,251.092 983.282,238.374 z" id="boundary" inkscape:connector-curvature="0" />
	<path style="fill:none;stroke:red;stroke-width:1px;stroke-linecap:butt;stroke-linejoin:miter;stroke-opacity:1" d="M 977.832,131.179 986.916,147.531 z" id="boundary" inkscape:connector-curvature="0" />
	<path style="fill:none;stroke:red;stroke-width:1px;stroke-linecap:butt;stroke-linejoin:miter;stroke-opacity:1" d="M 983.282,238.374 986.916,214.755 z" id="boundary" inkscape:connector-curvature="0" />
	<path style="fill:none;stroke:red;stroke-width:1px;stroke-linecap:butt;stroke-linejoin:miter;stroke-opacity:1" d="M 986.916,147.531 996,163.883 z" id="boundary" inkscape:connector-curvature="0" />
	<path style="fill:none;stroke:red;stroke-width:1px;stroke-linecap:butt;stroke-linejoin:miter;stroke-opacity:1" d="M 986.916,196.586 986.916,214.755 z" id="boundary" inkscape:connector-curvature="0" />
	<path style="fill:none;stroke:red;stroke-width:1px;stroke-linecap:butt;stroke-linejoin:miter;stroke-opacity:1" d="M 986.916,196.586 996,163.883 z" id="boundary" inkscape:connector-curvature="0" />
	<circle cx="4" cy="381.905" r="4" fill="#0" id="circle0"/>
	<circle cx="4" cy="400.073" r="4" fill="#0" id="circle1"/>
	<circle cx="4" cy="418.242" r="4" fill="#0" id="circle2"/>
	<circle cx="4" cy="436.41" r="4" fill="#0" id="circle3"/>
	<circle cx="4" cy="454.579" r="4" fill="#0" id="circle4"/>
	<circle cx="4" cy="472.747" r="4" fill="#0" id="circle5"/>
	<circle cx="13.0842" cy="489.099" r="4" fill="#0" id="circle6"/>
	<circle cx="22.1685" cy="376.454" r="4" fill="#0" id="circle7"/>
	<circle cx="22.1685" cy="505.451" r="4" fill="#0" id="circle8"/>
	<circle cx="22.1685" cy="523.619" r="4" fill="#0" id="circle9"/>
	<circle cx="22.1685" cy="545.421" r="4" fill="#0" id="circle10"/>
	<circle cx="31.2527" cy="561.773" r="4" fill="#0" id="circle11"/>
	<circle cx="40.337" cy="371.004" r="4" fill="#0" id="circle12"/>
	<circle cx="49.4212" cy="559.956" r="4" fill="#0" id="circle13"/>
	<circle cx="58.5055" cy="376.454" r="4" fill="#0" id="circle14"/>
	<circle cx="63.956" cy="549.055" r="4" fill="#0" id="circle15"/>
	<circle cx="76.674" cy="372.821" r="4" fill="#0" id="circle16"/>
	<circle cx="82.1245" cy="539.971" r="4" fill="#0" id="circle17"/>
	<circle cx="91.2088" cy="523.619" r="4" fill="#0" id="circle18"/>
	<circle cx="94.8425" cy="367.37" r="4" fill="#0" id="circle19"/>
	<circle cx="109.377" cy="523.619" r="4" fill="#0" id="circle20"/>
	<circle cx="111.194" cy="376.454" r="4" fill="#0" id="circle21"/>
	<circle cx="127.546" cy="530.886" r="4" fill="#0" id="circle22"/>
	<circle cx="129.363" cy="376.454" r="4" fill="#0" id="circle23"/>
	<circle cx="140.264" cy="545.421" r="4" fill="#0" id="circle24"/>
	<circle cx="140.264" cy="563.59" r="4" fill="#0" id="circle25"/>
	<circle cx="147.531" cy="378.271" r="4" fill="#0" id="circle26"/>
	<circle cx="158.432" cy="559.956" r="4" fill="#0" id="circle27"/>
	<circle cx="163.883" cy="387.355" r="4" fill="#0" id="circle28"/>
	<circle cx="169.333" cy="574.491" r="4" fill="#0" id="circle29"/>
	<circle cx="172.967" cy="403.707" r="4" fill="#0" id="circle30"/>
	<circle cx="187.502" cy="414.608" r="4" fill="#0" id="circle31"/>
	<circle cx="187.502" cy="578.125" r="4" fill="#0" id="circle32"/>
	<circle cx="198.403" cy="592.659" r="4" fill="#0" id="circle33"/>
	<circle cx="202.037" cy="425.509" r="4" fill="#0" id="circle34"/>
	<circle cx="214.755" cy="601.744" r="4" fill="#0" id="circle35"/>
	<circle cx="220.205" cy="423.692" r="4" fill="#0" id="circle36"/>
	<circle cx="229.289" cy="614.462" r="4" fill="#0" id="circle37"/>
	<circle cx="236.557" cy="432.777" r="4" fill="#0" id="circle38"/>
	<circle cx="242.007" cy="628.996" r="4" fill="#0" id="circle39"/>
	<circle cx="251.092" cy="645.348" r="4" fill="#0" id="circle40"/>
	<circle cx="254.725" cy="430.96" r="4" fill="#0" id="circle41"/>
	<circle cx="267.443" cy="654.432" r="4" fill="#0" id="circle42"/>
	<circle cx="272.894" cy="421.875" r="4" fill="#0" id="circle43"/>
	<circle cx="281.978" cy="667.15" r="4" fill="#0" id="circle44"/>
	<circle cx="291.062" cy="421.875" r="4" fill="#0" id="circle45"/>
	<circle cx="298.33" cy="676.234" r="4" fill="#0" id="circle46"/>
	<circle cx="305.597" cy="407.341" r="4" fill="#0" id="circle47"/>
	<circle cx="316.498" cy="678.051" r="4" fill="#0" id="circle48"/>
	<circle cx="320.132" cy="394.623" r="4" fill="#0" id="circle49"/>
	<circle cx="334.667" cy="683.502" r="4" fill="#0" id="circle50"/>
	<circle cx="338.3" cy="394.623" r="4" fill="#0" id="circle51"/>
	<circle cx="352.835" cy="687.136" r="4" fill="#0" id="circle52"/>
	<circle cx="354.652" cy="385.538" r="4" fill="#0" id="circle53"/>
	<circle cx="371.004" cy="692.586" r="4" fill="#0" id="circle54"/>
	<circle cx="372.821" cy="385.538" r="4" fill="#0" id="circle55"/>
	<circle cx="389.172" cy="687.136" r="4" fill="#0" id="circle56"/>
	<circle cx="390.989" cy="385.538" r="4" fill="#0" id="circle57"/>
	<circle cx="403.707" cy="698.037" r="4" fill="#0" id="circle58"/>
	<circle cx="407.341" cy="376.454" r="4" fill="#0" id="circle59"/>
	<circle cx="421.875" cy="363.736" r="4" fill="#0" id="circle60"/>
	<circle cx="421.875" cy="696.22" r="4" fill="#0" id="circle61"/>
	<circle cx="438.227" cy="705.304" r="4" fill="#0" id="circle62"/>
	<circle cx="440.044" cy="358.286" r="4" fill="#0" id="circle63"/>
	<circle cx="454.579" cy="714.388" r="4" fill="#0" id="circle64"/>
	<circle cx="456.396" cy="349.201" r="4" fill="#0" id="circle65"/>
	<circle cx="472.747" cy="340.117" r="4" fill="#0" id="circle66"/>
	<circle cx="472.747" cy="712.571" r="4" fill="#0" id="circle67"/>
	<circle cx="490.916" cy="340.117" r="4" fill="#0" id="circle68"/>
	<circle cx="490.916" cy="714.388" r="4" fill="#0" id="circle69"/>
	<circle cx="507.267" cy="331.033" r="4" fill="#0" id="circle70"/>
	<circle cx="509.084" cy="721.656" r="4" fill="#0" id="circle71"/>
	<circle cx="525.436" cy="331.033" r="4" fill="#0" id="circle72"/>
	<circle cx="527.253" cy="721.656" r="4" fill="#0" id="circle73"/>
	<circle cx="541.788" cy="321.949" r="4" fill="#0" id="circle74"/>
	<circle cx="545.421" cy="714.388" r="4" fill="#0" id="circle75"/>
	<circle cx="559.956" cy="321.949" r="4" fill="#0" id="circle76"/>
	<circle cx="563.59" cy="714.388" r="4" fill="#0" id="circle77"/>
	<circle cx="578.125" cy="321.949" r="4" fill="#0" id="circle78"/>
	<circle cx="581.758" cy="714.388" r="4" fill="#0" id="circle79"/>
	<circle cx="594.476" cy="309.231" r="4" fill="#0" id="circle80"/>
	<circle cx="598.11" cy="723.473" r="4" fill="#0" id="circle81"/>
	<circle cx="612.645" cy="303.78" r="4" fill="#0" id="circle82"/>
	<circle cx="616.278" cy="719.839" r="4" fill="#0" id="circle83"/>
	<circle cx="630.813" cy="303.78" r="4" fill="#0" id="circle84"/>
	<circle cx="634.447" cy="714.388" r="4" fill="#0" id="circle85"/>
	<circle cx="647.165" cy="294.696" r="4" fill="#0" id="circle86"/>
	<circle cx="648.982" cy="863.37" r="4" fill="#0" id="circle87"/>
	<circle cx="652.615" cy="714.388" r="4" fill="#0" id="circle88"/>
	<circle cx="658.066" cy="799.78" r="4" fill="#0" id="circle89"/>
	<circle cx="658.066" cy="879.722" r="4" fill="#0" id="circle90"/>
	<circle cx="663.516" cy="848.835" r="4" fill="#0" id="circle91"/>
	<circle cx="665.333" cy="294.696" r="4" fill="#0" id="circle92"/>
	<circle cx="667.15" cy="781.612" r="4" fill="#0" id="circle93"/>
	<circle cx="668.967" cy="705.304" r="4" fill="#0" id="circle94"/>
	<circle cx="672.601" cy="830.667" r="4" fill="#0" id="circle95"/>
	<circle cx="676.234" cy="799.78" r="4" fill="#0" id="circle96"/>
	<circle cx="676.234" cy="872.454" r="4" fill="#0" id="circle97"/>
	<circle cx="681.685" cy="285.612" r="4" fill="#0" id="circle98"/>
	<circle cx="685.319" cy="772.527" r="4" fill="#0" id="circle99"/>
	<circle cx="687.136" cy="708.938" r="4" fill="#0" id="circle100"/>
	<circle cx="690.769" cy="857.919" r="4" fill="#0" id="circle101"/>
	<circle cx="699.853" cy="276.527" r="4" fill="#0" id="circle102"/>
	<circle cx="699.853" cy="839.751" r="4" fill="#0" id="circle103"/>
	<circle cx="703.487" cy="718.022" r="4" fill="#0" id="circle104"/>
	<circle cx="703.487" cy="763.443" r="4" fill="#0" id="circle105"/>
	<circle cx="708.938" cy="823.399" r="4" fill="#0" id="circle106"/>
	<circle cx="712.571" cy="734.374" r="4" fill="#0" id="circle107"/>
	<circle cx="718.022" cy="267.443" r="4" fill="#0" id="circle108"/>
	<circle cx="723.473" cy="805.231" r="4" fill="#0" id="circle109"/>
	<circle cx="736.19" cy="267.443" r="4" fill="#0" id="circle110"/>
	<circle cx="739.824" cy="796.147" r="4" fill="#0" id="circle111"/>
	<circle cx="739.824" cy="827.033" r="4" fill="#0" id="circle112"/>
	<circle cx="748.908" cy="843.385" r="4" fill="#0" id="circle113"/>
	<circle cx="750.725" cy="687.136" r="4" fill="#0" id="circle114"/>
	<circle cx="754.359" cy="258.359" r="4" fill="#0" id="circle115"/>
	<circle cx="759.81" cy="703.487" r="4" fill="#0" id="circle116"/>
	<circle cx="765.26" cy="674.418" r="4" fill="#0" id="circle117"/>
	<circle cx="767.077" cy="36.7033" r="4" fill="#0" id="circle118"/>
	<circle cx="767.077" cy="54.8718" r="4" fill="#0" id="circle119"/>
	<circle cx="767.077" cy="73.0403" r="4" fill="#0" id="circle120"/>
	<circle cx="767.077" cy="91.2088" r="4" fill="#0" id="circle121"/>
	<circle cx="767.077" cy="841.568" r="4" fill="#0" id="circle122"/>
	<circle cx="768.894" cy="243.824" r="4" fill="#0" id="circle123"/>
	<circle cx="768.894" cy="719.839" r="4" fill="#0" id="circle124"/>
	<circle cx="776.161" cy="107.56" r="4" fill="#0" id="circle125"/>
	<circle cx="776.161" cy="125.729" r="4" fill="#0" id="circle126"/>
	<circle cx="776.161" cy="659.883" r="4" fill="#0" id="circle127"/>
	<circle cx="777.978" cy="225.656" r="4" fill="#0" id="circle128"/>
	<circle cx="777.978" cy="777.978" r="4" fill="#0" id="circle129"/>
	<circle cx="777.978" cy="796.147" r="4" fill="#0" id="circle130"/>
	<circle cx="777.978" cy="814.315" r="4" fill="#0" id="circle131"/>
	<circle cx="781.612" cy="22.1685" r="4" fill="#0" id="circle132"/>
	<circle cx="785.245" cy="142.081" r="4" fill="#0" id="circle133"/>
	<circle cx="785.245" cy="172.967" r="4" fill="#0" id="circle134"/>
	<circle cx="785.245" cy="191.136" r="4" fill="#0" id="circle135"/>
	<circle cx="787.062" cy="727.106" r="4" fill="#0" id="circle136"/>
	<circle cx="787.062" cy="750.725" r="4" fill="#0" id="circle137"/>
	<circle cx="790.696" cy="648.982" r="4" fill="#0" id="circle138"/>
	<circle cx="792.513" cy="212.938" r="4" fill="#0" id="circle139"/>
	<circle cx="796.147" cy="7.6337" r="4" fill="#0" id="circle140"/>
	<circle cx="805.231" cy="632.63" r="4" fill="#0" id="circle141"/>
	<circle cx="805.231" cy="727.106" r="4" fill="#0" id="circle142"/>
	<circle cx="805.231" cy="745.275" r="4" fill="#0" id="circle143"/>
	<circle cx="814.315" cy="4" r="4" fill="#0" id="circle144"/>
	<circle cx="819.766" cy="619.912" r="4" fill="#0" id="circle145"/>
	<circle cx="832.484" cy="9.45055" r="4" fill="#0" id="circle146"/>
	<circle cx="832.484" cy="596.293" r="4" fill="#0" id="circle147"/>
	<circle cx="841.568" cy="578.125" r="4" fill="#0" id="circle148"/>
	<circle cx="850.652" cy="9.45055" r="4" fill="#0" id="circle149"/>
	<circle cx="856.103" cy="565.407" r="4" fill="#0" id="circle150"/>
	<circle cx="859.736" cy="505.451" r="4" fill="#0" id="circle151"/>
	<circle cx="859.736" cy="523.619" r="4" fill="#0" id="circle152"/>
	<circle cx="859.736" cy="541.788" r="4" fill="#0" id="circle153"/>
	<circle cx="867.004" cy="18.5348" r="4" fill="#0" id="circle154"/>
	<circle cx="868.821" cy="487.282" r="4" fill="#0" id="circle155"/>
	<circle cx="877.905" cy="450.945" r="4" fill="#0" id="circle156"/>
	<circle cx="877.905" cy="469.114" r="4" fill="#0" id="circle157"/>
	<circle cx="881.538" cy="31.2527" r="4" fill="#0" id="circle158"/>
	<circle cx="886.989" cy="414.608" r="4" fill="#0" id="circle159"/>
	<circle cx="886.989" cy="432.777" r="4" fill="#0" id="circle160"/>
	<circle cx="896.073" cy="396.44" r="4" fill="#0" id="circle161"/>
	<circle cx="899.707" cy="31.2527" r="4" fill="#0" id="circle162"/>
	<circle cx="910.608" cy="383.722" r="4" fill="#0" id="circle163"/>
	<circle cx="912.425" cy="45.7875" r="4" fill="#0" id="circle164"/>
	<circle cx="914.242" cy="360.103" r="4" fill="#0" id="circle165"/>
	<circle cx="921.509" cy="62.1392" r="4" fill="#0" id="circle166"/>
	<circle cx="923.326" cy="332.85" r="4" fill="#0" id="circle167"/>
	<circle cx="932.41" cy="296.513" r="4" fill="#0" id="circle168"/>
	<circle cx="932.41" cy="314.681" r="4" fill="#0" id="circle169"/>
	<circle cx="937.861" cy="71.2234" r="4" fill="#0" id="circle170"/>
	<circle cx="946.945" cy="283.795" r="4" fill="#0" id="circle171"/>
	<circle cx="950.579" cy="85.7582" r="4" fill="#0" id="circle172"/>
	<circle cx="959.663" cy="269.26" r="4" fill="#0" id="circle173"/>
	<circle cx="965.114" cy="96.6593" r="4" fill="#0" id="circle174"/>
	<circle cx="968.747" cy="114.828" r="4" fill="#0" id="circle175"/>
	<circle cx="968.747" cy="251.092" r="4" fill="#0" id="circle176"/>
	<circle cx="977.832" cy="131.179" r="4" fill="#0" id="circle177"/>
	<circle cx="983.282" cy="238.374" r="4" fill="#0" id="circle178"/>
	<circle cx="986.916" cy="147.531" r="4" fill="#0" id="circle179"/>
	<circle cx="986.916" cy="196.586" r="4" fill="#0" id="circle180"/>
	<circle cx="986.916" cy="214.755" r="4" fill="#0" id="circle181"/>
	<circle cx="996" cy="163.883" r="4" fill="#0" id="circle182"/>
	</g>
</svg>