<?xml version="1.0" encoding="UTF-8" standalone="no"?>
<!-- Created with CurveBenchmark -->
<svg
	xmlns:dc="http://purl.org/dc/elements/1.1/"
	xmlns:cc="http://creativecommons.org/ns#"
	xmlns:rdf="http://www.w3.org/1999/02/22-rdf-syntax-ns#"
	xmlns:svg="http://www.w3.org/2000/svg"
	xmlns="http://www.w3.org/2000/svg"
	xmlns:sodipodi="http://sodipodi.sourceforge.net/DTD/sodipodi-0.dtd"
	xmlns:inkscape="http://www.inkscape.org/namespaces/inkscape"
	width="1000"
	height="1000"
	id="svg2"
	version="1.1"
	sodipodi:docname="manifold/vicur-fork08.png.txt">
<defs
	id="defs4" />
<metadata
	id="metadata7">
	<rdf:RDF>
		<cc:Work
			rdf:about="">
			<dc:format>image/svg+xml</dc:format>
			<dc:type
				rdf:resource="http://purl.org/dc/dcmitype/StillImage" />
			<dc:title></dc:title>
		</cc:Work>
	</rdf:RDF>
</metadata>
<g
	inkscape:label="Layer 1"
	inkscape:groupmode="layer"
	id="layer1">
	<path style="fill:none;stroke:red;stroke-width:1px;stroke-linecap:butt;stroke-linejoin:miter;stroke-opacity:1" d="M 4,301.235 18.5882,286.647 z" id="boundary" inkscape:connector-curvature="0" />
	<path style="fill:none;stroke:red;stroke-width:1px;stroke-linecap:butt;stroke-linejoin:miter;stroke-opacity:1" d="M 4,301.235 18.5882,314 z" id="boundary" inkscape:connector-curvature="0" />
	<path style="fill:none;stroke:red;stroke-width:1px;stroke-linecap:butt;stroke-linejoin:miter;stroke-opacity:1" d="M 18.5882,286.647 35,277.529 z" id="boundary" inkscape:connector-curvature="0" />
	<path style="fill:none;stroke:red;stroke-width:1px;stroke-linecap:butt;stroke-linejoin:miter;stroke-opacity:1" d="M 18.5882,314 33.1765,324.941 z" id="boundary" inkscape:connector-curvature="0" />
	<path style="fill:none;stroke:red;stroke-width:1px;stroke-linecap:butt;stroke-linejoin:miter;stroke-opacity:1" d="M 33.1765,324.941 51.4118,324.941 z" id="boundary" inkscape:connector-curvature="0" />
	<path style="fill:none;stroke:red;stroke-width:1px;stroke-linecap:butt;stroke-linejoin:miter;stroke-opacity:1" d="M 35,277.529 51.4118,286.647 z" id="boundary" inkscape:connector-curvature="0" />
	<path style="fill:none;stroke:red;stroke-width:1px;stroke-linecap:butt;stroke-linejoin:miter;stroke-opacity:1" d="M 40.4706,18.5882 49.5882,35 z" id="boundary" inkscape:connector-curvature="0" />
	<path style="fill:none;stroke:red;stroke-width:1px;stroke-linecap:butt;stroke-linejoin:miter;stroke-opacity:1" d="M 40.4706,18.5882 55.0588,4 z" id="boundary" inkscape:connector-curvature="0" />
	<path style="fill:none;stroke:red;stroke-width:1px;stroke-linecap:butt;stroke-linejoin:miter;stroke-opacity:1" d="M 49.5882,35 67.8235,42.2941 z" id="boundary" inkscape:connector-curvature="0" />
	<path style="fill:none;stroke:red;stroke-width:1px;stroke-linecap:butt;stroke-linejoin:miter;stroke-opacity:1" d="M 51.4118,286.647 69.6471,286.647 z" id="boundary" inkscape:connector-curvature="0" />
	<path style="fill:none;stroke:red;stroke-width:1px;stroke-linecap:butt;stroke-linejoin:miter;stroke-opacity:1" d="M 51.4118,324.941 67.8235,334.059 z" id="boundary" inkscape:connector-curvature="0" />
	<path style="fill:none;stroke:red;stroke-width:1px;stroke-linecap:butt;stroke-linejoin:miter;stroke-opacity:1" d="M 55.0588,4 73.2941,4 z" id="boundary" inkscape:connector-curvature="0" />
	<path style="fill:none;stroke:red;stroke-width:1px;stroke-linecap:butt;stroke-linejoin:miter;stroke-opacity:1" d="M 58.7059,219.176 67.8235,235.588 z" id="boundary" inkscape:connector-curvature="0" />
	<path style="fill:none;stroke:red;stroke-width:1px;stroke-linecap:butt;stroke-linejoin:miter;stroke-opacity:1" d="M 58.7059,219.176 73.2941,204.588 z" id="boundary" inkscape:connector-curvature="0" />
	<path style="fill:none;stroke:red;stroke-width:1px;stroke-linecap:butt;stroke-linejoin:miter;stroke-opacity:1" d="M 67.8235,42.2941 86.0588,42.2941 z" id="boundary" inkscape:connector-curvature="0" />
	<path style="fill:none;stroke:red;stroke-width:1px;stroke-linecap:butt;stroke-linejoin:miter;stroke-opacity:1" d="M 67.8235,235.588 86.0588,242.882 z" id="boundary" inkscape:connector-curvature="0" />
	<path style="fill:none;stroke:red;stroke-width:1px;stroke-linecap:butt;stroke-linejoin:miter;stroke-opacity:1" d="M 67.8235,334.059 86.0588,334.059 z" id="boundary" inkscape:connector-curvature="0" />
	<path style="fill:none;stroke:red;stroke-width:1px;stroke-linecap:butt;stroke-linejoin:miter;stroke-opacity:1" d="M 69.6471,286.647 87.8824,286.647 z" id="boundary" inkscape:connector-curvature="0" />
	<path style="fill:none;stroke:red;stroke-width:1px;stroke-linecap:butt;stroke-linejoin:miter;stroke-opacity:1" d="M 73.2941,4 91.5294,4 z" id="boundary" inkscape:connector-curvature="0" />
	<path style="fill:none;stroke:red;stroke-width:1px;stroke-linecap:butt;stroke-linejoin:miter;stroke-opacity:1" d="M 73.2941,204.588 91.5294,204.588 z" id="boundary" inkscape:connector-curvature="0" />
	<path style="fill:none;stroke:red;stroke-width:1px;stroke-linecap:butt;stroke-linejoin:miter;stroke-opacity:1" d="M 86.0588,42.2941 104.294,42.2941 z" id="boundary" inkscape:connector-curvature="0" />
	<path style="fill:none;stroke:red;stroke-width:1px;stroke-linecap:butt;stroke-linejoin:miter;stroke-opacity:1" d="M 86.0588,109.765 95.1765,126.176 z" id="boundary" inkscape:connector-curvature="0" />
	<path style="fill:none;stroke:red;stroke-width:1px;stroke-linecap:butt;stroke-linejoin:miter;stroke-opacity:1" d="M 86.0588,109.765 100.647,95.1765 z" id="boundary" inkscape:connector-curvature="0" />
	<path style="fill:none;stroke:red;stroke-width:1px;stroke-linecap:butt;stroke-linejoin:miter;stroke-opacity:1" d="M 86.0588,242.882 104.294,242.882 z" id="boundary" inkscape:connector-curvature="0" />
	<path style="fill:none;stroke:red;stroke-width:1px;stroke-linecap:butt;stroke-linejoin:miter;stroke-opacity:1" d="M 86.0588,334.059 104.294,334.059 z" id="boundary" inkscape:connector-curvature="0" />
	<path style="fill:none;stroke:red;stroke-width:1px;stroke-linecap:butt;stroke-linejoin:miter;stroke-opacity:1" d="M 87.8824,286.647 104.294,295.765 z" id="boundary" inkscape:connector-curvature="0" />
	<path style="fill:none;stroke:red;stroke-width:1px;stroke-linecap:butt;stroke-linejoin:miter;stroke-opacity:1" d="M 91.5294,4 109.765,4 z" id="boundary" inkscape:connector-curvature="0" />
	<path style="fill:none;stroke:red;stroke-width:1px;stroke-linecap:butt;stroke-linejoin:miter;stroke-opacity:1" d="M 91.5294,204.588 109.765,204.588 z" id="boundary" inkscape:connector-curvature="0" />
	<path style="fill:none;stroke:red;stroke-width:1px;stroke-linecap:butt;stroke-linejoin:miter;stroke-opacity:1" d="M 95.1765,126.176 113.412,133.471 z" id="boundary" inkscape:connector-curvature="0" />
	<path style="fill:none;stroke:red;stroke-width:1px;stroke-linecap:butt;stroke-linejoin:miter;stroke-opacity:1" d="M 100.647,95.1765 118.882,95.1765 z" id="boundary" inkscape:connector-curvature="0" />
	<path style="fill:none;stroke:red;stroke-width:1px;stroke-linecap:butt;stroke-linejoin:miter;stroke-opacity:1" d="M 104.294,42.2941 120.706,51.4118 z" id="boundary" inkscape:connector-curvature="0" />
	<path style="fill:none;stroke:red;stroke-width:1px;stroke-linecap:butt;stroke-linejoin:miter;stroke-opacity:1" d="M 104.294,242.882 122.529,242.882 z" id="boundary" inkscape:connector-curvature="0" />
	<path style="fill:none;stroke:red;stroke-width:1px;stroke-linecap:butt;stroke-linejoin:miter;stroke-opacity:1" d="M 104.294,295.765 122.529,295.765 z" id="boundary" inkscape:connector-curvature="0" />
	<path style="fill:none;stroke:red;stroke-width:1px;stroke-linecap:butt;stroke-linejoin:miter;stroke-opacity:1" d="M 104.294,334.059 122.529,334.059 z" id="boundary" inkscape:connector-curvature="0" />
	<path style="fill:none;stroke:red;stroke-width:1px;stroke-linecap:butt;stroke-linejoin:miter;stroke-opacity:1" d="M 109.765,4 128,4 z" id="boundary" inkscape:connector-curvature="0" />
	<path style="fill:none;stroke:red;stroke-width:1px;stroke-linecap:butt;stroke-linejoin:miter;stroke-opacity:1" d="M 109.765,204.588 128,204.588 z" id="boundary" inkscape:connector-curvature="0" />
	<path style="fill:none;stroke:red;stroke-width:1px;stroke-linecap:butt;stroke-linejoin:miter;stroke-opacity:1" d="M 113.412,133.471 131.647,133.471 z" id="boundary" inkscape:connector-curvature="0" />
	<path style="fill:none;stroke:red;stroke-width:1px;stroke-linecap:butt;stroke-linejoin:miter;stroke-opacity:1" d="M 118.882,95.1765 137.118,95.1765 z" id="boundary" inkscape:connector-curvature="0" />
	<path style="fill:none;stroke:red;stroke-width:1px;stroke-linecap:butt;stroke-linejoin:miter;stroke-opacity:1" d="M 120.706,51.4118 138.941,51.4118 z" id="boundary" inkscape:connector-curvature="0" />
	<path style="fill:none;stroke:red;stroke-width:1px;stroke-linecap:butt;stroke-linejoin:miter;stroke-opacity:1" d="M 122.529,242.882 138.941,252 z" id="boundary" inkscape:connector-curvature="0" />
	<path style="fill:none;stroke:red;stroke-width:1px;stroke-linecap:butt;stroke-linejoin:miter;stroke-opacity:1" d="M 122.529,295.765 140.765,295.765 z" id="boundary" inkscape:connector-curvature="0" />
	<path style="fill:none;stroke:red;stroke-width:1px;stroke-linecap:butt;stroke-linejoin:miter;stroke-opacity:1" d="M 122.529,334.059 140.765,334.059 z" id="boundary" inkscape:connector-curvature="0" />
	<path style="fill:none;stroke:red;stroke-width:1px;stroke-linecap:butt;stroke-linejoin:miter;stroke-opacity:1" d="M 128,4 146.235,4 z" id="boundary" inkscape:connector-curvature="0" />
	<path style="fill:none;stroke:red;stroke-width:1px;stroke-linecap:butt;stroke-linejoin:miter;stroke-opacity:1" d="M 128,204.588 144.412,213.706 z" id="boundary" inkscape:connector-curvature="0" />
	<path style="fill:none;stroke:red;stroke-width:1px;stroke-linecap:butt;stroke-linejoin:miter;stroke-opacity:1" d="M 131.647,133.471 148.059,142.588 z" id="boundary" inkscape:connector-curvature="0" />
	<path style="fill:none;stroke:red;stroke-width:1px;stroke-linecap:butt;stroke-linejoin:miter;stroke-opacity:1" d="M 137.118,95.1765 155.353,95.1765 z" id="boundary" inkscape:connector-curvature="0" />
	<path style="fill:none;stroke:red;stroke-width:1px;stroke-linecap:butt;stroke-linejoin:miter;stroke-opacity:1" d="M 138.941,51.4118 157.176,51.4118 z" id="boundary" inkscape:connector-curvature="0" />
	<path style="fill:none;stroke:red;stroke-width:1px;stroke-linecap:butt;stroke-linejoin:miter;stroke-opacity:1" d="M 138.941,252 157.176,252 z" id="boundary" inkscape:connector-curvature="0" />
	<path style="fill:none;stroke:red;stroke-width:1px;stroke-linecap:butt;stroke-linejoin:miter;stroke-opacity:1" d="M 140.765,295.765 159,295.765 z" id="boundary" inkscape:connector-curvature="0" />
	<path style="fill:none;stroke:red;stroke-width:1px;stroke-linecap:butt;stroke-linejoin:miter;stroke-opacity:1" d="M 140.765,334.059 157.176,343.176 z" id="boundary" inkscape:connector-curvature="0" />
	<path style="fill:none;stroke:red;stroke-width:1px;stroke-linecap:butt;stroke-linejoin:miter;stroke-opacity:1" d="M 144.412,213.706 162.647,213.706 z" id="boundary" inkscape:connector-curvature="0" />
	<path style="fill:none;stroke:red;stroke-width:1px;stroke-linecap:butt;stroke-linejoin:miter;stroke-opacity:1" d="M 146.235,4 164.471,4 z" id="boundary" inkscape:connector-curvature="0" />
	<path style="fill:none;stroke:red;stroke-width:1px;stroke-linecap:butt;stroke-linejoin:miter;stroke-opacity:1" d="M 148.059,142.588 166.294,142.588 z" id="boundary" inkscape:connector-curvature="0" />
	<path style="fill:none;stroke:red;stroke-width:1px;stroke-linecap:butt;stroke-linejoin:miter;stroke-opacity:1" d="M 155.353,95.1765 171.765,104.294 z" id="boundary" inkscape:connector-curvature="0" />
	<path style="fill:none;stroke:red;stroke-width:1px;stroke-linecap:butt;stroke-linejoin:miter;stroke-opacity:1" d="M 157.176,51.4118 175.412,51.4118 z" id="boundary" inkscape:connector-curvature="0" />
	<path style="fill:none;stroke:red;stroke-width:1px;stroke-linecap:butt;stroke-linejoin:miter;stroke-opacity:1" d="M 157.176,252 175.412,252 z" id="boundary" inkscape:connector-curvature="0" />
	<path style="fill:none;stroke:red;stroke-width:1px;stroke-linecap:butt;stroke-linejoin:miter;stroke-opacity:1" d="M 157.176,343.176 175.412,339.529 z" id="boundary" inkscape:connector-curvature="0" />
	<path style="fill:none;stroke:red;stroke-width:1px;stroke-linecap:butt;stroke-linejoin:miter;stroke-opacity:1" d="M 159,295.765 177.235,295.765 z" id="boundary" inkscape:connector-curvature="0" />
	<path style="fill:none;stroke:red;stroke-width:1px;stroke-linecap:butt;stroke-linejoin:miter;stroke-opacity:1" d="M 162.647,213.706 180.882,213.706 z" id="boundary" inkscape:connector-curvature="0" />
	<path style="fill:none;stroke:red;stroke-width:1px;stroke-linecap:butt;stroke-linejoin:miter;stroke-opacity:1" d="M 164.471,4 182.706,4 z" id="boundary" inkscape:connector-curvature="0" />
	<path style="fill:none;stroke:red;stroke-width:1px;stroke-linecap:butt;stroke-linejoin:miter;stroke-opacity:1" d="M 166.294,142.588 182.706,151.706 z" id="boundary" inkscape:connector-curvature="0" />
	<path style="fill:none;stroke:red;stroke-width:1px;stroke-linecap:butt;stroke-linejoin:miter;stroke-opacity:1" d="M 171.765,104.294 188.176,113.412 z" id="boundary" inkscape:connector-curvature="0" />
	<path style="fill:none;stroke:red;stroke-width:1px;stroke-linecap:butt;stroke-linejoin:miter;stroke-opacity:1" d="M 175.412,51.4118 193.647,51.4118 z" id="boundary" inkscape:connector-curvature="0" />
	<path style="fill:none;stroke:red;stroke-width:1px;stroke-linecap:butt;stroke-linejoin:miter;stroke-opacity:1" d="M 175.412,252 191.824,261.118 z" id="boundary" inkscape:connector-curvature="0" />
	<path style="fill:none;stroke:red;stroke-width:1px;stroke-linecap:butt;stroke-linejoin:miter;stroke-opacity:1" d="M 175.412,339.529 193.647,334.059 z" id="boundary" inkscape:connector-curvature="0" />
	<path style="fill:none;stroke:red;stroke-width:1px;stroke-linecap:butt;stroke-linejoin:miter;stroke-opacity:1" d="M 177.235,295.765 195.471,295.765 z" id="boundary" inkscape:connector-curvature="0" />
	<path style="fill:none;stroke:red;stroke-width:1px;stroke-linecap:butt;stroke-linejoin:miter;stroke-opacity:1" d="M 180.882,213.706 199.118,213.706 z" id="boundary" inkscape:connector-curvature="0" />
	<path style="fill:none;stroke:red;stroke-width:1px;stroke-linecap:butt;stroke-linejoin:miter;stroke-opacity:1" d="M 182.706,4 200.941,4 z" id="boundary" inkscape:connector-curvature="0" />
	<path style="fill:none;stroke:red;stroke-width:1px;stroke-linecap:butt;stroke-linejoin:miter;stroke-opacity:1" d="M 182.706,151.706 200.941,151.706 z" id="boundary" inkscape:connector-curvature="0" />
	<path style="fill:none;stroke:red;stroke-width:1px;stroke-linecap:butt;stroke-linejoin:miter;stroke-opacity:1" d="M 188.176,113.412 206.412,113.412 z" id="boundary" inkscape:connector-curvature="0" />
	<path style="fill:none;stroke:red;stroke-width:1px;stroke-linecap:butt;stroke-linejoin:miter;stroke-opacity:1" d="M 191.824,261.118 210.059,261.118 z" id="boundary" inkscape:connector-curvature="0" />
	<path style="fill:none;stroke:red;stroke-width:1px;stroke-linecap:butt;stroke-linejoin:miter;stroke-opacity:1" d="M 193.647,51.4118 211.882,51.4118 z" id="boundary" inkscape:connector-curvature="0" />
	<path style="fill:none;stroke:red;stroke-width:1px;stroke-linecap:butt;stroke-linejoin:miter;stroke-opacity:1" d="M 193.647,334.059 211.882,334.059 z" id="boundary" inkscape:connector-curvature="0" />
	<path style="fill:none;stroke:red;stroke-width:1px;stroke-linecap:butt;stroke-linejoin:miter;stroke-opacity:1" d="M 195.471,295.765 213.706,295.765 z" id="boundary" inkscape:connector-curvature="0" />
	<path style="fill:none;stroke:red;stroke-width:1px;stroke-linecap:butt;stroke-linejoin:miter;stroke-opacity:1" d="M 199.118,213.706 217.353,213.706 z" id="boundary" inkscape:connector-curvature="0" />
	<path style="fill:none;stroke:red;stroke-width:1px;stroke-linecap:butt;stroke-linejoin:miter;stroke-opacity:1" d="M 200.941,4 217.353,13.1176 z" id="boundary" inkscape:connector-curvature="0" />
	<path style="fill:none;stroke:red;stroke-width:1px;stroke-linecap:butt;stroke-linejoin:miter;stroke-opacity:1" d="M 200.941,151.706 217.353,160.824 z" id="boundary" inkscape:connector-curvature="0" />
	<path style="fill:none;stroke:red;stroke-width:1px;stroke-linecap:butt;stroke-linejoin:miter;stroke-opacity:1" d="M 206.412,113.412 224.647,118.882 z" id="boundary" inkscape:connector-curvature="0" />
	<path style="fill:none;stroke:red;stroke-width:1px;stroke-linecap:butt;stroke-linejoin:miter;stroke-opacity:1" d="M 210.059,261.118 228.294,261.118 z" id="boundary" inkscape:connector-curvature="0" />
	<path style="fill:none;stroke:red;stroke-width:1px;stroke-linecap:butt;stroke-linejoin:miter;stroke-opacity:1" d="M 211.882,51.4118 228.294,60.5294 z" id="boundary" inkscape:connector-curvature="0" />
	<path style="fill:none;stroke:red;stroke-width:1px;stroke-linecap:butt;stroke-linejoin:miter;stroke-opacity:1" d="M 211.882,334.059 230.118,334.059 z" id="boundary" inkscape:connector-curvature="0" />
	<path style="fill:none;stroke:red;stroke-width:1px;stroke-linecap:butt;stroke-linejoin:miter;stroke-opacity:1" d="M 213.706,295.765 231.941,295.765 z" id="boundary" inkscape:connector-curvature="0" />
	<path style="fill:none;stroke:red;stroke-width:1px;stroke-linecap:butt;stroke-linejoin:miter;stroke-opacity:1" d="M 217.353,13.1176 235.588,13.1176 z" id="boundary" inkscape:connector-curvature="0" />
	<path style="fill:none;stroke:red;stroke-width:1px;stroke-linecap:butt;stroke-linejoin:miter;stroke-opacity:1" d="M 217.353,160.824 235.588,157.176 z" id="boundary" inkscape:connector-curvature="0" />
	<path style="fill:none;stroke:red;stroke-width:1px;stroke-linecap:butt;stroke-linejoin:miter;stroke-opacity:1" d="M 217.353,213.706 235.588,213.706 z" id="boundary" inkscape:connector-curvature="0" />
	<path style="fill:none;stroke:red;stroke-width:1px;stroke-linecap:butt;stroke-linejoin:miter;stroke-opacity:1" d="M 224.647,118.882 242.882,122.529 z" id="boundary" inkscape:connector-curvature="0" />
	<path style="fill:none;stroke:red;stroke-width:1px;stroke-linecap:butt;stroke-linejoin:miter;stroke-opacity:1" d="M 228.294,60.5294 246.529,60.5294 z" id="boundary" inkscape:connector-curvature="0" />
	<path style="fill:none;stroke:red;stroke-width:1px;stroke-linecap:butt;stroke-linejoin:miter;stroke-opacity:1" d="M 228.294,261.118 246.529,261.118 z" id="boundary" inkscape:connector-curvature="0" />
	<path style="fill:none;stroke:red;stroke-width:1px;stroke-linecap:butt;stroke-linejoin:miter;stroke-opacity:1" d="M 230.118,334.059 248.353,334.059 z" id="boundary" inkscape:connector-curvature="0" />
	<path style="fill:none;stroke:red;stroke-width:1px;stroke-linecap:butt;stroke-linejoin:miter;stroke-opacity:1" d="M 231.941,295.765 250.176,295.765 z" id="boundary" inkscape:connector-curvature="0" />
	<path style="fill:none;stroke:red;stroke-width:1px;stroke-linecap:butt;stroke-linejoin:miter;stroke-opacity:1" d="M 235.588,13.1176 252,22.2353 z" id="boundary" inkscape:connector-curvature="0" />
	<path style="fill:none;stroke:red;stroke-width:1px;stroke-linecap:butt;stroke-linejoin:miter;stroke-opacity:1" d="M 235.588,157.176 252,166.294 z" id="boundary" inkscape:connector-curvature="0" />
	<path style="fill:none;stroke:red;stroke-width:1px;stroke-linecap:butt;stroke-linejoin:miter;stroke-opacity:1" d="M 235.588,213.706 253.824,213.706 z" id="boundary" inkscape:connector-curvature="0" />
	<path style="fill:none;stroke:red;stroke-width:1px;stroke-linecap:butt;stroke-linejoin:miter;stroke-opacity:1" d="M 242.882,122.529 261.118,128 z" id="boundary" inkscape:connector-curvature="0" />
	<path style="fill:none;stroke:red;stroke-width:1px;stroke-linecap:butt;stroke-linejoin:miter;stroke-opacity:1" d="M 246.529,60.5294 264.765,60.5294 z" id="boundary" inkscape:connector-curvature="0" />
	<path style="fill:none;stroke:red;stroke-width:1px;stroke-linecap:butt;stroke-linejoin:miter;stroke-opacity:1" d="M 246.529,261.118 262.941,252 z" id="boundary" inkscape:connector-curvature="0" />
	<path style="fill:none;stroke:red;stroke-width:1px;stroke-linecap:butt;stroke-linejoin:miter;stroke-opacity:1" d="M 248.353,334.059 266.588,334.059 z" id="boundary" inkscape:connector-curvature="0" />
	<path style="fill:none;stroke:red;stroke-width:1px;stroke-linecap:butt;stroke-linejoin:miter;stroke-opacity:1" d="M 250.176,295.765 268.412,292.118 z" id="boundary" inkscape:connector-curvature="0" />
	<path style="fill:none;stroke:red;stroke-width:1px;stroke-linecap:butt;stroke-linejoin:miter;stroke-opacity:1" d="M 252,22.2353 270.235,22.2353 z" id="boundary" inkscape:connector-curvature="0" />
	<path style="fill:none;stroke:red;stroke-width:1px;stroke-linecap:butt;stroke-linejoin:miter;stroke-opacity:1" d="M 252,166.294 270.235,169.941 z" id="boundary" inkscape:connector-curvature="0" />
	<path style="fill:none;stroke:red;stroke-width:1px;stroke-linecap:butt;stroke-linejoin:miter;stroke-opacity:1" d="M 253.824,213.706 272.059,206.412 z" id="boundary" inkscape:connector-curvature="0" />
	<path style="fill:none;stroke:red;stroke-width:1px;stroke-linecap:butt;stroke-linejoin:miter;stroke-opacity:1" d="M 261.118,128 279.353,131.647 z" id="boundary" inkscape:connector-curvature="0" />
	<path style="fill:none;stroke:red;stroke-width:1px;stroke-linecap:butt;stroke-linejoin:miter;stroke-opacity:1" d="M 262.941,252 268.412,273.882 z" id="boundary" inkscape:connector-curvature="0" />
	<path style="fill:none;stroke:red;stroke-width:1px;stroke-linecap:butt;stroke-linejoin:miter;stroke-opacity:1" d="M 264.765,60.5294 283,60.5294 z" id="boundary" inkscape:connector-curvature="0" />
	<path style="fill:none;stroke:red;stroke-width:1px;stroke-linecap:butt;stroke-linejoin:miter;stroke-opacity:1" d="M 266.588,334.059 284.824,334.059 z" id="boundary" inkscape:connector-curvature="0" />
	<path style="fill:none;stroke:red;stroke-width:1px;stroke-linecap:butt;stroke-linejoin:miter;stroke-opacity:1" d="M 268.412,273.882 268.412,292.118 z" id="boundary" inkscape:connector-curvature="0" />
	<path style="fill:none;stroke:red;stroke-width:1px;stroke-linecap:butt;stroke-linejoin:miter;stroke-opacity:1" d="M 270.235,22.2353 288.471,22.2353 z" id="boundary" inkscape:connector-curvature="0" />
	<path style="fill:none;stroke:red;stroke-width:1px;stroke-linecap:butt;stroke-linejoin:miter;stroke-opacity:1" d="M 270.235,169.941 288.471,169.941 z" id="boundary" inkscape:connector-curvature="0" />
	<path style="fill:none;stroke:red;stroke-width:1px;stroke-linecap:butt;stroke-linejoin:miter;stroke-opacity:1" d="M 272.059,206.412 290.294,197.294 z" id="boundary" inkscape:connector-curvature="0" />
	<path style="fill:none;stroke:red;stroke-width:1px;stroke-linecap:butt;stroke-linejoin:miter;stroke-opacity:1" d="M 279.353,131.647 297.588,131.647 z" id="boundary" inkscape:connector-curvature="0" />
	<path style="fill:none;stroke:red;stroke-width:1px;stroke-linecap:butt;stroke-linejoin:miter;stroke-opacity:1" d="M 283,60.5294 299.412,69.6471 z" id="boundary" inkscape:connector-curvature="0" />
	<path style="fill:none;stroke:red;stroke-width:1px;stroke-linecap:butt;stroke-linejoin:miter;stroke-opacity:1" d="M 284.824,334.059 303.059,334.059 z" id="boundary" inkscape:connector-curvature="0" />
	<path style="fill:none;stroke:red;stroke-width:1px;stroke-linecap:butt;stroke-linejoin:miter;stroke-opacity:1" d="M 288.471,22.2353 306.706,27.7059 z" id="boundary" inkscape:connector-curvature="0" />
	<path style="fill:none;stroke:red;stroke-width:1px;stroke-linecap:butt;stroke-linejoin:miter;stroke-opacity:1" d="M 288.471,169.941 290.294,197.294 z" id="boundary" inkscape:connector-curvature="0" />
	<path style="fill:none;stroke:red;stroke-width:1px;stroke-linecap:butt;stroke-linejoin:miter;stroke-opacity:1" d="M 297.588,131.647 314,118.882 z" id="boundary" inkscape:connector-curvature="0" />
	<path style="fill:none;stroke:red;stroke-width:1px;stroke-linecap:butt;stroke-linejoin:miter;stroke-opacity:1" d="M 299.412,69.6471 317.647,69.6471 z" id="boundary" inkscape:connector-curvature="0" />
	<path style="fill:none;stroke:red;stroke-width:1px;stroke-linecap:butt;stroke-linejoin:miter;stroke-opacity:1" d="M 303.059,334.059 321.294,334.059 z" id="boundary" inkscape:connector-curvature="0" />
	<path style="fill:none;stroke:red;stroke-width:1px;stroke-linecap:butt;stroke-linejoin:miter;stroke-opacity:1" d="M 306.706,27.7059 324.941,31.3529 z" id="boundary" inkscape:connector-curvature="0" />
	<path style="fill:none;stroke:red;stroke-width:1px;stroke-linecap:butt;stroke-linejoin:miter;stroke-opacity:1" d="M 314,118.882 323.118,87.8824 z" id="boundary" inkscape:connector-curvature="0" />
	<path style="fill:none;stroke:red;stroke-width:1px;stroke-linecap:butt;stroke-linejoin:miter;stroke-opacity:1" d="M 317.647,69.6471 323.118,87.8824 z" id="boundary" inkscape:connector-curvature="0" />
	<path style="fill:none;stroke:red;stroke-width:1px;stroke-linecap:butt;stroke-linejoin:miter;stroke-opacity:1" d="M 321.294,334.059 339.529,334.059 z" id="boundary" inkscape:connector-curvature="0" />
	<path style="fill:none;stroke:red;stroke-width:1px;stroke-linecap:butt;stroke-linejoin:miter;stroke-opacity:1" d="M 324.941,31.3529 343.176,31.3529 z" id="boundary" inkscape:connector-curvature="0" />
	<path style="fill:none;stroke:red;stroke-width:1px;stroke-linecap:butt;stroke-linejoin:miter;stroke-opacity:1" d="M 339.529,334.059 357.765,334.059 z" id="boundary" inkscape:connector-curvature="0" />
	<path style="fill:none;stroke:red;stroke-width:1px;stroke-linecap:butt;stroke-linejoin:miter;stroke-opacity:1" d="M 343.176,31.3529 361.412,31.3529 z" id="boundary" inkscape:connector-curvature="0" />
	<path style="fill:none;stroke:red;stroke-width:1px;stroke-linecap:butt;stroke-linejoin:miter;stroke-opacity:1" d="M 357.765,334.059 376,334.059 z" id="boundary" inkscape:connector-curvature="0" />
	<path style="fill:none;stroke:red;stroke-width:1px;stroke-linecap:butt;stroke-linejoin:miter;stroke-opacity:1" d="M 361.412,31.3529 379.647,31.3529 z" id="boundary" inkscape:connector-curvature="0" />
	<path style="fill:none;stroke:red;stroke-width:1px;stroke-linecap:butt;stroke-linejoin:miter;stroke-opacity:1" d="M 376,334.059 394.235,330.412 z" id="boundary" inkscape:connector-curvature="0" />
	<path style="fill:none;stroke:red;stroke-width:1px;stroke-linecap:butt;stroke-linejoin:miter;stroke-opacity:1" d="M 379.647,31.3529 397.882,31.3529 z" id="boundary" inkscape:connector-curvature="0" />
	<path style="fill:none;stroke:red;stroke-width:1px;stroke-linecap:butt;stroke-linejoin:miter;stroke-opacity:1" d="M 394.235,330.412 397.882,297.588 z" id="boundary" inkscape:connector-curvature="0" />
	<path style="fill:none;stroke:red;stroke-width:1px;stroke-linecap:butt;stroke-linejoin:miter;stroke-opacity:1" d="M 397.882,31.3529 416.118,31.3529 z" id="boundary" inkscape:connector-curvature="0" />
	<path style="fill:none;stroke:red;stroke-width:1px;stroke-linecap:butt;stroke-linejoin:miter;stroke-opacity:1" d="M 397.882,297.588 407,279.353 z" id="boundary" inkscape:connector-curvature="0" />
	<path style="fill:none;stroke:red;stroke-width:1px;stroke-linecap:butt;stroke-linejoin:miter;stroke-opacity:1" d="M 407,261.118 407,279.353 z" id="boundary" inkscape:connector-curvature="0" />
	<path style="fill:none;stroke:red;stroke-width:1px;stroke-linecap:butt;stroke-linejoin:miter;stroke-opacity:1" d="M 407,261.118 423.412,252 z" id="boundary" inkscape:connector-curvature="0" />
	<path style="fill:none;stroke:red;stroke-width:1px;stroke-linecap:butt;stroke-linejoin:miter;stroke-opacity:1" d="M 416.118,31.3529 432.529,40.4706 z" id="boundary" inkscape:connector-curvature="0" />
	<path style="fill:none;stroke:red;stroke-width:1px;stroke-linecap:butt;stroke-linejoin:miter;stroke-opacity:1" d="M 423.412,252 441.647,252 z" id="boundary" inkscape:connector-curvature="0" />
	<path style="fill:none;stroke:red;stroke-width:1px;stroke-linecap:butt;stroke-linejoin:miter;stroke-opacity:1" d="M 425.235,151.706 425.235,169.941 z" id="boundary" inkscape:connector-curvature="0" />
	<path style="fill:none;stroke:red;stroke-width:1px;stroke-linecap:butt;stroke-linejoin:miter;stroke-opacity:1" d="M 425.235,151.706 434.353,124.353 z" id="boundary" inkscape:connector-curvature="0" />
	<path style="fill:none;stroke:red;stroke-width:1px;stroke-linecap:butt;stroke-linejoin:miter;stroke-opacity:1" d="M 425.235,169.941 443.471,177.235 z" id="boundary" inkscape:connector-curvature="0" />
	<path style="fill:none;stroke:red;stroke-width:1px;stroke-linecap:butt;stroke-linejoin:miter;stroke-opacity:1" d="M 432.529,40.4706 450.765,44.1176 z" id="boundary" inkscape:connector-curvature="0" />
	<path style="fill:none;stroke:red;stroke-width:1px;stroke-linecap:butt;stroke-linejoin:miter;stroke-opacity:1" d="M 434.353,106.118 434.353,124.353 z" id="boundary" inkscape:connector-curvature="0" />
	<path style="fill:none;stroke:red;stroke-width:1px;stroke-linecap:butt;stroke-linejoin:miter;stroke-opacity:1" d="M 434.353,106.118 443.471,78.7647 z" id="boundary" inkscape:connector-curvature="0" />
	<path style="fill:none;stroke:red;stroke-width:1px;stroke-linecap:butt;stroke-linejoin:miter;stroke-opacity:1" d="M 441.647,252 458.059,261.118 z" id="boundary" inkscape:connector-curvature="0" />
	<path style="fill:none;stroke:red;stroke-width:1px;stroke-linecap:butt;stroke-linejoin:miter;stroke-opacity:1" d="M 443.471,78.7647 452.588,62.3529 z" id="boundary" inkscape:connector-curvature="0" />
	<path style="fill:none;stroke:red;stroke-width:1px;stroke-linecap:butt;stroke-linejoin:miter;stroke-opacity:1" d="M 443.471,177.235 461.706,177.235 z" id="boundary" inkscape:connector-curvature="0" />
	<path style="fill:none;stroke:red;stroke-width:1px;stroke-linecap:butt;stroke-linejoin:miter;stroke-opacity:1" d="M 450.765,44.1176 452.588,62.3529 z" id="boundary" inkscape:connector-curvature="0" />
	<path style="fill:none;stroke:red;stroke-width:1px;stroke-linecap:butt;stroke-linejoin:miter;stroke-opacity:1" d="M 458.059,261.118 476.294,261.118 z" id="boundary" inkscape:connector-curvature="0" />
	<path style="fill:none;stroke:red;stroke-width:1px;stroke-linecap:butt;stroke-linejoin:miter;stroke-opacity:1" d="M 461.706,177.235 479.941,177.235 z" id="boundary" inkscape:connector-curvature="0" />
	<path style="fill:none;stroke:red;stroke-width:1px;stroke-linecap:butt;stroke-linejoin:miter;stroke-opacity:1" d="M 476.294,261.118 494.529,261.118 z" id="boundary" inkscape:connector-curvature="0" />
	<path style="fill:none;stroke:red;stroke-width:1px;stroke-linecap:butt;stroke-linejoin:miter;stroke-opacity:1" d="M 479.941,177.235 498.176,177.235 z" id="boundary" inkscape:connector-curvature="0" />
	<path style="fill:none;stroke:red;stroke-width:1px;stroke-linecap:butt;stroke-linejoin:miter;stroke-opacity:1" d="M 494.529,261.118 512.765,261.118 z" id="boundary" inkscape:connector-curvature="0" />
	<path style="fill:none;stroke:red;stroke-width:1px;stroke-linecap:butt;stroke-linejoin:miter;stroke-opacity:1" d="M 498.176,177.235 516.412,177.235 z" id="boundary" inkscape:connector-curvature="0" />
	<path style="fill:none;stroke:red;stroke-width:1px;stroke-linecap:butt;stroke-linejoin:miter;stroke-opacity:1" d="M 512.765,261.118 529.176,252 z" id="boundary" inkscape:connector-curvature="0" />
	<path style="fill:none;stroke:red;stroke-width:1px;stroke-linecap:butt;stroke-linejoin:miter;stroke-opacity:1" d="M 516.412,177.235 534.647,177.235 z" id="boundary" inkscape:connector-curvature="0" />
	<path style="fill:none;stroke:red;stroke-width:1px;stroke-linecap:butt;stroke-linejoin:miter;stroke-opacity:1" d="M 529.176,252 547.412,252 z" id="boundary" inkscape:connector-curvature="0" />
	<path style="fill:none;stroke:red;stroke-width:1px;stroke-linecap:butt;stroke-linejoin:miter;stroke-opacity:1" d="M 534.647,177.235 552.882,177.235 z" id="boundary" inkscape:connector-curvature="0" />
	<path style="fill:none;stroke:red;stroke-width:1px;stroke-linecap:butt;stroke-linejoin:miter;stroke-opacity:1" d="M 547.412,252 563.824,242.882 z" id="boundary" inkscape:connector-curvature="0" />
	<path style="fill:none;stroke:red;stroke-width:1px;stroke-linecap:butt;stroke-linejoin:miter;stroke-opacity:1" d="M 552.882,177.235 571.118,177.235 z" id="boundary" inkscape:connector-curvature="0" />
	<path style="fill:none;stroke:red;stroke-width:1px;stroke-linecap:butt;stroke-linejoin:miter;stroke-opacity:1" d="M 563.824,242.882 582.059,242.882 z" id="boundary" inkscape:connector-curvature="0" />
	<path style="fill:none;stroke:red;stroke-width:1px;stroke-linecap:butt;stroke-linejoin:miter;stroke-opacity:1" d="M 571.118,177.235 589.353,177.235 z" id="boundary" inkscape:connector-curvature="0" />
	<path style="fill:none;stroke:red;stroke-width:1px;stroke-linecap:butt;stroke-linejoin:miter;stroke-opacity:1" d="M 582.059,242.882 600.294,242.882 z" id="boundary" inkscape:connector-curvature="0" />
	<path style="fill:none;stroke:red;stroke-width:1px;stroke-linecap:butt;stroke-linejoin:miter;stroke-opacity:1" d="M 589.353,177.235 607.588,171.765 z" id="boundary" inkscape:connector-curvature="0" />
	<path style="fill:none;stroke:red;stroke-width:1px;stroke-linecap:butt;stroke-linejoin:miter;stroke-opacity:1" d="M 600.294,242.882 618.529,242.882 z" id="boundary" inkscape:connector-curvature="0" />
	<path style="fill:none;stroke:red;stroke-width:1px;stroke-linecap:butt;stroke-linejoin:miter;stroke-opacity:1" d="M 607.588,171.765 625.824,168.118 z" id="boundary" inkscape:connector-curvature="0" />
	<path style="fill:none;stroke:red;stroke-width:1px;stroke-linecap:butt;stroke-linejoin:miter;stroke-opacity:1" d="M 618.529,242.882 636.765,242.882 z" id="boundary" inkscape:connector-curvature="0" />
	<path style="fill:none;stroke:red;stroke-width:1px;stroke-linecap:butt;stroke-linejoin:miter;stroke-opacity:1" d="M 625.824,168.118 644.059,168.118 z" id="boundary" inkscape:connector-curvature="0" />
	<path style="fill:none;stroke:red;stroke-width:1px;stroke-linecap:butt;stroke-linejoin:miter;stroke-opacity:1" d="M 636.765,242.882 655,242.882 z" id="boundary" inkscape:connector-curvature="0" />
	<path style="fill:none;stroke:red;stroke-width:1px;stroke-linecap:butt;stroke-linejoin:miter;stroke-opacity:1" d="M 644.059,168.118 662.294,168.118 z" id="boundary" inkscape:connector-curvature="0" />
	<path style="fill:none;stroke:red;stroke-width:1px;stroke-linecap:butt;stroke-linejoin:miter;stroke-opacity:1" d="M 655,242.882 673.235,242.882 z" id="boundary" inkscape:connector-curvature="0" />
	<path style="fill:none;stroke:red;stroke-width:1px;stroke-linecap:butt;stroke-linejoin:miter;stroke-opacity:1" d="M 662.294,168.118 680.529,168.118 z" id="boundary" inkscape:connector-curvature="0" />
	<path style="fill:none;stroke:red;stroke-width:1px;stroke-linecap:butt;stroke-linejoin:miter;stroke-opacity:1" d="M 673.235,242.882 691.471,242.882 z" id="boundary" inkscape:connector-curvature="0" />
	<path style="fill:none;stroke:red;stroke-width:1px;stroke-linecap:butt;stroke-linejoin:miter;stroke-opacity:1" d="M 680.529,168.118 696.941,177.235 z" id="boundary" inkscape:connector-curvature="0" />
	<path style="fill:none;stroke:red;stroke-width:1px;stroke-linecap:butt;stroke-linejoin:miter;stroke-opacity:1" d="M 691.471,242.882 709.706,242.882 z" id="boundary" inkscape:connector-curvature="0" />
	<path style="fill:none;stroke:red;stroke-width:1px;stroke-linecap:butt;stroke-linejoin:miter;stroke-opacity:1" d="M 696.941,177.235 715.176,177.235 z" id="boundary" inkscape:connector-curvature="0" />
	<path style="fill:none;stroke:red;stroke-width:1px;stroke-linecap:butt;stroke-linejoin:miter;stroke-opacity:1" d="M 709.706,242.882 727.941,248.353 z" id="boundary" inkscape:connector-curvature="0" />
	<path style="fill:none;stroke:red;stroke-width:1px;stroke-linecap:butt;stroke-linejoin:miter;stroke-opacity:1" d="M 715.176,177.235 733.412,177.235 z" id="boundary" inkscape:connector-curvature="0" />
	<path style="fill:none;stroke:red;stroke-width:1px;stroke-linecap:butt;stroke-linejoin:miter;stroke-opacity:1" d="M 727.941,248.353 746.176,252 z" id="boundary" inkscape:connector-curvature="0" />
	<path style="fill:none;stroke:red;stroke-width:1px;stroke-linecap:butt;stroke-linejoin:miter;stroke-opacity:1" d="M 733.412,177.235 749.824,186.353 z" id="boundary" inkscape:connector-curvature="0" />
	<path style="fill:none;stroke:red;stroke-width:1px;stroke-linecap:butt;stroke-linejoin:miter;stroke-opacity:1" d="M 746.176,252 764.412,252 z" id="boundary" inkscape:connector-curvature="0" />
	<path style="fill:none;stroke:red;stroke-width:1px;stroke-linecap:butt;stroke-linejoin:miter;stroke-opacity:1" d="M 749.824,186.353 768.059,186.353 z" id="boundary" inkscape:connector-curvature="0" />
	<path style="fill:none;stroke:red;stroke-width:1px;stroke-linecap:butt;stroke-linejoin:miter;stroke-opacity:1" d="M 764.412,252 782.647,252 z" id="boundary" inkscape:connector-curvature="0" />
	<path style="fill:none;stroke:red;stroke-width:1px;stroke-linecap:butt;stroke-linejoin:miter;stroke-opacity:1" d="M 768.059,186.353 786.294,186.353 z" id="boundary" inkscape:connector-curvature="0" />
	<path style="fill:none;stroke:red;stroke-width:1px;stroke-linecap:butt;stroke-linejoin:miter;stroke-opacity:1" d="M 782.647,252 799.059,261.118 z" id="boundary" inkscape:connector-curvature="0" />
	<path style="fill:none;stroke:red;stroke-width:1px;stroke-linecap:butt;stroke-linejoin:miter;stroke-opacity:1" d="M 786.294,186.353 804.529,186.353 z" id="boundary" inkscape:connector-curvature="0" />
	<path style="fill:none;stroke:red;stroke-width:1px;stroke-linecap:butt;stroke-linejoin:miter;stroke-opacity:1" d="M 799.059,261.118 817.294,261.118 z" id="boundary" inkscape:connector-curvature="0" />
	<path style="fill:none;stroke:red;stroke-width:1px;stroke-linecap:butt;stroke-linejoin:miter;stroke-opacity:1" d="M 804.529,186.353 822.765,186.353 z" id="boundary" inkscape:connector-curvature="0" />
	<path style="fill:none;stroke:red;stroke-width:1px;stroke-linecap:butt;stroke-linejoin:miter;stroke-opacity:1" d="M 817.294,261.118 835.529,261.118 z" id="boundary" inkscape:connector-curvature="0" />
	<path style="fill:none;stroke:red;stroke-width:1px;stroke-linecap:butt;stroke-linejoin:miter;stroke-opacity:1" d="M 822.765,186.353 841,188.176 z" id="boundary" inkscape:connector-curvature="0" />
	<path style="fill:none;stroke:red;stroke-width:1px;stroke-linecap:butt;stroke-linejoin:miter;stroke-opacity:1" d="M 835.529,261.118 851.941,270.235 z" id="boundary" inkscape:connector-curvature="0" />
	<path style="fill:none;stroke:red;stroke-width:1px;stroke-linecap:butt;stroke-linejoin:miter;stroke-opacity:1" d="M 841,188.176 859.235,195.471 z" id="boundary" inkscape:connector-curvature="0" />
	<path style="fill:none;stroke:red;stroke-width:1px;stroke-linecap:butt;stroke-linejoin:miter;stroke-opacity:1" d="M 851.941,270.235 870.176,270.235 z" id="boundary" inkscape:connector-curvature="0" />
	<path style="fill:none;stroke:red;stroke-width:1px;stroke-linecap:butt;stroke-linejoin:miter;stroke-opacity:1" d="M 859.235,195.471 877.471,195.471 z" id="boundary" inkscape:connector-curvature="0" />
	<path style="fill:none;stroke:red;stroke-width:1px;stroke-linecap:butt;stroke-linejoin:miter;stroke-opacity:1" d="M 870.176,270.235 888.412,270.235 z" id="boundary" inkscape:connector-curvature="0" />
	<path style="fill:none;stroke:red;stroke-width:1px;stroke-linecap:butt;stroke-linejoin:miter;stroke-opacity:1" d="M 877.471,195.471 895.706,195.471 z" id="boundary" inkscape:connector-curvature="0" />
	<path style="fill:none;stroke:red;stroke-width:1px;stroke-linecap:butt;stroke-linejoin:miter;stroke-opacity:1" d="M 888.412,270.235 906.647,270.235 z" id="boundary" inkscape:connector-curvature="0" />
	<path style="fill:none;stroke:red;stroke-width:1px;stroke-linecap:butt;stroke-linejoin:miter;stroke-opacity:1" d="M 895.706,195.471 913.941,195.471 z" id="boundary" inkscape:connector-curvature="0" />
	<path style="fill:none;stroke:red;stroke-width:1px;stroke-linecap:butt;stroke-linejoin:miter;stroke-opacity:1" d="M 906.647,270.235 924.882,270.235 z" id="boundary" inkscape:connector-curvature="0" />
	<path style="fill:none;stroke:red;stroke-width:1px;stroke-linecap:butt;stroke-linejoin:miter;stroke-opacity:1" d="M 913.941,195.471 932.176,195.471 z" id="boundary" inkscape:connector-curvature="0" />
	<path style="fill:none;stroke:red;stroke-width:1px;stroke-linecap:butt;stroke-linejoin:miter;stroke-opacity:1" d="M 924.882,270.235 943.118,270.235 z" id="boundary" inkscape:connector-curvature="0" />
	<path style="fill:none;stroke:red;stroke-width:1px;stroke-linecap:butt;stroke-linejoin:miter;stroke-opacity:1" d="M 932.176,195.471 950.412,195.471 z" id="boundary" inkscape:connector-curvature="0" />
	<path style="fill:none;stroke:red;stroke-width:1px;stroke-linecap:butt;stroke-linejoin:miter;stroke-opacity:1" d="M 943.118,270.235 961.353,270.235 z" id="boundary" inkscape:connector-curvature="0" />
	<path style="fill:none;stroke:red;stroke-width:1px;stroke-linecap:butt;stroke-linejoin:miter;stroke-opacity:1" d="M 950.412,195.471 968.647,197.294 z" id="boundary" inkscape:connector-curvature="0" />
	<path style="fill:none;stroke:red;stroke-width:1px;stroke-linecap:butt;stroke-linejoin:miter;stroke-opacity:1" d="M 961.353,270.235 979.588,270.235 z" id="boundary" inkscape:connector-curvature="0" />
	<path style="fill:none;stroke:red;stroke-width:1px;stroke-linecap:butt;stroke-linejoin:miter;stroke-opacity:1" d="M 968.647,197.294 981.412,211.882 z" id="boundary" inkscape:connector-curvature="0" />
	<path style="fill:none;stroke:red;stroke-width:1px;stroke-linecap:butt;stroke-linejoin:miter;stroke-opacity:1" d="M 979.588,270.235 994.176,259.294 z" id="boundary" inkscape:connector-curvature="0" />
	<path style="fill:none;stroke:red;stroke-width:1px;stroke-linecap:butt;stroke-linejoin:miter;stroke-opacity:1" d="M 981.412,211.882 996,224.647 z" id="boundary" inkscape:connector-curvature="0" />
	<path style="fill:none;stroke:red;stroke-width:1px;stroke-linecap:butt;stroke-linejoin:miter;stroke-opacity:1" d="M 994.176,259.294 996,224.647 z" id="boundary" inkscape:connector-curvature="0" />
	<circle cx="4" cy="301.235" r="4" fill="#0" id="circle0"/>
	<circle cx="18.5882" cy="286.647" r="4" fill="#0" id="circle1"/>
	<circle cx="18.5882" cy="314" r="4" fill="#0" id="circle2"/>
	<circle cx="33.1765" cy="324.941" r="4" fill="#0" id="circle3"/>
	<circle cx="35" cy="277.529" r="4" fill="#0" id="circle4"/>
	<circle cx="40.4706" cy="18.5882" r="4" fill="#0" id="circle5"/>
	<circle cx="49.5882" cy="35" r="4" fill="#0" id="circle6"/>
	<circle cx="51.4118" cy="286.647" r="4" fill="#0" id="circle7"/>
	<circle cx="51.4118" cy="324.941" r="4" fill="#0" id="circle8"/>
	<circle cx="55.0588" cy="4" r="4" fill="#0" id="circle9"/>
	<circle cx="58.7059" cy="219.176" r="4" fill="#0" id="circle10"/>
	<circle cx="67.8235" cy="42.2941" r="4" fill="#0" id="circle11"/>
	<circle cx="67.8235" cy="235.588" r="4" fill="#0" id="circle12"/>
	<circle cx="67.8235" cy="334.059" r="4" fill="#0" id="circle13"/>
	<circle cx="69.6471" cy="286.647" r="4" fill="#0" id="circle14"/>
	<circle cx="73.2941" cy="4" r="4" fill="#0" id="circle15"/>
	<circle cx="73.2941" cy="204.588" r="4" fill="#0" id="circle16"/>
	<circle cx="86.0588" cy="42.2941" r="4" fill="#0" id="circle17"/>
	<circle cx="86.0588" cy="109.765" r="4" fill="#0" id="circle18"/>
	<circle cx="86.0588" cy="242.882" r="4" fill="#0" id="circle19"/>
	<circle cx="86.0588" cy="334.059" r="4" fill="#0" id="circle20"/>
	<circle cx="87.8824" cy="286.647" r="4" fill="#0" id="circle21"/>
	<circle cx="91.5294" cy="4" r="4" fill="#0" id="circle22"/>
	<circle cx="91.5294" cy="204.588" r="4" fill="#0" id="circle23"/>
	<circle cx="95.1765" cy="126.176" r="4" fill="#0" id="circle24"/>
	<circle cx="100.647" cy="95.1765" r="4" fill="#0" id="circle25"/>
	<circle cx="104.294" cy="42.2941" r="4" fill="#0" id="circle26"/>
	<circle cx="104.294" cy="242.882" r="4" fill="#0" id="circle27"/>
	<circle cx="104.294" cy="295.765" r="4" fill="#0" id="circle28"/>
	<circle cx="104.294" cy="334.059" r="4" fill="#0" id="circle29"/>
	<circle cx="109.765" cy="4" r="4" fill="#0" id="circle30"/>
	<circle cx="109.765" cy="204.588" r="4" fill="#0" id="circle31"/>
	<circle cx="113.412" cy="133.471" r="4" fill="#0" id="circle32"/>
	<circle cx="118.882" cy="95.1765" r="4" fill="#0" id="circle33"/>
	<circle cx="120.706" cy="51.4118" r="4" fill="#0" id="circle34"/>
	<circle cx="122.529" cy="242.882" r="4" fill="#0" id="circle35"/>
	<circle cx="122.529" cy="295.765" r="4" fill="#0" id="circle36"/>
	<circle cx="122.529" cy="334.059" r="4" fill="#0" id="circle37"/>
	<circle cx="128" cy="4" r="4" fill="#0" id="circle38"/>
	<circle cx="128" cy="204.588" r="4" fill="#0" id="circle39"/>
	<circle cx="131.647" cy="133.471" r="4" fill="#0" id="circle40"/>
	<circle cx="137.118" cy="95.1765" r="4" fill="#0" id="circle41"/>
	<circle cx="138.941" cy="51.4118" r="4" fill="#0" id="circle42"/>
	<circle cx="138.941" cy="252" r="4" fill="#0" id="circle43"/>
	<circle cx="140.765" cy="295.765" r="4" fill="#0" id="circle44"/>
	<circle cx="140.765" cy="334.059" r="4" fill="#0" id="circle45"/>
	<circle cx="144.412" cy="213.706" r="4" fill="#0" id="circle46"/>
	<circle cx="146.235" cy="4" r="4" fill="#0" id="circle47"/>
	<circle cx="148.059" cy="142.588" r="4" fill="#0" id="circle48"/>
	<circle cx="155.353" cy="95.1765" r="4" fill="#0" id="circle49"/>
	<circle cx="157.176" cy="51.4118" r="4" fill="#0" id="circle50"/>
	<circle cx="157.176" cy="252" r="4" fill="#0" id="circle51"/>
	<circle cx="157.176" cy="343.176" r="4" fill="#0" id="circle52"/>
	<circle cx="159" cy="295.765" r="4" fill="#0" id="circle53"/>
	<circle cx="162.647" cy="213.706" r="4" fill="#0" id="circle54"/>
	<circle cx="164.471" cy="4" r="4" fill="#0" id="circle55"/>
	<circle cx="166.294" cy="142.588" r="4" fill="#0" id="circle56"/>
	<circle cx="171.765" cy="104.294" r="4" fill="#0" id="circle57"/>
	<circle cx="175.412" cy="51.4118" r="4" fill="#0" id="circle58"/>
	<circle cx="175.412" cy="252" r="4" fill="#0" id="circle59"/>
	<circle cx="175.412" cy="339.529" r="4" fill="#0" id="circle60"/>
	<circle cx="177.235" cy="295.765" r="4" fill="#0" id="circle61"/>
	<circle cx="180.882" cy="213.706" r="4" fill="#0" id="circle62"/>
	<circle cx="182.706" cy="4" r="4" fill="#0" id="circle63"/>
	<circle cx="182.706" cy="151.706" r="4" fill="#0" id="circle64"/>
	<circle cx="188.176" cy="113.412" r="4" fill="#0" id="circle65"/>
	<circle cx="191.824" cy="261.118" r="4" fill="#0" id="circle66"/>
	<circle cx="193.647" cy="51.4118" r="4" fill="#0" id="circle67"/>
	<circle cx="193.647" cy="334.059" r="4" fill="#0" id="circle68"/>
	<circle cx="195.471" cy="295.765" r="4" fill="#0" id="circle69"/>
	<circle cx="199.118" cy="213.706" r="4" fill="#0" id="circle70"/>
	<circle cx="200.941" cy="4" r="4" fill="#0" id="circle71"/>
	<circle cx="200.941" cy="151.706" r="4" fill="#0" id="circle72"/>
	<circle cx="206.412" cy="113.412" r="4" fill="#0" id="circle73"/>
	<circle cx="210.059" cy="261.118" r="4" fill="#0" id="circle74"/>
	<circle cx="211.882" cy="51.4118" r="4" fill="#0" id="circle75"/>
	<circle cx="211.882" cy="334.059" r="4" fill="#0" id="circle76"/>
	<circle cx="213.706" cy="295.765" r="4" fill="#0" id="circle77"/>
	<circle cx="217.353" cy="13.1176" r="4" fill="#0" id="circle78"/>
	<circle cx="217.353" cy="160.824" r="4" fill="#0" id="circle79"/>
	<circle cx="217.353" cy="213.706" r="4" fill="#0" id="circle80"/>
	<circle cx="224.647" cy="118.882" r="4" fill="#0" id="circle81"/>
	<circle cx="228.294" cy="60.5294" r="4" fill="#0" id="circle82"/>
	<circle cx="228.294" cy="261.118" r="4" fill="#0" id="circle83"/>
	<circle cx="230.118" cy="334.059" r="4" fill="#0" id="circle84"/>
	<circle cx="231.941" cy="295.765" r="4" fill="#0" id="circle85"/>
	<circle cx="235.588" cy="13.1176" r="4" fill="#0" id="circle86"/>
	<circle cx="235.588" cy="157.176" r="4" fill="#0" id="circle87"/>
	<circle cx="235.588" cy="213.706" r="4" fill="#0" id="circle88"/>
	<circle cx="242.882" cy="122.529" r="4" fill="#0" id="circle89"/>
	<circle cx="246.529" cy="60.5294" r="4" fill="#0" id="circle90"/>
	<circle cx="246.529" cy="261.118" r="4" fill="#0" id="circle91"/>
	<circle cx="248.353" cy="334.059" r="4" fill="#0" id="circle92"/>
	<circle cx="250.176" cy="295.765" r="4" fill="#0" id="circle93"/>
	<circle cx="252" cy="22.2353" r="4" fill="#0" id="circle94"/>
	<circle cx="252" cy="166.294" r="4" fill="#0" id="circle95"/>
	<circle cx="253.824" cy="213.706" r="4" fill="#0" id="circle96"/>
	<circle cx="261.118" cy="128" r="4" fill="#0" id="circle97"/>
	<circle cx="262.941" cy="252" r="4" fill="#0" id="circle98"/>
	<circle cx="264.765" cy="60.5294" r="4" fill="#0" id="circle99"/>
	<circle cx="266.588" cy="334.059" r="4" fill="#0" id="circle100"/>
	<circle cx="268.412" cy="273.882" r="4" fill="#0" id="circle101"/>
	<circle cx="268.412" cy="292.118" r="4" fill="#0" id="circle102"/>
	<circle cx="270.235" cy="22.2353" r="4" fill="#0" id="circle103"/>
	<circle cx="270.235" cy="169.941" r="4" fill="#0" id="circle104"/>
	<circle cx="272.059" cy="206.412" r="4" fill="#0" id="circle105"/>
	<circle cx="279.353" cy="131.647" r="4" fill="#0" id="circle106"/>
	<circle cx="283" cy="60.5294" r="4" fill="#0" id="circle107"/>
	<circle cx="284.824" cy="334.059" r="4" fill="#0" id="circle108"/>
	<circle cx="288.471" cy="22.2353" r="4" fill="#0" id="circle109"/>
	<circle cx="288.471" cy="169.941" r="4" fill="#0" id="circle110"/>
	<circle cx="290.294" cy="197.294" r="4" fill="#0" id="circle111"/>
	<circle cx="297.588" cy="131.647" r="4" fill="#0" id="circle112"/>
	<circle cx="299.412" cy="69.6471" r="4" fill="#0" id="circle113"/>
	<circle cx="303.059" cy="334.059" r="4" fill="#0" id="circle114"/>
	<circle cx="306.706" cy="27.7059" r="4" fill="#0" id="circle115"/>
	<circle cx="314" cy="118.882" r="4" fill="#0" id="circle116"/>
	<circle cx="317.647" cy="69.6471" r="4" fill="#0" id="circle117"/>
	<circle cx="321.294" cy="334.059" r="4" fill="#0" id="circle118"/>
	<circle cx="323.118" cy="87.8824" r="4" fill="#0" id="circle119"/>
	<circle cx="324.941" cy="31.3529" r="4" fill="#0" id="circle120"/>
	<circle cx="339.529" cy="334.059" r="4" fill="#0" id="circle121"/>
	<circle cx="343.176" cy="31.3529" r="4" fill="#0" id="circle122"/>
	<circle cx="357.765" cy="334.059" r="4" fill="#0" id="circle123"/>
	<circle cx="361.412" cy="31.3529" r="4" fill="#0" id="circle124"/>
	<circle cx="376" cy="334.059" r="4" fill="#0" id="circle125"/>
	<circle cx="379.647" cy="31.3529" r="4" fill="#0" id="circle126"/>
	<circle cx="394.235" cy="330.412" r="4" fill="#0" id="circle127"/>
	<circle cx="397.882" cy="31.3529" r="4" fill="#0" id="circle128"/>
	<circle cx="397.882" cy="297.588" r="4" fill="#0" id="circle129"/>
	<circle cx="407" cy="261.118" r="4" fill="#0" id="circle130"/>
	<circle cx="407" cy="279.353" r="4" fill="#0" id="circle131"/>
	<circle cx="416.118" cy="31.3529" r="4" fill="#0" id="circle132"/>
	<circle cx="423.412" cy="252" r="4" fill="#0" id="circle133"/>
	<circle cx="425.235" cy="151.706" r="4" fill="#0" id="circle134"/>
	<circle cx="425.235" cy="169.941" r="4" fill="#0" id="circle135"/>
	<circle cx="432.529" cy="40.4706" r="4" fill="#0" id="circle136"/>
	<circle cx="434.353" cy="106.118" r="4" fill="#0" id="circle137"/>
	<circle cx="434.353" cy="124.353" r="4" fill="#0" id="circle138"/>
	<circle cx="441.647" cy="252" r="4" fill="#0" id="circle139"/>
	<circle cx="443.471" cy="78.7647" r="4" fill="#0" id="circle140"/>
	<circle cx="443.471" cy="177.235" r="4" fill="#0" id="circle141"/>
	<circle cx="450.765" cy="44.1176" r="4" fill="#0" id="circle142"/>
	<circle cx="452.588" cy="62.3529" r="4" fill="#0" id="circle143"/>
	<circle cx="458.059" cy="261.118" r="4" fill="#0" id="circle144"/>
	<circle cx="461.706" cy="177.235" r="4" fill="#0" id="circle145"/>
	<circle cx="476.294" cy="261.118" r="4" fill="#0" id="circle146"/>
	<circle cx="479.941" cy="177.235" r="4" fill="#0" id="circle147"/>
	<circle cx="494.529" cy="261.118" r="4" fill="#0" id="circle148"/>
	<circle cx="498.176" cy="177.235" r="4" fill="#0" id="circle149"/>
	<circle cx="512.765" cy="261.118" r="4" fill="#0" id="circle150"/>
	<circle cx="516.412" cy="177.235" r="4" fill="#0" id="circle151"/>
	<circle cx="529.176" cy="252" r="4" fill="#0" id="circle152"/>
	<circle cx="534.647" cy="177.235" r="4" fill="#0" id="circle153"/>
	<circle cx="547.412" cy="252" r="4" fill="#0" id="circle154"/>
	<circle cx="552.882" cy="177.235" r="4" fill="#0" id="circle155"/>
	<circle cx="563.824" cy="242.882" r="4" fill="#0" id="circle156"/>
	<circle cx="571.118" cy="177.235" r="4" fill="#0" id="circle157"/>
	<circle cx="582.059" cy="242.882" r="4" fill="#0" id="circle158"/>
	<circle cx="589.353" cy="177.235" r="4" fill="#0" id="circle159"/>
	<circle cx="600.294" cy="242.882" r="4" fill="#0" id="circle160"/>
	<circle cx="607.588" cy="171.765" r="4" fill="#0" id="circle161"/>
	<circle cx="618.529" cy="242.882" r="4" fill="#0" id="circle162"/>
	<circle cx="625.824" cy="168.118" r="4" fill="#0" id="circle163"/>
	<circle cx="636.765" cy="242.882" r="4" fill="#0" id="circle164"/>
	<circle cx="644.059" cy="168.118" r="4" fill="#0" id="circle165"/>
	<circle cx="655" cy="242.882" r="4" fill="#0" id="circle166"/>
	<circle cx="662.294" cy="168.118" r="4" fill="#0" id="circle167"/>
	<circle cx="673.235" cy="242.882" r="4" fill="#0" id="circle168"/>
	<circle cx="680.529" cy="168.118" r="4" fill="#0" id="circle169"/>
	<circle cx="691.471" cy="242.882" r="4" fill="#0" id="circle170"/>
	<circle cx="696.941" cy="177.235" r="4" fill="#0" id="circle171"/>
	<circle cx="709.706" cy="242.882" r="4" fill="#0" id="circle172"/>
	<circle cx="715.176" cy="177.235" r="4" fill="#0" id="circle173"/>
	<circle cx="727.941" cy="248.353" r="4" fill="#0" id="circle174"/>
	<circle cx="733.412" cy="177.235" r="4" fill="#0" id="circle175"/>
	<circle cx="746.176" cy="252" r="4" fill="#0" id="circle176"/>
	<circle cx="749.824" cy="186.353" r="4" fill="#0" id="circle177"/>
	<circle cx="764.412" cy="252" r="4" fill="#0" id="circle178"/>
	<circle cx="768.059" cy="186.353" r="4" fill="#0" id="circle179"/>
	<circle cx="782.647" cy="252" r="4" fill="#0" id="circle180"/>
	<circle cx="786.294" cy="186.353" r="4" fill="#0" id="circle181"/>
	<circle cx="799.059" cy="261.118" r="4" fill="#0" id="circle182"/>
	<circle cx="804.529" cy="186.353" r="4" fill="#0" id="circle183"/>
	<circle cx="817.294" cy="261.118" r="4" fill="#0" id="circle184"/>
	<circle cx="822.765" cy="186.353" r="4" fill="#0" id="circle185"/>
	<circle cx="835.529" cy="261.118" r="4" fill="#0" id="circle186"/>
	<circle cx="841" cy="188.176" r="4" fill="#0" id="circle187"/>
	<circle cx="851.941" cy="270.235" r="4" fill="#0" id="circle188"/>
	<circle cx="859.235" cy="195.471" r="4" fill="#0" id="circle189"/>
	<circle cx="870.176" cy="270.235" r="4" fill="#0" id="circle190"/>
	<circle cx="877.471" cy="195.471" r="4" fill="#0" id="circle191"/>
	<circle cx="888.412" cy="270.235" r="4" fill="#0" id="circle192"/>
	<circle cx="895.706" cy="195.471" r="4" fill="#0" id="circle193"/>
	<circle cx="906.647" cy="270.235" r="4" fill="#0" id="circle194"/>
	<circle cx="913.941" cy="195.471" r="4" fill="#0" id="circle195"/>
	<circle cx="924.882" cy="270.235" r="4" fill="#0" id="circle196"/>
	<circle cx="932.176" cy="195.471" r="4" fill="#0" id="circle197"/>
	<circle cx="943.118" cy="270.235" r="4" fill="#0" id="circle198"/>
	<circle cx="950.412" cy="195.471" r="4" fill="#0" id="circle199"/>
	<circle cx="961.353" cy="270.235" r="4" fill="#0" id="circle200"/>
	<circle cx="968.647" cy="197.294" r="4" fill="#0" id="circle201"/>
	<circle cx="979.588" cy="270.235" r="4" fill="#0" id="circle202"/>
	<circle cx="981.412" cy="211.882" r="4" fill="#0" id="circle203"/>
	<circle cx="994.176" cy="259.294" r="4" fill="#0" id="circle204"/>
	<circle cx="996" cy="224.647" r="4" fill="#0" id="circle205"/>
	</g>
</svg>