<?xml version="1.0" encoding="UTF-8" standalone="no"?>
<!-- Created with CurveBenchmark -->
<svg
	xmlns:dc="http://purl.org/dc/elements/1.1/"
	xmlns:cc="http://creativecommons.org/ns#"
	xmlns:rdf="http://www.w3.org/1999/02/22-rdf-syntax-ns#"
	xmlns:svg="http://www.w3.org/2000/svg"
	xmlns="http://www.w3.org/2000/svg"
	xmlns:sodipodi="http://sodipodi.sourceforge.net/DTD/sodipodi-0.dtd"
	xmlns:inkscape="http://www.inkscape.org/namespaces/inkscape"
	width="1000"
	height="1000"
	id="svg2"
	version="1.1"
	sodipodi:docname="manifold/vicur-guitar005.png.txt">
<defs
	id="defs4" />
<metadata
	id="metadata7">
	<rdf:RDF>
		<cc:Work
			rdf:about="">
			<dc:format>image/svg+xml</dc:format>
			<dc:type
				rdf:resource="http://purl.org/dc/dcmitype/StillImage" />
			<dc:title></dc:title>
		</cc:Work>
	</rdf:RDF>
</metadata>
<g
	inkscape:label="Layer 1"
	inkscape:groupmode="layer"
	id="layer1">
	<path style="fill:none;stroke:red;stroke-width:1px;stroke-linecap:butt;stroke-linejoin:miter;stroke-opacity:1" d="M 4,822.4 4,857.829 z" id="boundary" inkscape:connector-curvature="0" />
	<path style="fill:none;stroke:red;stroke-width:1px;stroke-linecap:butt;stroke-linejoin:miter;stroke-opacity:1" d="M 4,822.4 18.1714,779.886 z" id="boundary" inkscape:connector-curvature="0" />
	<path style="fill:none;stroke:red;stroke-width:1px;stroke-linecap:butt;stroke-linejoin:miter;stroke-opacity:1" d="M 4,857.829 11.0857,893.257 z" id="boundary" inkscape:connector-curvature="0" />
	<path style="fill:none;stroke:red;stroke-width:1px;stroke-linecap:butt;stroke-linejoin:miter;stroke-opacity:1" d="M 11.0857,893.257 32.3429,921.6 z" id="boundary" inkscape:connector-curvature="0" />
	<path style="fill:none;stroke:red;stroke-width:1px;stroke-linecap:butt;stroke-linejoin:miter;stroke-opacity:1" d="M 18.1714,779.886 39.4286,744.457 z" id="boundary" inkscape:connector-curvature="0" />
	<path style="fill:none;stroke:red;stroke-width:1px;stroke-linecap:butt;stroke-linejoin:miter;stroke-opacity:1" d="M 32.3429,921.6 53.6,949.943 z" id="boundary" inkscape:connector-curvature="0" />
	<path style="fill:none;stroke:red;stroke-width:1px;stroke-linecap:butt;stroke-linejoin:miter;stroke-opacity:1" d="M 39.4286,744.457 60.6857,716.114 z" id="boundary" inkscape:connector-curvature="0" />
	<path style="fill:none;stroke:red;stroke-width:1px;stroke-linecap:butt;stroke-linejoin:miter;stroke-opacity:1" d="M 53.6,560.229 53.6,595.657 z" id="boundary" inkscape:connector-curvature="0" />
	<path style="fill:none;stroke:red;stroke-width:1px;stroke-linecap:butt;stroke-linejoin:miter;stroke-opacity:1" d="M 53.6,560.229 74.8571,531.886 z" id="boundary" inkscape:connector-curvature="0" />
	<path style="fill:none;stroke:red;stroke-width:1px;stroke-linecap:butt;stroke-linejoin:miter;stroke-opacity:1" d="M 53.6,595.657 64.2286,631.086 z" id="boundary" inkscape:connector-curvature="0" />
	<path style="fill:none;stroke:red;stroke-width:1px;stroke-linecap:butt;stroke-linejoin:miter;stroke-opacity:1" d="M 53.6,949.943 81.9429,971.2 z" id="boundary" inkscape:connector-curvature="0" />
	<path style="fill:none;stroke:red;stroke-width:1px;stroke-linecap:butt;stroke-linejoin:miter;stroke-opacity:1" d="M 60.6857,716.114 74.8571,666.514 z" id="boundary" inkscape:connector-curvature="0" />
	<path style="fill:none;stroke:red;stroke-width:1px;stroke-linecap:butt;stroke-linejoin:miter;stroke-opacity:1" d="M 64.2286,631.086 74.8571,666.514 z" id="boundary" inkscape:connector-curvature="0" />
	<path style="fill:none;stroke:red;stroke-width:1px;stroke-linecap:butt;stroke-linejoin:miter;stroke-opacity:1" d="M 74.8571,531.886 103.2,510.629 z" id="boundary" inkscape:connector-curvature="0" />
	<path style="fill:none;stroke:red;stroke-width:1px;stroke-linecap:butt;stroke-linejoin:miter;stroke-opacity:1" d="M 81.9429,971.2 117.371,985.371 z" id="boundary" inkscape:connector-curvature="0" />
	<path style="fill:none;stroke:red;stroke-width:1px;stroke-linecap:butt;stroke-linejoin:miter;stroke-opacity:1" d="M 103.2,510.629 138.629,503.543 z" id="boundary" inkscape:connector-curvature="0" />
	<path style="fill:none;stroke:red;stroke-width:1px;stroke-linecap:butt;stroke-linejoin:miter;stroke-opacity:1" d="M 117.371,985.371 152.8,996 z" id="boundary" inkscape:connector-curvature="0" />
	<path style="fill:none;stroke:red;stroke-width:1px;stroke-linecap:butt;stroke-linejoin:miter;stroke-opacity:1" d="M 138.629,503.543 174.057,489.371 z" id="boundary" inkscape:connector-curvature="0" />
	<path style="fill:none;stroke:red;stroke-width:1px;stroke-linecap:butt;stroke-linejoin:miter;stroke-opacity:1" d="M 152.8,996 188.229,996 z" id="boundary" inkscape:connector-curvature="0" />
	<path style="fill:none;stroke:red;stroke-width:1px;stroke-linecap:butt;stroke-linejoin:miter;stroke-opacity:1" d="M 159.886,28.8 159.886,64.2286 z" id="boundary" inkscape:connector-curvature="0" />
	<path style="fill:none;stroke:red;stroke-width:1px;stroke-linecap:butt;stroke-linejoin:miter;stroke-opacity:1" d="M 159.886,28.8 188.229,7.54286 z" id="boundary" inkscape:connector-curvature="0" />
	<path style="fill:none;stroke:red;stroke-width:1px;stroke-linecap:butt;stroke-linejoin:miter;stroke-opacity:1" d="M 159.886,64.2286 159.886,99.6571 z" id="boundary" inkscape:connector-curvature="0" />
	<path style="fill:none;stroke:red;stroke-width:1px;stroke-linecap:butt;stroke-linejoin:miter;stroke-opacity:1" d="M 159.886,99.6571 184.686,128 z" id="boundary" inkscape:connector-curvature="0" />
	<path style="fill:none;stroke:red;stroke-width:1px;stroke-linecap:butt;stroke-linejoin:miter;stroke-opacity:1" d="M 174.057,489.371 181.143,439.771 z" id="boundary" inkscape:connector-curvature="0" />
	<path style="fill:none;stroke:red;stroke-width:1px;stroke-linecap:butt;stroke-linejoin:miter;stroke-opacity:1" d="M 181.143,262.629 181.143,298.057 z" id="boundary" inkscape:connector-curvature="0" />
	<path style="fill:none;stroke:red;stroke-width:1px;stroke-linecap:butt;stroke-linejoin:miter;stroke-opacity:1" d="M 181.143,262.629 188.229,198.857 z" id="boundary" inkscape:connector-curvature="0" />
	<path style="fill:none;stroke:red;stroke-width:1px;stroke-linecap:butt;stroke-linejoin:miter;stroke-opacity:1" d="M 181.143,298.057 181.143,333.486 z" id="boundary" inkscape:connector-curvature="0" />
	<path style="fill:none;stroke:red;stroke-width:1px;stroke-linecap:butt;stroke-linejoin:miter;stroke-opacity:1" d="M 181.143,333.486 181.143,368.914 z" id="boundary" inkscape:connector-curvature="0" />
	<path style="fill:none;stroke:red;stroke-width:1px;stroke-linecap:butt;stroke-linejoin:miter;stroke-opacity:1" d="M 181.143,368.914 181.143,404.343 z" id="boundary" inkscape:connector-curvature="0" />
	<path style="fill:none;stroke:red;stroke-width:1px;stroke-linecap:butt;stroke-linejoin:miter;stroke-opacity:1" d="M 181.143,404.343 181.143,439.771 z" id="boundary" inkscape:connector-curvature="0" />
	<path style="fill:none;stroke:red;stroke-width:1px;stroke-linecap:butt;stroke-linejoin:miter;stroke-opacity:1" d="M 184.686,128 188.229,163.429 z" id="boundary" inkscape:connector-curvature="0" />
	<path style="fill:none;stroke:red;stroke-width:1px;stroke-linecap:butt;stroke-linejoin:miter;stroke-opacity:1" d="M 188.229,7.54286 223.657,4 z" id="boundary" inkscape:connector-curvature="0" />
	<path style="fill:none;stroke:red;stroke-width:1px;stroke-linecap:butt;stroke-linejoin:miter;stroke-opacity:1" d="M 188.229,163.429 188.229,198.857 z" id="boundary" inkscape:connector-curvature="0" />
	<path style="fill:none;stroke:red;stroke-width:1px;stroke-linecap:butt;stroke-linejoin:miter;stroke-opacity:1" d="M 188.229,996 223.657,996 z" id="boundary" inkscape:connector-curvature="0" />
	<path style="fill:none;stroke:red;stroke-width:1px;stroke-linecap:butt;stroke-linejoin:miter;stroke-opacity:1" d="M 223.657,4 241.371,42.9714 z" id="boundary" inkscape:connector-curvature="0" />
	<path style="fill:none;stroke:red;stroke-width:1px;stroke-linecap:butt;stroke-linejoin:miter;stroke-opacity:1" d="M 223.657,996 259.086,988.914 z" id="boundary" inkscape:connector-curvature="0" />
	<path style="fill:none;stroke:red;stroke-width:1px;stroke-linecap:butt;stroke-linejoin:miter;stroke-opacity:1" d="M 234.286,128 234.286,163.429 z" id="boundary" inkscape:connector-curvature="0" />
	<path style="fill:none;stroke:red;stroke-width:1px;stroke-linecap:butt;stroke-linejoin:miter;stroke-opacity:1" d="M 234.286,128 241.371,78.4 z" id="boundary" inkscape:connector-curvature="0" />
	<path style="fill:none;stroke:red;stroke-width:1px;stroke-linecap:butt;stroke-linejoin:miter;stroke-opacity:1" d="M 234.286,163.429 234.286,198.857 z" id="boundary" inkscape:connector-curvature="0" />
	<path style="fill:none;stroke:red;stroke-width:1px;stroke-linecap:butt;stroke-linejoin:miter;stroke-opacity:1" d="M 234.286,198.857 234.286,234.286 z" id="boundary" inkscape:connector-curvature="0" />
	<path style="fill:none;stroke:red;stroke-width:1px;stroke-linecap:butt;stroke-linejoin:miter;stroke-opacity:1" d="M 234.286,234.286 234.286,269.714 z" id="boundary" inkscape:connector-curvature="0" />
	<path style="fill:none;stroke:red;stroke-width:1px;stroke-linecap:butt;stroke-linejoin:miter;stroke-opacity:1" d="M 234.286,269.714 234.286,305.143 z" id="boundary" inkscape:connector-curvature="0" />
	<path style="fill:none;stroke:red;stroke-width:1px;stroke-linecap:butt;stroke-linejoin:miter;stroke-opacity:1" d="M 234.286,305.143 237.829,340.571 z" id="boundary" inkscape:connector-curvature="0" />
	<path style="fill:none;stroke:red;stroke-width:1px;stroke-linecap:butt;stroke-linejoin:miter;stroke-opacity:1" d="M 237.829,340.571 241.371,376 z" id="boundary" inkscape:connector-curvature="0" />
	<path style="fill:none;stroke:red;stroke-width:1px;stroke-linecap:butt;stroke-linejoin:miter;stroke-opacity:1" d="M 241.371,42.9714 241.371,78.4 z" id="boundary" inkscape:connector-curvature="0" />
	<path style="fill:none;stroke:red;stroke-width:1px;stroke-linecap:butt;stroke-linejoin:miter;stroke-opacity:1" d="M 241.371,376 241.371,411.429 z" id="boundary" inkscape:connector-curvature="0" />
	<path style="fill:none;stroke:red;stroke-width:1px;stroke-linecap:butt;stroke-linejoin:miter;stroke-opacity:1" d="M 241.371,411.429 241.371,446.857 z" id="boundary" inkscape:connector-curvature="0" />
	<path style="fill:none;stroke:red;stroke-width:1px;stroke-linecap:butt;stroke-linejoin:miter;stroke-opacity:1" d="M 241.371,446.857 241.371,482.286 z" id="boundary" inkscape:connector-curvature="0" />
	<path style="fill:none;stroke:red;stroke-width:1px;stroke-linecap:butt;stroke-linejoin:miter;stroke-opacity:1" d="M 241.371,482.286 241.371,517.714 z" id="boundary" inkscape:connector-curvature="0" />
	<path style="fill:none;stroke:red;stroke-width:1px;stroke-linecap:butt;stroke-linejoin:miter;stroke-opacity:1" d="M 241.371,517.714 248.457,553.143 z" id="boundary" inkscape:connector-curvature="0" />
	<path style="fill:none;stroke:red;stroke-width:1px;stroke-linecap:butt;stroke-linejoin:miter;stroke-opacity:1" d="M 248.457,553.143 273.257,581.486 z" id="boundary" inkscape:connector-curvature="0" />
	<path style="fill:none;stroke:red;stroke-width:1px;stroke-linecap:butt;stroke-linejoin:miter;stroke-opacity:1" d="M 259.086,988.914 294.514,981.829 z" id="boundary" inkscape:connector-curvature="0" />
	<path style="fill:none;stroke:red;stroke-width:1px;stroke-linecap:butt;stroke-linejoin:miter;stroke-opacity:1" d="M 273.257,581.486 308.686,574.4 z" id="boundary" inkscape:connector-curvature="0" />
	<path style="fill:none;stroke:red;stroke-width:1px;stroke-linecap:butt;stroke-linejoin:miter;stroke-opacity:1" d="M 294.514,981.829 329.943,967.657 z" id="boundary" inkscape:connector-curvature="0" />
	<path style="fill:none;stroke:red;stroke-width:1px;stroke-linecap:butt;stroke-linejoin:miter;stroke-opacity:1" d="M 308.686,574.4 329.943,546.057 z" id="boundary" inkscape:connector-curvature="0" />
	<path style="fill:none;stroke:red;stroke-width:1px;stroke-linecap:butt;stroke-linejoin:miter;stroke-opacity:1" d="M 329.943,546.057 358.286,567.314 z" id="boundary" inkscape:connector-curvature="0" />
	<path style="fill:none;stroke:red;stroke-width:1px;stroke-linecap:butt;stroke-linejoin:miter;stroke-opacity:1" d="M 329.943,967.657 358.286,946.4 z" id="boundary" inkscape:connector-curvature="0" />
	<path style="fill:none;stroke:red;stroke-width:1px;stroke-linecap:butt;stroke-linejoin:miter;stroke-opacity:1" d="M 333.486,652.343 333.486,687.771 z" id="boundary" inkscape:connector-curvature="0" />
	<path style="fill:none;stroke:red;stroke-width:1px;stroke-linecap:butt;stroke-linejoin:miter;stroke-opacity:1" d="M 333.486,652.343 351.2,620.457 z" id="boundary" inkscape:connector-curvature="0" />
	<path style="fill:none;stroke:red;stroke-width:1px;stroke-linecap:butt;stroke-linejoin:miter;stroke-opacity:1" d="M 333.486,687.771 351.2,719.657 z" id="boundary" inkscape:connector-curvature="0" />
	<path style="fill:none;stroke:red;stroke-width:1px;stroke-linecap:butt;stroke-linejoin:miter;stroke-opacity:1" d="M 351.2,620.457 358.286,567.314 z" id="boundary" inkscape:connector-curvature="0" />
	<path style="fill:none;stroke:red;stroke-width:1px;stroke-linecap:butt;stroke-linejoin:miter;stroke-opacity:1" d="M 351.2,719.657 372.457,748 z" id="boundary" inkscape:connector-curvature="0" />
	<path style="fill:none;stroke:red;stroke-width:1px;stroke-linecap:butt;stroke-linejoin:miter;stroke-opacity:1" d="M 358.286,946.4 379.543,918.057 z" id="boundary" inkscape:connector-curvature="0" />
	<path style="fill:none;stroke:red;stroke-width:1px;stroke-linecap:butt;stroke-linejoin:miter;stroke-opacity:1" d="M 372.457,748 390.171,779.886 z" id="boundary" inkscape:connector-curvature="0" />
	<path style="fill:none;stroke:red;stroke-width:1px;stroke-linecap:butt;stroke-linejoin:miter;stroke-opacity:1" d="M 379.543,918.057 397.257,872 z" id="boundary" inkscape:connector-curvature="0" />
	<path style="fill:none;stroke:red;stroke-width:1px;stroke-linecap:butt;stroke-linejoin:miter;stroke-opacity:1" d="M 390.171,779.886 397.257,815.314 z" id="boundary" inkscape:connector-curvature="0" />
	<path style="fill:none;stroke:red;stroke-width:1px;stroke-linecap:butt;stroke-linejoin:miter;stroke-opacity:1" d="M 397.257,815.314 397.257,872 z" id="boundary" inkscape:connector-curvature="0" />
	<circle cx="4" cy="822.4" r="4" fill="#0" id="circle0"/>
	<circle cx="4" cy="857.829" r="4" fill="#0" id="circle1"/>
	<circle cx="11.0857" cy="893.257" r="4" fill="#0" id="circle2"/>
	<circle cx="18.1714" cy="779.886" r="4" fill="#0" id="circle3"/>
	<circle cx="32.3429" cy="921.6" r="4" fill="#0" id="circle4"/>
	<circle cx="39.4286" cy="744.457" r="4" fill="#0" id="circle5"/>
	<circle cx="53.6" cy="560.229" r="4" fill="#0" id="circle6"/>
	<circle cx="53.6" cy="595.657" r="4" fill="#0" id="circle7"/>
	<circle cx="53.6" cy="949.943" r="4" fill="#0" id="circle8"/>
	<circle cx="60.6857" cy="716.114" r="4" fill="#0" id="circle9"/>
	<circle cx="64.2286" cy="631.086" r="4" fill="#0" id="circle10"/>
	<circle cx="74.8571" cy="531.886" r="4" fill="#0" id="circle11"/>
	<circle cx="74.8571" cy="666.514" r="4" fill="#0" id="circle12"/>
	<circle cx="81.9429" cy="971.2" r="4" fill="#0" id="circle13"/>
	<circle cx="103.2" cy="510.629" r="4" fill="#0" id="circle14"/>
	<circle cx="117.371" cy="985.371" r="4" fill="#0" id="circle15"/>
	<circle cx="138.629" cy="503.543" r="4" fill="#0" id="circle16"/>
	<circle cx="152.8" cy="996" r="4" fill="#0" id="circle17"/>
	<circle cx="159.886" cy="28.8" r="4" fill="#0" id="circle18"/>
	<circle cx="159.886" cy="64.2286" r="4" fill="#0" id="circle19"/>
	<circle cx="159.886" cy="99.6571" r="4" fill="#0" id="circle20"/>
	<circle cx="174.057" cy="489.371" r="4" fill="#0" id="circle21"/>
	<circle cx="181.143" cy="262.629" r="4" fill="#0" id="circle22"/>
	<circle cx="181.143" cy="298.057" r="4" fill="#0" id="circle23"/>
	<circle cx="181.143" cy="333.486" r="4" fill="#0" id="circle24"/>
	<circle cx="181.143" cy="368.914" r="4" fill="#0" id="circle25"/>
	<circle cx="181.143" cy="404.343" r="4" fill="#0" id="circle26"/>
	<circle cx="181.143" cy="439.771" r="4" fill="#0" id="circle27"/>
	<circle cx="184.686" cy="128" r="4" fill="#0" id="circle28"/>
	<circle cx="188.229" cy="7.54286" r="4" fill="#0" id="circle29"/>
	<circle cx="188.229" cy="163.429" r="4" fill="#0" id="circle30"/>
	<circle cx="188.229" cy="198.857" r="4" fill="#0" id="circle31"/>
	<circle cx="188.229" cy="996" r="4" fill="#0" id="circle32"/>
	<circle cx="223.657" cy="4" r="4" fill="#0" id="circle33"/>
	<circle cx="223.657" cy="996" r="4" fill="#0" id="circle34"/>
	<circle cx="234.286" cy="128" r="4" fill="#0" id="circle35"/>
	<circle cx="234.286" cy="163.429" r="4" fill="#0" id="circle36"/>
	<circle cx="234.286" cy="198.857" r="4" fill="#0" id="circle37"/>
	<circle cx="234.286" cy="234.286" r="4" fill="#0" id="circle38"/>
	<circle cx="234.286" cy="269.714" r="4" fill="#0" id="circle39"/>
	<circle cx="234.286" cy="305.143" r="4" fill="#0" id="circle40"/>
	<circle cx="237.829" cy="340.571" r="4" fill="#0" id="circle41"/>
	<circle cx="241.371" cy="42.9714" r="4" fill="#0" id="circle42"/>
	<circle cx="241.371" cy="78.4" r="4" fill="#0" id="circle43"/>
	<circle cx="241.371" cy="376" r="4" fill="#0" id="circle44"/>
	<circle cx="241.371" cy="411.429" r="4" fill="#0" id="circle45"/>
	<circle cx="241.371" cy="446.857" r="4" fill="#0" id="circle46"/>
	<circle cx="241.371" cy="482.286" r="4" fill="#0" id="circle47"/>
	<circle cx="241.371" cy="517.714" r="4" fill="#0" id="circle48"/>
	<circle cx="248.457" cy="553.143" r="4" fill="#0" id="circle49"/>
	<circle cx="259.086" cy="988.914" r="4" fill="#0" id="circle50"/>
	<circle cx="273.257" cy="581.486" r="4" fill="#0" id="circle51"/>
	<circle cx="294.514" cy="981.829" r="4" fill="#0" id="circle52"/>
	<circle cx="308.686" cy="574.4" r="4" fill="#0" id="circle53"/>
	<circle cx="329.943" cy="546.057" r="4" fill="#0" id="circle54"/>
	<circle cx="329.943" cy="967.657" r="4" fill="#0" id="circle55"/>
	<circle cx="333.486" cy="652.343" r="4" fill="#0" id="circle56"/>
	<circle cx="333.486" cy="687.771" r="4" fill="#0" id="circle57"/>
	<circle cx="351.2" cy="620.457" r="4" fill="#0" id="circle58"/>
	<circle cx="351.2" cy="719.657" r="4" fill="#0" id="circle59"/>
	<circle cx="358.286" cy="567.314" r="4" fill="#0" id="circle60"/>
	<circle cx="358.286" cy="946.4" r="4" fill="#0" id="circle61"/>
	<circle cx="372.457" cy="748" r="4" fill="#0" id="circle62"/>
	<circle cx="379.543" cy="918.057" r="4" fill="#0" id="circle63"/>
	<circle cx="390.171" cy="779.886" r="4" fill="#0" id="circle64"/>
	<circle cx="397.257" cy="815.314" r="4" fill="#0" id="circle65"/>
	<circle cx="397.257" cy="872" r="4" fill="#0" id="circle66"/>
	</g>
</svg>