<?xml version="1.0" encoding="UTF-8" standalone="no"?>
<!-- Created with CurveBenchmark -->
<svg
	xmlns:dc="http://purl.org/dc/elements/1.1/"
	xmlns:cc="http://creativecommons.org/ns#"
	xmlns:rdf="http://www.w3.org/1999/02/22-rdf-syntax-ns#"
	xmlns:svg="http://www.w3.org/2000/svg"
	xmlns="http://www.w3.org/2000/svg"
	xmlns:sodipodi="http://sodipodi.sourceforge.net/DTD/sodipodi-0.dtd"
	xmlns:inkscape="http://www.inkscape.org/namespaces/inkscape"
	width="1000"
	height="1000"
	id="svg2"
	version="1.1"
	sodipodi:docname="manifold/vicur-fish080.png.txt">
<defs
	id="defs4" />
<metadata
	id="metadata7">
	<rdf:RDF>
		<cc:Work
			rdf:about="">
			<dc:format>image/svg+xml</dc:format>
			<dc:type
				rdf:resource="http://purl.org/dc/dcmitype/StillImage" />
			<dc:title></dc:title>
		</cc:Work>
	</rdf:RDF>
</metadata>
<g
	inkscape:label="Layer 1"
	inkscape:groupmode="layer"
	id="layer1">
	<path style="fill:none;stroke:red;stroke-width:1px;stroke-linecap:butt;stroke-linejoin:miter;stroke-opacity:1" d="M 4,496.919 4,558.534 z" id="boundary" inkscape:connector-curvature="0" />
	<path style="fill:none;stroke:red;stroke-width:1px;stroke-linecap:butt;stroke-linejoin:miter;stroke-opacity:1" d="M 4,496.919 40.9689,447.627 z" id="boundary" inkscape:connector-curvature="0" />
	<path style="fill:none;stroke:red;stroke-width:1px;stroke-linecap:butt;stroke-linejoin:miter;stroke-opacity:1" d="M 4,558.534 16.323,620.149 z" id="boundary" inkscape:connector-curvature="0" />
	<path style="fill:none;stroke:red;stroke-width:1px;stroke-linecap:butt;stroke-linejoin:miter;stroke-opacity:1" d="M 16.323,620.149 34.8075,681.764 z" id="boundary" inkscape:connector-curvature="0" />
	<path style="fill:none;stroke:red;stroke-width:1px;stroke-linecap:butt;stroke-linejoin:miter;stroke-opacity:1" d="M 34.8075,681.764 71.7764,731.056 z" id="boundary" inkscape:connector-curvature="0" />
	<path style="fill:none;stroke:red;stroke-width:1px;stroke-linecap:butt;stroke-linejoin:miter;stroke-opacity:1" d="M 40.9689,386.012 40.9689,447.627 z" id="boundary" inkscape:connector-curvature="0" />
	<path style="fill:none;stroke:red;stroke-width:1px;stroke-linecap:butt;stroke-linejoin:miter;stroke-opacity:1" d="M 40.9689,386.012 65.6149,324.398 z" id="boundary" inkscape:connector-curvature="0" />
	<path style="fill:none;stroke:red;stroke-width:1px;stroke-linecap:butt;stroke-linejoin:miter;stroke-opacity:1" d="M 65.6149,324.398 114.907,287.429 z" id="boundary" inkscape:connector-curvature="0" />
	<path style="fill:none;stroke:red;stroke-width:1px;stroke-linecap:butt;stroke-linejoin:miter;stroke-opacity:1" d="M 71.7764,731.056 133.391,737.217 z" id="boundary" inkscape:connector-curvature="0" />
	<path style="fill:none;stroke:red;stroke-width:1px;stroke-linecap:butt;stroke-linejoin:miter;stroke-opacity:1" d="M 102.584,940.547 127.23,854.286 z" id="boundary" inkscape:connector-curvature="0" />
	<path style="fill:none;stroke:red;stroke-width:1px;stroke-linecap:butt;stroke-linejoin:miter;stroke-opacity:1" d="M 102.584,940.547 133.391,996 z" id="boundary" inkscape:connector-curvature="0" />
	<path style="fill:none;stroke:red;stroke-width:1px;stroke-linecap:butt;stroke-linejoin:miter;stroke-opacity:1" d="M 114.907,287.429 164.199,238.137 z" id="boundary" inkscape:connector-curvature="0" />
	<path style="fill:none;stroke:red;stroke-width:1px;stroke-linecap:butt;stroke-linejoin:miter;stroke-opacity:1" d="M 127.23,854.286 133.391,737.217 z" id="boundary" inkscape:connector-curvature="0" />
	<path style="fill:none;stroke:red;stroke-width:1px;stroke-linecap:butt;stroke-linejoin:miter;stroke-opacity:1" d="M 133.391,996 170.36,940.547 z" id="boundary" inkscape:connector-curvature="0" />
	<path style="fill:none;stroke:red;stroke-width:1px;stroke-linecap:butt;stroke-linejoin:miter;stroke-opacity:1" d="M 164.199,238.137 225.814,213.491 z" id="boundary" inkscape:connector-curvature="0" />
	<path style="fill:none;stroke:red;stroke-width:1px;stroke-linecap:butt;stroke-linejoin:miter;stroke-opacity:1" d="M 170.36,940.547 207.329,878.932 z" id="boundary" inkscape:connector-curvature="0" />
	<path style="fill:none;stroke:red;stroke-width:1px;stroke-linecap:butt;stroke-linejoin:miter;stroke-opacity:1" d="M 207.329,878.932 238.137,823.478 z" id="boundary" inkscape:connector-curvature="0" />
	<path style="fill:none;stroke:red;stroke-width:1px;stroke-linecap:butt;stroke-linejoin:miter;stroke-opacity:1" d="M 225.814,213.491 250.46,102.584 z" id="boundary" inkscape:connector-curvature="0" />
	<path style="fill:none;stroke:red;stroke-width:1px;stroke-linecap:butt;stroke-linejoin:miter;stroke-opacity:1" d="M 238.137,823.478 275.106,774.186 z" id="boundary" inkscape:connector-curvature="0" />
	<path style="fill:none;stroke:red;stroke-width:1px;stroke-linecap:butt;stroke-linejoin:miter;stroke-opacity:1" d="M 250.46,102.584 262.783,4 z" id="boundary" inkscape:connector-curvature="0" />
	<path style="fill:none;stroke:red;stroke-width:1px;stroke-linecap:butt;stroke-linejoin:miter;stroke-opacity:1" d="M 262.783,4 318.236,34.8075 z" id="boundary" inkscape:connector-curvature="0" />
	<path style="fill:none;stroke:red;stroke-width:1px;stroke-linecap:butt;stroke-linejoin:miter;stroke-opacity:1" d="M 275.106,774.186 336.72,792.671 z" id="boundary" inkscape:connector-curvature="0" />
	<path style="fill:none;stroke:red;stroke-width:1px;stroke-linecap:butt;stroke-linejoin:miter;stroke-opacity:1" d="M 318.236,34.8075 349.043,90.2609 z" id="boundary" inkscape:connector-curvature="0" />
	<path style="fill:none;stroke:red;stroke-width:1px;stroke-linecap:butt;stroke-linejoin:miter;stroke-opacity:1" d="M 336.72,792.671 367.528,848.124 z" id="boundary" inkscape:connector-curvature="0" />
	<path style="fill:none;stroke:red;stroke-width:1px;stroke-linecap:butt;stroke-linejoin:miter;stroke-opacity:1" d="M 349.043,90.2609 367.528,151.876 z" id="boundary" inkscape:connector-curvature="0" />
	<path style="fill:none;stroke:red;stroke-width:1px;stroke-linecap:butt;stroke-linejoin:miter;stroke-opacity:1" d="M 367.528,151.876 429.143,164.199 z" id="boundary" inkscape:connector-curvature="0" />
	<path style="fill:none;stroke:red;stroke-width:1px;stroke-linecap:butt;stroke-linejoin:miter;stroke-opacity:1" d="M 367.528,848.124 398.335,903.578 z" id="boundary" inkscape:connector-curvature="0" />
	<path style="fill:none;stroke:red;stroke-width:1px;stroke-linecap:butt;stroke-linejoin:miter;stroke-opacity:1" d="M 398.335,903.578 435.304,952.87 z" id="boundary" inkscape:connector-curvature="0" />
	<path style="fill:none;stroke:red;stroke-width:1px;stroke-linecap:butt;stroke-linejoin:miter;stroke-opacity:1" d="M 429.143,164.199 447.627,225.814 z" id="boundary" inkscape:connector-curvature="0" />
	<path style="fill:none;stroke:red;stroke-width:1px;stroke-linecap:butt;stroke-linejoin:miter;stroke-opacity:1" d="M 435.304,786.509 453.789,848.124 z" id="boundary" inkscape:connector-curvature="0" />
	<path style="fill:none;stroke:red;stroke-width:1px;stroke-linecap:butt;stroke-linejoin:miter;stroke-opacity:1" d="M 435.304,786.509 466.112,731.056 z" id="boundary" inkscape:connector-curvature="0" />
	<path style="fill:none;stroke:red;stroke-width:1px;stroke-linecap:butt;stroke-linejoin:miter;stroke-opacity:1" d="M 435.304,952.87 490.758,983.677 z" id="boundary" inkscape:connector-curvature="0" />
	<path style="fill:none;stroke:red;stroke-width:1px;stroke-linecap:butt;stroke-linejoin:miter;stroke-opacity:1" d="M 447.627,225.814 459.95,287.429 z" id="boundary" inkscape:connector-curvature="0" />
	<path style="fill:none;stroke:red;stroke-width:1px;stroke-linecap:butt;stroke-linejoin:miter;stroke-opacity:1" d="M 453.789,848.124 484.596,909.739 z" id="boundary" inkscape:connector-curvature="0" />
	<path style="fill:none;stroke:red;stroke-width:1px;stroke-linecap:butt;stroke-linejoin:miter;stroke-opacity:1" d="M 459.95,287.429 546.211,355.205 z" id="boundary" inkscape:connector-curvature="0" />
	<path style="fill:none;stroke:red;stroke-width:1px;stroke-linecap:butt;stroke-linejoin:miter;stroke-opacity:1" d="M 466.112,731.056 527.727,737.217 z" id="boundary" inkscape:connector-curvature="0" />
	<path style="fill:none;stroke:red;stroke-width:1px;stroke-linecap:butt;stroke-linejoin:miter;stroke-opacity:1" d="M 484.596,909.739 490.758,983.677 z" id="boundary" inkscape:connector-curvature="0" />
	<path style="fill:none;stroke:red;stroke-width:1px;stroke-linecap:butt;stroke-linejoin:miter;stroke-opacity:1" d="M 527.727,737.217 589.342,712.571 z" id="boundary" inkscape:connector-curvature="0" />
	<path style="fill:none;stroke:red;stroke-width:1px;stroke-linecap:butt;stroke-linejoin:miter;stroke-opacity:1" d="M 540.05,422.981 540.05,484.596 z" id="boundary" inkscape:connector-curvature="0" />
	<path style="fill:none;stroke:red;stroke-width:1px;stroke-linecap:butt;stroke-linejoin:miter;stroke-opacity:1" d="M 540.05,422.981 546.211,355.205 z" id="boundary" inkscape:connector-curvature="0" />
	<path style="fill:none;stroke:red;stroke-width:1px;stroke-linecap:butt;stroke-linejoin:miter;stroke-opacity:1" d="M 540.05,484.596 601.665,484.596 z" id="boundary" inkscape:connector-curvature="0" />
	<path style="fill:none;stroke:red;stroke-width:1px;stroke-linecap:butt;stroke-linejoin:miter;stroke-opacity:1" d="M 589.342,712.571 632.472,663.28 z" id="boundary" inkscape:connector-curvature="0" />
	<path style="fill:none;stroke:red;stroke-width:1px;stroke-linecap:butt;stroke-linejoin:miter;stroke-opacity:1" d="M 601.665,484.596 638.634,533.888 z" id="boundary" inkscape:connector-curvature="0" />
	<path style="fill:none;stroke:red;stroke-width:1px;stroke-linecap:butt;stroke-linejoin:miter;stroke-opacity:1" d="M 632.472,663.28 650.957,595.503 z" id="boundary" inkscape:connector-curvature="0" />
	<path style="fill:none;stroke:red;stroke-width:1px;stroke-linecap:butt;stroke-linejoin:miter;stroke-opacity:1" d="M 638.634,533.888 650.957,595.503 z" id="boundary" inkscape:connector-curvature="0" />
	<circle cx="4" cy="496.919" r="4" fill="#0" id="circle0"/>
	<circle cx="4" cy="558.534" r="4" fill="#0" id="circle1"/>
	<circle cx="16.323" cy="620.149" r="4" fill="#0" id="circle2"/>
	<circle cx="34.8075" cy="681.764" r="4" fill="#0" id="circle3"/>
	<circle cx="40.9689" cy="386.012" r="4" fill="#0" id="circle4"/>
	<circle cx="40.9689" cy="447.627" r="4" fill="#0" id="circle5"/>
	<circle cx="65.6149" cy="324.398" r="4" fill="#0" id="circle6"/>
	<circle cx="71.7764" cy="731.056" r="4" fill="#0" id="circle7"/>
	<circle cx="102.584" cy="940.547" r="4" fill="#0" id="circle8"/>
	<circle cx="114.907" cy="287.429" r="4" fill="#0" id="circle9"/>
	<circle cx="127.23" cy="854.286" r="4" fill="#0" id="circle10"/>
	<circle cx="133.391" cy="737.217" r="4" fill="#0" id="circle11"/>
	<circle cx="133.391" cy="996" r="4" fill="#0" id="circle12"/>
	<circle cx="164.199" cy="238.137" r="4" fill="#0" id="circle13"/>
	<circle cx="170.36" cy="940.547" r="4" fill="#0" id="circle14"/>
	<circle cx="207.329" cy="878.932" r="4" fill="#0" id="circle15"/>
	<circle cx="225.814" cy="213.491" r="4" fill="#0" id="circle16"/>
	<circle cx="238.137" cy="823.478" r="4" fill="#0" id="circle17"/>
	<circle cx="250.46" cy="102.584" r="4" fill="#0" id="circle18"/>
	<circle cx="262.783" cy="4" r="4" fill="#0" id="circle19"/>
	<circle cx="275.106" cy="774.186" r="4" fill="#0" id="circle20"/>
	<circle cx="318.236" cy="34.8075" r="4" fill="#0" id="circle21"/>
	<circle cx="336.72" cy="792.671" r="4" fill="#0" id="circle22"/>
	<circle cx="349.043" cy="90.2609" r="4" fill="#0" id="circle23"/>
	<circle cx="367.528" cy="151.876" r="4" fill="#0" id="circle24"/>
	<circle cx="367.528" cy="848.124" r="4" fill="#0" id="circle25"/>
	<circle cx="398.335" cy="903.578" r="4" fill="#0" id="circle26"/>
	<circle cx="429.143" cy="164.199" r="4" fill="#0" id="circle27"/>
	<circle cx="435.304" cy="786.509" r="4" fill="#0" id="circle28"/>
	<circle cx="435.304" cy="952.87" r="4" fill="#0" id="circle29"/>
	<circle cx="447.627" cy="225.814" r="4" fill="#0" id="circle30"/>
	<circle cx="453.789" cy="848.124" r="4" fill="#0" id="circle31"/>
	<circle cx="459.95" cy="287.429" r="4" fill="#0" id="circle32"/>
	<circle cx="466.112" cy="731.056" r="4" fill="#0" id="circle33"/>
	<circle cx="484.596" cy="909.739" r="4" fill="#0" id="circle34"/>
	<circle cx="490.758" cy="983.677" r="4" fill="#0" id="circle35"/>
	<circle cx="515.404" cy="256.621" r="4" fill="#0" id="circle36"/>
	<circle cx="527.727" cy="737.217" r="4" fill="#0" id="circle37"/>
	<circle cx="540.05" cy="422.981" r="4" fill="#0" id="circle38"/>
	<circle cx="540.05" cy="484.596" r="4" fill="#0" id="circle39"/>
	<circle cx="546.211" cy="355.205" r="4" fill="#0" id="circle40"/>
	<circle cx="589.342" cy="712.571" r="4" fill="#0" id="circle41"/>
	<circle cx="601.665" cy="484.596" r="4" fill="#0" id="circle42"/>
	<circle cx="632.472" cy="663.28" r="4" fill="#0" id="circle43"/>
	<circle cx="638.634" cy="533.888" r="4" fill="#0" id="circle44"/>
	<circle cx="650.957" cy="595.503" r="4" fill="#0" id="circle45"/>
	</g>
</svg>