<?xml version="1.0" encoding="UTF-8" standalone="no"?>
<!-- Created with CurveBenchmark -->
<svg
	xmlns:dc="http://purl.org/dc/elements/1.1/"
	xmlns:cc="http://creativecommons.org/ns#"
	xmlns:rdf="http://www.w3.org/1999/02/22-rdf-syntax-ns#"
	xmlns:svg="http://www.w3.org/2000/svg"
	xmlns="http://www.w3.org/2000/svg"
	xmlns:sodipodi="http://sodipodi.sourceforge.net/DTD/sodipodi-0.dtd"
	xmlns:inkscape="http://www.inkscape.org/namespaces/inkscape"
	width="1000"
	height="1000"
	id="svg2"
	version="1.1"
	sodipodi:docname="manifold/vicur-octopus-19.png.txt">
<defs
	id="defs4" />
<metadata
	id="metadata7">
	<rdf:RDF>
		<cc:Work
			rdf:about="">
			<dc:format>image/svg+xml</dc:format>
			<dc:type
				rdf:resource="http://purl.org/dc/dcmitype/StillImage" />
			<dc:title></dc:title>
		</cc:Work>
	</rdf:RDF>
</metadata>
<g
	inkscape:label="Layer 1"
	inkscape:groupmode="layer"
	id="layer1">
	<path style="fill:none;stroke:red;stroke-width:1px;stroke-linecap:butt;stroke-linejoin:miter;stroke-opacity:1" d="M 4,687.088 4,701.591 z" id="boundary" inkscape:connector-curvature="0" />
	<path style="fill:none;stroke:red;stroke-width:1px;stroke-linecap:butt;stroke-linejoin:miter;stroke-opacity:1" d="M 4,687.088 11.2515,672.585 z" id="boundary" inkscape:connector-curvature="0" />
	<path style="fill:none;stroke:red;stroke-width:1px;stroke-linecap:butt;stroke-linejoin:miter;stroke-opacity:1" d="M 4,701.591 4,716.094 z" id="boundary" inkscape:connector-curvature="0" />
	<path style="fill:none;stroke:red;stroke-width:1px;stroke-linecap:butt;stroke-linejoin:miter;stroke-opacity:1" d="M 4,716.094 11.2515,729.146 z" id="boundary" inkscape:connector-curvature="0" />
	<path style="fill:none;stroke:red;stroke-width:1px;stroke-linecap:butt;stroke-linejoin:miter;stroke-opacity:1" d="M 11.2515,658.082 11.2515,672.585 z" id="boundary" inkscape:connector-curvature="0" />
	<path style="fill:none;stroke:red;stroke-width:1px;stroke-linecap:butt;stroke-linejoin:miter;stroke-opacity:1" d="M 11.2515,658.082 18.5029,643.579 z" id="boundary" inkscape:connector-curvature="0" />
	<path style="fill:none;stroke:red;stroke-width:1px;stroke-linecap:butt;stroke-linejoin:miter;stroke-opacity:1" d="M 11.2515,729.146 21.4035,740.749 z" id="boundary" inkscape:connector-curvature="0" />
	<path style="fill:none;stroke:red;stroke-width:1px;stroke-linecap:butt;stroke-linejoin:miter;stroke-opacity:1" d="M 18.5029,643.579 30.1053,631.977 z" id="boundary" inkscape:connector-curvature="0" />
	<path style="fill:none;stroke:red;stroke-width:1px;stroke-linecap:butt;stroke-linejoin:miter;stroke-opacity:1" d="M 21.4035,740.749 35.9064,746.55 z" id="boundary" inkscape:connector-curvature="0" />
	<path style="fill:none;stroke:red;stroke-width:1px;stroke-linecap:butt;stroke-linejoin:miter;stroke-opacity:1" d="M 30.1053,631.977 43.1579,624.725 z" id="boundary" inkscape:connector-curvature="0" />
	<path style="fill:none;stroke:red;stroke-width:1px;stroke-linecap:butt;stroke-linejoin:miter;stroke-opacity:1" d="M 35.9064,746.55 50.4094,749.45 z" id="boundary" inkscape:connector-curvature="0" />
	<path style="fill:none;stroke:red;stroke-width:1px;stroke-linecap:butt;stroke-linejoin:miter;stroke-opacity:1" d="M 43.1579,624.725 54.7602,607.322 z" id="boundary" inkscape:connector-curvature="0" />
	<path style="fill:none;stroke:red;stroke-width:1px;stroke-linecap:butt;stroke-linejoin:miter;stroke-opacity:1" d="M 50.4094,749.45 64.9123,753.801 z" id="boundary" inkscape:connector-curvature="0" />
	<path style="fill:none;stroke:red;stroke-width:1px;stroke-linecap:butt;stroke-linejoin:miter;stroke-opacity:1" d="M 54.7602,607.322 66.3626,595.719 z" id="boundary" inkscape:connector-curvature="0" />
	<path style="fill:none;stroke:red;stroke-width:1px;stroke-linecap:butt;stroke-linejoin:miter;stroke-opacity:1" d="M 64.9123,753.801 79.4152,756.702 z" id="boundary" inkscape:connector-curvature="0" />
	<path style="fill:none;stroke:red;stroke-width:1px;stroke-linecap:butt;stroke-linejoin:miter;stroke-opacity:1" d="M 66.3626,595.719 77.9649,584.117 z" id="boundary" inkscape:connector-curvature="0" />
	<path style="fill:none;stroke:red;stroke-width:1px;stroke-linecap:butt;stroke-linejoin:miter;stroke-opacity:1" d="M 69.2632,222.994 69.2632,237.497 z" id="boundary" inkscape:connector-curvature="0" />
	<path style="fill:none;stroke:red;stroke-width:1px;stroke-linecap:butt;stroke-linejoin:miter;stroke-opacity:1" d="M 69.2632,222.994 80.8655,211.392 z" id="boundary" inkscape:connector-curvature="0" />
	<path style="fill:none;stroke:red;stroke-width:1px;stroke-linecap:butt;stroke-linejoin:miter;stroke-opacity:1" d="M 69.2632,237.497 69.2632,252 z" id="boundary" inkscape:connector-curvature="0" />
	<path style="fill:none;stroke:red;stroke-width:1px;stroke-linecap:butt;stroke-linejoin:miter;stroke-opacity:1" d="M 69.2632,252 76.5146,265.053 z" id="boundary" inkscape:connector-curvature="0" />
	<path style="fill:none;stroke:red;stroke-width:1px;stroke-linecap:butt;stroke-linejoin:miter;stroke-opacity:1" d="M 76.5146,265.053 76.5146,279.556 z" id="boundary" inkscape:connector-curvature="0" />
	<path style="fill:none;stroke:red;stroke-width:1px;stroke-linecap:butt;stroke-linejoin:miter;stroke-opacity:1" d="M 76.5146,279.556 83.7661,292.608 z" id="boundary" inkscape:connector-curvature="0" />
	<path style="fill:none;stroke:red;stroke-width:1px;stroke-linecap:butt;stroke-linejoin:miter;stroke-opacity:1" d="M 77.9649,584.117 89.5673,573.965 z" id="boundary" inkscape:connector-curvature="0" />
	<path style="fill:none;stroke:red;stroke-width:1px;stroke-linecap:butt;stroke-linejoin:miter;stroke-opacity:1" d="M 79.4152,756.702 92.4678,763.953 z" id="boundary" inkscape:connector-curvature="0" />
	<path style="fill:none;stroke:red;stroke-width:1px;stroke-linecap:butt;stroke-linejoin:miter;stroke-opacity:1" d="M 80.8655,211.392 93.9181,204.14 z" id="boundary" inkscape:connector-curvature="0" />
	<path style="fill:none;stroke:red;stroke-width:1px;stroke-linecap:butt;stroke-linejoin:miter;stroke-opacity:1" d="M 83.7661,292.608 88.117,307.111 z" id="boundary" inkscape:connector-curvature="0" />
	<path style="fill:none;stroke:red;stroke-width:1px;stroke-linecap:butt;stroke-linejoin:miter;stroke-opacity:1" d="M 88.117,307.111 101.17,314.363 z" id="boundary" inkscape:connector-curvature="0" />
	<path style="fill:none;stroke:red;stroke-width:1px;stroke-linecap:butt;stroke-linejoin:miter;stroke-opacity:1" d="M 89.5673,573.965 102.62,566.713 z" id="boundary" inkscape:connector-curvature="0" />
	<path style="fill:none;stroke:red;stroke-width:1px;stroke-linecap:butt;stroke-linejoin:miter;stroke-opacity:1" d="M 92.4678,763.953 99.7193,742.199 z" id="boundary" inkscape:connector-curvature="0" />
	<path style="fill:none;stroke:red;stroke-width:1px;stroke-linecap:butt;stroke-linejoin:miter;stroke-opacity:1" d="M 93.9181,204.14 108.421,204.14 z" id="boundary" inkscape:connector-curvature="0" />
	<path style="fill:none;stroke:red;stroke-width:1px;stroke-linecap:butt;stroke-linejoin:miter;stroke-opacity:1" d="M 99.7193,742.199 106.971,720.444 z" id="boundary" inkscape:connector-curvature="0" />
	<path style="fill:none;stroke:red;stroke-width:1px;stroke-linecap:butt;stroke-linejoin:miter;stroke-opacity:1" d="M 101.17,314.363 115.673,314.363 z" id="boundary" inkscape:connector-curvature="0" />
	<path style="fill:none;stroke:red;stroke-width:1px;stroke-linecap:butt;stroke-linejoin:miter;stroke-opacity:1" d="M 102.62,566.713 115.673,559.462 z" id="boundary" inkscape:connector-curvature="0" />
	<path style="fill:none;stroke:red;stroke-width:1px;stroke-linecap:butt;stroke-linejoin:miter;stroke-opacity:1" d="M 106.971,720.444 114.222,705.942 z" id="boundary" inkscape:connector-curvature="0" />
	<path style="fill:none;stroke:red;stroke-width:1px;stroke-linecap:butt;stroke-linejoin:miter;stroke-opacity:1" d="M 108.421,204.14 122.924,204.14 z" id="boundary" inkscape:connector-curvature="0" />
	<path style="fill:none;stroke:red;stroke-width:1px;stroke-linecap:butt;stroke-linejoin:miter;stroke-opacity:1" d="M 114.222,705.942 125.825,695.789 z" id="boundary" inkscape:connector-curvature="0" />
	<path style="fill:none;stroke:red;stroke-width:1px;stroke-linecap:butt;stroke-linejoin:miter;stroke-opacity:1" d="M 115.673,314.363 130.175,318.713 z" id="boundary" inkscape:connector-curvature="0" />
	<path style="fill:none;stroke:red;stroke-width:1px;stroke-linecap:butt;stroke-linejoin:miter;stroke-opacity:1" d="M 115.673,559.462 130.175,553.661 z" id="boundary" inkscape:connector-curvature="0" />
	<path style="fill:none;stroke:red;stroke-width:1px;stroke-linecap:butt;stroke-linejoin:miter;stroke-opacity:1" d="M 122.924,204.14 135.977,211.392 z" id="boundary" inkscape:connector-curvature="0" />
	<path style="fill:none;stroke:red;stroke-width:1px;stroke-linecap:butt;stroke-linejoin:miter;stroke-opacity:1" d="M 125.825,695.789 135.977,676.936 z" id="boundary" inkscape:connector-curvature="0" />
	<path style="fill:none;stroke:red;stroke-width:1px;stroke-linecap:butt;stroke-linejoin:miter;stroke-opacity:1" d="M 130.175,318.713 144.678,321.614 z" id="boundary" inkscape:connector-curvature="0" />
	<path style="fill:none;stroke:red;stroke-width:1px;stroke-linecap:butt;stroke-linejoin:miter;stroke-opacity:1" d="M 130.175,553.661 144.678,552.211 z" id="boundary" inkscape:connector-curvature="0" />
	<path style="fill:none;stroke:red;stroke-width:1px;stroke-linecap:butt;stroke-linejoin:miter;stroke-opacity:1" d="M 135.977,211.392 150.48,211.392 z" id="boundary" inkscape:connector-curvature="0" />
	<path style="fill:none;stroke:red;stroke-width:1px;stroke-linecap:butt;stroke-linejoin:miter;stroke-opacity:1" d="M 135.977,676.936 147.579,666.784 z" id="boundary" inkscape:connector-curvature="0" />
	<path style="fill:none;stroke:red;stroke-width:1px;stroke-linecap:butt;stroke-linejoin:miter;stroke-opacity:1" d="M 144.678,321.614 159.181,325.965 z" id="boundary" inkscape:connector-curvature="0" />
	<path style="fill:none;stroke:red;stroke-width:1px;stroke-linecap:butt;stroke-linejoin:miter;stroke-opacity:1" d="M 144.678,552.211 159.181,546.409 z" id="boundary" inkscape:connector-curvature="0" />
	<path style="fill:none;stroke:red;stroke-width:1px;stroke-linecap:butt;stroke-linejoin:miter;stroke-opacity:1" d="M 147.579,666.784 162.082,659.532 z" id="boundary" inkscape:connector-curvature="0" />
	<path style="fill:none;stroke:red;stroke-width:1px;stroke-linecap:butt;stroke-linejoin:miter;stroke-opacity:1" d="M 150.48,211.392 164.982,215.743 z" id="boundary" inkscape:connector-curvature="0" />
	<path style="fill:none;stroke:red;stroke-width:1px;stroke-linecap:butt;stroke-linejoin:miter;stroke-opacity:1" d="M 159.181,325.965 170.784,336.117 z" id="boundary" inkscape:connector-curvature="0" />
	<path style="fill:none;stroke:red;stroke-width:1px;stroke-linecap:butt;stroke-linejoin:miter;stroke-opacity:1" d="M 159.181,546.409 173.684,544.959 z" id="boundary" inkscape:connector-curvature="0" />
	<path style="fill:none;stroke:red;stroke-width:1px;stroke-linecap:butt;stroke-linejoin:miter;stroke-opacity:1" d="M 162.082,659.532 176.585,655.181 z" id="boundary" inkscape:connector-curvature="0" />
	<path style="fill:none;stroke:red;stroke-width:1px;stroke-linecap:butt;stroke-linejoin:miter;stroke-opacity:1" d="M 164.982,215.743 179.485,218.643 z" id="boundary" inkscape:connector-curvature="0" />
	<path style="fill:none;stroke:red;stroke-width:1px;stroke-linecap:butt;stroke-linejoin:miter;stroke-opacity:1" d="M 170.784,336.117 179.485,347.719 z" id="boundary" inkscape:connector-curvature="0" />
	<path style="fill:none;stroke:red;stroke-width:1px;stroke-linecap:butt;stroke-linejoin:miter;stroke-opacity:1" d="M 173.684,544.959 185.287,534.807 z" id="boundary" inkscape:connector-curvature="0" />
	<path style="fill:none;stroke:red;stroke-width:1px;stroke-linecap:butt;stroke-linejoin:miter;stroke-opacity:1" d="M 176.585,655.181 191.088,652.281 z" id="boundary" inkscape:connector-curvature="0" />
	<path style="fill:none;stroke:red;stroke-width:1px;stroke-linecap:butt;stroke-linejoin:miter;stroke-opacity:1" d="M 179.485,218.643 193.988,222.994 z" id="boundary" inkscape:connector-curvature="0" />
	<path style="fill:none;stroke:red;stroke-width:1px;stroke-linecap:butt;stroke-linejoin:miter;stroke-opacity:1" d="M 179.485,347.719 193.988,353.52 z" id="boundary" inkscape:connector-curvature="0" />
	<path style="fill:none;stroke:red;stroke-width:1px;stroke-linecap:butt;stroke-linejoin:miter;stroke-opacity:1" d="M 185.287,476.795 185.287,491.298 z" id="boundary" inkscape:connector-curvature="0" />
	<path style="fill:none;stroke:red;stroke-width:1px;stroke-linecap:butt;stroke-linejoin:miter;stroke-opacity:1" d="M 185.287,476.795 192.538,455.041 z" id="boundary" inkscape:connector-curvature="0" />
	<path style="fill:none;stroke:red;stroke-width:1px;stroke-linecap:butt;stroke-linejoin:miter;stroke-opacity:1" d="M 185.287,491.298 185.287,505.801 z" id="boundary" inkscape:connector-curvature="0" />
	<path style="fill:none;stroke:red;stroke-width:1px;stroke-linecap:butt;stroke-linejoin:miter;stroke-opacity:1" d="M 185.287,505.801 185.287,520.304 z" id="boundary" inkscape:connector-curvature="0" />
	<path style="fill:none;stroke:red;stroke-width:1px;stroke-linecap:butt;stroke-linejoin:miter;stroke-opacity:1" d="M 185.287,520.304 185.287,534.807 z" id="boundary" inkscape:connector-curvature="0" />
	<path style="fill:none;stroke:red;stroke-width:1px;stroke-linecap:butt;stroke-linejoin:miter;stroke-opacity:1" d="M 191.088,652.281 205.591,647.93 z" id="boundary" inkscape:connector-curvature="0" />
	<path style="fill:none;stroke:red;stroke-width:1px;stroke-linecap:butt;stroke-linejoin:miter;stroke-opacity:1" d="M 192.538,440.538 192.538,455.041 z" id="boundary" inkscape:connector-curvature="0" />
	<path style="fill:none;stroke:red;stroke-width:1px;stroke-linecap:butt;stroke-linejoin:miter;stroke-opacity:1" d="M 192.538,440.538 199.789,418.784 z" id="boundary" inkscape:connector-curvature="0" />
	<path style="fill:none;stroke:red;stroke-width:1px;stroke-linecap:butt;stroke-linejoin:miter;stroke-opacity:1" d="M 193.988,222.994 207.041,230.246 z" id="boundary" inkscape:connector-curvature="0" />
	<path style="fill:none;stroke:red;stroke-width:1px;stroke-linecap:butt;stroke-linejoin:miter;stroke-opacity:1" d="M 193.988,353.52 204.14,365.123 z" id="boundary" inkscape:connector-curvature="0" />
	<path style="fill:none;stroke:red;stroke-width:1px;stroke-linecap:butt;stroke-linejoin:miter;stroke-opacity:1" d="M 199.789,418.784 207.041,397.029 z" id="boundary" inkscape:connector-curvature="0" />
	<path style="fill:none;stroke:red;stroke-width:1px;stroke-linecap:butt;stroke-linejoin:miter;stroke-opacity:1" d="M 204.14,365.123 214.292,376.725 z" id="boundary" inkscape:connector-curvature="0" />
	<path style="fill:none;stroke:red;stroke-width:1px;stroke-linecap:butt;stroke-linejoin:miter;stroke-opacity:1" d="M 205.591,647.93 211.392,662.433 z" id="boundary" inkscape:connector-curvature="0" />
	<path style="fill:none;stroke:red;stroke-width:1px;stroke-linecap:butt;stroke-linejoin:miter;stroke-opacity:1" d="M 207.041,230.246 218.643,240.398 z" id="boundary" inkscape:connector-curvature="0" />
	<path style="fill:none;stroke:red;stroke-width:1px;stroke-linecap:butt;stroke-linejoin:miter;stroke-opacity:1" d="M 207.041,397.029 214.292,376.725 z" id="boundary" inkscape:connector-curvature="0" />
	<path style="fill:none;stroke:red;stroke-width:1px;stroke-linecap:butt;stroke-linejoin:miter;stroke-opacity:1" d="M 211.392,662.433 218.643,675.485 z" id="boundary" inkscape:connector-curvature="0" />
	<path style="fill:none;stroke:red;stroke-width:1px;stroke-linecap:butt;stroke-linejoin:miter;stroke-opacity:1" d="M 218.643,240.398 231.696,247.649 z" id="boundary" inkscape:connector-curvature="0" />
	<path style="fill:none;stroke:red;stroke-width:1px;stroke-linecap:butt;stroke-linejoin:miter;stroke-opacity:1" d="M 218.643,675.485 224.444,689.988 z" id="boundary" inkscape:connector-curvature="0" />
	<path style="fill:none;stroke:red;stroke-width:1px;stroke-linecap:butt;stroke-linejoin:miter;stroke-opacity:1" d="M 224.444,689.988 231.696,703.041 z" id="boundary" inkscape:connector-curvature="0" />
	<path style="fill:none;stroke:red;stroke-width:1px;stroke-linecap:butt;stroke-linejoin:miter;stroke-opacity:1" d="M 231.696,247.649 243.298,257.801 z" id="boundary" inkscape:connector-curvature="0" />
	<path style="fill:none;stroke:red;stroke-width:1px;stroke-linecap:butt;stroke-linejoin:miter;stroke-opacity:1" d="M 231.696,703.041 237.497,717.544 z" id="boundary" inkscape:connector-curvature="0" />
	<path style="fill:none;stroke:red;stroke-width:1px;stroke-linecap:butt;stroke-linejoin:miter;stroke-opacity:1" d="M 237.497,717.544 249.099,727.696 z" id="boundary" inkscape:connector-curvature="0" />
	<path style="fill:none;stroke:red;stroke-width:1px;stroke-linecap:butt;stroke-linejoin:miter;stroke-opacity:1" d="M 243.298,257.801 252,269.404 z" id="boundary" inkscape:connector-curvature="0" />
	<path style="fill:none;stroke:red;stroke-width:1px;stroke-linecap:butt;stroke-linejoin:miter;stroke-opacity:1" d="M 243.298,911.883 243.298,926.386 z" id="boundary" inkscape:connector-curvature="0" />
	<path style="fill:none;stroke:red;stroke-width:1px;stroke-linecap:butt;stroke-linejoin:miter;stroke-opacity:1" d="M 243.298,911.883 250.55,890.129 z" id="boundary" inkscape:connector-curvature="0" />
	<path style="fill:none;stroke:red;stroke-width:1px;stroke-linecap:butt;stroke-linejoin:miter;stroke-opacity:1" d="M 243.298,926.386 243.298,940.889 z" id="boundary" inkscape:connector-curvature="0" />
	<path style="fill:none;stroke:red;stroke-width:1px;stroke-linecap:butt;stroke-linejoin:miter;stroke-opacity:1" d="M 243.298,940.889 243.298,955.392 z" id="boundary" inkscape:connector-curvature="0" />
	<path style="fill:none;stroke:red;stroke-width:1px;stroke-linecap:butt;stroke-linejoin:miter;stroke-opacity:1" d="M 243.298,955.392 243.298,969.895 z" id="boundary" inkscape:connector-curvature="0" />
	<path style="fill:none;stroke:red;stroke-width:1px;stroke-linecap:butt;stroke-linejoin:miter;stroke-opacity:1" d="M 243.298,969.895 257.801,974.246 z" id="boundary" inkscape:connector-curvature="0" />
	<path style="fill:none;stroke:red;stroke-width:1px;stroke-linecap:butt;stroke-linejoin:miter;stroke-opacity:1" d="M 249.099,727.696 254.901,742.199 z" id="boundary" inkscape:connector-curvature="0" />
	<path style="fill:none;stroke:red;stroke-width:1px;stroke-linecap:butt;stroke-linejoin:miter;stroke-opacity:1" d="M 250.55,890.129 257.801,868.374 z" id="boundary" inkscape:connector-curvature="0" />
	<path style="fill:none;stroke:red;stroke-width:1px;stroke-linecap:butt;stroke-linejoin:miter;stroke-opacity:1" d="M 252,269.404 265.053,276.655 z" id="boundary" inkscape:connector-curvature="0" />
	<path style="fill:none;stroke:red;stroke-width:1px;stroke-linecap:butt;stroke-linejoin:miter;stroke-opacity:1" d="M 254.901,742.199 266.503,752.351 z" id="boundary" inkscape:connector-curvature="0" />
	<path style="fill:none;stroke:red;stroke-width:1px;stroke-linecap:butt;stroke-linejoin:miter;stroke-opacity:1" d="M 257.801,868.374 265.053,853.871 z" id="boundary" inkscape:connector-curvature="0" />
	<path style="fill:none;stroke:red;stroke-width:1px;stroke-linecap:butt;stroke-linejoin:miter;stroke-opacity:1" d="M 257.801,974.246 266.503,985.848 z" id="boundary" inkscape:connector-curvature="0" />
	<path style="fill:none;stroke:red;stroke-width:1px;stroke-linecap:butt;stroke-linejoin:miter;stroke-opacity:1" d="M 265.053,276.655 278.105,283.906 z" id="boundary" inkscape:connector-curvature="0" />
	<path style="fill:none;stroke:red;stroke-width:1px;stroke-linecap:butt;stroke-linejoin:miter;stroke-opacity:1" d="M 265.053,853.871 272.304,839.368 z" id="boundary" inkscape:connector-curvature="0" />
	<path style="fill:none;stroke:red;stroke-width:1px;stroke-linecap:butt;stroke-linejoin:miter;stroke-opacity:1" d="M 266.503,752.351 272.304,766.854 z" id="boundary" inkscape:connector-curvature="0" />
	<path style="fill:none;stroke:red;stroke-width:1px;stroke-linecap:butt;stroke-linejoin:miter;stroke-opacity:1" d="M 266.503,985.848 281.006,988.749 z" id="boundary" inkscape:connector-curvature="0" />
	<path style="fill:none;stroke:red;stroke-width:1px;stroke-linecap:butt;stroke-linejoin:miter;stroke-opacity:1" d="M 272.304,63.462 272.304,77.9649 z" id="boundary" inkscape:connector-curvature="0" />
	<path style="fill:none;stroke:red;stroke-width:1px;stroke-linecap:butt;stroke-linejoin:miter;stroke-opacity:1" d="M 272.304,63.462 279.556,41.7076 z" id="boundary" inkscape:connector-curvature="0" />
	<path style="fill:none;stroke:red;stroke-width:1px;stroke-linecap:butt;stroke-linejoin:miter;stroke-opacity:1" d="M 272.304,77.9649 272.304,92.4678 z" id="boundary" inkscape:connector-curvature="0" />
	<path style="fill:none;stroke:red;stroke-width:1px;stroke-linecap:butt;stroke-linejoin:miter;stroke-opacity:1" d="M 272.304,92.4678 281.006,104.07 z" id="boundary" inkscape:connector-curvature="0" />
	<path style="fill:none;stroke:red;stroke-width:1px;stroke-linecap:butt;stroke-linejoin:miter;stroke-opacity:1" d="M 272.304,766.854 283.906,777.006 z" id="boundary" inkscape:connector-curvature="0" />
	<path style="fill:none;stroke:red;stroke-width:1px;stroke-linecap:butt;stroke-linejoin:miter;stroke-opacity:1" d="M 272.304,839.368 279.556,824.865 z" id="boundary" inkscape:connector-curvature="0" />
	<path style="fill:none;stroke:red;stroke-width:1px;stroke-linecap:butt;stroke-linejoin:miter;stroke-opacity:1" d="M 278.105,283.906 288.257,272.304 z" id="boundary" inkscape:connector-curvature="0" />
	<path style="fill:none;stroke:red;stroke-width:1px;stroke-linecap:butt;stroke-linejoin:miter;stroke-opacity:1" d="M 279.556,41.7076 286.807,27.2047 z" id="boundary" inkscape:connector-curvature="0" />
	<path style="fill:none;stroke:red;stroke-width:1px;stroke-linecap:butt;stroke-linejoin:miter;stroke-opacity:1" d="M 279.556,824.865 291.158,813.263 z" id="boundary" inkscape:connector-curvature="0" />
	<path style="fill:none;stroke:red;stroke-width:1px;stroke-linecap:butt;stroke-linejoin:miter;stroke-opacity:1" d="M 281.006,104.07 294.058,111.322 z" id="boundary" inkscape:connector-curvature="0" />
	<path style="fill:none;stroke:red;stroke-width:1px;stroke-linecap:butt;stroke-linejoin:miter;stroke-opacity:1" d="M 281.006,988.749 295.509,988.749 z" id="boundary" inkscape:connector-curvature="0" />
	<path style="fill:none;stroke:red;stroke-width:1px;stroke-linecap:butt;stroke-linejoin:miter;stroke-opacity:1" d="M 283.906,777.006 294.058,788.608 z" id="boundary" inkscape:connector-curvature="0" />
	<path style="fill:none;stroke:red;stroke-width:1px;stroke-linecap:butt;stroke-linejoin:miter;stroke-opacity:1" d="M 286.807,27.2047 298.409,15.6023 z" id="boundary" inkscape:connector-curvature="0" />
	<path style="fill:none;stroke:red;stroke-width:1px;stroke-linecap:butt;stroke-linejoin:miter;stroke-opacity:1" d="M 288.257,272.304 299.86,262.152 z" id="boundary" inkscape:connector-curvature="0" />
	<path style="fill:none;stroke:red;stroke-width:1px;stroke-linecap:butt;stroke-linejoin:miter;stroke-opacity:1" d="M 291.158,813.263 301.31,801.661 z" id="boundary" inkscape:connector-curvature="0" />
	<path style="fill:none;stroke:red;stroke-width:1px;stroke-linecap:butt;stroke-linejoin:miter;stroke-opacity:1" d="M 294.058,111.322 307.111,118.573 z" id="boundary" inkscape:connector-curvature="0" />
	<path style="fill:none;stroke:red;stroke-width:1px;stroke-linecap:butt;stroke-linejoin:miter;stroke-opacity:1" d="M 294.058,788.608 301.31,801.661 z" id="boundary" inkscape:connector-curvature="0" />
	<path style="fill:none;stroke:red;stroke-width:1px;stroke-linecap:butt;stroke-linejoin:miter;stroke-opacity:1" d="M 295.509,988.749 310.012,988.749 z" id="boundary" inkscape:connector-curvature="0" />
	<path style="fill:none;stroke:red;stroke-width:1px;stroke-linecap:butt;stroke-linejoin:miter;stroke-opacity:1" d="M 298.409,15.6023 310.012,4 z" id="boundary" inkscape:connector-curvature="0" />
	<path style="fill:none;stroke:red;stroke-width:1px;stroke-linecap:butt;stroke-linejoin:miter;stroke-opacity:1" d="M 299.86,262.152 312.912,254.901 z" id="boundary" inkscape:connector-curvature="0" />
	<path style="fill:none;stroke:red;stroke-width:1px;stroke-linecap:butt;stroke-linejoin:miter;stroke-opacity:1" d="M 307.111,118.573 315.813,130.175 z" id="boundary" inkscape:connector-curvature="0" />
	<path style="fill:none;stroke:red;stroke-width:1px;stroke-linecap:butt;stroke-linejoin:miter;stroke-opacity:1" d="M 310.012,4 324.515,5.45029 z" id="boundary" inkscape:connector-curvature="0" />
	<path style="fill:none;stroke:red;stroke-width:1px;stroke-linecap:butt;stroke-linejoin:miter;stroke-opacity:1" d="M 310.012,988.749 324.515,988.749 z" id="boundary" inkscape:connector-curvature="0" />
	<path style="fill:none;stroke:red;stroke-width:1px;stroke-linecap:butt;stroke-linejoin:miter;stroke-opacity:1" d="M 312.912,254.901 324.515,243.298 z" id="boundary" inkscape:connector-curvature="0" />
	<path style="fill:none;stroke:red;stroke-width:1px;stroke-linecap:butt;stroke-linejoin:miter;stroke-opacity:1" d="M 315.813,130.175 323.064,143.228 z" id="boundary" inkscape:connector-curvature="0" />
	<path style="fill:none;stroke:red;stroke-width:1px;stroke-linecap:butt;stroke-linejoin:miter;stroke-opacity:1" d="M 323.064,143.228 334.667,153.38 z" id="boundary" inkscape:connector-curvature="0" />
	<path style="fill:none;stroke:red;stroke-width:1px;stroke-linecap:butt;stroke-linejoin:miter;stroke-opacity:1" d="M 324.515,5.45029 337.567,12.7018 z" id="boundary" inkscape:connector-curvature="0" />
	<path style="fill:none;stroke:red;stroke-width:1px;stroke-linecap:butt;stroke-linejoin:miter;stroke-opacity:1" d="M 324.515,243.298 336.117,233.146 z" id="boundary" inkscape:connector-curvature="0" />
	<path style="fill:none;stroke:red;stroke-width:1px;stroke-linecap:butt;stroke-linejoin:miter;stroke-opacity:1" d="M 324.515,988.749 336.117,978.596 z" id="boundary" inkscape:connector-curvature="0" />
	<path style="fill:none;stroke:red;stroke-width:1px;stroke-linecap:butt;stroke-linejoin:miter;stroke-opacity:1" d="M 334.667,153.38 347.719,160.632 z" id="boundary" inkscape:connector-curvature="0" />
	<path style="fill:none;stroke:red;stroke-width:1px;stroke-linecap:butt;stroke-linejoin:miter;stroke-opacity:1" d="M 336.117,233.146 349.17,225.895 z" id="boundary" inkscape:connector-curvature="0" />
	<path style="fill:none;stroke:red;stroke-width:1px;stroke-linecap:butt;stroke-linejoin:miter;stroke-opacity:1" d="M 336.117,978.596 346.269,966.994 z" id="boundary" inkscape:connector-curvature="0" />
	<path style="fill:none;stroke:red;stroke-width:1px;stroke-linecap:butt;stroke-linejoin:miter;stroke-opacity:1" d="M 337.567,12.7018 349.17,22.8538 z" id="boundary" inkscape:connector-curvature="0" />
	<path style="fill:none;stroke:red;stroke-width:1px;stroke-linecap:butt;stroke-linejoin:miter;stroke-opacity:1" d="M 346.269,966.994 353.52,952.491 z" id="boundary" inkscape:connector-curvature="0" />
	<path style="fill:none;stroke:red;stroke-width:1px;stroke-linecap:butt;stroke-linejoin:miter;stroke-opacity:1" d="M 347.719,160.632 354.971,173.684 z" id="boundary" inkscape:connector-curvature="0" />
	<path style="fill:none;stroke:red;stroke-width:1px;stroke-linecap:butt;stroke-linejoin:miter;stroke-opacity:1" d="M 349.17,22.8538 362.222,30.1053 z" id="boundary" inkscape:connector-curvature="0" />
	<path style="fill:none;stroke:red;stroke-width:1px;stroke-linecap:butt;stroke-linejoin:miter;stroke-opacity:1" d="M 349.17,225.895 362.222,218.643 z" id="boundary" inkscape:connector-curvature="0" />
	<path style="fill:none;stroke:red;stroke-width:1px;stroke-linecap:butt;stroke-linejoin:miter;stroke-opacity:1" d="M 353.52,923.485 353.52,937.988 z" id="boundary" inkscape:connector-curvature="0" />
	<path style="fill:none;stroke:red;stroke-width:1px;stroke-linecap:butt;stroke-linejoin:miter;stroke-opacity:1" d="M 353.52,923.485 360.772,901.731 z" id="boundary" inkscape:connector-curvature="0" />
	<path style="fill:none;stroke:red;stroke-width:1px;stroke-linecap:butt;stroke-linejoin:miter;stroke-opacity:1" d="M 353.52,937.988 353.52,952.491 z" id="boundary" inkscape:connector-curvature="0" />
	<path style="fill:none;stroke:red;stroke-width:1px;stroke-linecap:butt;stroke-linejoin:miter;stroke-opacity:1" d="M 354.971,173.684 366.573,183.836 z" id="boundary" inkscape:connector-curvature="0" />
	<path style="fill:none;stroke:red;stroke-width:1px;stroke-linecap:butt;stroke-linejoin:miter;stroke-opacity:1" d="M 360.772,901.731 368.023,887.228 z" id="boundary" inkscape:connector-curvature="0" />
	<path style="fill:none;stroke:red;stroke-width:1px;stroke-linecap:butt;stroke-linejoin:miter;stroke-opacity:1" d="M 362.222,30.1053 375.275,37.3567 z" id="boundary" inkscape:connector-curvature="0" />
	<path style="fill:none;stroke:red;stroke-width:1px;stroke-linecap:butt;stroke-linejoin:miter;stroke-opacity:1" d="M 362.222,218.643 375.275,211.392 z" id="boundary" inkscape:connector-curvature="0" />
	<path style="fill:none;stroke:red;stroke-width:1px;stroke-linecap:butt;stroke-linejoin:miter;stroke-opacity:1" d="M 366.573,183.836 375.275,195.439 z" id="boundary" inkscape:connector-curvature="0" />
	<path style="fill:none;stroke:red;stroke-width:1px;stroke-linecap:butt;stroke-linejoin:miter;stroke-opacity:1" d="M 368.023,887.228 379.626,877.076 z" id="boundary" inkscape:connector-curvature="0" />
	<path style="fill:none;stroke:red;stroke-width:1px;stroke-linecap:butt;stroke-linejoin:miter;stroke-opacity:1" d="M 375.275,37.3567 386.877,46.0585 z" id="boundary" inkscape:connector-curvature="0" />
	<path style="fill:none;stroke:red;stroke-width:1px;stroke-linecap:butt;stroke-linejoin:miter;stroke-opacity:1" d="M 375.275,195.439 375.275,211.392 z" id="boundary" inkscape:connector-curvature="0" />
	<path style="fill:none;stroke:red;stroke-width:1px;stroke-linecap:butt;stroke-linejoin:miter;stroke-opacity:1" d="M 379.626,877.076 389.778,865.474 z" id="boundary" inkscape:connector-curvature="0" />
	<path style="fill:none;stroke:red;stroke-width:1px;stroke-linecap:butt;stroke-linejoin:miter;stroke-opacity:1" d="M 386.877,46.0585 397.029,57.6608 z" id="boundary" inkscape:connector-curvature="0" />
	<path style="fill:none;stroke:red;stroke-width:1px;stroke-linecap:butt;stroke-linejoin:miter;stroke-opacity:1" d="M 389.778,865.474 402.83,858.222 z" id="boundary" inkscape:connector-curvature="0" />
	<path style="fill:none;stroke:red;stroke-width:1px;stroke-linecap:butt;stroke-linejoin:miter;stroke-opacity:1" d="M 397.029,57.6608 404.281,70.7135 z" id="boundary" inkscape:connector-curvature="0" />
	<path style="fill:none;stroke:red;stroke-width:1px;stroke-linecap:butt;stroke-linejoin:miter;stroke-opacity:1" d="M 402.83,858.222 417.333,858.222 z" id="boundary" inkscape:connector-curvature="0" />
	<path style="fill:none;stroke:red;stroke-width:1px;stroke-linecap:butt;stroke-linejoin:miter;stroke-opacity:1" d="M 404.281,70.7135 417.333,77.9649 z" id="boundary" inkscape:connector-curvature="0" />
	<path style="fill:none;stroke:red;stroke-width:1px;stroke-linecap:butt;stroke-linejoin:miter;stroke-opacity:1" d="M 417.333,77.9649 428.936,88.117 z" id="boundary" inkscape:connector-curvature="0" />
	<path style="fill:none;stroke:red;stroke-width:1px;stroke-linecap:butt;stroke-linejoin:miter;stroke-opacity:1" d="M 417.333,858.222 430.386,865.474 z" id="boundary" inkscape:connector-curvature="0" />
	<path style="fill:none;stroke:red;stroke-width:1px;stroke-linecap:butt;stroke-linejoin:miter;stroke-opacity:1" d="M 428.936,88.117 433.287,102.62 z" id="boundary" inkscape:connector-curvature="0" />
	<path style="fill:none;stroke:red;stroke-width:1px;stroke-linecap:butt;stroke-linejoin:miter;stroke-opacity:1" d="M 430.386,865.474 443.439,872.725 z" id="boundary" inkscape:connector-curvature="0" />
	<path style="fill:none;stroke:red;stroke-width:1px;stroke-linecap:butt;stroke-linejoin:miter;stroke-opacity:1" d="M 433.287,102.62 444.889,111.322 z" id="boundary" inkscape:connector-curvature="0" />
	<path style="fill:none;stroke:red;stroke-width:1px;stroke-linecap:butt;stroke-linejoin:miter;stroke-opacity:1" d="M 443.439,872.725 457.942,872.725 z" id="boundary" inkscape:connector-curvature="0" />
	<path style="fill:none;stroke:red;stroke-width:1px;stroke-linecap:butt;stroke-linejoin:miter;stroke-opacity:1" d="M 444.889,111.322 455.041,122.924 z" id="boundary" inkscape:connector-curvature="0" />
	<path style="fill:none;stroke:red;stroke-width:1px;stroke-linecap:butt;stroke-linejoin:miter;stroke-opacity:1" d="M 455.041,122.924 466.643,133.076 z" id="boundary" inkscape:connector-curvature="0" />
	<path style="fill:none;stroke:red;stroke-width:1px;stroke-linecap:butt;stroke-linejoin:miter;stroke-opacity:1" d="M 457.942,872.725 472.444,872.725 z" id="boundary" inkscape:connector-curvature="0" />
	<path style="fill:none;stroke:red;stroke-width:1px;stroke-linecap:butt;stroke-linejoin:miter;stroke-opacity:1" d="M 466.643,133.076 472.444,147.579 z" id="boundary" inkscape:connector-curvature="0" />
	<path style="fill:none;stroke:red;stroke-width:1px;stroke-linecap:butt;stroke-linejoin:miter;stroke-opacity:1" d="M 472.444,147.579 484.047,157.731 z" id="boundary" inkscape:connector-curvature="0" />
	<path style="fill:none;stroke:red;stroke-width:1px;stroke-linecap:butt;stroke-linejoin:miter;stroke-opacity:1" d="M 472.444,872.725 485.497,879.977 z" id="boundary" inkscape:connector-curvature="0" />
	<path style="fill:none;stroke:red;stroke-width:1px;stroke-linecap:butt;stroke-linejoin:miter;stroke-opacity:1" d="M 484.047,157.731 489.848,172.234 z" id="boundary" inkscape:connector-curvature="0" />
	<path style="fill:none;stroke:red;stroke-width:1px;stroke-linecap:butt;stroke-linejoin:miter;stroke-opacity:1" d="M 485.497,879.977 500,879.977 z" id="boundary" inkscape:connector-curvature="0" />
	<path style="fill:none;stroke:red;stroke-width:1px;stroke-linecap:butt;stroke-linejoin:miter;stroke-opacity:1" d="M 489.848,172.234 504.351,175.135 z" id="boundary" inkscape:connector-curvature="0" />
	<path style="fill:none;stroke:red;stroke-width:1px;stroke-linecap:butt;stroke-linejoin:miter;stroke-opacity:1" d="M 500,879.977 514.503,879.977 z" id="boundary" inkscape:connector-curvature="0" />
	<path style="fill:none;stroke:red;stroke-width:1px;stroke-linecap:butt;stroke-linejoin:miter;stroke-opacity:1" d="M 504.351,175.135 518.854,175.135 z" id="boundary" inkscape:connector-curvature="0" />
	<path style="fill:none;stroke:red;stroke-width:1px;stroke-linecap:butt;stroke-linejoin:miter;stroke-opacity:1" d="M 514.503,879.977 529.006,879.977 z" id="boundary" inkscape:connector-curvature="0" />
	<path style="fill:none;stroke:red;stroke-width:1px;stroke-linecap:butt;stroke-linejoin:miter;stroke-opacity:1" d="M 518.854,175.135 533.357,175.135 z" id="boundary" inkscape:connector-curvature="0" />
	<path style="fill:none;stroke:red;stroke-width:1px;stroke-linecap:butt;stroke-linejoin:miter;stroke-opacity:1" d="M 529.006,879.977 543.509,879.977 z" id="boundary" inkscape:connector-curvature="0" />
	<path style="fill:none;stroke:red;stroke-width:1px;stroke-linecap:butt;stroke-linejoin:miter;stroke-opacity:1" d="M 533.357,175.135 547.86,175.135 z" id="boundary" inkscape:connector-curvature="0" />
	<path style="fill:none;stroke:red;stroke-width:1px;stroke-linecap:butt;stroke-linejoin:miter;stroke-opacity:1" d="M 543.509,879.977 558.012,879.977 z" id="boundary" inkscape:connector-curvature="0" />
	<path style="fill:none;stroke:red;stroke-width:1px;stroke-linecap:butt;stroke-linejoin:miter;stroke-opacity:1" d="M 547.86,175.135 562.363,175.135 z" id="boundary" inkscape:connector-curvature="0" />
	<path style="fill:none;stroke:red;stroke-width:1px;stroke-linecap:butt;stroke-linejoin:miter;stroke-opacity:1" d="M 558.012,879.977 571.064,872.725 z" id="boundary" inkscape:connector-curvature="0" />
	<path style="fill:none;stroke:red;stroke-width:1px;stroke-linecap:butt;stroke-linejoin:miter;stroke-opacity:1" d="M 562.363,175.135 576.865,164.982 z" id="boundary" inkscape:connector-curvature="0" />
	<path style="fill:none;stroke:red;stroke-width:1px;stroke-linecap:butt;stroke-linejoin:miter;stroke-opacity:1" d="M 571.064,872.725 585.567,872.725 z" id="boundary" inkscape:connector-curvature="0" />
	<path style="fill:none;stroke:red;stroke-width:1px;stroke-linecap:butt;stroke-linejoin:miter;stroke-opacity:1" d="M 576.865,164.982 584.117,143.228 z" id="boundary" inkscape:connector-curvature="0" />
	<path style="fill:none;stroke:red;stroke-width:1px;stroke-linecap:butt;stroke-linejoin:miter;stroke-opacity:1" d="M 584.117,143.228 591.368,128.725 z" id="boundary" inkscape:connector-curvature="0" />
	<path style="fill:none;stroke:red;stroke-width:1px;stroke-linecap:butt;stroke-linejoin:miter;stroke-opacity:1" d="M 585.567,872.725 600.07,872.725 z" id="boundary" inkscape:connector-curvature="0" />
	<path style="fill:none;stroke:red;stroke-width:1px;stroke-linecap:butt;stroke-linejoin:miter;stroke-opacity:1" d="M 591.368,114.222 591.368,128.725 z" id="boundary" inkscape:connector-curvature="0" />
	<path style="fill:none;stroke:red;stroke-width:1px;stroke-linecap:butt;stroke-linejoin:miter;stroke-opacity:1" d="M 591.368,114.222 598.62,99.7193 z" id="boundary" inkscape:connector-curvature="0" />
	<path style="fill:none;stroke:red;stroke-width:1px;stroke-linecap:butt;stroke-linejoin:miter;stroke-opacity:1" d="M 598.62,99.7193 610.222,88.117 z" id="boundary" inkscape:connector-curvature="0" />
	<path style="fill:none;stroke:red;stroke-width:1px;stroke-linecap:butt;stroke-linejoin:miter;stroke-opacity:1" d="M 600.07,872.725 613.123,879.977 z" id="boundary" inkscape:connector-curvature="0" />
	<path style="fill:none;stroke:red;stroke-width:1px;stroke-linecap:butt;stroke-linejoin:miter;stroke-opacity:1" d="M 610.222,88.117 617.474,73.614 z" id="boundary" inkscape:connector-curvature="0" />
	<path style="fill:none;stroke:red;stroke-width:1px;stroke-linecap:butt;stroke-linejoin:miter;stroke-opacity:1" d="M 613.123,879.977 626.175,887.228 z" id="boundary" inkscape:connector-curvature="0" />
	<path style="fill:none;stroke:red;stroke-width:1px;stroke-linecap:butt;stroke-linejoin:miter;stroke-opacity:1" d="M 617.474,73.614 624.725,59.1111 z" id="boundary" inkscape:connector-curvature="0" />
	<path style="fill:none;stroke:red;stroke-width:1px;stroke-linecap:butt;stroke-linejoin:miter;stroke-opacity:1" d="M 624.725,59.1111 631.977,44.6082 z" id="boundary" inkscape:connector-curvature="0" />
	<path style="fill:none;stroke:red;stroke-width:1px;stroke-linecap:butt;stroke-linejoin:miter;stroke-opacity:1" d="M 626.175,887.228 639.228,894.48 z" id="boundary" inkscape:connector-curvature="0" />
	<path style="fill:none;stroke:red;stroke-width:1px;stroke-linecap:butt;stroke-linejoin:miter;stroke-opacity:1" d="M 631.977,44.6082 642.129,27.2047 z" id="boundary" inkscape:connector-curvature="0" />
	<path style="fill:none;stroke:red;stroke-width:1px;stroke-linecap:butt;stroke-linejoin:miter;stroke-opacity:1" d="M 639.228,894.48 650.83,904.632 z" id="boundary" inkscape:connector-curvature="0" />
	<path style="fill:none;stroke:red;stroke-width:1px;stroke-linecap:butt;stroke-linejoin:miter;stroke-opacity:1" d="M 642.129,27.2047 653.731,15.6023 z" id="boundary" inkscape:connector-curvature="0" />
	<path style="fill:none;stroke:red;stroke-width:1px;stroke-linecap:butt;stroke-linejoin:miter;stroke-opacity:1" d="M 650.83,904.632 663.883,911.883 z" id="boundary" inkscape:connector-curvature="0" />
	<path style="fill:none;stroke:red;stroke-width:1px;stroke-linecap:butt;stroke-linejoin:miter;stroke-opacity:1" d="M 653.731,15.6023 666.784,8.35088 z" id="boundary" inkscape:connector-curvature="0" />
	<path style="fill:none;stroke:red;stroke-width:1px;stroke-linecap:butt;stroke-linejoin:miter;stroke-opacity:1" d="M 663.883,911.883 671.135,924.936 z" id="boundary" inkscape:connector-curvature="0" />
	<path style="fill:none;stroke:red;stroke-width:1px;stroke-linecap:butt;stroke-linejoin:miter;stroke-opacity:1" d="M 666.784,8.35088 681.287,8.35088 z" id="boundary" inkscape:connector-curvature="0" />
	<path style="fill:none;stroke:red;stroke-width:1px;stroke-linecap:butt;stroke-linejoin:miter;stroke-opacity:1" d="M 671.135,924.936 671.135,939.439 z" id="boundary" inkscape:connector-curvature="0" />
	<path style="fill:none;stroke:red;stroke-width:1px;stroke-linecap:butt;stroke-linejoin:miter;stroke-opacity:1" d="M 671.135,939.439 678.386,952.491 z" id="boundary" inkscape:connector-curvature="0" />
	<path style="fill:none;stroke:red;stroke-width:1px;stroke-linecap:butt;stroke-linejoin:miter;stroke-opacity:1" d="M 678.386,952.491 685.637,965.544 z" id="boundary" inkscape:connector-curvature="0" />
	<path style="fill:none;stroke:red;stroke-width:1px;stroke-linecap:butt;stroke-linejoin:miter;stroke-opacity:1" d="M 679.836,198.339 679.836,212.842 z" id="boundary" inkscape:connector-curvature="0" />
	<path style="fill:none;stroke:red;stroke-width:1px;stroke-linecap:butt;stroke-linejoin:miter;stroke-opacity:1" d="M 679.836,198.339 687.088,176.585 z" id="boundary" inkscape:connector-curvature="0" />
	<path style="fill:none;stroke:red;stroke-width:1px;stroke-linecap:butt;stroke-linejoin:miter;stroke-opacity:1" d="M 679.836,212.842 691.439,221.544 z" id="boundary" inkscape:connector-curvature="0" />
	<path style="fill:none;stroke:red;stroke-width:1px;stroke-linecap:butt;stroke-linejoin:miter;stroke-opacity:1" d="M 681.287,8.35088 695.789,8.35088 z" id="boundary" inkscape:connector-curvature="0" />
	<path style="fill:none;stroke:red;stroke-width:1px;stroke-linecap:butt;stroke-linejoin:miter;stroke-opacity:1" d="M 685.637,965.544 688.538,980.047 z" id="boundary" inkscape:connector-curvature="0" />
	<path style="fill:none;stroke:red;stroke-width:1px;stroke-linecap:butt;stroke-linejoin:miter;stroke-opacity:1" d="M 687.088,176.585 694.339,162.082 z" id="boundary" inkscape:connector-curvature="0" />
	<path style="fill:none;stroke:red;stroke-width:1px;stroke-linecap:butt;stroke-linejoin:miter;stroke-opacity:1" d="M 688.538,980.047 700.14,988.749 z" id="boundary" inkscape:connector-curvature="0" />
	<path style="fill:none;stroke:red;stroke-width:1px;stroke-linecap:butt;stroke-linejoin:miter;stroke-opacity:1" d="M 691.439,221.544 701.591,233.146 z" id="boundary" inkscape:connector-curvature="0" />
	<path style="fill:none;stroke:red;stroke-width:1px;stroke-linecap:butt;stroke-linejoin:miter;stroke-opacity:1" d="M 694.339,147.579 694.339,162.082 z" id="boundary" inkscape:connector-curvature="0" />
	<path style="fill:none;stroke:red;stroke-width:1px;stroke-linecap:butt;stroke-linejoin:miter;stroke-opacity:1" d="M 694.339,147.579 705.942,137.427 z" id="boundary" inkscape:connector-curvature="0" />
	<path style="fill:none;stroke:red;stroke-width:1px;stroke-linecap:butt;stroke-linejoin:miter;stroke-opacity:1" d="M 695.789,8.35088 708.842,15.6023 z" id="boundary" inkscape:connector-curvature="0" />
	<path style="fill:none;stroke:red;stroke-width:1px;stroke-linecap:butt;stroke-linejoin:miter;stroke-opacity:1" d="M 700.14,988.749 713.193,996 z" id="boundary" inkscape:connector-curvature="0" />
	<path style="fill:none;stroke:red;stroke-width:1px;stroke-linecap:butt;stroke-linejoin:miter;stroke-opacity:1" d="M 701.591,233.146 716.094,237.497 z" id="boundary" inkscape:connector-curvature="0" />
	<path style="fill:none;stroke:red;stroke-width:1px;stroke-linecap:butt;stroke-linejoin:miter;stroke-opacity:1" d="M 705.942,137.427 713.193,122.924 z" id="boundary" inkscape:connector-curvature="0" />
	<path style="fill:none;stroke:red;stroke-width:1px;stroke-linecap:butt;stroke-linejoin:miter;stroke-opacity:1" d="M 708.842,15.6023 720.444,24.3041 z" id="boundary" inkscape:connector-curvature="0" />
	<path style="fill:none;stroke:red;stroke-width:1px;stroke-linecap:butt;stroke-linejoin:miter;stroke-opacity:1" d="M 713.193,122.924 720.444,108.421 z" id="boundary" inkscape:connector-curvature="0" />
	<path style="fill:none;stroke:red;stroke-width:1px;stroke-linecap:butt;stroke-linejoin:miter;stroke-opacity:1" d="M 713.193,996 727.696,996 z" id="boundary" inkscape:connector-curvature="0" />
	<path style="fill:none;stroke:red;stroke-width:1px;stroke-linecap:butt;stroke-linejoin:miter;stroke-opacity:1" d="M 716.094,237.497 726.246,249.099 z" id="boundary" inkscape:connector-curvature="0" />
	<path style="fill:none;stroke:red;stroke-width:1px;stroke-linecap:butt;stroke-linejoin:miter;stroke-opacity:1" d="M 716.094,814.713 723.345,827.766 z" id="boundary" inkscape:connector-curvature="0" />
	<path style="fill:none;stroke:red;stroke-width:1px;stroke-linecap:butt;stroke-linejoin:miter;stroke-opacity:1" d="M 716.094,814.713 727.696,804.561 z" id="boundary" inkscape:connector-curvature="0" />
	<path style="fill:none;stroke:red;stroke-width:1px;stroke-linecap:butt;stroke-linejoin:miter;stroke-opacity:1" d="M 720.444,24.3041 733.497,31.5556 z" id="boundary" inkscape:connector-curvature="0" />
	<path style="fill:none;stroke:red;stroke-width:1px;stroke-linecap:butt;stroke-linejoin:miter;stroke-opacity:1" d="M 720.444,108.421 727.696,93.9181 z" id="boundary" inkscape:connector-curvature="0" />
	<path style="fill:none;stroke:red;stroke-width:1px;stroke-linecap:butt;stroke-linejoin:miter;stroke-opacity:1" d="M 723.345,827.766 737.848,832.117 z" id="boundary" inkscape:connector-curvature="0" />
	<path style="fill:none;stroke:red;stroke-width:1px;stroke-linecap:butt;stroke-linejoin:miter;stroke-opacity:1" d="M 726.246,249.099 740.749,254.901 z" id="boundary" inkscape:connector-curvature="0" />
	<path style="fill:none;stroke:red;stroke-width:1px;stroke-linecap:butt;stroke-linejoin:miter;stroke-opacity:1" d="M 727.696,93.9181 737.848,82.3158 z" id="boundary" inkscape:connector-curvature="0" />
	<path style="fill:none;stroke:red;stroke-width:1px;stroke-linecap:butt;stroke-linejoin:miter;stroke-opacity:1" d="M 727.696,804.561 742.199,797.31 z" id="boundary" inkscape:connector-curvature="0" />
	<path style="fill:none;stroke:red;stroke-width:1px;stroke-linecap:butt;stroke-linejoin:miter;stroke-opacity:1" d="M 727.696,996 742.199,996 z" id="boundary" inkscape:connector-curvature="0" />
	<path style="fill:none;stroke:red;stroke-width:1px;stroke-linecap:butt;stroke-linejoin:miter;stroke-opacity:1" d="M 733.497,31.5556 745.099,41.7076 z" id="boundary" inkscape:connector-curvature="0" />
	<path style="fill:none;stroke:red;stroke-width:1px;stroke-linecap:butt;stroke-linejoin:miter;stroke-opacity:1" d="M 737.848,82.3158 749.45,72.1637 z" id="boundary" inkscape:connector-curvature="0" />
	<path style="fill:none;stroke:red;stroke-width:1px;stroke-linecap:butt;stroke-linejoin:miter;stroke-opacity:1" d="M 737.848,832.117 748,843.719 z" id="boundary" inkscape:connector-curvature="0" />
	<path style="fill:none;stroke:red;stroke-width:1px;stroke-linecap:butt;stroke-linejoin:miter;stroke-opacity:1" d="M 740.749,254.901 750.901,266.503 z" id="boundary" inkscape:connector-curvature="0" />
	<path style="fill:none;stroke:red;stroke-width:1px;stroke-linecap:butt;stroke-linejoin:miter;stroke-opacity:1" d="M 742.199,797.31 752.351,785.708 z" id="boundary" inkscape:connector-curvature="0" />
	<path style="fill:none;stroke:red;stroke-width:1px;stroke-linecap:butt;stroke-linejoin:miter;stroke-opacity:1" d="M 742.199,996 755.251,988.749 z" id="boundary" inkscape:connector-curvature="0" />
	<path style="fill:none;stroke:red;stroke-width:1px;stroke-linecap:butt;stroke-linejoin:miter;stroke-opacity:1" d="M 745.099,41.7076 752.351,54.7602 z" id="boundary" inkscape:connector-curvature="0" />
	<path style="fill:none;stroke:red;stroke-width:1px;stroke-linecap:butt;stroke-linejoin:miter;stroke-opacity:1" d="M 748,843.719 755.251,856.772 z" id="boundary" inkscape:connector-curvature="0" />
	<path style="fill:none;stroke:red;stroke-width:1px;stroke-linecap:butt;stroke-linejoin:miter;stroke-opacity:1" d="M 749.45,72.1637 752.351,54.7602 z" id="boundary" inkscape:connector-curvature="0" />
	<path style="fill:none;stroke:red;stroke-width:1px;stroke-linecap:butt;stroke-linejoin:miter;stroke-opacity:1" d="M 750.901,266.503 762.503,276.655 z" id="boundary" inkscape:connector-curvature="0" />
	<path style="fill:none;stroke:red;stroke-width:1px;stroke-linecap:butt;stroke-linejoin:miter;stroke-opacity:1" d="M 752.351,785.708 763.953,775.556 z" id="boundary" inkscape:connector-curvature="0" />
	<path style="fill:none;stroke:red;stroke-width:1px;stroke-linecap:butt;stroke-linejoin:miter;stroke-opacity:1" d="M 755.251,856.772 765.404,868.374 z" id="boundary" inkscape:connector-curvature="0" />
	<path style="fill:none;stroke:red;stroke-width:1px;stroke-linecap:butt;stroke-linejoin:miter;stroke-opacity:1" d="M 755.251,988.749 768.304,981.497 z" id="boundary" inkscape:connector-curvature="0" />
	<path style="fill:none;stroke:red;stroke-width:1px;stroke-linecap:butt;stroke-linejoin:miter;stroke-opacity:1" d="M 762.503,276.655 777.006,269.404 z" id="boundary" inkscape:connector-curvature="0" />
	<path style="fill:none;stroke:red;stroke-width:1px;stroke-linecap:butt;stroke-linejoin:miter;stroke-opacity:1" d="M 763.953,775.556 774.105,756.702 z" id="boundary" inkscape:connector-curvature="0" />
	<path style="fill:none;stroke:red;stroke-width:1px;stroke-linecap:butt;stroke-linejoin:miter;stroke-opacity:1" d="M 765.404,868.374 772.655,881.427 z" id="boundary" inkscape:connector-curvature="0" />
	<path style="fill:none;stroke:red;stroke-width:1px;stroke-linecap:butt;stroke-linejoin:miter;stroke-opacity:1" d="M 768.304,981.497 781.357,974.246 z" id="boundary" inkscape:connector-curvature="0" />
	<path style="fill:none;stroke:red;stroke-width:1px;stroke-linecap:butt;stroke-linejoin:miter;stroke-opacity:1" d="M 772.655,881.427 774.105,895.93 z" id="boundary" inkscape:connector-curvature="0" />
	<path style="fill:none;stroke:red;stroke-width:1px;stroke-linecap:butt;stroke-linejoin:miter;stroke-opacity:1" d="M 774.105,756.702 785.708,746.55 z" id="boundary" inkscape:connector-curvature="0" />
	<path style="fill:none;stroke:red;stroke-width:1px;stroke-linecap:butt;stroke-linejoin:miter;stroke-opacity:1" d="M 774.105,895.93 778.456,910.433 z" id="boundary" inkscape:connector-curvature="0" />
	<path style="fill:none;stroke:red;stroke-width:1px;stroke-linecap:butt;stroke-linejoin:miter;stroke-opacity:1" d="M 777.006,269.404 790.058,262.152 z" id="boundary" inkscape:connector-curvature="0" />
	<path style="fill:none;stroke:red;stroke-width:1px;stroke-linecap:butt;stroke-linejoin:miter;stroke-opacity:1" d="M 778.456,910.433 788.608,922.035 z" id="boundary" inkscape:connector-curvature="0" />
	<path style="fill:none;stroke:red;stroke-width:1px;stroke-linecap:butt;stroke-linejoin:miter;stroke-opacity:1" d="M 781.357,974.246 788.608,952.491 z" id="boundary" inkscape:connector-curvature="0" />
	<path style="fill:none;stroke:red;stroke-width:1px;stroke-linecap:butt;stroke-linejoin:miter;stroke-opacity:1" d="M 785.708,746.55 795.86,727.696 z" id="boundary" inkscape:connector-curvature="0" />
	<path style="fill:none;stroke:red;stroke-width:1px;stroke-linecap:butt;stroke-linejoin:miter;stroke-opacity:1" d="M 788.608,922.035 795.86,935.088 z" id="boundary" inkscape:connector-curvature="0" />
	<path style="fill:none;stroke:red;stroke-width:1px;stroke-linecap:butt;stroke-linejoin:miter;stroke-opacity:1" d="M 788.608,952.491 795.86,935.088 z" id="boundary" inkscape:connector-curvature="0" />
	<path style="fill:none;stroke:red;stroke-width:1px;stroke-linecap:butt;stroke-linejoin:miter;stroke-opacity:1" d="M 790.058,262.152 801.661,252 z" id="boundary" inkscape:connector-curvature="0" />
	<path style="fill:none;stroke:red;stroke-width:1px;stroke-linecap:butt;stroke-linejoin:miter;stroke-opacity:1" d="M 795.86,727.696 807.462,717.544 z" id="boundary" inkscape:connector-curvature="0" />
	<path style="fill:none;stroke:red;stroke-width:1px;stroke-linecap:butt;stroke-linejoin:miter;stroke-opacity:1" d="M 801.661,252 816.164,244.749 z" id="boundary" inkscape:connector-curvature="0" />
	<path style="fill:none;stroke:red;stroke-width:1px;stroke-linecap:butt;stroke-linejoin:miter;stroke-opacity:1" d="M 807.462,717.544 816.164,705.942 z" id="boundary" inkscape:connector-curvature="0" />
	<path style="fill:none;stroke:red;stroke-width:1px;stroke-linecap:butt;stroke-linejoin:miter;stroke-opacity:1" d="M 816.164,244.749 827.766,233.146 z" id="boundary" inkscape:connector-curvature="0" />
	<path style="fill:none;stroke:red;stroke-width:1px;stroke-linecap:butt;stroke-linejoin:miter;stroke-opacity:1" d="M 816.164,705.942 829.216,713.193 z" id="boundary" inkscape:connector-curvature="0" />
	<path style="fill:none;stroke:red;stroke-width:1px;stroke-linecap:butt;stroke-linejoin:miter;stroke-opacity:1" d="M 824.865,372.374 832.117,385.427 z" id="boundary" inkscape:connector-curvature="0" />
	<path style="fill:none;stroke:red;stroke-width:1px;stroke-linecap:butt;stroke-linejoin:miter;stroke-opacity:1" d="M 824.865,372.374 836.468,362.222 z" id="boundary" inkscape:connector-curvature="0" />
	<path style="fill:none;stroke:red;stroke-width:1px;stroke-linecap:butt;stroke-linejoin:miter;stroke-opacity:1" d="M 827.766,233.146 842.269,225.895 z" id="boundary" inkscape:connector-curvature="0" />
	<path style="fill:none;stroke:red;stroke-width:1px;stroke-linecap:butt;stroke-linejoin:miter;stroke-opacity:1" d="M 829.216,713.193 839.368,724.795 z" id="boundary" inkscape:connector-curvature="0" />
	<path style="fill:none;stroke:red;stroke-width:1px;stroke-linecap:butt;stroke-linejoin:miter;stroke-opacity:1" d="M 832.117,385.427 839.368,398.48 z" id="boundary" inkscape:connector-curvature="0" />
	<path style="fill:none;stroke:red;stroke-width:1px;stroke-linecap:butt;stroke-linejoin:miter;stroke-opacity:1" d="M 836.468,362.222 846.62,350.62 z" id="boundary" inkscape:connector-curvature="0" />
	<path style="fill:none;stroke:red;stroke-width:1px;stroke-linecap:butt;stroke-linejoin:miter;stroke-opacity:1" d="M 839.368,398.48 839.368,412.982 z" id="boundary" inkscape:connector-curvature="0" />
	<path style="fill:none;stroke:red;stroke-width:1px;stroke-linecap:butt;stroke-linejoin:miter;stroke-opacity:1" d="M 839.368,412.982 846.62,426.035 z" id="boundary" inkscape:connector-curvature="0" />
	<path style="fill:none;stroke:red;stroke-width:1px;stroke-linecap:butt;stroke-linejoin:miter;stroke-opacity:1" d="M 839.368,724.795 853.871,730.596 z" id="boundary" inkscape:connector-curvature="0" />
	<path style="fill:none;stroke:red;stroke-width:1px;stroke-linecap:butt;stroke-linejoin:miter;stroke-opacity:1" d="M 842.269,225.895 856.772,225.895 z" id="boundary" inkscape:connector-curvature="0" />
	<path style="fill:none;stroke:red;stroke-width:1px;stroke-linecap:butt;stroke-linejoin:miter;stroke-opacity:1" d="M 846.62,350.62 859.673,343.368 z" id="boundary" inkscape:connector-curvature="0" />
	<path style="fill:none;stroke:red;stroke-width:1px;stroke-linecap:butt;stroke-linejoin:miter;stroke-opacity:1" d="M 846.62,426.035 852.421,440.538 z" id="boundary" inkscape:connector-curvature="0" />
	<path style="fill:none;stroke:red;stroke-width:1px;stroke-linecap:butt;stroke-linejoin:miter;stroke-opacity:1" d="M 852.421,440.538 853.871,455.041 z" id="boundary" inkscape:connector-curvature="0" />
	<path style="fill:none;stroke:red;stroke-width:1px;stroke-linecap:butt;stroke-linejoin:miter;stroke-opacity:1" d="M 853.871,455.041 853.871,469.544 z" id="boundary" inkscape:connector-curvature="0" />
	<path style="fill:none;stroke:red;stroke-width:1px;stroke-linecap:butt;stroke-linejoin:miter;stroke-opacity:1" d="M 853.871,469.544 861.123,482.596 z" id="boundary" inkscape:connector-curvature="0" />
	<path style="fill:none;stroke:red;stroke-width:1px;stroke-linecap:butt;stroke-linejoin:miter;stroke-opacity:1" d="M 853.871,582.667 853.871,597.17 z" id="boundary" inkscape:connector-curvature="0" />
	<path style="fill:none;stroke:red;stroke-width:1px;stroke-linecap:butt;stroke-linejoin:miter;stroke-opacity:1" d="M 853.871,582.667 861.123,569.614 z" id="boundary" inkscape:connector-curvature="0" />
	<path style="fill:none;stroke:red;stroke-width:1px;stroke-linecap:butt;stroke-linejoin:miter;stroke-opacity:1" d="M 853.871,597.17 865.474,605.871 z" id="boundary" inkscape:connector-curvature="0" />
	<path style="fill:none;stroke:red;stroke-width:1px;stroke-linecap:butt;stroke-linejoin:miter;stroke-opacity:1" d="M 853.871,730.596 864.023,742.199 z" id="boundary" inkscape:connector-curvature="0" />
	<path style="fill:none;stroke:red;stroke-width:1px;stroke-linecap:butt;stroke-linejoin:miter;stroke-opacity:1" d="M 856.772,225.895 869.825,218.643 z" id="boundary" inkscape:connector-curvature="0" />
	<path style="fill:none;stroke:red;stroke-width:1px;stroke-linecap:butt;stroke-linejoin:miter;stroke-opacity:1" d="M 859.673,343.368 871.275,334.667 z" id="boundary" inkscape:connector-curvature="0" />
	<path style="fill:none;stroke:red;stroke-width:1px;stroke-linecap:butt;stroke-linejoin:miter;stroke-opacity:1" d="M 861.123,482.596 861.123,497.099 z" id="boundary" inkscape:connector-curvature="0" />
	<path style="fill:none;stroke:red;stroke-width:1px;stroke-linecap:butt;stroke-linejoin:miter;stroke-opacity:1" d="M 861.123,497.099 861.123,511.602 z" id="boundary" inkscape:connector-curvature="0" />
	<path style="fill:none;stroke:red;stroke-width:1px;stroke-linecap:butt;stroke-linejoin:miter;stroke-opacity:1" d="M 861.123,511.602 861.123,526.105 z" id="boundary" inkscape:connector-curvature="0" />
	<path style="fill:none;stroke:red;stroke-width:1px;stroke-linecap:butt;stroke-linejoin:miter;stroke-opacity:1" d="M 861.123,526.105 861.123,540.608 z" id="boundary" inkscape:connector-curvature="0" />
	<path style="fill:none;stroke:red;stroke-width:1px;stroke-linecap:butt;stroke-linejoin:miter;stroke-opacity:1" d="M 861.123,540.608 861.123,555.111 z" id="boundary" inkscape:connector-curvature="0" />
	<path style="fill:none;stroke:red;stroke-width:1px;stroke-linecap:butt;stroke-linejoin:miter;stroke-opacity:1" d="M 861.123,555.111 861.123,569.614 z" id="boundary" inkscape:connector-curvature="0" />
	<path style="fill:none;stroke:red;stroke-width:1px;stroke-linecap:butt;stroke-linejoin:miter;stroke-opacity:1" d="M 864.023,742.199 875.626,752.351 z" id="boundary" inkscape:connector-curvature="0" />
	<path style="fill:none;stroke:red;stroke-width:1px;stroke-linecap:butt;stroke-linejoin:miter;stroke-opacity:1" d="M 865.474,605.871 879.977,611.673 z" id="boundary" inkscape:connector-curvature="0" />
	<path style="fill:none;stroke:red;stroke-width:1px;stroke-linecap:butt;stroke-linejoin:miter;stroke-opacity:1" d="M 869.825,218.643 884.327,218.643 z" id="boundary" inkscape:connector-curvature="0" />
	<path style="fill:none;stroke:red;stroke-width:1px;stroke-linecap:butt;stroke-linejoin:miter;stroke-opacity:1" d="M 871.275,334.667 885.778,328.865 z" id="boundary" inkscape:connector-curvature="0" />
	<path style="fill:none;stroke:red;stroke-width:1px;stroke-linecap:butt;stroke-linejoin:miter;stroke-opacity:1" d="M 875.626,752.351 881.427,766.854 z" id="boundary" inkscape:connector-curvature="0" />
	<path style="fill:none;stroke:red;stroke-width:1px;stroke-linecap:butt;stroke-linejoin:miter;stroke-opacity:1" d="M 879.977,611.673 890.129,623.275 z" id="boundary" inkscape:connector-curvature="0" />
	<path style="fill:none;stroke:red;stroke-width:1px;stroke-linecap:butt;stroke-linejoin:miter;stroke-opacity:1" d="M 881.427,766.854 893.029,777.006 z" id="boundary" inkscape:connector-curvature="0" />
	<path style="fill:none;stroke:red;stroke-width:1px;stroke-linecap:butt;stroke-linejoin:miter;stroke-opacity:1" d="M 884.327,218.643 898.83,218.643 z" id="boundary" inkscape:connector-curvature="0" />
	<path style="fill:none;stroke:red;stroke-width:1px;stroke-linecap:butt;stroke-linejoin:miter;stroke-opacity:1" d="M 885.778,328.865 900.281,328.865 z" id="boundary" inkscape:connector-curvature="0" />
	<path style="fill:none;stroke:red;stroke-width:1px;stroke-linecap:butt;stroke-linejoin:miter;stroke-opacity:1" d="M 890.129,623.275 901.731,633.427 z" id="boundary" inkscape:connector-curvature="0" />
	<path style="fill:none;stroke:red;stroke-width:1px;stroke-linecap:butt;stroke-linejoin:miter;stroke-opacity:1" d="M 893.029,777.006 903.181,788.608 z" id="boundary" inkscape:connector-curvature="0" />
	<path style="fill:none;stroke:red;stroke-width:1px;stroke-linecap:butt;stroke-linejoin:miter;stroke-opacity:1" d="M 898.83,218.643 913.333,218.643 z" id="boundary" inkscape:connector-curvature="0" />
	<path style="fill:none;stroke:red;stroke-width:1px;stroke-linecap:butt;stroke-linejoin:miter;stroke-opacity:1" d="M 900.281,328.865 914.784,328.865 z" id="boundary" inkscape:connector-curvature="0" />
	<path style="fill:none;stroke:red;stroke-width:1px;stroke-linecap:butt;stroke-linejoin:miter;stroke-opacity:1" d="M 901.731,633.427 911.883,645.029 z" id="boundary" inkscape:connector-curvature="0" />
	<path style="fill:none;stroke:red;stroke-width:1px;stroke-linecap:butt;stroke-linejoin:miter;stroke-opacity:1" d="M 903.181,788.608 917.684,792.959 z" id="boundary" inkscape:connector-curvature="0" />
	<path style="fill:none;stroke:red;stroke-width:1px;stroke-linecap:butt;stroke-linejoin:miter;stroke-opacity:1" d="M 911.883,645.029 926.386,650.83 z" id="boundary" inkscape:connector-curvature="0" />
	<path style="fill:none;stroke:red;stroke-width:1px;stroke-linecap:butt;stroke-linejoin:miter;stroke-opacity:1" d="M 913.333,218.643 927.836,218.643 z" id="boundary" inkscape:connector-curvature="0" />
	<path style="fill:none;stroke:red;stroke-width:1px;stroke-linecap:butt;stroke-linejoin:miter;stroke-opacity:1" d="M 914.784,328.865 929.287,328.865 z" id="boundary" inkscape:connector-curvature="0" />
	<path style="fill:none;stroke:red;stroke-width:1px;stroke-linecap:butt;stroke-linejoin:miter;stroke-opacity:1" d="M 917.684,792.959 930.737,800.211 z" id="boundary" inkscape:connector-curvature="0" />
	<path style="fill:none;stroke:red;stroke-width:1px;stroke-linecap:butt;stroke-linejoin:miter;stroke-opacity:1" d="M 926.386,650.83 936.538,662.433 z" id="boundary" inkscape:connector-curvature="0" />
	<path style="fill:none;stroke:red;stroke-width:1px;stroke-linecap:butt;stroke-linejoin:miter;stroke-opacity:1" d="M 927.836,218.643 942.339,218.643 z" id="boundary" inkscape:connector-curvature="0" />
	<path style="fill:none;stroke:red;stroke-width:1px;stroke-linecap:butt;stroke-linejoin:miter;stroke-opacity:1" d="M 929.287,328.865 943.789,327.415 z" id="boundary" inkscape:connector-curvature="0" />
	<path style="fill:none;stroke:red;stroke-width:1px;stroke-linecap:butt;stroke-linejoin:miter;stroke-opacity:1" d="M 930.737,800.211 945.24,800.211 z" id="boundary" inkscape:connector-curvature="0" />
	<path style="fill:none;stroke:red;stroke-width:1px;stroke-linecap:butt;stroke-linejoin:miter;stroke-opacity:1" d="M 936.538,662.433 948.14,672.585 z" id="boundary" inkscape:connector-curvature="0" />
	<path style="fill:none;stroke:red;stroke-width:1px;stroke-linecap:butt;stroke-linejoin:miter;stroke-opacity:1" d="M 942.339,218.643 956.842,218.643 z" id="boundary" inkscape:connector-curvature="0" />
	<path style="fill:none;stroke:red;stroke-width:1px;stroke-linecap:butt;stroke-linejoin:miter;stroke-opacity:1" d="M 943.789,327.415 955.392,314.363 z" id="boundary" inkscape:connector-curvature="0" />
	<path style="fill:none;stroke:red;stroke-width:1px;stroke-linecap:butt;stroke-linejoin:miter;stroke-opacity:1" d="M 945.24,800.211 958.292,791.509 z" id="boundary" inkscape:connector-curvature="0" />
	<path style="fill:none;stroke:red;stroke-width:1px;stroke-linecap:butt;stroke-linejoin:miter;stroke-opacity:1" d="M 948.14,672.585 958.292,684.187 z" id="boundary" inkscape:connector-curvature="0" />
	<path style="fill:none;stroke:red;stroke-width:1px;stroke-linecap:butt;stroke-linejoin:miter;stroke-opacity:1" d="M 955.392,314.363 966.994,304.211 z" id="boundary" inkscape:connector-curvature="0" />
	<path style="fill:none;stroke:red;stroke-width:1px;stroke-linecap:butt;stroke-linejoin:miter;stroke-opacity:1" d="M 956.842,218.643 968.444,228.795 z" id="boundary" inkscape:connector-curvature="0" />
	<path style="fill:none;stroke:red;stroke-width:1px;stroke-linecap:butt;stroke-linejoin:miter;stroke-opacity:1" d="M 958.292,684.187 965.544,697.24 z" id="boundary" inkscape:connector-curvature="0" />
	<path style="fill:none;stroke:red;stroke-width:1px;stroke-linecap:butt;stroke-linejoin:miter;stroke-opacity:1" d="M 958.292,791.509 969.895,778.456 z" id="boundary" inkscape:connector-curvature="0" />
	<path style="fill:none;stroke:red;stroke-width:1px;stroke-linecap:butt;stroke-linejoin:miter;stroke-opacity:1" d="M 965.544,697.24 975.696,708.842 z" id="boundary" inkscape:connector-curvature="0" />
	<path style="fill:none;stroke:red;stroke-width:1px;stroke-linecap:butt;stroke-linejoin:miter;stroke-opacity:1" d="M 966.994,304.211 977.146,292.608 z" id="boundary" inkscape:connector-curvature="0" />
	<path style="fill:none;stroke:red;stroke-width:1px;stroke-linecap:butt;stroke-linejoin:miter;stroke-opacity:1" d="M 968.444,228.795 977.146,240.398 z" id="boundary" inkscape:connector-curvature="0" />
	<path style="fill:none;stroke:red;stroke-width:1px;stroke-linecap:butt;stroke-linejoin:miter;stroke-opacity:1" d="M 969.895,778.456 984.398,771.205 z" id="boundary" inkscape:connector-curvature="0" />
	<path style="fill:none;stroke:red;stroke-width:1px;stroke-linecap:butt;stroke-linejoin:miter;stroke-opacity:1" d="M 975.696,708.842 982.947,721.895 z" id="boundary" inkscape:connector-curvature="0" />
	<path style="fill:none;stroke:red;stroke-width:1px;stroke-linecap:butt;stroke-linejoin:miter;stroke-opacity:1" d="M 977.146,240.398 984.398,253.45 z" id="boundary" inkscape:connector-curvature="0" />
	<path style="fill:none;stroke:red;stroke-width:1px;stroke-linecap:butt;stroke-linejoin:miter;stroke-opacity:1" d="M 977.146,292.608 988.749,282.456 z" id="boundary" inkscape:connector-curvature="0" />
	<path style="fill:none;stroke:red;stroke-width:1px;stroke-linecap:butt;stroke-linejoin:miter;stroke-opacity:1" d="M 982.947,721.895 991.649,733.497 z" id="boundary" inkscape:connector-curvature="0" />
	<path style="fill:none;stroke:red;stroke-width:1px;stroke-linecap:butt;stroke-linejoin:miter;stroke-opacity:1" d="M 984.398,253.45 991.649,266.503 z" id="boundary" inkscape:connector-curvature="0" />
	<path style="fill:none;stroke:red;stroke-width:1px;stroke-linecap:butt;stroke-linejoin:miter;stroke-opacity:1" d="M 984.398,771.205 991.649,756.702 z" id="boundary" inkscape:connector-curvature="0" />
	<path style="fill:none;stroke:red;stroke-width:1px;stroke-linecap:butt;stroke-linejoin:miter;stroke-opacity:1" d="M 988.749,282.456 991.649,266.503 z" id="boundary" inkscape:connector-curvature="0" />
	<path style="fill:none;stroke:red;stroke-width:1px;stroke-linecap:butt;stroke-linejoin:miter;stroke-opacity:1" d="M 991.649,733.497 991.649,756.702 z" id="boundary" inkscape:connector-curvature="0" />
	<circle cx="4" cy="687.088" r="4" fill="#0" id="circle0"/>
	<circle cx="4" cy="701.591" r="4" fill="#0" id="circle1"/>
	<circle cx="4" cy="716.094" r="4" fill="#0" id="circle2"/>
	<circle cx="11.2515" cy="658.082" r="4" fill="#0" id="circle3"/>
	<circle cx="11.2515" cy="672.585" r="4" fill="#0" id="circle4"/>
	<circle cx="11.2515" cy="729.146" r="4" fill="#0" id="circle5"/>
	<circle cx="18.5029" cy="643.579" r="4" fill="#0" id="circle6"/>
	<circle cx="21.4035" cy="740.749" r="4" fill="#0" id="circle7"/>
	<circle cx="30.1053" cy="631.977" r="4" fill="#0" id="circle8"/>
	<circle cx="35.9064" cy="746.55" r="4" fill="#0" id="circle9"/>
	<circle cx="43.1579" cy="624.725" r="4" fill="#0" id="circle10"/>
	<circle cx="50.4094" cy="749.45" r="4" fill="#0" id="circle11"/>
	<circle cx="54.7602" cy="607.322" r="4" fill="#0" id="circle12"/>
	<circle cx="64.9123" cy="753.801" r="4" fill="#0" id="circle13"/>
	<circle cx="66.3626" cy="595.719" r="4" fill="#0" id="circle14"/>
	<circle cx="69.2632" cy="222.994" r="4" fill="#0" id="circle15"/>
	<circle cx="69.2632" cy="237.497" r="4" fill="#0" id="circle16"/>
	<circle cx="69.2632" cy="252" r="4" fill="#0" id="circle17"/>
	<circle cx="76.5146" cy="265.053" r="4" fill="#0" id="circle18"/>
	<circle cx="76.5146" cy="279.556" r="4" fill="#0" id="circle19"/>
	<circle cx="77.9649" cy="584.117" r="4" fill="#0" id="circle20"/>
	<circle cx="79.4152" cy="756.702" r="4" fill="#0" id="circle21"/>
	<circle cx="80.8655" cy="211.392" r="4" fill="#0" id="circle22"/>
	<circle cx="83.7661" cy="292.608" r="4" fill="#0" id="circle23"/>
	<circle cx="88.117" cy="307.111" r="4" fill="#0" id="circle24"/>
	<circle cx="89.5673" cy="573.965" r="4" fill="#0" id="circle25"/>
	<circle cx="92.4678" cy="763.953" r="4" fill="#0" id="circle26"/>
	<circle cx="93.9181" cy="204.14" r="4" fill="#0" id="circle27"/>
	<circle cx="99.7193" cy="742.199" r="4" fill="#0" id="circle28"/>
	<circle cx="101.17" cy="314.363" r="4" fill="#0" id="circle29"/>
	<circle cx="102.62" cy="566.713" r="4" fill="#0" id="circle30"/>
	<circle cx="106.971" cy="720.444" r="4" fill="#0" id="circle31"/>
	<circle cx="108.421" cy="204.14" r="4" fill="#0" id="circle32"/>
	<circle cx="114.222" cy="705.942" r="4" fill="#0" id="circle33"/>
	<circle cx="115.673" cy="314.363" r="4" fill="#0" id="circle34"/>
	<circle cx="115.673" cy="559.462" r="4" fill="#0" id="circle35"/>
	<circle cx="122.924" cy="204.14" r="4" fill="#0" id="circle36"/>
	<circle cx="125.825" cy="695.789" r="4" fill="#0" id="circle37"/>
	<circle cx="130.175" cy="318.713" r="4" fill="#0" id="circle38"/>
	<circle cx="130.175" cy="553.661" r="4" fill="#0" id="circle39"/>
	<circle cx="135.977" cy="211.392" r="4" fill="#0" id="circle40"/>
	<circle cx="135.977" cy="676.936" r="4" fill="#0" id="circle41"/>
	<circle cx="144.678" cy="321.614" r="4" fill="#0" id="circle42"/>
	<circle cx="144.678" cy="552.211" r="4" fill="#0" id="circle43"/>
	<circle cx="147.579" cy="666.784" r="4" fill="#0" id="circle44"/>
	<circle cx="150.48" cy="211.392" r="4" fill="#0" id="circle45"/>
	<circle cx="159.181" cy="325.965" r="4" fill="#0" id="circle46"/>
	<circle cx="159.181" cy="546.409" r="4" fill="#0" id="circle47"/>
	<circle cx="162.082" cy="659.532" r="4" fill="#0" id="circle48"/>
	<circle cx="164.982" cy="215.743" r="4" fill="#0" id="circle49"/>
	<circle cx="170.784" cy="336.117" r="4" fill="#0" id="circle50"/>
	<circle cx="173.684" cy="544.959" r="4" fill="#0" id="circle51"/>
	<circle cx="176.585" cy="655.181" r="4" fill="#0" id="circle52"/>
	<circle cx="179.485" cy="218.643" r="4" fill="#0" id="circle53"/>
	<circle cx="179.485" cy="347.719" r="4" fill="#0" id="circle54"/>
	<circle cx="185.287" cy="476.795" r="4" fill="#0" id="circle55"/>
	<circle cx="185.287" cy="491.298" r="4" fill="#0" id="circle56"/>
	<circle cx="185.287" cy="505.801" r="4" fill="#0" id="circle57"/>
	<circle cx="185.287" cy="520.304" r="4" fill="#0" id="circle58"/>
	<circle cx="185.287" cy="534.807" r="4" fill="#0" id="circle59"/>
	<circle cx="191.088" cy="652.281" r="4" fill="#0" id="circle60"/>
	<circle cx="192.538" cy="440.538" r="4" fill="#0" id="circle61"/>
	<circle cx="192.538" cy="455.041" r="4" fill="#0" id="circle62"/>
	<circle cx="193.988" cy="222.994" r="4" fill="#0" id="circle63"/>
	<circle cx="193.988" cy="353.52" r="4" fill="#0" id="circle64"/>
	<circle cx="199.789" cy="418.784" r="4" fill="#0" id="circle65"/>
	<circle cx="204.14" cy="365.123" r="4" fill="#0" id="circle66"/>
	<circle cx="205.591" cy="647.93" r="4" fill="#0" id="circle67"/>
	<circle cx="207.041" cy="230.246" r="4" fill="#0" id="circle68"/>
	<circle cx="207.041" cy="397.029" r="4" fill="#0" id="circle69"/>
	<circle cx="211.392" cy="662.433" r="4" fill="#0" id="circle70"/>
	<circle cx="214.292" cy="376.725" r="4" fill="#0" id="circle71"/>
	<circle cx="218.643" cy="240.398" r="4" fill="#0" id="circle72"/>
	<circle cx="218.643" cy="675.485" r="4" fill="#0" id="circle73"/>
	<circle cx="224.444" cy="689.988" r="4" fill="#0" id="circle74"/>
	<circle cx="231.696" cy="247.649" r="4" fill="#0" id="circle75"/>
	<circle cx="231.696" cy="703.041" r="4" fill="#0" id="circle76"/>
	<circle cx="237.497" cy="717.544" r="4" fill="#0" id="circle77"/>
	<circle cx="243.298" cy="257.801" r="4" fill="#0" id="circle78"/>
	<circle cx="243.298" cy="911.883" r="4" fill="#0" id="circle79"/>
	<circle cx="243.298" cy="926.386" r="4" fill="#0" id="circle80"/>
	<circle cx="243.298" cy="940.889" r="4" fill="#0" id="circle81"/>
	<circle cx="243.298" cy="955.392" r="4" fill="#0" id="circle82"/>
	<circle cx="243.298" cy="969.895" r="4" fill="#0" id="circle83"/>
	<circle cx="249.099" cy="727.696" r="4" fill="#0" id="circle84"/>
	<circle cx="250.55" cy="890.129" r="4" fill="#0" id="circle85"/>
	<circle cx="252" cy="269.404" r="4" fill="#0" id="circle86"/>
	<circle cx="254.901" cy="742.199" r="4" fill="#0" id="circle87"/>
	<circle cx="257.801" cy="868.374" r="4" fill="#0" id="circle88"/>
	<circle cx="257.801" cy="974.246" r="4" fill="#0" id="circle89"/>
	<circle cx="265.053" cy="276.655" r="4" fill="#0" id="circle90"/>
	<circle cx="265.053" cy="853.871" r="4" fill="#0" id="circle91"/>
	<circle cx="266.503" cy="752.351" r="4" fill="#0" id="circle92"/>
	<circle cx="266.503" cy="985.848" r="4" fill="#0" id="circle93"/>
	<circle cx="272.304" cy="63.462" r="4" fill="#0" id="circle94"/>
	<circle cx="272.304" cy="77.9649" r="4" fill="#0" id="circle95"/>
	<circle cx="272.304" cy="92.4678" r="4" fill="#0" id="circle96"/>
	<circle cx="272.304" cy="766.854" r="4" fill="#0" id="circle97"/>
	<circle cx="272.304" cy="839.368" r="4" fill="#0" id="circle98"/>
	<circle cx="278.105" cy="283.906" r="4" fill="#0" id="circle99"/>
	<circle cx="279.556" cy="41.7076" r="4" fill="#0" id="circle100"/>
	<circle cx="279.556" cy="824.865" r="4" fill="#0" id="circle101"/>
	<circle cx="281.006" cy="104.07" r="4" fill="#0" id="circle102"/>
	<circle cx="281.006" cy="988.749" r="4" fill="#0" id="circle103"/>
	<circle cx="283.906" cy="777.006" r="4" fill="#0" id="circle104"/>
	<circle cx="286.807" cy="27.2047" r="4" fill="#0" id="circle105"/>
	<circle cx="288.257" cy="272.304" r="4" fill="#0" id="circle106"/>
	<circle cx="291.158" cy="813.263" r="4" fill="#0" id="circle107"/>
	<circle cx="294.058" cy="111.322" r="4" fill="#0" id="circle108"/>
	<circle cx="294.058" cy="788.608" r="4" fill="#0" id="circle109"/>
	<circle cx="295.509" cy="988.749" r="4" fill="#0" id="circle110"/>
	<circle cx="298.409" cy="15.6023" r="4" fill="#0" id="circle111"/>
	<circle cx="299.86" cy="262.152" r="4" fill="#0" id="circle112"/>
	<circle cx="301.31" cy="801.661" r="4" fill="#0" id="circle113"/>
	<circle cx="307.111" cy="118.573" r="4" fill="#0" id="circle114"/>
	<circle cx="310.012" cy="4" r="4" fill="#0" id="circle115"/>
	<circle cx="310.012" cy="988.749" r="4" fill="#0" id="circle116"/>
	<circle cx="312.912" cy="254.901" r="4" fill="#0" id="circle117"/>
	<circle cx="315.813" cy="130.175" r="4" fill="#0" id="circle118"/>
	<circle cx="323.064" cy="143.228" r="4" fill="#0" id="circle119"/>
	<circle cx="324.515" cy="5.45029" r="4" fill="#0" id="circle120"/>
	<circle cx="324.515" cy="243.298" r="4" fill="#0" id="circle121"/>
	<circle cx="324.515" cy="988.749" r="4" fill="#0" id="circle122"/>
	<circle cx="334.667" cy="153.38" r="4" fill="#0" id="circle123"/>
	<circle cx="336.117" cy="233.146" r="4" fill="#0" id="circle124"/>
	<circle cx="336.117" cy="978.596" r="4" fill="#0" id="circle125"/>
	<circle cx="337.567" cy="12.7018" r="4" fill="#0" id="circle126"/>
	<circle cx="346.269" cy="966.994" r="4" fill="#0" id="circle127"/>
	<circle cx="347.719" cy="160.632" r="4" fill="#0" id="circle128"/>
	<circle cx="349.17" cy="22.8538" r="4" fill="#0" id="circle129"/>
	<circle cx="349.17" cy="225.895" r="4" fill="#0" id="circle130"/>
	<circle cx="353.52" cy="923.485" r="4" fill="#0" id="circle131"/>
	<circle cx="353.52" cy="937.988" r="4" fill="#0" id="circle132"/>
	<circle cx="353.52" cy="952.491" r="4" fill="#0" id="circle133"/>
	<circle cx="354.971" cy="173.684" r="4" fill="#0" id="circle134"/>
	<circle cx="360.772" cy="901.731" r="4" fill="#0" id="circle135"/>
	<circle cx="362.222" cy="30.1053" r="4" fill="#0" id="circle136"/>
	<circle cx="362.222" cy="218.643" r="4" fill="#0" id="circle137"/>
	<circle cx="366.573" cy="183.836" r="4" fill="#0" id="circle138"/>
	<circle cx="368.023" cy="887.228" r="4" fill="#0" id="circle139"/>
	<circle cx="375.275" cy="37.3567" r="4" fill="#0" id="circle140"/>
	<circle cx="375.275" cy="195.439" r="4" fill="#0" id="circle141"/>
	<circle cx="375.275" cy="211.392" r="4" fill="#0" id="circle142"/>
	<circle cx="379.626" cy="877.076" r="4" fill="#0" id="circle143"/>
	<circle cx="386.877" cy="46.0585" r="4" fill="#0" id="circle144"/>
	<circle cx="389.778" cy="865.474" r="4" fill="#0" id="circle145"/>
	<circle cx="397.029" cy="57.6608" r="4" fill="#0" id="circle146"/>
	<circle cx="402.83" cy="858.222" r="4" fill="#0" id="circle147"/>
	<circle cx="404.281" cy="70.7135" r="4" fill="#0" id="circle148"/>
	<circle cx="417.333" cy="77.9649" r="4" fill="#0" id="circle149"/>
	<circle cx="417.333" cy="858.222" r="4" fill="#0" id="circle150"/>
	<circle cx="428.936" cy="88.117" r="4" fill="#0" id="circle151"/>
	<circle cx="430.386" cy="865.474" r="4" fill="#0" id="circle152"/>
	<circle cx="433.287" cy="102.62" r="4" fill="#0" id="circle153"/>
	<circle cx="443.439" cy="872.725" r="4" fill="#0" id="circle154"/>
	<circle cx="444.889" cy="111.322" r="4" fill="#0" id="circle155"/>
	<circle cx="455.041" cy="122.924" r="4" fill="#0" id="circle156"/>
	<circle cx="457.942" cy="872.725" r="4" fill="#0" id="circle157"/>
	<circle cx="466.643" cy="133.076" r="4" fill="#0" id="circle158"/>
	<circle cx="472.444" cy="147.579" r="4" fill="#0" id="circle159"/>
	<circle cx="472.444" cy="872.725" r="4" fill="#0" id="circle160"/>
	<circle cx="484.047" cy="157.731" r="4" fill="#0" id="circle161"/>
	<circle cx="485.497" cy="879.977" r="4" fill="#0" id="circle162"/>
	<circle cx="489.848" cy="172.234" r="4" fill="#0" id="circle163"/>
	<circle cx="500" cy="879.977" r="4" fill="#0" id="circle164"/>
	<circle cx="504.351" cy="175.135" r="4" fill="#0" id="circle165"/>
	<circle cx="514.503" cy="879.977" r="4" fill="#0" id="circle166"/>
	<circle cx="518.854" cy="175.135" r="4" fill="#0" id="circle167"/>
	<circle cx="529.006" cy="879.977" r="4" fill="#0" id="circle168"/>
	<circle cx="533.357" cy="175.135" r="4" fill="#0" id="circle169"/>
	<circle cx="543.509" cy="879.977" r="4" fill="#0" id="circle170"/>
	<circle cx="547.86" cy="175.135" r="4" fill="#0" id="circle171"/>
	<circle cx="558.012" cy="879.977" r="4" fill="#0" id="circle172"/>
	<circle cx="562.363" cy="175.135" r="4" fill="#0" id="circle173"/>
	<circle cx="571.064" cy="872.725" r="4" fill="#0" id="circle174"/>
	<circle cx="576.865" cy="164.982" r="4" fill="#0" id="circle175"/>
	<circle cx="584.117" cy="143.228" r="4" fill="#0" id="circle176"/>
	<circle cx="585.567" cy="872.725" r="4" fill="#0" id="circle177"/>
	<circle cx="591.368" cy="114.222" r="4" fill="#0" id="circle178"/>
	<circle cx="591.368" cy="128.725" r="4" fill="#0" id="circle179"/>
	<circle cx="598.62" cy="99.7193" r="4" fill="#0" id="circle180"/>
	<circle cx="600.07" cy="872.725" r="4" fill="#0" id="circle181"/>
	<circle cx="610.222" cy="88.117" r="4" fill="#0" id="circle182"/>
	<circle cx="613.123" cy="879.977" r="4" fill="#0" id="circle183"/>
	<circle cx="617.474" cy="73.614" r="4" fill="#0" id="circle184"/>
	<circle cx="624.725" cy="59.1111" r="4" fill="#0" id="circle185"/>
	<circle cx="626.175" cy="887.228" r="4" fill="#0" id="circle186"/>
	<circle cx="631.977" cy="44.6082" r="4" fill="#0" id="circle187"/>
	<circle cx="639.228" cy="894.48" r="4" fill="#0" id="circle188"/>
	<circle cx="642.129" cy="27.2047" r="4" fill="#0" id="circle189"/>
	<circle cx="650.83" cy="904.632" r="4" fill="#0" id="circle190"/>
	<circle cx="653.731" cy="15.6023" r="4" fill="#0" id="circle191"/>
	<circle cx="663.883" cy="911.883" r="4" fill="#0" id="circle192"/>
	<circle cx="666.784" cy="8.35088" r="4" fill="#0" id="circle193"/>
	<circle cx="671.135" cy="924.936" r="4" fill="#0" id="circle194"/>
	<circle cx="671.135" cy="939.439" r="4" fill="#0" id="circle195"/>
	<circle cx="678.386" cy="952.491" r="4" fill="#0" id="circle196"/>
	<circle cx="679.836" cy="198.339" r="4" fill="#0" id="circle197"/>
	<circle cx="679.836" cy="212.842" r="4" fill="#0" id="circle198"/>
	<circle cx="681.287" cy="8.35088" r="4" fill="#0" id="circle199"/>
	<circle cx="685.637" cy="965.544" r="4" fill="#0" id="circle200"/>
	<circle cx="687.088" cy="176.585" r="4" fill="#0" id="circle201"/>
	<circle cx="688.538" cy="980.047" r="4" fill="#0" id="circle202"/>
	<circle cx="691.439" cy="221.544" r="4" fill="#0" id="circle203"/>
	<circle cx="694.339" cy="147.579" r="4" fill="#0" id="circle204"/>
	<circle cx="694.339" cy="162.082" r="4" fill="#0" id="circle205"/>
	<circle cx="695.789" cy="8.35088" r="4" fill="#0" id="circle206"/>
	<circle cx="700.14" cy="988.749" r="4" fill="#0" id="circle207"/>
	<circle cx="701.591" cy="233.146" r="4" fill="#0" id="circle208"/>
	<circle cx="705.942" cy="137.427" r="4" fill="#0" id="circle209"/>
	<circle cx="708.842" cy="15.6023" r="4" fill="#0" id="circle210"/>
	<circle cx="713.193" cy="122.924" r="4" fill="#0" id="circle211"/>
	<circle cx="713.193" cy="996" r="4" fill="#0" id="circle212"/>
	<circle cx="716.094" cy="237.497" r="4" fill="#0" id="circle213"/>
	<circle cx="716.094" cy="814.713" r="4" fill="#0" id="circle214"/>
	<circle cx="720.444" cy="24.3041" r="4" fill="#0" id="circle215"/>
	<circle cx="720.444" cy="108.421" r="4" fill="#0" id="circle216"/>
	<circle cx="723.345" cy="827.766" r="4" fill="#0" id="circle217"/>
	<circle cx="726.246" cy="249.099" r="4" fill="#0" id="circle218"/>
	<circle cx="727.696" cy="93.9181" r="4" fill="#0" id="circle219"/>
	<circle cx="727.696" cy="804.561" r="4" fill="#0" id="circle220"/>
	<circle cx="727.696" cy="996" r="4" fill="#0" id="circle221"/>
	<circle cx="733.497" cy="31.5556" r="4" fill="#0" id="circle222"/>
	<circle cx="737.848" cy="82.3158" r="4" fill="#0" id="circle223"/>
	<circle cx="737.848" cy="832.117" r="4" fill="#0" id="circle224"/>
	<circle cx="740.749" cy="254.901" r="4" fill="#0" id="circle225"/>
	<circle cx="742.199" cy="797.31" r="4" fill="#0" id="circle226"/>
	<circle cx="742.199" cy="996" r="4" fill="#0" id="circle227"/>
	<circle cx="745.099" cy="41.7076" r="4" fill="#0" id="circle228"/>
	<circle cx="748" cy="843.719" r="4" fill="#0" id="circle229"/>
	<circle cx="749.45" cy="72.1637" r="4" fill="#0" id="circle230"/>
	<circle cx="750.901" cy="266.503" r="4" fill="#0" id="circle231"/>
	<circle cx="752.351" cy="54.7602" r="4" fill="#0" id="circle232"/>
	<circle cx="752.351" cy="785.708" r="4" fill="#0" id="circle233"/>
	<circle cx="755.251" cy="856.772" r="4" fill="#0" id="circle234"/>
	<circle cx="755.251" cy="988.749" r="4" fill="#0" id="circle235"/>
	<circle cx="762.503" cy="276.655" r="4" fill="#0" id="circle236"/>
	<circle cx="763.953" cy="775.556" r="4" fill="#0" id="circle237"/>
	<circle cx="765.404" cy="868.374" r="4" fill="#0" id="circle238"/>
	<circle cx="768.304" cy="981.497" r="4" fill="#0" id="circle239"/>
	<circle cx="772.655" cy="881.427" r="4" fill="#0" id="circle240"/>
	<circle cx="774.105" cy="756.702" r="4" fill="#0" id="circle241"/>
	<circle cx="774.105" cy="895.93" r="4" fill="#0" id="circle242"/>
	<circle cx="777.006" cy="269.404" r="4" fill="#0" id="circle243"/>
	<circle cx="778.456" cy="910.433" r="4" fill="#0" id="circle244"/>
	<circle cx="781.357" cy="974.246" r="4" fill="#0" id="circle245"/>
	<circle cx="785.708" cy="746.55" r="4" fill="#0" id="circle246"/>
	<circle cx="788.608" cy="922.035" r="4" fill="#0" id="circle247"/>
	<circle cx="788.608" cy="952.491" r="4" fill="#0" id="circle248"/>
	<circle cx="790.058" cy="262.152" r="4" fill="#0" id="circle249"/>
	<circle cx="795.86" cy="727.696" r="4" fill="#0" id="circle250"/>
	<circle cx="795.86" cy="935.088" r="4" fill="#0" id="circle251"/>
	<circle cx="801.661" cy="252" r="4" fill="#0" id="circle252"/>
	<circle cx="807.462" cy="717.544" r="4" fill="#0" id="circle253"/>
	<circle cx="816.164" cy="244.749" r="4" fill="#0" id="circle254"/>
	<circle cx="816.164" cy="705.942" r="4" fill="#0" id="circle255"/>
	<circle cx="824.865" cy="372.374" r="4" fill="#0" id="circle256"/>
	<circle cx="827.766" cy="233.146" r="4" fill="#0" id="circle257"/>
	<circle cx="829.216" cy="713.193" r="4" fill="#0" id="circle258"/>
	<circle cx="832.117" cy="385.427" r="4" fill="#0" id="circle259"/>
	<circle cx="836.468" cy="362.222" r="4" fill="#0" id="circle260"/>
	<circle cx="839.368" cy="398.48" r="4" fill="#0" id="circle261"/>
	<circle cx="839.368" cy="412.982" r="4" fill="#0" id="circle262"/>
	<circle cx="839.368" cy="724.795" r="4" fill="#0" id="circle263"/>
	<circle cx="842.269" cy="225.895" r="4" fill="#0" id="circle264"/>
	<circle cx="846.62" cy="350.62" r="4" fill="#0" id="circle265"/>
	<circle cx="846.62" cy="426.035" r="4" fill="#0" id="circle266"/>
	<circle cx="852.421" cy="440.538" r="4" fill="#0" id="circle267"/>
	<circle cx="853.871" cy="455.041" r="4" fill="#0" id="circle268"/>
	<circle cx="853.871" cy="469.544" r="4" fill="#0" id="circle269"/>
	<circle cx="853.871" cy="582.667" r="4" fill="#0" id="circle270"/>
	<circle cx="853.871" cy="597.17" r="4" fill="#0" id="circle271"/>
	<circle cx="853.871" cy="730.596" r="4" fill="#0" id="circle272"/>
	<circle cx="856.772" cy="225.895" r="4" fill="#0" id="circle273"/>
	<circle cx="859.673" cy="343.368" r="4" fill="#0" id="circle274"/>
	<circle cx="861.123" cy="482.596" r="4" fill="#0" id="circle275"/>
	<circle cx="861.123" cy="497.099" r="4" fill="#0" id="circle276"/>
	<circle cx="861.123" cy="511.602" r="4" fill="#0" id="circle277"/>
	<circle cx="861.123" cy="526.105" r="4" fill="#0" id="circle278"/>
	<circle cx="861.123" cy="540.608" r="4" fill="#0" id="circle279"/>
	<circle cx="861.123" cy="555.111" r="4" fill="#0" id="circle280"/>
	<circle cx="861.123" cy="569.614" r="4" fill="#0" id="circle281"/>
	<circle cx="864.023" cy="742.199" r="4" fill="#0" id="circle282"/>
	<circle cx="865.474" cy="605.871" r="4" fill="#0" id="circle283"/>
	<circle cx="869.825" cy="218.643" r="4" fill="#0" id="circle284"/>
	<circle cx="871.275" cy="334.667" r="4" fill="#0" id="circle285"/>
	<circle cx="875.626" cy="752.351" r="4" fill="#0" id="circle286"/>
	<circle cx="879.977" cy="611.673" r="4" fill="#0" id="circle287"/>
	<circle cx="881.427" cy="766.854" r="4" fill="#0" id="circle288"/>
	<circle cx="884.327" cy="218.643" r="4" fill="#0" id="circle289"/>
	<circle cx="885.778" cy="328.865" r="4" fill="#0" id="circle290"/>
	<circle cx="890.129" cy="623.275" r="4" fill="#0" id="circle291"/>
	<circle cx="893.029" cy="777.006" r="4" fill="#0" id="circle292"/>
	<circle cx="898.83" cy="218.643" r="4" fill="#0" id="circle293"/>
	<circle cx="900.281" cy="328.865" r="4" fill="#0" id="circle294"/>
	<circle cx="901.731" cy="633.427" r="4" fill="#0" id="circle295"/>
	<circle cx="903.181" cy="788.608" r="4" fill="#0" id="circle296"/>
	<circle cx="911.883" cy="645.029" r="4" fill="#0" id="circle297"/>
	<circle cx="913.333" cy="218.643" r="4" fill="#0" id="circle298"/>
	<circle cx="914.784" cy="328.865" r="4" fill="#0" id="circle299"/>
	<circle cx="917.684" cy="792.959" r="4" fill="#0" id="circle300"/>
	<circle cx="926.386" cy="650.83" r="4" fill="#0" id="circle301"/>
	<circle cx="927.836" cy="218.643" r="4" fill="#0" id="circle302"/>
	<circle cx="929.287" cy="328.865" r="4" fill="#0" id="circle303"/>
	<circle cx="930.737" cy="800.211" r="4" fill="#0" id="circle304"/>
	<circle cx="936.538" cy="662.433" r="4" fill="#0" id="circle305"/>
	<circle cx="942.339" cy="218.643" r="4" fill="#0" id="circle306"/>
	<circle cx="943.789" cy="327.415" r="4" fill="#0" id="circle307"/>
	<circle cx="945.24" cy="800.211" r="4" fill="#0" id="circle308"/>
	<circle cx="948.14" cy="672.585" r="4" fill="#0" id="circle309"/>
	<circle cx="955.392" cy="314.363" r="4" fill="#0" id="circle310"/>
	<circle cx="956.842" cy="218.643" r="4" fill="#0" id="circle311"/>
	<circle cx="958.292" cy="684.187" r="4" fill="#0" id="circle312"/>
	<circle cx="958.292" cy="791.509" r="4" fill="#0" id="circle313"/>
	<circle cx="965.544" cy="697.24" r="4" fill="#0" id="circle314"/>
	<circle cx="966.994" cy="304.211" r="4" fill="#0" id="circle315"/>
	<circle cx="968.444" cy="228.795" r="4" fill="#0" id="circle316"/>
	<circle cx="969.895" cy="778.456" r="4" fill="#0" id="circle317"/>
	<circle cx="975.696" cy="708.842" r="4" fill="#0" id="circle318"/>
	<circle cx="977.146" cy="240.398" r="4" fill="#0" id="circle319"/>
	<circle cx="977.146" cy="292.608" r="4" fill="#0" id="circle320"/>
	<circle cx="982.947" cy="721.895" r="4" fill="#0" id="circle321"/>
	<circle cx="984.398" cy="253.45" r="4" fill="#0" id="circle322"/>
	<circle cx="984.398" cy="771.205" r="4" fill="#0" id="circle323"/>
	<circle cx="988.749" cy="282.456" r="4" fill="#0" id="circle324"/>
	<circle cx="991.649" cy="266.503" r="4" fill="#0" id="circle325"/>
	<circle cx="991.649" cy="733.497" r="4" fill="#0" id="circle326"/>
	<circle cx="991.649" cy="756.702" r="4" fill="#0" id="circle327"/>
	</g>
</svg>