<?xml version="1.0" encoding="UTF-8" standalone="no"?>
<!-- Created with CurveBenchmark -->
<svg
	xmlns:dc="http://purl.org/dc/elements/1.1/"
	xmlns:cc="http://creativecommons.org/ns#"
	xmlns:rdf="http://www.w3.org/1999/02/22-rdf-syntax-ns#"
	xmlns:svg="http://www.w3.org/2000/svg"
	xmlns="http://www.w3.org/2000/svg"
	xmlns:sodipodi="http://sodipodi.sourceforge.net/DTD/sodipodi-0.dtd"
	xmlns:inkscape="http://www.inkscape.org/namespaces/inkscape"
	width="1000"
	height="1000"
	id="svg2"
	version="1.1"
	sodipodi:docname="manifold/vicur-kk0732.png.txt">
<defs
	id="defs4" />
<metadata
	id="metadata7">
	<rdf:RDF>
		<cc:Work
			rdf:about="">
			<dc:format>image/svg+xml</dc:format>
			<dc:type
				rdf:resource="http://purl.org/dc/dcmitype/StillImage" />
			<dc:title></dc:title>
		</cc:Work>
	</rdf:RDF>
</metadata>
<g
	inkscape:label="Layer 1"
	inkscape:groupmode="layer"
	id="layer1">
	<path style="fill:none;stroke:red;stroke-width:1px;stroke-linecap:butt;stroke-linejoin:miter;stroke-opacity:1" d="M 4,318.895 12.1579,302.579 z" id="boundary" inkscape:connector-curvature="0" />
	<path style="fill:none;stroke:red;stroke-width:1px;stroke-linecap:butt;stroke-linejoin:miter;stroke-opacity:1" d="M 4,318.895 12.1579,333.579 z" id="boundary" inkscape:connector-curvature="0" />
	<path style="fill:none;stroke:red;stroke-width:1px;stroke-linecap:butt;stroke-linejoin:miter;stroke-opacity:1" d="M 12.1579,302.579 20.3158,286.263 z" id="boundary" inkscape:connector-curvature="0" />
	<path style="fill:none;stroke:red;stroke-width:1px;stroke-linecap:butt;stroke-linejoin:miter;stroke-opacity:1" d="M 12.1579,333.579 20.3158,348.263 z" id="boundary" inkscape:connector-curvature="0" />
	<path style="fill:none;stroke:red;stroke-width:1px;stroke-linecap:butt;stroke-linejoin:miter;stroke-opacity:1" d="M 20.3158,286.263 28.4737,261.789 z" id="boundary" inkscape:connector-curvature="0" />
	<path style="fill:none;stroke:red;stroke-width:1px;stroke-linecap:butt;stroke-linejoin:miter;stroke-opacity:1" d="M 20.3158,348.263 28.4737,362.947 z" id="boundary" inkscape:connector-curvature="0" />
	<path style="fill:none;stroke:red;stroke-width:1px;stroke-linecap:butt;stroke-linejoin:miter;stroke-opacity:1" d="M 28.4737,261.789 41.5263,248.737 z" id="boundary" inkscape:connector-curvature="0" />
	<path style="fill:none;stroke:red;stroke-width:1px;stroke-linecap:butt;stroke-linejoin:miter;stroke-opacity:1" d="M 28.4737,362.947 38.2632,376 z" id="boundary" inkscape:connector-curvature="0" />
	<path style="fill:none;stroke:red;stroke-width:1px;stroke-linecap:butt;stroke-linejoin:miter;stroke-opacity:1" d="M 38.2632,376 49.6842,389.053 z" id="boundary" inkscape:connector-curvature="0" />
	<path style="fill:none;stroke:red;stroke-width:1px;stroke-linecap:butt;stroke-linejoin:miter;stroke-opacity:1" d="M 41.5263,248.737 49.6842,232.421 z" id="boundary" inkscape:connector-curvature="0" />
	<path style="fill:none;stroke:red;stroke-width:1px;stroke-linecap:butt;stroke-linejoin:miter;stroke-opacity:1" d="M 49.6842,232.421 62.7368,219.368 z" id="boundary" inkscape:connector-curvature="0" />
	<path style="fill:none;stroke:red;stroke-width:1px;stroke-linecap:butt;stroke-linejoin:miter;stroke-opacity:1" d="M 49.6842,389.053 52.9474,405.368 z" id="boundary" inkscape:connector-curvature="0" />
	<path style="fill:none;stroke:red;stroke-width:1px;stroke-linecap:butt;stroke-linejoin:miter;stroke-opacity:1" d="M 52.9474,405.368 62.7368,418.421 z" id="boundary" inkscape:connector-curvature="0" />
	<path style="fill:none;stroke:red;stroke-width:1px;stroke-linecap:butt;stroke-linejoin:miter;stroke-opacity:1" d="M 62.7368,219.368 77.4211,204.684 z" id="boundary" inkscape:connector-curvature="0" />
	<path style="fill:none;stroke:red;stroke-width:1px;stroke-linecap:butt;stroke-linejoin:miter;stroke-opacity:1" d="M 62.7368,418.421 75.7895,429.842 z" id="boundary" inkscape:connector-curvature="0" />
	<path style="fill:none;stroke:red;stroke-width:1px;stroke-linecap:butt;stroke-linejoin:miter;stroke-opacity:1" d="M 75.7895,429.842 82.3158,446.158 z" id="boundary" inkscape:connector-curvature="0" />
	<path style="fill:none;stroke:red;stroke-width:1px;stroke-linecap:butt;stroke-linejoin:miter;stroke-opacity:1" d="M 77.4211,204.684 93.7368,196.526 z" id="boundary" inkscape:connector-curvature="0" />
	<path style="fill:none;stroke:red;stroke-width:1px;stroke-linecap:butt;stroke-linejoin:miter;stroke-opacity:1" d="M 82.3158,446.158 97,454.316 z" id="boundary" inkscape:connector-curvature="0" />
	<path style="fill:none;stroke:red;stroke-width:1px;stroke-linecap:butt;stroke-linejoin:miter;stroke-opacity:1" d="M 93.7368,196.526 106.789,183.474 z" id="boundary" inkscape:connector-curvature="0" />
	<path style="fill:none;stroke:red;stroke-width:1px;stroke-linecap:butt;stroke-linejoin:miter;stroke-opacity:1" d="M 97,454.316 105.158,469 z" id="boundary" inkscape:connector-curvature="0" />
	<path style="fill:none;stroke:red;stroke-width:1px;stroke-linecap:butt;stroke-linejoin:miter;stroke-opacity:1" d="M 105.158,469 121.474,475.526 z" id="boundary" inkscape:connector-curvature="0" />
	<path style="fill:none;stroke:red;stroke-width:1px;stroke-linecap:butt;stroke-linejoin:miter;stroke-opacity:1" d="M 106.789,183.474 119.842,170.421 z" id="boundary" inkscape:connector-curvature="0" />
	<path style="fill:none;stroke:red;stroke-width:1px;stroke-linecap:butt;stroke-linejoin:miter;stroke-opacity:1" d="M 119.842,170.421 132.895,159 z" id="boundary" inkscape:connector-curvature="0" />
	<path style="fill:none;stroke:red;stroke-width:1px;stroke-linecap:butt;stroke-linejoin:miter;stroke-opacity:1" d="M 121.474,475.526 134.526,486.947 z" id="boundary" inkscape:connector-curvature="0" />
	<path style="fill:none;stroke:red;stroke-width:1px;stroke-linecap:butt;stroke-linejoin:miter;stroke-opacity:1" d="M 132.895,159 144.316,145.947 z" id="boundary" inkscape:connector-curvature="0" />
	<path style="fill:none;stroke:red;stroke-width:1px;stroke-linecap:butt;stroke-linejoin:miter;stroke-opacity:1" d="M 134.526,486.947 144.316,500 z" id="boundary" inkscape:connector-curvature="0" />
	<path style="fill:none;stroke:red;stroke-width:1px;stroke-linecap:butt;stroke-linejoin:miter;stroke-opacity:1" d="M 144.316,145.947 157.368,134.526 z" id="boundary" inkscape:connector-curvature="0" />
	<path style="fill:none;stroke:red;stroke-width:1px;stroke-linecap:butt;stroke-linejoin:miter;stroke-opacity:1" d="M 144.316,500 160.632,506.526 z" id="boundary" inkscape:connector-curvature="0" />
	<path style="fill:none;stroke:red;stroke-width:1px;stroke-linecap:butt;stroke-linejoin:miter;stroke-opacity:1" d="M 157.368,134.526 168.789,121.474 z" id="boundary" inkscape:connector-curvature="0" />
	<path style="fill:none;stroke:red;stroke-width:1px;stroke-linecap:butt;stroke-linejoin:miter;stroke-opacity:1" d="M 160.632,506.526 167.158,522.842 z" id="boundary" inkscape:connector-curvature="0" />
	<path style="fill:none;stroke:red;stroke-width:1px;stroke-linecap:butt;stroke-linejoin:miter;stroke-opacity:1" d="M 167.158,522.842 183.474,527.737 z" id="boundary" inkscape:connector-curvature="0" />
	<path style="fill:none;stroke:red;stroke-width:1px;stroke-linecap:butt;stroke-linejoin:miter;stroke-opacity:1" d="M 168.789,121.474 176.947,105.158 z" id="boundary" inkscape:connector-curvature="0" />
	<path style="fill:none;stroke:red;stroke-width:1px;stroke-linecap:butt;stroke-linejoin:miter;stroke-opacity:1" d="M 176.947,105.158 185.105,88.8421 z" id="boundary" inkscape:connector-curvature="0" />
	<path style="fill:none;stroke:red;stroke-width:1px;stroke-linecap:butt;stroke-linejoin:miter;stroke-opacity:1" d="M 183.474,527.737 188.368,544.053 z" id="boundary" inkscape:connector-curvature="0" />
	<path style="fill:none;stroke:red;stroke-width:1px;stroke-linecap:butt;stroke-linejoin:miter;stroke-opacity:1" d="M 185.105,88.8421 199.789,74.1579 z" id="boundary" inkscape:connector-curvature="0" />
	<path style="fill:none;stroke:red;stroke-width:1px;stroke-linecap:butt;stroke-linejoin:miter;stroke-opacity:1" d="M 188.368,544.053 201.421,555.474 z" id="boundary" inkscape:connector-curvature="0" />
	<path style="fill:none;stroke:red;stroke-width:1px;stroke-linecap:butt;stroke-linejoin:miter;stroke-opacity:1" d="M 199.789,74.1579 212.842,61.1053 z" id="boundary" inkscape:connector-curvature="0" />
	<path style="fill:none;stroke:red;stroke-width:1px;stroke-linecap:butt;stroke-linejoin:miter;stroke-opacity:1" d="M 201.421,555.474 207.947,571.789 z" id="boundary" inkscape:connector-curvature="0" />
	<path style="fill:none;stroke:red;stroke-width:1px;stroke-linecap:butt;stroke-linejoin:miter;stroke-opacity:1" d="M 207.947,571.789 221,583.211 z" id="boundary" inkscape:connector-curvature="0" />
	<path style="fill:none;stroke:red;stroke-width:1px;stroke-linecap:butt;stroke-linejoin:miter;stroke-opacity:1" d="M 212.842,61.1053 224.263,41.5263 z" id="boundary" inkscape:connector-curvature="0" />
	<path style="fill:none;stroke:red;stroke-width:1px;stroke-linecap:butt;stroke-linejoin:miter;stroke-opacity:1" d="M 221,583.211 232.421,596.263 z" id="boundary" inkscape:connector-curvature="0" />
	<path style="fill:none;stroke:red;stroke-width:1px;stroke-linecap:butt;stroke-linejoin:miter;stroke-opacity:1" d="M 224.263,41.5263 237.316,28.4737 z" id="boundary" inkscape:connector-curvature="0" />
	<path style="fill:none;stroke:red;stroke-width:1px;stroke-linecap:butt;stroke-linejoin:miter;stroke-opacity:1" d="M 232.421,596.263 245.474,607.684 z" id="boundary" inkscape:connector-curvature="0" />
	<path style="fill:none;stroke:red;stroke-width:1px;stroke-linecap:butt;stroke-linejoin:miter;stroke-opacity:1" d="M 237.316,28.4737 252,20.3158 z" id="boundary" inkscape:connector-curvature="0" />
	<path style="fill:none;stroke:red;stroke-width:1px;stroke-linecap:butt;stroke-linejoin:miter;stroke-opacity:1" d="M 245.474,607.684 252,624 z" id="boundary" inkscape:connector-curvature="0" />
	<path style="fill:none;stroke:red;stroke-width:1px;stroke-linecap:butt;stroke-linejoin:miter;stroke-opacity:1" d="M 252,20.3158 265.053,8.89474 z" id="boundary" inkscape:connector-curvature="0" />
	<path style="fill:none;stroke:red;stroke-width:1px;stroke-linecap:butt;stroke-linejoin:miter;stroke-opacity:1" d="M 252,624 268.316,630.526 z" id="boundary" inkscape:connector-curvature="0" />
	<path style="fill:none;stroke:red;stroke-width:1px;stroke-linecap:butt;stroke-linejoin:miter;stroke-opacity:1" d="M 265.053,8.89474 281.368,4 z" id="boundary" inkscape:connector-curvature="0" />
	<path style="fill:none;stroke:red;stroke-width:1px;stroke-linecap:butt;stroke-linejoin:miter;stroke-opacity:1" d="M 268.316,630.526 281.368,641.947 z" id="boundary" inkscape:connector-curvature="0" />
	<path style="fill:none;stroke:red;stroke-width:1px;stroke-linecap:butt;stroke-linejoin:miter;stroke-opacity:1" d="M 281.368,4 297.684,4 z" id="boundary" inkscape:connector-curvature="0" />
	<path style="fill:none;stroke:red;stroke-width:1px;stroke-linecap:butt;stroke-linejoin:miter;stroke-opacity:1" d="M 281.368,641.947 297.684,641.947 z" id="boundary" inkscape:connector-curvature="0" />
	<path style="fill:none;stroke:red;stroke-width:1px;stroke-linecap:butt;stroke-linejoin:miter;stroke-opacity:1" d="M 297.684,4 314,7.26316 z" id="boundary" inkscape:connector-curvature="0" />
	<path style="fill:none;stroke:red;stroke-width:1px;stroke-linecap:butt;stroke-linejoin:miter;stroke-opacity:1" d="M 297.684,641.947 314,641.947 z" id="boundary" inkscape:connector-curvature="0" />
	<path style="fill:none;stroke:red;stroke-width:1px;stroke-linecap:butt;stroke-linejoin:miter;stroke-opacity:1" d="M 314,7.26316 328.684,15.4211 z" id="boundary" inkscape:connector-curvature="0" />
	<path style="fill:none;stroke:red;stroke-width:1px;stroke-linecap:butt;stroke-linejoin:miter;stroke-opacity:1" d="M 314,641.947 328.684,633.789 z" id="boundary" inkscape:connector-curvature="0" />
	<path style="fill:none;stroke:red;stroke-width:1px;stroke-linecap:butt;stroke-linejoin:miter;stroke-opacity:1" d="M 328.684,15.4211 345,21.9474 z" id="boundary" inkscape:connector-curvature="0" />
	<path style="fill:none;stroke:red;stroke-width:1px;stroke-linecap:butt;stroke-linejoin:miter;stroke-opacity:1" d="M 328.684,633.789 345,630.526 z" id="boundary" inkscape:connector-curvature="0" />
	<path style="fill:none;stroke:red;stroke-width:1px;stroke-linecap:butt;stroke-linejoin:miter;stroke-opacity:1" d="M 345,21.9474 359.684,30.1053 z" id="boundary" inkscape:connector-curvature="0" />
	<path style="fill:none;stroke:red;stroke-width:1px;stroke-linecap:butt;stroke-linejoin:miter;stroke-opacity:1" d="M 345,630.526 361.316,622.368 z" id="boundary" inkscape:connector-curvature="0" />
	<path style="fill:none;stroke:red;stroke-width:1px;stroke-linecap:butt;stroke-linejoin:miter;stroke-opacity:1" d="M 359.684,30.1053 376,36.6316 z" id="boundary" inkscape:connector-curvature="0" />
	<path style="fill:none;stroke:red;stroke-width:1px;stroke-linecap:butt;stroke-linejoin:miter;stroke-opacity:1" d="M 361.316,622.368 377.632,614.211 z" id="boundary" inkscape:connector-curvature="0" />
	<path style="fill:none;stroke:red;stroke-width:1px;stroke-linecap:butt;stroke-linejoin:miter;stroke-opacity:1" d="M 376,36.6316 387.421,49.6842 z" id="boundary" inkscape:connector-curvature="0" />
	<path style="fill:none;stroke:red;stroke-width:1px;stroke-linecap:butt;stroke-linejoin:miter;stroke-opacity:1" d="M 377.632,614.211 389.053,601.158 z" id="boundary" inkscape:connector-curvature="0" />
	<path style="fill:none;stroke:red;stroke-width:1px;stroke-linecap:butt;stroke-linejoin:miter;stroke-opacity:1" d="M 387.421,49.6842 400.474,61.1053 z" id="boundary" inkscape:connector-curvature="0" />
	<path style="fill:none;stroke:red;stroke-width:1px;stroke-linecap:butt;stroke-linejoin:miter;stroke-opacity:1" d="M 389.053,601.158 405.368,593 z" id="boundary" inkscape:connector-curvature="0" />
	<path style="fill:none;stroke:red;stroke-width:1px;stroke-linecap:butt;stroke-linejoin:miter;stroke-opacity:1" d="M 400.474,61.1053 411.895,74.1579 z" id="boundary" inkscape:connector-curvature="0" />
	<path style="fill:none;stroke:red;stroke-width:1px;stroke-linecap:butt;stroke-linejoin:miter;stroke-opacity:1" d="M 405.368,593 418.421,581.579 z" id="boundary" inkscape:connector-curvature="0" />
	<path style="fill:none;stroke:red;stroke-width:1px;stroke-linecap:butt;stroke-linejoin:miter;stroke-opacity:1" d="M 411.895,74.1579 424.947,85.5789 z" id="boundary" inkscape:connector-curvature="0" />
	<path style="fill:none;stroke:red;stroke-width:1px;stroke-linecap:butt;stroke-linejoin:miter;stroke-opacity:1" d="M 418.421,581.579 429.842,568.526 z" id="boundary" inkscape:connector-curvature="0" />
	<path style="fill:none;stroke:red;stroke-width:1px;stroke-linecap:butt;stroke-linejoin:miter;stroke-opacity:1" d="M 424.947,85.5789 436.368,98.6316 z" id="boundary" inkscape:connector-curvature="0" />
	<path style="fill:none;stroke:red;stroke-width:1px;stroke-linecap:butt;stroke-linejoin:miter;stroke-opacity:1" d="M 429.842,568.526 442.895,557.105 z" id="boundary" inkscape:connector-curvature="0" />
	<path style="fill:none;stroke:red;stroke-width:1px;stroke-linecap:butt;stroke-linejoin:miter;stroke-opacity:1" d="M 436.368,98.6316 449.421,110.053 z" id="boundary" inkscape:connector-curvature="0" />
	<path style="fill:none;stroke:red;stroke-width:1px;stroke-linecap:butt;stroke-linejoin:miter;stroke-opacity:1" d="M 442.895,557.105 452.684,544.053 z" id="boundary" inkscape:connector-curvature="0" />
	<path style="fill:none;stroke:red;stroke-width:1px;stroke-linecap:butt;stroke-linejoin:miter;stroke-opacity:1" d="M 449.421,110.053 460.842,123.105 z" id="boundary" inkscape:connector-curvature="0" />
	<path style="fill:none;stroke:red;stroke-width:1px;stroke-linecap:butt;stroke-linejoin:miter;stroke-opacity:1" d="M 452.684,544.053 462.474,527.737 z" id="boundary" inkscape:connector-curvature="0" />
	<path style="fill:none;stroke:red;stroke-width:1px;stroke-linecap:butt;stroke-linejoin:miter;stroke-opacity:1" d="M 460.842,123.105 470.632,136.158 z" id="boundary" inkscape:connector-curvature="0" />
	<path style="fill:none;stroke:red;stroke-width:1px;stroke-linecap:butt;stroke-linejoin:miter;stroke-opacity:1" d="M 462.474,527.737 475.526,516.316 z" id="boundary" inkscape:connector-curvature="0" />
	<path style="fill:none;stroke:red;stroke-width:1px;stroke-linecap:butt;stroke-linejoin:miter;stroke-opacity:1" d="M 470.632,136.158 478.789,150.842 z" id="boundary" inkscape:connector-curvature="0" />
	<path style="fill:none;stroke:red;stroke-width:1px;stroke-linecap:butt;stroke-linejoin:miter;stroke-opacity:1" d="M 475.526,516.316 486.947,495.105 z" id="boundary" inkscape:connector-curvature="0" />
	<path style="fill:none;stroke:red;stroke-width:1px;stroke-linecap:butt;stroke-linejoin:miter;stroke-opacity:1" d="M 478.789,150.842 486.947,165.526 z" id="boundary" inkscape:connector-curvature="0" />
	<path style="fill:none;stroke:red;stroke-width:1px;stroke-linecap:butt;stroke-linejoin:miter;stroke-opacity:1" d="M 486.947,165.526 495.105,180.211 z" id="boundary" inkscape:connector-curvature="0" />
	<path style="fill:none;stroke:red;stroke-width:1px;stroke-linecap:butt;stroke-linejoin:miter;stroke-opacity:1" d="M 486.947,495.105 495.105,478.789 z" id="boundary" inkscape:connector-curvature="0" />
	<path style="fill:none;stroke:red;stroke-width:1px;stroke-linecap:butt;stroke-linejoin:miter;stroke-opacity:1" d="M 495.105,180.211 509.789,188.368 z" id="boundary" inkscape:connector-curvature="0" />
	<path style="fill:none;stroke:red;stroke-width:1px;stroke-linecap:butt;stroke-linejoin:miter;stroke-opacity:1" d="M 495.105,478.789 503.263,454.316 z" id="boundary" inkscape:connector-curvature="0" />
	<path style="fill:none;stroke:red;stroke-width:1px;stroke-linecap:butt;stroke-linejoin:miter;stroke-opacity:1" d="M 503.263,454.316 516.316,442.895 z" id="boundary" inkscape:connector-curvature="0" />
	<path style="fill:none;stroke:red;stroke-width:1px;stroke-linecap:butt;stroke-linejoin:miter;stroke-opacity:1" d="M 509.789,188.368 526.105,194.895 z" id="boundary" inkscape:connector-curvature="0" />
	<path style="fill:none;stroke:red;stroke-width:1px;stroke-linecap:butt;stroke-linejoin:miter;stroke-opacity:1" d="M 516.316,442.895 527.737,429.842 z" id="boundary" inkscape:connector-curvature="0" />
	<path style="fill:none;stroke:red;stroke-width:1px;stroke-linecap:butt;stroke-linejoin:miter;stroke-opacity:1" d="M 526.105,194.895 542.421,199.789 z" id="boundary" inkscape:connector-curvature="0" />
	<path style="fill:none;stroke:red;stroke-width:1px;stroke-linecap:butt;stroke-linejoin:miter;stroke-opacity:1" d="M 527.737,429.842 542.421,421.684 z" id="boundary" inkscape:connector-curvature="0" />
	<path style="fill:none;stroke:red;stroke-width:1px;stroke-linecap:butt;stroke-linejoin:miter;stroke-opacity:1" d="M 542.421,199.789 558.737,199.789 z" id="boundary" inkscape:connector-curvature="0" />
	<path style="fill:none;stroke:red;stroke-width:1px;stroke-linecap:butt;stroke-linejoin:miter;stroke-opacity:1" d="M 542.421,421.684 557.105,413.526 z" id="boundary" inkscape:connector-curvature="0" />
	<path style="fill:none;stroke:red;stroke-width:1px;stroke-linecap:butt;stroke-linejoin:miter;stroke-opacity:1" d="M 557.105,413.526 571.789,403.737 z" id="boundary" inkscape:connector-curvature="0" />
	<path style="fill:none;stroke:red;stroke-width:1px;stroke-linecap:butt;stroke-linejoin:miter;stroke-opacity:1" d="M 558.737,199.789 571.789,209.579 z" id="boundary" inkscape:connector-curvature="0" />
	<path style="fill:none;stroke:red;stroke-width:1px;stroke-linecap:butt;stroke-linejoin:miter;stroke-opacity:1" d="M 571.789,209.579 584.842,221 z" id="boundary" inkscape:connector-curvature="0" />
	<path style="fill:none;stroke:red;stroke-width:1px;stroke-linecap:butt;stroke-linejoin:miter;stroke-opacity:1" d="M 571.789,403.737 576.684,380.895 z" id="boundary" inkscape:connector-curvature="0" />
	<path style="fill:none;stroke:red;stroke-width:1px;stroke-linecap:butt;stroke-linejoin:miter;stroke-opacity:1" d="M 576.684,348.263 576.684,364.579 z" id="boundary" inkscape:connector-curvature="0" />
	<path style="fill:none;stroke:red;stroke-width:1px;stroke-linecap:butt;stroke-linejoin:miter;stroke-opacity:1" d="M 576.684,348.263 589.737,336.842 z" id="boundary" inkscape:connector-curvature="0" />
	<path style="fill:none;stroke:red;stroke-width:1px;stroke-linecap:butt;stroke-linejoin:miter;stroke-opacity:1" d="M 576.684,364.579 576.684,380.895 z" id="boundary" inkscape:connector-curvature="0" />
	<path style="fill:none;stroke:red;stroke-width:1px;stroke-linecap:butt;stroke-linejoin:miter;stroke-opacity:1" d="M 584.842,221 593,235.684 z" id="boundary" inkscape:connector-curvature="0" />
	<path style="fill:none;stroke:red;stroke-width:1px;stroke-linecap:butt;stroke-linejoin:miter;stroke-opacity:1" d="M 589.737,336.842 606.053,331.947 z" id="boundary" inkscape:connector-curvature="0" />
	<path style="fill:none;stroke:red;stroke-width:1px;stroke-linecap:butt;stroke-linejoin:miter;stroke-opacity:1" d="M 593,235.684 601.158,250.368 z" id="boundary" inkscape:connector-curvature="0" />
	<path style="fill:none;stroke:red;stroke-width:1px;stroke-linecap:butt;stroke-linejoin:miter;stroke-opacity:1" d="M 601.158,250.368 609.316,265.053 z" id="boundary" inkscape:connector-curvature="0" />
	<path style="fill:none;stroke:red;stroke-width:1px;stroke-linecap:butt;stroke-linejoin:miter;stroke-opacity:1" d="M 606.053,331.947 622.368,331.947 z" id="boundary" inkscape:connector-curvature="0" />
	<path style="fill:none;stroke:red;stroke-width:1px;stroke-linecap:butt;stroke-linejoin:miter;stroke-opacity:1" d="M 609.316,265.053 625.632,265.053 z" id="boundary" inkscape:connector-curvature="0" />
	<path style="fill:none;stroke:red;stroke-width:1px;stroke-linecap:butt;stroke-linejoin:miter;stroke-opacity:1" d="M 622.368,331.947 638.684,328.684 z" id="boundary" inkscape:connector-curvature="0" />
	<path style="fill:none;stroke:red;stroke-width:1px;stroke-linecap:butt;stroke-linejoin:miter;stroke-opacity:1" d="M 625.632,265.053 641.947,265.053 z" id="boundary" inkscape:connector-curvature="0" />
	<path style="fill:none;stroke:red;stroke-width:1px;stroke-linecap:butt;stroke-linejoin:miter;stroke-opacity:1" d="M 638.684,328.684 655,323.789 z" id="boundary" inkscape:connector-curvature="0" />
	<path style="fill:none;stroke:red;stroke-width:1px;stroke-linecap:butt;stroke-linejoin:miter;stroke-opacity:1" d="M 641.947,265.053 658.263,265.053 z" id="boundary" inkscape:connector-curvature="0" />
	<path style="fill:none;stroke:red;stroke-width:1px;stroke-linecap:butt;stroke-linejoin:miter;stroke-opacity:1" d="M 655,323.789 671.316,323.789 z" id="boundary" inkscape:connector-curvature="0" />
	<path style="fill:none;stroke:red;stroke-width:1px;stroke-linecap:butt;stroke-linejoin:miter;stroke-opacity:1" d="M 658.263,265.053 674.579,265.053 z" id="boundary" inkscape:connector-curvature="0" />
	<path style="fill:none;stroke:red;stroke-width:1px;stroke-linecap:butt;stroke-linejoin:miter;stroke-opacity:1" d="M 671.316,323.789 687.632,323.789 z" id="boundary" inkscape:connector-curvature="0" />
	<path style="fill:none;stroke:red;stroke-width:1px;stroke-linecap:butt;stroke-linejoin:miter;stroke-opacity:1" d="M 674.579,265.053 690.895,265.053 z" id="boundary" inkscape:connector-curvature="0" />
	<path style="fill:none;stroke:red;stroke-width:1px;stroke-linecap:butt;stroke-linejoin:miter;stroke-opacity:1" d="M 687.632,323.789 703.947,323.789 z" id="boundary" inkscape:connector-curvature="0" />
	<path style="fill:none;stroke:red;stroke-width:1px;stroke-linecap:butt;stroke-linejoin:miter;stroke-opacity:1" d="M 690.895,265.053 707.211,265.053 z" id="boundary" inkscape:connector-curvature="0" />
	<path style="fill:none;stroke:red;stroke-width:1px;stroke-linecap:butt;stroke-linejoin:miter;stroke-opacity:1" d="M 703.947,323.789 720.263,320.526 z" id="boundary" inkscape:connector-curvature="0" />
	<path style="fill:none;stroke:red;stroke-width:1px;stroke-linecap:butt;stroke-linejoin:miter;stroke-opacity:1" d="M 707.211,265.053 721.895,273.211 z" id="boundary" inkscape:connector-curvature="0" />
	<path style="fill:none;stroke:red;stroke-width:1px;stroke-linecap:butt;stroke-linejoin:miter;stroke-opacity:1" d="M 720.263,320.526 736.579,315.632 z" id="boundary" inkscape:connector-curvature="0" />
	<path style="fill:none;stroke:red;stroke-width:1px;stroke-linecap:butt;stroke-linejoin:miter;stroke-opacity:1" d="M 721.895,273.211 738.211,273.211 z" id="boundary" inkscape:connector-curvature="0" />
	<path style="fill:none;stroke:red;stroke-width:1px;stroke-linecap:butt;stroke-linejoin:miter;stroke-opacity:1" d="M 736.579,315.632 752.895,315.632 z" id="boundary" inkscape:connector-curvature="0" />
	<path style="fill:none;stroke:red;stroke-width:1px;stroke-linecap:butt;stroke-linejoin:miter;stroke-opacity:1" d="M 738.211,273.211 754.526,273.211 z" id="boundary" inkscape:connector-curvature="0" />
	<path style="fill:none;stroke:red;stroke-width:1px;stroke-linecap:butt;stroke-linejoin:miter;stroke-opacity:1" d="M 752.895,315.632 769.211,315.632 z" id="boundary" inkscape:connector-curvature="0" />
	<path style="fill:none;stroke:red;stroke-width:1px;stroke-linecap:butt;stroke-linejoin:miter;stroke-opacity:1" d="M 754.526,273.211 770.842,273.211 z" id="boundary" inkscape:connector-curvature="0" />
	<path style="fill:none;stroke:red;stroke-width:1px;stroke-linecap:butt;stroke-linejoin:miter;stroke-opacity:1" d="M 769.211,315.632 785.526,315.632 z" id="boundary" inkscape:connector-curvature="0" />
	<path style="fill:none;stroke:red;stroke-width:1px;stroke-linecap:butt;stroke-linejoin:miter;stroke-opacity:1" d="M 770.842,273.211 787.158,273.211 z" id="boundary" inkscape:connector-curvature="0" />
	<path style="fill:none;stroke:red;stroke-width:1px;stroke-linecap:butt;stroke-linejoin:miter;stroke-opacity:1" d="M 785.526,315.632 801.842,312.368 z" id="boundary" inkscape:connector-curvature="0" />
	<path style="fill:none;stroke:red;stroke-width:1px;stroke-linecap:butt;stroke-linejoin:miter;stroke-opacity:1" d="M 787.158,273.211 803.474,273.211 z" id="boundary" inkscape:connector-curvature="0" />
	<path style="fill:none;stroke:red;stroke-width:1px;stroke-linecap:butt;stroke-linejoin:miter;stroke-opacity:1" d="M 801.842,312.368 818.158,307.474 z" id="boundary" inkscape:connector-curvature="0" />
	<path style="fill:none;stroke:red;stroke-width:1px;stroke-linecap:butt;stroke-linejoin:miter;stroke-opacity:1" d="M 803.474,273.211 819.789,273.211 z" id="boundary" inkscape:connector-curvature="0" />
	<path style="fill:none;stroke:red;stroke-width:1px;stroke-linecap:butt;stroke-linejoin:miter;stroke-opacity:1" d="M 818.158,307.474 834.474,307.474 z" id="boundary" inkscape:connector-curvature="0" />
	<path style="fill:none;stroke:red;stroke-width:1px;stroke-linecap:butt;stroke-linejoin:miter;stroke-opacity:1" d="M 819.789,273.211 836.105,273.211 z" id="boundary" inkscape:connector-curvature="0" />
	<path style="fill:none;stroke:red;stroke-width:1px;stroke-linecap:butt;stroke-linejoin:miter;stroke-opacity:1" d="M 834.474,307.474 850.789,307.474 z" id="boundary" inkscape:connector-curvature="0" />
	<path style="fill:none;stroke:red;stroke-width:1px;stroke-linecap:butt;stroke-linejoin:miter;stroke-opacity:1" d="M 836.105,273.211 852.421,273.211 z" id="boundary" inkscape:connector-curvature="0" />
	<path style="fill:none;stroke:red;stroke-width:1px;stroke-linecap:butt;stroke-linejoin:miter;stroke-opacity:1" d="M 850.789,307.474 867.105,307.474 z" id="boundary" inkscape:connector-curvature="0" />
	<path style="fill:none;stroke:red;stroke-width:1px;stroke-linecap:butt;stroke-linejoin:miter;stroke-opacity:1" d="M 852.421,273.211 868.737,273.211 z" id="boundary" inkscape:connector-curvature="0" />
	<path style="fill:none;stroke:red;stroke-width:1px;stroke-linecap:butt;stroke-linejoin:miter;stroke-opacity:1" d="M 867.105,307.474 881.789,299.316 z" id="boundary" inkscape:connector-curvature="0" />
	<path style="fill:none;stroke:red;stroke-width:1px;stroke-linecap:butt;stroke-linejoin:miter;stroke-opacity:1" d="M 868.737,273.211 885.053,269.947 z" id="boundary" inkscape:connector-curvature="0" />
	<path style="fill:none;stroke:red;stroke-width:1px;stroke-linecap:butt;stroke-linejoin:miter;stroke-opacity:1" d="M 881.789,299.316 898.105,299.316 z" id="boundary" inkscape:connector-curvature="0" />
	<path style="fill:none;stroke:red;stroke-width:1px;stroke-linecap:butt;stroke-linejoin:miter;stroke-opacity:1" d="M 885.053,269.947 901.368,265.053 z" id="boundary" inkscape:connector-curvature="0" />
	<path style="fill:none;stroke:red;stroke-width:1px;stroke-linecap:butt;stroke-linejoin:miter;stroke-opacity:1" d="M 898.105,299.316 914.421,299.316 z" id="boundary" inkscape:connector-curvature="0" />
	<path style="fill:none;stroke:red;stroke-width:1px;stroke-linecap:butt;stroke-linejoin:miter;stroke-opacity:1" d="M 901.368,265.053 917.684,265.053 z" id="boundary" inkscape:connector-curvature="0" />
	<path style="fill:none;stroke:red;stroke-width:1px;stroke-linecap:butt;stroke-linejoin:miter;stroke-opacity:1" d="M 914.421,299.316 930.737,299.316 z" id="boundary" inkscape:connector-curvature="0" />
	<path style="fill:none;stroke:red;stroke-width:1px;stroke-linecap:butt;stroke-linejoin:miter;stroke-opacity:1" d="M 917.684,265.053 934,265.053 z" id="boundary" inkscape:connector-curvature="0" />
	<path style="fill:none;stroke:red;stroke-width:1px;stroke-linecap:butt;stroke-linejoin:miter;stroke-opacity:1" d="M 930.737,299.316 947.053,299.316 z" id="boundary" inkscape:connector-curvature="0" />
	<path style="fill:none;stroke:red;stroke-width:1px;stroke-linecap:butt;stroke-linejoin:miter;stroke-opacity:1" d="M 934,265.053 950.316,265.053 z" id="boundary" inkscape:connector-curvature="0" />
	<path style="fill:none;stroke:red;stroke-width:1px;stroke-linecap:butt;stroke-linejoin:miter;stroke-opacity:1" d="M 947.053,299.316 963.368,297.684 z" id="boundary" inkscape:connector-curvature="0" />
	<path style="fill:none;stroke:red;stroke-width:1px;stroke-linecap:butt;stroke-linejoin:miter;stroke-opacity:1" d="M 950.316,265.053 966.632,265.053 z" id="boundary" inkscape:connector-curvature="0" />
	<path style="fill:none;stroke:red;stroke-width:1px;stroke-linecap:butt;stroke-linejoin:miter;stroke-opacity:1" d="M 963.368,297.684 979.684,291.158 z" id="boundary" inkscape:connector-curvature="0" />
	<path style="fill:none;stroke:red;stroke-width:1px;stroke-linecap:butt;stroke-linejoin:miter;stroke-opacity:1" d="M 966.632,265.053 981.316,273.211 z" id="boundary" inkscape:connector-curvature="0" />
	<path style="fill:none;stroke:red;stroke-width:1px;stroke-linecap:butt;stroke-linejoin:miter;stroke-opacity:1" d="M 979.684,291.158 996,281.368 z" id="boundary" inkscape:connector-curvature="0" />
	<path style="fill:none;stroke:red;stroke-width:1px;stroke-linecap:butt;stroke-linejoin:miter;stroke-opacity:1" d="M 981.316,273.211 996,281.368 z" id="boundary" inkscape:connector-curvature="0" />
	<circle cx="4" cy="318.895" r="4" fill="#0" id="circle0"/>
	<circle cx="12.1579" cy="302.579" r="4" fill="#0" id="circle1"/>
	<circle cx="12.1579" cy="333.579" r="4" fill="#0" id="circle2"/>
	<circle cx="20.3158" cy="286.263" r="4" fill="#0" id="circle3"/>
	<circle cx="20.3158" cy="348.263" r="4" fill="#0" id="circle4"/>
	<circle cx="28.4737" cy="261.789" r="4" fill="#0" id="circle5"/>
	<circle cx="28.4737" cy="362.947" r="4" fill="#0" id="circle6"/>
	<circle cx="38.2632" cy="376" r="4" fill="#0" id="circle7"/>
	<circle cx="41.5263" cy="248.737" r="4" fill="#0" id="circle8"/>
	<circle cx="49.6842" cy="232.421" r="4" fill="#0" id="circle9"/>
	<circle cx="49.6842" cy="389.053" r="4" fill="#0" id="circle10"/>
	<circle cx="52.9474" cy="405.368" r="4" fill="#0" id="circle11"/>
	<circle cx="62.7368" cy="219.368" r="4" fill="#0" id="circle12"/>
	<circle cx="62.7368" cy="418.421" r="4" fill="#0" id="circle13"/>
	<circle cx="75.7895" cy="429.842" r="4" fill="#0" id="circle14"/>
	<circle cx="77.4211" cy="204.684" r="4" fill="#0" id="circle15"/>
	<circle cx="82.3158" cy="446.158" r="4" fill="#0" id="circle16"/>
	<circle cx="93.7368" cy="196.526" r="4" fill="#0" id="circle17"/>
	<circle cx="97" cy="454.316" r="4" fill="#0" id="circle18"/>
	<circle cx="105.158" cy="469" r="4" fill="#0" id="circle19"/>
	<circle cx="106.789" cy="183.474" r="4" fill="#0" id="circle20"/>
	<circle cx="119.842" cy="170.421" r="4" fill="#0" id="circle21"/>
	<circle cx="121.474" cy="475.526" r="4" fill="#0" id="circle22"/>
	<circle cx="132.895" cy="159" r="4" fill="#0" id="circle23"/>
	<circle cx="134.526" cy="486.947" r="4" fill="#0" id="circle24"/>
	<circle cx="144.316" cy="145.947" r="4" fill="#0" id="circle25"/>
	<circle cx="144.316" cy="500" r="4" fill="#0" id="circle26"/>
	<circle cx="157.368" cy="134.526" r="4" fill="#0" id="circle27"/>
	<circle cx="160.632" cy="506.526" r="4" fill="#0" id="circle28"/>
	<circle cx="167.158" cy="522.842" r="4" fill="#0" id="circle29"/>
	<circle cx="168.789" cy="121.474" r="4" fill="#0" id="circle30"/>
	<circle cx="176.947" cy="105.158" r="4" fill="#0" id="circle31"/>
	<circle cx="183.474" cy="527.737" r="4" fill="#0" id="circle32"/>
	<circle cx="185.105" cy="88.8421" r="4" fill="#0" id="circle33"/>
	<circle cx="188.368" cy="544.053" r="4" fill="#0" id="circle34"/>
	<circle cx="199.789" cy="74.1579" r="4" fill="#0" id="circle35"/>
	<circle cx="201.421" cy="555.474" r="4" fill="#0" id="circle36"/>
	<circle cx="207.947" cy="571.789" r="4" fill="#0" id="circle37"/>
	<circle cx="212.842" cy="61.1053" r="4" fill="#0" id="circle38"/>
	<circle cx="221" cy="583.211" r="4" fill="#0" id="circle39"/>
	<circle cx="224.263" cy="41.5263" r="4" fill="#0" id="circle40"/>
	<circle cx="232.421" cy="596.263" r="4" fill="#0" id="circle41"/>
	<circle cx="237.316" cy="28.4737" r="4" fill="#0" id="circle42"/>
	<circle cx="245.474" cy="607.684" r="4" fill="#0" id="circle43"/>
	<circle cx="252" cy="20.3158" r="4" fill="#0" id="circle44"/>
	<circle cx="252" cy="624" r="4" fill="#0" id="circle45"/>
	<circle cx="265.053" cy="8.89474" r="4" fill="#0" id="circle46"/>
	<circle cx="268.316" cy="630.526" r="4" fill="#0" id="circle47"/>
	<circle cx="281.368" cy="4" r="4" fill="#0" id="circle48"/>
	<circle cx="281.368" cy="641.947" r="4" fill="#0" id="circle49"/>
	<circle cx="297.684" cy="4" r="4" fill="#0" id="circle50"/>
	<circle cx="297.684" cy="641.947" r="4" fill="#0" id="circle51"/>
	<circle cx="314" cy="7.26316" r="4" fill="#0" id="circle52"/>
	<circle cx="314" cy="641.947" r="4" fill="#0" id="circle53"/>
	<circle cx="328.684" cy="15.4211" r="4" fill="#0" id="circle54"/>
	<circle cx="328.684" cy="633.789" r="4" fill="#0" id="circle55"/>
	<circle cx="345" cy="21.9474" r="4" fill="#0" id="circle56"/>
	<circle cx="345" cy="630.526" r="4" fill="#0" id="circle57"/>
	<circle cx="359.684" cy="30.1053" r="4" fill="#0" id="circle58"/>
	<circle cx="361.316" cy="622.368" r="4" fill="#0" id="circle59"/>
	<circle cx="376" cy="36.6316" r="4" fill="#0" id="circle60"/>
	<circle cx="377.632" cy="614.211" r="4" fill="#0" id="circle61"/>
	<circle cx="387.421" cy="49.6842" r="4" fill="#0" id="circle62"/>
	<circle cx="389.053" cy="601.158" r="4" fill="#0" id="circle63"/>
	<circle cx="400.474" cy="61.1053" r="4" fill="#0" id="circle64"/>
	<circle cx="405.368" cy="593" r="4" fill="#0" id="circle65"/>
	<circle cx="411.895" cy="74.1579" r="4" fill="#0" id="circle66"/>
	<circle cx="418.421" cy="581.579" r="4" fill="#0" id="circle67"/>
	<circle cx="424.947" cy="85.5789" r="4" fill="#0" id="circle68"/>
	<circle cx="429.842" cy="568.526" r="4" fill="#0" id="circle69"/>
	<circle cx="436.368" cy="98.6316" r="4" fill="#0" id="circle70"/>
	<circle cx="442.895" cy="557.105" r="4" fill="#0" id="circle71"/>
	<circle cx="449.421" cy="110.053" r="4" fill="#0" id="circle72"/>
	<circle cx="452.684" cy="544.053" r="4" fill="#0" id="circle73"/>
	<circle cx="460.842" cy="123.105" r="4" fill="#0" id="circle74"/>
	<circle cx="462.474" cy="527.737" r="4" fill="#0" id="circle75"/>
	<circle cx="470.632" cy="136.158" r="4" fill="#0" id="circle76"/>
	<circle cx="475.526" cy="516.316" r="4" fill="#0" id="circle77"/>
	<circle cx="478.789" cy="150.842" r="4" fill="#0" id="circle78"/>
	<circle cx="486.947" cy="165.526" r="4" fill="#0" id="circle79"/>
	<circle cx="486.947" cy="495.105" r="4" fill="#0" id="circle80"/>
	<circle cx="495.105" cy="180.211" r="4" fill="#0" id="circle81"/>
	<circle cx="495.105" cy="478.789" r="4" fill="#0" id="circle82"/>
	<circle cx="503.263" cy="454.316" r="4" fill="#0" id="circle83"/>
	<circle cx="509.789" cy="188.368" r="4" fill="#0" id="circle84"/>
	<circle cx="516.316" cy="442.895" r="4" fill="#0" id="circle85"/>
	<circle cx="526.105" cy="194.895" r="4" fill="#0" id="circle86"/>
	<circle cx="527.737" cy="429.842" r="4" fill="#0" id="circle87"/>
	<circle cx="542.421" cy="199.789" r="4" fill="#0" id="circle88"/>
	<circle cx="542.421" cy="421.684" r="4" fill="#0" id="circle89"/>
	<circle cx="557.105" cy="413.526" r="4" fill="#0" id="circle90"/>
	<circle cx="558.737" cy="199.789" r="4" fill="#0" id="circle91"/>
	<circle cx="571.789" cy="209.579" r="4" fill="#0" id="circle92"/>
	<circle cx="571.789" cy="403.737" r="4" fill="#0" id="circle93"/>
	<circle cx="576.684" cy="348.263" r="4" fill="#0" id="circle94"/>
	<circle cx="576.684" cy="364.579" r="4" fill="#0" id="circle95"/>
	<circle cx="576.684" cy="380.895" r="4" fill="#0" id="circle96"/>
	<circle cx="584.842" cy="221" r="4" fill="#0" id="circle97"/>
	<circle cx="589.737" cy="336.842" r="4" fill="#0" id="circle98"/>
	<circle cx="593" cy="235.684" r="4" fill="#0" id="circle99"/>
	<circle cx="601.158" cy="250.368" r="4" fill="#0" id="circle100"/>
	<circle cx="606.053" cy="331.947" r="4" fill="#0" id="circle101"/>
	<circle cx="609.316" cy="265.053" r="4" fill="#0" id="circle102"/>
	<circle cx="622.368" cy="331.947" r="4" fill="#0" id="circle103"/>
	<circle cx="625.632" cy="265.053" r="4" fill="#0" id="circle104"/>
	<circle cx="638.684" cy="328.684" r="4" fill="#0" id="circle105"/>
	<circle cx="641.947" cy="265.053" r="4" fill="#0" id="circle106"/>
	<circle cx="655" cy="323.789" r="4" fill="#0" id="circle107"/>
	<circle cx="658.263" cy="265.053" r="4" fill="#0" id="circle108"/>
	<circle cx="671.316" cy="323.789" r="4" fill="#0" id="circle109"/>
	<circle cx="674.579" cy="265.053" r="4" fill="#0" id="circle110"/>
	<circle cx="687.632" cy="323.789" r="4" fill="#0" id="circle111"/>
	<circle cx="690.895" cy="265.053" r="4" fill="#0" id="circle112"/>
	<circle cx="703.947" cy="323.789" r="4" fill="#0" id="circle113"/>
	<circle cx="707.211" cy="265.053" r="4" fill="#0" id="circle114"/>
	<circle cx="720.263" cy="320.526" r="4" fill="#0" id="circle115"/>
	<circle cx="721.895" cy="273.211" r="4" fill="#0" id="circle116"/>
	<circle cx="736.579" cy="315.632" r="4" fill="#0" id="circle117"/>
	<circle cx="738.211" cy="273.211" r="4" fill="#0" id="circle118"/>
	<circle cx="752.895" cy="315.632" r="4" fill="#0" id="circle119"/>
	<circle cx="754.526" cy="273.211" r="4" fill="#0" id="circle120"/>
	<circle cx="769.211" cy="315.632" r="4" fill="#0" id="circle121"/>
	<circle cx="770.842" cy="273.211" r="4" fill="#0" id="circle122"/>
	<circle cx="785.526" cy="315.632" r="4" fill="#0" id="circle123"/>
	<circle cx="787.158" cy="273.211" r="4" fill="#0" id="circle124"/>
	<circle cx="801.842" cy="312.368" r="4" fill="#0" id="circle125"/>
	<circle cx="803.474" cy="273.211" r="4" fill="#0" id="circle126"/>
	<circle cx="818.158" cy="307.474" r="4" fill="#0" id="circle127"/>
	<circle cx="819.789" cy="273.211" r="4" fill="#0" id="circle128"/>
	<circle cx="834.474" cy="307.474" r="4" fill="#0" id="circle129"/>
	<circle cx="836.105" cy="273.211" r="4" fill="#0" id="circle130"/>
	<circle cx="850.789" cy="307.474" r="4" fill="#0" id="circle131"/>
	<circle cx="852.421" cy="273.211" r="4" fill="#0" id="circle132"/>
	<circle cx="867.105" cy="307.474" r="4" fill="#0" id="circle133"/>
	<circle cx="868.737" cy="273.211" r="4" fill="#0" id="circle134"/>
	<circle cx="881.789" cy="299.316" r="4" fill="#0" id="circle135"/>
	<circle cx="885.053" cy="269.947" r="4" fill="#0" id="circle136"/>
	<circle cx="898.105" cy="299.316" r="4" fill="#0" id="circle137"/>
	<circle cx="901.368" cy="265.053" r="4" fill="#0" id="circle138"/>
	<circle cx="914.421" cy="299.316" r="4" fill="#0" id="circle139"/>
	<circle cx="917.684" cy="265.053" r="4" fill="#0" id="circle140"/>
	<circle cx="930.737" cy="299.316" r="4" fill="#0" id="circle141"/>
	<circle cx="934" cy="265.053" r="4" fill="#0" id="circle142"/>
	<circle cx="947.053" cy="299.316" r="4" fill="#0" id="circle143"/>
	<circle cx="950.316" cy="265.053" r="4" fill="#0" id="circle144"/>
	<circle cx="963.368" cy="297.684" r="4" fill="#0" id="circle145"/>
	<circle cx="966.632" cy="265.053" r="4" fill="#0" id="circle146"/>
	<circle cx="979.684" cy="291.158" r="4" fill="#0" id="circle147"/>
	<circle cx="981.316" cy="273.211" r="4" fill="#0" id="circle148"/>
	<circle cx="996" cy="281.368" r="4" fill="#0" id="circle149"/>
	</g>
</svg>