<?xml version="1.0" encoding="UTF-8" standalone="no"?>
<!-- Created with CurveBenchmark -->
<svg
	xmlns:dc="http://purl.org/dc/elements/1.1/"
	xmlns:cc="http://creativecommons.org/ns#"
	xmlns:rdf="http://www.w3.org/1999/02/22-rdf-syntax-ns#"
	xmlns:svg="http://www.w3.org/2000/svg"
	xmlns="http://www.w3.org/2000/svg"
	xmlns:sodipodi="http://sodipodi.sourceforge.net/DTD/sodipodi-0.dtd"
	xmlns:inkscape="http://www.inkscape.org/namespaces/inkscape"
	width="1000"
	height="1000"
	id="svg2"
	version="1.1"
	sodipodi:docname="manifold/vicur-fork03.png.txt">
<defs
	id="defs4" />
<metadata
	id="metadata7">
	<rdf:RDF>
		<cc:Work
			rdf:about="">
			<dc:format>image/svg+xml</dc:format>
			<dc:type
				rdf:resource="http://purl.org/dc/dcmitype/StillImage" />
			<dc:title></dc:title>
		</cc:Work>
	</rdf:RDF>
</metadata>
<g
	inkscape:label="Layer 1"
	inkscape:groupmode="layer"
	id="layer1">
	<path style="fill:none;stroke:red;stroke-width:1px;stroke-linecap:butt;stroke-linejoin:miter;stroke-opacity:1" d="M 4,386.941 18.5882,372.353 z" id="boundary" inkscape:connector-curvature="0" />
	<path style="fill:none;stroke:red;stroke-width:1px;stroke-linecap:butt;stroke-linejoin:miter;stroke-opacity:1" d="M 4,386.941 18.5882,399.706 z" id="boundary" inkscape:connector-curvature="0" />
	<path style="fill:none;stroke:red;stroke-width:1px;stroke-linecap:butt;stroke-linejoin:miter;stroke-opacity:1" d="M 13.1176,13.1176 13.1176,31.3529 z" id="boundary" inkscape:connector-curvature="0" />
	<path style="fill:none;stroke:red;stroke-width:1px;stroke-linecap:butt;stroke-linejoin:miter;stroke-opacity:1" d="M 13.1176,13.1176 31.3529,4 z" id="boundary" inkscape:connector-curvature="0" />
	<path style="fill:none;stroke:red;stroke-width:1px;stroke-linecap:butt;stroke-linejoin:miter;stroke-opacity:1" d="M 13.1176,31.3529 27.7059,44.1176 z" id="boundary" inkscape:connector-curvature="0" />
	<path style="fill:none;stroke:red;stroke-width:1px;stroke-linecap:butt;stroke-linejoin:miter;stroke-opacity:1" d="M 18.5882,372.353 35,363.235 z" id="boundary" inkscape:connector-curvature="0" />
	<path style="fill:none;stroke:red;stroke-width:1px;stroke-linecap:butt;stroke-linejoin:miter;stroke-opacity:1" d="M 18.5882,399.706 33.1765,410.647 z" id="boundary" inkscape:connector-curvature="0" />
	<path style="fill:none;stroke:red;stroke-width:1px;stroke-linecap:butt;stroke-linejoin:miter;stroke-opacity:1" d="M 22.2353,250.176 31.3529,266.588 z" id="boundary" inkscape:connector-curvature="0" />
	<path style="fill:none;stroke:red;stroke-width:1px;stroke-linecap:butt;stroke-linejoin:miter;stroke-opacity:1" d="M 22.2353,250.176 36.8235,235.588 z" id="boundary" inkscape:connector-curvature="0" />
	<path style="fill:none;stroke:red;stroke-width:1px;stroke-linecap:butt;stroke-linejoin:miter;stroke-opacity:1" d="M 27.7059,44.1176 40.4706,58.7059 z" id="boundary" inkscape:connector-curvature="0" />
	<path style="fill:none;stroke:red;stroke-width:1px;stroke-linecap:butt;stroke-linejoin:miter;stroke-opacity:1" d="M 31.3529,4 49.5882,7.64706 z" id="boundary" inkscape:connector-curvature="0" />
	<path style="fill:none;stroke:red;stroke-width:1px;stroke-linecap:butt;stroke-linejoin:miter;stroke-opacity:1" d="M 31.3529,149.882 31.3529,168.118 z" id="boundary" inkscape:connector-curvature="0" />
	<path style="fill:none;stroke:red;stroke-width:1px;stroke-linecap:butt;stroke-linejoin:miter;stroke-opacity:1" d="M 31.3529,149.882 45.9412,135.294 z" id="boundary" inkscape:connector-curvature="0" />
	<path style="fill:none;stroke:red;stroke-width:1px;stroke-linecap:butt;stroke-linejoin:miter;stroke-opacity:1" d="M 31.3529,168.118 49.5882,173.588 z" id="boundary" inkscape:connector-curvature="0" />
	<path style="fill:none;stroke:red;stroke-width:1px;stroke-linecap:butt;stroke-linejoin:miter;stroke-opacity:1" d="M 31.3529,266.588 49.5882,273.882 z" id="boundary" inkscape:connector-curvature="0" />
	<path style="fill:none;stroke:red;stroke-width:1px;stroke-linecap:butt;stroke-linejoin:miter;stroke-opacity:1" d="M 33.1765,410.647 51.4118,410.647 z" id="boundary" inkscape:connector-curvature="0" />
	<path style="fill:none;stroke:red;stroke-width:1px;stroke-linecap:butt;stroke-linejoin:miter;stroke-opacity:1" d="M 35,363.235 53.2353,363.235 z" id="boundary" inkscape:connector-curvature="0" />
	<path style="fill:none;stroke:red;stroke-width:1px;stroke-linecap:butt;stroke-linejoin:miter;stroke-opacity:1" d="M 36.8235,235.588 55.0588,235.588 z" id="boundary" inkscape:connector-curvature="0" />
	<path style="fill:none;stroke:red;stroke-width:1px;stroke-linecap:butt;stroke-linejoin:miter;stroke-opacity:1" d="M 40.4706,58.7059 58.7059,55.0588 z" id="boundary" inkscape:connector-curvature="0" />
	<path style="fill:none;stroke:red;stroke-width:1px;stroke-linecap:butt;stroke-linejoin:miter;stroke-opacity:1" d="M 45.9412,135.294 64.1765,126.176 z" id="boundary" inkscape:connector-curvature="0" />
	<path style="fill:none;stroke:red;stroke-width:1px;stroke-linecap:butt;stroke-linejoin:miter;stroke-opacity:1" d="M 49.5882,7.64706 66,16.7647 z" id="boundary" inkscape:connector-curvature="0" />
	<path style="fill:none;stroke:red;stroke-width:1px;stroke-linecap:butt;stroke-linejoin:miter;stroke-opacity:1" d="M 49.5882,173.588 67.8235,173.588 z" id="boundary" inkscape:connector-curvature="0" />
	<path style="fill:none;stroke:red;stroke-width:1px;stroke-linecap:butt;stroke-linejoin:miter;stroke-opacity:1" d="M 49.5882,273.882 67.8235,273.882 z" id="boundary" inkscape:connector-curvature="0" />
	<path style="fill:none;stroke:red;stroke-width:1px;stroke-linecap:butt;stroke-linejoin:miter;stroke-opacity:1" d="M 51.4118,410.647 69.6471,410.647 z" id="boundary" inkscape:connector-curvature="0" />
	<path style="fill:none;stroke:red;stroke-width:1px;stroke-linecap:butt;stroke-linejoin:miter;stroke-opacity:1" d="M 53.2353,363.235 71.4706,365.059 z" id="boundary" inkscape:connector-curvature="0" />
	<path style="fill:none;stroke:red;stroke-width:1px;stroke-linecap:butt;stroke-linejoin:miter;stroke-opacity:1" d="M 55.0588,235.588 73.2941,235.588 z" id="boundary" inkscape:connector-curvature="0" />
	<path style="fill:none;stroke:red;stroke-width:1px;stroke-linecap:butt;stroke-linejoin:miter;stroke-opacity:1" d="M 58.7059,55.0588 75.1176,64.1765 z" id="boundary" inkscape:connector-curvature="0" />
	<path style="fill:none;stroke:red;stroke-width:1px;stroke-linecap:butt;stroke-linejoin:miter;stroke-opacity:1" d="M 64.1765,126.176 80.5882,135.294 z" id="boundary" inkscape:connector-curvature="0" />
	<path style="fill:none;stroke:red;stroke-width:1px;stroke-linecap:butt;stroke-linejoin:miter;stroke-opacity:1" d="M 66,16.7647 82.4118,25.8824 z" id="boundary" inkscape:connector-curvature="0" />
	<path style="fill:none;stroke:red;stroke-width:1px;stroke-linecap:butt;stroke-linejoin:miter;stroke-opacity:1" d="M 67.8235,173.588 86.0588,173.588 z" id="boundary" inkscape:connector-curvature="0" />
	<path style="fill:none;stroke:red;stroke-width:1px;stroke-linecap:butt;stroke-linejoin:miter;stroke-opacity:1" d="M 67.8235,273.882 84.2353,283 z" id="boundary" inkscape:connector-curvature="0" />
	<path style="fill:none;stroke:red;stroke-width:1px;stroke-linecap:butt;stroke-linejoin:miter;stroke-opacity:1" d="M 69.6471,410.647 87.8824,410.647 z" id="boundary" inkscape:connector-curvature="0" />
	<path style="fill:none;stroke:red;stroke-width:1px;stroke-linecap:butt;stroke-linejoin:miter;stroke-opacity:1" d="M 71.4706,365.059 89.7059,363.235 z" id="boundary" inkscape:connector-curvature="0" />
	<path style="fill:none;stroke:red;stroke-width:1px;stroke-linecap:butt;stroke-linejoin:miter;stroke-opacity:1" d="M 73.2941,235.588 89.7059,244.706 z" id="boundary" inkscape:connector-curvature="0" />
	<path style="fill:none;stroke:red;stroke-width:1px;stroke-linecap:butt;stroke-linejoin:miter;stroke-opacity:1" d="M 75.1176,64.1765 93.3529,64.1765 z" id="boundary" inkscape:connector-curvature="0" />
	<path style="fill:none;stroke:red;stroke-width:1px;stroke-linecap:butt;stroke-linejoin:miter;stroke-opacity:1" d="M 80.5882,135.294 98.8235,135.294 z" id="boundary" inkscape:connector-curvature="0" />
	<path style="fill:none;stroke:red;stroke-width:1px;stroke-linecap:butt;stroke-linejoin:miter;stroke-opacity:1" d="M 82.4118,25.8824 100.647,25.8824 z" id="boundary" inkscape:connector-curvature="0" />
	<path style="fill:none;stroke:red;stroke-width:1px;stroke-linecap:butt;stroke-linejoin:miter;stroke-opacity:1" d="M 84.2353,283 102.471,283 z" id="boundary" inkscape:connector-curvature="0" />
	<path style="fill:none;stroke:red;stroke-width:1px;stroke-linecap:butt;stroke-linejoin:miter;stroke-opacity:1" d="M 86.0588,173.588 104.294,173.588 z" id="boundary" inkscape:connector-curvature="0" />
	<path style="fill:none;stroke:red;stroke-width:1px;stroke-linecap:butt;stroke-linejoin:miter;stroke-opacity:1" d="M 87.8824,410.647 106.118,401.529 z" id="boundary" inkscape:connector-curvature="0" />
	<path style="fill:none;stroke:red;stroke-width:1px;stroke-linecap:butt;stroke-linejoin:miter;stroke-opacity:1" d="M 89.7059,244.706 107.941,244.706 z" id="boundary" inkscape:connector-curvature="0" />
	<path style="fill:none;stroke:red;stroke-width:1px;stroke-linecap:butt;stroke-linejoin:miter;stroke-opacity:1" d="M 89.7059,363.235 107.941,363.235 z" id="boundary" inkscape:connector-curvature="0" />
	<path style="fill:none;stroke:red;stroke-width:1px;stroke-linecap:butt;stroke-linejoin:miter;stroke-opacity:1" d="M 93.3529,64.1765 111.588,64.1765 z" id="boundary" inkscape:connector-curvature="0" />
	<path style="fill:none;stroke:red;stroke-width:1px;stroke-linecap:butt;stroke-linejoin:miter;stroke-opacity:1" d="M 98.8235,135.294 117.059,135.294 z" id="boundary" inkscape:connector-curvature="0" />
	<path style="fill:none;stroke:red;stroke-width:1px;stroke-linecap:butt;stroke-linejoin:miter;stroke-opacity:1" d="M 100.647,25.8824 118.882,25.8824 z" id="boundary" inkscape:connector-curvature="0" />
	<path style="fill:none;stroke:red;stroke-width:1px;stroke-linecap:butt;stroke-linejoin:miter;stroke-opacity:1" d="M 102.471,283 118.882,292.118 z" id="boundary" inkscape:connector-curvature="0" />
	<path style="fill:none;stroke:red;stroke-width:1px;stroke-linecap:butt;stroke-linejoin:miter;stroke-opacity:1" d="M 104.294,173.588 120.706,182.706 z" id="boundary" inkscape:connector-curvature="0" />
	<path style="fill:none;stroke:red;stroke-width:1px;stroke-linecap:butt;stroke-linejoin:miter;stroke-opacity:1" d="M 106.118,401.529 124.353,401.529 z" id="boundary" inkscape:connector-curvature="0" />
	<path style="fill:none;stroke:red;stroke-width:1px;stroke-linecap:butt;stroke-linejoin:miter;stroke-opacity:1" d="M 107.941,244.706 124.353,253.824 z" id="boundary" inkscape:connector-curvature="0" />
	<path style="fill:none;stroke:red;stroke-width:1px;stroke-linecap:butt;stroke-linejoin:miter;stroke-opacity:1" d="M 107.941,363.235 126.176,355.941 z" id="boundary" inkscape:connector-curvature="0" />
	<path style="fill:none;stroke:red;stroke-width:1px;stroke-linecap:butt;stroke-linejoin:miter;stroke-opacity:1" d="M 111.588,64.1765 129.824,64.1765 z" id="boundary" inkscape:connector-curvature="0" />
	<path style="fill:none;stroke:red;stroke-width:1px;stroke-linecap:butt;stroke-linejoin:miter;stroke-opacity:1" d="M 117.059,135.294 133.471,144.412 z" id="boundary" inkscape:connector-curvature="0" />
	<path style="fill:none;stroke:red;stroke-width:1px;stroke-linecap:butt;stroke-linejoin:miter;stroke-opacity:1" d="M 118.882,25.8824 135.294,35 z" id="boundary" inkscape:connector-curvature="0" />
	<path style="fill:none;stroke:red;stroke-width:1px;stroke-linecap:butt;stroke-linejoin:miter;stroke-opacity:1" d="M 118.882,292.118 137.118,299.412 z" id="boundary" inkscape:connector-curvature="0" />
	<path style="fill:none;stroke:red;stroke-width:1px;stroke-linecap:butt;stroke-linejoin:miter;stroke-opacity:1" d="M 120.706,182.706 138.941,182.706 z" id="boundary" inkscape:connector-curvature="0" />
	<path style="fill:none;stroke:red;stroke-width:1px;stroke-linecap:butt;stroke-linejoin:miter;stroke-opacity:1" d="M 124.353,253.824 142.588,259.294 z" id="boundary" inkscape:connector-curvature="0" />
	<path style="fill:none;stroke:red;stroke-width:1px;stroke-linecap:butt;stroke-linejoin:miter;stroke-opacity:1" d="M 124.353,401.529 142.588,401.529 z" id="boundary" inkscape:connector-curvature="0" />
	<path style="fill:none;stroke:red;stroke-width:1px;stroke-linecap:butt;stroke-linejoin:miter;stroke-opacity:1" d="M 126.176,355.941 144.412,363.235 z" id="boundary" inkscape:connector-curvature="0" />
	<path style="fill:none;stroke:red;stroke-width:1px;stroke-linecap:butt;stroke-linejoin:miter;stroke-opacity:1" d="M 129.824,64.1765 146.235,73.2941 z" id="boundary" inkscape:connector-curvature="0" />
	<path style="fill:none;stroke:red;stroke-width:1px;stroke-linecap:butt;stroke-linejoin:miter;stroke-opacity:1" d="M 133.471,144.412 151.706,140.765 z" id="boundary" inkscape:connector-curvature="0" />
	<path style="fill:none;stroke:red;stroke-width:1px;stroke-linecap:butt;stroke-linejoin:miter;stroke-opacity:1" d="M 135.294,35 153.529,35 z" id="boundary" inkscape:connector-curvature="0" />
	<path style="fill:none;stroke:red;stroke-width:1px;stroke-linecap:butt;stroke-linejoin:miter;stroke-opacity:1" d="M 137.118,299.412 155.353,301.235 z" id="boundary" inkscape:connector-curvature="0" />
	<path style="fill:none;stroke:red;stroke-width:1px;stroke-linecap:butt;stroke-linejoin:miter;stroke-opacity:1" d="M 138.941,182.706 157.176,182.706 z" id="boundary" inkscape:connector-curvature="0" />
	<path style="fill:none;stroke:red;stroke-width:1px;stroke-linecap:butt;stroke-linejoin:miter;stroke-opacity:1" d="M 142.588,259.294 160.824,262.941 z" id="boundary" inkscape:connector-curvature="0" />
	<path style="fill:none;stroke:red;stroke-width:1px;stroke-linecap:butt;stroke-linejoin:miter;stroke-opacity:1" d="M 142.588,401.529 160.824,401.529 z" id="boundary" inkscape:connector-curvature="0" />
	<path style="fill:none;stroke:red;stroke-width:1px;stroke-linecap:butt;stroke-linejoin:miter;stroke-opacity:1" d="M 144.412,363.235 162.647,355.941 z" id="boundary" inkscape:connector-curvature="0" />
	<path style="fill:none;stroke:red;stroke-width:1px;stroke-linecap:butt;stroke-linejoin:miter;stroke-opacity:1" d="M 146.235,73.2941 164.471,73.2941 z" id="boundary" inkscape:connector-curvature="0" />
	<path style="fill:none;stroke:red;stroke-width:1px;stroke-linecap:butt;stroke-linejoin:miter;stroke-opacity:1" d="M 151.706,140.765 169.941,144.412 z" id="boundary" inkscape:connector-curvature="0" />
	<path style="fill:none;stroke:red;stroke-width:1px;stroke-linecap:butt;stroke-linejoin:miter;stroke-opacity:1" d="M 153.529,35 171.765,35 z" id="boundary" inkscape:connector-curvature="0" />
	<path style="fill:none;stroke:red;stroke-width:1px;stroke-linecap:butt;stroke-linejoin:miter;stroke-opacity:1" d="M 155.353,301.235 173.588,308.529 z" id="boundary" inkscape:connector-curvature="0" />
	<path style="fill:none;stroke:red;stroke-width:1px;stroke-linecap:butt;stroke-linejoin:miter;stroke-opacity:1" d="M 157.176,182.706 175.412,182.706 z" id="boundary" inkscape:connector-curvature="0" />
	<path style="fill:none;stroke:red;stroke-width:1px;stroke-linecap:butt;stroke-linejoin:miter;stroke-opacity:1" d="M 160.824,262.941 179.059,268.412 z" id="boundary" inkscape:connector-curvature="0" />
	<path style="fill:none;stroke:red;stroke-width:1px;stroke-linecap:butt;stroke-linejoin:miter;stroke-opacity:1" d="M 160.824,401.529 179.059,401.529 z" id="boundary" inkscape:connector-curvature="0" />
	<path style="fill:none;stroke:red;stroke-width:1px;stroke-linecap:butt;stroke-linejoin:miter;stroke-opacity:1" d="M 162.647,355.941 180.882,363.235 z" id="boundary" inkscape:connector-curvature="0" />
	<path style="fill:none;stroke:red;stroke-width:1px;stroke-linecap:butt;stroke-linejoin:miter;stroke-opacity:1" d="M 164.471,73.2941 182.706,73.2941 z" id="boundary" inkscape:connector-curvature="0" />
	<path style="fill:none;stroke:red;stroke-width:1px;stroke-linecap:butt;stroke-linejoin:miter;stroke-opacity:1" d="M 169.941,144.412 188.176,144.412 z" id="boundary" inkscape:connector-curvature="0" />
	<path style="fill:none;stroke:red;stroke-width:1px;stroke-linecap:butt;stroke-linejoin:miter;stroke-opacity:1" d="M 171.765,35 190,35 z" id="boundary" inkscape:connector-curvature="0" />
	<path style="fill:none;stroke:red;stroke-width:1px;stroke-linecap:butt;stroke-linejoin:miter;stroke-opacity:1" d="M 173.588,308.529 191.824,310.353 z" id="boundary" inkscape:connector-curvature="0" />
	<path style="fill:none;stroke:red;stroke-width:1px;stroke-linecap:butt;stroke-linejoin:miter;stroke-opacity:1" d="M 175.412,182.706 191.824,191.824 z" id="boundary" inkscape:connector-curvature="0" />
	<path style="fill:none;stroke:red;stroke-width:1px;stroke-linecap:butt;stroke-linejoin:miter;stroke-opacity:1" d="M 179.059,268.412 197.294,272.059 z" id="boundary" inkscape:connector-curvature="0" />
	<path style="fill:none;stroke:red;stroke-width:1px;stroke-linecap:butt;stroke-linejoin:miter;stroke-opacity:1" d="M 179.059,401.529 197.294,405.176 z" id="boundary" inkscape:connector-curvature="0" />
	<path style="fill:none;stroke:red;stroke-width:1px;stroke-linecap:butt;stroke-linejoin:miter;stroke-opacity:1" d="M 180.882,363.235 199.118,363.235 z" id="boundary" inkscape:connector-curvature="0" />
	<path style="fill:none;stroke:red;stroke-width:1px;stroke-linecap:butt;stroke-linejoin:miter;stroke-opacity:1" d="M 182.706,73.2941 200.941,80.5882 z" id="boundary" inkscape:connector-curvature="0" />
	<path style="fill:none;stroke:red;stroke-width:1px;stroke-linecap:butt;stroke-linejoin:miter;stroke-opacity:1" d="M 188.176,144.412 204.588,153.529 z" id="boundary" inkscape:connector-curvature="0" />
	<path style="fill:none;stroke:red;stroke-width:1px;stroke-linecap:butt;stroke-linejoin:miter;stroke-opacity:1" d="M 190,35 208.235,36.8235 z" id="boundary" inkscape:connector-curvature="0" />
	<path style="fill:none;stroke:red;stroke-width:1px;stroke-linecap:butt;stroke-linejoin:miter;stroke-opacity:1" d="M 191.824,191.824 210.059,191.824 z" id="boundary" inkscape:connector-curvature="0" />
	<path style="fill:none;stroke:red;stroke-width:1px;stroke-linecap:butt;stroke-linejoin:miter;stroke-opacity:1" d="M 191.824,310.353 210.059,310.353 z" id="boundary" inkscape:connector-curvature="0" />
	<path style="fill:none;stroke:red;stroke-width:1px;stroke-linecap:butt;stroke-linejoin:miter;stroke-opacity:1" d="M 197.294,272.059 215.529,272.059 z" id="boundary" inkscape:connector-curvature="0" />
	<path style="fill:none;stroke:red;stroke-width:1px;stroke-linecap:butt;stroke-linejoin:miter;stroke-opacity:1" d="M 197.294,405.176 215.529,410.647 z" id="boundary" inkscape:connector-curvature="0" />
	<path style="fill:none;stroke:red;stroke-width:1px;stroke-linecap:butt;stroke-linejoin:miter;stroke-opacity:1" d="M 199.118,363.235 217.353,365.059 z" id="boundary" inkscape:connector-curvature="0" />
	<path style="fill:none;stroke:red;stroke-width:1px;stroke-linecap:butt;stroke-linejoin:miter;stroke-opacity:1" d="M 200.941,80.5882 219.176,73.2941 z" id="boundary" inkscape:connector-curvature="0" />
	<path style="fill:none;stroke:red;stroke-width:1px;stroke-linecap:butt;stroke-linejoin:miter;stroke-opacity:1" d="M 204.588,153.529 221,162.647 z" id="boundary" inkscape:connector-curvature="0" />
	<path style="fill:none;stroke:red;stroke-width:1px;stroke-linecap:butt;stroke-linejoin:miter;stroke-opacity:1" d="M 208.235,36.8235 226.471,44.1176 z" id="boundary" inkscape:connector-curvature="0" />
	<path style="fill:none;stroke:red;stroke-width:1px;stroke-linecap:butt;stroke-linejoin:miter;stroke-opacity:1" d="M 210.059,191.824 226.471,200.941 z" id="boundary" inkscape:connector-curvature="0" />
	<path style="fill:none;stroke:red;stroke-width:1px;stroke-linecap:butt;stroke-linejoin:miter;stroke-opacity:1" d="M 210.059,310.353 228.294,317.647 z" id="boundary" inkscape:connector-curvature="0" />
	<path style="fill:none;stroke:red;stroke-width:1px;stroke-linecap:butt;stroke-linejoin:miter;stroke-opacity:1" d="M 215.529,272.059 231.941,281.176 z" id="boundary" inkscape:connector-curvature="0" />
	<path style="fill:none;stroke:red;stroke-width:1px;stroke-linecap:butt;stroke-linejoin:miter;stroke-opacity:1" d="M 215.529,410.647 233.765,410.647 z" id="boundary" inkscape:connector-curvature="0" />
	<path style="fill:none;stroke:red;stroke-width:1px;stroke-linecap:butt;stroke-linejoin:miter;stroke-opacity:1" d="M 217.353,365.059 235.588,363.235 z" id="boundary" inkscape:connector-curvature="0" />
	<path style="fill:none;stroke:red;stroke-width:1px;stroke-linecap:butt;stroke-linejoin:miter;stroke-opacity:1" d="M 219.176,73.2941 237.412,73.2941 z" id="boundary" inkscape:connector-curvature="0" />
	<path style="fill:none;stroke:red;stroke-width:1px;stroke-linecap:butt;stroke-linejoin:miter;stroke-opacity:1" d="M 221,162.647 239.235,162.647 z" id="boundary" inkscape:connector-curvature="0" />
	<path style="fill:none;stroke:red;stroke-width:1px;stroke-linecap:butt;stroke-linejoin:miter;stroke-opacity:1" d="M 226.471,44.1176 244.706,44.1176 z" id="boundary" inkscape:connector-curvature="0" />
	<path style="fill:none;stroke:red;stroke-width:1px;stroke-linecap:butt;stroke-linejoin:miter;stroke-opacity:1" d="M 226.471,200.941 244.706,200.941 z" id="boundary" inkscape:connector-curvature="0" />
	<path style="fill:none;stroke:red;stroke-width:1px;stroke-linecap:butt;stroke-linejoin:miter;stroke-opacity:1" d="M 228.294,317.647 246.529,319.471 z" id="boundary" inkscape:connector-curvature="0" />
	<path style="fill:none;stroke:red;stroke-width:1px;stroke-linecap:butt;stroke-linejoin:miter;stroke-opacity:1" d="M 231.941,281.176 250.176,281.176 z" id="boundary" inkscape:connector-curvature="0" />
	<path style="fill:none;stroke:red;stroke-width:1px;stroke-linecap:butt;stroke-linejoin:miter;stroke-opacity:1" d="M 233.765,410.647 252,410.647 z" id="boundary" inkscape:connector-curvature="0" />
	<path style="fill:none;stroke:red;stroke-width:1px;stroke-linecap:butt;stroke-linejoin:miter;stroke-opacity:1" d="M 235.588,363.235 253.824,365.059 z" id="boundary" inkscape:connector-curvature="0" />
	<path style="fill:none;stroke:red;stroke-width:1px;stroke-linecap:butt;stroke-linejoin:miter;stroke-opacity:1" d="M 237.412,73.2941 253.824,82.4118 z" id="boundary" inkscape:connector-curvature="0" />
	<path style="fill:none;stroke:red;stroke-width:1px;stroke-linecap:butt;stroke-linejoin:miter;stroke-opacity:1" d="M 239.235,162.647 255.647,171.765 z" id="boundary" inkscape:connector-curvature="0" />
	<path style="fill:none;stroke:red;stroke-width:1px;stroke-linecap:butt;stroke-linejoin:miter;stroke-opacity:1" d="M 244.706,44.1176 262.941,44.1176 z" id="boundary" inkscape:connector-curvature="0" />
	<path style="fill:none;stroke:red;stroke-width:1px;stroke-linecap:butt;stroke-linejoin:miter;stroke-opacity:1" d="M 244.706,200.941 261.118,210.059 z" id="boundary" inkscape:connector-curvature="0" />
	<path style="fill:none;stroke:red;stroke-width:1px;stroke-linecap:butt;stroke-linejoin:miter;stroke-opacity:1" d="M 246.529,319.471 264.765,319.471 z" id="boundary" inkscape:connector-curvature="0" />
	<path style="fill:none;stroke:red;stroke-width:1px;stroke-linecap:butt;stroke-linejoin:miter;stroke-opacity:1" d="M 250.176,281.176 268.412,281.176 z" id="boundary" inkscape:connector-curvature="0" />
	<path style="fill:none;stroke:red;stroke-width:1px;stroke-linecap:butt;stroke-linejoin:miter;stroke-opacity:1" d="M 252,410.647 270.235,410.647 z" id="boundary" inkscape:connector-curvature="0" />
	<path style="fill:none;stroke:red;stroke-width:1px;stroke-linecap:butt;stroke-linejoin:miter;stroke-opacity:1" d="M 253.824,82.4118 272.059,87.8824 z" id="boundary" inkscape:connector-curvature="0" />
	<path style="fill:none;stroke:red;stroke-width:1px;stroke-linecap:butt;stroke-linejoin:miter;stroke-opacity:1" d="M 253.824,365.059 272.059,363.235 z" id="boundary" inkscape:connector-curvature="0" />
	<path style="fill:none;stroke:red;stroke-width:1px;stroke-linecap:butt;stroke-linejoin:miter;stroke-opacity:1" d="M 255.647,171.765 273.882,171.765 z" id="boundary" inkscape:connector-curvature="0" />
	<path style="fill:none;stroke:red;stroke-width:1px;stroke-linecap:butt;stroke-linejoin:miter;stroke-opacity:1" d="M 261.118,210.059 279.353,210.059 z" id="boundary" inkscape:connector-curvature="0" />
	<path style="fill:none;stroke:red;stroke-width:1px;stroke-linecap:butt;stroke-linejoin:miter;stroke-opacity:1" d="M 262.941,44.1176 281.176,44.1176 z" id="boundary" inkscape:connector-curvature="0" />
	<path style="fill:none;stroke:red;stroke-width:1px;stroke-linecap:butt;stroke-linejoin:miter;stroke-opacity:1" d="M 264.765,319.471 283,319.471 z" id="boundary" inkscape:connector-curvature="0" />
	<path style="fill:none;stroke:red;stroke-width:1px;stroke-linecap:butt;stroke-linejoin:miter;stroke-opacity:1" d="M 268.412,281.176 286.647,281.176 z" id="boundary" inkscape:connector-curvature="0" />
	<path style="fill:none;stroke:red;stroke-width:1px;stroke-linecap:butt;stroke-linejoin:miter;stroke-opacity:1" d="M 270.235,410.647 288.471,414.294 z" id="boundary" inkscape:connector-curvature="0" />
	<path style="fill:none;stroke:red;stroke-width:1px;stroke-linecap:butt;stroke-linejoin:miter;stroke-opacity:1" d="M 272.059,87.8824 290.294,87.8824 z" id="boundary" inkscape:connector-curvature="0" />
	<path style="fill:none;stroke:red;stroke-width:1px;stroke-linecap:butt;stroke-linejoin:miter;stroke-opacity:1" d="M 272.059,363.235 286.647,337.706 z" id="boundary" inkscape:connector-curvature="0" />
	<path style="fill:none;stroke:red;stroke-width:1px;stroke-linecap:butt;stroke-linejoin:miter;stroke-opacity:1" d="M 273.882,171.765 292.118,171.765 z" id="boundary" inkscape:connector-curvature="0" />
	<path style="fill:none;stroke:red;stroke-width:1px;stroke-linecap:butt;stroke-linejoin:miter;stroke-opacity:1" d="M 279.353,210.059 295.765,219.176 z" id="boundary" inkscape:connector-curvature="0" />
	<path style="fill:none;stroke:red;stroke-width:1px;stroke-linecap:butt;stroke-linejoin:miter;stroke-opacity:1" d="M 281.176,44.1176 297.588,53.2353 z" id="boundary" inkscape:connector-curvature="0" />
	<path style="fill:none;stroke:red;stroke-width:1px;stroke-linecap:butt;stroke-linejoin:miter;stroke-opacity:1" d="M 283,319.471 286.647,337.706 z" id="boundary" inkscape:connector-curvature="0" />
	<path style="fill:none;stroke:red;stroke-width:1px;stroke-linecap:butt;stroke-linejoin:miter;stroke-opacity:1" d="M 286.647,281.176 304.882,268.412 z" id="boundary" inkscape:connector-curvature="0" />
	<path style="fill:none;stroke:red;stroke-width:1px;stroke-linecap:butt;stroke-linejoin:miter;stroke-opacity:1" d="M 288.471,414.294 306.706,414.294 z" id="boundary" inkscape:connector-curvature="0" />
	<path style="fill:none;stroke:red;stroke-width:1px;stroke-linecap:butt;stroke-linejoin:miter;stroke-opacity:1" d="M 290.294,87.8824 308.529,87.8824 z" id="boundary" inkscape:connector-curvature="0" />
	<path style="fill:none;stroke:red;stroke-width:1px;stroke-linecap:butt;stroke-linejoin:miter;stroke-opacity:1" d="M 292.118,171.765 308.529,180.882 z" id="boundary" inkscape:connector-curvature="0" />
	<path style="fill:none;stroke:red;stroke-width:1px;stroke-linecap:butt;stroke-linejoin:miter;stroke-opacity:1" d="M 295.765,219.176 312.176,228.294 z" id="boundary" inkscape:connector-curvature="0" />
	<path style="fill:none;stroke:red;stroke-width:1px;stroke-linecap:butt;stroke-linejoin:miter;stroke-opacity:1" d="M 297.588,53.2353 315.824,53.2353 z" id="boundary" inkscape:connector-curvature="0" />
	<path style="fill:none;stroke:red;stroke-width:1px;stroke-linecap:butt;stroke-linejoin:miter;stroke-opacity:1" d="M 304.882,250.176 304.882,268.412 z" id="boundary" inkscape:connector-curvature="0" />
	<path style="fill:none;stroke:red;stroke-width:1px;stroke-linecap:butt;stroke-linejoin:miter;stroke-opacity:1" d="M 304.882,250.176 312.176,228.294 z" id="boundary" inkscape:connector-curvature="0" />
	<path style="fill:none;stroke:red;stroke-width:1px;stroke-linecap:butt;stroke-linejoin:miter;stroke-opacity:1" d="M 306.706,414.294 319.471,399.706 z" id="boundary" inkscape:connector-curvature="0" />
	<path style="fill:none;stroke:red;stroke-width:1px;stroke-linecap:butt;stroke-linejoin:miter;stroke-opacity:1" d="M 308.529,87.8824 324.941,97 z" id="boundary" inkscape:connector-curvature="0" />
	<path style="fill:none;stroke:red;stroke-width:1px;stroke-linecap:butt;stroke-linejoin:miter;stroke-opacity:1" d="M 308.529,180.882 326.765,180.882 z" id="boundary" inkscape:connector-curvature="0" />
	<path style="fill:none;stroke:red;stroke-width:1px;stroke-linecap:butt;stroke-linejoin:miter;stroke-opacity:1" d="M 315.824,53.2353 334.059,58.7059 z" id="boundary" inkscape:connector-curvature="0" />
	<path style="fill:none;stroke:red;stroke-width:1px;stroke-linecap:butt;stroke-linejoin:miter;stroke-opacity:1" d="M 319.471,399.706 324.941,365.059 z" id="boundary" inkscape:connector-curvature="0" />
	<path style="fill:none;stroke:red;stroke-width:1px;stroke-linecap:butt;stroke-linejoin:miter;stroke-opacity:1" d="M 324.941,97 341.353,106.118 z" id="boundary" inkscape:connector-curvature="0" />
	<path style="fill:none;stroke:red;stroke-width:1px;stroke-linecap:butt;stroke-linejoin:miter;stroke-opacity:1" d="M 324.941,346.824 324.941,365.059 z" id="boundary" inkscape:connector-curvature="0" />
	<path style="fill:none;stroke:red;stroke-width:1px;stroke-linecap:butt;stroke-linejoin:miter;stroke-opacity:1" d="M 324.941,346.824 334.059,319.471 z" id="boundary" inkscape:connector-curvature="0" />
	<path style="fill:none;stroke:red;stroke-width:1px;stroke-linecap:butt;stroke-linejoin:miter;stroke-opacity:1" d="M 326.765,180.882 332.235,149.882 z" id="boundary" inkscape:connector-curvature="0" />
	<path style="fill:none;stroke:red;stroke-width:1px;stroke-linecap:butt;stroke-linejoin:miter;stroke-opacity:1" d="M 332.235,131.647 332.235,149.882 z" id="boundary" inkscape:connector-curvature="0" />
	<path style="fill:none;stroke:red;stroke-width:1px;stroke-linecap:butt;stroke-linejoin:miter;stroke-opacity:1" d="M 332.235,131.647 341.353,106.118 z" id="boundary" inkscape:connector-curvature="0" />
	<path style="fill:none;stroke:red;stroke-width:1px;stroke-linecap:butt;stroke-linejoin:miter;stroke-opacity:1" d="M 334.059,58.7059 352.294,62.3529 z" id="boundary" inkscape:connector-curvature="0" />
	<path style="fill:none;stroke:red;stroke-width:1px;stroke-linecap:butt;stroke-linejoin:miter;stroke-opacity:1" d="M 334.059,283 334.059,301.235 z" id="boundary" inkscape:connector-curvature="0" />
	<path style="fill:none;stroke:red;stroke-width:1px;stroke-linecap:butt;stroke-linejoin:miter;stroke-opacity:1" d="M 334.059,283 352.294,283 z" id="boundary" inkscape:connector-curvature="0" />
	<path style="fill:none;stroke:red;stroke-width:1px;stroke-linecap:butt;stroke-linejoin:miter;stroke-opacity:1" d="M 334.059,301.235 334.059,319.471 z" id="boundary" inkscape:connector-curvature="0" />
	<path style="fill:none;stroke:red;stroke-width:1px;stroke-linecap:butt;stroke-linejoin:miter;stroke-opacity:1" d="M 352.294,62.3529 370.529,62.3529 z" id="boundary" inkscape:connector-curvature="0" />
	<path style="fill:none;stroke:red;stroke-width:1px;stroke-linecap:butt;stroke-linejoin:miter;stroke-opacity:1" d="M 352.294,283 370.529,286.647 z" id="boundary" inkscape:connector-curvature="0" />
	<path style="fill:none;stroke:red;stroke-width:1px;stroke-linecap:butt;stroke-linejoin:miter;stroke-opacity:1" d="M 361.412,191.824 361.412,210.059 z" id="boundary" inkscape:connector-curvature="0" />
	<path style="fill:none;stroke:red;stroke-width:1px;stroke-linecap:butt;stroke-linejoin:miter;stroke-opacity:1" d="M 361.412,191.824 370.529,173.588 z" id="boundary" inkscape:connector-curvature="0" />
	<path style="fill:none;stroke:red;stroke-width:1px;stroke-linecap:butt;stroke-linejoin:miter;stroke-opacity:1" d="M 361.412,210.059 379.647,213.706 z" id="boundary" inkscape:connector-curvature="0" />
	<path style="fill:none;stroke:red;stroke-width:1px;stroke-linecap:butt;stroke-linejoin:miter;stroke-opacity:1" d="M 370.529,62.3529 385.118,73.2941 z" id="boundary" inkscape:connector-curvature="0" />
	<path style="fill:none;stroke:red;stroke-width:1px;stroke-linecap:butt;stroke-linejoin:miter;stroke-opacity:1" d="M 370.529,155.353 370.529,173.588 z" id="boundary" inkscape:connector-curvature="0" />
	<path style="fill:none;stroke:red;stroke-width:1px;stroke-linecap:butt;stroke-linejoin:miter;stroke-opacity:1" d="M 370.529,155.353 379.647,128 z" id="boundary" inkscape:connector-curvature="0" />
	<path style="fill:none;stroke:red;stroke-width:1px;stroke-linecap:butt;stroke-linejoin:miter;stroke-opacity:1" d="M 370.529,286.647 386.941,295.765 z" id="boundary" inkscape:connector-curvature="0" />
	<path style="fill:none;stroke:red;stroke-width:1px;stroke-linecap:butt;stroke-linejoin:miter;stroke-opacity:1" d="M 379.647,128 388.765,100.647 z" id="boundary" inkscape:connector-curvature="0" />
	<path style="fill:none;stroke:red;stroke-width:1px;stroke-linecap:butt;stroke-linejoin:miter;stroke-opacity:1" d="M 379.647,213.706 397.882,217.353 z" id="boundary" inkscape:connector-curvature="0" />
	<path style="fill:none;stroke:red;stroke-width:1px;stroke-linecap:butt;stroke-linejoin:miter;stroke-opacity:1" d="M 385.118,73.2941 388.765,100.647 z" id="boundary" inkscape:connector-curvature="0" />
	<path style="fill:none;stroke:red;stroke-width:1px;stroke-linecap:butt;stroke-linejoin:miter;stroke-opacity:1" d="M 386.941,295.765 405.176,301.235 z" id="boundary" inkscape:connector-curvature="0" />
	<path style="fill:none;stroke:red;stroke-width:1px;stroke-linecap:butt;stroke-linejoin:miter;stroke-opacity:1" d="M 397.882,217.353 416.118,222.824 z" id="boundary" inkscape:connector-curvature="0" />
	<path style="fill:none;stroke:red;stroke-width:1px;stroke-linecap:butt;stroke-linejoin:miter;stroke-opacity:1" d="M 405.176,301.235 423.412,301.235 z" id="boundary" inkscape:connector-curvature="0" />
	<path style="fill:none;stroke:red;stroke-width:1px;stroke-linecap:butt;stroke-linejoin:miter;stroke-opacity:1" d="M 416.118,222.824 434.353,226.471 z" id="boundary" inkscape:connector-curvature="0" />
	<path style="fill:none;stroke:red;stroke-width:1px;stroke-linecap:butt;stroke-linejoin:miter;stroke-opacity:1" d="M 423.412,301.235 441.647,301.235 z" id="boundary" inkscape:connector-curvature="0" />
	<path style="fill:none;stroke:red;stroke-width:1px;stroke-linecap:butt;stroke-linejoin:miter;stroke-opacity:1" d="M 434.353,226.471 450.765,235.588 z" id="boundary" inkscape:connector-curvature="0" />
	<path style="fill:none;stroke:red;stroke-width:1px;stroke-linecap:butt;stroke-linejoin:miter;stroke-opacity:1" d="M 441.647,301.235 459.882,301.235 z" id="boundary" inkscape:connector-curvature="0" />
	<path style="fill:none;stroke:red;stroke-width:1px;stroke-linecap:butt;stroke-linejoin:miter;stroke-opacity:1" d="M 450.765,235.588 469,235.588 z" id="boundary" inkscape:connector-curvature="0" />
	<path style="fill:none;stroke:red;stroke-width:1px;stroke-linecap:butt;stroke-linejoin:miter;stroke-opacity:1" d="M 459.882,301.235 476.294,310.353 z" id="boundary" inkscape:connector-curvature="0" />
	<path style="fill:none;stroke:red;stroke-width:1px;stroke-linecap:butt;stroke-linejoin:miter;stroke-opacity:1" d="M 469,235.588 485.412,244.706 z" id="boundary" inkscape:connector-curvature="0" />
	<path style="fill:none;stroke:red;stroke-width:1px;stroke-linecap:butt;stroke-linejoin:miter;stroke-opacity:1" d="M 476.294,310.353 494.529,310.353 z" id="boundary" inkscape:connector-curvature="0" />
	<path style="fill:none;stroke:red;stroke-width:1px;stroke-linecap:butt;stroke-linejoin:miter;stroke-opacity:1" d="M 485.412,244.706 503.647,244.706 z" id="boundary" inkscape:connector-curvature="0" />
	<path style="fill:none;stroke:red;stroke-width:1px;stroke-linecap:butt;stroke-linejoin:miter;stroke-opacity:1" d="M 494.529,310.353 510.941,319.471 z" id="boundary" inkscape:connector-curvature="0" />
	<path style="fill:none;stroke:red;stroke-width:1px;stroke-linecap:butt;stroke-linejoin:miter;stroke-opacity:1" d="M 503.647,244.706 520.059,253.824 z" id="boundary" inkscape:connector-curvature="0" />
	<path style="fill:none;stroke:red;stroke-width:1px;stroke-linecap:butt;stroke-linejoin:miter;stroke-opacity:1" d="M 510.941,319.471 529.176,319.471 z" id="boundary" inkscape:connector-curvature="0" />
	<path style="fill:none;stroke:red;stroke-width:1px;stroke-linecap:butt;stroke-linejoin:miter;stroke-opacity:1" d="M 520.059,253.824 538.294,253.824 z" id="boundary" inkscape:connector-curvature="0" />
	<path style="fill:none;stroke:red;stroke-width:1px;stroke-linecap:butt;stroke-linejoin:miter;stroke-opacity:1" d="M 529.176,319.471 547.412,326.765 z" id="boundary" inkscape:connector-curvature="0" />
	<path style="fill:none;stroke:red;stroke-width:1px;stroke-linecap:butt;stroke-linejoin:miter;stroke-opacity:1" d="M 538.294,253.824 554.706,262.941 z" id="boundary" inkscape:connector-curvature="0" />
	<path style="fill:none;stroke:red;stroke-width:1px;stroke-linecap:butt;stroke-linejoin:miter;stroke-opacity:1" d="M 547.412,326.765 565.647,328.588 z" id="boundary" inkscape:connector-curvature="0" />
	<path style="fill:none;stroke:red;stroke-width:1px;stroke-linecap:butt;stroke-linejoin:miter;stroke-opacity:1" d="M 554.706,262.941 572.941,262.941 z" id="boundary" inkscape:connector-curvature="0" />
	<path style="fill:none;stroke:red;stroke-width:1px;stroke-linecap:butt;stroke-linejoin:miter;stroke-opacity:1" d="M 565.647,328.588 583.882,328.588 z" id="boundary" inkscape:connector-curvature="0" />
	<path style="fill:none;stroke:red;stroke-width:1px;stroke-linecap:butt;stroke-linejoin:miter;stroke-opacity:1" d="M 572.941,262.941 589.353,272.059 z" id="boundary" inkscape:connector-curvature="0" />
	<path style="fill:none;stroke:red;stroke-width:1px;stroke-linecap:butt;stroke-linejoin:miter;stroke-opacity:1" d="M 583.882,328.588 600.294,337.706 z" id="boundary" inkscape:connector-curvature="0" />
	<path style="fill:none;stroke:red;stroke-width:1px;stroke-linecap:butt;stroke-linejoin:miter;stroke-opacity:1" d="M 589.353,272.059 607.588,272.059 z" id="boundary" inkscape:connector-curvature="0" />
	<path style="fill:none;stroke:red;stroke-width:1px;stroke-linecap:butt;stroke-linejoin:miter;stroke-opacity:1" d="M 600.294,337.706 616.706,346.824 z" id="boundary" inkscape:connector-curvature="0" />
	<path style="fill:none;stroke:red;stroke-width:1px;stroke-linecap:butt;stroke-linejoin:miter;stroke-opacity:1" d="M 607.588,272.059 624,281.176 z" id="boundary" inkscape:connector-curvature="0" />
	<path style="fill:none;stroke:red;stroke-width:1px;stroke-linecap:butt;stroke-linejoin:miter;stroke-opacity:1" d="M 616.706,346.824 634.941,350.471 z" id="boundary" inkscape:connector-curvature="0" />
	<path style="fill:none;stroke:red;stroke-width:1px;stroke-linecap:butt;stroke-linejoin:miter;stroke-opacity:1" d="M 624,281.176 642.235,275.706 z" id="boundary" inkscape:connector-curvature="0" />
	<path style="fill:none;stroke:red;stroke-width:1px;stroke-linecap:butt;stroke-linejoin:miter;stroke-opacity:1" d="M 634.941,350.471 653.176,350.471 z" id="boundary" inkscape:connector-curvature="0" />
	<path style="fill:none;stroke:red;stroke-width:1px;stroke-linecap:butt;stroke-linejoin:miter;stroke-opacity:1" d="M 642.235,275.706 660.471,281.176 z" id="boundary" inkscape:connector-curvature="0" />
	<path style="fill:none;stroke:red;stroke-width:1px;stroke-linecap:butt;stroke-linejoin:miter;stroke-opacity:1" d="M 653.176,350.471 671.412,355.941 z" id="boundary" inkscape:connector-curvature="0" />
	<path style="fill:none;stroke:red;stroke-width:1px;stroke-linecap:butt;stroke-linejoin:miter;stroke-opacity:1" d="M 660.471,281.176 678.706,281.176 z" id="boundary" inkscape:connector-curvature="0" />
	<path style="fill:none;stroke:red;stroke-width:1px;stroke-linecap:butt;stroke-linejoin:miter;stroke-opacity:1" d="M 671.412,355.941 687.824,365.059 z" id="boundary" inkscape:connector-curvature="0" />
	<path style="fill:none;stroke:red;stroke-width:1px;stroke-linecap:butt;stroke-linejoin:miter;stroke-opacity:1" d="M 678.706,281.176 696.941,281.176 z" id="boundary" inkscape:connector-curvature="0" />
	<path style="fill:none;stroke:red;stroke-width:1px;stroke-linecap:butt;stroke-linejoin:miter;stroke-opacity:1" d="M 687.824,365.059 706.059,365.059 z" id="boundary" inkscape:connector-curvature="0" />
	<path style="fill:none;stroke:red;stroke-width:1px;stroke-linecap:butt;stroke-linejoin:miter;stroke-opacity:1" d="M 696.941,281.176 715.176,281.176 z" id="boundary" inkscape:connector-curvature="0" />
	<path style="fill:none;stroke:red;stroke-width:1px;stroke-linecap:butt;stroke-linejoin:miter;stroke-opacity:1" d="M 706.059,365.059 722.471,374.176 z" id="boundary" inkscape:connector-curvature="0" />
	<path style="fill:none;stroke:red;stroke-width:1px;stroke-linecap:butt;stroke-linejoin:miter;stroke-opacity:1" d="M 715.176,281.176 733.412,281.176 z" id="boundary" inkscape:connector-curvature="0" />
	<path style="fill:none;stroke:red;stroke-width:1px;stroke-linecap:butt;stroke-linejoin:miter;stroke-opacity:1" d="M 722.471,374.176 738.882,383.294 z" id="boundary" inkscape:connector-curvature="0" />
	<path style="fill:none;stroke:red;stroke-width:1px;stroke-linecap:butt;stroke-linejoin:miter;stroke-opacity:1" d="M 733.412,281.176 751.647,281.176 z" id="boundary" inkscape:connector-curvature="0" />
	<path style="fill:none;stroke:red;stroke-width:1px;stroke-linecap:butt;stroke-linejoin:miter;stroke-opacity:1" d="M 738.882,383.294 757.118,383.294 z" id="boundary" inkscape:connector-curvature="0" />
	<path style="fill:none;stroke:red;stroke-width:1px;stroke-linecap:butt;stroke-linejoin:miter;stroke-opacity:1" d="M 751.647,281.176 769.882,281.176 z" id="boundary" inkscape:connector-curvature="0" />
	<path style="fill:none;stroke:red;stroke-width:1px;stroke-linecap:butt;stroke-linejoin:miter;stroke-opacity:1" d="M 757.118,383.294 773.529,392.412 z" id="boundary" inkscape:connector-curvature="0" />
	<path style="fill:none;stroke:red;stroke-width:1px;stroke-linecap:butt;stroke-linejoin:miter;stroke-opacity:1" d="M 769.882,281.176 786.294,290.294 z" id="boundary" inkscape:connector-curvature="0" />
	<path style="fill:none;stroke:red;stroke-width:1px;stroke-linecap:butt;stroke-linejoin:miter;stroke-opacity:1" d="M 773.529,392.412 791.765,397.882 z" id="boundary" inkscape:connector-curvature="0" />
	<path style="fill:none;stroke:red;stroke-width:1px;stroke-linecap:butt;stroke-linejoin:miter;stroke-opacity:1" d="M 786.294,290.294 802.706,281.176 z" id="boundary" inkscape:connector-curvature="0" />
	<path style="fill:none;stroke:red;stroke-width:1px;stroke-linecap:butt;stroke-linejoin:miter;stroke-opacity:1" d="M 791.765,397.882 810,401.529 z" id="boundary" inkscape:connector-curvature="0" />
	<path style="fill:none;stroke:red;stroke-width:1px;stroke-linecap:butt;stroke-linejoin:miter;stroke-opacity:1" d="M 802.706,281.176 820.941,281.176 z" id="boundary" inkscape:connector-curvature="0" />
	<path style="fill:none;stroke:red;stroke-width:1px;stroke-linecap:butt;stroke-linejoin:miter;stroke-opacity:1" d="M 810,401.529 828.235,401.529 z" id="boundary" inkscape:connector-curvature="0" />
	<path style="fill:none;stroke:red;stroke-width:1px;stroke-linecap:butt;stroke-linejoin:miter;stroke-opacity:1" d="M 820.941,281.176 839.176,281.176 z" id="boundary" inkscape:connector-curvature="0" />
	<path style="fill:none;stroke:red;stroke-width:1px;stroke-linecap:butt;stroke-linejoin:miter;stroke-opacity:1" d="M 828.235,401.529 846.471,401.529 z" id="boundary" inkscape:connector-curvature="0" />
	<path style="fill:none;stroke:red;stroke-width:1px;stroke-linecap:butt;stroke-linejoin:miter;stroke-opacity:1" d="M 839.176,281.176 855.588,290.294 z" id="boundary" inkscape:connector-curvature="0" />
	<path style="fill:none;stroke:red;stroke-width:1px;stroke-linecap:butt;stroke-linejoin:miter;stroke-opacity:1" d="M 846.471,401.529 864.706,401.529 z" id="boundary" inkscape:connector-curvature="0" />
	<path style="fill:none;stroke:red;stroke-width:1px;stroke-linecap:butt;stroke-linejoin:miter;stroke-opacity:1" d="M 855.588,290.294 872,299.412 z" id="boundary" inkscape:connector-curvature="0" />
	<path style="fill:none;stroke:red;stroke-width:1px;stroke-linecap:butt;stroke-linejoin:miter;stroke-opacity:1" d="M 864.706,401.529 882.941,407 z" id="boundary" inkscape:connector-curvature="0" />
	<path style="fill:none;stroke:red;stroke-width:1px;stroke-linecap:butt;stroke-linejoin:miter;stroke-opacity:1" d="M 872,299.412 890.235,295.765 z" id="boundary" inkscape:connector-curvature="0" />
	<path style="fill:none;stroke:red;stroke-width:1px;stroke-linecap:butt;stroke-linejoin:miter;stroke-opacity:1" d="M 882.941,407 901.176,410.647 z" id="boundary" inkscape:connector-curvature="0" />
	<path style="fill:none;stroke:red;stroke-width:1px;stroke-linecap:butt;stroke-linejoin:miter;stroke-opacity:1" d="M 890.235,295.765 908.471,299.412 z" id="boundary" inkscape:connector-curvature="0" />
	<path style="fill:none;stroke:red;stroke-width:1px;stroke-linecap:butt;stroke-linejoin:miter;stroke-opacity:1" d="M 901.176,410.647 919.412,410.647 z" id="boundary" inkscape:connector-curvature="0" />
	<path style="fill:none;stroke:red;stroke-width:1px;stroke-linecap:butt;stroke-linejoin:miter;stroke-opacity:1" d="M 908.471,299.412 924.882,308.529 z" id="boundary" inkscape:connector-curvature="0" />
	<path style="fill:none;stroke:red;stroke-width:1px;stroke-linecap:butt;stroke-linejoin:miter;stroke-opacity:1" d="M 919.412,410.647 937.647,410.647 z" id="boundary" inkscape:connector-curvature="0" />
	<path style="fill:none;stroke:red;stroke-width:1px;stroke-linecap:butt;stroke-linejoin:miter;stroke-opacity:1" d="M 924.882,308.529 943.118,312.176 z" id="boundary" inkscape:connector-curvature="0" />
	<path style="fill:none;stroke:red;stroke-width:1px;stroke-linecap:butt;stroke-linejoin:miter;stroke-opacity:1" d="M 937.647,410.647 954.059,401.529 z" id="boundary" inkscape:connector-curvature="0" />
	<path style="fill:none;stroke:red;stroke-width:1px;stroke-linecap:butt;stroke-linejoin:miter;stroke-opacity:1" d="M 943.118,312.176 954.059,326.765 z" id="boundary" inkscape:connector-curvature="0" />
	<path style="fill:none;stroke:red;stroke-width:1px;stroke-linecap:butt;stroke-linejoin:miter;stroke-opacity:1" d="M 954.059,326.765 972.294,332.235 z" id="boundary" inkscape:connector-curvature="0" />
	<path style="fill:none;stroke:red;stroke-width:1px;stroke-linecap:butt;stroke-linejoin:miter;stroke-opacity:1" d="M 954.059,401.529 972.294,392.412 z" id="boundary" inkscape:connector-curvature="0" />
	<path style="fill:none;stroke:red;stroke-width:1px;stroke-linecap:butt;stroke-linejoin:miter;stroke-opacity:1" d="M 972.294,332.235 985.059,346.824 z" id="boundary" inkscape:connector-curvature="0" />
	<path style="fill:none;stroke:red;stroke-width:1px;stroke-linecap:butt;stroke-linejoin:miter;stroke-opacity:1" d="M 972.294,392.412 981.412,374.176 z" id="boundary" inkscape:connector-curvature="0" />
	<path style="fill:none;stroke:red;stroke-width:1px;stroke-linecap:butt;stroke-linejoin:miter;stroke-opacity:1" d="M 981.412,374.176 996,361.412 z" id="boundary" inkscape:connector-curvature="0" />
	<path style="fill:none;stroke:red;stroke-width:1px;stroke-linecap:butt;stroke-linejoin:miter;stroke-opacity:1" d="M 985.059,346.824 996,361.412 z" id="boundary" inkscape:connector-curvature="0" />
	<circle cx="4" cy="386.941" r="4" fill="#0" id="circle0"/>
	<circle cx="13.1176" cy="13.1176" r="4" fill="#0" id="circle1"/>
	<circle cx="13.1176" cy="31.3529" r="4" fill="#0" id="circle2"/>
	<circle cx="18.5882" cy="372.353" r="4" fill="#0" id="circle3"/>
	<circle cx="18.5882" cy="399.706" r="4" fill="#0" id="circle4"/>
	<circle cx="22.2353" cy="250.176" r="4" fill="#0" id="circle5"/>
	<circle cx="27.7059" cy="44.1176" r="4" fill="#0" id="circle6"/>
	<circle cx="31.3529" cy="4" r="4" fill="#0" id="circle7"/>
	<circle cx="31.3529" cy="149.882" r="4" fill="#0" id="circle8"/>
	<circle cx="31.3529" cy="168.118" r="4" fill="#0" id="circle9"/>
	<circle cx="31.3529" cy="266.588" r="4" fill="#0" id="circle10"/>
	<circle cx="33.1765" cy="410.647" r="4" fill="#0" id="circle11"/>
	<circle cx="35" cy="363.235" r="4" fill="#0" id="circle12"/>
	<circle cx="36.8235" cy="235.588" r="4" fill="#0" id="circle13"/>
	<circle cx="40.4706" cy="58.7059" r="4" fill="#0" id="circle14"/>
	<circle cx="45.9412" cy="135.294" r="4" fill="#0" id="circle15"/>
	<circle cx="49.5882" cy="7.64706" r="4" fill="#0" id="circle16"/>
	<circle cx="49.5882" cy="173.588" r="4" fill="#0" id="circle17"/>
	<circle cx="49.5882" cy="273.882" r="4" fill="#0" id="circle18"/>
	<circle cx="51.4118" cy="410.647" r="4" fill="#0" id="circle19"/>
	<circle cx="53.2353" cy="363.235" r="4" fill="#0" id="circle20"/>
	<circle cx="55.0588" cy="235.588" r="4" fill="#0" id="circle21"/>
	<circle cx="58.7059" cy="55.0588" r="4" fill="#0" id="circle22"/>
	<circle cx="64.1765" cy="126.176" r="4" fill="#0" id="circle23"/>
	<circle cx="66" cy="16.7647" r="4" fill="#0" id="circle24"/>
	<circle cx="67.8235" cy="173.588" r="4" fill="#0" id="circle25"/>
	<circle cx="67.8235" cy="273.882" r="4" fill="#0" id="circle26"/>
	<circle cx="69.6471" cy="410.647" r="4" fill="#0" id="circle27"/>
	<circle cx="71.4706" cy="365.059" r="4" fill="#0" id="circle28"/>
	<circle cx="73.2941" cy="235.588" r="4" fill="#0" id="circle29"/>
	<circle cx="75.1176" cy="64.1765" r="4" fill="#0" id="circle30"/>
	<circle cx="80.5882" cy="135.294" r="4" fill="#0" id="circle31"/>
	<circle cx="82.4118" cy="25.8824" r="4" fill="#0" id="circle32"/>
	<circle cx="84.2353" cy="283" r="4" fill="#0" id="circle33"/>
	<circle cx="86.0588" cy="173.588" r="4" fill="#0" id="circle34"/>
	<circle cx="87.8824" cy="410.647" r="4" fill="#0" id="circle35"/>
	<circle cx="89.7059" cy="244.706" r="4" fill="#0" id="circle36"/>
	<circle cx="89.7059" cy="363.235" r="4" fill="#0" id="circle37"/>
	<circle cx="93.3529" cy="64.1765" r="4" fill="#0" id="circle38"/>
	<circle cx="98.8235" cy="135.294" r="4" fill="#0" id="circle39"/>
	<circle cx="100.647" cy="25.8824" r="4" fill="#0" id="circle40"/>
	<circle cx="102.471" cy="283" r="4" fill="#0" id="circle41"/>
	<circle cx="104.294" cy="173.588" r="4" fill="#0" id="circle42"/>
	<circle cx="106.118" cy="401.529" r="4" fill="#0" id="circle43"/>
	<circle cx="107.941" cy="244.706" r="4" fill="#0" id="circle44"/>
	<circle cx="107.941" cy="363.235" r="4" fill="#0" id="circle45"/>
	<circle cx="111.588" cy="64.1765" r="4" fill="#0" id="circle46"/>
	<circle cx="117.059" cy="135.294" r="4" fill="#0" id="circle47"/>
	<circle cx="118.882" cy="25.8824" r="4" fill="#0" id="circle48"/>
	<circle cx="118.882" cy="292.118" r="4" fill="#0" id="circle49"/>
	<circle cx="120.706" cy="182.706" r="4" fill="#0" id="circle50"/>
	<circle cx="124.353" cy="253.824" r="4" fill="#0" id="circle51"/>
	<circle cx="124.353" cy="401.529" r="4" fill="#0" id="circle52"/>
	<circle cx="126.176" cy="355.941" r="4" fill="#0" id="circle53"/>
	<circle cx="129.824" cy="64.1765" r="4" fill="#0" id="circle54"/>
	<circle cx="133.471" cy="144.412" r="4" fill="#0" id="circle55"/>
	<circle cx="135.294" cy="35" r="4" fill="#0" id="circle56"/>
	<circle cx="137.118" cy="299.412" r="4" fill="#0" id="circle57"/>
	<circle cx="138.941" cy="182.706" r="4" fill="#0" id="circle58"/>
	<circle cx="142.588" cy="259.294" r="4" fill="#0" id="circle59"/>
	<circle cx="142.588" cy="401.529" r="4" fill="#0" id="circle60"/>
	<circle cx="144.412" cy="363.235" r="4" fill="#0" id="circle61"/>
	<circle cx="146.235" cy="73.2941" r="4" fill="#0" id="circle62"/>
	<circle cx="151.706" cy="140.765" r="4" fill="#0" id="circle63"/>
	<circle cx="153.529" cy="35" r="4" fill="#0" id="circle64"/>
	<circle cx="155.353" cy="301.235" r="4" fill="#0" id="circle65"/>
	<circle cx="157.176" cy="182.706" r="4" fill="#0" id="circle66"/>
	<circle cx="160.824" cy="262.941" r="4" fill="#0" id="circle67"/>
	<circle cx="160.824" cy="401.529" r="4" fill="#0" id="circle68"/>
	<circle cx="162.647" cy="355.941" r="4" fill="#0" id="circle69"/>
	<circle cx="164.471" cy="73.2941" r="4" fill="#0" id="circle70"/>
	<circle cx="169.941" cy="144.412" r="4" fill="#0" id="circle71"/>
	<circle cx="171.765" cy="35" r="4" fill="#0" id="circle72"/>
	<circle cx="173.588" cy="308.529" r="4" fill="#0" id="circle73"/>
	<circle cx="175.412" cy="182.706" r="4" fill="#0" id="circle74"/>
	<circle cx="179.059" cy="268.412" r="4" fill="#0" id="circle75"/>
	<circle cx="179.059" cy="401.529" r="4" fill="#0" id="circle76"/>
	<circle cx="180.882" cy="363.235" r="4" fill="#0" id="circle77"/>
	<circle cx="182.706" cy="73.2941" r="4" fill="#0" id="circle78"/>
	<circle cx="188.176" cy="144.412" r="4" fill="#0" id="circle79"/>
	<circle cx="190" cy="35" r="4" fill="#0" id="circle80"/>
	<circle cx="191.824" cy="191.824" r="4" fill="#0" id="circle81"/>
	<circle cx="191.824" cy="310.353" r="4" fill="#0" id="circle82"/>
	<circle cx="197.294" cy="272.059" r="4" fill="#0" id="circle83"/>
	<circle cx="197.294" cy="405.176" r="4" fill="#0" id="circle84"/>
	<circle cx="199.118" cy="363.235" r="4" fill="#0" id="circle85"/>
	<circle cx="200.941" cy="80.5882" r="4" fill="#0" id="circle86"/>
	<circle cx="204.588" cy="153.529" r="4" fill="#0" id="circle87"/>
	<circle cx="208.235" cy="36.8235" r="4" fill="#0" id="circle88"/>
	<circle cx="210.059" cy="191.824" r="4" fill="#0" id="circle89"/>
	<circle cx="210.059" cy="310.353" r="4" fill="#0" id="circle90"/>
	<circle cx="215.529" cy="272.059" r="4" fill="#0" id="circle91"/>
	<circle cx="215.529" cy="410.647" r="4" fill="#0" id="circle92"/>
	<circle cx="217.353" cy="365.059" r="4" fill="#0" id="circle93"/>
	<circle cx="219.176" cy="73.2941" r="4" fill="#0" id="circle94"/>
	<circle cx="221" cy="162.647" r="4" fill="#0" id="circle95"/>
	<circle cx="226.471" cy="44.1176" r="4" fill="#0" id="circle96"/>
	<circle cx="226.471" cy="200.941" r="4" fill="#0" id="circle97"/>
	<circle cx="228.294" cy="317.647" r="4" fill="#0" id="circle98"/>
	<circle cx="231.941" cy="281.176" r="4" fill="#0" id="circle99"/>
	<circle cx="233.765" cy="410.647" r="4" fill="#0" id="circle100"/>
	<circle cx="235.588" cy="363.235" r="4" fill="#0" id="circle101"/>
	<circle cx="237.412" cy="73.2941" r="4" fill="#0" id="circle102"/>
	<circle cx="239.235" cy="162.647" r="4" fill="#0" id="circle103"/>
	<circle cx="244.706" cy="44.1176" r="4" fill="#0" id="circle104"/>
	<circle cx="244.706" cy="200.941" r="4" fill="#0" id="circle105"/>
	<circle cx="246.529" cy="319.471" r="4" fill="#0" id="circle106"/>
	<circle cx="250.176" cy="281.176" r="4" fill="#0" id="circle107"/>
	<circle cx="252" cy="410.647" r="4" fill="#0" id="circle108"/>
	<circle cx="253.824" cy="82.4118" r="4" fill="#0" id="circle109"/>
	<circle cx="253.824" cy="365.059" r="4" fill="#0" id="circle110"/>
	<circle cx="255.647" cy="171.765" r="4" fill="#0" id="circle111"/>
	<circle cx="261.118" cy="210.059" r="4" fill="#0" id="circle112"/>
	<circle cx="262.941" cy="44.1176" r="4" fill="#0" id="circle113"/>
	<circle cx="264.765" cy="319.471" r="4" fill="#0" id="circle114"/>
	<circle cx="268.412" cy="281.176" r="4" fill="#0" id="circle115"/>
	<circle cx="270.235" cy="410.647" r="4" fill="#0" id="circle116"/>
	<circle cx="272.059" cy="87.8824" r="4" fill="#0" id="circle117"/>
	<circle cx="272.059" cy="363.235" r="4" fill="#0" id="circle118"/>
	<circle cx="273.882" cy="171.765" r="4" fill="#0" id="circle119"/>
	<circle cx="279.353" cy="210.059" r="4" fill="#0" id="circle120"/>
	<circle cx="281.176" cy="44.1176" r="4" fill="#0" id="circle121"/>
	<circle cx="283" cy="319.471" r="4" fill="#0" id="circle122"/>
	<circle cx="286.647" cy="281.176" r="4" fill="#0" id="circle123"/>
	<circle cx="286.647" cy="337.706" r="4" fill="#0" id="circle124"/>
	<circle cx="288.471" cy="414.294" r="4" fill="#0" id="circle125"/>
	<circle cx="290.294" cy="87.8824" r="4" fill="#0" id="circle126"/>
	<circle cx="292.118" cy="171.765" r="4" fill="#0" id="circle127"/>
	<circle cx="295.765" cy="219.176" r="4" fill="#0" id="circle128"/>
	<circle cx="297.588" cy="53.2353" r="4" fill="#0" id="circle129"/>
	<circle cx="304.882" cy="250.176" r="4" fill="#0" id="circle130"/>
	<circle cx="304.882" cy="268.412" r="4" fill="#0" id="circle131"/>
	<circle cx="306.706" cy="414.294" r="4" fill="#0" id="circle132"/>
	<circle cx="308.529" cy="87.8824" r="4" fill="#0" id="circle133"/>
	<circle cx="308.529" cy="180.882" r="4" fill="#0" id="circle134"/>
	<circle cx="312.176" cy="228.294" r="4" fill="#0" id="circle135"/>
	<circle cx="315.824" cy="53.2353" r="4" fill="#0" id="circle136"/>
	<circle cx="319.471" cy="399.706" r="4" fill="#0" id="circle137"/>
	<circle cx="324.941" cy="97" r="4" fill="#0" id="circle138"/>
	<circle cx="324.941" cy="346.824" r="4" fill="#0" id="circle139"/>
	<circle cx="324.941" cy="365.059" r="4" fill="#0" id="circle140"/>
	<circle cx="326.765" cy="180.882" r="4" fill="#0" id="circle141"/>
	<circle cx="332.235" cy="131.647" r="4" fill="#0" id="circle142"/>
	<circle cx="332.235" cy="149.882" r="4" fill="#0" id="circle143"/>
	<circle cx="334.059" cy="58.7059" r="4" fill="#0" id="circle144"/>
	<circle cx="334.059" cy="283" r="4" fill="#0" id="circle145"/>
	<circle cx="334.059" cy="301.235" r="4" fill="#0" id="circle146"/>
	<circle cx="334.059" cy="319.471" r="4" fill="#0" id="circle147"/>
	<circle cx="341.353" cy="106.118" r="4" fill="#0" id="circle148"/>
	<circle cx="352.294" cy="62.3529" r="4" fill="#0" id="circle149"/>
	<circle cx="352.294" cy="283" r="4" fill="#0" id="circle150"/>
	<circle cx="361.412" cy="191.824" r="4" fill="#0" id="circle151"/>
	<circle cx="361.412" cy="210.059" r="4" fill="#0" id="circle152"/>
	<circle cx="370.529" cy="62.3529" r="4" fill="#0" id="circle153"/>
	<circle cx="370.529" cy="155.353" r="4" fill="#0" id="circle154"/>
	<circle cx="370.529" cy="173.588" r="4" fill="#0" id="circle155"/>
	<circle cx="370.529" cy="286.647" r="4" fill="#0" id="circle156"/>
	<circle cx="379.647" cy="128" r="4" fill="#0" id="circle157"/>
	<circle cx="379.647" cy="213.706" r="4" fill="#0" id="circle158"/>
	<circle cx="385.118" cy="73.2941" r="4" fill="#0" id="circle159"/>
	<circle cx="386.941" cy="295.765" r="4" fill="#0" id="circle160"/>
	<circle cx="388.765" cy="100.647" r="4" fill="#0" id="circle161"/>
	<circle cx="397.882" cy="217.353" r="4" fill="#0" id="circle162"/>
	<circle cx="405.176" cy="301.235" r="4" fill="#0" id="circle163"/>
	<circle cx="416.118" cy="222.824" r="4" fill="#0" id="circle164"/>
	<circle cx="423.412" cy="301.235" r="4" fill="#0" id="circle165"/>
	<circle cx="434.353" cy="226.471" r="4" fill="#0" id="circle166"/>
	<circle cx="441.647" cy="301.235" r="4" fill="#0" id="circle167"/>
	<circle cx="450.765" cy="235.588" r="4" fill="#0" id="circle168"/>
	<circle cx="459.882" cy="301.235" r="4" fill="#0" id="circle169"/>
	<circle cx="469" cy="235.588" r="4" fill="#0" id="circle170"/>
	<circle cx="476.294" cy="310.353" r="4" fill="#0" id="circle171"/>
	<circle cx="485.412" cy="244.706" r="4" fill="#0" id="circle172"/>
	<circle cx="494.529" cy="310.353" r="4" fill="#0" id="circle173"/>
	<circle cx="503.647" cy="244.706" r="4" fill="#0" id="circle174"/>
	<circle cx="510.941" cy="319.471" r="4" fill="#0" id="circle175"/>
	<circle cx="520.059" cy="253.824" r="4" fill="#0" id="circle176"/>
	<circle cx="529.176" cy="319.471" r="4" fill="#0" id="circle177"/>
	<circle cx="538.294" cy="253.824" r="4" fill="#0" id="circle178"/>
	<circle cx="547.412" cy="326.765" r="4" fill="#0" id="circle179"/>
	<circle cx="554.706" cy="262.941" r="4" fill="#0" id="circle180"/>
	<circle cx="565.647" cy="328.588" r="4" fill="#0" id="circle181"/>
	<circle cx="572.941" cy="262.941" r="4" fill="#0" id="circle182"/>
	<circle cx="583.882" cy="328.588" r="4" fill="#0" id="circle183"/>
	<circle cx="589.353" cy="272.059" r="4" fill="#0" id="circle184"/>
	<circle cx="600.294" cy="337.706" r="4" fill="#0" id="circle185"/>
	<circle cx="607.588" cy="272.059" r="4" fill="#0" id="circle186"/>
	<circle cx="616.706" cy="346.824" r="4" fill="#0" id="circle187"/>
	<circle cx="624" cy="281.176" r="4" fill="#0" id="circle188"/>
	<circle cx="634.941" cy="350.471" r="4" fill="#0" id="circle189"/>
	<circle cx="642.235" cy="275.706" r="4" fill="#0" id="circle190"/>
	<circle cx="653.176" cy="350.471" r="4" fill="#0" id="circle191"/>
	<circle cx="660.471" cy="281.176" r="4" fill="#0" id="circle192"/>
	<circle cx="671.412" cy="355.941" r="4" fill="#0" id="circle193"/>
	<circle cx="678.706" cy="281.176" r="4" fill="#0" id="circle194"/>
	<circle cx="687.824" cy="365.059" r="4" fill="#0" id="circle195"/>
	<circle cx="696.941" cy="281.176" r="4" fill="#0" id="circle196"/>
	<circle cx="706.059" cy="365.059" r="4" fill="#0" id="circle197"/>
	<circle cx="715.176" cy="281.176" r="4" fill="#0" id="circle198"/>
	<circle cx="722.471" cy="374.176" r="4" fill="#0" id="circle199"/>
	<circle cx="733.412" cy="281.176" r="4" fill="#0" id="circle200"/>
	<circle cx="738.882" cy="383.294" r="4" fill="#0" id="circle201"/>
	<circle cx="751.647" cy="281.176" r="4" fill="#0" id="circle202"/>
	<circle cx="757.118" cy="383.294" r="4" fill="#0" id="circle203"/>
	<circle cx="769.882" cy="281.176" r="4" fill="#0" id="circle204"/>
	<circle cx="773.529" cy="392.412" r="4" fill="#0" id="circle205"/>
	<circle cx="786.294" cy="290.294" r="4" fill="#0" id="circle206"/>
	<circle cx="791.765" cy="397.882" r="4" fill="#0" id="circle207"/>
	<circle cx="802.706" cy="281.176" r="4" fill="#0" id="circle208"/>
	<circle cx="810" cy="401.529" r="4" fill="#0" id="circle209"/>
	<circle cx="820.941" cy="281.176" r="4" fill="#0" id="circle210"/>
	<circle cx="828.235" cy="401.529" r="4" fill="#0" id="circle211"/>
	<circle cx="839.176" cy="281.176" r="4" fill="#0" id="circle212"/>
	<circle cx="846.471" cy="401.529" r="4" fill="#0" id="circle213"/>
	<circle cx="855.588" cy="290.294" r="4" fill="#0" id="circle214"/>
	<circle cx="864.706" cy="401.529" r="4" fill="#0" id="circle215"/>
	<circle cx="872" cy="299.412" r="4" fill="#0" id="circle216"/>
	<circle cx="882.941" cy="407" r="4" fill="#0" id="circle217"/>
	<circle cx="890.235" cy="295.765" r="4" fill="#0" id="circle218"/>
	<circle cx="901.176" cy="410.647" r="4" fill="#0" id="circle219"/>
	<circle cx="908.471" cy="299.412" r="4" fill="#0" id="circle220"/>
	<circle cx="919.412" cy="410.647" r="4" fill="#0" id="circle221"/>
	<circle cx="924.882" cy="308.529" r="4" fill="#0" id="circle222"/>
	<circle cx="937.647" cy="410.647" r="4" fill="#0" id="circle223"/>
	<circle cx="943.118" cy="312.176" r="4" fill="#0" id="circle224"/>
	<circle cx="954.059" cy="326.765" r="4" fill="#0" id="circle225"/>
	<circle cx="954.059" cy="401.529" r="4" fill="#0" id="circle226"/>
	<circle cx="972.294" cy="332.235" r="4" fill="#0" id="circle227"/>
	<circle cx="972.294" cy="392.412" r="4" fill="#0" id="circle228"/>
	<circle cx="981.412" cy="374.176" r="4" fill="#0" id="circle229"/>
	<circle cx="985.059" cy="346.824" r="4" fill="#0" id="circle230"/>
	<circle cx="996" cy="361.412" r="4" fill="#0" id="circle231"/>
	</g>
</svg>