<?xml version="1.0" encoding="UTF-8" standalone="no"?>
<!-- Created with CurveBenchmark -->
<svg
	xmlns:dc="http://purl.org/dc/elements/1.1/"
	xmlns:cc="http://creativecommons.org/ns#"
	xmlns:rdf="http://www.w3.org/1999/02/22-rdf-syntax-ns#"
	xmlns:svg="http://www.w3.org/2000/svg"
	xmlns="http://www.w3.org/2000/svg"
	xmlns:sodipodi="http://sodipodi.sourceforge.net/DTD/sodipodi-0.dtd"
	xmlns:inkscape="http://www.inkscape.org/namespaces/inkscape"
	width="1000"
	height="1000"
	id="svg2"
	version="1.1"
	sodipodi:docname="manifold/vicur-cat35.png.txt">
<defs
	id="defs4" />
<metadata
	id="metadata7">
	<rdf:RDF>
		<cc:Work
			rdf:about="">
			<dc:format>image/svg+xml</dc:format>
			<dc:type
				rdf:resource="http://purl.org/dc/dcmitype/StillImage" />
			<dc:title></dc:title>
		</cc:Work>
	</rdf:RDF>
</metadata>
<g
	inkscape:label="Layer 1"
	inkscape:groupmode="layer"
	id="layer1">
	<path style="fill:none;stroke:red;stroke-width:1px;stroke-linecap:butt;stroke-linejoin:miter;stroke-opacity:1" d="M 4,118.972 4,133.712 z" id="boundary" inkscape:connector-curvature="0" />
	<path style="fill:none;stroke:red;stroke-width:1px;stroke-linecap:butt;stroke-linejoin:miter;stroke-opacity:1" d="M 4,118.972 11.37,104.232 z" id="boundary" inkscape:connector-curvature="0" />
	<path style="fill:none;stroke:red;stroke-width:1px;stroke-linecap:butt;stroke-linejoin:miter;stroke-opacity:1" d="M 4,133.712 4,148.452 z" id="boundary" inkscape:connector-curvature="0" />
	<path style="fill:none;stroke:red;stroke-width:1px;stroke-linecap:butt;stroke-linejoin:miter;stroke-opacity:1" d="M 4,148.452 15.792,158.77 z" id="boundary" inkscape:connector-curvature="0" />
	<path style="fill:none;stroke:red;stroke-width:1px;stroke-linecap:butt;stroke-linejoin:miter;stroke-opacity:1" d="M 11.37,104.232 23.162,92.4398 z" id="boundary" inkscape:connector-curvature="0" />
	<path style="fill:none;stroke:red;stroke-width:1px;stroke-linecap:butt;stroke-linejoin:miter;stroke-opacity:1" d="M 15.792,158.77 29.0579,166.14 z" id="boundary" inkscape:connector-curvature="0" />
	<path style="fill:none;stroke:red;stroke-width:1px;stroke-linecap:butt;stroke-linejoin:miter;stroke-opacity:1" d="M 23.162,92.4398 33.4799,74.7519 z" id="boundary" inkscape:connector-curvature="0" />
	<path style="fill:none;stroke:red;stroke-width:1px;stroke-linecap:butt;stroke-linejoin:miter;stroke-opacity:1" d="M 29.0579,166.14 40.8499,174.984 z" id="boundary" inkscape:connector-curvature="0" />
	<path style="fill:none;stroke:red;stroke-width:1px;stroke-linecap:butt;stroke-linejoin:miter;stroke-opacity:1" d="M 33.4799,74.7519 45.2719,62.9599 z" id="boundary" inkscape:connector-curvature="0" />
	<path style="fill:none;stroke:red;stroke-width:1px;stroke-linecap:butt;stroke-linejoin:miter;stroke-opacity:1" d="M 40.8499,174.984 54.1159,182.354 z" id="boundary" inkscape:connector-curvature="0" />
	<path style="fill:none;stroke:red;stroke-width:1px;stroke-linecap:butt;stroke-linejoin:miter;stroke-opacity:1" d="M 45.2719,62.9599 57.0639,51.1679 z" id="boundary" inkscape:connector-curvature="0" />
	<path style="fill:none;stroke:red;stroke-width:1px;stroke-linecap:butt;stroke-linejoin:miter;stroke-opacity:1" d="M 54.1159,182.354 68.8559,182.354 z" id="boundary" inkscape:connector-curvature="0" />
	<path style="fill:none;stroke:red;stroke-width:1px;stroke-linecap:butt;stroke-linejoin:miter;stroke-opacity:1" d="M 57.0639,51.1679 68.8559,40.8499 z" id="boundary" inkscape:connector-curvature="0" />
	<path style="fill:none;stroke:red;stroke-width:1px;stroke-linecap:butt;stroke-linejoin:miter;stroke-opacity:1" d="M 62.9599,8.42199 70.3299,21.688 z" id="boundary" inkscape:connector-curvature="0" />
	<path style="fill:none;stroke:red;stroke-width:1px;stroke-linecap:butt;stroke-linejoin:miter;stroke-opacity:1" d="M 62.9599,8.42199 77.6999,4 z" id="boundary" inkscape:connector-curvature="0" />
	<path style="fill:none;stroke:red;stroke-width:1px;stroke-linecap:butt;stroke-linejoin:miter;stroke-opacity:1" d="M 68.8559,40.8499 70.3299,21.688 z" id="boundary" inkscape:connector-curvature="0" />
	<path style="fill:none;stroke:red;stroke-width:1px;stroke-linecap:butt;stroke-linejoin:miter;stroke-opacity:1" d="M 68.8559,182.354 83.5958,182.354 z" id="boundary" inkscape:connector-curvature="0" />
	<path style="fill:none;stroke:red;stroke-width:1px;stroke-linecap:butt;stroke-linejoin:miter;stroke-opacity:1" d="M 77.6999,4 90.9658,11.37 z" id="boundary" inkscape:connector-curvature="0" />
	<path style="fill:none;stroke:red;stroke-width:1px;stroke-linecap:butt;stroke-linejoin:miter;stroke-opacity:1" d="M 83.5958,182.354 98.3358,182.354 z" id="boundary" inkscape:connector-curvature="0" />
	<path style="fill:none;stroke:red;stroke-width:1px;stroke-linecap:butt;stroke-linejoin:miter;stroke-opacity:1" d="M 90.9658,11.37 105.706,11.37 z" id="boundary" inkscape:connector-curvature="0" />
	<path style="fill:none;stroke:red;stroke-width:1px;stroke-linecap:butt;stroke-linejoin:miter;stroke-opacity:1" d="M 98.3358,182.354 108.654,194.146 z" id="boundary" inkscape:connector-curvature="0" />
	<path style="fill:none;stroke:red;stroke-width:1px;stroke-linecap:butt;stroke-linejoin:miter;stroke-opacity:1" d="M 105.706,11.37 118.972,18.74 z" id="boundary" inkscape:connector-curvature="0" />
	<path style="fill:none;stroke:red;stroke-width:1px;stroke-linecap:butt;stroke-linejoin:miter;stroke-opacity:1" d="M 108.654,194.146 114.55,208.886 z" id="boundary" inkscape:connector-curvature="0" />
	<path style="fill:none;stroke:red;stroke-width:1px;stroke-linecap:butt;stroke-linejoin:miter;stroke-opacity:1" d="M 114.55,208.886 121.92,222.152 z" id="boundary" inkscape:connector-curvature="0" />
	<path style="fill:none;stroke:red;stroke-width:1px;stroke-linecap:butt;stroke-linejoin:miter;stroke-opacity:1" d="M 118.972,18.74 133.712,18.74 z" id="boundary" inkscape:connector-curvature="0" />
	<path style="fill:none;stroke:red;stroke-width:1px;stroke-linecap:butt;stroke-linejoin:miter;stroke-opacity:1" d="M 121.92,222.152 129.29,235.418 z" id="boundary" inkscape:connector-curvature="0" />
	<path style="fill:none;stroke:red;stroke-width:1px;stroke-linecap:butt;stroke-linejoin:miter;stroke-opacity:1" d="M 129.29,235.418 139.608,247.21 z" id="boundary" inkscape:connector-curvature="0" />
	<path style="fill:none;stroke:red;stroke-width:1px;stroke-linecap:butt;stroke-linejoin:miter;stroke-opacity:1" d="M 133.712,18.74 146.978,26.11 z" id="boundary" inkscape:connector-curvature="0" />
	<path style="fill:none;stroke:red;stroke-width:1px;stroke-linecap:butt;stroke-linejoin:miter;stroke-opacity:1" d="M 139.608,247.21 151.4,256.053 z" id="boundary" inkscape:connector-curvature="0" />
	<path style="fill:none;stroke:red;stroke-width:1px;stroke-linecap:butt;stroke-linejoin:miter;stroke-opacity:1" d="M 146.978,26.11 160.244,33.4799 z" id="boundary" inkscape:connector-curvature="0" />
	<path style="fill:none;stroke:red;stroke-width:1px;stroke-linecap:butt;stroke-linejoin:miter;stroke-opacity:1" d="M 151.4,256.053 160.244,267.845 z" id="boundary" inkscape:connector-curvature="0" />
	<path style="fill:none;stroke:red;stroke-width:1px;stroke-linecap:butt;stroke-linejoin:miter;stroke-opacity:1" d="M 160.244,33.4799 172.036,42.3239 z" id="boundary" inkscape:connector-curvature="0" />
	<path style="fill:none;stroke:red;stroke-width:1px;stroke-linecap:butt;stroke-linejoin:miter;stroke-opacity:1" d="M 160.244,267.845 172.036,278.163 z" id="boundary" inkscape:connector-curvature="0" />
	<path style="fill:none;stroke:red;stroke-width:1px;stroke-linecap:butt;stroke-linejoin:miter;stroke-opacity:1" d="M 166.14,421.141 174.984,432.933 z" id="boundary" inkscape:connector-curvature="0" />
	<path style="fill:none;stroke:red;stroke-width:1px;stroke-linecap:butt;stroke-linejoin:miter;stroke-opacity:1" d="M 166.14,421.141 177.932,409.349 z" id="boundary" inkscape:connector-curvature="0" />
	<path style="fill:none;stroke:red;stroke-width:1px;stroke-linecap:butt;stroke-linejoin:miter;stroke-opacity:1" d="M 172.036,42.3239 185.302,49.6939 z" id="boundary" inkscape:connector-curvature="0" />
	<path style="fill:none;stroke:red;stroke-width:1px;stroke-linecap:butt;stroke-linejoin:miter;stroke-opacity:1" d="M 172.036,278.163 182.354,289.955 z" id="boundary" inkscape:connector-curvature="0" />
	<path style="fill:none;stroke:red;stroke-width:1px;stroke-linecap:butt;stroke-linejoin:miter;stroke-opacity:1" d="M 174.984,432.933 189.724,432.933 z" id="boundary" inkscape:connector-curvature="0" />
	<path style="fill:none;stroke:red;stroke-width:1px;stroke-linecap:butt;stroke-linejoin:miter;stroke-opacity:1" d="M 177.932,409.349 189.724,397.557 z" id="boundary" inkscape:connector-curvature="0" />
	<path style="fill:none;stroke:red;stroke-width:1px;stroke-linecap:butt;stroke-linejoin:miter;stroke-opacity:1" d="M 182.354,289.955 197.094,292.903 z" id="boundary" inkscape:connector-curvature="0" />
	<path style="fill:none;stroke:red;stroke-width:1px;stroke-linecap:butt;stroke-linejoin:miter;stroke-opacity:1" d="M 185.302,49.6939 197.094,60.0119 z" id="boundary" inkscape:connector-curvature="0" />
	<path style="fill:none;stroke:red;stroke-width:1px;stroke-linecap:butt;stroke-linejoin:miter;stroke-opacity:1" d="M 189.724,397.557 197.094,382.817 z" id="boundary" inkscape:connector-curvature="0" />
	<path style="fill:none;stroke:red;stroke-width:1px;stroke-linecap:butt;stroke-linejoin:miter;stroke-opacity:1" d="M 189.724,432.933 204.464,432.933 z" id="boundary" inkscape:connector-curvature="0" />
	<path style="fill:none;stroke:red;stroke-width:1px;stroke-linecap:butt;stroke-linejoin:miter;stroke-opacity:1" d="M 197.094,60.0119 207.412,71.8039 z" id="boundary" inkscape:connector-curvature="0" />
	<path style="fill:none;stroke:red;stroke-width:1px;stroke-linecap:butt;stroke-linejoin:miter;stroke-opacity:1" d="M 197.094,292.903 210.36,300.273 z" id="boundary" inkscape:connector-curvature="0" />
	<path style="fill:none;stroke:red;stroke-width:1px;stroke-linecap:butt;stroke-linejoin:miter;stroke-opacity:1" d="M 197.094,382.817 204.464,368.077 z" id="boundary" inkscape:connector-curvature="0" />
	<path style="fill:none;stroke:red;stroke-width:1px;stroke-linecap:butt;stroke-linejoin:miter;stroke-opacity:1" d="M 204.464,368.077 210.36,347.441 z" id="boundary" inkscape:connector-curvature="0" />
	<path style="fill:none;stroke:red;stroke-width:1px;stroke-linecap:butt;stroke-linejoin:miter;stroke-opacity:1" d="M 204.464,432.933 219.204,425.563 z" id="boundary" inkscape:connector-curvature="0" />
	<path style="fill:none;stroke:red;stroke-width:1px;stroke-linecap:butt;stroke-linejoin:miter;stroke-opacity:1" d="M 207.412,71.8039 219.204,82.1218 z" id="boundary" inkscape:connector-curvature="0" />
	<path style="fill:none;stroke:red;stroke-width:1px;stroke-linecap:butt;stroke-linejoin:miter;stroke-opacity:1" d="M 210.36,300.273 223.626,307.643 z" id="boundary" inkscape:connector-curvature="0" />
	<path style="fill:none;stroke:red;stroke-width:1px;stroke-linecap:butt;stroke-linejoin:miter;stroke-opacity:1" d="M 210.36,347.441 217.73,332.701 z" id="boundary" inkscape:connector-curvature="0" />
	<path style="fill:none;stroke:red;stroke-width:1px;stroke-linecap:butt;stroke-linejoin:miter;stroke-opacity:1" d="M 217.73,332.701 223.626,307.643 z" id="boundary" inkscape:connector-curvature="0" />
	<path style="fill:none;stroke:red;stroke-width:1px;stroke-linecap:butt;stroke-linejoin:miter;stroke-opacity:1" d="M 219.204,82.1218 232.47,89.4918 z" id="boundary" inkscape:connector-curvature="0" />
	<path style="fill:none;stroke:red;stroke-width:1px;stroke-linecap:butt;stroke-linejoin:miter;stroke-opacity:1" d="M 219.204,425.563 230.996,415.245 z" id="boundary" inkscape:connector-curvature="0" />
	<path style="fill:none;stroke:red;stroke-width:1px;stroke-linecap:butt;stroke-linejoin:miter;stroke-opacity:1" d="M 230.996,415.245 238.366,400.505 z" id="boundary" inkscape:connector-curvature="0" />
	<path style="fill:none;stroke:red;stroke-width:1px;stroke-linecap:butt;stroke-linejoin:miter;stroke-opacity:1" d="M 232.47,89.4918 247.21,92.4398 z" id="boundary" inkscape:connector-curvature="0" />
	<path style="fill:none;stroke:red;stroke-width:1px;stroke-linecap:butt;stroke-linejoin:miter;stroke-opacity:1" d="M 238.366,400.505 248.684,388.713 z" id="boundary" inkscape:connector-curvature="0" />
	<path style="fill:none;stroke:red;stroke-width:1px;stroke-linecap:butt;stroke-linejoin:miter;stroke-opacity:1" d="M 247.21,92.4398 261.949,92.4398 z" id="boundary" inkscape:connector-curvature="0" />
	<path style="fill:none;stroke:red;stroke-width:1px;stroke-linecap:butt;stroke-linejoin:miter;stroke-opacity:1" d="M 248.684,373.973 248.684,388.713 z" id="boundary" inkscape:connector-curvature="0" />
	<path style="fill:none;stroke:red;stroke-width:1px;stroke-linecap:butt;stroke-linejoin:miter;stroke-opacity:1" d="M 248.684,373.973 260.475,363.655 z" id="boundary" inkscape:connector-curvature="0" />
	<path style="fill:none;stroke:red;stroke-width:1px;stroke-linecap:butt;stroke-linejoin:miter;stroke-opacity:1" d="M 260.475,363.655 267.845,348.915 z" id="boundary" inkscape:connector-curvature="0" />
	<path style="fill:none;stroke:red;stroke-width:1px;stroke-linecap:butt;stroke-linejoin:miter;stroke-opacity:1" d="M 261.949,92.4398 276.689,92.4398 z" id="boundary" inkscape:connector-curvature="0" />
	<path style="fill:none;stroke:red;stroke-width:1px;stroke-linecap:butt;stroke-linejoin:miter;stroke-opacity:1" d="M 267.845,348.915 278.163,337.123 z" id="boundary" inkscape:connector-curvature="0" />
	<path style="fill:none;stroke:red;stroke-width:1px;stroke-linecap:butt;stroke-linejoin:miter;stroke-opacity:1" d="M 276.689,92.4398 291.429,92.4398 z" id="boundary" inkscape:connector-curvature="0" />
	<path style="fill:none;stroke:red;stroke-width:1px;stroke-linecap:butt;stroke-linejoin:miter;stroke-opacity:1" d="M 278.163,337.123 285.533,322.383 z" id="boundary" inkscape:connector-curvature="0" />
	<path style="fill:none;stroke:red;stroke-width:1px;stroke-linecap:butt;stroke-linejoin:miter;stroke-opacity:1" d="M 285.533,322.383 298.799,315.013 z" id="boundary" inkscape:connector-curvature="0" />
	<path style="fill:none;stroke:red;stroke-width:1px;stroke-linecap:butt;stroke-linejoin:miter;stroke-opacity:1" d="M 291.429,92.4398 306.169,89.4918 z" id="boundary" inkscape:connector-curvature="0" />
	<path style="fill:none;stroke:red;stroke-width:1px;stroke-linecap:butt;stroke-linejoin:miter;stroke-opacity:1" d="M 298.799,315.013 312.065,322.383 z" id="boundary" inkscape:connector-curvature="0" />
	<path style="fill:none;stroke:red;stroke-width:1px;stroke-linecap:butt;stroke-linejoin:miter;stroke-opacity:1" d="M 306.169,89.4918 320.909,85.0698 z" id="boundary" inkscape:connector-curvature="0" />
	<path style="fill:none;stroke:red;stroke-width:1px;stroke-linecap:butt;stroke-linejoin:miter;stroke-opacity:1" d="M 312.065,322.383 317.961,337.123 z" id="boundary" inkscape:connector-curvature="0" />
	<path style="fill:none;stroke:red;stroke-width:1px;stroke-linecap:butt;stroke-linejoin:miter;stroke-opacity:1" d="M 317.961,337.123 328.279,348.915 z" id="boundary" inkscape:connector-curvature="0" />
	<path style="fill:none;stroke:red;stroke-width:1px;stroke-linecap:butt;stroke-linejoin:miter;stroke-opacity:1" d="M 320.909,85.0698 335.649,85.0698 z" id="boundary" inkscape:connector-curvature="0" />
	<path style="fill:none;stroke:red;stroke-width:1px;stroke-linecap:butt;stroke-linejoin:miter;stroke-opacity:1" d="M 328.279,348.915 335.649,362.181 z" id="boundary" inkscape:connector-curvature="0" />
	<path style="fill:none;stroke:red;stroke-width:1px;stroke-linecap:butt;stroke-linejoin:miter;stroke-opacity:1" d="M 335.649,85.0698 350.389,85.0698 z" id="boundary" inkscape:connector-curvature="0" />
	<path style="fill:none;stroke:red;stroke-width:1px;stroke-linecap:butt;stroke-linejoin:miter;stroke-opacity:1" d="M 335.649,362.181 343.019,375.447 z" id="boundary" inkscape:connector-curvature="0" />
	<path style="fill:none;stroke:red;stroke-width:1px;stroke-linecap:butt;stroke-linejoin:miter;stroke-opacity:1" d="M 343.019,375.447 343.019,390.187 z" id="boundary" inkscape:connector-curvature="0" />
	<path style="fill:none;stroke:red;stroke-width:1px;stroke-linecap:butt;stroke-linejoin:miter;stroke-opacity:1" d="M 343.019,390.187 343.019,406.401 z" id="boundary" inkscape:connector-curvature="0" />
	<path style="fill:none;stroke:red;stroke-width:1px;stroke-linecap:butt;stroke-linejoin:miter;stroke-opacity:1" d="M 343.019,406.401 343.019,421.141 z" id="boundary" inkscape:connector-curvature="0" />
	<path style="fill:none;stroke:red;stroke-width:1px;stroke-linecap:butt;stroke-linejoin:miter;stroke-opacity:1" d="M 343.019,421.141 357.759,425.563 z" id="boundary" inkscape:connector-curvature="0" />
	<path style="fill:none;stroke:red;stroke-width:1px;stroke-linecap:butt;stroke-linejoin:miter;stroke-opacity:1" d="M 350.389,85.0698 365.129,85.0698 z" id="boundary" inkscape:connector-curvature="0" />
	<path style="fill:none;stroke:red;stroke-width:1px;stroke-linecap:butt;stroke-linejoin:miter;stroke-opacity:1" d="M 357.759,425.563 372.499,425.563 z" id="boundary" inkscape:connector-curvature="0" />
	<path style="fill:none;stroke:red;stroke-width:1px;stroke-linecap:butt;stroke-linejoin:miter;stroke-opacity:1" d="M 365.129,85.0698 379.869,85.0698 z" id="boundary" inkscape:connector-curvature="0" />
	<path style="fill:none;stroke:red;stroke-width:1px;stroke-linecap:butt;stroke-linejoin:miter;stroke-opacity:1" d="M 366.603,315.013 366.603,329.753 z" id="boundary" inkscape:connector-curvature="0" />
	<path style="fill:none;stroke:red;stroke-width:1px;stroke-linecap:butt;stroke-linejoin:miter;stroke-opacity:1" d="M 366.603,315.013 381.343,315.013 z" id="boundary" inkscape:connector-curvature="0" />
	<path style="fill:none;stroke:red;stroke-width:1px;stroke-linecap:butt;stroke-linejoin:miter;stroke-opacity:1" d="M 366.603,329.753 373.973,343.019 z" id="boundary" inkscape:connector-curvature="0" />
	<path style="fill:none;stroke:red;stroke-width:1px;stroke-linecap:butt;stroke-linejoin:miter;stroke-opacity:1" d="M 372.499,425.563 387.239,425.563 z" id="boundary" inkscape:connector-curvature="0" />
	<path style="fill:none;stroke:red;stroke-width:1px;stroke-linecap:butt;stroke-linejoin:miter;stroke-opacity:1" d="M 373.973,343.019 381.343,356.285 z" id="boundary" inkscape:connector-curvature="0" />
	<path style="fill:none;stroke:red;stroke-width:1px;stroke-linecap:butt;stroke-linejoin:miter;stroke-opacity:1" d="M 379.869,85.0698 394.609,85.0698 z" id="boundary" inkscape:connector-curvature="0" />
	<path style="fill:none;stroke:red;stroke-width:1px;stroke-linecap:butt;stroke-linejoin:miter;stroke-opacity:1" d="M 381.343,315.013 396.083,315.013 z" id="boundary" inkscape:connector-curvature="0" />
	<path style="fill:none;stroke:red;stroke-width:1px;stroke-linecap:butt;stroke-linejoin:miter;stroke-opacity:1" d="M 381.343,356.285 381.343,371.025 z" id="boundary" inkscape:connector-curvature="0" />
	<path style="fill:none;stroke:red;stroke-width:1px;stroke-linecap:butt;stroke-linejoin:miter;stroke-opacity:1" d="M 381.343,371.025 388.713,384.291 z" id="boundary" inkscape:connector-curvature="0" />
	<path style="fill:none;stroke:red;stroke-width:1px;stroke-linecap:butt;stroke-linejoin:miter;stroke-opacity:1" d="M 387.239,425.563 396.083,412.297 z" id="boundary" inkscape:connector-curvature="0" />
	<path style="fill:none;stroke:red;stroke-width:1px;stroke-linecap:butt;stroke-linejoin:miter;stroke-opacity:1" d="M 388.713,384.291 388.713,399.031 z" id="boundary" inkscape:connector-curvature="0" />
	<path style="fill:none;stroke:red;stroke-width:1px;stroke-linecap:butt;stroke-linejoin:miter;stroke-opacity:1" d="M 388.713,399.031 396.083,412.297 z" id="boundary" inkscape:connector-curvature="0" />
	<path style="fill:none;stroke:red;stroke-width:1px;stroke-linecap:butt;stroke-linejoin:miter;stroke-opacity:1" d="M 394.609,85.0698 407.875,77.6999 z" id="boundary" inkscape:connector-curvature="0" />
	<path style="fill:none;stroke:red;stroke-width:1px;stroke-linecap:butt;stroke-linejoin:miter;stroke-opacity:1" d="M 396.083,315.013 410.823,315.013 z" id="boundary" inkscape:connector-curvature="0" />
	<path style="fill:none;stroke:red;stroke-width:1px;stroke-linecap:butt;stroke-linejoin:miter;stroke-opacity:1" d="M 407.875,77.6999 422.615,77.6999 z" id="boundary" inkscape:connector-curvature="0" />
	<path style="fill:none;stroke:red;stroke-width:1px;stroke-linecap:butt;stroke-linejoin:miter;stroke-opacity:1" d="M 410.823,315.013 425.563,315.013 z" id="boundary" inkscape:connector-curvature="0" />
	<path style="fill:none;stroke:red;stroke-width:1px;stroke-linecap:butt;stroke-linejoin:miter;stroke-opacity:1" d="M 422.615,77.6999 437.355,77.6999 z" id="boundary" inkscape:connector-curvature="0" />
	<path style="fill:none;stroke:red;stroke-width:1px;stroke-linecap:butt;stroke-linejoin:miter;stroke-opacity:1" d="M 425.563,315.013 440.303,315.013 z" id="boundary" inkscape:connector-curvature="0" />
	<path style="fill:none;stroke:red;stroke-width:1px;stroke-linecap:butt;stroke-linejoin:miter;stroke-opacity:1" d="M 437.355,77.6999 452.095,79.1738 z" id="boundary" inkscape:connector-curvature="0" />
	<path style="fill:none;stroke:red;stroke-width:1px;stroke-linecap:butt;stroke-linejoin:miter;stroke-opacity:1" d="M 440.303,315.013 455.043,315.013 z" id="boundary" inkscape:connector-curvature="0" />
	<path style="fill:none;stroke:red;stroke-width:1px;stroke-linecap:butt;stroke-linejoin:miter;stroke-opacity:1" d="M 452.095,79.1738 466.835,85.0698 z" id="boundary" inkscape:connector-curvature="0" />
	<path style="fill:none;stroke:red;stroke-width:1px;stroke-linecap:butt;stroke-linejoin:miter;stroke-opacity:1" d="M 455.043,315.013 469.783,315.013 z" id="boundary" inkscape:connector-curvature="0" />
	<path style="fill:none;stroke:red;stroke-width:1px;stroke-linecap:butt;stroke-linejoin:miter;stroke-opacity:1" d="M 466.835,85.0698 481.575,85.0698 z" id="boundary" inkscape:connector-curvature="0" />
	<path style="fill:none;stroke:red;stroke-width:1px;stroke-linecap:butt;stroke-linejoin:miter;stroke-opacity:1" d="M 469.783,315.013 484.523,315.013 z" id="boundary" inkscape:connector-curvature="0" />
	<path style="fill:none;stroke:red;stroke-width:1px;stroke-linecap:butt;stroke-linejoin:miter;stroke-opacity:1" d="M 481.575,85.0698 496.315,85.0698 z" id="boundary" inkscape:connector-curvature="0" />
	<path style="fill:none;stroke:red;stroke-width:1px;stroke-linecap:butt;stroke-linejoin:miter;stroke-opacity:1" d="M 484.523,315.013 499.263,315.013 z" id="boundary" inkscape:connector-curvature="0" />
	<path style="fill:none;stroke:red;stroke-width:1px;stroke-linecap:butt;stroke-linejoin:miter;stroke-opacity:1" d="M 494.841,416.719 497.789,432.933 z" id="boundary" inkscape:connector-curvature="0" />
	<path style="fill:none;stroke:red;stroke-width:1px;stroke-linecap:butt;stroke-linejoin:miter;stroke-opacity:1" d="M 494.841,416.719 508.107,409.349 z" id="boundary" inkscape:connector-curvature="0" />
	<path style="fill:none;stroke:red;stroke-width:1px;stroke-linecap:butt;stroke-linejoin:miter;stroke-opacity:1" d="M 496.315,85.0698 511.055,85.0698 z" id="boundary" inkscape:connector-curvature="0" />
	<path style="fill:none;stroke:red;stroke-width:1px;stroke-linecap:butt;stroke-linejoin:miter;stroke-opacity:1" d="M 497.789,432.933 511.055,440.303 z" id="boundary" inkscape:connector-curvature="0" />
	<path style="fill:none;stroke:red;stroke-width:1px;stroke-linecap:butt;stroke-linejoin:miter;stroke-opacity:1" d="M 499.263,315.013 514.003,315.013 z" id="boundary" inkscape:connector-curvature="0" />
	<path style="fill:none;stroke:red;stroke-width:1px;stroke-linecap:butt;stroke-linejoin:miter;stroke-opacity:1" d="M 508.107,409.349 519.899,399.031 z" id="boundary" inkscape:connector-curvature="0" />
	<path style="fill:none;stroke:red;stroke-width:1px;stroke-linecap:butt;stroke-linejoin:miter;stroke-opacity:1" d="M 511.055,85.0698 525.795,85.0698 z" id="boundary" inkscape:connector-curvature="0" />
	<path style="fill:none;stroke:red;stroke-width:1px;stroke-linecap:butt;stroke-linejoin:miter;stroke-opacity:1" d="M 511.055,440.303 525.795,440.303 z" id="boundary" inkscape:connector-curvature="0" />
	<path style="fill:none;stroke:red;stroke-width:1px;stroke-linecap:butt;stroke-linejoin:miter;stroke-opacity:1" d="M 514.003,315.013 528.743,315.013 z" id="boundary" inkscape:connector-curvature="0" />
	<path style="fill:none;stroke:red;stroke-width:1px;stroke-linecap:butt;stroke-linejoin:miter;stroke-opacity:1" d="M 519.899,399.031 534.639,391.661 z" id="boundary" inkscape:connector-curvature="0" />
	<path style="fill:none;stroke:red;stroke-width:1px;stroke-linecap:butt;stroke-linejoin:miter;stroke-opacity:1" d="M 525.795,85.0698 540.535,85.0698 z" id="boundary" inkscape:connector-curvature="0" />
	<path style="fill:none;stroke:red;stroke-width:1px;stroke-linecap:butt;stroke-linejoin:miter;stroke-opacity:1" d="M 525.795,440.303 539.061,432.933 z" id="boundary" inkscape:connector-curvature="0" />
	<path style="fill:none;stroke:red;stroke-width:1px;stroke-linecap:butt;stroke-linejoin:miter;stroke-opacity:1" d="M 528.743,315.013 543.483,315.013 z" id="boundary" inkscape:connector-curvature="0" />
	<path style="fill:none;stroke:red;stroke-width:1px;stroke-linecap:butt;stroke-linejoin:miter;stroke-opacity:1" d="M 534.639,391.661 546.431,379.869 z" id="boundary" inkscape:connector-curvature="0" />
	<path style="fill:none;stroke:red;stroke-width:1px;stroke-linecap:butt;stroke-linejoin:miter;stroke-opacity:1" d="M 539.061,432.933 552.327,425.563 z" id="boundary" inkscape:connector-curvature="0" />
	<path style="fill:none;stroke:red;stroke-width:1px;stroke-linecap:butt;stroke-linejoin:miter;stroke-opacity:1" d="M 540.535,85.0698 555.275,85.0698 z" id="boundary" inkscape:connector-curvature="0" />
	<path style="fill:none;stroke:red;stroke-width:1px;stroke-linecap:butt;stroke-linejoin:miter;stroke-opacity:1" d="M 543.483,315.013 558.223,317.961 z" id="boundary" inkscape:connector-curvature="0" />
	<path style="fill:none;stroke:red;stroke-width:1px;stroke-linecap:butt;stroke-linejoin:miter;stroke-opacity:1" d="M 546.431,379.869 558.223,368.077 z" id="boundary" inkscape:connector-curvature="0" />
	<path style="fill:none;stroke:red;stroke-width:1px;stroke-linecap:butt;stroke-linejoin:miter;stroke-opacity:1" d="M 552.327,425.563 565.593,418.193 z" id="boundary" inkscape:connector-curvature="0" />
	<path style="fill:none;stroke:red;stroke-width:1px;stroke-linecap:butt;stroke-linejoin:miter;stroke-opacity:1" d="M 555.275,85.0698 570.015,86.5438 z" id="boundary" inkscape:connector-curvature="0" />
	<path style="fill:none;stroke:red;stroke-width:1px;stroke-linecap:butt;stroke-linejoin:miter;stroke-opacity:1" d="M 558.223,317.961 564.119,332.701 z" id="boundary" inkscape:connector-curvature="0" />
	<path style="fill:none;stroke:red;stroke-width:1px;stroke-linecap:butt;stroke-linejoin:miter;stroke-opacity:1" d="M 558.223,368.077 570.015,357.759 z" id="boundary" inkscape:connector-curvature="0" />
	<path style="fill:none;stroke:red;stroke-width:1px;stroke-linecap:butt;stroke-linejoin:miter;stroke-opacity:1" d="M 564.119,332.701 570.015,357.759 z" id="boundary" inkscape:connector-curvature="0" />
	<path style="fill:none;stroke:red;stroke-width:1px;stroke-linecap:butt;stroke-linejoin:miter;stroke-opacity:1" d="M 565.593,418.193 577.385,407.875 z" id="boundary" inkscape:connector-curvature="0" />
	<path style="fill:none;stroke:red;stroke-width:1px;stroke-linecap:butt;stroke-linejoin:miter;stroke-opacity:1" d="M 570.015,86.5438 584.755,92.4398 z" id="boundary" inkscape:connector-curvature="0" />
	<path style="fill:none;stroke:red;stroke-width:1px;stroke-linecap:butt;stroke-linejoin:miter;stroke-opacity:1" d="M 577.385,407.875 592.125,400.505 z" id="boundary" inkscape:connector-curvature="0" />
	<path style="fill:none;stroke:red;stroke-width:1px;stroke-linecap:butt;stroke-linejoin:miter;stroke-opacity:1" d="M 584.755,92.4398 599.495,92.4398 z" id="boundary" inkscape:connector-curvature="0" />
	<path style="fill:none;stroke:red;stroke-width:1px;stroke-linecap:butt;stroke-linejoin:miter;stroke-opacity:1" d="M 592.125,400.505 602.443,388.713 z" id="boundary" inkscape:connector-curvature="0" />
	<path style="fill:none;stroke:red;stroke-width:1px;stroke-linecap:butt;stroke-linejoin:miter;stroke-opacity:1" d="M 599.495,92.4398 614.235,92.4398 z" id="boundary" inkscape:connector-curvature="0" />
	<path style="fill:none;stroke:red;stroke-width:1px;stroke-linecap:butt;stroke-linejoin:miter;stroke-opacity:1" d="M 602.443,388.713 614.235,378.395 z" id="boundary" inkscape:connector-curvature="0" />
	<path style="fill:none;stroke:red;stroke-width:1px;stroke-linecap:butt;stroke-linejoin:miter;stroke-opacity:1" d="M 614.235,92.4398 628.975,93.9138 z" id="boundary" inkscape:connector-curvature="0" />
	<path style="fill:none;stroke:red;stroke-width:1px;stroke-linecap:butt;stroke-linejoin:miter;stroke-opacity:1" d="M 614.235,378.395 628.975,371.025 z" id="boundary" inkscape:connector-curvature="0" />
	<path style="fill:none;stroke:red;stroke-width:1px;stroke-linecap:butt;stroke-linejoin:miter;stroke-opacity:1" d="M 628.975,93.9138 643.715,99.8098 z" id="boundary" inkscape:connector-curvature="0" />
	<path style="fill:none;stroke:red;stroke-width:1px;stroke-linecap:butt;stroke-linejoin:miter;stroke-opacity:1" d="M 628.975,371.025 631.923,344.493 z" id="boundary" inkscape:connector-curvature="0" />
	<path style="fill:none;stroke:red;stroke-width:1px;stroke-linecap:butt;stroke-linejoin:miter;stroke-opacity:1" d="M 631.923,315.013 631.923,329.753 z" id="boundary" inkscape:connector-curvature="0" />
	<path style="fill:none;stroke:red;stroke-width:1px;stroke-linecap:butt;stroke-linejoin:miter;stroke-opacity:1" d="M 631.923,315.013 646.663,315.013 z" id="boundary" inkscape:connector-curvature="0" />
	<path style="fill:none;stroke:red;stroke-width:1px;stroke-linecap:butt;stroke-linejoin:miter;stroke-opacity:1" d="M 631.923,329.753 631.923,344.493 z" id="boundary" inkscape:connector-curvature="0" />
	<path style="fill:none;stroke:red;stroke-width:1px;stroke-linecap:butt;stroke-linejoin:miter;stroke-opacity:1" d="M 643.715,99.8098 658.455,99.8098 z" id="boundary" inkscape:connector-curvature="0" />
	<path style="fill:none;stroke:red;stroke-width:1px;stroke-linecap:butt;stroke-linejoin:miter;stroke-opacity:1" d="M 646.663,315.013 661.403,317.961 z" id="boundary" inkscape:connector-curvature="0" />
	<path style="fill:none;stroke:red;stroke-width:1px;stroke-linecap:butt;stroke-linejoin:miter;stroke-opacity:1" d="M 658.455,99.8098 671.721,107.18 z" id="boundary" inkscape:connector-curvature="0" />
	<path style="fill:none;stroke:red;stroke-width:1px;stroke-linecap:butt;stroke-linejoin:miter;stroke-opacity:1" d="M 661.403,317.961 671.721,329.753 z" id="boundary" inkscape:connector-curvature="0" />
	<path style="fill:none;stroke:red;stroke-width:1px;stroke-linecap:butt;stroke-linejoin:miter;stroke-opacity:1" d="M 671.721,107.18 684.987,114.55 z" id="boundary" inkscape:connector-curvature="0" />
	<path style="fill:none;stroke:red;stroke-width:1px;stroke-linecap:butt;stroke-linejoin:miter;stroke-opacity:1" d="M 671.721,329.753 686.461,329.753 z" id="boundary" inkscape:connector-curvature="0" />
	<path style="fill:none;stroke:red;stroke-width:1px;stroke-linecap:butt;stroke-linejoin:miter;stroke-opacity:1" d="M 684.987,114.55 698.253,121.92 z" id="boundary" inkscape:connector-curvature="0" />
	<path style="fill:none;stroke:red;stroke-width:1px;stroke-linecap:butt;stroke-linejoin:miter;stroke-opacity:1" d="M 686.461,329.753 699.727,337.123 z" id="boundary" inkscape:connector-curvature="0" />
	<path style="fill:none;stroke:red;stroke-width:1px;stroke-linecap:butt;stroke-linejoin:miter;stroke-opacity:1" d="M 698.253,121.92 712.993,126.342 z" id="boundary" inkscape:connector-curvature="0" />
	<path style="fill:none;stroke:red;stroke-width:1px;stroke-linecap:butt;stroke-linejoin:miter;stroke-opacity:1" d="M 699.727,337.123 714.467,341.545 z" id="boundary" inkscape:connector-curvature="0" />
	<path style="fill:none;stroke:red;stroke-width:1px;stroke-linecap:butt;stroke-linejoin:miter;stroke-opacity:1" d="M 712.993,126.342 726.259,133.712 z" id="boundary" inkscape:connector-curvature="0" />
	<path style="fill:none;stroke:red;stroke-width:1px;stroke-linecap:butt;stroke-linejoin:miter;stroke-opacity:1" d="M 712.993,189.724 712.993,204.464 z" id="boundary" inkscape:connector-curvature="0" />
	<path style="fill:none;stroke:red;stroke-width:1px;stroke-linecap:butt;stroke-linejoin:miter;stroke-opacity:1" d="M 712.993,189.724 727.733,192.672 z" id="boundary" inkscape:connector-curvature="0" />
	<path style="fill:none;stroke:red;stroke-width:1px;stroke-linecap:butt;stroke-linejoin:miter;stroke-opacity:1" d="M 712.993,204.464 720.363,217.73 z" id="boundary" inkscape:connector-curvature="0" />
	<path style="fill:none;stroke:red;stroke-width:1px;stroke-linecap:butt;stroke-linejoin:miter;stroke-opacity:1" d="M 714.467,341.545 729.207,344.493 z" id="boundary" inkscape:connector-curvature="0" />
	<path style="fill:none;stroke:red;stroke-width:1px;stroke-linecap:butt;stroke-linejoin:miter;stroke-opacity:1" d="M 720.363,217.73 720.363,232.47 z" id="boundary" inkscape:connector-curvature="0" />
	<path style="fill:none;stroke:red;stroke-width:1px;stroke-linecap:butt;stroke-linejoin:miter;stroke-opacity:1" d="M 720.363,232.47 727.733,245.736 z" id="boundary" inkscape:connector-curvature="0" />
	<path style="fill:none;stroke:red;stroke-width:1px;stroke-linecap:butt;stroke-linejoin:miter;stroke-opacity:1" d="M 726.259,133.712 738.051,144.03 z" id="boundary" inkscape:connector-curvature="0" />
	<path style="fill:none;stroke:red;stroke-width:1px;stroke-linecap:butt;stroke-linejoin:miter;stroke-opacity:1" d="M 727.733,192.672 738.051,204.464 z" id="boundary" inkscape:connector-curvature="0" />
	<path style="fill:none;stroke:red;stroke-width:1px;stroke-linecap:butt;stroke-linejoin:miter;stroke-opacity:1" d="M 727.733,245.736 739.525,256.053 z" id="boundary" inkscape:connector-curvature="0" />
	<path style="fill:none;stroke:red;stroke-width:1px;stroke-linecap:butt;stroke-linejoin:miter;stroke-opacity:1" d="M 729.207,344.493 743.947,344.493 z" id="boundary" inkscape:connector-curvature="0" />
	<path style="fill:none;stroke:red;stroke-width:1px;stroke-linecap:butt;stroke-linejoin:miter;stroke-opacity:1" d="M 738.051,144.03 751.316,151.4 z" id="boundary" inkscape:connector-curvature="0" />
	<path style="fill:none;stroke:red;stroke-width:1px;stroke-linecap:butt;stroke-linejoin:miter;stroke-opacity:1" d="M 738.051,204.464 749.842,214.782 z" id="boundary" inkscape:connector-curvature="0" />
	<path style="fill:none;stroke:red;stroke-width:1px;stroke-linecap:butt;stroke-linejoin:miter;stroke-opacity:1" d="M 739.525,256.053 745.421,270.793 z" id="boundary" inkscape:connector-curvature="0" />
	<path style="fill:none;stroke:red;stroke-width:1px;stroke-linecap:butt;stroke-linejoin:miter;stroke-opacity:1" d="M 743.947,344.493 757.212,351.863 z" id="boundary" inkscape:connector-curvature="0" />
	<path style="fill:none;stroke:red;stroke-width:1px;stroke-linecap:butt;stroke-linejoin:miter;stroke-opacity:1" d="M 745.421,270.793 757.212,281.111 z" id="boundary" inkscape:connector-curvature="0" />
	<path style="fill:none;stroke:red;stroke-width:1px;stroke-linecap:butt;stroke-linejoin:miter;stroke-opacity:1" d="M 749.842,214.782 760.16,226.574 z" id="boundary" inkscape:connector-curvature="0" />
	<path style="fill:none;stroke:red;stroke-width:1px;stroke-linecap:butt;stroke-linejoin:miter;stroke-opacity:1" d="M 751.316,151.4 763.108,161.718 z" id="boundary" inkscape:connector-curvature="0" />
	<path style="fill:none;stroke:red;stroke-width:1px;stroke-linecap:butt;stroke-linejoin:miter;stroke-opacity:1" d="M 757.212,281.111 769.004,291.429 z" id="boundary" inkscape:connector-curvature="0" />
	<path style="fill:none;stroke:red;stroke-width:1px;stroke-linecap:butt;stroke-linejoin:miter;stroke-opacity:1" d="M 757.212,351.863 766.056,363.655 z" id="boundary" inkscape:connector-curvature="0" />
	<path style="fill:none;stroke:red;stroke-width:1px;stroke-linecap:butt;stroke-linejoin:miter;stroke-opacity:1" d="M 760.16,226.574 773.426,233.944 z" id="boundary" inkscape:connector-curvature="0" />
	<path style="fill:none;stroke:red;stroke-width:1px;stroke-linecap:butt;stroke-linejoin:miter;stroke-opacity:1" d="M 763.108,161.718 771.952,173.51 z" id="boundary" inkscape:connector-curvature="0" />
	<path style="fill:none;stroke:red;stroke-width:1px;stroke-linecap:butt;stroke-linejoin:miter;stroke-opacity:1" d="M 766.056,363.655 770.478,378.395 z" id="boundary" inkscape:connector-curvature="0" />
	<path style="fill:none;stroke:red;stroke-width:1px;stroke-linecap:butt;stroke-linejoin:miter;stroke-opacity:1" d="M 769.004,291.429 782.27,298.799 z" id="boundary" inkscape:connector-curvature="0" />
	<path style="fill:none;stroke:red;stroke-width:1px;stroke-linecap:butt;stroke-linejoin:miter;stroke-opacity:1" d="M 770.478,378.395 777.848,391.661 z" id="boundary" inkscape:connector-curvature="0" />
	<path style="fill:none;stroke:red;stroke-width:1px;stroke-linecap:butt;stroke-linejoin:miter;stroke-opacity:1" d="M 771.952,173.51 785.218,180.88 z" id="boundary" inkscape:connector-curvature="0" />
	<path style="fill:none;stroke:red;stroke-width:1px;stroke-linecap:butt;stroke-linejoin:miter;stroke-opacity:1" d="M 773.426,233.944 785.218,242.788 z" id="boundary" inkscape:connector-curvature="0" />
	<path style="fill:none;stroke:red;stroke-width:1px;stroke-linecap:butt;stroke-linejoin:miter;stroke-opacity:1" d="M 777.848,391.661 777.848,406.401 z" id="boundary" inkscape:connector-curvature="0" />
	<path style="fill:none;stroke:red;stroke-width:1px;stroke-linecap:butt;stroke-linejoin:miter;stroke-opacity:1" d="M 777.848,406.401 777.848,421.141 z" id="boundary" inkscape:connector-curvature="0" />
	<path style="fill:none;stroke:red;stroke-width:1px;stroke-linecap:butt;stroke-linejoin:miter;stroke-opacity:1" d="M 777.848,421.141 777.848,435.881 z" id="boundary" inkscape:connector-curvature="0" />
	<path style="fill:none;stroke:red;stroke-width:1px;stroke-linecap:butt;stroke-linejoin:miter;stroke-opacity:1" d="M 777.848,435.881 789.64,446.199 z" id="boundary" inkscape:connector-curvature="0" />
	<path style="fill:none;stroke:red;stroke-width:1px;stroke-linecap:butt;stroke-linejoin:miter;stroke-opacity:1" d="M 782.27,298.799 795.536,306.169 z" id="boundary" inkscape:connector-curvature="0" />
	<path style="fill:none;stroke:red;stroke-width:1px;stroke-linecap:butt;stroke-linejoin:miter;stroke-opacity:1" d="M 785.218,180.88 797.01,189.724 z" id="boundary" inkscape:connector-curvature="0" />
	<path style="fill:none;stroke:red;stroke-width:1px;stroke-linecap:butt;stroke-linejoin:miter;stroke-opacity:1" d="M 785.218,242.788 795.536,254.579 z" id="boundary" inkscape:connector-curvature="0" />
	<path style="fill:none;stroke:red;stroke-width:1px;stroke-linecap:butt;stroke-linejoin:miter;stroke-opacity:1" d="M 789.64,446.199 804.38,447.673 z" id="boundary" inkscape:connector-curvature="0" />
	<path style="fill:none;stroke:red;stroke-width:1px;stroke-linecap:butt;stroke-linejoin:miter;stroke-opacity:1" d="M 795.536,254.579 810.276,260.475 z" id="boundary" inkscape:connector-curvature="0" />
	<path style="fill:none;stroke:red;stroke-width:1px;stroke-linecap:butt;stroke-linejoin:miter;stroke-opacity:1" d="M 795.536,306.169 807.328,316.487 z" id="boundary" inkscape:connector-curvature="0" />
	<path style="fill:none;stroke:red;stroke-width:1px;stroke-linecap:butt;stroke-linejoin:miter;stroke-opacity:1" d="M 797.01,189.724 808.802,200.042 z" id="boundary" inkscape:connector-curvature="0" />
	<path style="fill:none;stroke:red;stroke-width:1px;stroke-linecap:butt;stroke-linejoin:miter;stroke-opacity:1" d="M 804.38,447.673 819.12,447.673 z" id="boundary" inkscape:connector-curvature="0" />
	<path style="fill:none;stroke:red;stroke-width:1px;stroke-linecap:butt;stroke-linejoin:miter;stroke-opacity:1" d="M 807.328,316.487 816.172,328.279 z" id="boundary" inkscape:connector-curvature="0" />
	<path style="fill:none;stroke:red;stroke-width:1px;stroke-linecap:butt;stroke-linejoin:miter;stroke-opacity:1" d="M 808.802,200.042 816.172,213.308 z" id="boundary" inkscape:connector-curvature="0" />
	<path style="fill:none;stroke:red;stroke-width:1px;stroke-linecap:butt;stroke-linejoin:miter;stroke-opacity:1" d="M 810.276,260.475 822.068,270.793 z" id="boundary" inkscape:connector-curvature="0" />
	<path style="fill:none;stroke:red;stroke-width:1px;stroke-linecap:butt;stroke-linejoin:miter;stroke-opacity:1" d="M 816.172,213.308 829.438,220.678 z" id="boundary" inkscape:connector-curvature="0" />
	<path style="fill:none;stroke:red;stroke-width:1px;stroke-linecap:butt;stroke-linejoin:miter;stroke-opacity:1" d="M 816.172,328.279 816.172,343.019 z" id="boundary" inkscape:connector-curvature="0" />
	<path style="fill:none;stroke:red;stroke-width:1px;stroke-linecap:butt;stroke-linejoin:miter;stroke-opacity:1" d="M 816.172,343.019 816.172,357.759 z" id="boundary" inkscape:connector-curvature="0" />
	<path style="fill:none;stroke:red;stroke-width:1px;stroke-linecap:butt;stroke-linejoin:miter;stroke-opacity:1" d="M 816.172,357.759 823.542,371.025 z" id="boundary" inkscape:connector-curvature="0" />
	<path style="fill:none;stroke:red;stroke-width:1px;stroke-linecap:butt;stroke-linejoin:miter;stroke-opacity:1" d="M 819.12,447.673 833.86,446.199 z" id="boundary" inkscape:connector-curvature="0" />
	<path style="fill:none;stroke:red;stroke-width:1px;stroke-linecap:butt;stroke-linejoin:miter;stroke-opacity:1" d="M 822.068,270.793 830.912,282.585 z" id="boundary" inkscape:connector-curvature="0" />
	<path style="fill:none;stroke:red;stroke-width:1px;stroke-linecap:butt;stroke-linejoin:miter;stroke-opacity:1" d="M 823.542,371.025 823.542,385.765 z" id="boundary" inkscape:connector-curvature="0" />
	<path style="fill:none;stroke:red;stroke-width:1px;stroke-linecap:butt;stroke-linejoin:miter;stroke-opacity:1" d="M 823.542,385.765 830.912,399.031 z" id="boundary" inkscape:connector-curvature="0" />
	<path style="fill:none;stroke:red;stroke-width:1px;stroke-linecap:butt;stroke-linejoin:miter;stroke-opacity:1" d="M 829.438,220.678 838.282,232.47 z" id="boundary" inkscape:connector-curvature="0" />
	<path style="fill:none;stroke:red;stroke-width:1px;stroke-linecap:butt;stroke-linejoin:miter;stroke-opacity:1" d="M 830.912,282.585 842.704,292.903 z" id="boundary" inkscape:connector-curvature="0" />
	<path style="fill:none;stroke:red;stroke-width:1px;stroke-linecap:butt;stroke-linejoin:miter;stroke-opacity:1" d="M 830.912,399.031 830.912,413.771 z" id="boundary" inkscape:connector-curvature="0" />
	<path style="fill:none;stroke:red;stroke-width:1px;stroke-linecap:butt;stroke-linejoin:miter;stroke-opacity:1" d="M 830.912,413.771 830.912,428.511 z" id="boundary" inkscape:connector-curvature="0" />
	<path style="fill:none;stroke:red;stroke-width:1px;stroke-linecap:butt;stroke-linejoin:miter;stroke-opacity:1" d="M 830.912,428.511 833.86,446.199 z" id="boundary" inkscape:connector-curvature="0" />
	<path style="fill:none;stroke:red;stroke-width:1px;stroke-linecap:butt;stroke-linejoin:miter;stroke-opacity:1" d="M 838.282,232.47 850.074,241.314 z" id="boundary" inkscape:connector-curvature="0" />
	<path style="fill:none;stroke:red;stroke-width:1px;stroke-linecap:butt;stroke-linejoin:miter;stroke-opacity:1" d="M 842.704,292.903 855.97,300.273 z" id="boundary" inkscape:connector-curvature="0" />
	<path style="fill:none;stroke:red;stroke-width:1px;stroke-linecap:butt;stroke-linejoin:miter;stroke-opacity:1" d="M 850.074,241.314 860.392,253.105 z" id="boundary" inkscape:connector-curvature="0" />
	<path style="fill:none;stroke:red;stroke-width:1px;stroke-linecap:butt;stroke-linejoin:miter;stroke-opacity:1" d="M 855.97,300.273 867.762,310.591 z" id="boundary" inkscape:connector-curvature="0" />
	<path style="fill:none;stroke:red;stroke-width:1px;stroke-linecap:butt;stroke-linejoin:miter;stroke-opacity:1" d="M 860.392,253.105 872.184,263.423 z" id="boundary" inkscape:connector-curvature="0" />
	<path style="fill:none;stroke:red;stroke-width:1px;stroke-linecap:butt;stroke-linejoin:miter;stroke-opacity:1" d="M 867.762,310.591 881.028,317.961 z" id="boundary" inkscape:connector-curvature="0" />
	<path style="fill:none;stroke:red;stroke-width:1px;stroke-linecap:butt;stroke-linejoin:miter;stroke-opacity:1" d="M 872.184,263.423 882.502,275.215 z" id="boundary" inkscape:connector-curvature="0" />
	<path style="fill:none;stroke:red;stroke-width:1px;stroke-linecap:butt;stroke-linejoin:miter;stroke-opacity:1" d="M 881.028,317.961 895.768,322.383 z" id="boundary" inkscape:connector-curvature="0" />
	<path style="fill:none;stroke:red;stroke-width:1px;stroke-linecap:butt;stroke-linejoin:miter;stroke-opacity:1" d="M 882.502,275.215 894.294,285.533 z" id="boundary" inkscape:connector-curvature="0" />
	<path style="fill:none;stroke:red;stroke-width:1px;stroke-linecap:butt;stroke-linejoin:miter;stroke-opacity:1" d="M 894.294,285.533 907.56,292.903 z" id="boundary" inkscape:connector-curvature="0" />
	<path style="fill:none;stroke:red;stroke-width:1px;stroke-linecap:butt;stroke-linejoin:miter;stroke-opacity:1" d="M 895.768,322.383 909.034,329.753 z" id="boundary" inkscape:connector-curvature="0" />
	<path style="fill:none;stroke:red;stroke-width:1px;stroke-linecap:butt;stroke-linejoin:miter;stroke-opacity:1" d="M 907.56,292.903 919.352,303.221 z" id="boundary" inkscape:connector-curvature="0" />
	<path style="fill:none;stroke:red;stroke-width:1px;stroke-linecap:butt;stroke-linejoin:miter;stroke-opacity:1" d="M 909.034,329.753 922.3,337.123 z" id="boundary" inkscape:connector-curvature="0" />
	<path style="fill:none;stroke:red;stroke-width:1px;stroke-linecap:butt;stroke-linejoin:miter;stroke-opacity:1" d="M 919.352,303.221 932.618,310.591 z" id="boundary" inkscape:connector-curvature="0" />
	<path style="fill:none;stroke:red;stroke-width:1px;stroke-linecap:butt;stroke-linejoin:miter;stroke-opacity:1" d="M 922.3,337.123 937.04,343.019 z" id="boundary" inkscape:connector-curvature="0" />
	<path style="fill:none;stroke:red;stroke-width:1px;stroke-linecap:butt;stroke-linejoin:miter;stroke-opacity:1" d="M 932.618,310.591 947.358,313.539 z" id="boundary" inkscape:connector-curvature="0" />
	<path style="fill:none;stroke:red;stroke-width:1px;stroke-linecap:butt;stroke-linejoin:miter;stroke-opacity:1" d="M 937.04,343.019 951.78,344.493 z" id="boundary" inkscape:connector-curvature="0" />
	<path style="fill:none;stroke:red;stroke-width:1px;stroke-linecap:butt;stroke-linejoin:miter;stroke-opacity:1" d="M 947.358,313.539 960.624,320.909 z" id="boundary" inkscape:connector-curvature="0" />
	<path style="fill:none;stroke:red;stroke-width:1px;stroke-linecap:butt;stroke-linejoin:miter;stroke-opacity:1" d="M 951.78,344.493 966.52,344.493 z" id="boundary" inkscape:connector-curvature="0" />
	<path style="fill:none;stroke:red;stroke-width:1px;stroke-linecap:butt;stroke-linejoin:miter;stroke-opacity:1" d="M 960.624,320.909 973.89,313.539 z" id="boundary" inkscape:connector-curvature="0" />
	<path style="fill:none;stroke:red;stroke-width:1px;stroke-linecap:butt;stroke-linejoin:miter;stroke-opacity:1" d="M 966.52,344.493 981.26,343.019 z" id="boundary" inkscape:connector-curvature="0" />
	<path style="fill:none;stroke:red;stroke-width:1px;stroke-linecap:butt;stroke-linejoin:miter;stroke-opacity:1" d="M 973.89,313.539 987.156,320.909 z" id="boundary" inkscape:connector-curvature="0" />
	<path style="fill:none;stroke:red;stroke-width:1px;stroke-linecap:butt;stroke-linejoin:miter;stroke-opacity:1" d="M 981.26,343.019 996,335.649 z" id="boundary" inkscape:connector-curvature="0" />
	<path style="fill:none;stroke:red;stroke-width:1px;stroke-linecap:butt;stroke-linejoin:miter;stroke-opacity:1" d="M 987.156,320.909 996,335.649 z" id="boundary" inkscape:connector-curvature="0" />
	<circle cx="4" cy="118.972" r="4" fill="#0" id="circle0"/>
	<circle cx="4" cy="133.712" r="4" fill="#0" id="circle1"/>
	<circle cx="4" cy="148.452" r="4" fill="#0" id="circle2"/>
	<circle cx="11.37" cy="104.232" r="4" fill="#0" id="circle3"/>
	<circle cx="15.792" cy="158.77" r="4" fill="#0" id="circle4"/>
	<circle cx="23.162" cy="92.4398" r="4" fill="#0" id="circle5"/>
	<circle cx="29.0579" cy="166.14" r="4" fill="#0" id="circle6"/>
	<circle cx="33.4799" cy="74.7519" r="4" fill="#0" id="circle7"/>
	<circle cx="40.8499" cy="174.984" r="4" fill="#0" id="circle8"/>
	<circle cx="45.2719" cy="62.9599" r="4" fill="#0" id="circle9"/>
	<circle cx="54.1159" cy="182.354" r="4" fill="#0" id="circle10"/>
	<circle cx="57.0639" cy="51.1679" r="4" fill="#0" id="circle11"/>
	<circle cx="62.9599" cy="8.42199" r="4" fill="#0" id="circle12"/>
	<circle cx="68.8559" cy="40.8499" r="4" fill="#0" id="circle13"/>
	<circle cx="68.8559" cy="182.354" r="4" fill="#0" id="circle14"/>
	<circle cx="70.3299" cy="21.688" r="4" fill="#0" id="circle15"/>
	<circle cx="77.6999" cy="4" r="4" fill="#0" id="circle16"/>
	<circle cx="83.5958" cy="182.354" r="4" fill="#0" id="circle17"/>
	<circle cx="90.9658" cy="11.37" r="4" fill="#0" id="circle18"/>
	<circle cx="98.3358" cy="182.354" r="4" fill="#0" id="circle19"/>
	<circle cx="105.706" cy="11.37" r="4" fill="#0" id="circle20"/>
	<circle cx="108.654" cy="194.146" r="4" fill="#0" id="circle21"/>
	<circle cx="114.55" cy="208.886" r="4" fill="#0" id="circle22"/>
	<circle cx="118.972" cy="18.74" r="4" fill="#0" id="circle23"/>
	<circle cx="121.92" cy="222.152" r="4" fill="#0" id="circle24"/>
	<circle cx="129.29" cy="235.418" r="4" fill="#0" id="circle25"/>
	<circle cx="133.712" cy="18.74" r="4" fill="#0" id="circle26"/>
	<circle cx="139.608" cy="247.21" r="4" fill="#0" id="circle27"/>
	<circle cx="146.978" cy="26.11" r="4" fill="#0" id="circle28"/>
	<circle cx="151.4" cy="256.053" r="4" fill="#0" id="circle29"/>
	<circle cx="160.244" cy="33.4799" r="4" fill="#0" id="circle30"/>
	<circle cx="160.244" cy="267.845" r="4" fill="#0" id="circle31"/>
	<circle cx="166.14" cy="421.141" r="4" fill="#0" id="circle32"/>
	<circle cx="172.036" cy="42.3239" r="4" fill="#0" id="circle33"/>
	<circle cx="172.036" cy="278.163" r="4" fill="#0" id="circle34"/>
	<circle cx="174.984" cy="432.933" r="4" fill="#0" id="circle35"/>
	<circle cx="177.932" cy="409.349" r="4" fill="#0" id="circle36"/>
	<circle cx="182.354" cy="289.955" r="4" fill="#0" id="circle37"/>
	<circle cx="185.302" cy="49.6939" r="4" fill="#0" id="circle38"/>
	<circle cx="189.724" cy="397.557" r="4" fill="#0" id="circle39"/>
	<circle cx="189.724" cy="432.933" r="4" fill="#0" id="circle40"/>
	<circle cx="197.094" cy="60.0119" r="4" fill="#0" id="circle41"/>
	<circle cx="197.094" cy="292.903" r="4" fill="#0" id="circle42"/>
	<circle cx="197.094" cy="382.817" r="4" fill="#0" id="circle43"/>
	<circle cx="204.464" cy="368.077" r="4" fill="#0" id="circle44"/>
	<circle cx="204.464" cy="432.933" r="4" fill="#0" id="circle45"/>
	<circle cx="207.412" cy="71.8039" r="4" fill="#0" id="circle46"/>
	<circle cx="210.36" cy="300.273" r="4" fill="#0" id="circle47"/>
	<circle cx="210.36" cy="347.441" r="4" fill="#0" id="circle48"/>
	<circle cx="217.73" cy="332.701" r="4" fill="#0" id="circle49"/>
	<circle cx="219.204" cy="82.1218" r="4" fill="#0" id="circle50"/>
	<circle cx="219.204" cy="425.563" r="4" fill="#0" id="circle51"/>
	<circle cx="223.626" cy="307.643" r="4" fill="#0" id="circle52"/>
	<circle cx="230.996" cy="415.245" r="4" fill="#0" id="circle53"/>
	<circle cx="232.47" cy="89.4918" r="4" fill="#0" id="circle54"/>
	<circle cx="238.366" cy="400.505" r="4" fill="#0" id="circle55"/>
	<circle cx="247.21" cy="92.4398" r="4" fill="#0" id="circle56"/>
	<circle cx="248.684" cy="373.973" r="4" fill="#0" id="circle57"/>
	<circle cx="248.684" cy="388.713" r="4" fill="#0" id="circle58"/>
	<circle cx="260.475" cy="363.655" r="4" fill="#0" id="circle59"/>
	<circle cx="261.949" cy="92.4398" r="4" fill="#0" id="circle60"/>
	<circle cx="267.845" cy="348.915" r="4" fill="#0" id="circle61"/>
	<circle cx="276.689" cy="92.4398" r="4" fill="#0" id="circle62"/>
	<circle cx="278.163" cy="337.123" r="4" fill="#0" id="circle63"/>
	<circle cx="285.533" cy="322.383" r="4" fill="#0" id="circle64"/>
	<circle cx="291.429" cy="92.4398" r="4" fill="#0" id="circle65"/>
	<circle cx="298.799" cy="315.013" r="4" fill="#0" id="circle66"/>
	<circle cx="306.169" cy="89.4918" r="4" fill="#0" id="circle67"/>
	<circle cx="312.065" cy="322.383" r="4" fill="#0" id="circle68"/>
	<circle cx="317.961" cy="337.123" r="4" fill="#0" id="circle69"/>
	<circle cx="320.909" cy="85.0698" r="4" fill="#0" id="circle70"/>
	<circle cx="328.279" cy="348.915" r="4" fill="#0" id="circle71"/>
	<circle cx="335.649" cy="85.0698" r="4" fill="#0" id="circle72"/>
	<circle cx="335.649" cy="362.181" r="4" fill="#0" id="circle73"/>
	<circle cx="343.019" cy="375.447" r="4" fill="#0" id="circle74"/>
	<circle cx="343.019" cy="390.187" r="4" fill="#0" id="circle75"/>
	<circle cx="343.019" cy="406.401" r="4" fill="#0" id="circle76"/>
	<circle cx="343.019" cy="421.141" r="4" fill="#0" id="circle77"/>
	<circle cx="350.389" cy="85.0698" r="4" fill="#0" id="circle78"/>
	<circle cx="357.759" cy="425.563" r="4" fill="#0" id="circle79"/>
	<circle cx="365.129" cy="85.0698" r="4" fill="#0" id="circle80"/>
	<circle cx="366.603" cy="315.013" r="4" fill="#0" id="circle81"/>
	<circle cx="366.603" cy="329.753" r="4" fill="#0" id="circle82"/>
	<circle cx="372.499" cy="425.563" r="4" fill="#0" id="circle83"/>
	<circle cx="373.973" cy="343.019" r="4" fill="#0" id="circle84"/>
	<circle cx="379.869" cy="85.0698" r="4" fill="#0" id="circle85"/>
	<circle cx="381.343" cy="315.013" r="4" fill="#0" id="circle86"/>
	<circle cx="381.343" cy="356.285" r="4" fill="#0" id="circle87"/>
	<circle cx="381.343" cy="371.025" r="4" fill="#0" id="circle88"/>
	<circle cx="387.239" cy="425.563" r="4" fill="#0" id="circle89"/>
	<circle cx="388.713" cy="384.291" r="4" fill="#0" id="circle90"/>
	<circle cx="388.713" cy="399.031" r="4" fill="#0" id="circle91"/>
	<circle cx="394.609" cy="85.0698" r="4" fill="#0" id="circle92"/>
	<circle cx="396.083" cy="315.013" r="4" fill="#0" id="circle93"/>
	<circle cx="396.083" cy="412.297" r="4" fill="#0" id="circle94"/>
	<circle cx="407.875" cy="77.6999" r="4" fill="#0" id="circle95"/>
	<circle cx="410.823" cy="315.013" r="4" fill="#0" id="circle96"/>
	<circle cx="422.615" cy="77.6999" r="4" fill="#0" id="circle97"/>
	<circle cx="425.563" cy="315.013" r="4" fill="#0" id="circle98"/>
	<circle cx="437.355" cy="77.6999" r="4" fill="#0" id="circle99"/>
	<circle cx="440.303" cy="315.013" r="4" fill="#0" id="circle100"/>
	<circle cx="452.095" cy="79.1738" r="4" fill="#0" id="circle101"/>
	<circle cx="455.043" cy="315.013" r="4" fill="#0" id="circle102"/>
	<circle cx="466.835" cy="85.0698" r="4" fill="#0" id="circle103"/>
	<circle cx="469.783" cy="315.013" r="4" fill="#0" id="circle104"/>
	<circle cx="481.575" cy="85.0698" r="4" fill="#0" id="circle105"/>
	<circle cx="483.049" cy="428.511" r="4" fill="#0" id="circle106"/>
	<circle cx="484.523" cy="315.013" r="4" fill="#0" id="circle107"/>
	<circle cx="494.841" cy="416.719" r="4" fill="#0" id="circle108"/>
	<circle cx="496.315" cy="85.0698" r="4" fill="#0" id="circle109"/>
	<circle cx="497.789" cy="432.933" r="4" fill="#0" id="circle110"/>
	<circle cx="499.263" cy="315.013" r="4" fill="#0" id="circle111"/>
	<circle cx="508.107" cy="409.349" r="4" fill="#0" id="circle112"/>
	<circle cx="511.055" cy="85.0698" r="4" fill="#0" id="circle113"/>
	<circle cx="511.055" cy="440.303" r="4" fill="#0" id="circle114"/>
	<circle cx="514.003" cy="315.013" r="4" fill="#0" id="circle115"/>
	<circle cx="519.899" cy="399.031" r="4" fill="#0" id="circle116"/>
	<circle cx="525.795" cy="85.0698" r="4" fill="#0" id="circle117"/>
	<circle cx="525.795" cy="440.303" r="4" fill="#0" id="circle118"/>
	<circle cx="528.743" cy="315.013" r="4" fill="#0" id="circle119"/>
	<circle cx="534.639" cy="391.661" r="4" fill="#0" id="circle120"/>
	<circle cx="539.061" cy="432.933" r="4" fill="#0" id="circle121"/>
	<circle cx="540.535" cy="85.0698" r="4" fill="#0" id="circle122"/>
	<circle cx="543.483" cy="315.013" r="4" fill="#0" id="circle123"/>
	<circle cx="546.431" cy="379.869" r="4" fill="#0" id="circle124"/>
	<circle cx="552.327" cy="425.563" r="4" fill="#0" id="circle125"/>
	<circle cx="555.275" cy="85.0698" r="4" fill="#0" id="circle126"/>
	<circle cx="558.223" cy="317.961" r="4" fill="#0" id="circle127"/>
	<circle cx="558.223" cy="368.077" r="4" fill="#0" id="circle128"/>
	<circle cx="564.119" cy="332.701" r="4" fill="#0" id="circle129"/>
	<circle cx="565.593" cy="418.193" r="4" fill="#0" id="circle130"/>
	<circle cx="570.015" cy="86.5438" r="4" fill="#0" id="circle131"/>
	<circle cx="570.015" cy="357.759" r="4" fill="#0" id="circle132"/>
	<circle cx="577.385" cy="407.875" r="4" fill="#0" id="circle133"/>
	<circle cx="584.755" cy="92.4398" r="4" fill="#0" id="circle134"/>
	<circle cx="592.125" cy="400.505" r="4" fill="#0" id="circle135"/>
	<circle cx="599.495" cy="92.4398" r="4" fill="#0" id="circle136"/>
	<circle cx="602.443" cy="388.713" r="4" fill="#0" id="circle137"/>
	<circle cx="614.235" cy="92.4398" r="4" fill="#0" id="circle138"/>
	<circle cx="614.235" cy="378.395" r="4" fill="#0" id="circle139"/>
	<circle cx="628.975" cy="93.9138" r="4" fill="#0" id="circle140"/>
	<circle cx="628.975" cy="371.025" r="4" fill="#0" id="circle141"/>
	<circle cx="631.923" cy="315.013" r="4" fill="#0" id="circle142"/>
	<circle cx="631.923" cy="329.753" r="4" fill="#0" id="circle143"/>
	<circle cx="631.923" cy="344.493" r="4" fill="#0" id="circle144"/>
	<circle cx="643.715" cy="99.8098" r="4" fill="#0" id="circle145"/>
	<circle cx="646.663" cy="315.013" r="4" fill="#0" id="circle146"/>
	<circle cx="658.455" cy="99.8098" r="4" fill="#0" id="circle147"/>
	<circle cx="661.403" cy="317.961" r="4" fill="#0" id="circle148"/>
	<circle cx="671.721" cy="107.18" r="4" fill="#0" id="circle149"/>
	<circle cx="671.721" cy="329.753" r="4" fill="#0" id="circle150"/>
	<circle cx="684.987" cy="114.55" r="4" fill="#0" id="circle151"/>
	<circle cx="686.461" cy="329.753" r="4" fill="#0" id="circle152"/>
	<circle cx="698.253" cy="121.92" r="4" fill="#0" id="circle153"/>
	<circle cx="699.727" cy="337.123" r="4" fill="#0" id="circle154"/>
	<circle cx="712.993" cy="126.342" r="4" fill="#0" id="circle155"/>
	<circle cx="712.993" cy="189.724" r="4" fill="#0" id="circle156"/>
	<circle cx="712.993" cy="204.464" r="4" fill="#0" id="circle157"/>
	<circle cx="714.467" cy="341.545" r="4" fill="#0" id="circle158"/>
	<circle cx="720.363" cy="217.73" r="4" fill="#0" id="circle159"/>
	<circle cx="720.363" cy="232.47" r="4" fill="#0" id="circle160"/>
	<circle cx="726.259" cy="133.712" r="4" fill="#0" id="circle161"/>
	<circle cx="727.733" cy="192.672" r="4" fill="#0" id="circle162"/>
	<circle cx="727.733" cy="245.736" r="4" fill="#0" id="circle163"/>
	<circle cx="729.207" cy="344.493" r="4" fill="#0" id="circle164"/>
	<circle cx="738.051" cy="144.03" r="4" fill="#0" id="circle165"/>
	<circle cx="738.051" cy="204.464" r="4" fill="#0" id="circle166"/>
	<circle cx="739.525" cy="256.053" r="4" fill="#0" id="circle167"/>
	<circle cx="743.947" cy="344.493" r="4" fill="#0" id="circle168"/>
	<circle cx="745.421" cy="270.793" r="4" fill="#0" id="circle169"/>
	<circle cx="749.842" cy="214.782" r="4" fill="#0" id="circle170"/>
	<circle cx="751.316" cy="151.4" r="4" fill="#0" id="circle171"/>
	<circle cx="757.212" cy="281.111" r="4" fill="#0" id="circle172"/>
	<circle cx="757.212" cy="351.863" r="4" fill="#0" id="circle173"/>
	<circle cx="760.16" cy="226.574" r="4" fill="#0" id="circle174"/>
	<circle cx="763.108" cy="161.718" r="4" fill="#0" id="circle175"/>
	<circle cx="766.056" cy="363.655" r="4" fill="#0" id="circle176"/>
	<circle cx="769.004" cy="291.429" r="4" fill="#0" id="circle177"/>
	<circle cx="770.478" cy="378.395" r="4" fill="#0" id="circle178"/>
	<circle cx="771.952" cy="173.51" r="4" fill="#0" id="circle179"/>
	<circle cx="773.426" cy="233.944" r="4" fill="#0" id="circle180"/>
	<circle cx="777.848" cy="391.661" r="4" fill="#0" id="circle181"/>
	<circle cx="777.848" cy="406.401" r="4" fill="#0" id="circle182"/>
	<circle cx="777.848" cy="421.141" r="4" fill="#0" id="circle183"/>
	<circle cx="777.848" cy="435.881" r="4" fill="#0" id="circle184"/>
	<circle cx="782.27" cy="298.799" r="4" fill="#0" id="circle185"/>
	<circle cx="785.218" cy="180.88" r="4" fill="#0" id="circle186"/>
	<circle cx="785.218" cy="242.788" r="4" fill="#0" id="circle187"/>
	<circle cx="789.64" cy="446.199" r="4" fill="#0" id="circle188"/>
	<circle cx="795.536" cy="254.579" r="4" fill="#0" id="circle189"/>
	<circle cx="795.536" cy="306.169" r="4" fill="#0" id="circle190"/>
	<circle cx="797.01" cy="189.724" r="4" fill="#0" id="circle191"/>
	<circle cx="804.38" cy="447.673" r="4" fill="#0" id="circle192"/>
	<circle cx="807.328" cy="316.487" r="4" fill="#0" id="circle193"/>
	<circle cx="808.802" cy="200.042" r="4" fill="#0" id="circle194"/>
	<circle cx="810.276" cy="260.475" r="4" fill="#0" id="circle195"/>
	<circle cx="816.172" cy="213.308" r="4" fill="#0" id="circle196"/>
	<circle cx="816.172" cy="328.279" r="4" fill="#0" id="circle197"/>
	<circle cx="816.172" cy="343.019" r="4" fill="#0" id="circle198"/>
	<circle cx="816.172" cy="357.759" r="4" fill="#0" id="circle199"/>
	<circle cx="819.12" cy="447.673" r="4" fill="#0" id="circle200"/>
	<circle cx="822.068" cy="270.793" r="4" fill="#0" id="circle201"/>
	<circle cx="823.542" cy="371.025" r="4" fill="#0" id="circle202"/>
	<circle cx="823.542" cy="385.765" r="4" fill="#0" id="circle203"/>
	<circle cx="829.438" cy="220.678" r="4" fill="#0" id="circle204"/>
	<circle cx="830.912" cy="282.585" r="4" fill="#0" id="circle205"/>
	<circle cx="830.912" cy="399.031" r="4" fill="#0" id="circle206"/>
	<circle cx="830.912" cy="413.771" r="4" fill="#0" id="circle207"/>
	<circle cx="830.912" cy="428.511" r="4" fill="#0" id="circle208"/>
	<circle cx="833.86" cy="446.199" r="4" fill="#0" id="circle209"/>
	<circle cx="838.282" cy="232.47" r="4" fill="#0" id="circle210"/>
	<circle cx="842.704" cy="292.903" r="4" fill="#0" id="circle211"/>
	<circle cx="850.074" cy="241.314" r="4" fill="#0" id="circle212"/>
	<circle cx="855.97" cy="300.273" r="4" fill="#0" id="circle213"/>
	<circle cx="860.392" cy="253.105" r="4" fill="#0" id="circle214"/>
	<circle cx="867.762" cy="310.591" r="4" fill="#0" id="circle215"/>
	<circle cx="872.184" cy="263.423" r="4" fill="#0" id="circle216"/>
	<circle cx="881.028" cy="317.961" r="4" fill="#0" id="circle217"/>
	<circle cx="882.502" cy="275.215" r="4" fill="#0" id="circle218"/>
	<circle cx="894.294" cy="285.533" r="4" fill="#0" id="circle219"/>
	<circle cx="895.768" cy="322.383" r="4" fill="#0" id="circle220"/>
	<circle cx="907.56" cy="292.903" r="4" fill="#0" id="circle221"/>
	<circle cx="909.034" cy="329.753" r="4" fill="#0" id="circle222"/>
	<circle cx="919.352" cy="303.221" r="4" fill="#0" id="circle223"/>
	<circle cx="922.3" cy="337.123" r="4" fill="#0" id="circle224"/>
	<circle cx="932.618" cy="310.591" r="4" fill="#0" id="circle225"/>
	<circle cx="937.04" cy="343.019" r="4" fill="#0" id="circle226"/>
	<circle cx="947.358" cy="313.539" r="4" fill="#0" id="circle227"/>
	<circle cx="951.78" cy="344.493" r="4" fill="#0" id="circle228"/>
	<circle cx="960.624" cy="320.909" r="4" fill="#0" id="circle229"/>
	<circle cx="966.52" cy="344.493" r="4" fill="#0" id="circle230"/>
	<circle cx="973.89" cy="313.539" r="4" fill="#0" id="circle231"/>
	<circle cx="981.26" cy="343.019" r="4" fill="#0" id="circle232"/>
	<circle cx="987.156" cy="320.909" r="4" fill="#0" id="circle233"/>
	<circle cx="996" cy="335.649" r="4" fill="#0" id="circle234"/>
	</g>
</svg>