<?xml version="1.0" encoding="UTF-8" standalone="no"?>
<!-- Created with CurveBenchmark -->
<svg
	xmlns:dc="http://purl.org/dc/elements/1.1/"
	xmlns:cc="http://creativecommons.org/ns#"
	xmlns:rdf="http://www.w3.org/1999/02/22-rdf-syntax-ns#"
	xmlns:svg="http://www.w3.org/2000/svg"
	xmlns="http://www.w3.org/2000/svg"
	xmlns:sodipodi="http://sodipodi.sourceforge.net/DTD/sodipodi-0.dtd"
	xmlns:inkscape="http://www.inkscape.org/namespaces/inkscape"
	width="1000"
	height="1000"
	id="svg2"
	version="1.1"
	sodipodi:docname="manifold/vicur-arb01.png.txt">
<defs
	id="defs4" />
<metadata
	id="metadata7">
	<rdf:RDF>
		<cc:Work
			rdf:about="">
			<dc:format>image/svg+xml</dc:format>
			<dc:type
				rdf:resource="http://purl.org/dc/dcmitype/StillImage" />
			<dc:title></dc:title>
		</cc:Work>
	</rdf:RDF>
</metadata>
<g
	inkscape:label="Layer 1"
	inkscape:groupmode="layer"
	id="layer1">
	<path style="fill:none;stroke:red;stroke-width:1px;stroke-linecap:butt;stroke-linejoin:miter;stroke-opacity:1" d="M 4,4 4,15.7258 z" id="boundary" inkscape:connector-curvature="0" />
	<path style="fill:none;stroke:red;stroke-width:1px;stroke-linecap:butt;stroke-linejoin:miter;stroke-opacity:1" d="M 4,4 15.7258,8.69031 z" id="boundary" inkscape:connector-curvature="0" />
	<path style="fill:none;stroke:red;stroke-width:1px;stroke-linecap:butt;stroke-linejoin:miter;stroke-opacity:1" d="M 4,15.7258 4,27.4515 z" id="boundary" inkscape:connector-curvature="0" />
	<path style="fill:none;stroke:red;stroke-width:1px;stroke-linecap:butt;stroke-linejoin:miter;stroke-opacity:1" d="M 4,27.4515 4,39.1773 z" id="boundary" inkscape:connector-curvature="0" />
	<path style="fill:none;stroke:red;stroke-width:1px;stroke-linecap:butt;stroke-linejoin:miter;stroke-opacity:1" d="M 4,39.1773 4,50.9031 z" id="boundary" inkscape:connector-curvature="0" />
	<path style="fill:none;stroke:red;stroke-width:1px;stroke-linecap:butt;stroke-linejoin:miter;stroke-opacity:1" d="M 4,50.9031 4,62.6288 z" id="boundary" inkscape:connector-curvature="0" />
	<path style="fill:none;stroke:red;stroke-width:1px;stroke-linecap:butt;stroke-linejoin:miter;stroke-opacity:1" d="M 4,62.6288 4,74.3546 z" id="boundary" inkscape:connector-curvature="0" />
	<path style="fill:none;stroke:red;stroke-width:1px;stroke-linecap:butt;stroke-linejoin:miter;stroke-opacity:1" d="M 4,74.3546 4,86.0804 z" id="boundary" inkscape:connector-curvature="0" />
	<path style="fill:none;stroke:red;stroke-width:1px;stroke-linecap:butt;stroke-linejoin:miter;stroke-opacity:1" d="M 4,86.0804 4,97.8061 z" id="boundary" inkscape:connector-curvature="0" />
	<path style="fill:none;stroke:red;stroke-width:1px;stroke-linecap:butt;stroke-linejoin:miter;stroke-opacity:1" d="M 4,97.8061 4,109.532 z" id="boundary" inkscape:connector-curvature="0" />
	<path style="fill:none;stroke:red;stroke-width:1px;stroke-linecap:butt;stroke-linejoin:miter;stroke-opacity:1" d="M 4,109.532 4,121.258 z" id="boundary" inkscape:connector-curvature="0" />
	<path style="fill:none;stroke:red;stroke-width:1px;stroke-linecap:butt;stroke-linejoin:miter;stroke-opacity:1" d="M 4,121.258 4,132.983 z" id="boundary" inkscape:connector-curvature="0" />
	<path style="fill:none;stroke:red;stroke-width:1px;stroke-linecap:butt;stroke-linejoin:miter;stroke-opacity:1" d="M 4,132.983 4,144.709 z" id="boundary" inkscape:connector-curvature="0" />
	<path style="fill:none;stroke:red;stroke-width:1px;stroke-linecap:butt;stroke-linejoin:miter;stroke-opacity:1" d="M 4,144.709 4,156.435 z" id="boundary" inkscape:connector-curvature="0" />
	<path style="fill:none;stroke:red;stroke-width:1px;stroke-linecap:butt;stroke-linejoin:miter;stroke-opacity:1" d="M 4,156.435 4,168.161 z" id="boundary" inkscape:connector-curvature="0" />
	<path style="fill:none;stroke:red;stroke-width:1px;stroke-linecap:butt;stroke-linejoin:miter;stroke-opacity:1" d="M 4,168.161 4,179.887 z" id="boundary" inkscape:connector-curvature="0" />
	<path style="fill:none;stroke:red;stroke-width:1px;stroke-linecap:butt;stroke-linejoin:miter;stroke-opacity:1" d="M 4,179.887 4,191.612 z" id="boundary" inkscape:connector-curvature="0" />
	<path style="fill:none;stroke:red;stroke-width:1px;stroke-linecap:butt;stroke-linejoin:miter;stroke-opacity:1" d="M 4,191.612 4,203.338 z" id="boundary" inkscape:connector-curvature="0" />
	<path style="fill:none;stroke:red;stroke-width:1px;stroke-linecap:butt;stroke-linejoin:miter;stroke-opacity:1" d="M 4,203.338 4,215.064 z" id="boundary" inkscape:connector-curvature="0" />
	<path style="fill:none;stroke:red;stroke-width:1px;stroke-linecap:butt;stroke-linejoin:miter;stroke-opacity:1" d="M 4,215.064 4,226.79 z" id="boundary" inkscape:connector-curvature="0" />
	<path style="fill:none;stroke:red;stroke-width:1px;stroke-linecap:butt;stroke-linejoin:miter;stroke-opacity:1" d="M 4,226.79 4,238.515 z" id="boundary" inkscape:connector-curvature="0" />
	<path style="fill:none;stroke:red;stroke-width:1px;stroke-linecap:butt;stroke-linejoin:miter;stroke-opacity:1" d="M 4,238.515 4,250.241 z" id="boundary" inkscape:connector-curvature="0" />
	<path style="fill:none;stroke:red;stroke-width:1px;stroke-linecap:butt;stroke-linejoin:miter;stroke-opacity:1" d="M 4,250.241 4,261.967 z" id="boundary" inkscape:connector-curvature="0" />
	<path style="fill:none;stroke:red;stroke-width:1px;stroke-linecap:butt;stroke-linejoin:miter;stroke-opacity:1" d="M 4,261.967 4,273.693 z" id="boundary" inkscape:connector-curvature="0" />
	<path style="fill:none;stroke:red;stroke-width:1px;stroke-linecap:butt;stroke-linejoin:miter;stroke-opacity:1" d="M 4,273.693 4,285.418 z" id="boundary" inkscape:connector-curvature="0" />
	<path style="fill:none;stroke:red;stroke-width:1px;stroke-linecap:butt;stroke-linejoin:miter;stroke-opacity:1" d="M 4,285.418 4,297.144 z" id="boundary" inkscape:connector-curvature="0" />
	<path style="fill:none;stroke:red;stroke-width:1px;stroke-linecap:butt;stroke-linejoin:miter;stroke-opacity:1" d="M 4,297.144 4,308.87 z" id="boundary" inkscape:connector-curvature="0" />
	<path style="fill:none;stroke:red;stroke-width:1px;stroke-linecap:butt;stroke-linejoin:miter;stroke-opacity:1" d="M 4,308.87 4,320.596 z" id="boundary" inkscape:connector-curvature="0" />
	<path style="fill:none;stroke:red;stroke-width:1px;stroke-linecap:butt;stroke-linejoin:miter;stroke-opacity:1" d="M 4,320.596 4,332.322 z" id="boundary" inkscape:connector-curvature="0" />
	<path style="fill:none;stroke:red;stroke-width:1px;stroke-linecap:butt;stroke-linejoin:miter;stroke-opacity:1" d="M 4,332.322 4,344.047 z" id="boundary" inkscape:connector-curvature="0" />
	<path style="fill:none;stroke:red;stroke-width:1px;stroke-linecap:butt;stroke-linejoin:miter;stroke-opacity:1" d="M 4,344.047 4,355.773 z" id="boundary" inkscape:connector-curvature="0" />
	<path style="fill:none;stroke:red;stroke-width:1px;stroke-linecap:butt;stroke-linejoin:miter;stroke-opacity:1" d="M 4,355.773 4,367.499 z" id="boundary" inkscape:connector-curvature="0" />
	<path style="fill:none;stroke:red;stroke-width:1px;stroke-linecap:butt;stroke-linejoin:miter;stroke-opacity:1" d="M 4,367.499 4,379.225 z" id="boundary" inkscape:connector-curvature="0" />
	<path style="fill:none;stroke:red;stroke-width:1px;stroke-linecap:butt;stroke-linejoin:miter;stroke-opacity:1" d="M 4,379.225 4,390.95 z" id="boundary" inkscape:connector-curvature="0" />
	<path style="fill:none;stroke:red;stroke-width:1px;stroke-linecap:butt;stroke-linejoin:miter;stroke-opacity:1" d="M 4,390.95 4,402.676 z" id="boundary" inkscape:connector-curvature="0" />
	<path style="fill:none;stroke:red;stroke-width:1px;stroke-linecap:butt;stroke-linejoin:miter;stroke-opacity:1" d="M 4,402.676 4,414.402 z" id="boundary" inkscape:connector-curvature="0" />
	<path style="fill:none;stroke:red;stroke-width:1px;stroke-linecap:butt;stroke-linejoin:miter;stroke-opacity:1" d="M 4,414.402 4,426.128 z" id="boundary" inkscape:connector-curvature="0" />
	<path style="fill:none;stroke:red;stroke-width:1px;stroke-linecap:butt;stroke-linejoin:miter;stroke-opacity:1" d="M 4,426.128 4,437.853 z" id="boundary" inkscape:connector-curvature="0" />
	<path style="fill:none;stroke:red;stroke-width:1px;stroke-linecap:butt;stroke-linejoin:miter;stroke-opacity:1" d="M 4,437.853 4,449.579 z" id="boundary" inkscape:connector-curvature="0" />
	<path style="fill:none;stroke:red;stroke-width:1px;stroke-linecap:butt;stroke-linejoin:miter;stroke-opacity:1" d="M 4,449.579 4,461.305 z" id="boundary" inkscape:connector-curvature="0" />
	<path style="fill:none;stroke:red;stroke-width:1px;stroke-linecap:butt;stroke-linejoin:miter;stroke-opacity:1" d="M 4,461.305 4,473.031 z" id="boundary" inkscape:connector-curvature="0" />
	<path style="fill:none;stroke:red;stroke-width:1px;stroke-linecap:butt;stroke-linejoin:miter;stroke-opacity:1" d="M 4,473.031 4,484.757 z" id="boundary" inkscape:connector-curvature="0" />
	<path style="fill:none;stroke:red;stroke-width:1px;stroke-linecap:butt;stroke-linejoin:miter;stroke-opacity:1" d="M 4,484.757 4,496.482 z" id="boundary" inkscape:connector-curvature="0" />
	<path style="fill:none;stroke:red;stroke-width:1px;stroke-linecap:butt;stroke-linejoin:miter;stroke-opacity:1" d="M 4,496.482 4,508.208 z" id="boundary" inkscape:connector-curvature="0" />
	<path style="fill:none;stroke:red;stroke-width:1px;stroke-linecap:butt;stroke-linejoin:miter;stroke-opacity:1" d="M 4,508.208 4,519.934 z" id="boundary" inkscape:connector-curvature="0" />
	<path style="fill:none;stroke:red;stroke-width:1px;stroke-linecap:butt;stroke-linejoin:miter;stroke-opacity:1" d="M 4,519.934 4,531.66 z" id="boundary" inkscape:connector-curvature="0" />
	<path style="fill:none;stroke:red;stroke-width:1px;stroke-linecap:butt;stroke-linejoin:miter;stroke-opacity:1" d="M 4,531.66 4,543.385 z" id="boundary" inkscape:connector-curvature="0" />
	<path style="fill:none;stroke:red;stroke-width:1px;stroke-linecap:butt;stroke-linejoin:miter;stroke-opacity:1" d="M 4,543.385 4,555.111 z" id="boundary" inkscape:connector-curvature="0" />
	<path style="fill:none;stroke:red;stroke-width:1px;stroke-linecap:butt;stroke-linejoin:miter;stroke-opacity:1" d="M 4,555.111 4,566.837 z" id="boundary" inkscape:connector-curvature="0" />
	<path style="fill:none;stroke:red;stroke-width:1px;stroke-linecap:butt;stroke-linejoin:miter;stroke-opacity:1" d="M 4,566.837 4,578.563 z" id="boundary" inkscape:connector-curvature="0" />
	<path style="fill:none;stroke:red;stroke-width:1px;stroke-linecap:butt;stroke-linejoin:miter;stroke-opacity:1" d="M 4,578.563 4,590.288 z" id="boundary" inkscape:connector-curvature="0" />
	<path style="fill:none;stroke:red;stroke-width:1px;stroke-linecap:butt;stroke-linejoin:miter;stroke-opacity:1" d="M 4,590.288 4,602.014 z" id="boundary" inkscape:connector-curvature="0" />
	<path style="fill:none;stroke:red;stroke-width:1px;stroke-linecap:butt;stroke-linejoin:miter;stroke-opacity:1" d="M 4,602.014 4,613.74 z" id="boundary" inkscape:connector-curvature="0" />
	<path style="fill:none;stroke:red;stroke-width:1px;stroke-linecap:butt;stroke-linejoin:miter;stroke-opacity:1" d="M 4,613.74 4,625.466 z" id="boundary" inkscape:connector-curvature="0" />
	<path style="fill:none;stroke:red;stroke-width:1px;stroke-linecap:butt;stroke-linejoin:miter;stroke-opacity:1" d="M 4,625.466 4,637.191 z" id="boundary" inkscape:connector-curvature="0" />
	<path style="fill:none;stroke:red;stroke-width:1px;stroke-linecap:butt;stroke-linejoin:miter;stroke-opacity:1" d="M 4,637.191 4,648.917 z" id="boundary" inkscape:connector-curvature="0" />
	<path style="fill:none;stroke:red;stroke-width:1px;stroke-linecap:butt;stroke-linejoin:miter;stroke-opacity:1" d="M 4,648.917 4,660.643 z" id="boundary" inkscape:connector-curvature="0" />
	<path style="fill:none;stroke:red;stroke-width:1px;stroke-linecap:butt;stroke-linejoin:miter;stroke-opacity:1" d="M 4,660.643 4,672.369 z" id="boundary" inkscape:connector-curvature="0" />
	<path style="fill:none;stroke:red;stroke-width:1px;stroke-linecap:butt;stroke-linejoin:miter;stroke-opacity:1" d="M 4,672.369 4,684.095 z" id="boundary" inkscape:connector-curvature="0" />
	<path style="fill:none;stroke:red;stroke-width:1px;stroke-linecap:butt;stroke-linejoin:miter;stroke-opacity:1" d="M 4,684.095 4,695.82 z" id="boundary" inkscape:connector-curvature="0" />
	<path style="fill:none;stroke:red;stroke-width:1px;stroke-linecap:butt;stroke-linejoin:miter;stroke-opacity:1" d="M 4,695.82 4,707.546 z" id="boundary" inkscape:connector-curvature="0" />
	<path style="fill:none;stroke:red;stroke-width:1px;stroke-linecap:butt;stroke-linejoin:miter;stroke-opacity:1" d="M 4,707.546 15.7258,711.064 z" id="boundary" inkscape:connector-curvature="0" />
	<path style="fill:none;stroke:red;stroke-width:1px;stroke-linecap:butt;stroke-linejoin:miter;stroke-opacity:1" d="M 15.7258,8.69031 22.7612,18.0709 z" id="boundary" inkscape:connector-curvature="0" />
	<path style="fill:none;stroke:red;stroke-width:1px;stroke-linecap:butt;stroke-linejoin:miter;stroke-opacity:1" d="M 15.7258,711.064 25.1064,704.028 z" id="boundary" inkscape:connector-curvature="0" />
	<path style="fill:none;stroke:red;stroke-width:1px;stroke-linecap:butt;stroke-linejoin:miter;stroke-opacity:1" d="M 22.7612,18.0709 34.487,21.5887 z" id="boundary" inkscape:connector-curvature="0" />
	<path style="fill:none;stroke:red;stroke-width:1px;stroke-linecap:butt;stroke-linejoin:miter;stroke-opacity:1" d="M 25.1064,704.028 36.8322,698.165 z" id="boundary" inkscape:connector-curvature="0" />
	<path style="fill:none;stroke:red;stroke-width:1px;stroke-linecap:butt;stroke-linejoin:miter;stroke-opacity:1" d="M 34.487,21.5887 42.695,30.9693 z" id="boundary" inkscape:connector-curvature="0" />
	<path style="fill:none;stroke:red;stroke-width:1px;stroke-linecap:butt;stroke-linejoin:miter;stroke-opacity:1" d="M 36.8322,698.165 46.2128,687.612 z" id="boundary" inkscape:connector-curvature="0" />
	<path style="fill:none;stroke:red;stroke-width:1px;stroke-linecap:butt;stroke-linejoin:miter;stroke-opacity:1" d="M 42.695,30.9693 52.0757,39.1773 z" id="boundary" inkscape:connector-curvature="0" />
	<path style="fill:none;stroke:red;stroke-width:1px;stroke-linecap:butt;stroke-linejoin:miter;stroke-opacity:1" d="M 46.2128,687.612 57.9385,681.749 z" id="boundary" inkscape:connector-curvature="0" />
	<path style="fill:none;stroke:red;stroke-width:1px;stroke-linecap:butt;stroke-linejoin:miter;stroke-opacity:1" d="M 52.0757,39.1773 61.4563,47.3853 z" id="boundary" inkscape:connector-curvature="0" />
	<path style="fill:none;stroke:red;stroke-width:1px;stroke-linecap:butt;stroke-linejoin:miter;stroke-opacity:1" d="M 57.9385,681.749 68.4917,675.887 z" id="boundary" inkscape:connector-curvature="0" />
	<path style="fill:none;stroke:red;stroke-width:1px;stroke-linecap:butt;stroke-linejoin:miter;stroke-opacity:1" d="M 61.4563,47.3853 72.0095,53.2482 z" id="boundary" inkscape:connector-curvature="0" />
	<path style="fill:none;stroke:red;stroke-width:1px;stroke-linecap:butt;stroke-linejoin:miter;stroke-opacity:1" d="M 68.4917,675.887 77.8723,668.851 z" id="boundary" inkscape:connector-curvature="0" />
	<path style="fill:none;stroke:red;stroke-width:1px;stroke-linecap:butt;stroke-linejoin:miter;stroke-opacity:1" d="M 72.0095,53.2482 80.2175,62.6288 z" id="boundary" inkscape:connector-curvature="0" />
	<path style="fill:none;stroke:red;stroke-width:1px;stroke-linecap:butt;stroke-linejoin:miter;stroke-opacity:1" d="M 77.8723,668.851 89.5981,662.988 z" id="boundary" inkscape:connector-curvature="0" />
	<path style="fill:none;stroke:red;stroke-width:1px;stroke-linecap:butt;stroke-linejoin:miter;stroke-opacity:1" d="M 80.2175,62.6288 89.5981,70.8369 z" id="boundary" inkscape:connector-curvature="0" />
	<path style="fill:none;stroke:red;stroke-width:1px;stroke-linecap:butt;stroke-linejoin:miter;stroke-opacity:1" d="M 89.5981,70.8369 100.151,76.6998 z" id="boundary" inkscape:connector-curvature="0" />
	<path style="fill:none;stroke:red;stroke-width:1px;stroke-linecap:butt;stroke-linejoin:miter;stroke-opacity:1" d="M 89.5981,662.988 98.9787,652.435 z" id="boundary" inkscape:connector-curvature="0" />
	<path style="fill:none;stroke:red;stroke-width:1px;stroke-linecap:butt;stroke-linejoin:miter;stroke-opacity:1" d="M 98.9787,652.435 110.704,646.572 z" id="boundary" inkscape:connector-curvature="0" />
	<path style="fill:none;stroke:red;stroke-width:1px;stroke-linecap:butt;stroke-linejoin:miter;stroke-opacity:1" d="M 100.151,76.6998 109.532,84.9078 z" id="boundary" inkscape:connector-curvature="0" />
	<path style="fill:none;stroke:red;stroke-width:1px;stroke-linecap:butt;stroke-linejoin:miter;stroke-opacity:1" d="M 109.532,84.9078 116.567,94.2884 z" id="boundary" inkscape:connector-curvature="0" />
	<path style="fill:none;stroke:red;stroke-width:1px;stroke-linecap:butt;stroke-linejoin:miter;stroke-opacity:1" d="M 110.704,646.572 121.258,640.709 z" id="boundary" inkscape:connector-curvature="0" />
	<path style="fill:none;stroke:red;stroke-width:1px;stroke-linecap:butt;stroke-linejoin:miter;stroke-opacity:1" d="M 116.567,94.2884 125.948,101.324 z" id="boundary" inkscape:connector-curvature="0" />
	<path style="fill:none;stroke:red;stroke-width:1px;stroke-linecap:butt;stroke-linejoin:miter;stroke-opacity:1" d="M 121.258,640.709 130.638,633.674 z" id="boundary" inkscape:connector-curvature="0" />
	<path style="fill:none;stroke:red;stroke-width:1px;stroke-linecap:butt;stroke-linejoin:miter;stroke-opacity:1" d="M 125.948,101.324 136.501,107.187 z" id="boundary" inkscape:connector-curvature="0" />
	<path style="fill:none;stroke:red;stroke-width:1px;stroke-linecap:butt;stroke-linejoin:miter;stroke-opacity:1" d="M 130.638,633.674 142.364,627.811 z" id="boundary" inkscape:connector-curvature="0" />
	<path style="fill:none;stroke:red;stroke-width:1px;stroke-linecap:butt;stroke-linejoin:miter;stroke-opacity:1" d="M 136.501,107.187 145.882,115.395 z" id="boundary" inkscape:connector-curvature="0" />
	<path style="fill:none;stroke:red;stroke-width:1px;stroke-linecap:butt;stroke-linejoin:miter;stroke-opacity:1" d="M 142.364,627.811 151.745,617.258 z" id="boundary" inkscape:connector-curvature="0" />
	<path style="fill:none;stroke:red;stroke-width:1px;stroke-linecap:butt;stroke-linejoin:miter;stroke-opacity:1" d="M 145.882,115.395 154.09,124.775 z" id="boundary" inkscape:connector-curvature="0" />
	<path style="fill:none;stroke:red;stroke-width:1px;stroke-linecap:butt;stroke-linejoin:miter;stroke-opacity:1" d="M 151.745,617.258 163.47,611.395 z" id="boundary" inkscape:connector-curvature="0" />
	<path style="fill:none;stroke:red;stroke-width:1px;stroke-linecap:butt;stroke-linejoin:miter;stroke-opacity:1" d="M 154.09,124.775 163.47,132.983 z" id="boundary" inkscape:connector-curvature="0" />
	<path style="fill:none;stroke:red;stroke-width:1px;stroke-linecap:butt;stroke-linejoin:miter;stroke-opacity:1" d="M 163.47,132.983 172.851,141.191 z" id="boundary" inkscape:connector-curvature="0" />
	<path style="fill:none;stroke:red;stroke-width:1px;stroke-linecap:butt;stroke-linejoin:miter;stroke-opacity:1" d="M 163.47,611.395 174.024,605.532 z" id="boundary" inkscape:connector-curvature="0" />
	<path style="fill:none;stroke:red;stroke-width:1px;stroke-linecap:butt;stroke-linejoin:miter;stroke-opacity:1" d="M 172.851,141.191 183.404,147.054 z" id="boundary" inkscape:connector-curvature="0" />
	<path style="fill:none;stroke:red;stroke-width:1px;stroke-linecap:butt;stroke-linejoin:miter;stroke-opacity:1" d="M 174.024,605.532 184.577,599.669 z" id="boundary" inkscape:connector-curvature="0" />
	<path style="fill:none;stroke:red;stroke-width:1px;stroke-linecap:butt;stroke-linejoin:miter;stroke-opacity:1" d="M 183.404,147.054 191.612,156.435 z" id="boundary" inkscape:connector-curvature="0" />
	<path style="fill:none;stroke:red;stroke-width:1px;stroke-linecap:butt;stroke-linejoin:miter;stroke-opacity:1" d="M 184.577,599.669 195.13,592.634 z" id="boundary" inkscape:connector-curvature="0" />
	<path style="fill:none;stroke:red;stroke-width:1px;stroke-linecap:butt;stroke-linejoin:miter;stroke-opacity:1" d="M 191.612,156.435 200.993,164.643 z" id="boundary" inkscape:connector-curvature="0" />
	<path style="fill:none;stroke:red;stroke-width:1px;stroke-linecap:butt;stroke-linejoin:miter;stroke-opacity:1" d="M 195.13,592.634 206.856,586.771 z" id="boundary" inkscape:connector-curvature="0" />
	<path style="fill:none;stroke:red;stroke-width:1px;stroke-linecap:butt;stroke-linejoin:miter;stroke-opacity:1" d="M 200.993,164.643 211.546,170.506 z" id="boundary" inkscape:connector-curvature="0" />
	<path style="fill:none;stroke:red;stroke-width:1px;stroke-linecap:butt;stroke-linejoin:miter;stroke-opacity:1" d="M 206.856,586.771 216.236,576.217 z" id="boundary" inkscape:connector-curvature="0" />
	<path style="fill:none;stroke:red;stroke-width:1px;stroke-linecap:butt;stroke-linejoin:miter;stroke-opacity:1" d="M 211.546,170.506 220.927,178.714 z" id="boundary" inkscape:connector-curvature="0" />
	<path style="fill:none;stroke:red;stroke-width:1px;stroke-linecap:butt;stroke-linejoin:miter;stroke-opacity:1" d="M 216.236,576.217 227.962,570.355 z" id="boundary" inkscape:connector-curvature="0" />
	<path style="fill:none;stroke:red;stroke-width:1px;stroke-linecap:butt;stroke-linejoin:miter;stroke-opacity:1" d="M 220.927,178.714 227.962,188.095 z" id="boundary" inkscape:connector-curvature="0" />
	<path style="fill:none;stroke:red;stroke-width:1px;stroke-linecap:butt;stroke-linejoin:miter;stroke-opacity:1" d="M 227.962,188.095 237.343,195.13 z" id="boundary" inkscape:connector-curvature="0" />
	<path style="fill:none;stroke:red;stroke-width:1px;stroke-linecap:butt;stroke-linejoin:miter;stroke-opacity:1" d="M 227.962,570.355 238.515,564.492 z" id="boundary" inkscape:connector-curvature="0" />
	<path style="fill:none;stroke:red;stroke-width:1px;stroke-linecap:butt;stroke-linejoin:miter;stroke-opacity:1" d="M 237.343,195.13 247.896,200.993 z" id="boundary" inkscape:connector-curvature="0" />
	<path style="fill:none;stroke:red;stroke-width:1px;stroke-linecap:butt;stroke-linejoin:miter;stroke-opacity:1" d="M 238.515,564.492 247.896,557.456 z" id="boundary" inkscape:connector-curvature="0" />
	<path style="fill:none;stroke:red;stroke-width:1px;stroke-linecap:butt;stroke-linejoin:miter;stroke-opacity:1" d="M 247.896,200.993 257.277,209.201 z" id="boundary" inkscape:connector-curvature="0" />
	<path style="fill:none;stroke:red;stroke-width:1px;stroke-linecap:butt;stroke-linejoin:miter;stroke-opacity:1" d="M 247.896,557.456 259.622,551.593 z" id="boundary" inkscape:connector-curvature="0" />
	<path style="fill:none;stroke:red;stroke-width:1px;stroke-linecap:butt;stroke-linejoin:miter;stroke-opacity:1" d="M 257.277,209.201 265.485,218.582 z" id="boundary" inkscape:connector-curvature="0" />
	<path style="fill:none;stroke:red;stroke-width:1px;stroke-linecap:butt;stroke-linejoin:miter;stroke-opacity:1" d="M 259.622,551.593 269.002,541.04 z" id="boundary" inkscape:connector-curvature="0" />
	<path style="fill:none;stroke:red;stroke-width:1px;stroke-linecap:butt;stroke-linejoin:miter;stroke-opacity:1" d="M 265.485,218.582 274.865,226.79 z" id="boundary" inkscape:connector-curvature="0" />
	<path style="fill:none;stroke:red;stroke-width:1px;stroke-linecap:butt;stroke-linejoin:miter;stroke-opacity:1" d="M 269.002,541.04 280.728,535.177 z" id="boundary" inkscape:connector-curvature="0" />
	<path style="fill:none;stroke:red;stroke-width:1px;stroke-linecap:butt;stroke-linejoin:miter;stroke-opacity:1" d="M 274.865,226.79 285.418,232.652 z" id="boundary" inkscape:connector-curvature="0" />
	<path style="fill:none;stroke:red;stroke-width:1px;stroke-linecap:butt;stroke-linejoin:miter;stroke-opacity:1" d="M 280.728,535.177 291.281,529.314 z" id="boundary" inkscape:connector-curvature="0" />
	<path style="fill:none;stroke:red;stroke-width:1px;stroke-linecap:butt;stroke-linejoin:miter;stroke-opacity:1" d="M 285.418,232.652 294.799,240.861 z" id="boundary" inkscape:connector-curvature="0" />
	<path style="fill:none;stroke:red;stroke-width:1px;stroke-linecap:butt;stroke-linejoin:miter;stroke-opacity:1" d="M 291.281,529.314 300.662,522.279 z" id="boundary" inkscape:connector-curvature="0" />
	<path style="fill:none;stroke:red;stroke-width:1px;stroke-linecap:butt;stroke-linejoin:miter;stroke-opacity:1" d="M 294.799,240.861 303.007,250.241 z" id="boundary" inkscape:connector-curvature="0" />
	<path style="fill:none;stroke:red;stroke-width:1px;stroke-linecap:butt;stroke-linejoin:miter;stroke-opacity:1" d="M 300.662,522.279 312.388,516.416 z" id="boundary" inkscape:connector-curvature="0" />
	<path style="fill:none;stroke:red;stroke-width:1px;stroke-linecap:butt;stroke-linejoin:miter;stroke-opacity:1" d="M 303.007,250.241 312.388,258.449 z" id="boundary" inkscape:connector-curvature="0" />
	<path style="fill:none;stroke:red;stroke-width:1px;stroke-linecap:butt;stroke-linejoin:miter;stroke-opacity:1" d="M 312.388,258.449 322.941,264.312 z" id="boundary" inkscape:connector-curvature="0" />
	<path style="fill:none;stroke:red;stroke-width:1px;stroke-linecap:butt;stroke-linejoin:miter;stroke-opacity:1" d="M 312.388,516.416 321.768,505.863 z" id="boundary" inkscape:connector-curvature="0" />
	<path style="fill:none;stroke:red;stroke-width:1px;stroke-linecap:butt;stroke-linejoin:miter;stroke-opacity:1" d="M 321.768,505.863 333.494,500 z" id="boundary" inkscape:connector-curvature="0" />
	<path style="fill:none;stroke:red;stroke-width:1px;stroke-linecap:butt;stroke-linejoin:miter;stroke-opacity:1" d="M 322.941,264.312 332.322,272.52 z" id="boundary" inkscape:connector-curvature="0" />
	<path style="fill:none;stroke:red;stroke-width:1px;stroke-linecap:butt;stroke-linejoin:miter;stroke-opacity:1" d="M 332.322,272.52 344.047,276.038 z" id="boundary" inkscape:connector-curvature="0" />
	<path style="fill:none;stroke:red;stroke-width:1px;stroke-linecap:butt;stroke-linejoin:miter;stroke-opacity:1" d="M 333.494,500 345.22,500 z" id="boundary" inkscape:connector-curvature="0" />
	<path style="fill:none;stroke:red;stroke-width:1px;stroke-linecap:butt;stroke-linejoin:miter;stroke-opacity:1" d="M 344.047,276.038 355.773,276.038 z" id="boundary" inkscape:connector-curvature="0" />
	<path style="fill:none;stroke:red;stroke-width:1px;stroke-linecap:butt;stroke-linejoin:miter;stroke-opacity:1" d="M 345.22,500 356.946,494.137 z" id="boundary" inkscape:connector-curvature="0" />
	<path style="fill:none;stroke:red;stroke-width:1px;stroke-linecap:butt;stroke-linejoin:miter;stroke-opacity:1" d="M 355.773,276.038 367.499,276.038 z" id="boundary" inkscape:connector-curvature="0" />
	<path style="fill:none;stroke:red;stroke-width:1px;stroke-linecap:butt;stroke-linejoin:miter;stroke-opacity:1" d="M 356.946,494.137 368.671,494.137 z" id="boundary" inkscape:connector-curvature="0" />
	<path style="fill:none;stroke:red;stroke-width:1px;stroke-linecap:butt;stroke-linejoin:miter;stroke-opacity:1" d="M 367.499,276.038 379.225,276.038 z" id="boundary" inkscape:connector-curvature="0" />
	<path style="fill:none;stroke:red;stroke-width:1px;stroke-linecap:butt;stroke-linejoin:miter;stroke-opacity:1" d="M 368.671,494.137 380.397,494.137 z" id="boundary" inkscape:connector-curvature="0" />
	<path style="fill:none;stroke:red;stroke-width:1px;stroke-linecap:butt;stroke-linejoin:miter;stroke-opacity:1" d="M 379.225,276.038 390.95,276.038 z" id="boundary" inkscape:connector-curvature="0" />
	<path style="fill:none;stroke:red;stroke-width:1px;stroke-linecap:butt;stroke-linejoin:miter;stroke-opacity:1" d="M 380.397,494.137 392.123,488.274 z" id="boundary" inkscape:connector-curvature="0" />
	<path style="fill:none;stroke:red;stroke-width:1px;stroke-linecap:butt;stroke-linejoin:miter;stroke-opacity:1" d="M 390.95,276.038 402.676,276.038 z" id="boundary" inkscape:connector-curvature="0" />
	<path style="fill:none;stroke:red;stroke-width:1px;stroke-linecap:butt;stroke-linejoin:miter;stroke-opacity:1" d="M 392.123,488.274 403.849,488.274 z" id="boundary" inkscape:connector-curvature="0" />
	<path style="fill:none;stroke:red;stroke-width:1px;stroke-linecap:butt;stroke-linejoin:miter;stroke-opacity:1" d="M 402.676,276.038 414.402,276.038 z" id="boundary" inkscape:connector-curvature="0" />
	<path style="fill:none;stroke:red;stroke-width:1px;stroke-linecap:butt;stroke-linejoin:miter;stroke-opacity:1" d="M 403.849,488.274 415.574,488.274 z" id="boundary" inkscape:connector-curvature="0" />
	<path style="fill:none;stroke:red;stroke-width:1px;stroke-linecap:butt;stroke-linejoin:miter;stroke-opacity:1" d="M 414.402,276.038 426.128,273.693 z" id="boundary" inkscape:connector-curvature="0" />
	<path style="fill:none;stroke:red;stroke-width:1px;stroke-linecap:butt;stroke-linejoin:miter;stroke-opacity:1" d="M 415.574,488.274 427.3,482.411 z" id="boundary" inkscape:connector-curvature="0" />
	<path style="fill:none;stroke:red;stroke-width:1px;stroke-linecap:butt;stroke-linejoin:miter;stroke-opacity:1" d="M 426.128,273.693 437.853,267.83 z" id="boundary" inkscape:connector-curvature="0" />
	<path style="fill:none;stroke:red;stroke-width:1px;stroke-linecap:butt;stroke-linejoin:miter;stroke-opacity:1" d="M 427.3,482.411 439.026,482.411 z" id="boundary" inkscape:connector-curvature="0" />
	<path style="fill:none;stroke:red;stroke-width:1px;stroke-linecap:butt;stroke-linejoin:miter;stroke-opacity:1" d="M 437.853,267.83 449.579,261.967 z" id="boundary" inkscape:connector-curvature="0" />
	<path style="fill:none;stroke:red;stroke-width:1px;stroke-linecap:butt;stroke-linejoin:miter;stroke-opacity:1" d="M 439.026,482.411 450.752,482.411 z" id="boundary" inkscape:connector-curvature="0" />
	<path style="fill:none;stroke:red;stroke-width:1px;stroke-linecap:butt;stroke-linejoin:miter;stroke-opacity:1" d="M 449.579,261.967 458.96,252.586 z" id="boundary" inkscape:connector-curvature="0" />
	<path style="fill:none;stroke:red;stroke-width:1px;stroke-linecap:butt;stroke-linejoin:miter;stroke-opacity:1" d="M 450.752,482.411 462.478,476.548 z" id="boundary" inkscape:connector-curvature="0" />
	<path style="fill:none;stroke:red;stroke-width:1px;stroke-linecap:butt;stroke-linejoin:miter;stroke-opacity:1" d="M 458.96,252.586 470.686,246.723 z" id="boundary" inkscape:connector-curvature="0" />
	<path style="fill:none;stroke:red;stroke-width:1px;stroke-linecap:butt;stroke-linejoin:miter;stroke-opacity:1" d="M 462.478,476.548 474.203,476.548 z" id="boundary" inkscape:connector-curvature="0" />
	<path style="fill:none;stroke:red;stroke-width:1px;stroke-linecap:butt;stroke-linejoin:miter;stroke-opacity:1" d="M 470.686,246.723 481.239,240.861 z" id="boundary" inkscape:connector-curvature="0" />
	<path style="fill:none;stroke:red;stroke-width:1px;stroke-linecap:butt;stroke-linejoin:miter;stroke-opacity:1" d="M 474.203,476.548 485.929,476.548 z" id="boundary" inkscape:connector-curvature="0" />
	<path style="fill:none;stroke:red;stroke-width:1px;stroke-linecap:butt;stroke-linejoin:miter;stroke-opacity:1" d="M 481.239,240.861 491.792,234.998 z" id="boundary" inkscape:connector-curvature="0" />
	<path style="fill:none;stroke:red;stroke-width:1px;stroke-linecap:butt;stroke-linejoin:miter;stroke-opacity:1" d="M 485.929,476.548 497.655,470.686 z" id="boundary" inkscape:connector-curvature="0" />
	<path style="fill:none;stroke:red;stroke-width:1px;stroke-linecap:butt;stroke-linejoin:miter;stroke-opacity:1" d="M 491.792,234.998 502.345,229.135 z" id="boundary" inkscape:connector-curvature="0" />
	<path style="fill:none;stroke:red;stroke-width:1px;stroke-linecap:butt;stroke-linejoin:miter;stroke-opacity:1" d="M 497.655,470.686 509.381,470.686 z" id="boundary" inkscape:connector-curvature="0" />
	<path style="fill:none;stroke:red;stroke-width:1px;stroke-linecap:butt;stroke-linejoin:miter;stroke-opacity:1" d="M 502.345,229.135 512.898,223.272 z" id="boundary" inkscape:connector-curvature="0" />
	<path style="fill:none;stroke:red;stroke-width:1px;stroke-linecap:butt;stroke-linejoin:miter;stroke-opacity:1" d="M 509.381,470.686 521.106,470.686 z" id="boundary" inkscape:connector-curvature="0" />
	<path style="fill:none;stroke:red;stroke-width:1px;stroke-linecap:butt;stroke-linejoin:miter;stroke-opacity:1" d="M 512.898,223.272 523.452,217.409 z" id="boundary" inkscape:connector-curvature="0" />
	<path style="fill:none;stroke:red;stroke-width:1px;stroke-linecap:butt;stroke-linejoin:miter;stroke-opacity:1" d="M 521.106,470.686 532.832,470.686 z" id="boundary" inkscape:connector-curvature="0" />
	<path style="fill:none;stroke:red;stroke-width:1px;stroke-linecap:butt;stroke-linejoin:miter;stroke-opacity:1" d="M 523.452,217.409 534.005,223.272 z" id="boundary" inkscape:connector-curvature="0" />
	<path style="fill:none;stroke:red;stroke-width:1px;stroke-linecap:butt;stroke-linejoin:miter;stroke-opacity:1" d="M 532.832,470.686 543.385,464.823 z" id="boundary" inkscape:connector-curvature="0" />
	<path style="fill:none;stroke:red;stroke-width:1px;stroke-linecap:butt;stroke-linejoin:miter;stroke-opacity:1" d="M 534.005,223.272 544.558,229.135 z" id="boundary" inkscape:connector-curvature="0" />
	<path style="fill:none;stroke:red;stroke-width:1px;stroke-linecap:butt;stroke-linejoin:miter;stroke-opacity:1" d="M 543.385,464.823 555.111,464.823 z" id="boundary" inkscape:connector-curvature="0" />
	<path style="fill:none;stroke:red;stroke-width:1px;stroke-linecap:butt;stroke-linejoin:miter;stroke-opacity:1" d="M 544.558,229.135 556.284,232.652 z" id="boundary" inkscape:connector-curvature="0" />
	<path style="fill:none;stroke:red;stroke-width:1px;stroke-linecap:butt;stroke-linejoin:miter;stroke-opacity:1" d="M 555.111,464.823 566.837,464.823 z" id="boundary" inkscape:connector-curvature="0" />
	<path style="fill:none;stroke:red;stroke-width:1px;stroke-linecap:butt;stroke-linejoin:miter;stroke-opacity:1" d="M 556.284,232.652 566.837,238.515 z" id="boundary" inkscape:connector-curvature="0" />
	<path style="fill:none;stroke:red;stroke-width:1px;stroke-linecap:butt;stroke-linejoin:miter;stroke-opacity:1" d="M 566.837,238.515 578.563,243.206 z" id="boundary" inkscape:connector-curvature="0" />
	<path style="fill:none;stroke:red;stroke-width:1px;stroke-linecap:butt;stroke-linejoin:miter;stroke-opacity:1" d="M 566.837,464.823 577.39,458.96 z" id="boundary" inkscape:connector-curvature="0" />
	<path style="fill:none;stroke:red;stroke-width:1px;stroke-linecap:butt;stroke-linejoin:miter;stroke-opacity:1" d="M 577.39,458.96 589.116,458.96 z" id="boundary" inkscape:connector-curvature="0" />
	<path style="fill:none;stroke:red;stroke-width:1px;stroke-linecap:butt;stroke-linejoin:miter;stroke-opacity:1" d="M 578.563,243.206 585.598,252.586 z" id="boundary" inkscape:connector-curvature="0" />
	<path style="fill:none;stroke:red;stroke-width:1px;stroke-linecap:butt;stroke-linejoin:miter;stroke-opacity:1" d="M 585.598,252.586 597.324,256.104 z" id="boundary" inkscape:connector-curvature="0" />
	<path style="fill:none;stroke:red;stroke-width:1px;stroke-linecap:butt;stroke-linejoin:miter;stroke-opacity:1" d="M 589.116,458.96 600.842,458.96 z" id="boundary" inkscape:connector-curvature="0" />
	<path style="fill:none;stroke:red;stroke-width:1px;stroke-linecap:butt;stroke-linejoin:miter;stroke-opacity:1" d="M 597.324,256.104 607.877,261.967 z" id="boundary" inkscape:connector-curvature="0" />
	<path style="fill:none;stroke:red;stroke-width:1px;stroke-linecap:butt;stroke-linejoin:miter;stroke-opacity:1" d="M 600.842,458.96 611.395,453.097 z" id="boundary" inkscape:connector-curvature="0" />
	<path style="fill:none;stroke:red;stroke-width:1px;stroke-linecap:butt;stroke-linejoin:miter;stroke-opacity:1" d="M 607.877,261.967 617.258,270.175 z" id="boundary" inkscape:connector-curvature="0" />
	<path style="fill:none;stroke:red;stroke-width:1px;stroke-linecap:butt;stroke-linejoin:miter;stroke-opacity:1" d="M 611.395,453.097 623.121,453.097 z" id="boundary" inkscape:connector-curvature="0" />
	<path style="fill:none;stroke:red;stroke-width:1px;stroke-linecap:butt;stroke-linejoin:miter;stroke-opacity:1" d="M 617.258,270.175 627.811,276.038 z" id="boundary" inkscape:connector-curvature="0" />
	<path style="fill:none;stroke:red;stroke-width:1px;stroke-linecap:butt;stroke-linejoin:miter;stroke-opacity:1" d="M 623.121,453.097 634.846,453.097 z" id="boundary" inkscape:connector-curvature="0" />
	<path style="fill:none;stroke:red;stroke-width:1px;stroke-linecap:butt;stroke-linejoin:miter;stroke-opacity:1" d="M 627.811,276.038 639.537,276.038 z" id="boundary" inkscape:connector-curvature="0" />
	<path style="fill:none;stroke:red;stroke-width:1px;stroke-linecap:butt;stroke-linejoin:miter;stroke-opacity:1" d="M 634.846,453.097 645.4,447.234 z" id="boundary" inkscape:connector-curvature="0" />
	<path style="fill:none;stroke:red;stroke-width:1px;stroke-linecap:butt;stroke-linejoin:miter;stroke-opacity:1" d="M 639.537,276.038 651.262,276.038 z" id="boundary" inkscape:connector-curvature="0" />
	<path style="fill:none;stroke:red;stroke-width:1px;stroke-linecap:butt;stroke-linejoin:miter;stroke-opacity:1" d="M 645.4,447.234 657.125,447.234 z" id="boundary" inkscape:connector-curvature="0" />
	<path style="fill:none;stroke:red;stroke-width:1px;stroke-linecap:butt;stroke-linejoin:miter;stroke-opacity:1" d="M 651.262,276.038 662.988,276.038 z" id="boundary" inkscape:connector-curvature="0" />
	<path style="fill:none;stroke:red;stroke-width:1px;stroke-linecap:butt;stroke-linejoin:miter;stroke-opacity:1" d="M 657.125,447.234 668.851,450.752 z" id="boundary" inkscape:connector-curvature="0" />
	<path style="fill:none;stroke:red;stroke-width:1px;stroke-linecap:butt;stroke-linejoin:miter;stroke-opacity:1" d="M 662.988,276.038 674.714,276.038 z" id="boundary" inkscape:connector-curvature="0" />
	<path style="fill:none;stroke:red;stroke-width:1px;stroke-linecap:butt;stroke-linejoin:miter;stroke-opacity:1" d="M 668.851,450.752 678.232,458.96 z" id="boundary" inkscape:connector-curvature="0" />
	<path style="fill:none;stroke:red;stroke-width:1px;stroke-linecap:butt;stroke-linejoin:miter;stroke-opacity:1" d="M 674.714,276.038 686.44,276.038 z" id="boundary" inkscape:connector-curvature="0" />
	<path style="fill:none;stroke:red;stroke-width:1px;stroke-linecap:butt;stroke-linejoin:miter;stroke-opacity:1" d="M 678.232,458.96 685.267,468.34 z" id="boundary" inkscape:connector-curvature="0" />
	<path style="fill:none;stroke:red;stroke-width:1px;stroke-linecap:butt;stroke-linejoin:miter;stroke-opacity:1" d="M 685.267,468.34 694.648,476.548 z" id="boundary" inkscape:connector-curvature="0" />
	<path style="fill:none;stroke:red;stroke-width:1px;stroke-linecap:butt;stroke-linejoin:miter;stroke-opacity:1" d="M 686.44,276.038 698.165,276.038 z" id="boundary" inkscape:connector-curvature="0" />
	<path style="fill:none;stroke:red;stroke-width:1px;stroke-linecap:butt;stroke-linejoin:miter;stroke-opacity:1" d="M 694.648,476.548 702.856,485.929 z" id="boundary" inkscape:connector-curvature="0" />
	<path style="fill:none;stroke:red;stroke-width:1px;stroke-linecap:butt;stroke-linejoin:miter;stroke-opacity:1" d="M 698.165,276.038 709.891,276.038 z" id="boundary" inkscape:connector-curvature="0" />
	<path style="fill:none;stroke:red;stroke-width:1px;stroke-linecap:butt;stroke-linejoin:miter;stroke-opacity:1" d="M 702.856,485.929 712.236,494.137 z" id="boundary" inkscape:connector-curvature="0" />
	<path style="fill:none;stroke:red;stroke-width:1px;stroke-linecap:butt;stroke-linejoin:miter;stroke-opacity:1" d="M 709.891,276.038 721.617,271.348 z" id="boundary" inkscape:connector-curvature="0" />
	<path style="fill:none;stroke:red;stroke-width:1px;stroke-linecap:butt;stroke-linejoin:miter;stroke-opacity:1" d="M 712.236,494.137 720.444,503.518 z" id="boundary" inkscape:connector-curvature="0" />
	<path style="fill:none;stroke:red;stroke-width:1px;stroke-linecap:butt;stroke-linejoin:miter;stroke-opacity:1" d="M 720.444,503.518 729.825,511.726 z" id="boundary" inkscape:connector-curvature="0" />
	<path style="fill:none;stroke:red;stroke-width:1px;stroke-linecap:butt;stroke-linejoin:miter;stroke-opacity:1" d="M 721.617,271.348 730.998,261.967 z" id="boundary" inkscape:connector-curvature="0" />
	<path style="fill:none;stroke:red;stroke-width:1px;stroke-linecap:butt;stroke-linejoin:miter;stroke-opacity:1" d="M 729.825,511.726 738.033,521.106 z" id="boundary" inkscape:connector-curvature="0" />
	<path style="fill:none;stroke:red;stroke-width:1px;stroke-linecap:butt;stroke-linejoin:miter;stroke-opacity:1" d="M 730.998,261.967 740.378,252.586 z" id="boundary" inkscape:connector-curvature="0" />
	<path style="fill:none;stroke:red;stroke-width:1px;stroke-linecap:butt;stroke-linejoin:miter;stroke-opacity:1" d="M 738.033,521.106 747.414,529.314 z" id="boundary" inkscape:connector-curvature="0" />
	<path style="fill:none;stroke:red;stroke-width:1px;stroke-linecap:butt;stroke-linejoin:miter;stroke-opacity:1" d="M 740.378,252.586 749.759,243.206 z" id="boundary" inkscape:connector-curvature="0" />
	<path style="fill:none;stroke:red;stroke-width:1px;stroke-linecap:butt;stroke-linejoin:miter;stroke-opacity:1" d="M 747.414,529.314 755.622,538.695 z" id="boundary" inkscape:connector-curvature="0" />
	<path style="fill:none;stroke:red;stroke-width:1px;stroke-linecap:butt;stroke-linejoin:miter;stroke-opacity:1" d="M 749.759,243.206 759.139,234.998 z" id="boundary" inkscape:connector-curvature="0" />
	<path style="fill:none;stroke:red;stroke-width:1px;stroke-linecap:butt;stroke-linejoin:miter;stroke-opacity:1" d="M 755.622,538.695 765.002,546.903 z" id="boundary" inkscape:connector-curvature="0" />
	<path style="fill:none;stroke:red;stroke-width:1px;stroke-linecap:butt;stroke-linejoin:miter;stroke-opacity:1" d="M 759.139,234.998 767.348,225.617 z" id="boundary" inkscape:connector-curvature="0" />
	<path style="fill:none;stroke:red;stroke-width:1px;stroke-linecap:butt;stroke-linejoin:miter;stroke-opacity:1" d="M 765.002,546.903 773.21,556.284 z" id="boundary" inkscape:connector-curvature="0" />
	<path style="fill:none;stroke:red;stroke-width:1px;stroke-linecap:butt;stroke-linejoin:miter;stroke-opacity:1" d="M 767.348,225.617 776.728,217.409 z" id="boundary" inkscape:connector-curvature="0" />
	<path style="fill:none;stroke:red;stroke-width:1px;stroke-linecap:butt;stroke-linejoin:miter;stroke-opacity:1" d="M 773.21,556.284 782.591,564.492 z" id="boundary" inkscape:connector-curvature="0" />
	<path style="fill:none;stroke:red;stroke-width:1px;stroke-linecap:butt;stroke-linejoin:miter;stroke-opacity:1" d="M 776.728,217.409 784.936,208.028 z" id="boundary" inkscape:connector-curvature="0" />
	<path style="fill:none;stroke:red;stroke-width:1px;stroke-linecap:butt;stroke-linejoin:miter;stroke-opacity:1" d="M 782.591,564.492 790.799,573.872 z" id="boundary" inkscape:connector-curvature="0" />
	<path style="fill:none;stroke:red;stroke-width:1px;stroke-linecap:butt;stroke-linejoin:miter;stroke-opacity:1" d="M 784.936,208.028 794.317,199.82 z" id="boundary" inkscape:connector-curvature="0" />
	<path style="fill:none;stroke:red;stroke-width:1px;stroke-linecap:butt;stroke-linejoin:miter;stroke-opacity:1" d="M 790.799,573.872 800.18,582.08 z" id="boundary" inkscape:connector-curvature="0" />
	<path style="fill:none;stroke:red;stroke-width:1px;stroke-linecap:butt;stroke-linejoin:miter;stroke-opacity:1" d="M 794.317,199.82 802.525,190.44 z" id="boundary" inkscape:connector-curvature="0" />
	<path style="fill:none;stroke:red;stroke-width:1px;stroke-linecap:butt;stroke-linejoin:miter;stroke-opacity:1" d="M 800.18,582.08 808.388,591.461 z" id="boundary" inkscape:connector-curvature="0" />
	<path style="fill:none;stroke:red;stroke-width:1px;stroke-linecap:butt;stroke-linejoin:miter;stroke-opacity:1" d="M 802.525,190.44 811.905,182.232 z" id="boundary" inkscape:connector-curvature="0" />
	<path style="fill:none;stroke:red;stroke-width:1px;stroke-linecap:butt;stroke-linejoin:miter;stroke-opacity:1" d="M 808.388,591.461 817.768,599.669 z" id="boundary" inkscape:connector-curvature="0" />
	<path style="fill:none;stroke:red;stroke-width:1px;stroke-linecap:butt;stroke-linejoin:miter;stroke-opacity:1" d="M 811.905,182.232 820.113,172.851 z" id="boundary" inkscape:connector-curvature="0" />
	<path style="fill:none;stroke:red;stroke-width:1px;stroke-linecap:butt;stroke-linejoin:miter;stroke-opacity:1" d="M 817.768,599.669 825.976,609.05 z" id="boundary" inkscape:connector-curvature="0" />
	<path style="fill:none;stroke:red;stroke-width:1px;stroke-linecap:butt;stroke-linejoin:miter;stroke-opacity:1" d="M 820.113,172.851 829.494,164.643 z" id="boundary" inkscape:connector-curvature="0" />
	<path style="fill:none;stroke:red;stroke-width:1px;stroke-linecap:butt;stroke-linejoin:miter;stroke-opacity:1" d="M 825.976,609.05 835.357,617.258 z" id="boundary" inkscape:connector-curvature="0" />
	<path style="fill:none;stroke:red;stroke-width:1px;stroke-linecap:butt;stroke-linejoin:miter;stroke-opacity:1" d="M 829.494,164.643 837.702,155.262 z" id="boundary" inkscape:connector-curvature="0" />
	<path style="fill:none;stroke:red;stroke-width:1px;stroke-linecap:butt;stroke-linejoin:miter;stroke-opacity:1" d="M 835.357,617.258 843.565,626.638 z" id="boundary" inkscape:connector-curvature="0" />
	<path style="fill:none;stroke:red;stroke-width:1px;stroke-linecap:butt;stroke-linejoin:miter;stroke-opacity:1" d="M 837.702,155.262 847.083,147.054 z" id="boundary" inkscape:connector-curvature="0" />
	<path style="fill:none;stroke:red;stroke-width:1px;stroke-linecap:butt;stroke-linejoin:miter;stroke-opacity:1" d="M 843.565,626.638 852.946,634.846 z" id="boundary" inkscape:connector-curvature="0" />
	<path style="fill:none;stroke:red;stroke-width:1px;stroke-linecap:butt;stroke-linejoin:miter;stroke-opacity:1" d="M 847.083,147.054 855.291,137.674 z" id="boundary" inkscape:connector-curvature="0" />
	<path style="fill:none;stroke:red;stroke-width:1px;stroke-linecap:butt;stroke-linejoin:miter;stroke-opacity:1" d="M 852.946,634.846 861.154,644.227 z" id="boundary" inkscape:connector-curvature="0" />
	<path style="fill:none;stroke:red;stroke-width:1px;stroke-linecap:butt;stroke-linejoin:miter;stroke-opacity:1" d="M 855.291,137.674 864.671,129.466 z" id="boundary" inkscape:connector-curvature="0" />
	<path style="fill:none;stroke:red;stroke-width:1px;stroke-linecap:butt;stroke-linejoin:miter;stroke-opacity:1" d="M 861.154,644.227 870.534,652.435 z" id="boundary" inkscape:connector-curvature="0" />
	<path style="fill:none;stroke:red;stroke-width:1px;stroke-linecap:butt;stroke-linejoin:miter;stroke-opacity:1" d="M 864.671,129.466 872.879,120.085 z" id="boundary" inkscape:connector-curvature="0" />
	<path style="fill:none;stroke:red;stroke-width:1px;stroke-linecap:butt;stroke-linejoin:miter;stroke-opacity:1" d="M 870.534,652.435 878.742,661.816 z" id="boundary" inkscape:connector-curvature="0" />
	<path style="fill:none;stroke:red;stroke-width:1px;stroke-linecap:butt;stroke-linejoin:miter;stroke-opacity:1" d="M 872.879,120.085 882.26,111.877 z" id="boundary" inkscape:connector-curvature="0" />
	<path style="fill:none;stroke:red;stroke-width:1px;stroke-linecap:butt;stroke-linejoin:miter;stroke-opacity:1" d="M 878.742,661.816 888.123,670.024 z" id="boundary" inkscape:connector-curvature="0" />
	<path style="fill:none;stroke:red;stroke-width:1px;stroke-linecap:butt;stroke-linejoin:miter;stroke-opacity:1" d="M 882.26,111.877 890.468,102.496 z" id="boundary" inkscape:connector-curvature="0" />
	<path style="fill:none;stroke:red;stroke-width:1px;stroke-linecap:butt;stroke-linejoin:miter;stroke-opacity:1" d="M 888.123,670.024 896.331,679.404 z" id="boundary" inkscape:connector-curvature="0" />
	<path style="fill:none;stroke:red;stroke-width:1px;stroke-linecap:butt;stroke-linejoin:miter;stroke-opacity:1" d="M 890.468,102.496 899.849,94.2884 z" id="boundary" inkscape:connector-curvature="0" />
	<path style="fill:none;stroke:red;stroke-width:1px;stroke-linecap:butt;stroke-linejoin:miter;stroke-opacity:1" d="M 896.331,679.404 905.712,687.612 z" id="boundary" inkscape:connector-curvature="0" />
	<path style="fill:none;stroke:red;stroke-width:1px;stroke-linecap:butt;stroke-linejoin:miter;stroke-opacity:1" d="M 899.849,94.2884 908.057,84.9078 z" id="boundary" inkscape:connector-curvature="0" />
	<path style="fill:none;stroke:red;stroke-width:1px;stroke-linecap:butt;stroke-linejoin:miter;stroke-opacity:1" d="M 905.712,687.612 913.92,696.993 z" id="boundary" inkscape:connector-curvature="0" />
	<path style="fill:none;stroke:red;stroke-width:1px;stroke-linecap:butt;stroke-linejoin:miter;stroke-opacity:1" d="M 908.057,84.9078 917.437,76.6998 z" id="boundary" inkscape:connector-curvature="0" />
	<path style="fill:none;stroke:red;stroke-width:1px;stroke-linecap:butt;stroke-linejoin:miter;stroke-opacity:1" d="M 913.92,696.993 923.3,705.201 z" id="boundary" inkscape:connector-curvature="0" />
	<path style="fill:none;stroke:red;stroke-width:1px;stroke-linecap:butt;stroke-linejoin:miter;stroke-opacity:1" d="M 917.437,76.6998 925.645,67.3191 z" id="boundary" inkscape:connector-curvature="0" />
	<path style="fill:none;stroke:red;stroke-width:1px;stroke-linecap:butt;stroke-linejoin:miter;stroke-opacity:1" d="M 923.3,705.201 931.508,714.582 z" id="boundary" inkscape:connector-curvature="0" />
	<path style="fill:none;stroke:red;stroke-width:1px;stroke-linecap:butt;stroke-linejoin:miter;stroke-opacity:1" d="M 925.645,67.3191 935.026,59.1111 z" id="boundary" inkscape:connector-curvature="0" />
	<path style="fill:none;stroke:red;stroke-width:1px;stroke-linecap:butt;stroke-linejoin:miter;stroke-opacity:1" d="M 931.508,714.582 940.889,722.79 z" id="boundary" inkscape:connector-curvature="0" />
	<path style="fill:none;stroke:red;stroke-width:1px;stroke-linecap:butt;stroke-linejoin:miter;stroke-opacity:1" d="M 935.026,59.1111 943.234,49.7305 z" id="boundary" inkscape:connector-curvature="0" />
	<path style="fill:none;stroke:red;stroke-width:1px;stroke-linecap:butt;stroke-linejoin:miter;stroke-opacity:1" d="M 940.889,722.79 949.097,732.17 z" id="boundary" inkscape:connector-curvature="0" />
	<path style="fill:none;stroke:red;stroke-width:1px;stroke-linecap:butt;stroke-linejoin:miter;stroke-opacity:1" d="M 943.234,49.7305 952.615,41.5225 z" id="boundary" inkscape:connector-curvature="0" />
	<path style="fill:none;stroke:red;stroke-width:1px;stroke-linecap:butt;stroke-linejoin:miter;stroke-opacity:1" d="M 949.097,732.17 958.478,740.378 z" id="boundary" inkscape:connector-curvature="0" />
	<path style="fill:none;stroke:red;stroke-width:1px;stroke-linecap:butt;stroke-linejoin:miter;stroke-opacity:1" d="M 952.615,41.5225 960.823,32.1418 z" id="boundary" inkscape:connector-curvature="0" />
	<path style="fill:none;stroke:red;stroke-width:1px;stroke-linecap:butt;stroke-linejoin:miter;stroke-opacity:1" d="M 958.478,740.378 966.686,749.759 z" id="boundary" inkscape:connector-curvature="0" />
	<path style="fill:none;stroke:red;stroke-width:1px;stroke-linecap:butt;stroke-linejoin:miter;stroke-opacity:1" d="M 960.823,32.1418 970.203,23.9338 z" id="boundary" inkscape:connector-curvature="0" />
	<path style="fill:none;stroke:red;stroke-width:1px;stroke-linecap:butt;stroke-linejoin:miter;stroke-opacity:1" d="M 966.686,749.759 976.066,757.967 z" id="boundary" inkscape:connector-curvature="0" />
	<path style="fill:none;stroke:red;stroke-width:1px;stroke-linecap:butt;stroke-linejoin:miter;stroke-opacity:1" d="M 970.203,23.9338 978.411,14.5532 z" id="boundary" inkscape:connector-curvature="0" />
	<path style="fill:none;stroke:red;stroke-width:1px;stroke-linecap:butt;stroke-linejoin:miter;stroke-opacity:1" d="M 976.066,757.967 984.274,767.348 z" id="boundary" inkscape:connector-curvature="0" />
	<path style="fill:none;stroke:red;stroke-width:1px;stroke-linecap:butt;stroke-linejoin:miter;stroke-opacity:1" d="M 978.411,14.5532 987.792,6.34515 z" id="boundary" inkscape:connector-curvature="0" />
	<path style="fill:none;stroke:red;stroke-width:1px;stroke-linecap:butt;stroke-linejoin:miter;stroke-opacity:1" d="M 984.274,767.348 993.655,774.383 z" id="boundary" inkscape:connector-curvature="0" />
	<path style="fill:none;stroke:red;stroke-width:1px;stroke-linecap:butt;stroke-linejoin:miter;stroke-opacity:1" d="M 987.792,6.34515 996,15.7258 z" id="boundary" inkscape:connector-curvature="0" />
	<path style="fill:none;stroke:red;stroke-width:1px;stroke-linecap:butt;stroke-linejoin:miter;stroke-opacity:1" d="M 993.655,774.383 996,754.449 z" id="boundary" inkscape:connector-curvature="0" />
	<path style="fill:none;stroke:red;stroke-width:1px;stroke-linecap:butt;stroke-linejoin:miter;stroke-opacity:1" d="M 996,15.7258 996,27.4515 z" id="boundary" inkscape:connector-curvature="0" />
	<path style="fill:none;stroke:red;stroke-width:1px;stroke-linecap:butt;stroke-linejoin:miter;stroke-opacity:1" d="M 996,27.4515 996,39.1773 z" id="boundary" inkscape:connector-curvature="0" />
	<path style="fill:none;stroke:red;stroke-width:1px;stroke-linecap:butt;stroke-linejoin:miter;stroke-opacity:1" d="M 996,39.1773 996,50.9031 z" id="boundary" inkscape:connector-curvature="0" />
	<path style="fill:none;stroke:red;stroke-width:1px;stroke-linecap:butt;stroke-linejoin:miter;stroke-opacity:1" d="M 996,50.9031 996,62.6288 z" id="boundary" inkscape:connector-curvature="0" />
	<path style="fill:none;stroke:red;stroke-width:1px;stroke-linecap:butt;stroke-linejoin:miter;stroke-opacity:1" d="M 996,62.6288 996,74.3546 z" id="boundary" inkscape:connector-curvature="0" />
	<path style="fill:none;stroke:red;stroke-width:1px;stroke-linecap:butt;stroke-linejoin:miter;stroke-opacity:1" d="M 996,74.3546 996,86.0804 z" id="boundary" inkscape:connector-curvature="0" />
	<path style="fill:none;stroke:red;stroke-width:1px;stroke-linecap:butt;stroke-linejoin:miter;stroke-opacity:1" d="M 996,86.0804 996,97.8061 z" id="boundary" inkscape:connector-curvature="0" />
	<path style="fill:none;stroke:red;stroke-width:1px;stroke-linecap:butt;stroke-linejoin:miter;stroke-opacity:1" d="M 996,97.8061 996,109.532 z" id="boundary" inkscape:connector-curvature="0" />
	<path style="fill:none;stroke:red;stroke-width:1px;stroke-linecap:butt;stroke-linejoin:miter;stroke-opacity:1" d="M 996,109.532 996,121.258 z" id="boundary" inkscape:connector-curvature="0" />
	<path style="fill:none;stroke:red;stroke-width:1px;stroke-linecap:butt;stroke-linejoin:miter;stroke-opacity:1" d="M 996,121.258 996,132.983 z" id="boundary" inkscape:connector-curvature="0" />
	<path style="fill:none;stroke:red;stroke-width:1px;stroke-linecap:butt;stroke-linejoin:miter;stroke-opacity:1" d="M 996,132.983 996,144.709 z" id="boundary" inkscape:connector-curvature="0" />
	<path style="fill:none;stroke:red;stroke-width:1px;stroke-linecap:butt;stroke-linejoin:miter;stroke-opacity:1" d="M 996,144.709 996,156.435 z" id="boundary" inkscape:connector-curvature="0" />
	<path style="fill:none;stroke:red;stroke-width:1px;stroke-linecap:butt;stroke-linejoin:miter;stroke-opacity:1" d="M 996,156.435 996,168.161 z" id="boundary" inkscape:connector-curvature="0" />
	<path style="fill:none;stroke:red;stroke-width:1px;stroke-linecap:butt;stroke-linejoin:miter;stroke-opacity:1" d="M 996,168.161 996,179.887 z" id="boundary" inkscape:connector-curvature="0" />
	<path style="fill:none;stroke:red;stroke-width:1px;stroke-linecap:butt;stroke-linejoin:miter;stroke-opacity:1" d="M 996,179.887 996,191.612 z" id="boundary" inkscape:connector-curvature="0" />
	<path style="fill:none;stroke:red;stroke-width:1px;stroke-linecap:butt;stroke-linejoin:miter;stroke-opacity:1" d="M 996,191.612 996,203.338 z" id="boundary" inkscape:connector-curvature="0" />
	<path style="fill:none;stroke:red;stroke-width:1px;stroke-linecap:butt;stroke-linejoin:miter;stroke-opacity:1" d="M 996,203.338 996,215.064 z" id="boundary" inkscape:connector-curvature="0" />
	<path style="fill:none;stroke:red;stroke-width:1px;stroke-linecap:butt;stroke-linejoin:miter;stroke-opacity:1" d="M 996,215.064 996,226.79 z" id="boundary" inkscape:connector-curvature="0" />
	<path style="fill:none;stroke:red;stroke-width:1px;stroke-linecap:butt;stroke-linejoin:miter;stroke-opacity:1" d="M 996,226.79 996,238.515 z" id="boundary" inkscape:connector-curvature="0" />
	<path style="fill:none;stroke:red;stroke-width:1px;stroke-linecap:butt;stroke-linejoin:miter;stroke-opacity:1" d="M 996,238.515 996,250.241 z" id="boundary" inkscape:connector-curvature="0" />
	<path style="fill:none;stroke:red;stroke-width:1px;stroke-linecap:butt;stroke-linejoin:miter;stroke-opacity:1" d="M 996,250.241 996,261.967 z" id="boundary" inkscape:connector-curvature="0" />
	<path style="fill:none;stroke:red;stroke-width:1px;stroke-linecap:butt;stroke-linejoin:miter;stroke-opacity:1" d="M 996,261.967 996,273.693 z" id="boundary" inkscape:connector-curvature="0" />
	<path style="fill:none;stroke:red;stroke-width:1px;stroke-linecap:butt;stroke-linejoin:miter;stroke-opacity:1" d="M 996,273.693 996,285.418 z" id="boundary" inkscape:connector-curvature="0" />
	<path style="fill:none;stroke:red;stroke-width:1px;stroke-linecap:butt;stroke-linejoin:miter;stroke-opacity:1" d="M 996,285.418 996,297.144 z" id="boundary" inkscape:connector-curvature="0" />
	<path style="fill:none;stroke:red;stroke-width:1px;stroke-linecap:butt;stroke-linejoin:miter;stroke-opacity:1" d="M 996,297.144 996,308.87 z" id="boundary" inkscape:connector-curvature="0" />
	<path style="fill:none;stroke:red;stroke-width:1px;stroke-linecap:butt;stroke-linejoin:miter;stroke-opacity:1" d="M 996,308.87 996,320.596 z" id="boundary" inkscape:connector-curvature="0" />
	<path style="fill:none;stroke:red;stroke-width:1px;stroke-linecap:butt;stroke-linejoin:miter;stroke-opacity:1" d="M 996,320.596 996,332.322 z" id="boundary" inkscape:connector-curvature="0" />
	<path style="fill:none;stroke:red;stroke-width:1px;stroke-linecap:butt;stroke-linejoin:miter;stroke-opacity:1" d="M 996,332.322 996,344.047 z" id="boundary" inkscape:connector-curvature="0" />
	<path style="fill:none;stroke:red;stroke-width:1px;stroke-linecap:butt;stroke-linejoin:miter;stroke-opacity:1" d="M 996,344.047 996,355.773 z" id="boundary" inkscape:connector-curvature="0" />
	<path style="fill:none;stroke:red;stroke-width:1px;stroke-linecap:butt;stroke-linejoin:miter;stroke-opacity:1" d="M 996,355.773 996,367.499 z" id="boundary" inkscape:connector-curvature="0" />
	<path style="fill:none;stroke:red;stroke-width:1px;stroke-linecap:butt;stroke-linejoin:miter;stroke-opacity:1" d="M 996,367.499 996,379.225 z" id="boundary" inkscape:connector-curvature="0" />
	<path style="fill:none;stroke:red;stroke-width:1px;stroke-linecap:butt;stroke-linejoin:miter;stroke-opacity:1" d="M 996,379.225 996,390.95 z" id="boundary" inkscape:connector-curvature="0" />
	<path style="fill:none;stroke:red;stroke-width:1px;stroke-linecap:butt;stroke-linejoin:miter;stroke-opacity:1" d="M 996,390.95 996,402.676 z" id="boundary" inkscape:connector-curvature="0" />
	<path style="fill:none;stroke:red;stroke-width:1px;stroke-linecap:butt;stroke-linejoin:miter;stroke-opacity:1" d="M 996,402.676 996,414.402 z" id="boundary" inkscape:connector-curvature="0" />
	<path style="fill:none;stroke:red;stroke-width:1px;stroke-linecap:butt;stroke-linejoin:miter;stroke-opacity:1" d="M 996,414.402 996,426.128 z" id="boundary" inkscape:connector-curvature="0" />
	<path style="fill:none;stroke:red;stroke-width:1px;stroke-linecap:butt;stroke-linejoin:miter;stroke-opacity:1" d="M 996,426.128 996,437.853 z" id="boundary" inkscape:connector-curvature="0" />
	<path style="fill:none;stroke:red;stroke-width:1px;stroke-linecap:butt;stroke-linejoin:miter;stroke-opacity:1" d="M 996,437.853 996,449.579 z" id="boundary" inkscape:connector-curvature="0" />
	<path style="fill:none;stroke:red;stroke-width:1px;stroke-linecap:butt;stroke-linejoin:miter;stroke-opacity:1" d="M 996,449.579 996,461.305 z" id="boundary" inkscape:connector-curvature="0" />
	<path style="fill:none;stroke:red;stroke-width:1px;stroke-linecap:butt;stroke-linejoin:miter;stroke-opacity:1" d="M 996,461.305 996,473.031 z" id="boundary" inkscape:connector-curvature="0" />
	<path style="fill:none;stroke:red;stroke-width:1px;stroke-linecap:butt;stroke-linejoin:miter;stroke-opacity:1" d="M 996,473.031 996,484.757 z" id="boundary" inkscape:connector-curvature="0" />
	<path style="fill:none;stroke:red;stroke-width:1px;stroke-linecap:butt;stroke-linejoin:miter;stroke-opacity:1" d="M 996,484.757 996,496.482 z" id="boundary" inkscape:connector-curvature="0" />
	<path style="fill:none;stroke:red;stroke-width:1px;stroke-linecap:butt;stroke-linejoin:miter;stroke-opacity:1" d="M 996,496.482 996,508.208 z" id="boundary" inkscape:connector-curvature="0" />
	<path style="fill:none;stroke:red;stroke-width:1px;stroke-linecap:butt;stroke-linejoin:miter;stroke-opacity:1" d="M 996,508.208 996,519.934 z" id="boundary" inkscape:connector-curvature="0" />
	<path style="fill:none;stroke:red;stroke-width:1px;stroke-linecap:butt;stroke-linejoin:miter;stroke-opacity:1" d="M 996,519.934 996,531.66 z" id="boundary" inkscape:connector-curvature="0" />
	<path style="fill:none;stroke:red;stroke-width:1px;stroke-linecap:butt;stroke-linejoin:miter;stroke-opacity:1" d="M 996,531.66 996,543.385 z" id="boundary" inkscape:connector-curvature="0" />
	<path style="fill:none;stroke:red;stroke-width:1px;stroke-linecap:butt;stroke-linejoin:miter;stroke-opacity:1" d="M 996,543.385 996,555.111 z" id="boundary" inkscape:connector-curvature="0" />
	<path style="fill:none;stroke:red;stroke-width:1px;stroke-linecap:butt;stroke-linejoin:miter;stroke-opacity:1" d="M 996,555.111 996,566.837 z" id="boundary" inkscape:connector-curvature="0" />
	<path style="fill:none;stroke:red;stroke-width:1px;stroke-linecap:butt;stroke-linejoin:miter;stroke-opacity:1" d="M 996,566.837 996,578.563 z" id="boundary" inkscape:connector-curvature="0" />
	<path style="fill:none;stroke:red;stroke-width:1px;stroke-linecap:butt;stroke-linejoin:miter;stroke-opacity:1" d="M 996,578.563 996,590.288 z" id="boundary" inkscape:connector-curvature="0" />
	<path style="fill:none;stroke:red;stroke-width:1px;stroke-linecap:butt;stroke-linejoin:miter;stroke-opacity:1" d="M 996,590.288 996,602.014 z" id="boundary" inkscape:connector-curvature="0" />
	<path style="fill:none;stroke:red;stroke-width:1px;stroke-linecap:butt;stroke-linejoin:miter;stroke-opacity:1" d="M 996,602.014 996,613.74 z" id="boundary" inkscape:connector-curvature="0" />
	<path style="fill:none;stroke:red;stroke-width:1px;stroke-linecap:butt;stroke-linejoin:miter;stroke-opacity:1" d="M 996,613.74 996,625.466 z" id="boundary" inkscape:connector-curvature="0" />
	<path style="fill:none;stroke:red;stroke-width:1px;stroke-linecap:butt;stroke-linejoin:miter;stroke-opacity:1" d="M 996,625.466 996,637.191 z" id="boundary" inkscape:connector-curvature="0" />
	<path style="fill:none;stroke:red;stroke-width:1px;stroke-linecap:butt;stroke-linejoin:miter;stroke-opacity:1" d="M 996,637.191 996,648.917 z" id="boundary" inkscape:connector-curvature="0" />
	<path style="fill:none;stroke:red;stroke-width:1px;stroke-linecap:butt;stroke-linejoin:miter;stroke-opacity:1" d="M 996,648.917 996,660.643 z" id="boundary" inkscape:connector-curvature="0" />
	<path style="fill:none;stroke:red;stroke-width:1px;stroke-linecap:butt;stroke-linejoin:miter;stroke-opacity:1" d="M 996,660.643 996,672.369 z" id="boundary" inkscape:connector-curvature="0" />
	<path style="fill:none;stroke:red;stroke-width:1px;stroke-linecap:butt;stroke-linejoin:miter;stroke-opacity:1" d="M 996,672.369 996,684.095 z" id="boundary" inkscape:connector-curvature="0" />
	<path style="fill:none;stroke:red;stroke-width:1px;stroke-linecap:butt;stroke-linejoin:miter;stroke-opacity:1" d="M 996,684.095 996,695.82 z" id="boundary" inkscape:connector-curvature="0" />
	<path style="fill:none;stroke:red;stroke-width:1px;stroke-linecap:butt;stroke-linejoin:miter;stroke-opacity:1" d="M 996,695.82 996,707.546 z" id="boundary" inkscape:connector-curvature="0" />
	<path style="fill:none;stroke:red;stroke-width:1px;stroke-linecap:butt;stroke-linejoin:miter;stroke-opacity:1" d="M 996,707.546 996,719.272 z" id="boundary" inkscape:connector-curvature="0" />
	<path style="fill:none;stroke:red;stroke-width:1px;stroke-linecap:butt;stroke-linejoin:miter;stroke-opacity:1" d="M 996,719.272 996,730.998 z" id="boundary" inkscape:connector-curvature="0" />
	<path style="fill:none;stroke:red;stroke-width:1px;stroke-linecap:butt;stroke-linejoin:miter;stroke-opacity:1" d="M 996,730.998 996,742.723 z" id="boundary" inkscape:connector-curvature="0" />
	<path style="fill:none;stroke:red;stroke-width:1px;stroke-linecap:butt;stroke-linejoin:miter;stroke-opacity:1" d="M 996,742.723 996,754.449 z" id="boundary" inkscape:connector-curvature="0" />
	<circle cx="4" cy="4" r="4" fill="#0" id="circle0"/>
	<circle cx="4" cy="15.7258" r="4" fill="#0" id="circle1"/>
	<circle cx="4" cy="27.4515" r="4" fill="#0" id="circle2"/>
	<circle cx="4" cy="39.1773" r="4" fill="#0" id="circle3"/>
	<circle cx="4" cy="50.9031" r="4" fill="#0" id="circle4"/>
	<circle cx="4" cy="62.6288" r="4" fill="#0" id="circle5"/>
	<circle cx="4" cy="74.3546" r="4" fill="#0" id="circle6"/>
	<circle cx="4" cy="86.0804" r="4" fill="#0" id="circle7"/>
	<circle cx="4" cy="97.8061" r="4" fill="#0" id="circle8"/>
	<circle cx="4" cy="109.532" r="4" fill="#0" id="circle9"/>
	<circle cx="4" cy="121.258" r="4" fill="#0" id="circle10"/>
	<circle cx="4" cy="132.983" r="4" fill="#0" id="circle11"/>
	<circle cx="4" cy="144.709" r="4" fill="#0" id="circle12"/>
	<circle cx="4" cy="156.435" r="4" fill="#0" id="circle13"/>
	<circle cx="4" cy="168.161" r="4" fill="#0" id="circle14"/>
	<circle cx="4" cy="179.887" r="4" fill="#0" id="circle15"/>
	<circle cx="4" cy="191.612" r="4" fill="#0" id="circle16"/>
	<circle cx="4" cy="203.338" r="4" fill="#0" id="circle17"/>
	<circle cx="4" cy="215.064" r="4" fill="#0" id="circle18"/>
	<circle cx="4" cy="226.79" r="4" fill="#0" id="circle19"/>
	<circle cx="4" cy="238.515" r="4" fill="#0" id="circle20"/>
	<circle cx="4" cy="250.241" r="4" fill="#0" id="circle21"/>
	<circle cx="4" cy="261.967" r="4" fill="#0" id="circle22"/>
	<circle cx="4" cy="273.693" r="4" fill="#0" id="circle23"/>
	<circle cx="4" cy="285.418" r="4" fill="#0" id="circle24"/>
	<circle cx="4" cy="297.144" r="4" fill="#0" id="circle25"/>
	<circle cx="4" cy="308.87" r="4" fill="#0" id="circle26"/>
	<circle cx="4" cy="320.596" r="4" fill="#0" id="circle27"/>
	<circle cx="4" cy="332.322" r="4" fill="#0" id="circle28"/>
	<circle cx="4" cy="344.047" r="4" fill="#0" id="circle29"/>
	<circle cx="4" cy="355.773" r="4" fill="#0" id="circle30"/>
	<circle cx="4" cy="367.499" r="4" fill="#0" id="circle31"/>
	<circle cx="4" cy="379.225" r="4" fill="#0" id="circle32"/>
	<circle cx="4" cy="390.95" r="4" fill="#0" id="circle33"/>
	<circle cx="4" cy="402.676" r="4" fill="#0" id="circle34"/>
	<circle cx="4" cy="414.402" r="4" fill="#0" id="circle35"/>
	<circle cx="4" cy="426.128" r="4" fill="#0" id="circle36"/>
	<circle cx="4" cy="437.853" r="4" fill="#0" id="circle37"/>
	<circle cx="4" cy="449.579" r="4" fill="#0" id="circle38"/>
	<circle cx="4" cy="461.305" r="4" fill="#0" id="circle39"/>
	<circle cx="4" cy="473.031" r="4" fill="#0" id="circle40"/>
	<circle cx="4" cy="484.757" r="4" fill="#0" id="circle41"/>
	<circle cx="4" cy="496.482" r="4" fill="#0" id="circle42"/>
	<circle cx="4" cy="508.208" r="4" fill="#0" id="circle43"/>
	<circle cx="4" cy="519.934" r="4" fill="#0" id="circle44"/>
	<circle cx="4" cy="531.66" r="4" fill="#0" id="circle45"/>
	<circle cx="4" cy="543.385" r="4" fill="#0" id="circle46"/>
	<circle cx="4" cy="555.111" r="4" fill="#0" id="circle47"/>
	<circle cx="4" cy="566.837" r="4" fill="#0" id="circle48"/>
	<circle cx="4" cy="578.563" r="4" fill="#0" id="circle49"/>
	<circle cx="4" cy="590.288" r="4" fill="#0" id="circle50"/>
	<circle cx="4" cy="602.014" r="4" fill="#0" id="circle51"/>
	<circle cx="4" cy="613.74" r="4" fill="#0" id="circle52"/>
	<circle cx="4" cy="625.466" r="4" fill="#0" id="circle53"/>
	<circle cx="4" cy="637.191" r="4" fill="#0" id="circle54"/>
	<circle cx="4" cy="648.917" r="4" fill="#0" id="circle55"/>
	<circle cx="4" cy="660.643" r="4" fill="#0" id="circle56"/>
	<circle cx="4" cy="672.369" r="4" fill="#0" id="circle57"/>
	<circle cx="4" cy="684.095" r="4" fill="#0" id="circle58"/>
	<circle cx="4" cy="695.82" r="4" fill="#0" id="circle59"/>
	<circle cx="4" cy="707.546" r="4" fill="#0" id="circle60"/>
	<circle cx="15.7258" cy="8.69031" r="4" fill="#0" id="circle61"/>
	<circle cx="15.7258" cy="711.064" r="4" fill="#0" id="circle62"/>
	<circle cx="22.7612" cy="18.0709" r="4" fill="#0" id="circle63"/>
	<circle cx="25.1064" cy="704.028" r="4" fill="#0" id="circle64"/>
	<circle cx="34.487" cy="21.5887" r="4" fill="#0" id="circle65"/>
	<circle cx="36.8322" cy="698.165" r="4" fill="#0" id="circle66"/>
	<circle cx="42.695" cy="30.9693" r="4" fill="#0" id="circle67"/>
	<circle cx="46.2128" cy="687.612" r="4" fill="#0" id="circle68"/>
	<circle cx="52.0757" cy="39.1773" r="4" fill="#0" id="circle69"/>
	<circle cx="57.9385" cy="681.749" r="4" fill="#0" id="circle70"/>
	<circle cx="61.4563" cy="47.3853" r="4" fill="#0" id="circle71"/>
	<circle cx="68.4917" cy="675.887" r="4" fill="#0" id="circle72"/>
	<circle cx="72.0095" cy="53.2482" r="4" fill="#0" id="circle73"/>
	<circle cx="77.8723" cy="668.851" r="4" fill="#0" id="circle74"/>
	<circle cx="80.2175" cy="62.6288" r="4" fill="#0" id="circle75"/>
	<circle cx="89.5981" cy="70.8369" r="4" fill="#0" id="circle76"/>
	<circle cx="89.5981" cy="662.988" r="4" fill="#0" id="circle77"/>
	<circle cx="98.9787" cy="652.435" r="4" fill="#0" id="circle78"/>
	<circle cx="100.151" cy="76.6998" r="4" fill="#0" id="circle79"/>
	<circle cx="109.532" cy="84.9078" r="4" fill="#0" id="circle80"/>
	<circle cx="110.704" cy="646.572" r="4" fill="#0" id="circle81"/>
	<circle cx="116.567" cy="94.2884" r="4" fill="#0" id="circle82"/>
	<circle cx="121.258" cy="640.709" r="4" fill="#0" id="circle83"/>
	<circle cx="125.948" cy="101.324" r="4" fill="#0" id="circle84"/>
	<circle cx="130.638" cy="633.674" r="4" fill="#0" id="circle85"/>
	<circle cx="136.501" cy="107.187" r="4" fill="#0" id="circle86"/>
	<circle cx="142.364" cy="627.811" r="4" fill="#0" id="circle87"/>
	<circle cx="145.882" cy="115.395" r="4" fill="#0" id="circle88"/>
	<circle cx="151.745" cy="617.258" r="4" fill="#0" id="circle89"/>
	<circle cx="154.09" cy="124.775" r="4" fill="#0" id="circle90"/>
	<circle cx="163.47" cy="132.983" r="4" fill="#0" id="circle91"/>
	<circle cx="163.47" cy="611.395" r="4" fill="#0" id="circle92"/>
	<circle cx="172.851" cy="141.191" r="4" fill="#0" id="circle93"/>
	<circle cx="174.024" cy="605.532" r="4" fill="#0" id="circle94"/>
	<circle cx="183.404" cy="147.054" r="4" fill="#0" id="circle95"/>
	<circle cx="184.577" cy="599.669" r="4" fill="#0" id="circle96"/>
	<circle cx="191.612" cy="156.435" r="4" fill="#0" id="circle97"/>
	<circle cx="195.13" cy="592.634" r="4" fill="#0" id="circle98"/>
	<circle cx="200.993" cy="164.643" r="4" fill="#0" id="circle99"/>
	<circle cx="206.856" cy="586.771" r="4" fill="#0" id="circle100"/>
	<circle cx="211.546" cy="170.506" r="4" fill="#0" id="circle101"/>
	<circle cx="216.236" cy="576.217" r="4" fill="#0" id="circle102"/>
	<circle cx="220.927" cy="178.714" r="4" fill="#0" id="circle103"/>
	<circle cx="227.962" cy="188.095" r="4" fill="#0" id="circle104"/>
	<circle cx="227.962" cy="570.355" r="4" fill="#0" id="circle105"/>
	<circle cx="237.343" cy="195.13" r="4" fill="#0" id="circle106"/>
	<circle cx="238.515" cy="564.492" r="4" fill="#0" id="circle107"/>
	<circle cx="247.896" cy="200.993" r="4" fill="#0" id="circle108"/>
	<circle cx="247.896" cy="557.456" r="4" fill="#0" id="circle109"/>
	<circle cx="257.277" cy="209.201" r="4" fill="#0" id="circle110"/>
	<circle cx="259.622" cy="551.593" r="4" fill="#0" id="circle111"/>
	<circle cx="265.485" cy="218.582" r="4" fill="#0" id="circle112"/>
	<circle cx="269.002" cy="541.04" r="4" fill="#0" id="circle113"/>
	<circle cx="274.865" cy="226.79" r="4" fill="#0" id="circle114"/>
	<circle cx="280.728" cy="535.177" r="4" fill="#0" id="circle115"/>
	<circle cx="285.418" cy="232.652" r="4" fill="#0" id="circle116"/>
	<circle cx="291.281" cy="529.314" r="4" fill="#0" id="circle117"/>
	<circle cx="294.799" cy="240.861" r="4" fill="#0" id="circle118"/>
	<circle cx="300.662" cy="522.279" r="4" fill="#0" id="circle119"/>
	<circle cx="303.007" cy="250.241" r="4" fill="#0" id="circle120"/>
	<circle cx="312.388" cy="258.449" r="4" fill="#0" id="circle121"/>
	<circle cx="312.388" cy="516.416" r="4" fill="#0" id="circle122"/>
	<circle cx="321.768" cy="505.863" r="4" fill="#0" id="circle123"/>
	<circle cx="322.941" cy="264.312" r="4" fill="#0" id="circle124"/>
	<circle cx="332.322" cy="272.52" r="4" fill="#0" id="circle125"/>
	<circle cx="333.494" cy="500" r="4" fill="#0" id="circle126"/>
	<circle cx="344.047" cy="276.038" r="4" fill="#0" id="circle127"/>
	<circle cx="345.22" cy="500" r="4" fill="#0" id="circle128"/>
	<circle cx="355.773" cy="276.038" r="4" fill="#0" id="circle129"/>
	<circle cx="356.946" cy="494.137" r="4" fill="#0" id="circle130"/>
	<circle cx="367.499" cy="276.038" r="4" fill="#0" id="circle131"/>
	<circle cx="368.671" cy="494.137" r="4" fill="#0" id="circle132"/>
	<circle cx="379.225" cy="276.038" r="4" fill="#0" id="circle133"/>
	<circle cx="380.397" cy="494.137" r="4" fill="#0" id="circle134"/>
	<circle cx="390.95" cy="276.038" r="4" fill="#0" id="circle135"/>
	<circle cx="392.123" cy="488.274" r="4" fill="#0" id="circle136"/>
	<circle cx="402.676" cy="276.038" r="4" fill="#0" id="circle137"/>
	<circle cx="403.849" cy="488.274" r="4" fill="#0" id="circle138"/>
	<circle cx="414.402" cy="276.038" r="4" fill="#0" id="circle139"/>
	<circle cx="415.574" cy="488.274" r="4" fill="#0" id="circle140"/>
	<circle cx="426.128" cy="273.693" r="4" fill="#0" id="circle141"/>
	<circle cx="427.3" cy="482.411" r="4" fill="#0" id="circle142"/>
	<circle cx="437.853" cy="267.83" r="4" fill="#0" id="circle143"/>
	<circle cx="439.026" cy="482.411" r="4" fill="#0" id="circle144"/>
	<circle cx="449.579" cy="261.967" r="4" fill="#0" id="circle145"/>
	<circle cx="450.752" cy="482.411" r="4" fill="#0" id="circle146"/>
	<circle cx="458.96" cy="252.586" r="4" fill="#0" id="circle147"/>
	<circle cx="462.478" cy="476.548" r="4" fill="#0" id="circle148"/>
	<circle cx="470.686" cy="246.723" r="4" fill="#0" id="circle149"/>
	<circle cx="474.203" cy="476.548" r="4" fill="#0" id="circle150"/>
	<circle cx="481.239" cy="240.861" r="4" fill="#0" id="circle151"/>
	<circle cx="485.929" cy="476.548" r="4" fill="#0" id="circle152"/>
	<circle cx="491.792" cy="234.998" r="4" fill="#0" id="circle153"/>
	<circle cx="497.655" cy="470.686" r="4" fill="#0" id="circle154"/>
	<circle cx="502.345" cy="229.135" r="4" fill="#0" id="circle155"/>
	<circle cx="509.381" cy="470.686" r="4" fill="#0" id="circle156"/>
	<circle cx="512.898" cy="223.272" r="4" fill="#0" id="circle157"/>
	<circle cx="521.106" cy="470.686" r="4" fill="#0" id="circle158"/>
	<circle cx="523.452" cy="217.409" r="4" fill="#0" id="circle159"/>
	<circle cx="532.832" cy="470.686" r="4" fill="#0" id="circle160"/>
	<circle cx="534.005" cy="223.272" r="4" fill="#0" id="circle161"/>
	<circle cx="543.385" cy="464.823" r="4" fill="#0" id="circle162"/>
	<circle cx="544.558" cy="229.135" r="4" fill="#0" id="circle163"/>
	<circle cx="555.111" cy="464.823" r="4" fill="#0" id="circle164"/>
	<circle cx="556.284" cy="232.652" r="4" fill="#0" id="circle165"/>
	<circle cx="566.837" cy="238.515" r="4" fill="#0" id="circle166"/>
	<circle cx="566.837" cy="464.823" r="4" fill="#0" id="circle167"/>
	<circle cx="577.39" cy="458.96" r="4" fill="#0" id="circle168"/>
	<circle cx="578.563" cy="243.206" r="4" fill="#0" id="circle169"/>
	<circle cx="585.598" cy="252.586" r="4" fill="#0" id="circle170"/>
	<circle cx="589.116" cy="458.96" r="4" fill="#0" id="circle171"/>
	<circle cx="597.324" cy="256.104" r="4" fill="#0" id="circle172"/>
	<circle cx="600.842" cy="458.96" r="4" fill="#0" id="circle173"/>
	<circle cx="607.877" cy="261.967" r="4" fill="#0" id="circle174"/>
	<circle cx="611.395" cy="453.097" r="4" fill="#0" id="circle175"/>
	<circle cx="617.258" cy="270.175" r="4" fill="#0" id="circle176"/>
	<circle cx="623.121" cy="453.097" r="4" fill="#0" id="circle177"/>
	<circle cx="627.811" cy="276.038" r="4" fill="#0" id="circle178"/>
	<circle cx="634.846" cy="453.097" r="4" fill="#0" id="circle179"/>
	<circle cx="639.537" cy="276.038" r="4" fill="#0" id="circle180"/>
	<circle cx="645.4" cy="447.234" r="4" fill="#0" id="circle181"/>
	<circle cx="651.262" cy="276.038" r="4" fill="#0" id="circle182"/>
	<circle cx="657.125" cy="447.234" r="4" fill="#0" id="circle183"/>
	<circle cx="662.988" cy="276.038" r="4" fill="#0" id="circle184"/>
	<circle cx="668.851" cy="450.752" r="4" fill="#0" id="circle185"/>
	<circle cx="674.714" cy="276.038" r="4" fill="#0" id="circle186"/>
	<circle cx="678.232" cy="458.96" r="4" fill="#0" id="circle187"/>
	<circle cx="685.267" cy="468.34" r="4" fill="#0" id="circle188"/>
	<circle cx="686.44" cy="276.038" r="4" fill="#0" id="circle189"/>
	<circle cx="694.648" cy="476.548" r="4" fill="#0" id="circle190"/>
	<circle cx="698.165" cy="276.038" r="4" fill="#0" id="circle191"/>
	<circle cx="702.856" cy="485.929" r="4" fill="#0" id="circle192"/>
	<circle cx="709.891" cy="276.038" r="4" fill="#0" id="circle193"/>
	<circle cx="712.236" cy="494.137" r="4" fill="#0" id="circle194"/>
	<circle cx="720.444" cy="503.518" r="4" fill="#0" id="circle195"/>
	<circle cx="721.617" cy="271.348" r="4" fill="#0" id="circle196"/>
	<circle cx="729.825" cy="511.726" r="4" fill="#0" id="circle197"/>
	<circle cx="730.998" cy="261.967" r="4" fill="#0" id="circle198"/>
	<circle cx="738.033" cy="521.106" r="4" fill="#0" id="circle199"/>
	<circle cx="740.378" cy="252.586" r="4" fill="#0" id="circle200"/>
	<circle cx="747.414" cy="529.314" r="4" fill="#0" id="circle201"/>
	<circle cx="749.759" cy="243.206" r="4" fill="#0" id="circle202"/>
	<circle cx="755.622" cy="538.695" r="4" fill="#0" id="circle203"/>
	<circle cx="759.139" cy="234.998" r="4" fill="#0" id="circle204"/>
	<circle cx="765.002" cy="546.903" r="4" fill="#0" id="circle205"/>
	<circle cx="767.348" cy="225.617" r="4" fill="#0" id="circle206"/>
	<circle cx="773.21" cy="556.284" r="4" fill="#0" id="circle207"/>
	<circle cx="776.728" cy="217.409" r="4" fill="#0" id="circle208"/>
	<circle cx="782.591" cy="564.492" r="4" fill="#0" id="circle209"/>
	<circle cx="784.936" cy="208.028" r="4" fill="#0" id="circle210"/>
	<circle cx="790.799" cy="573.872" r="4" fill="#0" id="circle211"/>
	<circle cx="794.317" cy="199.82" r="4" fill="#0" id="circle212"/>
	<circle cx="800.18" cy="582.08" r="4" fill="#0" id="circle213"/>
	<circle cx="802.525" cy="190.44" r="4" fill="#0" id="circle214"/>
	<circle cx="808.388" cy="591.461" r="4" fill="#0" id="circle215"/>
	<circle cx="811.905" cy="182.232" r="4" fill="#0" id="circle216"/>
	<circle cx="817.768" cy="599.669" r="4" fill="#0" id="circle217"/>
	<circle cx="820.113" cy="172.851" r="4" fill="#0" id="circle218"/>
	<circle cx="825.976" cy="609.05" r="4" fill="#0" id="circle219"/>
	<circle cx="829.494" cy="164.643" r="4" fill="#0" id="circle220"/>
	<circle cx="835.357" cy="617.258" r="4" fill="#0" id="circle221"/>
	<circle cx="837.702" cy="155.262" r="4" fill="#0" id="circle222"/>
	<circle cx="843.565" cy="626.638" r="4" fill="#0" id="circle223"/>
	<circle cx="847.083" cy="147.054" r="4" fill="#0" id="circle224"/>
	<circle cx="852.946" cy="634.846" r="4" fill="#0" id="circle225"/>
	<circle cx="855.291" cy="137.674" r="4" fill="#0" id="circle226"/>
	<circle cx="861.154" cy="644.227" r="4" fill="#0" id="circle227"/>
	<circle cx="864.671" cy="129.466" r="4" fill="#0" id="circle228"/>
	<circle cx="870.534" cy="652.435" r="4" fill="#0" id="circle229"/>
	<circle cx="872.879" cy="120.085" r="4" fill="#0" id="circle230"/>
	<circle cx="878.742" cy="661.816" r="4" fill="#0" id="circle231"/>
	<circle cx="882.26" cy="111.877" r="4" fill="#0" id="circle232"/>
	<circle cx="888.123" cy="670.024" r="4" fill="#0" id="circle233"/>
	<circle cx="890.468" cy="102.496" r="4" fill="#0" id="circle234"/>
	<circle cx="896.331" cy="679.404" r="4" fill="#0" id="circle235"/>
	<circle cx="899.849" cy="94.2884" r="4" fill="#0" id="circle236"/>
	<circle cx="905.712" cy="687.612" r="4" fill="#0" id="circle237"/>
	<circle cx="908.057" cy="84.9078" r="4" fill="#0" id="circle238"/>
	<circle cx="913.92" cy="696.993" r="4" fill="#0" id="circle239"/>
	<circle cx="917.437" cy="76.6998" r="4" fill="#0" id="circle240"/>
	<circle cx="923.3" cy="705.201" r="4" fill="#0" id="circle241"/>
	<circle cx="925.645" cy="67.3191" r="4" fill="#0" id="circle242"/>
	<circle cx="931.508" cy="714.582" r="4" fill="#0" id="circle243"/>
	<circle cx="935.026" cy="59.1111" r="4" fill="#0" id="circle244"/>
	<circle cx="940.889" cy="722.79" r="4" fill="#0" id="circle245"/>
	<circle cx="943.234" cy="49.7305" r="4" fill="#0" id="circle246"/>
	<circle cx="949.097" cy="732.17" r="4" fill="#0" id="circle247"/>
	<circle cx="952.615" cy="41.5225" r="4" fill="#0" id="circle248"/>
	<circle cx="958.478" cy="740.378" r="4" fill="#0" id="circle249"/>
	<circle cx="960.823" cy="32.1418" r="4" fill="#0" id="circle250"/>
	<circle cx="966.686" cy="749.759" r="4" fill="#0" id="circle251"/>
	<circle cx="970.203" cy="23.9338" r="4" fill="#0" id="circle252"/>
	<circle cx="976.066" cy="757.967" r="4" fill="#0" id="circle253"/>
	<circle cx="978.411" cy="14.5532" r="4" fill="#0" id="circle254"/>
	<circle cx="984.274" cy="767.348" r="4" fill="#0" id="circle255"/>
	<circle cx="987.792" cy="6.34515" r="4" fill="#0" id="circle256"/>
	<circle cx="993.655" cy="774.383" r="4" fill="#0" id="circle257"/>
	<circle cx="996" cy="15.7258" r="4" fill="#0" id="circle258"/>
	<circle cx="996" cy="27.4515" r="4" fill="#0" id="circle259"/>
	<circle cx="996" cy="39.1773" r="4" fill="#0" id="circle260"/>
	<circle cx="996" cy="50.9031" r="4" fill="#0" id="circle261"/>
	<circle cx="996" cy="62.6288" r="4" fill="#0" id="circle262"/>
	<circle cx="996" cy="74.3546" r="4" fill="#0" id="circle263"/>
	<circle cx="996" cy="86.0804" r="4" fill="#0" id="circle264"/>
	<circle cx="996" cy="97.8061" r="4" fill="#0" id="circle265"/>
	<circle cx="996" cy="109.532" r="4" fill="#0" id="circle266"/>
	<circle cx="996" cy="121.258" r="4" fill="#0" id="circle267"/>
	<circle cx="996" cy="132.983" r="4" fill="#0" id="circle268"/>
	<circle cx="996" cy="144.709" r="4" fill="#0" id="circle269"/>
	<circle cx="996" cy="156.435" r="4" fill="#0" id="circle270"/>
	<circle cx="996" cy="168.161" r="4" fill="#0" id="circle271"/>
	<circle cx="996" cy="179.887" r="4" fill="#0" id="circle272"/>
	<circle cx="996" cy="191.612" r="4" fill="#0" id="circle273"/>
	<circle cx="996" cy="203.338" r="4" fill="#0" id="circle274"/>
	<circle cx="996" cy="215.064" r="4" fill="#0" id="circle275"/>
	<circle cx="996" cy="226.79" r="4" fill="#0" id="circle276"/>
	<circle cx="996" cy="238.515" r="4" fill="#0" id="circle277"/>
	<circle cx="996" cy="250.241" r="4" fill="#0" id="circle278"/>
	<circle cx="996" cy="261.967" r="4" fill="#0" id="circle279"/>
	<circle cx="996" cy="273.693" r="4" fill="#0" id="circle280"/>
	<circle cx="996" cy="285.418" r="4" fill="#0" id="circle281"/>
	<circle cx="996" cy="297.144" r="4" fill="#0" id="circle282"/>
	<circle cx="996" cy="308.87" r="4" fill="#0" id="circle283"/>
	<circle cx="996" cy="320.596" r="4" fill="#0" id="circle284"/>
	<circle cx="996" cy="332.322" r="4" fill="#0" id="circle285"/>
	<circle cx="996" cy="344.047" r="4" fill="#0" id="circle286"/>
	<circle cx="996" cy="355.773" r="4" fill="#0" id="circle287"/>
	<circle cx="996" cy="367.499" r="4" fill="#0" id="circle288"/>
	<circle cx="996" cy="379.225" r="4" fill="#0" id="circle289"/>
	<circle cx="996" cy="390.95" r="4" fill="#0" id="circle290"/>
	<circle cx="996" cy="402.676" r="4" fill="#0" id="circle291"/>
	<circle cx="996" cy="414.402" r="4" fill="#0" id="circle292"/>
	<circle cx="996" cy="426.128" r="4" fill="#0" id="circle293"/>
	<circle cx="996" cy="437.853" r="4" fill="#0" id="circle294"/>
	<circle cx="996" cy="449.579" r="4" fill="#0" id="circle295"/>
	<circle cx="996" cy="461.305" r="4" fill="#0" id="circle296"/>
	<circle cx="996" cy="473.031" r="4" fill="#0" id="circle297"/>
	<circle cx="996" cy="484.757" r="4" fill="#0" id="circle298"/>
	<circle cx="996" cy="496.482" r="4" fill="#0" id="circle299"/>
	<circle cx="996" cy="508.208" r="4" fill="#0" id="circle300"/>
	<circle cx="996" cy="519.934" r="4" fill="#0" id="circle301"/>
	<circle cx="996" cy="531.66" r="4" fill="#0" id="circle302"/>
	<circle cx="996" cy="543.385" r="4" fill="#0" id="circle303"/>
	<circle cx="996" cy="555.111" r="4" fill="#0" id="circle304"/>
	<circle cx="996" cy="566.837" r="4" fill="#0" id="circle305"/>
	<circle cx="996" cy="578.563" r="4" fill="#0" id="circle306"/>
	<circle cx="996" cy="590.288" r="4" fill="#0" id="circle307"/>
	<circle cx="996" cy="602.014" r="4" fill="#0" id="circle308"/>
	<circle cx="996" cy="613.74" r="4" fill="#0" id="circle309"/>
	<circle cx="996" cy="625.466" r="4" fill="#0" id="circle310"/>
	<circle cx="996" cy="637.191" r="4" fill="#0" id="circle311"/>
	<circle cx="996" cy="648.917" r="4" fill="#0" id="circle312"/>
	<circle cx="996" cy="660.643" r="4" fill="#0" id="circle313"/>
	<circle cx="996" cy="672.369" r="4" fill="#0" id="circle314"/>
	<circle cx="996" cy="684.095" r="4" fill="#0" id="circle315"/>
	<circle cx="996" cy="695.82" r="4" fill="#0" id="circle316"/>
	<circle cx="996" cy="707.546" r="4" fill="#0" id="circle317"/>
	<circle cx="996" cy="719.272" r="4" fill="#0" id="circle318"/>
	<circle cx="996" cy="730.998" r="4" fill="#0" id="circle319"/>
	<circle cx="996" cy="742.723" r="4" fill="#0" id="circle320"/>
	<circle cx="996" cy="754.449" r="4" fill="#0" id="circle321"/>
	</g>
</svg>