102 142
100 132
104 122
112 116
120 110
130 106
140 102
150 98
160 96
170 94
180 90
190 88
198 82
207 77
217 73
225 65
230 56
240 54
250 55
255 64
261 72
271 76
281 80
284 90
294 91
304 94
314 96
324 99
334 102
344 106
353 111
362 116
370 123
373 133
369 144
363 154
363 164
364 174
374 176
384 179
393 184
402 189
410 195
419 200
425 208
433 214
443 218
453 216
463 214
473 213
483 212
493 212
502 206
510 200
520 196
530 192
538 186
548 186
556 192
566 196
576 200
584 206
593 211
603 212
613 212
623 214
633 216
643 218
653 220
663 222
673 226
683 230
691 236
696 245
695 256
687 266
687 276
685 290
685 300
685 310
686 320
690 330
691 340
687 350
691 360
681 363
676 354
676 344
676 333
668 327
658 327
648 329
638 333
628 332
620 326
610 325
600 327
590 331
580 335
571 340
561 343
551 345
541 345
531 343
521 341
511 337
501 333
492 328
482 325
472 325
463 330
453 333
443 331
433 327
423 327
413 328
411 346
411 356
403 363
394 343
392 333
390 323
380 323
370 323
371 333
368 349
369 361
359 360
356 350
355 331
349 323
339 323
329 323
319 323
309 323
299 323
289 323
279 323
269 323
259 323
249 323
239 323
229 323
219 323
209 323
199 323
189 323
179 323
169 323
159 323
149 323
139 321
129 321
119 322
120 332
117 350
117 361
107 360
106 350
106 340
104 330
104 320
102 310
102 300
102 290
102 280
102 270
102 260
104 248
104 238
106 222
108 212
108 202
108 192
108 182
108 172
108 162
106 152
