136 252
136 242
138 232
138 222
138 212
138 202
138 192
138 182
138 172
138 162
138 152
138 142
138 132
138 122
140 112
144 100
149 91
156 82
160 64
160 54
170 54
175 63
175 73
177 83
177 93
181 103
183 113
185 123
187 133
183 148
181 164
191 166
201 162
211 162
221 164
231 168
239 174
249 176
259 176
269 174
279 174
289 176
299 180
309 184
318 189
326 195
333 203
338 212
343 221
351 228
361 230
371 230
381 230
391 230
401 230
411 230
421 230
431 230
441 230
451 230
461 230
471 230
481 230
491 230
501 230
511 230
521 232
531 232
541 232
551 232
561 232
571 234
581 234
591 236
601 236
610 228
615 219
623 211
625 201
628 188
638 186
643 195
645 205
649 215
655 223
657 233
659 243
659 256
659 266
659 276
659 286
659 296
657 314
657 324
661 334
657 348
659 360
649 361
644 352
641 342
631 342
625 350
627 360
617 361
612 352
612 342
610 332
605 323
595 323
585 323
575 323
565 323
555 323
545 323
535 323
525 323
515 323
505 323
495 323
485 323
475 323
465 323
455 323
445 323
435 323
425 323
415 323
405 323
395 323
385 323
375 323
365 323
355 323
345 323
335 323
325 323
315 323
305 323
295 323
285 323
275 323
265 323
255 323
245 323
235 323
225 323
215 323
205 323
195 323
185 324
185 334
183 348
183 362
173 360
170 350
170 331
166 321
156 321
157 331
155 346
158 356
148 362
142 354
142 344
141 332
138 322
137 312
136 302
136 292
136 282
136 272
136 262
