98 254
98 244
103 235
112 230
120 224
130 220
140 216
150 214
160 210
168 202
176 194
184 188
192 194
200 200
207 208
215 214
225 216
235 218
245 222
254 227
263 232
273 234
283 234
293 234
303 234
313 234
323 234
333 234
343 234
353 234
363 234
373 234
383 234
393 234
403 233
413 229
418 218
426 212
434 204
442 196
450 190
460 186
470 182
480 180
490 178
500 178
510 180
519 175
528 170
538 166
548 156
548 146
542 138
542 128
547 119
555 111
563 105
572 100
582 96
590 82
598 76
603 67
610 54
619 59
625 67
630 76
638 82
644 90
654 94
664 98
673 103
681 109
689 115
695 123
697 133
695 144
695 154
695 164
695 174
695 184
695 194
695 204
695 214
695 224
695 234
697 244
697 254
697 264
697 274
699 284
699 294
697 306
697 316
693 332
693 342
692 359
685 350
682 340
675 321
665 321
655 321
645 321
635 321
625 321
615 321
605 321
595 321
585 321
575 321
565 321
555 322
553 335
546 350
544 340
544 330
539 321
529 321
519 321
509 321
499 321
489 321
479 321
469 321
459 321
449 321
439 321
429 321
419 321
409 321
399 321
389 321
379 321
369 321
359 321
349 321
339 321
329 321
319 321
309 321
299 321
289 321
279 321
269 322
269 332
267 342
266 361
256 346
254 336
251 325
241 328
233 335
228 326
218 323
210 329
202 337
192 341
182 345
172 342
164 336
156 330
148 324
138 327
128 331
120 325
112 331
110 341
111 351
110 361
101 346
100 336
104 318
106 302
104 292
104 282
104 272
104 262
