94 256
94 246
100 238
108 232
116 226
126 222
136 218
146 216
156 216
166 214
172 206
180 200
188 192
198 190
207 195
215 201
223 208
231 214
241 216
251 218
261 218
270 223
280 227
288 234
298 236
308 234
318 234
328 234
338 234
348 234
358 234
368 234
378 234
388 234
398 234
408 232
416 220
424 214
432 206
440 200
448 194
456 188
466 184
476 182
486 180
496 180
506 180
516 174
526 172
526 159
526 149
521 140
518 130
523 121
531 114
539 108
549 103
558 98
568 94
577 89
582 80
590 74
598 64
602 54
612 55
617 64
618 74
628 77
634 85
643 90
652 95
662 98
670 104
680 107
688 113
695 121
701 129
699 144
699 154
699 164
699 174
699 184
699 194
699 204
699 214
699 224
700 234
701 244
701 254
701 264
702 274
703 284
703 294
701 310
699 326
699 336
695 346
686 341
686 331
685 321
675 321
665 321
655 321
645 321
635 321
625 321
615 321
605 321
595 321
585 321
575 321
565 321
555 321
545 321
535 322
532 335
530 347
530 359
520 358
522 340
522 330
515 321
505 321
495 321
485 321
475 321
465 321
455 321
445 321
435 321
425 321
415 321
405 321
395 321
385 321
375 321
365 321
355 321
345 321
335 321
325 321
315 321
305 321
295 322
293 332
293 342
292 353
291 363
282 358
282 346
280 336
271 327
261 331
251 332
244 324
234 327
224 331
216 339
206 343
196 345
186 343
176 339
168 333
159 328
150 323
142 329
132 331
122 327
112 327
106 339
96 360
102 352
96 344
96 334
102 324
102 314
104 304
102 294
102 284
102 274
100 264
