118 256
118 246
126 238
136 234
144 228
154 226
164 224
174 222
184 218
194 218
204 216
214 216
224 216
234 214
244 214
252 204
262 204
271 199
279 193
289 190
299 192
309 196
318 201
328 204
336 211
346 214
354 208
362 200
370 192
378 186
388 184
386 166
386 156
382 146
376 138
376 128
384 120
394 116
402 110
412 108
422 104
432 100
442 98
452 96
462 94
472 90
482 84
490 78
500 76
510 68
518 62
524 54
533 59
541 65
546 74
556 77
565 82
573 88
583 90
593 94
603 96
613 98
623 100
633 104
643 106
653 110
661 116
671 120
678 128
675 144
671 156
671 166
671 176
671 186
671 196
671 206
671 216
672 226
675 236
677 246
677 256
677 266
678 276
679 286
679 296
677 312
677 322
677 332
677 342
668 361
668 351
666 341
665 321
655 321
645 321
635 321
625 321
615 321
605 321
595 321
585 321
575 321
565 321
555 321
545 321
535 321
525 321
515 321
505 321
495 321
485 321
475 321
465 321
455 322
455 332
454 347
446 359
444 349
440 339
439 329
429 327
419 327
409 329
399 332
389 337
389 347
380 358
380 342
380 332
374 324
364 323
354 327
344 329
334 333
326 339
316 341
306 343
296 345
286 345
276 343
266 341
256 338
247 333
237 331
227 327
217 323
207 324
197 328
188 333
178 331
168 329
158 327
148 327
138 329
132 340
134 359
124 358
126 348
122 338
128 330
128 320
130 304
128 294
128 284
128 274
125 264
