146 118
149 128
159 131
167 124
170 134
170 144
172 154
172 164
172 174
172 184
172 194
174 204
174 214
174 224
174 234
176 244
176 254
176 264
177 274
187 275
193 264
187 256
187 246
185 236
185 226
185 216
185 206
185 196
185 186
185 176
185 166
185 156
185 146
187 134
187 124
195 116
198 126
198 136
198 146
198 156
198 166
196 182
196 192
198 202
198 212
198 222
200 232
200 242
200 252
201 271
211 275
221 273
217 262
211 254
211 244
211 234
209 224
209 214
209 204
209 194
209 184
209 174
211 160
213 148
215 134
217 120
225 112
230 103
233 90
231 80
243 93
253 84
250 74
247 64
247 54
242 45
234 38
226 31
217 26
207 22
197 20
187 21
177 25
169 31
163 39
158 48
154 62
150 76
148 86
146 96
148 106
