79 95
74 86
80 78
86 70
92 62
96 50
104 42
114 38
124 38
134 40
143 45
149 53
153 63
159 51
164 40
170 32
180 28
190 24
200 20
210 20
220 20
230 21
240 25
250 29
259 34
266 42
274 48
280 56
288 63
295 71
303 78
309 86
314 95
319 104
323 114
326 124
317 130
307 129
297 130
287 130
277 129
267 125
257 121
249 115
239 114
239 124
239 134
239 144
239 154
239 164
239 174
239 184
237 200
235 214
233 228
231 242
229 256
229 266
222 275
212 275
202 275
192 275
182 273
174 266
187 264
197 262
206 254
208 240
210 228
212 216
214 204
214 194
214 184
212 174
210 164
208 154
206 144
203 134
201 124
200 114
198 104
196 94
191 85
185 77
175 80
173 92
167 108
158 115
148 115
139 110
133 102
132 73
124 67
115 72
106 77
97 82
89 90
