90 110
86 124
95 129
105 129
115 131
125 131
135 128
145 124
153 118
163 115
164 125
164 135
164 145
164 155
164 165
164 175
164 185
164 195
166 205
166 215
168 225
168 235
170 245
172 255
172 265
176 275
186 275
196 275
206 275
216 273
226 273
221 264
209 262
199 260
198 250
197 240
195 230
193 220
193 210
191 200
191 190
191 180
195 162
199 146
201 136
203 126
205 116
207 104
209 94
214 85
220 77
224 87
226 97
230 107
238 114
248 115
257 110
263 96
263 78
263 68
273 69
282 74
291 79
298 87
306 93
315 84
309 76
303 68
299 58
295 48
287 42
277 38
267 38
257 41
249 49
241 55
237 45
231 37
224 29
215 24
205 22
195 20
185 20
175 21
165 25
156 30
148 36
140 42
132 50
125 59
119 67
111 75
105 83
100 92
94 100
