67 95
62 86
70 78
76 70
82 62
86 52
92 44
102 40
112 38
122 38
132 41
140 47
146 55
152 63
156 48
162 38
170 32
179 27
189 24
199 21
209 20
219 20
229 20
239 24
249 28
259 32
268 37
276 43
283 51
291 58
298 66
306 72
314 79
320 87
325 96
331 104
335 114
335 129
325 131
315 127
305 128
295 131
285 127
275 123
265 121
257 115
247 113
237 112
237 122
237 132
237 142
237 152
237 162
237 172
237 182
237 192
235 202
233 216
231 228
229 240
227 252
227 262
217 275
207 275
197 275
187 273
192 264
202 262
212 256
214 244
216 232
218 220
220 206
220 173
218 163
214 153
212 143
210 133
208 123
206 113
206 103
202 93
194 87
187 79
177 76
171 84
170 95
166 105
159 113
149 115
139 113
131 107
126 98
124 88
126 75
122 65
112 69
102 73
93 78
85 84
77 90
