164 62
164 52
166 40
172 32
180 26
190 22
200 20
210 22
220 26
228 32
233 41
235 51
235 61
233 80
229 94
225 104
223 118
223 128
221 140
219 158
217 176
217 186
217 196
217 206
217 216
217 226
217 236
219 246
219 256
225 264
217 275
207 272
206 262
208 249
206 239
206 229
206 219
206 209
206 199
206 189
206 179
206 169
206 159
206 149
206 139
203 129
193 130
193 140
191 156
191 166
191 176
191 186
191 196
191 206
191 216
191 226
191 236
191 246
191 256
194 266
184 275
176 268
180 250
180 240
180 230
180 220
180 210
180 200
180 190
180 180
180 170
178 160
178 150
176 140
176 130
176 120
169 112
166 102
164 92
164 82
164 72
