196 114
196 104
204 98
214 102
216 88
220 76
226 66
234 58
244 54
246 40
246 30
246 20
253 48
259 56
268 61
274 69
279 78
281 88
283 98
293 98
301 104
301 114
297 130
289 138
279 138
271 132
266 141
272 155
277 164
279 178
271 172
266 163
262 153
256 145
246 145
237 150
233 161
218 172
223 163
227 153
231 139
221 136
211 139
203 133
198 124
