90 128
90 138
100 139
110 137
120 133
130 129
138 123
147 118
157 117
160 127
164 137
168 147
178 149
188 149
198 147
207 142
217 141
227 143
237 143
247 145
257 145
267 145
262 158
262 168
265 178
274 183
283 178
293 181
303 180
311 174
317 164
322 155
328 147
338 145
348 143
357 138
367 135
377 131
387 126
395 118
403 110
411 100
404 87
395 82
386 77
377 72
367 68
357 64
347 60
337 58
327 56
317 52
317 42
309 36
305 26
297 20
287 22
277 26
267 29
258 34
249 39
239 44
231 51
221 55
212 50
202 46
192 48
183 53
175 59
167 67
161 75
156 84
146 82
136 78
127 73
118 68
108 64
98 62
91 76
94 86
96 96
94 114
