196 106
196 96
198 82
203 73
212 68
220 62
228 56
236 48
236 38
240 22
250 25
256 33
261 42
269 48
279 52
281 62
284 72
294 66
304 62
305 72
305 82
305 92
305 102
305 112
305 122
305 132
296 138
286 141
280 149
265 144
270 153
275 162
278 172
270 179
263 171
257 163
252 154
244 147
238 155
233 164
228 173
222 182
216 164
220 152
215 141
207 134
200 126
196 116
