112 132
120 139
130 137
140 133
149 128
157 121
167 117
172 126
174 136
178 146
188 149
198 149
208 145
218 141
228 143
238 143
248 145
259 145
254 154
252 164
260 182
270 177
279 172
288 177
297 182
306 177
311 168
315 150
324 145
334 143
342 137
352 135
362 131
370 125
376 117
382 109
388 101
381 87
372 82
365 74
355 70
345 66
335 62
325 58
315 56
306 51
299 37
296 27
288 20
278 24
269 29
259 33
249 36
241 43
233 49
223 54
214 49
204 46
194 50
186 58
180 66
174 74
169 83
159 81
150 76
141 71
132 66
122 62
112 64
114 74
116 84
118 94
118 104
116 114
