199 114
198 104
204 94
206 80
212 72
220 64
228 58
238 50
238 40
240 28
246 20
252 28
256 38
261 47
269 53
271 63
273 73
281 63
287 71
287 81
287 91
292 100
301 105
303 115
301 130
293 138
283 141
273 140
269 150
273 160
277 170
272 181
266 173
260 165
255 156
250 147
240 147
236 157
231 166
226 175
216 180
216 170
220 158
223 141
213 141
205 134
201 124
