198 118
198 108
204 100
214 102
222 92
226 78
230 66
238 60
240 48
246 36
250 22
257 30
259 40
259 50
266 58
274 64
281 72
287 80
289 90
291 100
301 100
303 110
303 120
299 130
292 139
282 140
272 143
275 153
279 163
284 173
278 181
273 172
268 163
264 153
256 147
246 147
241 156
235 166
230 175
220 176
224 166
229 157
234 148
225 138
215 141
206 136
200 128
