28 260
28 250
32 238
37 229
43 221
47 211
45 197
40 188
40 178
48 172
54 180
64 182
72 172
74 162
74 152
74 142
74 132
74 122
74 112
74 102
74 92
76 74
76 64
76 54
70 46
70 36
70 26
78 20
88 19
93 30
91 40
97 48
89 54
89 64
89 74
89 84
91 94
91 104
91 114
91 124
91 134
91 144
92 154
100 160
110 162
119 167
125 175
125 190
121 200
121 210
124 220
130 228
135 237
139 247
139 266
134 277
128 285
119 290
110 295
100 299
90 299
80 300
70 298
60 297
51 292
43 286
36 278
30 270
