44 242
44 232
46 222
46 212
46 202
46 192
46 182
46 172
52 156
62 154
72 150
74 136
76 124
76 114
76 104
76 94
76 84
76 74
76 64
76 54
68 36
64 26
70 18
76 26
78 36
82 46
85 129
85 139
85 149
85 159
87 169
89 179
87 194
87 204
87 214
89 224
89 234
91 244
91 254
91 264
89 274
89 284
85 294
76 299
66 301
56 299
48 292
46 282
44 272
44 262
44 252
