58 250
58 240
62 226
66 212
66 202
64 192
64 182
64 172
69 163
76 152
76 142
76 132
76 122
76 112
76 98
76 88
76 78
76 68
78 56
80 36
84 24
92 18
95 30
92 41
90 51
87 61
87 71
87 81
87 91
87 101
87 111
87 121
87 131
89 141
91 151
101 154
111 158
111 168
121 172
125 182
123 192
121 202
121 212
124 222
127 232
129 242
129 252
129 262
125 280
120 291
112 299
102 299
92 300
82 299
72 297
66 289
61 280
58 270
58 260
