52 34
52 24
62 20
72 24
82 24
92 24
102 20
112 20
122 20
132 20
142 20
150 26
158 32
166 39
181 72
175 64
168 56
159 51
149 47
139 50
137 66
133 82
131 92
131 102
131 112
131 122
129 134
129 144
131 154
131 164
133 174
139 182
141 192
143 202
143 212
143 222
143 232
143 242
143 252
143 262
143 272
143 282
143 292
143 302
143 312
143 322
144 332
145 342
145 352
138 365
128 365
118 365
108 365
98 365
90 358
92 344
92 334
94 316
94 306
94 296
94 286
94 276
94 266
94 256
94 246
94 236
94 226
94 216
94 206
94 196
96 182
104 170
106 160
106 150
108 134
107 124
106 114
106 104
106 94
104 84
101 74
98 64
96 54
90 46
80 45
70 47
60 51
52 44
