74 62
72 72
77 81
87 81
97 81
106 86
108 96
108 106
110 116
110 126
110 136
110 146
108 158
106 170
102 182
100 196
100 206
100 216
100 226
100 236
100 246
100 256
100 266
100 276
100 286
100 296
100 306
100 316
100 326
100 336
100 346
98 356
103 365
113 365
123 365
133 365
143 365
145 348
143 338
143 328
143 318
143 308
143 298
143 288
143 278
143 268
143 258
143 248
143 238
143 228
143 218
143 208
143 198
143 188
139 178
136 168
135 158
135 148
135 138
135 128
135 118
135 108
135 98
137 86
141 74
143 60
148 51
158 49
165 40
163 25
154 20
144 20
134 20
124 20
114 20
104 20
94 24
88 32
83 41
78 50
