53 40
52 30
56 20
66 20
76 24
86 24
96 20
106 20
116 20
126 20
136 20
146 21
154 27
162 33
169 41
175 49
181 57
182 74
176 66
170 58
161 53
151 49
141 50
141 60
137 74
133 90
133 100
131 112
131 122
131 132
131 142
131 152
133 162
134 172
138 182
143 191
143 201
143 211
143 221
143 231
145 241
145 251
145 261
145 271
145 281
145 291
145 301
145 311
145 321
145 331
145 341
147 351
140 365
130 365
120 365
110 365
100 365
90 362
92 348
94 336
94 326
94 316
94 306
94 296
94 286
94 276
94 266
94 256
94 246
94 236
94 226
96 216
96 206
96 196
96 186
102 178
106 168
106 158
108 148
108 138
108 128
108 118
106 108
106 98
104 88
102 78
98 68
98 58
96 48
86 45
76 45
67 50
57 50
