54 64
60 81
65 72
71 64
79 56
88 51
98 48
98 58
100 68
103 78
106 88
107 98
108 108
108 118
108 128
108 138
108 148
108 158
106 168
103 181
98 190
98 200
98 210
98 220
98 230
98 240
98 250
98 260
98 270
98 280
98 290
98 300
98 310
96 322
96 332
96 342
94 356
99 365
109 365
119 365
129 365
139 365
149 365
147 355
147 345
147 335
145 325
145 315
145 305
145 295
145 285
145 275
145 265
145 255
145 245
145 235
145 225
145 215
145 205
145 195
143 185
138 176
135 166
135 156
135 146
135 136
135 126
135 116
135 106
135 96
137 86
141 74
145 58
145 48
155 45
165 45
173 51
183 50
187 38
186 23
176 20
166 24
156 24
146 21
136 20
126 20
116 20
106 20
96 20
87 25
79 31
71 39
65 47
59 55
