66 124
64 136
66 146
66 156
66 166
69 176
74 185
82 191
86 201
88 211
88 221
86 232
86 242
88 252
96 259
106 259
110 248
106 238
105 228
105 218
105 208
109 196
114 213
114 223
118 254
127 259
137 259
139 248
135 238
132 228
131 218
131 208
135 194
141 184
147 174
153 164
161 157
171 159
181 161
191 161
201 161
208 169
208 179
208 189
210 199
212 209
212 219
214 229
214 239
216 249
218 259
228 259
238 259
248 259
257 250
253 240
251 230
249 220
249 210
249 200
251 190
253 180
253 170
253 160
257 150
263 138
267 126
271 112
275 98
279 88
287 81
297 83
307 85
317 89
327 89
333 80
332 70
326 62
321 53
318 43
312 35
308 22
298 20
290 26
280 28
270 32
262 38
254 44
246 54
238 62
229 67
220 72
210 76
200 80
190 82
180 82
170 82
160 81
150 80
140 78
130 78
120 82
110 85
101 80
91 80
83 87
77 95
73 105
68 114
