54 84
52 74
58 64
64 56
70 46
76 36
74 24
84 22
94 23
104 26
114 29
123 34
132 39
139 47
147 53
155 60
164 65
173 70
183 74
193 78
203 80
213 82
223 82
233 82
243 81
253 80
263 78
273 78
283 80
293 84
303 83
313 80
323 82
331 88
336 97
339 107
343 117
347 127
345 144
347 154
345 164
342 177
336 185
327 191
319 198
319 208
319 218
319 228
317 244
317 254
308 259
298 259
288 259
278 259
270 252
275 243
279 233
280 217
280 207
277 197
272 188
266 180
261 171
255 163
247 157
237 159
227 161
217 161
207 161
197 161
187 162
185 174
185 184
183 194
183 204
181 214
181 224
181 234
177 246
176 257
166 259
156 259
146 259
138 252
143 243
147 233
148 222
150 212
148 202
147 192
146 182
146 172
145 162
141 152
136 143
130 135
128 125
124 115
120 105
117 95
112 86
103 81
93 83
83 84
73 88
63 89
