144 72
145 82
153 89
152 102
152 112
152 122
152 132
152 142
155 152
156 162
156 172
158 182
158 192
160 202
160 212
160 222
158 240
156 250
161 259
171 259
179 246
177 236
177 226
176 216
175 206
175 196
177 184
177 174
177 164
187 163
188 173
190 183
192 193
194 203
192 218
191 231
189 241
186 254
195 259
205 259
209 248
209 238
209 228
209 218
209 208
211 194
213 184
213 174
221 191
231 193
236 202
238 212
238 222
238 232
236 242
234 252
242 259
252 259
257 250
255 240
255 230
253 220
253 210
253 200
251 190
251 180
251 170
251 160
251 150
253 137
253 127
253 117
251 107
245 99
239 91
234 82
224 80
214 78
204 78
199 69
194 60
189 51
185 41
179 33
176 23
166 25
156 23
146 26
147 36
144 48
146 58
