42 82
40 72
46 64
54 56
60 48
66 36
76 21
86 24
96 26
106 29
116 33
125 38
132 46
140 52
148 59
157 64
166 69
176 72
186 76
196 80
206 80
216 82
226 82
236 82
246 82
256 80
266 78
276 78
286 79
296 81
305 86
315 82
325 80
335 82
343 88
349 96
353 106
357 116
360 126
359 144
359 160
356 173
351 182
343 190
333 193
330 165
330 155
328 145
323 118
323 128
319 140
315 156
315 166
315 176
318 186
323 195
321 212
321 222
321 232
318 247
316 257
306 259
296 259
288 252
294 242
298 230
298 220
298 210
296 200
291 191
285 183
279 175
273 167
267 159
259 153
249 157
239 159
229 161
219 161
209 161
199 161
189 159
179 162
177 172
177 182
175 192
173 210
173 220
173 230
173 240
167 248
158 259
148 259
140 252
146 242
150 230
152 220
152 210
152 200
150 190
150 180
150 170
148 160
143 151
135 144
130 135
126 125
121 116
116 107
112 97
107 88
100 80
90 81
80 83
70 85
60 87
50 89
