24 70
16 76
25 81
35 81
45 81
54 86
59 95
66 103
66 113
66 123
66 133
66 143
66 153
66 163
66 173
66 183
62 200
56 212
61 221
71 221
81 221
91 221
101 221
111 221
110 210
106 200
103 190
103 180
103 170
103 160
103 150
103 140
103 130
103 120
103 110
113 109
123 105
131 98
137 86
146 81
156 81
166 81
176 81
181 65
181 55
172 50
162 50
152 50
142 52
132 51
131 41
112 16
103 21
98 30
119 24
124 33
122 52
112 50
102 50
92 50
82 50
72 50
62 50
59 61
54 70
44 70
34 70
