16 50
16 60
14 72
19 81
29 81
39 81
49 81
57 87
63 95
70 103
80 107
90 109
92 119
92 129
92 139
92 149
92 159
92 169
92 179
92 189
88 200
82 210
82 220
92 221
102 221
112 221
122 221
132 221
135 209
130 200
127 190
129 174
129 164
129 154
129 144
129 134
129 124
129 114
129 104
137 98
145 88
153 81
163 81
173 81
183 76
175 70
165 70
155 68
152 58
146 50
136 50
126 50
116 50
106 50
96 52
86 52
92 26
97 35
91 16
81 19
76 28
76 38
76 48
66 52
56 52
46 51
36 50
26 50
