28 74
28 64
30 50
40 50
50 50
60 50
62 38
62 28
68 20
78 16
95 22
92 32
85 24
70 50
80 50
90 50
100 50
110 50
115 59
121 67
131 70
141 70
151 70
161 70
166 81
156 81
146 81
140 89
135 98
135 108
135 118
135 128
135 138
135 148
135 158
135 168
135 178
135 188
136 198
140 208
138 221
128 221
118 221
108 221
98 221
88 220
88 210
94 200
98 189
98 179
98 169
98 159
98 149
98 139
98 129
98 119
94 109
84 108
74 105
68 97
64 87
56 81
46 81
36 81
