16 50
16 60
14 78
24 81
34 81
44 81
54 81
60 89
65 98
73 105
83 107
93 109
94 119
94 129
94 139
94 149
94 159
94 169
94 179
94 189
90 200
84 210
84 220
94 221
104 221
114 221
124 221
134 221
139 211
134 202
131 192
131 182
131 172
131 162
131 152
131 142
131 132
131 122
131 112
131 102
139 96
145 86
154 81
164 81
174 81
184 79
179 70
169 70
159 70
149 67
143 59
138 50
128 50
118 50
108 50
98 50
88 52
78 52
77 42
89 24
94 33
82 16
74 22
70 34
66 52
56 52
46 50
36 50
26 50
