20 52
20 62
28 81
38 81
48 81
56 88
62 96
70 102
79 107
89 109
90 119
90 129
90 139
90 149
90 159
90 169
90 179
90 189
86 200
80 212
85 221
95 221
105 221
115 221
125 221
135 221
131 206
127 196
125 186
127 168
127 158
127 148
127 138
127 128
127 118
125 108
134 103
142 97
149 88
157 81
167 81
177 81
174 70
164 70
162 60
161 50
151 50
141 50
131 50
121 50
111 50
101 50
93 44
96 26
101 35
91 17
86 26
86 36
80 50
70 50
60 50
50 50
40 50
30 50
