20 70
20 60
22 50
32 50
42 50
52 50
62 50
72 50
82 50
86 34
88 22
96 16
96 30
93 42
99 50
109 50
119 50
129 50
139 50
149 50
159 50
163 60
164 70
174 70
175 81
165 81
155 81
147 88
140 97
132 103
123 108
123 118
123 128
123 138
123 148
123 158
123 168
123 178
123 188
124 198
128 208
131 221
121 221
111 221
101 221
91 221
81 221
76 212
82 202
87 193
88 183
88 173
88 163
88 153
88 143
88 133
88 123
88 113
80 107
70 105
62 99
55 91
50 82
40 81
30 81
20 80
