30 70
24 78
34 81
44 81
54 81
59 90
64 99
66 109
66 119
66 129
66 139
66 149
66 159
66 169
66 179
66 189
62 202
56 212
61 221
71 221
81 221
91 221
101 221
111 221
110 211
105 202
101 192
101 182
101 172
101 162
101 152
101 142
101 132
101 122
101 112
111 109
121 107
129 100
135 88
143 81
153 81
163 81
173 81
177 68
175 58
168 50
158 50
148 50
138 49
137 38
116 16
106 20
123 24
129 32
128 50
118 50
108 50
98 50
88 50
78 50
75 61
70 70
60 70
50 70
40 70
