20 70
14 78
24 81
34 81
44 81
52 87
58 95
66 102
70 112
70 122
70 132
70 142
70 152
70 162
70 172
70 182
66 200
60 212
65 221
75 221
85 221
95 221
105 221
115 221
114 209
109 200
107 190
107 180
107 170
107 160
107 150
107 140
107 130
107 120
107 110
117 107
127 104
135 96
141 86
150 81
160 81
170 81
180 81
183 68
183 58
176 50
166 50
156 50
146 52
136 52
126 52
113 16
103 19
98 28
115 26
118 36
118 46
108 52
98 50
88 50
78 50
68 50
58 50
48 50
46 60
40 70
30 70
