26 50
26 60
24 78
34 81
44 81
52 87
60 94
67 102
77 105
86 110
86 120
86 130
86 140
86 150
86 160
86 170
86 180
86 190
74 212
79 221
89 221
99 221
109 221
119 221
129 221
128 207
123 198
121 188
121 178
121 168
121 158
121 148
121 138
121 128
121 118
121 108
130 103
139 98
147 90
152 81
162 81
172 81
168 70
167 60
167 50
157 50
147 50
137 50
127 50
117 52
107 52
97 49
101 35
102 21
92 20
92 30
92 40
86 52
76 52
66 52
56 50
46 50
36 50
