24 50
24 60
22 78
32 81
42 81
52 81
56 91
64 98
73 103
83 107
88 116
88 126
88 136
88 146
88 156
88 166
88 176
88 186
84 200
78 210
78 220
88 221
98 221
108 221
118 221
128 221
129 206
125 196
125 186
125 176
125 166
125 156
125 146
125 136
125 126
125 116
125 106
135 102
143 96
149 88
157 81
167 81
177 81
175 71
167 65
165 55
156 50
146 50
136 50
126 50
116 52
106 52
96 52
100 34
103 24
96 16
90 24
90 34
90 44
84 52
74 52
64 52
54 50
44 50
34 50
