32 60
24 76
33 81
43 81
52 86
58 94
66 101
74 107
78 117
78 127
78 137
78 147
78 157
78 167
78 177
78 187
77 197
72 206
66 214
74 221
84 221
94 221
104 221
114 221
124 221
123 209
118 200
115 190
115 180
115 170
115 160
115 150
115 140
115 130
115 120
115 110
125 106
133 100
141 94
147 84
157 81
167 81
175 68
175 58
169 50
159 50
149 50
139 50
129 50
119 50
109 46
107 23
98 18
96 30
102 38
94 50
84 50
74 50
64 50
54 50
44 50
34 50
