22 70
14 76
23 81
33 81
43 81
52 86
58 94
65 102
68 112
68 122
68 132
68 142
68 152
68 162
68 172
68 182
64 200
58 212
63 221
73 221
83 221
93 221
103 221
113 221
112 210
108 200
105 190
105 180
105 170
105 160
105 150
105 140
105 130
105 120
105 110
115 108
125 104
133 98
139 88
147 81
157 81
167 81
177 81
183 69
183 59
178 50
168 50
158 50
148 52
138 52
128 52
113 16
103 19
98 28
117 26
120 36
120 46
112 52
102 50
92 50
82 50
72 50
62 50
52 50
48 62
42 70
32 70
