62 324
62 314
64 300
66 290
74 282
82 276
92 276
102 276
112 276
122 279
132 280
142 276
150 260
145 251
135 249
125 245
115 241
105 237
97 231
91 223
86 214
86 204
86 194
91 185
99 178
109 176
119 173
129 172
139 170
149 169
158 160
168 156
177 151
171 143
166 134
163 124
162 114
162 104
168 96
176 88
182 80
182 62
180 52
180 42
185 33
193 26
203 22
213 20
223 22
233 26
241 32
251 34
261 34
271 29
280 24
290 20
300 21
310 24
318 30
323 39
323 49
319 64
321 74
324 84
325 94
325 104
323 120
319 130
313 138
309 154
315 162
323 168
330 176
336 184
339 194
339 204
337 220
331 228
325 236
317 244
311 252
311 262
313 272
314 282
314 293
309 302
309 312
309 322
309 332
305 344
302 359
293 364
284 369
274 371
264 371
254 371
244 371
234 371
224 371
214 367
204 365
194 364
184 363
174 363
164 361
154 363
144 365
134 369
124 371
114 371
104 371
94 369
84 367
75 362
68 354
64 344
64 334
