43 328
42 318
46 304
50 290
58 284
66 278
76 276
86 276
96 276
106 278
116 274
126 272
134 265
132 255
122 257
114 251
104 253
94 249
84 246
74 243
66 237
57 232
50 224
46 214
44 204
44 194
49 185
57 179
67 176
77 172
87 172
97 170
103 162
113 158
123 155
133 154
143 151
138 142
134 132
132 122
130 112
132 94
132 80
128 70
124 60
122 50
122 40
128 32
136 26
146 22
156 20
166 22
176 24
185 29
194 34
204 34
214 32
224 34
234 34
244 32
254 28
264 24
274 20
284 20
294 24
304 28
310 36
313 54
310 67
306 77
301 86
301 96
299 112
297 128
293 140
288 151
298 154
308 156
318 160
327 165
333 173
341 179
349 186
353 196
355 206
351 222
343 230
335 238
326 243
317 249
307 253
297 255
287 254
289 264
294 273
304 276
314 280
322 286
327 295
331 305
333 315
335 325
335 335
335 345
333 356
325 364
317 370
307 371
297 371
287 371
277 371
267 369
257 369
247 369
237 371
227 371
217 371
207 371
197 371
187 369
177 367
167 367
157 365
147 363
137 362
127 364
117 369
107 371
97 371
87 371
77 371
67 367
58 362
50 356
44 348
44 338
