44 314
44 324
44 334
44 344
47 354
55 360
63 366
72 371
82 371
92 371
102 371
112 371
122 367
132 363
142 362
152 363
162 365
172 367
182 369
192 369
202 371
212 371
222 371
232 371
242 371
252 369
262 367
272 371
282 371
292 371
302 371
312 371
322 367
330 361
335 352
335 342
337 323
333 313
331 303
328 293
322 285
314 279
304 276
294 272
289 263
288 253
298 255
308 253
318 249
327 244
335 238
343 232
351 224
355 210
355 196
351 186
343 179
335 173
328 165
319 160
309 156
299 154
289 150
294 141
299 132
299 122
301 108
301 98
301 88
306 79
310 69
315 58
315 48
314 38
307 30
298 25
288 21
278 20
268 22
258 26
249 31
239 34
229 34
219 34
209 34
199 34
189 31
180 26
170 22
160 20
150 22
140 24
132 30
124 38
124 48
124 58
128 68
132 78
134 88
132 98
132 108
132 118
134 128
137 138
142 147
132 154
122 156
112 160
102 164
94 170
84 172
74 174
64 178
54 180
48 188
44 200
46 210
49 220
55 228
63 235
72 240
81 245
91 247
101 251
111 251
121 253
131 255
129 271
119 272
109 276
99 276
89 276
79 276
69 277
60 282
52 290
48 300
