56 326
56 316
58 304
60 292
68 284
76 278
86 276
96 276
106 276
116 278
126 280
136 276
146 274
148 263
148 253
138 251
128 249
118 245
108 243
99 238
90 233
84 225
79 216
78 206
78 196
82 186
90 178
100 176
110 174
120 172
130 170
140 170
149 165
157 157
167 154
168 143
163 134
160 124
160 114
164 100
170 90
176 82
174 68
172 58
172 48
172 38
180 30
188 24
198 20
208 21
218 23
227 28
237 32
247 34
257 34
267 31
276 26
286 22
296 20
306 22
315 27
321 35
325 45
322 61
318 71
321 81
323 91
323 101
321 118
316 131
311 140
307 152
314 160
322 166
330 173
337 181
341 191
343 201
343 211
337 224
331 232
325 240
317 246
309 252
309 262
311 272
313 282
309 296
307 312
307 322
307 332
303 342
299 358
290 365
280 369
270 371
260 371
250 371
240 371
230 370
220 367
210 367
200 365
190 363
180 363
170 363
160 361
150 363
140 365
130 369
120 371
110 371
100 371
90 369
80 367
71 362
64 354
58 346
58 336
