49 204
48 194
53 185
58 176
64 168
72 162
81 157
91 154
97 145
92 136
88 126
86 116
86 106
84 96
84 81
80 71
75 62
74 52
72 42
78 32
86 26
96 22
106 20
116 22
126 25
135 30
145 34
155 34
165 34
175 34
185 33
193 27
203 23
213 20
223 20
233 24
242 29
249 37
251 47
249 58
245 70
241 82
243 92
245 102
247 112
247 122
245 132
240 141
234 149
243 154
253 154
263 158
272 163
280 169
290 170
300 172
310 174
320 176
330 180
335 189
339 199
339 209
334 221
329 230
320 235
312 241
302 245
292 247
282 251
272 253
262 251
254 257
255 267
264 272
274 276
284 278
294 276
304 276
314 276
324 276
333 281
341 287
347 295
349 305
351 315
351 328
351 338
346 353
338 361
330 367
320 369
310 371
300 371
290 371
280 370
270 366
260 363
250 361
240 363
230 363
220 365
210 367
200 367
190 369
180 369
170 371
160 371
150 371
140 371
130 371
120 371
110 371
100 371
91 366
83 360
80 350
80 340
80 330
80 320
84 306
88 292
94 282
96 270
92 257
84 251
75 246
67 240
61 232
54 224
50 214
