86 318
86 308
88 290
92 280
102 276
112 276
122 276
132 278
140 270
140 260
140 250
136 237
127 232
121 224
118 214
116 204
116 194
121 185
129 179
139 176
149 173
159 172
169 170
172 156
164 149
154 145
146 138
144 128
142 118
138 108
142 98
151 93
160 88
170 86
180 82
186 74
192 64
198 56
206 48
208 38
214 28
222 22
232 20
242 22
252 24
262 20
272 22
281 27
286 43
292 51
300 57
305 66
309 76
313 86
315 96
315 106
314 123
309 132
303 142
298 151
294 161
297 171
299 181
299 191
299 201
297 214
297 224
299 234
299 244
299 254
299 264
299 274
299 284
294 299
295 309
295 319
293 332
291 342
288 359
280 365
270 369
260 371
250 370
240 369
230 368
220 367
210 365
200 369
190 371
180 371
170 371
160 370
151 365
141 368
131 371
121 371
111 369
101 365
93 358
90 348
88 338
87 328
