62 202
62 192
66 180
74 172
82 166
90 160
88 144
86 134
80 126
76 116
76 106
76 96
76 86
80 74
80 60
78 50
78 40
82 30
90 24
100 22
110 20
120 23
129 28
137 34
147 34
157 34
166 28
176 24
186 20
196 21
206 25
214 31
220 39
221 49
221 59
217 70
218 80
224 88
232 95
239 103
239 113
235 132
230 143
224 151
233 156
243 160
249 168
259 170
269 172
279 172
289 174
299 178
309 182
314 191
315 201
315 211
312 221
306 229
298 235
289 240
280 245
270 247
260 249
251 254
251 264
253 274
263 278
273 280
283 277
293 276
303 276
313 276
323 278
330 286
335 295
337 305
339 315
339 325
337 336
336 349
330 357
322 365
312 367
302 369
292 371
282 371
272 369
262 366
252 363
242 361
232 363
222 363
212 363
202 365
192 365
182 369
172 371
162 371
152 371
142 371
132 371
122 369
112 367
103 362
98 353
96 343
92 333
92 323
92 313
92 303
87 294
86 284
88 272
90 254
85 245
77 238
71 230
65 222
62 212
