106 260
106 250
116 248
126 248
136 248
146 248
156 248
160 237
156 227
146 227
138 220
151 218
160 205
157 195
147 195
152 186
160 175
160 165
160 155
151 150
150 140
150 130
150 120
150 110
150 100
150 90
149 80
148 70
148 60
148 50
148 40
150 24
160 20
170 20
180 20
190 20
200 20
210 20
220 20
230 20
240 22
243 32
243 42
243 52
243 62
243 72
243 82
243 92
243 102
243 112
243 122
243 132
243 142
239 152
229 153
219 153
209 153
199 154
199 164
199 174
199 184
209 186
219 186
229 186
239 186
249 186
259 186
269 186
279 186
284 195
274 195
264 195
254 195
244 195
234 195
224 195
214 195
199 198
199 208
200 218
214 218
224 218
234 218
244 218
254 218
264 218
274 218
284 218
279 227
269 227
259 227
249 227
239 227
229 227
219 227
209 227
199 228
199 238
200 248
210 248
220 248
230 248
240 248
250 248
260 248
270 248
280 248
290 248
295 257
291 269
281 273
271 269
261 269
251 269
241 269
231 269
221 269
211 269
201 269
191 272
181 269
171 269
161 269
151 269
141 269
131 269
121 270
111 269
