150 220
158 227
168 227
178 227
188 227
198 227
208 227
212 237
210 248
200 248
190 248
180 248
170 248
160 248
150 252
150 262
157 270
167 271
177 269
187 269
197 269
207 269
217 269
227 269
237 271
247 269
249 250
239 248
233 240
233 230
233 220
233 210
233 200
233 190
233 180
233 170
233 160
233 150
233 140
233 130
233 120
233 110
233 100
233 90
233 80
233 70
233 60
233 50
229 40
219 40
209 38
209 28
202 20
196 28
196 38
196 48
196 58
196 68
196 78
196 88
196 98
196 108
196 118
196 128
196 138
198 148
207 153
212 162
212 172
204 186
194 186
184 186
174 186
164 186
150 190
159 195
169 195
179 195
189 195
199 195
209 197
212 207
203 218
193 218
183 218
173 218
163 218
