58 260
58 250
68 248
78 248
88 248
98 248
108 248
118 248
128 248
144 248
160 248
176 248
186 237
185 227
175 227
165 227
155 227
145 227
135 227
125 227
115 227
105 227
95 227
85 227
75 227
70 218
80 218
90 218
100 218
110 218
120 218
130 218
140 218
150 218
160 218
170 218
180 218
186 201
178 195
168 195
158 195
148 195
138 195
128 195
118 195
108 195
98 195
88 195
78 195
70 188
83 186
93 186
103 186
113 186
123 186
133 186
143 186
153 186
163 186
173 186
183 186
186 172
186 162
181 153
171 153
161 153
151 153
141 153
131 153
121 153
111 152
110 142
110 132
110 122
110 112
110 102
110 92
110 82
110 72
110 62
110 52
110 42
110 32
110 22
120 20
130 20
140 20
150 20
160 20
170 20
180 20
190 20
200 20
210 20
220 20
230 20
240 20
250 20
260 20
270 20
280 20
290 20
297 28
297 38
297 48
297 58
297 68
297 78
297 88
297 98
297 108
297 118
297 128
297 138
291 153
281 153
271 153
261 153
251 153
241 154
241 164
241 174
241 184
251 186
261 186
271 186
281 186
291 186
301 186
306 195
296 195
286 195
276 195
266 195
256 195
241 196
241 206
241 216
251 218
261 218
271 218
281 218
291 218
301 218
306 227
296 227
286 227
276 227
266 227
256 227
241 228
241 238
242 248
258 248
274 248
284 248
294 248
304 248
314 248
324 248
334 248
341 256
333 270
323 269
313 269
303 269
293 269
283 272
273 269
263 269
253 269
243 269
233 269
223 269
213 269
203 269
193 269
183 269
173 269
163 269
153 269
143 269
133 269
123 269
113 269
103 269
93 269
83 269
73 273
63 269
