94 260
94 250
104 248
114 248
124 248
134 248
144 248
154 248
164 248
174 248
184 248
194 248
198 238
198 228
188 227
178 227
168 227
158 227
148 227
138 227
128 227
118 227
108 227
100 220
113 218
123 218
133 218
143 218
153 218
163 218
173 218
183 218
193 218
198 200
189 195
179 195
169 195
159 195
149 195
139 195
129 195
119 195
109 195
100 190
114 186
124 186
134 186
144 186
154 186
164 186
174 186
184 186
194 186
198 168
198 158
189 153
179 153
169 153
159 153
149 152
148 142
148 132
148 122
148 112
148 102
148 92
148 82
148 72
148 62
148 52
148 42
148 32
148 22
158 20
168 20
178 20
188 20
198 20
208 20
218 20
228 20
238 20
248 20
257 25
257 35
259 45
259 55
259 65
257 80
257 90
257 100
257 110
257 120
257 130
257 140
249 153
239 154
239 164
239 174
239 184
249 186
259 186
264 195
254 195
239 196
239 206
239 216
249 218
259 218
269 218
264 227
254 227
239 228
239 238
240 248
250 248
260 248
270 248
280 248
290 248
300 248
305 257
299 269
289 269
279 269
269 269
259 269
249 269
239 269
229 270
219 271
209 269
199 269
189 269
179 273
169 269
159 269
149 269
139 269
129 269
119 269
109 273
99 269
