48 262
48 252
58 248
68 248
78 248
88 248
98 248
108 248
118 248
128 248
138 248
148 248
158 248
166 242
166 232
157 227
147 227
137 227
127 227
117 227
107 227
97 227
87 227
77 227
72 218
82 218
92 218
102 218
112 218
122 218
132 218
142 218
152 218
162 218
166 203
160 195
150 195
140 195
130 195
120 195
110 195
100 195
90 195
80 195
72 188
85 186
95 186
105 186
115 186
125 186
135 186
145 186
155 186
165 185
166 173
166 163
163 153
153 153
143 153
133 153
123 153
113 153
103 153
93 153
83 152
82 142
82 132
82 122
82 112
82 102
82 92
82 82
82 72
82 62
82 52
82 42
82 32
82 22
92 20
102 20
112 20
122 20
132 20
142 20
152 20
162 20
172 20
182 20
192 20
202 20
212 20
222 20
232 20
242 20
252 20
262 20
272 20
282 20
292 20
302 20
312 20
317 29
317 39
317 49
317 59
317 69
317 79
317 89
317 99
315 112
315 122
315 132
315 142
315 152
305 153
295 153
285 153
275 153
265 153
255 153
245 153
235 153
225 154
225 164
225 174
225 184
235 186
245 186
255 186
265 186
275 186
285 186
295 186
305 186
315 186
325 186
335 186
330 195
320 195
310 195
300 195
290 195
280 195
270 195
260 195
250 195
240 195
225 196
225 206
225 216
235 218
245 218
255 218
265 218
275 218
285 218
295 218
305 218
315 218
325 218
335 218
330 227
320 227
310 227
300 227
290 227
280 227
270 227
260 227
250 227
240 227
225 228
225 238
226 248
236 248
246 248
256 248
266 248
276 248
286 248
296 248
306 248
316 248
326 248
336 248
346 248
353 256
353 266
345 272
335 269
325 269
315 269
305 269
295 269
285 269
275 269
265 269
255 269
245 269
235 269
225 269
215 269
205 269
195 269
185 269
175 269
165 269
155 269
145 269
135 269
125 269
115 269
105 269
95 269
85 270
75 269
65 271
55 270
