116 260
116 250
126 248
142 248
158 248
162 235
155 227
150 218
160 218
162 205
158 195
150 188
161 185
162 169
162 159
162 149
162 139
162 129
162 119
162 109
162 99
162 89
161 79
156 70
156 60
156 50
156 40
162 32
162 22
172 20
182 20
192 20
202 20
212 20
222 20
232 23
233 33
233 43
233 53
233 63
233 73
233 83
233 93
233 103
233 113
233 123
233 133
233 143
225 153
215 153
205 153
195 154
195 164
195 174
195 184
205 186
215 186
225 186
235 186
245 186
255 186
265 186
275 186
270 195
260 195
250 195
240 195
230 195
220 195
210 195
195 198
195 208
196 218
210 218
220 218
230 218
240 218
250 218
260 218
270 218
280 218
275 227
265 227
255 227
245 227
235 227
225 227
215 227
205 227
195 228
195 238
196 248
206 248
216 248
226 248
242 248
258 248
268 248
278 248
285 256
281 269
271 273
261 269
251 269
241 269
231 269
221 269
211 269
201 273
191 269
181 269
171 269
161 269
151 269
141 269
131 269
121 269
