30 246
22 252
38 252
41 262
44 272
47 282
52 291
58 299
64 307
72 314
78 322
84 330
90 338
94 348
96 358
98 368
100 378
98 390
92 400
84 408
78 416
70 424
62 432
68 440
77 445
87 445
97 447
107 447
117 447
127 449
137 449
147 449
157 449
167 449
177 447
187 447
197 447
207 447
217 445
227 442
226 425
218 418
217 408
223 400
231 392
237 384
243 376
249 368
255 358
259 348
263 338
269 330
275 322
283 316
291 310
300 305
309 300
315 292
321 282
327 268
331 254
333 235
333 225
333 215
333 205
333 195
331 185
331 175
331 165
331 155
329 145
329 135
329 125
329 115
327 105
327 95
327 85
324 75
325 65
320 56
313 48
303 44
293 44
283 44
273 41
267 33
258 28
257 39
247 40
237 40
227 40
222 31
212 30
204 36
198 46
192 56
188 68
186 78
184 90
184 100
182 110
182 120
182 130
182 140
182 150
182 160
182 170
184 180
184 190
186 200
188 210
191 220
196 229
202 237
196 246
186 246
176 246
166 246
156 246
146 246
136 246
126 246
116 246
106 246
96 246
86 246
76 246
66 246
56 246
46 246
