72 116
72 106
74 96
74 86
76 76
80 64
85 55
91 47
99 39
108 34
118 30
128 30
132 40
142 40
152 40
162 40
172 40
182 40
192 40
201 35
210 30
220 33
229 38
237 44
243 52
249 60
253 70
255 80
257 90
259 100
259 110
259 120
259 130
257 146
255 158
251 174
248 185
243 194
243 204
244 214
245 224
245 234
245 244
255 246
265 246
275 246
275 257
267 264
265 274
260 289
255 298
249 308
243 316
237 326
232 335
227 344
223 354
219 364
215 378
215 388
216 398
221 407
226 416
234 422
239 431
234 441
224 445
214 447
204 447
194 447
184 449
174 447
164 447
154 447
144 445
134 443
126 436
126 426
135 421
140 412
142 398
138 388
134 378
130 368
128 358
126 348
124 338
122 328
117 319
111 311
103 305
95 298
88 290
82 282
78 272
76 262
74 252
73 242
72 232
74 216
74 206
74 196
76 180
76 170
78 156
76 146
74 136
74 126
