24 202
24 192
26 174
26 164
26 154
28 136
28 126
28 116
30 98
30 88
32 78
32 68
36 54
44 48
54 44
64 44
74 44
84 38
92 30
99 38
109 40
119 40
129 40
135 31
145 32
153 38
159 46
163 56
166 66
169 76
171 86
172 96
173 106
174 116
175 126
175 136
175 146
175 156
173 172
171 190
169 202
165 218
161 228
155 238
161 246
171 246
181 246
191 246
201 246
211 246
221 246
231 246
241 246
251 246
261 246
271 246
281 246
291 246
301 246
311 246
323 246
331 253
317 254
311 266
308 281
303 290
297 298
291 306
285 314
277 322
271 330
265 340
261 350
257 362
255 374
255 384
258 394
266 401
272 409
278 417
286 424
292 432
287 441
277 444
267 445
257 447
247 447
237 447
227 447
217 447
207 449
197 447
187 447
177 447
167 447
157 447
147 445
137 443
127 440
124 430
132 424
140 415
136 405
130 397
123 389
117 381
111 373
106 364
100 356
96 346
92 336
86 328
80 320
71 315
63 309
54 304
46 298
40 290
34 282
30 272
28 262
24 252
24 242
24 232
24 222
24 212
