85 257
80 248
90 246
100 246
102 236
102 226
104 208
104 198
104 188
100 178
97 168
94 158
92 148
91 138
90 128
90 118
90 108
90 98
92 84
96 70
100 60
106 52
112 44
120 38
129 33
139 30
149 34
157 40
167 40
177 40
187 40
197 40
207 40
217 39
222 30
232 31
242 35
251 40
258 48
264 56
269 65
273 75
275 85
275 95
277 105
277 115
275 134
273 148
269 166
269 176
269 186
269 196
271 206
271 216
271 226
272 236
270 247
269 260
265 276
259 286
251 296
243 304
237 312
231 320
225 330
223 342
221 354
217 372
213 386
209 398
213 408
218 417
226 424
229 436
220 443
210 445
200 447
190 447
180 447
170 447
160 447
150 447
140 445
130 443
121 438
120 428
128 422
134 414
139 405
144 396
144 377
140 367
136 357
132 347
128 337
123 328
118 319
112 311
106 303
101 294
96 285
94 275
91 265
