49 92
49 102
49 112
49 122
49 132
49 142
49 152
49 162
49 172
49 182
49 192
49 202
49 212
49 222
49 232
49 242
49 252
49 262
49 272
49 282
49 292
49 302
49 312
49 322
49 332
49 342
49 352
49 362
49 372
49 382
49 392
49 402
49 412
49 422
49 432
49 442
49 452
49 462
49 472
49 482
49 492
49 502
49 512
49 522
49 532
49 542
49 552
49 562
49 572
49 582
49 592
49 602
49 612
49 622
49 632
49 642
49 652
49 662
49 672
49 682
49 692
59 96
59 695
65 104
67 689
75 107
77 684
82 115
85 675
90 122
95 670
98 129
104 665
107 134
112 659
114 142
122 149
122 654
130 645
131 154
139 161
140 640
145 169
149 635
153 175
157 629
162 180
167 624
170 187
175 615
177 195
185 202
185 610
193 209
194 605
202 214
203 600
209 222
212 594
217 229
222 589
226 234
230 580
234 241
240 249
240 575
248 255
249 570
257 260
257 564
265 267
267 559
272 275
275 550
280 282
285 545
289 287
294 540
297 294
302 534
304 302
312 309
312 529
320 520
321 314
329 321
330 515
339 324
340 515
349 324
350 510
359 324
360 510
369 324
370 510
379 324
380 505
389 324
390 505
398 319
400 505
407 314
410 500
416 309
420 500
424 297
429 287
430 500
434 277
439 267
440 495
444 257
449 247
450 495
454 237
459 227
460 495
464 217
470 490
472 209
480 201
480 490
490 196
490 490
498 190
500 490
505 198
509 485
513 205
519 485
520 213
525 222
529 485
530 231
535 240
538 480
540 249
545 258
548 480
550 267
555 276
558 480
560 285
565 294
567 475
570 303
577 475
578 310
585 318
587 475
595 322
596 470
605 324
606 470
615 324
616 473
624 480
625 324
630 488
635 324
638 495
645 324
645 503
653 510
655 324
660 518
664 317
668 525
672 309
675 533
680 301
683 540
688 294
690 548
695 286
698 555
703 279
705 563
710 271
713 570
718 264
720 578
725 256
728 585
733 249
735 593
740 241
743 600
748 234
750 608
755 226
758 615
763 219
765 623
770 211
773 630
778 204
780 638
785 196
788 645
793 189
795 653
800 181
803 660
808 174
810 668
815 166
818 675
823 159
825 683
830 151
833 690
838 144
840 698
845 136
848 705
853 129
855 713
860 121
863 720
868 114
870 728
875 106
878 735
883 99
885 743
890 91
893 749
895 100
895 110
895 120
895 130
895 140
895 150
895 160
895 170
895 180
895 190
895 200
895 210
895 220
895 230
895 240
895 250
895 260
895 270
895 280
895 290
895 300
895 310
895 320
895 330
895 340
895 350
895 360
895 370
895 380
895 390
895 400
895 410
895 420
895 430
895 440
895 450
895 460
895 470
895 480
895 490
895 500
895 510
895 520
895 530
895 540
895 550
895 560
895 570
895 580
895 590
895 600
895 610
895 620
895 630
895 640
895 650
895 660
895 670
895 680
895 690
895 700
895 710
895 720
895 730
