14 67
19 57
24 70
29 52
34 70
37 44
43 75
44 157
44 167
44 177
47 44
49 142
49 186
52 70
54 127
54 195
54 205
57 44
60 213
62 70
62 119
65 222
67 44
67 109
69 97
72 74
74 84
74 227
77 39
80 235
86 243
87 34
94 249
95 26
102 255
103 19
110 262
113 19
117 270
122 14
125 277
132 14
134 282
139 402
141 19
142 289
149 397
150 24
151 294
154 406
158 30
159 300
159 427
161 414
162 399
165 38
168 305
169 430
170 100
172 110
172 399
173 45
175 55
177 119
177 310
178 93
179 432
180 64
180 75
181 394
186 124
186 385
187 314
189 432
195 129
196 319
196 389
199 430
204 134
205 394
206 323
209 347
209 430
210 142
210 333
214 356
215 394
218 425
219 147
219 365
219 375
228 423
229 151
235 415
238 156
240 330
240 340
240 350
240 360
240 370
242 380
245 390
245 410
248 160
249 325
250 399
255 168
255 410
259 325
265 172
265 407
269 325
274 177
278 330
284 181
288 330
290 189
298 330
299 194
307 335
308 199
317 204
317 335
324 212
327 335
334 216
336 340
343 221
346 340
350 229
356 343
360 232
366 343
368 239
374 349
377 244
382 355
386 249
390 362
394 256
399 367
403 261
409 370
413 265
418 375
422 270
422 385
430 277
432 385
439 282
440 392
447 289
450 395
457 289
459 400
466 294
469 400
475 299
479 397
485 302
489 400
494 307
498 395
504 311
508 393
510 319
516 399
520 319
520 385
525 394
529 324
530 385
538 329
539 380
547 374
548 330
555 338
555 348
555 358
