29 67
35 75
39 64
45 77
49 62
52 85
59 57
62 89
69 54
72 90
74 297
77 99
78 49
79 252
79 262
79 282
79 306
79 316
84 107
84 237
84 271
84 325
88 49
89 116
89 192
89 202
89 212
89 222
89 334
89 344
91 354
94 125
94 135
94 167
94 177
94 364
95 41
96 374
99 144
99 154
104 380
105 39
110 388
111 30
118 395
121 29
124 403
129 22
129 412
129 607
134 421
135 615
139 19
139 604
141 429
144 620
149 19
149 435
149 604
154 620
159 19
159 435
159 604
162 445
164 620
168 24
169 604
170 452
174 462
174 620
177 29
179 604
180 39
184 465
184 620
188 45
189 604
193 470
194 620
195 53
198 599
200 62
202 475
204 72
204 567
204 577
204 587
204 620
209 81
212 475
213 91
214 552
214 562
214 620
215 101
215 111
215 121
215 580
215 590
215 600
217 484
219 542
221 129
223 573
224 492
224 532
224 620
225 139
225 560
225 604
229 501
229 522
230 148
234 510
234 617
235 157
235 167
235 177
235 550
235 604
240 186
240 540
243 196
248 533
250 204
250 520
255 213
260 222
260 520
267 230
269 525
274 534
275 237
280 542
282 245
287 550
290 252
295 557
297 260
302 269
304 562
309 277
309 571
314 286
314 580
320 294
320 588
325 303
325 505
325 515
328 595
330 495
330 524
335 307
335 533
335 603
339 317
339 490
340 542
343 610
345 325
345 551
348 561
349 490
350 334
350 618
355 343
355 569
355 579
358 625
359 490
360 588
365 347
368 595
368 625
369 490
370 605
372 355
375 614
378 495
380 362
384 372
388 495
390 380
395 389
397 500
403 395
407 405
407 504
415 412
416 509
419 422
426 510
427 429
430 439
435 448
436 513
445 452
446 515
449 462
456 518
459 466
465 474
466 520
473 480
474 526
480 488
481 534
488 495
489 540
495 503
498 545
503 510
505 553
510 518
513 560
520 522
522 565
527 530
530 572
535 537
537 580
544 542
547 584
549 551
555 559
555 590
564 595
565 562
567 605
569 572
577 579
577 605
584 587
586 610
594 589
595 615
602 595
605 617
607 604
615 610
