24 177
24 187
32 194
34 174
42 195
43 169
50 161
50 202
54 212
59 221
59 231
59 241
59 251
59 261
59 271
59 281
60 156
64 290
67 300
68 149
69 310
69 320
69 330
72 340
74 350
74 360
75 141
79 369
79 577
81 379
85 139
86 388
87 584
89 572
90 398
95 139
95 407
97 585
99 569
102 415
105 139
107 424
107 585
109 569
114 432
114 547
114 557
115 139
116 580
122 439
124 546
125 139
125 575
129 447
133 551
135 142
135 570
139 450
143 555
144 147
145 572
148 455
152 154
153 559
155 575
157 460
161 159
162 554
165 575
167 464
167 544
170 164
174 580
175 470
176 539
180 167
180 550
182 560
182 574
184 532
185 176
185 470
188 543
190 185
194 527
195 194
195 472
198 538
200 203
204 522
205 212
205 475
208 533
210 221
212 514
215 230
215 477
218 528
220 239
222 509
224 482
228 245
228 523
229 491
232 504
234 515
234 562
235 253
240 570
243 260
244 512
244 559
250 570
252 265
254 507
254 559
260 495
260 570
262 269
264 559
269 277
269 490
270 572
274 559
278 485
279 281
280 575
283 554
284 542
288 286
288 483
289 532
290 575
294 522
295 545
298 289
298 480
299 512
300 535
300 554
300 575
307 294
307 504
308 478
308 528
308 560
309 492
310 515
310 575
316 299
317 565
318 508
320 495
320 575
325 304
328 488
333 478
335 304
340 470
344 309
348 463
353 314
355 455
362 319
363 448
368 438
371 324
375 430
381 324
383 423
390 329
393 418
399 334
403 413
407 340
413 408
417 344
423 405
426 349
432 399
435 354
442 395
444 349
451 390
454 349
461 390
464 349
471 390
474 349
480 385
484 347
490 380
494 344
500 380
504 344
510 375
514 344
520 375
524 344
530 370
534 344
540 370
544 344
550 370
554 344
560 370
564 344
569 365
574 342
579 365
584 339
589 365
594 339
599 365
604 339
609 365
614 339
619 365
624 339
629 365
634 339
639 365
644 339
648 360
654 337
658 358
664 334
668 355
674 334
678 353
684 334
688 350
693 339
698 348
