79 502
79 512
84 492
84 521
84 531
89 540
92 484
98 545
100 476
107 550
108 469
117 464
117 550
124 587
126 469
127 550
129 572
132 594
134 558
135 474
142 595
145 474
151 600
154 479
160 605
163 484
169 472
170 607
174 462
179 432
179 442
179 452
180 605
184 422
189 407
190 600
194 382
194 392
199 367
200 595
204 352
208 588
209 327
209 337
210 505
210 515
212 525
214 312
215 490
215 535
215 545
215 580
219 287
219 297
220 465
220 475
220 554
220 564
224 277
225 455
230 440
232 269
235 425
240 261
240 415
245 400
248 254
250 375
250 385
255 246
255 360
260 350
263 239
265 335
270 320
272 234
275 310
280 300
282 229
288 293
290 221
295 285
298 214
304 280
305 206
312 274
313 199
320 265
322 194
329 260
330 186
337 254
338 179
345 171
345 245
353 238
355 166
363 233
365 161
370 225
373 154
374 67
374 77
378 218
379 57
379 86
380 146
384 95
385 210
387 49
387 105
388 139
389 115
393 203
394 124
395 41
400 31
400 195
408 188
410 26
418 183
420 24
428 178
430 24
435 170
440 24
444 165
450 24
453 160
460 24
462 165
468 30
472 165
475 38
480 47
480 57
482 165
485 66
492 169
495 69
501 174
505 69
511 175
515 69
521 175
524 74
529 167
532 80
535 155
540 87
540 97
543 148
545 106
550 115
550 140
552 125
