79 507
79 517
84 497
84 526
89 535
92 489
92 545
99 477
102 549
107 469
112 550
116 464
122 550
124 587
126 464
129 558
129 568
129 578
134 471
134 590
143 476
143 595
152 600
153 480
162 604
163 484
172 479
172 605
179 467
182 605
187 459
191 600
194 447
199 437
199 592
207 429
209 587
214 417
219 407
219 582
227 399
227 574
234 387
235 565
239 377
243 558
247 369
250 550
252 359
257 349
259 545
264 337
267 539
272 329
272 529
275 510
277 319
280 495
282 309
284 297
285 485
289 287
290 455
290 465
290 475
294 272
295 445
299 262
300 430
304 247
305 415
309 232
310 390
310 400
314 207
314 217
315 375
319 197
320 365
324 182
325 340
325 350
329 167
330 330
334 157
338 323
339 142
343 313
344 132
349 117
350 300
354 107
355 290
359 92
363 283
364 82
370 270
372 74
378 263
379 62
383 253
387 54
388 243
392 44
395 235
397 34
400 225
405 26
408 218
415 24
415 205
423 198
425 24
428 188
435 24
435 175
440 165
445 24
450 160
455 24
460 162
465 27
470 165
472 35
477 44
480 54
480 165
485 63
490 167
493 69
499 172
503 69
509 175
513 69
519 175
522 74
527 169
531 79
535 155
539 86
540 96
543 148
545 105
550 114
550 124
550 140
