79 497
79 507
79 517
84 526
87 489
89 535
95 481
95 543
103 474
103 550
110 466
113 550
120 464
123 550
124 577
124 587
129 562
130 467
133 550
134 590
139 472
143 595
147 479
152 600
156 484
162 600
166 484
171 605
176 484
181 605
184 477
190 600
194 472
199 595
202 464
207 589
210 456
210 515
210 525
215 505
215 534
215 544
215 580
218 449
220 553
220 563
224 500
227 444
233 495
235 436
242 489
243 429
250 480
252 424
260 416
260 475
268 468
270 411
275 460
278 404
284 455
285 396
293 389
293 450
302 384
302 444
310 376
310 435
318 369
319 430
327 364
327 424
335 415
337 359
345 351
345 410
353 344
354 405
360 336
362 399
364 317
369 287
369 297
369 307
370 390
374 67
374 77
374 247
374 257
374 267
374 277
379 57
379 86
379 222
379 232
380 385
384 95
384 197
384 207
387 49
387 105
388 378
389 115
389 167
389 177
389 187
394 124
394 134
394 144
394 154
395 41
398 373
400 31
405 365
410 26
410 355
415 330
415 340
420 24
420 290
420 300
420 310
420 320
425 275
430 24
430 235
430 245
430 255
430 265
435 210
435 220
440 24
440 180
440 190
440 200
445 170
450 24
453 163
460 24
463 165
468 30
473 165
475 38
480 47
480 57
483 165
485 66
492 170
495 69
502 174
505 69
512 175
515 69
522 174
524 74
530 165
532 80
535 155
540 87
540 97
543 148
545 106
550 115
550 140
552 125
