289 307
289 317
289 327
289 337
289 347
289 357
289 367
289 377
289 387
289 397
289 407
289 417
289 427
294 42
294 52
294 62
294 72
294 82
294 92
294 297
294 436
294 446
299 101
299 111
299 121
299 131
299 287
299 455
299 465
299 475
302 34
302 485
304 140
304 150
304 160
304 170
304 180
304 190
304 200
304 210
304 220
304 230
304 240
304 250
304 260
304 270
304 495
304 505
304 515
309 524
309 534
309 544
309 554
309 564
309 574
309 584
312 29
314 593
314 603
314 613
314 623
319 632
319 642
322 29
324 651
324 661
329 670
329 680
329 690
329 700
329 710
331 24
334 719
334 729
339 738
340 748
341 24
345 757
351 24
352 765
361 24
362 769
371 24
372 770
380 29
382 770
388 35
390 45
390 55
390 65
390 75
390 85
390 95
390 105
390 115
392 770
395 124
400 133
400 143
402 770
405 152
405 162
410 171
411 765
413 181
415 191
418 201
421 765
423 210
427 220
430 760
432 229
435 239
435 249
440 258
440 760
445 267
449 755
450 276
455 285
455 295
455 305
457 315
459 752
460 325
460 335
460 345
465 354
465 364
465 374
469 750
470 383
470 393
470 403
470 413
475 422
478 745
479 432
480 442
480 452
480 462
480 472
480 482
480 492
484 502
485 512
485 522
485 532
487 740
490 541
490 551
490 561
490 571
490 581
495 590
495 600
496 735
500 609
500 619
500 629
500 725
505 638
505 648
505 658
505 668
505 678
505 688
505 698
505 708
