79 142
79 152
84 132
87 159
94 127
95 165
102 119
105 165
110 111
115 165
120 106
124 37
125 165
129 27
129 46
130 101
134 55
135 165
138 94
139 24
139 64
144 73
144 83
145 165
149 24
155 165
159 24
165 165
169 24
175 165
179 24
185 165
189 24
195 167
199 24
204 172
209 24
214 175
219 22
223 180
229 21
232 185
238 26
242 189
248 30
252 190
257 35
262 190
267 39
272 190
276 44
282 190
285 49
292 190
295 49
302 190
305 49
312 190
315 49
322 189
324 44
332 185
334 44
342 185
344 44
352 185
354 42
362 185
364 39
372 185
374 39
382 185
384 39
392 185
394 39
402 185
404 37
412 185
414 34
422 185
424 32
432 185
434 31
441 190
443 36
449 196
453 40
456 204
462 45
466 208
472 49
474 215
481 54
484 215
490 59
494 215
500 62
504 215
510 64
514 215
520 64
524 215
529 59
534 215
539 57
544 215
549 54
554 212
555 150
557 160
559 52
562 169
563 143
564 210
565 179
569 47
570 135
570 188
574 207
575 197
578 128
579 44
585 120
589 46
593 113
595 54
598 103
600 63
605 72
605 95
610 81
