24 162
29 152
29 171
37 144
39 175
44 192
44 202
44 212
44 222
44 232
47 139
49 241
49 251
52 129
56 259
61 268
62 129
65 278
72 124
75 280
82 119
85 280
92 119
94 285
100 275
102 119
105 265
112 119
113 258
122 119
123 255
132 114
133 255
142 114
143 255
152 114
153 255
160 263
162 114
170 260
172 114
177 104
179 265
186 99
188 270
196 95
198 270
206 90
207 275
216 85
217 275
226 84
227 275
235 265
236 80
245 265
246 84
254 270
256 84
263 265
266 80
269 62
269 282
274 52
277 289
282 44
287 290
292 39
297 289
302 34
305 280
310 260
310 270
312 29
320 255
322 29
328 248
332 29
338 248
342 29
348 245
352 29
357 250
362 29
366 245
372 29
376 245
382 29
386 248
392 29
396 245
402 29
406 245
412 29
416 245
421 34
426 245
430 39
436 245
439 44
445 52
445 62
445 72
446 248
449 82
456 250
457 89
460 99
466 250
469 104
475 255
479 106
485 255
488 111
495 255
498 114
505 255
507 119
515 255
517 119
523 248
526 124
528 238
530 225
535 215
536 124
545 119
545 215
553 208
555 119
558 198
560 170
560 180
565 122
568 163
570 145
572 130
