24 167
24 177
24 187
29 157
32 194
34 142
39 202
39 212
39 222
39 232
39 242
39 252
39 262
44 142
47 269
52 134
54 277
62 129
62 284
71 124
71 289
80 119
81 290
90 116
90 285
99 280
100 116
105 270
110 114
114 265
120 114
124 265
130 114
134 267
140 114
144 267
150 114
154 267
160 114
164 265
166 105
174 92
174 265
184 94
184 265
190 102
194 265
200 101
204 265
208 94
214 265
215 86
224 267
225 84
234 270
235 84
244 267
245 84
250 255
253 90
256 263
259 273
260 283
263 94
268 290
270 86
272 99
274 32
274 42
274 52
274 62
274 72
277 295
282 24
286 300
292 24
296 300
302 24
306 303
312 24
316 305
322 24
325 300
332 24
335 290
340 270
340 280
341 29
349 265
351 29
359 265
361 30
369 265
371 30
379 265
381 34
389 265
391 30
399 265
401 30
409 267
411 34
419 267
420 29
429 34
429 270
438 39
438 265
447 44
447 260
455 50
455 60
455 70
455 80
457 90
457 260
467 94
467 260
474 102
477 264
482 109
484 272
490 280
492 109
500 275
502 109
509 270
512 109
517 264
520 220
520 230
520 250
522 109
522 240
529 215
532 109
538 210
542 109
547 204
552 109
555 195
562 109
563 188
568 178
570 165
572 109
578 158
579 117
585 125
585 135
585 145
