24 157
24 167
29 176
29 186
32 149
34 195
34 205
34 215
34 225
34 235
39 244
39 254
41 264
42 144
44 274
50 136
52 280
60 131
61 285
70 129
71 285
80 126
81 285
90 124
90 280
95 270
100 124
104 275
110 124
110 265
116 273
120 124
125 265
130 124
134 270
140 124
144 270
150 124
153 265
157 275
160 124
165 265
170 121
174 107
174 270
182 99
184 270
192 94
193 265
197 275
202 94
203 265
212 94
213 265
220 86
223 265
228 79
232 260
238 79
241 255
247 74
250 250
256 79
259 245
260 89
268 250
269 94
269 260
269 270
274 279
276 289
278 89
279 52
279 62
279 72
284 42
284 295
292 34
293 300
301 29
303 300
310 24
312 294
320 24
322 289
327 280
330 24
336 275
339 29
340 265
345 250
349 29
350 262
355 250
359 31
364 245
369 34
374 245
379 36
384 245
385 44
394 245
395 44
404 245
405 44
414 245
415 44
424 245
425 47
434 245
435 49
444 245
445 46
454 245
455 47
455 57
455 70
455 85
457 255
460 94
465 103
465 262
472 270
475 102
481 275
483 109
491 275
493 110
501 275
503 114
510 270
513 114
520 265
522 119
528 258
530 225
530 235
530 245
532 119
539 220
542 114
548 215
551 119
558 213
560 114
568 208
569 119
570 180
570 190
575 170
579 121
580 131
585 165
589 136
590 146
590 156
