24 242
24 252
24 262
24 272
24 282
24 292
24 302
29 142
29 152
29 162
29 172
29 182
29 192
29 202
29 212
29 227
29 311
29 332
34 320
34 341
34 351
37 134
41 359
46 368
47 134
54 375
56 139
57 385
65 144
65 392
69 402
75 147
77 409
84 417
84 552
84 562
85 149
89 426
89 571
92 544
94 435
94 457
95 149
97 445
99 466
99 476
99 486
99 496
99 506
99 516
99 526
99 536
99 575
105 149
109 577
115 149
119 575
125 149
129 572
135 149
137 564
140 550
145 149
145 510
145 520
145 530
145 540
150 480
150 490
150 500
155 146
155 465
159 577
160 455
164 567
164 586
165 141
169 460
169 470
171 594
172 480
172 559
174 490
175 136
175 175
175 185
177 195
179 499
179 509
179 519
179 529
179 539
179 549
180 165
181 595
185 134
185 150
185 202
191 595
194 207
195 137
200 590
204 209
210 585
214 211
215 555
215 565
215 575
220 535
220 545
224 214
225 515
225 525
230 490
230 500
234 214
235 470
235 480
240 455
244 214
248 448
254 214
255 440
264 214
265 440
274 214
275 440
284 214
285 440
294 214
294 445
294 542
294 552
300 453
302 534
304 216
304 555
310 457
311 529
314 219
314 555
317 465
320 524
324 219
324 555
325 472
326 515
333 550
334 219
334 477
334 502
339 486
343 548
344 219
353 543
354 219
363 224
363 538
364 557
364 567
364 577
370 530
373 224
374 552
374 580
378 523
382 544
383 224
383 585
388 518
392 229
392 544
393 585
395 510
400 536
402 229
403 583
404 505
405 526
409 514
411 234
413 578
418 568
420 239
425 560
429 244
433 553
439 246
440 545
445 254
445 535
453 260
453 528
458 518
462 265
463 508
465 445
465 455
467 465
468 498
470 272
470 435
472 474
473 488
477 280
479 430
482 289
489 297
489 430
492 440
495 305
497 315
499 448
502 324
504 457
505 334
510 343
512 464
515 352
519 362
519 472
520 372
525 381
527 479
530 390
530 400
535 409
535 485
540 418
544 490
545 427
550 436
550 498
556 444
560 502
564 451
570 459
570 505
578 465
579 510
587 470
588 515
597 474
597 520
604 482
607 520
614 484
617 520
624 486
627 520
634 489
637 520
644 489
647 520
654 489
657 520
664 489
667 520
673 484
677 520
683 484
686 515
692 479
695 510
702 479
705 489
705 505
