24 222
24 232
24 242
32 214
32 249
34 192
34 202
39 182
40 255
49 177
49 260
57 169
59 257
62 159
67 149
69 255
75 141
75 263
83 134
83 270
89 278
90 142
90 152
94 287
99 157
99 296
104 305
109 159
110 313
117 165
118 320
122 330
124 477
127 169
129 486
130 337
132 469
134 177
134 347
139 356
139 490
140 185
142 464
144 442
144 452
148 191
149 360
149 370
149 422
149 432
149 490
154 379
154 389
154 399
154 409
158 195
158 485
164 502
167 200
167 479
170 510
172 469
172 494
175 455
177 204
179 515
180 435
180 445
180 486
186 209
188 479
189 430
189 457
189 467
189 512
194 439
195 204
199 507
204 497
205 204
210 485
215 201
215 475
220 460
225 199
225 440
225 450
230 430
235 199
235 415
240 395
240 405
245 196
245 380
253 373
255 194
263 375
265 194
273 375
274 189
282 370
284 189
292 370
294 189
302 370
303 184
312 370
313 184
322 370
323 184
332 370
333 184
339 472
342 370
343 184
344 481
349 467
350 377
353 184
354 485
357 385
357 459
363 184
364 485
365 392
367 454
372 189
372 400
374 410
374 485
375 446
380 418
380 436
382 189
383 480
391 194
392 474
400 460
401 194
409 455
409 492
409 502
411 195
415 445
417 509
419 487
420 435
421 199
427 510
428 428
429 477
430 204
436 505
437 469
438 430
439 440
439 452
440 207
445 500
450 209
453 493
460 212
460 480
465 470
470 214
470 320
470 330
470 340
470 350
470 360
470 370
470 380
470 390
470 460
472 400
475 410
475 450
478 313
480 214
480 300
480 419
480 440
485 290
485 428
490 214
490 255
490 265
490 275
499 219
500 255
509 219
509 260
515 268
518 224
523 275
527 229
532 280
536 234
537 289
545 239
545 295
549 305
550 248
555 313
558 255
562 265
563 320
570 272
570 328
574 282
575 337
582 289
582 345
589 297
590 352
594 306
599 357
600 314
605 323
607 364
610 332
617 364
618 339
625 347
625 357
