124 212
124 222
124 232
132 204
132 239
140 245
141 199
150 245
151 199
160 240
161 199
170 240
171 199
180 240
181 199
190 204
190 240
200 204
200 242
210 204
210 245
219 147
220 204
220 247
224 156
227 139
229 165
229 209
229 252
229 622
229 632
232 175
234 641
237 139
237 259
237 614
239 211
241 180
244 645
246 264
247 134
247 614
249 214
251 180
254 270
254 645
257 134
257 609
259 214
260 175
264 185
264 270
264 645
266 129
267 195
267 609
269 205
270 278
273 640
275 134
277 604
280 282
282 634
284 502
284 512
284 522
284 532
284 542
285 137
285 596
289 287
289 297
289 307
289 492
289 551
292 145
292 630
293 589
294 316
294 326
294 336
294 346
294 356
294 482
294 560
294 570
299 365
299 375
299 472
300 152
301 625
304 384
304 394
304 404
304 457
305 161
306 414
310 620
311 169
311 423
314 112
314 122
314 132
314 433
314 443
314 453
315 179
319 87
319 97
319 615
322 139
324 184
329 84
329 147
329 157
329 612
333 179
337 164
339 82
339 607
340 585
340 595
347 74
348 578
355 66
358 575
365 61
368 575
373 54
377 569
379 42
384 27
386 574
394 26
396 575
398 36
400 46
405 55
405 580
414 585
415 59
423 590
425 59
432 595
434 52
442 44
442 595
445 265
445 275
445 285
447 295
449 603
449 637
449 647
450 235
450 245
450 255
452 44
454 612
455 54
455 64
455 302
457 629
459 230
459 650
460 73
460 83
460 93
460 165
460 175
460 311
460 321
465 102
465 112
465 122
465 132
465 142
465 152
465 330
465 340
469 230
469 650
470 176
470 349
470 359
470 369
470 379
475 388
475 535
475 545
475 555
475 565
477 224
479 374
479 650
480 174
480 397
480 407
480 525
480 574
482 215
485 382
485 416
485 426
485 436
485 446
485 456
485 500
485 510
485 583
485 593
488 369
489 179
489 392
489 650
490 602
490 612
490 622
492 214
494 401
494 632
495 377
495 459
495 500
495 642
497 185
499 410
500 205
502 420
504 382
505 192
505 459
505 495
512 424
514 384
514 434
514 444
514 454
515 495
524 386
525 495
530 394
533 488
535 403
540 480
543 410
548 473
550 418
550 428
550 438
550 448
550 458
