29 387
29 397
29 407
29 417
34 426
37 379
44 430
47 379
53 435
54 217
54 232
54 242
54 252
54 262
54 272
54 282
54 292
54 302
54 312
54 322
54 332
57 379
59 207
59 341
63 435
64 350
65 385
67 199
70 358
70 394
72 189
73 435
74 368
79 177
79 399
82 375
83 435
87 169
89 399
92 379
92 430
96 164
99 399
102 375
102 430
105 159
109 399
112 375
112 429
114 152
114 385
122 429
124 147
132 139
132 425
142 134
142 425
151 420
152 129
161 420
162 129
170 415
172 129
180 410
182 129
189 47
189 415
192 124
194 56
197 39
197 409
201 64
202 124
207 39
207 409
211 60
211 119
217 39
217 405
221 60
221 119
226 34
226 400
229 66
229 76
230 114
234 85
236 34
236 400
239 119
243 90
244 100
244 110
245 395
246 34
249 119
255 29
255 75
255 395
260 84
260 105
265 29
265 75
265 93
265 114
265 390
270 380
275 32
275 75
275 111
279 385
280 65
284 37
285 47
285 114
288 58
289 385
295 114
299 385
305 114
309 385
315 114
319 385
325 114
329 385
335 114
339 382
345 114
349 380
355 117
359 380
364 122
369 377
370 175
374 124
375 184
379 170
379 372
384 124
385 184
389 170
389 370
394 126
395 136
395 150
395 160
395 184
399 367
405 184
409 367
410 280
412 290
415 184
417 299
417 360
420 275
425 184
427 299
427 360
429 270
435 184
436 355
437 299
438 265
444 307
445 184
446 355
447 260
450 320
450 330
450 340
455 184
457 259
465 184
465 250
475 184
475 245
485 184
485 240
495 184
495 235
505 184
505 230
515 184
515 225
525 184
525 220
535 184
535 220
544 215
545 184
554 215
555 181
562 209
565 182
570 191
570 201
