29 287
29 297
29 307
29 377
29 387
34 257
34 267
34 277
34 316
37 369
37 394
39 227
39 247
39 325
44 236
47 219
47 369
47 395
49 197
49 207
49 325
54 187
56 374
56 400
59 325
62 179
65 379
66 400
69 325
70 171
75 379
76 400
78 164
78 330
85 156
85 377
86 400
88 330
93 149
95 379
96 400
97 335
102 144
105 376
106 330
106 400
111 139
115 335
115 371
116 400
120 134
124 340
125 374
126 400
129 127
134 342
134 369
136 400
137 119
143 364
144 345
146 400
147 119
155 395
156 114
164 400
166 115
173 395
176 114
182 390
186 114
192 394
196 114
200 385
204 47
204 57
206 110
210 385
212 39
214 55
216 114
220 385
222 39
223 60
225 109
229 82
229 380
232 39
233 60
235 106
237 74
237 89
239 382
241 34
244 97
247 375
250 29
255 50
255 60
255 70
256 370
260 29
263 76
265 50
265 86
266 370
268 96
270 29
270 335
270 345
270 355
275 45
278 99
279 330
280 32
288 99
289 330
298 99
299 330
307 104
309 330
317 104
319 330
327 104
329 330
337 104
339 330
347 104
349 330
357 104
359 330
360 114
360 165
365 174
369 119
369 330
370 160
373 180
378 325
379 116
380 155
383 184
387 330
389 116
390 155
392 179
396 325
398 121
400 155
402 174
405 129
405 145
405 255
405 265
405 320
410 274
411 179
414 315
415 255
420 274
421 179
424 317
425 250
430 174
430 277
434 315
435 245
435 286
438 296
440 172
440 306
445 245
450 171
455 240
458 164
464 235
468 164
472 229
478 164
480 220
488 164
490 220
498 164
499 215
507 209
508 164
515 200
518 164
525 200
528 164
535 200
538 164
545 195
548 164
555 195
558 164
560 185
568 164
569 180
575 172
