14 147
22 139
22 154
29 162
30 131
31 144
34 171
35 121
39 180
42 190
43 114
51 195
52 109
59 92
60 200
67 84
69 205
76 89
79 205
84 82
88 200
92 74
98 198
100 66
105 190
110 66
114 185
120 66
120 193
125 202
130 66
135 205
140 64
144 210
149 69
154 210
158 64
164 210
168 64
174 207
178 64
184 202
188 64
192 194
198 64
200 180
208 64
210 180
218 64
220 180
222 54
224 37
230 180
232 29
240 180
242 29
250 180
252 24
260 180
262 24
270 180
272 24
280 180
282 24
290 180
292 19
299 175
302 19
309 175
312 19
319 175
322 19
329 175
332 19
339 175
342 19
344 184
346 194
352 14
356 198
362 14
365 203
372 14
375 202
382 14
385 202
392 14
395 200
402 14
403 193
409 185
411 19
419 182
421 15
427 189
431 19
431 199
441 19
441 203
449 210
451 19
459 210
460 24
469 212
470 27
479 32
479 207
487 39
487 199
490 49
495 58
495 75
495 190
500 84
500 175
509 170
510 84
519 170
520 82
527 90
529 170
530 100
530 110
535 119
538 175
540 128
540 138
540 148
547 170
548 154
555 162
