159 287
159 297
164 277
164 306
164 316
164 326
164 336
164 346
169 355
169 365
169 375
172 269
172 385
174 257
174 395
177 405
179 415
182 249
184 424
186 434
189 444
189 454
191 254
194 463
194 473
194 483
194 493
195 264
195 503
199 513
199 523
199 533
199 543
199 553
199 563
200 273
200 573
204 583
204 593
205 282
205 292
205 302
205 312
209 602
209 612
210 321
210 331
213 341
214 621
214 631
214 641
214 651
215 351
215 361
219 660
219 747
220 370
222 380
224 669
224 732
225 390
226 679
229 689
229 717
229 750
230 399
231 699
234 307
234 317
234 327
238 405
239 272
239 282
239 292
239 336
239 346
239 356
239 750
244 247
244 257
244 365
244 375
244 385
244 395
249 232
249 750
254 212
254 222
259 192
259 202
259 750
267 184
269 750
277 179
278 745
282 169
288 745
292 169
295 275
295 285
295 295
295 305
297 315
298 745
300 175
300 220
300 230
300 240
300 250
300 260
300 325
300 335
300 345
305 184
305 205
305 291
305 354
308 745
309 265
309 275
309 301
309 311
309 330
309 340
310 193
314 247
318 745
319 198
319 208
319 218
319 228
319 238
324 182
328 745
329 167
334 157
338 745
342 149
348 745
350 141
358 134
358 745
365 280
365 290
365 300
367 310
368 135
368 745
370 255
370 265
370 320
370 330
372 340
375 143
375 230
375 240
377 349
378 745
380 152
380 185
380 195
380 205
380 215
380 359
385 161
385 171
388 745
390 356
395 346
398 745
399 327
404 257
404 267
404 277
404 287
404 297
404 307
404 317
408 745
409 232
409 242
414 202
414 212
414 222
418 745
419 177
419 187
427 169
428 743
430 725
436 164
438 718
443 708
444 157
450 700
452 164
455 174
460 183
460 360
460 370
460 380
460 390
460 400
460 695
465 192
465 295
465 305
465 315
465 325
465 335
465 345
465 409
465 419
465 429
470 201
470 211
470 221
470 231
470 241
470 251
470 261
470 271
470 281
470 438
470 448
470 458
470 468
470 478
470 488
470 680
470 690
475 497
475 507
478 673
483 663
485 506
490 496
490 650
495 486
495 640
499 467
503 633
504 447
504 457
509 417
509 427
509 437
510 620
514 382
514 392
514 402
515 610
520 600
522 374
527 364
528 593
535 575
535 585
537 359
540 550
540 560
545 530
545 540
547 359
550 515
555 365
555 490
555 500
560 374
560 480
565 383
565 393
565 403
565 413
565 423
565 433
565 465
570 442
570 452
