194 222
194 232
194 242
194 252
194 262
194 272
194 282
199 291
199 301
199 311
199 321
202 214
204 330
204 340
207 350
209 202
209 360
209 370
209 380
209 390
209 400
209 410
209 420
209 430
214 192
214 439
214 449
214 459
214 469
214 479
214 489
214 499
214 509
214 519
214 529
214 687
214 697
219 538
219 548
219 558
222 184
222 679
224 567
224 577
224 700
227 669
229 192
229 586
229 596
234 605
234 615
234 625
234 635
234 645
234 655
234 700
235 200
235 210
240 219
240 229
240 239
240 249
240 259
240 269
244 700
245 278
245 288
250 297
250 307
254 317
254 700
255 327
255 337
259 262
259 272
259 282
260 346
264 247
264 291
264 301
264 311
264 321
264 332
264 700
269 232
274 217
274 700
279 172
279 182
279 192
279 202
284 152
284 162
284 700
289 137
294 700
297 129
302 119
304 700
311 114
314 700
319 107
320 225
320 235
320 245
320 255
320 265
320 275
322 285
324 700
325 195
325 205
325 215
327 99
327 294
330 109
330 180
330 304
334 700
335 160
335 170
337 294
338 115
339 222
339 232
339 242
339 252
339 262
339 272
339 282
340 145
342 125
344 202
344 212
344 700
345 135
349 192
354 177
354 700
359 152
359 162
364 107
364 117
364 127
364 137
364 700
369 92
374 700
379 89
384 700
385 81
393 74
394 700
400 260
400 270
400 280
400 290
402 69
402 300
404 700
405 185
405 195
405 205
405 215
405 225
405 235
405 245
405 310
409 77
410 160
410 170
413 304
414 86
414 700
415 125
415 135
415 145
419 277
419 287
420 94
420 104
420 114
424 247
424 257
424 267
424 697
429 217
429 227
429 237
429 687
434 192
434 202
435 675
439 157
439 167
439 177
443 668
444 132
444 142
449 117
450 660
459 112
460 655
468 648
469 107
473 638
475 325
475 335
475 345
475 355
477 365
479 106
480 295
480 305
480 315
480 375
480 385
480 395
480 405
480 630
482 415
483 116
485 126
485 250
485 260
485 270
485 280
485 425
485 435
485 445
485 620
490 135
490 190
490 200
490 210
490 220
490 230
490 240
490 454
490 464
492 145
495 155
495 165
495 175
495 600
495 610
499 442
503 593
504 432
510 580
512 424
514 397
514 407
515 570
519 377
519 387
520 560
524 367
528 553
529 357
534 342
535 540
539 332
543 533
544 322
545 520
550 505
554 319
555 470
555 480
555 490
560 455
564 317
568 448
573 438
574 314
578 428
580 322
580 375
580 385
580 395
580 405
580 415
585 331
585 360
588 341
590 351
