219 282
219 292
224 301
224 311
227 274
229 262
229 320
229 330
234 247
234 339
234 349
239 358
244 251
244 367
249 376
250 259
254 385
257 395
259 405
260 262
260 272
262 415
264 282
264 425
269 434
269 444
270 290
272 300
274 453
275 310
275 463
279 473
279 483
279 493
279 503
279 513
279 523
279 533
279 543
279 553
279 563
279 573
279 583
279 593
279 603
280 319
280 329
284 187
284 612
284 622
284 632
285 338
289 177
289 196
289 641
289 651
289 717
290 347
294 205
294 215
294 660
294 692
294 702
295 356
295 725
297 169
297 670
299 152
299 224
299 234
299 244
299 254
299 680
300 365
300 375
304 263
304 273
304 283
305 293
305 384
305 725
309 149
309 303
309 313
310 323
313 390
314 333
315 725
317 155
317 400
319 342
319 352
319 362
324 371
324 381
324 391
325 162
325 725
332 170
335 725
340 177
340 187
345 196
345 206
345 216
345 226
345 727
350 235
350 245
350 255
355 264
355 730
360 273
360 283
365 292
365 302
365 730
370 311
373 321
375 732
380 329
385 338
385 735
393 344
395 735
400 352
405 735
408 359
412 349
414 740
419 337
424 327
424 740
429 302
429 312
434 282
434 292
434 740
442 274
444 740
447 264
449 252
453 745
454 242
459 232
463 745
464 217
469 197
469 207
473 745
474 187
479 177
482 750
484 157
484 167
485 355
485 365
485 375
490 340
492 149
492 749
495 305
495 315
495 325
495 371
497 739
500 141
500 295
503 364
505 280
505 725
507 354
510 136
510 260
510 270
514 332
514 342
515 235
515 245
515 720
518 129
519 317
520 215
520 225
523 713
524 307
525 205
528 130
530 140
530 190
530 705
532 299
534 282
535 149
535 159
535 169
535 179
540 700
542 274
547 264
548 693
552 254
553 683
554 227
554 237
555 405
555 415
555 425
555 435
555 445
555 455
555 465
555 475
555 485
557 495
559 217
560 390
560 505
560 675
562 515
564 207
565 380
565 525
568 668
569 197
570 365
575 355
575 529
575 660
577 189
580 330
580 340
580 650
584 524
585 181
585 320
588 643
590 310
594 522
595 176
595 300
595 635
600 275
600 285
600 625
602 514
605 174
605 260
609 620
610 183
610 193
610 250
610 506
615 202
615 212
615 235
617 614
618 499
620 221
622 489
622 604
627 479
630 590
632 469
635 580
639 457
640 565
647 449
648 558
655 441
655 550
663 434
663 543
668 533
672 429
675 525
680 421
683 518
685 505
688 414
690 495
698 414
698 488
703 478
708 414
708 468
715 455
718 415
720 425
720 435
720 445
