24 237
24 257
30 245
34 234
34 260
43 265
44 234
50 273
54 232
58 280
64 229
65 288
69 298
74 231
74 307
74 317
79 326
80 239
84 335
85 248
87 345
90 257
94 353
95 266
95 363
98 276
100 286
103 370
105 295
107 305
107 380
112 314
115 324
115 387
122 395
123 330
130 338
130 402
135 347
137 410
142 355
147 414
150 362
155 420
159 367
164 425
169 371
173 430
178 376
182 435
188 379
190 442
197 450
198 379
205 457
208 379
212 465
218 379
220 472
224 702
227 374
230 475
234 699
236 709
237 369
239 480
239 512
239 522
239 532
239 542
244 502
244 551
244 699
246 710
247 369
249 480
249 490
249 560
254 569
254 697
255 525
255 535
255 545
256 364
256 710
260 554
262 575
264 520
264 530
264 692
266 360
266 710
267 540
268 560
272 684
275 547
276 359
276 710
280 515
280 525
280 676
282 535
282 555
285 500
286 359
286 710
290 542
290 671
290 695
292 559
295 354
295 495
295 661
298 688
299 547
302 559
303 654
303 678
304 500
305 354
309 637
310 508
310 670
314 518
314 528
314 538
314 548
314 627
315 351
315 558
318 663
319 568
319 578
319 607
319 617
324 587
324 597
325 349
325 655
333 648
335 349
340 635
345 349
345 605
345 615
345 625
350 575
350 585
350 595
355 349
355 555
355 565
360 525
360 535
360 545
365 349
369 520
375 349
378 525
385 349
385 533
395 349
395 537
402 545
404 354
411 550
414 354
419 556
424 354
429 560
430 500
432 510
433 359
438 565
440 495
440 517
443 360
447 525
448 565
450 490
453 364
457 529
457 570
458 483
462 369
464 537
466 575
468 480
471 374
472 544
475 580
477 475
479 552
480 379
484 585
487 475
487 559
489 384
490 593
495 602
496 564
497 475
499 386
499 612
504 621
505 569
507 475
509 389
509 630
509 640
513 575
515 648
517 475
517 585
519 391
519 658
520 595
520 605
520 615
524 667
524 677
525 624
525 634
527 475
529 394
530 643
532 684
535 652
537 475
539 396
539 692
540 661
545 404
546 669
547 475
549 695
550 679
555 404
556 480
558 700
560 682
565 407
566 480
567 705
569 687
575 409
575 485
577 694
577 704
584 414
585 485
593 419
595 487
603 420
605 490
612 425
614 495
622 429
624 495
631 434
633 500
640 439
643 500
649 444
652 505
659 446
662 505
665 454
672 509
675 454
682 510
683 460
692 514
693 464
702 469
702 515
711 474
711 520
720 479
721 520
730 482
731 523
740 484
741 525
749 489
750 530
759 491
760 530
765 499
770 532
775 502
780 535
784 507
790 535
794 509
799 540
804 511
809 540
813 516
818 545
823 519
828 545
833 520
838 545
843 524
848 545
853 525
858 545
863 529
868 545
873 529
878 545
883 529
888 545
892 534
898 545
902 534
908 543
