24 147
24 157
29 166
32 139
36 174
41 134
46 178
50 129
56 180
59 112
59 122
66 180
67 104
75 96
76 180
85 91
86 180
95 89
96 180
104 84
106 180
114 82
114 186
114 196
119 205
119 215
119 225
122 235
124 79
124 245
124 292
124 302
129 254
129 264
129 274
129 311
134 79
134 320
137 330
142 339
143 84
146 349
152 89
154 355
155 99
159 364
159 572
160 108
161 374
164 581
166 383
167 564
168 115
170 393
174 403
174 585
175 123
175 413
177 559
179 423
180 132
180 433
180 593
184 142
184 443
184 453
185 463
187 554
189 151
189 473
189 483
189 493
190 595
193 161
194 502
194 512
194 522
194 532
194 542
200 169
200 595
205 178
210 187
210 595
217 195
220 585
225 560
225 570
227 199
233 553
236 204
238 543
240 400
240 410
240 420
240 430
240 440
240 450
240 460
240 470
240 480
240 490
240 500
240 510
240 520
240 530
244 211
248 393
253 216
258 388
263 219
268 383
272 224
278 380
282 224
288 378
291 229
298 375
300 234
308 375
310 234
317 370
320 234
327 370
329 239
337 369
339 239
347 365
349 239
357 365
359 239
367 365
369 239
377 365
379 241
387 369
389 244
395 375
399 244
404 380
409 244
414 380
419 244
424 380
429 244
434 380
439 246
440 388
448 395
449 249
454 403
455 413
459 249
460 422
467 430
468 254
475 437
477 259
484 442
486 264
492 449
496 264
500 455
506 264
509 460
516 264
518 465
525 473
526 264
535 285
535 295
535 477
536 264
540 304
540 314
543 278
544 482
545 323
546 264
550 332
550 342
552 489
553 275
554 572
555 259
555 351
555 361
555 371
559 497
560 380
560 390
562 270
562 564
562 579
564 506
565 259
565 399
565 409
569 515
570 418
571 584
572 270
572 525
572 559
574 254
574 535
577 549
578 425
581 265
581 585
583 249
585 433
590 442
590 580
591 265
592 244
597 450
600 260
600 510
600 520
600 530
600 540
600 550
600 565
600 575
602 244
605 457
609 255
610 510
612 239
613 464
614 587
616 518
618 250
620 595
622 234
622 469
622 579
624 525
627 535
629 545
629 555
629 565
629 600
631 474
639 481
639 600
645 489
649 597
650 498
650 508
650 518
650 528
650 538
650 548
655 557
655 567
655 577
655 587
