24 127
24 137
24 147
29 156
32 119
36 164
39 107
44 97
46 168
52 89
56 170
60 81
66 170
70 76
76 170
80 74
84 176
89 69
89 185
89 195
94 204
96 214
99 69
101 223
104 233
104 243
104 253
104 263
105 273
109 69
109 283
110 293
115 302
119 69
122 310
124 320
124 502
129 69
130 328
132 494
132 509
135 337
138 74
139 347
139 357
140 486
141 514
144 366
144 376
144 386
147 79
148 479
149 395
149 405
151 515
152 415
152 469
154 425
154 435
154 445
154 455
155 85
157 95
160 105
161 515
165 114
170 123
171 515
175 132
180 141
181 515
186 149
190 505
194 156
195 495
200 164
200 485
205 475
208 170
210 430
210 440
210 450
210 460
215 178
215 410
215 420
220 380
220 390
220 400
225 182
228 373
234 187
238 370
244 191
248 370
254 194
258 370
264 196
268 370
273 201
278 368
283 204
288 365
293 205
298 365
303 209
308 363
313 209
318 360
322 214
328 360
332 214
338 360
342 214
348 360
352 214
357 365
361 219
367 365
371 219
376 360
381 219
386 360
391 219
396 363
400 224
404 369
410 224
410 377
417 385
420 224
425 392
429 229
432 400
439 229
441 405
449 231
449 411
455 239
456 419
465 239
466 423
473 245
475 428
479 502
480 253
483 435
484 511
485 262
485 272
487 494
489 443
489 453
489 463
489 473
489 483
490 281
493 291
494 515
495 301
500 310
500 320
500 330
502 340
504 512
510 347
510 357
510 500
515 480
515 490
517 365
520 445
520 455
520 465
522 374
525 384
529 440
529 507
533 390
535 515
538 445
539 455
539 465
539 475
539 485
539 495
540 398
541 523
548 405
551 525
555 413
560 520
563 420
567 430
568 513
570 495
575 437
575 447
575 457
575 467
575 477
