24 152
24 162
29 142
32 169
36 179
39 137
46 183
47 129
54 67
54 107
54 117
56 185
59 76
59 86
59 96
62 59
66 185
72 59
75 180
81 64
85 182
89 192
91 64
94 201
94 211
99 220
100 69
102 230
104 240
107 250
109 260
110 69
114 269
119 278
120 69
124 287
129 296
130 69
134 305
139 74
140 313
148 320
149 76
149 492
152 330
154 482
154 501
158 81
160 337
161 509
162 474
164 347
164 357
165 89
169 366
169 376
169 386
169 396
169 406
169 416
169 426
169 436
169 446
169 456
169 466
171 510
174 94
181 510
182 100
190 107
191 510
197 115
199 502
205 122
205 490
212 130
213 483
215 460
215 470
220 137
220 440
220 450
225 380
225 390
225 400
225 410
225 420
225 430
227 145
234 375
235 152
243 370
244 157
253 368
254 161
263 365
264 164
273 365
274 166
283 363
284 169
293 174
293 360
303 174
303 360
312 355
313 174
322 354
323 174
332 350
333 175
342 350
343 179
352 349
353 179
362 345
363 179
372 345
373 179
382 345
383 179
391 350
393 179
397 169
401 350
402 159
409 147
410 345
414 137
420 345
422 129
430 121
430 347
437 355
438 114
445 362
448 114
452 370
457 109
460 377
464 387
466 114
472 394
474 121
479 402
483 126
487 409
490 134
491 419
495 143
499 425
499 482
499 492
499 502
499 512
500 152
500 162
500 172
504 182
505 192
505 202
505 433
507 519
509 212
509 443
509 472
514 452
514 462
517 219
517 520
520 229
525 238
527 520
530 247
530 257
535 266
535 276
535 355
535 365
535 375
535 385
536 515
538 286
540 296
540 306
540 316
540 326
540 336
540 346
540 394
545 403
546 515
550 412
550 422
550 432
550 442
550 452
550 500
554 462
555 472
555 482
