94 232
94 242
94 252
102 224
102 259
107 214
112 204
112 254
120 196
120 245
125 186
129 542
130 176
130 240
134 522
134 532
135 550
138 169
138 233
139 507
142 159
144 497
144 555
145 225
147 149
149 487
150 215
153 550
154 137
157 479
158 208
162 469
162 544
164 132
164 457
165 195
167 534
169 447
172 124
173 188
174 437
175 525
179 427
180 515
181 119
183 183
184 417
188 508
190 114
192 409
193 180
195 495
197 399
200 111
202 185
202 389
203 488
207 194
207 379
208 478
210 109
211 204
212 369
214 214
215 465
217 359
219 223
220 109
222 349
223 458
224 57
224 67
224 232
224 242
228 448
229 47
229 76
229 97
229 251
229 332
233 438
234 37
234 85
234 260
234 270
234 317
239 279
239 289
239 299
240 425
242 29
248 418
252 24
253 408
258 398
262 24
265 390
270 380
272 24
278 373
282 24
285 365
291 29
294 360
299 36
303 365
305 44
310 53
310 63
310 73
310 83
310 93
312 370
318 99
321 375
327 104
330 265
330 275
330 285
331 375
332 295
335 230
335 240
335 250
337 104
337 304
340 195
340 205
340 215
340 314
341 375
345 175
345 185
345 323
345 333
347 104
349 367
350 342
354 170
354 357
357 104
364 170
366 109
374 170
375 114
380 178
385 117
388 185
392 125
395 193
400 132
403 200
407 140
412 205
415 147
419 213
422 155
424 222
427 164
432 229
434 172
440 180
440 235
445 189
449 240
453 195
455 248
457 205
465 212
465 252
470 221
475 250
479 226
480 236
