54 307
54 317
54 327
59 287
59 297
59 336
64 272
64 345
72 264
73 350
75 295
75 305
77 254
80 285
80 314
80 324
82 244
83 350
85 270
90 236
90 260
90 324
93 350
98 253
99 319
100 234
102 345
108 248
108 324
110 231
111 340
114 312
115 240
120 229
120 335
122 304
124 292
129 272
129 282
130 330
134 257
138 323
139 247
144 232
145 305
145 315
152 224
153 298
158 288
159 212
163 278
164 202
169 177
169 187
170 270
174 282
177 169
179 157
179 265
179 291
179 452
182 275
184 147
184 461
187 444
189 137
189 292
194 127
194 465
195 436
197 284
203 470
204 122
205 275
205 431
212 114
213 424
213 470
215 270
217 104
219 407
222 465
224 265
224 377
224 387
224 397
227 104
229 362
232 465
234 262
234 327
234 337
234 347
237 99
239 312
241 460
244 260
244 297
247 99
249 269
249 279
249 452
254 442
257 99
260 425
265 415
267 99
270 400
275 385
277 99
283 378
285 365
287 99
290 350
297 94
299 345
299 457
299 467
304 476
307 94
307 449
308 340
309 350
312 360
314 370
314 380
314 390
314 400
314 475
315 441
317 89
319 409
319 419
319 429
323 480
326 84
333 480
334 77
342 69
342 475
351 470
352 64
360 465
362 59
365 440
365 450
370 395
370 405
370 415
370 425
372 54
375 360
375 370
375 380
380 340
380 350
382 49
385 325
392 49
395 325
399 335
399 345
399 355
399 422
402 49
404 364
404 374
404 384
404 394
404 404
405 430
411 44
414 435
421 44
424 435
431 44
434 432
440 49
442 424
445 385
445 410
450 49
450 350
450 360
450 370
450 394
455 335
459 417
460 49
464 340
464 426
467 409
470 52
470 348
471 434
472 399
475 357
478 59
479 367
479 377
479 387
481 433
488 60
491 430
495 68
501 430
503 75
510 83
510 425
520 84
520 420
525 93
525 315
527 325
528 413
530 305
530 335
530 345
530 355
530 365
530 400
533 100
535 295
535 374
535 384
540 108
540 280
544 307
544 317
545 117
545 260
545 270
549 127
549 292
550 230
550 240
550 250
554 136
554 275
554 317
555 215
558 146
559 225
559 245
559 255
559 265
560 156
560 305
564 234
565 165
565 290
567 175
570 255
570 270
570 280
572 184
575 194
575 204
575 214
575 224
575 234
575 244
