79 307
79 317
84 326
87 299
89 335
92 345
97 299
97 354
99 187
99 197
99 207
99 217
99 227
99 237
99 247
99 257
99 267
99 364
104 177
104 276
104 286
104 373
109 152
109 162
109 382
114 142
114 391
119 132
119 400
125 408
127 124
132 114
133 415
134 425
134 435
137 445
139 455
140 106
144 464
148 99
149 473
154 482
155 91
163 84
164 485
164 495
164 505
164 515
164 525
164 535
167 74
169 544
174 553
177 69
179 562
185 61
187 569
190 51
194 577
198 44
202 584
207 39
209 592
216 34
219 595
225 603
226 30
233 610
236 25
240 618
246 24
250 622
256 24
259 627
266 24
269 630
276 24
279 630
286 24
289 627
295 29
299 622
305 32
309 620
312 40
318 615
320 47
327 609
330 49
335 600
340 46
343 593
350 47
350 585
358 578
360 49
363 568
369 54
370 560
375 545
378 59
380 535
385 520
387 64
390 475
390 485
390 495
390 505
394 72
395 460
400 450
402 79
405 89
405 440
410 98
410 415
410 425
415 107
415 390
415 400
419 117
420 127
425 136
425 146
425 156
425 166
425 176
425 186
425 196
425 390
430 205
430 215
430 225
430 235
430 245
430 255
433 383
438 261
438 373
440 350
440 360
445 269
445 290
445 300
445 310
445 320
445 330
445 340
450 278
