79 297
79 307
79 317
84 287
84 326
84 336
84 346
89 355
89 365
92 375
94 282
97 384
99 187
99 197
99 207
99 217
99 227
99 237
99 247
99 257
99 267
104 172
104 392
109 162
109 401
114 147
114 410
119 137
120 418
124 127
128 425
129 117
134 433
135 443
137 109
139 453
144 462
145 101
149 471
153 94
154 480
160 86
163 485
164 495
164 505
164 515
164 525
164 535
165 76
169 544
174 553
175 71
179 562
183 64
187 569
189 52
194 577
197 44
202 584
206 39
209 592
215 34
219 595
225 31
225 603
233 610
235 26
240 618
245 24
250 622
255 24
257 630
265 24
267 630
275 24
277 630
285 24
287 629
295 27
297 625
304 32
306 620
312 39
315 615
319 47
324 610
329 49
332 604
339 47
340 595
349 46
350 590
355 580
359 49
363 573
368 54
368 563
373 553
377 59
378 543
385 535
386 64
390 470
390 480
390 490
390 500
390 510
390 520
394 71
395 460
400 79
400 445
405 88
405 435
410 97
410 420
414 107
415 410
419 116
420 126
425 135
425 145
425 155
425 165
425 175
425 185
425 195
425 405
430 204
430 214
430 224
430 234
430 244
430 254
433 398
438 260
440 380
440 390
445 355
445 365
447 265
450 345
455 272
455 330
460 281
460 291
460 301
460 311
460 321
