164 182
169 172
169 191
169 442
169 452
174 427
176 199
177 164
179 417
179 455
184 407
185 156
186 200
188 460
189 287
189 297
189 307
189 317
189 397
194 267
194 277
194 326
194 336
195 151
195 195
197 389
197 454
199 257
199 345
202 355
202 379
204 247
204 365
205 146
205 190
205 445
209 237
214 185
215 144
215 440
217 229
222 219
224 182
224 542
224 552
224 562
225 141
225 440
229 207
229 532
229 571
234 180
234 197
234 435
235 139
236 579
237 524
242 514
244 132
244 435
244 585
247 504
250 593
252 124
252 494
253 440
254 482
257 450
258 600
259 460
259 470
260 116
267 605
268 109
277 104
277 609
286 614
287 99
296 615
297 94
306 618
307 89
316 620
317 84
326 620
327 84
336 620
337 79
346 620
347 79
356 620
357 79
366 84
366 620
376 84
376 620
385 89
386 620
395 92
395 615
404 97
405 615
414 101
414 610
423 106
423 605
430 114
433 603
435 455
435 465
437 475
440 117
440 445
440 485
440 595
442 495
445 435
447 125
447 504
450 514
450 590
452 134
453 428
455 144
455 523
458 583
460 415
460 532
463 150
463 573
467 160
467 540
468 408
470 550
470 560
473 398
475 167
480 385
482 175
488 378
490 182
490 235
492 245
493 368
495 355
497 254
499 187
500 264
500 274
500 340
502 244
505 283
505 293
505 303
505 313
505 323
507 194
509 252
516 199
517 259
524 267
525 204
532 274
533 210
541 279
542 215
550 222
551 275
554 232
555 265
560 240
562 250
