144 157
152 149
154 160
162 144
164 160
172 139
174 162
179 457
179 467
179 477
182 134
184 162
184 447
189 262
189 277
189 437
189 480
192 129
194 165
194 252
194 286
194 427
198 485
199 237
202 124
202 419
204 165
204 175
204 227
204 290
207 409
208 483
209 184
209 207
209 217
212 124
212 399
214 193
214 287
214 387
215 475
220 465
221 119
222 279
222 379
224 367
228 458
229 302
229 312
229 322
229 332
229 342
229 352
230 114
232 274
234 292
235 450
239 282
240 111
240 260
244 270
244 445
250 106
250 435
254 445
254 457
259 466
259 476
259 486
259 497
260 101
264 506
264 522
269 531
270 99
274 540
277 550
279 94
285 557
289 92
292 565
299 89
301 570
309 89
310 575
318 84
319 580
328 84
329 580
338 84
339 580
348 84
348 585
358 84
358 583
368 84
368 583
378 84
378 580
387 575
388 85
396 570
398 89
405 565
408 90
414 560
418 94
420 550
425 535
427 99
430 515
430 525
435 480
435 490
435 500
437 99
440 240
440 445
440 455
440 465
442 250
445 420
445 430
446 104
449 235
450 257
450 410
454 267
455 109
455 400
458 230
460 275
460 385
462 285
465 112
465 220
465 295
465 360
465 370
467 305
470 315
470 325
470 335
470 345
472 120
475 220
480 127
485 222
487 135
492 144
495 154
495 222
503 160
505 222
510 168
514 227
518 175
524 225
527 180
533 230
535 187
543 194
543 230
552 199
552 235
559 207
562 235
567 214
571 240
576 219
581 240
584 226
590 234
590 245
600 237
604 247
