154 467
154 477
154 487
154 497
159 506
162 459
164 515
167 449
169 167
169 177
173 520
175 185
175 441
177 159
183 434
183 520
185 185
187 154
190 426
192 515
195 185
197 149
198 419
202 409
202 514
204 180
207 144
207 399
209 347
209 357
209 372
212 389
212 510
214 177
214 262
214 272
214 322
214 332
217 144
219 281
219 312
221 505
222 254
224 175
224 302
227 144
227 244
229 192
229 285
229 497
232 234
234 201
234 211
234 506
234 517
237 139
237 224
239 526
244 535
247 139
249 544
252 129
255 552
260 121
262 560
268 114
270 567
275 106
277 575
283 99
286 580
293 99
295 585
300 91
304 590
310 89
314 590
319 84
323 595
329 84
332 600
339 81
341 595
349 82
351 595
359 82
361 595
369 84
371 595
379 84
381 595
388 89
390 590
397 94
400 585
407 94
410 580
416 99
419 575
424 106
427 569
430 114
435 560
438 120
440 550
445 128
445 250
448 543
450 137
450 259
453 243
455 146
455 230
455 268
455 525
455 535
460 155
460 277
460 485
460 495
460 505
460 515
464 225
465 164
465 174
465 286
465 465
465 475
470 295
470 455
473 220
474 179
475 304
475 435
475 445
480 313
480 323
480 405
480 415
480 425
482 185
482 225
485 332
485 342
485 352
485 362
485 372
485 382
485 392
490 232
492 189
499 197
499 237
507 244
509 201
515 250
518 206
524 255
528 210
533 260
535 218
543 224
543 260
550 232
553 260
555 241
560 250
