24 387
29 396
29 406
32 379
39 410
40 371
42 420
50 366
52 424
60 364
60 430
69 359
69 435
79 357
79 435
88 440
89 354
97 445
98 349
107 445
108 349
116 450
118 349
126 450
127 344
136 453
137 344
146 455
147 344
156 339
156 455
165 460
166 339
175 460
176 339
185 334
185 460
195 334
195 462
204 329
205 465
214 329
215 465
224 329
224 470
233 324
234 470
243 324
244 470
253 324
254 470
263 324
263 475
273 324
273 475
280 483
283 324
284 493
289 502
289 512
293 324
294 521
301 529
303 324
311 525
313 324
320 520
323 324
329 515
333 324
337 509
339 312
347 304
347 504
352 294
355 495
361 289
365 490
370 294
374 485
375 303
380 312
382 479
385 321
390 470
391 329
400 470
401 329
409 465
410 334
419 465
420 334
429 462
430 334
439 460
440 334
449 339
449 460
459 339
459 457
469 339
469 455
479 339
479 455
488 450
489 339
498 448
499 337
508 445
509 334
518 443
519 334
528 440
529 336
538 341
538 440
547 435
548 344
557 349
557 435
566 430
567 349
576 430
577 349
586 430
587 349
590 359
595 425
598 365
605 425
608 369
615 425
618 369
625 425
628 369
635 425
638 369
645 425
648 369
655 427
657 364
665 430
667 364
674 435
677 359
684 435
687 359
693 440
697 354
703 440
707 354
712 445
715 385
715 395
717 354
717 405
722 414
722 445
724 380
726 349
729 422
731 450
732 374
736 349
739 426
741 450
742 369
745 434
746 349
750 455
752 364
755 437
756 349
760 455
762 445
770 452
