19 387
27 394
29 377
31 404
39 372
39 410
42 420
49 369
51 425
58 364
61 428
67 359
70 433
76 354
80 435
84 347
90 435
94 342
99 440
104 337
108 445
114 332
117 450
124 329
127 450
134 327
137 454
144 322
146 459
154 319
156 463
164 319
166 465
173 314
176 465
183 314
185 470
192 309
195 470
202 304
204 475
212 304
214 475
222 304
224 475
232 304
234 475
242 299
244 475
252 299
253 480
262 299
263 480
272 294
273 480
282 294
282 485
292 294
292 489
302 294
302 490
307 499
312 294
314 507
319 516
322 289
326 524
331 533
332 289
337 279
340 538
344 262
348 545
354 257
358 543
364 256
364 535
370 264
370 525
375 273
378 518
380 282
384 292
385 302
385 505
395 304
395 505
404 500
405 307
410 475
410 490
415 309
420 475
424 314
430 475
433 319
440 475
443 319
450 470
452 324
460 470
462 324
470 465
471 329
480 334
480 465
489 339
490 465
499 339
500 465
508 334
510 465
517 329
519 460
527 329
529 457
536 334
539 455
540 344
549 455
550 347
555 356
558 450
564 361
568 450
570 369
578 450
580 372
584 382
588 450
594 386
598 450
600 394
608 450
610 394
618 450
620 391
628 450
630 389
637 455
639 384
646 460
649 384
655 465
658 379
664 470
667 374
673 475
676 369
682 480
686 365
691 485
696 360
700 410
700 420
700 430
700 490
706 359
708 436
709 495
710 405
714 352
715 395
715 444
718 500
720 453
724 347
725 385
725 462
727 505
729 472
734 344
735 385
737 479
737 505
740 370
740 489
743 339
745 498
750 360
752 334
758 353
762 334
763 344
