19 357
19 367
24 376
27 349
31 384
32 339
39 327
39 390
45 398
47 319
55 400
56 314
64 307
64 405
74 302
74 405
82 294
83 410
92 289
92 415
99 277
102 419
109 274
112 420
118 269
122 424
128 269
130 430
138 269
139 435
148 269
149 435
157 264
159 435
167 264
168 440
176 259
178 440
186 259
187 445
195 254
197 449
205 254
207 450
215 254
217 450
225 254
227 450
235 254
237 450
245 254
247 450
255 254
257 450
264 259
267 450
274 259
277 454
284 259
287 455
294 259
295 462
303 254
304 467
310 246
312 474
318 239
319 482
325 247
327 489
330 256
335 265
336 494
343 271
346 490
350 475
353 274
358 468
360 455
362 279
370 455
371 284
379 450
380 289
389 450
390 292
399 297
399 450
407 304
409 447
416 309
417 439
426 309
427 435
435 304
437 435
445 304
447 435
454 299
456 430
463 304
466 430
470 312
475 425
479 317
484 420
487 324
494 332
494 420
502 339
504 417
509 347
514 412
519 349
524 410
528 354
534 410
538 355
544 410
548 359
553 415
557 354
562 420
566 349
572 420
576 345
580 427
586 340
587 435
596 339
597 435
606 335
606 440
615 380
615 390
615 445
616 334
620 399
623 373
624 450
625 329
629 404
630 365
634 324
634 450
638 409
639 360
644 324
644 450
647 414
649 360
653 455
654 322
656 419
659 357
660 429
663 455
664 319
667 350
669 434
673 453
674 319
675 340
675 442
684 319
685 335
693 328
