24 32
24 42
24 52
29 61
34 29
34 70
37 80
42 89
44 29
46 99
51 108
54 31
55 118
60 127
63 36
64 137
72 144
73 40
76 154
83 44
84 160
90 168
92 49
98 175
102 49
105 183
110 192
111 54
117 200
119 61
122 209
128 66
129 217
137 224
138 70
144 232
145 78
149 297
149 307
152 239
154 287
155 82
157 314
159 272
160 245
164 87
164 255
164 322
172 94
174 325
179 102
184 325
187 109
194 322
196 114
199 312
200 290
202 300
204 121
210 129
210 290
218 135
219 295
225 143
225 303
235 144
235 307
242 315
245 141
252 319
255 139
259 327
265 139
269 330
274 339
274 349
275 136
279 358
279 368
279 378
280 200
282 210
284 387
285 137
285 170
285 180
285 190
287 219
290 150
290 160
294 227
294 387
299 236
304 382
305 244
313 250
314 380
320 258
324 377
325 267
332 275
332 369
340 282
342 369
344 292
349 377
352 299
354 386
359 307
359 395
359 405
364 414
366 424
367 314
370 324
370 334
371 433
374 443
375 343
379 452
383 350
384 461
389 470
392 355
399 472
402 359
404 462
405 450
410 420
410 430
410 440
411 364
418 413
420 369
428 410
430 369
438 410
440 369
447 405
449 374
457 405
459 376
467 404
468 381
475 389
