19 62
19 162
24 171
27 69
29 59
29 157
34 77
34 170
39 59
39 147
42 84
44 170
47 139
49 59
49 92
54 107
54 170
56 134
59 59
59 116
64 167
69 61
74 165
75 69
83 160
85 69
93 160
95 69
103 160
104 74
113 160
114 76
120 150
124 79
130 150
134 81
139 155
144 84
148 150
154 86
158 150
164 89
168 150
174 87
178 150
184 84
188 150
193 79
197 155
200 71
205 162
208 64
209 27
209 37
209 47
209 172
209 182
209 192
209 202
215 210
219 24
225 210
229 26
233 36
234 205
243 40
243 200
250 48
252 195
255 57
261 190
263 64
271 190
273 65
280 185
283 69
290 185
293 69
300 185
303 69
310 185
313 69
319 190
322 64
329 37
329 47
329 190
331 69
334 22
334 56
339 190
342 14
349 190
352 14
359 22
359 190
364 31
369 190
370 39
375 48
379 190
383 55
389 190
392 60
398 185
399 202
399 212
400 67
404 193
409 215
410 69
414 227
415 205
420 69
422 219
424 230
427 240
430 69
437 240
440 69
446 235
450 69
454 227
459 217
460 66
465 185
465 200
468 59
475 180
478 59
484 175
488 59
494 175
498 59
503 170
508 59
513 170
518 59
522 164
528 59
532 160
538 59
542 160
548 59
551 155
558 59
560 150
568 59
568 143
578 59
578 138
588 59
588 133
598 60
598 128
605 68
608 123
615 69
615 115
623 108
625 72
629 100
630 90
634 77
