14 347
14 357
22 364
24 342
30 370
34 337
40 370
44 334
50 372
54 332
60 375
64 329
70 377
74 327
80 380
84 324
90 380
94 322
99 385
104 319
109 385
114 317
118 390
124 314
128 390
134 314
138 390
143 309
148 390
153 309
157 395
162 304
164 403
169 412
169 422
172 304
174 431
179 440
182 304
182 450
187 459
191 469
192 304
199 475
202 304
208 480
212 304
215 450
217 460
218 478
220 420
220 430
220 440
222 304
225 410
230 400
232 299
238 393
242 294
248 390
252 289
258 390
259 277
267 395
269 267
277 259
277 395
287 254
287 395
295 246
297 395
303 239
307 395
313 239
315 265
315 275
315 285
317 295
317 395
320 247
325 302
327 395
334 307
337 395
344 311
347 399
354 314
356 404
364 314
366 408
373 319
375 413
383 319
385 415
393 319
394 410
400 400
403 320
410 390
413 324
420 390
423 324
429 385
433 324
439 385
442 329
449 385
452 329
459 385
462 324
468 390
472 324
475 398
481 319
485 400
490 314
494 405
499 309
504 402
505 317
512 325
512 394
517 334
520 385
527 334
529 380
534 342
538 375
544 344
548 375
554 344
557 380
563 339
567 384
572 334
575 390
577 324
584 395
587 319
593 400
595 311
603 304
603 400
610 296
612 405
615 355
615 365
615 375
620 291
620 345
620 384
622 405
628 284
628 390
630 335
637 279
638 328
645 271
645 320
650 310
653 264
658 303
662 259
664 295
670 285
672 254
678 278
682 249
688 273
690 241
693 263
698 253
700 239
