39 172
39 182
44 162
44 191
51 199
52 154
59 205
62 149
65 213
72 144
73 220
79 132
82 225
84 122
91 230
92 114
99 236
100 106
106 244
108 99
114 250
117 94
120 258
125 86
130 262
133 79
137 270
142 74
146 275
152 74
154 281
161 69
164 285
171 65
173 290
179 59
182 295
188 54
190 302
197 310
198 54
205 317
208 54
212 325
217 49
221 330
226 44
230 335
236 40
239 340
246 39
249 340
255 34
258 345
265 34
268 345
275 31
277 350
285 29
287 350
295 29
296 355
305 29
306 358
315 29
316 360
324 24
326 360
334 24
334 366
344 24
344 370
354 24
354 370
364 24
364 370
374 24
374 370
384 24
384 370
394 24
394 370
404 24
404 367
414 24
414 362
423 29
424 360
432 354
433 30
440 345
442 35
448 338
452 39
455 330
461 44
463 323
470 49
470 315
478 55
478 308
482 65
485 300
490 72
494 82
494 295
502 89
502 289
509 97
512 284
517 104
520 275
524 112
528 268
532 119
535 129
535 260
543 135
543 253
550 143
550 240
558 150
560 235
565 158
570 235
575 159
580 235
585 159
589 240
594 154
599 240
604 152
608 245
614 149
618 245
623 144
628 245
633 144
637 250
643 144
647 254
652 139
657 255
661 134
667 255
671 134
676 260
681 134
685 255
691 134
695 144
695 245
700 153
700 230
705 162
705 220
709 172
710 182
710 192
710 202
