24 137
24 147
29 127
29 156
29 166
29 176
34 117
34 185
39 194
42 109
45 202
52 104
55 205
61 109
65 205
71 109
74 200
81 109
84 200
90 114
94 197
100 114
104 195
109 119
113 190
119 119
122 185
129 121
132 184
139 124
142 180
149 124
151 185
158 119
159 191
165 111
166 199
173 104
174 205
180 96
183 210
188 89
190 218
197 84
200 222
207 79
207 230
215 71
215 237
224 242
225 66
234 245
235 64
240 253
244 57
248 260
254 52
258 260
264 47
267 265
274 42
277 269
284 39
287 270
293 34
296 275
303 34
305 280
313 34
315 280
322 29
325 280
332 29
334 285
342 29
344 285
351 24
354 285
361 24
363 290
371 24
373 290
381 24
383 290
391 24
393 290
401 24
403 290
411 24
413 290
421 24
423 290
431 24
433 290
441 24
443 290
451 24
453 290
461 24
463 290
471 24
473 290
481 24
483 290
490 29
493 290
500 29
502 285
510 29
512 285
519 34
522 285
529 36
531 280
538 41
540 275
548 45
548 268
555 53
555 260
563 60
563 253
572 65
573 248
580 240
582 69
589 77
589 235
597 84
598 240
606 89
607 234
615 94
615 225
623 100
624 220
630 108
633 215
640 112
643 213
649 117
653 210
657 124
662 205
664 132
671 200
674 136
680 144
681 200
688 150
689 192
692 160
695 170
695 180
