24 197
24 207
29 167
29 177
29 187
29 216
34 157
34 225
37 235
42 149
42 244
49 252
51 144
59 255
61 144
69 255
70 149
79 252
80 152
89 247
90 154
99 245
100 154
108 240
110 157
117 235
120 159
127 234
130 159
137 230
140 159
147 230
150 156
155 146
157 234
160 136
166 239
168 129
174 245
175 121
177 255
183 114
185 262
190 106
192 270
200 101
202 274
208 94
209 282
217 89
219 285
227 84
228 290
235 76
237 295
245 71
247 299
255 69
257 300
264 64
266 305
274 62
276 305
282 54
286 308
292 49
296 310
302 44
306 310
312 39
316 310
322 39
326 310
331 34
335 315
341 30
345 315
351 29
355 315
361 29
364 320
370 24
374 320
380 24
383 325
390 24
393 325
400 24
403 325
410 27
413 325
420 29
423 325
429 34
433 325
438 39
443 325
448 40
453 325
457 45
462 320
467 49
472 320
476 54
482 319
486 54
492 315
495 59
502 314
504 64
512 309
514 66
520 300
523 71
529 295
530 79
539 295
540 79
549 295
550 82
559 87
559 295
568 290
569 91
575 99
577 284
585 102
585 270
592 110
593 263
600 117
603 258
607 125
613 255
615 132
622 250
623 139
632 144
632 250
642 144
642 250
651 245
652 144
659 237
661 149
665 225
670 154
673 218
680 157
680 210
688 203
689 162
693 193
694 171
695 181
