29 502
39 497
39 527
47 519
49 492
52 509
54 482
54 542
57 519
59 452
59 495
59 532
60 550
62 474
62 510
65 460
69 449
69 522
70 540
71 505
72 469
77 460
78 444
78 533
84 541
85 525
87 439
94 540
96 434
102 534
104 422
110 525
114 417
120 525
122 409
130 520
132 404
140 510
142 399
147 389
150 505
156 384
160 505
165 379
169 500
174 374
179 497
183 369
189 495
193 369
197 359
199 492
207 359
209 490
216 354
219 487
226 350
227 480
236 345
237 480
246 344
247 479
255 339
257 474
261 330
267 469
271 325
277 465
279 282
281 324
284 272
286 460
289 285
289 295
289 305
290 319
292 264
295 450
302 259
305 450
312 259
313 443
322 259
323 438
330 430
331 264
340 269
340 420
349 262
350 410
355 400
357 254
364 405
366 249
369 237
374 405
377 229
382 219
384 405
387 209
390 413
392 199
400 191
400 417
404 177
404 427
409 167
409 436
414 445
417 159
419 454
420 345
420 355
421 464
422 149
428 361
430 340
430 371
431 468
432 144
435 478
436 379
440 136
440 330
440 487
444 386
444 497
448 129
448 323
450 394
452 119
452 504
458 318
458 400
462 114
462 504
467 405
468 313
470 106
470 300
472 499
474 92
475 412
478 293
480 490
482 84
483 419
484 285
490 427
490 475
490 485
492 79
492 279
495 265
499 432
500 71
500 475
503 258
505 61
507 439
508 468
510 240
510 250
513 54
514 460
516 444
520 220
520 230
522 59
525 210
530 200
532 59
535 175
535 185
540 51
544 170
550 46
550 160
555 150
558 39
560 49
560 135
562 29
570 49
570 120
570 130
580 46
580 56
580 66
580 85
580 110
588 103
589 80
590 47
590 61
594 89
597 74
598 99
600 59
607 69
