34 472
39 442
39 462
39 502
44 475
45 450
49 432
49 492
49 505
54 445
54 472
57 484
59 427
59 502
59 512
60 460
64 474
69 422
69 465
69 500
69 515
79 417
79 512
84 407
87 519
94 402
97 519
102 394
105 510
111 389
114 515
121 385
124 515
126 375
134 512
136 374
142 505
145 369
151 500
154 364
161 500
164 364
165 490
173 359
175 490
183 359
184 485
189 347
193 480
199 344
203 480
208 339
212 475
215 331
222 475
225 329
232 474
234 317
242 470
244 312
252 304
252 470
261 299
262 469
264 242
264 252
264 262
267 460
269 271
269 287
274 239
276 455
284 239
285 450
293 443
294 241
300 430
304 244
310 425
313 249
320 241
320 420
329 232
330 415
335 405
337 224
340 395
347 219
349 390
357 214
358 385
359 202
359 395
359 405
359 415
359 425
359 435
359 445
359 455
364 464
364 474
367 194
372 480
377 189
381 475
384 172
391 475
394 162
399 152
401 475
404 137
409 127
410 325
411 475
419 112
419 122
420 315
420 329
420 470
427 104
430 310
430 329
430 470
436 99
440 305
440 329
440 460
444 87
450 300
450 329
450 455
452 79
460 295
460 329
460 450
462 74
465 285
467 64
468 443
470 329
472 54
473 278
475 430
479 270
479 334
481 49
485 260
485 425
486 40
489 334
490 54
493 253
493 418
495 405
499 49
499 334
503 248
505 395
508 44
508 238
509 336
510 225
510 370
510 380
515 36
515 195
515 205
515 215
515 344
515 354
525 34
525 44
525 54
525 185
530 170
535 54
535 160
540 150
544 49
550 140
553 44
555 54
555 64
555 80
555 130
564 75
564 125
565 64
569 84
570 100
570 110
