64 222
69 102
69 112
69 147
69 157
69 212
72 229
74 52
75 165
77 119
77 139
77 204
79 42
79 61
79 97
81 234
85 167
87 34
87 120
87 139
87 204
89 65
89 94
89 240
95 170
96 125
97 34
97 139
97 204
98 70
99 94
99 237
105 26
105 170
106 125
106 144
107 204
108 70
109 94
109 235
114 31
115 170
116 125
116 144
117 75
117 204
119 94
119 235
124 34
125 130
125 170
126 144
127 75
127 204
128 99
129 235
134 34
134 175
135 130
136 144
137 79
137 204
138 99
138 240
144 36
144 175
145 130
145 149
146 209
147 80
148 99
148 240
153 180
154 39
154 135
155 149
156 209
157 80
158 100
158 240
163 44
163 180
164 135
164 154
166 85
166 205
168 104
168 240
169 188
173 44
174 135
174 154
176 88
177 245
178 104
183 44
183 140
186 85
187 245
188 104
193 44
194 91
197 249
203 44
207 250
213 44
217 250
223 45
227 250
233 49
237 249
243 49
247 244
252 234
253 50
255 200
255 215
263 54
264 195
273 55
273 200
280 100
280 110
282 60
283 200
285 80
285 90
290 67
290 114
292 205
300 114
302 205
309 119
312 205
319 119
322 205
329 121
331 200
339 124
341 203
348 129
351 205
358 130
361 205
368 134
371 205
378 135
380 210
387 140
390 210
397 144
400 212
406 149
410 215
416 149
420 217
425 154
430 220
435 154
440 220
444 159
450 220
454 159
460 220
464 159
470 220
474 159
480 222
484 159
490 225
493 154
499 230
503 154
509 230
513 154
519 230
523 154
529 230
533 154
535 238
543 155
545 240
553 159
554 235
563 160
564 235
572 165
574 232
580 172
584 230
587 180
590 220
595 187
595 197
598 213
