24 317
29 307
29 326
34 287
34 297
34 335
39 277
43 340
44 267
49 257
52 345
59 252
61 350
69 247
70 355
77 239
79 360
87 239
88 365
97 234
97 370
107 229
107 374
117 224
117 375
122 214
127 204
127 379
137 199
137 380
147 194
147 380
157 189
157 380
167 189
167 380
177 184
177 384
187 184
187 385
194 82
197 179
197 385
199 91
204 77
206 99
207 179
207 385
214 72
216 103
216 174
217 385
224 69
226 105
226 174
227 385
234 69
236 108
236 174
237 385
244 69
244 114
244 124
244 134
244 144
244 154
244 164
247 385
253 64
254 32
254 42
254 52
257 385
264 27
267 385
274 24
277 385
280 32
280 42
280 52
284 62
287 385
290 105
290 115
290 125
290 135
290 145
290 155
292 69
295 164
295 174
295 184
297 385
300 100
302 69
304 189
307 385
310 95
312 69
314 189
317 385
320 95
322 69
323 194
327 385
330 90
332 69
333 194
336 390
339 77
340 87
342 199
345 385
351 204
355 385
361 204
365 380
370 209
375 380
380 209
385 380
390 209
395 380
400 209
404 375
410 209
414 375
420 212
420 222
420 232
423 370
424 242
432 365
434 246
441 360
444 249
450 355
452 255
460 350
462 259
470 350
471 264
480 269
480 345
490 269
490 340
499 274
500 335
508 279
508 328
515 320
517 284
520 294
520 304
