24 27
24 37
24 47
24 57
24 67
24 77
24 87
24 97
29 106
29 116
29 126
34 24
34 135
39 482
40 143
44 24
48 150
49 477
54 24
55 485
57 155
59 474
64 24
65 162
65 485
68 469
72 170
74 24
75 485
77 464
82 174
84 24
85 485
87 464
90 180
94 24
95 485
96 459
99 185
104 24
105 454
105 485
108 190
114 24
115 451
115 485
118 190
124 24
125 446
125 485
128 190
134 24
135 444
135 485
137 195
144 24
145 444
145 485
147 199
154 24
154 292
154 302
154 439
155 485
156 204
159 282
159 311
163 434
164 24
165 485
166 205
166 319
167 274
171 328
172 264
173 434
174 24
175 338
175 485
176 205
177 254
180 347
182 244
182 429
184 24
184 357
185 210
185 485
187 234
189 366
191 424
192 224
194 24
194 375
195 485
197 385
199 395
201 420
204 24
204 404
205 485
214 24
215 290
215 300
215 485
220 309
223 283
224 24
225 318
225 485
230 270
233 325
234 24
235 485
237 335
238 263
240 345
244 24
245 255
245 354
245 485
250 363
253 248
254 24
255 372
255 485
258 238
260 381
264 24
265 230
265 390
265 485
270 220
270 399
274 24
275 408
275 485
278 213
283 415
284 24
285 485
288 208
292 420
294 24
295 200
295 485
302 424
304 24
304 195
305 485
311 429
313 190
314 24
315 485
320 434
323 188
324 24
325 485
330 437
333 183
334 24
335 485
339 442
343 178
344 24
345 485
349 444
353 175
354 24
355 485
358 449
362 169
364 24
365 485
367 454
370 160
374 24
375 485
376 459
378 153
384 24
385 145
385 485
386 459
393 138
394 24
395 464
395 485
400 125
404 26
404 469
405 110
405 485
408 36
410 46
410 56
410 66
410 76
410 86
410 96
413 474
415 485
425 482
