24 27
24 37
24 47
24 57
24 67
24 77
24 87
24 97
29 106
29 116
29 126
34 24
34 135
39 482
40 143
44 24
48 150
49 477
54 24
55 485
57 155
59 474
64 24
65 162
65 485
68 469
74 24
74 167
75 485
77 464
82 174
84 24
85 485
87 464
90 180
94 24
95 485
96 459
99 185
104 24
105 193
105 454
105 485
114 24
115 195
115 451
115 485
124 24
124 200
125 449
125 485
133 205
134 24
135 446
135 485
140 213
144 24
145 444
145 485
150 217
154 24
154 439
155 485
157 225
163 434
164 24
164 233
164 243
165 485
169 252
169 262
169 272
173 434
174 24
174 281
175 485
179 290
179 300
182 310
182 429
184 24
184 320
185 485
189 329
189 339
191 349
191 424
194 24
195 485
196 358
199 368
199 378
200 388
201 420
204 24
205 397
205 485
209 407
214 24
215 485
224 24
225 485
234 24
235 485
244 24
245 485
254 24
255 485
264 24
265 485
274 24
275 485
280 395
280 405
284 24
285 385
285 414
285 485
290 360
290 370
293 420
294 24
295 330
295 340
295 350
295 485
300 305
300 315
302 425
304 24
305 295
305 485
310 270
310 280
312 429
314 24
315 240
315 250
315 260
315 485
320 230
321 434
324 24
325 220
325 485
330 210
330 439
334 24
335 485
338 203
340 442
344 24
345 190
345 485
349 447
353 183
354 24
355 485
359 449
360 170
364 24
365 485
368 163
368 454
374 24
375 155
375 485
377 459
383 148
384 24
385 485
386 464
390 140
394 24
395 485
396 464
398 133
403 123
404 26
405 110
405 469
405 485
408 36
410 46
410 56
410 66
410 76
410 86
410 96
414 474
415 485
425 482
