199 197
204 187
204 206
211 214
212 179
219 220
221 174
222 230
230 237
231 174
234 247
240 179
242 254
248 185
249 262
254 271
255 193
261 279
263 200
266 288
270 208
274 295
277 305
278 215
285 223
285 312
289 322
290 232
297 240
297 329
301 339
305 247
306 348
312 255
314 355
317 264
317 365
322 374
324 272
326 384
330 280
331 393
335 289
339 400
340 298
342 410
345 307
347 419
349 527
349 537
349 547
351 429
352 315
354 556
356 438
357 324
357 519
360 334
360 448
361 564
365 343
365 457
367 514
369 467
370 352
371 565
374 362
374 476
375 372
377 514
379 485
380 381
381 565
382 495
383 391
385 401
387 504
387 514
389 557
390 410
392 420
397 429
399 555
400 439
405 448
409 555
410 457
415 466
419 555
420 475
425 484
429 555
435 481
439 552
445 482
447 545
455 481
456 540
465 479
466 540
474 474
475 535
484 476
484 530
490 484
490 494
494 527
495 503
500 512
