14 252
14 267
14 277
14 287
14 297
14 307
14 317
14 327
22 334
24 249
29 152
29 167
29 177
29 187
29 197
29 207
29 217
29 227
29 237
32 334
37 144
42 134
42 334
44 122
52 114
52 334
57 104
62 94
62 334
69 82
72 334
77 74
82 64
82 334
90 56
92 334
100 51
102 334
108 44
112 334
118 44
122 334
125 36
132 334
135 31
142 334
145 26
150 130
150 140
150 150
152 334
155 24
155 105
155 115
155 159
155 235
155 245
160 75
160 85
160 95
162 334
164 19
165 50
165 60
165 159
165 235
165 249
165 260
165 280
165 300
165 320
170 30
170 269
170 289
170 309
172 40
174 17
175 159
175 235
180 25
185 159
185 235
195 159
195 235
205 159
205 235
215 159
215 235
225 159
225 235
235 159
235 235
245 159
245 235
255 159
255 235
265 159
265 235
275 159
275 235
285 159
285 235
295 159
295 235
305 159
305 235
315 159
315 235
325 159
325 235
335 159
335 235
345 159
345 235
355 159
355 235
365 159
365 235
375 159
375 235
385 159
385 235
395 159
395 235
405 159
405 235
415 159
415 235
425 159
425 235
435 159
435 235
445 159
445 235
455 159
455 235
465 159
465 235
475 159
475 235
485 159
485 235
495 159
495 235
505 159
505 235
515 159
515 235
525 159
525 235
535 159
535 235
545 159
545 235
555 162
555 172
555 185
555 195
555 205
555 215
555 225
555 235
