44 387
52 394
54 384
59 402
64 384
67 409
74 384
74 417
74 427
82 434
84 384
91 439
94 384
99 445
102 390
108 450
109 207
109 217
110 397
115 458
117 199
117 224
119 402
119 492
119 502
125 191
125 230
125 462
127 409
127 484
129 472
129 505
133 184
134 235
135 495
136 414
143 184
143 240
144 490
145 419
150 248
153 184
154 490
155 419
160 250
160 498
163 184
165 419
168 505
169 255
169 292
172 179
172 515
174 301
174 414
175 263
177 284
179 167
180 406
180 522
181 309
183 270
185 180
187 159
187 530
188 399
189 315
190 170
190 189
192 389
192 539
199 312
199 377
200 189
200 445
200 545
202 455
205 300
205 465
207 369
207 475
208 438
209 182
209 357
210 545
213 428
215 302
215 482
217 174
217 349
219 550
220 420
222 310
222 339
222 490
225 180
225 558
227 190
229 318
229 328
230 415
230 497
233 565
237 194
238 408
239 502
240 573
245 400
247 194
247 509
248 579
253 393
254 517
255 570
257 194
262 524
263 388
263 563
264 182
268 553
271 529
272 174
273 385
275 545
277 164
283 385
285 156
293 149
293 385
294 395
294 405
295 190
297 200
297 415
300 141
303 183
305 422
307 204
310 136
310 170
315 160
315 425
317 199
318 129
323 153
325 191
325 420
327 134
328 144
333 184
334 415
342 179
344 415
350 171
350 423
355 161
358 430
363 154
365 438
367 144
370 447
375 136
379 452
383 129
384 461
389 470
392 124
395 478
400 270
401 129
405 480
408 263
410 134
410 274
410 325
410 335
410 345
415 250
415 315
415 475
419 267
420 131
420 240
420 349
420 375
420 385
423 308
423 468
425 365
425 394
427 259
428 124
428 233
430 300
430 346
430 415
430 425
430 435
430 445
430 455
433 358
435 116
435 225
435 391
437 254
438 293
438 408
443 109
443 218
443 384
443 398
445 285
446 249
447 99
447 374
450 160
450 210
450 275
452 170
453 383
455 91
455 200
455 244
455 265
456 369
457 179
458 153
460 189
460 255
463 84
465 145
470 76
473 138
475 66
480 130
485 61
488 123
493 54
493 113
500 100
502 49
505 85
510 70
512 49
518 63
