24 192
24 202
24 212
24 222
24 232
24 242
29 182
29 251
34 172
34 260
37 270
39 162
44 152
45 277
49 142
52 285
54 132
59 122
60 292
67 300
69 117
74 107
75 307
79 97
82 315
84 87
90 322
94 82
99 72
99 327
104 62
104 336
112 54
114 340
120 46
120 348
128 39
128 355
135 363
137 34
143 370
146 29
152 375
155 24
162 379
165 24
169 387
174 29
177 394
183 34
186 399
192 39
194 405
201 44
203 410
209 51
210 418
215 59
218 425
223 65
227 430
232 70
235 437
237 79
240 89
242 445
248 95
250 452
255 103
257 460
260 112
265 121
265 467
270 130
270 140
272 475
275 149
280 158
280 482
285 167
287 490
293 174
297 490
300 166
305 156
307 489
310 146
315 136
315 480
323 129
323 473
329 117
333 468
334 107
339 97
343 463
347 89
353 458
354 77
359 67
360 450
369 62
369 445
377 54
378 440
385 46
387 434
395 41
397 429
405 36
407 424
415 34
417 419
425 34
425 410
434 405
435 37
443 400
444 42
449 51
452 395
458 56
461 390
463 65
465 380
470 73
475 82
475 375
480 91
483 368
485 100
490 109
490 360
495 118
498 353
505 122
505 345
509 132
513 338
514 141
518 151
520 325
523 160
527 170
528 318
532 179
535 189
535 310
540 198
540 208
540 300
545 217
545 285
550 226
550 236
550 246
550 256
550 266
550 276
