124 467
129 476
132 459
136 484
142 459
146 480
152 454
155 475
159 492
160 446
164 470
164 501
167 484
168 439
170 460
174 505
175 431
177 479
178 453
183 424
184 507
185 445
187 414
187 474
189 497
192 404
193 438
195 466
199 492
200 396
200 456
203 435
205 386
205 446
205 480
210 470
213 379
215 460
219 367
223 453
224 357
230 445
232 349
237 339
238 438
239 97
239 312
239 322
244 87
244 106
244 287
244 297
245 430
249 277
250 420
251 114
252 79
254 267
258 413
259 120
261 74
262 259
265 400
269 120
270 69
270 251
270 390
278 244
278 383
279 120
280 69
285 236
285 375
289 120
290 66
290 226
294 212
294 370
294 622
298 125
299 47
299 57
299 197
300 630
303 375
304 187
304 617
307 130
309 42
309 172
309 635
312 380
314 138
314 148
314 158
314 614
318 640
319 39
322 384
324 614
327 635
328 34
329 392
334 614
337 399
337 635
338 34
344 407
344 612
347 634
348 34
349 687
352 414
354 607
354 696
355 625
357 29
357 679
361 419
362 599
364 700
365 620
366 34
367 674
369 425
371 594
374 615
374 702
375 60
375 70
375 433
376 34
377 80
377 674
380 44
380 589
382 89
382 695
383 610
385 437
386 669
389 97
389 577
391 690
392 604
394 106
394 442
394 662
395 116
397 569
400 125
400 685
402 135
402 449
402 559
402 599
402 654
407 144
407 549
410 154
410 164
410 174
410 184
410 194
410 204
410 646
410 675
411 454
412 539
412 594
414 722
415 213
417 529
418 639
418 668
419 712
419 731
420 222
421 458
422 519
422 589
424 232
424 702
425 631
425 660
427 509
429 241
429 732
430 463
430 575
430 621
432 499
432 694
433 251
433 653
435 565
435 611
437 489
438 260
438 470
439 682
439 727
440 601
440 645
442 270
443 558
444 587
444 672
445 280
448 638
449 572
449 722
450 289
450 550
452 664
454 560
455 298
457 714
458 633
460 656
463 305
465 705
468 628
468 649
470 313
473 698
475 615
475 641
478 319
480 605
480 631
480 690
485 595
487 324
488 624
490 585
490 685
494 332
495 616
498 578
498 678
502 339
503 609
505 570
505 670
510 601
511 344
513 663
515 565
518 594
520 349
520 655
525 560
527 589
528 355
528 648
535 560
535 581
535 640
537 360
543 553
543 574
543 633
547 364
550 566
553 548
553 628
554 372
558 559
560 615
562 379
563 543
565 605
570 535
571 384
573 598
579 391
580 590
585 399
588 583
590 408
593 573
595 417
598 563
600 426
605 435
605 550
610 444
610 540
615 453
615 463
615 473
618 533
623 480
623 523
625 490
625 500
625 510
