24 142
29 132
29 151
34 122
39 155
42 114
44 102
48 160
49 87
54 62
54 72
58 158
59 37
62 54
65 145
69 36
74 27
75 140
84 26
85 135
93 31
94 130
100 39
103 125
110 42
113 123
120 44
123 125
129 49
129 133
130 143
134 153
139 51
139 162
139 172
139 182
144 191
148 56
149 200
155 208
158 59
159 218
164 227
164 237
164 247
164 257
164 267
164 277
167 64
169 286
174 295
174 305
176 69
179 314
184 76
185 322
189 332
190 84
194 341
198 90
199 350
202 360
204 370
204 380
204 390
204 400
204 512
204 522
205 98
209 409
209 419
209 429
209 497
209 531
213 105
214 438
214 448
214 458
214 468
214 478
214 488
219 532
220 113
227 524
228 119
230 440
230 450
230 460
230 470
232 480
232 514
235 385
235 395
235 405
235 415
235 425
235 490
235 500
237 124
244 390
244 400
244 512
246 129
249 409
249 502
249 521
251 419
254 429
254 439
254 492
255 134
259 448
259 458
259 468
259 478
259 522
265 134
265 330
265 340
265 350
269 517
270 320
270 359
270 369
270 379
270 420
270 430
270 505
272 440
274 139
275 388
275 398
275 408
275 450
275 460
275 490
277 470
280 315
280 480
284 141
290 315
293 146
300 315
303 150
310 315
312 155
320 162
320 315
330 164
330 315
339 169
340 315
349 171
350 317
359 174
360 320
369 174
370 320
379 174
380 315
389 174
390 315
398 169
400 315
408 169
410 310
418 169
420 305
427 164
430 305
437 164
439 300
446 159
449 297
455 154
459 295
465 154
468 300
469 502
469 512
472 310
474 492
475 154
475 520
480 317
482 484
484 159
484 327
485 520
489 336
489 346
489 356
489 467
490 510
494 159
494 365
494 452
498 503
499 374
499 437
501 384
503 493
504 159
504 394
504 404
504 414
504 424
510 465
510 475
510 485
513 164
515 450
520 425
520 435
523 165
528 418
532 170
533 408
538 398
542 174
548 395
551 179
554 517
555 325
555 403
557 335
559 507
559 526
560 310
561 179
562 344
563 410
565 300
565 354
567 420
567 499
569 430
569 440
569 450
569 460
569 470
569 480
569 527
570 174
570 285
573 360
575 205
575 215
575 270
579 522
580 171
580 224
580 234
580 244
580 254
580 368
585 207
585 500
585 510
588 164
588 375
590 400
590 410
590 420
590 430
590 440
590 450
590 460
592 215
592 385
593 493
595 469
595 479
597 159
600 222
605 151
607 230
612 239
615 146
619 247
625 144
627 254
635 144
636 259
643 150
646 255
650 158
650 168
650 190
650 200
650 210
650 220
650 230
650 240
655 177
