139 492
139 502
147 509
149 487
157 510
159 484
167 509
168 479
177 504
178 479
179 517
184 467
184 526
185 495
187 509
192 459
193 488
194 530
197 504
198 478
199 447
203 468
204 437
204 527
207 499
209 427
210 460
212 519
214 417
215 491
218 453
219 407
222 514
223 484
224 397
225 440
227 474
227 504
229 387
233 433
234 377
234 462
235 490
239 367
239 452
240 425
240 480
244 357
244 442
248 418
248 473
249 312
249 342
249 432
253 408
254 297
254 321
254 331
255 465
258 419
259 42
259 52
259 272
259 282
260 400
263 458
264 61
264 262
264 410
267 34
270 445
271 69
272 254
277 29
277 244
278 438
279 75
283 428
285 236
286 34
289 75
290 420
293 229
295 410
296 34
298 80
299 217
303 403
306 34
307 85
307 209
309 197
310 395
314 182
314 672
316 34
317 89
318 388
319 172
319 681
322 664
324 157
325 95
326 34
328 390
329 147
329 685
332 659
334 100
334 137
336 34
337 395
339 109
339 119
339 687
342 659
344 403
346 34
347 680
349 412
351 654
354 421
356 34
356 675
361 429
361 650
365 670
366 30
369 435
371 649
374 665
376 25
378 440
379 642
379 722
383 660
385 448
385 730
386 24
387 714
389 637
390 40
392 655
393 455
394 735
395 49
397 629
397 709
400 58
401 650
402 460
404 735
405 67
405 621
407 704
409 77
409 642
410 725
412 464
413 614
414 86
415 96
416 699
417 604
419 637
420 105
420 115
420 125
420 135
420 145
420 155
420 720
421 469
424 587
425 164
425 174
425 184
425 194
425 204
425 214
425 694
429 572
429 635
430 223
430 233
430 715
431 473
431 685
434 557
435 242
437 629
438 708
439 480
439 542
439 677
440 251
440 261
440 271
442 490
444 517
444 527
445 280
445 700
447 290
447 499
447 624
447 669
450 300
450 690
452 659
455 309
455 605
455 615
457 649
458 683
460 318
460 590
462 639
463 673
464 627
465 580
468 325
469 617
473 668
474 575
474 592
474 602
475 333
480 660
483 339
488 653
492 344
493 643
498 633
499 352
499 662
499 672
503 623
504 642
504 652
505 610
507 359
509 632
509 675
510 600
514 622
515 590
516 364
518 680
519 607
520 580
524 597
525 369
527 674
529 587
530 575
534 374
537 669
543 379
545 660
552 384
553 653
559 392
560 640
565 630
567 399
570 620
574 407
578 613
582 414
583 603
589 422
590 595
595 430
598 588
600 439
605 448
605 580
613 455
613 573
620 565
622 460
625 555
630 467
633 548
637 475
638 538
642 484
643 528
645 494
645 504
645 514
