39 312
39 407
39 417
39 427
39 437
44 321
44 362
44 372
44 382
44 392
44 446
47 304
49 330
49 347
49 455
56 309
58 460
66 309
68 458
75 304
78 453
84 297
85 445
90 425
90 435
92 289
95 415
100 405
101 284
105 395
110 279
113 388
120 279
120 380
128 373
130 279
138 370
139 274
147 375
149 274
155 382
159 274
162 390
169 274
170 397
177 405
179 274
186 410
189 274
194 416
199 274
199 425
204 434
209 276
210 442
214 452
218 281
219 461
226 469
228 284
234 475
237 289
240 483
247 289
248 490
256 294
257 495
265 299
265 502
274 507
275 299
284 510
285 299
294 510
295 296
303 515
305 294
310 523
315 294
320 527
324 289
327 535
333 284
335 542
342 279
342 550
350 271
350 557
354 567
358 264
359 576
365 256
369 580
370 465
370 475
373 249
374 589
375 484
377 239
378 458
380 493
380 545
380 597
382 229
384 607
385 450
385 554
388 500
389 616
390 221
390 563
393 443
394 625
394 642
394 652
394 662
394 672
395 508
395 550
395 572
398 214
402 580
402 679
403 438
404 202
404 555
405 512
407 589
410 521
410 599
412 194
412 679
413 433
413 560
416 529
418 605
420 425
420 539
420 568
420 670
422 189
422 615
425 625
425 635
425 660
428 545
428 575
429 420
430 644
432 184
432 585
435 553
437 414
437 594
439 604
439 614
441 179
441 624
443 560
444 634
445 405
450 174
450 568
453 398
454 635
458 575
459 169
460 385
462 585
462 629
465 375
467 594
469 167
470 604
470 615
473 368
477 159
480 355
487 154
488 348
497 149
498 345
507 144
508 345
516 139
517 340
525 134
526 345
535 131
535 350
544 355
545 129
550 363
555 129
558 370
565 132
567 375
574 137
575 382
580 235
582 245
582 390
584 141
587 254
589 230
590 149
590 340
590 397
594 262
597 405
598 155
598 346
599 227
599 271
600 281
604 413
605 163
605 354
606 289
606 340
609 225
609 422
610 172
610 363
610 373
614 431
614 441
615 294
615 345
617 180
617 219
618 380
619 450
619 460
619 470
619 480
619 490
619 500
622 390
624 299
625 187
625 205
625 347
627 399
628 505
630 196
630 409
634 301
635 350
635 418
638 503
640 427
643 306
644 355
644 437
645 450
645 460
648 498
650 469
653 310
653 488
654 355
655 478
660 318
663 360
668 325
670 368
672 335
678 375
680 342
685 383
687 350
693 390
695 357
700 398
702 365
708 405
710 372
712 415
714 425
714 435
717 380
717 445
725 387
726 450
730 396
730 406
735 445
739 411
743 438
745 419
748 429
