24 92
24 102
24 117
24 127
24 137
24 147
24 157
24 167
24 177
24 187
24 202
29 72
29 82
29 212
29 222
34 62
37 229
39 47
45 235
49 46
54 240
59 44
63 245
68 39
73 245
78 39
82 250
87 34
91 255
97 34
99 261
107 29
109 262
117 29
119 265
126 34
129 265
136 34
139 265
144 27
149 265
154 24
159 265
164 24
169 262
173 29
179 257
182 24
189 255
191 29
197 249
200 235
201 25
205 215
205 225
209 31
210 205
215 39
215 49
220 195
223 55
225 65
229 190
230 80
235 89
239 190
244 94
249 187
254 96
259 190
264 99
269 190
274 99
279 190
284 99
288 185
294 99
297 180
304 99
307 180
313 104
317 180
322 99
326 175
332 99
336 175
342 99
346 175
352 99
355 170
362 99
365 165
371 173
372 99
380 178
382 99
390 180
392 99
400 180
402 99
410 180
412 99
420 180
422 99
429 185
432 99
438 180
442 99
448 180
451 104
458 180
460 109
467 185
469 104
474 177
478 109
484 175
488 109
493 180
497 104
503 180
507 104
512 175
516 109
521 180
526 109
531 180
536 109
539 172
544 116
545 155
550 124
555 145
560 127
