119 252
119 262
119 272
119 282
119 292
119 302
119 312
124 237
124 321
129 227
129 330
129 340
134 349
137 219
140 357
145 211
147 365
153 204
155 372
160 196
164 377
168 189
172 384
177 184
181 389
185 176
189 395
195 171
199 395
203 164
208 400
212 159
218 400
222 154
228 400
232 149
238 400
242 149
248 400
252 149
258 400
262 149
268 400
272 149
278 400
282 149
288 400
292 149
298 400
301 154
308 400
311 154
318 398
320 159
328 395
330 162
335 385
339 167
343 378
345 175
348 368
350 184
353 358
355 193
358 348
360 202
364 212
365 340
372 219
374 335
382 219
384 332
392 219
394 330
402 219
404 330
412 219
414 330
421 224
424 330
430 229
430 320
438 313
440 229
448 235
448 308
457 240
458 305
467 244
468 305
477 244
477 310
486 239
487 314
494 322
495 234
504 325
505 234
514 322
515 234
522 315
525 234
531 310
535 237
539 247
540 305
549 251
550 305
558 256
560 305
568 259
570 307
577 254
580 310
586 249
590 312
596 245
600 315
606 244
610 310
615 249
620 305
625 252
628 298
632 260
638 293
642 264
645 274
645 284
