89 167
89 177
94 186
97 159
104 190
106 154
109 447
109 457
109 467
109 477
110 198
114 437
114 486
115 149
118 205
119 427
119 495
122 505
124 142
124 417
127 210
129 407
129 513
132 134
132 219
137 399
137 519
139 227
140 126
142 389
144 236
147 379
147 514
148 119
149 367
151 244
154 352
156 253
157 114
157 514
159 263
159 337
164 272
164 282
164 292
164 302
164 312
164 322
165 106
166 519
174 525
175 101
177 535
183 94
184 543
189 552
192 89
194 561
199 570
201 84
205 578
209 77
213 585
219 72
222 590
229 67
231 595
239 62
241 598
249 59
251 598
258 54
260 603
268 54
270 605
278 54
279 610
288 54
289 610
298 54
298 615
307 620
308 54
317 624
318 54
326 629
327 49
336 633
337 49
346 44
346 635
354 22
354 32
355 640
362 14
365 640
371 19
375 640
380 24
380 510
385 500
385 640
390 27
390 485
390 514
395 640
398 34
398 478
400 517
405 470
405 640
407 39
410 519
413 463
415 640
416 44
420 522
423 460
424 635
426 44
430 524
433 458
434 632
435 49
439 529
443 458
444 630
445 52
449 531
453 460
453 625
455 54
459 534
462 620
463 460
464 59
469 536
471 615
472 465
473 64
478 541
480 610
482 69
482 465
488 544
490 610
491 74
491 470
497 549
499 605
500 79
500 315
500 475
505 324
507 549
508 85
508 600
510 310
510 333
510 343
510 475
515 93
516 554
517 594
518 350
519 480
520 305
522 360
524 561
525 97
527 589
528 485
530 300
530 367
532 105
533 566
535 205
535 580
537 114
537 375
538 485
539 295
540 195
540 214
544 122
545 180
545 382
547 289
548 483
549 131
549 219
550 141
550 151
550 161
550 171
552 390
555 227
555 280
557 399
558 478
562 235
563 273
563 468
564 407
568 263
568 458
569 416
570 242
570 252
570 426
570 436
570 446
