64 142
64 152
64 162
69 132
69 171
76 179
77 124
84 185
85 116
89 412
89 422
89 432
93 109
93 190
94 392
94 402
94 441
99 450
102 104
102 384
102 460
103 190
107 374
110 467
111 99
112 364
113 190
116 90
117 354
117 475
122 195
122 344
124 82
126 470
127 334
131 190
132 324
134 77
136 468
137 314
139 297
141 190
142 69
144 262
144 272
144 282
145 473
151 64
151 193
153 480
154 259
159 57
159 488
161 190
163 264
164 497
167 49
169 506
170 195
172 259
174 515
177 44
179 524
180 195
182 259
185 532
187 39
190 195
192 259
192 540
196 34
199 200
202 259
202 544
205 29
209 200
210 550
211 254
214 24
218 205
220 550
221 254
224 22
227 210
229 555
230 249
234 19
237 214
239 244
239 555
243 14
244 222
245 236
249 555
253 14
258 560
263 14
267 565
273 14
277 569
283 14
285 575
293 15
295 577
303 15
304 582
313 19
314 585
323 19
323 590
332 24
333 590
342 24
343 590
351 29
352 595
360 34
360 460
362 595
365 445
365 469
368 40
372 595
373 438
375 469
377 45
380 425
381 590
384 474
385 52
390 420
391 590
394 57
394 476
399 66
400 415
401 590
404 479
408 71
410 415
410 585
413 484
415 79
420 415
420 580
423 85
423 484
430 415
430 580
432 90
432 489
439 575
440 97
440 415
442 489
448 104
448 570
449 420
451 494
457 565
458 104
459 420
460 499
465 428
466 560
468 104
470 499
475 427
476 560
478 104
479 504
480 270
480 280
484 432
485 289
485 555
487 99
488 509
490 270
490 298
493 548
494 435
495 307
497 94
497 514
498 263
499 317
503 543
504 435
505 520
507 94
507 324
508 258
510 165
510 535
513 440
514 332
515 174
515 250
517 94
518 158
520 145
522 339
523 438
524 245
525 135
525 177
527 94
529 347
530 120
530 430
532 185
532 239
534 102
534 356
537 229
538 366
538 423
540 192
540 410
542 219
543 375
544 202
545 385
545 395
