74 147
79 137
82 154
87 129
89 162
94 432
94 442
94 452
96 124
97 169
99 417
99 461
104 177
104 407
104 470
105 119
107 480
112 184
112 399
112 489
114 112
117 389
119 192
120 495
122 104
122 379
127 199
127 369
129 357
130 96
130 495
134 207
134 347
138 89
139 216
139 332
140 495
144 225
144 235
144 317
145 81
147 245
149 255
149 265
149 275
149 285
149 295
149 305
149 500
153 74
158 505
162 69
164 513
169 522
170 61
177 529
180 56
181 539
186 548
190 51
190 558
198 565
200 46
207 570
208 39
216 575
217 34
225 580
227 29
235 580
237 29
244 585
246 24
254 585
256 24
264 585
266 24
273 590
276 24
282 595
286 24
292 599
296 24
301 604
306 24
311 608
316 24
321 610
326 24
330 615
335 29
339 620
345 29
349 620
355 29
358 625
364 34
368 625
373 39
378 625
382 44
388 625
389 52
398 625
399 56
405 64
407 620
413 70
417 620
420 78
427 619
428 85
437 90
437 615
445 97
446 610
453 104
455 605
462 109
465 605
471 114
474 600
481 114
483 595
491 114
492 590
500 290
500 300
501 114
501 585
505 309
505 515
505 525
510 109
510 285
510 318
510 505
510 534
510 580
515 495
518 325
519 104
519 575
520 280
520 480
520 534
522 335
525 470
528 570
529 104
529 275
529 539
530 342
535 465
537 269
537 350
537 545
537 564
539 104
540 165
540 175
542 185
545 155
545 260
545 357
545 465
549 106
549 367
550 192
553 148
553 253
555 114
555 124
555 134
555 465
557 200
557 374
560 245
560 384
560 450
565 207
565 217
565 393
565 403
565 425
565 435
568 238
570 226
570 412
