154 232
154 242
159 251
162 224
166 259
171 219
174 522
174 532
174 542
174 552
176 263
179 507
179 561
179 571
180 214
184 270
184 497
184 580
189 209
190 278
190 588
192 489
198 204
198 285
198 595
199 477
199 822
204 293
204 462
204 802
204 812
205 196
207 590
209 302
209 452
209 782
209 792
209 825
213 189
214 437
214 762
214 772
217 309
217 590
219 319
219 427
219 742
219 752
219 825
220 181
224 328
224 412
224 722
224 732
227 590
228 174
229 337
229 347
229 357
229 367
229 377
229 387
229 397
229 702
229 712
229 825
234 682
234 692
235 597
237 169
239 607
239 667
239 825
244 647
244 657
245 161
247 614
249 627
249 637
249 825
253 154
259 825
262 149
269 825
272 144
279 825
281 139
289 825
290 134
299 129
299 825
308 124
309 825
317 119
319 825
327 119
329 825
337 119
337 819
340 800
345 780
345 790
347 119
350 760
350 770
355 740
355 750
357 119
360 720
360 730
365 705
367 119
374 700
377 119
383 705
384 102
389 82
389 92
393 705
394 62
394 72
399 42
399 52
402 710
404 32
411 715
414 29
421 715
424 29
431 718
434 29
441 720
443 34
451 720
453 34
460 575
460 585
461 720
463 34
465 560
465 594
470 550
471 720
473 34
475 594
480 545
481 720
483 34
485 597
488 538
490 715
493 34
495 599
498 535
500 715
503 34
504 604
505 165
505 175
508 535
510 150
510 184
510 715
512 39
514 604
515 130
515 140
517 530
519 710
520 110
520 120
520 187
522 39
524 606
525 90
525 100
527 195
527 534
528 705
530 70
530 80
532 39
534 609
535 50
535 60
537 199
537 535
538 703
543 614
546 204
546 540
548 698
552 619
555 209
556 540
558 695
561 624
565 209
566 543
567 690
571 624
575 209
575 548
576 685
580 385
580 395
580 629
585 206
585 404
585 550
585 680
589 634
590 380
590 413
594 555
594 675
595 201
595 422
598 639
600 375
600 431
602 669
603 560
605 199
606 439
607 644
609 370
610 654
613 560
614 446
615 199
618 365
620 255
620 265
620 275
623 451
623 560
625 199
625 245
625 284
627 359
628 460
630 230
632 349
632 554
633 205
633 290
635 215
635 468
640 298
640 340
640 477
640 545
644 487
645 307
645 317
645 327
645 497
645 507
645 517
645 527
