19 307
19 317
19 327
19 337
19 347
19 357
19 367
19 377
24 386
24 396
24 406
27 299
29 287
29 415
29 425
29 435
32 445
34 455
39 282
39 464
39 474
39 484
44 493
45 503
47 274
49 513
49 523
49 533
54 542
54 552
54 562
54 572
54 582
54 592
54 602
57 269
59 611
59 621
64 630
64 640
64 650
67 269
69 659
74 668
77 264
79 677
79 687
84 696
84 706
84 716
84 726
84 736
84 746
87 264
91 754
97 264
101 755
107 264
110 750
117 264
120 745
126 259
130 740
136 259
140 740
146 259
150 735
156 259
160 735
165 254
170 737
175 254
180 740
185 251
190 740
195 249
199 745
205 249
209 745
215 252
219 745
225 254
229 745
235 254
238 740
244 259
248 740
254 259
258 740
264 259
268 738
274 261
278 735
284 264
288 735
294 262
298 735
299 247
308 735
309 242
317 730
319 244
325 252
327 729
333 259
337 725
343 259
346 720
350 251
356 720
358 244
366 720
368 244
376 720
378 244
386 720
387 239
396 720
397 239
406 720
407 239
416 244
416 720
426 244
426 720
435 239
436 720
444 232
446 720
449 222
456 720
459 219
466 720
468 214
475 355
475 365
475 375
476 720
477 209
480 300
480 310
480 320
480 330
480 340
480 384
486 204
486 720
488 390
490 285
490 295
494 197
495 398
495 715
500 280
504 192
505 270
505 402
505 425
505 435
505 445
505 715
510 454
512 184
512 410
514 710
515 260
515 420
515 463
520 472
521 179
524 482
524 707
525 255
529 491
530 245
530 501
531 175
532 699
533 511
535 521
539 167
540 240
540 530
540 540
540 550
540 685
545 559
545 569
545 579
545 670
548 233
549 162
550 588
550 598
550 608
550 618
550 628
550 638
550 648
550 658
555 225
557 154
564 220
567 154
572 214
575 146
580 205
585 141
589 200
595 136
597 194
603 129
605 185
613 129
614 180
620 121
622 174
630 119
630 165
639 160
640 119
648 155
649 112
657 149
659 107
667 145
669 104
676 140
679 104
685 135
688 99
695 135
698 99
705 135
707 94
715 130
716 89
720 120
725 84
725 110
734 79
734 105
742 99
743 74
750 66
750 90
760 61
760 90
768 54
770 90
775 80
778 54
785 62
785 72
