24 312
24 322
24 332
24 342
29 351
32 304
34 360
37 370
40 296
45 377
48 289
52 385
55 281
60 392
63 274
69 397
70 266
74 406
78 259
81 414
85 251
89 420
93 244
98 425
102 239
107 430
111 234
116 435
119 227
125 440
127 219
134 445
137 214
143 450
145 206
150 196
150 458
158 189
158 465
165 181
167 470
173 174
177 474
182 169
186 479
187 159
194 485
195 151
200 141
204 485
208 134
213 490
215 126
222 495
223 119
229 107
232 499
234 509
234 519
234 529
236 539
237 99
244 87
246 543
249 77
255 548
257 69
262 59
264 47
264 592
265 552
269 37
269 562
269 572
269 582
269 601
269 611
269 621
274 630
274 640
274 650
274 660
279 32
279 669
284 678
289 31
289 687
294 696
295 39
300 48
301 704
305 57
305 585
305 595
305 605
305 615
305 625
309 710
310 570
310 634
310 644
310 654
312 65
315 560
315 663
315 718
317 74
320 84
320 672
323 553
325 681
325 722
328 90
330 545
330 690
332 730
335 98
335 699
339 540
341 735
343 105
345 702
347 534
350 113
350 500
350 510
350 520
351 735
353 709
355 122
355 490
361 738
362 130
363 709
365 490
370 137
371 740
373 709
375 490
377 145
381 740
382 154
382 704
384 485
389 162
390 735
391 699
394 482
397 169
400 735
401 699
404 177
404 477
409 730
410 704
412 184
412 469
419 697
419 727
421 189
422 464
427 689
429 725
430 194
430 455
437 684
438 448
438 720
439 199
445 440
447 205
447 684
447 714
454 435
455 212
455 700
456 689
462 429
464 217
470 420
474 221
478 413
483 226
485 405
490 234
493 398
499 239
503 393
508 244
510 385
517 249
518 378
524 257
525 370
534 261
534 365
540 269
540 355
545 340
548 275
550 330
552 285
555 315
557 294
560 304
