164 312
164 322
164 557
164 567
164 577
164 627
164 637
164 647
164 657
169 331
169 341
169 532
169 542
169 586
169 596
169 606
169 616
169 666
169 676
169 686
169 696
169 706
174 309
174 522
174 715
174 725
176 349
177 735
179 512
179 745
181 358
182 315
182 755
185 368
187 504
189 207
189 217
189 227
189 237
189 247
189 257
189 267
189 277
189 378
189 388
189 398
189 408
190 322
190 418
190 762
192 494
194 162
194 172
194 182
194 192
194 286
194 296
194 306
195 331
195 427
197 770
199 152
199 315
201 489
203 325
204 132
204 142
204 432
207 774
209 122
209 441
210 484
214 107
214 450
215 180
215 190
215 200
215 210
215 220
215 230
215 240
215 250
216 779
217 260
217 460
220 160
220 170
220 270
220 484
222 99
224 468
225 130
225 140
225 150
225 279
225 289
226 780
227 89
230 298
233 123
234 77
234 272
234 284
235 105
236 780
239 67
243 98
244 269
246 780
247 59
250 85
254 271
255 51
256 780
258 281
260 41
260 80
263 290
266 780
267 300
270 36
270 75
272 309
276 780
278 29
279 317
280 75
286 780
287 24
289 319
290 75
296 19
296 780
297 325
300 70
305 332
305 775
306 19
308 63
312 340
315 50
315 775
316 19
320 347
324 45
324 357
325 770
326 19
332 364
333 50
335 374
335 770
336 19
343 50
345 377
345 770
346 19
352 44
353 384
355 770
356 19
360 376
362 40
364 362
365 24
365 772
372 40
372 354
374 777
375 27
377 344
382 44
384 780
385 29
387 339
389 52
393 35
393 785
396 334
397 59
400 43
403 785
405 52
405 329
412 790
414 324
422 790
424 324
432 790
434 324
441 795
444 324
451 795
454 324
461 795
464 326
471 795
474 329
481 795
484 329
491 795
494 331
501 795
504 334
511 795
514 334
521 795
524 334
530 790
534 336
540 790
544 339
550 790
553 344
560 790
563 344
569 795
573 345
578 800
582 350
588 800
592 354
597 805
602 354
605 730
605 740
605 750
605 760
605 770
605 780
606 800
610 710
610 720
610 789
611 359
615 555
615 565
615 575
615 585
615 595
615 605
615 615
615 625
615 635
615 645
615 655
615 665
615 675
615 685
615 695
620 364
623 548
625 535
630 367
630 525
635 505
635 515
637 375
640 485
640 495
642 384
645 475
649 392
650 402
650 440
650 450
650 460
655 411
655 421
655 431
