24 317
24 327
24 337
24 347
29 356
32 309
34 365
34 375
39 384
40 301
45 392
48 294
54 397
55 286
62 404
63 279
69 412
72 274
77 419
81 269
84 427
89 262
92 434
97 254
99 442
107 249
107 449
115 241
115 455
124 460
125 236
130 468
135 231
138 475
145 226
147 480
155 221
155 487
162 495
163 214
171 500
172 209
179 506
182 204
186 514
191 199
196 518
200 194
205 523
209 189
213 530
218 184
222 535
227 179
232 535
236 174
242 535
245 169
249 552
249 562
249 572
249 582
252 539
255 166
259 585
259 782
263 159
264 772
267 789
269 585
272 154
272 764
274 594
277 754
277 790
280 146
280 602
282 744
287 610
287 734
287 789
288 139
289 717
292 619
294 697
294 707
295 780
296 629
297 134
299 639
299 649
299 659
299 669
299 679
303 773
306 129
310 760
314 122
318 753
323 743
324 119
328 733
334 119
335 620
335 630
335 640
335 650
335 660
335 670
335 680
335 690
335 700
335 710
335 720
340 610
343 124
348 603
352 129
355 595
361 134
365 590
370 139
375 540
375 550
375 580
377 560
378 145
380 570
385 153
385 540
390 162
395 540
397 170
404 535
405 177
412 185
414 532
420 192
424 527
429 197
434 522
439 201
442 515
445 209
451 510
453 215
460 505
462 220
470 500
472 224
480 495
481 229
488 488
490 234
498 483
499 239
508 244
508 478
517 249
518 473
524 257
528 468
532 264
535 460
541 269
543 453
549 276
550 445
555 284
558 438
563 290
565 430
570 298
575 425
578 305
583 418
585 313
590 410
593 320
598 403
600 328
600 390
605 337
605 360
605 370
605 380
610 346
