154 72
154 82
154 92
159 101
162 64
169 105
170 56
175 113
180 54
183 120
187 130
190 57
195 137
200 59
204 142
204 452
204 462
209 64
212 149
212 444
214 465
219 66
219 157
220 436
223 470
224 166
228 429
229 66
229 175
233 76
233 468
237 424
238 180
240 84
243 470
244 188
244 207
244 222
244 237
244 252
244 267
244 282
244 297
244 312
244 327
244 342
244 357
244 372
244 387
244 402
244 412
248 90
253 470
258 94
263 468
268 94
273 463
278 94
280 455
285 330
285 340
285 350
285 360
285 370
285 380
285 395
285 405
285 440
287 415
288 94
290 320
290 425
295 310
295 437
297 99
300 295
307 99
308 288
313 278
316 104
320 265
325 109
328 258
334 114
338 255
343 119
348 255
349 272
352 124
354 263
354 281
359 290
359 300
361 129
364 309
369 136
370 317
375 144
377 325
383 150
386 330
390 158
395 335
400 157
404 167
404 340
412 174
413 345
420 250
420 265
421 179
423 345
425 235
425 274
430 184
430 220
432 340
435 193
435 274
440 202
440 212
442 339
444 279
450 271
450 330
460 269
460 325
469 264
470 320
479 262
480 315
488 308
489 257
498 303
499 252
505 295
507 244
513 288
517 244
520 280
525 236
529 275
535 231
538 270
545 226
548 270
555 221
558 270
565 219
568 270
574 214
578 270
584 214
588 270
593 219
597 275
600 227
605 245
607 235
607 279
610 254
615 263
