89 272
89 282
89 292
89 302
94 262
94 311
99 242
99 252
99 320
99 372
99 382
99 392
102 330
109 237
109 347
109 357
109 367
109 395
109 405
109 415
112 334
118 420
119 227
119 342
125 428
129 224
134 433
138 219
139 197
139 207
142 440
144 172
144 182
151 445
154 157
154 167
159 142
161 445
167 134
170 450
177 134
179 455
182 124
182 465
187 474
191 484
192 119
201 488
202 119
207 109
210 493
217 109
220 495
227 109
230 495
235 115
240 495
245 119
250 495
254 537
254 547
255 122
259 490
260 555
264 517
264 527
264 565
264 587
264 597
265 124
269 490
269 574
269 606
269 616
269 626
272 509
274 107
274 117
274 635
277 645
279 490
282 509
284 104
287 645
289 487
292 504
293 99
297 89
297 644
299 485
299 495
302 635
307 89
310 620
316 84
318 613
320 575
324 605
325 584
326 84
330 575
330 593
336 84
340 570
345 89
345 555
350 530
355 92
355 539
355 549
359 102
360 530
369 99
370 530
375 91
375 515
383 84
385 515
393 84
395 515
402 79
404 510
412 79
413 505
420 495
422 79
425 485
430 465
430 475
431 84
440 89
440 460
445 98
450 460
454 92
459 465
464 89
469 465
473 84
479 465
483 84
488 460
492 79
498 460
502 79
508 458
512 79
514 450
521 84
523 445
530 89
532 439
535 425
540 92
540 102
540 400
540 410
549 107
550 117
550 390
555 126
555 380
561 134
565 380
570 139
575 380
580 142
583 373
584 152
585 360
594 156
595 350
600 164
600 174
600 225
600 235
600 335
605 183
605 193
605 203
605 213
605 244
605 254
605 310
605 320
614 259
615 310
620 267
620 277
620 287
620 297
