89 127
89 137
89 147
89 157
95 165
99 112
99 122
99 175
99 185
99 195
99 205
99 215
99 225
99 235
99 245
99 255
99 265
99 275
99 285
99 295
99 305
99 315
102 325
107 104
110 332
114 342
116 99
124 92
124 345
133 350
134 89
142 355
144 89
150 81
152 355
158 74
162 355
168 74
169 363
174 372
178 74
179 381
179 391
184 400
188 74
189 409
189 419
189 429
197 435
198 74
199 445
199 455
204 464
204 474
206 484
208 74
216 480
218 74
220 460
220 470
228 74
229 455
235 445
238 74
240 435
245 425
248 74
255 425
258 74
260 410
265 395
268 74
270 380
278 74
280 375
288 74
288 368
290 350
298 74
300 350
308 74
310 350
318 74
320 350
328 74
330 350
338 74
340 350
348 74
350 350
355 66
360 350
365 64
370 350
375 64
380 350
385 64
390 350
395 64
400 350
405 64
410 350
415 64
420 350
425 64
430 350
435 64
440 350
445 64
450 350
455 64
460 350
465 64
470 345
475 64
480 345
485 64
490 345
495 67
500 345
503 74
510 345
513 74
515 335
523 75
525 335
533 79
535 330
540 87
545 330
549 92
553 323
554 101
558 111
558 313
560 121
560 131
560 141
560 151
560 161
560 171
560 181
560 191
560 201
560 211
560 221
560 231
560 241
560 251
564 305
566 259
570 269
570 279
570 289
