184 117
184 127
184 137
184 147
189 107
189 156
194 165
199 104
200 173
208 99
208 180
209 190
209 200
209 210
209 220
209 230
209 240
209 250
209 260
209 270
209 280
209 290
209 300
209 310
209 417
210 120
210 130
214 319
214 329
214 402
214 426
214 436
215 107
218 136
219 338
219 348
219 392
219 445
220 358
224 368
224 378
225 144
229 442
230 430
235 147
239 425
244 434
244 462
245 149
245 200
245 210
245 220
245 230
245 240
245 250
245 260
245 270
245 280
245 290
245 300
245 310
247 320
249 127
249 137
249 443
249 453
250 185
250 330
250 340
250 350
250 360
250 370
254 117
254 465
255 175
255 379
260 388
260 398
262 109
264 170
264 462
265 407
265 417
270 115
270 125
270 150
270 160
270 426
270 436
270 446
275 134
