284 332
284 342
284 372
289 381
294 322
294 345
294 372
296 389
302 314
304 345
304 362
304 395
312 314
314 397
321 319
324 395
331 319
332 389
340 324
340 380
349 375
350 321
357 369
360 319
367 365
370 316
376 360
380 314
386 360
390 314
395 355
399 309
405 355
409 309
414 350
419 307
424 347
429 304
434 345
439 304
443 340
449 304
453 340
459 304
462 335
468 299
472 334
478 299
482 330
488 299
492 329
497 294
502 325
507 294
512 324
517 289
522 320
527 289
532 319
537 284
542 315
547 284
551 310
554 292
559 302
