149 112
149 122
154 131
157 104
159 140
162 150
164 160
167 104
170 168
175 177
177 104
179 187
184 196
185 110
189 205
190 119
194 214
195 128
200 222
203 135
204 232
207 145
209 241
210 155
214 250
215 164
219 259
223 170
224 268
227 180
229 277
229 287
232 189
235 199
237 294
240 208
241 304
246 313
249 323
249 382
249 392
249 402
250 212
250 222
254 232
254 332
254 411
254 421
257 374
259 341
259 430
260 240
262 364
262 440
264 350
265 249
270 258
270 447
275 267
277 455
279 277
286 460
287 284
290 294
290 425
292 435
294 452
295 303
299 420
300 312
307 320
309 420
310 330
315 339
318 425
320 348
322 435
324 445
325 357
330 366
334 447
336 374
342 440
345 379
350 388
350 430
355 397
355 420
360 406
