19 417
19 427
19 437
19 447
24 407
27 454
29 397
34 462
37 389
39 372
40 470
44 381
46 478
47 364
52 354
56 480
60 346
66 480
68 339
76 483
77 334
82 475
86 329
91 320
91 470
94 302
99 287
99 311
100 465
104 272
108 458
109 252
109 262
114 212
114 222
114 232
114 242
115 450
119 197
124 172
124 182
124 445
129 162
130 435
134 152
139 142
139 430
149 132
149 427
154 417
157 124
160 405
162 114
170 390
170 400
172 109
177 99
179 395
187 94
189 395
195 86
198 390
203 79
207 385
210 71
215 392
219 62
219 402
227 409
229 57
235 415
237 49
241 423
244 447
244 457
246 44
249 430
252 464
256 40
260 470
266 35
269 465
276 30
279 462
280 370
280 380
285 389
286 30
289 457
290 370
295 392
296 29
297 449
299 365
302 400
302 440
306 25
309 362
310 407
310 420
310 430
316 25
317 355
326 24
326 350
336 24
336 350
340 340
345 19
349 335
355 17
355 325
364 22
365 315
373 308
374 24
380 300
384 24
388 293
394 24
395 285
403 29
403 278
410 270
413 29
419 265
422 34
427 259
432 34
437 254
441 39
445 245
449 277
450 44
454 262
454 286
455 240
459 49
459 295
462 254
464 235
465 57
467 289
472 280
473 64
480 72
480 287
488 79
490 280
498 79
498 273
508 79
508 268
510 190
512 200
515 260
518 80
518 183
520 95
520 207
523 173
523 253
525 104
527 215
530 135
530 165
530 240
535 101
535 144
535 154
535 222
538 128
545 99
545 115
554 110
