34 302
39 311
39 321
39 331
44 297
44 340
54 294
54 340
63 289
63 345
72 350
73 289
82 350
83 289
92 350
93 289
102 284
102 354
112 284
112 355
121 360
122 284
131 360
132 284
139 262
139 272
141 360
147 254
151 360
157 254
160 355
165 246
168 348
173 239
174 356
174 412
174 422
179 227
179 365
182 404
182 429
185 373
187 219
191 399
192 424
193 380
194 207
200 388
202 199
202 419
209 187
212 415
217 179
222 414
225 350
227 179
230 359
232 409
235 350
236 174
238 365
240 375
240 385
240 395
245 169
245 350
254 164
255 345
263 159
265 345
272 154
275 340
280 146
285 340
289 137
295 340
299 132
304 335
309 134
314 335
318 129
324 332
328 129
334 330
337 124
344 327
346 119
354 325
355 114
364 107
364 322
372 315
374 104
382 314
384 104
392 309
394 104
402 305
403 99
411 300
413 99
420 295
422 94
429 290
432 94
438 285
442 89
447 280
452 89
456 275
461 84
465 270
471 84
474 265
481 84
482 259
490 250
491 84
499 245
500 89
509 245
510 89
518 250
519 94
527 100
528 250
534 282
534 292
534 302
535 107
537 255
542 274
544 297
545 109
547 255
549 265
550 195
552 304
555 109
555 204
558 188
560 290
564 114
565 175
565 207
569 295
570 165
572 120
574 212
575 155
577 289
582 119
584 214
585 145
585 280
592 114
593 219
594 285
595 140
600 275
602 114
602 224
604 135
610 265
611 229
612 109
613 130
618 258
619 236
620 246
622 109
622 125
632 109
632 125
642 109
642 125
651 114
652 124
