<?xml version="1.0" encoding="UTF-8" standalone="no"?>
<!-- Created with CurveBenchmark -->
<svg
	xmlns:dc="http://purl.org/dc/elements/1.1/"
	xmlns:cc="http://creativecommons.org/ns#"
	xmlns:rdf="http://www.w3.org/1999/02/22-rdf-syntax-ns#"
	xmlns:svg="http://www.w3.org/2000/svg"
	xmlns="http://www.w3.org/2000/svg"
	xmlns:sodipodi="http://sodipodi.sourceforge.net/DTD/sodipodi-0.dtd"
	xmlns:inkscape="http://www.inkscape.org/namespaces/inkscape"
	width="1000"
	height="1000"
	id="svg2"
	version="1.1"
	sodipodi:docname="sharp-corners/connect2d-sc18.txt">
<defs
	id="defs4" />
<metadata
	id="metadata7">
	<rdf:RDF>
		<cc:Work
			rdf:about="">
			<dc:format>image/svg+xml</dc:format>
			<dc:type
				rdf:resource="http://purl.org/dc/dcmitype/StillImage" />
			<dc:title></dc:title>
		</cc:Work>
	</rdf:RDF>
</metadata>
<g
	inkscape:label="Layer 1"
	inkscape:groupmode="layer"
	id="layer1">
	<path style="fill:none;stroke:red;stroke-width:1px;stroke-linecap:butt;stroke-linejoin:miter;stroke-opacity:1" d="M 919.268,184.975 914.377,194.146 z" id="boundary" inkscape:connector-curvature="0" />
	<path style="fill:none;stroke:red;stroke-width:1px;stroke-linecap:butt;stroke-linejoin:miter;stroke-opacity:1" d="M 914.377,194.146 910.708,198.426 z" id="boundary" inkscape:connector-curvature="0" />
	<path style="fill:none;stroke:red;stroke-width:1px;stroke-linecap:butt;stroke-linejoin:miter;stroke-opacity:1" d="M 910.708,198.426 889.309,225.327 z" id="boundary" inkscape:connector-curvature="0" />
	<path style="fill:none;stroke:red;stroke-width:1px;stroke-linecap:butt;stroke-linejoin:miter;stroke-opacity:1" d="M 889.309,225.327 872.19,249.172 z" id="boundary" inkscape:connector-curvature="0" />
	<path style="fill:none;stroke:red;stroke-width:1px;stroke-linecap:butt;stroke-linejoin:miter;stroke-opacity:1" d="M 872.19,249.172 830.615,302.364 z" id="boundary" inkscape:connector-curvature="0" />
	<path style="fill:none;stroke:red;stroke-width:1px;stroke-linecap:butt;stroke-linejoin:miter;stroke-opacity:1" d="M 830.615,302.364 814.107,324.374 z" id="boundary" inkscape:connector-curvature="0" />
	<path style="fill:none;stroke:red;stroke-width:1px;stroke-linecap:butt;stroke-linejoin:miter;stroke-opacity:1" d="M 814.107,324.374 809.827,329.266 z" id="boundary" inkscape:connector-curvature="0" />
	<path style="fill:none;stroke:red;stroke-width:1px;stroke-linecap:butt;stroke-linejoin:miter;stroke-opacity:1" d="M 809.827,329.266 780.48,366.561 z" id="boundary" inkscape:connector-curvature="0" />
	<path style="fill:none;stroke:red;stroke-width:1px;stroke-linecap:butt;stroke-linejoin:miter;stroke-opacity:1" d="M 780.48,366.561 776.2,373.287 z" id="boundary" inkscape:connector-curvature="0" />
	<path style="fill:none;stroke:red;stroke-width:1px;stroke-linecap:butt;stroke-linejoin:miter;stroke-opacity:1" d="M 776.2,373.287 758.469,396.52 z" id="boundary" inkscape:connector-curvature="0" />
	<path style="fill:none;stroke:red;stroke-width:1px;stroke-linecap:butt;stroke-linejoin:miter;stroke-opacity:1" d="M 758.469,396.52 757.858,406.302 z" id="boundary" inkscape:connector-curvature="0" />
	<path style="fill:none;stroke:red;stroke-width:1px;stroke-linecap:butt;stroke-linejoin:miter;stroke-opacity:1" d="M 757.858,406.302 800.656,417.919 z" id="boundary" inkscape:connector-curvature="0" />
	<path style="fill:none;stroke:red;stroke-width:1px;stroke-linecap:butt;stroke-linejoin:miter;stroke-opacity:1" d="M 800.656,417.919 817.775,423.421 z" id="boundary" inkscape:connector-curvature="0" />
	<path style="fill:none;stroke:red;stroke-width:1px;stroke-linecap:butt;stroke-linejoin:miter;stroke-opacity:1" d="M 817.775,423.421 835.506,429.535 z" id="boundary" inkscape:connector-curvature="0" />
	<path style="fill:none;stroke:red;stroke-width:1px;stroke-linecap:butt;stroke-linejoin:miter;stroke-opacity:1" d="M 835.506,429.535 852.625,433.815 z" id="boundary" inkscape:connector-curvature="0" />
	<path style="fill:none;stroke:red;stroke-width:1px;stroke-linecap:butt;stroke-linejoin:miter;stroke-opacity:1" d="M 852.625,433.815 861.796,436.872 z" id="boundary" inkscape:connector-curvature="0" />
	<path style="fill:none;stroke:red;stroke-width:1px;stroke-linecap:butt;stroke-linejoin:miter;stroke-opacity:1" d="M 861.796,436.872 879.527,441.763 z" id="boundary" inkscape:connector-curvature="0" />
	<path style="fill:none;stroke:red;stroke-width:1px;stroke-linecap:butt;stroke-linejoin:miter;stroke-opacity:1" d="M 879.527,441.763 897.869,447.266 z" id="boundary" inkscape:connector-curvature="0" />
	<path style="fill:none;stroke:red;stroke-width:1px;stroke-linecap:butt;stroke-linejoin:miter;stroke-opacity:1" d="M 897.869,447.266 910.097,450.935 z" id="boundary" inkscape:connector-curvature="0" />
	<path style="fill:none;stroke:red;stroke-width:1px;stroke-linecap:butt;stroke-linejoin:miter;stroke-opacity:1" d="M 910.097,450.935 963.607,467.15 z" id="boundary" inkscape:connector-curvature="0" />
	<path style="fill:none;stroke:red;stroke-width:1px;stroke-linecap:butt;stroke-linejoin:miter;stroke-opacity:1" d="M 963.607,467.15 973.326,470.384 z" id="boundary" inkscape:connector-curvature="0" />
	<path style="fill:none;stroke:red;stroke-width:1px;stroke-linecap:butt;stroke-linejoin:miter;stroke-opacity:1" d="M 973.326,470.384 996,476.048 z" id="boundary" inkscape:connector-curvature="0" />
	<path style="fill:none;stroke:red;stroke-width:1px;stroke-linecap:butt;stroke-linejoin:miter;stroke-opacity:1" d="M 996,476.048 978.186,494.683 z" id="boundary" inkscape:connector-curvature="0" />
	<path style="fill:none;stroke:red;stroke-width:1px;stroke-linecap:butt;stroke-linejoin:miter;stroke-opacity:1" d="M 978.186,494.683 962.803,500.347 z" id="boundary" inkscape:connector-curvature="0" />
	<path style="fill:none;stroke:red;stroke-width:1px;stroke-linecap:butt;stroke-linejoin:miter;stroke-opacity:1" d="M 962.803,500.347 953.887,502.777 z" id="boundary" inkscape:connector-curvature="0" />
	<path style="fill:none;stroke:red;stroke-width:1px;stroke-linecap:butt;stroke-linejoin:miter;stroke-opacity:1" d="M 953.887,502.777 900.926,518.189 z" id="boundary" inkscape:connector-curvature="0" />
	<path style="fill:none;stroke:red;stroke-width:1px;stroke-linecap:butt;stroke-linejoin:miter;stroke-opacity:1" d="M 900.926,518.189 880.138,523.691 z" id="boundary" inkscape:connector-curvature="0" />
	<path style="fill:none;stroke:red;stroke-width:1px;stroke-linecap:butt;stroke-linejoin:miter;stroke-opacity:1" d="M 880.138,523.691 862.408,529.194 z" id="boundary" inkscape:connector-curvature="0" />
	<path style="fill:none;stroke:red;stroke-width:1px;stroke-linecap:butt;stroke-linejoin:miter;stroke-opacity:1" d="M 862.408,529.194 850.791,532.862 z" id="boundary" inkscape:connector-curvature="0" />
	<path style="fill:none;stroke:red;stroke-width:1px;stroke-linecap:butt;stroke-linejoin:miter;stroke-opacity:1" d="M 850.791,532.862 817.164,542.645 z" id="boundary" inkscape:connector-curvature="0" />
	<path style="fill:none;stroke:red;stroke-width:1px;stroke-linecap:butt;stroke-linejoin:miter;stroke-opacity:1" d="M 817.164,542.645 811.661,543.868 z" id="boundary" inkscape:connector-curvature="0" />
	<path style="fill:none;stroke:red;stroke-width:1px;stroke-linecap:butt;stroke-linejoin:miter;stroke-opacity:1" d="M 811.661,543.868 798.211,548.147 z" id="boundary" inkscape:connector-curvature="0" />
	<path style="fill:none;stroke:red;stroke-width:1px;stroke-linecap:butt;stroke-linejoin:miter;stroke-opacity:1" d="M 798.211,548.147 755.412,565.878 z" id="boundary" inkscape:connector-curvature="0" />
	<path style="fill:none;stroke:red;stroke-width:1px;stroke-linecap:butt;stroke-linejoin:miter;stroke-opacity:1" d="M 755.412,565.878 780.48,598.894 z" id="boundary" inkscape:connector-curvature="0" />
	<path style="fill:none;stroke:red;stroke-width:1px;stroke-linecap:butt;stroke-linejoin:miter;stroke-opacity:1" d="M 780.48,598.894 783.537,602.562 z" id="boundary" inkscape:connector-curvature="0" />
	<path style="fill:none;stroke:red;stroke-width:1px;stroke-linecap:butt;stroke-linejoin:miter;stroke-opacity:1" d="M 783.537,602.562 790.874,611.733 z" id="boundary" inkscape:connector-curvature="0" />
	<path style="fill:none;stroke:red;stroke-width:1px;stroke-linecap:butt;stroke-linejoin:miter;stroke-opacity:1" d="M 790.874,611.733 814.107,641.08 z" id="boundary" inkscape:connector-curvature="0" />
	<path style="fill:none;stroke:red;stroke-width:1px;stroke-linecap:butt;stroke-linejoin:miter;stroke-opacity:1" d="M 814.107,641.08 822.055,652.697 z" id="boundary" inkscape:connector-curvature="0" />
	<path style="fill:none;stroke:red;stroke-width:1px;stroke-linecap:butt;stroke-linejoin:miter;stroke-opacity:1" d="M 822.055,652.697 832.449,666.148 z" id="boundary" inkscape:connector-curvature="0" />
	<path style="fill:none;stroke:red;stroke-width:1px;stroke-linecap:butt;stroke-linejoin:miter;stroke-opacity:1" d="M 832.449,666.148 858.128,698.552 z" id="boundary" inkscape:connector-curvature="0" />
	<path style="fill:none;stroke:red;stroke-width:1px;stroke-linecap:butt;stroke-linejoin:miter;stroke-opacity:1" d="M 858.128,698.552 864.853,707.112 z" id="boundary" inkscape:connector-curvature="0" />
	<path style="fill:none;stroke:red;stroke-width:1px;stroke-linecap:butt;stroke-linejoin:miter;stroke-opacity:1" d="M 864.853,707.112 881.973,730.345 z" id="boundary" inkscape:connector-curvature="0" />
	<path style="fill:none;stroke:red;stroke-width:1px;stroke-linecap:butt;stroke-linejoin:miter;stroke-opacity:1" d="M 881.973,730.345 907.651,777.423 z" id="boundary" inkscape:connector-curvature="0" />
	<path style="fill:none;stroke:red;stroke-width:1px;stroke-linecap:butt;stroke-linejoin:miter;stroke-opacity:1" d="M 907.651,777.423 900.926,774.977 z" id="boundary" inkscape:connector-curvature="0" />
	<path style="fill:none;stroke:red;stroke-width:1px;stroke-linecap:butt;stroke-linejoin:miter;stroke-opacity:1" d="M 900.926,774.977 878.304,766.418 z" id="boundary" inkscape:connector-curvature="0" />
	<path style="fill:none;stroke:red;stroke-width:1px;stroke-linecap:butt;stroke-linejoin:miter;stroke-opacity:1" d="M 878.304,766.418 865.465,762.749 z" id="boundary" inkscape:connector-curvature="0" />
	<path style="fill:none;stroke:red;stroke-width:1px;stroke-linecap:butt;stroke-linejoin:miter;stroke-opacity:1" d="M 865.465,762.749 858.128,759.692 z" id="boundary" inkscape:connector-curvature="0" />
	<path style="fill:none;stroke:red;stroke-width:1px;stroke-linecap:butt;stroke-linejoin:miter;stroke-opacity:1" d="M 858.128,759.692 847.734,756.024 z" id="boundary" inkscape:connector-curvature="0" />
	<path style="fill:none;stroke:red;stroke-width:1px;stroke-linecap:butt;stroke-linejoin:miter;stroke-opacity:1" d="M 847.734,756.024 827.558,748.076 z" id="boundary" inkscape:connector-curvature="0" />
	<path style="fill:none;stroke:red;stroke-width:1px;stroke-linecap:butt;stroke-linejoin:miter;stroke-opacity:1" d="M 827.558,748.076 815.941,745.019 z" id="boundary" inkscape:connector-curvature="0" />
	<path style="fill:none;stroke:red;stroke-width:1px;stroke-linecap:butt;stroke-linejoin:miter;stroke-opacity:1" d="M 815.941,745.019 803.713,740.127 z" id="boundary" inkscape:connector-curvature="0" />
	<path style="fill:none;stroke:red;stroke-width:1px;stroke-linecap:butt;stroke-linejoin:miter;stroke-opacity:1" d="M 803.713,740.127 734.625,715.06 z" id="boundary" inkscape:connector-curvature="0" />
	<path style="fill:none;stroke:red;stroke-width:1px;stroke-linecap:butt;stroke-linejoin:miter;stroke-opacity:1" d="M 734.625,715.06 727.899,713.226 z" id="boundary" inkscape:connector-curvature="0" />
	<path style="fill:none;stroke:red;stroke-width:1px;stroke-linecap:butt;stroke-linejoin:miter;stroke-opacity:1" d="M 727.899,713.226 719.34,710.78 z" id="boundary" inkscape:connector-curvature="0" />
	<path style="fill:none;stroke:red;stroke-width:1px;stroke-linecap:butt;stroke-linejoin:miter;stroke-opacity:1" d="M 719.34,710.78 712.614,707.723 z" id="boundary" inkscape:connector-curvature="0" />
	<path style="fill:none;stroke:red;stroke-width:1px;stroke-linecap:butt;stroke-linejoin:miter;stroke-opacity:1" d="M 712.614,707.723 700.998,704.055 z" id="boundary" inkscape:connector-curvature="0" />
	<path style="fill:none;stroke:red;stroke-width:1px;stroke-linecap:butt;stroke-linejoin:miter;stroke-opacity:1" d="M 700.998,704.055 694.272,700.998 z" id="boundary" inkscape:connector-curvature="0" />
	<path style="fill:none;stroke:red;stroke-width:1px;stroke-linecap:butt;stroke-linejoin:miter;stroke-opacity:1" d="M 694.272,700.998 660.034,698.552 z" id="boundary" inkscape:connector-curvature="0" />
	<path style="fill:none;stroke:red;stroke-width:1px;stroke-linecap:butt;stroke-linejoin:miter;stroke-opacity:1" d="M 660.034,698.552 660.034,709.557 z" id="boundary" inkscape:connector-curvature="0" />
	<path style="fill:none;stroke:red;stroke-width:1px;stroke-linecap:butt;stroke-linejoin:miter;stroke-opacity:1" d="M 660.034,709.557 660.645,714.449 z" id="boundary" inkscape:connector-curvature="0" />
	<path style="fill:none;stroke:red;stroke-width:1px;stroke-linecap:butt;stroke-linejoin:miter;stroke-opacity:1" d="M 660.645,714.449 660.645,728.511 z" id="boundary" inkscape:connector-curvature="0" />
	<path style="fill:none;stroke:red;stroke-width:1px;stroke-linecap:butt;stroke-linejoin:miter;stroke-opacity:1" d="M 660.645,728.511 660.645,743.184 z" id="boundary" inkscape:connector-curvature="0" />
	<path style="fill:none;stroke:red;stroke-width:1px;stroke-linecap:butt;stroke-linejoin:miter;stroke-opacity:1" d="M 660.645,743.184 660.645,749.91 z" id="boundary" inkscape:connector-curvature="0" />
	<path style="fill:none;stroke:red;stroke-width:1px;stroke-linecap:butt;stroke-linejoin:miter;stroke-opacity:1" d="M 660.645,749.91 662.479,800.045 z" id="boundary" inkscape:connector-curvature="0" />
	<path style="fill:none;stroke:red;stroke-width:1px;stroke-linecap:butt;stroke-linejoin:miter;stroke-opacity:1" d="M 662.479,800.045 662.479,813.496 z" id="boundary" inkscape:connector-curvature="0" />
	<path style="fill:none;stroke:red;stroke-width:1px;stroke-linecap:butt;stroke-linejoin:miter;stroke-opacity:1" d="M 662.479,813.496 663.091,836.729 z" id="boundary" inkscape:connector-curvature="0" />
	<path style="fill:none;stroke:red;stroke-width:1px;stroke-linecap:butt;stroke-linejoin:miter;stroke-opacity:1" d="M 663.091,836.729 664.314,864.853 z" id="boundary" inkscape:connector-curvature="0" />
	<path style="fill:none;stroke:red;stroke-width:1px;stroke-linecap:butt;stroke-linejoin:miter;stroke-opacity:1" d="M 664.314,864.853 665.536,900.926 z" id="boundary" inkscape:connector-curvature="0" />
	<path style="fill:none;stroke:red;stroke-width:1px;stroke-linecap:butt;stroke-linejoin:miter;stroke-opacity:1" d="M 665.536,900.926 665.536,913.765 z" id="boundary" inkscape:connector-curvature="0" />
	<path style="fill:none;stroke:red;stroke-width:1px;stroke-linecap:butt;stroke-linejoin:miter;stroke-opacity:1" d="M 665.536,913.765 666.148,927.828 z" id="boundary" inkscape:connector-curvature="0" />
	<path style="fill:none;stroke:red;stroke-width:1px;stroke-linecap:butt;stroke-linejoin:miter;stroke-opacity:1" d="M 666.148,927.828 665.536,936.387 z" id="boundary" inkscape:connector-curvature="0" />
	<path style="fill:none;stroke:red;stroke-width:1px;stroke-linecap:butt;stroke-linejoin:miter;stroke-opacity:1" d="M 665.536,936.387 666.148,941.279 z" id="boundary" inkscape:connector-curvature="0" />
	<path style="fill:none;stroke:red;stroke-width:1px;stroke-linecap:butt;stroke-linejoin:miter;stroke-opacity:1" d="M 666.148,941.279 666.759,948.615 z" id="boundary" inkscape:connector-curvature="0" />
	<path style="fill:none;stroke:red;stroke-width:1px;stroke-linecap:butt;stroke-linejoin:miter;stroke-opacity:1" d="M 666.759,948.615 666.759,954.118 z" id="boundary" inkscape:connector-curvature="0" />
	<path style="fill:none;stroke:red;stroke-width:1px;stroke-linecap:butt;stroke-linejoin:miter;stroke-opacity:1" d="M 666.759,954.118 642.303,932.108 z" id="boundary" inkscape:connector-curvature="0" />
	<path style="fill:none;stroke:red;stroke-width:1px;stroke-linecap:butt;stroke-linejoin:miter;stroke-opacity:1" d="M 642.303,932.108 620.293,897.869 z" id="boundary" inkscape:connector-curvature="0" />
	<path style="fill:none;stroke:red;stroke-width:1px;stroke-linecap:butt;stroke-linejoin:miter;stroke-opacity:1" d="M 620.293,897.869 609.287,881.973 z" id="boundary" inkscape:connector-curvature="0" />
	<path style="fill:none;stroke:red;stroke-width:1px;stroke-linecap:butt;stroke-linejoin:miter;stroke-opacity:1" d="M 609.287,881.973 601.951,871.579 z" id="boundary" inkscape:connector-curvature="0" />
	<path style="fill:none;stroke:red;stroke-width:1px;stroke-linecap:butt;stroke-linejoin:miter;stroke-opacity:1" d="M 601.951,871.579 595.225,860.574 z" id="boundary" inkscape:connector-curvature="0" />
	<path style="fill:none;stroke:red;stroke-width:1px;stroke-linecap:butt;stroke-linejoin:miter;stroke-opacity:1" d="M 595.225,860.574 590.334,854.46 z" id="boundary" inkscape:connector-curvature="0" />
	<path style="fill:none;stroke:red;stroke-width:1px;stroke-linecap:butt;stroke-linejoin:miter;stroke-opacity:1" d="M 590.334,854.46 575.66,833.06 z" id="boundary" inkscape:connector-curvature="0" />
	<path style="fill:none;stroke:red;stroke-width:1px;stroke-linecap:butt;stroke-linejoin:miter;stroke-opacity:1" d="M 575.66,833.06 550.593,796.988 z" id="boundary" inkscape:connector-curvature="0" />
	<path style="fill:none;stroke:red;stroke-width:1px;stroke-linecap:butt;stroke-linejoin:miter;stroke-opacity:1" d="M 550.593,796.988 523.08,756.635 z" id="boundary" inkscape:connector-curvature="0" />
	<path style="fill:none;stroke:red;stroke-width:1px;stroke-linecap:butt;stroke-linejoin:miter;stroke-opacity:1" d="M 523.08,756.635 501.681,749.91 z" id="boundary" inkscape:connector-curvature="0" />
	<path style="fill:none;stroke:red;stroke-width:1px;stroke-linecap:butt;stroke-linejoin:miter;stroke-opacity:1" d="M 501.681,749.91 497.401,755.412 z" id="boundary" inkscape:connector-curvature="0" />
	<path style="fill:none;stroke:red;stroke-width:1px;stroke-linecap:butt;stroke-linejoin:miter;stroke-opacity:1" d="M 497.401,755.412 485.173,773.755 z" id="boundary" inkscape:connector-curvature="0" />
	<path style="fill:none;stroke:red;stroke-width:1px;stroke-linecap:butt;stroke-linejoin:miter;stroke-opacity:1" d="M 485.173,773.755 462.551,806.77 z" id="boundary" inkscape:connector-curvature="0" />
	<path style="fill:none;stroke:red;stroke-width:1px;stroke-linecap:butt;stroke-linejoin:miter;stroke-opacity:1" d="M 462.551,806.77 457.66,814.107 z" id="boundary" inkscape:connector-curvature="0" />
	<path style="fill:none;stroke:red;stroke-width:1px;stroke-linecap:butt;stroke-linejoin:miter;stroke-opacity:1" d="M 457.66,814.107 449.1,826.946 z" id="boundary" inkscape:connector-curvature="0" />
	<path style="fill:none;stroke:red;stroke-width:1px;stroke-linecap:butt;stroke-linejoin:miter;stroke-opacity:1" d="M 449.1,826.946 430.758,853.848 z" id="boundary" inkscape:connector-curvature="0" />
	<path style="fill:none;stroke:red;stroke-width:1px;stroke-linecap:butt;stroke-linejoin:miter;stroke-opacity:1" d="M 430.758,853.848 423.421,864.242 z" id="boundary" inkscape:connector-curvature="0" />
	<path style="fill:none;stroke:red;stroke-width:1px;stroke-linecap:butt;stroke-linejoin:miter;stroke-opacity:1" d="M 423.421,864.242 417.919,871.579 z" id="boundary" inkscape:connector-curvature="0" />
	<path style="fill:none;stroke:red;stroke-width:1px;stroke-linecap:butt;stroke-linejoin:miter;stroke-opacity:1" d="M 417.919,871.579 397.131,902.76 z" id="boundary" inkscape:connector-curvature="0" />
	<path style="fill:none;stroke:red;stroke-width:1px;stroke-linecap:butt;stroke-linejoin:miter;stroke-opacity:1" d="M 397.131,902.76 391.017,911.931 z" id="boundary" inkscape:connector-curvature="0" />
	<path style="fill:none;stroke:red;stroke-width:1px;stroke-linecap:butt;stroke-linejoin:miter;stroke-opacity:1" d="M 391.017,911.931 370.841,942.501 z" id="boundary" inkscape:connector-curvature="0" />
	<path style="fill:none;stroke:red;stroke-width:1px;stroke-linecap:butt;stroke-linejoin:miter;stroke-opacity:1" d="M 370.841,942.501 358.613,959.621 z" id="boundary" inkscape:connector-curvature="0" />
	<path style="fill:none;stroke:red;stroke-width:1px;stroke-linecap:butt;stroke-linejoin:miter;stroke-opacity:1" d="M 358.613,959.621 352.499,966.957 z" id="boundary" inkscape:connector-curvature="0" />
	<path style="fill:none;stroke:red;stroke-width:1px;stroke-linecap:butt;stroke-linejoin:miter;stroke-opacity:1" d="M 352.499,966.957 353.11,936.387 z" id="boundary" inkscape:connector-curvature="0" />
	<path style="fill:none;stroke:red;stroke-width:1px;stroke-linecap:butt;stroke-linejoin:miter;stroke-opacity:1" d="M 353.11,936.387 353.722,923.548 z" id="boundary" inkscape:connector-curvature="0" />
	<path style="fill:none;stroke:red;stroke-width:1px;stroke-linecap:butt;stroke-linejoin:miter;stroke-opacity:1" d="M 353.722,923.548 354.944,896.646 z" id="boundary" inkscape:connector-curvature="0" />
	<path style="fill:none;stroke:red;stroke-width:1px;stroke-linecap:butt;stroke-linejoin:miter;stroke-opacity:1" d="M 354.944,896.646 356.167,856.294 z" id="boundary" inkscape:connector-curvature="0" />
	<path style="fill:none;stroke:red;stroke-width:1px;stroke-linecap:butt;stroke-linejoin:miter;stroke-opacity:1" d="M 356.167,856.294 356.167,852.014 z" id="boundary" inkscape:connector-curvature="0" />
	<path style="fill:none;stroke:red;stroke-width:1px;stroke-linecap:butt;stroke-linejoin:miter;stroke-opacity:1" d="M 356.167,852.014 356.167,836.729 z" id="boundary" inkscape:connector-curvature="0" />
	<path style="fill:none;stroke:red;stroke-width:1px;stroke-linecap:butt;stroke-linejoin:miter;stroke-opacity:1" d="M 356.167,836.729 357.39,794.542 z" id="boundary" inkscape:connector-curvature="0" />
	<path style="fill:none;stroke:red;stroke-width:1px;stroke-linecap:butt;stroke-linejoin:miter;stroke-opacity:1" d="M 357.39,794.542 358.001,781.703 z" id="boundary" inkscape:connector-curvature="0" />
	<path style="fill:none;stroke:red;stroke-width:1px;stroke-linecap:butt;stroke-linejoin:miter;stroke-opacity:1" d="M 358.001,781.703 358.613,767.641 z" id="boundary" inkscape:connector-curvature="0" />
	<path style="fill:none;stroke:red;stroke-width:1px;stroke-linecap:butt;stroke-linejoin:miter;stroke-opacity:1" d="M 358.613,767.641 358.613,739.516 z" id="boundary" inkscape:connector-curvature="0" />
	<path style="fill:none;stroke:red;stroke-width:1px;stroke-linecap:butt;stroke-linejoin:miter;stroke-opacity:1" d="M 358.613,739.516 290.136,713.837 z" id="boundary" inkscape:connector-curvature="0" />
	<path style="fill:none;stroke:red;stroke-width:1px;stroke-linecap:butt;stroke-linejoin:miter;stroke-opacity:1" d="M 290.136,713.837 235.11,734.013 z" id="boundary" inkscape:connector-curvature="0" />
	<path style="fill:none;stroke:red;stroke-width:1px;stroke-linecap:butt;stroke-linejoin:miter;stroke-opacity:1" d="M 235.11,734.013 203.928,744.407 z" id="boundary" inkscape:connector-curvature="0" />
	<path style="fill:none;stroke:red;stroke-width:1px;stroke-linecap:butt;stroke-linejoin:miter;stroke-opacity:1" d="M 203.928,744.407 187.42,750.521 z" id="boundary" inkscape:connector-curvature="0" />
	<path style="fill:none;stroke:red;stroke-width:1px;stroke-linecap:butt;stroke-linejoin:miter;stroke-opacity:1" d="M 187.42,750.521 172.135,755.412 z" id="boundary" inkscape:connector-curvature="0" />
	<path style="fill:none;stroke:red;stroke-width:1px;stroke-linecap:butt;stroke-linejoin:miter;stroke-opacity:1" d="M 172.135,755.412 148.902,763.972 z" id="boundary" inkscape:connector-curvature="0" />
	<path style="fill:none;stroke:red;stroke-width:1px;stroke-linecap:butt;stroke-linejoin:miter;stroke-opacity:1" d="M 148.902,763.972 142.788,765.806 z" id="boundary" inkscape:connector-curvature="0" />
	<path style="fill:none;stroke:red;stroke-width:1px;stroke-linecap:butt;stroke-linejoin:miter;stroke-opacity:1" d="M 142.788,765.806 125.057,772.532 z" id="boundary" inkscape:connector-curvature="0" />
	<path style="fill:none;stroke:red;stroke-width:1px;stroke-linecap:butt;stroke-linejoin:miter;stroke-opacity:1" d="M 125.057,772.532 99.99,781.091 z" id="boundary" inkscape:connector-curvature="0" />
	<path style="fill:none;stroke:red;stroke-width:1px;stroke-linecap:butt;stroke-linejoin:miter;stroke-opacity:1" d="M 99.99,781.091 103.658,774.977 z" id="boundary" inkscape:connector-curvature="0" />
	<path style="fill:none;stroke:red;stroke-width:1px;stroke-linecap:butt;stroke-linejoin:miter;stroke-opacity:1" d="M 103.658,774.977 112.218,764.583 z" id="boundary" inkscape:connector-curvature="0" />
	<path style="fill:none;stroke:red;stroke-width:1px;stroke-linecap:butt;stroke-linejoin:miter;stroke-opacity:1" d="M 112.218,764.583 128.115,743.184 z" id="boundary" inkscape:connector-curvature="0" />
	<path style="fill:none;stroke:red;stroke-width:1px;stroke-linecap:butt;stroke-linejoin:miter;stroke-opacity:1" d="M 128.115,743.184 178.249,752.355 z" id="boundary" inkscape:connector-curvature="0" />
	<path style="fill:none;stroke:red;stroke-width:1px;stroke-linecap:butt;stroke-linejoin:miter;stroke-opacity:1" d="M 178.249,752.355 182.529,672.873 z" id="boundary" inkscape:connector-curvature="0" />
	<path style="fill:none;stroke:red;stroke-width:1px;stroke-linecap:butt;stroke-linejoin:miter;stroke-opacity:1" d="M 182.529,672.873 194.146,658.2 z" id="boundary" inkscape:connector-curvature="0" />
	<path style="fill:none;stroke:red;stroke-width:1px;stroke-linecap:butt;stroke-linejoin:miter;stroke-opacity:1" d="M 194.146,658.2 195.98,655.143 z" id="boundary" inkscape:connector-curvature="0" />
	<path style="fill:none;stroke:red;stroke-width:1px;stroke-linecap:butt;stroke-linejoin:miter;stroke-opacity:1" d="M 195.98,655.143 216.768,627.63 z" id="boundary" inkscape:connector-curvature="0" />
	<path style="fill:none;stroke:red;stroke-width:1px;stroke-linecap:butt;stroke-linejoin:miter;stroke-opacity:1" d="M 216.768,627.63 219.213,624.573 z" id="boundary" inkscape:connector-curvature="0" />
	<path style="fill:none;stroke:red;stroke-width:1px;stroke-linecap:butt;stroke-linejoin:miter;stroke-opacity:1" d="M 219.213,624.573 231.441,609.287 z" id="boundary" inkscape:connector-curvature="0" />
	<path style="fill:none;stroke:red;stroke-width:1px;stroke-linecap:butt;stroke-linejoin:miter;stroke-opacity:1" d="M 231.441,609.287 236.944,601.951 z" id="boundary" inkscape:connector-curvature="0" />
	<path style="fill:none;stroke:red;stroke-width:1px;stroke-linecap:butt;stroke-linejoin:miter;stroke-opacity:1" d="M 236.944,601.951 249.783,584.22 z" id="boundary" inkscape:connector-curvature="0" />
	<path style="fill:none;stroke:red;stroke-width:1px;stroke-linecap:butt;stroke-linejoin:miter;stroke-opacity:1" d="M 249.783,584.22 257.12,576.883 z" id="boundary" inkscape:connector-curvature="0" />
	<path style="fill:none;stroke:red;stroke-width:1px;stroke-linecap:butt;stroke-linejoin:miter;stroke-opacity:1" d="M 257.12,576.883 260.177,571.992 z" id="boundary" inkscape:connector-curvature="0" />
	<path style="fill:none;stroke:red;stroke-width:1px;stroke-linecap:butt;stroke-linejoin:miter;stroke-opacity:1" d="M 260.177,571.992 265.68,564.655 z" id="boundary" inkscape:connector-curvature="0" />
	<path style="fill:none;stroke:red;stroke-width:1px;stroke-linecap:butt;stroke-linejoin:miter;stroke-opacity:1" d="M 265.68,564.655 249.172,554.873 z" id="boundary" inkscape:connector-curvature="0" />
	<path style="fill:none;stroke:red;stroke-width:1px;stroke-linecap:butt;stroke-linejoin:miter;stroke-opacity:1" d="M 249.172,554.873 240.001,553.039 z" id="boundary" inkscape:connector-curvature="0" />
	<path style="fill:none;stroke:red;stroke-width:1px;stroke-linecap:butt;stroke-linejoin:miter;stroke-opacity:1" d="M 240.001,553.039 232.664,550.593 z" id="boundary" inkscape:connector-curvature="0" />
	<path style="fill:none;stroke:red;stroke-width:1px;stroke-linecap:butt;stroke-linejoin:miter;stroke-opacity:1" d="M 232.664,550.593 224.716,548.147 z" id="boundary" inkscape:connector-curvature="0" />
	<path style="fill:none;stroke:red;stroke-width:1px;stroke-linecap:butt;stroke-linejoin:miter;stroke-opacity:1" d="M 224.716,548.147 216.768,546.925 z" id="boundary" inkscape:connector-curvature="0" />
	<path style="fill:none;stroke:red;stroke-width:1px;stroke-linecap:butt;stroke-linejoin:miter;stroke-opacity:1" d="M 216.768,546.925 206.985,543.868 z" id="boundary" inkscape:connector-curvature="0" />
	<path style="fill:none;stroke:red;stroke-width:1px;stroke-linecap:butt;stroke-linejoin:miter;stroke-opacity:1" d="M 206.985,543.868 193.534,539.588 z" id="boundary" inkscape:connector-curvature="0" />
	<path style="fill:none;stroke:red;stroke-width:1px;stroke-linecap:butt;stroke-linejoin:miter;stroke-opacity:1" d="M 193.534,539.588 132.394,521.246 z" id="boundary" inkscape:connector-curvature="0" />
	<path style="fill:none;stroke:red;stroke-width:1px;stroke-linecap:butt;stroke-linejoin:miter;stroke-opacity:1" d="M 132.394,521.246 66.9744,502.292 z" id="boundary" inkscape:connector-curvature="0" />
	<path style="fill:none;stroke:red;stroke-width:1px;stroke-linecap:butt;stroke-linejoin:miter;stroke-opacity:1" d="M 66.9744,502.292 55.3577,498.624 z" id="boundary" inkscape:connector-curvature="0" />
	<path style="fill:none;stroke:red;stroke-width:1px;stroke-linecap:butt;stroke-linejoin:miter;stroke-opacity:1" d="M 55.3577,498.624 36.4043,493.733 z" id="boundary" inkscape:connector-curvature="0" />
	<path style="fill:none;stroke:red;stroke-width:1px;stroke-linecap:butt;stroke-linejoin:miter;stroke-opacity:1" d="M 36.4043,493.733 4,482.116 z" id="boundary" inkscape:connector-curvature="0" />
	<path style="fill:none;stroke:red;stroke-width:1px;stroke-linecap:butt;stroke-linejoin:miter;stroke-opacity:1" d="M 4,482.116 49.8551,468.665 z" id="boundary" inkscape:connector-curvature="0" />
	<path style="fill:none;stroke:red;stroke-width:1px;stroke-linecap:butt;stroke-linejoin:miter;stroke-opacity:1" d="M 49.8551,468.665 55.9691,466.22 z" id="boundary" inkscape:connector-curvature="0" />
	<path style="fill:none;stroke:red;stroke-width:1px;stroke-linecap:butt;stroke-linejoin:miter;stroke-opacity:1" d="M 55.9691,466.22 84.0936,458.883 z" id="boundary" inkscape:connector-curvature="0" />
	<path style="fill:none;stroke:red;stroke-width:1px;stroke-linecap:butt;stroke-linejoin:miter;stroke-opacity:1" d="M 84.0936,458.883 93.2646,455.214 z" id="boundary" inkscape:connector-curvature="0" />
	<path style="fill:none;stroke:red;stroke-width:1px;stroke-linecap:butt;stroke-linejoin:miter;stroke-opacity:1" d="M 93.2646,455.214 136.674,443.598 z" id="boundary" inkscape:connector-curvature="0" />
	<path style="fill:none;stroke:red;stroke-width:1px;stroke-linecap:butt;stroke-linejoin:miter;stroke-opacity:1" d="M 136.674,443.598 144.011,440.541 z" id="boundary" inkscape:connector-curvature="0" />
	<path style="fill:none;stroke:red;stroke-width:1px;stroke-linecap:butt;stroke-linejoin:miter;stroke-opacity:1" d="M 144.011,440.541 152.571,437.484 z" id="boundary" inkscape:connector-curvature="0" />
	<path style="fill:none;stroke:red;stroke-width:1px;stroke-linecap:butt;stroke-linejoin:miter;stroke-opacity:1" d="M 152.571,437.484 199.648,424.644 z" id="boundary" inkscape:connector-curvature="0" />
	<path style="fill:none;stroke:red;stroke-width:1px;stroke-linecap:butt;stroke-linejoin:miter;stroke-opacity:1" d="M 199.648,424.644 208.82,422.199 z" id="boundary" inkscape:connector-curvature="0" />
	<path style="fill:none;stroke:red;stroke-width:1px;stroke-linecap:butt;stroke-linejoin:miter;stroke-opacity:1" d="M 208.82,422.199 214.322,419.753 z" id="boundary" inkscape:connector-curvature="0" />
	<path style="fill:none;stroke:red;stroke-width:1px;stroke-linecap:butt;stroke-linejoin:miter;stroke-opacity:1" d="M 214.322,419.753 221.659,417.307 z" id="boundary" inkscape:connector-curvature="0" />
	<path style="fill:none;stroke:red;stroke-width:1px;stroke-linecap:butt;stroke-linejoin:miter;stroke-opacity:1" d="M 221.659,417.307 233.887,414.25 z" id="boundary" inkscape:connector-curvature="0" />
	<path style="fill:none;stroke:red;stroke-width:1px;stroke-linecap:butt;stroke-linejoin:miter;stroke-opacity:1" d="M 233.887,414.25 263.846,400.8 z" id="boundary" inkscape:connector-curvature="0" />
	<path style="fill:none;stroke:red;stroke-width:1px;stroke-linecap:butt;stroke-linejoin:miter;stroke-opacity:1" d="M 263.846,400.8 262.011,396.52 z" id="boundary" inkscape:connector-curvature="0" />
	<path style="fill:none;stroke:red;stroke-width:1px;stroke-linecap:butt;stroke-linejoin:miter;stroke-opacity:1" d="M 262.011,396.52 239.39,367.172 z" id="boundary" inkscape:connector-curvature="0" />
	<path style="fill:none;stroke:red;stroke-width:1px;stroke-linecap:butt;stroke-linejoin:miter;stroke-opacity:1" d="M 239.39,367.172 230.83,356.167 z" id="boundary" inkscape:connector-curvature="0" />
	<path style="fill:none;stroke:red;stroke-width:1px;stroke-linecap:butt;stroke-linejoin:miter;stroke-opacity:1" d="M 230.83,356.167 226.55,350.053 z" id="boundary" inkscape:connector-curvature="0" />
	<path style="fill:none;stroke:red;stroke-width:1px;stroke-linecap:butt;stroke-linejoin:miter;stroke-opacity:1" d="M 226.55,350.053 221.659,343.939 z" id="boundary" inkscape:connector-curvature="0" />
	<path style="fill:none;stroke:red;stroke-width:1px;stroke-linecap:butt;stroke-linejoin:miter;stroke-opacity:1" d="M 221.659,343.939 217.991,339.659 z" id="boundary" inkscape:connector-curvature="0" />
	<path style="fill:none;stroke:red;stroke-width:1px;stroke-linecap:butt;stroke-linejoin:miter;stroke-opacity:1" d="M 217.991,339.659 211.877,331.1 z" id="boundary" inkscape:connector-curvature="0" />
	<path style="fill:none;stroke:red;stroke-width:1px;stroke-linecap:butt;stroke-linejoin:miter;stroke-opacity:1" d="M 211.877,331.1 175.192,282.799 z" id="boundary" inkscape:connector-curvature="0" />
	<path style="fill:none;stroke:red;stroke-width:1px;stroke-linecap:butt;stroke-linejoin:miter;stroke-opacity:1" d="M 175.192,282.799 168.467,275.462 z" id="boundary" inkscape:connector-curvature="0" />
	<path style="fill:none;stroke:red;stroke-width:1px;stroke-linecap:butt;stroke-linejoin:miter;stroke-opacity:1" d="M 168.467,275.462 158.685,262.011 z" id="boundary" inkscape:connector-curvature="0" />
	<path style="fill:none;stroke:red;stroke-width:1px;stroke-linecap:butt;stroke-linejoin:miter;stroke-opacity:1" d="M 158.685,262.011 155.628,257.732 z" id="boundary" inkscape:connector-curvature="0" />
	<path style="fill:none;stroke:red;stroke-width:1px;stroke-linecap:butt;stroke-linejoin:miter;stroke-opacity:1" d="M 155.628,257.732 145.234,244.892 z" id="boundary" inkscape:connector-curvature="0" />
	<path style="fill:none;stroke:red;stroke-width:1px;stroke-linecap:butt;stroke-linejoin:miter;stroke-opacity:1" d="M 145.234,244.892 130.56,227.162 z" id="boundary" inkscape:connector-curvature="0" />
	<path style="fill:none;stroke:red;stroke-width:1px;stroke-linecap:butt;stroke-linejoin:miter;stroke-opacity:1" d="M 130.56,227.162 123.223,216.768 z" id="boundary" inkscape:connector-curvature="0" />
	<path style="fill:none;stroke:red;stroke-width:1px;stroke-linecap:butt;stroke-linejoin:miter;stroke-opacity:1" d="M 123.223,216.768 118.332,210.654 z" id="boundary" inkscape:connector-curvature="0" />
	<path style="fill:none;stroke:red;stroke-width:1px;stroke-linecap:butt;stroke-linejoin:miter;stroke-opacity:1" d="M 118.332,210.654 103.047,185.586 z" id="boundary" inkscape:connector-curvature="0" />
	<path style="fill:none;stroke:red;stroke-width:1px;stroke-linecap:butt;stroke-linejoin:miter;stroke-opacity:1" d="M 103.047,185.586 134.84,197.203 z" id="boundary" inkscape:connector-curvature="0" />
	<path style="fill:none;stroke:red;stroke-width:1px;stroke-linecap:butt;stroke-linejoin:miter;stroke-opacity:1" d="M 134.84,197.203 151.348,203.928 z" id="boundary" inkscape:connector-curvature="0" />
	<path style="fill:none;stroke:red;stroke-width:1px;stroke-linecap:butt;stroke-linejoin:miter;stroke-opacity:1" d="M 151.348,203.928 157.462,205.151 z" id="boundary" inkscape:connector-curvature="0" />
	<path style="fill:none;stroke:red;stroke-width:1px;stroke-linecap:butt;stroke-linejoin:miter;stroke-opacity:1" d="M 157.462,205.151 162.964,206.985 z" id="boundary" inkscape:connector-curvature="0" />
	<path style="fill:none;stroke:red;stroke-width:1px;stroke-linecap:butt;stroke-linejoin:miter;stroke-opacity:1" d="M 162.964,206.985 270.571,245.504 z" id="boundary" inkscape:connector-curvature="0" />
	<path style="fill:none;stroke:red;stroke-width:1px;stroke-linecap:butt;stroke-linejoin:miter;stroke-opacity:1" d="M 270.571,245.504 273.628,246.115 z" id="boundary" inkscape:connector-curvature="0" />
	<path style="fill:none;stroke:red;stroke-width:1px;stroke-linecap:butt;stroke-linejoin:miter;stroke-opacity:1" d="M 273.628,246.115 305.421,257.732 z" id="boundary" inkscape:connector-curvature="0" />
	<path style="fill:none;stroke:red;stroke-width:1px;stroke-linecap:butt;stroke-linejoin:miter;stroke-opacity:1" d="M 305.421,257.732 310.924,258.954 z" id="boundary" inkscape:connector-curvature="0" />
	<path style="fill:none;stroke:red;stroke-width:1px;stroke-linecap:butt;stroke-linejoin:miter;stroke-opacity:1" d="M 310.924,258.954 335.38,268.125 z" id="boundary" inkscape:connector-curvature="0" />
	<path style="fill:none;stroke:red;stroke-width:1px;stroke-linecap:butt;stroke-linejoin:miter;stroke-opacity:1" d="M 335.38,268.125 360.447,270.571 z" id="boundary" inkscape:connector-curvature="0" />
	<path style="fill:none;stroke:red;stroke-width:1px;stroke-linecap:butt;stroke-linejoin:miter;stroke-opacity:1" d="M 360.447,270.571 359.836,244.892 z" id="boundary" inkscape:connector-curvature="0" />
	<path style="fill:none;stroke:red;stroke-width:1px;stroke-linecap:butt;stroke-linejoin:miter;stroke-opacity:1" d="M 359.836,244.892 358.001,159.296 z" id="boundary" inkscape:connector-curvature="0" />
	<path style="fill:none;stroke:red;stroke-width:1px;stroke-linecap:butt;stroke-linejoin:miter;stroke-opacity:1" d="M 358.001,159.296 358.001,144.622 z" id="boundary" inkscape:connector-curvature="0" />
	<path style="fill:none;stroke:red;stroke-width:1px;stroke-linecap:butt;stroke-linejoin:miter;stroke-opacity:1" d="M 358.001,144.622 356.779,134.229 z" id="boundary" inkscape:connector-curvature="0" />
	<path style="fill:none;stroke:red;stroke-width:1px;stroke-linecap:butt;stroke-linejoin:miter;stroke-opacity:1" d="M 356.779,134.229 356.779,125.669 z" id="boundary" inkscape:connector-curvature="0" />
	<path style="fill:none;stroke:red;stroke-width:1px;stroke-linecap:butt;stroke-linejoin:miter;stroke-opacity:1" d="M 356.779,125.669 355.556,96.933 z" id="boundary" inkscape:connector-curvature="0" />
	<path style="fill:none;stroke:red;stroke-width:1px;stroke-linecap:butt;stroke-linejoin:miter;stroke-opacity:1" d="M 355.556,96.933 354.333,65.1401 z" id="boundary" inkscape:connector-curvature="0" />
	<path style="fill:none;stroke:red;stroke-width:1px;stroke-linecap:butt;stroke-linejoin:miter;stroke-opacity:1" d="M 354.333,65.1401 353.722,41.9069 z" id="boundary" inkscape:connector-curvature="0" />
	<path style="fill:none;stroke:red;stroke-width:1px;stroke-linecap:butt;stroke-linejoin:miter;stroke-opacity:1" d="M 353.722,41.9069 353.722,34.5701 z" id="boundary" inkscape:connector-curvature="0" />
	<path style="fill:none;stroke:red;stroke-width:1px;stroke-linecap:butt;stroke-linejoin:miter;stroke-opacity:1" d="M 353.722,34.5701 383.069,43.7411 z" id="boundary" inkscape:connector-curvature="0" />
	<path style="fill:none;stroke:red;stroke-width:1px;stroke-linecap:butt;stroke-linejoin:miter;stroke-opacity:1" d="M 383.069,43.7411 389.183,52.9121 z" id="boundary" inkscape:connector-curvature="0" />
	<path style="fill:none;stroke:red;stroke-width:1px;stroke-linecap:butt;stroke-linejoin:miter;stroke-opacity:1" d="M 389.183,52.9121 394.686,61.4717 z" id="boundary" inkscape:connector-curvature="0" />
	<path style="fill:none;stroke:red;stroke-width:1px;stroke-linecap:butt;stroke-linejoin:miter;stroke-opacity:1" d="M 394.686,61.4717 399.577,67.5857 z" id="boundary" inkscape:connector-curvature="0" />
	<path style="fill:none;stroke:red;stroke-width:1px;stroke-linecap:butt;stroke-linejoin:miter;stroke-opacity:1" d="M 399.577,67.5857 416.696,92.0418 z" id="boundary" inkscape:connector-curvature="0" />
	<path style="fill:none;stroke:red;stroke-width:1px;stroke-linecap:butt;stroke-linejoin:miter;stroke-opacity:1" d="M 416.696,92.0418 439.929,126.892 z" id="boundary" inkscape:connector-curvature="0" />
	<path style="fill:none;stroke:red;stroke-width:1px;stroke-linecap:butt;stroke-linejoin:miter;stroke-opacity:1" d="M 439.929,126.892 461.94,158.685 z" id="boundary" inkscape:connector-curvature="0" />
	<path style="fill:none;stroke:red;stroke-width:1px;stroke-linecap:butt;stroke-linejoin:miter;stroke-opacity:1" d="M 461.94,158.685 476.002,179.472 z" id="boundary" inkscape:connector-curvature="0" />
	<path style="fill:none;stroke:red;stroke-width:1px;stroke-linecap:butt;stroke-linejoin:miter;stroke-opacity:1" d="M 476.002,179.472 480.893,185.586 z" id="boundary" inkscape:connector-curvature="0" />
	<path style="fill:none;stroke:red;stroke-width:1px;stroke-linecap:butt;stroke-linejoin:miter;stroke-opacity:1" d="M 480.893,185.586 507.795,226.55 z" id="boundary" inkscape:connector-curvature="0" />
	<path style="fill:none;stroke:red;stroke-width:1px;stroke-linecap:butt;stroke-linejoin:miter;stroke-opacity:1" d="M 507.795,226.55 517.577,219.213 z" id="boundary" inkscape:connector-curvature="0" />
	<path style="fill:none;stroke:red;stroke-width:1px;stroke-linecap:butt;stroke-linejoin:miter;stroke-opacity:1" d="M 517.577,219.213 534.085,195.369 z" id="boundary" inkscape:connector-curvature="0" />
	<path style="fill:none;stroke:red;stroke-width:1px;stroke-linecap:butt;stroke-linejoin:miter;stroke-opacity:1" d="M 534.085,195.369 548.147,173.97 z" id="boundary" inkscape:connector-curvature="0" />
	<path style="fill:none;stroke:red;stroke-width:1px;stroke-linecap:butt;stroke-linejoin:miter;stroke-opacity:1" d="M 548.147,173.97 552.427,167.856 z" id="boundary" inkscape:connector-curvature="0" />
	<path style="fill:none;stroke:red;stroke-width:1px;stroke-linecap:butt;stroke-linejoin:miter;stroke-opacity:1" d="M 552.427,167.856 555.484,162.964 z" id="boundary" inkscape:connector-curvature="0" />
	<path style="fill:none;stroke:red;stroke-width:1px;stroke-linecap:butt;stroke-linejoin:miter;stroke-opacity:1" d="M 555.484,162.964 570.158,142.788 z" id="boundary" inkscape:connector-curvature="0" />
	<path style="fill:none;stroke:red;stroke-width:1px;stroke-linecap:butt;stroke-linejoin:miter;stroke-opacity:1" d="M 570.158,142.788 575.049,133.617 z" id="boundary" inkscape:connector-curvature="0" />
	<path style="fill:none;stroke:red;stroke-width:1px;stroke-linecap:butt;stroke-linejoin:miter;stroke-opacity:1" d="M 575.049,133.617 580.552,125.669 z" id="boundary" inkscape:connector-curvature="0" />
	<path style="fill:none;stroke:red;stroke-width:1px;stroke-linecap:butt;stroke-linejoin:miter;stroke-opacity:1" d="M 580.552,125.669 583.609,122 z" id="boundary" inkscape:connector-curvature="0" />
	<path style="fill:none;stroke:red;stroke-width:1px;stroke-linecap:butt;stroke-linejoin:miter;stroke-opacity:1" d="M 583.609,122 589.111,114.664 z" id="boundary" inkscape:connector-curvature="0" />
	<path style="fill:none;stroke:red;stroke-width:1px;stroke-linecap:butt;stroke-linejoin:miter;stroke-opacity:1" d="M 589.111,114.664 633.744,48.6323 z" id="boundary" inkscape:connector-curvature="0" />
	<path style="fill:none;stroke:red;stroke-width:1px;stroke-linecap:butt;stroke-linejoin:miter;stroke-opacity:1" d="M 633.744,48.6323 654.531,16.8394 z" id="boundary" inkscape:connector-curvature="0" />
	<path style="fill:none;stroke:red;stroke-width:1px;stroke-linecap:butt;stroke-linejoin:miter;stroke-opacity:1" d="M 654.531,16.8394 658.811,10.7254 z" id="boundary" inkscape:connector-curvature="0" />
	<path style="fill:none;stroke:red;stroke-width:1px;stroke-linecap:butt;stroke-linejoin:miter;stroke-opacity:1" d="M 658.811,10.7254 664.314,4 z" id="boundary" inkscape:connector-curvature="0" />
	<path style="fill:none;stroke:red;stroke-width:1px;stroke-linecap:butt;stroke-linejoin:miter;stroke-opacity:1" d="M 664.314,4 666.759,5.22279 z" id="boundary" inkscape:connector-curvature="0" />
	<path style="fill:none;stroke:red;stroke-width:1px;stroke-linecap:butt;stroke-linejoin:miter;stroke-opacity:1" d="M 666.759,5.22279 666.759,18.6736 z" id="boundary" inkscape:connector-curvature="0" />
	<path style="fill:none;stroke:red;stroke-width:1px;stroke-linecap:butt;stroke-linejoin:miter;stroke-opacity:1" d="M 666.759,18.6736 666.148,31.5131 z" id="boundary" inkscape:connector-curvature="0" />
	<path style="fill:none;stroke:red;stroke-width:1px;stroke-linecap:butt;stroke-linejoin:miter;stroke-opacity:1" d="M 666.148,31.5131 666.148,45.5753 z" id="boundary" inkscape:connector-curvature="0" />
	<path style="fill:none;stroke:red;stroke-width:1px;stroke-linecap:butt;stroke-linejoin:miter;stroke-opacity:1" d="M 666.148,45.5753 665.536,50.4665 z" id="boundary" inkscape:connector-curvature="0" />
	<path style="fill:none;stroke:red;stroke-width:1px;stroke-linecap:butt;stroke-linejoin:miter;stroke-opacity:1" d="M 665.536,50.4665 664.314,104.881 z" id="boundary" inkscape:connector-curvature="0" />
	<path style="fill:none;stroke:red;stroke-width:1px;stroke-linecap:butt;stroke-linejoin:miter;stroke-opacity:1" d="M 664.314,104.881 664.314,109.772 z" id="boundary" inkscape:connector-curvature="0" />
	<path style="fill:none;stroke:red;stroke-width:1px;stroke-linecap:butt;stroke-linejoin:miter;stroke-opacity:1" d="M 664.314,109.772 663.702,122 z" id="boundary" inkscape:connector-curvature="0" />
	<path style="fill:none;stroke:red;stroke-width:1px;stroke-linecap:butt;stroke-linejoin:miter;stroke-opacity:1" d="M 663.702,122 663.091,139.12 z" id="boundary" inkscape:connector-curvature="0" />
	<path style="fill:none;stroke:red;stroke-width:1px;stroke-linecap:butt;stroke-linejoin:miter;stroke-opacity:1" d="M 663.091,139.12 662.479,162.964 z" id="boundary" inkscape:connector-curvature="0" />
	<path style="fill:none;stroke:red;stroke-width:1px;stroke-linecap:butt;stroke-linejoin:miter;stroke-opacity:1" d="M 662.479,162.964 662.479,172.135 z" id="boundary" inkscape:connector-curvature="0" />
	<path style="fill:none;stroke:red;stroke-width:1px;stroke-linecap:butt;stroke-linejoin:miter;stroke-opacity:1" d="M 662.479,172.135 661.868,179.472 z" id="boundary" inkscape:connector-curvature="0" />
	<path style="fill:none;stroke:red;stroke-width:1px;stroke-linecap:butt;stroke-linejoin:miter;stroke-opacity:1" d="M 661.868,179.472 661.868,206.374 z" id="boundary" inkscape:connector-curvature="0" />
	<path style="fill:none;stroke:red;stroke-width:1px;stroke-linecap:butt;stroke-linejoin:miter;stroke-opacity:1" d="M 661.868,206.374 668.593,274.239 z" id="boundary" inkscape:connector-curvature="0" />
	<path style="fill:none;stroke:red;stroke-width:1px;stroke-linecap:butt;stroke-linejoin:miter;stroke-opacity:1" d="M 668.593,274.239 682.044,269.348 z" id="boundary" inkscape:connector-curvature="0" />
	<path style="fill:none;stroke:red;stroke-width:1px;stroke-linecap:butt;stroke-linejoin:miter;stroke-opacity:1" d="M 682.044,269.348 715.06,257.732 z" id="boundary" inkscape:connector-curvature="0" />
	<path style="fill:none;stroke:red;stroke-width:1px;stroke-linecap:butt;stroke-linejoin:miter;stroke-opacity:1" d="M 715.06,257.732 737.07,249.783 z" id="boundary" inkscape:connector-curvature="0" />
	<path style="fill:none;stroke:red;stroke-width:1px;stroke-linecap:butt;stroke-linejoin:miter;stroke-opacity:1" d="M 737.07,249.783 749.91,245.504 z" id="boundary" inkscape:connector-curvature="0" />
	<path style="fill:none;stroke:red;stroke-width:1px;stroke-linecap:butt;stroke-linejoin:miter;stroke-opacity:1" d="M 749.91,245.504 758.469,241.835 z" id="boundary" inkscape:connector-curvature="0" />
	<path style="fill:none;stroke:red;stroke-width:1px;stroke-linecap:butt;stroke-linejoin:miter;stroke-opacity:1" d="M 758.469,241.835 768.252,238.778 z" id="boundary" inkscape:connector-curvature="0" />
	<path style="fill:none;stroke:red;stroke-width:1px;stroke-linecap:butt;stroke-linejoin:miter;stroke-opacity:1" d="M 768.252,238.778 794.542,229.607 z" id="boundary" inkscape:connector-curvature="0" />
	<path style="fill:none;stroke:red;stroke-width:1px;stroke-linecap:butt;stroke-linejoin:miter;stroke-opacity:1" d="M 794.542,229.607 811.05,223.493 z" id="boundary" inkscape:connector-curvature="0" />
	<path style="fill:none;stroke:red;stroke-width:1px;stroke-linecap:butt;stroke-linejoin:miter;stroke-opacity:1" d="M 811.05,223.493 815.941,221.659 z" id="boundary" inkscape:connector-curvature="0" />
	<path style="fill:none;stroke:red;stroke-width:1px;stroke-linecap:butt;stroke-linejoin:miter;stroke-opacity:1" d="M 815.941,221.659 845.288,211.265 z" id="boundary" inkscape:connector-curvature="0" />
	<path style="fill:none;stroke:red;stroke-width:1px;stroke-linecap:butt;stroke-linejoin:miter;stroke-opacity:1" d="M 845.288,211.265 855.682,207.597 z" id="boundary" inkscape:connector-curvature="0" />
	<path style="fill:none;stroke:red;stroke-width:1px;stroke-linecap:butt;stroke-linejoin:miter;stroke-opacity:1" d="M 855.682,207.597 919.268,184.975 z" id="boundary" inkscape:connector-curvature="0" />
	<circle cx="130.56" cy="227.162" r="4" fill="#0" id="circle0"/>
	<circle cx="123.223" cy="216.768" r="4" fill="#0" id="circle1"/>
	<circle cx="118.332" cy="210.654" r="4" fill="#0" id="circle2"/>
	<circle cx="103.047" cy="185.586" r="4" fill="#0" id="circle3"/>
	<circle cx="134.84" cy="197.203" r="4" fill="#0" id="circle4"/>
	<circle cx="151.348" cy="203.928" r="4" fill="#0" id="circle5"/>
	<circle cx="157.462" cy="205.151" r="4" fill="#0" id="circle6"/>
	<circle cx="162.964" cy="206.985" r="4" fill="#0" id="circle7"/>
	<circle cx="145.234" cy="244.892" r="4" fill="#0" id="circle8"/>
	<circle cx="155.628" cy="257.732" r="4" fill="#0" id="circle9"/>
	<circle cx="158.685" cy="262.011" r="4" fill="#0" id="circle10"/>
	<circle cx="168.467" cy="275.462" r="4" fill="#0" id="circle11"/>
	<circle cx="175.192" cy="282.799" r="4" fill="#0" id="circle12"/>
	<circle cx="270.571" cy="245.504" r="4" fill="#0" id="circle13"/>
	<circle cx="273.628" cy="246.115" r="4" fill="#0" id="circle14"/>
	<circle cx="305.421" cy="257.732" r="4" fill="#0" id="circle15"/>
	<circle cx="310.924" cy="258.954" r="4" fill="#0" id="circle16"/>
	<circle cx="335.38" cy="268.125" r="4" fill="#0" id="circle17"/>
	<circle cx="360.447" cy="270.571" r="4" fill="#0" id="circle18"/>
	<circle cx="359.836" cy="244.892" r="4" fill="#0" id="circle19"/>
	<circle cx="358.001" cy="159.296" r="4" fill="#0" id="circle20"/>
	<circle cx="358.001" cy="144.622" r="4" fill="#0" id="circle21"/>
	<circle cx="356.779" cy="134.229" r="4" fill="#0" id="circle22"/>
	<circle cx="356.779" cy="125.669" r="4" fill="#0" id="circle23"/>
	<circle cx="355.556" cy="96.933" r="4" fill="#0" id="circle24"/>
	<circle cx="354.333" cy="65.1401" r="4" fill="#0" id="circle25"/>
	<circle cx="353.722" cy="41.9069" r="4" fill="#0" id="circle26"/>
	<circle cx="353.722" cy="34.5701" r="4" fill="#0" id="circle27"/>
	<circle cx="383.069" cy="43.7411" r="4" fill="#0" id="circle28"/>
	<circle cx="389.183" cy="52.9121" r="4" fill="#0" id="circle29"/>
	<circle cx="394.686" cy="61.4717" r="4" fill="#0" id="circle30"/>
	<circle cx="399.577" cy="67.5857" r="4" fill="#0" id="circle31"/>
	<circle cx="416.696" cy="92.0418" r="4" fill="#0" id="circle32"/>
	<circle cx="439.929" cy="126.892" r="4" fill="#0" id="circle33"/>
	<circle cx="461.94" cy="158.685" r="4" fill="#0" id="circle34"/>
	<circle cx="476.002" cy="179.472" r="4" fill="#0" id="circle35"/>
	<circle cx="480.893" cy="185.586" r="4" fill="#0" id="circle36"/>
	<circle cx="507.795" cy="226.55" r="4" fill="#0" id="circle37"/>
	<circle cx="517.577" cy="219.213" r="4" fill="#0" id="circle38"/>
	<circle cx="534.085" cy="195.369" r="4" fill="#0" id="circle39"/>
	<circle cx="548.147" cy="173.97" r="4" fill="#0" id="circle40"/>
	<circle cx="552.427" cy="167.856" r="4" fill="#0" id="circle41"/>
	<circle cx="555.484" cy="162.964" r="4" fill="#0" id="circle42"/>
	<circle cx="570.158" cy="142.788" r="4" fill="#0" id="circle43"/>
	<circle cx="575.049" cy="133.617" r="4" fill="#0" id="circle44"/>
	<circle cx="580.552" cy="125.669" r="4" fill="#0" id="circle45"/>
	<circle cx="583.609" cy="122" r="4" fill="#0" id="circle46"/>
	<circle cx="589.111" cy="114.664" r="4" fill="#0" id="circle47"/>
	<circle cx="633.744" cy="48.6323" r="4" fill="#0" id="circle48"/>
	<circle cx="654.531" cy="16.8394" r="4" fill="#0" id="circle49"/>
	<circle cx="658.811" cy="10.7254" r="4" fill="#0" id="circle50"/>
	<circle cx="664.314" cy="4" r="4" fill="#0" id="circle51"/>
	<circle cx="666.759" cy="5.22279" r="4" fill="#0" id="circle52"/>
	<circle cx="666.759" cy="18.6736" r="4" fill="#0" id="circle53"/>
	<circle cx="666.148" cy="31.5131" r="4" fill="#0" id="circle54"/>
	<circle cx="666.148" cy="45.5753" r="4" fill="#0" id="circle55"/>
	<circle cx="665.536" cy="50.4665" r="4" fill="#0" id="circle56"/>
	<circle cx="664.314" cy="104.881" r="4" fill="#0" id="circle57"/>
	<circle cx="664.314" cy="109.772" r="4" fill="#0" id="circle58"/>
	<circle cx="663.702" cy="122" r="4" fill="#0" id="circle59"/>
	<circle cx="663.091" cy="139.12" r="4" fill="#0" id="circle60"/>
	<circle cx="662.479" cy="162.964" r="4" fill="#0" id="circle61"/>
	<circle cx="662.479" cy="172.135" r="4" fill="#0" id="circle62"/>
	<circle cx="661.868" cy="179.472" r="4" fill="#0" id="circle63"/>
	<circle cx="661.868" cy="206.374" r="4" fill="#0" id="circle64"/>
	<circle cx="668.593" cy="274.239" r="4" fill="#0" id="circle65"/>
	<circle cx="682.044" cy="269.348" r="4" fill="#0" id="circle66"/>
	<circle cx="715.06" cy="257.732" r="4" fill="#0" id="circle67"/>
	<circle cx="737.07" cy="249.783" r="4" fill="#0" id="circle68"/>
	<circle cx="749.91" cy="245.504" r="4" fill="#0" id="circle69"/>
	<circle cx="758.469" cy="241.835" r="4" fill="#0" id="circle70"/>
	<circle cx="768.252" cy="238.778" r="4" fill="#0" id="circle71"/>
	<circle cx="794.542" cy="229.607" r="4" fill="#0" id="circle72"/>
	<circle cx="811.05" cy="223.493" r="4" fill="#0" id="circle73"/>
	<circle cx="815.941" cy="221.659" r="4" fill="#0" id="circle74"/>
	<circle cx="845.288" cy="211.265" r="4" fill="#0" id="circle75"/>
	<circle cx="855.682" cy="207.597" r="4" fill="#0" id="circle76"/>
	<circle cx="919.268" cy="184.975" r="4" fill="#0" id="circle77"/>
	<circle cx="914.377" cy="194.146" r="4" fill="#0" id="circle78"/>
	<circle cx="910.708" cy="198.426" r="4" fill="#0" id="circle79"/>
	<circle cx="889.309" cy="225.327" r="4" fill="#0" id="circle80"/>
	<circle cx="872.19" cy="249.172" r="4" fill="#0" id="circle81"/>
	<circle cx="830.615" cy="302.364" r="4" fill="#0" id="circle82"/>
	<circle cx="814.107" cy="324.374" r="4" fill="#0" id="circle83"/>
	<circle cx="809.827" cy="329.266" r="4" fill="#0" id="circle84"/>
	<circle cx="780.48" cy="366.561" r="4" fill="#0" id="circle85"/>
	<circle cx="776.2" cy="373.287" r="4" fill="#0" id="circle86"/>
	<circle cx="758.469" cy="396.52" r="4" fill="#0" id="circle87"/>
	<circle cx="757.858" cy="406.302" r="4" fill="#0" id="circle88"/>
	<circle cx="800.656" cy="417.919" r="4" fill="#0" id="circle89"/>
	<circle cx="817.775" cy="423.421" r="4" fill="#0" id="circle90"/>
	<circle cx="835.506" cy="429.535" r="4" fill="#0" id="circle91"/>
	<circle cx="852.625" cy="433.815" r="4" fill="#0" id="circle92"/>
	<circle cx="861.796" cy="436.872" r="4" fill="#0" id="circle93"/>
	<circle cx="879.527" cy="441.763" r="4" fill="#0" id="circle94"/>
	<circle cx="897.869" cy="447.266" r="4" fill="#0" id="circle95"/>
	<circle cx="910.097" cy="450.935" r="4" fill="#0" id="circle96"/>
	<circle cx="900.926" cy="518.189" r="4" fill="#0" id="circle97"/>
	<circle cx="880.138" cy="523.691" r="4" fill="#0" id="circle98"/>
	<circle cx="862.408" cy="529.194" r="4" fill="#0" id="circle99"/>
	<circle cx="850.791" cy="532.862" r="4" fill="#0" id="circle100"/>
	<circle cx="817.164" cy="542.645" r="4" fill="#0" id="circle101"/>
	<circle cx="811.661" cy="543.868" r="4" fill="#0" id="circle102"/>
	<circle cx="798.211" cy="548.147" r="4" fill="#0" id="circle103"/>
	<circle cx="755.412" cy="565.878" r="4" fill="#0" id="circle104"/>
	<circle cx="780.48" cy="598.894" r="4" fill="#0" id="circle105"/>
	<circle cx="783.537" cy="602.562" r="4" fill="#0" id="circle106"/>
	<circle cx="790.874" cy="611.733" r="4" fill="#0" id="circle107"/>
	<circle cx="814.107" cy="641.08" r="4" fill="#0" id="circle108"/>
	<circle cx="822.055" cy="652.697" r="4" fill="#0" id="circle109"/>
	<circle cx="832.449" cy="666.148" r="4" fill="#0" id="circle110"/>
	<circle cx="858.128" cy="698.552" r="4" fill="#0" id="circle111"/>
	<circle cx="864.853" cy="707.112" r="4" fill="#0" id="circle112"/>
	<circle cx="881.973" cy="730.345" r="4" fill="#0" id="circle113"/>
	<circle cx="907.651" cy="777.423" r="4" fill="#0" id="circle114"/>
	<circle cx="900.926" cy="774.977" r="4" fill="#0" id="circle115"/>
	<circle cx="878.304" cy="766.418" r="4" fill="#0" id="circle116"/>
	<circle cx="865.465" cy="762.749" r="4" fill="#0" id="circle117"/>
	<circle cx="858.128" cy="759.692" r="4" fill="#0" id="circle118"/>
	<circle cx="847.734" cy="756.024" r="4" fill="#0" id="circle119"/>
	<circle cx="827.558" cy="748.076" r="4" fill="#0" id="circle120"/>
	<circle cx="815.941" cy="745.019" r="4" fill="#0" id="circle121"/>
	<circle cx="803.713" cy="740.127" r="4" fill="#0" id="circle122"/>
	<circle cx="734.625" cy="715.06" r="4" fill="#0" id="circle123"/>
	<circle cx="727.899" cy="713.226" r="4" fill="#0" id="circle124"/>
	<circle cx="719.34" cy="710.78" r="4" fill="#0" id="circle125"/>
	<circle cx="712.614" cy="707.723" r="4" fill="#0" id="circle126"/>
	<circle cx="700.998" cy="704.055" r="4" fill="#0" id="circle127"/>
	<circle cx="694.272" cy="700.998" r="4" fill="#0" id="circle128"/>
	<circle cx="660.034" cy="698.552" r="4" fill="#0" id="circle129"/>
	<circle cx="660.034" cy="709.557" r="4" fill="#0" id="circle130"/>
	<circle cx="660.645" cy="714.449" r="4" fill="#0" id="circle131"/>
	<circle cx="660.645" cy="728.511" r="4" fill="#0" id="circle132"/>
	<circle cx="660.645" cy="743.184" r="4" fill="#0" id="circle133"/>
	<circle cx="660.645" cy="749.91" r="4" fill="#0" id="circle134"/>
	<circle cx="662.479" cy="800.045" r="4" fill="#0" id="circle135"/>
	<circle cx="662.479" cy="813.496" r="4" fill="#0" id="circle136"/>
	<circle cx="663.091" cy="836.729" r="4" fill="#0" id="circle137"/>
	<circle cx="664.314" cy="864.853" r="4" fill="#0" id="circle138"/>
	<circle cx="665.536" cy="900.926" r="4" fill="#0" id="circle139"/>
	<circle cx="665.536" cy="913.765" r="4" fill="#0" id="circle140"/>
	<circle cx="666.148" cy="927.828" r="4" fill="#0" id="circle141"/>
	<circle cx="665.536" cy="936.387" r="4" fill="#0" id="circle142"/>
	<circle cx="666.148" cy="941.279" r="4" fill="#0" id="circle143"/>
	<circle cx="666.759" cy="948.615" r="4" fill="#0" id="circle144"/>
	<circle cx="666.759" cy="954.118" r="4" fill="#0" id="circle145"/>
	<circle cx="642.303" cy="932.108" r="4" fill="#0" id="circle146"/>
	<circle cx="620.293" cy="897.869" r="4" fill="#0" id="circle147"/>
	<circle cx="609.287" cy="881.973" r="4" fill="#0" id="circle148"/>
	<circle cx="601.951" cy="871.579" r="4" fill="#0" id="circle149"/>
	<circle cx="595.225" cy="860.574" r="4" fill="#0" id="circle150"/>
	<circle cx="590.334" cy="854.46" r="4" fill="#0" id="circle151"/>
	<circle cx="575.66" cy="833.06" r="4" fill="#0" id="circle152"/>
	<circle cx="550.593" cy="796.988" r="4" fill="#0" id="circle153"/>
	<circle cx="523.08" cy="756.635" r="4" fill="#0" id="circle154"/>
	<circle cx="501.681" cy="749.91" r="4" fill="#0" id="circle155"/>
	<circle cx="497.401" cy="755.412" r="4" fill="#0" id="circle156"/>
	<circle cx="485.173" cy="773.755" r="4" fill="#0" id="circle157"/>
	<circle cx="462.551" cy="806.77" r="4" fill="#0" id="circle158"/>
	<circle cx="457.66" cy="814.107" r="4" fill="#0" id="circle159"/>
	<circle cx="449.1" cy="826.946" r="4" fill="#0" id="circle160"/>
	<circle cx="430.758" cy="853.848" r="4" fill="#0" id="circle161"/>
	<circle cx="423.421" cy="864.242" r="4" fill="#0" id="circle162"/>
	<circle cx="417.919" cy="871.579" r="4" fill="#0" id="circle163"/>
	<circle cx="397.131" cy="902.76" r="4" fill="#0" id="circle164"/>
	<circle cx="391.017" cy="911.931" r="4" fill="#0" id="circle165"/>
	<circle cx="370.841" cy="942.501" r="4" fill="#0" id="circle166"/>
	<circle cx="358.613" cy="959.621" r="4" fill="#0" id="circle167"/>
	<circle cx="352.499" cy="966.957" r="4" fill="#0" id="circle168"/>
	<circle cx="353.11" cy="936.387" r="4" fill="#0" id="circle169"/>
	<circle cx="353.722" cy="923.548" r="4" fill="#0" id="circle170"/>
	<circle cx="354.944" cy="896.646" r="4" fill="#0" id="circle171"/>
	<circle cx="356.167" cy="856.294" r="4" fill="#0" id="circle172"/>
	<circle cx="356.167" cy="852.014" r="4" fill="#0" id="circle173"/>
	<circle cx="356.167" cy="836.729" r="4" fill="#0" id="circle174"/>
	<circle cx="357.39" cy="794.542" r="4" fill="#0" id="circle175"/>
	<circle cx="358.001" cy="781.703" r="4" fill="#0" id="circle176"/>
	<circle cx="358.613" cy="767.641" r="4" fill="#0" id="circle177"/>
	<circle cx="358.613" cy="739.516" r="4" fill="#0" id="circle178"/>
	<circle cx="290.136" cy="713.837" r="4" fill="#0" id="circle179"/>
	<circle cx="235.11" cy="734.013" r="4" fill="#0" id="circle180"/>
	<circle cx="203.928" cy="744.407" r="4" fill="#0" id="circle181"/>
	<circle cx="187.42" cy="750.521" r="4" fill="#0" id="circle182"/>
	<circle cx="178.249" cy="752.355" r="4" fill="#0" id="circle183"/>
	<circle cx="172.135" cy="755.412" r="4" fill="#0" id="circle184"/>
	<circle cx="148.902" cy="763.972" r="4" fill="#0" id="circle185"/>
	<circle cx="142.788" cy="765.806" r="4" fill="#0" id="circle186"/>
	<circle cx="125.057" cy="772.532" r="4" fill="#0" id="circle187"/>
	<circle cx="99.99" cy="781.091" r="4" fill="#0" id="circle188"/>
	<circle cx="103.658" cy="774.977" r="4" fill="#0" id="circle189"/>
	<circle cx="112.218" cy="764.583" r="4" fill="#0" id="circle190"/>
	<circle cx="128.115" cy="743.184" r="4" fill="#0" id="circle191"/>
	<circle cx="182.529" cy="672.873" r="4" fill="#0" id="circle192"/>
	<circle cx="194.146" cy="658.2" r="4" fill="#0" id="circle193"/>
	<circle cx="195.98" cy="655.143" r="4" fill="#0" id="circle194"/>
	<circle cx="216.768" cy="627.63" r="4" fill="#0" id="circle195"/>
	<circle cx="219.213" cy="624.573" r="4" fill="#0" id="circle196"/>
	<circle cx="231.441" cy="609.287" r="4" fill="#0" id="circle197"/>
	<circle cx="236.944" cy="601.951" r="4" fill="#0" id="circle198"/>
	<circle cx="249.783" cy="584.22" r="4" fill="#0" id="circle199"/>
	<circle cx="257.12" cy="576.883" r="4" fill="#0" id="circle200"/>
	<circle cx="260.177" cy="571.992" r="4" fill="#0" id="circle201"/>
	<circle cx="265.68" cy="564.655" r="4" fill="#0" id="circle202"/>
	<circle cx="249.172" cy="554.873" r="4" fill="#0" id="circle203"/>
	<circle cx="240.001" cy="553.039" r="4" fill="#0" id="circle204"/>
	<circle cx="232.664" cy="550.593" r="4" fill="#0" id="circle205"/>
	<circle cx="224.716" cy="548.147" r="4" fill="#0" id="circle206"/>
	<circle cx="216.768" cy="546.925" r="4" fill="#0" id="circle207"/>
	<circle cx="206.985" cy="543.868" r="4" fill="#0" id="circle208"/>
	<circle cx="193.534" cy="539.588" r="4" fill="#0" id="circle209"/>
	<circle cx="132.394" cy="521.246" r="4" fill="#0" id="circle210"/>
	<circle cx="66.9744" cy="502.292" r="4" fill="#0" id="circle211"/>
	<circle cx="55.3577" cy="498.624" r="4" fill="#0" id="circle212"/>
	<circle cx="36.4043" cy="493.733" r="4" fill="#0" id="circle213"/>
	<circle cx="4" cy="482.116" r="4" fill="#0" id="circle214"/>
	<circle cx="49.8551" cy="468.665" r="4" fill="#0" id="circle215"/>
	<circle cx="55.9691" cy="466.22" r="4" fill="#0" id="circle216"/>
	<circle cx="84.0936" cy="458.883" r="4" fill="#0" id="circle217"/>
	<circle cx="93.2646" cy="455.214" r="4" fill="#0" id="circle218"/>
	<circle cx="136.674" cy="443.598" r="4" fill="#0" id="circle219"/>
	<circle cx="144.011" cy="440.541" r="4" fill="#0" id="circle220"/>
	<circle cx="152.571" cy="437.484" r="4" fill="#0" id="circle221"/>
	<circle cx="199.648" cy="424.644" r="4" fill="#0" id="circle222"/>
	<circle cx="208.82" cy="422.199" r="4" fill="#0" id="circle223"/>
	<circle cx="214.322" cy="419.753" r="4" fill="#0" id="circle224"/>
	<circle cx="221.659" cy="417.307" r="4" fill="#0" id="circle225"/>
	<circle cx="233.887" cy="414.25" r="4" fill="#0" id="circle226"/>
	<circle cx="263.846" cy="400.8" r="4" fill="#0" id="circle227"/>
	<circle cx="262.011" cy="396.52" r="4" fill="#0" id="circle228"/>
	<circle cx="239.39" cy="367.172" r="4" fill="#0" id="circle229"/>
	<circle cx="230.83" cy="356.167" r="4" fill="#0" id="circle230"/>
	<circle cx="226.55" cy="350.053" r="4" fill="#0" id="circle231"/>
	<circle cx="221.659" cy="343.939" r="4" fill="#0" id="circle232"/>
	<circle cx="217.991" cy="339.659" r="4" fill="#0" id="circle233"/>
	<circle cx="211.877" cy="331.1" r="4" fill="#0" id="circle234"/>
	<circle cx="963.607" cy="467.15" r="4" fill="#0" id="circle235"/>
	<circle cx="973.326" cy="470.384" r="4" fill="#0" id="circle236"/>
	<circle cx="996" cy="476.048" r="4" fill="#0" id="circle237"/>
	<circle cx="978.186" cy="494.683" r="4" fill="#0" id="circle238"/>
	<circle cx="962.803" cy="500.347" r="4" fill="#0" id="circle239"/>
	<circle cx="953.887" cy="502.777" r="4" fill="#0" id="circle240"/>
	</g>
</svg>