<?xml version="1.0" encoding="UTF-8" standalone="no"?>
<!-- Created with CurveBenchmark -->
<svg
	xmlns:dc="http://purl.org/dc/elements/1.1/"
	xmlns:cc="http://creativecommons.org/ns#"
	xmlns:rdf="http://www.w3.org/1999/02/22-rdf-syntax-ns#"
	xmlns:svg="http://www.w3.org/2000/svg"
	xmlns="http://www.w3.org/2000/svg"
	xmlns:sodipodi="http://sodipodi.sourceforge.net/DTD/sodipodi-0.dtd"
	xmlns:inkscape="http://www.inkscape.org/namespaces/inkscape"
	width="1000"
	height="1000"
	id="svg2"
	version="1.1"
	sodipodi:docname="sharp-corners/discur-sc9.txt">
<defs
	id="defs4" />
<metadata
	id="metadata7">
	<rdf:RDF>
		<cc:Work
			rdf:about="">
			<dc:format>image/svg+xml</dc:format>
			<dc:type
				rdf:resource="http://purl.org/dc/dcmitype/StillImage" />
			<dc:title></dc:title>
		</cc:Work>
	</rdf:RDF>
</metadata>
<g
	inkscape:label="Layer 1"
	inkscape:groupmode="layer"
	id="layer1">
	<path style="fill:none;stroke:red;stroke-width:1px;stroke-linecap:butt;stroke-linejoin:miter;stroke-opacity:1" d="M 4,588.101 131.642,565.902 z" id="boundary" inkscape:connector-curvature="0" />
	<path style="fill:none;stroke:red;stroke-width:1px;stroke-linecap:butt;stroke-linejoin:miter;stroke-opacity:1" d="M 37.2979,184.364 41.4601,95.5692 z" id="boundary" inkscape:connector-curvature="0" />
	<path style="fill:none;stroke:red;stroke-width:1px;stroke-linecap:butt;stroke-linejoin:miter;stroke-opacity:1" d="M 41.4601,95.5692 138.579,28.9734 z" id="boundary" inkscape:connector-curvature="0" />
	<path style="fill:none;stroke:red;stroke-width:1px;stroke-linecap:butt;stroke-linejoin:miter;stroke-opacity:1" d="M 138.579,28.9734 241.248,58.1091 z" id="boundary" inkscape:connector-curvature="0" />
	<path style="fill:none;stroke:red;stroke-width:1px;stroke-linecap:butt;stroke-linejoin:miter;stroke-opacity:1" d="M 241.248,58.1091 335.592,59.4965 z" id="boundary" inkscape:connector-curvature="0" />
	<path style="fill:none;stroke:red;stroke-width:1px;stroke-linecap:butt;stroke-linejoin:miter;stroke-opacity:1" d="M 335.592,59.4965 456.297,49.7846 z" id="boundary" inkscape:connector-curvature="0" />
	<path style="fill:none;stroke:red;stroke-width:1px;stroke-linecap:butt;stroke-linejoin:miter;stroke-opacity:1" d="M 456.297,49.7846 528.442,27.586 z" id="boundary" inkscape:connector-curvature="0" />
	<path style="fill:none;stroke:red;stroke-width:1px;stroke-linecap:butt;stroke-linejoin:miter;stroke-opacity:1" d="M 528.442,27.586 633.885,4 z" id="boundary" inkscape:connector-curvature="0" />
	<path style="fill:none;stroke:red;stroke-width:1px;stroke-linecap:butt;stroke-linejoin:miter;stroke-opacity:1" d="M 633.885,4 797.6,23.4238 z" id="boundary" inkscape:connector-curvature="0" />
	<path style="fill:none;stroke:red;stroke-width:1px;stroke-linecap:butt;stroke-linejoin:miter;stroke-opacity:1" d="M 797.6,23.4238 941.891,74.758 z" id="boundary" inkscape:connector-curvature="0" />
	<path style="fill:none;stroke:red;stroke-width:1px;stroke-linecap:butt;stroke-linejoin:miter;stroke-opacity:1" d="M 941.891,74.758 984.901,196.85 z" id="boundary" inkscape:connector-curvature="0" />
	<path style="fill:none;stroke:red;stroke-width:1px;stroke-linecap:butt;stroke-linejoin:miter;stroke-opacity:1" d="M 984.901,196.85 996,314.78 z" id="boundary" inkscape:connector-curvature="0" />
	<path style="fill:none;stroke:red;stroke-width:1px;stroke-linecap:butt;stroke-linejoin:miter;stroke-opacity:1" d="M 996,314.78 990.45,420.224 z" id="boundary" inkscape:connector-curvature="0" />
	<path style="fill:none;stroke:red;stroke-width:1px;stroke-linecap:butt;stroke-linejoin:miter;stroke-opacity:1" d="M 990.45,420.224 923.855,536.766 z" id="boundary" inkscape:connector-curvature="0" />
	<path style="fill:none;stroke:red;stroke-width:1px;stroke-linecap:butt;stroke-linejoin:miter;stroke-opacity:1" d="M 923.855,536.766 832.285,592.263 z" id="boundary" inkscape:connector-curvature="0" />
	<path style="fill:none;stroke:red;stroke-width:1px;stroke-linecap:butt;stroke-linejoin:miter;stroke-opacity:1" d="M 832.285,592.263 739.329,610.299 z" id="boundary" inkscape:connector-curvature="0" />
	<path style="fill:none;stroke:red;stroke-width:1px;stroke-linecap:butt;stroke-linejoin:miter;stroke-opacity:1" d="M 739.329,610.299 683.832,615.849 z" id="boundary" inkscape:connector-curvature="0" />
	<path style="fill:none;stroke:red;stroke-width:1px;stroke-linecap:butt;stroke-linejoin:miter;stroke-opacity:1" d="M 674.12,810.087 628.336,740.716 z" id="boundary" inkscape:connector-curvature="0" />
	<path style="fill:none;stroke:red;stroke-width:1px;stroke-linecap:butt;stroke-linejoin:miter;stroke-opacity:1" d="M 628.336,740.716 577.001,683.832 z" id="boundary" inkscape:connector-curvature="0" />
	<path style="fill:none;stroke:red;stroke-width:1px;stroke-linecap:butt;stroke-linejoin:miter;stroke-opacity:1" d="M 577.001,683.832 520.117,633.885 z" id="boundary" inkscape:connector-curvature="0" />
	<path style="fill:none;stroke:red;stroke-width:1px;stroke-linecap:butt;stroke-linejoin:miter;stroke-opacity:1" d="M 520.117,633.885 507.631,568.677 z" id="boundary" inkscape:connector-curvature="0" />
	<path style="fill:none;stroke:red;stroke-width:1px;stroke-linecap:butt;stroke-linejoin:miter;stroke-opacity:1" d="M 507.631,568.677 531.217,539.541 z" id="boundary" inkscape:connector-curvature="0" />
	<path style="fill:none;stroke:red;stroke-width:1px;stroke-linecap:butt;stroke-linejoin:miter;stroke-opacity:1" d="M 531.217,539.541 560.352,511.793 z" id="boundary" inkscape:connector-curvature="0" />
	<path style="fill:none;stroke:red;stroke-width:1px;stroke-linecap:butt;stroke-linejoin:miter;stroke-opacity:1" d="M 560.352,511.793 590.876,486.82 z" id="boundary" inkscape:connector-curvature="0" />
	<path style="fill:none;stroke:red;stroke-width:1px;stroke-linecap:butt;stroke-linejoin:miter;stroke-opacity:1" d="M 590.876,486.82 610.299,468.783 z" id="boundary" inkscape:connector-curvature="0" />
	<path style="fill:none;stroke:red;stroke-width:1px;stroke-linecap:butt;stroke-linejoin:miter;stroke-opacity:1" d="M 610.299,468.783 646.372,421.611 z" id="boundary" inkscape:connector-curvature="0" />
	<path style="fill:none;stroke:red;stroke-width:1px;stroke-linecap:butt;stroke-linejoin:miter;stroke-opacity:1" d="M 646.372,421.611 694.26,362.669 z" id="boundary" inkscape:connector-curvature="0" />
	<path style="fill:none;stroke:red;stroke-width:1px;stroke-linecap:butt;stroke-linejoin:miter;stroke-opacity:1" d="M 694.26,362.669 554.803,430.652 z" id="boundary" inkscape:connector-curvature="0" />
	<path style="fill:none;stroke:red;stroke-width:1px;stroke-linecap:butt;stroke-linejoin:miter;stroke-opacity:1" d="M 554.803,430.652 481.27,466.724 z" id="boundary" inkscape:connector-curvature="0" />
	<path style="fill:none;stroke:red;stroke-width:1px;stroke-linecap:butt;stroke-linejoin:miter;stroke-opacity:1" d="M 481.27,466.724 453.522,481.27 z" id="boundary" inkscape:connector-curvature="0" />
	<path style="fill:none;stroke:red;stroke-width:1px;stroke-linecap:butt;stroke-linejoin:miter;stroke-opacity:1" d="M 453.522,481.27 407.737,481.27 z" id="boundary" inkscape:connector-curvature="0" />
	<path style="fill:none;stroke:red;stroke-width:1px;stroke-linecap:butt;stroke-linejoin:miter;stroke-opacity:1" d="M 407.737,481.27 386.926,447.972 z" id="boundary" inkscape:connector-curvature="0" />
	<path style="fill:none;stroke:red;stroke-width:1px;stroke-linecap:butt;stroke-linejoin:miter;stroke-opacity:1" d="M 386.926,447.972 366.115,413.287 z" id="boundary" inkscape:connector-curvature="0" />
	<path style="fill:none;stroke:red;stroke-width:1px;stroke-linecap:butt;stroke-linejoin:miter;stroke-opacity:1" d="M 366.115,413.287 341.141,361.952 z" id="boundary" inkscape:connector-curvature="0" />
	<path style="fill:none;stroke:red;stroke-width:1px;stroke-linecap:butt;stroke-linejoin:miter;stroke-opacity:1" d="M 341.141,361.952 321.717,323.105 z" id="boundary" inkscape:connector-curvature="0" />
	<path style="fill:none;stroke:red;stroke-width:1px;stroke-linecap:butt;stroke-linejoin:miter;stroke-opacity:1" d="M 321.717,323.105 309.231,291.194 z" id="boundary" inkscape:connector-curvature="0" />
	<path style="fill:none;stroke:red;stroke-width:1px;stroke-linecap:butt;stroke-linejoin:miter;stroke-opacity:1" d="M 309.231,291.194 275.933,234.31 z" id="boundary" inkscape:connector-curvature="0" />
	<path style="fill:none;stroke:red;stroke-width:1px;stroke-linecap:butt;stroke-linejoin:miter;stroke-opacity:1" d="M 275.933,234.31 282.87,361.952 z" id="boundary" inkscape:connector-curvature="0" />
	<path style="fill:none;stroke:red;stroke-width:1px;stroke-linecap:butt;stroke-linejoin:miter;stroke-opacity:1" d="M 282.87,361.952 292.582,443.81 z" id="boundary" inkscape:connector-curvature="0" />
	<path style="fill:none;stroke:red;stroke-width:1px;stroke-linecap:butt;stroke-linejoin:miter;stroke-opacity:1" d="M 292.582,443.81 299.519,486.82 z" id="boundary" inkscape:connector-curvature="0" />
	<path style="fill:none;stroke:red;stroke-width:1px;stroke-linecap:butt;stroke-linejoin:miter;stroke-opacity:1" d="M 299.519,486.82 299.519,522.892 z" id="boundary" inkscape:connector-curvature="0" />
	<path style="fill:none;stroke:red;stroke-width:1px;stroke-linecap:butt;stroke-linejoin:miter;stroke-opacity:1" d="M 299.519,522.892 282.87,533.992 z" id="boundary" inkscape:connector-curvature="0" />
	<path style="fill:none;stroke:red;stroke-width:1px;stroke-linecap:butt;stroke-linejoin:miter;stroke-opacity:1" d="M 282.87,533.992 221.824,552.028 z" id="boundary" inkscape:connector-curvature="0" />
	<path style="fill:none;stroke:red;stroke-width:1px;stroke-linecap:butt;stroke-linejoin:miter;stroke-opacity:1" d="M 221.824,552.028 131.642,565.902 z" id="boundary" inkscape:connector-curvature="0" />
	<circle cx="4" cy="588.101" r="4" fill="#0" id="circle0"/>
	<circle cx="37.2979" cy="184.364" r="4" fill="#0" id="circle1"/>
	<circle cx="41.4601" cy="95.5692" r="4" fill="#0" id="circle2"/>
	<circle cx="138.579" cy="28.9734" r="4" fill="#0" id="circle3"/>
	<circle cx="241.248" cy="58.1091" r="4" fill="#0" id="circle4"/>
	<circle cx="335.592" cy="59.4965" r="4" fill="#0" id="circle5"/>
	<circle cx="456.297" cy="49.7846" r="4" fill="#0" id="circle6"/>
	<circle cx="528.442" cy="27.586" r="4" fill="#0" id="circle7"/>
	<circle cx="633.885" cy="4" r="4" fill="#0" id="circle8"/>
	<circle cx="797.6" cy="23.4238" r="4" fill="#0" id="circle9"/>
	<circle cx="941.891" cy="74.758" r="4" fill="#0" id="circle10"/>
	<circle cx="984.901" cy="196.85" r="4" fill="#0" id="circle11"/>
	<circle cx="996" cy="314.78" r="4" fill="#0" id="circle12"/>
	<circle cx="990.45" cy="420.224" r="4" fill="#0" id="circle13"/>
	<circle cx="923.855" cy="536.766" r="4" fill="#0" id="circle14"/>
	<circle cx="832.285" cy="592.263" r="4" fill="#0" id="circle15"/>
	<circle cx="739.329" cy="610.299" r="4" fill="#0" id="circle16"/>
	<circle cx="683.832" cy="615.849" r="4" fill="#0" id="circle17"/>
	<circle cx="674.12" cy="810.087" r="4" fill="#0" id="circle18"/>
	<circle cx="628.336" cy="740.716" r="4" fill="#0" id="circle19"/>
	<circle cx="577.001" cy="683.832" r="4" fill="#0" id="circle20"/>
	<circle cx="520.117" cy="633.885" r="4" fill="#0" id="circle21"/>
	<circle cx="507.631" cy="568.677" r="4" fill="#0" id="circle22"/>
	<circle cx="531.217" cy="539.541" r="4" fill="#0" id="circle23"/>
	<circle cx="560.352" cy="511.793" r="4" fill="#0" id="circle24"/>
	<circle cx="590.876" cy="486.82" r="4" fill="#0" id="circle25"/>
	<circle cx="610.299" cy="468.783" r="4" fill="#0" id="circle26"/>
	<circle cx="646.372" cy="421.611" r="4" fill="#0" id="circle27"/>
	<circle cx="694.26" cy="362.669" r="4" fill="#0" id="circle28"/>
	<circle cx="554.803" cy="430.652" r="4" fill="#0" id="circle29"/>
	<circle cx="481.27" cy="466.724" r="4" fill="#0" id="circle30"/>
	<circle cx="453.522" cy="481.27" r="4" fill="#0" id="circle31"/>
	<circle cx="407.737" cy="481.27" r="4" fill="#0" id="circle32"/>
	<circle cx="386.926" cy="447.972" r="4" fill="#0" id="circle33"/>
	<circle cx="366.115" cy="413.287" r="4" fill="#0" id="circle34"/>
	<circle cx="341.141" cy="361.952" r="4" fill="#0" id="circle35"/>
	<circle cx="321.717" cy="323.105" r="4" fill="#0" id="circle36"/>
	<circle cx="309.231" cy="291.194" r="4" fill="#0" id="circle37"/>
	<circle cx="275.933" cy="234.31" r="4" fill="#0" id="circle38"/>
	<circle cx="282.87" cy="361.952" r="4" fill="#0" id="circle39"/>
	<circle cx="292.582" cy="443.81" r="4" fill="#0" id="circle40"/>
	<circle cx="299.519" cy="486.82" r="4" fill="#0" id="circle41"/>
	<circle cx="299.519" cy="522.892" r="4" fill="#0" id="circle42"/>
	<circle cx="282.87" cy="533.992" r="4" fill="#0" id="circle43"/>
	<circle cx="221.824" cy="552.028" r="4" fill="#0" id="circle44"/>
	<circle cx="131.642" cy="565.902" r="4" fill="#0" id="circle45"/>
	</g>
</svg>