<?xml version="1.0" encoding="UTF-8" standalone="no"?>
<!-- Created with CurveBenchmark -->
<svg
	xmlns:dc="http://purl.org/dc/elements/1.1/"
	xmlns:cc="http://creativecommons.org/ns#"
	xmlns:rdf="http://www.w3.org/1999/02/22-rdf-syntax-ns#"
	xmlns:svg="http://www.w3.org/2000/svg"
	xmlns="http://www.w3.org/2000/svg"
	xmlns:sodipodi="http://sodipodi.sourceforge.net/DTD/sodipodi-0.dtd"
	xmlns:inkscape="http://www.inkscape.org/namespaces/inkscape"
	width="1000"
	height="1000"
	id="svg2"
	version="1.1"
	sodipodi:docname="sharp-corners/discur-sc2.txt">
<defs
	id="defs4" />
<metadata
	id="metadata7">
	<rdf:RDF>
		<cc:Work
			rdf:about="">
			<dc:format>image/svg+xml</dc:format>
			<dc:type
				rdf:resource="http://purl.org/dc/dcmitype/StillImage" />
			<dc:title></dc:title>
		</cc:Work>
	</rdf:RDF>
</metadata>
<g
	inkscape:label="Layer 1"
	inkscape:groupmode="layer"
	id="layer1">
	<path style="fill:none;stroke:red;stroke-width:1px;stroke-linecap:butt;stroke-linejoin:miter;stroke-opacity:1" d="M 4,705.655 8.81261,822.962 z" id="boundary" inkscape:connector-curvature="0" />
	<path style="fill:none;stroke:red;stroke-width:1px;stroke-linecap:butt;stroke-linejoin:miter;stroke-opacity:1" d="M 4,705.655 67.7671,558.582 z" id="boundary" inkscape:connector-curvature="0" />
	<path style="fill:none;stroke:red;stroke-width:1px;stroke-linecap:butt;stroke-linejoin:miter;stroke-opacity:1" d="M 8.81261,822.962 89.4239,940.944 z" id="boundary" inkscape:connector-curvature="0" />
	<path style="fill:none;stroke:red;stroke-width:1px;stroke-linecap:butt;stroke-linejoin:miter;stroke-opacity:1" d="M 89.4239,940.944 197.708,993.882 z" id="boundary" inkscape:connector-curvature="0" />
	<path style="fill:none;stroke:red;stroke-width:1px;stroke-linecap:butt;stroke-linejoin:miter;stroke-opacity:1" d="M 197.708,993.882 283.132,996 z" id="boundary" inkscape:connector-curvature="0" />
	<path style="fill:none;stroke:red;stroke-width:1px;stroke-linecap:butt;stroke-linejoin:miter;stroke-opacity:1" d="M 283.132,996 355.321,969.747 z" id="boundary" inkscape:connector-curvature="0" />
	<path style="fill:none;stroke:red;stroke-width:1px;stroke-linecap:butt;stroke-linejoin:miter;stroke-opacity:1" d="M 355.321,969.747 375.774,924.821 z" id="boundary" inkscape:connector-curvature="0" />
	<path style="fill:none;stroke:red;stroke-width:1px;stroke-linecap:butt;stroke-linejoin:miter;stroke-opacity:1" d="M 375.774,924.821 390.212,871.185 z" id="boundary" inkscape:connector-curvature="0" />
	<path style="fill:none;stroke:red;stroke-width:1px;stroke-linecap:butt;stroke-linejoin:miter;stroke-opacity:1" d="M 447.964,865.867 455.183,909.517 z" id="boundary" inkscape:connector-curvature="0" />
	<path style="fill:none;stroke:red;stroke-width:1px;stroke-linecap:butt;stroke-linejoin:miter;stroke-opacity:1" d="M 447.964,865.867 435.932,811.725 z" id="boundary" inkscape:connector-curvature="0" />
	<path style="fill:none;stroke:red;stroke-width:1px;stroke-linecap:butt;stroke-linejoin:miter;stroke-opacity:1" d="M 455.183,909.517 470.824,942.869 z" id="boundary" inkscape:connector-curvature="0" />
	<path style="fill:none;stroke:red;stroke-width:1px;stroke-linecap:butt;stroke-linejoin:miter;stroke-opacity:1" d="M 470.824,942.869 509.324,968.135 z" id="boundary" inkscape:connector-curvature="0" />
	<path style="fill:none;stroke:red;stroke-width:1px;stroke-linecap:butt;stroke-linejoin:miter;stroke-opacity:1" d="M 509.324,968.135 562.263,974.151 z" id="boundary" inkscape:connector-curvature="0" />
	<path style="fill:none;stroke:red;stroke-width:1px;stroke-linecap:butt;stroke-linejoin:miter;stroke-opacity:1" d="M 562.263,974.151 666.938,967.63 z" id="boundary" inkscape:connector-curvature="0" />
	<path style="fill:none;stroke:red;stroke-width:1px;stroke-linecap:butt;stroke-linejoin:miter;stroke-opacity:1" d="M 666.938,967.63 747.549,924.629 z" id="boundary" inkscape:connector-curvature="0" />
	<path style="fill:none;stroke:red;stroke-width:1px;stroke-linecap:butt;stroke-linejoin:miter;stroke-opacity:1" d="M 747.549,924.629 806.503,878.861 z" id="boundary" inkscape:connector-curvature="0" />
	<path style="fill:none;stroke:red;stroke-width:1px;stroke-linecap:butt;stroke-linejoin:miter;stroke-opacity:1" d="M 806.503,878.861 834.176,784.654 z" id="boundary" inkscape:connector-curvature="0" />
	<path style="fill:none;stroke:red;stroke-width:1px;stroke-linecap:butt;stroke-linejoin:miter;stroke-opacity:1" d="M 834.176,784.654 789.659,653.077 z" id="boundary" inkscape:connector-curvature="0" />
	<path style="fill:none;stroke:red;stroke-width:1px;stroke-linecap:butt;stroke-linejoin:miter;stroke-opacity:1" d="M 789.659,653.077 636.859,483.072 z" id="boundary" inkscape:connector-curvature="0" />
	<path style="fill:none;stroke:red;stroke-width:1px;stroke-linecap:butt;stroke-linejoin:miter;stroke-opacity:1" d="M 636.859,483.072 536.997,362.78 z" id="boundary" inkscape:connector-curvature="0" />
	<path style="fill:none;stroke:red;stroke-width:1px;stroke-linecap:butt;stroke-linejoin:miter;stroke-opacity:1" d="M 427.51,242.826 404.65,189.695 z" id="boundary" inkscape:connector-curvature="0" />
	<path style="fill:none;stroke:red;stroke-width:1px;stroke-linecap:butt;stroke-linejoin:miter;stroke-opacity:1" d="M 427.51,242.826 314.414,259.478 z" id="boundary" inkscape:connector-curvature="0" />
	<path style="fill:none;stroke:red;stroke-width:1px;stroke-linecap:butt;stroke-linejoin:miter;stroke-opacity:1" d="M 404.65,189.695 403.447,128.743 z" id="boundary" inkscape:connector-curvature="0" />
	<path style="fill:none;stroke:red;stroke-width:1px;stroke-linecap:butt;stroke-linejoin:miter;stroke-opacity:1" d="M 403.447,128.743 355.321,130.139 z" id="boundary" inkscape:connector-curvature="0" />
	<path style="fill:none;stroke:red;stroke-width:1px;stroke-linecap:butt;stroke-linejoin:miter;stroke-opacity:1" d="M 355.321,130.139 390.212,63.1951 z" id="boundary" inkscape:connector-curvature="0" />
	<path style="fill:none;stroke:red;stroke-width:1px;stroke-linecap:butt;stroke-linejoin:miter;stroke-opacity:1" d="M 390.212,63.1951 379.384,4 z" id="boundary" inkscape:connector-curvature="0" />
	<path style="fill:none;stroke:red;stroke-width:1px;stroke-linecap:butt;stroke-linejoin:miter;stroke-opacity:1" d="M 314.414,259.478 212.146,408.669 z" id="boundary" inkscape:connector-curvature="0" />
	<path style="fill:none;stroke:red;stroke-width:1px;stroke-linecap:butt;stroke-linejoin:miter;stroke-opacity:1" d="M 212.146,408.669 159.207,476.045 z" id="boundary" inkscape:connector-curvature="0" />
	<path style="fill:none;stroke:red;stroke-width:1px;stroke-linecap:butt;stroke-linejoin:miter;stroke-opacity:1" d="M 159.207,476.045 101.455,520.321 z" id="boundary" inkscape:connector-curvature="0" />
	<path style="fill:none;stroke:red;stroke-width:1px;stroke-linecap:butt;stroke-linejoin:miter;stroke-opacity:1" d="M 101.455,520.321 67.7671,558.582 z" id="boundary" inkscape:connector-curvature="0" />
	<path style="fill:none;stroke:red;stroke-width:1px;stroke-linecap:butt;stroke-linejoin:miter;stroke-opacity:1" d="M 411.869,725.266 398.634,795.482 z" id="boundary" inkscape:connector-curvature="0" />
	<path style="fill:none;stroke:red;stroke-width:1px;stroke-linecap:butt;stroke-linejoin:miter;stroke-opacity:1" d="M 398.634,795.482 435.932,811.725 z" id="boundary" inkscape:connector-curvature="0" />
	<circle cx="4" cy="705.655" r="4" fill="#0" id="circle0"/>
	<circle cx="8.81261" cy="822.962" r="4" fill="#0" id="circle1"/>
	<circle cx="89.4239" cy="940.944" r="4" fill="#0" id="circle2"/>
	<circle cx="197.708" cy="993.882" r="4" fill="#0" id="circle3"/>
	<circle cx="283.132" cy="996" r="4" fill="#0" id="circle4"/>
	<circle cx="355.321" cy="969.747" r="4" fill="#0" id="circle5"/>
	<circle cx="375.774" cy="924.821" r="4" fill="#0" id="circle6"/>
	<circle cx="390.212" cy="871.185" r="4" fill="#0" id="circle7"/>
	<circle cx="447.964" cy="865.867" r="4" fill="#0" id="circle8"/>
	<circle cx="455.183" cy="909.517" r="4" fill="#0" id="circle9"/>
	<circle cx="470.824" cy="942.869" r="4" fill="#0" id="circle10"/>
	<circle cx="509.324" cy="968.135" r="4" fill="#0" id="circle11"/>
	<circle cx="562.263" cy="974.151" r="4" fill="#0" id="circle12"/>
	<circle cx="666.938" cy="967.63" r="4" fill="#0" id="circle13"/>
	<circle cx="747.549" cy="924.629" r="4" fill="#0" id="circle14"/>
	<circle cx="806.503" cy="878.861" r="4" fill="#0" id="circle15"/>
	<circle cx="834.176" cy="784.654" r="4" fill="#0" id="circle16"/>
	<circle cx="789.659" cy="653.077" r="4" fill="#0" id="circle17"/>
	<circle cx="636.859" cy="483.072" r="4" fill="#0" id="circle18"/>
	<circle cx="536.997" cy="362.78" r="4" fill="#0" id="circle19"/>
	<circle cx="427.51" cy="242.826" r="4" fill="#0" id="circle20"/>
	<circle cx="404.65" cy="189.695" r="4" fill="#0" id="circle21"/>
	<circle cx="403.447" cy="128.743" r="4" fill="#0" id="circle22"/>
	<circle cx="355.321" cy="130.139" r="4" fill="#0" id="circle23"/>
	<circle cx="390.212" cy="63.1951" r="4" fill="#0" id="circle24"/>
	<circle cx="379.384" cy="4" r="4" fill="#0" id="circle25"/>
	<circle cx="314.414" cy="259.478" r="4" fill="#0" id="circle26"/>
	<circle cx="212.146" cy="408.669" r="4" fill="#0" id="circle27"/>
	<circle cx="159.207" cy="476.045" r="4" fill="#0" id="circle28"/>
	<circle cx="101.455" cy="520.321" r="4" fill="#0" id="circle29"/>
	<circle cx="67.7671" cy="558.582" r="4" fill="#0" id="circle30"/>
	<circle cx="411.869" cy="725.266" r="4" fill="#0" id="circle31"/>
	<circle cx="398.634" cy="795.482" r="4" fill="#0" id="circle32"/>
	<circle cx="435.932" cy="811.725" r="4" fill="#0" id="circle33"/>
	</g>
</svg>