<?xml version="1.0" encoding="UTF-8" standalone="no"?>
<!-- Created with CurveBenchmark -->
<svg
	xmlns:dc="http://purl.org/dc/elements/1.1/"
	xmlns:cc="http://creativecommons.org/ns#"
	xmlns:rdf="http://www.w3.org/1999/02/22-rdf-syntax-ns#"
	xmlns:svg="http://www.w3.org/2000/svg"
	xmlns="http://www.w3.org/2000/svg"
	xmlns:sodipodi="http://sodipodi.sourceforge.net/DTD/sodipodi-0.dtd"
	xmlns:inkscape="http://www.inkscape.org/namespaces/inkscape"
	width="1000"
	height="1000"
	id="svg2"
	version="1.1"
	sodipodi:docname="sharp-corners/nncrust-sc6.txt">
<defs
	id="defs4" />
<metadata
	id="metadata7">
	<rdf:RDF>
		<cc:Work
			rdf:about="">
			<dc:format>image/svg+xml</dc:format>
			<dc:type
				rdf:resource="http://purl.org/dc/dcmitype/StillImage" />
			<dc:title></dc:title>
		</cc:Work>
	</rdf:RDF>
</metadata>
<g
	inkscape:label="Layer 1"
	inkscape:groupmode="layer"
	id="layer1">
	<path style="fill:none;stroke:red;stroke-width:1px;stroke-linecap:butt;stroke-linejoin:miter;stroke-opacity:1" d="M 65.1753,247.502 92.7642,183.927 z" id="boundary" inkscape:connector-curvature="0" />
	<path style="fill:none;stroke:red;stroke-width:1px;stroke-linecap:butt;stroke-linejoin:miter;stroke-opacity:1" d="M 92.7642,183.927 233.108,68.7739 z" id="boundary" inkscape:connector-curvature="0" />
	<path style="fill:none;stroke:red;stroke-width:1px;stroke-linecap:butt;stroke-linejoin:miter;stroke-opacity:1" d="M 125.151,309.877 197.122,302.68 z" id="boundary" inkscape:connector-curvature="0" />
	<path style="fill:none;stroke:red;stroke-width:1px;stroke-linecap:butt;stroke-linejoin:miter;stroke-opacity:1" d="M 227.11,263.096 197.122,302.68 z" id="boundary" inkscape:connector-curvature="0" />
	<path style="fill:none;stroke:red;stroke-width:1px;stroke-linecap:butt;stroke-linejoin:miter;stroke-opacity:1" d="M 252.3,251.1 227.11,263.096 z" id="boundary" inkscape:connector-curvature="0" />
	<path style="fill:none;stroke:red;stroke-width:1px;stroke-linecap:butt;stroke-linejoin:miter;stroke-opacity:1" d="M 252.3,251.1 270.293,283.487 z" id="boundary" inkscape:connector-curvature="0" />
	<path style="fill:none;stroke:red;stroke-width:1px;stroke-linecap:butt;stroke-linejoin:miter;stroke-opacity:1" d="M 233.108,68.7739 367.453,24.3918 z" id="boundary" inkscape:connector-curvature="0" />
	<path style="fill:none;stroke:red;stroke-width:1px;stroke-linecap:butt;stroke-linejoin:miter;stroke-opacity:1" d="M 125.151,309.877 96.3628,319.473 z" id="boundary" inkscape:connector-curvature="0" />
	<path style="fill:none;stroke:red;stroke-width:1px;stroke-linecap:butt;stroke-linejoin:miter;stroke-opacity:1" d="M 96.3628,319.473 65.1753,247.502 z" id="boundary" inkscape:connector-curvature="0" />
	<path style="fill:none;stroke:red;stroke-width:1px;stroke-linecap:butt;stroke-linejoin:miter;stroke-opacity:1" d="M 488.605,245.103 438.225,261.896 z" id="boundary" inkscape:connector-curvature="0" />
	<path style="fill:none;stroke:red;stroke-width:1px;stroke-linecap:butt;stroke-linejoin:miter;stroke-opacity:1" d="M 367.453,24.3918 542.583,4 z" id="boundary" inkscape:connector-curvature="0" />
	<path style="fill:none;stroke:red;stroke-width:1px;stroke-linecap:butt;stroke-linejoin:miter;stroke-opacity:1" d="M 542.583,4 488.605,245.103 z" id="boundary" inkscape:connector-curvature="0" />
	<path style="fill:none;stroke:red;stroke-width:1px;stroke-linecap:butt;stroke-linejoin:miter;stroke-opacity:1" d="M 488.605,245.103 492.203,284.687 z" id="boundary" inkscape:connector-curvature="0" />
	<path style="fill:none;stroke:red;stroke-width:1px;stroke-linecap:butt;stroke-linejoin:miter;stroke-opacity:1" d="M 438.225,261.896 387.845,284.687 z" id="boundary" inkscape:connector-curvature="0" />
	<path style="fill:none;stroke:red;stroke-width:1px;stroke-linecap:butt;stroke-linejoin:miter;stroke-opacity:1" d="M 270.293,283.487 276.29,317.074 z" id="boundary" inkscape:connector-curvature="0" />
	<path style="fill:none;stroke:red;stroke-width:1px;stroke-linecap:butt;stroke-linejoin:miter;stroke-opacity:1" d="M 387.845,284.687 366.254,301.48 z" id="boundary" inkscape:connector-curvature="0" />
	<path style="fill:none;stroke:red;stroke-width:1px;stroke-linecap:butt;stroke-linejoin:miter;stroke-opacity:1" d="M 359.057,326.67 366.254,301.48 z" id="boundary" inkscape:connector-curvature="0" />
	<path style="fill:none;stroke:red;stroke-width:1px;stroke-linecap:butt;stroke-linejoin:miter;stroke-opacity:1" d="M 492.203,284.687 492.203,331.468 z" id="boundary" inkscape:connector-curvature="0" />
	<path style="fill:none;stroke:red;stroke-width:1px;stroke-linecap:butt;stroke-linejoin:miter;stroke-opacity:1" d="M 276.29,317.074 291.884,342.264 z" id="boundary" inkscape:connector-curvature="0" />
	<path style="fill:none;stroke:red;stroke-width:1px;stroke-linecap:butt;stroke-linejoin:miter;stroke-opacity:1" d="M 342.264,359.057 291.884,342.264 z" id="boundary" inkscape:connector-curvature="0" />
	<path style="fill:none;stroke:red;stroke-width:1px;stroke-linecap:butt;stroke-linejoin:miter;stroke-opacity:1" d="M 359.057,326.67 342.264,359.057 z" id="boundary" inkscape:connector-curvature="0" />
	<path style="fill:none;stroke:red;stroke-width:1px;stroke-linecap:butt;stroke-linejoin:miter;stroke-opacity:1" d="M 4,384.247 38.786,363.855 z" id="boundary" inkscape:connector-curvature="0" />
	<path style="fill:none;stroke:red;stroke-width:1px;stroke-linecap:butt;stroke-linejoin:miter;stroke-opacity:1" d="M 324.271,387.845 342.264,359.057 z" id="boundary" inkscape:connector-curvature="0" />
	<path style="fill:none;stroke:red;stroke-width:1px;stroke-linecap:butt;stroke-linejoin:miter;stroke-opacity:1" d="M 38.786,363.855 96.3628,319.473 z" id="boundary" inkscape:connector-curvature="0" />
	<path style="fill:none;stroke:red;stroke-width:1px;stroke-linecap:butt;stroke-linejoin:miter;stroke-opacity:1" d="M 492.203,331.468 493.403,353.059 z" id="boundary" inkscape:connector-curvature="0" />
	<path style="fill:none;stroke:red;stroke-width:1px;stroke-linecap:butt;stroke-linejoin:miter;stroke-opacity:1" d="M 493.403,353.059 495.802,387.845 z" id="boundary" inkscape:connector-curvature="0" />
	<path style="fill:none;stroke:red;stroke-width:1px;stroke-linecap:butt;stroke-linejoin:miter;stroke-opacity:1" d="M 495.802,387.845 500.6,443.023 z" id="boundary" inkscape:connector-curvature="0" />
	<path style="fill:none;stroke:red;stroke-width:1px;stroke-linecap:butt;stroke-linejoin:miter;stroke-opacity:1" d="M 499.4,831.666 495.802,910.834 z" id="boundary" inkscape:connector-curvature="0" />
	<path style="fill:none;stroke:red;stroke-width:1px;stroke-linecap:butt;stroke-linejoin:miter;stroke-opacity:1" d="M 497.001,733.306 499.4,831.666 z" id="boundary" inkscape:connector-curvature="0" />
	<path style="fill:none;stroke:red;stroke-width:1px;stroke-linecap:butt;stroke-linejoin:miter;stroke-opacity:1" d="M 500.6,443.023 500.6,507.797 z" id="boundary" inkscape:connector-curvature="0" />
	<path style="fill:none;stroke:red;stroke-width:1px;stroke-linecap:butt;stroke-linejoin:miter;stroke-opacity:1" d="M 500.6,507.797 324.271,387.845 z" id="boundary" inkscape:connector-curvature="0" />
	<path style="fill:none;stroke:red;stroke-width:1px;stroke-linecap:butt;stroke-linejoin:miter;stroke-opacity:1" d="M 626.549,848.459 499.4,831.666 z" id="boundary" inkscape:connector-curvature="0" />
	<path style="fill:none;stroke:red;stroke-width:1px;stroke-linecap:butt;stroke-linejoin:miter;stroke-opacity:1" d="M 542.583,4 698.52,27.9903 z" id="boundary" inkscape:connector-curvature="0" />
	<path style="fill:none;stroke:red;stroke-width:1px;stroke-linecap:butt;stroke-linejoin:miter;stroke-opacity:1" d="M 657.736,252.3 608.556,247.502 z" id="boundary" inkscape:connector-curvature="0" />
	<path style="fill:none;stroke:red;stroke-width:1px;stroke-linecap:butt;stroke-linejoin:miter;stroke-opacity:1" d="M 608.556,247.502 600.16,265.495 z" id="boundary" inkscape:connector-curvature="0" />
	<path style="fill:none;stroke:red;stroke-width:1px;stroke-linecap:butt;stroke-linejoin:miter;stroke-opacity:1" d="M 592.963,297.881 600.16,265.495 z" id="boundary" inkscape:connector-curvature="0" />
	<path style="fill:none;stroke:red;stroke-width:1px;stroke-linecap:butt;stroke-linejoin:miter;stroke-opacity:1" d="M 594.162,335.067 592.963,297.881 z" id="boundary" inkscape:connector-curvature="0" />
	<path style="fill:none;stroke:red;stroke-width:1px;stroke-linecap:butt;stroke-linejoin:miter;stroke-opacity:1" d="M 693.722,248.701 657.736,252.3 z" id="boundary" inkscape:connector-curvature="0" />
	<path style="fill:none;stroke:red;stroke-width:1px;stroke-linecap:butt;stroke-linejoin:miter;stroke-opacity:1" d="M 693.722,248.701 718.912,287.086 z" id="boundary" inkscape:connector-curvature="0" />
	<path style="fill:none;stroke:red;stroke-width:1px;stroke-linecap:butt;stroke-linejoin:miter;stroke-opacity:1" d="M 698.52,27.9903 860.455,85.5671 z" id="boundary" inkscape:connector-curvature="0" />
	<path style="fill:none;stroke:red;stroke-width:1px;stroke-linecap:butt;stroke-linejoin:miter;stroke-opacity:1" d="M 860.455,85.5671 942.022,169.533 z" id="boundary" inkscape:connector-curvature="0" />
	<path style="fill:none;stroke:red;stroke-width:1px;stroke-linecap:butt;stroke-linejoin:miter;stroke-opacity:1" d="M 810.075,247.502 766.892,266.694 z" id="boundary" inkscape:connector-curvature="0" />
	<path style="fill:none;stroke:red;stroke-width:1px;stroke-linecap:butt;stroke-linejoin:miter;stroke-opacity:1" d="M 882.046,259.497 942.022,169.533 z" id="boundary" inkscape:connector-curvature="0" />
	<path style="fill:none;stroke:red;stroke-width:1px;stroke-linecap:butt;stroke-linejoin:miter;stroke-opacity:1" d="M 945.62,279.889 882.046,259.497 z" id="boundary" inkscape:connector-curvature="0" />
	<path style="fill:none;stroke:red;stroke-width:1px;stroke-linecap:butt;stroke-linejoin:miter;stroke-opacity:1" d="M 882.046,259.497 810.075,247.502 z" id="boundary" inkscape:connector-curvature="0" />
	<path style="fill:none;stroke:red;stroke-width:1px;stroke-linecap:butt;stroke-linejoin:miter;stroke-opacity:1" d="M 759.695,320.672 763.294,295.482 z" id="boundary" inkscape:connector-curvature="0" />
	<path style="fill:none;stroke:red;stroke-width:1px;stroke-linecap:butt;stroke-linejoin:miter;stroke-opacity:1" d="M 718.912,287.086 722.51,319.473 z" id="boundary" inkscape:connector-curvature="0" />
	<path style="fill:none;stroke:red;stroke-width:1px;stroke-linecap:butt;stroke-linejoin:miter;stroke-opacity:1" d="M 766.892,266.694 763.294,295.482 z" id="boundary" inkscape:connector-curvature="0" />
	<path style="fill:none;stroke:red;stroke-width:1px;stroke-linecap:butt;stroke-linejoin:miter;stroke-opacity:1" d="M 996,308.677 945.62,279.889 z" id="boundary" inkscape:connector-curvature="0" />
	<path style="fill:none;stroke:red;stroke-width:1px;stroke-linecap:butt;stroke-linejoin:miter;stroke-opacity:1" d="M 596.561,407.037 586.965,371.052 z" id="boundary" inkscape:connector-curvature="0" />
	<path style="fill:none;stroke:red;stroke-width:1px;stroke-linecap:butt;stroke-linejoin:miter;stroke-opacity:1" d="M 600.16,441.823 596.561,407.037 z" id="boundary" inkscape:connector-curvature="0" />
	<path style="fill:none;stroke:red;stroke-width:1px;stroke-linecap:butt;stroke-linejoin:miter;stroke-opacity:1" d="M 596.561,407.037 740.503,351.86 z" id="boundary" inkscape:connector-curvature="0" />
	<path style="fill:none;stroke:red;stroke-width:1px;stroke-linecap:butt;stroke-linejoin:miter;stroke-opacity:1" d="M 500.6,507.797 504.198,589.364 z" id="boundary" inkscape:connector-curvature="0" />
	<path style="fill:none;stroke:red;stroke-width:1px;stroke-linecap:butt;stroke-linejoin:miter;stroke-opacity:1" d="M 596.561,489.804 600.16,441.823 z" id="boundary" inkscape:connector-curvature="0" />
	<path style="fill:none;stroke:red;stroke-width:1px;stroke-linecap:butt;stroke-linejoin:miter;stroke-opacity:1" d="M 596.561,489.804 600.16,553.378 z" id="boundary" inkscape:connector-curvature="0" />
	<path style="fill:none;stroke:red;stroke-width:1px;stroke-linecap:butt;stroke-linejoin:miter;stroke-opacity:1" d="M 586.965,371.052 594.162,335.067 z" id="boundary" inkscape:connector-curvature="0" />
	<path style="fill:none;stroke:red;stroke-width:1px;stroke-linecap:butt;stroke-linejoin:miter;stroke-opacity:1" d="M 740.503,351.86 722.51,319.473 z" id="boundary" inkscape:connector-curvature="0" />
	<path style="fill:none;stroke:red;stroke-width:1px;stroke-linecap:butt;stroke-linejoin:miter;stroke-opacity:1" d="M 759.695,320.672 740.503,351.86 z" id="boundary" inkscape:connector-curvature="0" />
	<path style="fill:none;stroke:red;stroke-width:1px;stroke-linecap:butt;stroke-linejoin:miter;stroke-opacity:1" d="M 600.16,553.378 603.758,643.342 z" id="boundary" inkscape:connector-curvature="0" />
	<path style="fill:none;stroke:red;stroke-width:1px;stroke-linecap:butt;stroke-linejoin:miter;stroke-opacity:1" d="M 603.758,643.342 504.198,589.364 z" id="boundary" inkscape:connector-curvature="0" />
	<path style="fill:none;stroke:red;stroke-width:1px;stroke-linecap:butt;stroke-linejoin:miter;stroke-opacity:1" d="M 626.549,848.459 626.549,910.834 z" id="boundary" inkscape:connector-curvature="0" />
	<path style="fill:none;stroke:red;stroke-width:1px;stroke-linecap:butt;stroke-linejoin:miter;stroke-opacity:1" d="M 497.001,733.306 603.758,643.342 z" id="boundary" inkscape:connector-curvature="0" />
	<circle cx="542.583" cy="4" r="4" fill="#0" id="circle0"/>
	<circle cx="698.52" cy="27.9903" r="4" fill="#0" id="circle1"/>
	<circle cx="860.455" cy="85.5671" r="4" fill="#0" id="circle2"/>
	<circle cx="942.022" cy="169.533" r="4" fill="#0" id="circle3"/>
	<circle cx="996" cy="308.677" r="4" fill="#0" id="circle4"/>
	<circle cx="945.62" cy="279.889" r="4" fill="#0" id="circle5"/>
	<circle cx="882.046" cy="259.497" r="4" fill="#0" id="circle6"/>
	<circle cx="810.075" cy="247.502" r="4" fill="#0" id="circle7"/>
	<circle cx="766.892" cy="266.694" r="4" fill="#0" id="circle8"/>
	<circle cx="763.294" cy="295.482" r="4" fill="#0" id="circle9"/>
	<circle cx="759.695" cy="320.672" r="4" fill="#0" id="circle10"/>
	<circle cx="740.503" cy="351.86" r="4" fill="#0" id="circle11"/>
	<circle cx="722.51" cy="319.473" r="4" fill="#0" id="circle12"/>
	<circle cx="718.912" cy="287.086" r="4" fill="#0" id="circle13"/>
	<circle cx="693.722" cy="248.701" r="4" fill="#0" id="circle14"/>
	<circle cx="657.736" cy="252.3" r="4" fill="#0" id="circle15"/>
	<circle cx="608.556" cy="247.502" r="4" fill="#0" id="circle16"/>
	<circle cx="600.16" cy="265.495" r="4" fill="#0" id="circle17"/>
	<circle cx="592.963" cy="297.881" r="4" fill="#0" id="circle18"/>
	<circle cx="594.162" cy="335.067" r="4" fill="#0" id="circle19"/>
	<circle cx="586.965" cy="371.052" r="4" fill="#0" id="circle20"/>
	<circle cx="596.561" cy="407.037" r="4" fill="#0" id="circle21"/>
	<circle cx="600.16" cy="441.823" r="4" fill="#0" id="circle22"/>
	<circle cx="596.561" cy="489.804" r="4" fill="#0" id="circle23"/>
	<circle cx="600.16" cy="553.378" r="4" fill="#0" id="circle24"/>
	<circle cx="603.758" cy="643.342" r="4" fill="#0" id="circle25"/>
	<circle cx="626.549" cy="848.459" r="4" fill="#0" id="circle26"/>
	<circle cx="626.549" cy="910.834" r="4" fill="#0" id="circle27"/>
	<circle cx="495.802" cy="910.834" r="4" fill="#0" id="circle28"/>
	<circle cx="499.4" cy="831.666" r="4" fill="#0" id="circle29"/>
	<circle cx="497.001" cy="733.306" r="4" fill="#0" id="circle30"/>
	<circle cx="504.198" cy="589.364" r="4" fill="#0" id="circle31"/>
	<circle cx="500.6" cy="507.797" r="4" fill="#0" id="circle32"/>
	<circle cx="500.6" cy="443.023" r="4" fill="#0" id="circle33"/>
	<circle cx="495.802" cy="387.845" r="4" fill="#0" id="circle34"/>
	<circle cx="493.403" cy="353.059" r="4" fill="#0" id="circle35"/>
	<circle cx="492.203" cy="331.468" r="4" fill="#0" id="circle36"/>
	<circle cx="492.203" cy="284.687" r="4" fill="#0" id="circle37"/>
	<circle cx="488.605" cy="245.103" r="4" fill="#0" id="circle38"/>
	<circle cx="438.225" cy="261.896" r="4" fill="#0" id="circle39"/>
	<circle cx="387.845" cy="284.687" r="4" fill="#0" id="circle40"/>
	<circle cx="366.254" cy="301.48" r="4" fill="#0" id="circle41"/>
	<circle cx="359.057" cy="326.67" r="4" fill="#0" id="circle42"/>
	<circle cx="342.264" cy="359.057" r="4" fill="#0" id="circle43"/>
	<circle cx="324.271" cy="387.845" r="4" fill="#0" id="circle44"/>
	<circle cx="291.884" cy="342.264" r="4" fill="#0" id="circle45"/>
	<circle cx="276.29" cy="317.074" r="4" fill="#0" id="circle46"/>
	<circle cx="270.293" cy="283.487" r="4" fill="#0" id="circle47"/>
	<circle cx="252.3" cy="251.1" r="4" fill="#0" id="circle48"/>
	<circle cx="227.11" cy="263.096" r="4" fill="#0" id="circle49"/>
	<circle cx="197.122" cy="302.68" r="4" fill="#0" id="circle50"/>
	<circle cx="125.151" cy="309.877" r="4" fill="#0" id="circle51"/>
	<circle cx="96.3628" cy="319.473" r="4" fill="#0" id="circle52"/>
	<circle cx="38.786" cy="363.855" r="4" fill="#0" id="circle53"/>
	<circle cx="4" cy="384.247" r="4" fill="#0" id="circle54"/>
	<circle cx="65.1753" cy="247.502" r="4" fill="#0" id="circle55"/>
	<circle cx="92.7642" cy="183.927" r="4" fill="#0" id="circle56"/>
	<circle cx="233.108" cy="68.7739" r="4" fill="#0" id="circle57"/>
	<circle cx="367.453" cy="24.3918" r="4" fill="#0" id="circle58"/>
	</g>
</svg>