32 169
24 177
34 180
44 180
53 175
63 173
73 170
82 165
91 160
101 160
110 155
119 150
128 145
137 140
146 135
155 130
165 125
174 130
183 135
184 145
184 155
178 164
170 171
162 179
154 187
154 197
154 207
154 217
154 227
154 237
159 246
159 256
159 266
164 275
167 285
169 295
174 304
176 314
181 323
189 330
192 340
200 347
204 357
212 364
219 372
225 380
234 385
240 393
248 400
257 405
267 409
276 414
286 418
295 423
305 427
315 430
325 432
335 435
344 440
349 449
349 459
349 469
354 478
354 488
354 498
354 508
354 518
354 528
354 538
349 547
349 557
349 567
349 577
343 589
333 590
323 589
313 589
303 585
293 584
284 589
282 599
279 612
284 625
294 625
304 625
314 622
324 620
334 620
343 615
353 615
363 615
373 613
373 601
365 595
365 585
365 575
365 565
365 555
365 545
370 535
370 525
370 515
370 505
370 495
370 485
375 474
370 465
375 455
383 448
390 440
398 433
405 425
415 425
424 420
434 420
444 420
454 417
462 410
472 409
482 404
492 400
502 399
510 390
520 390
529 385
539 382
547 375
556 370
566 370
576 370
585 365
594 360
604 360
614 360
624 360
634 360
644 360
654 360
660 352
652 345
645 337
645 327
645 317
639 309
629 309
619 309
609 307
602 299
593 294
583 294
574 289
564 286
554 284
545 279
535 279
529 271
519 269
509 267
502 259
492 259
483 254
475 247
465 244
456 239
447 234
438 229
429 224
420 219
410 219
401 214
392 209
382 205
374 199
364 196
354 194
345 189
336 184
326 184
317 179
307 179
298 174
289 169
283 161
280 151
280 141
280 131
280 121
280 111
279 101
274 92
270 82
260 78
255 69
249 61
239 59
230 54
220 54
210 54
200 54
190 54
181 59
172 64
162 69
154 77
154 87
153 104
145 111
135 116
125 121
115 126
108 134
98 134
89 139
81 145
71 150
61 155
51 159
42 164
