105 80
99 72
109 67
119 64
129 64
138 59
148 59
157 54
167 54
175 46
183 39
190 31
200 26
210 24
220 24
230 24
240 24
250 27
258 34
265 42
270 51
275 60
275 70
280 79
280 89
285 98
285 108
285 118
285 128
285 138
285 148
285 158
285 168
280 180
275 195
270 210
270 220
275 229
275 239
280 248
280 258
285 267
290 276
295 285
300 294
309 299
318 304
328 304
337 299
347 294
357 294
366 289
376 289
385 284
395 284
404 279
414 279
424 279
434 279
444 281
454 284
464 284
473 289
483 289
493 290
503 294
513 294
522 299
531 304
540 309
550 309
559 314
568 319
577 324
586 329
595 334
605 334
614 339
622 345
630 352
639 357
649 361
655 369
663 375
670 383
678 390
685 398
693 405
700 413
705 422
712 430
717 439
720 449
730 452
737 460
742 469
749 477
750 487
754 497
755 507
755 517
754 527
745 533
736 528
726 525
717 520
708 515
699 510
690 505
682 499
672 495
662 495
652 495
643 490
633 490
624 485
614 485
604 485
594 485
584 485
574 485
564 485
555 490
555 500
560 509
560 519
568 525
572 535
577 544
580 554
588 560
590 570
595 579
600 588
608 595
610 605
615 614
610 625
610 635
610 645
612 655
615 665
615 675
615 685
617 695
620 705
620 715
620 725
615 735
615 745
615 755
615 765
615 775
620 784
629 789
639 791
630 800
620 805
610 805
600 810
590 810
580 815
570 815
560 812
550 810
540 810
534 802
544 799
553 794
563 794
573 794
582 789
590 781
594 767
599 752
599 742
599 732
599 722
599 705
599 695
599 685
599 675
597 665
594 655
594 645
594 635
594 625
594 615
594 605
589 596
584 587
580 577
574 569
569 560
564 551
559 542
554 533
547 525
540 517
532 510
529 500
520 495
510 495
500 495
495 505
495 515
495 525
495 535
495 545
495 555
495 565
497 575
500 585
505 594
505 604
505 614
505 624
500 635
495 645
495 655
495 665
495 675
490 690
490 700
485 710
480 720
480 730
478 743
470 750
465 765
465 775
470 784
475 793
477 809
467 814
459 820
449 822
439 825
429 825
420 830
414 822
422 815
429 805
419 805
409 805
399 805
397 794
406 789
416 785
426 784
435 779
445 779
451 770
454 752
459 737
464 727
464 717
469 702
474 687
479 677
479 667
479 657
479 647
479 637
484 627
489 610
487 600
484 590
482 580
479 570
479 560
479 550
479 540
474 531
469 522
469 512
465 502
457 495
448 490
439 485
429 485
420 480
411 475
402 470
392 469
382 465
373 460
363 460
354 455
345 450
335 447
327 440
317 439
307 435
300 427
292 420
289 410
284 401
279 392
274 383
270 373
269 363
264 354
259 345
259 335
251 328
246 319
244 309
239 300
234 291
234 281
234 271
234 261
229 252
229 242
229 232
229 222
229 212
234 202
239 192
244 177
249 161
249 151
249 141
249 131
249 121
244 112
240 102
232 95
222 95
213 90
203 90
194 85
185 80
175 80
165 80
155 80
145 80
135 80
125 80
115 80
