24 137
24 127
34 124
43 119
52 114
62 109
70 101
75 91
85 89
94 82
104 77
114 74
124 72
134 74
143 79
152 84
161 89
171 89
179 96
183 106
188 115
195 123
203 130
212 135
220 142
224 152
234 156
244 159
253 164
262 169
265 179
275 179
283 185
292 190
302 194
309 202
317 209
324 217
334 221
340 229
348 235
355 243
360 252
367 260
377 264
386 269
395 274
400 283
408 290
415 298
425 302
433 309
442 314
450 320
455 329
463 335
472 340
477 349
486 354
495 359
503 365
510 373
520 374
530 377
538 384
547 389
556 394
565 399
575 402
575 412
577 424
567 420
564 410
555 405
545 402
535 400
520 395
525 404
533 410
542 415
550 422
558 429
565 437
574 442
584 446
585 456
575 458
568 450
559 445
550 440
540 437
530 433
524 425
515 430
517 440
527 444
530 454
538 460
545 468
550 477
558 484
565 492
574 497
575 507
580 516
574 525
564 521
556 515
547 510
540 502
532 495
529 485
519 482
510 477
502 470
495 462
487 455
484 445
475 440
466 435
457 430
447 430
437 430
427 430
418 425
409 420
399 417
395 407
385 405
375 402
365 400
355 400
348 408
338 410
329 415
320 420
318 433
310 440
304 450
298 458
290 465
285 480
278 488
270 495
272 505
280 512
290 514
299 509
309 511
318 516
325 524
315 530
305 530
295 530
285 530
275 530
265 530
255 530
245 530
235 530
225 530
215 530
205 530
195 530
185 530
179 522
187 514
197 514
207 514
217 514
226 509
235 514
245 511
253 504
260 496
264 482
272 474
274 462
279 452
282 439
272 440
263 435
253 435
244 430
234 427
227 419
219 412
215 402
205 398
199 390
189 387
182 379
177 370
174 360
166 354
164 344
162 334
157 325
154 315
149 306
144 297
139 288
134 279
132 269
122 265
115 257
107 250
104 240
99 231
99 221
94 212
89 203
89 193
89 183
89 173
89 163
89 153
83 145
74 140
64 140
54 140
44 140
34 140
