200 100
194 92
204 89
213 84
223 84
233 84
243 84
252 79
262 79
271 74
279 67
287 59
297 54
306 49
314 37
322 29
331 24
341 24
351 24
361 24
371 24
381 24
391 24
399 31
405 39
410 48
415 57
415 67
415 77
415 87
415 97
415 107
415 117
410 130
410 140
410 150
405 165
405 175
400 185
400 195
395 210
395 220
390 230
395 239
400 248
410 249
420 249
430 249
440 246
450 244
459 239
469 239
479 239
489 239
499 239
509 239
519 239
529 241
539 244
549 246
559 249
568 254
578 254
587 259
597 259
606 264
616 264
625 269
633 275
643 279
652 284
661 289
670 294
680 297
689 302
699 306
705 314
715 314
723 320
732 325
740 332
750 334
760 337
769 342
779 344
789 344
799 344
808 349
818 350
828 354
838 354
848 354
858 354
868 354
878 354
888 355
897 360
907 364
914 372
920 380
915 390
905 390
895 390
885 390
875 390
865 390
855 390
845 390
835 390
825 390
815 390
805 390
798 398
788 400
778 400
768 403
760 410
750 410
742 419
732 420
723 425
714 430
705 435
696 440
687 445
677 449
668 455
658 458
650 465
650 475
652 485
660 492
665 501
671 509
675 519
683 525
687 535
692 544
700 550
705 559
710 568
715 577
722 585
727 594
735 600
737 610
745 617
745 627
740 640
735 650
735 660
730 675
725 685
725 695
720 710
715 725
715 735
710 745
705 760
700 775
695 790
690 805
690 815
685 830
685 840
680 850
675 865
670 875
665 890
660 900
660 910
660 920
660 930
660 940
660 950
660 960
650 962
645 953
638 945
628 948
620 955
613 963
605 970
599 982
594 992
584 991
579 982
584 966
579 957
579 947
589 942
597 934
607 929
617 929
625 921
633 914
639 902
647 894
652 884
657 874
659 862
664 847
669 832
674 817
679 802
679 792
684 782
689 767
689 757
694 747
694 737
699 727
699 717
704 707
704 697
704 687
704 677
709 667
709 657
714 642
714 632
714 622
714 612
710 602
705 593
699 585
691 579
687 569
682 560
675 552
670 543
664 535
659 526
654 517
647 509
642 500
638 490
630 483
624 475
615 470
605 470
595 470
585 475
575 475
565 475
555 475
545 475
535 480
525 480
525 490
520 500
520 510
520 520
525 529
525 539
525 549
530 558
530 568
530 578
530 588
530 598
530 608
530 618
530 628
530 638
530 648
535 657
535 667
539 677
540 687
545 696
545 706
550 715
545 725
545 735
540 745
540 755
535 770
535 780
530 790
530 800
530 810
530 820
525 830
525 840
520 850
520 860
520 870
520 880
515 895
515 905
515 915
515 925
510 935
505 945
505 955
500 970
500 980
495 990
495 1000
495 1010
490 1020
490 1030
485 1040
480 1050
475 1060
466 1065
457 1070
448 1075
439 1080
429 1080
424 1065
422 1055
412 1055
402 1055
392 1054
392 1039
402 1039
411 1034
421 1030
431 1029
440 1034
450 1034
459 1029
468 1024
472 1014
474 1002
479 992
479 982
484 967
489 957
489 947
489 937
489 927
494 912
494 897
499 882
499 872
504 857
504 847
504 837
504 827
509 817
509 807
514 792
514 782
519 772
519 762
524 752
524 742
524 732
529 715
527 705
524 695
519 686
514 677
514 667
514 657
514 647
514 637
514 627
514 617
514 607
514 597
514 587
509 578
505 568
504 558
504 548
504 538
504 528
504 518
504 508
504 498
504 488
500 478
493 470
483 470
474 465
465 460
455 457
445 453
439 445
430 440
422 434
414 427
410 417
402 410
395 402
390 393
384 385
384 375
376 368
371 359
364 351
359 342
352 334
347 325
344 315
339 306
334 297
334 287
334 277
334 267
339 257
339 247
339 237
344 222
349 207
349 197
349 187
349 177
349 167
354 150
354 140
352 130
345 122
337 115
327 115
318 110
308 110
299 105
289 105
280 100
270 100
260 100
250 100
240 100
230 100
220 100
210 100
