30 125
24 117
34 114
44 114
54 114
63 119
73 119
83 119
92 114
102 114
112 114
122 114
132 114
141 119
151 119
161 119
170 124
180 127
189 132
197 139
206 144
215 149
223 155
230 163
240 167
247 175
255 182
262 190
272 194
279 202
289 204
298 209
308 210
318 214
327 219
336 224
344 231
353 236
363 240
372 245
380 252
389 257
397 264
406 269
416 269
425 274
435 274
444 279
454 279
464 281
474 284
483 289
493 290
503 294
513 295
522 300
532 304
541 309
551 305
561 309
571 309
580 314
590 314
599 319
609 319
619 319
628 324
638 325
648 329
658 330
668 334
678 334
688 335
698 339
707 344
710 354
710 364
702 370
692 370
682 370
672 369
662 365
652 365
642 365
632 365
622 365
612 365
602 364
592 360
583 355
574 360
564 360
554 360
544 360
535 355
526 360
516 360
507 365
498 370
488 373
478 375
468 375
459 380
450 385
452 395
460 402
467 410
475 417
482 425
490 432
497 440
505 447
512 455
507 470
498 465
489 460
479 460
470 455
460 452
450 450
440 447
430 445
420 445
410 442
400 440
390 440
388 453
380 460
378 473
373 483
365 490
360 505
355 520
350 535
345 545
345 555
345 565
347 575
350 585
350 595
350 605
350 615
342 624
332 624
324 617
317 609
309 602
309 592
309 582
309 572
317 564
322 554
329 542
334 527
339 517
344 507
344 497
349 487
354 477
359 467
359 457
362 439
352 435
345 427
335 425
325 425
320 440
315 455
305 460
297 470
287 474
277 475
267 475
257 475
247 475
238 480
228 480
219 485
209 487
199 490
189 490
179 490
170 495
161 500
152 505
143 510
134 515
124 512
124 502
124 492
129 477
137 469
147 464
157 464
166 469
175 474
185 474
194 469
204 467
214 464
224 464
234 464
243 459
253 459
263 459
273 459
282 454
292 449
286 435
277 430
267 430
258 425
248 425
238 425
229 420
219 417
210 412
200 408
193 400
184 395
175 390
165 388
159 380
149 376
141 370
132 365
123 360
115 353
109 345
99 341
94 332
90 322
84 314
84 304
84 294
84 284
84 274
84 264
84 254
84 244
84 234
84 224
84 214
84 204
84 194
84 184
79 175
77 165
70 157
62 150
55 142
45 138
39 130
