369 2252
375 2260
385 2260
394 2265
404 2265
414 2265
424 2267
434 2270
444 2270
454 2270
463 2275
473 2275
483 2275
492 2280
502 2279
512 2280
522 2280
532 2284
542 2284
552 2285
562 2285
572 2289
582 2289
592 2290
602 2290
612 2290
622 2290
632 2290
641 2295
651 2295
661 2295
671 2298
681 2298
691 2298
701 2300
711 2300
721 2300
731 2303
741 2303
751 2305
761 2305
771 2305
781 2305
791 2305
800 2310
810 2310
820 2310
830 2310
840 2310
850 2310
859 2315
869 2315
879 2315
889 2315
899 2317
909 2320
919 2320
929 2320
939 2320
949 2322
959 2325
969 2325
979 2325
989 2325
999 2325
1008 2330
1018 2330
1028 2330
1038 2330
1047 2335
1057 2335
1067 2335
1077 2335
1087 2335
1097 2339
1107 2339
1117 2340
1127 2340
1137 2340
1147 2344
1157 2340
1166 2345
1176 2345
1186 2345
1196 2345
1205 2350
1215 2350
1225 2350
1235 2350
1245 2350
1255 2350
1265 2350
1274 2355
1284 2355
1294 2355
1304 2355
1314 2355
1324 2355
1334 2355
1343 2360
1353 2360
1363 2360
1373 2360
1383 2360
1392 2365
1402 2364
1412 2365
1422 2365
1432 2365
1442 2365
1452 2365
1462 2365
1472 2365
1482 2365
1492 2365
1502 2365
1512 2365
1522 2365
1532 2369
1542 2369
1552 2369
1562 2365
1572 2365
1582 2365
1592 2365
1602 2365
1612 2365
1622 2369
1632 2365
1642 2365
1652 2365
1662 2365
1672 2365
1682 2365
1692 2365
1702 2365
1712 2365
1722 2364
1732 2364
1742 2364
1752 2360
1762 2360
1772 2360
1782 2360
1792 2359
1802 2359
1812 2359
1822 2355
1832 2355
1842 2355
1851 2350
1861 2350
1871 2350
1881 2350
1891 2350
1900 2345
1910 2345
1920 2345
1930 2345
1939 2340
1949 2340
1959 2340
1969 2337
1979 2335
1989 2335
1999 2335
2008 2330
2018 2330
2028 2330
2038 2328
2048 2325
2058 2325
2067 2320
2077 2320
2087 2319
2097 2315
2107 2315
2116 2310
2126 2310
2136 2310
2145 2305
2155 2305
2165 2300
2175 2300
2185 2295
2195 2295
2205 2295
2214 2290
2224 2290
2233 2285
2243 2285
2252 2280
2262 2280
2271 2275
2281 2275
2290 2270
2300 2270
2310 2266
2309 2256
2304 2247
2300 2237
2295 2228
2290 2219
2285 2210
2280 2201
2275 2192
2270 2183
2265 2174
2261 2164
2255 2156
2250 2147
2245 2138
2240 2129
2235 2120
2230 2111
2225 2102
2220 2093
2215 2084
2209 2076
2204 2067
2197 2059
2192 2050
2188 2040
2180 2033
2175 2024
2170 2015
2165 2006
2160 1997
2155 1988
2148 1980
2143 1971
2139 1961
2131 1954
2125 1946
2120 1937
2115 1928
2110 1919
2105 1910
2099 1902
2092 1894
2087 1885
2083 1875
2075 1868
2070 1859
2066 1849
2060 1841
2055 1832
2050 1823
2045 1814
2040 1805
2035 1796
2030 1787
2025 1778
2020 1769
2015 1760
2010 1751
2005 1742
2000 1733
1995 1724
1990 1715
1988 1705
1983 1696
1979 1686
1974 1677
1970 1667
1965 1658
1960 1649
1960 1639
1955 1630
1950 1621
1949 1611
1944 1602
1940 1592
1935 1583
1935 1573
1930 1564
1925 1555
1925 1542
1920 1533
1920 1523
1915 1514
1915 1504
1910 1495
1910 1485
1905 1476
1905 1466
1900 1457
1900 1447
1895 1438
1895 1428
1890 1419
1890 1409
1890 1399
1885 1390
1885 1380
1880 1371
1880 1361
1878 1351
1875 1341
1873 1331
1870 1321
1870 1311
1865 1302
1865 1292
1860 1283
1860 1273
1860 1263
1855 1254
1855 1244
1850 1235
1850 1225
1845 1216
1845 1206
1840 1197
1840 1187
1835 1178
1835 1168
1830 1159
1830 1149
1825 1140
1822 1130
1820 1120
1815 1111
1813 1101
1810 1091
1805 1082
1805 1072
1800 1063
1795 1054
1795 1044
1790 1035
1785 1026
1780 1017
1779 1007
1775 997
1770 988
1765 979
1762 969
1757 960
1753 950
1748 941
1744 931
1739 922
1735 912
1730 903
1725 894
1718 886
1714 876
1709 867
1702 859
1697 850
1693 840
1685 833
1680 824
1676 814
1670 806
1665 797
1660 788
1653 780
1645 774
1641 764
1635 756
1630 747
1622 740
1618 730
1610 724
1604 716
1599 707
1592 699
1584 692
1580 682
1572 675
1565 667
1557 660
1550 652
1543 644
1538 635
1530 628
1523 620
1515 613
1508 605
1500 598
1493 590
1485 583
1478 575
1470 568
1463 560
1455 553
1448 545
1440 551
1433 559
1425 566
1418 574
1410 581
1402 589
1394 597
1388 609
1380 616
1373 624
1365 631
1358 639
1350 646
1343 654
1335 661
1328 669
1320 676
1313 684
1305 691
1298 699
1290 706
1283 714
1275 721
1268 729
1260 736
1252 744
1244 752
1234 757
1225 766
1218 774
1210 781
1203 789
1195 796
1185 801
1178 809
1170 816
1162 824
1153 829
1145 836
1137 844
1128 849
1120 856
1113 864
1105 871
1095 876
1088 884
1080 891
1070 896
1063 904
1055 911
1045 916
1038 924
1030 931
1022 939
1013 944
1005 951
997 959
988 964
980 971
972 979
964 987
956 994
947 999
942 1009
933 1014
925 1021
918 1029
910 1036
903 1044
895 1051
888 1059
880 1066
873 1074
865 1081
858 1089
850 1096
843 1104
835 1111
830 1121
820 1126
815 1136
807 1144
799 1152
790 1161
785 1171
777 1179
769 1187
763 1199
755 1206
750 1216
742 1224
734 1232
727 1244
719 1252
712 1264
708 1274
700 1281
695 1291
687 1299
682 1309
674 1317
669 1327
662 1339
657 1349
649 1357
644 1367
639 1377
632 1389
627 1399
622 1409
617 1419
609 1427
607 1439
602 1449
594 1457
589 1467
584 1482
579 1492
574 1502
569 1512
564 1522
559 1532
554 1547
549 1557
544 1572
539 1582
534 1597
529 1607
524 1622
519 1632
514 1647
509 1662
504 1677
499 1692
494 1707
489 1722
484 1737
479 1752
479 1762
474 1772
474 1782
469 1792
464 1807
464 1817
459 1827
454 1842
454 1852
449 1862
449 1872
444 1882
444 1892
439 1902
439 1912
434 1927
434 1937
429 1947
429 1957
424 1967
424 1977
419 1992
419 2002
414 2017
414 2027
409 2037
409 2047
404 2072
404 2082
399 2092
399 2102
394 2122
394 2132
389 2152
389 2162
384 2172
384 2182
379 2192
379 2202
374 2227
