444 1121
439 1112
449 1107
459 1107
469 1104
479 1104
489 1104
499 1104
509 1104
519 1104
529 1104
539 1104
549 1104
559 1101
569 1102
579 1102
589 1104
598 1099
607 1104
616 1099
626 1099
636 1100
646 1099
656 1099
666 1099
676 1099
686 1099
696 1099
706 1099
716 1099
726 1099
736 1100
746 1100
756 1100
766 1104
776 1100
786 1104
796 1104
806 1104
816 1104
826 1104
835 1109
845 1107
855 1106
865 1109
875 1109
885 1112
895 1114
905 1114
915 1114
925 1117
935 1117
945 1119
955 1122
965 1122
975 1124
985 1127
995 1129
1005 1129
1014 1134
1024 1134
1033 1139
1043 1140
1053 1144
1062 1149
1072 1149
1081 1154
1091 1154
1100 1159
1110 1162
1120 1164
1129 1169
1138 1174
1148 1175
1157 1180
1167 1184
1176 1189
1185 1194
1195 1197
1203 1204
1212 1209
1221 1214
1230 1219
1240 1222
1248 1229
1257 1234
1264 1242
1274 1246
1280 1254
1290 1257
1297 1265
1307 1269
1314 1277
1322 1284
1329 1292
1337 1299
1344 1307
1352 1314
1362 1314
1370 1306
1375 1296
1383 1289
1389 1277
1394 1267
1402 1259
1407 1249
1412 1239
1419 1222
1424 1212
1429 1202
1434 1192
1439 1177
1444 1162
1449 1147
1454 1132
1459 1122
1459 1112
1464 1097
1464 1087
1469 1072
1469 1062
1474 1052
1474 1042
1474 1032
1474 1022
1479 1007
1479 997
1479 987
1479 977
1479 967
1479 957
1479 947
1479 937
1479 926
1479 916
1479 906
1479 896
1479 886
1479 876
1479 866
1479 856
1474 830
1474 820
1474 810
1474 800
1469 791
1469 781
1469 771
1464 762
1464 752
1464 742
1464 732
1459 723
1459 713
1455 703
1454 693
1454 683
1449 674
1449 664
1447 654
1442 645
1432 649
1424 655
1415 660
1405 665
1397 674
1387 679
1378 685
1369 690
1360 695
1351 700
1342 705
1333 710
1324 715
1315 720
1305 725
1295 730
1285 735
1275 740
1265 745
1255 750
1246 755
1237 760
1228 765
1219 770
1210 775
1200 775
1191 780
1182 785
1173 790
1164 795
1155 800
1146 805
1136 805
1127 810
1118 815
1109 820
1100 825
1090 825
1080 830
1071 835
1062 840
1053 845
1044 850
1035 855
1025 855
1015 860
1005 865
995 870
985 875
975 880
965 885
955 890
945 895
936 900
927 905
918 910
909 915
900 920
891 925
882 930
873 935
864 940
855 945
845 950
835 955
825 960
817 969
807 974
797 979
789 985
780 990
770 995
760 1000
753 1008
743 1013
735 1020
726 1025
717 1030
707 1034
697 1034
687 1030
677 1029
667 1029
657 1025
647 1025
637 1025
628 1020
618 1020
608 1020
599 1015
589 1015
579 1015
577 1004
585 996
595 991
603 984
612 979
620 971
630 966
638 959
647 954
655 946
665 941
673 934
682 929
691 924
699 917
709 912
717 904
727 899
737 894
746 889
754 882
764 877
774 872
782 864
792 859
802 854
811 849
820 844
829 837
839 832
849 827
859 822
869 817
877 809
887 804
897 799
907 794
917 789
927 784
937 779
946 774
955 769
964 764
973 759
982 754
992 749
1002 744
1012 739
1022 734
1032 729
1041 724
1051 720
1059 714
1068 709
1077 704
1087 699
1097 694
1107 689
1117 684
1127 679
1137 674
1147 669
1157 664
1167 659
1176 654
1185 649
1194 644
1203 639
1212 634
1222 629
1231 624
1240 619
1249 612
1259 607
1269 602
1277 594
1287 589
1297 584
1306 579
1314 572
1324 567
1332 559
1342 554
1351 549
1359 542
1369 537
1377 529
1386 524
1394 517
1402 509
1412 504
1420 496
1430 491
1438 484
1445 476
1453 469
1462 464
1471 459
1475 469
1480 478
1485 487
1485 497
1490 506
1490 516
1495 525
1497 535
1500 545
1502 555
1505 565
1510 574
1510 584
1510 594
1515 603
1520 612
1520 622
1520 635
1525 644
1530 653
1530 663
1535 672
1535 682
1539 692
1540 702
1540 712
1544 722
1545 732
1545 742
1550 751
1550 761
1553 771
1555 781
1555 791
1558 801
1560 811
1560 821
1560 831
1565 840
1565 850
1565 860
1565 870
1567 880
1570 890
1570 900
1570 910
1570 920
1570 930
1570 940
1570 950
1570 960
1570 975
1570 985
1570 995
1570 1010
1570 1020
1570 1030
1570 1040
1570 1050
1565 1060
1565 1070
1565 1080
1565 1090
1560 1100
1560 1110
1560 1120
1555 1130
1555 1140
1550 1155
1550 1165
1545 1180
1540 1195
1540 1205
1535 1215
1530 1225
1525 1240
1520 1255
1515 1265
1510 1275
1508 1288
1503 1298
1495 1305
1495 1315
1488 1323
1483 1333
1478 1343
1470 1350
1463 1363
1455 1370
1450 1380
1443 1388
1435 1395
1428 1408
1420 1415
1425 1424
1434 1429
1444 1431
1454 1434
1464 1436
1474 1439
1483 1444
1493 1444
1503 1445
1513 1449
1523 1449
1533 1450
1543 1454
1553 1454
1563 1454
1573 1454
1583 1455
1593 1455
1603 1459
1613 1459
1622 1454
1632 1454
1642 1454
1652 1454
1662 1454
1672 1454
1682 1454
1692 1454
1701 1449
1711 1449
1721 1449
1731 1445
1741 1444
1751 1444
1760 1439
1770 1439
1779 1434
1789 1434
1799 1431
1809 1429
1819 1427
1829 1424
1838 1419
1848 1419
1857 1414
1867 1409
1877 1409
1886 1404
1895 1399
1905 1396
1915 1391
1925 1386
1935 1384
1944 1379
1953 1374
1963 1374
1972 1369
1981 1364
1990 1359
1999 1354
2008 1349
2017 1344
2027 1339
2037 1334
2046 1329
2055 1324
2065 1321
2073 1314
2082 1309
2092 1304
2101 1299
2110 1294
2119 1287
2129 1282
2139 1277
2147 1269
2157 1264
2166 1259
2176 1255
2184 1248
2175 1243
2169 1235
2160 1230
2152 1224
2144 1217
2135 1212
2127 1205
2120 1197
2112 1190
2103 1185
2095 1178
2088 1170
2080 1163
2074 1155
2064 1152
2057 1144
2049 1137
2042 1129
2034 1122
2027 1114
2019 1107
2012 1099
2004 1092
1997 1084
1992 1075
1984 1068
1978 1060
1970 1053
1964 1045
1956 1039
1949 1031
1944 1022
1935 1017
1930 1008
1924 1000
1916 994
1909 986
1904 977
1897 969
1889 962
1882 954
1874 947
1869 938
1863 930
1855 923
1849 915
1841 908
1835 900
1829 892
1822 884
1814 877
1807 869
1799 862
1792 854
1787 845
1779 838
1773 830
1765 823
1758 815
1750 808
1743 800
1735 793
1728 785
1720 778
1713 770
1705 763
1698 755
1690 748
1683 740
1675 733
1669 725
1661 719
1652 714
1647 705
1638 700
1630 693
1623 685
1615 678
1609 670
1599 667
1592 659
1584 652
1579 643
1575 633
1574 623
1570 613
1569 603
1569 593
1564 584
1564 574
1559 565
1559 555
1559 545
1554 536
1559 526
1568 531
1575 539
1583 545
1592 550
1600 557
1608 564
1617 569
1624 577
1632 584
1641 589
1649 596
1655 604
1663 610
1672 615
1680 622
1687 630
1695 637
1703 644
1712 649
1719 657
1727 664
1734 672
1742 679
1749 687
1759 691
1765 699
1770 708
1780 712
1787 720
1795 727
1802 735
1810 742
1817 750
1825 757
1832 765
1840 772
1847 780
1855 787
1862 795
1870 802
1877 810
1885 817
1892 825
1900 832
1907 840
1915 847
1922 855
1930 862
1937 870
1945 877
1952 885
1960 892
1967 900
1972 909
1981 914
1985 924
1995 927
2002 935
2007 944
2015 950
2023 956
2030 964
2038 970
2043 979
2052 984
2059 992
2067 999
2074 1007
2082 1014
2089 1022
2097 1029
2104 1037
2114 1041
2120 1049
2128 1055
2135 1063
2143 1069
2150 1077
2159 1082
2167 1089
2176 1094
2184 1101
2190 1109
2199 1114
2207 1120
2215 1127
2224 1132
2232 1139
2241 1144
2249 1151
2258 1156
2265 1164
2274 1169
2283 1174
2292 1179
2299 1187
2309 1191
2318 1196
2325 1204
2335 1207
2344 1212
2352 1219
2361 1224
2370 1229
2368 1245
2359 1250
2350 1255
2340 1260
2332 1269
2322 1274
2312 1279
2304 1285
2295 1290
2285 1295
2275 1300
2265 1305
2258 1313
2248 1318
2238 1323
2230 1330
2221 1335
2212 1340
2203 1345
2194 1350
2185 1355
2175 1360
2165 1365
2156 1370
2147 1375
2138 1380
2129 1385
2120 1390
2110 1395
2100 1400
2090 1405
2080 1410
2070 1415
2060 1420
2051 1425
2042 1430
2033 1435
2024 1440
2014 1442
2004 1447
1994 1452
1984 1455
1975 1460
1966 1465
1956 1465
1947 1470
1937 1474
1927 1479
1917 1480
1908 1485
1898 1488
1888 1490
1879 1495
1869 1495
1860 1500
1850 1500
1840 1505
1830 1505
1820 1510
1810 1510
1800 1515
1790 1515
1780 1520
1770 1520
1760 1520
1750 1525
1740 1525
1730 1525
1721 1530
1711 1530
1701 1530
1691 1533
1681 1530
1671 1533
1661 1535
1651 1535
1641 1535
1631 1535
1621 1535
1611 1535
1601 1535
1591 1535
1581 1533
1571 1533
1561 1530
1551 1530
1541 1530
1531 1528
1521 1525
1511 1525
1501 1523
1491 1520
1481 1518
1471 1515
1461 1513
1451 1510
1442 1505
1432 1505
1423 1500
1413 1500
1404 1495
1395 1490
1385 1487
1375 1485
1375 1495
1375 1505
1375 1520
1380 1529
1380 1539
1385 1548
1385 1558
1385 1568
1390 1577
1390 1587
1395 1596
1398 1606
1400 1616
1405 1625
1407 1635
1412 1644
1415 1654
1420 1663
1425 1672
1429 1682
1430 1692
1437 1700
1440 1710
1445 1719
1450 1728
1455 1737
1460 1746
1466 1754
1470 1764
1475 1773
1483 1780
1490 1788
1495 1797
1499 1807
1507 1814
1510 1824
1518 1830
1525 1838
1530 1847
1537 1855
1545 1862
1549 1872
1557 1879
1564 1887
1572 1894
1579 1902
1585 1910
1593 1916
1599 1924
1605 1932
1612 1940
1620 1947
1629 1952
1637 1959
1640 1969
1650 1972
1657 1980
1665 1987
1672 1995
1680 2002
1687 2010
1697 2014
1700 2024
1710 2027
1717 2035
1725 2042
1734 2047
1742 2054
1749 2062
1757 2069
1766 2074
1774 2081
1783 2086
1790 2094
1798 2100
1807 2105
1815 2112
1823 2119
1832 2124
1839 2132
1849 2136
1854 2122
1859 2112
1859 2102
1864 2087
1869 2077
1874 2062
1879 2047
1884 2032
1889 2022
1894 2007
1899 1997
1904 1982
1909 1972
1914 1957
1919 1947
1932 1924
1937 1914
1942 1904
1944 1892
1949 1882
1957 1874
1959 1862
1964 1852
1972 1844
1977 1834
1979 1822
1987 1814
1992 1804
1997 1794
2002 1784
2007 1774
2012 1764
2017 1754
2024 1737
2032 1729
2037 1719
2042 1709
2049 1692
2057 1684
2062 1674
2067 1664
2072 1654
2077 1644
2082 1634
2089 1617
2097 1609
2099 1597
2104 1587
2112 1579
2114 1567
2119 1557
2127 1549
2129 1537
2134 1527
2139 1517
2144 1507
2149 1497
2154 1487
2159 1472
2164 1462
2169 1452
2174 1437
2182 1429
2190 1421
2200 1416
2208 1409
2217 1404
2225 1396
2235 1391
2243 1384
2252 1379
2260 1371
2270 1366
2278 1359
2287 1354
2295 1346
2303 1339
2312 1334
2310 1350
2305 1365
2300 1375
2300 1385
2295 1395
2290 1410
2285 1420
2280 1435
2275 1450
2270 1465
2265 1475
2260 1490
2255 1505
2250 1515
2245 1525
2240 1540
2235 1555
2230 1565
2225 1575
2220 1590
2215 1600
2210 1615
2205 1625
2200 1635
2195 1650
2190 1660
2185 1670
2180 1685
2175 1695
2170 1705
2165 1720
2160 1730
2155 1740
2150 1750
2145 1765
2140 1775
2135 1785
2130 1800
2125 1810
2123 1823
2115 1830
2110 1845
2105 1860
2100 1870
2095 1880
2090 1895
2085 1905
2080 1920
2075 1935
2070 1945
2065 1960
2060 1970
2055 1985
2050 2000
2045 2015
2040 2030
2035 2045
2030 2060
2025 2075
2025 2085
2020 2095
2015 2110
2015 2120
2010 2130
2010 2140
2005 2150
2005 2160
2000 2170
2000 2180
1995 2190
1995 2200
1990 2210
1990 2220
1985 2230
1985 2240
1980 2255
1980 2265
1975 2280
1975 2290
1970 2300
1970 2310
1970 2320
1965 2330
1964 2347
1954 2352
1947 2344
1937 2340
1930 2332
1922 2325
1913 2320
1905 2313
1898 2305
1889 2300
1881 2294
1874 2286
1866 2280
1857 2275
1850 2267
1842 2260
1833 2255
1825 2248
1819 2240
1809 2237
1802 2229
1794 2222
1785 2217
1777 2210
1770 2202
1760 2198
1753 2190
1745 2183
1739 2175
1729 2172
1722 2164
1714 2157
1705 2152
1697 2145
1690 2137
1682 2130
1675 2122
1667 2115
1658 2110
1650 2103
1643 2095
1635 2088
1629 2080
1619 2077
1612 2069
1604 2062
1597 2054
1589 2047
1582 2039
1574 2032
1567 2024
1559 2017
1552 2009
1544 2002
1537 1994
1529 1987
1524 1978
1517 1970
1510 1962
1502 1955
1495 1947
1490 1938
1484 1930
1476 1924
1469 1916
1464 1907
1457 1899
1452 1890
1445 1882
1439 1874
1434 1865
1426 1858
1421 1849
1414 1841
1409 1832
1404 1823
1399 1814
1394 1805
1389 1796
1384 1787
1379 1778
1374 1769
1369 1760
1364 1751
1359 1742
1354 1733
1351 1723
1346 1714
1342 1704
1337 1695
1334 1685
1329 1676
1329 1666
1324 1657
1320 1647
1315 1638
1314 1628
1310 1618
1309 1608
1305 1598
1304 1588
1300 1578
1299 1568
1299 1558
1294 1549
1294 1539
1289 1530
1280 1535
1270 1540
1262 1549
1252 1554
1244 1560
1235 1565
1228 1573
1218 1578
1210 1585
1203 1593
1195 1600
1185 1605
1178 1618
1170 1625
1160 1630
1155 1640
1148 1648
1140 1655
1133 1663
1128 1673
1120 1680
1113 1688
1108 1698
1100 1705
1093 1718
1085 1725
1078 1738
1073 1748
1068 1758
1060 1765
1053 1778
1048 1788
1043 1798
1038 1808
1030 1815
1028 1828
1020 1835
1018 1848
1010 1855
1005 1865
1000 1875
995 1890
990 1900
985 1910
980 1920
975 1935
970 1945
965 1960
960 1970
955 1985
950 1995
945 2010
940 2020
935 2035
930 2050
925 2065
920 2075
915 2090
910 2105
910 2115
905 2125
900 2135
895 2150
895 2160
905 2164
915 2164
925 2164
935 2164
945 2164
955 2167
965 2167
975 2167
985 2169
995 2169
1005 2169
1015 2169
1025 2169
1035 2169
1045 2172
1055 2172
1065 2174
1075 2174
1085 2174
1095 2177
1105 2177
1115 2179
1125 2179
1135 2179
1144 2184
1154 2184
1164 2184
1174 2184
1184 2186
1194 2189
1204 2189
1214 2189
1223 2194
1233 2194
1243 2194
1253 2195
1263 2199
1273 2199
1283 2199
1293 2200
1303 2204
1313 2204
1323 2204
1332 2209
1342 2209
1352 2209
1362 2209
1371 2214
1381 2214
1391 2214
1401 2214
1410 2219
1420 2219
1430 2219
1440 2219
1449 2224
1459 2224
1469 2224
1479 2224
1489 2226
1499 2229
1509 2229
1519 2229
1529 2229
1538 2234
1548 2234
1558 2234
1568 2234
1578 2234
1588 2234
1597 2239
1607 2239
1617 2239
1627 2239
1637 2239
1647 2239
1657 2239
1667 2239
1676 2244
1686 2244
1696 2244
1706 2244
1714 2251
1720 2259
1730 2262
1737 2270
1745 2277
1752 2285
1762 2289
1765 2299
1775 2302
1782 2310
1790 2317
1797 2325
1807 2329
1814 2337
1822 2344
1821 2355
1811 2355
1801 2355
1791 2355
1781 2355
1771 2355
1761 2358
1751 2355
1741 2355
1731 2355
1721 2355
1711 2355
1701 2355
1691 2355
1681 2355
1671 2355
1661 2355
1651 2355
1641 2355
1631 2355
1621 2355
1611 2355
1602 2350
1592 2350
1582 2350
1572 2350
1562 2350
1552 2350
1542 2350
1532 2350
1522 2349
1512 2349
1502 2345
1492 2345
1482 2345
1472 2345
1462 2345
1452 2344
1442 2344
1432 2340
1422 2340
1412 2340
1402 2340
1392 2340
1382 2340
1373 2335
1363 2335
1353 2335
1343 2335
1333 2335
1323 2335
1314 2330
1304 2330
1294 2330
1284 2330
1274 2330
1265 2325
1255 2325
1245 2325
1235 2325
1225 2325
1215 2325
1205 2322
1195 2322
1185 2320
1175 2320
1165 2320
1155 2320
1145 2320
1135 2317
1125 2317
1115 2315
1105 2315
1095 2315
1085 2315
1075 2315
1065 2315
1055 2315
1045 2315
1036 2310
1026 2310
1016 2310
1006 2310
996 2310
986 2310
976 2310
966 2310
956 2310
946 2310
936 2310
926 2310
916 2310
906 2310
896 2310
886 2310
876 2310
866 2310
857 2315
848 2310
838 2310
829 2315
820 2310
810 2315
800 2315
790 2315
780 2315
770 2315
764 2307
764 2297
769 2287
774 2277
774 2267
779 2257
784 2247
784 2237
789 2222
794 2207
799 2192
804 2182
804 2172
809 2162
814 2152
814 2142
819 2127
824 2112
829 2097
834 2087
839 2062
844 2047
849 2032
854 2017
859 2007
864 1997
864 1987
869 1977
874 1967
874 1957
879 1947
884 1937
889 1927
889 1917
894 1907
899 1897
904 1882
909 1872
914 1857
919 1847
924 1832
929 1822
934 1812
939 1802
944 1792
949 1782
954 1772
959 1757
967 1749
972 1739
977 1729
982 1719
987 1709
994 1697
999 1687
1007 1679
1012 1669
1019 1657
1027 1649
1032 1639
1039 1627
1047 1619
1054 1607
1062 1599
1069 1587
1077 1579
1085 1571
1093 1564
1100 1556
1105 1546
1113 1539
1120 1531
1128 1524
1135 1516
1143 1509
1152 1504
1157 1494
1167 1489
1175 1481
1183 1474
1192 1469
1200 1461
1210 1456
1218 1449
1227 1444
1235 1436
1245 1431
1255 1426
1265 1421
1275 1416
1273 1400
1265 1393
1258 1385
1250 1378
1243 1370
1235 1363
1229 1355
1219 1352
1212 1344
1202 1340
1195 1332
1185 1328
1179 1320
1169 1317
1160 1312
1152 1305
1143 1300
1134 1295
1124 1292
1115 1287
1105 1285
1097 1279
1087 1275
1078 1270
1068 1270
1059 1265
1050 1260
1040 1260
1031 1255
1021 1253
1011 1250
1002 1245
992 1245
983 1240
973 1240
964 1235
954 1235
944 1235
935 1230
925 1230
915 1227
905 1225
895 1225
885 1225
876 1220
866 1220
856 1220
846 1220
837 1215
828 1220
819 1215
809 1215
799 1215
789 1215
779 1215
769 1215
759 1212
749 1210
739 1210
729 1210
719 1210
709 1210
699 1210
689 1210
679 1212
669 1210
659 1212
649 1212
639 1210
630 1215
630 1230
635 1239
635 1249
635 1259
640 1268
640 1278
645 1287
645 1297
645 1307
650 1316
650 1326
650 1336
655 1345
655 1355
655 1365
655 1375
660 1384
660 1394
660 1404
660 1414
665 1423
665 1433
665 1443
665 1460
670 1469
670 1479
670 1490
675 1499
675 1509
675 1519
675 1529
680 1538
680 1548
680 1558
680 1568
685 1577
685 1587
685 1597
685 1610
690 1619
690 1629
690 1639
690 1649
695 1658
695 1668
700 1677
700 1687
700 1697
700 1707
705 1716
705 1726
705 1736
710 1745
710 1755
712 1765
715 1775
715 1785
720 1794
720 1804
720 1814
725 1823
725 1833
730 1842
730 1852
734 1862
735 1872
739 1882
740 1892
744 1902
745 1912
749 1922
750 1932
754 1942
755 1952
760 1961
760 1971
765 1980
765 1990
770 1999
770 2009
775 2018
775 2028
780 2037
784 2047
785 2057
788 2073
783 2083
778 2093
773 2103
765 2110
765 2120
758 2128
753 2138
748 2148
743 2158
738 2168
733 2178
728 2188
723 2198
715 2205
710 2215
702 2229
694 2222
694 2212
689 2203
689 2193
684 2184
679 2175
677 2165
674 2155
674 2145
669 2136
664 2127
664 2117
659 2108
659 2098
654 2089
651 2079
649 2069
644 2060
642 2050
639 2040
637 2030
634 2020
632 2010
629 2000
627 1990
624 1980
622 1970
619 1960
617 1950
614 1940
612 1930
609 1920
609 1910
604 1901
604 1891
599 1882
599 1872
594 1863
594 1853
589 1844
589 1834
584 1825
584 1815
582 1805
579 1795
579 1785
577 1775
574 1765
572 1755
569 1745
569 1735
564 1726
564 1716
564 1706
559 1697
559 1687
559 1677
554 1668
554 1658
554 1648
549 1639
549 1629
546 1619
544 1609
544 1599
544 1589
539 1580
539 1570
537 1560
534 1550
534 1540
534 1530
529 1521
529 1511
524 1484
524 1474
519 1465
519 1455
519 1445
514 1436
514 1426
509 1400
507 1390
504 1380
504 1370
502 1360
499 1350
497 1340
494 1330
494 1320
492 1310
489 1300
489 1290
484 1281
479 1259
479 1249
474 1240
474 1230
469 1221
464 1199
464 1189
459 1180
457 1170
454 1160
452 1150
449 1140
444 1131
