389 1387
394 1362
394 1352
394 1342
394 1332
394 1322
394 1312
399 1287
399 1277
399 1267
404 1252
404 1242
404 1232
409 1217
409 1207
414 1197
414 1187
419 1177
419 1167
424 1157
424 1147
429 1132
434 1122
434 1112
439 1097
444 1082
449 1067
454 1057
459 1042
464 1027
469 1017
474 1002
479 992
484 982
489 967
494 957
502 949
507 939
512 929
517 919
522 909
529 897
534 887
539 877
547 869
552 859
559 847
567 839
572 829
579 817
587 809
592 799
600 791
608 784
612 774
620 766
628 759
632 749
641 744
650 749
659 754
668 759
678 760
687 765
697 769
706 774
715 779
725 779
734 784
743 789
753 790
762 795
772 799
781 804
777 785
774 775
769 766
769 756
764 747
759 738
755 728
754 718
749 709
746 699
744 689
739 680
734 671
734 661
729 652
737 644
745 636
755 631
763 624
770 616
778 609
787 604
795 596
805 591
813 584
822 579
830 571
840 566
848 559
857 554
867 549
876 544
885 539
894 532
904 527
914 522
924 517
934 512
942 504
952 504
961 499
970 494
979 489
988 484
997 479
1007 479
1016 474
1025 469
1035 466
1045 461
1055 459
1064 454
1074 452
1084 449
1093 444
1103 444
1112 439
1122 434
1132 434
1142 429
1152 429
1162 424
1172 424
1182 424
1191 419
1201 419
1211 415
1221 414
1231 414
1241 410
1251 409
1261 409
1271 409
1281 409
1290 404
1300 404
1310 404
1310 415
1305 425
1300 440
1295 455
1295 465
1290 475
1290 485
1285 495
1285 505
1280 520
1280 530
1280 540
1275 555
1275 565
1275 575
1275 585
1275 595
1275 605
1275 615
1270 625
1275 634
1275 644
1275 654
1275 664
1275 674
1275 684
1275 694
1280 703
1280 713
1280 723
1280 733
1280 743
1285 752
1285 762
1285 772
1290 781
1290 791
1293 801
1295 811
1295 821
1300 830
1300 840
1305 849
1305 859
1310 868
1310 878
1315 887
1315 897
1320 906
1323 916
1325 926
1328 936
1333 945
1335 955
1337 965
1342 974
1345 984
1350 993
1350 1003
1355 1012
1364 1007
1364 997
1369 987
1369 977
1374 962
1379 947
1384 937
1384 927
1389 917
1389 907
1394 897
1394 887
1399 877
1399 867
1404 852
1404 842
1409 827
1409 817
1414 802
1414 792
1419 782
1419 772
1419 762
1424 747
1424 737
1424 727
1424 717
1429 706
1429 696
1429 686
1429 676
1429 666
1429 656
1429 646
1429 636
1429 626
1429 616
1429 606
1429 596
1424 572
1424 562
1424 552
1424 542
1419 533
1419 523
1415 513
1414 503
1409 494
1409 484
1404 475
1404 465
1399 456
1394 447
1390 437
1384 429
1381 419
1374 411
1379 399
1389 399
1399 399
1409 401
1419 401
1429 404
1439 404
1449 404
1459 404
1469 406
1479 406
1489 409
1499 409
1509 409
1519 409
1528 414
1538 414
1548 415
1558 419
1568 419
1578 420
1588 424
1598 425
1608 429
1618 430
1628 434
1638 435
1648 439
1658 440
1668 444
1677 449
1687 449
1696 454
1705 459
1715 459
1724 464
1733 469
1743 470
1752 475
1762 479
1771 484
1780 489
1790 492
1799 497
1809 501
1818 506
1828 510
1837 515
1847 519
1854 527
1864 531
1873 536
1883 540
1890 548
1900 552
1909 557
1917 564
1926 569
1935 574
1943 580
1950 588
1960 592
1968 599
1977 604
1984 612
1992 619
2001 624
2009 631
2015 639
2024 644
2030 655
2025 670
2020 685
2015 700
2010 715
2010 725
2005 735
2000 750
1995 765
1990 780
1990 790
2000 789
2010 786
2020 781
2030 779
2039 774
2049 772
2059 767
2069 764
2078 759
2088 759
2097 754
2107 749
2117 744
2126 749
2134 756
2140 764
2145 773
2153 780
2160 788
2165 797
2172 805
2177 814
2184 822
2190 830
2195 839
2200 848
2208 855
2212 865
2217 874
2224 882
2229 891
2233 901
2240 909
2245 918
2250 927
2254 937
2259 946
2265 954
2265 964
2270 973
2275 982
2280 991
2285 1000
2287 1010
2292 1019
2295 1029
2300 1038
2305 1047
2305 1057
2310 1066
2313 1076
2318 1085
2320 1095
2322 1105
2325 1115
2330 1124
2330 1134
2335 1143
2335 1153
2340 1162
2340 1172
2345 1181
2345 1191
2350 1200
2350 1210
2355 1219
2355 1229
2355 1239
2355 1249
2360 1258
2360 1268
2360 1278
2360 1288
2365 1297
2365 1307
2360 1322
2350 1318
2341 1313
2331 1310
2322 1305
2312 1305
2303 1300
2293 1300
2284 1295
2274 1295
2264 1295
2254 1295
2245 1290
2235 1290
2225 1290
2215 1290
2205 1290
2195 1290
2185 1290
2175 1290
2165 1290
2155 1290
2145 1290
2135 1290
2125 1290
2115 1290
2105 1290
2095 1290
2086 1295
2076 1295
2066 1295
2056 1295
2046 1295
2037 1300
2027 1300
2017 1300
2007 1304
1997 1305
1987 1305
1977 1309
1967 1310
1957 1310
1947 1314
1937 1315
1927 1315
1918 1320
1908 1320
1898 1323
1888 1325
1878 1325
1869 1330
1859 1330
1850 1335
1840 1335
1830 1335
1820 1340
1810 1340
1801 1345
1791 1345
1782 1350
1772 1350
1763 1355
1753 1355
1744 1360
1734 1360
1725 1365
1715 1365
1730 1374
1740 1374
1750 1374
1759 1379
1769 1379
1778 1384
1788 1384
1798 1385
1808 1389
1818 1389
1827 1394
1837 1394
1847 1394
1856 1399
1866 1399
1876 1399
1885 1404
1895 1404
1905 1404
1915 1407
1925 1409
1935 1409
1945 1409
1955 1412
1965 1414
1975 1414
1985 1414
1995 1417
2005 1419
2015 1419
2025 1419
2035 1419
2045 1419
2054 1424
2064 1421
2074 1424
2084 1424
2094 1424
2104 1424
2114 1424
2124 1424
2134 1424
2144 1424
2154 1424
2164 1424
2174 1424
2184 1421
2194 1419
2204 1419
2214 1419
2224 1417
2234 1414
2244 1414
2253 1409
2263 1409
2272 1404
2282 1404
2291 1399
2301 1395
2311 1390
2321 1385
2331 1380
2339 1374
2348 1369
2355 1361
2363 1355
2365 1365
2365 1375
2365 1385
2365 1395
2365 1405
2365 1415
2365 1425
2365 1435
2365 1445
2365 1455
2370 1464
2365 1475
2365 1485
2365 1495
2365 1505
2365 1515
2360 1525
2360 1535
2360 1545
2360 1555
2355 1565
2355 1575
2355 1585
2350 1600
2350 1610
2345 1620
2345 1630
2340 1640
2340 1650
2335 1660
2335 1670
2330 1680
2325 1695
2325 1705
2320 1715
2315 1730
2310 1745
2305 1755
2300 1770
2295 1785
2290 1795
2285 1810
2280 1820
2275 1830
2270 1845
2265 1855
2260 1865
2253 1878
2248 1888
2243 1898
2238 1908
2233 1918
2225 1925
2220 1935
2212 1949
2207 1959
2199 1965
2189 1965
2180 1960
2170 1960
2160 1957
2150 1955
2140 1952
2130 1950
2120 1947
2110 1945
2100 1942
2090 1940
2080 1937
2070 1935
2060 1932
2050 1930
2052 1940
2057 1949
2060 1959
2065 1968
2073 1975
2077 1985
2082 1994
2085 2004
2093 2010
2097 2020
2102 2029
2105 2039
2110 2048
2118 2055
2122 2065
2115 2080
2108 2088
2100 2095
2093 2103
2085 2110
2075 2120
2065 2130
2059 2140
2050 2145
2043 2153
2035 2160
2028 2168
2020 2175
2010 2180
2003 2188
1995 2195
1988 2203
1978 2208
1970 2215
1960 2220
1953 2228
1943 2233
1935 2240
1925 2245
1918 2253
1908 2258
1898 2263
1890 2270
1881 2275
1872 2280
1863 2285
1854 2290
1845 2295
1835 2300
1826 2305
1817 2310
1808 2315
1799 2320
1790 2325
1781 2330
1771 2330
1762 2335
1753 2340
1744 2345
1734 2347
1724 2350
1715 2355
1706 2360
1696 2360
1687 2365
1677 2369
1667 2370
1658 2375
1648 2378
1638 2380
1628 2383
1618 2385
1608 2388
1598 2390
1588 2393
1578 2395
1568 2395
1559 2400
1549 2400
1539 2400
1530 2405
1520 2405
1510 2405
1500 2405
1490 2405
1480 2405
1470 2405
1460 2405
1450 2405
1440 2405
1430 2405
1420 2405
1410 2405
1404 2397
1409 2387
1414 2377
1419 2362
1424 2347
1429 2337
1429 2327
1434 2317
1434 2307
1439 2297
1439 2287
1439 2277
1444 2267
1444 2257
1444 2247
1444 2237
1444 2227
1444 2214
1444 2204
1444 2194
1444 2184
1444 2174
1444 2164
1444 2154
1444 2144
1439 2135
1439 2125
1439 2115
1439 2105
1434 2096
1434 2086
1429 2077
1429 2067
1429 2057
1424 2048
1424 2038
1419 2029
1419 2019
1414 2010
1414 2000
1409 1991
1404 1982
1404 1972
1400 1962
1395 1953
1394 1943
1389 1934
1386 1924
1384 1914
1379 1905
1370 1900
1365 1910
1360 1925
1355 1940
1350 1955
1345 1970
1340 1985
1335 2000
1335 2010
1330 2020
1330 2030
1325 2040
1320 2055
1320 2065
1315 2080
1315 2090
1310 2100
1310 2110
1310 2120
1305 2130
1305 2140
1305 2150
1300 2165
1300 2175
1300 2185
1300 2195
1300 2205
1300 2215
1300 2225
1300 2235
1300 2245
1300 2255
1300 2265
1300 2275
1302 2285
1305 2295
1305 2305
1310 2314
1310 2324
1315 2333
1315 2343
1320 2352
1324 2362
1329 2371
1333 2381
1338 2390
1345 2398
1349 2412
1339 2412
1329 2410
1319 2410
1309 2410
1299 2410
1289 2410
1280 2405
1270 2407
1260 2405
1250 2405
1240 2405
1230 2402
1220 2400
1210 2400
1200 2400
1191 2395
1181 2395
1171 2393
1161 2390
1151 2388
1141 2385
1131 2383
1121 2380
1112 2375
1102 2375
1093 2370
1084 2365
1074 2365
1065 2360
1055 2357
1045 2355
1036 2350
1027 2345
1017 2345
1008 2340
999 2335
989 2332
980 2327
970 2323
961 2318
951 2315
942 2310
933 2305
924 2300
915 2295
906 2290
897 2285
888 2280
879 2275
871 2269
862 2264
852 2260
845 2252
835 2248
828 2240
819 2235
811 2229
802 2224
794 2217
785 2212
777 2205
770 2197
760 2193
753 2185
745 2178
739 2170
729 2167
729 2157
729 2147
734 2132
734 2122
739 2112
739 2102
739 2092
744 2077
744 2067
749 2053
749 2043
743 2035
734 2040
724 2042
714 2045
705 2050
695 2050
685 2055
676 2060
666 2060
657 2065
647 2069
637 2069
629 2062
622 2054
617 2045
610 2037
602 2030
599 2020
591 2013
586 2004
579 1996
574 1987
567 1979
562 1970
555 1962
550 1953
544 1945
539 1936
534 1927
529 1918
524 1909
519 1900
514 1891
509 1882
505 1872
499 1864
494 1855
489 1846
484 1837
484 1827
479 1818
474 1809
469 1800
467 1790
464 1780
459 1771
454 1762
454 1752
449 1743
444 1734
444 1724
439 1715
437 1705
434 1695
429 1686
429 1676
424 1667
424 1657
419 1648
419 1638
414 1629
414 1619
409 1610
409 1600
407 1590
404 1580
404 1570
402 1560
399 1550
399 1540
399 1530
394 1521
394 1511
394 1501
389 1492
399 1491
405 1499
415 1499
424 1504
433 1509
443 1510
453 1514
463 1514
472 1519
482 1519
492 1519
502 1519
512 1519
522 1519
532 1519
542 1519
552 1519
562 1519
572 1519
582 1519
592 1519
602 1519
612 1519
622 1519
631 1514
641 1514
651 1514
660 1509
670 1509
680 1509
689 1504
699 1504
709 1502
719 1499
729 1499
738 1494
748 1494
757 1489
767 1489
777 1484
787 1484
797 1479
807 1479
817 1474
827 1474
836 1469
846 1469
855 1464
865 1464
874 1459
884 1457
894 1454
903 1449
913 1449
922 1444
932 1444
941 1439
951 1435
961 1434
970 1429
961 1420
952 1415
942 1415
932 1415
922 1415
913 1410
903 1410
893 1410
884 1405
874 1405
864 1405
854 1405
845 1400
835 1400
825 1400
815 1400
805 1400
796 1395
786 1395
776 1395
766 1395
757 1390
747 1390
737 1390
727 1390
717 1390
707 1390
697 1390
688 1385
679 1390
669 1387
659 1385
650 1390
641 1385
631 1388
621 1390
612 1385
603 1390
593 1388
583 1390
573 1390
563 1390
553 1390
543 1390
533 1393
523 1395
513 1395
503 1398
493 1400
483 1400
474 1405
464 1407
454 1410
445 1415
435 1415
426 1420
417 1425
408 1430
399 1435
389 1437
389 1427
389 1417
