474 1177
474 1167
482 1159
490 1151
500 1146
508 1139
515 1131
523 1124
532 1119
540 1111
550 1106
558 1099
565 1091
575 1086
583 1079
592 1074
600 1066
608 1059
617 1054
625 1046
635 1041
643 1034
652 1029
661 1024
669 1017
677 1009
687 1004
696 999
704 992
714 987
722 979
732 974
741 969
750 964
759 957
769 952
779 947
787 939
797 934
807 929
816 924
825 919
834 912
844 907
854 902
864 897
874 892
884 887
894 882
902 874
912 869
922 864
932 859
942 854
952 849
962 844
972 839
982 834
992 829
1002 824
1012 819
1022 814
1032 814
1041 809
1050 804
1059 799
1068 794
1077 789
1087 784
1097 779
1107 774
1117 774
1126 769
1135 764
1144 759
1153 754
1162 749
1172 744
1182 744
1191 739
1200 734
1209 729
1218 724
1227 719
1237 714
1247 709
1257 704
1267 699
1277 694
1287 689
1297 684
1306 679
1315 674
1324 669
1333 664
1342 659
1351 654
1360 649
1369 642
1379 637
1387 629
1397 624
1406 619
1414 612
1424 607
1432 599
1442 594
1450 586
1460 581
1468 574
1477 569
1485 561
1493 554
1502 549
1510 541
1518 534
1528 535
1535 543
1545 547
1552 555
1560 562
1569 567
1577 574
1584 582
1594 586
1600 594
1608 600
1617 605
1625 612
1632 620
1640 627
1648 634
1657 639
1664 647
1672 654
1679 662
1687 669
1695 675
1703 681
1710 689
1718 695
1725 703
1733 710
1740 718
1748 725
1755 733
1763 740
1770 748
1778 755
1785 763
1793 770
1800 778
1810 782
1814 792
1822 799
1829 807
1837 814
1844 822
1852 829
1859 837
1867 844
1874 852
1880 860
1888 866
1893 875
1900 883
1908 890
1915 898
1923 905
1930 913
1938 920
1945 928
1953 935
1958 944
1965 952
1972 960
1980 967
1987 975
1995 982
2002 990
2010 997
2017 1005
2025 1012
2032 1020
2040 1027
2047 1035
2055 1042
2062 1050
2070 1057
2077 1065
2085 1072
2092 1080
2100 1087
2109 1092
2117 1099
2124 1107
2132 1114
2139 1122
2149 1126
2155 1134
2163 1140
2170 1148
2180 1152
2187 1160
2195 1167
2204 1172
2212 1179
2221 1184
2229 1191
2238 1196
2245 1204
2254 1209
2262 1215
2272 1219
2281 1224
2289 1231
2295 1239
2305 1242
2314 1247
2322 1254
2331 1259
2340 1264
2349 1269
2358 1274
2367 1279
2376 1284
2385 1289
2394 1294
2402 1300
2400 1315
2395 1330
2390 1345
2385 1360
2380 1375
2375 1390
2370 1400
2365 1415
2360 1430
2355 1445
2350 1460
2345 1470
2340 1485
2335 1495
2330 1510
2325 1525
2320 1535
2315 1550
2310 1560
2305 1575
2300 1585
2295 1595
2290 1610
2285 1625
2280 1635
2275 1645
2270 1660
2265 1670
2260 1680
2255 1695
2250 1705
2245 1720
2240 1730
2235 1740
2230 1755
2225 1765
2220 1775
2215 1785
2210 1800
2205 1810
2200 1825
2195 1835
2190 1845
2185 1855
2180 1870
2175 1880
2170 1895
2165 1905
2160 1915
2155 1930
2150 1945
2145 1955
2140 1970
2135 1980
2130 1995
2125 2010
2120 2020
2115 2035
2110 2050
2105 2065
2100 2080
2095 2095
2090 2110
2085 2125
2080 2140
2075 2155
2075 2165
2070 2175
2065 2190
2065 2200
2060 2210
2055 2225
2055 2235
2050 2245
2050 2255
2045 2265
2045 2275
2040 2285
2040 2295
2035 2305
2030 2320
2030 2330
2025 2345
2025 2355
2020 2365
2020 2375
2015 2385
2015 2395
2010 2405
2008 2415
1998 2415
1989 2420
1980 2415
1970 2420
1960 2420
1950 2420
1940 2420
1930 2420
1920 2420
1910 2420
1900 2420
1890 2420
1880 2420
1870 2420
1860 2420
1850 2420
1840 2420
1830 2420
1820 2420
1810 2420
1800 2420
1790 2420
1780 2420
1770 2420
1760 2420
1750 2420
1740 2420
1730 2420
1720 2420
1710 2420
1700 2420
1690 2420
1680 2420
1670 2420
1660 2420
1650 2420
1640 2420
1630 2420
1620 2420
1610 2420
1600 2420
1591 2415
1581 2415
1571 2415
1561 2415
1551 2415
1541 2415
1531 2415
1521 2415
1511 2415
1501 2415
1491 2415
1481 2413
1471 2413
1461 2413
1451 2410
1441 2410
1431 2410
1421 2410
1411 2410
1401 2408
1391 2410
1382 2405
1372 2405
1362 2405
1352 2405
1342 2405
1332 2405
1322 2405
1312 2404
1302 2404
1292 2404
1282 2400
1272 2400
1262 2400
1252 2400
1242 2400
1232 2400
1223 2395
1213 2395
1203 2395
1193 2395
1183 2395
1173 2395
1163 2395
1153 2395
1143 2395
1133 2395
1123 2395
1114 2390
1104 2390
1094 2390
1084 2390
1074 2390
1064 2390
1054 2390
1044 2390
1034 2390
1024 2390
1014 2390
1004 2390
994 2390
984 2390
974 2390
964 2390
954 2390
944 2390
934 2390
924 2390
914 2390
904 2390
894 2390
884 2390
874 2390
864 2390
854 2390
844 2390
834 2390
824 2390
814 2390
804 2391
799 2382
794 2373
791 2363
786 2354
784 2344
779 2335
774 2326
774 2316
769 2307
764 2298
760 2288
759 2278
754 2269
752 2259
747 2250
744 2240
739 2231
734 2222
734 2212
730 2202
725 2193
724 2183
719 2174
714 2165
714 2155
709 2146
709 2136
704 2127
699 2118
699 2108
694 2099
689 2090
687 2080
684 2070
682 2060
679 2050
674 2041
674 2031
669 2022
669 2012
664 2003
660 1993
659 1983
655 1973
654 1963
649 1954
649 1944
644 1935
642 1925
639 1915
637 1905
634 1895
632 1885
629 1875
627 1865
624 1855
622 1845
619 1835
619 1825
614 1816
609 1791
604 1768
600 1758
599 1748
599 1738
594 1729
594 1719
591 1709
589 1699
589 1689
584 1680
584 1670
582 1660
579 1650
579 1640
574 1631
574 1621
569 1599
569 1589
564 1580
564 1570
564 1560
559 1551
559 1541
554 1518
554 1508
549 1499
549 1489
549 1479
544 1470
544 1460
544 1450
539 1441
539 1431
534 1422
534 1412
534 1402
529 1393
529 1383
524 1374
524 1364
521 1354
519 1344
516 1334
514 1324
514 1314
509 1305
509 1295
504 1286
499 1259
494 1250
494 1240
489 1231
484 1211
479 1186
