404 1367
404 1377
409 1386
414 1395
419 1404
424 1413
425 1423
429 1433
434 1442
429 1457
425 1471
417 1479
409 1487
409 1497
414 1506
424 1510
430 1518
435 1527
439 1537
431 1544
422 1549
412 1549
404 1557
409 1566
409 1576
416 1584
417 1594
412 1604
404 1612
404 1622
409 1631
414 1640
417 1650
422 1659
426 1669
429 1679
434 1688
434 1698
429 1707
429 1717
439 1720
448 1715
457 1710
466 1705
476 1705
486 1708
494 1715
500 1723
510 1727
517 1735
527 1735
535 1724
535 1714
530 1705
530 1695
540 1695
550 1697
560 1700
570 1700
580 1695
590 1695
599 1700
609 1700
618 1705
627 1710
637 1714
647 1715
656 1710
665 1715
675 1717
685 1717
695 1715
705 1710
715 1705
725 1705
734 1710
743 1715
750 1723
758 1730
767 1735
777 1734
780 1719
780 1709
775 1700
784 1695
794 1695
803 1700
813 1700
823 1698
833 1698
843 1700
853 1700
862 1705
871 1710
881 1713
891 1715
900 1710
909 1715
919 1715
928 1720
938 1718
948 1713
958 1708
968 1705
978 1705
985 1713
993 1720
1002 1725
1010 1732
1020 1735
1030 1724
1030 1714
1025 1705
1025 1695
1035 1695
1045 1697
1055 1700
1065 1700
1075 1695
1085 1695
1094 1700
1104 1700
1113 1705
1122 1710
1132 1714
1142 1715
1152 1715
1159 1723
1159 1733
1159 1743
1164 1752
1164 1762
1167 1779
1159 1787
1154 1797
1154 1807
1159 1816
1164 1825
1170 1833
1175 1842
1179 1852
1179 1862
1177 1874
1169 1882
1169 1892
1168 1904
1159 1909
1149 1912
1144 1922
1144 1932
1144 1942
1149 1951
1154 1960
1157 1970
1159 1980
1159 1990
1162 2000
1167 2009
1169 2019
1162 2034
1154 2042
1154 2052
1159 2061
1164 2070
1169 2079
1175 2087
1179 2097
1179 2107
1177 2119
1169 2127
1169 2137
1169 2147
1162 2159
1152 2159
1144 2167
1144 2177
1144 2187
1149 2196
1154 2205
1154 2215
1159 2224
1159 2234
1161 2244
1164 2254
1169 2263
1167 2274
1159 2282
1154 2292
1154 2302
1159 2311
1164 2320
1170 2328
1175 2337
1179 2347
1179 2357
1174 2367
1169 2377
1169 2387
1167 2399
1159 2407
1149 2407
1144 2417
1144 2427
1144 2437
1149 2446
1154 2455
1163 2460
1172 2465
1182 2469
1192 2465
1200 2455
1210 2450
1219 2455
1229 2455
1235 2463
1245 2467
1254 2462
1262 2455
1271 2450
1281 2450
1290 2455
1299 2460
1308 2465
1315 2473
1325 2477
1332 2485
1342 2485
1351 2480
1360 2475
1368 2468
1378 2463
1388 2460
1398 2460
1408 2460
1417 2465
1427 2465
1437 2465
1446 2460
1455 2455
1464 2450
1473 2455
1482 2460
1490 2467
1500 2465
1508 2458
1518 2453
1528 2450
1537 2455
1547 2459
1554 2467
1564 2470
1570 2478
1580 2482
1590 2485
1600 2480
1608 2473
1618 2468
1628 2463
1638 2460
1648 2458
1650 2439
1645 2430
1645 2420
1654 2415
1664 2415
1672 2409
1675 2390
1675 2380
1675 2370
1680 2354
1680 2344
1674 2336
1669 2327
1662 2319
1657 2310
1655 2300
1655 2290
1663 2283
1670 2270
1670 2260
1665 2251
1660 2242
1660 2232
1660 2222
1655 2213
1655 2203
1650 2194
1645 2185
1645 2175
1654 2170
1664 2167
1674 2162
1675 2145
1675 2135
1675 2125
1680 2109
1680 2099
1675 2090
1669 2082
1662 2074
1657 2065
1655 2055
1655 2045
1660 2035
1668 2028
1669 2011
1664 2002
1660 1992
1660 1982
1660 1972
1655 1963
1650 1954
1650 1944
1645 1935
1645 1925
1654 1920
1664 1920
1672 1914
1675 1895
1675 1885
1675 1875
1680 1859
1680 1849
1674 1841
1669 1832
1662 1824
1657 1815
1655 1805
1655 1795
1663 1788
1670 1773
1670 1763
1665 1754
1660 1745
1660 1735
1657 1725
1655 1715
1665 1717
1675 1720
1685 1715
1695 1710
1705 1705
1715 1705
1724 1710
1733 1715
1740 1723
1748 1730
1757 1735
1767 1734
1770 1719
1770 1709
1765 1700
1774 1695
1784 1695
1793 1700
1803 1700
1813 1698
1823 1698
1833 1700
1843 1700
1852 1705
1861 1710
1871 1713
1881 1715
1890 1710
1899 1715
1909 1715
1918 1720
1928 1718
1938 1713
1948 1708
1958 1705
1968 1705
1975 1713
1983 1720
1992 1725
2000 1732
2010 1735
2020 1724
2020 1714
2015 1705
2015 1695
2025 1695
2035 1697
2045 1700
2055 1700
2065 1695
2075 1695
2084 1700
2094 1700
2103 1705
2112 1710
2122 1714
2132 1715
2141 1710
2150 1715
2160 1717
2170 1717
2180 1715
2190 1710
2200 1705
2210 1705
2219 1710
2228 1715
2235 1723
2243 1730
2252 1735
2262 1734
2265 1719
2265 1709
2260 1700
2269 1695
2279 1695
2288 1700
2298 1700
2308 1698
2318 1698
2328 1700
2338 1700
2347 1705
2356 1710
2366 1713
2376 1715
2385 1710
2394 1715
2404 1715
2414 1712
2420 1698
2420 1688
2415 1679
2412 1669
2407 1660
2403 1650
2395 1644
2395 1634
2390 1625
2390 1615
2398 1608
2408 1603
2418 1604
2417 1594
2409 1587
2402 1579
2397 1570
2395 1560
2404 1555
2414 1552
2424 1547
2425 1532
2420 1523
2413 1515
2405 1509
2405 1499
2400 1490
2408 1483
2413 1473
2415 1460
2420 1446
2418 1436
2414 1426
2409 1417
2405 1407
2400 1398
2395 1389
2390 1380
2390 1370
2395 1360
2405 1355
2415 1355
2415 1342
2405 1339
2402 1329
2397 1320
2395 1310
2405 1305
2415 1305
2423 1298
2425 1282
2417 1275
2413 1265
2405 1259
2400 1250
2400 1240
2408 1233
2413 1223
2412 1204
2402 1204
2393 1199
2383 1199
2374 1204
2364 1204
2354 1204
2345 1199
2336 1194
2326 1194
2317 1189
2307 1189
2298 1194
2288 1194
2279 1189
2269 1189
2259 1189
2250 1184
2241 1179
2232 1174
2223 1179
2213 1179
2205 1186
2195 1191
2187 1199
2177 1204
2167 1209
2158 1204
2149 1199
2139 1199
2130 1204
2120 1204
2110 1204
2101 1199
2091 1199
2082 1194
2073 1189
2063 1189
2054 1194
2044 1194
2034 1191
2024 1189
2014 1189
2005 1184
1999 1176
1991 1169
1982 1164
1972 1164
1962 1164
1957 1174
1952 1184
1948 1194
1940 1201
1930 1206
1920 1209
1911 1204
1902 1199
1892 1199
1883 1204
1873 1204
1863 1204
1853 1201
1844 1196
1834 1194
1825 1189
1815 1191
1805 1194
1795 1194
1786 1189
1776 1189
1766 1189
1757 1184
1747 1184
1738 1179
1728 1179
1718 1179
1710 1186
1702 1194
1692 1199
1682 1204
1672 1209
1663 1204
1653 1201
1645 1195
1645 1185
1654 1180
1664 1177
1674 1172
1675 1155
1675 1145
1675 1135
1680 1119
1680 1109
1675 1100
1669 1092
1662 1084
1657 1075
1655 1065
1655 1055
1660 1045
1668 1038
1669 1021
1664 1012
1660 1002
1660 992
1660 982
1655 973
1650 964
1650 954
1645 945
1645 935
1654 930
1664 930
1672 924
1675 905
1675 895
1675 885
1680 869
1680 859
1674 851
1669 842
1662 834
1657 825
1655 815
1655 805
1663 798
1670 785
1670 775
1665 766
1660 757
1660 747
1660 737
1655 728
1655 718
1650 709
1645 700
1645 690
1654 685
1664 682
1674 677
1675 660
1675 650
1675 640
1680 624
1680 614
1675 605
1669 597
1662 589
1657 580
1655 570
1655 560
1660 550
1668 543
1670 527
1665 518
1660 509
1660 499
1660 489
1655 480
1652 470
1650 460
1645 451
1645 441
1655 429
1645 431
1635 436
1625 439
1615 439
1605 439
1596 434
1587 429
1577 429
1567 429
1559 437
1559 447
1562 464
1552 460
1545 452
1537 445
1530 437
1520 434
1510 436
1502 444
1492 449
1482 449
1472 449
1463 444
1453 444
1444 439
1434 439
1424 436
1414 434
1405 429
1395 431
1385 436
1375 439
1365 439
1355 439
1346 434
1337 429
1327 429
1317 429
1309 437
1314 446
1317 459
1307 460
1300 452
1292 445
1284 439
1275 434
1265 436
1257 444
1247 449
1238 454
1229 449
1219 446
1209 444
1200 439
1190 439
1180 439
1171 434
1162 429
1152 429
1144 437
1144 447
1149 456
1149 466
1154 475
1157 485
1159 495
1159 505
1162 515
1167 524
1169 534
1162 549
1154 557
1154 567
1159 576
1164 585
1169 594
1175 602
1179 612
1179 622
1174 637
1169 647
1169 657
1162 669
1152 674
1144 682
1144 692
1144 702
1149 711
1154 720
1154 730
1159 739
1159 749
1161 759
1164 769
1169 778
1167 789
1159 797
1154 807
1154 817
1159 826
1164 835
1170 843
1175 852
1179 862
1179 872
1177 884
1169 892
1169 902
1164 917
1154 922
1144 927
1144 937
1144 947
1149 956
1154 965
1154 975
1159 984
1159 994
1159 1004
1164 1013
1169 1022
1169 1032
1162 1044
1154 1052
1154 1062
1159 1071
1164 1080
1169 1089
1175 1097
1179 1107
1179 1117
1177 1129
1169 1137
1169 1147
1162 1164
1152 1169
1144 1177
1144 1187
1140 1204
1130 1204
1120 1204
1110 1203
1103 1195
1093 1194
1084 1189
1074 1189
1065 1194
1055 1194
1045 1192
1035 1189
1025 1189
1016 1184
1007 1179
997 1179
987 1179
977 1179
968 1184
960 1191
952 1199
943 1204
934 1209
925 1204
915 1202
905 1199
895 1201
885 1204
875 1204
865 1202
855 1199
846 1194
837 1189
827 1189
818 1194
808 1194
798 1190
788 1189
778 1189
769 1184
760 1179
754 1171
744 1169
734 1167
724 1172
719 1182
711 1190
706 1199
697 1204
688 1209
678 1206
669 1201
659 1199
649 1202
639 1204
629 1204
619 1201
609 1199
600 1194
590 1194
581 1189
572 1194
562 1194
552 1194
543 1189
533 1189
523 1185
513 1185
503 1184
493 1184
484 1179
474 1182
464 1187
457 1199
447 1204
438 1209
430 1216
425 1226
417 1234
409 1242
409 1252
417 1259
424 1267
432 1274
439 1282
431 1295
421 1299
412 1304
409 1321
414 1330
417 1340
417 1350
409 1357
