539 1222
539 1212
549 1209
559 1209
569 1209
579 1209
589 1209
599 1209
609 1209
619 1209
629 1209
639 1209
649 1209
659 1209
669 1209
679 1209
689 1209
699 1209
709 1209
719 1209
729 1209
739 1209
749 1209
759 1209
769 1209
779 1209
789 1209
799 1209
809 1209
819 1209
829 1209
839 1209
849 1209
859 1209
869 1209
879 1209
889 1209
899 1209
909 1209
919 1209
929 1209
939 1209
949 1209
959 1209
969 1209
979 1209
989 1209
999 1209
1009 1209
1019 1209
1029 1209
1039 1209
1049 1209
1059 1209
1069 1209
1079 1209
1089 1209
1099 1209
1109 1209
1119 1209
1129 1209
1139 1209
1149 1209
1159 1209
1169 1209
1179 1209
1189 1209
1199 1209
1209 1209
1219 1202
1219 1192
1219 1177
1219 1167
1219 1152
1219 1142
1219 1127
1219 1117
1219 1102
1219 1092
1219 1077
1219 1067
1219 1052
1219 1042
1219 1027
1219 1017
1219 1002
1219 992
1219 977
1219 967
1219 952
1219 942
1219 927
1219 917
1219 902
1219 892
1219 877
1219 867
1219 852
1219 842
1219 827
1219 817
1219 802
1219 792
1219 777
1219 767
1219 752
1219 742
1219 727
1219 717
1219 702
1219 692
1219 677
1219 667
1219 652
1219 642
1219 627
1219 617
1219 607
1219 597
1219 587
1219 577
1219 567
1219 557
1219 547
1219 537
1219 522
1227 514
1237 514
1247 514
1257 514
1267 514
1277 514
1287 514
1297 514
1307 514
1315 520
1315 530
1315 540
1315 550
1315 560
1315 570
1315 580
1315 590
1315 600
1315 610
1315 620
1315 630
1315 640
1315 650
1315 660
1315 670
1315 680
1315 690
1315 700
1315 710
1315 720
1315 730
1315 740
1315 750
1315 760
1315 770
1315 780
1315 790
1315 800
1315 810
1315 820
1315 830
1315 840
1315 850
1315 860
1315 870
1315 880
1315 890
1315 900
1315 910
1315 920
1315 930
1315 940
1315 950
1315 960
1315 970
1315 980
1315 990
1315 1000
1315 1010
1315 1020
1315 1030
1315 1040
1315 1050
1315 1060
1315 1070
1315 1080
1315 1090
1315 1100
1315 1110
1315 1120
1315 1130
1315 1140
1315 1150
1315 1160
1315 1170
1315 1180
1315 1190
1315 1200
1320 1209
1330 1209
1340 1209
1350 1209
1360 1209
1364 1197
1364 1187
1364 1177
1364 1167
1364 1157
1364 1147
1364 1137
1364 1127
1364 1117
1364 1107
1364 1097
1364 1087
1364 1077
1364 1067
1364 1057
1364 1047
1364 1037
1364 1027
1364 1017
1364 1007
1364 997
1364 987
1364 977
1364 967
1364 957
1364 947
1364 937
1364 927
1364 917
1364 907
1364 897
1364 887
1364 877
1364 867
1364 857
1364 847
1364 837
1364 827
1364 817
1364 807
1364 797
1364 787
1364 777
1364 767
1364 757
1364 747
1364 737
1364 727
1364 717
1364 707
1364 697
1364 687
1364 677
1364 667
1364 657
1364 647
1364 637
1364 627
1364 617
1364 607
1364 597
1364 587
1364 577
1364 567
1364 557
1364 547
1364 537
1364 527
1364 517
1374 514
1384 514
1394 514
1404 514
1414 514
1424 514
1434 514
1444 514
1454 514
1464 514
1474 514
1484 514
1494 514
1504 514
1514 514
1524 514
1534 514
1544 514
1554 514
1564 514
1574 514
1584 514
1594 514
1604 514
1614 514
1624 514
1634 514
1644 514
1654 514
1664 514
1674 514
1682 520
1685 530
1685 540
1685 550
1685 560
1685 570
1685 580
1685 590
1685 600
1685 610
1685 620
1685 630
1685 640
1685 650
1685 660
1685 670
1685 680
1685 690
1685 700
1685 710
1685 720
1685 730
1685 740
1685 750
1685 760
1685 770
1685 780
1685 790
1685 800
1685 810
1685 820
1685 830
1685 840
1685 850
1685 860
1685 870
1685 880
1685 890
1685 900
1685 910
1685 920
1685 930
1685 940
1685 950
1685 960
1685 970
1685 980
1685 990
1685 1000
1685 1010
1685 1020
1685 1030
1685 1040
1685 1050
1685 1060
1685 1070
1685 1080
1685 1090
1685 1100
1685 1110
1685 1120
1685 1130
1685 1140
1685 1150
1685 1160
1685 1170
1685 1180
1685 1190
1685 1200
1690 1209
1700 1209
1710 1209
1720 1209
1730 1209
1740 1209
1750 1209
1760 1209
1770 1209
1780 1209
1790 1209
1800 1209
1810 1209
1820 1209
1830 1209
1840 1209
1850 1209
1860 1209
1870 1209
1880 1209
1890 1209
1900 1209
1910 1209
1920 1209
1930 1209
1940 1209
1950 1209
1960 1209
1970 1209
1980 1209
1990 1209
2000 1209
2010 1209
2020 1209
2030 1209
2040 1209
2050 1209
2060 1209
2070 1209
2080 1209
2090 1209
2100 1209
2110 1209
2120 1209
2130 1209
2140 1209
2150 1209
2160 1209
2170 1209
2180 1209
2190 1209
2200 1209
2210 1209
2220 1209
2230 1209
2240 1209
2250 1209
2260 1209
2270 1209
2280 1209
2290 1209
2300 1209
2310 1209
2320 1209
2330 1209
2340 1209
2350 1209
2360 1209
2365 1218
2365 1228
2365 1238
2365 1248
2365 1258
2365 1268
2365 1278
2365 1288
2365 1298
2365 1308
2365 1318
2365 1328
2365 1338
2365 1348
2365 1358
2365 1368
2365 1378
2365 1388
2365 1398
2365 1408
2365 1418
2365 1428
2365 1438
2365 1448
2365 1458
2365 1468
2365 1478
2365 1488
2365 1498
2365 1508
2355 1520
2345 1520
2335 1520
2325 1520
2315 1520
2305 1520
2295 1520
2285 1520
2275 1520
2265 1520
2255 1520
2245 1520
2235 1520
2225 1520
2215 1520
2205 1520
2195 1520
2185 1520
2175 1520
2165 1520
2155 1520
2145 1520
2135 1520
2125 1520
2115 1520
2105 1520
2095 1520
2085 1520
2075 1520
2065 1520
2055 1520
2045 1520
2035 1520
2025 1520
2015 1520
2005 1520
1995 1520
1985 1520
1975 1520
1965 1520
1955 1520
1945 1520
1935 1520
1925 1520
1915 1520
1905 1520
1895 1520
1885 1520
1875 1520
1865 1520
1855 1520
1845 1520
1835 1520
1825 1520
1815 1520
1805 1520
1795 1520
1785 1520
1775 1520
1765 1520
1755 1520
1745 1520
1735 1520
1725 1520
1715 1520
1705 1520
1695 1520
1685 1520
1685 1530
1685 1540
1685 1550
1685 1560
1680 1575
1680 1585
1685 1594
1695 1594
1705 1594
1715 1594
1725 1594
1735 1594
1745 1594
1755 1594
1765 1594
1775 1594
1785 1594
1795 1594
1805 1594
1815 1594
1825 1594
1835 1594
1845 1594
1855 1594
1865 1594
1875 1594
1885 1594
1895 1594
1905 1594
1915 1594
1925 1594
1935 1594
1945 1594
1955 1594
1965 1594
1975 1594
1985 1594
1995 1594
2005 1594
2015 1594
2025 1594
2035 1594
2045 1594
2055 1594
2065 1594
2075 1594
2085 1594
2095 1594
2105 1594
2115 1594
2125 1594
2135 1594
2145 1594
2155 1594
2165 1594
2175 1594
2185 1594
2195 1594
2205 1594
2215 1594
2225 1594
2235 1594
2245 1594
2255 1594
2265 1594
2275 1594
2285 1594
2295 1594
2305 1594
2315 1594
2325 1594
2335 1594
2345 1594
2355 1594
2365 1597
2365 1607
2365 1617
2365 1627
2365 1637
2365 1647
2365 1657
2365 1667
2365 1677
2355 1680
2345 1680
2335 1680
2325 1680
2315 1680
2305 1680
2295 1680
2285 1680
2275 1680
2265 1680
2255 1680
2245 1680
2235 1680
2225 1680
2215 1680
2205 1680
2195 1680
2185 1680
2175 1680
2165 1680
2155 1680
2145 1680
2135 1680
2125 1680
2115 1680
2105 1680
2095 1680
2085 1680
2075 1680
2065 1680
2055 1680
2045 1680
2035 1680
2025 1680
2015 1680
2005 1680
1995 1680
1985 1680
1975 1680
1965 1680
1955 1680
1945 1680
1935 1680
1925 1680
1915 1680
1905 1680
1895 1680
1885 1680
1875 1680
1865 1680
1855 1680
1845 1680
1835 1680
1825 1680
1815 1680
1805 1680
1795 1680
1785 1680
1775 1680
1765 1680
1755 1680
1745 1680
1735 1680
1725 1680
1715 1680
1705 1680
1695 1680
1685 1680
1685 1690
1685 1700
1685 1710
1685 1720
1685 1730
1685 1740
1685 1750
1685 1760
1685 1770
1685 1780
1685 1790
1685 1800
1685 1810
1685 1820
1685 1830
1685 1840
1685 1850
1685 1860
1685 1870
1685 1880
1685 1890
1685 1900
1685 1910
1685 1920
1685 1930
1685 1940
1685 1950
1685 1960
1685 1970
1685 1980
1685 1990
1685 2000
1685 2010
1685 2020
1685 2030
1685 2040
1685 2050
1685 2060
1685 2070
1685 2080
1685 2090
1685 2100
1685 2110
1685 2120
1685 2130
1685 2140
1685 2150
1685 2160
1685 2170
1685 2180
1685 2190
1685 2200
1685 2210
1685 2220
1685 2230
1685 2240
1685 2250
1685 2260
1685 2270
1685 2280
1685 2290
1685 2300
1685 2310
1685 2320
1685 2330
1685 2340
1685 2350
1685 2360
1683 2373
1673 2375
1663 2375
1653 2375
1643 2375
1633 2375
1623 2375
1613 2375
1603 2375
1593 2375
1583 2375
1573 2375
1563 2375
1553 2375
1543 2375
1533 2375
1523 2375
1513 2375
1504 2370
1504 2360
1504 2350
1504 2340
1504 2330
1504 2320
1504 2310
1504 2300
1504 2290
1504 2280
1504 2270
1504 2260
1504 2250
1504 2240
1504 2230
1504 2220
1504 2210
1504 2200
1504 2190
1504 2180
1504 2170
1504 2160
1504 2150
1504 2140
1504 2130
1504 2120
1504 2110
1504 2100
1504 2090
1504 2080
1504 2070
1504 2060
1504 2050
1504 2040
1504 2030
1504 2020
1504 2010
1504 2000
1504 1990
1504 1980
1504 1970
1504 1960
1504 1950
1504 1940
1504 1930
1504 1920
1504 1910
1504 1900
1504 1890
1504 1880
1504 1870
1504 1860
1504 1850
1504 1840
1504 1830
1504 1820
1504 1810
1504 1800
1504 1790
1504 1780
1504 1770
1504 1760
1504 1750
1504 1740
1504 1730
1504 1720
1504 1710
1504 1700
1504 1690
1504 1680
1495 1675
1485 1675
1475 1675
1465 1675
1455 1675
1455 1685
1455 1695
1455 1705
1455 1715
1455 1725
1455 1735
1455 1745
1455 1755
1455 1765
1455 1775
1455 1785
1455 1795
1455 1805
1455 1815
1455 1825
1455 1835
1455 1845
1455 1855
1455 1865
1455 1875
1455 1885
1455 1895
1455 1905
1455 1915
1455 1925
1455 1935
1455 1945
1455 1955
1455 1965
1455 1975
1455 1985
1455 1995
1455 2005
1455 2015
1455 2025
1455 2035
1455 2045
1455 2055
1455 2065
1455 2075
1455 2085
1455 2095
1455 2105
1455 2115
1455 2125
1455 2135
1455 2145
1455 2155
1455 2165
1455 2175
1455 2185
1455 2195
1455 2205
1455 2215
1455 2225
1455 2235
1455 2245
1455 2255
1455 2265
1455 2275
1455 2285
1455 2295
1455 2305
1455 2315
1455 2325
1455 2335
1455 2345
1455 2355
1455 2365
1447 2375
1437 2375
1427 2375
1417 2375
1407 2375
1397 2375
1387 2375
1377 2375
1367 2375
1357 2375
1347 2375
1337 2375
1327 2375
1317 2375
1307 2375
1297 2375
1287 2375
1277 2375
1267 2375
1257 2375
1247 2375
1237 2375
1227 2374
1219 2367
1219 2357
1219 2342
1219 2332
1219 2317
1219 2307
1219 2292
1219 2282
1219 2267
1219 2257
1219 2242
1219 2232
1219 2217
1219 2207
1219 2192
1219 2182
1219 2167
1219 2157
1219 2142
1219 2132
1219 2117
1219 2107
1219 2092
1219 2082
1219 2067
1219 2057
1219 2042
1219 2032
1219 2017
1219 2007
1219 1992
1219 1982
1219 1967
1219 1957
1219 1942
1219 1932
1219 1917
1219 1907
1219 1892
1219 1882
1219 1867
1219 1857
1219 1842
1219 1832
1219 1817
1219 1807
1219 1792
1219 1782
1219 1767
1219 1757
1219 1747
1219 1737
1219 1727
1219 1717
1219 1707
1219 1697
1219 1680
1209 1680
1199 1680
1189 1680
1179 1680
1169 1680
1159 1680
1149 1680
1139 1680
1129 1680
1119 1680
1109 1680
1099 1680
1089 1680
1079 1680
1069 1680
1059 1680
1049 1680
1039 1680
1029 1680
1019 1680
1009 1680
999 1680
989 1680
979 1680
969 1680
959 1680
949 1680
939 1680
929 1680
919 1680
909 1680
899 1680
889 1680
879 1680
869 1680
859 1680
849 1680
839 1680
829 1680
819 1680
809 1680
799 1680
789 1680
779 1680
769 1680
759 1680
749 1680
739 1680
729 1680
719 1680
709 1680
699 1680
689 1680
679 1680
669 1680
659 1680
649 1680
639 1680
629 1680
619 1680
609 1680
599 1680
589 1680
579 1680
569 1680
559 1680
549 1680
539 1677
539 1667
539 1657
539 1647
539 1637
539 1627
539 1617
539 1607
539 1597
539 1587
539 1577
539 1567
539 1557
539 1547
539 1537
539 1527
539 1517
539 1507
539 1497
539 1487
539 1477
539 1467
539 1457
539 1447
539 1437
539 1427
549 1424
559 1424
569 1424
579 1424
589 1424
599 1424
609 1424
619 1424
629 1424
639 1424
649 1424
659 1424
669 1424
679 1424
689 1424
699 1424
709 1424
719 1424
729 1424
739 1424
749 1424
759 1424
769 1424
779 1424
789 1424
799 1424
809 1424
819 1424
829 1424
839 1424
849 1424
859 1424
869 1424
879 1424
889 1424
899 1424
909 1424
919 1424
929 1424
939 1424
949 1424
959 1424
969 1424
979 1424
989 1424
999 1424
1009 1424
1019 1424
1029 1424
1039 1424
1049 1424
1059 1424
1069 1424
1079 1424
1089 1424
1099 1424
1109 1424
1119 1424
1129 1424
1139 1424
1149 1424
1159 1424
1169 1424
1179 1424
1189 1424
1199 1424
1209 1420
1209 1410
1209 1400
1209 1390
1209 1380
1209 1370
1209 1360
1205 1350
1195 1350
1185 1350
1175 1350
1165 1350
1155 1350
1145 1350
1135 1350
1125 1350
1115 1350
1105 1350
1095 1350
1085 1350
1075 1350
1065 1350
1055 1350
1045 1350
1035 1350
1025 1350
1015 1350
1005 1350
995 1350
985 1350
975 1350
965 1350
955 1350
945 1350
935 1350
925 1350
915 1350
905 1350
895 1350
885 1350
875 1350
865 1350
855 1350
845 1350
835 1350
825 1350
815 1350
805 1350
795 1350
785 1350
775 1350
765 1350
755 1350
745 1350
735 1350
725 1350
715 1350
705 1350
695 1350
685 1350
675 1350
665 1350
655 1350
645 1350
635 1350
625 1350
615 1350
605 1350
595 1350
585 1350
575 1350
565 1350
555 1350
545 1350
539 1342
539 1332
539 1322
539 1312
539 1302
539 1292
539 1282
539 1272
539 1262
539 1252
539 1242
539 1232
