424 1182
424 1172
432 1164
441 1159
449 1152
457 1144
467 1139
475 1131
485 1126
493 1119
502 1114
510 1106
520 1101
528 1094
537 1089
545 1081
553 1074
562 1069
570 1061
580 1056
588 1049
597 1044
605 1036
613 1029
622 1024
630 1016
640 1011
648 1004
657 999
665 991
675 986
683 979
692 974
700 966
708 959
717 954
725 946
735 941
743 934
752 929
760 921
768 914
777 909
786 904
794 897
802 889
812 884
820 876
830 871
838 864
847 859
855 851
863 844
872 839
880 831
890 826
898 819
907 814
915 806
925 801
933 794
942 789
950 781
958 774
967 769
975 761
985 756
993 749
1002 744
1010 736
1018 729
1027 724
1035 716
1045 711
1053 704
1062 699
1070 691
1080 686
1088 679
1097 674
1105 666
1113 659
1122 654
1130 646
1140 641
1148 634
1157 629
1165 621
1173 614
1182 609
1191 604
1199 597
1207 589
1217 584
1225 576
1235 571
1245 574
1253 580
1260 588
1270 592
1277 600
1285 607
1294 612
1302 619
1311 624
1319 631
1325 639
1335 642
1342 650
1352 654
1359 662
1367 669
1376 674
1384 681
1390 689
1400 692
1407 700
1417 704
1424 712
1432 719
1441 724
1449 731
1455 739
1465 742
1472 750
1480 757
1489 762
1497 769
1506 774
1514 781
1520 789
1530 792
1537 800
1545 807
1554 812
1562 819
1571 824
1579 831
1585 839
1595 842
1602 850
1610 857
1619 862
1627 869
1636 874
1644 881
1650 889
1660 892
1667 900
1675 907
1684 912
1692 919
1701 924
1709 931
1715 939
1725 942
1732 950
1740 957
1749 962
1757 969
1766 974
1774 981
1780 989
1790 992
1797 1000
1805 1007
1814 1012
1822 1019
1831 1024
1839 1031
1845 1039
1854 1044
1862 1050
1870 1057
1879 1062
1887 1069
1896 1074
1904 1081
1910 1089
1919 1094
1927 1100
1935 1107
1944 1112
1952 1119
1961 1124
1969 1131
1975 1139
1984 1144
1993 1149
2002 1144
2011 1139
2019 1132
2027 1124
2037 1119
2046 1114
2054 1107
2064 1102
2072 1094
2077 1085
2065 1078
2059 1070
2049 1066
2041 1060
2032 1055
2025 1047
2015 1043
2009 1035
2000 1030
1992 1024
1984 1017
1975 1012
1967 1005
1958 1000
1950 993
1944 985
1934 981
1926 975
1917 970
1910 962
1900 958
1894 950
1885 945
1877 939
1869 932
1860 927
1852 920
1843 915
1835 908
1828 900
1819 895
1810 890
1802 884
1794 877
1785 872
1777 865
1768 860
1760 853
1754 845
1744 842
1737 834
1727 830
1720 822
1710 818
1704 810
1695 805
1687 799
1679 792
1670 787
1662 780
1653 775
1645 768
1639 760
1629 757
1622 749
1612 745
1605 737
1595 733
1589 725
1580 720
1572 714
1564 707
1555 702
1547 695
1538 690
1530 683
1524 675
1514 672
1507 664
1497 660
1490 652
1480 648
1474 640
1465 635
1457 629
1449 622
1440 617
1432 610
1423 605
1415 598
1408 590
1399 585
1391 579
1382 574
1374 567
1365 562
1357 555
1348 550
1340 543
1334 535
1324 532
1317 524
1317 509
1326 504
1334 497
1342 489
1352 484
1360 476
1370 471
1378 464
1387 459
1396 454
1404 461
1410 469
1420 472
1427 480
1437 484
1444 492
1454 496
1460 504
1469 509
1477 515
1485 522
1494 527
1502 534
1511 539
1519 546
1525 554
1535 557
1543 564
1552 569
1559 577
1569 581
1575 589
1584 594
1592 600
1600 607
1609 612
1617 619
1626 624
1634 631
1640 639
1650 642
1658 649
1667 654
1674 662
1684 666
1690 674
1699 679
1707 685
1715 692
1724 697
1732 704
1741 709
1749 716
1758 721
1765 729
1774 734
1782 740
1790 747
1799 752
1807 759
1816 764
1824 771
1830 779
1840 782
1848 789
1857 794
1864 802
1874 806
1880 814
1889 819
1897 825
1905 832
1914 837
1922 844
1931 849
1939 856
1948 861
1955 869
1964 874
1972 880
1980 887
1989 892
1997 899
2006 904
2014 911
2020 919
2030 922
2038 929
2047 934
2054 942
2064 946
2070 954
2079 959
2087 965
2095 972
2104 977
2112 984
2121 989
2129 996
2135 1004
2145 1007
2153 1014
2162 1019
2169 1027
2179 1031
2185 1039
2194 1044
2200 1052
2195 1070
2190 1085
2185 1100
2180 1115
2175 1130
2170 1145
2165 1160
2160 1175
2155 1185
2150 1200
2145 1215
2140 1230
2135 1245
2130 1260
2125 1275
2120 1290
2115 1305
2110 1320
2105 1335
2100 1350
2095 1365
2090 1380
2085 1390
2080 1405
2075 1420
2070 1435
2065 1450
2060 1465
2055 1480
2050 1495
2045 1510
2040 1525
2035 1540
2030 1555
2025 1570
2020 1585
2015 1595
2010 1610
2005 1625
2000 1640
1995 1655
1990 1670
1985 1685
1980 1700
1975 1715
1970 1730
1965 1745
1960 1760
1955 1775
1950 1790
1945 1800
1940 1815
1935 1830
1930 1845
1925 1860
1920 1875
1915 1890
1910 1905
1905 1920
1900 1935
1895 1950
1890 1965
1885 1980
1880 1995
1875 2005
1870 2020
1865 2035
1860 2050
1860 2060
1865 2069
1875 2069
1885 2072
1895 2074
1905 2074
1915 2074
1924 2079
1934 2079
1944 2079
1953 2084
1963 2084
1967 2074
1969 2062
1974 2047
1979 2032
1984 2017
1989 2002
1994 1987
1999 1977
1999 1967
2004 1952
2009 1937
2014 1922
2019 1907
2024 1892
2029 1877
2034 1862
2039 1852
2039 1842
2044 1832
2049 1822
2049 1812
2054 1797
2059 1782
2064 1767
2069 1752
2074 1737
2079 1722
2084 1707
2089 1697
2089 1687
2094 1677
2099 1667
2099 1657
2104 1642
2109 1627
2114 1612
2119 1597
2124 1582
2129 1567
2134 1557
2134 1547
2139 1537
2144 1527
2144 1517
2149 1502
2154 1487
2159 1472
2164 1457
2169 1442
2174 1427
2179 1417
2179 1407
2184 1397
2189 1387
2189 1377
2194 1362
2199 1347
2204 1332
2209 1317
2214 1302
2219 1287
2224 1277
2224 1267
2229 1257
2234 1247
2234 1237
2239 1222
2244 1207
2249 1192
2254 1177
2259 1162
2264 1147
2269 1137
2269 1127
2274 1112
2284 1111
2293 1116
2300 1124
2309 1129
2317 1135
2325 1142
2334 1147
2342 1154
2351 1159
2359 1166
2365 1174
2360 1185
2355 1200
2350 1215
2345 1230
2340 1245
2335 1260
2330 1275
2330 1285
2325 1295
2320 1310
2315 1325
2310 1340
2305 1355
2300 1370
2295 1385
2290 1400
2290 1410
2285 1420
2280 1435
2275 1450
2270 1465
2265 1480
2260 1495
2255 1510
2250 1525
2250 1535
2245 1545
2240 1560
2235 1575
2230 1590
2225 1605
2220 1620
2215 1635
2215 1645
2210 1655
2205 1670
2200 1685
2195 1700
2190 1715
2185 1730
2180 1745
2175 1760
2175 1770
2170 1780
2165 1795
2160 1810
2155 1825
2150 1840
2145 1855
2140 1870
2135 1885
2135 1895
2130 1905
2125 1920
2120 1935
2115 1950
2110 1965
2105 1980
2100 1995
2095 2010
2095 2020
2090 2030
2085 2045
2080 2060
2075 2075
2070 2090
2065 2105
2060 2120
2055 2135
2055 2145
2050 2155
2040 2160
2030 2160
2020 2160
2010 2160
2000 2160
1990 2160
1980 2160
1970 2160
1960 2160
1950 2160
1940 2160
1930 2160
1920 2160
1910 2160
1900 2160
1890 2160
1880 2160
1870 2160
1860 2160
1850 2160
1840 2160
1830 2160
1820 2160
1810 2160
1800 2160
1790 2160
1780 2160
1770 2160
1760 2160
1750 2160
1740 2160
1730 2160
1720 2160
1710 2160
1700 2160
1690 2160
1680 2160
1670 2160
1660 2160
1650 2160
1640 2160
1630 2160
1620 2160
1610 2160
1600 2160
1590 2160
1580 2160
1570 2160
1560 2160
1550 2160
1540 2160
1530 2160
1520 2160
1510 2160
1500 2160
1490 2160
1480 2160
1470 2160
1460 2160
1450 2160
1440 2160
1430 2160
1420 2160
1410 2160
1400 2160
1390 2160
1380 2160
1370 2160
1360 2160
1350 2160
1340 2160
1330 2160
1320 2160
1310 2160
1300 2160
1290 2160
1280 2160
1270 2160
1260 2160
1250 2160
1240 2160
1230 2160
1220 2160
1210 2160
1200 2160
1190 2160
1180 2160
1170 2160
1160 2160
1150 2160
1140 2160
1130 2160
1120 2160
1110 2160
1100 2160
1090 2160
1080 2160
1070 2160
1060 2160
1050 2160
1040 2160
1030 2160
1020 2160
1025 2169
1025 2179
1025 2189
1025 2199
1025 2209
1030 2218
1030 2228
1030 2238
1038 2244
1048 2244
1058 2244
1068 2244
1078 2244
1088 2244
1098 2244
1108 2244
1118 2244
1128 2244
1138 2244
1148 2244
1158 2244
1168 2244
1178 2244
1188 2244
1198 2244
1208 2244
1218 2244
1228 2244
1238 2244
1248 2244
1258 2244
1268 2244
1278 2244
1288 2244
1298 2244
1308 2244
1318 2244
1328 2244
1338 2244
1348 2244
1358 2244
1368 2244
1378 2244
1388 2244
1398 2244
1408 2244
1418 2244
1428 2244
1438 2244
1448 2244
1458 2244
1468 2244
1478 2244
1488 2244
1498 2244
1508 2244
1518 2244
1528 2244
1538 2244
1548 2244
1558 2244
1568 2244
1578 2244
1588 2244
1598 2244
1608 2244
1618 2244
1628 2244
1638 2244
1648 2244
1658 2244
1668 2244
1678 2244
1688 2244
1698 2244
1708 2244
1718 2244
1728 2244
1738 2244
1748 2244
1758 2244
1768 2244
1778 2244
1788 2244
1798 2244
1808 2244
1818 2244
1828 2244
1838 2244
1848 2244
1858 2244
1868 2244
1878 2244
1888 2244
1898 2244
1908 2244
1918 2244
1928 2244
1938 2244
1948 2244
1958 2244
1968 2244
1978 2244
1988 2244
1998 2244
2008 2244
2018 2245
2015 2260
2010 2275
2005 2290
2005 2300
2000 2310
1995 2325
1990 2335
1980 2335
1970 2335
1960 2335
1950 2335
1940 2335
1930 2335
1920 2335
1910 2335
1900 2335
1890 2335
1880 2335
1870 2335
1860 2335
1850 2335
1840 2335
1830 2335
1820 2335
1810 2335
1800 2335
1790 2335
1780 2335
1770 2335
1760 2335
1750 2335
1740 2335
1730 2335
1720 2335
1710 2335
1700 2335
1690 2335
1680 2335
1670 2335
1660 2335
1650 2335
1640 2335
1630 2335
1620 2335
1610 2335
1600 2335
1590 2335
1580 2335
1570 2335
1560 2335
1550 2335
1540 2335
1530 2335
1520 2335
1510 2335
1500 2335
1490 2335
1480 2335
1470 2335
1460 2335
1450 2335
1440 2335
1430 2335
1420 2335
1410 2335
1400 2335
1390 2335
1380 2335
1370 2335
1360 2335
1350 2335
1340 2335
1330 2335
1320 2335
1310 2335
1300 2335
1290 2335
1280 2335
1270 2335
1260 2335
1250 2335
1240 2335
1230 2335
1220 2335
1210 2335
1200 2335
1190 2335
1180 2335
1170 2335
1160 2335
1150 2335
1140 2335
1130 2335
1120 2335
1110 2335
1100 2335
1090 2335
1080 2335
1070 2335
1060 2335
1050 2335
1040 2335
1030 2335
1020 2335
1010 2335
1000 2335
990 2332
984 2324
981 2314
979 2304
974 2295
972 2285
969 2275
967 2265
964 2255
959 2246
959 2236
954 2227
954 2217
949 2208
945 2198
944 2188
939 2179
939 2169
934 2160
932 2150
929 2140
924 2131
924 2121
919 2112
919 2102
914 2093
910 2083
909 2073
905 2063
904 2053
899 2044
896 2034
894 2024
891 2014
889 2004
884 1995
882 1985
879 1975
877 1965
874 1955
869 1946
869 1936
864 1927
864 1917
859 1908
855 1898
854 1888
850 1878
849 1868
844 1859
841 1849
839 1839
836 1829
834 1819
829 1810
827 1800
824 1790
822 1780
819 1770
814 1761
814 1751
809 1742
809 1732
804 1723
800 1713
799 1703
794 1694
794 1684
789 1675
787 1665
784 1655
779 1646
779 1636
774 1627
774 1617
769 1608
765 1598
764 1588
760 1578
759 1568
754 1559
751 1549
749 1539
746 1529
744 1519
739 1510
737 1500
734 1490
734 1480
729 1471
724 1462
724 1452
719 1443
719 1433
714 1424
711 1414
709 1404
704 1395
695 1400
685 1405
675 1410
665 1415
655 1420
646 1425
637 1430
628 1435
619 1440
610 1445
612 1455
615 1465
617 1475
622 1484
625 1494
625 1504
630 1513
635 1522
635 1532
640 1541
643 1551
645 1561
650 1570
652 1580
655 1590
660 1599
660 1609
665 1618
670 1627
670 1637
675 1646
678 1656
680 1666
683 1676
688 1685
690 1695
692 1705
695 1715
700 1724
700 1734
705 1743
710 1752
710 1762
715 1771
718 1781
720 1791
725 1800
727 1810
730 1820
735 1829
735 1839
740 1848
745 1857
745 1867
749 1877
754 1886
755 1896
758 1906
760 1916
765 1925
767 1935
770 1945
775 1954
775 1964
780 1973
785 1982
785 1992
790 2001
793 2011
795 2021
800 2030
802 2040
805 2050
810 2059
810 2069
815 2078
820 2087
820 2097
824 2107
825 2117
830 2126
833 2136
835 2146
840 2155
842 2165
845 2175
850 2184
850 2194
855 2203
860 2212
860 2222
865 2231
868 2241
870 2251
875 2260
875 2270
880 2279
885 2288
885 2298
890 2307
890 2317
895 2326
890 2335
880 2335
870 2335
860 2335
850 2335
840 2335
830 2335
820 2335
810 2335
800 2335
790 2333
789 2323
785 2313
784 2303
779 2294
776 2284
774 2274
769 2265
769 2255
764 2246
764 2236
759 2227
754 2218
754 2208
749 2199
746 2189
744 2179
739 2170
739 2160
734 2151
729 2142
729 2132
725 2122
720 2113
719 2103
715 2093
714 2083
709 2074
706 2064
704 2054
699 2045
699 2035
694 2026
694 2016
689 2007
684 1998
684 1988
679 1979
676 1969
674 1959
669 1950
669 1940
664 1931
659 1922
659 1912
655 1902
650 1893
649 1883
645 1873
644 1863
639 1854
636 1844
634 1834
629 1825
629 1815
624 1806
624 1796
619 1787
614 1778
614 1768
609 1759
606 1749
604 1739
599 1730
599 1720
594 1711
589 1702
589 1692
585 1682
580 1673
579 1663
575 1653
574 1643
569 1634
566 1624
564 1614
559 1605
557 1595
554 1585
554 1575
549 1566
544 1557
544 1547
539 1538
535 1528
534 1518
529 1509
526 1499
524 1489
519 1480
519 1470
514 1461
514 1451
509 1442
509 1432
519 1427
527 1419
536 1414
544 1407
552 1399
562 1394
570 1386
580 1381
588 1374
597 1369
605 1361
613 1354
622 1349
630 1341
638 1334
647 1329
655 1321
665 1316
673 1309
682 1304
690 1296
698 1289
707 1284
715 1276
725 1271
733 1264
742 1259
750 1251
758 1244
767 1239
775 1231
785 1226
793 1219
802 1214
810 1206
818 1199
827 1194
835 1186
845 1181
853 1174
862 1169
870 1161
878 1154
887 1149
895 1141
905 1136
913 1129
922 1124
930 1116
938 1109
947 1104
955 1096
965 1091
973 1084
982 1079
990 1071
998 1064
1007 1059
1015 1051
1025 1046
1033 1039
1042 1034
1050 1026
1058 1019
1067 1014
1075 1006
1085 1001
1093 994
1102 989
1110 981
1118 974
1127 969
1135 961
1145 956
1153 949
1162 944
1170 936
1178 929
1187 924
1195 916
1205 911
1213 904
1222 899
1230 891
1238 884
1247 879
1255 871
1265 866
1273 859
1282 845
1279 835
1271 828
1266 819
1259 811
1254 802
1249 793
1242 785
1238 775
1230 768
1224 760
1215 765
1205 770
1197 779
1189 785
1180 790
1173 798
1163 803
1155 810
1145 815
1137 824
1129 830
1120 835
1112 844
1104 850
1095 855
1088 863
1078 868
1070 875
1060 880
1052 889
1044 895
1035 900
1027 909
1019 915
1010 920
1003 928
993 933
985 940
975 945
967 954
959 960
950 965
943 973
933 978
925 985
918 993
908 998
900 1005
890 1010
882 1019
874 1025
865 1030
858 1038
848 1043
840 1050
833 1058
823 1063
815 1070
805 1075
797 1084
789 1090
780 1095
773 1103
763 1108
755 1115
745 1120
738 1128
730 1135
720 1140
712 1149
704 1155
695 1160
688 1168
678 1173
670 1180
660 1185
653 1193
645 1200
635 1205
627 1214
619 1220
610 1225
603 1233
593 1238
585 1245
575 1250
568 1258
560 1265
550 1270
542 1279
534 1285
525 1290
518 1298
508 1303
500 1310
490 1315
482 1324
472 1325
469 1315
464 1306
464 1296
459 1287
459 1277
454 1268
450 1258
449 1248
444 1239
441 1229
439 1219
434 1210
434 1200
429 1191
