19 1262
27 1254
37 1249
47 1249
57 1244
67 1239
77 1234
87 1234
97 1229
107 1229
117 1229
126 1224
135 1219
145 1219
154 1214
164 1214
174 1212
184 1207
194 1204
204 1202
214 1199
224 1197
234 1194
244 1192
254 1189
264 1187
274 1184
283 1179
293 1179
303 1179
312 1174
322 1169
332 1169
341 1164
350 1159
360 1159
369 1154
378 1149
387 1144
397 1144
406 1139
415 1134
425 1131
435 1129
445 1126
455 1124
464 1119
474 1119
484 1119
493 1114
503 1114
513 1114
523 1114
533 1114
543 1114
553 1114
563 1114
573 1114
583 1114
593 1114
603 1114
613 1114
623 1114
633 1114
643 1114
653 1114
662 1119
672 1119
682 1119
692 1119
702 1119
711 1124
721 1124
731 1124
741 1124
751 1124
760 1129
770 1129
780 1129
790 1129
799 1134
809 1134
819 1134
829 1130
828 1120
819 1115
810 1110
800 1107
790 1103
784 1095
774 1092
765 1087
755 1083
748 1075
739 1070
729 1067
720 1062
710 1058
704 1050
694 1047
685 1042
677 1035
668 1030
659 1025
651 1019
642 1014
632 1010
628 1000
619 995
610 990
602 984
592 980
585 972
577 965
570 957
562 950
553 945
545 938
538 930
530 923
524 915
516 909
512 899
504 892
499 883
494 874
489 865
481 859
477 849
472 840
465 832
460 823
454 815
449 806
444 797
437 789
429 782
424 773
417 765
410 757
405 748
396 743
391 734
384 726
379 717
370 712
365 703
358 695
350 688
346 678
340 670
332 664
327 655
319 648
314 639
309 630
299 626
294 617
290 607
282 600
278 590
270 583
266 573
261 564
257 554
247 550
244 540
239 531
244 519
254 521
264 524
274 526
284 529
294 531
304 534
314 536
323 541
333 544
343 544
352 549
361 554
370 559
380 559
390 562
399 567
409 571
418 576
428 579
438 580
447 585
457 589
466 594
476 594
485 599
493 605
503 609
513 610
523 614
532 619
541 624
551 624
560 629
569 634
579 634
588 639
598 639
607 644
617 644
626 649
636 649
645 654
655 654
665 657
675 659
684 664
693 669
703 670
712 675
722 679
729 687
739 689
747 695
757 699
764 707
774 711
780 719
790 722
798 729
805 737
814 742
822 749
831 754
840 759
845 768
855 772
862 780
870 787
879 792
887 799
894 807
902 814
909 822
919 826
923 836
933 840
940 848
948 855
955 863
960 872
969 877
977 884
984 892
994 894
999 879
994 870
989 861
984 852
984 842
977 834
972 825
969 815
969 805
961 798
956 789
952 779
947 770
944 760
939 751
939 741
934 732
929 723
924 714
919 705
919 695
914 686
909 677
909 667
905 657
900 648
899 638
895 628
894 618
889 609
889 599
884 590
884 580
884 570
879 561
879 551
879 541
874 532
874 522
874 512
874 502
874 492
874 482
879 465
879 455
879 445
879 435
879 425
879 415
879 405
879 395
879 385
879 375
879 365
879 355
879 345
879 335
879 325
879 315
879 305
874 296
874 286
874 276
874 266
874 256
874 246
874 236
869 227
869 217
869 207
869 197
869 187
869 177
869 167
869 157
869 147
869 137
869 127
869 117
869 107
869 97
869 87
874 72
874 62
874 52
884 51
888 61
895 69
900 78
910 82
914 92
920 100
928 106
933 115
940 123
945 132
952 140
957 149
960 159
965 168
975 172
980 181
985 190
990 199
995 208
1003 215
1007 225
1012 234
1019 242
1024 251
1028 261
1033 270
1040 278
1045 287
1050 296
1056 304
1060 314
1068 320
1075 328
1080 337
1085 346
1091 354
1099 361
1103 371
1110 379
1115 388
1123 394
1130 402
1137 410
1142 419
1150 425
1155 434
1160 443
1165 452
1170 461
1176 469
1180 479
1185 488
1190 497
1190 507
1197 515
1200 525
1202 535
1210 542
1210 552
1214 562
1215 572
1219 582
1220 592
1224 602
1229 611
1230 621
1233 631
1235 641
1235 651
1240 660
1240 670
1245 679
1245 689
1250 698
1250 708
1250 718
1255 727
1255 737
1259 747
1260 757
1260 767
1265 776
1265 786
1265 796
1271 804
1279 797
1284 782
1284 772
1289 757
1289 747
1294 737
1294 727
1299 717
1299 707
1299 697
1304 687
1304 677
1309 667
1309 657
1314 642
1314 632
1319 622
1319 612
1324 602
1329 592
1329 582
1334 572
1334 562
1339 552
1339 542
1347 534
1349 517
1357 509
1359 492
1367 484
1369 472
1377 464
1382 454
1387 444
1392 434
1399 422
1409 412
1417 404
1422 394
1432 389
1437 379
1445 371
1450 361
1458 354
1464 342
1472 334
1477 324
1485 316
1490 306
1498 299
1502 289
1509 277
1517 269
1522 259
1527 249
1532 239
1539 227
1544 217
1554 207
1559 197
1564 187
1569 177
1577 169
1585 161
1590 151
1595 141
1604 132
1609 122
1617 114
1622 104
1630 96
1638 89
1642 79
1652 74
1657 64
1664 52
1674 51
1675 61
1675 71
1675 81
1680 90
1680 100
1680 110
1680 120
1680 130
1680 140
1680 150
1680 160
1680 170
1680 180
1680 190
1680 200
1680 210
1680 220
1675 235
1675 245
1675 255
1675 265
1675 275
1675 285
1675 295
1670 305
1670 315
1670 325
1670 335
1670 345
1670 355
1670 365
1670 375
1670 385
1670 395
1670 405
1670 415
1670 425
1670 435
1670 445
1670 455
1670 465
1670 475
1675 484
1675 494
1675 504
1675 514
1675 524
1670 535
1670 545
1670 555
1665 570
1665 580
1660 595
1660 605
1655 615
1650 630
1650 640
1645 650
1640 660
1640 670
1635 680
1630 690
1630 700
1625 710
1620 720
1615 730
1610 740
1608 758
1603 768
1598 778
1593 788
1588 798
1580 805
1578 823
1573 833
1565 840
1563 858
1555 865
1550 875
1550 885
1555 894
1565 891
1573 884
1580 876
1589 867
1597 859
1606 854
1611 845
1619 839
1628 834
1632 824
1642 819
1651 814
1656 805
1664 799
1670 791
1680 786
1688 779
1695 771
1705 766
1710 756
1720 751
1730 746
1738 739
1745 731
1755 726
1763 719
1772 714
1781 709
1789 702
1799 697
1807 689
1817 689
1825 681
1835 676
1845 671
1855 669
1864 664
1873 659
1883 659
1892 654
1902 654
1912 649
1922 649
1932 644
1942 644
1951 639
1961 639
1970 634
1980 634
1989 629
1998 624
2008 624
2017 619
2026 614
2036 610
2046 609
2056 605
2064 599
2073 594
2083 594
2092 589
2102 584
2112 579
2122 579
2132 574
2142 569
2152 564
2162 559
2172 559
2182 554
2192 549
2202 544
2212 544
2222 544
2231 539
2240 534
2250 534
2259 529
2269 529
2278 524
2288 524
2297 519
2307 519
2308 538
2303 548
2293 553
2288 563
2283 573
2278 583
2270 590
2260 600
2255 610
2250 620
2244 630
2235 635
2230 645
2220 655
2216 665
2207 670
2202 679
2197 689
2189 695
2183 703
2178 713
2168 718
2163 728
2155 735
2149 745
2140 750
2135 760
2128 768
2123 778
2115 785
2108 793
2100 800
2095 815
2088 823
2083 833
2075 840
2070 850
2063 863
2055 870
2050 880
2043 893
2035 900
2030 910
2023 918
2015 925
2008 933
2000 940
1993 948
1983 953
1975 960
1965 965
1957 979
1947 984
1939 990
1930 995
1920 1000
1913 1010
1904 1015
1895 1020
1885 1025
1875 1030
1865 1035
1858 1045
1849 1050
1840 1055
1831 1060
1822 1065
1813 1070
1804 1075
1795 1080
1785 1085
1776 1090
1767 1095
1759 1102
1749 1107
1739 1110
1730 1115
1720 1120
1720 1130
1730 1134
1740 1134
1750 1134
1759 1129
1769 1129
1779 1129
1789 1127
1799 1124
1809 1124
1819 1124
1829 1124
1839 1122
1849 1119
1859 1119
1869 1119
1879 1119
1889 1117
1899 1114
1909 1114
1919 1114
1929 1114
1939 1114
1949 1114
1959 1114
1969 1114
1979 1114
1989 1114
1999 1114
2009 1114
2019 1114
2029 1114
2039 1114
2049 1114
2059 1116
2069 1119
2079 1119
2089 1121
2099 1124
2108 1129
2118 1129
2127 1134
2137 1134
2146 1139
2155 1144
2165 1147
2174 1152
2184 1156
2194 1159
2204 1161
2213 1166
2223 1169
2232 1174
2242 1174
2251 1179
2261 1179
2270 1184
2280 1184
2289 1189
2299 1189
2308 1194
2318 1194
2327 1199
2337 1199
2346 1204
2356 1204
2365 1209
2375 1212
2385 1214
2395 1214
2404 1219
2414 1219
2423 1224
2432 1229
2442 1229
2452 1229
2461 1234
2471 1234
2480 1239
2489 1244
2498 1249
2508 1249
2517 1254
2526 1259
2535 1264
2525 1275
2522 1294
2512 1299
2502 1300
2492 1304
2482 1309
2472 1314
2462 1315
2452 1319
2442 1320
2432 1320
2423 1325
2414 1330
2404 1330
2395 1335
2385 1335
2375 1335
2365 1340
2356 1345
2346 1345
2337 1350
2327 1350
2318 1355
2308 1355
2299 1360
2289 1360
2280 1365
2270 1365
2260 1370
2250 1370
2241 1375
2231 1375
2222 1380
2212 1384
2202 1389
2192 1390
2182 1394
2172 1399
2162 1404
2152 1405
2143 1410
2134 1415
2124 1417
2114 1420
2104 1422
2094 1425
2085 1430
2075 1430
2065 1430
2056 1435
2046 1435
2036 1435
2026 1435
2016 1435
2006 1435
1996 1435
1986 1435
1976 1435
1966 1435
1956 1435
1946 1435
1936 1435
1926 1435
1916 1435
1906 1435
1896 1435
1887 1430
1877 1430
1867 1430
1857 1430
1847 1430
1838 1425
1828 1425
1818 1425
1808 1425
1798 1425
1789 1420
1779 1420
1769 1420
1759 1420
1750 1415
1740 1415
1730 1415
1720 1415
1720 1425
1728 1431
1735 1439
1745 1439
1754 1444
1762 1450
1772 1454
1781 1459
1790 1464
1798 1470
1807 1475
1817 1479
1826 1484
1835 1489
1843 1495
1852 1500
1862 1504
1865 1514
1875 1517
1884 1522
1894 1526
1900 1534
1910 1537
1919 1542
1927 1549
1934 1557
1944 1561
1950 1569
1960 1572
1965 1581
1974 1586
1980 1594
1989 1599
1997 1605
2005 1612
2012 1620
2020 1627
2027 1635
2035 1642
2039 1652
2047 1659
2050 1669
2055 1678
2063 1685
2070 1693
2075 1702
2079 1712
2085 1720
2090 1729
2098 1735
2100 1745
2105 1754
2113 1760
2120 1768
2125 1777
2132 1785
2140 1792
2144 1802
2154 1806
2158 1816
2165 1824
2170 1833
2180 1837
2184 1847
2192 1854
2199 1862
2204 1871
2210 1879
2218 1885
2223 1894
2230 1902
2235 1911
2241 1919
2250 1924
2255 1933
2260 1942
2267 1950
2272 1959
2279 1967
2284 1976
2288 1986
2293 1995
2302 2000
2307 2009
2310 2019
2307 2030
2297 2029
2287 2025
2277 2024
2267 2020
2257 2019
2247 2015
2237 2014
2227 2010
2218 2005
2208 2005
2199 2000
2189 1997
2180 1992
2170 1990
2160 1988
2151 1983
2141 1979
2132 1974
2122 1970
2112 1970
2103 1965
2094 1960
2085 1955
2075 1955
2066 1950
2057 1945
2048 1940
2038 1940
2029 1935
2019 1932
2010 1927
2000 1925
1991 1920
1982 1915
1972 1915
1963 1910
1953 1910
1944 1905
1934 1905
1925 1900
1915 1900
1906 1895
1896 1895
1886 1893
1876 1890
1867 1885
1858 1880
1848 1880
1839 1875
1830 1870
1822 1864
1812 1860
1803 1855
1794 1850
1786 1844
1777 1839
1769 1832
1760 1827
1752 1820
1744 1813
1735 1808
1728 1800
1719 1795
1709 1791
1704 1782
1695 1777
1687 1770
1680 1762
1670 1758
1664 1750
1656 1743
1650 1735
1642 1729
1632 1725
1629 1715
1620 1710
1612 1704
1607 1695
1598 1690
1590 1683
1583 1675
1575 1668
1569 1660
1560 1655
1550 1655
1550 1665
1552 1675
1557 1684
1564 1692
1565 1702
1569 1712
1575 1720
1580 1729
1580 1739
1585 1748
1590 1757
1595 1766
1600 1775
1605 1784
1610 1793
1610 1803
1615 1812
1619 1822
1624 1831
1628 1841
1630 1851
1633 1861
1638 1870
1640 1880
1642 1890
1647 1899
1650 1909
1650 1919
1655 1928
1660 1937
1660 1947
1664 1957
1665 1967
1665 1977
1670 1986
1670 1996
1670 2006
1673 2016
1675 2026
1675 2036
1675 2046
1675 2056
1670 2070
1670 2080
1670 2090
1670 2100
1670 2110
1670 2120
1670 2130
1670 2140
1670 2150
1670 2160
1670 2170
1670 2180
1670 2190
1670 2200
1670 2210
1670 2220
1670 2230
1670 2240
1675 2249
1675 2259
1675 2269
1675 2279
1675 2289
1675 2299
1675 2309
1680 2318
1680 2328
1680 2338
1680 2348
1680 2358
1680 2368
1680 2378
1680 2388
1680 2398
1680 2408
1680 2418
1680 2428
1680 2438
1680 2448
1675 2465
1675 2475
1675 2485
1666 2498
1661 2489
1654 2481
1649 2472
1640 2467
1635 2458
1629 2450
1621 2444
1617 2434
1609 2427
1605 2417
1597 2410
1594 2400
1589 2391
1584 2382
1575 2377
1569 2369
1564 2360
1559 2351
1554 2342
1547 2334
1542 2325
1539 2315
1531 2308
1526 2299
1522 2289
1517 2280
1510 2272
1505 2263
1499 2255
1494 2246
1489 2237
1482 2229
1474 2222
1470 2212
1464 2204
1459 2195
1451 2189
1447 2179
1439 2172
1434 2163
1428 2155
1419 2150
1414 2141
1409 2132
1400 2127
1395 2118
1389 2110
1384 2101
1379 2092
1375 2082
1369 2074
1366 2064
1359 2056
1359 2046
1354 2037
1349 2028
1349 2018
1342 2010
1339 2000
1337 1990
1334 1980
1334 1970
1329 1961
1329 1951
1324 1942
1319 1933
1319 1923
1314 1914
1314 1904
1311 1894
1309 1884
1306 1874
1304 1864
1301 1854
1299 1844
1299 1834
1296 1824
1294 1814
1291 1804
1289 1794
1289 1784
1284 1775
1284 1765
1284 1755
1280 1745
1270 1745
1265 1755
1265 1765
1260 1780
1260 1790
1255 1805
1255 1815
1250 1825
1250 1835
1250 1845
1245 1855
1245 1865
1240 1875
1240 1885
1235 1895
1235 1905
1230 1920
1230 1930
1225 1940
1220 1950
1220 1960
1215 1970
1215 1980
1210 1990
1208 2008
1200 2015
1198 2033
1190 2040
1188 2058
1180 2065
1180 2075
1173 2083
1168 2093
1163 2103
1158 2113
1150 2120
1144 2130
1138 2138
1130 2145
1124 2155
1115 2160
1108 2173
1100 2180
1095 2190
1088 2198
1083 2208
1075 2215
1068 2228
1060 2235
1053 2248
1048 2258
1040 2265
1033 2278
1028 2288
1023 2298
1018 2308
1010 2315
1005 2325
995 2335
990 2345
985 2355
980 2365
975 2375
965 2380
960 2390
955 2400
949 2410
943 2418
938 2428
930 2435
924 2445
918 2453
910 2460
904 2470
895 2475
889 2487
884 2497
874 2496
874 2486
874 2476
874 2466
869 2457
869 2447
869 2437
869 2427
869 2417
869 2407
869 2397
869 2387
869 2377
869 2367
869 2357
869 2347
869 2337
869 2327
869 2317
874 2307
874 2297
874 2287
874 2277
874 2267
874 2257
874 2247
879 2236
879 2226
879 2216
879 2206
879 2196
879 2186
879 2176
879 2166
879 2156
879 2146
879 2136
879 2126
879 2116
879 2106
879 2096
879 2086
879 2076
874 2067
874 2057
874 2047
874 2037
874 2027
874 2017
879 2002
879 1992
879 1982
884 1967
884 1957
889 1947
889 1937
894 1922
899 1912
899 1902
904 1892
909 1882
909 1872
914 1862
919 1852
919 1842
924 1832
929 1822
934 1812
939 1802
939 1792
944 1782
949 1772
954 1762
959 1752
967 1744
969 1727
974 1717
982 1709
984 1692
992 1684
997 1674
999 1663
993 1655
983 1658
975 1665
967 1674
959 1682
951 1690
942 1695
937 1704
929 1710
920 1715
914 1725
905 1730
895 1735
890 1745
880 1750
874 1760
865 1765
855 1770
849 1780
840 1785
833 1795
824 1800
815 1805
805 1810
799 1820
790 1825
780 1830
773 1838
763 1843
755 1850
746 1855
737 1860
727 1864
719 1870
710 1875
701 1880
691 1880
682 1885
673 1890
663 1893
653 1895
643 1895
634 1900
624 1900
615 1905
605 1905
595 1910
585 1910
576 1915
566 1915
557 1920
548 1925
538 1928
528 1933
518 1935
509 1940
499 1940
490 1945
480 1950
470 1955
460 1955
450 1960
440 1965
430 1970
420 1970
410 1975
400 1980
390 1985
381 1990
371 1990
362 1995
353 2000
344 2005
334 2005
324 2007
314 2012
304 2015
294 2017
284 2020
274 2022
264 2025
254 2027
244 2030
239 2012
244 2002
254 1997
259 1987
264 1977
269 1967
277 1959
282 1949
290 1941
295 1931
300 1921
310 1916
315 1906
320 1896
329 1887
337 1879
345 1871
350 1861
358 1854
365 1846
370 1836
380 1831
385 1821
393 1814
397 1804
407 1799
412 1789
420 1781
425 1771
433 1764
440 1756
448 1749
449 1737
457 1729
464 1717
472 1709
477 1699
482 1689
490 1681
495 1671
500 1661
508 1654
514 1642
522 1634
530 1626
538 1619
545 1611
553 1604
562 1599
570 1591
578 1584
585 1576
593 1569
602 1564
611 1559
619 1552
629 1542
639 1537
649 1532
657 1524
667 1519
677 1514
685 1506
695 1501
705 1496
713 1489
722 1484
732 1479
742 1474
752 1469
761 1464
770 1459
779 1454
788 1449
797 1444
806 1439
816 1435
824 1429
829 1415
819 1415
809 1415
799 1415
790 1420
780 1420
770 1420
760 1420
750 1425
740 1425
730 1425
720 1425
710 1425
700 1430
690 1430
680 1430
670 1430
660 1430
650 1435
640 1435
630 1435
620 1435
610 1435
600 1435
590 1435
580 1435
570 1435
560 1435
550 1435
540 1435
530 1435
520 1435
510 1435
500 1435
490 1432
480 1430
470 1430
460 1427
450 1425
441 1420
431 1420
422 1415
412 1414
402 1410
393 1405
384 1400
374 1397
365 1392
355 1390
345 1388
336 1383
326 1380
317 1375
307 1374
297 1370
287 1370
278 1365
268 1365
259 1360
249 1360
240 1355
230 1355
221 1350
211 1350
202 1345
192 1345
183 1340
174 1335
164 1335
154 1335
145 1330
135 1330
126 1325
117 1320
107 1320
97 1319
87 1315
77 1314
67 1310
58 1305
49 1300
39 1300
30 1295
22 1289
24 1279
29 1265
