447 2249
460 2250
469 2245
478 2240
487 2235
496 2230
505 2225
515 2220
525 2215
535 2210
545 2205
555 2200
565 2195
575 2190
585 2185
595 2185
604 2180
613 2175
622 2170
631 2165
640 2160
650 2160
659 2155
668 2150
678 2148
688 2143
698 2138
708 2135
717 2130
726 2125
736 2125
745 2120
755 2115
765 2110
775 2110
784 2105
794 2102
804 2100
813 2095
823 2093
833 2090
842 2085
852 2084
862 2080
871 2075
881 2075
890 2070
900 2070
909 2065
919 2062
929 2060
939 2057
949 2055
958 2050
968 2050
978 2048
988 2045
997 2040
1007 2040
1017 2039
1027 2035
1037 2034
1047 2030
1057 2030
1066 2025
1076 2025
1086 2025
1095 2020
1105 2020
1115 2015
1125 2015
1135 2015
1145 2010
1155 2010
1165 2010
1175 2010
1184 2005
1194 2005
1204 2005
1214 2005
1223 2000
1233 2000
1243 2000
1253 2000
1263 1998
1273 1995
1283 1995
1293 1995
1303 1995
1313 1995
1323 1993
1333 1995
1342 1990
1352 1990
1362 1990
1372 1990
1382 1990
1392 1990
1402 1990
1412 1990
1422 1990
1432 1990
1442 1990
1452 1990
1462 1990
1472 1990
1482 1990
1492 1990
1502 1990
1512 1990
1522 1990
1532 1990
1541 1995
1551 1993
1561 1995
1571 1995
1581 1995
1591 1995
1601 1995
1610 2000
1620 2000
1630 2000
1640 2000
1650 2000
1659 2005
1669 2005
1679 2005
1689 2005
1699 2005
1708 2010
1718 2010
1727 2015
1737 2015
1747 2015
1757 2019
1767 2020
1777 2020
1787 2024
1797 2025
1807 2025
1816 2030
1826 2030
1836 2033
1846 2035
1856 2038
1866 2040
1876 2043
1886 2045
1896 2048
1906 2050
1916 2053
1926 2055
1936 2058
1946 2060
1956 2063
1966 2065
1975 2070
1985 2070
1994 2075
2004 2075
2013 2080
2022 2085
2032 2085
2041 2090
2051 2093
2061 2095
2070 2100
2080 2102
2090 2105
2099 2110
2109 2110
2118 2115
2127 2120
2137 2124
2146 2129
2156 2130
2165 2135
2174 2140
2184 2140
2193 2145
2202 2150
2212 2154
2221 2159
2231 2160
2240 2165
2249 2170
2258 2175
2267 2180
2277 2184
2287 2185
2296 2190
2305 2195
2314 2200
2323 2205
2332 2210
2342 2214
2351 2219
2361 2223
2370 2228
2380 2232
2389 2237
2399 2240
2408 2245
2415 2253
2426 2259
2425 2249
2407 2234
2397 2230
2389 2224
2380 2219
2374 2211
2366 2204
2357 2199
2349 2192
2340 2187
2332 2180
2324 2174
2315 2169
2309 2161
2301 2154
2292 2149
2284 2142
2277 2134
2268 2129
2260 2123
2253 2115
2245 2109
2239 2101
2229 2097
2222 2089
2214 2082
2207 2074
2199 2067
2190 2062
2182 2055
2175 2047
2167 2040
2160 2032
2152 2025
2145 2017
2135 2014
2132 2004
2122 2000
2115 1992
2107 1985
2100 1977
2092 1970
2085 1962
2077 1955
2070 1947
2062 1940
2058 1930
2050 1923
2043 1915
2035 1908
2028 1900
2020 1894
2014 1886
2009 1877
2000 1872
1995 1863
1988 1855
1980 1849
1974 1841
1969 1832
1962 1824
1954 1817
1947 1809
1942 1800
1935 1792
1927 1785
1923 1775
1915 1768
1910 1759
1904 1751
1896 1744
1890 1736
1885 1727
1877 1720
1873 1710
1865 1704
1862 1694
1854 1687
1850 1677
1842 1670
1838 1660
1830 1653
1825 1644
1820 1635
1814 1627
1810 1617
1802 1610
1798 1600
1790 1594
1787 1584
1782 1575
1775 1567
1770 1558
1765 1549
1760 1540
1755 1531
1750 1522
1745 1513
1740 1504
1735 1495
1729 1487
1725 1477
1720 1468
1715 1459
1710 1450
1705 1441
1700 1432
1695 1423
1690 1414
1685 1405
1682 1395
1675 1387
1674 1377
1670 1367
1665 1358
1660 1349
1655 1340
1650 1331
1645 1322
1640 1313
1640 1303
1635 1294
1630 1285
1625 1276
1620 1267
1620 1257
1615 1248
1610 1239
1607 1229
1602 1220
1600 1210
1595 1201
1594 1191
1589 1182
1585 1172
1580 1163
1580 1153
1575 1144
1570 1135
1570 1125
1565 1116
1560 1107
1559 1097
1555 1087
1555 1077
1550 1068
1545 1059
1545 1049
1540 1040
1537 1030
1535 1020
1530 1011
1530 1001
1525 992
1525 982
1520 973
1520 963
1515 954
1515 944
1510 935
1510 925
1505 916
1505 906
1500 897
1500 887
1495 878
1495 868
1495 858
1490 849
1490 839
1485 830
1485 820
1482 810
1480 800
1480 790
1475 781
1475 771
1475 761
1470 752
1470 742
1465 733
1465 723
1465 713
1465 703
1460 694
1460 684
1460 674
1460 664
1455 655
1455 645
1455 635
1452 625
1450 615
1450 605
1450 595
1445 586
1445 576
1445 566
1445 556
1445 546
1443 536
1440 526
1440 516
1439 506
1429 517
1429 527
1429 537
1424 547
1424 557
1424 567
1419 577
1419 587
1419 597
1414 607
1414 617
1414 627
1409 637
1409 647
1404 662
1404 672
1404 682
1399 692
1399 702
1394 712
1394 722
1389 737
1389 747
1384 757
1384 767
1379 777
1379 787
1374 802
1369 817
1369 827
1364 837
1364 847
1359 857
1354 872
1354 882
1349 892
1344 907
1339 922
1339 932
1334 942
1329 957
1324 972
1319 987
1314 1002
1309 1012
1304 1027
1299 1042
1294 1057
1289 1067
1284 1082
1279 1092
1274 1107
1269 1117
1264 1132
1259 1142
1254 1152
1249 1167
1244 1177
1239 1187
1234 1202
1229 1212
1224 1222
1219 1232
1214 1242
1212 1254
1204 1262
1202 1274
1197 1284
1192 1294
1187 1304
1182 1314
1177 1324
1172 1334
1167 1344
1159 1352
1157 1364
1149 1372
1144 1382
1139 1392
1134 1402
1129 1412
1122 1424
1117 1434
1112 1444
1104 1452
1099 1462
1092 1474
1087 1484
1082 1494
1074 1502
1067 1514
1062 1524
1057 1534
1049 1542
1042 1554
1037 1564
1029 1572
1022 1584
1017 1594
1009 1602
1002 1614
998 1624
990 1631
985 1641
977 1649
973 1659
965 1666
960 1676
952 1684
947 1694
939 1702
932 1714
924 1722
917 1734
909 1742
903 1754
895 1761
890 1771
883 1779
875 1786
870 1796
863 1804
855 1811
850 1821
842 1829
838 1839
830 1846
822 1854
814 1862
808 1874
800 1881
793 1889
785 1896
780 1906
773 1914
765 1921
757 1929
749 1937
743 1949
735 1956
728 1964
720 1971
712 1979
704 1987
698 1999
690 2006
683 2014
675 2021
668 2029
660 2036
653 2044
645 2051
637 2059
629 2067
624 2077
614 2082
609 2092
599 2097
594 2107
584 2112
578 2124
570 2131
563 2139
555 2146
548 2154
540 2161
530 2166
525 2176
515 2181
510 2191
500 2196
493 2204
485 2211
478 2219
470 2226
463 2234
455 2241
