50 145
44 137
54 132
64 129
74 129
84 129
94 129
104 129
114 129
124 129
134 129
144 129
154 129
164 129
170 121
180 119
190 119
200 119
210 119
220 119
230 119
240 119
250 119
260 119
270 119
280 119
290 119
300 119
310 119
320 119
330 119
340 119
350 119
360 119
370 119
379 114
389 114
399 114
409 114
419 114
429 114
439 114
449 114
459 114
469 114
479 114
489 114
499 114
509 114
519 114
529 116
530 126
530 136
530 146
530 156
530 166
530 176
530 186
530 196
530 206
530 216
530 226
530 236
530 246
530 256
530 266
530 276
530 286
535 295
535 305
535 315
535 325
535 335
535 345
535 355
535 365
535 375
535 385
535 395
525 405
515 405
505 405
495 405
485 405
475 405
465 405
455 405
445 405
435 405
430 415
420 415
410 415
400 415
390 415
380 415
370 415
360 415
350 415
340 415
330 415
320 415
310 415
300 415
290 415
280 415
270 415
260 415
250 420
245 435
235 445
232 459
224 465
215 470
207 485
202 494
192 499
184 492
184 482
179 473
170 468
164 460
161 450
152 445
148 435
139 430
137 420
127 420
117 420
107 420
97 420
87 420
77 420
67 420
59 414
59 404
59 394
59 384
59 374
59 364
59 354
54 345
54 335
54 325
54 315
54 305
54 295
54 285
54 275
54 265
54 255
54 245
54 235
54 225
54 215
54 205
54 195
54 185
54 175
54 165
54 155
