84 242
84 232
89 217
89 207
99 202
99 192
104 177
112 169
122 164
127 154
137 149
142 139
152 139
161 134
166 125
176 124
185 119
195 119
201 110
211 109
221 105
231 104
241 104
246 95
256 94
266 94
276 94
285 89
295 89
305 89
315 89
325 89
331 80
341 79
351 79
361 79
371 79
380 84
389 89
399 89
409 89
419 89
429 89
439 91
449 94
459 94
469 94
475 102
485 104
495 104
504 109
514 109
520 117
530 119
540 119
549 124
555 132
564 137
574 139
580 147
588 154
595 162
603 169
612 174
615 184
623 190
625 200
630 209
630 219
630 229
640 232
640 242
640 252
640 262
630 265
630 275
625 285
615 295
610 310
600 315
592 329
584 337
574 340
565 345
555 350
546 360
537 365
527 365
519 372
509 375
500 380
502 390
505 400
510 409
515 418
515 428
520 437
527 445
530 455
530 465
535 474
535 484
543 490
545 500
545 510
550 519
550 529
555 538
555 548
565 552
565 562
569 572
567 584
557 580
554 570
546 563
540 555
532 549
527 540
519 534
516 524
507 519
499 512
492 504
484 497
477 489
469 482
462 474
454 467
450 457
440 453
439 443
432 435
424 428
417 420
409 414
404 405
394 405
384 405
374 405
364 405
354 405
344 405
334 405
324 405
315 410
309 420
300 425
290 435
290 445
284 455
275 460
270 470
260 475
255 485
245 490
241 500
232 505
227 514
219 520
210 525
207 539
202 549
194 555
188 563
180 570
174 580
164 582
164 572
169 562
169 552
179 547
179 537
184 527
184 517
189 502
189 492
199 482
199 472
204 457
204 447
209 437
214 422
214 412
224 402
224 392
227 380
218 375
209 370
200 365
190 362
180 358
174 350
166 343
156 340
146 340
137 335
128 330
120 323
113 315
105 308
104 298
99 289
94 280
89 271
89 261
84 252
