44 207
44 197
54 187
54 177
59 162
69 157
69 147
74 137
84 132
84 122
92 114
100 106
110 104
119 99
128 94
138 94
142 84
152 84
162 84
171 79
181 79
186 70
196 69
206 65
216 64
226 64
236 64
244 57
254 54
264 54
274 54
284 54
294 52
304 49
314 49
324 49
334 49
344 51
354 54
364 54
374 54
384 54
394 54
404 56
410 64
420 64
430 64
440 67
450 69
460 69
465 78
475 79
485 82
495 84
505 87
513 94
522 99
532 99
541 104
550 109
555 118
565 122
565 132
570 141
579 146
580 156
585 165
590 174
595 183
595 193
600 202
595 215
595 225
595 235
585 240
580 255
574 270
565 275
559 290
550 295
546 305
536 305
527 310
519 317
509 320
500 325
490 325
485 335
475 335
465 340
460 350
450 350
440 355
440 365
448 371
450 381
450 391
450 401
450 411
455 420
455 430
455 440
455 450
463 456
465 466
465 476
465 486
465 496
470 505
470 515
470 525
472 535
475 545
466 559
462 549
454 542
449 533
440 528
439 518
433 510
424 505
422 495
418 485
409 480
408 470
399 465
394 456
389 447
380 442
375 433
374 423
368 415
359 410
357 400
354 390
344 387
339 378
333 370
323 370
313 370
303 370
294 365
284 365
274 365
264 365
254 365
244 361
236 355
226 355
216 355
206 353
196 350
186 348
180 340
170 340
161 335
151 335
141 334
136 325
126 324
119 316
111 310
102 305
99 295
89 292
84 283
75 278
69 270
68 260
59 255
57 245
54 235
50 225
44 217
