79 217
79 207
89 197
89 187
94 172
104 167
104 157
112 149
120 141
128 134
135 126
143 119
153 119
157 109
167 104
175 96
185 94
195 94
204 89
214 82
224 79
234 77
244 74
254 74
264 74
270 66
280 64
290 64
300 64
310 64
320 64
330 61
340 59
350 59
360 59
370 59
380 62
390 64
400 64
410 64
420 64
430 64
440 67
448 74
458 74
468 74
477 79
487 79
497 79
500 89
510 89
520 92
530 94
540 97
548 104
557 109
565 115
575 119
583 125
588 134
597 139
600 149
610 152
615 161
618 171
620 181
629 186
630 196
630 206
630 216
630 226
630 236
630 246
630 256
620 265
618 278
610 285
604 295
595 300
590 310
580 310
570 315
564 325
554 327
544 330
535 335
525 335
515 345
505 350
495 350
485 350
475 360
465 360
455 360
445 365
435 365
425 365
420 375
410 380
405 395
405 405
405 415
395 420
390 430
390 440
380 445
380 455
375 470
374 482
369 492
359 497
354 488
349 479
346 469
344 459
344 449
339 440
337 430
329 424
324 415
324 405
323 395
314 390
314 380
305 375
295 373
288 365
278 365
268 365
258 365
249 360
239 360
229 360
219 356
211 350
202 345
192 344
187 335
177 335
168 330
159 325
149 322
142 314
132 310
124 303
117 295
109 288
103 280
94 275
92 265
89 255
89 245
85 235
79 227
