119 617
114 627
120 635
128 628
135 620
143 613
150 605
158 598
168 593
175 585
180 575
188 568
193 558
203 553
213 548
220 535
230 530
240 525
245 515
250 505
259 500
268 495
275 485
284 480
290 470
300 465
308 458
313 448
323 443
333 438
339 430
349 430
358 435
368 435
378 435
388 435
398 435
408 433
418 430
428 430
438 430
445 420
455 420
465 420
474 415
484 415
494 415
503 410
513 410
523 408
533 405
540 395
550 395
560 390
570 380
580 375
590 375
599 370
605 360
615 360
624 355
630 345
639 340
647 334
657 329
655 315
660 305
670 300
670 290
675 272
675 262
675 252
674 242
670 232
670 222
665 213
660 204
650 200
648 190
643 181
635 175
633 165
623 164
618 155
608 154
599 149
589 149
580 144
570 143
565 134
555 134
545 133
540 124
530 122
520 119
511 114
501 114
491 114
481 114
472 109
462 109
452 109
443 114
433 114
423 114
418 105
408 104
398 104
389 109
379 109
369 112
361 119
351 119
341 119
332 124
322 124
312 124
302 129
292 129
282 129
274 137
264 144
255 149
245 149
235 151
228 159
220 166
210 171
203 179
194 184
184 187
174 192
169 202
159 212
154 222
144 227
144 237
144 247
134 252
129 267
129 277
129 296
129 306
134 315
134 325
137 335
139 345
148 350
155 358
163 365
170 373
180 375
189 380
192 390
202 390
211 395
221 398
229 405
232 419
224 427
219 437
212 449
202 469
194 477
194 487
184 492
179 507
174 522
170 536
162 544
157 554
149 562
144 572
139 587
132 599
127 609
