217 279
217 289
218 299
218 309
218 319
218 329
218 339
218 349
218 359
218 369
219 379
219 389
219 399
219 409
220 104
220 114
220 124
220 134
220 144
220 154
220 164
220 174
220 184
220 194
220 204
220 214
220 224
220 234
220 244
220 254
220 264
220 419
220 429
220 439
221 44
221 54
221 64
221 74
221 84
221 94
221 449
223 33
225 273
229 25
230 256
230 454
238 19
240 457
242 32
243 42
244 52
244 62
245 72
245 313
246 82
246 323
247 92
247 105
248 115
248 302
248 333
249 125
249 135
250 145
250 157
250 343
250 443
250 453
251 167
251 177
251 187
251 197
251 353
251 432
252 207
252 217
252 230
252 240
252 363
252 419
253 250
253 260
253 373
253 383
253 393
253 403
255 285
256 270
256 295
