31 1636
31 1646
31 1656
32 1666
33 1619
36 1609
38 1674
40 1599
44 1588
48 1675
49 1579
55 1569
58 1673
61 1560
67 1551
68 1669
73 1542
78 1666
80 1534
87 1526
88 1662
95 1519
96 1656
102 1648
103 1512
108 1640
111 1506
118 1636
119 1500
128 1494
128 1637
137 1488
138 1638
145 1482
148 1639
154 1476
158 1635
163 1471
166 1629
171 1465
172 1621
179 1613
180 1459
189 1454
189 1610
198 1449
199 1610
207 1443
209 1610
216 1438
219 1609
225 1432
229 1607
234 1426
238 1601
243 1421
245 1593
250 1584
252 1415
259 1579
261 1410
269 1579
270 1404
279 1399
279 1579
288 1393
289 1579
297 1388
299 1578
306 1383
309 1573
315 1377
317 1566
323 1556
324 1371
329 1548
333 1366
339 1545
342 1360
349 1545
351 1355
359 1545
360 1349
369 1344
369 1545
377 1338
379 1542
386 1333
387 1535
393 1525
394 1327
399 1517
403 1322
409 1513
411 1316
419 1513
420 1311
428 1305
429 1513
437 1300
439 1512
446 1294
449 1509
455 1289
458 1503
463 1283
464 1495
469 1485
472 1278
477 1478
481 1272
487 1477
490 1266
497 1477
499 1260
507 1478
508 1254
517 1248
517 1476
526 1242
527 1471
534 1463
535 1237
540 1453
544 1231
548 1445
553 1225
558 1443
561 1219
568 1444
570 1214
578 1444
579 1208
587 1201
588 1442
596 1196
597 1437
604 1429
605 1190
610 1419
613 1184
616 1410
622 1179
626 1406
630 1173
636 1406
639 1167
646 1407
647 1161
656 1155
656 1406
665 1150
666 1402
673 1144
674 1394
680 1385
681 1138
685 1376
690 1132
693 1369
699 1127
703 1369
707 1121
713 1370
715 1115
723 1369
724 1110
732 1104
733 1367
741 1098
742 1361
748 1353
750 1092
753 1343
759 1086
759 1335
768 1080
769 1332
776 1074
779 1332
784 1068
789 1332
793 1063
799 1330
801 1057
809 1051
809 1326
817 1320
818 1045
823 1311
827 1039
827 1301
835 1294
836 1033
844 1026
845 1293
853 1021
855 1294
861 1014
865 1293
870 1008
875 1288
879 1002
883 1281
887 996
889 1273
894 1263
896 990
902 1256
904 984
912 1254
913 978
922 972
922 1254
931 966
932 1253
939 960
942 1250
947 954
950 1244
956 948
956 1235
961 1225
964 942
969 1218
973 936
979 1217
981 930
989 1217
990 924
999 918
999 1216
1007 912
1009 1213
1016 906
1017 1207
1024 1199
1025 900
1029 1189
1033 894
1035 1180
1042 888
1045 1176
1050 882
1055 1176
1059 876
1065 1175
1068 871
1075 1173
1076 865
1084 859
1084 1167
1091 1159
1093 853
1096 1149
1102 847
1102 1140
1111 841
1111 1135
1120 835
1121 1135
1129 829
1131 1135
1138 823
1141 1132
1146 817
1150 1127
1155 811
1157 1119
1162 1108
1163 805
1168 1099
1172 800
1178 1095
1180 794
1188 788
1188 1094
1197 782
1198 1093
1206 776
1208 1091
1214 770
1216 1085
1219 754
1223 1077
1226 746
1227 1067
1232 1057
1235 741
1241 1052
1243 735
1251 1052
1252 729
1261 723
1261 1051
1270 717
1271 1049
1279 712
1280 1044
1287 1036
1288 706
1291 1026
1295 1016
1296 700
1304 1011
1305 694
1314 688
1314 1011
1323 682
1324 1010
1332 676
1334 1008
1341 670
1343 1003
1350 664
1350 995
1355 983
1359 658
1359 973
1368 652
1368 968
1377 646
1378 967
1386 640
1388 966
1395 634
1398 964
1404 628
1408 959
1412 622
1416 950
1420 616
1421 939
1426 928
1429 610
1435 923
1438 604
1445 923
1446 598
1454 592
1455 921
1463 586
1465 920
1471 580
1475 915
1479 574
1482 907
1486 896
1487 567
1490 885
1495 561
1499 880
1504 555
1509 879
1512 549
1519 878
1520 542
1529 536
1529 877
1537 530
1539 872
1546 524
1547 866
1553 856
1554 518
1557 846
1562 512
1565 838
1570 506
1575 838
1578 500
1585 841
1586 493
1594 487
1595 840
1602 481
1604 835
1610 474
1613 829
1618 468
1622 823
1626 461
1631 817
1634 455
1640 811
1642 449
1649 805
1650 442
1658 436
1658 799
1666 428
1667 793
1674 422
1676 787
1682 416
1685 781
1690 409
1695 776
1698 402
1705 774
1706 396
1714 389
1715 770
1722 383
1724 765
1730 376
1732 757
1737 743
1738 369
1738 706
1738 716
1738 726
1739 694
1740 684
1742 674
1745 662
1746 363
1748 652
1752 641
1754 356
1756 630
1761 618
1762 349
1766 609
1770 343
1772 600
1778 336
1778 592
1786 330
1786 584
1794 323
1794 577
1802 317
1802 571
1810 311
1811 566
1818 305
1821 561
1826 298
1831 557
1834 292
1841 552
1842 286
1850 280
1851 548
1858 274
1861 544
1867 268
1871 539
1875 262
1881 535
1883 256
1891 250
1891 531
1899 244
1901 527
1907 238
1911 522
1915 232
1921 518
1923 226
1931 514
1932 220
1941 214
1941 510
1950 209
1951 506
1959 203
1961 501
1968 198
1971 497
1977 192
1981 493
1986 187
1991 489
1995 182
2001 484
2004 177
2011 480
2013 171
2021 475
2023 166
2031 471
2033 161
2041 466
2042 156
2051 151
2051 461
2060 146
2061 456
2070 142
2070 451
2079 446
2080 137
2088 441
2089 132
2097 436
2099 128
2106 430
2108 123
2115 425
2118 118
2124 419
2128 114
2133 413
2138 109
2142 407
2148 104
2151 401
2158 99
2159 395
2167 389
2168 95
2175 383
2178 91
2183 377
2188 87
2191 370
2198 83
2199 364
2207 357
2208 79
2215 350
2218 75
2223 343
2228 72
2231 336
2238 69
2239 329
2247 321
2248 65
2255 314
2258 63
2263 307
2268 60
2271 300
2278 57
2279 293
2287 286
2288 55
2295 279
2298 52
2303 272
2308 49
2311 266
2318 47
2319 260
2328 44
2328 254
2338 42
2338 250
2348 40
2348 248
2358 37
2358 245
2368 35
2368 244
2378 32
2378 244
2388 29
2388 244
2398 26
2398 246
2408 26
2408 250
2418 29
2418 253
2426 35
2428 253
2432 43
2437 52
2438 251
2442 61
2446 71
2446 244
2449 81
2452 91
2452 236
2455 101
2456 224
2457 111
2459 121
2459 209
2461 131
2461 194
2462 141
2462 182
2463 151
2463 161
2463 171
