62 88
64 98
65 78
68 108
70 118
73 72
74 128
82 134
83 70
89 142
91 76
96 150
101 80
104 157
111 84
111 165
119 172
121 82
127 179
129 88
135 185
137 95
143 191
147 95
152 196
153 86
162 200
163 88
172 93
172 203
181 98
182 204
189 104
192 203
198 109
202 200
205 117
212 196
213 123
220 131
222 194
225 140
229 150
232 194
234 159
235 169
241 177
242 196
250 182
251 201
259 187
260 206
268 192
269 211
278 196
278 216
287 201
287 221
296 206
296 226
305 211
305 231
314 216
314 236
323 221
323 241
331 247
332 226
340 252
341 231
349 257
351 235
357 263
360 240
366 268
369 245
374 274
378 250
383 279
387 255
391 285
396 260
400 290
405 265
408 296
414 270
416 302
423 275
425 307
433 278
433 313
441 319
442 283
450 324
451 288
458 330
460 293
466 336
470 297
475 341
479 302
484 346
488 307
492 352
497 312
500 358
506 317
509 331
509 363
515 322
517 369
524 327
525 375
534 331
535 373
541 364
543 336
546 354
550 344
