664 1094
664 1104
664 1121
665 1131
666 1079
667 1141
670 1067
670 1151
673 1055
673 1161
678 1045
678 1170
682 1180
683 1035
687 1189
688 1024
692 1198
694 1016
697 1207
699 1007
704 1215
706 999
711 1223
714 991
718 1231
722 984
726 1238
730 977
733 1246
738 969
741 1253
746 963
749 1260
755 958
756 1268
764 952
764 1274
772 946
772 1280
780 1286
781 940
788 1292
791 935
796 1298
801 930
804 1304
811 926
813 1309
821 921
821 1315
830 1320
831 917
839 1325
841 913
847 1331
851 909
856 1336
861 905
865 1341
871 901
875 1345
881 897
883 1351
891 894
893 1355
901 891
902 1360
911 888
911 1365
921 884
921 1369
930 1374
931 882
940 1378
941 879
949 1383
951 876
959 1386
961 873
968 1391
971 871
978 1394
981 867
988 1398
991 865
998 1402
1001 863
1008 1405
1011 861
1018 1409
1021 859
1028 1412
1031 858
1038 1416
1041 855
1048 1418
1051 853
1058 1422
1061 852
1068 1425
1071 851
1078 1427
1081 850
1088 1430
1091 849
1098 1433
1101 848
1108 1435
1111 846
1118 1438
1121 845
1128 1440
1131 845
1138 1443
1141 844
1148 1444
1151 843
1158 1447
1161 842
1168 1449
1171 842
1178 1450
1181 843
1188 1453
1191 841
1198 1454
1201 841
1208 1456
1211 841
1218 1457
1221 841
1228 1459
1231 841
1238 1460
1241 841
1248 1462
1251 841
1258 1463
1261 842
1268 1463
1271 842
1278 1464
1281 844
1288 1465
1291 844
1298 1466
1301 844
1308 1467
1311 845
1318 1467
1321 845
1328 1467
1331 847
1338 1468
1341 848
1348 1468
1351 849
1358 1468
1361 850
1368 1467
1371 851
1378 1467
1381 853
1388 1466
1391 855
1398 1464
1401 857
1408 1462
1411 859
1418 1460
1421 861
1428 1458
1431 865
1438 1455
1441 868
1448 1452
1451 872
1458 1448
1461 875
1468 1445
1471 879
1478 1440
1481 883
1487 1435
1490 888
1496 1430
1500 892
1506 1425
1509 897
1515 1420
1517 903
1524 1414
1526 908
1532 1408
1534 914
1541 1402
1542 920
1549 1396
1550 926
1557 1390
1558 932
1565 940
1565 1384
1573 947
1573 1377
1579 955
1581 1371
1585 963
1589 1364
1593 970
1597 1357
1599 978
1605 986
1605 1349
1611 994
1613 1341
1617 1002
1620 1333
1623 1010
1627 1325
1629 1018
1634 1027
1634 1317
1639 1036
1642 1309
1645 1044
1650 1053
1650 1302
1655 1062
1658 1295
1660 1071
1666 1079
1666 1288
1672 1087
1674 1280
1678 1095
1682 1274
1684 1103
1690 1268
1691 1111
1699 1117
1699 1263
1707 1124
1709 1259
1715 1130
1719 1256
1724 1135
1729 1255
1734 1139
1739 1254
1744 1142
1749 1254
1754 1143
1759 1254
1764 1145
1769 1254
1774 1147
1779 1255
1784 1148
1789 1255
1794 1150
1799 1256
1804 1150
1809 1257
1814 1151
1819 1258
1824 1152
1829 1260
1834 1152
1839 1261
1844 1153
1849 1262
1854 1154
1859 1263
1864 1154
1869 1265
1874 1155
1879 1266
1884 1155
1889 1268
1894 1155
1899 1269
1904 1155
1909 1271
1914 1155
1919 1273
1924 1156
1929 1275
1934 1156
1939 1277
1944 1155
1949 1278
1954 1155
1959 1280
1964 1155
1969 1283
1974 1154
1979 1285
1984 1154
1989 1288
1994 1154
1999 1290
2004 1153
2009 1292
2014 1153
2019 1294
2024 1153
2029 1297
2034 1153
2039 1299
2044 1152
2049 1301
2054 1152
2059 1304
2064 1151
2069 1307
2074 1151
2079 1309
2084 1151
2089 1311
2094 1151
2099 1314
2104 1151
2109 1316
2114 1150
2119 1319
2124 1150
2129 1321
2134 1150
2139 1324
2144 1150
2149 1326
2154 1150
2159 1328
2164 1149
2169 1330
2174 1149
2179 1331
2184 1149
2189 1333
2194 1150
2199 1334
2204 1151
2209 1337
2214 1149
2218 1342
2223 1143
2228 1346
2233 1141
2238 1348
2243 1140
2248 1349
2253 1140
2258 1350
2263 1141
2268 1352
2273 1142
2278 1353
2283 1143
2286 1359
2293 1143
2296 1362
2303 1141
2306 1364
2313 1139
2316 1365
2323 1139
2326 1365
2333 1140
2336 1367
2343 1141
2346 1368
2353 1141
2356 1369
2363 1142
2366 1369
2373 1142
2376 1371
2383 1143
2386 1372
2393 1144
2396 1373
2403 1145
2406 1374
2413 1145
2416 1375
2423 1145
2426 1376
2433 1146
2436 1377
2443 1147
2446 1378
2453 1148
2456 1379
2463 1148
2466 1380
2473 1149
2476 1381
2483 1150
2486 1383
2493 1151
2496 1384
2503 1152
2506 1385
2513 1152
2516 1386
2523 1152
2526 1387
2533 1153
2536 1388
2543 1154
2546 1389
2553 1154
2556 1390
2563 1155
2566 1391
2573 1155
2576 1392
2583 1157
2586 1393
2593 1157
2596 1395
2603 1157
2606 1396
2613 1158
2616 1397
2623 1158
2626 1398
2633 1159
2636 1399
2643 1159
2646 1401
2653 1160
2656 1401
2663 1161
2666 1403
2673 1161
2676 1404
2683 1161
2686 1405
2693 1162
2696 1406
2703 1164
2706 1407
2713 1164
2716 1408
2723 1164
2726 1409
2733 1165
2736 1410
2743 1166
2746 1411
2753 1167
2756 1412
2763 1167
2766 1413
2773 1168
2776 1414
2783 1168
2786 1416
2793 1169
2796 1416
2803 1170
2806 1418
2813 1170
2816 1418
2823 1171
2826 1420
2833 1171
2836 1421
2843 1172
2846 1421
2853 1173
2856 1422
2863 1173
2866 1423
2873 1173
2876 1424
2883 1174
2886 1425
2893 1175
2896 1426
2903 1175
2906 1427
2913 1176
2916 1428
2923 1177
2926 1429
2933 1178
2936 1430
2943 1178
2946 1431
2953 1179
2956 1433
2963 1180
2966 1434
2973 1180
2976 1435
2983 1180
2986 1436
2993 1181
2996 1437
3003 1182
3006 1437
3013 1182
3016 1439
3023 1182
3026 1440
3033 1183
3036 1441
3043 1183
3046 1442
3053 1184
3056 1443
3063 1185
3066 1444
3073 1186
3076 1445
3083 1187
3086 1447
3093 1187
3096 1447
3103 1187
3106 1448
3113 1187
3116 1449
3123 1188
3126 1451
3133 1188
3136 1452
3143 1189
3146 1453
3153 1190
3156 1454
3163 1191
3166 1455
3173 1192
3176 1456
3183 1192
3186 1457
3193 1193
3196 1459
3203 1193
3206 1459
3213 1194
3216 1460
3223 1194
3226 1461
3233 1194
3236 1462
3243 1196
3246 1463
3253 1196
3256 1464
3263 1197
3266 1465
3273 1197
3276 1466
3283 1198
3286 1468
3293 1199
3296 1469
3303 1199
3306 1469
3313 1200
3316 1470
3323 1200
3326 1472
3333 1200
3336 1473
3343 1202
3346 1474
3353 1202
3356 1475
3363 1202
3366 1476
3373 1203
3376 1477
3383 1203
3386 1478
3393 1205
3396 1479
3403 1205
3406 1480
3413 1206
3416 1481
3423 1207
3426 1482
3433 1207
3436 1484
3443 1207
3446 1485
3453 1209
3456 1485
3463 1209
3466 1486
3473 1209
3476 1487
3483 1210
3486 1489
3493 1210
3496 1490
3503 1211
3506 1490
3513 1211
3516 1492
3523 1212
3526 1493
3533 1213
3536 1494
3543 1214
3546 1494
3553 1214
3556 1496
3563 1215
3566 1498
3573 1215
3576 1499
3583 1217
3586 1499
3593 1217
3596 1500
3603 1218
3606 1501
3613 1218
3616 1501
3623 1219
3626 1503
3633 1219
3636 1504
3643 1220
3646 1505
3653 1221
3656 1506
3663 1221
3666 1507
3673 1222
3676 1507
3683 1223
3686 1508
3693 1223
3696 1509
3703 1224
3706 1510
3713 1225
3716 1511
3723 1226
3726 1511
3733 1227
3736 1510
3743 1228
3746 1507
3753 1231
3756 1505
3763 1235
3766 1500
3772 1240
3776 1495
3780 1246
3785 1489
3788 1253
3793 1482
3794 1261
3800 1474
3801 1269
3805 1465
3807 1277
3811 1455
3813 1285
3816 1443
3817 1295
3820 1305
3820 1431
3823 1315
3824 1419
3826 1325
3827 1401
3828 1335
3829 1345
3829 1390
3830 1355
3830 1371
3926 744
