403 1316
405 1326
407 1305
411 1334
413 1296
419 1341
421 1289
428 1346
430 1284
436 1352
440 1281
444 1359
450 1281
450 1367
457 1375
460 1282
465 1381
470 1284
473 1387
480 1284
482 1392
490 1282
491 1397
500 1279
500 1402
509 1407
510 1278
510 1347
510 1357
513 1331
515 1366
517 1413
518 1320
520 1280
520 1375
521 1309
526 1383
527 1416
529 1303
530 1280
532 1391
537 1400
537 1417
539 1301
540 1279
549 1305
550 1276
559 1307
560 1274
569 1306
570 1272
579 1303
580 1272
589 1302
590 1271
597 1308
600 1271
603 1316
604 1367
605 1377
608 1356
608 1387
609 1324
609 1346
610 1272
611 1336
614 1395
620 1274
622 1401
626 1420
626 1430
629 1409
629 1440
630 1275
637 1447
640 1273
647 1450
650 1272
657 1453
660 1271
667 1457
670 1271
675 1463
680 1272
684 1468
690 1272
694 1471
700 1273
704 1471
710 1272
714 1473
720 1271
722 1479
730 1271
732 1481
740 1271
742 1484
750 1272
752 1487
760 1272
762 1489
770 1271
772 1491
780 1271
782 1493
790 1271
792 1497
800 1271
802 1499
810 1272
812 1499
820 1273
822 1501
830 1274
832 1501
840 1274
842 1501
850 1274
852 1500
860 1275
862 1501
870 1275
872 1503
880 1275
882 1504
890 1273
892 1504
900 1271
902 1507
910 1270
912 1509
920 1271
922 1508
930 1272
932 1508
940 1271
942 1509
950 1270
952 1510
960 1270
962 1509
970 1269
972 1509
980 1269
982 1511
990 1269
992 1509
1000 1269
1002 1511
1010 1269
1012 1513
1020 1269
1022 1514
1030 1268
1032 1512
1040 1267
1042 1512
1050 1267
1052 1513
1060 1267
1062 1513
1070 1267
1072 1511
1080 1267
1082 1511
1090 1267
1092 1512
1100 1268
1102 1512
1110 1268
1112 1511
1120 1267
1122 1511
1130 1267
1132 1513
1140 1267
1142 1512
1150 1267
1152 1510
1160 1267
1162 1511
1170 1267
1172 1513
1180 1267
1182 1512
1190 1266
1192 1510
1200 1265
1202 1510
1210 1265
1212 1513
1220 1265
1222 1513
1230 1265
1232 1512
1240 1265
1242 1513
1250 1265
1252 1513
1260 1265
1262 1512
1270 1264
1272 1510
1280 1263
1282 1511
1290 1264
1292 1513
1300 1265
1302 1515
1310 1265
1312 1516
1320 1265
1322 1516
1330 1265
1332 1517
1340 1264
1342 1517
1350 1263
1352 1517
1360 1263
1362 1517
1370 1263
1372 1517
1380 1263
1382 1517
1390 1263
1392 1517
1400 1262
1402 1517
1410 1261
1412 1518
1420 1261
1422 1519
1430 1261
1432 1519
1440 1260
1442 1519
1450 1259
1452 1519
1460 1258
1462 1520
1470 1258
1472 1520
1480 1259
1482 1521
1490 1259
1492 1521
1500 1259
1502 1521
1510 1258
1512 1520
1520 1258
1522 1520
1530 1258
1532 1521
1540 1257
1542 1521
1550 1257
1552 1522
1560 1257
1562 1523
1570 1256
1572 1523
1580 1256
1582 1522
1590 1255
1592 1522
1600 1255
1602 1521
1610 1255
1612 1521
1620 1254
1622 1521
1630 1254
1632 1521
1640 1254
1642 1521
1650 1253
1652 1521
1660 1253
1662 1522
1670 1253
1672 1522
1680 1253
1682 1522
1690 1253
1692 1522
1700 1253
1702 1522
1710 1252
1712 1522
1720 1252
1722 1522
1730 1251
1732 1522
1740 1251
1742 1523
1750 1250
1752 1523
1760 1250
1762 1523
1770 1250
1772 1523
1780 1250
1782 1523
1790 1249
1792 1523
1800 1249
1802 1522
1810 1248
1811 1516
1817 1508
1819 1491
1820 1248
1820 1478
1822 1466
1825 1456
1830 1249
1830 1446
1836 1437
1840 1249
1843 1429
1850 1249
1851 1421
1859 1415
1860 1249
1868 1409
1870 1249
1878 1405
1880 1249
1888 1402
1890 1249
1898 1400
1900 1249
1908 1399
1910 1250
1918 1399
1920 1251
1928 1399
1930 1247
1938 1401
1940 1243
1948 1403
1949 1238
1958 1404
1959 1236
1968 1405
1969 1234
1978 1405
1979 1233
1988 1405
1989 1234
1998 1405
1999 1233
2008 1407
2009 1233
2018 1409
2019 1231
2028 1410
2029 1231
2038 1410
2039 1230
2048 1410
2049 1230
2058 1409
2059 1230
2068 1407
2069 1230
2078 1406
2079 1231
2088 1406
2089 1231
2098 1405
2099 1231
2108 1404
2109 1231
2118 1404
2119 1231
2128 1403
2129 1231
2138 1403
2139 1232
2148 1402
2149 1232
2158 1402
2159 1232
2168 1401
2169 1232
2178 1401
2179 1232
2188 1400
2189 1232
2198 1400
2199 1232
2208 1400
2209 1232
2218 1399
2219 1232
2228 1399
2229 1231
2238 1399
2239 1231
2248 1399
2249 1231
2258 1399
2259 1231
2268 1399
2269 1231
2278 1399
2279 1230
2288 1399
2289 1230
2298 1399
2299 1229
2308 1399
2309 1229
2318 1399
2319 1228
2328 1399
2329 1227
2338 1399
2339 1226
2348 1400
2349 1226
2358 1400
2359 1225
2368 1401
2369 1225
2378 1402
2379 1224
2388 1402
2389 1223
2398 1402
2399 1222
2408 1403
2409 1221
2418 1404
2419 1219
2428 1405
2429 1218
2438 1406
2439 1217
2448 1407
2449 1216
2458 1407
2459 1215
2468 1408
2469 1213
2478 1409
2479 1212
2488 1410
2489 1210
2498 1411
2499 1209
2508 1412
2509 1208
2518 1413
2519 1207
2528 1413
2529 1205
2538 1414
2539 1204
2548 1415
2549 1203
2558 1416
2559 1202
2568 1417
2569 1200
2578 1418
2579 1199
2588 1419
2589 1198
2598 1420
2599 1197
2608 1421
2609 1196
2618 1421
2619 1195
2628 1422
2629 1194
2638 1423
2639 1193
2648 1424
2649 1192
2658 1424
2659 1191
2668 1425
2669 1190
2678 1426
2679 1189
2688 1427
2689 1187
2698 1427
2699 1187
2708 1428
2709 1186
2718 1428
2719 1185
2728 1429
2729 1184
2738 1429
2739 1183
2748 1430
2749 1183
2758 1430
2759 1182
2768 1431
2769 1181
2778 1431
2779 1180
2788 1432
2789 1180
2798 1432
2799 1179
2808 1433
2809 1178
2818 1433
2819 1177
2828 1433
2829 1177
2838 1434
2839 1176
2848 1434
2849 1176
2858 1434
2859 1175
2868 1434
2869 1174
2878 1434
2879 1174
2888 1434
2889 1174
2898 1435
2899 1173
2908 1435
2909 1173
2918 1435
2919 1173
2928 1435
2929 1173
2938 1435
2939 1172
2948 1435
2949 1172
2958 1435
2959 1172
2968 1435
2969 1172
2978 1435
2979 1171
2988 1435
2989 1171
2998 1434
2999 1171
3008 1434
3009 1171
3018 1434
3019 1171
3028 1434
3029 1171
3038 1435
3039 1171
3048 1435
3049 1171
3058 1435
3059 1171
3068 1435
3069 1170
3078 1435
3079 1170
3088 1434
3089 1170
3098 1434
3099 1170
3108 1434
3109 1169
3118 1434
3119 1169
3128 1434
3129 1169
3138 1434
3139 1169
3148 1433
3149 1169
3158 1433
3159 1170
3168 1433
3169 1170
3178 1432
3179 1170
3188 1432
3189 1170
3198 1432
3199 1170
3208 1432
3209 1170
3218 1431
3219 1170
3228 1431
3229 1170
3238 1430
3239 1169
3248 1430
3249 1169
3258 1429
3259 1169
3268 1429
3269 1170
3278 1428
3279 1170
3288 1428
3289 1170
3298 1428
3299 1171
3308 1427
3309 1171
3318 1427
3319 1171
3328 1426
3329 1171
3338 1425
3339 1171
3348 1424
3349 1171
3358 1423
3359 1172
3368 1423
3369 1172
3378 1422
3379 1172
3388 1421
3389 1173
3398 1420
3399 1174
3408 1419
3409 1174
3418 1419
3419 1175
3428 1418
3429 1175
3438 1417
3439 1176
3448 1416
3449 1176
3458 1415
3459 1177
3468 1414
3469 1178
3478 1413
3479 1178
3488 1412
3489 1179
3498 1411
3499 1180
3508 1410
3509 1180
3518 1409
3519 1181
3528 1408
3529 1182
3538 1406
3539 1184
3548 1404
3549 1185
3558 1402
3559 1187
3568 1398
3569 1190
3578 1394
3579 1190
3588 1391
3589 1190
3598 1391
3599 1189
3608 1387
3609 1190
3616 1263
3616 1273
3616 1323
3616 1333
3616 1380
3617 1196
3617 1283
3618 1248
3618 1293
3618 1310
3618 1343
3620 1238
3620 1353
3620 1369
3623 1224
3624 1204
3625 1214
