623 245
626 255
632 263
635 273
641 281
642 265
646 290
649 275
651 299
655 283
655 309
661 317
662 228
663 290
666 238
666 326
668 299
671 309
671 335
672 246
676 344
677 255
680 354
681 265
681 312
685 322
685 363
687 255
687 273
691 283
691 371
692 264
693 328
696 380
697 291
698 337
699 216
700 270
702 300
702 388
704 345
705 224
705 279
707 309
707 397
708 234
710 353
711 287
713 243
713 317
713 405
715 172
716 361
717 295
718 232
718 252
718 326
718 414
719 182
721 336
722 369
723 261
723 423
724 240
725 302
726 190
727 344
729 269
729 377
729 431
730 248
731 310
732 198
732 353
734 386
735 439
736 277
737 207
737 256
737 318
738 361
740 448
741 286
741 394
742 195
743 215
743 326
744 264
744 369
745 296
746 403
746 456
748 224
748 379
749 203
749 334
751 304
752 271
752 411
752 464
754 232
754 387
755 342
756 313
757 209
758 242
758 279
758 472
759 419
760 395
762 321
763 217
763 349
764 250
764 287
764 480
766 403
767 330
767 359
769 420
770 225
770 258
771 488
772 293
773 338
774 367
775 234
776 266
777 302
778 347
779 495
780 375
781 275
783 241
783 310
784 355
787 283
787 383
787 502
790 318
790 363
791 247
792 392
794 510
795 290
796 256
796 371
797 326
797 401
799 300
801 380
803 334
804 262
804 309
804 409
804 514
807 388
809 271
810 342
811 317
811 417
813 396
814 518
815 279
816 350
817 325
818 405
821 420
822 358
823 286
823 333
824 522
828 366
829 294
829 341
834 524
835 302
835 349
838 366
841 310
844 525
847 318
854 326
854 526
860 334
864 527
865 343
872 351
874 530
879 359
883 535
885 367
891 375
891 541
897 383
899 547
900 393
905 555
906 401
911 410
912 563
915 420
915 480
915 490
915 500
917 430
917 464
918 510
918 571
919 440
919 450
922 520
925 579
928 528
931 587
935 536
937 595
940 545
943 603
948 552
948 612
953 561
955 620
961 568
961 628
966 577
967 636
972 645
973 585
979 593
979 653
985 601
985 661
991 669
992 609
997 677
998 617
1002 686
1003 626
1008 694
1009 634
1014 702
1016 642
1019 711
1022 650
1025 719
1028 658
1031 727
1034 666
1036 736
1041 674
1041 745
1047 682
1048 753
1053 690
1053 762
1059 698
1060 770
1065 706
1065 779
1071 787
1073 712
1075 797
1079 720
1080 806
1086 728
1086 814
1091 823
1092 736
1095 833
1099 744
1102 841
1107 751
1109 849
1112 760
1116 857
1120 766
1124 864
1126 774
1130 872
1132 782
1135 881
1141 787
1141 889
1146 796
1146 898
1152 906
1153 804
1156 916
1158 813
1160 926
1164 936
1166 820
1168 830
1168 946
1173 955
1175 838
1178 964
1181 846
1181 974
1189 852
1189 980
1195 860
1195 988
1202 868
1203 995
1210 874
1211 1001
1218 881
1221 1005
1225 889
1229 1011
1234 894
1239 1015
1242 900
1248 908
1249 1019
1255 916
1259 1021
1262 924
1268 932
1269 1023
1270 942
1275 951
1278 1017
1279 961
1279 971
1282 981
1283 991
1283 1002
