22 28
27 37
33 29
33 45
38 14
39 53
40 37
44 22
46 61
47 45
50 30
52 69
54 55
57 38
60 76
62 66
64 46
67 56
68 83
77 54
77 88
84 62
87 89
90 70
95 79
97 91
105 97
113 104
121 111
128 119
136 125
143 133
151 139
158 147
165 155
173 162
175 151
180 170
183 157
188 177
191 163
194 185
199 169
201 193
208 174
211 195
216 180
