710 334
711 344
711 354
712 324
712 364
716 313
716 374
719 384
722 394
724 306
725 404
729 414
732 424
734 302
737 433
742 442
744 306
747 451
752 312
752 460
757 469
758 320
762 478
766 327
767 487
772 335
773 495
778 343
778 504
783 513
786 350
790 521
793 358
795 530
799 366
802 538
805 374
806 548
812 382
814 554
819 390
821 562
825 398
827 570
831 406
833 578
837 414
839 586
843 422
846 594
851 428
852 602
856 437
859 610
862 445
864 619
869 453
872 625
875 461
879 633
883 467
885 641
888 476
893 648
894 484
899 656
901 492
907 500
907 663
914 671
915 507
920 516
921 679
927 524
929 686
934 532
936 694
942 539
943 702
947 548
951 709
952 557
957 717
958 565
964 573
965 724
970 581
972 732
976 589
980 599
980 739
987 607
988 746
993 615
995 754
998 624
1001 762
1003 633
1009 641
1009 768
1015 649
1017 775
1020 658
1024 783
1027 666
1031 791
1033 674
1037 684
1039 798
1045 690
1045 806
1050 699
1052 814
1056 707
1060 821
1062 715
1067 724
1067 829
1072 733
1074 837
1078 741
1081 845
1084 749
1087 853
1089 758
1094 861
1097 764
1100 869
1102 773
1106 877
1107 782
1112 791
1113 885
1118 799
1119 893
1124 807
1125 901
1129 816
1132 909
1136 824
1138 917
1144 831
1144 925
1147 841
1150 933
1153 849
1155 942
1160 857
1162 950
1166 865
1168 958
1171 874
1174 966
1177 882
1181 974
1186 887
1186 983
1192 895
1193 991
1197 904
1200 999
1202 913
1206 1007
1210 919
1212 1015
1216 927
1218 1023
1221 936
1224 1031
1228 944
1230 1039
1235 1048
1236 950
1241 959
1241 1056
1248 967
1249 1063
1254 975
1254 1072
1261 983
1261 1080
1267 991
1267 1088
1273 999
1275 1095
1281 1005
1281 1103
1284 1015
1287 1111
1292 1021
1293 1119
1298 1029
1298 1128
1305 1037
1305 1136
1310 1046
1311 1144
1318 1052
1318 1152
1323 1061
1324 1160
1328 1070
1330 1168
1335 1078
1336 1176
1341 1086
1342 1184
1348 1094
1349 1192
1353 1103
1355 1200
1360 1111
1360 1209
1368 1117
1368 1215
1374 1125
1374 1223
1379 1232
1380 1133
1386 1240
1387 1141
1390 1151
1394 1247
1396 1159
1400 1255
1403 1167
1406 1263
1410 1175
1412 1271
1416 1183
1419 1279
1422 1191
1425 1287
1428 1199
1431 1295
1433 1208
1437 1303
1441 1215
1443 1311
1446 1224
1451 1317
1454 1230
1457 1325
1461 1238
1463 1333
1467 1246
1469 1341
1473 1254
1478 1263
1478 1346
1485 1271
1488 1348
1493 1278
1498 1287
1498 1344
1502 1297
1505 1336
1510 1303
1513 1330
1515 1312
