325 733
330 689
330 769
334 738
338 696
338 775
339 728
340 685
343 766
345 736
348 694
349 725
350 681
351 773
351 812
353 763
355 733
357 803
358 691
359 723
360 677
361 771
361 816
363 760
365 731
367 800
368 690
369 720
370 673
371 770
371 816
373 758
375 729
377 799
378 687
379 717
380 670
381 768
381 815
383 755
385 727
387 796
388 685
389 714
390 666
391 766
391 815
393 753
395 725
397 794
398 683
399 712
400 663
401 765
401 814
403 751
405 723
407 792
408 681
409 709
410 659
411 764
411 814
413 749
415 721
417 791
418 678
419 707
420 656
421 762
421 813
423 747
425 719
427 789
428 676
429 704
430 653
431 761
431 812
433 745
435 717
437 787
438 673
439 702
440 650
441 759
441 812
443 743
445 715
447 785
448 671
449 700
450 647
451 756
451 811
453 741
455 713
457 783
458 670
459 697
460 643
461 752
461 810
463 739
465 712
467 781
468 668
469 695
470 640
471 754
471 806
473 737
475 710
477 780
478 666
479 692
480 638
481 753
481 805
483 735
485 708
487 778
488 664
489 690
490 635
491 751
491 805
493 733
495 707
497 777
498 641
498 663
499 689
501 651
501 699
501 751
501 801
502 738
504 632
506 782
508 662
509 686
509 706
509 730
510 640
511 696
511 751
511 804
512 790
516 648
518 661
518 780
519 685
519 705
519 729
521 750
521 806
522 627
525 642
525 696
527 735
527 785
528 660
530 771
531 704
531 749
531 806
532 625
532 682
535 726
536 779
538 658
540 769
541 703
541 749
541 806
542 623
542 679
545 724
548 657
550 768
551 702
551 748
551 805
552 622
552 678
555 723
558 656
560 767
561 701
561 747
561 805
562 620
562 676
565 722
568 655
570 766
571 700
571 746
571 804
572 618
572 675
575 720
578 654
580 765
581 700
581 746
581 804
582 617
582 673
585 719
588 654
590 764
591 699
591 746
591 804
592 615
592 672
595 717
598 653
600 762
601 699
601 745
601 804
602 612
602 669
605 715
608 653
610 759
611 699
611 746
611 804
612 607
612 666
615 713
618 653
620 758
621 699
621 745
621 804
622 606
622 664
625 712
628 653
630 758
631 699
631 746
631 804
632 606
632 665
635 712
638 653
640 756
641 611
641 701
641 803
642 663
651 611
651 803
661 610
661 803
671 611
671 803
681 612
681 802
691 614
691 802
701 617
701 801
711 619
711 800
721 621
721 798
731 625
731 796
740 630
741 793
750 633
751 789
758 640
761 785
766 647
770 779
773 655
778 773
780 663
786 765
787 671
794 679
794 757
802 685
802 749
810 691
811 744
820 695
821 741
830 698
831 739
840 701
841 739
850 702
851 739
860 704
861 739
870 705
871 739
880 705
881 739
890 706
891 739
900 706
901 739
910 706
911 739
920 707
921 739
930 707
931 739
940 707
941 739
950 707
951 739
960 708
961 740
970 708
971 740
980 707
981 739
990 708
991 739
1000 708
1001 739
1010 707
1011 738
1020 707
1021 738
1030 707
1031 738
1040 706
1041 738
1050 705
1051 737
1060 705
1061 737
1070 705
1071 737
1080 704
1081 737
1090 703
1091 737
1100 703
1101 736
1110 702
1111 737
1120 702
1121 736
1130 701
1131 736
1140 700
1141 737
1150 699
1151 737
1160 698
1161 737
1170 698
1171 737
1180 697
1181 738
1190 696
1191 738
1200 695
1201 738
1210 693
1211 739
1220 692
1221 740
1230 691
1231 740
1240 690
1241 741
1250 688
1251 741
1260 687
1261 742
1270 686
1271 743
1280 685
1281 743
1290 683
1291 744
1300 681
1301 745
1310 680
1311 745
1320 678
1321 746
1330 677
1331 748
1340 675
1341 749
1350 673
1351 750
1360 671
1361 751
1370 669
1371 752
1380 667
1381 752
1390 666
1391 752
1400 664
1401 753
1410 663
1411 754
1420 662
1421 755
1430 661
1431 756
1440 660
1441 757
1450 659
1451 758
1460 658
1461 759
1470 657
1471 759
1480 657
1481 760
1490 657
1491 760
1500 657
1501 761
1510 656
1511 762
1520 656
1521 762
1530 655
1531 763
1540 655
1541 763
1550 655
1551 764
1560 655
1561 764
1570 656
1571 764
1580 655
1581 765
1590 654
1591 765
1600 656
1601 764
1610 659
1611 764
1620 661
1621 764
1630 663
1631 763
1640 666
1641 763
1650 669
1651 762
1660 673
1661 760
1670 676
1671 757
1680 680
1681 754
1689 685
1691 750
1699 689
1701 746
1707 695
1710 740
1714 703
1718 733
1721 711
1723 721
