454 841
458 801
459 850
460 757
462 716
464 809
464 838
468 764
468 798
469 851
471 711
471 721
474 810
474 838
476 757
477 857
478 799
481 708
481 722
484 763
484 811
484 838
487 858
488 799
491 705
491 723
492 757
493 768
494 811
494 838
497 862
498 799
501 701
501 725
502 758
503 769
504 815
504 840
507 865
508 799
511 700
511 727
512 758
513 770
514 815
514 842
515 871
518 801
521 699
521 730
522 758
523 771
524 816
524 841
524 876
528 800
531 697
531 731
532 757
533 772
533 881
534 818
534 842
538 800
541 695
541 731
541 887
542 754
543 775
544 817
544 841
548 801
551 694
551 732
551 887
552 757
553 776
554 818
554 841
558 802
561 692
561 735
561 889
562 757
563 777
564 820
564 840
568 801
571 690
571 735
571 892
572 759
573 778
574 820
574 841
578 801
581 689
581 736
581 895
582 761
583 778
584 823
584 844
588 802
591 688
591 737
591 898
592 760
593 780
594 824
594 846
598 803
601 688
601 739
601 899
602 761
603 781
604 827
604 848
608 803
611 688
611 740
611 900
612 761
612 786
614 827
614 845
618 805
621 687
621 742
621 901
622 760
622 787
624 828
624 849
628 805
631 687
631 743
631 903
632 762
632 787
633 833
634 847
638 807
641 687
641 744
641 905
642 761
642 787
643 831
644 849
648 807
651 687
651 744
651 906
652 761
652 789
653 832
654 849
658 806
661 686
661 746
661 910
662 763
662 790
663 834
664 850
668 805
671 688
671 748
671 910
672 764
672 791
673 836
674 850
678 807
681 687
681 750
681 909
682 763
682 792
683 840
688 809
691 689
691 751
691 909
692 764
692 793
701 689
701 751
701 910
702 763
703 841
710 756
711 690
711 911
721 690
721 910
731 693
731 909
741 697
741 910
751 697
751 910
761 699
761 907
771 701
771 905
781 705
781 904
791 707
791 902
800 712
801 899
810 715
811 899
820 717
821 895
828 723
831 892
838 726
841 889
848 730
849 883
856 736
859 881
864 742
868 876
874 745
877 870
882 751
887 867
890 758
897 865
899 763
907 862
908 768
917 773
917 852
927 776
927 850
935 782
937 849
945 783
947 851
954 788
957 850
964 791
967 848
974 793
977 847
984 795
987 847
994 797
997 847
1004 798
1007 846
1014 799
1017 847
1024 800
1027 848
1034 800
1037 848
1044 802
1047 849
1054 802
1057 850
1064 801
1067 850
1074 803
1077 851
1084 804
1087 852
1094 804
1097 853
1104 805
1107 853
1114 805
1117 856
1124 805
1127 858
1134 805
1137 860
1144 805
1147 861
1154 805
1157 862
1164 805
1167 862
1174 807
1177 863
1184 808
1187 862
1194 808
1197 865
1204 808
1207 866
1214 809
1217 869
1224 809
1227 869
1234 810
1237 870
1244 811
1247 873
1254 809
1256 878
1264 811
1265 873
1274 811
1275 876
1284 812
1285 875
1294 814
1295 876
1304 814
1305 877
1314 815
1315 878
1324 816
1325 879
1334 817
1334 884
1344 814
1344 884
1354 817
1354 884
1364 817
1364 885
1374 818
1374 887
1384 818
1384 889
1394 819
1394 889
1404 821
1404 890
1414 822
1414 891
1424 822
1424 894
1434 820
1434 895
1444 821
1444 896
1454 823
1454 893
1464 824
1464 893
1474 823
1474 895
1484 824
1484 896
1494 825
1494 896
1504 824
1504 897
1514 824
1514 898
1524 824
1524 901
1534 825
1534 901
1544 826
1544 904
1554 825
1554 907
1564 824
1564 907
1574 828
1574 903
1584 827
1584 902
1594 829
1594 904
1604 827
1604 907
1614 827
1614 909
1624 828
1624 912
1634 829
1634 912
1644 826
1644 911
1654 829
1654 913
1664 829
1664 914
1674 828
1674 914
1684 829
1684 916
1694 829
1694 920
1704 830
1704 920
1714 832
1714 920
1724 831
1724 921
1734 831
1734 922
1744 833
1744 923
1754 835
1754 924
1764 833
1764 925
1774 836
1774 926
1784 835
1784 927
1794 836
1794 928
1804 836
1804 929
1814 836
1814 929
1824 838
1824 930
1834 839
1834 931
1844 838
1844 931
1854 839
1854 928
1864 838
1864 927
1873 843
1874 925
1883 847
1884 922
1892 852
1894 920
1900 858
1901 905
1905 867
1909 877
1910 891
1911 901
