360 1320
362 1235
362 1310
362 1330
363 1063
364 1223
365 1145
365 1155
366 1073
367 1052
367 1244
369 1302
369 1338
370 1135
371 1215
372 1163
375 1044
375 1078
376 1249
379 1300
379 1341
380 1131
381 1213
382 1164
385 1042
385 1078
386 1250
389 1300
389 1344
390 1130
391 1213
392 1165
395 1040
395 1079
396 1252
399 1300
399 1346
400 1129
401 1213
402 1167
405 1037
405 1079
406 1252
409 1300
409 1348
410 1130
411 1213
412 1168
415 1035
415 1079
416 1252
419 1300
419 1350
420 1131
421 1213
422 1168
425 1033
425 1079
426 1253
429 1300
429 1352
430 1131
431 1214
432 1167
435 1033
435 1081
436 1253
439 1300
439 1354
440 1131
441 1214
442 1167
445 1031
445 1081
446 1252
449 1301
449 1357
450 1130
451 1214
452 1167
455 1030
455 1081
456 1252
459 1301
459 1359
460 1130
461 1213
462 1167
465 1029
465 1080
466 1252
469 1300
469 1360
470 1130
471 1213
472 1168
475 1027
475 1080
476 1252
479 1299
479 1362
480 1130
481 1213
482 1168
485 1026
485 1081
486 1253
489 1299
489 1364
490 1129
491 1213
492 1167
495 1025
495 1082
496 1253
499 1300
499 1365
500 1128
501 1213
502 1167
505 1024
505 1082
506 1254
509 1301
509 1367
510 1128
511 1213
512 1168
515 1022
515 1082
516 1255
519 1301
519 1369
520 1129
521 1213
522 1169
525 1020
525 1081
526 1255
529 1300
529 1371
530 1128
531 1212
532 1170
535 1019
535 1081
536 1254
539 1300
539 1372
540 1128
541 1213
542 1171
545 1019
545 1082
546 1254
549 1300
549 1373
550 1128
551 1213
552 1172
555 1018
555 1083
556 1254
559 1301
559 1375
560 1128
561 1213
562 1172
565 1018
565 1084
566 1255
569 1301
569 1376
570 1128
571 1212
572 1173
575 1018
575 1084
576 1257
579 1300
579 1378
580 1128
581 1213
582 1172
585 1016
585 1082
586 1260
589 1301
589 1379
590 1129
591 1213
592 1171
595 1014
595 1082
596 1261
599 1300
599 1380
600 1129
601 1213
602 1170
605 1013
605 1083
606 1259
609 1301
609 1380
610 1129
611 1213
612 1170
615 1013
615 1084
616 1258
619 1301
619 1381
620 1129
621 1213
622 1171
625 1011
625 1084
626 1258
629 1301
629 1381
630 1129
631 1214
632 1172
635 1010
635 1085
636 1259
639 1301
639 1382
640 1128
641 1213
642 1172
645 1009
645 1086
646 1260
649 1301
649 1384
650 1127
651 1213
652 1173
655 1008
655 1087
656 1261
659 1301
659 1386
660 1127
661 1213
662 1173
665 1007
665 1087
666 1261
669 1301
669 1387
670 1127
671 1213
672 1173
675 1007
675 1087
676 1261
679 1301
679 1387
680 1127
681 1213
682 1174
685 1006
685 1087
686 1261
689 1302
689 1389
690 1127
691 1213
692 1174
695 1005
695 1087
696 1262
699 1302
699 1390
700 1127
701 1213
702 1174
705 1005
705 1088
706 1263
709 1302
709 1391
710 1127
711 1213
712 1174
715 1004
715 1088
716 1264
719 1302
719 1392
720 1127
721 1214
722 1175
725 1003
725 1089
726 1265
729 1302
729 1392
730 1127
731 1213
732 1176
735 1002
735 1089
736 1266
739 1303
739 1393
740 1127
741 1213
742 1177
745 1001
745 1089
746 1267
749 1303
749 1394
750 1126
751 1212
752 1178
755 1001
755 1090
756 1267
759 1302
759 1395
760 1126
761 1212
762 1177
765 1000
765 1090
766 1267
769 1302
769 1395
770 1126
771 1213
772 1177
775 999
775 1090
776 1267
779 1303
779 1396
780 1126
781 1212
782 1177
785 998
785 1090
786 1267
789 1303
789 1397
790 1126
791 1213
792 1178
795 998
795 1089
796 1268
799 1303
799 1398
800 1125
801 1213
802 1178
805 998
805 1089
806 1268
809 1303
809 1398
810 1125
811 1213
812 1178
815 997
815 1089
816 1269
819 1303
819 1399
820 1125
821 1213
822 1178
825 997
825 1089
826 1269
829 1303
829 1399
830 1125
831 1213
832 1179
835 996
835 1089
836 1269
839 1303
839 1399
840 1124
841 1213
842 1180
845 996
845 1090
846 1269
849 1303
849 1400
850 1124
851 1213
852 1180
855 995
855 1091
856 1269
859 1303
859 1401
860 1123
861 1213
862 1180
865 995
865 1091
866 1270
869 1303
869 1402
870 1124
871 1212
872 1180
875 995
875 1091
876 1270
879 1303
879 1402
880 1124
881 1212
882 1180
885 995
885 1091
886 1270
889 1303
889 1401
890 1123
891 1211
892 1181
895 995
895 1091
896 1269
899 1302
899 1401
900 1123
901 1211
902 1181
905 994
905 1091
906 1270
909 1303
909 1401
910 1123
911 1211
912 1182
915 994
915 1092
916 1271
919 1304
919 1401
920 1122
921 1211
922 1183
925 993
925 1092
926 1272
929 1303
929 1402
930 1122
931 1211
932 1183
935 994
935 1093
936 1272
939 1303
939 1402
940 1122
941 1211
942 1183
945 994
945 1093
946 1273
949 1303
949 1402
950 1122
951 1211
952 1184
955 995
955 1093
956 1274
959 1303
959 1402
960 1122
961 1211
962 1185
965 995
965 1094
966 1274
969 1303
969 1402
970 1121
971 1211
972 1185
975 996
975 1094
976 1274
979 1303
979 1401
980 1121
981 1211
982 1185
985 996
985 1095
986 1275
989 1303
989 1400
990 1121
991 1211
992 1185
995 997
995 1095
996 1275
999 1303
999 1399
1000 1121
1001 1211
1002 1186
1005 997
1005 1096
1006 1276
1009 1302
1009 1399
1010 1120
1011 1211
1012 1186
1015 998
1015 1096
1016 1276
1019 1302
1019 1398
1020 1120
1021 1210
1022 1187
1025 998
1025 1097
1026 1277
1029 1302
1029 1398
1030 1120
1031 1210
1032 1187
1035 999
1035 1097
1036 1277
1039 1302
1039 1398
1040 1120
1041 1210
1042 1188
1045 1000
1045 1097
1046 1277
1049 1302
1049 1398
1050 1119
1051 1210
1052 1189
1055 1001
1055 1097
1056 1278
1059 1302
1059 1398
1060 1118
1061 1210
1062 1189
1065 1002
1065 1098
1066 1278
1069 1300
1069 1397
1070 1115
1071 1206
1072 1191
1074 1103
1074 1284
1075 1003
1079 1396
1085 1004
1089 1395
1095 1005
1099 1395
1105 1006
1109 1393
1115 1008
1119 1392
1125 1009
1129 1392
1135 1010
1139 1391
1145 1012
1149 1389
1155 1013
1159 1388
1165 1015
1169 1386
1175 1018
1179 1384
1185 1020
1189 1382
1195 1022
1199 1381
1205 1024
1209 1380
1215 1026
1219 1378
1225 1029
1229 1375
1235 1032
1239 1373
1245 1034
1249 1370
1255 1037
1259 1367
1265 1040
1269 1363
1275 1043
1279 1360
1285 1047
1289 1355
1295 1050
1299 1351
1305 1054
1309 1349
1315 1057
1319 1345
1325 1061
1329 1340
1335 1065
1339 1336
1345 1069
1349 1333
1355 1073
1359 1330
1364 1078
1369 1325
1374 1082
1379 1321
1383 1087
1389 1316
1393 1091
1399 1312
1402 1096
1409 1308
1412 1100
1419 1304
1421 1105
1428 1299
1430 1110
1437 1294
1440 1114
1446 1289
1449 1119
1456 1284
1459 1123
1466 1280
1469 1127
1476 1277
1479 1131
1486 1274
1489 1135
1496 1270
1499 1138
1506 1267
1509 1141
1516 1264
1519 1143
1526 1261
1529 1146
1536 1259
1539 1148
1546 1257
1549 1150
1556 1255
1559 1151
1566 1254
1569 1153
1576 1253
1579 1154
1586 1252
1589 1155
1596 1252
1599 1155
1606 1251
1609 1155
1616 1251
1619 1155
1626 1251
1629 1155
1636 1251
1639 1155
1646 1251
1649 1154
1656 1251
1659 1154
1666 1252
1669 1153
1676 1252
1679 1153
1686 1253
1689 1152
1696 1254
1699 1152
1706 1254
1709 1151
1716 1255
1719 1151
1726 1256
1729 1151
1736 1257
1739 1150
1746 1258
1749 1150
1756 1258
1759 1149
1766 1259
1769 1149
1776 1260
1779 1149
1786 1260
1789 1148
1796 1261
1799 1147
1806 1262
1809 1147
1816 1262
1819 1146
1826 1262
1829 1146
1836 1262
1839 1145
1846 1263
1849 1145
1856 1264
1859 1144
1866 1264
1869 1144
1876 1265
1879 1143
1886 1266
1889 1143
1896 1267
1899 1143
1906 1267
1909 1142
1916 1267
1919 1142
1926 1268
1929 1142
1936 1269
1939 1141
1946 1269
1949 1141
1956 1269
1959 1141
1966 1270
1969 1141
1976 1270
1979 1140
1986 1271
1989 1140
1996 1272
1999 1139
2006 1272
2009 1138
2016 1273
2019 1138
2026 1273
2029 1138
2036 1274
2039 1137
2046 1275
2049 1137
2056 1276
2059 1137
2066 1276
2069 1136
2076 1276
2079 1135
2086 1276
2089 1135
2096 1276
2099 1135
2106 1277
2109 1134
2116 1278
2119 1134
2126 1278
2129 1133
2136 1279
2139 1133
2146 1280
2149 1133
2156 1280
2159 1133
2166 1281
2169 1132
2176 1281
2179 1132
2186 1281
2189 1132
2196 1282
2199 1131
2206 1282
2209 1131
2216 1283
2219 1130
2226 1283
2229 1130
2236 1284
2239 1130
2246 1285
2249 1129
2256 1285
2259 1129
2266 1286
2269 1129
2276 1286
2279 1128
2286 1286
2289 1127
2296 1287
2299 1127
2306 1287
2309 1127
2316 1288
2319 1126
2326 1289
2329 1126
2336 1290
2339 1125
2346 1291
2349 1125
2356 1291
2359 1125
2366 1291
2369 1125
2376 1291
2379 1124
2386 1292
2389 1124
2396 1292
2399 1124
2406 1292
2409 1123
2416 1293
2419 1123
2426 1294
2429 1123
2436 1294
2439 1122
2446 1295
2449 1122
2456 1295
2459 1122
2466 1295
2469 1121
2476 1295
2479 1121
2486 1296
2489 1121
2496 1296
2499 1121
2506 1296
2509 1120
2516 1297
2519 1120
2526 1298
2529 1120
2536 1298
2539 1120
2546 1298
2549 1120
2556 1299
2559 1120
2566 1299
2569 1119
2576 1299
2579 1119
2586 1299
2589 1119
2596 1299
2599 1119
2606 1299
2609 1119
2616 1299
2619 1119
2626 1299
2629 1119
2636 1299
2639 1119
2646 1299
2649 1118
2656 1300
2659 1118
2666 1301
2669 1118
2676 1301
2679 1118
2686 1301
2689 1117
2696 1301
2699 1118
2706 1301
2709 1118
2716 1301
2719 1118
2726 1301
2729 1118
2736 1302
2739 1118
2746 1302
2749 1118
2756 1302
2759 1117
2766 1302
2769 1117
2776 1302
2779 1118
2786 1302
2789 1118
2796 1302
2799 1118
2806 1302
2809 1118
2816 1301
2819 1118
2826 1301
2829 1117
2836 1301
2839 1118
2846 1301
2849 1118
2856 1302
2859 1118
2866 1302
2869 1118
2876 1302
2879 1119
2886 1301
2889 1119
2896 1301
2899 1119
2906 1301
2909 1119
2916 1301
2919 1119
2926 1301
2929 1119
2936 1301
2939 1119
2946 1302
2949 1119
2956 1301
2959 1120
2966 1301
2969 1120
2976 1301
2979 1121
2986 1301
2989 1121
2996 1300
2999 1121
3006 1300
3009 1121
3016 1300
3019 1121
3026 1300
3029 1121
3036 1300
3039 1122
3046 1300
3049 1122
3056 1300
3059 1122
3066 1300
3069 1122
3076 1299
3079 1122
3086 1299
3089 1123
3096 1299
3099 1123
3106 1298
3109 1123
3116 1298
3119 1124
3126 1298
3129 1124
3136 1298
3139 1125
3146 1298
3149 1125
3156 1298
3159 1126
3166 1298
3169 1126
3176 1297
3179 1127
3186 1296
3189 1127
3196 1295
3199 1127
3206 1296
3209 1127
3216 1296
3219 1128
3226 1295
3229 1128
3236 1295
3239 1128
3246 1295
3249 1129
3256 1295
3259 1129
3266 1295
3269 1128
3276 1294
3279 1128
3286 1294
3289 1128
3296 1293
3299 1130
3306 1293
3309 1131
3316 1292
3319 1131
3326 1292
3329 1132
3336 1291
3339 1132
3346 1291
3349 1133
3356 1291
3359 1133
3366 1291
3369 1134
3376 1290
3379 1134
3386 1289
3389 1135
3396 1288
3399 1136
3406 1288
3409 1137
3416 1288
3419 1137
3426 1287
3429 1137
3436 1287
3439 1137
3446 1286
3449 1138
3456 1286
3459 1139
3466 1285
3469 1139
3476 1284
3479 1139
3486 1283
3489 1140
3496 1282
3499 1141
3506 1282
3509 1141
3516 1281
3519 1142
3526 1281
3529 1142
3536 1280
3539 1143
3546 1280
3549 1143
3556 1280
3559 1144
3566 1280
3569 1145
3576 1279
3579 1146
3586 1279
3589 1147
3596 1279
3599 1147
3606 1278
3609 1147
3616 1277
3619 1147
3626 1275
3629 1148
3636 1272
3639 1148
3642 1259
3646 1248
3649 1150
3652 1238
3659 1152
3662 1236
3668 1157
3672 1240
3676 1163
3682 1243
3684 1170
3688 1180
3690 1190
3690 1206
3690 1216
3690 1234
