163 677
163 687
165 697
169 668
170 706
177 714
178 662
185 720
188 660
190 705
193 726
194 715
198 658
202 731
208 657
211 736
218 657
220 741
228 656
230 745
238 656
240 749
248 656
250 752
258 656
260 755
268 655
270 758
278 655
280 761
288 654
290 762
298 655
300 764
308 654
310 765
318 653
320 766
328 653
330 767
338 652
340 768
348 652
350 768
358 652
360 769
368 651
370 769
378 651
380 769
388 651
390 769
398 650
400 769
408 649
410 768
418 648
420 768
428 647
430 767
438 647
440 767
448 647
450 766
458 647
460 765
468 645
470 764
478 645
480 763
488 646
490 762
498 645
500 761
508 645
510 760
518 644
520 759
528 644
530 758
538 644
540 757
548 645
550 756
558 645
560 754
568 646
570 753
578 647
580 751
588 648
590 750
598 649
600 748
608 649
610 747
618 649
620 745
628 649
630 744
638 649
640 743
648 649
650 740
658 649
660 737
668 648
670 734
678 649
680 731
688 651
690 729
698 652
700 726
708 652
710 723
718 651
720 721
728 653
730 719
738 654
740 717
748 657
750 715
758 658
760 714
768 658
770 713
778 658
780 713
788 658
790 713
798 658
800 713
808 658
810 712
818 656
820 714
828 655
830 715
838 653
840 716
848 652
850 717
858 652
860 717
868 652
870 718
878 651
880 718
888 651
890 719
898 652
900 720
908 652
910 720
918 651
920 719
928 651
930 719
938 650
940 719
948 650
950 718
958 650
960 718
968 649
970 718
978 648
980 717
988 648
990 717
998 648
1000 717
1008 647
1010 717
1018 647
1020 717
1028 646
1030 716
1038 646
1040 716
1048 646
1050 716
1058 645
1060 717
1068 644
1070 716
1078 644
1080 716
1088 644
1090 716
1098 643
1100 716
1108 643
1110 716
1118 642
1120 716
1128 642
1130 716
1138 642
1140 716
1148 641
1150 716
1158 641
1160 716
1168 640
1170 717
1178 640
1180 716
1188 639
1190 716
1198 639
1200 717
1208 639
1210 716
1218 637
1220 717
1228 638
1230 717
1238 637
1240 717
1248 636
1250 717
1258 636
1260 717
1268 636
1270 717
1278 635
1280 717
1288 635
1290 717
1298 634
1300 717
1308 634
1310 717
1318 634
1320 717
1328 633
1330 717
1338 633
1340 717
1348 633
1350 717
1358 632
1360 717
1368 632
1370 717
1378 632
1380 717
1388 632
1390 717
1398 632
1400 716
1408 632
1410 716
1418 632
1420 716
1428 633
1430 716
1438 634
1440 715
1447 639
1449 649
1450 713
1451 659
1453 669
1453 679
1453 689
1453 699
