647 158
647 168
648 178
648 200
649 188
651 147
653 209
655 219
657 138
658 229
660 239
661 249
667 133
667 257
669 267
674 276
677 132
678 286
682 296
686 306
687 133
690 316
695 139
695 325
699 335
702 147
704 344
707 354
708 155
710 165
712 363
714 175
717 372
721 183
721 382
724 193
726 391
729 202
731 400
734 211
736 221
737 408
742 229
743 416
744 426
747 238
751 434
752 247
757 256
757 442
761 452
765 263
765 462
768 273
770 471
776 280
776 479
777 290
781 488
784 298
786 497
788 308
792 505
794 316
798 513
800 324
802 523
806 332
809 531
811 341
814 540
817 349
820 548
822 358
826 556
828 366
831 565
835 374
836 574
839 384
842 582
847 391
848 590
852 400
854 598
858 408
859 607
864 416
865 615
869 425
870 624
874 434
877 632
880 442
883 640
888 448
888 649
891 458
894 657
898 466
902 663
904 474
907 672
908 484
913 680
914 492
919 501
919 688
924 697
925 509
930 518
931 705
936 526
936 714
942 534
942 722
946 544
949 730
951 553
956 562
956 738
962 570
962 746
964 580
970 588
970 753
975 597
980 606
980 757
984 767
986 614
991 623
994 633
994 767
998 777
1001 641
1005 785
1006 650
1011 659
1011 793
1011 803
1015 813
1016 668
1020 678
1023 820
1028 685
1028 829
1031 695
1032 839
1035 705
1037 848
1039 715
1039 725
1039 745
1041 735
1042 857
1044 754
1047 866
1050 762
1050 876
1056 884
1058 769
1059 894
1064 777
1065 902
1069 912
1072 784
1075 920
1076 794
1078 930
1082 802
1084 938
1089 947
1090 808
1095 955
1097 816
1101 963
1102 825
1105 973
1107 983
1109 833
1112 992
1113 843
1118 1000
1120 851
1122 1010
1125 860
1127 1019
1130 869
1132 1028
1139 874
1139 1036
1142 884
1142 1047
1146 894
1148 1058
1153 1067
1154 900
1159 909
1159 1075
1164 1084
1167 921
1169 1093
1172 930
1174 1102
1178 1112
1180 937
1183 1121
1185 946
1188 1130
1191 954
1193 1139
1197 962
1198 1148
1203 1157
1204 970
1210 978
1211 1164
1214 988
1218 1172
1224 989
1227 1177
1228 999
1231 1011
1234 1185
1237 1019
1242 1191
1245 1025
1250 1034
1251 1196
1257 1042
1259 1052
1260 1201
1265 1060
1269 1070
1270 1204
1277 1076
1280 1086
1280 1207
1287 1094
1290 1208
1291 1104
1293 1114
1300 1122
1300 1132
1300 1203
1301 1142
1304 1182
1304 1193
1306 1151
1309 1161
1309 1171
