728 286
728 296
729 276
731 306
732 316
735 326
736 267
737 336
741 257
741 346
746 355
749 365
751 255
755 373
759 383
761 251
762 393
768 401
771 255
773 410
779 261
779 418
784 427
787 267
790 435
793 275
795 444
799 283
803 451
807 290
809 459
815 297
815 467
820 476
822 305
828 313
828 483
834 321
835 491
841 329
841 499
847 507
849 335
854 344
855 514
860 352
861 522
868 358
868 530
871 368
875 538
880 373
883 545
884 383
890 553
892 389
898 397
898 560
904 405
905 568
909 578
910 413
915 422
918 583
925 426
926 590
929 436
933 598
937 443
940 606
942 452
948 612
950 459
954 620
955 468
960 477
963 625
966 485
969 633
974 492
977 639
979 501
984 510
985 645
992 516
992 653
996 526
1000 659
1002 534
1008 542
1008 666
1013 551
1014 674
1022 556
1022 681
1027 565
1030 687
1032 574
1036 695
1037 583
1043 591
1044 701
1050 599
1051 709
1055 608
1057 717
1063 614
1063 725
1065 624
1071 632
1071 732
1077 640
1079 738
1082 649
1085 746
1088 657
1093 752
1096 664
1098 761
1102 672
1104 769
1108 680
1111 690
1114 773
1117 783
1119 696
1125 704
1125 789
1131 712
1132 797
1137 806
1139 719
1142 729
1143 814
1148 737
1150 822
1156 830
1157 742
1162 838
1163 750
1168 759
1169 846
1174 767
1176 854
1182 774
1182 862
1187 871
1188 782
1196 788
1196 876
1200 886
1203 796
1208 892
1211 803
1213 901
1217 811
1221 908
1223 819
1227 916
1231 825
1231 926
1238 934
1239 831
1244 840
1245 942
1251 950
1252 847
1257 958
1258 855
1264 966
1266 862
1271 974
1273 870
1279 878
1279 981
1279 991
1287 885
1289 995
1293 893
1297 1002
1299 901
1302 1011
1308 906
1308 1019
1313 915
1316 1025
1321 921
1322 1033
1327 929
1329 1041
1333 937
1335 1049
1339 945
1341 1057
1346 953
1346 1066
1354 1072
1355 958
1360 967
1360 1080
1366 975
1369 1085
1374 981
1374 1094
1379 990
1380 1102
1387 996
1388 1108
1394 1004
1396 1114
1400 1012
1402 1122
1405 1021
1408 1130
1411 1029
1414 1138
1421 1032
1422 1144
1425 1042
1430 1151
1431 1050
1435 1160
1438 1058
1442 1068
1443 1166
1448 1175
1450 1075
1457 1083
1457 1180
1462 1092
1463 1188
1465 1201
1471 1097
1475 1204
1478 1105
1483 1114
1483 1211
1487 1124
1490 1219
1495 1130
1498 1225
1500 1139
1503 1234
1509 1144
1511 1240
1513 1154
1518 1163
1519 1246
1526 1170
1527 1252
1535 1175
1535 1185
1537 1254
1545 1188
1546 1248
1550 1197
1553 1240
1554 1207
1561 1215
1563 1235
1566 1224
