227 261
227 271
227 281
228 291
230 251
230 301
235 310
236 320
237 243
242 328
246 338
247 238
248 348
254 356
255 232
259 365
264 374
265 231
270 382
275 234
276 390
281 399
283 240
287 407
292 245
294 415
300 251
302 422
309 256
309 430
317 437
318 261
323 445
326 267
331 452
334 273
338 460
342 279
347 465
351 284
353 473
359 290
361 480
367 296
370 485
376 301
378 492
384 308
386 498
392 314
392 506
400 512
401 319
408 519
409 325
416 525
417 331
423 533
426 336
430 541
434 343
439 546
442 349
445 554
450 355
453 560
459 360
461 566
467 366
470 571
475 372
478 577
484 377
486 583
492 384
494 589
500 390
504 593
508 396
512 599
516 402
520 605
525 407
529 610
533 414
538 615
541 420
547 620
549 426
556 625
557 432
565 438
565 630
574 443
575 633
582 449
583 640
590 455
593 643
598 461
601 649
606 467
611 653
614 474
620 658
622 480
628 664
631 485
638 667
639 491
646 673
647 497
654 505
656 677
663 510
665 682
671 517
674 687
679 524
683 692
687 530
693 695
695 537
701 701
703 544
711 551
711 702
719 557
719 708
727 563
728 713
735 570
737 718
742 578
747 722
750 584
756 727
758 590
765 598
766 731
773 604
775 736
781 610
785 740
788 618
794 745
797 623
803 750
805 630
813 637
813 754
821 644
823 758
827 652
831 764
836 657
840 769
844 664
849 774
852 670
858 779
860 677
863 744
867 784
868 684
869 752
873 741
874 692
875 760
876 789
881 747
883 697
885 757
885 794
891 704
893 800
900 709
902 805
909 714
911 810
916 722
919 816
925 727
928 821
933 733
937 826
941 739
946 831
949 745
954 838
957 751
962 844
966 756
970 850
974 762
978 856
982 768
987 861
991 773
996 866
999 779
999 837
1004 872
1007 785
1013 877
1015 792
1021 883
1024 797
1029 890
1033 802
1037 896
1041 808
1045 902
1049 814
1055 906
1057 820
1065 826
1065 910
1069 920
1074 831
1079 924
1083 836
1087 930
1091 842
1097 932
1098 942
1101 846
1107 854
1108 945
1117 857
1118 949
1124 865
1128 952
1130 962
1134 868
1136 970
1143 873
1144 976
1151 880
1154 980
1161 884
1162 986
1167 892
1168 994
1176 1000
1177 895
1184 903
1186 1003
1192 1011
1194 907
1200 1018
1204 909
1208 1025
1212 915
1217 1030
1220 921
1225 1036
1229 926
1234 1041
1238 931
1244 1045
1246 937
1249 1054
1255 942
1259 1054
1263 948
1265 1062
1273 952
1273 1069
1281 959
1281 1075
1290 964
1291 1076
1295 1086
1300 968
1303 1092
1308 975
1312 1097
1316 981
1321 1102
1325 986
1329 1108
1334 991
1338 1113
1342 998
1348 1116
1351 1003
1354 1124
1360 1008
1364 1128
1368 1014
1371 1136
1377 1019
1381 1140
1385 1025
1389 1146
1393 1032
1398 1151
1402 1037
1404 1159
1410 1044
1413 1164
1419 1049
1422 1169
1427 1055
1432 1173
1435 1061
1440 1180
1443 1067
1448 1186
1451 1073
1456 1192
1459 1079
1465 1197
1468 1084
1474 1202
1476 1090
1482 1208
1485 1095
1490 1214
1493 1102
1500 1218
1501 1108
1508 1225
1509 1115
1517 1230
1518 1120
1525 1236
1526 1127
1534 1241
1535 1132
1543 1138
1543 1246
1551 1144
1551 1252
1559 1150
1560 1257
1567 1156
1568 1263
1575 1162
1577 1268
1583 1169
1587 1272
1592 1174
1596 1277
1600 1180
1606 1276
1608 1186
1613 1267
1616 1193
1620 1259
1624 1199
1627 1251
1632 1206
1633 1242
1638 1232
1640 1213
