611 767
617 775
620 762
626 780
630 760
636 784
640 759
645 789
650 757
655 792
660 755
665 794
670 755
675 798
680 754
685 801
690 754
695 804
700 753
705 806
710 753
715 809
720 753
725 813
730 753
735 816
740 753
745 816
750 753
755 818
760 754
765 822
770 753
775 823
780 754
785 825
790 754
795 828
800 754
805 829
810 754
815 831
820 753
825 833
830 752
835 837
840 753
845 836
850 753
855 838
860 754
865 840
870 755
875 843
880 755
885 846
890 755
895 844
900 753
903 850
910 754
913 851
920 754
923 852
930 754
933 853
940 756
943 857
950 755
953 853
960 755
963 855
968 864
970 754
977 859
980 755
987 857
990 756
990 867
1000 756
1000 869
1010 756
1010 868
1020 756
1020 870
1030 757
1030 869
1040 757
1040 871
1050 757
1050 871
1060 760
1060 872
1070 759
1070 876
1080 757
1080 874
1089 762
1090 870
1098 876
1099 759
1108 872
1109 759
1113 881
1119 759
1123 881
1129 760
1133 878
1139 763
1143 880
1149 763
1153 883
1159 760
1163 885
1169 760
1173 886
1179 763
1183 887
1189 763
1193 887
1199 762
1203 888
1209 763
1212 883
1219 764
1222 884
1229 762
1232 882
1239 766
1242 883
1249 763
1252 881
1259 767
1259 857
1260 875
1266 849
1269 767
1272 840
1279 767
1282 838
1289 767
1291 843
1299 768
1301 842
1309 768
1311 843
1319 767
1321 844
1329 771
1331 845
1339 770
1341 844
1349 771
1351 844
1359 768
1361 844
1368 773
1371 846
1378 773
1381 847
1388 773
1391 849
1398 773
1401 850
1408 775
1411 850
1418 775
1421 853
1428 775
1431 853
1438 775
1441 855
1448 779
1451 857
1458 777
1461 858
1468 777
1471 858
1478 777
1481 861
1488 778
1491 860
1498 776
1501 861
1508 779
1511 862
1518 777
1521 863
1528 777
1531 863
1538 778
1541 864
1548 779
1551 868
1558 779
1561 867
1568 779
1571 868
1578 781
1581 868
1588 780
1591 868
1598 783
1601 871
1608 785
1611 869
1618 782
1621 869
1628 781
1631 869
1638 782
1641 870
1648 783
1651 871
1658 784
1661 871
1668 784
1671 871
1678 787
1681 871
1688 788
1691 870
1698 787
1701 871
1708 785
1711 872
1715 793
1721 785
1721 873
1731 786
1731 873
1741 786
1741 875
1750 791
1751 878
1760 787
1761 879
1769 872
1770 788
1775 880
1778 890
1780 787
1786 896
1789 792
1794 902
1799 788
1803 907
1809 789
1813 905
1819 790
1822 900
1829 792
1832 896
1838 797
1840 889
1848 801
1849 884
1855 875
1856 807
1862 815
1863 868
1866 856
1868 823
1869 846
1870 835
