563 404
563 434
564 481
565 371
565 461
567 390
567 423
567 471
568 491
569 501
570 442
571 452
572 379
572 399
572 409
573 511
575 353
575 366
580 344
582 516
583 527
590 341
592 532
594 330
594 542
598 552
599 316
603 561
605 307
608 570
611 298
614 578
619 290
620 586
626 594
627 283
632 602
635 276
639 610
644 271
647 616
653 266
656 621
662 261
666 623
670 253
675 628
680 252
685 629
690 247
695 630
700 245
705 629
710 243
715 626
720 241
725 622
730 239
735 618
740 240
744 613
750 239
752 607
760 238
761 601
769 243
771 600
779 242
781 603
789 243
790 608
798 614
799 243
806 620
809 245
814 626
815 542
817 552
819 249
821 530
822 633
824 560
826 520
829 253
830 639
832 508
834 562
837 260
837 497
839 644
841 485
843 268
843 567
846 476
847 650
850 276
852 464
852 572
853 658
855 454
856 284
858 444
860 294
861 577
862 663
863 427
864 304
866 417
867 314
867 403
868 324
870 334
870 388
871 344
871 354
871 364
871 374
871 581
872 667
875 591
879 675
885 594
886 683
893 600
896 684
902 605
902 692
909 613
911 697
918 618
918 705
926 624
926 711
933 632
934 718
942 637
942 724
947 733
951 642
957 650
957 736
966 655
966 741
971 750
973 663
981 669
981 753
990 758
991 673
998 681
998 765
1005 689
1006 771
1014 694
1014 777
1022 700
1022 783
1028 708
1030 789
1037 713
1038 795
1045 720
1047 800
1053 726
1054 808
1062 731
1064 812
1070 737
1071 820
1078 743
1079 827
1084 751
1087 834
1092 758
1097 838
1101 763
1103 846
1109 769
1111 853
1117 775
1119 859
1126 780
1127 865
1131 789
1136 870
1141 793
1145 875
1149 799
1151 883
1157 806
1159 889
1164 898
1165 813
1173 819
1173 903
1181 825
1181 909
1189 832
1189 916
1196 924
1197 838
1205 845
1205 929
1213 851
1213 935
1220 859
1221 942
1229 949
1230 863
1237 955
1238 869
1244 877
1245 961
1253 882
1253 968
1259 976
1261 888
1268 896
1269 979
1274 988
1278 898
1284 989
1285 906
1287 999
1290 915
1296 1004
1298 921
1304 1010
1308 925
1312 1016
1316 931
1319 1024
1322 939
1327 1030
1330 945
1335 1036
1338 951
1341 1044
1348 955
1350 1049
1353 964
1359 1054
1362 969
1365 1062
1370 975
1373 1068
1377 983
1381 1074
1385 989
1389 1080
1393 996
1398 1085
1399 1004
1406 1092
1408 1009
1413 1100
1417 1014
1422 1023
1422 1105
1430 1112
1431 1028
1438 1118
1439 1034
1446 1124
1447 1040
1454 1048
1454 1130
1462 1136
1464 1049
1470 1143
1471 1057
1478 1149
1479 1063
1486 1156
1488 1068
1494 1162
1495 1076
1501 1170
1505 1079
1509 1176
1513 1086
1517 1182
1519 1094
1524 1103
1525 1188
1533 1108
1533 1194
1539 1202
1540 1116
1548 1122
1548 1207
1556 1213
1558 1126
1564 1220
1565 1134
1571 1228
1575 1133
1580 1233
1583 1139
1583 1149
1588 1240
1591 1156
1597 1245
1599 1162
1604 1253
1608 1167
1612 1259
1617 1172
1620 1265
1623 1180
1628 1272
1632 1185
1636 1278
1640 1192
1642 1286
1649 1197
1651 1291
1654 1206
1659 1297
1662 1213
1667 1304
1671 1218
1675 1311
1679 1225
1683 1317
1687 1231
1691 1323
1696 1236
1699 1330
1702 1244
1708 1252
1708 1335
1714 1343
1716 1258
1721 1361
1722 1349
1724 1264
1724 1371
1728 1381
1731 1272
1733 1390
1741 1276
1741 1397
1749 1282
1749 1404
1757 1288
1759 1408
1763 1296
1769 1410
1773 1300
1778 1415
1781 1306
1788 1416
1789 1313
1796 1410
1797 1323
1802 1401
1803 1331
1808 1393
1809 1339
1813 1382
1817 1345
1819 1374
1823 1353
1824 1363
