77 256
78 266
79 239
79 276
81 228
81 286
83 296
84 215
87 204
87 306
90 194
91 316
94 183
96 325
99 172
102 333
105 163
108 341
112 154
115 349
120 147
123 356
128 141
131 362
137 136
139 368
147 131
148 373
157 128
158 377
167 125
168 381
177 124
178 384
187 123
188 386
197 124
198 388
207 126
208 389
217 128
218 389
227 131
228 388
236 136
238 386
245 141
248 385
254 146
258 383
262 152
268 381
270 158
277 166
278 379
284 174
288 378
290 182
296 190
298 376
301 199
305 209
308 375
310 218
313 228
315 238
317 248
318 374
319 258
320 268
322 278
325 288
328 298
328 374
333 307
338 374
340 315
348 321
348 374
357 326
358 374
366 331
368 375
376 335
378 376
386 338
388 377
396 341
398 379
406 343
408 381
416 346
418 383
426 348
428 385
436 350
438 387
446 352
448 389
456 354
458 392
466 357
468 394
476 359
478 397
486 361
488 399
496 363
498 402
506 366
508 405
516 368
518 408
526 370
528 410
536 373
538 413
546 376
548 417
556 379
558 420
566 381
568 423
576 384
578 427
586 387
588 431
596 390
598 435
606 393
608 439
616 396
618 443
626 399
628 447
636 402
638 451
646 404
648 455
656 407
658 459
666 411
667 464
676 413
676 469
686 416
686 473
695 478
696 419
705 482
706 421
714 487
716 424
724 490
726 426
733 495
736 429
743 498
745 434
753 502
755 437
762 507
765 441
772 510
775 444
780 516
785 447
789 521
795 448
799 525
805 448
809 529
815 450
818 534
825 453
828 538
835 456
838 542
845 458
848 546
855 461
857 551
865 464
867 554
875 467
876 559
885 469
886 562
895 472
896 566
905 475
906 570
915 477
916 574
925 480
926 578
935 484
936 582
945 487
946 585
955 490
956 589
965 493
966 592
975 497
976 596
985 500
986 599
995 504
996 602
1005 508
1006 606
1015 512
1016 608
1025 515
1026 611
1035 519
1036 614
1045 523
1046 616
1054 528
1056 618
1064 532
1066 620
1073 537
1076 622
1082 542
1086 625
1089 586
1091 547
1094 595
1096 626
1099 583
1100 552
1102 601
1106 628
1109 557
1109 586
1112 603
1116 629
1117 563
1126 568
1126 628
1134 574
1136 624
1141 582
1144 617
1147 590
1148 607
