251 667
252 677
253 656
256 687
258 645
263 695
264 636
271 701
272 628
278 709
280 621
287 714
288 615
296 719
297 610
306 604
306 723
314 598
316 727
322 590
326 729
329 92
329 581
330 71
330 81
330 102
330 118
330 128
331 138
331 156
332 50
332 60
332 166
333 176
333 186
334 37
334 196
335 571
336 206
336 216
336 731
337 26
337 226
338 236
338 246
340 16
340 256
340 266
340 558
342 276
343 286
343 296
343 306
344 316
344 546
345 326
345 534
346 8
346 348
346 733
347 336
347 358
347 368
347 502
347 512
347 522
348 35
348 378
348 388
348 398
348 408
348 418
348 428
348 441
348 451
348 461
348 471
348 481
348 491
349 45
354 2
356 27
356 734
357 51
364 2
366 30
366 734
367 46
372 9
376 734
377 18
381 28
382 318
382 328
382 344
382 354
382 364
382 374
382 384
382 394
382 404
382 414
383 38
383 424
384 282
384 292
384 302
384 434
384 444
384 454
385 48
385 260
385 270
385 464
385 474
386 58
386 232
386 242
386 484
386 494
386 504
386 734
387 68
387 215
387 514
387 524
388 78
388 192
388 202
389 88
389 98
389 162
389 172
389 182
389 534
390 108
390 118
390 128
390 138
390 148
391 544
393 554
396 564
396 733
401 573
406 582
406 731
413 590
416 729
421 597
426 727
429 604
436 723
437 610
446 615
446 718
455 620
456 713
461 628
464 705
469 634
472 699
475 642
480 651
480 690
484 661
485 671
485 681
