351 1199
354 1186
354 1209
355 1086
355 1135
355 1152
355 1162
356 1172
357 1122
357 1235
359 1096
360 1217
361 1108
362 1078
362 1244
368 1252
369 1268
370 1069
371 1048
371 1058
372 1278
375 1301
376 1037
377 1287
378 1311
381 1028
382 992
383 1002
383 1018
384 1336
384 1346
386 1318
387 981
388 961
389 971
392 1353
394 953
397 1372
398 1361
398 1382
401 945
403 927
403 1391
408 918
409 1399
415 910
416 1407
422 902
422 1415
424 1425
426 1435
428 893
431 1444
433 884
436 1453
439 876
444 1460
445 867
449 857
450 1468
455 848
458 1475
463 1484
464 842
469 1492
472 835
475 1500
480 827
481 1508
485 1518
486 819
492 810
493 1525
499 802
501 1531
507 795
509 1538
515 788
517 1545
523 782
525 1551
530 774
534 1556
537 766
543 1561
545 759
551 1567
555 755
558 1575
565 752
566 1582
573 745
574 1589
578 736
584 1593
586 730
594 1597
596 730
604 1600
606 726
612 1606
615 721
620 1612
624 715
628 1618
632 709
638 1621
642 705
648 1624
652 700
657 1629
661 695
666 1634
671 690
676 1636
681 687
686 1637
691 685
695 1642
701 684
704 1647
711 681
714 1651
721 679
724 1652
731 678
734 1655
741 675
744 1658
751 673
754 1658
761 669
764 1660
771 667
774 1662
781 667
784 1664
791 667
794 1665
801 666
804 1665
811 667
814 1664
821 668
824 1665
831 668
834 1666
841 669
844 1666
851 668
854 1666
861 667
864 1667
871 667
874 1665
881 667
884 1663
891 667
894 1664
901 667
904 1663
911 667
914 1662
921 668
924 1661
931 671
934 1659
941 674
943 1654
951 677
952 1649
961 679
962 1650
969 1633
971 680
972 1649
979 1631
981 681
987 1637
990 686
995 1643
1000 690
1005 1640
1010 693
1012 1632
1020 696
1022 1631
1030 700
1032 1632
1040 704
1041 1626
1049 1620
1050 707
1059 712
1059 1617
1069 716
1069 1614
1078 721
1079 1610
1088 724
1089 1609
1097 729
1099 1604
1107 733
1109 1600
1116 1358
1117 737
1118 1595
1127 741
1127 1589
1135 747
1135 1583
1143 753
1144 1578
1151 759
1154 1574
1159 765
1163 1568
1167 771
1171 1561
1175 777
1178 1553
1183 783
1185 1545
1191 789
1193 1539
1199 795
1203 1534
1207 801
1211 1527
1215 808
1217 1518
1222 1509
1223 815
1229 1501
1231 822
1236 1493
1238 830
1246 836
1246 1490
1253 844
1256 1491
1261 851
1265 1485
1268 859
1271 1476
1276 866
1278 1468
1282 874
1286 1461
1290 881
1293 1453
1296 889
1299 1445
1303 897
1305 1437
1310 905
1312 1429
1318 911
1320 1423
1325 919
1328 1416
1332 927
1335 1407
1339 935
1341 1399
1346 943
1349 1391
1354 950
1357 1385
1361 958
1365 1379
1368 966
1373 1371
1374 974
1380 982
1381 1363
1387 990
1389 1356
1394 998
1396 1348
1400 1006
1403 1340
1407 1014
1410 1332
1413 1022
1416 1324
1421 1029
1423 1316
1427 1037
1430 1308
1435 1044
1438 1300
1442 1052
1446 1293
1450 1059
1454 1285
1458 1065
1461 1277
1466 1071
1468 1269
1475 1076
1476 1262
1483 1083
1485 1257
1491 1089
1495 1257
1501 1093
1505 1255
1511 1097
1515 1252
1519 1103
1524 1112
1524 1247
1534 1116
1534 1244
1544 1119
1544 1243
1554 1123
1554 1244
1564 1123
1564 1245
1574 1122
1574 1247
1584 1122
1584 1249
1594 1123
1594 1251
1604 1126
1604 1250
1614 1127
1614 1250
1624 1129
1624 1250
1634 1127
1634 1250
1644 1125
1644 1251
1654 1129
1654 1254
1663 1134
1664 1256
1673 1138
1674 1255
1683 1134
1684 1255
1693 1132
1694 1255
1703 1133
1704 1253
1713 1133
1714 1251
1723 1131
1724 1252
1733 1128
1734 1254
1743 1126
1744 1256
1753 1127
1754 1256
1763 1131
1764 1256
1773 1133
1774 1257
1783 1134
1784 1257
1793 1134
1794 1257
1803 1133
1804 1260
1813 1134
1814 1260
1823 1134
1824 1258
1833 1135
1834 1258
1842 1140
1844 1260
1852 1142
1854 1261
1862 1141
1864 1261
1872 1140
1873 1266
1882 1140
1883 1270
1892 1140
1893 1269
1902 1138
1903 1268
1912 1135
1913 1267
1922 1132
1923 1268
1932 1132
1932 1273
1942 1133
1942 1276
1952 1133
1952 1276
1962 1134
1962 1275
1972 1135
1972 1275
1982 1135
1982 1276
1992 1133
1992 1279
2002 1131
2002 1280
2012 1133
2012 1281
2022 1133
2022 1282
2032 1132
2032 1281
2042 1130
2042 1280
2052 1128
2052 1279
2062 1128
2062 1279
2072 1131
2072 1280
2082 1131
2082 1282
2092 1132
2092 1284
2102 1133
2102 1288
2112 1133
2112 1288
2122 1131
2122 1287
2132 1129
2132 1289
2142 1130
2142 1290
2152 1131
2152 1290
2162 1131
2162 1293
2172 1132
2172 1293
2182 1132
2182 1291
2192 1132
2192 1290
2202 1135
2202 1292
2211 1140
2212 1294
2221 1143
2222 1291
2231 1143
2232 1289
2241 1141
2242 1288
2251 1139
2252 1289
2260 1134
2260 1295
2268 1301
2270 1131
2278 1301
2280 1131
2288 1302
2290 1133
2298 1303
2300 1133
2308 1302
2310 1132
2318 1303
2320 1133
2328 1305
2330 1134
2338 1307
2340 1135
2348 1305
2350 1133
2358 1305
2360 1129
2368 1306
2370 1127
2378 1307
2380 1129
2388 1309
2390 1131
2398 1311
2400 1131
2408 1310
2410 1131
2418 1309
2420 1130
2428 1309
2430 1129
2438 1310
2440 1133
2448 1312
2450 1136
2458 1316
2460 1136
2467 1321
2470 1135
2477 1322
2480 1133
2487 1320
2490 1132
2497 1317
2500 1130
2507 1315
2510 1128
2517 1317
2520 1127
2527 1319
2530 1127
2537 1319
2540 1129
2547 1322
2550 1131
2557 1326
2560 1130
2567 1328
2570 1131
2577 1329
2580 1135
2587 1333
2590 1133
2597 1332
2600 1129
2607 1328
2610 1128
2617 1327
2620 1128
2627 1328
2630 1131
2637 1332
2639 1136
2645 1338
2649 1134
2655 1342
2658 1129
2665 1341
2668 1126
2675 1342
2678 1125
2685 1345
2688 1125
2695 1348
2698 1128
2705 1346
2708 1128
2715 1344
2718 1127
2725 1345
2728 1124
2735 1345
2738 1125
2745 1345
2746 1131
2755 1345
2756 1135
2765 1347
2766 1137
2775 1350
2776 1133
2785 1350
2786 1135
2795 1140
2795 1352
2804 1134
2805 1352
2814 1134
2815 1349
2824 1138
2825 1347
2834 1135
2835 1349
2844 1136
2845 1352
2854 1139
2855 1351
2864 1136
2865 1353
2874 1131
2875 1356
2884 1127
2885 1355
2894 1123
2894 1360
2900 1368
2904 1122
2910 1372
2914 1124
2919 1366
2924 1125
2927 1358
2934 1124
2935 1352
2943 1358
2944 1127
2952 1133
2953 1360
2962 1137
2963 1358
2966 1368
2972 1133
2974 1375
2980 1127
2984 1372
2990 1125
2994 1374
3000 1124
3004 1377
3010 1123
3014 1376
3020 1121
3024 1378
3030 1118
3034 1379
3040 1117
3043 1384
3050 1120
3053 1388
3060 1124
3063 1387
3070 1126
3073 1387
3080 1128
3083 1389
3090 1131
3093 1389
3100 1132
3103 1387
3110 1130
3113 1386
3120 1130
3123 1387
3129 1124
3133 1387
3138 1119
3143 1387
3148 1119
3153 1391
3158 1123
3163 1393
3168 1124
3173 1391
3178 1123
3182 1386
3188 1123
3191 1381
3198 1122
3201 1378
3208 1118
3210 1373
3218 1119
3220 1376
3228 1117
3228 1382
3236 1389
3238 1113
3246 1391
3248 1111
3252 1383
3257 1116
3262 1381
3265 1122
3266 1391
3272 1399
3275 1124
3282 1400
3285 1121
3292 1403
3295 1120
3301 1408
3305 1119
3311 1411
3315 1116
3321 1414
3325 1113
3331 1414
3335 1110
3341 1413
3345 1111
3351 1414
3355 1114
3361 1416
3365 1115
3371 1414
3375 1113
3381 1412
3385 1114
3391 1411
3395 1118
3399 1405
3405 1121
3409 1408
3415 1122
3417 1415
3425 1121
3427 1418
3435 1119
3437 1420
3445 1116
3447 1423
3455 1118
3457 1128
3457 1424
3466 1119
3467 1424
3476 1115
3477 1423
3486 1116
3487 1421
3495 1121
3497 1418
3505 1121
3507 1420
3515 1121
3515 1426
3525 1119
3525 1426
3534 1124
3534 1420
3542 1413
3544 1127
3552 1409
3554 1122
3562 1411
3564 1118
3569 1419
3574 1115
3579 1422
3584 1114
3589 1417
3594 1115
3599 1416
3604 1115
3609 1418
3614 1112
3619 1420
3624 1113
3629 1422
3634 1113
3639 1424
3644 1112
3649 1425
3654 1111
3658 1430
3664 1113
3668 1433
3673 1422
3674 1115
3677 1438
3681 1416
3684 1115
3686 1432
3694 1114
3696 1436
3704 1113
3706 1433
3714 1116
3716 1431
3724 1118
3726 1428
3734 1115
3735 1423
3743 1417
3744 1112
3752 1422
3754 1112
3757 1431
3764 1110
3767 1433
3774 1108
3777 1430
3784 1110
3787 1429
3794 1111
3797 1429
3802 1445
3804 1111
3807 1433
3810 1452
3814 1109
3820 1456
3824 1109
3830 1459
3834 1108
3840 1457
3844 1106
3850 1454
3854 1102
3860 1452
3864 1102
3868 1444
3872 1434
3874 1106
3882 1436
3884 1107
3884 1448
3889 1457
3894 1104
3899 1459
3904 1103
3909 1455
3914 1103
3919 1451
3924 1102
3929 1447
3934 1101
3939 1447
3944 1104
3946 1455
3954 1108
3954 1462
3964 1110
3964 1465
3974 1107
3974 1466
3984 1103
3984 1466
3994 1104
3994 1464
4004 1107
4004 1465
4014 1106
4014 1468
4024 1102
4024 1468
4029 1455
4034 1101
4039 1456
4044 1102
4049 1456
4054 1102
4059 1457
4064 1098
4067 1463
4073 1471
4074 1099
4083 1104
4083 1475
4093 1106
4093 1475
4103 1105
4103 1473
4113 1101
4113 1470
4121 1462
4123 1101
4126 1111
4126 1121
4126 1131
4126 1141
4126 1151
4126 1161
4126 1171
4126 1181
4126 1191
4126 1201
4126 1211
4126 1221
4126 1231
4126 1241
4126 1251
4126 1261
4126 1271
4126 1281
4126 1291
4126 1301
4126 1311
4126 1321
4126 1331
4126 1341
4126 1351
4126 1361
4126 1371
4126 1381
4126 1391
4126 1401
4126 1411
4126 1421
4126 1431
4126 1441
4126 1451
