644 375
650 362
654 319
654 350
654 379
655 329
656 339
657 436
657 446
659 388
660 364
662 313
662 455
665 396
667 303
667 432
667 464
668 406
673 415
675 295
675 425
675 474
680 285
680 483
690 281
690 483
692 271
697 491
701 260
706 496
711 256
711 511
719 247
719 517
721 527
728 241
729 533
736 233
739 535
746 231
749 535
755 226
759 536
764 220
769 532
773 215
779 530
783 211
789 530
793 206
799 528
803 202
808 523
813 201
818 519
823 200
828 515
833 198
838 512
843 198
846 506
853 198
856 502
863 198
864 496
873 199
873 490
882 204
882 484
892 204
892 483
902 206
902 485
908 493
912 210
913 502
919 218
920 510
926 518
929 222
932 526
937 229
939 534
946 234
946 542
952 550
954 240
957 420
957 430
959 558
962 246
962 439
966 415
966 566
967 255
967 448
969 404
973 263
973 456
974 573
975 396
980 581
981 269
981 388
981 463
984 279
985 473
986 589
987 376
991 481
992 285
992 367
992 597
994 298
998 359
999 307
999 487
999 605
1000 346
1004 316
1004 335
1004 496
1006 613
1010 504
1012 621
1016 512
1019 629
1025 517
1026 637
1030 526
1034 536
1034 644
1039 653
1042 542
1046 661
1047 551
1052 669
1057 553
1059 563
1060 675
1064 572
1066 683
1071 580
1072 691
1077 700
1079 587
1085 706
1087 594
1091 714
1094 602
1098 722
1100 610
1105 619
1105 730
1112 627
1112 738
1118 746
1119 635
1125 754
1128 642
1131 762
1132 652
1138 770
1140 659
1145 778
1146 667
1152 675
1152 786
1160 682
1160 793
1166 690
1166 801
1172 698
1172 809
1178 817
1180 704
1182 714
1185 825
1190 720
1192 833
1198 727
1198 841
1203 736
1205 849
1209 744
1212 857
1216 752
1219 865
1224 759
1227 871
1229 768
1232 880
1237 774
1239 888
1242 783
1245 896
1250 790
1252 904
1256 798
1259 912
1264 804
1266 920
1268 814
1272 928
1274 822
1279 936
1282 828
1287 943
1288 836
1292 952
1294 844
1300 852
1300 959
1306 860
1306 967
1312 975
1313 868
1320 982
1321 874
1326 990
1327 882
1333 998
1334 890
1338 900
1339 1006
1346 907
1347 1012
1352 915
1352 1021
1359 923
1359 1029
1366 1037
1367 929
1372 1045
1375 936
1380 945
1380 1052
1386 1060
1388 952
1393 961
1393 1068
1399 969
1400 1076
1406 1084
1407 975
1413 1092
1414 983
1419 992
1420 1100
1425 1000
1426 1108
1431 1008
1434 1115
1438 1016
1440 1123
1446 1131
1447 1021
1451 1031
1453 1139
1457 1039
1460 1147
1463 1047
1466 1155
1471 1053
1473 1163
1477 1061
1481 1170
1482 1070
1487 1178
1490 1077
1493 1186
1497 1085
1499 1194
1503 1093
1506 1202
1511 1100
1513 1210
1516 1109
1519 1218
1524 1116
1525 1226
1530 1124
1531 1234
1535 1133
1538 1242
1544 1138
1544 1250
1549 1147
1553 1255
1554 1156
1558 1264
1562 1162
1564 1272
1566 1172
1570 1280
1573 1180
1576 1288
1579 1188
1582 1296
1587 1194
1590 1302
1594 1312
1595 1201
1601 1209
1602 1319
1609 1215
1609 1327
1612 1225
1617 1334
1619 1233
1621 1344
1627 1239
1629 1350
1633 1247
1637 1357
1640 1255
1643 1365
1645 1264
1648 1374
1651 1272
1653 1383
1659 1278
1662 1388
1666 1286
1669 1396
1672 1294
1676 1404
1678 1302
1681 1413
1684 1310
1689 1419
1692 1316
1695 1427
1697 1325
1700 1436
1703 1333
1708 1442
1710 1341
1715 1450
1716 1349
1723 1357
1725 1454
1729 1365
1734 1459
1735 1373
1742 1451
1744 1378
1749 1387
1752 1448
1757 1393
1760 1440
1763 1401
1768 1430
1770 1409
1778 1415
1778 1426
