180 221
180 231
181 241
182 210
182 251
182 261
183 271
184 196
185 281
186 184
186 291
187 301
188 174
190 164
190 311
193 152
193 321
196 331
197 141
197 1121
197 1131
197 1141
198 1086
198 1096
198 1106
198 1151
199 1073
199 1161
199 1171
200 341
200 1181
201 1061
201 1191
201 1201
201 1211
201 1221
202 129
202 1231
203 351
203 1041
203 1051
203 1241
204 1030
205 361
206 1015
207 118
208 371
208 992
208 1002
210 982
210 1249
212 108
212 381
213 972
215 391
215 961
217 950
218 100
218 401
219 938
220 1250
221 923
222 411
223 910
224 91
225 897
226 421
227 886
229 874
230 82
230 1250
231 430
231 856
233 842
235 831
236 439
237 73
237 820
240 449
240 806
240 1250
242 796
244 459
244 783
245 64
246 771
248 761
249 83
249 468
250 93
250 746
250 1250
252 733
253 72
254 477
255 59
255 719
257 699
257 709
258 487
259 686
260 94
260 1250
262 673
263 51
263 496
265 61
265 660
266 506
267 645
268 87
268 1242
269 516
269 592
269 626
270 526
270 561
270 571
270 602
270 616
271 45
271 536
271 581
271 1228
272 546
273 1217
275 60
275 1207
276 80
277 1197
279 1187
280 40
281 1174
282 71
283 1161
284 1148
285 1109
286 1094
287 1119
287 1129
288 1084
290 38
290 1042
290 1052
290 1063
290 1073
291 1028
293 1017
295 601
295 611
295 621
295 631
295 641
295 765
295 794
295 804
295 814
295 824
295 834
295 844
295 854
295 888
295 907
295 917
295 927
295 937
295 947
295 964
295 974
295 984
295 1007
296 584
296 651
296 661
296 686
296 696
296 706
296 752
296 775
296 864
296 874
296 994
297 671
297 716
297 726
297 736
298 573
299 33
301 557
302 544
304 531
307 518
309 29
310 507
315 496
319 26
321 486
327 477
329 25
333 469
339 24
339 459
345 450
349 25
351 441
357 432
359 28
363 423
369 32
369 413
375 403
379 36
381 394
387 384
388 41
393 374
396 47
398 365
403 356
404 54
408 347
411 62
413 338
417 70
418 328
423 78
423 319
428 87
428 308
432 296
433 96
436 284
438 105
439 274
441 115
442 263
445 125
445 250
447 135
448 236
449 145
450 222
451 155
451 211
452 165
452 175
452 185
452 195
