378 1479
378 1489
378 1499
379 1408
379 1418
379 1428
379 1438
379 1448
379 1458
379 1468
379 1509
379 1519
379 1529
380 1341
380 1351
380 1361
380 1371
380 1381
380 1391
380 1539
381 1308
381 1318
381 1328
381 1549
382 1288
382 1298
382 1559
383 1260
383 1270
384 1237
384 1247
384 1569
385 1218
386 1201
388 1190
388 1579
392 1179
393 1588
397 1170
398 1597
404 1162
404 1605
409 1614
413 1156
416 1622
422 1630
423 1154
429 1638
433 1153
436 1646
443 1153
444 1653
452 1660
453 1153
460 1667
463 1153
467 1675
473 1152
475 1681
483 1152
484 1686
492 1692
493 1152
500 1698
503 1152
509 1703
513 1152
518 1708
523 1153
527 1713
533 1153
536 1718
543 1153
545 1723
553 1153
555 1727
563 1154
564 1732
573 1154
574 1736
583 1154
584 1739
593 1154
593 1744
603 1154
603 1748
613 1154
613 1752
622 1757
623 1155
632 1761
633 1155
642 1764
643 1155
652 1767
653 1155
662 1771
663 1155
672 1773
673 1155
682 1776
683 1155
692 1780
693 1155
702 1782
703 1155
712 1784
713 1155
722 1787
723 1155
732 1789
733 1155
742 1792
743 1155
752 1794
753 1156
762 1796
763 1157
772 1797
773 1157
782 1798
783 1156
792 1798
793 1156
802 1799
803 1156
812 1800
813 1156
822 1801
823 1157
832 1802
833 1157
842 1802
843 1157
852 1803
853 1157
862 1802
863 1157
872 1801
873 1157
882 1800
883 1157
892 1800
893 1157
902 1799
903 1157
912 1797
913 1157
922 1796
923 1157
932 1793
933 1157
942 1791
943 1157
952 1788
953 1157
962 1787
963 1157
972 1783
973 1156
982 1780
983 1156
992 1777
993 1156
1002 1773
1003 1156
1012 1770
1013 1157
1022 1766
1023 1157
1032 1762
1033 1158
1042 1758
1043 1158
1052 1753
1053 1158
1061 1748
1063 1159
1071 1744
1073 1161
1080 1739
1083 1164
1090 1735
1092 1169
1099 1730
1100 1176
1107 1184
1108 1725
1114 1192
1117 1720
1121 1200
1126 1715
1127 1208
1132 1217
1136 1711
1138 1225
1144 1233
1145 1706
1149 1242
1154 1701
1155 1250
1162 1258
1164 1696
1170 1265
1173 1690
1176 1273
1182 1684
1184 1279
1191 1287
1192 1679
1199 1293
1201 1674
1207 1300
1211 1670
1215 1306
1221 1665
1224 1311
1229 1658
1233 1316
1239 1654
1242 1321
1248 1649
1251 1326
1257 1643
1261 1329
1267 1638
1270 1334
1277 1633
1279 1339
1286 1628
1289 1340
1296 1626
1299 1343
1306 1624
1309 1344
1316 1621
1319 1343
1325 1616
1329 1344
1334 1610
1339 1345
1342 1602
1349 1349
1350 1596
1358 1354
1360 1594
1368 1355
1370 1593
1378 1355
1380 1593
1388 1356
1390 1594
1398 1356
1400 1594
1408 1356
1410 1594
1418 1356
1420 1595
1428 1356
1430 1596
1438 1356
1440 1596
1448 1356
1450 1596
1458 1357
1460 1597
1468 1357
1470 1597
1478 1357
1480 1598
1488 1357
1490 1598
1498 1357
1500 1599
1508 1357
1510 1599
1518 1357
1520 1600
1528 1358
1530 1600
1538 1358
1540 1600
1548 1358
1550 1600
1558 1358
1560 1600
1568 1358
1570 1600
1578 1358
1580 1600
1588 1358
1590 1601
1598 1358
1600 1602
1608 1358
1610 1602
1618 1359
1620 1602
1628 1359
1630 1603
1638 1359
1640 1603
1648 1359
1650 1604
1658 1359
1660 1605
1668 1359
1670 1605
1678 1359
1680 1605
1688 1359
1690 1605
1698 1360
1700 1605
1708 1360
1710 1606
1718 1361
1720 1607
1728 1361
1730 1607
1738 1361
1740 1607
1748 1362
1750 1608
1758 1362
1760 1608
1768 1362
1770 1608
1778 1362
1780 1609
1788 1362
1790 1609
1798 1363
1800 1609
1808 1363
1810 1609
1818 1363
1820 1609
1828 1363
1830 1610
1838 1363
1840 1610
1848 1363
1850 1611
1858 1364
1860 1611
1868 1364
1870 1611
1878 1364
1880 1611
1888 1364
1890 1612
1898 1364
1900 1613
1908 1364
1910 1613
1918 1365
1920 1614
1928 1366
1930 1615
1938 1366
1940 1615
1948 1366
1950 1615
1958 1366
1960 1616
1968 1367
1970 1616
1978 1367
1980 1616
1988 1367
1990 1617
1998 1368
2000 1617
2008 1368
2010 1618
2018 1369
2020 1618
2028 1369
2030 1619
2038 1369
2040 1619
2048 1370
2050 1619
2058 1370
2060 1619
2068 1370
2070 1620
2078 1371
2080 1620
2088 1371
2090 1620
2098 1371
2100 1621
2108 1371
2110 1621
2118 1372
2120 1621
2128 1372
2130 1622
2138 1373
2140 1622
2148 1373
2150 1623
2158 1374
2160 1623
2168 1374
2170 1623
2178 1374
2180 1623
2188 1375
2190 1624
2198 1375
2200 1624
2208 1375
2210 1624
2218 1375
2220 1623
2228 1375
2230 1623
2238 1376
2240 1624
2248 1377
2250 1624
2258 1377
2260 1624
2268 1378
2270 1624
2278 1378
2280 1624
2288 1378
2290 1624
2298 1379
2300 1625
2308 1379
2310 1625
2318 1379
2320 1625
2328 1379
2330 1625
2338 1380
2340 1625
2348 1381
2350 1626
2358 1382
2360 1626
2368 1382
2370 1626
2378 1382
2380 1626
2388 1383
2390 1626
2398 1383
2400 1627
2408 1383
2410 1627
2418 1383
2420 1627
2428 1383
2430 1628
2438 1383
2440 1628
2448 1383
2450 1628
2458 1383
2460 1629
2468 1383
2470 1629
2478 1383
2480 1630
2488 1384
2490 1630
2498 1384
2500 1630
2508 1383
2510 1631
2518 1383
2520 1631
2528 1384
2530 1632
2538 1384
2540 1633
2548 1384
2550 1633
2558 1385
2560 1633
2568 1385
2570 1634
2578 1385
2580 1635
2588 1384
2590 1636
2598 1384
2600 1637
2608 1385
2610 1637
2618 1385
2620 1638
2628 1385
2630 1639
2638 1385
2640 1640
2648 1385
2650 1641
2658 1385
2660 1642
2668 1386
2670 1642
2678 1386
2680 1643
2688 1385
2690 1644
2698 1385
2700 1644
2708 1385
2710 1645
2718 1385
2720 1646
2728 1385
2730 1647
2738 1384
2740 1648
2748 1385
2750 1649
2758 1385
2760 1650
2768 1385
2770 1650
2778 1386
2780 1651
2788 1386
2790 1652
2798 1386
2800 1652
2808 1385
2810 1653
2818 1385
2820 1654
2828 1384
2830 1655
2838 1384
2840 1656
2848 1384
2850 1657
2858 1384
2860 1657
2868 1384
2870 1658
2878 1385
2880 1659
2888 1384
2890 1659
2898 1384
2900 1661
2908 1384
2910 1662
2918 1384
2920 1663
2928 1384
2930 1664
2938 1384
2940 1664
2948 1384
2950 1665
2958 1384
2960 1666
2968 1384
2970 1667
2978 1383
2980 1668
2988 1383
2990 1669
2998 1382
3000 1670
3008 1382
3010 1671
3018 1382
3020 1671
3028 1382
3030 1672
3038 1382
3040 1673
3048 1381
3050 1674
3058 1381
3060 1675
3068 1380
3070 1677
3078 1380
3080 1677
3088 1380
3090 1678
3098 1379
3100 1680
3108 1379
3110 1680
3118 1378
3120 1681
3128 1378
3130 1682
3138 1378
3140 1683
3148 1377
3150 1683
3158 1377
3160 1684
3168 1377
3170 1685
3178 1377
3180 1686
3188 1376
3190 1687
3198 1376
3200 1689
3208 1375
3210 1690
3218 1375
3220 1691
3228 1375
3230 1692
3238 1374
3240 1693
3248 1374
3250 1694
3258 1374
3260 1695
3268 1374
3270 1696
3278 1373
3280 1696
3288 1372
3290 1696
3298 1372
3300 1697
3308 1372
3310 1698
3318 1372
3320 1699
3328 1371
3330 1701
3338 1370
3340 1702
3348 1371
3350 1703
3358 1370
3360 1704
3368 1369
3370 1705
3378 1369
3380 1705
3388 1368
3390 1706
3398 1368
3400 1707
3408 1367
3410 1709
3418 1367
3420 1709
3428 1366
3430 1710
3438 1366
3440 1710
3448 1366
3450 1711
3458 1365
3460 1712
3468 1364
3470 1713
3478 1364
3480 1714
3488 1363
3490 1715
3498 1363
3500 1716
3508 1362
3510 1717
3518 1362
3520 1718
3528 1362
3530 1719
3538 1362
3540 1721
3548 1361
3550 1721
3558 1361
3560 1722
3568 1360
3570 1723
3578 1360
3580 1723
3588 1360
3590 1725
3598 1360
3600 1727
3608 1359
3610 1727
3618 1359
3620 1727
3628 1358
3630 1728
3638 1358
3640 1729
3648 1357
3650 1730
3658 1357
3660 1731
3668 1357
3670 1732
3678 1356
3680 1733
3688 1356
3690 1734
3698 1355
3700 1734
3708 1355
3710 1734
3718 1354
3720 1736
3728 1354
3730 1736
3738 1354
3740 1736
3748 1354
3750 1738
3758 1353
3760 1739
3768 1353
3770 1739
3778 1353
3780 1740
3788 1352
3790 1742
3798 1352
3800 1742
3808 1352
3810 1742
3818 1352
3820 1744
3828 1352
3830 1745
3838 1352
3840 1745
3848 1352
3850 1745
3858 1353
3860 1747
3868 1353
3870 1748
3878 1353
3880 1748
3888 1353
3890 1748
3898 1353
3900 1749
3908 1353
3910 1750
3918 1353
3920 1751
3928 1353
3930 1752
3938 1353
3940 1752
3948 1353
3950 1752
3958 1353
3960 1753
3968 1353
3970 1754
3978 1352
3980 1754
3988 1352
3990 1754
3998 1352
4000 1754
4008 1352
4010 1754
4018 1351
4020 1756
4028 1351
4030 1757
4038 1351
4040 1757
4048 1351
4050 1758
4058 1351
4060 1759
4068 1351
4070 1760
4078 1351
4080 1760
4088 1351
4090 1760
4098 1351
4100 1761
4108 1351
4110 1761
4118 1351
4120 1761
4126 1357
4126 1367
4126 1377
4126 1387
4126 1397
4126 1407
4126 1417
4126 1427
4126 1437
4126 1447
4126 1457
4126 1467
4126 1477
4126 1487
4126 1497
4126 1507
4126 1517
4126 1527
4126 1537
4126 1547
4126 1557
4126 1567
4126 1577
4126 1587
4126 1597
4126 1607
4126 1617
4126 1627
4126 1637
4126 1647
4126 1657
4126 1667
4126 1677
4126 1687
4126 1697
4126 1707
4126 1717
4126 1727
4126 1737
4126 1747
