472 482
474 492
474 502
476 458
476 468
476 512
479 448
480 522
482 437
485 531
486 425
489 414
490 540
493 399
496 548
497 388
501 566
502 378
503 556
509 369
510 571
514 358
520 350
520 574
525 340
527 582
531 330
535 588
538 322
540 597
542 312
546 605
550 303
555 610
558 297
561 618
564 287
567 626
570 279
575 633
579 274
583 640
585 266
588 649
594 261
596 655
602 254
602 663
607 245
607 672
616 677
617 240
622 685
627 235
629 693
635 228
637 700
643 708
645 224
650 716
655 220
658 722
664 730
665 224
670 738
673 230
675 747
678 239
683 753
684 247
687 763
689 256
695 264
696 768
701 272
704 775
708 280
710 783
716 286
718 790
723 294
726 797
728 807
730 302
738 809
739 307
743 317
744 817
751 324
751 825
759 330
759 832
764 339
766 840
770 347
774 846
779 352
783 851
785 360
792 368
793 855
800 374
803 855
806 382
813 855
814 388
821 396
823 854
829 403
833 855
836 411
836 844
842 835
844 417
849 827
850 425
857 820
859 430
864 439
867 814
872 446
876 805
878 454
885 810
886 461
892 469
895 812
900 475
905 816
906 483
913 823
915 488
919 831
921 496
928 504
928 836
933 845
935 512
942 850
943 518
949 526
950 857
956 865
957 533
964 541
964 872
971 549
972 878
976 707
978 886
979 555
981 738
982 698
982 726
983 715
984 748
985 894
988 560
991 692
991 902
992 755
993 569
997 684
1000 762
1001 576
1001 906
1005 676
1006 770
1006 915
1009 582
1012 778
1013 669
1014 591
1014 921
1020 785
1022 597
1022 663
1022 928
1028 605
1028 792
1029 654
1030 935
1034 613
1034 800
1035 646
1036 943
1039 622
1039 632
1041 808
1044 950
1048 816
1050 958
1055 824
1056 966
1062 832
1064 973
1070 839
1070 981
1077 847
1080 985
1085 854
1088 992
1092 862
1094 1000
1100 869
1100 1008
1106 877
1108 1014
1114 883
1114 1022
1119 1031
1120 891
1127 899
1128 1036
1134 1044
1135 906
1142 1050
1143 912
1148 1058
1149 920
1156 928
1156 1064
1163 1072
1164 934
1169 1080
1171 942
1177 1087
1179 949
1183 1095
1187 955
1192 1100
1193 963
1198 1108
1201 970
1206 1115
1209 977
1211 1124
1216 985
1218 1132
1225 990
1226 1139
1231 998
1234 1146
1238 1006
1241 1154
1246 1013
1247 1162
1254 1020
1255 1169
1262 1027
1262 1177
1270 1034
1271 1182
1277 1190
1278 1040
1284 1048
1285 1196
1292 1055
1292 1204
1298 1212
1299 1063
1306 1218
1308 1068
1313 1077
1314 1225
1322 1232
1323 1081
1330 1238
1331 1088
1335 1247
1336 1097
1343 1105
1345 1251
1351 1112
1351 1259
1357 1120
1357 1267
1365 1273
1367 1122
1372 1281
1373 1130
1378 1139
1381 1286
1385 1147
1386 1295
1392 1303
1393 1153
1399 1161
1400 1309
1407 1168
1407 1317
1415 1175
1415 1323
1422 1331
1423 1182
1429 1190
1429 1339
1437 1196
1437 1345
1443 1204
1445 1351
1451 1210
1451 1359
1459 1216
1459 1366
1465 1224
1467 1372
1472 1232
1475 1379
1481 1237
1481 1387
1489 1393
1491 1239
1495 1249
1497 1400
1500 1258
1503 1408
1506 1266
1511 1414
1514 1273
1519 1420
1522 1279
1526 1428
1528 1287
1535 1295
1535 1433
1542 1441
1543 1302
1550 1310
1550 1447
1556 1455
1557 1318
1564 1461
1566 1323
1571 1332
1572 1468
1579 1338
1580 1475
1585 1346
1588 1481
1592 1354
1592 1436
1594 1446
1596 1488
1600 1361
1601 1431
1604 1449
1604 1494
1607 1369
1611 1434
1612 1501
1614 1451
1615 1375
1621 1383
1621 1506
1627 1391
1631 1510
1635 1397
1640 1515
1641 1405
1648 1413
1650 1515
1655 1421
1660 1513
1662 1429
1668 1437
1670 1508
1674 1445
1680 1500
1681 1453
1684 1463
1686 1491
1688 1475
