103 22
104 32
106 42
108 52
110 62
112 72
115 82
117 92
119 102
121 112
124 122
126 132
128 142
131 152
134 162
136 172
139 182
141 192
143 202
144 212
147 222
149 232
151 242
154 252
156 262
158 272
160 282
161 243
163 292
164 253
165 302
166 263
167 324
168 312
169 273
171 334
177 267
177 322
180 312
182 300
185 257
186 284
189 246
190 274
193 233
193 263
197 220
199 242
200 210
203 200
203 228
206 189
207 218
209 178
212 167
215 155
218 143
220 132
222 120
224 110
225 151
227 99
228 139
230 88
231 127
233 78
234 116
236 67
237 105
239 57
240 94
242 46
242 84
245 74
247 35
248 62
251 51
252 25
