235 520
238 530
241 512
248 533
249 505
257 499
258 535
266 494
268 535
275 489
278 534
284 484
288 533
294 480
298 531
304 475
308 529
314 471
318 527
324 467
328 524
334 463
338 522
344 459
348 520
354 455
358 517
364 452
368 514
374 448
378 511
384 445
388 506
394 442
398 503
404 438
408 499
414 435
418 494
424 433
428 490
434 430
438 486
444 427
448 482
454 424
458 478
464 422
468 473
474 419
478 469
484 417
488 465
494 415
498 461
504 413
508 457
514 411
518 454
524 408
528 450
534 406
538 446
544 404
548 443
554 401
558 439
564 399
568 435
574 396
578 432
584 394
588 429
594 391
598 426
604 388
608 422
614 385
618 419
624 382
628 417
634 378
638 414
644 374
648 412
654 371
658 409
664 367
668 407
674 363
678 406
684 358
688 404
694 354
698 402
704 349
708 401
714 344
718 400
724 339
728 399
733 334
738 398
742 329
748 398
751 323
758 397
760 318
768 312
768 397
776 306
778 397
784 300
788 397
793 294
798 398
802 288
808 401
811 283
816 408
821 279
826 408
831 275
836 407
841 272
846 407
851 269
856 407
861 265
866 406
871 262
876 405
881 259
886 404
891 257
896 403
901 255
906 401
911 253
916 399
921 251
926 397
931 250
936 393
941 249
945 388
951 248
954 383
961 248
964 378
971 249
973 372
981 251
982 366
990 360
991 253
998 352
1001 256
1006 344
1010 261
1014 336
1018 267
1021 327
1025 275
1027 318
1030 284
1032 307
1034 294
