56 711
57 721
59 699
60 731
65 690
70 732
75 687
80 731
85 687
90 732
95 686
100 735
105 686
110 735
115 686
120 734
125 685
130 734
135 685
140 733
145 685
150 732
155 685
160 735
165 684
170 737
175 685
180 737
185 684
189 732
195 684
199 730
205 684
209 728
215 683
219 727
225 682
229 729
235 686
239 730
245 687
249 728
255 684
259 730
265 682
269 731
275 683
279 731
285 683
289 729
295 683
299 731
305 683
309 733
315 684
319 735
325 686
329 736
335 686
339 737
345 686
349 738
355 689
359 739
365 692
369 738
375 688
379 737
385 686
389 737
395 688
399 734
405 688
407 727
415 688
416 732
425 688
426 736
435 689
435 741
445 689
445 741
455 689
455 741
465 689
465 743
475 690
475 745
485 690
485 746
495 691
495 744
505 691
505 746
515 691
515 749
525 691
525 750
535 692
535 751
545 692
545 751
555 692
555 752
565 693
565 754
575 693
575 753
585 693
585 753
595 694
595 754
605 694
605 754
615 694
615 754
625 694
625 755
635 694
635 756
645 695
645 756
655 695
655 757
665 696
665 757
675 696
675 757
685 696
685 757
695 697
695 757
705 697
705 758
715 698
715 759
725 698
725 760
735 698
735 760
745 699
745 760
755 699
755 760
765 699
765 760
775 699
775 761
785 700
785 761
795 700
795 762
805 700
805 762
815 700
815 762
825 700
825 762
835 701
835 763
845 701
845 763
855 701
855 763
865 701
865 763
875 702
875 764
885 702
885 764
895 702
895 765
905 702
905 765
915 702
915 765
925 702
925 766
935 702
935 767
945 702
945 768
955 701
955 769
965 699
965 771
975 698
975 773
985 696
985 774
995 694
995 777
1005 692
1005 780
1015 689
1015 784
1025 686
1025 786
1035 683
1035 788
1043 794
1045 679
1053 798
1055 675
1063 802
1065 670
1071 808
1075 665
1079 814
1085 660
1089 816
1095 656
1098 821
1105 651
1107 826
1114 646
1115 832
1123 641
1124 837
1132 636
1134 841
1142 631
1142 847
1151 626
1151 852
1160 857
1161 621
1170 861
1171 617
1180 865
1181 613
1190 869
1191 609
1200 872
1201 605
1210 876
1211 603
1220 879
1221 600
1230 880
1231 599
1240 882
1241 597
1250 884
1251 596
1260 885
1261 596
1270 886
1271 595
1280 888
1281 595
1290 889
1291 595
1300 890
1301 596
1310 890
1311 597
1320 889
1321 598
1330 888
1331 600
1340 886
1341 601
1350 884
1351 603
1360 883
1361 606
1370 880
1371 609
1380 614
1380 877
1389 872
1390 617
1399 622
1399 869
1408 864
1409 626
1417 859
1418 631
1426 637
1427 855
1433 645
1435 848
1439 653
1443 841
1445 661
1451 669
1452 835
1456 678
1460 828
1461 687
1465 697
1465 819
1469 707
1471 717
1471 809
1474 727
1474 737
1475 747
1475 794
1476 757
1477 767
1477 777
