193 75
193 85
194 95
194 105
195 60
197 115
199 48
199 125
202 135
204 38
205 145
209 28
209 155
213 165
217 20
218 174
223 183
225 12
228 192
233 5
233 201
238 210
243 1
244 218
250 226
253 1
256 234
261 243
263 1
268 251
273 1
274 259
281 267
283 1
288 275
293 1
296 282
303 1
304 289
311 297
313 1
319 304
323 1
327 311
333 1
333 319
342 324
343 1
350 331
353 1
358 337
363 1
366 344
372 6
374 350
382 9
382 356
390 363
392 13
398 369
401 18
406 375
411 22
414 381
420 27
423 386
430 31
431 392
439 36
440 397
447 42
448 404
456 47
457 409
465 52
466 414
474 57
476 416
482 63
485 421
490 69
493 427
499 74
502 432
507 80
512 436
515 86
522 439
523 93
531 99
531 444
539 105
540 449
547 112
550 453
555 118
560 456
562 126
570 133
570 459
578 139
580 460
585 147
589 465
593 154
598 470
600 162
608 169
608 474
614 177
618 478
622 184
628 192
628 482
634 200
638 485
641 208
647 216
648 488
654 224
658 492
660 232
666 240
668 496
672 248
678 256
678 500
684 264
688 504
689 273
694 282
698 508
700 290
705 299
708 511
710 308
715 317
716 517
721 325
726 334
726 521
731 343
736 352
736 524
741 361
745 529
746 370
751 379
754 534
757 387
763 395
763 539
768 404
771 545
773 413
779 421
780 550
785 429
788 556
791 437
797 445
797 561
803 453
805 568
810 461
813 574
817 469
821 581
825 476
829 588
831 484
837 594
839 490
846 498
846 599
853 607
854 504
861 512
862 612
869 519
869 620
877 525
877 626
885 531
885 633
893 538
893 639
901 545
901 645
909 551
909 651
917 558
917 657
925 564
926 662
933 571
934 669
940 677
941 578
948 684
949 584
956 690
957 590
964 598
964 696
972 702
973 603
980 708
981 610
988 714
989 617
996 720
997 623
1004 727
1005 630
1010 735
1013 636
1018 741
1021 643
1026 748
1029 649
1034 754
1037 655
1043 759
1045 662
1051 766
1053 668
1059 772
1061 675
1067 778
1069 681
1075 784
1077 687
1083 791
1085 694
1091 797
1093 701
1099 804
1101 707
1107 811
1109 714
1115 817
1117 720
1123 823
1125 727
1131 830
1133 733
1139 836
1141 739
1147 842
1149 745
1155 848
1157 751
1163 855
1165 758
1171 861
1173 765
1179 867
1181 772
1187 874
1189 778
1195 881
1197 784
1203 887
1205 790
1211 893
1213 797
1219 899
1221 804
1227 906
1229 810
1235 912
1237 816
1243 918
1245 822
1250 926
1253 828
1258 932
1261 835
1267 937
1269 842
1277 848
1277 941
1283 949
1285 854
1290 957
1293 860
1298 964
1301 867
1306 970
1309 873
1315 975
1317 880
1323 981
1325 886
1332 986
1333 892
1339 994
1341 899
1347 1000
1349 905
1355 1006
1357 911
1363 1012
1365 918
1371 1018
1373 924
1378 1026
1381 930
1386 1033
1389 937
1394 1039
1397 944
1401 1047
1405 950
1409 1053
1413 956
1417 1059
1421 962
1425 1065
1429 968
1434 1070
1437 975
1442 1077
1445 981
1450 1083
1453 987
1458 1090
1461 994
1466 1096
1469 1000
1474 1102
1477 1006
1482 1108
1485 1012
1490 1114
1493 1018
1498 1120
1501 1024
1505 1128
1509 1031
1513 1134
1517 1038
1521 1140
1525 1044
1529 1147
1533 1050
1537 1153
1541 1057
1545 1159
1549 1063
1553 1166
1557 1070
1561 1173
1565 1076
1569 1179
1573 1082
1577 1185
1581 1088
1585 1191
1589 1094
1593 1197
1597 1100
1601 1204
1605 1107
1609 1210
1613 1113
1617 1217
1621 1120
1625 1223
1629 1126
1634 1228
1637 1132
1641 1236
1645 1138
1649 1242
1653 1144
1657 1248
1661 1151
1665 1254
1669 1157
1673 1260
1677 1163
1682 1265
1685 1169
1690 1272
1693 1176
1698 1279
1701 1182
1706 1285
1709 1188
1714 1291
1717 1194
1721 1299
1724 1202
1730 1304
1732 1208
1738 1311
1741 1213
1746 1317
1749 1220
1754 1324
1757 1226
1762 1331
1765 1232
1770 1338
1773 1238
1778 1344
1781 1244
1785 1352
1789 1250
1793 1358
1797 1257
1801 1364
1805 1264
1810 1369
1813 1270
1819 1374
1821 1276
1827 1380
1829 1283
1837 1289
1837 1384
1845 1295
1847 1387
1853 1301
1857 1385
1861 1307
1867 1382
1869 1313
1877 1320
1877 1379
1885 1326
1885 1372
1890 1335
1891 1364
1895 1344
1895 1354
