488 243
488 253
490 263
491 273
493 234
494 283
497 223
499 292
504 215
504 301
509 310
512 206
514 319
517 329
520 198
525 336
528 190
530 345
534 355
536 184
541 363
545 178
546 372
551 381
553 172
559 387
562 167
567 394
571 162
574 402
580 157
580 410
586 418
590 152
592 426
600 147
600 433
606 441
610 143
614 448
620 139
620 456
628 463
630 135
636 469
640 132
643 477
650 128
651 483
659 489
660 125
669 493
670 123
677 500
680 119
685 506
690 118
693 512
700 116
702 517
710 114
711 522
719 528
720 113
729 530
730 113
737 536
740 113
746 541
750 112
756 544
760 113
766 547
770 115
776 551
780 116
784 557
790 119
794 560
800 122
804 563
810 126
814 567
820 129
824 569
829 134
833 574
838 139
843 576
847 144
853 580
855 150
863 156
863 583
871 162
873 585
879 169
883 589
886 177
893 593
895 182
900 191
903 594
906 199
912 599
913 207
919 215
922 602
926 223
931 232
932 606
938 240
941 611
944 248
947 258
950 616
953 266
957 276
959 621
963 284
968 293
968 626
972 303
976 633
977 312
980 322
983 332
984 639
987 342
989 352
992 362
992 646
994 372
997 382
999 392
1000 402
1000 653
1001 412
1002 422
1004 432
1005 442
1007 661
1008 452
1008 462
1008 472
1011 482
1012 499
1013 509
1016 519
1016 666
1018 529
1022 539
1024 673
1025 549
1030 558
1030 681
1035 567
1037 689
1041 575
1045 695
1046 584
1050 704
1052 592
1056 712
1060 599
1065 717
1066 607
1070 726
1072 615
1076 625
1078 733
1083 742
1084 631
1090 750
1091 639
1097 647
1098 756
1104 655
1105 764
1110 663
1110 773
1116 671
1117 781
1123 789
1124 678
1129 687
1132 794
1135 695
1138 802
1143 701
1144 810
1149 709
1150 818
1155 717
1157 826
1161 725
1165 832
1168 733
1171 840
1176 740
1177 848
1183 748
1183 856
1189 756
1191 863
1197 762
1198 871
1202 771
1204 879
1211 776
1212 886
1216 785
1218 894
1221 794
1227 899
1229 800
1235 906
1236 808
1238 916
1244 814
1246 922
1251 822
1254 928
1257 830
1260 936
1265 837
1268 943
1273 844
1273 952
1279 852
1282 957
1287 858
1288 965
1293 866
1298 968
1301 873
1301 978
1309 880
1310 983
1315 888
1315 992
1322 896
1324 997
1330 902
1330 1005
1336 910
1336 1013
1340 1023
1344 917
1348 1029
1350 925
1358 931
1358 1027
1360 1037
1364 939
1365 1046
1371 1054
1372 945
1377 1062
1378 953
1385 961
1385 1068
1393 968
1393 1075
1400 976
1401 1082
1408 982
1410 1087
1412 1097
1415 990
1421 1102
1422 998
1426 1111
1429 1006
1432 1119
1437 1012
1440 1126
1443 1020
1443 1111
1447 1134
1449 1028
1453 1142
1455 1036
1461 1149
1462 1044
1470 1050
1470 1154
1475 1059
1477 1162
1482 1171
1484 1064
1488 1179
1490 1072
1497 1184
1498 1078
1502 1088
1505 1190
1506 1200
1511 1093
1516 1204
1517 1101
1524 1210
1526 1106
1529 1219
1531 1115
1535 1227
1539 1122
1543 1234
1545 1130
1553 1136
1553 1238
1559 1144
1559 1246
1563 1236
1567 1151
1567 1252
1573 1159
1575 1258
1581 1165
1583 1264
1585 1274
1589 1171
1595 1179
1595 1276
1600 1285
1601 1187
1606 1293
1607 1195
1615 1298
1616 1200
1620 1307
1623 1208
1628 1313
1631 1214
1638 1312
1639 1220
1639 1322
1647 1226
1647 1329
1652 1235
1653 1337
1660 1242
1661 1343
1668 1249
1671 1346
1676 1255
1677 1354
1684 1262
1686 1359
1688 1369
1689 1271
1697 1278
1698 1373
1703 1286
1706 1379
1713 1290
1716 1383
1718 1393
1721 1297
1724 1401
1727 1305
1733 1313
1733 1406
1741 1319
1743 1409
1748 1418
1749 1325
1755 1333
1756 1424
1762 1432
1763 1339
1769 1440
1771 1345
1777 1446
1778 1353
1782 1455
1786 1359
1791 1450
1792 1367
1796 1465
1800 1373
1806 1468
1808 1380
1810 1478
1815 1388
1816 1486
1823 1394
1825 1464
1825 1491
1831 1400
1834 1496
1838 1408
1842 1502
1846 1414
1850 1508
1854 1420
1855 1517
1860 1428
1865 1516
1868 1435
1875 1514
1876 1442
1883 1508
1884 1453
1891 1500
1894 1453
1899 1491
1902 1460
1905 1470
1905 1480
