251 166
251 176
252 144
252 154
252 186
252 196
253 207
256 133
256 217
258 227
259 122
262 112
262 237
265 247
267 101
267 257
272 266
273 91
277 275
279 82
282 284
285 74
286 294
290 65
291 303
296 312
298 57
301 321
307 51
307 329
313 337
315 45
318 346
324 354
325 40
330 362
335 37
336 370
344 32
344 377
349 386
354 30
357 392
364 30
364 400
372 406
374 28
378 414
384 28
386 421
393 429
394 29
401 435
404 30
409 442
414 30
417 448
424 32
424 456
433 461
434 34
441 468
444 37
449 474
454 39
457 480
464 42
466 485
473 47
475 490
483 50
484 495
493 54
494 499
502 59
503 504
512 62
513 507
520 68
523 511
530 72
533 514
539 77
543 518
547 84
553 520
556 89
563 523
565 94
573 100
573 526
581 107
583 529
589 113
593 531
599 117
603 534
605 125
613 131
613 536
619 139
623 538
628 144
633 541
636 150
642 158
643 544
648 166
653 545
658 170
663 179
663 548
669 187
673 551
675 195
681 203
683 555
687 211
693 557
694 219
701 227
703 561
705 237
711 245
712 566
713 255
721 261
722 569
725 271
727 281
731 574
735 287
737 297
739 307
741 578
744 316
746 326
749 336
749 584
753 346
758 355
759 587
761 365
763 375
764 385
767 404
767 594
771 414
771 424
773 434
774 444
776 599
780 452
783 462
784 605
786 472
787 482
789 614
793 490
797 620
801 497
805 507
807 623
810 633
811 515
815 525
819 638
823 531
826 646
831 538
834 653
836 547
840 661
844 553
848 668
850 561
855 676
857 569
863 682
865 575
869 690
873 582
877 697
880 590
886 702
887 598
895 605
895 707
901 715
902 613
909 721
910 620
915 729
917 628
921 737
926 633
929 743
934 639
937 749
940 647
946 754
948 653
953 762
956 659
962 667
962 767
963 777
971 783
972 671
977 680
981 786
983 688
987 794
992 693
993 802
1000 700
1003 805
1006 708
1007 815
1014 714
1015 822
1022 720
1023 828
1029 728
1029 836
1034 845
1037 735
1042 744
1044 846
1047 856
1052 748
1055 758
1055 862
1065 760
1065 864
1069 874
1073 767
1075 882
1080 775
1085 885
1086 783
1091 893
1094 789
1097 799
1098 901
1105 805
1107 906
1115 807
1115 913
1118 817
1123 919
1128 820
1131 925
1135 935
1136 827
1144 834
1144 940
1152 840
1153 945
1158 848
1163 948
1166 854
1169 956
1173 966
1174 860
1182 866
1183 970
1188 874
1191 979
1196 880
1197 987
1205 885
1207 990
1212 893
1215 996
1217 902
1223 1002
1226 907
1226 1012
1234 913
1235 1017
1241 921
1243 1023
1251 924
1251 1029
1258 932
1259 1035
1267 937
1269 1036
1274 945
1274 1045
1281 1053
1282 951
1287 960
1289 1059
1294 1068
1297 963
1301 973
1304 1071
1311 977
1312 1077
1317 985
1319 995
1322 1080
1329 995
1330 1086
1336 1094
1338 1000
1343 1009
1344 1100
1353 1006
1354 1101
1359 1110
1360 1014
1365 1023
1365 1102
1367 1116
1375 1026
1376 1121
1383 1032
1386 1124
1393 1033
1395 1129
1397 1043
1401 1137
1404 1051
1408 1145
1414 1054
1418 1148
1419 1063
1428 1151
1429 1066
1436 1157
1439 1070
1444 1166
1449 1072
1452 1173
1454 1081
1461 1178
1464 1084
1467 1186
1471 1092
1475 1192
1480 1097
1484 1197
1488 1103
1494 1201
1497 1108
1502 1117
1504 1201
1510 1123
1510 1209
1519 1128
1520 1212
1525 1221
1529 1129
1531 1229
1538 1134
1541 1232
1544 1142
1551 1235
1554 1146
1561 1236
1563 1246
1564 1150
1571 1237
1572 1251
1573 1155
1578 1164
1581 1256
1588 1168
1591 1259
1595 1176
1601 1262
1605 1178
1610 1267
1611 1277
1614 1183
1619 1283
1622 1190
1629 1285
1630 1197
1637 1291
1640 1198
1643 1208
1646 1296
1653 1211
1654 1302
1662 1308
1663 1214
1671 1221
1672 1311
1678 1229
1680 1318
1687 1234
1688 1324
1696 1330
1697 1236
1706 1332
1707 1240
1714 1339
1715 1246
1724 1251
1724 1342
1732 1258
1734 1346
1741 1354
1742 1262
1750 1268
1751 1355
1756 1364
1758 1274
1766 1280
1766 1368
1774 1286
1775 1373
1783 1291
1783 1380
1793 1293
1793 1384
1802 1389
1803 1296
1811 1302
1812 1393
1818 1310
1822 1397
1828 1312
1830 1403
1838 1314
1838 1409
1843 1323
1846 1416
1849 1337
1853 1327
1856 1418
1859 1335
1864 1425
1869 1335
1871 1433
1877 1341
1881 1437
1882 1350
1890 1442
1892 1353
1898 1449
1902 1357
1908 1449
1912 1360
1916 1455
1920 1367
1926 1459
1930 1371
1931 1468
1936 1379
1941 1471
1946 1383
1951 1473
1955 1388
1959 1479
1965 1389
1967 1485
1972 1397
1976 1490
1982 1399
1986 1494
1992 1403
1996 1494
2000 1409
2006 1490
2008 1416
2015 1480
2017 1421
2025 1427
2025 1470
2028 1437
2029 1447
2031 1457
