383.785706 208.436508
400.500000 182.566666
416.000000 172.656250
432.000000 173.406250
448.000000 179.437500
464.000000 189.468750
479.500000 203.566666
492.500000 219.181824
502.000000 235.125000
508.500000 251.600006
512.000000 272.833344
507.000000 294.250000
494.000000 305.156250
478.000000 306.968750
462.000000 304.815948
446.000000 300.133942
414.777771 293.009247
398.000000 291.656250
398.000000 291.656250
382.000000 294.531250
371.500000 316.791656
381.000000 336.211121
406.000000 350.245544
422.500000 357.959808
454.000000 369.625000
470.000000 378.937500
482.500000 390.888885
489.000000 406.375000
488.500000 421.833344
484.500000 435.200012
477.500000 449.944427
466.500000 465.115387
452.000000 478.656250
436.000000 487.812500
420.000000 491.281250
404.000000 487.687500
390.000000 475.375000
380.500000 458.928558
374.000000 441.833344
368.500000 424.100006
361.142853 399.142853
357.500000 383.066681
345.500000 356.111115
333.000000 340.718750
317.000000 333.875000
301.000000 339.312500
285.071442 372.892853
279.666656 405.416656
274.000000 424.000000
263.500000 440.799988
248.000000 446.718750
232.000000 444.406250
216.000000 437.375000
200.000000 425.843750
185.500000 410.961548
174.000000 395.200012
165.500000 379.285706
159.000000 361.833344
156.214294 338.214294
166.000000 312.937500
182.000000 305.718750
196.421051 303.076935
214.000000 301.468750
240.636353 298.522736
257.500000 284.214294
257.500000 270.487183
257.500000 270.487183
248.500000 257.000000
234.309525 246.602951
217.000000 235.397324
202.666672 231.142853
187.000000 217.902786
178.000000 198.399994
184.000000 172.437500
194.500000 156.500000
209.000000 141.812500
225.000000 130.375000
241.000000 122.250000
257.000000 116.968750
273.000000 114.656250
289.000000 115.937500
305.000000 123.218750
315.500000 141.500000
317.750000 162.250000
321.676483 185.705887
311.625000 206.663193
312.000000 234.500000
316.500000 254.666672
329.000000 267.281250
345.000000 266.968750
358.500000 255.090912
368.500000 238.666672
375.642853 223.642853
383.785706 208.436508
379.727264 193.000000
369.500000 176.000000
354.000000 169.375000
338.000000 174.281250
321.676483 185.705887
311.625000 206.663193
297.000000 217.906250
281.000000 230.218750
265.000000 234.843750
249.000000 235.406250
217.000000 235.397324
190.000000 236.702377
179.227264 260.000000
189.000000 282.357147
214.000000 301.468750
231.026321 311.309265
252.000000 324.218750
266.000000 338.458344
276.000000 355.125000
285.071442 372.892853
292.399994 389.133331
303.000000 406.916656
317.000000 419.250000
333.000000 421.625000
345.500000 411.722229
357.500000 383.066681
364.727264 369.166656
374.000000 359.531250
388.500000 352.821442
406.000000 350.245544
433.172424 348.050262
452.000000 339.625000
460.000000 325.125000
446.000000 300.133942
430.500000 287.611603
412.000000 275.147919
399.000000 261.100006
391.500000 243.699997
383.785706 208.436508
