83.500000 400.708344
93.000000 440.785706
108.000000 462.093750
124.000000 477.468750
140.000000 489.218750
156.000000 498.781250
172.000000 506.687500
188.000000 513.281250
204.000000 518.812500
220.000000 523.468750
236.000000 527.156250
252.000000 530.062500
268.000000 532.218750
284.000000 533.562500
300.000000 534.343750
316.000000 533.906250
332.000000 532.843750
348.000000 530.718750
364.000000 527.500000
380.000000 523.000000
396.000000 516.750000
412.000000 508.343750
428.000000 496.500000
443.566681 477.799988
450.500000 463.000000
450.500000 440.928558
443.399994 416.649200
432.782990 397.458466
415.500000 376.755554
400.000000 356.843750
384.000000 339.593750
368.000000 323.000000
353.706879 308.442291
336.000000 291.487854
316.700012 271.500000
304.000000 256.375000
288.000000 237.000000
272.966248 216.095001
264.000000 196.609146
262.935852 166.016724
284.000000 140.031250
300.000000 131.593750
316.000000 127.437500
332.000000 126.500000
348.000000 127.656250
380.000000 135.299088
399.548096 143.428574
428.441193 159.838684
457.000000 180.281250
473.000000 194.531250
489.000000 211.562500
505.285706 235.312988
514.022888 245.088425
526.500000 282.799988
528.000000 310.125000
520.500000 333.545441
507.000000 354.031250
491.000000 369.218750
475.000000 380.125000
459.000000 388.687500
432.782990 397.458466
411.000000 405.437500
395.000000 408.750000
379.000000 411.187500
363.000000 412.750000
347.000000 413.500000
331.000000 413.156250
315.000000 411.812500
299.000000 409.281250
283.000000 405.250000
267.000000 398.906250
251.000000 389.656250
235.000000 377.593750
219.000000 361.968750
202.840805 341.922150
191.000000 318.759491
188.500000 279.857147
200.000000 252.906250
216.000000 232.968750
232.000000 217.937500
248.000000 205.593750
264.000000 196.609146
296.000000 177.625000
312.000000 170.375000
328.000000 163.937500
344.000000 158.343750
359.374084 153.898163
372.875580 149.758560
399.548096 143.428574
420.616791 140.582733
442.820709 141.743195
460.000000 142.000000
476.000000 144.656250
492.000000 149.593750
508.000000 158.406250
523.500000 175.166672
531.500000 193.000000
532.071411 214.142853
514.022888 245.088425
496.382355 252.856857
480.000000 261.625000
464.000000 267.156250
448.000000 271.718750
432.000000 275.625000
416.000000 279.000000
400.000000 282.062500
384.000000 284.812500
368.000000 287.437500
336.000000 291.487854
318.270905 294.971771
303.000000 297.062500
287.000000 299.437500
271.000000 301.843750
255.000000 304.437500
239.000000 307.281250
223.000000 310.187500
191.000000 318.759491
175.000000 321.437500
159.000000 326.343750
143.000000 332.312500
127.000000 339.625000
111.000000 349.375000
95.000000 364.281250
83.500000 400.708344
