<?xml version="1.0" encoding="UTF-8" standalone="no"?>
<!-- Created with CurveBenchmark -->
<svg
	xmlns:dc="http://purl.org/dc/elements/1.1/"
	xmlns:cc="http://creativecommons.org/ns#"
	xmlns:rdf="http://www.w3.org/1999/02/22-rdf-syntax-ns#"
	xmlns:svg="http://www.w3.org/2000/svg"
	xmlns="http://www.w3.org/2000/svg"
	xmlns:sodipodi="http://sodipodi.sourceforge.net/DTD/sodipodi-0.dtd"
	xmlns:inkscape="http://www.inkscape.org/namespaces/inkscape"
	width="1000"
	height="1000"
	id="svg2"
	version="1.1"
	sodipodi:docname="noisy-0/discur-mc19.txt">
<defs
	id="defs4" />
<metadata
	id="metadata7">
	<rdf:RDF>
		<cc:Work
			rdf:about="">
			<dc:format>image/svg+xml</dc:format>
			<dc:type
				rdf:resource="http://purl.org/dc/dcmitype/StillImage" />
			<dc:title></dc:title>
		</cc:Work>
	</rdf:RDF>
</metadata>
<g
	inkscape:label="Layer 1"
	inkscape:groupmode="layer"
	id="layer1">
	<path style="fill:none;stroke:red;stroke-width:1px;stroke-linecap:butt;stroke-linejoin:miter;stroke-opacity:1" d="M 4,668.457 63.9817,731.075 z" id="boundary" inkscape:connector-curvature="0" />
	<path style="fill:none;stroke:red;stroke-width:1px;stroke-linecap:butt;stroke-linejoin:miter;stroke-opacity:1" d="M 4,668.457 88.2986,560.522 z" id="boundary" inkscape:connector-curvature="0" />
	<path style="fill:none;stroke:red;stroke-width:1px;stroke-linecap:butt;stroke-linejoin:miter;stroke-opacity:1" d="M 63.9817,731.075 168.274,776.337 z" id="boundary" inkscape:connector-curvature="0" />
	<path style="fill:none;stroke:red;stroke-width:1px;stroke-linecap:butt;stroke-linejoin:miter;stroke-opacity:1" d="M 88.2986,560.522 230.417,446.071 z" id="boundary" inkscape:connector-curvature="0" />
	<path style="fill:none;stroke:red;stroke-width:1px;stroke-linecap:butt;stroke-linejoin:miter;stroke-opacity:1" d="M 168.274,776.337 281.753,794.17 z" id="boundary" inkscape:connector-curvature="0" />
	<path style="fill:none;stroke:red;stroke-width:1px;stroke-linecap:butt;stroke-linejoin:miter;stroke-opacity:1" d="M 230.417,446.071 347.679,416.717 z" id="boundary" inkscape:connector-curvature="0" />
	<path style="fill:none;stroke:red;stroke-width:1px;stroke-linecap:butt;stroke-linejoin:miter;stroke-opacity:1" d="M 236.902,989.062 248.25,975.93 z" id="boundary" inkscape:connector-curvature="0" />
	<path style="fill:none;stroke:red;stroke-width:1px;stroke-linecap:butt;stroke-linejoin:miter;stroke-opacity:1" d="M 236.902,989.062 254.734,996 z" id="boundary" inkscape:connector-curvature="0" />
	<path style="fill:none;stroke:red;stroke-width:1px;stroke-linecap:butt;stroke-linejoin:miter;stroke-opacity:1" d="M 248.25,975.93 265.542,968.906 z" id="boundary" inkscape:connector-curvature="0" />
	<path style="fill:none;stroke:red;stroke-width:1px;stroke-linecap:butt;stroke-linejoin:miter;stroke-opacity:1" d="M 254.734,996 276.89,986.987 z" id="boundary" inkscape:connector-curvature="0" />
	<path style="fill:none;stroke:red;stroke-width:1px;stroke-linecap:butt;stroke-linejoin:miter;stroke-opacity:1" d="M 265.542,968.906 286.076,964.723 z" id="boundary" inkscape:connector-curvature="0" />
	<path style="fill:none;stroke:red;stroke-width:1px;stroke-linecap:butt;stroke-linejoin:miter;stroke-opacity:1" d="M 276.89,986.987 299.045,982.826 z" id="boundary" inkscape:connector-curvature="0" />
	<path style="fill:none;stroke:red;stroke-width:1px;stroke-linecap:butt;stroke-linejoin:miter;stroke-opacity:1" d="M 281.753,794.17 316.878,794.299 z" id="boundary" inkscape:connector-curvature="0" />
	<path style="fill:none;stroke:red;stroke-width:1px;stroke-linecap:butt;stroke-linejoin:miter;stroke-opacity:1" d="M 286.076,964.723 299.045,982.826 z" id="boundary" inkscape:connector-curvature="0" />
	<path style="fill:none;stroke:red;stroke-width:1px;stroke-linecap:butt;stroke-linejoin:miter;stroke-opacity:1" d="M 308.231,959.881 319.039,942.362 z" id="boundary" inkscape:connector-curvature="0" />
	<path style="fill:none;stroke:red;stroke-width:1px;stroke-linecap:butt;stroke-linejoin:miter;stroke-opacity:1" d="M 308.231,959.881 326.064,980.189 z" id="boundary" inkscape:connector-curvature="0" />
	<path style="fill:none;stroke:red;stroke-width:1px;stroke-linecap:butt;stroke-linejoin:miter;stroke-opacity:1" d="M 316.878,794.299 349.84,789.501 z" id="boundary" inkscape:connector-curvature="0" />
	<path style="fill:none;stroke:red;stroke-width:1px;stroke-linecap:butt;stroke-linejoin:miter;stroke-opacity:1" d="M 319.039,942.362 323.902,908.459 z" id="boundary" inkscape:connector-curvature="0" />
	<path style="fill:none;stroke:red;stroke-width:1px;stroke-linecap:butt;stroke-linejoin:miter;stroke-opacity:1" d="M 323.902,850.099 326.064,888.325 z" id="boundary" inkscape:connector-curvature="0" />
	<path style="fill:none;stroke:red;stroke-width:1px;stroke-linecap:butt;stroke-linejoin:miter;stroke-opacity:1" d="M 323.902,850.099 343.356,843.538 z" id="boundary" inkscape:connector-curvature="0" />
	<path style="fill:none;stroke:red;stroke-width:1px;stroke-linecap:butt;stroke-linejoin:miter;stroke-opacity:1" d="M 323.902,908.459 326.064,888.325 z" id="boundary" inkscape:connector-curvature="0" />
	<path style="fill:none;stroke:red;stroke-width:1px;stroke-linecap:butt;stroke-linejoin:miter;stroke-opacity:1" d="M 326.064,980.189 347.679,984.987 z" id="boundary" inkscape:connector-curvature="0" />
	<path style="fill:none;stroke:red;stroke-width:1px;stroke-linecap:butt;stroke-linejoin:miter;stroke-opacity:1" d="M 343.356,843.538 361.729,856.918 z" id="boundary" inkscape:connector-curvature="0" />
	<path style="fill:none;stroke:red;stroke-width:1px;stroke-linecap:butt;stroke-linejoin:miter;stroke-opacity:1" d="M 345.517,951.008 349.84,930.95 z" id="boundary" inkscape:connector-curvature="0" />
	<path style="fill:none;stroke:red;stroke-width:1px;stroke-linecap:butt;stroke-linejoin:miter;stroke-opacity:1" d="M 345.517,951.008 349.84,964.583 z" id="boundary" inkscape:connector-curvature="0" />
	<path style="fill:none;stroke:red;stroke-width:1px;stroke-linecap:butt;stroke-linejoin:miter;stroke-opacity:1" d="M 347.679,416.717 463.319,428.4 z" id="boundary" inkscape:connector-curvature="0" />
	<path style="fill:none;stroke:red;stroke-width:1px;stroke-linecap:butt;stroke-linejoin:miter;stroke-opacity:1" d="M 347.679,984.987 370.375,991.407 z" id="boundary" inkscape:connector-curvature="0" />
	<path style="fill:none;stroke:red;stroke-width:1px;stroke-linecap:butt;stroke-linejoin:miter;stroke-opacity:1" d="M 349.84,789.501 432.518,776.078 z" id="boundary" inkscape:connector-curvature="0" />
	<path style="fill:none;stroke:red;stroke-width:1px;stroke-linecap:butt;stroke-linejoin:miter;stroke-opacity:1" d="M 349.84,930.95 352.542,906.384 z" id="boundary" inkscape:connector-curvature="0" />
	<path style="fill:none;stroke:red;stroke-width:1px;stroke-linecap:butt;stroke-linejoin:miter;stroke-opacity:1" d="M 349.84,964.583 368.213,969.046 z" id="boundary" inkscape:connector-curvature="0" />
	<path style="fill:none;stroke:red;stroke-width:1px;stroke-linecap:butt;stroke-linejoin:miter;stroke-opacity:1" d="M 352.542,906.384 361.729,881.44 z" id="boundary" inkscape:connector-curvature="0" />
	<path style="fill:none;stroke:red;stroke-width:1px;stroke-linecap:butt;stroke-linejoin:miter;stroke-opacity:1" d="M 361.729,856.918 361.729,881.44 z" id="boundary" inkscape:connector-curvature="0" />
	<path style="fill:none;stroke:red;stroke-width:1px;stroke-linecap:butt;stroke-linejoin:miter;stroke-opacity:1" d="M 368.213,969.046 388.207,973.704 z" id="boundary" inkscape:connector-curvature="0" />
	<path style="fill:none;stroke:red;stroke-width:1px;stroke-linecap:butt;stroke-linejoin:miter;stroke-opacity:1" d="M 370.375,991.407 392.53,994.011 z" id="boundary" inkscape:connector-curvature="0" />
	<path style="fill:none;stroke:red;stroke-width:1px;stroke-linecap:butt;stroke-linejoin:miter;stroke-opacity:1" d="M 388.207,973.704 392.53,994.011 z" id="boundary" inkscape:connector-curvature="0" />
	<path style="fill:none;stroke:red;stroke-width:1px;stroke-linecap:butt;stroke-linejoin:miter;stroke-opacity:1" d="M 432.518,776.078 579.5,749.059 z" id="boundary" inkscape:connector-curvature="0" />
	<path style="fill:none;stroke:red;stroke-width:1px;stroke-linecap:butt;stroke-linejoin:miter;stroke-opacity:1" d="M 463.319,428.4 568.152,425.828 z" id="boundary" inkscape:connector-curvature="0" />
	<path style="fill:none;stroke:red;stroke-width:1px;stroke-linecap:butt;stroke-linejoin:miter;stroke-opacity:1" d="M 470.344,98.2199 479.531,75.6646 z" id="boundary" inkscape:connector-curvature="0" />
	<path style="fill:none;stroke:red;stroke-width:1px;stroke-linecap:butt;stroke-linejoin:miter;stroke-opacity:1" d="M 479.531,75.6646 498.984,93.9077 z" id="boundary" inkscape:connector-curvature="0" />
	<path style="fill:none;stroke:red;stroke-width:1px;stroke-linecap:butt;stroke-linejoin:miter;stroke-opacity:1" d="M 498.984,93.9077 526.003,93.7024 z" id="boundary" inkscape:connector-curvature="0" />
	<path style="fill:none;stroke:red;stroke-width:1px;stroke-linecap:butt;stroke-linejoin:miter;stroke-opacity:1" d="M 503.307,57.7674 557.345,33.3856 z" id="boundary" inkscape:connector-curvature="0" />
	<path style="fill:none;stroke:red;stroke-width:1px;stroke-linecap:butt;stroke-linejoin:miter;stroke-opacity:1" d="M 526.003,93.7024 550.86,98.2307 z" id="boundary" inkscape:connector-curvature="0" />
	<path style="fill:none;stroke:red;stroke-width:1px;stroke-linecap:butt;stroke-linejoin:miter;stroke-opacity:1" d="M 550.86,98.2307 595.171,100.392 z" id="boundary" inkscape:connector-curvature="0" />
	<path style="fill:none;stroke:red;stroke-width:1px;stroke-linecap:butt;stroke-linejoin:miter;stroke-opacity:1" d="M 557.345,33.3856 583.823,12.9919 z" id="boundary" inkscape:connector-curvature="0" />
	<path style="fill:none;stroke:red;stroke-width:1px;stroke-linecap:butt;stroke-linejoin:miter;stroke-opacity:1" d="M 568.152,425.828 668.122,309.269 z" id="boundary" inkscape:connector-curvature="0" />
	<path style="fill:none;stroke:red;stroke-width:1px;stroke-linecap:butt;stroke-linejoin:miter;stroke-opacity:1" d="M 579.5,749.059 670.283,708.844 z" id="boundary" inkscape:connector-curvature="0" />
	<path style="fill:none;stroke:red;stroke-width:1px;stroke-linecap:butt;stroke-linejoin:miter;stroke-opacity:1" d="M 583.823,12.9919 608.14,6.1615 z" id="boundary" inkscape:connector-curvature="0" />
	<path style="fill:none;stroke:red;stroke-width:1px;stroke-linecap:butt;stroke-linejoin:miter;stroke-opacity:1" d="M 595.171,100.392 632.997,78.0315 z" id="boundary" inkscape:connector-curvature="0" />
	<path style="fill:none;stroke:red;stroke-width:1px;stroke-linecap:butt;stroke-linejoin:miter;stroke-opacity:1" d="M 608.14,6.1615 630.836,4 z" id="boundary" inkscape:connector-curvature="0" />
	<path style="fill:none;stroke:red;stroke-width:1px;stroke-linecap:butt;stroke-linejoin:miter;stroke-opacity:1" d="M 630.836,4 701.085,8.25816 z" id="boundary" inkscape:connector-curvature="0" />
	<path style="fill:none;stroke:red;stroke-width:1px;stroke-linecap:butt;stroke-linejoin:miter;stroke-opacity:1" d="M 632.997,78.0315 683.793,75.9348 z" id="boundary" inkscape:connector-curvature="0" />
	<path style="fill:none;stroke:red;stroke-width:1px;stroke-linecap:butt;stroke-linejoin:miter;stroke-opacity:1" d="M 668.122,309.269 708.109,239.874 z" id="boundary" inkscape:connector-curvature="0" />
	<path style="fill:none;stroke:red;stroke-width:1px;stroke-linecap:butt;stroke-linejoin:miter;stroke-opacity:1" d="M 670.283,708.844 736.749,616.721 z" id="boundary" inkscape:connector-curvature="0" />
	<path style="fill:none;stroke:red;stroke-width:1px;stroke-linecap:butt;stroke-linejoin:miter;stroke-opacity:1" d="M 683.793,75.9348 701.085,89.1092 z" id="boundary" inkscape:connector-curvature="0" />
	<path style="fill:none;stroke:red;stroke-width:1px;stroke-linecap:butt;stroke-linejoin:miter;stroke-opacity:1" d="M 701.085,8.25816 728.103,19.6709 z" id="boundary" inkscape:connector-curvature="0" />
	<path style="fill:none;stroke:red;stroke-width:1px;stroke-linecap:butt;stroke-linejoin:miter;stroke-opacity:1" d="M 701.085,89.1092 730.265,156.526 z" id="boundary" inkscape:connector-curvature="0" />
	<path style="fill:none;stroke:red;stroke-width:1px;stroke-linecap:butt;stroke-linejoin:miter;stroke-opacity:1" d="M 708.109,239.874 730.265,156.526 z" id="boundary" inkscape:connector-curvature="0" />
	<path style="fill:none;stroke:red;stroke-width:1px;stroke-linecap:butt;stroke-linejoin:miter;stroke-opacity:1" d="M 728.103,19.6709 788.085,79.9984 z" id="boundary" inkscape:connector-curvature="0" />
	<path style="fill:none;stroke:red;stroke-width:1px;stroke-linecap:butt;stroke-linejoin:miter;stroke-opacity:1" d="M 736.749,616.721 759.445,551.606 z" id="boundary" inkscape:connector-curvature="0" />
	<path style="fill:none;stroke:red;stroke-width:1px;stroke-linecap:butt;stroke-linejoin:miter;stroke-opacity:1" d="M 759.445,551.606 772.414,502.162 z" id="boundary" inkscape:connector-curvature="0" />
	<path style="fill:none;stroke:red;stroke-width:1px;stroke-linecap:butt;stroke-linejoin:miter;stroke-opacity:1" d="M 772.414,502.162 781.06,434.885 z" id="boundary" inkscape:connector-curvature="0" />
	<path style="fill:none;stroke:red;stroke-width:1px;stroke-linecap:butt;stroke-linejoin:miter;stroke-opacity:1" d="M 781.06,434.885 783.762,371.953 z" id="boundary" inkscape:connector-curvature="0" />
	<path style="fill:none;stroke:red;stroke-width:1px;stroke-linecap:butt;stroke-linejoin:miter;stroke-opacity:1" d="M 783.762,371.953 795.11,311.614 z" id="boundary" inkscape:connector-curvature="0" />
	<path style="fill:none;stroke:red;stroke-width:1px;stroke-linecap:butt;stroke-linejoin:miter;stroke-opacity:1" d="M 788.085,79.9984 795.11,105.115 z" id="boundary" inkscape:connector-curvature="0" />
	<path style="fill:none;stroke:red;stroke-width:1px;stroke-linecap:butt;stroke-linejoin:miter;stroke-opacity:1" d="M 795.11,105.115 808.079,181.449 z" id="boundary" inkscape:connector-curvature="0" />
	<path style="fill:none;stroke:red;stroke-width:1px;stroke-linecap:butt;stroke-linejoin:miter;stroke-opacity:1" d="M 795.11,311.614 805.917,255.415 z" id="boundary" inkscape:connector-curvature="0" />
	<path style="fill:none;stroke:red;stroke-width:1px;stroke-linecap:butt;stroke-linejoin:miter;stroke-opacity:1" d="M 805.917,255.415 810.24,210.629 z" id="boundary" inkscape:connector-curvature="0" />
	<path style="fill:none;stroke:red;stroke-width:1px;stroke-linecap:butt;stroke-linejoin:miter;stroke-opacity:1" d="M 808.079,181.449 810.24,210.629 z" id="boundary" inkscape:connector-curvature="0" />
	<path style="fill:none;stroke:red;stroke-width:1px;stroke-linecap:butt;stroke-linejoin:miter;stroke-opacity:1" d="M 590.264,45.7386 597.754,53.2174 z" id="boundary" inkscape:connector-curvature="0" />
	<path style="fill:none;stroke:red;stroke-width:1px;stroke-linecap:butt;stroke-linejoin:miter;stroke-opacity:1" d="M 590.264,45.7386 599.408,34.0881 z" id="boundary" inkscape:connector-curvature="0" />
	<path style="fill:none;stroke:red;stroke-width:1px;stroke-linecap:butt;stroke-linejoin:miter;stroke-opacity:1" d="M 597.754,53.2174 608.561,48.2352 z" id="boundary" inkscape:connector-curvature="0" />
	<path style="fill:none;stroke:red;stroke-width:1px;stroke-linecap:butt;stroke-linejoin:miter;stroke-opacity:1" d="M 608.561,48.2352 610.226,34.9203 z" id="boundary" inkscape:connector-curvature="0" />
	<path style="fill:none;stroke:red;stroke-width:1px;stroke-linecap:butt;stroke-linejoin:miter;stroke-opacity:1" d="M 610.226,34.9203 599.408,34.0881 z" id="boundary" inkscape:connector-curvature="0" />
	<circle cx="4" cy="668.457" r="4" fill="#0" id="circle0"/>
	<circle cx="63.9817" cy="731.075" r="4" fill="#0" id="circle1"/>
	<circle cx="88.2986" cy="560.522" r="4" fill="#0" id="circle2"/>
	<circle cx="168.274" cy="776.337" r="4" fill="#0" id="circle3"/>
	<circle cx="230.417" cy="446.071" r="4" fill="#0" id="circle4"/>
	<circle cx="236.902" cy="989.062" r="4" fill="#0" id="circle5"/>
	<circle cx="248.25" cy="975.93" r="4" fill="#0" id="circle6"/>
	<circle cx="254.734" cy="996" r="4" fill="#0" id="circle7"/>
	<circle cx="265.542" cy="968.906" r="4" fill="#0" id="circle8"/>
	<circle cx="276.89" cy="986.987" r="4" fill="#0" id="circle9"/>
	<circle cx="281.753" cy="794.17" r="4" fill="#0" id="circle10"/>
	<circle cx="286.076" cy="964.723" r="4" fill="#0" id="circle11"/>
	<circle cx="299.045" cy="982.826" r="4" fill="#0" id="circle12"/>
	<circle cx="308.231" cy="959.881" r="4" fill="#0" id="circle13"/>
	<circle cx="316.878" cy="794.299" r="4" fill="#0" id="circle14"/>
	<circle cx="319.039" cy="942.362" r="4" fill="#0" id="circle15"/>
	<circle cx="323.902" cy="850.099" r="4" fill="#0" id="circle16"/>
	<circle cx="323.902" cy="908.459" r="4" fill="#0" id="circle17"/>
	<circle cx="326.064" cy="888.325" r="4" fill="#0" id="circle18"/>
	<circle cx="326.064" cy="980.189" r="4" fill="#0" id="circle19"/>
	<circle cx="343.356" cy="843.538" r="4" fill="#0" id="circle20"/>
	<circle cx="345.517" cy="951.008" r="4" fill="#0" id="circle21"/>
	<circle cx="347.679" cy="416.717" r="4" fill="#0" id="circle22"/>
	<circle cx="347.679" cy="984.987" r="4" fill="#0" id="circle23"/>
	<circle cx="349.84" cy="789.501" r="4" fill="#0" id="circle24"/>
	<circle cx="349.84" cy="930.95" r="4" fill="#0" id="circle25"/>
	<circle cx="349.84" cy="964.583" r="4" fill="#0" id="circle26"/>
	<circle cx="352.542" cy="906.384" r="4" fill="#0" id="circle27"/>
	<circle cx="361.729" cy="856.918" r="4" fill="#0" id="circle28"/>
	<circle cx="361.729" cy="881.44" r="4" fill="#0" id="circle29"/>
	<circle cx="368.213" cy="969.046" r="4" fill="#0" id="circle30"/>
	<circle cx="370.375" cy="991.407" r="4" fill="#0" id="circle31"/>
	<circle cx="388.207" cy="973.704" r="4" fill="#0" id="circle32"/>
	<circle cx="392.53" cy="994.011" r="4" fill="#0" id="circle33"/>
	<circle cx="432.518" cy="776.078" r="4" fill="#0" id="circle34"/>
	<circle cx="463.319" cy="428.4" r="4" fill="#0" id="circle35"/>
	<circle cx="470.344" cy="98.2199" r="4" fill="#0" id="circle36"/>
	<circle cx="479.531" cy="75.6646" r="4" fill="#0" id="circle37"/>
	<circle cx="498.984" cy="93.9077" r="4" fill="#0" id="circle38"/>
	<circle cx="503.307" cy="57.7674" r="4" fill="#0" id="circle39"/>
	<circle cx="526.003" cy="93.7024" r="4" fill="#0" id="circle40"/>
	<circle cx="550.86" cy="98.2307" r="4" fill="#0" id="circle41"/>
	<circle cx="557.345" cy="33.3856" r="4" fill="#0" id="circle42"/>
	<circle cx="568.152" cy="425.828" r="4" fill="#0" id="circle43"/>
	<circle cx="579.5" cy="749.059" r="4" fill="#0" id="circle44"/>
	<circle cx="583.823" cy="12.9919" r="4" fill="#0" id="circle45"/>
	<circle cx="595.171" cy="100.392" r="4" fill="#0" id="circle46"/>
	<circle cx="608.14" cy="6.1615" r="4" fill="#0" id="circle47"/>
	<circle cx="630.836" cy="4" r="4" fill="#0" id="circle48"/>
	<circle cx="632.997" cy="78.0315" r="4" fill="#0" id="circle49"/>
	<circle cx="668.122" cy="309.269" r="4" fill="#0" id="circle50"/>
	<circle cx="670.283" cy="708.844" r="4" fill="#0" id="circle51"/>
	<circle cx="683.793" cy="75.9348" r="4" fill="#0" id="circle52"/>
	<circle cx="701.085" cy="8.25816" r="4" fill="#0" id="circle53"/>
	<circle cx="701.085" cy="89.1092" r="4" fill="#0" id="circle54"/>
	<circle cx="708.109" cy="239.874" r="4" fill="#0" id="circle55"/>
	<circle cx="728.103" cy="19.6709" r="4" fill="#0" id="circle56"/>
	<circle cx="730.265" cy="156.526" r="4" fill="#0" id="circle57"/>
	<circle cx="736.749" cy="616.721" r="4" fill="#0" id="circle58"/>
	<circle cx="759.445" cy="551.606" r="4" fill="#0" id="circle59"/>
	<circle cx="772.414" cy="502.162" r="4" fill="#0" id="circle60"/>
	<circle cx="781.06" cy="434.885" r="4" fill="#0" id="circle61"/>
	<circle cx="783.762" cy="371.953" r="4" fill="#0" id="circle62"/>
	<circle cx="788.085" cy="79.9984" r="4" fill="#0" id="circle63"/>
	<circle cx="795.11" cy="105.115" r="4" fill="#0" id="circle64"/>
	<circle cx="795.11" cy="311.614" r="4" fill="#0" id="circle65"/>
	<circle cx="805.917" cy="255.415" r="4" fill="#0" id="circle66"/>
	<circle cx="808.079" cy="181.449" r="4" fill="#0" id="circle67"/>
	<circle cx="810.24" cy="210.629" r="4" fill="#0" id="circle68"/>
	<circle cx="590.264" cy="45.7386" r="4" fill="#0" id="circle69"/>
	<circle cx="597.754" cy="53.2174" r="4" fill="#0" id="circle70"/>
	<circle cx="608.561" cy="48.2352" r="4" fill="#0" id="circle71"/>
	<circle cx="610.226" cy="34.9203" r="4" fill="#0" id="circle72"/>
	<circle cx="599.408" cy="34.0881" r="4" fill="#0" id="circle73"/>
	</g>
</svg>