736 587
747 610
761 587
762 630
781 647
785 595
791 570
801 662
805 549
807 517
815 596
820 679
831 510
838 606
843 689
856 516
867 698
880 525
892 700
903 535
917 703
923 490
927 543
942 699
944 476
944 504
967 693
969 475
987 677
994 478
1007 660
1014 493
1032 665
1033 510
1039 540
1041 566
1055 675
1059 584
1067 697
1084 586
1088 711
1100 733
1109 583
1125 736
1134 580
1150 735
1158 571
1175 736
1181 581
1197 601
1200 740
1220 611
1224 748
1239 628
1249 750
1264 634
1264 770
1279 790
1283 651
1299 805
1308 657
1321 817
1333 655
1346 823
1357 647
1371 823
1382 652
1396 828
1405 663
1413 847
1428 673
1438 848
1452 682
1461 858
1475 692
1476 878
1499 700
1501 879
1523 707
1526 879
1547 893
1548 713
1554 869
1570 725
1570 903
1590 741
1592 915
1610 757
1617 917
1635 753
1642 910
1660 749
1664 898
1678 767
1681 879
1691 794
1692 855
1695 819
