454 841
458 801
460 757
462 716
475 855
481 811
485 706
485 757
494 838
498 865
501 726
503 799
507 769
510 700
519 842
521 875
522 816
526 730
530 758
535 696
541 799
543 887
544 841
549 775
551 732
556 819
560 692
568 890
569 759
569 841
574 801
576 735
585 689
586 779
588 824
592 898
598 847
601 739
602 803
610 688
613 761
613 827
617 901
622 787
625 849
631 743
635 687
637 807
642 905
644 831
648 762
655 789
660 686
662 849
667 911
668 747
673 807
685 687
685 839
687 764
692 909
710 690
711 756
717 910
735 695
742 910
760 698
767 905
784 706
792 901
808 713
817 896
831 724
841 889
854 735
864 878
877 746
887 867
897 761
912 861
918 775
934 849
942 783
959 850
966 790
984 847
991 796
1009 846
1016 800
1034 848
1041 802
1059 849
1066 801
1084 852
1091 804
1109 854
1116 804
1133 861
1141 805
1158 862
1166 805
1183 862
1191 808
1208 866
1216 808
1233 870
1241 810
1257 878
1266 811
1282 875
1291 814
1307 877
1316 815
1332 882
1341 816
1357 884
1366 818
1382 888
1391 819
1407 890
1416 823
1432 893
1441 821
1457 893
1466 824
1482 896
1491 824
1507 900
1516 824
1532 902
1541 826
1557 907
1566 825
1582 902
1591 829
1607 908
1616 827
1632 912
1641 825
1657 914
1666 829
1682 915
1691 829
1707 920
1716 831
1732 922
1741 832
1757 925
1766 834
1782 926
1791 836
1807 929
1816 836
1832 930
1841 838
1857 927
1866 840
1882 924
1889 851
1901 905
1907 869
