595 375
608 397
621 349
625 416
636 369
640 436
651 323
654 387
656 456
666 343
670 407
673 475
675 294
678 444
684 361
690 494
692 313
695 404
696 462
708 512
709 364
710 331
714 480
715 420
726 530
729 349
729 379
734 437
734 496
744 548
748 396
752 339
752 455
754 511
762 566
768 411
771 356
772 470
782 581
787 428
791 372
791 487
804 593
808 442
811 387
829 598
831 403
850 420
854 598
869 437
879 597
887 455
900 477
903 605
910 500
915 525
916 550
923 620
927 573
942 637
943 593
961 611
961 654
980 671
981 627
999 688
1000 644
1017 706
1020 659
1035 724
1038 677
1053 742
1057 694
1070 761
1076 711
1088 779
1096 726
1104 799
1115 743
1122 817
1135 758
1137 837
1153 776
1154 856
1173 873
1174 790
1192 890
1194 805
1211 907
1212 823
1226 927
1230 841
1240 948
1248 859
1255 968
1267 876
1272 987
1289 888
1292 1002
1311 900
1316 1011
1331 916
1341 1016
1346 936
1359 958
1366 1012
1367 982
