227 261
227 286
234 310
242 241
243 334
255 356
265 231
268 378
282 399
288 242
298 419
309 256
316 437
329 271
333 456
351 284
352 473
372 298
372 488
391 505
392 313
411 521
413 327
429 539
433 342
448 556
453 357
468 571
474 371
489 585
494 386
511 597
515 400
532 611
535 415
554 623
555 431
576 445
577 633
596 460
598 647
616 475
620 659
637 489
643 669
656 506
665 682
676 522
687 694
695 539
711 702
715 554
733 714
735 570
754 587
755 726
773 604
778 736
793 620
800 748
812 637
823 758
831 654
845 771
851 669
863 744
867 784
870 686
881 762
889 703
889 797
911 716
911 810
931 731
932 824
952 745
953 838
972 760
974 852
992 775
995 866
999 837
1012 790
1017 879
1034 803
1036 896
1054 818
1058 908
1075 832
1078 924
1096 846
1097 941
1118 858
1121 949
1135 970
1140 871
1155 985
1161 885
1175 1000
1182 899
1195 1015
1205 910
1216 1029
1226 924
1236 1044
1247 938
1259 1054
1269 951
1279 1069
1291 964
1297 1087
1311 979
1318 1101
1334 990
1340 1113
1354 1005
1361 1127
1376 1018
1382 1141
1397 1032
1402 1156
1417 1047
1424 1169
1437 1062
1444 1185
1457 1077
1466 1198
1478 1091
1487 1212
1498 1106
1508 1226
1519 1120
1530 1239
1539 1135
1552 1252
1559 1150
1574 1265
1579 1165
1596 1277
1599 1180
1617 1263
1619 1195
1632 1243
1638 1212
