467 837
468 754
471 711
487 853
490 766
495 702
495 800
505 835
511 862
512 753
513 720
519 695
520 797
530 840
531 877
534 766
538 723
542 810
544 690
555 841
556 877
557 755
563 728
564 798
569 688
577 771
580 840
580 884
584 814
588 730
594 686
599 901
600 752
605 800
605 839
610 775
619 682
619 735
622 820
624 899
631 757
632 843
637 782
644 682
647 737
649 900
650 825
659 759
662 784
665 845
669 682
674 902
678 742
680 802
685 830
694 683
698 758
699 904
701 788
719 686
724 901
744 690
749 901
769 694
774 897
793 703
799 895
817 710
823 888
841 719
847 880
863 732
871 872
885 744
893 859
906 758
916 849
928 770
937 794
941 845
959 782
966 842
983 789
991 838
1008 794
1016 841
1033 797
1040 848
1058 799
1065 842
1083 798
1090 845
1108 799
1115 849
1133 800
1140 850
1158 801
1164 857
1183 802
1189 859
1208 800
1214 862
1233 805
1239 864
1258 805
1264 867
1283 807
1289 869
1308 809
1314 872
1333 808
1339 874
1358 813
1364 877
1383 815
1389 879
1408 816
1414 881
1433 815
1439 886
1458 816
1464 886
1483 817
1489 888
1508 821
1514 893
1533 820
1539 895
1558 822
1564 900
1583 821
1589 899
1608 824
1614 903
1633 821
1639 906
1658 825
1664 908
1683 825
1689 910
1708 825
1714 914
1733 827
1739 915
1758 827
1764 918
1783 828
1789 921
1808 831
1814 923
1833 834
1839 924
1858 834
1864 926
1883 840
1888 918
1905 852
1907 900
