610 212
620 235
633 257
647 278
659 300
673 321
686 343
688 199
700 279
700 364
702 141
702 220
711 341
712 164
713 301
714 385
717 240
725 362
726 407
727 184
728 321
731 261
740 206
740 428
741 382
743 341
746 281
753 450
754 227
757 362
759 400
760 302
767 471
768 248
773 421
774 323
779 225
779 493
781 369
783 268
785 399
787 442
788 345
794 245
796 512
798 288
799 420
805 460
806 371
809 265
810 533
813 308
820 480
823 390
823 427
824 285
824 554
828 328
839 447
840 350
842 303
843 571
848 395
855 370
857 323
863 415
865 583
872 343
880 434
888 363
889 590
905 382
914 593
921 402
938 421
939 599
956 439
961 611
969 461
976 631
978 548
980 573
981 483
982 512
990 596
991 651
1005 616
1007 671
1022 635
1022 691
1037 655
1037 711
1051 676
1052 731
1066 696
1067 751
1079 773
1084 714
1093 794
1098 735
1108 814
1116 753
1122 835
1130 774
1135 857
1148 792
1148 879
1162 900
1163 812
1177 920
1182 829
1189 942
1197 849
1202 964
1212 869
1216 985
1231 1005
1232 884
1245 1026
1246 905
1261 1046
1264 923
1270 1070
1280 943
1285 1090
1297 962
1299 1111
1312 1139
1314 981
1327 1160
1329 1001
1339 1182
1346 1020
1352 1204
1365 1037
1368 1224
1380 1057
1390 1236
1396 1077
1415 1094
1415 1236
1430 1114
1437 1223
1449 1131
1455 1205
1462 1153
1465 1179
