710 334
712 359
719 310
719 383
726 407
736 430
744 306
747 453
760 475
763 323
774 496
778 343
788 517
796 361
802 538
811 381
817 558
826 401
833 578
843 420
848 598
858 440
864 618
873 460
882 636
890 479
899 655
907 498
917 673
922 518
934 692
937 538
952 558
952 710
968 578
969 729
981 600
988 746
998 619
1006 764
1010 641
1024 662
1024 782
1037 684
1041 801
1053 704
1058 820
1067 725
1076 838
1081 746
1092 858
1098 765
1107 878
1110 787
1123 898
1124 808
1139 918
1140 828
1153 939
1154 849
1168 870
1169 959
1184 979
1186 888
1200 999
1201 908
1215 1019
1216 928
1230 1039
1231 948
1245 1059
1248 967
1261 1079
1263 987
1277 1099
1281 1005
1292 1119
1295 1026
1308 1139
1310 1046
1323 1159
1327 1065
1338 1179
1341 1086
1354 1199
1358 1105
1370 1219
1374 1125
1385 1239
1388 1146
1402 1258
1403 1166
1418 1186
1418 1278
1433 1206
1433 1298
1450 1225
1450 1317
1465 1245
1466 1337
1480 1265
1489 1347
1495 1285
1510 1305
1510 1333
