12 269
19 293
27 249
44 297
47 234
68 290
69 222
90 278
93 214
110 261
118 208
126 241
142 199
164 186
186 173
208 161
230 149
252 137
274 125
297 115
315 96
317 131
336 81
342 136
344 105
357 67
364 120
371 95
377 52
391 80
391 110
396 35
411 64
413 92
416 20
431 47
434 74
451 32
