329 816
336 942
339 901
344 858
353 807
361 936
364 895
368 850
377 800
385 945
388 888
393 844
400 810
404 928
412 897
414 789
417 853
425 942
431 880
435 803
435 835
440 921
447 781
454 891
458 845
458 939
469 793
472 873
472 917
476 827
482 771
496 925
497 867
500 789
501 822
509 765
516 910
519 879
524 832
525 787
531 930
534 760
537 861
541 813
541 906
550 787
554 880
555 834
556 934
559 755
566 808
566 903
567 856
576 785
579 878
580 832
581 933
584 749
593 804
593 899
595 852
605 782
605 829
605 875
606 932
609 745
622 848
622 894
625 798
631 930
634 740
634 826
636 873
639 777
653 843
654 891
656 929
659 736
659 792
665 821
669 870
681 928
682 725
706 926
707 724
731 925
732 727
756 924
757 725
781 922
782 728
806 917
807 733
830 910
831 741
854 751
854 903
875 765
875 889
896 779
896 875
912 812
917 860
930 794
942 855
955 792
967 858
980 787
992 860
1002 800
1014 848
1027 800
1039 845
1052 800
1064 842
1077 800
1089 840
1102 798
1114 838
1127 796
1139 836
1152 794
1164 835
1177 792
1189 834
1202 789
1214 832
1227 787
1239 831
1252 783
1264 830
1277 780
1289 830
1302 776
1314 830
1327 772
1339 831
1352 768
1364 832
1377 763
1389 832
1402 758
1414 834
1427 753
1439 836
1451 746
1464 837
1476 742
1489 838
1501 738
1514 838
1526 736
1539 837
1551 737
1564 833
1576 736
1589 831
1600 729
1614 833
1623 719
1638 841
1646 709
1662 848
1670 699
1687 854
1694 691
1712 859
1719 687
1737 862
1744 689
1762 860
1767 699
1784 848
1785 717
1800 737
1800 827
1810 803
1812 759
