585 262
598 284
604 236
614 304
618 257
630 324
635 276
636 215
645 344
649 237
652 295
661 364
663 193
666 256
669 314
678 213
678 383
684 274
686 333
694 403
696 231
702 292
703 378
704 351
711 422
714 249
719 311
721 396
729 347
729 440
731 268
738 415
744 308
745 460
746 366
755 434
756 267
762 326
763 478
765 383
776 283
780 344
780 403
781 496
794 301
798 362
801 511
813 318
816 380
823 523
832 335
847 530
850 353
868 371
871 537
884 391
893 549
898 412
909 435
913 462
913 564
917 490
926 514
931 582
940 535
948 601
954 556
965 620
971 575
982 639
989 593
999 658
1005 613
1014 678
1023 631
1031 697
1041 649
1048 716
1059 667
1065 735
1076 686
1080 755
1093 705
1097 774
1111 723
1112 794
1129 741
1129 813
1143 834
1148 758
1158 854
1167 775
1172 875
1185 793
1188 895
1205 809
1208 910
1223 827
1225 929
1241 845
1241 949
1254 971
1257 865
1267 993
1274 884
1281 1014
1292 902
1298 1033
1313 916
1318 1048
1333 931
1340 1060
1353 946
1364 1068
1370 965
1385 985
1389 1070
1394 1009
1398 1046
