328 716
329 756
331 674
334 635
351 768
352 723
356 671
357 624
372 754
375 712
377 639
379 681
387 774
389 616
395 727
401 667
402 640
402 754
412 778
414 614
414 710
420 684
426 732
427 640
436 755
436 785
437 665
438 607
439 709
451 686
451 731
452 639
461 755
461 790
463 603
463 664
464 708
476 734
477 640
479 687
486 795
488 599
488 756
489 662
493 708
502 735
504 642
510 689
511 800
513 596
514 757
521 661
525 709
528 735
535 640
536 800
538 594
539 688
539 758
549 661
553 737
557 706
561 805
563 592
564 641
570 756
577 690
583 658
586 805
588 591
591 741
597 706
602 641
611 757
611 804
613 592
618 692
636 805
638 595
660 798
663 599
685 792
688 604
709 783
712 612
732 772
734 625
754 759
757 636
777 747
779 649
800 733
801 661
823 674
823 722
848 678
848 720
873 679
873 721
898 679
898 719
923 677
923 720
947 727
948 677
972 723
973 674
997 722
998 676
1022 725
1023 676
1047 724
1048 677
1072 724
1073 677
1097 726
1098 677
1122 728
1123 676
1147 727
1148 675
1172 731
1173 675
1197 728
1198 674
1222 730
1223 673
1247 732
1248 672
1272 735
1273 671
1297 736
1298 672
1322 737
1323 670
1347 738
1348 671
1372 741
1373 668
1397 742
1398 668
1422 743
1423 666
1447 744
1448 666
1472 745
1473 663
1497 745
1498 663
1522 749
1523 663
1547 749
1548 661
1572 752
1573 659
1597 753
1598 659
1622 755
1623 660
1647 756
1648 658
1672 757
1673 659
1697 752
1698 659
1701 715
1703 684
