272 829
277 854
290 810
301 863
312 798
326 862
334 785
351 860
357 775
376 855
381 767
401 850
404 756
426 844
427 744
451 737
451 839
474 727
475 832
498 720
500 827
522 711
524 818
546 702
548 809
570 695
572 802
594 687
595 792
618 679
619 784
641 772
643 673
664 762
668 667
687 751
691 657
710 739
716 653
734 732
740 645
757 722
765 639
782 720
790 634
807 719
815 630
832 723
840 624
856 730
865 620
881 723
890 615
898 704
905 732
912 683
913 604
929 724
938 599
953 715
963 595
976 705
987 587
1000 696
1012 580
1024 687
1036 573
1047 677
1060 565
1071 668
1085 559
1094 658
1109 552
1117 647
1134 545
1140 637
1158 538
1163 626
1183 531
1185 614
1208 524
1208 603
1231 592
1233 519
1251 577
1258 514
1272 563
1283 511
1291 546
1306 524
