357 1337
376 1320
378 1351
396 1303
403 1354
417 1289
428 1354
438 1275
453 1357
460 1262
478 1359
482 1248
503 1361
505 1237
527 1225
528 1362
549 1211
553 1365
573 1202
578 1367
597 1195
603 1368
622 1188
628 1369
646 1178
653 1371
670 1171
678 1373
695 1166
703 1375
720 1160
728 1377
745 1157
753 1378
770 1153
778 1380
795 1151
803 1383
820 1149
828 1384
845 1149
853 1387
870 1149
878 1388
895 1148
903 1391
920 1150
928 1394
945 1151
953 1396
970 1154
978 1398
995 1155
1003 1400
1020 1157
1028 1403
1045 1162
1053 1407
1070 1163
1078 1410
1095 1169
1103 1413
1120 1170
1128 1415
1145 1174
1153 1418
1170 1179
1178 1420
1195 1180
1203 1425
1220 1186
1228 1427
1245 1187
1253 1431
1270 1193
1278 1434
1295 1196
1303 1438
1320 1197
1328 1441
1345 1203
1353 1444
1370 1204
1378 1447
1395 1209
1403 1451
1420 1211
1428 1454
1445 1214
1453 1458
1470 1220
1478 1462
1495 1220
1503 1465
1520 1226
1528 1470
1545 1228
1553 1474
1570 1231
1578 1478
1595 1235
1603 1481
1620 1234
1628 1485
1644 1241
1653 1488
1669 1243
1678 1492
1694 1245
1703 1497
1719 1251
1728 1501
1744 1251
1753 1505
1769 1256
1778 1509
1794 1260
1803 1512
1819 1261
1828 1515
1844 1267
1853 1519
1869 1268
1878 1523
1894 1271
1903 1527
1919 1275
1928 1531
1944 1276
1953 1535
1969 1282
1978 1539
1994 1282
2003 1543
2019 1285
2028 1546
2044 1291
2053 1550
2069 1292
2078 1554
2094 1297
2103 1558
2119 1298
2128 1562
2144 1301
2153 1566
2169 1305
2178 1569
2194 1308
2203 1574
2219 1310
2228 1577
2244 1316
2253 1581
2269 1317
2278 1586
2294 1317
2303 1588
2319 1320
2328 1592
2344 1323
2353 1596
2369 1326
2378 1600
2394 1329
2403 1604
2419 1333
2428 1609
2444 1336
2453 1605
2465 1627
2469 1339
2478 1649
2494 1337
2503 1648
2509 1316
2527 1641
2529 1301
2552 1637
2554 1306
2576 1318
2577 1634
2582 1378
2589 1354
2592 1401
2602 1637
2608 1337
2611 1366
2618 1507
2627 1637
2631 1326
2642 1349
2643 1391
2652 1640
2655 1413
2674 1430
2677 1643
2696 1442
2702 1644
2720 1451
2727 1647
2745 1457
2752 1652
2770 1458
2777 1652
2795 1460
2802 1658
2820 1462
2827 1659
2845 1463
2851 1667
2870 1467
2876 1670
2895 1463
2901 1671
2920 1463
2926 1676
2945 1464
2950 1683
2970 1461
2975 1689
2995 1459
3000 1691
3020 1455
3025 1695
3045 1460
3050 1698
3070 1459
3074 1705
3095 1462
3099 1707
3120 1460
3124 1713
3145 1460
3149 1715
3170 1460
3173 1722
3195 1463
3198 1723
3220 1463
3222 1731
3245 1468
3247 1735
3270 1465
3272 1737
3295 1467
3297 1741
3320 1468
3322 1743
3345 1472
3347 1746
3370 1475
3372 1751
3394 1483
3397 1753
3419 1485
3422 1758
3444 1484
3447 1763
3468 1492
3472 1765
3493 1495
3497 1768
3518 1500
3522 1772
3542 1507
3547 1775
3567 1513
3572 1776
3590 1523
3597 1781
3615 1529
3622 1779
3640 1531
3647 1777
3663 1541
3671 1785
3685 1553
3696 1789
3709 1562
3721 1789
3734 1564
3746 1788
3759 1558
3771 1793
3784 1561
3796 1798
3809 1555
3821 1796
3834 1561
3846 1797
3859 1555
3862 1518
3871 1796
3882 1501
3896 1792
3905 1511
3921 1793
3929 1520
3946 1797
3954 1523
3971 1796
3977 1534
3996 1790
3999 1546
4003 1702
4004 1761
4007 1631
4011 1726
4012 1656
4018 1575
4023 1600
