36 713
56 728
59 702
79 738
82 692
103 746
106 684
127 754
130 677
151 761
154 670
175 768
179 664
200 774
204 659
225 779
229 654
250 784
254 650
275 789
279 646
300 792
304 643
325 797
329 641
350 800
354 638
375 803
379 636
400 806
404 634
425 809
429 632
450 811
454 631
475 813
479 629
500 815
504 628
525 816
529 626
550 817
554 624
575 819
579 623
600 820
604 621
625 821
629 620
650 822
654 619
675 823
679 617
679 699
700 685
700 823
704 616
712 707
725 824
729 615
741 688
750 824
754 613
775 825
779 612
800 825
804 610
825 825
829 609
850 825
854 608
875 825
879 606
900 825
904 605
925 825
929 604
950 825
954 603
975 825
979 601
999 586
1000 825
1024 581
1025 824
1046 808
1049 578
1065 791
1074 576
1089 799
1099 574
1113 806
1124 572
1132 787
1141 762
1149 570
1154 740
1174 568
1177 729
1199 566
1202 727
1224 565
1227 731
1249 563
1252 734
1274 561
1277 736
1299 559
1302 737
1324 557
1327 738
1349 555
1352 739
1374 553
1377 740
1399 551
1402 738
1424 549
1427 739
1449 548
1452 737
1474 547
1477 735
1499 546
1502 735
1524 545
1527 732
1549 544
1552 731
1574 543
1577 728
1599 543
1602 723
1624 544
1627 720
1649 545
1652 715
1674 545
1676 708
1699 547
1701 705
1724 549
1726 703
1749 550
1751 697
1774 553
1776 697
1799 555
1801 703
1824 559
1824 714
1842 732
1849 563
1849 756
1874 568
1874 751
1891 730
1898 577
1904 708
1916 686
1918 592
1925 661
1929 615
