77 256
80 281
81 228
87 305
88 200
97 176
98 328
112 154
114 348
132 138
134 364
155 128
156 376
180 124
180 384
205 125
205 388
229 132
230 387
251 144
255 384
271 159
280 379
288 178
301 200
305 375
311 223
317 248
321 273
328 297
330 374
343 317
355 374
365 330
380 376
389 339
405 380
414 345
430 385
439 351
455 391
464 356
480 397
489 362
504 404
514 368
528 411
539 374
552 418
564 380
576 426
588 387
599 436
612 394
623 445
636 402
646 455
660 409
669 465
684 416
692 476
709 422
715 487
733 429
738 497
757 438
762 506
781 446
784 518
806 448
807 529
830 455
830 539
853 549
855 461
876 559
879 468
900 568
904 474
924 577
928 481
948 586
952 489
972 594
976 497
996 602
1000 506
1020 610
1024 515
1045 616
1047 525
1070 535
1070 621
1089 586
1092 548
1095 626
1108 603
1114 560
1120 629
1135 574
1143 618
