699 1368
700 1393
702 1455
705 1418
706 1480
708 1343
709 1505
712 1299
717 1529
720 1554
721 1233
722 1276
728 1578
729 1603
730 1207
736 1627
737 1182
745 1158
748 1649
755 1133
757 1673
767 1696
768 1111
772 1721
783 1744
785 1092
792 1768
799 1071
804 1790
816 1812
817 1052
831 1832
835 1033
849 1012
850 1849
865 992
868 1867
883 973
888 1882
906 963
906 1900
929 953
929 1910
948 936
954 1916
972 928
977 1927
995 1908
996 920
1018 1918
1019 910
1040 1930
1044 907
1061 1944
1068 914
1086 1943
1092 922
1111 1938
1113 936
1127 1917
1133 951
1151 1924
1158 956
1168 1943
1169 979
1176 1003
1182 1028
1183 1923
1187 1053
1190 1078
1195 1103
1197 1901
1205 1126
1209 1878
1213 1853
1216 1149
1223 1830
1226 1172
1232 1803
1237 1776
1241 1192
1243 1749
1252 1725
1263 1204
1269 1706
1281 1222
1291 1692
1304 1232
1313 1678
1329 1234
1333 1663
1354 1239
1357 1655
1379 1245
1380 1644
1404 1248
1404 1637
1428 1628
1429 1250
1450 1616
1452 1260
1474 1607
1477 1261
1497 1596
1502 1267
1521 1587
1527 1273
1542 1573
1551 1282
1567 1568
1575 1291
1589 1556
1599 1284
1611 1543
1623 1291
1635 1536
1648 1297
1660 1531
1673 1292
1683 1521
1695 1304
1707 1511
1720 1308
1731 1502
1745 1312
1756 1496
1770 1312
1781 1490
1795 1313
1805 1482
1819 1306
1830 1476
1844 1308
1853 1465
1869 1308
1878 1460
1894 1310
1903 1454
1919 1314
1928 1451
1944 1313
1952 1442
1968 1306
1977 1443
1993 1312
2000 1433
2018 1310
2025 1432
2043 1308
2045 1416
2068 1312
2070 1415
2093 1315
2093 1426
2111 1297
2117 1418
2136 1292
2142 1414
2161 1286
2166 1406
2186 1285
2191 1405
2211 1286
2215 1414
2236 1284
2240 1411
2260 1277
2264 1404
2285 1281
2289 1406
2310 1285
2314 1402
2332 1273
2339 1403
2357 1267
2364 1407
2382 1262
2388 1399
2406 1253
2413 1400
2431 1256
2438 1401
2456 1249
2463 1402
2481 1245
2488 1405
2506 1244
2513 1401
2531 1244
2538 1396
2555 1236
2561 1385
2580 1231
2586 1385
2605 1231
2609 1395
2629 1224
2634 1400
2654 1222
2659 1400
2679 1222
2684 1402
2703 1215
2709 1401
2728 1214
2734 1396
2753 1213
2759 1391
2776 1203
2784 1388
2801 1197
2809 1394
2826 1195
2834 1389
2851 1194
2859 1389
2876 1193
2883 1396
2900 1185
2908 1396
2925 1190
2933 1396
2949 1182
2958 1391
2972 1171
2983 1392
2997 1164
3007 1384
3022 1158
3032 1380
3047 1162
3057 1383
3072 1162
3082 1384
3097 1156
3107 1380
3122 1159
3132 1377
3147 1157
3157 1373
3169 1145
3181 1380
3193 1137
3206 1379
3218 1131
3231 1381
3243 1133
3254 1371
3268 1137
3279 1377
3293 1133
3304 1375
3316 1122
3329 1374
3341 1119
3354 1374
3366 1118
3379 1374
3391 1122
3404 1375
3414 1111
3429 1373
3439 1107
3454 1373
3463 1100
3479 1371
3488 1100
3504 1369
3513 1096
3524 1221
3528 1246
3529 1366
3538 1092
3539 1200
3546 1264
3554 1368
3563 1090
3563 1191
3571 1264
3579 1369
3588 1090
3588 1187
3596 1264
3604 1369
3612 1082
3613 1185
3621 1264
3629 1366
3637 1076
3638 1179
3646 1262
3654 1360
3662 1072
3663 1176
3671 1262
3679 1358
3686 1064
3688 1173
3696 1257
3704 1354
3711 1063
3713 1170
3721 1258
3729 1356
3736 1060
3738 1168
3746 1258
3754 1358
3761 1059
3763 1164
3771 1257
3779 1359
3785 1050
3788 1160
3796 1255
3804 1358
3810 1047
3813 1156
3821 1254
3829 1357
3835 1049
3838 1155
3846 1253
3854 1360
3860 1044
3863 1154
3871 1252
3879 1354
3885 1044
3887 1146
3896 1249
3904 1351
3910 1044
3912 1142
3921 1246
3929 1352
3934 1035
3937 1139
3946 1247
3954 1351
3959 1029
3962 1136
3971 1247
3979 1348
3984 1022
3987 1133
3996 1245
4004 1350
4009 1019
4012 1130
4021 1242
4029 1351
4034 1017
4037 1128
4046 1241
4054 1346
4058 1010
4062 1125
4071 1239
4079 1350
4083 1009
4087 1120
4096 1239
4104 1349
4108 1007
4112 1116
4121 1244
4126 1025
4126 1050
4126 1075
4126 1269
4126 1294
4126 1319
