82 991
98 967
100 930
106 998
123 968
125 936
131 998
148 973
156 997
173 971
183 994
186 305
193 329
196 281
198 971
205 351
212 992
216 265
217 304
223 969
234 283
238 989
241 312
252 968
262 326
263 300
263 991
277 967
284 338
286 311
293 987
307 348
307 966
310 320
324 985
331 355
333 330
338 964
352 985
354 365
364 963
368 343
377 376
377 985
389 962
393 347
401 385
403 983
414 362
414 960
424 395
428 981
437 373
439 957
447 405
453 980
464 956
467 390
471 415
478 980
489 956
491 399
495 424
503 978
514 955
518 434
528 977
539 950
540 422
547 446
553 981
564 952
568 432
569 458
578 975
589 949
590 444
597 468
603 971
612 934
617 452
620 478
626 961
637 930
642 466
646 491
654 949
659 917
666 475
669 501
676 937
681 904
689 516
691 489
698 925
705 896
706 535
723 914
724 553
728 885
730 527
741 572
748 545
748 900
750 873
758 591
766 566
771 890
773 861
776 609
784 584
793 878
794 627
796 850
811 646
816 866
819 839
829 664
839 855
842 820
846 683
862 843
863 702
867 815
869 673
881 720
886 833
887 695
891 807
899 738
906 712
911 830
918 806
922 748
930 721
936 835
946 809
947 754
959 732
961 838
972 758
975 817
986 737
986 844
997 764
1000 821
1011 742
1011 849
1022 768
1025 823
1036 746
1036 852
1047 773
1050 823
1061 857
1065 752
1072 778
1074 831
1086 862
1090 757
1097 782
1098 840
1111 866
1115 761
1122 786
1125 845
1134 876
1140 767
1146 793
1150 850
1159 879
1165 768
1171 796
1175 854
1184 880
1189 776
1196 801
1200 850
1206 893
1214 780
1214 819
1229 903
1238 772
1252 913
1263 772
1277 917
1288 773
1300 927
1313 773
1325 926
1338 775
1348 937
1363 780
1373 936
1388 784
1397 943
1413 787
1422 947
1438 791
1447 953
1463 792
1471 960
1488 798
1495 967
1513 800
1520 972
1538 802
1545 976
1563 807
1570 978
1588 810
1595 981
1613 812
1619 988
1638 816
1643 995
1663 821
1668 1001
1688 825
1693 1005
1713 828
1718 1009
1738 831
1742 1016
1763 835
1767 1021
1788 838
1792 1026
1813 839
1817 1030
1837 846
1842 1032
1862 848
1867 1038
1887 853
1890 956
1892 1042
1894 931
1912 857
1914 963
1914 1054
1919 931
1936 864
1937 1043
1949 1018
1955 881
1968 993
1972 900
1974 964
1979 924
