95 947
113 412
114 964
117 935
127 389
138 413
139 968
142 931
152 390
162 422
164 962
177 386
181 943
186 415
194 965
204 397
206 943
217 419
219 966
229 396
231 944
242 419
244 967
258 946
259 400
269 423
270 968
284 400
285 948
294 424
295 971
309 403
310 948
319 428
320 971
334 404
335 948
344 429
345 973
359 406
360 950
369 431
370 974
384 408
385 951
394 432
395 977
409 408
410 954
419 433
420 977
434 409
435 955
444 434
445 978
459 410
460 956
469 435
470 980
484 411
485 957
494 437
495 981
509 413
510 958
519 438
520 982
534 414
535 960
544 439
549 981
559 415
560 958
569 442
579 975
584 419
584 948
594 448
607 937
609 428
614 463
627 920
629 443
635 477
649 906
655 492
658 467
672 896
675 507
678 482
692 881
695 523
714 869
715 539
734 556
735 855
754 571
756 841
773 588
778 563
778 828
793 604
800 814
813 619
821 797
833 634
844 784
852 651
864 768
872 666
886 754
892 682
908 741
912 697
930 715
930 753
935 687
953 764
960 685
978 765
985 685
1001 775
1009 677
1024 785
1034 670
1049 790
1059 670
1074 792
1084 670
1099 796
1109 670
1124 799
1134 671
1149 801
1159 671
1174 803
1184 672
1199 805
1209 672
1224 807
1234 673
1249 809
1259 676
1274 810
1284 677
1299 812
1309 679
1324 812
1334 682
1349 813
1359 683
1374 815
1384 686
1399 815
1409 688
1424 816
1434 691
1449 817
1459 693
1474 818
1484 696
1499 819
1509 698
1524 820
1534 701
1549 820
1559 704
1574 820
1584 706
1599 820
1609 710
1624 821
1634 713
1649 815
1658 721
1669 800
1671 743
1671 775
