952 862
952 887
954 912
958 834
960 937
967 809
970 960
978 786
982 982
990 762
997 1002
1007 742
1014 1021
1023 718
1033 1038
1044 704
1055 1050
1066 692
1079 1059
1091 686
1103 1067
1116 682
1127 1074
1141 683
1152 1080
1166 687
1176 1087
1191 692
1201 1093
1216 698
1226 1099
1240 705
1245 1080
1264 712
1269 1071
1283 1048
1288 720
1294 1023
1302 998
1312 727
1312 971
1334 990
1335 1015
1336 735
1337 1040
1339 1065
1340 1090
1347 825
1349 970
1351 800
1356 751
1367 840
1374 965
1392 837
1397 726
1397 862
1397 975
1398 803
1399 751
1399 776
1421 870
1421 982
1445 877
1445 990
1467 890
1469 999
1491 897
1493 1007
1515 904
1517 1016
1538 914
1541 1024
1563 919
1564 1035
1587 927
1588 1043
1611 935
1612 1052
1635 942
1635 1062
1658 953
1659 1070
1683 959
1683 1078
1707 968
1707 1086
1730 1097
1731 977
1755 985
1755 1103
1779 994
1779 1111
1803 1003
1803 1120
1827 1010
1827 1128
1851 1018
1851 1136
1875 1026
1875 1145
1899 1035
1900 1150
1922 1125
1923 1044
1925 1152
1931 1097
1943 1060
1949 1145
1955 1082
1957 1039
1964 1165
1969 1106
1976 1056
1979 1129
1988 1078
1989 1160
1997 1102
2004 1133
2009 1064
2014 1156
2030 1176
2031 1076
