335 350
340 375
343 325
348 399
358 422
361 307
371 444
379 468
381 285
391 261
394 488
406 510
416 256
417 534
430 556
440 579
441 257
457 598
458 279
475 616
478 263
481 290
491 636
506 286
510 653
528 671
531 285
552 679
553 297
577 685
578 299
599 697
600 311
617 330
624 698
638 344
649 695
656 362
673 381
674 689
688 401
698 680
701 423
712 446
723 469
723 676
733 492
739 517
746 541
748 670
753 565
761 589
773 676
774 611
790 631
797 685
811 645
822 688
831 660
845 698
854 670
867 710
876 682
890 720
899 693
912 733
921 705
935 744
944 716
957 756
966 728
980 766
988 740
1002 778
1011 751
1023 792
1033 763
1045 805
1055 775
1068 815
1077 787
1091 826
1099 800
1114 836
1122 810
1134 851
1144 822
1157 861
1165 836
1178 875
1188 847
1200 887
1210 859
1223 897
1232 872
1244 911
1254 884
1267 922
1276 896
1288 936
1298 908
1310 948
1320 920
1333 958
1343 931
1355 971
1366 941
1375 987
1388 953
1389 1008
1411 1021
1413 952
1422 1044
1436 963
1439 1063
1459 1079
1461 961
1480 1093
1486 962
1502 1106
1510 971
1524 1119
1533 981
1546 1132
1556 991
1568 1144
1579 1001
1589 1158
1602 1011
1611 1170
1625 1022
1633 1183
1648 1033
1655 1195
1671 1043
1678 1205
1693 1055
1701 1216
1716 1066
1725 1225
1738 1078
1749 1234
1760 1090
1772 1244
1782 1102
1795 1254
1803 1116
1815 1269
1823 1131
1839 1276
1844 1145
1860 1290
1863 1162
1881 1304
1882 1179
1895 1279
1904 1314
1907 1185
1916 1265
1920 1293
1929 1317
1932 1187
1953 1308
1956 1196
1969 1288
1973 1215
1982 1264
1984 1238
