248 1359
250 1333
252 1283
255 1308
259 1237
259 1382
270 1199
275 1165
277 1400
283 1140
285 1114
292 1076
300 1049
301 1407
305 1022
312 993
317 966
324 940
325 1414
329 914
334 882
342 855
347 828
350 1415
355 802
364 777
368 739
375 1418
382 701
389 677
400 1418
403 656
423 640
425 1418
443 625
450 1417
467 615
475 1415
491 605
500 1412
516 602
525 1411
541 600
550 1407
566 597
575 1404
591 597
600 1401
616 598
625 1396
641 600
650 1391
666 601
675 1386
691 604
700 1379
716 608
725 1373
741 613
749 1366
766 618
774 1361
791 624
799 1355
815 631
823 1346
840 636
847 1339
864 643
871 1331
888 650
895 1323
912 658
920 1318
935 668
944 1309
959 677
968 1301
981 689
992 1291
1005 697
1016 1283
1029 704
1040 1276
1052 714
1065 1270
1076 723
1088 1259
1100 732
1113 1253
1124 741
1138 1248
1147 751
1162 1241
1170 761
1186 1232
1192 773
1208 1219
1216 782
1231 1208
1239 792
1255 1201
1263 801
1279 1193
1287 810
1304 1188
1311 817
1329 1184
1335 825
1354 1181
1359 834
1378 1174
1383 843
1403 1169
1407 852
1428 1163
1430 862
1453 1158
1454 870
1478 878
1478 1153
1502 887
1503 1149
1526 894
1528 1143
1551 900
1553 1137
1576 906
1578 1132
1600 913
1603 1129
1625 919
1628 1124
1650 922
1653 1120
1675 928
1678 1117
1700 931
1703 1115
1725 933
1728 1113
1733 858
1733 883
1733 908
1736 806
1736 831
1753 1108
1754 788
1761 1084
1777 1064
1779 789
1802 1059
1804 790
1827 1062
1829 790
1850 1072
1854 789
1872 1046
1878 796
1889 1065
1903 799
1908 1046
1915 1070
1928 805
1932 1089
1953 810
1957 1087
1978 814
1980 1097
2002 1085
2003 818
2025 1096
2028 822
2050 1102
2053 825
2066 859
2066 884
2066 909
2066 934
2071 1116
2086 949
2096 1118
2111 948
2121 1121
2136 947
2146 1123
2161 947
2171 1125
2186 946
2196 1127
2211 945
2221 1129
2236 943
2246 1130
2261 942
2271 1133
2286 941
2296 1134
2311 939
2321 1138
2336 938
2346 1139
2361 936
2371 1143
2386 935
2396 1144
2411 932
2421 1145
2436 931
2446 1146
2461 928
2471 1147
2486 926
2496 1149
2511 925
2521 1151
2536 923
2546 1152
2561 922
2571 1154
2586 920
2596 1157
2611 916
2621 1158
2636 914
2646 1160
2661 911
2671 1162
2686 909
2696 1163
2711 906
2721 1167
2736 902
2746 1168
2761 899
2771 1171
2786 897
2796 1173
2811 894
2821 1176
2836 893
2846 1176
2861 891
2871 1180
2886 889
2896 1182
2911 887
2921 1183
2936 884
2946 1186
2961 884
2971 1185
2986 882
2996 1189
3011 881
3021 1189
3036 880
3046 1190
3061 879
3071 1190
3086 878
3096 1190
3111 877
3121 1193
3136 877
3146 1194
3161 876
3171 1195
3186 875
3196 1196
3211 874
3221 1198
3236 874
3246 1198
3261 874
3271 1199
3286 874
3296 1200
3311 874
3321 1198
3336 874
3346 1197
3361 875
3371 1196
3386 875
3396 1196
3411 877
3421 1192
3436 878
3446 1190
3461 881
3471 1189
3486 884
3496 1188
3511 883
3521 1183
3535 890
3546 1184
3560 894
3571 1181
3585 898
3596 1176
3610 903
3621 1175
3635 909
3646 1173
3660 915
3671 1172
3684 923
3696 1166
3708 931
3721 1161
3731 941
3746 1157
3754 952
3771 1152
3777 962
3796 1147
3800 973
3820 1140
3821 987
3842 1001
3844 1133
3864 1014
3868 1126
3884 1029
3891 1116
3902 1047
3914 1104
3920 1065
