395 1147
398 1172
407 1196
415 1131
416 1220
423 1244
432 1268
438 1121
442 1291
450 1315
460 1338
462 1113
470 1361
480 1384
486 1106
490 1407
501 1430
510 1099
513 1452
524 1475
535 1093
537 1497
548 1520
560 1087
561 1542
574 1564
585 1081
588 1585
601 1607
610 1075
615 1628
629 1649
635 1070
651 1662
660 1066
676 1664
685 1061
701 1666
710 1057
726 1667
735 1054
751 1666
760 1051
776 1667
785 1048
801 1667
810 1045
826 1666
835 1043
851 1666
860 1041
876 1664
885 1039
901 1663
910 1037
926 1662
935 1036
951 1660
960 1036
976 1658
985 1035
1001 1656
1010 1035
1026 1653
1035 1036
1051 1650
1060 1036
1076 1648
1085 1037
1101 1645
1110 1039
1126 1641
1135 1040
1151 1638
1160 1041
1176 1634
1185 1042
1201 1630
1210 1044
1226 1626
1235 1045
1251 1621
1260 1047
1276 1616
1285 1049
1301 1612
1310 1050
1326 1607
1335 1051
1351 1601
1360 1053
1376 1595
1385 1054
1401 1590
1410 1055
1426 1584
1435 1057
1451 1578
1460 1058
1476 1572
1485 1059
1501 1566
1510 1060
1526 1561
1535 1060
1551 1555
1560 1061
1576 1550
1585 1062
1601 1544
1610 1062
1626 1539
1635 1063
1651 1534
1660 1063
1676 1530
1685 1064
1701 1525
1710 1064
1726 1519
1735 1064
1751 1515
1760 1064
1776 1510
1785 1064
1801 1506
1810 1064
1826 1502
1835 1064
1851 1497
1860 1064
1876 1493
1885 1063
1901 1491
1910 1061
1926 1490
1935 1059
1951 1488
1960 1057
1976 1485
1985 1054
2001 1483
2010 1052
2026 1480
2035 1050
2051 1478
2060 1048
2076 1475
2085 1046
2101 1472
2110 1044
2126 1469
2135 1042
2151 1467
2160 1039
2176 1464
2185 1038
2201 1461
2210 1036
2226 1458
2235 1032
2251 1455
2260 1030
2276 1453
2285 1030
2301 1451
2310 1026
2326 1448
2335 1023
2351 1444
2360 1024
2376 1440
2385 1021
2401 1440
2410 1019
2426 1438
2435 1017
2451 1434
2460 1017
2476 1433
2484 1009
2501 1430
2509 1010
2526 1426
2534 1004
2551 1423
2559 1006
2576 1420
2584 1002
2601 1420
2609 997
2626 1418
2634 995
2651 1415
2659 994
2676 1410
2684 995
2701 1410
2708 988
2726 1408
2733 985
2751 1404
2758 983
2776 1402
2783 979
2801 1398
2808 981
2826 1394
2833 987
2849 1382
2858 990
2869 1365
2882 1336
2883 992
2894 1359
2907 983
2907 1336
2930 1324
2931 976
2951 1310
2956 979
2976 1309
2978 966
2998 1322
3003 965
3017 1339
3026 954
3037 1354
3049 944
3062 1357
3073 937
3087 1361
3098 931
3112 1360
3123 926
3137 1359
3148 920
3162 1357
3173 914
3187 1356
3198 908
3212 1354
3223 903
3237 1353
3248 897
3262 1351
3273 891
3287 1350
3297 884
3312 1348
3322 878
3337 1347
3347 873
3362 1345
3372 867
3387 1344
3397 867
3412 1342
3422 871
3437 1340
3446 878
3462 1339
3471 884
3487 1337
3495 893
3512 1336
3518 903
3537 1333
3541 913
3562 1331
3563 925
3585 938
3587 1328
3606 952
3612 1325
3627 966
3637 1323
3647 982
3662 1320
3666 999
3684 1017
3687 1318
3701 1036
3712 1315
3718 1055
3732 1076
3737 1311
3747 1096
3759 1118
3762 1306
3770 1141
3778 1285
3780 1164
3788 1188
3788 1259
3792 1230
