443 932
443 957
444 982
445 906
447 1007
449 878
452 1032
454 853
460 1056
461 825
469 801
470 1079
479 777
482 1101
491 754
495 1123
504 731
510 1143
519 710
527 1162
536 690
544 1181
554 671
563 1198
574 654
582 1215
594 638
603 1229
615 624
624 1243
637 611
646 1255
660 600
669 1265
684 590
693 1273
708 583
717 1280
732 576
741 1287
757 572
766 1292
782 568
791 1297
807 564
816 1302
832 562
841 1305
857 561
866 1309
882 561
891 1312
907 561
916 1314
932 562
941 1316
957 564
966 1317
982 565
991 1318
1007 567
1016 1319
1032 569
1041 1320
1057 570
1066 1319
1082 572
1091 1318
1107 575
1116 1318
1132 578
1141 1316
1157 581
1166 1314
1182 585
1191 1312
1207 589
1216 1309
1232 594
1241 1306
1257 598
1266 1302
1282 604
1291 1296
1307 609
1316 1290
1331 616
1340 1282
1355 624
1364 1274
1378 634
1388 1265
1401 644
1411 1254
1423 656
1434 1242
1444 670
1456 1230
1465 684
1478 1218
1486 698
1500 1205
1506 713
1522 1193
1527 727
1544 1181
1548 741
1567 1170
1569 755
1590 1160
1591 768
1613 780
1613 1150
1636 790
1637 1141
1660 799
1661 1133
1684 807
1685 1126
1708 814
1710 1120
1733 820
1735 1114
1758 825
1760 1110
1783 831
1785 1106
1807 1093
1808 835
1812 1068
1828 851
1830 1049
1844 871
1855 1045
1869 865
1880 1045
1894 865
1905 1045
1919 865
1930 1049
1944 869
1952 1061
1968 876
1977 1067
1992 885
1998 1081
2017 889
2023 1079
2042 894
2047 1070
2067 890
2069 1083
2090 900
2094 1079
2114 909
2118 1070
2139 909
2142 1077
2164 909
2167 1078
2189 908
2189 1096
2199 1073
2214 906
2224 1066
2239 908
2247 1076
2259 1098
2260 894
2275 874
2280 1112
2298 863
2305 1114
2323 863
2330 1117
2348 864
2355 1118
2373 864
2380 1120
2398 864
2405 1122
2423 864
2430 1123
2448 864
2455 1125
2473 864
2480 1126
2498 864
2505 1127
2523 863
2530 1129
2548 863
2555 1130
2573 863
2580 1132
2598 862
2605 1134
2623 861
2630 1135
2648 861
2655 1136
2673 860
2680 1138
2698 859
2705 1140
2723 858
2730 1141
2748 858
2755 1142
2773 857
2780 1144
2798 857
2805 1146
2823 856
2830 1148
2848 855
2855 1149
2873 855
2880 1151
2898 854
2905 1153
2923 854
2930 1155
2948 853
2955 1157
2973 853
2980 1159
2998 852
3005 1160
3023 852
3030 1162
3048 851
3055 1164
3073 851
3080 1166
3098 851
3105 1168
3123 851
3130 1170
3148 850
3155 1172
3173 850
3180 1173
3198 850
3205 1175
3223 850
3230 1177
3248 850
3255 1179
3273 850
3280 1181
3298 850
3305 1183
3323 850
3330 1185
3348 850
3355 1187
3373 850
3380 1190
3398 850
3405 1192
3423 849
3430 1194
3448 849
3455 1196
3473 849
3480 1198
3498 848
3505 1200
3523 848
3530 1203
3548 848
3555 1205
3573 848
3580 1208
3598 848
3605 1209
3623 848
3630 1211
3648 848
3655 1213
3673 848
3680 1215
3698 849
3705 1217
3723 849
3730 1219
3748 849
3755 1221
3773 849
3780 1222
3798 850
3805 1224
3823 851
3830 1226
3848 851
3855 1228
3873 851
3880 1230
3898 851
3905 1232
3923 852
3927 1018
3928 1043
3930 1233
3936 1067
3939 995
3948 852
3953 1086
3955 1235
3957 1021
3959 1046
3973 852
3980 1237
3998 853
4005 1238
4023 854
4030 1240
4048 855
4055 1241
4073 855
4080 1240
4098 856
4105 1240
4120 868
4124 1084
4125 1109
4125 1222
4126 893
4126 918
4126 943
4126 968
4126 993
4126 1018
4126 1043
4126 1134
4126 1159
4126 1184
