263 1449
263 1474
263 1499
265 1421
265 1524
270 1386
270 1549
275 1354
275 1574
280 1329
281 1599
285 1291
290 1261
290 1623
294 1236
299 1647
301 1206
305 1176
309 1670
311 1148
318 1122
322 1692
330 1100
336 1713
352 1733
354 1092
369 1752
379 1093
388 1769
404 1096
408 1785
428 1801
429 1098
450 1813
454 1101
472 1826
479 1104
495 1837
504 1108
519 1846
529 1112
543 1853
554 1116
567 1860
579 1121
592 1865
604 1127
617 1869
629 1132
642 1873
654 1138
667 1876
679 1144
692 1877
704 1150
717 1878
728 1157
742 1878
752 1164
767 1876
776 1171
792 1874
800 1179
817 1871
824 1187
842 1868
848 1195
867 1864
871 1206
892 1861
894 1216
917 1226
917 1856
940 1237
942 1850
963 1248
967 1843
985 1260
991 1836
1007 1272
1015 1829
1029 1284
1039 1822
1050 1298
1063 1813
1070 1313
1087 1805
1090 1329
1110 1345
1110 1795
1130 1361
1133 1785
1148 1379
1156 1775
1167 1396
1179 1765
1186 1413
1202 1433
1202 1754
1221 1450
1225 1744
1238 1469
1249 1736
1255 1488
1273 1506
1273 1728
1291 1524
1298 1722
1311 1539
1323 1720
1332 1553
1348 1722
1354 1565
1373 1726
1378 1573
1398 1732
1403 1579
1423 1737
1428 1584
1448 1742
1453 1590
1473 1746
1478 1594
1498 1751
1503 1599
1523 1756
1528 1604
1548 1761
1553 1609
1573 1766
1578 1614
1598 1771
1603 1618
1623 1777
1628 1623
1648 1782
1653 1628
1673 1786
1678 1633
1698 1792
1703 1638
1723 1797
1728 1643
1748 1802
1753 1648
1773 1808
1778 1653
1798 1812
1803 1658
1823 1817
1828 1662
1848 1823
1852 1669
1873 1827
1877 1673
1898 1833
1902 1677
1923 1838
1927 1683
1948 1844
1952 1688
1973 1849
1977 1693
1998 1854
2002 1698
2023 1859
2027 1703
2048 1864
2052 1708
2073 1869
2077 1713
2098 1875
2102 1718
2123 1880
2127 1724
2148 1886
2152 1729
2173 1892
2177 1734
2198 1896
2202 1739
2223 1902
2227 1744
2248 1907
2252 1749
2273 1912
2277 1754
2298 1918
2302 1760
2323 1923
2327 1765
2348 1929
2352 1770
2373 1934
2377 1775
2398 1938
2402 1780
2422 1945
2427 1785
2447 1949
2452 1790
2472 1955
2477 1796
2497 1961
2502 1801
2522 1966
2527 1806
2547 1971
2552 1811
2572 1977
2577 1815
2597 1981
2601 1822
2621 1988
2626 1826
2646 1993
2651 1832
2671 1999
2676 1837
2696 2004
2701 1841
2720 1995
2726 1846
2742 1866
2742 2007
2763 2021
2767 1863
2788 2026
2792 1860
2813 2032
2817 1865
2838 2037
2841 1872
2863 2043
2866 1876
2888 2048
2891 1880
2913 2053
2916 1885
2938 2058
2940 1892
2962 2065
2965 1895
2987 2068
2989 1902
3011 2076
3014 1907
3036 2080
3039 1912
3061 2085
3064 1917
3086 2090
3089 1921
3111 2096
3113 1928
3136 2102
3138 1931
3161 2108
3162 1938
3186 2112
3187 1943
3211 2118
3212 1947
3236 2123
3237 1953
3261 2128
3262 1959
3286 2133
3287 1963
3311 2139
3312 1969
3336 2145
3337 1975
3361 2150
3362 1978
3386 1987
3386 2156
3411 1987
3411 2162
3435 1994
3436 2167
3460 1999
3461 2171
3485 2005
3486 2177
3510 2010
3511 2182
3535 2013
3535 2189
3559 2021
3560 2193
3584 2027
3585 2198
3604 2216
3604 2261
3607 2307
3609 2030
3617 2283
3629 2211
3634 2034
3654 2211
3659 2040
3679 2211
3684 2043
3700 2225
3700 2252
3708 2050
3708 2303
3710 2275
3725 2227
3733 2055
3750 2233
3758 2060
3775 2236
3783 2064
3799 2243
3807 2071
3824 2248
3832 2075
3848 2255
3857 2081
3873 2258
3882 2085
3898 2263
3907 2091
3923 2266
3932 2095
3946 2254
3955 2105
3966 2236
3972 2124
3984 2146
3985 2218
3998 2167
4000 2197
