1 1526
1 1551
1 1576
1 1601
1 1626
1 1651
6 1676
7 1499
12 1474
12 1701
20 1449
20 1725
27 1425
30 1748
37 1400
42 1770
49 1376
56 1791
63 1355
72 1811
79 1335
90 1829
94 1315
108 1847
111 1296
127 1864
131 1280
147 1880
151 1263
168 1894
171 1247
190 1906
193 1234
213 1917
216 1223
235 1929
238 1210
258 1939
262 1201
282 1947
285 1190
306 1955
309 1183
330 1962
334 1178
354 1969
359 1171
379 1974
384 1169
404 1979
409 1165
429 1985
433 1158
454 1989
458 1156
479 1991
483 1155
504 1994
508 1154
529 1995
533 1154
554 1996
558 1154
579 1995
583 1154
604 1996
608 1155
629 1995
633 1155
654 1995
658 1157
679 1994
683 1159
704 1992
708 1162
729 1991
733 1165
754 1989
758 1169
779 1985
783 1172
804 1982
808 1176
829 1978
833 1181
854 1975
858 1186
879 1971
883 1190
904 1968
908 1196
929 1963
932 1203
954 1957
956 1210
978 1949
980 1218
1002 1942
1004 1225
1027 1935
1029 1231
1051 1927
1053 1239
1075 1918
1077 1246
1098 1908
1101 1254
1122 1899
1125 1262
1145 1889
1148 1272
1167 1876
1172 1281
1190 1864
1195 1292
1211 1850
1216 1306
1234 1840
1238 1318
1257 1830
1260 1330
1280 1818
1281 1344
1302 1805
1303 1357
1324 1371
1324 1792
1346 1383
1346 1779
1366 1398
1368 1765
1388 1410
1391 1753
1408 1425
1414 1743
1431 1436
1437 1732
1454 1446
1461 1723
1476 1458
1485 1714
1498 1471
1509 1705
1522 1480
1534 1699
1546 1488
1559 1695
1571 1494
1584 1691
1596 1497
1609 1690
1621 1500
1634 1690
1646 1502
1659 1690
1671 1504
1684 1690
1696 1504
1709 1690
1721 1504
1734 1690
1746 1505
1759 1691
1771 1505
1784 1691
1796 1506
1809 1693
1821 1507
1834 1692
1846 1507
1859 1693
1871 1508
1884 1692
1896 1509
1909 1694
1921 1509
1934 1695
1946 1509
1959 1696
1971 1510
1984 1695
1996 1510
2009 1695
2021 1512
2034 1698
2046 1513
2059 1698
2071 1513
2084 1699
2096 1514
2109 1698
2121 1514
2134 1699
2146 1514
2159 1700
2171 1515
2184 1700
2196 1515
2209 1703
2221 1516
2234 1702
2246 1517
2259 1703
2271 1518
2284 1704
2296 1518
2309 1705
2321 1518
2334 1705
2346 1520
2359 1706
2371 1521
2384 1707
2396 1522
2409 1708
2421 1522
2434 1708
2446 1523
2459 1709
2471 1523
2484 1710
2496 1524
2509 1710
2521 1525
2534 1711
2546 1526
2559 1711
2571 1526
2584 1713
2596 1527
2609 1713
2621 1528
2634 1714
2646 1528
2659 1714
2671 1530
2684 1716
2696 1530
2709 1716
2721 1531
2734 1717
2746 1532
2759 1717
2771 1532
2784 1717
2796 1532
2809 1717
2821 1534
2834 1719
2846 1534
2859 1721
2871 1535
2884 1721
2896 1535
2909 1723
2921 1536
2934 1723
2946 1539
2959 1724
2971 1538
2984 1725
2996 1539
3009 1727
3021 1540
3034 1729
3046 1542
3059 1729
3071 1541
3084 1729
3096 1542
3109 1729
3121 1541
3134 1730
3146 1543
3159 1731
3171 1543
3184 1731
3196 1544
3209 1731
3221 1545
3234 1732
3246 1544
3259 1734
3271 1545
3284 1735
3296 1547
3309 1736
3321 1549
3334 1736
3346 1549
3359 1737
3371 1549
3384 1738
3396 1548
3409 1739
3421 1549
3434 1739
3446 1550
3459 1740
3471 1551
3484 1742
3496 1553
3509 1743
3521 1552
3534 1743
3546 1554
3559 1744
3571 1554
3584 1745
3596 1554
3609 1745
3621 1554
3634 1745
3646 1555
3659 1746
3671 1556
3684 1748
3696 1556
3709 1748
3721 1556
3734 1748
3746 1558
3759 1750
3771 1557
3784 1751
3796 1558
3809 1752
3821 1559
3834 1753
3846 1560
3859 1753
3871 1560
3884 1753
3896 1561
3909 1753
3921 1561
3934 1754
3946 1562
3959 1754
3971 1562
3984 1755
3996 1561
4009 1758
4021 1562
4034 1759
4046 1566
4058 1752
4067 1580
4078 1735
4082 1600
4095 1716
4098 1620
4112 1695
4115 1639
4122 1663
