440 360
440 385
442 335
445 410
448 307
452 434
456 283
462 457
468 260
474 479
480 237
490 499
496 217
508 517
514 199
527 534
535 184
549 546
557 172
571 559
580 161
595 568
604 154
619 575
629 150
643 582
654 149
668 588
679 149
692 595
704 152
717 601
728 159
742 605
752 167
767 611
774 180
792 616
794 196
812 214
816 623
829 233
840 630
844 253
856 275
864 638
867 298
877 321
884 345
887 649
892 369
904 391
909 661
911 415
918 439
926 463
931 673
936 486
946 509
952 687
957 532
969 554
973 701
981 576
993 716
997 596
1012 616
1013 732
1028 636
1032 749
1047 653
1051 766
1065 671
1069 784
1085 686
1087 802
1103 704
1105 820
1122 839
1123 719
1140 857
1143 734
1158 875
1163 749
1177 892
1183 764
1193 912
1204 778
1210 931
1223 795
1228 949
1244 809
1245 968
1263 986
1264 824
1282 1003
1284 839
1300 1021
1304 855
1318 1039
1324 871
1337 1056
1344 886
1355 1074
1361 905
1374 1091
1383 918
1392 1109
1403 934
1408 1129
1422 951
1428 1145
1440 969
1441 1167
1461 1182
1462 982
1478 1201
1481 999
1498 1217
1503 1011
1515 1236
1521 1029
1532 1255
1539 1047
1551 1272
1561 1060
1573 1284
1580 1077
1590 1303
1600 1092
1610 1319
1619 1109
1629 1336
1639 1124
1649 1351
1659 1140
1669 1366
1679 1155
1689 1381
1697 1173
1709 1396
1716 1190
1729 1411
1734 1208
1751 1423
1754 1223
1759 1346
1772 1241
1773 1435
1790 1259
1796 1445
1807 1278
1819 1455
1822 1298
1843 1463
1845 1309
1857 1331
1868 1464
1872 1351
1884 1373
1891 1453
1897 1395
1903 1420
