331 2058
338 2082
340 2034
356 2100
360 2017
379 2110
381 2003
401 1988
404 2104
421 1972
423 2087
441 1957
443 2072
461 1941
463 2057
482 1927
483 2042
502 1910
504 2027
523 1896
524 2010
543 1880
545 1995
563 1863
565 1979
583 1848
585 1963
603 1833
606 1948
623 1818
626 1932
643 1801
646 1916
664 1787
667 1901
684 1772
687 1886
704 1756
707 1870
724 1741
727 1855
744 1726
747 1840
764 1710
767 1824
784 1694
787 1808
804 1679
807 1792
825 1664
827 1777
845 1647
847 1762
865 1632
867 1746
885 1617
887 1730
905 1602
907 1715
925 1587
927 1700
945 1571
947 1684
965 1555
967 1668
985 1538
987 1652
1005 1523
1007 1636
1026 1508
1028 1621
1046 1492
1048 1604
1066 1477
1068 1589
1086 1462
1088 1574
1106 1447
1108 1558
1126 1432
1128 1543
1146 1417
1149 1528
1166 1401
1169 1511
1186 1385
1189 1496
1206 1370
1210 1481
1226 1354
1230 1464
1246 1339
1251 1449
1266 1323
1271 1433
1286 1307
1291 1416
1306 1292
1311 1401
1326 1277
1331 1386
1346 1261
1351 1370
1367 1246
1371 1355
1386 1229
1391 1339
1406 1214
1411 1323
1426 1198
1431 1308
1447 1183
1451 1292
1467 1167
1471 1276
1487 1151
1491 1261
1507 1136
1511 1245
1527 1120
1531 1229
1547 1105
1551 1213
1567 1089
1571 1198
1587 1073
1591 1182
1607 1058
1611 1166
1627 1043
1631 1151
1647 1027
1651 1135
1667 1010
1671 1120
1687 994
1691 1103
1707 977
1711 1088
1727 962
1731 1072
1747 945
1751 1056
1767 928
1771 1041
1787 912
1791 1024
1807 897
1811 1009
1827 880
1831 993
1847 864
1850 976
1867 847
1870 961
1887 832
1890 945
1907 815
1910 928
1927 798
1930 912
1947 782
1950 896
1966 765
1970 879
1986 749
1990 862
2006 734
2010 845
2025 717
2030 830
2045 700
2050 814
2065 683
2070 797
2085 667
2090 780
2104 650
2110 763
2123 632
2130 747
2140 613
2150 732
2155 592
2167 570
2170 716
2178 545
2188 519
2192 703
2198 493
2207 468
2214 690
2217 443
2227 418
2237 680
2238 394
2250 370
2262 346
2262 674
2276 324
2287 668
2290 303
2305 282
2312 665
2322 262
2337 660
2339 243
2357 225
2362 657
2376 207
2387 651
2396 190
2412 648
2415 173
2436 158
2437 642
2456 142
2462 637
2477 127
2486 630
2497 112
2510 623
2518 98
2534 615
2540 86
2557 604
2563 74
2581 595
2586 62
2604 583
2611 56
2626 570
2636 50
2648 557
2661 49
2670 543
2686 51
2691 529
2711 55
2712 515
2732 500
2735 63
2752 484
2757 75
2771 467
2779 87
2790 449
2799 103
2808 430
2817 121
2825 411
2832 141
2839 389
2846 162
2851 365
2856 185
2860 339
2863 209
2866 312
2868 234
2870 270
