111 771
121 794
124 749
145 801
149 746
170 801
174 743
195 799
199 741
220 797
224 739
245 795
249 737
270 794
274 736
295 791
299 733
320 789
324 733
345 787
349 731
370 786
374 729
395 784
399 727
420 782
424 725
445 780
449 724
470 779
474 723
495 777
499 721
520 774
524 719
545 774
549 718
570 771
574 716
595 768
599 715
620 767
624 713
645 767
649 712
670 764
674 710
695 764
699 708
720 761
724 705
745 761
749 704
770 760
774 702
795 757
799 701
820 755
824 700
845 753
849 698
870 752
874 696
895 752
899 694
920 750
924 691
945 749
949 689
970 749
974 685
995 750
999 680
1020 754
1023 673
1045 758
1047 664
1070 763
1071 654
1094 644
1094 771
1117 633
1118 779
1140 622
1142 787
1163 612
1166 794
1186 602
1190 801
1210 594
1215 807
1234 587
1240 811
1259 581
1265 815
1284 577
1290 816
1309 574
1315 817
1334 573
1340 815
1359 575
1365 813
1384 579
1389 806
1408 586
1413 798
1432 595
1437 788
1454 607
1461 779
1474 623
1477 759
1490 643
1494 739
1501 666
1504 714
