110 860
119 836
122 882
144 830
147 885
169 825
172 882
194 821
197 879
219 817
222 874
244 813
247 871
269 809
272 867
294 805
297 863
319 802
322 860
344 799
347 854
369 794
372 851
394 790
397 847
419 786
422 844
444 782
447 840
469 779
472 835
494 775
497 829
519 772
522 826
544 768
547 822
569 765
572 818
594 760
597 814
619 756
622 809
644 751
647 805
669 747
672 803
694 744
697 799
719 740
722 795
744 735
747 791
769 731
772 788
794 727
797 783
819 724
822 779
844 720
847 774
869 716
872 773
894 711
897 768
919 707
922 766
944 701
947 761
969 695
972 760
993 686
997 760
1017 677
1022 761
1041 667
1047 763
1063 655
1072 768
1085 642
1097 774
1107 629
1122 779
1128 615
1147 785
1151 603
1172 789
1174 592
1197 582
1197 794
1221 572
1222 797
1245 565
1247 799
1270 559
1272 799
1295 555
1297 798
1320 553
1322 794
1345 554
1347 790
1370 558
1372 783
1395 564
1397 776
1419 573
1419 763
1439 748
1442 584
1458 731
1462 600
1474 711
1478 620
1485 687
1487 644
