238 535
241 566
244 507
246 591
256 614
258 485
271 634
274 465
287 654
295 450
306 671
318 440
320 479
326 686
342 433
343 468
347 700
367 428
370 710
392 425
392 723
415 733
417 424
438 743
442 425
462 750
467 425
486 758
492 426
511 764
517 431
536 768
541 439
561 768
566 445
586 769
589 455
611 467
611 770
633 480
636 770
654 494
661 768
674 510
686 764
694 525
711 760
714 541
732 559
736 754
750 577
760 747
768 595
783 615
785 742
800 634
810 743
817 653
835 747
837 668
859 681
859 754
883 689
883 762
906 699
907 769
929 709
931 777
953 716
955 784
977 724
979 792
1001 732
1003 801
1025 741
1026 811
1049 748
1050 819
1073 757
1075 825
1097 764
1099 834
1121 772
1123 842
1145 781
1147 851
1169 789
1171 858
1193 798
1195 866
1217 805
1219 874
1241 814
1243 883
1265 821
1267 890
1289 829
1291 898
1313 838
1315 905
1337 847
1339 913
1361 854
1363 922
1385 862
1387 931
1409 871
1411 938
1433 880
1435 947
1457 888
1459 955
1481 897
1483 964
1505 904
1507 972
1529 911
1531 980
1553 919
1555 988
1577 926
1579 997
1601 935
1603 1004
1625 944
1626 1015
1649 951
1650 1022
1672 961
1674 1029
1696 968
1697 1039
1719 978
1721 1047
1744 984
1745 1055
1768 992
1768 1066
1792 1001
1793 1070
1816 1009
1817 1078
1839 1019
1842 1084
1863 1027
1866 1091
1886 1037
1891 1088
1905 1054
