279 432
279 422
284 412
284 402
289 387
289 377
294 362
299 347
304 337
309 327
314 312
319 297
324 287
329 277
337 269
345 261
353 254
360 246
370 241
380 236
390 231
398 224
407 219
415 211
425 206
435 204
444 199
454 199
464 199
474 199
484 199
494 199
504 199
514 199
523 204
533 204
543 205
553 209
562 214
572 214
582 214
591 219
594 209
589 200
589 190
584 181
579 172
574 163
568 155
560 148
553 140
544 135
535 130
526 125
517 120
507 120
498 115
488 115
478 115
468 115
458 118
448 120
439 125
429 125
419 121
414 112
414 102
414 92
414 82
414 72
419 62
424 52
432 44
442 39
452 39
461 34
471 34
481 34
491 34
501 34
511 34
520 39
530 39
539 44
549 46
555 54
565 57
572 65
580 72
587 80
595 87
599 97
600 107
600 117
604 127
605 137
605 147
605 157
614 152
619 137
627 129
632 119
640 111
648 104
655 96
663 89
672 84
682 84
691 79
700 74
710 71
720 69
730 66
727 80
717 84
709 90
700 95
693 103
685 110
678 118
670 125
663 133
655 140
650 150
645 160
640 175
640 185
640 195
635 210
635 220
635 230
645 234
654 227
664 224
673 219
682 214
692 214
702 214
712 209
722 209
732 209
742 209
752 209
762 209
772 209
781 214
791 214
801 214
810 219
820 219
829 224
839 226
849 229
859 231
868 236
875 244
883 250
892 255
902 259
911 264
920 269
929 274
937 280
945 287
952 295
960 302
964 312
969 321
970 331
975 340
977 350
980 360
985 369
985 379
985 389
990 398
990 408
995 417
995 427
1000 436
1000 446
1003 456
1005 466
1005 476
1010 485
1010 495
1010 505
1010 515
1010 525
1010 535
1010 545
1010 555
1010 565
1010 575
1005 590
1005 600
1005 610
1005 620
1000 635
1000 645
995 660
995 670
990 680
985 690
980 705
978 718
970 725
965 735
965 745
958 753
950 760
942 769
934 777
924 782
914 787
906 795
897 800
888 805
879 810
870 815
860 815
850 820
840 825
830 825
820 830
810 830
800 830
791 835
781 835
771 835
761 835
751 835
741 835
731 835
721 835
711 835
701 835
691 835
681 833
671 830
661 830
651 829
642 824
632 820
625 812
615 810
606 815
596 815
586 815
576 815
566 815
556 815
546 815
536 815
526 815
516 815
506 815
496 815
486 815
477 810
467 810
458 805
448 805
439 800
429 797
422 789
412 785
405 777
395 773
388 765
380 758
374 750
366 744
359 736
354 727
347 719
342 710
339 700
331 694
327 684
322 675
315 667
310 658
309 648
304 639
301 629
299 619
294 610
292 600
289 590
289 580
284 571
284 561
279 552
279 542
279 532
279 522
279 512
279 502
279 492
279 482
279 472
279 462
279 452
279 442
