174 1016
169 1007
177 999
184 987
189 977
189 967
189 957
189 947
199 944
209 942
217 934
224 922
224 912
232 904
234 892
239 881
239 871
239 861
239 851
234 842
234 832
242 824
249 807
254 796
254 786
254 776
254 766
257 749
262 739
264 727
269 710
269 700
269 690
269 680
264 671
259 662
259 652
259 642
264 625
264 615
264 605
262 595
259 585
254 576
254 553
254 543
254 533
249 524
247 514
239 507
234 498
234 488
234 478
234 468
229 459
224 450
222 439
227 429
235 421
243 414
252 409
260 401
268 394
275 386
285 381
293 374
302 369
310 361
320 356
328 349
337 344
347 339
357 334
366 329
375 324
385 321
395 316
405 311
415 309
424 304
434 302
444 299
453 294
463 294
472 289
482 289
492 284
502 284
512 284
521 279
531 279
541 279
551 275
561 274
571 274
581 274
591 274
601 274
611 274
621 274
629 265
629 255
627 245
624 235
624 225
619 216
614 207
609 198
605 188
601 178
596 169
592 159
587 150
584 140
576 134
567 129
562 120
555 112
547 105
537 105
528 100
519 95
509 92
509 82
519 79
529 79
539 81
548 86
558 90
567 95
575 102
580 111
586 119
595 124
603 130
607 140
612 149
619 157
624 166
628 176
633 185
638 194
639 172
639 162
639 152
639 142
644 132
644 122
649 107
654 97
659 87
664 77
672 69
680 61
688 54
697 49
706 44
714 37
724 32
734 27
744 24
753 19
763 19
773 19
783 19
793 19
802 24
805 34
810 43
810 53
810 63
805 80
805 90
805 100
800 110
800 120
800 130
800 140
795 150
793 168
788 178
780 185
775 195
768 203
763 213
755 220
749 230
740 235
733 248
723 253
715 260
725 264
735 264
745 264
755 264
765 264
775 264
785 264
795 264
805 267
815 269
825 269
835 269
844 274
854 274
864 276
874 279
884 281
894 284
903 289
913 290
923 294
932 299
941 304
950 309
960 309
969 314
977 320
987 324
996 329
1005 334
1013 340
1022 345
1030 352
1038 359
1047 364
1054 372
1064 376
1070 384
1078 390
1085 398
1093 405
1100 413
1108 420
1115 428
1120 437
1127 445
1135 452
1140 461
1146 469
1150 479
1158 485
1162 495
1167 504
1174 512
1179 521
1183 531
1188 540
1192 550
1195 560
1200 569
1205 578
1205 588
1210 597
1214 607
1215 617
1220 626
1220 636
1225 645
1225 655
1227 665
1230 675
1230 685
1230 695
1232 705
1235 715
1235 725
1235 735
1235 745
1235 755
1235 765
1235 775
1235 785
1230 800
1230 810
1230 820
1230 830
1225 840
1225 850
1220 865
1220 875
1215 885
1210 900
1205 915
1200 930
1195 940
1193 953
1188 963
1183 973
1178 983
1173 993
1165 1000
1160 1010
1153 1023
1148 1033
1140 1040
1135 1050
1128 1058
1120 1065
1113 1078
1105 1085
1098 1093
1090 1100
1083 1108
1075 1115
1067 1124
1059 1130
1050 1135
1043 1143
1033 1148
1025 1155
1015 1160
1007 1169
997 1174
987 1179
977 1184
969 1190
960 1195
950 1195
941 1200
932 1205
923 1210
913 1213
903 1215
894 1220
884 1222
874 1225
864 1227
854 1230
844 1230
835 1235
825 1235
815 1235
805 1235
796 1240
786 1240
776 1240
766 1240
756 1240
746 1240
736 1240
726 1240
716 1240
706 1240
696 1240
686 1240
676 1240
666 1240
656 1240
646 1240
636 1240
626 1240
616 1240
606 1240
596 1240
586 1240
576 1240
566 1240
556 1240
547 1235
537 1235
527 1235
517 1235
508 1230
498 1230
489 1225
479 1225
469 1225
460 1220
450 1217
440 1215
431 1210
421 1208
411 1205
402 1200
393 1195
384 1190
374 1190
365 1185
357 1179
347 1175
338 1170
329 1165
321 1159
312 1154
304 1147
295 1142
287 1135
278 1130
270 1123
263 1115
255 1108
249 1100
239 1097
232 1089
224 1082
220 1072
212 1065
205 1057
197 1050
193 1040
185 1033
179 1025
