19 727
19 717
24 707
24 697
24 687
29 672
29 662
34 647
39 632
44 617
49 607
54 597
59 587
64 577
69 567
74 557
82 549
87 539
94 527
102 519
109 507
117 499
125 491
133 484
140 476
148 469
155 461
163 454
170 446
180 441
188 434
197 429
205 421
213 414
222 409
232 404
241 399
250 394
259 389
268 384
277 379
287 374
297 369
307 369
316 364
325 359
335 356
345 354
354 349
364 349
373 344
383 344
392 339
402 339
412 339
421 334
431 334
441 334
451 334
460 329
472 329
482 329
492 329
512 325
502 325
487 320
477 320
467 320
458 315
449 310
439 306
431 300
422 295
413 290
405 283
399 275
391 269
387 259
382 250
379 240
374 231
369 222
369 212
369 202
377 194
386 189
396 185
406 184
416 184
426 184
436 184
445 189
455 192
465 194
474 199
482 205
490 212
497 220
505 227
512 235
520 242
524 252
529 261
535 269
540 278
545 287
549 297
550 307
554 275
554 265
554 255
549 246
549 236
549 226
544 217
544 207
544 197
554 194
560 202
565 211
565 221
570 230
570 240
570 250
575 259
575 269
575 279
575 289
575 299
575 309
575 319
575 329
585 329
595 329
605 329
615 329
625 329
635 329
645 329
655 329
665 329
675 329
684 334
694 334
704 334
714 334
723 339
733 339
743 340
753 344
763 345
773 349
783 350
793 354
802 359
812 359
821 364
830 369
840 372
849 377
859 381
868 386
878 390
887 395
897 399
904 407
914 411
923 416
930 424
939 429
947 435
955 442
964 447
972 454
979 462
987 469
994 477
1002 484
1009 492
1017 499
1024 507
1029 516
1035 524
1040 533
1048 540
1052 550
1060 557
1064 567
1069 576
1073 586
1078 595
1082 605
1087 614
1090 624
1095 633
1095 643
1100 652
1104 662
1105 672
1105 682
1110 691
1110 701
1110 711
1115 720
1115 730
1115 740
1115 750
1115 760
1115 770
1115 780
1115 790
1110 800
1110 810
1110 820
1105 830
1105 840
1100 855
1095 870
1090 885
1085 900
1080 910
1075 920
1070 930
1065 940
1060 950
1053 963
1048 973
1040 980
1035 990
1028 998
1023 1008
1015 1015
1008 1023
1000 1030
993 1038
985 1045
978 1053
970 1060
963 1068
953 1073
945 1080
935 1085
927 1094
918 1100
909 1105
900 1110
890 1115
880 1120
871 1125
862 1130
853 1135
844 1140
835 1145
825 1145
815 1150
805 1155
796 1160
786 1160
777 1165
767 1165
758 1170
748 1170
739 1175
729 1175
719 1177
709 1180
699 1180
689 1180
679 1182
669 1185
659 1185
649 1185
639 1185
629 1185
619 1185
609 1185
599 1185
589 1185
579 1185
570 1180
560 1180
550 1185
540 1185
530 1185
520 1185
510 1185
500 1185
490 1185
480 1185
470 1185
460 1185
451 1180
441 1180
431 1180
421 1180
412 1175
402 1175
392 1174
382 1170
372 1169
362 1165
352 1164
342 1160
333 1155
323 1155
314 1150
305 1145
295 1142
285 1138
276 1133
266 1129
257 1124
247 1120
238 1115
230 1108
221 1103
211 1099
204 1091
196 1085
187 1080
180 1072
170 1068
163 1060
155 1053
148 1045
140 1038
133 1030
125 1023
119 1015
111 1009
107 999
99 992
94 983
87 975
84 965
76 959
72 949
67 940
64 930
59 921
54 912
49 903
44 894
41 884
39 874
34 865
32 855
29 845
29 835
24 826
24 816
24 806
19 797
19 787
19 777
19 767
19 757
19 747
19 737
