924 542
924 532
929 517
929 507
934 497
934 487
934 477
939 462
944 447
944 437
944 427
944 417
944 407
944 397
944 387
944 377
949 362
949 352
949 342
949 332
949 322
949 312
949 302
949 292
949 282
949 272
949 262
949 252
949 242
949 232
949 222
957 214
966 209
975 204
985 201
995 199
1005 199
1015 197
1022 205
1027 214
1030 224
1030 234
1035 243
1035 253
1035 263
1035 273
1035 283
1035 293
1040 302
1044 312
1045 322
1050 331
1055 340
1060 349
1065 358
1065 368
1070 377
1075 386
1080 395
1082 405
1085 415
1090 424
1090 434
1095 443
1100 452
1105 461
1108 471
1113 480
1117 490
1120 500
1125 509
1125 519
1130 528
1135 537
1139 547
1140 557
1140 567
1140 577
1140 587
1140 597
1140 607
1140 617
1140 627
1140 637
1140 647
1140 657
1144 667
1145 677
1145 687
1145 697
1149 707
1150 717
1150 727
1155 736
1155 746
1155 756
1158 766
1160 776
1160 786
1163 796
1165 806
1165 816
1165 826
1165 836
1168 846
1170 856
1170 866
1175 875
1175 885
1177 895
1180 905
1185 914
1185 924
1185 934
1185 944
1185 954
1185 964
1185 974
1185 984
1182 999
1174 1007
1164 1010
1155 1015
1145 1015
1136 1020
1126 1020
1116 1020
1107 1025
1097 1025
1087 1025
1077 1029
1067 1030
1057 1030
1047 1034
1037 1035
1027 1035
1017 1039
1007 1040
997 1039
989 1032
984 1023
979 1014
976 1004
974 994
969 985
964 976
964 966
959 957
959 947
955 937
950 928
949 918
949 908
949 898
949 888
949 878
949 868
949 858
949 848
949 838
949 828
949 818
949 808
949 798
949 788
949 778
949 768
949 758
949 748
949 738
949 728
949 718
945 708
944 698
944 688
939 679
939 669
934 660
934 650
934 640
929 631
929 621
929 611
929 601
924 592
924 582
924 572
924 562
924 552
