534 452
529 462
534 471
534 481
534 491
534 501
539 510
539 520
539 530
542 540
550 547
560 550
569 545
579 545
589 545
599 545
609 545
619 545
629 545
639 545
649 545
659 545
669 545
679 545
689 545
699 545
709 545
719 545
729 545
738 550
747 555
757 555
766 560
776 563
785 568
793 575
802 580
812 584
819 592
829 595
838 600
845 608
855 612
865 615
874 620
884 620
894 620
904 617
914 615
924 615
934 615
944 615
954 615
964 615
974 615
984 615
994 615
1004 615
1014 615
1024 615
1033 610
1043 610
1053 610
1062 605
1071 600
1081 600
1090 595
1100 590
1110 590
1120 590
1130 590
1140 590
1150 590
1160 590
1170 590
1179 595
1189 595
1198 600
1208 600
1215 608
1223 615
1232 620
1240 627
1247 635
1256 640
1265 645
1275 647
1285 650
1295 650
1305 650
1314 655
1324 655
1334 655
1344 655
1354 655
1363 650
1373 650
1383 650
1393 650
1403 650
1413 650
1423 650
1432 645
1442 645
1452 645
1461 640
1471 640
1481 640
1490 635
1495 625
1495 615
1495 605
1495 595
1495 585
1495 575
1495 565
1495 555
1495 545
1495 535
1495 525
1495 515
1495 505
1503 498
1510 485
1519 480
1527 474
1532 464
1542 459
1550 450
1558 443
1565 435
1570 419
1567 409
1562 400
1560 390
1555 381
1550 372
1550 362
1542 355
1535 347
1527 340
1520 332
1510 329
1500 329
1490 329
1480 329
1470 329
1460 329
1450 329
1440 329
1430 329
1420 329
1410 329
1400 329
1390 329
1380 329
1370 329
1360 329
1350 329
1340 329
1331 324
1321 324
1311 324
1302 319
1294 312
1287 304
1278 299
1269 294
1260 289
1250 289
1240 289
1230 289
1220 289
1210 289
1201 294
1192 299
1182 299
1173 304
1163 304
1154 309
1145 314
1136 319
1126 319
1117 324
1107 324
1097 329
1087 329
1077 329
1067 334
1057 334
1047 334
1037 334
1027 334
1017 334
1007 334
997 334
987 334
977 334
967 334
957 334
947 334
937 334
927 334
917 334
908 329
898 326
889 321
879 317
872 309
862 305
855 297
847 290
838 285
830 278
823 270
813 266
804 261
794 259
784 259
774 259
764 259
754 259
744 259
734 259
724 262
714 264
704 264
694 264
684 264
674 264
664 264
654 267
644 269
634 272
624 274
614 277
619 286
619 296
619 306
624 315
627 325
632 334
634 344
634 354
634 364
629 377
623 389
615 396
605 401
597 409
588 414
580 421
572 429
562 434
554 442
544 447
