389 352
389 342
397 334
405 326
415 321
425 316
435 311
445 306
453 299
457 289
465 281
473 274
477 264
485 256
493 249
500 241
508 234
517 229
525 221
529 202
529 192
534 182
542 174
544 162
549 147
549 137
554 127
562 119
570 111
580 106
590 104
600 104
610 104
620 104
630 107
639 112
647 119
654 127
659 136
663 146
673 149
682 144
692 139
702 139
712 139
721 144
730 149
738 155
745 163
750 172
750 182
750 192
755 201
750 210
745 220
745 230
747 240
755 247
755 257
760 266
760 276
760 286
755 295
750 310
750 320
750 330
743 343
735 350
730 360
725 370
725 380
718 388
708 393
698 398
690 405
683 413
675 420
670 430
670 440
665 450
665 460
665 470
665 480
665 490
665 500
665 510
670 519
670 529
670 539
670 549
670 559
675 568
680 577
684 587
685 597
690 606
696 614
704 621
710 629
720 632
730 634
739 629
748 624
757 619
765 611
773 604
774 592
779 582
784 572
789 562
789 552
789 542
794 532
794 522
794 512
794 502
799 492
799 482
804 472
804 462
804 452
804 442
809 427
814 417
819 402
824 392
829 382
837 374
842 364
850 356
858 349
865 341
873 334
882 329
892 329
902 329
911 324
921 324
931 324
941 324
951 324
961 324
971 324
980 329
988 335
997 340
1005 347
1012 355
1020 362
1025 371
1031 379
1035 389
1035 399
1040 408
1045 417
1045 427
1045 437
1045 447
1050 456
1045 465
1045 475
1045 485
1045 495
1045 505
1045 515
1045 525
1045 535
1050 544
1055 553
1055 563
1063 569
1072 564
1079 552
1079 542
1084 532
1084 522
1084 512
1084 502
1084 492
1084 482
1084 472
1084 462
1084 452
1089 437
1089 427
1094 412
1099 402
1104 387
1109 377
1114 367
1114 357
1122 349
1132 344
1142 344
1152 344
1161 339
1171 339
1181 339
1190 334
1200 337
1210 339
1220 339
1229 344
1239 346
1249 349
1257 355
1265 362
1270 371
1275 380
1280 389
1285 398
1285 408
1293 415
1295 425
1295 435
1295 445
1297 455
1295 465
1295 475
1295 485
1295 495
1295 505
1295 515
1295 525
1295 535
1295 545
1295 555
1295 565
1290 575
1290 585
1290 595
1295 604
1300 613
1308 620
1315 628
1310 645
1312 655
1317 664
1320 674
1325 683
1330 692
1334 702
1335 712
1339 722
1340 732
1344 742
1345 752
1349 762
1350 772
1350 782
1355 791
1355 801
1355 811
1360 820
1362 830
1365 840
1365 850
1370 859
1375 868
1380 877
1380 887
1385 896
1385 906
1390 915
1390 925
1392 935
1395 945
1395 955
1395 965
1395 980
1395 990
1397 1000
1400 1010
1400 1020
1402 1030
1407 1039
1410 1049
1418 1055
1422 1065
1430 1072
1438 1079
1448 1080
1457 1085
1465 1092
1472 1100
1480 1107
1484 1117
1485 1127
1489 1137
1490 1147
1490 1157
1490 1167
1490 1177
1495 1186
1500 1195
1495 1205
1485 1210
1475 1210
1465 1215
1456 1220
1446 1220
1436 1218
1426 1215
1416 1215
1406 1213
1396 1210
1386 1208
1376 1205
1367 1200
1360 1192
1354 1184
1349 1175
1349 1165
1349 1155
1344 1146
1344 1136
1344 1126
1339 1117
1339 1107
1344 1097
1344 1087
1344 1077
1344 1067
1344 1057
1349 1043
1349 1033
1349 1023
1349 1013
1349 1003
1349 993
1349 983
1349 973
1349 963
1349 953
1349 943
1349 933
1349 923
1343 915
1334 910
1325 915
1320 930
1320 940
1315 950
1310 960
1310 970
1305 980
1305 990
1300 1005
1300 1015
1300 1025
1300 1035
1300 1045
1300 1055
1300 1065
1300 1075
1305 1084
1302 1094
1294 1100
1285 1105
1285 1115
1285 1125
1287 1135
1290 1145
1295 1154
1295 1164
1300 1173
1305 1182
1305 1192
1305 1202
1300 1215
1295 1230
1290 1240
1283 1253
1275 1260
1270 1270
1268 1283
1260 1290
1253 1298
1248 1308
1240 1315
1235 1325
1230 1335
1225 1345
1220 1360
1215 1375
1210 1390
1205 1400
1200 1410
1195 1420
1195 1430
1197 1440
1200 1450
1200 1460
1200 1470
1200 1480
1198 1498
1190 1505
1183 1513
1175 1520
1175 1530
1175 1540
1170 1555
1170 1565
1164 1577
1154 1580
1145 1585
1135 1585
1125 1585
1115 1590
1105 1590
1095 1595
1085 1595
1075 1595
1066 1600
1056 1600
1046 1600
1036 1600
1026 1599
1017 1594
1009 1587
1002 1579
994 1572
994 1562
994 1552
1002 1544
1011 1539
1020 1534
1030 1534
1040 1534
1049 1529
1058 1524
1065 1516
1075 1511
1083 1504
1092 1499
1102 1494
1109 1477
1117 1469
1119 1457
1124 1447
1129 1432
1129 1422
1134 1407
1139 1397
1144 1387
1144 1377
1149 1367
1154 1352
1154 1342
1159 1332
1159 1322
1164 1312
1164 1302
1169 1287
1169 1277
1174 1266
1174 1256
1169 1247
1169 1231
1164 1222
1164 1212
1159 1203
1159 1193
1154 1184
1149 1175
1147 1165
1138 1160
1128 1163
1120 1170
1113 1178
1108 1188
1103 1198
1098 1208
1093 1218
1088 1228
1080 1235
1075 1250
1070 1260
1065 1275
1060 1290
1055 1305
1055 1315
1050 1325
1050 1335
1045 1345
1047 1355
1055 1362
1064 1367
1074 1369
1084 1371
1090 1379
1098 1385
1102 1395
1110 1402
1110 1412
1110 1422
1110 1432
1103 1448
1095 1455
1088 1463
1080 1470
1070 1475
1063 1483
1055 1490
1047 1499
1037 1500
1027 1499
1019 1492
1014 1483
1014 1473
1014 1463
1014 1453
1014 1443
1008 1435
1000 1428
993 1420
985 1413
979 1405
970 1400
962 1394
954 1387
954 1377
959 1367
964 1352
964 1342
969 1332
969 1322
974 1307
979 1297
984 1282
989 1272
994 1262
999 1247
1007 1239
1012 1229
1017 1219
1022 1209
1027 1199
1032 1189
1034 1178
1030 1168
1023 1160
1015 1153
1011 1143
1006 1134
1004 1124
1002 1114
997 1105
990 1097
985 1088
978 1080
968 1080
958 1080
948 1080
938 1080
928 1083
920 1090
915 1105
910 1120
903 1133
895 1140
888 1153
880 1160
873 1168
865 1175
860 1190
860 1200
860 1210
855 1220
855 1230
850 1240
850 1250
850 1260
850 1270
845 1285
845 1295
845 1305
845 1315
845 1325
840 1335
840 1345
835 1360
835 1370
830 1380
830 1390
825 1400
820 1415
820 1425
820 1435
820 1445
815 1455
815 1465
815 1475
810 1490
810 1500
810 1510
810 1520
812 1530
817 1539
820 1549
820 1559
820 1569
815 1585
805 1590
795 1595
786 1600
777 1605
767 1609
757 1610
747 1614
737 1615
727 1615
717 1615
707 1615
697 1615
688 1610
678 1610
669 1605
661 1598
651 1594
644 1586
639 1577
639 1567
647 1559
655 1551
663 1544
672 1539
680 1531
690 1526
698 1519
707 1514
717 1509
727 1504
736 1499
746 1495
756 1494
764 1482
764 1472
769 1462
769 1452
769 1442
774 1427
774 1417
774 1407
779 1392
779 1382
779 1372
779 1362
784 1352
784 1342
784 1332
784 1322
784 1312
789 1302
789 1292
789 1282
789 1272
789 1262
794 1250
794 1240
794 1230
789 1221
784 1212
784 1202
784 1192
784 1182
789 1171
789 1161
784 1152
779 1143
774 1134
769 1125
764 1116
759 1107
759 1097
754 1088
754 1078
754 1068
748 1060
738 1060
728 1063
720 1070
713 1078
705 1085
698 1093
690 1100
680 1105
670 1110
661 1115
651 1115
642 1120
632 1124
624 1130
614 1130
604 1130
594 1130
584 1130
575 1135
568 1143
560 1150
555 1160
555 1170
560 1179
568 1185
575 1193
583 1200
590 1208
595 1217
602 1225
610 1232
617 1240
625 1247
632 1255
640 1262
648 1269
657 1264
667 1259
677 1254
687 1254
697 1254
706 1249
714 1242
724 1239
734 1239
742 1245
750 1252
755 1261
755 1271
758 1281
760 1291
760 1301
760 1311
760 1321
755 1335
747 1344
739 1350
729 1350
720 1355
710 1355
700 1360
690 1360
681 1365
671 1365
662 1360
652 1359
642 1355
635 1347
625 1343
619 1335
610 1330
602 1324
594 1317
587 1309
579 1302
575 1292
567 1285
560 1277
552 1270
545 1262
540 1253
534 1245
529 1236
524 1227
520 1217
512 1210
505 1202
495 1200
486 1205
476 1203
466 1199
459 1191
454 1182
454 1172
462 1164
467 1154
472 1144
477 1134
485 1126
493 1119
497 1109
505 1101
513 1094
520 1086
524 1072
529 1062
534 1052
539 1042
544 1032
552 1024
559 1007
564 995
559 986
554 977
554 967
549 958
542 950
532 950
523 945
515 938
509 930
509 920
509 910
509 900
507 890
498 885
489 880
484 871
484 861
484 851
484 841
479 832
479 822
479 812
479 802
484 787
489 777
494 767
494 757
494 747
494 737
499 727
499 717
499 707
499 697
499 687
499 677
504 667
504 657
504 647
504 637
509 622
509 612
509 602
509 592
514 582
514 572
514 562
519 552
519 542
519 532
519 522
524 512
524 502
529 493
529 483
523 475
513 475
504 480
494 480
485 475
475 475
465 475
455 475
446 470
437 465
428 460
420 453
414 445
412 435
409 425
409 415
409 405
409 395
409 385
409 375
401 369
394 361
