454 732
454 722
459 712
467 704
472 694
477 684
485 676
493 669
502 664
512 659
522 654
532 649
542 644
552 644
562 644
572 639
582 639
592 639
602 639
612 639
622 639
632 639
642 639
652 639
662 639
672 639
682 639
691 634
701 634
710 629
720 629
730 629
729 612
734 602
742 594
752 589
762 589
771 594
781 594
791 594
800 589
809 584
818 579
828 579
837 574
846 569
856 565
866 564
875 569
884 574
894 572
894 562
899 552
904 542
909 532
917 524
924 512
932 504
937 494
942 484
951 479
960 474
969 469
979 469
989 469
999 469
1009 469
1018 464
1028 464
1038 464
1048 464
1058 464
1068 464
1078 464
1088 464
1098 464
1108 465
1118 469
1128 470
1138 474
1147 479
1157 479
1167 479
1176 484
1186 484
1195 489
1205 489
1214 494
1220 502
1225 511
1230 520
1235 529
1235 539
1240 548
1240 558
1240 568
1245 577
1250 586
1256 594
1264 601
1268 611
1275 619
1285 619
1295 619
1305 619
1315 619
1325 619
1335 622
1345 624
1355 624
1365 624
1375 624
1384 629
1394 629
1404 629
1413 634
1422 639
1430 645
1435 654
1435 664
1440 673
1445 682
1452 690
1450 705
1443 713
1435 720
1435 730
1435 740
1435 750
1435 760
1430 775
1425 785
1420 795
1416 805
1407 810
1398 815
1388 818
1378 823
1370 830
1370 840
1370 850
1370 860
1365 875
1355 885
1345 890
1336 895
1327 900
1317 904
1307 905
1298 910
1288 910
1278 910
1268 910
1259 905
1249 902
1245 892
1240 883
1234 875
1224 875
1214 875
1204 875
1194 875
1184 875
1174 875
1164 877
1154 880
1144 880
1135 885
1125 885
1115 885
1105 885
1096 890
1086 890
1076 890
1067 895
1057 895
1048 900
1038 903
1030 910
1030 920
1025 935
1017 944
1007 949
999 955
990 960
980 960
971 965
961 965
951 965
941 965
932 960
925 952
917 945
910 937
905 928
904 918
904 908
900 898
899 888
899 878
899 868
893 860
883 860
874 865
865 870
858 878
850 885
844 895
835 900
825 900
815 905
806 910
796 910
786 910
777 915
767 915
757 915
747 915
737 915
727 915
717 915
707 915
697 915
687 915
677 915
667 915
657 915
648 910
638 910
628 910
618 910
608 910
598 913
590 920
580 925
570 930
560 930
551 935
541 935
531 935
521 934
512 929
504 922
499 913
494 904
489 895
489 885
484 876
484 866
484 856
484 846
484 836
484 826
484 816
484 806
484 796
479 787
479 777
474 768
470 758
464 750
459 741
