509 747
509 737
514 727
522 719
532 714
541 709
550 704
559 699
568 694
578 694
587 689
597 689
607 689
617 689
627 689
637 689
647 689
657 689
667 689
677 689
687 689
697 684
707 684
717 684
727 684
737 679
742 669
747 659
757 654
766 659
775 664
785 664
795 661
803 654
810 646
818 639
827 634
837 634
847 634
857 634
867 634
877 634
887 634
889 622
889 612
894 597
899 582
904 572
912 564
920 556
930 551
940 549
950 549
960 549
970 549
980 549
990 549
1000 549
1009 554
1019 554
1029 554
1039 556
1049 559
1059 559
1069 559
1079 559
1089 559
1099 559
1108 564
1118 564
1128 564
1138 564
1148 564
1157 569
1167 569
1174 577
1180 585
1180 595
1180 605
1180 615
1180 625
1180 635
1180 645
1182 655
1187 664
1196 669
1206 669
1216 669
1226 669
1236 669
1246 665
1256 664
1266 664
1276 664
1286 664
1296 664
1306 664
1316 664
1326 664
1336 664
1345 669
1353 675
1360 683
1370 687
1377 695
1382 704
1385 714
1380 725
1378 738
1373 748
1368 758
1363 768
1355 775
1350 785
1345 795
1345 805
1340 820
1335 830
1330 840
1320 845
1310 850
1300 850
1290 850
1285 860
1280 870
1275 880
1270 895
1270 905
1270 915
1265 925
1260 935
1252 944
1242 945
1232 945
1222 945
1212 944
1202 940
1199 930
1191 923
1185 915
1175 915
1165 915
1155 915
1145 915
1135 915
1125 915
1115 915
1105 915
1095 915
1085 915
1075 915
1065 915
1055 915
1045 915
1035 915
1025 915
1015 915
1005 915
995 915
994 932
989 942
984 952
976 960
967 965
958 970
949 975
940 980
930 980
920 977
910 973
903 965
894 960
886 954
879 946
871 940
861 940
851 938
841 935
831 935
821 933
811 930
801 930
791 930
782 925
772 924
762 920
753 915
743 915
733 915
723 915
713 915
703 915
694 910
684 910
674 910
664 910
654 910
644 910
635 915
630 925
625 935
615 945
606 950
596 950
586 950
577 945
568 940
560 933
554 925
546 919
539 911
534 902
529 893
529 883
524 874
524 864
524 854
519 845
519 835
519 825
514 816
514 806
514 796
514 786
509 777
509 767
509 757
