369 757
369 747
374 737
384 732
392 724
402 719
412 719
422 714
432 714
434 702
444 697
454 694
464 694
474 694
484 694
494 694
504 694
514 694
524 694
534 694
544 694
554 694
564 692
574 689
584 689
594 689
604 689
613 684
620 676
628 669
637 664
647 659
657 654
667 649
677 649
686 644
696 644
705 649
715 652
725 654
735 654
744 647
744 637
749 627
754 617
762 609
767 599
775 591
783 584
792 579
801 574
811 574
821 574
831 574
841 570
851 569
861 569
871 569
881 569
891 569
901 569
911 569
921 569
931 569
941 569
951 569
961 569
971 569
981 569
990 574
998 580
1005 588
1010 597
1014 607
1019 616
1020 626
1020 636
1020 646
1025 655
1030 664
1038 670
1048 674
1057 679
1067 679
1077 679
1087 679
1097 679
1106 684
1116 684
1125 689
1135 689
1144 694
1154 694
1164 696
1174 699
1184 699
1192 705
1200 712
1200 722
1200 732
1200 742
1200 752
1200 762
1200 772
1195 790
1190 800
1183 813
1178 823
1170 830
1164 840
1155 845
1145 845
1135 850
1130 860
1130 870
1130 880
1125 890
1117 904
1107 909
1097 914
1087 915
1077 915
1067 915
1057 915
1047 915
1038 910
1030 903
1029 893
1023 885
1014 880
1004 880
994 880
984 880
974 880
964 880
954 880
944 880
934 880
924 880
914 880
904 880
894 880
884 880
874 880
864 880
854 880
844 880
835 885
825 890
818 898
810 905
802 919
797 929
788 935
779 940
770 945
760 945
750 942
740 940
731 935
722 930
714 924
709 915
709 905
707 895
697 895
687 895
678 890
668 890
658 890
648 890
638 890
628 890
618 890
608 890
598 890
588 890
578 890
568 890
558 890
548 890
538 890
528 890
518 890
508 890
498 890
488 890
478 890
468 890
458 890
448 890
439 895
429 897
419 900
409 897
402 889
397 880
394 870
394 860
394 850
394 840
394 830
394 820
386 813
381 804
374 796
369 787
369 777
369 767
