694 1002
689 1017
694 1026
701 1034
711 1038
721 1035
729 1027
734 1017
744 1015
754 1015
763 1020
769 1028
769 1038
769 1048
774 1057
774 1067
779 1076
784 1085
790 1093
800 1097
804 1107
809 1116
814 1125
817 1135
827 1139
829 1149
829 1159
829 1169
829 1179
824 1192
819 1207
812 1219
804 1227
799 1237
794 1247
789 1262
789 1272
789 1282
794 1291
804 1295
813 1300
823 1300
833 1300
843 1300
852 1295
860 1285
865 1275
865 1265
865 1255
870 1245
870 1235
870 1225
870 1215
875 1200
875 1190
875 1180
883 1173
890 1165
900 1160
909 1155
918 1150
927 1145
937 1145
947 1145
957 1145
967 1145
977 1145
987 1145
997 1145
1005 1152
1009 1162
1009 1172
1009 1182
1014 1191
1014 1201
1014 1211
1014 1221
1014 1231
1009 1247
1009 1257
1004 1267
1004 1277
1004 1287
1009 1296
1016 1304
1024 1310
1034 1310
1044 1310
1054 1310
1064 1310
1074 1310
1084 1310
1094 1310
1104 1307
1114 1302
1122 1294
1127 1284
1130 1265
1125 1256
1125 1246
1120 1237
1115 1228
1110 1219
1105 1210
1105 1200
1105 1190
1105 1180
1105 1170
1115 1170
1125 1170
1135 1170
1145 1170
1155 1170
1154 1187
1154 1197
1149 1207
1149 1217
1144 1232
1144 1242
1144 1252
1149 1261
1154 1270
1157 1280
1167 1284
1175 1290
1184 1295
1194 1295
1203 1300
1210 1308
1218 1315
1227 1320
1236 1325
1246 1325
1255 1330
1265 1330
1275 1330
1285 1330
1295 1330
1304 1325
1312 1319
1320 1305
1325 1295
1330 1280
1335 1265
1335 1255
1335 1245
1335 1235
1335 1225
1335 1215
1345 1215
1355 1215
1365 1215
1375 1215
1385 1215
1395 1215
1405 1215
1415 1215
1425 1215
1435 1215
1445 1215
1455 1215
1465 1215
1475 1215
1485 1215
1495 1215
1501 1223
1509 1230
1509 1240
1512 1250
1517 1259
1521 1269
1524 1279
1526 1289
1529 1299
1535 1307
1542 1315
1552 1319
1562 1320
1572 1320
1582 1320
1592 1320
1602 1320
1612 1320
1622 1320
1632 1320
1642 1320
1652 1320
1662 1320
1671 1315
1681 1315
1690 1310
1698 1303
1705 1295
1713 1288
1720 1275
1725 1265
1730 1255
1735 1245
1735 1235
1735 1225
1740 1212
1740 1202
1740 1192
1740 1182
1740 1172
1740 1162
1740 1152
1739 1142
1732 1134
1724 1127
1715 1122
1705 1118
1705 1108
1700 1099
1700 1089
1700 1079
1700 1069
1700 1059
1700 1049
1700 1039
1695 1030
1687 1024
1678 1019
1669 1014
1659 1014
1649 1014
1639 1014
1629 1014
1619 1012
1610 1007
1600 1004
1590 1004
1581 999
1572 994
1562 994
1552 990
1543 985
1535 979
1530 970
1522 964
1513 959
1504 954
1494 954
1484 957
1474 962
1469 972
1464 982
1459 992
1459 1002
1459 1012
1454 1022
1450 1036
1442 1044
1437 1054
1429 1062
1422 1074
1417 1084
1408 1089
1398 1089
1388 1089
1378 1089
1368 1089
1358 1085
1350 1079
1345 1070
1340 1061
1340 1051
1340 1041
1338 1031
1335 1021
1335 1011
1335 1001
1335 991
1330 982
1330 972
1325 963
1325 953
1320 944
1320 934
1317 924
1312 915
1308 905
1300 899
1294 891
1286 884
1277 879
1267 884
1259 892
1254 902
1249 917
1244 932
1244 942
1249 951
1249 961
1249 971
1249 981
1245 991
1238 999
1230 1006
1222 1014
1217 1024
1209 1032
1204 1042
1199 1052
1199 1062
1199 1072
1199 1082
1199 1092
1190 1104
1180 1104
1170 1104
1160 1104
1150 1104
1140 1104
1130 1104
1120 1104
1110 1104
1100 1103
1100 1093
1100 1083
1100 1073
1095 1064
1095 1054
1095 1044
1090 1035
1085 1026
1080 1017
1072 1010
1063 1005
1053 1004
1043 1004
1033 1004
1023 1004
1013 1004
1003 1004
993 1004
983 1004
973 1004
963 1004
953 1004
944 999
934 999
925 994
915 994
905 994
895 994
886 989
876 989
866 989
857 984
847 984
839 977
835 967
827 960
820 952
812 945
804 939
795 934
785 934
775 932
765 929
755 929
745 931
735 936
727 944
719 952
714 962
709 972
704 982
699 992
