404 1007
404 997
409 987
414 977
422 969
427 959
432 949
442 944
447 934
456 929
465 924
475 924
484 929
494 929
503 934
513 934
522 939
532 939
539 947
547 954
557 954
564 962
572 969
581 974
590 979
599 984
607 990
617 994
626 999
636 999
646 999
656 999
666 999
676 999
686 999
696 999
705 994
715 994
725 994
734 989
744 987
754 984
764 984
773 979
783 979
793 980
802 985
807 994
810 1004
815 1013
820 1022
824 1032
825 1042
829 1052
834 1061
835 1071
838 1081
848 1084
858 1084
868 1084
878 1084
888 1084
898 1084
908 1084
918 1084
927 1079
924 1067
929 1052
929 1042
929 1032
934 1022
939 1012
944 1002
952 994
962 989
972 984
981 979
990 974
999 969
1008 964
1009 950
1009 940
1009 930
1009 920
1009 910
1004 901
999 892
999 882
999 872
1007 864
1017 864
1027 864
1036 869
1044 876
1050 884
1058 890
1062 900
1065 910
1067 920
1070 930
1072 940
1075 950
1075 960
1077 970
1085 977
1092 985
1097 994
1100 1004
1105 1013
1105 1023
1105 1033
1105 1043
1105 1053
1105 1063
1105 1073
1110 1082
1110 1092
1120 1094
1130 1094
1140 1094
1149 1089
1158 1084
1167 1079
1172 1069
1177 1059
1179 1047
1179 1037
1179 1027
1184 1017
1192 1009
1202 1004
1212 999
1222 999
1231 994
1239 986
1239 976
1239 966
1239 956
1234 947
1234 937
1234 927
1242 919
1251 914
1261 914
1270 919
1280 922
1289 927
1297 934
1304 942
1310 950
1315 959
1320 968
1325 977
1330 986
1340 989
1350 989
1360 989
1370 989
1380 989
1390 992
1399 997
1404 1006
1405 1016
1405 1026
1405 1036
1405 1046
1405 1056
1405 1066
1405 1076
1405 1086
1405 1096
1414 1101
1423 1106
1430 1114
1438 1120
1442 1130
1447 1139
1450 1149
1455 1158
1460 1167
1464 1177
1465 1187
1465 1197
1465 1207
1465 1217
1465 1227
1465 1237
1465 1247
1465 1257
1460 1270
1458 1283
1453 1293
1448 1303
1440 1310
1430 1315
1421 1320
1412 1325
1402 1325
1392 1325
1382 1324
1372 1320
1362 1320
1352 1320
1342 1319
1332 1315
1322 1315
1313 1310
1305 1303
1298 1295
1290 1288
1284 1280
1279 1271
1274 1262
1270 1252
1265 1243
1264 1233
1264 1223
1257 1215
1247 1219
1237 1220
1227 1224
1217 1225
1207 1225
1197 1225
1187 1225
1177 1225
1167 1225
1157 1225
1147 1225
1137 1225
1127 1224
1119 1217
1114 1208
1114 1198
1114 1188
1114 1178
1110 1168
1109 1158
1106 1148
1101 1139
1097 1129
1089 1122
1085 1112
1075 1110
1065 1110
1055 1110
1045 1115
1045 1125
1045 1135
1045 1145
1045 1155
1047 1165
1050 1175
1050 1185
1052 1195
1055 1205
1055 1215
1055 1225
1055 1235
1055 1245
1050 1255
1047 1269
1042 1279
1037 1289
1029 1295
1020 1300
1010 1300
1000 1300
990 1300
981 1295
971 1295
961 1293
951 1290
941 1290
931 1290
922 1285
913 1280
905 1273
899 1265
894 1256
889 1247
884 1238
884 1228
884 1218
884 1208
884 1198
884 1188
884 1178
879 1169
879 1159
879 1149
874 1140
874 1130
865 1125
855 1125
845 1125
835 1125
825 1125
815 1125
805 1125
795 1125
785 1125
785 1135
785 1145
785 1155
785 1165
785 1175
785 1185
785 1195
785 1205
783 1223
778 1233
770 1240
762 1250
752 1254
744 1247
739 1238
739 1228
739 1218
739 1208
739 1198
739 1188
739 1178
739 1168
739 1158
739 1148
739 1138
739 1128
732 1120
722 1120
712 1120
702 1120
692 1120
682 1120
672 1120
662 1124
652 1125
642 1125
633 1130
623 1130
613 1133
603 1138
593 1143
585 1150
578 1158
570 1165
563 1173
555 1180
555 1190
555 1200
550 1210
545 1220
543 1238
535 1245
526 1250
516 1250
506 1250
496 1250
486 1249
479 1241
474 1232
479 1222
484 1207
489 1197
497 1189
504 1172
509 1162
517 1154
519 1141
519 1131
519 1121
519 1111
519 1101
519 1091
519 1081
514 1072
514 1062
514 1052
514 1042
509 1033
509 1023
509 1013
502 1005
492 1009
482 1010
473 1015
463 1018
455 1025
446 1030
436 1030
426 1028
416 1024
409 1016
