549 1002
552 1019
560 1025
570 1025
580 1015
588 1008
598 1005
608 1005
614 1013
615 1023
620 1032
629 1037
634 1046
634 1056
634 1066
634 1076
634 1086
641 1094
649 1100
654 1109
654 1119
654 1129
654 1139
654 1149
654 1159
654 1169
654 1179
654 1189
654 1199
654 1209
654 1219
649 1237
644 1247
647 1269
655 1275
665 1275
675 1275
685 1270
695 1260
700 1245
700 1235
700 1225
700 1215
700 1205
700 1195
700 1185
700 1175
700 1165
700 1155
700 1145
700 1135
710 1130
720 1130
730 1130
740 1130
750 1130
759 1135
769 1135
779 1135
789 1135
799 1135
809 1135
819 1135
829 1135
839 1135
845 1143
849 1153
849 1163
849 1173
849 1183
849 1193
849 1203
849 1213
849 1223
849 1233
849 1243
849 1253
850 1263
858 1270
867 1275
877 1275
887 1275
897 1279
907 1279
915 1270
920 1260
925 1245
930 1235
930 1225
930 1215
930 1205
930 1195
930 1185
930 1175
930 1165
930 1155
930 1145
940 1145
950 1145
960 1145
970 1145
980 1145
989 1150
995 1158
999 1168
999 1178
999 1188
999 1198
1000 1208
1004 1218
1004 1228
1005 1238
1009 1248
1010 1258
1015 1267
1022 1275
1030 1282
1037 1290
1045 1297
1052 1305
1062 1305
1071 1310
1081 1310
1090 1305
1100 1300
1108 1293
1115 1280
1120 1265
1125 1255
1130 1240
1135 1230
1140 1215
1140 1205
1140 1195
1140 1185
1140 1175
1140 1165
1140 1155
1149 1150
1158 1145
1168 1145
1178 1145
1187 1150
1196 1155
1204 1161
1211 1169
1219 1175
1219 1185
1222 1195
1227 1204
1234 1212
1244 1215
1254 1215
1264 1215
1274 1215
1284 1215
1294 1215
1304 1215
1314 1215
1324 1215
1333 1220
1340 1228
1348 1235
1354 1243
1359 1252
1367 1259
1374 1267
1379 1276
1384 1285
1390 1293
1400 1297
1409 1302
1419 1305
1429 1305
1439 1305
1448 1310
1458 1310
1468 1310
1478 1310
1488 1310
1498 1310
1508 1310
1518 1308
1528 1303
1535 1295
1543 1288
1548 1278
1553 1268
1558 1258
1563 1248
1568 1238
1570 1220
1575 1205
1575 1195
1575 1185
1575 1175
1575 1165
1570 1156
1565 1147
1557 1140
1550 1132
1542 1125
1535 1117
1535 1107
1530 1098
1530 1088
1530 1078
1530 1068
1525 1059
1525 1049
1525 1039
1525 1029
1525 1019
1520 1010
1520 1000
1514 992
1507 984
1497 984
1487 984
1477 984
1467 984
1457 984
1447 984
1439 977
1430 972
1422 965
1418 955
1410 949
1403 941
1394 936
1384 934
1374 934
1364 937
1354 942
1349 952
1349 962
1342 974
1332 974
1322 974
1312 979
1302 984
1297 994
1292 1004
1284 1012
1279 1022
1274 1037
1267 1054
1263 1064
1255 1071
1250 1081
1243 1089
1233 1089
1223 1089
1215 1082
1210 1073
1210 1063
1205 1054
1205 1044
1200 1035
1197 1025
1193 1015
1188 1006
1184 996
1179 987
1175 977
1175 967
1175 957
1174 947
1170 937
1162 930
1155 922
1155 912
1155 902
1150 893
1150 883
1150 873
1145 864
1136 859
1126 859
1117 864
1112 874
1104 882
1099 892
1099 902
1104 911
1104 921
1109 930
1112 940
1114 950
1114 960
1109 972
1101 979
1092 984
1082 989
1074 997
1069 1007
1064 1017
1064 1027
1064 1037
1064 1047
1064 1057
1064 1067
1058 1079
1050 1086
1042 1094
1034 1102
1024 1104
1014 1104
1004 1104
994 1104
984 1104
974 1104
964 1104
954 1104
945 1099
945 1089
945 1079
945 1069
945 1059
945 1049
939 1041
931 1034
921 1034
912 1029
902 1025
894 1019
885 1014
876 1009
866 1009
856 1009
846 1009
836 1009
826 1009
816 1009
806 1009
796 1009
786 1009
777 1004
767 1004
757 1004
747 1004
737 1004
727 1004
717 1004
709 997
702 989
697 980
688 975
680 969
674 961
669 952
660 947
652 940
643 935
633 934
624 929
615 924
605 924
596 929
587 934
582 944
577 954
572 964
567 974
562 984
557 994
