144 267
144 257
149 242
154 232
162 224
172 224
182 224
192 224
201 219
211 219
221 219
231 219
241 219
251 219
261 219
271 219
281 219
291 219
301 219
311 219
321 219
331 219
341 219
351 219
361 215
371 214
381 214
391 214
401 214
411 214
421 214
431 214
441 214
451 214
461 210
471 209
480 204
490 204
500 204
509 209
519 209
529 209
539 209
549 209
559 209
569 209
579 209
589 209
599 209
609 209
619 209
629 209
639 209
649 209
659 209
669 209
679 209
689 209
699 209
709 209
719 209
729 209
739 209
749 209
759 209
769 209
779 209
789 209
799 209
809 209
819 209
829 209
839 211
849 214
859 214
869 214
879 214
889 214
899 214
909 214
919 214
929 214
939 214
949 214
959 214
969 214
979 214
989 214
999 214
1009 214
1019 214
1029 214
1039 214
1049 214
1059 214
1069 214
1079 214
1089 214
1099 214
1109 214
1119 214
1129 214
1139 214
1149 214
1159 214
1169 214
1179 214
1189 214
1199 214
1209 214
1219 214
1229 214
1239 214
1249 214
1259 214
1269 216
1279 219
1289 219
1299 219
1309 219
1319 219
1329 219
1339 219
1349 219
1359 219
1369 219
1379 217
1389 214
1399 214
1409 214
1419 214
1429 214
1439 214
1449 214
1459 214
1469 214
1479 214
1489 214
1499 214
1509 214
1519 214
1529 214
1539 214
1549 216
1559 219
1568 214
1578 214
1588 214
1598 215
1608 219
1618 219
1627 214
1637 214
1647 214
1657 214
1667 214
1677 214
1687 214
1697 214
1707 214
1717 214
1727 214
1737 214
1746 219
1756 219
1766 219
1776 219
1786 219
1796 219
1806 219
1816 219
1825 224
1835 224
1845 224
1855 224
1865 224
1875 224
1885 224
1895 224
1905 224
1915 224
1925 224
1935 224
1945 224
1955 224
1965 224
1975 224
1985 224
1995 224
2005 224
2015 224
2025 224
2035 224
2045 224
2055 224
2065 224
2075 224
2085 224
2095 224
2105 224
2115 224
2125 224
2135 224
2145 224
2155 224
2165 224
2174 229
2184 231
2193 236
2200 244
2205 253
2205 263
2210 272
2210 282
2205 295
2205 305
2205 315
2205 325
2205 335
2205 345
2205 355
2205 365
2205 375
2205 385
2205 395
2205 405
2205 415
2205 425
2205 435
2205 445
2205 455
2205 465
2205 475
2205 485
2205 495
2205 505
2205 515
2205 525
2205 535
2205 545
2205 555
2205 565
2205 575
2205 585
2205 595
2205 605
2205 615
2205 625
2205 635
2205 645
2205 655
2205 665
2205 675
2205 685
2205 695
2205 705
2205 715
2205 725
2205 735
2205 745
2205 755
2205 765
2205 775
2205 785
2205 795
2205 805
2200 820
2190 830
2181 835
2172 840
2162 840
2152 840
2142 840
2132 840
2122 840
2112 840
2102 840
2092 840
2082 840
2072 840
2062 840
2052 840
2042 840
2032 840
2022 840
2012 840
2002 840
1992 840
1982 840
1972 840
1962 840
1952 840
1942 840
1932 840
1922 840
1912 840
1902 840
1892 840
1882 840
1872 840
1862 840
1852 840
1842 840
1832 840
1822 840
1812 840
1802 840
1792 840
1782 840
1772 840
1762 840
1752 840
1742 840
1732 840
1722 840
1712 840
1702 840
1692 840
1682 840
1672 840
1662 840
1652 840
1642 840
1632 840
1622 840
1612 840
1602 840
1592 840
1582 840
1572 840
1562 840
1552 840
1542 840
1532 840
1522 840
1512 840
1502 840
1492 840
1482 840
1472 840
1462 840
1452 840
1442 840
1432 840
1422 840
1412 840
1402 840
1392 840
1382 840
1373 835
1363 835
1353 835
1343 835
1333 835
1323 835
1313 835
1303 835
1293 835
1283 835
1273 835
1263 835
1253 835
1243 835
1233 835
1223 835
1213 835
1203 835
1193 835
1183 835
1173 835
1163 835
1153 835
1144 840
1134 842
1124 845
1114 845
1104 845
1094 845
1084 845
1075 840
1065 840
1055 840
1045 840
1036 835
1027 830
1017 830
1007 830
997 834
987 839
977 840
967 840
957 840
947 840
938 845
928 845
918 845
909 840
899 840
889 837
880 832
870 830
860 830
850 830
840 830
830 830
820 830
810 830
800 830
790 830
780 830
770 830
760 830
750 830
740 830
730 830
720 830
710 830
700 830
690 830
680 830
670 830
660 830
650 830
640 827
630 825
620 825
610 825
600 825
590 825
580 822
570 820
560 820
551 815
542 810
533 805
524 800
514 797
507 789
499 782
492 774
484 767
480 757
474 749
469 740
467 730
464 720
459 711
459 701
459 691
459 681
459 671
454 662
454 652
454 642
454 632
454 622
454 612
454 602
454 592
454 582
454 572
454 562
454 552
459 542
459 532
459 522
459 512
459 502
459 492
459 482
459 472
459 462
459 452
459 442
459 432
459 422
459 412
459 402
464 391
464 381
464 371
464 361
464 351
459 342
455 332
445 330
435 330
425 327
415 325
405 325
395 325
385 325
375 325
365 325
355 325
345 325
335 325
325 325
316 320
306 320
296 320
286 320
276 320
266 320
256 320
246 320
236 318
226 315
216 315
206 315
196 315
187 310
177 310
167 309
157 305
154 295
149 286
144 277
