189 527
189 517
194 507
199 497
204 487
212 479
221 474
229 467
237 459
245 451
249 435
247 425
240 417
232 410
225 402
219 394
214 385
209 376
204 367
204 357
204 347
204 337
204 327
204 317
209 307
217 299
225 291
233 284
242 279
251 274
260 269
269 264
279 264
289 264
299 264
309 264
319 264
329 264
338 269
348 270
358 274
367 279
376 284
384 291
390 299
398 305
405 313
410 322
410 332
410 342
410 352
410 362
410 372
410 382
410 392
415 401
410 410
405 420
400 435
400 445
400 455
402 465
407 474
414 482
420 490
425 499
425 509
425 519
430 528
430 538
435 547
435 557
430 570
430 580
430 590
435 599
440 608
440 618
445 627
445 637
450 646
450 656
455 665
457 675
460 685
465 694
465 704
465 714
470 723
475 732
475 742
473 753
465 760
458 768
450 775
450 785
450 800
444 810
435 815
430 825
430 835
430 845
435 854
435 864
430 875
425 885
420 895
415 905
410 920
410 930
405 945
400 955
395 970
390 980
385 995
387 1005
395 1012
403 1019
412 1024
421 1029
431 1029
441 1029
450 1034
458 1040
465 1048
465 1058
457 1069
447 1074
437 1079
427 1084
417 1089
407 1094
397 1095
387 1095
377 1095
367 1095
357 1095
347 1095
337 1095
328 1090
318 1090
309 1085
299 1085
289 1085
281 1079
274 1071
269 1062
269 1052
269 1042
274 1032
279 1014
277 1004
272 995
269 985
264 976
264 966
259 957
259 947
259 937
259 927
259 917
264 907
269 897
274 884
274 874
274 864
271 854
264 846
256 840
247 835
240 827
234 819
229 810
229 800
224 791
224 781
219 772
219 762
219 752
219 742
219 732
214 723
214 713
209 704
206 694
204 684
199 675
199 665
199 655
194 646
194 636
194 626
194 616
194 606
194 596
194 586
189 577
189 567
189 557
189 547
189 537
