184 532
184 522
189 512
194 502
199 492
207 484
215 476
225 471
233 464
240 456
248 449
249 438
249 428
243 420
235 413
228 405
220 398
214 390
209 381
204 372
204 362
204 352
204 342
204 332
204 322
209 312
214 302
222 294
230 286
238 279
247 274
257 269
267 269
276 264
286 264
296 264
306 264
316 264
326 264
335 269
345 269
354 274
363 279
372 284
381 289
389 296
395 304
403 310
407 320
410 330
410 340
410 350
410 360
410 370
410 380
410 390
410 400
410 410
405 420
400 430
400 440
395 455
400 464
405 473
413 480
417 490
422 499
425 509
425 519
425 529
430 538
430 548
430 565
425 575
425 585
430 594
435 603
440 612
440 622
444 632
445 642
449 652
450 662
455 671
458 681
460 691
460 701
465 710
467 720
470 730
470 740
465 755
458 768
450 775
450 785
448 803
440 810
433 818
425 825
425 835
425 845
430 854
430 864
425 880
420 890
415 900
415 910
410 925
410 935
405 950
400 965
395 975
390 990
390 1000
395 1009
403 1015
412 1020
420 1027
429 1032
439 1034
449 1036
458 1041
460 1055
452 1064
443 1070
434 1075
425 1080
417 1089
407 1094
397 1095
387 1095
377 1095
367 1095
357 1095
347 1095
337 1095
328 1090
318 1090
309 1085
299 1085
289 1085
281 1079
274 1071
269 1062
269 1052
269 1042
274 1027
279 1014
274 1005
272 995
269 985
264 976
264 966
259 957
259 947
259 937
259 927
264 912
269 897
274 882
274 872
274 862
270 852
262 845
253 840
244 835
239 826
234 817
229 808
226 798
221 789
214 781
209 772
209 762
214 748
214 738
209 729
209 719
204 710
202 700
199 690
199 680
194 671
194 661
194 651
189 642
189 632
189 622
194 610
194 600
194 590
189 581
184 572
184 562
184 552
184 542
