194 532
194 522
199 512
204 502
209 492
217 484
225 476
233 469
240 461
245 451
249 441
249 431
244 422
237 414
229 407
224 398
219 389
214 380
209 371
209 361
204 352
204 342
204 332
209 322
209 312
214 302
222 294
230 286
240 281
248 274
257 269
267 264
277 264
287 264
297 264
307 264
317 264
326 269
336 269
346 269
355 274
363 280
372 285
380 292
389 297
397 304
400 314
405 323
410 332
410 342
410 352
410 362
410 372
410 382
410 392
410 410
405 425
400 435
400 445
395 455
400 464
405 473
413 480
417 490
422 499
425 509
425 519
425 529
430 538
435 547
435 557
430 570
430 580
432 590
437 599
440 609
445 618
450 627
450 637
454 647
455 657
460 666
463 676
468 685
470 695
472 705
477 714
480 724
485 733
480 750
473 763
465 770
465 780
463 798
455 805
448 813
438 818
430 825
430 835
430 845
430 855
430 865
430 875
425 885
420 895
415 905
415 915
415 925
410 940
405 955
400 970
395 985
390 1000
395 1009
404 1014
413 1019
422 1024
429 1032
439 1036
449 1039
459 1041
465 1049
465 1065
458 1073
448 1075
438 1075
429 1080
420 1085
412 1094
402 1095
392 1095
382 1095
372 1095
362 1095
352 1095
342 1095
333 1090
323 1090
313 1090
304 1085
294 1085
285 1080
277 1074
269 1067
269 1057
269 1047
274 1037
274 1027
279 1015
279 1005
277 995
274 985
269 976
269 966
264 957
264 947
264 937
264 927
269 917
274 907
279 897
284 882
284 872
284 862
280 852
272 845
265 837
257 830
254 820
249 811
244 802
244 792
239 783
234 774
234 764
231 754
229 744
229 734
226 724
224 714
224 704
224 694
219 685
217 675
214 665
214 655
209 646
204 637
204 627
209 610
207 600
204 590
199 581
194 572
194 562
194 552
194 542
