444 842
444 832
449 817
449 807
454 792
459 782
464 767
469 757
474 747
479 737
487 729
492 719
499 707
507 699
515 691
523 684
530 676
538 669
547 664
555 656
563 649
570 641
578 634
587 629
597 624
607 619
617 614
627 614
636 609
646 609
656 609
665 604
675 604
685 604
695 604
705 604
715 604
725 604
735 604
745 604
755 604
765 604
775 604
785 604
795 604
805 604
815 604
825 604
835 604
845 604
855 604
865 604
874 593
874 583
874 573
874 563
874 553
868 545
858 545
850 538
844 530
844 520
844 510
844 500
842 490
833 485
823 485
813 485
804 480
794 476
794 457
804 452
814 447
824 442
834 439
843 434
853 434
863 434
873 434
883 434
893 434
903 434
913 434
923 434
933 435
940 443
945 452
937 464
929 470
920 475
910 475
910 485
910 495
910 505
905 515
905 525
905 535
910 544
910 554
915 563
915 573
915 583
920 592
928 599
938 599
947 594
954 582
962 574
972 569
982 569
992 569
1002 569
1012 569
1022 569
1032 569
1042 569
1052 569
1062 569
1072 569
1079 577
1087 584
1090 594
1099 599
1109 599
1119 599
1129 599
1139 599
1149 599
1159 599
1169 599
1179 601
1185 609
1193 615
1202 620
1205 635
1197 645
1188 650
1179 655
1169 657
1159 660
1149 660
1140 665
1130 665
1130 675
1135 684
1145 684
1155 684
1165 684
1175 684
1185 684
1195 684
1205 684
1215 684
1225 684
1235 684
1245 684
1255 684
1265 684
1275 684
1285 684
1295 681
1305 679
1315 679
1325 679
1335 679
1345 679
1355 679
1365 679
1375 679
1385 679
1394 674
1404 674
1414 674
1423 669
1433 669
1443 669
1452 664
1462 664
1471 659
1481 659
1491 659
1501 659
1511 659
1521 659
1531 659
1539 666
1543 678
1538 688
1528 693
1518 698
1508 700
1498 700
1489 705
1479 705
1470 710
1460 710
1451 715
1441 715
1432 720
1422 720
1413 725
1404 730
1394 732
1384 735
1375 740
1365 740
1355 745
1345 750
1335 755
1325 760
1315 765
1305 770
1297 779
1287 784
1277 789
1267 794
1257 799
1247 800
1238 805
1229 810
1220 815
1211 820
1201 820
1192 825
1183 830
1174 835
1164 835
1155 840
1145 840
1135 845
1135 855
1135 865
1135 875
1140 884
1150 881
1160 879
1170 879
1180 879
1190 879
1198 885
1205 893
1205 903
1205 913
1200 930
1190 940
1180 945
1171 950
1161 950
1152 955
1142 959
1132 960
1122 960
1112 960
1102 960
1092 960
1082 960
1072 960
1062 960
1052 960
1042 960
1032 960
1022 960
1012 960
1002 960
992 960
982 964
972 969
964 975
955 980
955 990
955 1000
955 1010
955 1020
950 1030
943 1038
933 1040
923 1040
913 1040
903 1043
893 1045
883 1045
873 1045
863 1045
853 1045
843 1045
833 1045
823 1048
813 1050
803 1050
793 1050
783 1050
774 1055
764 1055
754 1055
744 1057
734 1060
724 1060
714 1062
704 1065
694 1065
684 1065
675 1070
665 1070
655 1070
646 1075
636 1075
627 1080
617 1080
607 1080
597 1084
587 1085
577 1085
567 1085
557 1085
547 1085
537 1085
527 1085
517 1084
507 1080
497 1080
488 1075
479 1070
474 1061
474 1042
482 1034
491 1029
500 1024
510 1021
519 1026
525 1034
530 1043
530 1053
538 1059
548 1059
558 1059
567 1054
577 1054
587 1054
597 1054
607 1054
617 1054
627 1054
637 1054
646 1049
655 1044
665 1041
674 1032
674 1022
679 1012
689 1005
689 995
686 985
676 985
666 985
656 985
646 985
636 985
626 985
616 985
606 985
596 985
586 985
576 985
566 985
556 983
546 980
536 980
526 980
516 980
507 975
497 974
487 970
477 970
468 965
460 958
454 950
449 941
449 931
444 922
444 912
444 902
444 892
444 882
444 872
444 862
444 852
