279 872
279 862
284 852
284 842
284 832
284 822
284 812
289 802
289 792
289 782
294 772
294 762
299 747
304 732
309 722
314 707
319 697
324 687
332 679
337 669
345 661
353 654
360 646
368 639
377 634
385 626
395 621
403 614
413 614
422 609
431 604
441 604
451 600
461 599
471 599
481 599
491 599
500 604
510 604
520 604
530 604
540 604
549 597
559 592
567 584
572 574
574 562
579 545
579 535
579 525
579 515
579 505
574 496
574 486
574 476
569 467
569 457
569 447
569 437
569 427
574 417
579 407
587 399
592 389
600 381
608 374
617 369
625 361
635 356
645 351
655 346
665 341
675 336
685 334
694 329
704 327
714 324
723 319
733 319
742 314
752 314
762 314
771 309
781 309
791 309
800 304
810 304
820 304
830 304
839 299
849 299
859 299
869 299
879 299
889 299
899 299
909 299
919 297
929 294
939 294
949 294
959 294
969 294
979 294
988 299
998 299
1008 299
1018 299
1028 299
1038 299
1048 299
1058 300
1068 304
1078 304
1088 304
1098 305
1108 309
1118 309
1128 310
1138 314
1148 314
1157 319
1167 319
1177 319
1186 324
1196 324
1205 329
1215 332
1225 334
1234 339
1244 341
1253 346
1263 349
1272 354
1281 359
1290 364
1300 367
1308 374
1317 379
1326 384
1334 391
1340 399
1348 405
1355 413
1360 422
1365 431
1370 440
1370 450
1370 460
1370 470
1370 480
1365 495
1365 505
1360 520
1355 535
1355 545
1350 560
1350 570
1350 580
1350 590
1350 600
1345 615
1345 625
1345 635
1340 645
1340 655
1335 670
1335 680
1330 690
1330 700
1325 710
1325 720
1325 730
1320 740
1320 750
1320 760
1320 770
1315 785
1315 795
1315 805
1310 820
1310 830
1310 840
1305 850
1305 860
1305 870
1305 880
1305 890
1305 900
1305 910
1305 920
1305 930
1305 940
1305 950
1305 960
1305 970
1305 980
1305 990
1305 1000
1305 1010
1305 1020
1305 1030
1305 1040
1305 1050
1305 1060
1305 1070
1300 1080
1300 1090
1300 1100
1300 1110
1300 1120
1300 1130
1305 1139
1305 1149
1305 1159
1305 1169
1305 1179
1300 1190
1300 1200
1300 1210
1295 1225
1295 1235
1295 1245
1295 1255
1295 1265
1295 1275
1295 1285
1295 1295
1295 1305
1295 1315
1295 1325
1295 1335
1295 1345
1295 1355
1295 1365
1290 1380
1285 1395
1280 1405
1273 1413
1265 1420
1258 1428
1250 1435
1243 1443
1235 1450
1225 1455
1217 1464
1207 1469
1199 1475
1190 1480
1181 1485
1171 1485
1162 1490
1153 1495
1143 1498
1133 1500
1124 1505
1114 1507
1104 1510
1094 1510
1085 1515
1075 1515
1065 1515
1055 1520
1045 1520
1035 1520
1026 1525
1016 1525
1006 1525
996 1525
986 1525
976 1525
966 1525
956 1525
946 1525
936 1525
926 1525
916 1525
906 1525
896 1525
886 1525
876 1523
866 1520
856 1520
847 1515
837 1515
827 1514
817 1510
807 1509
797 1505
787 1505
778 1500
769 1495
759 1495
750 1490
741 1485
731 1484
722 1479
712 1475
703 1470
694 1465
686 1459
677 1454
669 1447
660 1442
652 1435
645 1427
637 1420
630 1412
625 1403
619 1395
617 1385
614 1375
612 1365
609 1355
609 1345
609 1335
609 1325
609 1315
604 1306
604 1296
604 1286
604 1276
604 1266
604 1256
604 1246
599 1237
599 1227
599 1217
599 1207
599 1197
599 1187
599 1177
594 1168
594 1158
594 1148
594 1138
594 1128
594 1118
590 1108
589 1098
589 1088
589 1078
589 1068
589 1058
589 1048
589 1038
589 1028
589 1018
589 1008
589 998
589 988
589 978
589 968
589 958
589 948
589 938
589 928
589 918
589 908
589 898
589 888
584 879
584 869
579 860
574 851
569 842
565 832
559 824
554 815
549 806
544 797
539 788
534 779
534 769
529 760
529 750
529 740
524 731
519 722
514 713
507 705
498 700
489 695
480 690
470 690
460 690
450 690
440 695
430 700
422 709
414 715
405 720
398 733
390 740
385 750
380 760
375 770
370 785
365 800
365 810
360 820
360 830
360 840
355 850
355 860
355 870
350 880
350 890
350 900
350 910
350 920
350 930
345 940
345 950
345 960
345 970
345 980
345 990
345 1000
345 1010
347 1020
350 1030
350 1040
350 1050
350 1060
350 1070
352 1080
355 1090
355 1100
357 1110
360 1120
360 1130
365 1139
365 1149
370 1158
375 1167
375 1177
382 1185
387 1194
394 1202
402 1209
409 1217
419 1221
429 1224
438 1229
448 1229
458 1229
467 1224
477 1224
486 1219
495 1214
504 1207
512 1199
521 1194
531 1194
540 1199
548 1205
550 1215
555 1224
555 1234
555 1244
555 1254
560 1263
555 1280
550 1290
543 1298
535 1305
526 1310
517 1315
507 1315
497 1319
487 1320
477 1320
467 1320
457 1320
447 1319
437 1315
427 1314
417 1310
408 1305
399 1300
390 1295
382 1289
374 1282
367 1274
359 1267
352 1259
344 1252
340 1242
334 1234
329 1225
324 1216
319 1207
314 1198
310 1188
309 1178
304 1169
301 1159
299 1149
294 1140
294 1130
292 1120
289 1110
289 1100
289 1090
284 1081
284 1071
284 1061
284 1051
284 1041
279 1032
279 1022
279 1012
279 1002
279 992
279 982
279 972
279 962
279 952
279 942
279 932
279 922
279 912
279 902
279 892
279 882
