359 927
359 917
364 907
364 897
364 887
364 877
364 867
369 852
369 842
369 832
374 822
374 812
374 802
379 787
379 777
384 767
384 757
389 742
394 727
399 717
404 702
409 692
414 682
422 674
427 664
435 656
443 649
450 641
460 636
468 629
477 624
487 619
497 614
507 614
516 609
526 609
536 605
546 604
556 604
566 604
576 604
586 604
596 604
606 604
616 600
626 595
634 587
639 577
644 562
644 552
644 542
644 532
644 522
644 512
644 502
644 492
644 482
649 467
654 457
662 449
670 441
680 436
690 434
699 429
709 427
719 424
729 424
738 419
748 419
758 419
767 414
777 414
787 414
797 414
807 409
817 409
827 409
837 409
847 409
856 404
866 404
876 404
886 404
896 404
906 404
915 399
925 399
935 399
945 399
955 399
965 399
975 399
984 394
994 394
1004 394
1014 394
1024 394
1034 394
1044 394
1054 394
1064 394
1074 394
1084 394
1094 394
1104 394
1114 394
1124 394
1134 394
1144 394
1154 394
1164 394
1174 394
1184 396
1194 399
1204 399
1214 399
1224 399
1234 399
1244 399
1254 401
1264 404
1274 404
1284 404
1294 406
1304 409
1314 409
1323 414
1333 415
1342 420
1352 424
1359 432
1365 440
1370 449
1375 458
1375 468
1375 478
1375 488
1375 498
1380 507
1380 517
1380 527
1380 537
1380 547
1380 557
1380 567
1375 585
1375 595
1375 605
1375 615
1375 625
1377 635
1380 645
1380 655
1380 665
1380 675
1380 685
1382 695
1385 705
1385 715
1385 725
1385 735
1385 745
1385 755
1385 765
1385 775
1385 785
1385 795
1385 805
1385 815
1385 825
1385 835
1385 845
1385 855
1380 870
1380 880
1375 895
1375 905
1375 915
1375 925
1375 935
1375 945
1375 955
1380 964
1380 974
1380 984
1380 994
1380 1004
1380 1014
1380 1024
1380 1034
1380 1044
1380 1054
1380 1064
1380 1074
1380 1084
1380 1094
1375 1105
1375 1115
1370 1130
1370 1140
1370 1150
1365 1165
1365 1175
1365 1185
1365 1195
1365 1205
1365 1215
1365 1225
1365 1235
1365 1245
1365 1255
1370 1264
1370 1274
1370 1284
1375 1293
1375 1303
1375 1313
1375 1323
1370 1340
1370 1350
1365 1360
1360 1370
1355 1380
1348 1388
1340 1395
1333 1403
1323 1408
1313 1413
1303 1418
1293 1420
1284 1425
1274 1427
1264 1430
1255 1435
1245 1435
1235 1440
1226 1445
1216 1445
1207 1450
1197 1450
1188 1455
1178 1455
1168 1455
1159 1460
1149 1460
1139 1460
1129 1460
1119 1460
1109 1460
1100 1465
1090 1465
1080 1465
1070 1465
1060 1465
1050 1465
1040 1465
1030 1465
1020 1465
1010 1465
1001 1470
991 1470
981 1470
971 1470
961 1470
951 1470
941 1470
931 1470
921 1470
912 1465
902 1465
892 1465
882 1465
872 1465
863 1460
853 1460
844 1455
834 1455
825 1450
815 1450
806 1445
796 1445
787 1440
777 1440
768 1435
759 1430
750 1425
742 1419
734 1412
727 1404
719 1397
714 1388
709 1379
704 1370
704 1360
704 1350
704 1340
699 1331
699 1321
694 1312
694 1302
694 1292
689 1283
689 1273
689 1263
689 1253
685 1243
684 1233
684 1223
684 1213
684 1203
679 1194
679 1184
679 1174
679 1164
679 1154
674 1145
674 1135
674 1125
674 1115
672 1105
669 1095
669 1085
669 1075
669 1065
664 1056
664 1046
664 1036
664 1026
664 1016
664 1006
664 996
664 986
664 976
664 966
664 956
664 946
664 936
664 926
664 916
664 906
664 896
659 887
659 877
659 867
659 857
659 847
654 838
654 828
649 819
644 810
639 801
634 792
627 784
622 775
619 765
614 756
609 747
609 737
604 728
597 720
593 710
585 703
579 695
569 692
560 687
550 685
540 685
530 685
520 690
510 695
500 700
493 708
488 718
480 725
475 735
470 745
465 760
460 775
460 785
455 800
455 810
455 820
450 830
450 840
450 850
450 860
445 875
445 885
445 895
445 905
445 915
440 925
440 935
440 945
440 955
445 964
445 974
445 984
445 994
445 1004
445 1014
445 1024
450 1033
450 1043
450 1053
450 1063
455 1072
455 1082
460 1091
463 1101
465 1111
470 1120
472 1130
475 1140
480 1149
480 1159
485 1168
490 1177
495 1186
501 1194
509 1201
518 1206
528 1210
537 1215
547 1219
556 1224
566 1224
576 1224
586 1224
595 1219
604 1214
613 1209
620 1201
628 1194
634 1182
639 1167
649 1164
655 1172
655 1182
655 1192
659 1202
660 1212
660 1222
660 1232
660 1242
664 1252
665 1262
665 1272
657 1279
649 1285
639 1285
630 1290
620 1290
610 1290
600 1290
591 1295
581 1295
571 1295
562 1290
552 1290
542 1290
533 1285
524 1280
514 1277
505 1272
495 1268
489 1260
481 1253
471 1249
464 1241
459 1232
452 1224
444 1217
440 1207
434 1199
429 1190
424 1181
419 1172
419 1162
414 1153
409 1144
406 1134
404 1124
399 1115
397 1105
394 1095
392 1085
389 1075
387 1065
384 1055
382 1045
379 1035
377 1025
374 1015
372 1005
369 995
369 985
364 976
364 966
364 956
359 947
359 937
