234 492
234 482
239 472
239 462
244 452
252 444
260 436
268 429
277 424
287 419
297 419
306 414
315 409
325 409
334 404
344 404
353 399
362 394
372 394
382 394
392 394
402 394
412 394
421 399
431 395
441 394
450 389
460 389
470 389
480 389
490 389
500 389
510 389
520 389
529 394
539 394
549 394
559 394
568 389
578 389
588 389
598 389
607 384
617 384
627 384
637 384
647 384
656 379
666 379
675 384
685 384
695 384
705 384
715 384
724 389
734 389
744 389
754 389
764 389
774 389
784 389
794 389
804 389
814 389
824 389
834 389
844 389
854 389
864 389
874 391
884 394
894 394
904 394
914 394
924 394
934 394
944 394
954 394
964 394
974 396
983 401
993 405
1002 410
1012 414
1021 419
1031 419
1041 419
1051 419
1061 419
1071 419
1081 419
1091 419
1100 424
1110 424
1119 429
1129 429
1139 429
1149 431
1158 436
1165 444
1175 447
1180 456
1185 465
1187 475
1190 485
1192 495
1195 505
1195 515
1195 525
1195 535
1200 544
1205 553
1210 562
1214 572
1222 579
1231 584
1241 584
1251 584
1260 579
1270 579
1279 584
1288 579
1297 574
1307 574
1317 574
1327 574
1337 574
1347 574
1357 574
1367 574
1376 579
1385 584
1393 590
1402 595
1410 602
1417 610
1425 617
1432 625
1440 632
1445 641
1450 650
1455 659
1460 668
1465 677
1472 685
1477 694
1480 704
1485 713
1490 722
1495 731
1498 741
1500 751
1505 760
1505 770
1505 780
1505 790
1507 800
1510 810
1510 820
1510 830
1510 840
1510 850
1510 860
1510 870
1510 880
1510 890
1505 905
1505 915
1505 925
1505 935
1505 945
1500 960
1500 970
1495 985
1495 995
1490 1005
1490 1015
1485 1025
1485 1035
1480 1045
1480 1055
1475 1065
1470 1080
1468 1093
1463 1103
1458 1113
1453 1123
1448 1133
1443 1143
1435 1150
1428 1158
1423 1168
1415 1175
1408 1188
1400 1195
1395 1205
1388 1213
1380 1220
1373 1228
1365 1235
1357 1244
1347 1249
1337 1254
1327 1259
1317 1264
1307 1269
1297 1270
1288 1275
1278 1278
1268 1280
1258 1280
1249 1285
1239 1285
1229 1285
1219 1287
1209 1290
1199 1290
1189 1292
1179 1292
1179 1282
1184 1272
1184 1262
1184 1252
1184 1242
1184 1232
1189 1222
1189 1212
1189 1202
1189 1192
1189 1182
1194 1167
1194 1157
1204 1156
1210 1164
1219 1169
1228 1174
1238 1174
1248 1174
1258 1174
1268 1174
1277 1169
1286 1164
1295 1159
1304 1154
1313 1149
1320 1141
1328 1134
1335 1126
1343 1119
1349 1107
1357 1099
1362 1089
1367 1079
1372 1069
1377 1059
1379 1047
1384 1032
1389 1017
1394 1002
1394 992
1399 977
1404 967
1404 957
1404 947
1409 937
1409 927
1409 917
1414 902
1414 892
1414 882
1414 872
1414 862
1414 852
1414 842
1414 832
1414 822
1414 812
1414 802
1414 792
1414 782
1409 773
1409 763
1409 753
1404 744
1404 734
1399 725
1399 715
1397 705
1394 695
1389 686
1384 677
1380 667
1375 658
1366 653
1356 650
1347 645
1337 645
1328 640
1318 640
1308 643
1298 645
1288 645
1279 650
1270 655
1263 663
1255 670
1250 680
1243 688
1238 698
1230 705
1225 715
1220 725
1215 740
1210 755
1205 770
1205 780
1200 790
1195 800
1190 815
1190 825
1185 835
1185 845
1180 860
1180 870
1180 880
1180 890
1180 900
1175 910
1175 920
1175 930
1180 939
1175 955
1180 964
1180 974
1180 984
1180 994
1180 1004
1180 1014
1175 1030
1175 1040
1170 1055
1170 1065
1170 1075
1170 1085
1170 1095
1170 1105
1172 1115
1170 1125
1170 1135
1170 1145
1170 1155
1170 1165
1165 1175
1165 1185
1165 1195
1165 1205
1165 1215
1160 1225
1160 1235
1160 1245
1160 1255
1160 1265
1155 1275
1155 1285
1155 1295
1155 1305
1155 1315
1150 1325
1150 1335
1150 1345
1150 1355
1150 1365
1150 1375
1145 1385
1145 1395
1145 1405
1145 1415
1140 1425
1140 1435
1140 1445
1140 1455
1140 1465
1140 1475
1135 1485
1135 1495
1130 1510
1125 1525
1120 1540
1115 1550
1108 1563
1100 1570
1095 1580
1087 1589
1077 1594
1069 1600
1060 1605
1050 1610
1041 1615
1032 1620
1023 1625
1013 1628
1003 1633
993 1635
984 1640
974 1642
964 1645
955 1650
945 1650
936 1655
926 1655
917 1660
907 1660
898 1665
888 1665
878 1665
869 1670
859 1670
849 1670
840 1675
830 1675
820 1675
810 1675
800 1675
790 1675
781 1680
771 1680
761 1680
751 1680
741 1680
731 1680
721 1680
711 1680
701 1680
691 1680
681 1680
671 1680
661 1680
652 1675
642 1675
632 1675
622 1675
612 1675
602 1674
592 1670
582 1670
572 1670
563 1665
553 1665
543 1665
534 1660
524 1660
515 1655
505 1655
496 1650
486 1650
477 1645
467 1644
457 1640
448 1635
439 1630
429 1630
420 1625
411 1620
402 1615
393 1610
384 1605
375 1600
366 1595
357 1590
350 1582
342 1575
335 1567
327 1560
324 1550
316 1544
314 1534
309 1525
307 1515
304 1505
304 1495
304 1485
302 1475
299 1465
299 1455
297 1445
294 1435
294 1425
292 1415
289 1405
289 1395
289 1385
289 1375
287 1365
284 1355
284 1345
284 1335
284 1325
282 1315
279 1305
279 1295
279 1285
279 1275
279 1265
279 1255
274 1246
274 1236
274 1226
274 1216
274 1206
274 1196
269 1187
269 1177
269 1167
269 1157
269 1147
269 1137
264 1128
264 1118
264 1108
264 1098
264 1088
264 1078
264 1068
264 1058
259 1049
259 1039
259 1029
259 1019
259 1009
259 999
259 989
259 979
259 969
259 959
256 949
254 939
254 929
254 919
254 909
254 899
254 889
254 879
254 869
254 859
254 849
254 839
251 829
249 819
249 809
249 799
249 789
249 779
249 769
249 759
244 750
244 740
244 730
244 720
244 710
244 700
244 690
244 680
244 670
244 660
244 650
244 640
244 630
239 621
239 611
239 601
239 591
239 581
239 571
239 561
239 551
239 541
239 531
234 522
234 512
234 502
