319 972
319 962
329 959
338 954
348 954
358 954
368 954
378 954
388 954
398 954
408 954
418 954
428 954
438 954
448 955
458 959
468 959
478 959
488 960
498 964
508 964
518 964
527 969
537 969
547 969
556 974
566 974
575 979
585 979
595 979
605 982
615 984
625 984
635 984
644 989
654 989
664 991
674 994
684 994
694 994
704 994
714 992
724 989
724 979
724 969
722 959
717 950
713 940
705 933
699 925
694 916
689 907
682 899
677 890
670 882
662 875
659 865
654 856
649 847
649 837
659 834
669 834
679 834
689 836
698 841
708 844
717 849
726 854
736 854
745 859
754 864
762 870
772 874
781 879
790 884
799 889
808 894
817 899
826 904
835 909
844 914
853 919
862 924
871 929
875 939
885 942
894 947
902 954
911 959
920 964
928 970
937 975
947 979
956 984
964 991
973 996
980 1004
989 1009
999 1011
1009 1014
1019 1005
1019 995
1019 985
1014 976
1009 967
1005 957
1000 948
996 938
991 929
987 919
982 910
979 900
974 891
974 881
969 872
979 869
985 861
994 866
1003 871
1010 879
1018 885
1025 893
1033 899
1040 907
1047 915
1057 919
1060 929
1070 932
1074 942
1084 946
1094 949
1104 949
1109 939
1109 929
1109 919
1104 910
1104 900
1099 891
1099 881
1094 872
1094 862
1089 853
1089 843
1085 833
1084 823
1079 814
1079 804
1074 795
1074 785
1069 776
1069 766
1064 757
1064 747
1064 737
1059 728
1059 718
1054 709
1054 699
1049 690
1049 680
1049 670
1044 661
1044 651
1044 641
1044 631
1039 622
1039 612
1039 602
1039 592
1039 582
1039 572
1039 562
1044 552
1052 544
1061 549
1069 556
1075 564
1083 570
1090 578
1095 587
1102 595
1107 604
1114 612
1119 621
1125 629
1130 638
1138 645
1145 653
1153 659
1163 659
1173 659
1182 654
1184 642
1189 632
1189 622
1194 607
1194 597
1199 582
1199 572
1199 562
1204 552
1204 542
1204 532
1204 522
1209 512
1209 502
1209 492
1209 482
1214 467
1214 457
1214 447
1219 437
1219 427
1224 417
1224 407
1224 397
1229 387
1229 377
1234 367
1234 357
1239 347
1239 337
1244 322
1249 307
1257 299
1259 287
1264 277
1272 269
1281 274
1285 284
1290 293
1295 302
1300 311
1303 321
1305 331
1310 340
1310 350
1315 359
1315 369
1320 378
1320 388
1325 397
1325 407
1325 417
1329 427
1330 437
1334 447
1335 457
1335 467
1335 477
1340 486
1340 496
1340 506
1340 516
1345 525
1345 535
1345 545
1345 555
1350 564
1350 574
1350 584
1350 594
1355 603
1355 613
1360 622
1360 632
1364 642
1365 652
1373 659
1383 659
1393 659
1402 654
1410 646
1418 639
1424 627
1432 619
1437 609
1444 597
1452 589
1457 579
1465 571
1473 564
1480 556
1488 549
1497 544
1504 552
1509 561
1510 571
1510 581
1510 591
1510 601
1510 611
1510 621
1505 630
1505 640
1505 650
1500 665
1500 675
1500 685
1495 695
1495 705
1490 715
1490 725
1485 735
1485 745
1480 760
1480 770
1475 780
1475 790
1470 800
1470 810
1465 820
1460 835
1460 845
1455 860
1450 875
1450 885
1445 895
1445 905
1440 915
1440 925
1440 935
1440 945
1450 949
1460 949
1469 944
1478 939
1482 929
1490 921
1500 916
1508 909
1512 899
1522 894
1530 886
1538 879
1545 871
1555 866
1563 860
1568 869
1578 870
1575 880
1575 890
1570 900
1565 910
1560 920
1555 930
1550 940
1545 950
1540 960
1535 970
1530 980
1530 990
1530 1000
1530 1010
1540 1014
1550 1011
1560 1009
1569 1002
1577 994
1587 989
1596 984
1605 979
1614 974
1623 969
1632 964
1640 956
1650 951
1658 944
1667 939
1675 931
1685 926
1693 919
1702 914
1712 909
1722 904
1732 899
1741 894
1750 889
1759 884
1768 879
1777 874
1787 869
1796 864
1805 859
1814 854
1824 852
1834 847
1844 844
1853 839
1862 834
1872 834
1882 834
1892 834
1900 840
1895 850
1890 865
1884 875
1878 883
1870 890
1863 903
1858 913
1850 920
1843 933
1835 940
1830 950
1825 960
1825 970
1825 980
1830 989
1839 994
1849 994
1859 994
1869 994
1879 994
1888 989
1898 989
1908 989
1917 984
1927 984
1937 984
1947 979
1957 979
1967 979
1977 974
1987 974
1997 969
2007 969
2017 969
2027 964
2037 964
2047 964
2057 964
2066 959
2076 959
2086 959
2096 959
2105 954
2115 954
2125 954
2135 954
2145 954
2155 954
2165 954
2175 954
2185 954
2195 954
2205 954
2215 957
2225 959
2225 975
2215 980
2208 988
2200 995
2192 1004
2182 1009
2174 1015
2165 1020
2158 1030
2149 1035
2140 1040
2131 1045
2122 1050
2113 1055
2104 1060
2095 1065
2085 1070
2075 1075
2065 1080
2055 1085
2046 1090
2037 1095
2028 1100
2019 1105
2009 1105
2000 1110
1990 1115
1980 1120
1970 1125
1960 1130
1951 1135
1942 1140
1932 1144
1923 1150
1914 1155
1905 1160
1898 1168
1890 1175
1890 1185
1892 1195
1900 1202
1909 1207
1919 1211
1929 1214
1939 1216
1949 1219
1958 1224
1968 1225
1978 1229
1987 1234
1997 1234
2006 1239
2015 1244
2024 1249
2032 1255
2033 1268
2023 1273
2015 1280
2006 1285
1996 1285
1987 1290
1977 1290
1968 1295
1958 1298
1948 1300
1938 1300
1928 1300
1918 1303
1908 1305
1898 1305
1888 1308
1878 1310
1868 1310
1858 1310
1848 1313
1838 1315
1828 1315
1818 1315
1808 1315
1798 1315
1788 1315
1778 1315
1769 1320
1759 1320
1749 1320
1739 1320
1729 1320
1719 1320
1709 1320
1699 1320
1689 1322
1679 1325
1669 1325
1659 1325
1649 1325
1640 1330
1640 1340
1640 1350
1648 1356
1655 1364
1665 1364
1673 1370
1682 1375
1692 1379
1701 1384
1710 1389
1719 1394
1727 1400
1737 1404
1744 1412
1752 1419
1755 1429
1752 1439
1742 1440
1733 1445
1724 1440
1714 1440
1704 1440
1694 1440
1685 1435
1675 1435
1665 1435
1655 1432
1645 1430
1635 1430
1625 1430
1615 1430
1605 1430
1605 1440
1605 1450
1610 1459
1618 1465
1625 1473
1633 1479
1642 1484
1649 1492
1659 1496
1665 1504
1674 1509
1682 1515
1687 1524
1696 1529
1705 1534
1713 1540
1718 1549
1727 1554
1736 1559
1740 1569
1750 1572
1758 1579
1765 1587
1774 1592
1780 1600
1788 1606
1795 1614
1803 1620
1810 1628
1820 1632
1824 1642
1830 1650
1835 1659
1845 1662
1852 1670
1857 1679
1864 1687
1870 1695
1875 1704
1880 1713
1885 1722
1877 1735
1867 1735
1857 1735
1847 1734
1837 1730
1827 1729
1817 1725
1808 1720
1799 1715
1789 1715
1780 1710
1770 1707
1760 1705
1750 1705
1740 1705
1730 1705
1720 1705
1720 1715
1720 1725
1720 1735
1720 1745
1725 1754
1730 1763
1735 1772
1740 1781
1743 1791
1748 1800
1755 1808
1760 1817
1760 1827
1765 1836
1771 1844
1775 1854
1780 1863
1785 1872
1790 1881
1795 1890
1800 1899
1805 1908
1810 1917
1815 1926
1820 1935
1825 1944
1830 1953
1835 1962
1835 1972
1839 1982
1844 1991
1848 2001
1850 2011
1855 2020
1855 2030
1860 2039
1860 2049
1865 2058
1865 2068
1870 2077
1866 2090
1857 2085
1847 2084
1837 2080
1830 2072
1820 2068
1814 2060
1804 2057
1797 2049
1787 2045
1780 2037
1772 2030
1763 2025
1755 2018
1748 2010
1740 2003
1733 1995
1725 1988
1718 1980
1710 1973
1703 1965
1695 1958
1688 1950
1680 1943
1673 1935
1665 1928
1659 1920
1651 1913
1646 1904
1637 1899
1629 1892
1625 1882
1617 1875
1610 1867
1602 1860
1595 1852
1585 1848
1579 1840
1570 1835
1560 1835
1550 1835
1540 1835
1535 1850
1535 1860
1535 1870
1535 1880
1535 1890
1535 1900
1535 1910
1535 1920
1535 1930
1535 1940
1535 1950
1535 1960
1530 1975
1528 1988
1520 1995
1510 1992
1502 1985
1499 1975
1491 1969
1484 1961
1479 1952
1474 1943
1467 1935
1463 1925
1455 1918
1451 1908
1446 1899
1444 1889
1439 1880
1434 1871
1429 1862
1425 1852
1420 1843
1416 1833
1411 1824
1409 1814
1406 1804
1402 1794
1397 1785
1394 1775
1394 1765
1386 1758
1381 1749
1379 1739
1376 1729
1369 1721
1369 1711
1364 1702
1364 1692
1359 1683
1354 1674
1349 1665
1349 1655
1341 1648
1335 1640
1325 1640
1315 1640
1315 1650
1310 1660
1310 1670
1305 1685
1305 1695
1305 1705
1300 1720
1300 1730
1295 1740
1295 1750
1290 1760
1285 1775
1275 1780
1265 1777
1259 1769
1256 1759
1254 1749
1251 1739
1249 1729
1246 1719
1244 1709
1244 1699
1244 1689
1239 1680
1239 1670
1237 1660
1234 1650
1234 1640
1224 1640
1214 1640
1208 1648
1200 1655
1195 1670
1190 1680
1185 1690
1180 1705
1178 1723
1170 1730
1168 1748
1163 1758
1155 1765
1155 1775
1150 1785
1145 1795
1140 1805
1140 1815
1135 1825
1130 1835
1125 1845
1120 1855
1115 1865
1110 1875
1105 1885
1100 1900
1095 1910
1088 1923
1083 1933
1075 1940
1070 1950
1065 1960
1058 1968
1050 1975
1043 1988
1035 1995
1025 1992
1019 1984
1016 1974
1014 1964
1014 1954
1014 1944
1014 1934
1014 1924
1014 1914
1014 1904
1014 1894
1014 1884
1014 1874
1014 1864
1014 1854
1009 1845
1009 1835
999 1835
989 1835
979 1835
970 1840
963 1848
953 1853
945 1860
938 1868
930 1875
922 1884
917 1894
909 1900
900 1905
895 1915
885 1920
880 1930
870 1935
865 1945
855 1950
850 1960
840 1965
835 1975
825 1980
820 1990
810 1995
805 2005
795 2010
790 2020
780 2025
770 2030
765 2040
755 2045
748 2053
740 2060
731 2065
722 2070
714 2077
704 2082
694 2085
685 2090
679 2082
679 2072
684 2062
684 2052
689 2037
694 2027
694 2017
699 2002
704 1992
709 1982
714 1972
714 1962
719 1952
724 1942
729 1932
734 1922
742 1914
747 1904
752 1894
757 1884
762 1874
767 1864
772 1854
777 1844
784 1832
789 1817
794 1807
802 1799
807 1789
809 1777
817 1769
822 1759
827 1749
829 1735
829 1725
829 1715
827 1705
817 1705
807 1705
797 1705
787 1705
777 1709
767 1710
758 1715
748 1718
738 1723
728 1725
719 1730
709 1730
700 1735
690 1735
680 1735
670 1735
664 1727
664 1717
669 1707
677 1699
682 1689
690 1681
695 1671
703 1664
712 1659
719 1647
727 1639
732 1629
742 1624
751 1619
756 1610
764 1604
770 1596
778 1589
785 1581
795 1576
803 1569
810 1561
820 1556
828 1549
835 1541
843 1534
852 1529
861 1524
866 1515
874 1509
883 1504
890 1496
900 1491
908 1484
917 1479
925 1471
933 1464
940 1456
944 1439
939 1430
929 1430
919 1430
909 1430
899 1430
890 1435
880 1435
870 1435
860 1435
850 1440
840 1440
830 1440
820 1440
810 1442
800 1440
794 1432
794 1422
802 1414
810 1406
820 1401
828 1394
837 1389
847 1384
857 1379
867 1374
877 1369
886 1364
896 1360
904 1354
909 1343
909 1333
902 1325
892 1325
882 1325
872 1325
862 1325
853 1320
843 1320
833 1320
823 1320
813 1320
803 1320
793 1320
783 1320
774 1315
764 1315
754 1315
744 1315
734 1315
724 1315
714 1315
704 1315
695 1310
685 1310
675 1310
665 1310
656 1305
646 1305
636 1305
627 1300
617 1300
607 1300
597 1300
588 1295
578 1295
569 1290
559 1290
550 1285
540 1282
530 1278
524 1270
514 1267
514 1257
522 1249
532 1244
542 1239
552 1234
562 1234
571 1229
581 1225
591 1224
600 1219
610 1216
620 1214
630 1211
640 1206
650 1201
658 1194
659 1178
652 1170
645 1162
637 1155
628 1150
619 1145
610 1140
600 1137
592 1130
582 1129
572 1125
563 1120
554 1115
546 1108
536 1105
526 1103
516 1099
507 1094
497 1090
488 1085
479 1080
470 1075
461 1070
452 1065
443 1060
434 1055
425 1050
416 1045
407 1040
398 1035
389 1030
384 1021
376 1015
367 1010
358 1005
350 998
344 990
336 984
327 979
