339 1287
339 1277
344 1267
344 1257
344 1247
349 1227
349 1217
349 1207
354 1187
354 1177
354 1167
359 1157
359 1147
364 1137
364 1127
369 1117
369 1107
374 1092
379 1082
379 1072
384 1062
384 1052
389 1037
394 1022
399 1007
404 997
409 982
414 972
419 957
424 947
429 932
434 922
439 907
444 897
449 887
454 877
459 867
464 857
472 849
477 839
482 829
487 819
494 807
499 797
504 787
512 779
517 769
522 759
530 751
535 741
543 734
549 722
557 714
564 702
572 694
579 682
587 674
595 666
605 664
615 664
625 664
635 664
645 664
655 664
665 664
675 664
685 664
695 664
705 664
715 664
725 664
735 664
745 664
755 664
765 664
775 664
785 664
795 664
805 664
815 664
825 664
835 664
845 664
855 664
865 662
875 662
885 662
895 661
905 659
915 659
925 659
935 659
945 659
955 659
965 659
975 657
985 654
995 654
1005 654
1015 654
1025 654
1035 652
1045 649
1055 649
1065 649
1075 649
1085 647
1095 644
1105 644
1115 644
1125 642
1135 639
1145 639
1155 636
1165 636
1175 634
1185 634
1195 632
1205 629
1215 629
1225 627
1235 624
1245 621
1255 621
1265 619
1275 616
1285 614
1295 611
1305 609
1315 609
1324 604
1334 604
1343 599
1353 599
1363 599
1372 594
1381 589
1391 589
1400 584
1410 581
1420 579
1429 574
1439 572
1450 569
1455 560
1445 560
1435 560
1425 560
1415 560
1405 560
1395 560
1385 560
1375 560
1365 560
1355 560
1345 560
1335 560
1325 560
1315 560
1305 560
1295 560
1285 560
1275 560
1265 560
1255 560
1245 560
1235 560
1225 560
1215 560
1205 560
1195 560
1185 560
1175 560
1165 560
1155 560
1145 560
1135 560
1125 560
1115 560
1105 560
1095 560
1085 560
1075 560
1065 560
1055 560
1045 560
1035 560
1025 560
1015 560
1005 560
995 560
985 560
975 560
965 560
955 560
945 560
935 560
925 560
915 560
905 560
895 560
885 560
875 560
865 560
855 560
845 560
835 560
825 560
815 560
805 560
795 560
785 560
775 560
765 560
755 560
745 560
735 560
725 560
715 560
705 560
699 552
709 547
717 539
725 531
733 524
742 519
750 511
758 504
767 499
775 491
783 484
792 479
801 474
809 467
817 459
827 454
837 449
846 444
855 439
864 432
874 427
884 422
894 417
902 409
912 404
922 399
931 394
940 389
949 384
958 379
968 379
977 374
986 369
996 365
1006 360
1016 359
1025 354
1034 349
1043 344
1053 344
1062 339
1071 334
1081 330
1091 329
1101 325
1111 324
1120 319
1130 319
1139 314
1149 312
1159 309
1169 307
1179 304
1188 299
1198 299
1207 294
1217 294
1227 294
1236 289
1246 289
1256 289
1266 285
1276 285
1286 284
1296 284
1306 280
1316 279
1326 279
1336 279
1346 279
1355 274
1365 274
1375 274
1385 274
1395 274
1405 274
1415 274
1425 274
1435 274
1445 274
1455 274
1465 274
1475 274
1485 274
1495 274
1504 279
1514 279
1524 279
1534 279
1543 284
1553 284
1563 284
1573 284
1582 289
1592 289
1602 289
1612 289
1621 294
1631 294
1641 294
1650 299
1660 302
1670 304
1680 307
1690 309
1699 314
1709 314
1718 319
1728 319
1737 324
1747 324
1756 329
1766 329
1775 334
1784 339
1794 341
1803 346
1813 349
1822 354
1831 359
1841 359
1850 364
1859 369
1869 371
1878 376
1888 380
1898 384
1907 389
1916 394
1925 399
1934 404
1943 409
1952 414
1961 419
1970 424
1978 430
1987 435
1995 442
2004 447
2012 454
2021 459
2030 464
2038 470
2047 475
2055 482
2064 487
2072 494
2081 499
2090 504
2098 510
2105 518
2113 525
2120 533
2130 537
2137 545
2145 552
2152 560
2160 567
2167 575
2175 582
2182 590
2190 597
2197 605
2205 612
2212 620
2220 627
2227 635
2235 642
2242 650
2247 659
2254 667
2262 674
2265 684
2273 690
2280 698
2285 707
2292 715
2297 724
2304 732
2309 741
2315 749
2320 758
2325 767
2332 775
2337 784
2344 792
2349 801
2353 811
2360 819
2365 828
2370 837
2375 846
2380 855
2385 864
2390 873
2395 882
2399 892
2404 901
2405 911
2410 920
2415 929
2415 939
2420 948
2425 957
2429 967
2434 976
2438 986
2440 996
2445 1005
2447 1015
2452 1024
2455 1034
2455 1044
2460 1053
2460 1063
2465 1072
2469 1082
2470 1092
2474 1102
2475 1112
2479 1122
2480 1132
2485 1141
2485 1151
2490 1160
2490 1170
2490 1180
2495 1189
2495 1199
2495 1209
2495 1219
2495 1229
2500 1238
2500 1248
2500 1258
2505 1267
2505 1277
2505 1287
2505 1297
2505 1310
2510 1319
2505 1330
2505 1345
2510 1354
2505 1365
2505 1380
2510 1389
2505 1400
2505 1415
2510 1424
2505 1435
2505 1450
2505 1460
2505 1470
2505 1480
2500 1490
2500 1500
2500 1510
2495 1525
2495 1535
2495 1545
2495 1555
2490 1565
2490 1575
2490 1585
2485 1600
2485 1610
2480 1620
2480 1630
2475 1640
2475 1650
2470 1665
2465 1680
2460 1690
2455 1705
2450 1720
2445 1735
2440 1750
2435 1765
2430 1780
2425 1795
2420 1805
2415 1815
2410 1825
2405 1835
2400 1845
2395 1860
2390 1870
2385 1880
2380 1890
2375 1900
2370 1910
2365 1920
2358 1933
2353 1943
2348 1953
2340 1960
2333 1973
2328 1983
2320 1990
2314 2002
2309 2012
2301 2020
2292 2025
2283 2020
2274 2025
2264 2022
2254 2020
2245 2025
2236 2020
2226 2023
2216 2025
2207 2020
2197 2024
2187 2025
2178 2020
2169 2025
2159 2022
2149 2020
2140 2025
2130 2025
2120 2025
2110 2025
2100 2025
2090 2025
2080 2025
2070 2025
2060 2025
2050 2025
2040 2025
2030 2025
2020 2025
2010 2025
2000 2025
1990 2025
1980 2025
1970 2025
1960 2025
1950 2025
1940 2025
1930 2025
1920 2025
1910 2025
1900 2025
1890 2025
1880 2025
1870 2025
1860 2025
1850 2025
1840 2025
1830 2025
1820 2025
1810 2025
1800 2025
1790 2025
1780 2025
1770 2025
1760 2025
1750 2025
1740 2025
1730 2025
1720 2025
1710 2025
1700 2025
1690 2025
1680 2025
1670 2025
1660 2025
1650 2025
1641 2030
1632 2025
1622 2029
1612 2030
1603 2025
1594 2030
1584 2027
1574 2025
1565 2030
1556 2025
1546 2028
1536 2030
1527 2025
1518 2030
1508 2028
1500 2034
1510 2038
1522 2040
1532 2044
1541 2049
1551 2049
1560 2054
1570 2054
1579 2059
1589 2059
1598 2064
1608 2064
1617 2069
1627 2069
1636 2074
1646 2074
1656 2074
1665 2079
1675 2079
1685 2082
1695 2082
1705 2084
1715 2087
1725 2089
1735 2089
1745 2089
1754 2094
1764 2094
1774 2094
1784 2094
1793 2099
1803 2099
1813 2099
1823 2099
1833 2099
1843 2100
1853 2100
1863 2104
1873 2104
1883 2104
1893 2104
1903 2104
1913 2105
1923 2109
1933 2109
1942 2104
1951 2109
1961 2109
1971 2109
1981 2109
1991 2109
2001 2109
2011 2109
2021 2109
2031 2109
2041 2109
2051 2109
2061 2109
2071 2109
2081 2109
2091 2109
2101 2109
2111 2109
2121 2109
2131 2109
2141 2105
2151 2109
2161 2109
2171 2105
2181 2109
2191 2109
2201 2105
2211 2109
2221 2109
2218 2123
2210 2130
2203 2138
2195 2145
2188 2153
2180 2160
2173 2168
2165 2175
2158 2183
2150 2190
2143 2198
2135 2205
2128 2213
2120 2220
2110 2225
2103 2233
2095 2240
2087 2249
2079 2255
2070 2260
2060 2265
2052 2274
2044 2280
2035 2285
2025 2290
2017 2299
2007 2304
1997 2309
1987 2314
1978 2320
1969 2325
1960 2330
1950 2335
1940 2340
1932 2349
1922 2354
1912 2359
1903 2365
1893 2368
1883 2373
1873 2378
1863 2380
1854 2385
1845 2390
1836 2395
1826 2395
1817 2400
1808 2405
1798 2408
1788 2413
1778 2418
1768 2420
1759 2425
1749 2425
1740 2430
1730 2430
1721 2435
1711 2435
1702 2440
1692 2440
1683 2445
1673 2445
1664 2450
1654 2452
1644 2455
1634 2457
1624 2460
1614 2460
1604 2460
1594 2462
1584 2465
1574 2465
1564 2465
1555 2470
1545 2470
1535 2470
1525 2470
1516 2475
1506 2475
1496 2475
1486 2475
1476 2475
1466 2475
1457 2480
1448 2475
1439 2480
1429 2477
1419 2475
1410 2480
1401 2475
1391 2478
1381 2475
1371 2475
1361 2475
1351 2475
1341 2475
1331 2475
1322 2470
1312 2470
1302 2470
1292 2470
1283 2465
1273 2465
1263 2465
1253 2465
1244 2460
1234 2460
1224 2460
1215 2455
1205 2455
1195 2452
1185 2450
1175 2447
1165 2445
1155 2442
1145 2440
1136 2435
1126 2435
1117 2430
1107 2429
1097 2425
1087 2424
1077 2420
1068 2415
1059 2410
1049 2410
1040 2405
1031 2400
1021 2398
1011 2394
1002 2389
992 2385
983 2380
974 2375
964 2375
955 2370
946 2365
937 2360
928 2355
919 2350
910 2345
901 2340
892 2335
883 2330
874 2325
865 2320
857 2314
847 2310
840 2302
830 2298
823 2290
814 2285
805 2280
797 2274
787 2270
780 2262
770 2258
764 2250
755 2245
747 2239
739 2232
732 2224
724 2217
715 2212
707 2205
700 2197
692 2190
685 2182
677 2175
670 2167
662 2160
655 2152
647 2145
640 2137
632 2130
625 2122
617 2115
610 2107
604 2099
599 2090
591 2084
584 2076
579 2067
574 2058
567 2050
560 2042
554 2034
549 2025
541 2019
537 2009
529 2002
525 1992
517 1985
514 1975
509 1966
504 1957
497 1949
492 1940
489 1930
484 1921
479 1912
472 1904
467 1895
463 1885
455 1878
451 1868
446 1859
444 1849
439 1840
434 1831
434 1821
429 1812
424 1803
419 1794
417 1784
412 1775
409 1765
404 1756
399 1747
399 1737
394 1728
390 1718
389 1708
385 1698
384 1688
379 1679
379 1669
374 1660
374 1650
369 1641
369 1631
364 1622
364 1612
359 1603
359 1593
354 1584
354 1574
354 1564
354 1554
349 1545
349 1535
349 1525
349 1515
344 1506
344 1496
344 1486
344 1476
339 1467
339 1457
339 1447
339 1437
339 1427
339 1417
339 1407
339 1397
339 1387
339 1377
339 1367
339 1357
339 1347
339 1337
339 1327
339 1317
339 1307
339 1297
