424 2277
419 2287
425 2295
435 2295
445 2295
455 2295
465 2295
475 2295
485 2295
495 2295
505 2295
515 2295
525 2295
535 2295
545 2295
555 2295
565 2295
575 2295
585 2295
595 2295
605 2295
615 2295
625 2295
635 2295
645 2295
655 2295
665 2295
675 2295
685 2295
695 2295
705 2295
715 2295
725 2295
735 2295
745 2295
755 2295
765 2295
775 2295
785 2295
795 2295
805 2295
815 2295
825 2295
835 2295
845 2295
855 2295
865 2295
875 2295
885 2295
895 2295
905 2295
915 2295
925 2295
935 2295
945 2295
955 2295
965 2295
975 2295
985 2295
995 2295
1005 2295
1015 2295
1025 2295
1035 2295
1045 2295
1055 2295
1065 2295
1075 2295
1085 2295
1095 2295
1105 2295
1115 2295
1125 2295
1135 2295
1145 2295
1155 2295
1164 2300
1170 2308
1180 2312
1187 2320
1197 2324
1205 2330
1214 2335
1223 2340
1232 2345
1242 2349
1251 2354
1261 2355
1270 2360
1279 2365
1289 2365
1298 2370
1307 2375
1317 2375
1327 2379
1337 2380
1347 2380
1356 2385
1366 2385
1376 2385
1386 2388
1396 2388
1406 2390
1416 2390
1426 2390
1436 2390
1446 2390
1456 2390
1466 2390
1476 2390
1486 2390
1496 2390
1505 2385
1515 2385
1525 2385
1535 2385
1544 2380
1554 2380
1564 2377
1574 2375
1584 2372
1594 2370
1604 2367
1614 2365
1623 2360
1632 2355
1642 2354
1652 2349
1662 2344
1672 2339
1682 2334
1692 2329
1700 2320
1709 2315
1718 2310
1727 2304
1735 2295
1745 2295
1755 2295
1765 2295
1775 2295
1785 2295
1795 2295
1805 2295
1815 2295
1825 2295
1835 2295
1845 2295
1855 2295
1865 2295
1875 2295
1885 2295
1895 2295
1905 2295
1915 2295
1925 2295
1935 2295
1945 2295
1955 2295
1965 2295
1975 2295
1985 2295
1995 2295
2005 2295
2015 2295
2025 2295
2035 2295
2045 2295
2055 2295
2065 2295
2075 2295
2085 2295
2095 2295
2105 2295
2115 2295
2125 2295
2135 2295
2145 2295
2155 2295
2165 2295
2175 2295
2185 2295
2195 2295
2205 2295
2215 2295
2225 2295
2235 2295
2245 2295
2255 2295
2265 2295
2275 2295
2285 2295
2295 2295
2305 2295
2315 2295
2325 2295
2335 2295
2345 2295
2355 2295
2365 2295
2375 2295
2385 2295
2395 2295
2405 2295
2415 2295
2425 2290
2422 2280
2418 2270
2410 2263
2405 2254
2402 2244
2397 2235
2393 2225
2385 2219
2382 2209
2377 2200
2373 2190
2365 2184
2362 2174
2357 2165
2353 2155
2345 2149
2342 2139
2337 2130
2333 2120
2325 2113
2320 2104
2317 2094
2312 2085
2308 2075
2300 2069
2297 2059
2292 2050
2288 2040
2280 2034
2277 2024
2272 2015
2268 2005
2260 1999
2257 1989
2252 1980
2248 1970
2240 1963
2235 1954
2232 1944
2227 1935
2223 1925
2215 1919
2212 1909
2207 1900
2203 1890
2195 1884
2192 1874
2187 1865
2183 1855
2175 1849
2172 1839
2167 1830
2163 1820
2155 1813
2150 1804
2147 1794
2142 1785
2138 1775
2130 1769
2127 1759
2122 1750
2118 1740
2110 1734
2107 1724
2102 1715
2098 1705
2090 1698
2085 1689
2082 1679
2077 1670
2073 1660
2065 1654
2062 1644
2057 1635
2053 1625
2045 1619
2042 1609
2037 1600
2033 1590
2025 1584
2022 1574
2017 1565
2013 1555
2005 1548
2000 1539
1997 1529
1992 1520
1988 1510
1980 1504
1977 1494
1972 1485
1968 1475
1960 1469
1957 1459
1952 1450
1948 1440
1940 1434
1937 1424
1932 1415
1928 1405
1920 1398
1915 1389
1912 1379
1907 1370
1903 1360
1895 1354
1892 1344
1887 1335
1883 1325
1875 1319
1872 1309
1867 1300
1863 1290
1855 1284
1852 1274
1847 1265
1843 1255
1835 1248
1830 1239
1827 1229
1822 1220
1818 1210
1810 1203
1805 1194
1802 1184
1797 1175
1790 1167
1785 1158
1780 1149
1774 1141
1764 1139
1754 1139
1744 1139
1734 1139
1724 1136
1714 1134
1704 1134
1695 1129
1685 1127
1675 1124
1666 1119
1657 1114
1647 1110
1638 1105
1628 1101
1619 1096
1611 1089
1602 1084
1594 1077
1587 1069
1579 1062
1570 1057
1562 1050
1555 1042
1550 1033
1543 1025
1535 1018
1530 1009
1525 1000
1520 991
1515 982
1510 973
1505 964
1505 954
1500 945
1497 935
1495 925
1492 915
1490 905
1490 895
1487 885
1485 875
1485 865
1485 855
1485 845
1485 835
1485 825
1485 815
1490 805
1490 795
1490 785
1495 775
1495 765
1500 750
1505 740
1510 730
1515 715
1523 708
1525 689
1520 680
1520 670
1517 660
1515 650
1512 640
1510 630
1507 620
1505 610
1503 600
1498 591
1460 585
1470 585
1480 585
1490 585
1500 580
1497 570
1495 560
1492 550
1490 540
1487 530
1485 520
1482 510
1480 500
1477 490
1475 480
1475 470
1470 461
1470 451
1465 442
1465 432
1460 423
1460 413
1455 404
1455 394
1455 384
1450 375
1450 365
1445 356
1445 346
1440 337
1440 327
1435 318
1435 308
1430 299
1430 289
1427 279
1419 272
1414 282
1409 297
1404 312
1399 327
1394 342
1389 357
1384 372
1379 382
1374 397
1369 412
1364 427
1359 442
1354 457
1349 472
1344 487
1339 502
1334 517
1329 532
1324 547
1319 557
1314 572
1314 582
1332 585
1342 585
1352 585
1362 585
1372 585
1382 585
1322 589
1309 592
1304 607
1299 622
1294 637
1289 652
1284 667
1279 682
1274 692
1274 702
1269 712
1264 722
1259 737
1254 752
1249 767
1244 782
1239 797
1234 812
1229 827
1224 842
1219 852
1219 862
1214 872
1209 882
1204 897
1204 907
1209 916
1214 925
1217 935
1219 945
1222 955
1224 965
1224 975
1224 985
1229 994
1224 1032
1224 1042
1224 1052
1219 1062
1219 1072
1214 1087
1209 1097
1207 1109
1202 1119
1198 1129
1190 1136
1185 1146
1177 1154
1173 1164
1165 1171
1157 1179
1147 1184
1139 1192
1131 1199
1122 1204
1113 1209
1103 1209
1094 1214
1084 1214
1074 1214
1064 1214
1054 1214
1044 1214
1034 1214
1024 1217
1019 1227
1012 1239
1007 1249
1002 1259
997 1269
989 1277
984 1287
979 1297
972 1309
967 1319
962 1329
957 1339
952 1349
944 1357
939 1367
934 1377
927 1389
922 1399
917 1409
912 1419
904 1427
899 1437
894 1447
889 1457
882 1469
877 1479
872 1489
867 1499
859 1507
854 1517
849 1527
844 1537
837 1549
832 1559
827 1569
822 1579
814 1587
809 1597
804 1607
797 1619
792 1629
787 1639
782 1649
777 1659
769 1667
764 1677
759 1687
752 1699
747 1709
742 1719
737 1729
729 1737
724 1747
719 1757
714 1767
707 1779
702 1789
697 1799
692 1809
684 1817
679 1827
674 1837
667 1849
662 1859
657 1869
652 1879
647 1889
639 1897
634 1907
629 1917
622 1929
617 1939
612 1949
607 1959
599 1967
594 1977
589 1987
584 1997
577 2009
572 2019
567 2029
562 2039
554 2047
549 2057
544 2067
537 2079
532 2089
527 2099
522 2109
517 2119
509 2127
504 2137
499 2147
492 2159
487 2169
482 2179
477 2189
469 2197
464 2207
459 2217
454 2227
447 2239
442 2249
437 2259
432 2269
