314 562
314 552
324 549
334 551
344 554
353 559
363 560
372 565
382 569
391 574
400 579
410 579
418 585
428 589
437 594
446 599
455 604
465 607
475 609
483 615
492 620
502 624
511 629
519 636
528 641
538 645
547 650
557 654
564 662
574 666
583 671
590 679
600 679
608 685
615 693
625 697
634 702
644 706
653 711
660 719
670 722
679 727
687 734
696 739
705 744
714 749
723 754
732 759
741 764
750 769
760 772
768 779
777 784
786 789
795 794
805 797
813 804
823 805
832 810
840 817
850 819
859 824
868 829
877 834
886 839
895 844
905 847
915 849
924 854
933 859
942 864
952 864
961 869
970 874
980 877
990 879
999 884
1009 886
1019 889
1028 894
1038 895
1048 899
1057 904
1067 904
1076 909
1086 909
1095 914
1105 917
1115 919
1125 922
1135 924
1145 924
1154 929
1164 929
1173 934
1183 934
1193 934
1202 939
1212 939
1222 939
1231 944
1241 944
1251 944
1260 949
1270 949
1280 949
1290 949
1300 949
1310 949
1319 954
1329 954
1339 954
1349 954
1359 954
1369 954
1379 954
1389 954
1399 954
1409 954
1419 954
1429 954
1439 954
1449 954
1459 954
1469 951
1479 949
1489 949
1499 949
1509 949
1519 949
1529 946
1539 944
1549 944
1559 944
1569 941
1579 939
1589 937
1599 934
1609 934
1619 934
1628 929
1638 929
1647 924
1657 924
1667 919
1677 919
1687 914
1697 914
1707 909
1717 909
1727 904
1737 904
1746 899
1756 895
1766 894
1775 889
1785 886
1795 884
1805 881
1815 876
1825 874
1834 869
1843 864
1853 864
1862 859
1872 854
1882 849
1892 844
1902 844
1910 836
1920 834
1929 829
1939 827
1947 819
1957 814
1967 814
1976 809
1985 804
1994 799
2003 794
2012 789
2022 784
2032 784
2037 774
2047 769
2057 764
2067 759
2077 754
2087 749
2097 744
2106 739
2115 734
2124 729
2133 724
2142 719
2150 711
2160 706
2170 701
2180 696
2190 691
2200 686
2208 679
2217 674
2227 669
2237 664
2247 659
2256 654
2265 649
2274 644
2283 639
2292 634
2302 629
2312 624
2322 619
2332 614
2342 609
2352 604
2362 604
2371 599
2380 594
2389 589
2399 587
2409 584
2418 579
2427 574
2437 574
2446 569
2456 565
2466 564
2475 559
2485 559
2494 554
2504 554
2513 549
2523 549
2533 549
2540 557
2540 567
2540 577
2540 587
2540 597
2540 607
2540 617
2540 627
2540 637
2540 647
2535 660
2535 670
2535 680
2535 690
2530 705
2530 715
2530 725
2525 735
2525 745
2525 755
2520 765
2520 775
2515 785
2515 795
2510 805
2505 820
2500 835
2495 850
2490 865
2485 880
2480 895
2475 910
2470 920
2468 933
2460 940
2455 955
2450 965
2445 975
2440 985
2435 995
2433 1008
2425 1015
2420 1030
2415 1040
2410 1050
2405 1060
2400 1070
2395 1085
2390 1095
2385 1105
2380 1115
2375 1130
2370 1140
2364 1152
2356 1158
2346 1155
2336 1155
2326 1155
2316 1155
2306 1155
2296 1155
2286 1155
2276 1155
2267 1150
2258 1155
2249 1150
2239 1150
2229 1150
2219 1150
2209 1150
2199 1150
2189 1150
2179 1150
2169 1150
2159 1150
2149 1150
2139 1150
2129 1150
2120 1145
2111 1150
2101 1150
2091 1150
2081 1150
2071 1150
2061 1150
2051 1150
2041 1150
2031 1150
2021 1150
2011 1150
2001 1150
1992 1155
1982 1155
1972 1155
1962 1159
1952 1159
1942 1160
1932 1160
1922 1160
1913 1165
1903 1165
1893 1168
1883 1170
1873 1170
1864 1175
1854 1175
1845 1180
1835 1180
1826 1185
1816 1185
1807 1190
1797 1194
1787 1195
1778 1200
1769 1205
1760 1210
1750 1210
1741 1215
1732 1220
1723 1225
1714 1230
1705 1235
1695 1235
1688 1243
1678 1248
1668 1253
1658 1258
1650 1265
1640 1270
1633 1278
1625 1285
1618 1293
1610 1300
1603 1308
1595 1315
1588 1328
1583 1338
1575 1345
1570 1355
1565 1365
1560 1375
1555 1385
1550 1395
1545 1410
1540 1425
1535 1440
1535 1450
1530 1460
1530 1470
1525 1485
1525 1495
1525 1505
1520 1515
1520 1525
1520 1535
1520 1545
1515 1560
1515 1570
1515 1580
1515 1590
1515 1600
1515 1610
1515 1620
1515 1630
1515 1640
1515 1650
1515 1660
1515 1670
1515 1685
1515 1695
1520 1704
1520 1714
1520 1724
1520 1734
1520 1744
1520 1754
1525 1763
1525 1773
1525 1783
1525 1793
1530 1802
1530 1812
1530 1822
1530 1832
1534 1842
1535 1852
1535 1862
1539 1872
1540 1882
1540 1892
1540 1902
1545 1911
1545 1921
1545 1931
1550 1940
1550 1950
1550 1960
1555 1969
1555 1979
1555 1989
1560 1998
1560 2008
1565 2017
1565 2027
1565 2037
1570 2046
1570 2056
1573 2066
1575 2076
1575 2086
1580 2095
1580 2105
1585 2114
1585 2124
1585 2134
1590 2143
1590 2153
1595 2162
1595 2172
1599 2182
1600 2192
1600 2202
1605 2211
1605 2221
1610 2230
1603 2245
1594 2240
1584 2240
1575 2235
1565 2235
1555 2232
1545 2230
1535 2227
1525 2227
1515 2225
1506 2220
1497 2225
1488 2220
1478 2220
1468 2220
1459 2215
1450 2220
1441 2215
1431 2215
1421 2218
1411 2215
1401 2215
1391 2218
1381 2215
1371 2215
1362 2220
1353 2215
1343 2215
1334 2220
1324 2220
1314 2220
1304 2220
1294 2220
1284 2222
1284 2212
1284 2202
1289 2192
1289 2182
1289 2172
1294 2152
1294 2142
1294 2132
1299 2117
1299 2107
1299 2097
1304 2072
1304 2062
1304 2052
1304 2042
1309 2027
1309 2017
1309 2007
1314 1987
1314 1977
1314 1967
1314 1957
1319 1937
1319 1927
1319 1917
1319 1907
1324 1882
1324 1872
1324 1862
1324 1852
1324 1837
1329 1827
1329 1817
1329 1807
1329 1797
1329 1787
1329 1777
1329 1767
1329 1757
1334 1736
1334 1726
1334 1716
1334 1706
1334 1696
1334 1686
1334 1676
1334 1666
1334 1656
1334 1646
1334 1636
1334 1626
1334 1616
1329 1597
1329 1587
1329 1577
1329 1567
1329 1557
1329 1547
1324 1538
1324 1528
1324 1518
1324 1508
1319 1499
1319 1489
1319 1479
1314 1470
1314 1460
1309 1451
1309 1441
1304 1432
1304 1422
1299 1413
1295 1403
1294 1393
1289 1384
1284 1375
1282 1365
1278 1355
1270 1348
1266 1338
1261 1329
1254 1321
1249 1312
1242 1304
1237 1295
1230 1287
1222 1280
1215 1272
1205 1268
1199 1260
1190 1255
1182 1249
1172 1245
1163 1240
1154 1235
1144 1232
1135 1227
1125 1223
1116 1218
1106 1215
1097 1210
1087 1209
1077 1205
1068 1200
1058 1200
1049 1195
1039 1195
1030 1190
1020 1190
1011 1185
1001 1185
991 1183
981 1180
971 1180
962 1175
952 1175
942 1174
932 1174
922 1170
912 1170
902 1170
892 1169
882 1169
872 1165
862 1165
852 1165
842 1165
832 1165
822 1165
812 1165
802 1165
792 1165
782 1165
772 1165
762 1165
752 1165
742 1165
732 1165
722 1165
712 1165
702 1165
692 1165
682 1165
672 1165
663 1170
653 1170
643 1170
633 1170
623 1170
613 1170
603 1170
593 1170
584 1175
575 1170
566 1175
556 1175
546 1173
541 1164
539 1154
534 1145
532 1135
529 1125
524 1116
524 1106
519 1097
514 1088
509 1079
506 1069
502 1059
497 1050
494 1040
489 1031
484 1022
479 1013
476 1003
471 994
467 984
462 975
459 965
451 959
449 949
444 940
439 931
434 922
429 913
424 904
419 895
414 886
409 877
405 867
400 858
394 850
392 840
388 830
380 823
379 813
374 804
372 794
367 785
364 775
359 766
354 757
354 747
349 738
344 729
344 719
339 710
337 700
334 690
332 680
329 670
327 660
324 650
324 640
324 630
319 621
319 611
319 601
319 591
314 582
314 572
