4 127
4 117
12 109
21 114
31 114
41 114
50 119
60 122
70 124
79 129
89 129
99 131
109 134
119 134
128 139
138 139
148 139
157 144
167 144
177 144
187 144
197 144
207 144
215 135
207 129
199 122
199 112
207 104
216 99
226 95
236 90
246 85
256 84
265 79
274 74
284 72
294 69
304 67
314 64
323 59
332 54
342 54
351 49
361 49
370 44
380 44
390 44
400 44
410 44
419 49
428 54
437 59
444 67
452 74
459 82
469 84
479 84
489 82
497 74
504 51
509 39
514 22
519 12
529 9
539 9
549 6
553 16
560 24
570 27
577 35
585 42
589 52
594 61
598 71
605 79
614 84
624 84
634 84
644 84
654 86
664 89
674 89
684 89
693 94
703 94
713 95
723 99
733 99
742 104
752 104
762 104
771 109
781 109
790 114
800 114
809 119
818 124
827 129
836 134
840 145
840 155
850 154
860 154
860 170
850 175
843 183
833 188
823 193
813 198
803 200
794 205
784 207
774 210
765 215
756 220
746 220
737 225
727 225
718 230
708 233
698 235
689 240
679 240
670 245
660 245
650 250
640 250
635 265
630 280
625 295
620 305
615 315
610 325
602 339
597 349
589 355
584 346
579 337
579 327
579 317
579 307
579 297
584 282
592 274
600 266
592 260
582 260
572 260
562 260
552 260
542 264
532 265
522 265
512 265
502 265
492 265
482 265
472 265
462 265
452 265
442 265
432 265
422 265
412 265
402 264
392 260
382 260
372 260
362 260
353 255
343 255
333 255
323 253
315 260
310 270
303 278
295 285
288 298
280 305
271 310
262 315
255 307
249 299
246 289
244 279
239 270
234 261
229 252
229 242
237 234
245 226
239 215
229 215
220 210
210 210
200 210
190 210
180 210
170 210
160 215
151 220
141 220
132 225
122 229
112 234
102 235
93 240
84 245
74 245
65 250
55 250
45 250
35 250
25 250
15 250
9 242
9 232
14 215
14 205
14 195
14 185
14 175
14 165
14 155
9 146
4 137
