4 172
4 162
9 152
17 144
19 132
27 124
34 112
42 104
52 104
62 104
71 109
80 114
90 117
100 119
110 119
119 124
129 124
139 126
149 129
159 131
168 136
178 140
188 144
198 144
208 144
214 132
219 121
219 111
219 101
214 92
214 82
224 79
234 77
244 74
254 74
264 72
274 69
284 69
293 64
303 64
312 59
322 54
332 54
342 54
352 54
362 49
372 49
382 49
392 44
402 44
412 44
422 44
432 39
442 39
452 39
462 39
471 34
481 34
491 34
501 34
510 29
520 29
530 29
539 34
549 36
558 41
568 44
577 49
587 49
597 49
607 44
617 44
626 39
635 34
645 31
655 29
665 29
675 29
685 29
694 24
704 24
714 24
724 24
734 22
744 19
754 19
764 19
774 17
784 14
794 14
804 12
814 9
824 9
834 9
844 9
854 9
863 4
873 4
882 9
891 14
899 21
900 31
905 40
907 50
915 57
919 67
927 74
937 74
947 74
957 74
967 74
977 74
987 74
997 74
1007 69
1017 69
1027 69
1037 69
1047 69
1057 69
1065 61
1073 54
1083 54
1092 49
1101 54
1111 54
1120 59
1125 68
1130 77
1137 85
1142 94
1149 102
1150 112
1157 120
1162 129
1165 139
1170 148
1178 155
1182 165
1187 174
1190 184
1188 198
1180 205
1173 213
1165 220
1155 225
1145 230
1143 240
1133 240
1124 245
1114 247
1104 250
1095 255
1085 255
1076 260
1067 265
1057 269
1047 270
1037 274
1027 275
1017 275
1008 280
998 280
988 280
979 285
969 285
960 290
955 300
950 315
945 330
945 340
940 350
935 365
930 375
926 385
916 389
909 381
904 372
909 355
900 360
894 352
894 342
899 327
904 317
912 309
912 295
902 295
892 295
882 299
874 305
865 310
855 315
845 320
837 329
828 335
819 340
809 342
799 345
790 340
780 340
770 338
764 330
755 325
747 319
739 312
732 304
722 300
712 300
702 299
692 295
682 295
672 295
662 295
652 295
642 295
632 295
622 294
612 290
602 290
592 294
582 295
573 300
563 303
553 308
543 310
534 315
525 320
515 320
505 320
496 325
486 325
476 325
466 325
456 325
446 325
436 325
426 325
416 325
406 325
396 325
386 325
377 320
367 320
357 320
347 320
337 320
327 319
317 315
307 315
298 310
288 310
278 310
268 310
259 305
249 305
239 305
229 305
220 300
210 297
200 295
194 287
194 277
204 272
204 262
209 253
202 245
192 245
183 240
174 245
164 245
155 250
145 250
135 250
126 255
116 255
106 255
97 260
87 264
77 269
67 270
57 270
48 275
39 270
29 267
25 257
20 248
14 240
9 231
4 222
4 212
4 202
4 192
4 182
