355 1261
355 1251
365 1250
375 1250
385 1250
395 1250
405 1250
415 1250
425 1250
435 1250
445 1250
455 1250
465 1250
475 1250
485 1250
495 1250
505 1250
515 1250
525 1250
535 1250
545 1250
555 1250
565 1250
575 1250
585 1250
595 1250
605 1250
615 1250
625 1250
635 1250
645 1250
655 1250
665 1250
675 1250
685 1250
695 1250
705 1250
715 1250
725 1250
735 1250
745 1250
755 1250
765 1250
775 1250
785 1250
795 1250
805 1250
815 1250
825 1250
835 1250
845 1250
855 1250
865 1250
875 1250
885 1250
895 1250
905 1250
915 1250
925 1250
935 1250
945 1250
955 1250
965 1250
975 1250
985 1250
995 1250
1005 1250
1015 1250
1025 1250
1030 1234
1030 1224
1030 1214
1030 1204
1030 1194
1030 1184
1030 1174
1026 1164
1016 1164
1006 1164
996 1164
986 1164
976 1164
966 1164
956 1164
946 1164
936 1164
926 1164
916 1164
906 1164
896 1164
886 1164
876 1164
866 1164
856 1164
846 1164
836 1164
826 1164
816 1164
806 1164
796 1164
786 1164
776 1164
766 1164
756 1164
746 1164
736 1164
726 1164
716 1164
706 1164
696 1164
686 1164
676 1164
666 1164
656 1164
646 1164
636 1164
626 1164
616 1164
606 1164
596 1164
586 1164
576 1164
566 1164
556 1164
546 1164
536 1164
526 1164
516 1164
506 1164
496 1164
486 1164
476 1164
466 1164
456 1164
446 1164
436 1164
426 1164
416 1164
406 1164
396 1164
386 1164
376 1164
366 1164
360 1156
360 1146
360 1136
360 1126
360 1116
370 1115
380 1115
390 1115
400 1115
410 1115
420 1115
430 1115
440 1115
450 1115
460 1115
470 1115
480 1115
490 1115
500 1115
510 1115
520 1115
530 1115
540 1115
550 1115
560 1115
570 1115
580 1115
590 1115
600 1115
610 1115
620 1115
630 1115
640 1115
650 1115
660 1115
670 1115
680 1115
690 1115
700 1115
710 1115
720 1115
730 1115
740 1115
750 1115
760 1115
770 1115
780 1115
790 1115
800 1115
810 1115
820 1115
830 1115
840 1115
850 1115
860 1115
870 1115
880 1115
890 1115
900 1115
910 1115
920 1115
930 1115
940 1115
950 1115
960 1115
970 1115
980 1115
990 1115
1000 1115
1010 1115
1020 1115
1030 1109
1030 1099
1030 1089
1030 1079
1030 1069
1030 1059
1030 1049
1030 1039
1030 1029
1030 1019
1030 1009
1026 999
1016 999
1006 999
996 999
986 999
976 999
966 999
956 999
946 999
936 999
926 999
916 999
906 999
896 999
886 999
876 999
866 999
856 999
846 999
836 999
826 999
816 999
806 999
796 999
786 999
776 999
766 999
756 999
746 999
736 999
726 999
716 999
706 999
696 999
686 999
676 999
666 999
656 999
646 999
636 999
626 999
616 999
606 999
596 999
586 999
576 999
566 999
556 999
546 999
536 999
526 999
516 999
506 999
496 999
486 999
476 999
466 999
456 999
446 999
436 999
426 999
416 999
406 999
396 999
386 999
376 999
366 999
360 991
360 981
360 971
360 961
360 951
370 950
380 950
390 950
400 950
410 950
420 950
430 950
440 950
450 950
460 950
470 950
480 950
490 950
500 950
510 950
520 950
530 950
540 950
550 950
560 950
570 950
580 950
590 950
600 950
610 950
620 950
630 950
640 950
650 950
660 950
670 950
680 950
690 950
700 950
710 950
720 950
730 950
740 950
750 950
760 950
770 950
780 950
790 950
800 950
810 950
820 950
830 950
840 950
850 950
860 950
870 950
880 950
890 950
900 950
910 950
920 950
930 950
940 950
950 950
960 950
970 950
980 950
990 950
1000 950
1010 950
1020 950
1030 950
1040 950
1050 950
1060 950
1070 950
1080 950
1090 950
1100 950
1110 950
1120 950
1130 950
1140 950
1150 953
1160 955
1170 955
1180 955
1190 955
1200 955
1210 955
1220 955
1230 955
1240 955
1250 955
1260 955
1270 955
1274 965
1274 975
1274 985
1274 995
1274 1005
1274 1015
1274 1025
1274 1035
1274 1045
1274 1055
1274 1065
1274 1075
1274 1085
1274 1095
1274 1105
1274 1115
1274 1125
1283 1130
1293 1130
1303 1130
1313 1130
1323 1130
1333 1130
1343 1130
1353 1130
1363 1130
1373 1130
1383 1130
1393 1130
1403 1130
1413 1130
1423 1130
1433 1130
1443 1130
1453 1130
1463 1130
1473 1130
1483 1130
1493 1130
1503 1130
1513 1130
1523 1130
1533 1130
1543 1130
1553 1130
1563 1130
1573 1130
1583 1130
1593 1130
1603 1130
1613 1130
1623 1130
1633 1130
1643 1130
1653 1130
1663 1130
1673 1130
1683 1130
1693 1130
1703 1130
1713 1130
1723 1130
1733 1130
1743 1130
1753 1130
1763 1130
1773 1130
1783 1130
1793 1130
1803 1130
1813 1130
1823 1130
1833 1130
1843 1130
1853 1130
1863 1130
1873 1130
1883 1130
1893 1130
1903 1130
1913 1130
1923 1130
1933 1130
1943 1130
1953 1130
1963 1130
1973 1130
1983 1130
1993 1130
2003 1130
2013 1130
2023 1130
2033 1130
2043 1130
2053 1130
2063 1130
2073 1130
2083 1130
2093 1130
2103 1130
2113 1130
2123 1130
2133 1130
2143 1130
2153 1130
2163 1130
2173 1130
2183 1130
2193 1130
2203 1130
2213 1130
2223 1130
2233 1130
2243 1130
2253 1130
2263 1130
2273 1130
2283 1130
2293 1130
2303 1130
2313 1130
2323 1130
2333 1130
2343 1130
2353 1130
2363 1130
2373 1130
2383 1130
2393 1130
2403 1130
2413 1130
2423 1130
2433 1130
2443 1130
2453 1130
2463 1130
2473 1130
2483 1130
2493 1130
2503 1130
2513 1130
2523 1130
2533 1130
2543 1130
2553 1130
2563 1130
2573 1130
2583 1130
2593 1130
2603 1130
2613 1130
2623 1130
2633 1130
2643 1130
2653 1130
2663 1130
2673 1130
2683 1130
2693 1130
2703 1130
2713 1130
2723 1130
2733 1130
2743 1130
2753 1130
2763 1130
2773 1130
2783 1130
2793 1130
2803 1130
2813 1130
2823 1130
2833 1130
2843 1130
2853 1130
2863 1130
2873 1130
2883 1130
2893 1130
2903 1130
2913 1130
2923 1130
2933 1130
2943 1130
2953 1130
2963 1130
2973 1130
2983 1130
2993 1130
3003 1130
3013 1130
3019 1138
3019 1148
3019 1158
3019 1168
3019 1178
3019 1188
3019 1198
3019 1208
3019 1218
3019 1228
3019 1238
3019 1248
3019 1258
3014 1274
3004 1274
2994 1274
2984 1274
2974 1274
2964 1274
2954 1274
2944 1274
2934 1274
2924 1274
2914 1274
2904 1274
2894 1274
2884 1274
2874 1274
2864 1274
2854 1274
2844 1274
2834 1274
2824 1274
2814 1274
2804 1274
2794 1274
2784 1274
2774 1274
2764 1274
2754 1274
2744 1274
2734 1274
2724 1274
2714 1274
2704 1274
2694 1274
2684 1274
2674 1274
2664 1274
2654 1274
2644 1274
2634 1274
2624 1274
2614 1274
2604 1274
2594 1274
2584 1274
2574 1274
2564 1274
2554 1274
2544 1274
2534 1274
2524 1274
2514 1274
2504 1274
2494 1274
2484 1274
2474 1274
2464 1274
2454 1274
2444 1274
2434 1274
2424 1274
2414 1274
2404 1274
2394 1274
2384 1274
2374 1274
2364 1274
2354 1274
2344 1274
2334 1274
2324 1274
2314 1274
2304 1274
2294 1274
2284 1274
2274 1274
2264 1274
2254 1274
2244 1274
2234 1274
2224 1274
2214 1274
2204 1274
2194 1274
2184 1274
2174 1274
2164 1274
2154 1274
2144 1274
2134 1274
2124 1274
2114 1274
2104 1274
2094 1274
2084 1274
2074 1274
2064 1274
2054 1274
2044 1274
2034 1274
2024 1274
2014 1274
2004 1274
1994 1274
1984 1274
1974 1274
1964 1274
1954 1274
1944 1274
1934 1274
1924 1274
1914 1274
1904 1274
1894 1274
1884 1274
1874 1274
1864 1274
1854 1274
1844 1274
1834 1274
1824 1274
1814 1274
1804 1274
1794 1274
1784 1274
1774 1274
1764 1274
1754 1274
1744 1274
1734 1274
1724 1274
1714 1274
1704 1274
1694 1274
1684 1274
1674 1274
1664 1274
1654 1274
1644 1274
1634 1274
1624 1274
1614 1274
1604 1274
1594 1274
1584 1274
1574 1274
1564 1274
1554 1274
1544 1274
1534 1274
1524 1274
1514 1274
1504 1274
1494 1274
1484 1274
1474 1274
1464 1274
1454 1274
1444 1274
1434 1274
1424 1274
1414 1274
1404 1274
1394 1274
1384 1274
1374 1274
1364 1274
1354 1274
1344 1274
1334 1274
1324 1274
1314 1274
1304 1274
1294 1274
1284 1274
1274 1276
1274 1286
1274 1296
1274 1306
1274 1316
1274 1326
1274 1336
1274 1346
1274 1356
1274 1366
1274 1376
1274 1386
1274 1396
1274 1406
1274 1416
1274 1426
1265 1439
1255 1439
1245 1439
1235 1439
1225 1439
1215 1439
1205 1439
1195 1439
1185 1439
1175 1439
1165 1439
1155 1439
1145 1439
1135 1439
1125 1439
1115 1439
1105 1439
1095 1439
1085 1439
1075 1439
1065 1439
1055 1439
1045 1439
1035 1439
1025 1439
1015 1439
1005 1439
995 1439
985 1439
975 1439
965 1439
955 1439
945 1439
935 1439
925 1439
915 1439
905 1439
895 1439
885 1439
875 1439
865 1439
855 1439
845 1439
835 1439
825 1439
815 1439
805 1439
795 1439
785 1439
775 1439
765 1439
755 1439
745 1439
735 1439
725 1439
715 1439
705 1439
695 1439
685 1439
675 1439
665 1439
655 1439
645 1439
635 1439
625 1439
615 1439
605 1439
595 1439
585 1439
575 1439
565 1439
555 1439
545 1439
535 1439
525 1439
515 1439
505 1439
495 1439
485 1439
475 1439
465 1439
455 1439
445 1439
435 1439
425 1439
415 1439
405 1439
395 1439
385 1439
375 1439
365 1439
355 1436
355 1426
355 1416
355 1406
355 1396
355 1386
365 1385
375 1385
385 1385
395 1385
405 1385
415 1385
425 1385
435 1385
445 1385
455 1385
465 1385
475 1385
485 1385
495 1385
505 1385
515 1385
525 1385
535 1385
545 1385
555 1385
565 1385
575 1385
585 1385
595 1385
605 1385
615 1385
625 1385
635 1385
645 1385
655 1385
665 1385
675 1385
685 1385
695 1385
705 1385
715 1385
725 1385
735 1385
745 1385
755 1385
765 1385
775 1385
785 1385
795 1385
805 1385
815 1385
825 1385
835 1385
845 1385
855 1385
865 1385
875 1385
885 1385
895 1385
905 1385
915 1385
925 1385
935 1385
945 1385
955 1385
965 1385
975 1385
985 1385
995 1385
1005 1385
1015 1385
1025 1385
1030 1373
1030 1363
1030 1353
1030 1343
1030 1333
1030 1323
1030 1313
1025 1304
1015 1304
1005 1304
995 1304
985 1304
975 1304
965 1304
955 1304
945 1304
935 1304
925 1304
915 1304
905 1304
895 1304
885 1304
875 1304
865 1304
855 1304
845 1304
835 1304
825 1304
815 1304
805 1304
795 1304
785 1304
775 1304
765 1304
755 1304
745 1304
735 1304
725 1304
715 1304
705 1304
695 1304
685 1304
675 1304
665 1304
655 1304
645 1304
635 1304
625 1304
615 1304
605 1304
595 1304
585 1304
575 1304
565 1304
555 1304
545 1304
535 1304
525 1304
515 1304
505 1304
495 1304
485 1304
475 1304
465 1304
455 1304
445 1304
435 1304
425 1304
415 1304
405 1304
395 1304
385 1304
375 1304
365 1304
355 1301
355 1291
355 1281
355 1271
