995 506
995 496
1000 486
1000 476
1000 466
1000 456
1000 446
1000 436
1005 421
1005 411
1005 401
1005 391
1005 381
1005 371
1005 361
1005 351
1005 341
1005 331
1005 321
1010 306
1010 296
1010 286
1010 276
1015 266
1023 259
1033 254
1043 250
1053 250
1062 255
1069 263
1075 271
1080 280
1080 290
1080 300
1080 310
1080 320
1075 335
1075 345
1075 355
1075 365
1075 375
1075 385
1075 395
1075 405
1075 415
1075 425
1075 435
1070 450
1070 460
1070 470
1070 480
1070 490
1070 500
1065 510
1065 520
1065 530
1065 540
1065 550
1065 560
1065 570
1065 580
1065 590
1065 600
1065 610
1065 620
1065 630
1065 640
1066 650
1070 660
1070 670
1075 679
1075 689
1080 698
1084 708
1090 716
1096 724
1104 731
1108 741
1118 745
1127 750
1134 758
1142 765
1149 773
1159 776
1165 784
1173 790
1175 776
1175 766
1175 756
1175 746
1175 736
1175 726
1175 716
1175 706
1175 696
1175 686
1175 676
1175 666
1180 651
1180 641
1180 631
1180 621
1185 611
1185 601
1185 591
1185 581
1185 571
1185 561
1185 551
1185 541
1185 531
1185 521
1185 511
1185 501
1185 491
1185 481
1190 466
1190 456
1190 446
1190 436
1195 421
1195 411
1195 401
1195 391
1195 381
1195 371
1195 361
1200 351
1200 341
1200 331
1200 321
1200 311
1200 301
1200 291
1200 281
1205 271
1213 264
1223 259
1233 255
1243 255
1252 260
1259 268
1265 276
1270 285
1270 295
1270 305
1270 315
1270 325
1270 335
1270 345
1270 355
1270 365
1265 375
1265 385
1265 395
1265 405
1265 415
1265 425
1265 435
1265 445
1260 455
1260 465
1260 475
1260 485
1255 495
1255 505
1255 515
1255 525
1255 535
1255 545
1255 555
1255 565
1255 575
1255 585
1255 595
1255 605
1255 615
1255 625
1250 635
1250 645
1250 655
1250 665
1245 680
1245 690
1245 700
1245 710
1245 720
1245 730
1245 740
1245 750
1245 760
1250 769
1250 779
1250 789
1250 799
1250 809
1260 810
1270 810
1280 810
1288 804
1295 796
1300 781
1300 771
1300 761
1300 751
1300 741
1305 726
1305 716
1310 706
1310 696
1315 681
1315 671
1315 661
1320 646
1320 636
1320 626
1320 616
1325 601
1325 591
1325 581
1330 571
1330 561
1330 551
1335 536
1335 526
1340 516
1340 506
1340 496
1345 486
1350 476
1358 470
1355 460
1350 451
1350 441
1350 431
1355 416
1355 406
1355 396
1355 386
1360 371
1360 361
1360 351
1360 341
1360 331
1360 321
1365 306
1365 296
1365 286
1365 276
1370 266
1378 259
1388 254
1398 250
1408 250
1417 255
1424 263
1430 271
1435 280
1435 290
1435 300
1435 310
1435 320
1430 335
1430 345
1430 355
1430 365
1430 375
1430 385
1425 400
1425 410
1425 420
1425 430
1420 440
1418 453
1413 463
1405 470
1410 479
1415 488
1415 498
1410 510
1410 520
1410 530
1405 540
1405 550
1400 565
1400 575
1395 590
1395 600
1395 610
1395 620
1390 630
1390 640
1390 650
1390 660
1385 675
1385 685
1385 695
1380 710
1380 720
1375 730
1375 740
1370 755
1370 765
1370 775
1371 785
1381 780
1390 775
1398 769
1405 761
1413 754
1420 746
1425 736
1430 726
1438 719
1445 706
1450 696
1458 689
1463 679
1468 669
1470 656
1475 646
1480 636
1485 621
1490 611
1490 601
1495 591
1495 581
1500 566
1500 556
1505 546
1505 536
1505 526
1510 511
1510 501
1510 491
1510 481
1510 471
1510 461
1510 451
1510 441
1510 431
1510 421
1510 411
1510 401
1510 391
1515 381
1515 371
1515 361
1515 351
1515 341
1515 331
1520 316
1520 306
1520 296
1520 286
1520 276
1520 266
1525 256
1530 246
1538 239
1548 234
1558 230
1568 230
1577 235
1584 243
1590 251
1595 260
1595 270
1595 280
1595 290
1590 300
1590 310
1590 320
1590 330
1590 340
1585 350
1585 360
1585 370
1585 380
1585 390
1580 405
1580 415
1580 425
1580 435
1580 445
1580 455
1580 465
1580 475
1580 485
1580 495
1580 505
1580 515
1580 525
1575 540
1575 550
1575 560
1570 570
1570 580
1565 595
1565 605
1560 615
1560 625
1555 635
1550 650
1548 663
1543 673
1538 683
1533 693
1528 703
1523 713
1518 723
1510 730
1505 740
1500 750
1493 763
1485 770
1478 783
1473 793
1465 800
1458 808
1450 815
1440 820
1432 829
1424 835
1415 840
1405 845
1395 850
1385 850
1375 855
1368 863
1360 870
1353 878
1345 885
1340 895
1340 905
1340 915
1340 925
1335 940
1335 950
1330 965
1330 975
1325 985
1325 995
1320 1005
1320 1015
1320 1025
1320 1035
1320 1045
1315 1055
1315 1065
1315 1075
1315 1085
1315 1095
1315 1105
1315 1115
1315 1125
1315 1135
1315 1145
1315 1155
1315 1165
1315 1175
1315 1185
1315 1195
1315 1205
1315 1215
1315 1225
1315 1235
1315 1245
1315 1255
1310 1265
1310 1275
1305 1290
1305 1300
1305 1310
1305 1320
1305 1330
1305 1340
1305 1350
1300 1360
1300 1370
1300 1380
1300 1390
1295 1405
1295 1415
1295 1425
1295 1435
1295 1445
1295 1455
1295 1465
1290 1475
1290 1485
1285 1500
1285 1510
1280 1520
1280 1530
1280 1540
1280 1550
1275 1560
1270 1570
1270 1580
1270 1590
1270 1600
1265 1615
1265 1625
1265 1635
1265 1645
1260 1660
1260 1670
1260 1680
1260 1690
1260 1700
1255 1710
1255 1720
1255 1730
1255 1740
1250 1755
1250 1765
1250 1775
1250 1785
1250 1795
1250 1805
1250 1815
1250 1825
1250 1835
1250 1845
1245 1855
1245 1865
1240 1880
1240 1890
1235 1905
1235 1915
1235 1925
1235 1935
1235 1945
1236 1955
1240 1965
1240 1975
1240 1985
1240 1995
1235 2005
1230 2015
1225 2025
1218 2038
1210 2045
1202 2054
1192 2059
1182 2060
1172 2059
1163 2054
1155 2047
1148 2039
1140 2033
1133 2025
1130 2015
1130 2005
1125 1996
1125 1986
1125 1976
1125 1966
1125 1956
1125 1946
1125 1936
1125 1926
1130 1916
1130 1906
1130 1896
1130 1886
1130 1876
1135 1866
1135 1856
1135 1846
1135 1836
1140 1821
1140 1811
1140 1801
1140 1791
1140 1781
1140 1771
1140 1761
1140 1751
1140 1741
1140 1731
1140 1721
1140 1711
1140 1701
1140 1691
1145 1676
1145 1666
1150 1656
1150 1646
1155 1631
1155 1621
1160 1611
1165 1601
1170 1586
1170 1576
1175 1561
1175 1551
1175 1541
1175 1531
1180 1521
1180 1511
1180 1501
1180 1491
1180 1481
1180 1471
1180 1461
1185 1446
1185 1436
1185 1426
1185 1416
1190 1406
1190 1396
1190 1386
1190 1376
1190 1366
1190 1356
1190 1346
1190 1336
1190 1326
1190 1316
1190 1306
1190 1296
1190 1286
1190 1276
1195 1265
1195 1255
1195 1245
1195 1235
1195 1225
1195 1215
1195 1205
1195 1195
1190 1186
1190 1176
1190 1166
1190 1156
1190 1146
1190 1136
1195 1121
1195 1111
1200 1101
1200 1091
1205 1081
1205 1071
1210 1059
1210 1049
1210 1039
1210 1029
1210 1019
1210 1009
1210 999
1210 989
1205 980
1205 970
1200 961
1195 952
1195 942
1195 932
1195 922
1190 913
1190 903
1185 894
1179 886
1175 876
1165 873
1156 868
1146 864
1137 859
1128 854
1120 848
1114 840
1106 833
1101 824
1092 819
1083 814
1075 807
1068 799
1060 792
1055 783
1048 775
1044 765
1036 759
1030 751
1025 742
1020 733
1015 724
1010 715
1008 705
1005 695
1000 686
1000 676
999 666
995 656
995 646
995 636
995 626
995 616
995 606
995 596
995 586
995 576
995 566
995 556
995 546
995 536
995 526
995 516
