434 997
434 987
439 977
444 967
452 959
460 951
468 944
477 939
485 931
493 924
502 919
510 911
518 904
525 896
533 889
540 881
548 874
557 869
566 864
575 859
585 856
595 854
599 842
599 832
604 822
609 812
617 804
625 796
633 789
642 784
651 779
659 772
669 767
679 764
688 759
697 754
707 754
716 749
726 749
735 744
745 744
755 744
765 744
775 744
785 744
795 744
805 744
815 744
825 744
835 744
845 744
855 744
864 737
864 727
869 717
874 707
879 697
879 687
884 672
884 662
884 652
884 642
884 632
884 622
884 612
879 603
876 593
870 585
860 585
850 585
840 585
830 585
820 585
810 585
800 585
790 585
782 579
774 572
774 562
779 552
784 542
794 537
804 532
814 527
824 524
833 519
843 519
853 519
863 519
873 519
879 510
879 500
879 490
879 480
874 471
869 462
869 452
874 442
874 432
879 422
884 412
894 407
902 399
912 394
922 394
932 394
939 402
940 412
945 421
948 431
950 441
955 450
955 460
960 469
960 479
960 489
960 499
960 509
960 519
960 529
970 529
980 529
990 529
1000 529
1010 529
1020 529
1030 529
1040 529
1050 529
1060 529
1070 532
1077 540
1075 555
1068 565
1059 570
1050 575
1040 575
1031 580
1021 580
1012 585
1002 589
992 590
983 595
973 595
964 600
955 605
955 615
955 625
955 635
955 645
955 655
955 665
955 675
955 685
957 695
960 705
960 715
962 725
967 734
970 744
979 749
989 749
998 754
1008 754
1018 754
1028 754
1038 754
1048 754
1058 754
1068 755
1078 759
1088 759
1098 760
1108 764
1117 769
1127 769
1137 769
1146 774
1156 774
1166 774
1175 779
1185 779
1194 784
1204 784
1214 786
1223 791
1230 799
1238 805
1242 815
1245 825
1245 835
1247 845
1250 855
1258 861
1268 864
1278 865
1288 869
1297 874
1307 874
1316 879
1325 884
1335 887
1345 889
1355 892
1364 897
1374 901
1383 906
1393 910
1402 915
1410 922
1417 930
1425 937
1430 946
1435 955
1435 965
1435 975
1435 985
1430 1000
1425 1010
1420 1020
1415 1030
1408 1038
1398 1043
1390 1050
1380 1055
1371 1060
1362 1065
1352 1069
1343 1075
1334 1080
1325 1085
1318 1093
1310 1100
1301 1105
1292 1110
1283 1115
1273 1118
1263 1123
1253 1128
1243 1133
1233 1138
1223 1143
1213 1148
1203 1150
1194 1155
1185 1160
1175 1160
1165 1165
1155 1170
1146 1175
1136 1175
1127 1180
1117 1180
1107 1180
1097 1180
1087 1180
1077 1180
1067 1180
1057 1180
1047 1180
1037 1180
1027 1180
1017 1180
1007 1180
997 1180
987 1180
977 1180
967 1180
957 1180
947 1180
937 1180
927 1180
917 1180
907 1180
897 1180
887 1180
877 1180
868 1175
858 1175
848 1175
838 1175
828 1175
818 1175
808 1175
799 1170
789 1170
779 1170
769 1170
760 1165
750 1165
740 1162
730 1160
720 1157
710 1155
700 1155
690 1152
680 1150
670 1150
660 1150
650 1147
640 1145
630 1142
620 1140
611 1135
601 1134
592 1129
582 1125
575 1117
567 1110
558 1105
548 1105
539 1100
530 1095
521 1090
512 1085
502 1084
492 1080
483 1075
474 1070
465 1065
456 1060
447 1055
444 1045
439 1036
434 1027
434 1017
434 1007
