409 997
409 987
414 972
414 962
419 952
427 944
435 936
443 929
452 924
460 916
470 911
480 909
489 902
497 894
507 889
517 884
527 879
537 874
547 869
557 864
567 864
577 864
579 852
579 842
579 832
584 822
589 812
597 804
606 799
615 794
624 789
634 787
644 782
654 777
664 772
674 767
684 762
694 757
704 754
713 749
723 749
732 744
742 744
752 744
762 744
772 744
782 744
792 744
801 739
811 739
821 739
831 739
841 735
851 734
861 730
864 712
864 702
864 692
869 682
874 667
879 655
879 645
879 635
879 625
879 615
877 605
873 595
864 590
855 585
845 582
835 580
825 577
815 573
809 565
799 561
799 542
807 534
817 529
827 524
837 524
846 519
856 515
866 514
876 514
886 514
896 514
906 514
914 505
914 495
914 485
912 475
909 465
904 456
899 447
899 437
899 427
899 417
907 409
916 404
926 404
936 404
946 404
955 409
955 419
955 429
955 439
955 449
960 458
960 468
960 478
960 488
965 497
965 507
965 517
972 525
982 529
992 529
1002 529
1012 529
1022 529
1032 529
1042 529
1052 529
1062 529
1071 534
1075 545
1067 559
1058 565
1049 570
1039 570
1029 572
1019 575
1009 577
999 580
990 585
980 585
970 590
970 600
970 610
970 620
970 630
970 640
970 650
970 660
970 670
970 680
970 690
970 700
970 710
970 720
970 730
975 739
984 744
994 744
1004 744
1014 744
1024 744
1033 749
1043 749
1053 750
1063 754
1073 754
1083 754
1092 759
1102 759
1112 759
1121 764
1131 764
1141 764
1150 769
1160 769
1170 769
1179 774
1189 774
1199 776
1209 779
1219 779
1228 784
1238 785
1245 793
1250 802
1250 812
1250 822
1250 832
1250 842
1259 847
1269 851
1279 854
1288 859
1297 864
1306 869
1315 874
1324 879
1333 884
1342 889
1351 894
1359 901
1368 906
1375 914
1385 917
1395 919
1404 924
1413 929
1423 930
1432 935
1437 944
1440 954
1440 964
1440 974
1435 985
1430 995
1428 1008
1423 1018
1415 1025
1410 1035
1405 1045
1398 1058
1390 1065
1380 1075
1373 1083
1365 1090
1358 1098
1350 1105
1340 1110
1330 1115
1323 1123
1313 1128
1303 1133
1293 1138
1283 1143
1273 1148
1263 1150
1254 1155
1245 1160
1235 1160
1226 1165
1216 1165
1206 1165
1197 1170
1187 1170
1178 1175
1168 1178
1158 1180
1148 1180
1139 1185
1129 1185
1119 1185
1109 1185
1099 1185
1089 1185
1079 1185
1069 1185
1059 1185
1049 1185
1039 1185
1029 1185
1019 1185
1009 1185
999 1185
989 1185
979 1185
969 1185
959 1185
949 1185
939 1185
929 1185
919 1185
909 1185
899 1185
889 1185
879 1185
869 1185
859 1185
849 1185
839 1185
829 1185
819 1185
809 1185
799 1185
789 1185
779 1185
769 1185
760 1180
750 1180
740 1180
730 1180
720 1180
710 1177
700 1175
690 1172
680 1170
671 1165
661 1165
651 1163
641 1160
632 1155
622 1155
613 1150
603 1150
594 1145
584 1145
575 1140
566 1135
557 1130
547 1130
537 1129
527 1125
520 1117
510 1115
500 1113
491 1108
481 1104
472 1099
462 1095
453 1090
444 1085
435 1080
427 1074
422 1065
419 1055
414 1046
409 1037
409 1027
409 1017
409 1007
