629 372
629 362
634 347
639 332
644 322
649 307
657 299
662 289
669 277
674 262
682 254
689 242
697 234
705 226
713 219
722 214
730 206
740 201
750 196
758 189
767 184
776 179
784 172
794 167
802 159
812 159
822 154
832 149
842 144
852 144
862 144
871 139
881 139
891 139
901 139
911 139
921 139
931 139
941 139
951 139
961 139
971 139
981 139
991 139
1001 139
1004 122
1014 119
1024 119
1034 119
1044 119
1054 119
1064 119
1074 119
1084 119
1094 119
1104 119
1114 119
1124 119
1134 121
1135 131
1135 141
1135 151
1135 161
1135 171
1135 181
1135 191
1135 201
1135 211
1135 221
1135 231
1135 241
1135 251
1135 261
1135 271
1135 281
1135 291
1135 301
1135 311
1135 321
1135 331
1135 341
1135 351
1127 360
1117 360
1107 360
1097 360
1087 360
1077 360
1067 360
1057 360
1047 360
1037 360
1027 360
1017 360
1007 360
1004 350
1000 340
990 340
980 340
980 350
980 360
980 370
980 380
980 390
980 400
980 410
980 420
980 430
980 440
980 450
980 460
980 470
980 480
980 490
980 500
980 510
980 520
980 530
980 540
980 550
980 560
980 570
980 580
980 590
980 600
980 610
980 620
980 630
980 640
980 650
980 660
980 670
980 680
980 690
980 700
980 710
980 720
980 730
980 740
980 750
980 760
980 770
980 780
980 790
980 800
980 810
980 820
980 830
980 840
974 850
964 850
954 850
944 850
934 850
924 850
914 850
904 850
894 850
884 850
874 850
864 850
859 841
859 831
859 821
859 811
859 801
859 791
859 781
859 771
859 761
859 751
859 741
859 731
859 721
859 711
859 701
859 691
859 681
859 671
859 661
859 651
859 641
859 631
859 621
859 611
859 601
859 591
859 581
859 571
859 561
859 551
859 541
859 531
859 521
859 511
859 501
859 491
859 481
859 471
859 461
859 451
859 441
859 431
859 421
859 411
859 401
859 391
859 381
859 371
859 361
859 351
859 341
851 335
841 335
831 335
821 335
811 335
802 340
792 340
782 340
772 340
763 345
753 345
743 345
734 350
724 350
715 355
705 355
695 355
686 360
676 360
667 365
657 365
648 370
639 375
