119 1017
119 1007
129 1004
139 997
139 987
139 977
139 967
139 957
139 947
139 937
139 927
139 917
139 907
139 897
139 887
139 877
139 867
144 852
144 842
149 832
154 822
159 812
159 802
167 794
172 784
179 772
187 764
192 754
199 742
204 732
212 724
217 714
225 706
233 699
240 691
250 686
258 679
267 674
277 669
287 664
296 659
304 652
314 649
323 644
332 639
342 639
351 634
361 630
371 629
370 645
365 655
365 665
360 675
355 690
355 700
355 710
350 720
350 730
345 740
345 750
345 760
340 770
340 780
340 790
340 800
335 810
335 820
335 830
335 840
335 850
340 859
350 859
360 859
370 859
380 859
390 859
400 859
410 859
420 859
430 859
440 859
450 859
460 859
470 859
480 859
490 859
500 859
510 859
520 859
530 859
540 859
550 859
560 859
570 859
580 859
590 859
600 859
610 859
620 859
630 859
640 859
650 859
660 859
670 859
680 859
690 859
700 859
710 859
720 859
730 859
740 859
750 859
760 859
770 859
780 859
790 859
800 859
810 859
820 859
830 859
840 859
850 859
860 859
870 859
880 859
890 859
900 859
910 859
920 859
930 859
940 859
950 859
960 859
970 859
980 862
980 872
980 882
980 892
980 902
980 912
980 922
980 932
980 942
980 952
980 962
980 972
970 980
960 980
950 980
940 980
930 980
920 980
910 980
900 980
890 980
880 980
870 980
860 980
850 980
840 980
830 980
820 980
810 980
800 980
790 980
780 980
770 980
760 980
750 980
740 980
730 980
720 980
710 980
700 980
690 980
680 980
670 980
660 980
650 980
640 980
630 980
620 980
610 980
600 980
590 980
580 980
570 980
560 980
550 980
540 980
530 980
520 980
510 980
500 980
490 980
480 980
470 980
460 980
450 980
440 980
430 980
420 980
410 980
400 980
390 980
380 980
370 980
360 980
350 980
340 980
340 990
340 1000
350 1004
360 1007
360 1017
360 1027
360 1037
360 1047
360 1057
360 1067
360 1077
360 1087
360 1097
360 1107
360 1117
355 1135
345 1135
335 1135
325 1135
315 1135
305 1135
295 1135
285 1135
275 1135
265 1135
255 1135
245 1135
235 1135
225 1135
215 1135
205 1135
195 1135
185 1135
175 1135
165 1135
155 1135
145 1135
135 1135
125 1135
119 1127
119 1117
119 1107
119 1097
119 1087
119 1077
119 1067
119 1057
119 1047
119 1037
119 1027
