129 707
129 697
134 687
134 677
134 667
134 657
134 647
139 637
139 627
139 617
139 607
139 597
139 587
139 577
139 567
139 557
139 547
144 537
152 529
160 521
170 516
178 509
185 501
193 494
200 486
208 479
215 471
223 464
232 459
241 454
249 447
259 442
269 439
278 434
288 434
295 426
303 419
310 411
318 404
328 404
337 399
347 394
357 394
364 382
369 372
374 362
374 352
379 342
387 334
396 329
405 324
415 324
424 317
432 309
434 297
439 282
447 274
456 269
465 264
475 261
484 247
484 237
484 227
489 217
497 209
506 204
515 199
525 199
535 199
545 202
554 207
564 211
570 219
578 225
585 233
593 240
597 250
602 259
605 269
610 278
620 282
628 289
637 294
646 299
654 306
655 316
660 325
660 335
662 345
670 352
679 357
689 361
695 369
704 374
712 380
717 389
726 394
735 399
744 404
753 409
762 414
771 419
781 419
791 419
800 424
809 429
817 435
822 444
831 449
840 454
850 454
860 454
870 454
880 454
889 459
899 461
909 464
918 469
928 470
935 478
935 488
940 497
940 507
945 516
951 524
960 529
970 529
979 524
988 519
997 514
1006 519
1014 526
1020 534
1025 543
1025 553
1033 560
1042 565
1052 569
1061 574
1071 574
1080 579
1090 579
1100 579
1109 584
1118 589
1127 594
1137 594
1147 594
1157 589
1167 589
1176 584
1186 584
1196 584
1205 589
1215 589
1225 589
1235 592
1245 594
1254 599
1264 599
1274 597
1284 592
1292 584
1302 579
1312 579
1322 579
1332 579
1342 579
1352 579
1362 579
1372 579
1382 579
1392 579
1402 579
1412 579
1422 579
1431 584
1441 584
1451 584
1461 584
1470 589
1478 595
1488 599
1498 599
1507 594
1515 586
1525 581
1533 574
1543 574
1553 574
1563 574
1573 574
1582 579
1592 579
1599 587
1609 591
1615 599
1623 605
1630 613
1638 620
1648 624
1657 629
1667 629
1677 629
1687 629
1696 634
1706 634
1716 634
1726 634
1735 639
1743 645
1752 650
1760 657
1767 665
1775 672
1782 680
1787 689
1794 697
1802 704
1805 714
1810 723
1815 732
1815 745
1815 755
1810 765
1802 774
1794 780
1785 785
1778 793
1770 800
1763 813
1755 820
1749 830
1740 835
1731 840
1721 840
1711 840
1701 840
1691 840
1681 840
1671 838
1661 835
1651 835
1641 835
1631 835
1621 835
1611 835
1601 835
1592 830
1582 830
1572 830
1562 830
1552 830
1542 830
1532 830
1522 830
1512 830
1502 830
1492 830
1482 830
1472 830
1462 830
1452 830
1442 829
1432 825
1422 825
1412 825
1402 825
1392 825
1382 825
1372 825
1362 825
1352 825
1342 825
1332 825
1322 825
1313 820
1303 820
1293 820
1283 820
1273 820
1263 820
1254 815
1244 815
1234 815
1224 815
1214 815
1204 815
1194 815
1184 815
1174 815
1164 815
1154 815
1145 810
1135 810
1125 810
1115 810
1105 810
1095 810
1085 810
1075 810
1065 810
1055 810
1045 807
1035 805
1025 805
1015 805
1005 805
995 805
985 805
975 805
965 805
955 805
945 805
935 805
925 805
915 805
905 810
898 818
893 828
885 835
877 844
869 850
859 852
849 855
839 855
829 855
819 855
809 857
799 860
790 865
780 870
773 878
765 885
755 885
746 890
736 890
726 890
716 888
706 885
697 890
687 894
677 899
669 905
660 910
650 915
640 920
633 928
623 933
615 940
610 950
603 963
593 968
585 975
575 975
568 983
560 990
555 1000
550 1010
540 1015
531 1020
521 1020
512 1025
502 1025
493 1020
483 1020
473 1020
463 1020
453 1020
445 1013
439 1005
434 996
429 987
424 978
415 973
409 965
399 962
392 954
384 947
380 937
375 928
369 920
361 914
352 909
342 905
335 897
329 889
324 880
314 877
307 869
299 862
290 857
282 850
275 842
265 838
259 830
251 824
242 819
234 812
225 807
217 800
208 795
199 790
191 784
182 779
174 772
165 767
157 760
150 752
142 745
139 735
134 726
134 716
