254 612
254 602
259 587
259 577
259 567
259 557
264 542
264 532
269 517
269 507
274 497
274 487
279 472
284 457
289 447
297 439
299 427
304 417
309 407
317 399
322 389
327 379
335 371
340 361
345 351
353 344
359 332
367 324
372 314
380 306
388 299
395 291
403 284
410 276
418 269
425 261
430 251
438 244
442 234
451 229
459 222
467 214
477 209
486 204
494 197
504 192
512 184
522 179
532 174
542 169
552 164
562 159
572 154
582 154
591 149
601 145
611 144
620 139
630 136
640 134
650 131
660 129
670 126
680 124
690 124
700 121
710 119
720 119
730 119
740 119
750 116
760 114
770 114
780 114
790 114
800 114
810 114
819 109
829 109
839 109
849 109
859 109
869 109
879 109
889 109
899 109
909 109
918 104
928 104
938 104
948 104
958 104
968 104
978 104
988 104
998 104
1008 104
1018 104
1028 104
1038 104
1048 104
1058 104
1068 105
1077 110
1087 114
1096 119
1104 126
1110 134
1118 140
1125 148
1130 157
1135 166
1140 175
1145 184
1145 194
1145 204
1145 214
1145 224
1145 234
1145 244
1145 254
1145 264
1145 274
1150 283
1155 292
1160 301
1165 310
1170 319
1175 328
1180 337
1185 346
1190 355
1195 364
1200 373
1205 382
1210 391
1216 399
1224 406
1233 411
1243 415
1253 419
1263 420
1273 424
1283 424
1293 424
1303 424
1313 424
1323 424
1333 424
1343 424
1352 419
1362 419
1372 419
1382 419
1392 419
1402 419
1412 419
1421 424
1430 429
1438 435
1445 443
1455 447
1465 449
1474 454
1484 454
1494 454
1503 459
1512 464
1521 469
1530 474
1540 477
1549 482
1559 486
1568 491
1578 494
1588 494
1598 494
1608 494
1617 489
1627 484
1637 479
1647 474
1656 469
1666 469
1676 469
1685 474
1695 474
1704 469
1714 469
1724 467
1734 462
1742 454
1752 449
1762 444
1772 444
1782 444
1792 444
1802 444
1812 444
1822 444
1832 439
1842 439
1852 434
1862 434
1872 434
1881 439
1891 439
1901 439
1911 439
1921 439
1930 444
1940 444
1949 449
1958 454
1967 459
1976 464
1985 469
1995 469
2004 474
2014 474
2024 474
2033 469
2043 469
2052 464
2060 456
2070 454
2080 457
2089 462
2097 469
2106 474
2115 479
2123 485
2130 493
2140 497
2148 504
2157 509
2166 514
2174 521
2180 529
2188 535
2195 543
2203 550
2210 558
2220 562
2225 571
2218 588
2210 595
2203 603
2193 608
2185 615
2178 623
2170 630
2163 638
2155 645
2148 653
2138 658
2130 665
2123 673
2115 680
2108 688
2100 695
2091 700
2081 700
2071 699
2062 694
2052 690
2043 685
2034 680
2024 680
2014 680
2004 682
1994 687
1984 690
1975 695
1966 700
1956 700
1947 705
1937 709
1927 709
1917 705
1907 705
1897 705
1887 705
1878 700
1868 700
1859 705
1850 710
1842 719
1834 725
1825 730
1816 735
1806 735
1796 735
1786 735
1776 735
1766 735
1756 735
1746 734
1737 729
1729 722
1720 717
1710 715
1700 715
1690 720
1682 729
1672 734
1662 734
1652 730
1643 725
1634 720
1626 714
1617 709
1607 705
1597 705
1587 705
1578 710
1568 713
1558 715
1549 720
1539 722
1529 725
1520 730
1511 735
1501 735
1492 740
1482 744
1472 745
1463 750
1453 753
1443 755
1434 760
1425 765
1417 774
1409 780
1400 785
1390 790
1383 798
1373 803
1363 805
1353 805
1343 805
1333 805
1323 805
1313 805
1303 805
1293 805
1283 805
1273 805
1263 805
1253 805
1243 805
1233 808
1225 815
1220 825
1220 835
1215 845
1215 855
1210 865
1205 880
1205 890
1200 900
1195 915
1195 925
1195 935
1195 945
1195 955
1195 965
1195 975
1195 985
1195 995
1195 1005
1195 1015
1195 1025
1195 1035
1195 1045
1195 1055
1190 1070
1185 1085
1177 1094
1172 1104
1164 1110
1155 1115
1145 1120
1135 1125
1125 1125
1116 1130
1107 1135
1098 1140
1088 1140
1079 1145
1069 1147
1059 1150
1050 1155
1040 1155
1031 1160
1021 1160
1012 1165
1002 1165
992 1165
983 1170
973 1170
964 1175
954 1175
944 1175
934 1175
924 1175
915 1180
905 1180
895 1180
885 1180
875 1180
865 1180
855 1180
845 1185
835 1185
825 1185
815 1185
805 1185
795 1185
785 1185
775 1185
765 1185
755 1185
745 1185
735 1185
725 1185
716 1180
706 1180
696 1180
687 1175
677 1175
667 1175
657 1175
648 1170
638 1170
629 1165
620 1160
610 1158
601 1153
591 1150
582 1145
573 1140
563 1140
554 1135
545 1130
536 1125
527 1120
518 1115
509 1110
501 1104
492 1099
482 1095
475 1087
467 1080
458 1075
450 1068
443 1060
435 1053
429 1045
419 1042
412 1034
404 1027
397 1019
389 1012
384 1003
377 995
370 987
364 979
359 970
351 964
347 954
339 947
335 937
329 929
324 920
319 911
314 902
309 893
304 884
299 875
294 866
289 857
289 847
284 838
279 829
279 819
274 810
272 800
269 790
267 780
264 770
264 760
264 750
259 741
259 731
259 721
259 711
259 701
259 691
254 682
254 672
254 662
254 652
254 642
254 632
254 622
