34 622
34 612
39 597
44 587
44 577
49 562
54 552
62 544
64 527
64 517
64 507
69 492
69 482
69 472
74 457
74 447
74 437
74 427
74 417
79 407
79 397
84 387
92 379
94 362
99 347
104 337
112 329
119 312
124 302
132 294
137 284
145 276
153 269
159 257
167 249
175 241
183 234
190 226
198 219
207 214
212 204
220 196
230 191
240 186
250 181
260 179
269 172
279 167
289 164
299 162
309 159
318 154
328 154
338 154
348 154
358 154
368 154
378 154
388 154
398 154
408 154
418 154
428 154
437 159
447 159
452 149
460 141
468 134
475 126
485 121
493 114
502 109
511 104
520 99
529 94
538 89
548 89
557 84
567 84
577 79
587 79
597 79
607 79
617 79
627 79
637 79
646 84
656 84
665 89
675 89
684 94
693 99
702 104
711 109
720 114
728 120
737 125
745 132
752 140
760 147
765 156
771 164
781 164
791 164
801 164
810 169
820 169
829 174
839 174
848 179
858 180
867 185
875 192
884 197
894 201
904 204
913 209
923 209
932 214
941 219
949 226
955 234
964 239
972 245
980 252
987 260
995 267
1002 275
1010 282
1017 290
1025 297
1032 305
1040 312
1045 321
1051 329
1059 336
1065 344
1070 353
1078 360
1082 370
1085 380
1090 389
1095 398
1100 407
1100 417
1105 426
1105 436
1110 445
1112 455
1115 465
1117 475
1120 485
1120 495
1120 505
1125 514
1125 524
1130 533
1130 543
1135 552
1140 561
1146 569
1150 579
1158 585
1162 595
1170 602
1174 612
1182 619
1189 627
1195 635
1200 644
1200 654
1195 665
1187 679
1178 685
1169 690
1159 690
1149 687
1140 682
1132 675
1125 667
1117 660
1114 650
1106 643
1101 634
1094 626
1089 617
1084 608
1077 600
1074 590
1069 581
1064 572
1059 563
1055 553
1054 543
1050 533
1049 523
1045 513
1044 503
1044 493
1044 483
1039 474
1036 464
1034 454
1031 444
1029 434
1026 424
1019 416
1014 407
1014 397
1007 389
999 382
992 374
987 365
980 357
972 350
965 342
957 335
950 327
942 320
935 312
927 305
920 297
910 293
904 285
895 280
885 277
875 275
866 270
857 265
848 260
839 255
830 250
820 247
810 245
800 245
800 255
800 265
805 274
815 277
825 279
834 284
842 290
850 297
857 305
865 312
869 322
875 330
880 339
885 348
893 355
900 363
908 370
912 380
920 387
927 395
935 402
939 412
945 420
950 429
955 438
960 447
964 457
965 467
969 477
970 487
974 497
975 507
980 516
980 526
985 535
985 545
990 554
990 564
990 574
990 584
995 593
995 603
995 613
1000 622
1000 632
1004 642
1005 652
1010 661
1010 671
1015 680
1015 690
1020 699
1020 709
1025 718
1025 728
1030 737
1034 747
1039 756
1043 766
1050 774
1055 783
1060 792
1067 800
1072 809
1081 814
1089 821
1095 829
1100 838
1105 847
1110 856
1110 866
1105 875
1100 885
1093 893
1083 898
1073 900
1063 900
1054 895
1046 889
1039 881
1034 872
1025 867
1017 860
1014 850
1006 844
1002 834
994 827
990 817
984 809
979 800
974 791
969 782
964 773
959 764
956 754
954 744
951 734
949 724
944 715
944 705
939 696
939 686
934 677
934 667
929 658
929 648
924 639
921 629
919 619
919 609
919 599
916 589
914 579
914 569
914 559
909 550
909 540
904 531
904 521
899 512
899 502
894 493
894 483
889 474
886 464
879 456
874 447
867 439
859 432
854 423
847 415
840 407
832 400
829 390
821 384
817 374
809 367
805 357
797 350
788 345
779 340
773 348
765 355
770 364
778 370
787 375
795 382
800 391
806 399
810 409
818 415
825 423
833 430
837 440
840 450
842 460
845 470
850 479
850 489
855 498
855 508
860 517
860 527
865 536
865 546
870 555
872 565
875 575
875 585
875 595
877 605
880 615
880 625
880 635
880 645
880 655
875 665
875 675
875 685
875 695
875 705
875 715
875 725
875 735
875 745
875 755
875 765
875 775
875 785
880 794
880 804
885 813
885 823
890 832
890 842
895 851
895 861
898 871
903 880
905 890
910 899
910 909
915 918
920 927
925 936
925 946
931 954
939 961
945 969
953 975
960 983
965 992
972 1000
977 1009
980 1019
975 1035
967 1049
958 1055
949 1060
939 1060
929 1057
920 1052
912 1045
908 1035
900 1028
893 1020
885 1013
879 1005
871 998
866 989
859 981
854 972
854 962
850 952
844 944
839 935
839 925
834 916
834 906
829 897
824 888
819 879
819 869
819 859
816 849
814 839
809 830
809 820
804 811
804 801
799 792
799 782
799 772
799 762
799 752
799 742
799 732
799 722
799 712
799 702
799 692
799 682
799 672
799 662
804 644
804 634
804 624
804 614
799 605
799 595
799 585
799 575
794 566
794 556
789 547
789 537
784 528
780 518
779 508
775 498
774 488
769 479
766 469
759 461
754 452
747 444
742 435
733 430
725 423
719 415
710 410
700 410
690 415
680 420
680 430
685 439
690 448
695 457
695 467
700 476
700 486
705 495
705 505
710 514
710 524
715 533
715 543
715 553
715 563
720 572
720 582
720 592
720 602
720 612
720 622
720 632
720 642
720 652
720 662
720 672
720 682
720 692
720 702
720 712
720 722
720 732
720 742
720 752
720 762
720 772
720 782
720 792
720 802
715 815
710 830
710 840
710 850
710 860
710 870
710 880
710 890
710 900
710 910
710 920
710 930
710 940
710 950
710 960
710 970
715 979
715 989
715 999
715 1009
715 1019
715 1029
720 1038
720 1048
720 1058
725 1067
725 1077
729 1087
730 1097
735 1106
733 1123
728 1133
720 1140
710 1145
700 1150
690 1150
681 1145
672 1140
665 1132
660 1123
659 1113
654 1104
654 1094
649 1085
647 1075
644 1065
644 1055
644 1045
644 1035
639 1026
639 1016
639 1006
639 996
639 986
634 977
634 967
634 957
634 947
634 937
634 927
634 917
634 907
634 897
634 887
634 877
634 867
634 857
634 847
634 837
634 827
639 817
639 807
644 795
644 785
644 775
644 765
644 755
644 745
644 735
644 725
644 715
644 705
644 695
644 685
644 675
644 665
644 655
644 645
644 635
644 625
644 615
644 605
644 595
644 585
644 575
639 566
639 556
639 546
639 536
634 527
634 517
629 508
629 498
624 489
622 479
617 470
610 462
602 455
595 447
585 445
580 460
575 475
575 485
570 495
570 505
570 515
565 530
565 540
565 550
565 560
565 570
565 580
565 590
567 600
575 607
579 617
580 627
584 637
585 647
585 657
585 667
590 676
590 686
590 696
590 706
590 716
593 726
595 736
595 746
595 756
595 766
595 776
590 790
590 800
590 810
590 820
590 830
590 840
590 850
590 860
590 870
590 880
590 890
585 900
585 910
585 920
580 935
575 945
570 955
570 965
565 975
565 985
565 995
560 1010
560 1020
555 1030
555 1040
555 1050
550 1065
545 1080
545 1090
540 1100
540 1110
535 1120
530 1130
523 1138
513 1143
503 1145
493 1145
484 1140
476 1134
469 1126
464 1117
464 1107
464 1097
469 1087
469 1077
474 1067
474 1057
479 1042
479 1032
479 1022
484 1007
489 997
489 987
489 977
489 967
494 952
499 942
499 932
504 922
509 907
509 897
514 882
514 872
514 862
514 852
514 842
514 832
514 822
514 812
514 802
514 792
514 782
519 772
519 762
519 752
519 742
519 732
514 723
514 713
514 703
514 693
514 683
510 673
509 663
509 653
509 643
502 635
499 625
494 616
494 606
489 597
489 587
489 577
489 567
489 557
489 547
489 537
489 527
494 512
494 502
494 492
499 482
499 472
504 462
504 452
509 437
514 428
514 418
508 410
498 408
488 413
480 420
473 428
465 435
460 450
453 463
448 473
440 480
435 490
430 500
425 515
425 525
425 535
425 545
420 555
420 565
420 575
420 585
420 595
420 605
420 615
420 625
420 635
420 645
420 655
420 665
422 675
425 685
425 695
425 705
427 715
430 725
430 735
430 745
435 754
435 764
435 774
435 784
435 794
435 804
430 815
430 825
430 835
425 850
425 860
420 870
413 883
408 893
400 900
393 913
388 923
380 930
375 940
370 950
365 965
360 975
355 985
350 1000
345 1010
340 1020
338 1033
333 1043
325 1050
318 1063
310 1070
303 1078
295 1085
288 1093
280 1100
273 1108
263 1113
253 1115
243 1115
234 1110
226 1104
219 1096
214 1087
214 1077
214 1067
219 1057
227 1049
235 1041
243 1034
250 1026
258 1019
265 1011
269 997
274 987
279 977
284 962
289 952
294 942
299 927
304 917
309 907
314 897
322 889
327 879
334 867
342 859
347 849
354 837
354 827
354 817
354 807
359 795
359 785
359 775
359 765
357 755
354 745
354 735
354 725
349 716
349 706
349 696
349 686
344 677
344 667
344 657
344 647
344 637
344 627
344 617
344 607
344 597
344 587
344 577
344 567
344 557
344 547
349 532
349 522
349 512
354 502
354 492
359 477
364 467
369 457
374 447
382 439
387 429
394 412
399 402
407 394
412 384
420 376
428 369
435 361
442 350
438 340
429 335
419 335
409 335
400 340
390 340
380 345
373 353
365 360
358 368
350 375
345 385
338 398
333 408
325 415
318 428
313 438
308 448
303 458
295 465
290 475
290 485
285 500
285 510
285 520
280 535
280 545
280 555
280 565
275 575
275 585
275 595
275 605
275 615
270 630
270 640
270 650
265 665
265 675
260 685
255 700
255 710
250 720
248 738
243 748
235 755
230 770
225 780
220 790
215 805
213 823
208 833
200 840
198 858
193 868
185 875
183 888
178 898
170 905
163 913
155 920
148 933
140 940
132 949
124 955
115 960
105 965
98 973
88 978
78 980
68 980
59 975
51 969
44 961
39 952
39 942
39 932
44 922
52 914
61 909
69 902
79 897
87 889
95 881
100 871
108 864
114 852
119 842
127 834
129 817
134 807
142 799
144 782
149 767
154 757
159 747
164 732
169 722
177 714
179 697
184 687
184 677
189 662
194 652
194 642
194 632
194 622
199 607
199 597
199 587
199 577
199 567
204 552
204 542
204 532
209 517
209 507
209 497
214 487
214 477
214 467
214 457
219 447
227 439
232 429
239 417
244 407
249 397
257 389
262 379
269 367
277 359
279 347
284 337
292 329
300 321
308 314
315 306
323 299
330 291
338 284
347 279
357 274
367 269
377 269
386 264
396 264
405 259
414 250
414 240
412 230
402 230
392 230
382 230
372 230
362 230
352 230
342 230
332 230
322 234
312 235
302 239
294 245
285 250
275 250
265 255
257 269
249 275
240 280
233 288
225 295
218 303
213 313
205 320
198 328
190 335
190 345
185 355
178 368
170 375
165 385
163 403
158 413
150 420
150 430
150 440
150 450
150 460
145 475
145 485
145 495
145 505
140 515
140 525
140 535
135 550
133 568
128 578
120 585
115 600
115 610
110 620
105 635
100 645
93 653
83 658
73 660
63 660
54 655
46 649
39 641
34 632
