229 602
229 621
234 630
239 639
241 649
249 655
255 663
263 670
267 680
276 685
284 677
289 667
290 650
295 635
303 628
308 618
315 610
323 603
333 598
340 590
350 590
360 590
370 590
380 590
390 592
400 595
410 595
419 600
424 609
414 609
404 612
394 617
386 624
376 624
367 629
358 634
350 641
345 651
335 656
327 664
322 674
314 682
309 692
304 702
307 719
315 725
324 730
330 738
338 745
347 750
357 754
367 749
370 735
375 725
380 715
389 710
397 704
405 695
415 690
425 685
435 685
445 685
455 685
462 694
453 699
445 706
438 714
430 721
422 729
417 739
409 747
404 757
404 767
407 784
417 785
426 790
435 795
444 800
453 805
462 810
470 800
475 790
475 780
483 773
490 765
499 760
509 757
519 755
529 755
527 769
519 777
514 787
514 797
509 807
509 817
514 826
524 830
533 835
543 835
553 835
562 840
572 840
582 844
585 830
585 820
585 810
593 803
600 795
610 795
620 797
630 800
639 805
648 810
658 810
665 818
675 822
679 832
687 839
694 847
700 855
710 855
720 855
730 855
740 855
750 855
760 850
770 850
770 833
765 824
765 814
760 805
754 797
747 789
737 785
735 775
744 770
754 770
763 765
773 765
783 765
792 770
797 779
804 787
809 796
814 805
814 815
824 817
830 805
838 798
848 793
855 785
863 778
870 768
870 758
865 749
860 740
854 732
850 722
842 715
834 709
825 704
820 695
830 695
839 700
849 700
858 705
865 713
870 722
877 730
882 739
890 745
898 738
905 730
913 723
920 710
928 703
938 698
935 685
929 677
925 667
917 660
910 652
902 645
894 639
885 634
875 632
865 629
860 620
870 620
880 620
890 620
900 620
910 620
920 620
930 622
939 627
947 634
954 642
962 649
966 659
974 652
982 645
991 640
995 630
1003 623
1013 618
1023 613
1020 602
1012 595
1005 587
997 580
990 572
980 569
973 561
964 556
954 552
945 547
935 544
925 544
915 544
905 544
895 544
885 540
890 525
890 515
895 505
895 495
895 485
895 475
900 464
900 454
900 444
900 434
900 424
900 414
900 404
900 394
900 384
900 374
895 365
895 355
895 345
895 335
890 326
890 316
888 306
885 296
883 286
880 276
878 266
875 256
870 247
869 237
865 227
860 218
855 209
852 199
847 190
840 182
835 173
830 164
825 155
819 147
815 137
807 130
800 122
792 115
785 107
777 100
770 92
762 85
753 80
745 74
736 69
727 64
718 59
708 56
699 51
689 49
679 49
670 44
660 44
650 44
640 44
630 44
620 46
610 49
600 49
591 54
582 59
572 59
563 64
555 71
545 76
537 84
528 89
520 96
513 104
505 111
498 119
490 126
482 134
477 144
469 152
462 164
457 174
452 184
444 192
439 202
434 217
429 227
424 237
419 252
414 267
414 277
409 287
409 297
404 307
404 317
399 332
399 342
399 352
399 362
394 372
394 382
394 392
394 402
394 412
394 422
394 432
394 442
394 452
394 462
394 472
399 481
399 491
399 501
395 519
386 514
376 514
366 514
356 514
346 514
336 514
327 519
317 519
308 524
300 531
290 536
282 544
273 549
265 556
257 564
249 572
242 584
237 594
