144 497
144 487
149 477
157 469
165 461
173 454
180 446
188 439
195 431
203 424
212 419
221 414
229 407
239 402
249 399
258 394
267 389
277 384
287 384
297 384
307 384
317 384
327 384
337 384
347 384
357 384
367 384
377 384
387 384
396 389
406 389
415 394
425 394
434 399
442 405
452 409
459 417
467 424
474 432
484 436
494 432
502 424
511 419
519 412
527 404
537 399
546 394
555 389
554 375
546 369
539 361
534 352
525 347
517 340
513 330
504 325
496 318
486 314
477 309
467 305
460 297
450 293
444 285
434 285
425 280
416 275
407 270
397 270
388 265
378 265
369 260
359 260
349 260
339 260
329 260
319 260
309 260
299 260
289 260
279 260
269 262
259 265
250 270
240 270
231 275
222 280
213 285
204 280
199 271
199 261
194 252
194 242
194 232
199 222
199 212
207 204
216 199
226 199
235 194
245 191
255 189
265 186
275 184
285 184
295 184
305 184
315 184
325 184
335 184
345 184
355 184
365 184
375 184
385 187
395 189
404 194
414 194
423 199
433 200
442 205
452 209
461 214
470 219
480 222
488 229
497 234
506 239
515 244
524 249
532 255
542 259
549 267
559 271
565 279
570 288
578 294
587 299
594 307
599 316
605 324
613 330
620 338
625 347
630 356
636 364
646 364
656 364
666 364
676 364
686 364
694 357
699 342
704 332
704 322
709 312
717 304
722 294
727 284
732 274
739 262
747 254
755 246
763 239
770 231
778 224
785 216
795 211
805 206
815 201
823 194
830 186
838 179
847 174
857 174
866 169
876 169
885 164
895 164
904 159
914 159
924 159
934 159
944 159
954 159
963 164
972 169
981 174
991 174
1000 179
1010 182
1020 184
1030 187
1039 192
1047 199
1056 204
1065 209
1073 215
1082 220
1090 227
1095 236
1100 245
1105 254
1105 270
1100 285
1095 295
1090 305
1084 315
1075 310
1067 304
1057 300
1050 292
1042 285
1035 277
1025 273
1019 265
1009 261
1001 255
991 255
982 250
972 249
962 245
952 244
942 240
933 235
923 235
913 235
903 238
893 240
883 243
873 248
865 255
855 260
848 268
838 273
828 278
820 285
813 293
805 300
798 308
793 318
788 328
783 338
775 345
775 355
770 365
765 380
765 390
773 396
780 404
790 407
797 415
807 419
814 427
822 434
832 429
841 424
849 417
859 412
867 404
877 399
887 399
896 394
906 394
916 394
926 394
936 394
946 394
956 394
966 394
976 394
986 394
995 399
1003 405
1010 413
1018 420
1027 425
1035 432
1044 437
1052 444
1059 452
1067 459
1070 469
1078 475
1082 485
1090 492
1094 502
1100 510
1105 519
1105 529
1110 538
1110 548
1115 557
1115 567
1120 576
1123 586
1125 596
1128 606
1135 614
1135 624
1130 640
1125 655
1123 668
1115 675
1110 685
1101 680
1092 675
1085 667
1077 660
1070 652
1065 643
1059 635
1054 626
1054 616
1049 607
1049 597
1044 588
1044 578
1039 569
1036 559
1034 549
1031 539
1024 531
1019 522
1014 513
1008 505
1000 498
993 490
984 485
975 480
967 474
957 470
947 470
937 470
927 470
917 470
907 470
897 474
889 480
880 485
873 493
865 500
870 509
875 518
875 528
880 537
884 547
885 557
885 567
890 576
890 586
890 596
890 606
890 616
890 626
890 636
885 645
885 655
893 661
903 665
910 673
918 680
925 688
935 692
942 700
950 707
957 715
962 724
969 732
974 741
980 749
985 758
985 768
990 777
995 786
1000 795
1000 805
1005 814
1005 824
1010 833
1010 843
1010 853
1010 863
1010 873
1010 883
1010 893
1010 903
1010 913
1010 923
1010 933
1018 940
1022 950
1030 957
1037 965
1045 972
1052 980
1048 998
1040 1005
1032 1014
1027 1024
1019 1032
1012 1040
1003 1035
995 1028
988 1020
980 1013
974 1005
966 999
962 989
954 982
950 972
944 964
939 955
937 945
934 935
934 925
934 915
934 905
934 895
934 885
934 875
934 865
934 855
934 845
932 835
929 825
929 815
921 808
916 799
914 789
912 779
904 772
900 762
892 755
885 747
875 743
868 735
859 730
853 738
845 745
838 758
830 765
823 778
815 785
808 793
798 798
790 805
795 814
805 817
812 825
817 834
824 842
829 851
830 861
833 871
840 879
845 888
845 898
845 908
845 918
845 928
845 938
843 948
838 958
830 965
830 975
825 985
820 1000
820 1010
820 1020
820 1030
820 1040
820 1050
820 1060
820 1070
820 1080
820 1090
820 1100
815 1110
808 1123
800 1130
790 1130
780 1130
770 1130
760 1133
754 1125
749 1116
744 1107
744 1097
744 1087
744 1077
744 1067
744 1057
744 1047
744 1037
744 1027
744 1017
744 1007
744 997
749 987
749 977
754 962
759 952
759 942
764 932
769 919
769 909
764 900
759 891
759 881
754 872
745 867
737 860
728 855
719 850
710 845
700 845
690 845
681 850
671 850
661 850
651 850
641 850
631 850
622 845
612 845
602 845
593 840
584 835
574 835
565 840
558 848
550 855
545 865
540 880
540 890
540 900
540 910
540 920
540 930
540 940
545 949
545 959
550 968
550 978
555 987
555 997
555 1007
555 1017
560 1026
560 1036
565 1045
565 1055
565 1065
560 1080
560 1090
555 1100
553 1118
548 1128
540 1135
533 1148
528 1158
520 1165
510 1170
502 1179
492 1184
482 1189
473 1195
463 1195
455 1188
454 1178
449 1169
444 1160
439 1151
439 1141
434 1132
444 1127
452 1119
462 1114
472 1109
477 1099
484 1087
484 1077
489 1068
489 1058
489 1048
484 1039
484 1029
479 1020
479 1010
479 1000
477 990
474 980
474 970
469 961
464 952
464 942
464 932
464 922
464 912
464 902
464 892
464 882
464 872
469 857
474 842
479 832
484 822
489 812
497 804
504 796
499 787
492 779
484 772
480 762
472 755
468 745
460 738
456 728
451 719
447 709
442 700
438 690
428 693
418 695
408 698
398 703
390 710
383 723
375 730
370 740
365 755
365 765
365 775
365 785
365 795
365 805
365 815
365 825
365 835
365 845
365 855
365 865
365 875
360 885
360 895
355 905
353 918
348 928
343 938
338 948
330 955
323 963
315 970
310 980
302 989
292 994
287 1004
277 1009
272 1000
265 992
255 988
249 980
241 974
234 966
234 947
242 939
251 934
259 922
267 914
275 906
280 896
284 882
289 872
289 862
289 852
289 842
289 832
289 822
289 812
289 802
289 792
289 782
289 772
289 762
289 752
294 742
294 732
299 717
304 707
304 697
309 687
317 679
326 674
334 662
342 654
350 646
358 639
367 634
376 629
386 625
396 624
406 620
416 619
424 612
424 602
424 592
424 582
424 572
429 557
429 547
434 532
439 517
441 499
434 491
426 485
417 480
410 472
402 465
392 465
383 460
373 460
363 460
353 460
343 460
333 460
323 460
313 460
303 460
293 460
284 465
275 470
265 470
258 478
248 483
240 490
233 498
225 505
218 513
210 520
205 530
197 544
189 552
181 560
171 559
164 551
159 542
152 534
144 527
144 517
144 507
