69 487
69 477
74 467
74 457
79 447
84 437
89 427
94 417
102 409
107 399
115 391
123 384
130 376
138 369
145 361
153 354
162 349
170 341
180 336
188 329
197 324
206 319
215 314
224 309
233 304
242 299
252 294
262 289
272 289
281 284
290 279
300 276
310 271
320 269
329 264
339 264
348 259
358 259
367 254
377 254
386 249
396 249
405 244
415 244
424 239
434 239
444 237
454 234
464 234
474 234
483 229
493 229
503 229
513 229
522 224
532 224
542 224
552 224
562 224
572 219
582 219
592 219
602 219
612 219
622 219
632 219
642 219
652 219
662 219
672 219
682 219
692 219
702 219
712 219
722 219
731 224
741 224
751 224
761 224
771 224
780 229
790 229
800 229
810 229
819 234
829 234
839 234
849 236
859 239
869 239
878 244
888 244
897 249
907 249
916 254
926 254
935 259
945 259
954 264
964 264
973 269
983 270
992 275
1002 279
1011 284
1020 289
1030 289
1039 294
1048 299
1057 304
1066 309
1075 314
1085 317
1094 322
1102 329
1111 334
1120 339
1128 345
1135 353
1145 357
1152 365
1160 372
1167 380
1175 387
1182 395
1190 402
1194 412
1200 420
1205 429
1210 438
1215 447
1219 457
1220 467
1224 477
1225 487
1225 497
1225 507
1225 517
1220 530
1218 548
1213 558
1208 568
1203 578
1198 588
1190 595
1185 605
1178 613
1170 620
1163 628
1155 635
1147 644
1139 650
1130 655
1122 664
1112 669
1104 675
1095 680
1085 685
1075 690
1066 695
1057 700
1048 705
1039 710
1030 715
1020 715
1025 724
1030 733
1035 742
1042 750
1047 759
1050 769
1050 779
1058 785
1062 795
1065 805
1067 815
1070 825
1075 834
1075 844
1080 853
1080 863
1088 870
1092 880
1095 890
1097 900
1100 910
1098 923
1088 928
1078 930
1069 935
1059 935
1050 940
1041 945
1031 944
1029 934
1026 924
1024 914
1021 904
1014 896
1009 887
1009 877
1004 868
1004 858
999 849
996 839
994 829
991 819
984 811
979 802
979 792
975 782
969 774
964 765
955 760
945 760
935 760
940 769
945 778
950 787
950 797
955 806
955 816
960 825
962 835
967 844
970 854
978 860
982 870
985 880
987 890
990 900
995 909
995 919
1000 928
1000 938
1003 953
993 955
983 958
973 963
965 970
955 970
946 975
936 973
931 964
929 954
924 945
924 935
919 926
919 916
914 907
914 897
907 889
902 880
899 870
894 861
889 852
885 842
884 830
879 821
879 811
874 802
869 793
862 785
859 775
850 770
840 770
845 779
850 788
855 797
855 807
860 816
863 826
870 834
875 843
875 853
880 862
880 872
884 882
885 892
890 901
890 911
895 920
895 930
895 940
897 950
900 960
902 970
902 980
892 984
882 985
872 989
862 994
854 1000
844 1000
834 1000
829 991
829 981
824 972
824 962
819 953
819 943
819 933
819 923
814 914
811 904
809 894
806 884
804 874
801 864
794 856
789 847
789 837
784 828
784 818
777 810
774 800
765 795
765 805
767 815
770 825
770 835
770 845
775 854
775 864
780 873
780 883
785 892
785 902
790 911
790 921
795 930
797 940
800 950
800 960
800 970
802 980
805 990
797 1005
787 1005
777 1005
767 1005
757 1005
747 1009
737 1010
729 1003
729 993
725 983
724 973
724 963
724 953
719 944
719 934
714 925
712 915
709 905
707 895
704 885
702 875
699 865
694 856
694 846
694 836
694 826
689 817
685 807
677 800
674 790
665 785
655 785
645 785
635 785
625 785
615 785
605 785
600 795
600 805
600 815
595 830
595 840
590 850
590 860
590 870
590 880
590 890
590 900
590 910
590 920
590 930
590 940
590 950
590 960
590 970
590 980
592 990
589 1005
580 1000
570 1000
560 1000
550 997
540 995
530 992
520 990
514 982
514 972
514 962
514 952
514 942
514 932
514 922
514 912
514 902
514 892
514 882
514 872
514 862
514 852
514 842
519 827
524 810
524 800
524 790
523 780
514 775
504 775
494 775
484 775
475 780
475 790
475 800
475 810
470 820
465 835
465 845
465 855
465 865
460 875
455 890
455 900
455 910
455 920
455 930
455 940
455 950
455 960
452 974
442 974
432 970
423 965
413 965
404 960
394 960
384 956
379 947
379 937
379 927
379 917
379 907
379 897
379 887
384 877
384 867
389 852
389 842
389 832
394 822
394 812
399 797
399 787
399 777
402 760
393 755
383 755
374 750
365 755
365 765
360 775
360 785
360 795
360 805
360 815
360 825
360 835
360 845
360 855
360 865
360 875
360 885
360 895
360 905
360 915
360 925
357 939
352 949
342 945
332 945
322 945
313 940
303 940
294 935
284 932
284 922
284 912
284 902
284 892
284 882
284 872
284 862
284 852
284 842
284 832
284 822
284 812
284 802
284 792
284 782
284 772
289 762
289 752
294 735
294 725
284 722
275 717
265 715
255 715
255 725
250 735
245 750
245 760
245 770
245 780
245 790
245 800
245 810
245 820
245 830
245 840
245 850
245 860
245 870
245 880
245 890
240 900
240 910
239 922
229 925
220 920
211 915
202 910
192 909
182 905
172 904
169 887
169 877
169 867
169 857
169 847
169 837
169 827
169 817
169 807
169 797
169 787
169 777
169 767
169 757
169 747
174 737
174 727
179 712
184 702
184 692
189 682
182 669
172 665
165 657
157 650
148 645
140 638
133 630
125 623
118 615
110 608
104 600
99 591
94 582
89 573
84 564
79 555
74 546
74 536
69 527
69 517
69 507
69 497
