44 432
44 422
52 414
60 406
70 404
79 399
89 399
98 394
108 394
118 394
127 389
137 389
147 389
156 384
166 384
176 384
186 384
196 380
206 379
216 379
226 379
236 379
246 379
255 374
265 374
275 374
285 374
295 374
305 374
314 369
324 369
334 369
344 369
354 369
364 369
374 369
384 369
394 369
404 369
414 367
424 364
434 364
444 364
454 364
464 364
474 364
484 364
494 364
504 364
514 364
524 364
534 364
544 364
554 364
564 364
574 364
584 364
594 364
604 364
614 364
624 364
634 364
644 364
654 364
664 364
674 364
684 364
694 364
704 364
713 369
723 369
733 369
743 369
753 369
763 369
773 369
783 369
793 369
803 369
813 369
823 369
833 369
843 369
853 369
863 369
873 369
883 369
893 369
902 364
912 364
922 364
932 364
942 364
952 364
962 364
972 364
982 364
992 364
1002 364
1012 364
1022 364
1032 364
1042 364
1052 364
1062 364
1072 364
1082 364
1092 364
1102 364
1112 364
1122 364
1132 364
1142 364
1152 364
1162 364
1171 359
1181 359
1191 359
1201 359
1211 359
1221 359
1231 359
1241 359
1251 359
1261 359
1271 359
1281 359
1291 359
1301 359
1311 359
1321 359
1331 359
1341 359
1351 359
1361 359
1371 355
1381 354
1391 354
1401 354
1411 354
1421 354
1431 354
1441 354
1451 354
1461 354
1471 354
1481 354
1491 354
1501 354
1511 354
1521 354
1531 354
1541 354
1551 354
1561 354
1571 350
1581 349
1590 344
1600 344
1610 344
1620 344
1630 344
1640 344
1650 344
1660 344
1670 344
1680 344
1690 344
1699 337
1707 329
1715 321
1723 314
1732 309
1742 304
1752 304
1762 304
1771 309
1775 319
1780 328
1785 337
1793 344
1803 344
1813 344
1823 344
1833 344
1843 344
1853 344
1862 339
1867 329
1876 324
1885 319
1895 322
1904 327
1910 335
1918 341
1928 344
1938 344
1948 344
1958 344
1968 344
1978 344
1988 345
1998 349
2007 354
2017 354
2027 354
2037 354
2047 354
2054 362
2059 371
2060 381
2060 391
2060 401
2058 418
2053 428
2045 435
2035 440
2025 445
2015 445
2005 450
1995 450
1985 450
1975 450
1965 450
1956 455
1946 455
1936 455
1927 460
1917 460
1907 460
1897 460
1887 460
1877 460
1867 460
1857 460
1847 460
1837 460
1827 460
1817 460
1807 464
1797 465
1787 465
1777 465
1767 465
1757 465
1747 465
1737 465
1727 465
1717 465
1707 465
1697 465
1687 465
1677 465
1667 465
1657 465
1647 465
1637 465
1627 465
1617 465
1607 465
1597 465
1587 465
1577 465
1567 465
1557 465
1547 465
1537 465
1527 465
1517 465
1507 465
1497 465
1488 470
1478 470
1468 470
1458 470
1448 470
1438 470
1428 470
1418 470
1408 470
1398 470
1388 470
1378 470
1368 470
1358 470
1348 470
1338 470
1328 470
1318 470
1308 470
1298 470
1288 470
1278 470
1268 470
1258 470
1248 473
1238 475
1228 475
1218 475
1208 475
1198 475
1188 475
1178 475
1168 475
1158 475
1148 475
1138 475
1128 475
1118 475
1108 475
1098 475
1088 475
1078 475
1068 475
1058 475
1048 475
1038 475
1028 475
1018 475
1009 480
999 480
989 480
979 480
969 480
959 480
949 480
939 480
929 480
919 480
909 480
899 480
889 480
879 480
869 480
859 480
849 480
839 480
829 480
819 480
809 480
799 480
789 482
779 485
769 485
759 485
749 485
739 485
729 485
719 485
709 485
699 485
689 485
679 485
669 485
659 485
649 485
639 485
629 485
619 485
609 485
599 485
590 490
580 490
570 490
560 490
550 490
540 490
530 490
520 490
510 490
500 490
490 490
480 490
470 490
460 490
450 490
440 490
430 490
420 490
410 490
400 490
390 490
380 490
370 490
360 490
350 490
340 490
330 490
320 490
310 490
300 490
290 490
280 490
270 490
260 490
250 490
240 490
230 490
220 490
210 490
200 490
190 490
180 490
171 485
161 485
151 485
141 485
131 485
121 483
111 480
101 480
92 475
82 475
73 470
64 465
56 459
49 451
44 442
