434 432
434 422
439 412
444 402
449 392
449 382
449 372
449 362
454 352
462 344
471 339
480 334
490 334
500 334
510 334
520 334
530 334
540 334
550 334
559 339
569 339
579 339
589 339
599 339
609 339
619 339
629 339
639 339
649 339
659 339
669 339
679 339
689 339
699 339
709 339
719 339
729 339
739 339
749 339
759 339
769 339
779 339
789 339
798 344
808 344
818 344
828 344
838 344
848 344
858 344
868 344
878 344
888 344
898 344
908 344
918 344
927 349
937 349
947 349
957 349
967 349
977 349
986 354
996 354
1006 354
1016 354
1026 354
1036 354
1046 354
1055 359
1065 359
1075 359
1085 359
1095 359
1105 359
1115 359
1125 359
1135 359
1145 359
1155 359
1165 359
1175 359
1185 359
1194 364
1204 364
1214 364
1224 364
1234 364
1244 364
1254 364
1264 364
1274 364
1284 364
1294 364
1304 364
1314 364
1324 364
1334 364
1344 364
1353 369
1363 369
1372 364
1382 364
1391 369
1401 369
1411 369
1420 364
1430 367
1440 369
1450 369
1460 369
1470 369
1480 369
1490 369
1500 369
1510 366
1520 364
1530 364
1540 364
1550 364
1560 364
1570 364
1580 364
1590 364
1600 364
1610 364
1620 364
1630 364
1640 364
1650 364
1660 364
1670 364
1680 364
1690 364
1700 364
1710 364
1720 364
1730 364
1740 364
1750 364
1760 364
1770 364
1780 364
1789 369
1797 375
1807 379
1817 379
1827 379
1837 379
1846 374
1856 374
1866 374
1876 374
1885 369
1895 366
1905 364
1915 361
1925 359
1934 364
1944 366
1950 374
1960 377
1969 382
1977 389
1986 394
1995 399
2004 404
2010 412
2008 423
2000 430
1993 438
1985 445
1978 453
1968 458
1960 465
1950 470
1940 475
1931 480
1921 480
1911 480
1902 475
1892 475
1882 475
1872 475
1862 475
1852 475
1842 475
1832 475
1822 475
1812 479
1802 484
1793 490
1784 495
1774 495
1764 495
1754 495
1744 495
1734 495
1724 495
1715 500
1705 500
1695 500
1685 500
1675 500
1665 500
1655 500
1645 500
1635 500
1625 505
1615 505
1605 505
1595 505
1585 505
1575 505
1565 505
1555 505
1545 505
1536 510
1526 510
1516 510
1506 510
1496 510
1486 510
1476 510
1466 510
1457 515
1447 515
1437 515
1428 520
1418 520
1408 520
1398 520
1388 520
1378 520
1368 523
1358 525
1348 525
1338 525
1328 525
1318 525
1308 525
1298 528
1288 530
1278 530
1268 530
1258 530
1248 530
1238 530
1228 530
1219 535
1209 535
1199 535
1189 535
1179 535
1169 535
1159 535
1149 535
1139 535
1129 535
1120 540
1110 540
1100 540
1090 540
1080 540
1070 540
1060 540
1050 540
1040 540
1030 540
1020 545
1010 545
1000 545
990 545
980 550
971 555
961 555
951 555
942 560
932 560
922 560
912 560
902 560
892 564
882 565
872 565
862 565
852 565
842 565
832 565
822 565
812 565
802 565
792 565
782 565
772 565
762 565
752 565
742 565
732 565
722 565
712 565
702 569
692 570
682 570
672 570
662 570
653 565
643 565
633 568
623 570
613 570
603 570
593 570
583 570
573 570
563 570
553 570
543 570
533 570
523 570
513 570
503 570
493 570
483 570
474 565
464 562
455 557
450 548
444 540
444 530
444 520
444 510
444 500
444 490
439 481
434 472
434 462
434 452
434 442
