379 586
374 577
382 569
392 569
401 564
411 564
421 564
431 560
441 555
451 550
461 545
469 539
479 537
487 529
497 524
507 519
516 514
526 510
534 504
544 502
554 499
563 494
572 489
582 484
592 484
600 476
610 471
618 464
628 464
637 459
645 451
655 449
664 444
674 444
684 444
694 442
704 437
714 432
722 424
732 419
742 419
751 414
760 409
770 409
780 409
790 409
800 406
810 404
820 404
830 404
840 404
849 399
859 399
869 399
879 399
888 394
898 394
907 389
917 389
926 394
936 394
946 390
956 389
966 389
975 394
984 399
994 399
1004 399
1014 399
1024 399
1034 399
1044 399
1054 397
1064 394
1074 394
1084 394
1094 394
1104 392
1114 389
1124 389
1134 389
1144 389
1154 389
1163 384
1173 384
1183 384
1193 384
1203 384
1212 379
1222 379
1231 384
1241 384
1251 384
1260 379
1270 379
1280 379
1289 374
1299 374
1309 374
1319 374
1328 369
1338 369
1348 369
1358 369
1368 369
1377 364
1387 364
1397 364
1407 364
1417 364
1427 364
1436 359
1446 359
1456 359
1466 359
1475 354
1485 354
1495 354
1505 354
1515 354
1525 351
1535 349
1545 349
1555 349
1565 349
1575 349
1585 346
1595 344
1605 344
1615 344
1624 339
1634 339
1644 339
1654 339
1664 339
1673 334
1683 334
1693 334
1703 334
1713 334
1722 329
1732 329
1742 329
1752 329
1762 329
1771 324
1781 324
1791 324
1801 324
1811 320
1821 319
1831 319
1841 319
1850 314
1860 314
1870 314
1880 314
1890 317
1899 322
1905 330
1910 339
1915 348
1923 354
1933 354
1943 354
1953 354
1963 354
1972 349
1982 349
1992 349
2002 349
2012 349
2022 349
2032 349
2042 349
2051 354
2059 361
2063 371
2065 381
2065 391
2070 400
2070 410
2070 420
2070 430
2067 449
2062 459
2052 464
2042 465
2032 469
2022 470
2012 470
2002 470
1992 470
1982 470
1972 470
1963 475
1953 475
1943 475
1933 478
1925 485
1925 495
1920 505
1912 515
1903 520
1893 520
1883 520
1873 520
1863 523
1853 525
1843 525
1833 525
1823 525
1813 528
1803 530
1793 530
1783 530
1773 530
1764 535
1754 535
1744 535
1734 535
1724 535
1714 535
1705 540
1695 540
1685 540
1675 540
1665 540
1655 545
1645 545
1635 545
1625 545
1615 545
1606 550
1596 550
1586 550
1576 550
1566 550
1557 555
1547 555
1537 555
1527 555
1517 559
1507 560
1497 560
1487 560
1477 560
1467 564
1457 565
1447 565
1437 565
1427 565
1417 569
1407 570
1397 570
1387 574
1377 575
1367 575
1357 575
1347 575
1337 575
1328 580
1318 580
1308 580
1298 580
1288 583
1278 585
1268 585
1258 585
1248 585
1239 590
1229 590
1219 590
1209 590
1199 590
1189 592
1179 595
1169 595
1159 595
1149 595
1139 595
1129 597
1119 600
1109 600
1099 600
1089 602
1079 605
1069 605
1059 605
1049 605
1039 605
1030 610
1020 610
1012 619
1004 625
995 630
985 635
975 635
965 635
955 635
946 640
936 640
926 640
916 640
907 645
897 645
887 645
877 645
867 645
857 645
848 650
838 650
828 650
818 650
808 650
798 650
788 650
779 645
769 645
759 645
749 645
740 640
730 640
720 640
711 645
701 645
691 645
681 645
671 645
661 643
651 640
642 635
632 635
622 634
612 630
602 630
593 625
583 625
574 620
564 620
555 615
545 615
536 610
526 610
517 605
507 604
497 600
487 600
478 595
468 595
458 595
449 590
439 590
429 590
419 590
409 590
399 590
389 590
