364 467
364 457
369 442
369 432
369 422
369 412
369 402
369 392
374 377
374 367
374 357
379 347
379 337
379 327
379 317
387 309
396 314
405 319
414 324
422 330
432 334
439 342
449 346
458 351
465 359
473 365
482 370
490 377
498 384
507 389
514 397
522 404
525 414
530 423
535 432
535 442
540 451
543 461
548 470
550 480
555 489
555 499
560 508
565 517
569 527
574 536
575 546
578 556
583 565
585 575
587 585
592 594
599 602
600 612
605 621
608 631
610 641
615 650
620 659
625 668
625 678
630 687
635 696
640 705
642 715
645 725
650 734
655 743
655 753
660 762
665 771
670 780
672 790
677 799
680 809
685 818
690 827
690 837
695 846
700 855
702 865
707 874
710 884
715 893
720 902
720 912
725 921
730 930
732 940
737 949
740 959
745 968
750 977
754 987
755 997
760 1006
765 1015
767 1025
770 1035
775 1044
780 1053
785 1062
785 1072
790 1081
795 1090
797 1100
802 1109
805 1119
810 1128
815 1137
819 1147
824 1156
825 1166
830 1175
835 1184
835 1194
840 1203
845 1212
850 1221
853 1231
858 1240
862 1250
865 1260
867 1270
865 1280
865 1290
865 1300
865 1310
865 1320
860 1335
860 1345
860 1355
860 1365
855 1375
855 1385
855 1395
850 1405
850 1415
845 1425
837 1439
827 1439
817 1435
808 1430
799 1425
791 1419
782 1414
774 1407
767 1399
757 1395
748 1390
740 1383
734 1375
724 1372
717 1364
707 1360
703 1350
695 1343
694 1333
689 1324
684 1315
684 1305
676 1299
674 1289
669 1280
667 1270
664 1260
659 1251
654 1242
654 1232
649 1223
645 1213
641 1203
636 1194
634 1184
629 1175
624 1166
624 1156
619 1147
614 1138
611 1128
606 1119
604 1109
599 1100
594 1091
594 1081
589 1072
584 1063
581 1053
576 1044
574 1034
569 1025
564 1016
564 1006
559 997
554 988
550 978
549 968
544 959
539 950
539 940
534 931
529 922
525 912
520 903
519 893
514 884
511 874
509 864
504 855
504 845
499 836
494 827
489 818
485 808
484 798
479 789
474 780
472 770
469 760
464 751
459 742
459 732
454 723
451 713
446 704
444 694
439 685
439 675
434 666
429 657
429 647
424 638
419 629
417 619
412 610
409 600
407 590
404 580
399 571
394 562
394 552
389 543
384 534
379 525
377 515
374 505
369 496
369 486
364 477
