174 787
174 777
179 767
187 759
195 751
203 744
210 736
214 717
214 707
219 692
224 677
224 667
229 657
237 649
244 637
252 629
261 624
269 617
279 614
289 612
299 609
308 604
318 604
327 599
337 599
347 599
357 594
367 594
377 589
387 589
397 589
407 589
417 589
426 584
436 584
445 579
455 579
464 574
474 574
484 574
493 569
503 569
513 569
522 564
532 564
542 564
551 559
561 559
571 559
580 554
590 554
600 554
610 554
619 549
629 549
639 549
649 549
658 544
668 544
678 544
688 544
697 539
707 539
717 539
727 539
736 534
746 534
755 529
765 529
775 529
785 529
794 524
804 522
812 514
820 506
828 499
832 489
837 479
845 471
853 464
859 452
864 442
872 434
880 426
888 419
895 411
903 404
910 396
918 389
925 381
933 374
937 364
946 359
955 354
964 349
973 344
980 336
988 329
997 324
1007 319
1017 319
1027 314
1037 314
1047 314
1057 314
1067 314
1077 314
1087 314
1097 314
1107 314
1117 314
1127 314
1137 314
1147 314
1157 314
1167 314
1177 314
1187 314
1197 314
1207 314
1217 314
1227 314
1236 319
1246 319
1256 319
1266 319
1276 319
1286 319
1295 324
1305 324
1315 324
1325 324
1335 324
1345 324
1355 324
1365 324
1375 324
1385 324
1394 329
1404 329
1414 329
1424 329
1434 329
1443 334
1453 334
1463 334
1473 335
1483 339
1493 339
1503 339
1512 344
1522 344
1532 344
1542 344
1551 349
1561 349
1571 349
1581 349
1591 349
1601 349
1611 349
1620 354
1630 354
1640 354
1650 354
1659 359
1669 359
1679 359
1689 359
1699 359
1708 364
1717 369
1727 369
1737 369
1746 374
1756 374
1765 379
1775 382
1785 384
1793 390
1800 398
1810 402
1817 410
1825 417
1834 422
1842 429
1849 437
1855 445
1860 454
1865 463
1873 470
1877 480
1885 487
1889 497
1894 506
1900 514
1905 523
1910 532
1915 541
1921 549
1929 556
1935 564
1945 564
1954 569
1964 569
1973 574
1983 574
1992 579
2002 579
2011 584
2020 589
2030 589
2040 592
2049 597
2057 604
2060 614
2068 620
2072 630
2075 640
2075 650
2075 660
2075 670
2075 680
2075 690
2075 700
2075 710
2075 720
2075 730
2077 740
2082 749
2085 759
2085 769
2083 788
2075 795
2068 803
2060 810
2051 815
2042 820
2032 824
2022 825
2012 829
2002 834
1992 835
1983 840
1973 843
1963 845
1953 845
1944 850
1934 850
1925 855
1918 863
1913 873
1908 883
1903 893
1895 900
1893 913
1885 920
1878 928
1870 935
1860 940
1852 949
1842 950
1833 955
1823 958
1813 960
1803 960
1793 960
1783 960
1774 955
1765 950
1756 945
1747 940
1737 939
1729 932
1722 924
1717 915
1710 907
1705 898
1698 890
1689 885
1679 885
1670 890
1660 890
1650 890
1640 890
1631 895
1621 895
1611 895
1601 895
1592 900
1582 900
1572 900
1563 905
1553 905
1543 908
1533 910
1523 910
1513 910
1504 915
1494 915
1484 915
1474 915
1464 915
1454 917
1444 920
1434 920
1424 920
1414 922
1404 925
1394 927
1384 930
1374 930
1364 930
1354 930
1344 932
1334 935
1324 935
1314 935
1304 935
1295 940
1285 940
1275 940
1265 940
1256 945
1246 945
1236 945
1227 950
1217 950
1207 950
1198 955
1188 958
1180 965
1178 978
1173 988
1168 998
1163 1008
1155 1015
1150 1025
1143 1033
1135 1040
1128 1048
1118 1053
1110 1060
1101 1065
1092 1070
1082 1074
1072 1079
1062 1080
1052 1084
1042 1085
1032 1089
1022 1089
1012 1085
1002 1085
992 1085
982 1085
972 1084
962 1080
952 1080
943 1075
934 1070
924 1067
915 1062
907 1055
900 1047
892 1040
889 1030
881 1023
876 1014
869 1006
864 997
859 988
852 980
843 975
833 975
823 975
813 975
803 975
794 980
784 980
774 980
764 980
755 975
745 975
735 975
725 975
715 975
706 970
696 970
686 970
677 965
667 965
657 965
647 964
637 960
627 960
618 955
608 955
599 950
589 950
579 950
569 950
560 945
550 945
540 945
531 940
521 940
512 935
502 939
494 945
485 950
476 955
467 960
457 964
447 965
437 965
427 965
417 965
407 965
398 960
388 960
379 955
369 952
360 947
352 940
343 935
335 928
328 920
320 913
313 905
305 898
299 890
289 890
280 885
270 882
260 880
250 880
241 875
232 870
222 870
213 865
205 858
198 850
190 843
184 835
179 826
174 817
174 807
174 797
