229 797
229 787
234 772
234 762
234 752
234 742
234 732
234 722
239 712
239 702
239 692
239 682
244 672
249 662
254 652
259 642
267 634
275 626
283 619
290 611
298 604
305 596
313 589
320 581
328 574
337 569
347 564
357 559
367 554
376 549
385 544
394 539
403 534
412 529
422 529
431 524
440 519
449 514
459 512
469 507
479 502
489 499
498 494
507 489
514 477
522 469
527 459
532 449
539 437
544 427
552 419
560 411
568 404
575 396
583 389
590 381
598 374
605 366
613 359
620 351
628 344
635 336
643 329
650 321
658 314
665 306
673 299
680 291
688 284
695 276
703 269
710 261
718 254
725 246
733 239
740 231
748 224
757 219
766 214
775 209
784 202
794 197
804 192
812 184
822 179
832 174
842 169
852 169
862 169
872 169
882 164
892 164
902 164
912 164
922 164
932 164
942 164
952 164
962 164
972 164
982 164
992 164
1002 164
1012 164
1022 164
1032 164
1042 164
1052 164
1062 164
1072 164
1081 169
1091 169
1101 169
1111 169
1121 169
1131 169
1141 169
1151 169
1161 169
1171 169
1181 169
1191 169
1201 169
1211 169
1221 169
1231 169
1241 169
1251 169
1261 169
1271 169
1281 169
1291 169
1301 169
1311 169
1321 169
1331 169
1341 169
1351 169
1361 169
1371 169
1381 169
1391 169
1400 164
1410 164
1420 164
1430 164
1440 164
1450 164
1460 164
1470 164
1480 164
1490 164
1500 164
1510 164
1520 164
1530 164
1540 164
1550 167
1559 172
1569 176
1575 184
1584 189
1592 195
1600 202
1607 210
1615 217
1622 225
1630 232
1637 240
1645 247
1652 255
1660 262
1665 271
1670 280
1672 290
1675 300
1675 310
1677 320
1680 330
1680 340
1682 350
1685 360
1685 370
1687 380
1690 390
1690 400
1692 410
1695 420
1695 430
1697 440
1700 450
1700 460
1705 469
1705 479
1705 489
1710 498
1710 508
1710 518
1715 527
1715 537
1715 547
1715 557
1715 567
1715 577
1715 587
1715 597
1715 607
1715 617
1715 627
1715 637
1715 647
1719 657
1724 666
1730 674
1735 683
1740 692
1740 702
1740 712
1740 722
1745 731
1745 741
1745 751
1745 761
1745 771
1745 781
1740 795
1740 805
1740 815
1740 825
1740 835
1740 845
1735 855
1735 865
1733 878
1725 885
1715 890
1706 895
1696 895
1687 900
1677 900
1668 905
1658 908
1648 910
1638 910
1628 910
1618 910
1608 910
1598 910
1588 910
1578 910
1569 905
1559 902
1554 893
1547 885
1540 877
1535 868
1528 860
1519 855
1509 857
1499 860
1489 860
1479 860
1470 865
1460 865
1450 865
1440 865
1430 870
1420 870
1410 870
1401 875
1391 875
1381 875
1371 875
1362 880
1352 880
1342 880
1333 885
1323 885
1313 888
1303 890
1293 893
1283 895
1273 895
1264 900
1254 900
1245 905
1235 905
1225 905
1215 910
1205 915
1198 923
1190 930
1180 935
1173 943
1163 948
1155 955
1145 960
1138 968
1130 975
1123 983
1115 990
1108 998
1100 1005
1092 1014
1084 1022
1079 1032
1071 1040
1062 1045
1054 1052
1044 1057
1034 1062
1024 1065
1014 1065
1004 1065
994 1065
984 1065
975 1060
965 1060
955 1060
945 1060
935 1057
925 1053
919 1045
911 1038
906 1029
899 1021
894 1012
887 1004
879 997
874 988
867 980
860 972
852 965
843 960
834 955
825 950
815 950
805 950
795 950
785 950
775 950
765 950
755 950
745 950
735 950
725 950
715 950
705 950
695 950
685 950
675 947
665 945
655 942
645 940
635 937
625 935
615 932
605 930
595 927
585 925
575 925
565 925
555 925
545 930
538 938
533 948
525 955
520 965
515 975
508 983
500 990
493 998
485 1005
478 1013
468 1018
458 1020
448 1020
438 1020
428 1020
418 1020
408 1020
398 1020
388 1020
378 1020
368 1020
359 1015
351 1009
347 999
342 990
339 980
331 973
326 964
322 954
317 945
314 935
314 925
314 915
306 908
296 904
287 899
277 895
268 890
260 883
256 873
251 864
247 854
242 845
239 835
234 826
229 817
229 807
