689 1167
689 1157
694 1147
699 1137
707 1129
715 1121
723 1114
732 1109
742 1109
752 1109
762 1109
772 1109
782 1109
791 1114
801 1114
810 1119
815 1128
823 1134
833 1134
843 1134
849 1124
849 1114
847 1104
842 1095
839 1085
834 1076
834 1066
829 1057
829 1047
829 1037
829 1027
829 1017
829 1007
829 997
829 987
829 977
829 967
829 957
829 947
829 937
829 927
829 917
829 907
834 897
834 887
839 877
844 867
852 859
859 848
859 838
859 828
855 818
849 810
839 810
830 815
820 820
810 825
800 830
790 835
781 840
772 845
762 849
752 849
744 842
744 832
744 822
744 812
744 802
744 792
744 782
744 772
749 762
749 752
749 742
749 732
749 722
754 707
754 697
759 687
764 672
769 657
769 647
774 632
774 622
779 612
779 602
784 587
789 577
789 567
794 557
799 547
804 537
809 522
814 512
814 502
819 492
824 479
824 469
816 463
806 459
797 454
787 450
780 442
772 435
769 425
764 416
764 406
764 396
764 386
759 377
759 367
759 357
759 347
759 337
759 327
759 317
759 307
759 297
759 287
764 277
764 267
769 257
774 247
782 239
787 229
796 224
805 219
814 212
824 207
834 202
844 197
854 192
864 187
874 184
884 184
894 184
904 184
914 184
923 189
932 194
941 199
949 206
958 211
965 219
973 225
980 233
988 240
995 248
1000 257
1004 267
1009 276
1010 286
1010 296
1010 306
1010 316
1010 326
1010 336
1010 346
1010 356
1010 366
1016 374
1024 362
1029 352
1034 342
1039 332
1047 324
1054 312
1059 302
1069 297
1077 289
1086 284
1094 277
1104 272
1112 264
1121 259
1129 252
1137 244
1147 239
1157 234
1167 234
1176 229
1185 224
1195 224
1205 224
1215 227
1225 229
1234 234
1242 240
1250 247
1255 256
1261 264
1265 274
1270 283
1275 292
1280 301
1280 311
1285 320
1285 330
1285 340
1285 350
1285 360
1285 370
1285 380
1285 390
1285 400
1280 415
1275 430
1275 440
1270 450
1265 460
1260 470
1253 483
1245 490
1237 499
1229 507
1219 512
1209 517
1199 520
1189 520
1179 520
1169 520
1159 520
1149 520
1140 515
1130 515
1120 515
1110 515
1100 515
1102 525
1100 540
1100 550
1095 565
1090 575
1083 588
1078 598
1070 605
1063 613
1058 623
1050 630
1045 645
1040 655
1042 665
1052 669
1061 674
1071 674
1080 679
1089 684
1098 689
1107 694
1114 702
1120 710
1125 719
1133 725
1140 733
1148 740
1155 748
1163 754
1172 759
1182 759
1192 759
1202 759
1212 759
1222 759
1232 759
1241 764
1245 774
1250 783
1250 793
1250 803
1245 820
1237 829
1227 825
1217 824
1207 820
1200 812
1190 810
1180 810
1180 820
1180 830
1174 847
1166 854
1159 846
1154 837
1150 827
1142 820
1139 810
1131 804
1124 796
1119 787
1112 779
1104 772
1097 764
1089 757
1085 747
1080 738
1074 730
1065 725
1055 725
1045 725
1035 725
1025 725
1025 735
1025 745
1025 755
1030 764
1035 773
1040 782
1040 792
1045 801
1048 811
1053 820
1055 830
1060 839
1065 848
1070 857
1070 867
1070 877
1070 887
1075 896
1075 906
1075 916
1078 926
1083 935
1085 945
1090 954
1099 959
1109 959
1118 964
1128 964
1138 964
1148 964
1157 959
1167 959
1177 959
1187 959
1197 954
1207 949
1217 949
1225 941
1233 934
1240 926
1245 916
1250 906
1258 899
1262 889
1264 877
1269 862
1274 847
1279 832
1284 817
1289 802
1294 787
1299 777
1304 767
1309 757
1317 749
1322 739
1329 727
1337 719
1345 711
1355 706
1365 707
1367 720
1358 725
1349 730
1340 735
1335 745
1330 755
1325 765
1325 775
1325 785
1325 795
1320 805
1320 815
1320 825
1320 835
1315 845
1315 855
1310 865
1305 880
1300 895
1295 910
1290 920
1283 928
1278 938
1273 948
1265 955
1260 970
1252 984
1244 992
1234 997
1224 1000
1214 1000
1204 1000
1194 1000
1184 1000
1174 1000
1164 1000
1154 1000
1144 1000
1134 1000
1124 1000
1114 1000
1104 1000
1094 1000
1085 1005
1075 1005
1065 1010
1065 1020
1060 1030
1060 1040
1055 1055
1055 1065
1055 1075
1053 1088
1048 1098
1040 1105
1030 1110
1030 1120
1030 1130
1040 1131
1050 1129
1060 1129
1070 1129
1080 1129
1090 1129
1099 1124
1109 1124
1119 1122
1129 1119
1138 1114
1148 1114
1157 1109
1167 1109
1177 1109
1187 1109
1197 1109
1206 1114
1215 1119
1220 1128
1225 1137
1225 1147
1230 1156
1225 1165
1215 1170
1205 1170
1195 1170
1185 1170
1175 1167
1165 1165
1155 1165
1145 1165
1135 1165
1125 1165
1115 1165
1105 1165
1095 1165
1085 1165
1075 1165
1065 1165
1055 1165
1045 1165
1035 1165
1025 1165
1016 1160
1006 1160
996 1159
989 1151
984 1142
989 1127
994 1117
999 1107
1004 1095
1004 1085
1004 1075
1004 1065
1004 1055
1004 1045
1000 1035
990 1035
980 1035
970 1035
960 1035
950 1035
940 1035
930 1035
920 1035
910 1035
900 1035
890 1035
885 1045
880 1060
880 1070
880 1080
880 1090
885 1099
890 1108
890 1118
895 1127
899 1137
900 1147
892 1159
884 1165
874 1165
865 1160
855 1160
845 1160
835 1157
825 1155
815 1155
805 1155
795 1155
785 1155
775 1155
766 1160
756 1160
747 1165
737 1165
727 1169
717 1170
707 1170
697 1174
