94 307
94 317
94 327
94 337
94 347
94 357
94 376
94 386
99 395
99 405
104 414
106 424
111 433
115 443
120 452
124 462
129 471
134 480
139 489
145 497
149 507
154 516
159 525
162 535
170 542
174 552
179 561
184 570
190 578
195 587
199 597
204 606
209 615
212 625
220 632
227 640
235 647
242 655
249 663
254 672
259 681
266 689
271 698
275 708
280 717
287 725
292 734
296 744
301 753
304 763
309 772
319 775
324 784
330 792
334 802
334 812
342 819
349 827
354 836
359 845
365 853
375 855
385 850
395 845
404 840
412 834
415 822
410 813
410 803
403 795
395 789
392 779
387 770
383 760
375 754
371 744
365 736
363 726
360 716
358 706
354 696
349 687
345 677
340 668
335 659
335 649
332 639
327 630
320 622
315 613
310 604
306 594
300 586
295 577
290 568
285 559
280 550
275 541
270 532
265 523
260 514
255 505
249 497
245 487
245 477
240 468
233 460
228 451
225 441
220 432
220 422
215 413
210 404
205 395
205 385
202 375
200 365
200 355
200 345
200 335
200 325
205 310
205 300
213 293
215 280
220 270
225 260
233 253
240 245
245 235
255 230
265 225
274 220
284 220
294 217
304 215
314 215
324 215
334 215
344 215
353 220
362 225
372 229
379 237
387 244
395 250
401 258
405 268
413 275
414 285
420 293
425 302
432 310
437 319
444 327
449 336
456 344
461 353
465 363
470 372
477 380
482 389
484 399
490 407
497 415
502 424
504 434
506 444
514 450
517 460
522 469
529 477
534 486
539 495
545 503
553 510
557 520
562 529
569 537
574 546
579 555
582 565
589 573
590 583
598 590
604 598
609 607
609 617
617 624
624 632
629 641
634 650
637 660
639 670
644 679
650 687
654 697
659 706
664 715
670 723
679 728
684 737
689 746
696 754
704 760
707 770
712 779
716 789
719 799
719 809
719 819
724 828
724 838
724 848
729 857
734 866
734 876
741 884
744 894
749 903
754 912
762 919
766 929
774 935
777 945
782 954
789 962
794 971
799 980
802 990
807 999
814 1007
819 1016
824 1025
829 1034
835 1042
842 1050
852 1049
855 1035
852 1025
850 1015
847 1005
845 995
859 1010
862 1020
867 1029
874 1037
882 1044
892 1039
897 1029
900 1019
900 1009
900 999
895 990
900 975
900 965
900 955
900 945
900 935
905 923
905 913
900 904
900 894
897 884
892 875
890 865
887 855
885 845
885 835
880 826
875 817
875 807
875 797
870 788
865 779
860 770
854 762
850 752
845 743
840 734
835 725
830 716
825 707
820 698
815 689
812 679
807 670
800 662
795 653
790 644
786 634
780 626
775 617
770 608
765 599
760 590
755 581
750 572
750 562
745 553
740 544
734 536
729 527
725 517
720 508
720 498
713 490
705 484
700 475
695 466
690 457
685 448
678 440
670 434
665 425
660 416
655 407
655 397
650 388
643 380
635 373
630 364
625 355
620 346
615 337
610 328
605 319
599 311
591 304
585 296
580 287
575 278
570 269
567 259
557 255
553 245
545 239
542 229
534 222
527 214
522 205
513 200
505 194
499 186
491 179
482 174
474 167
467 159
459 152
450 147
440 144
433 136
424 131
414 127
405 122
395 119
385 119
376 114
366 114
357 109
347 109
338 104
328 104
318 104
309 109
299 109
289 109
279 112
269 114
259 114
249 114
239 117
230 124
221 129
212 134
202 139
193 144
185 151
178 159
170 166
163 174
155 181
148 189
140 196
132 204
127 214
119 222
114 232
109 242
109 252
104 262
104 272
104 282
99 297
