184 477
184 467
189 452
194 442
194 432
194 422
199 412
199 402
199 392
204 382
209 372
214 357
219 347
219 337
224 327
232 304
240 296
248 289
254 277
262 269
270 261
278 254
284 242
292 234
301 229
309 222
317 214
325 206
333 199
340 191
350 186
360 181
370 176
378 169
387 164
397 164
405 156
415 154
424 149
434 147
444 142
454 139
464 139
474 137
484 134
494 134
504 134
514 131
524 129
534 131
544 134
554 134
564 136
574 139
584 139
593 144
603 144
613 144
623 145
633 149
642 154
651 159
661 159
669 166
678 171
688 175
697 180
707 184
714 192
724 196
730 204
740 207
747 215
757 219
766 224
774 231
780 239
790 242
797 250
805 257
812 265
820 272
824 282
832 289
835 299
843 305
847 315
855 322
862 330
870 337
879 342
887 349
894 357
900 365
905 374
910 383
918 390
922 400
927 409
934 417
939 426
945 434
945 444
950 453
950 463
950 473
950 483
950 493
950 503
950 513
948 528
940 535
931 540
921 538
911 534
902 529
894 522
890 512
882 505
875 497
865 493
859 485
849 481
841 475
832 470
825 462
815 458
809 450
799 446
791 440
782 435
775 427
765 423
759 415
749 411
741 405
732 400
725 392
715 388
709 380
699 377
692 369
682 365
675 357
665 353
658 345
649 340
641 334
632 329
624 322
615 317
607 310
598 305
589 300
581 294
572 289
562 289
552 285
542 285
533 280
524 285
515 290
508 298
500 305
500 315
493 323
485 330
478 343
470 350
463 363
458 373
450 380
443 393
435 400
428 413
423 423
415 430
408 443
400 450
395 460
388 473
380 480
380 490
380 500
382 510
387 519
390 529
390 539
395 548
400 557
404 567
409 576
415 584
420 593
425 602
432 610
440 617
445 626
451 634
459 641
465 649
473 655
477 665
485 672
492 680
500 687
504 697
514 701
520 709
525 718
533 724
542 729
551 734
559 741
565 749
573 755
580 763
588 770
595 778
603 784
612 789
619 797
629 801
635 809
645 812
652 820
662 824
669 832
679 836
685 844
695 844
704 849
713 854
722 859
731 864
740 869
749 874
757 880
767 884
776 889
785 894
794 899
804 901
813 906
820 914
830 917
837 925
847 929
856 934
865 939
874 944
882 950
892 954
901 959
910 964
919 969
927 975
937 979
944 987
952 994
961 999
970 1004
980 1007
989 1012
997 1019
1006 1024
1015 1029
1025 1032
1032 1040
1042 1044
1051 1049
1060 1054
1068 1060
1077 1065
1085 1072
1095 1074
1103 1080
1110 1088
1118 1094
1127 1099
1136 1104
1145 1109
1153 1115
1162 1120
1172 1124
1181 1129
1190 1134
1199 1139
1208 1144
1218 1145
1225 1153
1233 1160
1240 1168
1248 1175
1252 1185
1260 1192
1267 1200
1275 1207
1280 1216
1283 1226
1288 1235
1295 1243
1300 1252
1305 1261
1311 1269
1320 1274
1325 1283
1330 1292
1334 1302
1340 1310
1345 1319
1345 1329
1350 1338
1345 1355
1345 1365
1337 1374
1329 1380
1319 1380
1309 1377
1299 1375
1289 1375
1280 1370
1270 1370
1260 1370
1250 1370
1241 1375
1231 1375
1221 1375
1211 1373
1201 1370
1192 1365
1182 1365
1172 1365
1162 1365
1153 1360
1145 1353
1136 1348
1126 1344
1117 1339
1109 1332
1100 1327
1090 1325
1081 1320
1072 1315
1063 1310
1055 1303
1048 1295
1038 1295
1029 1290
1021 1283
1011 1280
1001 1279
992 1274
982 1270
972 1270
963 1265
953 1265
944 1260
934 1260
925 1255
916 1250
906 1248
896 1244
887 1239
877 1235
870 1227
860 1223
853 1215
844 1210
836 1203
826 1199
819 1191
811 1185
802 1180
795 1172
787 1165
780 1157
770 1153
764 1145
755 1140
747 1134
739 1127
732 1119
724 1112
715 1107
707 1100
704 1090
694 1086
686 1080
677 1075
668 1070
659 1065
649 1062
642 1054
632 1050
623 1045
615 1038
609 1030
601 1024
594 1016
586 1010
577 1005
568 1000
560 993
553 985
544 980
539 971
531 965
521 965
512 960
505 952
495 948
488 940
480 933
474 925
465 920
457 914
452 905
443 900
435 893
428 885
420 878
413 870
405 863
398 855
388 855
380 848
374 840
369 831
364 822
357 814
349 807
345 797
339 789
334 780
326 774
322 764
314 757
307 749
302 740
295 732
287 725
280 717
275 708
269 700
261 694
257 684
249 677
244 668
239 659
234 650
229 641
224 632
219 623
214 614
211 604
207 594
202 585
199 575
194 566
194 556
189 547
189 537
194 525
189 516
189 506
189 496
184 487
