94 717
94 707
99 692
99 682
99 672
107 664
114 652
122 644
127 634
132 624
137 614
145 606
153 599
160 591
168 584
177 579
185 571
195 566
203 559
212 554
222 549
232 549
241 544
250 539
259 534
268 529
277 524
287 519
297 519
306 514
316 510
326 509
335 504
345 501
355 499
364 494
374 494
383 489
393 489
402 484
412 484
421 479
431 479
441 475
451 474
461 474
470 469
480 469
490 466
500 464
510 464
519 459
529 459
538 454
548 454
558 454
567 449
577 449
587 449
597 444
607 444
617 444
626 439
636 439
646 439
656 435
666 434
676 434
685 429
695 429
704 424
714 424
723 419
732 414
742 414
751 409
761 409
771 405
781 404
791 404
801 404
811 404
821 400
831 399
841 399
851 399
861 399
871 399
881 395
891 394
901 394
911 394
921 394
931 394
941 394
950 389
960 386
970 381
980 379
989 374
999 374
1009 374
1018 369
1027 364
1036 359
1046 359
1056 359
1066 359
1076 355
1084 347
1089 337
1094 327
1102 319
1111 314
1121 314
1131 314
1139 307
1147 299
1149 282
1157 274
1165 266
1175 261
1185 256
1195 251
1199 237
1207 229
1215 221
1223 214
1230 206
1240 201
1250 196
1260 194
1269 187
1277 179
1282 169
1290 161
1298 154
1307 149
1316 144
1326 144
1336 144
1346 140
1354 132
1364 127
1374 122
1382 114
1392 109
1402 104
1412 99
1422 99
1432 99
1442 99
1452 99
1462 99
1472 99
1481 104
1490 109
1500 109
1509 114
1519 116
1529 119
1539 121
1548 126
1558 130
1568 134
1577 139
1586 144
1596 144
1605 149
1615 152
1625 154
1634 159
1644 159
1653 164
1663 165
1673 169
1682 174
1692 174
1701 179
1711 179
1720 184
1730 187
1739 192
1749 194
1759 196
1769 199
1778 204
1788 204
1797 209
1807 209
1817 209
1826 214
1836 214
1846 214
1855 219
1865 219
1875 219
1885 219
1894 224
1904 224
1914 224
1924 224
1934 224
1943 229
1953 229
1963 229
1973 229
1983 230
1993 234
2003 234
2013 234
2023 234
2033 234
2042 239
2052 239
2062 239
2072 239
2082 239
2091 244
2101 244
2111 244
2121 244
2131 244
2140 249
2150 249
2160 249
2170 252
2180 254
2190 254
2200 257
2209 262
2219 264
2227 270
2237 274
2244 282
2252 289
2255 299
2263 305
2267 315
2277 319
2284 327
2292 334
2301 339
2309 346
2313 356
2318 365
2322 375
2330 382
2330 392
2335 401
2340 410
2345 419
2345 429
2350 438
2355 447
2360 456
2360 466
2365 475
2367 485
2370 495
2370 505
2370 515
2370 525
2365 535
2365 545
2365 555
2365 565
2365 575
2360 590
2360 600
2355 610
2350 625
2345 640
2340 655
2335 665
2330 680
2330 690
2325 700
2325 710
2320 720
2315 735
2315 745
2317 755
2315 770
2310 785
2310 795
2305 805
2300 820
2295 835
2290 845
2285 860
2280 870
2275 885
2270 895
2270 905
2265 915
2265 925
2260 940
2258 953
2253 963
2248 973
2243 983
2235 990
2228 1003
2220 1010
2210 1015
2202 1024
2194 1030
2185 1035
2176 1040
2167 1045
2158 1050
2149 1055
2139 1057
2129 1060
2119 1062
2109 1065
2099 1067
2089 1070
2079 1070
2070 1075
2060 1075
2050 1075
2040 1075
2030 1075
2020 1075
2011 1080
2001 1080
1991 1080
1981 1080
1971 1080
1961 1080
1951 1080
1941 1080
1931 1080
1921 1080
1911 1080
1901 1078
1891 1075
1881 1075
1871 1075
1861 1075
1851 1075
1841 1073
1831 1070
1821 1070
1811 1070
1801 1070
1792 1065
1782 1065
1772 1065
1762 1065
1752 1065
1742 1064
1732 1060
1722 1060
1712 1060
1702 1059
1692 1055
1682 1055
1672 1055
1663 1050
1653 1050
1643 1050
1634 1045
1624 1045
1615 1040
1609 1032
1604 1023
1604 1013
1604 1003
1604 993
1604 983
1601 973
1591 970
1581 970
1571 970
1561 970
1551 970
1541 970
1531 970
1521 970
1511 970
1501 970
1491 970
1481 970
1471 970
1461 970
1452 975
1442 975
1432 975
1422 975
1412 975
1403 980
1393 980
1383 980
1373 980
1364 985
1354 985
1344 985
1335 990
1325 990
1315 990
1305 995
1295 995
1285 1000
1275 1000
1265 1005
1255 1005
1246 1010
1236 1010
1227 1015
1217 1019
1207 1020
1198 1025
1188 1028
1178 1030
1169 1035
1159 1037
1149 1042
1139 1045
1130 1050
1120 1050
1110 1055
1100 1060
1091 1065
1081 1065
1072 1070
1062 1074
1052 1075
1043 1080
1034 1085
1024 1085
1015 1090
1005 1090
995 1095
985 1095
976 1100
966 1100
957 1105
947 1105
937 1105
928 1110
918 1110
908 1110
898 1110
889 1115
879 1115
869 1115
859 1115
849 1115
839 1115
829 1115
819 1115
809 1115
799 1115
789 1115
779 1115
769 1115
760 1110
750 1110
740 1110
730 1110
720 1110
711 1105
701 1105
691 1105
681 1103
671 1100
661 1100
651 1098
641 1095
631 1095
621 1093
611 1090
601 1090
592 1085
582 1085
572 1084
562 1080
552 1079
542 1075
532 1074
522 1070
512 1069
502 1065
492 1064
482 1060
472 1060
463 1055
454 1050
444 1050
435 1045
425 1042
415 1040
406 1035
396 1033
386 1030
377 1025
367 1024
357 1020
348 1015
339 1010
329 1010
320 1005
311 1000
301 998
291 994
282 989
272 985
263 980
254 975
245 970
237 964
227 960
220 952
210 948
204 940
194 937
187 929
177 925
170 917
162 910
155 902
147 895
143 885
135 878
129 870
124 861
119 852
114 843
109 834
104 825
104 815
99 806
99 796
94 787
94 777
94 767
94 757
94 747
94 737
94 727
