69 852
69 842
74 832
74 822
79 812
79 802
84 787
89 777
94 767
99 757
104 747
112 739
117 729
125 721
135 716
143 709
150 701
158 694
167 689
175 681
183 674
192 669
200 661
210 656
220 651
230 646
240 641
250 636
260 631
270 629
279 624
289 622
299 619
308 614
318 614
327 609
337 609
346 604
356 604
365 599
375 596
385 594
395 594
404 589
414 587
424 584
434 582
444 579
453 574
463 574
473 574
482 569
492 569
502 564
512 564
522 564
532 559
542 559
551 554
560 549
570 546
580 541
590 539
599 534
608 529
618 529
627 524
637 519
647 514
657 509
667 509
676 504
686 500
696 499
705 494
715 494
724 489
734 489
744 487
754 484
764 484
774 484
784 482
794 479
804 479
814 479
824 479
834 479
843 474
853 474
863 474
873 474
883 474
893 474
903 474
913 474
922 469
932 469
942 469
952 469
962 469
972 464
982 464
992 464
1002 464
1012 464
1022 464
1032 459
1042 454
1050 446
1058 439
1065 431
1075 426
1083 419
1084 407
1089 397
1094 387
1099 377
1107 369
1115 361
1125 356
1133 349
1137 339
1142 329
1147 319
1155 311
1165 309
1175 309
1184 302
1192 294
1199 282
1207 274
1215 266
1223 259
1232 254
1240 246
1250 241
1260 236
1268 229
1277 224
1287 219
1295 211
1303 204
1310 196
1318 189
1327 184
1335 176
1345 171
1353 164
1362 159
1372 154
1382 149
1392 144
1402 144
1411 139
1421 135
1431 130
1441 129
1451 125
1461 124
1471 120
1481 119
1491 119
1500 114
1510 114
1520 114
1530 114
1539 109
1549 109
1559 109
1569 109
1579 109
1589 109
1599 109
1609 109
1619 109
1629 109
1639 109
1649 109
1659 109
1669 109
1678 114
1688 114
1698 114
1708 115
1718 119
1728 119
1738 119
1747 124
1757 124
1766 129
1776 129
1786 129
1795 134
1805 137
1815 139
1824 144
1834 146
1844 149
1854 151
1864 154
1873 159
1883 159
1892 164
1901 169
1911 169
1920 174
1929 179
1939 181
1949 184
1958 189
1968 190
1977 195
1987 199
1996 204
2005 209
2015 212
2024 217
2032 224
2041 229
2050 234
2059 239
2067 245
2075 252
2084 257
2092 264
2099 272
2104 281
2110 289
2118 295
2122 305
2130 312
2137 320
2147 324
2157 324
2167 324
2176 329
2185 334
2195 337
2202 345
2207 354
2210 364
2215 373
2220 382
2220 392
2225 401
2228 411
2230 421
2235 430
2237 440
2240 450
2240 460
2240 470
2232 484
2224 490
2215 495
2215 505
2215 515
2215 525
2215 535
2208 550
2199 555
2189 555
2180 560
2180 570
2180 580
2185 589
2185 599
2185 609
2185 619
2180 635
2180 645
2180 655
2180 665
2180 675
2180 685
2180 695
2175 710
2175 720
2175 730
2170 740
2170 750
2165 760
2165 770
2160 780
2155 795
2155 805
2150 820
2145 835
2145 845
2140 855
2135 870
2135 880
2135 890
2130 900
2125 915
2125 925
2120 935
2115 950
2110 965
2105 980
2100 990
2095 1005
2090 1020
2085 1030
2080 1040
2075 1050
2068 1063
2063 1073
2055 1080
2047 1089
2039 1097
2031 1105
2022 1110
2014 1117
2004 1122
1994 1127
1984 1130
1975 1135
1965 1135
1955 1140
1945 1140
1935 1145
1925 1145
1915 1145
1906 1150
1896 1150
1886 1150
1876 1150
1866 1150
1856 1150
1846 1150
1836 1150
1826 1150
1816 1150
1806 1150
1796 1150
1786 1150
1776 1150
1766 1150
1756 1150
1746 1150
1737 1145
1727 1145
1717 1145
1707 1145
1697 1144
1687 1140
1677 1140
1667 1140
1658 1135
1648 1135
1638 1135
1628 1135
1619 1130
1609 1130
1599 1130
1590 1125
1580 1125
1570 1122
1560 1120
1550 1120
1541 1115
1531 1113
1521 1109
1512 1104
1504 1097
1499 1088
1499 1078
1496 1068
1490 1060
1481 1055
1471 1055
1461 1055
1451 1055
1441 1055
1431 1055
1421 1055
1411 1055
1401 1055
1391 1055
1381 1055
1371 1055
1361 1055
1351 1055
1341 1055
1331 1055
1321 1055
1311 1055
1301 1055
1291 1055
1282 1060
1272 1060
1262 1060
1252 1060
1242 1060
1232 1064
1222 1065
1212 1065
1203 1070
1193 1070
1183 1070
1173 1073
1163 1075
1153 1078
1143 1080
1133 1083
1123 1085
1113 1088
1103 1090
1094 1095
1084 1097
1074 1100
1065 1105
1055 1105
1045 1110
1036 1115
1027 1120
1017 1124
1007 1129
997 1130
988 1135
979 1140
970 1145
960 1145
951 1150
942 1155
933 1160
923 1163
913 1168
903 1170
894 1175
884 1177
874 1180
864 1182
854 1185
844 1187
834 1190
824 1190
815 1195
805 1195
795 1195
786 1200
776 1200
766 1200
756 1200
746 1200
736 1200
726 1200
716 1200
706 1200
696 1200
686 1200
676 1200
667 1195
657 1195
647 1195
637 1195
627 1195
617 1194
607 1190
597 1190
587 1190
577 1189
567 1185
557 1185
547 1184
537 1180
527 1180
517 1184
507 1184
497 1180
487 1180
477 1180
468 1175
458 1175
450 1168
441 1163
431 1160
421 1160
412 1155
402 1155
393 1150
383 1150
374 1145
364 1145
355 1140
345 1140
336 1135
326 1135
317 1130
307 1129
297 1125
288 1120
278 1120
269 1115
259 1112
250 1107
240 1105
231 1100
221 1099
214 1091
206 1085
196 1084
187 1079
179 1072
170 1067
160 1063
154 1055
146 1049
137 1044
129 1037
122 1029
114 1022
107 1014
102 1005
99 995
91 989
87 979
82 970
79 960
74 951
74 941
74 931
69 922
69 912
69 902
69 892
69 882
69 872
69 862
