14 1062
14 1052
19 1042
27 1034
32 1024
37 1014
45 1006
50 996
55 986
63 979
69 967
74 957
79 947
87 939
94 927
102 919
109 902
114 892
122 884
127 874
135 866
140 856
148 849
155 841
163 834
170 826
180 821
188 814
197 809
205 801
213 794
220 786
228 779
235 771
243 764
252 759
260 751
268 744
277 739
285 731
290 721
298 714
305 706
313 699
320 691
330 686
338 679
345 671
353 664
357 654
365 646
373 639
382 634
390 626
398 619
405 611
415 606
423 599
430 591
438 584
442 574
450 566
458 559
467 554
477 554
482 544
487 534
495 526
503 519
510 511
518 504
527 499
534 487
542 479
550 471
558 464
565 456
573 449
580 441
588 434
595 426
603 419
610 411
618 404
625 396
630 386
638 379
645 371
655 366
663 359
672 354
680 346
688 339
695 331
703 324
712 319
722 314
732 309
740 301
750 296
760 291
770 286
778 279
785 271
793 264
802 259
810 251
818 244
827 239
835 231
845 226
853 219
862 214
872 209
882 204
892 204
900 196
908 189
917 184
926 179
935 174
944 169
953 164
962 159
970 151
980 146
990 141
1000 136
1010 131
1020 126
1030 124
1039 119
1048 114
1058 114
1067 109
1077 109
1087 104
1097 104
1107 104
1116 99
1126 99
1136 99
1146 99
1156 99
1165 104
1175 107
1182 115
1190 122
1194 132
1195 142
1195 152
1190 165
1185 175
1177 184
1169 190
1160 195
1150 195
1140 195
1130 195
1120 195
1111 200
1101 200
1092 205
1082 205
1073 210
1063 213
1053 218
1043 223
1033 228
1023 233
1013 238
1005 245
996 250
987 255
978 260
969 265
960 270
953 278
945 285
936 290
926 290
917 295
908 300
899 305
890 310
880 315
872 324
864 330
855 335
848 343
840 350
833 358
823 363
815 370
805 375
795 380
785 385
777 394
768 400
759 405
750 410
742 419
734 425
725 430
718 438
708 443
700 450
695 460
688 468
680 475
673 483
665 490
658 498
650 505
643 513
635 520
628 528
620 535
613 543
605 550
598 563
590 570
580 575
573 583
565 590
560 600
553 613
545 620
538 628
530 635
520 640
513 648
505 655
495 660
495 670
495 680
490 690
490 700
485 710
485 720
485 730
485 740
480 755
480 765
475 780
475 790
470 805
470 815
465 825
465 835
460 850
455 860
450 870
443 883
435 890
428 903
420 910
413 918
405 925
395 930
388 943
380 950
375 960
368 968
360 975
351 980
342 985
334 992
324 997
316 1005
307 1010
298 1015
289 1020
280 1025
273 1033
263 1038
253 1043
245 1050
238 1058
228 1063
218 1068
208 1073
200 1080
190 1085
180 1090
170 1090
160 1095
151 1100
142 1105
133 1110
124 1115
114 1115
105 1120
95 1120
85 1120
76 1125
66 1125
56 1125
47 1120
38 1115
30 1108
24 1100
19 1091
14 1082
14 1072
