175 1606
175 1596
180 1586
180 1576
180 1566
185 1551
185 1541
190 1526
195 1516
200 1506
205 1496
213 1489
220 1481
228 1474
235 1466
243 1459
253 1454
260 1446
270 1441
280 1436
290 1435
300 1431
310 1430
320 1430
330 1430
340 1430
350 1430
360 1430
370 1430
379 1435
389 1436
399 1440
408 1445
417 1450
426 1455
436 1459
445 1464
455 1468
463 1475
469 1483
477 1490
484 1498
492 1505
499 1513
507 1520
511 1530
519 1536
525 1544
530 1553
538 1560
541 1570
545 1580
550 1589
550 1599
555 1608
559 1618
560 1628
565 1637
565 1647
565 1657
565 1667
565 1677
565 1687
565 1697
565 1707
560 1720
555 1735
550 1745
545 1755
537 1769
529 1777
524 1787
516 1795
507 1800
499 1807
491 1815
482 1820
473 1825
464 1830
455 1835
445 1835
435 1835
425 1835
415 1833
406 1828
396 1824
387 1819
378 1814
370 1808
364 1800
356 1794
350 1786
340 1782
333 1774
325 1767
318 1759
310 1753
306 1743
300 1735
295 1726
295 1716
295 1706
295 1696
295 1686
295 1676
300 1661
300 1651
305 1641
313 1634
320 1626
330 1621
340 1616
350 1615
359 1610
369 1610
379 1610
389 1610
398 1615
407 1620
414 1628
419 1637
424 1646
425 1656
431 1664
435 1674
440 1683
435 1700
430 1710
423 1718
415 1725
406 1730
390 1730
398 1736
405 1744
413 1750
422 1755
429 1763
439 1765
448 1760
457 1755
465 1746
473 1739
480 1731
485 1721
490 1706
495 1690
495 1680
495 1670
495 1660
495 1650
490 1641
489 1631
485 1621
484 1611
480 1601
475 1592
470 1583
464 1575
456 1568
451 1559
444 1551
436 1545
428 1539
420 1533
414 1525
405 1520
396 1515
387 1510
377 1509
367 1505
358 1500
348 1500
338 1500
328 1500
318 1500
309 1505
299 1505
290 1510
282 1519
274 1525
265 1530
260 1540
255 1550
255 1560
250 1575
250 1585
250 1595
245 1605
245 1615
245 1625
245 1635
245 1645
245 1655
245 1665
245 1675
245 1685
245 1695
250 1704
250 1714
255 1723
259 1733
264 1742
269 1751
273 1761
278 1770
280 1780
280 1790
288 1796
295 1804
303 1810
309 1818
317 1825
324 1833
334 1836
340 1844
345 1853
353 1860
362 1865
372 1865
381 1870
389 1876
398 1881
408 1885
417 1890
426 1895
435 1900
445 1900
454 1905
464 1905
474 1906
484 1910
494 1910
504 1910
514 1910
524 1910
534 1910
544 1910
554 1910
564 1910
574 1910
584 1910
594 1910
604 1910
614 1910
624 1910
634 1908
644 1905
654 1905
663 1900
672 1895
676 1885
681 1875
685 1861
690 1846
690 1836
695 1821
695 1811
695 1801
700 1784
700 1774
700 1764
700 1754
700 1744
700 1734
700 1724
700 1714
700 1704
700 1694
700 1684
700 1674
700 1664
698 1654
693 1645
690 1635
690 1625
690 1615
690 1605
689 1595
684 1586
680 1576
680 1566
685 1556
684 1546
680 1536
680 1526
680 1516
675 1507
670 1498
670 1488
670 1478
670 1468
670 1458
665 1449
660 1440
660 1430
660 1420
659 1410
654 1401
650 1391
650 1381
645 1365
640 1356
640 1346
640 1336
639 1326
635 1316
630 1307
630 1297
625 1288
620 1279
620 1269
615 1260
610 1251
610 1241
610 1231
609 1221
605 1211
600 1202
600 1192
600 1182
595 1173
590 1164
590 1154
585 1145
580 1136
580 1126
575 1117
570 1108
570 1098
566 1088
560 1080
553 1088
543 1093
533 1095
523 1098
513 1103
503 1108
495 1115
485 1120
475 1125
465 1125
456 1130
447 1135
438 1140
428 1143
418 1145
408 1145
399 1140
391 1133
385 1125
380 1116
380 1106
380 1096
385 1086
393 1079
403 1074
413 1069
423 1064
433 1060
443 1059
453 1054
463 1049
473 1045
483 1044
493 1039
498 1029
505 1021
515 1016
525 1015
535 1011
535 995
530 986
525 977
518 969
513 960
503 960
493 960
483 960
473 960
463 960
453 960
443 960
433 960
423 960
414 955
406 948
400 940
395 931
395 921
395 911
400 901
408 894
418 889
428 885
438 885
448 885
458 885
468 885
478 884
474 871
470 861
469 851
465 841
460 832
460 822
455 813
450 804
450 794
445 785
440 776
435 767
435 757
430 748
426 738
421 729
420 719
416 709
413 699
408 690
405 680
404 670
399 661
395 651
394 641
390 631
385 622
380 613
380 603
380 593
376 583
371 574
370 564
368 554
363 545
360 535
360 525
359 515
354 506
350 496
349 486
345 476
340 467
340 457
335 448
330 439
330 429
325 420
320 411
320 401
320 391
320 381
320 371
320 361
320 351
320 341
320 331
320 321
320 311
320 301
320 291
320 281
320 271
325 256
325 246
330 231
330 221
335 211
335 201
340 191
345 181
350 166
355 156
363 149
368 139
375 126
383 119
393 114
403 109
408 99
415 91
423 85
432 80
440 71
448 64
458 59
468 54
478 49
488 44
498 39
508 35
518 34
528 30
538 30
547 25
557 25
567 25
577 25
587 25
597 25
607 25
617 25
627 25
637 25
647 25
657 25
666 30
676 30
685 35
695 38
704 43
712 50
721 55
731 59
739 66
748 71
755 79
760 88
768 95
777 100
784 108
792 115
799 123
807 130
811 140
819 146
825 154
833 160
839 168
844 177
850 185
855 194
860 203
865 212
870 221
875 230
876 240
880 250
880 260
880 270
880 280
880 290
880 300
875 315
870 330
865 345
860 355
858 368
853 378
845 385
843 398
838 408
830 415
823 428
818 438
810 445
803 453
795 460
790 470
783 478
775 485
768 493
760 500
750 505
743 513
735 520
726 525
716 525
707 530
698 535
688 535
678 538
668 540
658 540
648 540
638 540
628 540
618 540
608 540
598 540
589 535
579 535
569 535
560 530
551 525
542 520
532 519
523 514
515 508
508 500
499 495
491 489
485 481
475 477
468 469
460 462
453 454
448 445
444 435
439 426
435 416
435 406
435 396
435 386
435 376
435 366
435 356
440 346
440 336
445 326
445 316
450 306
455 296
460 286
468 279
473 269
478 259
485 251
493 245
500 236
508 229
515 221
523 215
532 210
541 205
549 198
556 190
566 185
576 185
585 180
594 175
604 173
614 170
624 170
634 170
644 170
654 170
664 170
674 170
684 171
693 176
703 180
712 185
719 193
727 200
734 208
742 215
749 223
757 230
761 240
765 250
770 259
775 268
775 278
775 288
775 298
775 308
775 318
775 328
775 338
770 350
765 360
760 370
755 380
750 390
745 400
738 413
730 420
722 429
712 434
704 440
695 445
685 445
675 445
665 445
655 445
645 445
635 445
626 440
617 435
608 430
599 425
591 418
585 410
580 401
580 391
580 381
585 371
593 364
603 359
613 355
623 355
632 360
639 368
647 375
657 375
667 375
677 375
685 361
693 354
698 344
700 331
705 314
705 304
705 294
705 284
700 275
695 266
690 257
683 249
673 245
664 240
654 240
644 240
634 240
624 240
615 245
605 245
595 250
585 255
575 260
568 268
558 273
550 280
540 285
533 298
528 308
523 318
515 325
515 335
510 345
510 355
505 365
505 375
505 385
505 395
505 405
506 415
514 421
523 426
530 434
538 440
547 445
556 450
565 455
574 460
583 465
593 465
603 465
612 470
622 470
632 470
642 470
652 470
662 470
671 465
681 465
691 460
701 460
709 453
719 448
726 440
734 433
740 423
748 414
755 406
763 399
768 389
775 381
775 371
780 361
788 354
793 344
798 334
800 321
805 311
805 301
810 290
810 280
810 270
810 260
805 251
800 242
795 233
791 223
786 214
780 206
775 197
768 189
760 183
753 175
749 165
741 159
735 151
725 147
718 139
710 133
704 125
696 118
686 114
677 109
668 104
658 100
649 95
639 95
629 95
619 95
609 95
599 95
589 95
579 95
569 95
559 95
550 100
540 100
530 100
520 105
510 105
500 110
493 118
485 125
475 130
467 139
457 144
449 150
443 158
435 165
428 173
420 180
415 190
410 205
405 215
405 225
400 235
400 245
395 255
395 265
390 280
390 290
390 300
390 310
390 320
390 330
390 340
390 350
390 360
390 370
390 380
390 390
390 400
390 410
395 419
400 428
400 438
404 448
409 457
410 467
414 477
419 486
420 496
423 506
428 515
430 525
430 535
431 545
436 554
440 564
440 574
445 583
450 592
450 602
454 612
455 622
459 632
464 641
465 651
468 661
473 670
476 680
480 690
481 700
486 709
490 719
495 728
495 738
500 747
505 756
510 765
510 775
515 784
520 793
520 803
524 813
529 822
530 832
534 842
539 851
544 860
553 855
562 850
572 850
581 845
591 845
601 845
611 849
621 850
631 850
641 854
650 859
658 865
661 875
665 885
660 895
653 908
645 915
636 920
626 920
617 925
608 930
599 935
590 940
580 940
581 950
589 956
595 964
600 973
600 983
604 993
614 993
624 988
634 983
644 980
654 978
664 975
674 976
683 981
690 989
695 998
700 1007
704 1017
705 1027
703 1038
698 1048
690 1055
680 1060
670 1065
660 1065
650 1065
640 1065
630 1065
630 1075
635 1084
640 1093
640 1103
644 1113
649 1122
650 1132
654 1142
659 1151
660 1161
655 1170
660 1179
665 1188
670 1197
670 1207
675 1216
680 1225
680 1235
680 1245
681 1255
686 1264
690 1274
690 1284
695 1293
700 1302
700 1312
705 1321
710 1330
710 1340
710 1350
705 1360
710 1369
715 1378
720 1387
720 1397
725 1406
730 1415
730 1425
730 1435
725 1445
730 1454
735 1463
740 1472
740 1482
740 1492
744 1502
749 1511
750 1521
750 1531
745 1545
745 1555
746 1565
750 1575
751 1585
756 1594
760 1604
760 1614
760 1624
760 1634
760 1644
765 1653
770 1662
770 1672
770 1682
770 1692
770 1702
770 1712
770 1722
770 1732
770 1742
770 1752
770 1762
770 1772
770 1782
770 1792
770 1802
765 1815
765 1825
765 1835
760 1845
760 1855
760 1865
755 1875
750 1890
748 1903
743 1913
735 1920
728 1933
723 1943
715 1950
706 1955
697 1960
688 1965
679 1970
670 1975
660 1975
650 1975
641 1980
631 1980
621 1980
611 1980
601 1980
591 1980
581 1980
571 1980
561 1980
551 1980
541 1980
531 1980
521 1980
511 1980
501 1980
491 1980
481 1980
471 1980
461 1978
451 1975
441 1973
431 1970
421 1968
411 1964
402 1959
393 1954
383 1950
374 1945
365 1940
356 1935
346 1933
336 1929
329 1921
320 1916
310 1913
304 1905
296 1899
290 1891
282 1884
273 1879
265 1873
258 1865
254 1855
246 1848
240 1840
235 1831
235 1821
235 1811
225 1807
218 1799
213 1790
209 1780
204 1771
200 1761
195 1752
190 1743
185 1734
180 1725
180 1715
175 1706
175 1696
175 1686
175 1676
175 1666
175 1656
175 1646
175 1636
175 1626
175 1616
