175 1031
175 1021
180 1011
180 1001
184 991
180 981
180 971
185 961
190 946
190 936
190 926
195 916
203 909
210 901
215 886
220 871
225 856
225 846
229 831
225 821
225 811
230 801
235 791
240 781
240 771
245 761
253 754
258 744
265 736
273 729
280 721
285 711
290 701
298 694
308 689
313 679
320 671
330 661
338 654
348 649
353 639
360 631
370 621
378 614
388 609
398 604
405 596
413 590
420 581
428 574
438 569
443 559
450 551
460 546
470 541
478 534
488 529
498 525
508 524
518 519
528 514
535 506
543 500
552 495
562 495
571 490
581 485
591 480
601 480
611 475
621 470
631 470
641 470
651 470
661 470
671 470
681 470
691 470
701 470
711 474
720 479
728 485
737 480
747 480
756 485
765 490
775 490
784 495
793 500
803 500
812 505
821 510
829 516
839 520
849 521
858 526
865 534
873 540
882 545
891 550
899 556
909 560
919 561
928 566
935 574
940 583
948 590
958 590
967 595
974 603
980 611
985 620
986 630
996 630
1005 635
1013 641
1020 649
1025 658
1033 665
1042 670
1049 678
1054 687
1055 697
1061 705
1071 709
1079 716
1083 726
1085 736
1088 746
1095 754
1100 763
1105 772
1111 780
1119 786
1123 796
1125 806
1128 816
1135 824
1140 833
1145 842
1140 855
1145 864
1150 873
1155 882
1150 895
1155 904
1160 913
1165 922
1160 935
1160 945
1165 954
1170 963
1175 972
1170 985
1170 995
1171 1005
1175 1015
1170 1025
1170 1035
1171 1045
1175 1055
1170 1065
1165 1075
1165 1085
1165 1095
1160 1110
1155 1120
1155 1130
1150 1140
1145 1150
1145 1160
1140 1170
1135 1180
1133 1198
1128 1208
1120 1215
1110 1220
1105 1230
1103 1248
1098 1258
1090 1265
1080 1270
1072 1284
1064 1290
1058 1298
1050 1305
1040 1310
1035 1320
1027 1329
1017 1334
1007 1339
999 1347
989 1352
979 1355
969 1357
959 1362
949 1365
939 1367
929 1372
919 1375
909 1377
899 1382
889 1385
879 1385
869 1385
860 1390
851 1395
841 1395
831 1395
821 1395
812 1400
803 1405
793 1405
783 1405
773 1405
763 1405
753 1405
743 1405
733 1405
723 1405
713 1405
704 1400
695 1395
685 1393
676 1388
666 1384
660 1376
650 1373
644 1365
639 1356
630 1351
620 1347
613 1339
608 1330
599 1325
591 1319
585 1311
580 1302
575 1293
569 1285
564 1276
560 1266
555 1257
555 1247
550 1238
545 1229
540 1220
535 1211
535 1201
535 1191
535 1181
535 1171
535 1161
535 1151
535 1141
535 1131
535 1121
535 1111
540 1101
545 1091
545 1081
550 1071
555 1061
563 1054
568 1044
575 1036
583 1029
590 1021
600 1016
608 1009
615 1001
623 995
632 990
641 985
650 980
660 980
670 976
680 975
690 975
700 975
710 978
720 980
729 985
738 990
747 995
756 1000
766 1004
775 1009
785 1013
794 1018
802 1025
809 1033
817 1040
821 1050
829 1056
834 1065
843 1070
849 1078
855 1086
860 1095
860 1105
865 1114
870 1123
870 1133
870 1143
870 1153
865 1170
863 1188
858 1198
853 1208
845 1215
838 1228
830 1235
820 1240
815 1250
807 1259
799 1265
790 1270
780 1275
771 1280
762 1285
752 1285
742 1285
732 1285
722 1285
712 1284
702 1280
692 1279
683 1274
675 1268
669 1260
664 1251
660 1241
660 1231
665 1221
673 1214
683 1209
693 1205
703 1205
712 1210
722 1210
731 1215
741 1215
751 1215
760 1210
768 1204
778 1199
783 1189
790 1176
795 1161
800 1143
800 1133
795 1124
790 1115
786 1105
778 1099
770 1092
763 1084
755 1077
748 1069
738 1065
729 1060
720 1055
711 1050
701 1050
692 1045
682 1045
673 1050
663 1053
653 1058
645 1065
638 1073
628 1078
620 1085
615 1095
615 1105
610 1115
605 1125
605 1135
605 1145
605 1155
605 1165
605 1175
605 1185
605 1195
606 1205
611 1214
615 1224
620 1233
625 1242
629 1252
634 1261
640 1269
645 1278
650 1287
659 1292
669 1296
675 1304
680 1313
689 1318
699 1321
708 1326
718 1330
727 1335
737 1335
747 1335
757 1335
767 1335
777 1335
787 1335
797 1335
807 1335
816 1330
825 1325
835 1325
845 1325
855 1321
865 1316
875 1315
885 1315
895 1315
904 1310
913 1305
923 1305
932 1300
941 1295
951 1295
961 1290
971 1285
981 1280
989 1273
999 1268
1004 1258
1011 1250
1020 1241
1028 1234
1038 1229
1043 1219
1045 1201
1050 1191
1058 1184
1068 1179
1073 1169
1075 1151
1080 1141
1085 1131
1085 1121
1090 1111
1095 1096
1095 1086
1095 1076
1100 1066
1105 1056
1105 1046
1110 1036
1109 1026
1105 1016
1105 1006
1110 996
1109 986
1105 976
1105 966
1110 953
1104 945
1099 936
1095 926
1095 916
1094 905
1089 896
1085 886
1085 876
1081 863
1076 854
1075 844
1071 834
1065 826
1060 817
1055 808
1049 800
1041 793
1036 784
1035 774
1031 764
1025 756
1020 747
1015 738
1011 728
1001 724
994 716
990 706
982 699
973 694
965 687
960 678
955 669
950 660
940 656
930 653
923 645
919 635
910 630
900 626
890 622
883 614
873 610
863 610
854 605
846 599
839 591
830 586
820 582
813 574
803 570
793 570
784 565
775 560
765 560
756 555
747 550
737 550
728 545
719 540
710 535
700 540
690 540
680 540
670 540
660 540
650 540
640 540
630 540
620 540
610 545
601 550
592 555
582 555
573 560
564 565
555 570
548 578
538 583
528 585
518 588
508 593
498 598
490 605
480 610
472 624
464 630
458 638
450 645
440 650
430 655
422 664
414 670
408 678
400 685
390 690
382 704
374 710
368 718
360 725
350 730
343 743
335 750
330 765
323 778
315 785
315 795
310 810
305 825
300 840
300 850
295 860
295 870
290 885
285 900
280 915
275 930
270 945
265 960
265 970
260 980
255 995
255 1005
250 1015
250 1025
245 1035
245 1045
250 1054
250 1064
250 1074
245 1085
245 1095
246 1105
250 1115
250 1125
245 1140
245 1150
246 1160
250 1170
251 1180
256 1189
260 1199
255 1210
260 1219
265 1228
270 1237
265 1250
270 1259
275 1268
280 1277
275 1290
280 1299
285 1308
290 1317
290 1327
296 1335
304 1341
308 1351
310 1361
313 1371
318 1380
320 1390
321 1400
329 1406
335 1414
340 1423
344 1433
352 1440
356 1450
361 1459
369 1466
375 1474
380 1483
384 1493
392 1500
396 1510
401 1519
409 1526
415 1534
425 1538
434 1543
442 1550
446 1560
451 1569
459 1576
465 1584
475 1588
484 1593
492 1600
496 1610
505 1615
515 1618
524 1623
532 1630
541 1635
550 1640
558 1646
565 1654
570 1663
580 1665
589 1670
598 1675
604 1683
614 1686
623 1691
633 1695
643 1695
653 1695
662 1700
669 1708
679 1710
688 1715
698 1715
708 1715
717 1720
727 1720
737 1720
747 1720
757 1720
766 1715
776 1710
786 1710
796 1705
806 1700
816 1700
826 1704
834 1698
844 1693
854 1690
864 1688
874 1683
884 1680
894 1678
904 1673
914 1670
924 1668
934 1663
944 1660
954 1658
964 1653
974 1650
984 1648
994 1643
1004 1638
1014 1633
1021 1625
1029 1618
1036 1610
1046 1605
1056 1600
1064 1593
1071 1585
1079 1578
1089 1573
1096 1565
1104 1558
1109 1548
1115 1536
1123 1529
1130 1521
1135 1511
1143 1504
1148 1494
1155 1481
1163 1474
1168 1464
1175 1451
1180 1441
1188 1434
1193 1424
1200 1411
1205 1401
1213 1394
1218 1384
1225 1371
1230 1361
1238 1354
1243 1344
1248 1334
1253 1324
1260 1311
1268 1304
1273 1294
1278 1284
1285 1271
1290 1261
1298 1254
1300 1241
1305 1231
1313 1224
1318 1214
1325 1201
1330 1191
1335 1181
1335 1171
1340 1161
1348 1154
1350 1141
1355 1131
1360 1116
1365 1101
1370 1086
1375 1076
1380 1061
1385 1051
1390 1041
1395 1031
1400 1021
1405 1006
1410 996
1415 986
1420 976
1428 969
1433 959
1438 949
1445 941
1450 931
1458 924
1465 916
1470 906
1478 899
1483 889
1488 879
1493 869
1500 856
1508 849
1515 841
1523 834
1530 826
1535 816
1540 806
1545 796
1550 786
1555 776
1560 766
1565 756
1573 749
1580 736
1588 729
1595 716
1600 706
1608 699
1613 689
1620 681
1625 671
1633 664
1643 659
1650 651
1658 645
1667 640
1676 635
1686 630
1696 625
1704 618
1711 610
1721 605
1729 598
1736 590
1744 583
1751 575
1760 570
1769 565
1779 563
1786 555
1794 548
1804 543
1811 535
1821 530
1830 525
1839 520
1848 515
1858 514
1868 509
1878 505
1888 504
1898 499
1908 495
1918 494
1928 490
1938 489
1948 485
1958 484
1968 480
1978 480
1988 480
1998 480
2008 480
2018 480
2028 480
2038 480
2048 480
2058 480
2068 480
2078 480
2088 480
2098 480
2107 485
2117 485
2126 490
2136 494
2145 499
2155 500
2165 503
2174 508
2184 510
2194 511
2203 516
2213 520
2222 525
2229 533
2235 541
2244 546
2253 551
2263 555
2272 560
2281 565
2289 571
2295 579
2303 585
2312 590
2321 595
2330 600
2339 605
2348 610
2357 615
2364 623
2372 630
2379 638
2387 645
2394 653
2402 660
2409 668
2417 675
2424 683
2432 690
2439 698
2445 706
2454 711
2460 719
2465 728
2470 737
2479 742
2486 750
2491 759
2500 764
2508 770
2511 780
2521 784
2529 791
2534 800
2543 805
2549 813
2557 820
2564 828
2570 836
2579 841
2585 849
2590 858
2599 863
2607 870
2611 880
2621 884
2629 891
2633 901
2638 910
2641 920
2649 926
2655 934
2663 940
2669 948
2675 956
2684 961
2690 969
2695 978
2700 987
2705 996
2711 1004
2719 1011
2723 1021
2728 1030
2731 1040
2739 1046
2745 1054
2750 1063
2754 1073
2759 1082
2766 1090
2771 1099
2775 1109
2780 1118
2788 1125
2794 1133
2799 1142
2804 1151
2805 1161
2808 1171
2813 1180
2816 1190
2824 1196
2830 1204
2835 1213
2839 1223
2840 1233
2840 1243
2840 1253
2845 1262
2850 1271
2850 1281
2855 1290
2860 1299
2860 1309
2860 1319
2865 1328
2869 1338
2870 1348
2870 1358
2874 1368
2879 1377
2880 1387
2880 1397
2880 1407
2880 1417
2880 1427
2880 1437
2880 1447
2880 1457
2875 1470
2870 1480
2870 1490
2870 1500
2865 1510
2860 1520
2860 1530
2860 1540
2855 1555
2850 1565
2845 1575
2845 1585
2845 1595
2840 1605
2835 1615
2830 1625
2825 1635
2820 1645
2813 1658
2808 1668
2800 1675
2790 1680
2782 1694
2774 1700
2768 1708
2760 1715
2750 1720
2742 1734
2734 1740
2728 1748
2720 1755
2710 1760
2700 1765
2690 1765
2680 1770
2672 1784
2663 1790
2654 1795
2645 1800
2638 1808
2628 1813
2618 1818
2608 1823
2600 1830
2590 1835
2580 1840
2570 1840
2560 1845
2550 1850
2541 1855
2531 1855
2522 1860
2513 1865
2503 1865
2494 1870
2485 1875
2475 1875
2465 1875
2455 1875
2445 1880
2435 1885
2425 1885
2415 1885
2405 1885
2395 1885
2385 1885
2375 1885
2365 1885
2356 1880
2347 1875
2337 1875
2328 1870
2319 1865
2309 1865
2299 1861
2290 1856
2280 1855
2270 1851
2260 1848
2254 1840
2245 1835
2235 1835
2226 1830
2217 1825
2207 1825
2198 1820
2189 1815
2179 1815
2169 1811
2160 1806
2150 1805
2140 1801
2130 1798
2123 1790
2114 1785
2105 1780
2096 1775
2088 1769
2080 1763
2073 1755
2064 1750
2056 1743
2050 1735
2045 1726
2040 1717
2035 1708
2031 1698
2026 1689
2023 1679
2018 1670
2014 1660
2009 1651
2005 1641
2004 1631
2000 1621
2000 1611
2000 1601
1999 1591
1995 1581
1995 1571
1995 1561
1995 1551
1995 1541
1995 1531
1995 1521
1995 1511
1995 1501
1995 1491
1995 1481
2000 1471
2005 1456
2005 1446
2010 1436
2015 1426
2020 1416
2025 1406
2033 1399
2038 1389
2043 1379
2048 1369
2055 1361
2060 1351
2065 1341
2070 1331
2078 1324
2088 1319
2098 1314
2103 1304
2108 1294
2115 1286
2125 1281
2133 1274
2140 1266
2148 1259
2158 1254
2168 1249
2178 1244
2188 1239
2198 1235
2208 1234
2218 1230
2228 1230
2238 1229
2248 1225
2258 1225
2268 1225
2278 1225
2288 1225
2298 1225
2307 1230
2317 1230
2327 1230
2336 1235
2346 1235
2355 1240
2364 1245
2373 1250
2382 1255
2391 1260
2399 1266
2408 1271
2415 1279
2423 1285
2432 1290
2439 1298
2447 1305
2451 1315
2459 1321
2465 1329
2470 1338
2475 1347
2480 1356
2485 1365
2486 1375
2491 1384
2495 1394
2495 1404
2495 1414
2495 1424
2495 1434
2495 1444
2495 1454
2495 1464
2490 1480
2490 1490
2485 1505
2483 1523
2478 1533
2473 1543
2468 1553
2463 1563
2455 1570
2445 1575
2437 1584
2429 1590
2420 1595
2410 1595
2400 1595
2391 1600
2382 1605
2372 1605
2362 1609
2352 1610
2342 1610
2333 1615
2323 1615
2313 1615
2303 1615
2294 1610
2284 1606
2275 1601
2265 1598
2259 1590
2251 1584
2245 1576
2240 1567
2233 1559
2225 1553
2218 1545
2214 1535
2209 1526
2205 1516
2205 1506
2205 1496
2205 1486
2205 1476
2210 1466
2218 1459
2223 1449
2228 1439
2235 1426
2243 1419
2253 1414
2263 1410
2273 1410
2282 1415
2289 1423
2297 1430
2301 1440
2305 1450
2300 1460
2295 1470
2288 1478
2283 1488
2275 1495
2276 1505
2284 1511
2290 1519
2295 1528
2303 1535
2312 1540
2322 1540
2332 1540
2342 1540
2351 1535
2361 1535
2371 1535
2380 1530
2389 1525
2399 1525
2408 1519
2413 1509
2415 1491
2420 1481
2420 1471
2425 1459
2425 1449
2425 1439
2425 1429
2425 1419
2425 1409
2421 1399
2420 1389
2415 1380
2410 1371
2405 1362
2398 1354
2393 1345
2384 1340
2376 1334
2370 1326
2360 1323
2354 1315
2344 1311
2335 1306
2325 1305
2316 1300
2306 1300
2296 1298
2286 1295
2276 1295
2266 1295
2256 1295
2247 1300
2237 1300
2227 1300
2217 1304
2207 1305
2198 1310
2189 1315
2180 1320
2173 1328
2165 1335
2158 1343
2150 1350
2140 1355
2135 1365
2128 1373
2120 1380
2113 1388
2108 1398
2103 1408
2098 1418
2093 1428
2088 1438
2080 1445
2075 1455
2075 1465
2070 1480
2065 1490
2065 1500
2065 1510
2065 1520
2065 1530
2065 1540
2065 1550
2065 1560
2065 1570
2066 1580
2070 1590
2070 1600
2070 1610
2071 1620
2075 1630
2076 1640
2081 1649
2085 1659
2090 1668
2095 1677
2100 1686
2106 1694
2114 1701
2120 1709
2128 1715
2137 1720
2144 1728
2152 1735
2161 1740
2171 1744
2181 1745
2191 1749
2200 1754
2210 1755
2220 1758
2229 1763
2239 1765
2249 1766
2258 1771
2265 1779
2273 1785
2283 1785
2292 1790
2301 1795
2311 1795
2321 1799
2330 1804
2340 1805
2350 1808
2359 1813
2369 1815
2379 1815
2389 1815
2399 1815
2409 1815
2419 1815
2429 1815
2439 1815
2448 1810
2457 1805
2467 1805
2477 1805
2487 1805
2496 1800
2505 1795
2515 1795
2524 1790
2533 1785
2542 1780
2552 1780
2561 1775
2571 1770
2581 1765
2589 1758
2599 1753
2609 1748
2619 1743
2626 1735
2635 1730
2640 1721
2648 1714
2658 1709
2668 1705
2678 1704
2688 1699
2693 1689
2700 1681
2710 1671
2718 1664
2728 1659
2733 1649
2740 1641
2750 1631
2755 1621
2763 1614
2768 1604
2773 1594
2775 1576
2780 1566
2785 1556
2785 1546
2790 1531
2790 1521
2795 1511
2800 1501
2800 1491
2800 1481
2805 1471
2810 1454
2810 1444
2810 1434
2810 1424
2810 1414
2810 1404
2810 1394
2810 1384
2808 1374
2803 1365
2800 1355
2800 1345
2799 1335
2794 1326
2790 1316
2790 1306
2790 1296
2785 1287
2780 1278
2780 1268
2775 1259
2770 1250
2770 1240
2768 1230
2764 1220
2756 1213
2750 1205
2745 1196
2745 1186
2740 1177
2735 1168
2731 1158
2726 1149
2719 1141
2715 1131
2710 1122
2705 1113
2699 1105
2691 1099
2688 1089
2683 1080
2679 1070
2671 1063
2665 1055
2660 1046
2655 1037
2650 1028
2644 1020
2639 1011
2635 1001
2625 997
2618 989
2613 980
2604 975
2596 968
2591 959
2588 949
2580 942
2575 933
2570 924
2561 919
2554 911
2550 901
2540 897
2533 889
2528 880
2519 875
2511 869
2506 860
2498 854
2490 847
2483 839
2475 833
2470 824
2461 819
2454 811
2450 801
2440 797
2433 789
2428 780
2419 775
2411 769
2407 759
2402 750
2393 745
2384 740
2376 733
2371 724
2366 715
2358 709
2350 702
2343 694
2338 685
2329 680
2321 673
2311 669
2304 661
2295 656
2285 653
2276 648
2266 644
2259 636
2255 626
2245 623
2236 618
2226 614
2217 609
2208 604
2200 598
2195 589
2186 584
2177 579
2168 574
2158 570
2148 570
2138 569
2128 565
2119 560
2109 560
2100 555
2090 551
2080 550
2070 550
2060 550
2050 550
2040 550
2030 550
2020 550
2010 550
2000 550
1990 550
1980 550
1970 550
1961 555
1951 555
1942 560
1932 560
1923 565
1913 565
1904 570
1895 575
1885 575
1876 580
1867 585
1857 589
1847 594
1839 600
1830 605
1822 619
1814 625
1808 633
1803 643
1798 653
1790 660
1783 673
1775 680
1770 690
1765 700
1760 710
1755 720
1750 730
1750 740
1745 750
1740 760
1740 770
1735 780
1730 790
1730 800
1725 810
1720 820
1718 838
1713 848
1705 855
1695 860
1690 870
1690 880
1685 890
1678 903
1670 910
1665 920
1658 933
1650 940
1645 950
1640 960
1640 970
1635 980
1628 993
1620 1000
1615 1010
1610 1020
1603 1028
1598 1038
1593 1048
1588 1058
1580 1065
1580 1075
1575 1085
1570 1095
1565 1105
1560 1120
1558 1138
1553 1148
1548 1158
1543 1168
1538 1178
1533 1188
1525 1195
1518 1208
1510 1215
1500 1220
1495 1230
1488 1243
1480 1250
1480 1260
1475 1270
1468 1283
1460 1290
1460 1300
1455 1310
1448 1323
1440 1330
1435 1340
1430 1350
1423 1358
1413 1363
1405 1370
1398 1383
1390 1390
1385 1400
1378 1413
1370 1420
1365 1430
1360 1440
1353 1448
1343 1453
1335 1460
1330 1470
1323 1478
1318 1488
1313 1498
1305 1505
1295 1510
1290 1520
1283 1528
1278 1538
1273 1548
1265 1555
1255 1560
1245 1565
1237 1574
1229 1580
1223 1588
1215 1595
1205 1600
1197 1614
1188 1620
1179 1625
1170 1630
1163 1638
1153 1643
1143 1648
1135 1655
1125 1660
1115 1665
1105 1670
1095 1670
1085 1675
1075 1680
1065 1680
1055 1685
1047 1694
1037 1699
1029 1705
1020 1710
1010 1710
1002 1719
992 1724
982 1729
974 1735
965 1740
955 1740
945 1745
935 1750
925 1755
915 1760
905 1760
895 1765
886 1770
876 1770
867 1775
857 1779
847 1780
837 1784
827 1785
817 1789
807 1790
797 1790
787 1790
777 1790
767 1790
757 1790
748 1795
738 1795
728 1795
718 1795
708 1795
698 1795
689 1790
680 1785
670 1785
661 1780
651 1778
641 1775
632 1770
623 1765
613 1764
603 1760
594 1755
584 1751
575 1746
565 1745
556 1740
547 1735
538 1730
529 1725
519 1721
510 1716
500 1713
491 1708
481 1704
474 1696
465 1691
455 1688
446 1683
436 1679
429 1671
420 1666
410 1663
404 1655
396 1649
390 1641
380 1637
373 1629
365 1623
359 1615
351 1608
346 1599
340 1591
335 1582
328 1574
320 1567
315 1558
308 1550
304 1540
299 1531
295 1521
290 1512
285 1503
280 1494
275 1485
274 1475
269 1466
265 1456
260 1447
255 1438
250 1429
245 1420
240 1411
239 1401
235 1391
230 1382
225 1373
221 1363
216 1354
215 1344
210 1335
205 1326
205 1316
200 1307
195 1298
195 1288
190 1279
190 1269
185 1260
185 1250
180 1241
180 1231
179 1221
175 1211
175 1201
175 1191
175 1181
175 1171
175 1161
175 1151
175 1141
175 1131
175 1121
175 1111
175 1101
175 1091
175 1081
175 1071
175 1061
175 1051
175 1041
