30 431
30 421
35 406
35 396
40 386
40 376
40 366
40 356
45 346
50 336
55 326
55 316
63 309
68 299
70 286
78 279
83 269
93 264
98 254
105 246
110 236
120 226
130 221
135 211
145 206
153 199
163 194
170 186
180 185
188 179
198 174
208 170
217 165
226 160
235 155
245 155
255 151
265 146
275 145
285 145
295 141
305 136
315 135
325 131
335 130
345 126
355 121
365 116
375 115
385 115
395 115
405 115
415 111
425 110
435 110
445 110
455 110
465 110
475 110
485 113
495 115
505 115
515 118
525 120
534 125
543 130
553 130
556 140
565 145
570 154
580 155
585 164
590 173
598 180
604 188
610 196
615 205
623 211
628 220
634 228
635 238
640 247
640 257
644 267
649 276
650 286
653 296
655 306
655 316
660 325
660 335
660 345
660 355
660 365
660 375
660 385
660 395
660 405
660 415
660 425
660 435
660 445
655 455
655 465
650 475
650 485
645 500
645 510
648 528
640 535
635 550
635 560
630 570
630 580
635 589
630 600
625 610
625 620
620 630
615 645
615 655
620 664
618 683
610 690
610 700
610 710
610 720
605 730
600 745
600 755
605 764
605 774
605 784
600 795
595 805
595 815
595 825
595 835
595 845
595 855
595 865
590 875
590 885
590 895
590 905
590 915
590 925
590 935
590 945
590 955
590 965
590 975
590 985
590 995
590 1005
590 1015
591 1025
595 1035
595 1045
600 1054
605 1063
609 1073
614 1082
621 1090
629 1096
635 1104
640 1113
649 1118
654 1127
660 1135
665 1144
673 1150
675 1160
680 1169
685 1178
689 1188
690 1198
690 1208
690 1218
698 1225
701 1235
705 1245
710 1254
715 1263
715 1273
715 1283
720 1292
720 1302
720 1312
725 1321
725 1331
725 1341
720 1350
715 1365
715 1380
715 1390
720 1399
715 1410
715 1420
720 1429
720 1439
715 1450
715 1460
710 1470
705 1485
700 1500
700 1510
700 1520
700 1530
700 1540
695 1550
690 1565
685 1575
675 1580
665 1580
665 1590
670 1599
670 1609
675 1618
675 1628
675 1638
683 1645
685 1655
690 1664
690 1674
690 1684
690 1694
698 1700
700 1710
700 1720
700 1730
705 1739
705 1749
710 1758
714 1768
715 1778
715 1788
715 1798
719 1808
724 1817
725 1827
729 1837
730 1847
735 1856
744 1861
750 1869
755 1878
755 1888
759 1898
769 1901
770 1911
779 1916
783 1926
790 1934
798 1940
807 1945
816 1950
826 1954
836 1955
846 1955
856 1955
866 1955
876 1955
886 1955
896 1955
906 1955
916 1955
926 1955
936 1955
946 1955
955 1950
964 1945
973 1940
983 1939
988 1929
998 1924
1005 1916
1013 1909
1020 1901
1030 1891
1038 1885
1045 1876
1055 1866
1063 1859
1070 1846
1080 1836
1085 1826
1093 1819
1098 1809
1100 1791
1105 1776
1110 1761
1110 1751
1110 1741
1110 1731
1110 1721
1110 1711
1105 1702
1100 1693
1094 1685
1086 1679
1080 1671
1070 1668
1063 1660
1059 1650
1050 1645
1040 1641
1030 1637
1025 1628
1019 1620
1009 1620
999 1620
991 1614
982 1609
972 1605
962 1604
952 1600
942 1600
933 1595
923 1595
913 1595
903 1595
893 1595
883 1595
873 1595
863 1598
855 1605
845 1605
838 1618
830 1625
822 1634
814 1640
805 1645
805 1655
805 1665
805 1675
805 1685
805 1695
805 1705
805 1715
806 1725
810 1735
815 1744
815 1754
815 1764
820 1773
820 1783
824 1793
830 1801
836 1809
844 1816
853 1821
860 1829
870 1830
879 1835
888 1840
897 1845
907 1845
917 1845
927 1845
937 1845
945 1836
955 1831
963 1824
973 1819
980 1806
990 1796
998 1789
1005 1776
1005 1766
1005 1756
1005 1746
1005 1736
1005 1726
1000 1717
995 1708
989 1700
981 1694
975 1686
965 1685
955 1685
950 1700
940 1700
935 1715
930 1725
930 1735
925 1745
925 1755
920 1765
913 1773
905 1780
895 1778
886 1773
881 1764
875 1756
875 1746
875 1736
880 1726
885 1711
885 1701
893 1694
898 1684
903 1675
913 1674
915 1661
923 1654
928 1645
937 1640
946 1635
956 1635
966 1635
976 1635
986 1639
994 1645
1004 1646
1010 1654
1020 1658
1028 1665
1031 1675
1040 1680
1045 1689
1050 1698
1050 1708
1055 1717
1060 1726
1060 1736
1060 1746
1060 1756
1060 1766
1060 1776
1058 1788
1050 1795
1045 1805
1040 1815
1030 1820
1030 1830
1020 1835
1015 1845
1005 1850
999 1860
990 1865
985 1875
975 1875
968 1883
958 1888
950 1895
940 1895
930 1900
920 1900
910 1900
900 1896
890 1895
882 1889
872 1885
863 1880
854 1875
844 1875
834 1871
826 1865
818 1859
810 1853
805 1844
796 1839
790 1831
785 1822
780 1813
775 1804
770 1795
770 1785
768 1775
765 1765
763 1755
760 1745
760 1735
755 1726
755 1716
755 1706
755 1696
755 1686
755 1676
755 1666
755 1656
755 1646
755 1636
760 1626
768 1619
773 1609
780 1601
788 1595
797 1590
801 1580
810 1575
818 1569
828 1564
835 1556
845 1555
854 1550
863 1544
873 1540
883 1540
893 1540
903 1540
913 1540
923 1540
932 1545
941 1550
951 1550
961 1554
971 1555
981 1559
990 1564
1000 1565
1010 1568
1019 1573
1027 1580
1037 1580
1046 1585
1054 1591
1060 1599
1070 1603
1080 1605
1085 1614
1093 1620
1100 1628
1109 1633
1115 1641
1124 1646
1130 1654
1138 1660
1141 1670
1149 1676
1153 1686
1158 1695
1160 1705
1161 1715
1165 1725
1165 1735
1165 1745
1160 1760
1160 1770
1155 1780
1150 1795
1150 1805
1148 1818
1140 1825
1135 1835
1130 1845
1125 1855
1120 1865
1110 1875
1100 1885
1093 1898
1088 1908
1080 1915
1072 1924
1062 1929
1057 1939
1047 1944
1039 1950
1030 1955
1025 1965
1015 1965
1010 1975
1001 1980
992 1985
987 1994
977 1995
967 1995
958 2000
949 2005
939 2005
929 2005
919 2005
909 2005
899 2005
889 2005
879 2005
869 2005
859 2005
849 2005
839 2005
829 2005
819 2005
810 2000
801 1995
791 1993
781 1989
775 1981
765 1978
759 1970
751 1964
745 1956
740 1947
733 1939
725 1933
718 1925
715 1915
710 1906
709 1896
705 1886
695 1882
690 1873
686 1863
680 1855
678 1845
675 1835
675 1825
674 1815
669 1806
665 1796
660 1787
660 1777
660 1767
660 1757
655 1748
655 1738
650 1729
650 1719
650 1709
648 1699
640 1692
640 1682
640 1672
635 1663
635 1653
635 1643
628 1635
625 1625
625 1615
620 1606
620 1596
625 1583
620 1574
616 1564
610 1556
610 1546
610 1533
605 1524
605 1514
600 1505
595 1496
595 1486
596 1474
595 1464
589 1456
585 1446
575 1442
568 1434
560 1427
553 1419
545 1412
538 1404
530 1397
530 1387
523 1379
518 1370
515 1360
515 1350
510 1341
510 1331
510 1321
510 1311
510 1301
510 1291
515 1281
515 1271
515 1261
515 1251
515 1241
515 1231
515 1221
515 1211
515 1196
515 1186
515 1176
515 1166
515 1156
520 1141
525 1126
525 1116
530 1101
540 1096
540 1086
540 1076
540 1066
545 1055
540 1046
540 1036
540 1026
540 1016
540 1006
540 996
540 986
540 976
540 966
540 956
540 946
540 936
540 926
540 916
540 906
540 896
540 886
540 876
545 861
545 851
550 840
545 831
545 821
545 811
553 804
555 786
555 776
555 766
555 756
555 746
555 736
555 726
560 711
560 701
565 691
570 676
570 666
570 656
570 646
570 636
570 626
575 611
580 601
585 591
585 581
585 571
585 561
585 551
590 536
595 526
595 516
600 505
595 496
595 486
600 476
605 466
605 456
610 439
610 429
610 419
610 409
610 399
610 389
610 379
610 369
610 359
610 349
610 339
610 329
606 319
605 309
605 299
599 291
595 281
595 271
590 262
590 252
585 243
579 235
571 228
566 219
563 209
555 203
549 195
541 188
531 184
528 174
518 170
508 169
498 165
488 165
478 165
469 160
459 160
449 160
439 160
429 162
419 165
409 165
399 167
389 170
379 170
369 172
359 175
350 180
341 185
331 185
321 185
312 190
302 194
292 195
282 195
273 200
263 203
253 208
243 210
233 213
223 218
215 225
205 225
197 234
187 235
182 244
172 249
164 255
158 263
150 270
143 278
135 285
130 295
123 303
118 313
110 320
108 338
100 345
95 355
95 365
90 380
90 390
85 405
85 415
85 425
80 435
81 445
85 455
90 464
90 474
95 483
95 493
95 503
103 510
109 518
110 528
110 538
118 545
121 555
126 564
134 571
140 579
148 585
151 595
161 599
169 606
179 610
189 610
199 610
209 610
219 610
229 610
239 610
249 610
258 604
265 596
275 595
285 595
293 589
303 584
313 579
320 571
330 566
338 560
347 555
355 546
363 540
370 531
380 521
385 506
395 496
400 486
400 476
405 461
410 446
410 436
410 426
410 412
410 402
405 393
399 385
391 378
386 369
383 359
375 353
369 345
360 340
355 331
345 327
340 318
334 310
325 305
315 305
305 303
299 295
290 290
280 290
270 290
260 290
250 290
240 290
230 295
222 304
214 312
204 315
198 323
190 330
185 340
185 350
185 360
180 370
180 380
175 395
180 404
185 413
185 423
190 432
196 440
201 449
211 450
220 455
230 455
240 451
248 444
253 434
255 421
255 411
265 406
273 400
283 400
292 405
299 413
304 422
305 432
300 445
295 455
295 465
289 475
280 480
272 490
264 497
254 502
244 505
234 505
224 505
214 505
204 505
194 501
185 496
175 493
169 485
161 478
155 470
150 461
150 451
145 442
140 433
135 424
130 415
125 406
125 396
125 386
130 371
130 361
135 351
135 341
140 331
150 326
150 316
160 306
168 299
175 291
183 284
188 275
197 270
206 265
214 258
221 250
231 245
240 236
250 235
260 235
270 235
280 235
289 240
298 245
307 250
317 250
326 255
335 260
345 263
355 265
360 274
368 280
377 285
384 293
389 302
399 306
403 316
410 324
418 330
424 338
432 345
439 353
444 362
449 371
453 381
458 390
464 398
465 408
465 418
465 428
465 438
460 450
455 465
450 480
450 490
448 503
440 510
438 523
430 530
425 545
415 555
410 565
400 570
390 580
382 589
374 595
365 600
357 609
347 610
342 619
332 624
322 629
313 635
303 638
293 640
284 645
275 650
265 650
257 659
249 665
239 665
229 665
219 665
209 665
199 665
189 665
179 665
170 660
160 658
151 653
141 650
135 642
128 634
120 627
113 619
105 613
98 605
94 595
85 590
80 581
75 572
70 563
66 553
61 544
55 536
55 526
55 516
50 507
45 498
40 489
40 479
36 469
30 461
30 451
30 441
