50 366
50 356
55 346
60 336
68 329
73 319
80 311
88 305
97 300
106 295
116 295
125 290
135 290
145 290
155 290
165 290
175 290
185 290
195 293
204 298
212 305
219 313
225 321
231 329
235 339
240 348
240 358
240 368
240 378
235 395
228 408
220 415
212 424
203 430
193 433
183 435
173 435
163 435
153 434
143 430
134 425
126 418
120 410
115 401
115 391
115 381
115 371
120 356
128 350
137 345
147 345
157 345
166 350
170 365
160 375
150 380
150 390
158 396
168 400
178 400
187 395
196 390
204 383
205 366
205 356
200 347
195 338
188 330
179 325
169 325
159 325
149 325
139 325
129 325
120 330
110 330
103 338
95 345
90 355
85 365
85 375
85 385
85 395
90 404
95 413
99 423
105 431
110 440
115 449
123 455
129 463
139 466
145 474
155 478
164 483
174 485
183 490
193 490
203 490
213 490
223 490
233 489
240 481
250 476
258 469
268 464
275 456
285 451
293 444
300 436
308 429
313 419
323 414
328 404
335 396
343 389
348 379
353 369
360 361
365 351
370 341
375 331
380 321
388 314
395 301
400 291
405 281
410 271
415 261
420 251
425 241
430 231
438 225
445 216
453 209
458 199
463 189
470 181
478 174
485 161
493 154
500 146
508 140
517 135
526 130
534 123
541 115
551 110
560 105
569 100
578 95
588 94
598 90
608 89
618 85
628 84
638 80
648 79
658 75
668 75
678 75
687 70
697 70
707 70
717 70
727 70
737 70
747 70
756 75
766 79
775 84
785 88
793 95
802 100
811 105
819 111
828 116
835 124
845 128
853 135
859 143
865 151
871 159
875 169
880 178
880 188
885 197
885 207
885 217
885 227
883 238
878 248
873 258
868 268
860 275
853 288
845 295
838 303
830 310
820 315
810 320
800 320
790 320
780 320
770 320
761 325
751 325
741 325
731 323
721 320
712 315
703 310
693 309
685 302
678 294
670 287
665 278
660 269
655 260
650 251
650 241
650 231
650 221
650 211
650 201
655 191
663 184
670 171
678 165
687 160
696 155
706 150
716 150
725 145
735 145
745 145
755 148
765 150
774 155
784 156
790 164
800 168
808 175
814 183
820 191
823 201
825 211
823 223
818 233
810 240
803 253
793 258
783 263
773 265
763 265
753 265
743 265
734 260
726 254
719 246
715 236
715 226
715 216
723 209
733 205
742 210
749 218
750 228
760 230
770 230
779 225
785 216
783 200
774 195
766 188
756 185
746 183
736 180
726 180
717 185
707 189
699 195
690 200
685 210
685 220
685 230
685 240
690 249
695 258
699 268
707 275
716 280
726 284
736 285
745 290
755 290
765 286
775 285
785 285
795 285
805 285
813 279
820 271
828 264
833 254
840 241
845 231
850 220
850 210
850 200
845 191
845 181
840 172
833 164
825 158
818 150
809 145
801 138
791 134
784 126
775 121
765 118
758 110
748 110
739 105
729 105
719 105
709 105
699 105
689 105
680 110
670 110
660 110
651 115
641 115
632 120
622 120
612 124
602 125
592 129
582 134
572 139
562 144
554 150
545 155
535 160
528 168
520 175
513 183
505 190
498 203
490 210
483 223
475 230
470 240
463 248
455 255
450 265
445 275
440 285
435 295
430 305
425 315
420 325
413 338
405 345
400 355
395 365
390 375
383 383
378 393
373 403
365 410
358 418
353 428
345 435
338 443
333 453
325 460
318 468
310 475
302 484
292 489
284 495
275 500
265 505
258 513
250 520
241 525
231 525
221 525
211 525
201 525
191 525
181 525
172 520
162 520
153 515
144 510
134 506
125 501
117 494
108 489
100 483
94 475
86 468
80 460
75 451
70 442
65 433
60 424
55 415
50 406
50 396
50 386
50 376
