1254 887
1257 904
1264 912
1274 915
1283 920
1292 925
1302 925
1312 925
1322 924
1332 919
1337 909
1340 890
1340 880
1340 870
1340 860
1340 850
1345 840
1345 830
1350 815
1358 808
1363 798
1368 788
1373 778
1380 770
1385 760
1393 753
1403 748
1413 743
1423 740
1433 740
1442 745
1450 752
1457 760
1459 770
1459 780
1459 790
1465 798
1473 805
1483 805
1492 810
1502 810
1512 814
1522 815
1532 815
1542 815
1551 820
1561 820
1571 820
1580 825
1590 827
1600 830
1609 835
1618 840
1627 845
1637 849
1646 854
1656 858
1664 852
1670 837
1670 827
1670 817
1669 807
1665 797
1660 788
1655 779
1651 769
1642 764
1632 764
1622 764
1612 769
1602 774
1592 779
1583 784
1574 789
1564 792
1554 794
1544 794
1534 794
1524 794
1514 794
1506 800
1495 800
1495 790
1495 780
1495 770
1495 760
1495 750
1495 740
1495 730
1495 720
1495 710
1500 695
1505 684
1502 674
1497 665
1495 655
1495 645
1490 636
1490 626
1485 617
1479 609
1470 604
1467 594
1462 585
1455 577
1445 573
1438 565
1430 559
1421 554
1412 549
1403 544
1394 539
1385 534
1375 534
1365 534
1355 530
1350 521
1345 512
1337 505
1328 500
1318 496
1309 491
1299 492
1289 497
1284 507
1279 517
1279 527
1284 536
1291 544
1299 550
1302 560
1309 568
1309 578
1310 588
1315 597
1319 607
1327 614
1336 619
1344 625
1353 630
1360 638
1368 645
1377 650
1384 658
1385 668
1389 678
1389 688
1385 701
1375 706
1367 714
1359 722
1354 732
1349 742
1347 754
1342 764
1334 772
1329 782
1322 799
1318 809
1310 816
1305 826
1297 834
1292 844
1284 852
1277 864
1269 872
1259 877
