1314 582
1314 572
1319 562
1329 557
1339 554
1348 559
1357 564
1367 564
1377 564
1387 564
1397 564
1407 564
1417 564
1427 564
1437 564
1446 569
1456 569
1465 574
1475 574
1484 579
1493 584
1502 589
1509 597
1519 601
1525 609
1535 612
1542 620
1552 624
1559 632
1558 648
1550 655
1543 663
1535 670
1535 680
1535 690
1535 700
1535 710
1535 720
1535 730
1535 740
1540 749
1550 749
1559 754
1568 759
1577 764
1584 772
1590 780
1595 789
1603 795
1610 803
1618 809
1628 809
1638 809
1648 809
1658 809
1668 810
1675 818
1675 828
1675 838
1670 850
1670 860
1665 875
1660 885
1652 899
1642 899
1637 890
1634 880
1633 870
1625 863
1618 855
1610 848
1603 840
1595 833
1588 825
1580 818
1573 810
1564 805
1555 800
1546 795
1537 790
1528 785
1519 780
1511 774
1502 769
1494 762
1487 754
1482 745
1479 735
1479 725
1479 715
1478 705
1468 708
1458 713
1448 715
1439 720
1430 725
1420 730
1420 740
1420 750
1420 760
1420 770
1420 780
1420 790
1420 800
1420 810
1420 820
1420 830
1415 845
1415 855
1410 870
1410 880
1403 893
1393 895
1384 890
1376 884
1369 876
1364 867
1364 857
1372 849
1379 832
1384 822
1389 807
1394 792
1394 782
1394 772
1394 762
1394 752
1394 742
1394 732
1394 722
1399 712
1407 704
1416 699
1424 692
1429 678
1429 668
1422 660
1413 655
1404 650
1394 650
1385 645
1376 640
1367 635
1358 630
1348 630
1338 630
1329 625
1319 621
1314 612
1314 602
1314 592
