1129 447
1129 437
1134 427
1139 417
1147 409
1156 404
1165 399
1175 399
1184 404
1194 406
1203 411
1210 419
1218 425
1222 435
1227 444
1230 454
1238 460
1247 465
1255 472
1263 479
1272 484
1281 489
1290 494
1300 497
1308 504
1317 509
1324 517
1334 521
1343 526
1350 534
1359 539
1368 544
1377 549
1384 557
1389 566
1393 576
1398 585
1402 595
1407 604
1410 614
1418 620
1422 630
1427 639
1430 649
1435 658
1440 667
1444 677
1449 686
1450 696
1455 705
1457 715
1460 725
1465 734
1475 737
1484 742
1492 749
1501 754
1509 761
1518 766
1528 770
1535 778
1545 782
1554 787
1564 791
1573 796
1583 800
1592 805
1602 809
1609 817
1617 824
1624 832
1632 839
1635 849
1643 855
1650 863
1655 872
1663 879
1673 880
1680 888
1685 897
1685 907
1680 920
1675 935
1670 945
1665 955
1657 964
1649 972
1641 980
1631 984
1624 976
1619 967
1624 955
1624 945
1624 935
1624 925
1624 915
1622 905
1615 897
1605 893
1596 888
1586 884
1577 879
1567 875
1558 870
1549 865
1540 860
1531 855
1522 850
1513 845
1504 840
1495 835
1486 830
1477 825
1473 815
1465 808
1459 800
1449 797
1442 789
1434 782
1427 774
1419 767
1412 759
1404 752
1400 742
1390 738
1384 730
1374 730
1364 730
1354 730
1344 730
1334 730
1324 730
1314 730
1304 732
1294 735
1284 735
1274 737
1264 740
1255 745
1255 755
1260 764
1268 770
1275 778
1283 785
1290 793
1298 800
1305 808
1313 815
1322 820
1330 827
1334 837
1342 844
1345 854
1350 863
1358 870
1362 880
1370 887
1374 897
1373 913
1365 920
1355 925
1346 930
1337 935
1328 940
1318 940
1309 945
1299 945
1290 950
1280 950
1270 950
1264 942
1264 932
1272 924
1281 919
1289 912
1297 904
1299 892
1299 882
1299 872
1292 864
1284 857
1277 849
1269 842
1262 834
1254 827
1247 819
1239 812
1232 804
1227 795
1220 787
1215 778
1209 770
1204 761
1204 737
1204 727
1209 717
1217 709
1225 701
1235 696
1245 691
1255 686
1265 684
1274 677
1282 669
1289 657
1297 649
1299 639
1299 629
1299 619
1297 609
1287 605
1280 597
1272 590
1263 585
1254 580
1245 575
1236 570
1227 565
1218 560
1209 555
1201 549
1199 539
1199 529
1199 519
1199 509
1199 499
1196 489
1191 480
1181 480
1171 480
1161 480
1151 478
1141 474
1134 466
1129 457
