474 852
474 842
479 832
489 827
499 824
509 822
519 819
529 819
539 819
549 819
559 819
568 814
578 815
587 820
592 829
599 837
607 844
610 854
615 863
623 870
630 878
638 885
645 893
653 900
660 908
668 914
677 919
687 919
689 908
689 898
689 888
689 878
689 868
689 858
684 849
684 839
684 829
684 819
681 809
679 799
679 789
674 780
674 770
666 764
657 759
649 752
640 747
635 738
629 730
621 723
611 720
601 718
591 715
582 710
572 710
563 705
554 700
545 695
536 690
527 685
520 677
515 668
509 660
504 651
504 641
499 632
499 622
499 612
499 602
499 592
499 582
499 572
499 562
499 552
504 542
509 532
514 522
519 512
527 504
536 499
544 492
552 484
559 472
569 467
579 464
589 464
599 466
608 471
615 479
620 488
625 497
632 505
637 514
640 524
648 530
652 540
662 544
672 544
682 544
692 544
702 544
711 539
721 539
731 539
741 535
751 534
759 521
759 511
759 501
754 492
749 483
744 474
744 464
739 455
739 445
739 435
737 425
727 425
717 425
707 425
698 420
688 420
679 415
670 410
662 404
657 395
654 385
649 376
649 366
644 357
644 347
644 337
644 327
644 317
649 307
657 299
662 289
670 281
678 274
687 269
696 264
706 264
715 259
725 259
735 259
745 256
750 246
758 239
764 227
769 217
769 207
769 197
769 187
769 177
769 167
769 157
769 147
769 137
774 127
782 119
787 109
797 104
807 104
817 104
826 109
835 114
845 114
854 119
862 125
872 129
881 134
890 139
900 139
910 139
920 139
929 144
939 144
949 144
959 144
969 144
979 144
989 144
999 144
1009 144
1019 144
1029 144
1039 144
1049 144
1059 144
1069 144
1079 142
1087 134
1096 129
1105 124
1115 121
1125 119
1135 122
1144 127
1150 135
1155 144
1155 154
1160 163
1160 173
1168 180
1175 188
1183 195
1190 203
1198 209
1207 214
1214 222
1220 230
1225 239
1230 248
1235 257
1240 266
1233 283
1225 290
1225 300
1230 309
1240 312
1244 322
1249 331
1248 348
1243 358
1235 365
1228 373
1220 380
1210 385
1205 395
1195 405
1186 410
1177 415
1167 419
1157 420
1147 420
1138 425
1129 430
1120 435
1110 440
1110 450
1110 460
1115 469
1125 469
1135 469
1143 475
1150 483
1150 493
1158 499
1168 500
1177 505
1187 509
1197 509
1207 509
1217 509
1227 509
1236 514
1240 524
1245 533
1250 542
1254 552
1259 561
1265 569
1273 575
1280 583
1288 589
1297 594
1306 599
1314 606
1318 616
1325 624
1333 630
1340 638
1345 647
1350 656
1356 664
1364 671
1370 679
1375 688
1380 697
1387 705
1395 712
1399 722
1400 732
1404 742
1410 750
1415 759
1410 775
1410 785
1408 798
1403 808
1395 815
1388 823
1380 830
1380 840
1380 850
1385 859
1390 868
1395 877
1400 886
1400 896
1400 906
1400 916
1400 926
1400 936
1400 946
1400 956
1400 966
1395 980
1390 990
1385 1000
1380 1010
1375 1020
1370 1030
1363 1038
1358 1048
1350 1055
1343 1063
1338 1073
1330 1080
1323 1088
1315 1095
1308 1103
1303 1113
1295 1120
1288 1128
1280 1135
1273 1143
1265 1150
1258 1163
1250 1170
1240 1170
1230 1170
1220 1170
1210 1170
1200 1170
1190 1170
1182 1164
1174 1157
1167 1149
1157 1145
1150 1137
1142 1130
1135 1122
1125 1118
1116 1113
1106 1110
1097 1105
1087 1105
1078 1100
1068 1100
1059 1095
1050 1090
1040 1090
1030 1090
1020 1095
1010 1095
1001 1100
991 1100
981 1100
971 1100
962 1105
952 1105
942 1105
932 1105
922 1105
912 1105
902 1105
892 1105
882 1104
872 1100
863 1095
854 1090
844 1087
835 1082
830 1073
823 1065
813 1065
803 1065
794 1070
785 1075
780 1085
774 1097
766 1105
756 1105
746 1105
736 1105
726 1105
716 1105
706 1105
696 1105
686 1105
676 1105
667 1110
657 1110
648 1115
638 1115
628 1115
618 1115
608 1115
598 1115
588 1115
578 1115
570 1108
564 1100
556 1094
549 1086
544 1077
544 1067
539 1058
534 1049
532 1039
524 1032
519 1023
514 1014
509 1005
504 996
499 987
494 978
489 969
484 960
479 951
479 941
474 932
474 922
474 912
474 902
474 892
474 882
474 872
474 862
