454 862
454 852
459 842
467 834
475 826
483 819
487 809
496 804
505 799
514 794
523 789
533 789
543 790
553 794
562 799
571 804
580 809
588 815
595 823
603 830
610 838
618 845
622 855
630 862
637 870
645 877
639 855
634 846
634 836
634 826
634 816
634 806
634 796
634 786
634 776
634 766
634 756
634 746
629 737
629 727
629 717
624 708
617 700
607 700
597 700
587 700
577 700
567 700
558 695
549 690
539 687
532 679
522 675
515 667
509 659
504 650
504 640
499 631
499 621
499 611
499 601
494 592
494 582
494 572
494 562
494 552
494 542
494 532
494 522
494 512
494 502
494 492
499 482
504 472
512 464
522 459
532 454
542 449
552 444
562 439
572 434
582 429
592 424
601 429
609 436
618 441
625 449
633 455
640 463
648 470
652 480
657 489
660 499
660 509
670 509
680 509
690 509
700 509
710 509
720 509
729 502
734 492
739 482
748 470
739 465
734 456
734 446
729 437
729 427
724 418
720 408
719 398
712 390
702 390
692 390
682 390
672 390
662 390
652 389
644 382
639 373
634 364
629 355
629 345
624 336
624 326
624 316
619 307
619 297
619 287
619 277
619 267
624 257
632 249
641 244
649 237
659 232
669 227
679 222
689 219
698 214
708 214
718 214
728 214
738 214
739 197
739 187
744 177
749 160
749 150
749 140
749 130
744 121
739 112
739 102
744 92
749 82
757 74
766 69
775 64
785 64
795 64
805 64
814 69
822 75
832 79
841 84
850 89
860 92
869 97
879 99
889 99
899 101
909 104
919 104
929 104
938 109
948 109
958 109
968 109
978 109
988 109
998 109
1008 109
1017 104
1026 99
1036 99
1046 99
1054 92
1064 87
1074 84
1083 79
1093 79
1103 80
1112 85
1117 94
1120 104
1125 113
1130 122
1134 132
1135 142
1139 152
1149 156
1158 161
1165 169
1173 175
1175 185
1175 195
1180 204
1189 209
1197 215
1205 222
1214 227
1222 234
1225 244
1215 250
1220 259
1225 268
1230 277
1230 287
1230 297
1230 307
1230 317
1230 327
1225 340
1220 350
1215 360
1210 370
1206 380
1197 385
1188 390
1178 393
1168 398
1158 400
1148 403
1138 405
1128 408
1120 415
1113 423
1105 430
1105 440
1105 450
1110 459
1115 468
1120 477
1120 487
1130 489
1140 489
1149 494
1159 494
1169 494
1179 494
1189 494
1198 489
1208 489
1217 494
1224 502
1229 511
1230 521
1230 531
1233 541
1240 549
1250 552
1257 560
1267 564
1274 572
1284 576
1290 584
1299 589
1307 595
1315 602
1319 612
1329 616
1333 626
1340 634
1348 640
1355 648
1363 655
1370 663
1378 670
1382 680
1387 689
1390 699
1395 708
1395 718
1400 727
1400 737
1395 755
1390 765
1385 775
1380 785
1375 800
1375 810
1375 820
1375 830
1380 839
1385 848
1390 857
1394 867
1399 876
1400 886
1405 895
1405 905
1405 915
1405 925
1400 935
1395 950
1393 963
1388 973
1380 980
1380 990
1375 1000
1368 1013
1363 1023
1358 1033
1353 1043
1343 1048
1338 1058
1333 1068
1325 1075
1317 1089
1312 1099
1304 1105
1295 1110
1288 1118
1280 1125
1270 1130
1260 1135
1250 1140
1241 1145
1231 1145
1221 1145
1211 1145
1202 1140
1192 1139
1182 1135
1172 1135
1163 1130
1154 1125
1145 1120
1137 1114
1132 1105
1123 1100
1115 1093
1108 1085
1100 1078
1093 1070
1084 1065
1074 1065
1065 1060
1055 1060
1045 1060
1035 1060
1025 1060
1015 1060
1005 1060
995 1060
985 1060
975 1060
965 1060
955 1060
945 1060
935 1060
925 1060
916 1065
906 1065
896 1065
886 1065
876 1065
866 1065
857 1070
847 1070
837 1070
828 1065
820 1058
819 1048
813 1040
804 1035
795 1040
788 1048
783 1058
775 1065
770 1075
762 1089
754 1095
745 1100
736 1105
726 1105
716 1105
707 1110
697 1110
687 1110
677 1110
667 1110
657 1110
647 1110
637 1110
627 1110
617 1110
607 1110
597 1110
588 1105
579 1100
574 1091
569 1082
564 1073
557 1065
554 1055
546 1049
539 1041
534 1032
527 1024
519 1017
515 1007
507 1000
504 990
496 984
489 976
484 967
479 958
474 949
472 939
467 930
464 920
464 910
464 900
459 891
459 881
454 872
