474 887
474 877
479 867
487 859
495 851
500 841
508 834
517 829
527 829
536 824
546 824
556 824
566 824
576 824
585 829
595 832
605 834
613 840
620 848
628 855
635 863
645 867
652 875
660 882
667 890
672 899
679 907
685 915
684 898
684 888
684 878
684 868
684 858
684 848
684 838
684 828
684 818
684 808
680 798
676 788
671 779
667 769
662 760
653 755
643 755
634 750
624 747
615 742
607 735
598 730
589 725
581 718
571 714
562 709
552 705
545 697
540 688
533 680
525 673
519 665
511 658
506 649
502 639
497 630
494 620
489 611
489 601
484 592
484 582
484 572
484 562
484 552
489 542
494 527
499 512
504 502
509 492
517 484
525 476
533 469
542 464
551 459
561 459
571 459
581 459
590 464
598 470
602 480
610 487
614 497
619 506
620 516
620 526
625 535
630 544
639 549
649 549
659 549
669 549
679 549
689 549
699 549
709 549
719 549
729 549
739 547
749 544
758 539
764 526
764 516
764 506
764 496
764 486
764 476
764 466
759 457
759 447
752 439
742 435
739 425
734 416
734 406
726 400
717 405
709 412
699 417
689 422
679 425
669 422
660 417
654 409
649 400
644 391
644 381
639 372
639 362
639 352
639 342
639 332
639 322
639 312
639 302
644 292
649 282
654 267
659 257
667 249
675 241
685 236
695 234
705 234
715 234
724 239
733 244
743 244
753 244
763 244
769 232
769 222
769 212
769 202
769 192
769 182
769 172
769 162
769 152
769 142
769 132
774 122
782 114
791 109
799 102
809 99
819 101
828 106
838 109
847 114
856 119
864 126
868 136
874 144
883 149
893 149
903 149
913 149
923 149
933 149
943 149
953 149
963 149
973 149
983 149
993 149
1003 149
1012 144
1022 144
1032 144
1042 144
1052 139
1062 139
1072 134
1080 126
1090 121
1095 111
1105 106
1115 104
1125 107
1132 115
1137 124
1140 134
1145 143
1150 152
1154 162
1159 171
1165 179
1173 185
1182 190
1190 197
1198 204
1208 205
1217 210
1225 217
1232 225
1237 234
1240 244
1233 258
1225 265
1225 275
1225 285
1227 295
1230 305
1230 315
1230 325
1230 335
1230 345
1230 355
1230 365
1230 375
1223 388
1215 395
1208 403
1198 408
1190 415
1180 420
1173 428
1163 433
1153 438
1143 440
1134 445
1125 440
1120 450
1125 459
1125 469
1133 475
1140 483
1140 493
1145 502
1149 512
1157 519
1167 519
1177 519
1187 519
1197 519
1207 519
1217 519
1227 519
1237 519
1244 527
1250 535
1250 545
1255 554
1265 557
1272 565
1280 572
1280 582
1287 590
1295 597
1299 607
1305 615
1310 624
1315 633
1320 642
1327 650
1335 657
1339 667
1347 674
1354 682
1364 686
1373 691
1380 699
1388 705
1395 713
1400 722
1405 731
1410 740
1412 750
1415 760
1415 770
1415 780
1410 795
1405 805
1395 810
1388 818
1378 823
1368 828
1358 833
1350 840
1355 849
1365 852
1374 857
1379 866
1380 876
1385 885
1385 895
1387 905
1390 915
1390 925
1390 935
1390 945
1390 955
1390 965
1390 975
1385 985
1380 1000
1373 1013
1365 1020
1358 1028
1353 1038
1345 1045
1340 1055
1333 1068
1328 1078
1320 1085
1313 1098
1308 1108
1300 1115
1293 1128
1285 1135
1280 1145
1276 1155
1267 1160
1258 1165
1249 1170
1239 1170
1229 1170
1220 1175
1210 1175
1200 1175
1190 1175
1180 1175
1170 1175
1160 1175
1150 1175
1141 1170
1132 1165
1125 1157
1120 1148
1114 1140
1109 1131
1104 1122
1097 1114
1089 1107
1084 1098
1078 1090
1070 1083
1064 1075
1055 1070
1045 1070
1040 1080
1032 1094
1023 1100
1014 1105
1004 1105
994 1105
984 1105
974 1105
964 1105
954 1105
944 1105
934 1105
924 1105
914 1105
905 1100
895 1100
886 1095
876 1095
867 1090
857 1090
848 1085
840 1078
833 1070
823 1070
813 1073
808 1083
800 1090
795 1100
785 1105
777 1114
767 1119
759 1125
750 1130
740 1130
731 1135
722 1140
713 1145
703 1145
694 1150
684 1150
675 1155
665 1155
655 1155
645 1155
635 1155
625 1155
615 1152
605 1148
598 1140
589 1135
580 1130
572 1124
564 1117
555 1112
547 1105
544 1095
539 1086
534 1077
530 1067
525 1058
524 1048
519 1039
519 1029
514 1020
512 1010
509 1000
504 991
504 981
499 972
495 962
489 954
484 945
479 936
479 926
474 917
474 907
474 897
