244 947
244 937
249 927
257 919
259 907
267 899
272 889
279 877
287 869
292 859
300 851
305 841
313 834
320 826
328 819
335 811
343 804
347 794
355 786
363 779
367 769
374 757
382 750
380 740
370 745
360 745
350 745
341 750
331 750
321 749
314 741
309 732
309 722
309 712
317 704
324 692
332 684
337 674
344 662
352 654
357 644
365 636
370 626
378 619
382 609
389 592
394 582
402 574
407 564
414 547
419 537
424 527
432 519
434 507
439 492
444 482
444 465
434 465
424 465
414 465
404 462
397 454
389 447
389 437
397 429
406 424
411 415
419 407
427 399
435 391
443 384
447 374
455 366
460 356
464 342
472 334
477 324
484 312
492 304
497 294
504 282
509 267
517 259
522 249
524 237
521 225
511 225
501 225
491 224
484 216
479 207
479 197
487 189
494 177
502 169
510 161
518 154
524 142
532 134
541 129
546 120
554 112
564 107
569 97
577 89
584 77
589 67
594 57
602 49
610 41
618 34
625 26
633 19
640 11
650 9
660 9
668 15
675 23
683 30
690 38
695 47
700 56
706 64
714 71
720 79
728 85
735 93
743 99
752 104
759 112
767 119
774 127
782 134
791 139
799 146
805 154
810 163
818 170
823 179
832 184
839 192
845 200
845 210
838 218
830 225
820 225
810 225
800 225
805 234
810 243
815 252
819 262
825 270
825 280
830 289
835 298
843 305
850 313
850 323
855 332
860 341
863 351
868 360
870 370
875 379
880 388
888 395
892 405
900 412
907 420
915 427
915 437
915 447
907 454
899 460
889 460
879 460
870 465
860 465
860 475
865 484
865 494
865 504
870 513
870 523
875 532
875 542
879 552
880 562
884 572
890 580
892 590
895 600
897 610
905 617
905 627
910 636
915 645
917 655
920 665
925 674
930 683
930 693
935 702
942 710
950 717
957 725
965 732
972 740
977 749
984 757
980 770
973 778
965 785
955 782
945 780
935 780
925 780
915 780
920 789
920 799
925 808
930 817
930 827
930 837
935 846
940 855
945 864
950 873
955 882
959 892
964 901
968 911
970 921
975 930
980 939
990 942
997 950
1002 959
1011 964
1019 971
1025 979
1017 994
1009 1000
999 1002
989 1005
980 1010
971 1015
961 1015
951 1015
941 1015
931 1015
921 1015
911 1013
901 1010
892 1005
882 1005
872 1005
863 1000
854 995
844 995
834 995
825 990
815 990
805 990
795 990
785 990
775 990
767 999
759 1005
750 1010
740 1010
730 1015
720 1015
710 1020
700 1020
705 1029
705 1039
705 1049
705 1059
705 1069
705 1079
705 1089
705 1099
705 1109
705 1119
705 1129
710 1138
705 1150
703 1168
695 1175
688 1183
678 1188
668 1190
658 1190
648 1190
638 1190
628 1190
618 1190
608 1190
598 1190
589 1185
579 1185
569 1185
560 1180
550 1180
542 1174
534 1167
534 1157
534 1147
534 1137
534 1127
534 1117
534 1107
534 1097
534 1087
534 1077
534 1067
534 1057
534 1047
534 1037
534 1027
539 1010
537 1000
527 1000
517 1000
507 1000
498 995
488 995
478 995
468 995
459 990
449 990
439 990
430 985
420 982
410 978
403 970
394 965
384 965
375 960
365 960
355 960
346 965
336 965
326 965
316 965
306 965
296 965
286 965
276 965
266 965
256 964
249 956
