969 892
969 882
974 872
984 867
994 862
1004 857
1012 849
1021 844
1030 839
1040 836
1050 834
1060 834
1069 829
1079 829
1089 829
1098 824
1108 824
1118 824
1128 824
1138 824
1148 824
1158 824
1168 824
1178 824
1185 816
1189 802
1189 792
1197 784
1206 779
1215 774
1224 769
1234 769
1243 764
1253 764
1263 764
1273 764
1282 759
1292 759
1302 759
1312 759
1322 759
1330 765
1335 774
1335 784
1335 794
1340 803
1340 813
1340 823
1348 829
1357 834
1364 842
1365 852
1369 862
1379 866
1389 869
1399 869
1408 874
1415 882
1420 891
1423 901
1430 909
1438 915
1445 923
1450 932
1450 942
1448 953
1440 960
1430 965
1420 970
1420 980
1420 990
1415 1000
1408 1008
1398 1013
1388 1018
1378 1020
1368 1020
1358 1020
1348 1020
1338 1020
1329 1015
1319 1015
1309 1015
1299 1015
1289 1015
1279 1015
1270 1020
1260 1020
1250 1020
1240 1020
1231 1025
1221 1025
1211 1025
1202 1020
1193 1015
1183 1015
1173 1015
1163 1015
1153 1015
1143 1015
1133 1015
1123 1015
1113 1015
1104 1020
1095 1025
1085 1025
1075 1030
1065 1030
1055 1030
1045 1030
1035 1030
1025 1030
1015 1027
1007 1020
1004 1010
999 1001
999 991
999 981
1002 964
1011 959
1020 954
1030 954
1040 951
1050 949
1054 935
1054 925
1045 920
1035 920
1025 920
1015 920
1005 920
995 925
985 925
977 919
969 912
969 902
