1019 862
1014 872
1019 881
1019 891
1024 900
1033 905
1042 910
1052 910
1062 910
1072 910
1082 910
1092 910
1099 918
1099 928
1097 944
1088 949
1078 949
1068 949
1059 954
1049 954
1039 957
1029 962
1029 972
1034 981
1039 990
1044 999
1050 1007
1057 1015
1066 1020
1076 1020
1086 1020
1096 1023
1106 1025
1116 1025
1126 1025
1136 1025
1145 1020
1153 1013
1160 1005
1165 995
1174 990
1184 990
1194 990
1204 990
1214 990
1224 990
1234 990
1244 990
1254 990
1264 990
1274 990
1280 998
1288 1005
1295 1013
1305 1017
1315 1020
1325 1015
1335 1015
1345 1010
1355 1000
1364 995
1374 995
1384 995
1394 995
1404 995
1414 995
1424 995
1434 995
1443 1000
1447 1010
1457 1014
1464 1022
1474 1025
1483 1020
1492 1014
1497 1004
1502 994
1505 980
1505 970
1505 960
1510 951
1509 941
1501 934
1495 926
1495 916
1495 906
1490 897
1485 888
1480 879
1474 871
1466 864
1457 859
1448 854
1440 848
1435 839
1432 829
1423 824
1415 818
1408 810
1400 803
1400 793
1400 783
1400 773
1393 765
1385 759
1375 759
1365 759
1355 759
1345 759
1335 759
1325 759
1315 759
1305 759
1295 759
1285 761
1277 769
1267 774
1259 782
1254 792
1249 802
1244 817
1244 827
1236 834
1226 834
1216 834
1206 834
1196 834
1186 834
1176 834
1166 834
1156 834
1146 834
1136 834
1126 834
1116 834
1106 834
1096 834
1086 834
1076 834
1066 834
1056 834
1047 839
1039 847
1029 857
