1124 862
1124 881
1129 890
1132 900
1140 907
1149 912
1159 915
1169 915
1179 915
1189 915
1199 915
1203 929
1194 934
1184 937
1174 939
1164 942
1154 947
1149 957
1149 967
1149 977
1149 987
1149 997
1149 1007
1157 1014
1167 1015
1177 1015
1187 1015
1197 1019
1207 1020
1217 1020
1227 1020
1237 1020
1247 1019
1257 1015
1267 1015
1276 1010
1286 1010
1296 1010
1305 1005
1315 1005
1325 1005
1335 1005
1345 1005
1355 1005
1365 1005
1375 1005
1385 1005
1394 1010
1400 1018
1410 1020
1420 1020
1430 1020
1440 1020
1450 1020
1459 1015
1467 1009
1475 995
1485 995
1494 1000
1503 1005
1512 1000
1520 990
1529 985
1539 985
1549 985
1559 985
1569 985
1579 985
1579 995
1579 1005
1582 1015
1590 1022
1600 1025
1609 1020
1619 1017
1629 1015
1638 1010
1645 1000
1650 985
1650 975
1650 965
1650 955
1659 950
1667 944
1675 933
1675 923
1675 913
1668 905
1660 899
1650 899
1647 889
1642 880
1633 875
1625 868
1618 860
1608 859
1600 852
1600 842
1595 833
1588 825
1578 824
1568 820
1560 813
1555 804
1555 794
1550 785
1550 775
1550 765
1550 755
1550 745
1548 735
1540 729
1531 724
1521 724
1511 724
1501 724
1491 724
1481 724
1472 729
1462 729
1452 734
1442 734
1433 739
1423 739
1414 744
1404 747
1394 752
1389 762
1384 772
1383 789
1375 796
1367 804
1357 804
1347 804
1337 804
1327 804
1317 804
1307 804
1297 804
1287 804
1277 804
1267 809
1257 809
1247 814
1237 814
1228 819
1218 819
1208 819
1199 824
1190 829
1180 831
1170 834
1161 839
1152 844
1142 849
1132 854
