214 677
214 667
219 652
219 642
219 632
219 622
219 612
224 597
224 587
224 577
224 567
224 557
229 547
237 539
247 534
257 529
265 521
273 514
282 509
291 504
300 499
310 499
320 499
330 499
340 499
350 499
360 499
370 499
380 499
389 504
399 504
409 504
418 509
428 510
438 514
447 519
457 519
467 519
477 519
486 524
496 524
505 529
515 529
525 529
535 529
545 529
555 529
564 534
574 534
584 534
594 534
604 534
614 534
624 534
634 534
644 534
654 534
664 534
674 534
684 534
694 534
704 534
714 534
723 529
733 529
743 529
753 529
763 529
773 529
783 529
793 529
802 524
812 524
822 524
832 524
842 524
852 519
862 519
872 519
882 519
892 519
901 514
911 514
921 510
931 509
941 509
951 509
961 505
971 504
981 504
991 504
1001 504
1010 499
1020 499
1030 496
1040 494
1050 494
1060 494
1070 491
1080 489
1090 486
1100 484
1110 484
1120 484
1129 479
1139 479
1149 477
1159 474
1168 469
1178 469
1188 469
1197 464
1207 464
1217 464
1227 464
1236 459
1245 454
1255 451
1265 449
1274 444
1284 444
1294 442
1304 439
1314 439
1323 434
1332 429
1342 424
1350 416
1358 409
1365 401
1375 396
1385 394
1394 389
1403 384
1413 384
1422 379
1432 374
1442 374
1451 369
1461 365
1471 364
1481 360
1491 359
1501 359
1511 359
1520 364
1530 364
1540 364
1550 364
1559 369
1569 371
1579 374
1589 374
1599 376
1609 379
1619 381
1629 384
1637 390
1647 394
1656 399
1665 404
1673 410
1682 415
1692 419
1701 424
1711 424
1720 429
1730 429
1740 432
1750 434
1760 437
1770 439
1780 439
1790 442
1799 447
1809 451
1819 454
1829 454
1839 454
1849 454
1858 459
1868 459
1878 459
1888 459
1898 459
1908 459
1917 464
1927 464
1937 464
1947 464
1956 469
1966 469
1975 474
1985 474
1995 474
2005 474
2015 477
2025 479
2035 479
2044 484
2054 484
2064 486
2074 489
2084 489
2094 489
2104 491
2114 494
2124 494
2133 499
2143 499
2152 504
2162 504
2172 504
2181 509
2191 509
2201 509
2211 509
2220 514
2230 514
2240 514
2250 514
2260 514
2269 519
2278 524
2288 524
2298 524
2308 524
2318 524
2327 519
2337 519
2347 519
2357 519
2367 519
2377 519
2386 514
2396 514
2406 514
2415 519
2423 525
2425 535
2427 545
2432 554
2439 562
2444 571
2445 581
2445 591
2445 601
2445 611
2448 621
2450 631
2453 641
2455 651
2450 665
2448 683
2443 693
2438 703
2430 710
2423 718
2413 723
2403 725
2393 725
2383 725
2373 725
2363 725
2353 728
2343 730
2333 730
2323 730
2313 730
2303 730
2293 730
2283 730
2273 730
2263 730
2253 730
2243 730
2234 735
2224 735
2214 735
2204 735
2194 735
2184 735
2174 735
2164 737
2154 740
2144 740
2135 745
2125 745
2115 745
2105 750
2095 750
2086 755
2076 755
2066 755
2057 760
2047 760
2037 764
2027 765
2017 769
2007 770
1997 770
1988 775
1978 775
1969 780
1959 780
1949 780
1939 782
1929 785
1919 785
1909 785
1899 782
1890 777
1884 769
1879 760
1879 750
1879 740
1874 731
1874 721
1874 711
1874 701
1869 692
1865 682
1857 675
1848 670
1838 670
1829 675
1819 675
1809 675
1799 675
1789 675
1779 675
1769 677
1759 680
1749 682
1739 685
1729 685
1719 685
1710 690
1700 690
1690 695
1680 700
1672 709
1662 714
1653 720
1644 725
1635 730
1626 735
1616 735
1607 740
1598 745
1588 748
1578 753
1568 755
1559 760
1549 762
1539 765
1529 767
1519 770
1509 770
1499 770
1489 770
1479 770
1469 770
1459 770
1450 765
1440 765
1431 760
1421 760
1411 758
1401 755
1392 750
1383 745
1374 740
1366 734
1359 726
1351 720
1342 715
1332 715
1322 715
1313 710
1303 710
1293 710
1283 710
1274 705
1264 705
1254 705
1244 705
1235 700
1225 700
1215 700
1205 700
1195 700
1185 700
1175 700
1165 700
1155 700
1145 700
1135 700
1125 700
1115 700
1105 700
1095 700
1085 700
1075 700
1065 700
1055 700
1045 700
1035 700
1025 705
1015 705
1005 705
995 705
985 705
975 705
965 705
955 705
945 705
935 710
925 710
915 710
905 710
895 710
885 710
875 710
865 710
855 710
845 715
835 715
825 715
815 715
805 715
795 715
785 715
776 720
766 720
756 720
746 720
736 720
726 718
716 715
706 715
697 720
687 720
677 720
667 720
657 720
647 720
637 720
627 720
617 720
607 720
597 720
587 720
577 720
567 719
557 715
547 715
537 715
527 715
517 715
507 715
497 715
487 715
477 715
467 715
457 715
447 714
437 710
427 710
417 710
408 705
398 705
389 700
379 700
369 700
360 705
350 702
340 700
330 700
320 700
310 700
300 700
290 700
280 700
270 705
260 705
250 705
240 705
230 703
224 695
219 686
