69 467
69 457
74 447
74 437
74 427
74 417
74 407
74 397
74 387
74 377
74 367
74 357
74 347
74 337
82 329
90 321
100 319
110 319
120 319
130 322
140 324
149 319
159 319
169 319
178 324
188 324
198 324
208 324
218 324
228 324
238 324
247 329
257 329
267 329
277 329
287 329
297 329
307 329
317 329
327 329
336 324
345 319
355 319
365 319
375 316
385 314
395 314
405 314
415 314
425 314
434 319
444 319
454 319
464 319
474 319
484 319
494 321
500 329
510 329
520 329
530 329
540 329
549 334
559 334
569 334
579 334
589 334
599 334
609 334
619 336
629 339
639 339
649 339
659 341
669 344
679 344
689 344
699 344
709 344
719 344
729 344
739 344
749 344
759 344
769 344
779 346
789 349
799 349
809 349
819 349
829 349
839 349
849 349
859 349
869 349
879 349
889 349
899 349
909 349
919 349
929 349
939 349
949 349
959 349
968 344
978 344
988 345
998 349
1008 349
1018 349
1027 344
1037 344
1046 339
1056 339
1066 339
1076 339
1086 339
1095 334
1104 329
1114 329
1124 327
1134 324
1144 324
1153 319
1163 319
1172 324
1182 324
1192 324
1201 319
1211 319
1221 319
1230 314
1239 307
1244 297
1252 289
1260 281
1268 274
1277 269
1287 269
1296 264
1306 264
1315 259
1325 259
1335 256
1345 254
1355 254
1365 254
1374 259
1384 261
1394 264
1404 266
1413 271
1423 274
1432 279
1441 284
1449 291
1455 299
1460 308
1468 315
1477 320
1487 324
1497 324
1506 329
1516 325
1526 324
1535 329
1545 329
1555 329
1564 334
1574 334
1584 334
1593 339
1603 339
1613 340
1623 344
1632 339
1642 339
1652 339
1662 339
1671 344
1681 344
1691 344
1701 344
1711 344
1721 344
1730 349
1740 349
1750 349
1760 349
1770 346
1780 344
1790 344
1800 344
1810 344
1820 344
1829 349
1839 347
1849 344
1859 344
1869 344
1879 344
1889 344
1899 344
1909 344
1918 339
1928 339
1938 339
1948 339
1958 339
1968 339
1978 340
1988 344
1998 344
2008 344
2017 339
2027 339
2036 334
2046 334
2056 334
2066 334
2076 334
2085 329
2095 329
2105 329
2115 329
2124 324
2134 324
2144 324
2154 324
2163 329
2173 329
2182 334
2190 340
2195 349
2195 359
2195 369
2195 379
2200 388
2200 398
2200 408
2200 418
2200 428
2200 438
2200 448
2200 458
2200 468
2198 483
2193 493
2183 498
2173 500
2163 500
2153 503
2143 505
2133 505
2123 505
2113 505
2103 505
2093 505
2083 505
2073 505
2063 505
2054 510
2044 510
2034 510
2025 505
2015 505
2005 505
1995 505
1985 505
1976 510
1966 510
1956 510
1946 510
1936 510
1926 510
1916 510
1906 510
1897 515
1887 515
1877 515
1867 515
1857 515
1847 515
1837 515
1827 519
1817 520
1807 520
1797 520
1787 520
1777 520
1767 520
1757 520
1747 520
1737 520
1727 524
1717 525
1707 525
1697 525
1687 525
1678 520
1669 525
1659 525
1649 525
1639 527
1629 532
1619 535
1609 535
1599 537
1589 542
1579 545
1569 545
1559 547
1549 550
1539 550
1529 550
1520 555
1510 555
1501 560
1491 560
1481 560
1471 560
1462 565
1457 574
1449 582
1439 587
1431 595
1422 600
1413 605
1403 608
1393 610
1384 615
1374 615
1365 620
1355 620
1346 625
1336 624
1327 619
1317 615
1307 615
1298 610
1289 605
1279 602
1270 597
1260 593
1253 585
1245 578
1238 570
1229 565
1219 565
1209 565
1199 565
1189 565
1179 565
1170 560
1160 560
1150 557
1140 555
1130 555
1120 555
1111 550
1102 545
1093 540
1084 535
1074 535
1064 535
1054 535
1044 535
1034 535
1025 530
1015 530
1005 530
995 530
985 527
975 525
966 530
956 530
946 530
936 530
926 530
916 528
906 525
896 525
886 525
876 525
866 525
856 525
847 520
837 520
827 520
817 520
807 520
797 520
787 520
777 520
767 520
757 520
747 520
737 520
727 520
717 520
707 519
697 515
687 515
677 515
667 515
657 515
647 514
637 510
627 510
617 510
607 510
597 510
588 505
578 505
568 505
558 505
549 500
539 500
529 500
519 500
509 500
499 500
490 505
480 505
470 510
460 510
450 510
440 510
430 510
420 510
410 510
400 510
390 510
380 510
370 507
360 505
350 505
340 505
331 500
321 498
311 495
301 495
292 500
282 500
272 500
262 500
252 499
242 495
232 495
222 495
212 495
202 495
192 495
182 494
172 490
162 490
152 490
142 490
132 490
122 490
113 485
103 485
93 485
84 480
74 476
