204 577
204 567
209 552
214 542
219 532
227 524
237 519
247 514
257 514
267 514
277 514
287 514
296 519
306 519
315 524
325 524
335 527
345 529
355 529
364 534
374 534
383 539
393 539
403 540
413 544
423 544
432 549
442 549
452 549
461 554
471 554
481 554
490 559
500 559
510 559
520 559
529 564
539 564
549 564
559 564
568 569
578 569
587 574
597 574
607 574
617 574
627 574
636 579
646 579
656 579
666 579
676 579
686 579
696 579
706 579
716 579
726 579
736 579
746 579
756 579
766 579
775 574
785 574
795 574
805 574
815 574
825 574
834 579
844 579
854 579
864 579
874 579
884 579
894 579
904 579
914 579
924 579
934 579
944 579
954 579
964 579
974 579
984 579
994 577
1004 574
1014 574
1024 574
1034 574
1044 574
1054 574
1064 574
1074 574
1084 572
1094 569
1104 569
1114 569
1124 569
1134 569
1144 569
1153 564
1163 564
1173 564
1183 564
1193 564
1203 564
1212 559
1222 559
1232 559
1242 559
1252 559
1261 554
1271 554
1281 554
1291 550
1301 545
1311 540
1321 535
1331 530
1339 522
1347 514
1355 506
1365 504
1375 504
1385 504
1394 497
1402 489
1411 484
1420 479
1429 472
1439 469
1448 464
1458 464
1467 459
1476 454
1486 450
1496 445
1506 440
1516 435
1526 434
1536 434
1544 441
1550 449
1560 449
1569 454
1579 454
1589 456
1599 459
1608 464
1617 469
1626 474
1635 479
1645 479
1655 482
1665 484
1675 484
1685 484
1695 487
1704 492
1712 499
1715 509
1723 515
1728 524
1737 529
1747 529
1757 529
1767 529
1777 529
1787 529
1797 529
1807 529
1817 529
1827 529
1837 529
1847 529
1857 529
1867 529
1877 529
1887 529
1897 529
1907 524
1917 524
1927 524
1937 524
1947 524
1957 524
1967 524
1977 524
1987 524
1997 524
2007 524
2017 524
2027 524
2036 519
2046 519
2056 519
2066 519
2076 519
2086 519
2096 519
2106 519
2116 519
2126 519
2136 519
2146 515
2156 514
2166 510
2176 509
2185 504
2195 501
2205 499
2215 499
2224 494
2234 494
2244 494
2254 492
2264 489
2274 487
2284 484
2293 479
2303 479
2312 474
2322 474
2332 469
2342 469
2352 469
2362 469
2372 469
2382 469
2392 469
2402 469
2412 469
2422 469
2432 469
2441 474
2451 474
2461 474
2471 470
2481 469
2491 469
2501 469
2511 469
2520 474
2529 479
2539 481
2548 486
2555 494
2563 500
2570 508
2575 517
2579 527
2584 536
2588 546
2593 555
2595 565
2600 574
2600 584
2595 600
2590 615
2585 630
2580 640
2575 650
2567 664
2557 669
2549 677
2541 685
2531 685
2522 690
2512 690
2502 690
2492 690
2482 690
2472 690
2462 690
2452 690
2442 690
2432 690
2422 690
2413 685
2404 690
2394 690
2384 692
2374 695
2364 695
2354 695
2344 695
2335 700
2325 700
2315 700
2305 700
2296 705
2286 705
2276 705
2266 705
2256 705
2246 705
2236 705
2226 705
2216 705
2206 705
2196 705
2186 703
2176 700
2166 700
2156 700
2146 700
2136 700
2126 700
2116 700
2106 700
2096 700
2086 700
2077 705
2067 705
2057 705
2047 705
2037 705
2027 705
2017 709
2007 710
1997 710
1987 710
1977 710
1967 710
1957 714
1947 715
1937 715
1927 715
1917 715
1907 715
1897 715
1888 720
1878 720
1868 720
1858 720
1848 720
1838 720
1828 723
1818 725
1808 725
1798 725
1788 725
1778 725
1768 725
1758 725
1748 728
1738 733
1730 740
1725 750
1717 764
1709 770
1700 775
1690 775
1680 780
1670 780
1660 780
1650 785
1642 794
1632 799
1624 805
1615 810
1606 815
1596 815
1587 820
1577 824
1567 825
1557 825
1547 825
1537 825
1527 825
1517 825
1507 825
1497 824
1487 820
1477 820
1468 815
1459 810
1449 807
1440 802
1430 798
1421 793
1411 790
1401 790
1391 790
1381 788
1371 785
1362 780
1355 772
1347 765
1343 755
1334 750
1325 745
1315 745
1305 745
1295 745
1285 745
1275 745
1265 745
1255 745
1245 745
1235 745
1225 745
1215 745
1205 745
1195 745
1185 745
1175 745
1165 745
1155 745
1145 745
1135 745
1126 750
1116 750
1106 750
1096 750
1086 750
1076 750
1066 750
1056 750
1046 750
1036 750
1026 750
1016 750
1006 750
996 750
986 750
976 750
966 750
957 745
947 745
937 745
927 745
917 745
907 745
897 745
887 745
877 745
867 745
857 745
847 745
837 745
827 745
817 745
807 745
797 745
787 745
777 745
767 745
757 745
747 745
737 745
727 745
717 745
707 745
697 745
687 745
677 745
668 740
658 740
648 740
638 740
628 740
618 740
608 740
599 735
589 735
579 735
569 735
559 735
550 730
540 730
530 730
520 727
510 725
500 725
490 725
481 720
471 720
461 720
451 718
441 715
431 715
422 710
412 710
402 709
392 705
382 705
372 704
362 700
352 699
342 695
332 694
322 690
312 690
303 685
293 685
283 685
274 680
265 675
256 670
247 665
240 657
232 650
225 642
219 634
214 625
209 616
209 606
204 597
204 587
