364 537
364 527
374 522
382 514
392 514
402 514
412 514
422 514
431 509
441 509
451 505
461 504
471 504
481 504
491 504
501 504
511 504
521 504
531 500
541 495
551 494
561 494
571 494
581 494
591 494
601 494
611 494
620 489
629 484
639 484
649 484
659 484
669 484
679 484
689 484
699 484
709 482
719 479
729 479
739 479
749 479
759 479
769 479
779 479
789 479
799 479
808 474
818 474
828 474
838 474
848 474
857 469
867 469
876 474
886 474
896 470
906 469
916 469
926 469
936 469
945 474
954 479
963 484
973 484
980 476
988 469
997 464
1005 456
1013 449
1017 439
1026 434
1034 427
1044 422
1052 414
1062 409
1071 404
1079 397
1089 394
1099 392
1109 387
1119 384
1129 382
1139 379
1149 377
1159 372
1167 364
1176 359
1186 359
1196 359
1205 364
1213 370
1223 374
1233 374
1243 375
1253 379
1263 379
1272 384
1282 384
1291 389
1301 389
1310 394
1319 399
1329 401
1335 409
1344 414
1353 419
1362 424
1369 432
1377 439
1386 444
1395 449
1404 454
1414 454
1424 454
1434 454
1444 454
1454 454
1464 454
1474 454
1484 454
1494 456
1504 459
1514 457
1524 454
1534 452
1544 449
1554 451
1564 454
1574 454
1584 454
1594 454
1603 449
1613 449
1623 449
1633 449
1643 449
1653 449
1663 450
1673 454
1683 454
1692 449
1702 449
1712 449
1722 449
1732 449
1742 449
1752 449
1761 454
1771 454
1780 449
1790 449
1800 449
1810 452
1820 454
1830 454
1840 454
1850 454
1860 454
1870 454
1880 454
1890 454
1900 454
1910 454
1920 454
1930 454
1940 454
1950 454
1960 454
1970 454
1980 454
1990 454
2000 454
2009 459
2019 459
2028 454
2038 454
2048 454
2058 454
2068 454
2078 454
2087 459
2097 459
2107 459
2117 459
2126 454
2136 454
2145 459
2155 462
2164 467
2170 475
2165 485
2165 495
2165 505
2165 515
2165 525
2165 535
2165 545
2165 555
2165 565
2165 575
2165 585
2165 595
2165 605
2165 615
2165 625
2165 635
2165 645
2165 655
2159 670
2150 675
2143 683
2133 685
2123 685
2114 680
2104 680
2094 680
2084 682
2074 685
2064 685
2054 685
2044 685
2034 685
2025 680
2015 680
2005 680
1995 680
1985 680
1975 680
1965 680
1955 680
1945 677
1935 675
1925 675
1915 675
1905 675
1895 675
1885 680
1875 680
1866 675
1856 675
1847 670
1837 670
1828 675
1818 675
1808 675
1798 675
1788 675
1778 675
1768 675
1759 670
1749 672
1739 675
1729 675
1719 675
1709 675
1699 675
1689 675
1680 670
1670 670
1661 675
1651 675
1641 675
1631 675
1621 675
1611 675
1601 675
1591 675
1581 675
1571 675
1561 675
1551 675
1541 675
1531 675
1522 670
1512 670
1502 670
1493 675
1483 675
1473 675
1463 675
1453 675
1443 675
1433 675
1424 680
1415 685
1405 685
1397 694
1392 704
1384 710
1378 718
1370 725
1362 734
1354 740
1344 742
1336 750
1327 755
1317 759
1307 764
1299 770
1289 770
1280 775
1270 775
1261 780
1251 780
1242 785
1232 785
1222 785
1212 785
1203 790
1193 790
1184 785
1174 785
1164 785
1154 785
1144 785
1135 780
1125 780
1116 775
1106 773
1096 770
1087 765
1078 760
1069 755
1059 752
1050 747
1042 740
1035 732
1025 730
1017 724
1009 717
1002 709
992 705
983 700
973 700
963 703
953 705
944 710
934 710
924 710
914 710
904 710
894 710
885 715
875 715
865 715
855 715
845 715
835 715
825 715
815 715
805 715
795 720
785 720
775 717
765 715
755 715
745 715
735 715
725 715
715 715
705 715
695 715
685 715
675 715
665 715
655 720
645 720
635 720
625 720
615 720
605 720
595 720
585 720
575 720
566 725
556 725
546 725
536 725
527 730
517 730
507 730
497 734
487 735
477 735
467 735
457 735
447 735
437 735
427 735
417 735
407 735
397 735
390 727
385 718
384 708
384 698
379 689
379 679
379 669
379 659
374 650
374 640
374 630
374 620
374 610
374 600
364 597
364 587
364 577
364 567
364 557
364 547
