28 248
40 270
50 293
53 246
58 432
66 313
75 413
78 246
80 445
83 332
92 394
94 355
103 246
105 447
128 246
130 447
153 246
155 447
178 246
180 447
189 370
197 344
201 392
203 246
205 445
215 326
215 413
216 370
224 208
226 166
226 236
228 138
230 112
230 393
230 439
234 72
238 44
246 373
259 350
263 44
273 328
288 42
292 311
311 294
313 48
321 270
323 71
323 96
325 121
325 146
327 171
327 196
327 221
