591.78 950.38
519.28 954.30
515.36 858.28
517.32 805.37
509.48 758.34
450.70 726.99
380.15 705.44
321.37 658.41
231.34 602.15
196.18 513.70
191.65 400.30
240.41 367.42
251.75 392.36
292.57 417.31
339.07 415.04
362.88 379.89
375.35 325.46
388.96 274.43
396.90 224.53
408.24 165.56
415.04 127.01
450.20 131.54
441.12 100.93
432.05 69.17
455.87 167.83
460.40 202.99
468.34 237.01
480.81 276.70
495.56 339.07
505.76 388.96
532.98 409.37
568.13 426.38
601.02 405.97
630.50 393.50
635.04 358.34
637.31 329.99
642.98 274.43
647.51 233.60
688.34 217.73
689.47 254.02
698.54 281.23
700.81 320.92
708.75 352.67
721.22 384.43
774.52 401.43
822.15 395.76
866.37 370.82
883.38 341.33
893.59 299.38
901.53 407.10
882.25 485.35
844.83 582.87
806.27 644.11
683.80 705.35
641.84 726.89
599.88 786.99
590.81 841.43
595.70 1107.14
595.70 1144.38
521.24 1142.42
520.50 571.53
479.68 570.40
463.80 545.45
487.62 531.84
518.24 523.91
551.12 522.77
579.47 523.91
611.22 532.98
632.77 545.45
606.69 561.33
565.86 570.40
438.86 565.86
224.53 337.93
210.92 299.38
650.91 185.98
682.67 171.23
654.32 144.02
674.73 122.47
654.32 110.00
661.12 82.78
665.66 49.90