174 128
176 264
176 289
176 330
178 355
180 234
182 152
184 177
184 202
194 112
200 323
218 104
225 323
240 343
243 97
261 328
268 92
286 327
293 87
311 333
315 74
335 59
335 325
360 60
360 327
381 74
384 336
402 88
408 343
427 92
433 345
452 98
458 341
476 105
482 333
500 114
500 351
505 174
505 199
508 149
513 326
525 214
538 332
550 216
563 329
575 220
588 327
599 228
600 349
611 284
611 309
619 260
