120 128
120 258
120 283
120 308
122 333
124 153
124 224
124 358
126 178
140 112
144 321
164 104
169 321
188 96
194 321
213 91
219 321
235 78
244 321
256 64
269 321
280 56
294 321
298 74
319 88
319 321
340 335
342 360
344 94
364 327
369 100
389 329
393 108
406 348
410 171
415 120
417 146
419 326
428 189
444 327
445 208
467 337
470 202
491 345
493 191
516 345
518 192
540 337
541 202
564 327
565 211
589 325
590 215
613 332
615 218
638 327
640 223
656 350
663 233
665 284
665 309
673 260
