104 246
104 340
108 271
112 296
119 226
126 328
142 216
151 327
164 202
170 344
189 200
193 334
209 216
218 333
232 226
232 360
243 336
255 236
263 321
280 236
288 321
305 234
313 321
330 234
338 321
355 234
363 321
380 234
388 321
405 234
413 321
430 232
438 321
448 212
463 321
467 195
488 321
490 184
513 321
515 180
538 321
540 178
560 128
560 360
563 321
564 170
576 108
588 321
598 94
612 66
613 321
635 76
638 321
653 94
663 321
674 108
676 343
689 148
689 173
689 198
689 223
691 248
691 273
691 304
