108 248
112 338
116 363
118 271
120 296
128 232
135 327
152 224
160 329
177 218
185 328
202 216
210 327
227 213
234 334
249 200
258 343
272 190
283 344
295 200
307 336
317 212
331 327
342 216
356 327
366 208
381 330
386 192
402 130
404 340
409 182
412 153
418 361
420 112
427 322
444 104
452 321
468 96
477 321
493 91
502 321
515 77
527 321
535 61
552 321
559 68
577 321
581 80
602 94
602 321
627 98
627 321
651 106
652 321
674 116
676 330
678 355
681 158
681 183
681 208
685 233
687 258
689 283
689 308
