74 86
90 64
104 42
114 73
129 38
130 93
145 113
149 53
168 34
169 106
174 266
175 80
191 23
196 94
198 275
200 119
206 144
208 240
212 169
213 215
216 20
223 275
231 250
237 200
239 114
239 139
239 164
241 26
263 38
263 123
281 56
287 130
299 74
312 131
313 95
