100 88
112 66
123 43
137 70
145 94
148 39
160 114
172 266
173 35
181 84
190 108
195 22
196 133
196 275
200 158
200 240
204 208
206 183
217 261
220 20
222 226
235 174
235 199
237 118
237 143
242 32
259 131
261 49
275 70
284 129
289 91
