86 86
100 64
112 42
124 71
136 93
137 38
151 113
156 55
171 35
172 266
174 103
179 78
193 22
196 115
196 275
200 140
203 251
206 165
206 226
210 190
218 20
221 275
231 240
235 208
237 148
237 173
239 116
242 28
262 43
262 126
279 62
287 131
295 82
308 104
312 129
