62 122
72 98
87 126
88 78
106 60
112 127
125 43
137 120
147 29
161 110
164 135
164 160
164 185
166 210
170 235
171 20
174 260
189 126
193 100
194 275
196 20
210 81
217 264
221 26
230 96
241 42
247 115
251 65
266 42
270 105
273 77
291 38
298 74
313 50
320 87
