108 88
119 65
130 42
144 69
149 94
155 40
163 115
172 266
178 30
183 94
190 118
194 143
196 254
200 168
200 218
201 20
202 193
210 275
218 134
218 238
226 23
233 200
235 153
242 125
247 37
261 58
267 129
275 79
287 101
292 126
