72 66
72 134
80 90
97 66
97 137
120 76
120 127
143 117
144 84
155 139
161 65
178 149
181 49
203 142
206 50
228 143
231 48
253 145
254 38
272 162
277 27
286 183
301 20
309 172
319 38
324 151
337 56
349 145
361 63
372 135
385 72
396 127
408 82
415 110
