72 64
72 132
78 89
97 66
97 137
120 76
120 127
143 117
144 84
155 139
161 65
178 149
181 49
203 142
206 50
228 143
231 48
253 145
254 38
273 161
278 26
287 182
303 20
309 170
323 36
324 149
338 56
349 145
362 63
373 136
386 72
397 126
409 82
416 109
