82 66
82 134
88 91
107 66
107 137
130 77
130 125
154 117
155 79
161 141
172 60
185 149
193 46
209 141
217 54
234 143
240 44
259 145
263 34
266 169
286 22
289 179
309 32
313 170
321 54
325 148
346 60
350 143
370 68
374 133
393 78
396 121
414 103
