74 64
74 130
80 89
98 137
99 66
121 127
122 76
144 117
146 84
155 140
162 64
179 149
182 48
203 141
207 50
228 143
232 48
253 145
255 37
268 165
278 26
288 181
303 20
311 170
321 38
325 148
339 56
350 145
363 64
373 135
386 74
396 125
409 84
