102 64
102 132
108 89
127 68
127 135
148 121
149 80
168 136
172 68
190 50
190 149
214 141
215 50
239 143
240 42
254 163
262 30
274 178
286 23
299 181
307 37
315 158
323 57
335 143
347 66
359 134
371 74
381 118
392 88
