66 28
76 51
90 21
92 360
94 330
95 68
96 184
96 209
96 234
96 259
96 284
102 92
104 117
104 142
115 20
117 365
131 98
131 123
131 148
133 173
138 73
139 198
139 252
139 277
139 302
140 20
141 223
141 327
141 352
159 37
162 81
