54 26
60 51
79 24
90 360
91 46
94 196
94 221
94 246
94 271
94 296
94 321
96 71
102 96
102 168
104 20
104 121
115 365
129 20
131 108
131 133
131 158
135 82
138 182
140 365
141 207
141 232
141 257
141 282
143 50
143 307
143 332
153 27
163 65
183 81
