62 32
79 51
84 20
92 360
94 328
96 70
96 184
96 209
96 234
96 259
96 284
103 94
104 119
104 144
109 20
117 365
131 102
131 127
131 152
134 20
135 177
137 74
141 202
141 227
141 252
141 277
141 302
141 327
141 352
156 32
161 81
171 52
