52 32
69 51
76 24
90 362
94 48
94 214
94 239
94 264
94 289
94 314
96 73
96 184
101 20
104 97
106 122
106 147
115 365
126 20
131 124
131 149
133 92
135 174
140 365
141 62
143 198
143 223
143 248
143 273
143 298
143 323
151 24
166 62
183 81
