68 76
76 50
90 28
93 81
98 356
100 200
100 225
100 250
100 275
100 300
100 325
106 172
108 101
110 126
114 20
122 365
135 110
135 135
135 160
139 20
139 82
143 184
145 54
145 209
145 234
145 259
145 284
145 309
145 334
147 359
164 21
