40 72
56 52
59 89
66 24
84 83
91 26
108 90
115 33
120 112
130 135
135 48
140 252
146 155
150 180
151 229
155 64
164 259
173 210
177 172
178 74
200 161
203 80
225 161
228 82
250 157
253 80
273 167
278 78
288 187
288 252
298 210
303 84
312 259
315 156
317 181
321 220
323 118
328 80
340 191
348 95
357 168
358 118
360 143
