38 130
40 155
46 106
47 179
60 84
68 193
69 162
73 122
80 215
80 240
85 82
97 259
102 201
110 80
116 179
132 159
135 80
157 159
160 82
182 161
185 82
207 160
210 78
226 177
228 202
230 227
234 68
234 252
249 187
251 160
256 56
258 259
267 138
275 39
279 114
291 92
298 28
315 83
323 23
338 43
340 87
353 63
