58 128
58 153
63 178
66 104
80 82
82 195
82 234
86 259
101 212
105 86
107 239
122 259
125 204
129 78
137 182
151 160
154 80
176 161
179 82
201 161
204 78
212 184
214 209
216 234
222 259
227 68
247 259
248 54
249 206
251 231
253 162
265 138
267 37
273 112
283 88
290 26
308 83
315 21
323 45
333 89
