44 136
46 161
50 110
56 184
62 88
75 162
78 196
78 234
79 134
85 258
86 80
110 259
111 80
111 204
111 229
125 180
136 78
141 158
161 82
166 159
186 82
191 161
211 78
216 159
220 184
224 209
226 234
232 259
234 68
251 202
253 227
255 160
256 54
257 259
270 139
276 38
279 114
290 91
299 28
314 83
323 20
335 42
339 89
349 63
