90 98
90 123
97 73
104 144
108 224
108 249
108 274
110 169
110 194
110 299
112 52
112 324
116 349
126 30
133 368
149 20
158 369
174 21
183 367
191 40
208 365
209 58
222 80
228 159
233 371
246 87
248 174
250 147
258 369
263 118
263 236
263 264
272 182
277 212
283 371
285 276
303 356
307 288
309 313
