72 312
74 337
77 287
82 361
100 190
100 215
100 276
106 369
115 235
121 176
125 278
131 370
138 245
146 172
148 268
155 363
156 100
158 125
170 160
178 86
180 363
194 38
194 63
204 371
214 22
229 371
239 24
254 371
263 31
279 369
286 20
301 352
307 156
307 298
307 323
309 30
309 248
309 273
312 59
318 133
319 224
320 178
322 82
325 107
