70 250
80 273
95 248
102 190
102 220
109 269
116 22
116 47
116 72
116 97
116 122
116 147
123 248
127 186
127 218
135 270
141 20
141 153
148 248
151 195
162 269
166 20
187 269
191 20
207 154
207 179
207 204
207 229
212 269
216 20
226 248
230 218
231 186
232 153
240 269
241 20
254 227
255 195
257 153
265 269
266 20
275 44
275 69
275 94
275 119
278 218
279 186
279 248
293 269
302 227
303 195
316 248
