58 252
70 190
70 220
72 273
83 248
95 186
95 218
97 269
108 24
108 49
108 74
108 99
108 124
108 149
111 248
119 195
122 273
125 227
133 20
133 153
139 248
143 186
149 218
153 269
158 20
158 153
167 195
167 248
177 218
181 269
183 20
183 153
188 178
206 269
208 20
231 269
233 20
243 154
243 179
243 204
243 229
256 269
258 20
266 218
267 186
268 153
270 248
281 273
283 20
290 227
291 195
293 153
297 41
297 66
297 91
297 116
304 248
318 269
332 248
