116 250
120 188
120 218
126 273
141 248
144 195
154 218
155 269
166 28
166 53
166 78
166 103
166 128
168 186
169 248
170 153
179 218
183 269
190 20
192 195
195 153
197 248
204 217
208 271
215 20
233 269
239 27
239 80
239 105
239 130
239 155
239 180
239 205
239 230
245 52
257 248
271 269
