78 250
86 188
86 220
90 272
103 248
110 195
117 227
117 269
130 24
130 49
130 74
130 99
130 124
130 149
131 248
134 186
141 218
145 269
155 20
155 153
158 195
159 248
168 218
173 269
180 20
180 153
182 186
187 248
193 217
201 269
205 20
226 269
230 20
243 154
243 179
243 204
243 229
251 272
255 20
260 248
266 218
267 186
268 153
275 35
275 60
275 85
275 110
276 269
290 248
304 269
318 248
