48 250
58 273
64 188
64 218
73 248
86 22
86 47
86 72
86 97
86 122
86 147
87 269
88 195
88 227
102 248
111 20
111 153
112 186
112 218
116 269
130 248
136 20
136 153
136 195
144 227
144 269
158 248
160 186
161 20
161 153
168 218
172 269
186 20
197 269
211 20
222 269
236 20
237 154
237 179
237 204
237 229
242 254
260 218
261 20
261 186
262 153
262 269
276 248
285 195
286 20
287 153
290 227
290 269
304 248
309 186
311 20
312 153
314 218
316 270
319 54
319 79
319 104
319 129
329 248
341 273
