50 246
70 261
77 285
90 246
90 307
94 432
105 327
111 413
115 246
115 446
116 116
117 349
118 141
119 91
120 166
124 66
124 373
127 190
136 214
138 44
140 448
160 30
165 449
183 40
190 447
208 40
213 408
215 445
225 386
233 40
236 363
245 336
257 32
259 314
278 46
281 300
293 66
296 279
297 91
299 116
301 141
301 166
303 191
303 246
305 216
