26 214
26 239
28 180
30 144
31 264
32 114
34 88
38 60
40 288
59 45
59 305
80 319
83 37
96 339
106 362
108 40
119 384
124 430
133 40
136 403
144 445
156 30
169 447
172 243
176 45
179 218
185 69
187 192
191 94
193 119
193 144
194 447
197 246
219 447
222 246
244 447
247 246
249 378
255 352
259 401
267 330
269 444
272 246
283 310
297 246
297 288
322 246
