26 206
26 231
28 174
28 256
30 136
32 108
35 83
36 280
40 54
53 299
63 44
74 313
87 35
91 332
102 355
112 40
114 377
124 430
130 397
137 40
144 445
161 32
169 447
171 238
179 50
181 214
187 74
189 184
193 99
193 150
194 447
195 124
195 246
219 447
220 246
244 447
245 246
250 381
255 352
260 404
267 330
269 444
270 246
283 310
295 246
297 288
319 253
