38 230
40 194
40 255
42 164
44 130
47 105
48 279
50 68
64 299
65 47
85 313
88 36
102 332
110 356
113 40
122 378
126 432
136 399
138 40
148 445
163 40
173 447
188 34
198 449
201 218
201 243
207 51
212 195
217 74
219 166
221 99
223 124
223 447
226 246
239 380
246 355
248 404
248 445
251 246
257 330
265 423
273 308
276 246
287 284
298 258
