329.88 23.19
322.15 41.23
289.93 123.70
261.58 208.75
244.83 300.24
247.41 336.32
259.01 358.23
278.34 376.27
313.13 394.31
462.60 404.62
636.56 408.48
676.51 417.50
746.09 449.72
780.89 533.48
729.34 619.81
654.60 659.76
563.11 644.30
512.86 576.00
508.99 514.15
518.01 475.49
586.31 335.03
637.85 266.74
688.11 210.04
722.90 173.96
740.94 154.63
760.27 137.88
770.58 128.86
811.81 94.07
762.85 124.99
747.38 132.72
733.21 137.88
716.46 146.90
688.11 155.92
648.16 167.52
595.33 180.40
483.22 194.58
359.52 206.17
164.94 215.19
78.60 219.06
61.85 219.06
393.02 404.62