14 77
26 55
26 99
46 40
47 85
64 177
64 202
64 227
66 25
69 152
69 252
72 84
79 108
79 275
90 17
94 295
111 314
115 19
129 332
138 30
149 347
153 50
159 412
160 74
160 100
170 123
171 360
181 400
182 145
195 367
196 420
200 163
206 395
221 420
222 175
230 380
244 187
253 370
268 195
278 375
292 204
301 365
314 216
325 350
336 229
348 338
361 234
373 333
384 244
398 330
409 249
423 335
434 251
446 345
459 254
469 355
484 254
494 355
509 254
519 360
530 270
540 293
540 330
