24 127
46 115
46 140
69 102
71 140
89 87
89 158
89 183
90 208
99 232
111 74
111 254
131 269
136 74
140 293
154 314
158 86
164 337
174 360
179 522
180 98
185 383
192 120
203 514
205 398
212 135
223 530
224 415
229 154
243 514
244 430
252 164
261 495
263 530
267 440
272 179
274 464
283 514
294 191
299 457
303 530
314 206
314 437
326 415
328 525
334 221
350 405
352 239
367 259
375 402
390 269
399 410
405 289
419 425
425 304
444 430
448 315
463 335
469 435
480 354
486 454
503 365
504 472
515 430
520 395
526 485
530 450
537 414
542 505
543 385
550 477
553 440
562 409
562 520
569 494
574 454
