24 117
46 104
65 86
66 120
77 64
84 162
84 187
89 130
89 212
97 49
99 235
110 258
122 49
129 275
146 294
147 54
166 309
172 59
186 324
190 77
204 562
205 97
206 339
220 117
228 554
230 347
244 124
249 537
252 360
259 512
264 382
268 131
269 482
274 532
276 404
277 355
279 429
279 454
293 134
299 557
302 355
318 139
321 545
327 355
341 149
345 552
349 367
354 392
354 417
354 487
354 512
359 442
366 154
370 350
370 532
375 462
378 410
388 166
393 340
412 174
413 325
432 189
433 308
455 199
455 295
478 209
478 285
501 275
503 214
525 265
528 209
548 255
553 204
573 250
576 214
598 226
