99 72
123 64
143 80
154 57
168 80
176 45
193 85
196 29
217 94
221 24
229 212
229 237
234 262
234 287
241 103
241 190
244 310
246 24
249 127
249 152
255 333
264 357
265 41
270 210
274 380
275 64
275 235
280 89
280 180
282 259
284 403
285 114
285 139
294 281
297 425
312 299
317 440
337 299
340 450
361 290
363 460
386 284
388 465
389 802
411 279
411 475
411 789
414 822
434 485
434 779
436 279
439 825
454 752
457 495
461 284
463 818
464 717
465 775
469 517
474 687
478 743
479 540
479 565
479 637
479 662
479 796
484 590
486 289
488 708
495 505
504 632
505 604
511 294
518 495
534 304
534 802
536 513
554 531
555 490
557 314
558 794
564 554
572 815
578 575
580 324
580 485
583 789
590 597
594 622
594 647
595 766
597 810
599 672
599 697
599 722
603 334
605 485
615 742
617 779
622 805
625 347
630 487
647 359
654 495
665 377
679 495
683 395
699 510
700 414
715 434
721 523
730 454
745 474
745 532
755 497
