79 502
84 527
94 482
102 545
114 467
124 587
127 550
138 474
146 599
161 484
170 607
186 479
194 600
206 464
210 510
213 583
215 535
229 452
230 495
249 437
253 483
269 352
269 377
269 402
271 465
274 232
274 257
274 282
274 307
279 167
279 192
291 450
297 149
311 435
315 275
315 300
315 325
315 350
315 375
315 400
320 195
320 220
320 245
322 144
345 190
347 139
369 182
372 134
374 67
379 92
389 42
389 115
393 173
409 27
418 168
434 24
442 160
459 24
467 165
475 44
485 67
492 169
510 69
517 175
533 80
535 155
545 102
553 126
