79 497
79 522
94 542
97 479
117 464
118 550
124 577
140 474
142 595
163 484
166 603
183 469
191 600
195 446
209 422
210 510
211 585
215 535
220 560
224 402
225 490
238 468
239 377
253 448
254 352
265 425
269 332
280 405
284 307
293 383
299 282
308 363
314 262
323 343
326 240
338 323
339 217
350 300
354 197
365 280
369 172
374 67
378 258
379 92
384 147
389 47
393 238
394 112
405 215
407 29
424 197
432 24
436 175
454 157
457 24
475 42
478 148
485 65
503 145
510 69
528 140
533 80
545 102
550 127
