24 72
34 95
49 71
49 115
66 134
73 80
84 152
94 94
99 172
117 104
117 190
135 208
139 116
154 225
161 129
171 244
181 144
191 259
201 159
211 275
220 176
229 293
229 318
239 341
240 192
260 207
264 345
285 209
289 340
306 359
309 216
329 370
334 221
340 275
340 393
342 300
350 250
352 415
357 320
375 338
377 419
390 358
401 428
405 378
409 452
414 477
423 396
424 500
445 408
449 497
450 470
465 450
470 414
490 452
493 424
515 457
525 434
540 460
