79 497
79 522
94 542
97 479
117 464
118 550
124 577
135 446
142 595
154 427
164 607
172 409
189 602
190 391
209 587
210 376
229 357
229 572
240 545
247 339
255 515
265 321
265 490
275 465
284 302
285 435
294 267
295 410
304 242
305 385
314 217
315 360
324 177
330 335
334 152
344 127
349 317
354 102
369 77
369 302
384 52
387 284
399 32
407 269
423 24
427 254
445 235
448 24
465 220
471 34
480 58
484 202
503 69
506 190
524 172
528 75
539 152
540 97
550 120
