79 502
84 527
94 482
102 545
114 467
124 587
127 550
138 474
146 599
161 484
170 607
182 469
194 447
194 597
209 427
216 585
221 405
225 510
225 535
225 560
234 382
240 485
249 362
255 465
264 337
270 440
279 312
285 415
294 292
300 390
309 267
315 370
324 247
330 345
339 222
343 323
354 197
355 300
369 172
374 67
374 282
379 92
384 147
386 260
389 47
394 112
398 238
407 29
410 215
425 190
432 24
440 170
457 24
465 165
475 42
485 65
490 167
510 69
514 175
533 80
535 155
545 102
553 126
