284 702
284 727
289 672
296 749
299 582
299 607
299 632
304 547
309 472
309 497
309 522
314 442
319 407
319 760
329 377
339 352
344 765
354 327
366 305
369 765
379 262
391 240
394 212
394 765
399 177
404 142
414 72
414 97
419 42
419 760
437 24
444 760
462 24
465 165
465 190
465 215
465 240
465 265
465 290
465 740
470 135
470 315
470 685
470 710
475 340
475 655
480 105
480 365
480 390
480 415
480 440
480 465
480 490
480 515
480 540
480 565
480 590
480 615
487 29
490 70
