269 47
274 72
274 97
279 122
279 147
279 172
279 197
279 222
279 247
279 342
279 367
279 392
279 417
279 442
284 272
284 297
284 467
284 492
289 32
289 517
294 542
304 565
304 590
309 615
313 24
314 640
324 663
325 688
329 713
335 36
335 738
345 59
347 760
350 84
360 107
365 132
372 765
375 155
382 179
390 203
397 765
402 225
417 245
422 765
432 265
440 289
445 314
447 760
458 336
465 360
470 385
472 754
475 410
482 434
485 459
490 484
494 742
495 509
500 534
500 559
505 584
505 609
509 722
510 634
510 659
515 684
