24 387
24 412
24 437
42 455
44 372
62 354
65 445
79 297
79 322
90 445
97 279
113 455
122 274
131 473
147 274
153 485
172 279
176 495
190 297
201 495
212 309
226 490
237 309
251 490
262 304
276 485
287 299
301 480
312 294
326 475
337 289
351 475
362 289
376 478
387 289
398 490
407 304
422 499
429 316
442 514
453 324
467 520
478 319
490 510
495 460
497 485
503 319
508 438
523 418
528 315
540 337
541 400
545 362
