24 387
24 412
24 437
29 462
42 369
54 460
62 354
74 252
74 277
79 332
79 455
84 300
99 249
104 450
124 249
129 455
149 249
152 465
168 266
174 477
186 284
198 485
211 284
223 488
236 284
248 485
261 279
273 480
286 279
298 475
311 279
323 468
336 279
347 460
361 274
370 470
386 274
393 480
408 286
416 490
428 301
439 500
443 321
464 500
467 329
489 497
492 324
510 430
510 455
510 480
516 315
525 410
540 322
544 392
545 347
