54 127
54 152
69 107
74 222
74 252
76 165
79 72
79 197
79 277
79 302
84 327
91 50
94 350
104 612
109 370
111 35
116 590
124 390
128 620
134 24
134 413
134 567
149 547
150 605
155 427
159 24
164 522
165 580
167 449
176 500
178 41
180 550
181 475
189 587
190 63
193 528
205 83
207 569
211 510
213 595
220 103
225 128
229 547
230 153
234 520
238 590
250 169
260 470
260 495
260 575
265 520
271 155
273 553
279 452
289 137
291 430
299 107
309 412
319 87
319 562
331 400
337 544
343 80
343 570
356 395
359 517
366 560
367 89
372 415
374 492
381 540
387 104
389 467
390 433
395 515
400 126
410 495
424 133
425 380
429 477
430 405
442 114
447 424
447 459
467 109
472 419
489 121
494 431
500 144
509 451
510 167
514 192
514 476
514 501
514 526
520 217
525 360
529 546
530 325
530 385
532 239
537 409
540 295
540 485
541 568
542 510
545 270
546 345
553 463
554 532
555 427
556 246
563 580
564 307
570 272
571 340
573 549
586 320
592 284
