54 137
66 115
72 155
89 104
89 272
89 302
94 72
94 237
94 327
94 352
97 160
99 212
104 375
104 400
109 47
114 187
122 160
124 415
127 29
129 592
139 435
147 610
149 577
150 19
159 450
171 564
171 618
175 19
176 469
192 549
195 610
196 484
200 24
204 517
214 592
215 559
219 617
220 39
222 535
228 510
235 265
239 592
240 240
243 50
243 625
245 210
250 95
250 140
250 175
251 520
257 574
260 69
264 249
264 542
268 623
280 495
284 222
285 520
292 544
293 623
294 197
299 477
300 568
309 177
310 435
312 590
332 605
333 169
335 430
336 580
357 610
358 175
359 569
360 430
373 195
379 452
380 219
382 559
382 605
391 474
399 202
404 527
404 592
409 172
414 492
422 574
425 541
426 605
429 157
430 512
442 489
446 565
451 605
454 156
466 480
471 559
474 171
476 605
481 535
484 498
485 194
490 225
501 600
505 512
505 542
507 244
515 475
517 564
525 588
528 453
529 256
535 425
544 276
545 400
555 299
555 345
555 370
570 319
570 396
583 341
590 370
