24 167
34 190
39 217
39 242
42 149
51 264
57 129
71 279
79 117
96 280
104 114
114 262
129 114
139 260
154 114
164 260
177 104
189 260
201 95
214 260
221 79
239 260
246 84
254 280
270 92
274 42
274 67
274 295
296 30
299 300
321 24
322 290
335 265
344 34
360 262
369 34
385 260
394 34
410 260
419 34
435 260
442 44
450 68
455 93
460 262
480 97
485 262
505 94
510 265
530 97
530 240
545 220
554 106
564 202
573 178
574 121
580 146
