29 92
44 72
53 100
59 52
74 187
77 109
79 212
84 49
86 165
89 131
99 227
108 56
114 247
126 74
130 175
130 200
138 238
146 89
153 165
171 94
178 160
196 94
203 160
219 207
219 232
221 94
224 174
244 227
246 99
250 124
250 180
265 144
275 180
284 204
288 154
291 228
304 92
309 117
311 243
322 74
333 255
347 69
349 37
358 253
373 233
374 36
380 61
380 86
383 210
397 105
402 130
408 210
427 129
433 210
439 97
457 79
458 210
469 57
483 210
493 49
503 225
516 59
521 243
525 83
543 255
550 84
568 260
575 87
585 110
585 135
593 255
604 152
613 238
620 205
622 170
