29 97
44 117
47 79
67 64
68 110
89 232
92 64
93 110
99 135
99 160
99 185
111 220
114 76
124 182
132 94
148 175
157 99
173 175
182 99
198 175
205 109
209 198
209 223
219 246
230 109
238 228
240 195
254 116
255 141
265 190
273 159
286 204
294 228
298 159
300 253
322 265
323 154
334 107
347 269
354 52
354 92
368 255
369 32
375 165
380 230
382 189
387 50
395 74
400 99
402 174
405 124
414 207
418 146
436 164
438 215
459 154
461 225
469 122
486 220
489 92
496 243
504 72
516 258
525 86
534 276
547 99
558 285
570 109
581 295
590 124
590 149
603 171
606 290
615 265
625 183
625 208
625 233
