24 102
29 127
39 150
48 94
61 163
64 188
64 517
69 213
69 238
69 263
69 288
72 84
75 313
82 535
87 335
88 509
97 89
99 357
99 482
104 432
104 457
107 534
111 379
114 404
115 71
119 512
135 480
139 532
140 71
148 458
150 94
150 119
155 144
157 550
159 487
159 512
160 169
170 192
180 540
193 518
195 194
195 430
195 455
195 480
200 385
220 189
220 370
245 184
245 370
270 184
270 370
293 360
295 184
316 350
320 184
339 340
345 184
364 345
370 184
375 368
387 390
395 189
399 412
414 432
420 194
424 547
429 452
434 570
444 201
444 532
449 467
454 502
459 572
469 202
475 550
485 250
485 420
485 520
487 445
489 82
490 490
492 274
493 194
495 299
495 324
500 467
505 235
505 347
510 372
511 95
512 440
516 184
519 522
520 395
525 74
527 460
529 227
534 484
536 100
539 412
540 176
541 535
550 79
551 215
557 114
559 427
562 164
564 452
565 477
565 502
565 527
573 90
574 133
575 205
593 105
595 185
608 125
614 167
