24 247
24 272
39 222
42 290
57 204
64 302
74 177
79 322
84 347
89 372
94 552
96 189
101 394
112 570
114 416
114 527
118 201
119 487
122 440
134 557
136 219
144 580
145 530
154 237
169 257
169 580
183 558
190 530
191 269
200 455
200 500
215 435
216 269
240 430
241 270
265 430
266 269
290 425
291 269
314 432
316 274
339 435
341 269
349 547
359 450
366 269
367 565
371 535
374 470
389 490
389 517
391 274
392 559
407 539
407 579
416 274
425 520
431 546
432 580
440 282
454 567
464 291
469 547
480 410
480 435
480 460
481 525
484 306
485 385
490 483
499 326
510 387
519 341
532 399
539 356
556 408
559 371
580 415
583 380
603 425
607 389
628 425
632 394
653 425
657 399
678 420
682 394
703 415
707 389
