104 232
119 252
126 219
141 264
151 214
156 284
169 232
169 306
184 326
188 249
199 432
204 457
208 264
208 335
214 207
214 232
217 414
219 57
219 82
219 107
219 132
226 353
228 464
229 32
229 155
229 182
229 392
245 445
249 667
254 31
259 542
259 567
259 690
264 647
268 455
271 520
274 480
274 587
276 44
276 625
284 687
296 665
301 44
311 645
315 610
326 39
338 598
351 35
360 585
374 24
380 65
380 90
380 190
380 215
383 575
385 240
385 265
387 114
387 290
390 139
390 164
395 314
395 597
400 339
410 362
413 615
420 385
434 406
437 624
445 429
455 452
459 636
464 677
465 520
465 545
467 570
469 702
479 437
480 500
482 590
490 614
491 415
494 705
495 475
495 639
509 397
510 450
510 659
517 694
525 430
531 385
545 415
556 379
570 410
581 375
595 405
606 379
