144 357
162 375
166 345
169 77
174 397
179 100
185 365
186 330
191 64
194 252
196 410
199 227
199 277
201 113
201 310
209 202
209 340
214 32
214 147
214 172
214 392
226 370
238 25
241 350
259 332
262 34
283 325
285 44
295 70
303 340
312 89
320 113
323 355
329 547
338 131
338 375
351 534
351 560
356 393
360 143
374 522
375 550
378 405
380 158
389 428
394 507
395 178
396 535
404 448
404 587
410 473
415 193
419 525
426 574
426 599
433 211
440 510
442 554
449 587
453 226
454 532
459 492
464 567
471 244
484 552
491 259
499 532
513 271
514 512
525 485
535 283
540 465
555 445
557 295
570 425
577 310
589 407
595 328
604 387
607 350
