154 82
164 387
172 64
172 100
176 409
184 287
188 379
194 262
194 310
195 110
196 55
200 356
204 412
206 240
209 330
214 127
216 40
221 220
222 394
224 363
228 420
229 147
229 182
239 29
250 390
262 39
263 368
280 57
285 355
302 69
309 362
324 81
329 377
344 96
347 395
352 420
359 537
362 114
371 559
376 428
377 134
383 529
389 587
392 154
397 550
400 437
405 516
407 605
412 169
413 579
419 492
424 445
427 189
429 523
433 594
434 468
434 562
447 204
459 565
467 219
478 548
484 573
487 234
490 525
505 252
508 563
510 510
523 543
525 267
533 498
538 523
545 282
558 498
565 297
575 475
584 314
595 460
603 331
614 442
623 346
632 424
641 364
650 388
