24 262
24 287
24 342
29 312
29 367
34 132
34 392
36 240
39 157
39 437
44 107
51 459
54 177
56 225
64 92
64 481
66 199
74 567
79 592
82 499
84 524
84 632
86 80
89 657
109 672
111 79
134 675
136 84
159 675
160 92
175 215
175 595
178 110
182 619
184 675
185 134
185 159
185 184
185 238
185 560
190 535
195 261
195 305
195 490
205 328
205 629
207 664
210 353
210 465
220 376
220 440
225 401
