24 257
24 282
29 307
34 127
34 332
34 357
39 152
39 237
39 382
44 407
49 107
49 432
54 172
54 457
59 222
64 480
66 194
67 89
74 557
79 582
81 499
84 524
84 607
84 637
90 79
94 660
115 79
117 670
140 84
142 675
163 94
167 675
175 215
175 600
180 113
180 190
185 155
185 555
185 623
189 236
192 670
195 261
195 525
200 286
200 311
200 480
207 635
210 334
215 359
215 450
217 664
225 382
233 406
234 432
