29 252
29 277
39 212
49 187
49 292
64 357
67 169
71 305
79 147
88 365
96 305
99 132
108 349
117 114
121 305
131 360
142 109
156 355
167 104
181 350
189 42
192 104
206 350
211 29
217 99
219 53
231 75
231 350
236 29
255 46
255 82
256 345
265 315
279 89
290 310
302 79
315 305
320 97
340 300
342 109
345 145
362 164
365 295
367 109
369 137
387 164
390 235
390 295
411 249
412 164
415 274
418 225
437 164
443 223
462 164
467 214
487 159
487 199
509 187
512 154
533 180
537 154
557 170
