29 412
39 267
39 292
39 317
47 394
49 232
51 339
53 420
59 202
74 182
75 346
76 409
94 167
99 355
99 420
113 399
114 152
124 360
133 415
134 132
158 415
159 129
183 415
184 129
199 57
208 413
209 124
217 39
229 61
229 86
232 405
234 117
241 30
255 75
257 399
260 100
265 370
266 30
275 60
277 119
280 85
290 365
302 114
315 365
327 114
340 360
352 114
365 355
370 132
370 175
390 350
391 189
394 139
397 164
415 270
415 345
416 184
422 294
435 255
440 340
441 184
442 309
459 247
466 184
479 232
491 184
501 220
516 184
526 215
541 180
561 195
