29 227
29 252
29 277
29 317
34 177
34 202
46 155
47 335
51 290
64 137
72 329
76 290
82 119
95 340
101 290
105 109
109 319
126 290
128 99
129 335
139 312
153 94
154 335
178 95
179 335
194 32
203 99
204 335
212 50
215 76
218 25
228 99
229 332
240 50
250 75
254 327
257 99
265 290
282 94
290 290
302 79
315 290
327 84
340 290
345 140
347 99
365 290
368 130
370 230
372 99
389 144
390 117
390 245
390 285
395 220
405 265
414 144
420 215
439 144
443 203
464 144
467 195
489 137
489 182
513 173
514 134
535 160
539 134
559 152
