19 172
37 190
39 142
55 208
57 124
72 104
79 215
94 87
102 225
116 75
127 230
141 79
152 229
166 79
170 205
191 79
193 195
216 79
218 195
229 27
234 52
243 195
254 22
268 195
279 21
293 198
304 22
318 195
329 21
343 195
354 22
368 195
379 22
393 195
404 24
416 205
429 24
441 210
454 24
465 200
479 26
482 219
499 41
500 70
505 95
507 225
524 112
532 224
547 204
549 107
568 190
571 119
580 143
580 168
