24 152
24 177
24 202
29 227
39 132
47 245
63 125
67 260
87 134
89 272
104 292
112 139
124 307
132 154
142 325
144 176
145 201
149 349
154 374
159 222
164 397
184 224
186 410
194 177
204 152
211 415
222 134
236 415
247 134
260 422
270 144
283 166
285 425
298 186
310 425
323 184
324 87
324 112
329 137
334 62
335 425
339 160
354 47
360 425
372 29
385 425
397 29
410 425
417 44
425 175
435 62
435 150
435 425
442 194
450 82
450 125
460 425
466 185
485 425
491 180
499 152
510 420
517 134
535 415
540 124
560 415
563 135
575 157
575 182
583 206
585 415
605 219
605 395
615 360
624 197
628 338
634 172
640 315
649 152
660 300
671 140
680 285
696 135
699 267
721 134
723 258
735 155
735 180
735 205
735 230
