24 177
39 197
42 159
59 212
65 149
77 230
89 142
92 250
113 150
114 262
120 174
125 199
134 277
135 222
139 307
149 330
150 242
154 167
159 192
159 353
164 97
164 122
164 392
172 254
176 414
177 210
182 79
197 249
199 425
202 210
205 69
222 435
230 74
245 94
247 439
265 109
272 440
275 180
282 204
285 124
290 149
297 445
302 219
304 102
313 160
314 67
322 445
324 42
327 214
337 169
344 27
344 193
347 445
369 24
372 445
394 29
397 440
405 180
410 49
410 74
415 203
422 440
423 96
424 162
435 130
435 219
447 435
449 151
458 209
459 117
461 173
472 435
481 104
497 430
502 89
520 71
522 425
530 205
535 230
544 64
547 419
554 247
555 205
567 74
569 407
575 98
575 123
575 190
575 365
579 244
580 148
585 340
598 318
601 230
605 290
619 207
625 275
629 157
629 182
647 139
648 265
668 248
672 144
683 228
697 149
703 213
721 195
722 154
740 172
