224 202
229 227
229 252
234 277
234 302
236 180
239 327
244 352
244 377
244 402
249 427
249 452
254 477
254 502
259 527
259 552
259 667
260 172
264 577
269 602
269 642
272 194
275 219
275 244
275 269
280 294
281 680
285 319
294 177
299 107
299 132
306 680
317 89
331 680
332 69
345 91
345 160
345 185
345 210
347 235
350 116
352 260
356 680
369 192
369 217
379 137
379 162
381 675
384 67
384 92
402 49
406 675
427 44
430 190
430 215
430 240
430 265
431 675
435 95
435 120
435 145
437 289
439 66
454 162
454 197
456 675
459 82
477 64
478 663
489 86
493 643
497 110
505 134
505 220
510 159
510 184
510 245
510 270
510 295
510 320
513 628
515 345
515 370
525 393
531 610
535 416
545 439
546 590
564 572
568 449
579 552
590 436
599 537
605 416
611 515
619 387
626 495
634 367
640 470
654 352
659 452
671 430
678 344
683 408
692 384
