204 262
204 287
204 312
209 237
209 337
209 362
209 387
209 412
209 437
214 462
214 487
219 512
224 217
224 537
234 560
234 585
244 202
244 608
244 652
255 240
255 265
255 290
260 315
260 340
262 670
279 152
279 177
279 202
279 227
287 670
294 132
312 114
312 670
325 195
325 220
325 245
325 270
330 132
330 160
332 294
337 670
349 177
354 92
354 117
354 142
362 670
372 74
387 670
397 79
400 210
400 235
400 260
400 285
405 103
405 128
405 153
405 178
405 310
412 670
424 195
427 115
437 670
442 94
454 116
459 657
470 136
470 161
474 637
475 186
475 211
475 236
475 261
475 286
475 311
475 336
485 359
490 384
494 622
495 409
495 434
505 595
514 352
514 377
518 573
519 327
530 550
534 302
545 530
555 490
558 295
560 465
570 317
570 425
574 342
575 367
580 392
