24 247
29 307
34 270
34 332
42 229
53 299
56 344
60 275
65 219
78 299
81 345
90 222
102 290
104 355
112 234
124 370
137 229
144 385
162 224
164 400
184 415
187 219
204 430
207 234
225 252
229 430
239 492
240 272
245 297
253 321
254 435
254 472
274 487
277 314
296 499
299 302
313 480
323 294
335 492
348 289
349 707
359 500
372 279
373 699
374 724
384 505
396 689
397 274
399 725
409 510
409 667
414 535
419 560
419 632
421 265
423 718
424 585
440 675
446 259
450 650
465 625
469 249
475 565
475 590
494 244
498 580
509 722
510 490
518 251
518 595
520 513
529 707
533 615
534 482
539 730
540 528
541 639
543 254
544 664
550 551
556 470
557 575
564 735
568 260
575 593
576 455
580 618
585 643
588 728
590 668
592 269
595 693
599 445
615 279
624 445
635 294
649 445
658 305
674 450
680 317
699 445
702 329
724 445
727 334
747 435
752 339
770 425
777 339
793 415
800 329
815 400
824 207
825 324
838 388
844 222
846 310
860 375
862 204
864 237
864 292
879 257
879 357
884 216
897 339
899 236
910 259
912 319
915 290
