24 247
29 307
34 270
34 332
42 229
53 299
56 345
60 275
65 219
78 295
81 345
90 222
102 304
104 355
112 234
124 370
137 229
141 389
162 224
164 400
186 413
187 219
207 234
208 425
225 252
233 430
239 492
240 272
240 297
248 321
254 472
258 435
273 319
274 487
295 306
296 499
317 485
319 297
340 495
343 289
349 707
363 505
368 284
369 722
374 697
386 515
392 274
394 725
398 689
405 532
410 666
414 556
417 269
419 627
419 720
424 579
440 675
440 700
441 260
450 650
465 625
466 254
475 570
475 595
489 244
499 577
514 249
514 717
517 595
529 617
534 702
535 505
536 730
539 254
539 640
542 529
549 663
550 485
550 553
559 577
560 737
563 463
564 259
575 597
583 621
584 730
585 450
585 646
587 269
590 671
597 695
610 445
612 274
632 289
635 445
654 301
660 450
674 316
685 450
696 329
710 445
721 334
735 440
745 342
758 430
770 341
781 420
792 329
803 408
817 324
824 202
825 395
841 315
842 220
848 383
859 297
862 235
865 209
868 368
874 277
885 224
886 350
900 244
904 332
915 264
916 310
