24 312
34 335
39 282
49 377
51 260
61 399
71 244
85 385
96 244
110 387
121 249
132 399
141 264
144 421
149 502
159 282
159 441
164 466
171 490
174 302
184 440
196 314
199 462
204 487
209 687
220 306
224 460
233 695
241 479
245 301
253 679
259 497
269 520
270 296
271 660
273 695
274 545
279 570
279 595
279 620
295 292
295 670
305 645
315 595
318 623
319 299
325 555
335 530
343 306
360 530
367 314
374 551
392 319
392 569
404 682
412 584
414 331
420 520
424 606
427 544
428 674
434 346
436 628
439 566
440 505
450 589
451 685
456 359
460 612
460 637
465 502
465 662
479 369
490 507
502 379
514 515
524 391
539 520
544 406
564 421
564 525
586 434
589 530
606 449
612 540
628 461
637 545
648 476
661 553
670 489
685 560
693 500
710 565
717 509
735 570
739 521
760 570
763 529
785 575
788 534
810 575
813 540
835 580
838 544
860 575
863 544
883 565
897 544
