24 217
24 242
24 267
39 297
39 392
39 417
44 202
49 267
54 317
62 184
63 384
63 425
73 258
74 157
78 325
88 390
88 425
99 156
103 318
113 389
113 430
119 342
124 154
127 310
138 430
149 149
160 415
174 154
179 432
189 455
197 164
206 474
212 184
225 206
226 489
235 229
244 567
248 251
249 500
254 537
254 590
259 747
259 772
261 614
270 263
274 636
277 790
283 739
289 656
293 274
302 789
308 734
309 671
309 696
315 287
327 785
337 299
347 769
355 625
355 745
360 309
360 650
365 720
375 610
379 667
380 700
384 316
400 605
408 324
417 624
431 334
432 644
454 344
454 656
454 737
459 762
475 358
478 665
478 729
481 775
484 690
490 378
505 398
506 775
515 421
531 775
535 437
535 655
535 680
540 605
540 705
540 730
550 628
557 449
565 607
580 459
589 615
603 469
614 620
626 479
639 620
651 484
664 620
676 489
689 620
701 494
714 620
726 499
739 615
751 499
762 605
776 499
785 595
801 504
808 585
825 565
826 504
848 553
851 499
872 545
876 499
895 535
901 494
915 515
