24 187
34 210
39 167
49 87
49 142
59 210
61 120
71 74
82 199
94 84
99 218
99 243
100 268
109 292
119 89
119 315
134 335
139 104
139 497
149 355
149 520
154 380
154 405
154 477
157 430
162 114
174 525
180 132
195 505
198 150
200 475
205 430
210 400
218 165
225 380
242 174
250 375
267 179
275 370
292 184
300 365
317 184
323 353
342 184
343 338
367 184
367 330
392 184
392 330
404 352
417 184
419 372
439 387
442 184
454 407
459 497
465 194
469 427
477 515
479 450
479 475
488 205
495 495
497 530
505 224
505 470
518 246
520 540
525 270
525 295
525 320
530 345
535 370
540 515
545 440
545 465
545 490
550 390
568 430
573 400
593 415
