29 77
29 102
29 127
39 150
47 59
56 35
64 155
79 24
79 175
79 200
79 225
79 250
84 275
84 522
89 300
96 324
99 349
99 502
102 540
104 24
104 374
109 399
109 424
114 449
114 474
127 535
129 24
145 515
150 490
154 29
155 465
160 405
160 430
169 542
173 46
180 390
187 524
187 560
188 66
200 88
202 504
203 400
204 425
204 450
204 475
210 111
212 559
224 132
230 540
239 152
240 485
240 510
245 435
245 460
250 405
263 160
263 383
287 169
287 375
312 174
312 370
335 360
337 174
359 367
362 174
369 390
380 413
384 522
387 169
395 433
402 504
402 540
404 457
412 174
427 539
435 425
437 179
437 450
440 475
440 500
455 405
460 189
480 204
480 402
492 424
493 226
502 250
504 446
505 275
509 471
509 537
510 300
514 496
515 325
520 350
520 375
525 400
527 555
532 424
540 448
545 473
550 498
552 559
555 523
