104 327
114 350
119 302
133 333
134 282
139 592
139 617
149 262
151 570
153 318
164 237
164 547
164 617
171 300
176 525
182 599
184 222
186 280
191 505
197 579
204 482
206 209
209 270
212 559
219 457
224 290
227 539
231 204
231 314
234 432
239 338
242 519
244 363
244 407
249 157
254 182
260 495
261 135
279 117
279 477
298 460
304 116
316 478
322 134
330 180
334 496
335 205
340 370
340 395
349 516
350 325
350 418
355 300
360 206
360 265
360 441
367 534
374 462
382 554
383 253
384 197
386 484
397 574
401 235
401 504
404 182
415 592
416 524
421 220
422 164
431 544
433 610
436 200
437 144
445 565
449 122
451 180
453 625
459 92
459 586
465 155
469 62
475 130
485 82
485 107
