104 267
114 290
119 242
133 273
134 222
144 527
149 202
153 258
154 502
162 545
164 177
169 477
171 240
181 455
182 529
184 162
186 220
196 435
200 510
206 149
209 210
209 412
215 490
224 230
224 387
230 470
231 144
231 254
239 278
239 357
244 303
249 97
249 328
249 452
254 122
261 75
264 432
279 57
279 412
301 400
304 56
319 418
322 74
330 120
334 438
335 145
340 310
340 335
350 265
350 358
350 458
355 240
360 149
360 205
360 381
365 478
374 402
384 197
384 495
385 144
386 424
399 515
401 444
406 185
410 144
415 465
416 534
429 486
430 175
435 139
439 545
440 509
455 170
460 134
479 162
485 129
503 155
510 124
528 148
533 114
550 135
