94 302
104 272
109 322
119 252
129 337
134 212
154 340
158 219
169 152
169 177
176 353
179 127
184 432
194 371
201 114
206 419
206 444
214 386
226 119
231 445
240 140
240 180
242 205
254 435
267 204
279 432
291 195
301 420
316 189
326 425
339 447
341 184
363 455
366 179
388 455
391 184
413 450
416 189
438 450
439 199
462 209
463 445
480 227
488 440
499 244
513 443
515 264
530 284
535 430
540 307
540 370
544 332
550 410
