14 287
32 269
50 251
62 229
69 202
74 267
74 417
79 152
79 177
83 243
84 440
89 97
91 130
92 399
94 282
94 307
94 332
99 357
101 75
109 440
110 51
125 405
129 32
135 350
135 375
140 290
140 320
150 260
150 402
153 24
159 357
164 332
169 242
169 307
172 414
174 282
175 195
178 19
185 218
197 409
203 19
205 370
222 414
228 19
247 420
253 19
272 414
275 360
275 385
278 19
288 338
295 310
298 35
315 295
319 49
340 290
344 42
359 367
365 290
369 37
371 389
379 342
389 297
394 39
396 395
419 44
420 402
435 365
443 51
445 340
465 63
470 342
479 387
489 71
489 410
509 86
514 407
515 265
515 290
520 315
524 106
530 338
538 398
540 130
540 170
540 240
540 265
540 295
540 361
545 195
550 318
