79 307
84 332
96 354
99 187
99 212
99 237
99 262
101 295
105 378
109 152
117 400
121 130
134 419
136 110
136 444
145 468
154 92
164 485
164 510
164 535
172 74
175 558
189 52
194 575
209 37
211 594
231 609
233 29
251 624
258 24
276 630
283 24
300 620
306 34
324 612
326 49
342 594
351 49
360 570
375 57
375 545
385 520
390 475
395 72
400 450
410 92
410 415
415 390
418 116
425 140
425 165
425 190
430 215
430 240
435 375
440 263
440 350
445 290
445 315
