19 412
37 430
43 404
60 440
68 399
83 450
93 394
108 455
116 384
133 460
141 380
158 465
166 374
176 483
191 374
191 503
210 520
214 362
220 475
226 340
239 307
240 460
254 287
265 460
270 307
275 332
290 460
293 350
314 364
315 460
338 450
339 364
363 445
364 364
388 450
389 364
413 445
414 366
436 435
438 374
461 435
463 374
485 442
488 374
510 440
513 369
533 430
538 375
556 420
562 384
577 434
587 379
597 449
607 364
619 461
625 420
629 352
645 405
653 344
665 390
675 331
685 375
699 322
708 365
724 319
730 350
747 309
754 342
772 309
