39 187
44 212
59 172
62 230
79 157
85 240
94 137
106 254
109 117
127 99
130 262
149 87
152 275
171 74
172 290
192 305
194 64
217 54
217 310
239 322
240 44
263 330
265 39
286 340
288 29
309 350
313 29
332 360
338 24
355 370
363 24
380 370
388 29
404 362
413 30
426 350
438 35
446 335
455 54
464 317
475 69
484 302
494 86
502 284
514 101
514 262
532 119
532 244
544 141
545 220
568 149
570 215
593 144
595 217
613 129
620 220
636 119
645 225
657 104
670 230
682 99
695 230
700 117
705 142
708 208
710 167
