24 187
24 212
29 157
39 132
39 232
51 254
57 114
75 261
80 124
95 245
104 131
115 230
126 144
138 218
149 154
162 210
174 147
180 228
189 127
199 245
207 109
216 264
229 97
231 284
251 84
251 299
272 69
274 310
292 54
299 315
312 39
324 320
332 24
347 330
357 24
372 330
382 24
397 330
407 24
422 330
432 24
447 330
455 34
472 335
479 41
497 335
503 49
522 335
525 62
547 74
547 335
565 92
570 325
583 110
593 313
600 129
605 290
615 149
628 278
630 169
649 186
652 269
669 201
676 260
687 219
695 243
