19 187
24 157
24 212
39 232
42 139
51 254
60 121
71 269
75 101
94 280
97 89
117 290
119 72
137 54
140 300
154 321
159 42
172 339
181 29
189 358
195 310
206 24
218 320
231 19
236 338
256 19
256 353
280 360
281 24
304 352
305 32
328 345
329 39
353 340
354 44
375 58
376 330
396 315
398 69
416 300
420 82
438 100
438 288
450 235
455 119
456 270
470 139
475 240
485 159
499 247
504 142
521 259
526 130
545 170
545 195
545 267
547 220
549 119
560 150
562 240
567 279
572 109
579 133
582 259
592 285
595 99
612 269
618 110
