24 137
29 162
34 187
36 115
52 205
60 107
77 200
85 109
102 195
108 119
125 185
133 124
150 185
158 119
169 202
176 100
189 217
196 85
209 232
216 70
231 245
240 61
251 260
262 49
275 267
285 39
299 275
310 34
324 280
335 29
349 285
360 24
374 290
385 24
399 290
410 24
424 290
435 24
449 290
460 24
474 290
485 24
499 287
510 29
524 285
533 39
545 270
555 52
564 252
575 67
584 237
595 82
609 232
617 94
629 217
637 109
653 210
657 124
676 200
677 139
692 159
