134 387
134 412
134 442
134 467
144 490
146 365
149 302
155 341
159 510
161 280
175 259
184 515
192 239
207 525
212 224
232 520
235 214
256 200
256 528
279 187
281 525
303 179
305 532
328 179
329 540
344 560
350 167
365 525
367 570
375 169
382 544
397 524
400 167
421 515
424 174
445 500
449 177
470 500
474 179
490 485
499 184
505 255
510 470
518 233
520 198
529 452
535 320
542 224
544 432
556 334
557 204
559 412
573 315
574 392
577 189
579 344
586 370
594 162
598 310
616 149
620 180
620 210
623 308
630 233
639 139
645 253
648 303
665 269
673 300
690 274
713 284
