24 232
29 207
34 182
34 255
49 275
52 164
69 290
77 159
92 280
100 169
117 274
125 174
141 265
150 179
164 255
169 162
171 279
179 137
189 112
189 297
201 319
204 92
219 337
222 74
234 357
240 56
254 372
260 41
278 380
282 29
303 380
307 24
328 380
332 24
353 380
357 24
378 378
382 24
403 373
407 24
428 370
432 29
451 360
457 34
476 360
482 39
499 350
504 51
524 347
526 64
544 332
546 79
564 317
566 94
586 109
586 305
608 121
609 295
626 139
632 285
640 160
655 275
657 179
677 194
678 263
695 212
696 245
