34 162
46 184
49 142
66 199
67 124
86 214
87 109
102 89
109 225
122 74
124 245
131 269
142 59
152 255
165 49
172 270
186 35
187 290
209 302
211 34
233 310
236 29
258 315
261 29
283 315
286 25
308 315
311 24
333 315
336 24
358 310
361 24
381 300
386 29
404 290
410 37
427 280
434 44
452 279
457 54
476 270
479 66
500 80
500 260
514 101
520 245
532 119
540 230
554 131
559 212
574 146
583 205
599 149
607 214
622 139
632 220
647 134
657 225
672 134
682 224
697 139
700 205
709 161
