39 157
39 182
54 137
57 200
75 218
78 129
95 233
96 110
114 92
115 248
134 265
136 80
157 275
160 71
182 59
182 280
202 295
205 49
226 303
230 44
250 310
255 41
273 320
277 29
298 320
302 29
323 325
327 24
348 325
352 24
371 315
377 29
394 305
402 29
419 300
422 44
440 285
442 59
465 69
465 280
485 84
485 265
505 99
508 253
528 110
530 240
543 130
549 222
560 149
573 215
585 154
598 215
610 149
623 220
635 149
648 220
660 149
673 220
685 147
698 213
703 165
710 189
