24 447
29 472
39 427
39 495
54 407
54 515
70 495
72 389
87 369
94 502
102 349
118 495
120 331
138 478
140 316
158 463
160 301
178 448
180 286
199 267
200 435
204 202
209 227
223 423
229 204
243 408
252 214
263 393
272 199
278 373
289 177
290 350
307 159
311 364
322 139
324 386
337 119
339 406
345 295
355 101
362 394
366 309
368 283
375 86
380 375
386 324
388 268
395 71
399 357
408 253
415 56
423 233
437 44
438 213
450 190
457 29
463 168
480 45
480 145
500 120
501 59
510 90
526 54
