24 407
42 389
42 425
54 367
65 415
72 349
89 407
92 334
112 319
114 402
135 309
138 393
152 289
162 384
175 279
187 380
200 279
211 373
225 276
236 370
249 269
261 365
272 259
274 52
286 360
289 72
297 254
304 92
308 348
317 239
322 110
324 152
324 177
325 325
326 215
337 130
350 320
362 124
375 317
377 144
379 342
380 180
397 360
404 187
415 285
422 354
425 308
426 174
435 265
435 331
449 162
458 253
469 147
482 245
484 127
502 109
505 235
514 87
524 217
526 65
542 199
546 50
555 175
570 155
571 49
589 137
594 39
608 120
617 29
630 105
642 24
649 87
665 65
667 24
684 47
694 24
