44 82
49 122
49 157
54 187
68 90
71 135
73 165
78 195
88 74
91 119
93 149
98 179
108 90
114 130
116 160
118 195
128 74
134 114
136 144
138 179
151 85
157 125
159 155
161 190
171 69
177 109
179 139
181 174
194 80
199 155
200 120
204 185
214 64
214 95
229 185
239 64
254 180
264 64
270 89
275 140
275 165
290 104
300 135
315 99
325 135
340 94
350 135
365 94
375 135
390 91
400 130
415 89
425 130
440 89
450 125
465 89
475 125
490 89
500 120
515 84
525 120
540 81
550 115
565 79
575 115
590 79
600 110
615 74
625 110
640 74
650 105
665 69
675 92
