44 57
49 167
64 92
68 65
73 159
81 135
88 49
88 84
93 174
104 124
108 65
108 154
111 100
128 170
129 79
129 119
130 51
142 149
149 95
151 65
162 165
163 135
165 44
171 108
187 164
190 44
211 155
215 44
220 69
225 115
240 84
250 110
265 84
275 110
290 79
300 105
315 79
325 105
340 74
350 105
365 74
375 100
390 69
400 100
415 69
425 95
440 66
450 95
465 64
475 95
490 64
500 95
515 64
525 90
540 61
550 90
565 59
574 83
