14 122
14 162
24 77
29 42
36 109
36 135
36 175
41 20
48 69
54 157
60 100
66 19
66 179
69 55
76 145
77 119
86 74
91 19
91 185
98 105
101 148
107 60
114 195
115 84
115 124
116 20
121 164
132 65
136 110
139 195
141 19
142 150
149 84
158 178
165 27
176 160
180 47
180 120
185 72
205 125
210 74
229 132
235 74
254 135
259 81
279 140
283 90
302 150
307 99
327 154
332 104
352 160
357 109
377 165
382 114
402 170
407 119
426 178
432 124
451 183
457 124
476 188
482 124
501 190
507 129
526 195
532 134
550 175
554 146
