24 292
29 317
41 339
42 274
59 357
65 264
81 369
85 249
106 375
108 239
116 215
131 380
139 204
156 385
164 197
180 392
186 184
205 395
211 179
219 82
224 107
230 395
236 179
244 79
246 120
254 52
254 144
255 395
266 30
280 395
285 47
289 72
290 105
290 130
290 155
290 180
305 390
313 79
314 189
315 105
330 390
338 80
339 189
355 390
364 189
380 385
388 196
405 380
412 204
427 224
430 375
450 234
453 365
473 245
476 355
490 264
501 350
509 281
519 332
520 304
