24 317
34 287
36 339
46 265
59 350
66 249
81 363
89 239
105 372
112 229
124 207
129 380
146 195
154 380
171 189
179 385
194 82
195 181
204 385
212 100
216 70
219 174
229 385
236 108
241 69
244 132
244 157
254 32
254 385
278 25
279 385
280 50
290 105
290 130
290 155
295 180
297 69
304 385
313 95
318 190
322 69
329 385
338 89
342 199
354 385
367 204
379 380
392 209
404 375
417 209
420 234
428 368
440 249
450 355
463 260
475 350
487 269
498 338
510 279
516 320
