39 327
49 304
49 350
64 370
69 287
89 375
91 275
112 385
114 264
129 242
135 395
141 220
159 402
164 209
183 410
189 209
208 415
214 209
224 107
233 415
239 207
244 122
254 97
258 420
261 195
262 140
264 165
269 52
274 77
281 30
283 420
305 37
305 62
305 87
305 140
307 165
308 420
322 185
325 125
327 99
333 425
342 200
350 120
358 425
364 212
383 425
388 219
408 420
413 224
433 413
438 225
450 247
455 400
462 269
480 395
487 274
503 383
509 286
521 365
527 304
533 343
