24 27
24 52
24 77
24 102
29 127
39 482
44 147
49 24
63 474
64 162
74 24
84 177
86 464
99 24
100 485
106 189
109 454
124 24
125 485
131 193
134 447
149 24
150 485
155 202
158 439
174 24
175 485
180 205
181 429
199 24
199 222
199 247
199 272
200 485
204 297
204 322
204 347
204 372
204 417
224 24
225 485
249 24
250 485
274 24
275 485
280 205
280 230
280 255
280 280
280 305
280 330
280 355
280 380
280 405
295 185
297 424
299 24
300 485
310 160
320 434
324 24
325 485
330 145
343 444
349 24
350 485
354 137
366 454
372 119
374 24
375 485
385 95
389 464
399 24
400 55
403 485
