199 197
214 177
214 217
229 237
239 176
244 257
257 194
259 277
274 297
275 212
289 317
290 232
301 339
308 250
314 361
323 270
326 383
338 290
339 405
349 527
349 552
350 312
350 428
362 334
362 450
370 358
371 514
371 565
374 472
380 381
387 405
394 555
395 429
408 451
419 555
420 473
443 548
444 481
467 539
469 477
490 491
491 530
