14 97
14 122
14 147
38 155
39 94
63 155
64 94
88 155
89 94
113 155
114 94
138 155
139 94
163 155
164 94
188 155
189 94
213 155
214 94
238 155
239 94
263 155
264 94
288 155
289 94
313 155
314 94
338 155
339 94
363 155
364 94
388 155
389 94
413 155
414 94
429 262
434 22
434 52
438 155
439 77
439 222
444 182
454 260
459 17
477 249
484 16
497 234
509 17
515 210
530 185
534 16
543 163
545 85
545 110
547 135
555 30
555 60
