24 157
24 182
24 207
24 232
29 257
29 282
29 307
39 330
49 154
62 340
74 159
79 359
93 380
99 97
99 159
111 119
111 398
122 149
123 90
131 413
138 110
153 130
153 425
173 440
178 134
196 450
203 129
219 460
228 129
239 475
250 390
253 124
261 488
264 411
270 375
278 119
279 506
284 426
293 365
301 518
302 109
304 441
313 380
320 535
322 459
325 99
328 400
330 155
334 481
339 517
343 420
348 89
350 365
351 169
353 143
358 440
367 384
370 295
371 79
373 460
375 161
375 225
377 134
382 404
384 365
388 480
391 309
394 69
397 424
399 217
400 156
401 125
408 290
409 370
413 480
415 442
416 314
419 64
421 229
425 115
425 154
433 290
434 370
437 209
441 319
444 64
448 103
450 149
452 229
458 290
459 370
462 205
466 319
475 144
477 229
483 285
484 372
487 199
491 314
500 139
502 224
508 285
509 370
512 195
516 314
525 139
527 224
533 285
534 365
535 185
540 322
544 156
550 345
552 224
558 280
575 234
578 263
