114 197
114 222
114 247
124 270
129 295
136 319
138 189
145 343
160 363
161 199
165 388
169 413
169 438
169 463
169 488
170 223
174 513
175 248
179 538
179 657
180 273
189 561
189 622
190 296
194 586
197 675
204 317
209 207
214 232
214 257
216 339
219 282
222 675
224 187
244 172
247 675
269 169
272 675
275 215
277 240
282 265
285 189
289 289
297 675
299 82
299 107
299 132
299 157
299 222
311 60
322 675
336 59
347 675
358 71
360 170
365 95
365 120
365 145
365 195
365 220
365 245
365 270
365 295
372 675
384 177
384 652
388 205
389 230
402 634
408 169
426 625
430 181
435 375
442 399
445 290
445 315
445 340
445 605
450 197
450 265
455 222
455 421
464 587
473 439
482 569
493 424
497 549
505 401
512 529
524 382
524 507
539 487
542 364
550 460
564 352
565 440
580 415
588 344
600 400
613 349
620 385
