64 222
69 247
74 272
84 207
84 295
101 314
109 206
114 336
125 226
129 356
135 249
149 371
150 269
157 395
159 420
159 445
159 470
159 495
163 291
164 520
169 545
169 662
175 313
179 568
179 627
184 593
187 680
194 112
194 137
194 162
194 187
195 328
204 210
204 235
204 260
207 285
212 680
213 310
216 99
237 680
241 104
255 125
255 150
257 175
260 200
262 680
265 225
270 250
275 275
287 680
289 87
289 112
289 137
289 162
289 187
289 212
301 65
312 680
326 64
337 680
348 76
350 175
355 100
355 125
355 150
355 200
355 225
355 250
355 275
355 300
362 680
374 657
379 232
389 132
389 157
389 182
389 207
392 639
401 110
416 630
425 380
426 104
432 404
435 295
435 320
435 345
435 610
440 270
445 121
445 210
445 235
445 426
450 146
450 171
454 592
463 444
472 574
483 429
487 554
489 362
489 387
499 327
502 534
514 512
517 309
529 492
540 465
542 304
555 326
555 351
555 376
555 445
565 399
570 424
