49 352
49 377
49 402
49 427
49 452
49 477
49 502
49 527
67 545
74 349
92 545
99 349
104 197
117 545
122 179
124 212
124 349
142 545
144 227
145 169
149 349
164 242
164 277
167 545
170 169
174 349
176 299
183 260
189 147
192 545
193 179
199 349
200 285
200 420
200 445
200 470
200 495
200 520
216 330
217 169
219 302
220 405
237 184
240 390
262 184
263 380
277 164
279 400
294 420
295 146
295 190
314 172
315 131
317 409
319 197
338 179
339 421
354 441
358 164
369 461
373 144
384 481
391 125
395 275
400 330
405 355
408 473
410 380
412 139
414 257
415 420
419 312
420 445
428 345
429 237
434 127
434 387
437 294
447 219
450 170
451 249
452 109
452 274
452 369
465 190
469 152
470 91
487 134
489 72
505 115
511 59
515 90
