24 72
24 97
29 122
34 147
36 50
52 165
56 34
64 187
79 207
80 26
94 227
105 24
112 245
130 24
130 263
149 280
154 31
160 303
176 44
179 320
189 343
199 54
202 365
217 385
218 71
229 407
233 91
241 429
245 113
255 136
259 447
265 159
277 465
289 147
299 452
301 125
314 97
319 437
332 79
339 422
347 59
361 410
367 44
383 398
390 34
405 385
415 34
425 370
440 39
445 355
463 49
464 337
482 319
485 62
497 299
507 74
510 275
522 94
525 245
530 118
535 143
535 210
540 168
