24 122
24 147
24 172
29 197
34 92
39 220
46 70
50 243
59 47
65 263
81 34
89 270
104 24
114 270
129 24
139 265
154 24
164 265
174 327
174 352
177 34
179 285
192 370
200 44
210 388
220 59
230 403
239 76
250 99
250 418
263 121
269 435
275 143
285 166
286 454
304 142
310 445
319 117
331 95
333 433
346 75
351 415
364 52
374 405
386 40
397 394
411 34
417 379
436 34
438 365
458 348
460 42
478 333
484 51
493 313
504 66
508 293
523 273
524 81
535 104
535 250
545 127
545 215
550 152
550 177
