24 147
29 102
34 170
39 77
49 37
59 175
73 30
75 155
94 137
97 39
116 125
122 44
129 347
132 145
139 370
144 327
144 395
145 54
147 165
149 420
162 185
162 309
163 363
169 391
169 435
170 59
171 209
173 340
174 234
179 287
184 257
189 419
189 450
194 66
195 325
212 84
218 313
232 99
240 300
254 321
257 104
264 344
269 369
269 477
279 392
280 114
284 417
284 442
290 305
293 485
295 330
300 355
303 385
304 121
305 456
309 421
310 290
328 129
335 290
353 134
360 290
378 134
385 285
403 129
404 482
409 277
422 464
426 495
427 119
433 285
437 444
439 310
446 334
447 470
449 417
452 119
454 358
459 383
462 449
473 424
477 124
485 400
490 305
490 330
495 355
502 129
515 307
527 129
530 327
549 344
550 155
550 210
550 235
550 260
552 129
555 180
555 285
565 308
566 363
573 220
574 245
577 129
577 270
578 385
579 467
583 326
584 410
589 300
589 435
592 350
597 485
602 134
603 385
610 409
610 450
620 152
625 177
628 380
629 202
630 227
630 252
635 277
645 300
645 325
645 350
