39 87
49 342
51 109
57 69
67 360
69 327
75 116
79 57
87 309
89 347
100 110
101 44
105 327
107 294
125 36
125 110
125 276
125 312
147 264
147 300
150 31
150 110
164 131
172 264
172 300
175 34
176 153
184 177
189 212
194 237
197 304
199 41
205 328
217 350
221 54
241 69
241 358
250 320
262 344
263 370
265 76
273 308
284 331
288 86
288 363
297 300
306 104
308 348
321 124
322 295
329 362
344 134
344 342
347 295
354 365
359 322
368 141
372 295
373 348
384 319
393 144
397 294
398 345
418 139
423 345
443 134
448 345
465 285
465 310
468 134
485 270
493 140
505 285
517 149
524 302
540 159
542 320
565 164
567 325
588 174
590 220
592 330
597 244
605 268
611 184
615 340
617 290
618 230
636 189
640 342
642 239
642 294
659 199
660 357
662 309
667 245
677 329
679 374
684 201
690 351
692 249
693 395
707 370
708 209
713 410
717 250
731 379
733 214
738 413
740 260
758 219
765 260
778 234
790 260
