84 222
84 247
89 272
94 192
99 295
109 172
114 315
125 338
127 154
144 355
147 139
164 370
167 124
187 380
192 119
212 380
217 114
237 380
242 114
262 380
267 114
287 375
292 119
312 370
317 124
334 357
337 139
340 330
345 163
350 305
357 185
375 305
381 194
400 305
406 189
423 295
430 197
448 290
452 209
473 295
477 214
498 300
502 209
523 295
527 209
548 290
552 214
573 295
577 219
598 300
602 214
620 285
625 224
640 244
640 270
