24 117
24 147
34 92
34 170
39 195
49 72
54 215
67 54
71 234
87 39
94 245
112 34
119 250
137 29
142 260
162 24
167 260
187 24
192 260
210 34
214 247
229 51
230 225
240 74
240 180
245 99
265 180
268 110
288 170
293 104
313 175
318 104
338 170
343 104
363 170
368 105
388 173
393 109
412 165
418 110
437 164
443 114
462 159
468 114
487 155
493 119
512 155
518 114
537 154
543 120
559 142
