109 197
109 222
109 247
119 172
119 270
139 157
139 285
161 145
162 295
185 136
187 300
209 127
210 310
233 119
235 315
258 119
260 317
283 114
285 320
308 109
310 322
333 109
334 330
358 109
359 330
381 119
383 323
396 139
400 300
405 163
415 280
425 178
438 270
450 184
455 250
475 184
478 238
500 184
502 245
525 184
527 245
550 184
550 235
574 242
575 184
599 240
600 184
624 242
625 184
646 230
650 189
