124 222
124 247
136 200
139 267
156 184
157 285
159 310
164 152
174 330
176 130
197 340
199 119
222 340
224 116
247 340
249 119
272 340
274 119
297 340
299 124
322 335
324 126
337 314
344 141
350 166
355 295
372 179
375 275
397 179
400 275
405 203
425 275
430 209
450 280
455 209
475 280
480 209
500 224
500 280
524 217
525 280
549 214
550 280
573 221
575 280
598 224
600 280
623 224
625 280
646 234
650 280
661 254
