24 107
24 132
24 157
36 179
44 92
56 194
64 77
79 205
86 65
99 220
104 47
116 239
122 29
134 257
145 19
152 275
165 34
170 255
184 51
190 235
208 59
209 217
233 65
233 208
257 200
258 70
279 84
279 187
303 178
304 84
315 155
329 84
340 150
354 82
364 157
379 82
388 150
404 84
411 160
429 84
436 160
454 79
459 150
479 77
484 155
504 74
507 144
529 76
532 139
549 91
550 120
