109 267
114 232
114 292
119 207
124 315
134 187
139 335
149 167
159 350
169 152
176 369
189 137
199 380
213 129
224 385
238 134
249 382
263 139
273 375
286 149
298 368
306 164
316 350
326 179
336 335
341 199
359 325
361 214
379 340
381 199
400 325
405 206
423 224
423 315
448 224
448 320
473 229
473 320
498 229
498 320
523 229
523 325
548 229
548 325
573 229
573 325
598 229
598 325
623 229
623 325
648 235
648 318
665 254
668 303
675 277
