74 127
79 152
79 177
84 202
84 227
86 105
89 252
107 270
111 99
132 275
136 94
157 275
161 94
182 275
186 94
207 275
211 89
232 275
236 89
257 275
261 84
282 275
286 84
307 269
311 84
315 245
328 223
335 185
336 84
358 175
361 79
383 180
386 79
405 165
411 74
424 147
436 74
446 135
461 74
471 140
486 74
496 135
511 69
521 140
536 69
546 135
561 64
571 130
585 72
591 115
