24 117
24 142
24 167
34 190
42 99
51 209
57 79
66 229
77 64
86 245
95 46
109 255
117 34
132 265
140 24
157 265
165 27
180 255
183 45
203 60
203 243
218 80
218 223
230 200
235 99
253 190
258 109
278 188
283 109
293 168
306 119
317 160
331 119
342 155
356 115
367 160
381 114
392 165
406 109
417 160
431 105
442 160
456 99
467 159
481 100
489 147
506 99
513 140
531 94
538 143
555 102
558 128
