14 207
26 185
29 227
41 165
44 247
56 145
59 267
76 130
77 285
92 305
94 112
107 325
109 92
121 70
124 344
138 365
139 47
153 385
157 29
171 403
177 14
195 410
202 19
218 400
225 29
240 385
248 40
260 370
265 59
279 352
284 76
297 334
300 96
312 314
314 117
320 285
333 134
340 270
356 144
365 265
378 156
384 247
390 178
403 230
413 189
428 225
438 189
453 225
463 190
478 220
488 194
503 215
523 199
543 215
560 196
577 215
597 199
620 210
