14 167
14 192
26 214
29 147
35 238
44 127
54 255
62 109
69 275
80 91
86 294
99 72
106 309
119 57
124 327
139 42
142 345
161 30
164 357
184 19
186 369
209 14
211 365
234 16
236 360
256 29
256 345
276 44
276 330
291 64
291 310
300 275
309 82
310 107
310 250
314 132
326 154
333 240
346 169
353 223
366 184
377 215
391 184
402 215
416 184
427 210
441 184
455 205
475 189
495 205
515 189
535 205
555 189
571 209
591 194
614 205
