64 142
69 167
79 122
87 185
89 412
94 437
99 107
99 387
104 460
111 365
112 190
117 89
124 337
127 470
136 315
137 74
137 194
144 262
144 287
151 478
157 59
162 190
164 500
169 259
177 44
179 520
187 195
194 259
194 540
199 32
211 203
217 550
219 254
223 24
235 212
242 244
242 555
246 14
265 565
271 14
288 575
296 19
311 585
321 19
335 592
345 27
360 460
360 595
367 39
373 438
381 474
385 590
387 54
391 420
406 479
407 69
410 585
416 415
425 87
430 487
434 577
441 415
445 102
454 494
456 565
464 425
470 104
477 504
480 270
480 555
487 294
487 435
494 97
499 316
500 514
503 260
503 543
510 165
512 440
517 334
519 94
523 143
523 245
529 182
532 119
532 354
534 427
540 220
544 376
545 401
