104 332
104 357
109 287
119 377
133 279
143 385
151 260
164 182
164 207
167 394
169 232
182 164
192 400
194 467
207 164
210 418
214 482
216 454
229 176
230 230
235 201
239 480
251 244
262 470
275 236
287 465
299 229
311 473
324 224
330 490
349 219
355 490
374 224
380 490
399 229
405 490
423 236
430 485
447 244
455 485
469 256
479 232
480 485
504 229
505 480
525 345
528 468
529 229
530 370
530 395
537 419
543 448
550 345
554 229
575 345
579 231
580 256
580 281
580 306
