24 117
29 142
42 99
44 162
62 180
67 99
80 198
90 109
99 215
114 116
116 234
129 256
129 281
134 306
138 125
155 320
160 137
170 290
182 149
195 295
204 161
215 310
226 174
238 320
251 179
260 332
272 164
279 349
289 372
294 152
300 205
304 392
310 180
314 226
329 387
334 241
349 372
359 239
373 365
384 234
395 377
405 265
405 290
412 314
413 395
425 417
432 329
443 435
455 339
455 457
473 475
480 339
490 405
490 430
490 455
505 344
513 393
530 349
537 384
554 356
