24 72
36 94
46 59
49 116
64 136
69 69
82 154
90 83
100 172
112 95
115 192
119 217
119 242
132 110
134 262
152 125
159 257
170 143
184 260
190 159
201 279
210 174
219 297
230 189
241 309
253 199
261 324
269 348
278 199
285 368
295 240
303 205
304 385
309 261
327 279
329 380
352 284
354 380
374 395
375 294
391 414
395 330
395 355
398 305
404 436
409 376
419 456
431 389
431 478
446 498
453 401
469 508
470 465
475 413
495 460
498 424
520 437
529 461
