24 272
24 297
34 247
34 320
39 222
57 204
57 330
59 427
74 407
77 445
81 195
81 338
89 387
95 463
99 177
104 122
104 147
106 343
107 369
114 97
115 478
135 460
136 84
150 440
161 84
169 422
179 102
180 127
185 152
191 410
197 174
216 405
220 164
241 405
245 159
262 419
268 149
285 430
293 144
308 124
310 430
323 104
335 425
341 85
356 65
360 425
371 45
385 420
396 44
400 165
405 405
414 186
418 56
419 147
430 405
436 199
437 129
440 69
451 219
452 109
454 397
460 84
466 239
475 263
478 388
484 287
485 312
485 337
485 362
