134 632
152 650
156 619
169 412
177 650
179 389
181 619
189 362
193 420
202 650
204 327
206 619
218 413
219 302
227 650
231 625
234 282
239 117
239 142
239 167
239 197
239 552
242 405
244 257
244 482
244 507
244 577
249 220
252 650
254 92
256 460
259 597
264 432
265 395
269 620
276 79
277 649
290 575
290 600
299 69
315 575
323 76
338 565
339 637
347 84
349 588
349 613
361 650
365 102
365 380
370 345
370 410
380 122
380 433
380 600
380 625
385 147
385 172
385 458
385 483
386 650
389 387
390 330
390 515
390 575
393 355
401 409
405 627
407 534
410 171
410 315
413 565
415 650
417 364
419 427
425 290
429 152
429 619
432 384
432 534
437 445
438 565
440 408
440 652
448 280
449 132
454 616
455 463
457 534
463 565
465 409
465 435
465 657
473 124
473 285
479 617
482 529
488 565
490 409
490 435
490 650
498 124
498 285
504 492
504 517
510 550
516 470
523 124
523 278
524 442
533 538
536 420
540 255
545 140
545 510
550 470
551 400
555 220
560 160
560 185
560 427
566 380
586 365
