154 467
159 87
164 112
171 65
172 449
184 422
186 125
186 470
194 54
194 397
204 372
210 132
211 465
219 59
219 156
219 347
220 400
220 425
229 307
236 175
238 76
239 382
244 287
254 362
256 94
259 185
265 335
266 275
270 305
279 82
279 200
281 255
295 305
301 213
301 240
304 81
319 297
324 223
326 94
341 285
350 102
365 275
370 117
388 135
388 265
394 290
405 154
409 310
420 174
426 329
439 191
446 344
457 209
466 360
469 231
477 255
489 370
492 275
495 300
512 380
520 304
535 370
541 290
555 350
565 281
574 332
587 269
594 317
604 247
619 312
622 229
643 305
647 229
665 247
668 305
684 264
693 308
703 281
