49 222
54 247
59 192
74 167
76 260
98 159
99 270
116 140
121 283
129 87
129 112
134 372
139 62
139 301
156 360
159 316
161 49
171 380
186 49
194 370
200 125
205 66
205 100
217 380
221 139
242 375
246 139
264 392
269 129
282 410
286 380
294 127
307 415
319 127
332 415
344 129
357 415
367 139
382 415
392 144
407 414
412 159
430 177
432 409
450 192
457 410
470 207
478 231
480 400
487 255
490 345
492 370
495 279
495 315
