134 127
134 152
144 175
144 200
144 225
144 250
144 275
144 300
144 325
144 350
149 375
149 400
158 119
164 420
183 119
189 420
208 119
212 410
233 119
237 410
257 425
258 119
277 440
283 119
297 455
308 119
317 470
333 119
337 485
355 410
357 500
358 119
365 433
370 458
379 512
380 410
380 481
381 109
405 410
406 109
430 405
431 109
455 405
456 109
480 405
481 109
505 405
506 109
530 405
531 109
555 405
556 109
580 405
581 104
605 405
606 104
620 125
620 150
620 175
620 200
620 225
620 250
620 275
620 300
625 325
625 350
625 375
