84 232
89 207
89 257
99 280
104 177
104 305
121 324
124 157
141 339
142 139
164 127
164 572
166 343
174 549
184 517
185 360
188 119
189 492
199 552
201 470
206 445
209 367
210 525
211 109
214 412
226 390
230 505
236 104
250 490
259 94
269 472
284 89
287 454
299 432
309 89
315 410
332 79
340 405
357 79
365 405
380 89
390 405
405 89
411 419
430 89
431 435
446 455
455 94
462 475
478 104
482 490
499 509
500 380
503 109
505 405
515 428
519 525
520 365
526 119
530 448
530 548
535 473
545 360
545 496
549 565
550 521
551 124
565 345
566 584
571 139
585 330
591 154
605 315
609 172
620 295
624 192
630 217
630 265
640 240
