144 367
149 317
149 342
154 287
154 390
171 409
172 269
184 247
189 427
202 229
211 440
224 217
235 447
242 199
257 459
262 184
282 455
284 167
304 537
304 577
306 463
308 159
309 497
309 602
330 146
331 590
343 568
354 137
355 540
368 518
379 134
383 498
395 475
402 124
410 450
426 115
435 450
451 119
458 440
476 114
481 430
501 115
504 420
526 110
527 410
545 390
551 114
569 382
576 119
587 364
601 124
607 349
621 139
625 330
640 156
645 310
655 285
657 175
668 263
670 197
670 230
