159 137
159 162
159 187
159 212
159 237
159 262
164 287
164 312
174 112
176 334
190 355
196 100
215 360
221 99
238 370
244 89
263 370
269 84
288 370
294 84
313 370
319 84
338 370
344 84
361 360
369 84
386 360
394 84
411 360
419 84
435 367
444 84
449 388
454 413
464 436
469 79
474 459
494 79
497 469
509 447
519 79
520 410
540 385
544 79
559 367
569 84
581 355
594 89
605 335
613 106
625 128
625 315
630 153
630 178
630 203
630 228
630 253
630 278
