99 187
99 212
109 164
109 235
119 137
120 258
135 278
137 119
157 104
157 290
177 89
179 302
197 74
201 315
222 69
224 325
245 59
249 330
270 54
272 340
294 47
297 345
319 44
321 353
339 371
344 44
344 396
344 421
354 444
359 469
369 39
369 492
374 517
374 542
384 565
394 39
405 530
415 485
419 44
420 450
425 410
435 370
444 44
450 345
467 54
475 345
492 54
500 340
517 59
523 330
537 74
548 323
560 84
570 310
585 89
593 298
605 104
611 280
620 124
626 260
630 147
640 235
645 167
653 213
