154 252
154 277
164 342
166 230
169 297
169 367
179 207
181 389
199 172
199 407
211 150
219 122
221 420
241 110
244 430
259 450
261 94
279 465
286 89
304 470
311 89
319 492
319 517
319 547
324 572
329 597
331 470
336 89
352 69
354 597
372 579
377 64
385 545
402 69
408 533
410 495
427 74
435 490
442 54
460 480
465 44
483 468
488 54
498 448
511 64
516 430
532 450
536 64
552 44
555 440
575 54
578 430
595 405
598 64
605 375
610 86
620 109
620 355
643 345
645 114
658 136
660 161
660 205
660 320
670 228
680 251
680 290
