104 407
104 432
124 392
126 420
139 457
146 380
149 430
164 457
171 384
184 442
194 372
196 420
211 400
214 357
231 385
232 339
250 321
250 365
269 297
269 347
274 272
287 329
298 264
305 310
313 244
324 292
331 225
343 275
351 210
363 258
364 232
387 249
388 224
