124 157
129 182
144 202
148 149
156 224
165 168
169 246
177 190
184 266
189 212
199 286
204 232
209 309
216 254
224 329
230 275
238 350
247 294
250 372
259 316
265 392
269 417
270 339
274 442
284 465
285 359
304 480
305 374
310 440
323 463
329 381
345 401
346 453
350 426
