339 247
339 272
354 292
359 467
359 492
364 247
364 315
364 340
369 365
369 390
372 415
374 440
381 480
383 264
390 295
390 320
395 345
395 370
395 395
399 498
400 420
402 445
405 252
420 463
424 497
