149 112
154 137
164 160
173 104
179 180
186 204
190 123
201 224
205 143
210 248
217 165
224 269
230 187
234 292
242 209
246 314
249 382
254 231
254 407
259 336
259 432
264 361
269 251
274 452
277 275
290 297
290 425
305 317
315 340
315 422
324 446
329 361
347 379
348 438
359 401
