184 302
189 342
202 284
207 360
208 310
215 336
225 274
232 360
233 315
250 274
255 350
273 285
279 342
297 294
304 340
320 304
329 340
345 309
354 345
370 314
379 350
395 314
404 350
420 314
429 350
445 317
454 355
470 319
479 360
493 309
502 370
517 299
525 330
525 380
532 354
540 309
549 373
