14 47
24 24
24 70
47 14
47 80
67 95
72 19
87 110
97 19
109 122
114 272
115 37
119 247
127 140
135 52
136 164
136 285
137 229
151 184
152 209
159 42
161 280
184 39
185 270
195 245
209 39
218 255
232 29
238 270
257 24
261 280
282 29
286 285
307 29
309 295
332 29
334 300
355 39
359 300
378 50
384 305
402 59
409 310
409 362
421 340
424 71
429 377
442 89
454 377
460 107
478 368
479 124
480 305
490 335
495 144
504 297
514 161
525 184
529 300
535 207
539 232
540 270
552 310
