<?xml version="1.0" encoding="UTF-8" standalone="no"?>
<!-- Created with CurveBenchmark -->
<svg
	xmlns:dc="http://purl.org/dc/elements/1.1/"
	xmlns:cc="http://creativecommons.org/ns#"
	xmlns:rdf="http://www.w3.org/1999/02/22-rdf-syntax-ns#"
	xmlns:svg="http://www.w3.org/2000/svg"
	xmlns="http://www.w3.org/2000/svg"
	xmlns:sodipodi="http://sodipodi.sourceforge.net/DTD/sodipodi-0.dtd"
	xmlns:inkscape="http://www.inkscape.org/namespaces/inkscape"
	width="1000"
	height="1000"
	id="svg2"
	version="1.1"
	sodipodi:docname="noisy-0.003/ccrust-mc29.txt">
<defs
	id="defs4" />
<metadata
	id="metadata7">
	<rdf:RDF>
		<cc:Work
			rdf:about="">
			<dc:format>image/svg+xml</dc:format>
			<dc:type
				rdf:resource="http://purl.org/dc/dcmitype/StillImage" />
			<dc:title></dc:title>
		</cc:Work>
	</rdf:RDF>
</metadata>
<g
	inkscape:label="Layer 1"
	inkscape:groupmode="layer"
	id="layer1">
	<path style="fill:none;stroke:red;stroke-width:1px;stroke-linecap:butt;stroke-linejoin:miter;stroke-opacity:1" d="M 32.5975,268.078 15.8926,229.736 z" id="boundary" inkscape:connector-curvature="0" />
	<path style="fill:none;stroke:red;stroke-width:1px;stroke-linecap:butt;stroke-linejoin:miter;stroke-opacity:1" d="M 178.006,208.651 165.876,256.406 z" id="boundary" inkscape:connector-curvature="0" />
	<path style="fill:none;stroke:red;stroke-width:1px;stroke-linecap:butt;stroke-linejoin:miter;stroke-opacity:1" d="M 178.006,208.651 186.204,160.359 z" id="boundary" inkscape:connector-curvature="0" />
	<path style="fill:none;stroke:red;stroke-width:1px;stroke-linecap:butt;stroke-linejoin:miter;stroke-opacity:1" d="M 197.88,108.465 186.204,160.359 z" id="boundary" inkscape:connector-curvature="0" />
	<path style="fill:none;stroke:red;stroke-width:1px;stroke-linecap:butt;stroke-linejoin:miter;stroke-opacity:1" d="M 202.371,73.6194 197.88,108.465 z" id="boundary" inkscape:connector-curvature="0" />
	<path style="fill:none;stroke:red;stroke-width:1px;stroke-linecap:butt;stroke-linejoin:miter;stroke-opacity:1" d="M 155.307,301.777 165.876,256.406 z" id="boundary" inkscape:connector-curvature="0" />
	<path style="fill:none;stroke:red;stroke-width:1px;stroke-linecap:butt;stroke-linejoin:miter;stroke-opacity:1" d="M 32.5975,268.078 47.2317,290.749 z" id="boundary" inkscape:connector-curvature="0" />
	<path style="fill:none;stroke:red;stroke-width:1px;stroke-linecap:butt;stroke-linejoin:miter;stroke-opacity:1" d="M 57.3474,316.153 47.2317,290.749 z" id="boundary" inkscape:connector-curvature="0" />
	<path style="fill:none;stroke:red;stroke-width:1px;stroke-linecap:butt;stroke-linejoin:miter;stroke-opacity:1" d="M 7.20912,424.408 4,324.451 z" id="boundary" inkscape:connector-curvature="0" />
	<path style="fill:none;stroke:red;stroke-width:1px;stroke-linecap:butt;stroke-linejoin:miter;stroke-opacity:1" d="M 94.446,340.78 57.3474,316.153 z" id="boundary" inkscape:connector-curvature="0" />
	<path style="fill:none;stroke:red;stroke-width:1px;stroke-linecap:butt;stroke-linejoin:miter;stroke-opacity:1" d="M 215.762,20.2667 227.675,52.993 z" id="boundary" inkscape:connector-curvature="0" />
	<path style="fill:none;stroke:red;stroke-width:1px;stroke-linecap:butt;stroke-linejoin:miter;stroke-opacity:1" d="M 235.057,76.8546 242.523,109.258 z" id="boundary" inkscape:connector-curvature="0" />
	<path style="fill:none;stroke:red;stroke-width:1px;stroke-linecap:butt;stroke-linejoin:miter;stroke-opacity:1" d="M 235.057,76.8546 227.675,52.993 z" id="boundary" inkscape:connector-curvature="0" />
	<path style="fill:none;stroke:red;stroke-width:1px;stroke-linecap:butt;stroke-linejoin:miter;stroke-opacity:1" d="M 243.39,147.158 242.523,109.258 z" id="boundary" inkscape:connector-curvature="0" />
	<path style="fill:none;stroke:red;stroke-width:1px;stroke-linecap:butt;stroke-linejoin:miter;stroke-opacity:1" d="M 252.931,173.834 259.266,211.945 z" id="boundary" inkscape:connector-curvature="0" />
	<path style="fill:none;stroke:red;stroke-width:1px;stroke-linecap:butt;stroke-linejoin:miter;stroke-opacity:1" d="M 252.931,173.834 243.39,147.158 z" id="boundary" inkscape:connector-curvature="0" />
	<path style="fill:none;stroke:red;stroke-width:1px;stroke-linecap:butt;stroke-linejoin:miter;stroke-opacity:1" d="M 276.64,268.857 284.886,315.47 z" id="boundary" inkscape:connector-curvature="0" />
	<path style="fill:none;stroke:red;stroke-width:1px;stroke-linecap:butt;stroke-linejoin:miter;stroke-opacity:1" d="M 311.051,327.501 284.886,315.47 z" id="boundary" inkscape:connector-curvature="0" />
	<path style="fill:none;stroke:red;stroke-width:1px;stroke-linecap:butt;stroke-linejoin:miter;stroke-opacity:1" d="M 259.266,211.945 276.64,268.857 z" id="boundary" inkscape:connector-curvature="0" />
	<path style="fill:none;stroke:red;stroke-width:1px;stroke-linecap:butt;stroke-linejoin:miter;stroke-opacity:1" d="M 35.503,503.601 7.20912,424.408 z" id="boundary" inkscape:connector-curvature="0" />
	<path style="fill:none;stroke:red;stroke-width:1px;stroke-linecap:butt;stroke-linejoin:miter;stroke-opacity:1" d="M 243.217,450.794 226.993,472.047 z" id="boundary" inkscape:connector-curvature="0" />
	<path style="fill:none;stroke:red;stroke-width:1px;stroke-linecap:butt;stroke-linejoin:miter;stroke-opacity:1" d="M 130.339,337.953 155.307,301.777 z" id="boundary" inkscape:connector-curvature="0" />
	<path style="fill:none;stroke:red;stroke-width:1px;stroke-linecap:butt;stroke-linejoin:miter;stroke-opacity:1" d="M 94.446,340.78 130.339,337.953 z" id="boundary" inkscape:connector-curvature="0" />
	<path style="fill:none;stroke:red;stroke-width:1px;stroke-linecap:butt;stroke-linejoin:miter;stroke-opacity:1" d="M 35.503,503.601 114.666,553.062 z" id="boundary" inkscape:connector-curvature="0" />
	<path style="fill:none;stroke:red;stroke-width:1px;stroke-linecap:butt;stroke-linejoin:miter;stroke-opacity:1" d="M 234.963,617.104 171.971,598.436 z" id="boundary" inkscape:connector-curvature="0" />
	<path style="fill:none;stroke:red;stroke-width:1px;stroke-linecap:butt;stroke-linejoin:miter;stroke-opacity:1" d="M 171.971,598.436 114.666,553.062 z" id="boundary" inkscape:connector-curvature="0" />
	<path style="fill:none;stroke:red;stroke-width:1px;stroke-linecap:butt;stroke-linejoin:miter;stroke-opacity:1" d="M 260.134,476.396 300.723,480.099 z" id="boundary" inkscape:connector-curvature="0" />
	<path style="fill:none;stroke:red;stroke-width:1px;stroke-linecap:butt;stroke-linejoin:miter;stroke-opacity:1" d="M 243.217,450.794 266.88,442.393 z" id="boundary" inkscape:connector-curvature="0" />
	<path style="fill:none;stroke:red;stroke-width:1px;stroke-linecap:butt;stroke-linejoin:miter;stroke-opacity:1" d="M 266.88,442.393 294.103,435.326 z" id="boundary" inkscape:connector-curvature="0" />
	<path style="fill:none;stroke:red;stroke-width:1px;stroke-linecap:butt;stroke-linejoin:miter;stroke-opacity:1" d="M 294.103,435.326 327.057,435.26 z" id="boundary" inkscape:connector-curvature="0" />
	<path style="fill:none;stroke:red;stroke-width:1px;stroke-linecap:butt;stroke-linejoin:miter;stroke-opacity:1" d="M 311.051,327.501 338.134,343.729 z" id="boundary" inkscape:connector-curvature="0" />
	<path style="fill:none;stroke:red;stroke-width:1px;stroke-linecap:butt;stroke-linejoin:miter;stroke-opacity:1" d="M 289.523,645.98 234.963,617.104 z" id="boundary" inkscape:connector-curvature="0" />
	<path style="fill:none;stroke:red;stroke-width:1px;stroke-linecap:butt;stroke-linejoin:miter;stroke-opacity:1" d="M 289.523,645.98 296.205,686.987 z" id="boundary" inkscape:connector-curvature="0" />
	<path style="fill:none;stroke:red;stroke-width:1px;stroke-linecap:butt;stroke-linejoin:miter;stroke-opacity:1" d="M 296.205,686.987 290.354,738.865 z" id="boundary" inkscape:connector-curvature="0" />
	<path style="fill:none;stroke:red;stroke-width:1px;stroke-linecap:butt;stroke-linejoin:miter;stroke-opacity:1" d="M 359.956,820.747 294.808,821.432 z" id="boundary" inkscape:connector-curvature="0" />
	<path style="fill:none;stroke:red;stroke-width:1px;stroke-linecap:butt;stroke-linejoin:miter;stroke-opacity:1" d="M 294.808,821.432 290.354,738.865 z" id="boundary" inkscape:connector-curvature="0" />
	<path style="fill:none;stroke:red;stroke-width:1px;stroke-linecap:butt;stroke-linejoin:miter;stroke-opacity:1" d="M 341.939,473.246 300.723,480.099 z" id="boundary" inkscape:connector-curvature="0" />
	<path style="fill:none;stroke:red;stroke-width:1px;stroke-linecap:butt;stroke-linejoin:miter;stroke-opacity:1" d="M 421.955,62.2398 437.222,74.4096 z" id="boundary" inkscape:connector-curvature="0" />
	<path style="fill:none;stroke:red;stroke-width:1px;stroke-linecap:butt;stroke-linejoin:miter;stroke-opacity:1" d="M 437.222,74.4096 421.788,93.4935 z" id="boundary" inkscape:connector-curvature="0" />
	<path style="fill:none;stroke:red;stroke-width:1px;stroke-linecap:butt;stroke-linejoin:miter;stroke-opacity:1" d="M 425.332,33.2756 428.645,4 z" id="boundary" inkscape:connector-curvature="0" />
	<path style="fill:none;stroke:red;stroke-width:1px;stroke-linecap:butt;stroke-linejoin:miter;stroke-opacity:1" d="M 425.332,33.2756 421.955,62.2398 z" id="boundary" inkscape:connector-curvature="0" />
	<path style="fill:none;stroke:red;stroke-width:1px;stroke-linecap:butt;stroke-linejoin:miter;stroke-opacity:1" d="M 421.788,93.4935 443.557,113.674 z" id="boundary" inkscape:connector-curvature="0" />
	<path style="fill:none;stroke:red;stroke-width:1px;stroke-linecap:butt;stroke-linejoin:miter;stroke-opacity:1" d="M 401.39,283.505 402.403,260.511 z" id="boundary" inkscape:connector-curvature="0" />
	<path style="fill:none;stroke:red;stroke-width:1px;stroke-linecap:butt;stroke-linejoin:miter;stroke-opacity:1" d="M 408.195,208.479 402.403,260.511 z" id="boundary" inkscape:connector-curvature="0" />
	<path style="fill:none;stroke:red;stroke-width:1px;stroke-linecap:butt;stroke-linejoin:miter;stroke-opacity:1" d="M 409.705,170.342 408.195,208.479 z" id="boundary" inkscape:connector-curvature="0" />
	<path style="fill:none;stroke:red;stroke-width:1px;stroke-linecap:butt;stroke-linejoin:miter;stroke-opacity:1" d="M 451.198,155.868 449.702,191.402 z" id="boundary" inkscape:connector-curvature="0" />
	<path style="fill:none;stroke:red;stroke-width:1px;stroke-linecap:butt;stroke-linejoin:miter;stroke-opacity:1" d="M 461.37,248.168 457.564,217.335 z" id="boundary" inkscape:connector-curvature="0" />
	<path style="fill:none;stroke:red;stroke-width:1px;stroke-linecap:butt;stroke-linejoin:miter;stroke-opacity:1" d="M 457.564,217.335 449.702,191.402 z" id="boundary" inkscape:connector-curvature="0" />
	<path style="fill:none;stroke:red;stroke-width:1px;stroke-linecap:butt;stroke-linejoin:miter;stroke-opacity:1" d="M 461.37,248.168 465.795,280.766 z" id="boundary" inkscape:connector-curvature="0" />
	<path style="fill:none;stroke:red;stroke-width:1px;stroke-linecap:butt;stroke-linejoin:miter;stroke-opacity:1" d="M 481.318,305.498 465.795,280.766 z" id="boundary" inkscape:connector-curvature="0" />
	<path style="fill:none;stroke:red;stroke-width:1px;stroke-linecap:butt;stroke-linejoin:miter;stroke-opacity:1" d="M 528.652,322.332 481.318,305.498 z" id="boundary" inkscape:connector-curvature="0" />
	<path style="fill:none;stroke:red;stroke-width:1px;stroke-linecap:butt;stroke-linejoin:miter;stroke-opacity:1" d="M 609.528,293.438 626.449,266.312 z" id="boundary" inkscape:connector-curvature="0" />
	<path style="fill:none;stroke:red;stroke-width:1px;stroke-linecap:butt;stroke-linejoin:miter;stroke-opacity:1" d="M 641.128,325.871 609.528,293.438 z" id="boundary" inkscape:connector-curvature="0" />
	<path style="fill:none;stroke:red;stroke-width:1px;stroke-linecap:butt;stroke-linejoin:miter;stroke-opacity:1" d="M 609.528,293.438 567.428,317.899 z" id="boundary" inkscape:connector-curvature="0" />
	<path style="fill:none;stroke:red;stroke-width:1px;stroke-linecap:butt;stroke-linejoin:miter;stroke-opacity:1" d="M 635.971,229.154 626.449,266.312 z" id="boundary" inkscape:connector-curvature="0" />
	<path style="fill:none;stroke:red;stroke-width:1px;stroke-linecap:butt;stroke-linejoin:miter;stroke-opacity:1" d="M 398.257,312.833 401.39,283.505 z" id="boundary" inkscape:connector-curvature="0" />
	<path style="fill:none;stroke:red;stroke-width:1px;stroke-linecap:butt;stroke-linejoin:miter;stroke-opacity:1" d="M 350.636,436.205 327.057,435.26 z" id="boundary" inkscape:connector-curvature="0" />
	<path style="fill:none;stroke:red;stroke-width:1px;stroke-linecap:butt;stroke-linejoin:miter;stroke-opacity:1" d="M 350.636,436.205 382.401,440.954 z" id="boundary" inkscape:connector-curvature="0" />
	<path style="fill:none;stroke:red;stroke-width:1px;stroke-linecap:butt;stroke-linejoin:miter;stroke-opacity:1" d="M 338.134,343.729 372.37,327.477 z" id="boundary" inkscape:connector-curvature="0" />
	<path style="fill:none;stroke:red;stroke-width:1px;stroke-linecap:butt;stroke-linejoin:miter;stroke-opacity:1" d="M 378.222,466.496 341.939,473.246 z" id="boundary" inkscape:connector-curvature="0" />
	<path style="fill:none;stroke:red;stroke-width:1px;stroke-linecap:butt;stroke-linejoin:miter;stroke-opacity:1" d="M 406.78,619.475 367.664,673.629 z" id="boundary" inkscape:connector-curvature="0" />
	<path style="fill:none;stroke:red;stroke-width:1px;stroke-linecap:butt;stroke-linejoin:miter;stroke-opacity:1" d="M 368.12,963.321 365.509,996 z" id="boundary" inkscape:connector-curvature="0" />
	<path style="fill:none;stroke:red;stroke-width:1px;stroke-linecap:butt;stroke-linejoin:miter;stroke-opacity:1" d="M 361.862,723.428 367.664,673.629 z" id="boundary" inkscape:connector-curvature="0" />
	<path style="fill:none;stroke:red;stroke-width:1px;stroke-linecap:butt;stroke-linejoin:miter;stroke-opacity:1" d="M 641.128,325.871 625.123,401.542 z" id="boundary" inkscape:connector-curvature="0" />
	<path style="fill:none;stroke:red;stroke-width:1px;stroke-linecap:butt;stroke-linejoin:miter;stroke-opacity:1" d="M 528.652,322.332 567.428,317.899 z" id="boundary" inkscape:connector-curvature="0" />
	<path style="fill:none;stroke:red;stroke-width:1px;stroke-linecap:butt;stroke-linejoin:miter;stroke-opacity:1" d="M 625.123,401.542 587.979,484.733 z" id="boundary" inkscape:connector-curvature="0" />
	<path style="fill:none;stroke:red;stroke-width:1px;stroke-linecap:butt;stroke-linejoin:miter;stroke-opacity:1" d="M 402.077,451.795 382.401,440.954 z" id="boundary" inkscape:connector-curvature="0" />
	<path style="fill:none;stroke:red;stroke-width:1px;stroke-linecap:butt;stroke-linejoin:miter;stroke-opacity:1" d="M 444.568,598.931 406.78,619.475 z" id="boundary" inkscape:connector-curvature="0" />
	<path style="fill:none;stroke:red;stroke-width:1px;stroke-linecap:butt;stroke-linejoin:miter;stroke-opacity:1" d="M 558.794,540.381 444.568,598.931 z" id="boundary" inkscape:connector-curvature="0" />
	<path style="fill:none;stroke:red;stroke-width:1px;stroke-linecap:butt;stroke-linejoin:miter;stroke-opacity:1" d="M 587.979,484.733 558.794,540.381 z" id="boundary" inkscape:connector-curvature="0" />
	<path style="fill:none;stroke:red;stroke-width:1px;stroke-linecap:butt;stroke-linejoin:miter;stroke-opacity:1" d="M 372.37,327.477 398.257,312.833 z" id="boundary" inkscape:connector-curvature="0" />
	<circle cx="359.956" cy="820.747" r="4" fill="#0" id="circle0"/>
	<circle cx="294.808" cy="821.432" r="4" fill="#0" id="circle1"/>
	<circle cx="290.354" cy="738.865" r="4" fill="#0" id="circle2"/>
	<circle cx="296.205" cy="686.987" r="4" fill="#0" id="circle3"/>
	<circle cx="289.523" cy="645.98" r="4" fill="#0" id="circle4"/>
	<circle cx="234.963" cy="617.104" r="4" fill="#0" id="circle5"/>
	<circle cx="171.971" cy="598.436" r="4" fill="#0" id="circle6"/>
	<circle cx="114.666" cy="553.062" r="4" fill="#0" id="circle7"/>
	<circle cx="35.503" cy="503.601" r="4" fill="#0" id="circle8"/>
	<circle cx="7.20912" cy="424.408" r="4" fill="#0" id="circle9"/>
	<circle cx="4" cy="324.451" r="4" fill="#0" id="circle10"/>
	<circle cx="47.2317" cy="290.749" r="4" fill="#0" id="circle11"/>
	<circle cx="57.3474" cy="316.153" r="4" fill="#0" id="circle12"/>
	<circle cx="94.446" cy="340.78" r="4" fill="#0" id="circle13"/>
	<circle cx="130.339" cy="337.953" r="4" fill="#0" id="circle14"/>
	<circle cx="155.307" cy="301.777" r="4" fill="#0" id="circle15"/>
	<circle cx="165.876" cy="256.406" r="4" fill="#0" id="circle16"/>
	<circle cx="178.006" cy="208.651" r="4" fill="#0" id="circle17"/>
	<circle cx="186.204" cy="160.359" r="4" fill="#0" id="circle18"/>
	<circle cx="197.88" cy="108.465" r="4" fill="#0" id="circle19"/>
	<circle cx="202.371" cy="73.6194" r="4" fill="#0" id="circle20"/>
	<circle cx="235.057" cy="76.8546" r="4" fill="#0" id="circle21"/>
	<circle cx="227.675" cy="52.993" r="4" fill="#0" id="circle22"/>
	<circle cx="215.762" cy="20.2667" r="4" fill="#0" id="circle23"/>
	<circle cx="242.523" cy="109.258" r="4" fill="#0" id="circle24"/>
	<circle cx="243.39" cy="147.158" r="4" fill="#0" id="circle25"/>
	<circle cx="252.931" cy="173.834" r="4" fill="#0" id="circle26"/>
	<circle cx="259.266" cy="211.945" r="4" fill="#0" id="circle27"/>
	<circle cx="276.64" cy="268.857" r="4" fill="#0" id="circle28"/>
	<circle cx="284.886" cy="315.47" r="4" fill="#0" id="circle29"/>
	<circle cx="311.051" cy="327.501" r="4" fill="#0" id="circle30"/>
	<circle cx="338.134" cy="343.729" r="4" fill="#0" id="circle31"/>
	<circle cx="372.37" cy="327.477" r="4" fill="#0" id="circle32"/>
	<circle cx="398.257" cy="312.833" r="4" fill="#0" id="circle33"/>
	<circle cx="401.39" cy="283.505" r="4" fill="#0" id="circle34"/>
	<circle cx="402.403" cy="260.511" r="4" fill="#0" id="circle35"/>
	<circle cx="408.195" cy="208.479" r="4" fill="#0" id="circle36"/>
	<circle cx="409.705" cy="170.342" r="4" fill="#0" id="circle37"/>
	<circle cx="451.198" cy="155.868" r="4" fill="#0" id="circle38"/>
	<circle cx="449.702" cy="191.402" r="4" fill="#0" id="circle39"/>
	<circle cx="457.564" cy="217.335" r="4" fill="#0" id="circle40"/>
	<circle cx="461.37" cy="248.168" r="4" fill="#0" id="circle41"/>
	<circle cx="465.795" cy="280.766" r="4" fill="#0" id="circle42"/>
	<circle cx="481.318" cy="305.498" r="4" fill="#0" id="circle43"/>
	<circle cx="528.652" cy="322.332" r="4" fill="#0" id="circle44"/>
	<circle cx="567.428" cy="317.899" r="4" fill="#0" id="circle45"/>
	<circle cx="609.528" cy="293.438" r="4" fill="#0" id="circle46"/>
	<circle cx="626.449" cy="266.312" r="4" fill="#0" id="circle47"/>
	<circle cx="635.971" cy="229.154" r="4" fill="#0" id="circle48"/>
	<circle cx="641.128" cy="325.871" r="4" fill="#0" id="circle49"/>
	<circle cx="625.123" cy="401.542" r="4" fill="#0" id="circle50"/>
	<circle cx="587.979" cy="484.733" r="4" fill="#0" id="circle51"/>
	<circle cx="558.794" cy="540.381" r="4" fill="#0" id="circle52"/>
	<circle cx="444.568" cy="598.931" r="4" fill="#0" id="circle53"/>
	<circle cx="406.78" cy="619.475" r="4" fill="#0" id="circle54"/>
	<circle cx="367.664" cy="673.629" r="4" fill="#0" id="circle55"/>
	<circle cx="361.862" cy="723.428" r="4" fill="#0" id="circle56"/>
	<circle cx="368.12" cy="963.321" r="4" fill="#0" id="circle57"/>
	<circle cx="365.509" cy="996" r="4" fill="#0" id="circle58"/>
	<circle cx="300.922" cy="990.758" r="4" fill="#0" id="circle59"/>
	<circle cx="300.723" cy="480.099" r="4" fill="#0" id="circle60"/>
	<circle cx="260.134" cy="476.396" r="4" fill="#0" id="circle61"/>
	<circle cx="243.217" cy="450.794" r="4" fill="#0" id="circle62"/>
	<circle cx="266.88" cy="442.393" r="4" fill="#0" id="circle63"/>
	<circle cx="294.103" cy="435.326" r="4" fill="#0" id="circle64"/>
	<circle cx="327.057" cy="435.26" r="4" fill="#0" id="circle65"/>
	<circle cx="350.636" cy="436.205" r="4" fill="#0" id="circle66"/>
	<circle cx="382.401" cy="440.954" r="4" fill="#0" id="circle67"/>
	<circle cx="402.077" cy="451.795" r="4" fill="#0" id="circle68"/>
	<circle cx="378.222" cy="466.496" r="4" fill="#0" id="circle69"/>
	<circle cx="341.939" cy="473.246" r="4" fill="#0" id="circle70"/>
	<circle cx="226.993" cy="472.047" r="4" fill="#0" id="circle71"/>
	<circle cx="32.5975" cy="268.078" r="4" fill="#0" id="circle72"/>
	<circle cx="15.8926" cy="229.736" r="4" fill="#0" id="circle73"/>
	<circle cx="414.72" cy="125.541" r="4" fill="#0" id="circle74"/>
	<circle cx="443.557" cy="113.674" r="4" fill="#0" id="circle75"/>
	<circle cx="421.788" cy="93.4935" r="4" fill="#0" id="circle76"/>
	<circle cx="437.222" cy="74.4096" r="4" fill="#0" id="circle77"/>
	<circle cx="421.955" cy="62.2398" r="4" fill="#0" id="circle78"/>
	<circle cx="425.332" cy="33.2756" r="4" fill="#0" id="circle79"/>
	<circle cx="428.645" cy="4" r="4" fill="#0" id="circle80"/>
	</g>
</svg>