<?xml version="1.0" encoding="UTF-8" standalone="no"?>
<!-- Created with CurveBenchmark -->
<svg
	xmlns:dc="http://purl.org/dc/elements/1.1/"
	xmlns:cc="http://creativecommons.org/ns#"
	xmlns:rdf="http://www.w3.org/1999/02/22-rdf-syntax-ns#"
	xmlns:svg="http://www.w3.org/2000/svg"
	xmlns="http://www.w3.org/2000/svg"
	xmlns:sodipodi="http://sodipodi.sourceforge.net/DTD/sodipodi-0.dtd"
	xmlns:inkscape="http://www.inkscape.org/namespaces/inkscape"
	width="1000"
	height="1000"
	id="svg2"
	version="1.1"
	sodipodi:docname="noisy-0.003/connect2d-mc32.txt">
<defs
	id="defs4" />
<metadata
	id="metadata7">
	<rdf:RDF>
		<cc:Work
			rdf:about="">
			<dc:format>image/svg+xml</dc:format>
			<dc:type
				rdf:resource="http://purl.org/dc/dcmitype/StillImage" />
			<dc:title></dc:title>
		</cc:Work>
	</rdf:RDF>
</metadata>
<g
	inkscape:label="Layer 1"
	inkscape:groupmode="layer"
	id="layer1">
	<path style="fill:none;stroke:red;stroke-width:1px;stroke-linecap:butt;stroke-linejoin:miter;stroke-opacity:1" d="M 171.758,782.413 149.526,759.741 z" id="boundary" inkscape:connector-curvature="0" />
	<path style="fill:none;stroke:red;stroke-width:1px;stroke-linecap:butt;stroke-linejoin:miter;stroke-opacity:1" d="M 149.526,759.741 126.744,745.76 z" id="boundary" inkscape:connector-curvature="0" />
	<path style="fill:none;stroke:red;stroke-width:1px;stroke-linecap:butt;stroke-linejoin:miter;stroke-opacity:1" d="M 126.744,745.76 110.457,726.547 z" id="boundary" inkscape:connector-curvature="0" />
	<path style="fill:none;stroke:red;stroke-width:1px;stroke-linecap:butt;stroke-linejoin:miter;stroke-opacity:1" d="M 110.457,726.547 119.007,690.991 z" id="boundary" inkscape:connector-curvature="0" />
	<path style="fill:none;stroke:red;stroke-width:1px;stroke-linecap:butt;stroke-linejoin:miter;stroke-opacity:1" d="M 119.007,690.991 145.522,712.714 z" id="boundary" inkscape:connector-curvature="0" />
	<path style="fill:none;stroke:red;stroke-width:1px;stroke-linecap:butt;stroke-linejoin:miter;stroke-opacity:1" d="M 145.522,712.714 181.261,725.092 z" id="boundary" inkscape:connector-curvature="0" />
	<path style="fill:none;stroke:red;stroke-width:1px;stroke-linecap:butt;stroke-linejoin:miter;stroke-opacity:1" d="M 181.261,725.092 211.514,746.687 z" id="boundary" inkscape:connector-curvature="0" />
	<path style="fill:none;stroke:red;stroke-width:1px;stroke-linecap:butt;stroke-linejoin:miter;stroke-opacity:1" d="M 211.514,746.687 252.947,752.011 z" id="boundary" inkscape:connector-curvature="0" />
	<path style="fill:none;stroke:red;stroke-width:1px;stroke-linecap:butt;stroke-linejoin:miter;stroke-opacity:1" d="M 252.947,752.011 299.613,754.887 z" id="boundary" inkscape:connector-curvature="0" />
	<path style="fill:none;stroke:red;stroke-width:1px;stroke-linecap:butt;stroke-linejoin:miter;stroke-opacity:1" d="M 299.613,754.887 352.218,753.029 z" id="boundary" inkscape:connector-curvature="0" />
	<path style="fill:none;stroke:red;stroke-width:1px;stroke-linecap:butt;stroke-linejoin:miter;stroke-opacity:1" d="M 352.218,753.029 404.642,753.999 z" id="boundary" inkscape:connector-curvature="0" />
	<path style="fill:none;stroke:red;stroke-width:1px;stroke-linecap:butt;stroke-linejoin:miter;stroke-opacity:1" d="M 404.642,753.999 453.465,750.653 z" id="boundary" inkscape:connector-curvature="0" />
	<path style="fill:none;stroke:red;stroke-width:1px;stroke-linecap:butt;stroke-linejoin:miter;stroke-opacity:1" d="M 453.465,750.653 510.625,751.221 z" id="boundary" inkscape:connector-curvature="0" />
	<path style="fill:none;stroke:red;stroke-width:1px;stroke-linecap:butt;stroke-linejoin:miter;stroke-opacity:1" d="M 510.625,751.221 568.935,740.877 z" id="boundary" inkscape:connector-curvature="0" />
	<path style="fill:none;stroke:red;stroke-width:1px;stroke-linecap:butt;stroke-linejoin:miter;stroke-opacity:1" d="M 568.935,740.877 627.407,731.947 z" id="boundary" inkscape:connector-curvature="0" />
	<path style="fill:none;stroke:red;stroke-width:1px;stroke-linecap:butt;stroke-linejoin:miter;stroke-opacity:1" d="M 627.407,731.947 692.156,714.702 z" id="boundary" inkscape:connector-curvature="0" />
	<path style="fill:none;stroke:red;stroke-width:1px;stroke-linecap:butt;stroke-linejoin:miter;stroke-opacity:1" d="M 692.156,714.702 750.734,680.621 z" id="boundary" inkscape:connector-curvature="0" />
	<path style="fill:none;stroke:red;stroke-width:1px;stroke-linecap:butt;stroke-linejoin:miter;stroke-opacity:1" d="M 750.734,680.621 810.753,611.192 z" id="boundary" inkscape:connector-curvature="0" />
	<path style="fill:none;stroke:red;stroke-width:1px;stroke-linecap:butt;stroke-linejoin:miter;stroke-opacity:1" d="M 810.753,611.192 754.341,547.091 z" id="boundary" inkscape:connector-curvature="0" />
	<path style="fill:none;stroke:red;stroke-width:1px;stroke-linecap:butt;stroke-linejoin:miter;stroke-opacity:1" d="M 754.341,547.091 658.658,499.842 z" id="boundary" inkscape:connector-curvature="0" />
	<path style="fill:none;stroke:red;stroke-width:1px;stroke-linecap:butt;stroke-linejoin:miter;stroke-opacity:1" d="M 658.658,499.842 600.078,418.487 z" id="boundary" inkscape:connector-curvature="0" />
	<path style="fill:none;stroke:red;stroke-width:1px;stroke-linecap:butt;stroke-linejoin:miter;stroke-opacity:1" d="M 600.078,418.487 535.073,345.423 z" id="boundary" inkscape:connector-curvature="0" />
	<path style="fill:none;stroke:red;stroke-width:1px;stroke-linecap:butt;stroke-linejoin:miter;stroke-opacity:1" d="M 535.073,345.423 505.661,386.621 z" id="boundary" inkscape:connector-curvature="0" />
	<path style="fill:none;stroke:red;stroke-width:1px;stroke-linecap:butt;stroke-linejoin:miter;stroke-opacity:1" d="M 505.661,386.621 471.815,453.007 z" id="boundary" inkscape:connector-curvature="0" />
	<path style="fill:none;stroke:red;stroke-width:1px;stroke-linecap:butt;stroke-linejoin:miter;stroke-opacity:1" d="M 471.815,453.007 445.661,516.256 z" id="boundary" inkscape:connector-curvature="0" />
	<path style="fill:none;stroke:red;stroke-width:1px;stroke-linecap:butt;stroke-linejoin:miter;stroke-opacity:1" d="M 445.661,516.256 417.625,571.635 z" id="boundary" inkscape:connector-curvature="0" />
	<path style="fill:none;stroke:red;stroke-width:1px;stroke-linecap:butt;stroke-linejoin:miter;stroke-opacity:1" d="M 417.625,571.635 376.75,586.759 z" id="boundary" inkscape:connector-curvature="0" />
	<path style="fill:none;stroke:red;stroke-width:1px;stroke-linecap:butt;stroke-linejoin:miter;stroke-opacity:1" d="M 376.75,586.759 322.117,580.46 z" id="boundary" inkscape:connector-curvature="0" />
	<path style="fill:none;stroke:red;stroke-width:1px;stroke-linecap:butt;stroke-linejoin:miter;stroke-opacity:1" d="M 322.117,580.46 324.999,540.478 z" id="boundary" inkscape:connector-curvature="0" />
	<path style="fill:none;stroke:red;stroke-width:1px;stroke-linecap:butt;stroke-linejoin:miter;stroke-opacity:1" d="M 324.999,540.478 374.082,499.668 z" id="boundary" inkscape:connector-curvature="0" />
	<path style="fill:none;stroke:red;stroke-width:1px;stroke-linecap:butt;stroke-linejoin:miter;stroke-opacity:1" d="M 374.082,499.668 391.956,437.746 z" id="boundary" inkscape:connector-curvature="0" />
	<path style="fill:none;stroke:red;stroke-width:1px;stroke-linecap:butt;stroke-linejoin:miter;stroke-opacity:1" d="M 391.956,437.746 413.572,376.447 z" id="boundary" inkscape:connector-curvature="0" />
	<path style="fill:none;stroke:red;stroke-width:1px;stroke-linecap:butt;stroke-linejoin:miter;stroke-opacity:1" d="M 413.572,376.447 404.176,302.594 z" id="boundary" inkscape:connector-curvature="0" />
	<path style="fill:none;stroke:red;stroke-width:1px;stroke-linecap:butt;stroke-linejoin:miter;stroke-opacity:1" d="M 404.176,302.594 354.934,332.065 z" id="boundary" inkscape:connector-curvature="0" />
	<path style="fill:none;stroke:red;stroke-width:1px;stroke-linecap:butt;stroke-linejoin:miter;stroke-opacity:1" d="M 354.934,332.065 293.545,344.461 z" id="boundary" inkscape:connector-curvature="0" />
	<path style="fill:none;stroke:red;stroke-width:1px;stroke-linecap:butt;stroke-linejoin:miter;stroke-opacity:1" d="M 293.545,344.461 237.516,321.415 z" id="boundary" inkscape:connector-curvature="0" />
	<path style="fill:none;stroke:red;stroke-width:1px;stroke-linecap:butt;stroke-linejoin:miter;stroke-opacity:1" d="M 237.516,321.415 192.392,319.941 z" id="boundary" inkscape:connector-curvature="0" />
	<path style="fill:none;stroke:red;stroke-width:1px;stroke-linecap:butt;stroke-linejoin:miter;stroke-opacity:1" d="M 192.392,319.941 138.93,327.027 z" id="boundary" inkscape:connector-curvature="0" />
	<path style="fill:none;stroke:red;stroke-width:1px;stroke-linecap:butt;stroke-linejoin:miter;stroke-opacity:1" d="M 138.93,327.027 101.671,327.404 z" id="boundary" inkscape:connector-curvature="0" />
	<path style="fill:none;stroke:red;stroke-width:1px;stroke-linecap:butt;stroke-linejoin:miter;stroke-opacity:1" d="M 101.671,327.404 34.1158,324.917 z" id="boundary" inkscape:connector-curvature="0" />
	<path style="fill:none;stroke:red;stroke-width:1px;stroke-linecap:butt;stroke-linejoin:miter;stroke-opacity:1" d="M 34.1158,324.917 8.50213,292.064 z" id="boundary" inkscape:connector-curvature="0" />
	<path style="fill:none;stroke:red;stroke-width:1px;stroke-linecap:butt;stroke-linejoin:miter;stroke-opacity:1" d="M 8.50213,292.064 36.7515,265.923 z" id="boundary" inkscape:connector-curvature="0" />
	<path style="fill:none;stroke:red;stroke-width:1px;stroke-linecap:butt;stroke-linejoin:miter;stroke-opacity:1" d="M 36.7515,265.923 85.0668,259.337 z" id="boundary" inkscape:connector-curvature="0" />
	<path style="fill:none;stroke:red;stroke-width:1px;stroke-linecap:butt;stroke-linejoin:miter;stroke-opacity:1" d="M 85.0668,259.337 149.516,259.647 z" id="boundary" inkscape:connector-curvature="0" />
	<path style="fill:none;stroke:red;stroke-width:1px;stroke-linecap:butt;stroke-linejoin:miter;stroke-opacity:1" d="M 149.516,259.647 202.263,260.832 z" id="boundary" inkscape:connector-curvature="0" />
	<path style="fill:none;stroke:red;stroke-width:1px;stroke-linecap:butt;stroke-linejoin:miter;stroke-opacity:1" d="M 202.263,260.832 260.649,263.022 z" id="boundary" inkscape:connector-curvature="0" />
	<path style="fill:none;stroke:red;stroke-width:1px;stroke-linecap:butt;stroke-linejoin:miter;stroke-opacity:1" d="M 260.649,263.022 281.134,233.786 z" id="boundary" inkscape:connector-curvature="0" />
	<path style="fill:none;stroke:red;stroke-width:1px;stroke-linecap:butt;stroke-linejoin:miter;stroke-opacity:1" d="M 281.134,233.786 322.925,250.225 z" id="boundary" inkscape:connector-curvature="0" />
	<path style="fill:none;stroke:red;stroke-width:1px;stroke-linecap:butt;stroke-linejoin:miter;stroke-opacity:1" d="M 322.925,250.225 349.275,214.035 z" id="boundary" inkscape:connector-curvature="0" />
	<path style="fill:none;stroke:red;stroke-width:1px;stroke-linecap:butt;stroke-linejoin:miter;stroke-opacity:1" d="M 349.275,214.035 305.57,178.479 z" id="boundary" inkscape:connector-curvature="0" />
	<path style="fill:none;stroke:red;stroke-width:1px;stroke-linecap:butt;stroke-linejoin:miter;stroke-opacity:1" d="M 305.57,178.479 325.677,161.227 z" id="boundary" inkscape:connector-curvature="0" />
	<path style="fill:none;stroke:red;stroke-width:1px;stroke-linecap:butt;stroke-linejoin:miter;stroke-opacity:1" d="M 325.677,161.227 285.497,142.483 z" id="boundary" inkscape:connector-curvature="0" />
	<path style="fill:none;stroke:red;stroke-width:1px;stroke-linecap:butt;stroke-linejoin:miter;stroke-opacity:1" d="M 285.497,142.483 254.182,169.939 z" id="boundary" inkscape:connector-curvature="0" />
	<path style="fill:none;stroke:red;stroke-width:1px;stroke-linecap:butt;stroke-linejoin:miter;stroke-opacity:1" d="M 254.182,169.939 230.841,218.734 z" id="boundary" inkscape:connector-curvature="0" />
	<path style="fill:none;stroke:red;stroke-width:1px;stroke-linecap:butt;stroke-linejoin:miter;stroke-opacity:1" d="M 230.841,218.734 169.557,219.722 z" id="boundary" inkscape:connector-curvature="0" />
	<path style="fill:none;stroke:red;stroke-width:1px;stroke-linecap:butt;stroke-linejoin:miter;stroke-opacity:1" d="M 169.557,219.722 120.692,222.803 z" id="boundary" inkscape:connector-curvature="0" />
	<path style="fill:none;stroke:red;stroke-width:1px;stroke-linecap:butt;stroke-linejoin:miter;stroke-opacity:1" d="M 120.692,222.803 65.7543,218.327 z" id="boundary" inkscape:connector-curvature="0" />
	<path style="fill:none;stroke:red;stroke-width:1px;stroke-linecap:butt;stroke-linejoin:miter;stroke-opacity:1" d="M 65.7543,218.327 81.3588,168.574 z" id="boundary" inkscape:connector-curvature="0" />
	<path style="fill:none;stroke:red;stroke-width:1px;stroke-linecap:butt;stroke-linejoin:miter;stroke-opacity:1" d="M 81.3588,168.574 133.981,169.858 z" id="boundary" inkscape:connector-curvature="0" />
	<path style="fill:none;stroke:red;stroke-width:1px;stroke-linecap:butt;stroke-linejoin:miter;stroke-opacity:1" d="M 133.981,169.858 187.064,167.328 z" id="boundary" inkscape:connector-curvature="0" />
	<path style="fill:none;stroke:red;stroke-width:1px;stroke-linecap:butt;stroke-linejoin:miter;stroke-opacity:1" d="M 187.064,167.328 160.075,129.84 z" id="boundary" inkscape:connector-curvature="0" />
	<path style="fill:none;stroke:red;stroke-width:1px;stroke-linecap:butt;stroke-linejoin:miter;stroke-opacity:1" d="M 160.075,129.84 109.813,129.35 z" id="boundary" inkscape:connector-curvature="0" />
	<path style="fill:none;stroke:red;stroke-width:1px;stroke-linecap:butt;stroke-linejoin:miter;stroke-opacity:1" d="M 109.813,129.35 54.2998,132.338 z" id="boundary" inkscape:connector-curvature="0" />
	<path style="fill:none;stroke:red;stroke-width:1px;stroke-linecap:butt;stroke-linejoin:miter;stroke-opacity:1" d="M 54.2998,132.338 26.0426,168.89 z" id="boundary" inkscape:connector-curvature="0" />
	<path style="fill:none;stroke:red;stroke-width:1px;stroke-linecap:butt;stroke-linejoin:miter;stroke-opacity:1" d="M 26.0426,168.89 4,131.243 z" id="boundary" inkscape:connector-curvature="0" />
	<path style="fill:none;stroke:red;stroke-width:1px;stroke-linecap:butt;stroke-linejoin:miter;stroke-opacity:1" d="M 4,131.243 6.41043,82.2098 z" id="boundary" inkscape:connector-curvature="0" />
	<path style="fill:none;stroke:red;stroke-width:1px;stroke-linecap:butt;stroke-linejoin:miter;stroke-opacity:1" d="M 6.41043,82.2098 37.7282,55.0045 z" id="boundary" inkscape:connector-curvature="0" />
	<path style="fill:none;stroke:red;stroke-width:1px;stroke-linecap:butt;stroke-linejoin:miter;stroke-opacity:1" d="M 37.7282,55.0045 74.284,77.2676 z" id="boundary" inkscape:connector-curvature="0" />
	<path style="fill:none;stroke:red;stroke-width:1px;stroke-linecap:butt;stroke-linejoin:miter;stroke-opacity:1" d="M 74.284,77.2676 130.068,77.5099 z" id="boundary" inkscape:connector-curvature="0" />
	<path style="fill:none;stroke:red;stroke-width:1px;stroke-linecap:butt;stroke-linejoin:miter;stroke-opacity:1" d="M 130.068,77.5099 179.26,80.5058 z" id="boundary" inkscape:connector-curvature="0" />
	<path style="fill:none;stroke:red;stroke-width:1px;stroke-linecap:butt;stroke-linejoin:miter;stroke-opacity:1" d="M 179.26,80.5058 220.091,128.163 z" id="boundary" inkscape:connector-curvature="0" />
	<path style="fill:none;stroke:red;stroke-width:1px;stroke-linecap:butt;stroke-linejoin:miter;stroke-opacity:1" d="M 220.091,128.163 229.518,81.3819 z" id="boundary" inkscape:connector-curvature="0" />
	<path style="fill:none;stroke:red;stroke-width:1px;stroke-linecap:butt;stroke-linejoin:miter;stroke-opacity:1" d="M 229.518,81.3819 272.298,45.4928 z" id="boundary" inkscape:connector-curvature="0" />
	<path style="fill:none;stroke:red;stroke-width:1px;stroke-linecap:butt;stroke-linejoin:miter;stroke-opacity:1" d="M 272.298,45.4928 289.37,49.4128 z" id="boundary" inkscape:connector-curvature="0" />
	<path style="fill:none;stroke:red;stroke-width:1px;stroke-linecap:butt;stroke-linejoin:miter;stroke-opacity:1" d="M 289.37,49.4128 320.213,65.9878 z" id="boundary" inkscape:connector-curvature="0" />
	<path style="fill:none;stroke:red;stroke-width:1px;stroke-linecap:butt;stroke-linejoin:miter;stroke-opacity:1" d="M 320.213,65.9878 313.881,87.4901 z" id="boundary" inkscape:connector-curvature="0" />
	<path style="fill:none;stroke:red;stroke-width:1px;stroke-linecap:butt;stroke-linejoin:miter;stroke-opacity:1" d="M 313.881,87.4901 329.587,88.8728 z" id="boundary" inkscape:connector-curvature="0" />
	<path style="fill:none;stroke:red;stroke-width:1px;stroke-linecap:butt;stroke-linejoin:miter;stroke-opacity:1" d="M 329.587,88.8728 342.173,66.007 z" id="boundary" inkscape:connector-curvature="0" />
	<path style="fill:none;stroke:red;stroke-width:1px;stroke-linecap:butt;stroke-linejoin:miter;stroke-opacity:1" d="M 342.173,66.007 313.288,35.1665 z" id="boundary" inkscape:connector-curvature="0" />
	<path style="fill:none;stroke:red;stroke-width:1px;stroke-linecap:butt;stroke-linejoin:miter;stroke-opacity:1" d="M 313.288,35.1665 323.977,15.5605 z" id="boundary" inkscape:connector-curvature="0" />
	<path style="fill:none;stroke:red;stroke-width:1px;stroke-linecap:butt;stroke-linejoin:miter;stroke-opacity:1" d="M 323.977,15.5605 372.319,4 z" id="boundary" inkscape:connector-curvature="0" />
	<path style="fill:none;stroke:red;stroke-width:1px;stroke-linecap:butt;stroke-linejoin:miter;stroke-opacity:1" d="M 372.319,4 424.688,30.0338 z" id="boundary" inkscape:connector-curvature="0" />
	<path style="fill:none;stroke:red;stroke-width:1px;stroke-linecap:butt;stroke-linejoin:miter;stroke-opacity:1" d="M 424.688,30.0338 461.984,85.7258 z" id="boundary" inkscape:connector-curvature="0" />
	<path style="fill:none;stroke:red;stroke-width:1px;stroke-linecap:butt;stroke-linejoin:miter;stroke-opacity:1" d="M 461.984,85.7258 519.7,35.1717 z" id="boundary" inkscape:connector-curvature="0" />
	<path style="fill:none;stroke:red;stroke-width:1px;stroke-linecap:butt;stroke-linejoin:miter;stroke-opacity:1" d="M 519.7,35.1717 546.716,89.872 z" id="boundary" inkscape:connector-curvature="0" />
	<path style="fill:none;stroke:red;stroke-width:1px;stroke-linecap:butt;stroke-linejoin:miter;stroke-opacity:1" d="M 546.716,89.872 601.884,36.085 z" id="boundary" inkscape:connector-curvature="0" />
	<path style="fill:none;stroke:red;stroke-width:1px;stroke-linecap:butt;stroke-linejoin:miter;stroke-opacity:1" d="M 601.884,36.085 642.501,97.1518 z" id="boundary" inkscape:connector-curvature="0" />
	<path style="fill:none;stroke:red;stroke-width:1px;stroke-linecap:butt;stroke-linejoin:miter;stroke-opacity:1" d="M 642.501,97.1518 693.327,34.3241 z" id="boundary" inkscape:connector-curvature="0" />
	<path style="fill:none;stroke:red;stroke-width:1px;stroke-linecap:butt;stroke-linejoin:miter;stroke-opacity:1" d="M 693.327,34.3241 724.736,109.856 z" id="boundary" inkscape:connector-curvature="0" />
	<path style="fill:none;stroke:red;stroke-width:1px;stroke-linecap:butt;stroke-linejoin:miter;stroke-opacity:1" d="M 724.736,109.856 784.507,70.5886 z" id="boundary" inkscape:connector-curvature="0" />
	<path style="fill:none;stroke:red;stroke-width:1px;stroke-linecap:butt;stroke-linejoin:miter;stroke-opacity:1" d="M 784.507,70.5886 790.507,138.709 z" id="boundary" inkscape:connector-curvature="0" />
	<path style="fill:none;stroke:red;stroke-width:1px;stroke-linecap:butt;stroke-linejoin:miter;stroke-opacity:1" d="M 790.507,138.709 862.461,126.154 z" id="boundary" inkscape:connector-curvature="0" />
	<path style="fill:none;stroke:red;stroke-width:1px;stroke-linecap:butt;stroke-linejoin:miter;stroke-opacity:1" d="M 862.461,126.154 842.237,199.068 z" id="boundary" inkscape:connector-curvature="0" />
	<path style="fill:none;stroke:red;stroke-width:1px;stroke-linecap:butt;stroke-linejoin:miter;stroke-opacity:1" d="M 842.237,199.068 928.79,204.424 z" id="boundary" inkscape:connector-curvature="0" />
	<path style="fill:none;stroke:red;stroke-width:1px;stroke-linecap:butt;stroke-linejoin:miter;stroke-opacity:1" d="M 928.79,204.424 904.479,275.995 z" id="boundary" inkscape:connector-curvature="0" />
	<path style="fill:none;stroke:red;stroke-width:1px;stroke-linecap:butt;stroke-linejoin:miter;stroke-opacity:1" d="M 904.479,275.995 990.146,305.606 z" id="boundary" inkscape:connector-curvature="0" />
	<path style="fill:none;stroke:red;stroke-width:1px;stroke-linecap:butt;stroke-linejoin:miter;stroke-opacity:1" d="M 990.146,305.606 946.151,362.204 z" id="boundary" inkscape:connector-curvature="0" />
	<path style="fill:none;stroke:red;stroke-width:1px;stroke-linecap:butt;stroke-linejoin:miter;stroke-opacity:1" d="M 946.151,362.204 996,424.517 z" id="boundary" inkscape:connector-curvature="0" />
	<path style="fill:none;stroke:red;stroke-width:1px;stroke-linecap:butt;stroke-linejoin:miter;stroke-opacity:1" d="M 996,424.517 949.072,469.836 z" id="boundary" inkscape:connector-curvature="0" />
	<path style="fill:none;stroke:red;stroke-width:1px;stroke-linecap:butt;stroke-linejoin:miter;stroke-opacity:1" d="M 949.072,469.836 993.09,520.283 z" id="boundary" inkscape:connector-curvature="0" />
	<path style="fill:none;stroke:red;stroke-width:1px;stroke-linecap:butt;stroke-linejoin:miter;stroke-opacity:1" d="M 993.09,520.283 942.77,551.443 z" id="boundary" inkscape:connector-curvature="0" />
	<path style="fill:none;stroke:red;stroke-width:1px;stroke-linecap:butt;stroke-linejoin:miter;stroke-opacity:1" d="M 942.77,551.443 992.938,603.411 z" id="boundary" inkscape:connector-curvature="0" />
	<path style="fill:none;stroke:red;stroke-width:1px;stroke-linecap:butt;stroke-linejoin:miter;stroke-opacity:1" d="M 992.938,603.411 932.693,633.869 z" id="boundary" inkscape:connector-curvature="0" />
	<path style="fill:none;stroke:red;stroke-width:1px;stroke-linecap:butt;stroke-linejoin:miter;stroke-opacity:1" d="M 932.693,633.869 960.257,698.229 z" id="boundary" inkscape:connector-curvature="0" />
	<path style="fill:none;stroke:red;stroke-width:1px;stroke-linecap:butt;stroke-linejoin:miter;stroke-opacity:1" d="M 960.257,698.229 884.19,694.346 z" id="boundary" inkscape:connector-curvature="0" />
	<path style="fill:none;stroke:red;stroke-width:1px;stroke-linecap:butt;stroke-linejoin:miter;stroke-opacity:1" d="M 884.19,694.346 897.784,764.168 z" id="boundary" inkscape:connector-curvature="0" />
	<path style="fill:none;stroke:red;stroke-width:1px;stroke-linecap:butt;stroke-linejoin:miter;stroke-opacity:1" d="M 897.784,764.168 820.238,750.004 z" id="boundary" inkscape:connector-curvature="0" />
	<path style="fill:none;stroke:red;stroke-width:1px;stroke-linecap:butt;stroke-linejoin:miter;stroke-opacity:1" d="M 820.238,750.004 804.011,813.44 z" id="boundary" inkscape:connector-curvature="0" />
	<path style="fill:none;stroke:red;stroke-width:1px;stroke-linecap:butt;stroke-linejoin:miter;stroke-opacity:1" d="M 804.011,813.44 740.741,783.978 z" id="boundary" inkscape:connector-curvature="0" />
	<path style="fill:none;stroke:red;stroke-width:1px;stroke-linecap:butt;stroke-linejoin:miter;stroke-opacity:1" d="M 740.741,783.978 719.829,848.344 z" id="boundary" inkscape:connector-curvature="0" />
	<path style="fill:none;stroke:red;stroke-width:1px;stroke-linecap:butt;stroke-linejoin:miter;stroke-opacity:1" d="M 719.829,848.344 659.238,801.505 z" id="boundary" inkscape:connector-curvature="0" />
	<path style="fill:none;stroke:red;stroke-width:1px;stroke-linecap:butt;stroke-linejoin:miter;stroke-opacity:1" d="M 659.238,801.505 631.091,850.996 z" id="boundary" inkscape:connector-curvature="0" />
	<path style="fill:none;stroke:red;stroke-width:1px;stroke-linecap:butt;stroke-linejoin:miter;stroke-opacity:1" d="M 631.091,850.996 588.178,806.082 z" id="boundary" inkscape:connector-curvature="0" />
	<path style="fill:none;stroke:red;stroke-width:1px;stroke-linecap:butt;stroke-linejoin:miter;stroke-opacity:1" d="M 588.178,806.082 555.643,848.62 z" id="boundary" inkscape:connector-curvature="0" />
	<path style="fill:none;stroke:red;stroke-width:1px;stroke-linecap:butt;stroke-linejoin:miter;stroke-opacity:1" d="M 555.643,848.62 530.786,807.008 z" id="boundary" inkscape:connector-curvature="0" />
	<path style="fill:none;stroke:red;stroke-width:1px;stroke-linecap:butt;stroke-linejoin:miter;stroke-opacity:1" d="M 530.786,807.008 493.982,841.074 z" id="boundary" inkscape:connector-curvature="0" />
	<path style="fill:none;stroke:red;stroke-width:1px;stroke-linecap:butt;stroke-linejoin:miter;stroke-opacity:1" d="M 493.982,841.074 463.1,801.047 z" id="boundary" inkscape:connector-curvature="0" />
	<path style="fill:none;stroke:red;stroke-width:1px;stroke-linecap:butt;stroke-linejoin:miter;stroke-opacity:1" d="M 463.1,801.047 441.455,842.698 z" id="boundary" inkscape:connector-curvature="0" />
	<path style="fill:none;stroke:red;stroke-width:1px;stroke-linecap:butt;stroke-linejoin:miter;stroke-opacity:1" d="M 441.455,842.698 392.839,844.628 z" id="boundary" inkscape:connector-curvature="0" />
	<path style="fill:none;stroke:red;stroke-width:1px;stroke-linecap:butt;stroke-linejoin:miter;stroke-opacity:1" d="M 392.839,844.628 412.028,800.386 z" id="boundary" inkscape:connector-curvature="0" />
	<path style="fill:none;stroke:red;stroke-width:1px;stroke-linecap:butt;stroke-linejoin:miter;stroke-opacity:1" d="M 412.028,800.386 366.146,801.801 z" id="boundary" inkscape:connector-curvature="0" />
	<path style="fill:none;stroke:red;stroke-width:1px;stroke-linecap:butt;stroke-linejoin:miter;stroke-opacity:1" d="M 366.146,801.801 339.729,837.514 z" id="boundary" inkscape:connector-curvature="0" />
	<path style="fill:none;stroke:red;stroke-width:1px;stroke-linecap:butt;stroke-linejoin:miter;stroke-opacity:1" d="M 339.729,837.514 311.566,806.432 z" id="boundary" inkscape:connector-curvature="0" />
	<path style="fill:none;stroke:red;stroke-width:1px;stroke-linecap:butt;stroke-linejoin:miter;stroke-opacity:1" d="M 311.566,806.432 291.506,836.616 z" id="boundary" inkscape:connector-curvature="0" />
	<path style="fill:none;stroke:red;stroke-width:1px;stroke-linecap:butt;stroke-linejoin:miter;stroke-opacity:1" d="M 291.506,836.616 259.889,805.23 z" id="boundary" inkscape:connector-curvature="0" />
	<path style="fill:none;stroke:red;stroke-width:1px;stroke-linecap:butt;stroke-linejoin:miter;stroke-opacity:1" d="M 259.889,805.23 232.369,816.79 z" id="boundary" inkscape:connector-curvature="0" />
	<path style="fill:none;stroke:red;stroke-width:1px;stroke-linecap:butt;stroke-linejoin:miter;stroke-opacity:1" d="M 232.369,816.79 213.738,792.493 z" id="boundary" inkscape:connector-curvature="0" />
	<path style="fill:none;stroke:red;stroke-width:1px;stroke-linecap:butt;stroke-linejoin:miter;stroke-opacity:1" d="M 213.738,792.493 171.758,782.413 z" id="boundary" inkscape:connector-curvature="0" />
	<circle cx="4" cy="131.243" r="4" fill="#0" id="circle0"/>
	<circle cx="26.0426" cy="168.89" r="4" fill="#0" id="circle1"/>
	<circle cx="54.2998" cy="132.338" r="4" fill="#0" id="circle2"/>
	<circle cx="81.3588" cy="168.574" r="4" fill="#0" id="circle3"/>
	<circle cx="109.813" cy="129.35" r="4" fill="#0" id="circle4"/>
	<circle cx="133.981" cy="169.858" r="4" fill="#0" id="circle5"/>
	<circle cx="160.075" cy="129.84" r="4" fill="#0" id="circle6"/>
	<circle cx="187.064" cy="167.328" r="4" fill="#0" id="circle7"/>
	<circle cx="220.091" cy="128.163" r="4" fill="#0" id="circle8"/>
	<circle cx="254.182" cy="169.939" r="4" fill="#0" id="circle9"/>
	<circle cx="285.497" cy="142.483" r="4" fill="#0" id="circle10"/>
	<circle cx="305.57" cy="178.479" r="4" fill="#0" id="circle11"/>
	<circle cx="325.677" cy="161.227" r="4" fill="#0" id="circle12"/>
	<circle cx="366.671" cy="184.297" r="4" fill="#0" id="circle13"/>
	<circle cx="349.275" cy="214.035" r="4" fill="#0" id="circle14"/>
	<circle cx="322.925" cy="250.225" r="4" fill="#0" id="circle15"/>
	<circle cx="281.134" cy="233.786" r="4" fill="#0" id="circle16"/>
	<circle cx="260.649" cy="263.022" r="4" fill="#0" id="circle17"/>
	<circle cx="230.841" cy="218.734" r="4" fill="#0" id="circle18"/>
	<circle cx="202.263" cy="260.832" r="4" fill="#0" id="circle19"/>
	<circle cx="169.557" cy="219.722" r="4" fill="#0" id="circle20"/>
	<circle cx="149.516" cy="259.647" r="4" fill="#0" id="circle21"/>
	<circle cx="120.692" cy="222.803" r="4" fill="#0" id="circle22"/>
	<circle cx="85.0668" cy="259.337" r="4" fill="#0" id="circle23"/>
	<circle cx="65.7543" cy="218.327" r="4" fill="#0" id="circle24"/>
	<circle cx="36.7515" cy="265.923" r="4" fill="#0" id="circle25"/>
	<circle cx="8.50213" cy="292.064" r="4" fill="#0" id="circle26"/>
	<circle cx="34.1158" cy="324.917" r="4" fill="#0" id="circle27"/>
	<circle cx="101.671" cy="327.404" r="4" fill="#0" id="circle28"/>
	<circle cx="138.93" cy="327.027" r="4" fill="#0" id="circle29"/>
	<circle cx="192.392" cy="319.941" r="4" fill="#0" id="circle30"/>
	<circle cx="237.516" cy="321.415" r="4" fill="#0" id="circle31"/>
	<circle cx="293.545" cy="344.461" r="4" fill="#0" id="circle32"/>
	<circle cx="354.934" cy="332.065" r="4" fill="#0" id="circle33"/>
	<circle cx="404.176" cy="302.594" r="4" fill="#0" id="circle34"/>
	<circle cx="6.41043" cy="82.2098" r="4" fill="#0" id="circle35"/>
	<circle cx="37.7282" cy="55.0045" r="4" fill="#0" id="circle36"/>
	<circle cx="74.284" cy="77.2676" r="4" fill="#0" id="circle37"/>
	<circle cx="130.068" cy="77.5099" r="4" fill="#0" id="circle38"/>
	<circle cx="179.26" cy="80.5058" r="4" fill="#0" id="circle39"/>
	<circle cx="229.518" cy="81.3819" r="4" fill="#0" id="circle40"/>
	<circle cx="272.298" cy="45.4928" r="4" fill="#0" id="circle41"/>
	<circle cx="289.37" cy="49.4128" r="4" fill="#0" id="circle42"/>
	<circle cx="320.213" cy="65.9878" r="4" fill="#0" id="circle43"/>
	<circle cx="313.881" cy="87.4901" r="4" fill="#0" id="circle44"/>
	<circle cx="329.587" cy="88.8728" r="4" fill="#0" id="circle45"/>
	<circle cx="342.173" cy="66.007" r="4" fill="#0" id="circle46"/>
	<circle cx="313.288" cy="35.1665" r="4" fill="#0" id="circle47"/>
	<circle cx="323.977" cy="15.5605" r="4" fill="#0" id="circle48"/>
	<circle cx="372.319" cy="4" r="4" fill="#0" id="circle49"/>
	<circle cx="424.688" cy="30.0338" r="4" fill="#0" id="circle50"/>
	<circle cx="461.984" cy="85.7258" r="4" fill="#0" id="circle51"/>
	<circle cx="519.7" cy="35.1717" r="4" fill="#0" id="circle52"/>
	<circle cx="546.716" cy="89.872" r="4" fill="#0" id="circle53"/>
	<circle cx="413.572" cy="376.447" r="4" fill="#0" id="circle54"/>
	<circle cx="391.956" cy="437.746" r="4" fill="#0" id="circle55"/>
	<circle cx="374.082" cy="499.668" r="4" fill="#0" id="circle56"/>
	<circle cx="324.999" cy="540.478" r="4" fill="#0" id="circle57"/>
	<circle cx="322.117" cy="580.46" r="4" fill="#0" id="circle58"/>
	<circle cx="376.75" cy="586.759" r="4" fill="#0" id="circle59"/>
	<circle cx="417.625" cy="571.635" r="4" fill="#0" id="circle60"/>
	<circle cx="445.661" cy="516.256" r="4" fill="#0" id="circle61"/>
	<circle cx="471.815" cy="453.007" r="4" fill="#0" id="circle62"/>
	<circle cx="505.661" cy="386.621" r="4" fill="#0" id="circle63"/>
	<circle cx="535.073" cy="345.423" r="4" fill="#0" id="circle64"/>
	<circle cx="600.078" cy="418.487" r="4" fill="#0" id="circle65"/>
	<circle cx="658.658" cy="499.842" r="4" fill="#0" id="circle66"/>
	<circle cx="754.341" cy="547.091" r="4" fill="#0" id="circle67"/>
	<circle cx="601.884" cy="36.085" r="4" fill="#0" id="circle68"/>
	<circle cx="642.501" cy="97.1518" r="4" fill="#0" id="circle69"/>
	<circle cx="693.327" cy="34.3241" r="4" fill="#0" id="circle70"/>
	<circle cx="724.736" cy="109.856" r="4" fill="#0" id="circle71"/>
	<circle cx="784.507" cy="70.5886" r="4" fill="#0" id="circle72"/>
	<circle cx="790.507" cy="138.709" r="4" fill="#0" id="circle73"/>
	<circle cx="862.461" cy="126.154" r="4" fill="#0" id="circle74"/>
	<circle cx="842.237" cy="199.068" r="4" fill="#0" id="circle75"/>
	<circle cx="928.79" cy="204.424" r="4" fill="#0" id="circle76"/>
	<circle cx="904.479" cy="275.995" r="4" fill="#0" id="circle77"/>
	<circle cx="990.146" cy="305.606" r="4" fill="#0" id="circle78"/>
	<circle cx="946.151" cy="362.204" r="4" fill="#0" id="circle79"/>
	<circle cx="996" cy="424.517" r="4" fill="#0" id="circle80"/>
	<circle cx="949.072" cy="469.836" r="4" fill="#0" id="circle81"/>
	<circle cx="993.09" cy="520.283" r="4" fill="#0" id="circle82"/>
	<circle cx="942.77" cy="551.443" r="4" fill="#0" id="circle83"/>
	<circle cx="992.938" cy="603.411" r="4" fill="#0" id="circle84"/>
	<circle cx="932.693" cy="633.869" r="4" fill="#0" id="circle85"/>
	<circle cx="960.257" cy="698.229" r="4" fill="#0" id="circle86"/>
	<circle cx="884.19" cy="694.346" r="4" fill="#0" id="circle87"/>
	<circle cx="897.784" cy="764.168" r="4" fill="#0" id="circle88"/>
	<circle cx="820.238" cy="750.004" r="4" fill="#0" id="circle89"/>
	<circle cx="804.011" cy="813.44" r="4" fill="#0" id="circle90"/>
	<circle cx="740.741" cy="783.978" r="4" fill="#0" id="circle91"/>
	<circle cx="719.829" cy="848.344" r="4" fill="#0" id="circle92"/>
	<circle cx="659.238" cy="801.505" r="4" fill="#0" id="circle93"/>
	<circle cx="631.091" cy="850.996" r="4" fill="#0" id="circle94"/>
	<circle cx="588.178" cy="806.082" r="4" fill="#0" id="circle95"/>
	<circle cx="555.643" cy="848.62" r="4" fill="#0" id="circle96"/>
	<circle cx="530.786" cy="807.008" r="4" fill="#0" id="circle97"/>
	<circle cx="493.982" cy="841.074" r="4" fill="#0" id="circle98"/>
	<circle cx="463.1" cy="801.047" r="4" fill="#0" id="circle99"/>
	<circle cx="441.455" cy="842.698" r="4" fill="#0" id="circle100"/>
	<circle cx="412.028" cy="800.386" r="4" fill="#0" id="circle101"/>
	<circle cx="392.839" cy="844.628" r="4" fill="#0" id="circle102"/>
	<circle cx="366.146" cy="801.801" r="4" fill="#0" id="circle103"/>
	<circle cx="339.729" cy="837.514" r="4" fill="#0" id="circle104"/>
	<circle cx="311.566" cy="806.432" r="4" fill="#0" id="circle105"/>
	<circle cx="291.506" cy="836.616" r="4" fill="#0" id="circle106"/>
	<circle cx="259.889" cy="805.23" r="4" fill="#0" id="circle107"/>
	<circle cx="232.369" cy="816.79" r="4" fill="#0" id="circle108"/>
	<circle cx="213.738" cy="792.493" r="4" fill="#0" id="circle109"/>
	<circle cx="171.758" cy="782.413" r="4" fill="#0" id="circle110"/>
	<circle cx="149.526" cy="759.741" r="4" fill="#0" id="circle111"/>
	<circle cx="110.457" cy="726.547" r="4" fill="#0" id="circle112"/>
	<circle cx="126.744" cy="745.76" r="4" fill="#0" id="circle113"/>
	<circle cx="119.007" cy="690.991" r="4" fill="#0" id="circle114"/>
	<circle cx="145.522" cy="712.714" r="4" fill="#0" id="circle115"/>
	<circle cx="181.261" cy="725.092" r="4" fill="#0" id="circle116"/>
	<circle cx="211.514" cy="746.687" r="4" fill="#0" id="circle117"/>
	<circle cx="252.947" cy="752.011" r="4" fill="#0" id="circle118"/>
	<circle cx="299.613" cy="754.887" r="4" fill="#0" id="circle119"/>
	<circle cx="352.218" cy="753.029" r="4" fill="#0" id="circle120"/>
	<circle cx="404.642" cy="753.999" r="4" fill="#0" id="circle121"/>
	<circle cx="453.465" cy="750.653" r="4" fill="#0" id="circle122"/>
	<circle cx="510.625" cy="751.221" r="4" fill="#0" id="circle123"/>
	<circle cx="568.935" cy="740.877" r="4" fill="#0" id="circle124"/>
	<circle cx="627.407" cy="731.947" r="4" fill="#0" id="circle125"/>
	<circle cx="692.156" cy="714.702" r="4" fill="#0" id="circle126"/>
	<circle cx="750.734" cy="680.621" r="4" fill="#0" id="circle127"/>
	<circle cx="810.753" cy="611.192" r="4" fill="#0" id="circle128"/>
	</g>
</svg>