<?xml version="1.0" encoding="UTF-8" standalone="no"?>
<!-- Created with CurveBenchmark -->
<svg
	xmlns:dc="http://purl.org/dc/elements/1.1/"
	xmlns:cc="http://creativecommons.org/ns#"
	xmlns:rdf="http://www.w3.org/1999/02/22-rdf-syntax-ns#"
	xmlns:svg="http://www.w3.org/2000/svg"
	xmlns="http://www.w3.org/2000/svg"
	xmlns:sodipodi="http://sodipodi.sourceforge.net/DTD/sodipodi-0.dtd"
	xmlns:inkscape="http://www.inkscape.org/namespaces/inkscape"
	width="1000"
	height="1000"
	id="svg2"
	version="1.1"
	sodipodi:docname="noisy-0.003/crust-mc52.txt">
<defs
	id="defs4" />
<metadata
	id="metadata7">
	<rdf:RDF>
		<cc:Work
			rdf:about="">
			<dc:format>image/svg+xml</dc:format>
			<dc:type
				rdf:resource="http://purl.org/dc/dcmitype/StillImage" />
			<dc:title></dc:title>
		</cc:Work>
	</rdf:RDF>
</metadata>
<g
	inkscape:label="Layer 1"
	inkscape:groupmode="layer"
	id="layer1">
	<path style="fill:none;stroke:red;stroke-width:1px;stroke-linecap:butt;stroke-linejoin:miter;stroke-opacity:1" d="M 235.261,62.2209 169.188,76.9124 z" id="boundary" inkscape:connector-curvature="0" />
	<path style="fill:none;stroke:red;stroke-width:1px;stroke-linecap:butt;stroke-linejoin:miter;stroke-opacity:1" d="M 169.188,76.9124 131.31,105.369 z" id="boundary" inkscape:connector-curvature="0" />
	<path style="fill:none;stroke:red;stroke-width:1px;stroke-linecap:butt;stroke-linejoin:miter;stroke-opacity:1" d="M 79.9135,155.436 131.31,105.369 z" id="boundary" inkscape:connector-curvature="0" />
	<path style="fill:none;stroke:red;stroke-width:1px;stroke-linecap:butt;stroke-linejoin:miter;stroke-opacity:1" d="M 79.9135,155.436 50.9343,171.181 z" id="boundary" inkscape:connector-curvature="0" />
	<path style="fill:none;stroke:red;stroke-width:1px;stroke-linecap:butt;stroke-linejoin:miter;stroke-opacity:1" d="M 287.71,61.6312 235.261,62.2209 z" id="boundary" inkscape:connector-curvature="0" />
	<path style="fill:none;stroke:red;stroke-width:1px;stroke-linecap:butt;stroke-linejoin:miter;stroke-opacity:1" d="M 324.243,123.877 287.71,61.6312 z" id="boundary" inkscape:connector-curvature="0" />
	<path style="fill:none;stroke:red;stroke-width:1px;stroke-linecap:butt;stroke-linejoin:miter;stroke-opacity:1" d="M 318.743,199.487 324.243,123.877 z" id="boundary" inkscape:connector-curvature="0" />
	<path style="fill:none;stroke:red;stroke-width:1px;stroke-linecap:butt;stroke-linejoin:miter;stroke-opacity:1" d="M 4,211.174 67.362,219.556 z" id="boundary" inkscape:connector-curvature="0" />
	<path style="fill:none;stroke:red;stroke-width:1px;stroke-linecap:butt;stroke-linejoin:miter;stroke-opacity:1" d="M 4,211.174 50.9343,171.181 z" id="boundary" inkscape:connector-curvature="0" />
	<path style="fill:none;stroke:red;stroke-width:1px;stroke-linecap:butt;stroke-linejoin:miter;stroke-opacity:1" d="M 67.362,219.556 126.02,242.228 z" id="boundary" inkscape:connector-curvature="0" />
	<path style="fill:none;stroke:red;stroke-width:1px;stroke-linecap:butt;stroke-linejoin:miter;stroke-opacity:1" d="M 261.923,219.027 197.958,241.861 z" id="boundary" inkscape:connector-curvature="0" />
	<path style="fill:none;stroke:red;stroke-width:1px;stroke-linecap:butt;stroke-linejoin:miter;stroke-opacity:1" d="M 126.02,242.228 197.958,241.861 z" id="boundary" inkscape:connector-curvature="0" />
	<path style="fill:none;stroke:red;stroke-width:1px;stroke-linecap:butt;stroke-linejoin:miter;stroke-opacity:1" d="M 318.743,199.487 261.923,219.027 z" id="boundary" inkscape:connector-curvature="0" />
	<path style="fill:none;stroke:red;stroke-width:1px;stroke-linecap:butt;stroke-linejoin:miter;stroke-opacity:1" d="M 757.843,4 694.058,24.6098 z" id="boundary" inkscape:connector-curvature="0" />
	<path style="fill:none;stroke:red;stroke-width:1px;stroke-linecap:butt;stroke-linejoin:miter;stroke-opacity:1" d="M 694.058,24.6098 682.537,52.4526 z" id="boundary" inkscape:connector-curvature="0" />
	<path style="fill:none;stroke:red;stroke-width:1px;stroke-linecap:butt;stroke-linejoin:miter;stroke-opacity:1" d="M 757.843,4 808.997,16.3711 z" id="boundary" inkscape:connector-curvature="0" />
	<path style="fill:none;stroke:red;stroke-width:1px;stroke-linecap:butt;stroke-linejoin:miter;stroke-opacity:1" d="M 808.997,16.3711 886.489,52.5064 z" id="boundary" inkscape:connector-curvature="0" />
	<path style="fill:none;stroke:red;stroke-width:1px;stroke-linecap:butt;stroke-linejoin:miter;stroke-opacity:1" d="M 996,102.762 954.658,83.4162 z" id="boundary" inkscape:connector-curvature="0" />
	<path style="fill:none;stroke:red;stroke-width:1px;stroke-linecap:butt;stroke-linejoin:miter;stroke-opacity:1" d="M 954.658,83.4162 886.489,52.5064 z" id="boundary" inkscape:connector-curvature="0" />
	<path style="fill:none;stroke:red;stroke-width:1px;stroke-linecap:butt;stroke-linejoin:miter;stroke-opacity:1" d="M 682.537,52.4526 682.903,150.85 z" id="boundary" inkscape:connector-curvature="0" />
	<path style="fill:none;stroke:red;stroke-width:1px;stroke-linecap:butt;stroke-linejoin:miter;stroke-opacity:1" d="M 722.399,169.152 682.903,150.85 z" id="boundary" inkscape:connector-curvature="0" />
	<path style="fill:none;stroke:red;stroke-width:1px;stroke-linecap:butt;stroke-linejoin:miter;stroke-opacity:1" d="M 722.399,169.152 804.536,164.843 z" id="boundary" inkscape:connector-curvature="0" />
	<path style="fill:none;stroke:red;stroke-width:1px;stroke-linecap:butt;stroke-linejoin:miter;stroke-opacity:1" d="M 843.938,157.673 918.222,135.122 z" id="boundary" inkscape:connector-curvature="0" />
	<path style="fill:none;stroke:red;stroke-width:1px;stroke-linecap:butt;stroke-linejoin:miter;stroke-opacity:1" d="M 843.938,157.673 804.536,164.843 z" id="boundary" inkscape:connector-curvature="0" />
	<circle cx="4" cy="211.174" r="4" fill="#0" id="circle0"/>
	<circle cx="50.9343" cy="171.181" r="4" fill="#0" id="circle1"/>
	<circle cx="79.9135" cy="155.436" r="4" fill="#0" id="circle2"/>
	<circle cx="131.31" cy="105.369" r="4" fill="#0" id="circle3"/>
	<circle cx="169.188" cy="76.9124" r="4" fill="#0" id="circle4"/>
	<circle cx="235.261" cy="62.2209" r="4" fill="#0" id="circle5"/>
	<circle cx="287.71" cy="61.6312" r="4" fill="#0" id="circle6"/>
	<circle cx="324.243" cy="123.877" r="4" fill="#0" id="circle7"/>
	<circle cx="67.362" cy="219.556" r="4" fill="#0" id="circle8"/>
	<circle cx="126.02" cy="242.228" r="4" fill="#0" id="circle9"/>
	<circle cx="197.958" cy="241.861" r="4" fill="#0" id="circle10"/>
	<circle cx="261.923" cy="219.027" r="4" fill="#0" id="circle11"/>
	<circle cx="318.743" cy="199.487" r="4" fill="#0" id="circle12"/>
	<circle cx="682.537" cy="52.4526" r="4" fill="#0" id="circle13"/>
	<circle cx="694.058" cy="24.6098" r="4" fill="#0" id="circle14"/>
	<circle cx="757.843" cy="4" r="4" fill="#0" id="circle15"/>
	<circle cx="808.997" cy="16.3711" r="4" fill="#0" id="circle16"/>
	<circle cx="886.489" cy="52.5064" r="4" fill="#0" id="circle17"/>
	<circle cx="954.658" cy="83.4162" r="4" fill="#0" id="circle18"/>
	<circle cx="996" cy="102.762" r="4" fill="#0" id="circle19"/>
	<circle cx="918.222" cy="135.122" r="4" fill="#0" id="circle20"/>
	<circle cx="843.938" cy="157.673" r="4" fill="#0" id="circle21"/>
	<circle cx="804.536" cy="164.843" r="4" fill="#0" id="circle22"/>
	<circle cx="722.399" cy="169.152" r="4" fill="#0" id="circle23"/>
	<circle cx="682.903" cy="150.85" r="4" fill="#0" id="circle24"/>
	</g>
</svg>