<?xml version="1.0" encoding="UTF-8" standalone="no"?>
<!-- Created with CurveBenchmark -->
<svg
	xmlns:dc="http://purl.org/dc/elements/1.1/"
	xmlns:cc="http://creativecommons.org/ns#"
	xmlns:rdf="http://www.w3.org/1999/02/22-rdf-syntax-ns#"
	xmlns:svg="http://www.w3.org/2000/svg"
	xmlns="http://www.w3.org/2000/svg"
	xmlns:sodipodi="http://sodipodi.sourceforge.net/DTD/sodipodi-0.dtd"
	xmlns:inkscape="http://www.inkscape.org/namespaces/inkscape"
	width="1000"
	height="1000"
	id="svg2"
	version="1.1"
	sodipodi:docname="noisy-0.003/crust-mc11.txt">
<defs
	id="defs4" />
<metadata
	id="metadata7">
	<rdf:RDF>
		<cc:Work
			rdf:about="">
			<dc:format>image/svg+xml</dc:format>
			<dc:type
				rdf:resource="http://purl.org/dc/dcmitype/StillImage" />
			<dc:title></dc:title>
		</cc:Work>
	</rdf:RDF>
</metadata>
<g
	inkscape:label="Layer 1"
	inkscape:groupmode="layer"
	id="layer1">
	<path style="fill:none;stroke:red;stroke-width:1px;stroke-linecap:butt;stroke-linejoin:miter;stroke-opacity:1" d="M 186.179,173.262 171.599,189.828 z" id="boundary" inkscape:connector-curvature="0" />
	<path style="fill:none;stroke:red;stroke-width:1px;stroke-linecap:butt;stroke-linejoin:miter;stroke-opacity:1" d="M 171.599,189.828 153.524,207.279 z" id="boundary" inkscape:connector-curvature="0" />
	<path style="fill:none;stroke:red;stroke-width:1px;stroke-linecap:butt;stroke-linejoin:miter;stroke-opacity:1" d="M 202.462,165.652 186.179,173.262 z" id="boundary" inkscape:connector-curvature="0" />
	<path style="fill:none;stroke:red;stroke-width:1px;stroke-linecap:butt;stroke-linejoin:miter;stroke-opacity:1" d="M 221.348,158.765 202.462,165.652 z" id="boundary" inkscape:connector-curvature="0" />
	<path style="fill:none;stroke:red;stroke-width:1px;stroke-linecap:butt;stroke-linejoin:miter;stroke-opacity:1" d="M 238.343,144.438 221.348,158.765 z" id="boundary" inkscape:connector-curvature="0" />
	<path style="fill:none;stroke:red;stroke-width:1px;stroke-linecap:butt;stroke-linejoin:miter;stroke-opacity:1" d="M 293.414,38.2857 290.872,20.4943 z" id="boundary" inkscape:connector-curvature="0" />
	<path style="fill:none;stroke:red;stroke-width:1px;stroke-linecap:butt;stroke-linejoin:miter;stroke-opacity:1" d="M 293.414,38.2857 297.382,57.8573 z" id="boundary" inkscape:connector-curvature="0" />
	<path style="fill:none;stroke:red;stroke-width:1px;stroke-linecap:butt;stroke-linejoin:miter;stroke-opacity:1" d="M 290.872,20.4943 294.263,7.24472 z" id="boundary" inkscape:connector-curvature="0" />
	<path style="fill:none;stroke:red;stroke-width:1px;stroke-linecap:butt;stroke-linejoin:miter;stroke-opacity:1" d="M 297.142,78.2209 297.382,57.8573 z" id="boundary" inkscape:connector-curvature="0" />
	<path style="fill:none;stroke:red;stroke-width:1px;stroke-linecap:butt;stroke-linejoin:miter;stroke-opacity:1" d="M 296.171,93.6449 297.142,78.2209 z" id="boundary" inkscape:connector-curvature="0" />
	<path style="fill:none;stroke:red;stroke-width:1px;stroke-linecap:butt;stroke-linejoin:miter;stroke-opacity:1" d="M 294.263,7.24472 314.653,4 z" id="boundary" inkscape:connector-curvature="0" />
	<path style="fill:none;stroke:red;stroke-width:1px;stroke-linecap:butt;stroke-linejoin:miter;stroke-opacity:1" d="M 277.545,127.88 254.372,135.721 z" id="boundary" inkscape:connector-curvature="0" />
	<path style="fill:none;stroke:red;stroke-width:1px;stroke-linecap:butt;stroke-linejoin:miter;stroke-opacity:1" d="M 238.343,144.438 254.372,135.721 z" id="boundary" inkscape:connector-curvature="0" />
	<path style="fill:none;stroke:red;stroke-width:1px;stroke-linecap:butt;stroke-linejoin:miter;stroke-opacity:1" d="M 296.171,93.6449 296.015,118.06 z" id="boundary" inkscape:connector-curvature="0" />
	<path style="fill:none;stroke:red;stroke-width:1px;stroke-linecap:butt;stroke-linejoin:miter;stroke-opacity:1" d="M 277.545,127.88 296.015,118.06 z" id="boundary" inkscape:connector-curvature="0" />
	<path style="fill:none;stroke:red;stroke-width:1px;stroke-linecap:butt;stroke-linejoin:miter;stroke-opacity:1" d="M 331.976,243.342 300.148,253.283 z" id="boundary" inkscape:connector-curvature="0" />
	<path style="fill:none;stroke:red;stroke-width:1px;stroke-linecap:butt;stroke-linejoin:miter;stroke-opacity:1" d="M 75.2394,302.81 82.5247,291.251 z" id="boundary" inkscape:connector-curvature="0" />
	<path style="fill:none;stroke:red;stroke-width:1px;stroke-linecap:butt;stroke-linejoin:miter;stroke-opacity:1" d="M 101.137,266.878 82.5247,291.251 z" id="boundary" inkscape:connector-curvature="0" />
	<path style="fill:none;stroke:red;stroke-width:1px;stroke-linecap:butt;stroke-linejoin:miter;stroke-opacity:1" d="M 75.2394,302.81 59.6684,326.511 z" id="boundary" inkscape:connector-curvature="0" />
	<path style="fill:none;stroke:red;stroke-width:1px;stroke-linecap:butt;stroke-linejoin:miter;stroke-opacity:1" d="M 126.828,239.283 108.914,250.928 z" id="boundary" inkscape:connector-curvature="0" />
	<path style="fill:none;stroke:red;stroke-width:1px;stroke-linecap:butt;stroke-linejoin:miter;stroke-opacity:1" d="M 101.137,266.878 108.914,250.928 z" id="boundary" inkscape:connector-curvature="0" />
	<path style="fill:none;stroke:red;stroke-width:1px;stroke-linecap:butt;stroke-linejoin:miter;stroke-opacity:1" d="M 140.837,221.251 126.828,239.283 z" id="boundary" inkscape:connector-curvature="0" />
	<path style="fill:none;stroke:red;stroke-width:1px;stroke-linecap:butt;stroke-linejoin:miter;stroke-opacity:1" d="M 59.6684,326.511 50.1077,352.821 z" id="boundary" inkscape:connector-curvature="0" />
	<path style="fill:none;stroke:red;stroke-width:1px;stroke-linecap:butt;stroke-linejoin:miter;stroke-opacity:1" d="M 50.1077,352.821 34.4905,381.126 z" id="boundary" inkscape:connector-curvature="0" />
	<path style="fill:none;stroke:red;stroke-width:1px;stroke-linecap:butt;stroke-linejoin:miter;stroke-opacity:1" d="M 300.148,253.283 280.659,272.833 z" id="boundary" inkscape:connector-curvature="0" />
	<path style="fill:none;stroke:red;stroke-width:1px;stroke-linecap:butt;stroke-linejoin:miter;stroke-opacity:1" d="M 197.988,345.361 179.742,368.951 z" id="boundary" inkscape:connector-curvature="0" />
	<path style="fill:none;stroke:red;stroke-width:1px;stroke-linecap:butt;stroke-linejoin:miter;stroke-opacity:1" d="M 229.569,307.46 251.687,288.519 z" id="boundary" inkscape:connector-curvature="0" />
	<path style="fill:none;stroke:red;stroke-width:1px;stroke-linecap:butt;stroke-linejoin:miter;stroke-opacity:1" d="M 214.34,327.941 197.988,345.361 z" id="boundary" inkscape:connector-curvature="0" />
	<path style="fill:none;stroke:red;stroke-width:1px;stroke-linecap:butt;stroke-linejoin:miter;stroke-opacity:1" d="M 229.569,307.46 214.34,327.941 z" id="boundary" inkscape:connector-curvature="0" />
	<path style="fill:none;stroke:red;stroke-width:1px;stroke-linecap:butt;stroke-linejoin:miter;stroke-opacity:1" d="M 280.659,272.833 251.687,288.519 z" id="boundary" inkscape:connector-curvature="0" />
	<path style="fill:none;stroke:red;stroke-width:1px;stroke-linecap:butt;stroke-linejoin:miter;stroke-opacity:1" d="M 140.837,221.251 153.524,207.279 z" id="boundary" inkscape:connector-curvature="0" />
	<path style="fill:none;stroke:red;stroke-width:1px;stroke-linecap:butt;stroke-linejoin:miter;stroke-opacity:1" d="M 179.742,368.951 167.986,396.734 z" id="boundary" inkscape:connector-curvature="0" />
	<path style="fill:none;stroke:red;stroke-width:1px;stroke-linecap:butt;stroke-linejoin:miter;stroke-opacity:1" d="M 314.653,4 333.552,8.82534 z" id="boundary" inkscape:connector-curvature="0" />
	<path style="fill:none;stroke:red;stroke-width:1px;stroke-linecap:butt;stroke-linejoin:miter;stroke-opacity:1" d="M 354.375,5.48831 333.552,8.82534 z" id="boundary" inkscape:connector-curvature="0" />
	<path style="fill:none;stroke:red;stroke-width:1px;stroke-linecap:butt;stroke-linejoin:miter;stroke-opacity:1" d="M 377.259,7.20889 354.375,5.48831 z" id="boundary" inkscape:connector-curvature="0" />
	<path style="fill:none;stroke:red;stroke-width:1px;stroke-linecap:butt;stroke-linejoin:miter;stroke-opacity:1" d="M 361.419,31.1537 340.886,35.5211 z" id="boundary" inkscape:connector-curvature="0" />
	<path style="fill:none;stroke:red;stroke-width:1px;stroke-linecap:butt;stroke-linejoin:miter;stroke-opacity:1" d="M 340.886,35.5211 326.011,52.281 z" id="boundary" inkscape:connector-curvature="0" />
	<path style="fill:none;stroke:red;stroke-width:1px;stroke-linecap:butt;stroke-linejoin:miter;stroke-opacity:1" d="M 326.011,52.281 327.039,72.1321 z" id="boundary" inkscape:connector-curvature="0" />
	<path style="fill:none;stroke:red;stroke-width:1px;stroke-linecap:butt;stroke-linejoin:miter;stroke-opacity:1" d="M 391.85,5.3617 377.259,7.20889 z" id="boundary" inkscape:connector-curvature="0" />
	<path style="fill:none;stroke:red;stroke-width:1px;stroke-linecap:butt;stroke-linejoin:miter;stroke-opacity:1" d="M 411.44,6.28896 391.85,5.3617 z" id="boundary" inkscape:connector-curvature="0" />
	<path style="fill:none;stroke:red;stroke-width:1px;stroke-linecap:butt;stroke-linejoin:miter;stroke-opacity:1" d="M 411.44,6.28896 412.126,30.3171 z" id="boundary" inkscape:connector-curvature="0" />
	<path style="fill:none;stroke:red;stroke-width:1px;stroke-linecap:butt;stroke-linejoin:miter;stroke-opacity:1" d="M 411.6,47.9598 412.126,30.3171 z" id="boundary" inkscape:connector-curvature="0" />
	<path style="fill:none;stroke:red;stroke-width:1px;stroke-linecap:butt;stroke-linejoin:miter;stroke-opacity:1" d="M 377.681,46.9893 361.419,31.1537 z" id="boundary" inkscape:connector-curvature="0" />
	<path style="fill:none;stroke:red;stroke-width:1px;stroke-linecap:butt;stroke-linejoin:miter;stroke-opacity:1" d="M 377.681,46.9893 374.564,58.8777 z" id="boundary" inkscape:connector-curvature="0" />
	<path style="fill:none;stroke:red;stroke-width:1px;stroke-linecap:butt;stroke-linejoin:miter;stroke-opacity:1" d="M 405.187,74.556 411.6,47.9598 z" id="boundary" inkscape:connector-curvature="0" />
	<path style="fill:none;stroke:red;stroke-width:1px;stroke-linecap:butt;stroke-linejoin:miter;stroke-opacity:1" d="M 377.934,73.6511 374.564,58.8777 z" id="boundary" inkscape:connector-curvature="0" />
	<path style="fill:none;stroke:red;stroke-width:1px;stroke-linecap:butt;stroke-linejoin:miter;stroke-opacity:1" d="M 327.039,72.1321 334.234,86.5559 z" id="boundary" inkscape:connector-curvature="0" />
	<path style="fill:none;stroke:red;stroke-width:1px;stroke-linecap:butt;stroke-linejoin:miter;stroke-opacity:1" d="M 334.234,86.5559 354.199,85.5756 z" id="boundary" inkscape:connector-curvature="0" />
	<path style="fill:none;stroke:red;stroke-width:1px;stroke-linecap:butt;stroke-linejoin:miter;stroke-opacity:1" d="M 372.988,83.5931 354.199,85.5756 z" id="boundary" inkscape:connector-curvature="0" />
	<path style="fill:none;stroke:red;stroke-width:1px;stroke-linecap:butt;stroke-linejoin:miter;stroke-opacity:1" d="M 356.76,229.768 331.976,243.342 z" id="boundary" inkscape:connector-curvature="0" />
	<path style="fill:none;stroke:red;stroke-width:1px;stroke-linecap:butt;stroke-linejoin:miter;stroke-opacity:1" d="M 372.988,83.5931 377.934,73.6511 z" id="boundary" inkscape:connector-curvature="0" />
	<path style="fill:none;stroke:red;stroke-width:1px;stroke-linecap:butt;stroke-linejoin:miter;stroke-opacity:1" d="M 405.187,74.556 406.454,96.2245 z" id="boundary" inkscape:connector-curvature="0" />
	<path style="fill:none;stroke:red;stroke-width:1px;stroke-linecap:butt;stroke-linejoin:miter;stroke-opacity:1" d="M 408.008,120.077 406.454,96.2245 z" id="boundary" inkscape:connector-curvature="0" />
	<path style="fill:none;stroke:red;stroke-width:1px;stroke-linecap:butt;stroke-linejoin:miter;stroke-opacity:1" d="M 408.008,120.077 404.914,145.974 z" id="boundary" inkscape:connector-curvature="0" />
	<path style="fill:none;stroke:red;stroke-width:1px;stroke-linecap:butt;stroke-linejoin:miter;stroke-opacity:1" d="M 407.308,190.433 405.221,214.57 z" id="boundary" inkscape:connector-curvature="0" />
	<path style="fill:none;stroke:red;stroke-width:1px;stroke-linecap:butt;stroke-linejoin:miter;stroke-opacity:1" d="M 404.914,145.974 406.885,174.517 z" id="boundary" inkscape:connector-curvature="0" />
	<path style="fill:none;stroke:red;stroke-width:1px;stroke-linecap:butt;stroke-linejoin:miter;stroke-opacity:1" d="M 383.524,223.787 405.221,214.57 z" id="boundary" inkscape:connector-curvature="0" />
	<path style="fill:none;stroke:red;stroke-width:1px;stroke-linecap:butt;stroke-linejoin:miter;stroke-opacity:1" d="M 356.76,229.768 383.524,223.787 z" id="boundary" inkscape:connector-curvature="0" />
	<path style="fill:none;stroke:red;stroke-width:1px;stroke-linecap:butt;stroke-linejoin:miter;stroke-opacity:1" d="M 407.308,190.433 406.885,174.517 z" id="boundary" inkscape:connector-curvature="0" />
	<path style="fill:none;stroke:red;stroke-width:1px;stroke-linecap:butt;stroke-linejoin:miter;stroke-opacity:1" d="M 13.6018,463.252 8.99307,492.624 z" id="boundary" inkscape:connector-curvature="0" />
	<path style="fill:none;stroke:red;stroke-width:1px;stroke-linecap:butt;stroke-linejoin:miter;stroke-opacity:1" d="M 4.15315,525.756 8.99307,492.624 z" id="boundary" inkscape:connector-curvature="0" />
	<path style="fill:none;stroke:red;stroke-width:1px;stroke-linecap:butt;stroke-linejoin:miter;stroke-opacity:1" d="M 17.2181,433.348 30.024,401.244 z" id="boundary" inkscape:connector-curvature="0" />
	<path style="fill:none;stroke:red;stroke-width:1px;stroke-linecap:butt;stroke-linejoin:miter;stroke-opacity:1" d="M 30.024,401.244 34.4905,381.126 z" id="boundary" inkscape:connector-curvature="0" />
	<path style="fill:none;stroke:red;stroke-width:1px;stroke-linecap:butt;stroke-linejoin:miter;stroke-opacity:1" d="M 13.6018,463.252 17.2181,433.348 z" id="boundary" inkscape:connector-curvature="0" />
	<path style="fill:none;stroke:red;stroke-width:1px;stroke-linecap:butt;stroke-linejoin:miter;stroke-opacity:1" d="M 4,560.699 7.24602,582.183 z" id="boundary" inkscape:connector-curvature="0" />
	<path style="fill:none;stroke:red;stroke-width:1px;stroke-linecap:butt;stroke-linejoin:miter;stroke-opacity:1" d="M 7.0228,611.282 7.24602,582.183 z" id="boundary" inkscape:connector-curvature="0" />
	<path style="fill:none;stroke:red;stroke-width:1px;stroke-linecap:butt;stroke-linejoin:miter;stroke-opacity:1" d="M 15.9517,638.546 7.0228,611.282 z" id="boundary" inkscape:connector-curvature="0" />
	<path style="fill:none;stroke:red;stroke-width:1px;stroke-linecap:butt;stroke-linejoin:miter;stroke-opacity:1" d="M 4.15315,525.756 4,560.699 z" id="boundary" inkscape:connector-curvature="0" />
	<path style="fill:none;stroke:red;stroke-width:1px;stroke-linecap:butt;stroke-linejoin:miter;stroke-opacity:1" d="M 167.986,396.734 160.684,423.943 z" id="boundary" inkscape:connector-curvature="0" />
	<path style="fill:none;stroke:red;stroke-width:1px;stroke-linecap:butt;stroke-linejoin:miter;stroke-opacity:1" d="M 160.684,423.943 145.235,446.419 z" id="boundary" inkscape:connector-curvature="0" />
	<path style="fill:none;stroke:red;stroke-width:1px;stroke-linecap:butt;stroke-linejoin:miter;stroke-opacity:1" d="M 142.939,485.351 145.235,446.419 z" id="boundary" inkscape:connector-curvature="0" />
	<path style="fill:none;stroke:red;stroke-width:1px;stroke-linecap:butt;stroke-linejoin:miter;stroke-opacity:1" d="M 138.674,547.443 133.638,574.016 z" id="boundary" inkscape:connector-curvature="0" />
	<path style="fill:none;stroke:red;stroke-width:1px;stroke-linecap:butt;stroke-linejoin:miter;stroke-opacity:1" d="M 142.939,485.351 134.609,512.871 z" id="boundary" inkscape:connector-curvature="0" />
	<path style="fill:none;stroke:red;stroke-width:1px;stroke-linecap:butt;stroke-linejoin:miter;stroke-opacity:1" d="M 133.638,574.016 146.095,602.055 z" id="boundary" inkscape:connector-curvature="0" />
	<path style="fill:none;stroke:red;stroke-width:1px;stroke-linecap:butt;stroke-linejoin:miter;stroke-opacity:1" d="M 134.609,512.871 138.674,547.443 z" id="boundary" inkscape:connector-curvature="0" />
	<path style="fill:none;stroke:red;stroke-width:1px;stroke-linecap:butt;stroke-linejoin:miter;stroke-opacity:1" d="M 160.692,655.105 144.578,631.266 z" id="boundary" inkscape:connector-curvature="0" />
	<path style="fill:none;stroke:red;stroke-width:1px;stroke-linecap:butt;stroke-linejoin:miter;stroke-opacity:1" d="M 146.095,602.055 144.578,631.266 z" id="boundary" inkscape:connector-curvature="0" />
	<path style="fill:none;stroke:red;stroke-width:1px;stroke-linecap:butt;stroke-linejoin:miter;stroke-opacity:1" d="M 15.9517,638.546 19.3239,669.04 z" id="boundary" inkscape:connector-curvature="0" />
	<path style="fill:none;stroke:red;stroke-width:1px;stroke-linecap:butt;stroke-linejoin:miter;stroke-opacity:1" d="M 19.3239,669.04 26.4137,696.71 z" id="boundary" inkscape:connector-curvature="0" />
	<path style="fill:none;stroke:red;stroke-width:1px;stroke-linecap:butt;stroke-linejoin:miter;stroke-opacity:1" d="M 40.8603,717.135 26.4137,696.71 z" id="boundary" inkscape:connector-curvature="0" />
	<path style="fill:none;stroke:red;stroke-width:1px;stroke-linecap:butt;stroke-linejoin:miter;stroke-opacity:1" d="M 50.1928,746.464 40.8603,717.135 z" id="boundary" inkscape:connector-curvature="0" />
	<path style="fill:none;stroke:red;stroke-width:1px;stroke-linecap:butt;stroke-linejoin:miter;stroke-opacity:1" d="M 62.4871,765.611 50.1928,746.464 z" id="boundary" inkscape:connector-curvature="0" />
	<path style="fill:none;stroke:red;stroke-width:1px;stroke-linecap:butt;stroke-linejoin:miter;stroke-opacity:1" d="M 77.7065,789.694 62.4871,765.611 z" id="boundary" inkscape:connector-curvature="0" />
	<path style="fill:none;stroke:red;stroke-width:1px;stroke-linecap:butt;stroke-linejoin:miter;stroke-opacity:1" d="M 77.7065,789.694 87.7878,812.904 z" id="boundary" inkscape:connector-curvature="0" />
	<path style="fill:none;stroke:red;stroke-width:1px;stroke-linecap:butt;stroke-linejoin:miter;stroke-opacity:1" d="M 87.7878,812.904 106.384,826.929 z" id="boundary" inkscape:connector-curvature="0" />
	<path style="fill:none;stroke:red;stroke-width:1px;stroke-linecap:butt;stroke-linejoin:miter;stroke-opacity:1" d="M 171.525,679.063 181.154,709.442 z" id="boundary" inkscape:connector-curvature="0" />
	<path style="fill:none;stroke:red;stroke-width:1px;stroke-linecap:butt;stroke-linejoin:miter;stroke-opacity:1" d="M 171.525,679.063 160.692,655.105 z" id="boundary" inkscape:connector-curvature="0" />
	<path style="fill:none;stroke:red;stroke-width:1px;stroke-linecap:butt;stroke-linejoin:miter;stroke-opacity:1" d="M 121.836,846.336 106.384,826.929 z" id="boundary" inkscape:connector-curvature="0" />
	<path style="fill:none;stroke:red;stroke-width:1px;stroke-linecap:butt;stroke-linejoin:miter;stroke-opacity:1" d="M 142.097,867.144 121.836,846.336 z" id="boundary" inkscape:connector-curvature="0" />
	<path style="fill:none;stroke:red;stroke-width:1px;stroke-linecap:butt;stroke-linejoin:miter;stroke-opacity:1" d="M 142.097,867.144 159.734,882.566 z" id="boundary" inkscape:connector-curvature="0" />
	<path style="fill:none;stroke:red;stroke-width:1px;stroke-linecap:butt;stroke-linejoin:miter;stroke-opacity:1" d="M 159.734,882.566 182.531,906.834 z" id="boundary" inkscape:connector-curvature="0" />
	<path style="fill:none;stroke:red;stroke-width:1px;stroke-linecap:butt;stroke-linejoin:miter;stroke-opacity:1" d="M 181.154,709.442 199.694,730.002 z" id="boundary" inkscape:connector-curvature="0" />
	<path style="fill:none;stroke:red;stroke-width:1px;stroke-linecap:butt;stroke-linejoin:miter;stroke-opacity:1" d="M 212.627,746.583 199.694,730.002 z" id="boundary" inkscape:connector-curvature="0" />
	<path style="fill:none;stroke:red;stroke-width:1px;stroke-linecap:butt;stroke-linejoin:miter;stroke-opacity:1" d="M 229.43,769.231 212.627,746.583 z" id="boundary" inkscape:connector-curvature="0" />
	<path style="fill:none;stroke:red;stroke-width:1px;stroke-linecap:butt;stroke-linejoin:miter;stroke-opacity:1" d="M 248.98,784.244 229.43,769.231 z" id="boundary" inkscape:connector-curvature="0" />
	<path style="fill:none;stroke:red;stroke-width:1px;stroke-linecap:butt;stroke-linejoin:miter;stroke-opacity:1" d="M 288.758,817.216 266.467,799.672 z" id="boundary" inkscape:connector-curvature="0" />
	<path style="fill:none;stroke:red;stroke-width:1px;stroke-linecap:butt;stroke-linejoin:miter;stroke-opacity:1" d="M 266.467,799.672 248.98,784.244 z" id="boundary" inkscape:connector-curvature="0" />
	<path style="fill:none;stroke:red;stroke-width:1px;stroke-linecap:butt;stroke-linejoin:miter;stroke-opacity:1" d="M 462.086,862.262 433.873,865.144 z" id="boundary" inkscape:connector-curvature="0" />
	<path style="fill:none;stroke:red;stroke-width:1px;stroke-linecap:butt;stroke-linejoin:miter;stroke-opacity:1" d="M 288.758,817.216 318.498,826.688 z" id="boundary" inkscape:connector-curvature="0" />
	<path style="fill:none;stroke:red;stroke-width:1px;stroke-linecap:butt;stroke-linejoin:miter;stroke-opacity:1" d="M 199.951,917.372 231.311,931.389 z" id="boundary" inkscape:connector-curvature="0" />
	<path style="fill:none;stroke:red;stroke-width:1px;stroke-linecap:butt;stroke-linejoin:miter;stroke-opacity:1" d="M 279.841,962.367 251.017,947.452 z" id="boundary" inkscape:connector-curvature="0" />
	<path style="fill:none;stroke:red;stroke-width:1px;stroke-linecap:butt;stroke-linejoin:miter;stroke-opacity:1" d="M 251.017,947.452 231.311,931.389 z" id="boundary" inkscape:connector-curvature="0" />
	<path style="fill:none;stroke:red;stroke-width:1px;stroke-linecap:butt;stroke-linejoin:miter;stroke-opacity:1" d="M 279.841,962.367 304.664,972.121 z" id="boundary" inkscape:connector-curvature="0" />
	<path style="fill:none;stroke:red;stroke-width:1px;stroke-linecap:butt;stroke-linejoin:miter;stroke-opacity:1" d="M 199.951,917.372 182.531,906.834 z" id="boundary" inkscape:connector-curvature="0" />
	<path style="fill:none;stroke:red;stroke-width:1px;stroke-linecap:butt;stroke-linejoin:miter;stroke-opacity:1" d="M 318.498,826.688 339.537,842.427 z" id="boundary" inkscape:connector-curvature="0" />
	<path style="fill:none;stroke:red;stroke-width:1px;stroke-linecap:butt;stroke-linejoin:miter;stroke-opacity:1" d="M 339.537,842.427 368.584,846.252 z" id="boundary" inkscape:connector-curvature="0" />
	<path style="fill:none;stroke:red;stroke-width:1px;stroke-linecap:butt;stroke-linejoin:miter;stroke-opacity:1" d="M 399.252,862.99 368.584,846.252 z" id="boundary" inkscape:connector-curvature="0" />
	<path style="fill:none;stroke:red;stroke-width:1px;stroke-linecap:butt;stroke-linejoin:miter;stroke-opacity:1" d="M 399.252,862.99 433.873,865.144 z" id="boundary" inkscape:connector-curvature="0" />
	<path style="fill:none;stroke:red;stroke-width:1px;stroke-linecap:butt;stroke-linejoin:miter;stroke-opacity:1" d="M 361.79,984.829 333.546,979.003 z" id="boundary" inkscape:connector-curvature="0" />
	<path style="fill:none;stroke:red;stroke-width:1px;stroke-linecap:butt;stroke-linejoin:miter;stroke-opacity:1" d="M 361.79,984.829 384.987,989.931 z" id="boundary" inkscape:connector-curvature="0" />
	<path style="fill:none;stroke:red;stroke-width:1px;stroke-linecap:butt;stroke-linejoin:miter;stroke-opacity:1" d="M 384.987,989.931 413.008,988.485 z" id="boundary" inkscape:connector-curvature="0" />
	<path style="fill:none;stroke:red;stroke-width:1px;stroke-linecap:butt;stroke-linejoin:miter;stroke-opacity:1" d="M 304.664,972.121 333.546,979.003 z" id="boundary" inkscape:connector-curvature="0" />
	<path style="fill:none;stroke:red;stroke-width:1px;stroke-linecap:butt;stroke-linejoin:miter;stroke-opacity:1" d="M 440.947,996 413.008,988.485 z" id="boundary" inkscape:connector-curvature="0" />
	<path style="fill:none;stroke:red;stroke-width:1px;stroke-linecap:butt;stroke-linejoin:miter;stroke-opacity:1" d="M 466.448,990.906 440.947,996 z" id="boundary" inkscape:connector-curvature="0" />
	<path style="fill:none;stroke:red;stroke-width:1px;stroke-linecap:butt;stroke-linejoin:miter;stroke-opacity:1" d="M 528.414,10.014 550.184,5.07517 z" id="boundary" inkscape:connector-curvature="0" />
	<path style="fill:none;stroke:red;stroke-width:1px;stroke-linecap:butt;stroke-linejoin:miter;stroke-opacity:1" d="M 565.524,41.5333 551.344,54.4625 z" id="boundary" inkscape:connector-curvature="0" />
	<path style="fill:none;stroke:red;stroke-width:1px;stroke-linecap:butt;stroke-linejoin:miter;stroke-opacity:1" d="M 524.942,36.3347 528.414,10.014 z" id="boundary" inkscape:connector-curvature="0" />
	<path style="fill:none;stroke:red;stroke-width:1px;stroke-linecap:butt;stroke-linejoin:miter;stroke-opacity:1" d="M 520.346,57.6952 519.37,76.2887 z" id="boundary" inkscape:connector-curvature="0" />
	<path style="fill:none;stroke:red;stroke-width:1px;stroke-linecap:butt;stroke-linejoin:miter;stroke-opacity:1" d="M 524.942,36.3347 520.346,57.6952 z" id="boundary" inkscape:connector-curvature="0" />
	<path style="fill:none;stroke:red;stroke-width:1px;stroke-linecap:butt;stroke-linejoin:miter;stroke-opacity:1" d="M 551.344,54.4625 553.526,73.2126 z" id="boundary" inkscape:connector-curvature="0" />
	<path style="fill:none;stroke:red;stroke-width:1px;stroke-linecap:butt;stroke-linejoin:miter;stroke-opacity:1" d="M 550.184,5.07517 570.462,8.0813 z" id="boundary" inkscape:connector-curvature="0" />
	<path style="fill:none;stroke:red;stroke-width:1px;stroke-linecap:butt;stroke-linejoin:miter;stroke-opacity:1" d="M 581.251,34.8402 565.524,41.5333 z" id="boundary" inkscape:connector-curvature="0" />
	<path style="fill:none;stroke:red;stroke-width:1px;stroke-linecap:butt;stroke-linejoin:miter;stroke-opacity:1" d="M 595.826,12.8816 609.39,12.508 z" id="boundary" inkscape:connector-curvature="0" />
	<path style="fill:none;stroke:red;stroke-width:1px;stroke-linecap:butt;stroke-linejoin:miter;stroke-opacity:1" d="M 570.462,8.0813 595.826,12.8816 z" id="boundary" inkscape:connector-curvature="0" />
	<path style="fill:none;stroke:red;stroke-width:1px;stroke-linecap:butt;stroke-linejoin:miter;stroke-opacity:1" d="M 599.997,46.0082 581.251,34.8402 z" id="boundary" inkscape:connector-curvature="0" />
	<path style="fill:none;stroke:red;stroke-width:1px;stroke-linecap:butt;stroke-linejoin:miter;stroke-opacity:1" d="M 561.32,85.4061 553.526,73.2126 z" id="boundary" inkscape:connector-curvature="0" />
	<path style="fill:none;stroke:red;stroke-width:1px;stroke-linecap:butt;stroke-linejoin:miter;stroke-opacity:1" d="M 608.356,59.0591 605.328,74.7541 z" id="boundary" inkscape:connector-curvature="0" />
	<path style="fill:none;stroke:red;stroke-width:1px;stroke-linecap:butt;stroke-linejoin:miter;stroke-opacity:1" d="M 599.997,46.0082 608.356,59.0591 z" id="boundary" inkscape:connector-curvature="0" />
	<path style="fill:none;stroke:red;stroke-width:1px;stroke-linecap:butt;stroke-linejoin:miter;stroke-opacity:1" d="M 519.37,76.2887 519.292,100.97 z" id="boundary" inkscape:connector-curvature="0" />
	<path style="fill:none;stroke:red;stroke-width:1px;stroke-linecap:butt;stroke-linejoin:miter;stroke-opacity:1" d="M 517.843,117.027 519.292,100.97 z" id="boundary" inkscape:connector-curvature="0" />
	<path style="fill:none;stroke:red;stroke-width:1px;stroke-linecap:butt;stroke-linejoin:miter;stroke-opacity:1" d="M 517.501,142.882 517.843,117.027 z" id="boundary" inkscape:connector-curvature="0" />
	<path style="fill:none;stroke:red;stroke-width:1px;stroke-linecap:butt;stroke-linejoin:miter;stroke-opacity:1" d="M 520.654,183.994 515.991,215.201 z" id="boundary" inkscape:connector-curvature="0" />
	<path style="fill:none;stroke:red;stroke-width:1px;stroke-linecap:butt;stroke-linejoin:miter;stroke-opacity:1" d="M 517.501,142.882 518.471,166.667 z" id="boundary" inkscape:connector-curvature="0" />
	<path style="fill:none;stroke:red;stroke-width:1px;stroke-linecap:butt;stroke-linejoin:miter;stroke-opacity:1" d="M 520.654,183.994 518.471,166.667 z" id="boundary" inkscape:connector-curvature="0" />
	<path style="fill:none;stroke:red;stroke-width:1px;stroke-linecap:butt;stroke-linejoin:miter;stroke-opacity:1" d="M 538.047,225.507 515.991,215.201 z" id="boundary" inkscape:connector-curvature="0" />
	<path style="fill:none;stroke:red;stroke-width:1px;stroke-linecap:butt;stroke-linejoin:miter;stroke-opacity:1" d="M 561.32,85.4061 578.194,95.7593 z" id="boundary" inkscape:connector-curvature="0" />
	<path style="fill:none;stroke:red;stroke-width:1px;stroke-linecap:butt;stroke-linejoin:miter;stroke-opacity:1" d="M 578.194,95.7593 593.21,93.8774 z" id="boundary" inkscape:connector-curvature="0" />
	<path style="fill:none;stroke:red;stroke-width:1px;stroke-linecap:butt;stroke-linejoin:miter;stroke-opacity:1" d="M 559.224,228.63 580.925,242.286 z" id="boundary" inkscape:connector-curvature="0" />
	<path style="fill:none;stroke:red;stroke-width:1px;stroke-linecap:butt;stroke-linejoin:miter;stroke-opacity:1" d="M 538.047,225.507 559.224,228.63 z" id="boundary" inkscape:connector-curvature="0" />
	<path style="fill:none;stroke:red;stroke-width:1px;stroke-linecap:butt;stroke-linejoin:miter;stroke-opacity:1" d="M 580.925,242.286 606.208,253.5 z" id="boundary" inkscape:connector-curvature="0" />
	<path style="fill:none;stroke:red;stroke-width:1px;stroke-linecap:butt;stroke-linejoin:miter;stroke-opacity:1" d="M 593.21,93.8774 605.328,74.7541 z" id="boundary" inkscape:connector-curvature="0" />
	<path style="fill:none;stroke:red;stroke-width:1px;stroke-linecap:butt;stroke-linejoin:miter;stroke-opacity:1" d="M 631.451,10.6499 609.39,12.508 z" id="boundary" inkscape:connector-curvature="0" />
	<path style="fill:none;stroke:red;stroke-width:1px;stroke-linecap:butt;stroke-linejoin:miter;stroke-opacity:1" d="M 631.451,10.6499 631.83,33.6461 z" id="boundary" inkscape:connector-curvature="0" />
	<path style="fill:none;stroke:red;stroke-width:1px;stroke-linecap:butt;stroke-linejoin:miter;stroke-opacity:1" d="M 631.83,33.6461 631.606,57.1678 z" id="boundary" inkscape:connector-curvature="0" />
	<path style="fill:none;stroke:red;stroke-width:1px;stroke-linecap:butt;stroke-linejoin:miter;stroke-opacity:1" d="M 608.356,59.0591 631.606,57.1678 z" id="boundary" inkscape:connector-curvature="0" />
	<path style="fill:none;stroke:red;stroke-width:1px;stroke-linecap:butt;stroke-linejoin:miter;stroke-opacity:1" d="M 638.564,71.5131 631.606,57.1678 z" id="boundary" inkscape:connector-curvature="0" />
	<path style="fill:none;stroke:red;stroke-width:1px;stroke-linecap:butt;stroke-linejoin:miter;stroke-opacity:1" d="M 633.828,101.146 637.287,121.871 z" id="boundary" inkscape:connector-curvature="0" />
	<path style="fill:none;stroke:red;stroke-width:1px;stroke-linecap:butt;stroke-linejoin:miter;stroke-opacity:1" d="M 638.564,71.5131 633.828,101.146 z" id="boundary" inkscape:connector-curvature="0" />
	<path style="fill:none;stroke:red;stroke-width:1px;stroke-linecap:butt;stroke-linejoin:miter;stroke-opacity:1" d="M 637.287,121.871 648.705,130.892 z" id="boundary" inkscape:connector-curvature="0" />
	<path style="fill:none;stroke:red;stroke-width:1px;stroke-linecap:butt;stroke-linejoin:miter;stroke-opacity:1" d="M 696.23,157.508 675.576,143.003 z" id="boundary" inkscape:connector-curvature="0" />
	<path style="fill:none;stroke:red;stroke-width:1px;stroke-linecap:butt;stroke-linejoin:miter;stroke-opacity:1" d="M 675.576,143.003 648.705,130.892 z" id="boundary" inkscape:connector-curvature="0" />
	<path style="fill:none;stroke:red;stroke-width:1px;stroke-linecap:butt;stroke-linejoin:miter;stroke-opacity:1" d="M 745.203,187.449 724.014,176.536 z" id="boundary" inkscape:connector-curvature="0" />
	<path style="fill:none;stroke:red;stroke-width:1px;stroke-linecap:butt;stroke-linejoin:miter;stroke-opacity:1" d="M 724.014,176.536 696.23,157.508 z" id="boundary" inkscape:connector-curvature="0" />
	<path style="fill:none;stroke:red;stroke-width:1px;stroke-linecap:butt;stroke-linejoin:miter;stroke-opacity:1" d="M 766.953,201.757 745.203,187.449 z" id="boundary" inkscape:connector-curvature="0" />
	<path style="fill:none;stroke:red;stroke-width:1px;stroke-linecap:butt;stroke-linejoin:miter;stroke-opacity:1" d="M 633.459,266.75 648.132,284.439 z" id="boundary" inkscape:connector-curvature="0" />
	<path style="fill:none;stroke:red;stroke-width:1px;stroke-linecap:butt;stroke-linejoin:miter;stroke-opacity:1" d="M 633.459,266.75 606.208,253.5 z" id="boundary" inkscape:connector-curvature="0" />
	<path style="fill:none;stroke:red;stroke-width:1px;stroke-linecap:butt;stroke-linejoin:miter;stroke-opacity:1" d="M 648.132,284.439 665.587,295.508 z" id="boundary" inkscape:connector-curvature="0" />
	<path style="fill:none;stroke:red;stroke-width:1px;stroke-linecap:butt;stroke-linejoin:miter;stroke-opacity:1" d="M 665.587,295.508 689.406,310.859 z" id="boundary" inkscape:connector-curvature="0" />
	<path style="fill:none;stroke:red;stroke-width:1px;stroke-linecap:butt;stroke-linejoin:miter;stroke-opacity:1" d="M 699.413,325.671 689.406,310.859 z" id="boundary" inkscape:connector-curvature="0" />
	<path style="fill:none;stroke:red;stroke-width:1px;stroke-linecap:butt;stroke-linejoin:miter;stroke-opacity:1" d="M 717.163,347.368 699.413,325.671 z" id="boundary" inkscape:connector-curvature="0" />
	<path style="fill:none;stroke:red;stroke-width:1px;stroke-linecap:butt;stroke-linejoin:miter;stroke-opacity:1" d="M 736.035,366.16 717.163,347.368 z" id="boundary" inkscape:connector-curvature="0" />
	<path style="fill:none;stroke:red;stroke-width:1px;stroke-linecap:butt;stroke-linejoin:miter;stroke-opacity:1" d="M 766.953,201.757 783.449,222.609 z" id="boundary" inkscape:connector-curvature="0" />
	<path style="fill:none;stroke:red;stroke-width:1px;stroke-linecap:butt;stroke-linejoin:miter;stroke-opacity:1" d="M 799.517,243.292 783.449,222.609 z" id="boundary" inkscape:connector-curvature="0" />
	<path style="fill:none;stroke:red;stroke-width:1px;stroke-linecap:butt;stroke-linejoin:miter;stroke-opacity:1" d="M 823.923,264.76 831.219,284.511 z" id="boundary" inkscape:connector-curvature="0" />
	<path style="fill:none;stroke:red;stroke-width:1px;stroke-linecap:butt;stroke-linejoin:miter;stroke-opacity:1" d="M 823.923,264.76 799.517,243.292 z" id="boundary" inkscape:connector-curvature="0" />
	<path style="fill:none;stroke:red;stroke-width:1px;stroke-linecap:butt;stroke-linejoin:miter;stroke-opacity:1" d="M 847.092,310.182 831.219,284.511 z" id="boundary" inkscape:connector-curvature="0" />
	<path style="fill:none;stroke:red;stroke-width:1px;stroke-linecap:butt;stroke-linejoin:miter;stroke-opacity:1" d="M 742.646,387.872 736.035,366.16 z" id="boundary" inkscape:connector-curvature="0" />
	<path style="fill:none;stroke:red;stroke-width:1px;stroke-linecap:butt;stroke-linejoin:miter;stroke-opacity:1" d="M 858.697,333.306 847.092,310.182 z" id="boundary" inkscape:connector-curvature="0" />
	<path style="fill:none;stroke:red;stroke-width:1px;stroke-linecap:butt;stroke-linejoin:miter;stroke-opacity:1" d="M 858.697,333.306 871.764,355.048 z" id="boundary" inkscape:connector-curvature="0" />
	<path style="fill:none;stroke:red;stroke-width:1px;stroke-linecap:butt;stroke-linejoin:miter;stroke-opacity:1" d="M 881.138,387.605 871.764,355.048 z" id="boundary" inkscape:connector-curvature="0" />
	<path style="fill:none;stroke:red;stroke-width:1px;stroke-linecap:butt;stroke-linejoin:miter;stroke-opacity:1" d="M 743.623,693.189 732.165,712.774 z" id="boundary" inkscape:connector-curvature="0" />
	<path style="fill:none;stroke:red;stroke-width:1px;stroke-linecap:butt;stroke-linejoin:miter;stroke-opacity:1" d="M 732.165,712.774 717.821,727.106 z" id="boundary" inkscape:connector-curvature="0" />
	<path style="fill:none;stroke:red;stroke-width:1px;stroke-linecap:butt;stroke-linejoin:miter;stroke-opacity:1" d="M 686.914,770.566 669.875,789.822 z" id="boundary" inkscape:connector-curvature="0" />
	<path style="fill:none;stroke:red;stroke-width:1px;stroke-linecap:butt;stroke-linejoin:miter;stroke-opacity:1" d="M 709.417,751.071 686.914,770.566 z" id="boundary" inkscape:connector-curvature="0" />
	<path style="fill:none;stroke:red;stroke-width:1px;stroke-linecap:butt;stroke-linejoin:miter;stroke-opacity:1" d="M 647.2,803.919 621.336,816.372 z" id="boundary" inkscape:connector-curvature="0" />
	<path style="fill:none;stroke:red;stroke-width:1px;stroke-linecap:butt;stroke-linejoin:miter;stroke-opacity:1" d="M 669.875,789.822 647.2,803.919 z" id="boundary" inkscape:connector-curvature="0" />
	<path style="fill:none;stroke:red;stroke-width:1px;stroke-linecap:butt;stroke-linejoin:miter;stroke-opacity:1" d="M 709.417,751.071 717.821,727.106 z" id="boundary" inkscape:connector-curvature="0" />
	<path style="fill:none;stroke:red;stroke-width:1px;stroke-linecap:butt;stroke-linejoin:miter;stroke-opacity:1" d="M 621.336,816.372 599.489,829.746 z" id="boundary" inkscape:connector-curvature="0" />
	<path style="fill:none;stroke:red;stroke-width:1px;stroke-linecap:butt;stroke-linejoin:miter;stroke-opacity:1" d="M 514.12,861.643 489.144,866.876 z" id="boundary" inkscape:connector-curvature="0" />
	<path style="fill:none;stroke:red;stroke-width:1px;stroke-linecap:butt;stroke-linejoin:miter;stroke-opacity:1" d="M 462.086,862.262 489.144,866.876 z" id="boundary" inkscape:connector-curvature="0" />
	<path style="fill:none;stroke:red;stroke-width:1px;stroke-linecap:butt;stroke-linejoin:miter;stroke-opacity:1" d="M 514.12,861.643 544.494,852.202 z" id="boundary" inkscape:connector-curvature="0" />
	<path style="fill:none;stroke:red;stroke-width:1px;stroke-linecap:butt;stroke-linejoin:miter;stroke-opacity:1" d="M 571.082,844.838 544.494,852.202 z" id="boundary" inkscape:connector-curvature="0" />
	<path style="fill:none;stroke:red;stroke-width:1px;stroke-linecap:butt;stroke-linejoin:miter;stroke-opacity:1" d="M 575.195,981.445 545.377,986.578 z" id="boundary" inkscape:connector-curvature="0" />
	<path style="fill:none;stroke:red;stroke-width:1px;stroke-linecap:butt;stroke-linejoin:miter;stroke-opacity:1" d="M 494.907,989.504 466.448,990.906 z" id="boundary" inkscape:connector-curvature="0" />
	<path style="fill:none;stroke:red;stroke-width:1px;stroke-linecap:butt;stroke-linejoin:miter;stroke-opacity:1" d="M 494.907,989.504 522.233,990.198 z" id="boundary" inkscape:connector-curvature="0" />
	<path style="fill:none;stroke:red;stroke-width:1px;stroke-linecap:butt;stroke-linejoin:miter;stroke-opacity:1" d="M 522.233,990.198 545.377,986.578 z" id="boundary" inkscape:connector-curvature="0" />
	<path style="fill:none;stroke:red;stroke-width:1px;stroke-linecap:butt;stroke-linejoin:miter;stroke-opacity:1" d="M 575.195,981.445 597.778,972.627 z" id="boundary" inkscape:connector-curvature="0" />
	<path style="fill:none;stroke:red;stroke-width:1px;stroke-linecap:butt;stroke-linejoin:miter;stroke-opacity:1" d="M 627.408,961.236 597.778,972.627 z" id="boundary" inkscape:connector-curvature="0" />
	<path style="fill:none;stroke:red;stroke-width:1px;stroke-linecap:butt;stroke-linejoin:miter;stroke-opacity:1" d="M 700.284,920.869 724.129,911.853 z" id="boundary" inkscape:connector-curvature="0" />
	<path style="fill:none;stroke:red;stroke-width:1px;stroke-linecap:butt;stroke-linejoin:miter;stroke-opacity:1" d="M 675.896,936.218 700.284,920.869 z" id="boundary" inkscape:connector-curvature="0" />
	<path style="fill:none;stroke:red;stroke-width:1px;stroke-linecap:butt;stroke-linejoin:miter;stroke-opacity:1" d="M 653.784,950.778 627.408,961.236 z" id="boundary" inkscape:connector-curvature="0" />
	<path style="fill:none;stroke:red;stroke-width:1px;stroke-linecap:butt;stroke-linejoin:miter;stroke-opacity:1" d="M 675.896,936.218 653.784,950.778 z" id="boundary" inkscape:connector-curvature="0" />
	<path style="fill:none;stroke:red;stroke-width:1px;stroke-linecap:butt;stroke-linejoin:miter;stroke-opacity:1" d="M 741.822,897.919 724.129,911.853 z" id="boundary" inkscape:connector-curvature="0" />
	<path style="fill:none;stroke:red;stroke-width:1px;stroke-linecap:butt;stroke-linejoin:miter;stroke-opacity:1" d="M 756.761,874.032 741.822,897.919 z" id="boundary" inkscape:connector-curvature="0" />
	<path style="fill:none;stroke:red;stroke-width:1px;stroke-linecap:butt;stroke-linejoin:miter;stroke-opacity:1" d="M 571.082,844.838 599.489,829.746 z" id="boundary" inkscape:connector-curvature="0" />
	<path style="fill:none;stroke:red;stroke-width:1px;stroke-linecap:butt;stroke-linejoin:miter;stroke-opacity:1" d="M 749.366,401.68 742.646,387.872 z" id="boundary" inkscape:connector-curvature="0" />
	<path style="fill:none;stroke:red;stroke-width:1px;stroke-linecap:butt;stroke-linejoin:miter;stroke-opacity:1" d="M 749.366,401.68 759.984,428.581 z" id="boundary" inkscape:connector-curvature="0" />
	<path style="fill:none;stroke:red;stroke-width:1px;stroke-linecap:butt;stroke-linejoin:miter;stroke-opacity:1" d="M 759.984,428.581 766.76,451.974 z" id="boundary" inkscape:connector-curvature="0" />
	<path style="fill:none;stroke:red;stroke-width:1px;stroke-linecap:butt;stroke-linejoin:miter;stroke-opacity:1" d="M 776.975,475.268 778.286,499.185 z" id="boundary" inkscape:connector-curvature="0" />
	<path style="fill:none;stroke:red;stroke-width:1px;stroke-linecap:butt;stroke-linejoin:miter;stroke-opacity:1" d="M 776.975,475.268 766.76,451.974 z" id="boundary" inkscape:connector-curvature="0" />
	<path style="fill:none;stroke:red;stroke-width:1px;stroke-linecap:butt;stroke-linejoin:miter;stroke-opacity:1" d="M 781.59,530.228 784.284,562.552 z" id="boundary" inkscape:connector-curvature="0" />
	<path style="fill:none;stroke:red;stroke-width:1px;stroke-linecap:butt;stroke-linejoin:miter;stroke-opacity:1" d="M 778.286,499.185 781.59,530.228 z" id="boundary" inkscape:connector-curvature="0" />
	<path style="fill:none;stroke:red;stroke-width:1px;stroke-linecap:butt;stroke-linejoin:miter;stroke-opacity:1" d="M 784.284,562.552 776.156,589.449 z" id="boundary" inkscape:connector-curvature="0" />
	<path style="fill:none;stroke:red;stroke-width:1px;stroke-linecap:butt;stroke-linejoin:miter;stroke-opacity:1" d="M 776.156,589.449 774.393,612.746 z" id="boundary" inkscape:connector-curvature="0" />
	<path style="fill:none;stroke:red;stroke-width:1px;stroke-linecap:butt;stroke-linejoin:miter;stroke-opacity:1" d="M 881.138,387.605 895.142,407.356 z" id="boundary" inkscape:connector-curvature="0" />
	<path style="fill:none;stroke:red;stroke-width:1px;stroke-linecap:butt;stroke-linejoin:miter;stroke-opacity:1" d="M 895.549,439.563 903.698,465.595 z" id="boundary" inkscape:connector-curvature="0" />
	<path style="fill:none;stroke:red;stroke-width:1px;stroke-linecap:butt;stroke-linejoin:miter;stroke-opacity:1" d="M 895.142,407.356 895.549,439.563 z" id="boundary" inkscape:connector-curvature="0" />
	<path style="fill:none;stroke:red;stroke-width:1px;stroke-linecap:butt;stroke-linejoin:miter;stroke-opacity:1" d="M 906.352,496.889 903.698,465.595 z" id="boundary" inkscape:connector-curvature="0" />
	<path style="fill:none;stroke:red;stroke-width:1px;stroke-linecap:butt;stroke-linejoin:miter;stroke-opacity:1" d="M 907.027,522.345 906.352,496.889 z" id="boundary" inkscape:connector-curvature="0" />
	<path style="fill:none;stroke:red;stroke-width:1px;stroke-linecap:butt;stroke-linejoin:miter;stroke-opacity:1" d="M 901.078,621.727 907.12,598.14 z" id="boundary" inkscape:connector-curvature="0" />
	<path style="fill:none;stroke:red;stroke-width:1px;stroke-linecap:butt;stroke-linejoin:miter;stroke-opacity:1" d="M 910.013,551.682 907.027,522.345 z" id="boundary" inkscape:connector-curvature="0" />
	<path style="fill:none;stroke:red;stroke-width:1px;stroke-linecap:butt;stroke-linejoin:miter;stroke-opacity:1" d="M 912.057,572.125 907.12,598.14 z" id="boundary" inkscape:connector-curvature="0" />
	<path style="fill:none;stroke:red;stroke-width:1px;stroke-linecap:butt;stroke-linejoin:miter;stroke-opacity:1" d="M 910.013,551.682 912.057,572.125 z" id="boundary" inkscape:connector-curvature="0" />
	<path style="fill:none;stroke:red;stroke-width:1px;stroke-linecap:butt;stroke-linejoin:miter;stroke-opacity:1" d="M 762.922,645.877 757.982,666.388 z" id="boundary" inkscape:connector-curvature="0" />
	<path style="fill:none;stroke:red;stroke-width:1px;stroke-linecap:butt;stroke-linejoin:miter;stroke-opacity:1" d="M 757.982,666.388 743.623,693.189 z" id="boundary" inkscape:connector-curvature="0" />
	<path style="fill:none;stroke:red;stroke-width:1px;stroke-linecap:butt;stroke-linejoin:miter;stroke-opacity:1" d="M 774.393,612.746 762.922,645.877 z" id="boundary" inkscape:connector-curvature="0" />
	<path style="fill:none;stroke:red;stroke-width:1px;stroke-linecap:butt;stroke-linejoin:miter;stroke-opacity:1" d="M 777.827,852.216 756.761,874.032 z" id="boundary" inkscape:connector-curvature="0" />
	<path style="fill:none;stroke:red;stroke-width:1px;stroke-linecap:butt;stroke-linejoin:miter;stroke-opacity:1" d="M 833.733,788.351 820.966,814.056 z" id="boundary" inkscape:connector-curvature="0" />
	<path style="fill:none;stroke:red;stroke-width:1px;stroke-linecap:butt;stroke-linejoin:miter;stroke-opacity:1" d="M 777.827,852.216 799.141,831.461 z" id="boundary" inkscape:connector-curvature="0" />
	<path style="fill:none;stroke:red;stroke-width:1px;stroke-linecap:butt;stroke-linejoin:miter;stroke-opacity:1" d="M 820.966,814.056 799.141,831.461 z" id="boundary" inkscape:connector-curvature="0" />
	<path style="fill:none;stroke:red;stroke-width:1px;stroke-linecap:butt;stroke-linejoin:miter;stroke-opacity:1" d="M 894.21,655.04 901.078,621.727 z" id="boundary" inkscape:connector-curvature="0" />
	<path style="fill:none;stroke:red;stroke-width:1px;stroke-linecap:butt;stroke-linejoin:miter;stroke-opacity:1" d="M 894.21,655.04 883.209,685.921 z" id="boundary" inkscape:connector-curvature="0" />
	<path style="fill:none;stroke:red;stroke-width:1px;stroke-linecap:butt;stroke-linejoin:miter;stroke-opacity:1" d="M 875.233,708.233 861.47,735.53 z" id="boundary" inkscape:connector-curvature="0" />
	<path style="fill:none;stroke:red;stroke-width:1px;stroke-linecap:butt;stroke-linejoin:miter;stroke-opacity:1" d="M 883.209,685.921 875.233,708.233 z" id="boundary" inkscape:connector-curvature="0" />
	<path style="fill:none;stroke:red;stroke-width:1px;stroke-linecap:butt;stroke-linejoin:miter;stroke-opacity:1" d="M 861.47,735.53 851.404,758.504 z" id="boundary" inkscape:connector-curvature="0" />
	<path style="fill:none;stroke:red;stroke-width:1px;stroke-linecap:butt;stroke-linejoin:miter;stroke-opacity:1" d="M 833.733,788.351 851.404,758.504 z" id="boundary" inkscape:connector-curvature="0" />
	<circle cx="294.263" cy="7.24472" r="4" fill="#0" id="circle0"/>
	<circle cx="314.653" cy="4" r="4" fill="#0" id="circle1"/>
	<circle cx="333.552" cy="8.82534" r="4" fill="#0" id="circle2"/>
	<circle cx="354.375" cy="5.48831" r="4" fill="#0" id="circle3"/>
	<circle cx="377.259" cy="7.20889" r="4" fill="#0" id="circle4"/>
	<circle cx="391.85" cy="5.3617" r="4" fill="#0" id="circle5"/>
	<circle cx="411.44" cy="6.28896" r="4" fill="#0" id="circle6"/>
	<circle cx="290.872" cy="20.4943" r="4" fill="#0" id="circle7"/>
	<circle cx="293.414" cy="38.2857" r="4" fill="#0" id="circle8"/>
	<circle cx="297.382" cy="57.8573" r="4" fill="#0" id="circle9"/>
	<circle cx="297.142" cy="78.2209" r="4" fill="#0" id="circle10"/>
	<circle cx="296.171" cy="93.6449" r="4" fill="#0" id="circle11"/>
	<circle cx="296.015" cy="118.06" r="4" fill="#0" id="circle12"/>
	<circle cx="277.545" cy="127.88" r="4" fill="#0" id="circle13"/>
	<circle cx="254.372" cy="135.721" r="4" fill="#0" id="circle14"/>
	<circle cx="238.343" cy="144.438" r="4" fill="#0" id="circle15"/>
	<circle cx="221.348" cy="158.765" r="4" fill="#0" id="circle16"/>
	<circle cx="202.462" cy="165.652" r="4" fill="#0" id="circle17"/>
	<circle cx="186.179" cy="173.262" r="4" fill="#0" id="circle18"/>
	<circle cx="171.599" cy="189.828" r="4" fill="#0" id="circle19"/>
	<circle cx="153.524" cy="207.279" r="4" fill="#0" id="circle20"/>
	<circle cx="140.837" cy="221.251" r="4" fill="#0" id="circle21"/>
	<circle cx="126.828" cy="239.283" r="4" fill="#0" id="circle22"/>
	<circle cx="108.914" cy="250.928" r="4" fill="#0" id="circle23"/>
	<circle cx="101.137" cy="266.878" r="4" fill="#0" id="circle24"/>
	<circle cx="82.5247" cy="291.251" r="4" fill="#0" id="circle25"/>
	<circle cx="75.2394" cy="302.81" r="4" fill="#0" id="circle26"/>
	<circle cx="59.6684" cy="326.511" r="4" fill="#0" id="circle27"/>
	<circle cx="50.1077" cy="352.821" r="4" fill="#0" id="circle28"/>
	<circle cx="34.4905" cy="381.126" r="4" fill="#0" id="circle29"/>
	<circle cx="30.024" cy="401.244" r="4" fill="#0" id="circle30"/>
	<circle cx="17.2181" cy="433.348" r="4" fill="#0" id="circle31"/>
	<circle cx="13.6018" cy="463.252" r="4" fill="#0" id="circle32"/>
	<circle cx="8.99307" cy="492.624" r="4" fill="#0" id="circle33"/>
	<circle cx="4.15315" cy="525.756" r="4" fill="#0" id="circle34"/>
	<circle cx="4" cy="560.699" r="4" fill="#0" id="circle35"/>
	<circle cx="7.24602" cy="582.183" r="4" fill="#0" id="circle36"/>
	<circle cx="7.0228" cy="611.282" r="4" fill="#0" id="circle37"/>
	<circle cx="15.9517" cy="638.546" r="4" fill="#0" id="circle38"/>
	<circle cx="19.3239" cy="669.04" r="4" fill="#0" id="circle39"/>
	<circle cx="26.4137" cy="696.71" r="4" fill="#0" id="circle40"/>
	<circle cx="40.8603" cy="717.135" r="4" fill="#0" id="circle41"/>
	<circle cx="50.1928" cy="746.464" r="4" fill="#0" id="circle42"/>
	<circle cx="62.4871" cy="765.611" r="4" fill="#0" id="circle43"/>
	<circle cx="77.7065" cy="789.694" r="4" fill="#0" id="circle44"/>
	<circle cx="87.7878" cy="812.904" r="4" fill="#0" id="circle45"/>
	<circle cx="106.384" cy="826.929" r="4" fill="#0" id="circle46"/>
	<circle cx="121.836" cy="846.336" r="4" fill="#0" id="circle47"/>
	<circle cx="142.097" cy="867.144" r="4" fill="#0" id="circle48"/>
	<circle cx="159.734" cy="882.566" r="4" fill="#0" id="circle49"/>
	<circle cx="182.531" cy="906.834" r="4" fill="#0" id="circle50"/>
	<circle cx="199.951" cy="917.372" r="4" fill="#0" id="circle51"/>
	<circle cx="231.311" cy="931.389" r="4" fill="#0" id="circle52"/>
	<circle cx="251.017" cy="947.452" r="4" fill="#0" id="circle53"/>
	<circle cx="279.841" cy="962.367" r="4" fill="#0" id="circle54"/>
	<circle cx="304.664" cy="972.121" r="4" fill="#0" id="circle55"/>
	<circle cx="333.546" cy="979.003" r="4" fill="#0" id="circle56"/>
	<circle cx="361.79" cy="984.829" r="4" fill="#0" id="circle57"/>
	<circle cx="384.987" cy="989.931" r="4" fill="#0" id="circle58"/>
	<circle cx="413.008" cy="988.485" r="4" fill="#0" id="circle59"/>
	<circle cx="440.947" cy="996" r="4" fill="#0" id="circle60"/>
	<circle cx="466.448" cy="990.906" r="4" fill="#0" id="circle61"/>
	<circle cx="494.907" cy="989.504" r="4" fill="#0" id="circle62"/>
	<circle cx="522.233" cy="990.198" r="4" fill="#0" id="circle63"/>
	<circle cx="545.377" cy="986.578" r="4" fill="#0" id="circle64"/>
	<circle cx="575.195" cy="981.445" r="4" fill="#0" id="circle65"/>
	<circle cx="597.778" cy="972.627" r="4" fill="#0" id="circle66"/>
	<circle cx="627.408" cy="961.236" r="4" fill="#0" id="circle67"/>
	<circle cx="653.784" cy="950.778" r="4" fill="#0" id="circle68"/>
	<circle cx="675.896" cy="936.218" r="4" fill="#0" id="circle69"/>
	<circle cx="700.284" cy="920.869" r="4" fill="#0" id="circle70"/>
	<circle cx="724.129" cy="911.853" r="4" fill="#0" id="circle71"/>
	<circle cx="741.822" cy="897.919" r="4" fill="#0" id="circle72"/>
	<circle cx="756.761" cy="874.032" r="4" fill="#0" id="circle73"/>
	<circle cx="777.827" cy="852.216" r="4" fill="#0" id="circle74"/>
	<circle cx="799.141" cy="831.461" r="4" fill="#0" id="circle75"/>
	<circle cx="820.966" cy="814.056" r="4" fill="#0" id="circle76"/>
	<circle cx="833.733" cy="788.351" r="4" fill="#0" id="circle77"/>
	<circle cx="528.414" cy="10.014" r="4" fill="#0" id="circle78"/>
	<circle cx="550.184" cy="5.07517" r="4" fill="#0" id="circle79"/>
	<circle cx="570.462" cy="8.0813" r="4" fill="#0" id="circle80"/>
	<circle cx="595.826" cy="12.8816" r="4" fill="#0" id="circle81"/>
	<circle cx="609.39" cy="12.508" r="4" fill="#0" id="circle82"/>
	<circle cx="631.451" cy="10.6499" r="4" fill="#0" id="circle83"/>
	<circle cx="631.83" cy="33.6461" r="4" fill="#0" id="circle84"/>
	<circle cx="631.606" cy="57.1678" r="4" fill="#0" id="circle85"/>
	<circle cx="638.564" cy="71.5131" r="4" fill="#0" id="circle86"/>
	<circle cx="633.828" cy="101.146" r="4" fill="#0" id="circle87"/>
	<circle cx="637.287" cy="121.871" r="4" fill="#0" id="circle88"/>
	<circle cx="648.705" cy="130.892" r="4" fill="#0" id="circle89"/>
	<circle cx="675.576" cy="143.003" r="4" fill="#0" id="circle90"/>
	<circle cx="696.23" cy="157.508" r="4" fill="#0" id="circle91"/>
	<circle cx="724.014" cy="176.536" r="4" fill="#0" id="circle92"/>
	<circle cx="745.203" cy="187.449" r="4" fill="#0" id="circle93"/>
	<circle cx="766.953" cy="201.757" r="4" fill="#0" id="circle94"/>
	<circle cx="783.449" cy="222.609" r="4" fill="#0" id="circle95"/>
	<circle cx="799.517" cy="243.292" r="4" fill="#0" id="circle96"/>
	<circle cx="823.923" cy="264.76" r="4" fill="#0" id="circle97"/>
	<circle cx="831.219" cy="284.511" r="4" fill="#0" id="circle98"/>
	<circle cx="847.092" cy="310.182" r="4" fill="#0" id="circle99"/>
	<circle cx="858.697" cy="333.306" r="4" fill="#0" id="circle100"/>
	<circle cx="871.764" cy="355.048" r="4" fill="#0" id="circle101"/>
	<circle cx="881.138" cy="387.605" r="4" fill="#0" id="circle102"/>
	<circle cx="895.142" cy="407.356" r="4" fill="#0" id="circle103"/>
	<circle cx="895.549" cy="439.563" r="4" fill="#0" id="circle104"/>
	<circle cx="903.698" cy="465.595" r="4" fill="#0" id="circle105"/>
	<circle cx="906.352" cy="496.889" r="4" fill="#0" id="circle106"/>
	<circle cx="907.027" cy="522.345" r="4" fill="#0" id="circle107"/>
	<circle cx="910.013" cy="551.682" r="4" fill="#0" id="circle108"/>
	<circle cx="912.057" cy="572.125" r="4" fill="#0" id="circle109"/>
	<circle cx="907.12" cy="598.14" r="4" fill="#0" id="circle110"/>
	<circle cx="901.078" cy="621.727" r="4" fill="#0" id="circle111"/>
	<circle cx="894.21" cy="655.04" r="4" fill="#0" id="circle112"/>
	<circle cx="883.209" cy="685.921" r="4" fill="#0" id="circle113"/>
	<circle cx="875.233" cy="708.233" r="4" fill="#0" id="circle114"/>
	<circle cx="861.47" cy="735.53" r="4" fill="#0" id="circle115"/>
	<circle cx="851.404" cy="758.504" r="4" fill="#0" id="circle116"/>
	<circle cx="412.126" cy="30.3171" r="4" fill="#0" id="circle117"/>
	<circle cx="411.6" cy="47.9598" r="4" fill="#0" id="circle118"/>
	<circle cx="405.187" cy="74.556" r="4" fill="#0" id="circle119"/>
	<circle cx="406.454" cy="96.2245" r="4" fill="#0" id="circle120"/>
	<circle cx="408.008" cy="120.077" r="4" fill="#0" id="circle121"/>
	<circle cx="404.914" cy="145.974" r="4" fill="#0" id="circle122"/>
	<circle cx="406.885" cy="174.517" r="4" fill="#0" id="circle123"/>
	<circle cx="407.308" cy="190.433" r="4" fill="#0" id="circle124"/>
	<circle cx="405.221" cy="214.57" r="4" fill="#0" id="circle125"/>
	<circle cx="524.942" cy="36.3347" r="4" fill="#0" id="circle126"/>
	<circle cx="520.346" cy="57.6952" r="4" fill="#0" id="circle127"/>
	<circle cx="519.37" cy="76.2887" r="4" fill="#0" id="circle128"/>
	<circle cx="519.292" cy="100.97" r="4" fill="#0" id="circle129"/>
	<circle cx="517.843" cy="117.027" r="4" fill="#0" id="circle130"/>
	<circle cx="517.501" cy="142.882" r="4" fill="#0" id="circle131"/>
	<circle cx="518.471" cy="166.667" r="4" fill="#0" id="circle132"/>
	<circle cx="520.654" cy="183.994" r="4" fill="#0" id="circle133"/>
	<circle cx="515.991" cy="215.201" r="4" fill="#0" id="circle134"/>
	<circle cx="538.047" cy="225.507" r="4" fill="#0" id="circle135"/>
	<circle cx="559.224" cy="228.63" r="4" fill="#0" id="circle136"/>
	<circle cx="580.925" cy="242.286" r="4" fill="#0" id="circle137"/>
	<circle cx="606.208" cy="253.5" r="4" fill="#0" id="circle138"/>
	<circle cx="633.459" cy="266.75" r="4" fill="#0" id="circle139"/>
	<circle cx="648.132" cy="284.439" r="4" fill="#0" id="circle140"/>
	<circle cx="665.587" cy="295.508" r="4" fill="#0" id="circle141"/>
	<circle cx="689.406" cy="310.859" r="4" fill="#0" id="circle142"/>
	<circle cx="699.413" cy="325.671" r="4" fill="#0" id="circle143"/>
	<circle cx="717.163" cy="347.368" r="4" fill="#0" id="circle144"/>
	<circle cx="736.035" cy="366.16" r="4" fill="#0" id="circle145"/>
	<circle cx="742.646" cy="387.872" r="4" fill="#0" id="circle146"/>
	<circle cx="749.366" cy="401.68" r="4" fill="#0" id="circle147"/>
	<circle cx="759.984" cy="428.581" r="4" fill="#0" id="circle148"/>
	<circle cx="766.76" cy="451.974" r="4" fill="#0" id="circle149"/>
	<circle cx="776.975" cy="475.268" r="4" fill="#0" id="circle150"/>
	<circle cx="778.286" cy="499.185" r="4" fill="#0" id="circle151"/>
	<circle cx="781.59" cy="530.228" r="4" fill="#0" id="circle152"/>
	<circle cx="784.284" cy="562.552" r="4" fill="#0" id="circle153"/>
	<circle cx="776.156" cy="589.449" r="4" fill="#0" id="circle154"/>
	<circle cx="774.393" cy="612.746" r="4" fill="#0" id="circle155"/>
	<circle cx="762.922" cy="645.877" r="4" fill="#0" id="circle156"/>
	<circle cx="757.982" cy="666.388" r="4" fill="#0" id="circle157"/>
	<circle cx="743.623" cy="693.189" r="4" fill="#0" id="circle158"/>
	<circle cx="732.165" cy="712.774" r="4" fill="#0" id="circle159"/>
	<circle cx="717.821" cy="727.106" r="4" fill="#0" id="circle160"/>
	<circle cx="709.417" cy="751.071" r="4" fill="#0" id="circle161"/>
	<circle cx="686.914" cy="770.566" r="4" fill="#0" id="circle162"/>
	<circle cx="669.875" cy="789.822" r="4" fill="#0" id="circle163"/>
	<circle cx="647.2" cy="803.919" r="4" fill="#0" id="circle164"/>
	<circle cx="621.336" cy="816.372" r="4" fill="#0" id="circle165"/>
	<circle cx="599.489" cy="829.746" r="4" fill="#0" id="circle166"/>
	<circle cx="571.082" cy="844.838" r="4" fill="#0" id="circle167"/>
	<circle cx="544.494" cy="852.202" r="4" fill="#0" id="circle168"/>
	<circle cx="514.12" cy="861.643" r="4" fill="#0" id="circle169"/>
	<circle cx="489.144" cy="866.876" r="4" fill="#0" id="circle170"/>
	<circle cx="462.086" cy="862.262" r="4" fill="#0" id="circle171"/>
	<circle cx="433.873" cy="865.144" r="4" fill="#0" id="circle172"/>
	<circle cx="399.252" cy="862.99" r="4" fill="#0" id="circle173"/>
	<circle cx="368.584" cy="846.252" r="4" fill="#0" id="circle174"/>
	<circle cx="383.524" cy="223.787" r="4" fill="#0" id="circle175"/>
	<circle cx="356.76" cy="229.768" r="4" fill="#0" id="circle176"/>
	<circle cx="331.976" cy="243.342" r="4" fill="#0" id="circle177"/>
	<circle cx="300.148" cy="253.283" r="4" fill="#0" id="circle178"/>
	<circle cx="280.659" cy="272.833" r="4" fill="#0" id="circle179"/>
	<circle cx="251.687" cy="288.519" r="4" fill="#0" id="circle180"/>
	<circle cx="229.569" cy="307.46" r="4" fill="#0" id="circle181"/>
	<circle cx="214.34" cy="327.941" r="4" fill="#0" id="circle182"/>
	<circle cx="197.988" cy="345.361" r="4" fill="#0" id="circle183"/>
	<circle cx="179.742" cy="368.951" r="4" fill="#0" id="circle184"/>
	<circle cx="167.986" cy="396.734" r="4" fill="#0" id="circle185"/>
	<circle cx="160.684" cy="423.943" r="4" fill="#0" id="circle186"/>
	<circle cx="145.235" cy="446.419" r="4" fill="#0" id="circle187"/>
	<circle cx="142.939" cy="485.351" r="4" fill="#0" id="circle188"/>
	<circle cx="134.609" cy="512.871" r="4" fill="#0" id="circle189"/>
	<circle cx="138.674" cy="547.443" r="4" fill="#0" id="circle190"/>
	<circle cx="133.638" cy="574.016" r="4" fill="#0" id="circle191"/>
	<circle cx="146.095" cy="602.055" r="4" fill="#0" id="circle192"/>
	<circle cx="144.578" cy="631.266" r="4" fill="#0" id="circle193"/>
	<circle cx="160.692" cy="655.105" r="4" fill="#0" id="circle194"/>
	<circle cx="171.525" cy="679.063" r="4" fill="#0" id="circle195"/>
	<circle cx="181.154" cy="709.442" r="4" fill="#0" id="circle196"/>
	<circle cx="199.694" cy="730.002" r="4" fill="#0" id="circle197"/>
	<circle cx="212.627" cy="746.583" r="4" fill="#0" id="circle198"/>
	<circle cx="229.43" cy="769.231" r="4" fill="#0" id="circle199"/>
	<circle cx="248.98" cy="784.244" r="4" fill="#0" id="circle200"/>
	<circle cx="266.467" cy="799.672" r="4" fill="#0" id="circle201"/>
	<circle cx="288.758" cy="817.216" r="4" fill="#0" id="circle202"/>
	<circle cx="318.498" cy="826.688" r="4" fill="#0" id="circle203"/>
	<circle cx="339.537" cy="842.427" r="4" fill="#0" id="circle204"/>
	<circle cx="326.011" cy="52.281" r="4" fill="#0" id="circle205"/>
	<circle cx="340.886" cy="35.5211" r="4" fill="#0" id="circle206"/>
	<circle cx="361.419" cy="31.1537" r="4" fill="#0" id="circle207"/>
	<circle cx="377.681" cy="46.9893" r="4" fill="#0" id="circle208"/>
	<circle cx="374.564" cy="58.8777" r="4" fill="#0" id="circle209"/>
	<circle cx="327.039" cy="72.1321" r="4" fill="#0" id="circle210"/>
	<circle cx="334.234" cy="86.5559" r="4" fill="#0" id="circle211"/>
	<circle cx="354.199" cy="85.5756" r="4" fill="#0" id="circle212"/>
	<circle cx="372.988" cy="83.5931" r="4" fill="#0" id="circle213"/>
	<circle cx="377.934" cy="73.6511" r="4" fill="#0" id="circle214"/>
	<circle cx="565.524" cy="41.5333" r="4" fill="#0" id="circle215"/>
	<circle cx="581.251" cy="34.8402" r="4" fill="#0" id="circle216"/>
	<circle cx="599.997" cy="46.0082" r="4" fill="#0" id="circle217"/>
	<circle cx="608.356" cy="59.0591" r="4" fill="#0" id="circle218"/>
	<circle cx="605.328" cy="74.7541" r="4" fill="#0" id="circle219"/>
	<circle cx="551.344" cy="54.4625" r="4" fill="#0" id="circle220"/>
	<circle cx="553.526" cy="73.2126" r="4" fill="#0" id="circle221"/>
	<circle cx="561.32" cy="85.4061" r="4" fill="#0" id="circle222"/>
	<circle cx="578.194" cy="95.7593" r="4" fill="#0" id="circle223"/>
	<circle cx="593.21" cy="93.8774" r="4" fill="#0" id="circle224"/>
	</g>
</svg>