<?xml version="1.0" encoding="UTF-8" standalone="no"?>
<!-- Created with CurveBenchmark -->
<svg
	xmlns:dc="http://purl.org/dc/elements/1.1/"
	xmlns:cc="http://creativecommons.org/ns#"
	xmlns:rdf="http://www.w3.org/1999/02/22-rdf-syntax-ns#"
	xmlns:svg="http://www.w3.org/2000/svg"
	xmlns="http://www.w3.org/2000/svg"
	xmlns:sodipodi="http://sodipodi.sourceforge.net/DTD/sodipodi-0.dtd"
	xmlns:inkscape="http://www.inkscape.org/namespaces/inkscape"
	width="1000"
	height="1000"
	id="svg2"
	version="1.1"
	sodipodi:docname="noisy-0.003/discur-mc8.txt">
<defs
	id="defs4" />
<metadata
	id="metadata7">
	<rdf:RDF>
		<cc:Work
			rdf:about="">
			<dc:format>image/svg+xml</dc:format>
			<dc:type
				rdf:resource="http://purl.org/dc/dcmitype/StillImage" />
			<dc:title></dc:title>
		</cc:Work>
	</rdf:RDF>
</metadata>
<g
	inkscape:label="Layer 1"
	inkscape:groupmode="layer"
	id="layer1">
	<path style="fill:none;stroke:red;stroke-width:1px;stroke-linecap:butt;stroke-linejoin:miter;stroke-opacity:1" d="M 42.9933,22.9129 28.5018,28.1351 z" id="boundary" inkscape:connector-curvature="0" />
	<path style="fill:none;stroke:red;stroke-width:1px;stroke-linecap:butt;stroke-linejoin:miter;stroke-opacity:1" d="M 42.9933,22.9129 61.7971,19.4925 z" id="boundary" inkscape:connector-curvature="0" />
	<path style="fill:none;stroke:red;stroke-width:1px;stroke-linecap:butt;stroke-linejoin:miter;stroke-opacity:1" d="M 28.5018,28.1351 15.9168,49.2836 z" id="boundary" inkscape:connector-curvature="0" />
	<path style="fill:none;stroke:red;stroke-width:1px;stroke-linecap:butt;stroke-linejoin:miter;stroke-opacity:1" d="M 15.9168,49.2836 15.3208,64.8466 z" id="boundary" inkscape:connector-curvature="0" />
	<path style="fill:none;stroke:red;stroke-width:1px;stroke-linecap:butt;stroke-linejoin:miter;stroke-opacity:1" d="M 15.3208,64.8466 10.7822,86.3745 z" id="boundary" inkscape:connector-curvature="0" />
	<path style="fill:none;stroke:red;stroke-width:1px;stroke-linecap:butt;stroke-linejoin:miter;stroke-opacity:1" d="M 10.7822,86.3745 5.94896,104.047 z" id="boundary" inkscape:connector-curvature="0" />
	<path style="fill:none;stroke:red;stroke-width:1px;stroke-linecap:butt;stroke-linejoin:miter;stroke-opacity:1" d="M 5.94896,104.047 6.80448,124.823 z" id="boundary" inkscape:connector-curvature="0" />
	<path style="fill:none;stroke:red;stroke-width:1px;stroke-linecap:butt;stroke-linejoin:miter;stroke-opacity:1" d="M 6.80448,124.823 4,138.347 z" id="boundary" inkscape:connector-curvature="0" />
	<path style="fill:none;stroke:red;stroke-width:1px;stroke-linecap:butt;stroke-linejoin:miter;stroke-opacity:1" d="M 4,138.347 14.6964,159.758 z" id="boundary" inkscape:connector-curvature="0" />
	<path style="fill:none;stroke:red;stroke-width:1px;stroke-linecap:butt;stroke-linejoin:miter;stroke-opacity:1" d="M 14.6964,159.758 23.4252,178.838 z" id="boundary" inkscape:connector-curvature="0" />
	<path style="fill:none;stroke:red;stroke-width:1px;stroke-linecap:butt;stroke-linejoin:miter;stroke-opacity:1" d="M 23.4252,178.838 31.0105,198.186 z" id="boundary" inkscape:connector-curvature="0" />
	<path style="fill:none;stroke:red;stroke-width:1px;stroke-linecap:butt;stroke-linejoin:miter;stroke-opacity:1" d="M 31.0105,198.186 38.3836,212.163 z" id="boundary" inkscape:connector-curvature="0" />
	<path style="fill:none;stroke:red;stroke-width:1px;stroke-linecap:butt;stroke-linejoin:miter;stroke-opacity:1" d="M 38.3836,212.163 46.5276,231.81 z" id="boundary" inkscape:connector-curvature="0" />
	<path style="fill:none;stroke:red;stroke-width:1px;stroke-linecap:butt;stroke-linejoin:miter;stroke-opacity:1" d="M 46.5276,231.81 55.0236,252.27 z" id="boundary" inkscape:connector-curvature="0" />
	<path style="fill:none;stroke:red;stroke-width:1px;stroke-linecap:butt;stroke-linejoin:miter;stroke-opacity:1" d="M 55.0236,252.27 56.7125,269.68 z" id="boundary" inkscape:connector-curvature="0" />
	<path style="fill:none;stroke:red;stroke-width:1px;stroke-linecap:butt;stroke-linejoin:miter;stroke-opacity:1" d="M 56.7125,269.68 68.6946,279.889 z" id="boundary" inkscape:connector-curvature="0" />
	<path style="fill:none;stroke:red;stroke-width:1px;stroke-linecap:butt;stroke-linejoin:miter;stroke-opacity:1" d="M 68.6946,279.889 77.8872,298.939 z" id="boundary" inkscape:connector-curvature="0" />
	<path style="fill:none;stroke:red;stroke-width:1px;stroke-linecap:butt;stroke-linejoin:miter;stroke-opacity:1" d="M 77.8872,298.939 82.673,312.129 z" id="boundary" inkscape:connector-curvature="0" />
	<path style="fill:none;stroke:red;stroke-width:1px;stroke-linecap:butt;stroke-linejoin:miter;stroke-opacity:1" d="M 82.673,312.129 92.0585,321.988 z" id="boundary" inkscape:connector-curvature="0" />
	<path style="fill:none;stroke:red;stroke-width:1px;stroke-linecap:butt;stroke-linejoin:miter;stroke-opacity:1" d="M 92.0585,321.988 101.878,340.102 z" id="boundary" inkscape:connector-curvature="0" />
	<path style="fill:none;stroke:red;stroke-width:1px;stroke-linecap:butt;stroke-linejoin:miter;stroke-opacity:1" d="M 101.878,340.102 111.707,356.695 z" id="boundary" inkscape:connector-curvature="0" />
	<path style="fill:none;stroke:red;stroke-width:1px;stroke-linecap:butt;stroke-linejoin:miter;stroke-opacity:1" d="M 111.707,356.695 125.933,372.354 z" id="boundary" inkscape:connector-curvature="0" />
	<path style="fill:none;stroke:red;stroke-width:1px;stroke-linecap:butt;stroke-linejoin:miter;stroke-opacity:1" d="M 125.933,372.354 136.771,391.375 z" id="boundary" inkscape:connector-curvature="0" />
	<path style="fill:none;stroke:red;stroke-width:1px;stroke-linecap:butt;stroke-linejoin:miter;stroke-opacity:1" d="M 136.771,391.375 144.396,403.654 z" id="boundary" inkscape:connector-curvature="0" />
	<path style="fill:none;stroke:red;stroke-width:1px;stroke-linecap:butt;stroke-linejoin:miter;stroke-opacity:1" d="M 144.396,403.654 158.294,418.347 z" id="boundary" inkscape:connector-curvature="0" />
	<path style="fill:none;stroke:red;stroke-width:1px;stroke-linecap:butt;stroke-linejoin:miter;stroke-opacity:1" d="M 158.294,418.347 166.436,439.831 z" id="boundary" inkscape:connector-curvature="0" />
	<path style="fill:none;stroke:red;stroke-width:1px;stroke-linecap:butt;stroke-linejoin:miter;stroke-opacity:1" d="M 166.436,439.831 178.922,455.346 z" id="boundary" inkscape:connector-curvature="0" />
	<path style="fill:none;stroke:red;stroke-width:1px;stroke-linecap:butt;stroke-linejoin:miter;stroke-opacity:1" d="M 178.922,455.346 183.568,471.001 z" id="boundary" inkscape:connector-curvature="0" />
	<path style="fill:none;stroke:red;stroke-width:1px;stroke-linecap:butt;stroke-linejoin:miter;stroke-opacity:1" d="M 183.568,471.001 199.793,485.106 z" id="boundary" inkscape:connector-curvature="0" />
	<path style="fill:none;stroke:red;stroke-width:1px;stroke-linecap:butt;stroke-linejoin:miter;stroke-opacity:1" d="M 199.793,485.106 208.412,503.021 z" id="boundary" inkscape:connector-curvature="0" />
	<path style="fill:none;stroke:red;stroke-width:1px;stroke-linecap:butt;stroke-linejoin:miter;stroke-opacity:1" d="M 208.412,503.021 223.346,509.393 z" id="boundary" inkscape:connector-curvature="0" />
	<path style="fill:none;stroke:red;stroke-width:1px;stroke-linecap:butt;stroke-linejoin:miter;stroke-opacity:1" d="M 223.346,509.393 231.569,523.57 z" id="boundary" inkscape:connector-curvature="0" />
	<path style="fill:none;stroke:red;stroke-width:1px;stroke-linecap:butt;stroke-linejoin:miter;stroke-opacity:1" d="M 231.569,523.57 251.321,529.25 z" id="boundary" inkscape:connector-curvature="0" />
	<path style="fill:none;stroke:red;stroke-width:1px;stroke-linecap:butt;stroke-linejoin:miter;stroke-opacity:1" d="M 251.321,529.25 260.446,540.84 z" id="boundary" inkscape:connector-curvature="0" />
	<path style="fill:none;stroke:red;stroke-width:1px;stroke-linecap:butt;stroke-linejoin:miter;stroke-opacity:1" d="M 260.446,540.84 271.011,549.835 z" id="boundary" inkscape:connector-curvature="0" />
	<path style="fill:none;stroke:red;stroke-width:1px;stroke-linecap:butt;stroke-linejoin:miter;stroke-opacity:1" d="M 271.011,549.835 289.108,562.901 z" id="boundary" inkscape:connector-curvature="0" />
	<path style="fill:none;stroke:red;stroke-width:1px;stroke-linecap:butt;stroke-linejoin:miter;stroke-opacity:1" d="M 289.108,562.901 313.037,566.07 z" id="boundary" inkscape:connector-curvature="0" />
	<path style="fill:none;stroke:red;stroke-width:1px;stroke-linecap:butt;stroke-linejoin:miter;stroke-opacity:1" d="M 313.037,566.07 330.849,575.964 z" id="boundary" inkscape:connector-curvature="0" />
	<path style="fill:none;stroke:red;stroke-width:1px;stroke-linecap:butt;stroke-linejoin:miter;stroke-opacity:1" d="M 330.849,575.964 355.659,582.464 z" id="boundary" inkscape:connector-curvature="0" />
	<path style="fill:none;stroke:red;stroke-width:1px;stroke-linecap:butt;stroke-linejoin:miter;stroke-opacity:1" d="M 355.659,582.464 369.541,592.016 z" id="boundary" inkscape:connector-curvature="0" />
	<path style="fill:none;stroke:red;stroke-width:1px;stroke-linecap:butt;stroke-linejoin:miter;stroke-opacity:1" d="M 369.541,592.016 389.077,600.079 z" id="boundary" inkscape:connector-curvature="0" />
	<path style="fill:none;stroke:red;stroke-width:1px;stroke-linecap:butt;stroke-linejoin:miter;stroke-opacity:1" d="M 389.077,600.079 405.885,596.312 z" id="boundary" inkscape:connector-curvature="0" />
	<path style="fill:none;stroke:red;stroke-width:1px;stroke-linecap:butt;stroke-linejoin:miter;stroke-opacity:1" d="M 405.885,596.312 419.51,605.463 z" id="boundary" inkscape:connector-curvature="0" />
	<path style="fill:none;stroke:red;stroke-width:1px;stroke-linecap:butt;stroke-linejoin:miter;stroke-opacity:1" d="M 419.51,605.463 440.654,606.161 z" id="boundary" inkscape:connector-curvature="0" />
	<path style="fill:none;stroke:red;stroke-width:1px;stroke-linecap:butt;stroke-linejoin:miter;stroke-opacity:1" d="M 440.654,606.161 438.073,622.657 z" id="boundary" inkscape:connector-curvature="0" />
	<path style="fill:none;stroke:red;stroke-width:1px;stroke-linecap:butt;stroke-linejoin:miter;stroke-opacity:1" d="M 438.073,622.657 425.177,636.668 z" id="boundary" inkscape:connector-curvature="0" />
	<path style="fill:none;stroke:red;stroke-width:1px;stroke-linecap:butt;stroke-linejoin:miter;stroke-opacity:1" d="M 425.177,636.668 417.499,649.54 z" id="boundary" inkscape:connector-curvature="0" />
	<path style="fill:none;stroke:red;stroke-width:1px;stroke-linecap:butt;stroke-linejoin:miter;stroke-opacity:1" d="M 417.499,649.54 409.205,658.994 z" id="boundary" inkscape:connector-curvature="0" />
	<path style="fill:none;stroke:red;stroke-width:1px;stroke-linecap:butt;stroke-linejoin:miter;stroke-opacity:1" d="M 409.205,658.994 396.251,671.432 z" id="boundary" inkscape:connector-curvature="0" />
	<path style="fill:none;stroke:red;stroke-width:1px;stroke-linecap:butt;stroke-linejoin:miter;stroke-opacity:1" d="M 396.251,671.432 380.813,678.993 z" id="boundary" inkscape:connector-curvature="0" />
	<path style="fill:none;stroke:red;stroke-width:1px;stroke-linecap:butt;stroke-linejoin:miter;stroke-opacity:1" d="M 380.813,678.993 367.42,690.908 z" id="boundary" inkscape:connector-curvature="0" />
	<path style="fill:none;stroke:red;stroke-width:1px;stroke-linecap:butt;stroke-linejoin:miter;stroke-opacity:1" d="M 367.42,690.908 347.285,693.849 z" id="boundary" inkscape:connector-curvature="0" />
	<path style="fill:none;stroke:red;stroke-width:1px;stroke-linecap:butt;stroke-linejoin:miter;stroke-opacity:1" d="M 347.285,693.849 341.774,709.069 z" id="boundary" inkscape:connector-curvature="0" />
	<path style="fill:none;stroke:red;stroke-width:1px;stroke-linecap:butt;stroke-linejoin:miter;stroke-opacity:1" d="M 341.774,709.069 333.05,730.723 z" id="boundary" inkscape:connector-curvature="0" />
	<path style="fill:none;stroke:red;stroke-width:1px;stroke-linecap:butt;stroke-linejoin:miter;stroke-opacity:1" d="M 333.05,730.723 336.53,748.452 z" id="boundary" inkscape:connector-curvature="0" />
	<path style="fill:none;stroke:red;stroke-width:1px;stroke-linecap:butt;stroke-linejoin:miter;stroke-opacity:1" d="M 336.53,748.452 350.189,763.177 z" id="boundary" inkscape:connector-curvature="0" />
	<path style="fill:none;stroke:red;stroke-width:1px;stroke-linecap:butt;stroke-linejoin:miter;stroke-opacity:1" d="M 350.189,763.177 372.665,772.085 z" id="boundary" inkscape:connector-curvature="0" />
	<path style="fill:none;stroke:red;stroke-width:1px;stroke-linecap:butt;stroke-linejoin:miter;stroke-opacity:1" d="M 372.665,772.085 394.536,779.996 z" id="boundary" inkscape:connector-curvature="0" />
	<path style="fill:none;stroke:red;stroke-width:1px;stroke-linecap:butt;stroke-linejoin:miter;stroke-opacity:1" d="M 394.536,779.996 416.607,783.906 z" id="boundary" inkscape:connector-curvature="0" />
	<path style="fill:none;stroke:red;stroke-width:1px;stroke-linecap:butt;stroke-linejoin:miter;stroke-opacity:1" d="M 416.607,783.906 442.763,783.497 z" id="boundary" inkscape:connector-curvature="0" />
	<path style="fill:none;stroke:red;stroke-width:1px;stroke-linecap:butt;stroke-linejoin:miter;stroke-opacity:1" d="M 442.763,783.497 464.826,791.087 z" id="boundary" inkscape:connector-curvature="0" />
	<path style="fill:none;stroke:red;stroke-width:1px;stroke-linecap:butt;stroke-linejoin:miter;stroke-opacity:1" d="M 464.826,791.087 485.061,791.242 z" id="boundary" inkscape:connector-curvature="0" />
	<path style="fill:none;stroke:red;stroke-width:1px;stroke-linecap:butt;stroke-linejoin:miter;stroke-opacity:1" d="M 485.061,791.242 507.878,788.258 z" id="boundary" inkscape:connector-curvature="0" />
	<path style="fill:none;stroke:red;stroke-width:1px;stroke-linecap:butt;stroke-linejoin:miter;stroke-opacity:1" d="M 507.878,788.258 531.716,789.134 z" id="boundary" inkscape:connector-curvature="0" />
	<path style="fill:none;stroke:red;stroke-width:1px;stroke-linecap:butt;stroke-linejoin:miter;stroke-opacity:1" d="M 531.716,789.134 556.095,789.244 z" id="boundary" inkscape:connector-curvature="0" />
	<path style="fill:none;stroke:red;stroke-width:1px;stroke-linecap:butt;stroke-linejoin:miter;stroke-opacity:1" d="M 556.095,789.244 579.457,790.28 z" id="boundary" inkscape:connector-curvature="0" />
	<path style="fill:none;stroke:red;stroke-width:1px;stroke-linecap:butt;stroke-linejoin:miter;stroke-opacity:1" d="M 579.457,790.28 600.466,785.213 z" id="boundary" inkscape:connector-curvature="0" />
	<path style="fill:none;stroke:red;stroke-width:1px;stroke-linecap:butt;stroke-linejoin:miter;stroke-opacity:1" d="M 600.466,785.213 623.649,774.874 z" id="boundary" inkscape:connector-curvature="0" />
	<path style="fill:none;stroke:red;stroke-width:1px;stroke-linecap:butt;stroke-linejoin:miter;stroke-opacity:1" d="M 623.649,774.874 643.754,764.458 z" id="boundary" inkscape:connector-curvature="0" />
	<path style="fill:none;stroke:red;stroke-width:1px;stroke-linecap:butt;stroke-linejoin:miter;stroke-opacity:1" d="M 643.754,764.458 663.359,754.878 z" id="boundary" inkscape:connector-curvature="0" />
	<path style="fill:none;stroke:red;stroke-width:1px;stroke-linecap:butt;stroke-linejoin:miter;stroke-opacity:1" d="M 663.359,754.878 677.306,733.42 z" id="boundary" inkscape:connector-curvature="0" />
	<path style="fill:none;stroke:red;stroke-width:1px;stroke-linecap:butt;stroke-linejoin:miter;stroke-opacity:1" d="M 677.306,733.42 675.815,715.117 z" id="boundary" inkscape:connector-curvature="0" />
	<path style="fill:none;stroke:red;stroke-width:1px;stroke-linecap:butt;stroke-linejoin:miter;stroke-opacity:1" d="M 675.815,715.117 666.583,703.99 z" id="boundary" inkscape:connector-curvature="0" />
	<path style="fill:none;stroke:red;stroke-width:1px;stroke-linecap:butt;stroke-linejoin:miter;stroke-opacity:1" d="M 666.583,703.99 650.253,688.64 z" id="boundary" inkscape:connector-curvature="0" />
	<path style="fill:none;stroke:red;stroke-width:1px;stroke-linecap:butt;stroke-linejoin:miter;stroke-opacity:1" d="M 650.253,688.64 636.402,675.248 z" id="boundary" inkscape:connector-curvature="0" />
	<path style="fill:none;stroke:red;stroke-width:1px;stroke-linecap:butt;stroke-linejoin:miter;stroke-opacity:1" d="M 636.402,675.248 616.632,666.875 z" id="boundary" inkscape:connector-curvature="0" />
	<path style="fill:none;stroke:red;stroke-width:1px;stroke-linecap:butt;stroke-linejoin:miter;stroke-opacity:1" d="M 616.632,666.875 600.88,663.33 z" id="boundary" inkscape:connector-curvature="0" />
	<path style="fill:none;stroke:red;stroke-width:1px;stroke-linecap:butt;stroke-linejoin:miter;stroke-opacity:1" d="M 600.88,663.33 581.056,652.152 z" id="boundary" inkscape:connector-curvature="0" />
	<path style="fill:none;stroke:red;stroke-width:1px;stroke-linecap:butt;stroke-linejoin:miter;stroke-opacity:1" d="M 581.056,652.152 576.185,637.927 z" id="boundary" inkscape:connector-curvature="0" />
	<path style="fill:none;stroke:red;stroke-width:1px;stroke-linecap:butt;stroke-linejoin:miter;stroke-opacity:1" d="M 576.185,637.927 568.236,611.696 z" id="boundary" inkscape:connector-curvature="0" />
	<path style="fill:none;stroke:red;stroke-width:1px;stroke-linecap:butt;stroke-linejoin:miter;stroke-opacity:1" d="M 568.236,611.696 587.284,608.866 z" id="boundary" inkscape:connector-curvature="0" />
	<path style="fill:none;stroke:red;stroke-width:1px;stroke-linecap:butt;stroke-linejoin:miter;stroke-opacity:1" d="M 587.284,608.866 609.487,608.432 z" id="boundary" inkscape:connector-curvature="0" />
	<path style="fill:none;stroke:red;stroke-width:1px;stroke-linecap:butt;stroke-linejoin:miter;stroke-opacity:1" d="M 609.487,608.432 620.526,601.446 z" id="boundary" inkscape:connector-curvature="0" />
	<path style="fill:none;stroke:red;stroke-width:1px;stroke-linecap:butt;stroke-linejoin:miter;stroke-opacity:1" d="M 620.526,601.446 642.919,593.753 z" id="boundary" inkscape:connector-curvature="0" />
	<path style="fill:none;stroke:red;stroke-width:1px;stroke-linecap:butt;stroke-linejoin:miter;stroke-opacity:1" d="M 642.919,593.753 663.658,590.981 z" id="boundary" inkscape:connector-curvature="0" />
	<path style="fill:none;stroke:red;stroke-width:1px;stroke-linecap:butt;stroke-linejoin:miter;stroke-opacity:1" d="M 663.658,590.981 677.892,584.208 z" id="boundary" inkscape:connector-curvature="0" />
	<path style="fill:none;stroke:red;stroke-width:1px;stroke-linecap:butt;stroke-linejoin:miter;stroke-opacity:1" d="M 677.892,584.208 704.374,572.77 z" id="boundary" inkscape:connector-curvature="0" />
	<path style="fill:none;stroke:red;stroke-width:1px;stroke-linecap:butt;stroke-linejoin:miter;stroke-opacity:1" d="M 704.374,572.77 714.817,570.121 z" id="boundary" inkscape:connector-curvature="0" />
	<path style="fill:none;stroke:red;stroke-width:1px;stroke-linecap:butt;stroke-linejoin:miter;stroke-opacity:1" d="M 714.817,570.121 733.015,561.882 z" id="boundary" inkscape:connector-curvature="0" />
	<path style="fill:none;stroke:red;stroke-width:1px;stroke-linecap:butt;stroke-linejoin:miter;stroke-opacity:1" d="M 733.015,561.882 745.56,550.339 z" id="boundary" inkscape:connector-curvature="0" />
	<path style="fill:none;stroke:red;stroke-width:1px;stroke-linecap:butt;stroke-linejoin:miter;stroke-opacity:1" d="M 745.56,550.339 766.35,542.418 z" id="boundary" inkscape:connector-curvature="0" />
	<path style="fill:none;stroke:red;stroke-width:1px;stroke-linecap:butt;stroke-linejoin:miter;stroke-opacity:1" d="M 766.35,542.418 781.26,529.912 z" id="boundary" inkscape:connector-curvature="0" />
	<path style="fill:none;stroke:red;stroke-width:1px;stroke-linecap:butt;stroke-linejoin:miter;stroke-opacity:1" d="M 781.26,529.912 798.681,517.669 z" id="boundary" inkscape:connector-curvature="0" />
	<path style="fill:none;stroke:red;stroke-width:1px;stroke-linecap:butt;stroke-linejoin:miter;stroke-opacity:1" d="M 798.681,517.669 813.138,497.747 z" id="boundary" inkscape:connector-curvature="0" />
	<path style="fill:none;stroke:red;stroke-width:1px;stroke-linecap:butt;stroke-linejoin:miter;stroke-opacity:1" d="M 813.138,497.747 826.465,481.037 z" id="boundary" inkscape:connector-curvature="0" />
	<path style="fill:none;stroke:red;stroke-width:1px;stroke-linecap:butt;stroke-linejoin:miter;stroke-opacity:1" d="M 826.465,481.037 837.66,470.299 z" id="boundary" inkscape:connector-curvature="0" />
	<path style="fill:none;stroke:red;stroke-width:1px;stroke-linecap:butt;stroke-linejoin:miter;stroke-opacity:1" d="M 837.66,470.299 846.313,455.607 z" id="boundary" inkscape:connector-curvature="0" />
	<path style="fill:none;stroke:red;stroke-width:1px;stroke-linecap:butt;stroke-linejoin:miter;stroke-opacity:1" d="M 846.313,455.607 861.675,438.12 z" id="boundary" inkscape:connector-curvature="0" />
	<path style="fill:none;stroke:red;stroke-width:1px;stroke-linecap:butt;stroke-linejoin:miter;stroke-opacity:1" d="M 861.675,438.12 870.539,421.846 z" id="boundary" inkscape:connector-curvature="0" />
	<path style="fill:none;stroke:red;stroke-width:1px;stroke-linecap:butt;stroke-linejoin:miter;stroke-opacity:1" d="M 870.539,421.846 881.842,407.639 z" id="boundary" inkscape:connector-curvature="0" />
	<path style="fill:none;stroke:red;stroke-width:1px;stroke-linecap:butt;stroke-linejoin:miter;stroke-opacity:1" d="M 881.842,407.639 890.985,390.06 z" id="boundary" inkscape:connector-curvature="0" />
	<path style="fill:none;stroke:red;stroke-width:1px;stroke-linecap:butt;stroke-linejoin:miter;stroke-opacity:1" d="M 890.985,390.06 899.855,369.997 z" id="boundary" inkscape:connector-curvature="0" />
	<path style="fill:none;stroke:red;stroke-width:1px;stroke-linecap:butt;stroke-linejoin:miter;stroke-opacity:1" d="M 899.855,369.997 914.918,355.451 z" id="boundary" inkscape:connector-curvature="0" />
	<path style="fill:none;stroke:red;stroke-width:1px;stroke-linecap:butt;stroke-linejoin:miter;stroke-opacity:1" d="M 914.918,355.451 927.031,336.34 z" id="boundary" inkscape:connector-curvature="0" />
	<path style="fill:none;stroke:red;stroke-width:1px;stroke-linecap:butt;stroke-linejoin:miter;stroke-opacity:1" d="M 927.031,336.34 929.815,325.477 z" id="boundary" inkscape:connector-curvature="0" />
	<path style="fill:none;stroke:red;stroke-width:1px;stroke-linecap:butt;stroke-linejoin:miter;stroke-opacity:1" d="M 929.815,325.477 939.922,305.936 z" id="boundary" inkscape:connector-curvature="0" />
	<path style="fill:none;stroke:red;stroke-width:1px;stroke-linecap:butt;stroke-linejoin:miter;stroke-opacity:1" d="M 939.922,305.936 950.026,289.498 z" id="boundary" inkscape:connector-curvature="0" />
	<path style="fill:none;stroke:red;stroke-width:1px;stroke-linecap:butt;stroke-linejoin:miter;stroke-opacity:1" d="M 950.026,289.498 959.436,270.589 z" id="boundary" inkscape:connector-curvature="0" />
	<path style="fill:none;stroke:red;stroke-width:1px;stroke-linecap:butt;stroke-linejoin:miter;stroke-opacity:1" d="M 959.436,270.589 970.552,251.338 z" id="boundary" inkscape:connector-curvature="0" />
	<path style="fill:none;stroke:red;stroke-width:1px;stroke-linecap:butt;stroke-linejoin:miter;stroke-opacity:1" d="M 970.552,251.338 975.803,225.072 z" id="boundary" inkscape:connector-curvature="0" />
	<path style="fill:none;stroke:red;stroke-width:1px;stroke-linecap:butt;stroke-linejoin:miter;stroke-opacity:1" d="M 975.803,225.072 984.618,201.717 z" id="boundary" inkscape:connector-curvature="0" />
	<path style="fill:none;stroke:red;stroke-width:1px;stroke-linecap:butt;stroke-linejoin:miter;stroke-opacity:1" d="M 984.618,201.717 985.754,176.069 z" id="boundary" inkscape:connector-curvature="0" />
	<path style="fill:none;stroke:red;stroke-width:1px;stroke-linecap:butt;stroke-linejoin:miter;stroke-opacity:1" d="M 985.754,176.069 990.823,157.742 z" id="boundary" inkscape:connector-curvature="0" />
	<path style="fill:none;stroke:red;stroke-width:1px;stroke-linecap:butt;stroke-linejoin:miter;stroke-opacity:1" d="M 990.823,157.742 990.803,137.813 z" id="boundary" inkscape:connector-curvature="0" />
	<path style="fill:none;stroke:red;stroke-width:1px;stroke-linecap:butt;stroke-linejoin:miter;stroke-opacity:1" d="M 990.803,137.813 996,109.298 z" id="boundary" inkscape:connector-curvature="0" />
	<path style="fill:none;stroke:red;stroke-width:1px;stroke-linecap:butt;stroke-linejoin:miter;stroke-opacity:1" d="M 996,109.298 992.408,90.4741 z" id="boundary" inkscape:connector-curvature="0" />
	<path style="fill:none;stroke:red;stroke-width:1px;stroke-linecap:butt;stroke-linejoin:miter;stroke-opacity:1" d="M 992.408,90.4741 993.712,57.6113 z" id="boundary" inkscape:connector-curvature="0" />
	<path style="fill:none;stroke:red;stroke-width:1px;stroke-linecap:butt;stroke-linejoin:miter;stroke-opacity:1" d="M 993.712,57.6113 986.333,40.8097 z" id="boundary" inkscape:connector-curvature="0" />
	<path style="fill:none;stroke:red;stroke-width:1px;stroke-linecap:butt;stroke-linejoin:miter;stroke-opacity:1" d="M 986.333,40.8097 977.063,21.3624 z" id="boundary" inkscape:connector-curvature="0" />
	<path style="fill:none;stroke:red;stroke-width:1px;stroke-linecap:butt;stroke-linejoin:miter;stroke-opacity:1" d="M 977.063,21.3624 956.77,9.20702 z" id="boundary" inkscape:connector-curvature="0" />
	<path style="fill:none;stroke:red;stroke-width:1px;stroke-linecap:butt;stroke-linejoin:miter;stroke-opacity:1" d="M 956.77,9.20702 936.41,4 z" id="boundary" inkscape:connector-curvature="0" />
	<path style="fill:none;stroke:red;stroke-width:1px;stroke-linecap:butt;stroke-linejoin:miter;stroke-opacity:1" d="M 936.41,4 917.982,5.35223 z" id="boundary" inkscape:connector-curvature="0" />
	<path style="fill:none;stroke:red;stroke-width:1px;stroke-linecap:butt;stroke-linejoin:miter;stroke-opacity:1" d="M 917.982,5.35223 899.65,9.59702 z" id="boundary" inkscape:connector-curvature="0" />
	<path style="fill:none;stroke:red;stroke-width:1px;stroke-linecap:butt;stroke-linejoin:miter;stroke-opacity:1" d="M 899.65,9.59702 887.069,17.3069 z" id="boundary" inkscape:connector-curvature="0" />
	<path style="fill:none;stroke:red;stroke-width:1px;stroke-linecap:butt;stroke-linejoin:miter;stroke-opacity:1" d="M 887.069,17.3069 878.697,20.6217 z" id="boundary" inkscape:connector-curvature="0" />
	<path style="fill:none;stroke:red;stroke-width:1px;stroke-linecap:butt;stroke-linejoin:miter;stroke-opacity:1" d="M 878.697,20.6217 866.774,35.9901 z" id="boundary" inkscape:connector-curvature="0" />
	<path style="fill:none;stroke:red;stroke-width:1px;stroke-linecap:butt;stroke-linejoin:miter;stroke-opacity:1" d="M 866.774,35.9901 859.307,51.0401 z" id="boundary" inkscape:connector-curvature="0" />
	<path style="fill:none;stroke:red;stroke-width:1px;stroke-linecap:butt;stroke-linejoin:miter;stroke-opacity:1" d="M 859.307,51.0401 844.05,57.6283 z" id="boundary" inkscape:connector-curvature="0" />
	<path style="fill:none;stroke:red;stroke-width:1px;stroke-linecap:butt;stroke-linejoin:miter;stroke-opacity:1" d="M 844.05,57.6283 833.176,78.1383 z" id="boundary" inkscape:connector-curvature="0" />
	<path style="fill:none;stroke:red;stroke-width:1px;stroke-linecap:butt;stroke-linejoin:miter;stroke-opacity:1" d="M 833.176,78.1383 828.127,94.0219 z" id="boundary" inkscape:connector-curvature="0" />
	<path style="fill:none;stroke:red;stroke-width:1px;stroke-linecap:butt;stroke-linejoin:miter;stroke-opacity:1" d="M 828.127,94.0219 818.464,105.281 z" id="boundary" inkscape:connector-curvature="0" />
	<path style="fill:none;stroke:red;stroke-width:1px;stroke-linecap:butt;stroke-linejoin:miter;stroke-opacity:1" d="M 818.464,105.281 815.525,123.454 z" id="boundary" inkscape:connector-curvature="0" />
	<path style="fill:none;stroke:red;stroke-width:1px;stroke-linecap:butt;stroke-linejoin:miter;stroke-opacity:1" d="M 815.525,123.454 809.809,142.983 z" id="boundary" inkscape:connector-curvature="0" />
	<path style="fill:none;stroke:red;stroke-width:1px;stroke-linecap:butt;stroke-linejoin:miter;stroke-opacity:1" d="M 809.809,142.983 803.583,156.883 z" id="boundary" inkscape:connector-curvature="0" />
	<path style="fill:none;stroke:red;stroke-width:1px;stroke-linecap:butt;stroke-linejoin:miter;stroke-opacity:1" d="M 803.583,156.883 797.033,177.762 z" id="boundary" inkscape:connector-curvature="0" />
	<path style="fill:none;stroke:red;stroke-width:1px;stroke-linecap:butt;stroke-linejoin:miter;stroke-opacity:1" d="M 797.033,177.762 794.766,197.284 z" id="boundary" inkscape:connector-curvature="0" />
	<path style="fill:none;stroke:red;stroke-width:1px;stroke-linecap:butt;stroke-linejoin:miter;stroke-opacity:1" d="M 794.766,197.284 784.597,217.083 z" id="boundary" inkscape:connector-curvature="0" />
	<path style="fill:none;stroke:red;stroke-width:1px;stroke-linecap:butt;stroke-linejoin:miter;stroke-opacity:1" d="M 784.597,217.083 782.256,240.954 z" id="boundary" inkscape:connector-curvature="0" />
	<path style="fill:none;stroke:red;stroke-width:1px;stroke-linecap:butt;stroke-linejoin:miter;stroke-opacity:1" d="M 782.256,240.954 774.793,259.197 z" id="boundary" inkscape:connector-curvature="0" />
	<path style="fill:none;stroke:red;stroke-width:1px;stroke-linecap:butt;stroke-linejoin:miter;stroke-opacity:1" d="M 774.793,259.197 754.837,253.847 z" id="boundary" inkscape:connector-curvature="0" />
	<path style="fill:none;stroke:red;stroke-width:1px;stroke-linecap:butt;stroke-linejoin:miter;stroke-opacity:1" d="M 61.7971,19.4925 73.4049,20.9068 z" id="boundary" inkscape:connector-curvature="0" />
	<path style="fill:none;stroke:red;stroke-width:1px;stroke-linecap:butt;stroke-linejoin:miter;stroke-opacity:1" d="M 73.4049,20.9068 92.8393,21.7325 z" id="boundary" inkscape:connector-curvature="0" />
	<path style="fill:none;stroke:red;stroke-width:1px;stroke-linecap:butt;stroke-linejoin:miter;stroke-opacity:1" d="M 92.8393,21.7325 112.62,27.5681 z" id="boundary" inkscape:connector-curvature="0" />
	<path style="fill:none;stroke:red;stroke-width:1px;stroke-linecap:butt;stroke-linejoin:miter;stroke-opacity:1" d="M 112.62,27.5681 121.691,33.8531 z" id="boundary" inkscape:connector-curvature="0" />
	<path style="fill:none;stroke:red;stroke-width:1px;stroke-linecap:butt;stroke-linejoin:miter;stroke-opacity:1" d="M 121.691,33.8531 134.771,47.1318 z" id="boundary" inkscape:connector-curvature="0" />
	<path style="fill:none;stroke:red;stroke-width:1px;stroke-linecap:butt;stroke-linejoin:miter;stroke-opacity:1" d="M 134.771,47.1318 149.612,60.4996 z" id="boundary" inkscape:connector-curvature="0" />
	<path style="fill:none;stroke:red;stroke-width:1px;stroke-linecap:butt;stroke-linejoin:miter;stroke-opacity:1" d="M 149.612,60.4996 159.225,73.0924 z" id="boundary" inkscape:connector-curvature="0" />
	<path style="fill:none;stroke:red;stroke-width:1px;stroke-linecap:butt;stroke-linejoin:miter;stroke-opacity:1" d="M 159.225,73.0924 164.926,83.6221 z" id="boundary" inkscape:connector-curvature="0" />
	<path style="fill:none;stroke:red;stroke-width:1px;stroke-linecap:butt;stroke-linejoin:miter;stroke-opacity:1" d="M 164.926,83.6221 175.491,102.303 z" id="boundary" inkscape:connector-curvature="0" />
	<path style="fill:none;stroke:red;stroke-width:1px;stroke-linecap:butt;stroke-linejoin:miter;stroke-opacity:1" d="M 175.491,102.303 182.643,114.612 z" id="boundary" inkscape:connector-curvature="0" />
	<path style="fill:none;stroke:red;stroke-width:1px;stroke-linecap:butt;stroke-linejoin:miter;stroke-opacity:1" d="M 182.643,114.612 193.047,126.824 z" id="boundary" inkscape:connector-curvature="0" />
	<path style="fill:none;stroke:red;stroke-width:1px;stroke-linecap:butt;stroke-linejoin:miter;stroke-opacity:1" d="M 193.047,126.824 193.37,140.326 z" id="boundary" inkscape:connector-curvature="0" />
	<path style="fill:none;stroke:red;stroke-width:1px;stroke-linecap:butt;stroke-linejoin:miter;stroke-opacity:1" d="M 193.37,140.326 203.13,157.513 z" id="boundary" inkscape:connector-curvature="0" />
	<path style="fill:none;stroke:red;stroke-width:1px;stroke-linecap:butt;stroke-linejoin:miter;stroke-opacity:1" d="M 203.13,157.513 212.311,176.393 z" id="boundary" inkscape:connector-curvature="0" />
	<path style="fill:none;stroke:red;stroke-width:1px;stroke-linecap:butt;stroke-linejoin:miter;stroke-opacity:1" d="M 212.311,176.393 211.955,192.973 z" id="boundary" inkscape:connector-curvature="0" />
	<path style="fill:none;stroke:red;stroke-width:1px;stroke-linecap:butt;stroke-linejoin:miter;stroke-opacity:1" d="M 211.955,192.973 219.975,208.506 z" id="boundary" inkscape:connector-curvature="0" />
	<path style="fill:none;stroke:red;stroke-width:1px;stroke-linecap:butt;stroke-linejoin:miter;stroke-opacity:1" d="M 219.975,208.506 228.022,230.987 z" id="boundary" inkscape:connector-curvature="0" />
	<path style="fill:none;stroke:red;stroke-width:1px;stroke-linecap:butt;stroke-linejoin:miter;stroke-opacity:1" d="M 228.022,230.987 235.394,244.582 z" id="boundary" inkscape:connector-curvature="0" />
	<path style="fill:none;stroke:red;stroke-width:1px;stroke-linecap:butt;stroke-linejoin:miter;stroke-opacity:1" d="M 235.394,244.582 236.211,261.99 z" id="boundary" inkscape:connector-curvature="0" />
	<path style="fill:none;stroke:red;stroke-width:1px;stroke-linecap:butt;stroke-linejoin:miter;stroke-opacity:1" d="M 236.211,261.99 250.423,259.305 z" id="boundary" inkscape:connector-curvature="0" />
	<path style="fill:none;stroke:red;stroke-width:1px;stroke-linecap:butt;stroke-linejoin:miter;stroke-opacity:1" d="M 250.423,259.305 265.221,257.544 z" id="boundary" inkscape:connector-curvature="0" />
	<path style="fill:none;stroke:red;stroke-width:1px;stroke-linecap:butt;stroke-linejoin:miter;stroke-opacity:1" d="M 265.221,257.544 288.476,261.36 z" id="boundary" inkscape:connector-curvature="0" />
	<path style="fill:none;stroke:red;stroke-width:1px;stroke-linecap:butt;stroke-linejoin:miter;stroke-opacity:1" d="M 288.476,261.36 304.283,260.467 z" id="boundary" inkscape:connector-curvature="0" />
	<path style="fill:none;stroke:red;stroke-width:1px;stroke-linecap:butt;stroke-linejoin:miter;stroke-opacity:1" d="M 304.283,260.467 326.92,258.65 z" id="boundary" inkscape:connector-curvature="0" />
	<path style="fill:none;stroke:red;stroke-width:1px;stroke-linecap:butt;stroke-linejoin:miter;stroke-opacity:1" d="M 326.92,258.65 343.745,250.992 z" id="boundary" inkscape:connector-curvature="0" />
	<path style="fill:none;stroke:red;stroke-width:1px;stroke-linecap:butt;stroke-linejoin:miter;stroke-opacity:1" d="M 343.745,250.992 360.867,253.345 z" id="boundary" inkscape:connector-curvature="0" />
	<path style="fill:none;stroke:red;stroke-width:1px;stroke-linecap:butt;stroke-linejoin:miter;stroke-opacity:1" d="M 360.867,253.345 384.629,253.514 z" id="boundary" inkscape:connector-curvature="0" />
	<path style="fill:none;stroke:red;stroke-width:1px;stroke-linecap:butt;stroke-linejoin:miter;stroke-opacity:1" d="M 384.629,253.514 408.776,253.868 z" id="boundary" inkscape:connector-curvature="0" />
	<path style="fill:none;stroke:red;stroke-width:1px;stroke-linecap:butt;stroke-linejoin:miter;stroke-opacity:1" d="M 408.776,253.868 426.131,251.408 z" id="boundary" inkscape:connector-curvature="0" />
	<path style="fill:none;stroke:red;stroke-width:1px;stroke-linecap:butt;stroke-linejoin:miter;stroke-opacity:1" d="M 426.131,251.408 441.084,254.446 z" id="boundary" inkscape:connector-curvature="0" />
	<path style="fill:none;stroke:red;stroke-width:1px;stroke-linecap:butt;stroke-linejoin:miter;stroke-opacity:1" d="M 441.084,254.446 459.486,257.52 z" id="boundary" inkscape:connector-curvature="0" />
	<path style="fill:none;stroke:red;stroke-width:1px;stroke-linecap:butt;stroke-linejoin:miter;stroke-opacity:1" d="M 459.486,257.52 478.056,251.496 z" id="boundary" inkscape:connector-curvature="0" />
	<path style="fill:none;stroke:red;stroke-width:1px;stroke-linecap:butt;stroke-linejoin:miter;stroke-opacity:1" d="M 478.056,251.496 492.697,254.223 z" id="boundary" inkscape:connector-curvature="0" />
	<path style="fill:none;stroke:red;stroke-width:1px;stroke-linecap:butt;stroke-linejoin:miter;stroke-opacity:1" d="M 492.697,254.223 509.525,257.379 z" id="boundary" inkscape:connector-curvature="0" />
	<path style="fill:none;stroke:red;stroke-width:1px;stroke-linecap:butt;stroke-linejoin:miter;stroke-opacity:1" d="M 509.525,257.379 527.038,250.972 z" id="boundary" inkscape:connector-curvature="0" />
	<path style="fill:none;stroke:red;stroke-width:1px;stroke-linecap:butt;stroke-linejoin:miter;stroke-opacity:1" d="M 527.038,250.972 545.749,256.055 z" id="boundary" inkscape:connector-curvature="0" />
	<path style="fill:none;stroke:red;stroke-width:1px;stroke-linecap:butt;stroke-linejoin:miter;stroke-opacity:1" d="M 545.749,256.055 566.737,250.626 z" id="boundary" inkscape:connector-curvature="0" />
	<path style="fill:none;stroke:red;stroke-width:1px;stroke-linecap:butt;stroke-linejoin:miter;stroke-opacity:1" d="M 566.737,250.626 586.278,253.56 z" id="boundary" inkscape:connector-curvature="0" />
	<path style="fill:none;stroke:red;stroke-width:1px;stroke-linecap:butt;stroke-linejoin:miter;stroke-opacity:1" d="M 586.278,253.56 599.856,253.318 z" id="boundary" inkscape:connector-curvature="0" />
	<path style="fill:none;stroke:red;stroke-width:1px;stroke-linecap:butt;stroke-linejoin:miter;stroke-opacity:1" d="M 599.856,253.318 619.215,256.492 z" id="boundary" inkscape:connector-curvature="0" />
	<path style="fill:none;stroke:red;stroke-width:1px;stroke-linecap:butt;stroke-linejoin:miter;stroke-opacity:1" d="M 619.215,256.492 635.496,253.175 z" id="boundary" inkscape:connector-curvature="0" />
	<path style="fill:none;stroke:red;stroke-width:1px;stroke-linecap:butt;stroke-linejoin:miter;stroke-opacity:1" d="M 635.496,253.175 651.667,253.417 z" id="boundary" inkscape:connector-curvature="0" />
	<path style="fill:none;stroke:red;stroke-width:1px;stroke-linecap:butt;stroke-linejoin:miter;stroke-opacity:1" d="M 651.667,253.417 674.358,255.595 z" id="boundary" inkscape:connector-curvature="0" />
	<path style="fill:none;stroke:red;stroke-width:1px;stroke-linecap:butt;stroke-linejoin:miter;stroke-opacity:1" d="M 674.358,255.595 685.598,253.219 z" id="boundary" inkscape:connector-curvature="0" />
	<path style="fill:none;stroke:red;stroke-width:1px;stroke-linecap:butt;stroke-linejoin:miter;stroke-opacity:1" d="M 685.598,253.219 700.239,255.502 z" id="boundary" inkscape:connector-curvature="0" />
	<path style="fill:none;stroke:red;stroke-width:1px;stroke-linecap:butt;stroke-linejoin:miter;stroke-opacity:1" d="M 700.239,255.502 719.144,257.038 z" id="boundary" inkscape:connector-curvature="0" />
	<path style="fill:none;stroke:red;stroke-width:1px;stroke-linecap:butt;stroke-linejoin:miter;stroke-opacity:1" d="M 719.144,257.038 741.084,258.03 z" id="boundary" inkscape:connector-curvature="0" />
	<path style="fill:none;stroke:red;stroke-width:1px;stroke-linecap:butt;stroke-linejoin:miter;stroke-opacity:1" d="M 741.084,258.03 754.837,253.847 z" id="boundary" inkscape:connector-curvature="0" />
	<path style="fill:none;stroke:red;stroke-width:1px;stroke-linecap:butt;stroke-linejoin:miter;stroke-opacity:1" d="M 88.6022,88.0536 77.6243,98.3724 z" id="boundary" inkscape:connector-curvature="0" />
	<path style="fill:none;stroke:red;stroke-width:1px;stroke-linecap:butt;stroke-linejoin:miter;stroke-opacity:1" d="M 88.6022,88.0536 101.759,80.6123 z" id="boundary" inkscape:connector-curvature="0" />
	<path style="fill:none;stroke:red;stroke-width:1px;stroke-linecap:butt;stroke-linejoin:miter;stroke-opacity:1" d="M 77.6243,98.3724 80.5096,113.705 z" id="boundary" inkscape:connector-curvature="0" />
	<path style="fill:none;stroke:red;stroke-width:1px;stroke-linecap:butt;stroke-linejoin:miter;stroke-opacity:1" d="M 80.5096,113.705 71.7306,126.662 z" id="boundary" inkscape:connector-curvature="0" />
	<path style="fill:none;stroke:red;stroke-width:1px;stroke-linecap:butt;stroke-linejoin:miter;stroke-opacity:1" d="M 71.7306,126.662 77.6227,143.365 z" id="boundary" inkscape:connector-curvature="0" />
	<path style="fill:none;stroke:red;stroke-width:1px;stroke-linecap:butt;stroke-linejoin:miter;stroke-opacity:1" d="M 77.6227,143.365 75.9687,159.519 z" id="boundary" inkscape:connector-curvature="0" />
	<path style="fill:none;stroke:red;stroke-width:1px;stroke-linecap:butt;stroke-linejoin:miter;stroke-opacity:1" d="M 75.9687,159.519 83.4435,170.59 z" id="boundary" inkscape:connector-curvature="0" />
	<path style="fill:none;stroke:red;stroke-width:1px;stroke-linecap:butt;stroke-linejoin:miter;stroke-opacity:1" d="M 83.4435,170.59 85.224,181.772 z" id="boundary" inkscape:connector-curvature="0" />
	<path style="fill:none;stroke:red;stroke-width:1px;stroke-linecap:butt;stroke-linejoin:miter;stroke-opacity:1" d="M 85.224,181.772 86.3449,199.03 z" id="boundary" inkscape:connector-curvature="0" />
	<path style="fill:none;stroke:red;stroke-width:1px;stroke-linecap:butt;stroke-linejoin:miter;stroke-opacity:1" d="M 86.3449,199.03 98.7337,212.892 z" id="boundary" inkscape:connector-curvature="0" />
	<path style="fill:none;stroke:red;stroke-width:1px;stroke-linecap:butt;stroke-linejoin:miter;stroke-opacity:1" d="M 98.7337,212.892 98.9644,222.29 z" id="boundary" inkscape:connector-curvature="0" />
	<path style="fill:none;stroke:red;stroke-width:1px;stroke-linecap:butt;stroke-linejoin:miter;stroke-opacity:1" d="M 98.9644,222.29 105.476,238.127 z" id="boundary" inkscape:connector-curvature="0" />
	<path style="fill:none;stroke:red;stroke-width:1px;stroke-linecap:butt;stroke-linejoin:miter;stroke-opacity:1" d="M 105.476,238.127 118.12,251.933 z" id="boundary" inkscape:connector-curvature="0" />
	<path style="fill:none;stroke:red;stroke-width:1px;stroke-linecap:butt;stroke-linejoin:miter;stroke-opacity:1" d="M 118.12,251.933 122.919,267.312 z" id="boundary" inkscape:connector-curvature="0" />
	<path style="fill:none;stroke:red;stroke-width:1px;stroke-linecap:butt;stroke-linejoin:miter;stroke-opacity:1" d="M 122.919,267.312 129.428,281.855 z" id="boundary" inkscape:connector-curvature="0" />
	<path style="fill:none;stroke:red;stroke-width:1px;stroke-linecap:butt;stroke-linejoin:miter;stroke-opacity:1" d="M 129.428,281.855 138.27,289.462 z" id="boundary" inkscape:connector-curvature="0" />
	<path style="fill:none;stroke:red;stroke-width:1px;stroke-linecap:butt;stroke-linejoin:miter;stroke-opacity:1" d="M 138.27,289.462 145.253,309.847 z" id="boundary" inkscape:connector-curvature="0" />
	<path style="fill:none;stroke:red;stroke-width:1px;stroke-linecap:butt;stroke-linejoin:miter;stroke-opacity:1" d="M 145.253,309.847 152.533,320.409 z" id="boundary" inkscape:connector-curvature="0" />
	<path style="fill:none;stroke:red;stroke-width:1px;stroke-linecap:butt;stroke-linejoin:miter;stroke-opacity:1" d="M 152.533,320.409 160.755,333.141 z" id="boundary" inkscape:connector-curvature="0" />
	<path style="fill:none;stroke:red;stroke-width:1px;stroke-linecap:butt;stroke-linejoin:miter;stroke-opacity:1" d="M 160.755,333.141 173.632,344.633 z" id="boundary" inkscape:connector-curvature="0" />
	<path style="fill:none;stroke:red;stroke-width:1px;stroke-linecap:butt;stroke-linejoin:miter;stroke-opacity:1" d="M 173.632,344.633 183.165,363.451 z" id="boundary" inkscape:connector-curvature="0" />
	<path style="fill:none;stroke:red;stroke-width:1px;stroke-linecap:butt;stroke-linejoin:miter;stroke-opacity:1" d="M 183.165,363.451 184.972,374.522 z" id="boundary" inkscape:connector-curvature="0" />
	<path style="fill:none;stroke:red;stroke-width:1px;stroke-linecap:butt;stroke-linejoin:miter;stroke-opacity:1" d="M 184.972,374.522 196.621,384.048 z" id="boundary" inkscape:connector-curvature="0" />
	<path style="fill:none;stroke:red;stroke-width:1px;stroke-linecap:butt;stroke-linejoin:miter;stroke-opacity:1" d="M 196.621,384.048 205.608,396.818 z" id="boundary" inkscape:connector-curvature="0" />
	<path style="fill:none;stroke:red;stroke-width:1px;stroke-linecap:butt;stroke-linejoin:miter;stroke-opacity:1" d="M 205.608,396.818 219.126,394.014 z" id="boundary" inkscape:connector-curvature="0" />
	<path style="fill:none;stroke:red;stroke-width:1px;stroke-linecap:butt;stroke-linejoin:miter;stroke-opacity:1" d="M 219.126,394.014 217.566,379.57 z" id="boundary" inkscape:connector-curvature="0" />
	<path style="fill:none;stroke:red;stroke-width:1px;stroke-linecap:butt;stroke-linejoin:miter;stroke-opacity:1" d="M 217.566,379.57 214.113,363.716 z" id="boundary" inkscape:connector-curvature="0" />
	<path style="fill:none;stroke:red;stroke-width:1px;stroke-linecap:butt;stroke-linejoin:miter;stroke-opacity:1" d="M 195.273,327.444 203.3,336.733 z" id="boundary" inkscape:connector-curvature="0" />
	<path style="fill:none;stroke:red;stroke-width:1px;stroke-linecap:butt;stroke-linejoin:miter;stroke-opacity:1" d="M 195.273,327.444 189.708,311.409 z" id="boundary" inkscape:connector-curvature="0" />
	<path style="fill:none;stroke:red;stroke-width:1px;stroke-linecap:butt;stroke-linejoin:miter;stroke-opacity:1" d="M 203.3,336.733 205.476,347.902 z" id="boundary" inkscape:connector-curvature="0" />
	<path style="fill:none;stroke:red;stroke-width:1px;stroke-linecap:butt;stroke-linejoin:miter;stroke-opacity:1" d="M 205.476,347.902 214.113,363.716 z" id="boundary" inkscape:connector-curvature="0" />
	<path style="fill:none;stroke:red;stroke-width:1px;stroke-linecap:butt;stroke-linejoin:miter;stroke-opacity:1" d="M 101.759,80.6123 115.863,77.6385 z" id="boundary" inkscape:connector-curvature="0" />
	<path style="fill:none;stroke:red;stroke-width:1px;stroke-linecap:butt;stroke-linejoin:miter;stroke-opacity:1" d="M 115.863,77.6385 128.14,85.458 z" id="boundary" inkscape:connector-curvature="0" />
	<path style="fill:none;stroke:red;stroke-width:1px;stroke-linecap:butt;stroke-linejoin:miter;stroke-opacity:1" d="M 128.14,85.458 132.981,95.0674 z" id="boundary" inkscape:connector-curvature="0" />
	<path style="fill:none;stroke:red;stroke-width:1px;stroke-linecap:butt;stroke-linejoin:miter;stroke-opacity:1" d="M 132.981,95.0674 142.377,110.752 z" id="boundary" inkscape:connector-curvature="0" />
	<path style="fill:none;stroke:red;stroke-width:1px;stroke-linecap:butt;stroke-linejoin:miter;stroke-opacity:1" d="M 142.377,110.752 144.817,125.426 z" id="boundary" inkscape:connector-curvature="0" />
	<path style="fill:none;stroke:red;stroke-width:1px;stroke-linecap:butt;stroke-linejoin:miter;stroke-opacity:1" d="M 144.817,125.426 148.777,137.401 z" id="boundary" inkscape:connector-curvature="0" />
	<path style="fill:none;stroke:red;stroke-width:1px;stroke-linecap:butt;stroke-linejoin:miter;stroke-opacity:1" d="M 148.777,137.401 151.459,152.423 z" id="boundary" inkscape:connector-curvature="0" />
	<path style="fill:none;stroke:red;stroke-width:1px;stroke-linecap:butt;stroke-linejoin:miter;stroke-opacity:1" d="M 151.459,152.423 154.605,166.755 z" id="boundary" inkscape:connector-curvature="0" />
	<path style="fill:none;stroke:red;stroke-width:1px;stroke-linecap:butt;stroke-linejoin:miter;stroke-opacity:1" d="M 154.605,166.755 159.252,178.887 z" id="boundary" inkscape:connector-curvature="0" />
	<path style="fill:none;stroke:red;stroke-width:1px;stroke-linecap:butt;stroke-linejoin:miter;stroke-opacity:1" d="M 159.252,178.887 164.795,189.454 z" id="boundary" inkscape:connector-curvature="0" />
	<path style="fill:none;stroke:red;stroke-width:1px;stroke-linecap:butt;stroke-linejoin:miter;stroke-opacity:1" d="M 164.795,189.454 168.454,205.045 z" id="boundary" inkscape:connector-curvature="0" />
	<path style="fill:none;stroke:red;stroke-width:1px;stroke-linecap:butt;stroke-linejoin:miter;stroke-opacity:1" d="M 168.454,205.045 171.211,217.92 z" id="boundary" inkscape:connector-curvature="0" />
	<path style="fill:none;stroke:red;stroke-width:1px;stroke-linecap:butt;stroke-linejoin:miter;stroke-opacity:1" d="M 171.211,217.92 173.513,233.679 z" id="boundary" inkscape:connector-curvature="0" />
	<path style="fill:none;stroke:red;stroke-width:1px;stroke-linecap:butt;stroke-linejoin:miter;stroke-opacity:1" d="M 173.513,233.679 176.737,254.043 z" id="boundary" inkscape:connector-curvature="0" />
	<path style="fill:none;stroke:red;stroke-width:1px;stroke-linecap:butt;stroke-linejoin:miter;stroke-opacity:1" d="M 176.737,254.043 182.107,267.976 z" id="boundary" inkscape:connector-curvature="0" />
	<path style="fill:none;stroke:red;stroke-width:1px;stroke-linecap:butt;stroke-linejoin:miter;stroke-opacity:1" d="M 182.107,267.976 184.624,278.194 z" id="boundary" inkscape:connector-curvature="0" />
	<path style="fill:none;stroke:red;stroke-width:1px;stroke-linecap:butt;stroke-linejoin:miter;stroke-opacity:1" d="M 184.624,278.194 187.291,294.648 z" id="boundary" inkscape:connector-curvature="0" />
	<path style="fill:none;stroke:red;stroke-width:1px;stroke-linecap:butt;stroke-linejoin:miter;stroke-opacity:1" d="M 187.291,294.648 189.708,311.409 z" id="boundary" inkscape:connector-curvature="0" />
	<path style="fill:none;stroke:red;stroke-width:1px;stroke-linecap:butt;stroke-linejoin:miter;stroke-opacity:1" d="M 791.178,417.093 792.792,405.411 z" id="boundary" inkscape:connector-curvature="0" />
	<path style="fill:none;stroke:red;stroke-width:1px;stroke-linecap:butt;stroke-linejoin:miter;stroke-opacity:1" d="M 792.792,405.411 815.029,408.743 z" id="boundary" inkscape:connector-curvature="0" />
	<path style="fill:none;stroke:red;stroke-width:1px;stroke-linecap:butt;stroke-linejoin:miter;stroke-opacity:1" d="M 815.029,408.743 820.395,399.271 z" id="boundary" inkscape:connector-curvature="0" />
	<path style="fill:none;stroke:red;stroke-width:1px;stroke-linecap:butt;stroke-linejoin:miter;stroke-opacity:1" d="M 802.478,384.375 806.875,369.839 z" id="boundary" inkscape:connector-curvature="0" />
	<path style="fill:none;stroke:red;stroke-width:1px;stroke-linecap:butt;stroke-linejoin:miter;stroke-opacity:1" d="M 802.478,384.375 820.395,399.271 z" id="boundary" inkscape:connector-curvature="0" />
	<path style="fill:none;stroke:red;stroke-width:1px;stroke-linecap:butt;stroke-linejoin:miter;stroke-opacity:1" d="M 806.875,369.839 818.82,355.869 z" id="boundary" inkscape:connector-curvature="0" />
	<path style="fill:none;stroke:red;stroke-width:1px;stroke-linecap:butt;stroke-linejoin:miter;stroke-opacity:1" d="M 818.82,355.869 821.483,339 z" id="boundary" inkscape:connector-curvature="0" />
	<path style="fill:none;stroke:red;stroke-width:1px;stroke-linecap:butt;stroke-linejoin:miter;stroke-opacity:1" d="M 821.483,339 825.456,316.23 z" id="boundary" inkscape:connector-curvature="0" />
	<path style="fill:none;stroke:red;stroke-width:1px;stroke-linecap:butt;stroke-linejoin:miter;stroke-opacity:1" d="M 825.456,316.23 834.034,303.568 z" id="boundary" inkscape:connector-curvature="0" />
	<path style="fill:none;stroke:red;stroke-width:1px;stroke-linecap:butt;stroke-linejoin:miter;stroke-opacity:1" d="M 834.034,303.568 835.316,279.585 z" id="boundary" inkscape:connector-curvature="0" />
	<path style="fill:none;stroke:red;stroke-width:1px;stroke-linecap:butt;stroke-linejoin:miter;stroke-opacity:1" d="M 835.316,279.585 840.397,265.642 z" id="boundary" inkscape:connector-curvature="0" />
	<path style="fill:none;stroke:red;stroke-width:1px;stroke-linecap:butt;stroke-linejoin:miter;stroke-opacity:1" d="M 840.397,265.642 839.884,243.705 z" id="boundary" inkscape:connector-curvature="0" />
	<path style="fill:none;stroke:red;stroke-width:1px;stroke-linecap:butt;stroke-linejoin:miter;stroke-opacity:1" d="M 834.217,378.619 840.721,360.728 z" id="boundary" inkscape:connector-curvature="0" />
	<path style="fill:none;stroke:red;stroke-width:1px;stroke-linecap:butt;stroke-linejoin:miter;stroke-opacity:1" d="M 840.721,360.728 851.758,347.827 z" id="boundary" inkscape:connector-curvature="0" />
	<path style="fill:none;stroke:red;stroke-width:1px;stroke-linecap:butt;stroke-linejoin:miter;stroke-opacity:1" d="M 851.758,347.827 862.263,328.99 z" id="boundary" inkscape:connector-curvature="0" />
	<path style="fill:none;stroke:red;stroke-width:1px;stroke-linecap:butt;stroke-linejoin:miter;stroke-opacity:1" d="M 862.263,328.99 868.61,316.928 z" id="boundary" inkscape:connector-curvature="0" />
	<path style="fill:none;stroke:red;stroke-width:1px;stroke-linecap:butt;stroke-linejoin:miter;stroke-opacity:1" d="M 868.61,316.928 879.545,297.419 z" id="boundary" inkscape:connector-curvature="0" />
	<path style="fill:none;stroke:red;stroke-width:1px;stroke-linecap:butt;stroke-linejoin:miter;stroke-opacity:1" d="M 879.545,297.419 890.022,282.541 z" id="boundary" inkscape:connector-curvature="0" />
	<path style="fill:none;stroke:red;stroke-width:1px;stroke-linecap:butt;stroke-linejoin:miter;stroke-opacity:1" d="M 890.022,282.541 895.895,264.247 z" id="boundary" inkscape:connector-curvature="0" />
	<path style="fill:none;stroke:red;stroke-width:1px;stroke-linecap:butt;stroke-linejoin:miter;stroke-opacity:1" d="M 895.895,264.247 904.62,250.557 z" id="boundary" inkscape:connector-curvature="0" />
	<path style="fill:none;stroke:red;stroke-width:1px;stroke-linecap:butt;stroke-linejoin:miter;stroke-opacity:1" d="M 904.62,250.557 904.017,233.655 z" id="boundary" inkscape:connector-curvature="0" />
	<path style="fill:none;stroke:red;stroke-width:1px;stroke-linecap:butt;stroke-linejoin:miter;stroke-opacity:1" d="M 839.884,243.705 842.492,225.365 z" id="boundary" inkscape:connector-curvature="0" />
	<path style="fill:none;stroke:red;stroke-width:1px;stroke-linecap:butt;stroke-linejoin:miter;stroke-opacity:1" d="M 842.492,225.365 845.343,202.42 z" id="boundary" inkscape:connector-curvature="0" />
	<path style="fill:none;stroke:red;stroke-width:1px;stroke-linecap:butt;stroke-linejoin:miter;stroke-opacity:1" d="M 845.343,202.42 844.884,184.298 z" id="boundary" inkscape:connector-curvature="0" />
	<path style="fill:none;stroke:red;stroke-width:1px;stroke-linecap:butt;stroke-linejoin:miter;stroke-opacity:1" d="M 844.884,184.298 850.327,162.39 z" id="boundary" inkscape:connector-curvature="0" />
	<path style="fill:none;stroke:red;stroke-width:1px;stroke-linecap:butt;stroke-linejoin:miter;stroke-opacity:1" d="M 850.327,162.39 857.099,144.513 z" id="boundary" inkscape:connector-curvature="0" />
	<path style="fill:none;stroke:red;stroke-width:1px;stroke-linecap:butt;stroke-linejoin:miter;stroke-opacity:1" d="M 857.099,144.513 861.028,126.001 z" id="boundary" inkscape:connector-curvature="0" />
	<path style="fill:none;stroke:red;stroke-width:1px;stroke-linecap:butt;stroke-linejoin:miter;stroke-opacity:1" d="M 861.028,126.001 873.214,110.867 z" id="boundary" inkscape:connector-curvature="0" />
	<path style="fill:none;stroke:red;stroke-width:1px;stroke-linecap:butt;stroke-linejoin:miter;stroke-opacity:1" d="M 873.214,110.867 878.268,99.2648 z" id="boundary" inkscape:connector-curvature="0" />
	<path style="fill:none;stroke:red;stroke-width:1px;stroke-linecap:butt;stroke-linejoin:miter;stroke-opacity:1" d="M 878.268,99.2648 880.774,79.0359 z" id="boundary" inkscape:connector-curvature="0" />
	<path style="fill:none;stroke:red;stroke-width:1px;stroke-linecap:butt;stroke-linejoin:miter;stroke-opacity:1" d="M 880.774,79.0359 885.16,65.6352 z" id="boundary" inkscape:connector-curvature="0" />
	<path style="fill:none;stroke:red;stroke-width:1px;stroke-linecap:butt;stroke-linejoin:miter;stroke-opacity:1" d="M 885.16,65.6352 898.609,57.7436 z" id="boundary" inkscape:connector-curvature="0" />
	<path style="fill:none;stroke:red;stroke-width:1px;stroke-linecap:butt;stroke-linejoin:miter;stroke-opacity:1" d="M 898.609,57.7436 907.158,62.4632 z" id="boundary" inkscape:connector-curvature="0" />
	<path style="fill:none;stroke:red;stroke-width:1px;stroke-linecap:butt;stroke-linejoin:miter;stroke-opacity:1" d="M 907.158,62.4632 919.21,79.506 z" id="boundary" inkscape:connector-curvature="0" />
	<path style="fill:none;stroke:red;stroke-width:1px;stroke-linecap:butt;stroke-linejoin:miter;stroke-opacity:1" d="M 919.21,79.506 923.877,91.991 z" id="boundary" inkscape:connector-curvature="0" />
	<path style="fill:none;stroke:red;stroke-width:1px;stroke-linecap:butt;stroke-linejoin:miter;stroke-opacity:1" d="M 923.877,91.991 927.927,101.572 z" id="boundary" inkscape:connector-curvature="0" />
	<path style="fill:none;stroke:red;stroke-width:1px;stroke-linecap:butt;stroke-linejoin:miter;stroke-opacity:1" d="M 927.927,101.572 926.926,114.862 z" id="boundary" inkscape:connector-curvature="0" />
	<path style="fill:none;stroke:red;stroke-width:1px;stroke-linecap:butt;stroke-linejoin:miter;stroke-opacity:1" d="M 926.926,114.862 930.737,131.636 z" id="boundary" inkscape:connector-curvature="0" />
	<path style="fill:none;stroke:red;stroke-width:1px;stroke-linecap:butt;stroke-linejoin:miter;stroke-opacity:1" d="M 930.737,131.636 926.058,149.913 z" id="boundary" inkscape:connector-curvature="0" />
	<path style="fill:none;stroke:red;stroke-width:1px;stroke-linecap:butt;stroke-linejoin:miter;stroke-opacity:1" d="M 926.058,149.913 920.431,165.602 z" id="boundary" inkscape:connector-curvature="0" />
	<path style="fill:none;stroke:red;stroke-width:1px;stroke-linecap:butt;stroke-linejoin:miter;stroke-opacity:1" d="M 920.431,165.602 921.774,180.014 z" id="boundary" inkscape:connector-curvature="0" />
	<path style="fill:none;stroke:red;stroke-width:1px;stroke-linecap:butt;stroke-linejoin:miter;stroke-opacity:1" d="M 921.774,180.014 922.207,193.576 z" id="boundary" inkscape:connector-curvature="0" />
	<path style="fill:none;stroke:red;stroke-width:1px;stroke-linecap:butt;stroke-linejoin:miter;stroke-opacity:1" d="M 922.207,193.576 916.449,208.549 z" id="boundary" inkscape:connector-curvature="0" />
	<path style="fill:none;stroke:red;stroke-width:1px;stroke-linecap:butt;stroke-linejoin:miter;stroke-opacity:1" d="M 916.449,208.549 913.218,219.454 z" id="boundary" inkscape:connector-curvature="0" />
	<path style="fill:none;stroke:red;stroke-width:1px;stroke-linecap:butt;stroke-linejoin:miter;stroke-opacity:1" d="M 913.218,219.454 904.017,233.655 z" id="boundary" inkscape:connector-curvature="0" />
	<circle cx="42.9933" cy="22.9129" r="4" fill="#0" id="circle0"/>
	<circle cx="28.5018" cy="28.1351" r="4" fill="#0" id="circle1"/>
	<circle cx="15.9168" cy="49.2836" r="4" fill="#0" id="circle2"/>
	<circle cx="15.3208" cy="64.8466" r="4" fill="#0" id="circle3"/>
	<circle cx="10.7822" cy="86.3745" r="4" fill="#0" id="circle4"/>
	<circle cx="5.94896" cy="104.047" r="4" fill="#0" id="circle5"/>
	<circle cx="6.80448" cy="124.823" r="4" fill="#0" id="circle6"/>
	<circle cx="4" cy="138.347" r="4" fill="#0" id="circle7"/>
	<circle cx="14.6964" cy="159.758" r="4" fill="#0" id="circle8"/>
	<circle cx="23.4252" cy="178.838" r="4" fill="#0" id="circle9"/>
	<circle cx="31.0105" cy="198.186" r="4" fill="#0" id="circle10"/>
	<circle cx="38.3836" cy="212.163" r="4" fill="#0" id="circle11"/>
	<circle cx="46.5276" cy="231.81" r="4" fill="#0" id="circle12"/>
	<circle cx="55.0236" cy="252.27" r="4" fill="#0" id="circle13"/>
	<circle cx="56.7125" cy="269.68" r="4" fill="#0" id="circle14"/>
	<circle cx="68.6946" cy="279.889" r="4" fill="#0" id="circle15"/>
	<circle cx="77.8872" cy="298.939" r="4" fill="#0" id="circle16"/>
	<circle cx="82.673" cy="312.129" r="4" fill="#0" id="circle17"/>
	<circle cx="92.0585" cy="321.988" r="4" fill="#0" id="circle18"/>
	<circle cx="101.878" cy="340.102" r="4" fill="#0" id="circle19"/>
	<circle cx="111.707" cy="356.695" r="4" fill="#0" id="circle20"/>
	<circle cx="125.933" cy="372.354" r="4" fill="#0" id="circle21"/>
	<circle cx="136.771" cy="391.375" r="4" fill="#0" id="circle22"/>
	<circle cx="144.396" cy="403.654" r="4" fill="#0" id="circle23"/>
	<circle cx="158.294" cy="418.347" r="4" fill="#0" id="circle24"/>
	<circle cx="166.436" cy="439.831" r="4" fill="#0" id="circle25"/>
	<circle cx="178.922" cy="455.346" r="4" fill="#0" id="circle26"/>
	<circle cx="183.568" cy="471.001" r="4" fill="#0" id="circle27"/>
	<circle cx="199.793" cy="485.106" r="4" fill="#0" id="circle28"/>
	<circle cx="208.412" cy="503.021" r="4" fill="#0" id="circle29"/>
	<circle cx="223.346" cy="509.393" r="4" fill="#0" id="circle30"/>
	<circle cx="231.569" cy="523.57" r="4" fill="#0" id="circle31"/>
	<circle cx="251.321" cy="529.25" r="4" fill="#0" id="circle32"/>
	<circle cx="260.446" cy="540.84" r="4" fill="#0" id="circle33"/>
	<circle cx="271.011" cy="549.835" r="4" fill="#0" id="circle34"/>
	<circle cx="289.108" cy="562.901" r="4" fill="#0" id="circle35"/>
	<circle cx="313.037" cy="566.07" r="4" fill="#0" id="circle36"/>
	<circle cx="330.849" cy="575.964" r="4" fill="#0" id="circle37"/>
	<circle cx="355.659" cy="582.464" r="4" fill="#0" id="circle38"/>
	<circle cx="369.541" cy="592.016" r="4" fill="#0" id="circle39"/>
	<circle cx="389.077" cy="600.079" r="4" fill="#0" id="circle40"/>
	<circle cx="405.885" cy="596.312" r="4" fill="#0" id="circle41"/>
	<circle cx="419.51" cy="605.463" r="4" fill="#0" id="circle42"/>
	<circle cx="440.654" cy="606.161" r="4" fill="#0" id="circle43"/>
	<circle cx="438.073" cy="622.657" r="4" fill="#0" id="circle44"/>
	<circle cx="425.177" cy="636.668" r="4" fill="#0" id="circle45"/>
	<circle cx="417.499" cy="649.54" r="4" fill="#0" id="circle46"/>
	<circle cx="409.205" cy="658.994" r="4" fill="#0" id="circle47"/>
	<circle cx="396.251" cy="671.432" r="4" fill="#0" id="circle48"/>
	<circle cx="380.813" cy="678.993" r="4" fill="#0" id="circle49"/>
	<circle cx="367.42" cy="690.908" r="4" fill="#0" id="circle50"/>
	<circle cx="347.285" cy="693.849" r="4" fill="#0" id="circle51"/>
	<circle cx="341.774" cy="709.069" r="4" fill="#0" id="circle52"/>
	<circle cx="333.05" cy="730.723" r="4" fill="#0" id="circle53"/>
	<circle cx="336.53" cy="748.452" r="4" fill="#0" id="circle54"/>
	<circle cx="350.189" cy="763.177" r="4" fill="#0" id="circle55"/>
	<circle cx="372.665" cy="772.085" r="4" fill="#0" id="circle56"/>
	<circle cx="394.536" cy="779.996" r="4" fill="#0" id="circle57"/>
	<circle cx="416.607" cy="783.906" r="4" fill="#0" id="circle58"/>
	<circle cx="442.763" cy="783.497" r="4" fill="#0" id="circle59"/>
	<circle cx="464.826" cy="791.087" r="4" fill="#0" id="circle60"/>
	<circle cx="485.061" cy="791.242" r="4" fill="#0" id="circle61"/>
	<circle cx="507.878" cy="788.258" r="4" fill="#0" id="circle62"/>
	<circle cx="531.716" cy="789.134" r="4" fill="#0" id="circle63"/>
	<circle cx="556.095" cy="789.244" r="4" fill="#0" id="circle64"/>
	<circle cx="579.457" cy="790.28" r="4" fill="#0" id="circle65"/>
	<circle cx="600.466" cy="785.213" r="4" fill="#0" id="circle66"/>
	<circle cx="623.649" cy="774.874" r="4" fill="#0" id="circle67"/>
	<circle cx="643.754" cy="764.458" r="4" fill="#0" id="circle68"/>
	<circle cx="663.359" cy="754.878" r="4" fill="#0" id="circle69"/>
	<circle cx="677.306" cy="733.42" r="4" fill="#0" id="circle70"/>
	<circle cx="675.815" cy="715.117" r="4" fill="#0" id="circle71"/>
	<circle cx="666.583" cy="703.99" r="4" fill="#0" id="circle72"/>
	<circle cx="650.253" cy="688.64" r="4" fill="#0" id="circle73"/>
	<circle cx="636.402" cy="675.248" r="4" fill="#0" id="circle74"/>
	<circle cx="616.632" cy="666.875" r="4" fill="#0" id="circle75"/>
	<circle cx="600.88" cy="663.33" r="4" fill="#0" id="circle76"/>
	<circle cx="581.056" cy="652.152" r="4" fill="#0" id="circle77"/>
	<circle cx="576.185" cy="637.927" r="4" fill="#0" id="circle78"/>
	<circle cx="568.236" cy="611.696" r="4" fill="#0" id="circle79"/>
	<circle cx="587.284" cy="608.866" r="4" fill="#0" id="circle80"/>
	<circle cx="609.487" cy="608.432" r="4" fill="#0" id="circle81"/>
	<circle cx="620.526" cy="601.446" r="4" fill="#0" id="circle82"/>
	<circle cx="642.919" cy="593.753" r="4" fill="#0" id="circle83"/>
	<circle cx="663.658" cy="590.981" r="4" fill="#0" id="circle84"/>
	<circle cx="677.892" cy="584.208" r="4" fill="#0" id="circle85"/>
	<circle cx="704.374" cy="572.77" r="4" fill="#0" id="circle86"/>
	<circle cx="714.817" cy="570.121" r="4" fill="#0" id="circle87"/>
	<circle cx="733.015" cy="561.882" r="4" fill="#0" id="circle88"/>
	<circle cx="745.56" cy="550.339" r="4" fill="#0" id="circle89"/>
	<circle cx="766.35" cy="542.418" r="4" fill="#0" id="circle90"/>
	<circle cx="781.26" cy="529.912" r="4" fill="#0" id="circle91"/>
	<circle cx="798.681" cy="517.669" r="4" fill="#0" id="circle92"/>
	<circle cx="813.138" cy="497.747" r="4" fill="#0" id="circle93"/>
	<circle cx="826.465" cy="481.037" r="4" fill="#0" id="circle94"/>
	<circle cx="837.66" cy="470.299" r="4" fill="#0" id="circle95"/>
	<circle cx="846.313" cy="455.607" r="4" fill="#0" id="circle96"/>
	<circle cx="861.675" cy="438.12" r="4" fill="#0" id="circle97"/>
	<circle cx="870.539" cy="421.846" r="4" fill="#0" id="circle98"/>
	<circle cx="881.842" cy="407.639" r="4" fill="#0" id="circle99"/>
	<circle cx="890.985" cy="390.06" r="4" fill="#0" id="circle100"/>
	<circle cx="899.855" cy="369.997" r="4" fill="#0" id="circle101"/>
	<circle cx="914.918" cy="355.451" r="4" fill="#0" id="circle102"/>
	<circle cx="927.031" cy="336.34" r="4" fill="#0" id="circle103"/>
	<circle cx="929.815" cy="325.477" r="4" fill="#0" id="circle104"/>
	<circle cx="939.922" cy="305.936" r="4" fill="#0" id="circle105"/>
	<circle cx="950.026" cy="289.498" r="4" fill="#0" id="circle106"/>
	<circle cx="959.436" cy="270.589" r="4" fill="#0" id="circle107"/>
	<circle cx="970.552" cy="251.338" r="4" fill="#0" id="circle108"/>
	<circle cx="975.803" cy="225.072" r="4" fill="#0" id="circle109"/>
	<circle cx="984.618" cy="201.717" r="4" fill="#0" id="circle110"/>
	<circle cx="985.754" cy="176.069" r="4" fill="#0" id="circle111"/>
	<circle cx="990.823" cy="157.742" r="4" fill="#0" id="circle112"/>
	<circle cx="990.803" cy="137.813" r="4" fill="#0" id="circle113"/>
	<circle cx="996" cy="109.298" r="4" fill="#0" id="circle114"/>
	<circle cx="992.408" cy="90.4741" r="4" fill="#0" id="circle115"/>
	<circle cx="993.712" cy="57.6113" r="4" fill="#0" id="circle116"/>
	<circle cx="986.333" cy="40.8097" r="4" fill="#0" id="circle117"/>
	<circle cx="977.063" cy="21.3624" r="4" fill="#0" id="circle118"/>
	<circle cx="956.77" cy="9.20702" r="4" fill="#0" id="circle119"/>
	<circle cx="936.41" cy="4" r="4" fill="#0" id="circle120"/>
	<circle cx="917.982" cy="5.35223" r="4" fill="#0" id="circle121"/>
	<circle cx="899.65" cy="9.59702" r="4" fill="#0" id="circle122"/>
	<circle cx="887.069" cy="17.3069" r="4" fill="#0" id="circle123"/>
	<circle cx="878.697" cy="20.6217" r="4" fill="#0" id="circle124"/>
	<circle cx="866.774" cy="35.9901" r="4" fill="#0" id="circle125"/>
	<circle cx="859.307" cy="51.0401" r="4" fill="#0" id="circle126"/>
	<circle cx="844.05" cy="57.6283" r="4" fill="#0" id="circle127"/>
	<circle cx="833.176" cy="78.1383" r="4" fill="#0" id="circle128"/>
	<circle cx="828.127" cy="94.0219" r="4" fill="#0" id="circle129"/>
	<circle cx="818.464" cy="105.281" r="4" fill="#0" id="circle130"/>
	<circle cx="815.525" cy="123.454" r="4" fill="#0" id="circle131"/>
	<circle cx="809.809" cy="142.983" r="4" fill="#0" id="circle132"/>
	<circle cx="803.583" cy="156.883" r="4" fill="#0" id="circle133"/>
	<circle cx="797.033" cy="177.762" r="4" fill="#0" id="circle134"/>
	<circle cx="794.766" cy="197.284" r="4" fill="#0" id="circle135"/>
	<circle cx="784.597" cy="217.083" r="4" fill="#0" id="circle136"/>
	<circle cx="782.256" cy="240.954" r="4" fill="#0" id="circle137"/>
	<circle cx="774.793" cy="259.197" r="4" fill="#0" id="circle138"/>
	<circle cx="61.7971" cy="19.4925" r="4" fill="#0" id="circle139"/>
	<circle cx="73.4049" cy="20.9068" r="4" fill="#0" id="circle140"/>
	<circle cx="92.8393" cy="21.7325" r="4" fill="#0" id="circle141"/>
	<circle cx="112.62" cy="27.5681" r="4" fill="#0" id="circle142"/>
	<circle cx="121.691" cy="33.8531" r="4" fill="#0" id="circle143"/>
	<circle cx="134.771" cy="47.1318" r="4" fill="#0" id="circle144"/>
	<circle cx="149.612" cy="60.4996" r="4" fill="#0" id="circle145"/>
	<circle cx="159.225" cy="73.0924" r="4" fill="#0" id="circle146"/>
	<circle cx="164.926" cy="83.6221" r="4" fill="#0" id="circle147"/>
	<circle cx="175.491" cy="102.303" r="4" fill="#0" id="circle148"/>
	<circle cx="182.643" cy="114.612" r="4" fill="#0" id="circle149"/>
	<circle cx="193.047" cy="126.824" r="4" fill="#0" id="circle150"/>
	<circle cx="193.37" cy="140.326" r="4" fill="#0" id="circle151"/>
	<circle cx="203.13" cy="157.513" r="4" fill="#0" id="circle152"/>
	<circle cx="212.311" cy="176.393" r="4" fill="#0" id="circle153"/>
	<circle cx="211.955" cy="192.973" r="4" fill="#0" id="circle154"/>
	<circle cx="219.975" cy="208.506" r="4" fill="#0" id="circle155"/>
	<circle cx="228.022" cy="230.987" r="4" fill="#0" id="circle156"/>
	<circle cx="235.394" cy="244.582" r="4" fill="#0" id="circle157"/>
	<circle cx="236.211" cy="261.99" r="4" fill="#0" id="circle158"/>
	<circle cx="250.423" cy="259.305" r="4" fill="#0" id="circle159"/>
	<circle cx="265.221" cy="257.544" r="4" fill="#0" id="circle160"/>
	<circle cx="288.476" cy="261.36" r="4" fill="#0" id="circle161"/>
	<circle cx="304.283" cy="260.467" r="4" fill="#0" id="circle162"/>
	<circle cx="326.92" cy="258.65" r="4" fill="#0" id="circle163"/>
	<circle cx="343.745" cy="250.992" r="4" fill="#0" id="circle164"/>
	<circle cx="360.867" cy="253.345" r="4" fill="#0" id="circle165"/>
	<circle cx="384.629" cy="253.514" r="4" fill="#0" id="circle166"/>
	<circle cx="408.776" cy="253.868" r="4" fill="#0" id="circle167"/>
	<circle cx="426.131" cy="251.408" r="4" fill="#0" id="circle168"/>
	<circle cx="441.084" cy="254.446" r="4" fill="#0" id="circle169"/>
	<circle cx="459.486" cy="257.52" r="4" fill="#0" id="circle170"/>
	<circle cx="478.056" cy="251.496" r="4" fill="#0" id="circle171"/>
	<circle cx="492.697" cy="254.223" r="4" fill="#0" id="circle172"/>
	<circle cx="509.525" cy="257.379" r="4" fill="#0" id="circle173"/>
	<circle cx="527.038" cy="250.972" r="4" fill="#0" id="circle174"/>
	<circle cx="545.749" cy="256.055" r="4" fill="#0" id="circle175"/>
	<circle cx="566.737" cy="250.626" r="4" fill="#0" id="circle176"/>
	<circle cx="586.278" cy="253.56" r="4" fill="#0" id="circle177"/>
	<circle cx="599.856" cy="253.318" r="4" fill="#0" id="circle178"/>
	<circle cx="619.215" cy="256.492" r="4" fill="#0" id="circle179"/>
	<circle cx="635.496" cy="253.175" r="4" fill="#0" id="circle180"/>
	<circle cx="651.667" cy="253.417" r="4" fill="#0" id="circle181"/>
	<circle cx="674.358" cy="255.595" r="4" fill="#0" id="circle182"/>
	<circle cx="685.598" cy="253.219" r="4" fill="#0" id="circle183"/>
	<circle cx="700.239" cy="255.502" r="4" fill="#0" id="circle184"/>
	<circle cx="719.144" cy="257.038" r="4" fill="#0" id="circle185"/>
	<circle cx="741.084" cy="258.03" r="4" fill="#0" id="circle186"/>
	<circle cx="754.837" cy="253.847" r="4" fill="#0" id="circle187"/>
	<circle cx="88.6022" cy="88.0536" r="4" fill="#0" id="circle188"/>
	<circle cx="77.6243" cy="98.3724" r="4" fill="#0" id="circle189"/>
	<circle cx="80.5096" cy="113.705" r="4" fill="#0" id="circle190"/>
	<circle cx="71.7306" cy="126.662" r="4" fill="#0" id="circle191"/>
	<circle cx="77.6227" cy="143.365" r="4" fill="#0" id="circle192"/>
	<circle cx="75.9687" cy="159.519" r="4" fill="#0" id="circle193"/>
	<circle cx="83.4435" cy="170.59" r="4" fill="#0" id="circle194"/>
	<circle cx="85.224" cy="181.772" r="4" fill="#0" id="circle195"/>
	<circle cx="86.3449" cy="199.03" r="4" fill="#0" id="circle196"/>
	<circle cx="98.7337" cy="212.892" r="4" fill="#0" id="circle197"/>
	<circle cx="98.9644" cy="222.29" r="4" fill="#0" id="circle198"/>
	<circle cx="105.476" cy="238.127" r="4" fill="#0" id="circle199"/>
	<circle cx="118.12" cy="251.933" r="4" fill="#0" id="circle200"/>
	<circle cx="122.919" cy="267.312" r="4" fill="#0" id="circle201"/>
	<circle cx="129.428" cy="281.855" r="4" fill="#0" id="circle202"/>
	<circle cx="138.27" cy="289.462" r="4" fill="#0" id="circle203"/>
	<circle cx="145.253" cy="309.847" r="4" fill="#0" id="circle204"/>
	<circle cx="152.533" cy="320.409" r="4" fill="#0" id="circle205"/>
	<circle cx="160.755" cy="333.141" r="4" fill="#0" id="circle206"/>
	<circle cx="173.632" cy="344.633" r="4" fill="#0" id="circle207"/>
	<circle cx="183.165" cy="363.451" r="4" fill="#0" id="circle208"/>
	<circle cx="184.972" cy="374.522" r="4" fill="#0" id="circle209"/>
	<circle cx="196.621" cy="384.048" r="4" fill="#0" id="circle210"/>
	<circle cx="205.608" cy="396.818" r="4" fill="#0" id="circle211"/>
	<circle cx="219.126" cy="394.014" r="4" fill="#0" id="circle212"/>
	<circle cx="217.566" cy="379.57" r="4" fill="#0" id="circle213"/>
	<circle cx="195.273" cy="327.444" r="4" fill="#0" id="circle214"/>
	<circle cx="203.3" cy="336.733" r="4" fill="#0" id="circle215"/>
	<circle cx="205.476" cy="347.902" r="4" fill="#0" id="circle216"/>
	<circle cx="101.759" cy="80.6123" r="4" fill="#0" id="circle217"/>
	<circle cx="115.863" cy="77.6385" r="4" fill="#0" id="circle218"/>
	<circle cx="128.14" cy="85.458" r="4" fill="#0" id="circle219"/>
	<circle cx="132.981" cy="95.0674" r="4" fill="#0" id="circle220"/>
	<circle cx="142.377" cy="110.752" r="4" fill="#0" id="circle221"/>
	<circle cx="144.817" cy="125.426" r="4" fill="#0" id="circle222"/>
	<circle cx="148.777" cy="137.401" r="4" fill="#0" id="circle223"/>
	<circle cx="151.459" cy="152.423" r="4" fill="#0" id="circle224"/>
	<circle cx="154.605" cy="166.755" r="4" fill="#0" id="circle225"/>
	<circle cx="159.252" cy="178.887" r="4" fill="#0" id="circle226"/>
	<circle cx="164.795" cy="189.454" r="4" fill="#0" id="circle227"/>
	<circle cx="168.454" cy="205.045" r="4" fill="#0" id="circle228"/>
	<circle cx="171.211" cy="217.92" r="4" fill="#0" id="circle229"/>
	<circle cx="173.513" cy="233.679" r="4" fill="#0" id="circle230"/>
	<circle cx="176.737" cy="254.043" r="4" fill="#0" id="circle231"/>
	<circle cx="182.107" cy="267.976" r="4" fill="#0" id="circle232"/>
	<circle cx="184.624" cy="278.194" r="4" fill="#0" id="circle233"/>
	<circle cx="187.291" cy="294.648" r="4" fill="#0" id="circle234"/>
	<circle cx="189.708" cy="311.409" r="4" fill="#0" id="circle235"/>
	<circle cx="214.113" cy="363.716" r="4" fill="#0" id="circle236"/>
	<circle cx="791.178" cy="417.093" r="4" fill="#0" id="circle237"/>
	<circle cx="792.792" cy="405.411" r="4" fill="#0" id="circle238"/>
	<circle cx="815.029" cy="408.743" r="4" fill="#0" id="circle239"/>
	<circle cx="802.478" cy="384.375" r="4" fill="#0" id="circle240"/>
	<circle cx="806.875" cy="369.839" r="4" fill="#0" id="circle241"/>
	<circle cx="818.82" cy="355.869" r="4" fill="#0" id="circle242"/>
	<circle cx="821.483" cy="339" r="4" fill="#0" id="circle243"/>
	<circle cx="825.456" cy="316.23" r="4" fill="#0" id="circle244"/>
	<circle cx="834.034" cy="303.568" r="4" fill="#0" id="circle245"/>
	<circle cx="835.316" cy="279.585" r="4" fill="#0" id="circle246"/>
	<circle cx="840.397" cy="265.642" r="4" fill="#0" id="circle247"/>
	<circle cx="820.395" cy="399.271" r="4" fill="#0" id="circle248"/>
	<circle cx="834.217" cy="378.619" r="4" fill="#0" id="circle249"/>
	<circle cx="840.721" cy="360.728" r="4" fill="#0" id="circle250"/>
	<circle cx="851.758" cy="347.827" r="4" fill="#0" id="circle251"/>
	<circle cx="862.263" cy="328.99" r="4" fill="#0" id="circle252"/>
	<circle cx="868.61" cy="316.928" r="4" fill="#0" id="circle253"/>
	<circle cx="879.545" cy="297.419" r="4" fill="#0" id="circle254"/>
	<circle cx="890.022" cy="282.541" r="4" fill="#0" id="circle255"/>
	<circle cx="895.895" cy="264.247" r="4" fill="#0" id="circle256"/>
	<circle cx="904.62" cy="250.557" r="4" fill="#0" id="circle257"/>
	<circle cx="839.884" cy="243.705" r="4" fill="#0" id="circle258"/>
	<circle cx="842.492" cy="225.365" r="4" fill="#0" id="circle259"/>
	<circle cx="845.343" cy="202.42" r="4" fill="#0" id="circle260"/>
	<circle cx="844.884" cy="184.298" r="4" fill="#0" id="circle261"/>
	<circle cx="850.327" cy="162.39" r="4" fill="#0" id="circle262"/>
	<circle cx="857.099" cy="144.513" r="4" fill="#0" id="circle263"/>
	<circle cx="861.028" cy="126.001" r="4" fill="#0" id="circle264"/>
	<circle cx="873.214" cy="110.867" r="4" fill="#0" id="circle265"/>
	<circle cx="878.268" cy="99.2648" r="4" fill="#0" id="circle266"/>
	<circle cx="880.774" cy="79.0359" r="4" fill="#0" id="circle267"/>
	<circle cx="885.16" cy="65.6352" r="4" fill="#0" id="circle268"/>
	<circle cx="898.609" cy="57.7436" r="4" fill="#0" id="circle269"/>
	<circle cx="907.158" cy="62.4632" r="4" fill="#0" id="circle270"/>
	<circle cx="919.21" cy="79.506" r="4" fill="#0" id="circle271"/>
	<circle cx="923.877" cy="91.991" r="4" fill="#0" id="circle272"/>
	<circle cx="927.927" cy="101.572" r="4" fill="#0" id="circle273"/>
	<circle cx="926.926" cy="114.862" r="4" fill="#0" id="circle274"/>
	<circle cx="930.737" cy="131.636" r="4" fill="#0" id="circle275"/>
	<circle cx="926.058" cy="149.913" r="4" fill="#0" id="circle276"/>
	<circle cx="920.431" cy="165.602" r="4" fill="#0" id="circle277"/>
	<circle cx="921.774" cy="180.014" r="4" fill="#0" id="circle278"/>
	<circle cx="922.207" cy="193.576" r="4" fill="#0" id="circle279"/>
	<circle cx="916.449" cy="208.549" r="4" fill="#0" id="circle280"/>
	<circle cx="913.218" cy="219.454" r="4" fill="#0" id="circle281"/>
	<circle cx="904.017" cy="233.655" r="4" fill="#0" id="circle282"/>
	</g>
</svg>