<?xml version="1.0" encoding="UTF-8" standalone="no"?>
<!-- Created with CurveBenchmark -->
<svg
	xmlns:dc="http://purl.org/dc/elements/1.1/"
	xmlns:cc="http://creativecommons.org/ns#"
	xmlns:rdf="http://www.w3.org/1999/02/22-rdf-syntax-ns#"
	xmlns:svg="http://www.w3.org/2000/svg"
	xmlns="http://www.w3.org/2000/svg"
	xmlns:sodipodi="http://sodipodi.sourceforge.net/DTD/sodipodi-0.dtd"
	xmlns:inkscape="http://www.inkscape.org/namespaces/inkscape"
	width="1000"
	height="1000"
	id="svg2"
	version="1.1"
	sodipodi:docname="noisy-0.003/discur-mc9.txt">
<defs
	id="defs4" />
<metadata
	id="metadata7">
	<rdf:RDF>
		<cc:Work
			rdf:about="">
			<dc:format>image/svg+xml</dc:format>
			<dc:type
				rdf:resource="http://purl.org/dc/dcmitype/StillImage" />
			<dc:title></dc:title>
		</cc:Work>
	</rdf:RDF>
</metadata>
<g
	inkscape:label="Layer 1"
	inkscape:groupmode="layer"
	id="layer1">
	<path style="fill:none;stroke:red;stroke-width:1px;stroke-linecap:butt;stroke-linejoin:miter;stroke-opacity:1" d="M 219.902,154.19 204.991,151.42 z" id="boundary" inkscape:connector-curvature="0" />
	<path style="fill:none;stroke:red;stroke-width:1px;stroke-linecap:butt;stroke-linejoin:miter;stroke-opacity:1" d="M 219.902,154.19 231.194,147.112 z" id="boundary" inkscape:connector-curvature="0" />
	<path style="fill:none;stroke:red;stroke-width:1px;stroke-linecap:butt;stroke-linejoin:miter;stroke-opacity:1" d="M 204.991,151.42 187.279,155.54 z" id="boundary" inkscape:connector-curvature="0" />
	<path style="fill:none;stroke:red;stroke-width:1px;stroke-linecap:butt;stroke-linejoin:miter;stroke-opacity:1" d="M 187.279,155.54 175.928,151.628 z" id="boundary" inkscape:connector-curvature="0" />
	<path style="fill:none;stroke:red;stroke-width:1px;stroke-linecap:butt;stroke-linejoin:miter;stroke-opacity:1" d="M 175.928,151.628 161.019,151.566 z" id="boundary" inkscape:connector-curvature="0" />
	<path style="fill:none;stroke:red;stroke-width:1px;stroke-linecap:butt;stroke-linejoin:miter;stroke-opacity:1" d="M 161.019,151.566 144.349,151.053 z" id="boundary" inkscape:connector-curvature="0" />
	<path style="fill:none;stroke:red;stroke-width:1px;stroke-linecap:butt;stroke-linejoin:miter;stroke-opacity:1" d="M 144.349,151.053 131.349,153.375 z" id="boundary" inkscape:connector-curvature="0" />
	<path style="fill:none;stroke:red;stroke-width:1px;stroke-linecap:butt;stroke-linejoin:miter;stroke-opacity:1" d="M 131.349,153.375 112.019,150.613 z" id="boundary" inkscape:connector-curvature="0" />
	<path style="fill:none;stroke:red;stroke-width:1px;stroke-linecap:butt;stroke-linejoin:miter;stroke-opacity:1" d="M 112.019,150.613 98.886,151.977 z" id="boundary" inkscape:connector-curvature="0" />
	<path style="fill:none;stroke:red;stroke-width:1px;stroke-linecap:butt;stroke-linejoin:miter;stroke-opacity:1" d="M 98.886,151.977 86.9724,154.263 z" id="boundary" inkscape:connector-curvature="0" />
	<path style="fill:none;stroke:red;stroke-width:1px;stroke-linecap:butt;stroke-linejoin:miter;stroke-opacity:1" d="M 86.9724,154.263 74.059,159.818 z" id="boundary" inkscape:connector-curvature="0" />
	<path style="fill:none;stroke:red;stroke-width:1px;stroke-linecap:butt;stroke-linejoin:miter;stroke-opacity:1" d="M 74.059,159.818 56.397,159.031 z" id="boundary" inkscape:connector-curvature="0" />
	<path style="fill:none;stroke:red;stroke-width:1px;stroke-linecap:butt;stroke-linejoin:miter;stroke-opacity:1" d="M 56.397,159.031 42.4912,166.386 z" id="boundary" inkscape:connector-curvature="0" />
	<path style="fill:none;stroke:red;stroke-width:1px;stroke-linecap:butt;stroke-linejoin:miter;stroke-opacity:1" d="M 42.4912,166.386 28.9048,176.04 z" id="boundary" inkscape:connector-curvature="0" />
	<path style="fill:none;stroke:red;stroke-width:1px;stroke-linecap:butt;stroke-linejoin:miter;stroke-opacity:1" d="M 28.9048,176.04 13.7647,186.002 z" id="boundary" inkscape:connector-curvature="0" />
	<path style="fill:none;stroke:red;stroke-width:1px;stroke-linecap:butt;stroke-linejoin:miter;stroke-opacity:1" d="M 13.7647,186.002 9.44515,192.457 z" id="boundary" inkscape:connector-curvature="0" />
	<path style="fill:none;stroke:red;stroke-width:1px;stroke-linecap:butt;stroke-linejoin:miter;stroke-opacity:1" d="M 9.44515,192.457 5.70106,209.953 z" id="boundary" inkscape:connector-curvature="0" />
	<path style="fill:none;stroke:red;stroke-width:1px;stroke-linecap:butt;stroke-linejoin:miter;stroke-opacity:1" d="M 5.70106,209.953 4,226.75 z" id="boundary" inkscape:connector-curvature="0" />
	<path style="fill:none;stroke:red;stroke-width:1px;stroke-linecap:butt;stroke-linejoin:miter;stroke-opacity:1" d="M 4,226.75 8.04754,238.978 z" id="boundary" inkscape:connector-curvature="0" />
	<path style="fill:none;stroke:red;stroke-width:1px;stroke-linecap:butt;stroke-linejoin:miter;stroke-opacity:1" d="M 8.04754,238.978 10.9562,254.131 z" id="boundary" inkscape:connector-curvature="0" />
	<path style="fill:none;stroke:red;stroke-width:1px;stroke-linecap:butt;stroke-linejoin:miter;stroke-opacity:1" d="M 10.9562,254.131 12.411,267.911 z" id="boundary" inkscape:connector-curvature="0" />
	<path style="fill:none;stroke:red;stroke-width:1px;stroke-linecap:butt;stroke-linejoin:miter;stroke-opacity:1" d="M 12.411,267.911 20.9297,282.38 z" id="boundary" inkscape:connector-curvature="0" />
	<path style="fill:none;stroke:red;stroke-width:1px;stroke-linecap:butt;stroke-linejoin:miter;stroke-opacity:1" d="M 20.9297,282.38 27.8523,296.788 z" id="boundary" inkscape:connector-curvature="0" />
	<path style="fill:none;stroke:red;stroke-width:1px;stroke-linecap:butt;stroke-linejoin:miter;stroke-opacity:1" d="M 27.8523,296.788 31.9085,303.616 z" id="boundary" inkscape:connector-curvature="0" />
	<path style="fill:none;stroke:red;stroke-width:1px;stroke-linecap:butt;stroke-linejoin:miter;stroke-opacity:1" d="M 31.9085,303.616 44.6174,315.648 z" id="boundary" inkscape:connector-curvature="0" />
	<path style="fill:none;stroke:red;stroke-width:1px;stroke-linecap:butt;stroke-linejoin:miter;stroke-opacity:1" d="M 44.6174,315.648 52.2015,332.279 z" id="boundary" inkscape:connector-curvature="0" />
	<path style="fill:none;stroke:red;stroke-width:1px;stroke-linecap:butt;stroke-linejoin:miter;stroke-opacity:1" d="M 52.2015,332.279 65.2016,339.034 z" id="boundary" inkscape:connector-curvature="0" />
	<path style="fill:none;stroke:red;stroke-width:1px;stroke-linecap:butt;stroke-linejoin:miter;stroke-opacity:1" d="M 65.2016,339.034 68.0676,348.84 z" id="boundary" inkscape:connector-curvature="0" />
	<path style="fill:none;stroke:red;stroke-width:1px;stroke-linecap:butt;stroke-linejoin:miter;stroke-opacity:1" d="M 68.0676,348.84 82.9124,361.806 z" id="boundary" inkscape:connector-curvature="0" />
	<path style="fill:none;stroke:red;stroke-width:1px;stroke-linecap:butt;stroke-linejoin:miter;stroke-opacity:1" d="M 82.9124,361.806 93.9853,369.162 z" id="boundary" inkscape:connector-curvature="0" />
	<path style="fill:none;stroke:red;stroke-width:1px;stroke-linecap:butt;stroke-linejoin:miter;stroke-opacity:1" d="M 93.9853,369.162 110.792,369.06 z" id="boundary" inkscape:connector-curvature="0" />
	<path style="fill:none;stroke:red;stroke-width:1px;stroke-linecap:butt;stroke-linejoin:miter;stroke-opacity:1" d="M 110.792,369.06 123.074,380.593 z" id="boundary" inkscape:connector-curvature="0" />
	<path style="fill:none;stroke:red;stroke-width:1px;stroke-linecap:butt;stroke-linejoin:miter;stroke-opacity:1" d="M 123.074,380.593 141.203,391.908 z" id="boundary" inkscape:connector-curvature="0" />
	<path style="fill:none;stroke:red;stroke-width:1px;stroke-linecap:butt;stroke-linejoin:miter;stroke-opacity:1" d="M 141.203,391.908 149.639,402.638 z" id="boundary" inkscape:connector-curvature="0" />
	<path style="fill:none;stroke:red;stroke-width:1px;stroke-linecap:butt;stroke-linejoin:miter;stroke-opacity:1" d="M 149.639,402.638 151.758,420.105 z" id="boundary" inkscape:connector-curvature="0" />
	<path style="fill:none;stroke:red;stroke-width:1px;stroke-linecap:butt;stroke-linejoin:miter;stroke-opacity:1" d="M 151.758,420.105 157.748,438.185 z" id="boundary" inkscape:connector-curvature="0" />
	<path style="fill:none;stroke:red;stroke-width:1px;stroke-linecap:butt;stroke-linejoin:miter;stroke-opacity:1" d="M 157.748,438.185 167.574,445.838 z" id="boundary" inkscape:connector-curvature="0" />
	<path style="fill:none;stroke:red;stroke-width:1px;stroke-linecap:butt;stroke-linejoin:miter;stroke-opacity:1" d="M 167.574,445.838 176.435,459.526 z" id="boundary" inkscape:connector-curvature="0" />
	<path style="fill:none;stroke:red;stroke-width:1px;stroke-linecap:butt;stroke-linejoin:miter;stroke-opacity:1" d="M 176.435,459.526 191.579,470.117 z" id="boundary" inkscape:connector-curvature="0" />
	<path style="fill:none;stroke:red;stroke-width:1px;stroke-linecap:butt;stroke-linejoin:miter;stroke-opacity:1" d="M 191.579,470.117 201.381,481.933 z" id="boundary" inkscape:connector-curvature="0" />
	<path style="fill:none;stroke:red;stroke-width:1px;stroke-linecap:butt;stroke-linejoin:miter;stroke-opacity:1" d="M 201.381,481.933 214.826,493.934 z" id="boundary" inkscape:connector-curvature="0" />
	<path style="fill:none;stroke:red;stroke-width:1px;stroke-linecap:butt;stroke-linejoin:miter;stroke-opacity:1" d="M 214.826,493.934 230.297,499.751 z" id="boundary" inkscape:connector-curvature="0" />
	<path style="fill:none;stroke:red;stroke-width:1px;stroke-linecap:butt;stroke-linejoin:miter;stroke-opacity:1" d="M 230.297,499.751 244.462,514.231 z" id="boundary" inkscape:connector-curvature="0" />
	<path style="fill:none;stroke:red;stroke-width:1px;stroke-linecap:butt;stroke-linejoin:miter;stroke-opacity:1" d="M 244.462,514.231 265.408,521.083 z" id="boundary" inkscape:connector-curvature="0" />
	<path style="fill:none;stroke:red;stroke-width:1px;stroke-linecap:butt;stroke-linejoin:miter;stroke-opacity:1" d="M 265.408,521.083 284.47,534.741 z" id="boundary" inkscape:connector-curvature="0" />
	<path style="fill:none;stroke:red;stroke-width:1px;stroke-linecap:butt;stroke-linejoin:miter;stroke-opacity:1" d="M 284.47,534.741 298.678,546.125 z" id="boundary" inkscape:connector-curvature="0" />
	<path style="fill:none;stroke:red;stroke-width:1px;stroke-linecap:butt;stroke-linejoin:miter;stroke-opacity:1" d="M 298.678,546.125 317.56,551.925 z" id="boundary" inkscape:connector-curvature="0" />
	<path style="fill:none;stroke:red;stroke-width:1px;stroke-linecap:butt;stroke-linejoin:miter;stroke-opacity:1" d="M 317.56,551.925 337.416,554.538 z" id="boundary" inkscape:connector-curvature="0" />
	<path style="fill:none;stroke:red;stroke-width:1px;stroke-linecap:butt;stroke-linejoin:miter;stroke-opacity:1" d="M 337.416,554.538 360.652,559.877 z" id="boundary" inkscape:connector-curvature="0" />
	<path style="fill:none;stroke:red;stroke-width:1px;stroke-linecap:butt;stroke-linejoin:miter;stroke-opacity:1" d="M 360.652,559.877 377.054,560.748 z" id="boundary" inkscape:connector-curvature="0" />
	<path style="fill:none;stroke:red;stroke-width:1px;stroke-linecap:butt;stroke-linejoin:miter;stroke-opacity:1" d="M 377.054,560.748 395.27,567.044 z" id="boundary" inkscape:connector-curvature="0" />
	<path style="fill:none;stroke:red;stroke-width:1px;stroke-linecap:butt;stroke-linejoin:miter;stroke-opacity:1" d="M 395.27,567.044 411.955,565.276 z" id="boundary" inkscape:connector-curvature="0" />
	<path style="fill:none;stroke:red;stroke-width:1px;stroke-linecap:butt;stroke-linejoin:miter;stroke-opacity:1" d="M 411.955,565.276 434.29,567.074 z" id="boundary" inkscape:connector-curvature="0" />
	<path style="fill:none;stroke:red;stroke-width:1px;stroke-linecap:butt;stroke-linejoin:miter;stroke-opacity:1" d="M 434.29,567.074 449.271,570.153 z" id="boundary" inkscape:connector-curvature="0" />
	<path style="fill:none;stroke:red;stroke-width:1px;stroke-linecap:butt;stroke-linejoin:miter;stroke-opacity:1" d="M 449.271,570.153 472.371,574.248 z" id="boundary" inkscape:connector-curvature="0" />
	<path style="fill:none;stroke:red;stroke-width:1px;stroke-linecap:butt;stroke-linejoin:miter;stroke-opacity:1" d="M 472.371,574.248 489.593,574.067 z" id="boundary" inkscape:connector-curvature="0" />
	<path style="fill:none;stroke:red;stroke-width:1px;stroke-linecap:butt;stroke-linejoin:miter;stroke-opacity:1" d="M 489.593,574.067 510.28,576.155 z" id="boundary" inkscape:connector-curvature="0" />
	<path style="fill:none;stroke:red;stroke-width:1px;stroke-linecap:butt;stroke-linejoin:miter;stroke-opacity:1" d="M 510.28,576.155 531.951,575.811 z" id="boundary" inkscape:connector-curvature="0" />
	<path style="fill:none;stroke:red;stroke-width:1px;stroke-linecap:butt;stroke-linejoin:miter;stroke-opacity:1" d="M 531.951,575.811 547.785,573.319 z" id="boundary" inkscape:connector-curvature="0" />
	<path style="fill:none;stroke:red;stroke-width:1px;stroke-linecap:butt;stroke-linejoin:miter;stroke-opacity:1" d="M 547.785,573.319 571.861,569.958 z" id="boundary" inkscape:connector-curvature="0" />
	<path style="fill:none;stroke:red;stroke-width:1px;stroke-linecap:butt;stroke-linejoin:miter;stroke-opacity:1" d="M 571.861,569.958 590.678,575.31 z" id="boundary" inkscape:connector-curvature="0" />
	<path style="fill:none;stroke:red;stroke-width:1px;stroke-linecap:butt;stroke-linejoin:miter;stroke-opacity:1" d="M 590.678,575.31 606.352,570.961 z" id="boundary" inkscape:connector-curvature="0" />
	<path style="fill:none;stroke:red;stroke-width:1px;stroke-linecap:butt;stroke-linejoin:miter;stroke-opacity:1" d="M 606.352,570.961 619.83,566.704 z" id="boundary" inkscape:connector-curvature="0" />
	<path style="fill:none;stroke:red;stroke-width:1px;stroke-linecap:butt;stroke-linejoin:miter;stroke-opacity:1" d="M 619.83,566.704 638.72,564.366 z" id="boundary" inkscape:connector-curvature="0" />
	<path style="fill:none;stroke:red;stroke-width:1px;stroke-linecap:butt;stroke-linejoin:miter;stroke-opacity:1" d="M 638.72,564.366 661.227,561.405 z" id="boundary" inkscape:connector-curvature="0" />
	<path style="fill:none;stroke:red;stroke-width:1px;stroke-linecap:butt;stroke-linejoin:miter;stroke-opacity:1" d="M 661.227,561.405 678.122,554.689 z" id="boundary" inkscape:connector-curvature="0" />
	<path style="fill:none;stroke:red;stroke-width:1px;stroke-linecap:butt;stroke-linejoin:miter;stroke-opacity:1" d="M 678.122,554.689 689.903,546.954 z" id="boundary" inkscape:connector-curvature="0" />
	<path style="fill:none;stroke:red;stroke-width:1px;stroke-linecap:butt;stroke-linejoin:miter;stroke-opacity:1" d="M 689.903,546.954 708.168,534.429 z" id="boundary" inkscape:connector-curvature="0" />
	<path style="fill:none;stroke:red;stroke-width:1px;stroke-linecap:butt;stroke-linejoin:miter;stroke-opacity:1" d="M 708.168,534.429 723.655,523.298 z" id="boundary" inkscape:connector-curvature="0" />
	<path style="fill:none;stroke:red;stroke-width:1px;stroke-linecap:butt;stroke-linejoin:miter;stroke-opacity:1" d="M 723.655,523.298 737.163,512.918 z" id="boundary" inkscape:connector-curvature="0" />
	<path style="fill:none;stroke:red;stroke-width:1px;stroke-linecap:butt;stroke-linejoin:miter;stroke-opacity:1" d="M 737.163,512.918 754.608,497.74 z" id="boundary" inkscape:connector-curvature="0" />
	<path style="fill:none;stroke:red;stroke-width:1px;stroke-linecap:butt;stroke-linejoin:miter;stroke-opacity:1" d="M 754.608,497.74 770.062,491.496 z" id="boundary" inkscape:connector-curvature="0" />
	<path style="fill:none;stroke:red;stroke-width:1px;stroke-linecap:butt;stroke-linejoin:miter;stroke-opacity:1" d="M 770.062,491.496 782.986,481.186 z" id="boundary" inkscape:connector-curvature="0" />
	<path style="fill:none;stroke:red;stroke-width:1px;stroke-linecap:butt;stroke-linejoin:miter;stroke-opacity:1" d="M 782.986,481.186 792.496,464.036 z" id="boundary" inkscape:connector-curvature="0" />
	<path style="fill:none;stroke:red;stroke-width:1px;stroke-linecap:butt;stroke-linejoin:miter;stroke-opacity:1" d="M 792.496,464.036 804.176,445.594 z" id="boundary" inkscape:connector-curvature="0" />
	<path style="fill:none;stroke:red;stroke-width:1px;stroke-linecap:butt;stroke-linejoin:miter;stroke-opacity:1" d="M 804.176,445.594 813.475,428.655 z" id="boundary" inkscape:connector-curvature="0" />
	<path style="fill:none;stroke:red;stroke-width:1px;stroke-linecap:butt;stroke-linejoin:miter;stroke-opacity:1" d="M 813.475,428.655 823.339,414.577 z" id="boundary" inkscape:connector-curvature="0" />
	<path style="fill:none;stroke:red;stroke-width:1px;stroke-linecap:butt;stroke-linejoin:miter;stroke-opacity:1" d="M 823.339,414.577 831.125,401.193 z" id="boundary" inkscape:connector-curvature="0" />
	<path style="fill:none;stroke:red;stroke-width:1px;stroke-linecap:butt;stroke-linejoin:miter;stroke-opacity:1" d="M 831.125,401.193 851.043,394.205 z" id="boundary" inkscape:connector-curvature="0" />
	<path style="fill:none;stroke:red;stroke-width:1px;stroke-linecap:butt;stroke-linejoin:miter;stroke-opacity:1" d="M 851.043,394.205 863.662,382.337 z" id="boundary" inkscape:connector-curvature="0" />
	<path style="fill:none;stroke:red;stroke-width:1px;stroke-linecap:butt;stroke-linejoin:miter;stroke-opacity:1" d="M 863.662,382.337 875.137,369.006 z" id="boundary" inkscape:connector-curvature="0" />
	<path style="fill:none;stroke:red;stroke-width:1px;stroke-linecap:butt;stroke-linejoin:miter;stroke-opacity:1" d="M 875.137,369.006 894.014,357.801 z" id="boundary" inkscape:connector-curvature="0" />
	<path style="fill:none;stroke:red;stroke-width:1px;stroke-linecap:butt;stroke-linejoin:miter;stroke-opacity:1" d="M 894.014,357.801 896.695,342.18 z" id="boundary" inkscape:connector-curvature="0" />
	<path style="fill:none;stroke:red;stroke-width:1px;stroke-linecap:butt;stroke-linejoin:miter;stroke-opacity:1" d="M 896.695,342.18 905.1,328.948 z" id="boundary" inkscape:connector-curvature="0" />
	<path style="fill:none;stroke:red;stroke-width:1px;stroke-linecap:butt;stroke-linejoin:miter;stroke-opacity:1" d="M 905.1,328.948 910.482,312.606 z" id="boundary" inkscape:connector-curvature="0" />
	<path style="fill:none;stroke:red;stroke-width:1px;stroke-linecap:butt;stroke-linejoin:miter;stroke-opacity:1" d="M 910.482,312.606 917.476,295.648 z" id="boundary" inkscape:connector-curvature="0" />
	<path style="fill:none;stroke:red;stroke-width:1px;stroke-linecap:butt;stroke-linejoin:miter;stroke-opacity:1" d="M 917.476,295.648 928.006,271.452 z" id="boundary" inkscape:connector-curvature="0" />
	<path style="fill:none;stroke:red;stroke-width:1px;stroke-linecap:butt;stroke-linejoin:miter;stroke-opacity:1" d="M 928.006,271.452 928.554,256.652 z" id="boundary" inkscape:connector-curvature="0" />
	<path style="fill:none;stroke:red;stroke-width:1px;stroke-linecap:butt;stroke-linejoin:miter;stroke-opacity:1" d="M 928.554,256.652 934.567,236.84 z" id="boundary" inkscape:connector-curvature="0" />
	<path style="fill:none;stroke:red;stroke-width:1px;stroke-linecap:butt;stroke-linejoin:miter;stroke-opacity:1" d="M 934.567,236.84 932.487,217.073 z" id="boundary" inkscape:connector-curvature="0" />
	<path style="fill:none;stroke:red;stroke-width:1px;stroke-linecap:butt;stroke-linejoin:miter;stroke-opacity:1" d="M 932.487,217.073 942.406,203.604 z" id="boundary" inkscape:connector-curvature="0" />
	<path style="fill:none;stroke:red;stroke-width:1px;stroke-linecap:butt;stroke-linejoin:miter;stroke-opacity:1" d="M 942.406,203.604 948.546,192.047 z" id="boundary" inkscape:connector-curvature="0" />
	<path style="fill:none;stroke:red;stroke-width:1px;stroke-linecap:butt;stroke-linejoin:miter;stroke-opacity:1" d="M 948.546,192.047 960.047,179.163 z" id="boundary" inkscape:connector-curvature="0" />
	<path style="fill:none;stroke:red;stroke-width:1px;stroke-linecap:butt;stroke-linejoin:miter;stroke-opacity:1" d="M 960.047,179.163 973.362,160.882 z" id="boundary" inkscape:connector-curvature="0" />
	<path style="fill:none;stroke:red;stroke-width:1px;stroke-linecap:butt;stroke-linejoin:miter;stroke-opacity:1" d="M 973.362,160.882 985.627,151.622 z" id="boundary" inkscape:connector-curvature="0" />
	<path style="fill:none;stroke:red;stroke-width:1px;stroke-linecap:butt;stroke-linejoin:miter;stroke-opacity:1" d="M 985.627,151.622 996,138.635 z" id="boundary" inkscape:connector-curvature="0" />
	<path style="fill:none;stroke:red;stroke-width:1px;stroke-linecap:butt;stroke-linejoin:miter;stroke-opacity:1" d="M 996,138.635 971.015,132.834 z" id="boundary" inkscape:connector-curvature="0" />
	<path style="fill:none;stroke:red;stroke-width:1px;stroke-linecap:butt;stroke-linejoin:miter;stroke-opacity:1" d="M 921.378,135.75 943.094,134.935 z" id="boundary" inkscape:connector-curvature="0" />
	<path style="fill:none;stroke:red;stroke-width:1px;stroke-linecap:butt;stroke-linejoin:miter;stroke-opacity:1" d="M 921.378,135.75 910.693,144.903 z" id="boundary" inkscape:connector-curvature="0" />
	<path style="fill:none;stroke:red;stroke-width:1px;stroke-linecap:butt;stroke-linejoin:miter;stroke-opacity:1" d="M 943.094,134.935 954.456,135.247 z" id="boundary" inkscape:connector-curvature="0" />
	<path style="fill:none;stroke:red;stroke-width:1px;stroke-linecap:butt;stroke-linejoin:miter;stroke-opacity:1" d="M 954.456,135.247 971.015,132.834 z" id="boundary" inkscape:connector-curvature="0" />
	<path style="fill:none;stroke:red;stroke-width:1px;stroke-linecap:butt;stroke-linejoin:miter;stroke-opacity:1" d="M 803.492,278.802 822.377,271.037 z" id="boundary" inkscape:connector-curvature="0" />
	<path style="fill:none;stroke:red;stroke-width:1px;stroke-linecap:butt;stroke-linejoin:miter;stroke-opacity:1" d="M 803.492,278.802 797.793,264.537 z" id="boundary" inkscape:connector-curvature="0" />
	<path style="fill:none;stroke:red;stroke-width:1px;stroke-linecap:butt;stroke-linejoin:miter;stroke-opacity:1" d="M 822.377,271.037 837.771,263.661 z" id="boundary" inkscape:connector-curvature="0" />
	<path style="fill:none;stroke:red;stroke-width:1px;stroke-linecap:butt;stroke-linejoin:miter;stroke-opacity:1" d="M 837.771,263.661 854.989,244.547 z" id="boundary" inkscape:connector-curvature="0" />
	<path style="fill:none;stroke:red;stroke-width:1px;stroke-linecap:butt;stroke-linejoin:miter;stroke-opacity:1" d="M 854.989,244.547 862.261,228.286 z" id="boundary" inkscape:connector-curvature="0" />
	<path style="fill:none;stroke:red;stroke-width:1px;stroke-linecap:butt;stroke-linejoin:miter;stroke-opacity:1" d="M 862.261,228.286 871.553,207.221 z" id="boundary" inkscape:connector-curvature="0" />
	<path style="fill:none;stroke:red;stroke-width:1px;stroke-linecap:butt;stroke-linejoin:miter;stroke-opacity:1" d="M 871.553,207.221 876.282,190.518 z" id="boundary" inkscape:connector-curvature="0" />
	<path style="fill:none;stroke:red;stroke-width:1px;stroke-linecap:butt;stroke-linejoin:miter;stroke-opacity:1" d="M 876.282,190.518 886.507,176.144 z" id="boundary" inkscape:connector-curvature="0" />
	<path style="fill:none;stroke:red;stroke-width:1px;stroke-linecap:butt;stroke-linejoin:miter;stroke-opacity:1" d="M 886.507,176.144 898.237,162.957 z" id="boundary" inkscape:connector-curvature="0" />
	<path style="fill:none;stroke:red;stroke-width:1px;stroke-linecap:butt;stroke-linejoin:miter;stroke-opacity:1" d="M 898.237,162.957 910.693,144.903 z" id="boundary" inkscape:connector-curvature="0" />
	<path style="fill:none;stroke:red;stroke-width:1px;stroke-linecap:butt;stroke-linejoin:miter;stroke-opacity:1" d="M 776.54,198.337 779.163,212.972 z" id="boundary" inkscape:connector-curvature="0" />
	<path style="fill:none;stroke:red;stroke-width:1px;stroke-linecap:butt;stroke-linejoin:miter;stroke-opacity:1" d="M 776.54,198.337 764.057,188.468 z" id="boundary" inkscape:connector-curvature="0" />
	<path style="fill:none;stroke:red;stroke-width:1px;stroke-linecap:butt;stroke-linejoin:miter;stroke-opacity:1" d="M 779.163,212.972 786.865,234.251 z" id="boundary" inkscape:connector-curvature="0" />
	<path style="fill:none;stroke:red;stroke-width:1px;stroke-linecap:butt;stroke-linejoin:miter;stroke-opacity:1" d="M 786.865,234.251 789.973,252.521 z" id="boundary" inkscape:connector-curvature="0" />
	<path style="fill:none;stroke:red;stroke-width:1px;stroke-linecap:butt;stroke-linejoin:miter;stroke-opacity:1" d="M 789.973,252.521 797.793,264.537 z" id="boundary" inkscape:connector-curvature="0" />
	<path style="fill:none;stroke:red;stroke-width:1px;stroke-linecap:butt;stroke-linejoin:miter;stroke-opacity:1" d="M 705.799,104.834 725.27,109.766 z" id="boundary" inkscape:connector-curvature="0" />
	<path style="fill:none;stroke:red;stroke-width:1px;stroke-linecap:butt;stroke-linejoin:miter;stroke-opacity:1" d="M 705.799,104.834 687.902,98.5122 z" id="boundary" inkscape:connector-curvature="0" />
	<path style="fill:none;stroke:red;stroke-width:1px;stroke-linecap:butt;stroke-linejoin:miter;stroke-opacity:1" d="M 725.27,109.766 736.839,127.797 z" id="boundary" inkscape:connector-curvature="0" />
	<path style="fill:none;stroke:red;stroke-width:1px;stroke-linecap:butt;stroke-linejoin:miter;stroke-opacity:1" d="M 736.839,127.797 748.163,140.549 z" id="boundary" inkscape:connector-curvature="0" />
	<path style="fill:none;stroke:red;stroke-width:1px;stroke-linecap:butt;stroke-linejoin:miter;stroke-opacity:1" d="M 748.163,140.549 750.937,156.821 z" id="boundary" inkscape:connector-curvature="0" />
	<path style="fill:none;stroke:red;stroke-width:1px;stroke-linecap:butt;stroke-linejoin:miter;stroke-opacity:1" d="M 750.937,156.821 758.14,170.415 z" id="boundary" inkscape:connector-curvature="0" />
	<path style="fill:none;stroke:red;stroke-width:1px;stroke-linecap:butt;stroke-linejoin:miter;stroke-opacity:1" d="M 758.14,170.415 764.057,188.468 z" id="boundary" inkscape:connector-curvature="0" />
	<path style="fill:none;stroke:red;stroke-width:1px;stroke-linecap:butt;stroke-linejoin:miter;stroke-opacity:1" d="M 534.476,79.1309 556.518,81.6325 z" id="boundary" inkscape:connector-curvature="0" />
	<path style="fill:none;stroke:red;stroke-width:1px;stroke-linecap:butt;stroke-linejoin:miter;stroke-opacity:1" d="M 534.476,79.1309 524.43,60.1145 z" id="boundary" inkscape:connector-curvature="0" />
	<path style="fill:none;stroke:red;stroke-width:1px;stroke-linecap:butt;stroke-linejoin:miter;stroke-opacity:1" d="M 556.518,81.6325 579.365,77.1413 z" id="boundary" inkscape:connector-curvature="0" />
	<path style="fill:none;stroke:red;stroke-width:1px;stroke-linecap:butt;stroke-linejoin:miter;stroke-opacity:1" d="M 579.365,77.1413 595.947,77.5412 z" id="boundary" inkscape:connector-curvature="0" />
	<path style="fill:none;stroke:red;stroke-width:1px;stroke-linecap:butt;stroke-linejoin:miter;stroke-opacity:1" d="M 595.947,77.5412 616.55,82.1772 z" id="boundary" inkscape:connector-curvature="0" />
	<path style="fill:none;stroke:red;stroke-width:1px;stroke-linecap:butt;stroke-linejoin:miter;stroke-opacity:1" d="M 616.55,82.1772 630.055,83.7342 z" id="boundary" inkscape:connector-curvature="0" />
	<path style="fill:none;stroke:red;stroke-width:1px;stroke-linecap:butt;stroke-linejoin:miter;stroke-opacity:1" d="M 630.055,83.7342 644.524,87.3128 z" id="boundary" inkscape:connector-curvature="0" />
	<path style="fill:none;stroke:red;stroke-width:1px;stroke-linecap:butt;stroke-linejoin:miter;stroke-opacity:1" d="M 644.524,87.3128 659.76,89.708 z" id="boundary" inkscape:connector-curvature="0" />
	<path style="fill:none;stroke:red;stroke-width:1px;stroke-linecap:butt;stroke-linejoin:miter;stroke-opacity:1" d="M 659.76,89.708 672.295,92.5209 z" id="boundary" inkscape:connector-curvature="0" />
	<path style="fill:none;stroke:red;stroke-width:1px;stroke-linecap:butt;stroke-linejoin:miter;stroke-opacity:1" d="M 672.295,92.5209 687.902,98.5122 z" id="boundary" inkscape:connector-curvature="0" />
	<path style="fill:none;stroke:red;stroke-width:1px;stroke-linecap:butt;stroke-linejoin:miter;stroke-opacity:1" d="M 231.194,147.112 242.24,124.865 z" id="boundary" inkscape:connector-curvature="0" />
	<path style="fill:none;stroke:red;stroke-width:1px;stroke-linecap:butt;stroke-linejoin:miter;stroke-opacity:1" d="M 242.24,124.865 253.093,117.995 z" id="boundary" inkscape:connector-curvature="0" />
	<path style="fill:none;stroke:red;stroke-width:1px;stroke-linecap:butt;stroke-linejoin:miter;stroke-opacity:1" d="M 253.093,117.995 273.867,105.447 z" id="boundary" inkscape:connector-curvature="0" />
	<path style="fill:none;stroke:red;stroke-width:1px;stroke-linecap:butt;stroke-linejoin:miter;stroke-opacity:1" d="M 273.867,105.447 287.509,94.6788 z" id="boundary" inkscape:connector-curvature="0" />
	<path style="fill:none;stroke:red;stroke-width:1px;stroke-linecap:butt;stroke-linejoin:miter;stroke-opacity:1" d="M 287.509,94.6788 303.726,92.1751 z" id="boundary" inkscape:connector-curvature="0" />
	<path style="fill:none;stroke:red;stroke-width:1px;stroke-linecap:butt;stroke-linejoin:miter;stroke-opacity:1" d="M 303.726,92.1751 318.278,87.587 z" id="boundary" inkscape:connector-curvature="0" />
	<path style="fill:none;stroke:red;stroke-width:1px;stroke-linecap:butt;stroke-linejoin:miter;stroke-opacity:1" d="M 318.278,87.587 342.76,86.7329 z" id="boundary" inkscape:connector-curvature="0" />
	<path style="fill:none;stroke:red;stroke-width:1px;stroke-linecap:butt;stroke-linejoin:miter;stroke-opacity:1" d="M 342.76,86.7329 356.635,84.9487 z" id="boundary" inkscape:connector-curvature="0" />
	<path style="fill:none;stroke:red;stroke-width:1px;stroke-linecap:butt;stroke-linejoin:miter;stroke-opacity:1" d="M 356.635,84.9487 377.603,81.1704 z" id="boundary" inkscape:connector-curvature="0" />
	<path style="fill:none;stroke:red;stroke-width:1px;stroke-linecap:butt;stroke-linejoin:miter;stroke-opacity:1" d="M 377.603,81.1704 398.818,77.3899 z" id="boundary" inkscape:connector-curvature="0" />
	<path style="fill:none;stroke:red;stroke-width:1px;stroke-linecap:butt;stroke-linejoin:miter;stroke-opacity:1" d="M 398.818,77.3899 411.898,74.0826 z" id="boundary" inkscape:connector-curvature="0" />
	<path style="fill:none;stroke:red;stroke-width:1px;stroke-linecap:butt;stroke-linejoin:miter;stroke-opacity:1" d="M 411.898,74.0826 433.12,72.5293 z" id="boundary" inkscape:connector-curvature="0" />
	<path style="fill:none;stroke:red;stroke-width:1px;stroke-linecap:butt;stroke-linejoin:miter;stroke-opacity:1" d="M 433.12,72.5293 455.896,71.0901 z" id="boundary" inkscape:connector-curvature="0" />
	<path style="fill:none;stroke:red;stroke-width:1px;stroke-linecap:butt;stroke-linejoin:miter;stroke-opacity:1" d="M 455.896,71.0901 454.095,55.1808 z" id="boundary" inkscape:connector-curvature="0" />
	<path style="fill:none;stroke:red;stroke-width:1px;stroke-linecap:butt;stroke-linejoin:miter;stroke-opacity:1" d="M 454.095,55.1808 438.019,41.9668 z" id="boundary" inkscape:connector-curvature="0" />
	<path style="fill:none;stroke:red;stroke-width:1px;stroke-linecap:butt;stroke-linejoin:miter;stroke-opacity:1" d="M 438.019,41.9668 427.863,34.6108 z" id="boundary" inkscape:connector-curvature="0" />
	<path style="fill:none;stroke:red;stroke-width:1px;stroke-linecap:butt;stroke-linejoin:miter;stroke-opacity:1" d="M 427.863,34.6108 434.452,15.4161 z" id="boundary" inkscape:connector-curvature="0" />
	<path style="fill:none;stroke:red;stroke-width:1px;stroke-linecap:butt;stroke-linejoin:miter;stroke-opacity:1" d="M 434.452,15.4161 453.158,6.84833 z" id="boundary" inkscape:connector-curvature="0" />
	<path style="fill:none;stroke:red;stroke-width:1px;stroke-linecap:butt;stroke-linejoin:miter;stroke-opacity:1" d="M 453.158,6.84833 465.791,4 z" id="boundary" inkscape:connector-curvature="0" />
	<path style="fill:none;stroke:red;stroke-width:1px;stroke-linecap:butt;stroke-linejoin:miter;stroke-opacity:1" d="M 465.791,4 485.445,6.04146 z" id="boundary" inkscape:connector-curvature="0" />
	<path style="fill:none;stroke:red;stroke-width:1px;stroke-linecap:butt;stroke-linejoin:miter;stroke-opacity:1" d="M 485.445,6.04146 503.047,8.11383 z" id="boundary" inkscape:connector-curvature="0" />
	<path style="fill:none;stroke:red;stroke-width:1px;stroke-linecap:butt;stroke-linejoin:miter;stroke-opacity:1" d="M 503.047,8.11383 512.008,6.61596 z" id="boundary" inkscape:connector-curvature="0" />
	<path style="fill:none;stroke:red;stroke-width:1px;stroke-linecap:butt;stroke-linejoin:miter;stroke-opacity:1" d="M 512.008,6.61596 526.997,5.70191 z" id="boundary" inkscape:connector-curvature="0" />
	<path style="fill:none;stroke:red;stroke-width:1px;stroke-linecap:butt;stroke-linejoin:miter;stroke-opacity:1" d="M 526.997,5.70191 542.079,14.1174 z" id="boundary" inkscape:connector-curvature="0" />
	<path style="fill:none;stroke:red;stroke-width:1px;stroke-linecap:butt;stroke-linejoin:miter;stroke-opacity:1" d="M 542.079,14.1174 556.484,25.1947 z" id="boundary" inkscape:connector-curvature="0" />
	<path style="fill:none;stroke:red;stroke-width:1px;stroke-linecap:butt;stroke-linejoin:miter;stroke-opacity:1" d="M 556.484,25.1947 546.612,41.174 z" id="boundary" inkscape:connector-curvature="0" />
	<path style="fill:none;stroke:red;stroke-width:1px;stroke-linecap:butt;stroke-linejoin:miter;stroke-opacity:1" d="M 546.612,41.174 532.162,47.9331 z" id="boundary" inkscape:connector-curvature="0" />
	<path style="fill:none;stroke:red;stroke-width:1px;stroke-linecap:butt;stroke-linejoin:miter;stroke-opacity:1" d="M 532.162,47.9331 524.43,60.1145 z" id="boundary" inkscape:connector-curvature="0" />
	<path style="fill:none;stroke:red;stroke-width:1px;stroke-linecap:butt;stroke-linejoin:miter;stroke-opacity:1" d="M 69.8885,228.822 73.8136,212.681 z" id="boundary" inkscape:connector-curvature="0" />
	<path style="fill:none;stroke:red;stroke-width:1px;stroke-linecap:butt;stroke-linejoin:miter;stroke-opacity:1" d="M 69.8885,228.822 73.4314,241.209 z" id="boundary" inkscape:connector-curvature="0" />
	<path style="fill:none;stroke:red;stroke-width:1px;stroke-linecap:butt;stroke-linejoin:miter;stroke-opacity:1" d="M 73.8136,212.681 86.9954,201.86 z" id="boundary" inkscape:connector-curvature="0" />
	<path style="fill:none;stroke:red;stroke-width:1px;stroke-linecap:butt;stroke-linejoin:miter;stroke-opacity:1" d="M 86.9954,201.86 102.548,191.821 z" id="boundary" inkscape:connector-curvature="0" />
	<path style="fill:none;stroke:red;stroke-width:1px;stroke-linecap:butt;stroke-linejoin:miter;stroke-opacity:1" d="M 102.548,191.821 115.379,190.884 z" id="boundary" inkscape:connector-curvature="0" />
	<path style="fill:none;stroke:red;stroke-width:1px;stroke-linecap:butt;stroke-linejoin:miter;stroke-opacity:1" d="M 115.379,190.884 132.703,186.48 z" id="boundary" inkscape:connector-curvature="0" />
	<path style="fill:none;stroke:red;stroke-width:1px;stroke-linecap:butt;stroke-linejoin:miter;stroke-opacity:1" d="M 132.703,186.48 151.871,189.792 z" id="boundary" inkscape:connector-curvature="0" />
	<path style="fill:none;stroke:red;stroke-width:1px;stroke-linecap:butt;stroke-linejoin:miter;stroke-opacity:1" d="M 151.871,189.792 167.871,184.512 z" id="boundary" inkscape:connector-curvature="0" />
	<path style="fill:none;stroke:red;stroke-width:1px;stroke-linecap:butt;stroke-linejoin:miter;stroke-opacity:1" d="M 167.871,184.512 186.294,187.253 z" id="boundary" inkscape:connector-curvature="0" />
	<path style="fill:none;stroke:red;stroke-width:1px;stroke-linecap:butt;stroke-linejoin:miter;stroke-opacity:1" d="M 186.294,187.253 206.262,190.061 z" id="boundary" inkscape:connector-curvature="0" />
	<path style="fill:none;stroke:red;stroke-width:1px;stroke-linecap:butt;stroke-linejoin:miter;stroke-opacity:1" d="M 206.262,190.061 206.816,200.484 z" id="boundary" inkscape:connector-curvature="0" />
	<path style="fill:none;stroke:red;stroke-width:1px;stroke-linecap:butt;stroke-linejoin:miter;stroke-opacity:1" d="M 73.4314,241.209 73.2083,255.912 z" id="boundary" inkscape:connector-curvature="0" />
	<path style="fill:none;stroke:red;stroke-width:1px;stroke-linecap:butt;stroke-linejoin:miter;stroke-opacity:1" d="M 73.2083,255.912 82.6108,272.565 z" id="boundary" inkscape:connector-curvature="0" />
	<path style="fill:none;stroke:red;stroke-width:1px;stroke-linecap:butt;stroke-linejoin:miter;stroke-opacity:1" d="M 82.6108,272.565 88.0741,280.556 z" id="boundary" inkscape:connector-curvature="0" />
	<path style="fill:none;stroke:red;stroke-width:1px;stroke-linecap:butt;stroke-linejoin:miter;stroke-opacity:1" d="M 88.0741,280.556 96.1829,295.854 z" id="boundary" inkscape:connector-curvature="0" />
	<path style="fill:none;stroke:red;stroke-width:1px;stroke-linecap:butt;stroke-linejoin:miter;stroke-opacity:1" d="M 96.1829,295.854 103.319,306.224 z" id="boundary" inkscape:connector-curvature="0" />
	<path style="fill:none;stroke:red;stroke-width:1px;stroke-linecap:butt;stroke-linejoin:miter;stroke-opacity:1" d="M 103.319,306.224 116.736,322.609 z" id="boundary" inkscape:connector-curvature="0" />
	<path style="fill:none;stroke:red;stroke-width:1px;stroke-linecap:butt;stroke-linejoin:miter;stroke-opacity:1" d="M 116.736,322.609 124.735,333.17 z" id="boundary" inkscape:connector-curvature="0" />
	<path style="fill:none;stroke:red;stroke-width:1px;stroke-linecap:butt;stroke-linejoin:miter;stroke-opacity:1" d="M 124.735,333.17 141.012,348.277 z" id="boundary" inkscape:connector-curvature="0" />
	<path style="fill:none;stroke:red;stroke-width:1px;stroke-linecap:butt;stroke-linejoin:miter;stroke-opacity:1" d="M 141.012,348.277 151.449,334.537 z" id="boundary" inkscape:connector-curvature="0" />
	<path style="fill:none;stroke:red;stroke-width:1px;stroke-linecap:butt;stroke-linejoin:miter;stroke-opacity:1" d="M 151.449,334.537 154.173,317.924 z" id="boundary" inkscape:connector-curvature="0" />
	<path style="fill:none;stroke:red;stroke-width:1px;stroke-linecap:butt;stroke-linejoin:miter;stroke-opacity:1" d="M 154.173,317.924 161.248,300.03 z" id="boundary" inkscape:connector-curvature="0" />
	<path style="fill:none;stroke:red;stroke-width:1px;stroke-linecap:butt;stroke-linejoin:miter;stroke-opacity:1" d="M 161.248,300.03 164.044,281.053 z" id="boundary" inkscape:connector-curvature="0" />
	<path style="fill:none;stroke:red;stroke-width:1px;stroke-linecap:butt;stroke-linejoin:miter;stroke-opacity:1" d="M 164.044,281.053 166.883,264.751 z" id="boundary" inkscape:connector-curvature="0" />
	<path style="fill:none;stroke:red;stroke-width:1px;stroke-linecap:butt;stroke-linejoin:miter;stroke-opacity:1" d="M 166.883,264.751 175.133,246.244 z" id="boundary" inkscape:connector-curvature="0" />
	<path style="fill:none;stroke:red;stroke-width:1px;stroke-linecap:butt;stroke-linejoin:miter;stroke-opacity:1" d="M 175.133,246.244 186.121,227.246 z" id="boundary" inkscape:connector-curvature="0" />
	<path style="fill:none;stroke:red;stroke-width:1px;stroke-linecap:butt;stroke-linejoin:miter;stroke-opacity:1" d="M 186.121,227.246 194.28,209.732 z" id="boundary" inkscape:connector-curvature="0" />
	<path style="fill:none;stroke:red;stroke-width:1px;stroke-linecap:butt;stroke-linejoin:miter;stroke-opacity:1" d="M 194.28,209.732 206.816,200.484 z" id="boundary" inkscape:connector-curvature="0" />
	<circle cx="219.902" cy="154.19" r="4" fill="#0" id="circle0"/>
	<circle cx="204.991" cy="151.42" r="4" fill="#0" id="circle1"/>
	<circle cx="187.279" cy="155.54" r="4" fill="#0" id="circle2"/>
	<circle cx="175.928" cy="151.628" r="4" fill="#0" id="circle3"/>
	<circle cx="161.019" cy="151.566" r="4" fill="#0" id="circle4"/>
	<circle cx="144.349" cy="151.053" r="4" fill="#0" id="circle5"/>
	<circle cx="131.349" cy="153.375" r="4" fill="#0" id="circle6"/>
	<circle cx="112.019" cy="150.613" r="4" fill="#0" id="circle7"/>
	<circle cx="98.886" cy="151.977" r="4" fill="#0" id="circle8"/>
	<circle cx="86.9724" cy="154.263" r="4" fill="#0" id="circle9"/>
	<circle cx="74.059" cy="159.818" r="4" fill="#0" id="circle10"/>
	<circle cx="56.397" cy="159.031" r="4" fill="#0" id="circle11"/>
	<circle cx="42.4912" cy="166.386" r="4" fill="#0" id="circle12"/>
	<circle cx="28.9048" cy="176.04" r="4" fill="#0" id="circle13"/>
	<circle cx="13.7647" cy="186.002" r="4" fill="#0" id="circle14"/>
	<circle cx="9.44515" cy="192.457" r="4" fill="#0" id="circle15"/>
	<circle cx="5.70106" cy="209.953" r="4" fill="#0" id="circle16"/>
	<circle cx="4" cy="226.75" r="4" fill="#0" id="circle17"/>
	<circle cx="8.04754" cy="238.978" r="4" fill="#0" id="circle18"/>
	<circle cx="10.9562" cy="254.131" r="4" fill="#0" id="circle19"/>
	<circle cx="12.411" cy="267.911" r="4" fill="#0" id="circle20"/>
	<circle cx="20.9297" cy="282.38" r="4" fill="#0" id="circle21"/>
	<circle cx="27.8523" cy="296.788" r="4" fill="#0" id="circle22"/>
	<circle cx="31.9085" cy="303.616" r="4" fill="#0" id="circle23"/>
	<circle cx="44.6174" cy="315.648" r="4" fill="#0" id="circle24"/>
	<circle cx="52.2015" cy="332.279" r="4" fill="#0" id="circle25"/>
	<circle cx="65.2016" cy="339.034" r="4" fill="#0" id="circle26"/>
	<circle cx="68.0676" cy="348.84" r="4" fill="#0" id="circle27"/>
	<circle cx="82.9124" cy="361.806" r="4" fill="#0" id="circle28"/>
	<circle cx="93.9853" cy="369.162" r="4" fill="#0" id="circle29"/>
	<circle cx="110.792" cy="369.06" r="4" fill="#0" id="circle30"/>
	<circle cx="123.074" cy="380.593" r="4" fill="#0" id="circle31"/>
	<circle cx="141.203" cy="391.908" r="4" fill="#0" id="circle32"/>
	<circle cx="149.639" cy="402.638" r="4" fill="#0" id="circle33"/>
	<circle cx="151.758" cy="420.105" r="4" fill="#0" id="circle34"/>
	<circle cx="157.748" cy="438.185" r="4" fill="#0" id="circle35"/>
	<circle cx="167.574" cy="445.838" r="4" fill="#0" id="circle36"/>
	<circle cx="176.435" cy="459.526" r="4" fill="#0" id="circle37"/>
	<circle cx="191.579" cy="470.117" r="4" fill="#0" id="circle38"/>
	<circle cx="201.381" cy="481.933" r="4" fill="#0" id="circle39"/>
	<circle cx="214.826" cy="493.934" r="4" fill="#0" id="circle40"/>
	<circle cx="230.297" cy="499.751" r="4" fill="#0" id="circle41"/>
	<circle cx="244.462" cy="514.231" r="4" fill="#0" id="circle42"/>
	<circle cx="265.408" cy="521.083" r="4" fill="#0" id="circle43"/>
	<circle cx="284.47" cy="534.741" r="4" fill="#0" id="circle44"/>
	<circle cx="298.678" cy="546.125" r="4" fill="#0" id="circle45"/>
	<circle cx="317.56" cy="551.925" r="4" fill="#0" id="circle46"/>
	<circle cx="337.416" cy="554.538" r="4" fill="#0" id="circle47"/>
	<circle cx="360.652" cy="559.877" r="4" fill="#0" id="circle48"/>
	<circle cx="377.054" cy="560.748" r="4" fill="#0" id="circle49"/>
	<circle cx="395.27" cy="567.044" r="4" fill="#0" id="circle50"/>
	<circle cx="411.955" cy="565.276" r="4" fill="#0" id="circle51"/>
	<circle cx="434.29" cy="567.074" r="4" fill="#0" id="circle52"/>
	<circle cx="449.271" cy="570.153" r="4" fill="#0" id="circle53"/>
	<circle cx="472.371" cy="574.248" r="4" fill="#0" id="circle54"/>
	<circle cx="489.593" cy="574.067" r="4" fill="#0" id="circle55"/>
	<circle cx="510.28" cy="576.155" r="4" fill="#0" id="circle56"/>
	<circle cx="531.951" cy="575.811" r="4" fill="#0" id="circle57"/>
	<circle cx="547.785" cy="573.319" r="4" fill="#0" id="circle58"/>
	<circle cx="571.861" cy="569.958" r="4" fill="#0" id="circle59"/>
	<circle cx="590.678" cy="575.31" r="4" fill="#0" id="circle60"/>
	<circle cx="606.352" cy="570.961" r="4" fill="#0" id="circle61"/>
	<circle cx="619.83" cy="566.704" r="4" fill="#0" id="circle62"/>
	<circle cx="638.72" cy="564.366" r="4" fill="#0" id="circle63"/>
	<circle cx="661.227" cy="561.405" r="4" fill="#0" id="circle64"/>
	<circle cx="678.122" cy="554.689" r="4" fill="#0" id="circle65"/>
	<circle cx="689.903" cy="546.954" r="4" fill="#0" id="circle66"/>
	<circle cx="708.168" cy="534.429" r="4" fill="#0" id="circle67"/>
	<circle cx="723.655" cy="523.298" r="4" fill="#0" id="circle68"/>
	<circle cx="737.163" cy="512.918" r="4" fill="#0" id="circle69"/>
	<circle cx="754.608" cy="497.74" r="4" fill="#0" id="circle70"/>
	<circle cx="770.062" cy="491.496" r="4" fill="#0" id="circle71"/>
	<circle cx="782.986" cy="481.186" r="4" fill="#0" id="circle72"/>
	<circle cx="792.496" cy="464.036" r="4" fill="#0" id="circle73"/>
	<circle cx="804.176" cy="445.594" r="4" fill="#0" id="circle74"/>
	<circle cx="813.475" cy="428.655" r="4" fill="#0" id="circle75"/>
	<circle cx="823.339" cy="414.577" r="4" fill="#0" id="circle76"/>
	<circle cx="831.125" cy="401.193" r="4" fill="#0" id="circle77"/>
	<circle cx="851.043" cy="394.205" r="4" fill="#0" id="circle78"/>
	<circle cx="863.662" cy="382.337" r="4" fill="#0" id="circle79"/>
	<circle cx="875.137" cy="369.006" r="4" fill="#0" id="circle80"/>
	<circle cx="894.014" cy="357.801" r="4" fill="#0" id="circle81"/>
	<circle cx="896.695" cy="342.18" r="4" fill="#0" id="circle82"/>
	<circle cx="905.1" cy="328.948" r="4" fill="#0" id="circle83"/>
	<circle cx="910.482" cy="312.606" r="4" fill="#0" id="circle84"/>
	<circle cx="917.476" cy="295.648" r="4" fill="#0" id="circle85"/>
	<circle cx="928.006" cy="271.452" r="4" fill="#0" id="circle86"/>
	<circle cx="928.554" cy="256.652" r="4" fill="#0" id="circle87"/>
	<circle cx="934.567" cy="236.84" r="4" fill="#0" id="circle88"/>
	<circle cx="932.487" cy="217.073" r="4" fill="#0" id="circle89"/>
	<circle cx="942.406" cy="203.604" r="4" fill="#0" id="circle90"/>
	<circle cx="948.546" cy="192.047" r="4" fill="#0" id="circle91"/>
	<circle cx="960.047" cy="179.163" r="4" fill="#0" id="circle92"/>
	<circle cx="973.362" cy="160.882" r="4" fill="#0" id="circle93"/>
	<circle cx="985.627" cy="151.622" r="4" fill="#0" id="circle94"/>
	<circle cx="996" cy="138.635" r="4" fill="#0" id="circle95"/>
	<circle cx="921.378" cy="135.75" r="4" fill="#0" id="circle96"/>
	<circle cx="943.094" cy="134.935" r="4" fill="#0" id="circle97"/>
	<circle cx="954.456" cy="135.247" r="4" fill="#0" id="circle98"/>
	<circle cx="971.015" cy="132.834" r="4" fill="#0" id="circle99"/>
	<circle cx="803.492" cy="278.802" r="4" fill="#0" id="circle100"/>
	<circle cx="822.377" cy="271.037" r="4" fill="#0" id="circle101"/>
	<circle cx="837.771" cy="263.661" r="4" fill="#0" id="circle102"/>
	<circle cx="854.989" cy="244.547" r="4" fill="#0" id="circle103"/>
	<circle cx="862.261" cy="228.286" r="4" fill="#0" id="circle104"/>
	<circle cx="871.553" cy="207.221" r="4" fill="#0" id="circle105"/>
	<circle cx="876.282" cy="190.518" r="4" fill="#0" id="circle106"/>
	<circle cx="886.507" cy="176.144" r="4" fill="#0" id="circle107"/>
	<circle cx="898.237" cy="162.957" r="4" fill="#0" id="circle108"/>
	<circle cx="910.693" cy="144.903" r="4" fill="#0" id="circle109"/>
	<circle cx="776.54" cy="198.337" r="4" fill="#0" id="circle110"/>
	<circle cx="779.163" cy="212.972" r="4" fill="#0" id="circle111"/>
	<circle cx="786.865" cy="234.251" r="4" fill="#0" id="circle112"/>
	<circle cx="789.973" cy="252.521" r="4" fill="#0" id="circle113"/>
	<circle cx="797.793" cy="264.537" r="4" fill="#0" id="circle114"/>
	<circle cx="705.799" cy="104.834" r="4" fill="#0" id="circle115"/>
	<circle cx="725.27" cy="109.766" r="4" fill="#0" id="circle116"/>
	<circle cx="736.839" cy="127.797" r="4" fill="#0" id="circle117"/>
	<circle cx="748.163" cy="140.549" r="4" fill="#0" id="circle118"/>
	<circle cx="750.937" cy="156.821" r="4" fill="#0" id="circle119"/>
	<circle cx="758.14" cy="170.415" r="4" fill="#0" id="circle120"/>
	<circle cx="764.057" cy="188.468" r="4" fill="#0" id="circle121"/>
	<circle cx="534.476" cy="79.1309" r="4" fill="#0" id="circle122"/>
	<circle cx="556.518" cy="81.6325" r="4" fill="#0" id="circle123"/>
	<circle cx="579.365" cy="77.1413" r="4" fill="#0" id="circle124"/>
	<circle cx="595.947" cy="77.5412" r="4" fill="#0" id="circle125"/>
	<circle cx="616.55" cy="82.1772" r="4" fill="#0" id="circle126"/>
	<circle cx="630.055" cy="83.7342" r="4" fill="#0" id="circle127"/>
	<circle cx="644.524" cy="87.3128" r="4" fill="#0" id="circle128"/>
	<circle cx="659.76" cy="89.708" r="4" fill="#0" id="circle129"/>
	<circle cx="672.295" cy="92.5209" r="4" fill="#0" id="circle130"/>
	<circle cx="687.902" cy="98.5122" r="4" fill="#0" id="circle131"/>
	<circle cx="231.194" cy="147.112" r="4" fill="#0" id="circle132"/>
	<circle cx="242.24" cy="124.865" r="4" fill="#0" id="circle133"/>
	<circle cx="253.093" cy="117.995" r="4" fill="#0" id="circle134"/>
	<circle cx="273.867" cy="105.447" r="4" fill="#0" id="circle135"/>
	<circle cx="287.509" cy="94.6788" r="4" fill="#0" id="circle136"/>
	<circle cx="303.726" cy="92.1751" r="4" fill="#0" id="circle137"/>
	<circle cx="318.278" cy="87.587" r="4" fill="#0" id="circle138"/>
	<circle cx="342.76" cy="86.7329" r="4" fill="#0" id="circle139"/>
	<circle cx="356.635" cy="84.9487" r="4" fill="#0" id="circle140"/>
	<circle cx="377.603" cy="81.1704" r="4" fill="#0" id="circle141"/>
	<circle cx="398.818" cy="77.3899" r="4" fill="#0" id="circle142"/>
	<circle cx="411.898" cy="74.0826" r="4" fill="#0" id="circle143"/>
	<circle cx="433.12" cy="72.5293" r="4" fill="#0" id="circle144"/>
	<circle cx="455.896" cy="71.0901" r="4" fill="#0" id="circle145"/>
	<circle cx="454.095" cy="55.1808" r="4" fill="#0" id="circle146"/>
	<circle cx="438.019" cy="41.9668" r="4" fill="#0" id="circle147"/>
	<circle cx="427.863" cy="34.6108" r="4" fill="#0" id="circle148"/>
	<circle cx="434.452" cy="15.4161" r="4" fill="#0" id="circle149"/>
	<circle cx="453.158" cy="6.84833" r="4" fill="#0" id="circle150"/>
	<circle cx="465.791" cy="4" r="4" fill="#0" id="circle151"/>
	<circle cx="485.445" cy="6.04146" r="4" fill="#0" id="circle152"/>
	<circle cx="503.047" cy="8.11383" r="4" fill="#0" id="circle153"/>
	<circle cx="512.008" cy="6.61596" r="4" fill="#0" id="circle154"/>
	<circle cx="526.997" cy="5.70191" r="4" fill="#0" id="circle155"/>
	<circle cx="542.079" cy="14.1174" r="4" fill="#0" id="circle156"/>
	<circle cx="556.484" cy="25.1947" r="4" fill="#0" id="circle157"/>
	<circle cx="546.612" cy="41.174" r="4" fill="#0" id="circle158"/>
	<circle cx="532.162" cy="47.9331" r="4" fill="#0" id="circle159"/>
	<circle cx="524.43" cy="60.1145" r="4" fill="#0" id="circle160"/>
	<circle cx="69.8885" cy="228.822" r="4" fill="#0" id="circle161"/>
	<circle cx="73.8136" cy="212.681" r="4" fill="#0" id="circle162"/>
	<circle cx="86.9954" cy="201.86" r="4" fill="#0" id="circle163"/>
	<circle cx="102.548" cy="191.821" r="4" fill="#0" id="circle164"/>
	<circle cx="115.379" cy="190.884" r="4" fill="#0" id="circle165"/>
	<circle cx="132.703" cy="186.48" r="4" fill="#0" id="circle166"/>
	<circle cx="151.871" cy="189.792" r="4" fill="#0" id="circle167"/>
	<circle cx="167.871" cy="184.512" r="4" fill="#0" id="circle168"/>
	<circle cx="186.294" cy="187.253" r="4" fill="#0" id="circle169"/>
	<circle cx="206.262" cy="190.061" r="4" fill="#0" id="circle170"/>
	<circle cx="73.4314" cy="241.209" r="4" fill="#0" id="circle171"/>
	<circle cx="73.2083" cy="255.912" r="4" fill="#0" id="circle172"/>
	<circle cx="82.6108" cy="272.565" r="4" fill="#0" id="circle173"/>
	<circle cx="88.0741" cy="280.556" r="4" fill="#0" id="circle174"/>
	<circle cx="96.1829" cy="295.854" r="4" fill="#0" id="circle175"/>
	<circle cx="103.319" cy="306.224" r="4" fill="#0" id="circle176"/>
	<circle cx="116.736" cy="322.609" r="4" fill="#0" id="circle177"/>
	<circle cx="124.735" cy="333.17" r="4" fill="#0" id="circle178"/>
	<circle cx="141.012" cy="348.277" r="4" fill="#0" id="circle179"/>
	<circle cx="151.449" cy="334.537" r="4" fill="#0" id="circle180"/>
	<circle cx="154.173" cy="317.924" r="4" fill="#0" id="circle181"/>
	<circle cx="161.248" cy="300.03" r="4" fill="#0" id="circle182"/>
	<circle cx="164.044" cy="281.053" r="4" fill="#0" id="circle183"/>
	<circle cx="166.883" cy="264.751" r="4" fill="#0" id="circle184"/>
	<circle cx="175.133" cy="246.244" r="4" fill="#0" id="circle185"/>
	<circle cx="186.121" cy="227.246" r="4" fill="#0" id="circle186"/>
	<circle cx="194.28" cy="209.732" r="4" fill="#0" id="circle187"/>
	<circle cx="206.816" cy="200.484" r="4" fill="#0" id="circle188"/>
	</g>
</svg>