<?xml version="1.0" encoding="UTF-8" standalone="no"?>
<!-- Created with CurveBenchmark -->
<svg
	xmlns:dc="http://purl.org/dc/elements/1.1/"
	xmlns:cc="http://creativecommons.org/ns#"
	xmlns:rdf="http://www.w3.org/1999/02/22-rdf-syntax-ns#"
	xmlns:svg="http://www.w3.org/2000/svg"
	xmlns="http://www.w3.org/2000/svg"
	xmlns:sodipodi="http://sodipodi.sourceforge.net/DTD/sodipodi-0.dtd"
	xmlns:inkscape="http://www.inkscape.org/namespaces/inkscape"
	width="1000"
	height="1000"
	id="svg2"
	version="1.1"
	sodipodi:docname="noisy-0.003/discur-mc6.txt">
<defs
	id="defs4" />
<metadata
	id="metadata7">
	<rdf:RDF>
		<cc:Work
			rdf:about="">
			<dc:format>image/svg+xml</dc:format>
			<dc:type
				rdf:resource="http://purl.org/dc/dcmitype/StillImage" />
			<dc:title></dc:title>
		</cc:Work>
	</rdf:RDF>
</metadata>
<g
	inkscape:label="Layer 1"
	inkscape:groupmode="layer"
	id="layer1">
	<path style="fill:none;stroke:red;stroke-width:1px;stroke-linecap:butt;stroke-linejoin:miter;stroke-opacity:1" d="M 14.8778,619.136 42.646,604.688 z" id="boundary" inkscape:connector-curvature="0" />
	<path style="fill:none;stroke:red;stroke-width:1px;stroke-linecap:butt;stroke-linejoin:miter;stroke-opacity:1" d="M 14.8778,619.136 4,638.162 z" id="boundary" inkscape:connector-curvature="0" />
	<path style="fill:none;stroke:red;stroke-width:1px;stroke-linecap:butt;stroke-linejoin:miter;stroke-opacity:1" d="M 42.646,604.688 71.1268,612.632 z" id="boundary" inkscape:connector-curvature="0" />
	<path style="fill:none;stroke:red;stroke-width:1px;stroke-linecap:butt;stroke-linejoin:miter;stroke-opacity:1" d="M 71.1268,612.632 104.336,616.628 z" id="boundary" inkscape:connector-curvature="0" />
	<path style="fill:none;stroke:red;stroke-width:1px;stroke-linecap:butt;stroke-linejoin:miter;stroke-opacity:1" d="M 104.336,616.628 130.152,627.845 z" id="boundary" inkscape:connector-curvature="0" />
	<path style="fill:none;stroke:red;stroke-width:1px;stroke-linecap:butt;stroke-linejoin:miter;stroke-opacity:1" d="M 130.152,627.845 150.331,637.123 z" id="boundary" inkscape:connector-curvature="0" />
	<path style="fill:none;stroke:red;stroke-width:1px;stroke-linecap:butt;stroke-linejoin:miter;stroke-opacity:1" d="M 150.331,637.123 170.647,645.723 z" id="boundary" inkscape:connector-curvature="0" />
	<path style="fill:none;stroke:red;stroke-width:1px;stroke-linecap:butt;stroke-linejoin:miter;stroke-opacity:1" d="M 170.647,645.723 170.618,619.545 z" id="boundary" inkscape:connector-curvature="0" />
	<path style="fill:none;stroke:red;stroke-width:1px;stroke-linecap:butt;stroke-linejoin:miter;stroke-opacity:1" d="M 170.618,619.545 168.829,597.407 z" id="boundary" inkscape:connector-curvature="0" />
	<path style="fill:none;stroke:red;stroke-width:1px;stroke-linecap:butt;stroke-linejoin:miter;stroke-opacity:1" d="M 168.829,597.407 164.322,578.585 z" id="boundary" inkscape:connector-curvature="0" />
	<path style="fill:none;stroke:red;stroke-width:1px;stroke-linecap:butt;stroke-linejoin:miter;stroke-opacity:1" d="M 164.322,578.585 163.207,561.466 z" id="boundary" inkscape:connector-curvature="0" />
	<path style="fill:none;stroke:red;stroke-width:1px;stroke-linecap:butt;stroke-linejoin:miter;stroke-opacity:1" d="M 163.207,561.466 156.526,524.446 z" id="boundary" inkscape:connector-curvature="0" />
	<path style="fill:none;stroke:red;stroke-width:1px;stroke-linecap:butt;stroke-linejoin:miter;stroke-opacity:1" d="M 156.526,524.446 162.265,499.764 z" id="boundary" inkscape:connector-curvature="0" />
	<path style="fill:none;stroke:red;stroke-width:1px;stroke-linecap:butt;stroke-linejoin:miter;stroke-opacity:1" d="M 162.265,499.764 183.961,486.075 z" id="boundary" inkscape:connector-curvature="0" />
	<path style="fill:none;stroke:red;stroke-width:1px;stroke-linecap:butt;stroke-linejoin:miter;stroke-opacity:1" d="M 183.961,486.075 201.604,483.386 z" id="boundary" inkscape:connector-curvature="0" />
	<path style="fill:none;stroke:red;stroke-width:1px;stroke-linecap:butt;stroke-linejoin:miter;stroke-opacity:1" d="M 201.604,483.386 224.428,477.264 z" id="boundary" inkscape:connector-curvature="0" />
	<path style="fill:none;stroke:red;stroke-width:1px;stroke-linecap:butt;stroke-linejoin:miter;stroke-opacity:1" d="M 224.428,477.264 241.362,463.302 z" id="boundary" inkscape:connector-curvature="0" />
	<path style="fill:none;stroke:red;stroke-width:1px;stroke-linecap:butt;stroke-linejoin:miter;stroke-opacity:1" d="M 241.362,463.302 264.67,451.989 z" id="boundary" inkscape:connector-curvature="0" />
	<path style="fill:none;stroke:red;stroke-width:1px;stroke-linecap:butt;stroke-linejoin:miter;stroke-opacity:1" d="M 264.67,451.989 283.242,448.98 z" id="boundary" inkscape:connector-curvature="0" />
	<path style="fill:none;stroke:red;stroke-width:1px;stroke-linecap:butt;stroke-linejoin:miter;stroke-opacity:1" d="M 283.242,448.98 298.285,462.069 z" id="boundary" inkscape:connector-curvature="0" />
	<path style="fill:none;stroke:red;stroke-width:1px;stroke-linecap:butt;stroke-linejoin:miter;stroke-opacity:1" d="M 298.285,462.069 310.405,477.728 z" id="boundary" inkscape:connector-curvature="0" />
	<path style="fill:none;stroke:red;stroke-width:1px;stroke-linecap:butt;stroke-linejoin:miter;stroke-opacity:1" d="M 310.405,477.728 322.991,490.604 z" id="boundary" inkscape:connector-curvature="0" />
	<path style="fill:none;stroke:red;stroke-width:1px;stroke-linecap:butt;stroke-linejoin:miter;stroke-opacity:1" d="M 322.991,490.604 339.425,500.09 z" id="boundary" inkscape:connector-curvature="0" />
	<path style="fill:none;stroke:red;stroke-width:1px;stroke-linecap:butt;stroke-linejoin:miter;stroke-opacity:1" d="M 339.425,500.09 353.513,494.332 z" id="boundary" inkscape:connector-curvature="0" />
	<path style="fill:none;stroke:red;stroke-width:1px;stroke-linecap:butt;stroke-linejoin:miter;stroke-opacity:1" d="M 353.513,494.332 374.114,480.435 z" id="boundary" inkscape:connector-curvature="0" />
	<path style="fill:none;stroke:red;stroke-width:1px;stroke-linecap:butt;stroke-linejoin:miter;stroke-opacity:1" d="M 374.114,480.435 362.347,459.527 z" id="boundary" inkscape:connector-curvature="0" />
	<path style="fill:none;stroke:red;stroke-width:1px;stroke-linecap:butt;stroke-linejoin:miter;stroke-opacity:1" d="M 26.7672,145.854 38.786,163.5 z" id="boundary" inkscape:connector-curvature="0" />
	<path style="fill:none;stroke:red;stroke-width:1px;stroke-linecap:butt;stroke-linejoin:miter;stroke-opacity:1" d="M 26.7672,145.854 29.3013,112.847 z" id="boundary" inkscape:connector-curvature="0" />
	<path style="fill:none;stroke:red;stroke-width:1px;stroke-linecap:butt;stroke-linejoin:miter;stroke-opacity:1" d="M 38.786,163.5 51.7082,183.215 z" id="boundary" inkscape:connector-curvature="0" />
	<path style="fill:none;stroke:red;stroke-width:1px;stroke-linecap:butt;stroke-linejoin:miter;stroke-opacity:1" d="M 51.7082,183.215 74.8573,204.984 z" id="boundary" inkscape:connector-curvature="0" />
	<path style="fill:none;stroke:red;stroke-width:1px;stroke-linecap:butt;stroke-linejoin:miter;stroke-opacity:1" d="M 74.8573,204.984 91.7789,220.343 z" id="boundary" inkscape:connector-curvature="0" />
	<path style="fill:none;stroke:red;stroke-width:1px;stroke-linecap:butt;stroke-linejoin:miter;stroke-opacity:1" d="M 91.7789,220.343 112.811,231.859 z" id="boundary" inkscape:connector-curvature="0" />
	<path style="fill:none;stroke:red;stroke-width:1px;stroke-linecap:butt;stroke-linejoin:miter;stroke-opacity:1" d="M 112.811,231.859 125.962,248.313 z" id="boundary" inkscape:connector-curvature="0" />
	<path style="fill:none;stroke:red;stroke-width:1px;stroke-linecap:butt;stroke-linejoin:miter;stroke-opacity:1" d="M 125.962,248.313 145.877,264.094 z" id="boundary" inkscape:connector-curvature="0" />
	<path style="fill:none;stroke:red;stroke-width:1px;stroke-linecap:butt;stroke-linejoin:miter;stroke-opacity:1" d="M 145.877,264.094 158.842,274.352 z" id="boundary" inkscape:connector-curvature="0" />
	<path style="fill:none;stroke:red;stroke-width:1px;stroke-linecap:butt;stroke-linejoin:miter;stroke-opacity:1" d="M 158.842,274.352 175.525,288.664 z" id="boundary" inkscape:connector-curvature="0" />
	<path style="fill:none;stroke:red;stroke-width:1px;stroke-linecap:butt;stroke-linejoin:miter;stroke-opacity:1" d="M 175.525,288.664 194.959,306.575 z" id="boundary" inkscape:connector-curvature="0" />
	<path style="fill:none;stroke:red;stroke-width:1px;stroke-linecap:butt;stroke-linejoin:miter;stroke-opacity:1" d="M 194.959,306.575 209.283,320.148 z" id="boundary" inkscape:connector-curvature="0" />
	<path style="fill:none;stroke:red;stroke-width:1px;stroke-linecap:butt;stroke-linejoin:miter;stroke-opacity:1" d="M 209.283,320.148 221.624,337.213 z" id="boundary" inkscape:connector-curvature="0" />
	<path style="fill:none;stroke:red;stroke-width:1px;stroke-linecap:butt;stroke-linejoin:miter;stroke-opacity:1" d="M 221.624,337.213 239.653,346.874 z" id="boundary" inkscape:connector-curvature="0" />
	<path style="fill:none;stroke:red;stroke-width:1px;stroke-linecap:butt;stroke-linejoin:miter;stroke-opacity:1" d="M 239.653,346.874 254.873,363.147 z" id="boundary" inkscape:connector-curvature="0" />
	<path style="fill:none;stroke:red;stroke-width:1px;stroke-linecap:butt;stroke-linejoin:miter;stroke-opacity:1" d="M 254.873,363.147 270.201,378.103 z" id="boundary" inkscape:connector-curvature="0" />
	<path style="fill:none;stroke:red;stroke-width:1px;stroke-linecap:butt;stroke-linejoin:miter;stroke-opacity:1" d="M 270.201,378.103 287.513,387.005 z" id="boundary" inkscape:connector-curvature="0" />
	<path style="fill:none;stroke:red;stroke-width:1px;stroke-linecap:butt;stroke-linejoin:miter;stroke-opacity:1" d="M 287.513,387.005 300.552,404.387 z" id="boundary" inkscape:connector-curvature="0" />
	<path style="fill:none;stroke:red;stroke-width:1px;stroke-linecap:butt;stroke-linejoin:miter;stroke-opacity:1" d="M 300.552,404.387 320.228,412.345 z" id="boundary" inkscape:connector-curvature="0" />
	<path style="fill:none;stroke:red;stroke-width:1px;stroke-linecap:butt;stroke-linejoin:miter;stroke-opacity:1" d="M 320.228,412.345 338.975,429.381 z" id="boundary" inkscape:connector-curvature="0" />
	<path style="fill:none;stroke:red;stroke-width:1px;stroke-linecap:butt;stroke-linejoin:miter;stroke-opacity:1" d="M 338.975,429.381 350.558,441.777 z" id="boundary" inkscape:connector-curvature="0" />
	<path style="fill:none;stroke:red;stroke-width:1px;stroke-linecap:butt;stroke-linejoin:miter;stroke-opacity:1" d="M 350.558,441.777 362.347,459.527 z" id="boundary" inkscape:connector-curvature="0" />
	<path style="fill:none;stroke:red;stroke-width:1px;stroke-linecap:butt;stroke-linejoin:miter;stroke-opacity:1" d="M 29.3013,112.847 47.1833,103.798 z" id="boundary" inkscape:connector-curvature="0" />
	<path style="fill:none;stroke:red;stroke-width:1px;stroke-linecap:butt;stroke-linejoin:miter;stroke-opacity:1" d="M 47.1833,103.798 62.8717,109.022 z" id="boundary" inkscape:connector-curvature="0" />
	<path style="fill:none;stroke:red;stroke-width:1px;stroke-linecap:butt;stroke-linejoin:miter;stroke-opacity:1" d="M 62.8717,109.022 81.8314,125.424 z" id="boundary" inkscape:connector-curvature="0" />
	<path style="fill:none;stroke:red;stroke-width:1px;stroke-linecap:butt;stroke-linejoin:miter;stroke-opacity:1" d="M 81.8314,125.424 96.2966,134.391 z" id="boundary" inkscape:connector-curvature="0" />
	<path style="fill:none;stroke:red;stroke-width:1px;stroke-linecap:butt;stroke-linejoin:miter;stroke-opacity:1" d="M 96.2966,134.391 121.244,148.345 z" id="boundary" inkscape:connector-curvature="0" />
	<path style="fill:none;stroke:red;stroke-width:1px;stroke-linecap:butt;stroke-linejoin:miter;stroke-opacity:1" d="M 121.244,148.345 133.583,165.052 z" id="boundary" inkscape:connector-curvature="0" />
	<path style="fill:none;stroke:red;stroke-width:1px;stroke-linecap:butt;stroke-linejoin:miter;stroke-opacity:1" d="M 133.583,165.052 151.334,177.802 z" id="boundary" inkscape:connector-curvature="0" />
	<path style="fill:none;stroke:red;stroke-width:1px;stroke-linecap:butt;stroke-linejoin:miter;stroke-opacity:1" d="M 151.334,177.802 169.777,195.231 z" id="boundary" inkscape:connector-curvature="0" />
	<path style="fill:none;stroke:red;stroke-width:1px;stroke-linecap:butt;stroke-linejoin:miter;stroke-opacity:1" d="M 169.777,195.231 191.614,209.468 z" id="boundary" inkscape:connector-curvature="0" />
	<path style="fill:none;stroke:red;stroke-width:1px;stroke-linecap:butt;stroke-linejoin:miter;stroke-opacity:1" d="M 191.614,209.468 207.049,220.869 z" id="boundary" inkscape:connector-curvature="0" />
	<path style="fill:none;stroke:red;stroke-width:1px;stroke-linecap:butt;stroke-linejoin:miter;stroke-opacity:1" d="M 207.049,220.869 224.136,237.534 z" id="boundary" inkscape:connector-curvature="0" />
	<path style="fill:none;stroke:red;stroke-width:1px;stroke-linecap:butt;stroke-linejoin:miter;stroke-opacity:1" d="M 224.136,237.534 248.248,249.894 z" id="boundary" inkscape:connector-curvature="0" />
	<path style="fill:none;stroke:red;stroke-width:1px;stroke-linecap:butt;stroke-linejoin:miter;stroke-opacity:1" d="M 248.248,249.894 266.3,270.782 z" id="boundary" inkscape:connector-curvature="0" />
	<path style="fill:none;stroke:red;stroke-width:1px;stroke-linecap:butt;stroke-linejoin:miter;stroke-opacity:1" d="M 266.3,270.782 283.23,280.217 z" id="boundary" inkscape:connector-curvature="0" />
	<path style="fill:none;stroke:red;stroke-width:1px;stroke-linecap:butt;stroke-linejoin:miter;stroke-opacity:1" d="M 283.23,280.217 295.596,290.783 z" id="boundary" inkscape:connector-curvature="0" />
	<path style="fill:none;stroke:red;stroke-width:1px;stroke-linecap:butt;stroke-linejoin:miter;stroke-opacity:1" d="M 295.596,290.783 313.259,308.18 z" id="boundary" inkscape:connector-curvature="0" />
	<path style="fill:none;stroke:red;stroke-width:1px;stroke-linecap:butt;stroke-linejoin:miter;stroke-opacity:1" d="M 313.259,308.18 330.427,320.014 z" id="boundary" inkscape:connector-curvature="0" />
	<path style="fill:none;stroke:red;stroke-width:1px;stroke-linecap:butt;stroke-linejoin:miter;stroke-opacity:1" d="M 330.427,320.014 351.09,330.711 z" id="boundary" inkscape:connector-curvature="0" />
	<path style="fill:none;stroke:red;stroke-width:1px;stroke-linecap:butt;stroke-linejoin:miter;stroke-opacity:1" d="M 351.09,330.711 353.054,305.198 z" id="boundary" inkscape:connector-curvature="0" />
	<path style="fill:none;stroke:red;stroke-width:1px;stroke-linecap:butt;stroke-linejoin:miter;stroke-opacity:1" d="M 353.054,305.198 353.997,274.54 z" id="boundary" inkscape:connector-curvature="0" />
	<path style="fill:none;stroke:red;stroke-width:1px;stroke-linecap:butt;stroke-linejoin:miter;stroke-opacity:1" d="M 353.997,274.54 356.134,244.786 z" id="boundary" inkscape:connector-curvature="0" />
	<path style="fill:none;stroke:red;stroke-width:1px;stroke-linecap:butt;stroke-linejoin:miter;stroke-opacity:1" d="M 356.134,244.786 350.006,225.548 z" id="boundary" inkscape:connector-curvature="0" />
	<path style="fill:none;stroke:red;stroke-width:1px;stroke-linecap:butt;stroke-linejoin:miter;stroke-opacity:1" d="M 350.006,225.548 342.783,196.787 z" id="boundary" inkscape:connector-curvature="0" />
	<path style="fill:none;stroke:red;stroke-width:1px;stroke-linecap:butt;stroke-linejoin:miter;stroke-opacity:1" d="M 342.783,196.787 331.193,172.276 z" id="boundary" inkscape:connector-curvature="0" />
	<path style="fill:none;stroke:red;stroke-width:1px;stroke-linecap:butt;stroke-linejoin:miter;stroke-opacity:1" d="M 331.193,172.276 324.494,152.646 z" id="boundary" inkscape:connector-curvature="0" />
	<path style="fill:none;stroke:red;stroke-width:1px;stroke-linecap:butt;stroke-linejoin:miter;stroke-opacity:1" d="M 324.494,152.646 314.455,119.999 z" id="boundary" inkscape:connector-curvature="0" />
	<path style="fill:none;stroke:red;stroke-width:1px;stroke-linecap:butt;stroke-linejoin:miter;stroke-opacity:1" d="M 314.455,119.999 307.577,89.0807 z" id="boundary" inkscape:connector-curvature="0" />
	<path style="fill:none;stroke:red;stroke-width:1px;stroke-linecap:butt;stroke-linejoin:miter;stroke-opacity:1" d="M 307.577,89.0807 301.826,67.0015 z" id="boundary" inkscape:connector-curvature="0" />
	<path style="fill:none;stroke:red;stroke-width:1px;stroke-linecap:butt;stroke-linejoin:miter;stroke-opacity:1" d="M 301.826,67.0015 299.62,49.6757 z" id="boundary" inkscape:connector-curvature="0" />
	<path style="fill:none;stroke:red;stroke-width:1px;stroke-linecap:butt;stroke-linejoin:miter;stroke-opacity:1" d="M 299.62,49.6757 298.713,28.5375 z" id="boundary" inkscape:connector-curvature="0" />
	<path style="fill:none;stroke:red;stroke-width:1px;stroke-linecap:butt;stroke-linejoin:miter;stroke-opacity:1" d="M 298.713,28.5375 313.47,10.0831 z" id="boundary" inkscape:connector-curvature="0" />
	<path style="fill:none;stroke:red;stroke-width:1px;stroke-linecap:butt;stroke-linejoin:miter;stroke-opacity:1" d="M 313.47,10.0831 330.405,4 z" id="boundary" inkscape:connector-curvature="0" />
	<path style="fill:none;stroke:red;stroke-width:1px;stroke-linecap:butt;stroke-linejoin:miter;stroke-opacity:1" d="M 330.405,4 347.261,20.0799 z" id="boundary" inkscape:connector-curvature="0" />
	<path style="fill:none;stroke:red;stroke-width:1px;stroke-linecap:butt;stroke-linejoin:miter;stroke-opacity:1" d="M 347.261,20.0799 360.54,45.6096 z" id="boundary" inkscape:connector-curvature="0" />
	<path style="fill:none;stroke:red;stroke-width:1px;stroke-linecap:butt;stroke-linejoin:miter;stroke-opacity:1" d="M 360.54,45.6096 363.96,66.8159 z" id="boundary" inkscape:connector-curvature="0" />
	<path style="fill:none;stroke:red;stroke-width:1px;stroke-linecap:butt;stroke-linejoin:miter;stroke-opacity:1" d="M 363.96,66.8159 372.521,94.7302 z" id="boundary" inkscape:connector-curvature="0" />
	<path style="fill:none;stroke:red;stroke-width:1px;stroke-linecap:butt;stroke-linejoin:miter;stroke-opacity:1" d="M 372.521,94.7302 377.666,120.64 z" id="boundary" inkscape:connector-curvature="0" />
	<path style="fill:none;stroke:red;stroke-width:1px;stroke-linecap:butt;stroke-linejoin:miter;stroke-opacity:1" d="M 377.666,120.64 386.345,140.08 z" id="boundary" inkscape:connector-curvature="0" />
	<path style="fill:none;stroke:red;stroke-width:1px;stroke-linecap:butt;stroke-linejoin:miter;stroke-opacity:1" d="M 386.345,140.08 399.983,153.932 z" id="boundary" inkscape:connector-curvature="0" />
	<path style="fill:none;stroke:red;stroke-width:1px;stroke-linecap:butt;stroke-linejoin:miter;stroke-opacity:1" d="M 399.983,153.932 403.851,178.477 z" id="boundary" inkscape:connector-curvature="0" />
	<path style="fill:none;stroke:red;stroke-width:1px;stroke-linecap:butt;stroke-linejoin:miter;stroke-opacity:1" d="M 403.851,178.477 410.654,194.666 z" id="boundary" inkscape:connector-curvature="0" />
	<path style="fill:none;stroke:red;stroke-width:1px;stroke-linecap:butt;stroke-linejoin:miter;stroke-opacity:1" d="M 410.654,194.666 415.403,213.31 z" id="boundary" inkscape:connector-curvature="0" />
	<path style="fill:none;stroke:red;stroke-width:1px;stroke-linecap:butt;stroke-linejoin:miter;stroke-opacity:1" d="M 415.403,213.31 423.033,240.534 z" id="boundary" inkscape:connector-curvature="0" />
	<path style="fill:none;stroke:red;stroke-width:1px;stroke-linecap:butt;stroke-linejoin:miter;stroke-opacity:1" d="M 423.033,240.534 429.379,266.635 z" id="boundary" inkscape:connector-curvature="0" />
	<path style="fill:none;stroke:red;stroke-width:1px;stroke-linecap:butt;stroke-linejoin:miter;stroke-opacity:1" d="M 429.379,266.635 432.567,298.345 z" id="boundary" inkscape:connector-curvature="0" />
	<path style="fill:none;stroke:red;stroke-width:1px;stroke-linecap:butt;stroke-linejoin:miter;stroke-opacity:1" d="M 432.567,298.345 433.618,317.407 z" id="boundary" inkscape:connector-curvature="0" />
	<path style="fill:none;stroke:red;stroke-width:1px;stroke-linecap:butt;stroke-linejoin:miter;stroke-opacity:1" d="M 433.618,317.407 437.094,347.128 z" id="boundary" inkscape:connector-curvature="0" />
	<path style="fill:none;stroke:red;stroke-width:1px;stroke-linecap:butt;stroke-linejoin:miter;stroke-opacity:1" d="M 437.094,347.128 439.177,375.284 z" id="boundary" inkscape:connector-curvature="0" />
	<path style="fill:none;stroke:red;stroke-width:1px;stroke-linecap:butt;stroke-linejoin:miter;stroke-opacity:1" d="M 439.177,375.284 438.03,396.515 z" id="boundary" inkscape:connector-curvature="0" />
	<path style="fill:none;stroke:red;stroke-width:1px;stroke-linecap:butt;stroke-linejoin:miter;stroke-opacity:1" d="M 438.03,396.515 450.633,419.19 z" id="boundary" inkscape:connector-curvature="0" />
	<path style="fill:none;stroke:red;stroke-width:1px;stroke-linecap:butt;stroke-linejoin:miter;stroke-opacity:1" d="M 450.633,419.19 462.886,433.648 z" id="boundary" inkscape:connector-curvature="0" />
	<path style="fill:none;stroke:red;stroke-width:1px;stroke-linecap:butt;stroke-linejoin:miter;stroke-opacity:1" d="M 462.886,433.648 476.311,459.712 z" id="boundary" inkscape:connector-curvature="0" />
	<path style="fill:none;stroke:red;stroke-width:1px;stroke-linecap:butt;stroke-linejoin:miter;stroke-opacity:1" d="M 476.311,459.712 481.467,485.726 z" id="boundary" inkscape:connector-curvature="0" />
	<path style="fill:none;stroke:red;stroke-width:1px;stroke-linecap:butt;stroke-linejoin:miter;stroke-opacity:1" d="M 481.467,485.726 478.065,507.592 z" id="boundary" inkscape:connector-curvature="0" />
	<path style="fill:none;stroke:red;stroke-width:1px;stroke-linecap:butt;stroke-linejoin:miter;stroke-opacity:1" d="M 478.065,507.592 479.652,536.287 z" id="boundary" inkscape:connector-curvature="0" />
	<path style="fill:none;stroke:red;stroke-width:1px;stroke-linecap:butt;stroke-linejoin:miter;stroke-opacity:1" d="M 479.652,536.287 486.939,563.395 z" id="boundary" inkscape:connector-curvature="0" />
	<path style="fill:none;stroke:red;stroke-width:1px;stroke-linecap:butt;stroke-linejoin:miter;stroke-opacity:1" d="M 486.939,563.395 484.031,593.879 z" id="boundary" inkscape:connector-curvature="0" />
	<path style="fill:none;stroke:red;stroke-width:1px;stroke-linecap:butt;stroke-linejoin:miter;stroke-opacity:1" d="M 484.031,593.879 485.636,618.162 z" id="boundary" inkscape:connector-curvature="0" />
	<path style="fill:none;stroke:red;stroke-width:1px;stroke-linecap:butt;stroke-linejoin:miter;stroke-opacity:1" d="M 485.636,618.162 489.684,651.543 z" id="boundary" inkscape:connector-curvature="0" />
	<path style="fill:none;stroke:red;stroke-width:1px;stroke-linecap:butt;stroke-linejoin:miter;stroke-opacity:1" d="M 489.684,651.543 493.119,676.385 z" id="boundary" inkscape:connector-curvature="0" />
	<path style="fill:none;stroke:red;stroke-width:1px;stroke-linecap:butt;stroke-linejoin:miter;stroke-opacity:1" d="M 493.119,676.385 497.571,700.431 z" id="boundary" inkscape:connector-curvature="0" />
	<path style="fill:none;stroke:red;stroke-width:1px;stroke-linecap:butt;stroke-linejoin:miter;stroke-opacity:1" d="M 497.571,700.431 499.279,719.254 z" id="boundary" inkscape:connector-curvature="0" />
	<path style="fill:none;stroke:red;stroke-width:1px;stroke-linecap:butt;stroke-linejoin:miter;stroke-opacity:1" d="M 499.279,719.254 498.276,742.608 z" id="boundary" inkscape:connector-curvature="0" />
	<path style="fill:none;stroke:red;stroke-width:1px;stroke-linecap:butt;stroke-linejoin:miter;stroke-opacity:1" d="M 498.276,742.608 496.35,765.887 z" id="boundary" inkscape:connector-curvature="0" />
	<path style="fill:none;stroke:red;stroke-width:1px;stroke-linecap:butt;stroke-linejoin:miter;stroke-opacity:1" d="M 496.35,765.887 497.898,792.216 z" id="boundary" inkscape:connector-curvature="0" />
	<path style="fill:none;stroke:red;stroke-width:1px;stroke-linecap:butt;stroke-linejoin:miter;stroke-opacity:1" d="M 497.898,792.216 498.863,824.464 z" id="boundary" inkscape:connector-curvature="0" />
	<path style="fill:none;stroke:red;stroke-width:1px;stroke-linecap:butt;stroke-linejoin:miter;stroke-opacity:1" d="M 498.863,824.464 514.217,838.852 z" id="boundary" inkscape:connector-curvature="0" />
	<path style="fill:none;stroke:red;stroke-width:1px;stroke-linecap:butt;stroke-linejoin:miter;stroke-opacity:1" d="M 514.217,838.852 522.782,859.365 z" id="boundary" inkscape:connector-curvature="0" />
	<path style="fill:none;stroke:red;stroke-width:1px;stroke-linecap:butt;stroke-linejoin:miter;stroke-opacity:1" d="M 522.782,859.365 530.774,884.089 z" id="boundary" inkscape:connector-curvature="0" />
	<path style="fill:none;stroke:red;stroke-width:1px;stroke-linecap:butt;stroke-linejoin:miter;stroke-opacity:1" d="M 530.774,884.089 526.202,907.36 z" id="boundary" inkscape:connector-curvature="0" />
	<path style="fill:none;stroke:red;stroke-width:1px;stroke-linecap:butt;stroke-linejoin:miter;stroke-opacity:1" d="M 526.202,907.36 518.978,924.884 z" id="boundary" inkscape:connector-curvature="0" />
	<path style="fill:none;stroke:red;stroke-width:1px;stroke-linecap:butt;stroke-linejoin:miter;stroke-opacity:1" d="M 518.978,924.884 498.098,937.112 z" id="boundary" inkscape:connector-curvature="0" />
	<path style="fill:none;stroke:red;stroke-width:1px;stroke-linecap:butt;stroke-linejoin:miter;stroke-opacity:1" d="M 498.098,937.112 491.332,958.915 z" id="boundary" inkscape:connector-curvature="0" />
	<path style="fill:none;stroke:red;stroke-width:1px;stroke-linecap:butt;stroke-linejoin:miter;stroke-opacity:1" d="M 491.332,958.915 482.849,975.757 z" id="boundary" inkscape:connector-curvature="0" />
	<path style="fill:none;stroke:red;stroke-width:1px;stroke-linecap:butt;stroke-linejoin:miter;stroke-opacity:1" d="M 482.849,975.757 461.195,991.732 z" id="boundary" inkscape:connector-curvature="0" />
	<path style="fill:none;stroke:red;stroke-width:1px;stroke-linecap:butt;stroke-linejoin:miter;stroke-opacity:1" d="M 4,638.162 8.51814,664.543 z" id="boundary" inkscape:connector-curvature="0" />
	<path style="fill:none;stroke:red;stroke-width:1px;stroke-linecap:butt;stroke-linejoin:miter;stroke-opacity:1" d="M 8.51814,664.543 29.4729,675.797 z" id="boundary" inkscape:connector-curvature="0" />
	<path style="fill:none;stroke:red;stroke-width:1px;stroke-linecap:butt;stroke-linejoin:miter;stroke-opacity:1" d="M 29.4729,675.797 53.1596,691.836 z" id="boundary" inkscape:connector-curvature="0" />
	<path style="fill:none;stroke:red;stroke-width:1px;stroke-linecap:butt;stroke-linejoin:miter;stroke-opacity:1" d="M 53.1596,691.836 72.9587,706.614 z" id="boundary" inkscape:connector-curvature="0" />
	<path style="fill:none;stroke:red;stroke-width:1px;stroke-linecap:butt;stroke-linejoin:miter;stroke-opacity:1" d="M 72.9587,706.614 88.8067,713.425 z" id="boundary" inkscape:connector-curvature="0" />
	<path style="fill:none;stroke:red;stroke-width:1px;stroke-linecap:butt;stroke-linejoin:miter;stroke-opacity:1" d="M 88.8067,713.425 107.551,729.124 z" id="boundary" inkscape:connector-curvature="0" />
	<path style="fill:none;stroke:red;stroke-width:1px;stroke-linecap:butt;stroke-linejoin:miter;stroke-opacity:1" d="M 107.551,729.124 125.092,741.708 z" id="boundary" inkscape:connector-curvature="0" />
	<path style="fill:none;stroke:red;stroke-width:1px;stroke-linecap:butt;stroke-linejoin:miter;stroke-opacity:1" d="M 125.092,741.708 143.443,746.295 z" id="boundary" inkscape:connector-curvature="0" />
	<path style="fill:none;stroke:red;stroke-width:1px;stroke-linecap:butt;stroke-linejoin:miter;stroke-opacity:1" d="M 143.443,746.295 166.756,762.855 z" id="boundary" inkscape:connector-curvature="0" />
	<path style="fill:none;stroke:red;stroke-width:1px;stroke-linecap:butt;stroke-linejoin:miter;stroke-opacity:1" d="M 166.756,762.855 187.128,779.643 z" id="boundary" inkscape:connector-curvature="0" />
	<path style="fill:none;stroke:red;stroke-width:1px;stroke-linecap:butt;stroke-linejoin:miter;stroke-opacity:1" d="M 187.128,779.643 206.559,788.037 z" id="boundary" inkscape:connector-curvature="0" />
	<path style="fill:none;stroke:red;stroke-width:1px;stroke-linecap:butt;stroke-linejoin:miter;stroke-opacity:1" d="M 206.559,788.037 217.397,806.989 z" id="boundary" inkscape:connector-curvature="0" />
	<path style="fill:none;stroke:red;stroke-width:1px;stroke-linecap:butt;stroke-linejoin:miter;stroke-opacity:1" d="M 217.397,806.989 236.902,826.71 z" id="boundary" inkscape:connector-curvature="0" />
	<path style="fill:none;stroke:red;stroke-width:1px;stroke-linecap:butt;stroke-linejoin:miter;stroke-opacity:1" d="M 236.902,826.71 251.385,832.979 z" id="boundary" inkscape:connector-curvature="0" />
	<path style="fill:none;stroke:red;stroke-width:1px;stroke-linecap:butt;stroke-linejoin:miter;stroke-opacity:1" d="M 251.385,832.979 268.388,844.803 z" id="boundary" inkscape:connector-curvature="0" />
	<path style="fill:none;stroke:red;stroke-width:1px;stroke-linecap:butt;stroke-linejoin:miter;stroke-opacity:1" d="M 268.388,844.803 285.261,854.587 z" id="boundary" inkscape:connector-curvature="0" />
	<path style="fill:none;stroke:red;stroke-width:1px;stroke-linecap:butt;stroke-linejoin:miter;stroke-opacity:1" d="M 285.261,854.587 311.727,866.986 z" id="boundary" inkscape:connector-curvature="0" />
	<path style="fill:none;stroke:red;stroke-width:1px;stroke-linecap:butt;stroke-linejoin:miter;stroke-opacity:1" d="M 311.727,866.986 324.94,883.885 z" id="boundary" inkscape:connector-curvature="0" />
	<path style="fill:none;stroke:red;stroke-width:1px;stroke-linecap:butt;stroke-linejoin:miter;stroke-opacity:1" d="M 324.94,883.885 343.599,891.466 z" id="boundary" inkscape:connector-curvature="0" />
	<path style="fill:none;stroke:red;stroke-width:1px;stroke-linecap:butt;stroke-linejoin:miter;stroke-opacity:1" d="M 343.599,891.466 353.757,918.146 z" id="boundary" inkscape:connector-curvature="0" />
	<path style="fill:none;stroke:red;stroke-width:1px;stroke-linecap:butt;stroke-linejoin:miter;stroke-opacity:1" d="M 353.757,918.146 344.675,942.296 z" id="boundary" inkscape:connector-curvature="0" />
	<path style="fill:none;stroke:red;stroke-width:1px;stroke-linecap:butt;stroke-linejoin:miter;stroke-opacity:1" d="M 344.675,942.296 359.669,957.465 z" id="boundary" inkscape:connector-curvature="0" />
	<path style="fill:none;stroke:red;stroke-width:1px;stroke-linecap:butt;stroke-linejoin:miter;stroke-opacity:1" d="M 359.669,957.465 379.636,973.202 z" id="boundary" inkscape:connector-curvature="0" />
	<path style="fill:none;stroke:red;stroke-width:1px;stroke-linecap:butt;stroke-linejoin:miter;stroke-opacity:1" d="M 379.636,973.202 397.436,982.389 z" id="boundary" inkscape:connector-curvature="0" />
	<path style="fill:none;stroke:red;stroke-width:1px;stroke-linecap:butt;stroke-linejoin:miter;stroke-opacity:1" d="M 397.436,982.389 415.202,987.305 z" id="boundary" inkscape:connector-curvature="0" />
	<path style="fill:none;stroke:red;stroke-width:1px;stroke-linecap:butt;stroke-linejoin:miter;stroke-opacity:1" d="M 415.202,987.305 441.175,996 z" id="boundary" inkscape:connector-curvature="0" />
	<path style="fill:none;stroke:red;stroke-width:1px;stroke-linecap:butt;stroke-linejoin:miter;stroke-opacity:1" d="M 441.175,996 461.195,991.732 z" id="boundary" inkscape:connector-curvature="0" />
	<path style="fill:none;stroke:red;stroke-width:1px;stroke-linecap:butt;stroke-linejoin:miter;stroke-opacity:1" d="M 251.303,684.176 262.844,694.163 z" id="boundary" inkscape:connector-curvature="0" />
	<path style="fill:none;stroke:red;stroke-width:1px;stroke-linecap:butt;stroke-linejoin:miter;stroke-opacity:1" d="M 251.303,684.176 261.708,674.602 z" id="boundary" inkscape:connector-curvature="0" />
	<path style="fill:none;stroke:red;stroke-width:1px;stroke-linecap:butt;stroke-linejoin:miter;stroke-opacity:1" d="M 262.844,694.163 261.708,674.602 z" id="boundary" inkscape:connector-curvature="0" />
	<path style="fill:none;stroke:red;stroke-width:1px;stroke-linecap:butt;stroke-linejoin:miter;stroke-opacity:1" d="M 283.212,702.03 299.156,713.839 z" id="boundary" inkscape:connector-curvature="0" />
	<path style="fill:none;stroke:red;stroke-width:1px;stroke-linecap:butt;stroke-linejoin:miter;stroke-opacity:1" d="M 283.212,702.03 281.431,673.92 z" id="boundary" inkscape:connector-curvature="0" />
	<path style="fill:none;stroke:red;stroke-width:1px;stroke-linecap:butt;stroke-linejoin:miter;stroke-opacity:1" d="M 299.156,713.839 312.05,722.154 z" id="boundary" inkscape:connector-curvature="0" />
	<path style="fill:none;stroke:red;stroke-width:1px;stroke-linecap:butt;stroke-linejoin:miter;stroke-opacity:1" d="M 312.05,722.154 332.347,733.456 z" id="boundary" inkscape:connector-curvature="0" />
	<path style="fill:none;stroke:red;stroke-width:1px;stroke-linecap:butt;stroke-linejoin:miter;stroke-opacity:1" d="M 332.347,733.456 343.924,730.272 z" id="boundary" inkscape:connector-curvature="0" />
	<path style="fill:none;stroke:red;stroke-width:1px;stroke-linecap:butt;stroke-linejoin:miter;stroke-opacity:1" d="M 281.431,673.92 295.366,673.666 z" id="boundary" inkscape:connector-curvature="0" />
	<path style="fill:none;stroke:red;stroke-width:1px;stroke-linecap:butt;stroke-linejoin:miter;stroke-opacity:1" d="M 295.366,673.666 298.157,641.951 z" id="boundary" inkscape:connector-curvature="0" />
	<path style="fill:none;stroke:red;stroke-width:1px;stroke-linecap:butt;stroke-linejoin:miter;stroke-opacity:1" d="M 298.157,641.951 271.149,636.483 z" id="boundary" inkscape:connector-curvature="0" />
	<path style="fill:none;stroke:red;stroke-width:1px;stroke-linecap:butt;stroke-linejoin:miter;stroke-opacity:1" d="M 271.149,636.483 259.927,637.897 z" id="boundary" inkscape:connector-curvature="0" />
	<path style="fill:none;stroke:red;stroke-width:1px;stroke-linecap:butt;stroke-linejoin:miter;stroke-opacity:1" d="M 259.927,637.897 236.26,628.792 z" id="boundary" inkscape:connector-curvature="0" />
	<path style="fill:none;stroke:red;stroke-width:1px;stroke-linecap:butt;stroke-linejoin:miter;stroke-opacity:1" d="M 236.26,628.792 232.811,603.714 z" id="boundary" inkscape:connector-curvature="0" />
	<path style="fill:none;stroke:red;stroke-width:1px;stroke-linecap:butt;stroke-linejoin:miter;stroke-opacity:1" d="M 232.811,603.714 231.559,578.361 z" id="boundary" inkscape:connector-curvature="0" />
	<path style="fill:none;stroke:red;stroke-width:1px;stroke-linecap:butt;stroke-linejoin:miter;stroke-opacity:1" d="M 231.559,578.361 227.642,562.834 z" id="boundary" inkscape:connector-curvature="0" />
	<path style="fill:none;stroke:red;stroke-width:1px;stroke-linecap:butt;stroke-linejoin:miter;stroke-opacity:1" d="M 227.642,562.834 241.814,553.694 z" id="boundary" inkscape:connector-curvature="0" />
	<path style="fill:none;stroke:red;stroke-width:1px;stroke-linecap:butt;stroke-linejoin:miter;stroke-opacity:1" d="M 241.814,553.694 263.663,558.892 z" id="boundary" inkscape:connector-curvature="0" />
	<path style="fill:none;stroke:red;stroke-width:1px;stroke-linecap:butt;stroke-linejoin:miter;stroke-opacity:1" d="M 263.663,558.892 287.821,562.587 z" id="boundary" inkscape:connector-curvature="0" />
	<path style="fill:none;stroke:red;stroke-width:1px;stroke-linecap:butt;stroke-linejoin:miter;stroke-opacity:1" d="M 287.821,562.587 305.941,575.052 z" id="boundary" inkscape:connector-curvature="0" />
	<path style="fill:none;stroke:red;stroke-width:1px;stroke-linecap:butt;stroke-linejoin:miter;stroke-opacity:1" d="M 305.941,575.052 322.706,595.865 z" id="boundary" inkscape:connector-curvature="0" />
	<path style="fill:none;stroke:red;stroke-width:1px;stroke-linecap:butt;stroke-linejoin:miter;stroke-opacity:1" d="M 322.706,595.865 334.734,607.659 z" id="boundary" inkscape:connector-curvature="0" />
	<path style="fill:none;stroke:red;stroke-width:1px;stroke-linecap:butt;stroke-linejoin:miter;stroke-opacity:1" d="M 334.734,607.659 340.843,629.627 z" id="boundary" inkscape:connector-curvature="0" />
	<path style="fill:none;stroke:red;stroke-width:1px;stroke-linecap:butt;stroke-linejoin:miter;stroke-opacity:1" d="M 340.843,629.627 341.059,650.512 z" id="boundary" inkscape:connector-curvature="0" />
	<path style="fill:none;stroke:red;stroke-width:1px;stroke-linecap:butt;stroke-linejoin:miter;stroke-opacity:1" d="M 341.059,650.512 340.415,668.328 z" id="boundary" inkscape:connector-curvature="0" />
	<path style="fill:none;stroke:red;stroke-width:1px;stroke-linecap:butt;stroke-linejoin:miter;stroke-opacity:1" d="M 340.415,668.328 341.323,692.378 z" id="boundary" inkscape:connector-curvature="0" />
	<path style="fill:none;stroke:red;stroke-width:1px;stroke-linecap:butt;stroke-linejoin:miter;stroke-opacity:1" d="M 341.323,692.378 342.775,706.653 z" id="boundary" inkscape:connector-curvature="0" />
	<path style="fill:none;stroke:red;stroke-width:1px;stroke-linecap:butt;stroke-linejoin:miter;stroke-opacity:1" d="M 342.775,706.653 343.924,730.272 z" id="boundary" inkscape:connector-curvature="0" />
	<circle cx="14.8778" cy="619.136" r="4" fill="#0" id="circle0"/>
	<circle cx="42.646" cy="604.688" r="4" fill="#0" id="circle1"/>
	<circle cx="71.1268" cy="612.632" r="4" fill="#0" id="circle2"/>
	<circle cx="104.336" cy="616.628" r="4" fill="#0" id="circle3"/>
	<circle cx="130.152" cy="627.845" r="4" fill="#0" id="circle4"/>
	<circle cx="150.331" cy="637.123" r="4" fill="#0" id="circle5"/>
	<circle cx="170.647" cy="645.723" r="4" fill="#0" id="circle6"/>
	<circle cx="170.618" cy="619.545" r="4" fill="#0" id="circle7"/>
	<circle cx="168.829" cy="597.407" r="4" fill="#0" id="circle8"/>
	<circle cx="164.322" cy="578.585" r="4" fill="#0" id="circle9"/>
	<circle cx="163.207" cy="561.466" r="4" fill="#0" id="circle10"/>
	<circle cx="156.526" cy="524.446" r="4" fill="#0" id="circle11"/>
	<circle cx="162.265" cy="499.764" r="4" fill="#0" id="circle12"/>
	<circle cx="183.961" cy="486.075" r="4" fill="#0" id="circle13"/>
	<circle cx="201.604" cy="483.386" r="4" fill="#0" id="circle14"/>
	<circle cx="224.428" cy="477.264" r="4" fill="#0" id="circle15"/>
	<circle cx="241.362" cy="463.302" r="4" fill="#0" id="circle16"/>
	<circle cx="264.67" cy="451.989" r="4" fill="#0" id="circle17"/>
	<circle cx="283.242" cy="448.98" r="4" fill="#0" id="circle18"/>
	<circle cx="298.285" cy="462.069" r="4" fill="#0" id="circle19"/>
	<circle cx="310.405" cy="477.728" r="4" fill="#0" id="circle20"/>
	<circle cx="322.991" cy="490.604" r="4" fill="#0" id="circle21"/>
	<circle cx="339.425" cy="500.09" r="4" fill="#0" id="circle22"/>
	<circle cx="353.513" cy="494.332" r="4" fill="#0" id="circle23"/>
	<circle cx="374.114" cy="480.435" r="4" fill="#0" id="circle24"/>
	<circle cx="26.7672" cy="145.854" r="4" fill="#0" id="circle25"/>
	<circle cx="38.786" cy="163.5" r="4" fill="#0" id="circle26"/>
	<circle cx="51.7082" cy="183.215" r="4" fill="#0" id="circle27"/>
	<circle cx="74.8573" cy="204.984" r="4" fill="#0" id="circle28"/>
	<circle cx="91.7789" cy="220.343" r="4" fill="#0" id="circle29"/>
	<circle cx="112.811" cy="231.859" r="4" fill="#0" id="circle30"/>
	<circle cx="125.962" cy="248.313" r="4" fill="#0" id="circle31"/>
	<circle cx="145.877" cy="264.094" r="4" fill="#0" id="circle32"/>
	<circle cx="158.842" cy="274.352" r="4" fill="#0" id="circle33"/>
	<circle cx="175.525" cy="288.664" r="4" fill="#0" id="circle34"/>
	<circle cx="194.959" cy="306.575" r="4" fill="#0" id="circle35"/>
	<circle cx="209.283" cy="320.148" r="4" fill="#0" id="circle36"/>
	<circle cx="221.624" cy="337.213" r="4" fill="#0" id="circle37"/>
	<circle cx="239.653" cy="346.874" r="4" fill="#0" id="circle38"/>
	<circle cx="254.873" cy="363.147" r="4" fill="#0" id="circle39"/>
	<circle cx="270.201" cy="378.103" r="4" fill="#0" id="circle40"/>
	<circle cx="287.513" cy="387.005" r="4" fill="#0" id="circle41"/>
	<circle cx="300.552" cy="404.387" r="4" fill="#0" id="circle42"/>
	<circle cx="320.228" cy="412.345" r="4" fill="#0" id="circle43"/>
	<circle cx="338.975" cy="429.381" r="4" fill="#0" id="circle44"/>
	<circle cx="350.558" cy="441.777" r="4" fill="#0" id="circle45"/>
	<circle cx="362.347" cy="459.527" r="4" fill="#0" id="circle46"/>
	<circle cx="29.3013" cy="112.847" r="4" fill="#0" id="circle47"/>
	<circle cx="47.1833" cy="103.798" r="4" fill="#0" id="circle48"/>
	<circle cx="62.8717" cy="109.022" r="4" fill="#0" id="circle49"/>
	<circle cx="81.8314" cy="125.424" r="4" fill="#0" id="circle50"/>
	<circle cx="96.2966" cy="134.391" r="4" fill="#0" id="circle51"/>
	<circle cx="121.244" cy="148.345" r="4" fill="#0" id="circle52"/>
	<circle cx="133.583" cy="165.052" r="4" fill="#0" id="circle53"/>
	<circle cx="151.334" cy="177.802" r="4" fill="#0" id="circle54"/>
	<circle cx="169.777" cy="195.231" r="4" fill="#0" id="circle55"/>
	<circle cx="191.614" cy="209.468" r="4" fill="#0" id="circle56"/>
	<circle cx="207.049" cy="220.869" r="4" fill="#0" id="circle57"/>
	<circle cx="224.136" cy="237.534" r="4" fill="#0" id="circle58"/>
	<circle cx="248.248" cy="249.894" r="4" fill="#0" id="circle59"/>
	<circle cx="266.3" cy="270.782" r="4" fill="#0" id="circle60"/>
	<circle cx="283.23" cy="280.217" r="4" fill="#0" id="circle61"/>
	<circle cx="295.596" cy="290.783" r="4" fill="#0" id="circle62"/>
	<circle cx="313.259" cy="308.18" r="4" fill="#0" id="circle63"/>
	<circle cx="330.427" cy="320.014" r="4" fill="#0" id="circle64"/>
	<circle cx="351.09" cy="330.711" r="4" fill="#0" id="circle65"/>
	<circle cx="353.054" cy="305.198" r="4" fill="#0" id="circle66"/>
	<circle cx="353.997" cy="274.54" r="4" fill="#0" id="circle67"/>
	<circle cx="356.134" cy="244.786" r="4" fill="#0" id="circle68"/>
	<circle cx="350.006" cy="225.548" r="4" fill="#0" id="circle69"/>
	<circle cx="342.783" cy="196.787" r="4" fill="#0" id="circle70"/>
	<circle cx="331.193" cy="172.276" r="4" fill="#0" id="circle71"/>
	<circle cx="324.494" cy="152.646" r="4" fill="#0" id="circle72"/>
	<circle cx="314.455" cy="119.999" r="4" fill="#0" id="circle73"/>
	<circle cx="307.577" cy="89.0807" r="4" fill="#0" id="circle74"/>
	<circle cx="301.826" cy="67.0015" r="4" fill="#0" id="circle75"/>
	<circle cx="299.62" cy="49.6757" r="4" fill="#0" id="circle76"/>
	<circle cx="298.713" cy="28.5375" r="4" fill="#0" id="circle77"/>
	<circle cx="313.47" cy="10.0831" r="4" fill="#0" id="circle78"/>
	<circle cx="330.405" cy="4" r="4" fill="#0" id="circle79"/>
	<circle cx="347.261" cy="20.0799" r="4" fill="#0" id="circle80"/>
	<circle cx="360.54" cy="45.6096" r="4" fill="#0" id="circle81"/>
	<circle cx="363.96" cy="66.8159" r="4" fill="#0" id="circle82"/>
	<circle cx="372.521" cy="94.7302" r="4" fill="#0" id="circle83"/>
	<circle cx="377.666" cy="120.64" r="4" fill="#0" id="circle84"/>
	<circle cx="386.345" cy="140.08" r="4" fill="#0" id="circle85"/>
	<circle cx="399.983" cy="153.932" r="4" fill="#0" id="circle86"/>
	<circle cx="403.851" cy="178.477" r="4" fill="#0" id="circle87"/>
	<circle cx="410.654" cy="194.666" r="4" fill="#0" id="circle88"/>
	<circle cx="415.403" cy="213.31" r="4" fill="#0" id="circle89"/>
	<circle cx="423.033" cy="240.534" r="4" fill="#0" id="circle90"/>
	<circle cx="429.379" cy="266.635" r="4" fill="#0" id="circle91"/>
	<circle cx="432.567" cy="298.345" r="4" fill="#0" id="circle92"/>
	<circle cx="433.618" cy="317.407" r="4" fill="#0" id="circle93"/>
	<circle cx="437.094" cy="347.128" r="4" fill="#0" id="circle94"/>
	<circle cx="439.177" cy="375.284" r="4" fill="#0" id="circle95"/>
	<circle cx="438.03" cy="396.515" r="4" fill="#0" id="circle96"/>
	<circle cx="450.633" cy="419.19" r="4" fill="#0" id="circle97"/>
	<circle cx="462.886" cy="433.648" r="4" fill="#0" id="circle98"/>
	<circle cx="476.311" cy="459.712" r="4" fill="#0" id="circle99"/>
	<circle cx="481.467" cy="485.726" r="4" fill="#0" id="circle100"/>
	<circle cx="478.065" cy="507.592" r="4" fill="#0" id="circle101"/>
	<circle cx="479.652" cy="536.287" r="4" fill="#0" id="circle102"/>
	<circle cx="486.939" cy="563.395" r="4" fill="#0" id="circle103"/>
	<circle cx="484.031" cy="593.879" r="4" fill="#0" id="circle104"/>
	<circle cx="485.636" cy="618.162" r="4" fill="#0" id="circle105"/>
	<circle cx="489.684" cy="651.543" r="4" fill="#0" id="circle106"/>
	<circle cx="493.119" cy="676.385" r="4" fill="#0" id="circle107"/>
	<circle cx="497.571" cy="700.431" r="4" fill="#0" id="circle108"/>
	<circle cx="499.279" cy="719.254" r="4" fill="#0" id="circle109"/>
	<circle cx="498.276" cy="742.608" r="4" fill="#0" id="circle110"/>
	<circle cx="496.35" cy="765.887" r="4" fill="#0" id="circle111"/>
	<circle cx="497.898" cy="792.216" r="4" fill="#0" id="circle112"/>
	<circle cx="498.863" cy="824.464" r="4" fill="#0" id="circle113"/>
	<circle cx="514.217" cy="838.852" r="4" fill="#0" id="circle114"/>
	<circle cx="522.782" cy="859.365" r="4" fill="#0" id="circle115"/>
	<circle cx="530.774" cy="884.089" r="4" fill="#0" id="circle116"/>
	<circle cx="526.202" cy="907.36" r="4" fill="#0" id="circle117"/>
	<circle cx="518.978" cy="924.884" r="4" fill="#0" id="circle118"/>
	<circle cx="498.098" cy="937.112" r="4" fill="#0" id="circle119"/>
	<circle cx="491.332" cy="958.915" r="4" fill="#0" id="circle120"/>
	<circle cx="482.849" cy="975.757" r="4" fill="#0" id="circle121"/>
	<circle cx="4" cy="638.162" r="4" fill="#0" id="circle122"/>
	<circle cx="8.51814" cy="664.543" r="4" fill="#0" id="circle123"/>
	<circle cx="29.4729" cy="675.797" r="4" fill="#0" id="circle124"/>
	<circle cx="53.1596" cy="691.836" r="4" fill="#0" id="circle125"/>
	<circle cx="72.9587" cy="706.614" r="4" fill="#0" id="circle126"/>
	<circle cx="88.8067" cy="713.425" r="4" fill="#0" id="circle127"/>
	<circle cx="107.551" cy="729.124" r="4" fill="#0" id="circle128"/>
	<circle cx="125.092" cy="741.708" r="4" fill="#0" id="circle129"/>
	<circle cx="143.443" cy="746.295" r="4" fill="#0" id="circle130"/>
	<circle cx="166.756" cy="762.855" r="4" fill="#0" id="circle131"/>
	<circle cx="187.128" cy="779.643" r="4" fill="#0" id="circle132"/>
	<circle cx="206.559" cy="788.037" r="4" fill="#0" id="circle133"/>
	<circle cx="217.397" cy="806.989" r="4" fill="#0" id="circle134"/>
	<circle cx="236.902" cy="826.71" r="4" fill="#0" id="circle135"/>
	<circle cx="251.385" cy="832.979" r="4" fill="#0" id="circle136"/>
	<circle cx="268.388" cy="844.803" r="4" fill="#0" id="circle137"/>
	<circle cx="285.261" cy="854.587" r="4" fill="#0" id="circle138"/>
	<circle cx="311.727" cy="866.986" r="4" fill="#0" id="circle139"/>
	<circle cx="324.94" cy="883.885" r="4" fill="#0" id="circle140"/>
	<circle cx="343.599" cy="891.466" r="4" fill="#0" id="circle141"/>
	<circle cx="353.757" cy="918.146" r="4" fill="#0" id="circle142"/>
	<circle cx="344.675" cy="942.296" r="4" fill="#0" id="circle143"/>
	<circle cx="359.669" cy="957.465" r="4" fill="#0" id="circle144"/>
	<circle cx="379.636" cy="973.202" r="4" fill="#0" id="circle145"/>
	<circle cx="397.436" cy="982.389" r="4" fill="#0" id="circle146"/>
	<circle cx="415.202" cy="987.305" r="4" fill="#0" id="circle147"/>
	<circle cx="441.175" cy="996" r="4" fill="#0" id="circle148"/>
	<circle cx="461.195" cy="991.732" r="4" fill="#0" id="circle149"/>
	<circle cx="251.303" cy="684.176" r="4" fill="#0" id="circle150"/>
	<circle cx="262.844" cy="694.163" r="4" fill="#0" id="circle151"/>
	<circle cx="283.212" cy="702.03" r="4" fill="#0" id="circle152"/>
	<circle cx="299.156" cy="713.839" r="4" fill="#0" id="circle153"/>
	<circle cx="312.05" cy="722.154" r="4" fill="#0" id="circle154"/>
	<circle cx="332.347" cy="733.456" r="4" fill="#0" id="circle155"/>
	<circle cx="261.708" cy="674.602" r="4" fill="#0" id="circle156"/>
	<circle cx="281.431" cy="673.92" r="4" fill="#0" id="circle157"/>
	<circle cx="295.366" cy="673.666" r="4" fill="#0" id="circle158"/>
	<circle cx="298.157" cy="641.951" r="4" fill="#0" id="circle159"/>
	<circle cx="271.149" cy="636.483" r="4" fill="#0" id="circle160"/>
	<circle cx="259.927" cy="637.897" r="4" fill="#0" id="circle161"/>
	<circle cx="236.26" cy="628.792" r="4" fill="#0" id="circle162"/>
	<circle cx="232.811" cy="603.714" r="4" fill="#0" id="circle163"/>
	<circle cx="231.559" cy="578.361" r="4" fill="#0" id="circle164"/>
	<circle cx="227.642" cy="562.834" r="4" fill="#0" id="circle165"/>
	<circle cx="241.814" cy="553.694" r="4" fill="#0" id="circle166"/>
	<circle cx="263.663" cy="558.892" r="4" fill="#0" id="circle167"/>
	<circle cx="287.821" cy="562.587" r="4" fill="#0" id="circle168"/>
	<circle cx="305.941" cy="575.052" r="4" fill="#0" id="circle169"/>
	<circle cx="322.706" cy="595.865" r="4" fill="#0" id="circle170"/>
	<circle cx="334.734" cy="607.659" r="4" fill="#0" id="circle171"/>
	<circle cx="340.843" cy="629.627" r="4" fill="#0" id="circle172"/>
	<circle cx="341.059" cy="650.512" r="4" fill="#0" id="circle173"/>
	<circle cx="340.415" cy="668.328" r="4" fill="#0" id="circle174"/>
	<circle cx="341.323" cy="692.378" r="4" fill="#0" id="circle175"/>
	<circle cx="342.775" cy="706.653" r="4" fill="#0" id="circle176"/>
	<circle cx="343.924" cy="730.272" r="4" fill="#0" id="circle177"/>
	</g>
</svg>