<?xml version="1.0" encoding="UTF-8" standalone="no"?>
<!-- Created with CurveBenchmark -->
<svg
	xmlns:dc="http://purl.org/dc/elements/1.1/"
	xmlns:cc="http://creativecommons.org/ns#"
	xmlns:rdf="http://www.w3.org/1999/02/22-rdf-syntax-ns#"
	xmlns:svg="http://www.w3.org/2000/svg"
	xmlns="http://www.w3.org/2000/svg"
	xmlns:sodipodi="http://sodipodi.sourceforge.net/DTD/sodipodi-0.dtd"
	xmlns:inkscape="http://www.inkscape.org/namespaces/inkscape"
	width="1000"
	height="1000"
	id="svg2"
	version="1.1"
	sodipodi:docname="noisy-0.003/fitconnect-mc45.txt">
<defs
	id="defs4" />
<metadata
	id="metadata7">
	<rdf:RDF>
		<cc:Work
			rdf:about="">
			<dc:format>image/svg+xml</dc:format>
			<dc:type
				rdf:resource="http://purl.org/dc/dcmitype/StillImage" />
			<dc:title></dc:title>
		</cc:Work>
	</rdf:RDF>
</metadata>
<g
	inkscape:label="Layer 1"
	inkscape:groupmode="layer"
	id="layer1">
	<path style="fill:none;stroke:red;stroke-width:1px;stroke-linecap:butt;stroke-linejoin:miter;stroke-opacity:1" d="M 4,275.107 8.05609,248.061 z" id="boundary" inkscape:connector-curvature="0" />
	<path style="fill:none;stroke:red;stroke-width:1px;stroke-linecap:butt;stroke-linejoin:miter;stroke-opacity:1" d="M 4,275.107 35.9669,343.721 z" id="boundary" inkscape:connector-curvature="0" />
	<path style="fill:none;stroke:red;stroke-width:1px;stroke-linecap:butt;stroke-linejoin:miter;stroke-opacity:1" d="M 8.05609,248.061 26.5371,214.154 z" id="boundary" inkscape:connector-curvature="0" />
	<path style="fill:none;stroke:red;stroke-width:1px;stroke-linecap:butt;stroke-linejoin:miter;stroke-opacity:1" d="M 26.5371,214.154 39.8074,192.031 z" id="boundary" inkscape:connector-curvature="0" />
	<path style="fill:none;stroke:red;stroke-width:1px;stroke-linecap:butt;stroke-linejoin:miter;stroke-opacity:1" d="M 35.9669,343.721 49.0682,367.813 z" id="boundary" inkscape:connector-curvature="0" />
	<path style="fill:none;stroke:red;stroke-width:1px;stroke-linecap:butt;stroke-linejoin:miter;stroke-opacity:1" d="M 39.8074,192.031 73.9124,170.277 z" id="boundary" inkscape:connector-curvature="0" />
	<path style="fill:none;stroke:red;stroke-width:1px;stroke-linecap:butt;stroke-linejoin:miter;stroke-opacity:1" d="M 49.0682,367.813 113.556,398.448 z" id="boundary" inkscape:connector-curvature="0" />
	<path style="fill:none;stroke:red;stroke-width:1px;stroke-linecap:butt;stroke-linejoin:miter;stroke-opacity:1" d="M 73.9124,170.277 111.696,161.362 z" id="boundary" inkscape:connector-curvature="0" />
	<path style="fill:none;stroke:red;stroke-width:1px;stroke-linecap:butt;stroke-linejoin:miter;stroke-opacity:1" d="M 111.696,161.362 173.445,189.54 z" id="boundary" inkscape:connector-curvature="0" />
	<path style="fill:none;stroke:red;stroke-width:1px;stroke-linecap:butt;stroke-linejoin:miter;stroke-opacity:1" d="M 113.556,398.448 200.246,377.374 z" id="boundary" inkscape:connector-curvature="0" />
	<path style="fill:none;stroke:red;stroke-width:1px;stroke-linecap:butt;stroke-linejoin:miter;stroke-opacity:1" d="M 173.445,189.54 211.883,212.873 z" id="boundary" inkscape:connector-curvature="0" />
	<path style="fill:none;stroke:red;stroke-width:1px;stroke-linecap:butt;stroke-linejoin:miter;stroke-opacity:1" d="M 200.246,377.374 228.361,381.141 z" id="boundary" inkscape:connector-curvature="0" />
	<path style="fill:none;stroke:red;stroke-width:1px;stroke-linecap:butt;stroke-linejoin:miter;stroke-opacity:1" d="M 211.883,212.873 226.475,227.781 z" id="boundary" inkscape:connector-curvature="0" />
	<path style="fill:none;stroke:red;stroke-width:1px;stroke-linecap:butt;stroke-linejoin:miter;stroke-opacity:1" d="M 228.361,381.141 250.923,379.505 z" id="boundary" inkscape:connector-curvature="0" />
	<path style="fill:none;stroke:red;stroke-width:1px;stroke-linecap:butt;stroke-linejoin:miter;stroke-opacity:1" d="M 226.475,227.781 252.177,223.758 z" id="boundary" inkscape:connector-curvature="0" />
	<path style="fill:none;stroke:red;stroke-width:1px;stroke-linecap:butt;stroke-linejoin:miter;stroke-opacity:1" d="M 250.923,379.505 273.753,391.632 z" id="boundary" inkscape:connector-curvature="0" />
	<path style="fill:none;stroke:red;stroke-width:1px;stroke-linecap:butt;stroke-linejoin:miter;stroke-opacity:1" d="M 252.177,223.758 280.113,199.357 z" id="boundary" inkscape:connector-curvature="0" />
	<path style="fill:none;stroke:red;stroke-width:1px;stroke-linecap:butt;stroke-linejoin:miter;stroke-opacity:1" d="M 271.676,543.678 279.678,516.254 z" id="boundary" inkscape:connector-curvature="0" />
	<path style="fill:none;stroke:red;stroke-width:1px;stroke-linecap:butt;stroke-linejoin:miter;stroke-opacity:1" d="M 271.676,543.678 279.799,572.147 z" id="boundary" inkscape:connector-curvature="0" />
	<path style="fill:none;stroke:red;stroke-width:1px;stroke-linecap:butt;stroke-linejoin:miter;stroke-opacity:1" d="M 273.753,391.632 292.141,421.676 z" id="boundary" inkscape:connector-curvature="0" />
	<path style="fill:none;stroke:red;stroke-width:1px;stroke-linecap:butt;stroke-linejoin:miter;stroke-opacity:1" d="M 280.113,199.357 298.592,178.262 z" id="boundary" inkscape:connector-curvature="0" />
	<path style="fill:none;stroke:red;stroke-width:1px;stroke-linecap:butt;stroke-linejoin:miter;stroke-opacity:1" d="M 279.678,516.254 285.949,481.486 z" id="boundary" inkscape:connector-curvature="0" />
	<path style="fill:none;stroke:red;stroke-width:1px;stroke-linecap:butt;stroke-linejoin:miter;stroke-opacity:1" d="M 278.824,597.979 279.799,572.147 z" id="boundary" inkscape:connector-curvature="0" />
	<path style="fill:none;stroke:red;stroke-width:1px;stroke-linecap:butt;stroke-linejoin:miter;stroke-opacity:1" d="M 278.824,597.979 284.745,621.985 z" id="boundary" inkscape:connector-curvature="0" />
	<path style="fill:none;stroke:red;stroke-width:1px;stroke-linecap:butt;stroke-linejoin:miter;stroke-opacity:1" d="M 284.745,621.985 293.251,661.773 z" id="boundary" inkscape:connector-curvature="0" />
	<path style="fill:none;stroke:red;stroke-width:1px;stroke-linecap:butt;stroke-linejoin:miter;stroke-opacity:1" d="M 285.949,481.486 300.007,445.863 z" id="boundary" inkscape:connector-curvature="0" />
	<path style="fill:none;stroke:red;stroke-width:1px;stroke-linecap:butt;stroke-linejoin:miter;stroke-opacity:1" d="M 293.251,661.773 305.208,696.763 z" id="boundary" inkscape:connector-curvature="0" />
	<path style="fill:none;stroke:red;stroke-width:1px;stroke-linecap:butt;stroke-linejoin:miter;stroke-opacity:1" d="M 292.141,421.676 300.007,445.863 z" id="boundary" inkscape:connector-curvature="0" />
	<path style="fill:none;stroke:red;stroke-width:1px;stroke-linecap:butt;stroke-linejoin:miter;stroke-opacity:1" d="M 298.592,178.262 321.17,160.802 z" id="boundary" inkscape:connector-curvature="0" />
	<path style="fill:none;stroke:red;stroke-width:1px;stroke-linecap:butt;stroke-linejoin:miter;stroke-opacity:1" d="M 305.208,696.763 329.087,730.47 z" id="boundary" inkscape:connector-curvature="0" />
	<path style="fill:none;stroke:red;stroke-width:1px;stroke-linecap:butt;stroke-linejoin:miter;stroke-opacity:1" d="M 321.17,160.802 334.453,140.921 z" id="boundary" inkscape:connector-curvature="0" />
	<path style="fill:none;stroke:red;stroke-width:1px;stroke-linecap:butt;stroke-linejoin:miter;stroke-opacity:1" d="M 329.087,730.47 344.922,751.026 z" id="boundary" inkscape:connector-curvature="0" />
	<path style="fill:none;stroke:red;stroke-width:1px;stroke-linecap:butt;stroke-linejoin:miter;stroke-opacity:1" d="M 334.453,140.921 359.692,126.814 z" id="boundary" inkscape:connector-curvature="0" />
	<path style="fill:none;stroke:red;stroke-width:1px;stroke-linecap:butt;stroke-linejoin:miter;stroke-opacity:1" d="M 344.922,751.026 366.749,756.295 z" id="boundary" inkscape:connector-curvature="0" />
	<path style="fill:none;stroke:red;stroke-width:1px;stroke-linecap:butt;stroke-linejoin:miter;stroke-opacity:1" d="M 359.692,126.814 374.885,105.45 z" id="boundary" inkscape:connector-curvature="0" />
	<path style="fill:none;stroke:red;stroke-width:1px;stroke-linecap:butt;stroke-linejoin:miter;stroke-opacity:1" d="M 366.749,756.295 395.105,748.769 z" id="boundary" inkscape:connector-curvature="0" />
	<path style="fill:none;stroke:red;stroke-width:1px;stroke-linecap:butt;stroke-linejoin:miter;stroke-opacity:1" d="M 374.885,105.45 397.226,95.2806 z" id="boundary" inkscape:connector-curvature="0" />
	<path style="fill:none;stroke:red;stroke-width:1px;stroke-linecap:butt;stroke-linejoin:miter;stroke-opacity:1" d="M 397.226,95.2806 422.256,81.8457 z" id="boundary" inkscape:connector-curvature="0" />
	<path style="fill:none;stroke:red;stroke-width:1px;stroke-linecap:butt;stroke-linejoin:miter;stroke-opacity:1" d="M 395.105,748.769 414.566,734.572 z" id="boundary" inkscape:connector-curvature="0" />
	<path style="fill:none;stroke:red;stroke-width:1px;stroke-linecap:butt;stroke-linejoin:miter;stroke-opacity:1" d="M 404.67,626.366 407.939,657.181 z" id="boundary" inkscape:connector-curvature="0" />
	<path style="fill:none;stroke:red;stroke-width:1px;stroke-linecap:butt;stroke-linejoin:miter;stroke-opacity:1" d="M 404.67,626.366 415.697,604.905 z" id="boundary" inkscape:connector-curvature="0" />
	<path style="fill:none;stroke:red;stroke-width:1px;stroke-linecap:butt;stroke-linejoin:miter;stroke-opacity:1" d="M 407.939,657.181 425.645,678.697 z" id="boundary" inkscape:connector-curvature="0" />
	<path style="fill:none;stroke:red;stroke-width:1px;stroke-linecap:butt;stroke-linejoin:miter;stroke-opacity:1" d="M 415.697,604.905 431.082,579.34 z" id="boundary" inkscape:connector-curvature="0" />
	<path style="fill:none;stroke:red;stroke-width:1px;stroke-linecap:butt;stroke-linejoin:miter;stroke-opacity:1" d="M 414.566,734.572 424.447,702.854 z" id="boundary" inkscape:connector-curvature="0" />
	<path style="fill:none;stroke:red;stroke-width:1px;stroke-linecap:butt;stroke-linejoin:miter;stroke-opacity:1" d="M 422.256,81.8457 444.569,69.2335 z" id="boundary" inkscape:connector-curvature="0" />
	<path style="fill:none;stroke:red;stroke-width:1px;stroke-linecap:butt;stroke-linejoin:miter;stroke-opacity:1" d="M 425.645,678.697 424.447,702.854 z" id="boundary" inkscape:connector-curvature="0" />
	<path style="fill:none;stroke:red;stroke-width:1px;stroke-linecap:butt;stroke-linejoin:miter;stroke-opacity:1" d="M 431.082,579.34 449.526,570.579 z" id="boundary" inkscape:connector-curvature="0" />
	<path style="fill:none;stroke:red;stroke-width:1px;stroke-linecap:butt;stroke-linejoin:miter;stroke-opacity:1" d="M 444.569,69.2335 462.505,47.8276 z" id="boundary" inkscape:connector-curvature="0" />
	<path style="fill:none;stroke:red;stroke-width:1px;stroke-linecap:butt;stroke-linejoin:miter;stroke-opacity:1" d="M 449.526,570.579 466.038,547.99 z" id="boundary" inkscape:connector-curvature="0" />
	<path style="fill:none;stroke:red;stroke-width:1px;stroke-linecap:butt;stroke-linejoin:miter;stroke-opacity:1" d="M 462.505,47.8276 490.843,29.2399 z" id="boundary" inkscape:connector-curvature="0" />
	<path style="fill:none;stroke:red;stroke-width:1px;stroke-linecap:butt;stroke-linejoin:miter;stroke-opacity:1" d="M 466.038,547.99 476.715,505.237 z" id="boundary" inkscape:connector-curvature="0" />
	<path style="fill:none;stroke:red;stroke-width:1px;stroke-linecap:butt;stroke-linejoin:miter;stroke-opacity:1" d="M 471.768,443.144 477.673,480.228 z" id="boundary" inkscape:connector-curvature="0" />
	<path style="fill:none;stroke:red;stroke-width:1px;stroke-linecap:butt;stroke-linejoin:miter;stroke-opacity:1" d="M 471.768,443.144 510.327,445.89 z" id="boundary" inkscape:connector-curvature="0" />
	<path style="fill:none;stroke:red;stroke-width:1px;stroke-linecap:butt;stroke-linejoin:miter;stroke-opacity:1" d="M 476.715,505.237 477.673,480.228 z" id="boundary" inkscape:connector-curvature="0" />
	<path style="fill:none;stroke:red;stroke-width:1px;stroke-linecap:butt;stroke-linejoin:miter;stroke-opacity:1" d="M 490.843,29.2399 521.308,20.8787 z" id="boundary" inkscape:connector-curvature="0" />
	<path style="fill:none;stroke:red;stroke-width:1px;stroke-linecap:butt;stroke-linejoin:miter;stroke-opacity:1" d="M 510.327,445.89 543.71,442.39 z" id="boundary" inkscape:connector-curvature="0" />
	<path style="fill:none;stroke:red;stroke-width:1px;stroke-linecap:butt;stroke-linejoin:miter;stroke-opacity:1" d="M 521.308,20.8787 545.246,13.4407 z" id="boundary" inkscape:connector-curvature="0" />
	<path style="fill:none;stroke:red;stroke-width:1px;stroke-linecap:butt;stroke-linejoin:miter;stroke-opacity:1" d="M 543.71,442.39 563.365,456.976 z" id="boundary" inkscape:connector-curvature="0" />
	<path style="fill:none;stroke:red;stroke-width:1px;stroke-linecap:butt;stroke-linejoin:miter;stroke-opacity:1" d="M 545.246,13.4407 572.476,6.29012 z" id="boundary" inkscape:connector-curvature="0" />
	<path style="fill:none;stroke:red;stroke-width:1px;stroke-linecap:butt;stroke-linejoin:miter;stroke-opacity:1" d="M 563.365,456.976 593.782,451.939 z" id="boundary" inkscape:connector-curvature="0" />
	<path style="fill:none;stroke:red;stroke-width:1px;stroke-linecap:butt;stroke-linejoin:miter;stroke-opacity:1" d="M 572.476,6.29012 612.755,4 z" id="boundary" inkscape:connector-curvature="0" />
	<path style="fill:none;stroke:red;stroke-width:1px;stroke-linecap:butt;stroke-linejoin:miter;stroke-opacity:1" d="M 593.782,451.939 617.504,451.241 z" id="boundary" inkscape:connector-curvature="0" />
	<path style="fill:none;stroke:red;stroke-width:1px;stroke-linecap:butt;stroke-linejoin:miter;stroke-opacity:1" d="M 612.755,4 643.525,4.72238 z" id="boundary" inkscape:connector-curvature="0" />
	<path style="fill:none;stroke:red;stroke-width:1px;stroke-linecap:butt;stroke-linejoin:miter;stroke-opacity:1" d="M 617.504,451.241 635.163,448.966 z" id="boundary" inkscape:connector-curvature="0" />
	<path style="fill:none;stroke:red;stroke-width:1px;stroke-linecap:butt;stroke-linejoin:miter;stroke-opacity:1" d="M 635.163,448.966 675.416,441.91 z" id="boundary" inkscape:connector-curvature="0" />
	<path style="fill:none;stroke:red;stroke-width:1px;stroke-linecap:butt;stroke-linejoin:miter;stroke-opacity:1" d="M 643.525,4.72238 664.397,7.12326 z" id="boundary" inkscape:connector-curvature="0" />
	<path style="fill:none;stroke:red;stroke-width:1px;stroke-linecap:butt;stroke-linejoin:miter;stroke-opacity:1" d="M 664.397,7.12326 689.196,17.0066 z" id="boundary" inkscape:connector-curvature="0" />
	<path style="fill:none;stroke:red;stroke-width:1px;stroke-linecap:butt;stroke-linejoin:miter;stroke-opacity:1" d="M 675.416,441.91 694.526,441.592 z" id="boundary" inkscape:connector-curvature="0" />
	<path style="fill:none;stroke:red;stroke-width:1px;stroke-linecap:butt;stroke-linejoin:miter;stroke-opacity:1" d="M 689.196,17.0066 709.808,27.5826 z" id="boundary" inkscape:connector-curvature="0" />
	<path style="fill:none;stroke:red;stroke-width:1px;stroke-linecap:butt;stroke-linejoin:miter;stroke-opacity:1" d="M 694.526,441.592 713.446,433.043 z" id="boundary" inkscape:connector-curvature="0" />
	<path style="fill:none;stroke:red;stroke-width:1px;stroke-linecap:butt;stroke-linejoin:miter;stroke-opacity:1" d="M 709.808,27.5826 730.677,37.874 z" id="boundary" inkscape:connector-curvature="0" />
	<path style="fill:none;stroke:red;stroke-width:1px;stroke-linecap:butt;stroke-linejoin:miter;stroke-opacity:1" d="M 713.446,433.043 742.308,430.882 z" id="boundary" inkscape:connector-curvature="0" />
	<path style="fill:none;stroke:red;stroke-width:1px;stroke-linecap:butt;stroke-linejoin:miter;stroke-opacity:1" d="M 730.677,37.874 761.969,49.0996 z" id="boundary" inkscape:connector-curvature="0" />
	<path style="fill:none;stroke:red;stroke-width:1px;stroke-linecap:butt;stroke-linejoin:miter;stroke-opacity:1" d="M 742.308,430.882 765.288,426.295 z" id="boundary" inkscape:connector-curvature="0" />
	<path style="fill:none;stroke:red;stroke-width:1px;stroke-linecap:butt;stroke-linejoin:miter;stroke-opacity:1" d="M 761.969,49.0996 794.24,69.9921 z" id="boundary" inkscape:connector-curvature="0" />
	<path style="fill:none;stroke:red;stroke-width:1px;stroke-linecap:butt;stroke-linejoin:miter;stroke-opacity:1" d="M 765.288,426.295 769.956,444.246 z" id="boundary" inkscape:connector-curvature="0" />
	<path style="fill:none;stroke:red;stroke-width:1px;stroke-linecap:butt;stroke-linejoin:miter;stroke-opacity:1" d="M 769.956,444.246 782.633,494.768 z" id="boundary" inkscape:connector-curvature="0" />
	<path style="fill:none;stroke:red;stroke-width:1px;stroke-linecap:butt;stroke-linejoin:miter;stroke-opacity:1" d="M 782.633,494.768 791.959,520.751 z" id="boundary" inkscape:connector-curvature="0" />
	<path style="fill:none;stroke:red;stroke-width:1px;stroke-linecap:butt;stroke-linejoin:miter;stroke-opacity:1" d="M 791.959,520.751 807.022,542.667 z" id="boundary" inkscape:connector-curvature="0" />
	<path style="fill:none;stroke:red;stroke-width:1px;stroke-linecap:butt;stroke-linejoin:miter;stroke-opacity:1" d="M 794.24,69.9921 817.424,84.0219 z" id="boundary" inkscape:connector-curvature="0" />
	<path style="fill:none;stroke:red;stroke-width:1px;stroke-linecap:butt;stroke-linejoin:miter;stroke-opacity:1" d="M 807.022,542.667 830.053,564.151 z" id="boundary" inkscape:connector-curvature="0" />
	<path style="fill:none;stroke:red;stroke-width:1px;stroke-linecap:butt;stroke-linejoin:miter;stroke-opacity:1" d="M 817.424,84.0219 841.67,113.816 z" id="boundary" inkscape:connector-curvature="0" />
	<path style="fill:none;stroke:red;stroke-width:1px;stroke-linecap:butt;stroke-linejoin:miter;stroke-opacity:1" d="M 830.053,564.151 857.54,594.006 z" id="boundary" inkscape:connector-curvature="0" />
	<path style="fill:none;stroke:red;stroke-width:1px;stroke-linecap:butt;stroke-linejoin:miter;stroke-opacity:1" d="M 841.67,113.816 868.348,126.666 z" id="boundary" inkscape:connector-curvature="0" />
	<path style="fill:none;stroke:red;stroke-width:1px;stroke-linecap:butt;stroke-linejoin:miter;stroke-opacity:1" d="M 857.54,594.006 871.193,611.884 z" id="boundary" inkscape:connector-curvature="0" />
	<path style="fill:none;stroke:red;stroke-width:1px;stroke-linecap:butt;stroke-linejoin:miter;stroke-opacity:1" d="M 868.348,126.666 882.003,148.202 z" id="boundary" inkscape:connector-curvature="0" />
	<path style="fill:none;stroke:red;stroke-width:1px;stroke-linecap:butt;stroke-linejoin:miter;stroke-opacity:1" d="M 871.193,611.884 891.49,632.218 z" id="boundary" inkscape:connector-curvature="0" />
	<path style="fill:none;stroke:red;stroke-width:1px;stroke-linecap:butt;stroke-linejoin:miter;stroke-opacity:1" d="M 882.003,148.202 896.508,176.042 z" id="boundary" inkscape:connector-curvature="0" />
	<path style="fill:none;stroke:red;stroke-width:1px;stroke-linecap:butt;stroke-linejoin:miter;stroke-opacity:1" d="M 891.49,632.218 907.262,659.342 z" id="boundary" inkscape:connector-curvature="0" />
	<path style="fill:none;stroke:red;stroke-width:1px;stroke-linecap:butt;stroke-linejoin:miter;stroke-opacity:1" d="M 896.508,176.042 918.576,204.334 z" id="boundary" inkscape:connector-curvature="0" />
	<path style="fill:none;stroke:red;stroke-width:1px;stroke-linecap:butt;stroke-linejoin:miter;stroke-opacity:1" d="M 908.725,339.498 912.789,319.193 z" id="boundary" inkscape:connector-curvature="0" />
	<path style="fill:none;stroke:red;stroke-width:1px;stroke-linecap:butt;stroke-linejoin:miter;stroke-opacity:1" d="M 908.725,339.498 915.258,363.747 z" id="boundary" inkscape:connector-curvature="0" />
	<path style="fill:none;stroke:red;stroke-width:1px;stroke-linecap:butt;stroke-linejoin:miter;stroke-opacity:1" d="M 907.262,659.342 931.516,656.571 z" id="boundary" inkscape:connector-curvature="0" />
	<path style="fill:none;stroke:red;stroke-width:1px;stroke-linecap:butt;stroke-linejoin:miter;stroke-opacity:1" d="M 912.789,319.193 924.914,297.623 z" id="boundary" inkscape:connector-curvature="0" />
	<path style="fill:none;stroke:red;stroke-width:1px;stroke-linecap:butt;stroke-linejoin:miter;stroke-opacity:1" d="M 915.258,363.747 929.889,397.106 z" id="boundary" inkscape:connector-curvature="0" />
	<path style="fill:none;stroke:red;stroke-width:1px;stroke-linecap:butt;stroke-linejoin:miter;stroke-opacity:1" d="M 918.576,204.334 932.722,223.899 z" id="boundary" inkscape:connector-curvature="0" />
	<path style="fill:none;stroke:red;stroke-width:1px;stroke-linecap:butt;stroke-linejoin:miter;stroke-opacity:1" d="M 924.914,297.623 936.834,283.672 z" id="boundary" inkscape:connector-curvature="0" />
	<path style="fill:none;stroke:red;stroke-width:1px;stroke-linecap:butt;stroke-linejoin:miter;stroke-opacity:1" d="M 929.889,397.106 941.937,418.791 z" id="boundary" inkscape:connector-curvature="0" />
	<path style="fill:none;stroke:red;stroke-width:1px;stroke-linecap:butt;stroke-linejoin:miter;stroke-opacity:1" d="M 932.722,223.899 937.827,253.904 z" id="boundary" inkscape:connector-curvature="0" />
	<path style="fill:none;stroke:red;stroke-width:1px;stroke-linecap:butt;stroke-linejoin:miter;stroke-opacity:1" d="M 931.516,656.571 968.895,655.745 z" id="boundary" inkscape:connector-curvature="0" />
	<path style="fill:none;stroke:red;stroke-width:1px;stroke-linecap:butt;stroke-linejoin:miter;stroke-opacity:1" d="M 937.827,253.904 936.834,283.672 z" id="boundary" inkscape:connector-curvature="0" />
	<path style="fill:none;stroke:red;stroke-width:1px;stroke-linecap:butt;stroke-linejoin:miter;stroke-opacity:1" d="M 941.937,418.791 953.178,439.414 z" id="boundary" inkscape:connector-curvature="0" />
	<path style="fill:none;stroke:red;stroke-width:1px;stroke-linecap:butt;stroke-linejoin:miter;stroke-opacity:1" d="M 953.178,439.414 979.158,487.371 z" id="boundary" inkscape:connector-curvature="0" />
	<path style="fill:none;stroke:red;stroke-width:1px;stroke-linecap:butt;stroke-linejoin:miter;stroke-opacity:1" d="M 968.895,655.745 989.131,619.719 z" id="boundary" inkscape:connector-curvature="0" />
	<path style="fill:none;stroke:red;stroke-width:1px;stroke-linecap:butt;stroke-linejoin:miter;stroke-opacity:1" d="M 979.158,487.371 988.668,532.119 z" id="boundary" inkscape:connector-curvature="0" />
	<path style="fill:none;stroke:red;stroke-width:1px;stroke-linecap:butt;stroke-linejoin:miter;stroke-opacity:1" d="M 989.131,619.719 994.067,586.603 z" id="boundary" inkscape:connector-curvature="0" />
	<path style="fill:none;stroke:red;stroke-width:1px;stroke-linecap:butt;stroke-linejoin:miter;stroke-opacity:1" d="M 988.668,532.119 996,553.481 z" id="boundary" inkscape:connector-curvature="0" />
	<path style="fill:none;stroke:red;stroke-width:1px;stroke-linecap:butt;stroke-linejoin:miter;stroke-opacity:1" d="M 994.067,586.603 992.647,561.43 z" id="boundary" inkscape:connector-curvature="0" />
	<path style="fill:none;stroke:red;stroke-width:1px;stroke-linecap:butt;stroke-linejoin:miter;stroke-opacity:1" d="M 996,553.481 992.647,561.43 z" id="boundary" inkscape:connector-curvature="0" />
	<circle cx="4" cy="275.107" r="4" fill="#0" id="circle0"/>
	<circle cx="8.05609" cy="248.061" r="4" fill="#0" id="circle1"/>
	<circle cx="16.0879" cy="302.757" r="4" fill="#0" id="circle2"/>
	<circle cx="23.3491" cy="326.361" r="4" fill="#0" id="circle3"/>
	<circle cx="26.5371" cy="214.154" r="4" fill="#0" id="circle4"/>
	<circle cx="35.9669" cy="343.721" r="4" fill="#0" id="circle5"/>
	<circle cx="39.8074" cy="192.031" r="4" fill="#0" id="circle6"/>
	<circle cx="49.0682" cy="367.813" r="4" fill="#0" id="circle7"/>
	<circle cx="73.9124" cy="170.277" r="4" fill="#0" id="circle8"/>
	<circle cx="79.6991" cy="383.411" r="4" fill="#0" id="circle9"/>
	<circle cx="112.306" cy="279.369" r="4" fill="#0" id="circle10"/>
	<circle cx="111.696" cy="161.362" r="4" fill="#0" id="circle11"/>
	<circle cx="113.556" cy="398.448" r="4" fill="#0" id="circle12"/>
	<circle cx="117.794" cy="242.943" r="4" fill="#0" id="circle13"/>
	<circle cx="112.163" cy="305.587" r="4" fill="#0" id="circle14"/>
	<circle cx="130.403" cy="162.602" r="4" fill="#0" id="circle15"/>
	<circle cx="130.707" cy="322.299" r="4" fill="#0" id="circle16"/>
	<circle cx="137.916" cy="402.964" r="4" fill="#0" id="circle17"/>
	<circle cx="150.967" cy="229.085" r="4" fill="#0" id="circle18"/>
	<circle cx="155.423" cy="179.847" r="4" fill="#0" id="circle19"/>
	<circle cx="156.252" cy="302.721" r="4" fill="#0" id="circle20"/>
	<circle cx="161.103" cy="268.645" r="4" fill="#0" id="circle21"/>
	<circle cx="165.759" cy="391.303" r="4" fill="#0" id="circle22"/>
	<circle cx="173.445" cy="189.54" r="4" fill="#0" id="circle23"/>
	<circle cx="200.246" cy="377.374" r="4" fill="#0" id="circle24"/>
	<circle cx="211.883" cy="212.873" r="4" fill="#0" id="circle25"/>
	<circle cx="228.361" cy="381.141" r="4" fill="#0" id="circle26"/>
	<circle cx="226.475" cy="227.781" r="4" fill="#0" id="circle27"/>
	<circle cx="250.923" cy="379.505" r="4" fill="#0" id="circle28"/>
	<circle cx="252.177" cy="223.758" r="4" fill="#0" id="circle29"/>
	<circle cx="271.676" cy="543.678" r="4" fill="#0" id="circle30"/>
	<circle cx="273.753" cy="391.632" r="4" fill="#0" id="circle31"/>
	<circle cx="280.113" cy="199.357" r="4" fill="#0" id="circle32"/>
	<circle cx="279.678" cy="516.254" r="4" fill="#0" id="circle33"/>
	<circle cx="278.824" cy="597.979" r="4" fill="#0" id="circle34"/>
	<circle cx="279.799" cy="572.147" r="4" fill="#0" id="circle35"/>
	<circle cx="284.745" cy="621.985" r="4" fill="#0" id="circle36"/>
	<circle cx="285.949" cy="481.486" r="4" fill="#0" id="circle37"/>
	<circle cx="293.251" cy="661.773" r="4" fill="#0" id="circle38"/>
	<circle cx="292.141" cy="421.676" r="4" fill="#0" id="circle39"/>
	<circle cx="298.592" cy="178.262" r="4" fill="#0" id="circle40"/>
	<circle cx="300.007" cy="445.863" r="4" fill="#0" id="circle41"/>
	<circle cx="305.208" cy="696.763" r="4" fill="#0" id="circle42"/>
	<circle cx="321.17" cy="160.802" r="4" fill="#0" id="circle43"/>
	<circle cx="329.087" cy="730.47" r="4" fill="#0" id="circle44"/>
	<circle cx="334.453" cy="140.921" r="4" fill="#0" id="circle45"/>
	<circle cx="344.922" cy="751.026" r="4" fill="#0" id="circle46"/>
	<circle cx="359.692" cy="126.814" r="4" fill="#0" id="circle47"/>
	<circle cx="366.749" cy="756.295" r="4" fill="#0" id="circle48"/>
	<circle cx="374.885" cy="105.45" r="4" fill="#0" id="circle49"/>
	<circle cx="397.226" cy="95.2806" r="4" fill="#0" id="circle50"/>
	<circle cx="395.105" cy="748.769" r="4" fill="#0" id="circle51"/>
	<circle cx="404.67" cy="626.366" r="4" fill="#0" id="circle52"/>
	<circle cx="407.939" cy="657.181" r="4" fill="#0" id="circle53"/>
	<circle cx="415.697" cy="604.905" r="4" fill="#0" id="circle54"/>
	<circle cx="414.566" cy="734.572" r="4" fill="#0" id="circle55"/>
	<circle cx="422.256" cy="81.8457" r="4" fill="#0" id="circle56"/>
	<circle cx="425.645" cy="678.697" r="4" fill="#0" id="circle57"/>
	<circle cx="424.447" cy="702.854" r="4" fill="#0" id="circle58"/>
	<circle cx="431.082" cy="579.34" r="4" fill="#0" id="circle59"/>
	<circle cx="444.569" cy="69.2335" r="4" fill="#0" id="circle60"/>
	<circle cx="449.526" cy="570.579" r="4" fill="#0" id="circle61"/>
	<circle cx="462.505" cy="47.8276" r="4" fill="#0" id="circle62"/>
	<circle cx="466.038" cy="547.99" r="4" fill="#0" id="circle63"/>
	<circle cx="471.768" cy="443.144" r="4" fill="#0" id="circle64"/>
	<circle cx="476.715" cy="505.237" r="4" fill="#0" id="circle65"/>
	<circle cx="477.673" cy="480.228" r="4" fill="#0" id="circle66"/>
	<circle cx="490.843" cy="29.2399" r="4" fill="#0" id="circle67"/>
	<circle cx="510.327" cy="445.89" r="4" fill="#0" id="circle68"/>
	<circle cx="521.308" cy="20.8787" r="4" fill="#0" id="circle69"/>
	<circle cx="543.71" cy="442.39" r="4" fill="#0" id="circle70"/>
	<circle cx="545.246" cy="13.4407" r="4" fill="#0" id="circle71"/>
	<circle cx="563.365" cy="456.976" r="4" fill="#0" id="circle72"/>
	<circle cx="572.476" cy="6.29012" r="4" fill="#0" id="circle73"/>
	<circle cx="593.782" cy="451.939" r="4" fill="#0" id="circle74"/>
	<circle cx="612.755" cy="4" r="4" fill="#0" id="circle75"/>
	<circle cx="617.504" cy="451.241" r="4" fill="#0" id="circle76"/>
	<circle cx="635.163" cy="448.966" r="4" fill="#0" id="circle77"/>
	<circle cx="643.525" cy="4.72238" r="4" fill="#0" id="circle78"/>
	<circle cx="664.397" cy="7.12326" r="4" fill="#0" id="circle79"/>
	<circle cx="675.416" cy="441.91" r="4" fill="#0" id="circle80"/>
	<circle cx="689.196" cy="17.0066" r="4" fill="#0" id="circle81"/>
	<circle cx="694.526" cy="441.592" r="4" fill="#0" id="circle82"/>
	<circle cx="709.808" cy="27.5826" r="4" fill="#0" id="circle83"/>
	<circle cx="713.446" cy="433.043" r="4" fill="#0" id="circle84"/>
	<circle cx="730.677" cy="37.874" r="4" fill="#0" id="circle85"/>
	<circle cx="742.308" cy="430.882" r="4" fill="#0" id="circle86"/>
	<circle cx="761.969" cy="49.0996" r="4" fill="#0" id="circle87"/>
	<circle cx="765.288" cy="426.295" r="4" fill="#0" id="circle88"/>
	<circle cx="769.956" cy="444.246" r="4" fill="#0" id="circle89"/>
	<circle cx="782.633" cy="494.768" r="4" fill="#0" id="circle90"/>
	<circle cx="791.959" cy="520.751" r="4" fill="#0" id="circle91"/>
	<circle cx="794.24" cy="69.9921" r="4" fill="#0" id="circle92"/>
	<circle cx="807.022" cy="542.667" r="4" fill="#0" id="circle93"/>
	<circle cx="817.424" cy="84.0219" r="4" fill="#0" id="circle94"/>
	<circle cx="830.053" cy="564.151" r="4" fill="#0" id="circle95"/>
	<circle cx="841.67" cy="113.816" r="4" fill="#0" id="circle96"/>
	<circle cx="857.54" cy="594.006" r="4" fill="#0" id="circle97"/>
	<circle cx="868.348" cy="126.666" r="4" fill="#0" id="circle98"/>
	<circle cx="871.193" cy="611.884" r="4" fill="#0" id="circle99"/>
	<circle cx="882.003" cy="148.202" r="4" fill="#0" id="circle100"/>
	<circle cx="891.49" cy="632.218" r="4" fill="#0" id="circle101"/>
	<circle cx="896.508" cy="176.042" r="4" fill="#0" id="circle102"/>
	<circle cx="908.725" cy="339.498" r="4" fill="#0" id="circle103"/>
	<circle cx="907.262" cy="659.342" r="4" fill="#0" id="circle104"/>
	<circle cx="912.789" cy="319.193" r="4" fill="#0" id="circle105"/>
	<circle cx="915.258" cy="363.747" r="4" fill="#0" id="circle106"/>
	<circle cx="918.576" cy="204.334" r="4" fill="#0" id="circle107"/>
	<circle cx="924.914" cy="297.623" r="4" fill="#0" id="circle108"/>
	<circle cx="929.889" cy="397.106" r="4" fill="#0" id="circle109"/>
	<circle cx="932.722" cy="223.899" r="4" fill="#0" id="circle110"/>
	<circle cx="931.516" cy="656.571" r="4" fill="#0" id="circle111"/>
	<circle cx="937.827" cy="253.904" r="4" fill="#0" id="circle112"/>
	<circle cx="936.834" cy="283.672" r="4" fill="#0" id="circle113"/>
	<circle cx="941.937" cy="418.791" r="4" fill="#0" id="circle114"/>
	<circle cx="953.178" cy="439.414" r="4" fill="#0" id="circle115"/>
	<circle cx="968.895" cy="655.745" r="4" fill="#0" id="circle116"/>
	<circle cx="979.158" cy="487.371" r="4" fill="#0" id="circle117"/>
	<circle cx="989.131" cy="619.719" r="4" fill="#0" id="circle118"/>
	<circle cx="988.668" cy="532.119" r="4" fill="#0" id="circle119"/>
	<circle cx="994.067" cy="586.603" r="4" fill="#0" id="circle120"/>
	<circle cx="996" cy="553.481" r="4" fill="#0" id="circle121"/>
	<circle cx="992.647" cy="561.43" r="4" fill="#0" id="circle122"/>
	</g>
</svg>