<?xml version="1.0" encoding="UTF-8" standalone="no"?>
<!-- Created with CurveBenchmark -->
<svg
	xmlns:dc="http://purl.org/dc/elements/1.1/"
	xmlns:cc="http://creativecommons.org/ns#"
	xmlns:rdf="http://www.w3.org/1999/02/22-rdf-syntax-ns#"
	xmlns:svg="http://www.w3.org/2000/svg"
	xmlns="http://www.w3.org/2000/svg"
	xmlns:sodipodi="http://sodipodi.sourceforge.net/DTD/sodipodi-0.dtd"
	xmlns:inkscape="http://www.inkscape.org/namespaces/inkscape"
	width="1000"
	height="1000"
	id="svg2"
	version="1.1"
	sodipodi:docname="noisy-0.003/fitconnect-mc24.txt">
<defs
	id="defs4" />
<metadata
	id="metadata7">
	<rdf:RDF>
		<cc:Work
			rdf:about="">
			<dc:format>image/svg+xml</dc:format>
			<dc:type
				rdf:resource="http://purl.org/dc/dcmitype/StillImage" />
			<dc:title></dc:title>
		</cc:Work>
	</rdf:RDF>
</metadata>
<g
	inkscape:label="Layer 1"
	inkscape:groupmode="layer"
	id="layer1">
	<path style="fill:none;stroke:red;stroke-width:1px;stroke-linecap:butt;stroke-linejoin:miter;stroke-opacity:1" d="M 4,168.716 403.654,247.016 z" id="boundary" inkscape:connector-curvature="0" />
	<path style="fill:none;stroke:red;stroke-width:1px;stroke-linecap:butt;stroke-linejoin:miter;stroke-opacity:1" d="M 4,168.716 532.358,22.3291 z" id="boundary" inkscape:connector-curvature="0" />
	<path style="fill:none;stroke:red;stroke-width:1px;stroke-linecap:butt;stroke-linejoin:miter;stroke-opacity:1" d="M 52.6255,294.695 215.001,540.201 z" id="boundary" inkscape:connector-curvature="0" />
	<path style="fill:none;stroke:red;stroke-width:1px;stroke-linecap:butt;stroke-linejoin:miter;stroke-opacity:1" d="M 52.6255,294.695 285.363,4 z" id="boundary" inkscape:connector-curvature="0" />
	<path style="fill:none;stroke:red;stroke-width:1px;stroke-linecap:butt;stroke-linejoin:miter;stroke-opacity:1" d="M 107.212,41.4754 479.482,282.237 z" id="boundary" inkscape:connector-curvature="0" />
	<path style="fill:none;stroke:red;stroke-width:1px;stroke-linecap:butt;stroke-linejoin:miter;stroke-opacity:1" d="M 107.212,41.4754 731.791,297.913 z" id="boundary" inkscape:connector-curvature="0" />
	<path style="fill:none;stroke:red;stroke-width:1px;stroke-linecap:butt;stroke-linejoin:miter;stroke-opacity:1" d="M 215.001,540.201 324.017,682.13 z" id="boundary" inkscape:connector-curvature="0" />
	<path style="fill:none;stroke:red;stroke-width:1px;stroke-linecap:butt;stroke-linejoin:miter;stroke-opacity:1" d="M 285.363,4 417.124,7.10817 z" id="boundary" inkscape:connector-curvature="0" />
	<path style="fill:none;stroke:red;stroke-width:1px;stroke-linecap:butt;stroke-linejoin:miter;stroke-opacity:1" d="M 324.017,682.13 420.717,739.124 z" id="boundary" inkscape:connector-curvature="0" />
	<path style="fill:none;stroke:red;stroke-width:1px;stroke-linecap:butt;stroke-linejoin:miter;stroke-opacity:1" d="M 403.654,247.016 479.482,282.237 z" id="boundary" inkscape:connector-curvature="0" />
	<path style="fill:none;stroke:red;stroke-width:1px;stroke-linecap:butt;stroke-linejoin:miter;stroke-opacity:1" d="M 417.124,7.10817 532.358,22.3291 z" id="boundary" inkscape:connector-curvature="0" />
	<path style="fill:none;stroke:red;stroke-width:1px;stroke-linecap:butt;stroke-linejoin:miter;stroke-opacity:1" d="M 420.717,739.124 530.626,729.688 z" id="boundary" inkscape:connector-curvature="0" />
	<path style="fill:none;stroke:red;stroke-width:1px;stroke-linecap:butt;stroke-linejoin:miter;stroke-opacity:1" d="M 530.626,729.688 646.752,681.281 z" id="boundary" inkscape:connector-curvature="0" />
	<path style="fill:none;stroke:red;stroke-width:1px;stroke-linecap:butt;stroke-linejoin:miter;stroke-opacity:1" d="M 646.752,681.281 819.83,577.514 z" id="boundary" inkscape:connector-curvature="0" />
	<path style="fill:none;stroke:red;stroke-width:1px;stroke-linecap:butt;stroke-linejoin:miter;stroke-opacity:1" d="M 731.791,297.913 806.83,256.781 z" id="boundary" inkscape:connector-curvature="0" />
	<path style="fill:none;stroke:red;stroke-width:1px;stroke-linecap:butt;stroke-linejoin:miter;stroke-opacity:1" d="M 806.83,256.781 852.12,206.924 z" id="boundary" inkscape:connector-curvature="0" />
	<path style="fill:none;stroke:red;stroke-width:1px;stroke-linecap:butt;stroke-linejoin:miter;stroke-opacity:1" d="M 819.83,577.514 957.589,450.765 z" id="boundary" inkscape:connector-curvature="0" />
	<path style="fill:none;stroke:red;stroke-width:1px;stroke-linecap:butt;stroke-linejoin:miter;stroke-opacity:1" d="M 852.12,206.924 983.109,212.481 z" id="boundary" inkscape:connector-curvature="0" />
	<path style="fill:none;stroke:red;stroke-width:1px;stroke-linecap:butt;stroke-linejoin:miter;stroke-opacity:1" d="M 957.589,450.765 996,348.691 z" id="boundary" inkscape:connector-curvature="0" />
	<path style="fill:none;stroke:red;stroke-width:1px;stroke-linecap:butt;stroke-linejoin:miter;stroke-opacity:1" d="M 983.109,212.481 996,348.691 z" id="boundary" inkscape:connector-curvature="0" />
	<circle cx="4" cy="168.716" r="4" fill="#0" id="circle0"/>
	<circle cx="14.9551" cy="88.2759" r="4" fill="#0" id="circle1"/>
	<circle cx="52.6255" cy="294.695" r="4" fill="#0" id="circle2"/>
	<circle cx="107.212" cy="41.4754" r="4" fill="#0" id="circle3"/>
	<circle cx="128.703" cy="425.851" r="4" fill="#0" id="circle4"/>
	<circle cx="215.001" cy="540.201" r="4" fill="#0" id="circle5"/>
	<circle cx="253.285" cy="329.927" r="4" fill="#0" id="circle6"/>
	<circle cx="268.837" cy="270.047" r="4" fill="#0" id="circle7"/>
	<circle cx="273.518" cy="386.14" r="4" fill="#0" id="circle8"/>
	<circle cx="285.363" cy="4" r="4" fill="#0" id="circle9"/>
	<circle cx="324.911" cy="246.025" r="4" fill="#0" id="circle10"/>
	<circle cx="324.017" cy="682.13" r="4" fill="#0" id="circle11"/>
	<circle cx="344.939" cy="416.988" r="4" fill="#0" id="circle12"/>
	<circle cx="403.654" cy="247.016" r="4" fill="#0" id="circle13"/>
	<circle cx="417.124" cy="7.10817" r="4" fill="#0" id="circle14"/>
	<circle cx="420.717" cy="739.124" r="4" fill="#0" id="circle15"/>
	<circle cx="438.705" cy="408.308" r="4" fill="#0" id="circle16"/>
	<circle cx="479.482" cy="282.237" r="4" fill="#0" id="circle17"/>
	<circle cx="489.909" cy="345.724" r="4" fill="#0" id="circle18"/>
	<circle cx="532.358" cy="22.3291" r="4" fill="#0" id="circle19"/>
	<circle cx="530.626" cy="729.688" r="4" fill="#0" id="circle20"/>
	<circle cx="599.44" cy="116.822" r="4" fill="#0" id="circle21"/>
	<circle cx="650.629" cy="226.255" r="4" fill="#0" id="circle22"/>
	<circle cx="646.752" cy="681.281" r="4" fill="#0" id="circle23"/>
	<circle cx="731.791" cy="297.913" r="4" fill="#0" id="circle24"/>
	<circle cx="806.83" cy="256.781" r="4" fill="#0" id="circle25"/>
	<circle cx="819.83" cy="577.514" r="4" fill="#0" id="circle26"/>
	<circle cx="852.12" cy="206.924" r="4" fill="#0" id="circle27"/>
	<circle cx="900.36" cy="161.372" r="4" fill="#0" id="circle28"/>
	<circle cx="955.967" cy="122.971" r="4" fill="#0" id="circle29"/>
	<circle cx="957.589" cy="450.765" r="4" fill="#0" id="circle30"/>
	<circle cx="983.109" cy="212.481" r="4" fill="#0" id="circle31"/>
	<circle cx="996" cy="348.691" r="4" fill="#0" id="circle32"/>
	</g>
</svg>