<?xml version="1.0" encoding="UTF-8" standalone="no"?>
<!-- Created with CurveBenchmark -->
<svg
	xmlns:dc="http://purl.org/dc/elements/1.1/"
	xmlns:cc="http://creativecommons.org/ns#"
	xmlns:rdf="http://www.w3.org/1999/02/22-rdf-syntax-ns#"
	xmlns:svg="http://www.w3.org/2000/svg"
	xmlns="http://www.w3.org/2000/svg"
	xmlns:sodipodi="http://sodipodi.sourceforge.net/DTD/sodipodi-0.dtd"
	xmlns:inkscape="http://www.inkscape.org/namespaces/inkscape"
	width="1000"
	height="1000"
	id="svg2"
	version="1.1"
	sodipodi:docname="noisy-0.003/fitconnect-mc13.txt">
<defs
	id="defs4" />
<metadata
	id="metadata7">
	<rdf:RDF>
		<cc:Work
			rdf:about="">
			<dc:format>image/svg+xml</dc:format>
			<dc:type
				rdf:resource="http://purl.org/dc/dcmitype/StillImage" />
			<dc:title></dc:title>
		</cc:Work>
	</rdf:RDF>
</metadata>
<g
	inkscape:label="Layer 1"
	inkscape:groupmode="layer"
	id="layer1">
	<path style="fill:none;stroke:red;stroke-width:1px;stroke-linecap:butt;stroke-linejoin:miter;stroke-opacity:1" d="M 121.933,143.36 152.301,44.1272 z" id="boundary" inkscape:connector-curvature="0" />
	<path style="fill:none;stroke:red;stroke-width:1px;stroke-linecap:butt;stroke-linejoin:miter;stroke-opacity:1" d="M 121.933,143.36 46.2975,115.679 z" id="boundary" inkscape:connector-curvature="0" />
	<path style="fill:none;stroke:red;stroke-width:1px;stroke-linecap:butt;stroke-linejoin:miter;stroke-opacity:1" d="M 152.301,44.1272 337.313,8.66856 z" id="boundary" inkscape:connector-curvature="0" />
	<path style="fill:none;stroke:red;stroke-width:1px;stroke-linecap:butt;stroke-linejoin:miter;stroke-opacity:1" d="M 337.313,8.66856 305.388,359.551 z" id="boundary" inkscape:connector-curvature="0" />
	<path style="fill:none;stroke:red;stroke-width:1px;stroke-linecap:butt;stroke-linejoin:miter;stroke-opacity:1" d="M 567.146,10.0275 155.186,348.216 z" id="boundary" inkscape:connector-curvature="0" />
	<path style="fill:none;stroke:red;stroke-width:1px;stroke-linecap:butt;stroke-linejoin:miter;stroke-opacity:1" d="M 567.146,10.0275 612.48,414.93 z" id="boundary" inkscape:connector-curvature="0" />
	<path style="fill:none;stroke:red;stroke-width:1px;stroke-linecap:butt;stroke-linejoin:miter;stroke-opacity:1" d="M 790.93,8.2307 944.938,25.7257 z" id="boundary" inkscape:connector-curvature="0" />
	<path style="fill:none;stroke:red;stroke-width:1px;stroke-linecap:butt;stroke-linejoin:miter;stroke-opacity:1" d="M 790.93,8.2307 748.544,377.991 z" id="boundary" inkscape:connector-curvature="0" />
	<path style="fill:none;stroke:red;stroke-width:1px;stroke-linecap:butt;stroke-linejoin:miter;stroke-opacity:1" d="M 944.938,25.7257 978.518,126.3 z" id="boundary" inkscape:connector-curvature="0" />
	<path style="fill:none;stroke:red;stroke-width:1px;stroke-linecap:butt;stroke-linejoin:miter;stroke-opacity:1" d="M 978.518,126.3 982.922,218.13 z" id="boundary" inkscape:connector-curvature="0" />
	<path style="fill:none;stroke:red;stroke-width:1px;stroke-linecap:butt;stroke-linejoin:miter;stroke-opacity:1" d="M 982.922,218.13 981.692,279.431 z" id="boundary" inkscape:connector-curvature="0" />
	<path style="fill:none;stroke:red;stroke-width:1px;stroke-linecap:butt;stroke-linejoin:miter;stroke-opacity:1" d="M 981.692,279.431 990.665,308.42 z" id="boundary" inkscape:connector-curvature="0" />
	<path style="fill:none;stroke:red;stroke-width:1px;stroke-linecap:butt;stroke-linejoin:miter;stroke-opacity:1" d="M 990.665,308.42 993.462,332.474 z" id="boundary" inkscape:connector-curvature="0" />
	<path style="fill:none;stroke:red;stroke-width:1px;stroke-linecap:butt;stroke-linejoin:miter;stroke-opacity:1" d="M 993.462,332.474 983.386,362.377 z" id="boundary" inkscape:connector-curvature="0" />
	<path style="fill:none;stroke:red;stroke-width:1px;stroke-linecap:butt;stroke-linejoin:miter;stroke-opacity:1" d="M 983.386,362.377 982.348,377.488 z" id="boundary" inkscape:connector-curvature="0" />
	<path style="fill:none;stroke:red;stroke-width:1px;stroke-linecap:butt;stroke-linejoin:miter;stroke-opacity:1" d="M 982.348,377.488 979.684,396.106 z" id="boundary" inkscape:connector-curvature="0" />
	<path style="fill:none;stroke:red;stroke-width:1px;stroke-linecap:butt;stroke-linejoin:miter;stroke-opacity:1" d="M 979.684,396.106 961.471,419.548 z" id="boundary" inkscape:connector-curvature="0" />
	<path style="fill:none;stroke:red;stroke-width:1px;stroke-linecap:butt;stroke-linejoin:miter;stroke-opacity:1" d="M 46.2975,115.679 19.3993,158.955 z" id="boundary" inkscape:connector-curvature="0" />
	<path style="fill:none;stroke:red;stroke-width:1px;stroke-linecap:butt;stroke-linejoin:miter;stroke-opacity:1" d="M 19.3993,158.955 11.6298,260.928 z" id="boundary" inkscape:connector-curvature="0" />
	<path style="fill:none;stroke:red;stroke-width:1px;stroke-linecap:butt;stroke-linejoin:miter;stroke-opacity:1" d="M 11.6298,260.928 9.79998,288.641 z" id="boundary" inkscape:connector-curvature="0" />
	<path style="fill:none;stroke:red;stroke-width:1px;stroke-linecap:butt;stroke-linejoin:miter;stroke-opacity:1" d="M 9.79998,288.641 11.7713,333.41 z" id="boundary" inkscape:connector-curvature="0" />
	<path style="fill:none;stroke:red;stroke-width:1px;stroke-linecap:butt;stroke-linejoin:miter;stroke-opacity:1" d="M 11.7713,333.41 8.47453,399.185 z" id="boundary" inkscape:connector-curvature="0" />
	<path style="fill:none;stroke:red;stroke-width:1px;stroke-linecap:butt;stroke-linejoin:miter;stroke-opacity:1" d="M 8.47453,399.185 34.097,417.968 z" id="boundary" inkscape:connector-curvature="0" />
	<path style="fill:none;stroke:red;stroke-width:1px;stroke-linecap:butt;stroke-linejoin:miter;stroke-opacity:1" d="M 34.097,417.968 67.6632,418.437 z" id="boundary" inkscape:connector-curvature="0" />
	<path style="fill:none;stroke:red;stroke-width:1px;stroke-linecap:butt;stroke-linejoin:miter;stroke-opacity:1" d="M 67.6632,418.437 101.073,415.944 z" id="boundary" inkscape:connector-curvature="0" />
	<path style="fill:none;stroke:red;stroke-width:1px;stroke-linecap:butt;stroke-linejoin:miter;stroke-opacity:1" d="M 101.073,415.944 113.806,405.301 z" id="boundary" inkscape:connector-curvature="0" />
	<path style="fill:none;stroke:red;stroke-width:1px;stroke-linecap:butt;stroke-linejoin:miter;stroke-opacity:1" d="M 113.806,405.301 123.637,387.495 z" id="boundary" inkscape:connector-curvature="0" />
	<path style="fill:none;stroke:red;stroke-width:1px;stroke-linecap:butt;stroke-linejoin:miter;stroke-opacity:1" d="M 123.637,387.495 155.186,348.216 z" id="boundary" inkscape:connector-curvature="0" />
	<path style="fill:none;stroke:red;stroke-width:1px;stroke-linecap:butt;stroke-linejoin:miter;stroke-opacity:1" d="M 305.388,359.551 338.87,409.188 z" id="boundary" inkscape:connector-curvature="0" />
	<path style="fill:none;stroke:red;stroke-width:1px;stroke-linecap:butt;stroke-linejoin:miter;stroke-opacity:1" d="M 338.87,409.188 368.429,419.678 z" id="boundary" inkscape:connector-curvature="0" />
	<path style="fill:none;stroke:red;stroke-width:1px;stroke-linecap:butt;stroke-linejoin:miter;stroke-opacity:1" d="M 368.429,419.678 408.307,414.874 z" id="boundary" inkscape:connector-curvature="0" />
	<path style="fill:none;stroke:red;stroke-width:1px;stroke-linecap:butt;stroke-linejoin:miter;stroke-opacity:1" d="M 408.307,414.874 428.06,417.997 z" id="boundary" inkscape:connector-curvature="0" />
	<path style="fill:none;stroke:red;stroke-width:1px;stroke-linecap:butt;stroke-linejoin:miter;stroke-opacity:1" d="M 428.06,417.997 445.232,414.752 z" id="boundary" inkscape:connector-curvature="0" />
	<path style="fill:none;stroke:red;stroke-width:1px;stroke-linecap:butt;stroke-linejoin:miter;stroke-opacity:1" d="M 445.232,414.752 463.455,413.655 z" id="boundary" inkscape:connector-curvature="0" />
	<path style="fill:none;stroke:red;stroke-width:1px;stroke-linecap:butt;stroke-linejoin:miter;stroke-opacity:1" d="M 463.455,413.655 485.766,415.965 z" id="boundary" inkscape:connector-curvature="0" />
	<path style="fill:none;stroke:red;stroke-width:1px;stroke-linecap:butt;stroke-linejoin:miter;stroke-opacity:1" d="M 485.766,415.965 504.326,416.504 z" id="boundary" inkscape:connector-curvature="0" />
	<path style="fill:none;stroke:red;stroke-width:1px;stroke-linecap:butt;stroke-linejoin:miter;stroke-opacity:1" d="M 504.326,416.504 523.413,414.048 z" id="boundary" inkscape:connector-curvature="0" />
	<path style="fill:none;stroke:red;stroke-width:1px;stroke-linecap:butt;stroke-linejoin:miter;stroke-opacity:1" d="M 523.413,414.048 612.48,414.93 z" id="boundary" inkscape:connector-curvature="0" />
	<path style="fill:none;stroke:red;stroke-width:1px;stroke-linecap:butt;stroke-linejoin:miter;stroke-opacity:1" d="M 748.544,377.991 850.903,372.165 z" id="boundary" inkscape:connector-curvature="0" />
	<path style="fill:none;stroke:red;stroke-width:1px;stroke-linecap:butt;stroke-linejoin:miter;stroke-opacity:1" d="M 850.903,372.165 907.824,371.011 z" id="boundary" inkscape:connector-curvature="0" />
	<path style="fill:none;stroke:red;stroke-width:1px;stroke-linecap:butt;stroke-linejoin:miter;stroke-opacity:1" d="M 907.824,371.011 927.012,397.424 z" id="boundary" inkscape:connector-curvature="0" />
	<path style="fill:none;stroke:red;stroke-width:1px;stroke-linecap:butt;stroke-linejoin:miter;stroke-opacity:1" d="M 927.012,397.424 944.809,415.708 z" id="boundary" inkscape:connector-curvature="0" />
	<path style="fill:none;stroke:red;stroke-width:1px;stroke-linecap:butt;stroke-linejoin:miter;stroke-opacity:1" d="M 944.809,415.708 961.471,419.548 z" id="boundary" inkscape:connector-curvature="0" />
	<circle cx="146.919" cy="146.548" r="4" fill="#0" id="circle0"/>
	<circle cx="131.121" cy="142.937" r="4" fill="#0" id="circle1"/>
	<circle cx="131.304" cy="138.722" r="4" fill="#0" id="circle2"/>
	<circle cx="141.076" cy="127.976" r="4" fill="#0" id="circle3"/>
	<circle cx="145.488" cy="121.272" r="4" fill="#0" id="circle4"/>
	<circle cx="146.223" cy="112.706" r="4" fill="#0" id="circle5"/>
	<circle cx="152" cy="107.387" r="4" fill="#0" id="circle6"/>
	<circle cx="152.261" cy="96.7116" r="4" fill="#0" id="circle7"/>
	<circle cx="158.339" cy="90.9191" r="4" fill="#0" id="circle8"/>
	<circle cx="164.551" cy="84.5566" r="4" fill="#0" id="circle9"/>
	<circle cx="168.389" cy="79.8274" r="4" fill="#0" id="circle10"/>
	<circle cx="172.662" cy="68.1314" r="4" fill="#0" id="circle11"/>
	<circle cx="175.568" cy="63.6542" r="4" fill="#0" id="circle12"/>
	<circle cx="179.783" cy="59.4723" r="4" fill="#0" id="circle13"/>
	<circle cx="177.22" cy="50.6847" r="4" fill="#0" id="circle14"/>
	<circle cx="151.047" cy="135.602" r="4" fill="#0" id="circle15"/>
	<circle cx="154.446" cy="128.994" r="4" fill="#0" id="circle16"/>
	<circle cx="159.338" cy="119.442" r="4" fill="#0" id="circle17"/>
	<circle cx="163.296" cy="109.482" r="4" fill="#0" id="circle18"/>
	<circle cx="167.621" cy="102.696" r="4" fill="#0" id="circle19"/>
	<circle cx="170.155" cy="96.6428" r="4" fill="#0" id="circle20"/>
	<circle cx="174.001" cy="86.7665" r="4" fill="#0" id="circle21"/>
	<circle cx="179.805" cy="82.1533" r="4" fill="#0" id="circle22"/>
	<circle cx="178.45" cy="74.4648" r="4" fill="#0" id="circle23"/>
	<circle cx="187.242" cy="68.2075" r="4" fill="#0" id="circle24"/>
	<circle cx="188.347" cy="65.6811" r="4" fill="#0" id="circle25"/>
	<circle cx="193.527" cy="52.8725" r="4" fill="#0" id="circle26"/>
	<circle cx="194.085" cy="47.823" r="4" fill="#0" id="circle27"/>
	<circle cx="210.517" cy="49.9399" r="4" fill="#0" id="circle28"/>
	<circle cx="217.077" cy="49.6627" r="4" fill="#0" id="circle29"/>
	<circle cx="226.573" cy="43.821" r="4" fill="#0" id="circle30"/>
	<circle cx="230.382" cy="44.5916" r="4" fill="#0" id="circle31"/>
	<circle cx="245.587" cy="46.5945" r="4" fill="#0" id="circle32"/>
	<circle cx="256.003" cy="45.1752" r="4" fill="#0" id="circle33"/>
	<circle cx="266.233" cy="46.7812" r="4" fill="#0" id="circle34"/>
	<circle cx="276.215" cy="50.8263" r="4" fill="#0" id="circle35"/>
	<circle cx="291.975" cy="45.0811" r="4" fill="#0" id="circle36"/>
	<circle cx="298.905" cy="46.4386" r="4" fill="#0" id="circle37"/>
	<circle cx="316.201" cy="46.3254" r="4" fill="#0" id="circle38"/>
	<circle cx="323.005" cy="48.8003" r="4" fill="#0" id="circle39"/>
	<circle cx="332.801" cy="50.0109" r="4" fill="#0" id="circle40"/>
	<circle cx="346.52" cy="45.4143" r="4" fill="#0" id="circle41"/>
	<circle cx="355.13" cy="51.984" r="4" fill="#0" id="circle42"/>
	<circle cx="364.045" cy="56.443" r="4" fill="#0" id="circle43"/>
	<circle cx="365.285" cy="65.8566" r="4" fill="#0" id="circle44"/>
	<circle cx="359.363" cy="78.6122" r="4" fill="#0" id="circle45"/>
	<circle cx="361.288" cy="87.9883" r="4" fill="#0" id="circle46"/>
	<circle cx="362.69" cy="96.6615" r="4" fill="#0" id="circle47"/>
	<circle cx="362.955" cy="105.448" r="4" fill="#0" id="circle48"/>
	<circle cx="363.136" cy="114.932" r="4" fill="#0" id="circle49"/>
	<circle cx="362.414" cy="129.511" r="4" fill="#0" id="circle50"/>
	<circle cx="359.403" cy="138.112" r="4" fill="#0" id="circle51"/>
	<circle cx="158.45" cy="143.416" r="4" fill="#0" id="circle52"/>
	<circle cx="168.409" cy="146.306" r="4" fill="#0" id="circle53"/>
	<circle cx="180.672" cy="148.288" r="4" fill="#0" id="circle54"/>
	<circle cx="194.756" cy="148.118" r="4" fill="#0" id="circle55"/>
	<circle cx="212.094" cy="147.631" r="4" fill="#0" id="circle56"/>
	<circle cx="229.931" cy="147.309" r="4" fill="#0" id="circle57"/>
	<circle cx="239.681" cy="146.406" r="4" fill="#0" id="circle58"/>
	<circle cx="257.326" cy="144.26" r="4" fill="#0" id="circle59"/>
	<circle cx="270.889" cy="147.265" r="4" fill="#0" id="circle60"/>
	<circle cx="282.51" cy="143.181" r="4" fill="#0" id="circle61"/>
	<circle cx="296.537" cy="142.058" r="4" fill="#0" id="circle62"/>
	<circle cx="312.615" cy="145.61" r="4" fill="#0" id="circle63"/>
	<circle cx="325.33" cy="145.703" r="4" fill="#0" id="circle64"/>
	<circle cx="338.366" cy="146.581" r="4" fill="#0" id="circle65"/>
	<circle cx="351.653" cy="147.514" r="4" fill="#0" id="circle66"/>
	<circle cx="65.4637" cy="143.364" r="4" fill="#0" id="circle67"/>
	<circle cx="73.72" cy="144.99" r="4" fill="#0" id="circle68"/>
	<circle cx="81.5545" cy="145.301" r="4" fill="#0" id="circle69"/>
	<circle cx="94.2557" cy="142.971" r="4" fill="#0" id="circle70"/>
	<circle cx="105.512" cy="145.73" r="4" fill="#0" id="circle71"/>
	<circle cx="115.83" cy="146.531" r="4" fill="#0" id="circle72"/>
	<circle cx="121.933" cy="143.36" r="4" fill="#0" id="circle73"/>
	<circle cx="66.26" cy="133.766" r="4" fill="#0" id="circle74"/>
	<circle cx="73.4428" cy="128.03" r="4" fill="#0" id="circle75"/>
	<circle cx="82.0091" cy="123.969" r="4" fill="#0" id="circle76"/>
	<circle cx="83.3039" cy="115.24" r="4" fill="#0" id="circle77"/>
	<circle cx="92.2647" cy="105.333" r="4" fill="#0" id="circle78"/>
	<circle cx="97.8277" cy="93.2913" r="4" fill="#0" id="circle79"/>
	<circle cx="104.18" cy="83.6" r="4" fill="#0" id="circle80"/>
	<circle cx="114.609" cy="74.3127" r="4" fill="#0" id="circle81"/>
	<circle cx="113.558" cy="63.9094" r="4" fill="#0" id="circle82"/>
	<circle cx="121.339" cy="56.3339" r="4" fill="#0" id="circle83"/>
	<circle cx="128.728" cy="52.752" r="4" fill="#0" id="circle84"/>
	<circle cx="138.641" cy="51.624" r="4" fill="#0" id="circle85"/>
	<circle cx="152.301" cy="44.1272" r="4" fill="#0" id="circle86"/>
	<circle cx="159.619" cy="48.9078" r="4" fill="#0" id="circle87"/>
	<circle cx="172.496" cy="45.5268" r="4" fill="#0" id="circle88"/>
	<circle cx="408.141" cy="46.8134" r="4" fill="#0" id="circle89"/>
	<circle cx="402.613" cy="57.6268" r="4" fill="#0" id="circle90"/>
	<circle cx="397.153" cy="70.3946" r="4" fill="#0" id="circle91"/>
	<circle cx="396.458" cy="87.8222" r="4" fill="#0" id="circle92"/>
	<circle cx="396.456" cy="99.7552" r="4" fill="#0" id="circle93"/>
	<circle cx="396.903" cy="118.451" r="4" fill="#0" id="circle94"/>
	<circle cx="397.169" cy="132.323" r="4" fill="#0" id="circle95"/>
	<circle cx="405.163" cy="144.028" r="4" fill="#0" id="circle96"/>
	<circle cx="419.852" cy="144.273" r="4" fill="#0" id="circle97"/>
	<circle cx="429.873" cy="143.13" r="4" fill="#0" id="circle98"/>
	<circle cx="445.781" cy="145.758" r="4" fill="#0" id="circle99"/>
	<circle cx="460.254" cy="146.32" r="4" fill="#0" id="circle100"/>
	<circle cx="476.909" cy="144.776" r="4" fill="#0" id="circle101"/>
	<circle cx="495.608" cy="147.907" r="4" fill="#0" id="circle102"/>
	<circle cx="511.98" cy="145.765" r="4" fill="#0" id="circle103"/>
	<circle cx="520.449" cy="150.612" r="4" fill="#0" id="circle104"/>
	<circle cx="536.134" cy="139.407" r="4" fill="#0" id="circle105"/>
	<circle cx="535.254" cy="61.7289" r="4" fill="#0" id="circle106"/>
	<circle cx="535.807" cy="77.3304" r="4" fill="#0" id="circle107"/>
	<circle cx="538.2" cy="92.0258" r="4" fill="#0" id="circle108"/>
	<circle cx="539.839" cy="102.576" r="4" fill="#0" id="circle109"/>
	<circle cx="539.887" cy="117.615" r="4" fill="#0" id="circle110"/>
	<circle cx="427.907" cy="43.8157" r="4" fill="#0" id="circle111"/>
	<circle cx="442.527" cy="47.564" r="4" fill="#0" id="circle112"/>
	<circle cx="449.804" cy="50.35" r="4" fill="#0" id="circle113"/>
	<circle cx="469.586" cy="47.2651" r="4" fill="#0" id="circle114"/>
	<circle cx="479.677" cy="48.1767" r="4" fill="#0" id="circle115"/>
	<circle cx="497.736" cy="47.6436" r="4" fill="#0" id="circle116"/>
	<circle cx="512.26" cy="52.0688" r="4" fill="#0" id="circle117"/>
	<circle cx="525.971" cy="49.2476" r="4" fill="#0" id="circle118"/>
	<circle cx="570.316" cy="54.6256" r="4" fill="#0" id="circle119"/>
	<circle cx="583.457" cy="48.9809" r="4" fill="#0" id="circle120"/>
	<circle cx="594.806" cy="50.1266" r="4" fill="#0" id="circle121"/>
	<circle cx="603.429" cy="50.9145" r="4" fill="#0" id="circle122"/>
	<circle cx="618.155" cy="52.8369" r="4" fill="#0" id="circle123"/>
	<circle cx="632.628" cy="48.6201" r="4" fill="#0" id="circle124"/>
	<circle cx="645.1" cy="48.9956" r="4" fill="#0" id="circle125"/>
	<circle cx="662.36" cy="51.9116" r="4" fill="#0" id="circle126"/>
	<circle cx="678.86" cy="47.0423" r="4" fill="#0" id="circle127"/>
	<circle cx="688.181" cy="53.0071" r="4" fill="#0" id="circle128"/>
	<circle cx="694.181" cy="65.9438" r="4" fill="#0" id="circle129"/>
	<circle cx="694.03" cy="74.9624" r="4" fill="#0" id="circle130"/>
	<circle cx="695.753" cy="88.8283" r="4" fill="#0" id="circle131"/>
	<circle cx="696.53" cy="101.034" r="4" fill="#0" id="circle132"/>
	<circle cx="700.302" cy="111.107" r="4" fill="#0" id="circle133"/>
	<circle cx="696.551" cy="126.255" r="4" fill="#0" id="circle134"/>
	<circle cx="698.231" cy="136.655" r="4" fill="#0" id="circle135"/>
	<circle cx="683.11" cy="143.248" r="4" fill="#0" id="circle136"/>
	<circle cx="579.472" cy="147.228" r="4" fill="#0" id="circle137"/>
	<circle cx="593.925" cy="147.231" r="4" fill="#0" id="circle138"/>
	<circle cx="609.932" cy="147.865" r="4" fill="#0" id="circle139"/>
	<circle cx="618.853" cy="149.064" r="4" fill="#0" id="circle140"/>
	<circle cx="632.998" cy="145.943" r="4" fill="#0" id="circle141"/>
	<circle cx="649.237" cy="145.267" r="4" fill="#0" id="circle142"/>
	<circle cx="658.423" cy="142.161" r="4" fill="#0" id="circle143"/>
	<circle cx="672.806" cy="144.587" r="4" fill="#0" id="circle144"/>
	<circle cx="568.838" cy="61.8207" r="4" fill="#0" id="circle145"/>
	<circle cx="565.126" cy="73.3758" r="4" fill="#0" id="circle146"/>
	<circle cx="560.516" cy="84.5864" r="4" fill="#0" id="circle147"/>
	<circle cx="562.049" cy="105.34" r="4" fill="#0" id="circle148"/>
	<circle cx="562.488" cy="115.248" r="4" fill="#0" id="circle149"/>
	<circle cx="565.683" cy="125.075" r="4" fill="#0" id="circle150"/>
	<circle cx="564.773" cy="135.378" r="4" fill="#0" id="circle151"/>
	<circle cx="724.032" cy="53.4326" r="4" fill="#0" id="circle152"/>
	<circle cx="726.19" cy="70.5342" r="4" fill="#0" id="circle153"/>
	<circle cx="720.663" cy="81.2525" r="4" fill="#0" id="circle154"/>
	<circle cx="724.254" cy="93.1029" r="4" fill="#0" id="circle155"/>
	<circle cx="725.056" cy="106.798" r="4" fill="#0" id="circle156"/>
	<circle cx="727.087" cy="114.371" r="4" fill="#0" id="circle157"/>
	<circle cx="723.565" cy="130.005" r="4" fill="#0" id="circle158"/>
	<circle cx="730.429" cy="138.844" r="4" fill="#0" id="circle159"/>
	<circle cx="741.04" cy="143.415" r="4" fill="#0" id="circle160"/>
	<circle cx="760.444" cy="149.679" r="4" fill="#0" id="circle161"/>
	<circle cx="770.507" cy="150.327" r="4" fill="#0" id="circle162"/>
	<circle cx="783.94" cy="147.777" r="4" fill="#0" id="circle163"/>
	<circle cx="792.843" cy="144.099" r="4" fill="#0" id="circle164"/>
	<circle cx="802.221" cy="146.093" r="4" fill="#0" id="circle165"/>
	<circle cx="815.818" cy="144.831" r="4" fill="#0" id="circle166"/>
	<circle cx="830.136" cy="145.92" r="4" fill="#0" id="circle167"/>
	<circle cx="841.905" cy="142.825" r="4" fill="#0" id="circle168"/>
	<circle cx="739.485" cy="51.4334" r="4" fill="#0" id="circle169"/>
	<circle cx="754.555" cy="50.6122" r="4" fill="#0" id="circle170"/>
	<circle cx="768.98" cy="45.9029" r="4" fill="#0" id="circle171"/>
	<circle cx="781.479" cy="48.2133" r="4" fill="#0" id="circle172"/>
	<circle cx="798.863" cy="50.4925" r="4" fill="#0" id="circle173"/>
	<circle cx="809.36" cy="45.064" r="4" fill="#0" id="circle174"/>
	<circle cx="819.468" cy="50.3808" r="4" fill="#0" id="circle175"/>
	<circle cx="832.12" cy="47.1862" r="4" fill="#0" id="circle176"/>
	<circle cx="844.337" cy="59.1603" r="4" fill="#0" id="circle177"/>
	<circle cx="843.811" cy="67.2597" r="4" fill="#0" id="circle178"/>
	<circle cx="846.162" cy="81.0634" r="4" fill="#0" id="circle179"/>
	<circle cx="845.906" cy="91.7825" r="4" fill="#0" id="circle180"/>
	<circle cx="844.153" cy="105.122" r="4" fill="#0" id="circle181"/>
	<circle cx="847.922" cy="123.749" r="4" fill="#0" id="circle182"/>
	<circle cx="846.821" cy="134.872" r="4" fill="#0" id="circle183"/>
	<circle cx="92.4377" cy="50.9228" r="4" fill="#0" id="circle184"/>
	<circle cx="84.9165" cy="45.1514" r="4" fill="#0" id="circle185"/>
	<circle cx="94.1121" cy="36.899" r="4" fill="#0" id="circle186"/>
	<circle cx="102.829" cy="23.8661" r="4" fill="#0" id="circle187"/>
	<circle cx="122.146" cy="23.0606" r="4" fill="#0" id="circle188"/>
	<circle cx="137.663" cy="12.085" r="4" fill="#0" id="circle189"/>
	<circle cx="162.115" cy="11.8144" r="4" fill="#0" id="circle190"/>
	<circle cx="175.279" cy="9.13818" r="4" fill="#0" id="circle191"/>
	<circle cx="203.51" cy="11.6549" r="4" fill="#0" id="circle192"/>
	<circle cx="221.527" cy="14.1007" r="4" fill="#0" id="circle193"/>
	<circle cx="252.725" cy="12.2406" r="4" fill="#0" id="circle194"/>
	<circle cx="272.642" cy="9.46509" r="4" fill="#0" id="circle195"/>
	<circle cx="291.605" cy="11.8367" r="4" fill="#0" id="circle196"/>
	<circle cx="314.668" cy="12.3406" r="4" fill="#0" id="circle197"/>
	<circle cx="337.313" cy="8.66856" r="4" fill="#0" id="circle198"/>
	<circle cx="356.013" cy="10.8462" r="4" fill="#0" id="circle199"/>
	<circle cx="382.94" cy="9.89947" r="4" fill="#0" id="circle200"/>
	<circle cx="399.179" cy="10.284" r="4" fill="#0" id="circle201"/>
	<circle cx="422.312" cy="8.33411" r="4" fill="#0" id="circle202"/>
	<circle cx="446.412" cy="4.94315" r="4" fill="#0" id="circle203"/>
	<circle cx="470.563" cy="9.57059" r="4" fill="#0" id="circle204"/>
	<circle cx="497.997" cy="7.27955" r="4" fill="#0" id="circle205"/>
	<circle cx="520.166" cy="6.82608" r="4" fill="#0" id="circle206"/>
	<circle cx="541.843" cy="5.32237" r="4" fill="#0" id="circle207"/>
	<circle cx="567.146" cy="10.0275" r="4" fill="#0" id="circle208"/>
	<circle cx="587.921" cy="9.57169" r="4" fill="#0" id="circle209"/>
	<circle cx="620.067" cy="11.233" r="4" fill="#0" id="circle210"/>
	<circle cx="644.116" cy="8.79168" r="4" fill="#0" id="circle211"/>
	<circle cx="670.378" cy="4" r="4" fill="#0" id="circle212"/>
	<circle cx="690.669" cy="4.4079" r="4" fill="#0" id="circle213"/>
	<circle cx="712.891" cy="9.41947" r="4" fill="#0" id="circle214"/>
	<circle cx="741.747" cy="5.6542" r="4" fill="#0" id="circle215"/>
	<circle cx="762.614" cy="4.27147" r="4" fill="#0" id="circle216"/>
	<circle cx="790.93" cy="8.2307" r="4" fill="#0" id="circle217"/>
	<circle cx="810.836" cy="5.71113" r="4" fill="#0" id="circle218"/>
	<circle cx="829.591" cy="4.30061" r="4" fill="#0" id="circle219"/>
	<circle cx="844.46" cy="4.01187" r="4" fill="#0" id="circle220"/>
	<circle cx="865.382" cy="8.08133" r="4" fill="#0" id="circle221"/>
	<circle cx="884.847" cy="11.9116" r="4" fill="#0" id="circle222"/>
	<circle cx="908.631" cy="16.2638" r="4" fill="#0" id="circle223"/>
	<circle cx="925.886" cy="19.7716" r="4" fill="#0" id="circle224"/>
	<circle cx="944.938" cy="25.7257" r="4" fill="#0" id="circle225"/>
	<circle cx="963.242" cy="30.4323" r="4" fill="#0" id="circle226"/>
	<circle cx="976.859" cy="36.2288" r="4" fill="#0" id="circle227"/>
	<circle cx="969.065" cy="43.8663" r="4" fill="#0" id="circle228"/>
	<circle cx="973.249" cy="50.2119" r="4" fill="#0" id="circle229"/>
	<circle cx="976.43" cy="65.0641" r="4" fill="#0" id="circle230"/>
	<circle cx="976.353" cy="80.3932" r="4" fill="#0" id="circle231"/>
	<circle cx="978.709" cy="92.4664" r="4" fill="#0" id="circle232"/>
	<circle cx="979.436" cy="96.1665" r="4" fill="#0" id="circle233"/>
	<circle cx="977.875" cy="109.586" r="4" fill="#0" id="circle234"/>
	<circle cx="978.518" cy="126.3" r="4" fill="#0" id="circle235"/>
	<circle cx="980.535" cy="136.376" r="4" fill="#0" id="circle236"/>
	<circle cx="977.704" cy="148.765" r="4" fill="#0" id="circle237"/>
	<circle cx="983.903" cy="162.01" r="4" fill="#0" id="circle238"/>
	<circle cx="988.519" cy="167.912" r="4" fill="#0" id="circle239"/>
	<circle cx="984.69" cy="179.456" r="4" fill="#0" id="circle240"/>
	<circle cx="981.39" cy="189.889" r="4" fill="#0" id="circle241"/>
	<circle cx="986.9" cy="204.621" r="4" fill="#0" id="circle242"/>
	<circle cx="982.922" cy="218.13" r="4" fill="#0" id="circle243"/>
	<circle cx="980.668" cy="227.429" r="4" fill="#0" id="circle244"/>
	<circle cx="983.721" cy="248.939" r="4" fill="#0" id="circle245"/>
	<circle cx="981.602" cy="259.623" r="4" fill="#0" id="circle246"/>
	<circle cx="981.692" cy="279.431" r="4" fill="#0" id="circle247"/>
	<circle cx="988.284" cy="287.321" r="4" fill="#0" id="circle248"/>
	<circle cx="996" cy="297.404" r="4" fill="#0" id="circle249"/>
	<circle cx="990.665" cy="308.42" r="4" fill="#0" id="circle250"/>
	<circle cx="991.192" cy="323.664" r="4" fill="#0" id="circle251"/>
	<circle cx="993.462" cy="332.474" r="4" fill="#0" id="circle252"/>
	<circle cx="981.315" cy="339.558" r="4" fill="#0" id="circle253"/>
	<circle cx="980.13" cy="349.204" r="4" fill="#0" id="circle254"/>
	<circle cx="983.386" cy="362.377" r="4" fill="#0" id="circle255"/>
	<circle cx="982.348" cy="377.488" r="4" fill="#0" id="circle256"/>
	<circle cx="979.684" cy="396.106" r="4" fill="#0" id="circle257"/>
	<circle cx="971.769" cy="407.651" r="4" fill="#0" id="circle258"/>
	<circle cx="85.4535" cy="59.3772" r="4" fill="#0" id="circle259"/>
	<circle cx="79.3909" cy="67.9115" r="4" fill="#0" id="circle260"/>
	<circle cx="68.5038" cy="83.3434" r="4" fill="#0" id="circle261"/>
	<circle cx="60.8168" cy="91.744" r="4" fill="#0" id="circle262"/>
	<circle cx="55.2667" cy="101.763" r="4" fill="#0" id="circle263"/>
	<circle cx="46.2975" cy="115.679" r="4" fill="#0" id="circle264"/>
	<circle cx="43.535" cy="128.02" r="4" fill="#0" id="circle265"/>
	<circle cx="35.1248" cy="140.939" r="4" fill="#0" id="circle266"/>
	<circle cx="25.9606" cy="147.56" r="4" fill="#0" id="circle267"/>
	<circle cx="19.3993" cy="158.955" r="4" fill="#0" id="circle268"/>
	<circle cx="11.2494" cy="166.366" r="4" fill="#0" id="circle269"/>
	<circle cx="4" cy="179.284" r="4" fill="#0" id="circle270"/>
	<circle cx="5.38592" cy="195.62" r="4" fill="#0" id="circle271"/>
	<circle cx="9.16701" cy="207.477" r="4" fill="#0" id="circle272"/>
	<circle cx="11.4136" cy="217.489" r="4" fill="#0" id="circle273"/>
	<circle cx="10.5659" cy="230.644" r="4" fill="#0" id="circle274"/>
	<circle cx="15.2001" cy="245.962" r="4" fill="#0" id="circle275"/>
	<circle cx="11.6298" cy="260.928" r="4" fill="#0" id="circle276"/>
	<circle cx="8.66262" cy="275.94" r="4" fill="#0" id="circle277"/>
	<circle cx="9.79998" cy="288.641" r="4" fill="#0" id="circle278"/>
	<circle cx="11.9673" cy="304.048" r="4" fill="#0" id="circle279"/>
	<circle cx="10.2936" cy="320.255" r="4" fill="#0" id="circle280"/>
	<circle cx="11.7713" cy="333.41" r="4" fill="#0" id="circle281"/>
	<circle cx="8.19073" cy="351.994" r="4" fill="#0" id="circle282"/>
	<circle cx="8.13307" cy="368.496" r="4" fill="#0" id="circle283"/>
	<circle cx="6.79022" cy="377.091" r="4" fill="#0" id="circle284"/>
	<circle cx="8.47453" cy="399.185" r="4" fill="#0" id="circle285"/>
	<circle cx="7.7592" cy="412.995" r="4" fill="#0" id="circle286"/>
	<circle cx="25.6067" cy="422.497" r="4" fill="#0" id="circle287"/>
	<circle cx="34.097" cy="417.968" r="4" fill="#0" id="circle288"/>
	<circle cx="47.5492" cy="420.933" r="4" fill="#0" id="circle289"/>
	<circle cx="67.6632" cy="418.437" r="4" fill="#0" id="circle290"/>
	<circle cx="83.5514" cy="417.804" r="4" fill="#0" id="circle291"/>
	<circle cx="101.073" cy="415.944" r="4" fill="#0" id="circle292"/>
	<circle cx="113.806" cy="405.301" r="4" fill="#0" id="circle293"/>
	<circle cx="123.637" cy="387.495" r="4" fill="#0" id="circle294"/>
	<circle cx="123.985" cy="371.403" r="4" fill="#0" id="circle295"/>
	<circle cx="133.5" cy="355.042" r="4" fill="#0" id="circle296"/>
	<circle cx="155.186" cy="348.216" r="4" fill="#0" id="circle297"/>
	<circle cx="170.544" cy="337.137" r="4" fill="#0" id="circle298"/>
	<circle cx="181.867" cy="334.35" r="4" fill="#0" id="circle299"/>
	<circle cx="199.965" cy="327.786" r="4" fill="#0" id="circle300"/>
	<circle cx="217.887" cy="331.398" r="4" fill="#0" id="circle301"/>
	<circle cx="232.58" cy="331.429" r="4" fill="#0" id="circle302"/>
	<circle cx="247.341" cy="334.779" r="4" fill="#0" id="circle303"/>
	<circle cx="264.435" cy="334.701" r="4" fill="#0" id="circle304"/>
	<circle cx="281.49" cy="335.161" r="4" fill="#0" id="circle305"/>
	<circle cx="295.457" cy="345.239" r="4" fill="#0" id="circle306"/>
	<circle cx="305.388" cy="359.551" r="4" fill="#0" id="circle307"/>
	<circle cx="319.668" cy="372.112" r="4" fill="#0" id="circle308"/>
	<circle cx="321.953" cy="384.734" r="4" fill="#0" id="circle309"/>
	<circle cx="327.822" cy="399.866" r="4" fill="#0" id="circle310"/>
	<circle cx="338.87" cy="409.188" r="4" fill="#0" id="circle311"/>
	<circle cx="347.746" cy="420.33" r="4" fill="#0" id="circle312"/>
	<circle cx="368.429" cy="419.678" r="4" fill="#0" id="circle313"/>
	<circle cx="381.627" cy="414.935" r="4" fill="#0" id="circle314"/>
	<circle cx="392.97" cy="415.92" r="4" fill="#0" id="circle315"/>
	<circle cx="408.307" cy="414.874" r="4" fill="#0" id="circle316"/>
	<circle cx="428.06" cy="417.997" r="4" fill="#0" id="circle317"/>
	<circle cx="445.232" cy="414.752" r="4" fill="#0" id="circle318"/>
	<circle cx="463.455" cy="413.655" r="4" fill="#0" id="circle319"/>
	<circle cx="485.766" cy="415.965" r="4" fill="#0" id="circle320"/>
	<circle cx="504.326" cy="416.504" r="4" fill="#0" id="circle321"/>
	<circle cx="523.413" cy="414.048" r="4" fill="#0" id="circle322"/>
	<circle cx="551.399" cy="419.124" r="4" fill="#0" id="circle323"/>
	<circle cx="570.597" cy="420.094" r="4" fill="#0" id="circle324"/>
	<circle cx="592.336" cy="416.87" r="4" fill="#0" id="circle325"/>
	<circle cx="612.48" cy="414.93" r="4" fill="#0" id="circle326"/>
	<circle cx="640.17" cy="420.074" r="4" fill="#0" id="circle327"/>
	<circle cx="661.497" cy="422.606" r="4" fill="#0" id="circle328"/>
	<circle cx="679.761" cy="419.747" r="4" fill="#0" id="circle329"/>
	<circle cx="700.153" cy="419.416" r="4" fill="#0" id="circle330"/>
	<circle cx="709.018" cy="419.781" r="4" fill="#0" id="circle331"/>
	<circle cx="720.141" cy="408.994" r="4" fill="#0" id="circle332"/>
	<circle cx="729.317" cy="393.468" r="4" fill="#0" id="circle333"/>
	<circle cx="732.461" cy="386.889" r="4" fill="#0" id="circle334"/>
	<circle cx="748.544" cy="377.991" r="4" fill="#0" id="circle335"/>
	<circle cx="770.171" cy="369.187" r="4" fill="#0" id="circle336"/>
	<circle cx="795.155" cy="370.495" r="4" fill="#0" id="circle337"/>
	<circle cx="829.737" cy="367.52" r="4" fill="#0" id="circle338"/>
	<circle cx="850.903" cy="372.165" r="4" fill="#0" id="circle339"/>
	<circle cx="874.531" cy="370.613" r="4" fill="#0" id="circle340"/>
	<circle cx="885.682" cy="367.533" r="4" fill="#0" id="circle341"/>
	<circle cx="907.824" cy="371.011" r="4" fill="#0" id="circle342"/>
	<circle cx="918.982" cy="387.199" r="4" fill="#0" id="circle343"/>
	<circle cx="927.012" cy="397.424" r="4" fill="#0" id="circle344"/>
	<circle cx="933.905" cy="412.71" r="4" fill="#0" id="circle345"/>
	<circle cx="944.809" cy="415.708" r="4" fill="#0" id="circle346"/>
	<circle cx="961.471" cy="419.548" r="4" fill="#0" id="circle347"/>
	</g>
</svg>