<?xml version="1.0" encoding="UTF-8" standalone="no"?>
<!-- Created with CurveBenchmark -->
<svg
	xmlns:dc="http://purl.org/dc/elements/1.1/"
	xmlns:cc="http://creativecommons.org/ns#"
	xmlns:rdf="http://www.w3.org/1999/02/22-rdf-syntax-ns#"
	xmlns:svg="http://www.w3.org/2000/svg"
	xmlns="http://www.w3.org/2000/svg"
	xmlns:sodipodi="http://sodipodi.sourceforge.net/DTD/sodipodi-0.dtd"
	xmlns:inkscape="http://www.inkscape.org/namespaces/inkscape"
	width="1000"
	height="1000"
	id="svg2"
	version="1.1"
	sodipodi:docname="noisy-0.003/peel-mc5.txt">
<defs
	id="defs4" />
<metadata
	id="metadata7">
	<rdf:RDF>
		<cc:Work
			rdf:about="">
			<dc:format>image/svg+xml</dc:format>
			<dc:type
				rdf:resource="http://purl.org/dc/dcmitype/StillImage" />
			<dc:title></dc:title>
		</cc:Work>
	</rdf:RDF>
</metadata>
<g
	inkscape:label="Layer 1"
	inkscape:groupmode="layer"
	id="layer1">
	<path style="fill:none;stroke:red;stroke-width:1px;stroke-linecap:butt;stroke-linejoin:miter;stroke-opacity:1" d="M 141.775,376.351 171.868,365.234 z" id="boundary" inkscape:connector-curvature="0" />
	<path style="fill:none;stroke:red;stroke-width:1px;stroke-linecap:butt;stroke-linejoin:miter;stroke-opacity:1" d="M 250.444,418.316 245.385,388.966 z" id="boundary" inkscape:connector-curvature="0" />
	<path style="fill:none;stroke:red;stroke-width:1px;stroke-linecap:butt;stroke-linejoin:miter;stroke-opacity:1" d="M 250.444,418.316 257.613,445.515 z" id="boundary" inkscape:connector-curvature="0" />
	<path style="fill:none;stroke:red;stroke-width:1px;stroke-linecap:butt;stroke-linejoin:miter;stroke-opacity:1" d="M 121.16,243.169 84.165,261.184 z" id="boundary" inkscape:connector-curvature="0" />
	<path style="fill:none;stroke:red;stroke-width:1px;stroke-linecap:butt;stroke-linejoin:miter;stroke-opacity:1" d="M 200.704,222.461 161.153,233.645 z" id="boundary" inkscape:connector-curvature="0" />
	<path style="fill:none;stroke:red;stroke-width:1px;stroke-linecap:butt;stroke-linejoin:miter;stroke-opacity:1" d="M 171.868,365.234 210.984,366.588 z" id="boundary" inkscape:connector-curvature="0" />
	<path style="fill:none;stroke:red;stroke-width:1px;stroke-linecap:butt;stroke-linejoin:miter;stroke-opacity:1" d="M 141.775,376.351 129.568,413.004 z" id="boundary" inkscape:connector-curvature="0" />
	<path style="fill:none;stroke:red;stroke-width:1px;stroke-linecap:butt;stroke-linejoin:miter;stroke-opacity:1" d="M 23.4932,349.482 7.0233,394.696 z" id="boundary" inkscape:connector-curvature="0" />
	<path style="fill:none;stroke:red;stroke-width:1px;stroke-linecap:butt;stroke-linejoin:miter;stroke-opacity:1" d="M 23.4932,349.482 30.0508,308.514 z" id="boundary" inkscape:connector-curvature="0" />
	<path style="fill:none;stroke:red;stroke-width:1px;stroke-linecap:butt;stroke-linejoin:miter;stroke-opacity:1" d="M 129.568,413.004 127.911,450.431 z" id="boundary" inkscape:connector-curvature="0" />
	<path style="fill:none;stroke:red;stroke-width:1px;stroke-linecap:butt;stroke-linejoin:miter;stroke-opacity:1" d="M 127.911,450.431 144.7,489.439 z" id="boundary" inkscape:connector-curvature="0" />
	<path style="fill:none;stroke:red;stroke-width:1px;stroke-linecap:butt;stroke-linejoin:miter;stroke-opacity:1" d="M 183.671,535.304 209.967,564.756 z" id="boundary" inkscape:connector-curvature="0" />
	<path style="fill:none;stroke:red;stroke-width:1px;stroke-linecap:butt;stroke-linejoin:miter;stroke-opacity:1" d="M 256.75,491.888 273.477,530.842 z" id="boundary" inkscape:connector-curvature="0" />
	<path style="fill:none;stroke:red;stroke-width:1px;stroke-linecap:butt;stroke-linejoin:miter;stroke-opacity:1" d="M 209.967,564.756 242.711,593.144 z" id="boundary" inkscape:connector-curvature="0" />
	<path style="fill:none;stroke:red;stroke-width:1px;stroke-linecap:butt;stroke-linejoin:miter;stroke-opacity:1" d="M 273.477,530.842 285.936,569.637 z" id="boundary" inkscape:connector-curvature="0" />
	<path style="fill:none;stroke:red;stroke-width:1px;stroke-linecap:butt;stroke-linejoin:miter;stroke-opacity:1" d="M 6.62307,424.78 4,471.78 z" id="boundary" inkscape:connector-curvature="0" />
	<path style="fill:none;stroke:red;stroke-width:1px;stroke-linecap:butt;stroke-linejoin:miter;stroke-opacity:1" d="M 6.62307,424.78 7.0233,394.696 z" id="boundary" inkscape:connector-curvature="0" />
	<path style="fill:none;stroke:red;stroke-width:1px;stroke-linecap:butt;stroke-linejoin:miter;stroke-opacity:1" d="M 50.6311,580.762 64.1447,616.634 z" id="boundary" inkscape:connector-curvature="0" />
	<path style="fill:none;stroke:red;stroke-width:1px;stroke-linecap:butt;stroke-linejoin:miter;stroke-opacity:1" d="M 50.6311,580.762 32.9561,547.075 z" id="boundary" inkscape:connector-curvature="0" />
	<path style="fill:none;stroke:red;stroke-width:1px;stroke-linecap:butt;stroke-linejoin:miter;stroke-opacity:1" d="M 242.711,593.144 276.586,601.168 z" id="boundary" inkscape:connector-curvature="0" />
	<path style="fill:none;stroke:red;stroke-width:1px;stroke-linecap:butt;stroke-linejoin:miter;stroke-opacity:1" d="M 276.586,601.168 285.936,569.637 z" id="boundary" inkscape:connector-curvature="0" />
	<path style="fill:none;stroke:red;stroke-width:1px;stroke-linecap:butt;stroke-linejoin:miter;stroke-opacity:1" d="M 437.529,933.346 474.567,947.744 z" id="boundary" inkscape:connector-curvature="0" />
	<path style="fill:none;stroke:red;stroke-width:1px;stroke-linecap:butt;stroke-linejoin:miter;stroke-opacity:1" d="M 437.529,933.346 397.668,918.995 z" id="boundary" inkscape:connector-curvature="0" />
	<path style="fill:none;stroke:red;stroke-width:1px;stroke-linecap:butt;stroke-linejoin:miter;stroke-opacity:1" d="M 158.848,511.461 183.671,535.304 z" id="boundary" inkscape:connector-curvature="0" />
	<path style="fill:none;stroke:red;stroke-width:1px;stroke-linecap:butt;stroke-linejoin:miter;stroke-opacity:1" d="M 552.627,5.44865 511.496,10.7144 z" id="boundary" inkscape:connector-curvature="0" />
	<path style="fill:none;stroke:red;stroke-width:1px;stroke-linecap:butt;stroke-linejoin:miter;stroke-opacity:1" d="M 144.7,489.439 158.848,511.461 z" id="boundary" inkscape:connector-curvature="0" />
	<path style="fill:none;stroke:red;stroke-width:1px;stroke-linecap:butt;stroke-linejoin:miter;stroke-opacity:1" d="M 256.75,491.888 257.613,445.515 z" id="boundary" inkscape:connector-curvature="0" />
	<path style="fill:none;stroke:red;stroke-width:1px;stroke-linecap:butt;stroke-linejoin:miter;stroke-opacity:1" d="M 387.141,18.9803 422.127,14.6452 z" id="boundary" inkscape:connector-curvature="0" />
	<path style="fill:none;stroke:red;stroke-width:1px;stroke-linecap:butt;stroke-linejoin:miter;stroke-opacity:1" d="M 210.984,366.588 245.385,388.966 z" id="boundary" inkscape:connector-curvature="0" />
	<path style="fill:none;stroke:red;stroke-width:1px;stroke-linecap:butt;stroke-linejoin:miter;stroke-opacity:1" d="M 337.426,28.9086 387.141,18.9803 z" id="boundary" inkscape:connector-curvature="0" />
	<path style="fill:none;stroke:red;stroke-width:1px;stroke-linecap:butt;stroke-linejoin:miter;stroke-opacity:1" d="M 200.704,222.461 231.213,223.013 z" id="boundary" inkscape:connector-curvature="0" />
	<path style="fill:none;stroke:red;stroke-width:1px;stroke-linecap:butt;stroke-linejoin:miter;stroke-opacity:1" d="M 161.153,233.645 121.16,243.169 z" id="boundary" inkscape:connector-curvature="0" />
	<path style="fill:none;stroke:red;stroke-width:1px;stroke-linecap:butt;stroke-linejoin:miter;stroke-opacity:1" d="M 56.5988,284.683 30.0508,308.514 z" id="boundary" inkscape:connector-curvature="0" />
	<path style="fill:none;stroke:red;stroke-width:1px;stroke-linecap:butt;stroke-linejoin:miter;stroke-opacity:1" d="M 56.5988,284.683 84.165,261.184 z" id="boundary" inkscape:connector-curvature="0" />
	<path style="fill:none;stroke:red;stroke-width:1px;stroke-linecap:butt;stroke-linejoin:miter;stroke-opacity:1" d="M 20.3688,512.558 32.9561,547.075 z" id="boundary" inkscape:connector-curvature="0" />
	<path style="fill:none;stroke:red;stroke-width:1px;stroke-linecap:butt;stroke-linejoin:miter;stroke-opacity:1" d="M 20.3688,512.558 4,471.78 z" id="boundary" inkscape:connector-curvature="0" />
	<path style="fill:none;stroke:red;stroke-width:1px;stroke-linecap:butt;stroke-linejoin:miter;stroke-opacity:1" d="M 97.9566,650.921 64.1447,616.634 z" id="boundary" inkscape:connector-curvature="0" />
	<path style="fill:none;stroke:red;stroke-width:1px;stroke-linecap:butt;stroke-linejoin:miter;stroke-opacity:1" d="M 125.589,674.457 97.9566,650.921 z" id="boundary" inkscape:connector-curvature="0" />
	<path style="fill:none;stroke:red;stroke-width:1px;stroke-linecap:butt;stroke-linejoin:miter;stroke-opacity:1" d="M 125.589,674.457 162.498,697.42 z" id="boundary" inkscape:connector-curvature="0" />
	<path style="fill:none;stroke:red;stroke-width:1px;stroke-linecap:butt;stroke-linejoin:miter;stroke-opacity:1" d="M 397.668,918.995 381.874,879.553 z" id="boundary" inkscape:connector-curvature="0" />
	<path style="fill:none;stroke:red;stroke-width:1px;stroke-linecap:butt;stroke-linejoin:miter;stroke-opacity:1" d="M 162.498,697.42 200.389,721.66 z" id="boundary" inkscape:connector-curvature="0" />
	<path style="fill:none;stroke:red;stroke-width:1px;stroke-linecap:butt;stroke-linejoin:miter;stroke-opacity:1" d="M 239.214,726.935 273.169,747.706 z" id="boundary" inkscape:connector-curvature="0" />
	<path style="fill:none;stroke:red;stroke-width:1px;stroke-linecap:butt;stroke-linejoin:miter;stroke-opacity:1" d="M 239.214,726.935 200.389,721.66 z" id="boundary" inkscape:connector-curvature="0" />
	<path style="fill:none;stroke:red;stroke-width:1px;stroke-linecap:butt;stroke-linejoin:miter;stroke-opacity:1" d="M 273.169,747.706 319.755,776.097 z" id="boundary" inkscape:connector-curvature="0" />
	<path style="fill:none;stroke:red;stroke-width:1px;stroke-linecap:butt;stroke-linejoin:miter;stroke-opacity:1" d="M 319.755,776.097 351.678,810.996 z" id="boundary" inkscape:connector-curvature="0" />
	<path style="fill:none;stroke:red;stroke-width:1px;stroke-linecap:butt;stroke-linejoin:miter;stroke-opacity:1" d="M 351.678,810.996 370.305,844.264 z" id="boundary" inkscape:connector-curvature="0" />
	<path style="fill:none;stroke:red;stroke-width:1px;stroke-linecap:butt;stroke-linejoin:miter;stroke-opacity:1" d="M 370.305,844.264 381.874,879.553 z" id="boundary" inkscape:connector-curvature="0" />
	<path style="fill:none;stroke:red;stroke-width:1px;stroke-linecap:butt;stroke-linejoin:miter;stroke-opacity:1" d="M 606.994,964.796 661.238,968.873 z" id="boundary" inkscape:connector-curvature="0" />
	<path style="fill:none;stroke:red;stroke-width:1px;stroke-linecap:butt;stroke-linejoin:miter;stroke-opacity:1" d="M 474.567,947.744 510.755,958.07 z" id="boundary" inkscape:connector-curvature="0" />
	<path style="fill:none;stroke:red;stroke-width:1px;stroke-linecap:butt;stroke-linejoin:miter;stroke-opacity:1" d="M 510.755,958.07 563.967,958.999 z" id="boundary" inkscape:connector-curvature="0" />
	<path style="fill:none;stroke:red;stroke-width:1px;stroke-linecap:butt;stroke-linejoin:miter;stroke-opacity:1" d="M 563.967,958.999 606.994,964.796 z" id="boundary" inkscape:connector-curvature="0" />
	<path style="fill:none;stroke:red;stroke-width:1px;stroke-linecap:butt;stroke-linejoin:miter;stroke-opacity:1" d="M 903.552,609.318 888.612,654.36 z" id="boundary" inkscape:connector-curvature="0" />
	<path style="fill:none;stroke:red;stroke-width:1px;stroke-linecap:butt;stroke-linejoin:miter;stroke-opacity:1" d="M 871.866,699.343 888.612,654.36 z" id="boundary" inkscape:connector-curvature="0" />
	<path style="fill:none;stroke:red;stroke-width:1px;stroke-linecap:butt;stroke-linejoin:miter;stroke-opacity:1" d="M 247.962,147.128 243.867,103.294 z" id="boundary" inkscape:connector-curvature="0" />
	<path style="fill:none;stroke:red;stroke-width:1px;stroke-linecap:butt;stroke-linejoin:miter;stroke-opacity:1" d="M 243.867,103.294 263.07,66.5013 z" id="boundary" inkscape:connector-curvature="0" />
	<path style="fill:none;stroke:red;stroke-width:1px;stroke-linecap:butt;stroke-linejoin:miter;stroke-opacity:1" d="M 299.737,40.9163 337.426,28.9086 z" id="boundary" inkscape:connector-curvature="0" />
	<path style="fill:none;stroke:red;stroke-width:1px;stroke-linecap:butt;stroke-linejoin:miter;stroke-opacity:1" d="M 231.213,223.013 238.13,188.02 z" id="boundary" inkscape:connector-curvature="0" />
	<path style="fill:none;stroke:red;stroke-width:1px;stroke-linecap:butt;stroke-linejoin:miter;stroke-opacity:1" d="M 238.13,188.02 247.962,147.128 z" id="boundary" inkscape:connector-curvature="0" />
	<path style="fill:none;stroke:red;stroke-width:1px;stroke-linecap:butt;stroke-linejoin:miter;stroke-opacity:1" d="M 263.07,66.5013 299.737,40.9163 z" id="boundary" inkscape:connector-curvature="0" />
	<path style="fill:none;stroke:red;stroke-width:1px;stroke-linecap:butt;stroke-linejoin:miter;stroke-opacity:1" d="M 422.127,14.6452 472.896,7.40481 z" id="boundary" inkscape:connector-curvature="0" />
	<path style="fill:none;stroke:red;stroke-width:1px;stroke-linecap:butt;stroke-linejoin:miter;stroke-opacity:1" d="M 472.896,7.40481 511.496,10.7144 z" id="boundary" inkscape:connector-curvature="0" />
	<path style="fill:none;stroke:red;stroke-width:1px;stroke-linecap:butt;stroke-linejoin:miter;stroke-opacity:1" d="M 552.627,5.44865 592.956,4 z" id="boundary" inkscape:connector-curvature="0" />
	<path style="fill:none;stroke:red;stroke-width:1px;stroke-linecap:butt;stroke-linejoin:miter;stroke-opacity:1" d="M 592.956,4 639.839,5.40953 z" id="boundary" inkscape:connector-curvature="0" />
	<path style="fill:none;stroke:red;stroke-width:1px;stroke-linecap:butt;stroke-linejoin:miter;stroke-opacity:1" d="M 639.839,5.40953 671.001,5.53009 z" id="boundary" inkscape:connector-curvature="0" />
	<path style="fill:none;stroke:red;stroke-width:1px;stroke-linecap:butt;stroke-linejoin:miter;stroke-opacity:1" d="M 671.001,5.53009 716.003,16.1745 z" id="boundary" inkscape:connector-curvature="0" />
	<path style="fill:none;stroke:red;stroke-width:1px;stroke-linecap:butt;stroke-linejoin:miter;stroke-opacity:1" d="M 977.662,321.364 970.949,369.395 z" id="boundary" inkscape:connector-curvature="0" />
	<path style="fill:none;stroke:red;stroke-width:1px;stroke-linecap:butt;stroke-linejoin:miter;stroke-opacity:1" d="M 977.662,321.364 973.13,271.79 z" id="boundary" inkscape:connector-curvature="0" />
	<path style="fill:none;stroke:red;stroke-width:1px;stroke-linecap:butt;stroke-linejoin:miter;stroke-opacity:1" d="M 818.64,24.7082 761.154,22.4151 z" id="boundary" inkscape:connector-curvature="0" />
	<path style="fill:none;stroke:red;stroke-width:1px;stroke-linecap:butt;stroke-linejoin:miter;stroke-opacity:1" d="M 716.003,16.1745 761.154,22.4151 z" id="boundary" inkscape:connector-curvature="0" />
	<path style="fill:none;stroke:red;stroke-width:1px;stroke-linecap:butt;stroke-linejoin:miter;stroke-opacity:1" d="M 818.64,24.7082 872.766,36.8822 z" id="boundary" inkscape:connector-curvature="0" />
	<path style="fill:none;stroke:red;stroke-width:1px;stroke-linecap:butt;stroke-linejoin:miter;stroke-opacity:1" d="M 987.67,189.576 982.501,232.018 z" id="boundary" inkscape:connector-curvature="0" />
	<path style="fill:none;stroke:red;stroke-width:1px;stroke-linecap:butt;stroke-linejoin:miter;stroke-opacity:1" d="M 916.832,53.1376 961.966,76.7983 z" id="boundary" inkscape:connector-curvature="0" />
	<path style="fill:none;stroke:red;stroke-width:1px;stroke-linecap:butt;stroke-linejoin:miter;stroke-opacity:1" d="M 996,161.96 987.67,189.576 z" id="boundary" inkscape:connector-curvature="0" />
	<path style="fill:none;stroke:red;stroke-width:1px;stroke-linecap:butt;stroke-linejoin:miter;stroke-opacity:1" d="M 993.856,115.234 996,161.96 z" id="boundary" inkscape:connector-curvature="0" />
	<path style="fill:none;stroke:red;stroke-width:1px;stroke-linecap:butt;stroke-linejoin:miter;stroke-opacity:1" d="M 993.856,115.234 961.966,76.7983 z" id="boundary" inkscape:connector-curvature="0" />
	<path style="fill:none;stroke:red;stroke-width:1px;stroke-linecap:butt;stroke-linejoin:miter;stroke-opacity:1" d="M 916.832,53.1376 872.766,36.8822 z" id="boundary" inkscape:connector-curvature="0" />
	<path style="fill:none;stroke:red;stroke-width:1px;stroke-linecap:butt;stroke-linejoin:miter;stroke-opacity:1" d="M 982.501,232.018 973.13,271.79 z" id="boundary" inkscape:connector-curvature="0" />
	<path style="fill:none;stroke:red;stroke-width:1px;stroke-linecap:butt;stroke-linejoin:miter;stroke-opacity:1" d="M 965.175,412.733 949.242,458.36 z" id="boundary" inkscape:connector-curvature="0" />
	<path style="fill:none;stroke:red;stroke-width:1px;stroke-linecap:butt;stroke-linejoin:miter;stroke-opacity:1" d="M 965.175,412.733 970.949,369.395 z" id="boundary" inkscape:connector-curvature="0" />
	<path style="fill:none;stroke:red;stroke-width:1px;stroke-linecap:butt;stroke-linejoin:miter;stroke-opacity:1" d="M 949.242,458.36 935.631,509.624 z" id="boundary" inkscape:connector-curvature="0" />
	<path style="fill:none;stroke:red;stroke-width:1px;stroke-linecap:butt;stroke-linejoin:miter;stroke-opacity:1" d="M 927.275,565.314 903.552,609.318 z" id="boundary" inkscape:connector-curvature="0" />
	<path style="fill:none;stroke:red;stroke-width:1px;stroke-linecap:butt;stroke-linejoin:miter;stroke-opacity:1" d="M 927.275,565.314 935.631,509.624 z" id="boundary" inkscape:connector-curvature="0" />
	<path style="fill:none;stroke:red;stroke-width:1px;stroke-linecap:butt;stroke-linejoin:miter;stroke-opacity:1" d="M 853.898,737.24 871.866,699.343 z" id="boundary" inkscape:connector-curvature="0" />
	<path style="fill:none;stroke:red;stroke-width:1px;stroke-linecap:butt;stroke-linejoin:miter;stroke-opacity:1" d="M 853.898,737.24 848.407,765.053 z" id="boundary" inkscape:connector-curvature="0" />
	<path style="fill:none;stroke:red;stroke-width:1px;stroke-linecap:butt;stroke-linejoin:miter;stroke-opacity:1" d="M 848.407,765.053 821.316,806.096 z" id="boundary" inkscape:connector-curvature="0" />
	<path style="fill:none;stroke:red;stroke-width:1px;stroke-linecap:butt;stroke-linejoin:miter;stroke-opacity:1" d="M 821.316,806.096 812.209,839.22 z" id="boundary" inkscape:connector-curvature="0" />
	<path style="fill:none;stroke:red;stroke-width:1px;stroke-linecap:butt;stroke-linejoin:miter;stroke-opacity:1" d="M 812.209,839.22 786.96,867.372 z" id="boundary" inkscape:connector-curvature="0" />
	<path style="fill:none;stroke:red;stroke-width:1px;stroke-linecap:butt;stroke-linejoin:miter;stroke-opacity:1" d="M 772.537,907.638 786.96,867.372 z" id="boundary" inkscape:connector-curvature="0" />
	<path style="fill:none;stroke:red;stroke-width:1px;stroke-linecap:butt;stroke-linejoin:miter;stroke-opacity:1" d="M 706.423,958.565 661.238,968.873 z" id="boundary" inkscape:connector-curvature="0" />
	<path style="fill:none;stroke:red;stroke-width:1px;stroke-linecap:butt;stroke-linejoin:miter;stroke-opacity:1" d="M 706.423,958.565 742.976,948.482 z" id="boundary" inkscape:connector-curvature="0" />
	<path style="fill:none;stroke:red;stroke-width:1px;stroke-linecap:butt;stroke-linejoin:miter;stroke-opacity:1" d="M 742.976,948.482 772.537,907.638 z" id="boundary" inkscape:connector-curvature="0" />
	<circle cx="245.385" cy="388.966" r="4" fill="#0" id="circle0"/>
	<circle cx="210.984" cy="366.588" r="4" fill="#0" id="circle1"/>
	<circle cx="171.868" cy="365.234" r="4" fill="#0" id="circle2"/>
	<circle cx="141.775" cy="376.351" r="4" fill="#0" id="circle3"/>
	<circle cx="129.568" cy="413.004" r="4" fill="#0" id="circle4"/>
	<circle cx="127.911" cy="450.431" r="4" fill="#0" id="circle5"/>
	<circle cx="144.7" cy="489.439" r="4" fill="#0" id="circle6"/>
	<circle cx="158.848" cy="511.461" r="4" fill="#0" id="circle7"/>
	<circle cx="183.671" cy="535.304" r="4" fill="#0" id="circle8"/>
	<circle cx="209.967" cy="564.756" r="4" fill="#0" id="circle9"/>
	<circle cx="242.711" cy="593.144" r="4" fill="#0" id="circle10"/>
	<circle cx="276.586" cy="601.168" r="4" fill="#0" id="circle11"/>
	<circle cx="285.936" cy="569.637" r="4" fill="#0" id="circle12"/>
	<circle cx="273.477" cy="530.842" r="4" fill="#0" id="circle13"/>
	<circle cx="256.75" cy="491.888" r="4" fill="#0" id="circle14"/>
	<circle cx="257.613" cy="445.515" r="4" fill="#0" id="circle15"/>
	<circle cx="250.444" cy="418.316" r="4" fill="#0" id="circle16"/>
	<circle cx="231.213" cy="223.013" r="4" fill="#0" id="circle17"/>
	<circle cx="200.704" cy="222.461" r="4" fill="#0" id="circle18"/>
	<circle cx="161.153" cy="233.645" r="4" fill="#0" id="circle19"/>
	<circle cx="121.16" cy="243.169" r="4" fill="#0" id="circle20"/>
	<circle cx="84.165" cy="261.184" r="4" fill="#0" id="circle21"/>
	<circle cx="56.5988" cy="284.683" r="4" fill="#0" id="circle22"/>
	<circle cx="30.0508" cy="308.514" r="4" fill="#0" id="circle23"/>
	<circle cx="23.4932" cy="349.482" r="4" fill="#0" id="circle24"/>
	<circle cx="7.0233" cy="394.696" r="4" fill="#0" id="circle25"/>
	<circle cx="6.62307" cy="424.78" r="4" fill="#0" id="circle26"/>
	<circle cx="4" cy="471.78" r="4" fill="#0" id="circle27"/>
	<circle cx="20.3688" cy="512.558" r="4" fill="#0" id="circle28"/>
	<circle cx="32.9561" cy="547.075" r="4" fill="#0" id="circle29"/>
	<circle cx="50.6311" cy="580.762" r="4" fill="#0" id="circle30"/>
	<circle cx="64.1447" cy="616.634" r="4" fill="#0" id="circle31"/>
	<circle cx="97.9566" cy="650.921" r="4" fill="#0" id="circle32"/>
	<circle cx="125.589" cy="674.457" r="4" fill="#0" id="circle33"/>
	<circle cx="162.498" cy="697.42" r="4" fill="#0" id="circle34"/>
	<circle cx="200.389" cy="721.66" r="4" fill="#0" id="circle35"/>
	<circle cx="239.214" cy="726.935" r="4" fill="#0" id="circle36"/>
	<circle cx="273.169" cy="747.706" r="4" fill="#0" id="circle37"/>
	<circle cx="319.755" cy="776.097" r="4" fill="#0" id="circle38"/>
	<circle cx="351.678" cy="810.996" r="4" fill="#0" id="circle39"/>
	<circle cx="370.305" cy="844.264" r="4" fill="#0" id="circle40"/>
	<circle cx="381.874" cy="879.553" r="4" fill="#0" id="circle41"/>
	<circle cx="397.668" cy="918.995" r="4" fill="#0" id="circle42"/>
	<circle cx="437.529" cy="933.346" r="4" fill="#0" id="circle43"/>
	<circle cx="474.567" cy="947.744" r="4" fill="#0" id="circle44"/>
	<circle cx="510.755" cy="958.07" r="4" fill="#0" id="circle45"/>
	<circle cx="563.967" cy="958.999" r="4" fill="#0" id="circle46"/>
	<circle cx="606.994" cy="964.796" r="4" fill="#0" id="circle47"/>
	<circle cx="661.238" cy="968.873" r="4" fill="#0" id="circle48"/>
	<circle cx="706.423" cy="958.565" r="4" fill="#0" id="circle49"/>
	<circle cx="742.976" cy="948.482" r="4" fill="#0" id="circle50"/>
	<circle cx="238.13" cy="188.02" r="4" fill="#0" id="circle51"/>
	<circle cx="247.962" cy="147.128" r="4" fill="#0" id="circle52"/>
	<circle cx="243.867" cy="103.294" r="4" fill="#0" id="circle53"/>
	<circle cx="263.07" cy="66.5013" r="4" fill="#0" id="circle54"/>
	<circle cx="299.737" cy="40.9163" r="4" fill="#0" id="circle55"/>
	<circle cx="337.426" cy="28.9086" r="4" fill="#0" id="circle56"/>
	<circle cx="387.141" cy="18.9803" r="4" fill="#0" id="circle57"/>
	<circle cx="422.127" cy="14.6452" r="4" fill="#0" id="circle58"/>
	<circle cx="472.896" cy="7.40481" r="4" fill="#0" id="circle59"/>
	<circle cx="511.496" cy="10.7144" r="4" fill="#0" id="circle60"/>
	<circle cx="552.627" cy="5.44865" r="4" fill="#0" id="circle61"/>
	<circle cx="592.956" cy="4" r="4" fill="#0" id="circle62"/>
	<circle cx="639.839" cy="5.40953" r="4" fill="#0" id="circle63"/>
	<circle cx="671.001" cy="5.53009" r="4" fill="#0" id="circle64"/>
	<circle cx="716.003" cy="16.1745" r="4" fill="#0" id="circle65"/>
	<circle cx="761.154" cy="22.4151" r="4" fill="#0" id="circle66"/>
	<circle cx="818.64" cy="24.7082" r="4" fill="#0" id="circle67"/>
	<circle cx="872.766" cy="36.8822" r="4" fill="#0" id="circle68"/>
	<circle cx="916.832" cy="53.1376" r="4" fill="#0" id="circle69"/>
	<circle cx="961.966" cy="76.7983" r="4" fill="#0" id="circle70"/>
	<circle cx="993.856" cy="115.234" r="4" fill="#0" id="circle71"/>
	<circle cx="996" cy="161.96" r="4" fill="#0" id="circle72"/>
	<circle cx="987.67" cy="189.576" r="4" fill="#0" id="circle73"/>
	<circle cx="982.501" cy="232.018" r="4" fill="#0" id="circle74"/>
	<circle cx="973.13" cy="271.79" r="4" fill="#0" id="circle75"/>
	<circle cx="977.662" cy="321.364" r="4" fill="#0" id="circle76"/>
	<circle cx="970.949" cy="369.395" r="4" fill="#0" id="circle77"/>
	<circle cx="965.175" cy="412.733" r="4" fill="#0" id="circle78"/>
	<circle cx="949.242" cy="458.36" r="4" fill="#0" id="circle79"/>
	<circle cx="935.631" cy="509.624" r="4" fill="#0" id="circle80"/>
	<circle cx="927.275" cy="565.314" r="4" fill="#0" id="circle81"/>
	<circle cx="903.552" cy="609.318" r="4" fill="#0" id="circle82"/>
	<circle cx="888.612" cy="654.36" r="4" fill="#0" id="circle83"/>
	<circle cx="871.866" cy="699.343" r="4" fill="#0" id="circle84"/>
	<circle cx="853.898" cy="737.24" r="4" fill="#0" id="circle85"/>
	<circle cx="848.407" cy="765.053" r="4" fill="#0" id="circle86"/>
	<circle cx="821.316" cy="806.096" r="4" fill="#0" id="circle87"/>
	<circle cx="812.209" cy="839.22" r="4" fill="#0" id="circle88"/>
	<circle cx="786.96" cy="867.372" r="4" fill="#0" id="circle89"/>
	<circle cx="772.537" cy="907.638" r="4" fill="#0" id="circle90"/>
	</g>
</svg>