<?xml version="1.0" encoding="UTF-8" standalone="no"?>
<!-- Created with CurveBenchmark -->
<svg
	xmlns:dc="http://purl.org/dc/elements/1.1/"
	xmlns:cc="http://creativecommons.org/ns#"
	xmlns:rdf="http://www.w3.org/1999/02/22-rdf-syntax-ns#"
	xmlns:svg="http://www.w3.org/2000/svg"
	xmlns="http://www.w3.org/2000/svg"
	xmlns:sodipodi="http://sodipodi.sourceforge.net/DTD/sodipodi-0.dtd"
	xmlns:inkscape="http://www.inkscape.org/namespaces/inkscape"
	width="1000"
	height="1000"
	id="svg2"
	version="1.1"
	sodipodi:docname="noisy-0.003/stretchdenoise-mc19.txt">
<defs
	id="defs4" />
<metadata
	id="metadata7">
	<rdf:RDF>
		<cc:Work
			rdf:about="">
			<dc:format>image/svg+xml</dc:format>
			<dc:type
				rdf:resource="http://purl.org/dc/dcmitype/StillImage" />
			<dc:title></dc:title>
		</cc:Work>
	</rdf:RDF>
</metadata>
<g
	inkscape:label="Layer 1"
	inkscape:groupmode="layer"
	id="layer1">
	<path style="fill:none;stroke:red;stroke-width:1px;stroke-linecap:butt;stroke-linejoin:miter;stroke-opacity:1" d="M 4,672.205 64.467,731.771 z" id="boundary" inkscape:connector-curvature="0" />
	<path style="fill:none;stroke:red;stroke-width:1px;stroke-linecap:butt;stroke-linejoin:miter;stroke-opacity:1" d="M 4,672.205 80.1097,561.509 z" id="boundary" inkscape:connector-curvature="0" />
	<path style="fill:none;stroke:red;stroke-width:1px;stroke-linecap:butt;stroke-linejoin:miter;stroke-opacity:1" d="M 80.1097,561.509 234.911,448.416 z" id="boundary" inkscape:connector-curvature="0" />
	<path style="fill:none;stroke:red;stroke-width:1px;stroke-linecap:butt;stroke-linejoin:miter;stroke-opacity:1" d="M 234.911,448.416 355.249,438.131 z" id="boundary" inkscape:connector-curvature="0" />
	<path style="fill:none;stroke:red;stroke-width:1px;stroke-linecap:butt;stroke-linejoin:miter;stroke-opacity:1" d="M 355.249,438.131 566.289,498.505 z" id="boundary" inkscape:connector-curvature="0" />
	<path style="fill:none;stroke:red;stroke-width:1px;stroke-linecap:butt;stroke-linejoin:miter;stroke-opacity:1" d="M 566.289,498.505 770.369,369.227 z" id="boundary" inkscape:connector-curvature="0" />
	<path style="fill:none;stroke:red;stroke-width:1px;stroke-linecap:butt;stroke-linejoin:miter;stroke-opacity:1" d="M 473.803,97.3937 529.678,109.379 z" id="boundary" inkscape:connector-curvature="0" />
	<path style="fill:none;stroke:red;stroke-width:1px;stroke-linecap:butt;stroke-linejoin:miter;stroke-opacity:1" d="M 529.678,109.379 561.285,44.3469 z" id="boundary" inkscape:connector-curvature="0" />
	<path style="fill:none;stroke:red;stroke-width:1px;stroke-linecap:butt;stroke-linejoin:miter;stroke-opacity:1" d="M 561.285,44.3469 705.529,51.2806 z" id="boundary" inkscape:connector-curvature="0" />
	<path style="fill:none;stroke:red;stroke-width:1px;stroke-linecap:butt;stroke-linejoin:miter;stroke-opacity:1" d="M 705.529,51.2806 767.261,101.052 z" id="boundary" inkscape:connector-curvature="0" />
	<path style="fill:none;stroke:red;stroke-width:1px;stroke-linecap:butt;stroke-linejoin:miter;stroke-opacity:1" d="M 808.518,246.407 770.369,369.227 z" id="boundary" inkscape:connector-curvature="0" />
	<path style="fill:none;stroke:red;stroke-width:1px;stroke-linecap:butt;stroke-linejoin:miter;stroke-opacity:1" d="M 808.518,246.407 767.261,101.052 z" id="boundary" inkscape:connector-curvature="0" />
	<circle cx="4" cy="672.205" r="4" fill="#0" id="circle0"/>
	<circle cx="64.467" cy="731.771" r="4" fill="#0" id="circle1"/>
	<circle cx="80.1097" cy="561.509" r="4" fill="#0" id="circle2"/>
	<circle cx="172.279" cy="777.301" r="4" fill="#0" id="circle3"/>
	<circle cx="234.911" cy="448.416" r="4" fill="#0" id="circle4"/>
	<circle cx="239.869" cy="991.262" r="4" fill="#0" id="circle5"/>
	<circle cx="252.091" cy="979.007" r="4" fill="#0" id="circle6"/>
	<circle cx="254.071" cy="996" r="4" fill="#0" id="circle7"/>
	<circle cx="267.317" cy="970.411" r="4" fill="#0" id="circle8"/>
	<circle cx="282.466" cy="989.353" r="4" fill="#0" id="circle9"/>
	<circle cx="288.295" cy="799.18" r="4" fill="#0" id="circle10"/>
	<circle cx="291.693" cy="965.558" r="4" fill="#0" id="circle11"/>
	<circle cx="304.523" cy="986.77" r="4" fill="#0" id="circle12"/>
	<circle cx="313.923" cy="966.05" r="4" fill="#0" id="circle13"/>
	<circle cx="315.905" cy="799.498" r="4" fill="#0" id="circle14"/>
	<circle cx="321.798" cy="942.912" r="4" fill="#0" id="circle15"/>
	<circle cx="325.9" cy="854.744" r="4" fill="#0" id="circle16"/>
	<circle cx="325.709" cy="911.399" r="4" fill="#0" id="circle17"/>
	<circle cx="328.977" cy="887.806" r="4" fill="#0" id="circle18"/>
	<circle cx="330.521" cy="981.288" r="4" fill="#0" id="circle19"/>
	<circle cx="346.028" cy="844.542" r="4" fill="#0" id="circle20"/>
	<circle cx="349.163" cy="951.162" r="4" fill="#0" id="circle21"/>
	<circle cx="355.249" cy="438.131" r="4" fill="#0" id="circle22"/>
	<circle cx="348.198" cy="984.957" r="4" fill="#0" id="circle23"/>
	<circle cx="356.026" cy="789.084" r="4" fill="#0" id="circle24"/>
	<circle cx="352.524" cy="937.271" r="4" fill="#0" id="circle25"/>
	<circle cx="355.086" cy="966.5" r="4" fill="#0" id="circle26"/>
	<circle cx="352.432" cy="910.668" r="4" fill="#0" id="circle27"/>
	<circle cx="367.966" cy="863.688" r="4" fill="#0" id="circle28"/>
	<circle cx="364.945" cy="887.899" r="4" fill="#0" id="circle29"/>
	<circle cx="373.119" cy="968.607" r="4" fill="#0" id="circle30"/>
	<circle cx="370.186" cy="991.904" r="4" fill="#0" id="circle31"/>
	<circle cx="392.911" cy="976.576" r="4" fill="#0" id="circle32"/>
	<circle cx="396.404" cy="995.207" r="4" fill="#0" id="circle33"/>
	<circle cx="435.369" cy="777.813" r="4" fill="#0" id="circle34"/>
	<circle cx="566.289" cy="498.505" r="4" fill="#0" id="circle35"/>
	<circle cx="473.803" cy="97.3937" r="4" fill="#0" id="circle36"/>
	<circle cx="529.678" cy="109.379" r="4" fill="#0" id="circle37"/>
	<circle cx="503.64" cy="94.5634" r="4" fill="#0" id="circle38"/>
	<circle cx="505.236" cy="61.346" r="4" fill="#0" id="circle39"/>
	<circle cx="527.582" cy="98.7528" r="4" fill="#0" id="circle40"/>
	<circle cx="554.36" cy="97.8034" r="4" fill="#0" id="circle41"/>
	<circle cx="561.285" cy="44.3469" r="4" fill="#0" id="circle42"/>
	<circle cx="573.287" cy="425.556" r="4" fill="#0" id="circle43"/>
	<circle cx="583.712" cy="750.627" r="4" fill="#0" id="circle44"/>
	<circle cx="583.386" cy="14.7346" r="4" fill="#0" id="circle45"/>
	<circle cx="597.039" cy="100.131" r="4" fill="#0" id="circle46"/>
	<circle cx="611.689" cy="5.32497" r="4" fill="#0" id="circle47"/>
	<circle cx="634.719" cy="4" r="4" fill="#0" id="circle48"/>
	<circle cx="634.688" cy="77.3511" r="4" fill="#0" id="circle49"/>
	<circle cx="671.389" cy="314.106" r="4" fill="#0" id="circle50"/>
	<circle cx="669.961" cy="708.589" r="4" fill="#0" id="circle51"/>
	<circle cx="705.529" cy="51.2806" r="4" fill="#0" id="circle52"/>
	<circle cx="703.16" cy="11.1999" r="4" fill="#0" id="circle53"/>
	<circle cx="703.325" cy="93.2727" r="4" fill="#0" id="circle54"/>
	<circle cx="808.518" cy="246.407" r="4" fill="#0" id="circle55"/>
	<circle cx="731.69" cy="24.2017" r="4" fill="#0" id="circle56"/>
	<circle cx="735.845" cy="160.78" r="4" fill="#0" id="circle57"/>
	<circle cx="739.502" cy="620.259" r="4" fill="#0" id="circle58"/>
	<circle cx="765.185" cy="551.329" r="4" fill="#0" id="circle59"/>
	<circle cx="778.675" cy="507.839" r="4" fill="#0" id="circle60"/>
	<circle cx="784.316" cy="435.64" r="4" fill="#0" id="circle61"/>
	<circle cx="770.369" cy="369.227" r="4" fill="#0" id="circle62"/>
	<circle cx="767.261" cy="101.052" r="4" fill="#0" id="circle63"/>
	<circle cx="796.425" cy="108.619" r="4" fill="#0" id="circle64"/>
	<circle cx="799.922" cy="316.327" r="4" fill="#0" id="circle65"/>
	<circle cx="808.51" cy="259.99" r="4" fill="#0" id="circle66"/>
	<circle cx="813.99" cy="182.222" r="4" fill="#0" id="circle67"/>
	<circle cx="816.359" cy="210.954" r="4" fill="#0" id="circle68"/>
	<circle cx="595.914" cy="46.3064" r="4" fill="#0" id="circle69"/>
	<circle cx="604.097" cy="52.2172" r="4" fill="#0" id="circle70"/>
	<circle cx="615.082" cy="50.5205" r="4" fill="#0" id="circle71"/>
	<circle cx="615.798" cy="39.3559" r="4" fill="#0" id="circle72"/>
	<circle cx="600.2" cy="34.742" r="4" fill="#0" id="circle73"/>
	</g>
</svg>