142 274
142 299
144 324
144 349
169 323
194 323
219 323
244 323
269 323
286 342
307 328
332 327
356 334
380 325
405 327
428 337
453 343
478 345
503 339
527 331
552 325
576 334
601 329
626 327
632 352
643 307
643 282
653 256
643 232
619 224
594 218
569 214
544 212
519 208
497 196
473 187
459 166
469 142
461 118
438 107
414 100
389 94
364 90
343 76
322 62
298 54
280 72
257 83
233 92
208 96
184 104
160 112
140 128
148 152
150 177
148 216
144 246
