95 65
80 86
119 72
134 92
148 113
172 103
179 78
196 110
202 135
208 160
212 185
210 214
206 240
174 266
198 275
223 275
231 242
235 212
237 168
239 139
239 114
262 124
287 129
312 129
311 99
298 77
280 59
263 40
241 27
217 20
192 22
170 34
152 53
132 38
107 43
