82 64
66 84
106 73
126 88
135 112
160 113
171 82
195 89
202 113
206 138
212 163
216 188
215 215
210 240
198 275
223 274
237 162
237 137
237 112
261 121
285 129
310 127
328 109
314 87
297 68
279 50
259 34
236 23
211 20
186 24
164 36
143 50
121 38
96 42
