110 94
100 120
123 131
148 127
164 147
164 172
166 197
168 222
170 247
173 272
198 275
221 264
199 232
195 207
195 182
201 152
207 122
213 94
231 113
254 101
255 68
277 80
297 95
275 42
250 40
226 33
203 22
178 20
156 32
139 51
124 72
