78 94
66 118
90 126
115 128
139 120
160 134
160 159
160 184
162 209
166 234
170 259
190 275
213 264
183 169
189 144
195 110
205 86
228 96
245 115
268 105
270 73
295 75
316 89
309 53
289 38
264 40
241 51
227 30
203 22
178 20
153 26
131 39
112 56
94 74
