89 113
109 129
133 137
156 147
180 156
195 176
220 181
226 145
251 145
276 143
301 143
326 149
347 134
367 119
389 131
413 139
421 113
421 88
414 64
390 72
367 82
345 70
326 53
301 48
276 53
254 41
231 30
207 23
185 37
167 56
142 62
118 70
94 80
72 94
