112 132
137 135
158 121
176 139
199 149
224 143
249 145
252 170
277 173
301 181
314 159
334 143
357 133
377 116
375 83
354 69
330 60
306 51
290 20
267 30
244 40
223 54
198 48
180 66
159 80
137 68
112 64
118 89
