128 119
118 96
138 78
161 68
184 58
199 38
220 24
243 34
263 49
288 48
310 60
325 80
350 74
373 64
375 96
370 143
347 132
325 120
319 146
294 150
269 147
244 149
241 185
220 171
200 186
188 164
171 145
147 136
