76 130
100 137
123 126
147 117
156 141
180 149
204 141
229 143
254 145
270 165
289 182
312 171
326 149
351 144
375 135
398 125
416 87
393 76
370 66
346 58
322 51
305 20
280 26
257 37
233 47
208 50
183 49
163 65
146 84
122 76
99 66
82 90
