86 51
72 30
95 20
120 20
145 24
158 46
155 81
131 90
129 116
129 141
131 166
137 191
139 216
139 241
139 266
139 291
139 316
136 365
111 365
94 346
96 309
96 284
96 259
96 234
96 209
96 184
104 148
104 123
104 98
97 74
