58 51
52 26
77 24
102 20
127 20
152 25
181 78
166 58
141 54
135 82
131 112
131 137
133 162
141 186
143 211
143 236
143 261
143 286
143 311
145 336
140 365
115 365
90 362
94 316
94 291
94 266
94 241
94 216
96 186
106 144
106 119
104 94
98 69
91 45
