76 48
68 74
92 81
108 101
110 126
108 160
100 194
100 219
100 244
100 269
100 294
100 319
98 352
120 365
145 356
145 331
145 306
145 281
145 256
145 231
145 206
141 181
135 156
135 131
135 106
139 80
145 54
165 22
140 20
115 20
91 27
