66 54
58 78
83 78
95 56
106 88
110 113
108 162
100 192
100 217
100 242
100 267
100 292
100 317
96 362
121 365
146 365
145 326
145 301
145 276
145 251
145 226
145 201
140 176
137 151
135 126
137 94
145 70
150 45
175 48
157 21
128 20
103 20
81 33
