74 51
60 30
84 23
109 20
134 20
157 30
171 51
161 81
136 79
131 104
131 129
131 154
135 179
141 204
141 229
141 254
141 279
141 304
141 329
141 365
116 365
92 356
94 316
96 274
94 249
94 224
96 184
104 140
104 115
102 90
94 66
