60 54
44 74
64 89
89 83
112 93
123 116
133 139
146 161
148 186
149 231
138 254
163 259
177 218
181 176
201 161
226 161
251 157
271 173
286 193
291 231
280 254
305 259
323 227
323 202
343 186
355 149
355 124
347 100
331 80
306 86
282 78
257 80
232 82
207 80
182 74
159 64
139 49
119 34
95 26
70 22
