110 44
102 72
121 89
140 106
142 131
150 155
152 180
154 205
154 230
146 254
171 249
175 160
182 184
182 218
194 259
201 201
205 162
226 176
234 200
234 225
224 254
249 246
251 164
264 186
272 210
271 259
289 229
289 188
297 146
296 121
289 97
270 80
245 78
220 82
195 78
175 63
161 42
141 27
117 20
