52 337
52 312
60 288
82 276
107 276
132 276
145 251
120 249
97 239
76 225
70 200
82 178
107 172
132 170
153 156
156 118
164 92
166 63
164 38
185 23
210 23
234 32
259 34
282 22
307 22
325 40
317 74
321 99
316 125
305 148
325 164
341 184
344 219
328 239
307 254
305 298
303 340
287 368
262 371
237 371
212 367
187 365
162 363
137 364
112 371
87 369
63 360
