88 333
86 308
91 283
115 276
140 270
137 238
120 219
116 194
134 176
159 172
144 133
138 108
155 89
179 82
194 62
208 38
226 20
251 25
276 22
286 45
305 62
313 86
315 111
306 139
294 161
299 186
297 214
299 239
299 264
294 299
293 332
288 359
265 371
240 369
215 367
190 371
165 371
140 369
115 371
93 358
