58 341
56 316
61 291
81 276
106 276
131 278
148 253
123 247
99 238
80 221
78 196
95 177
120 172
145 168
166 139
160 114
170 90
174 63
172 38
193 23
218 23
241 34
266 32
289 21
314 26
318 71
323 96
317 128
307 152
326 169
341 189
329 234
309 252
309 296
305 334
294 363
270 371
245 371
220 367
195 365
170 363
145 363
121 371
96 371
72 362
