74 337
72 312
77 287
100 276
125 278
148 268
138 245
115 235
100 215
100 190
121 176
146 172
170 160
158 125
156 100
178 86
194 63
194 38
214 22
239 24
263 31
286 20
309 30
312 59
322 82
325 107
318 133
307 156
320 178
319 224
309 248
309 273
307 298
307 323
301 352
279 369
254 371
229 371
204 371
180 363
155 363
131 370
106 369
82 361
