46 318
48 343
62 364
86 371
111 371
135 363
160 367
185 371
210 371
235 369
260 365
285 371
310 371
334 363
345 317
339 292
319 276
294 274
280 253
306 252
330 243
350 227
361 202
348 180
325 170
304 156
280 149
291 113
291 88
301 64
298 34
277 20
252 24
229 34
204 32
179 32
156 22
131 22
110 36
110 61
120 84
120 109
121 154
96 160
73 172
49 181
50 226
70 242
93 252
118 255
100 276
74 276
54 292
