110 190
159 195
183 218
135 218
110 220
159 227
184 248
131 248
106 250
118 272
145 269
170 269
195 272
220 269
245 269
273 269
287 248
259 248
241 229
241 204
241 179
241 154
249 130
249 105
249 80
250 39
233 20
208 20
183 20
158 24
158 49
158 74
158 99
158 124
158 149
183 153
183 186
135 186
