64 273
54 250
79 248
107 248
135 248
163 248
149 227
93 227
68 220
117 218
170 211
140 195
92 195
68 188
116 186
164 186
155 153
130 153
105 153
80 147
80 122
80 97
80 72
80 47
80 22
105 20
130 20
155 20
180 20
205 20
230 20
255 20
280 20
305 20
321 40
321 65
321 90
321 115
302 153
277 153
252 153
227 154
227 179
251 186
299 186
323 195
275 195
227 204
250 218
285 218
310 218
227 229
244 248
272 248
300 248
328 248
339 271
314 269
286 269
258 269
227 269
202 269
177 269
149 269
121 269
93 269
