133 269
116 250
147 248
150 218
150 188
162 165
162 140
162 115
162 90
156 65
156 40
171 20
196 20
221 20
233 42
233 67
233 92
233 117
220 153
195 154
195 179
219 186
267 186
243 195
195 204
218 218
266 218
242 227
195 229
225 248
256 248
281 248
266 271
239 269
211 269
186 269
161 269
