150 273
140 250
165 247
166 215
166 190
166 165
166 140
166 115
166 90
166 65
166 40
183 21
208 21
215 45
215 70
215 95
215 120
215 145
191 154
191 179
215 186
239 195
191 204
214 218
245 227
191 229
231 248
259 248
243 270
217 269
177 269
