113 269
94 252
127 248
152 227
128 220
128 190
153 186
158 160
142 140
142 115
142 90
140 65
140 40
155 20
180 20
205 20
230 20
251 34
251 59
251 84
251 109
249 152
224 153
199 154
199 179
223 186
271 186
295 195
247 195
199 204
222 218
279 218
255 227
199 229
216 248
241 248
269 248
297 248
283 269
255 269
218 273
191 269
166 269
141 269
