60 272
87 269
115 269
143 269
171 269
196 269
221 269
246 269
274 269
299 269
327 269
341 248
313 248
260 248
239 229
286 227
310 218
262 218
239 204
287 195
311 186
263 186
239 179
239 154
264 153
289 153
311 134
311 109
311 84
311 59
311 34
290 20
265 20
240 20
215 20
190 20
165 20
140 20
115 20
90 22
90 47
90 72
90 97
90 122
90 147
115 153
140 153
165 153
180 173
158 186
110 186
62 188
86 195
134 195
167 218
111 218
62 218
87 227
143 227
157 248
129 248
101 248
73 248
48 250
