64 243
64 218
66 188
68 160
70 123
68 98
72 72
83 49
102 32
127 38
152 38
177 38
200 28
224 37
241 56
249 80
253 105
251 132
245 168
235 196
235 242
260 246
285 246
271 269
262 293
248 315
234 337
224 361
217 386
227 409
244 437
221 447
196 447
171 447
146 445
126 430
140 399
130 376
122 352
116 327
99 308
80 291
70 268
