82 131
80 106
84 78
94 54
112 36
137 30
160 40
185 40
210 30
235 36
253 54
263 77
267 102
267 127
261 164
253 188
255 213
255 238
271 258
261 282
247 308
232 331
221 354
213 380
217 405
220 445
195 447
170 447
145 445
128 426
145 407
140 371
134 346
127 322
111 302
95 282
88 258
86 233
86 208
88 182
85 156
