66 260
74 284
86 306
100 327
112 349
120 373
110 408
92 426
109 445
134 447
159 449
184 447
209 445
229 430
213 410
227 386
239 364
249 336
264 315
285 300
302 281
309 246
311 198
309 173
307 148
305 123
303 98
301 73
292 49
270 37
246 28
223 38
198 38
175 28
152 38
136 58
128 82
124 114
126 139
128 164
135 188
146 211
137 246
112 246
87 246
44 248
