50 261
30 246
70 246
95 246
120 246
145 246
170 246
162 203
156 178
152 153
150 128
152 98
158 68
169 45
189 29
213 38
238 38
262 30
284 42
308 49
315 73
317 98
319 123
321 148
323 173
325 198
325 223
321 262
310 289
290 305
269 320
255 342
244 369
229 390
213 410
219 443
194 447
169 447
144 447
119 447
94 445
74 430
92 412
107 372
100 348
87 326
72 306
58 285
