30 223
30 198
32 168
34 132
36 106
39 81
44 52
67 42
90 32
115 38
140 38
163 28
183 43
195 65
201 90
203 115
203 146
197 186
189 210
181 238
205 246
230 246
255 246
280 246
305 246
299 274
285 302
269 322
255 346
247 374
253 399
268 419
245 447
220 447
195 447
170 447
145 445
126 428
127 391
112 371
102 348
91 325
71 310
51 295
37 274
30 250
