49 263
56 287
70 308
86 328
98 350
104 375
88 412
70 430
90 445
115 447
140 447
165 447
190 447
215 444
214 411
230 391
245 368
257 344
269 322
290 307
310 291
323 266
329 235
329 210
327 185
325 160
323 135
323 110
321 85
316 60
296 45
272 37
247 40
222 40
199 30
179 45
168 68
163 97
160 122
160 147
163 172
168 197
176 221
168 246
143 246
118 246
93 246
68 246
26 252
