38 272
30 248
55 246
80 246
105 246
130 246
155 246
180 246
205 246
228 216
231 191
234 146
237 121
240 76
244 32
267 42
292 41
315 51
321 76
321 101
323 126
323 151
325 176
325 201
321 246
315 280
301 302
281 318
264 337
252 359
238 381
215 408
228 430
203 445
178 447
153 447
128 447
103 447
78 445
56 432
74 412
91 393
92 356
82 333
65 314
50 294
