152 45
177 39
199 51
221 64
245 72
270 77
294 86
316 99
334 117
350 137
370 152
388 170
405 189
425 204
448 214
471 224
493 236
513 251
531 269
549 287
561 309
570 333
580 356
590 379
595 404
605 427
610 452
615 477
620 520
627 544
627 570
602 574
586 594
566 579
549 560
525 552
500 555
497 594
485 649
466 670
462 639
474 606
474 581
470 542
445 545
452 569
444 607
433 633
420 671
423 696
447 704
405 730
386 750
366 735
344 722
375 711
397 699
374 677
396 664
409 642
419 612
424 563
420 538
402 520
384 502
369 482
349 467
337 445
325 423
310 403
301 379
284 360
274 337
264 314
250 293
239 270
229 247
229 222
229 197
234 167
224 144
210 123
201 99
189 77
167 65
