46 194
24 207
60 215
85 220
104 237
119 257
124 282
129 307
134 332
144 355
155 378
174 395
185 418
200 438
222 450
242 465
235 494
212 504
191 519
171 535
166 560
260 490
283 478
284 507
269 527
254 552
272 570
286 549
306 495
326 480
351 475
376 470
401 470
424 460
449 465
466 484
486 499
506 515
522 535
544 547
562 565
582 580
604 592
626 605
651 610
673 598
680 574
677 549
657 534
637 519
619 501
597 489
577 474
557 459
535 447
515 432
495 417
480 397
462 379
447 359
425 347
405 332
389 312
369 297
351 279
329 266
309 251
287 239
267 224
243 216
225 198
220 173
210 150
225 125
222 99
199 109
176 119
151 125
129 137
106 150
91 170
69 184
