57 80
39 62
59 47
81 35
104 24
128 31
148 46
160 68
175 88
175 135
175 160
189 181
200 204
223 214
248 219
271 229
293 241
313 256
331 274
353 286
371 304
386 324
401 344
416 364
430 385
449 402
464 422
486 434
506 449
528 461
548 476
565 495
575 518
573 543
558 563
535 575
510 580
487 570
469 552
451 534
436 514
419 495
394 492
370 485
345 480
320 485
305 505
298 538
285 560
261 570
241 585
216 590
191 590
171 574
177 549
199 532
223 524
232 494
217 474
197 459
179 441
159 426
139 411
121 393
109 371
96 349
89 325
79 302
74 277
69 252
79 222
94 162
104 139
90 118
72 100
