42 204
24 222
169 155
192 165
194 197
194 222
199 247
209 270
216 294
229 316
241 338
259 356
277 374
297 389
319 401
341 413
356 433
368 455
379 478
374 522
369 547
360 586
341 604
367 610
398 513
380 425
405 430
430 430
455 435
474 452
474 477
474 502
479 527
479 552
474 597
484 620
495 572
480 425
503 413
525 400
548 390
571 380
596 375
620 365
645 360
668 350
687 314
662 309
637 309
612 304
587 299
563 290
540 279
517 269
494 259
471 249
448 239
423 234
398 229
373 229
348 229
323 225
298 219
275 208
265 185
260 160
255 135
248 111
228 96
204 89
179 92
164 112
149 139
126 150
104 162
82 174
60 186
