24 167
24 142
39 122
51 100
64 77
74 52
96 39
121 39
146 44
164 62
176 84
180 109
185 134
180 175
165 215
153 238
140 260
130 285
115 310
110 340
131 354
139 327
149 302
159 277
179 257
199 242
223 234
248 234
273 234
298 234
323 234
348 235
372 244
395 254
418 264
440 277
458 295
479 309
498 326
520 339
540 354
563 365
584 379
605 393
628 404
653 409
649 442
625 450
619 491
597 479
575 467
551 460
526 465
503 455
480 445
455 445
430 450
405 450
381 460
358 470
334 477
310 485
310 510
313 620
316 660
294 647
299 599
294 574
294 549
287 525
284 500
268 480
256 458
234 446
212 434
187 434
162 440
137 445
114 435
94 420
79 400
64 380
54 357
54 332
64 307
76 285
91 265
104 242
119 222
131 200
139 172
144 134
136 110
114 122
90 130
75 150
65 175
65 200
62 225
39 215
34 190
