32 54
38 80
63 80
54 222
54 247
64 270
74 293
87 315
107 330
129 342
153 350
177 359
182 384
162 399
185 410
210 410
235 415
254 397
278 390
301 380
326 375
349 365
373 358
397 350
422 345
447 345
472 350
495 360
520 365
545 360
558 335
540 317
520 302
502 284
478 275
453 270
428 265
403 260
378 254
355 244
332 234
309 224
285 217
263 205
240 194
217 184
195 171
180 151
170 128
160 105
155 80
150 54
139 31
117 19
92 19
67 19
47 34
