84 532
79 507
94 487
109 467
134 471
156 484
179 467
194 447
209 427
221 405
236 385
249 362
264 337
279 312
289 287
299 262
309 232
314 207
324 182
334 157
344 132
354 107
364 82
379 62
394 37
416 24
441 24
466 29
480 50
497 69
522 74
540 92
550 115
535 155
520 175
495 170
470 165
445 165
430 185
415 205
400 225
385 245
370 270
355 290
340 315
325 340
320 365
310 390
300 430
290 455
280 495
272 529
254 547
236 565
218 583
195 595
171 605
146 599
127 550
102 550
