84 527
79 502
94 482
114 467
138 474
161 484
186 479
206 464
229 452
249 437
269 402
269 377
269 352
274 307
274 282
274 257
274 232
279 192
279 167
297 149
322 144
347 139
372 134
389 115
379 92
374 67
389 42
409 27
434 24
459 24
475 44
485 67
510 69
533 80
545 102
553 126
535 155
517 175
492 169
467 165
442 160
418 168
393 173
369 182
345 190
320 195
320 220
320 245
315 275
315 300
315 325
315 350
315 375
315 400
311 435
291 450
271 465
253 483
230 495
210 510
215 535
213 583
194 600
170 607
146 599
127 550
102 545
