84 527
79 502
94 482
114 467
138 474
161 484
180 466
195 446
210 426
222 404
237 384
249 362
264 337
279 312
294 292
309 267
324 247
339 222
354 197
369 172
384 147
394 112
379 92
374 67
389 47
407 29
432 24
457 24
475 42
479 67
488 91
495 115
518 104
540 92
550 115
540 155
524 175
499 170
474 165
449 162
430 180
415 205
400 225
385 245
373 268
358 288
346 310
331 330
319 352
300 370
285 395
270 420
255 440
240 465
223 488
210 510
215 535
216 580
198 598
176 610
153 600
129 591
124 566
119 541
108 518
