79 522
79 497
97 479
117 464
140 474
163 484
183 469
195 446
209 422
224 402
239 377
254 352
269 332
284 307
299 282
314 262
326 240
339 217
354 197
369 172
384 147
394 112
379 92
374 67
389 47
407 29
432 24
457 24
475 42
485 65
510 69
533 80
545 102
550 127
528 140
503 145
478 148
454 157
436 175
424 197
405 215
393 238
378 258
365 280
350 300
338 323
323 343
308 363
293 383
280 405
265 425
253 448
238 468
225 490
210 510
215 535
220 560
211 585
191 600
166 603
142 595
118 550
94 542
