334 387
334 362
356 305
371 285
384 257
389 217
389 192
394 167
394 142
394 117
394 92
389 67
404 47
429 44
454 46
465 80
465 105
465 130
465 155
467 180
465 210
467 235
475 259
488 281
503 301
515 323
524 347
530 372
530 397
530 422
530 450
530 475
535 500
530 530
535 555
535 580
535 605
535 630
530 665
535 690
530 720
535 745
535 770
537 795
520 820
498 833
474 840
449 840
424 840
399 840
374 835
351 824
339 802
334 777
339 737
339 712
339 687
339 662
339 637
339 612
339 587
334 537
334 512
334 487
334 462
334 437
334 412
