161 159
149 137
167 119
187 104
199 62
194 37
216 24
241 24
266 24
291 29
313 41
331 59
356 59
381 59
406 59
431 59
456 55
481 49
506 44
531 49
553 61
575 73
598 84
620 71
645 66
670 67
678 91
668 118
655 140
640 160
640 185
648 210
628 225
603 230
578 235
553 230
533 215
513 200
490 190
465 195
440 200
415 200
390 205
365 210
340 210
315 205
292 194
268 185
245 175
220 180
195 185
170 183
