159 150
149 127
169 112
187 94
207 79
209 52
204 27
229 24
254 24
277 34
299 46
321 59
346 54
371 49
395 41
420 39
445 34
470 34
495 34
520 37
542 49
562 64
582 79
606 70
631 69
654 59
675 73
674 117
655 135
635 155
640 180
632 210
607 215
582 214
558 205
536 193
516 178
491 175
466 180
441 185
416 185
391 190
366 195
341 200
318 190
295 180
272 170
247 170
222 175
197 180
174 170
