134 172
134 147
149 127
169 112
184 92
184 67
179 42
203 34
228 29
252 19
274 31
294 46
312 64
337 64
362 64
387 64
412 59
436 50
461 44
486 44
511 49
533 61
555 73
580 79
604 72
629 74
652 84
665 106
654 137
635 155
620 175
630 198
637 234
612 235
587 235
562 230
537 225
515 212
495 197
470 195
445 200
420 205
395 210
370 215
345 215
320 215
295 210
270 205
247 195
227 180
202 185
177 190
152 190
