109 285
99 262
114 237
129 217
144 197
166 184
184 147
184 122
196 100
209 77
227 59
249 47
270 61
295 64
300 89
290 115
285 145
275 170
245 185
268 195
292 204
317 204
340 194
363 184
388 184
413 185
437 194
457 209
475 227
490 247
500 270
524 277
535 300
529 337
505 345
500 370
485 395
460 400
435 400
410 405
385 405
360 402
335 400
310 395
285 400
260 405
235 405
210 402
186 394
174 372
181 344
174 320
151 310
126 304
