24 177
24 232
46 245
71 248
96 250
108 228
132 220
134 262
129 287
124 317
129 342
134 367
149 387
169 402
187 420
204 439
224 455
229 497
229 522
244 542
231 565
219 587
237 605
262 610
287 610
295 575
295 550
305 520
300 495
323 485
348 480
368 463
390 450
413 440
436 430
444 454
454 487
464 510
464 535
459 567
439 582
457 600
482 605
507 609
529 597
522 570
520 545
530 520
535 480
540 440
553 418
560 370
560 345
575 406
579 431
586 455
589 480
594 505
611 524
636 520
630 476
611 459
605 428
600 403
600 378
595 353
590 328
575 308
557 290
548 266
535 244
527 220
522 195
508 174
483 169
459 177
447 204
422 205
420 180
413 156
391 144
366 144
344 157
326 180
306 195
291 215
269 227
255 256
230 263
220 240
215 215
215 190
215 165
215 130
220 100
239 82
240 50
238 20
213 24
189 32
171 50
149 64
125 71
107 89
85 101
65 116
56 140
34 152
