34 182
29 157
49 142
71 129
94 117
118 109
143 104
168 104
193 104
213 89
236 79
261 84
277 64
289 37
313 29
338 24
363 29
388 34
413 34
438 39
450 65
460 88
480 103
505 104
530 107
555 107
575 122
570 150
560 180
540 210
535 235
520 255
498 270
473 265
453 250
428 255
403 255
378 255
353 255
309 287
284 285
264 270
244 255
219 255
194 260
169 265
144 260
119 255
99 270
74 267
54 252
39 232
