24 162
24 137
34 107
34 82
58 75
73 95
97 104
122 99
142 84
165 94
165 119
165 144
170 169
195 164
220 164
245 164
270 164
295 164
320 167
344 174
369 179
392 189
417 194
442 189
467 184
489 172
507 154
514 122
509 97
497 75
522 69
535 91
540 116
540 141
530 165
518 193
503 213
480 225
460 245
455 285
450 320
440 355
440 380
450 403
450 428
443 458
428 478
416 500
391 505
369 492
391 480
404 457
401 428
381 413
358 423
343 443
325 462
306 480
281 485
259 472
286 460
306 445
296 404
289 380
264 377
240 370
215 370
195 385
185 415
175 440
165 475
146 510
124 497
139 467
139 442
139 417
120 400
110 425
100 460
90 495
67 505
49 487
69 452
74 407
77 380
74 355
64 332
52 310
49 285
44 260
44 235
39 210
29 187
