34 102
34 77
58 85
82 94
105 104
130 104
154 97
174 77
175 115
175 140
182 164
207 169
232 169
257 169
282 169
307 169
332 169
357 169
382 169
405 179
430 179
454 167
464 132
479 112
484 87
494 57
494 32
519 36
520 61
520 86
515 115
515 140
500 165
485 200
485 225
499 246
500 271
500 296
490 325
475 345
475 370
480 395
487 419
488 448
479 472
467 495
452 515
427 515
409 497
431 485
444 456
422 444
404 462
385 480
365 495
340 500
304 492
326 479
350 471
369 444
366 419
349 400
329 385
305 377
280 375
255 380
230 380
205 385
205 410
190 440
183 473
170 495
156 530
131 535
109 522
94 502
116 490
124 458
124 433
124 408
114 385
109 360
94 340
79 320
74 295
69 270
69 245
54 225
49 200
39 177
39 152
39 127
