34 82
39 57
49 34
72 24
97 29
121 36
146 30
171 34
196 39
221 44
246 44
271 44
296 49
321 54
346 59
371 59
396 59
421 59
446 59
471 59
496 59
521 59
546 59
571 64
591 79
600 103
600 128
595 165
590 190
580 230
580 255
575 280
573 313
568 338
546 350
521 355
534 277
520 315
501 340
479 327
494 307
509 283
502 259
490 237
465 235
445 250
422 260
400 272
378 260
353 260
330 250
305 255
305 280
305 305
295 330
270 327
279 302
270 260
258 288
250 312
236 340
214 327
226 305
225 273
207 255
187 240
167 225
147 210
127 195
107 180
84 170
64 155
39 152
24 132
34 107
