29 122
39 145
54 165
64 188
54 212
34 227
24 252
29 277
39 300
39 325
39 350
39 392
44 417
54 440
59 465
76 484
79 509
69 542
69 567
74 592
69 632
81 654
106 660
131 665
156 665
181 660
205 650
200 624
177 614
160 595
165 565
170 530
180 505
180 480
199 462
211 440
233 428
245 401
235 378
220 358
210 335
200 312
195 287
194 262
190 237
177 215
175 190
180 141
180 116
174 91
152 79
129 69
104 64
79 67
57 79
39 97
