24 287
24 262
36 240
56 225
66 189
51 169
39 147
34 122
49 102
69 87
93 79
118 79
143 85
165 97
183 115
185 150
180 190
175 215
185 238
195 261
195 305
205 328
215 351
220 376
230 399
230 424
215 455
200 480
200 505
190 545
185 570
175 600
192 619
212 634
206 660
186 675
161 675
136 675
111 670
89 657
84 632
84 600
74 577
74 552
84 529
81 504
66 484
59 460
49 437
44 412
39 387
34 362
29 337
29 312
