24 242
24 217
34 187
46 165
64 147
82 129
105 119
128 109
148 94
173 94
198 94
209 67
194 47
216 34
235 51
238 76
261 86
285 79
310 79
333 89
358 94
378 109
353 120
330 130
374 134
399 132
421 120
446 119
471 114
496 109
521 104
546 104
571 105
568 138
544 147
520 155
497 165
472 170
448 178
425 190
400 195
375 200
360 220
360 250
335 255
310 255
285 255
274 292
249 297
225 305
200 305
175 310
151 320
126 320
94 320
66 320
44 307
80 299
111 300
135 291
112 275
87 275
59 275
36 264
