19 177
19 202
31 224
51 239
76 245
96 230
117 244
140 255
165 250
188 238
197 214
219 202
244 205
269 207
294 205
319 205
344 205
367 215
387 230
412 224
430 205
454 212
469 232
493 240
516 230
530 205
553 195
545 150
545 124
545 99
545 74
545 49
541 24
516 19
491 19
466 19
441 15
416 19
391 15
366 19
341 19
316 19
291 19
266 24
241 29
216 30
194 42
214 76
189 81
164 82
139 81
114 82
90 91
68 104
53 124
29 132
