24 192
24 167
36 145
61 139
86 144
111 149
124 112
136 90
160 81
184 89
209 94
226 75
241 55
264 42
289 46
305 66
315 89
315 114
315 139
320 164
345 161
339 121
334 67
349 42
369 27
394 24
410 44
425 64
430 89
425 120
415 145
429 166
448 149
449 106
451 75
464 52
486 39
511 34
525 55
535 78
535 103
525 135
510 155
517 179
542 174
551 150
554 120
568 99
590 86
614 79
639 84
650 107
665 127
690 129
715 129
735 144
735 170
730 200
713 220
690 230
668 243
648 258
628 273
615 295
608 338
595 360
585 390
561 400
536 400
511 400
486 405
461 410
436 410
411 410
386 410
361 410
336 410
311 410
286 410
261 410
236 410
211 405
186 400
169 381
164 356
151 334
139 312
131 288
116 268
96 253
74 240
51 230
29 217
