224 307
219 282
231 260
256 259
265 283
270 308
275 333
280 358
290 381
300 404
319 367
314 342
314 317
319 282
319 257
324 232
324 207
329 182
347 164
372 169
375 200
370 240
370 265
370 290
372 315
375 340
382 364
394 297
394 272
404 227
404 202
404 177
409 152
427 134
450 144
460 167
460 192
455 235
450 280
450 305
450 330
450 355
460 378
484 367
496 345
505 321
514 297
526 275
534 237
546 215
560 194
584 186
590 211
590 245
582 274
577 299
568 323
555 345
548 383
535 405
535 430
530 460
532 485
535 510
560 506
574 477
579 452
597 434
612 414
632 399
657 399
660 424
645 460
638 488
625 510
615 535
600 555
590 595
575 620
560 640
548 663
535 685
518 705
499 722
481 740
457 749
432 744
407 740
382 735
357 730
332 725
307 725
282 725
264 707
269 677
264 652
259 627
259 602
254 577
259 530
259 505
259 480
254 455
249 430
244 405
234 382
229 357
224 332
