234 287
234 262
249 242
274 241
280 266
280 291
280 316
290 339
300 362
312 384
319 332
314 307
314 282
319 257
319 232
319 207
319 182
319 157
337 139
362 144
365 169
370 194
365 220
365 245
370 270
375 295
385 318
395 341
409 302
409 277
409 252
419 222
429 197
429 172
429 147
434 122
454 107
479 111
490 134
485 160
485 185
475 215
470 250
470 275
470 300
470 325
494 282
499 247
509 212
514 187
514 162
529 142
554 146
560 171
560 220
560 245
555 270
555 295
550 335
545 365
545 390
550 415
550 440
555 465
555 490
579 482
594 447
599 407
611 385
625 364
650 367
655 392
655 417
655 442
655 475
640 500
630 535
620 565
605 590
590 610
575 630
560 655
545 675
525 690
505 705
488 725
463 720
438 720
413 715
388 715
363 710
338 710
313 705
289 697
299 658
294 633
284 610
279 585
279 560
279 535
274 510
269 485
264 460
262 435
259 410
249 387
244 362
239 337
234 312
