174 212
174 187
186 165
211 159
215 184
220 209
225 234
235 257
240 282
252 304
259 264
254 227
249 202
254 167
259 137
259 112
264 87
279 67
297 49
310 71
310 105
305 140
305 165
310 190
310 215
310 240
334 202
334 177
334 152
339 122
344 97
344 72
344 47
359 27
384 31
395 54
395 79
390 125
390 150
385 195
385 220
385 245
392 269
410 241
414 202
414 177
419 142
424 102
424 77
442 59
465 69
470 94
475 119
475 144
475 169
470 205
470 230
470 255
470 280
470 305
472 330
477 355
485 379
490 404
495 429
515 401
524 367
534 322
546 300
560 279
585 277
597 299
590 340
590 365
585 390
575 425
565 450
555 480
545 505
530 525
518 548
505 570
490 595
470 610
450 625
430 640
419 677
394 680
369 680
344 680
319 680
294 680
269 680
244 680
229 642
234 606
234 581
224 558
214 535
214 510
214 485
214 460
214 435
212 410
209 385
207 360
204 335
194 312
189 287
184 262
179 237
