139 302
134 277
146 255
171 254
180 278
190 301
195 326
205 349
215 372
233 390
244 367
244 322
239 297
249 267
249 242
254 207
259 167
277 149
297 134
305 158
310 183
300 230
300 255
300 280
300 305
307 329
324 287
324 262
329 232
334 202
339 157
344 127
359 107
384 111
395 134
390 160
385 205
385 230
385 255
380 300
382 325
404 307
409 267
419 222
424 182
429 152
449 137
467 155
475 179
470 215
470 240
470 265
470 290
465 325
460 360
460 385
465 410
465 435
470 460
470 485
494 432
504 402
514 372
529 347
553 339
570 358
560 400
560 425
555 455
545 480
535 510
535 535
523 573
510 595
495 615
485 640
470 660
450 685
433 708
411 720
386 720
361 720
336 720
311 715
286 715
261 715
236 715
214 702
226 680
219 644
214 619
211 594
204 570
199 545
199 520
194 495
194 470
184 447
175 423
169 398
159 375
149 352
144 327
