29 307
34 332
56 345
81 345
104 355
124 370
141 389
164 400
186 413
208 425
233 430
258 435
254 472
239 492
274 487
296 499
317 485
340 495
363 505
386 515
405 532
414 556
424 579
419 627
410 666
398 689
374 697
349 707
369 722
394 725
419 720
440 700
440 675
450 650
465 625
475 595
475 570
499 577
517 595
529 617
539 640
549 663
534 702
514 717
536 730
560 737
584 730
597 695
590 671
585 646
583 621
575 597
559 577
550 553
542 529
535 505
550 485
563 463
585 450
610 445
635 445
660 450
685 450
710 445
735 440
758 430
781 420
803 408
825 395
848 383
868 368
886 350
904 332
916 310
915 264
900 244
885 224
865 209
824 202
842 220
862 235
874 277
859 297
841 315
817 324
792 329
770 341
745 342
721 334
696 329
674 316
654 301
632 289
612 274
587 269
564 259
539 254
514 249
489 244
466 254
441 260
417 269
392 274
368 284
343 289
319 297
295 306
273 319
248 321
240 297
240 272
225 252
207 234
187 219
162 224
137 229
112 234
90 222
65 219
42 229
24 247
34 270
60 275
102 304
78 295
53 299
