34 145
54 160
54 185
54 247
59 272
69 295
74 320
89 340
99 363
114 383
104 422
89 442
107 460
130 470
155 470
179 462
197 444
205 420
210 390
230 375
255 370
280 365
303 355
326 345
349 355
364 375
384 390
394 417
379 437
394 457
418 448
436 430
437 465
460 475
479 457
485 415
480 390
480 365
485 330
490 282
480 259
475 234
460 214
443 195
423 180
398 174
373 169
348 164
323 164
298 164
273 164
248 160
223 156
201 144
183 126
165 108
153 86
141 64
118 54
94 46
69 44
44 47
49 72
42 104
24 122
