34 175
54 190
79 185
102 195
104 220
109 245
116 269
119 294
119 319
124 344
129 369
136 393
144 417
144 442
149 467
154 492
159 517
154 557
139 587
157 605
180 615
205 610
220 575
225 550
230 515
230 490
230 465
230 440
230 415
253 405
278 398
302 389
326 380
351 375
374 365
397 355
422 359
437 379
452 399
464 421
482 439
502 455
522 470
542 485
559 504
564 529
569 554
554 582
576 595
595 575
600 550
595 525
600 602
618 620
640 605
645 578
640 553
640 528
635 503
626 479
608 461
593 441
578 421
565 399
555 376
550 351
545 326
535 303
525 280
545 265
577 255
602 250
635 230
659 162
647 184
632 204
612 219
588 229
563 234
538 239
513 244
488 249
463 244
438 239
413 239
388 234
363 234
338 229
313 229
288 224
264 216
239 212
217 200
200 181
190 158
180 135
171 94
148 84
123 79
98 79
74 87
59 107
44 137
24 152
