29 152
24 127
39 107
54 87
76 74
101 69
126 69
149 79
160 102
172 124
184 146
202 164
222 179
244 191
268 199
293 205
318 210
343 214
368 219
393 220
418 224
443 229
466 239
481 259
490 283
499 307
500 332
510 355
524 376
539 396
557 414
572 434
575 459
575 484
569 512
547 525
529 507
539 462
520 445
515 480
501 515
479 502
489 467
489 442
470 425
449 411
429 396
411 378
393 360
368 365
343 360
318 360
293 365
268 370
243 370
220 380
220 405
210 430
205 475
193 503
171 515
146 515
142 484
154 456
154 431
149 406
144 381
139 356
134 331
121 309
109 287
104 262
104 237
96 213
89 189
72 170
47 170
