111 255
123 284
140 265
160 250
179 232
197 214
221 223
229 247
239 270
244 295
249 320
239 357
229 382
216 405
201 425
189 447
176 470
164 492
164 517
164 542
176 564
201 570
207 540
205 515
218 493
233 473
248 453
263 433
278 413
298 398
319 412
334 432
349 452
367 470
382 490
399 509
419 525
439 540
470 553
494 546
462 529
445 507
427 489
412 469
400 447
385 427
370 407
357 385
345 363
335 340
340 310
350 265
355 240
365 210
390 215
407 234
425 252
447 265
472 265
495 255
479 229
454 226
439 206
424 186
409 166
389 151
365 144
340 143
330 120
322 74
304 56
279 57
261 75
249 97
254 122
236 144
211 145
189 157
169 172
156 195
141 215
126 235
