111 305
123 334
140 315
160 300
179 282
197 264
222 269
229 293
235 318
244 342
249 367
241 405
229 427
214 452
199 477
184 502
171 525
156 545
144 567
134 592
152 610
172 594
190 575
205 555
220 535
235 515
254 497
269 477
284 457
309 455
329 470
346 489
364 507
382 525
400 543
419 560
436 579
456 594
479 605
476 564
461 544
446 524
428 506
413 486
398 466
380 448
365 428
350 408
340 385
340 360
350 315
355 290
365 260
390 265
407 284
425 302
440 322
458 340
481 350
484 316
469 296
454 276
439 256
424 236
409 216
389 201
365 194
340 193
330 170
328 136
315 114
305 91
285 76
276 100
264 122
249 147
254 172
236 194
211 195
189 207
169 222
156 245
141 265
126 285
