69 452
69 427
87 409
111 494
135 486
134 444
120 423
114 398
109 373
104 348
94 325
89 300
84 242
99 222
121 209
139 187
149 162
159 127
171 105
186 85
204 67
226 54
249 44
274 39
299 39
324 39
347 49
370 59
393 70
413 85
440 117
455 137
470 157
478 181
415 115
425 138
437 160
449 182
455 207
473 225
490 244
510 259
517 299
503 320
483 335
460 287
440 272
415 270
425 293
440 313
458 331
450 365
434 385
424 362
409 342
390 325
355 305
365 328
377 350
390 372
405 392
420 412
415 450
399 470
374 464
374 439
357 420
342 400
324 382
300 375
305 400
310 425
320 448
325 473
322 519
304 537
279 537
279 512
279 476
269 453
259 430
244 410
234 387
222 365
198 358
185 380
180 410
155 395
157 420
160 445
159 493
145 515
123 530
99 521
86 499
79 475
