129 167
134 117
152 99
177 94
199 106
194 140
178 120
155 131
158 156
167 180
187 195
212 199
237 199
262 199
287 194
310 204
333 215
358 220
383 225
407 234
420 256
444 264
469 266
494 271
514 286
530 306
547 325
562 345
580 363
585 388
570 430
560 380
555 405
545 435
559 456
570 479
589 496
600 519
605 544
600 575
576 583
551 580
529 567
544 537
531 514
509 502
485 495
470 515
460 545
453 570
428 570
403 570
404 542
414 507
414 465
390 457
365 460
370 485
375 510
380 535
380 560
369 600
344 600
319 597
304 577
322 559
319 532
310 508
300 485
285 510
275 535
272 574
247 579
222 580
204 562
219 542
224 517
234 492
244 462
254 432
264 407
264 357
260 327
240 312
228 290
205 280
182 270
162 255
144 237
168 230
149 212
134 192
