79 322
79 297
97 279
99 237
99 212
99 187
109 162
119 137
131 115
149 97
164 77
184 62
199 42
223 34
246 24
271 24
296 29
316 44
341 45
365 52
387 64
405 82
413 106
422 130
425 155
425 180
430 205
430 230
430 255
451 269
460 293
455 330
445 355
441 380
429 402
410 420
400 445
390 470
390 495
385 535
370 555
355 580
335 600
315 615
292 625
267 630
244 620
225 603
205 588
187 570
172 550
164 526
164 501
151 479
139 457
134 432
116 414
104 392
89 372
84 347
