159 157
144 177
166 190
191 185
214 195
204 222
194 252
219 252
239 237
239 272
229 297
224 337
229 362
229 387
219 412
209 442
204 467
222 485
237 464
259 476
264 501
269 526
281 548
300 565
323 575
348 575
373 573
397 564
415 545
425 520
435 495
435 470
440 440
445 415
458 393
465 360
470 333
465 308
460 283
450 260
435 240
460 235
484 242
508 250
532 259
556 268
578 280
598 265
584 241
569 221
550 204
533 185
515 167
495 151
482 129
464 111
440 104
417 94
393 85
368 84
343 84
318 84
293 89
269 97
244 104
221 115
199 127
177 139
