154 492
154 467
169 447
187 429
202 409
209 372
224 285
229 237
232 194
212 179
187 185
169 167
191 154
215 146
239 139
259 122
277 104
299 92
323 84
348 84
373 84
396 94
420 102
438 120
453 140
465 162
480 182
500 197
522 209
542 224
548 260
523 255
503 240
483 225
458 228
445 250
459 271
470 294
480 317
485 342
485 367
480 405
480 430
470 455
460 485
455 525
440 550
424 572
402 585
379 595
354 595
329 597
305 590
282 580
264 562
249 542
237 520
233 495
213 510
189 517
164 515
