164 172
174 195
199 190
204 227
189 247
176 270
164 292
164 317
186 329
207 314
225 295
219 336
204 357
204 382
209 407
209 447
194 467
184 497
189 522
207 540
222 519
240 500
254 521
262 545
274 567
294 582
318 590
343 595
368 595
391 585
413 573
428 553
440 525
450 500
463 478
472 454
480 425
490 397
490 372
484 347
472 325
460 303
450 280
445 255
468 245
493 250
517 259
541 268
563 280
568 250
550 232
530 217
508 204
490 186
488 161
473 141
455 123
435 108
413 96
389 89
366 79
341 79
316 84
293 94
270 104
247 114
229 132
209 147
186 159
