29 367
24 342
42 324
65 314
89 307
113 299
138 294
163 294
188 289
213 289
238 289
263 284
288 284
310 271
335 272
355 287
379 294
404 296
429 292
453 284
476 294
499 304
522 314
547 319
570 329
595 324
619 317
643 309
668 304
668 333
655 355
669 376
662 409
637 405
614 395
590 387
565 385
540 385
515 390
491 400
466 405
441 405
416 410
391 415
366 415
344 427
325 445
308 464
284 457
264 442
244 427
220 420
195 415
170 410
145 405
120 405
95 400
72 390
47 385
