39 182
39 157
54 137
78 129
96 110
114 92
136 80
160 71
182 59
205 49
230 44
255 41
277 29
302 29
327 24
352 24
377 29
402 29
422 44
442 59
465 69
485 84
505 99
528 110
543 130
560 149
585 154
610 149
635 149
660 149
685 147
703 165
710 189
698 213
673 220
648 220
623 220
598 215
573 215
549 222
530 240
508 253
485 265
465 280
440 285
419 300
394 305
371 315
348 325
323 325
298 320
273 320
250 310
226 303
202 295
182 280
157 275
134 265
115 248
95 233
75 218
57 200
