24 222
24 197
34 172
56 159
81 159
104 169
129 174
154 179
179 179
196 160
211 140
224 117
242 99
260 81
279 62
299 47
321 35
345 26
370 24
395 24
420 24
445 29
469 36
493 45
518 50
539 64
558 81
580 94
600 109
619 126
637 144
655 162
674 179
695 193
690 235
672 254
654 272
639 292
624 312
600 320
580 335
562 354
547 374
527 389
509 407
487 419
463 428
439 435
414 440
389 435
365 427
341 419
320 405
299 391
281 373
263 355
245 337
227 319
212 299
197 279
172 275
147 279
122 285
97 290
72 295
47 290
29 272
24 247
