24 255
44 270
64 285
84 300
109 305
131 318
154 328
164 351
176 373
188 395
205 375
210 345
234 352
256 365
279 375
304 375
329 375
354 370
378 363
400 350
423 340
445 325
464 307
465 270
488 280
506 298
528 310
546 328
568 340
570 313
560 290
565 255
570 225
583 203
598 183
630 166
606 159
581 154
556 155
534 167
510 174
485 179
460 180
465 144
465 119
450 99
435 79
415 64
392 54
370 42
346 34
323 24
298 24
274 16
249 19
224 19
199 24
174 27
151 40
139 62
119 82
101 100
79 112
66 135
51 155
39 177
26 210
14 232
