46 184
34 162
49 142
67 124
87 109
102 89
122 74
142 59
165 49
186 35
211 34
236 29
261 29
286 25
311 24
336 24
361 24
386 29
410 37
434 44
457 54
479 66
500 80
514 101
532 119
554 131
574 146
599 149
622 139
647 134
672 134
697 139
709 161
700 205
682 224
657 225
632 220
607 214
583 205
559 212
540 230
520 245
500 260
476 270
452 279
427 280
404 290
381 300
358 310
333 315
308 315
283 315
258 315
233 310
209 302
187 290
172 270
152 255
131 269
124 245
109 225
86 214
66 199
