24 172
24 147
34 122
49 102
74 106
96 119
118 131
140 143
165 149
189 142
201 120
221 104
240 86
260 71
279 52
297 34
322 29
347 29
372 24
397 24
422 29
447 29
470 39
495 44
518 55
542 64
567 69
592 74
615 84
635 99
650 119
660 142
675 162
690 182
680 225
664 247
645 265
623 280
600 290
578 303
556 315
531 320
511 335
491 350
466 355
441 360
416 365
391 370
366 370
341 369
319 357
299 342
279 327
261 309
244 290
225 273
209 253
195 232
176 215
151 215
126 220
101 225
76 230
51 235
29 222
24 197
