44 332
59 352
84 352
108 345
128 330
151 320
175 310
200 310
225 310
250 300
275 295
298 283
320 295
330 318
339 342
354 362
364 385
379 405
386 429
401 449
422 435
445 420
440 379
430 356
415 336
405 313
390 293
382 269
365 250
385 235
409 227
428 210
445 190
460 170
475 150
500 145
523 133
545 120
565 90
550 62
532 44
507 44
487 29
464 39
439 44
414 44
389 47
364 52
352 74
332 89
314 107
295 125
274 111
249 112
244 149
221 159
196 164
171 164
146 169
124 182
106 200
94 222
74 237
61 260
49 282
34 302
