29 432
58 465
81 455
106 453
125 435
144 417
166 405
189 395
210 380
235 375
258 363
278 348
300 330
315 310
324 337
329 362
347 380
372 379
396 370
414 352
426 330
409 301
387 289
370 270
393 260
416 250
436 235
451 215
469 197
487 179
499 157
521 145
543 133
560 105
580 90
575 65
569 39
546 29
523 39
498 44
475 54
455 69
432 79
412 94
392 109
377 129
359 147
337 159
319 177
294 184
271 174
249 162
249 187
254 212
241 235
219 247
197 259
176 274
154 287
134 302
112 314
92 329
77 349
62 369
44 387
29 407
