29 517
44 537
64 522
85 505
100 485
120 470
140 450
160 435
183 425
206 415
225 395
248 383
270 370
290 355
311 369
326 389
339 411
363 420
385 405
380 372
365 352
347 334
330 315
345 295
369 287
381 265
399 247
411 225
423 203
435 180
450 155
470 140
485 120
505 105
525 90
537 64
515 52
499 32
474 39
451 49
426 55
405 69
382 79
361 94
339 107
324 127
309 162
296 190
278 209
255 219
230 223
209 209
194 235
205 258
197 289
174 299
151 309
126 314
104 327
91 350
79 372
64 392
49 417
39 447
29 487
