24 22
39 42
64 40
89 45
114 45
139 50
164 50
174 73
153 89
124 81
99 79
74 79
49 79
24 82
39 102
64 105
89 105
114 105
139 110
167 110
159 144
131 140
106 139
81 135
56 139
24 142
42 160
70 160
95 165
120 165
145 165
157 199
132 194
107 194
82 194
57 194
32 194
38 220
63 220
88 220
113 220
138 220
163 224
185 210
185 185
200 165
225 167
250 170
275 175
300 175
325 180
350 182
375 187
399 195
424 195
449 200
474 200
499 195
524 190
543 173
555 140
541 119
519 106
497 94
473 85
448 81
424 74
399 71
374 67
349 69
324 69
299 71
274 74
249 76
224 74
200 65
203 30
178 29
153 24
128 24
99 19
74 16
49 17
