49 62
71 75
96 80
121 80
146 80
171 85
196 90
191 124
166 119
141 114
110 104
74 112
96 125
121 130
144 140
169 145
145 169
120 169
95 164
59 172
81 185
106 190
135 195
167 194
152 214
118 214
90 214
65 209
51 230
76 235
104 235
132 235
166 235
191 235
216 235
241 235
250 195
275 195
300 195
325 190
350 185
375 185
400 185
425 187
450 190
475 195
500 200
525 200
550 200
574 177
556 159
531 159
506 159
481 154
456 154
431 149
406 149
381 144
356 149
331 149
306 149
281 149
260 135
265 110
260 72
235 69
210 69
185 64
160 59
135 54
110 54
85 54
