69 102
87 120
118 125
159 135
176 154
135 144
99 142
69 147
84 167
109 170
134 175
159 180
157 209
132 204
107 204
82 204
84 237
109 235
134 240
159 240
184 245
209 250
234 250
253 233
255 200
280 200
305 205
330 200
355 205
380 210
405 215
430 220
455 220
480 222
504 230
529 230
554 235
579 230
598 213
588 181
569 164
545 157
520 154
495 154
470 159
445 159
420 154
397 144
374 134
349 129
326 119
301 114
280 100
288 65
265 54
240 49
215 44
190 44
165 44
142 34
117 34
92 34
92 70
117 75
142 80
179 87
157 100
125 99
99 94
