19 22
34 42
58 50
85 53
116 55
150 60
175 62
193 114
168 109
143 104
115 94
90 91
65 89
29 97
51 110
76 113
101 115
125 122
150 128
174 135
179 160
154 169
120 164
90 157
66 149
24 152
46 165
71 174
100 180
134 185
168 190
164 216
139 214
114 212
86 214
61 214
36 214
36 240
61 240
100 235
125 240
150 240
175 240
190 205
195 180
220 175
245 180
270 182
294 190
319 195
344 200
369 205
392 215
416 223
440 230
465 235
490 235
515 240
540 235
550 204
530 189
507 179
482 174
457 169
432 169
407 169
382 169
357 169
332 164
308 155
283 149
258 144
235 134
210 133
215 101
225 77
220 52
195 47
164 39
136 39
102 34
77 29
52 24
