49 347
49 322
67 304
87 289
110 279
133 269
141 245
164 234
184 219
209 214
234 214
259 214
270 191
279 158
268 135
244 127
229 107
253 99
278 94
279 67
279 42
297 24
315 42
320 67
332 89
357 94
369 122
345 130
325 145
325 170
325 195
335 218
360 219
385 219
410 219
433 230
450 249
460 272
485 274
509 281
527 299
535 323
545 346
545 371
527 394
502 400
477 405
453 413
428 415
403 415
378 415
353 418
328 420
303 423
278 425
253 425
228 425
203 425
178 420
153 415
131 403
109 390
85 383
67 365
