41 300
29 322
41 344
61 360
84 370
109 375
134 375
157 385
180 395
205 400
228 410
253 415
278 415
303 415
328 415
353 410
378 405
403 400
428 395
451 385
473 373
495 360
514 342
525 310
511 289
491 274
469 261
445 254
430 234
425 209
402 199
377 194
353 185
328 179
304 172
292 150
290 125
313 115
338 108
315 84
290 79
290 46
277 24
269 65
258 89
233 89
209 97
227 115
252 119
259 143
255 176
236 194
211 195
189 207
164 212
140 221
120 236
105 256
81 265
59 277
