34 322
29 297
41 275
61 260
84 249
109 242
127 224
147 209
170 199
193 189
218 189
243 189
254 142
237 120
214 110
204 87
228 79
253 74
259 37
281 24
295 45
302 69
325 79
349 102
325 110
305 125
305 150
305 175
329 184
354 184
378 191
400 203
422 215
440 233
458 251
480 263
502 275
520 293
525 318
509 352
487 365
467 380
442 385
417 390
392 390
368 398
343 403
318 405
293 405
268 405
243 410
218 410
193 410
168 410
144 402
120 395
97 384
73 375
49 367
34 347
