29 52
24 27
49 24
74 24
99 24
124 24
149 24
174 24
199 24
224 24
249 24
274 24
299 24
324 24
349 24
374 24
399 24
410 47
410 72
410 97
403 123
390 145
370 160
348 175
325 185
303 198
280 210
280 235
280 260
280 285
280 310
280 335
280 360
280 385
280 410
297 429
320 439
345 444
368 454
391 464
405 485
375 485
350 485
325 485
300 485
275 485
250 485
225 485
200 485
175 485
150 485
125 485
100 485
63 474
86 464
109 454
132 444
157 439
180 429
203 419
209 387
209 362
204 337
204 312
204 287
199 262
199 237
194 212
170 205
146 198
122 190
97 184
79 166
66 144
51 124
44 100
39 75
