89 447
89 422
113 414
138 414
163 419
188 419
213 419
238 419
263 419
288 424
313 424
338 429
363 430
388 434
413 439
438 439
463 439
479 407
497 389
522 394
535 430
540 455
540 480
535 520
520 540
496 550
474 537
469 512
457 490
432 485
407 485
382 480
357 480
332 480
307 480
282 479
257 475
232 475
207 470
182 470
157 469
132 465
107 465
