29 342
24 317
42 299
64 287
86 275
111 269
134 259
159 254
184 249
209 244
234 237
258 229
281 219
300 201
319 175
319 150
306 128
284 115
260 107
236 99
216 84
199 65
189 42
211 29
236 34
261 39
286 44
309 54
333 61
357 69
382 74
404 86
428 95
452 104
475 114
500 117
525 116
550 111
570 126
570 151
575 176
575 201
575 226
580 251
580 276
580 301
568 343
553 363
534 380
511 390
489 402
470 420
450 435
435 460
420 485
405 505
391 530
376 550
358 568
334 577
319 557
331 535
344 512
359 492
369 467
374 420
349 417
325 425
305 440
283 453
261 465
241 480
218 490
197 504
172 510
149 520
124 517
119 492
137 474
159 462
181 449
267 380
244 390
221 400
199 412
175 420
151 430
128 440
105 450
84 465
59 460
49 437
67 419
87 404
107 389
129 377
151 364
174 354
197 344
221 335
245 326
224 305
199 310
174 312
150 320
125 325
100 330
77 340
53 349
