69 197
69 172
93 164
115 177
120 202
125 227
137 249
145 273
157 295
162 244
159 217
159 192
154 167
149 142
149 117
149 92
171 79
195 87
205 110
205 135
210 160
210 185
217 209
220 234
234 172
234 147
234 122
234 97
234 72
246 50
271 49
290 66
295 91
295 116
290 150
295 175
295 200
295 225
295 250
318 214
324 187
324 162
324 137
324 112
336 90
361 84
376 104
380 129
380 154
375 180
375 205
375 230
365 255
365 280
365 305
360 330
362 355
375 377
397 389
412 369
427 349
445 331
465 316
487 304
512 304
525 340
505 355
485 375
470 400
455 420
440 440
425 470
410 490
394 512
376 530
358 548
334 557
315 575
301 600
276 600
251 600
226 600
201 600
176 600
151 600
129 587
139 552
142 515
134 491
129 466
124 441
119 416
119 391
119 366
114 341
109 316
96 294
89 270
79 247
74 222
