24 142
24 117
34 87
46 65
61 45
84 32
108 24
133 24
158 24
181 34
203 46
223 61
241 79
253 101
265 123
275 146
285 169
302 149
314 127
326 105
339 82
357 64
375 46
397 34
422 34
447 34
470 44
490 59
513 70
528 90
540 112
545 137
550 162
550 187
545 215
538 248
526 270
511 290
496 310
481 330
461 345
443 363
420 375
400 390
378 403
355 415
335 430
313 443
291 455
274 436
264 413
254 390
249 365
239 342
224 322
202 310
177 304
152 300
127 295
102 290
82 275
64 257
49 237
34 217
29 192
24 167
