24 137
24 112
36 90
49 62
64 42
86 29
111 24
136 24
161 24
183 36
205 48
225 63
247 75
265 93
283 111
301 129
313 151
338 149
344 107
354 77
366 55
386 40
411 34
436 34
461 39
483 51
503 66
521 84
536 104
545 128
550 153
550 178
545 210
535 245
523 273
510 295
492 314
474 332
455 350
435 365
413 380
393 395
370 405
350 420
330 435
307 445
284 455
268 435
250 417
230 402
210 387
191 370
171 355
151 339
134 320
114 305
94 290
75 273
60 253
45 233
34 210
24 187
24 162
