39 137
39 112
59 97
84 94
108 101
132 109
157 114
159 87
164 42
189 44
214 44
215 85
215 110
215 135
234 152
253 169
278 169
302 159
327 164
350 174
355 199
355 240
369 261
384 281
404 296
419 316
439 331
457 349
482 354
507 359
532 364
557 369
550 395
525 400
500 400
480 415
485 440
485 465
480 495
459 481
444 461
434 438
424 415
409 395
384 392
360 385
335 390
310 390
289 376
280 352
258 340
233 335
210 325
197 359
172 360
147 355
144 330
144 305
144 280
125 263
107 245
79 200
60 183
49 160
