142 485
202 435
197 464
177 479
162 500
197 494
221 455
239 437
254 417
269 397
284 377
309 375
329 390
346 409
366 424
386 439
409 450
431 463
436 490
424 512
411 540
399 562
387 584
365 596
345 611
318 614
294 622
312 640
337 635
386 610
410 595
430 575
445 555
441 600
429 622
412 644
394 662
371 674
349 687
367 705
389 692
418 669
437 649
457 634
475 615
488 593
503 573
525 560
548 550
570 535
532 584
512 600
441 680
426 700
438 729
458 713
476 695
496 680
514 662
532 644
552 629
565 605
584 587
596 565
610 540
625 497
615 474
612 449
600 427
587 405
572 385
552 370
530 358
510 343
490 328
470 313
452 295
444 271
432 249
420 227
410 204
410 179
410 154
400 131
394 106
380 85
375 60
373 34
348 34
323 39
299 47
278 69
254 77
254 117
279 120
304 125
309 172
299 197
289 227
274 247
256 265
244 287
239 312
226 355
214 377
199 397
184 417
166 440
148 459
124 467
