79 152
74 127
86 105
111 99
136 94
161 94
186 94
211 89
236 89
261 84
286 84
311 84
336 84
361 79
386 79
411 74
436 74
461 74
486 74
511 69
536 69
561 64
585 72
591 115
571 130
546 135
521 140
496 135
471 140
446 135
424 147
405 165
383 180
358 175
335 185
328 223
315 245
307 269
282 275
257 275
232 275
207 275
182 275
157 275
132 275
107 270
89 252
84 227
84 202
79 177
