94 302
116 290
134 262
158 254
178 239
179 192
191 170
216 164
241 169
250 193
245 235
266 249
287 234
310 224
335 219
360 216
385 219
410 224
435 229
458 239
480 252
502 264
515 286
530 306
544 327
553 351
560 375
560 400
550 435
536 470
513 480
488 483
464 490
439 495
414 500
389 500
364 497
363 465
326 460
301 460
276 465
251 470
226 475
201 480
179 467
201 454
220 437
208 415
190 397
168 385
144 377
122 365
99 355
89 332
