139 432
139 407
159 392
181 380
194 357
194 332
209 312
212 280
189 270
179 247
194 227
218 219
234 187
214 172
196 154
184 132
208 124
233 130
258 135
283 129
306 119
329 109
354 109
379 109
402 119
424 131
439 151
454 171
479 174
504 179
525 200
504 217
480 225
455 230
445 260
464 277
480 297
490 320
490 345
485 375
480 400
470 435
455 465
455 490
455 515
446 540
431 560
413 578
390 590
366 600
341 605
316 605
291 600
269 587
251 569
239 547
234 522
234 497
220 475
195 475
171 468
149 455
