79 127
82 165
100 183
119 200
129 223
139 246
139 292
139 317
129 342
116 370
104 392
94 417
84 442
89 467
101 489
126 495
149 505
164 525
175 548
190 568
212 580
237 584
261 593
285 602
309 610
332 620
357 625
382 625
407 620
432 615
455 605
478 595
500 580
524 572
506 539
483 529
460 519
435 514
412 504
387 499
370 480
383 458
398 438
416 420
438 408
460 395
484 387
508 378
533 373
555 360
574 342
585 318
585 293
568 274
543 269
520 259
497 249
477 234
462 214
437 219
412 224
387 229
362 229
337 224
330 200
345 175
360 155
379 137
399 122
419 101
400 84
380 69
369 46
347 34
324 24
299 24
274 24
249 24
224 29
201 39
181 54
159 67
137 79
119 97
99 112
