91 164
79 142
97 124
119 112
137 94
157 79
177 64
197 49
220 39
243 29
268 24
293 24
318 25
343 30
365 42
387 54
407 69
427 84
445 102
467 114
492 114
517 109
542 109
543 153
530 175
547 194
562 214
557 244
539 262
519 277
495 285
502 309
517 329
532 349
550 367
560 390
560 415
554 447
532 459
508 450
483 445
460 435
435 432
410 435
390 450
375 475
394 492
418 499
443 504
466 514
490 522
514 531
521 560
501 575
478 585
455 595
431 605
407 614
382 619
357 615
332 610
309 600
286 590
263 580
239 572
219 557
219 532
239 427
249 387
254 345
231 334
209 322
184 320
159 322
154 297
154 272
154 240
144 217
129 197
111 179
