24 272
24 247
34 212
52 194
72 179
89 157
84 132
84 107
96 85
121 84
146 89
150 114
155 139
170 159
195 156
217 144
242 139
267 139
292 139
317 144
329 122
354 119
365 142
377 164
395 182
410 202
425 222
440 242
444 267
450 292
450 317
458 341
458 368
443 388
420 400
395 405
370 400
345 405
336 435
311 429
302 405
277 405
252 405
234 387
210 380
187 390
162 395
137 400
119 382
141 369
127 335
111 315
88 305
63 300
39 292
