104 357
104 332
133 279
151 260
169 232
164 207
164 182
182 164
207 164
229 176
235 201
230 230
251 244
275 236
299 229
324 224
349 219
374 224
399 229
423 236
447 244
469 256
479 232
504 229
529 229
554 229
579 231
580 256
580 281
580 306
575 345
550 345
525 345
530 370
530 395
537 419
543 448
528 468
505 480
480 485
455 485
430 485
405 490
380 490
355 490
330 490
311 473
287 465
262 470
239 480
214 482
194 467
216 454
210 418
192 400
167 394
143 385
119 377
