152 639
166 660
191 660
216 660
241 660
266 660
288 648
290 620
290 595
315 590
340 590
339 617
329 642
347 660
372 660
397 660
422 660
447 660
472 655
482 624
457 619
433 629
409 637
377 634
370 610
394 602
405 570
430 570
455 570
479 562
499 547
520 530
540 515
545 475
545 450
555 415
588 364
564 372
544 387
519 437
514 462
507 504
489 522
469 539
444 539
419 539
395 530
390 505
380 480
370 455
365 430
360 400
380 385
399 402
414 422
434 437
446 459
467 445
492 449
494 414
469 409
444 409
423 395
403 375
365 345
385 330
398 308
405 265
425 280
450 277
472 265
492 249
513 235
527 214
535 190
531 154
519 132
501 114
481 99
456 99
431 99
406 100
386 115
374 137
365 167
350 147
345 122
335 99
315 84
292 74
269 64
244 67
224 82
211 105
204 152
217 205
240 215
236 255
224 277
204 342
189 367
189 392
189 417
184 457
209 460
232 450
241 485
229 507
224 592
222 629
197 624
172 624
