66 565
76 600
101 605
126 610
147 624
171 633
193 645
217 654
242 660
266 668
290 675
313 685
333 700
351 718
373 730
396 740
420 747
445 752
470 740
483 718
495 685
508 663
515 635
525 605
535 575
545 535
545 510
540 485
550 445
570 430
589 412
600 370
585 350
609 342
605 310
625 295
644 277
662 259
675 235
688 213
700 182
710 135
710 89
710 64
700 41
678 29
654 22
659 47
659 72
669 95
684 115
684 140
676 175
664 197
649 222
636 245
614 259
590 267
565 269
542 259
519 249
494 254
470 261
445 262
427 244
402 244
384 226
362 214
339 204
316 194
293 184
269 176
244 174
219 169
194 169
169 164
144 167
129 187
119 217
114 257
114 282
114 307
114 332
111 365
99 387
89 412
84 437
79 462
79 487
79 512
79 537
