29 357
24 332
34 307
52 289
72 274
90 256
112 244
130 226
150 211
169 192
184 172
202 154
217 134
235 116
254 97
269 77
284 52
302 34
327 34
339 56
357 74
375 92
390 112
405 132
423 150
438 170
455 189
474 206
492 224
512 239
530 257
548 275
568 290
583 310
587 344
578 368
558 383
535 395
513 408
490 420
470 435
448 448
425 460
405 475
385 490
365 505
350 535
335 555
335 600
333 643
328 668
315 690
300 711
282 730
256 735
231 735
206 729
184 717
169 697
219 702
243 710
268 709
286 690
299 647
304 622
304 597
299 572
291 548
276 528
259 509
240 492
218 480
198 465
178 450
158 435
136 423
114 411
92 399
71 385
49 372
