94 502
99 527
117 545
134 564
134 589
154 605
165 571
159 546
147 524
135 502
125 479
123 454
138 433
156 415
176 400
199 390
222 379
243 365
229 403
216 435
204 457
192 479
198 505
218 488
230 465
240 442
262 430
284 417
295 390
320 392
338 410
353 390
376 400
401 395
426 395
451 390
476 385
501 380
526 375
550 365
560 335
550 312
540 289
532 265
525 241
515 218
505 195
502 170
500 145
500 120
495 95
490 70
480 39
457 49
432 49
407 44
384 54
359 49
334 49
309 44
284 39
259 34
234 29
209 24
184 22
164 37
159 62
159 87
159 112
159 137
159 162
159 187
164 212
169 237
164 267
186 279
187 304
169 322
154 342
141 365
119 377
101 395
113 424
99 447
99 472
