57 399
39 417
61 430
86 425
111 420
134 410
159 405
183 398
207 390
232 394
256 385
281 388
303 400
323 415
304 432
326 445
350 435
375 435
398 445
420 457
442 469
467 475
492 469
495 437
490 412
480 389
505 385
512 359
491 345
474 364
464 341
452 319
445 295
468 283
490 270
513 260
536 250
559 260
582 270
607 275
629 262
620 238
610 215
600 192
590 169
583 145
559 137
544 157
534 182
522 209
498 219
474 227
449 234
424 239
410 218
402 194
395 170
420 175
426 149
404 137
380 147
370 124
360 101
348 79
324 87
306 105
294 127
284 152
278 179
263 199
239 207
219 222
249 230
239 277
230 301
208 314
193 334
169 342
146 354
123 364
103 379
80 389
