161 439
149 417
169 402
194 397
206 375
215 351
234 322
252 304
264 282
284 262
299 227
286 205
264 192
249 172
231 154
216 134
194 122
192 54
217 54
239 66
263 75
287 84
311 91
329 109
350 123
370 139
390 154
395 185
416 199
428 221
435 245
440 270
440 295
442 320
466 329
486 344
511 349
536 349
561 349
586 349
605 380
596 410
571 413
556 393
532 385
507 385
482 380
457 379
437 364
415 352
395 337
383 315
368 295
343 295
318 300
293 305
283 328
270 350
255 375
240 400
230 430
217 460
196 474
176 459
