64 167
59 142
74 122
96 109
119 97
144 94
169 94
194 94
219 94
244 94
269 87
294 84
319 84
344 84
369 84
394 84
419 84
444 84
467 94
492 94
512 109
530 127
530 152
530 177
530 202
530 227
538 251
540 276
540 301
529 337
510 355
485 360
460 360
435 360
410 360
385 360
360 365
335 365
310 365
285 365
260 365
246 390
231 410
213 428
199 450
184 430
169 410
154 390
131 380
106 379
89 360
74 340
64 317
64 292
64 267
64 242
64 217
64 192
