59 117
59 92
84 89
109 89
134 89
157 79
182 79
207 79
232 79
257 79
282 79
307 79
332 79
357 74
382 74
407 74
432 74
457 74
482 74
507 74
530 84
530 109
530 134
530 159
530 184
540 207
540 232
540 257
540 282
540 307
540 332
531 365
506 365
481 365
456 370
436 385
416 400
396 415
376 430
356 445
334 432
334 407
334 382
312 370
287 370
262 370
237 370
212 370
189 380
164 380
139 380
114 380
89 380
69 365
69 340
69 315
69 290
69 265
59 242
59 217
59 192
59 167
59 142
