99 212
99 187
109 164
119 137
137 119
157 104
177 89
197 74
222 69
245 59
270 54
294 47
319 44
344 44
369 39
394 39
419 44
444 44
467 54
492 54
517 59
537 74
560 84
585 89
605 104
620 124
630 147
645 167
653 213
640 235
626 260
611 280
593 298
570 310
548 323
523 330
500 340
475 345
450 345
435 370
425 410
420 450
415 485
405 530
384 565
374 542
374 517
369 492
359 469
354 444
344 421
344 396
339 371
321 353
297 345
272 340
249 330
224 325
201 315
179 302
157 290
135 278
120 258
109 235
