84 142
84 117
109 114
134 114
159 114
184 114
209 114
232 104
257 104
282 104
307 104
332 104
357 104
382 104
407 104
432 104
457 99
482 99
507 99
532 99
557 99
565 123
565 148
565 173
565 198
565 223
565 248
565 273
570 298
570 323
570 348
568 388
543 390
518 390
495 400
470 400
445 400
420 400
395 400
370 400
345 400
320 400
295 400
295 425
295 450
295 475
300 500
300 525
310 548
310 573
310 598
310 623
294 671
289 646
274 626
264 603
254 580
244 557
232 535
217 515
205 493
199 468
194 443
180 422
161 405
136 405
111 405
89 392
89 367
89 342
84 317
84 292
84 267
84 242
84 217
84 192
84 167
