214 152
209 127
233 135
254 149
269 122
269 97
291 109
306 129
309 162
290 180
280 205
280 230
285 255
285 280
285 305
290 330
292 355
295 380
305 403
317 425
329 447
319 490
309 467
285 460
269 487
254 467
254 442
266 420
265 393
264 368
254 345
254 320
249 295
249 270
247 245
244 220
234 197
219 177
