164 177
164 152
188 170
213 174
209 132
233 139
255 152
265 175
250 210
252 235
260 259
270 282
275 307
287 329
290 354
303 376
313 399
330 418
356 429
363 463
335 443
340 475
316 485
294 472
279 452
269 429
259 406
249 383
241 359
229 337
224 312
216 288
209 264
204 239
187 220
169 202
