224 282
219 257
243 264
262 235
244 217
276 214
294 232
300 257
312 279
330 297
348 315
365 334
385 349
404 366
424 381
444 396
468 404
491 414
488 445
463 443
478 475
453 470
438 450
426 428
406 413
386 398
368 380
348 365
330 347
312 329
292 314
271 300
246 295
