179 557
184 502
199 402
209 352
209 327
219 292
236 240
251 220
266 200
279 177
297 159
317 144
341 135
364 117
386 104
407 89
432 94
457 89
482 89
507 89
532 94
555 104
575 119
595 134
615 149
639 156
664 151
682 169
697 189
690 225
707 244
732 244
754 256
765 279
758 310
739 327
716 339
699 320
684 300
659 297
639 312
624 332
612 354
594 372
575 390
558 413
535 425
515 445
489 452
465 460
508 469
533 469
555 481
549 512
534 532
510 540
485 537
460 535
435 535
410 532
388 520
368 505
345 515
320 515
290 525
311 539
324 561
310 585
286 595
261 599
244 580
219 580
194 577
