9 627
9 637
9 647
9 657
9 667
9 677
9 687
9 697
9 707
9 717
14 587
14 597
14 607
14 617
14 726
14 736
14 746
14 756
19 567
19 577
19 765
19 775
24 547
24 557
24 784
24 794
29 527
29 537
29 803
29 813
34 512
34 822
34 832
39 502
39 841
44 487
44 850
47 860
49 477
52 869
54 467
56 879
59 457
61 888
64 447
65 898
69 437
70 907
74 427
74 917
82 419
82 924
86 934
87 409
94 397
94 940
97 950
102 389
105 957
110 381
112 965
115 371
117 974
123 364
124 982
130 356
132 989
138 349
139 997
145 341
147 1004
153 334
154 1012
160 326
162 1019
170 321
171 1024
178 314
179 1030
185 306
185 1038
195 301
195 1042
202 1050
203 294
212 289
212 1054
221 1059
222 284
229 1065
231 279
238 1070
239 82
239 92
240 274
247 74
247 99
247 1075
249 269
255 66
255 105
257 1075
259 267
264 110
265 61
266 1080
269 262
273 115
275 56
275 1085
279 259
282 120
285 54
285 1087
288 254
292 120
295 54
295 1090
298 254
301 125
304 1095
305 54
307 249
310 130
314 1095
315 54
317 249
320 132
323 1100
325 54
326 244
329 137
333 1100
335 54
336 244
339 140
343 1100
345 54
345 148
346 244
352 1105
355 54
355 152
355 239
362 160
362 1105
364 59
365 239
372 160
372 1105
374 61
375 239
380 167
382 1105
383 66
385 239
387 175
392 1105
393 69
395 182
395 239
402 74
402 190
402 1105
405 239
407 199
412 74
412 1105
414 207
415 239
419 82
422 214
422 1105
425 239
427 89
430 220
432 1104
434 97
435 242
440 222
442 104
442 1100
445 244
447 230
449 112
452 1100
454 121
455 244
457 234
460 129
462 1099
465 138
465 247
467 234
470 147
472 1095
474 242
479 127
479 137
482 1094
484 112
489 102
492 1090
494 92
495 140
495 150
495 160
495 170
495 180
495 190
495 200
495 210
495 220
497 230
499 82
500 125
500 240
501 1085
505 115
507 74
510 244
511 1085
513 108
515 66
518 98
519 239
521 1085
525 61
525 90
529 237
531 1088
533 83
535 56
539 234
541 1090
543 78
545 54
549 234
551 1090
553 73
554 49
559 232
561 1093
563 70
564 49
569 229
571 1095
573 70
574 49
579 229
580 57
581 1095
589 229
591 1095
599 229
601 1095
609 229
611 1095
619 229
621 1095
629 229
631 1095
638 234
640 1090
648 234
650 1090
658 234
660 1090
667 239
669 1085
677 239
679 1082
686 244
689 1080
695 249
698 1075
705 249
708 1073
714 254
718 1068
723 259
728 1063
732 264
738 1058
741 269
748 1053
750 274
758 1048
760 277
765 1040
768 284
775 1035
777 289
783 1028
784 297
793 1023
794 301
800 309
800 1015
808 315
808 1008
815 323
815 1000
823 330
823 993
830 338
830 985
838 345
838 978
845 353
845 965
850 362
853 958
857 370
860 950
865 377
865 940
869 387
873 933
875 395
878 923
880 404
883 913
885 413
890 422
890 900
895 431
895 890
900 440
900 880
905 449
905 870
910 458
910 468
910 855
915 477
915 845
920 486
920 830
923 496
925 506
925 815
930 515
930 525
930 795
930 805
935 534
935 544
935 775
935 785
940 553
940 563
940 573
940 750
940 760
945 582
945 592
945 602
945 715
945 725
945 735
949 612
950 622
950 632
950 642
950 652
950 662
950 672
950 682
950 692
950 702
