104 288
104 298
106 126
106 136
106 236
106 246
106 256
106 266
106 276
106 308
106 318
108 146
108 156
108 166
108 176
108 186
108 196
108 206
108 216
108 226
108 328
110 344
110 354
111 117
116 362
119 109
123 348
125 322
125 332
126 359
127 101
135 321
136 96
145 91
145 323
154 84
155 323
160 76
165 323
166 64
170 54
175 323
180 54
185 323
186 62
190 72
195 323
198 79
201 89
205 323
209 96
215 323
218 101
222 331
222 350
225 109
225 360
233 116
233 148
233 158
235 346
235 362
237 126
237 324
237 334
239 136
243 162
247 323
253 164
257 323
262 169
267 323
270 175
277 323
280 176
287 323
290 174
297 323
300 174
307 323
310 176
317 323
320 179
327 323
330 183
337 323
339 188
347 194
347 323
355 200
357 323
361 208
367 323
368 216
374 224
377 323
382 230
387 323
392 230
397 323
402 230
407 323
412 230
417 323
422 230
427 323
432 230
437 323
442 230
447 323
452 230
457 323
462 230
467 323
472 230
477 323
482 230
487 323
492 230
497 323
502 230
507 323
512 232
517 323
522 232
527 323
532 232
537 323
542 232
547 325
548 335
550 345
550 355
552 230
556 363
560 224
563 348
565 328
565 358
567 338
568 218
575 331
578 214
585 330
588 212
595 329
596 206
602 337
604 196
610 343
612 188
620 345
622 186
630 193
630 343
636 201
638 335
643 209
646 327
652 214
655 332
662 216
665 332
671 221
674 337
674 347
674 357
679 227
682 363
685 288
685 298
685 308
685 318
687 234
687 264
687 274
687 328
687 348
691 244
691 254
691 338
691 358
