124 250
124 260
124 270
124 280
124 290
124 300
125 310
126 124
126 134
126 144
126 154
126 164
126 174
126 184
126 194
126 204
126 214
126 224
126 234
126 320
128 330
130 114
130 342
130 352
135 105
135 361
141 97
143 346
145 322
145 332
145 360
149 89
155 81
155 321
160 64
162 54
165 323
172 54
175 323
177 63
179 73
183 83
184 93
185 325
186 354
188 335
191 101
193 362
196 110
199 148
199 158
199 348
201 119
201 324
202 334
203 129
203 358
207 164
211 323
217 162
221 323
227 162
231 323
237 166
241 323
245 172
251 323
254 177
261 323
264 176
271 323
274 174
281 323
284 174
291 323
294 176
301 323
304 179
311 323
314 183
321 323
323 188
331 194
331 323
339 200
341 323
345 208
350 217
351 323
356 225
361 323
365 230
371 323
375 230
381 323
385 230
391 323
395 230
401 323
405 230
411 323
415 230
421 323
425 230
431 323
435 230
441 323
445 230
451 323
455 230
461 323
465 230
471 323
475 230
481 323
485 230
491 323
495 230
501 323
505 230
511 323
515 232
521 323
525 232
531 323
535 232
541 323
545 232
551 323
555 232
561 323
565 232
571 323
575 234
581 323
585 234
591 327
592 337
594 228
594 347
594 357
600 220
602 363
607 348
608 214
611 336
616 208
619 330
620 198
624 339
625 189
632 345
635 186
641 194
641 340
646 203
647 332
649 213
656 337
656 347
658 218
658 357
666 225
666 363
669 270
669 280
669 290
669 308
669 318
669 350
671 234
671 260
671 328
673 244
673 338
