176 130
176 140
178 266
178 276
178 286
178 296
178 306
178 316
178 326
178 336
178 346
180 242
180 252
180 356
181 121
182 148
182 230
184 158
184 214
186 168
186 178
186 188
186 198
189 361
190 116
191 348
193 322
193 332
200 112
203 321
210 108
213 321
220 106
223 321
230 102
233 321
240 100
240 329
240 339
240 356
248 363
250 98
255 352
257 336
260 96
262 327
270 94
272 327
280 92
282 327
290 90
292 329
296 82
302 331
306 78
312 335
316 74
320 329
326 70
330 325
334 62
340 323
342 54
350 325
352 55
359 63
360 328
365 71
370 331
375 74
380 335
385 78
390 339
395 82
400 342
401 90
410 344
411 92
420 345
421 94
430 345
431 96
440 345
441 98
450 343
451 100
460 339
461 102
470 335
471 104
480 333
481 106
490 329
491 110
499 334
500 344
500 354
501 114
505 168
505 178
505 188
505 198
505 208
507 150
508 361
509 120
512 349
513 324
515 142
515 212
515 334
516 128
523 325
525 214
532 330
535 216
541 335
545 217
551 331
555 218
561 329
565 220
571 327
575 222
581 327
585 224
591 327
595 228
599 333
600 343
600 353
605 230
605 362
609 292
609 302
609 312
611 266
611 276
611 322
611 348
613 236
613 332
615 358
619 258
621 242
