120 128
120 138
120 258
120 268
120 278
120 288
120 298
120 308
120 318
122 240
122 328
122 338
122 348
124 148
124 224
124 358
126 120
126 158
126 168
126 178
126 202
126 212
128 188
134 114
134 361
135 346
137 322
137 332
144 110
147 321
154 106
157 321
164 104
167 321
174 100
177 321
184 98
187 321
194 96
197 321
204 94
207 321
214 90
217 321
224 84
227 321
232 78
237 321
242 76
247 321
251 71
257 63
257 321
265 55
267 321
275 54
277 321
282 62
287 321
289 70
297 321
299 74
307 321
309 78
317 84
317 321
325 90
327 321
335 92
337 321
340 331
340 341
342 351
342 361
345 94
352 361
355 98
355 350
357 338
359 328
365 100
369 327
375 104
379 327
385 106
389 329
395 110
399 333
405 114
406 341
406 351
408 361
410 171
411 152
411 181
414 119
417 346
418 359
419 144
419 326
419 336
421 127
421 184
429 190
429 323
435 198
439 325
443 204
449 329
451 210
459 333
461 205
469 337
471 202
479 341
480 196
489 345
490 192
499 187
499 345
509 188
509 345
519 192
519 344
529 196
529 341
537 202
539 338
547 204
548 333
555 210
558 329
565 211
568 327
575 212
578 323
585 214
588 325
595 215
596 331
605 216
606 335
615 218
616 331
625 218
626 327
635 222
636 327
645 224
646 327
655 228
656 330
656 350
658 340
658 360
664 233
665 284
665 294
665 304
665 314
667 266
667 324
668 349
668 361
671 334
672 239
675 256
