106 248
108 258
110 360
112 240
112 334
112 344
114 272
118 282
118 292
118 316
118 326
120 234
120 302
120 361
121 339
121 349
128 325
130 230
138 325
140 226
148 326
150 224
158 330
160 222
168 333
170 218
178 329
180 218
187 324
190 216
197 323
200 216
207 325
210 214
217 329
220 214
227 333
228 208
236 338
238 205
246 341
247 200
255 194
256 343
265 189
266 345
275 190
276 343
285 194
286 341
293 200
296 339
303 204
306 335
311 210
315 330
321 214
325 326
331 214
335 323
341 216
345 323
351 216
355 327
361 212
362 335
368 204
372 331
377 199
382 327
385 191
392 325
394 186
402 126
402 136
402 325
402 340
402 360
404 182
406 350
407 145
410 118
410 155
410 165
412 340
416 352
417 362
419 113
425 346
427 322
427 332
428 108
437 321
438 106
447 321
448 102
457 321
458 98
467 321
468 96
477 321
478 94
487 321
488 92
497 321
498 82
507 321
508 78
517 321
518 74
526 66
527 321
534 56
537 321
544 54
547 321
550 62
557 70
557 321
566 75
567 321
576 78
577 321
584 85
587 321
592 91
597 321
602 92
607 321
612 95
617 321
622 96
627 321
632 100
637 321
642 102
647 321
652 105
657 321
662 109
667 321
671 114
674 329
674 339
674 360
676 349
680 119
681 156
681 166
681 176
681 186
681 196
681 206
681 216
683 144
683 226
683 236
685 246
685 256
685 318
685 328
685 338
686 266
687 127
687 276
687 286
687 296
687 306
