164 52
164 62
164 72
164 82
164 92
166 40
166 102
169 112
172 32
176 120
176 130
176 140
176 268
178 150
178 160
180 26
180 170
180 180
180 190
180 200
180 210
180 220
180 230
180 240
180 250
184 275
190 22
191 156
191 166
191 176
191 186
191 196
191 206
191 216
191 226
191 236
191 246
191 256
193 130
193 140
194 266
200 20
203 129
206 139
206 149
206 159
206 169
206 179
206 189
206 199
206 209
206 219
206 229
206 239
206 262
207 272
208 249
210 22
217 176
217 186
217 196
217 206
217 216
217 226
217 236
217 275
219 158
219 246
219 256
220 26
221 140
223 118
223 128
225 104
225 264
228 32
229 94
233 41
233 80
235 51
235 61
