62 124
66 110
71 101
71 129
77 93
81 129
82 84
90 76
91 125
98 68
99 131
106 60
109 129
114 52
119 125
122 46
129 123
130 38
139 33
139 118
148 28
149 114
158 24
159 111
162 188
164 120
164 130
164 140
164 150
164 160
164 170
164 198
165 208
166 218
168 20
168 228
170 238
172 248
172 258
173 268
178 20
179 176
179 186
179 196
179 206
181 216
181 275
182 226
183 158
183 236
185 246
187 142
187 256
188 20
191 124
191 275
193 110
195 96
195 262
198 20
201 275
203 88
205 262
208 22
211 81
211 273
216 264
218 26
220 76
228 30
228 82
230 92
232 102
236 37
238 110
242 45
245 55
247 115
249 65
255 53
257 114
261 45
267 110
270 40
273 70
273 80
273 100
275 90
280 38
283 67
290 38
293 71
300 40
303 75
309 45
311 81
314 54
318 64
319 87
324 72
327 93
332 79
337 88
