62 122
66 110
70 129
71 101
76 92
80 129
82 84
89 124
90 76
97 130
98 68
106 60
107 129
114 52
117 126
122 46
127 123
130 38
137 120
139 33
146 115
148 28
156 111
158 24
164 120
164 130
164 140
164 150
164 160
164 170
164 180
164 190
164 200
166 110
166 210
168 20
168 220
170 230
171 240
172 250
174 260
174 270
177 180
177 190
177 200
178 20
179 170
179 210
180 220
181 230
183 154
183 240
183 275
185 144
185 250
187 260
188 20
189 126
191 114
193 100
193 275
197 262
198 20
199 92
203 274
207 84
207 264
208 22
213 273
215 78
218 26
225 77
228 30
228 87
230 97
234 107
236 37
242 45
242 113
245 55
249 65
252 115
255 55
261 47
262 113
269 40
270 105
273 70
274 80
275 90
279 38
282 65
289 38
290 71
299 40
300 75
309 44
310 79
315 52
318 62
318 86
324 70
326 92
330 78
336 86
