34 197
34 207
34 217
34 227
39 187
44 172
44 212
45 200
50 190
52 164
55 175
61 159
65 170
69 147
74 165
79 137
82 159
87 129
92 154
97 124
97 144
102 114
105 135
107 104
114 130
115 96
124 82
124 127
132 74
134 125
140 66
144 125
150 64
154 125
156 55
163 130
166 54
169 138
174 147
174 157
174 167
174 177
174 187
176 54
179 196
184 205
184 215
185 59
189 224
190 68
191 234
194 244
198 75
200 252
205 83
205 93
207 260
213 100
215 110
215 120
215 130
215 140
217 264
220 149
220 159
220 169
221 274
225 178
225 188
229 280
230 197
238 204
238 285
245 293
248 205
250 302
252 215
254 312
259 321
260 222
264 612
269 325
270 219
274 609
275 333
276 619
279 637
280 219
283 340
283 604
285 645
286 620
289 630
290 219
292 345
292 609
295 645
300 219
302 345
302 609
305 640
309 214
310 352
311 614
314 635
319 214
319 357
320 625
321 614
325 365
329 214
330 625
331 614
335 365
339 214
339 592
339 602
339 620
344 567
344 577
345 367
349 207
349 537
349 547
349 557
349 620
354 372
354 527
355 595
359 204
359 620
360 575
360 585
360 604
364 375
364 385
364 395
364 405
364 507
364 517
365 550
365 560
368 610
369 204
369 414
369 424
369 487
369 497
370 530
370 540
374 433
374 443
374 457
374 467
374 477
375 212
375 515
380 385
380 395
380 405
380 495
380 505
382 415
385 214
385 375
385 425
385 470
385 480
390 434
395 214
395 375
395 443
395 453
395 463
399 607
405 214
405 377
405 615
409 604
412 385
414 395
415 217
415 596
415 612
423 400
425 219
425 594
425 612
427 410
429 627
430 375
432 385
434 418
434 636
435 219
435 395
435 594
435 612
439 370
439 427
439 622
440 404
444 224
444 436
444 446
444 456
444 640
445 594
449 370
449 409
449 465
449 475
449 485
449 495
454 224
454 504
454 514
454 524
454 534
454 637
455 417
455 591
456 544
459 370
459 427
459 554
459 564
460 437
460 581
460 615
460 625
463 229
465 446
465 470
465 480
465 490
468 456
468 608
469 370
470 499
470 509
470 519
470 529
470 539
470 549
473 229
475 558
475 568
475 578
475 588
478 605
479 370
483 230
485 592
489 370
492 235
497 244
499 370
507 244
509 370
517 244
518 365
526 249
528 365
535 254
535 355
545 254
545 355
554 259
555 350
563 264
564 355
573 265
574 355
578 274
584 355
588 275
593 350
598 279
602 355
607 284
612 355
616 289
621 360
624 296
630 304
631 360
640 307
640 365
647 315
650 365
655 322
660 360
664 327
669 336
670 355
675 344
