62 86
67 95
68 78
76 68
76 89
82 60
84 83
86 50
92 77
94 42
102 73
104 38
112 69
114 38
121 64
124 39
124 82
124 92
126 102
132 110
134 43
141 51
142 114
147 59
152 115
154 50
159 41
161 110
167 33
167 100
169 88
173 78
176 28
178 266
183 77
186 24
186 273
191 83
191 264
196 22
196 275
198 91
201 262
204 99
204 109
206 20
206 119
206 275
208 129
210 139
211 261
212 149
212 248
214 159
214 236
216 20
216 226
216 275
218 169
218 212
220 179
220 189
220 199
225 260
225 270
226 20
227 246
229 234
231 222
233 208
235 110
235 120
235 130
235 140
235 150
235 160
235 170
235 180
235 194
236 22
245 113
246 26
255 115
256 30
263 121
264 36
272 42
273 123
280 48
283 127
288 55
293 131
295 63
303 70
303 128
310 78
313 127
317 86
323 94
323 131
329 102
333 112
333 129
