94 82
99 91
104 79
109 95
113 74
119 62
119 95
129 59
129 95
139 52
139 95
144 42
149 95
154 32
159 95
162 24
164 302
164 312
164 322
164 332
164 342
164 352
164 362
164 372
164 382
164 392
164 402
164 412
164 422
169 95
169 431
171 19
172 294
174 277
174 440
177 450
178 100
179 257
179 267
179 460
181 19
182 470
184 242
188 100
189 232
189 478
191 19
194 212
194 222
194 487
198 100
199 192
199 202
199 496
201 19
204 177
204 505
207 105
209 115
209 125
209 135
209 145
209 155
209 165
211 19
213 510
214 520
215 29
220 528
225 32
230 532
234 37
237 540
240 45
245 54
245 547
249 687
249 697
250 63
255 72
255 82
255 92
255 185
255 195
255 205
255 215
255 225
255 235
255 245
255 255
255 265
255 275
255 285
255 550
257 704
259 102
259 684
260 112
260 122
260 132
260 142
260 152
260 162
260 172
260 294
264 555
267 700
268 300
269 684
272 310
273 560
277 700
279 684
282 314
282 565
287 700
289 322
289 684
292 565
297 700
298 679
299 324
299 573
299 583
299 593
299 603
299 613
299 623
304 632
304 642
307 699
308 679
309 324
309 651
312 669
315 585
315 595
315 605
315 690
317 615
319 324
320 625
322 635
324 695
325 575
325 645
329 324
330 654
330 664
334 692
335 570
335 673
339 324
345 570
348 329
355 570
358 330
365 565
368 334
369 687
369 697
375 565
377 704
378 334
379 684
385 567
385 710
387 339
389 684
395 570
395 710
396 344
399 684
404 705
405 570
406 344
408 679
414 351
414 705
415 572
418 679
419 582
424 354
424 591
424 601
424 705
427 674
429 610
429 620
429 630
429 640
429 650
429 660
433 359
434 705
440 590
440 600
442 364
444 705
445 565
445 575
445 609
450 618
450 628
450 638
450 648
450 658
450 668
450 678
450 695
451 369
455 565
460 374
465 560
470 377
475 560
477 385
484 555
487 389
494 397
494 555
502 404
504 555
511 409
514 555
520 414
524 555
528 420
533 429
534 555
542 434
544 555
551 439
554 555
559 446
564 555
565 454
573 460
574 555
580 468
584 555
588 475
594 555
595 483
603 490
604 555
608 499
614 555
615 507
622 515
624 555
627 524
634 552
636 529
640 539
