86 86
91 77
91 95
97 69
100 89
102 60
104 50
108 81
112 42
116 75
122 38
126 71
132 38
134 65
136 90
138 75
138 100
142 40
144 108
150 46
152 114
155 55
162 115
163 47
168 38
170 109
172 266
175 98
176 30
177 82
180 273
185 264
186 26
187 85
190 275
192 94
194 104
195 114
195 262
196 22
197 124
199 134
200 275
201 144
202 252
204 154
204 240
206 20
206 164
206 226
208 174
208 210
210 184
210 194
210 275
215 246
215 256
216 20
217 232
219 218
220 275
221 204
226 21
229 254
229 264
231 240
233 224
235 208
236 25
237 148
237 158
237 168
237 178
237 188
237 198
239 116
239 126
239 136
245 30
249 119
254 35
257 125
261 43
267 129
269 50
275 58
277 130
282 66
287 131
288 74
295 82
297 129
301 90
306 99
307 129
311 108
313 118
