24 117
30 125
34 114
39 130
44 114
45 138
54 114
55 142
62 150
63 119
70 157
73 119
77 165
79 175
83 119
84 184
84 194
84 204
84 214
84 224
84 234
84 244
84 254
84 264
84 274
84 284
84 294
84 304
84 314
90 322
92 114
94 332
99 341
102 114
109 345
112 114
115 353
122 114
123 360
124 492
124 502
124 512
129 477
132 114
132 365
134 515
137 469
141 119
141 370
143 510
147 464
149 376
151 119
152 505
157 464
159 380
161 119
161 500
165 388
166 469
170 124
170 495
175 390
175 474
179 490
180 127
184 395
185 474
189 132
189 490
193 400
194 469
197 139
199 490
200 408
204 467
206 144
209 487
210 412
214 464
215 149
219 417
219 485
223 155
224 464
228 480
229 420
230 163
234 464
238 425
238 480
240 167
243 459
247 175
247 475
248 425
253 459
255 182
257 475
258 425
262 190
263 459
267 430
267 475
272 194
273 459
277 430
277 475
279 202
282 454
286 435
287 474
289 204
292 449
297 470
298 209
305 460
308 210
309 572
309 582
309 592
309 602
315 455
317 564
317 609
318 214
320 440
322 554
324 617
325 425
327 219
329 542
332 624
334 527
335 425
336 224
339 517
342 624
344 231
344 497
344 507
345 427
345 545
345 555
345 565
347 575
349 487
350 535
350 585
350 595
350 605
350 615
352 435
353 236
354 477
355 520
359 457
359 467
360 505
362 439
363 240
365 490
372 245
373 483
378 473
380 252
380 460
388 453
389 257
390 440
397 264
400 440
406 269
410 442
416 269
420 445
425 274
430 445
435 274
440 447
444 279
450 385
450 450
452 395
454 279
459 380
460 402
460 452
464 281
467 410
468 375
470 455
474 284
475 417
478 375
479 460
482 425
483 289
488 373
489 460
490 432
493 290
497 440
498 370
498 465
503 294
505 447
507 365
507 470
512 455
513 295
516 360
522 300
526 360
532 304
535 355
541 309
544 360
551 305
554 360
561 309
564 360
571 309
574 360
580 314
583 355
590 314
592 360
599 319
602 364
609 319
612 365
619 319
622 365
628 324
632 365
638 325
642 365
648 329
652 365
658 330
662 365
668 334
672 369
678 334
682 370
688 335
692 370
698 339
702 370
707 344
710 354
710 364
