94 542
102 534
102 549
112 529
112 550
114 472
119 481
119 572
119 582
122 524
122 554
124 469
124 490
129 499
129 580
131 509
132 524
134 471
137 574
143 476
145 565
153 479
153 558
162 484
163 553
169 472
173 555
177 464
182 560
184 452
189 442
192 564
197 434
200 515
200 570
202 424
205 505
205 524
205 534
207 414
210 495
210 543
210 553
210 570
214 402
218 488
222 394
223 478
229 382
230 470
235 460
237 374
240 450
242 364
247 354
248 443
253 433
254 342
259 332
260 425
265 415
267 324
272 314
273 408
278 398
279 302
284 292
285 385
290 375
292 284
297 274
298 368
302 264
305 355
310 256
313 348
318 249
318 338
322 239
323 328
327 229
330 320
334 217
338 313
339 207
343 303
347 199
348 293
352 189
355 285
357 179
360 275
365 171
365 265
369 72
369 82
370 161
373 258
374 91
375 151
378 248
379 74
379 100
382 110
383 144
384 120
384 130
385 240
388 79
390 230
395 220
398 80
403 213
407 85
410 200
415 92
415 190
423 183
425 91
430 170
433 84
435 160
437 74
439 62
444 52
444 155
449 37
453 160
454 27
463 160
464 26
465 36
470 45
472 165
475 54
482 165
483 60
492 169
493 64
495 130
495 140
497 150
500 120
502 69
502 169
505 157
508 113
512 69
513 103
518 93
521 74
523 84
