79 507
79 517
84 497
84 526
89 535
92 489
92 545
99 477
102 549
107 469
112 550
116 464
122 550
124 587
126 464
129 558
129 568
129 578
134 471
134 590
143 476
143 595
152 600
153 480
162 604
163 484
172 479
172 605
179 467
182 605
187 459
191 600
194 447
199 437
199 592
207 429
209 587
210 505
210 515
212 525
214 417
215 535
215 545
218 498
219 407
219 582
220 554
220 564
225 485
227 399
233 478
234 387
238 468
239 377
243 458
247 369
250 450
252 359
255 440
257 349
263 433
264 337
268 423
272 329
275 415
277 319
280 405
282 309
284 297
285 395
289 287
293 388
294 272
298 378
299 262
304 247
305 365
309 232
310 355
314 207
314 217
318 348
319 197
324 182
325 335
329 167
333 328
334 157
339 142
340 320
344 132
349 117
350 315
354 107
358 308
359 92
364 82
368 303
372 74
375 295
379 62
383 288
387 54
390 280
392 44
397 34
398 273
405 26
408 268
415 24
415 260
425 24
425 255
433 248
435 24
440 240
445 24
449 235
455 24
457 229
465 27
465 220
472 35
473 213
477 44
480 54
480 205
485 63
489 200
493 69
498 195
503 69
507 189
513 69
515 180
522 74
523 173
530 165
531 79
535 155
539 86
540 96
543 148
545 105
550 114
550 124
550 140
