24 457
24 467
29 476
34 452
34 485
37 495
42 444
46 500
50 436
56 500
58 429
66 500
67 424
74 532
76 429
76 500
79 522
84 506
84 535
86 429
93 540
95 434
103 540
104 439
113 540
114 441
122 545
124 444
131 550
134 444
140 436
140 545
148 429
150 545
152 419
159 540
160 411
168 404
169 537
175 396
179 532
180 465
180 475
180 485
182 495
183 389
187 504
187 524
188 458
190 381
190 514
195 450
198 374
203 443
205 366
208 433
213 359
215 425
217 349
223 418
225 341
230 410
233 334
238 403
239 322
245 395
247 314
253 388
257 309
260 380
265 301
268 373
270 291
273 363
278 284
280 355
282 274
288 348
290 266
295 340
298 259
303 333
305 251
310 325
313 244
318 318
320 236
325 310
328 229
333 303
335 221
340 295
343 214
345 285
347 204
353 278
355 196
360 270
363 189
368 263
370 181
374 102
375 255
378 174
379 92
379 111
382 164
384 82
384 120
385 250
389 129
390 156
390 240
392 74
394 138
399 235
400 66
407 229
408 59
412 219
417 54
420 210
427 54
428 203
435 195
437 54
443 188
447 54
450 180
457 54
458 173
467 54
468 170
477 54
477 175
485 60
487 175
490 69
495 78
497 179
500 87
507 180
508 94
517 180
518 94
527 184
528 94
537 185
538 95
547 184
548 99
555 175
558 99
563 168
565 107
572 115
573 163
577 124
580 134
580 155
585 143
