379 1157
384 1166
384 1176
384 1186
384 1196
384 1206
384 1216
384 1226
384 1236
384 1246
384 1256
384 1266
384 1276
387 1149
391 1284
395 1141
399 1290
403 1134
408 1285
412 1129
418 1285
422 1124
428 1285
430 1116
437 1280
438 1109
445 1101
447 1280
453 1094
457 1280
460 1086
467 1280
468 1079
475 1071
476 1275
483 1064
486 1275
490 1056
496 1275
500 1051
506 1275
509 937
509 947
509 957
509 967
509 977
509 987
509 997
509 1007
509 1017
509 1027
509 1037
516 1275
517 929
526 924
526 1275
536 924
536 1275
546 924
546 1275
555 919
556 1275
564 1281
565 919
569 1290
575 916
575 1298
583 1305
585 914
592 1310
595 914
600 1317
605 914
607 1325
614 909
615 1332
622 1340
624 909
632 1344
634 909
641 1349
644 909
651 1350
653 904
660 1355
663 904
670 1357
673 904
679 1362
682 909
689 917
689 1365
697 924
698 1370
704 932
707 1375
712 939
717 1375
719 947
727 954
727 1375
734 962
737 1375
742 969
747 1375
749 977
756 1370
757 984
766 989
766 1370
775 994
776 1370
785 997
786 1370
795 999
796 1370
805 999
805 1365
814 994
815 1365
823 989
825 1365
832 984
835 1365
842 984
844 1360
851 979
854 1360
861 979
864 1360
870 974
874 1357
880 974
884 1355
890 971
894 1355
900 969
903 1350
910 969
913 1350
919 964
923 1348
929 964
933 1345
938 959
943 1343
948 959
953 1340
957 954
963 1340
967 954
973 1338
977 954
983 1335
986 949
993 1335
996 949
1003 1335
1006 949
1013 1335
1016 949
1023 1335
1026 949
1033 1335
1035 944
1043 1335
1045 944
1053 1335
1055 944
1063 1335
1065 944
1073 1335
1074 939
1083 1335
1084 939
1093 1335
1094 939
1103 1335
1104 937
1113 1335
1114 934
1122 1340
1124 934
1132 1344
1134 936
1141 1349
1144 939
1151 1353
1153 944
1160 1358
1162 949
1169 957
1170 1360
1179 961
1179 1365
1185 969
1189 1365
1194 974
1198 1370
1202 980
1207 1375
1212 984
1217 1379
1219 992
1226 1384
1227 999
1234 1390
1236 1004
1240 1398
1244 1011
1248 1405
1250 1019
1257 1410
1260 1019
1265 1417
1270 1019
1272 1425
1280 1019
1282 1429
1290 1019
1292 1430
1300 1016
1301 1425
1310 1014
1310 1420
1320 1011
1320 1420
1330 1009
1330 1415
1340 1009
1340 1415
1349 1004
1349 1410
1359 1004
1359 1410
1369 1004
1369 1410
1378 1405
1379 1004
1380 1270
1380 1280
1380 1290
1380 1300
1380 1310
1380 1320
1380 1330
1380 1340
1380 1350
1380 1360
1382 1370
1385 1380
1385 1390
1388 1263
1389 1002
1393 1253
1399 999
1400 1245
1408 1238
1409 999
1415 1230
1419 999
1423 1223
1429 997
1430 1215
1438 1208
1439 994
1445 1200
1448 999
1453 1193
1455 1007
1459 1017
1460 1027
1460 1185
1465 1036
1465 1046
1468 1056
1468 1178
1470 1066
1475 1075
1475 1170
1477 1085
1480 1095
1482 1105
1483 1163
1487 1114
1490 1124
1490 1155
1495 1133
1495 1145
