349 1187
349 1197
349 1207
349 1217
349 1227
349 1237
354 1177
354 1246
354 1256
354 1266
354 1276
354 1286
354 1296
354 1306
354 1316
359 1325
364 1172
365 1333
369 1162
375 1335
379 1157
384 1330
387 1149
394 1327
396 1144
404 1132
404 1325
414 1127
414 1325
422 1119
424 1325
430 1111
434 1325
440 1106
444 942
444 1325
448 1099
449 932
449 951
453 1320
454 960
454 970
454 1087
459 927
459 979
459 989
459 999
461 1009
463 1320
464 1019
464 1082
469 924
469 1028
469 1072
473 1320
474 1037
479 922
479 1046
479 1056
479 1066
483 1320
489 917
493 1318
499 914
503 1315
509 912
513 1313
519 909
523 1308
529 909
533 1305
539 909
543 1305
549 909
552 1310
559 909
560 1317
567 1325
569 909
577 1329
579 909
585 1335
589 909
594 1340
599 909
603 1345
609 909
610 1353
619 911
620 1357
628 916
629 1362
638 920
639 1365
647 925
648 1370
655 932
657 1375
664 937
666 1380
672 944
675 1385
681 949
684 1390
690 954
693 1395
700 957
703 1395
707 965
713 1395
717 969
722 1390
724 977
731 1385
732 984
739 992
741 1385
747 999
751 1385
757 999
761 1385
766 994
770 1380
776 994
780 1380
786 994
790 1380
796 994
799 1375
806 994
809 1375
816 994
818 1370
826 994
828 1370
836 994
838 1370
846 994
847 1365
856 994
857 1365
865 989
867 1364
875 989
877 1360
885 989
887 1360
895 989
897 1360
905 989
907 1360
915 989
917 1359
925 989
927 1355
934 984
937 1354
944 984
947 1350
954 984
957 1349
964 982
967 1345
974 977
977 1345
984 974
987 1345
994 974
996 1340
1004 972
1006 1340
1014 969
1015 1335
1024 969
1025 1335
1033 964
1035 1330
1043 964
1045 1330
1053 964
1055 1330
1063 964
1065 1330
1073 964
1075 1332
1082 959
1084 1337
1092 959
1092 1344
1101 954
1101 1349
1109 1355
1111 954
1118 1360
1121 954
1128 1360
1131 954
1137 1365
1141 954
1145 1372
1150 959
1152 1380
1160 962
1162 1384
1169 967
1171 1389
1177 974
1179 1395
1184 982
1188 1400
1192 989
1197 1405
1201 994
1205 1004
1206 1410
1213 1010
1216 1413
1220 1018
1226 1415
1228 1025
1235 1033
1236 1415
1240 1042
1244 1052
1246 1415
1252 1059
1256 1415
1261 1054
1266 1415
1271 1054
1276 1415
1281 1054
1286 1415
1291 1054
1296 1415
1301 1054
1306 1415
1311 1054
1316 1415
1321 1054
1325 1410
1331 1054
1335 1410
1341 1054
1345 1410
1351 1054
1354 1405
1361 1054
1364 1402
1370 1049
1374 1400
1380 1049
1384 1400
1389 1044
1394 1400
1399 1044
1402 1394
1409 1042
1410 1260
1410 1270
1410 1280
1410 1290
1410 1300
1410 1310
1410 1320
1410 1330
1410 1340
1410 1350
1410 1360
1410 1370
1410 1380
1418 1253
1419 1039
1425 1245
1428 1034
1433 1238
1438 1034
1440 1230
1447 1029
1449 1225
1456 1024
1457 1219
1462 1209
1466 1024
1470 1200
1475 1019
1478 1193
1483 1183
1485 1022
1490 1170
1492 1030
1495 1040
1495 1050
1495 1160
1500 1059
1500 1069
1500 1079
1500 1089
1500 1150
1505 1098
1505 1108
1505 1118
1505 1128
1505 1138
