354 1152
354 1162
354 1172
354 1182
354 1192
354 1202
354 1212
354 1222
354 1232
354 1242
354 1252
354 1262
354 1272
354 1282
354 1292
354 1302
354 1312
362 1144
362 1319
370 1136
370 1325
378 1129
380 1325
385 1121
390 1320
393 1114
400 1106
400 1315
410 1101
410 1315
418 1094
420 1315
427 1089
430 1310
436 1084
440 1310
444 1077
450 1305
452 1069
459 857
460 1061
460 1305
464 866
464 876
464 886
467 849
468 1054
469 895
469 905
469 915
470 1300
472 925
474 935
476 844
477 945
477 1049
479 955
480 1300
482 1039
484 964
486 844
486 974
487 1029
489 984
489 994
489 1004
489 1014
490 1295
496 844
500 1295
505 849
510 1295
515 849
520 1295
525 849
530 1295
535 849
539 1290
545 849
549 1290
554 854
559 1290
564 854
569 1290
574 854
578 1295
584 854
585 1303
593 1310
594 856
602 1315
604 859
612 1319
614 859
620 1325
624 859
629 1330
634 859
639 1330
644 861
648 1335
650 869
655 878
657 1340
663 885
666 1345
670 893
675 1350
678 900
684 1355
685 908
690 917
693 1360
697 925
702 934
702 1365
711 1370
712 934
721 1373
722 934
731 1375
732 934
740 1380
742 934
750 1380
752 934
760 1380
762 929
770 1380
772 929
780 1380
782 929
790 1380
792 929
799 1375
802 929
809 1375
812 929
818 1370
822 929
828 1370
831 924
838 1370
841 924
848 1368
851 924
858 1365
861 924
868 1365
871 924
878 1363
881 924
888 1360
891 924
898 1360
901 924
907 1355
910 919
917 1355
920 919
926 1350
930 919
936 1350
940 919
946 1350
950 919
956 1350
960 919
965 1345
970 919
975 1340
980 919
985 1340
990 919
994 1335
1000 919
1003 1330
1010 919
1013 1328
1020 919
1023 1325
1030 919
1033 1325
1040 919
1042 1320
1049 914
1052 1320
1059 914
1062 1320
1069 914
1072 1320
1079 914
1082 1320
1089 914
1092 1320
1099 914
1101 1325
1109 914
1111 1328
1119 914
1120 1333
1128 1340
1129 914
1137 1345
1139 914
1147 1349
1149 914
1157 1350
1159 914
1165 1357
1168 919
1174 1362
1177 924
1182 1369
1186 929
1191 1374
1195 934
1201 1375
1203 940
1210 948
1210 1380
1218 954
1219 1385
1227 959
1228 1390
1234 967
1237 1395
1242 974
1247 1399
1249 982
1257 989
1257 1400
1264 997
1266 1405
1269 1006
1275 1014
1276 1408
1284 1019
1286 1410
1292 1025
1296 1410
1302 1029
1306 1410
1312 1024
1316 1410
1322 1024
1326 1410
1332 1024
1335 1405
1341 1019
1345 1405
1351 1019
1355 1405
1361 1019
1364 1400
1371 1015
1374 1400
1381 1014
1383 1395
1391 1014
1393 1395
1401 1010
1403 1395
1411 1005
1412 1390
1420 1250
1420 1260
1420 1270
1421 1004
1421 1385
1425 1279
1425 1289
1425 1299
1425 1309
1425 1319
1425 1329
1425 1339
1425 1349
1428 1243
1429 1377
1430 1358
1431 1000
1433 1233
1440 1225
1441 999
1448 1218
1451 999
1455 1205
1461 995
1463 1198
1470 1190
1471 994
1478 1183
1481 994
1485 1004
1485 1175
1490 1013
1490 1165
1495 1022
1495 1032
1495 1042
1498 1158
1500 1051
1500 1061
1503 1071
1505 1081
1505 1145
1510 1090
1510 1100
1510 1110
1510 1120
1510 1130
