99 262
99 272
109 252
109 275
109 285
112 295
114 237
122 229
122 299
127 219
130 305
135 211
140 201
140 307
148 194
150 310
157 189
159 315
166 184
168 320
174 372
174 382
175 328
176 184
179 338
182 364
182 389
184 137
184 147
184 157
184 167
184 177
184 347
189 356
190 395
194 134
200 395
204 134
209 400
214 134
218 405
224 134
228 405
234 134
238 405
244 134
245 185
248 405
250 194
254 134
255 185
258 405
260 194
264 134
265 180
268 405
270 197
273 173
274 134
278 405
279 202
280 165
284 134
285 145
285 155
287 400
289 204
297 400
298 209
307 399
308 209
317 204
317 395
326 400
327 199
336 194
336 400
346 190
346 400
356 185
356 400
365 405
366 184
375 405
376 184
385 405
386 184
395 405
396 184
405 405
406 184
415 189
415 400
425 192
425 400
435 194
435 400
444 199
445 400
452 205
455 400
460 212
465 400
467 220
475 227
475 400
482 235
485 395
490 242
490 385
494 252
498 378
500 260
500 270
503 368
505 345
507 355
510 274
515 345
520 274
525 283
525 340
530 292
533 333
535 301
535 311
535 321
