14 92
14 102
22 84
22 109
30 76
30 115
40 74
40 115
49 187
49 207
49 217
50 71
50 115
54 177
54 196
54 237
59 157
59 167
59 220
59 246
60 69
60 115
64 255
67 149
70 67
70 117
70 263
75 141
75 272
79 122
80 64
82 280
83 134
90 64
92 284
94 294
99 59
100 302
108 54
109 307
114 322
117 49
119 352
124 325
124 335
125 360
126 44
133 353
136 44
143 348
144 37
152 29
153 343
160 21
160 335
165 30
165 40
165 50
165 190
170 180
170 199
170 330
174 492
175 54
178 323
179 192
179 472
179 482
180 175
183 60
183 313
184 492
185 75
185 160
188 303
189 182
189 467
190 84
190 280
190 290
193 153
194 172
194 495
195 95
195 105
195 115
195 125
195 135
199 162
199 285
199 295
199 317
199 327
199 337
199 347
199 357
199 462
204 152
204 304
204 366
204 495
209 142
209 375
209 397
209 452
214 132
214 406
214 437
214 495
217 389
219 122
219 375
219 415
219 425
224 112
224 495
229 97
234 77
234 87
234 495
239 67
244 57
244 492
245 440
245 450
245 460
245 470
245 480
249 47
250 380
250 390
250 405
250 415
250 425
255 370
257 39
265 31
265 370
270 345
270 355
273 24
275 320
275 330
283 24
284 315
293 25
294 315
302 30
304 315
310 37
314 315
315 46
320 55
324 315
325 64
325 74
334 79
334 312
339 57
339 67
344 42
344 310
352 34
352 304
360 26
362 299
364 487
368 19
370 290
370 495
372 479
374 302
378 19
379 311
379 322
379 332
379 357
380 495
381 474
384 341
384 366
388 19
389 467
390 497
391 374
394 452
398 20
399 432
399 442
400 500
401 375
404 392
404 402
404 412
404 422
405 28
405 490
409 381
410 470
410 480
413 35
415 445
415 455
417 45
420 415
420 425
420 435
422 54
425 64
425 75
428 408
430 84
430 385
433 398
435 93
439 380
440 102
447 110
448 375
455 117
455 345
457 355
458 373
460 285
460 295
460 315
460 325
460 335
462 125
465 304
469 290
470 132
474 312
475 302
479 137
484 146
484 315
489 324
489 492
490 154
494 333
494 501
499 342
499 482
500 157
504 167
504 351
504 362
504 500
507 474
509 371
510 175
510 190
510 210
510 225
510 240
514 457
514 500
515 199
515 249
519 375
519 417
519 432
519 442
520 258
520 268
524 384
524 394
524 404
524 500
525 277
530 286
534 500
536 294
540 470
540 480
540 490
544 301
545 311
545 321
545 415
545 425
545 440
545 450
545 460
550 330
550 340
550 350
550 400
555 359
555 370
555 380
557 390
