319 457
319 467
319 477
319 487
319 497
324 442
324 506
329 427
331 514
334 412
339 397
339 520
344 387
349 377
349 520
357 369
358 525
365 361
367 530
374 538
375 356
379 547
385 354
385 555
394 560
395 354
404 347
404 560
409 332
414 560
417 324
422 314
424 560
427 304
432 294
434 560
439 282
444 272
444 557
452 264
454 552
457 254
464 547
465 246
474 545
475 241
483 234
483 540
489 192
489 202
489 212
490 226
492 534
494 667
494 677
494 687
497 184
499 647
499 657
499 696
499 706
500 525
504 172
504 582
504 592
504 602
504 612
504 622
504 632
504 715
508 518
509 557
509 567
509 724
509 734
509 744
509 754
511 764
512 164
514 527
514 537
514 547
515 510
519 770
519 780
520 156
522 790
524 800
530 151
530 808
538 144
538 815
539 825
542 835
544 845
547 139
547 855
549 865
552 875
554 885
554 895
554 905
554 915
556 134
557 925
564 933
565 943
566 130
573 950
574 122
582 955
584 119
592 955
594 119
599 963
600 973
604 119
605 982
612 990
614 121
614 1000
620 1008
624 124
628 1015
634 126
634 1023
634 1033
639 1042
639 1052
644 129
647 1059
649 1069
654 131
655 1077
664 134
664 1082
672 1089
674 134
676 1099
680 305
680 315
680 325
680 335
680 345
680 355
680 365
682 140
682 375
684 1105
685 275
685 285
685 295
685 385
685 395
685 405
690 147
690 255
690 265
690 414
693 1110
695 215
695 225
695 423
695 433
697 155
697 235
698 248
699 1118
700 185
700 195
700 205
700 442
702 164
704 452
704 1127
705 174
709 461
710 471
712 1134
715 480
720 489
721 1139
725 498
729 1145
730 507
737 515
738 1150
742 524
747 1155
749 532
756 1160
757 539
764 547
765 1165
772 554
774 1160
781 559
783 1155
791 559
793 1155
800 564
802 1160
808 570
812 1160
814 1487
814 1497
818 574
819 1472
822 1160
822 1504
827 1464
828 575
831 1509
832 1164
832 1454
838 579
840 1446
841 1513
842 1165
848 579
848 1439
849 1173
849 1183
850 1518
854 1192
854 1202
854 1212
855 1431
858 579
859 1221
859 1231
859 1241
860 1522
863 1424
864 1250
864 1260
864 1270
864 1280
864 1290
864 1300
864 1310
867 1530
868 580
869 1319
869 1329
869 1412
871 1339
874 1349
874 1359
874 1369
874 1379
874 1389
874 1399
877 1530
878 584
887 579
887 1530
895 1537
896 574
902 1545
906 570
911 1540
916 569
921 1540
925 564
931 1540
935 561
941 1540
943 554
949 1532
952 549
959 1527
960 541
968 534
969 352
969 362
969 372
969 382
969 392
969 1522
974 337
974 401
974 522
975 1510
979 317
979 327
980 1300
980 1310
980 1370
980 1380
980 1390
980 1400
980 1410
980 1420
980 1430
980 1490
980 1500
981 409
982 514
982 1320
984 307
985 1210
985 1220
985 1230
985 1240
985 1250
985 1260
985 1270
985 1280
985 1290
985 1330
985 1340
985 1350
985 1360
985 1439
985 1449
985 1459
985 1469
985 1479
989 297
990 506
990 1175
990 1185
990 1195
991 413
995 1140
995 1150
995 1160
997 289
998 499
999 420
1000 1120
1000 1130
1002 489
1005 281
1005 1105
1008 425
1009 267
1010 1085
1010 1095
1012 484
1014 472
1015 1065
1015 1075
1017 259
1018 425
1019 462
1020 1050
1025 251
1027 454
1028 425
1029 1045
1032 444
1035 246
1037 420
1039 1045
1040 436
1045 241
1048 1050
1055 236
1058 1050
1065 231
1067 1055
1073 224
1076 1050
1083 224
1086 1050
1092 219
1096 1053
1101 214
1106 1055
1110 209
1116 1055
1120 209
1126 1055
1130 209
1136 1055
1139 204
1146 1055
1149 204
1156 1055
1158 199
1166 1055
1168 200
1176 1055
1178 204
1186 1055
1187 209
1196 214
1196 1055
1206 214
1206 1055
1215 219
1215 1050
1223 225
1225 1050
1227 235
1230 245
1235 254
1235 1050
1243 260
1245 1050
1247 270
1252 279
1255 289
1255 1052
1259 1062
1259 1072
1259 1082
1260 298
1260 308
1260 318
1264 1091
1264 1101
1265 327
1269 1110
1272 1120
1274 312
1274 322
1274 1130
1280 1138
1282 304
1284 1148
1284 1442
1284 1452
1289 292
1289 1157
1289 1167
1289 1461
1292 1434
1294 1176
1296 1469
1297 284
1297 1424
1299 1185
1299 1195
1299 1205
1299 1215
1301 1478
1304 272
1304 1224
1307 1424
1309 1485
1310 1232
1312 264
1314 1242
1314 1412
1318 1490
1320 256
1322 1249
1324 1259
1324 1269
1324 1279
1324 1407
1328 1490
1329 1288
1329 1397
1330 251
1330 1298
1334 1308
1334 1318
1334 1328
1334 1338
1334 1348
1334 1358
1334 1382
1338 1490
1339 1367
1340 246
1348 1490
1350 241
1355 1498
1358 234
1363 1505
1368 234
1373 1505
1377 229
1383 1505
1387 229
1392 1500
1397 229
1402 1500
1406 224
1411 1505
1416 224
1421 1505
1426 220
1431 1505
1436 219
1440 1500
1445 224
1450 1495
1454 219
1460 1490
1464 219
1470 1490
1474 219
1478 1483
1480 475
1480 485
1480 495
1480 505
1484 219
1485 514
1485 524
1485 1475
1489 470
1490 533
1492 225
1493 1468
1495 542
1498 1458
1499 470
1500 232
1500 1445
1502 550
1505 1335
1505 1345
1505 1355
1505 1410
1505 1420
1505 1430
1507 1365
1509 237
1509 470
1510 557
1510 1120
1510 1130
1510 1140
1510 1150
1510 1160
1510 1170
1510 1230
1510 1240
1510 1250
1510 1260
1510 1270
1510 1280
1510 1290
1510 1300
1510 1310
1510 1320
1510 1375
1510 1385
1510 1395
1512 1180
1515 566
1515 1105
1515 1190
1515 1200
1515 1210
1515 1220
1517 244
1519 470
1523 1098
1524 252
1524 571
1525 1080
1528 581
1529 470
1530 1070
1532 259
1535 589
1535 1055
1539 267
1539 470
1540 1035
1540 1045
1543 595
1544 276
1545 1015
1545 1025
1549 470
1550 284
1550 603
1550 985
1550 995
1550 1005
1555 293
1555 303
1555 970
1557 464
1558 610
1559 1107
1559 1117
1559 1127
1559 1137
1560 312
1560 322
1560 332
1560 342
1560 955
1564 352
1564 1087
1564 1097
1564 1146
1564 1156
1565 362
1565 455
1565 618
1565 940
1569 1077
1569 1165
1570 371
1570 381
1570 391
1570 401
1570 411
1570 430
1570 440
1570 627
1570 925
1574 637
1575 420
1575 910
1575 1173
1577 1069
1580 890
1580 900
1582 644
1583 1180
1584 1052
1585 865
1585 875
1589 652
1589 1037
1590 840
1590 850
1590 1188
1594 661
1594 1017
1594 1027
1598 671
1599 845
1599 987
1599 997
1599 1007
1600 1190
1603 680
1604 854
1604 864
1604 874
1604 884
1604 894
1604 904
1604 914
1604 924
1604 934
1604 944
1604 954
1604 964
1604 974
1605 690
1610 699
1610 1185
1615 708
1615 718
1618 1178
1620 727
1625 736
1625 1160
1625 1170
1630 745
1630 1135
1630 1145
1635 754
1635 1045
1635 1055
1635 1065
1635 1075
1635 1085
1635 1095
1635 1105
1635 1115
1635 1125
1640 763
1640 1030
1645 772
1645 782
1645 1015
1650 791
1650 1000
1653 801
1655 811
1655 970
1655 980
1655 990
1658 821
1660 831
1660 841
1660 940
1660 950
1660 960
1665 850
1665 860
1665 900
1665 910
1665 920
1665 930
1667 870
1670 880
1670 890
