299 997
304 987
304 1006
309 967
309 977
311 1014
314 957
321 1015
322 949
327 939
331 1015
335 931
341 1015
345 926
350 1010
353 919
360 911
360 1005
364 1237
364 1247
364 1257
364 1267
368 998
369 1207
369 1217
369 1227
369 1276
370 909
374 990
374 1182
374 1192
376 1284
379 1172
380 912
384 990
384 1157
386 1285
389 917
389 1147
394 990
394 1137
395 1280
399 921
399 999
399 1009
399 1019
399 1029
402 1129
403 1273
404 1038
404 1048
405 929
408 1263
409 1057
409 1067
409 1077
409 1087
409 1097
409 1107
409 1117
413 1253
414 934
415 1235
420 1215
420 1225
422 940
425 1185
425 1195
425 1205
430 947
430 1165
430 1175
438 1158
439 952
445 1150
447 959
455 1150
456 964
464 971
464 1145
470 979
473 1140
475 988
483 995
483 1138
493 999
493 1135
502 1004
503 1135
512 1004
513 1135
522 1004
523 1135
532 1004
533 1135
542 1004
543 1135
552 1004
553 1135
562 1004
563 1135
572 1004
573 1135
582 1004
582 1140
591 1145
592 1004
594 1222
594 1232
596 1154
599 1202
599 1212
602 1004
602 1239
604 1160
604 1170
604 1180
604 1190
610 1245
612 1004
619 1250
622 1004
629 1250
632 1004
637 1244
642 1004
645 1220
645 1230
650 1170
650 1180
650 1190
650 1200
650 1210
651 1009
660 1165
661 1009
668 1158
671 1009
678 1155
680 1014
688 1155
689 1019
697 1025
698 1155
705 1032
708 1155
709 1042
714 1051
715 1061
715 1163
718 1071
720 1081
723 1170
725 1090
727 1100
727 1180
729 1190
729 1200
732 1109
734 1209
736 1219
741 1228
742 1109
744 1238
749 1247
751 1104
754 1256
760 1099
761 1264
769 1094
771 1265
779 1092
780 1270
789 1089
789 1275
799 1087
799 1275
809 1084
809 1275
818 1079
818 1280
819 1027
819 1037
819 1047
819 1057
819 1067
824 1012
828 1280
829 1002
837 994
837 1285
846 989
847 1285
855 984
857 1284
864 892
864 902
864 912
864 922
864 932
864 942
864 952
864 962
864 972
867 1279
869 882
874 872
875 1270
882 864
884 1265
890 1255
892 864
895 1245
899 872
900 882
903 1238
905 891
908 1228
910 1215
911 899
915 909
915 1200
920 918
925 927
925 1200
929 937
930 947
935 956
935 1200
941 964
945 974
945 1200
950 983
955 992
955 1002
955 1012
955 1022
955 1032
955 1042
955 1052
955 1062
955 1072
955 1200
959 1082
965 1200
969 1084
975 1200
979 1084
985 1195
989 1084
995 1195
998 1079
1004 1057
1004 1067
1005 1195
1009 1047
1015 1195
1017 1039
1025 1195
1026 1034
1035 1029
1035 1195
1044 1024
1045 1195
1053 1019
1055 1197
1062 1014
1065 1200
1072 1009
1074 1205
1081 1004
1084 1205
1090 999
1090 1213
1098 1220
1100 996
1105 1228
1110 991
1113 1235
1114 1245
1118 984
1119 1254
1121 1264
1125 976
1126 1273
1129 952
1129 962
1134 942
1134 1280
1140 1288
1142 934
1148 1295
1151 929
1157 1300
1160 934
1166 1305
1170 937
1174 1311
1177 945
1182 954
1184 1315
1189 962
1193 1320
1197 969
1200 979
1202 1325
1208 985
1212 995
1212 1325
1220 1002
1222 1325
1228 1009
1232 1329
1238 1009
1242 1330
1248 1009
1252 1330
1258 1009
1262 1330
1267 1014
1271 1325
1275 1020
1280 1029
1280 1039
1280 1049
1280 1059
1280 1069
1280 1079
1280 1089
1280 1320
1285 1098
1285 1108
1285 1118
1285 1310
1290 1300
1293 1124
1295 1290
1303 1125
1303 1283
1308 1273
1312 1130
1313 1263
1318 1253
1320 1137
1324 1147
1325 1240
1329 1156
1330 1166
1330 1215
1330 1225
1333 1176
1335 1186
1335 1196
1335 1206
