29 102
34 92
34 111
39 82
39 120
44 72
47 114
54 67
57 110
62 59
67 110
72 59
74 118
79 127
79 137
81 64
84 146
84 257
89 232
89 242
90 59
92 264
94 150
94 160
97 224
98 65
100 168
102 265
105 73
105 177
105 216
109 187
109 197
110 82
111 270
119 87
120 265
129 89
130 220
130 240
130 250
130 260
135 200
135 210
135 229
139 89
143 193
148 94
153 188
158 94
163 183
168 94
173 180
177 99
183 180
187 99
193 180
197 99
203 180
207 99
209 202
209 247
209 257
209 267
210 188
214 211
214 221
214 231
217 99
217 274
227 99
227 270
237 99
237 270
246 104
247 270
254 111
257 270
260 119
260 129
260 139
260 149
265 195
265 205
265 215
267 269
268 155
270 224
270 234
272 259
275 195
275 243
278 155
284 232
285 195
285 242
288 159
289 207
289 217
289 252
297 259
298 159
307 260
308 159
315 267
318 159
319 127
319 137
319 147
324 112
324 272
332 104
334 275
340 96
343 280
344 52
344 62
348 89
349 37
349 71
352 285
359 32
362 285
369 34
372 285
377 40
380 275
382 49
389 57
390 67
390 77
390 87
390 255
390 265
395 96
395 106
395 116
395 126
395 220
395 230
395 240
398 136
405 144
405 220
414 149
415 220
424 149
425 220
434 147
435 220
442 139
445 220
450 131
455 220
458 124
459 112
464 92
464 102
465 220
472 84
475 220
477 74
485 222
486 69
494 227
494 237
495 74
499 246
499 257
504 266
505 77
505 87
511 274
515 89
521 278
524 94
531 280
534 96
541 280
544 99
551 280
554 101
560 109
561 280
570 109
571 280
580 109
580 275
590 107
590 275
599 112
600 155
600 265
604 121
605 131
605 141
605 164
609 260
615 167
615 250
619 177
620 240
625 185
625 195
625 205
625 215
625 225
