29 97
29 107
37 89
37 114
45 81
46 119
51 110
53 74
60 66
60 105
69 110
70 61
79 110
80 59
88 105
89 64
89 232
89 242
94 113
94 251
98 69
99 122
99 132
99 142
99 152
99 162
99 172
99 182
99 192
99 202
99 212
99 222
104 247
107 74
109 237
110 220
115 80
115 200
115 210
120 185
125 84
125 175
130 93
135 175
140 94
145 175
150 94
155 175
159 99
165 175
168 104
175 175
177 99
185 175
186 104
195 175
196 104
205 109
205 175
209 192
209 202
209 212
209 222
209 232
215 109
215 240
221 248
225 109
231 245
235 109
235 230
240 195
240 205
240 215
245 112
249 190
254 117
255 127
255 137
255 147
255 157
259 190
265 159
269 190
275 159
278 195
285 156
285 203
290 212
294 222
294 232
294 242
295 159
299 251
305 159
306 259
315 159
316 263
324 152
326 265
332 144
334 107
334 117
334 127
336 265
339 97
346 268
347 89
354 52
356 265
357 89
359 42
359 61
359 71
364 257
367 34
374 252
375 165
375 175
375 240
376 29
380 39
380 184
380 230
385 48
385 160
385 193
385 203
385 213
390 57
394 67
394 165
399 76
400 90
400 100
400 110
400 173
402 120
405 130
405 182
410 139
414 187
414 207
418 145
419 196
422 155
422 214
432 159
432 214
441 219
442 159
449 225
452 159
459 225
461 154
464 137
469 122
469 225
479 117
479 222
489 92
489 102
489 112
489 220
492 230
494 82
494 240
502 74
503 245
510 253
512 74
518 260
522 74
525 84
525 268
533 90
533 275
538 99
542 280
548 99
551 285
558 99
561 288
567 104
570 293
576 109
580 295
586 110
590 120
590 130
590 140
590 150
590 160
590 295
595 169
600 290
605 172
610 275
610 285
614 177
615 265
620 250
624 181
625 191
625 201
625 211
625 221
625 231
625 241
