29 122
34 112
34 131
42 104
44 132
49 87
54 127
59 82
64 125
69 79
74 125
79 79
79 134
81 144
84 197
84 207
84 217
84 227
84 237
86 153
89 79
90 163
92 189
92 244
97 179
99 81
99 252
105 89
109 255
112 265
113 95
120 103
121 260
129 252
130 107
130 185
130 195
130 205
130 215
130 225
130 235
140 109
140 185
150 109
150 185
160 106
160 185
170 104
170 185
180 101
180 185
190 104
190 185
199 99
200 185
209 99
210 185
219 99
220 187
224 247
224 262
227 195
229 99
229 205
229 271
232 239
234 214
234 224
238 104
239 275
247 109
249 272
250 119
254 262
255 128
255 138
255 190
255 200
255 210
255 220
255 230
255 240
259 252
260 147
260 157
265 190
270 159
274 195
280 159
283 200
290 156
292 205
294 215
294 225
294 235
294 245
297 255
300 154
302 264
310 154
312 265
314 122
314 132
319 141
321 270
322 114
330 106
331 270
334 52
339 61
339 71
340 101
341 273
342 44
344 80
344 90
349 32
351 275
359 29
360 280
368 34
370 280
375 270
377 39
380 260
384 47
385 57
385 67
385 77
385 87
385 97
385 107
385 117
385 127
385 137
385 147
385 230
385 240
385 250
389 157
395 230
399 159
405 230
409 159
415 230
419 159
424 147
425 230
429 137
429 156
435 230
437 129
444 235
445 121
453 114
454 235
463 114
464 235
469 72
469 82
469 92
469 102
473 230
477 64
480 238
486 59
488 245
492 255
494 267
496 59
502 274
506 59
510 69
511 279
515 80
520 89
521 280
525 98
530 285
535 102
540 287
545 104
550 290
555 104
560 290
564 109
570 117
570 285
575 126
575 136
575 146
575 156
580 285
581 164
590 169
590 280
598 273
600 172
600 260
607 180
610 245
610 255
615 187
618 238
620 196
620 225
625 205
625 215
