544 1012
549 1002
552 1019
557 994
560 1025
562 984
567 974
570 1025
572 964
577 954
580 1015
582 944
587 934
588 1008
596 929
598 1005
605 924
608 1005
614 1013
615 924
615 1023
620 1032
624 929
629 1037
633 934
634 1046
634 1056
634 1066
634 1076
634 1086
639 1262
641 1094
643 935
644 1247
647 1269
649 1100
649 1237
652 940
654 1109
654 1119
654 1129
654 1139
654 1149
654 1159
654 1169
654 1179
654 1189
654 1199
654 1209
654 1219
655 1275
660 947
665 1275
669 952
674 961
675 1275
680 969
685 1270
688 975
695 1260
697 980
700 1135
700 1145
700 1155
700 1165
700 1175
700 1185
700 1195
700 1205
700 1215
700 1225
700 1235
700 1245
702 989
709 997
710 1130
717 1004
720 1130
727 1004
730 1130
737 1004
740 1130
747 1004
750 1130
757 1004
759 1135
767 1004
769 1135
777 1004
779 1135
786 1009
789 1135
796 1009
799 1135
806 1009
809 1135
816 1009
819 1135
826 1009
829 1135
836 1009
839 1135
845 1143
846 1009
849 1153
849 1163
849 1173
849 1183
849 1193
849 1203
849 1213
849 1223
849 1233
849 1243
849 1253
850 1263
856 1009
858 1270
866 1009
867 1275
876 1009
877 1275
885 1014
887 1275
894 1019
897 1279
902 1025
907 1279
912 1029
915 1270
920 1260
921 1034
925 1245
930 1145
930 1155
930 1165
930 1175
930 1185
930 1195
930 1205
930 1215
930 1225
930 1235
931 1034
939 1041
940 1145
945 1049
945 1059
945 1069
945 1079
945 1089
945 1099
950 1145
954 1104
960 1145
964 1104
970 1145
974 1104
980 1145
984 1104
989 1150
994 1104
995 1158
999 1168
999 1178
999 1188
999 1198
1000 1208
1004 1104
1004 1218
1004 1228
1005 1238
1009 1248
1010 1258
1014 1104
1015 1267
1022 1275
1024 1104
1030 1282
1034 1102
1037 1290
1042 1094
1045 1297
1050 1086
1052 1305
1058 1079
1062 1305
1064 1017
1064 1027
1064 1037
1064 1047
1064 1057
1064 1067
1069 1007
1071 1310
1074 997
1081 1310
1082 989
1090 1305
1092 984
1099 892
1099 902
1100 1300
1101 979
1104 882
1104 911
1104 921
1108 1293
1109 930
1109 972
1112 874
1112 940
1114 950
1114 960
1115 1280
1117 864
1120 1265
1125 1255
1126 859
1130 1240
1135 1230
1136 859
1140 1155
1140 1165
1140 1175
1140 1185
1140 1195
1140 1205
1140 1215
1145 864
1149 1150
1150 873
1150 883
1150 893
1155 902
1155 912
1155 922
1158 1145
1162 930
1168 1145
1170 937
1174 947
1175 957
1175 967
1175 977
1178 1145
1179 987
1184 996
1187 1150
1188 1006
1193 1015
1196 1155
1197 1025
1200 1035
1204 1161
1205 1044
1205 1054
1210 1063
1210 1073
1211 1169
1215 1082
1219 1175
1219 1185
1222 1195
1223 1089
1227 1204
1233 1089
1234 1212
1243 1089
1244 1215
1250 1081
1254 1215
1255 1071
1263 1064
1264 1215
1267 1054
1274 1037
1274 1215
1279 1022
1284 1012
1284 1215
1292 1004
1294 1215
1297 994
1302 984
1304 1215
1312 979
1314 1215
1322 974
1324 1215
1332 974
1333 1220
1340 1228
1342 974
1348 1235
1349 952
1349 962
1354 942
1354 1243
1359 1252
1364 937
1367 1259
1374 934
1374 1267
1379 1276
1384 934
1384 1285
1390 1293
1394 936
1400 1297
1403 941
1409 1302
1410 949
1418 955
1419 1305
1422 965
1429 1305
1430 972
1439 977
1439 1305
1447 984
1448 1310
1457 984
1458 1310
1467 984
1468 1310
1477 984
1478 1310
1487 984
1488 1310
1497 984
1498 1310
1507 984
1508 1310
1514 992
1518 1308
1520 1000
1520 1010
1525 1019
1525 1029
1525 1039
1525 1049
1525 1059
1528 1303
1530 1068
1530 1078
1530 1088
1530 1098
1535 1107
1535 1117
1535 1295
1542 1125
1543 1288
1548 1278
1550 1132
1553 1268
1557 1140
1558 1258
1563 1248
1565 1147
1568 1238
1570 1156
1570 1220
1575 1165
1575 1175
1575 1185
1575 1195
1575 1205
