574 997
579 987
579 1006
587 979
589 1010
594 967
598 1015
602 959
607 949
608 1015
614 937
618 1015
624 932
628 1015
634 929
638 1015
639 1272
644 931
644 1257
644 1281
648 1015
649 1247
651 1289
654 934
654 1023
657 1239
659 1032
659 1042
659 1052
659 1062
659 1072
659 1295
663 939
664 1081
665 1231
668 1290
670 1221
671 1089
673 939
675 1211
677 1284
679 1095
679 1105
679 1115
679 1125
679 1135
679 1145
679 1155
679 1165
679 1175
679 1185
679 1195
683 940
685 1275
692 945
693 1268
698 1258
700 1230
700 1240
702 949
708 1223
711 954
713 1213
718 1203
719 961
723 1193
725 969
728 1183
733 975
735 1175
743 979
743 1168
753 979
753 1165
763 979
763 1165
773 979
773 1165
783 979
783 1165
793 979
793 1165
803 979
803 1165
812 1160
813 979
822 1160
823 979
832 1160
833 979
842 1160
843 979
852 1160
853 979
862 1160
863 979
872 1160
873 979
882 1160
883 979
892 1160
893 979
902 1160
903 979
909 1168
910 1178
913 979
914 1188
919 1197
923 979
924 1206
924 1216
924 1226
924 1236
924 1246
924 1256
929 1265
933 980
938 1270
942 985
947 1275
952 989
955 999
955 1165
955 1175
955 1185
955 1195
955 1205
955 1215
955 1225
957 1274
960 1234
963 1005
965 1165
965 1243
965 1253
965 1263
967 1015
970 1025
975 1034
975 1044
975 1054
975 1165
980 1063
985 1072
985 1165
989 1082
995 1165
997 1089
1005 1165
1007 1089
1009 1175
1009 1185
1009 1195
1009 1205
1009 1215
1009 1225
1009 1235
1009 1245
1014 1254
1014 1264
1016 1274
1017 1089
1021 1283
1025 1293
1027 1089
1033 1300
1037 1089
1042 1305
1046 1084
1052 1309
1056 1084
1062 1310
1066 1080
1072 1310
1076 1079
1079 1032
1079 1042
1079 1052
1079 1062
1082 1310
1084 1022
1092 1014
1092 1310
1097 1004
1102 994
1102 1310
1111 989
1112 1310
1120 984
1122 1310
1130 981
1132 1310
1134 922
1134 932
1134 942
1134 952
1134 962
1139 907
1142 1309
1144 897
1149 887
1152 1305
1159 882
1161 1300
1169 881
1170 1295
1178 886
1179 1290
1187 1284
1188 890
1192 900
1192 1274
1197 1264
1200 907
1200 1185
1200 1195
1200 1205
1200 1215
1200 1225
1200 1235
1200 1245
1204 917
1209 926
1210 1180
1213 936
1215 946
1215 956
1215 966
1215 976
1215 986
1215 996
1215 1006
1215 1016
1215 1026
1218 1036
1220 1180
1225 1044
1230 1053
1230 1180
1235 1062
1239 1175
1240 1071
1245 1080
1249 1175
1250 1089
1255 1098
1259 1175
1263 1104
1269 1175
1273 1104
1279 1175
1283 1104
1289 1175
1293 1104
1299 1175
1302 1099
1309 1067
1309 1077
1309 1087
1309 1175
1314 1057
1319 1047
1319 1175
1324 1037
1328 1180
1332 1029
1338 1180
1340 1021
1348 1180
1350 1016
1358 1180
1360 1011
1368 1180
1369 952
1369 962
1369 972
1369 982
1369 992
1369 1002
1374 942
1375 1188
1380 1197
1382 934
1384 1207
1389 1216
1391 929
1394 1225
1397 1235
1400 924
1405 1242
1409 929
1412 1250
1419 929
1420 1257
1428 934
1429 1262
1437 1269
1438 934
1446 1274
1447 939
1456 944
1456 1278
1464 951
1464 1285
1473 956
1473 1290
1478 965
1482 975
1483 1290
1487 984
1490 994
1490 1298
1499 999
1500 1302
1509 999
1510 1305
1519 999
1520 1305
1529 999
1530 1305
1539 999
1540 1305
1549 999
1550 1305
1559 999
1560 1305
1568 1004
1570 1305
1575 1012
1580 1021
1580 1305
1585 1030
1585 1040
1590 1049
1590 1059
1590 1069
1590 1079
1590 1089
1590 1099
1590 1305
1600 1102
1600 1305
1608 1298
1609 1107
1614 1116
1615 1285
1618 1126
1623 1135
1623 1278
1627 1145
1628 1268
1632 1154
1635 1164
1635 1174
1635 1184
1635 1260
1640 1193
1640 1250
1645 1202
1645 1212
1645 1222
1645 1232
