24 232
24 242
24 252
29 261
32 224
36 269
41 219
46 273
50 214
56 205
56 275
65 280
66 200
74 194
74 285
83 189
83 290
90 298
93 189
98 305
103 189
104 177
104 547
107 310
109 167
109 556
112 319
112 539
117 159
119 327
119 560
122 534
124 336
124 346
125 165
129 355
129 560
132 534
134 364
135 169
136 374
139 560
140 526
143 175
144 380
145 516
147 185
147 390
149 557
150 195
150 506
155 204
155 397
155 496
157 549
159 407
159 482
162 539
163 210
164 416
164 462
164 472
167 529
168 219
169 425
169 435
169 445
175 227
175 520
182 235
183 513
190 242
190 500
198 493
199 247
205 480
209 249
213 473
218 463
219 251
223 453
229 251
230 445
238 438
239 249
244 430
249 249
253 435
259 249
262 440
264 547
264 557
269 247
270 447
272 539
274 457
274 560
279 244
279 466
279 476
280 531
284 485
284 495
284 505
284 515
284 560
288 239
294 560
298 239
302 554
308 239
310 540
315 525
317 234
320 485
320 495
320 505
320 515
325 430
325 440
325 450
325 460
325 470
327 234
334 425
337 234
344 425
347 234
354 425
357 234
364 425
367 234
374 425
376 239
384 425
386 239
394 425
396 239
404 425
404 482
404 492
406 239
410 500
413 430
414 477
416 239
420 500
422 435
424 474
426 239
430 500
432 435
434 467
436 239
439 495
441 440
442 459
446 239
447 489
456 239
457 484
465 475
466 239
469 487
469 497
473 468
474 506
476 239
477 479
483 465
484 510
485 234
494 227
494 507
499 217
502 499
507 209
507 489
510 375
510 385
510 470
512 199
512 395
515 355
515 365
515 455
517 189
519 172
520 335
520 345
520 402
520 412
520 422
520 432
520 442
524 157
525 255
525 265
525 275
525 285
525 295
525 305
525 315
525 325
529 132
529 142
530 245
534 117
535 230
539 87
539 97
539 107
540 220
544 67
544 77
545 205
549 57
550 195
555 180
559 52
560 165
565 135
565 145
565 155
567 44
570 110
570 120
575 70
575 80
575 90
575 100
577 44
580 54
