24 282
24 292
29 301
34 279
34 310
34 320
39 329
41 339
44 279
44 349
44 359
44 369
46 379
49 389
53 284
55 397
62 405
63 285
71 410
72 290
79 557
79 567
80 415
82 294
87 549
87 574
89 420
92 294
95 580
97 549
98 425
102 289
105 580
106 544
107 430
110 281
114 537
115 437
115 580
118 274
119 447
119 527
123 573
124 456
124 477
124 487
124 497
124 517
128 274
129 465
129 506
130 565
135 266
138 558
143 259
143 548
147 249
150 540
155 241
155 525
163 234
163 518
168 508
170 226
170 490
175 480
178 219
180 470
184 577
185 211
185 460
189 586
192 569
194 455
195 206
196 594
200 561
203 460
204 470
205 201
206 595
207 480
208 554
209 490
209 500
214 509
214 519
214 529
214 539
215 196
216 595
224 587
225 191
233 184
234 582
240 570
243 184
245 540
245 550
245 560
250 505
250 515
250 525
252 179
255 470
255 480
255 490
260 455
262 179
265 440
270 430
272 179
278 423
282 179
288 418
292 179
298 413
302 179
308 410
312 179
318 410
322 179
328 410
329 562
332 179
334 547
334 571
337 415
342 179
344 542
344 575
345 422
349 432
351 184
353 580
354 441
354 539
361 184
361 449
363 580
364 537
366 458
370 189
372 529
373 578
375 463
379 194
380 472
380 521
380 570
384 492
385 511
387 480
388 199
388 563
389 501
395 555
397 204
400 545
406 209
408 538
415 214
415 530
423 523
424 219
430 515
432 225
438 508
440 232
445 495
448 239
450 475
450 485
457 244
460 477
467 244
469 482
475 236
479 485
483 229
487 219
488 490
489 197
489 207
494 182
494 547
494 557
498 490
499 167
500 565
502 539
504 152
505 360
505 370
505 380
505 390
505 400
507 410
507 495
509 137
510 345
510 565
512 419
512 534
515 330
515 429
517 129
517 499
520 315
520 565
521 529
522 119
524 507
524 517
525 235
525 245
525 255
525 265
525 275
525 285
525 295
525 305
525 432
527 109
530 225
530 565
532 440
535 101
535 200
535 210
537 449
540 180
540 190
540 565
543 94
544 457
545 170
548 558
550 86
550 160
550 465
550 545
555 150
555 474
555 484
555 494
555 504
555 514
555 524
555 534
560 81
560 140
568 74
568 133
575 125
577 69
583 118
586 64
593 113
596 64
603 108
606 64
610 100
616 64
619 95
625 85
626 64
630 74
