24 257
24 267
24 277
32 249
32 284
39 237
40 290
44 227
50 292
52 219
59 192
60 295
62 214
64 201
69 189
69 300
77 195
79 300
85 308
87 199
93 315
94 207
100 323
104 211
108 330
110 219
115 338
119 462
120 222
123 345
124 452
124 471
127 230
130 353
134 447
134 475
137 234
138 360
139 432
144 417
144 475
146 239
147 365
149 375
149 402
153 470
154 384
154 502
155 244
159 492
160 460
162 509
165 244
165 450
169 487
170 440
172 510
175 244
175 425
179 477
180 410
182 510
184 452
184 462
185 244
189 405
189 427
189 437
192 509
194 414
195 247
197 499
205 249
205 480
205 490
210 470
215 249
215 450
215 460
220 430
220 440
225 249
225 410
225 420
230 400
234 244
239 395
244 244
249 395
254 244
259 395
264 244
269 392
274 244
279 392
284 244
289 390
294 244
299 390
304 244
309 390
314 244
319 390
324 244
324 462
324 472
329 390
332 479
334 244
334 457
339 387
342 480
344 242
344 454
349 385
352 480
353 449
354 239
357 439
359 385
361 475
364 239
364 427
368 390
369 400
369 417
370 470
374 239
375 460
383 234
383 453
389 502
390 440
393 234
394 511
397 494
398 433
403 234
404 515
405 420
406 489
413 234
414 415
414 515
416 489
421 480
423 234
424 415
424 467
424 512
429 457
430 423
432 504
433 235
434 442
438 430
440 495
443 239
445 485
452 244
453 478
458 468
461 249
463 458
470 254
470 445
475 375
475 385
475 395
475 405
475 415
475 430
479 259
480 365
485 350
489 261
490 335
495 269
495 325
500 315
505 269
508 308
515 266
515 300
523 259
525 295
532 254
534 290
541 249
542 284
549 242
552 279
557 234
560 270
565 226
568 263
573 219
575 255
580 211
583 248
585 201
590 235
593 194
598 228
599 182
604 152
604 172
605 215
609 142
609 161
610 205
617 134
618 198
623 188
625 140
625 150
625 160
625 170
