24 247
24 257
29 266
32 239
34 275
40 231
43 280
48 224
52 285
55 216
62 285
64 167
64 202
69 176
69 186
72 159
72 285
79 167
81 290
87 174
90 295
94 182
99 300
102 189
105 308
112 189
113 315
117 325
119 197
119 335
124 344
129 201
129 353
134 362
135 209
139 371
145 212
146 379
151 388
152 220
159 395
159 542
160 227
164 551
165 403
167 534
170 229
173 410
174 555
177 529
179 234
180 418
184 428
184 438
184 448
184 472
184 482
184 492
184 502
184 512
184 555
185 458
189 234
194 555
199 236
202 549
209 239
210 530
210 540
214 562
215 520
219 239
219 571
220 505
224 557
225 495
228 244
229 575
231 503
232 549
234 513
234 523
234 533
238 244
239 575
247 239
249 575
257 239
259 572
265 555
267 234
270 530
270 540
275 485
275 495
275 505
275 515
276 239
280 460
280 470
285 435
285 450
286 235
293 428
296 234
303 425
306 234
313 425
316 234
323 425
326 234
332 430
336 234
342 434
346 234
352 435
356 234
362 435
366 234
372 439
376 234
380 445
386 234
389 440
396 234
398 445
399 532
404 522
405 540
406 234
408 445
414 519
414 545
415 239
417 450
420 511
424 545
425 239
427 454
428 504
429 464
429 492
434 473
434 483
434 545
435 239
444 542
445 239
449 562
450 530
454 571
455 239
457 554
458 523
463 513
464 232
464 575
466 549
470 505
474 227
474 575
476 545
479 527
480 507
482 219
484 517
484 575
490 211
494 572
498 204
500 400
500 410
500 420
502 430
502 564
504 192
505 385
505 440
507 554
510 365
510 375
510 449
512 184
512 544
514 72
514 82
514 92
514 102
515 345
515 355
515 458
515 468
517 174
517 534
519 62
519 111
519 162
520 335
520 477
524 120
524 130
524 140
524 150
525 280
525 290
525 300
525 310
525 320
525 486
525 520
527 54
530 495
530 505
533 273
536 49
540 265
544 56
550 64
550 260
558 70
558 253
565 78
565 245
573 85
573 238
580 93
580 225
588 100
590 110
590 215
595 119
595 129
595 139
595 165
595 195
595 205
597 175
600 148
600 185
