9 557
9 567
9 607
9 617
14 576
15 625
19 532
19 542
19 552
19 585
19 595
19 635
24 512
24 522
24 644
24 654
24 664
26 674
29 482
29 492
29 502
29 684
29 694
31 704
34 457
34 467
34 714
36 724
39 437
39 447
39 734
41 744
44 417
44 427
49 407
49 750
49 760
54 387
54 397
54 769
59 372
59 778
64 787
64 797
67 364
69 806
74 815
74 825
75 356
77 835
79 337
79 845
82 855
89 327
89 863
94 317
94 872
99 881
102 309
104 890
107 299
109 899
115 291
115 907
119 917
125 286
127 924
131 934
134 272
136 943
140 953
142 264
148 960
151 259
155 968
160 254
163 975
167 985
169 249
177 989
179 249
184 997
189 247
190 1005
194 167
194 177
199 186
199 244
199 1010
204 162
208 1015
209 190
209 242
214 157
218 1015
219 190
219 239
224 152
225 945
225 955
228 234
228 1015
229 190
230 964
234 149
235 935
237 229
237 1009
238 970
239 190
240 920
240 995
243 144
245 978
246 224
249 190
249 915
253 144
255 219
259 190
259 915
262 139
265 216
265 900
269 190
270 870
270 880
270 890
272 139
275 214
275 850
275 860
278 195
280 825
280 835
281 134
285 214
287 200
289 830
291 134
294 209
295 838
299 200
301 130
303 845
304 209
309 200
310 853
311 129
314 209
314 932
314 942
314 952
314 962
314 972
314 982
319 200
319 907
319 917
319 991
319 1001
319 1011
319 1021
320 855
321 125
324 209
324 892
324 1030
329 882
329 1039
330 855
331 124
334 205
334 867
334 1048
339 850
339 1057
341 120
342 860
344 1066
344 1076
349 1085
351 119
355 1093
360 1102
361 119
370 1105
371 119
376 1113
381 119
384 1119
386 1129
391 119
391 1138
394 1148
395 1158
401 119
404 1163
409 1172
411 115
415 1180
421 114
424 1185
427 1195
430 119
437 1199
440 119
447 1200
449 124
456 1195
458 129
466 1195
468 130
475 1140
475 1190
477 135
480 1130
480 1149
480 1159
480 1180
485 142
485 1168
489 132
490 1130
499 129
500 1080
500 1090
500 1100
500 1110
500 1120
509 129
509 1095
512 1105
514 1115
519 131
519 1124
521 1134
528 136
531 1138
538 139
540 1143
542 129
544 1153
544 1163
549 1172
552 129
554 1181
562 129
564 1185
571 134
574 1185
580 139
580 1193
589 144
590 1195
599 144
600 1195
609 146
609 1200
609 1210
612 1220
615 154
621 1225
624 159
631 1225
633 164
640 1230
642 169
649 177
649 1235
659 181
659 1235
665 189
668 1240
675 192
678 1240
682 200
687 209
687 1245
696 214
697 1249
704 221
707 1250
708 231
714 239
716 1255
720 247
724 257
724 1261
729 266
734 1265
739 269
740 1273
745 277
749 287
750 297
750 307
750 1275
760 309
760 1277
765 318
769 1282
770 327
774 337
775 347
779 357
779 1285
780 367
789 372
789 1285
792 1295
794 381
794 1582
794 1592
794 1602
795 391
795 401
797 1304
799 1314
802 1574
804 406
804 1605
805 416
805 426
805 1322
807 1564
808 436
809 1332
809 1342
810 446
812 1554
813 456
813 1610
814 1351
814 1542
818 465
819 1527
820 710
821 1359
822 475
823 1610
824 1517
825 650
825 660
825 670
825 680
825 690
825 700
826 1368
829 1378
829 1397
829 1407
829 1507
830 482
830 492
830 502
830 512
830 522
830 532
830 542
830 552
830 605
830 615
830 625
830 635
830 714
833 1608
834 562
834 1416
834 1492
835 572
835 582
835 592
835 1595
837 1385
839 1425
839 1435
839 1482
840 711
842 1445
844 1455
844 1465
844 1590
850 709
853 1585
860 709
863 1585
870 709
873 1585
880 709
882 1590
885 1360
885 1370
890 706
890 1345
890 1379
890 1389
890 1399
890 1409
890 1419
890 1429
890 1439
891 1595
895 1325
895 1335
895 1448
895 1458
900 704
900 1315
900 1467
900 1600
905 1295
905 1305
907 1475
909 699
909 1605
910 1285
915 1482
919 699
919 1605
920 1285
923 1489
928 694
929 1605
930 1280
932 1494
937 689
939 1502
939 1605
940 1280
947 684
949 1275
949 1506
949 1605
957 684
958 1511
959 1275
959 1605
966 689
968 1280
968 1515
969 1605
974 682
977 1520
978 1280
979 1605
984 677
987 1524
988 1280
989 1605
994 667
996 1529
998 1280
998 1610
1002 659
1005 1534
1007 1615
1008 1280
1012 654
1015 1537
1015 1585
1017 1615
1018 1280
1019 1290
1019 1300
1019 1310
1019 1320
1019 1330
1019 1340
1019 1350
1020 1594
1022 654
1024 1542
1025 1585
1025 1603
1028 1355
1031 649
1032 1365
1032 1549
1035 1585
1039 637
1040 1372
1040 1555
1044 627
1045 1564
1045 1585
1047 1380
1053 1570
1054 624
1054 1388
1055 1585
1062 1395
1063 619
1067 609
1067 1404
1069 597
1074 587
1074 1412
1079 577
1079 1577
1082 1419
1084 557
1084 567
1085 1585
1087 1569
1089 547
1089 1427
1094 527
1094 537
1094 1590
1097 1569
1099 517
1099 1430
1102 1440
1103 1595
1104 487
1104 497
1104 507
1106 1564
1109 472
1112 1444
1112 1600
1114 432
1114 442
1114 452
1116 1564
1119 422
1119 461
1119 1452
1119 1462
1122 1600
1126 1564
1127 414
1129 1465
1129 1475
1129 1485
1129 1495
1129 1505
1131 1605
1134 1514
1134 1557
1136 409
1136 1524
1139 1534
1139 1544
1141 1605
1144 387
1144 397
1149 377
1151 1605
1154 367
1155 1325
1155 1335
1155 1345
1155 1355
1155 1365
1155 1375
1157 1385
1159 357
1160 1315
1161 1605
1165 1392
1167 349
1168 1308
1169 1402
1170 1295
1170 1600
1174 147
1174 157
1174 167
1175 1285
1175 1410
1176 344
1179 132
1179 176
1180 1600
1183 1416
1184 185
1184 337
1184 1280
1185 1426
1185 1436
1187 195
1189 127
1190 1445
1190 1455
1190 1600
1192 329
1193 1275
1194 203
1194 213
1195 223
1195 1464
1199 62
1199 72
1199 82
1199 92
1199 102
1199 112
1199 124
1199 317
1199 1595
1200 1473
1202 1270
1203 230
1205 1482
1207 54
1207 309
1209 1595
1211 1265
1212 235
1212 1490
1215 46
1215 1255
1217 244
1217 304
1218 1590
1220 1245
1220 1497
1223 39
1225 296
1225 1506
1227 245
1228 1516
1228 1590
1230 1245
1233 39
1233 289
1235 1235
1235 1524
1236 250
1238 1588
1239 277
1240 1225
1243 39
1244 267
1244 1529
1246 253
1248 1585
1250 1220
1252 44
1254 1529
1258 1213
1258 1583
1259 52
1264 1529
1267 59
1268 1208
1268 1580
1269 12
1269 22
1269 32
1269 42
1274 1529
1275 1200
1277 4
1278 1580
1282 1535
1285 1195
1287 4
1288 1580
1290 1542
1293 1188
1296 9
1298 1580
1299 1547
1300 1180
1305 14
1308 1173
1308 1580
1309 1551
1313 20
1315 1160
1318 1556
1318 1580
1320 28
1320 38
1320 1150
1325 1140
1325 1564
1328 1578
1330 39
1335 1130
1339 32
1343 1123
1344 22
1349 12
1350 1110
1359 7
1359 1105
1367 1099
1369 4
1375 1090
1379 6
1384 1085
1389 9
1393 1080
1395 17
1395 27
1402 35
1402 1074
1405 70
1405 80
1407 44
1410 54
1410 1065
1415 84
1418 1058
1424 1050
1425 87
1430 1040
1432 95
1440 102
1440 1030
1444 112
1449 121
1449 1025
1450 131
1456 139
1457 1019
1460 149
1460 159
1460 169
1467 1014
1468 175
1470 185
1472 195
1475 205
1475 1000
1480 214
1485 285
1485 995
1487 295
1490 217
1492 304
1493 988
1494 280
1497 225
1499 312
1499 980
1504 280
1504 321
1505 232
1507 974
1510 241
1510 329
1512 964
1514 280
1515 338
1516 249
1520 347
1520 357
1522 959
1524 256
1524 277
1525 266
1527 365
1530 945
1532 374
1535 384
1535 445
1535 930
1540 393
1540 403
1540 413
1540 423
1540 433
1540 454
1540 464
1545 473
1545 483
1545 915
1545 925
1550 492
1550 502
1550 512
1555 521
1555 905
1560 530
1560 540
1560 620
1560 630
1560 640
1562 550
1562 650
1563 898
1565 560
1565 570
1565 580
1565 590
1565 600
1565 610
1565 660
1565 670
1565 865
1565 875
1565 885
1567 680
1570 690
1570 700
1570 710
1570 720
1570 845
1570 855
1572 730
1575 740
1575 770
1577 750
1577 780
1580 760
1580 790
1580 800
1580 810
1580 835
1585 819
