24 252
24 262
24 272
24 282
24 292
29 242
29 301
34 117
34 127
34 137
34 310
34 320
34 330
34 340
37 234
39 107
39 146
39 349
41 359
42 224
44 97
44 155
44 369
44 379
44 389
44 399
44 409
44 419
44 429
49 164
49 438
50 448
51 219
52 89
55 172
55 457
59 202
59 212
59 467
62 84
62 180
64 190
64 476
69 547
69 557
69 567
70 76
71 484
74 532
74 576
74 586
74 637
79 490
79 517
79 595
79 605
79 615
79 625
79 646
80 71
84 499
84 655
90 69
93 660
100 69
102 665
110 69
112 665
120 69
122 665
129 74
132 669
139 74
142 670
148 79
152 670
157 84
162 670
165 585
165 595
166 89
170 99
170 575
170 604
172 669
175 200
175 210
175 545
175 555
175 565
175 613
178 105
180 150
180 160
180 170
180 180
180 190
180 219
180 520
180 530
182 115
182 664
183 619
185 125
185 135
185 228
185 505
190 237
190 247
190 480
190 490
192 624
192 660
194 257
195 267
195 290
195 300
195 470
200 276
200 309
200 319
201 655
202 624
205 328
205 465
210 337
210 440
210 450
211 629
211 655
214 347
215 357
218 433
219 636
219 647
220 366
225 375
225 425
227 385
230 395
233 418
235 404
