444 832
444 842
444 852
444 862
444 872
444 882
444 892
444 902
444 912
444 922
449 807
449 817
449 931
449 941
454 792
454 950
459 782
460 958
464 767
468 965
469 757
469 1052
474 747
474 1042
474 1061
477 970
479 737
479 1070
482 1034
487 729
487 970
488 1075
491 1029
492 719
497 974
497 1080
499 707
500 1024
507 699
507 975
507 1080
510 1021
515 691
516 980
517 1084
519 1026
523 684
525 1034
526 980
527 1085
530 676
530 1043
530 1053
536 980
537 1085
538 669
538 1059
546 980
547 664
547 1085
548 1059
555 656
556 983
557 1085
558 1059
563 649
566 985
567 1054
567 1085
570 641
576 985
577 1054
577 1085
578 634
586 985
587 629
587 1054
587 1085
596 985
597 624
597 1054
597 1084
606 985
607 619
607 1054
607 1080
616 985
617 614
617 1054
617 1080
626 985
627 614
627 1054
627 1080
636 609
636 985
636 1075
637 1054
646 609
646 985
646 1049
646 1075
655 1044
655 1070
656 609
656 985
665 604
665 1041
665 1070
666 985
674 1022
674 1032
675 604
675 1070
676 985
679 1012
684 1065
685 604
686 985
689 995
689 1005
694 1065
695 604
704 1065
705 604
714 1062
715 604
724 1060
725 604
734 1060
735 604
744 1057
745 604
754 1055
755 604
764 1055
765 604
774 1055
775 604
783 1050
785 604
789 467
793 1050
794 457
794 476
795 604
803 1050
804 452
804 480
805 604
813 485
813 1050
814 447
815 604
823 485
823 1048
824 442
825 604
833 485
833 1045
834 439
835 604
842 490
843 434
843 1045
844 500
844 510
844 520
844 530
845 604
850 538
853 434
853 1045
855 604
858 545
863 434
863 1045
865 604
868 545
873 434
873 1045
874 553
874 563
874 573
874 583
874 593
883 434
883 1045
893 434
893 1045
903 434
903 1043
905 515
905 525
905 535
910 475
910 485
910 495
910 505
910 544
910 554
913 434
913 1040
915 563
915 573
915 583
920 475
920 592
923 434
923 1040
928 599
929 470
933 435
933 1040
937 464
938 599
940 443
943 1038
945 452
947 594
950 1030
954 582
955 980
955 990
955 1000
955 1010
955 1020
962 574
964 975
972 569
972 969
982 569
982 964
992 569
992 960
1002 569
1002 960
1012 569
1012 960
1022 569
1022 960
1032 569
1032 960
1042 569
1042 960
1052 569
1052 960
1062 569
1062 960
1072 569
1072 960
1079 577
1082 960
1087 584
1090 594
1092 960
1099 599
1102 960
1109 599
1112 960
1119 599
1122 960
1129 599
1130 665
1130 675
1132 960
1135 684
1135 845
1135 855
1135 865
1135 875
1139 599
1140 665
1140 884
1142 959
1145 684
1145 840
1149 599
1149 660
1150 881
1152 955
1155 684
1155 840
1159 599
1159 660
1160 879
1161 950
1164 835
1165 684
1169 599
1169 657
1170 879
1171 950
1174 835
1175 684
1179 601
1179 655
1180 879
1180 945
1183 830
1185 609
1185 684
1188 650
1190 879
1190 940
1192 825
1193 615
1195 684
1197 645
1198 885
1200 930
1201 820
1202 620
1205 635
1205 684
1205 893
1205 903
1205 913
1211 820
1215 684
1220 815
1225 684
1229 810
1235 684
1238 805
1245 684
1247 800
1255 684
1257 799
1265 684
1267 794
1275 684
1277 789
1285 684
1287 784
1295 681
1297 779
1305 679
1305 770
1315 679
1315 765
1325 679
1325 760
1335 679
1335 755
1345 679
1345 750
1355 679
1355 745
1365 679
1365 740
1375 679
1375 740
1384 735
1385 679
1394 674
1394 732
1404 674
1404 730
1413 725
1414 674
1422 720
1423 669
1432 720
1433 669
1441 715
1443 669
1451 715
1452 664
1460 710
1462 664
1470 710
1471 659
1479 705
1481 659
1489 705
1491 659
1498 700
1501 659
1508 700
1511 659
1518 698
1521 659
1528 693
1531 659
1538 688
1539 666
1543 678
