24 357
29 262
29 272
29 282
29 292
29 347
29 366
34 237
34 247
34 301
36 374
37 339
39 227
39 310
44 212
46 344
46 375
48 315
49 197
54 187
54 351
55 380
57 320
58 361
62 179
65 369
65 380
67 320
72 174
75 366
75 380
76 325
77 164
85 156
85 361
85 380
86 325
93 149
95 356
95 380
96 325
100 141
105 351
105 380
106 325
108 134
115 330
115 349
115 375
117 129
124 344
125 330
125 370
127 129
134 344
135 332
135 372
136 124
145 370
146 120
155 370
156 119
164 365
166 119
174 365
176 119
183 360
186 119
193 360
194 57
196 119
202 355
204 52
204 62
206 119
211 360
212 69
214 42
214 82
215 114
219 91
220 355
222 65
224 39
224 75
225 114
229 90
230 355
234 37
234 99
234 109
240 355
244 32
245 60
250 80
250 90
250 355
253 66
254 32
254 55
255 99
260 45
260 355
262 24
265 99
270 40
270 320
270 330
270 340
270 350
272 24
275 96
278 33
280 320
285 94
289 315
295 94
299 315
305 94
309 315
315 94
319 312
325 97
329 310
333 104
339 310
340 112
349 310
350 111
359 307
360 109
369 305
370 109
375 160
379 305
380 109
385 155
385 250
388 115
389 305
390 125
390 135
390 145
390 164
390 259
394 245
399 305
400 164
400 259
404 242
405 268
409 302
410 164
410 277
410 287
414 240
420 164
423 235
430 164
433 235
440 164
443 233
450 164
450 225
460 164
460 225
470 164
470 225
478 218
480 161
488 213
490 161
498 210
500 161
507 205
510 161
516 200
520 159
526 200
530 159
534 192
540 159
544 187
550 159
554 182
560 159
562 175
570 162
