29 427
34 417
37 434
39 302
39 312
39 322
39 332
44 287
44 341
44 419
47 430
49 267
49 277
51 349
54 247
54 257
54 419
57 430
59 232
59 355
64 212
64 222
64 419
67 430
69 202
69 355
74 187
74 419
77 430
78 360
82 179
84 419
87 430
88 360
91 174
94 419
97 365
97 430
99 167
104 417
107 159
107 365
107 430
112 409
115 151
117 365
117 430
122 409
124 142
126 425
127 369
129 379
129 389
129 399
132 134
136 425
142 134
145 420
152 129
154 425
162 129
163 420
172 129
172 415
182 129
182 415
189 52
191 410
192 129
194 61
199 47
201 69
201 134
201 410
209 44
211 70
211 130
211 410
219 44
220 75
221 129
221 408
224 97
229 42
229 106
230 75
231 129
231 410
234 92
239 41
239 105
240 405
241 129
244 114
249 37
250 400
255 70
257 29
257 80
260 400
265 65
265 90
266 34
268 393
270 99
270 109
270 375
275 39
275 50
275 60
279 114
280 375
288 119
290 375
298 119
300 375
308 119
309 370
318 120
319 370
328 124
329 370
338 124
339 367
348 124
349 367
358 125
359 365
365 180
368 129
368 360
373 186
374 175
378 129
378 360
380 194
384 177
387 355
388 130
390 194
392 140
394 172
397 149
397 355
400 160
400 194
407 355
410 194
415 285
415 295
417 355
420 194
425 285
425 296
427 354
430 194
433 278
435 297
435 307
437 354
440 194
442 315
443 273
445 345
450 194
450 265
450 322
450 332
460 194
460 255
470 194
470 255
478 248
480 194
485 240
490 194
494 235
500 194
503 230
509 189
513 230
518 184
523 228
528 184
530 220
538 184
540 215
548 184
550 215
558 185
560 210
565 193
