509 867
509 877
509 887
514 842
514 852
514 896
519 822
519 832
521 904
524 807
529 792
531 908
534 767
534 777
539 757
541 910
544 737
544 747
549 727
549 916
554 712
556 924
559 702
566 928
567 694
575 686
575 933
583 679
585 935
589 667
595 935
597 659
604 940
605 651
613 644
614 940
620 636
624 940
628 629
629 1052
634 940
635 621
639 1042
639 1055
643 614
644 940
647 1034
649 1052
652 609
654 940
657 1029
659 1050
660 601
664 940
666 1024
668 594
669 1050
674 940
675 1019
677 589
678 1045
684 940
685 1016
686 584
688 1045
689 949
689 959
689 969
689 979
689 989
689 999
695 579
697 1040
705 576
706 1035
715 574
716 1035
725 571
725 1030
735 569
735 1030
745 569
745 1030
755 569
755 1030
765 566
765 1025
775 564
775 1025
785 564
785 1025
795 564
795 1025
805 564
805 1025
809 442
814 451
815 564
815 1025
817 434
824 455
825 564
825 1025
826 429
833 460
835 424
835 564
835 1025
842 465
845 424
845 564
845 1025
852 465
855 424
855 564
855 1025
862 465
864 559
865 424
865 1025
869 473
869 483
869 493
874 502
874 557
875 424
875 1025
880 510
884 552
884 1020
885 424
890 510
894 547
894 1020
895 424
899 515
899 525
899 535
904 1017
905 424
914 1015
915 424
924 1015
925 424
930 445
930 455
930 465
930 475
933 1010
935 424
935 484
935 494
935 504
935 514
935 524
935 534
939 440
942 1004
943 430
944 539
950 960
950 970
950 980
950 990
954 539
958 953
964 539
968 950
974 537
978 950
984 532
988 950
994 527
997 945
1004 524
1007 945
1014 524
1017 944
1024 524
1027 939
1034 526
1037 935
1043 531
1047 935
1048 540
1050 550
1050 560
1057 935
1060 564
1066 930
1070 564
1076 930
1079 569
1086 930
1089 569
1095 925
1099 569
1100 645
1102 655
1105 925
1109 569
1110 640
1110 662
1115 925
1117 670
1119 569
1120 640
1122 679
1125 925
1129 569
1129 635
1131 684
1135 925
1139 569
1139 632
1141 684
1145 925
1149 569
1149 627
1151 684
1155 925
1159 569
1159 622
1161 684
1165 610
1165 925
1167 575
1170 585
1170 595
1171 684
1175 810
1175 820
1175 830
1175 840
1175 925
1181 684
1184 805
1185 844
1185 925
1191 684
1193 800
1195 844
1195 925
1201 684
1203 798
1204 839
1205 925
1211 684
1213 795
1214 836
1215 920
1220 844
1221 684
1223 795
1225 853
1225 863
1225 873
1225 883
1225 893
1225 920
1231 684
1232 790
1233 900
1233 913
1241 684
1242 790
1251 680
1252 789
1261 679
1262 785
1271 679
1272 785
1281 675
1282 784
1291 674
1292 779
1301 674
1302 775
1311 674
1312 774
1320 669
1322 769
1330 669
1330 760
1340 669
1340 755
1350 666
1350 750
1359 745
1360 664
1367 739
1370 664
1377 734
1380 664
1387 729
1390 661
1395 720
1400 659
1405 715
1410 659
1415 715
1420 659
1424 710
1429 654
1434 707
1439 654
1444 705
1449 654
1454 705
1459 654
1463 700
1469 654
1473 700
1479 654
1483 698
1489 654
1493 695
1499 654
1503 693
1509 654
1513 688
1517 660
1520 680
1525 667
