14 152
19 177
19 192
19 202
22 144
22 159
24 211
27 134
29 220
34 229
36 129
42 235
45 124
52 239
54 107
54 117
60 245
64 104
69 240
74 104
79 242
84 97
89 237
92 89
97 79
97 229
106 234
107 79
114 240
117 79
120 248
127 79
128 255
137 79
138 255
147 79
147 260
157 79
157 259
165 250
167 79
175 245
177 79
184 240
187 79
190 230
194 42
195 215
197 79
202 34
204 45
204 210
207 79
212 34
213 205
214 45
217 79
219 57
221 29
222 200
224 66
231 29
231 205
241 29
241 205
250 24
251 205
260 24
261 205
270 24
271 205
279 19
281 205
289 19
291 205
299 19
301 208
309 19
311 205
319 19
321 205
329 19
331 205
339 19
341 205
349 17
350 200
359 17
359 205
362 215
369 17
370 222
379 17
380 225
389 17
390 225
399 17
399 230
408 225
409 17
417 220
419 17
425 210
429 17
434 205
439 17
444 205
449 17
453 210
457 220
459 17
462 229
469 17
471 234
479 17
479 240
489 19
489 240
499 19
499 240
508 235
509 19
517 229
519 19
525 220
529 19
530 205
539 21
539 200
545 29
545 39
545 49
545 60
545 70
545 80
545 90
545 100
545 110
545 120
545 140
545 150
549 197
550 129
550 159
555 168
555 178
555 188
