14 147
19 156
22 139
29 160
30 131
31 144
34 169
35 121
36 179
41 188
43 114
49 195
52 109
58 200
59 92
67 84
68 200
76 89
77 205
84 82
86 200
92 74
96 200
97 64
104 192
107 64
112 185
117 64
120 192
124 202
127 64
134 205
137 64
143 210
146 69
153 210
155 64
163 210
165 64
173 208
175 64
183 203
185 64
190 195
195 64
198 188
204 180
205 64
214 180
215 64
221 55
224 37
224 180
232 29
234 180
242 29
244 180
252 24
254 180
262 24
264 180
272 24
274 180
282 24
284 180
291 19
293 175
301 19
302 180
311 19
312 179
321 19
322 179
331 19
332 179
341 19
342 179
344 189
351 15
352 195
361 15
361 200
371 15
371 200
381 15
381 200
391 15
391 200
400 195
401 15
408 188
411 15
414 180
421 19
423 185
427 195
431 19
435 202
441 19
444 207
450 24
454 210
460 24
464 210
470 27
474 210
479 32
482 204
487 39
490 49
490 195
495 58
495 70
495 80
498 188
500 175
505 81
509 170
515 84
519 170
525 82
529 92
529 170
530 102
530 112
537 120
538 175
540 130
540 140
540 150
547 170
550 152
555 161
