4 937
4 947
4 967
4 977
4 987
9 922
9 956
9 996
14 912
16 1004
19 902
19 1187
19 1197
19 1207
19 1222
19 1232
24 877
24 887
24 1167
24 1177
24 1241
24 1251
24 1261
24 1271
24 1281
26 1005
29 1132
29 1142
29 1152
29 1290
29 1300
32 869
34 1112
34 1122
34 1309
34 1319
36 1005
39 1092
39 1102
39 1328
39 1338
40 861
40 1348
44 1082
45 1000
48 1355
49 847
49 1072
49 1365
54 1062
54 1374
55 1000
57 839
59 1042
59 1052
59 1383
60 1393
62 829
65 995
65 1402
67 1034
70 821
72 1024
72 1410
74 990
77 1014
77 1419
78 814
82 984
84 1427
85 1006
87 809
90 996
92 980
92 1434
95 801
96 1444
100 970
104 1450
105 796
109 965
109 1459
113 789
115 1467
122 1475
123 789
127 779
130 1482
137 774
137 1490
147 774
147 1494
155 1500
157 769
165 1502
166 764
174 1507
176 760
182 1514
184 754
191 1519
194 754
199 1525
203 749
208 1530
212 744
212 1540
222 739
222 1544
232 739
232 1545
242 734
242 1545
244 687
244 697
244 707
244 717
249 667
249 677
251 1550
254 652
259 637
259 1556
267 629
269 617
269 1560
277 609
279 1560
282 599
289 1560
292 594
299 1560
302 594
309 1560
311 589
318 1565
321 589
328 1565
330 594
338 1563
340 594
348 1560
350 597
358 1560
360 599
368 1560
370 599
378 1560
380 599
387 1555
390 599
397 1555
399 604
406 1550
409 604
416 1550
418 609
426 1550
427 614
434 622
435 1545
440 630
444 1540
445 639
449 602
449 612
450 626
454 567
454 577
454 587
454 1540
462 559
463 1535
469 547
472 1530
474 537
481 1525
484 522
484 532
490 1520
494 512
500 1515
502 504
510 496
510 1510
518 1503
520 491
525 1495
528 484
535 1490
537 479
543 1483
545 471
549 432
549 442
549 452
550 1475
554 461
557 424
559 1470
565 1460
567 424
575 1450
577 419
584 1445
587 414
593 1450
594 1460
597 414
599 1469
604 1478
606 419
609 1487
614 1496
616 419
619 1505
624 1514
626 419
629 1523
634 1532
636 419
640 429
640 450
642 1539
645 438
645 459
649 1547
654 1556
655 459
664 1560
665 456
667 1570
675 454
675 1577
682 1585
685 454
690 1592
695 454
699 1597
705 454
709 1600
715 454
718 1605
725 454
727 1610
735 451
736 1615
745 449
745 1620
754 1625
755 449
763 1630
765 449
773 1630
775 449
780 1638
785 449
788 1645
795 449
797 1650
805 449
807 1650
815 449
817 1654
825 449
827 1655
835 449
837 1655
845 449
846 1660
855 449
856 1660
865 449
866 1660
875 449
876 1660
885 449
886 1660
895 449
896 1660
905 449
906 1660
915 449
916 1660
925 449
926 1660
935 449
935 1655
945 449
945 1655
955 449
955 1650
965 449
965 1650
975 449
975 1650
985 449
985 1650
993 1643
995 449
1003 1638
1005 449
1010 1630
1015 449
1020 1630
1025 452
1028 1623
1035 449
1038 1618
1045 449
1048 1613
1055 449
1058 1610
1065 449
1067 1604
1075 449
1077 1599
1085 449
1085 1590
1095 449
1095 1585
1104 1580
1105 449
1112 1574
1115 449
1120 1565
1125 449
1130 1555
1135 449
1138 1548
1145 449
1145 1540
1153 1533
1155 449
1159 1525
1165 449
1167 1519
1172 1509
1175 449
1180 1495
1185 449
1190 1485
1195 449
1195 1475
1200 1465
1205 449
1208 1458
1213 1448
1214 172
1214 182
1214 192
1215 449
1215 1430
1222 164
1222 199
1223 1423
1225 449
1225 1410
1230 1400
1231 159
1232 200
1235 449
1235 1390
1239 152
1242 200
1243 1383
1245 449
1245 1360
1245 1370
1249 147
1250 1335
1250 1345
1252 200
1255 446
1259 142
1259 1330
1262 200
1265 444
1268 1325
1269 139
1272 200
1275 444
1278 1325
1279 137
1282 200
1284 449
1288 1325
1289 134
1292 200
1293 444
1298 129
1298 1325
1302 200
1303 444
1308 129
1308 1325
1312 200
1313 444
1317 124
1318 1325
1319 412
1319 422
1319 432
1322 200
1323 444
1327 119
1327 1320
1329 409
1329 435
1332 200
1334 444
1337 119
1337 1320
1339 409
1339 435
1342 200
1344 444
1347 119
1347 1319
1349 409
1352 200
1356 114
1357 415
1357 1315
1360 1265
1362 200
1365 422
1365 432
1365 442
1365 1274
1365 1305
1366 114
1370 1283
1370 1293
1372 204
1375 109
1375 444
1375 1272
1381 209
1385 106
1385 444
1385 1275
1389 215
1394 224
1394 287
1394 297
1395 104
1395 444
1395 1277
1399 233
1399 243
1399 253
1399 263
1399 273
1399 306
1399 317
1399 327
1399 337
1399 347
1399 357
1399 367
1399 377
1399 387
1399 397
1399 407
1399 417
1399 427
1405 101
1405 1280
1414 1285
1415 99
1424 1285
1425 96
1433 1290
1435 94
1443 1290
1445 94
1450 1298
1454 89
1460 1300
1464 89
1470 1300
1473 84
1480 1300
1483 84
1490 1300
1493 84
1499 1305
1502 79
1509 1305
1512 79
1519 1305
1522 74
1529 1305
1532 74
1539 1305
1542 74
1549 1305
1551 69
1558 1310
1561 69
1568 1310
1571 69
1578 1310
1580 64
1588 1310
1590 64
1598 1310
1600 64
1608 1310
1610 64
1618 1310
1619 59
1628 1310
1629 59
1638 54
1638 1310
1648 54
1648 1310
1658 54
1658 1310
1668 54
1668 1310
1677 49
1678 1310
1687 49
1688 1310
1697 49
1698 1310
1707 49
1707 1315
1717 49
1717 1315
1727 49
1727 1315
1737 44
1737 1315
1747 44
1747 1315
1756 1310
1757 44
1766 1310
1767 44
1776 1310
1777 44
1786 39
1786 1310
1796 39
1796 1310
1806 39
1806 1310
1816 39
1816 1310
1825 1305
1826 35
1835 1305
1836 34
1845 1305
1846 34
1855 1305
1856 34
1865 1305
1866 34
1875 1305
1876 34
1885 29
1885 1305
1895 29
1895 1305
1905 29
1905 1305
1915 29
1915 1305
1925 29
1925 1305
1935 29
1935 1305
1945 26
1945 1305
1951 1313
1955 24
1961 1315
1965 24
1971 1315
1975 24
1975 1300
1985 24
1985 1300
1994 19
1995 1300
2004 19
2005 1300
2014 19
2015 1300
2024 21
2025 1300
2034 22
2035 1300
2044 19
2045 1300
2054 19
2055 1300
2064 19
2065 1300
2074 19
2075 1300
2084 19
2085 1300
2094 19
2095 1300
2104 19
2105 1300
2114 19
2115 1300
2123 14
2124 1295
2133 14
2134 1295
2143 14
2144 1295
2153 14
2154 1295
2163 14
2164 1295
2173 14
2174 1295
2183 14
2184 1295
2193 14
2194 1295
2203 14
2204 1295
2213 14
2213 1290
2222 1295
2223 14
2232 1295
2233 14
2242 1295
2243 14
2251 1290
2252 9
2261 1290
2262 9
2271 1290
2272 9
2281 1290
2282 9
2291 1290
2292 9
2301 1290
2302 9
2309 1296
2312 9
2314 1305
2322 9
2324 1305
2332 9
2334 1305
2334 1315
2340 1323
2342 9
2348 1330
2352 9
2352 1340
2360 1347
2362 9
2367 1355
2372 9
2372 1364
2379 1372
2379 1382
2382 9
2389 1385
2392 9
2395 1393
2402 9
2405 1395
2411 1403
2412 9
2419 1409
2422 9
2427 1415
2432 9
2436 1420
2442 9
2444 1426
2452 9
2454 1430
2462 9
2463 1435
2472 9
2472 1440
2481 1445
2482 9
2491 1445
2492 9
2501 1448
2502 9
2510 1453
2512 9
2520 1455
2522 9
2530 1455
2532 4
2540 1455
2542 4
2549 1460
2552 4
2559 1460
2562 4
2569 1460
2572 4
2579 1460
2582 4
2589 1460
2592 4
2599 1460
2602 4
2609 1460
2612 4
2619 1460
2622 4
2629 1457
2632 4
2639 1455
2642 4
2649 1455
2652 4
2659 1452
2662 4
2669 1450
2672 4
2678 1445
2682 4
2688 1443
2692 4
2698 1440
2702 4
2707 1434
2712 4
2717 1429
2722 4
2725 1420
2732 4
2734 1415
2742 4
2742 1409
2752 4
2752 1404
2760 1395
2762 4
2769 1390
2772 4
2775 1380
2782 4
2785 1375
2790 1365
2792 4
2798 1358
2802 4
2805 1350
2810 1335
2811 9
2815 1325
2821 9
2823 1318
2828 1308
2830 4
2833 1298
2835 1285
2840 4
2844 1290
2850 4
2853 1295
2860 4
2863 1295
2869 9
2873 1295
2879 9
2882 1300
2889 9
2892 1300
2899 9
2901 1295
2909 9
2911 1295
2919 9
2921 1295
2929 9
2931 1295
2939 9
2941 1295
2949 9
2951 1295
2959 7
2961 1295
2964 1305
2967 1315
2969 4
2972 1324
2974 1334
2979 4
2979 1343
2980 1353
2985 1362
2989 6
2989 1372
2994 1381
2999 9
2999 1390
3004 1399
3009 9
3009 1408
3014 1417
3019 9
3019 1426
3024 1435
3029 9
3030 1443
3038 1450
3039 9
3045 1458
3049 9
3050 1467
3057 1475
3059 9
3067 1479
3069 9
3074 1487
3079 9
3084 1490
3089 9
3093 1495
3097 1505
3099 9
3107 1505
3109 9
3112 1514
3119 9
3122 1515
3124 1525
3129 9
3133 1530
3139 9
3143 1530
3149 9
3153 1530
3159 9
3162 1535
3168 14
3172 1535
3177 9
3182 1539
3187 9
3192 1540
3196 14
3201 1545
3206 14
3211 1545
3216 14
3221 1545
3226 14
3231 1545
3236 14
3241 1545
3246 14
3251 1545
3256 14
3261 1545
3266 14
3271 1545
3276 14
3281 1545
3286 14
3291 1545
3296 14
3301 1545
3306 14
3310 1540
3315 19
3320 1540
3325 19
3329 1535
3335 19
3339 1532
3345 19
3349 1530
3355 19
3357 1524
3365 19
3367 1520
3375 19
3376 1515
3385 19
3385 1510
3393 1503
3394 24
3403 1500
3404 22
3410 1490
3414 19
3419 1485
3424 19
3427 1479
3434 21
3435 1470
3444 24
3445 1465
3453 1458
3454 24
3458 1448
3464 24
3465 1440
3473 1433
3474 24
3480 1420
3484 24
3485 1410
3490 1400
3494 24
3498 1393
3500 1380
3504 26
3508 1373
3513 1363
3514 29
3520 1335
3520 1345
3520 1355
3524 29
3528 1328
3533 1318
3534 29
3535 1285
3535 1295
3535 1305
3543 1278
3544 31
3545 1265
3554 34
3555 1265
3563 39
3564 1260
3573 40
3574 1260
3580 48
3583 1255
3590 52
3593 1255
3597 60
3603 1255
3605 625
3605 635
3605 645
3607 64
3610 74
3610 84
3610 290
3610 335
3610 375
3610 385
3610 430
3610 440
3610 450
3610 460
3610 470
3610 480
3610 510
3610 520
3610 530
3610 540
3610 550
3610 560
3610 570
3610 580
3610 590
3610 600
3610 610
3610 654
3610 664
3612 345
3612 490
3613 1255
3615 93
3615 255
3615 265
3615 275
3615 299
3615 309
3615 319
3615 355
3615 365
3615 394
3615 404
3615 414
3615 500
3615 673
3615 683
3620 102
3620 112
3620 122
3620 210
3620 220
3620 230
3620 240
3620 692
3620 702
3623 1255
3624 712
3625 131
3625 141
3625 151
3625 161
3625 171
3625 195
3625 722
3625 732
3630 180
3630 741
3630 751
3633 761
3633 1255
3635 790
3635 800
3635 810
3635 820
3635 830
3635 840
3635 850
3635 860
3635 870
3635 880
3635 890
3635 900
3635 910
3635 920
3635 930
3635 940
3638 770
3640 780
3640 949
3642 1250
3645 958
3650 967
3650 977
3650 987
3652 1250
3655 996
3655 1006
3655 1016
3658 1026
3660 1036
3661 1245
3663 1046
3665 1056
3670 1065
3670 1240
3675 1074
3675 1084
3680 1093
3680 1103
3680 1113
3680 1123
3680 1133
3680 1143
3680 1153
3680 1163
3680 1173
3680 1235
3685 1182
3685 1192
3690 1201
3690 1211
3690 1230
3695 1220
