259 952
259 962
259 972
264 892
264 902
264 912
264 922
264 932
264 942
264 981
264 991
269 857
269 867
269 877
271 999
274 847
279 827
279 837
279 1005
284 797
284 807
284 817
288 1010
289 787
297 779
297 1015
304 767
307 1015
309 757
317 749
317 1015
325 741
327 1015
335 736
337 1015
345 731
347 1014
354 1022
354 1032
355 732
359 1041
364 1050
365 734
367 1060
372 1069
374 739
379 1077
383 744
384 1086
389 1095
390 752
395 1103
397 760
402 769
403 1110
411 774
412 1115
420 1122
421 774
429 1127
431 775
437 1134
441 770
446 1139
451 765
456 1140
461 760
465 1145
469 754
475 1145
478 749
485 741
485 1147
495 736
495 1150
505 731
505 1150
515 726
515 1145
525 721
525 1145
535 716
535 1145
544 1140
545 711
554 1137
555 706
564 1135
565 701
572 1129
575 696
582 1124
585 694
590 1115
594 689
600 1105
603 684
610 1100
612 679
615 1090
621 674
623 1083
629 547
629 557
629 567
629 577
629 587
629 597
629 607
629 617
629 627
629 637
630 1070
631 670
634 512
634 522
634 532
634 646
634 656
635 1055
642 504
644 1050
647 494
650 1058
655 486
658 1065
663 479
667 1070
670 471
676 1075
680 466
686 1075
690 464
695 1080
700 461
705 1080
710 459
714 1085
720 459
724 1085
729 454
734 1085
739 454
744 1085
749 452
754 1085
759 449
764 1085
769 449
774 1085
779 449
784 1085
789 449
794 1082
799 449
804 1077
809 449
814 1075
818 444
823 1070
828 444
832 1064
838 444
840 1055
848 444
850 1050
858 444
858 1043
868 444
868 1040
878 444
878 1040
888 444
888 1040
898 444
898 1040
908 444
908 1040
917 439
918 1040
927 439
928 1040
937 439
938 1040
947 439
948 1040
957 439
958 1040
967 439
968 1040
977 439
978 1040
987 439
988 1040
997 439
998 1040
1007 439
1008 1040
1017 439
1018 1040
1027 439
1028 1040
1037 439
1038 1040
1047 439
1048 1040
1057 439
1058 1040
1067 439
1068 1040
1077 439
1078 1040
1087 439
1088 1040
1097 439
1098 1040
1107 439
1108 1038
1117 439
1118 1035
1127 439
1128 1035
1137 439
1138 1035
1147 439
1148 1035
1157 439
1158 1035
1167 439
1168 1035
1177 439
1178 1035
1187 439
1188 1035
1197 439
1198 1035
1207 439
1208 1035
1217 439
1218 1035
1227 439
1228 1035
1237 439
1238 1035
1247 439
1248 1035
1257 439
1258 1035
1267 439
1268 1035
1277 439
1278 1035
1287 439
1288 1035
1297 439
1298 1035
1307 439
1308 1035
1317 439
1318 1035
1327 439
1328 1035
1337 439
1338 1035
1347 439
1348 1035
1357 439
1358 1035
1367 439
1368 1035
1377 439
1378 1035
1387 439
1388 1035
1397 439
1398 1035
1407 439
1408 1035
1416 444
1417 1040
1426 444
1427 1040
1435 449
1435 460
1435 470
1435 480
1435 490
1435 500
1435 510
1435 520
1435 530
1435 540
1435 550
1435 560
1435 570
1435 580
1435 590
1435 600
1437 610
1437 1040
1440 620
1440 630
1440 640
1445 449
1445 460
1447 1040
1450 644
1455 457
1457 1040
1460 644
1467 1040
1470 641
1477 1040
1480 639
1487 1040
1490 639
1497 1040
1500 639
1507 1040
1510 639
1517 1040
1520 639
1527 1040
1530 639
1537 1039
1540 639
1547 1035
1550 639
1557 1035
1560 639
1567 1035
1570 639
1577 1035
1580 639
1587 1035
1590 639
1597 1035
1600 639
1607 1035
1610 639
1617 1035
1619 644
1627 1035
1629 644
1634 1043
1639 644
1639 1052
1639 1062
1644 1071
1649 644
1649 1080
1654 1089
1659 644
1660 1097
1667 1105
1669 644
1675 1112
1679 644
1679 1122
1689 644
1689 1125
1695 1133
1699 644
1705 1137
1709 644
1712 1145
1719 644
1722 1149
1729 644
1731 1154
1739 644
1741 1155
1749 644
1750 1160
1759 644
1760 1160
1769 644
1770 1160
1779 644
1779 1165
1789 644
1789 1162
1799 644
1799 1160
1808 639
1809 1160
1817 634
1819 1160
1826 629
1829 1160
1836 629
1838 1155
1846 629
1847 1150
1855 634
1857 1149
1865 637
1867 1144
1872 645
1875 1135
1880 652
1885 1130
1888 659
1893 1123
1897 664
1900 1115
1904 672
1910 680
1910 1110
1918 686
1920 1110
1925 694
1930 1110
1933 700
1940 708
1940 1105
1948 715
1950 1105
1958 719
1960 1105
1967 724
1969 1100
1976 729
1978 1095
1985 734
1988 1095
1993 740
1998 1093
2000 748
2005 757
2008 1088
2010 766
2010 776
2016 784
2018 1085
2025 789
2027 1080
2035 792
2035 1070
2042 800
2045 1065
2050 807
2053 1058
2060 809
2060 1050
2068 1043
2070 812
2075 1030
2077 820
2080 1020
2082 829
2085 839
2089 1015
2090 848
2095 857
2095 867
2095 877
2095 887
2095 897
2095 907
2099 1015
2103 914
2109 1015
2113 914
2119 1015
2123 915
2128 1010
2132 920
2137 1004
2140 927
2145 995
2147 935
2150 985
2152 944
2155 954
2155 964
2155 974
