204 262
204 272
204 282
204 292
204 302
204 312
204 322
204 332
209 237
209 247
209 341
209 351
209 361
209 371
209 381
209 391
209 401
209 411
209 421
209 431
209 441
209 451
214 222
214 460
214 470
214 480
214 490
214 500
219 509
219 519
221 529
224 217
224 539
226 549
231 558
232 209
234 568
234 578
235 588
240 597
242 204
244 607
244 652
244 662
249 616
249 626
249 636
250 670
251 209
255 240
255 250
255 260
255 270
255 280
255 290
259 216
260 226
260 299
260 309
260 319
260 329
260 339
260 349
260 670
265 358
270 670
271 350
274 252
274 262
274 272
274 282
274 292
274 302
274 312
274 322
274 332
279 152
279 162
279 172
279 182
279 192
279 202
279 212
279 222
279 232
279 242
280 670
284 142
290 670
292 134
300 126
300 670
308 119
310 670
315 111
320 120
320 670
325 195
325 205
325 215
325 225
325 235
325 245
325 255
325 265
325 275
325 285
328 126
330 160
330 170
330 180
330 294
330 670
333 135
335 145
335 303
340 670
341 295
344 197
344 207
344 217
344 227
344 237
344 247
344 257
344 267
344 277
349 167
349 177
349 187
350 670
354 92
354 102
354 112
354 122
354 132
354 142
354 152
360 670
362 84
370 76
370 670
378 69
380 670
387 64
390 74
390 670
398 80
400 210
400 220
400 230
400 240
400 250
400 260
400 270
400 280
400 670
402 290
405 88
405 98
405 108
405 118
405 128
405 138
405 148
405 158
405 168
405 178
405 188
405 198
405 300
405 310
410 670
414 237
414 247
414 257
415 296
419 127
419 137
419 147
419 157
419 167
419 177
419 217
419 227
419 266
419 276
419 286
420 670
424 117
424 186
424 196
424 206
429 107
430 670
437 99
440 670
446 104
450 114
450 660
458 120
460 655
465 128
468 648
470 137
470 147
470 157
470 167
473 638
475 176
475 186
475 196
475 206
475 216
475 226
475 236
475 246
475 256
475 266
475 276
475 286
475 296
475 306
475 316
475 326
475 336
480 345
482 355
483 633
485 365
487 375
490 385
490 395
490 625
495 404
495 414
495 424
495 434
495 444
495 615
500 605
504 439
505 595
509 427
513 588
514 352
514 362
514 372
514 382
514 392
514 402
514 412
515 575
519 327
519 337
520 565
524 317
525 555
532 309
533 548
537 299
538 538
545 530
546 294
550 520
555 490
555 500
555 510
556 294
560 304
560 465
560 475
565 313
565 445
565 455
570 322
570 332
570 425
570 435
574 342
575 352
575 362
575 372
575 410
579 382
580 392
