369 1167
369 1177
369 1187
369 1197
369 1207
369 1217
369 1227
369 1237
369 1247
369 1257
369 1267
369 1277
369 1287
369 1297
369 1307
369 1317
369 1327
369 1337
369 1347
369 1357
369 1367
369 1377
369 1387
369 1397
369 1407
369 1417
369 1427
379 1164
379 1430
389 1164
389 1430
399 1164
399 1430
409 1164
409 1430
419 1164
419 1430
429 1164
429 1430
439 1164
439 1430
449 1164
449 1430
459 1164
459 1430
469 1164
469 1430
479 1164
479 1430
489 1164
489 1430
499 1164
499 1430
509 1164
509 1430
519 1164
519 1430
529 1164
529 1430
539 1164
539 1430
549 1164
549 1430
559 1164
559 1430
569 1164
569 1430
579 657
579 1164
579 1430
579 1952
587 649
587 664
587 1944
587 1959
589 1164
589 1430
594 672
594 1967
595 641
595 1936
599 1164
599 1430
602 679
602 1974
603 634
603 1929
609 687
609 1164
609 1430
609 1982
610 626
610 1921
617 694
617 1989
618 619
618 1914
619 1164
619 1430
624 702
624 1997
625 611
625 1906
629 1164
629 1430
632 709
632 2004
633 604
633 1899
639 717
639 1164
639 1430
639 2012
640 596
640 1891
647 724
647 2019
648 589
648 1884
649 1164
649 1430
654 732
654 2027
655 581
655 1876
659 1164
659 1430
662 739
662 2034
663 574
663 1869
669 747
669 1164
669 1430
669 2042
670 566
670 1861
677 754
677 2049
678 559
678 1854
679 1164
679 1430
684 762
684 2057
685 551
685 1846
689 1164
689 1430
690 1836
692 769
692 2064
693 544
698 1829
699 777
699 1164
699 1430
699 2072
700 536
705 785
705 1821
707 2079
708 529
709 1164
709 1430
711 793
713 1814
714 2087
715 521
719 799
719 1164
719 1430
720 1806
722 2094
723 514
727 805
728 1799
729 1164
729 1430
729 2102
730 506
732 814
735 1791
737 2109
738 499
739 822
739 1164
739 1430
743 1784
744 2117
745 491
749 825
749 1164
749 1430
750 1776
752 835
752 2124
753 484
758 1769
759 1164
759 1430
759 2132
760 476
760 842
765 1761
768 470
769 847
769 1164
769 1430
769 2135
773 1754
775 478
775 855
775 2125
779 1164
779 1430
780 1746
781 863
783 485
785 2115
788 1739
789 870
789 1164
789 1430
790 493
795 878
795 1731
795 2105
798 500
799 1164
799 1430
803 509
803 885
803 1724
805 2095
809 1164
809 1430
810 517
810 893
810 1716
813 2088
818 900
818 1709
819 522
819 1164
819 1430
820 2080
825 908
825 1701
827 529
828 2073
829 1164
829 1430
830 539
833 915
833 1694
835 2065
839 1164
839 1430
840 542
840 923
840 1686
843 2058
847 550
848 930
848 1679
849 1164
849 1430
850 2050
852 559
855 938
855 1671
858 2043
859 1164
859 1430
860 565
863 945
863 1664
865 574
865 2035
869 1164
869 1430
870 953
870 1656
873 580
873 2028
878 960
878 1649
879 1164
879 1430
880 588
880 2020
885 968
885 1641
888 595
888 2013
889 1164
889 1430
893 975
893 1634
895 603
895 2005
899 1164
899 1430
900 983
900 1626
903 610
903 1998
908 990
908 1619
909 1164
909 1430
910 618
910 1990
915 998
915 1611
918 625
918 1983
919 1164
919 1430
923 1005
923 1604
925 633
925 1975
929 1164
929 1430
930 1013
930 1596
933 640
933 1968
938 1020
938 1589
939 1164
939 1430
940 648
940 1960
945 1028
945 1581
948 655
948 1953
949 1164
949 1430
953 1035
953 1574
955 663
955 1945
959 1164
959 1430
960 1043
960 1566
963 670
963 1938
968 1050
968 1559
969 1164
969 1430
970 678
970 1930
972 1549
975 1058
978 685
978 1923
979 1164
979 1430
980 1541
983 1065
985 693
985 1915
988 1534
989 1164
989 1430
990 1073
993 700
993 1908
995 1526
998 1080
999 1164
999 1430
1000 708
1000 1900
1003 1519
1005 1088
1008 715
1008 1893
1009 1164
1009 1430
1010 1511
1013 1095
1015 723
1015 1885
1018 1504
1019 1103
1019 1164
1019 1430
1023 730
1023 1878
1025 1496
1027 1110
1029 1164
1029 1430
1030 738
1030 1870
1032 1119
1033 1489
1038 745
1038 1863
1039 1127
1039 1164
1039 1430
1040 1481
1045 753
1045 1855
1048 1474
1049 1130
1049 1164
1049 1430
1050 1845
1052 1140
1053 760
1055 1466
1058 769
1059 1164
1059 1430
1060 1147
1060 1835
1063 1459
1065 777
1069 1152
1069 1164
1069 1430
1070 1451
1070 1825
1074 782
1078 1444
1079 1160
1079 1430
1080 1815
1082 789
1085 799
1089 1430
1090 1805
1095 802
1100 1795
1102 810
1107 819
1110 1785
1115 825
1120 834
1120 1775
1128 840
1128 1768
1135 848
1135 1760
1143 855
1143 1753
1150 863
1150 1745
1158 870
1158 1738
1165 878
1165 1730
1173 885
1173 1723
1180 893
1180 1715
1188 900
1188 1708
1195 908
1195 1700
1203 915
1203 1693
1210 923
1210 1685
1218 930
1218 1678
1225 938
1225 1670
1233 945
1233 1663
1240 953
1240 1655
1248 960
1248 1648
1255 968
1255 1640
1263 975
1263 1633
1269 252
1269 262
1269 272
1269 282
1269 292
1269 302
1269 312
1269 322
1269 332
1269 342
1269 352
1269 362
1269 372
1269 382
1269 392
1269 402
1269 412
1269 422
1269 432
1269 442
1269 452
1269 462
1269 472
1269 482
1269 492
1269 502
1269 512
1269 522
1269 532
1269 542
1269 552
1269 562
1269 572
1269 582
1269 592
1269 602
1269 612
1269 622
1269 632
1269 642
1269 652
1269 662
1269 672
1269 682
1269 692
1269 702
1269 712
1269 722
1269 732
1269 742
1269 752
1269 762
1269 772
1269 782
1269 792
1269 802
1269 812
1269 822
1269 832
1269 842
1269 852
1269 862
1269 872
1269 882
1269 892
1269 902
1269 912
1269 922
1269 932
1269 942
1269 952
1269 962
1269 1641
1269 1651
1269 1661
1269 1671
1269 1681
1269 1691
1269 1701
1269 1711
1269 1721
1269 1731
1269 1741
1269 1751
1269 1761
1269 1771
1269 1781
1269 1791
1269 1801
1269 1811
1269 1821
1269 1831
1269 1841
1269 1851
1269 1861
1269 1871
1269 1881
1269 1891
1269 1901
1269 1911
1269 1921
1269 1931
1269 1941
1269 1951
1269 1961
1269 1971
1269 1981
1269 1991
1269 2001
1269 2011
1269 2021
1269 2031
1269 2041
1269 2051
1269 2061
1269 2071
1269 2081
1269 2091
1269 2101
1269 2111
1269 2121
1269 2131
1269 2141
1269 2151
1269 2161
1269 2171
1269 2181
1269 2191
1269 2201
1269 2211
1269 2221
1269 2231
1269 2241
1269 2251
1269 2261
1269 2271
1269 2281
1269 2291
1269 2301
1269 2311
1269 2321
1269 2331
1269 2341
1279 249
1279 2345
1289 249
1289 2345
1299 249
1299 2345
1309 249
1309 2345
1319 249
1319 2345
1329 249
1329 2345
1339 249
1339 2345
1349 249
1349 2345
1359 249
1359 2345
1369 249
1369 2345
1379 249
1379 2345
1389 249
1389 2345
1399 249
1399 2345
1409 249
1409 2345
1419 249
1419 2345
1429 249
1429 2345
1439 249
1439 2345
1449 249
1449 2345
1459 249
1459 2345
1469 249
1469 2345
1479 249
1479 2345
1489 249
1489 2345
1499 249
1499 2345
1509 249
1509 2345
1519 249
1519 2345
1529 249
1529 2345
1535 257
1535 267
1535 277
1535 287
1535 297
1535 307
1535 317
1535 327
1535 337
1535 347
1535 357
1535 367
1535 377
1535 387
1535 397
1535 407
1535 417
1535 427
1535 437
1535 447
1535 457
1535 467
1535 477
1535 487
1535 497
1535 507
1535 517
1535 527
1535 537
1535 547
1535 557
1535 567
1535 577
1535 587
1535 597
1535 607
1535 617
1535 627
1535 637
1535 647
1535 657
1535 667
1535 677
1535 687
1535 697
1535 707
1535 717
1535 727
1535 737
1535 747
1535 757
1535 767
1535 777
1535 787
1535 797
1535 807
1535 817
1535 827
1535 837
1535 847
1535 857
1535 867
1535 877
1535 887
1535 897
1535 907
1535 917
1535 927
1535 937
1535 947
1535 957
1535 967
1535 977
1535 1630
1535 1640
1535 1650
1535 1660
1535 1670
1535 1680
1535 1690
1535 1700
1535 1710
1535 1720
1535 1730
1535 1740
1535 1750
1535 1760
1535 1770
1535 1780
1535 1790
1535 1800
1535 1810
1535 1820
1535 1830
1535 1840
1535 1850
1535 1860
1535 1870
1535 1880
1535 1890
1535 1900
1535 1910
1535 1920
1535 1930
1535 1940
1535 1950
1535 1960
1535 1970
1535 1980
1535 1990
1535 2000
1535 2010
1535 2020
1535 2030
1535 2040
1535 2050
1535 2060
1535 2070
1535 2080
1535 2090
1535 2100
1535 2110
1535 2120
1535 2130
1535 2140
1535 2150
1535 2160
1535 2170
1535 2180
1535 2190
1535 2200
1535 2210
1535 2220
1535 2230
1535 2240
1535 2250
1535 2260
1535 2270
1535 2280
1535 2290
1535 2300
1535 2310
1535 2320
1535 2330
1544 972
1544 1635
1550 1643
1552 964
1558 1650
1560 956
1562 1660
1568 949
1570 1667
1575 941
1579 1672
1583 934
1585 1680
1590 926
1591 1688
1598 919
1599 1694
1604 907
1607 1700
1612 1709
1614 897
1619 1717
1624 887
1629 1720
1632 1730
1634 877
1640 1737
1644 867
1649 1742
1654 857
1655 1750
1661 1758
1664 847
1669 1765
1674 837
1675 1773
1682 829
1683 1780
1690 821
1690 1788
1698 814
1698 1795
1705 806
1705 1803
1710 1430
1713 799
1713 1810
1718 1436
1720 791
1720 1818
1724 1444
1725 1160
1726 1430
1728 784
1728 1825
1730 1452
1733 1153
1735 776
1735 1164
1735 1833
1736 1430
1739 1457
1740 1145
1743 769
1743 1840
1745 1164
1746 1430
1747 1464
1748 1138
1750 761
1750 1474
1750 1848
1755 1130
1755 1164
1756 1430
1758 754
1758 1855
1760 1477
1763 1123
1764 1487
1765 746
1765 1164
1765 1863
1766 1430
1770 1115
1772 1494
1773 739
1773 1870
1775 1164
1776 1430
1778 1108
1779 1502
1780 731
1780 1878
1785 1100
1785 1164
1786 1430
1787 1509
1788 724
1788 1885
1793 1093
1794 1517
1795 716
1795 1164
1795 1893
1796 1430
1800 1085
1802 1524
1803 709
1803 1900
1805 1164
1806 1430
1808 1078
1809 1532
1810 701
1810 1908
1815 1070
1815 1164
1816 1430
1817 1539
1818 694
1818 1915
1823 1063
1824 1547
1825 686
1825 1164
1825 1923
1826 1430
1830 1055
1832 1554
1833 679
1833 1930
1835 1164
1836 1430
1838 1048
1839 1562
1840 671
1840 1938
1845 1040
1845 1164
1846 1430
1847 1569
1848 664
1848 1945
1853 1033
1854 1577
1855 656
1855 1164
1855 1953
1856 1430
1860 1025
1862 1584
1863 649
1863 1960
1865 1164
1866 1430
1868 1018
1869 1592
1870 641
1870 1968
1875 1010
1875 1164
1876 1430
1877 1599
1878 634
1878 1975
1883 1003
1884 1607
1885 626
1885 1164
1885 1983
1886 1430
1890 995
1892 1614
1893 619
1893 1990
1895 1164
1896 1430
1898 988
1899 1622
1900 611
1900 1998
1905 980
1905 1164
1906 1430
1907 1629
1908 604
1908 2005
1913 973
1914 1637
1915 596
1915 1164
1915 2013
1916 1430
1920 965
1922 1644
1923 589
1923 2020
1925 1164
1926 1430
1927 579
1928 958
1929 1652
1930 2028
1935 571
1935 950
1935 1164
1936 1430
1937 1659
1938 2035
1943 943
1944 562
1944 1667
1945 1164
1945 2043
1946 1430
1950 930
1952 1674
1953 2050
1954 552
1955 1164
1956 1430
1959 1682
1960 920
1960 2058
1964 542
1965 1164
1966 1430
1967 1689
1968 2065
1970 910
1974 532
1974 1697
1975 1164
1975 2073
1976 1430
1980 900
1982 1704
1983 2080
1984 522
1985 1164
1985 1714
1986 1430
1987 2090
1990 890
1994 512
1995 1164
1995 1717
1995 2097
1996 1430
2000 880
2002 504
2002 1725
2004 2102
2005 1164
2006 1430
2007 1734
2010 496
2010 870
2010 2110
2015 1164
2015 1740
2016 1430
2016 2118
2018 489
2020 860
2023 1746
2024 2124
2025 481
2025 1164
2026 1430
2028 853
2029 1754
2032 2130
2033 474
2035 845
2035 1164
2035 1762
2036 1430
2041 2135
2043 475
2043 838
2044 1767
2045 1164
2046 1430
2049 1776
2049 2127
2050 483
2050 830
2055 1164
2055 1784
2056 1430
2057 2119
2058 490
2058 823
2063 1790
2065 498
2065 815
2065 1164
2065 2110
2066 1430
2070 1798
2073 505
2073 808
2073 2103
2075 1164
2076 1430
2078 1805
2080 513
2080 800
2080 2095
2085 1164
2085 1813
2086 1430
2088 520
2088 793
2088 2088
2093 1820
2095 528
2095 785
2095 1164
2095 2080
2096 1430
2100 1828
2103 535
2103 778
2103 2073
2105 1164
2106 1430
2108 1835
2110 543
2110 770
2110 2065
2115 1164
2115 1843
2116 1430
2118 550
2118 763
2118 2058
2123 1850
2125 558
2125 755
2125 1164
2125 2050
2126 1430
2130 1858
2133 565
2133 748
2133 2043
2135 1164
2136 1430
2138 1865
2140 573
2140 740
2140 2035
2145 1164
2145 1873
2146 1430
2148 580
2148 733
2148 2028
2153 1880
2155 588
2155 725
2155 1164
2155 2020
2156 1430
2160 1888
2163 595
2163 718
2163 2013
2165 1164
2166 1430
2168 1895
2170 603
2170 710
2170 2005
2175 1164
2175 1903
2176 1430
2178 610
2178 703
2178 1998
2183 1910
2184 1990
2185 618
2185 695
2185 1164
2186 1430
2190 1918
2190 1980
2193 625
2193 688
2195 1164
2196 1430
2198 634
2198 1925
2200 680
2200 1970
2205 642
2205 1164
2205 1933
2206 1430
2208 673
2210 1960
2213 1940
2214 647
2215 665
2215 1164
2216 1430
2218 1953
2225 1164
2226 1430
2235 1164
2236 1430
2245 1164
2246 1430
2255 1164
2256 1430
2265 1164
2266 1430
2275 1164
2276 1430
2285 1164
2286 1430
2295 1164
2296 1430
2305 1164
2306 1430
2315 1164
2316 1430
2325 1164
2326 1430
2335 1164
2336 1430
2345 1164
2346 1430
2355 1164
2356 1430
2365 1164
2366 1430
2375 1164
2376 1430
2385 1164
2386 1430
2395 1164
2396 1430
2405 1164
2406 1430
2415 1164
2416 1430
2425 1164
2426 1430
2435 1167
2435 1177
2435 1187
2435 1197
2435 1207
2435 1217
2435 1227
2435 1237
2435 1247
2435 1257
2435 1267
2435 1277
2435 1287
2435 1297
2435 1307
2435 1317
2435 1327
2435 1337
2435 1347
2435 1357
2435 1367
2435 1377
2435 1387
2435 1397
2435 1407
2435 1417
