314 552
314 562
314 572
314 582
319 591
319 601
319 611
319 621
324 549
324 630
324 640
324 650
327 660
329 670
332 680
334 551
334 690
337 700
339 710
344 554
344 719
344 729
349 738
353 559
354 747
354 757
359 766
363 560
364 775
367 785
372 565
372 794
374 804
379 813
380 823
382 569
388 830
391 574
392 840
394 850
400 579
400 858
405 867
409 877
410 579
414 886
418 585
419 895
424 904
428 589
429 913
434 922
437 594
439 931
444 940
446 599
449 949
451 959
455 604
459 965
462 975
465 607
467 984
471 994
475 609
476 1003
479 1013
483 615
484 1022
489 1031
492 620
494 1040
497 1050
502 624
502 1059
506 1069
509 1079
511 629
514 1088
519 636
519 1097
524 1106
524 1116
528 641
529 1125
532 1135
534 1145
538 645
539 1154
541 1164
546 1173
547 650
556 1175
557 654
564 662
566 1175
574 666
575 1170
583 671
584 1175
590 679
593 1170
600 679
603 1170
608 685
613 1170
615 693
623 1170
625 697
633 1170
634 702
643 1170
644 706
653 711
653 1170
660 719
663 1170
670 722
672 1165
679 727
682 1165
687 734
692 1165
696 739
702 1165
705 744
712 1165
714 749
722 1165
723 754
732 759
732 1165
741 764
742 1165
750 769
752 1165
760 772
762 1165
768 779
772 1165
777 784
782 1165
786 789
792 1165
795 794
802 1165
805 797
812 1165
813 804
822 1165
823 805
832 810
832 1165
840 817
842 1165
850 819
852 1165
859 824
862 1165
868 829
872 1165
877 834
882 1169
886 839
892 1169
895 844
902 1170
905 847
912 1170
915 849
922 1170
924 854
932 1174
933 859
942 864
942 1174
952 864
952 1175
961 869
962 1175
970 874
971 1180
980 877
981 1180
990 879
991 1183
999 884
1001 1185
1009 886
1011 1185
1019 889
1020 1190
1028 894
1030 1190
1038 895
1039 1195
1048 899
1049 1195
1057 904
1058 1200
1067 904
1068 1200
1076 909
1077 1205
1086 909
1087 1209
1095 914
1097 1210
1105 917
1106 1215
1115 919
1116 1218
1125 922
1125 1223
1135 924
1135 1227
1144 1232
1145 924
1154 929
1154 1235
1163 1240
1164 929
1172 1245
1173 934
1182 1249
1183 934
1190 1255
1193 934
1199 1260
1202 939
1205 1268
1212 939
1215 1272
1222 939
1222 1280
1230 1287
1231 944
1237 1295
1241 944
1242 1304
1249 1312
1251 944
1254 1321
1260 949
1261 1329
1266 1338
1270 949
1270 1348
1278 1355
1280 949
1282 1365
1284 1375
1284 2202
1284 2212
1284 2222
1289 1384
1289 2162
1289 2172
1289 2182
1289 2192
1290 949
1294 1393
1294 2132
1294 2142
1294 2152
1294 2220
1295 1403
1299 1413
1299 2087
1299 2097
1299 2107
1299 2117
1300 949
1304 1422
1304 1432
1304 2042
1304 2052
1304 2062
1304 2072
1304 2220
1309 1441
1309 1451
1309 1997
1309 2007
1309 2017
1309 2027
1310 949
1314 1460
1314 1470
1314 1947
1314 1957
1314 1967
1314 1977
1314 1987
1314 2220
1319 954
1319 1479
1319 1489
1319 1499
1319 1897
1319 1907
1319 1917
1319 1927
1319 1937
1324 1508
1324 1518
1324 1528
1324 1538
1324 1837
1324 1852
1324 1862
1324 1872
1324 1882
1324 2220
1329 954
1329 1547
1329 1557
1329 1567
1329 1577
1329 1587
1329 1597
1329 1607
1329 1747
1329 1757
1329 1767
1329 1777
1329 1787
1329 1797
1329 1807
1329 1817
1329 1827
1334 1616
1334 1626
1334 1636
1334 1646
1334 1656
1334 1666
1334 1676
1334 1686
1334 1696
1334 1706
1334 1716
1334 1726
1334 1736
1334 2220
1339 954
1343 2215
1349 954
1353 2215
1359 954
1362 2220
1369 954
1371 2215
1379 954
1381 2215
1389 954
1391 2218
1399 954
1401 2215
1409 954
1411 2215
1419 954
1421 2218
1429 954
1431 2215
1439 954
1441 2215
1449 954
1450 2220
1459 954
1459 2215
1468 2220
1469 951
1478 2220
1479 949
1488 2220
1489 949
1497 2225
1499 949
1506 2220
1509 949
1515 1560
1515 1570
1515 1580
1515 1590
1515 1600
1515 1610
1515 1620
1515 1630
1515 1640
1515 1650
1515 1660
1515 1670
1515 1685
1515 1695
1515 2225
1519 949
1520 1515
1520 1525
1520 1535
1520 1545
1520 1704
1520 1714
1520 1724
1520 1734
1520 1744
1520 1754
1525 1485
1525 1495
1525 1505
1525 1763
1525 1773
1525 1783
1525 1793
1525 2227
1529 946
1530 1460
1530 1470
1530 1802
1530 1812
1530 1822
1530 1832
1534 1842
1535 1440
1535 1450
1535 1852
1535 1862
1535 2227
1539 944
1539 1872
1540 1425
1540 1882
1540 1892
1540 1902
1545 1410
1545 1911
1545 1921
1545 1931
1545 2230
1549 944
1550 1395
1550 1940
1550 1950
1550 1960
1555 1385
1555 1969
1555 1979
1555 1989
1555 2232
1559 944
1560 1375
1560 1998
1560 2008
1565 1365
1565 2017
1565 2027
1565 2037
1565 2235
1569 941
1570 1355
1570 2046
1570 2056
1573 2066
1575 1345
1575 2076
1575 2086
1575 2235
1579 939
1580 2095
1580 2105
1583 1338
1584 2240
1585 2114
1585 2124
1585 2134
1588 1328
1589 937
1590 2143
1590 2153
1594 2240
1595 1315
1595 2162
1595 2172
1599 934
1599 2182
1600 2192
1600 2202
1603 1308
1603 2245
1605 2211
1605 2221
1609 934
1610 1300
1610 2230
1618 1293
1619 934
1625 1285
1628 929
1633 1278
1638 929
1640 1270
1647 924
1650 1265
1657 924
1658 1258
1667 919
1668 1253
1677 919
1678 1248
1687 914
1688 1243
1695 1235
1697 914
1705 1235
1707 909
1714 1230
1717 909
1723 1225
1727 904
1732 1220
1737 904
1741 1215
1746 899
1750 1210
1756 895
1760 1210
1766 894
1769 1205
1775 889
1778 1200
1785 886
1787 1195
1795 884
1797 1194
1805 881
1807 1190
1815 876
1816 1185
1825 874
1826 1185
1834 869
1835 1180
1843 864
1845 1180
1853 864
1854 1175
1862 859
1864 1175
1872 854
1873 1170
1882 849
1883 1170
1892 844
1893 1168
1902 844
1903 1165
1910 836
1913 1165
1920 834
1922 1160
1929 829
1932 1160
1939 827
1942 1160
1947 819
1952 1159
1957 814
1962 1159
1967 814
1972 1155
1976 809
1982 1155
1985 804
1992 1155
1994 799
2001 1150
2003 794
2011 1150
2012 789
2021 1150
2022 784
2031 1150
2032 784
2037 774
2041 1150
2047 769
2051 1150
2057 764
2061 1150
2067 759
2071 1150
2077 754
2081 1150
2087 749
2091 1150
2097 744
2101 1150
2106 739
2111 1150
2115 734
2120 1145
2124 729
2129 1150
2133 724
2139 1150
2142 719
2149 1150
2150 711
2159 1150
2160 706
2169 1150
2170 701
2179 1150
2180 696
2189 1150
2190 691
2199 1150
2200 686
2208 679
2209 1150
2217 674
2219 1150
2227 669
2229 1150
2237 664
2239 1150
2247 659
2249 1150
2256 654
2258 1155
2265 649
2267 1150
2274 644
2276 1155
2283 639
2286 1155
2292 634
2296 1155
2302 629
2306 1155
2312 624
2316 1155
2322 619
2326 1155
2332 614
2336 1155
2342 609
2346 1155
2352 604
2356 1158
2362 604
2364 1152
2370 1140
2371 599
2375 1130
2380 594
2380 1115
2385 1105
2389 589
2390 1095
2395 1085
2399 587
2400 1070
2405 1060
2409 584
2410 1050
2415 1040
2418 579
2420 1030
2425 1015
2427 574
2433 1008
2435 995
2437 574
2440 985
2445 975
2446 569
2450 965
2455 955
2456 565
2460 940
2466 564
2468 933
2470 920
2475 559
2475 910
2480 895
2485 559
2485 880
2490 865
2494 554
2495 850
2500 835
2504 554
2505 820
2510 805
2513 549
2515 785
2515 795
2520 765
2520 775
2523 549
2525 735
2525 745
2525 755
2530 705
2530 715
2530 725
2533 549
2535 660
2535 670
2535 680
2535 690
2540 557
2540 567
2540 577
2540 587
2540 597
2540 607
2540 617
2540 627
2540 637
2540 647
