99 277
104 267
107 284
109 257
115 290
117 249
122 239
123 283
130 231
130 275
135 221
138 268
143 214
144 527
144 537
144 547
147 204
148 263
149 512
150 555
154 502
155 196
155 255
160 186
160 555
162 494
163 248
165 176
167 484
169 550
170 240
173 169
174 472
177 544
178 233
179 462
182 164
183 223
184 452
185 535
190 156
190 525
192 444
193 218
197 434
198 149
198 518
200 210
204 422
205 510
208 149
210 210
210 500
212 414
217 144
217 404
218 493
219 215
222 225
222 394
224 235
225 480
227 144
227 384
229 244
231 254
233 473
234 264
234 372
237 144
239 273
239 283
239 357
240 460
244 292
244 302
244 347
247 139
248 453
249 97
249 107
249 311
249 321
249 331
254 82
254 116
254 126
255 445
260 435
262 74
268 428
270 66
273 418
278 59
280 410
287 54
288 403
297 54
298 400
305 408
306 59
313 415
315 64
317 425
320 73
322 434
326 444
328 80
330 90
330 120
330 130
334 450
335 99
335 109
335 139
335 149
337 460
340 310
340 320
340 330
342 340
342 469
345 149
345 290
345 300
345 350
346 479
350 265
350 275
350 359
350 369
354 485
355 149
355 240
355 250
355 378
357 495
360 205
360 215
360 225
360 387
362 504
364 397
365 149
365 407
366 514
370 200
372 415
374 520
375 146
375 425
377 530
380 200
380 434
385 144
385 443
385 537
389 195
390 452
390 462
392 545
395 144
395 471
398 190
400 480
402 549
405 144
405 489
405 499
407 185
410 508
412 549
415 144
415 517
415 527
415 537
416 180
424 139
426 180
434 139
435 175
443 134
445 175
453 134
454 170
463 134
464 167
472 129
474 165
482 129
483 160
492 124
493 160
502 124
502 155
512 124
512 154
521 119
522 150
531 119
531 145
541 115
541 145
550 140
551 110
555 120
555 130
