54 247
54 257
59 237
64 227
64 260
72 219
74 262
77 209
82 254
84 197
90 245
92 189
97 179
98 238
104 162
105 230
109 152
109 512
113 223
114 492
114 502
114 521
117 144
119 477
120 215
121 529
124 467
125 136
125 205
131 525
132 459
133 198
135 131
137 449
140 190
140 520
142 439
143 124
147 429
148 513
150 185
152 119
152 419
155 505
157 409
160 185
160 495
162 114
162 399
168 488
169 190
169 387
172 114
172 200
174 210
174 377
175 475
179 219
179 367
180 465
182 114
184 228
184 357
185 238
188 458
189 248
189 347
192 109
193 448
194 257
194 327
194 337
197 99
199 266
199 276
199 317
200 435
204 285
204 295
204 305
205 425
207 99
213 418
217 99
220 405
225 395
227 99
233 388
237 99
240 380
247 99
248 373
257 99
258 370
267 99
267 375
272 384
277 99
279 392
284 401
286 104
291 409
295 109
295 260
295 270
295 280
295 290
295 300
299 415
300 225
300 235
300 245
300 309
302 425
305 109
305 195
305 205
305 215
305 318
305 328
307 434
310 180
310 337
314 104
314 442
315 346
318 173
319 451
320 355
324 102
324 460
325 364
328 168
329 469
330 373
334 99
335 160
335 382
335 477
339 392
339 487
344 99
344 401
345 155
347 494
348 411
353 420
354 99
354 150
355 500
357 430
363 94
363 145
364 505
365 437
369 447
370 457
373 94
373 143
374 505
375 466
380 475
380 485
380 495
382 89
383 140
392 89
392 135
401 84
401 130
411 84
411 130
420 79
420 125
429 120
430 76
439 117
440 74
449 115
450 71
458 110
460 69
468 108
469 64
478 103
479 62
488 98
489 64
495 72
495 82
