84 292
84 302
89 282
89 311
97 274
99 312
102 264
107 304
109 252
114 242
115 295
119 232
125 290
127 224
133 283
134 212
139 197
140 270
147 189
148 263
155 250
157 184
159 507
159 517
159 527
159 537
159 547
159 557
159 567
163 243
164 497
165 176
167 574
169 487
173 238
174 477
174 582
175 171
179 467
182 589
183 235
184 62
184 72
184 457
185 166
189 81
189 91
189 101
189 111
189 447
192 240
192 590
194 59
195 164
197 439
199 115
199 248
200 258
200 535
200 545
200 555
202 429
202 589
204 59
205 164
205 267
205 520
205 564
205 574
207 419
209 115
209 277
210 51
212 409
213 513
214 286
214 296
215 161
217 399
219 37
219 115
219 125
219 305
220 500
222 135
222 389
223 154
224 314
224 324
224 372
225 490
229 34
229 333
229 343
229 353
229 363
230 480
238 473
239 34
245 460
249 34
253 453
258 443
259 34
263 433
269 34
270 425
279 34
280 420
289 34
290 420
299 34
299 425
300 115
300 125
300 135
302 145
307 154
308 430
309 36
310 46
310 115
312 440
316 159
320 49
320 115
320 325
320 335
320 447
322 345
325 290
325 300
325 310
325 355
326 159
327 455
330 49
330 115
330 255
330 265
330 275
330 364
334 463
335 58
335 68
335 235
335 245
335 373
336 159
339 472
340 115
340 225
340 382
343 74
344 392
346 159
347 479
349 401
350 82
350 92
350 102
350 112
350 220
354 487
355 164
355 409
359 225
362 494
363 415
365 167
367 425
368 230
369 502
374 172
375 432
377 235
377 509
380 441
381 519
382 244
384 176
389 446
390 184
391 249
391 523
393 456
395 193
399 255
399 530
400 464
403 200
405 263
405 473
408 535
410 208
413 270
413 480
415 543
418 215
420 488
422 225
423 270
425 497
425 547
430 232
432 275
432 505
434 552
440 234
440 512
442 275
444 555
447 520
450 234
451 270
453 560
455 527
460 234
460 265
463 534
463 560
470 237
470 260
472 539
472 565
477 245
481 544
482 565
490 549
492 564
