74 467
79 476
82 459
86 484
91 454
96 485
100 449
106 488
110 446
116 490
120 444
124 247
124 257
126 490
129 237
130 444
134 227
134 260
135 485
139 439
142 219
144 262
145 485
147 209
149 437
152 254
154 197
154 480
157 245
159 187
159 432
164 480
166 240
167 179
169 427
172 169
173 475
174 232
177 159
177 419
182 149
182 224
183 473
187 414
190 141
190 210
193 468
195 406
198 134
198 203
203 399
203 463
205 195
207 129
210 391
213 458
214 190
216 124
218 384
223 185
223 453
225 119
225 376
230 445
233 185
233 369
234 114
238 438
239 193
240 361
244 114
244 202
244 212
248 354
248 433
249 221
252 344
254 114
254 230
255 425
257 240
259 62
259 72
259 82
259 250
260 106
260 336
262 260
263 418
264 52
264 91
264 322
267 269
269 42
269 279
269 312
270 410
274 288
274 298
277 34
278 403
285 395
286 29
293 388
295 24
300 380
305 22
310 375
315 24
319 370
323 30
329 370
330 38
335 47
339 370
340 56
340 85
345 65
345 75
345 94
348 375
350 103
355 383
360 107
365 255
365 265
365 275
365 285
365 295
365 387
367 305
370 109
370 225
370 235
370 245
372 314
372 395
375 190
375 200
375 210
379 322
380 109
380 180
380 402
387 329
389 175
389 407
390 109
394 337
397 414
398 170
400 112
400 345
405 354
406 419
407 175
409 117
414 425
415 182
415 357
417 124
420 433
422 365
424 187
426 129
428 440
429 196
430 139
430 372
436 204
437 380
437 445
438 145
442 454
444 210
445 153
447 384
449 462
450 218
453 160
454 392
454 471
458 225
459 480
460 168
462 235
462 399
464 489
465 409
468 175
469 498
472 185
472 239
473 415
474 507
474 517
479 526
480 192
480 245
480 423
484 202
484 535
484 545
485 432
487 555
489 250
490 441
492 209
492 564
496 449
498 255
499 217
499 572
500 459
505 225
505 468
508 253
509 572
510 234
510 477
514 487
515 243
515 497
515 507
515 560
519 517
520 527
520 537
520 547
