99 277
104 267
107 284
109 257
115 290
117 249
122 239
123 283
130 231
130 275
135 221
138 268
143 214
144 547
144 557
144 567
147 204
148 263
149 576
152 539
154 527
155 196
155 255
159 580
160 186
162 519
163 248
165 176
167 509
167 574
170 240
172 499
173 169
177 489
177 569
178 233
182 164
182 479
182 559
183 223
184 467
189 457
190 156
190 550
193 218
197 449
198 149
198 543
200 210
202 439
203 533
207 429
208 149
208 523
210 210
212 419
215 510
217 144
217 409
219 215
222 225
222 399
223 503
224 235
227 144
227 389
228 493
229 244
231 254
232 379
234 264
235 480
237 144
237 369
239 273
239 283
239 357
243 473
244 292
244 302
244 347
247 139
248 463
249 92
249 102
249 112
249 311
249 321
249 331
254 82
254 121
254 131
255 450
260 440
262 74
268 433
270 66
273 423
278 59
278 413
285 405
287 54
294 400
297 54
304 400
306 59
309 409
315 64
317 415
320 73
322 424
328 80
329 432
330 90
330 120
330 130
335 99
335 109
335 139
335 149
337 439
340 310
340 320
340 330
342 340
344 154
344 447
345 290
345 300
345 350
349 456
350 265
350 275
350 359
353 149
355 240
355 250
355 368
356 464
360 210
360 220
360 230
360 377
361 473
362 144
364 387
369 479
370 205
370 395
372 144
375 404
375 487
379 200
380 413
382 144
382 495
388 195
388 420
389 503
392 144
392 430
394 512
397 190
399 521
400 437
402 144
405 446
406 185
409 525
411 139
411 454
414 177
414 534
419 461
420 542
421 139
423 471
424 172
427 550
428 480
431 139
432 165
435 488
435 557
440 497
441 139
442 164
442 565
445 506
450 144
450 154
451 514
452 569
455 524
460 575
463 530
467 540
470 550
470 575
475 559
