14 137
19 127
19 146
19 212
24 192
24 202
24 221
24 231
29 127
29 150
29 177
29 240
34 159
35 248
39 129
45 195
45 205
45 215
45 252
47 135
50 145
50 185
50 224
52 155
55 165
55 175
55 255
59 229
65 255
68 234
69 265
77 229
79 265
79 277
87 224
89 277
92 214
94 182
94 192
94 202
97 270
99 162
99 172
105 260
107 154
109 142
113 253
117 134
119 122
120 245
124 107
125 235
129 87
129 97
133 228
134 77
139 67
139 220
144 57
145 210
149 220
152 49
152 230
159 222
160 41
164 212
164 367
168 34
172 204
172 359
172 374
177 29
180 351
180 380
182 200
187 24
190 346
190 380
191 195
197 24
198 339
199 307
199 317
199 327
199 385
200 190
204 257
204 267
204 277
204 287
204 297
207 24
209 242
209 385
210 190
214 200
214 210
214 222
214 232
217 24
218 380
227 24
228 378
235 370
236 19
240 355
245 340
246 15
250 325
255 315
256 19
260 29
260 305
265 285
265 295
270 29
270 270
279 275
280 32
284 387
285 283
289 293
289 377
289 396
290 29
294 302
294 312
294 322
296 404
299 331
299 341
299 351
299 372
300 29
304 360
306 405
309 34
316 405
318 29
326 405
327 24
336 29
336 405
345 400
346 29
350 335
350 345
350 355
350 390
355 270
355 280
355 290
355 300
355 310
355 320
355 364
355 374
356 29
365 265
366 30
374 270
374 280
374 292
374 337
374 347
374 357
376 34
379 301
379 311
379 321
380 365
386 34
390 365
395 39
400 365
405 42
410 365
415 44
420 360
424 49
425 290
425 300
425 310
425 320
425 330
425 340
427 350
430 280
434 49
439 285
443 54
444 362
445 293
449 352
449 371
450 302
453 54
454 312
457 344
459 321
459 331
459 375
462 59
469 375
471 64
478 380
480 69
488 75
488 378
495 83
498 373
500 92
500 270
502 280
505 101
505 250
505 260
505 290
507 300
508 368
510 235
510 310
511 109
512 320
515 119
515 215
515 225
515 335
515 345
515 355
520 128
520 205
525 137
525 217
529 147
529 227
529 237
529 247
530 157
534 256
535 166
535 176
538 186
539 265
540 196
540 206
540 216
540 230
542 275
544 285
545 239
545 249
550 258
550 268
553 290
555 277
