29 397
29 407
29 417
29 427
29 437
34 387
34 446
39 455
42 379
45 463
49 367
55 410
55 420
55 430
55 467
57 359
60 439
63 403
64 472
65 448
66 354
70 395
74 347
74 475
75 452
78 388
82 339
84 475
85 454
88 383
89 402
92 334
94 472
95 375
95 454
97 394
99 405
102 329
104 449
104 470
105 375
107 389
108 400
111 324
113 444
113 465
114 370
116 384
118 398
119 317
122 460
123 365
123 444
126 380
127 309
128 393
132 299
132 360
132 439
132 459
134 374
137 289
138 388
141 355
142 279
142 434
142 455
143 369
147 269
148 383
150 350
150 361
151 439
152 455
155 261
155 375
160 444
162 454
163 254
164 370
172 249
172 364
179 237
180 355
187 229
189 360
195 221
199 360
205 216
209 360
215 214
219 360
225 214
225 368
235 211
235 372
243 204
245 375
249 192
254 380
259 189
260 388
265 397
268 184
272 405
274 415
275 176
280 423
285 174
290 427
295 174
297 435
305 171
305 442
312 450
315 174
322 454
324 169
329 462
329 472
333 164
334 481
340 156
341 489
346 498
348 149
354 505
357 144
357 515
359 525
362 535
367 144
369 543
369 562
369 582
369 592
374 552
374 571
374 601
376 139
384 600
386 139
393 595
396 135
400 425
400 435
400 445
402 589
405 454
405 464
406 130
408 418
410 473
410 483
410 493
410 580
415 502
415 512
416 129
418 413
418 573
420 521
420 535
424 405
425 565
426 129
428 541
433 558
434 405
436 129
443 410
446 129
452 415
456 129
462 415
466 129
471 420
475 134
479 426
485 137
486 434
494 440
495 139
503 445
505 142
505 350
505 360
507 455
510 369
512 464
514 345
514 482
515 144
515 378
519 472
519 491
520 387
522 339
524 149
526 499
527 395
532 155
532 335
535 402
536 500
541 340
542 159
542 410
544 492
549 167
549 346
552 414
552 485
556 354
559 171
560 190
561 419
561 480
562 200
565 179
565 210
566 358
569 426
569 472
570 192
570 219
574 365
575 228
575 434
577 200
577 464
580 237
580 450
582 209
583 370
583 440
587 199
589 217
589 242
589 378
597 249
597 385
599 214
601 224
604 257
604 393
605 403
609 214
610 412
611 225
612 264
619 272
620 325
620 410
622 335
629 276
630 327
630 342
630 405
635 284
637 350
639 332
640 395
644 341
645 287
645 357
645 385
652 365
653 378
654 292
654 345
662 299
664 347
670 335
671 304
675 314
675 325
