19 277
24 286
27 269
34 287
35 261
42 279
45 256
52 274
55 251
60 241
60 265
69 260
70 236
75 250
78 229
85 221
85 245
90 211
95 240
98 204
102 194
103 233
107 184
109 167
110 225
114 157
118 218
119 132
119 142
124 112
124 122
125 205
129 87
129 97
129 422
131 213
133 198
134 412
137 79
139 67
139 425
141 210
142 404
144 57
148 430
149 216
150 396
152 49
154 37
158 389
158 430
159 217
162 29
164 207
164 372
165 195
168 430
169 357
172 24
174 342
175 190
178 430
179 322
179 332
182 24
184 185
184 197
184 302
184 312
188 428
189 206
189 216
189 277
189 287
192 24
194 225
194 235
194 245
194 255
194 265
198 425
202 24
208 423
210 400
212 24
212 410
215 390
220 380
221 19
225 365
230 355
231 15
235 345
240 335
241 15
245 325
251 19
253 318
261 19
263 313
270 305
271 19
279 26
280 305
289 26
290 300
299 29
299 305
305 313
307 35
310 45
310 322
314 332
314 422
314 432
314 442
315 54
322 339
322 449
324 59
324 349
324 362
324 372
324 402
324 412
329 381
329 391
332 449
334 59
342 449
344 61
352 449
354 64
362 449
364 64
372 445
374 64
382 444
383 69
385 325
385 335
385 345
385 355
385 365
385 375
385 385
390 315
390 394
390 404
392 439
393 69
395 413
395 425
399 310
399 399
403 69
404 382
405 412
409 312
409 342
409 357
409 367
413 69
414 322
414 332
415 412
419 310
423 69
425 412
433 70
435 412
442 75
445 412
450 82
450 375
454 407
455 350
455 360
455 384
455 394
459 87
460 335
465 320
469 91
471 328
474 338
474 348
474 358
474 392
474 402
478 96
479 367
479 377
483 105
484 405
490 113
494 405
495 122
502 130
504 405
507 139
513 400
516 144
520 154
520 290
520 300
520 310
520 320
520 330
520 340
520 350
522 360
523 398
525 275
525 370
525 380
528 160
529 285
530 296
534 306
535 168
535 178
537 279
539 315
539 325
540 187
540 210
540 240
540 255
540 265
540 289
544 197
544 306
544 334
545 219
545 229
548 320
549 343
555 328
