19 107
19 117
24 92
24 126
29 82
29 135
32 145
34 72
41 150
44 69
50 61
50 105
50 115
50 155
55 95
55 124
55 134
59 160
60 59
60 143
64 100
65 168
70 56
70 147
73 105
75 170
80 54
80 149
82 110
85 172
90 51
90 152
92 114
94 32
95 172
100 154
102 39
102 115
102 180
105 49
109 159
111 120
111 185
115 49
115 167
120 190
121 120
124 172
125 49
129 181
131 120
135 49
141 120
144 54
151 120
154 54
160 125
164 54
169 120
174 54
179 120
184 54
184 442
189 120
189 432
189 451
194 54
199 122
199 429
199 455
203 49
204 131
208 424
209 140
209 455
210 41
212 414
217 404
218 145
219 455
220 36
222 394
224 153
224 382
229 162
229 172
229 237
229 362
229 372
229 455
230 34
235 180
239 212
239 222
239 232
239 242
239 252
239 267
239 317
239 327
239 337
239 347
239 357
239 455
240 31
244 185
244 195
244 276
244 307
249 285
249 295
249 455
250 29
259 34
259 452
267 444
269 32
270 420
270 430
279 29
280 405
280 415
285 395
288 24
290 375
290 385
298 24
300 360
300 370
305 350
307 29
314 345
317 29
320 335
326 34
329 330
335 39
335 49
338 335
344 44
348 335
353 39
357 330
363 39
367 334
373 39
374 342
374 457
374 467
379 351
379 442
383 39
384 360
384 370
384 470
387 434
393 39
393 375
394 385
394 395
394 405
394 415
394 425
394 472
400 47
404 472
409 52
414 472
417 59
424 472
426 64
434 470
435 69
444 467
445 69
445 355
445 365
445 380
445 390
450 399
450 409
450 419
453 348
454 462
455 69
455 335
455 428
460 437
460 447
464 340
465 69
474 340
475 69
484 74
484 340
490 348
494 76
494 358
499 367
499 377
499 387
499 427
499 437
504 79
505 445
509 390
509 400
509 410
509 420
510 87
514 450
519 92
523 455
529 96
533 453
539 99
539 445
549 101
549 442
550 360
550 370
550 380
555 109
555 389
555 399
555 409
557 434
559 375
560 418
563 115
570 123
570 415
575 132
580 141
580 415
589 146
590 415
595 154
595 310
595 320
595 340
595 350
600 163
600 300
600 329
600 359
600 369
600 415
605 172
605 378
605 405
608 293
610 275
610 387
612 180
613 398
617 189
618 268
620 199
620 209
620 240
620 250
624 287
624 297
624 307
624 317
628 215
629 245
629 255
629 265
629 275
630 225
634 302
634 312
635 234
639 292
640 243
640 253
640 265
640 275
