29 337
29 347
39 327
39 347
47 319
47 339
54 307
55 330
62 299
63 323
64 287
70 315
72 279
74 257
74 267
74 327
74 482
78 308
79 217
79 227
79 237
79 247
79 467
80 490
82 319
84 197
84 207
84 330
85 295
89 464
89 495
92 319
94 132
94 142
94 152
94 162
94 172
94 182
94 192
94 300
94 330
94 340
94 350
94 360
94 452
97 370
99 117
99 380
99 390
99 400
99 410
99 420
99 430
99 440
99 495
104 107
109 97
109 492
119 92
119 487
120 465
120 475
125 455
127 84
130 425
130 435
130 445
135 350
135 360
135 370
135 380
135 390
135 400
135 410
136 79
140 320
140 330
140 340
144 72
149 315
154 69
155 305
160 285
160 295
164 71
165 260
165 270
170 79
174 265
174 275
174 285
174 295
174 305
174 315
174 325
174 422
174 432
177 335
179 345
179 355
179 407
179 441
180 79
184 364
184 450
186 374
187 399
187 460
189 384
190 79
197 464
199 482
200 79
204 472
205 490
210 79
215 490
220 79
225 490
230 79
235 475
235 485
240 79
240 460
245 450
250 79
250 435
255 415
255 425
260 79
260 405
265 395
270 82
273 388
278 378
279 87
284 370
289 91
292 364
298 96
300 355
305 345
308 99
315 345
318 99
324 422
324 432
325 345
328 99
329 441
332 414
335 345
338 99
339 445
342 409
344 387
344 397
345 345
348 99
349 377
349 445
354 350
354 360
358 99
358 450
367 455
368 100
376 460
378 104
384 452
388 104
390 415
390 425
390 435
397 109
398 408
400 390
405 375
407 109
410 365
416 114
419 370
424 379
424 447
424 457
425 119
426 389
429 399
429 412
432 439
432 464
433 125
434 421
442 130
442 465
447 139
452 465
455 145
460 154
460 320
460 330
460 340
460 350
461 460
462 360
465 280
465 290
465 300
465 310
465 370
467 380
468 160
470 270
470 390
471 460
472 170
475 180
475 190
475 399
476 278
479 452
480 199
480 209
480 219
480 229
480 408
480 418
484 285
485 238
485 248
485 258
485 427
485 437
487 295
490 267
494 277
495 302
502 284
504 307
511 289
514 272
514 305
522 264
522 299
527 289
529 272
