24 77
24 87
29 57
29 67
29 96
29 106
29 116
34 47
34 125
37 135
42 39
44 143
49 152
49 187
50 31
54 161
54 196
58 24
59 186
61 169
61 204
65 70
67 19
67 80
69 175
69 189
69 210
70 90
73 63
75 99
77 19
78 180
78 215
79 55
80 108
85 25
85 35
85 45
85 117
87 220
92 229
93 124
100 235
102 129
109 240
111 134
119 240
121 134
129 240
131 134
134 552
134 562
138 245
139 542
139 571
140 139
146 579
147 250
147 534
150 139
154 258
154 517
156 580
159 134
159 267
159 487
159 497
159 507
164 472
166 580
167 274
169 134
169 457
174 282
174 442
176 580
179 134
179 427
184 285
184 407
184 417
186 580
188 129
189 342
189 392
190 293
194 317
194 327
194 351
194 361
194 371
194 381
196 580
198 129
198 300
206 580
208 129
215 575
217 124
224 570
225 520
225 530
227 124
227 540
230 505
230 550
230 560
235 495
236 129
240 480
244 136
245 470
249 567
249 577
249 587
250 144
251 478
254 488
254 498
257 559
258 150
259 507
259 517
259 590
262 549
264 526
267 155
267 539
268 595
277 159
277 600
287 159
287 600
297 159
297 600
307 159
307 600
317 159
317 599
320 420
320 430
320 440
325 449
325 459
325 469
326 164
327 595
329 425
330 478
330 488
335 497
336 164
337 594
338 430
339 507
340 517
340 527
340 537
340 547
340 557
340 567
345 169
345 576
345 586
348 430
354 174
354 542
358 430
359 517
359 527
359 551
363 179
364 487
364 497
364 507
364 560
367 435
369 467
369 477
370 187
370 197
373 565
374 452
377 435
379 202
383 565
389 204
393 565
399 204
403 565
409 204
413 563
419 204
423 558
429 204
430 525
430 535
430 545
435 515
438 209
440 485
440 495
440 505
445 470
448 209
454 465
457 214
463 470
466 219
472 475
475 224
480 482
483 230
490 238
490 485
495 247
499 490
499 537
499 547
499 557
504 252
504 527
507 564
508 495
509 261
512 519
514 503
515 269
517 565
523 275
525 400
527 569
530 283
530 409
535 292
535 395
535 418
537 570
540 385
542 300
543 425
547 435
547 570
548 378
550 307
550 317
550 365
555 326
555 336
555 346
555 356
555 442
557 570
559 452
566 565
567 459
574 467
576 565
579 476
585 484
585 494
585 504
585 514
585 560
590 523
590 533
593 553
595 542
