69 772
69 782
69 792
69 802
69 812
69 822
74 747
74 757
74 831
74 841
74 851
79 737
79 860
82 870
84 727
87 879
92 719
94 887
97 709
99 896
104 905
105 701
110 913
113 694
115 922
122 930
123 694
124 940
129 949
133 694
134 447
134 457
134 467
134 477
134 487
134 497
134 507
134 517
134 527
134 537
134 547
134 557
134 567
134 577
134 587
134 597
134 607
134 617
134 627
134 637
134 647
134 657
134 667
134 677
134 958
135 968
139 422
139 432
143 975
144 412
149 402
149 983
154 382
154 392
154 992
159 372
160 1000
164 362
169 342
169 352
169 1005
175 1013
177 334
182 324
185 1015
187 314
194 302
194 1020
199 292
203 1025
204 282
209 272
212 1030
217 264
219 1038
220 1048
225 256
228 1055
230 246
234 1063
235 1073
238 239
243 1080
244 1090
245 231
250 1098
253 224
254 1317
254 1327
254 1337
254 1347
258 1105
259 1115
259 1292
259 1302
262 219
262 1125
262 1354
264 1135
264 1145
264 1155
264 1165
264 1175
264 1185
264 1195
264 1205
264 1215
264 1225
264 1235
264 1245
264 1255
264 1265
264 1275
269 1362
270 211
274 1371
279 1380
279 1390
280 206
285 1398
289 1408
290 201
294 1417
299 1426
299 1436
300 196
304 1445
310 191
310 1453
318 1460
320 186
325 1468
328 179
333 1475
335 171
340 1483
343 164
348 1490
350 156
355 1498
360 154
363 1505
369 149
372 1510
378 144
379 1518
384 1527
388 144
392 1534
397 139
399 1542
407 134
409 1545
415 1553
417 129
425 1557
427 129
435 1560
436 124
444 1565
445 119
453 1570
454 112
462 1575
464 109
472 1575
474 107
482 1579
484 102
491 1584
494 97
501 1588
504 94
511 1590
513 89
521 1593
523 89
531 1590
533 89
540 1585
543 89
549 1580
553 89
559 1577
563 89
569 1572
573 89
579 1567
583 89
587 1560
593 89
596 1555
602 94
605 1550
611 99
615 1545
621 99
623 1538
630 1530
631 99
640 104
640 1525
649 1520
650 104
657 1514
659 109
665 1505
667 115
675 1500
677 119
684 127
685 1495
692 134
693 1488
695 144
700 153
703 1483
708 159
710 1475
718 159
720 1470
728 159
730 1465
738 159
740 1460
748 159
748 1453
755 1445
758 159
763 1438
768 159
768 1428
773 1418
777 164
778 1408
780 1395
785 1385
786 169
790 1370
795 174
798 1363
800 1340
800 1350
804 179
805 1320
805 1330
810 1280
810 1290
810 1300
810 1310
814 181
815 1260
815 1270
820 189
820 1205
820 1215
820 1225
820 1235
820 1245
828 195
828 1198
835 203
835 1190
843 209
843 1183
848 1173
852 214
853 1163
858 1153
861 219
865 1145
870 224
870 1130
875 1115
878 230
880 1090
880 1100
885 238
885 1025
885 1035
885 1045
885 1055
885 1065
885 1075
890 1010
893 245
898 1003
900 253
903 993
905 262
905 272
910 985
912 280
917 289
919 980
924 297
925 307
927 974
929 317
930 327
930 337
935 346
935 356
935 965
940 365
940 375
940 385
940 395
940 405
940 415
940 425
940 435
940 445
940 455
940 465
940 475
940 485
940 495
940 505
940 515
940 525
940 535
940 545
940 950
945 554
945 564
945 574
945 584
945 594
945 604
945 614
945 624
945 634
945 644
945 654
945 664
945 674
945 684
945 694
945 704
945 714
945 905
945 915
945 925
945 935
950 880
950 890
955 714
955 825
955 835
955 845
955 855
955 865
960 723
960 733
960 743
960 753
960 763
960 773
960 783
960 793
960 803
960 813
