74 317
74 327
79 307
79 336
84 345
87 299
90 353
94 272
94 282
98 360
99 262
104 197
104 207
104 217
104 227
104 237
104 247
104 368
109 187
109 377
114 162
114 172
114 386
119 137
119 147
119 395
122 405
124 122
129 112
129 413
129 423
134 102
134 432
134 442
134 452
142 94
142 459
149 467
150 86
154 476
158 79
159 485
162 69
165 493
169 522
172 64
173 500
174 510
174 531
180 56
181 539
188 49
189 545
195 41
195 553
203 34
203 560
212 29
212 565
220 572
222 24
227 580
232 24
235 587
239 597
242 24
247 604
252 24
254 612
262 24
262 619
266 629
272 24
276 630
281 29
286 630
290 34
295 625
300 34
304 620
310 34
314 617
318 40
322 609
325 48
330 600
333 54
339 595
342 49
347 589
352 44
355 580
362 44
363 573
370 565
372 44
379 560
382 44
387 554
390 540
391 49
395 530
400 54
400 480
400 490
400 500
400 510
400 520
405 465
408 60
410 455
415 68
415 440
420 415
420 425
423 75
425 405
427 85
430 95
435 104
435 400
440 113
440 123
440 390
445 132
448 383
450 141
450 151
450 365
453 161
455 171
455 181
455 191
455 201
455 211
455 221
455 231
455 241
455 251
455 261
455 271
455 340
455 350
461 279
463 333
465 289
468 323
470 298
470 308
