74 317
74 327
79 307
79 336
84 345
87 299
90 353
96 294
98 360
104 197
104 207
104 217
104 227
104 237
104 247
104 257
104 267
104 368
106 294
109 187
109 276
109 377
109 387
114 162
114 172
114 396
119 137
119 147
119 405
124 122
125 413
129 112
133 420
134 102
139 428
139 438
139 448
142 94
144 457
149 466
150 86
154 475
157 485
158 79
162 69
165 492
172 64
172 500
174 510
174 520
177 530
180 56
182 539
188 49
189 547
195 41
197 554
203 34
206 559
212 29
214 565
220 573
222 24
228 580
232 24
235 588
242 24
243 595
247 605
252 24
255 612
259 622
262 24
269 625
272 24
278 630
281 29
288 630
290 34
297 625
300 34
306 620
310 34
314 612
318 40
322 605
325 48
331 600
333 54
339 592
342 49
349 587
352 44
357 579
362 44
365 570
372 44
373 563
380 555
382 44
388 548
391 49
395 530
395 540
400 54
400 480
400 490
400 500
400 510
400 520
405 470
408 60
410 460
415 68
415 445
420 410
420 420
420 430
423 75
427 85
428 403
430 95
435 104
435 114
435 124
435 180
435 190
435 200
437 210
438 398
440 133
440 143
440 153
440 163
440 220
440 230
440 240
440 250
442 260
443 388
447 269
448 378
450 355
450 365
455 345
456 274
460 330
464 281
465 320
470 289
470 299
470 309
