249 807
249 817
249 827
254 797
254 836
254 846
261 854
262 789
264 864
267 779
269 873
270 883
272 769
274 893
279 902
281 774
284 911
284 921
289 930
290 779
294 522
294 532
294 542
294 552
294 562
294 572
294 582
294 592
294 602
294 612
294 622
294 632
294 642
294 652
294 662
294 672
294 682
294 692
294 939
296 949
299 507
299 701
299 711
299 721
299 959
300 782
301 969
304 487
304 497
304 730
304 740
304 979
307 750
309 477
309 787
309 988
312 759
314 462
314 997
316 769
319 442
319 452
319 779
319 789
320 1005
324 417
324 427
324 1015
329 387
329 397
329 407
330 1023
334 357
334 367
334 377
338 1030
339 342
342 1040
344 332
349 322
350 1047
354 312
357 1055
359 302
367 294
367 1059
374 282
375 1065
382 274
384 1070
384 1080
384 1090
384 1100
384 1110
384 1120
384 1130
384 1140
384 1150
387 1160
389 1170
390 266
395 256
395 1178
400 246
400 1187
404 1197
408 239
412 1204
415 231
416 1214
421 1223
423 224
429 1230
430 216
438 209
438 1235
442 1245
445 201
451 1250
453 194
454 1307
454 1317
454 1327
454 1337
454 1347
454 1357
454 1367
454 1377
459 1256
459 1282
459 1292
459 1386
460 186
464 1265
464 1395
467 1405
468 179
472 1414
475 171
479 1422
483 164
487 1429
490 156
494 1437
498 149
502 1444
505 141
509 1452
513 134
517 1459
522 129
524 1467
530 121
532 1474
539 1482
540 116
547 1489
550 111
555 1495
560 106
564 1500
570 104
570 1508
578 1515
579 99
585 1523
589 99
593 1530
599 97
602 1535
609 94
612 1539
619 94
619 1547
627 1554
629 94
636 1559
639 94
644 1565
649 94
653 1570
659 94
660 1578
669 94
670 1580
679 94
679 1585
685 1593
689 96
695 1597
699 99
705 1600
709 101
715 1600
718 106
725 1600
728 109
734 1595
737 114
744 1592
746 119
754 1590
756 119
764 1587
765 124
772 1580
775 124
782 1579
784 129
792 1574
793 134
802 139
802 1570
809 147
811 1565
819 151
820 1560
825 159
828 1553
833 165
835 1545
837 175
845 1540
847 179
855 171
855 1535
863 164
865 1530
872 159
873 1523
879 1515
882 154
888 1510
892 154
895 1500
901 149
903 1493
910 144
910 1485
918 1478
920 144
923 1468
930 144
930 1460
935 1450
940 144
943 1443
950 144
950 1430
958 1423
960 147
963 1413
970 149
970 1400
975 1390
980 152
983 1383
988 1373
989 157
990 1355
998 1348
999 161
1000 1335
1005 169
1005 1315
1005 1325
1010 1200
1010 1210
1010 1220
1010 1230
1010 1240
1010 1250
1010 1260
1010 1270
1010 1280
1010 1290
1010 1300
1014 174
1015 1185
1020 1175
1022 180
1028 1168
1030 187
1033 1158
1035 196
1035 1145
1041 204
1043 1138
1048 1128
1049 211
1050 1115
1053 221
1055 1090
1055 1100
1060 229
1060 1065
1060 1075
1065 238
1065 1010
1065 1020
1065 1030
1065 1040
1065 1050
1070 247
1075 256
1075 1010
1081 264
1085 274
1085 1010
1090 283
1095 292
1095 302
1095 312
1095 1010
1100 321
1100 331
1100 341
1100 351
1100 470
1100 480
1100 490
1100 500
1100 510
1100 520
1100 530
1100 540
1100 550
1100 560
1100 570
1100 1000
1102 580
1105 360
1105 370
1105 380
1105 390
1105 400
1105 410
1105 420
1105 430
1105 440
1105 450
1105 460
1105 590
1105 600
1105 610
1105 620
1105 630
1105 640
1105 650
1105 660
1105 670
1110 679
1110 689
1110 990
1115 698
1115 980
1120 970
1123 704
1128 963
1130 940
1130 950
1133 704
1135 905
1135 915
1135 925
1140 805
1140 815
1140 825
1140 835
1140 845
1140 855
1140 865
1140 875
1140 885
1140 895
1143 705
1145 770
1145 780
1145 790
1147 715
1150 740
1150 750
1150 760
1155 722
