174 162
179 152
179 171
187 144
189 170
195 136
198 165
204 173
204 247
204 262
204 272
204 282
204 292
204 302
205 131
209 182
209 232
209 311
214 191
214 207
214 217
214 402
214 412
214 432
214 447
215 126
219 312
219 377
219 387
219 421
222 454
223 119
224 347
224 362
227 305
229 315
229 325
229 335
232 114
232 454
240 445
242 109
248 438
252 104
254 446
254 462
259 471
259 492
262 99
264 480
264 501
269 510
269 520
272 99
274 529
274 542
281 94
282 549
289 557
291 90
297 564
301 89
306 569
311 89
316 570
320 84
325 575
330 84
335 575
340 84
345 577
350 84
355 577
360 84
365 575
370 84
375 570
380 87
385 570
390 87
395 565
400 89
404 560
410 92
412 554
420 94
420 535
420 545
425 520
429 99
430 500
430 510
435 470
435 480
435 490
438 104
440 240
440 445
440 455
442 250
445 420
445 430
448 105
449 235
450 257
450 410
454 267
455 400
457 110
457 229
459 276
460 385
463 286
465 296
465 310
465 360
465 370
467 114
467 224
470 319
470 329
470 339
470 349
472 214
474 122
482 129
482 210
489 137
491 215
494 146
495 156
500 220
501 164
509 171
509 225
515 179
518 230
523 185
527 235
530 193
535 202
536 240
542 210
544 246
550 217
550 227
554 245
