170 64
170 74
170 126
170 136
172 84
172 94
172 104
172 114
180 64
180 139
188 70
188 133
194 78
194 125
202 118
202 131
204 72
204 141
208 62
210 149
213 53
220 147
221 46
228 141
230 51
232 170
233 180
236 158
238 143
239 45
243 179
245 37
251 172
253 29
257 164
261 23
263 156
271 20
272 161
275 30
277 170
279 46
282 56
282 179
292 58
292 181
293 146
294 156
295 166
300 64
302 141
310 68
310 135
320 72
320 131
325 81
325 122
329 91
329 110
