19 62
19 72
19 82
27 89
29 64
34 97
34 217
34 227
38 69
39 106
39 207
44 115
44 197
44 230
47 64
47 125
49 182
54 72
54 133
54 152
54 162
54 172
54 230
63 225
64 74
72 220
73 79
81 215
82 84
91 89
91 215
99 96
99 207
107 200
109 99
115 190
118 104
125 185
127 109
135 180
136 114
143 173
146 114
153 170
156 114
163 170
164 107
172 99
173 170
182 94
183 170
184 47
184 62
187 84
189 71
192 175
194 46
194 185
197 195
204 46
205 202
209 212
209 222
210 54
214 231
219 59
221 239
228 64
231 235
235 72
240 230
244 77
248 223
254 79
255 215
264 79
265 205
273 198
274 79
283 195
284 79
293 195
294 77
303 195
304 74
309 62
313 195
314 42
314 52
322 34
323 195
324 22
333 195
334 19
343 195
344 16
350 24
353 195
355 33
360 42
363 195
364 52
369 61
373 195
374 205
375 69
379 214
379 224
381 234
385 69
389 240
395 69
395 248
403 255
405 69
412 250
415 72
421 245
423 79
425 230
430 215
432 74
438 208
442 74
443 198
450 190
451 79
460 190
461 79
470 190
471 79
480 190
481 79
490 185
491 79
500 185
501 79
510 84
510 185
519 180
520 84
529 180
530 84
539 89
539 180
548 175
549 89
558 94
558 175
567 170
568 94
577 99
577 174
585 165
586 104
595 160
596 104
605 109
605 160
615 112
615 160
620 150
624 117
628 143
630 125
