94 66
94 132
96 76
98 120
99 86
100 96
100 106
102 139
104 62
112 139
114 65
122 135
124 69
131 130
133 74
140 125
143 78
148 119
151 84
158 117
161 79
162 127
166 137
167 71
170 147
173 63
180 149
181 55
189 49
190 149
199 46
200 147
208 141
209 50
218 142
219 54
228 143
229 51
237 44
238 143
247 39
248 145
256 34
258 145
258 158
258 168
260 178
264 28
269 183
274 26
279 178
284 22
289 179
294 20
299 182
301 28
306 37
307 176
313 45
313 168
318 54
318 159
321 148
328 56
331 147
338 60
341 143
348 64
351 139
358 67
361 135
368 70
371 131
377 75
381 126
386 80
389 118
394 86
395 110
403 91
403 102
