4 117
4 127
4 137
9 146
9 232
9 242
12 109
14 155
14 165
14 175
14 185
14 195
14 205
14 215
15 250
21 114
25 250
31 114
35 250
41 114
45 250
50 119
55 250
60 122
65 250
70 124
74 245
79 129
84 245
89 129
93 240
99 131
102 235
109 134
112 234
119 134
122 229
128 139
132 225
138 139
141 220
148 139
151 220
157 144
160 215
167 144
170 210
177 144
180 210
187 144
190 210
197 144
199 112
199 122
200 210
207 104
207 129
207 144
210 210
215 135
216 99
220 210
226 95
229 215
229 242
229 252
234 261
236 90
237 234
239 215
239 270
244 279
245 226
246 85
246 289
249 299
255 307
256 84
262 315
265 79
271 310
274 74
280 305
284 72
288 298
294 69
295 285
303 278
304 67
310 270
314 64
315 260
323 59
323 253
332 54
333 255
342 54
343 255
351 49
353 255
361 49
362 260
370 44
372 260
380 44
382 260
390 44
392 260
400 44
402 264
410 44
412 265
419 49
422 265
428 54
432 265
437 59
442 265
444 67
452 74
452 265
459 82
462 265
469 84
472 265
479 84
482 265
489 82
492 265
494 62
497 74
499 42
502 265
504 51
509 39
512 265
514 22
519 12
522 265
529 9
532 265
539 9
542 264
549 6
552 260
553 16
560 24
562 260
570 27
572 260
577 35
579 297
579 307
579 317
579 327
579 337
582 260
584 282
584 346
585 42
589 52
589 355
592 260
592 274
594 61
597 349
598 71
600 266
602 339
605 79
610 325
614 84
615 315
620 305
624 84
625 295
630 280
634 84
635 265
640 250
644 84
650 250
654 86
660 245
664 89
670 245
674 89
679 240
684 89
689 240
693 94
698 235
703 94
708 233
713 95
718 230
723 99
727 225
733 99
737 225
742 104
746 220
752 104
756 220
762 104
765 215
771 109
774 210
781 109
784 207
790 114
794 205
800 114
803 200
809 119
813 198
818 124
823 193
827 129
833 188
836 134
840 145
840 155
843 183
850 154
850 175
860 154
860 170
