78 92
81 102
87 87
89 109
96 82
96 117
104 123
106 78
112 129
116 74
122 133
125 69
132 136
135 66
142 140
145 62
152 144
155 59
162 147
165 56
172 147
175 54
178 155
180 38
183 164
189 172
190 32
195 23
197 179
205 25
207 183
215 24
217 181
225 28
227 180
230 145
233 155
233 165
235 30
240 145
244 35
250 145
253 40
260 143
262 45
270 143
271 50
279 56
280 143
289 52
290 141
299 48
300 144
309 46
310 147
319 50
320 149
327 56
330 149
335 62
340 145
342 70
345 134
348 78
349 118
356 84
359 117
366 80
369 121
376 76
377 127
386 72
386 132
396 68
396 136
406 64
406 139
416 62
416 99
416 139
417 86
417 109
419 119
421 72
421 129
