4 347
4 372
9 317
9 327
9 337
9 356
9 381
9 392
14 277
14 287
14 297
14 307
15 400
19 410
24 274
24 419
26 429
31 438
34 272
35 448
43 455
44 269
44 465
47 475
54 271
57 475
62 484
64 274
72 485
74 274
82 485
84 276
92 485
94 276
102 484
104 279
112 480
114 281
121 475
124 284
130 470
134 286
140 465
144 289
150 465
153 294
159 460
163 295
168 455
173 299
177 450
182 304
187 450
192 304
197 449
202 304
207 449
211 309
215 440
220 314
225 440
230 314
234 435
239 319
243 430
249 321
253 428
259 324
263 425
268 329
272 420
278 329
281 415
288 329
291 415
297 324
301 415
307 324
311 415
317 324
320 410
324 262
324 272
324 282
327 319
329 242
329 252
330 410
334 285
337 234
337 319
340 410
343 290
345 226
347 319
350 410
353 219
353 290
357 319
359 207
360 410
363 290
366 314
367 199
370 410
373 290
374 452
376 314
377 194
379 461
379 471
380 410
382 295
382 444
384 480
386 310
387 189
389 489
390 410
390 436
391 499
392 295
396 309
397 184
400 410
400 431
401 300
401 503
406 179
406 309
409 509
410 410
410 426
411 519
414 172
418 419
421 520
423 410
424 167
429 526
434 164
434 535
443 159
444 535
452 154
453 540
462 154
463 540
470 548
471 149
480 144
480 545
490 144
490 547
499 552
500 141
509 552
510 136
519 550
520 134
529 129
529 550
539 127
539 552
549 124
549 550
558 555
559 124
568 553
569 124
578 550
579 124
587 555
589 124
597 554
598 119
607 124
607 550
617 124
617 549
627 124
627 545
637 124
637 545
647 124
647 544
652 535
657 124
662 535
667 124
672 534
677 124
682 530
687 124
692 529
697 124
700 520
706 129
710 515
714 136
718 508
723 141
725 500
733 145
733 493
740 153
740 485
745 475
750 157
750 465
759 162
759 470
767 169
769 470
776 174
779 470
780 184
782 480
790 187
790 487
797 195
800 485
807 199
810 487
816 194
819 127
819 492
824 136
824 157
824 167
826 194
827 119
827 499
829 145
829 176
831 509
834 102
839 92
839 515
844 77
848 510
852 69
858 510
860 61
865 51
867 515
869 525
875 46
875 533
884 527
885 47
894 42
894 522
902 34
904 520
912 34
913 525
922 29
923 525
927 535
932 24
937 14
937 534
947 14
947 529
955 520
956 19
964 525
965 14
970 533
974 7
979 527
979 617
984 6
984 626
987 520
989 612
990 14
994 562
994 572
994 602
994 622
995 527
999 611
1000 17
1002 594
1004 27
1004 522
1004 552
1004 575
1009 584
1009 607
1009 622
1010 35
1012 515
1012 544
1013 570
1015 44
1015 630
1017 534
1017 600
1019 620
1020 53
1020 610
1022 515
1024 525
1028 60
1030 610
1032 70
1035 600
1037 79
1040 89
1043 593
1045 98
1050 107
1050 580
1054 117
1058 573
1059 126
1060 136
1060 560
1063 146
1065 550
1069 154
1070 535
1075 525
1079 156
1080 500
1080 510
1088 493
1089 159
1095 485
1099 152
1105 475
1107 144
1110 465
1117 144
1119 460
1126 149
1128 455
1135 154
1138 453
1144 159
1148 450
1154 159
1158 450
1164 159
1168 450
1174 159
1178 450
1182 165
1187 174
1188 450
1194 182
1198 450
1199 191
1205 199
1208 448
1214 192
1218 445
1222 184
1228 445
1232 184
1238 445
1239 192
1247 199
1247 440
1256 204
1257 440
1265 209
1266 435
1274 214
1276 435
1282 220
1285 430
1292 224
1295 430
1299 232
1304 241
1305 430
1310 249
1315 258
1315 425
1325 259
1325 425
1335 262
1335 425
1343 269
1345 425
1352 274
1355 284
1355 425
1364 289
1365 420
1372 295
1375 415
1380 302
1384 312
1385 415
1390 320
1390 330
1395 339
1395 415
1403 345
1403 408
1407 355
1410 395
1415 362
1415 372
1415 382
