24 27
24 37
29 46
29 56
34 24
36 64
41 73
44 26
45 83
49 93
53 31
54 102
59 111
60 39
64 120
68 45
69 129
74 138
77 50
79 147
85 57
87 154
94 62
94 162
99 171
102 69
106 179
111 74
111 188
119 81
119 195
124 204
125 89
130 212
134 94
134 267
137 220
139 257
139 276
142 100
142 229
144 285
147 249
149 237
150 107
150 293
157 115
160 297
165 122
170 300
172 130
180 137
180 300
185 280
185 290
187 145
195 152
195 282
199 162
199 292
207 169
209 295
214 177
215 303
222 184
223 310
229 318
231 189
234 327
241 189
244 330
250 194
250 338
255 347
259 357
259 367
259 377
260 194
265 250
265 385
270 197
273 243
273 256
274 390
278 233
278 265
279 202
282 275
283 223
284 390
285 210
290 282
294 292
294 390
302 299
304 390
309 307
314 316
314 390
320 324
323 395
325 333
329 403
333 340
334 412
334 422
337 350
339 431
344 440
344 450
345 357
349 459
350 375
352 365
354 468
355 384
355 478
360 393
363 485
368 400
372 490
377 405
379 482
380 470
382 414
385 460
391 419
394 455
400 424
404 455
410 427
413 460
418 434
423 460
427 439
432 465
436 444
442 465
445 449
452 464
