14 327
14 337
24 322
24 340
33 345
34 319
40 353
43 314
50 357
53 314
59 362
62 309
69 365
72 309
78 370
81 304
88 370
91 304
97 375
101 304
107 379
111 300
117 380
121 299
127 380
131 299
137 380
141 299
147 380
151 299
157 380
161 295
167 380
171 294
176 385
181 294
181 394
186 403
191 294
194 410
197 420
201 294
202 429
211 294
212 430
220 420
221 294
225 410
230 400
231 294
238 393
241 294
245 385
251 294
255 385
260 299
265 385
270 299
275 385
280 299
285 385
290 299
295 385
300 299
305 385
310 299
314 380
319 304
324 380
329 304
330 388
339 306
340 392
349 309
350 395
358 314
360 390
368 314
370 385
378 314
380 380
388 314
390 370
397 309
400 370
407 304
410 370
417 299
420 372
427 299
429 377
430 309
430 319
439 324
439 380
448 329
449 380
458 330
458 375
467 370
468 334
477 370
478 334
487 370
488 334
497 370
498 334
507 370
508 334
516 375
517 329
524 381
527 324
531 389
537 324
541 393
547 324
551 395
556 319
559 387
564 377
566 319
572 369
576 315
582 364
586 314
590 355
596 314
600 350
606 310
610 350
616 309
619 345
626 309
629 342
636 305
639 337
646 304
649 335
656 304
659 332
666 304
669 330
676 304
679 330
686 304
689 330
696 304
699 330
705 309
708 325
713 315
