24 342
24 352
24 362
32 334
32 369
40 326
40 375
46 383
48 319
56 385
57 314
65 390
67 314
75 392
77 314
85 395
86 309
94 400
95 304
104 400
105 304
113 405
114 299
123 405
124 299
133 405
134 297
143 405
144 294
152 410
154 294
162 410
164 292
172 410
174 289
181 415
184 289
191 415
194 289
201 415
204 289
210 420
214 289
220 420
224 289
230 420
234 289
239 425
244 289
248 430
253 284
257 435
263 284
265 442
272 450
273 284
282 454
283 284
289 462
292 279
299 465
302 274
309 462
312 269
314 452
322 269
324 447
330 435
332 269
339 277
339 430
347 424
349 281
355 289
357 420
365 289
366 415
375 292
376 415
385 294
386 415
395 294
396 415
405 297
405 410
415 296
415 410
424 405
425 294
434 289
434 405
444 287
444 405
454 284
454 405
463 289
464 405
473 290
473 400
482 295
483 400
492 299
493 398
501 304
503 395
510 309
513 393
520 312
523 390
530 314
533 390
540 317
542 385
549 322
552 385
557 329
562 385
567 329
572 385
577 329
582 385
587 329
592 389
596 324
602 390
606 320
611 395
616 319
621 398
625 314
630 403
635 314
640 405
644 309
650 405
654 307
655 355
657 365
660 345
660 407
662 374
664 304
665 335
670 380
670 410
673 328
674 302
675 315
675 389
680 398
680 410
683 308
