14 372
19 381
24 367
29 385
34 364
38 390
43 359
48 390
52 354
57 395
62 354
67 395
71 349
77 395
80 344
87 395
90 344
97 399
99 339
107 400
109 339
117 400
119 337
127 400
129 334
135 407
139 334
142 415
147 424
149 332
154 432
159 329
159 441
164 450
169 329
170 458
179 329
180 455
185 440
188 324
190 430
195 420
197 319
200 410
207 314
210 410
215 306
220 410
223 299
230 291
230 410
238 284
240 410
245 276
250 410
253 269
260 410
262 264
270 270
270 410
272 280
275 290
277 300
279 405
282 309
289 317
289 405
295 325
299 405
305 329
309 405
314 334
318 410
324 334
325 418
333 425
334 334
343 425
344 334
350 415
353 339
359 410
363 339
367 404
373 339
377 400
383 340
387 400
393 344
397 400
403 344
407 399
412 349
417 395
422 349
427 395
432 344
436 400
442 339
446 400
451 334
455 405
460 329
464 410
469 324
474 407
475 332
479 342
484 351
484 402
490 359
494 397
499 364
504 395
509 364
514 395
519 364
524 395
529 364
534 395
539 364
543 400
549 364
553 400
559 364
562 405
568 359
572 409
578 359
582 410
587 354
592 409
597 349
600 400
607 349
608 393
615 385
616 344
625 385
626 340
634 380
636 339
643 375
646 339
652 370
655 334
661 365
665 334
671 365
675 334
681 365
684 329
690 355
694 329
699 350
703 334
707 344
