39 217
39 227
39 237
47 209
47 244
55 201
56 249
65 196
66 253
74 260
75 194
83 265
84 187
89 177
90 273
94 157
94 167
100 277
102 149
107 285
110 141
117 289
118 134
125 126
126 294
133 119
134 300
140 308
142 114
148 315
150 106
157 320
158 99
162 329
164 339
166 349
167 94
174 355
176 89
180 363
184 82
190 367
192 74
199 372
200 66
207 379
210 61
215 385
218 54
224 390
227 49
230 398
237 44
240 402
246 39
247 410
255 34
257 410
265 34
266 415
275 31
275 420
285 29
285 422
295 29
295 425
304 24
304 430
314 24
314 430
324 24
324 430
334 24
334 430
344 24
344 430
354 24
354 430
363 425
364 24
372 420
373 29
382 419
383 29
392 414
393 30
400 38
400 405
408 44
408 398
417 49
418 393
424 57
428 388
432 64
438 383
441 69
445 375
449 76
455 84
455 370
464 89
465 370
472 95
473 363
482 99
483 358
489 107
493 353
494 116
500 345
503 121
508 338
510 129
515 138
518 333
523 145
525 325
530 153
533 318
535 162
538 308
540 171
543 298
545 180
548 288
550 189
555 198
558 283
563 205
568 280
573 209
577 285
583 209
587 289
592 204
597 290
601 199
607 290
610 194
617 294
620 191
626 299
630 186
636 300
640 184
645 305
649 179
655 307
658 174
665 310
668 174
675 310
677 169
685 310
686 174
690 184
695 193
695 300
700 202
700 212
700 290
705 221
705 275
710 230
710 240
710 250
710 260
