134 387
134 397
134 407
134 417
134 432
134 442
134 452
134 462
134 472
134 482
139 377
142 489
144 367
146 499
149 302
149 357
151 508
154 292
154 342
155 310
159 282
159 332
161 510
164 272
164 315
169 262
170 515
179 257
180 515
184 247
189 520
192 239
199 517
202 239
207 229
207 524
216 224
217 520
225 219
227 520
234 214
237 524
243 209
247 524
252 204
256 529
261 199
266 530
269 192
276 530
279 187
285 525
289 187
294 520
299 182
300 528
308 535
309 177
318 535
319 174
327 540
328 179
332 549
335 171
339 557
345 166
349 560
351 174
358 565
360 169
365 525
367 570
370 167
370 534
370 555
374 520
375 564
378 540
380 169
380 555
383 525
389 164
390 552
393 525
399 166
402 520
409 169
412 520
419 171
421 515
429 169
431 515
439 169
440 510
445 177
445 500
454 505
455 174
464 502
465 174
474 179
474 497
484 181
484 492
492 485
494 184
501 480
504 186
505 255
509 472
513 248
514 189
515 235
515 259
515 460
520 197
520 215
520 225
523 250
525 206
525 455
533 249
533 448
535 320
535 330
537 239
538 438
539 227
545 320
545 334
545 430
549 217
549 227
554 207
555 310
555 334
555 415
555 425
560 405
564 202
564 315
564 339
569 192
570 395
574 315
574 336
578 388
579 177
579 187
580 344
580 370
584 312
587 169
590 347
590 365
594 310
595 161
595 356
604 307
605 159
611 150
614 307
620 180
620 190
620 200
620 210
621 145
624 307
625 170
625 219
630 228
630 238
631 140
632 300
633 163
635 247
638 153
640 307
641 139
644 252
648 148
649 302
650 260
658 266
659 302
668 270
669 300
673 279
679 297
682 274
689 295
692 274
699 292
702 274
709 287
712 274
720 280
