19 207
19 217
19 227
24 192
24 236
31 244
32 184
34 172
39 250
42 164
45 258
49 152
54 137
55 260
64 132
64 265
67 275
72 124
77 279
80 116
84 287
88 109
94 290
97 104
100 298
105 96
110 302
113 89
117 79
117 310
125 71
125 317
130 61
135 320
138 54
141 328
144 338
145 348
147 49
149 358
150 368
155 377
156 44
159 387
165 39
167 394
174 34
177 395
183 29
185 370
185 380
190 330
190 360
192 24
192 340
195 350
198 323
201 19
208 320
211 19
218 320
221 19
228 320
231 19
235 328
241 19
245 332
251 19
254 337
261 19
262 344
269 352
270 24
277 359
280 24
287 360
290 22
297 360
300 24
306 365
310 24
316 365
320 24
326 365
330 24
336 365
339 29
345 360
348 34
354 355
358 34
364 352
367 39
372 344
376 44
382 340
385 49
390 330
395 52
400 330
402 60
410 67
410 330
417 75
420 325
427 79
430 89
430 320
440 92
440 320
447 100
448 313
452 109
455 305
460 115
460 180
462 190
463 298
465 124
465 170
470 155
470 290
472 194
474 129
475 140
479 285
480 149
482 189
489 285
492 189
499 285
500 181
508 175
508 290
517 295
518 174
522 164
522 304
530 310
532 159
540 312
542 154
547 320
552 149
557 324
562 144
565 255
565 265
565 275
567 285
567 325
570 240
572 144
575 200
575 210
575 220
575 230
575 292
575 302
576 330
580 136
580 185
583 309
585 175
586 330
590 136
590 165
590 320
598 158
600 134
608 155
610 134
617 150
620 134
626 145
630 134
