29 487
29 517
29 527
34 467
34 477
34 496
34 506
39 447
39 457
39 525
44 432
44 534
49 417
54 407
54 532
62 524
64 392
64 402
69 382
69 532
77 374
79 527
80 515
84 362
85 505
89 352
93 498
94 337
100 485
102 329
108 478
110 321
115 470
118 314
125 465
128 314
135 460
137 309
140 450
147 309
148 443
157 304
158 438
167 304
168 433
176 299
178 428
184 212
186 295
188 423
189 221
194 209
194 230
194 240
194 289
197 250
198 418
200 281
204 209
205 257
208 274
208 413
214 211
218 408
223 216
225 395
230 224
235 395
240 227
243 388
249 222
250 380
258 373
259 217
268 370
269 214
277 364
278 209
282 199
282 355
291 194
292 355
299 182
302 355
307 174
309 162
309 363
314 372
317 154
319 381
322 144
324 127
326 389
329 399
330 315
332 119
335 324
335 407
337 109
340 305
342 415
343 330
345 101
345 295
351 420
352 335
355 96
355 295
357 344
361 420
364 290
364 352
365 91
369 361
370 280
371 420
375 86
375 270
375 369
380 415
383 79
383 263
383 375
385 405
390 255
390 383
390 393
392 74
398 248
402 69
404 240
410 225
412 69
415 215
420 205
421 64
426 55
428 198
433 188
436 54
438 178
445 49
445 165
450 155
455 46
458 148
465 44
468 143
474 39
475 130
483 123
484 37
493 120
494 34
500 105
503 29
505 39
510 100
514 44
515 54
519 95
524 42
525 54
528 90
530 63
530 75
534 44
538 81
540 64
550 67
