820 386
820 396
820 2266
820 2276
820 2286
824 406
825 376
825 2246
825 2256
825 2295
829 415
830 2236
831 2303
833 369
833 425
835 2206
835 2216
835 2226
838 434
839 2310
840 2191
841 444
843 364
845 454
845 2166
845 2176
846 464
848 2315
850 2156
851 473
853 360
855 483
855 2136
855 2146
858 2315
860 492
860 502
860 2126
863 360
865 511
865 2106
865 2116
868 2315
870 526
870 536
870 2096
872 365
874 546
875 2066
875 2076
878 2089
878 2315
879 555
880 2056
881 370
885 563
885 2026
885 2036
888 2049
888 2315
889 376
890 572
890 582
890 2016
893 386
895 396
895 591
895 1976
895 1986
897 2320
898 2009
899 1996
900 405
900 606
900 616
900 1961
901 415
904 626
905 425
905 1926
905 1936
905 1946
906 435
907 2320
909 635
910 1916
911 444
915 454
915 643
915 1876
915 1886
917 2319
918 1909
919 1896
920 463
920 473
920 652
920 662
920 1866
925 482
925 505
925 671
925 1826
925 1836
927 2314
928 1859
929 1846
930 491
930 514
930 686
930 696
930 1816
934 706
935 523
935 2305
938 1809
939 715
940 532
940 542
940 726
940 736
940 2295
944 746
945 1766
945 1776
945 2285
946 550
948 1804
949 755
949 1786
950 1756
950 2275
954 556
955 585
955 763
955 1706
955 1716
955 2260
958 566
958 1749
959 1726
960 576
960 594
960 772
960 1696
963 2253
964 1735
965 603
965 781
968 1689
968 1745
968 2243
970 612
970 622
970 796
970 806
970 2220
970 2230
974 816
975 1646
975 1656
975 2200
975 2210
976 630
978 1684
979 825
979 1666
980 835
980 1636
980 2150
980 2160
980 2170
980 2180
980 2190
983 845
984 636
984 1675
985 665
985 2125
985 2135
988 646
988 854
988 1629
990 656
990 674
990 864
990 2090
990 2100
990 2110
991 874
995 683
995 705
995 1576
995 1586
995 2060
995 2070
995 2080
996 883
998 1624
999 1596
1000 692
1000 714
1000 893
1000 903
1000 1566
1000 2025
1000 2035
1000 2045
1004 1605
1005 723
1005 912
1005 922
1005 932
1005 1616
1005 2000
1005 2010
1008 1559
1010 732
1010 941
1010 951
1010 961
1010 971
1010 981
1010 991
1010 1001
1010 1011
1010 1021
1010 1031
1010 1980
1010 1990
1014 1041
1015 1516
1015 1526
1015 1965
1016 740
1018 1554
1019 1050
1019 1536
1020 1506
1020 1940
1020 1950
1024 746
1024 1545
1025 775
1025 1058
1025 1920
1025 1930
1028 756
1028 1499
1030 766
1030 784
1030 1905
1035 793
1035 1061
1035 1456
1035 1466
1035 1885
1035 1895
1038 1494
1039 1476
1040 802
1040 812
1040 1446
1040 1865
1040 1875
1044 1485
1045 821
1045 1065
1045 1855
1048 1439
1050 830
1050 840
1050 1840
1055 849
1055 1065
1055 1406
1055 1416
1055 1820
1055 1830
1058 1434
1060 858
1060 868
1060 1396
1060 1805
1064 878
1065 1065
1065 1790
1068 1389
1069 887
1070 1775
1074 896
1074 1070
1075 906
1075 916
1075 1366
1075 1376
1075 1500
1075 1755
1075 1765
1078 926
1080 936
1080 946
1080 956
1080 966
1080 976
1080 986
1080 996
1080 1356
1080 1745
1084 1070
1085 1316
1085 1326
1085 1730
1088 1349
1089 1001
1089 1336
1090 1306
1090 1710
1090 1720
1093 1065
1095 1695
1098 1006
1098 1299
1100 1073
1100 1685
1105 1014
1105 1276
1105 1286
1105 1670
1110 1076
1110 1266
1110 1655
1115 1010
1115 1236
1115 1246
1115 1640
1118 1259
1120 946
1120 956
1120 966
1120 976
1120 986
1120 996
1120 1080
1120 1226
1120 1625
1125 931
1125 1005
1125 1206
1125 1216
1125 1615
1130 921
1130 1075
1130 1196
1130 1605
1135 911
1135 1161
1135 1171
1135 1181
1135 1595
1139 1080
1140 901
1140 1090
1140 1100
1140 1110
1140 1151
1140 1585
1145 1119
1145 1129
1145 1139
1145 1575
1148 894
1150 431
1150 441
1150 451
1150 1565
1155 421
1155 460
1155 886
1155 1555
1160 876
1161 468
1163 414
1163 1548
1165 801
1165 811
1165 821
1165 831
1165 841
1165 851
1165 861
1169 475
1170 766
1170 776
1170 786
1170 1535
1173 409
1175 716
1175 726
1175 736
1175 746
1175 756
1175 1525
1178 480
1180 696
1180 706
1180 1515
1183 405
1185 686
1188 480
1188 1508
1190 490
1190 960
1190 970
1190 1020
1191 980
1191 1030
1193 405
1193 500
1193 679
1193 1498
1195 950
1195 990
1195 1000
1195 1010
1195 1485
1198 509
1198 669
1200 940
1200 1475
1201 1030
1202 410
1203 659
1205 517
1205 930
1205 1465
1209 418
1209 1023
1210 646
1210 1445
1210 1455
1213 923
1214 1013
1215 521
1215 1435
1217 425
1218 639
1219 531
1220 910
1220 1001
1220 1425
1221 435
1223 629
1224 540
1225 445
1225 900
1225 991
1226 455
1228 619
1228 1418
1230 548
1230 890
1230 981
1233 609
1233 1408
1235 810
1235 820
1235 830
1235 840
1235 850
1235 860
1235 870
1235 880
1235 971
1236 459
1238 599
1238 1398
1240 551
1240 775
1240 785
1240 795
1240 961
1243 1388
1244 561
1245 464
1245 586
1245 730
1245 740
1245 750
1245 760
1245 951
1248 1378
1250 576
1250 715
1250 941
1253 470
1255 705
1255 931
1255 1365
1256 480
1260 695
1260 921
1260 1355
1265 685
1265 911
1265 1345
1266 484
1270 901
1270 1050
1273 678
1273 1338
1274 491
1275 891
1275 1040
1278 501
1278 1056
1278 1328
1280 665
1280 881
1280 1030
1283 510
1283 1318
1285 655
1285 871
1285 1020
1285 1064
1288 1308
1290 645
1290 861
1290 1010
1290 1295
1292 515
1293 1070
1295 635
1295 851
1295 1000
1295 1280
1300 625
1300 836
1300 990
1300 1205
1300 1215
1300 1225
1300 1235
1300 1245
1300 1255
1300 1265
1301 520
1302 1075
1305 826
1305 980
1305 1140
1305 1150
1305 1160
1305 1170
1305 1180
1305 1190
1308 618
1309 526
1310 970
1311 1080
1313 608
1313 819
1314 1145
1315 534
1315 960
1318 598
1318 809
1320 543
1320 950
1321 1080
1323 588
1323 799
1323 1150
1325 552
1325 562
1325 572
1325 940
1328 789
1330 930
1331 1080
1333 1150
1335 776
1335 920
1340 910
1341 1084
1343 769
1343 1154
1345 900
1348 759
1350 890
1350 1089
1352 1159
1355 746
1355 880
1360 1090
1362 1160
1363 739
1363 873
1368 863
1370 731
1370 850
1370 1093
1372 1164
1375 721
1375 840
1379 1098
1380 711
1380 830
1381 1169
1388 704
1388 823
1389 1100
1391 1173
1393 813
1395 696
1399 1098
1400 800
1401 1175
1403 689
1404 1088
1408 793
1409 1078
1410 1180
1413 684
1414 1068
1415 785
1418 674
1419 1058
1420 1180
1423 778
1424 1048
1425 661
1428 768
1429 1038
1430 1180
1433 654
1433 758
1434 1028
1439 1175
1440 646
1440 750
1441 1020
1447 1169
1448 639
1448 743
1450 1011
1453 733
1455 631
1455 1001
1455 1155
1459 725
1460 1130
1460 1140
1463 624
1463 994
1465 1110
1465 1120
1467 719
1468 984
1470 616
1470 1100
1475 710
1475 976
1475 1090
1478 610
1480 700
1480 1080
1485 966
1485 1070
1487 605
1488 693
1490 946
1490 956
1490 1060
1495 936
1496 600
1498 688
1500 1055
1503 929
1505 595
1505 680
1508 1048
1510 670
1510 916
1513 1038
1514 590
1515 906
1520 665
1520 896
1520 1025
1523 585
1525 876
1525 886
1525 1015
1529 660
1530 866
1532 580
1535 1010
1538 655
1538 859
1541 575
1543 1003
1547 649
1548 854
1548 993
1550 975
1551 575
1553 844
1555 965
1557 645
1558 834
1560 570
1560 955
1565 826
1567 644
1568 948
1569 565
1575 816
1575 935
1577 639
1578 559
1580 796
1580 806
1580 925
1585 786
1585 905
1585 915
1587 634
1588 554
1590 895
1593 779
1597 629
1598 550
1600 890
1603 774
1607 624
1608 550
1608 764
1608 883
1613 873
1615 756
1617 555
1617 619
1619 865
1625 610
1625 746
1626 560
1627 859
1633 603
1633 739
1634 566
1635 845
1638 576
1638 593
1640 726
1640 825
1640 835
1645 716
1645 815
1653 709
1655 810
1663 704
1663 803
1668 694
1669 795
1675 686
1677 789
1685 676
1685 775
1690 666
1690 765
1698 659
1698 758
1705 745
1708 654
1713 644
1715 740
1718 634
1723 733
1725 626
1729 725
1735 616
1737 719
1743 609
1745 705
1750 601
1750 695
1755 591
1760 690
1763 584
1768 574
1768 683
1773 564
1775 675
1778 554
1783 544
1783 668
1788 534
1790 660
1795 526
1798 653
1805 521
1805 640
1813 633
1815 520
1818 623
1825 523
1825 610
1833 603
1834 528
1838 593
1840 580
1842 535
1845 570
1846 545
1850 555
