19 132
19 167
24 77
25 140
25 175
29 129
29 164
32 69
32 84
34 180
35 140
38 169
39 27
39 129
42 69
42 84
44 145
44 180
47 19
47 34
48 134
48 169
51 74
52 84
54 145
54 180
57 19
57 30
58 134
58 169
61 74
62 85
63 185
64 145
67 19
67 30
67 174
68 134
71 74
71 90
73 185
74 145
77 19
77 30
77 174
78 134
81 74
81 90
82 190
84 145
86 24
86 35
86 179
88 134
90 79
91 93
92 190
93 150
96 24
96 35
96 179
97 139
100 79
101 95
102 190
103 150
106 24
106 38
106 179
107 139
109 84
111 95
112 194
113 150
115 184
116 24
116 40
117 139
119 84
121 95
122 155
122 195
125 29
125 182
126 43
126 144
129 84
131 95
132 155
132 195
135 32
135 181
136 45
136 144
139 84
141 95
142 155
142 195
145 34
145 176
146 48
146 144
149 84
149 163
151 98
151 190
155 37
155 53
155 108
155 139
159 82
159 182
160 117
161 130
164 42
164 58
164 72
165 170
170 160
172 49
175 135
175 145
179 57
180 67
183 128
185 76
189 120
191 84
199 120
201 80
209 120
211 84
219 120
221 84
228 125
231 84
238 125
240 89
247 130
250 89
257 134
259 94
267 134
269 94
276 139
278 99
286 140
287 104
295 145
297 104
305 147
306 109
315 147
316 109
325 114
325 150
334 155
335 117
344 155
345 119
353 160
355 119
363 160
364 124
372 165
374 124
382 165
384 126
391 170
394 129
401 168
404 129
411 170
413 134
420 175
423 134
430 175
433 134
439 180
443 135
449 180
453 135
458 185
463 134
468 185
472 139
477 190
482 139
487 189
492 139
497 190
502 139
507 190
511 144
517 190
521 144
527 190
531 144
537 189
540 149
547 184
548 155
555 163
555 175
