865 321
865 331
865 341
865 351
865 361
865 371
865 381
865 391
865 401
865 411
865 421
865 431
865 441
865 451
865 461
870 291
870 301
870 311
870 470
870 480
870 490
870 500
873 510
875 261
875 271
875 281
875 520
878 530
880 251
880 540
880 550
883 560
885 570
888 244
890 579
890 589
895 598
895 608
898 239
900 617
900 627
905 636
905 646
908 234
910 655
916 663
918 230
920 673
925 682
927 225
930 691
936 699
937 225
941 708
945 718
947 225
953 724
956 230
961 730
964 236
966 739
970 244
974 745
975 253
975 263
975 273
978 755
979 283
980 293
980 303
985 312
985 322
985 763
990 331
990 341
990 351
995 360
995 370
995 380
995 766
999 776
1000 389
1000 399
1000 409
1004 785
1005 418
1005 428
1005 438
1010 447
1010 457
1010 793
1015 466
1015 802
1020 475
1021 485
1023 809
1025 495
1030 504
1030 514
1030 817
1035 523
1038 824
1040 532
1040 542
1045 551
1047 829
1050 560
1050 570
1055 579
1055 589
1055 835
1060 598
1064 608
1064 840
1069 617
1070 627
1073 845
1075 636
1078 646
1078 854
1083 655
1085 306
1085 316
1085 326
1085 336
1085 346
1085 356
1085 366
1085 376
1085 386
1085 396
1085 406
1085 416
1085 426
1085 436
1085 446
1085 456
1085 466
1085 476
1085 862
1086 665
1089 486
1090 296
1090 496
1090 506
1090 516
1090 526
1091 674
1095 535
1095 545
1095 555
1095 684
1095 866
1098 289
1100 564
1100 574
1100 584
1100 594
1100 693
1101 604
1101 874
1104 703
1105 281
1105 614
1109 712
1110 623
1110 633
1110 1511
1110 1521
1110 1531
1110 1541
1110 1551
1110 1561
1110 1571
1110 1581
1110 1591
1110 1601
1110 1611
1110 1686
1110 1696
1110 1706
1110 1716
1110 1726
1110 1736
1110 1746
1110 1756
1110 1766
1110 1776
1110 1786
1110 1796
1110 1806
1110 1816
1110 1826
1110 1836
1110 1846
1110 1856
1110 1866
1110 1876
1110 1886
1110 1896
1110 1906
1110 1916
1110 1926
1110 1936
1110 1946
1110 1956
1110 1966
1110 1976
1110 1986
1110 1996
1110 2006
1110 2016
1110 2081
1110 2091
1110 2101
1111 878
1113 275
1115 642
1115 652
1115 662
1115 720
1115 1501
1115 1620
1115 1630
1115 1640
1115 1650
1115 1660
1115 1670
1115 2025
1115 2035
1115 2071
1115 2110
1120 671
1120 681
1120 691
1120 729
1120 883
1120 1466
1120 1476
1120 1486
1120 2044
1121 2118
1122 270
1123 2064
1125 700
1125 710
1125 738
1125 1456
1125 2053
1128 720
1129 2125
1130 747
1130 886
1130 1386
1130 1396
1130 1406
1130 1416
1130 1426
1130 1436
1130 1446
1132 270
1135 1341
1135 1351
1135 1361
1135 1371
1138 2130
1139 891
1140 1271
1140 1281
1140 1291
1140 1301
1140 1311
1140 1321
1140 1331
1142 270
1145 1251
1145 1261
1148 2130
1149 895
1150 1196
1150 1206
1150 1216
1150 1226
1150 1236
1151 275
1155 1156
1155 1166
1155 1176
1155 1186
1158 2130
1159 895
1160 1136
1160 1146
1161 279
1165 1121
1168 900
1168 2130
1169 286
1170 1096
1170 1106
1173 909
1175 294
1175 1071
1175 1081
1176 919
1178 2130
1180 929
1180 1056
1181 939
1183 300
1185 949
1185 959
1185 969
1185 1031
1185 1041
1186 310
1188 2128
1190 320
1190 978
1190 988
1190 998
1190 1008
1190 1018
1195 329
1195 339
1198 2125
1200 348
1200 358
1204 368
1205 378
1205 388
1208 2125
1209 398
1210 408
1210 418
1210 428
1214 438
1215 448
1215 458
1215 468
1218 2125
1220 477
1220 487
1220 497
1225 506
1225 516
1225 526
1225 536
1225 546
1225 556
1225 566
1228 2125
1230 575
1230 585
1231 595
1235 605
1235 615
1236 625
1238 2125
1241 634
1245 644
1247 2120
1250 653
1254 663
1255 673
1257 2119
1260 682
1265 691
1267 2115
1268 701
1270 711
1273 721
1275 731
1275 741
1275 751
1276 2110
1285 741
1285 2105
1293 734
1295 2100
1298 724
1300 711
1303 2093
1305 696
1310 686
1310 2085
1315 671
1318 2078
1320 646
1320 656
1325 621
1325 631
1325 2065
1330 591
1330 601
1330 611
1333 2058
1335 466
1335 476
1335 486
1335 496
1335 506
1335 516
1335 526
1335 536
1335 546
1335 556
1335 566
1335 576
1338 2048
1340 431
1340 441
1340 451
1343 2038
1345 416
1345 2025
1350 401
1350 2015
1355 386
1355 930
1355 940
1355 1950
1355 1960
1355 1970
1355 1980
1355 1990
1355 2000
1360 371
1360 910
1360 920
1360 949
1360 959
1360 969
1360 979
1360 989
1360 999
1360 1315
1360 1325
1360 1370
1360 1380
1360 1900
1360 1910
1360 1920
1360 1930
1360 1940
1361 1335
1361 1390
1365 306
1365 316
1365 326
1365 336
1365 346
1365 356
1365 1008
1365 1018
1365 1028
1365 1038
1365 1048
1365 1058
1365 1068
1365 1078
1365 1088
1365 1098
1365 1108
1365 1118
1365 1128
1365 1138
1365 1148
1365 1158
1365 1168
1365 1178
1365 1188
1365 1198
1365 1208
1365 1218
1365 1228
1365 1238
1365 1248
1365 1258
1365 1268
1365 1278
1365 1288
1365 1298
1365 1345
1365 1355
1365 1400
1365 1410
1365 1420
1365 1430
1365 1440
1365 1450
1365 1460
1365 1470
1365 1480
1365 1870
1365 1880
1365 1890
1369 905
1370 296
1370 1489
1370 1685
1370 1695
1370 1705
1370 1820
1370 1830
1370 1840
1370 1850
1370 1860
1371 1715
1375 1498
1375 1508
1375 1518
1375 1528
1375 1538
1375 1548
1375 1558
1375 1568
1375 1578
1375 1588
1375 1598
1375 1608
1375 1618
1375 1628
1375 1638
1375 1648
1375 1658
1375 1668
1375 1725
1375 1735
1375 1745
1375 1755
1375 1765
1375 1775
1375 1785
1375 1795
1375 1805
1378 289
1379 905
1385 261
1385 271
1385 281
1385 795
1389 902
1390 251
1393 788
1394 800
1398 244
1399 900
1400 775
1403 795
1405 765
1408 239
1409 900
1410 755
1413 794
1415 745
1418 235
1419 900
1420 730
1423 789
1425 720
1428 235
1429 900
1430 700
1430 710
1433 784
1435 685
1437 240
1439 900
1440 675
1443 779
1444 248
1445 665
1449 900
1450 256
1450 650
1453 774
1455 640
1456 264
1459 897
1460 625
1463 769
1464 271
1465 610
1468 281
1469 895
1470 600
1473 290
1473 764
1475 300
1475 310
1475 575
1475 585
1479 895
1480 319
1480 550
1480 560
1483 759
1485 328
1485 338
1485 348
1485 358
1485 368
1485 378
1485 388
1485 398
1485 408
1485 418
1485 428
1485 438
1485 448
1485 458
1485 468
1485 478
1485 488
1485 498
1485 508
1485 518
1485 528
1485 538
1488 890
1490 751
1495 741
1497 885
1503 734
1506 880
1510 726
1515 875
1518 720
1525 711
1525 870
1533 704
1535 865
1538 694
1543 858
1545 686
1550 850
1555 676
1560 666
1560 845
1568 659
1570 840
1578 654
1578 833
1583 644
1583 823
1588 634
1590 815
1593 624
1598 614
1598 808
1600 256
1600 266
1600 276
1600 286
1600 296
1600 306
1604 316
1605 246
1605 326
1605 596
1605 606
1605 800
1609 336
1610 576
1610 586
1610 790
1613 239
1614 345
1615 556
1615 566
1618 355
1618 783
1620 365
1620 521
1620 531
1620 541
1623 234
1623 773
1625 374
1625 384
1625 446
1625 456
1625 466
1625 476
1625 486
1625 496
1625 506
1630 393
1630 403
1630 413
1630 423
1630 433
1630 760
1633 230
1635 750
1640 740
1643 230
1645 730
1650 720
1652 235
1655 710
1660 700
1662 235
1665 685
1670 665
1670 675
1672 235
1675 650
1680 635
1682 235
1685 620
1690 595
1690 605
1691 240
1695 565
1695 575
1695 585
1699 246
1700 545
1700 555
1705 254
1705 520
1705 530
1710 263
1710 273
1710 283
1710 293
1710 303
1710 313
1710 323
1710 333
1710 343
1710 353
1710 363
1710 373
1710 383
1710 393
1710 485
1710 495
1710 505
1715 402
1715 412
1715 422
1715 432
1715 442
1715 452
1715 462
1715 472
