54 57
54 67
59 76
64 54
64 112
64 122
64 132
69 80
69 172
69 182
69 192
70 140
74 54
74 109
74 227
74 237
74 247
79 80
79 167
79 195
80 140
80 255
84 52
84 109
84 224
89 80
89 164
89 195
90 135
90 255
94 49
94 109
94 224
99 80
99 164
99 195
100 135
100 255
104 49
104 109
104 222
109 80
109 164
109 195
110 135
110 255
114 49
114 107
114 219
119 80
119 162
119 195
120 135
120 255
124 49
124 104
124 219
129 80
129 159
129 195
130 135
130 250
134 49
134 104
134 219
139 80
139 159
139 195
140 135
140 250
143 44
144 104
144 219
149 77
149 159
149 195
150 135
150 250
153 44
154 102
154 219
159 75
159 159
159 192
160 135
160 250
163 44
163 214
164 99
169 75
169 157
169 190
170 135
170 250
173 44
173 214
174 99
179 75
179 154
179 190
179 245
180 135
182 39
183 214
184 99
189 75
189 85
189 140
189 154
189 190
189 245
192 39
193 214
199 190
199 200
199 245
202 39
209 245
212 39
219 245
222 39
229 242
232 39
239 240
242 39
249 240
252 39
255 49
255 59
259 240
260 68
260 78
260 88
260 98
260 108
268 114
268 235
270 175
270 185
270 195
272 205
275 215
275 225
278 114
280 175
287 109
290 175
297 109
300 175
307 109
310 175
317 109
320 175
327 109
330 170
337 104
340 170
347 104
350 170
357 104
360 170
367 104
370 170
377 99
380 165
387 99
390 165
397 99
400 165
407 99
410 165
417 99
420 160
427 99
430 160
437 99
440 160
447 99
450 160
457 99
460 160
467 99
470 160
476 94
479 155
486 94
489 155
496 94
499 155
506 94
509 155
516 94
519 155
526 90
529 155
536 89
539 155
546 89
549 155
556 89
559 155
566 85
568 150
576 84
578 150
586 84
588 150
596 84
598 150
605 89
605 99
605 109
605 119
605 129
605 139
