985 2096
985 2106
985 2116
985 2126
985 2136
985 2146
985 2156
985 2166
985 2176
990 1981
990 1991
990 2001
990 2011
990 2021
990 2031
990 2041
990 2051
990 2061
990 2071
990 2081
990 2185
995 1851
995 1861
995 1871
995 1881
995 1891
995 1901
995 1911
995 1921
995 1931
995 1941
995 1951
995 1961
995 1971
996 2193
1000 1841
1004 2200
1005 1796
1005 1806
1005 1816
1005 1826
1010 1761
1010 1771
1010 1781
1013 2205
1015 1701
1015 1711
1015 1721
1015 1731
1015 1741
1015 1751
1020 1661
1020 1671
1020 1681
1020 1691
1022 2210
1025 1651
1032 2209
1033 1644
1042 2204
1043 1639
1050 1631
1050 2195
1055 2115
1055 2125
1055 2135
1055 2145
1055 2155
1055 2185
1056 2165
1060 1626
1060 1990
1060 2000
1060 2010
1060 2020
1060 2030
1060 2040
1060 2050
1060 2060
1060 2070
1060 2080
1060 2090
1060 2100
1060 2175
1065 1850
1065 1860
1065 1870
1065 1880
1065 1890
1065 1900
1065 1910
1065 1920
1065 1930
1065 1940
1065 1950
1065 1960
1065 1970
1065 1980
1068 1619
1070 1840
1075 1805
1075 1815
1075 1825
1078 1614
1080 1770
1080 1780
1080 1790
1085 1606
1085 1715
1085 1725
1085 1735
1085 1745
1085 1755
1090 1690
1090 1700
1095 1601
1099 1685
1103 1595
1107 1679
1112 1590
1115 1670
1121 1585
1123 1663
1131 1585
1133 1658
1140 1580
1143 1655
1148 1574
1153 1653
1158 1569
1160 2031
1160 2041
1163 1648
1164 2051
1165 2021
1168 1564
1169 2060
1170 1941
1170 1951
1170 1971
1170 1981
1170 1991
1170 2001
1170 2011
1173 1643
1174 1961
1175 1931
1175 2068
1178 1560
1180 1906
1180 1916
1183 1638
1185 1886
1185 1896
1185 2071
1188 1560
1190 1861
1190 1871
1193 1635
1195 1826
1195 1836
1195 1846
1195 2075
1197 1565
1200 1681
1200 1691
1200 1701
1200 1711
1200 1721
1200 1731
1200 1741
1200 1791
1200 1801
1200 1811
1203 1635
1204 1751
1205 1645
1205 1655
1205 1665
1205 1761
1205 1771
1205 1781
1205 2075
1207 1565
1214 2070
1217 1565
1222 2064
1227 1565
1230 2050
1235 2040
1236 1570
1240 1960
1240 1970
1240 2015
1240 2025
1245 1575
1245 1945
1245 1979
1245 1989
1245 1999
1250 1925
1250 1935
1255 1575
1255 1895
1255 1905
1255 1915
1260 1875
1260 1885
1265 1575
1265 1840
1265 1850
1265 1860
1270 1695
1270 1705
1270 1715
1270 1725
1270 1735
1270 1805
1270 1815
1270 1825
1275 1578
1275 1640
1275 1650
1275 1660
1275 1670
1275 1680
1275 1744
1275 1754
1275 1764
1275 1774
1275 1784
1275 1794
1284 1583
1284 1645
1292 1590
1293 1650
1301 1585
1302 1655
1305 1911
1305 1921
1305 1931
1305 1941
1305 1951
1310 1881
1310 1891
1310 1901
1310 1960
1310 1970
1311 1585
1312 1654
1315 1871
1315 1979
1315 1989
1315 2066
1315 2076
1319 2086
1320 1861
1320 1998
1320 2041
1320 2051
1321 1580
1322 1650
1324 2095
1325 1556
1325 1566
1325 1841
1325 1851
1325 2007
1325 2017
1325 2027
1330 1546
1330 1821
1330 1831
1330 2103
1332 1650
1335 1526
1335 1536
1335 1811
1340 1516
1340 1796
1340 2106
1341 1655
1345 1446
1345 1456
1345 1486
1345 1496
1345 1781
1348 1509
1349 1466
1350 1436
1350 1476
1350 1756
1350 1766
1350 2110
1351 1655
1355 1406
1355 1416
1355 1731
1355 1741
1358 1429
1360 1396
1360 1660
1360 1721
1360 2110
1365 1366
1365 1376
1365 1669
1365 1679
1365 1689
1365 1699
1365 1709
1368 1389
1369 2105
1370 1356
1375 1326
1375 1336
1375 1925
1375 1935
1377 2099
1378 1349
1380 1316
1380 1900
1380 1910
1380 1944
1385 1276
1385 1286
1385 1890
1385 1953
1385 2085
1388 1309
1389 1296
1390 1266
1390 1875
1390 2055
1390 2065
1390 2075
1393 1960
1395 1236
1395 1246
1395 1855
1395 1865
1395 2020
1395 2030
1395 2040
1396 1970
1398 1259
1400 1226
1400 1835
1400 1845
1400 1980
1400 1990
1400 2000
1400 2010
1405 1196
1405 1206
1405 1825
1408 1219
1410 1186
1410 1810
1415 1156
1415 1166
1415 1790
1415 1800
1418 1179
1420 1146
1420 1765
1420 1775
1425 1590
1425 1600
1425 1730
1425 1740
1425 1750
1428 1139
1430 1560
1430 1570
1430 1580
1430 1609
1430 1720
1435 1116
1435 1126
1435 1540
1435 1550
1435 1680
1435 1690
1435 1700
1435 1710
1440 1106
1440 1520
1440 1530
1440 1613
1440 1901
1440 1911
1440 1921
1440 1931
1440 1941
1440 1951
1440 1961
1440 2081
1440 2091
1440 2101
1444 1685
1444 2111
1445 1066
1445 1076
1445 1505
1445 1876
1445 1886
1445 1970
1445 2001
1445 2011
1445 2021
1445 2031
1445 2041
1445 2051
1445 2061
1445 2071
1448 1099
1448 1980
1449 1086
1449 2120
1450 1056
1450 1475
1450 1485
1450 1495
1450 1615
1450 1856
1450 1866
1450 1990
1454 1685
1455 1026
1455 1036
1455 1841
1455 2128
1458 1049
1458 1468
1460 1016
1460 1615
1460 1831
1463 1458
1464 1685
1465 986
1465 996
1465 1445
1465 1811
1465 1821
1465 2131
1468 1009
1470 976
1470 1420
1470 1430
1470 1615
1470 1801
1473 1690
1475 946
1475 956
1475 1400
1475 1410
1475 1791
1475 2135
1478 969
1479 1620
1480 936
1480 1375
1480 1385
1480 1781
1483 1690
1485 901
1485 911
1485 921
1485 1360
1485 1771
1485 2130
1489 1620
1490 891
1490 1340
1490 1350
1490 1761
1492 1695
1495 861
1495 871
1495 1315
1495 1325
1495 1741
1495 1751
1495 2125
1498 884
1498 1625
1500 851
1500 1295
1500 1305
1500 1721
1500 1731
1501 1700
1503 2118
1505 841
1505 1275
1505 1285
1505 1710
1508 1625
1508 2108
1510 821
1510 831
1510 1250
1510 1260
1510 1915
1510 1925
1510 1935
1511 1945
1513 2098
1515 811
1515 1230
1515 1240
1515 1885
1515 1895
1515 1905
1515 1955
1515 2000
1515 2010
1515 2020
1515 2030
1515 2040
1515 2050
1515 2060
1515 2070
1515 2080
1517 1630
1520 791
1520 801
1520 1220
1520 1870
1520 1964
1520 1974
1520 1984
1525 766
1525 776
1525 1210
1525 1855
1526 1635
1530 756
1530 1190
1530 1200
1530 1845
1535 736
1535 746
1535 1180
1535 1820
1535 1830
1536 1639
1540 726
1540 1160
1540 1170
1540 1810
1545 716
1545 1150
1545 1800
1546 1640
1550 696
1550 706
1550 1140
1550 1790
1555 686
1555 1110
1555 1120
1555 1130
1555 1645
1555 1770
1555 1780
1560 651
1560 661
1560 671
1560 1100
1560 1760
1565 641
1565 1080
1565 1090
1565 1645
1565 1750
1570 621
1570 631
1570 1070
1570 1735
1575 611
1575 1060
1575 1645
1575 1715
1575 1725
1580 601
1580 1040
1580 1050
1584 1720
1585 581
1585 591
1585 1030
1585 1645
1590 571
1590 1010
1590 1020
1594 1720
1595 975
1595 1000
1595 1648
1598 564
1600 984
1603 968
1604 1720
1605 551
1605 1650
1608 958
1610 541
1610 940
1614 1720
1615 531
1615 930
1615 1650
1620 511
1620 521
1620 905
1620 915
1623 1725
1625 501
1625 885
1625 895
1625 1650
1630 481
1630 491
1630 650
1630 660
1630 875
1630 1733
1634 1655
1635 466
1635 845
1635 855
1635 865
1638 1739
1640 456
1640 835
1643 1660
1645 436
1645 446
1645 825
1645 1747
1649 1668
1650 426
1650 815
1653 1754
1655 795
1655 805
1657 1675
1658 419
1660 785
1660 1762
1660 2156
1660 2166
1660 2176
1660 2186
1660 2196
1660 2206
1660 2216
1660 2226
1660 2236
1660 2246
1660 2256
1660 2266
1660 2276
1665 765
1665 775
1665 2131
1665 2141
1665 2285
1666 1680
1668 414
1668 1769
1670 755
1670 2046
1670 2056
1670 2066
1670 2076
1670 2086
1670 2096
1670 2106
1670 2116
1671 1779
1671 2293
1675 735
1675 745
1675 2021
1675 2031
1676 1684
1676 1788
1678 410
1679 2300
1680 725
1680 1798
1680 1961
1680 1971
1680 1981
1680 1991
1680 2001
1680 2011
1685 705
1685 715
1685 1689
1685 1807
1685 1946
1688 410
1688 2305
1690 695
1690 1921
1690 1931
1693 1695
1693 1814
1695 675
1695 685
1695 1911
1698 410
1698 2305
1699 1703
1700 665
1700 1822
1700 1891
1700 1901
1705 645
1705 655
1705 1831
1705 1881
1707 415
1707 1710
1707 2300
1710 635
1710 1840
1710 1850
1710 1860
1710 1870
1711 1720
1715 615
1715 625
1716 420
1716 2295
1719 1726
1720 595
1720 605
1724 2287
1725 425
1725 575
1725 585
1725 1734
1729 2277
1730 560
1730 2170
1730 2180
1730 2190
1730 2200
1730 2210
1730 2220
1730 2230
1730 2240
1730 2250
1730 2260
1733 1740
1735 425
1735 545
1735 2145
1735 2155
1736 1750
1740 530
1740 2055
1740 2065
1740 2075
1740 2085
1740 2095
1740 2105
1740 2115
1740 2125
1740 2135
1741 1759
1744 430
1745 510
1745 520
1745 1769
1745 2035
1745 2045
1750 500
1750 1975
1750 1985
1750 1995
1750 2005
1750 2015
1750 2025
1753 435
1753 1775
1755 490
1755 1955
1755 1965
1756 1785
1759 443
1760 480
1760 1920
1760 1930
1760 1940
1761 1794
1764 452
1765 462
1765 1804
1765 1814
1765 1910
1770 1890
1770 1900
1773 1820
1775 1880
1776 1830
1780 1840
1780 1850
1780 1860
1780 1870
