54 317
59 307
59 326
64 335
67 345
69 302
72 354
76 364
79 297
84 287
84 370
92 279
93 375
101 274
102 380
110 269
112 384
119 264
121 389
128 259
131 393
137 254
139 400
147 249
148 405
155 241
158 405
165 236
167 410
175 231
177 414
183 224
186 419
192 219
196 423
202 214
206 425
212 214
216 428
222 209
226 430
232 209
234 107
236 430
239 116
242 204
244 102
246 124
246 430
252 204
254 99
254 130
256 430
262 204
263 135
264 99
266 430
272 199
273 135
274 99
274 182
276 430
279 143
279 153
279 163
279 173
283 94
284 32
284 42
284 52
284 62
284 72
284 82
286 430
292 24
296 430
302 24
306 430
312 24
316 430
321 29
325 39
325 49
325 59
325 69
325 79
325 89
325 185
326 430
327 195
330 98
330 145
330 155
330 165
330 175
332 204
335 135
336 430
340 99
342 204
345 130
346 430
350 99
352 204
355 125
356 430
359 104
362 204
365 120
366 430
369 104
371 209
375 115
376 430
381 209
386 430
391 209
395 425
401 209
405 425
410 214
415 425
420 214
425 425
429 219
434 420
438 224
443 415
447 229
453 415
455 235
460 244
462 410
468 250
471 405
472 260
480 400
482 264
488 393
491 269
498 388
500 274
505 283
508 383
513 290
518 378
520 298
528 305
528 373
537 310
538 368
545 317
545 360
552 325
553 353
555 335
