29 302
29 312
29 322
34 292
34 331
39 340
44 287
45 348
49 277
53 355
57 269
62 360
65 261
71 365
75 256
81 365
85 251
90 370
95 246
100 370
105 241
109 375
115 236
118 380
123 229
127 219
128 380
132 209
137 385
140 201
147 389
150 196
157 390
160 194
167 394
170 194
177 395
180 194
187 395
190 194
197 395
200 194
204 87
204 97
207 395
209 106
210 194
214 82
217 395
219 110
220 194
224 79
227 399
229 110
230 194
234 79
237 400
238 115
240 194
244 79
247 400
248 115
249 182
254 79
254 123
254 133
254 143
254 153
254 163
254 173
257 400
263 74
264 32
264 42
264 52
264 62
266 405
274 27
276 405
284 26
285 36
285 46
285 56
286 405
290 65
295 74
295 125
295 135
295 145
295 155
295 165
295 175
296 405
297 185
303 80
303 118
306 405
307 189
313 84
313 115
316 405
317 189
322 79
323 113
326 405
327 189
332 79
333 110
336 405
337 189
342 79
342 104
346 405
347 189
350 85
350 95
356 405
357 189
366 405
367 189
375 400
377 189
385 400
387 189
395 395
397 189
405 395
406 194
415 199
415 209
415 219
415 229
415 239
415 390
425 242
425 385
434 247
435 385
442 254
445 380
451 259
455 380
461 259
465 375
470 264
475 370
480 267
485 365
490 269
493 358
500 272
503 353
509 277
510 340
515 330
519 279
520 320
525 300
525 310
529 281
530 291
