29 132
34 122
34 141
34 512
39 112
41 149
44 102
44 507
49 87
49 155
50 515
54 77
54 504
58 160
59 62
60 515
63 499
64 52
65 168
69 42
70 515
72 494
73 175
79 37
80 515
82 180
82 494
89 34
90 515
91 185
92 494
99 34
99 191
100 515
101 489
109 34
109 195
110 515
111 485
119 34
119 195
120 515
121 480
128 200
129 32
130 515
131 479
137 205
139 29
140 474
140 515
147 205
149 29
149 469
150 515
157 205
158 464
159 29
160 515
166 210
168 464
169 27
170 515
175 215
177 459
179 24
180 515
185 217
186 454
189 24
190 515
195 220
196 454
199 24
200 515
205 222
206 450
209 24
209 232
209 242
209 252
209 262
209 272
209 282
209 292
210 515
214 301
214 311
214 321
214 331
214 341
214 351
214 361
214 371
214 381
214 391
216 445
219 24
219 400
219 410
219 420
219 430
220 515
229 24
230 515
239 24
240 515
249 24
250 515
259 24
260 515
269 26
270 515
279 29
280 515
289 29
290 515
295 265
295 275
295 285
295 295
295 305
295 315
295 325
295 335
295 345
295 355
295 365
295 375
295 385
295 395
295 405
295 415
295 425
295 435
297 445
298 34
300 220
300 230
300 240
300 250
300 515
307 449
308 34
310 215
310 515
316 454
318 35
318 208
320 515
325 459
328 39
328 203
330 515
335 462
338 39
338 200
340 515
345 464
347 195
348 39
350 515
354 469
356 190
358 39
360 515
363 474
365 185
368 39
370 515
373 475
374 180
378 39
380 515
382 480
383 175
388 40
390 50
390 515
392 169
392 484
395 59
400 68
400 160
400 515
401 489
408 75
408 153
410 494
410 515
412 85
415 145
420 92
420 497
420 515
423 138
425 101
428 111
428 128
430 499
430 515
439 504
440 515
448 509
