32 246
32 256
32 266
36 236
36 276
41 227
42 284
44 178
44 188
47 219
48 198
49 169
50 208
50 290
57 162
59 295
67 160
69 299
72 44
74 26
74 112
74 122
74 132
74 142
74 152
76 54
76 64
76 74
76 84
76 94
79 299
82 20
89 54
89 64
89 74
89 84
89 301
91 94
91 104
91 114
91 124
91 134
91 144
92 20
93 40
94 154
95 30
99 299
101 162
103 172
109 180
109 297
116 172
119 294
125 204
126 172
127 214
127 288
129 194
132 180
132 223
135 280
137 232
140 271
141 242
143 252
