52 156
52 166
52 176
52 186
52 196
52 206
52 216
52 226
52 236
52 246
52 256
52 266
52 276
52 286
52 296
62 154
62 299
64 26
68 36
70 18
70 46
72 150
72 299
74 92
74 102
74 112
74 122
74 132
75 27
76 54
76 64
76 74
79 272
79 282
81 83
83 137
83 147
83 157
83 167
83 177
83 187
83 197
83 207
83 217
83 227
83 237
83 247
83 257
