62 236
62 246
62 256
62 266
63 276
64 226
66 172
66 182
66 192
66 216
66 286
68 202
71 295
74 138
74 148
74 158
76 54
76 64
76 74
76 84
76 94
76 104
76 114
76 124
80 36
81 299
82 26
85 59
85 69
85 79
85 89
85 99
85 109
85 119
85 129
87 139
87 149
88 18
89 42
91 301
93 30
96 154
101 299
106 156
111 298
114 162
119 171
119 192
119 202
119 212
119 288
120 222
121 181
123 232
123 274
125 242
125 252
125 262
