30 250
30 260
32 270
34 238
37 279
39 229
44 176
44 186
44 287
45 221
46 196
50 168
50 206
52 293
58 162
62 297
68 160
72 44
72 299
74 26
76 92
76 102
76 112
76 122
76 132
76 142
76 152
78 52
78 62
78 72
78 82
82 20
82 299
91 54
91 64
91 74
91 84
92 20
92 299
93 94
93 104
93 114
93 124
93 134
93 144
95 30
95 40
96 154
99 164
101 174
102 299
108 182
112 297
117 177
121 292
125 204
126 172
126 214
129 194
129 286
131 223
132 180
136 232
137 278
141 241
142 269
143 251
