99 297
99 307
104 287
107 314
112 279
116 319
119 237
119 247
119 257
119 267
124 227
126 320
134 217
134 326
139 207
144 197
144 330
149 187
153 335
157 179
162 329
164 167
170 320
174 164
175 305
180 290
183 169
190 290
192 174
200 292
201 179
209 297
210 245
211 179
215 235
215 254
219 300
220 225
221 179
223 260
225 205
225 215
225 308
229 186
230 196
232 265
235 312
242 269
245 315
251 274
255 315
261 274
264 320
269 281
273 325
279 284
282 330
288 289
290 337
298 290
299 342
308 294
309 345
315 353
317 299
325 357
326 304
335 309
335 360
341 368
345 309
350 373
354 314
358 380
364 314
367 385
373 319
376 390
382 324
384 396
391 329
394 400
400 334
403 405
409 339
410 413
418 420
419 341
425 349
427 425
435 349
435 432
442 440
443 355
447 449
453 359
457 450
463 359
467 450
472 364
477 450
481 369
487 450
490 374
497 450
500 377
507 450
509 382
517 450
519 384
526 445
528 389
536 445
537 394
545 450
546 399
555 450
556 399
565 404
565 450
573 443
575 404
580 413
580 423
580 433
