104 177
104 187
112 169
112 194
120 161
120 200
128 154
129 205
135 146
135 213
140 136
145 126
145 217
153 119
155 215
162 114
163 208
170 200
171 109
178 193
180 180
181 105
189 97
189 185
195 193
197 89
203 200
207 89
210 208
217 89
220 212
224 222
225 130
225 140
225 150
226 94
230 159
234 101
234 225
235 125
238 165
240 109
240 233
245 173
248 240
253 180
255 248
260 188
263 255
268 195
269 263
269 273
270 283
272 205
275 292
280 212
282 300
287 220
290 307
297 224
297 315
304 232
307 319
309 329
314 236
314 338
318 246
319 347
324 356
325 254
333 260
334 360
340 268
340 368
348 375
350 272
354 383
357 280
359 392
365 287
367 399
372 295
374 407
380 302
382 414
387 310
389 422
397 314
397 429
401 439
404 322
409 445
412 329
418 450
419 337
425 458
427 344
433 465
434 352
440 473
442 359
444 483
449 367
449 492
457 374
459 495
464 382
465 503
470 512
472 389
479 397
479 517
484 526
487 404
491 534
494 412
499 527
502 419
507 520
509 427
517 434
517 520
524 442
527 524
532 449
535 459
536 529
545 462
546 530
552 470
554 522
560 477
560 500
560 510
567 485
