78 28
78 38
83 47
86 20
93 51
94 358
96 20
96 61
96 190
96 200
96 210
96 220
96 230
96 240
96 250
96 260
96 270
96 280
96 290
96 300
96 310
96 320
96 330
96 340
98 71
100 81
100 178
102 365
104 91
104 101
104 111
104 158
104 168
106 20
106 121
106 131
106 141
112 365
116 20
122 365
126 20
129 122
129 132
129 142
130 152
131 92
131 102
131 112
131 162
132 365
133 82
133 172
136 20
136 182
139 192
139 202
139 212
139 222
139 232
139 242
139 252
139 262
139 272
139 282
139 292
139 302
139 312
139 322
139 332
139 342
139 352
143 81
144 26
149 35
153 81
154 44
158 54
161 64
163 74
