14 102
14 117
19 92
19 126
29 89
29 125
39 89
39 127
49 89
49 130
59 89
59 127
69 89
69 130
78 125
79 89
87 130
89 89
97 129
99 89
107 125
109 89
117 125
119 89
126 130
129 89
136 128
139 89
146 128
149 89
156 130
159 89
165 125
169 89
174 130
179 89
183 125
189 89
193 125
199 89
202 130
209 89
212 129
219 89
222 125
229 89
231 130
239 89
240 125
249 89
249 130
258 125
259 89
267 130
269 89
277 129
279 89
287 125
289 89
297 125
299 89
306 130
309 89
316 128
319 89
326 128
329 89
336 130
339 89
345 125
349 89
354 130
359 89
363 125
369 89
373 125
379 89
382 130
389 89
392 129
399 89
402 125
409 89
411 130
419 89
420 125
429 89
429 130
438 125
439 89
447 130
449 89
454 187
457 129
459 89
459 196
462 179
464 42
464 52
467 125
467 169
469 32
469 61
469 89
469 195
474 70
474 152
477 24
477 125
479 79
479 89
479 137
479 195
485 16
489 192
495 16
499 187
505 16
507 179
515 16
515 170
523 163
525 16
530 155
535 16
538 148
540 135
544 21
545 75
545 90
545 100
545 110
545 120
550 29
555 40
555 50
555 60
555 70
