92 30
92 40
96 348
96 358
98 22
98 182
98 192
98 202
98 212
98 222
98 232
98 242
98 252
98 262
98 272
98 282
98 292
98 302
98 312
98 322
98 332
99 48
100 58
101 68
102 78
104 88
104 170
104 365
106 98
106 108
106 118
106 150
106 160
108 20
108 128
108 138
114 365
118 20
124 365
128 20
129 94
129 104
129 114
129 124
129 134
129 144
129 154
129 164
131 84
131 174
134 365
137 25
137 182
137 192
137 272
137 282
137 292
137 302
137 312
137 322
138 332
139 202
139 212
139 222
139 232
139 242
139 252
139 262
139 342
139 352
141 35
141 81
143 45
145 55
147 65
