84 267
84 277
84 287
89 296
89 306
92 259
94 315
97 325
99 335
99 345
102 259
104 354
106 364
111 254
114 370
120 378
121 254
128 385
129 395
129 405
130 259
132 415
135 268
137 424
140 277
144 287
145 297
146 429
153 304
156 430
163 304
166 430
170 350
170 360
170 370
173 304
174 422
175 379
175 389
179 412
180 350
180 398
182 299
190 350
192 299
200 350
202 294
209 345
212 294
217 339
221 289
227 335
230 284
236 330
240 281
245 325
250 276
255 325
259 267
260 315
269 264
270 315
279 262
279 310
288 305
289 257
298 305
299 252
308 305
309 247
318 303
319 242
328 300
329 237
337 295
339 232
346 290
347 224
355 285
357 224
365 280
366 219
375 280
376 219
383 273
384 212
393 268
394 207
403 265
404 204
413 199
413 265
422 194
422 260
431 255
432 189
440 250
442 184
450 250
452 179
459 245
462 179
467 239
471 174
477 235
481 170
486 230
491 165
495 225
501 164
505 220
510 159
515 215
519 154
525 215
528 149
534 210
538 149
543 205
547 144
552 199
556 139
562 194
566 139
572 189
575 144
582 184
583 150
590 158
590 168
