82 78
84 64
86 54
90 42
92 81
95 33
100 24
100 360
102 81
102 192
102 202
102 212
102 222
102 232
102 242
102 252
102 262
102 272
102 282
102 292
102 302
102 312
102 322
102 332
102 342
104 182
108 172
109 365
110 20
110 88
110 98
112 108
112 118
112 128
112 138
112 148
112 158
119 365
120 20
129 365
130 20
135 110
135 120
135 130
135 140
135 150
135 160
137 88
137 98
137 170
139 365
140 20
140 180
141 74
143 58
145 189
145 199
145 209
145 219
145 229
145 239
145 249
145 259
145 269
145 279
145 289
145 299
145 309
145 319
145 329
145 339
145 349
147 359
149 50
150 20
157 42
158 27
