24 317
24 327
29 336
32 309
34 345
40 301
43 350
48 294
49 437
49 447
53 348
54 427
54 456
57 289
62 419
63 345
64 460
67 284
72 414
73 343
73 465
77 279
81 409
83 338
83 465
87 274
89 402
92 459
93 333
97 274
97 394
102 454
103 330
107 269
107 389
112 449
113 330
117 264
117 384
119 492
119 502
122 325
122 444
124 511
127 264
127 379
127 484
129 520
132 324
132 439
135 371
135 476
136 259
139 520
142 320
142 435
143 469
145 254
145 366
149 520
151 430
152 320
152 464
155 254
155 361
159 517
160 425
161 315
162 459
165 251
165 356
169 512
170 425
170 451
171 315
175 249
175 354
179 420
179 510
180 310
180 449
185 249
185 351
188 505
189 42
189 52
189 417
189 444
190 310
194 61
195 249
195 346
197 34
198 439
198 503
199 412
200 310
201 69
204 244
205 344
205 495
206 29
207 434
209 75
209 407
210 310
214 242
214 339
215 83
215 426
215 490
216 29
219 305
219 402
223 90
223 334
224 239
225 421
225 485
226 29
229 305
229 397
232 95
233 334
234 237
235 34
235 416
235 480
239 305
239 392
241 100
242 329
243 409
244 232
245 37
245 475
248 310
249 320
249 390
250 105
252 404
254 229
255 39
255 470
257 384
260 107
262 399
263 224
264 465
265 39
267 380
270 110
272 394
273 224
273 460
275 39
276 375
279 115
282 219
282 389
282 454
285 42
286 375
288 120
290 211
290 445
294 47
297 125
298 204
300 440
304 51
305 196
307 129
310 435
313 56
313 189
316 134
319 144
319 154
319 164
319 174
319 430
319 557
319 567
323 59
324 547
327 574
328 425
329 537
333 60
334 527
336 579
338 423
339 517
343 64
346 575
347 509
348 418
352 69
354 497
355 570
358 415
362 69
362 489
363 563
367 479
368 415
369 467
370 555
372 69
374 457
377 420
378 548
379 442
381 74
384 428
385 540
390 79
390 530
395 520
399 84
403 513
408 89
408 503
415 495
418 90
420 485
425 475
427 95
433 468
437 99
438 458
443 448
446 104
450 435
455 109
458 428
465 109
468 423
475 112
475 415
483 408
485 114
490 400
495 114
500 395
504 119
510 390
514 119
520 385
524 117
530 380
534 114
540 375
544 114
548 368
553 109
555 360
563 110
563 353
568 343
570 118
570 128
570 138
570 148
570 158
575 167
575 177
575 187
575 197
575 207
575 217
575 227
575 237
575 330
580 246
580 256
580 266
580 276
580 286
580 296
580 306
580 316
