29 337
29 347
34 302
34 312
34 322
35 355
44 197
44 299
45 355
49 187
52 204
54 301
55 357
56 214
57 179
59 224
64 304
65 232
65 360
66 184
72 240
74 304
75 360
76 184
77 249
79 102
84 92
84 111
84 121
84 131
84 257
84 267
84 304
85 189
85 360
89 276
90 198
91 139
92 84
94 285
94 304
95 360
96 148
98 205
100 293
101 79
104 155
104 304
105 213
105 360
107 165
110 84
110 222
112 174
115 231
115 360
116 184
119 194
120 87
121 204
121 239
125 362
127 95
129 210
129 220
129 246
132 104
133 256
134 229
135 114
135 124
135 365
138 265
140 133
140 237
142 275
144 247
144 370
145 142
147 380
149 152
150 282
152 254
152 389
154 37
154 47
154 57
154 272
155 160
156 399
158 289
159 66
159 409
159 419
160 169
162 29
162 279
164 75
164 428
165 438
167 85
168 175
170 447
171 24
172 94
172 185
174 104
174 457
179 113
179 127
179 137
179 147
179 466
180 192
180 202
181 24
184 156
184 166
185 211
186 474
189 175
190 29
191 219
191 483
194 184
195 493
196 194
198 35
199 204
199 226
203 500
204 213
205 43
210 52
212 505
214 62
215 72
220 81
221 510
223 91
228 100
230 505
232 110
235 120
235 130
237 140
240 505
242 149
245 159
249 37
249 47
249 57
249 67
250 168
250 178
250 505
254 27
254 76
255 187
255 200
259 85
259 95
259 132
260 209
260 505
264 24
264 104
264 114
264 141
264 151
269 160
269 510
270 206
272 170
274 24
274 180
277 190
279 510
280 32
289 37
289 510
295 45
299 510
300 54
305 63
308 505
310 72
310 82
314 92
315 102
318 505
320 111
320 130
325 120
325 139
325 149
325 159
328 505
330 168
335 177
335 187
335 197
335 207
337 510
340 216
343 226
345 236
347 510
348 246
354 254
357 510
360 262
360 275
365 284
367 510
370 293
377 510
378 299
386 505
387 304
396 309
396 505
405 490
405 500
406 309
409 297
410 480
417 289
420 475
422 279
424 262
428 468
429 217
429 227
429 237
429 247
430 455
434 207
435 440
440 420
440 430
444 202
449 192
450 400
450 410
455 385
457 184
465 176
465 385
473 169
475 305
475 315
475 325
475 385
480 280
480 290
483 169
483 331
485 270
485 387
490 210
490 220
490 230
490 240
490 250
490 260
492 174
493 334
495 390
498 203
499 182
500 192
503 334
505 390
513 334
515 390
520 355
520 365
520 375
523 335
525 345
