64 307
64 317
69 326
72 299
76 334
77 289
84 422
84 432
84 442
86 335
87 284
92 414
92 449
96 335
97 279
100 406
100 455
106 335
107 274
110 401
110 455
115 330
117 269
118 394
120 450
125 325
127 269
127 389
130 445
135 325
136 264
137 384
140 445
144 320
146 264
147 379
149 440
149 482
149 492
149 502
154 320
155 259
157 374
157 474
157 509
158 435
164 317
165 256
165 515
167 369
167 430
167 469
174 315
175 254
175 461
175 515
177 364
177 429
184 249
184 315
185 456
185 510
186 359
187 425
194 249
194 312
195 451
195 510
196 355
196 420
204 249
204 310
204 505
205 446
206 350
206 420
213 244
214 310
214 505
215 415
215 444
216 349
223 244
223 305
223 500
224 439
225 415
226 345
232 495
233 244
233 305
233 434
234 410
236 344
241 490
242 429
243 244
243 305
243 405
245 339
249 42
249 52
250 485
252 239
252 400
252 424
253 305
254 27
254 61
255 336
259 70
260 480
261 395
261 419
262 239
263 305
264 24
265 334
268 75
270 414
270 475
271 395
272 85
272 239
272 300
274 24
275 331
279 409
280 390
280 475
282 89
282 234
282 304
283 29
285 326
288 404
289 97
289 470
290 385
291 309
292 34
292 229
294 319
298 404
298 465
299 100
300 380
302 34
302 229
307 399
307 460
308 105
310 380
311 39
312 224
316 394
316 455
317 110
320 375
321 39
322 224
325 389
325 450
327 114
330 377
331 39
331 219
334 445
336 119
340 44
340 214
343 440
344 562
344 572
346 123
349 207
349 552
350 47
352 435
352 579
355 128
357 199
357 544
358 54
361 430
361 584
362 534
365 132
365 191
367 59
369 177
369 522
371 430
371 580
372 140
374 157
374 167
376 64
377 514
380 425
380 575
385 506
386 64
390 420
390 570
393 499
395 69
397 489
398 563
400 422
402 479
404 74
405 555
407 469
410 425
412 459
413 548
414 74
417 449
419 430
420 535
423 79
428 528
433 80
435 515
442 85
443 508
450 500
452 89
455 490
459 97
463 483
468 473
469 99
475 460
477 105
483 453
487 109
490 440
496 114
500 435
505 119
510 430
515 122
518 423
525 124
528 418
534 129
538 413
544 129
548 408
553 134
558 403
563 134
568 398
573 134
578 393
583 134
585 385
593 134
594 380
602 374
603 134
607 364
612 129
615 355
620 345
622 129
625 139
625 149
625 159
625 169
625 179
625 189
625 199
625 209
625 219
625 229
625 239
625 249
625 259
625 269
625 279
625 289
625 299
625 309
625 319
625 329
