69 192
69 202
74 211
79 189
79 220
79 230
85 238
89 189
93 245
97 255
99 112
99 191
104 97
104 121
104 131
104 263
105 199
109 140
109 272
114 87
114 281
115 148
115 202
119 158
119 212
119 290
122 300
124 84
127 165
127 219
129 175
130 229
130 307
132 90
134 184
134 317
135 238
139 193
139 326
140 97
140 203
140 247
145 212
146 334
147 105
147 255
149 222
151 343
152 114
154 231
155 124
155 262
155 353
159 240
159 272
159 363
160 133
162 250
164 372
165 142
167 279
169 152
169 381
169 391
170 257
170 289
174 42
174 52
174 161
174 267
174 400
178 171
178 295
179 61
179 276
180 408
182 34
184 70
184 80
184 285
184 418
185 179
185 303
185 428
189 89
189 438
190 188
190 448
191 29
191 99
194 109
194 458
195 197
199 118
199 467
200 128
201 29
202 205
204 138
204 148
204 158
204 476
205 168
207 214
209 36
209 178
209 485
210 224
214 187
215 493
218 41
218 230
219 196
219 206
223 239
223 500
224 215
225 49
225 59
227 225
229 508
233 65
237 75
237 515
240 85
245 94
245 104
247 515
250 113
255 122
257 515
259 132
260 142
264 152
265 162
267 515
269 42
269 52
270 171
273 181
274 61
274 71
274 81
275 191
277 34
277 515
278 201
279 90
280 211
282 100
283 221
284 110
284 120
284 130
284 140
284 150
286 29
287 515
289 159
291 169
293 224
294 179
295 34
296 189
297 515
299 199
299 209
304 39
307 515
312 45
317 54
317 515
320 64
327 515
328 70
330 80
335 89
335 99
335 109
337 515
340 118
345 127
345 137
347 515
349 147
350 157
350 167
354 177
355 187
355 197
357 515
359 207
360 217
365 226
367 515
368 236
370 246
373 256
377 515
380 264
380 274
385 283
387 515
390 292
397 300
397 515
405 307
407 515
412 315
417 515
422 319
427 514
430 495
432 314
435 480
437 304
442 294
444 277
445 475
449 252
449 262
453 468
454 222
454 232
454 242
458 458
459 212
460 445
467 204
468 438
470 415
470 425
474 192
475 400
480 390
482 184
485 380
490 365
491 179
495 340
495 350
500 174
500 310
500 320
500 330
505 275
505 285
505 295
510 174
513 268
515 210
515 220
515 230
515 240
515 250
518 180
523 203
525 188
