24 117
24 127
24 137
24 147
24 157
24 167
24 177
29 107
29 186
29 196
34 87
34 97
34 205
37 215
39 77
42 224
46 234
47 69
51 243
54 57
55 253
59 47
63 260
69 42
70 268
77 34
78 275
86 29
87 280
94 288
96 29
99 297
105 24
109 300
115 24
115 308
123 315
125 24
130 323
135 24
138 330
145 24
147 335
155 24
155 342
162 350
165 27
172 354
174 32
179 362
184 36
187 369
193 41
196 374
203 45
204 380
212 50
213 385
220 57
220 393
227 65
228 400
235 72
237 405
242 80
245 412
247 89
250 99
252 420
255 108
260 117
260 427
265 126
267 435
270 135
275 144
275 442
280 153
282 450
285 162
291 455
295 161
300 151
300 450
305 141
310 131
310 445
318 124
318 438
322 114
327 104
328 433
332 94
337 84
338 428
345 76
348 423
353 69
355 415
360 61
365 51
365 410
373 403
375 46
383 398
385 41
393 393
395 36
395 285
397 295
400 275
400 305
402 315
403 388
405 34
407 324
410 270
410 334
410 344
413 383
415 34
415 353
415 363
415 373
419 275
425 34
428 280
435 34
437 285
445 34
447 289
454 39
456 294
463 44
466 298
472 49
475 303
481 54
485 305
490 59
495 305
499 64
505 295
508 69
513 288
517 74
520 275
524 82
528 268
529 91
533 258
535 99
535 109
538 248
540 118
543 238
545 127
545 137
545 215
545 225
550 146
550 156
550 166
550 176
550 186
550 196
550 206
