239 507
239 517
239 527
239 537
239 547
239 557
239 567
239 577
239 587
239 597
244 487
244 497
244 606
244 616
244 626
244 636
249 467
249 477
249 645
249 655
249 665
254 447
254 457
254 674
254 684
256 694
259 422
259 432
261 703
264 407
264 713
269 397
269 722
274 387
274 731
274 741
279 377
279 750
284 367
284 759
289 357
289 768
290 778
295 787
297 349
299 797
302 339
304 806
307 329
311 814
312 319
317 309
319 820
325 301
328 825
333 294
337 830
342 289
345 837
351 284
352 845
361 280
362 849
371 275
372 850
381 270
382 850
389 264
392 850
399 262
400 857
407 865
409 257
416 870
417 249
425 875
427 244
434 880
437 239
443 885
447 239
452 890
456 234
461 895
465 229
471 898
474 224
480 903
483 219
490 905
492 214
499 910
502 209
509 910
512 209
519 910
522 209
528 915
532 209
538 915
542 209
548 915
552 209
558 915
562 209
568 915
572 209
578 915
582 209
588 915
592 209
598 915
602 209
607 910
612 209
617 910
622 209
627 910
631 214
637 909
641 214
647 905
650 219
656 900
660 219
666 900
668 225
675 895
678 229
683 888
687 234
690 880
696 239
699 875
706 239
707 869
715 244
715 860
723 853
724 249
732 255
733 850
740 262
742 845
749 267
751 840
757 274
759 832
766 279
767 824
770 289
775 815
780 292
780 805
784 302
785 795
790 785
792 309
795 775
799 317
803 768
807 324
810 760
814 332
820 340
820 755
825 349
830 750
833 355
835 740
840 363
843 733
848 370
850 380
850 725
852 390
857 399
860 725
864 407
870 415
870 727
875 424
875 434
880 725
884 439
890 725
894 439
900 725
904 437
910 725
914 434
920 725
924 434
930 725
934 434
940 727
944 434
949 732
954 434
957 739
964 434
966 744
974 434
974 750
983 755
984 434
992 760
994 434
1001 755
1004 434
1010 750
1014 434
1018 743
1024 434
1025 735
1033 728
1034 434
1038 718
1040 705
1043 439
1048 698
1053 439
1058 695
1063 439
1068 695
1073 440
1078 695
1083 444
1088 695
1093 444
1098 695
1103 444
1108 695
1113 445
1118 695
1123 449
1128 695
1133 449
1137 690
1143 449
1147 690
1153 449
1157 689
1163 449
1167 685
1173 449
1177 685
1183 449
1187 689
1193 449
1197 690
1203 449
1207 690
1213 449
1216 685
1223 449
1225 680
1233 449
1235 675
1243 449
1243 668
1250 660
1253 449
1260 655
1263 449
1269 650
1273 449
1279 647
1283 449
1289 645
1293 449
1299 645
1303 449
1309 645
1313 449
1319 645
1323 450
1329 645
1333 454
1339 645
1343 454
1348 650
1353 454
1358 650
1363 454
1367 655
1373 454
1374 663
1374 673
1379 682
1383 454
1389 685
1393 454
1399 685
1403 454
1409 685
1413 454
1419 685
1423 454
1429 685
1433 454
1438 690
1443 454
1447 695
1452 449
1457 695
1462 449
1466 690
1472 449
1474 682
1481 454
1484 677
1491 454
1494 672
1501 454
1504 670
1511 454
1514 670
1521 454
1524 667
1530 449
1534 665
1540 449
1544 665
1550 449
1554 665
1560 449
1560 673
1568 680
1570 449
1575 688
1580 449
1585 692
1590 449
1595 695
1599 454
1605 695
1609 454
1615 695
1619 454
1624 690
1629 454
1634 690
1639 454
1644 690
1649 456
1654 690
1659 459
1664 690
1669 459
1674 690
1678 464
1684 690
1688 464
1694 687
1697 469
1702 680
1706 474
1711 675
1715 665
1716 474
1723 658
1726 474
1730 650
1735 479
1738 643
1743 485
1745 635
1750 493
1753 628
1758 500
1760 620
1765 508
1768 613
1773 515
1775 605
1777 525
1782 534
1783 598
1789 542
1790 590
1794 551
1795 580
1798 561
1800 571
