319 567
319 577
319 662
319 672
319 712
319 722
319 732
319 742
324 542
324 552
324 586
324 596
324 606
324 616
324 626
324 636
324 646
324 681
324 691
324 701
324 751
324 761
324 771
324 781
324 791
324 817
324 827
324 837
324 847
329 512
329 522
329 532
329 800
329 856
334 462
334 472
334 497
334 865
339 447
339 481
339 874
339 884
339 894
339 904
339 914
344 432
344 923
349 422
352 930
354 407
361 935
362 399
369 387
370 940
379 382
379 945
388 950
389 379
395 958
399 377
403 965
409 374
412 970
419 372
422 970
429 369
431 975
439 367
441 978
449 362
451 980
459 359
460 985
468 354
469 990
478 354
478 995
487 349
487 1000
497 349
497 1004
507 344
507 1005
516 1010
517 344
525 1015
527 344
535 1017
537 344
544 1022
547 344
554 1025
557 344
563 1030
567 344
573 1030
577 344
582 1035
587 344
592 1039
597 344
602 1040
606 339
612 1040
616 339
622 1040
626 339
632 1040
636 339
642 1040
646 339
652 1040
655 334
662 1040
665 331
672 1040
675 329
682 1040
685 329
692 1040
695 329
702 1040
704 324
712 1040
714 324
721 1035
724 326
731 1035
734 329
740 1030
744 329
750 1030
754 327
759 1025
764 322
769 1025
772 314
778 1020
782 314
788 1018
792 314
795 1010
802 314
805 1005
811 319
813 998
821 319
823 993
830 324
830 980
838 973
840 327
840 960
848 953
849 332
850 940
855 925
859 336
860 915
865 344
865 900
870 885
873 350
875 870
880 358
880 860
885 367
885 850
890 376
893 843
895 385
900 394
900 835
905 403
908 828
910 412
914 422
918 823
919 431
920 441
925 450
928 820
930 459
930 469
935 478
938 818
943 485
947 495
948 815
952 504
958 815
959 512
967 519
968 813
974 527
978 810
984 529
988 810
993 534
998 810
1003 535
1008 810
1013 539
1018 810
1023 539
1027 815
1033 539
1037 815
1043 539
1047 815
1053 539
1057 815
1062 544
1067 815
1072 544
1077 814
1082 544
1085 805
1092 544
1094 800
1102 544
1103 795
1112 544
1112 790
1122 544
1122 790
1132 544
1132 790
1142 544
1142 789
1152 544
1152 785
1162 544
1162 785
1172 544
1172 789
1182 544
1182 785
1192 544
1192 784
1201 549
1202 780
1211 549
1211 775
1221 549
1221 775
1230 770
1231 549
1240 770
1241 549
1250 770
1251 549
1260 770
1261 549
1270 770
1271 549
1280 765
1281 549
1290 765
1291 549
1299 760
1301 549
1307 754
1311 549
1315 745
1321 549
1325 740
1331 549
1335 740
1341 549
1345 742
1349 752
1351 549
1354 761
1361 549
1361 769
1369 775
1371 549
1379 775
1381 549
1389 775
1391 549
1399 775
1401 549
1409 775
1411 549
1419 775
1421 549
1429 775
1431 549
1439 775
1440 554
1448 780
1450 554
1458 780
1460 554
1467 785
1470 554
1477 785
1480 554
1487 789
1490 554
1497 790
1500 554
1507 790
1510 554
1516 795
1520 554
1526 795
1530 554
1536 795
1540 554
1546 795
1550 554
1556 795
1560 554
1565 790
1570 554
1575 790
1580 554
1585 790
1590 557
1594 795
1600 559
1604 795
1610 559
1614 795
1620 559
1623 790
1630 559
1633 788
1640 559
1643 783
1650 559
1650 775
1660 559
1660 770
1670 559
1670 772
1680 559
1680 775
1689 780
1690 559
1699 780
1700 559
1709 780
1710 559
1719 780
1720 559
1729 780
1730 559
1739 780
1740 559
1748 785
1750 559
1758 785
1760 559
1767 780
1769 564
1777 780
1779 564
1787 780
1789 564
1797 780
1799 564
1807 780
1809 564
1816 775
1819 564
1826 775
1828 569
1834 767
1838 570
1842 759
1847 575
1852 754
1857 579
1860 740
1864 587
1865 730
1873 723
1874 591
1880 599
1880 715
1885 705
1888 605
1890 690
1895 613
1895 680
1900 670
1903 620
1905 630
1905 650
1905 660
1910 639
