274 702
274 712
279 672
279 682
279 692
279 721
279 731
279 741
279 751
284 647
284 657
284 760
284 770
284 780
289 617
289 627
289 637
289 789
294 592
294 602
294 798
295 808
299 567
299 577
300 817
304 542
304 552
304 827
309 527
309 836
314 517
314 845
317 855
322 509
322 864
326 874
330 501
334 880
338 494
340 888
342 484
348 895
350 476
355 903
358 469
362 459
363 910
370 451
370 918
378 444
378 925
385 436
385 933
393 429
393 940
400 421
400 948
408 414
408 955
417 409
417 960
425 401
425 967
432 975
433 394
440 386
440 982
447 990
450 381
455 997
458 374
464 1002
467 369
472 1009
476 364
481 1014
485 359
491 1015
494 354
500 1020
503 349
510 1020
513 349
519 1025
522 344
529 1025
532 339
538 1030
542 339
548 1030
552 334
558 1030
562 334
568 1030
572 329
577 1035
582 329
587 1035
592 329
597 1035
601 334
607 1035
611 334
617 1035
620 339
626 1040
630 339
636 1040
640 339
645 1035
649 344
655 1035
659 344
665 1030
669 346
675 1030
679 349
685 1025
689 349
695 1025
698 354
704 1020
708 355
714 1020
717 360
723 1015
727 364
733 1015
736 369
742 1010
745 374
752 1009
754 379
762 385
762 1005
772 389
772 1004
779 397
782 999
789 401
792 994
795 409
800 985
804 414
808 978
812 420
818 973
822 424
825 965
829 432
833 958
837 439
840 950
846 444
850 945
854 451
858 938
860 459
865 930
870 462
875 925
877 470
883 918
885 477
890 486
890 910
896 494
898 903
900 504
905 513
905 895
910 885
913 520
917 530
918 878
922 539
925 870
929 547
934 556
935 865
940 564
945 865
950 567
955 867
960 569
964 872
970 569
972 879
979 562
979 887
984 896
987 554
991 904
995 546
1000 536
1001 908
1010 531
1010 913
1018 524
1020 915
1027 519
1030 915
1037 519
1040 915
1047 519
1050 915
1057 519
1059 910
1067 519
1067 904
1075 890
1076 524
1080 880
1084 531
1085 870
1090 539
1090 860
1095 548
1099 855
1100 557
1105 566
1105 576
1105 586
1108 850
1110 595
1118 850
1120 599
1128 850
1130 599
1138 850
1140 596
1148 850
1150 594
1157 855
1160 594
1167 855
1170 594
1177 855
1180 594
1187 855
1190 594
1197 855
1200 594
1207 855
1210 594
1217 855
1220 597
1227 855
1230 599
1236 860
1240 599
1246 860
1250 599
1256 860
1260 599
1266 860
1270 602
1276 860
1280 604
1286 860
1290 604
1296 860
1300 604
1306 863
1310 604
1316 865
1320 604
1326 865
1329 609
1336 865
1339 609
1346 865
1349 609
1356 865
1359 609
1366 865
1369 609
1376 865
1379 611
1385 870
1389 614
1395 870
1399 614
1405 870
1409 614
1415 870
1419 614
1425 870
1429 614
1435 870
1439 614
1445 870
1449 614
1455 872
1459 614
1465 875
1469 614
1475 875
1479 614
1485 875
1489 614
1495 875
1499 614
1505 875
1509 614
1515 875
1519 614
1525 875
1529 614
1535 875
1539 614
1545 875
1549 614
1555 875
1559 614
1565 875
1569 614
1575 875
1579 614
1585 875
1589 614
1595 875
1599 614
1605 875
1609 614
1615 875
1619 614
1625 875
1629 614
1634 880
1639 614
1644 880
1649 614
1654 880
1659 614
1664 880
1669 614
1674 880
1679 614
1684 880
1689 614
1694 880
1699 614
1704 877
1709 614
1714 875
1719 614
1723 870
1729 616
1733 868
1739 619
1743 863
1748 624
1753 858
1757 629
1763 853
1766 634
1773 848
1775 639
1783 645
1783 843
1790 653
1790 835
1798 660
1800 830
1805 668
1808 823
1813 675
1818 818
1820 683
1823 808
1828 690
1830 795
1835 698
1835 765
1835 775
1835 785
1840 707
1840 717
1840 727
1840 737
1840 747
