259 422
259 432
259 442
259 452
259 462
259 472
259 482
259 492
259 502
259 512
259 522
264 412
264 531
269 397
269 540
272 550
274 377
274 387
277 559
279 357
279 367
279 569
279 579
279 589
279 599
279 842
279 852
279 862
279 872
279 882
279 892
279 902
281 609
284 347
284 619
284 629
284 639
284 649
284 659
284 682
284 692
284 702
284 712
284 722
284 732
284 742
284 752
284 762
284 772
284 782
284 792
284 802
284 812
284 822
284 832
284 911
284 921
284 931
289 668
289 940
292 339
292 950
294 960
294 970
294 980
299 989
299 999
299 1009
300 331
301 1019
306 1028
310 326
314 1035
320 324
323 1040
329 319
332 1045
339 319
342 1045
349 319
352 1045
359 319
362 1049
368 314
372 1050
378 314
382 1050
388 314
392 1050
397 309
402 1050
407 309
412 1050
417 309
422 1050
427 309
432 1050
437 309
442 1050
447 309
452 1050
457 309
462 1050
466 304
472 1050
476 304
482 1050
486 304
492 1050
496 304
502 1050
506 304
512 1050
516 300
521 1055
526 299
531 1055
536 299
541 1055
546 299
551 1055
556 299
561 1055
566 299
571 1055
575 294
581 1055
585 294
591 1058
595 294
601 1060
605 294
611 1060
614 289
621 1060
624 289
631 1060
634 289
641 1060
644 289
651 1060
654 289
661 1060
664 289
671 1063
674 289
681 1065
684 289
691 1065
693 284
701 1065
703 284
711 1065
713 284
721 1065
723 284
731 1065
732 279
741 1065
742 279
751 1065
752 279
761 1065
762 279
771 1065
772 279
781 1065
782 279
791 1065
792 279
801 1068
802 279
811 1065
812 279
821 1065
822 279
831 1065
832 279
841 1065
842 279
851 1065
852 279
861 1065
862 274
871 1065
872 274
881 1065
882 274
891 1065
892 274
901 1065
902 274
911 1065
912 274
920 1060
922 274
930 1060
931 279
939 1055
940 284
949 289
949 1052
957 295
959 1050
962 304
965 314
967 1044
973 320
975 330
975 340
975 350
975 360
977 1039
980 369
980 379
980 389
980 399
980 409
980 419
980 429
980 439
985 448
985 458
985 468
985 478
985 488
985 1030
990 497
994 507
995 1025
1002 514
1003 1018
1010 805
1010 815
1010 825
1010 835
1010 845
1010 855
1010 865
1010 875
1010 1000
1010 1010
1011 519
1015 884
1015 894
1015 904
1015 914
1015 924
1015 934
1015 985
1019 800
1020 943
1020 953
1020 963
1020 973
1021 519
1028 795
1031 519
1038 795
1041 515
1047 800
1051 514
1057 804
1060 509
1066 809
1070 509
1074 815
1079 504
1083 820
1088 499
1093 820
1097 494
1102 825
1107 494
1112 829
1115 486
1122 830
1125 484
1132 830
1134 489
1142 830
1143 494
1152 830
1153 494
1162 499
1162 830
1169 507
1171 825
1177 514
1180 820
1186 519
1188 813
1195 524
1195 800
1200 785
1204 529
1205 775
1213 534
1215 770
1223 534
1225 770
1232 539
1235 765
1242 539
1245 765
1252 534
1255 765
1262 534
1264 770
1272 534
1274 770
1282 534
1283 775
1292 534
1292 780
1302 534
1302 780
1311 529
1312 780
1321 529
1322 780
1331 525
1332 780
1341 524
1342 780
1351 524
1352 780
1360 519
1362 779
1370 519
1372 775
1380 519
1382 775
1390 519
1392 774
1400 519
1402 770
1410 519
1412 770
1420 519
1422 770
1430 519
1432 770
1440 519
1442 770
1450 519
1452 770
1460 519
1462 770
1470 519
1472 770
1480 519
1482 770
1490 516
1492 770
1500 514
1502 770
1510 514
1512 769
1520 514
1522 765
1530 514
1532 765
1540 514
1542 765
1550 514
1552 765
1560 517
1562 765
1570 519
1572 765
1580 519
1582 765
1590 519
1592 764
1600 516
1602 760
1610 514
1612 760
1620 514
1622 760
1630 514
1632 760
1640 514
1642 760
1649 509
1652 760
1659 509
1662 760
1669 509
1672 760
1679 509
1682 759
1689 509
1692 755
1698 514
1702 755
1708 514
1712 755
1718 514
1722 755
1728 514
1732 755
1738 514
1742 755
1748 514
1752 755
1758 514
1762 755
1768 514
1771 750
1778 514
1781 750
1788 514
1791 750
1798 514
1801 750
1808 514
1810 745
1818 514
1820 745
1828 514
1829 740
1837 509
1839 740
1847 509
1849 740
1857 509
1859 740
1867 509
1869 740
1876 504
1879 740
1886 504
1889 740
1896 504
1899 740
1906 504
1909 740
1916 504
1918 745
1926 504
1928 743
1935 509
1938 740
1945 512
1947 735
1952 520
1956 730
1962 524
1964 722
1969 532
1972 714
1975 540
1980 549
1980 700
1985 558
1985 690
1990 567
1990 675
1994 577
1995 587
1995 655
1995 665
1999 597
2000 607
2000 617
2000 627
2000 637
