84 222
84 232
84 242
84 252
84 262
89 212
89 271
94 192
94 202
94 280
97 290
99 182
102 299
106 309
107 174
114 315
115 166
117 325
123 159
124 333
129 342
130 151
137 349
138 144
144 357
147 139
152 364
156 134
161 369
164 127
171 370
174 124
180 375
183 119
189 380
193 119
199 380
202 114
209 380
212 114
219 380
222 114
229 380
232 114
239 380
242 114
249 380
252 114
259 380
262 114
269 380
272 114
278 375
282 114
288 375
291 119
298 373
301 119
308 370
310 124
318 370
320 127
327 364
330 129
335 138
335 345
335 355
340 330
343 145
345 155
345 165
345 315
350 174
350 305
355 183
360 305
363 190
370 305
373 194
380 305
383 194
390 305
393 194
400 305
402 189
410 305
412 189
418 298
421 194
428 295
430 199
438 293
439 204
448 290
449 206
457 285
458 211
467 289
468 214
475 295
478 214
485 295
487 209
495 297
497 209
505 300
507 204
514 295
517 204
524 295
526 209
534 295
536 209
544 292
545 214
554 290
555 214
563 295
564 219
573 295
574 219
582 300
583 214
592 300
593 214
602 299
603 214
612 294
613 215
620 285
622 220
627 229
628 278
636 234
638 273
640 244
648 250
648 268
