109 197
109 207
109 217
109 227
109 237
109 247
109 257
114 177
114 187
114 266
121 274
122 169
129 280
130 161
138 285
140 156
147 290
150 151
157 294
160 146
167 295
170 144
177 299
180 141
187 300
188 134
196 305
197 129
205 310
207 129
215 310
216 124
225 310
226 124
234 315
235 119
244 315
245 119
254 315
255 119
263 320
264 114
273 320
274 114
283 320
284 114
293 320
294 112
303 320
304 109
312 325
314 109
322 325
324 109
331 330
334 109
341 330
344 109
351 330
354 109
361 330
364 109
371 330
373 114
380 325
382 119
388 318
389 127
394 136
395 310
400 144
400 300
405 153
405 163
405 290
413 169
413 283
420 275
422 174
429 182
430 270
439 184
440 270
445 260
449 184
453 253
459 186
460 245
469 184
469 240
479 184
479 237
489 184
489 235
498 240
499 184
507 245
509 186
517 245
519 184
527 245
529 184
537 244
539 184
547 239
549 184
557 235
559 184
567 239
568 189
576 244
577 184
586 245
587 184
595 240
597 184
604 245
607 184
614 245
616 189
624 242
625 184
634 237
635 184
644 232
645 187
652 224
654 192
657 214
662 199
