84 162
84 172
84 182
84 192
84 202
84 212
84 222
89 147
89 231
89 241
94 137
94 250
97 260
99 127
102 269
104 117
109 277
112 109
114 286
117 99
119 295
125 91
128 300
133 84
135 308
140 76
143 315
148 69
152 320
157 64
160 327
166 59
169 332
175 54
179 335
184 49
188 340
194 49
197 345
203 44
207 345
213 44
217 345
223 44
226 350
232 39
236 350
242 39
246 350
252 39
256 350
262 39
265 345
272 39
275 345
282 39
285 345
292 39
295 345
302 39
304 340
312 39
314 340
322 39
324 337
331 44
334 332
339 51
343 61
344 330
345 71
345 81
348 91
352 324
353 100
357 110
360 260
360 270
360 280
360 290
360 300
360 310
362 119
365 245
369 127
374 240
379 129
384 240
389 129
394 240
399 129
404 240
409 129
414 237
419 129
422 230
429 131
431 225
435 139
440 220
445 139
450 220
455 142
459 215
464 147
469 212
474 149
479 210
484 149
488 215
493 144
497 220
503 144
506 215
513 144
516 218
522 139
526 220
531 134
536 220
541 134
545 215
551 134
554 210
561 134
564 210
571 134
574 210
580 139
584 210
590 142
593 205
600 144
603 205
610 141
612 210
620 142
622 209
629 147
630 200
637 154
638 193
645 185
646 159
654 166
654 180
