130 1268
134 1278
136 1260
142 1284
144 1252
151 1289
152 1244
159 1295
160 1237
168 1300
170 1233
178 1303
180 1228
188 1222
188 1306
197 1216
197 1311
206 1211
207 1315
215 1206
217 1318
224 1201
227 1322
233 1196
237 1326
243 1192
247 1328
252 1187
257 1331
261 1182
267 1334
271 1177
277 1336
281 1173
287 1339
291 1168
297 1341
301 1163
307 1343
311 1159
317 1345
321 1155
327 1347
331 1150
337 1348
341 1147
347 1351
351 1142
357 1352
361 1137
367 1353
371 1133
377 1355
381 1131
387 1356
391 1128
397 1358
401 1124
407 1360
411 1119
417 1361
421 1115
427 1363
431 1112
437 1364
441 1108
447 1366
451 1105
457 1367
461 1102
467 1368
471 1099
477 1369
481 1095
487 1370
491 1091
497 1371
501 1089
507 1372
511 1086
517 1374
521 1081
527 1376
531 1076
537 1377
541 1073
547 1377
551 1070
557 1378
561 1067
567 1380
571 1065
577 1380
581 1064
587 1381
591 1062
597 1382
601 1058
607 1384
611 1054
617 1385
621 1052
627 1385
631 1048
637 1386
641 1045
647 1387
651 1043
657 1389
661 1040
667 1389
671 1038
677 1390
681 1035
687 1391
691 1030
697 1391
701 1028
707 1393
711 1027
717 1393
721 1025
727 1393
731 1022
737 1394
741 1019
747 1395
751 1016
757 1395
761 1014
767 1396
771 1011
777 1397
781 1009
787 1397
791 1007
797 1398
801 1005
807 1398
811 1004
817 1398
821 1001
827 1398
831 998
837 1399
841 996
847 1400
851 993
857 1400
861 992
867 1400
871 990
877 1400
881 987
887 1400
891 985
897 1400
901 982
907 1400
911 980
917 1401
921 977
927 1401
931 976
937 1401
941 974
947 1402
951 972
957 1402
961 971
967 1402
971 969
977 1402
981 968
987 1402
991 967
997 1402
1001 964
1007 1402
1011 961
1017 1403
1021 959
1027 1403
1031 959
1037 1403
1041 957
1047 1404
1051 956
1057 1404
1061 954
1067 1404
1071 952
1077 1405
1081 951
1087 1405
1091 949
1097 1405
1101 948
1107 1404
1111 947
1117 1404
1121 945
1127 1404
1131 943
1137 1404
1141 942
1147 1404
1151 941
1157 1405
1161 939
1167 1404
1171 937
1177 1404
1181 937
1187 1405
1191 936
1197 1405
1201 934
1207 1405
1211 933
1217 1405
1221 932
1227 1405
1231 931
1237 1405
1241 930
1247 1406
1251 929
1257 1406
1261 927
1267 1406
1271 926
1277 1407
1281 925
1287 1407
1291 925
1297 1407
1301 924
1307 1407
1311 923
1317 1407
1321 921
1327 1407
1331 919
1337 1408
1341 919
1347 1408
1351 918
1357 1407
1361 917
1367 1407
1371 916
1377 1407
1381 915
1387 1408
1391 914
1397 1408
1401 913
1407 1408
1411 912
1417 1408
1421 911
1427 1408
1431 911
1437 1409
1441 910
1447 1409
1451 910
1457 1409
1461 909
1467 1409
1471 909
1477 1409
1481 908
1487 1409
1491 906
1497 1409
1501 906
1507 1409
1511 905
1517 1410
1521 904
1527 1410
1531 903
1537 1410
1541 903
1547 1411
1551 902
1557 1410
1561 902
1567 1410
1571 900
1577 1410
1581 899
1587 1411
1591 899
1597 1411
1601 899
1607 1411
1611 898
1617 1411
1621 897
1627 1412
1631 896
1637 1412
1641 896
1647 1412
1651 896
1657 1412
1661 895
1667 1412
1671 894
1677 1412
1681 893
1687 1412
1691 892
1697 1412
1701 891
1707 1412
1711 890
1717 1412
1721 890
1727 1413
1731 889
1737 1413
1741 889
1747 1414
1751 889
1757 1414
1761 888
1767 1414
1771 888
1777 1415
1781 887
1787 1414
1791 886
1797 1415
1801 886
1807 1415
1811 886
1817 1415
1821 885
1827 1415
1831 884
1837 1414
1841 882
1847 1414
1851 882
1857 1414
1861 881
1867 1416
1871 881
1877 1417
1881 881
1887 1418
1891 880
1897 1418
1901 879
1907 1417
1911 878
1917 1416
1921 877
1927 1416
1931 877
1937 1416
1941 877
1947 1416
1951 877
1957 1417
1961 876
1967 1417
1971 875
1977 1417
1981 875
1987 1417
1991 875
1997 1417
2001 874
2007 1417
2011 873
2017 1417
2021 873
2027 1419
2031 872
2037 1420
2041 872
2047 1420
2051 871
2057 1418
2061 870
2067 1418
2071 869
2077 1418
2081 869
2087 1419
2091 868
2097 1421
2101 868
2107 1422
2111 867
2117 1421
2121 866
2127 1420
2131 866
2137 1420
2141 866
2147 1420
2151 866
2157 1420
2161 865
2167 1420
2171 865
2177 1420
2181 865
2187 1420
2191 864
2197 1420
2201 863
2207 1420
2211 860
2217 1420
2221 857
2227 1420
2231 856
2237 1420
2241 856
2247 1420
2251 855
2257 1421
2261 855
2267 1421
2271 854
2277 1421
2281 853
2287 1422
2291 853
2297 1423
2301 853
2307 1424
2311 852
2317 1423
2321 852
2327 1422
2331 852
2337 1422
2341 851
2347 1422
2351 851
2357 1422
2361 852
2367 1423
2369 858
2372 868
2372 878
2373 888
2373 898
2373 908
2373 918
2373 928
2373 938
2373 948
2373 958
2373 968
2373 978
2373 988
2374 998
2374 1008
2374 1018
2374 1028
2375 1038
2375 1048
2377 1058
2377 1423
2379 1068
2382 1078
2387 1087
2387 1424
2395 1094
2397 1424
2403 1100
2407 1425
2413 1104
2417 1425
2423 1104
2427 1425
2433 1105
2437 1425
2443 1108
2447 1424
2453 1109
2457 1425
2463 1108
2467 1426
2473 1108
2477 1426
2483 1108
2487 1426
2493 1108
2497 1426
2503 1108
2507 1426
2513 1109
2517 1426
2523 1109
2527 1427
2533 1109
2537 1427
2543 1110
2547 1427
2553 1112
2557 1427
2563 1113
2567 1426
2573 1116
2577 1426
2581 1122
2586 1131
2587 1427
2592 1139
2597 1428
2600 1146
2607 1428
2608 1152
2613 1161
2617 1428
2621 1167
2627 1428
2629 1173
2637 1428
2638 1178
2647 1183
2647 1428
2656 1188
2657 1429
2666 1192
2667 1429
2676 1195
2677 1429
2686 1197
2687 1429
2696 1197
2697 1429
2706 1196
2707 1430
2716 1197
2717 1429
2726 1199
2727 1429
2736 1200
2737 1429
2746 1200
2747 1430
2756 1199
2757 1429
2766 1198
2767 1428
2776 1197
2777 1428
2786 1196
2787 1430
2796 1191
2797 1430
2804 1185
2807 1431
2814 1183
2817 1431
2824 1186
2827 1431
2834 1188
2837 1431
2844 1186
2847 1432
2854 1184
2857 1432
2864 1182
2867 1432
2874 1181
2877 1432
2884 1179
2887 1433
2894 1177
2897 1433
2904 1176
2907 1433
2914 1172
2917 1433
2924 1169
2927 1433
2934 1171
2937 1434
2944 1166
2947 1434
2953 1161
2957 1433
2963 1165
2967 1433
2973 1165
2977 1434
2983 1162
2987 1434
2993 1163
2997 1432
3003 1165
3007 1432
3013 1164
3017 1433
3023 1160
3027 1435
3033 1161
3037 1435
3043 1159
3047 1436
3053 1158
3057 1435
3063 1158
3067 1435
3073 1159
3077 1436
3083 1159
3087 1437
3093 1157
3097 1437
3103 1155
3107 1437
3110 1147
3117 1436
3118 1141
3126 1147
3127 1436
3135 1152
3137 1437
3145 1154
3147 1437
3155 1153
3157 1438
3165 1151
3167 1437
3175 1148
3177 1436
3185 1149
3187 1436
3195 1149
3197 1435
3205 1147
3207 1437
3215 1149
3217 1437
3225 1151
3227 1438
3235 1151
3237 1439
3245 1151
3247 1439
3255 1152
3257 1439
3265 1153
3267 1439
3275 1154
3277 1439
3285 1152
3287 1439
3295 1151
3297 1440
3305 1152
3307 1440
3315 1153
3317 1439
3325 1154
3327 1438
3335 1152
3337 1439
3345 1149
3347 1441
3355 1151
3357 1440
3365 1154
3367 1440
3375 1156
3377 1439
3385 1157
3387 1439
3395 1156
3397 1440
3405 1157
3407 1442
3415 1157
3417 1442
3425 1159
3427 1442
3435 1161
3437 1442
3445 1162
3447 1443
3455 1163
3457 1442
3465 1164
3467 1443
3475 1165
3477 1443
3485 1165
3487 1444
3495 1166
3497 1445
3505 1169
3507 1444
3515 1170
3517 1444
3525 1170
3527 1442
3535 1171
3537 1442
3545 1172
3547 1443
3555 1173
3557 1443
3565 1174
3567 1445
3575 1175
3577 1445
3585 1175
3587 1445
3595 1176
3597 1445
3605 1177
3607 1446
3615 1178
3617 1447
3625 1179
3627 1446
3635 1180
3637 1446
3645 1181
3647 1447
3655 1182
3657 1447
3665 1183
3667 1447
3675 1184
3677 1448
3685 1186
3687 1448
3695 1186
3697 1447
3705 1182
3707 1447
3715 1180
3717 1446
3725 1178
3727 1446
3735 1175
3737 1448
3745 1172
3747 1449
3755 1168
3757 1449
3764 1162
3767 1448
3774 1157
3777 1449
3783 1152
3787 1450
3792 1146
3797 1449
3800 1138
3807 1448
3809 1133
3817 1448
3818 1128
3826 1122
3827 1449
3835 1117
3837 1448
3843 1111
3847 1447
3852 1106
3857 1447
3862 1103
3867 1445
3872 1102
3877 1444
3882 1102
3887 1443
3892 1104
3897 1442
3902 1106
3907 1441
3912 1108
3917 1441
3921 1086
3922 1110
3924 1096
3927 1439
3929 1079
3932 1113
3934 1099
3937 1436
3939 1079
3942 1116
3944 1102
3947 1434
3949 1073
3951 1059
3952 1119
3953 1107
3957 1431
3959 1053
3965 1088
3966 1075
3967 1059
3967 1428
3968 1098
3977 1425
3978 1094
3987 1421
3988 1097
3988 1110
3989 1120
3990 1134
3995 1143
3997 1417
4003 1150
4006 1412
4011 1157
4015 1407
4019 1164
4024 1402
4027 1171
4032 1396
4034 1179
4040 1390
4041 1187
4048 1195
4048 1382
4054 1203
4055 1374
4059 1212
4062 1365
4065 1220
4068 1356
4069 1230
4073 1347
4074 1239
4078 1249
4078 1335
4081 1259
4082 1322
4083 1269
4085 1279
4085 1305
4086 1289
