272 829
274 839
275 849
279 820
281 857
286 812
289 863
295 806
299 863
304 801
309 864
313 794
319 864
323 793
329 862
333 788
339 861
343 785
349 860
352 776
359 859
362 775
369 856
371 769
379 855
381 767
389 761
389 851
399 758
399 850
408 752
409 850
418 749
419 847
427 744
429 843
437 740
439 841
447 738
449 840
456 733
459 838
466 731
469 834
475 726
479 831
485 724
489 830
494 719
499 828
504 718
509 825
514 714
519 821
524 711
528 815
532 705
538 814
542 703
547 809
552 699
557 807
562 697
567 803
572 694
577 801
580 688
585 794
590 687
595 792
600 685
605 791
608 679
615 787
618 679
624 782
628 675
631 774
638 673
641 772
648 670
651 769
658 669
661 766
668 667
669 760
678 663
678 754
687 658
688 751
697 655
698 747
707 655
708 745
716 738
717 653
726 737
727 650
735 730
737 645
744 725
747 643
754 723
757 640
764 723
767 639
774 721
777 638
784 720
787 634
794 721
797 633
804 719
807 634
814 718
817 630
823 723
827 627
833 724
837 625
843 727
847 624
853 729
856 619
862 734
866 620
872 736
876 618
880 724
886 616
887 733
890 709
890 719
896 614
897 734
899 704
900 716
904 608
904 682
907 731
912 688
914 604
917 727
924 604
927 724
934 601
937 721
944 599
947 717
954 597
957 714
964 595
967 710
974 591
976 705
984 589
986 702
994 586
996 698
1004 583
1006 694
1014 580
1016 690
1024 578
1026 686
1033 573
1036 682
1043 572
1046 678
1052 567
1056 674
1062 564
1066 670
1072 562
1076 666
1082 559
1086 661
1092 556
1096 657
1102 553
1106 653
1112 551
1115 648
1122 548
1125 643
1132 546
1135 639
1142 543
1145 635
1152 540
1154 630
1162 537
1164 626
1172 534
1173 621
1182 532
1182 616
1192 528
1192 611
1202 526
1202 606
1212 523
1212 601
1221 595
1222 522
1231 592
1232 519
1239 584
1242 517
1249 580
1252 515
1257 574
1262 513
1265 567
1272 512
1274 562
1280 553
1282 511
1289 547
1292 510
1295 538
1302 509
1303 529
1309 517
