14 212
19 202
22 219
24 192
29 227
32 184
34 236
37 174
39 245
45 166
45 253
50 262
53 159
57 270
59 147
62 279
69 142
69 287
74 132
77 294
84 127
84 302
92 119
92 309
99 317
100 111
107 324
108 104
116 329
117 99
121 338
124 87
129 345
132 79
132 355
137 69
137 364
144 57
144 372
149 381
152 49
154 390
157 39
160 398
166 34
168 405
174 27
177 410
182 19
186 415
191 14
196 415
201 14
205 410
210 19
214 405
220 22
224 402
229 27
234 397
237 34
244 42
244 392
252 385
254 46
260 54
261 380
268 60
269 372
275 68
279 367
283 75
284 357
292 80
292 349
300 87
300 340
307 95
308 333
313 323
315 102
320 111
320 310
325 120
328 303
330 129
330 139
330 290
335 148
335 280
343 154
344 275
352 159
353 270
361 164
362 265
370 169
372 264
380 172
380 250
387 180
388 243
395 187
398 238
404 192
408 235
414 194
417 230
424 194
427 230
434 194
436 225
443 199
446 225
453 199
456 225
463 200
466 225
473 204
476 225
483 204
485 220
493 204
495 220
502 199
505 220
511 204
515 220
521 204
525 220
531 204
535 220
541 204
545 220
551 204
555 220
561 204
565 215
571 204
574 220
581 204
584 220
591 204
594 220
601 204
604 220
610 209
614 220
620 209
624 220
630 212
