139 267
139 277
139 287
139 297
139 307
139 317
139 327
147 334
149 262
156 339
159 257
166 343
169 252
175 348
179 249
185 350
188 244
194 355
198 244
204 355
207 239
213 360
217 239
223 360
226 234
232 365
236 234
242 365
246 230
252 365
256 229
261 370
266 229
271 370
276 225
281 373
284 212
289 380
292 204
295 388
300 196
303 395
305 186
307 405
313 179
315 412
319 167
322 420
327 159
329 428
334 147
334 437
342 139
342 444
349 452
350 131
354 461
355 121
361 469
363 114
369 475
370 106
374 484
375 96
380 492
383 89
387 500
389 77
395 507
397 69
399 517
405 61
407 524
413 54
414 532
422 49
422 539
432 49
432 540
442 49
442 540
445 185
445 195
445 205
445 215
445 375
445 385
450 140
450 150
450 160
450 170
450 394
450 404
450 414
451 545
452 49
454 370
455 95
455 105
455 115
455 125
455 219
455 423
455 433
455 443
460 65
460 75
460 85
460 452
460 462
460 540
462 49
464 370
464 472
465 219
465 482
465 492
470 501
470 511
470 521
470 540
474 370
475 219
475 530
483 375
484 214
492 380
493 209
500 201
500 387
507 395
508 194
515 186
515 402
522 410
523 179
530 171
532 414
538 164
539 422
540 295
545 235
545 285
545 304
547 159
547 429
550 350
554 280
554 309
554 437
555 151
555 235
558 356
562 444
563 144
563 241
564 230
564 277
564 309
566 350
568 360
570 136
570 249
570 259
570 269
570 317
570 327
570 337
571 449
574 230
575 215
578 364
579 455
580 137
582 224
585 200
585 210
585 372
587 449
589 142
589 382
590 175
590 185
590 392
595 150
595 160
595 401
595 411
597 444
600 420
600 430
