34 612
34 622
34 632
39 597
39 641
39 932
39 942
39 952
44 577
44 587
44 922
44 961
46 649
49 562
51 969
52 914
54 552
54 655
59 975
61 909
62 544
63 660
64 507
64 517
64 527
68 980
69 472
69 482
69 492
69 902
73 660
74 417
74 427
74 437
74 447
74 457
78 980
79 397
79 407
79 897
83 658
84 387
87 889
88 978
92 379
93 653
94 362
95 881
98 973
99 347
100 645
100 871
104 337
105 635
105 965
108 864
110 620
112 329
114 852
115 600
115 610
115 960
119 312
119 842
120 585
124 302
124 955
127 834
128 578
129 817
132 294
132 949
133 568
134 807
135 550
137 284
140 515
140 525
140 535
140 940
142 799
144 782
145 276
145 475
145 485
145 495
145 505
148 933
149 767
150 420
150 430
150 440
150 450
150 460
153 269
154 757
155 920
158 413
159 257
159 747
163 403
163 913
164 732
165 385
167 249
169 722
170 375
170 905
175 241
177 714
178 368
178 898
179 697
183 234
183 888
184 677
184 687
185 355
185 875
189 662
190 226
190 335
190 345
193 868
194 622
194 632
194 642
194 652
198 219
198 328
198 858
199 567
199 577
199 587
199 597
199 607
200 840
204 532
204 542
204 552
205 320
207 214
208 833
209 497
209 507
209 517
212 204
213 313
213 823
214 457
214 467
214 477
214 487
214 1067
214 1077
214 1087
215 805
218 303
219 447
219 1057
219 1096
220 196
220 790
225 295
225 780
226 1104
227 439
227 1049
230 191
230 770
232 429
233 288
234 1110
235 755
235 1041
239 417
240 186
240 280
243 748
243 1034
243 1115
244 407
248 738
249 275
249 397
250 181
250 720
250 1026
253 1115
255 700
255 710
257 269
257 389
258 1019
260 179
260 685
262 379
263 1113
265 255
265 665
265 675
265 1011
269 172
269 367
269 997
270 630
270 640
270 650
273 1108
274 987
275 250
275 575
275 585
275 595
275 605
275 615
277 359
279 167
279 347
279 977
280 535
280 545
280 555
280 565
280 1100
284 337
284 962
285 250
285 500
285 510
285 520
288 1093
289 164
289 952
290 475
290 485
292 329
294 245
294 942
295 465
295 1085
299 162
299 927
300 321
302 239
303 458
303 1078
304 917
308 314
308 448
309 159
309 907
310 1070
312 235
313 438
314 897
315 306
318 154
318 428
318 1063
322 234
322 889
323 299
325 415
325 1050
327 879
328 154
330 291
332 230
333 408
333 1043
334 867
338 154
338 284
338 398
338 1033
340 1020
342 230
342 859
344 547
344 557
344 567
344 577
344 587
344 597
344 607
344 617
344 627
344 637
344 647
344 657
344 667
344 677
345 385
345 1010
347 279
347 849
348 154
349 512
349 522
349 532
349 686
349 696
349 706
349 716
350 375
350 1000
352 230
354 492
354 502
354 725
354 735
354 745
354 807
354 817
354 827
354 837
355 985
357 274
357 755
358 154
358 368
359 477
359 765
359 775
359 785
359 795
360 975
362 230
364 467
365 360
365 965
367 269
368 154
369 457
370 950
372 230
373 353
374 447
375 940
377 269
378 154
380 345
380 930
382 230
382 439
386 264
387 429
388 154
388 923
390 340
392 230
393 913
394 412
396 264
398 154
399 402
400 340
400 900
402 230
405 259
407 394
408 154
408 893
409 335
412 230
412 384
413 883
414 240
414 250
418 154
419 335
420 376
420 555
420 565
420 575
420 585
420 595
420 605
420 615
420 625
420 635
420 645
420 655
420 665
420 870
422 675
425 515
425 525
425 535
425 545
425 685
425 695
425 705
425 850
425 860
427 715
428 154
428 369
429 335
430 500
430 725
430 735
430 745
430 815
430 825
430 835
435 361
435 490
435 754
435 764
435 774
435 784
435 794
435 804
437 159
438 340
440 480
442 350
447 159
448 473
452 149
453 463
460 141
460 450
464 1097
464 1107
464 1117
465 435
468 134
469 1077
469 1087
469 1126
473 428
474 1057
474 1067
475 126
476 1134
479 1022
479 1032
479 1042
480 420
484 1007
484 1140
485 121
488 413
489 527
489 537
489 547
489 557
489 567
489 577
489 587
489 597
489 967
489 977
489 987
489 997
493 114
493 1145
494 492
494 502
494 512
494 606
494 616
494 952
498 408
499 472
499 482
499 625
499 932
499 942
502 109
502 635
503 1145
504 452
504 462
504 922
508 410
509 437
509 643
509 653
509 663
509 897
509 907
510 673
511 104
513 1143
514 418
514 428
514 683
514 693
514 703
514 713
514 723
514 782
514 792
514 802
514 812
514 822
514 832
514 842
514 852
514 862
514 872
514 882
519 732
519 742
519 752
519 762
519 772
520 99
523 1138
529 94
530 1130
535 1120
538 89
540 1100
540 1110
545 1080
545 1090
548 89
550 1065
555 1030
555 1040
555 1050
557 84
560 1010
560 1020
565 530
565 540
565 550
565 560
565 570
565 580
565 590
565 975
565 985
565 995
567 84
567 600
570 495
570 505
570 515
570 955
570 965
575 475
575 485
575 607
575 945
577 79
579 617
580 460
580 627
580 935
584 637
585 445
585 647
585 657
585 667
585 900
585 910
585 920
587 79
590 676
590 686
590 696
590 706
590 716
590 790
590 800
590 810
590 820
590 830
590 840
590 850
590 860
590 870
590 880
590 890
593 726
595 447
595 736
595 746
595 756
595 766
595 776
597 79
602 455
607 79
610 462
617 79
617 470
622 479
624 489
627 79
629 498
629 508
634 517
634 527
634 827
634 837
634 847
634 857
634 867
634 877
634 887
634 897
634 907
634 917
634 927
634 937
634 947
634 957
634 967
634 977
637 79
639 536
639 546
639 556
639 566
639 807
639 817
639 986
639 996
639 1006
639 1016
639 1026
644 575
644 585
644 595
644 605
644 615
644 625
644 635
644 645
644 655
644 665
644 675
644 685
644 695
644 705
644 715
644 725
644 735
644 745
644 755
644 765
644 775
644 785
644 795
644 1035
644 1045
644 1055
644 1065
646 84
647 1075
649 1085
654 1094
654 1104
656 84
659 1113
660 1123
665 89
665 1132
672 1140
675 89
680 420
680 430
681 1145
684 94
685 439
690 415
690 448
690 1150
693 99
695 457
695 467
700 410
700 476
700 486
700 1150
702 104
705 495
705 505
710 410
710 514
710 524
710 830
710 840
710 850
710 860
710 870
710 880
710 890
710 900
710 910
710 920
710 930
710 940
710 950
710 960
710 970
710 1145
711 109
715 533
715 543
715 553
715 563
715 815
715 979
715 989
715 999
715 1009
715 1019
715 1029
719 415
720 114
720 572
720 582
720 592
720 602
720 612
720 622
720 632
720 642
720 652
720 662
720 672
720 682
720 692
720 702
720 712
720 722
720 732
720 742
720 752
720 762
720 772
720 782
720 792
720 802
720 1038
720 1048
720 1058
720 1140
725 423
725 1067
725 1077
728 120
728 1133
729 1087
730 1097
733 430
733 1123
735 1106
737 125
742 435
745 132
747 444
752 140
754 452
759 461
760 147
765 156
765 355
766 469
769 479
770 364
771 164
773 348
774 488
775 498
778 370
779 340
779 508
780 518
781 164
784 528
787 375
788 345
789 537
789 547
791 164
794 556
794 566
795 382
797 350
799 575
799 585
799 595
799 605
799 662
799 672
799 682
799 692
799 702
799 712
799 722
799 732
799 742
799 752
799 762
799 772
799 782
799 792
800 245
800 255
800 265
800 391
801 164
804 614
804 624
804 634
804 644
804 801
804 811
805 274
805 357
806 399
809 367
809 820
809 830
810 169
810 245
810 409
814 839
815 277
816 849
817 374
818 415
819 859
819 869
819 879
820 169
820 247
821 384
824 888
825 279
825 423
829 174
829 390
829 897
830 250
832 400
833 430
834 284
834 906
834 916
837 440
839 174
839 255
839 925
839 935
840 407
840 450
842 290
842 460
844 944
845 470
847 415
848 179
848 260
850 297
850 479
850 489
850 952
854 423
854 962
854 972
855 498
855 508
857 265
857 305
858 180
859 432
859 981
860 517
860 527
865 312
865 536
865 546
866 270
866 989
867 185
867 439
869 322
870 555
871 998
872 565
874 447
875 192
875 275
875 330
875 575
875 585
875 595
875 665
875 675
875 685
875 695
875 705
875 715
875 725
875 735
875 745
875 755
875 765
875 775
875 785
877 605
879 456
879 1005
880 339
880 615
880 625
880 635
880 645
880 655
880 794
880 804
884 197
885 277
885 348
885 813
885 823
885 1013
886 464
889 474
890 832
890 842
893 355
893 1020
894 201
894 483
894 493
895 280
895 851
895 861
898 871
899 502
899 512
900 363
900 1028
903 880
904 204
904 285
904 521
904 531
905 890
908 370
908 1035
909 540
909 550
910 293
910 899
910 909
912 380
912 1045
913 209
914 559
914 569
914 579
915 918
916 589
919 599
919 609
919 619
920 297
920 387
920 927
920 1052
921 629
923 209
924 639
925 936
925 946
927 305
927 395
929 648
929 658
929 1057
931 954
932 214
934 667
934 677
935 312
935 402
939 412
939 686
939 696
939 961
939 1060
941 219
942 320
944 705
944 715
945 420
945 969
949 226
949 724
949 1060
950 327
950 429
951 734
953 975
954 744
955 234
955 438
956 754
957 335
958 1055
959 764
960 447
960 983
964 239
964 457
964 773
965 342
965 467
965 992
967 1049
969 477
969 782
970 487
972 245
972 350
972 1000
974 497
974 791
975 507
975 1035
977 1009
979 800
980 252
980 357
980 516
980 526
980 1019
984 809
985 535
985 545
987 260
987 365
990 554
990 564
990 574
990 584
990 817
992 374
994 827
995 267
995 593
995 603
995 613
999 382
1000 622
1000 632
1002 275
1002 834
1004 642
1005 652
1006 844
1007 389
1010 282
1010 661
1010 671
1014 397
1014 407
1014 850
1015 680
1015 690
1017 290
1017 860
1019 416
1020 699
1020 709
1025 297
1025 718
1025 728
1025 867
1026 424
1029 434
1030 737
1031 444
1032 305
1034 454
1034 747
1034 872
1036 464
1039 474
1039 756
1039 881
1040 312
1043 766
1044 483
1044 493
1044 503
1045 321
1045 513
1046 889
1049 523
1050 533
1050 774
1051 329
1054 543
1054 895
1055 553
1055 783
1059 336
1059 563
1060 792
1063 900
1064 572
1065 344
1067 800
1069 581
1070 353
1072 809
1073 900
1074 590
1077 600
1078 360
1081 814
1082 370
1083 898
1084 608
1085 380
1089 617
1089 821
1090 389
1093 893
1094 626
1095 398
1095 829
1100 407
1100 417
1100 838
1100 885
1101 634
1105 426
1105 436
1105 847
1105 875
1106 643
1110 445
1110 856
1110 866
1112 455
1114 650
1115 465
1117 475
1117 660
1120 485
1120 495
1120 505
1125 514
1125 524
1125 667
1130 533
1130 543
1132 675
1135 552
1140 561
1140 682
1146 569
1149 687
1150 579
1158 585
1159 690
1162 595
1169 690
1170 602
1174 612
1178 685
1182 619
1187 679
1189 627
1195 635
1195 665
1200 644
1200 654
