109 312
109 322
109 332
109 342
109 352
117 304
117 359
122 294
124 367
131 289
132 374
139 382
140 284
149 385
150 281
158 390
160 279
168 390
170 279
177 395
180 279
186 400
190 279
196 400
200 279
205 405
210 279
214 410
220 279
224 410
230 279
233 415
240 279
242 420
250 279
252 420
260 279
262 424
270 279
271 429
280 279
281 430
290 279
290 435
300 279
300 437
309 284
309 442
317 449
319 284
324 457
329 286
334 460
339 289
343 465
349 289
352 470
359 289
362 470
369 291
371 475
379 294
381 475
389 294
391 478
399 296
401 480
409 299
410 485
419 299
420 487
429 299
429 492
439 301
439 495
448 500
449 304
458 500
459 304
467 505
469 304
477 505
479 306
486 510
489 309
496 513
499 309
506 515
509 309
515 520
519 309
525 522
529 309
535 525
539 309
544 530
549 309
554 530
559 309
563 535
569 309
573 535
579 311
583 535
588 316
592 540
595 324
602 540
605 324
611 545
615 324
621 545
625 324
631 545
634 329
641 545
644 329
651 548
654 329
661 550
663 334
671 550
673 334
681 550
683 334
691 553
693 334
701 555
702 339
711 555
712 339
721 555
722 339
731 344
731 555
741 344
741 555
750 560
751 344
760 560
761 344
770 349
770 560
780 349
780 560
790 349
790 560
800 352
800 560
810 354
810 560
819 565
820 354
829 565
830 357
839 565
840 359
849 565
850 359
859 565
860 359
869 364
869 565
879 364
879 565
889 364
889 565
899 366
899 565
909 369
909 565
919 369
919 565
929 369
929 565
939 371
939 565
949 374
949 565
959 374
959 565
969 374
969 565
978 379
979 565
988 379
989 565
998 379
999 565
1008 380
1009 565
1018 384
1019 565
1028 384
1029 565
1038 384
1039 565
1047 389
1049 565
1057 389
1059 565
1067 389
1069 565
1076 394
1079 565
1086 394
1089 565
1096 394
1098 570
1106 394
1108 570
1115 399
1117 575
1125 399
1127 575
1135 399
1137 575
1145 402
1147 579
1155 404
1157 580
1165 404
1167 580
1175 407
1177 580
1185 409
1187 584
1195 409
1197 585
1205 412
1207 585
1215 414
1217 585
1225 414
1226 590
1235 414
1236 590
1245 417
1246 590
1255 419
1256 590
1265 419
1266 590
1275 422
1276 590
1285 424
1285 595
1295 424
1295 595
1305 427
1305 595
1315 429
1315 597
1325 429
1325 600
1334 605
1335 432
1344 605
1345 434
1354 605
1355 434
1364 605
1365 434
1374 439
1374 605
1383 610
1384 439
1393 610
1394 441
1403 610
1404 444
1412 615
1414 444
1422 615
1424 444
1432 615
1433 449
1442 619
1443 449
1452 620
1453 449
1462 620
1463 450
1472 620
1473 454
1482 620
1483 454
1491 625
1493 455
1501 625
1503 459
1511 628
1513 459
1521 630
1522 464
1531 630
1532 464
1541 630
1542 464
1551 469
1551 633
1561 469
1561 635
1571 469
1571 635
1580 474
1581 635
1590 474
1591 635
1600 474
1600 640
1609 479
1610 640
1619 479
1620 640
1629 479
1629 645
1638 484
1639 645
1648 484
1649 645
1658 485
1659 645
1668 489
1669 645
1678 489
1678 650
1688 490
1688 650
1697 655
1698 494
1707 655
1708 494
1716 660
1717 499
1726 660
1727 499
1736 660
1737 499
1746 504
1746 660
1756 504
1756 660
1766 504
1766 660
1775 509
1776 660
1785 509
1786 660
1795 509
1796 660
1804 514
1806 660
1814 514
1816 660
1824 516
1826 660
1834 519
1836 660
1844 519
1845 665
1854 521
1855 665
1864 524
1865 665
1874 524
1874 660
1883 529
1884 660
1893 529
1894 660
1903 529
1904 660
1913 530
1914 660
1922 535
1924 660
1930 542
1934 660
1937 550
1944 660
1947 554
1954 657
1956 559
1964 655
1966 559
1974 655
1975 564
1984 655
1985 567
1994 655
1995 569
2004 655
2005 569
2014 574
2014 652
2024 574
2024 650
2033 579
2034 650
2043 579
2044 650
2052 584
2054 650
2062 584
2064 650
2071 589
2074 647
2081 589
2084 645
2090 594
2094 645
2100 597
2104 645
2110 599
2114 645
2119 604
2124 645
2128 609
2134 645
2137 614
2142 639
2144 622
