364 457
364 467
364 477
369 392
369 402
369 412
369 422
369 432
369 442
369 486
369 496
374 357
374 367
374 377
374 505
377 515
379 317
379 327
379 337
379 347
379 525
384 534
387 309
389 543
394 552
394 562
396 314
399 571
404 580
405 319
407 590
409 600
412 610
414 324
417 619
419 629
422 330
424 638
429 647
429 657
432 334
434 666
439 342
439 675
439 685
444 694
446 704
449 346
451 713
454 723
458 351
459 732
459 742
464 751
465 359
469 760
472 770
473 365
474 780
479 789
482 370
484 798
485 808
489 818
490 377
494 827
498 384
499 836
504 845
504 855
507 389
509 864
511 874
514 397
514 884
519 893
520 903
522 404
525 414
525 912
529 922
530 423
534 931
535 432
535 442
539 940
539 950
540 451
543 461
544 959
548 470
549 968
550 480
550 978
554 988
555 489
555 499
559 997
560 508
564 1006
564 1016
565 517
569 527
569 1025
574 536
574 1034
575 546
576 1044
578 556
581 1053
583 565
584 1063
585 575
587 585
589 1072
592 594
594 1081
594 1091
599 602
599 1100
600 612
604 1109
605 621
606 1119
608 631
610 641
611 1128
614 1138
615 650
619 1147
620 659
624 1156
624 1166
625 668
625 678
629 1175
630 687
634 1184
635 696
636 1194
640 705
641 1203
642 715
645 725
645 1213
649 1223
650 734
654 1232
654 1242
655 743
655 753
659 1251
660 762
664 1260
665 771
667 1270
669 1280
670 780
672 790
674 1289
676 1299
677 799
680 809
684 1305
684 1315
685 818
689 1324
690 827
690 837
694 1333
695 846
695 1343
700 855
702 865
703 1350
707 874
707 1360
710 884
715 893
717 1364
720 902
720 912
724 1372
725 921
730 930
732 940
734 1375
737 949
740 959
740 1383
745 968
748 1390
750 977
754 987
755 997
757 1395
760 1006
765 1015
767 1025
767 1399
770 1035
774 1407
775 1044
780 1053
782 1414
785 1062
785 1072
790 1081
791 1419
795 1090
797 1100
799 1425
802 1109
805 1119
808 1430
810 1128
815 1137
817 1435
819 1147
824 1156
825 1166
827 1439
830 1175
835 1184
835 1194
837 1439
840 1203
845 1212
845 1425
850 1221
850 1405
850 1415
853 1231
855 1375
855 1385
855 1395
858 1240
860 1335
860 1345
860 1355
860 1365
862 1250
865 1260
865 1280
865 1290
865 1300
865 1310
865 1320
867 1270
