349 402
349 412
349 422
349 432
349 442
349 452
354 387
354 461
359 377
359 470
362 480
364 367
369 357
369 488
374 497
377 349
382 504
384 337
389 512
392 329
397 519
400 321
405 525
408 314
414 530
417 309
423 535
427 304
432 540
437 304
442 544
446 299
452 545
456 295
461 550
466 294
471 550
476 294
481 553
485 289
491 555
495 289
501 555
505 289
511 555
515 289
521 555
524 284
531 555
534 284
541 555
544 284
551 555
554 284
561 558
564 284
571 560
574 284
581 560
584 284
591 560
594 284
601 560
604 284
611 560
614 284
621 560
624 284
631 560
634 284
641 560
644 284
651 560
654 284
661 560
664 284
671 560
674 284
681 560
684 284
691 560
694 284
701 560
704 284
711 560
714 284
721 560
724 284
731 560
733 289
741 560
743 289
751 560
753 289
761 560
763 289
771 560
773 289
781 560
783 289
791 560
793 289
801 560
803 289
811 560
813 289
821 560
823 290
831 560
833 294
841 560
843 294
851 560
853 294
861 560
863 294
871 560
873 294
881 560
883 294
891 560
893 294
901 560
903 294
911 560
913 294
921 560
923 294
931 560
933 294
941 560
943 294
951 560
953 294
961 560
963 294
971 560
973 294
981 560
983 294
991 560
993 294
1001 560
1003 294
1011 560
1012 299
1021 560
1022 299
1030 555
1032 299
1038 548
1041 304
1045 540
1050 309
1054 535
1058 315
1063 530
1067 320
1073 530
1077 324
1083 530
1086 329
1093 530
1096 329
1103 530
1106 329
1113 530
1116 329
1123 530
1126 329
1133 530
1136 329
1143 530
1146 329
1153 530
1156 329
1163 530
1165 334
1173 530
1175 334
1183 530
1185 334
1193 530
1195 334
1203 530
1205 334
1213 530
1215 334
1222 535
1225 334
1232 535
1235 334
1242 535
1245 334
1252 535
1254 339
1262 535
1264 339
1272 535
1273 334
1282 535
1283 335
1292 535
1293 339
1302 535
1303 339
1312 535
1313 339
1322 535
1323 339
1332 535
1333 339
1342 535
1343 339
1351 540
1353 339
1361 540
1363 339
1371 540
1373 339
1381 540
1383 339
1391 540
1392 344
1401 540
1402 344
1411 540
1412 344
1421 339
1421 540
1431 339
1431 540
1440 344
1441 540
1450 344
1451 540
1460 344
1461 540
1470 344
1471 540
1480 344
1481 540
1490 344
1491 540
1500 344
1501 540
1510 344
1511 540
1520 344
1521 540
1530 344
1531 540
1540 344
1541 540
1550 344
1551 540
1560 344
1561 540
1570 344
1571 540
1580 344
1580 535
1590 347
1590 530
1599 352
1600 525
1609 356
1610 520
1619 359
1620 520
1629 359
1630 520
1639 359
1640 520
1648 364
1650 520
1658 364
1660 520
1668 365
1670 515
1678 369
1680 515
1688 369
1690 515
1697 374
1700 515
1707 374
1710 515
1717 374
1720 510
1727 374
1730 510
1736 379
1740 510
1746 379
1750 510
1756 379
1760 510
1765 384
1770 505
1775 384
1780 505
1785 384
1790 505
1794 389
1800 505
1804 389
1810 505
1814 389
1820 505
1824 389
1830 505
1834 389
1840 505
1844 389
1850 505
1854 389
1859 510
1864 389
1869 510
1874 389
1878 515
1884 389
1887 520
1893 384
1897 520
1902 379
1906 525
1912 379
1915 520
1922 379
1923 513
1929 387
1930 505
1937 394
1939 500
1946 399
1949 500
1956 399
1958 505
1966 399
1968 505
1976 395
1978 505
1986 394
1988 505
1996 394
1998 505
2005 389
2007 510
2015 389
2017 510
2025 389
2026 515
2035 386
2036 515
2045 384
2046 518
2055 384
2056 520
2065 384
2066 523
2075 384
2076 525
2084 379
2085 520
2094 379
2094 515
2102 509
2104 381
2112 504
2113 386
2120 394
2120 495
2130 397
2130 490
2137 405
2140 485
2145 412
2150 480
2154 417
2160 480
2162 424
2169 475
2171 429
2177 469
2180 434
2185 443
2185 453
