289 257
289 267
289 277
294 286
297 249
299 295
302 239
302 305
307 314
311 324
312 234
319 330
319 340
321 229
324 349
329 358
331 225
334 367
334 377
339 386
341 224
344 395
349 404
351 224
354 413
359 422
359 432
361 224
364 441
369 450
371 220
372 460
377 469
381 219
381 479
386 488
390 498
391 219
394 508
399 517
399 527
401 219
407 534
409 544
411 219
415 552
419 562
421 219
424 571
429 580
431 215
432 590
434 600
440 608
441 214
444 618
449 627
450 219
454 636
454 646
459 655
460 219
464 664
466 674
469 224
471 683
477 230
479 690
479 700
484 709
485 237
489 247
489 718
494 256
494 727
498 266
499 736
499 746
503 275
504 755
507 285
509 764
511 774
512 294
515 304
516 783
520 313
520 793
524 803
525 322
529 332
529 812
534 341
534 821
538 351
539 830
540 361
544 839
546 369
546 849
549 859
550 379
554 868
555 388
559 877
560 397
564 407
564 886
569 416
569 895
570 426
572 905
574 915
575 435
579 924
580 444
584 933
585 453
589 942
590 462
594 472
594 951
599 481
599 960
599 970
600 491
604 979
605 500
609 988
610 509
610 998
615 518
615 528
615 1007
619 1017
620 537
624 1026
625 546
629 1035
630 555
634 1044
635 564
635 574
636 1054
639 1064
640 583
645 592
645 1072
649 1082
650 601
654 1091
655 610
659 1100
660 619
660 629
662 1110
664 1120
665 638
669 1129
670 647
674 1138
675 656
678 666
679 1147
683 675
684 1156
687 685
689 1165
692 694
692 1175
695 704
697 1184
700 713
701 1194
704 1204
705 722
709 732
710 1212
714 741
714 1222
718 751
719 1231
720 761
724 1240
724 1250
725 770
729 1259
730 779
734 1268
735 788
739 1277
739 1287
740 797
740 807
744 1296
745 816
749 1305
750 825
754 1314
755 834
755 844
756 1324
760 853
764 1330
764 1340
765 862
769 1349
770 871
771 1359
775 880
779 1365
780 889
782 1375
785 898
785 908
790 917
790 1382
795 926
797 1390
798 936
803 945
805 1397
807 955
812 964
812 1405
815 974
820 983
820 1412
825 992
829 1002
829 1417
830 1012
837 1020
837 1424
842 1029
844 1432
845 1039
850 1048
854 1435
855 1057
857 1445
859 1067
860 1077
865 1086
865 1452
871 1094
872 1460
875 1104
879 1468
880 1113
884 1477
885 1122
885 1132
889 1486
890 1141
894 1495
895 1150
900 1159
900 1503
905 1168
905 1178
905 1512
909 1522
913 1185
914 1531
915 1195
920 1204
921 1539
925 1213
925 1223
930 1232
931 1543
935 1241
940 1250
941 1545
945 1259
950 1268
950 1278
951 1545
955 1287
960 1296
961 1545
963 1306
965 1316
965 1326
965 1336
965 1420
965 1430
967 1440
970 1345
970 1355
970 1365
970 1375
970 1385
970 1395
970 1405
970 1450
970 1540
975 1459
975 1469
978 1533
980 1478
985 1487
985 1497
985 1520
990 1506
