109 592
109 602
114 577
114 611
114 621
119 567
119 630
119 640
119 650
124 557
124 659
124 669
126 679
129 689
132 549
134 698
135 708
140 541
140 717
144 492
144 502
144 727
145 531
149 477
149 511
149 521
154 467
154 730
162 459
163 735
167 449
172 439
173 735
180 431
183 735
190 426
192 740
200 421
200 747
207 755
210 416
215 762
219 772
220 411
227 779
230 409
231 789
236 798
239 404
244 805
247 815
248 399
255 822
258 399
262 830
267 394
271 835
276 389
281 835
285 384
291 835
295 381
301 835
305 376
311 835
315 374
321 835
324 369
331 835
334 369
341 835
343 364
351 835
353 364
361 835
363 364
371 835
372 359
381 835
382 359
391 354
391 835
400 830
401 354
410 349
410 825
420 349
420 820
430 349
430 815
439 810
440 346
448 805
450 344
457 799
460 344
465 785
470 344
470 760
470 770
478 753
480 344
488 750
489 339
498 750
499 339
508 334
508 750
517 329
518 750
522 319
527 309
528 750
535 301
537 755
545 296
547 755
555 294
557 755
565 294
567 755
575 294
577 755
585 291
587 755
595 286
597 755
603 279
607 755
610 271
617 755
620 266
627 755
628 259
635 251
637 755
645 246
647 755
653 239
657 755
660 231
667 755
668 224
677 219
677 755
685 211
687 755
693 204
697 755
702 199
707 755
710 191
717 755
718 184
727 179
727 759
736 174
736 764
744 770
746 170
747 780
754 788
756 165
759 797
764 806
766 160
771 814
776 159
781 818
785 154
791 820
795 154
800 825
804 149
809 830
814 149
818 835
824 149
828 835
833 144
837 840
843 144
847 840
853 144
857 840
862 139
867 840
872 139
877 840
882 139
887 840
892 134
897 840
902 134
907 840
912 134
917 840
922 129
927 839
932 129
937 834
942 129
945 825
952 129
955 820
962 124
963 813
970 805
972 124
978 798
982 124
985 790
992 124
993 783
1000 770
1002 124
1008 763
1011 119
1015 755
1021 119
1023 748
1031 119
1033 743
1041 119
1043 738
1051 119
1053 735
1060 114
1062 730
1070 114
1072 729
1080 114
1082 725
1090 114
1091 720
1100 111
1101 720
1110 109
1111 720
1120 109
1121 720
1130 109
1131 720
1140 109
1141 723
1150 109
1151 725
1160 109
1161 725
1170 109
1171 725
1179 114
1181 725
1189 114
1191 725
1199 114
1201 725
1209 114
1211 725
1219 114
1220 720
1229 114
1230 720
1239 114
1240 720
1249 114
1250 720
1259 114
1260 720
1269 114
1270 720
1278 119
1280 720
1288 119
1289 715
1298 119
1299 715
1308 119
1309 715
1318 119
1319 715
1328 119
1329 715
1338 119
1339 715
1348 119
1349 715
1358 119
1359 715
1368 119
1369 715
1378 120
1379 715
1388 124
1389 715
1398 124
1399 715
1408 124
1409 715
1418 124
1418 710
1428 124
1428 710
1437 129
1438 710
1447 129
1448 710
1456 134
1458 710
1465 139
1468 710
1474 144
1478 710
1484 146
1488 710
1493 151
1498 710
1503 155
1507 715
1513 159
1514 723
1519 732
1519 742
1522 164
1524 751
1531 169
1531 759
1539 765
1540 174
1548 770
1549 179
1557 185
1558 770
1567 189
1567 775
1574 197
1577 775
1584 201
1587 775
1590 209
1596 780
1600 212
1606 780
1609 217
1616 783
1617 224
1626 229
1626 785
1635 234
1636 785
1644 239
1646 785
1652 245
1656 785
1660 252
1664 262
1666 785
1669 271
1675 279
1675 780
1683 773
1684 284
1688 763
1693 289
1693 753
1698 743
1703 289
1703 733
1705 720
1710 705
1713 289
1715 690
1720 680
1723 289
1728 673
1733 290
1738 668
1743 294
1748 663
1753 295
1758 658
1762 300
1768 655
1770 307
1777 315
1777 650
1785 322
1786 645
1790 331
1794 637
1796 339
1799 627
1804 346
1804 617
1809 607
1810 354
1814 597
1815 363
1815 585
1820 372
1820 382
1820 392
1820 402
1820 412
1820 422
1820 432
1820 442
1820 452
1820 462
1820 472
1820 482
1820 492
1820 570
1824 502
1825 512
1825 555
1830 521
1830 535
1830 545
