84 737
84 747
84 757
89 717
89 727
89 766
94 775
97 709
97 785
104 697
105 792
112 689
112 800
122 684
122 804
130 676
130 810
138 669
139 815
147 664
149 587
149 597
149 607
149 617
149 627
149 815
152 654
154 562
154 572
154 636
159 547
159 815
164 537
169 815
172 529
177 519
178 820
185 511
188 820
193 504
195 828
200 496
203 835
207 845
208 489
215 852
217 484
219 862
226 479
227 869
235 474
236 874
244 469
246 878
254 467
255 883
264 462
265 885
274 459
275 885
284 459
284 890
294 459
294 890
304 459
304 890
314 459
314 890
323 454
324 890
333 454
333 895
343 454
343 895
352 449
353 895
362 449
363 895
372 444
373 895
380 436
383 895
385 426
389 412
393 895
394 397
399 387
402 900
404 377
409 367
410 907
417 359
417 915
425 351
425 922
432 930
433 344
437 939
442 339
444 947
452 334
452 954
460 960
462 334
469 965
472 329
478 970
482 329
487 975
492 329
496 980
501 324
505 985
511 324
515 985
521 324
524 990
530 415
531 324
532 425
534 990
535 405
540 329
540 390
542 429
543 995
545 380
548 335
550 365
552 345
552 429
553 995
555 355
562 429
563 995
572 429
573 995
582 429
583 995
592 429
592 990
602 429
602 990
612 424
612 990
622 424
622 990
632 424
632 989
642 424
642 985
651 980
652 424
660 975
662 419
668 968
672 419
678 963
682 419
685 955
692 419
695 950
702 414
703 943
710 935
712 414
718 928
722 414
728 923
732 414
735 915
742 414
745 915
752 414
754 910
761 409
764 910
771 409
774 910
781 409
784 910
791 409
793 915
801 409
803 915
811 409
813 915
820 404
823 915
830 404
833 915
840 404
843 915
850 401
853 915
860 399
863 915
870 399
873 915
880 399
883 915
890 399
893 915
900 399
903 915
909 394
912 920
919 394
922 920
929 392
932 920
939 389
942 920
949 389
952 920
958 384
962 920
965 376
972 920
973 369
980 361
982 920
985 351
992 920
993 344
1000 336
1002 920
1008 329
1012 319
1012 920
1020 311
1022 920
1028 304
1032 294
1032 920
1040 286
1042 924
1048 279
1049 932
1054 941
1054 951
1057 274
1059 960
1062 970
1065 266
1067 979
1071 989
1073 259
1076 998
1080 251
1084 1005
1088 244
1089 1014
1095 236
1095 1022
1102 1030
1105 231
1110 1037
1113 224
1117 1045
1120 216
1125 1052
1128 209
1132 1060
1135 201
1142 1064
1143 194
1150 1070
1152 189
1159 1075
1160 181
1168 174
1168 1080
1177 169
1177 1085
1186 164
1187 1089
1195 159
1197 1090
1204 152
1206 1095
1212 144
1216 1095
1222 139
1226 1098
1232 134
1236 1100
1242 129
1246 1100
1252 129
1256 1100
1261 124
1266 1100
1271 120
1276 1100
1281 119
1285 1095
1291 119
1295 1095
1301 115
1305 1095
1311 114
1314 1090
1321 114
1324 1090
1331 114
1333 1085
1341 114
1343 1085
1351 114
1352 1080
1361 110
1361 1075
1370 1070
1371 109
1380 1065
1381 109
1388 1058
1391 109
1398 1053
1401 109
1405 1045
1411 109
1413 1038
1420 114
1420 1030
1428 1023
1429 109
1435 1010
1439 109
1443 1003
1449 109
1450 990
1455 980
1459 109
1463 973
1465 960
1469 109
1470 950
1475 940
1479 109
1480 925
1485 915
1489 109
1490 905
1499 109
1499 900
1508 114
1508 895
1518 114
1518 895
1527 109
1528 895
1537 109
1538 893
1547 109
1548 890
1557 109
1558 890
1567 109
1567 895
1577 109
1577 899
1584 907
1587 109
1594 910
1597 109
1600 918
1607 109
1610 920
1616 114
1619 925
1626 110
1628 930
1636 109
1637 935
1645 114
1647 935
1655 114
1656 940
1665 111
1666 940
1675 109
1675 945
1685 109
1685 945
1695 109
1695 945
1705 109
1705 945
1715 109
1715 945
1724 940
1725 112
1734 940
1735 114
1744 940
1745 114
1754 937
1755 114
1764 932
1765 114
1774 930
1775 114
1784 927
1785 114
1792 920
1795 114
1801 915
1805 114
1810 910
1815 117
1818 903
1825 119
1825 895
1833 888
1835 119
1840 880
1845 119
1850 880
1855 119
1859 875
1865 119
1869 875
1875 119
1879 875
1885 119
1889 875
1895 119
1899 875
1904 124
1909 872
1914 124
1919 870
1924 126
1929 870
1934 129
1939 870
1944 129
1949 870
1954 129
1959 870
1963 134
1969 870
1973 134
1979 870
1983 135
1989 870
1993 139
1999 870
2002 144
2005 878
2012 144
2013 885
2019 893
2020 903
2021 149
2028 910
2031 149
2032 920
2037 929
2040 154
2041 939
2046 948
2050 157
2054 955
2060 159
2060 963
2068 970
2070 162
2075 978
2079 167
2083 985
2089 169
2092 990
2098 174
2101 995
2107 179
2109 1001
2116 184
2119 1005
2125 189
2128 1010
2134 194
2137 1015
2143 199
2147 1015
2152 204
2156 1020
2161 209
2166 1020
2169 216
2176 1020
2178 221
2185 229
2186 1020
2194 234
2196 1023
2202 240
2206 1025
2210 247
2216 1025
2219 252
2226 1025
2227 259
2236 264
2236 1025
2244 271
2245 1020
2250 279
2255 1015
2258 285
2265 293
2265 1015
2273 300
2274 1010
2282 305
2284 1007
2292 309
2294 1002
2299 317
2304 997
2309 321
2312 989
2315 329
2322 984
2323 335
2330 343
2330 975
2338 350
2338 968
2345 960
2347 355
2350 950
2355 362
2358 943
2363 933
2364 367
2370 920
2372 374
2375 905
2380 895
2381 379
2385 885
2390 384
2390 870
2395 855
2399 389
2400 840
2407 395
2408 833
2415 825
2417 399
2425 825
2426 404
2435 409
2435 825
2443 415
2445 825
2452 420
2454 820
2462 424
2464 820
2471 429
2474 820
2480 434
2484 820
2488 440
2493 815
2497 445
2503 815
2507 449
2512 810
2514 457
2522 464
2522 810
2529 472
2532 809
2537 479
2542 805
2544 487
2550 495
2551 800
2555 504
2560 513
2560 523
2560 795
2565 532
2568 788
2569 542
2570 552
2570 562
2570 572
2570 582
2570 592
2570 602
2570 612
2570 622
2570 632
2570 645
2570 655
2572 665
2575 780
2577 674
2580 684
2583 773
2588 690
2588 763
2590 735
2592 745
2595 698
2595 708
2595 718
