89 62
89 72
89 82
89 92
89 102
89 112
89 122
89 132
89 142
94 47
94 151
94 161
94 171
94 181
99 37
99 190
99 200
99 210
102 220
104 230
104 240
104 250
107 260
109 32
109 270
109 337
114 279
114 346
117 329
119 29
119 288
120 298
124 350
124 497
125 307
125 321
129 29
129 377
129 387
129 467
129 477
129 487
129 506
129 516
129 526
133 355
134 367
134 396
134 406
134 416
134 457
134 535
135 310
137 545
139 29
139 447
140 319
141 424
142 360
142 554
144 437
144 564
145 310
149 29
149 573
150 415
152 429
154 582
159 29
159 410
159 591
160 500
165 485
165 509
165 519
165 529
169 29
169 595
170 475
170 538
170 548
174 604
175 557
178 468
179 29
179 567
179 613
184 622
185 575
188 470
189 29
192 629
193 581
198 34
198 468
202 630
203 585
208 34
208 465
210 593
211 635
218 35
218 465
218 600
220 640
225 608
228 39
228 463
229 645
230 617
235 455
238 39
238 624
238 650
244 450
247 629
247 655
248 40
250 458
253 445
257 629
257 659
258 44
258 465
267 39
267 470
267 629
267 660
274 637
276 665
277 39
277 469
280 430
280 440
280 450
282 644
285 415
286 665
287 39
291 423
292 644
295 433
296 34
296 668
300 442
302 644
304 452
306 34
306 670
312 459
312 644
316 34
316 670
322 460
322 644
325 29
326 670
331 649
332 464
335 29
336 670
340 654
342 465
345 26
352 465
355 24
362 465
365 24
372 469
375 24
382 469
385 24
392 465
395 24
402 465
404 29
412 465
414 31
422 465
424 34
432 465
434 34
442 465
443 39
452 465
453 39
462 465
463 39
472 44
472 465
482 44
482 464
491 39
492 460
499 46
502 460
503 56
505 66
505 76
510 85
511 455
512 95
517 104
520 114
521 455
525 123
525 133
530 142
530 210
530 220
530 450
532 230
534 152
535 162
535 172
535 182
535 192
535 240
535 250
535 260
535 270
535 280
540 289
540 299
540 445
545 308
550 317
550 440
554 327
555 337
560 346
560 356
560 435
563 366
565 376
565 386
565 396
565 406
565 416
565 426
