179 267
179 277
179 287
179 297
184 257
184 306
189 247
189 315
194 237
195 323
202 229
203 330
210 221
210 338
218 214
218 345
225 206
227 350
230 196
235 357
240 191
242 365
248 184
250 372
255 176
257 380
263 169
266 385
270 161
274 391
278 154
281 399
285 146
291 403
293 139
297 129
300 408
305 121
310 111
310 412
318 104
319 417
324 92
329 420
332 84
335 428
340 76
340 437
344 447
348 69
349 456
349 466
355 61
359 470
363 54
368 475
369 42
377 34
378 475
379 485
379 495
384 504
384 514
384 524
384 534
384 544
385 26
386 554
389 564
389 574
389 584
389 594
391 604
394 614
394 624
394 634
394 644
394 677
394 687
394 697
394 707
395 24
399 653
399 663
399 716
399 726
399 736
399 746
403 30
404 755
409 764
410 38
417 770
418 45
420 500
420 510
420 520
420 530
420 540
420 550
420 560
420 570
420 580
420 590
420 600
420 610
420 620
420 630
420 640
420 650
420 660
420 670
420 680
420 690
420 700
420 750
420 760
422 710
425 53
425 485
425 720
425 730
425 740
433 60
433 478
440 470
442 65
445 460
447 74
450 450
454 82
455 440
460 425
462 89
468 418
469 97
475 105
475 410
480 114
485 410
489 119
494 405
495 127
502 135
503 400
510 142
512 395
517 150
521 390
525 157
529 382
534 162
539 377
542 169
547 369
549 177
555 360
557 184
563 353
564 192
569 345
572 199
577 339
579 207
585 325
587 214
593 318
594 222
600 230
600 310
605 239
605 300
610 248
613 293
615 257
615 267
615 277
