24 347
24 357
24 367
29 337
29 376
29 386
34 327
34 395
40 403
42 319
48 410
50 311
55 418
58 304
63 425
67 299
70 433
75 291
78 440
83 284
85 448
90 276
95 452
98 269
102 460
105 261
110 467
113 254
119 472
122 249
129 475
131 244
135 483
139 237
145 487
149 232
152 495
159 227
162 499
169 222
171 504
179 219
181 508
188 214
189 515
195 206
198 520
203 199
207 525
212 194
216 530
220 186
226 533
228 179
235 171
236 535
243 164
245 540
250 156
254 545
254 555
254 565
257 575
258 149
265 141
265 582
272 590
273 134
280 597
282 129
287 605
291 124
294 613
294 623
294 633
294 643
294 653
294 663
294 673
294 683
294 693
299 702
299 712
299 722
300 119
304 731
309 740
310 119
314 749
320 122
320 757
327 765
329 127
332 774
335 625
335 635
335 645
335 655
335 665
335 675
335 685
335 695
335 705
339 131
339 782
340 714
340 724
343 618
345 139
345 733
347 789
350 605
350 742
353 145
355 595
355 751
356 794
360 153
361 759
364 590
366 790
368 159
369 766
372 584
373 776
377 164
380 545
382 579
385 554
385 564
386 169
388 538
395 174
398 535
405 177
408 535
414 182
417 530
424 186
427 529
430 194
437 524
440 197
445 515
448 204
454 510
457 209
462 504
466 214
470 495
475 219
480 490
485 222
488 483
493 229
495 475
502 234
503 468
510 460
511 239
519 455
520 244
527 449
529 249
535 440
537 255
543 433
545 262
550 425
554 267
558 418
564 271
565 410
570 279
573 403
578 285
580 395
585 293
590 385
595 297
595 375
600 360
602 305
605 345
607 314
610 324
610 334
