184 1457
184 1467
184 1477
184 1487
184 1497
184 1507
189 1417
189 1427
189 1437
189 1447
189 1516
189 1526
194 1327
194 1337
194 1347
194 1357
194 1367
194 1377
194 1387
194 1397
194 1407
194 1535
194 1545
194 1562
199 1312
199 1571
199 1581
199 1591
204 1302
204 1600
204 1610
207 1620
209 1630
212 1294
215 1638
217 1284
219 1648
224 1267
224 1657
229 1666
232 1259
234 1242
236 1674
242 1234
244 1197
244 1207
244 1217
244 1680
249 1177
249 1187
249 1689
254 1698
257 1169
259 1157
259 1707
264 1716
269 1152
269 1725
274 1142
278 1730
282 1134
285 1738
289 1122
293 1745
294 1112
302 1104
302 1750
304 1760
307 1094
310 1768
312 1084
319 1072
320 1772
327 1064
327 1780
335 1787
337 1059
340 1400
340 1410
340 1420
340 1430
340 1440
340 1450
340 1460
340 1470
340 1480
340 1490
340 1500
340 1510
340 1520
344 1792
345 1051
345 1380
345 1390
345 1529
345 1539
345 1549
350 1041
350 1355
350 1365
350 1558
352 1799
355 1330
355 1340
358 1565
360 1036
360 1805
362 1575
363 1323
365 1310
368 1029
369 1810
370 1300
370 1582
370 1592
372 1019
374 1602
375 1290
378 1815
380 1011
380 1270
380 1280
380 1610
385 1255
385 1619
388 1815
390 1006
390 1245
390 1628
395 1823
398 999
398 1238
398 1634
400 1220
403 1830
405 991
407 1639
408 1213
410 981
410 1200
412 1835
416 1644
418 974
418 1193
421 1840
424 1651
425 966
425 1180
430 956
430 1659
431 1840
433 1173
435 946
435 1160
439 1654
439 1846
443 939
443 1153
449 927
449 1656
449 1850
450 1140
457 919
458 1133
458 1855
459 1659
463 1123
466 914
468 1855
469 1661
470 1110
474 907
477 1860
478 1103
478 1666
482 899
485 1095
486 1865
488 1669
490 891
493 1088
495 1075
496 1865
498 884
498 1669
503 1068
506 1868
507 879
508 1669
510 1055
512 869
516 1865
518 1048
518 1669
520 861
523 1038
526 1868
528 854
528 1669
530 1030
534 1875
537 849
538 1669
540 1025
542 839
544 1875
545 1015
548 1670
550 831
554 1010
554 1875
555 1678
560 826
562 1004
564 1875
565 816
565 1674
570 985
570 995
573 809
574 1669
574 1875
578 978
583 809
584 1669
584 1875
585 965
592 804
593 1664
594 960
594 1875
599 812
602 954
602 1659
603 1870
607 819
607 944
611 1654
612 1875
615 935
616 824
616 1645
622 1875
623 928
624 831
624 1637
630 839
630 920
632 1875
634 1632
638 913
639 844
642 1624
642 1879
645 905
648 849
650 1616
652 1879
654 900
655 857
658 1609
660 890
662 1875
663 864
665 880
665 1601
672 1874
673 1594
682 1589
682 1869
687 1579
692 1569
692 1865
700 1561
702 1864
704 1547
710 1855
712 1539
719 1527
720 1855
727 1519
729 1850
737 1514
738 1845
742 1504
747 1840
750 1496
756 1835
758 1489
762 1479
765 1830
770 1471
774 1457
774 1825
782 1449
784 1825
787 1439
790 1815
796 1434
799 1810
804 1427
809 1417
809 1807
817 1409
819 1805
822 1399
827 1799
829 1377
829 1387
837 1369
837 1794
842 1359
845 1780
850 1351
854 1332
854 1775
862 1324
863 1770
864 1312
872 1304
872 1764
879 1292
880 1755
887 1284
888 1748
892 1274
893 1738
897 1264
903 1735
905 1256
910 1246
910 1720
918 1239
918 1713
919 1227
927 1219
928 1708
934 1207
938 1703
939 1192
944 1182
945 1695
952 1174
953 1688
957 1164
958 1678
962 1154
968 1673
969 1132
969 1142
975 1665
977 1124
979 1112
983 1658
984 1092
984 1102
988 1648
989 1082
994 1072
995 1635
1000 1625
1002 1064
1004 1052
1009 1037
1010 1620
1017 1029
1018 1613
1025 1021
1025 1605
1030 1011
1030 1595
1038 1004
1038 1588
1042 994
1043 1578
1047 984
1048 1568
1052 974
1055 1560
1059 962
1060 1545
1067 954
1068 1538
1072 944
1075 1525
1080 936
1083 1518
1085 926
1088 1508
1093 919
1093 1498
1097 909
1100 1490
1102 899
1105 1480
1110 891
1113 1473
1115 881
1120 1460
1123 874
1128 1453
1130 1435
1132 869
1138 1428
1140 861
1143 1418
1148 854
1150 1400
1150 1410
1155 846
1158 1393
1163 839
1165 1370
1165 1380
1167 829
1170 1360
1177 824
1178 1353
1185 816
1185 1340
1190 1330
1193 809
1198 1323
1199 797
1203 1313
1207 789
1210 1290
1210 1300
1212 779
1217 769
1218 1283
1222 759
1225 1265
1225 1275
1227 749
1229 727
1229 737
1230 1245
1230 1255
1234 717
1238 1238
1239 707
1245 1225
1247 699
1250 1210
1254 682
1255 1200
1262 674
1263 1193
1269 662
1270 1180
1277 654
1280 1180
1284 642
1285 1170
1290 1160
1292 634
1300 1155
1302 634
1304 622
1308 1148
1312 614
1315 1140
1322 609
1325 1135
1330 601
1330 1115
1332 1125
1335 591
1335 1095
1338 1108
1343 1088
1345 589
1345 1075
1351 580
1353 1068
1355 1050
1359 572
1363 1043
1367 564
1370 1030
1375 556
1378 1023
1383 1013
1385 551
1390 1005
1393 544
1395 995
1400 536
1400 985
1408 978
1410 531
1413 968
1418 958
1420 529
1425 950
1429 524
1433 943
1439 517
1440 935
1447 509
1448 928
1454 920
1457 509
1463 915
1467 509
1470 905
1477 504
1478 898
1483 888
1485 496
1488 878
1495 491
1495 870
1500 860
1504 482
1505 850
1512 474
1513 843
1518 833
1521 469
1525 825
1529 462
1533 818
1537 454
1543 813
1547 449
1550 800
1555 790
1557 444
1563 783
1567 444
1568 773
1575 436
1575 765
1583 758
1585 434
1588 748
1590 490
1595 434
1595 735
1598 483
1600 494
1603 440
1603 473
1603 728
1605 450
1605 705
1605 715
1607 460
1609 489
1610 695
1618 484
1618 688
1620 670
1625 476
1625 660
1630 645
1633 469
1635 630
1640 595
1640 605
1640 615
1643 470
1645 575
1645 585
1650 555
1650 565
1652 475
1655 535
1655 545
1660 482
1660 492
1660 502
1660 515
1660 525
