49 382
49 392
49 402
49 412
49 422
49 432
54 362
54 372
54 441
54 451
54 461
59 347
59 470
62 480
64 332
67 489
69 322
71 499
74 312
76 508
79 302
80 518
84 292
88 525
90 400
90 410
90 420
90 430
92 284
92 440
95 375
95 385
95 450
95 460
95 533
97 274
100 365
100 469
105 266
105 350
105 478
105 537
110 340
113 259
113 485
114 542
115 330
117 249
120 320
122 490
124 545
125 241
128 313
132 494
133 234
133 303
133 550
140 226
140 295
141 499
143 550
148 288
150 221
150 494
153 550
155 280
158 214
160 494
163 273
163 548
165 206
170 265
170 491
173 545
175 204
179 260
180 489
182 540
184 197
188 255
189 484
191 535
194 192
197 250
198 479
200 530
204 187
205 471
206 245
208 523
213 464
214 182
215 240
215 515
219 452
223 508
224 177
224 235
227 444
230 500
233 230
234 172
235 436
238 493
240 426
242 225
244 169
245 480
248 419
251 220
252 409
253 164
253 473
257 399
260 215
260 465
262 159
264 387
265 455
270 210
271 154
272 379
273 448
278 438
279 147
279 367
280 205
283 428
287 359
288 418
289 142
290 200
292 349
293 408
297 134
299 195
300 341
300 395
307 129
307 189
308 334
308 388
313 378
314 322
315 121
317 184
320 370
322 314
323 114
325 175
325 360
330 106
330 306
333 353
335 175
338 299
338 343
340 101
345 175
345 291
345 335
350 99
353 284
353 328
355 175
357 274
358 318
359 94
364 170
365 266
365 310
369 92
372 164
373 259
373 303
378 293
379 89
379 247
380 155
385 280
387 239
389 89
390 150
392 229
393 273
397 219
398 263
399 91
400 145
405 211
405 250
408 96
409 140
410 240
413 204
415 230
417 134
418 99
420 215
425 125
427 104
430 114
