14 72
16 50
16 60
19 81
26 50
29 81
36 50
39 81
46 51
49 81
56 52
57 87
63 95
66 52
70 103
76 28
76 38
76 48
80 107
81 19
82 210
82 220
86 52
88 200
90 109
91 16
92 26
92 119
92 129
92 139
92 149
92 159
92 169
92 179
92 189
92 221
96 52
97 35
102 221
106 50
112 221
116 50
122 221
126 50
127 190
129 104
129 114
129 124
129 134
129 144
129 154
129 164
129 174
130 200
132 221
135 209
136 50
137 98
145 88
146 50
152 58
153 81
155 68
163 81
165 70
173 81
175 70
183 76
