26 76
32 50
32 60
35 81
42 50
45 81
52 50
52 89
58 97
62 50
66 103
68 212
72 51
73 221
74 202
76 107
78 188
80 117
80 127
80 137
80 147
80 157
80 167
80 177
82 52
83 221
92 52
93 221
96 22
96 32
100 42
103 221
105 27
105 51
113 221
115 52
115 108
115 118
115 128
115 138
115 148
115 158
115 168
115 178
115 188
117 198
122 207
123 221
125 52
125 105
134 99
135 51
142 93
145 50
148 85
155 50
158 81
165 50
168 81
171 58
171 68
