18 74
20 50
20 60
26 81
30 50
36 81
40 50
46 81
50 50
54 87
60 52
60 95
68 102
70 52
76 214
78 106
80 52
82 206
84 30
84 40
84 221
86 196
88 18
88 110
88 120
88 130
88 140
88 150
88 160
88 170
88 180
91 48
94 28
94 221
101 52
104 221
111 52
114 221
121 50
123 106
123 116
123 126
123 136
123 146
123 156
123 166
123 176
123 186
124 196
124 221
128 206
131 50
133 102
134 221
141 50
141 96
147 88
151 50
155 81
161 50
162 60
164 70
165 81
174 70
175 81
