22 78
28 70
32 81
38 70
42 81
48 70
52 81
56 212
58 70
58 89
61 221
62 202
63 98
66 108
66 188
68 64
68 118
68 128
68 138
68 148
68 158
68 168
68 178
71 221
74 50
81 221
84 50
91 221
94 50
100 28
101 112
101 122
101 132
101 142
101 152
101 162
101 172
101 182
101 192
101 221
104 50
106 20
106 201
111 109
111 210
111 221
114 50
116 16
121 107
123 24
124 50
128 33
130 101
133 24
135 41
135 51
135 90
140 81
145 50
150 81
155 50
160 81
165 50
170 81
175 50
177 60
179 70
