16 76
24 70
25 81
34 70
35 81
39 61
42 50
45 81
52 50
52 89
58 97
62 50
62 212
66 103
67 221
68 202
72 50
72 111
72 121
72 131
72 141
72 151
72 161
72 171
72 181
72 191
77 221
82 50
87 221
92 51
97 221
98 24
99 34
102 52
104 16
107 221
109 110
109 120
109 130
109 140
109 150
109 160
109 170
109 180
109 190
110 24
112 34
112 44
112 200
116 210
117 221
119 107
120 51
129 102
130 52
137 96
140 52
143 86
150 50
152 81
160 50
162 81
170 50
172 81
180 50
181 60
181 70
182 81
