36 52
36 62
36 72
41 81
46 50
51 81
56 50
60 30
60 40
61 81
66 22
67 48
68 89
70 99
74 16
77 50
78 106
82 23
87 50
88 109
88 212
90 29
93 221
94 202
97 50
98 110
98 120
98 130
98 140
98 150
98 160
98 170
98 180
98 190
103 221
105 56
111 64
113 221
119 70
123 221
129 70
133 221
135 100
135 110
135 120
135 130
135 140
135 150
135 160
135 170
135 180
135 190
138 200
139 70
139 90
143 209
143 221
144 81
149 70
154 81
159 70
