449 957
449 967
449 977
449 987
449 997
449 1007
449 1017
449 1027
449 1037
449 1047
449 1057
454 932
454 942
454 1066
454 1076
459 912
459 922
459 1085
459 1095
462 1105
464 887
464 897
464 1115
467 1125
469 867
469 877
472 1134
474 857
479 842
479 1142
484 832
484 1151
489 822
491 1159
494 67
494 77
494 87
494 97
494 812
499 57
499 106
499 1165
502 804
502 1175
506 114
507 49
510 796
510 1182
514 120
514 130
515 41
517 1190
518 789
519 139
519 149
524 158
524 168
524 777
525 36
525 178
525 1197
529 188
530 198
532 769
532 1205
534 208
534 218
535 34
539 227
539 237
540 761
542 1209
544 246
544 256
544 266
545 34
548 754
549 275
549 285
549 1217
552 295
554 305
554 315
554 325
554 335
555 34
555 746
559 344
559 354
559 364
559 374
559 1220
561 384
564 39
564 394
564 404
564 414
564 424
564 702
564 712
564 722
564 732
566 434
568 1225
569 444
569 454
569 464
569 474
569 657
569 667
569 677
569 687
572 45
574 483
574 493
574 503
574 513
574 523
574 533
574 543
574 553
574 563
574 573
574 583
574 593
574 603
574 613
574 623
574 633
574 643
577 1230
580 52
586 1235
587 60
595 67
595 1240
600 76
604 1245
605 85
605 95
610 104
610 114
614 1245
615 123
615 133
615 143
620 152
620 162
623 1250
625 171
625 181
628 191
630 201
633 211
633 1250
635 221
635 231
640 240
640 250
642 260
643 1250
645 270
645 850
645 860
645 870
645 880
645 890
645 900
645 910
645 920
645 930
645 940
645 950
645 960
645 970
645 980
645 990
645 1000
645 1010
645 1020
647 280
647 1030
650 290
650 300
650 310
650 320
650 805
650 815
650 825
650 835
650 1040
650 1050
650 1060
650 1070
652 1245
655 329
655 339
655 349
655 359
655 369
655 760
655 770
655 780
655 790
655 1079
655 1089
660 378
660 388
660 398
660 408
660 418
660 715
660 725
660 735
660 745
660 1098
660 1108
660 1118
661 1240
665 427
665 437
665 447
665 457
665 665
665 675
665 685
665 695
665 705
665 1127
665 1137
669 467
669 1232
670 477
670 487
670 497
670 507
670 517
670 527
670 537
670 547
670 557
670 567
670 577
670 587
670 597
670 607
670 617
670 627
670 637
670 647
670 1146
670 1156
675 1165
675 1175
675 1220
677 1185
680 1195
680 1205
