50 421
50 431
50 441
50 451
50 461
55 406
55 470
55 480
58 490
60 396
63 499
68 389
70 507
73 379
75 425
75 435
75 445
75 455
75 516
80 371
80 410
80 464
80 474
80 484
81 524
88 403
88 490
89 530
90 366
91 500
93 393
95 538
98 360
99 506
100 547
103 388
105 461
105 514
108 359
110 380
110 446
110 470
110 480
110 551
113 520
115 351
115 431
116 488
116 559
119 528
120 380
120 421
120 498
123 345
124 565
125 411
127 535
128 373
128 504
133 344
133 404
133 570
134 543
135 365
135 445
135 455
135 465
135 512
136 475
140 435
141 484
143 340
143 399
143 519
143 574
144 546
145 365
148 428
149 491
150 391
152 524
152 579
153 339
153 551
154 420
155 365
155 499
160 386
160 530
162 414
162 580
163 335
163 505
163 555
164 360
165 451
169 461
170 385
170 531
171 585
172 410
173 334
173 445
173 505
173 555
174 360
179 465
180 385
180 535
181 585
182 410
182 510
182 560
183 330
183 355
183 445
188 470
190 385
190 530
191 505
191 585
192 410
192 560
193 330
193 355
193 445
198 470
200 381
200 530
201 405
201 500
201 555
201 585
202 325
202 350
203 445
205 478
209 493
209 525
210 380
210 580
211 405
211 550
212 325
212 350
212 450
219 458
219 522
219 543
220 380
220 575
221 320
221 345
221 405
224 512
226 535
227 465
228 568
230 380
231 320
231 345
231 405
232 504
234 528
235 471
235 481
235 491
235 560
239 411
239 518
240 340
240 383
241 315
243 553
244 420
245 501
249 388
250 340
250 428
250 491
250 545
251 315
255 396
255 437
255 471
255 481
255 535
260 340
260 446
260 456
261 315
261 404
263 528
265 515
269 345
269 411
271 310
273 508
275 419
275 490
278 350
280 428
280 470
280 480
281 310
284 438
285 448
285 458
288 350
290 305
297 355
300 305
307 355
310 305
316 360
320 301
326 360
330 296
335 365
338 289
345 281
345 365
353 274
355 365
360 266
365 365
370 261
375 365
380 260
385 365
390 260
395 365
400 260
405 365
410 260
415 360
420 260
425 360
429 265
434 355
439 265
443 350
449 265
453 348
459 265
463 345
469 265
473 343
479 265
483 338
489 265
490 330
499 266
499 325
505 274
507 319
515 275
515 310
524 305
525 275
533 300
535 275
543 300
545 275
553 300
555 275
563 300
565 275
573 300
575 275
583 300
585 275
593 300
595 275
603 300
605 275
613 300
615 275
623 300
625 275
633 300
634 280
643 300
644 280
653 304
654 280
663 305
664 280
673 305
674 280
683 305
684 280
693 305
694 281
702 310
704 285
712 310
714 286
720 96
720 106
720 116
721 315
724 290
725 81
725 125
728 135
730 71
731 315
733 144
734 290
735 154
740 61
740 163
741 315
744 290
745 172
748 55
750 90
750 100
750 110
750 120
750 181
751 130
751 318
753 295
755 80
755 140
756 189
757 50
760 149
761 320
763 73
763 295
764 195
765 41
765 158
768 205
769 168
771 320
773 68
773 295
775 36
775 213
777 175
780 60
781 185
781 323
782 300
785 31
785 216
789 191
790 55
791 325
792 300
794 221
795 30
798 196
800 55
800 106
800 116
800 126
801 305
801 325
804 225
805 26
805 91
805 135
808 200
809 50
811 305
811 328
813 230
814 140
815 21
815 81
817 205
818 150
819 50
821 305
821 330
823 234
825 20
825 76
825 110
826 120
827 205
828 45
828 154
831 309
831 333
833 103
833 235
834 126
835 20
835 75
836 210
838 45
838 155
841 310
841 335
843 98
843 131
843 235
844 70
845 20
846 210
848 49
848 153
851 310
851 335
853 95
853 135
853 235
854 70
855 20
855 145
855 205
858 50
861 310
861 335
862 230
863 95
864 70
864 200
865 23
868 50
871 225
871 310
871 335
873 95
873 194
874 70
875 25
878 54
880 186
880 215
881 310
881 335
883 95
884 30
884 71
888 55
888 179
890 210
890 330
891 305
892 100
893 76
894 31
895 171
897 60
897 109
898 203
900 84
900 161
900 330
901 305
903 36
905 66
905 116
905 151
905 195
908 90
909 126
910 136
910 325
911 74
911 300
913 40
913 188
914 98
919 48
920 180
920 325
921 78
921 300
922 105
925 88
925 165
926 115
927 55
930 150
930 320
931 295
933 94
934 121
935 131
935 141
936 60
940 102
940 286
940 320
944 66
945 111
948 313
949 121
950 74
950 131
950 281
955 83
955 140
955 305
958 150
958 274
960 92
960 160
960 170
965 101
965 179
965 266
965 300
970 110
970 188
970 198
970 208
970 218
970 228
970 238
970 248
974 295
975 119
980 128
980 138
980 285
984 148
985 158
988 278
989 168
990 178
990 265
995 187
995 197
995 255
999 207
1000 217
1000 227
1000 237
