85 1756
85 1766
85 1776
85 1786
85 1796
85 1806
85 1816
85 1826
85 1836
85 1846
85 1856
90 1731
90 1741
90 1865
93 1875
95 1711
95 1721
98 1884
100 1691
100 1701
101 1894
105 1681
106 1903
110 1666
114 1910
115 1656
118 1920
120 1646
125 1636
125 1928
130 1626
133 1934
136 1944
138 1619
144 1950
145 1601
145 1611
148 1960
150 1591
153 1969
158 1584
160 1977
165 1576
165 1986
171 1994
173 1569
176 2003
180 1561
180 2013
188 1554
188 2019
191 2029
195 1780
195 1790
195 1800
195 1810
195 1820
195 1830
196 1840
198 1549
199 2035
200 1735
200 1745
200 1755
200 1765
200 1850
205 1715
205 1725
205 1859
205 1869
205 2043
208 1544
210 1705
210 1878
213 2049
214 1888
218 1540
218 1698
219 1897
222 2054
225 1761
225 1771
225 1781
225 1791
225 1905
227 1535
228 1693
230 1751
230 1800
230 1810
230 1820
230 1830
230 1840
230 1914
231 2059
235 1685
235 1849
235 1923
237 1535
238 1744
240 1858
241 2063
243 1930
245 1680
246 1530
248 1739
248 1864
249 1938
250 2068
255 1675
255 1872
256 1530
257 1945
258 1735
260 2070
263 1879
264 1953
265 1675
266 1530
268 1735
269 2075
272 1884
274 1670
274 1956
276 1530
277 1740
279 2075
281 1889
284 1670
284 1748
284 1960
286 1530
289 1895
289 2075
290 1756
293 1905
293 1965
294 1670
295 1765
295 1775
296 1530
296 1785
298 2080
300 1795
300 1805
300 1815
300 1913
303 1965
304 1670
305 1824
306 1530
308 2080
310 1916
312 1970
313 1675
315 1828
316 1530
318 2080
320 1920
322 1970
323 1679
325 1830
326 1530
328 2080
330 1920
332 1684
332 1970
335 1830
336 1534
338 2080
340 1691
340 1920
342 1970
344 1701
344 1825
346 1535
348 2080
350 1709
350 1920
352 1970
353 1819
355 1718
355 1801
356 1539
358 2080
360 1781
360 1791
360 1915
362 1970
363 1724
365 1761
365 1771
366 1540
366 1734
368 2080
370 1744
370 1915
372 1970
375 1545
378 2080
380 1910
382 1970
384 1550
388 2080
390 1905
391 1965
393 1555
398 1898
398 2080
401 1960
402 1560
405 1890
408 2078
409 1953
410 1880
411 1565
415 1870
418 2075
419 1571
419 1948
423 1863
425 1579
426 1940
427 2070
430 1850
433 1585
434 1933
435 1840
437 2069
439 1593
440 1830
441 1925
444 1602
445 1820
447 2064
449 1611
450 1916
453 1621
453 1813
457 2059
458 1630
458 1909
460 1800
461 1640
465 1650
465 1785
465 1901
467 2054
470 1659
470 1669
470 1679
470 1689
470 1699
470 1709
470 1719
470 1729
470 1739
470 1749
470 1759
470 1769
473 1894
477 2049
480 1221
480 1231
480 1241
480 1251
480 1261
480 1271
480 1281
480 1291
480 1301
480 1311
480 1321
480 1331
480 1341
480 1351
480 1361
480 1371
480 1381
480 1391
480 1401
480 1411
480 1886
485 1186
485 1196
485 1206
485 1420
485 1430
485 1440
485 1450
485 1460
485 1871
487 2044
490 1166
490 1176
490 1469
490 1479
490 1846
490 1856
495 1146
495 1156
495 1488
495 1498
495 1831
495 2035
500 1131
500 1507
500 1517
500 1527
500 1811
500 1821
503 2028
505 1111
505 1121
505 1536
505 1546
505 1556
505 1566
505 1791
505 1801
509 1576
510 1091
510 1101
510 1586
510 1771
510 1781
510 2020
515 1076
515 1595
515 1751
515 1761
515 2010
518 1605
520 1066
520 1615
520 1625
520 1635
520 1731
520 1741
520 2000
525 1046
525 1056
525 1644
525 1654
525 1664
525 1674
525 1684
525 1694
525 1704
525 1714
525 1990
530 1031
533 1983
535 1006
535 1016
540 996
540 1975
545 981
545 1965
550 961
550 971
554 1960
555 951
560 941
562 1954
565 931
570 916
570 1945
575 901
578 1938
580 891
583 1928
585 876
590 866
590 1920
595 851
595 1910
600 841
603 1903
605 831
609 1895
610 811
610 821
615 801
617 1889
620 791
625 781
625 1880
630 771
630 1870
635 761
638 1863
640 751
645 741
645 1850
650 731
653 1843
655 721
658 1833
660 711
665 701
665 1820
670 1810
673 694
675 1800
680 1790
683 689
685 1775
688 679
690 1760
693 669
695 646
695 656
695 1750
700 636
700 1735
705 1720
708 629
710 1705
713 619
715 1685
715 1695
720 611
720 1655
720 1665
720 1675
725 1615
725 1625
725 1635
725 1645
728 604
730 1555
730 1565
730 1575
730 1585
730 1595
730 1605
733 594
735 1085
735 1095
735 1105
735 1115
735 1125
735 1135
735 1145
735 1155
735 1165
735 1175
735 1185
735 1195
735 1205
735 1215
735 1225
735 1235
735 1245
735 1255
735 1265
735 1275
735 1285
735 1295
735 1305
735 1315
735 1325
735 1335
735 1345
735 1355
735 1365
735 1375
735 1385
735 1395
735 1405
735 1415
735 1425
735 1435
735 1445
735 1455
735 1465
735 1475
735 1485
735 1495
735 1505
735 1515
735 1525
735 1535
735 1545
740 586
740 1005
740 1015
740 1025
740 1035
740 1045
740 1055
740 1065
740 1075
745 970
745 980
745 990
748 579
750 945
750 955
755 571
755 920
755 930
760 900
760 910
763 564
765 880
765 890
770 551
770 865
775 850
778 544
780 830
780 840
785 531
785 820
790 805
793 524
795 790
800 516
803 783
808 773
810 511
813 763
815 501
815 750
820 740
823 494
825 730
830 720
833 489
835 710
840 481
843 703
848 693
850 476
853 683
858 673
860 475
865 665
870 466
870 655
875 645
878 459
883 638
888 454
890 630
895 620
898 449
900 691
900 701
900 711
900 721
900 731
900 741
903 613
905 441
905 681
905 750
908 603
910 759
913 674
915 436
915 595
915 768
920 666
920 777
923 588
925 431
925 786
928 659
930 795
933 583
935 426
936 803
938 654
940 575
944 810
945 425
948 568
948 649
950 818
954 420
955 641
955 827
958 563
963 635
963 834
964 418
968 558
970 715
970 842
971 725
972 630
974 413
976 734
978 553
978 849
979 710
980 621
980 744
984 410
985 753
986 855
987 704
988 548
990 616
991 864
993 760
994 408
995 695
996 873
998 543
999 768
1000 611
1004 403
1004 690
1004 777
1004 880
1008 538
1008 605
1009 786
1013 685
1013 885
1014 400
1014 795
1017 600
1018 533
1018 894
1022 680
1023 800
1024 400
1025 902
1026 595
1028 530
1029 808
1031 675
1033 909
1034 398
1036 590
1037 525
1037 815
1039 667
1040 917
1044 395
1044 823
1045 926
1046 520
1046 590
1049 662
1050 831
1051 934
1054 395
1055 515
1055 585
1055 840
1059 660
1060 939
1063 846
1064 395
1064 580
1065 510
1065 948
1068 655
1070 957
1073 850
1074 393
1074 578
1075 510
1077 650
1078 964
1079 858
1084 390
1084 575
1085 505
1085 972
1086 645
1087 865
1090 751
1090 761
1090 771
1093 979
1094 390
1094 573
1094 781
1095 500
1095 741
1096 645
1096 870
1099 790
1100 987
1103 734
1103 800
1104 390
1104 570
1105 500
1105 640
1105 875
1108 809
1108 994
1110 726
1113 385
1113 565
1115 495
1115 640
1115 817
1115 875
1115 1002
1118 719
1123 385
1123 565
1123 709
1124 635
1124 880
1125 495
1125 821
1125 1006
1130 701
1131 1014
1132 560
1133 385
1134 635
1134 880
1135 495
1135 825
1140 696
1141 1018
1142 560
1143 385
1143 630
1144 490
1144 880
1145 826
1149 1025
1150 695
1152 560
1153 385
1153 630
1154 490
1154 880
1155 830
1155 1033
1160 698
1161 555
1163 385
1163 485
1163 630
1163 1039
1164 880
1165 830
1169 703
1171 555
1171 1045
1172 625
1173 385
1173 485
1173 885
1175 755
1175 830
1177 710
1180 745
1180 1050
1181 555
1181 720
1182 625
1183 385
1183 485
1183 885
1184 760
1185 730
1185 830
1189 1055
1191 555
1192 480
1192 625
1193 385
1193 885
1194 760
1195 830
1199 1055
1201 555
1202 480
1202 625
1203 385
1203 885
1204 760
1205 830
1208 1060
1211 555
1212 480
1212 625
1213 385
1213 885
1214 760
1215 830
1217 1065
1221 555
1222 479
1222 625
1222 880
1223 385
1224 760
1225 830
1226 1070
1231 555
1232 475
1232 625
1232 880
1233 385
1234 760
1235 830
1235 1075
1241 555
1241 875
1242 390
1242 475
1242 625
1244 760
1245 830
1245 1075
1251 555
1251 875
1252 390
1252 475
1252 625
1254 760
1255 830
1255 1076
1261 395
1261 555
1261 875
1262 475
1262 629
1264 758
1265 830
1265 1080
1266 639
1270 870
1271 395
1271 555
1271 648
1272 475
1274 755
1275 658
1275 830
1275 1080
1280 667
1280 746
1280 866
1281 399
1281 555
1282 479
1284 825
1285 676
1285 686
1285 736
1285 1080
1289 696
1290 404
1290 560
1290 706
1290 716
1290 726
1290 861
1292 480
1294 822
1295 1080
1298 566
1300 408
1300 486
1300 860
1304 820
1305 574
1305 1080
1306 494
1309 855
1310 410
1313 580
1313 815
1314 500
1315 1080
1318 850
1319 415
1319 588
1322 809
1323 505
1324 597
1325 1080
1327 845
1328 420
1329 606
1330 800
1332 510
1333 616
1335 1080
1337 845
1338 420
1338 625
1338 793
1341 515
1341 635
1343 783
1345 645
1345 1080
1346 524
1346 840
1347 425
1348 773
1350 654
1353 763
1354 530
1355 663
1355 673
1355 683
1355 835
1355 1075
1356 430
1358 753
1360 538
1360 692
1360 702
1360 712
1360 722
1360 732
1360 742
1363 829
1365 435
1365 1075
1368 544
1373 441
1373 824
1374 1070
1375 552
1375 562
1380 449
1380 571
1380 816
1383 1065
1386 579
1390 453
1390 589
1390 811
1392 1059
1395 598
1398 460
1398 804
1400 607
1402 1054
1404 468
1405 616
1405 796
1409 477
1409 626
1410 636
1410 771
1410 781
1410 1045
1414 646
1415 656
1415 666
1415 751
1415 761
1416 485
1418 1038
1420 675
1420 685
1420 695
1420 705
1420 715
1420 725
1420 735
1421 494
1423 1028
1425 504
1428 1018
1433 510
1435 1010
1439 518
1440 1000
1445 985
1447 525
1450 965
1450 975
1451 535
1455 955
1459 541
1460 935
1460 945
1465 549
1465 900
1465 910
1465 920
1470 558
1470 890
1475 567
1475 860
1475 870
1475 880
1480 576
1480 850
1485 585
1485 815
1485 825
1485 835
1490 594
1490 604
1490 755
1490 765
1490 775
1490 785
1490 795
1490 805
1495 613
1495 745
1499 623
1500 633
1500 643
1500 653
1500 663
1500 673
1500 683
1500 693
1500 703
1500 713
1500 723
1500 733
