1149 447
1149 457
1154 437
1157 464
1164 432
1165 470
1174 429
1174 475
1174 897
1174 907
1182 889
1183 480
1184 429
1184 910
1191 884
1193 480
1193 915
1194 431
1200 488
1200 879
1200 923
1204 434
1204 498
1204 508
1204 518
1204 528
1208 930
1209 537
1209 867
1213 439
1214 546
1214 852
1217 935
1219 822
1219 832
1219 842
1221 554
1222 444
1224 752
1224 762
1224 772
1224 782
1224 792
1224 802
1224 812
1225 942
1229 560
1229 727
1229 737
1230 450
1234 717
1235 459
1235 469
1235 945
1238 565
1242 709
1245 469
1245 940
1248 565
1250 930
1252 704
1255 472
1255 573
1255 905
1255 915
1260 875
1260 885
1260 895
1261 699
1265 474
1265 577
1265 830
1265 840
1265 850
1265 860
1269 692
1270 795
1270 805
1270 815
1274 582
1275 474
1275 750
1275 760
1275 770
1275 780
1277 684
1280 735
1284 585
1285 477
1286 679
1290 735
1293 590
1294 672
1295 479
1299 730
1300 598
1304 667
1305 482
1307 724
1308 605
1312 490
1312 659
1314 613
1317 719
1319 622
1320 497
1320 651
1325 710
1327 505
1327 629
1329 639
1335 710
1337 509
1344 517
1345 710
1352 524
1355 710
1359 532
1365 710
1369 536
1375 544
1375 712
1380 553
1382 720
1385 562
1389 728
1390 571
1395 580
1397 735
1400 589
1405 598
1405 742
1409 752
1413 605
1417 759
1420 613
1424 767
1428 620
1430 775
1432 630
1439 780
1440 637
1444 647
1445 788
1450 655
1455 664
1455 792
1460 673
1464 797
1465 682
1472 690
1474 800
1477 699
1483 805
1484 707
1489 716
1493 726
1493 805
1500 734
1503 805
1505 743
1513 750
1513 805
1520 758
1523 805
1530 759
1533 805
1540 759
1543 805
1549 764
1553 805
1559 766
1562 810
1569 769
1572 810
1578 774
1582 814
1588 774
1592 815
1597 779
1602 815
1607 779
1611 820
1616 784
1621 820
1626 784
1631 823
1635 789
1641 825
1645 789
1651 828
1655 789
1661 830
1665 789
1671 833
1675 789
1681 835
1685 789
1691 835
1695 789
1701 835
1705 789
1709 841
1715 789
1716 849
1725 789
1726 853
1734 860
1735 792
1743 865
1744 797
1749 806
1749 873
1755 814
1755 824
1755 834
1755 844
1755 854
1755 864
