38 200
40 210
42 190
44 220
48 182
50 314
50 324
50 334
50 344
51 228
52 354
54 300
57 177
58 288
59 235
60 361
67 174
67 241
67 283
68 368
76 246
76 278
77 172
78 371
83 163
86 250
86 276
88 371
93 159
96 253
96 276
98 371
102 38
102 48
102 58
103 156
106 68
106 256
106 274
108 371
110 30
110 78
113 154
114 88
114 98
114 108
114 118
116 128
116 255
116 272
118 24
118 138
118 371
122 263
123 152
126 365
128 22
136 363
138 20
146 365
148 22
156 367
158 25
166 369
167 30
176 371
177 34
186 371
187 34
196 371
197 33
206 371
207 34
216 371
217 34
226 369
227 32
236 369
237 27
246 367
247 23
256 365
257 21
266 363
267 20
274 149
276 253
276 367
277 24
277 263
279 140
282 272
283 130
283 154
285 86
285 96
285 116
286 106
286 255
286 371
287 28
289 76
292 273
293 66
293 154
294 36
296 253
296 371
297 46
297 56
302 276
303 158
306 253
306 371
312 276
313 162
316 249
316 371
320 170
322 276
326 245
326 371
330 173
330 282
334 239
334 365
339 287
340 176
342 233
342 359
343 297
347 307
349 181
349 317
349 332
349 342
350 227
356 219
357 188
360 198
360 209
