474 877
474 887
474 897
474 907
474 917
479 867
479 926
479 936
484 552
484 562
484 572
484 582
484 592
484 945
487 859
489 542
489 601
489 611
489 954
494 527
494 620
495 851
495 962
497 630
499 512
499 972
500 841
502 639
504 502
504 981
504 991
506 649
508 834
509 492
509 1000
511 658
512 1010
514 1020
517 484
517 829
519 665
519 1029
519 1039
524 1048
525 476
525 673
525 1058
527 829
530 1067
533 469
533 680
534 1077
536 824
539 1086
540 688
542 464
544 1095
545 697
546 824
547 1105
551 459
552 705
555 1112
556 824
561 459
562 709
564 1117
566 824
571 459
571 714
572 1124
576 824
580 1130
581 459
581 718
585 829
589 725
589 1135
590 464
595 832
598 470
598 730
598 1140
602 480
605 834
605 1148
607 735
610 487
613 840
614 497
615 742
615 1152
619 506
620 516
620 526
620 848
624 747
625 535
625 1155
628 855
630 544
634 750
635 863
635 1155
639 302
639 312
639 322
639 332
639 342
639 352
639 362
639 372
639 549
643 755
644 292
644 381
644 391
645 867
645 1155
649 282
649 400
649 549
652 875
653 755
654 267
654 409
655 1155
659 257
659 549
660 417
660 882
662 760
665 1155
667 249
667 769
667 890
669 422
669 549
671 779
672 899
675 241
675 1155
676 788
679 425
679 549
679 907
680 798
684 808
684 818
684 828
684 838
684 848
684 858
684 868
684 878
684 888
684 898
684 1150
685 236
685 915
689 422
689 549
694 1150
695 234
699 417
699 549
703 1145
705 234
709 412
709 549
713 1145
715 234
717 405
719 549
722 1140
724 239
726 400
729 549
731 1135
733 244
734 406
734 416
739 425
739 547
740 1130
742 435
743 244
749 544
750 1130
752 439
753 244
758 539
759 447
759 457
759 1125
763 244
764 466
764 476
764 486
764 496
764 506
764 516
764 526
767 1119
769 132
769 142
769 152
769 162
769 172
769 182
769 192
769 202
769 212
769 222
769 232
774 122
777 1114
782 114
785 1105
791 109
795 1100
799 102
800 1090
808 1083
809 99
813 1073
819 101
823 1070
828 106
833 1070
838 109
840 1078
847 114
848 1085
856 119
857 1090
864 126
867 1090
868 136
874 144
876 1095
883 149
886 1095
893 149
895 1100
903 149
905 1100
913 149
914 1105
923 149
924 1105
933 149
934 1105
943 149
944 1105
953 149
954 1105
963 149
964 1105
973 149
974 1105
983 149
984 1105
993 149
994 1105
1003 149
1004 1105
1012 144
1014 1105
1022 144
1023 1100
1032 144
1032 1094
1040 1080
1042 144
1045 1070
1052 139
1055 1070
1062 139
1064 1075
1070 1083
1072 134
1078 1090
1080 126
1084 1098
1089 1107
1090 121
1095 111
1097 1114
1104 1122
1105 106
1109 1131
1114 1140
1115 104
1120 450
1120 1148
1125 107
1125 440
1125 459
1125 469
1125 1157
1132 115
1132 1165
1133 475
1134 445
1137 124
1140 134
1140 483
1140 493
1141 1170
1143 440
1145 143
1145 502
1149 512
1150 152
1150 1175
1153 438
1154 162
1157 519
1159 171
1160 1175
1163 433
1165 179
1167 519
1170 1175
1173 185
1173 428
1177 519
1180 420
1180 1175
1182 190
1187 519
1190 197
1190 415
1190 1175
1197 519
1198 204
1198 408
1200 1175
1207 519
1208 205
1208 403
1210 1175
1215 395
1217 210
1217 519
1220 1175
1223 388
1225 217
1225 265
1225 275
1225 285
1227 295
1227 519
1229 1170
1230 305
1230 315
1230 325
1230 335
1230 345
1230 355
1230 365
1230 375
1232 225
1233 258
1237 234
1237 519
1239 1170
1240 244
1244 527
1249 1170
1250 535
1250 545
1255 554
1258 1165
1265 557
1267 1160
1272 565
1276 1155
1280 572
1280 582
1280 1145
1285 1135
1287 590
1293 1128
1295 597
1299 607
1300 1115
1305 615
1308 1108
1310 624
1313 1098
1315 633
1320 642
1320 1085
1327 650
1328 1078
1333 1068
1335 657
1339 667
1340 1055
1345 1045
1347 674
1350 840
1353 1038
1354 682
1355 849
1358 833
1358 1028
1364 686
1365 852
1365 1020
1368 828
1373 691
1373 1013
1374 857
1378 823
1379 866
1380 699
1380 876
1380 1000
1385 885
1385 895
1385 985
1387 905
1388 705
1388 818
1390 915
1390 925
1390 935
1390 945
1390 955
1390 965
1390 975
1395 713
1395 810
1400 722
1405 731
1405 805
1410 740
1410 795
1412 750
1415 760
1415 770
1415 780
