38 202
41 212
42 190
45 222
50 182
53 229
54 316
54 326
54 336
54 346
56 356
58 176
58 302
60 237
62 290
64 362
68 174
68 243
70 284
73 367
76 168
78 247
78 278
83 371
84 162
88 251
88 276
93 371
94 158
96 40
96 50
96 60
98 252
98 276
101 69
102 32
103 371
104 79
104 154
107 257
108 89
108 99
108 109
108 119
108 272
110 26
110 129
113 371
114 139
114 154
117 253
118 263
120 22
123 370
130 20
132 365
140 22
142 366
150 24
152 368
159 29
162 369
168 34
172 371
178 34
182 371
188 34
192 371
198 33
202 371
208 34
212 371
218 34
222 369
227 29
232 369
236 24
242 367
246 22
252 365
256 20
262 363
266 22
270 149
272 253
272 363
275 138
275 263
276 25
279 86
279 96
279 122
279 154
280 272
280 369
281 106
282 255
283 74
284 31
287 64
289 154
290 273
290 371
291 39
291 49
292 253
299 158
300 276
300 371
302 253
309 162
310 276
310 371
312 249
315 170
320 276
320 371
322 245
325 172
330 278
330 369
332 241
335 176
338 284
338 363
340 235
345 178
345 292
346 357
348 229
349 302
351 312
353 184
353 322
353 332
353 342
355 218
359 192
359 208
