72 200
75 210
76 90
76 100
76 110
76 184
78 120
78 220
80 76
82 130
82 176
84 66
84 228
86 140
88 36
88 46
88 56
89 237
90 166
90 280
90 290
91 149
92 247
92 257
92 267
94 28
94 300
94 310
94 320
94 330
96 340
99 350
102 22
102 360
111 365
112 20
121 369
122 22
131 371
132 26
140 33
141 371
150 34
151 370
158 26
161 371
168 22
171 371
178 20
181 371
188 22
191 371
197 27
201 370
203 35
207 45
207 56
207 66
209 364
212 75
218 83
219 363
223 154
227 88
228 145
229 363
231 160
236 93
237 140
237 168
239 361
242 131
244 99
244 121
245 110
247 170
249 363
251 250
253 260
254 270
257 172
258 280
259 367
261 246
267 172
268 280
269 369
271 243
277 174
278 278
279 371
281 238
287 178
288 276
289 371
290 233
296 183
296 225
298 276
299 369
301 192
301 202
301 212
308 276
309 365
318 280
319 360
324 288
325 350
327 298
327 308
327 336
329 318
