66 196
66 206
68 216
70 180
73 225
74 90
74 100
74 110
76 120
78 76
78 174
80 130
80 233
82 36
82 46
82 56
82 66
86 138
86 166
86 241
86 286
88 28
88 272
89 296
90 148
90 251
90 261
92 158
92 306
92 316
92 326
93 336
96 22
96 346
98 356
106 20
106 363
116 22
116 367
126 25
126 371
134 31
136 371
144 34
146 371
154 34
156 371
162 26
166 371
172 22
176 371
182 20
186 371
192 22
195 366
201 27
205 364
209 34
211 64
211 74
213 44
213 54
215 363
218 82
223 150
225 363
226 89
230 158
231 142
234 95
235 361
236 133
238 165
239 122
241 103
245 363
247 170
250 251
251 261
253 271
255 365
257 170
260 247
261 278
265 369
267 172
270 245
271 280
275 371
277 174
280 241
281 277
285 371
287 176
289 236
291 276
295 371
297 180
298 231
301 276
304 188
304 223
305 369
307 198
307 208
311 276
315 365
321 280
324 359
327 288
330 351
331 298
332 308
332 341
333 318
333 328
