469 877
469 887
474 867
474 896
474 906
479 857
479 915
479 925
484 934
486 944
487 849
489 954
494 963
495 841
499 972
504 527
504 537
504 547
504 557
504 567
504 577
504 587
504 597
504 981
504 991
505 836
509 512
509 606
509 616
509 1000
514 502
514 625
514 635
514 1009
515 831
519 492
519 644
519 1018
524 653
524 1027
524 1037
525 829
527 484
529 662
529 1046
532 474
534 671
534 824
534 1055
539 680
539 1064
540 466
544 822
544 1073
545 688
549 1082
550 461
550 697
554 819
554 1091
557 705
559 1100
560 456
562 1110
563 814
565 712
569 1118
570 454
572 720
573 814
574 1127
579 449
582 724
583 814
584 1130
589 449
589 1139
591 729
593 814
597 1145
599 449
601 730
603 815
606 1150
609 449
610 735
612 820
616 1150
618 454
619 740
620 827
626 1150
627 459
629 740
629 832
630 469
636 1150
638 475
638 745
639 836
642 485
644 282
644 292
644 302
644 312
644 322
644 332
644 342
645 844
646 1150
647 494
647 750
649 351
649 361
650 504
652 274
653 850
654 370
656 1150
657 754
658 510
659 379
661 269
662 520
662 855
664 388
666 1150
667 755
669 397
670 527
670 862
671 265
674 406
676 1150
677 755
677 870
680 529
681 264
681 414
685 877
685 1145
687 755
689 420
689 765
689 775
689 785
689 795
689 805
689 815
689 825
689 835
689 845
689 855
689 865
690 259
690 529
695 1145
699 420
700 259
700 529
705 1145
709 420
710 259
710 529
715 1140
719 420
720 259
720 529
725 1135
729 420
730 259
730 529
735 1135
738 425
739 435
740 259
740 529
742 445
745 1130
747 454
750 259
750 529
754 462
755 1125
760 259
760 526
762 469
764 479
765 516
765 1120
766 489
769 127
769 137
769 147
769 499
770 259
774 117
774 156
775 1115
779 165
779 175
779 185
779 195
779 205
779 215
779 225
779 235
779 245
783 1108
784 112
790 1100
792 104
800 1095
802 99
808 1088
812 99
818 1083
822 99
825 1070
832 99
835 1070
842 99
845 1070
852 99
854 1075
857 1085
861 104
865 1092
870 109
872 1100
879 114
882 1104
889 114
892 1105
898 119
902 1105
908 119
912 1105
918 119
922 1105
928 119
932 1105
938 119
942 1105
948 119
952 1105
958 119
962 1105
968 119
972 1105
978 119
982 1105
988 119
992 1105
998 119
1002 1105
1008 119
1012 1105
1018 119
1021 1100
1027 114
1029 1092
1035 1080
1037 109
1044 1075
1047 109
1054 1075
1057 104
1063 1080
1067 104
1067 1090
1075 96
1075 1097
1084 1102
1085 91
1094 1105
1095 89
1103 1110
1105 89
1112 1115
1114 94
1121 1120
1122 100
1129 1126
1130 107
1135 460
1135 470
1135 480
1136 1134
1137 115
1137 490
1140 450
1142 499
1144 1140
1145 122
1145 509
1148 443
1150 518
1150 1148
1152 130
1157 139
1158 438
1158 524
1158 1155
1160 149
1165 158
1165 430
1167 1160
1168 524
1170 167
1175 430
1175 1167
1177 175
1178 524
1184 425
1184 1172
1185 182
1187 529
1192 190
1193 420
1194 1175
1197 529
1202 194
1203 418
1204 1175
1207 529
1209 202
1213 415
1214 1175
1215 210
1217 529
1220 219
1222 410
1224 1175
1225 228
1227 529
1230 237
1230 400
1234 247
1234 1175
1235 390
1236 534
1239 256
1240 544
1243 266
1243 383
1244 1175
1245 276
1245 286
1245 296
1245 306
1245 316
1245 553
1248 326
1248 373
1253 335
1253 560
1253 1170
1255 345
1255 360
1260 568
1263 1170
1265 577
1272 585
1273 1168
1280 592
1283 1163
1285 601
1290 1155
1291 609
1300 614
1300 1150
1308 620
1308 1143
1315 628
1318 1138
1323 635
1325 1130
1330 643
1330 1120
1338 650
1338 1113
1342 660
1345 1100
1350 667
1350 1090
1357 675
1358 1083
1365 1075
1367 679
1373 1068
1374 687
1378 1058
1380 695
1383 1048
1385 704
1390 1035
1394 709
1395 1025
1400 717
1400 830
1400 840
1400 850
1400 860
1403 1018
1405 869
1405 879
1407 725
1408 823
1408 1008
1410 888
1413 998
1415 732
1415 815
1415 897
1415 985
1419 907
1420 741
1420 917
1420 927
1420 937
1420 947
1420 957
1420 967
1423 808
1425 750
1427 760
1428 798
1430 780
1432 769
