64 250
64 260
69 269
74 188
74 218
74 248
79 227
79 273
82 195
84 218
84 248
87 186
89 227
89 269
92 195
94 218
94 248
97 186
99 227
99 269
102 195
104 218
104 248
107 186
109 227
109 269
112 195
114 218
114 248
116 22
116 32
116 42
116 52
116 62
116 72
116 82
116 92
116 102
116 112
116 122
116 132
116 142
117 152
117 186
119 227
119 269
122 195
124 218
124 248
126 20
127 153
127 186
129 227
129 269
132 195
134 218
134 248
136 20
137 153
137 186
139 227
139 269
142 195
142 254
144 218
146 20
147 153
147 186
149 227
149 269
150 248
152 195
154 218
156 20
157 153
157 186
158 254
159 227
159 269
162 195
164 218
166 20
166 248
167 153
167 186
169 227
169 269
172 195
174 218
174 254
176 20
177 153
177 186
179 227
179 269
182 195
182 248
184 218
186 20
187 153
187 185
188 163
188 173
188 203
188 232
189 269
196 20
199 269
206 20
209 269
216 20
219 269
226 20
229 269
236 20
239 269
241 154
241 164
241 174
241 184
241 196
241 206
241 216
241 228
241 238
242 248
246 20
249 269
250 254
251 153
251 186
251 218
256 20
256 195
256 227
258 248
259 269
261 153
261 186
261 218
266 20
266 195
266 227
268 248
269 273
271 153
271 186
271 218
276 20
276 195
276 227
278 248
279 269
281 153
281 186
281 218
286 20
286 195
286 227
288 248
289 269
291 29
291 39
291 49
291 59
291 69
291 79
291 89
291 99
291 109
291 119
291 129
291 139
291 149
291 186
291 218
296 195
296 227
298 248
299 269
301 186
301 218
308 248
309 269
318 248
319 271
328 248
329 269
335 256
