126 252
126 262
132 270
136 248
142 269
146 248
152 269
156 248
160 188
160 218
162 42
162 52
162 62
162 72
162 82
162 92
162 102
162 112
162 122
162 132
162 142
162 152
162 162
162 172
162 198
162 208
162 228
162 238
162 269
170 22
170 32
172 269
180 20
182 269
190 20
192 269
193 154
193 164
193 174
193 184
193 198
193 208
193 228
193 238
194 218
194 248
200 20
202 269
203 153
203 186
203 227
204 248
208 195
208 218
210 20
212 273
213 153
213 186
213 227
214 248
218 195
218 218
220 22
222 147
222 269
223 32
223 42
223 52
223 62
223 72
223 82
223 92
223 102
223 112
223 122
223 132
223 186
223 227
224 248
228 195
228 218
232 269
233 186
233 227
234 248
238 195
238 218
242 269
243 186
243 227
244 248
248 195
248 218
252 269
253 186
253 227
254 248
258 195
258 218
262 273
263 186
263 227
264 248
268 195
268 218
271 268
273 253
