58 250
58 260
63 269
68 248
73 272
78 248
83 269
88 248
90 188
90 218
93 269
95 227
98 195
98 248
100 218
102 22
102 32
102 42
102 52
102 62
102 72
102 82
102 92
102 102
102 112
102 122
102 132
102 142
103 152
103 186
103 269
105 227
108 195
108 248
110 218
112 20
113 153
113 186
113 269
115 227
118 195
118 248
120 218
122 20
123 153
123 186
123 272
125 227
128 195
128 248
130 218
132 20
133 153
133 186
133 269
135 227
138 195
138 248
140 218
142 20
143 153
143 186
143 269
145 227
148 195
148 248
150 218
152 20
153 153
153 186
153 269
155 227
158 162
158 172
158 196
158 206
158 237
158 247
162 20
163 269
172 20
173 269
182 20
183 269
192 20
193 269
202 20
203 269
212 20
213 154
213 164
213 174
213 184
213 196
213 206
213 216
213 228
213 238
213 269
214 248
222 20
223 153
223 186
223 218
223 269
224 248
228 195
228 227
232 20
233 153
233 186
233 218
233 269
234 248
238 195
238 227
242 20
243 153
243 186
243 218
243 269
244 248
248 195
248 227
252 20
253 153
253 186
253 218
253 269
254 248
258 195
258 227
262 20
263 153
263 186
263 218
263 269
264 248
268 195
268 227
272 20
273 153
273 186
273 218
273 269
274 248
278 195
278 227
282 20
283 153
283 186
283 218
283 269
284 248
288 195
288 227
291 25
291 35
291 45
291 55
291 65
291 75
291 85
291 95
291 105
291 115
291 125
291 135
291 145
293 186
293 218
293 269
294 248
298 195
298 227
303 186
303 218
303 269
304 248
308 195
308 227
313 186
313 218
313 269
314 248
318 195
318 227
323 186
323 218
323 271
324 248
328 195
333 270
334 248
341 256
