54 250
54 260
59 269
64 248
69 272
74 248
79 269
84 188
84 218
84 248
89 227
89 269
92 195
94 218
94 248
96 22
96 32
96 42
96 52
96 62
96 72
96 82
96 92
96 102
96 112
96 122
96 132
96 142
97 152
97 186
99 227
99 269
102 195
104 218
104 248
106 20
107 153
107 186
109 227
109 273
112 195
114 218
114 248
116 20
117 153
117 186
119 227
119 269
122 195
124 218
124 248
126 20
127 153
127 186
129 227
129 269
132 195
134 218
134 248
136 20
137 153
137 186
139 227
139 269
142 195
144 218
144 248
146 20
147 153
147 186
149 227
149 269
152 195
154 218
154 248
156 20
157 153
157 185
158 163
158 173
158 203
158 232
159 269
166 20
169 269
176 20
179 269
186 20
189 269
196 20
199 269
206 20
209 269
215 154
215 164
215 174
215 184
215 196
215 206
215 216
215 228
215 238
216 20
216 248
219 269
225 153
225 186
225 218
226 20
226 248
229 269
230 195
230 227
235 153
235 186
235 218
236 20
236 248
239 269
240 195
240 227
245 153
245 186
245 218
246 20
246 248
249 269
250 195
250 227
255 153
255 186
255 218
256 20
256 248
259 269
260 195
260 227
265 153
265 186
265 218
266 20
266 248
269 269
270 195
270 227
275 153
275 186
275 218
276 20
276 248
279 269
280 195
280 227
285 153
285 186
285 218
286 20
286 248
289 269
290 195
290 227
295 152
295 186
295 218
296 22
296 248
297 32
297 42
297 52
297 62
297 72
297 82
297 92
297 102
297 112
297 122
297 132
297 142
299 269
300 195
300 227
305 186
305 218
306 248
309 269
310 195
310 227
315 186
315 218
316 248
319 269
320 195
320 227
325 186
325 218
326 248
329 271
330 195
333 224
336 248
339 269
345 253
