50 250
50 260
55 269
60 248
65 269
68 254
75 269
76 248
78 190
78 220
84 254
85 269
86 227
87 195
91 218
92 24
92 34
92 44
92 54
92 64
92 74
92 84
92 94
92 104
92 114
92 124
92 134
92 144
92 186
92 248
95 269
96 227
97 153
97 195
101 218
102 20
102 186
102 248
105 270
106 227
107 153
107 195
111 218
112 20
112 186
112 248
115 269
116 227
117 153
117 195
121 218
122 20
122 186
122 248
125 269
126 227
127 153
127 195
131 218
132 20
132 186
132 248
135 269
136 227
137 153
137 195
141 218
142 20
142 186
142 248
145 269
146 227
147 153
147 195
151 218
152 20
152 186
152 248
155 269
156 227
157 153
157 195
160 163
160 173
160 205
160 237
162 20
165 269
172 20
175 269
182 20
185 269
192 20
195 269
202 20
205 269
212 20
215 269
217 154
217 164
217 174
217 184
217 196
217 206
217 216
217 228
217 238
218 248
222 20
225 269
227 153
227 186
227 218
228 248
232 20
232 195
232 227
235 269
237 153
237 186
237 218
238 248
242 20
242 195
242 227
245 269
247 153
247 186
247 218
248 248
252 20
252 195
252 227
255 269
257 153
257 186
257 218
258 248
262 20
262 195
262 227
265 269
267 153
267 186
267 218
268 248
272 20
272 195
272 227
275 269
277 153
277 186
277 218
278 248
282 20
282 195
282 227
285 269
287 153
287 186
287 218
288 248
292 20
292 195
292 227
295 273
297 153
297 186
297 218
298 248
302 21
302 195
302 227
303 58
303 68
303 78
303 88
303 98
303 108
303 118
303 128
303 138
305 31
305 41
305 269
306 254
307 186
307 218
312 195
312 227
314 248
315 269
317 186
317 218
322 195
322 227
322 254
325 269
327 186
327 218
330 248
332 195
335 224
335 273
340 248
345 269
349 253
