106 250
106 260
111 269
116 248
121 270
126 248
131 269
136 248
138 190
138 220
141 269
146 227
146 248
147 195
148 40
148 50
148 60
148 70
149 80
150 24
150 90
150 100
150 110
150 120
150 130
150 140
151 150
151 218
151 269
152 186
156 227
156 248
157 195
160 20
160 155
160 165
160 175
160 205
160 237
161 269
170 20
171 269
180 20
181 269
190 20
191 272
199 154
199 164
199 174
199 184
199 198
199 208
199 228
199 238
200 20
200 218
200 248
201 269
209 153
209 186
209 227
210 20
210 248
211 269
214 195
214 218
219 153
219 186
219 227
220 20
220 248
221 269
224 195
224 218
229 153
229 186
229 227
230 20
230 248
231 269
234 195
234 218
239 152
239 186
239 227
240 22
240 248
241 269
243 32
243 42
243 52
243 62
243 72
243 82
243 92
243 102
243 112
243 122
243 132
243 142
244 195
244 218
249 186
249 227
250 248
251 269
254 195
254 218
259 186
259 227
260 248
261 269
264 195
264 218
269 186
269 227
270 248
271 269
274 195
274 218
279 186
279 227
280 248
281 273
284 195
284 218
290 248
291 269
295 257
