78 250
78 260
83 269
86 188
86 220
88 248
93 273
94 195
94 227
98 248
99 186
99 218
103 269
104 195
104 227
108 248
109 186
109 218
113 269
114 195
114 227
118 248
119 186
119 218
123 269
124 195
124 227
128 248
129 186
129 218
130 24
130 34
130 44
130 54
130 64
130 74
130 84
130 94
130 104
130 114
130 124
130 134
130 144
133 269
134 195
134 227
135 153
138 248
139 186
139 218
140 20
143 269
144 195
144 227
145 153
148 248
149 186
149 218
150 20
153 273
154 195
154 227
155 153
158 248
159 186
159 218
160 20
163 269
164 195
164 227
165 153
168 248
169 186
169 218
170 20
173 269
174 195
174 227
175 153
178 248
179 186
179 218
180 20
183 269
184 195
184 227
185 153
188 248
189 186
189 218
190 20
193 269
194 158
194 168
194 196
194 206
194 228
194 238
200 20
203 269
210 20
213 269
220 20
223 269
230 20
233 269
240 20
243 154
243 164
243 174
243 184
243 196
243 206
243 216
243 228
243 238
243 271
244 248
250 20
253 153
253 186
253 218
253 270
254 248
258 195
258 227
260 20
263 153
263 186
263 218
263 269
264 248
268 195
268 227
270 20
273 152
273 186
273 218
273 269
274 248
275 29
275 39
275 49
275 59
275 69
275 79
275 89
275 99
275 109
275 119
275 129
275 139
278 195
278 227
283 186
283 218
283 269
284 248
293 269
294 248
303 269
304 248
313 269
314 248
323 253
323 263
