48 250
48 260
53 269
58 248
62 190
62 220
63 272
68 248
70 227
71 195
73 269
75 218
76 186
78 248
80 227
81 195
83 272
84 22
84 32
84 42
84 52
84 62
84 72
84 82
84 92
84 102
84 112
84 122
84 132
84 142
85 152
85 218
86 186
88 248
90 227
91 195
93 269
94 20
95 153
95 218
96 186
98 248
100 227
101 195
103 269
104 20
105 153
105 218
106 186
108 248
110 227
111 195
113 269
114 20
115 153
115 218
116 186
118 248
120 227
121 195
123 269
124 20
125 153
125 218
126 186
128 248
130 227
131 195
133 269
134 20
135 153
135 218
136 186
138 248
140 227
141 195
143 269
144 20
145 153
145 218
146 186
148 248
150 227
151 195
153 269
154 20
155 153
155 218
156 186
158 248
160 227
161 195
163 269
164 20
165 153
165 218
166 186
168 248
170 227
171 195
173 269
174 20
175 153
175 217
176 163
176 173
176 183
176 204
176 235
183 269
184 20
193 269
194 20
203 269
204 20
213 269
214 20
223 269
224 20
233 269
234 20
237 154
237 164
237 174
237 184
237 196
237 206
237 216
237 228
237 238
238 248
243 269
244 20
247 153
247 186
247 218
248 248
252 195
252 227
253 269
254 20
257 153
257 186
257 218
258 248
262 195
262 227
263 269
264 20
267 153
267 186
267 218
268 248
272 195
272 227
273 269
274 20
277 153
277 186
277 218
278 248
282 195
282 227
283 269
284 20
287 153
287 186
287 218
288 248
292 195
292 227
293 269
294 20
297 153
297 186
297 218
298 248
302 195
302 227
303 269
304 20
307 153
307 186
307 218
308 248
312 195
312 227
313 269
314 21
317 31
317 41
317 51
317 61
317 71
317 81
317 91
317 101
317 111
317 121
317 131
317 141
317 151
317 186
317 218
318 248
322 195
322 227
323 273
327 186
327 218
328 248
333 269
338 248
343 269
348 248
353 257
353 267
