48 250
48 260
53 269
58 248
62 190
62 220
63 272
68 248
70 227
71 195
73 269
75 218
76 186
78 248
80 227
81 195
83 269
85 218
86 186
88 248
90 22
90 32
90 42
90 52
90 62
90 72
90 82
90 92
90 102
90 112
90 122
90 132
90 142
90 227
91 152
91 195
93 269
95 218
96 186
98 248
100 20
100 227
101 153
101 195
103 269
105 218
106 186
108 248
110 20
110 227
111 153
111 195
113 269
115 218
116 186
118 248
120 20
120 227
121 153
121 195
123 269
125 218
126 186
128 248
130 20
130 227
131 153
131 195
133 269
135 218
136 186
136 254
140 20
140 227
141 153
141 195
143 269
144 248
145 218
146 186
150 20
150 227
151 153
151 195
152 254
153 269
155 218
156 186
160 20
160 227
160 248
161 153
161 195
163 269
165 218
166 186
168 254
170 20
170 227
171 153
171 195
173 269
175 218
176 186
176 248
178 161
178 171
178 203
178 233
180 20
183 269
190 20
193 269
200 20
203 269
210 20
213 269
220 20
223 269
230 20
233 269
239 154
239 164
239 174
239 184
239 196
239 206
239 216
239 228
239 238
240 20
240 248
243 269
248 254
249 153
249 186
249 218
250 20
253 269
254 195
254 227
256 248
259 153
259 186
259 218
260 20
263 269
264 195
264 227
264 254
269 153
269 186
269 218
270 20
272 248
273 269
274 195
274 227
279 153
279 186
279 218
280 20
282 248
283 269
284 195
284 227
289 153
289 186
289 218
290 20
292 248
293 269
294 195
294 227
299 153
299 186
299 218
300 20
302 248
303 269
304 195
304 227
309 153
309 186
309 218
310 20
312 248
313 273
314 195
314 227
317 28
317 38
317 48
317 58
317 68
317 78
317 88
317 98
317 108
317 118
317 128
317 138
319 186
319 218
322 248
323 269
324 195
324 227
329 218
332 248
333 269
342 248
343 272
352 249
353 259
353 269
