89 102
89 112
95 120
99 99
99 130
99 140
99 150
99 160
99 170
99 180
99 190
99 200
99 210
99 220
99 230
99 240
99 250
99 260
99 270
99 280
99 290
99 300
99 310
99 320
104 329
104 339
104 349
104 359
104 369
104 379
106 389
109 99
116 390
119 99
126 390
129 99
136 390
139 99
146 390
149 99
155 91
156 390
165 89
166 390
175 89
176 390
184 396
185 89
189 405
189 415
195 89
198 420
199 430
204 439
205 89
206 449
214 455
214 465
215 89
219 474
219 484
221 494
225 89
229 500
232 510
235 89
242 509
245 89
247 499
250 485
255 89
260 470
260 480
265 89
265 450
265 460
275 89
275 435
275 445
280 420
285 89
289 415
295 89
295 400
300 385
305 89
310 385
315 89
320 385
325 89
330 385
335 89
340 385
345 89
350 385
355 89
360 385
365 86
370 385
375 84
380 385
385 84
390 385
395 84
400 385
405 84
410 385
415 84
420 375
425 84
430 375
435 84
440 375
445 84
450 375
455 84
460 375
465 84
470 375
475 84
480 375
485 84
490 375
495 84
500 375
505 84
510 375
515 84
520 375
525 84
530 375
535 84
540 375
545 84
550 375
555 84
560 375
565 84
570 375
575 84
580 93
580 103
580 113
580 123
580 133
580 143
580 153
580 163
580 173
580 183
580 193
580 203
580 213
580 223
580 233
580 243
580 253
580 263
580 375
585 272
585 282
585 292
585 302
585 312
585 322
585 332
585 342
585 352
585 362
