69 92
69 102
69 112
79 89
79 115
79 125
79 135
79 145
79 155
79 165
79 175
79 185
79 195
79 205
79 215
79 225
79 235
79 245
79 255
79 265
79 275
79 285
79 295
79 305
79 315
82 325
84 335
84 345
84 355
84 365
87 375
89 89
97 375
99 89
107 375
109 87
117 375
119 84
127 375
129 84
137 375
139 84
147 375
149 84
157 375
159 84
166 370
169 84
176 370
179 84
186 370
189 84
196 370
199 84
206 370
209 84
216 370
219 84
226 370
229 84
236 370
239 84
246 370
249 84
256 370
259 84
266 370
269 84
276 370
279 84
286 370
289 84
296 370
299 84
306 370
309 84
316 370
319 77
326 370
329 74
336 370
339 74
346 370
349 74
356 370
359 74
366 373
369 74
376 375
379 74
386 375
389 74
394 381
399 74
401 389
409 74
411 390
416 399
419 74
426 400
429 74
434 406
439 74
439 415
449 74
449 415
458 420
459 74
465 428
469 74
475 432
479 74
485 435
489 74
490 360
490 370
494 440
495 379
495 389
499 74
500 360
504 440
505 392
507 450
509 74
509 402
510 360
510 412
516 455
518 419
519 74
520 360
524 461
525 427
528 69
530 360
530 436
534 465
538 69
539 441
540 360
540 451
544 467
547 74
550 360
555 80
555 90
555 100
555 110
555 120
555 130
555 140
555 150
555 160
555 170
555 180
555 190
555 200
555 210
555 220
555 230
555 240
555 250
555 260
560 269
560 279
560 289
560 299
560 309
560 319
560 329
560 339
560 349
