94 267
94 277
94 287
99 247
99 257
99 296
99 362
99 372
99 382
104 305
109 232
109 242
109 314
109 342
109 352
109 385
111 324
112 395
119 227
119 330
119 403
124 217
124 412
134 214
134 415
139 187
139 197
139 424
139 507
139 517
139 527
139 537
144 167
144 177
144 546
147 430
147 499
154 152
154 162
154 477
154 487
154 550
157 434
159 137
159 462
164 127
164 442
164 550
167 454
174 124
174 550
183 119
184 550
192 114
193 545
202 114
202 539
205 525
207 104
215 525
217 104
224 520
227 104
234 517
237 104
244 512
245 500
247 104
250 485
255 110
260 485
265 114
270 485
271 105
275 475
276 95
285 475
286 94
289 82
295 470
299 79
304 475
309 77
309 484
311 494
319 74
319 500
328 505
329 74
338 505
339 76
345 513
349 79
355 87
355 515
362 95
365 515
372 99
375 505
379 77
379 87
385 505
387 69
395 505
397 69
404 500
405 61
413 495
415 59
420 485
425 62
425 470
430 460
433 69
440 450
442 74
450 450
452 74
459 455
461 79
469 455
470 74
478 460
479 69
488 458
489 62
498 455
499 59
508 455
509 59
515 67
517 449
522 440
525 69
531 435
535 72
535 415
535 425
540 81
540 91
540 395
540 405
549 96
550 375
550 385
553 106
555 116
560 375
565 119
569 370
575 122
579 367
584 127
584 357
592 134
592 349
595 144
600 153
600 163
600 173
600 340
605 182
605 192
605 202
605 212
605 222
605 232
605 242
605 325
615 244
615 325
620 253
620 263
620 273
620 300
620 310
625 282
