79 122
79 132
79 142
79 152
79 162
79 172
79 182
79 192
79 202
79 212
89 107
89 117
89 215
89 225
89 235
89 245
89 255
89 265
89 275
89 285
89 295
89 305
89 315
92 325
97 99
97 334
101 344
107 99
111 345
115 91
119 351
125 86
126 359
135 84
136 360
145 84
146 360
155 84
156 360
165 84
166 360
175 84
176 360
184 366
185 84
189 375
195 84
198 380
202 390
205 84
210 397
215 84
220 400
225 84
229 405
232 415
235 84
242 415
245 84
250 422
254 79
260 425
264 79
266 433
274 79
275 438
283 445
284 79
292 450
294 79
295 360
295 370
299 458
300 379
300 389
300 399
304 79
304 467
305 360
305 408
305 418
305 428
310 437
314 79
314 467
315 360
315 446
315 456
324 79
325 360
334 79
335 360
344 79
345 360
354 79
355 360
364 79
364 355
374 79
374 355
384 79
384 355
394 79
394 355
404 79
404 355
414 79
414 355
424 79
424 355
434 79
434 355
444 79
444 355
454 67
454 77
454 355
464 64
464 355
474 64
474 355
484 64
484 355
494 64
494 355
504 66
504 352
505 76
512 345
515 79
520 335
524 84
530 335
534 86
538 328
540 94
545 103
545 315
553 109
555 315
560 117
560 127
560 137
560 147
560 157
560 167
560 177
560 187
560 197
560 207
560 217
560 227
560 237
560 247
560 257
560 267
560 277
560 287
560 297
