59 187
59 197
59 207
59 217
59 227
59 237
59 247
59 257
64 172
64 266
64 276
74 157
74 167
74 280
79 289
82 149
87 295
90 141
94 303
98 134
102 310
105 126
109 318
113 119
117 325
119 377
123 119
124 362
127 109
127 329
129 380
134 347
134 357
137 104
137 330
139 380
147 104
149 380
152 94
159 380
162 94
169 380
172 89
179 380
182 89
189 380
190 81
199 380
200 79
209 380
210 79
218 375
219 74
228 373
229 74
234 365
239 74
244 365
249 67
254 365
257 375
259 64
267 375
269 64
277 375
279 64
287 375
289 64
297 375
299 64
307 375
309 64
316 380
319 64
326 380
329 64
336 380
339 64
346 380
349 64
355 375
359 64
365 375
369 64
375 375
379 64
385 375
389 64
395 375
399 64
405 375
409 66
410 365
415 74
420 365
425 74
430 365
435 74
440 365
445 77
449 360
455 79
459 360
465 79
469 357
470 88
477 350
480 89
487 349
490 92
497 345
500 94
507 344
510 97
512 335
518 104
522 334
527 109
532 329
535 115
542 325
545 119
550 315
553 125
558 134
559 310
565 300
567 139
570 149
574 295
580 152
580 285
585 161
585 270
588 171
590 181
590 255
599 186
600 196
600 206
600 216
600 226
600 236
600 246
