159 137
159 147
159 157
159 167
159 177
159 187
159 197
159 207
159 217
159 227
159 237
159 247
159 257
164 122
164 266
164 276
164 286
164 296
164 306
164 316
164 326
174 112
174 330
179 339
181 349
182 104
189 355
192 104
199 355
201 99
208 360
211 99
218 360
221 99
222 370
226 90
232 370
236 89
242 370
246 89
252 370
255 84
262 370
265 84
272 370
275 84
282 370
285 84
292 370
295 84
302 370
305 84
312 370
315 84
322 370
325 84
332 370
335 84
342 370
345 84
352 370
355 84
360 360
365 84
370 360
375 84
380 360
385 84
390 360
395 84
400 360
405 84
410 360
415 84
420 360
425 84
430 360
435 84
436 368
444 374
445 84
446 384
449 394
451 404
454 414
455 84
456 424
464 430
464 440
465 81
470 448
474 458
475 79
475 468
485 79
485 470
495 79
495 470
500 450
500 460
505 79
510 445
515 79
515 430
520 410
520 420
525 79
530 405
535 79
540 385
540 395
545 79
549 380
555 79
555 370
560 360
565 82
570 355
575 84
580 355
585 87
590 350
595 89
600 350
605 92
605 335
609 102
613 328
615 110
620 119
623 323
625 128
625 138
625 148
628 313
630 157
630 167
630 177
630 187
630 197
630 207
630 217
630 227
630 237
630 247
630 257
630 267
630 277
630 287
630 297
