64 327
69 372
70 335
72 319
74 381
77 364
80 335
81 314
81 389
87 364
89 307
89 395
90 335
96 343
97 364
98 400
99 304
104 350
108 400
109 304
118 400
119 306
125 314
127 395
135 314
137 394
143 320
145 385
152 325
155 380
162 329
165 380
171 334
175 380
181 334
185 380
191 334
195 380
201 334
205 382
211 334
215 385
220 339
225 385
230 339
235 385
240 339
245 385
250 339
255 385
260 339
265 385
270 342
275 385
280 344
285 387
290 344
295 390
300 344
305 390
310 344
315 390
320 344
325 390
330 344
335 390
340 344
345 390
350 344
355 390
360 344
365 390
370 344
374 395
380 344
384 395
389 349
394 395
399 349
404 395
409 349
414 395
419 349
424 395
428 354
432 389
435 362
435 372
