204 567
204 577
204 587
204 597
209 552
209 606
209 616
214 542
214 625
219 532
219 634
225 642
227 524
232 650
237 519
240 657
247 514
247 665
256 670
257 514
265 675
267 514
274 680
277 514
283 685
287 514
293 685
296 519
303 685
306 519
312 690
315 524
322 690
325 524
332 694
335 527
342 695
345 529
352 699
355 529
362 700
364 534
372 704
374 534
382 705
383 539
392 705
393 539
402 709
403 540
412 710
413 544
422 710
423 544
431 715
432 549
441 715
442 549
451 718
452 549
461 554
461 720
471 554
471 720
481 554
481 720
490 559
490 725
500 559
500 725
510 559
510 725
520 559
520 727
529 564
530 730
539 564
540 730
549 564
550 730
559 564
559 735
568 569
569 735
578 569
579 735
587 574
589 735
597 574
599 735
607 574
608 740
617 574
618 740
627 574
628 740
636 579
638 740
646 579
648 740
656 579
658 740
666 579
668 740
676 579
677 745
686 579
687 745
696 579
697 745
706 579
707 745
716 579
717 745
726 579
727 745
736 579
737 745
746 579
747 745
756 579
757 745
766 579
767 745
775 574
777 745
785 574
787 745
795 574
797 745
805 574
807 745
815 574
817 745
825 574
827 745
834 579
837 745
844 579
847 745
854 579
857 745
864 579
867 745
874 579
877 745
884 579
887 745
894 579
897 745
904 579
907 745
914 579
917 745
924 579
927 745
934 579
937 745
944 579
947 745
954 579
957 745
964 579
966 750
974 579
976 750
984 579
986 750
994 577
996 750
1004 574
1006 750
1014 574
1016 750
1024 574
1026 750
1034 574
1036 750
1044 574
1046 750
1054 574
1056 750
1064 574
1066 750
1074 574
1076 750
1084 572
1086 750
1094 569
1096 750
1104 569
1106 750
1114 569
1116 750
1124 569
1126 750
1134 569
1135 745
1144 569
1145 745
1153 564
1155 745
1163 564
1165 745
1173 564
1175 745
1183 564
1185 745
1193 564
1195 745
1203 564
1205 745
1212 559
1215 745
1222 559
1225 745
1232 559
1235 745
1242 559
1245 745
1252 559
1255 745
1261 554
1265 745
1271 554
1275 745
1281 554
1285 745
1291 550
1295 745
1301 545
1305 745
1311 540
1315 745
1321 535
1325 745
1331 530
1334 750
1339 522
1343 755
1347 514
1347 765
1355 506
1355 772
1362 780
1365 504
1371 785
1375 504
1381 788
1385 504
1391 790
1394 497
1401 790
1402 489
1411 484
1411 790
1420 479
1421 793
1429 472
1430 798
1439 469
1440 802
1448 464
1449 807
1458 464
1459 810
1467 459
1468 815
1476 454
1477 820
1486 450
1487 820
1496 445
1497 824
1506 440
1507 825
1516 435
1517 825
1526 434
1527 825
1536 434
1537 825
1544 441
1547 825
1550 449
1557 825
1560 449
1567 825
1569 454
1577 824
1579 454
1587 820
1589 456
1596 815
1599 459
1606 815
1608 464
1615 810
1617 469
1624 805
1626 474
1632 799
1635 479
1642 794
1645 479
1650 785
1655 482
1660 780
1665 484
1670 780
1675 484
1680 780
1685 484
1690 775
1695 487
1700 775
1704 492
1709 770
1712 499
1715 509
1717 764
1723 515
1725 750
1728 524
1730 740
1737 529
1738 733
1747 529
1748 728
1757 529
1758 725
1767 529
1768 725
1777 529
1778 725
1787 529
1788 725
1797 529
1798 725
1807 529
1808 725
1817 529
1818 725
1827 529
1828 723
1837 529
1838 720
1847 529
1848 720
1857 529
1858 720
1867 529
1868 720
1877 529
1878 720
1887 529
1888 720
1897 529
1897 715
1907 524
1907 715
1917 524
1917 715
1927 524
1927 715
1937 524
1937 715
1947 524
1947 715
1957 524
1957 714
1967 524
1967 710
1977 524
1977 710
1987 524
1987 710
1997 524
1997 710
2007 524
2007 710
2017 524
2017 709
2027 524
2027 705
2036 519
2037 705
2046 519
2047 705
2056 519
2057 705
2066 519
2067 705
2076 519
2077 705
2086 519
2086 700
2096 519
2096 700
2106 519
2106 700
2116 519
2116 700
2126 519
2126 700
2136 519
2136 700
2146 515
2146 700
2156 514
2156 700
2166 510
2166 700
2176 509
2176 700
2185 504
2186 703
2195 501
2196 705
2205 499
2206 705
2215 499
2216 705
2224 494
2226 705
2234 494
2236 705
2244 494
2246 705
2254 492
2256 705
2264 489
2266 705
2274 487
2276 705
2284 484
2286 705
2293 479
2296 705
2303 479
2305 700
2312 474
2315 700
2322 474
2325 700
2332 469
2335 700
2342 469
2344 695
2352 469
2354 695
2362 469
2364 695
2372 469
2374 695
2382 469
2384 692
2392 469
2394 690
2402 469
2404 690
2412 469
2413 685
2422 469
2422 690
2432 469
2432 690
2441 474
2442 690
2451 474
2452 690
2461 474
2462 690
2471 470
2472 690
2481 469
2482 690
2491 469
2492 690
2501 469
2502 690
2511 469
2512 690
2520 474
2522 690
2529 479
2531 685
2539 481
2541 685
2548 486
2549 677
2555 494
2557 669
2563 500
2567 664
2570 508
2575 517
2575 650
2579 527
2580 640
2584 536
2585 630
2588 546
2590 615
2593 555
2595 565
2595 600
2600 574
2600 584
