144 552
144 562
144 572
144 582
144 592
149 527
149 537
149 601
149 611
154 512
154 620
154 630
159 502
159 639
164 492
165 647
172 484
172 655
177 474
177 664
186 669
187 469
196 670
197 464
205 675
207 464
215 675
217 459
225 675
227 459
235 675
237 454
245 675
247 454
255 675
257 449
265 675
267 449
275 675
277 449
285 675
286 444
295 675
296 444
305 675
306 440
315 675
316 439
325 675
326 439
335 675
336 435
345 675
346 434
355 675
356 434
365 675
366 430
375 675
376 429
385 675
386 429
395 675
396 425
405 675
406 424
415 675
416 424
424 670
426 424
434 670
436 420
444 670
446 419
454 670
456 419
464 670
466 419
474 670
475 414
484 670
485 414
494 670
495 414
504 670
505 414
514 409
514 670
524 409
524 670
534 409
534 670
544 409
544 670
554 409
554 670
563 404
563 665
573 404
573 665
583 404
583 665
593 404
593 665
603 404
603 665
613 404
613 663
623 404
623 660
633 404
633 660
643 404
643 660
653 404
653 660
663 404
663 660
672 399
673 660
682 399
683 660
692 399
693 660
702 399
703 660
711 394
712 655
721 394
722 655
731 390
732 655
741 389
742 655
751 389
752 655
761 385
762 655
771 384
772 655
781 384
782 655
791 380
792 655
801 379
802 655
811 379
812 655
821 379
821 650
831 375
831 650
841 374
841 650
851 374
851 650
861 374
861 650
871 374
871 650
881 370
881 650
891 369
891 650
901 369
901 650
911 369
911 650
920 645
921 369
930 645
931 369
940 645
941 369
950 645
951 365
960 645
961 364
970 645
971 364
980 645
981 364
990 645
991 364
1000 645
1001 364
1010 645
1011 364
1020 645
1021 364
1030 645
1031 364
1040 645
1041 364
1049 640
1051 364
1059 640
1061 364
1069 640
1071 364
1079 640
1081 364
1089 640
1091 364
1099 640
1101 364
1108 635
1111 364
1118 635
1120 369
1128 635
1130 369
1138 635
1140 369
1148 635
1150 369
1158 635
1160 369
1168 635
1170 369
1178 635
1179 374
1188 633
1189 374
1198 630
1199 374
1208 379
1208 630
1218 379
1218 630
1228 380
1228 630
1238 384
1238 630
1247 635
1248 384
1257 379
1257 639
1267 379
1267 640
1277 379
1277 640
1286 384
1287 639
1294 391
1297 634
1304 394
1305 625
1313 389
1314 620
1320 381
1323 625
1327 635
1328 374
1332 364
1335 642
1340 356
1342 650
1348 349
1350 657
1357 344
1357 665
1365 336
1366 670
1373 329
1375 675
1382 324
1384 680
1392 319
1393 685
1402 314
1402 690
1411 309
1412 694
1421 309
1422 695
1430 304
1432 699
1440 304
1442 700
1450 304
1452 700
1460 304
1460 707
1467 715
1470 304
1477 715
1480 304
1486 710
1490 304
1495 705
1500 304
1504 700
1510 307
1513 695
1520 309
1523 693
1529 314
1530 685
1538 319
1540 680
1547 324
1550 675
1556 329
1560 670
1565 334
1570 665
1574 339
1580 660
1582 345
1588 653
1590 352
1593 643
1594 362
1600 635
1602 369
1608 628
1609 377
1615 620
1619 379
1620 610
1629 377
1630 605
1639 372
1639 610
1648 615
1649 369
1657 620
1658 364
1667 620
1668 364
1677 620
1678 364
1687 620
1688 365
1697 620
1698 369
1706 615
1708 369
1716 615
1718 369
1725 610
1728 369
1735 610
1737 364
1745 610
1747 364
1755 610
1757 364
1765 610
1767 364
1775 610
1776 359
1785 610
1786 359
1795 610
1796 359
1805 610
1806 359
1815 354
1815 610
1825 354
1825 610
1835 354
1835 610
1845 354
1845 605
1855 354
1855 605
1865 354
1865 605
1875 351
1875 605
1885 349
1885 605
1895 349
1895 605
1905 349
1905 605
1915 349
1915 605
1925 349
1925 605
1934 600
1935 349
1944 600
1945 349
1954 600
1955 349
1964 600
1965 349
1974 600
1975 349
1984 600
1985 349
1994 600
1995 349
2004 600
2005 346
2014 600
2015 344
2024 600
2025 344
2034 600
2035 344
2044 600
2045 344
2054 349
2054 600
2064 349
2064 600
2074 349
2074 600
2084 349
2084 600
2094 349
2094 600
2104 349
2104 600
2113 344
2114 600
2123 344
2123 605
2132 339
2132 610
2142 339
2142 610
2152 339
2152 610
2162 339
2162 610
2172 339
2172 610
2181 605
2182 339
2191 605
2192 339
2201 605
2202 339
2211 605
2212 339
2221 605
2222 339
2231 344
2231 605
2241 344
2241 605
2250 349
2250 600
2259 354
2259 595
2267 360
2268 590
2277 364
2278 590
2287 364
2288 590
2297 364
2298 590
2307 364
2308 590
2316 369
2318 590
2326 369
2328 590
2336 369
2338 590
2346 369
2347 585
2356 369
2357 585
2366 365
2367 585
2376 364
2376 590
2384 596
2386 360
2391 604
2396 359
2401 605
2406 355
2411 605
2416 350
2421 605
2426 349
2431 608
2436 345
2441 610
2446 344
2451 610
2456 344
2461 610
2466 344
2471 610
2475 349
2481 610
2484 354
2491 610
2492 360
2500 367
2500 605
2507 375
2508 598
2512 384
2515 394
2515 590
2520 403
2523 583
2525 412
2528 573
2529 422
2530 432
2533 563
2534 442
2535 452
2535 545
2540 461
2540 471
2540 481
2540 491
2540 501
2540 511
2540 521
2540 531
