584 1387
585 1371
585 1397
585 1407
585 1417
586 1427
587 1358
589 1437
589 1447
590 1346
591 1457
592 1335
595 1325
595 1467
597 1314
598 1477
601 1302
602 1487
605 1292
607 1496
610 1281
611 1506
615 1271
615 1516
620 1261
620 1525
625 1251
626 1533
630 1242
632 1541
635 1232
636 1551
641 1224
642 1559
647 1216
649 1567
654 1208
657 1574
660 1199
664 1582
667 1191
672 1589
675 1183
679 1597
682 1175
687 1604
690 1167
695 1610
698 1159
703 1616
706 1152
711 1622
714 1146
719 1628
722 1140
728 1633
730 1134
737 1638
739 1128
746 1643
748 1122
755 1648
757 1117
765 1652
766 1112
775 1107
775 1656
785 1102
785 1660
795 1099
795 1664
805 1095
805 1668
815 1091
815 1671
825 1087
825 1673
835 1083
835 1675
845 1081
845 1677
855 1079
855 1679
865 1076
865 1681
875 1075
875 1682
885 1073
885 1683
895 1071
895 1685
905 1070
905 1685
915 1068
915 1685
925 1067
925 1686
935 1066
935 1686
945 1065
945 1686
955 1064
955 1686
965 1064
965 1686
975 1063
975 1686
985 1063
985 1685
995 1062
995 1684
1005 1062
1005 1684
1015 1062
1015 1683
1025 1061
1025 1682
1035 1061
1035 1680
1045 1061
1045 1679
1055 1061
1055 1678
1065 1062
1065 1677
1075 1063
1075 1675
1085 1064
1085 1673
1095 1065
1095 1670
1105 1066
1105 1666
1115 1067
1115 1661
1119 1316
1125 1069
1125 1657
1133 1330
1135 1071
1135 1653
1142 1335
1143 1325
1145 1074
1145 1648
1152 1334
1155 1076
1155 1644
1165 1079
1165 1639
1175 1082
1175 1635
1185 1085
1185 1630
1195 1088
1195 1625
1205 1092
1205 1620
1214 1615
1215 1095
1223 1610
1225 1099
1233 1606
1234 1104
1242 1601
1244 1108
1251 1596
1254 1112
1260 1591
1263 1117
1269 1585
1272 1122
1277 1579
1282 1126
1285 1573
1290 1132
1294 1567
1300 1136
1302 1561
1309 1141
1311 1555
1317 1147
1319 1548
1326 1152
1327 1542
1334 1158
1335 1536
1343 1163
1343 1528
1351 1169
1351 1521
1359 1515
1360 1174
1367 1507
1369 1179
1375 1499
1378 1184
1383 1491
1387 1189
1391 1483
1396 1194
1399 1477
1405 1199
1408 1471
1415 1203
1415 1463
1423 1457
1424 1208
1432 1451
1434 1212
1440 1444
1444 1216
1448 1437
1454 1220
1456 1431
1464 1223
1465 1426
1474 1226
1474 1421
1483 1416
1484 1229
1492 1411
1494 1232
1501 1406
1504 1234
1511 1403
1514 1235
1521 1398
1524 1237
1531 1394
1534 1238
1541 1391
1544 1239
1551 1387
1554 1239
1561 1384
1564 1240
1571 1383
1574 1240
1581 1381
1584 1241
1591 1378
1594 1241
1601 1376
1604 1240
1611 1374
1614 1239
1621 1373
1624 1239
1631 1372
1634 1239
1641 1371
1644 1237
1651 1370
1654 1236
1661 1368
1664 1236
1671 1367
1674 1235
1681 1367
1684 1235
1691 1367
1694 1233
1701 1366
1704 1232
1711 1365
1714 1231
1721 1364
1724 1230
1731 1364
1734 1229
1741 1362
1744 1228
1751 1361
1754 1227
1761 1359
1764 1226
1771 1359
1774 1225
1781 1359
1784 1224
1791 1357
1794 1224
1801 1356
1804 1223
1811 1356
1814 1223
1821 1355
1824 1221
1831 1354
1834 1220
1841 1353
1844 1219
1851 1353
1854 1217
1861 1352
1864 1217
1871 1351
1874 1216
1881 1349
1884 1215
1891 1349
1894 1214
1901 1348
1904 1213
1911 1347
1914 1212
1921 1346
1924 1211
1931 1345
1934 1210
1941 1344
1944 1209
1951 1344
1954 1208
1961 1343
1964 1207
1971 1342
1974 1207
1981 1341
1984 1205
1991 1340
1994 1204
2001 1338
2004 1203
2011 1338
2014 1203
2021 1338
2024 1202
2031 1337
2034 1201
2041 1336
2044 1200
2051 1335
2054 1199
2061 1334
2064 1198
2071 1332
2074 1197
2081 1331
2084 1196
2091 1331
2094 1195
2101 1331
2104 1194
2111 1331
2114 1192
2121 1330
2124 1191
2131 1329
2134 1190
2141 1327
2144 1189
2151 1327
2154 1189
2161 1326
2164 1189
2171 1324
2174 1188
2181 1323
2184 1187
2191 1323
2194 1186
2201 1323
2204 1185
2211 1322
2214 1185
2221 1321
2224 1183
2231 1320
2234 1182
2241 1318
2244 1181
2251 1317
2254 1179
2261 1316
2264 1179
2271 1316
2274 1178
2281 1315
2284 1177
2291 1315
2294 1177
2301 1314
2304 1176
2311 1313
2314 1174
2321 1312
2324 1173
2331 1312
2334 1173
2341 1311
2344 1172
2351 1309
2354 1171
2361 1307
2364 1171
2371 1307
2374 1170
2381 1307
2384 1168
2391 1307
2394 1167
2401 1306
2404 1166
2411 1305
2414 1165
2421 1304
2424 1164
2431 1303
2434 1164
2441 1302
2444 1163
2451 1301
2454 1162
2461 1301
2464 1161
2471 1300
2474 1161
2481 1299
2484 1160
2491 1298
2494 1159
2501 1296
2504 1158
2511 1296
2514 1157
2521 1296
2524 1156
2531 1296
2534 1155
2541 1295
2544 1155
2551 1294
2554 1154
2561 1293
2564 1152
2571 1292
2574 1151
2581 1291
2584 1151
2591 1290
2594 1149
2601 1290
2604 1150
2611 1289
2614 1149
2621 1288
2624 1147
2631 1287
2634 1146
2641 1286
2644 1145
2651 1286
2654 1144
2661 1285
2664 1143
2671 1285
2674 1143
2681 1284
2684 1143
2691 1282
2694 1142
2701 1281
2704 1141
2711 1280
2714 1140
2721 1280
2724 1139
2731 1279
2734 1138
2741 1278
2744 1137
2751 1278
2754 1136
2761 1277
2764 1135
2771 1277
2774 1134
2781 1275
2784 1133
2791 1274
2794 1132
2801 1273
2804 1132
2811 1273
2814 1131
2821 1272
2824 1130
2831 1272
2834 1129
2841 1272
2844 1127
2851 1271
2854 1126
2861 1270
2864 1125
2871 1268
2874 1125
2881 1267
2884 1124
2891 1267
2894 1123
2901 1266
2904 1122
2911 1266
2914 1120
2921 1264
2924 1119
2931 1263
2934 1119
2941 1263
2944 1119
2951 1262
2954 1118
2961 1261
2964 1117
2971 1259
2974 1116
2981 1259
2984 1116
2991 1259
2994 1114
3001 1258
3004 1113
3011 1257
3014 1113
3021 1255
3024 1112
3031 1255
3034 1110
3041 1255
3044 1109
3051 1254
3054 1109
3061 1252
3064 1107
3071 1251
3074 1106
3081 1251
3084 1106
3091 1250
3094 1105
3101 1249
3104 1104
3111 1248
3114 1103
3121 1248
3124 1102
3131 1246
3134 1101
3141 1246
3144 1100
3151 1244
3154 1099
3161 1243
3164 1097
3171 1243
3174 1097
3181 1242
3184 1096
3191 1241
3194 1095
3201 1241
3204 1094
3211 1240
3214 1093
3221 1239
3224 1092
3231 1239
3234 1091
3241 1238
3244 1090
3251 1236
3254 1089
3261 1235
3264 1088
3271 1235
3274 1087
3281 1234
3284 1087
3291 1233
3294 1085
3301 1233
3304 1084
3311 1232
3314 1083
3321 1232
3324 1082
3331 1231
3334 1082
3341 1230
3344 1082
3351 1228
3354 1081
3361 1227
3364 1078
3371 1226
3374 1077
3381 1226
3384 1077
3391 1225
3394 1077
3401 1224
3404 1076
3411 1223
3414 1074
3421 1222
3424 1073
3431 1221
3434 1072
3441 1220
3444 1071
3451 1220
3454 1071
3461 1219
3464 1070
3471 1219
3474 1068
3481 1217
3484 1067
3491 1215
3494 1066
3501 1214
3504 1066
3511 1213
3514 1065
3521 1213
3524 1063
3531 1213
3534 1062
3541 1212
3544 1061
3551 1211
3554 1060
3561 1210
3564 1060
3571 1209
3574 1059
3581 1209
3584 1059
3591 1210
3594 1058
3601 1209
3604 1057
3611 1208
3614 1056
3621 1206
3624 1054
3631 1205
3634 1053
3641 1204
3644 1053
3651 1204
3654 1053
3661 1204
3664 1051
3671 1203
3674 1050
3681 1201
3684 1049
3691 1199
3694 1049
3701 1199
3704 1047
3711 1199
3714 1046
3721 1197
3724 1045
3731 1196
3734 1044
3741 1196
3744 1043
3751 1196
3754 1042
3761 1195
3764 1041
3771 1194
3774 1040
3781 1192
3784 1039
3791 1192
3794 1038
3801 1191
3804 1038
3811 1190
3814 1038
3821 1189
3824 1037
3831 1189
3834 1036
3841 1189
3844 1035
3851 1187
3854 1034
3861 1187
3864 1033
3871 1187
3874 1032
3881 1186
3884 1031
3891 1184
3894 1029
3901 1182
3904 1028
3911 1182
3914 1028
3921 1181
3924 1027
3931 1180
3934 1027
3941 1180
3944 1026
3951 1180
3954 1026
3961 1179
3964 1025
3971 1177
3974 1024
3981 1177
3984 1023
3991 1177
3994 1023
4001 1176
4004 1021
4011 1174
4014 1019
4021 1173
4024 1019
4031 1173
4034 1018
4041 1173
4044 1017
4051 1172
4054 1017
4061 1170
4064 1019
4071 1166
4073 1024
4080 1032
4080 1160
4088 1039
4088 1151
4094 1047
4094 1143
4100 1135
4101 1055
4106 1125
4108 1063
4112 1115
4116 1070
4117 1106
4123 1078
4124 1097
