87 620
88 630
92 640
95 612
99 648
105 609
109 650
115 606
118 645
124 601
126 639
133 596
134 632
141 590
143 626
149 584
152 621
157 577
162 618
166 572
172 615
175 566
182 610
184 561
191 605
193 556
200 600
202 551
209 595
211 546
218 590
220 541
227 585
229 536
236 580
238 531
245 575
247 525
254 569
256 520
263 564
265 515
272 559
274 510
281 554
283 505
290 549
292 499
299 543
301 494
308 538
310 489
317 533
319 484
326 528
328 479
335 523
337 474
344 518
346 469
353 513
355 463
362 508
364 458
371 502
373 453
380 497
382 448
389 492
391 443
398 486
400 438
407 481
409 432
416 476
418 427
425 471
427 422
434 466
436 416
443 460
445 411
452 455
454 406
461 450
463 401
470 445
472 396
479 439
481 390
488 434
490 385
497 428
499 380
506 423
508 375
515 418
517 369
524 413
526 363
533 407
535 358
543 402
544 353
552 397
553 348
561 392
562 343
570 387
571 337
579 382
580 332
588 377
589 327
597 371
598 322
606 366
607 317
615 361
616 312
624 355
625 307
633 350
634 301
642 345
643 296
651 340
652 291
660 335
661 286
670 281
670 330
679 276
679 325
688 271
688 319
697 266
697 314
706 261
706 309
715 256
715 304
724 250
724 298
732 244
733 293
741 238
742 288
749 232
752 284
757 224
762 279
765 217
772 275
773 210
780 202
782 274
787 194
792 274
793 186
799 178
802 276
805 170
811 161
812 272
817 152
822 273
823 143
829 135
832 270
835 127
841 119
842 269
848 111
852 267
855 102
862 94
862 269
869 86
872 265
877 79
882 261
885 72
890 255
893 65
898 261
901 58
903 252
909 52
913 249
918 47
923 246
927 42
933 245
936 37
943 247
945 32
951 240
955 28
961 237
965 24
971 234
975 21
981 230
985 19
991 226
995 17
1001 221
1005 16
1010 216
1015 15
1019 211
1025 15
1028 205
1035 16
1036 199
1044 193
1045 18
1052 187
1055 22
1060 180
1065 26
1068 172
1072 89
1073 32
1076 163
1081 38
1082 155
1088 147
1089 45
1094 137
1095 53
1099 126
1100 62
1103 72
1103 114
1106 82
1106 98
