348 268
348 278
348 288
350 257
350 298
351 308
351 318
353 246
353 328
357 338
358 235
359 348
363 226
364 357
370 218
370 365
374 375
378 210
378 385
384 393
386 204
392 400
394 198
397 409
402 418
404 194
408 426
414 190
415 434
419 444
424 187
425 452
432 460
434 186
440 467
444 185
447 475
454 185
454 483
461 491
464 186
469 497
474 187
477 503
483 511
484 188
491 517
494 190
498 525
504 193
506 531
514 197
514 537
521 545
524 200
529 551
534 204
537 557
544 208
546 562
554 212
554 568
563 573
564 216
573 221
573 577
581 583
582 226
590 588
591 231
598 594
600 236
607 599
609 241
616 604
617 247
625 609
626 252
633 615
635 257
642 620
643 263
651 625
652 268
660 274
661 629
668 280
671 633
676 286
681 637
684 292
690 642
692 298
700 304
700 643
707 312
710 645
715 318
718 651
723 324
727 656
730 332
737 659
738 338
745 346
747 663
753 353
757 665
760 361
765 671
767 369
775 376
775 673
781 384
785 676
788 392
795 400
795 679
801 408
805 683
808 416
814 424
815 686
820 432
825 690
826 440
832 448
833 696
838 456
843 465
843 700
849 473
853 704
854 482
860 490
862 709
865 499
870 508
872 711
875 517
880 526
881 716
886 534
890 721
891 543
896 552
899 726
901 561
906 570
908 731
912 578
916 737
917 587
922 596
926 741
928 604
933 613
934 747
939 621
942 753
945 629
951 637
951 758
958 645
960 763
965 653
968 769
972 661
976 776
979 669
985 781
986 677
992 789
994 684
1001 794
1002 691
1009 699
1009 801
1017 705
1017 808
1024 713
1024 816
1032 719
1032 822
1040 726
1041 827
1047 835
1048 732
1055 841
1056 739
1063 847
1064 746
1072 752
1072 852
1080 758
1080 858
1087 766
1088 864
1095 772
1096 870
1103 778
1103 878
1111 784
1111 884
1118 892
1119 791
1126 898
1127 797
1134 904
1135 803
1141 912
1143 810
1150 917
1151 817
1159 823
1159 922
1167 829
1167 928
1174 936
1175 836
1182 942
1183 842
1190 948
1191 849
1198 954
1199 855
1206 961
1207 862
1214 967
1215 869
1221 975
1223 875
1229 981
1231 882
1237 988
1239 888
1245 995
1247 894
1253 1002
1255 901
1261 1008
1263 908
1269 1014
1271 914
1277 1020
1279 920
1285 1026
1287 927
1293 1032
1295 934
1301 1038
1303 941
1309 1045
1311 947
1317 1052
1319 953
1325 1058
1327 960
1333 1065
1335 967
1340 1073
1343 973
1348 1080
1351 980
1356 1087
1359 986
1365 1092
1367 993
1373 1099
1375 999
1382 1104
1383 1006
1390 1111
1391 1013
1398 1118
1399 1019
1406 1125
1407 1025
1414 1132
1415 1032
1422 1138
1423 1039
1430 1144
1431 1045
1438 1151
1439 1052
1446 1157
1447 1058
1454 1164
1455 1065
1462 1170
1463 1071
1470 1176
1471 1077
1479 1084
1480 1179
1487 1091
1490 1181
1495 1097
1500 1182
1503 1104
1510 1180
1511 1110
1519 1117
1519 1175
1526 1125
1527 1167
1532 1133
1532 1158
1534 1143
