148 284
148 294
149 269
149 304
150 314
151 324
152 256
152 334
154 344
155 236
155 246
158 225
159 353
161 215
161 363
162 373
164 383
165 205
166 393
170 196
170 403
174 413
176 186
179 422
182 176
185 430
190 168
190 439
194 449
198 161
198 459
204 153
205 467
210 145
213 473
218 137
219 481
226 131
226 489
232 497
236 126
241 502
246 122
248 510
253 519
256 120
261 526
266 118
269 532
272 542
276 116
277 551
286 117
286 556
296 117
296 558
304 565
306 116
312 571
316 116
320 577
326 116
328 583
335 591
336 117
341 599
346 118
348 607
356 120
357 612
366 121
367 611
376 123
377 611
381 621
386 126
391 623
396 129
401 624
406 132
409 631
415 639
416 135
424 644
426 138
434 648
436 142
444 650
445 147
454 152
454 652
463 657
464 156
471 663
473 161
481 664
482 166
491 171
491 667
499 674
501 175
509 181
509 678
517 187
519 679
525 193
529 681
533 199
539 680
541 205
548 675
549 211
557 217
558 671
565 223
568 672
573 229
578 673
581 235
588 673
589 242
594 681
595 250
601 258
604 684
610 263
614 686
618 269
624 689
626 275
633 283
634 687
639 291
644 685
645 299
651 307
654 682
659 314
664 679
665 322
670 331
674 341
674 680
680 349
684 684
687 357
692 366
693 689
696 376
701 385
703 692
706 394
710 404
713 696
715 413
719 423
723 698
724 432
729 441
731 451
733 461
733 699
738 470
743 479
743 702
746 489
750 499
752 707
753 509
758 518
761 528
761 712
764 538
767 548
769 719
772 557
778 565
779 721
784 573
788 726
790 581
796 732
798 588
804 596
804 739
811 604
812 745
817 612
821 750
824 620
829 756
833 625
838 761
841 631
848 765
849 638
856 772
857 645
864 778
865 652
872 784
873 658
879 792
881 664
887 798
889 670
895 804
897 677
903 810
905 684
913 690
913 813
921 819
922 695
929 825
930 701
935 833
938 707
941 841
946 713
949 847
954 719
958 852
962 725
966 858
970 732
974 865
978 738
984 869
986 744
993 874
994 750
1000 882
1002 756
1008 889
1011 761
1016 896
1019 767
1024 902
1027 773
1032 908
1036 778
1041 913
1044 785
1049 920
1052 791
1057 926
1060 797
1065 933
1068 803
1073 939
1076 810
1081 945
1084 816
1090 950
1092 822
1098 956
1100 828
1105 964
1108 835
1113 971
1116 841
1121 977
1124 847
1128 985
1132 853
1136 991
1140 859
1144 997
1148 865
1152 1003
1157 870
1160 1009
1165 877
1170 1013
1173 883
1179 1018
1180 891
1189 896
1189 1021
1197 902
1197 1027
1203 1035
1206 907
1211 1041
1214 914
1219 1048
1222 920
1226 1056
1230 927
1234 1063
1239 932
1241 1071
1247 938
1249 1077
1255 944
1258 1082
1263 950
1266 1088
1271 957
1275 1093
1279 963
1283 1099
1287 969
1291 1105
1295 975
1300 1110
1303 981
1308 1116
1311 987
1315 1124
1319 993
1322 1132
1327 999
1331 1137
1335 1005
1339 1143
1343 1011
1347 1150
1351 1018
1355 1157
1359 1025
1363 1164
1367 1031
1371 1170
1375 1038
1379 1176
1383 1044
1388 1181
1392 1049
1396 1187
1400 1055
1405 1192
1408 1061
1413 1198
1416 1067
1421 1205
1424 1073
1429 1211
1432 1080
1438 1216
1440 1086
1446 1222
1449 1091
1454 1228
1457 1097
1463 1233
1465 1103
1471 1240
1473 1109
1480 1245
1481 1116
1489 1122
1490 1247
1496 1255
1497 1128
1502 1263
1505 1134
1510 1270
1513 1140
1518 1277
1521 1146
1526 1283
1529 1152
1534 1289
1538 1157
1543 1294
1546 1163
1551 1300
1554 1169
1559 1306
1562 1175
1565 1314
1570 1182
1573 1321
1578 1188
1581 1327
1586 1194
1589 1334
1594 1201
1598 1339
1601 1209
1606 1345
1609 1215
1613 1353
1617 1221
1621 1359
1623 1229
1629 1365
1631 1235
1638 1370
1641 1236
1646 1376
1650 1241
1654 1382
1658 1247
1662 1388
1666 1253
1671 1393
1674 1259
1680 1398
1682 1265
1688 1404
1690 1272
1694 1412
1698 1278
1702 1419
1706 1285
1710 1425
1714 1292
1718 1432
1723 1297
1726 1438
1731 1303
1736 1442
1740 1308
1746 1446
1748 1314
1753 1454
1757 1319
1760 1462
1765 1326
1770 1466
1773 1333
1780 1470
1781 1339
1788 1477
1789 1346
1794 1485
1797 1353
1802 1491
1805 1359
1812 1493
1814 1364
1822 1370
1822 1489
1830 1376
1831 1483
1838 1382
1840 1477
1846 1388
1848 1471
1853 1396
1857 1466
1861 1402
1865 1460
1867 1410
1871 1450
1873 1418
1874 1440
1876 1428
