331 1316
331 1326
332 1336
332 1346
333 1305
334 1294
335 1356
336 1276
336 1366
337 1376
338 1266
338 1386
340 1256
340 1396
342 1406
343 1243
344 1416
346 1229
348 1426
349 1218
349 1436
353 1206
353 1446
356 1193
357 1456
360 1183
361 1466
365 1172
365 1476
369 1162
371 1484
373 1152
376 1493
378 1143
381 1502
383 1132
386 1511
388 1122
392 1519
394 1112
397 1528
400 1102
403 1536
406 1093
409 1544
412 1085
415 1552
419 1076
422 1560
426 1068
428 1568
434 1060
435 1576
442 1052
442 1584
450 1044
450 1590
457 1598
458 1036
465 1604
466 1029
472 1612
474 1022
480 1618
482 1016
488 1625
491 1010
496 1631
500 1004
504 1637
509 998
512 1643
518 992
521 1648
527 987
529 1654
536 982
538 1659
545 977
548 1663
555 973
557 1668
564 968
567 1672
574 964
576 1677
584 960
586 1681
594 956
596 1683
604 952
606 1687
614 948
616 1690
624 944
626 1692
634 941
636 1695
644 938
646 1697
654 935
656 1698
664 932
666 1700
674 930
676 1701
684 927
686 1702
694 925
696 1703
704 923
706 1704
714 921
716 1704
724 919
726 1705
734 917
736 1706
744 916
746 1706
754 915
756 1706
764 913
766 1706
774 912
776 1706
784 912
786 1706
794 912
796 1705
804 911
806 1705
814 911
816 1704
824 911
826 1703
834 911
836 1702
844 912
846 1702
854 912
856 1700
864 913
866 1699
874 913
876 1697
884 914
886 1696
894 915
896 1694
904 916
906 1693
914 918
916 1691
924 919
926 1689
934 920
936 1688
944 922
946 1685
954 923
956 1683
964 926
966 1681
974 928
976 1679
984 930
986 1677
994 933
996 1674
1004 935
1006 1671
1014 938
1016 1669
1024 940
1026 1667
1034 943
1036 1664
1044 946
1046 1660
1054 949
1056 1656
1064 953
1066 1654
1074 955
1076 1650
1084 959
1086 1647
1094 962
1096 1643
1104 966
1106 1639
1114 969
1116 1635
1124 973
1126 1631
1134 976
1135 1626
1144 980
1145 1622
1153 985
1155 1617
1163 987
1165 1613
1172 992
1175 1608
1182 996
1185 1604
1192 1000
1194 1599
1202 1004
1204 1595
1212 1008
1213 1590
1221 1013
1223 1586
1231 1017
1232 1581
1240 1022
1242 1577
1250 1026
1252 1572
1259 1031
1262 1567
1269 1035
1271 1562
1278 1040
1281 1557
1288 1044
1291 1553
1297 1049
1301 1548
1306 1054
1311 1543
1316 1058
1320 1538
1325 1063
1329 1533
1335 1067
1339 1529
1345 1071
1348 1524
1354 1076
1358 1520
1364 1080
1367 1515
1373 1085
1377 1510
1383 1089
1387 1505
1392 1094
1397 1500
1402 1098
1407 1496
1412 1101
1417 1491
1422 1105
1427 1488
1432 1109
1437 1484
1442 1113
1447 1479
1451 1118
1457 1476
1460 1123
1466 1471
1470 1126
1476 1467
1480 1129
1486 1463
1490 1131
1496 1461
1499 1136
1506 1458
1509 1138
1516 1454
1518 1143
1526 1451
1528 1147
1536 1448
1538 1150
1546 1446
1548 1153
1556 1442
1558 1155
1566 1439
1568 1159
1576 1438
1578 1162
1586 1435
1588 1166
1596 1432
1598 1168
1606 1428
1608 1170
1616 1426
1618 1173
1626 1425
1628 1175
1636 1423
1638 1178
1646 1420
1648 1181
1656 1417
1658 1184
1666 1415
1668 1186
1676 1415
1678 1189
1686 1412
1688 1191
1696 1410
1698 1193
1706 1409
1708 1197
1716 1408
1718 1198
1726 1406
1728 1198
1736 1403
1738 1201
1746 1402
1748 1204
1756 1402
1758 1205
1766 1402
1768 1207
1776 1400
1778 1210
1786 1399
1788 1210
1796 1398
1798 1212
1806 1396
1808 1213
1816 1395
1818 1215
1826 1394
1828 1217
1836 1391
1838 1219
1846 1390
1848 1221
1856 1389
1858 1221
1866 1388
1868 1222
1876 1386
1878 1224
1884 1392
1887 1402
1888 1225
1894 1410
1898 1221
1904 1212
1904 1410
1912 1206
1914 1410
1922 1204
1924 1410
1932 1204
1934 1410
1942 1204
1944 1409
1952 1204
1954 1409
1962 1204
1964 1410
1972 1204
1974 1410
1982 1204
1984 1409
1992 1204
1994 1409
2002 1204
2004 1407
2012 1204
2014 1405
2022 1203
2024 1405
2032 1203
2034 1405
2042 1204
2044 1405
2052 1204
2054 1406
2062 1203
2064 1406
2072 1203
2074 1405
2082 1203
2084 1404
2092 1203
2094 1403
2102 1203
2104 1403
2112 1204
2114 1403
2122 1205
2124 1403
2132 1205
2134 1404
2142 1206
2144 1403
2152 1206
2154 1403
2162 1207
2164 1403
2172 1209
2174 1403
2182 1209
2184 1402
2192 1210
2194 1401
2200 1393
2202 1212
2204 1377
2212 1216
2213 1372
2215 1226
2215 1236
2223 1374
2225 1235
2233 1375
2235 1233
2243 1374
2245 1233
2253 1374
2255 1233
2263 1375
2265 1232
2273 1376
2275 1232
2283 1377
2285 1229
2293 1378
2295 1230
2303 1379
2305 1229
2313 1380
2315 1229
2323 1381
2325 1229
2333 1380
2335 1228
2343 1381
2345 1228
2353 1381
2355 1227
2363 1381
2365 1227
2373 1381
2375 1227
2383 1383
2385 1225
2393 1385
2395 1224
2403 1385
2405 1226
2413 1385
2415 1224
2423 1385
2425 1222
2433 1381
2435 1221
2443 1382
2445 1220
2453 1383
2455 1220
2463 1385
2465 1219
2473 1383
2475 1217
2483 1383
2485 1217
2493 1386
2495 1216
2503 1388
2505 1217
2513 1388
2515 1216
2523 1388
2525 1215
2533 1389
2535 1215
2543 1389
2545 1214
2553 1388
2555 1213
2563 1388
2565 1212
2573 1390
2575 1211
2583 1390
2585 1210
2593 1389
2595 1209
2603 1390
2605 1209
2613 1391
2615 1207
2623 1392
2625 1207
2633 1394
2635 1208
2643 1393
2645 1208
2653 1394
2655 1207
2663 1396
2665 1206
2673 1396
2675 1205
2683 1395
2685 1204
2693 1398
2695 1203
2703 1399
2705 1203
2713 1398
2715 1202
2723 1397
2725 1202
2733 1399
2735 1202
2743 1402
2745 1203
2753 1403
2755 1200
2763 1404
2765 1199
2773 1403
2775 1196
2783 1403
2785 1195
2793 1406
2795 1195
2803 1408
2805 1193
2813 1411
2815 1193
2823 1413
2825 1194
2833 1415
2835 1193
2843 1414
2845 1193
2853 1414
2855 1191
2863 1416
2865 1190
2873 1417
2875 1191
2883 1421
2885 1191
2893 1418
2895 1190
2903 1419
2905 1189
2913 1421
2915 1187
2923 1424
2925 1187
2933 1425
2935 1185
2943 1424
2945 1184
2953 1424
2955 1183
2963 1424
2965 1183
2973 1427
2975 1183
2983 1429
2985 1182
2993 1431
2995 1182
3003 1432
3005 1182
3013 1433
3015 1181
3023 1430
3025 1179
3033 1430
3035 1178
3042 1435
3045 1179
3052 1435
3055 1179
3062 1435
3065 1178
3072 1436
3075 1178
3082 1436
3085 1177
3092 1437
3095 1175
3102 1439
3105 1175
3112 1439
3115 1174
3122 1438
3125 1173
3132 1439
3135 1172
3142 1442
3145 1172
3152 1444
3155 1172
3162 1445
3165 1170
3172 1447
3175 1170
3182 1447
3185 1170
3192 1447
3195 1170
3202 1448
3205 1168
3212 1447
3215 1167
3222 1448
3225 1167
3232 1448
3235 1167
3242 1450
3245 1167
3252 1449
3255 1169
3262 1449
3265 1165
3272 1447
3275 1164
3282 1447
3285 1165
3292 1448
3295 1163
3302 1450
3305 1165
3312 1450
3315 1165
3322 1450
3325 1165
3332 1449
3335 1163
3342 1450
3345 1162
3352 1451
3355 1163
3362 1449
3365 1162
3372 1447
3375 1158
3382 1446
3385 1157
3392 1447
3395 1157
3402 1449
3405 1156
3412 1446
3415 1155
3422 1445
3425 1156
3432 1443
3435 1155
3442 1442
3445 1155
3451 1447
3455 1154
3461 1444
3465 1153
3471 1443
3475 1153
3481 1443
3485 1152
3491 1446
3495 1150
3501 1443
3505 1148
3511 1441
3515 1147
3521 1440
3525 1146
3531 1437
3535 1146
3541 1433
3545 1146
3551 1433
3555 1146
3561 1435
3565 1146
3571 1436
3575 1146
3581 1435
3585 1147
3591 1434
3595 1147
3601 1431
3605 1147
3611 1428
3615 1146
3621 1425
3625 1144
3631 1425
3635 1143
3641 1421
3645 1143
3651 1419
3655 1143
3661 1420
3665 1143
3671 1417
3675 1142
3681 1416
3685 1142
3691 1412
3695 1143
3701 1411
3705 1143
3711 1410
3715 1143
3721 1409
3725 1144
3731 1408
3735 1145
3741 1405
3745 1146
3751 1400
3755 1146
3761 1396
3765 1147
3771 1394
3775 1148
3781 1391
3785 1149
3791 1387
3795 1151
3801 1385
3805 1153
3810 1379
3815 1154
3820 1375
3825 1155
3830 1373
3835 1158
3840 1371
3845 1159
3850 1366
3855 1161
3858 1360
3865 1164
3868 1356
3875 1167
3878 1353
3885 1168
3886 1346
3894 1340
3895 1168
3902 1333
3905 1172
3912 1329
3915 1176
3922 1324
3925 1178
3930 1316
3935 1181
3939 1310
3945 1184
3948 1304
3955 1187
3956 1297
3964 1291
3965 1188
3971 1283
3975 1192
3979 1277
3985 1196
3988 1272
3994 1201
3996 1265
4004 1205
4004 1259
4012 1251
4014 1209
4020 1243
4024 1213
4029 1237
4032 1219
4037 1231
