21 424
21 434
23 444
29 416
31 451
37 410
39 457
47 406
49 458
57 405
59 457
67 404
69 456
77 403
79 454
87 402
89 453
97 401
99 452
107 401
109 450
117 400
119 449
127 399
129 447
137 398
139 446
147 398
149 444
157 397
159 443
167 396
169 442
177 396
179 440
187 395
189 439
197 394
199 438
207 394
209 437
217 393
219 435
227 393
229 434
237 392
239 433
247 392
249 432
257 392
259 430
267 391
269 429
277 391
279 428
287 391
289 427
297 390
299 426
307 390
309 425
317 390
319 424
327 390
329 423
337 389
339 422
347 388
349 422
357 387
359 422
367 386
369 421
377 385
379 422
387 384
389 422
397 383
399 422
407 381
409 423
417 379
419 424
427 377
429 425
437 375
439 426
447 372
449 428
457 368
459 430
467 364
469 432
477 359
479 434
486 354
489 437
495 349
499 439
504 343
509 442
513 337
519 444
522 331
529 447
531 326
539 320
539 449
548 315
549 451
557 310
559 453
566 305
569 454
576 301
579 455
586 299
589 455
596 300
599 455
606 302
609 454
616 302
619 452
626 301
629 450
636 301
639 446
646 301
649 442
656 301
658 437
666 300
666 431
674 424
676 302
682 416
684 308
689 408
692 315
695 399
698 323
700 390
703 332
704 380
707 342
707 368
708 352
