503 324
503 334
503 344
504 354
505 306
505 364
506 374
507 295
507 384
510 285
510 394
513 271
513 404
516 414
517 261
520 424
521 250
525 433
526 240
528 443
531 231
534 451
537 222
540 459
543 213
546 467
550 205
553 475
558 196
560 483
566 190
568 489
574 182
576 495
583 176
584 502
591 169
592 508
600 164
600 514
608 158
609 519
617 153
618 524
627 149
627 529
637 144
637 533
647 140
647 537
657 137
657 540
667 134
667 544
677 132
677 546
687 130
687 547
697 129
697 551
707 128
707 552
717 128
717 555
727 129
727 557
737 130
737 559
747 129
747 562
757 132
757 563
767 135
767 565
777 137
777 567
787 140
787 569
797 144
797 571
807 148
807 572
815 154
817 574
824 159
827 576
833 164
837 578
841 170
847 580
849 177
857 183
857 581
864 191
867 583
872 197
877 586
878 205
884 213
887 589
889 222
895 230
897 593
899 240
904 249
907 597
909 258
914 267
917 598
919 276
923 286
926 603
927 296
931 306
935 316
936 606
939 326
943 336
946 609
947 346
951 356
955 366
955 614
958 376
962 386
964 619
966 396
969 406
973 416
973 624
977 426
981 436
982 629
985 446
988 456
992 632
993 465
998 474
1001 637
1003 483
1008 492
1009 643
1013 501
1018 648
1019 509
1025 517
1027 653
1030 526
1035 659
1037 534
1043 542
1043 665
1049 550
1052 670
1056 558
1060 677
1062 566
1068 684
1069 574
1076 690
1077 580
1083 588
1085 695
1090 704
1091 595
1098 710
1099 602
1104 611
1106 716
1113 616
1113 724
1121 623
1121 731
1127 631
1128 739
1135 637
1136 745
1142 753
1143 643
1150 759
1151 650
1157 767
1159 656
1165 774
1166 664
1171 782
1175 669
1179 788
1183 675
1187 794
1190 683
1192 803
1199 688
1200 809
1207 694
1207 817
1215 823
1216 699
1221 831
1222 707
1228 839
1230 713
1236 845
1240 717
1243 853
1248 723
1251 860
1255 731
1259 867
1264 736
1266 875
1273 741
1274 881
1280 749
1281 889
1289 754
1289 895
1295 903
1299 758
1301 911
1307 765
1310 916
1312 774
1315 925
1320 780
1324 930
1330 781
1332 937
1338 787
1338 945
1346 793
1346 951
1352 801
1353 959
1361 806
1361 965
1369 971
1370 811
1376 979
1378 817
1384 986
1387 822
1391 994
1395 828
1399 1001
1403 834
1406 1009
1412 839
1414 1015
1420 846
1422 1021
1427 854
1429 1029
1435 860
1437 1036
1442 868
1445 1043
1452 869
1452 1051
1457 878
1460 1057
1467 881
1469 1062
1474 1071
1476 886
1482 894
1482 1078
1489 1086
1491 899
1496 1094
1499 905
1505 1099
1506 913
1511 1107
1514 919
1519 1113
1522 925
1526 1121
1530 931
1533 1129
1539 936
1542 1134
1547 942
1547 1143
1555 948
1557 1147
1563 1155
1564 953
1570 1163
1572 959
1578 967
1578 1170
1586 1177
1588 971
1593 1185
1596 977
1602 1190
1604 983
1609 1198
1612 990
1618 1203
1622 993
1626 1210
1630 999
1632 1218
1637 1007
1640 1224
1645 1013
1646 1232
1654 1018
1655 1237
1660 1246
1662 1024
1668 1032
1669 1251
1677 1257
1678 1036
1684 1265
1685 1044
1693 1270
1694 1049
1699 1278
1701 1057
1708 1283
1710 1062
1716 1070
1716 1289
1724 1076
1724 1295
1732 1083
1733 1300
1738 1309
1740 1089
1747 1314
1749 1094
1755 1102
1755 1320
1763 1109
1763 1326
1769 1117
1772 1331
1776 1125
1780 1338
1785 1130
1788 1344
1792 1138
1796 1350
1800 1144
1805 1153
1805 1355
1813 1159
1813 1361
1821 1367
1822 1164
1824 1286
1826 1275
1827 1296
1828 1172
1831 1370
1834 1267
1836 1291
1837 1177
1837 1378
1842 1186
1842 1273
1844 1283
1846 1383
1850 1192
1856 1200
1856 1385
1864 1207
1864 1391
1871 1215
1873 1396
1879 1221
1883 1400
1885 1229
1891 1237
1893 1403
1898 1245
1903 1405
1906 1252
1911 1261
1913 1409
1915 1271
1923 1277
1923 1409
1929 1285
1933 1295
1933 1408
1939 1303
1943 1404
1945 1311
1949 1321
1952 1331
1952 1399
1958 1339
1960 1349
1960 1392
1962 1359
1962 1372
1964 1382
