1 1526
1 1536
1 1546
1 1556
1 1566
1 1576
1 1586
1 1596
1 1606
1 1616
1 1626
1 1636
1 1646
2 1656
4 1514
4 1666
6 1676
7 1499
8 1686
9 1488
11 1477
11 1696
13 1706
15 1466
17 1716
18 1454
20 1726
22 1442
25 1735
26 1430
29 1419
29 1745
33 1409
34 1754
38 1397
38 1764
43 1388
43 1773
48 1378
49 1781
54 1369
55 1789
60 1359
61 1797
66 1351
67 1805
72 1343
74 1813
79 1335
82 1820
85 1327
88 1828
92 1318
95 1836
98 1310
103 1842
106 1303
110 1850
112 1295
118 1856
120 1289
126 1863
128 1282
134 1870
136 1275
142 1876
144 1269
150 1882
152 1262
158 1888
160 1255
167 1893
168 1249
176 1898
177 1243
185 1903
187 1238
194 1908
196 1233
203 1913
206 1228
213 1917
216 1223
222 1922
225 1218
231 1927
233 1212
240 1932
243 1208
250 1936
253 1204
260 1939
263 1200
270 1942
273 1196
280 1946
283 1191
290 1950
293 1187
300 1953
303 1184
310 1956
313 1182
320 1960
323 1180
330 1962
333 1178
340 1965
343 1176
350 1968
353 1173
360 1971
363 1171
370 1972
373 1170
380 1974
383 1169
390 1976
393 1168
400 1978
403 1166
410 1981
413 1164
420 1983
423 1161
430 1985
433 1158
440 1986
443 1157
450 1988
453 1156
460 1989
463 1156
470 1990
473 1156
480 1991
483 1155
490 1992
493 1154
500 1993
503 1154
510 1994
513 1154
520 1994
523 1154
530 1995
533 1154
540 1995
543 1154
550 1996
553 1154
560 1996
563 1154
570 1995
573 1154
580 1996
583 1154
590 1996
593 1154
600 1996
603 1155
610 1996
613 1155
620 1995
623 1156
630 1995
633 1155
640 1995
643 1155
650 1995
653 1156
660 1995
663 1157
670 1994
673 1157
680 1994
683 1159
690 1993
693 1160
700 1993
703 1161
710 1992
713 1163
720 1992
723 1164
730 1991
733 1165
740 1990
743 1167
750 1990
753 1168
760 1988
763 1169
770 1986
773 1169
780 1985
783 1172
790 1984
793 1173
800 1983
803 1175
810 1982
813 1178
820 1980
823 1179
830 1978
833 1181
840 1976
843 1183
850 1976
853 1185
860 1975
863 1187
870 1973
873 1189
880 1971
883 1190
890 1970
893 1192
900 1969
903 1195
910 1966
913 1198
920 1965
923 1201
930 1963
933 1204
940 1960
943 1207
950 1958
953 1209
960 1955
963 1213
970 1952
973 1216
980 1949
983 1219
990 1947
993 1222
1000 1943
1003 1224
1010 1941
1013 1226
1020 1938
1023 1229
1030 1934
1033 1231
1040 1931
1043 1235
1050 1928
1053 1239
1060 1923
1063 1243
1070 1920
1073 1245
1080 1916
1083 1248
1090 1912
1093 1252
1099 1907
1103 1255
1109 1903
1113 1258
1119 1899
1123 1261
1129 1896
1133 1265
1139 1892
1142 1270
1149 1887
1152 1273
1158 1882
1162 1277
1166 1876
1172 1281
1176 1871
1181 1286
1186 1867
1191 1289
1194 1861
1199 1295
1202 1855
1208 1300
1211 1850
1216 1306
1220 1844
1225 1311
1230 1841
1234 1316
1240 1838
1243 1321
1250 1834
1253 1325
1259 1829
1262 1330
1268 1824
1270 1336
1278 1342
1278 1819
1287 1347
1288 1814
1295 1353
1296 1808
1304 1358
1305 1803
1313 1363
1314 1798
1321 1369
1323 1792
1330 1374
1332 1787
1340 1378
1341 1782
1348 1384
1350 1777
1356 1390
1358 1771
1364 1396
1367 1766
1373 1401
1376 1761
1382 1406
1386 1756
1390 1412
1395 1751
1398 1418
1405 1748
1406 1424
1414 1743
1416 1428
1424 1738
1425 1433
1434 1438
1434 1733
1444 1442
1444 1729
1454 1446
1454 1725
1463 1451
1464 1721
1472 1456
1474 1718
1481 1461
1484 1714
1489 1467
1494 1710
1499 1471
1504 1707
1508 1476
1514 1704
1518 1478
1524 1701
1528 1482
1534 1699
1538 1485
1544 1697
1548 1489
1554 1695
1558 1492
1564 1694
1568 1493
1574 1692
1578 1495
1584 1691
1588 1496
1594 1690
1598 1497
1604 1690
1608 1499
1614 1690
1618 1499
1624 1690
1628 1501
1634 1690
1638 1502
1644 1690
1648 1502
1654 1690
1658 1502
1664 1690
1668 1504
1674 1690
1678 1504
1684 1690
1688 1504
1694 1689
1698 1504
1704 1690
1708 1505
1714 1689
1718 1504
1724 1689
1728 1505
1734 1690
1738 1505
1744 1690
1748 1505
1754 1691
1758 1505
1764 1691
1768 1505
1774 1691
1778 1506
1784 1691
1788 1506
1794 1692
1798 1506
1804 1693
1808 1506
1814 1692
1818 1507
1824 1693
1828 1507
1834 1692
1838 1507
1844 1694
1848 1507
1854 1694
1858 1508
1864 1693
1868 1508
1874 1692
1878 1508
1884 1692
1888 1508
1894 1692
1898 1509
1904 1693
1908 1509
1914 1694
1918 1509
1924 1695
1928 1509
1934 1695
1938 1509
1944 1696
1948 1509
1954 1696
1958 1510
1964 1695
1968 1510
1974 1695
1978 1510
1984 1695
1988 1511
1994 1695
1998 1510
2004 1695
2008 1512
2014 1695
2018 1512
2024 1697
2028 1513
2034 1698
2038 1511
2044 1697
2048 1513
2054 1697
2058 1513
2064 1698
2068 1513
2074 1699
2078 1513
2084 1699
2088 1514
2094 1699
2098 1514
2104 1698
2108 1514
2114 1699
2118 1514
2124 1700
2128 1514
2134 1699
2138 1514
2144 1699
2148 1514
2154 1700
2158 1514
2164 1700
2168 1515
2174 1701
2178 1515
2184 1700
2188 1514
2194 1701
2198 1515
2204 1702
2208 1516
2214 1703
2218 1516
2224 1702
2228 1516
2234 1702
2238 1517
2244 1703
2248 1517
2254 1704
2258 1518
2264 1703
2268 1517
2274 1704
2278 1518
2284 1704
2288 1518
2294 1704
2298 1518
2304 1705
2308 1518
2314 1705
2318 1518
2324 1705
2328 1518
2334 1705
2338 1519
2344 1705
2348 1520
2354 1706
2358 1520
2364 1706
2368 1521
2374 1707
2378 1521
2384 1707
2388 1521
2394 1708
2398 1522
2404 1708
2408 1522
2414 1709
2418 1522
2424 1708
2428 1523
2434 1708
2438 1522
2444 1709
2448 1523
2454 1709
2458 1523
2464 1709
2468 1523
2474 1710
2478 1523
2484 1710
2488 1523
2494 1710
2498 1524
2504 1710
2508 1524
2514 1710
2518 1525
2524 1711
2528 1525
2534 1711
2538 1526
2544 1710
2548 1526
2554 1710
2558 1526
2564 1712
2568 1526
2574 1712
2578 1526
2584 1713
2588 1526
2594 1713
2598 1527
2604 1713
2608 1528
2614 1713
2618 1528
2624 1714
2628 1529
2634 1714
2638 1529
2644 1713
2648 1528
2654 1714
2658 1528
2664 1714
2668 1529
2674 1715
2678 1530
2684 1716
2688 1530
2694 1716
2698 1530
2704 1716
2708 1530
2714 1717
2718 1530
2724 1717
2728 1531
2734 1717
2738 1532
2744 1716
2748 1532
2754 1716
2758 1532
2764 1717
2768 1532
2774 1718
2778 1533
2784 1717
2788 1533
2794 1717
2798 1532
2804 1717
2808 1533
2814 1717
2818 1534
2824 1718
2828 1534
2834 1719
2838 1534
2844 1720
2848 1534
2854 1720
2858 1534
2864 1721
2868 1535
2874 1721
2878 1535
2884 1721
2888 1535
2894 1722
2898 1535
2904 1722
2908 1536
2914 1723
2918 1536
2924 1723
2928 1537
2934 1723
2938 1538
2944 1724
2948 1539
2954 1724
2958 1539
2964 1724
2968 1538
2974 1725
2978 1538
2984 1725
2988 1539
2994 1726
2998 1538
3004 1727
3008 1538
3014 1727
3018 1539
3024 1728
3028 1540
3034 1729
3038 1542
3044 1729
3048 1542
3054 1729
3058 1541
3064 1729
3068 1541
3074 1729
3078 1541
3084 1729
3088 1542
3094 1729
3098 1542
3104 1730
3108 1542
3114 1729
3118 1542
3124 1730
3128 1542
3134 1730
3138 1542
3144 1730
3148 1543
3154 1731
3158 1544
3164 1731
3168 1543
3174 1731
3178 1543
3184 1731
3188 1544
3194 1731
3198 1544
3204 1731
3208 1544
3214 1732
3218 1545
3224 1732
3228 1545
3234 1732
3238 1545
3244 1733
3248 1544
3254 1734
3258 1545
3264 1734
3268 1545
3274 1734
3278 1545
3284 1735
3288 1546
3294 1735
3298 1547
3304 1736
3308 1548
3314 1736
3318 1549
3324 1736
3328 1549
3334 1736
3338 1549
3344 1736
3348 1549
3354 1737
3358 1549
3364 1737
3368 1549
3374 1737
3378 1549
3384 1738
3388 1549
3394 1738
3398 1548
3404 1739
3408 1549
3414 1739
3418 1549
3424 1739
3428 1550
3434 1739
3438 1550
3444 1740
3448 1550
3454 1740
3458 1550
3464 1741
3468 1551
3474 1741
3478 1552
3484 1742
3488 1552
3494 1742
3498 1553
3504 1743
3508 1552
3514 1743
3518 1552
3524 1743
3528 1553
3534 1743
3538 1553
3544 1743
3548 1554
3554 1743
3558 1553
3564 1744
3568 1554
3574 1745
3578 1554
3584 1745
3588 1554
3594 1745
3598 1554
3604 1745
3608 1554
3614 1745
3618 1554
3624 1746
3628 1554
3634 1745
3638 1555
3644 1745
3648 1555
3654 1746
3658 1555
3664 1747
3668 1555
3674 1747
3678 1556
3684 1748
3688 1556
3694 1748
3698 1557
3704 1748
3708 1557
3714 1748
3718 1557
3724 1748
3728 1557
3734 1748
3738 1558
3744 1749
3748 1558
3754 1749
3758 1557
3764 1750
3768 1557
3774 1750
3778 1557
3784 1751
3788 1558
3794 1751
3798 1558
3804 1752
3808 1557
3814 1752
3818 1559
3824 1752
3828 1560
3834 1753
3838 1560
3844 1752
3848 1560
3854 1752
3858 1560
3864 1753
3868 1560
3874 1753
3878 1560
3884 1753
3888 1561
3894 1752
3898 1561
3904 1753
3908 1560
3914 1753
3918 1561
3924 1754
3928 1562
3934 1754
3938 1562
3944 1754
3948 1562
3954 1754
3958 1562
3964 1755
3968 1562
3974 1755
3978 1562
3984 1755
3988 1562
3994 1757
3998 1561
4004 1758
4008 1561
4014 1758
4018 1561
4024 1758
4028 1563
4034 1759
4038 1564
4044 1760
4048 1567
4053 1755
4056 1573
4062 1750
4065 1578
4070 1744
4073 1584
4077 1736
4078 1593
4083 1728
4084 1601
4090 1609
4090 1720
4096 1617
4098 1714
4103 1625
4105 1705
4111 1632
4111 1697
4116 1641
4117 1686
4118 1651
4121 1661
4121 1675
