34 712
34 722
34 732
34 742
34 752
34 762
34 772
34 782
34 792
34 802
39 677
39 687
39 697
39 811
39 821
39 831
44 652
44 662
44 840
44 850
44 860
49 632
49 642
49 869
49 879
54 617
54 888
55 898
59 602
59 908
64 587
64 917
64 927
69 577
69 936
74 567
74 945
79 552
79 954
81 964
84 542
86 973
92 534
94 980
97 524
97 990
102 514
102 999
106 1009
107 504
114 492
114 1015
117 1025
122 484
125 1032
129 472
129 1042
137 464
137 1049
144 1057
145 456
152 1064
153 449
156 1074
157 439
164 1080
165 431
170 1088
173 424
178 1095
180 416
185 1103
188 409
195 1107
197 404
202 1115
205 396
210 1122
213 389
217 1130
222 384
227 1134
230 376
234 1142
238 369
244 1145
247 364
250 1153
256 359
260 1157
265 354
269 1162
274 349
279 1165
283 344
285 1173
292 339
295 1177
301 334
305 1180
311 330
314 1185
321 325
323 1190
331 320
332 1195
341 319
342 1195
350 314
351 1200
360 311
361 1203
370 309
371 1205
379 304
380 1210
389 304
390 1210
398 299
399 1215
408 299
409 1215
418 299
419 1215
427 294
428 1220
437 294
438 1220
447 294
448 1220
457 289
457 1225
467 289
467 1225
469 107
474 116
477 289
477 1225
479 104
479 125
485 133
487 289
487 1225
488 109
493 140
497 114
497 289
497 1225
500 148
504 122
507 289
507 1225
508 155
510 130
512 140
512 165
517 174
517 289
517 1225
519 184
520 147
524 157
525 192
527 289
527 1225
529 202
532 164
534 211
537 289
537 1225
539 172
539 220
542 230
544 181
544 240
544 250
544 260
544 270
544 280
547 1224
548 191
553 200
555 210
555 220
557 1220
560 229
567 1220
569 212
569 222
574 192
574 202
577 1224
579 177
587 169
587 1225
592 159
597 149
597 1225
602 139
607 1225
609 127
617 119
617 1225
625 111
627 1225
633 104
637 1225
642 99
645 285
647 1225
652 94
653 278
655 289
657 1225
662 89
663 273
665 289
667 1224
670 265
672 89
674 294
677 1220
678 258
681 84
684 294
685 250
687 1220
691 84
694 294
695 245
697 1220
701 80
703 238
704 294
707 1219
709 74
710 225
713 299
717 1215
719 74
720 220
723 299
727 1215
728 213
729 72
733 203
733 300
736 1210
739 69
740 195
743 304
745 180
746 1210
749 69
753 173
753 305
755 1205
758 163
759 69
760 150
763 309
765 140
765 1205
769 69
770 125
772 314
774 1200
778 118
779 71
782 314
783 108
784 1197
785 79
790 88
790 98
791 319
794 1195
800 324
803 1190
810 327
812 1185
820 329
822 1184
829 334
832 1179
838 339
842 1174
847 344
852 1169
856 349
862 1164
865 354
870 1155
874 359
880 1150
883 364
890 1145
892 369
899 1140
901 374
907 1134
909 381
915 389
915 1125
925 392
925 1120
932 400
933 1113
940 407
940 1105
949 412
950 1100
957 419
958 1093
964 427
965 1085
972 434
973 1078
979 442
980 1070
987 449
988 1063
994 457
995 1050
999 466
1003 1043
1005 474
1010 1035
1013 480
1015 1025
1017 490
1023 1018
1025 497
1028 1008
1029 507
1035 515
1035 995
1040 524
1043 988
1045 533
1048 978
1050 542
1053 968
1055 551
1058 958
1060 560
1063 948
1065 569
1068 938
1070 578
1070 588
1070 925
1075 597
1075 915
1080 606
1080 900
1083 616
1085 626
1085 880
1085 890
1088 636
1090 646
1090 865
1095 655
1095 665
1095 840
1095 850
1097 675
1100 685
1100 695
1100 705
1100 805
1100 815
1100 825
1105 714
1105 724
1105 734
1105 744
1105 754
1105 764
1105 774
1105 784
1105 794
