59 712
59 722
59 732
59 742
59 752
59 762
59 772
59 782
59 792
59 802
64 677
64 687
64 697
64 811
64 821
64 831
69 657
69 667
69 840
69 850
72 860
74 637
74 647
74 870
77 880
79 622
79 890
84 607
84 899
86 909
89 597
91 918
94 582
94 928
99 572
99 937
104 562
104 946
109 552
109 955
112 965
114 542
117 974
122 534
124 982
127 524
129 991
134 512
134 1000
140 1008
142 504
145 1017
147 494
152 1025
155 486
160 1032
163 479
167 1040
169 467
172 1049
177 459
179 1057
185 451
187 1064
193 444
194 1072
200 436
202 1079
210 431
211 1084
218 424
219 1090
225 416
225 1098
235 411
235 1102
242 1110
243 404
251 1115
252 399
260 1120
261 394
269 387
269 1125
278 1130
279 382
287 1135
289 377
296 1140
299 372
305 1145
309 367
314 1150
319 362
323 1155
329 359
333 1155
338 354
342 1160
347 349
351 1165
357 349
361 1165
367 344
370 1170
377 344
380 1172
386 339
390 1175
396 339
400 1175
406 335
409 1180
416 334
419 1180
426 334
429 1180
436 330
438 1185
446 329
448 1185
454 72
454 82
454 92
454 102
456 329
458 1185
459 111
462 64
464 120
466 329
467 130
468 1185
469 140
471 59
474 149
476 329
478 1185
479 158
480 168
481 59
484 178
484 188
486 329
488 1185
489 197
491 59
494 206
496 329
498 1185
499 215
501 59
505 223
506 329
508 1185
510 232
511 59
516 329
517 240
518 1185
520 64
524 248
526 329
528 1183
529 257
530 67
535 334
537 264
538 1180
540 69
545 334
546 269
548 1180
549 74
554 275
555 334
558 1178
559 76
564 275
564 339
565 84
568 1175
570 283
574 89
574 339
578 1175
579 288
582 95
584 297
584 341
587 1170
590 102
592 304
594 344
595 111
597 1169
601 119
601 309
603 349
607 1165
609 126
609 315
613 349
615 134
615 323
617 1169
619 333
620 143
625 152
627 1170
630 161
633 171
635 181
636 1175
638 191
645 199
645 209
645 219
645 330
645 340
645 350
646 1175
650 320
654 214
655 305
655 354
655 1180
657 204
660 295
664 192
665 280
665 354
665 1180
669 182
670 265
674 349
674 1185
675 245
675 255
677 174
680 200
680 210
680 220
680 230
684 349
684 1185
685 166
688 193
694 349
694 1185
695 161
695 185
704 347
704 1185
705 156
705 175
713 1190
714 344
715 151
715 170
723 1190
724 165
724 344
725 146
733 1190
734 162
734 344
735 141
743 1190
744 160
744 344
745 139
753 155
753 1190
754 344
755 136
763 155
763 1190
764 344
765 134
772 150
773 1190
774 344
775 134
782 150
783 1190
784 344
785 134
790 143
793 1190
794 344
802 1185
803 349
812 1185
813 349
822 1185
823 349
832 1184
833 350
842 1180
843 354
852 1179
853 355
862 1175
863 359
872 1174
873 360
882 1170
883 364
891 1165
892 369
901 1165
902 369
910 1160
911 374
919 1155
920 379
929 1152
930 382
939 387
939 1147
949 391
949 1142
958 396
959 1137
968 400
969 1132
975 408
977 1125
985 412
986 1120
993 419
995 1115
1002 424
1003 1108
1011 429
1013 1103
1019 436
1020 1095
1025 444
1028 1088
1033 450
1035 1080
1042 455
1045 1075
1050 462
1053 1068
1057 470
1060 1060
1065 477
1068 1053
1072 485
1075 1040
1077 494
1083 1033
1084 502
1090 1025
1092 509
1095 519
1095 1015
1103 525
1103 1008
1110 533
1110 995
1115 542
1115 985
1119 552
1123 978
1125 560
1128 968
1130 569
1133 958
1135 578
1138 948
1140 587
1143 938
1144 597
1148 928
1149 606
1150 616
1150 915
1155 625
1155 905
1160 634
1160 644
1160 885
1160 895
1165 653
1165 663
1165 870
1170 672
1170 682
1170 845
1170 855
1174 692
1175 702
1175 712
1175 815
1175 825
1175 835
1179 722
1180 732
1180 742
1180 752
1180 762
1180 772
1180 782
1180 792
1180 802
