574 997
574 1007
574 1017
574 1027
574 1037
579 832
579 842
579 852
579 862
579 872
579 882
579 892
579 902
579 912
579 922
579 932
579 942
579 952
579 962
579 972
579 982
582 1044
584 807
584 817
589 777
589 787
589 797
592 1045
594 747
594 757
594 767
599 682
599 692
599 702
599 712
599 722
599 732
602 1045
604 657
604 667
609 637
609 647
612 1045
614 622
619 607
622 1049
624 597
629 587
632 1050
634 577
639 567
642 1054
644 552
649 532
649 542
652 1055
654 502
654 512
654 522
659 457
659 467
659 477
659 487
662 1055
664 437
664 447
669 417
669 427
671 1060
674 367
674 377
674 387
674 397
674 407
679 342
679 352
681 1060
684 327
691 1060
694 322
701 1060
704 319
711 1060
714 319
721 1060
724 319
731 1060
734 319
739 1052
744 319
745 970
745 980
745 990
745 1000
745 1010
745 1020
745 1030
745 1040
750 420
750 430
750 440
750 450
750 460
750 470
750 480
750 490
750 500
750 510
750 520
750 530
750 540
750 550
750 930
750 940
750 950
750 960
752 560
754 321
755 385
755 395
755 405
755 570
755 895
755 905
755 915
757 580
760 329
760 355
760 365
760 375
760 590
760 860
760 870
760 880
765 338
765 599
765 609
765 619
765 830
765 840
765 850
770 628
770 715
770 725
770 735
770 745
770 755
770 765
770 775
770 785
770 795
770 805
770 815
775 637
775 647
775 657
775 667
775 677
775 687
775 697
