934 477
934 487
934 497
934 507
934 517
934 527
934 537
934 547
934 557
934 567
934 577
934 587
934 597
934 607
939 427
939 437
939 447
939 457
939 467
939 616
939 626
939 636
944 232
944 242
944 252
944 262
944 272
944 282
944 292
944 302
944 312
944 322
944 332
944 342
944 352
944 362
944 372
944 382
944 392
944 402
944 412
944 645
944 655
949 664
949 674
949 684
951 694
952 224
954 704
954 714
954 724
959 733
959 743
959 753
961 219
964 762
964 772
964 782
964 792
969 801
969 811
969 821
969 831
969 841
971 219
974 850
974 860
977 870
979 880
979 890
980 214
984 899
984 909
986 919
989 929
989 939
989 949
990 211
991 959
994 969
998 204
999 978
999 988
999 998
1004 1007
1004 1017
1007 199
1009 1026
1016 1034
1017 194
1024 1040
1026 199
1033 1035
1034 206
1035 216
1040 225
1040 235
1040 245
1043 1035
1045 254
1045 264
1050 273
1053 1035
1055 282
1059 292
1063 1033
1064 301
1065 311
1068 321
1073 330
1073 1030
1075 340
1077 350
1082 359
1083 1028
1085 369
1085 379
1090 388
1090 398
1093 1025
1095 407
1095 417
1100 426
1103 1025
1105 435
1105 445
1110 454
1110 464
1113 1025
1115 473
1120 482
1122 1020
1125 491
1130 500
1132 510
1132 1020
1137 519
1140 529
1141 1015
1145 538
1150 547
1150 557
1151 1015
1155 566
1155 576
1155 586
1160 595
1160 605
1160 1010
1162 615
1165 625
1165 635
1165 645
1170 654
1170 664
1170 674
1170 684
1170 1005
1175 693
1175 703
1175 713
1180 722
1180 732
1180 1005
1185 741
1185 751
1185 761
1185 771
1188 781
1189 1000
1190 791
1190 801
1190 811
1190 821
1193 831
1195 841
1195 851
1195 861
1195 871
1199 997
1200 880
1200 890
1200 900
1202 910
1205 920
1205 930
1205 940
1205 950
1205 960
1205 970
1205 980
1207 990
