559 847
559 857
559 867
559 877
559 887
559 897
559 907
559 917
559 927
559 937
559 947
559 957
559 967
559 977
559 987
559 997
559 1007
559 1017
559 1027
564 817
564 827
564 837
564 1036
569 792
569 802
574 762
574 772
574 782
574 1040
579 737
579 747
583 1045
584 722
589 707
593 1045
594 687
594 697
599 672
602 1050
604 657
609 642
612 1050
614 607
614 617
614 627
619 597
622 1054
624 577
624 587
629 567
632 1055
634 557
639 547
641 1060
644 527
644 537
649 517
651 1063
654 497
654 507
659 482
660 1068
664 467
669 457
670 1070
674 442
679 337
679 347
679 357
679 367
679 377
679 387
679 397
679 407
679 417
679 427
680 1070
687 329
690 1070
696 324
700 1070
706 324
710 1070
716 324
720 1070
726 324
730 1070
736 324
739 1065
744 331
745 390
745 400
745 410
745 420
745 430
745 440
745 450
745 460
745 470
745 480
745 490
745 500
745 510
745 520
745 1055
747 530
750 339
750 349
750 359
750 369
750 379
750 540
750 550
750 560
750 570
750 580
750 1000
750 1010
750 1020
750 1030
750 1040
752 590
755 600
755 975
755 985
757 610
760 620
760 950
760 960
762 630
765 640
765 920
765 930
765 940
770 649
770 659
770 669
770 679
770 875
770 885
770 895
770 905
775 688
775 698
775 708
775 785
775 795
775 805
775 815
775 825
775 835
775 845
775 855
775 865
780 717
780 727
780 737
780 747
780 757
780 767
