304 417
304 427
309 387
309 397
309 407
309 436
314 377
316 444
322 369
326 448
330 361
336 450
338 354
346 450
347 349
356 344
356 450
366 344
366 450
375 339
375 455
384 334
384 460
384 802
389 712
389 722
389 732
389 767
389 777
389 787
389 811
389 821
393 465
394 272
394 282
394 292
394 302
394 312
394 332
394 647
394 702
394 741
394 751
394 830
394 840
394 850
394 860
394 870
394 880
394 890
394 900
397 910
399 257
399 321
399 656
399 666
399 676
399 686
399 920
402 639
402 930
403 465
404 247
404 582
404 592
404 627
409 237
409 601
409 611
409 938
409 948
412 574
413 465
414 227
414 957
414 967
414 977
414 987
414 997
414 1007
414 1017
414 1027
420 566
422 219
422 470
422 1034
424 207
425 556
429 197
430 546
430 1040
432 470
437 189
438 539
440 1040
442 469
442 529
445 181
447 519
450 1040
452 465
452 509
453 174
459 1045
460 501
462 169
462 465
464 1054
465 491
466 1064
472 164
472 469
473 484
474 1070
474 1467
474 1477
479 1486
482 164
482 1459
483 1075
484 1085
484 1495
489 1094
491 159
491 1104
492 1454
493 1500
499 1110
500 1446
501 155
502 1505
505 1118
508 1439
509 149
510 1127
512 1505
515 1431
517 1135
518 144
521 1510
523 1424
527 1135
528 144
530 1416
531 1513
536 1140
538 144
538 1409
540 1518
545 1145
547 1404
548 144
550 1520
555 1145
557 1404
558 144
560 1520
564 1150
567 1399
568 144
569 1159
569 1525
575 1167
577 1394
578 144
579 1522
582 1175
587 1394
588 144
589 1520
592 1179
595 1386
598 144
599 1520
602 1180
603 1379
607 1514
608 145
609 1188
612 1374
614 1197
615 1505
618 149
619 1206
620 1366
625 1356
625 1500
626 1214
628 150
630 1200
633 1349
635 1209
635 1495
637 1339
638 154
639 1195
639 1327
644 1302
644 1312
645 1490
647 159
648 1200
649 1210
649 1282
649 1292
653 1483
654 1262
654 1272
655 1218
656 164
659 1228
659 1238
659 1248
660 1475
664 171
665 1465
670 179
673 1458
675 1380
677 1390
678 185
678 1448
679 1512
680 1355
680 1365
684 1497
684 1521
685 193
685 1335
685 1345
685 1397
685 1440
690 1305
690 1315
690 1325
690 1406
690 1416
690 1426
691 1529
692 1489
693 200
695 1280
695 1290
701 1484
701 1530
703 199
704 1275
709 1477
711 1530
713 199
713 1280
717 1469
720 705
720 715
720 1535
722 725
722 1285
723 200
725 685
725 695
727 1464
730 208
730 645
730 655
730 665
730 675
730 1537
732 724
732 1289
735 600
735 610
735 635
735 1456
740 212
740 580
740 590
740 619
740 716
740 1540
742 1290
743 1449
745 555
747 220
747 565
748 709
750 530
750 540
750 1441
750 1540
751 1295
755 227
755 320
755 425
755 435
755 445
755 500
755 510
755 520
755 701
757 330
758 1434
760 310
760 340
760 350
760 375
760 385
760 454
760 464
760 474
760 484
760 1300
760 1540
763 418
763 694
764 232
765 290
765 300
765 359
765 394
765 404
767 684
767 1429
769 1305
769 1535
770 240
770 250
770 280
772 674
774 1314
775 259
775 269
776 1424
779 1323
779 1535
780 1333
781 669
784 1343
785 1353
786 1424
789 1363
789 1535
790 1373
791 669
794 1383
796 1420
799 1392
799 1402
799 1535
801 665
808 1530
809 657
818 1530
819 652
825 1240
825 1250
827 644
828 1530
829 627
830 1230
830 1259
834 602
834 612
835 1268
835 1290
835 1300
837 1310
838 1223
838 1530
839 582
839 592
840 1277
840 1320
842 1330
844 572
845 1210
845 1340
848 1530
849 557
850 1349
850 1359
853 1203
854 547
855 1368
857 1524
860 1377
860 1387
860 1397
860 1407
862 539
863 1198
865 1416
865 1515
867 529
868 1426
870 1185
875 521
875 1434
875 1510
879 1180
883 514
883 1440
884 1505
887 1450
889 1177
890 506
894 1502
895 1100
895 1110
895 1120
895 1457
897 1169
898 499
900 1129
900 1139
900 1149
900 1159
902 1465
904 1095
904 1497
907 494
910 1472
912 1489
914 1095
917 494
924 1095
924 1457
924 1467
924 1477
927 494
932 1449
932 1484
934 1095
937 489
940 1490
942 1444
944 1095
947 489
950 1492
952 1439
954 1095
957 489
960 1495
962 1434
964 1095
967 489
969 1500
971 1429
974 1095
976 494
979 1422
979 1500
984 1092
985 499
989 1417
989 1500
994 1090
995 502
998 1505
999 1414
1004 507
1004 1090
1008 1409
1008 1505
1012 514
1014 1090
1015 524
1017 1404
1018 1505
1023 530
1024 1090
1027 540
1027 1399
1028 1503
1034 1090
1035 547
1037 1399
1038 1500
1040 556
1044 1090
1045 565
1047 1394
1048 1500
1049 1099
1049 1109
1050 574
1050 584
1050 594
1050 615
1050 625
1052 635
1054 1118
1055 603
1057 1389
1058 1500
1059 1127
1059 1137
1062 639
1064 1146
1066 1384
1068 1498
1069 1155
1069 1165
1072 634
1072 1175
1074 1377
1077 1184
1078 1495
1082 634
1084 1372
1085 1190
1088 1493
1090 626
1094 587
1094 597
1094 607
1094 1369
1095 1190
1095 1475
1095 1485
1102 579
1103 1364
1103 1468
1104 557
1104 567
1104 1342
1104 1352
1105 1190
1109 532
1109 542
1110 1460
1112 1334
1114 517
1114 1195
1114 1317
1118 1453
1119 502
1119 1302
1120 1203
1124 1277
1124 1287
1127 494
1128 1210
1128 1448
1129 1252
1129 1262
1132 484
1134 1227
1134 1237
1134 1457
1134 1467
1134 1477
1135 1440
1137 1215
1139 1486
1140 476
1142 1449
1143 1433
1148 469
1149 1490
1150 1425
1152 1444
1155 1370
1155 1380
1155 1390
1155 1400
1157 464
1158 1418
1158 1495
1160 1330
1160 1340
1160 1350
1160 1360
1161 1439
1165 1295
1165 1305
1165 1315
1166 459
1167 1500
1169 1432
1170 1275
1170 1285
1175 1250
1175 1260
1176 459
1176 1495
1179 1429
1180 1235
1185 454
1186 1495
1188 1228
1188 1424
1195 454
1195 1220
1195 1416
1196 1495
1204 1215
1205 454
1205 1411
1206 1495
1214 1215
1215 454
1215 1409
1216 1495
1224 459
1224 1212
1224 1404
1225 1490
1233 464
1234 1210
1234 1402
1235 1490
1242 469
1244 1210
1244 1399
1245 1490
1251 474
1253 1394
1254 1210
1255 1490
1259 481
1263 1215
1263 1394
1265 489
1265 1490
1270 1223
1272 1389
1273 495
1275 505
1275 1490
1278 1230
1280 514
1282 1384
1285 523
1285 533
1285 1238
1285 1490
1289 1322
1289 1332
1289 1342
1289 1352
1289 1362
1289 1372
1290 542
1293 1245
1294 552
1294 1255
1294 1265
1294 1275
1294 1285
1294 1295
1294 1305
1295 562
1295 1490
1302 570
1305 580
1305 1490
1310 589
1315 598
1315 608
1315 618
1315 628
1315 1485
1320 637
1325 1480
1327 645
1335 652
1335 1480
1340 1310
1340 1320
1340 1330
1340 1340
1340 1350
1340 1370
1342 1360
1342 1380
1344 657
1345 1290
1345 1300
1345 1480
1350 1270
1350 1280
1350 1387
1354 661
1355 1250
1355 1260
1355 1480
1359 1392
1360 1230
1360 1240
1363 666
1365 1205
1365 1215
1365 1475
1367 1399
1370 674
1370 1180
1370 1190
1375 1160
1375 1170
1375 1475
1376 1404
1380 677
1383 1153
1383 1468
1384 1411
1387 685
1390 1145
1390 1419
1390 1429
1390 1439
1390 1449
1390 1459
1395 692
1398 1138
1402 700
1405 1100
1405 1110
1405 1120
1405 1130
1410 707
1413 1093
1415 1080
1417 715
1420 1055
1420 1065
1425 722
1428 1048
1429 732
1433 1038
1434 741
1438 1028
1440 749
1443 1018
1445 758
1448 1008
1450 767
1450 777
1454 787
1455 950
1455 960
1455 970
1455 980
1455 990
1455 1000
1460 895
1460 905
1460 915
1460 925
1460 935
1462 794
1469 802
1469 890
1474 811
1479 890
1480 819
1484 899
1488 825
1489 1012
1489 1022
1490 907
1492 835
1494 917
1497 1004
1497 1029
1499 926
1500 842
1502 994
1504 935
1504 945
1504 982
1505 851
1505 1035
1508 861
1509 954
1509 964
1513 870
1515 1035
1517 880
1523 1028
1525 887
1525 1015
1529 897
1530 1005
1534 906
1535 995
1538 916
1540 926
1543 988
1545 935
1545 945
1545 955
1545 965
1545 975
