494 1027
499 1017
499 1036
504 1007
504 1045
509 997
514 987
514 1042
519 977
524 1037
527 969
532 959
534 1032
537 949
542 1024
545 941
552 1020
553 934
562 1020
563 934
572 1024
573 934
581 1029
583 935
589 1035
589 1045
592 1055
593 939
597 1064
599 1152
599 1162
599 1172
599 1182
599 1192
599 1202
599 1212
599 1222
599 1232
601 1074
603 939
604 1142
604 1241
606 1083
609 1127
610 1093
611 1249
612 944
614 1103
614 1113
619 1255
621 949
628 1260
629 956
635 1268
638 961
643 1275
645 969
653 975
653 1275
660 983
660 1265
665 1255
668 989
670 1155
670 1165
670 1175
670 1185
670 1195
670 1205
670 1215
670 1245
675 997
675 1135
675 1145
675 1224
675 1234
685 999
685 1135
695 999
695 1135
705 999
705 1135
714 1130
715 999
724 994
724 1130
733 989
734 1130
743 989
744 1130
752 984
754 1130
762 984
764 1130
772 979
774 1130
782 979
784 1130
792 979
794 1130
801 974
804 1130
811 974
814 1130
821 974
824 1130
831 974
834 1130
840 1138
841 974
844 1272
844 1282
848 1145
849 1247
849 1257
851 974
852 1155
852 1289
854 1165
854 1232
859 1174
859 1184
859 1194
859 1204
859 1214
860 1295
861 974
870 979
870 1295
875 988
880 1295
883 995
889 1290
890 1003
895 1012
895 1145
895 1155
895 1165
895 1175
895 1185
895 1195
895 1205
895 1280
900 1021
900 1214
900 1224
900 1234
900 1260
900 1270
903 1031
905 1041
905 1145
905 1243
910 1050
910 1060
910 1070
915 1079
915 1145
925 1079
925 1145
934 1150
935 1079
943 1155
945 1079
952 1160
955 1079
962 1164
965 1076
971 1169
974 1179
974 1189
974 1199
974 1209
974 1219
974 1229
974 1239
974 1249
975 1074
979 1258
984 1267
985 1074
992 1274
995 1074
1001 1279
1005 1074
1011 1283
1014 1012
1014 1022
1014 1032
1015 1074
1019 1002
1019 1041
1019 1051
1019 1061
1021 1285
1027 994
1031 1288
1037 989
1041 1290
1047 989
1049 892
1049 902
1051 1290
1054 882
1054 911
1056 984
1059 920
1061 1293
1062 874
1062 930
1065 979
1067 939
1069 949
1069 959
1069 969
1070 866
1071 1295
1075 856
1080 1300
1085 851
1090 1300
1095 849
1100 1300
1105 852
1110 1295
1114 857
1120 1285
1124 861
1125 1275
1128 871
1130 881
1130 891
1130 901
1130 911
1130 921
1130 931
1130 941
1130 951
1130 961
1130 971
1130 981
1130 991
1130 1001
1130 1011
1130 1021
1130 1031
1130 1041
1130 1051
1130 1061
1130 1210
1130 1220
1130 1230
1130 1240
1130 1250
1130 1260
1135 1070
1140 1079
1140 1210
1150 1082
1150 1210
1160 1084
1160 1210
1170 1084
1170 1210
1180 1084
1180 1210
1190 1084
1190 1210
1200 1084
1200 1210
1210 1081
1210 1210
1214 1057
1214 1067
1219 1047
1220 1210
1224 1037
1230 1212
1232 1029
1240 1021
1240 1215
1248 1014
1250 1215
1257 1009
1260 1215
1266 1004
1270 1215
1276 1000
1280 1215
1286 995
1289 922
1289 932
1289 942
1290 1215
1294 912
1294 951
1294 961
1294 971
1294 981
1299 1220
1304 907
1308 1225
1314 904
1315 1233
1323 1240
1324 904
1329 1248
1334 904
1334 1257
1334 1267
1339 1276
1344 904
1344 1285
1347 1295
1354 906
1357 1299
1363 911
1366 1304
1370 919
1375 928
1375 938
1376 1305
1380 947
1384 957
1385 967
1386 1308
1393 974
1396 1310
1403 974
1406 1313
1412 979
1415 1318
1422 979
1425 1320
1432 979
1435 1320
1442 979
1445 1320
1451 984
1455 1320
1460 989
1465 1320
1468 995
1475 1003
1475 1315
1480 1012
1480 1035
1480 1045
1480 1055
1480 1065
1480 1075
1480 1085
1484 1022
1485 1094
1485 1315
1494 1310
1495 1094
1502 1304
1505 1097
1510 1295
1514 1102
1518 1288
1522 1109
1525 1275
1529 1117
1530 1265
1537 1124
1538 1258
1544 1132
1545 1245
1550 1235
1552 1139
1555 1149
1558 1228
1560 1158
1563 1218
1565 1167
1565 1205
1570 1176
1570 1186
1570 1196
