129 212
129 222
129 232
129 242
129 252
129 262
134 202
134 271
141 279
142 194
149 285
150 186
158 290
160 184
168 290
170 184
178 290
180 184
188 290
190 184
198 290
200 184
208 290
210 184
218 290
220 184
228 290
230 184
238 290
240 184
248 290
250 184
258 290
260 184
268 290
270 184
278 290
280 184
288 290
290 184
298 290
300 184
308 290
310 184
318 290
320 184
328 290
330 184
338 290
340 184
348 290
350 184
358 290
360 184
368 290
370 184
378 290
380 184
388 290
390 184
398 290
400 184
408 290
410 184
418 290
419 367
419 377
420 184
424 352
424 386
424 396
424 406
424 416
424 426
424 436
424 446
424 456
424 466
424 476
424 486
424 496
424 506
424 516
424 526
424 536
424 546
424 556
424 566
424 576
424 586
424 596
424 606
424 616
424 626
424 636
424 646
424 656
424 666
428 290
429 332
429 342
429 675
430 184
432 685
434 322
437 694
438 290
439 307
440 184
441 704
449 710
450 184
452 720
459 728
460 181
464 737
468 174
472 744
477 169
479 752
484 761
487 169
491 769
497 169
499 775
505 783
507 169
515 787
517 169
522 795
527 169
532 799
537 169
541 804
547 169
551 805
557 169
561 808
567 169
571 810
577 169
581 810
586 174
591 813
596 174
601 815
606 174
611 815
616 174
621 815
626 174
631 815
636 174
641 815
646 174
650 820
656 174
660 820
666 174
670 820
676 174
680 822
686 174
690 825
696 174
700 825
706 174
710 827
716 170
720 830
726 169
730 830
736 169
740 830
745 164
750 830
755 164
759 835
765 164
769 835
775 164
779 835
785 164
789 835
795 164
799 835
805 164
809 835
815 164
819 835
825 164
829 835
835 164
838 840
844 159
848 840
854 159
858 840
864 159
868 840
874 159
878 840
884 159
888 840
894 159
898 840
904 159
908 840
914 159
918 840
924 159
928 840
934 159
938 840
944 159
948 840
954 159
958 840
964 159
967 845
974 159
977 845
984 159
987 845
994 159
997 845
1004 157
1007 845
1014 154
1017 845
1024 154
1027 845
1034 154
1037 845
1044 154
1046 840
1054 154
1056 840
1064 154
1066 840
1074 154
1076 840
1083 159
1086 840
1093 159
1096 840
1103 159
1106 840
1112 154
1116 840
1122 154
1126 840
1132 154
1136 840
1142 154
1146 840
1152 154
1156 840
1162 154
1166 840
1172 154
1176 840
1181 159
1186 840
1191 159
1196 840
1201 159
1205 835
1210 164
1215 835
1220 164
1225 835
1230 164
1235 835
1240 164
1245 830
1250 164
1255 830
1260 164
1265 830
1269 169
1275 830
1279 169
1285 830
1289 169
1295 830
1299 169
1305 830
1309 169
1315 830
1319 169
1325 830
1329 169
1335 830
1339 171
1345 830
1349 174
1355 830
1359 174
1365 830
1369 174
1375 830
1379 174
1385 830
1389 174
1395 830
1399 174
1405 830
1409 174
1415 830
1419 174
1425 830
1429 174
1435 830
1439 172
1444 835
1449 169
1454 835
1459 169
1464 835
1469 169
1473 840
1479 169
1483 840
1489 169
1493 840
1499 169
1503 840
1509 169
1513 840
1518 164
1523 840
1528 164
1533 840
1538 164
1543 840
1548 164
1553 840
1558 164
1563 840
1568 164
1572 845
1578 164
1582 845
1588 164
1592 845
1598 164
1602 845
1607 159
1612 845
1617 159
1622 845
1627 159
1632 845
1637 159
1642 845
1647 159
1652 845
1657 159
1662 849
1667 159
1672 850
1677 159
1681 845
1687 159
1691 845
1697 159
1700 850
1707 159
1710 850
1717 159
1720 850
1727 159
1730 850
1737 154
1740 850
1747 154
1750 850
1757 154
1760 850
1767 154
1769 845
1777 154
1779 845
1787 154
1788 850
1797 154
1798 850
1807 154
1808 848
1817 154
1818 845
1827 154
1828 845
1837 154
1838 845
1847 154
1848 845
1857 154
1858 845
1867 154
1868 845
1877 154
1878 845
1887 154
1888 845
1897 154
1898 845
1906 159
1908 845
1916 159
1918 845
1926 159
1928 845
1936 159
1938 845
1946 159
1948 845
1956 159
1958 845
1966 159
1968 845
1976 159
1978 845
1985 164
1988 845
1995 164
1997 840
2005 164
2007 840
2015 164
2017 840
2025 164
2027 840
2034 169
2037 840
2044 169
2047 840
2054 169
2057 840
2064 169
2067 839
2074 169
2077 835
2084 171
2087 839
2094 174
2097 839
2104 174
2107 834
2114 174
2117 829
2124 174
2127 824
2133 179
2137 820
2143 179
2147 819
2153 180
2157 814
2162 185
2167 809
2172 189
2177 805
2179 197
2186 800
2187 204
2194 212
2194 792
2202 219
2202 784
2205 229
2210 238
2210 248
2210 258
2210 268
2210 765
2210 775
2215 277
2215 287
2215 297
2215 307
2215 317
2215 327
2215 337
2215 347
2215 357
2215 367
2215 377
2215 387
2215 397
2215 407
2215 417
2215 427
2215 437
2215 447
2215 457
2215 467
2215 477
2215 487
2215 497
2215 507
2215 517
2215 527
2215 537
2215 547
2215 557
2215 567
2215 577
2215 690
2215 700
2215 710
2215 720
2215 730
2215 740
2215 750
2219 587
2220 597
2220 607
2220 617
2220 627
2220 637
2220 647
2220 657
2220 667
2220 677
