89 172
89 182
89 192
89 202
94 162
94 211
94 221
102 154
104 225
112 154
113 230
121 159
122 225
131 159
132 225
139 152
142 229
149 149
152 230
159 147
162 230
169 144
172 230
179 144
182 230
189 144
192 230
199 144
202 230
209 144
212 230
219 144
222 230
229 144
232 230
239 144
242 230
249 144
251 235
259 144
261 235
269 144
271 235
279 144
281 235
289 144
291 235
298 139
301 235
308 139
311 235
318 139
321 235
328 139
331 235
338 139
341 235
348 139
349 432
349 442
351 235
354 352
354 362
354 372
354 382
354 392
354 402
354 412
354 422
354 451
354 461
354 471
354 481
354 491
358 139
359 302
359 312
359 322
359 332
359 342
359 500
359 510
359 520
361 235
364 277
364 287
364 529
364 539
364 549
367 134
369 241
369 251
369 261
369 558
369 568
370 578
374 588
377 134
379 597
379 607
384 616
387 134
389 625
389 635
395 643
397 134
400 652
407 134
407 660
415 667
417 134
424 672
427 134
434 675
436 129
443 680
446 125
453 680
456 124
462 685
466 120
472 685
476 119
482 685
486 119
492 685
496 119
502 685
506 119
512 685
516 119
522 685
526 119
532 685
536 119
542 685
546 119
552 685
556 119
562 685
566 119
572 685
576 119
582 689
586 119
592 690
596 119
602 690
606 119
612 690
615 114
622 690
625 114
632 690
635 114
642 690
645 114
652 690
655 114
662 690
665 114
672 690
675 114
682 690
685 114
692 690
695 114
702 690
705 114
712 690
715 114
722 690
725 114
732 690
735 114
742 694
745 114
751 699
755 114
759 705
765 114
769 705
775 114
779 705
785 114
788 710
795 114
798 708
805 114
808 705
815 114
818 705
825 114
827 700
835 114
837 699
844 109
847 695
854 109
857 695
864 109
867 699
874 109
876 704
884 109
886 705
894 109
896 705
904 109
906 708
914 109
916 710
923 114
925 705
932 109
935 705
942 109
944 700
951 114
954 697
961 114
964 695
971 114
974 695
981 110
984 695
991 114
994 695
1001 114
1004 695
1010 109
1014 695
1020 109
1024 695
1029 114
1034 695
1038 109
1044 695
1048 109
1054 695
1058 109
1064 695
1068 109
1074 695
1078 109
1084 695
1088 109
1094 695
1098 109
1104 695
1108 109
1114 695
1118 109
1124 695
1128 109
1134 695
1138 109
1144 695
1147 104
1150 703
1157 104
1160 705
1167 104
1170 705
1177 104
1180 705
1187 104
1190 705
1197 104
1200 705
1207 104
1210 705
1217 104
1220 705
1227 104
1230 705
1237 104
1240 705
1247 104
1250 705
1257 104
1260 705
1267 104
1270 705
1277 104
1280 705
1287 104
1290 705
1297 104
1300 705
1307 104
1310 705
1317 104
1320 705
1327 104
1330 705
1337 104
1340 705
1347 104
1350 705
1357 104
1360 705
1367 104
1370 705
1377 104
1380 705
1387 104
1390 705
1397 104
1400 705
1407 104
1410 705
1417 104
1420 705
1427 104
1430 705
1437 104
1440 705
1447 104
1450 705
1457 104
1460 705
1467 104
1470 705
1477 104
1480 705
1487 104
1490 705
1497 104
1500 705
1507 104
1510 705
1517 104
1520 705
1527 104
1530 705
1537 104
1540 705
1547 104
1550 705
1557 104
1560 705
1567 104
1570 705
1577 104
1580 705
1587 104
1590 705
1597 104
1600 705
1607 104
1610 705
1617 104
1620 705
1627 104
1630 705
1637 104
1640 705
1647 104
1650 705
1657 104
1660 705
1666 109
1670 705
1676 109
1680 705
1686 109
1690 705
1695 114
1699 700
1705 114
1708 695
1715 117
1717 690
1725 119
1727 690
1735 119
1737 690
1745 119
1747 690
1755 119
1757 694
1765 119
1767 695
1775 119
1776 690
1785 119
1786 690
1795 119
1796 690
1805 119
1806 690
1815 119
1816 690
1825 119
1826 690
1835 122
1836 690
1844 127
1846 690
1854 131
1855 685
1860 139
1863 678
1865 148
1865 158
1865 168
1865 178
1865 188
1865 198
1865 208
1865 218
1865 228
1865 238
1865 248
1865 258
1865 268
1865 278
1865 288
1865 298
1865 308
1865 318
1870 327
1870 337
1870 347
1870 357
1870 367
1870 377
1870 387
1870 397
1870 407
1870 417
1870 427
1870 437
1870 447
1870 457
1870 467
1870 477
1870 487
1870 497
1870 507
1870 517
1870 527
1870 537
1870 547
1870 557
1870 610
1870 620
1870 665
1874 567
1875 577
1875 587
1875 597
1875 629
1875 639
1875 649
