134 232
134 242
134 252
139 217
139 261
144 270
147 209
153 275
156 204
162 280
166 204
172 280
176 204
182 280
186 200
192 284
196 199
202 285
206 199
212 285
216 199
222 285
226 199
232 285
236 199
242 285
246 199
252 285
256 199
262 285
266 199
272 285
275 194
282 285
285 194
292 285
295 197
302 285
305 199
312 285
315 199
322 285
324 194
332 285
334 194
342 289
344 194
352 290
354 194
354 402
354 412
354 422
354 432
354 442
354 452
354 462
354 472
354 482
354 492
354 502
359 337
359 347
359 357
359 367
359 377
359 387
359 511
359 521
360 297
364 192
364 307
364 317
364 327
364 530
364 540
369 549
374 189
374 558
379 567
384 189
387 574
394 189
394 582
404 189
404 585
410 593
414 189
420 597
424 189
427 605
434 189
437 609
443 194
447 610
453 194
457 614
463 194
467 615
473 194
477 615
483 194
487 619
493 194
497 620
503 194
507 620
513 194
517 620
522 189
527 620
532 189
537 620
542 189
547 620
552 189
557 620
562 184
567 624
572 184
577 625
582 184
587 625
592 184
597 629
602 184
607 630
612 184
617 630
622 184
627 630
632 184
637 630
642 184
646 635
652 184
656 635
661 179
666 635
671 179
676 635
681 179
686 635
691 179
696 635
701 179
706 635
711 179
716 635
721 179
726 638
731 179
736 640
741 179
746 640
751 179
756 640
761 179
766 640
771 179
776 640
781 179
786 640
791 179
796 640
801 179
805 635
811 179
815 635
820 174
825 635
830 174
835 635
840 174
845 635
850 174
855 635
860 174
865 635
870 174
874 630
879 179
884 627
889 177
894 625
899 174
904 625
909 174
914 625
919 174
924 625
929 174
934 625
939 174
944 625
949 174
954 625
959 174
964 622
969 174
974 620
979 174
984 620
989 174
994 620
999 174
1004 620
1009 174
1014 620
1019 174
1024 620
1029 174
1034 620
1039 176
1044 620
1049 179
1054 620
1059 179
1064 620
1069 179
1074 620
1079 179
1084 620
1089 177
1094 620
1099 174
1104 620
1109 174
1114 620
1119 174
1124 620
1129 174
1134 620
1139 174
1144 620
1149 174
1154 620
1159 174
1164 620
1169 174
1174 620
1179 174
1184 620
1189 174
1194 620
1199 174
1204 620
1209 174
1214 620
1219 174
1224 620
1229 174
1234 620
1239 174
1244 620
1249 174
1254 620
1259 174
1264 620
1269 174
1274 620
1279 174
1284 620
1289 174
1294 620
1299 174
1304 620
1309 174
1314 620
1319 174
1324 620
1329 174
1334 620
1339 174
1344 620
1349 174
1354 617
1359 174
1364 615
1369 174
1374 615
1379 174
1384 615
1389 174
1394 615
1399 176
1404 615
1409 179
1414 615
1419 179
1424 615
1429 179
1434 615
1439 177
1444 615
1449 174
1454 612
1459 174
1464 610
1469 174
1474 610
1479 174
1483 615
1488 179
1493 615
1498 179
1502 620
1508 179
1511 625
1517 184
1521 625
1526 189
1531 625
1535 194
1541 625
1543 200
1550 208
1551 625
1558 215
1561 625
1565 223
1571 628
1573 229
1580 633
1582 234
1590 635
1592 234
1599 640
1601 239
1608 645
1610 244
1618 645
1620 244
1627 650
1630 244
1637 654
1639 249
1646 659
1649 249
1656 660
1658 254
1665 665
1667 259
1674 670
1677 259
1684 670
1686 264
1693 675
1696 264
1702 680
1705 269
1712 684
1715 269
1722 685
1724 274
1731 690
1733 279
1741 690
1743 280
1750 695
1753 284
1760 695
1763 285
1769 700
1773 289
1779 700
1782 294
1788 705
1792 294
1797 710
1801 299
1807 710
1810 304
1817 714
1820 304
1827 715
1829 309
1836 720
1839 311
1846 723
1849 314
1856 725
1858 319
1865 730
1867 324
1874 735
1877 324
1883 740
1887 324
1892 745
1897 324
1901 750
1907 324
1910 755
1917 324
1920 755
1926 329
1930 755
1935 334
1939 760
1945 337
1948 765
1954 342
1957 770
1962 349
1967 770
1972 349
1976 775
1981 354
1985 770
1991 354
1995 760
2000 359
2000 745
2005 600
2005 610
2005 620
2005 630
2005 640
2005 650
2005 660
2005 670
2005 680
2005 690
2005 700
2005 710
2005 720
2005 730
2010 359
2010 540
2010 550
2010 560
2010 570
2010 580
2010 590
2015 495
2015 505
2015 515
2015 525
2019 364
2020 460
2020 470
2020 480
2025 372
2025 395
2025 405
2025 415
2025 425
2025 435
2025 445
2030 381
