194 527
194 537
199 517
199 546
204 507
204 555
204 565
207 575
209 322
209 332
209 342
209 352
209 362
209 497
209 585
214 312
214 371
214 381
214 487
214 594
214 604
214 614
214 624
214 634
214 644
216 654
219 302
219 390
221 663
222 479
224 673
225 398
225 683
227 294
230 692
231 474
233 405
234 702
234 712
234 722
234 732
235 286
239 467
239 741
239 751
240 413
244 457
244 760
244 770
244 780
245 281
248 420
249 430
249 440
249 789
253 274
254 798
254 808
259 817
262 269
264 826
269 835
269 927
269 937
269 947
269 957
269 1047
269 1057
269 1067
272 264
274 912
274 966
274 976
274 1027
274 1037
277 1074
278 840
279 902
279 985
279 995
279 1005
279 1015
282 264
284 848
285 1080
287 894
289 857
292 264
292 884
294 866
294 1085
302 264
304 1085
312 264
313 1090
322 264
323 1090
331 269
332 1095
341 269
342 1095
350 274
352 1095
360 274
362 1095
369 279
372 1095
377 285
382 1095
385 292
390 995
392 1005
392 1095
394 297
395 455
395 980
400 305
400 440
400 464
400 965
400 1012
402 1095
405 314
405 425
405 473
405 945
405 955
407 1020
410 323
410 380
410 390
410 415
410 905
410 915
410 925
410 935
412 1094
413 480
415 332
415 342
415 352
415 362
415 399
415 895
415 1027
420 488
420 885
420 1085
424 1032
425 497
425 507
425 517
425 527
425 875
429 1080
430 536
430 565
430 575
430 585
430 825
430 835
430 845
430 855
430 865
433 546
434 1034
435 556
435 594
438 818
438 1075
440 603
444 1036
445 612
445 622
448 813
448 1075
450 631
453 641
454 1039
455 651
458 808
458 1073
460 660
462 670
462 1045
465 770
465 780
465 800
465 1065
467 679
470 689
470 699
470 789
470 1052
473 763
475 708
480 717
480 750
484 727
485 737
