494 1007
494 1017
494 1027
494 1037
499 997
499 1046
506 1054
509 992
516 1055
519 787
519 797
519 807
519 817
519 827
519 837
519 847
519 857
519 867
519 877
519 887
519 987
524 757
524 767
524 777
524 896
524 906
525 1050
529 737
529 747
529 915
529 984
534 722
535 923
535 1045
539 702
539 712
539 982
544 672
544 682
544 692
545 927
545 1040
549 662
549 981
554 652
555 930
555 989
555 1040
559 642
560 998
560 1008
565 930
565 1035
567 634
570 1009
572 624
575 930
575 1035
580 616
580 1009
585 930
585 1030
588 609
590 1006
595 930
595 1030
597 604
600 1001
605 596
605 932
605 1025
610 999
613 589
615 935
615 1025
620 999
622 584
624 940
625 1025
630 996
631 579
633 945
635 1020
639 572
640 994
643 945
645 1020
647 564
650 994
653 945
655 1020
657 559
657 955
659 989
665 962
665 1020
667 559
668 984
669 972
675 1020
676 554
685 1020
686 550
695 1020
696 549
705 1015
706 545
715 1015
716 544
725 1015
726 540
735 1015
736 539
745 1015
746 539
754 1010
756 535
764 1010
766 534
774 1010
776 534
784 1010
786 534
794 1010
795 529
803 1005
805 529
809 402
809 412
809 422
813 1005
815 526
817 394
817 429
823 1005
825 435
825 524
826 389
833 1005
835 384
835 435
835 521
843 1005
844 440
844 450
844 460
845 384
845 519
850 468
853 1003
855 384
855 519
858 475
863 1000
865 384
865 516
867 480
869 490
869 500
873 1000
875 381
882 995
885 379
891 990
894 374
895 980
900 970
904 374
905 415
905 425
905 435
905 445
905 960
910 454
913 369
915 410
915 463
915 955
920 472
920 482
923 369
925 405
925 491
925 955
930 500
932 364
935 400
935 509
935 950
939 372
943 393
943 515
945 380
945 950
953 519
955 950
963 519
965 950
973 519
974 945
983 519
984 945
993 519
994 945
1003 519
1004 945
1013 519
1014 945
1023 519
1024 945
1032 514
1034 945
1040 506
1044 945
1050 501
1054 945
1060 504
1064 945
1068 510
1072 520
1074 945
1077 529
1084 945
1086 534
1094 945
1095 539
1095 625
1095 635
1100 644
1104 544
1104 945
1105 625
1110 647
1112 550
1114 945
1115 625
1118 654
1122 554
1124 945
1125 625
1128 654
1131 559
1134 620
1134 945
1137 649
1139 566
1140 610
1143 576
1144 942
1145 586
1145 596
1147 644
1154 940
1155 795
1155 805
1157 644
1160 785
1164 940
1165 809
1167 639
1170 780
1174 940
1175 809
1177 639
1180 775
1183 935
1185 809
1187 639
1190 775
1193 935
1195 809
1197 639
1199 770
1203 935
1205 809
1207 639
1208 765
1212 930
1215 812
1217 639
1217 759
1222 930
1225 814
1227 639
1227 754
1231 925
1234 819
1235 740
1237 639
1240 920
1242 825
1244 735
1247 639
1247 834
1250 915
1252 729
1254 842
1256 634
1258 908
1260 720
1260 850
1260 860
1260 870
1260 880
1260 890
1266 634
1269 715
1275 629
1277 709
1285 629
1285 700
1294 624
1294 695
1303 619
1304 695
1313 619
1314 695
1323 619
1324 692
1333 619
1334 690
1342 614
1344 690
1352 614
1353 685
1362 614
1363 685
1371 609
1373 685
1380 604
1382 680
1390 604
1392 680
1399 599
1401 675
1409 597
1411 675
1419 594
1420 670
1428 663
1429 594
1435 655
1439 594
1443 648
1447 600
1448 638
1453 628
1455 607
1455 617
