69 787
69 797
69 807
69 817
69 827
69 837
69 847
69 857
69 867
69 877
74 886
79 784
79 895
79 905
88 910
89 497
89 784
94 506
94 516
94 526
94 536
94 546
94 556
94 566
94 576
94 586
94 596
94 606
94 616
94 626
97 489
98 910
99 635
99 645
99 655
99 665
99 675
99 685
99 695
99 705
99 715
99 725
99 735
99 745
99 755
99 765
99 775
106 484
108 910
114 477
118 908
124 474
128 905
134 474
138 905
144 474
144 922
144 932
144 942
144 952
148 905
149 961
154 474
156 969
164 474
166 970
174 474
175 975
179 117
179 127
179 137
179 147
179 157
179 167
179 177
184 186
184 474
185 977
187 109
189 195
189 205
189 215
189 225
189 235
192 245
194 255
194 265
194 275
194 474
195 980
197 104
197 285
199 295
199 305
199 315
199 325
204 334
204 344
204 354
204 474
204 985
206 364
207 104
209 374
211 384
213 990
214 394
214 404
214 414
214 474
217 99
219 423
219 433
219 443
220 453
222 995
224 463
224 473
227 99
232 995
236 94
239 1003
240 1013
245 1022
246 94
249 1032
249 1042
254 1051
255 89
259 1060
262 1070
264 1080
265 89
269 1089
274 1098
275 89
279 1107
284 84
284 1116
294 84
294 1120
297 1130
304 84
304 1138
312 1145
313 79
317 1154
323 79
324 1162
333 79
334 1165
340 1173
343 79
350 1177
353 79
357 1185
362 74
367 1189
372 74
375 1195
382 74
384 1200
392 74
393 1205
402 74
403 1205
412 74
412 1210
421 69
422 1210
431 69
431 1215
441 65
441 1218
451 64
451 1220
461 64
461 1220
471 64
471 1220
481 64
481 1220
491 64
491 1220
501 64
501 1220
511 64
511 1220
521 64
521 1220
530 1215
531 64
540 1210
541 64
550 1210
551 64
559 1205
561 64
569 1202
571 64
579 1200
581 64
587 1194
591 60
597 1190
601 59
605 1180
611 59
615 1175
621 59
625 1165
631 59
634 1160
641 59
642 1154
647 1145
651 59
656 1140
660 1130
661 59
668 1123
671 59
675 1110
681 59
683 1103
688 1093
691 59
693 1083
695 1065
701 59
703 1058
705 1040
710 64
710 1030
720 61
720 1030
730 59
730 1030
739 1025
740 62
749 1025
750 64
754 1034
756 1044
760 64
764 1050
770 64
770 1058
775 1067
780 64
782 1075
790 61
790 1082
797 1090
800 59
805 1097
810 62
812 1105
820 64
821 1110
829 1116
830 64
836 1124
840 64
846 1128
850 64
854 1135
860 64
863 1140
870 64
872 1145
880 64
882 1149
890 64
892 1150
900 64
901 1155
910 64
911 1155
920 67
921 1155
930 69
930 1160
940 69
940 1160
950 69
950 1160
960 69
960 1160
970 69
970 1160
980 69
980 1160
990 69
990 1160
1000 72
1000 1150
1010 74
1010 1150
1020 74
1020 1150
1029 1145
1030 74
1039 1142
1040 74
1049 1137
1050 74
1059 1132
1060 74
1067 1125
1070 74
1076 1120
1080 74
1085 1115
1090 74
1090 1105
1100 77
1100 1100
1108 1093
1110 79
1115 1085
1120 79
1120 1075
1130 79
1130 1065
1138 1058
1140 79
1143 1048
1148 1038
1150 79
1155 1020
1155 1030
1160 79
1160 1000
1160 1010
1169 84
1169 995
1179 84
1179 995
1189 84
1189 995
1199 84
1199 995
1209 84
1209 995
1218 1000
1219 86
1228 1000
1229 89
1238 1000
1239 89
1248 1000
1249 89
1258 94
1258 1000
1268 94
1268 1000
1278 94
1278 1000
1288 94
1288 1000
1298 94
1298 1000
1307 99
1308 1000
1317 99
1318 1000
1327 99
1328 1000
1337 99
1338 1000
1347 99
1348 1000
1357 99
1358 1000
1366 104
1368 1000
1376 104
1378 1000
1386 104
1388 1000
1396 104
1398 1000
1406 104
1408 1000
1415 109
1418 1000
1425 109
1428 1000
1435 109
1438 1000
1444 114
1448 1000
1454 114
1457 1005
1464 114
1467 1005
1474 114
1476 1000
1484 114
1486 1000
1493 119
1495 1005
1503 119
1505 1005
1513 119
1515 1005
1522 124
1525 1005
1532 124
1535 1005
1542 124
1545 1007
1551 129
1555 1010
1561 129
1565 1010
1571 129
1575 1010
1581 129
1585 1010
1590 134
1595 1010
1600 134
1604 1005
1610 134
1613 1010
1620 134
1623 1010
1630 134
1633 1010
1639 139
1643 1010
1649 139
1652 1015
1659 139
1662 1015
1669 139
1672 1015
1678 144
1681 1020
1688 144
1691 1020
1698 144
1701 1020
1708 144
1710 1025
1718 144
1720 1025
1727 149
1730 1025
1735 205
1735 215
1735 225
1737 149
1737 235
1739 1030
1740 245
1740 255
1745 205
1745 264
1747 149
1749 1030
1750 273
1750 283
1755 205
1755 292
1755 302
1757 149
1759 312
1759 1030
1765 205
1766 154
1767 319
1768 1035
1770 164
1770 329
1770 339
1770 349
1770 359
1774 200
1775 368
1778 170
1778 1035
1780 180
1780 190
1780 377
1780 387
1784 397
1788 1035
1794 399
1798 1035
1803 404
1808 1035
1813 404
1818 1035
1823 404
1828 1035
1833 404
1838 1035
1839 1045
1843 404
1844 1054
1849 1063
1849 1073
1853 404
1854 1082
1859 1091
1863 404
1864 1100
1870 1108
1873 404
1874 1118
1879 1127
1883 404
1884 1136
1889 1145
1893 404
1895 1153
1900 1162
1903 404
1907 1170
1912 399
1915 1177
1922 399
1922 1185
1930 1192
1932 399
1937 1200
1942 399
1945 1207
1952 399
1954 1212
1962 399
1962 1219
1971 1224
1972 399
1981 404
1981 1228
1990 1233
1991 404
2000 1235
2001 404
2009 1240
2011 404
2019 1240
2021 404
2028 1245
2031 404
2037 1250
2041 404
2047 1250
2051 404
2057 1254
2061 404
2067 1255
2071 404
2077 1255
2081 404
2087 1255
2091 404
2097 1255
2101 404
2107 1255
2111 404
2117 1255
2121 404
2127 1255
2131 404
2137 1255
2141 404
2147 1254
2151 404
2157 1250
2161 404
2166 1245
2171 404
2176 1245
2181 404
2185 1240
2191 404
2195 1240
2201 404
2203 1233
2211 404
2213 1228
2221 404
2223 1223
2231 404
2233 1218
2240 1210
2241 404
2248 1203
2251 404
2258 1198
2261 404
2264 1190
2270 409
2272 1184
2274 392
2277 1174
2284 389
2285 1165
2293 1158
2294 389
2298 1148
2304 389
2305 1135
2313 1128
2314 389
2315 1115
2324 389
2324 1110
2333 1115
2334 389
2337 1125
2344 389
2347 1129
2354 389
2354 1137
2360 410
2362 1144
2364 391
2365 401
2365 419
2371 1149
2375 422
2381 1153
2382 430
2389 1160
2390 437
2395 446
2398 1165
2401 454
2405 464
2407 1170
2410 473
2410 483
2410 493
2410 503
2417 1174
2420 501
2427 1175
2430 499
2436 1180
2440 496
2445 1185
2450 494
2455 1185
2460 494
2464 1190
2470 494
2474 1190
2480 494
2484 1190
2490 494
2494 1190
2499 499
2504 1190
2509 501
2514 1190
2515 509
2523 515
2524 1190
2530 523
2534 1190
2535 532
2535 542
2540 551
2540 561
2540 571
2544 1190
2546 579
2553 1185
2555 584
2563 1185
2565 584
2572 1180
2575 584
2581 1175
2585 587
2591 1175
2594 592
2599 1167
2604 594
2609 1162
2610 690
2613 599
2619 1157
2623 600
2629 1152
2632 605
2637 1145
2642 609
2645 1135
2651 614
2655 720
2655 1130
2660 619
2660 729
2660 1120
2668 735
2669 624
2669 1115
2674 727
2675 743
2677 630
2677 1109
2682 720
2682 1099
2685 747
2687 634
2689 757
2690 1085
2692 719
2694 642
2695 765
2698 1078
2700 774
2702 649
2702 714
2703 1068
2707 704
2708 1058
2709 657
2709 779
2713 1048
2714 666
2715 685
2715 695
2715 787
2715 797
2718 1038
2719 807
2720 1025
2724 816
2725 826
2725 1015
2728 836
2730 990
2730 1000
2735 960
2735 970
2735 980
2738 839
2745 960
2748 839
2755 960
2758 839
2765 960
2768 839
2774 955
2778 839
2784 955
2788 839
2793 960
2798 839
2803 958
2805 847
2810 856
2813 953
2815 865
2815 875
2820 884
2823 950
2829 889
2833 948
2835 935
2837 895
2840 905
2840 915
2840 925
