209 382
209 392
214 372
214 401
214 411
214 421
214 431
214 441
214 451
214 461
214 471
214 481
214 491
214 501
214 511
214 521
214 531
214 541
214 551
214 561
214 571
214 581
219 362
219 590
219 600
219 610
219 620
219 630
219 640
219 650
219 660
219 670
222 680
224 690
224 700
224 710
224 720
224 730
224 740
224 750
224 760
224 770
224 780
227 354
229 789
229 799
229 809
229 819
229 829
229 839
231 849
234 859
234 869
234 879
234 889
234 899
234 909
234 919
234 929
234 939
236 349
236 949
239 959
239 969
239 979
239 989
239 999
241 1009
244 1019
244 1029
244 1039
244 1049
244 1059
244 1069
245 344
246 1079
249 1089
249 1099
249 1109
249 1119
251 1129
254 1139
254 1149
255 344
256 1159
259 1169
259 1179
259 1189
259 1199
259 1209
259 1219
264 1228
264 1238
264 1248
265 344
269 1257
269 1267
269 1277
269 1287
274 1296
274 1306
274 1316
275 341
279 1325
279 1335
279 1345
282 1355
284 1365
284 1375
285 339
289 1384
289 1394
289 1404
291 1414
294 1424
294 1434
294 1444
295 339
299 1453
304 1462
305 339
309 1471
314 1480
315 339
317 1490
325 339
325 1497
332 1505
335 339
341 1510
345 339
350 1515
355 339
359 1520
365 339
368 1525
374 334
377 1530
384 334
386 1535
394 334
395 1540
404 334
405 1542
414 334
414 1547
424 334
424 1550
434 334
434 1550
443 329
443 1555
452 1560
453 329
462 1560
463 329
471 1565
473 329
481 1565
483 329
490 1570
493 329
500 1570
503 329
510 1572
513 329
520 1575
523 329
530 1575
533 329
540 1575
543 329
549 1580
553 329
559 1580
563 329
569 1580
573 329
579 1580
583 329
588 1585
593 329
598 1585
603 329
608 1585
613 329
618 1585
623 329
628 1585
633 329
638 1585
643 329
647 1590
653 329
657 1590
663 329
667 1590
673 329
677 1590
683 329
687 1590
693 329
697 1590
703 329
707 1590
713 329
717 1590
723 329
727 1590
733 329
737 1590
743 329
747 1590
753 329
757 1590
763 329
767 1589
773 329
777 1585
783 329
787 1585
793 329
797 1585
803 329
807 1585
813 329
817 1585
823 329
827 1585
833 329
837 1585
843 329
846 1580
853 329
856 1580
863 329
866 1580
873 329
876 1580
883 329
886 1580
893 329
896 1580
903 329
905 1575
913 329
915 1575
923 329
925 1575
933 329
934 1570
943 329
944 1570
953 329
954 1570
963 329
964 1567
973 329
974 1565
983 329
984 1565
993 329
994 1562
1003 329
1004 1560
1013 329
1014 1560
1023 329
1024 1557
1033 329
1034 1555
1043 329
1044 1552
1053 329
1054 1550
1063 329
1064 1547
1073 329
1074 1545
1083 329
1084 1542
1093 329
1094 1537
1103 329
1104 1535
1113 329
1113 1530
1123 329
1123 1528
1133 329
1133 1525
1142 1520
1143 329
1151 1515
1153 329
1160 1510
1163 329
1170 1505
1173 329
1179 1500
1183 329
1187 1494
1193 329
1195 1485
1203 329
1203 1478
1210 1470
1213 329
1218 1463
1223 329
1225 1450
1230 1410
1230 1420
1230 1430
1230 1440
1233 329
1235 1395
1240 1385
1243 329
1245 1360
1245 1370
1250 1235
1250 1245
1250 1255
1250 1265
1250 1275
1250 1285
1250 1295
1250 1305
1250 1315
1250 1325
1250 1335
1250 1345
1252 334
1255 1190
1255 1200
1255 1210
1255 1220
1260 1150
1260 1160
1260 1170
1260 1180
1262 334
1265 1105
1265 1115
1265 1125
1265 1135
1269 342
1270 1060
1270 1070
1270 1080
1270 1090
1275 365
1275 375
1275 1040
1275 1050
1277 349
1280 384
1280 920
1280 930
1280 940
1280 950
1280 960
1280 970
1280 980
1280 990
1280 1030
1282 1000
1284 1157
1284 1167
1284 1177
1284 1187
1284 1197
1284 1207
1285 393
1285 403
1285 610
1285 620
1285 630
1285 640
1285 650
1285 660
1285 670
1285 680
1285 690
1285 700
1285 710
1285 720
1285 730
1285 740
1285 750
1285 760
1285 770
1285 780
1285 790
1285 800
1285 810
1285 820
1285 830
1285 840
1285 850
1285 860
1285 870
1285 880
1285 890
1285 900
1285 910
1285 1010
1285 1020
1289 1122
1289 1132
1289 1142
1290 412
1290 422
1290 595
1292 1214
1294 432
1297 1114
1298 588
1299 441
1301 1219
1305 449
1307 1114
1308 585
1311 1220
1315 452
1317 1114
1318 585
1320 1225
1325 454
1326 1119
1327 580
1330 1225
1334 1126
1335 451
1336 575
1340 1134
1340 1225
1344 567
1345 449
1350 1137
1350 1225
1352 559
1355 449
1360 550
1360 1139
1360 1225
1365 449
1370 545
1370 1139
1370 1225
1375 446
1379 540
1380 1139
1380 1225
1385 444
1388 535
1390 1139
1390 1220
1395 444
1398 533
1400 1136
1400 1220
1405 444
1408 530
1410 1131
1410 1220
1414 449
1418 530
1418 1124
1419 1215
1424 449
1427 1119
1428 530
1429 1212
1434 449
1435 1111
1438 530
1439 1210
1444 451
1445 1106
1448 530
1448 1205
1453 1099
1454 454
1458 530
1458 1203
1460 1091
1464 454
1467 535
1468 1084
1468 1198
1473 459
1475 1076
1477 539
1478 1193
1483 460
1483 1069
1486 544
1488 1188
1490 1061
1492 465
1494 550
1495 1051
1498 1183
1500 472
1500 558
1503 1044
1505 1175
1508 565
1509 477
1509 1032
1514 573
1515 1170
1517 1024
1519 481
1519 582
1522 1014
1524 591
1524 1165
1527 1004
1529 484
1529 600
1532 994
1532 1159
1534 609
1536 619
1537 984
1538 489
1539 629
1539 972
1540 1150
1544 638
1544 962
1545 648
1547 494
1548 1143
1549 658
1549 947
1554 667
1554 677
1554 932
1555 1135
1556 499
1559 686
1559 696
1559 907
1559 917
1563 1128
1564 506
1564 705
1564 715
1564 725
1564 735
1564 882
1564 892
1569 744
1569 754
1569 764
1569 774
1569 784
1569 794
1569 804
1569 814
1569 824
1569 834
1569 844
1569 854
1569 864
1570 514
1570 1120
1578 520
1578 1113
1585 528
1585 1105
1590 537
1590 1095
1597 545
1598 1088
1603 1078
1605 552
1609 562
1610 1065
1615 570
1615 1055
1620 579
1620 1045
1625 588
1625 1035
1630 597
1630 1025
1634 607
1635 1010
1639 616
1640 626
1640 1000
1645 635
1645 985
1647 645
1650 655
1650 970
1655 664
1655 674
1655 950
1655 960
1660 683
1660 693
1660 925
1660 935
1665 702
1665 712
1665 722
1665 895
1665 905
1665 915
1669 732
1670 742
1670 752
1670 762
1670 772
1670 845
1670 855
1670 865
1670 875
1670 885
1674 782
1675 792
1675 802
1675 812
1675 822
1675 832
