214 332
214 342
219 351
219 361
219 371
219 381
219 391
219 401
219 411
219 421
219 431
219 441
219 451
219 461
219 471
219 481
219 491
219 501
219 511
219 521
219 531
219 541
219 551
222 324
224 560
224 570
224 580
224 590
224 600
224 610
224 620
224 630
224 640
224 650
224 660
224 670
224 680
224 690
227 700
229 710
229 720
229 730
229 740
229 750
229 760
229 770
229 780
229 790
230 316
232 800
234 810
234 820
234 830
234 840
234 850
234 860
234 870
234 880
237 890
239 900
239 910
239 920
239 930
239 940
239 950
240 314
242 960
244 970
244 980
244 990
247 1000
249 309
249 1010
249 1020
249 1030
249 1040
249 1050
249 1060
249 1070
252 1080
254 1090
254 1100
254 1110
254 1120
254 1130
254 1140
258 304
259 1149
259 1159
259 1169
259 1179
261 1189
264 1199
264 1312
264 1322
264 1332
267 299
269 1208
269 1302
269 1341
269 1351
269 1361
269 1371
269 1381
269 1391
274 1217
274 1400
276 294
277 1294
277 1410
279 1226
282 1419
284 1235
284 1282
286 294
287 1245
289 1255
289 1272
289 1427
294 1436
296 294
301 1444
306 294
309 1450
315 289
318 1455
325 289
327 1460
335 289
335 1467
344 1472
345 289
354 1475
355 289
363 1480
365 286
372 1485
375 284
381 1490
385 284
390 1495
395 284
399 1500
405 284
409 1500
415 284
418 1505
425 284
427 1510
435 284
437 1510
445 284
446 1515
455 284
456 1518
465 284
466 1520
475 284
476 1523
485 284
486 1525
495 284
496 1525
505 284
505 1530
515 284
515 1530
524 1535
525 284
534 1535
535 284
544 1535
545 284
553 1540
555 284
563 1540
565 284
573 1540
575 284
583 1540
585 284
592 1545
595 284
602 1545
605 284
612 1545
615 284
622 1545
625 284
632 1545
635 284
642 1545
645 284
651 1550
655 284
661 1550
665 284
671 1550
675 284
681 1550
685 284
691 1550
695 284
701 1550
705 287
711 1550
715 289
721 1550
725 289
731 1550
734 294
741 1550
743 299
751 1550
753 299
761 1550
762 294
770 286
771 1550
780 281
780 1545
790 279
790 1545
800 279
800 1547
810 279
810 1550
820 279
820 1550
829 1545
830 279
839 1545
840 279
848 1540
850 279
858 1540
860 279
868 1540
870 282
878 1540
880 284
888 1538
890 284
898 1535
900 284
908 1535
910 284
918 1535
920 284
927 1530
930 284
937 1530
940 284
947 1530
950 284
956 1525
960 284
966 1525
970 284
975 1520
980 284
985 1520
990 284
994 1515
1000 284
1004 1515
1010 287
1014 1512
1020 289
1024 1510
1030 289
1033 1505
1040 289
1043 1503
1050 289
1053 1500
1060 289
1062 1495
1070 289
1072 1494
1080 289
1082 1490
1090 289
1091 1485
1099 294
1100 1480
1109 294
1110 1475
1119 294
1120 1470
1129 294
1130 1465
1139 294
1140 1460
1149 294
1150 1455
1158 299
1160 1450
1168 299
1168 1443
1178 299
1178 1438
1185 1295
1185 1430
1188 300
1190 1285
1190 1304
1193 1423
1198 304
1198 1278
1198 1310
1200 1225
1200 1235
1200 1245
1200 1255
1200 1410
1203 1268
1203 1319
1205 1155
1205 1165
1205 1175
1205 1185
1205 1195
1205 1205
1205 1215
1205 1400
1207 309
1210 1025
1210 1035
1210 1065
1210 1075
1210 1085
1210 1095
1210 1105
1210 1115
1210 1125
1210 1135
1210 1145
1210 1390
1212 1324
1215 980
1215 990
1215 1000
1215 1010
1215 1044
1215 1054
1215 1380
1216 314
1219 1332
1220 935
1220 945
1220 955
1220 965
1220 1342
1220 1352
1220 1362
1225 319
1225 880
1225 890
1225 900
1225 910
1225 920
1229 1162
1229 1172
1229 1182
1229 1192
1229 1202
1230 820
1230 830
1230 840
1230 850
1230 860
1230 870
1234 324
1234 1052
1234 1092
1234 1102
1234 1112
1234 1122
1234 1132
1234 1142
1234 1152
1235 760
1235 770
1235 780
1235 790
1235 800
1235 810
1239 1042
1239 1061
1239 1071
1239 1081
1239 1205
1240 695
1240 705
1240 715
1240 725
1240 735
1240 745
1242 330
1244 1032
1245 670
1245 680
1249 1205
1250 337
1250 410
1250 420
1250 430
1250 440
1252 450
1253 663
1254 347
1254 1029
1255 357
1255 367
1255 377
1255 387
1255 397
1255 460
1257 470
1258 1210
1262 479
1263 660
1264 1031
1267 1215
1270 1039
1270 1049
1270 1059
1271 484
1272 655
1275 1068
1275 1078
1275 1088
1275 1098
1277 1219
1280 489
1280 645
1280 1107
1284 1117
1285 635
1286 1224
1290 489
1290 615
1290 625
1292 1124
1295 605
1296 1225
1299 1132
1300 486
1300 590
1305 580
1305 1230
1307 1139
1310 484
1310 570
1314 1235
1316 1144
1318 563
1319 479
1324 1235
1325 555
1325 1149
1329 479
1333 548
1333 1240
1334 1154
1338 474
1343 543
1343 1240
1344 1154
1348 474
1353 538
1353 1159
1353 1240
1357 469
1363 535
1363 1159
1363 1240
1367 469
1372 1245
1373 533
1373 1159
1377 469
1382 1245
1383 530
1383 1159
1387 469
1392 1245
1393 530
1393 1159
1396 464
1401 1240
1402 535
1403 1159
1406 464
1411 1240
1412 535
1412 1154
1415 469
1421 1240
1422 535
1422 1154
1425 469
1430 1235
1432 535
1432 1149
1433 475
1440 1235
1441 540
1442 1144
1443 474
1450 545
1450 1230
1452 1139
1453 474
1459 550
1460 1230
1462 1134
1463 475
1468 555
1469 1225
1471 1129
1473 479
1477 560
1478 1220
1479 1122
1482 484
1485 567
1487 1114
1487 1215
1492 484
1492 575
1495 1106
1496 1210
1500 582
1501 489
1503 1099
1505 1205
1507 590
1510 494
1510 1091
1514 1200
1515 597
1515 1081
1519 499
1522 605
1522 1194
1523 1074
1527 614
1527 1064
1528 504
1530 1185
1531 624
1534 1052
1536 633
1537 509
1538 1178
1539 1042
1540 643
1544 517
1544 1032
1545 652
1545 1170
1549 662
1549 1022
1553 1163
1554 521
1554 671
1554 1012
1559 680
1559 997
1560 529
1560 1155
1562 690
1564 700
1564 982
1568 535
1568 1148
1569 709
1569 962
1569 972
1571 719
1572 545
1574 729
1574 942
1574 952
1575 1140
1579 738
1579 748
1579 922
1579 932
1580 552
1580 1130
1584 757
1584 767
1584 777
1584 882
1584 892
1584 902
1584 912
1587 560
1588 1123
1589 786
1589 796
1589 806
1589 816
1589 826
1589 836
1589 846
1589 856
1589 866
1593 1113
1595 567
1599 577
1600 1100
1605 585
1605 1090
1610 594
1613 1083
1615 603
1618 1073
1620 612
1623 1063
1625 621
1625 1050
1630 630
1630 1040
1635 639
1635 1030
1640 648
1640 658
1640 1015
1645 667
1645 1000
1649 677
1650 687
1650 985
1655 696
1655 965
1655 975
1658 706
1660 716
1660 726
1660 940
1660 950
1665 735
1665 745
1665 755
1665 910
1665 920
1665 930
1670 764
1670 774
1670 784
1670 794
1670 865
1670 875
1670 885
1670 895
1675 803
1675 813
1675 823
1675 833
1675 843
1675 853
