339 2412
344 2392
344 2402
349 2377
349 2415
354 2367
358 2410
359 2347
359 2357
364 2337
368 2408
369 2322
374 2307
378 2405
379 2297
384 2277
384 2287
388 2403
389 2267
394 2252
398 2400
399 2237
404 2227
407 2395
409 2217
414 2202
417 2394
419 2187
424 2177
427 2389
429 2162
434 2152
437 2385
439 2142
444 2127
446 2380
449 2117
454 2107
456 2380
459 2092
464 2082
465 2375
469 2067
474 2057
474 2370
479 2047
483 2365
484 2037
489 2022
493 2363
497 2014
499 2002
503 2358
504 1992
509 1982
513 2353
514 1972
519 1962
523 2348
524 1952
529 1942
533 2343
534 1932
539 1922
543 2338
544 1912
549 1902
553 2335
554 1892
559 1882
562 2330
564 1872
569 1862
571 2325
574 1852
579 1842
580 2320
584 1832
589 1822
590 2315
594 1812
599 1802
600 2310
604 1792
609 1782
610 2305
614 1772
619 1762
620 2300
627 1754
630 2295
632 1744
637 1734
639 1722
640 2290
647 1714
650 2285
652 1704
657 1694
660 2280
662 1684
667 1674
670 2275
672 1664
677 1654
680 2270
684 1637
690 2265
692 1629
697 1619
700 2260
702 1609
707 1599
710 2255
712 1589
719 1577
720 2250
724 1567
729 1557
730 2245
734 1547
739 1537
740 2240
744 1527
749 1517
750 2235
757 1509
760 2230
762 1499
767 1489
770 2225
772 1479
777 1469
780 2220
784 1457
789 1447
790 2220
794 1437
799 1427
799 2215
807 1419
808 2210
812 1409
817 1399
817 2205
822 1389
827 2204
829 1377
834 1367
837 2199
839 1357
844 1347
847 2195
852 1339
856 2190
857 1329
862 1319
865 2185
867 1309
874 1297
875 2185
879 1287
884 1277
884 2180
892 1269
894 2177
897 1259
902 1249
904 2175
909 1237
913 2170
917 1229
922 1219
923 2168
927 1209
932 1199
933 2165
939 1187
943 2163
944 1177
952 1169
953 2160
957 1159
963 2158
964 1147
969 1137
973 2155
977 1129
982 1119
983 2153
989 1107
993 2150
994 1097
1002 1089
1003 2150
1007 1079
1012 2145
1014 1067
1022 1059
1022 2145
1027 1049
1032 2145
1034 1037
1041 2140
1042 1029
1047 1019
1051 2140
1054 1007
1061 2140
1062 999
1067 989
1071 2140
1074 977
1081 2140
1082 969
1087 959
1091 2140
1094 947
1101 2138
1102 939
1107 929
1111 2138
1115 921
1120 911
1121 2138
1128 904
1131 2138
1132 894
1140 886
1141 2138
1145 876
1151 2138
1153 869
1157 859
1161 2138
1164 847
1171 2135
1172 839
1179 827
1180 2140
1187 819
1190 2140
1192 809
1200 801
1200 2140
1205 791
1210 2140
1213 784
1217 774
1220 2142
1225 766
1230 756
1230 2142
1238 749
1240 2145
1244 737
1250 2145
1252 729
1257 719
1260 2145
1264 707
1269 2150
1272 699
1279 2150
1280 691
1285 681
1289 2152
1293 674
1297 664
1299 2155
1304 652
1309 2155
1312 644
1317 634
1319 2155
1324 622
1328 2160
1332 614
1337 604
1337 2165
1344 592
1347 2165
1352 584
1357 574
1357 2169
1364 562
1367 2170
1372 554
1377 544
1377 2174
1384 532
1387 2175
1389 522
1397 514
1397 2179
1402 504
1407 2180
1409 492
1417 484
1417 2184
1422 474
1427 2185
1432 474
1435 484
1436 2190
1440 493
1445 502
1446 2190
1450 511
1455 2195
1456 519
1460 529
1465 538
1465 2197
1470 547
1475 556
1475 2200
1480 565
1485 574
1485 2202
1490 583
1490 593
1495 2205
1498 600
1500 610
1504 2210
1505 619
1510 628
1514 2210
1515 637
1519 647
1520 657
1523 2215
1525 666
1530 675
1532 2220
1535 684
1535 694
1540 703
1542 2220
1545 712
1550 721
1552 2224
1553 731
1558 740
1560 750
1562 2225
1565 759
1570 768
1570 778
1571 2230
1575 787
1580 796
1581 2233
1583 806
1585 816
1590 825
1591 2235
1595 834
1595 844
1600 853
1601 2238
1605 862
1609 872
1610 882
1611 2240
1615 891
1618 901
1620 2245
1623 910
1625 920
1630 929
1630 939
1630 2247
1635 948
1640 957
1640 2250
1644 967
1645 977
1650 986
1650 2252
1655 995
1657 1005
1660 1015
1660 2255
1665 1024
1665 1034
1670 1043
1670 2257
1675 1052
1679 1062
1680 1072
1680 2260
1685 1081
1689 2265
1690 1090
1692 1100
1695 1110
1699 2265
1700 1119
1705 1128
1705 1138
1708 2270
1710 1147
1714 1157
1718 2270
1719 1166
1720 1176
1723 1186
1727 2275
1728 1195
1732 1205
1735 1215
1737 2275
1740 1224
1740 1234
1745 1243
1747 2275
1750 1252
1754 1262
1756 2280
1759 1271
1760 1281
1765 1290
1766 2280
1767 1300
1772 1309
1775 1319
1775 2285
1780 1328
1785 1337
1785 1347
1785 2285
1790 1356
1795 1365
1795 2287
1797 1375
1802 1384
1805 1394
1805 2290
1810 1403
1810 1413
1815 1422
1815 2290
1820 1431
1825 1440
1825 2290
1827 1450
1832 1459
1834 2295
1835 1469
1840 1478
1840 1488
1844 2295
1845 1497
1850 1506
1854 2297
1855 1515
1857 1525
1862 1534
1864 2300
1865 1544
1870 1553
1874 2300
1875 1562
1875 1572
1880 1581
1884 2300
1885 1590
1890 1599
1890 1609
1894 2300
1895 1618
1900 1627
1903 2305
1905 1636
1908 1646
1913 1655
1913 2305
1915 1665
1920 1674
1923 2305
1925 1683
1930 1692
1930 1702
1932 2310
1935 1711
1940 1720
1942 2309
1945 1729
1945 1739
1950 1748
1952 2310
1955 1757
1960 1766
1962 2310
1965 1775
1967 1785
1972 1794
1972 2310
1975 1804
1980 1813
1982 2310
1985 1822
1990 1831
1992 2310
1993 1841
1998 1850
2002 1860
2002 2310
2010 1867
2010 1877
2012 2310
2015 1886
2020 1895
2022 2310
2025 1904
2030 1913
2032 2310
2035 1922
2039 1932
2041 2315
2044 1941
2048 1951
2051 2313
2055 1959
2055 1969
2061 2310
2063 1975
2067 1985
2070 2315
2072 1994
2075 2004
2079 2310
2080 2013
2085 2022
2089 2312
2092 2030
2097 2039
2099 2315
2100 2049
2105 2058
2108 2310
2113 2065
2117 2075
2118 2310
2122 2084
2128 2310
2129 2092
2134 2101
2137 2315
2140 2109
2145 2118
2146 2310
2150 2127
2155 2136
2156 2310
2160 2145
2165 2154
2166 2310
2170 2163
2176 2310
2178 2170
2182 2180
2186 2310
2190 2187
2195 2196
2196 2310
2200 2205
2205 2214
2205 2305
2213 2220
2215 2305
2217 2230
2225 2237
2225 2305
2229 2247
2235 2305
2237 2254
2240 2264
2245 2305
2248 2270
2252 2280
2255 2305
2260 2287
2265 2296
