499 722
499 732
499 747
499 757
499 767
499 777
499 787
499 797
499 807
499 817
499 827
499 837
499 847
499 857
499 867
499 877
499 887
499 897
499 907
499 917
499 927
499 937
499 947
499 957
499 967
499 977
499 987
499 997
499 1007
499 1017
499 1027
499 1037
499 1047
499 1057
499 1067
499 1077
499 1087
499 1097
499 1107
499 1117
499 1127
499 1137
499 1147
499 1157
499 1167
499 1177
499 1187
499 1197
499 1207
499 1217
499 1227
499 1237
499 1247
499 1257
499 1267
499 1277
499 1287
499 1297
499 1307
499 1317
499 1327
499 1337
499 1347
499 1357
499 1367
499 1377
499 1387
499 1397
499 1407
499 1417
499 1427
499 1437
499 1447
499 1457
499 1467
499 1477
499 1487
499 1497
499 1507
499 1517
499 1527
499 1537
499 1547
499 1557
499 1567
499 1577
499 1587
499 1597
499 1607
499 1617
499 1627
499 1637
499 1647
499 1657
499 1667
499 1677
499 1687
499 1697
499 1707
499 1717
499 1727
499 1737
499 1747
499 1757
499 1767
499 1777
499 1787
499 1797
499 1807
499 1817
499 1827
499 1837
499 1847
499 1857
499 1867
499 1877
499 1887
499 1897
499 1907
499 1917
499 1927
499 1937
499 1947
499 1957
504 667
504 677
504 687
504 697
504 707
504 1966
504 1976
504 1986
504 1996
504 2006
509 647
509 657
509 2015
509 2025
512 2035
514 627
514 637
514 2045
517 2055
519 607
519 617
519 2065
522 2075
524 592
524 2085
529 582
529 2094
534 567
534 2103
539 557
539 2112
539 2122
544 547
544 2131
549 537
549 2140
554 527
555 2148
560 2157
562 519
567 509
567 2165
572 2174
574 497
579 2182
582 489
584 2191
590 481
594 2195
597 2205
598 474
605 466
605 2212
613 459
614 2217
620 451
620 2225
626 2233
628 444
634 2240
635 436
643 429
643 2245
650 2253
652 424
660 2257
661 419
667 2265
669 412
677 404
677 2269
685 2275
687 399
694 2280
697 394
703 2285
707 389
712 2290
717 384
722 2294
727 384
732 2295
736 379
741 2300
745 374
750 2305
755 371
760 2305
765 369
769 2310
775 366
779 2310
785 364
788 2315
795 361
798 2315
805 359
807 2320
815 359
817 2320
825 359
827 2320
834 354
837 2320
844 354
847 2324
854 354
857 2324
864 354
867 2325
874 354
877 2325
884 354
887 2325
894 354
897 2325
904 354
907 2325
914 354
917 2325
924 354
927 2325
934 354
937 2325
944 354
947 2325
954 354
957 2325
964 354
967 2325
974 354
977 2325
984 354
987 2325
994 354
997 2325
1004 354
1007 2325
1014 354
1017 2325
1024 354
1027 2325
1034 354
1037 2325
1044 354
1047 2325
1054 354
1057 2325
1064 354
1067 2325
1074 354
1077 2325
1084 354
1087 2325
1094 354
1097 2325
1104 354
1107 2325
1114 354
1117 2325
1124 354
1127 2325
1134 354
1137 2325
1144 354
1147 2325
1154 354
1157 2325
1164 354
1167 2325
1174 354
1177 2325
1184 354
1187 2325
1194 354
1197 2325
1204 354
1207 2325
1214 354
1217 2325
1224 354
1227 2325
1234 354
1237 2325
1244 354
1247 2325
1254 354
1257 2325
1264 354
1267 2325
1274 354
1277 2325
1284 354
1287 2325
1294 354
1297 2325
1304 354
1307 2325
1314 354
1317 2325
1324 354
1327 2325
1334 354
1337 2325
1344 354
1347 2325
1354 354
1357 2325
1364 354
1367 2325
1374 354
1377 2325
1384 354
1387 2325
1394 354
1397 2325
1404 354
1407 2325
1414 354
1417 2325
1424 354
1427 2325
1434 354
1437 2325
1444 354
1447 2325
1454 354
1457 2325
1464 354
1467 2325
1474 354
1477 2325
1484 354
1487 2325
1494 354
1497 2325
1504 354
1507 2325
1514 354
1517 2325
1524 354
1527 2325
1534 354
1537 2325
1544 354
1547 2325
1554 354
1557 2325
1564 354
1567 2325
1574 354
1577 2325
1584 354
1587 2325
1594 354
1597 2325
1604 354
1607 2325
1614 354
1617 2325
1624 354
1627 2325
1634 354
1637 2325
1644 354
1647 2325
1654 354
1657 2325
1664 354
1667 2325
1674 354
1677 2325
1684 354
1687 2325
1694 354
1697 2325
1704 354
1707 2325
1714 354
1717 2325
1724 354
1727 2325
1734 354
1737 2325
1744 354
1747 2325
1754 354
1757 2325
1764 354
1767 2325
1774 354
1777 2325
1784 354
1787 2325
1794 354
1797 2325
1804 354
1807 2325
1814 354
1817 2325
1824 354
1827 2325
1834 354
1837 2325
1844 354
1847 2325
1854 354
1857 2325
1864 354
1867 2325
1874 354
1877 2325
1884 354
1887 2325
1894 354
1897 2325
1904 354
1907 2325
1914 354
1917 2325
1924 354
1927 2325
1934 354
1937 2325
1944 354
1947 2325
1954 354
1957 2325
1964 354
1967 2325
1974 354
1977 2325
1984 354
1987 2325
1994 354
1997 2325
2004 354
2007 2325
2014 354
2017 2325
2024 354
2027 2325
2034 354
2037 2325
2044 354
2047 2325
2054 354
2057 2325
2064 354
2067 2325
2074 354
2077 2325
2084 354
2087 2324
2094 354
2097 2320
2104 356
2107 2320
2114 359
2117 2320
2124 359
2127 2319
2134 359
2137 2315
2144 361
2147 2315
2154 364
2156 2310
2164 366
2166 2310
2174 369
2175 2305
2183 374
2185 2305
2193 374
2194 2300
2202 379
2204 2297
2211 384
2214 2292
2221 384
2224 2287
2229 391
2234 2285
2239 394
2243 2280
2248 399
2252 2275
2257 404
2261 2270
2266 409
2270 2265
2274 416
2278 2258
2283 421
2285 2250
2290 429
2295 2245
2300 432
2303 2238
2307 440
2310 2230
2315 447
2318 2223
2322 455
2325 2215
2330 462
2333 2208
2337 470
2340 2200
2345 477
2348 2193
2352 485
2355 2185
2360 492
2363 2178
2364 502
2368 2168
2370 510
2375 519
2375 2155
2380 528
2383 2148
2385 537
2388 2138
2392 545
2393 2128
2395 555
2398 2118
2400 564
2400 2105
2405 573
2405 583
2405 2095
2410 592
2410 2085
2415 601
2415 2070
2418 611
2420 621
2420 2050
2420 2060
2423 631
2425 641
2425 2030
2425 2040
2428 651
2430 661
2430 671
2430 1995
2430 2005
2430 2015
2433 681
2435 691
2435 701
2435 711
2435 721
2435 731
2435 741
2435 751
2435 761
2435 771
2435 781
2435 791
2435 801
2435 811
2435 821
2435 831
2435 841
2435 851
2435 861
2435 871
2435 881
2435 891
2435 901
2435 911
2435 921
2435 931
2435 941
2435 951
2435 961
2435 971
2435 981
2435 991
2435 1001
2435 1011
2435 1021
2435 1031
2435 1041
2435 1051
2435 1061
2435 1071
2435 1081
2435 1091
2435 1101
2435 1111
2435 1121
2435 1131
2435 1141
2435 1151
2435 1161
2435 1171
2435 1181
2435 1191
2435 1201
2435 1211
2435 1221
2435 1231
2435 1241
2435 1251
2435 1261
2435 1271
2435 1281
2435 1291
2435 1301
2435 1311
2435 1321
2435 1331
2435 1341
2435 1351
2435 1361
2435 1371
2435 1381
2435 1391
2435 1401
2435 1411
2435 1421
2435 1431
2435 1441
2435 1451
2435 1461
2435 1471
2435 1481
2435 1491
2435 1501
2435 1511
2435 1521
2435 1531
2435 1541
2435 1551
2435 1561
2435 1571
2435 1581
2435 1591
2435 1601
2435 1611
2435 1621
2435 1631
2435 1641
2435 1651
2435 1661
2435 1671
2435 1681
2435 1691
2435 1701
2435 1711
2435 1721
2435 1731
2435 1741
2435 1751
2435 1761
2435 1771
2435 1781
2435 1791
2435 1801
2435 1811
2435 1821
2435 1831
2435 1841
2435 1851
2435 1861
2435 1871
2435 1881
2435 1891
2435 1901
2435 1911
2435 1921
2435 1931
2435 1941
2435 1951
2435 1961
2435 1971
2435 1981
