389 1282
394 1291
397 1274
401 1299
405 1266
409 1305
415 1261
415 1313
423 1254
425 1317
430 1246
432 1325
440 1241
440 1332
448 1234
449 1337
455 1226
459 1340
465 1221
465 1348
473 1214
473 1355
482 1209
482 1360
491 1204
492 1364
499 1197
499 1372
509 1192
509 1375
517 1184
518 1380
527 1179
527 1385
536 1390
537 1174
545 1395
547 1169
554 1400
556 1164
563 1405
565 1159
572 1410
574 1154
582 1414
583 1149
591 1419
592 1144
601 1423
602 1139
611 1425
612 1139
620 1430
621 1134
629 1435
630 1129
639 1435
640 1126
648 1440
650 1124
657 1445
659 1119
667 1445
668 1114
676 1450
678 1114
686 1450
687 1109
695 1455
697 1109
705 1455
706 1104
714 1460
716 1104
724 1460
725 1099
733 1465
735 1099
743 1465
745 1096
753 1465
755 1094
762 1470
765 1094
772 1470
775 1091
782 1470
785 1089
792 1470
795 1089
799 642
799 652
799 662
799 672
799 682
799 692
802 1470
804 577
804 587
804 597
804 607
804 617
804 627
804 701
804 711
804 721
804 731
804 741
804 751
805 1089
809 542
809 552
809 562
809 760
809 770
809 780
809 790
811 1475
814 517
814 527
814 799
814 809
814 1852
814 1862
814 1872
814 1882
814 1892
815 1089
816 819
819 829
819 839
819 1787
819 1797
819 1807
819 1817
819 1827
819 1837
819 1901
819 1911
819 1921
819 1931
819 1941
819 1951
819 1961
821 1475
824 514
824 848
824 1084
824 1752
824 1762
824 1772
824 1970
824 1980
824 1990
825 858
827 2000
829 868
829 1722
829 1732
829 1742
829 2010
829 2020
830 878
831 1475
834 516
834 888
834 1084
834 1702
834 1712
834 2029
834 2039
836 2049
839 897
839 907
839 1687
841 1475
844 519
844 916
844 1084
844 1667
844 1677
846 2045
849 925
849 1652
851 1475
852 935
853 524
854 945
854 1084
854 1637
855 2040
859 1622
860 953
861 1475
862 529
864 963
864 1084
864 1612
865 2040
869 972
869 1597
871 1475
872 529
874 981
874 1084
874 1587
874 2035
879 990
881 534
881 1475
882 1579
883 2030
884 999
884 1084
884 1567
889 1008
889 1557
890 539
891 1475
893 2028
894 1017
894 1084
897 1549
899 1026
900 542
901 1475
902 1539
903 2023
904 1035
904 1086
907 1529
910 544
910 1043
910 1470
912 1519
913 2018
914 1089
915 1052
919 549
919 1507
920 1470
922 1060
923 2015
924 1089
927 1069
927 1499
928 554
930 1470
932 1489
932 2010
934 1077
934 1089
937 559
939 1477
941 2005
944 1085
945 1465
946 564
950 2000
955 569
960 1995
964 574
969 1990
974 576
978 1985
983 581
987 1980
990 589
996 1975
1000 592
1005 1970
1008 599
1013 1963
1017 604
1023 1958
1026 609
1033 1953
1035 614
1040 1945
1043 620
1050 628
1050 1940
1058 1933
1060 632
1067 640
1068 1928
1075 647
1075 1920
1083 654
1083 1913
1092 659
1093 1908
1099 667
1100 1900
1108 1893
1109 671
1115 679
1115 1885
1123 685
1123 1878
1130 693
1130 1870
1138 700
1138 1863
1145 708
1145 1855
1150 717
1153 1848
1157 725
1160 1840
1165 732
1168 1833
1172 740
1173 1823
1180 747
1180 1815
1185 756
1188 1808
1191 764
1195 1795
1199 771
1203 781
1203 1788
1210 789
1210 1775
1215 798
1218 1768
1220 807
1223 1758
1227 815
1228 1748
1232 824
1235 834
1235 1735
1240 843
1243 1728
1245 852
1245 1715
1250 861
1250 1705
1255 870
1258 1698
1260 879
1260 1685
1265 888
1265 1675
1270 1665
1274 877
1275 1655
1279 867
1281 1663
1284 852
1285 1673
1290 1682
1292 844
1294 832
1294 1692
1299 822
1299 1701
1304 1710
1307 814
1309 1719
1312 804
1314 1728
1317 794
1319 1737
1322 784
1324 1746
1329 772
1329 1755
1335 1763
1337 764
1340 1772
1344 752
1347 1780
1352 744
1352 1789
1359 732
1359 1797
1367 724
1367 1804
1374 1812
1375 716
1379 1821
1380 706
1386 1829
1388 699
1394 1835
1395 691
1400 1843
1403 684
1408 1850
1410 676
1414 1858
1418 669
1419 1867
1425 661
1427 1874
1433 654
1435 1880
1440 646
1444 1885
1448 639
1450 1893
1457 634
1458 1900
1465 626
1467 1905
1473 619
1475 1912
1482 614
1482 1920
1490 606
1491 1925
1498 599
1499 1931
1506 1939
1507 594
1516 589
1516 1943
1524 582
1525 1948
1533 1955
1534 577
1542 569
1542 1960
1551 1965
1552 564
1559 1971
1561 559
1569 1975
1571 555
1578 1980
1579 549
1587 1985
1588 544
1596 1990
1597 539
1600 1070
1605 1079
1605 1465
1605 1995
1607 534
1608 1063
1610 1474
1614 1074
1614 2000
1615 1050
1615 1465
1615 1483
1617 529
1620 1040
1623 1490
1623 2005
1624 1074
1625 1465
1627 524
1628 1033
1630 1498
1632 2010
1633 1023
1634 1074
1635 1465
1635 1507
1637 519
1639 1517
1640 1010
1642 2010
1644 1074
1645 1000
1645 1467
1645 1525
1647 514
1650 990
1650 1534
1651 2015
1653 1069
1655 1470
1655 1543
1657 514
1658 983
1660 970
1660 1552
1660 2020
1663 1069
1665 960
1665 1470
1665 1561
1666 509
1669 2025
1670 950
1670 1570
1673 1069
1675 935
1675 1470
1675 1579
1676 505
1679 2025
1680 920
1680 1588
1683 1069
1685 910
1685 1470
1685 1597
1685 1607
1686 500
1688 2030
1690 895
1690 1616
1693 1069
1695 880
1695 1470
1695 1625
1696 499
1697 2035
1700 860
1700 870
1700 1634
1700 1644
1703 1069
1705 504
1705 514
1705 840
1705 850
1705 1470
1705 1653
1707 2039
1710 523
1710 533
1710 820
1710 830
1710 1662
1710 1672
1713 1069
1714 1682
1715 542
1715 552
1715 562
1715 790
1715 800
1715 810
1715 1470
1715 1692
1717 2040
1719 572
1720 582
1720 592
1720 602
1720 612
1720 745
1720 755
1720 765
1720 775
1720 1701
1720 1711
1723 1069
1725 621
1725 631
1725 641
1725 651
1725 661
1725 671
1725 681
1725 691
1725 701
1725 711
1725 721
1725 731
1725 1470
1725 1720
1725 1730
1725 2020
1725 2030
1727 1740
1730 1750
1730 1760
1730 1985
1730 1995
1730 2005
1733 1069
1735 1470
1735 1769
1735 1779
1735 1789
1735 1799
1735 1809
1735 1945
1735 1955
1735 1965
1735 1975
1740 1818
1740 1828
1740 1838
1740 1848
1740 1858
1740 1868
1740 1878
1740 1888
1740 1898
1740 1908
1740 1918
1740 1928
1743 1069
1744 1465
1753 1069
1754 1465
1762 1074
1764 1465
1772 1074
1774 1465
1782 1074
1784 1462
1792 1074
1794 1460
1801 1079
1804 1460
1811 1079
1813 1455
1821 1079
1823 1455
1830 1084
1833 1453
1840 1084
1843 1450
1850 1087
1853 1448
1860 1089
1863 1445
1869 1094
1872 1440
1879 1094
1882 1440
1888 1099
1891 1435
1898 1100
1900 1430
1908 1104
1910 1430
1917 1109
1919 1425
1927 1109
1929 1422
1936 1114
1939 1417
1945 1119
1949 1415
1955 1122
1958 1410
1965 1124
1967 1405
1974 1129
1976 1400
1983 1134
1985 1395
1992 1139
1995 1390
2001 1144
2005 1385
2010 1149
2015 1380
2020 1152
2025 1375
2028 1159
2035 1370
2037 1164
2044 1365
2046 1169
2052 1359
2055 1174
2062 1354
2064 1179
2072 1185
2072 1349
2080 1340
2082 1189
2088 1333
2089 1197
2098 1328
2099 1201
2105 1209
2105 1320
2114 1315
2115 1212
2122 1220
2122 1309
2130 1300
2132 1224
2139 1232
2139 1295
2147 1239
2147 1289
2155 1280
2156 1244
2163 1273
2164 1251
2165 1261
