19 1277
27 1269
27 1284
36 1264
36 1289
46 1264
46 1293
54 1300
55 1259
63 1305
64 1254
72 1310
73 1249
81 1315
83 1249
91 1318
92 1244
100 1323
102 1244
110 1325
111 1239
119 1330
121 1239
128 1335
131 1235
137 1340
141 1234
147 1340
151 1230
156 1345
161 1229
166 1345
171 1229
176 1345
181 1225
185 1350
191 1224
195 1350
201 1224
204 1355
211 1224
214 1355
221 1220
223 1360
231 1219
233 1360
241 1219
243 1360
250 1214
252 1365
254 2007
259 537
259 1992
260 1214
260 2015
262 1365
264 546
267 529
267 1984
269 555
269 1972
270 1214
270 2010
272 1365
274 564
274 1962
277 529
279 1952
280 572
280 1214
280 2005
282 1369
284 582
284 1942
287 529
290 1212
290 2005
292 1370
292 1934
294 585
294 595
296 534
297 605
297 1924
300 1214
300 2000
302 1370
305 1916
306 534
307 609
309 1902
310 1214
310 2000
311 1375
314 617
316 534
317 1894
319 626
319 1209
319 1995
321 1375
322 1884
325 539
329 630
329 1209
329 1995
331 1375
331 1879
332 640
334 544
336 1870
337 1989
339 1207
340 647
341 1375
344 544
344 1864
347 655
347 1985
349 1204
349 1852
351 1378
354 544
355 662
357 1844
357 1984
359 672
359 1206
361 1380
363 549
365 1836
367 679
367 1979
369 1206
371 1380
373 549
373 1829
375 685
377 1974
379 1204
380 1821
381 1380
382 554
384 690
387 700
387 1970
388 1814
389 1204
391 1380
392 554
396 705
396 1965
397 1809
399 1204
400 1385
401 559
402 1799
404 711
405 1960
409 1202
410 1385
411 559
411 719
411 1794
415 1955
419 725
419 1199
419 1777
419 1787
420 564
420 1387
424 1950
425 733
428 1204
429 1772
430 564
430 1385
433 740
434 1947
437 1764
438 1204
439 569
439 1390
442 745
444 1942
445 577
445 1756
447 1199
449 1390
450 752
452 1935
455 579
455 1751
457 1199
459 757
459 1390
461 1930
463 1744
464 584
464 766
467 1199
469 1390
470 1736
470 1925
473 589
474 770
477 1199
478 1729
479 1390
480 778
480 1925
482 594
485 1721
487 1199
488 785
488 1395
489 1920
492 594
493 1714
495 793
495 1910
497 1199
498 1395
500 1706
501 599
503 800
505 1905
506 1194
508 1395
508 1699
510 604
512 805
515 1691
515 1905
516 1194
517 1400
519 609
520 812
523 1898
525 1686
526 1194
527 615
527 1400
529 817
530 1676
530 1890
534 826
536 1194
537 619
537 1400
540 1671
540 1885
544 830
546 624
546 1194
547 1400
548 1664
550 838
550 1880
555 629
555 1656
556 1194
557 1404
558 845
560 1875
564 634
564 1647
566 1190
567 850
567 1405
568 1868
572 859
572 1639
573 639
576 1189
577 1405
578 1865
579 867
580 1631
583 640
586 1189
587 1405
587 1860
589 870
590 648
590 1626
596 1189
596 1410
596 1855
598 655
598 875
598 1619
602 885
604 1847
605 1405
605 1611
606 1189
608 659
611 890
613 1604
614 1410
614 1845
616 1185
617 664
619 896
620 1596
622 1839
624 1410
626 669
626 904
626 1189
628 1589
630 1830
634 910
634 1412
635 674
635 1581
636 1189
640 918
640 1830
643 680
644 1415
644 1572
645 1184
648 1823
650 922
652 685
654 1415
654 1567
655 1184
655 1815
657 930
662 689
662 1559
664 1415
665 937
665 1184
665 1810
670 1551
671 694
672 945
674 1415
675 1184
675 1805
678 1544
680 699
681 950
684 1415
684 1800
685 1184
685 1536
688 705
689 956
693 1420
693 1529
694 1797
695 1181
696 964
698 709
702 1524
702 1790
703 1420
704 970
705 1179
707 714
710 978
710 1516
711 1785
713 1420
714 722
715 1179
718 985
718 1509
720 1780
723 1420
724 724
724 1184
725 993
727 1504
728 1773
732 1425
732 1494
733 729
733 1179
735 997
738 1768
741 1420
742 734
742 1005
742 1489
743 1179
748 1763
750 1425
750 1481
751 739
752 1009
753 1179
758 1474
758 1758
759 1017
760 744
760 1425
763 1179
765 1750
767 1024
767 1469
768 750
770 1425
773 1179
774 1032
775 1461
775 1745
778 754
780 1425
783 1179
783 1454
784 1035
784 1740
785 762
790 1043
790 1425
792 1449
793 1179
794 1737
795 764
798 1050
800 1425
800 1441
802 1174
802 1729
803 770
807 1055
808 1434
812 1174
812 1724
813 774
816 1060
821 1069
821 1179
822 779
822 1719
829 1075
830 1710
831 784
831 1179
838 1080
839 791
840 1705
841 1179
847 1085
848 796
850 1700
851 1179
855 1092
858 800
859 182
859 212
860 1695
861 1179
862 1100
864 157
864 167
864 191
864 201
864 221
864 231
864 241
864 252
864 262
864 282
864 292
867 805
868 1688
869 122
869 137
869 147
869 271
869 301
869 311
869 332
871 1179
872 1104
874 102
874 112
874 320
874 341
874 351
877 809
878 1683
879 82
879 92
879 360
879 370
879 382
879 1112
879 2382
879 2427
881 1179
884 391
884 401
884 817
884 2352
884 2362
884 2372
884 2391
884 2401
884 2411
884 2436
884 2446
884 2456
884 2466
888 1678
889 81
889 410
889 420
889 1115
889 2297
889 2322
889 2332
889 2342
891 1179
892 430
894 440
894 450
894 460
894 821
894 2272
894 2282
894 2306
894 2467
895 89
895 1123
895 1670
899 469
899 479
899 2252
899 2262
900 829
900 2455
901 1179
903 95
903 1130
904 488
904 498
904 2232
904 2242
905 1665
907 105
909 507
909 517
909 532
909 2207
909 2217
910 832
910 2450
911 1179
913 1130
914 541
914 551
914 2187
914 2197
915 112
915 1660
918 2443
919 560
919 570
919 837
919 2167
919 2177
920 121
920 1138
921 1179
923 1653
924 579
924 589
924 2147
924 2157
925 2435
926 129
927 844
929 598
929 608
929 618
929 628
929 2127
929 2137
930 139
930 1142
931 1180
933 1648
933 2428
934 637
934 647
934 657
934 2107
934 2117
936 849
937 1150
939 666
939 676
939 2067
939 2077
939 2087
939 2097
940 142
940 2420
941 1184
943 1643
944 685
944 695
944 2047
944 2057
945 151
945 854
945 2410
946 1155
947 705
948 161
949 715
949 725
949 2027
949 2037
950 1635
951 1184
953 2403
954 734
954 744
954 859
954 2012
955 169
956 754
956 1158
958 1628
959 2002
960 178
960 2395
961 763
961 1184
962 865
964 773
964 783
964 1165
964 1977
964 1987
965 187
968 1623
968 2388
969 792
969 802
969 812
969 1957
969 1967
970 196
971 1184
972 869
973 1170
973 2378
974 821
974 1932
974 1942
975 205
977 215
978 1618
978 2368
979 830
979 840
979 877
979 1907
979 1917
981 1185
982 224
982 1175
984 849
984 859
984 1882
984 1892
985 234
985 1610
986 869
988 2363
989 879
989 1872
993 1603
993 2353
994 1842
994 1852
994 1862
995 237
998 2343
999 1827
1000 246
1000 256
1000 1595
1003 2333
1004 1802
1004 1812
1005 265
1009 1792
1010 274
1010 1590
1010 2320
1014 1767
1014 1777
1015 283
1015 2310
1019 1747
1019 1757
1020 292
1020 1585
1023 2303
1024 302
1024 1737
1028 1578
1028 2293
1029 1717
1029 1727
1030 310
1030 320
1034 1697
1034 1707
1035 329
1035 2280
1038 1573
1039 1687
1040 338
1040 2265
1044 1565
1044 1667
1044 1677
1045 347
1045 2255
1049 357
1049 1657
1050 367
1052 1559
1053 2248
1054 1642
1055 376
1055 2235
1058 386
1059 1627
1060 1550
1060 2225
1063 395
1064 1607
1064 1617
1065 2215
1067 405
1068 1543
1069 1597
1070 2205
1072 414
1074 1587
1075 424
1075 2195
1078 1538
1079 1577
1080 433
1080 2185
1084 1530
1084 1562
1085 442
1085 452
1085 2175
1089 1552
1090 461
1092 1524
1093 2168
1094 1537
1095 470
1097 480
1098 2158
1100 2145
1102 1520
1102 1530
1105 487
1105 497
1105 2130
1109 507
1113 2123
1114 516
1115 2110
1120 524
1120 534
1120 544
1120 2100
1125 553
1125 2090
1130 562
1133 2083
1135 571
1135 2070
1140 580
1140 2060
1142 590
1147 599
1148 2053
1150 2035
1154 607
1155 617
1155 2025
1159 627
1160 637
1163 2018
1165 2005
1167 645
1170 1995
1172 654
1175 664
1175 674
1178 1988
1180 683
1180 1975
1188 690
1188 1968
1190 700
1190 1955
1192 710
1195 1945
1197 719
1200 729
1200 1935
1205 738
1205 1925
1210 747
1210 757
1210 1910
1214 767
1215 777
1218 1903
1220 1890
1222 785
1225 795
1225 1875
1227 805
1232 814
1233 1868
1235 824
1235 834
1238 1858
1240 843
1240 1845
1245 852
1245 862
1248 1838
1249 872
1250 1820
1254 881
1255 891
1255 1810
1258 901
1260 911
1260 1800
1263 921
1265 931
1265 941
1265 1790
1270 950
1270 960
1270 1775
1272 970
1277 979
1279 1770
1282 969
1284 947
1284 957
1284 1779
1286 1789
1289 932
1291 1798
1294 902
1294 912
1294 922
1295 1808
1299 882
1299 892
1300 1817
1304 872
1304 1827
1304 1837
1309 847
1309 857
1312 1844
1314 1854
1317 839
1319 817
1319 827
1319 1863
1324 807
1324 1872
1329 787
1329 797
1329 1881
1334 1890
1334 1900
1337 779
1339 767
1340 1908
1344 747
1344 757
1344 1918
1349 737
1349 1927
1354 722
1354 1936
1359 707
1359 1945
1362 1955
1364 692
1364 1965
1369 1974
1372 684
1374 667
1374 1983
1375 1993
1379 652
1384 1998
1387 644
1389 2007
1389 2017
1394 627
1394 2026
1399 607
1399 617
1399 2035
1404 597
1404 2044
1406 2054
1409 582
1411 2063
1415 2073
1417 574
1419 562
1420 2082
1424 552
1424 2092
1429 532
1429 542
1429 2101
1434 522
1434 2110
1439 512
1439 2119
1444 502
1444 2128
1449 487
1449 2137
1449 2147
1450 1520
1452 1530
1454 477
1454 2156
1459 457
1459 467
1459 2165
1460 1522
1460 1537
1460 1547
1465 1556
1465 2173
1467 449
1469 1527
1469 2183
1470 1565
1472 439
1474 2192
1475 1574
1475 1584
1477 429
1477 1534
1479 412
1479 2201
1480 1593
1484 402
1484 1542
1484 2210
1485 1602
1487 2220
1489 392
1490 1611
1490 1621
1492 1549
1492 2229
1494 382
1495 1630
1496 2239
1497 1640
1499 362
1499 372
1499 1557
1500 1650
1501 2248
1504 352
1505 1659
1505 2258
1509 342
1509 1560
1509 2268
1510 1668
1510 1678
1514 332
1514 2277
1515 1568
1515 1687
1519 312
1519 322
1519 1697
1519 2286
1520 1707
1523 1575
1524 1717
1524 2295
1525 1727
1527 304
1529 1737
1530 1583
1530 1747
1530 2303
1532 294
1534 282
1534 1757
1535 2312
1538 1590
1539 1766
1539 2322
1540 1776
1540 1786
1542 274
1545 1795
1545 1805
1547 264
1547 1595
1547 2329
1549 247
1550 1814
1550 1824
1551 2339
1555 1833
1555 1843
1556 2348
1557 239
1557 1599
1560 880
1560 1852
1560 1862
1560 1872
1560 2358
1564 227
1564 1607
1565 865
1565 1180
1565 1881
1568 1891
1568 2365
1570 845
1570 855
1570 881
1570 1189
1570 1901
1570 1911
1572 219
1574 202
1574 1175
1574 1610
1575 825
1575 835
1575 1920
1575 1930
1575 2373
1577 1940
1578 874
1580 810
1580 1187
1580 1618
1580 1950
1580 1960
1580 2382
1582 194
1582 1169
1584 2392
1585 780
1585 790
1585 800
1585 1969
1585 1979
1585 1989
1587 184
1587 869
1588 1625
1590 765
1590 1184
1590 1998
1592 174
1592 1164
1594 2395
1595 745
1595 755
1595 2007
1596 864
1597 1630
1597 2405
1599 157
1599 2017
1600 167
1600 720
1600 730
1600 1155
1600 1184
1600 2027
1600 2037
1604 857
1605 695
1605 705
1605 1637
1605 2046
1605 2056
1605 2412
1607 149
1609 2422
1610 670
1610 680
1610 1155
1610 1184
1610 2065
1610 2075
1610 2085
1610 2095
1612 139
1612 1645
1614 852
1615 645
1615 655
1615 2104
1615 2114
1615 2124
1617 2429
1618 1148
1620 605
1620 615
1620 625
1620 635
1620 1184
1620 2133
1620 2143
1622 134
1622 1649
1624 847
1624 2437
1625 585
1625 595
1625 2152
1625 2162
1627 124
1628 1143
1630 565
1630 575
1630 1181
1630 2171
1630 2181
1631 1654
1632 114
1632 2444
1634 842
1634 1135
1635 525
1635 540
1635 550
1635 2190
1635 2200
1639 1660
1639 2452
1640 106
1640 505
1640 515
1640 1181
1640 2209
1640 2219
1640 2229
1642 834
1644 1132
1645 96
1645 485
1645 495
1645 2238
1645 2248
1648 1665
1649 2455
1650 450
1650 470
1650 1179
1650 2257
1650 2267
1652 829
1652 2465
1653 89
1654 1127
1654 2277
1655 430
1655 440
1655 459
1655 2287
1655 2297
1655 2307
1655 2317
1657 1670
1659 2327
1660 81
1660 410
1660 420
1660 821
1660 1179
1660 2337
1660 2347
1660 2472
1662 1119
1664 2357
1665 375
1665 385
1665 395
1665 1677
1665 2367
1665 2377
1665 2387
1665 2397
1665 2407
1665 2417
1665 2427
1665 2437
1665 2447
1665 2457
1670 82
1670 92
1670 102
1670 355
1670 365
1670 819
1670 1179
1672 1114
1674 1682
1675 111
1675 125
1675 135
1675 315
1675 325
1675 335
1675 345
1679 812
1680 144
1680 154
1680 240
1680 250
1680 270
1680 280
1680 295
1680 305
1680 1105
1680 1179
1682 260
1682 1689
1685 163
1685 173
1685 183
1685 193
1685 203
1685 213
1685 223
1687 804
1689 1100
1690 1179
1691 1694
1697 804
1697 1094
1700 1179
1701 1698
1705 796
1705 1085
1709 1704
1710 1179
1714 1080
1715 791
1717 1710
1720 1179
1723 1075
1725 786
1727 1714
1730 1065
1730 1179
1733 779
1736 1719
1739 1060
1740 1179
1740 1425
1742 1435
1743 779
1744 1725
1747 1054
1750 771
1750 1177
1750 1425
1752 1439
1753 1730
1755 1045
1759 1447
1760 766
1760 1179
1760 1425
1762 1735
1765 1040
1767 1454
1768 759
1770 1179
1770 1425
1770 1742
1774 1035
1776 1459
1778 759
1779 1747
1780 1179
1780 1420
1782 1029
1784 1466
1785 751
1787 1020
1789 1425
1789 1750
1790 1179
1790 1474
1793 744
1796 1015
1798 1755
1799 1425
1799 1479
1800 1179
1803 744
1804 1007
1805 1487
1805 1763
1808 1420
1810 736
1810 1179
1812 1000
1813 1494
1815 1767
1818 1420
1820 731
1820 1179
1821 995
1822 1499
1824 1772
1828 1420
1829 987
1829 1184
1829 1507
1830 729
1830 1780
1837 979
1837 1514
1838 1420
1839 722
1839 1182
1840 1782
1844 1522
1847 714
1847 974
1847 1790
1848 1418
1849 1181
1854 1526
1855 960
1857 714
1857 1794
1858 1418
1859 1184
1860 1534
1862 704
1865 955
1867 1795
1868 1415
1868 1540
1869 1184
1872 699
1873 948
1875 1548
1875 1802
1878 1415
1879 1184
1882 699
1882 1810
1883 943
1883 1555
1888 933
1888 1415
1889 1184
1890 1563
1891 694
1892 1810
1895 925
1897 1819
1898 1415
1898 1569
1899 1184
1900 689
1905 920
1905 1577
1906 680
1907 1410
1907 1820
1908 1189
1913 913
1914 1582
1915 1827
1916 679
1917 1410
1918 1189
1920 905
1920 1590
1924 672
1924 1832
1927 1410
1928 898
1928 1189
1928 1596
1934 669
1934 1604
1934 1835
1936 1405
1938 893
1938 1189
1940 1843
1942 1610
1943 664
1945 880
1946 1405
1947 1619
1948 1189
1950 656
1950 1847
1955 875
1956 1405
1956 1624
1957 1855
1958 1190
1960 651
1964 1631
1965 870
1966 1405
1967 1855
1968 1194
1970 646
1970 860
1970 1639
1975 1400
1975 1862
1978 853
1978 1194
1978 1645
1980 641
1982 1870
1985 845
1985 1400
1985 1653
1988 1194
1990 639
1992 1874
1995 840
1995 1400
1995 1657
1998 1194
1999 634
2002 1665
2002 1875
2003 833
2005 1400
2007 1674
2008 629
2008 1194
2010 825
2010 1882
2015 621
2015 1395
2016 1679
2017 1890
2018 818
2018 1195
2020 1689
2025 616
2025 1395
2027 1894
2028 813
2028 1194
2029 1694
2035 611
2035 805
2035 1395
2035 1702
2036 1899
2037 1199
2043 798
2044 1707
2044 1905
2045 606
2045 1390
2047 1199
2050 790
2050 1715
2053 1910
2055 604
2055 1390
2057 1199
2058 1721
2059 785
2062 1915
2064 599
2065 1390
2065 1729
2067 779
2067 1199
2072 1919
2073 594
2073 1735
2075 765
2075 1385
2077 1199
2080 1743
2081 1924
2083 594
2085 760
2085 1387
2087 1199
2090 586
2090 1747
2091 1928
2093 753
2095 1387
2096 1204
2097 1755
2098 579
2099 1935
2103 748
2105 1385
2105 1762
2106 1204
2107 574
2108 1940
2110 740
2112 1770
2115 1385
2116 1204
2117 574
2117 1779
2117 1945
2118 733
2124 1380
2125 725
2126 569
2126 1204
2126 1784
2126 1950
2133 718
2134 1382
2134 1791
2135 564
2135 1955
2136 1204
2140 1799
2143 713
2144 1380
2144 1960
2145 561
2146 1204
2148 1805
2150 700
2153 1814
2154 1377
2154 1960
2155 559
2155 1209
2159 695
2162 1819
2163 1965
2164 1375
2165 556
2165 1209
2165 1829
2167 689
2170 1973
2174 1375
2174 1834
2175 554
2175 680
2175 1209
2180 670
2180 1975
2182 1840
2184 549
2184 1375
2185 1209
2187 1849
2188 663
2189 1980
2194 549
2194 1375
2194 1857
2195 655
2195 1209
2199 1980
2200 1865
2203 544
2204 1375
2205 645
2205 1209
2208 1871
2208 1985
2213 544
2213 638
2214 1214
2214 1372
2215 1879
2217 1990
2220 630
2220 1888
2222 539
2224 1214
2224 1370
2226 1995
2230 620
2230 1892
2231 534
2233 1365
2234 1214
2234 1902
2235 1912
2236 1995
2238 613
2241 534
2242 1370
2242 1920
2244 1214
2244 2001
2245 605
2250 590
2250 1927
2251 534
2251 1365
2253 1219
2254 2005
2255 1936
2260 575
2260 585
2260 1945
2261 534
2261 1365
2263 1219
2264 2005
2265 1954
2270 529
2270 570
2270 1963
2271 1365
2272 1214
2274 2005
2275 560
2275 1972
2280 529
2280 545
2280 1360
2280 1981
2280 2013
2281 1219
2285 1990
2287 2000
2288 535
2290 1355
2290 2010
2291 1219
2300 1355
2301 1219
2310 1224
2310 1355
2320 1224
2320 1355
2330 1224
2330 1350
2340 1224
2340 1350
2349 1229
2349 1345
2359 1229
2359 1345
2369 1229
2369 1345
2379 1231
2379 1342
2389 1234
2389 1340
2398 1335
2399 1234
2408 1239
2408 1335
2417 1330
2418 1239
2426 1325
2428 1239
2436 1325
2437 1244
2445 1320
2447 1244
2454 1315
2456 1249
2464 1312
2466 1249
2474 1307
2475 1254
2482 1300
2485 1257
2492 1299
2494 1262
2502 1294
2504 1264
2510 1285
2514 1266
2520 1274
2530 1277
