319 2292
324 2282
325 2300
329 2272
334 2262
335 2300
339 2252
345 2300
347 2244
352 2234
355 2300
357 2224
364 2212
365 2300
372 2204
375 2300
377 2194
382 2184
385 2300
389 2172
395 2300
397 2164
402 2154
405 2300
409 2142
414 2132
415 2300
422 2124
425 2300
429 2112
434 2092
434 2102
434 2295
444 2087
444 2297
452 2079
454 2295
457 2069
464 2057
464 2295
472 2049
474 2295
477 2039
484 2295
485 2031
490 2021
494 2295
495 2011
503 2004
504 2295
509 1992
514 2292
517 1984
522 1974
524 2292
529 1962
534 2290
537 1954
544 1942
544 2290
552 1934
554 2290
557 1924
564 2290
565 1916
570 1906
574 2287
575 1896
583 1889
584 2285
589 1877
594 2285
597 1869
604 1857
604 2285
612 1849
614 2285
617 1839
624 2282
625 1831
630 1821
634 2280
635 1811
643 1804
644 2280
649 1792
654 2280
657 1784
662 1774
664 2280
670 1766
673 2275
675 1756
683 1749
683 2275
687 1739
693 2275
694 1727
702 1719
703 2275
709 1707
712 2270
717 1699
722 1689
722 2270
729 1677
732 2270
737 1669
742 1659
742 2270
749 1647
752 2269
757 1639
762 1629
762 2265
769 1607
769 1617
772 2265
779 1602
782 2265
787 1594
792 1584
792 2264
799 1572
802 2264
807 1564
812 1554
812 2260
819 1542
822 2260
827 1534
832 1524
832 2259
839 1512
842 2259
847 1504
852 1494
852 2255
857 1484
862 2255
864 1472
872 1464
872 2255
877 1454
881 2250
884 1442
889 1432
891 2250
897 1424
901 2250
907 1419
911 2250
917 1419
920 2245
927 1419
930 2245
937 1419
940 2245
944 1347
947 1419
949 1337
950 1355
950 2245
954 1327
956 1424
959 1317
960 1355
960 2245
966 1424
967 1309
970 1355
970 2240
972 1299
976 1424
977 1289
980 1355
980 2240
984 1277
986 1424
989 1267
990 1355
990 1850
990 1860
990 1870
990 1880
990 1890
990 2240
994 1257
995 1820
995 1830
995 1840
996 1424
1000 1355
1000 1894
1000 2240
1002 1249
1005 1820
1006 1424
1007 1239
1010 1355
1010 1894
1010 2240
1012 1229
1015 1820
1016 1424
1019 1217
1019 2235
1020 1355
1020 1894
1024 1207
1025 1820
1026 1424
1029 1197
1029 2235
1030 1355
1030 1894
1035 1820
1036 1424
1037 1189
1039 2235
1040 1355
1040 1894
1042 1179
1045 1820
1046 1424
1047 1169
1049 2235
1050 1355
1050 1892
1052 1159
1055 1820
1056 1424
1059 1147
1059 2235
1060 1355
1060 1889
1064 1137
1065 1815
1066 1424
1069 1127
1069 2232
1070 1355
1070 1889
1074 1117
1075 1815
1076 1424
1079 1107
1079 2232
1080 1355
1080 1889
1085 1815
1086 1424
1087 1099
1089 2230
1090 1355
1090 1889
1092 1089
1095 1815
1096 1424
1097 1079
1099 2230
1100 1355
1100 1889
1102 1069
1105 1815
1106 1424
1107 1059
1109 2230
1110 1355
1110 1889
1114 1042
1115 1815
1116 1424
1119 1032
1119 2230
1120 1355
1120 1889
1125 1815
1126 1424
1127 1024
1129 2227
1130 1355
1130 1889
1132 1014
1135 1815
1136 1424
1137 1004
1139 2227
1140 1355
1140 1887
1142 994
1145 1815
1146 1424
1147 984
1149 2225
1150 1355
1150 1884
1152 974
1155 1815
1156 1424
1157 964
1159 2225
1160 1355
1160 1884
1162 954
1165 1815
1166 1424
1167 944
1169 2225
1170 1355
1170 1884
1174 927
1175 1815
1176 1425
1179 917
1179 2225
1180 1355
1180 1884
1184 907
1185 1815
1186 1425
1189 2225
1190 1355
1190 1884
1192 899
1195 1815
1196 1425
1197 889
1199 877
1199 2225
1200 1355
1200 1884
1204 867
1204 1810
1206 1425
1208 2220
1209 857
1210 1355
1210 1884
1214 847
1214 1812
1216 1425
1217 2225
1219 837
1220 1355
1220 1884
1224 827
1224 1812
1226 1429
1227 2224
1229 817
1230 1355
1230 1884
1234 807
1234 1810
1236 1429
1237 2220
1239 797
1240 1355
1240 1884
1244 787
1244 1810
1246 1425
1247 2220
1249 777
1250 1355
1250 1884
1254 767
1254 1810
1256 1429
1257 2220
1259 757
1260 1355
1260 1881
1264 747
1264 1810
1266 1429
1267 2220
1269 732
1270 1355
1270 1881
1274 722
1274 1810
1276 1429
1277 2220
1279 712
1280 1355
1280 1881
1284 702
1284 1810
1286 1429
1287 2220
1289 692
1290 1355
1290 1881
1294 682
1294 1810
1296 1429
1297 2220
1299 667
1300 1355
1300 1882
1304 657
1304 1810
1306 1429
1307 2220
1309 647
1310 1355
1310 1879
1314 637
1314 1810
1316 1429
1317 2220
1319 627
1320 1355
1320 1879
1324 612
1324 1810
1326 1429
1327 2220
1329 602
1330 995
1330 1005
1330 1015
1330 1025
1330 1035
1330 1045
1330 1055
1330 1355
1330 1879
1334 592
1334 1810
1336 1429
1337 2220
1339 582
1340 995
1340 1059
1340 1355
1340 1879
1344 572
1344 1810
1346 1429
1347 2220
1349 562
1350 995
1350 1059
1350 1355
1350 1879
1354 547
1354 1810
1356 1429
1356 2215
1359 537
1360 995
1360 1059
1360 1355
1360 1879
1364 527
1364 1810
1365 2220
1366 1429
1369 512
1370 995
1370 1059
1370 1355
1370 1879
1374 502
1374 1810
1375 2220
1376 1429
1379 492
1380 995
1380 1059
1380 1355
1380 1879
1384 482
1384 1810
1384 2215
1386 1429
1389 472
1390 995
1390 1059
1390 1355
1390 1879
1393 2220
1394 457
1394 1810
1396 1429
1399 447
1400 995
1400 1059
1400 1355
1400 1879
1403 2218
1404 1810
1406 1429
1409 451
1410 995
1410 1059
1410 1355
1410 1879
1413 461
1413 2220
1414 1810
1416 1429
1418 470
1420 995
1420 1059
1420 1355
1420 1879
1422 480
1423 2220
1424 1810
1426 1429
1427 489
1430 499
1430 995
1430 1059
1430 1355
1430 1879
1432 2215
1434 1810
1435 508
1436 1429
1440 517
1440 995
1440 1059
1440 1355
1440 1879
1441 2220
1444 527
1444 1810
1445 537
1446 1429
1450 546
1450 995
1450 1059
1450 1355
1450 1879
1451 2220
1454 1810
1455 555
1456 1429
1460 564
1460 995
1460 1059
1460 1355
1460 1879
1461 2220
1464 1810
1465 573
1466 1429
1470 582
1470 592
1470 995
1470 1059
1470 1355
1470 1879
1471 2220
1474 1810
1475 601
1476 1430
1480 610
1480 995
1480 1059
1480 1355
1480 1879
1481 2220
1484 1812
1485 619
1485 629
1486 1430
1490 995
1490 1059
1490 1355
1490 1879
1491 2220
1493 635
1494 1815
1495 645
1496 1430
1500 654
1500 995
1500 1059
1500 1355
1500 1879
1501 2220
1504 1812
1505 663
1506 1430
1510 672
1510 682
1510 995
1510 1059
1510 1355
1510 1879
1511 2220
1514 1815
1515 691
1516 1434
1520 995
1520 1059
1520 1355
1520 1879
1521 699
1521 2220
1524 1815
1525 709
1526 1434
1530 718
1530 995
1530 1059
1530 1355
1530 1879
1531 2220
1534 1815
1535 727
1536 1434
1539 737
1539 1884
1540 995
1540 1059
1540 1355
1541 2220
1544 746
1544 1815
1546 1434
1548 756
1549 1882
1550 766
1550 995
1550 1059
1550 1355
1551 2220
1554 1815
1555 775
1556 1434
1559 1884
1560 784
1560 995
1560 1059
1560 1355
1561 2220
1564 1815
1565 793
1566 1434
1569 1881
1570 802
1570 995
1570 1059
1570 1355
1571 2220
1574 812
1574 1815
1576 1434
1579 821
1579 1884
1580 995
1580 1059
1580 1355
1580 2225
1583 831
1584 1815
1586 1434
1588 840
1589 1884
1589 2220
1590 995
1590 1059
1590 1355
1592 850
1594 1815
1596 1434
1597 859
1598 2225
1599 1884
1600 869
1600 995
1600 1059
1600 1355
1604 1815
1605 878
1606 1434
1608 2225
1609 1884
1610 887
1610 995
1610 1057
1610 1355
1614 1815
1615 896
1616 1434
1618 2225
1619 1884
1620 905
1620 990
1620 1056
1620 1355
1624 1817
1625 914
1626 1434
1628 2225
1629 995
1629 1884
1630 923
1630 1056
1630 1355
1634 1815
1635 932
1636 1434
1638 990
1638 2225
1639 942
1639 1884
1640 1056
1640 1355
1644 951
1644 1815
1646 1434
1648 961
1648 990
1648 2225
1649 1884
1650 1054
1650 1355
1653 970
1653 1820
1656 1434
1657 980
1658 2225
1659 1059
1659 1884
1660 1355
1663 1820
1666 1434
1667 2230
1668 1054
1668 1889
1670 1355
1673 1820
1675 1439
1677 2230
1678 1054
1678 1889
1680 1355
1683 1820
1685 1437
1687 2230
1688 1054
1688 1889
1690 1355
1693 1820
1695 1437
1697 1059
1697 2230
1698 1889
1700 1355
1703 1820
1704 1067
1705 1437
1707 2230
1708 1889
1709 1076
1710 1355
1713 1086
1713 1820
1715 1437
1717 2234
1718 1095
1718 1889
1719 1360
1719 1370
1719 1380
1719 1390
1719 1400
1719 1410
1719 1420
1723 1820
1725 1103
1725 1113
1727 2234
1728 1889
1733 1120
1733 1820
1737 1130
1737 2235
1738 1889
1742 1139
1742 1825
1747 2235
1748 1889
1749 1147
1750 1157
1752 1825
1757 1165
1757 1894
1757 2235
1762 1174
1762 1825
1765 1184
1767 1894
1767 2235
1772 1825
1773 1190
1777 1200
1777 1894
1777 2235
1782 1209
1782 1825
1785 1219
1786 2240
1787 1889
1790 1228
1792 1825
1796 2240
1797 1889
1798 1235
1802 1245
1802 1825
1806 1894
1806 2240
1807 1254
1812 1825
1814 1262
1816 1894
1816 2240
1819 1271
1821 1830
1823 1281
1826 1894
1826 2240
1830 1289
1831 1830
1835 1298
1835 2245
1836 1894
1840 1307
1841 1830
1844 1317
1845 2245
1846 1894
1850 1325
1851 1830
1855 1334
1855 2245
1856 1895
1860 1343
1861 1830
1865 1352
1865 2247
1866 1899
1871 1833
1872 1360
1875 2247
1876 1899
1877 1369
1880 1379
1881 1833
1885 2250
1886 1899
1888 1385
1891 1835
1892 1395
1895 2250
1896 1899
1897 1404
1901 1835
1904 1412
1905 2250
1906 1899
1909 1421
1911 1835
1914 2255
1915 1429
1916 1900
1920 1438
1921 1835
1924 2255
1925 1447
1926 1904
1930 1456
1931 1835
1934 2255
1936 1464
1936 1904
1940 1474
1941 1835
1944 2255
1946 1904
1948 1480
1950 1840
1952 1490
1954 2257
1956 1904
1960 1497
1960 1840
1964 1507
1964 2260
1966 1905
1970 1515
1970 1840
1974 2260
1975 1524
1976 1905
1980 1533
1980 1840
1984 2260
1985 1542
1986 1909
1990 1840
1992 1550
1994 2260
1996 1909
1999 1845
2000 1557
2003 2265
2004 1567
2006 1909
2009 1576
2009 1845
2013 2265
2015 1584
2015 1914
2019 1845
2020 1593
2023 2265
2025 1602
2025 1912
2029 1845
2032 1610
2033 2265
2035 1914
2039 1845
2040 1617
2042 2270
2044 1627
2045 1914
2049 1845
2050 1635
2052 2270
2055 1644
2055 1914
2058 1850
2060 1653
2062 2270
2064 1919
2068 1660
2068 1850
2072 1670
2072 2270
2074 1917
2078 1850
2080 1677
2082 2274
2084 1687
2084 1919
2088 1850
2092 1694
2092 2275
2094 1919
2095 1704
2097 1855
2100 1713
2102 2275
2104 1919
2107 1854
2108 1720
2112 2275
2113 1924
2115 1728
2117 1855
2120 1737
2122 2279
2123 1924
2125 1746
2127 1855
2131 1754
2132 2280
2133 1924
2135 1764
2137 1855
2142 2280
2143 1770
2143 1924
2147 1859
2150 1778
2152 2280
2153 1924
2155 1787
2157 1859
2160 1796
2162 1929
2162 2280
2166 1804
2167 1860
2171 2285
2172 1929
2174 1811
2177 1860
2178 1821
2181 2285
2182 1929
2185 1829
2187 1860
2190 1838
2191 2285
2192 1929
2197 1860
2198 1845
2201 2285
2202 1929
2211 2285
2212 1929
2220 2290
2221 1934
2230 2290
2231 1934
2240 2290
2241 1934
2250 2290
2251 1934
2260 1939
2260 2290
2268 1945
2270 2292
2272 1955
2280 1962
2280 2292
2284 1972
2290 2295
2292 1979
2295 1989
2300 2295
2303 1995
2307 2005
2310 2295
2315 2012
2319 2022
2320 2295
2325 2030
2330 2039
2330 2295
2335 2048
2340 2295
2343 2055
2350 2063
2350 2295
2355 2072
2359 2300
2360 2081
2366 2089
2369 2300
2370 2099
2375 2108
2379 2300
2383 2115
2389 2300
2390 2123
2395 2132
2399 2142
2399 2300
2405 2150
2409 2300
2410 2159
2415 2168
2419 2300
2423 2175
2427 2185
2429 2300
2432 2194
2439 2202
2439 2300
2444 2211
2448 2221
2449 2300
2455 2229
2459 2300
2460 2238
2465 2247
2469 2300
2470 2256
2475 2265
2479 2300
2480 2274
2485 2283
2489 2297
