364 2232
364 2242
369 2222
369 2251
377 2214
379 2255
382 2204
389 2255
390 2196
395 2186
399 2107
399 2117
399 2255
404 2097
404 2126
404 2136
405 2181
408 2260
409 2057
409 2072
409 2145
409 2155
410 2171
412 2089
418 2260
419 2052
427 2265
429 2049
434 1997
435 2272
438 2044
439 1987
439 2006
444 1977
444 2015
444 2277
447 2025
448 2044
452 1969
452 2284
459 1902
460 1961
462 2285
467 1894
467 1909
468 1954
469 1919
471 2290
474 1928
474 1938
475 1886
480 2285
483 1879
489 1827
490 2275
492 1874
494 1836
495 2260
497 1819
499 1845
499 1855
499 1865
504 2265
507 1819
509 2274
514 1767
515 2282
516 1814
519 1776
522 1759
522 2290
524 1785
524 1795
524 1807
529 1747
530 2297
537 1739
539 2302
542 1729
549 2305
551 1724
554 1657
559 1647
559 1666
559 2305
560 1719
564 1675
567 1639
567 1685
569 1695
569 1705
569 2305
577 1639
579 2305
587 1639
589 2307
597 1639
599 1577
599 1587
599 1597
599 2305
604 1606
604 1616
607 1569
607 1634
608 2300
615 1561
618 2300
623 1554
624 1542
627 2305
634 1532
637 2309
642 1524
645 2315
649 1512
654 1437
654 1447
654 1457
654 1467
654 1477
654 1487
654 1497
654 2320
660 2328
662 1429
670 2332
672 1429
675 2300
675 2310
677 2324
682 1429
685 2300
692 1424
695 2302
699 1412
704 1397
704 2307
712 1389
714 1332
714 2310
719 1341
720 1381
724 1329
724 1350
724 2310
725 1371
727 1360
733 1324
734 2310
742 1319
744 1272
744 2307
749 1281
749 1307
754 1269
754 1290
754 2310
764 1271
764 2310
773 1276
773 2315
782 2320
783 1279
784 1212
784 1222
789 1231
791 2325
792 1204
793 1279
794 1240
799 1249
800 1271
801 2325
802 1199
804 1258
810 2330
811 1204
820 2330
821 1204
829 1157
829 2335
831 1204
834 1147
834 1166
834 1176
838 2340
839 1185
839 1195
844 1142
848 2338
854 1142
858 2333
864 1142
868 2328
874 1107
874 1117
874 1127
874 1137
878 2330
879 1092
887 1084
888 2330
889 1072
895 2338
897 1064
903 2345
905 1056
912 2350
915 1054
921 2355
925 1054
930 2360
934 1012
934 1049
939 1002
939 1021
939 1031
940 2355
947 994
950 2350
955 986
960 2350
965 981
970 2350
975 979
980 2350
984 967
989 957
990 2340
990 2350
994 942
995 2330
999 917
999 927
1004 2325
1007 909
1014 2325
1017 904
1023 2330
1026 899
1032 2335
1034 892
1041 2340
1044 887
1051 2340
1052 879
1054 867
1059 857
1061 2343
1067 849
1071 2345
1074 837
1080 2350
1082 829
1087 819
1089 2355
1095 811
1099 2357
1104 802
1109 2352
1112 794
1117 2344
1119 782
1127 774
1127 2340
1135 766
1137 2340
1143 759
1145 2347
1149 747
1154 2352
1157 739
1162 729
1162 2359
1171 724
1171 2364
1180 719
1181 2368
1190 716
1191 2365
1195 706
1199 692
1201 2365
1204 682
1209 672
1210 2360
1217 664
1219 2365
1226 659
1229 2365
1236 659
1239 2365
1244 652
1249 642
1249 2365
1257 634
1257 2359
1265 626
1265 2350
1273 619
1275 2352
1282 614
1285 2352
1287 604
1289 587
1295 2352
1297 579
1305 571
1305 2350
1314 2355
1315 566
1324 2355
1325 564
1330 2363
1334 559
1340 2367
1343 554
1350 2370
1353 554
1355 2360
1360 2350
1362 559
1369 567
1369 2345
1377 574
1378 2340
1384 582
1387 2345
1390 590
1395 599
1396 2350
1400 608
1400 618
1400 628
1404 2356
1405 637
1409 647
1411 2364
1417 654
1421 2368
1424 662
1431 2370
1432 669
1441 674
1441 2370
1450 2365
1451 674
1460 2365
1461 674
1469 681
1470 2365
1475 689
1480 2365
1483 695
1485 705
1490 714
1490 724
1490 2365
1495 733
1500 742
1500 2360
1507 750
1510 2350
1512 759
1519 767
1519 2345
1524 776
1528 2350
1530 784
1535 793
1538 2350
1540 802
1548 2350
1549 807
1554 816
1558 2350
1560 824
1568 830
1568 2350
1575 838
1575 2358
1583 845
1585 2362
1590 853
1595 2360
1598 860
1603 2353
1605 868
1610 2345
1615 872
1619 2340
1624 877
1629 2340
1634 881
1638 2345
1643 886
1647 2350
1648 895
1655 903
1655 2357
1660 912
1660 922
1660 932
1660 942
1664 2362
1670 942
1674 2365
1677 950
1684 2365
1685 957
1690 966
1693 2360
1695 975
1700 984
1702 2355
1705 993
1710 1002
1712 2355
1714 1012
1722 1019
1722 2359
1725 1029
1732 2354
1733 1035
1735 2330
1735 2340
1740 1043
1744 2325
1745 1052
1750 1061
1750 1071
1750 1081
1750 1091
1754 2325
1756 1099
1763 2330
1764 1106
1773 1111
1773 2330
1782 2335
1783 1114
1792 2335
1793 1115
1800 1123
1802 2335
1810 1127
1812 2339
1814 1137
1815 1147
1820 1156
1822 2340
1823 1166
1828 1175
1831 2345
1835 1183
1840 1192
1840 2340
1847 1200
1850 2335
1852 1209
1855 1219
1859 2330
1860 1228
1860 1238
1865 1247
1868 2325
1869 1257
1877 1264
1877 2330
1886 1269
1886 2335
1890 1300
1890 1310
1890 1320
1894 1276
1894 2341
1895 1329
1900 1300
1900 1338
1903 1281
1904 2345
1910 1289
1910 1300
1910 1342
1910 1370
1913 2350
1915 1351
1915 1379
1915 1389
1918 1363
1923 1345
1923 1395
1923 2350
1926 1369
1927 1405
1930 2315
1930 2340
1933 1345
1935 2324
1936 1370
1937 1355
1937 1409
1940 2315
1944 1417
1945 1362
1950 2317
1954 1421
1960 1429
1960 2315
1968 1435
1970 2310
1972 1445
1980 1452
1980 2310
1985 1461
1990 1470
1990 2310
1995 1479
1995 1489
1995 1499
1995 1509
1995 1519
2000 2310
2003 1525
2009 2315
2010 1533
2015 1542
2019 2315
2022 1550
2028 2320
2030 1557
2037 1565
2038 2318
2042 1574
2045 1584
2048 2318
2053 1590
2055 1655
2055 1665
2058 2318
2060 1598
2060 1674
2065 1607
2065 1655
2068 2318
2069 1679
2072 1615
2075 1655
2077 1685
2078 2313
2080 1622
2085 1631
2085 1655
2085 2305
2087 1689
2090 1640
2095 2300
2096 1694
2105 1699
2105 2300
2110 1708
2115 2300
2118 1715
2125 1723
2125 1733
2125 2300
2130 1742
2135 1751
2135 2295
2140 1760
2140 1790
2140 1800
2140 2285
2142 1810
2145 1769
2145 1780
2147 1819
2149 2280
2154 1827
2159 2280
2160 1835
2165 1844
2168 2285
2173 1850
2177 1860
2178 2285
2180 1870
2180 1885
2185 1894
2185 1904
2187 2290
2190 1913
2195 1922
2197 2294
2199 1932
2200 1942
2205 1951
2207 2294
2210 1960
2212 1970
2215 1980
2215 1990
2217 2000
2217 2289
2220 2010
2220 2250
2220 2260
2222 2270
2222 2280
2225 2019
2230 2028
2230 2250
2238 2035
2239 2255
2240 2065
2240 2075
2240 2085
2242 2045
2245 2055
2245 2094
2245 2263
2253 2100
2255 2267
2257 2110
2260 2120
2260 2130
2260 2140
2262 2275
2265 2149
2270 2158
2272 2275
2275 2210
2280 2162
2280 2200
2280 2219
2282 2274
2285 2228
2289 2167
2289 2195
2292 2270
2293 2235
2299 2169
2299 2195
2300 2243
2301 2265
2308 2200
2308 2250
2309 2171
2311 2265
2315 2179
2317 2205
2323 2185
2325 2195
