14 1282
19 1262
22 1289
24 1279
27 1254
29 1265
30 1295
37 1249
39 1300
47 1249
49 1300
57 1244
58 1305
67 1239
67 1310
77 1234
77 1314
87 1234
87 1315
97 1229
97 1319
107 1229
107 1320
117 1229
117 1320
126 1224
126 1325
135 1219
135 1330
145 1219
145 1330
154 1214
154 1335
164 1214
164 1335
174 1212
174 1335
183 1340
184 1207
192 1345
194 1204
202 1345
204 1202
211 1350
214 1199
221 1350
224 1197
230 1355
234 522
234 1194
234 2027
239 531
239 2012
240 1355
244 519
244 540
244 1192
244 2002
244 2030
247 550
249 1360
254 521
254 1189
254 1997
254 2027
257 554
259 1360
259 1987
261 564
264 524
264 1187
264 1977
264 2025
266 573
268 1365
269 1967
270 583
274 526
274 1184
274 2022
277 1959
278 590
278 1365
282 600
282 1949
283 1179
284 529
284 2020
287 1370
290 607
290 1941
293 1179
294 531
294 617
294 2017
295 1931
297 1370
299 626
300 1921
303 1179
304 534
304 2015
307 1374
309 630
310 1916
312 1174
314 536
314 639
314 2012
315 1906
317 1375
319 648
320 1896
322 1169
323 541
324 2007
326 1380
327 655
329 1887
332 664
332 1169
333 544
334 2005
336 1383
337 1879
340 670
341 1164
343 544
344 2005
345 1388
345 1871
346 678
350 688
350 1159
350 1861
352 549
353 2000
355 1390
358 695
358 1854
360 1159
361 554
362 1995
365 703
365 1392
365 1846
369 1154
370 559
370 712
370 1836
371 1990
374 1397
378 1149
379 717
380 559
380 1831
381 1990
384 726
384 1400
385 1821
387 1144
390 562
390 1985
391 734
393 1405
393 1814
396 743
397 1144
397 1804
399 567
400 1980
402 1410
405 748
406 1139
407 1799
409 571
410 757
410 1975
412 1414
412 1789
415 1134
417 765
418 576
420 1781
420 1970
422 1415
424 773
425 1131
425 1771
428 579
429 782
430 1970
431 1420
433 1764
435 1129
437 789
438 580
440 1756
440 1965
441 1420
444 797
445 1126
447 585
448 1749
449 806
449 1737
450 1425
450 1960
454 815
455 1124
457 589
457 1729
460 823
460 1427
460 1955
464 1119
464 1717
465 832
466 594
470 1430
470 1955
472 840
472 1709
474 1119
476 594
477 849
477 1699
480 1430
480 1950
481 859
482 1689
484 1119
485 599
489 865
490 1432
490 1681
490 1945
493 605
493 1114
494 874
495 1671
499 883
499 1940
500 1435
500 1661
503 609
503 1114
504 892
508 1654
509 1940
510 1435
512 899
513 610
513 1114
514 1642
516 909
518 1935
520 1435
522 1634
523 614
523 1114
524 915
528 1933
530 923
530 1435
530 1626
532 619
533 1114
538 930
538 1619
538 1928
540 1435
541 624
543 1114
545 938
545 1611
548 1925
550 1435
551 624
553 945
553 1114
553 1604
557 1920
560 629
560 1435
562 950
562 1599
563 1114
566 1915
569 634
570 957
570 1435
570 1591
573 1114
576 1915
577 965
578 1584
579 634
580 1435
583 1114
585 972
585 1576
585 1910
588 639
590 1435
592 980
593 1114
593 1569
595 1910
598 639
600 1435
602 984
602 1564
603 1114
605 1905
607 644
610 990
610 1435
611 1559
613 1114
615 1905
617 644
619 995
619 1552
620 1435
623 1114
624 1900
626 649
628 1000
629 1542
630 1435
632 1010
633 1114
634 1900
636 649
639 1537
640 1435
642 1014
643 1114
643 1895
645 654
649 1532
650 1435
651 1019
653 1114
653 1895
655 654
657 1524
659 1025
660 1430
662 1119
663 1893
665 657
667 1519
668 1030
670 1430
672 1119
673 1890
675 659
677 1035
677 1514
680 1430
682 1119
682 1885
684 664
685 1042
685 1506
690 1430
691 1880
692 1119
693 669
694 1047
695 1501
700 1430
701 1880
702 1119
703 670
704 1050
705 1496
710 1058
710 1425
710 1875
711 1124
712 675
713 1489
719 1870
720 1062
720 1425
721 1124
722 679
722 1484
727 1864
729 687
729 1067
730 1425
731 1124
732 1479
737 1860
739 689
739 1070
740 1425
741 1124
742 1474
746 1855
747 695
748 1075
750 1425
751 1124
752 1469
755 1083
755 1850
757 699
760 1129
760 1420
761 1464
763 1843
764 707
765 1087
770 1129
770 1420
770 1459
773 1838
774 711
774 1092
779 1454
780 719
780 1129
780 1420
780 1830
784 1095
788 1449
790 722
790 1103
790 1129
790 1420
790 1825
797 1444
798 729
799 1134
799 1415
799 1820
800 1107
805 737
805 1810
806 1439
809 1134
809 1415
810 1110
814 742
815 1805
816 1435
819 1115
819 1134
819 1415
822 749
824 1429
824 1800
828 1120
829 1130
829 1415
831 754
833 1795
840 759
840 1785
845 768
849 1780
855 772
855 1770
862 780
865 1765
869 87
869 97
869 107
869 117
869 127
869 137
869 147
869 157
869 167
869 177
869 187
869 197
869 207
869 217
869 227
869 2317
869 2327
869 2337
869 2347
869 2357
869 2367
869 2377
869 2387
869 2397
869 2407
869 2417
869 2427
869 2437
869 2447
869 2457
870 787
874 52
874 62
874 72
874 236
874 246
874 256
874 266
874 276
874 286
874 296
874 482
874 492
874 502
874 512
874 522
874 532
874 1760
874 2017
874 2027
874 2037
874 2047
874 2057
874 2067
874 2247
874 2257
874 2267
874 2277
874 2287
874 2297
874 2307
874 2466
874 2476
874 2486
874 2496
879 305
879 315
879 325
879 335
879 345
879 355
879 365
879 375
879 385
879 395
879 405
879 415
879 425
879 435
879 445
879 455
879 465
879 541
879 551
879 561
879 792
879 1982
879 1992
879 2002
879 2076
879 2086
879 2096
879 2106
879 2116
879 2126
879 2136
879 2146
879 2156
879 2166
879 2176
879 2186
879 2196
879 2206
879 2216
879 2226
879 2236
880 1750
884 51
884 570
884 580
884 590
884 1957
884 1967
884 2497
887 799
888 61
889 599
889 609
889 1937
889 1947
889 2487
890 1745
894 618
894 807
894 1922
895 69
895 628
895 1735
895 2475
899 638
899 1902
899 1912
900 78
900 648
902 814
904 1892
904 2470
905 657
905 1730
909 667
909 677
909 822
909 1872
909 1882
910 82
910 2460
914 92
914 686
914 1725
914 1862
918 2453
919 695
919 705
919 826
919 1842
919 1852
920 100
920 1715
923 836
924 714
924 1832
924 2445
928 106
929 723
929 1710
929 1822
930 2435
933 115
933 840
934 732
934 1812
937 1704
938 2428
939 741
939 751
939 1792
939 1802
940 123
940 848
942 1695
943 2418
944 760
944 1782
945 132
947 770
948 855
949 1772
949 2410
951 1690
952 140
952 779
954 1762
955 863
955 2400
956 789
957 149
959 1682
959 1752
960 159
960 872
960 2390
961 798
965 168
965 2380
967 1674
967 1744
969 805
969 815
969 877
969 1727
972 825
974 1717
975 172
975 1665
975 2375
977 834
977 884
980 181
980 2365
982 1709
983 1658
984 842
984 852
984 892
984 1692
985 190
985 2355
989 861
990 199
990 2345
992 1684
993 1655
994 870
994 894
995 208
995 2335
997 1674
999 879
999 1663
1003 215
1005 2325
1007 225
1010 2315
1012 234
1018 2308
1019 242
1023 2298
1024 251
1028 261
1028 2288
1033 270
1033 2278
1040 278
1040 2265
1045 287
1048 2258
1050 296
1053 2248
1056 304
1060 314
1060 2235
1068 320
1068 2228
1075 328
1075 2215
1080 337
1083 2208
1085 346
1088 2198
1091 354
1095 2190
1099 361
1100 2180
1103 371
1108 2173
1110 379
1115 388
1115 2160
1123 394
1124 2155
1130 402
1130 2145
1137 410
1138 2138
1142 419
1144 2130
1150 425
1150 2120
1155 434
1158 2113
1160 443
1163 2103
1165 452
1168 2093
1170 461
1173 2083
1176 469
1180 479
1180 2065
1180 2075
1185 488
1188 2058
1190 497
1190 507
1190 2040
1197 515
1198 2033
1200 525
1200 2015
1202 535
1208 2008
1210 542
1210 552
1210 1990
1214 562
1215 572
1215 1970
1215 1980
1219 582
1220 592
1220 1950
1220 1960
1224 602
1225 1940
1229 611
1230 621
1230 1920
1230 1930
1233 631
1235 641
1235 651
1235 1895
1235 1905
1240 660
1240 670
1240 1875
1240 1885
1245 679
1245 689
1245 1855
1245 1865
1250 698
1250 708
1250 718
1250 1825
1250 1835
1250 1845
1255 727
1255 737
1255 1805
1255 1815
1259 747
1260 757
1260 767
1260 1780
1260 1790
1265 776
1265 786
1265 796
1265 1755
1265 1765
1270 1745
1271 804
1279 797
1280 1745
1284 772
1284 782
1284 1755
1284 1765
1284 1775
1289 747
1289 757
1289 1784
1289 1794
1291 1804
1294 727
1294 737
1294 1814
1296 1824
1299 697
1299 707
1299 717
1299 1834
1299 1844
1301 1854
1304 677
1304 687
1304 1864
1306 1874
1309 657
1309 667
1309 1884
1311 1894
1314 632
1314 642
1314 1904
1314 1914
1319 612
1319 622
1319 1923
1319 1933
1324 602
1324 1942
1329 582
1329 592
1329 1951
1329 1961
1334 562
1334 572
1334 1970
1334 1980
1337 1990
1339 542
1339 552
1339 2000
1342 2010
1347 534
1349 517
1349 2018
1349 2028
1354 2037
1357 509
1359 492
1359 2046
1359 2056
1366 2064
1367 484
1369 472
1369 2074
1375 2082
1377 464
1379 2092
1382 454
1384 2101
1387 444
1389 2110
1392 434
1395 2118
1399 422
1400 2127
1409 412
1409 2132
1414 2141
1417 404
1419 2150
1422 394
1428 2155
1432 389
1434 2163
1437 379
1439 2172
1445 371
1447 2179
1450 361
1451 2189
1458 354
1459 2195
1464 342
1464 2204
1470 2212
1472 334
1474 2222
1477 324
1482 2229
1485 316
1489 2237
1490 306
1494 2246
1498 299
1499 2255
1502 289
1505 2263
1509 277
1510 2272
1517 269
1517 2280
1522 259
1522 2289
1526 2299
1527 249
1531 2308
1532 239
1539 227
1539 2315
1542 2325
1544 217
1547 2334
1550 875
1550 885
1550 1655
1550 1665
1552 1675
1554 207
1554 2342
1555 865
1555 894
1557 1684
1559 197
1559 2351
1560 1655
1563 858
1564 187
1564 1692
1564 2360
1565 840
1565 891
1565 1702
1569 177
1569 1660
1569 1712
1569 2369
1573 833
1573 884
1575 1668
1575 1720
1575 2377
1577 169
1578 823
1580 805
1580 876
1580 1729
1580 1739
1583 1675
1584 2382
1585 161
1585 1748
1588 798
1589 867
1589 2391
1590 151
1590 1683
1590 1757
1593 788
1594 2400
1595 141
1595 1766
1597 859
1597 2410
1598 778
1598 1690
1600 1775
1603 768
1604 132
1605 1784
1605 2417
1606 854
1607 1695
1608 758
1609 122
1609 2427
1610 740
1610 1793
1610 1803
1611 845
1612 1704
1615 730
1615 1812
1617 114
1617 2434
1619 839
1619 1822
1620 720
1620 1710
1621 2444
1622 104
1624 1831
1625 710
1628 834
1628 1841
1629 1715
1629 2450
1630 96
1630 690
1630 700
1630 1851
1632 824
1632 1725
1633 1861
1635 680
1635 2458
1638 89
1638 1870
1640 660
1640 670
1640 1880
1640 2467
1642 79
1642 819
1642 1729
1642 1890
1645 650
1647 1899
1649 2472
1650 630
1650 640
1650 1735
1650 1909
1650 1919
1651 814
1652 74
1654 2481
1655 615
1655 1928
1656 805
1656 1743
1657 64
1660 595
1660 605
1660 1937
1660 1947
1661 2489
1664 52
1664 799
1664 1750
1664 1957
1665 570
1665 580
1665 1967
1665 1977
1666 2498
1670 305
1670 315
1670 325
1670 335
1670 345
1670 355
1670 365
1670 375
1670 385
1670 395
1670 405
1670 415
1670 425
1670 435
1670 445
1670 455
1670 465
1670 475
1670 535
1670 545
1670 555
1670 791
1670 1758
1670 1986
1670 1996
1670 2006
1670 2070
1670 2080
1670 2090
1670 2100
1670 2110
1670 2120
1670 2130
1670 2140
1670 2150
1670 2160
1670 2170
1670 2180
1670 2190
1670 2200
1670 2210
1670 2220
1670 2230
1670 2240
1673 2016
1674 51
1675 61
1675 71
1675 81
1675 235
1675 245
1675 255
1675 265
1675 275
1675 285
1675 295
1675 484
1675 494
1675 504
1675 514
1675 524
1675 2026
1675 2036
1675 2046
1675 2056
1675 2249
1675 2259
1675 2269
1675 2279
1675 2289
1675 2299
1675 2309
1675 2465
1675 2475
1675 2485
1680 90
1680 100
1680 110
1680 120
1680 130
1680 140
1680 150
1680 160
1680 170
1680 180
1680 190
1680 200
1680 210
1680 220
1680 786
1680 1762
1680 2318
1680 2328
1680 2338
1680 2348
1680 2358
1680 2368
1680 2378
1680 2388
1680 2398
1680 2408
1680 2418
1680 2428
1680 2438
1680 2448
1687 1770
1688 779
1695 771
1695 1777
1704 1782
1705 766
1709 1791
1710 756
1719 1795
1720 751
1720 1120
1720 1130
1720 1415
1720 1425
1728 1431
1728 1800
1730 746
1730 1115
1730 1134
1730 1415
1735 1439
1735 1808
1738 739
1739 1110
1740 1134
1740 1415
1744 1813
1745 731
1745 1439
1749 1107
1750 1134
1750 1415
1752 1820
1754 1444
1755 726
1759 1102
1759 1129
1759 1420
1760 1827
1762 1450
1763 719
1767 1095
1769 1129
1769 1420
1769 1832
1772 714
1772 1454
1776 1090
1777 1839
1779 1129
1779 1420
1781 709
1781 1459
1785 1085
1786 1844
1789 702
1789 1127
1789 1420
1790 1464
1794 1850
1795 1080
1798 1425
1798 1470
1799 697
1799 1124
1803 1855
1804 1075
1807 689
1807 1475
1808 1425
1809 1124
1812 1860
1813 1070
1817 689
1817 1479
1818 1425
1819 1124
1822 1065
1822 1864
1825 681
1826 1484
1828 1425
1829 1124
1830 1870
1831 1060
1835 676
1835 1489
1838 1425
1839 1122
1839 1875
1840 1055
1843 1495
1845 671
1847 1430
1848 1880
1849 1050
1849 1119
1852 1500
1855 669
1857 1430
1858 1045
1858 1880
1859 1119
1862 1504
1864 664
1865 1035
1865 1514
1867 1430
1867 1885
1869 1119
1873 659
1875 1030
1875 1517
1876 1890
1877 1430
1879 1119
1883 659
1884 1522
1885 1025
1886 1893
1887 1430
1889 1117
1892 654
1894 1526
1895 1020
1896 1435
1896 1895
1899 1114
1900 1534
1902 654
1904 1015
1906 1435
1906 1895
1909 1114
1910 1537
1912 649
1913 1010
1915 1900
1916 1435
1919 1114
1919 1542
1920 1000
1922 649
1925 1900
1926 1435
1927 1549
1929 1114
1930 995
1932 644
1934 1557
1934 1905
1936 1435
1939 990
1939 1114
1942 644
1944 1561
1944 1905
1946 1435
1947 984
1949 1114
1950 1569
1951 639
1953 1910
1956 1435
1957 979
1959 1114
1960 1572
1961 639
1963 1910
1965 965
1965 1581
1966 1435
1969 1114
1970 634
1972 1915
1974 1586
1975 960
1976 1435
1979 1114
1980 634
1980 1594
1982 1915
1983 953
1986 1435
1989 629
1989 1114
1989 1599
1991 1920
1993 948
1996 1435
1997 1605
1998 624
1999 1114
2000 940
2000 1925
2005 1612
2006 1435
2008 624
2008 933
2009 1114
2010 1927
2012 1620
2015 925
2016 1435
2017 619
2019 1114
2019 1932
2020 1627
2023 918
2026 614
2026 1435
2027 1635
2029 1114
2029 1935
2030 910
2035 900
2035 1642
2036 610
2036 1435
2038 1940
2039 1114
2039 1652
2043 893
2046 609
2046 1435
2047 1659
2048 1940
2049 1114
2050 880
2050 1669
2055 870
2055 1678
2056 605
2056 1435
2057 1945
2059 1116
2063 863
2063 1685
2064 599
2065 1430
2066 1950
2069 1119
2070 850
2070 1693
2073 594
2075 840
2075 1430
2075 1702
2075 1955
2079 1119
2079 1712
2083 594
2083 833
2085 1430
2085 1720
2085 1955
2088 823
2089 1121
2090 1729
2092 589
2094 1425
2094 1960
2095 815
2098 1735
2099 1124
2100 800
2100 1745
2102 584
2103 1965
2104 1422
2105 1754
2108 793
2108 1129
2112 579
2112 1970
2113 1760
2114 1420
2115 785
2118 1129
2120 1768
2122 579
2122 1970
2123 778
2124 1417
2125 1777
2127 1134
2128 768
2132 574
2132 1785
2132 1974
2134 1415
2135 760
2137 1134
2140 750
2140 1792
2141 1979
2142 569
2143 1410
2144 1802
2146 1139
2149 745
2151 1983
2152 564
2152 1405
2154 1806
2155 735
2155 1144
2158 1816
2160 1988
2162 559
2162 1404
2163 728
2165 1147
2165 1824
2168 718
2170 1833
2170 1990
2172 559
2172 1399
2174 1152
2178 713
2180 1837
2180 1992
2182 554
2182 1394
2183 703
2184 1156
2184 1847
2189 695
2189 1997
2192 549
2192 1390
2192 1854
2194 1159
2197 689
2199 1862
2199 2000
2202 544
2202 679
2202 1389
2204 1161
2204 1871
2207 670
2208 2005
2210 1879
2212 544
2212 1384
2213 1166
2216 665
2218 1885
2218 2005
2220 655
2222 544
2222 1380
2223 1169
2223 1894
2227 2010
2230 645
2230 1902
2231 539
2231 1375
2232 1174
2235 635
2235 1911
2237 2014
2240 534
2241 1375
2241 1919
2242 1174
2244 630
2247 2015
2250 534
2250 620
2250 1370
2250 1924
2251 1179
2255 610
2255 1933
2257 2019
2259 529
2260 600
2260 1370
2260 1942
2261 1179
2267 1950
2267 2020
2269 529
2270 590
2270 1184
2270 1365
2272 1959
2277 2024
2278 524
2278 583
2279 1967
2280 1184
2280 1365
2283 573
2284 1976
2287 2025
2288 524
2288 563
2288 1986
2289 1189
2289 1360
2293 553
2293 1995
2297 519
2297 2029
2299 1189
2299 1360
2302 2000
2303 548
2307 519
2307 2009
2307 2030
2308 538
2308 1194
2308 1355
2310 2019
2318 1194
2318 1355
2327 1199
2327 1350
2337 1199
2337 1350
2346 1204
2346 1345
2356 1204
2356 1345
2365 1209
2365 1340
2375 1212
2375 1335
2385 1214
2385 1335
2395 1214
2395 1335
2404 1219
2404 1330
2414 1219
2414 1330
2423 1224
2423 1325
2432 1229
2432 1320
2442 1229
2442 1320
2452 1229
2452 1319
2461 1234
2462 1315
2471 1234
2472 1314
2480 1239
2482 1309
2489 1244
2492 1304
2498 1249
2502 1300
2508 1249
2512 1299
2517 1254
2522 1294
2525 1275
2526 1259
2535 1264
