319 2222
319 2307
324 2231
324 2297
329 2219
329 2240
329 2287
329 2310
335 2248
337 2279
339 2219
339 2267
339 2310
340 2257
348 2305
349 2217
357 2300
359 2212
367 2300
369 2207
377 2199
377 2300
382 2189
387 2304
389 2177
396 2309
399 2172
404 2117
404 2127
406 2313
407 2164
409 2136
409 2146
410 2295
412 2109
412 2305
415 2285
420 2101
425 2285
430 2099
434 2072
434 2082
435 2287
442 2064
444 2292
452 2064
454 2295
460 2056
463 2300
464 2002
464 2012
464 2022
468 2049
469 2031
472 1994
473 2300
482 1994
483 2300
492 1994
492 2295
502 1994
502 2295
504 1952
504 1962
504 1972
504 1982
509 1942
512 2299
519 1937
521 2304
529 1936
531 2305
534 1897
534 1907
539 1916
539 1939
540 2310
542 1889
544 1925
548 1944
550 1881
550 1933
550 2310
558 1874
560 2310
567 1869
570 2310
574 1837
574 1847
574 1857
579 1822
580 2310
584 1812
590 2310
592 1804
598 2303
600 1796
608 1789
608 2300
612 1779
617 1769
618 2300
619 1747
619 1757
628 2300
629 1742
637 2305
639 1732
644 1682
647 1724
647 2309
649 1672
649 1691
649 1701
649 1711
657 1664
657 2309
660 2290
666 1669
669 2285
676 1669
679 2285
686 1665
688 2290
691 1655
694 1577
694 1587
694 1642
697 2295
699 1596
699 1606
699 1622
699 1632
702 1569
707 2299
711 1574
717 2300
721 1574
727 2300
731 1574
736 2295
739 1527
739 1537
739 1547
739 1557
739 1567
746 2295
747 1519
756 2295
757 1519
765 2300
766 1524
774 1462
774 1472
774 2305
776 1524
779 1481
779 1491
782 1454
783 2310
784 1500
786 1520
789 1509
790 1446
793 2310
800 1444
803 2310
809 1449
813 2310
818 1454
819 1422
823 2310
824 1431
827 1414
828 1454
829 1440
833 2310
836 1419
842 2305
846 1419
851 2300
855 1424
861 2300
864 1332
864 1429
869 1322
871 2300
874 1302
874 1312
874 1335
874 1429
879 1292
881 2303
883 1340
884 1429
887 1284
889 1247
889 1257
889 1267
890 2308
892 1345
893 1424
897 1239
900 2312
901 1350
902 1419
905 2295
907 1239
908 2305
909 1356
910 1880
910 2285
912 1419
915 1889
917 1234
919 1360
920 1898
920 2285
921 1424
925 1887
925 1907
927 1229
928 1365
930 1429
930 1916
930 2287
932 1895
935 1221
935 1925
935 1960
935 1970
938 1363
939 2292
940 1429
940 1934
940 1944
942 1899
943 1214
944 1152
944 1162
944 1172
945 1971
948 1358
949 1181
949 1191
949 1202
949 2295
950 1429
952 1144
952 1899
953 1964
955 1350
958 2300
959 1434
960 1956
961 1139
962 1894
965 1350
968 2300
969 1132
969 1434
970 1959
972 1890
975 1345
977 1124
978 1439
978 2300
980 1962
982 1890
983 1338
987 1119
987 2295
988 1440
989 1330
989 1967
992 1890
996 1114
997 1974
997 2295
998 1325
998 1444
1002 1889
1004 1107
1006 1969
1007 1330
1007 1439
1007 2299
1009 1097
1012 1889
1014 1087
1014 1962
1015 1431
1016 2304
1017 1330
1019 1077
1022 1889
1022 1954
1023 1425
1024 1037
1024 1047
1024 1057
1024 1067
1026 1335
1026 2305
1029 987
1029 997
1029 1007
1029 1017
1029 1027
1032 1890
1032 1954
1033 1425
1035 1340
1035 2310
1038 1434
1039 984
1041 1959
1042 1890
1045 1340
1045 1442
1045 2310
1049 984
1050 1964
1052 1890
1054 1447
1055 1342
1055 2310
1058 989
1058 1970
1062 1454
1062 1890
1064 917
1064 927
1065 1345
1065 2310
1067 1975
1068 989
1069 936
1069 1427
1069 1437
1071 1459
1072 1890
1074 914
1074 945
1074 1446
1075 1347
1075 1982
1075 2310
1077 1419
1078 989
1080 953
1082 1894
1084 914
1084 963
1084 973
1084 1987
1085 1350
1085 2310
1086 1424
1091 1899
1093 2303
1094 916
1094 1989
1095 1350
1096 1424
1101 1903
1103 2300
1104 919
1104 1987
1105 1345
1105 1429
1109 862
1111 1905
1112 1979
1113 914
1113 2300
1114 852
1114 871
1114 881
1114 1340
1115 1432
1119 890
1119 900
1120 1900
1121 1974
1123 2300
1124 849
1124 1340
1125 1434
1125 1870
1125 1880
1125 1890
1130 1969
1132 2305
1134 851
1134 1340
1134 1865
1135 1431
1139 1964
1142 2309
1143 856
1143 1345
1144 1865
1145 1429
1149 807
1149 817
1149 1964
1150 1353
1152 2309
1153 859
1153 1870
1154 826
1154 1424
1155 2290
1157 799
1159 835
1159 1964
1160 1357
1160 1878
1162 864
1164 1426
1164 2285
1165 791
1165 843
1167 1365
1168 1885
1169 853
1169 1966
1174 1429
1174 2285
1175 789
1175 1893
1177 1365
1178 1971
1183 2290
1184 1431
1185 787
1185 1897
1187 1364
1188 1970
1192 2295
1194 747
1194 757
1194 767
1194 1434
1195 784
1195 1355
1195 1900
1197 1964
1199 737
1202 2299
1204 727
1204 1434
1204 1895
1205 1350
1206 1959
1209 707
1209 717
1212 2300
1214 692
1214 1436
1214 1892
1215 1350
1216 1959
1222 684
1222 2300
1223 1441
1224 1890
1225 1345
1226 1959
1230 1335
1231 679
1231 2295
1233 1444
1234 1890
1234 1966
1239 1330
1241 675
1241 2295
1243 1444
1243 1971
1244 1890
1248 1325
1249 662
1251 2295
1253 1444
1253 1969
1254 637
1254 647
1254 1890
1257 1330
1260 1961
1260 2300
1262 629
1262 1439
1264 1890
1267 619
1267 1334
1269 2305
1270 1956
1271 1434
1274 607
1274 1890
1277 1335
1278 2310
1279 587
1279 597
1280 1439
1280 1954
1284 577
1284 1890
1286 1340
1288 2310
1289 1959
1290 965
1290 1442
1292 569
1294 487
1294 497
1294 1890
1295 974
1296 1340
1297 1450
1298 1964
1298 2310
1299 506
1299 960
1300 561
1303 980
1304 484
1304 1890
1305 1457
1306 514
1306 1343
1307 1969
1308 2310
1309 960
1310 556
1310 988
1313 1464
1314 486
1314 520
1314 1890
1314 1977
1315 910
1316 1345
1317 530
1318 549
1318 965
1318 2310
1319 1432
1320 919
1320 992
1322 1469
1323 491
1324 1441
1324 1890
1324 1981
1325 910
1325 928
1326 1348
1327 1424
1328 965
1328 999
1328 2310
1329 1450
1329 1460
1330 937
1333 494
1333 1895
1333 1986
1334 915
1336 1350
1337 945
1337 1004
1337 1424
1337 2305
1338 963
1342 1900
1343 494
1343 1989
1344 915
1346 1350
1346 1429
1346 2300
1347 1004
1350 486
1352 1904
1352 1984
1353 920
1354 437
1354 447
1355 476
1355 1345
1355 1434
1356 2300
1357 1004
1359 456
1359 466
1362 925
1362 1905
1362 1979
1364 434
1364 1340
1365 996
1365 1434
1366 2300
1370 1971
1371 1900
1372 924
1374 434
1374 1340
1375 991
1375 1434
1375 1870
1375 1880
1375 1890
1376 2303
1380 915
1380 1966
1384 377
1384 387
1384 397
1384 432
1384 1340
1384 1865
1385 890
1385 900
1385 989
1385 1434
1385 2308
1389 406
1390 1348
1390 1961
1392 369
1392 424
1394 984
1394 1865
1395 890
1395 1431
1395 2312
1399 377
1400 387
1400 1352
1400 1873
1400 1961
1400 2295
1403 2305
1404 895
1404 984
1405 396
1405 1429
1405 2285
1407 1360
1408 1880
1410 405
1410 903
1410 1964
1413 989
1415 414
1415 1432
1415 2285
1417 1364
1417 1885
1418 910
1420 1967
1423 420
1423 990
1425 918
1425 1434
1425 1892
1425 2287
1427 430
1427 1365
1430 1969
1432 1900
1433 994
1434 2292
1435 920
1435 1434
1436 1360
1437 434
1440 1966
1442 1900
1443 994
1444 442
1444 925
1444 1439
1444 2295
1445 1355
1448 1959
1451 1895
1452 449
1452 989
1453 2300
1454 925
1454 1350
1454 1439
1457 1954
1460 981
1461 454
1461 1895
1463 2300
1464 925
1464 1350
1464 1441
1466 1959
1469 461
1470 505
1470 982
1470 1890
1472 515
1472 1344
1473 2300
1474 927
1474 1444
1475 469
1476 1959
1477 990
1480 478
1480 488
1480 498
1480 522
1480 1330
1480 1890
1482 999
1482 2295
1483 1449
1484 922
1484 1966
1487 530
1490 1005
1490 1325
1490 1890
1492 914
1492 2295
1493 1449
1494 1969
1495 537
1495 1014
1499 1330
1500 1890
1502 545
1502 910
1502 1444
1502 2299
1503 1964
1505 1014
1509 982
1509 992
1509 1002
1509 1330
1510 552
1510 1890
1511 2304
1512 910
1512 1439
1512 1959
1517 560
1517 974
1518 1335
1520 1890
1521 1954
1521 2305
1522 569
1522 910
1522 1439
1525 579
1525 589
1526 969
1527 1340
1530 598
1530 1892
1530 2310
1531 1444
1531 1954
1532 914
1535 974
1537 1340
1538 605
1540 1449
1540 1890
1540 1959
1540 2310
1542 914
1545 613
1545 655
1545 665
1545 977
1547 1340
1548 1455
1548 1965
1549 1895
1550 674
1550 2310
1552 910
1553 984
1555 617
1555 655
1555 683
1555 1463
1556 1345
1557 1970
1558 1890
1560 2310
1562 910
1562 989
1563 624
1564 650
1565 687
1565 1467
1565 1977
1566 1345
1568 1890
1569 997
1570 2310
1572 629
1572 695
1572 910
1573 655
1573 1474
1573 1984
1574 1432
1575 639
1575 1350
1577 1895
1579 1001
1579 1441
1579 1451
1580 2310
1581 915
1582 699
1582 1469
1582 1989
1584 1429
1585 1352
1586 1900
1588 2303
1589 1004
1591 704
1591 918
1592 1989
1594 1431
1595 1350
1596 1903
1598 2300
1599 711
1599 1004
1600 923
1601 1984
1603 1343
1603 1436
1605 1908
1608 716
1608 999
1608 2300
1609 1977
1610 925
1613 1340
1613 1439
1615 724
1615 1905
1617 994
1617 1969
1618 2300
1620 733
1620 925
1620 1895
1623 1340
1623 1439
1625 1870
1625 1880
1626 1964
1627 989
1627 2305
1628 740
1630 915
1632 750
1632 1345
1633 1439
1634 1865
1635 895
1635 905
1636 1960
1637 759
1637 989
1637 2309
1640 769
1642 1349
1642 1434
1643 1870
1645 800
1645 810
1645 897
1646 1960
1647 820
1647 984
1647 2309
1648 775
1650 785
1650 1355
1650 1878
1650 2290
1652 1434
1654 902
1655 827
1656 989
1656 1964
1659 837
1659 1360
1659 2285
1660 1882
1662 909
1662 1434
1666 989
1666 1964
1667 844
1667 1890
1668 1365
1669 917
1669 2285
1671 1439
1674 852
1675 994
1675 1897
1675 1969
1678 1365
1678 2290
1679 920
1680 860
1681 1439
1685 869
1685 994
1685 1900
1685 1966
1687 1359
1687 2295
1688 925
1691 1439
1693 875
1695 994
1695 1900
1695 1961
1697 885
1697 1354
1697 2299
1698 925
1700 895
1701 1439
1702 905
1703 1954
1704 987
1705 915
1705 1900
1707 1350
1707 2300
1710 1444
1713 1955
1714 984
1715 1895
1717 1349
1717 2300
1720 1447
1722 990
1722 1960
1725 1335
1725 1895
1726 2295
1729 1452
1730 997
1732 1964
1734 1330
1734 1890
1736 2295
1737 1005
1739 1454
1741 1969
1742 1014
1743 1325
1744 1890
1746 2295
1748 1449
1750 1020
1751 1965
1752 1330
1754 987
1754 1890
1755 1029
1755 2300
1757 1444
1759 996
1759 1006
1759 1959
1762 979
1762 1334
1764 1034
1764 1890
1764 2305
1767 1444
1768 1954
1769 987
1772 1335
1773 1895
1773 2310
1777 1444
1778 1955
1779 991
1779 1392
1779 1402
1779 1412
1781 1340
1783 1895
1783 2310
1785 999
1786 1349
1787 1419
1787 1444
1787 1960
1789 1359
1789 1387
1793 1005
1793 1895
1793 2310
1794 1368
1794 1378
1795 1425
1796 1439
1797 1015
1797 1964
1803 1895
1803 2310
1804 1430
1804 1972
1805 1022
1805 1032
1805 1042
1805 1052
1805 1062
1805 1444
1809 1072
1810 1082
1810 1092
1813 1895
1813 2310
1814 1102
1814 1976
1819 1111
1820 1984
1823 1121
1823 1895
1823 2310
1830 1129
1830 1139
1830 1984
1832 1900
1832 2305
1835 1148
1835 1158
1839 1989
1840 1167
1841 2300
1842 1904
1844 1177
1848 1984
1849 1186
1851 1909
1851 2300
1855 1194
1855 1976
1860 1966
1861 1905
1861 2300
1863 1200
1870 1208
1870 1875
1870 1885
1870 1895
1870 1964
1871 2303
1875 1217
1879 1870
1879 1959
1880 1226
1880 1236
1880 2308
1886 1244
1889 1870
1889 1959
1890 2312
1894 1251
1895 2295
1898 1875
1898 2305
1899 1956
1900 1259
1900 2285
1905 1883
1908 1961
1909 1264
1910 2285
1913 1890
1917 1270
1918 1964
1920 1898
1920 2287
1925 1277
1927 1969
1929 2292
1930 1286
1930 1902
1935 1961
1936 1294
1939 2295
1940 1304
1940 1905
1943 1954
1945 1313
1945 1323
1945 1333
1948 2300
1950 1900
1953 1340
1953 1954
1957 1350
1958 2300
1960 1900
1963 1955
1965 1357
1968 2300
1969 1895
1970 1366
1970 1400
1972 1960
1975 1375
1975 1385
1975 1409
1975 1419
1977 2295
1979 1895
1980 1428
1982 1964
1987 2295
1988 1435
1988 1890
1992 1964
1995 1443
1997 2299
1998 1890
2002 1959
2003 1449
2004 1432
2006 2304
2008 1890
2012 1954
2014 1429
2016 2305
2017 1895
2022 1954
2023 1434
2025 2310
2027 1895
2030 1442
2031 1959
2035 2310
2037 1450
2037 1895
2040 1460
2040 1964
2042 1470
2045 2310
2047 1479
2047 1895
2049 1969
2054 1487
2055 2310
2057 1895
2057 1975
2059 1496
2063 1506
2065 1535
2065 1545
2065 1555
2065 2310
2067 1895
2067 1979
2068 1515
2070 1525
2070 1564
2075 1573
2075 1583
2075 2310
2076 1984
2077 1899
2080 1592
2083 2303
2085 1601
2086 1904
2086 1985
2091 1609
2093 2300
2095 1619
2096 1908
2096 1980
2103 1625
2103 2300
2104 1972
2106 1910
2110 1633
2112 1964
2113 2300
2115 1905
2118 1640
2120 1875
2120 1885
2120 1895
2122 1959
2122 2305
2125 1648
2125 1658
2125 1668
2125 1678
2129 1870
2130 1687
2132 1959
2132 2309
2134 1697
2139 1870
2142 1704
2142 1959
2142 2309
2145 1878
2145 2290
2149 1712
2151 1964
2153 1885
2154 1721
2154 2285
2160 1729
2160 1893
2161 1964
2164 2285
2165 1738
2168 1900
2170 1747
2170 1969
2173 2290
2174 1757
2177 1905
2179 1964
2182 2295
2184 1761
2187 1905
2188 1959
2190 1769
2192 2299
2197 1904
2197 1954
2199 1774
2202 2300
2207 1780
2207 1900
2207 1954
2212 2300
2215 1787
2216 1895
2216 1959
2220 1796
2221 2295
2225 1805
2225 1964
2226 1895
2230 1814
2230 1824
2230 1834
2231 2295
2234 1969
2235 1843
2236 1895
2240 1852
2240 1862
2241 2295
2244 1962
2245 1871
2246 1893
2250 1880
2250 2300
2254 1957
2259 2305
2264 1954
2268 2310
2274 1954
2278 2310
2280 1962
2285 1971
2288 2310
2291 1979
2298 2310
2299 1986
2305 1994
2308 2310
2313 2000
2318 2310
2320 2008
2327 2305
2330 2012
2336 2300
2337 2020
2342 2029
2346 2300
2349 2037
2354 2046
2356 2300
2358 2056
2365 2064
2366 2303
2370 2073
2375 2308
2378 2080
2380 2090
2380 2100
2380 2110
2385 2119
2385 2312
2390 2128
2390 2295
2393 2305
2395 2137
2395 2285
2400 2146
2405 2285
2406 2154
2414 2161
2415 2287
2420 2169
2424 2292
2425 2178
2434 2295
2435 2182
2443 2189
2443 2300
2452 2194
2453 2300
2459 2202
2463 2300
2464 2211
2468 2221
2472 2295
2475 2229
2475 2239
2480 2248
2480 2258
2482 2295
2485 2267
2490 2276
2492 2299
2495 2285
2501 2294
