419 2272
419 2282
424 2262
429 2252
429 2285
434 2242
439 2232
439 2285
444 2217
449 2207
449 2285
454 2192
459 2182
459 2285
464 2167
469 2157
469 2285
474 2142
479 2132
479 2285
484 2117
489 2102
489 2285
494 2092
498 2280
499 2077
504 2062
508 2280
509 2047
514 2037
518 2280
519 2017
519 2027
524 2007
528 2280
529 1992
534 1977
538 2280
539 1962
544 1952
548 2280
549 1937
554 1922
558 2280
559 1907
564 1897
567 2275
569 1882
574 1867
577 2275
579 1852
584 1842
587 2275
589 1827
594 1817
597 2275
599 1802
604 1787
607 2275
609 1777
614 1762
617 2275
619 1752
624 1742
627 2274
629 1727
634 1717
637 2274
639 1707
644 1697
647 2270
649 1682
654 1672
657 2270
659 1662
664 1652
667 2270
669 1642
674 1627
677 2270
682 1619
684 1607
687 2270
689 1597
696 2265
697 1589
702 1579
706 2265
707 1569
712 1559
716 2265
717 1549
722 1539
726 2265
729 1527
734 1517
736 2265
739 1507
744 1497
746 2265
752 1489
756 2265
757 1479
764 1467
766 2265
769 1457
776 2263
777 1449
782 1439
786 2260
789 1427
796 2260
797 1419
804 1407
806 2260
812 1399
816 2260
817 1389
825 1381
826 2260
830 1371
836 2260
838 1364
844 1352
846 2260
852 1344
856 2260
860 1336
865 1326
866 2260
873 1319
876 2260
880 1311
886 2260
888 1304
894 1292
896 2260
902 1284
906 2260
910 1276
916 2260
918 1269
925 1261
926 2260
933 1254
936 2260
940 1246
946 2260
948 1239
955 1231
956 2260
963 1224
966 2260
970 1216
976 2260
978 1209
985 1201
986 2260
993 1194
996 2260
1000 1186
1006 2260
1008 1179
1016 2260
1017 1174
1022 1164
1026 2260
1032 1159
1036 2260
1040 1151
1046 2260
1048 1144
1055 1136
1055 2265
1065 1131
1065 2265
1073 1124
1075 2265
1080 1116
1084 2270
1090 1111
1090 2278
1098 1104
1098 2285
1105 1096
1107 2290
1115 1091
1116 2295
1123 1084
1124 2301
1133 1084
1134 2305
1140 2313
1143 1084
1150 2317
1152 1089
1157 2325
1162 1089
1167 2329
1172 1089
1176 2334
1181 1094
1186 2338
1191 1094
1195 2343
1200 1099
1205 2345
1210 1096
1214 2350
1220 1099
1223 2355
1230 1096
1233 2355
1240 1096
1242 2360
1250 1096
1252 2364
1260 1094
1262 2365
1270 1091
1271 2370
1280 1089
1281 2370
1290 1086
1290 2375
1300 1081
1300 2375
1310 1076
1310 2377
1320 1074
1320 2380
1329 1067
1330 2380
1339 1062
1339 2385
1347 1054
1349 2385
1355 1046
1359 862
1359 2385
1360 1036
1364 847
1364 871
1368 1029
1369 837
1369 880
1369 2385
1372 890
1372 1019
1374 817
1374 827
1377 899
1377 1009
1379 797
1379 807
1379 909
1379 987
1379 997
1379 2385
1381 919
1384 787
1384 929
1384 939
1384 949
1384 959
1384 969
1389 762
1389 772
1389 2385
1394 742
1394 752
1399 717
1399 727
1399 2385
1404 692
1404 702
1409 657
1409 667
1409 677
1409 2385
1414 627
1414 637
1414 647
1418 2390
1419 587
1419 602
1419 612
1424 542
1424 552
1424 562
1424 572
1428 2388
1429 487
1429 497
1429 507
1429 517
1429 527
1434 432
1434 442
1434 452
1434 462
1434 472
1438 2388
1439 372
1439 382
1439 392
1439 402
1439 412
1439 422
1444 327
1444 337
1444 347
1444 357
1448 2385
1449 287
1449 297
1449 307
1449 317
1454 277
1458 2385
1464 281
1468 291
1468 2385
1473 300
1475 310
1478 2385
1480 319
1485 328
1488 2385
1490 337
1494 347
1497 2380
1499 356
1503 366
1505 376
1507 2380
1510 385
1515 394
1517 2379
1520 403
1525 412
1527 2375
1529 422
1534 431
1537 2375
1538 441
1540 451
1545 460
1546 2370
1550 469
1555 478
1556 2370
1560 487
1560 497
1565 506
1565 2365
1570 515
1575 524
1575 2360
1580 533
1580 543
1585 552
1585 2360
1590 561
1594 2355
1595 570
1600 579
1600 589
1603 2350
1605 598
1610 607
1612 2345
1614 617
1619 626
1620 636
1622 2344
1625 645
1627 655
1630 2335
1632 664
1635 674
1635 815
1635 825
1635 835
1635 845
1635 855
1635 865
1635 875
1635 885
1635 895
1635 910
1640 683
1640 785
1640 795
1640 805
1640 919
1640 929
1640 939
1640 950
1640 2330
1645 692
1645 702
1645 760
1645 770
1645 959
1645 969
1645 979
1645 989
1650 711
1650 745
1650 998
1650 1008
1650 2325
1653 721
1655 731
1655 1017
1655 1027
1659 1037
1659 2320
1660 1047
1664 1057
1665 1067
1668 2315
1670 1076
1670 1086
1675 1095
1677 1105
1678 2315
1680 1115
1685 1124
1688 2315
1690 1133
1690 1143
1695 1152
1698 2315
1700 1161
1705 1170
1708 2315
1710 1179
1715 1188
1718 2315
1720 1197
1724 1207
1728 2315
1730 1215
1735 1224
1738 2315
1743 1230
1747 1240
1748 2315
1757 1244
1758 2315
1760 1254
1768 2315
1770 1257
1778 2315
1779 1262
1787 1269
1788 2315
1796 1274
1798 2315
1805 1279
1808 2315
1815 1279
1818 2315
1825 1279
1828 2315
1835 1279
1838 2315
1843 1285
1845 1295
1847 1305
1848 2315
1850 1315
1850 1325
1852 1335
1855 1345
1855 1355
1857 1365
1858 2315
1860 1375
1860 1385
1862 1395
1865 1405
1865 1415
1868 2315
1870 1424
1870 1434
1870 1444
1875 1453
1875 1463
1878 2315
1880 1472
1880 1482
1884 1492
1885 1502
1888 2315
1889 1512
1890 1522
1894 1532
1895 1542
1898 2315
1900 1551
1903 1561
1905 1571
1908 2315
1910 1580
1912 1590
1915 1600
1918 2315
1920 1609
1925 1618
1928 2315
1930 1627
1930 1637
1937 1645
1938 2315
1940 1655
1945 1664
1948 2315
1950 1673
1955 1682
1958 2315
1960 1691
1963 1701
1968 2315
1970 1709
1975 1718
1978 2315
1980 1727
1987 1735
1987 2310
1992 1744
1995 1754
1996 2315
2003 1760
2006 2313
2010 1768
2015 1777
2016 2310
2019 1787
2026 2310
2027 1794
2034 1802
2036 2310
2039 1811
2045 1819
2046 2310
2050 1828
2056 2310
2058 1835
2065 1843
2066 2310
2070 1852
2076 2310
2077 1860
2085 1867
2085 2305
2090 1876
2094 2310
2099 1881
2103 1891
2103 2305
2110 1899
2113 2305
2118 1905
2123 2305
2125 1913
2130 1922
2133 2305
2139 1927
2143 2305
2144 1936
2150 1944
2153 2305
2158 1950
2163 1959
2163 2305
2172 1964
2172 2300
2175 1974
2182 2300
2183 1980
2190 1988
2192 2300
2198 1995
2202 2300
2205 2003
2212 2300
2213 2010
2218 2019
2222 2300
2225 2027
2232 2035
2232 2300
2240 2042
2242 2300
2247 2050
2251 2295
2255 2057
2259 2067
2261 2295
2267 2074
2271 2295
2274 2082
2281 2295
2282 2089
2289 2097
2291 2295
2294 2106
2300 2114
2301 2295
2308 2120
2311 2295
2315 2128
2320 2137
2321 2295
2327 2145
2331 2295
2335 2152
2339 2162
2340 2290
2347 2169
2349 2295
2354 2177
2358 2290
2359 2186
2365 2194
2368 2290
2370 2203
2378 2210
2378 2290
2382 2220
2388 2290
2390 2227
2395 2236
2398 2290
2401 2244
2405 2254
2408 2290
2413 2260
2417 2270
2418 2290
2425 2277
