299 2447
299 2457
304 2432
305 2465
309 2417
314 2402
314 2460
319 2387
324 2372
324 2460
329 2357
334 2342
334 2457
339 2332
344 2312
344 2322
344 2455
349 2302
354 2287
354 2452
359 2272
364 2262
364 2450
369 2247
373 2445
374 2232
379 2222
383 2443
384 2212
389 2197
393 2440
394 2182
399 2172
402 2435
404 2162
409 2152
412 2434
414 2137
419 2127
422 2430
424 2117
429 2102
431 2425
434 2092
439 2077
441 2425
444 2067
449 2057
450 2420
454 2047
459 2037
459 2415
464 2022
469 2012
469 2412
474 2002
479 1992
479 2407
484 1982
489 1972
489 2402
494 1962
499 1952
499 2400
504 1942
508 2395
509 1932
514 1922
517 2390
519 1912
524 1902
526 2385
529 1892
534 1882
535 2380
539 1872
544 1862
545 2375
549 1852
554 1842
555 2370
559 1832
564 1822
565 2365
569 1812
574 1802
575 2360
579 1792
584 1782
585 2355
589 1772
594 1762
595 2350
602 1754
604 1742
605 2345
612 1734
614 1722
615 2340
622 1714
625 2335
627 1704
632 1694
635 2330
637 1684
642 1674
645 2325
649 1662
654 1647
655 2320
662 1639
665 2315
667 1629
672 1619
675 2310
677 1609
682 1599
685 2305
687 1589
694 1577
695 2300
699 1567
704 1557
705 2295
709 1547
714 1537
715 2290
719 1527
724 1517
725 2285
732 1509
735 2280
737 1499
742 1489
745 2275
747 1479
752 1469
755 2275
759 1457
764 1447
764 2270
769 1437
773 2265
774 1427
782 1419
782 2260
787 1409
791 2255
792 1399
797 1389
800 2250
802 1379
810 2250
812 1374
819 2245
821 1369
828 2240
831 1365
838 2238
841 1360
848 2233
851 1359
858 2230
860 1354
865 1890
867 2225
869 1262
870 1352
870 1830
870 1840
870 1850
870 1860
870 1870
870 1880
874 1252
875 1270
875 1810
875 1820
875 1891
877 2224
879 1242
880 1349
884 1232
884 1265
885 1810
885 1889
887 2219
889 1344
892 1224
893 1260
894 1805
894 1884
897 1214
897 2215
899 1342
902 1204
903 1258
904 1802
904 1882
907 2214
909 1192
909 1339
913 1255
914 1182
914 1800
914 1879
917 2210
919 1172
919 1337
923 1253
923 1795
923 1874
926 2205
927 1164
929 1334
932 1154
933 1250
933 1795
933 1874
936 2205
938 1329
939 1142
942 1245
942 1790
942 1869
944 1132
945 2200
948 1329
952 1124
952 1245
952 1789
952 1869
955 2200
957 1114
957 1324
961 1240
961 1864
962 1104
962 1785
964 2195
967 1324
969 1092
971 1240
971 1864
972 1785
974 2195
977 1084
977 1319
980 1235
980 1859
981 1780
982 1074
983 2190
987 1064
987 1319
990 1235
990 1859
991 1780
993 2190
994 1052
997 1319
1000 1235
1000 1775
1000 1856
1002 1044
1003 2188
1007 1034
1007 1314
1009 1230
1010 1775
1010 1854
1013 2185
1014 1022
1017 1314
1019 1230
1020 1775
1020 1854
1022 1014
1023 2185
1027 1004
1027 1314
1029 1230
1030 1770
1030 1851
1033 2183
1034 992
1037 1309
1038 1225
1040 1770
1040 1849
1042 984
1043 2183
1047 974
1047 1309
1048 1225
1050 1770
1050 1849
1053 2180
1054 962
1057 1309
1058 1225
1060 1770
1060 1849
1062 954
1063 2180
1067 944
1067 1309
1068 1225
1070 1770
1070 1846
1073 2180
1074 932
1077 1309
1078 1225
1080 1765
1080 1844
1082 924
1083 2178
1087 914
1087 1220
1087 1309
1090 1765
1090 1844
1093 2178
1094 902
1097 1220
1097 1309
1100 1765
1100 1844
1102 894
1103 2175
1107 884
1107 1220
1107 1309
1110 1765
1110 1844
1113 2175
1115 876
1117 1220
1117 1309
1120 866
1120 1765
1120 1844
1123 2175
1125 856
1127 1220
1127 1309
1130 1765
1130 1844
1133 849
1133 2175
1137 1220
1137 1309
1139 837
1140 1765
1140 1844
1143 2175
1147 829
1147 1220
1147 1309
1150 1765
1150 1844
1152 819
1153 2175
1157 1220
1157 1309
1159 807
1160 1765
1160 1844
1163 2175
1167 799
1167 1220
1167 1309
1170 1767
1170 1844
1172 2180
1174 787
1177 1220
1177 1309
1180 1767
1180 1844
1182 779
1182 2179
1186 1225
1186 1314
1187 769
1190 1770
1190 1847
1192 2180
1195 761
1196 1225
1196 1314
1200 751
1200 1770
1200 1847
1202 2180
1206 1225
1206 1314
1208 744
1210 1770
1210 1849
1212 2180
1214 732
1216 1225
1216 1314
1219 722
1220 1770
1220 1849
1222 2180
1226 1225
1226 1314
1227 714
1230 1772
1230 1849
1232 704
1232 2184
1235 1230
1235 1319
1240 696
1240 1775
1240 1852
1242 2185
1245 686
1245 1230
1245 1319
1250 1775
1250 1854
1252 2185
1253 679
1255 1230
1255 1319
1259 667
1260 1777
1260 1854
1262 2185
1264 657
1264 1324
1265 1232
1270 1780
1270 1854
1271 2190
1272 649
1274 1324
1275 1235
1277 639
1279 1859
1280 1780
1281 2190
1284 627
1284 1324
1285 1235
1289 1859
1290 1780
1291 2190
1292 619
1293 1329
1295 1237
1297 609
1299 1785
1299 1861
1300 2195
1303 1330
1304 597
1305 1240
1309 1785
1309 1864
1310 2195
1312 589
1313 1330
1315 1240
1317 579
1319 1785
1319 1864
1320 2197
1323 1334
1324 567
1324 1245
1328 1790
1329 1866
1330 2200
1332 559
1332 1339
1334 1245
1337 549
1337 1795
1339 1869
1340 2202
1342 1339
1343 1250
1344 537
1347 1795
1349 527
1349 1871
1350 2205
1351 1344
1353 1250
1357 519
1357 1799
1359 1874
1360 2207
1361 1344
1362 509
1362 1255
1367 1800
1369 497
1369 1876
1370 1349
1370 2210
1372 1255
1374 487
1375 885
1375 895
1377 1804
1379 1879
1380 850
1380 860
1380 870
1380 1349
1380 2212
1382 479
1382 1259
1383 901
1385 830
1385 840
1387 469
1387 1805
1389 1354
1389 1881
1390 2215
1392 459
1392 1260
1393 904
1395 830
1397 449
1397 1809
1399 1354
1399 1884
1400 2217
1402 439
1402 1264
1403 905
1404 835
1407 1810
1408 1359
1409 427
1409 1886
1410 2220
1412 1265
1413 909
1414 417
1414 835
1417 1814
1418 1360
1419 407
1419 1889
1420 2222
1422 914
1422 1269
1423 840
1424 397
1427 1815
1428 1364
1428 1894
1429 387
1430 2225
1432 914
1432 1270
1433 840
1434 377
1436 1820
1438 1365
1438 1894
1439 367
1439 2230
1441 919
1441 1275
1442 845
1444 357
1446 1823
1447 1899
1448 1369
1449 342
1449 2230
1451 919
1451 1275
1452 845
1454 332
1456 1825
1457 1374
1457 1899
1458 2235
1459 322
1460 924
1460 1280
1461 850
1465 1830
1466 1904
1467 1374
1468 2235
1469 321
1470 924
1470 1282
1471 853
1475 329
1475 1832
1476 1379
1476 1904
1477 2240
1479 929
1480 338
1480 1285
1481 855
1485 1384
1485 1835
1485 1909
1487 2244
1488 345
1489 931
1489 1290
1490 860
1492 355
1495 1384
1495 1837
1495 1912
1497 364
1497 2245
1499 934
1499 1290
1500 860
1504 372
1504 1389
1505 1840
1505 1914
1507 2249
1508 939
1508 1295
1509 381
1509 865
1514 1389
1514 1845
1514 1919
1515 389
1517 2250
1518 940
1518 1295
1519 865
1520 398
1523 1394
1524 1845
1524 1921
1525 407
1526 2255
1527 1300
1528 870
1528 944
1530 416
1533 1395
1533 1850
1534 1924
1535 425
1536 2258
1537 875
1537 1304
1538 945
1540 434
1542 1400
1542 1855
1544 1926
1545 443
1546 2260
1547 875
1547 1305
1548 949
1550 452
1552 1404
1552 1855
1554 1929
1555 461
1555 2265
1556 880
1556 1310
1557 954
1561 469
1561 1409
1562 1859
1563 1934
1565 479
1565 2265
1566 880
1566 1310
1567 954
1570 488
1571 1409
1572 1860
1573 1935
1574 2270
1575 497
1575 885
1575 1315
1576 959
1580 506
1580 1414
1581 1865
1583 1939
1584 890
1584 2270
1585 515
1585 964
1585 1317
1590 524
1590 1414
1591 1868
1593 1940
1593 2275
1594 890
1595 533
1595 964
1595 1320
1599 1419
1600 542
1601 1870
1602 2280
1603 895
1603 1944
1604 552
1604 1325
1605 967
1608 1424
1609 561
1611 1873
1612 1949
1612 2280
1613 895
1614 1325
1615 569
1615 579
1615 969
1618 1424
1620 588
1621 1875
1622 900
1622 1949
1622 2284
1623 1330
1624 974
1625 597
1627 1429
1630 606
1630 1880
1631 1954
1632 904
1632 2285
1633 1330
1634 974
1635 615
1637 1429
1640 624
1640 1882
1641 1954
1641 2290
1642 905
1642 1335
1643 979
1645 633
1645 643
1646 1434
1650 652
1650 1885
1650 1959
1651 2290
1652 909
1652 1335
1653 980
1655 661
1656 1434
1659 1890
1660 670
1660 1959
1660 2295
1661 1340
1662 910
1663 984
1665 679
1665 689
1665 1439
1669 1890
1669 1964
1670 698
1670 2297
1671 915
1671 1343
1672 989
1675 707
1675 1442
1678 1895
1679 1966
1680 716
1680 2300
1681 918
1681 1345
1682 989
1683 726
1685 1444
1688 735
1688 1895
1689 1969
1690 2302
1691 920
1691 994
1691 1348
1692 745
1695 755
1695 1447
1697 1900
1699 1971
1700 764
1700 774
1700 2305
1701 923
1701 994
1701 1350
1705 783
1705 1449
1707 1900
1709 1974
1710 792
1710 999
1710 2307
1711 925
1711 1353
1715 801
1715 1452
1717 1904
1718 811
1719 1976
1720 821
1720 999
1720 2310
1721 928
1721 1355
1725 830
1725 1454
1727 1905
1729 1979
1730 839
1730 849
1730 1002
1730 2312
1731 930
1731 1358
1734 1459
1735 858
1737 1909
1739 1981
1740 867
1740 1004
1740 2315
1741 933
1741 1360
1744 877
1744 1459
1747 1910
1749 886
1749 1984
1750 896
1750 1007
1750 2315
1751 935
1751 1360
1753 1464
1755 905
1757 915
1757 1914
1759 1984
1759 2320
1760 930
1760 1009
1760 1365
1763 1464
1767 1915
1768 1989
1769 2320
1770 1009
1770 1365
1773 1464
1774 1432
1774 1442
1774 1452
1777 1915
1778 1989
1778 2325
1779 1014
1779 1370
1779 1392
1779 1402
1779 1412
1779 1422
1784 1379
1786 1920
1788 1989
1788 2325
1789 1014
1796 1920
1797 1020
1798 1990
1798 2325
1802 1029
1805 1039
1806 1923
1807 2330
1808 1994
1810 1048
1810 1058
1815 1067
1816 1925
1817 2330
1818 1994
1820 1076
1823 1086
1826 1925
1827 1999
1827 2330
1828 1095
1830 1105
1835 1114
1835 1930
1836 2335
1837 1999
1840 1123
1840 1133
1845 1142
1845 1930
1846 2335
1847 1999
1849 1152
1854 1161
1855 1171
1855 1930
1856 2004
1856 2335
1860 1180
1864 1935
1865 1189
1865 1199
1865 2340
1866 2004
1870 1208
1874 1935
1875 1217
1875 2340
1876 2004
1879 1227
1884 1236
1884 1935
1885 1246
1885 2340
1886 2004
1890 1255
1894 1935
1895 1264
1895 2342
1896 2005
1900 1273
1900 1283
1904 1935
1905 1292
1905 2342
1906 2009
1909 1302
1913 1940
1914 1311
1915 2345
1916 2009
1918 1321
1920 1331
1923 1940
1925 1340
1925 2345
1926 2009
1930 1349
1933 1940
1935 1358
1935 1368
1935 2014
1935 2345
1940 1377
1943 1940
1945 1386
1945 2012
1945 2347
1948 1396
1953 1405
1953 1940
1955 1415
1955 2012
1955 2347
1960 1424
1962 1945
1965 1433
1965 2014
1965 2350
1970 1442
1970 1452
1972 1945
1975 1461
1975 2014
1975 2350
1980 1470
1982 1945
1985 1479
1985 1489
1985 2014
1985 2350
1990 1498
1992 1945
1995 1507
1995 2014
1995 2350
2000 1516
2002 1945
2003 1526
2005 2014
2005 2350
2008 1535
2012 1545
2012 1949
2014 2019
2015 2350
2017 1554
2020 1564
2022 1949
2024 2016
2025 1573
2025 2350
2030 1582
2032 1949
2034 1592
2034 2016
2035 1602
2035 2350
2040 1611
2042 1945
2044 2016
2045 1620
2045 2350
2050 1629
2051 1950
2054 2016
2055 1638
2055 1648
2055 2352
2060 1657
2061 1948
2064 2016
2065 1666
2065 2352
2070 1675
2071 1950
2074 2016
2075 1684
2075 2350
2080 1693
2080 1703
2081 1948
2084 2016
2085 1712
2085 2350
2090 1721
2091 1945
2094 2016
2095 1730
2095 2350
2100 1739
2100 1950
2104 2016
2105 1748
2105 2350
2109 1945
2110 1757
2110 1767
2114 2014
2115 2350
2117 1775
2119 1945
2120 1785
2123 2019
2125 1794
2125 2350
2129 1945
2130 1803
2132 2014
2135 1812
2135 2350
2139 1822
2139 1945
2142 2014
2144 1831
2145 2350
2148 1841
2149 1945
2152 2014
2153 1850
2155 2350
2157 1860
2159 1945
2162 1869
2162 2014
2165 1879
2165 2350
2169 1945
2170 1888
2172 2014
2175 1897
2175 2350
2179 1945
2180 1906
2182 2014
2185 1915
2185 2350
2189 1945
2190 1924
2192 2009
2195 1933
2195 2345
2202 2009
2205 2345
2212 2009
2215 2345
2222 2009
2225 2345
2232 2009
2235 2345
2241 2014
2245 2024
2245 2345
2250 2033
2255 2042
2255 2345
2262 2050
2264 2340
2267 2059
2270 2069
2274 2340
2278 2075
2282 2085
2284 2340
2287 2094
2294 2102
2294 2340
2299 2111
2304 2340
2305 2119
2310 2128
2314 2337
2315 2137
2322 2145
2324 2337
2327 2154
2330 2164
2334 2335
2338 2170
2344 2335
2345 2178
2350 2187
2354 2335
2355 2196
2361 2204
2364 2335
2365 2214
2373 2220
2373 2330
2380 2228
2383 2330
2385 2237
2390 2246
2393 2330
2396 2254
2403 2330
2404 2261
2408 2271
2413 2330
2415 2279
2420 2288
2422 2325
2428 2295
2432 2305
2432 2325
2440 2312
2442 2324
