19 872
19 882
19 892
25 900
27 864
29 852
35 900
39 847
44 832
44 895
52 824
53 890
59 792
59 802
59 812
62 884
67 784
67 874
76 779
77 869
84 767
85 855
92 759
94 850
99 747
102 844
104 737
107 834
109 727
114 717
115 825
122 709
123 818
127 699
128 808
132 689
134 677
135 800
140 790
142 669
144 657
148 783
149 647
149 827
149 837
149 847
153 773
154 632
155 760
157 854
159 617
159 824
164 592
164 602
165 755
167 855
169 582
169 824
170 745
172 864
174 542
174 552
174 562
174 572
174 760
179 517
179 527
179 769
179 779
179 789
179 799
179 812
179 822
179 872
179 882
179 892
179 902
179 912
179 922
179 932
184 472
184 482
184 492
184 502
184 941
184 951
184 961
189 432
189 442
189 452
189 462
189 970
189 980
189 990
189 1000
194 337
194 347
194 357
194 367
194 397
194 407
194 417
194 1009
194 1019
194 1029
194 1039
194 1049
194 1059
194 1069
194 1079
196 1089
199 322
199 376
199 386
199 1099
199 1109
199 1119
199 1129
201 1139
204 302
204 312
204 1149
204 1159
209 287
212 1165
214 277
219 262
220 1172
227 254
230 1175
232 244
239 1170
240 236
248 229
249 1170
252 219
257 1164
260 211
265 1155
268 204
270 920
270 930
270 940
270 950
270 960
270 970
270 980
270 990
270 1000
270 1010
270 1020
270 1030
270 1040
274 187
275 890
275 900
275 910
275 1049
275 1155
280 865
280 875
280 1058
280 1068
280 1078
282 179
283 1148
285 850
285 1087
285 1097
285 1107
285 1117
285 1127
285 1137
287 169
292 159
293 843
299 147
303 838
304 137
309 127
313 835
317 119
322 109
322 830
330 101
331 825
338 94
339 817
347 89
347 809
355 81
355 800
360 790
365 76
365 780
373 773
375 74
375 760
383 753
384 69
385 740
390 720
390 730
393 64
395 710
400 695
403 64
409 700
409 710
409 720
409 730
409 740
409 750
409 760
409 770
409 780
413 64
414 789
414 799
414 809
414 819
414 829
414 839
414 849
414 859
416 869
419 879
421 889
423 64
424 899
424 909
426 919
429 929
431 939
433 64
434 949
436 959
439 969
441 979
443 64
444 989
446 999
451 1008
453 64
454 1018
454 1028
455 1038
460 1047
463 64
464 1057
469 1066
469 1076
469 1086
473 64
474 1095
474 1105
474 1115
474 1172
474 1182
474 1192
474 1202
474 1212
477 1125
479 1135
479 1145
479 1155
479 1221
479 1231
483 64
486 1239
491 1248
492 59
495 1258
502 59
503 1265
509 1273
510 1283
512 54
520 46
520 1285
530 44
530 1285
540 44
540 1285
550 44
550 1285
559 1280
560 44
569 1277
570 44
577 1270
580 44
587 1269
590 44
597 1264
600 44
607 1259
610 44
612 1250
620 44
620 935
620 945
620 955
620 965
621 1245
622 975
625 1030
625 1040
625 1050
625 1060
625 1070
627 984
629 930
630 44
630 994
630 1004
630 1014
630 1079
630 1089
630 1240
635 1098
635 1108
638 1233
639 930
640 44
640 1117
640 1127
640 1137
640 1147
640 1157
640 1167
640 1177
643 1223
644 939
644 949
646 959
647 1185
649 969
650 44
650 1195
650 1205
650 1215
654 1127
654 1137
654 1147
655 977
659 987
659 1117
659 1156
659 1166
659 1176
659 1186
660 44
664 996
664 1006
664 1195
667 1109
667 1205
669 1015
670 44
672 1025
672 1214
674 1035
674 1045
674 1055
674 1065
674 1075
674 1085
674 1095
680 44
680 1220
689 49
689 1225
695 1233
699 51
705 1235
709 54
715 1235
718 59
725 1235
727 64
735 1235
736 69
744 76
745 1225
751 1233
753 81
760 89
760 99
761 1235
765 108
771 1235
775 112
775 1225
783 119
783 1218
790 1170
790 1180
790 1190
790 1200
790 1210
793 119
795 1155
800 1130
800 1140
803 119
805 965
805 975
805 985
805 995
805 1005
805 1015
805 1115
807 1025
810 111
810 940
810 950
810 1035
810 1045
810 1055
810 1065
810 1075
810 1085
810 1095
810 1105
815 930
820 109
820 915
830 109
830 915
839 104
840 915
849 104
850 915
858 99
860 915
868 99
870 915
875 91
880 915
885 89
890 915
895 89
900 915
905 86
910 915
914 1202
914 1212
915 84
919 1177
919 1187
919 1221
920 915
924 1230
925 84
927 1169
929 1157
930 915
930 1238
935 84
937 1149
940 915
940 1240
942 1139
945 84
949 920
950 1242
951 1134
952 930
954 1117
955 84
959 1087
959 1097
959 1107
960 1245
962 934
964 89
964 944
964 957
964 967
964 977
964 987
964 997
964 1007
964 1017
964 1027
964 1037
964 1047
964 1057
964 1067
964 1077
970 1245
974 89
979 1240
980 97
989 1240
990 99
999 104
999 1240
1009 106
1009 1240
1018 111
1019 1240
1024 119
1029 1240
1032 125
1039 1240
1042 129
1045 139
1049 1240
1054 144
1059 1237
1060 1225
1063 149
1068 1218
1070 1205
1072 154
1075 164
1075 1075
1075 1085
1075 1095
1075 1105
1075 1115
1075 1125
1075 1135
1075 1145
1075 1155
1075 1165
1075 1175
1075 1185
1075 1195
1080 1060
1085 167
1085 1010
1085 1020
1085 1030
1085 1040
1085 1050
1090 995
1092 175
1095 975
1095 985
1097 184
1104 980
1106 189
1113 985
1114 196
1117 995
1120 204
1122 1004
1125 213
1129 1012
1134 1021
1135 217
1139 1030
1139 1040
1140 226
1144 1049
1144 1059
1146 234
1149 1068
1149 1078
1154 1087
1154 1097
1154 1107
1155 239
1159 1116
1159 1126
1159 1136
1159 1202
1159 1212
1159 1222
1159 1232
1160 248
1164 1145
1164 1241
1165 257
1167 1155
1167 1194
1169 1165
1169 1175
1171 1249
1172 1185
1174 262
1176 1258
1180 270
1185 279
1186 1260
1190 288
1195 297
1196 1260
1202 305
1205 315
1206 1260
1210 324
1216 1260
1218 330
1222 340
1225 1250
1230 347
1230 357
1230 745
1230 755
1230 765
1230 775
1230 785
1230 795
1230 805
1230 815
1230 825
1230 835
1230 845
1233 1243
1235 715
1235 725
1235 735
1235 854
1235 864
1237 365
1240 700
1240 873
1240 883
1240 893
1240 903
1240 913
1240 923
1240 933
1243 1240
1245 372
1245 690
1245 942
1245 952
1245 962
1250 381
1250 670
1250 680
1250 971
1250 981
1253 391
1253 1238
1255 401
1255 655
1255 990
1255 1000
1257 1010
1260 410
1260 1020
1263 648
1263 1233
1265 419
1265 429
1265 439
1265 449
1265 585
1265 595
1265 605
1265 615
1265 625
1265 635
1265 1029
1265 1039
1268 1223
1270 458
1270 468
1270 545
1270 555
1270 565
1270 575
1270 1048
1270 1058
1275 1067
1275 1215
1278 475
1279 570
1279 580
1279 1077
1280 485
1280 1205
1284 589
1284 1086
1285 494
1285 504
1286 599
1288 1096
1288 1198
1289 609
1290 513
1290 1106
1290 1140
1290 1150
1290 1160
1290 1170
1290 1180
1293 1116
1294 618
1294 628
1294 638
1295 522
1295 532
1295 1126
1299 542
1299 647
1299 657
1299 667
1300 552
1304 562
1304 676
1304 686
1309 571
1309 695
1309 705
1309 715
1309 725
1309 735
1310 581
1314 744
1314 754
1314 764
1314 774
1315 590
1315 600
1317 610
1319 783
1319 793
1319 803
1320 620
1322 630
1324 812
1324 822
1325 640
1325 650
1327 660
1329 831
1330 670
1334 840
1335 679
1335 689
1335 699
1335 709
1335 719
1335 729
1340 738
1340 748
1340 758
1340 848
1345 767
1345 777
1345 787
1345 797
1348 855
1349 865
1349 875
1350 806
1352 885
1354 895
1354 905
1354 915
1354 925
1354 935
1354 945
1355 815
1357 825
1360 953
1365 832
1370 841
1370 955
1376 849
1379 950
1384 856
1385 866
1389 947
1390 875
1392 885
1399 950
1402 889
1409 897
1409 947
1414 937
1415 905
1415 915
1415 925
