4 142
4 152
4 162
9 132
9 171
9 181
16 189
17 124
21 198
25 116
29 205
35 111
38 210
43 104
47 215
53 104
57 215
60 96
67 215
70 94
76 210
78 100
86 210
88 104
95 205
98 105
105 205
108 109
114 200
117 114
124 200
127 114
133 195
136 119
143 193
146 119
153 190
156 119
163 188
166 120
173 185
174 107
174 195
177 205
179 92
186 210
187 84
195 215
197 79
205 215
207 74
214 220
217 74
224 220
227 69
234 220
237 69
243 225
246 64
253 225
256 60
262 230
266 59
272 230
276 55
282 230
286 50
291 235
296 45
301 235
306 44
311 235
316 44
321 235
325 39
331 235
335 39
341 235
345 36
351 235
355 34
361 238
365 31
371 240
375 29
381 240
385 29
391 240
395 29
401 240
404 24
411 240
414 24
421 240
424 24
431 240
434 24
441 240
443 19
451 240
453 19
461 240
463 19
470 245
473 19
480 245
482 14
490 245
492 14
500 245
502 14
510 245
512 14
520 245
522 14
530 245
532 9
540 245
542 9
550 245
552 9
560 245
562 9
570 245
572 9
580 245
582 4
589 240
592 4
595 215
595 225
602 4
604 210
612 4
614 210
622 4
624 210
632 4
634 210
641 9
644 210
650 14
654 210
660 17
663 215
667 25
673 215
675 32
680 41
683 215
690 44
693 215
700 44
703 215
710 44
713 215
720 44
723 215
730 44
733 215
740 44
743 215
750 44
753 215
760 44
762 210
770 44
772 210
779 277
779 287
780 44
782 210
784 267
789 276
790 44
792 214
792 259
794 224
794 234
797 249
799 272
800 44
804 262
810 47
812 269
820 49
822 264
830 52
830 250
835 240
839 17
839 27
840 54
840 230
844 36
845 215
849 16
850 26
850 205
855 35
859 200
860 44
860 54
868 60
868 195
878 64
878 195
887 190
888 64
897 69
897 190
906 185
907 69
915 180
917 69
925 175
927 69
935 175
936 74
945 170
946 74
955 170
956 74
965 79
965 170
975 79
975 165
985 82
985 165
994 77
995 165
1002 69
1004 160
1011 64
1014 160
1015 74
1015 90
1015 100
1015 140
1020 109
1020 119
1020 129
1020 149
1023 83
1023 165
1024 67
1029 154
1030 75
1032 170
1037 160
