424 982
424 992
424 1002
429 972
429 1011
434 1020
437 964
439 1029
445 956
445 1037
452 1045
453 949
459 1053
460 941
464 1062
465 931
469 1071
475 926
476 1079
484 1085
485 921
493 914
493 1090
502 909
502 1095
510 901
512 1095
518 894
521 1100
527 889
531 1103
536 884
541 1105
545 879
551 1105
554 872
561 1108
562 864
571 1110
572 859
581 1110
582 854
590 1115
591 849
600 844
600 1115
609 837
609 1120
614 822
619 812
619 1120
624 802
629 1120
634 797
639 1120
642 789
648 1125
652 784
658 1125
662 784
667 1130
671 779
677 1130
681 779
687 1130
690 774
697 1130
700 771
706 1135
710 769
716 1135
720 766
726 1135
730 764
736 1138
739 759
746 1140
749 759
756 1140
759 757
766 1143
769 754
776 1145
779 552
779 562
779 572
779 752
784 542
786 1145
787 579
789 749
794 537
795 585
796 1145
798 744
804 532
805 585
806 1145
808 744
814 529
815 585
816 1145
818 744
823 524
825 585
825 1150
828 744
833 524
835 585
835 1150
837 739
842 519
845 585
845 1150
847 739
852 519
852 729
855 585
855 1150
857 719
862 519
864 590
864 600
864 610
864 620
864 630
864 640
864 650
864 660
864 670
864 680
864 690
864 700
864 710
865 1150
872 514
875 1150
882 514
884 1155
892 509
894 1155
899 427
899 437
899 447
899 457
899 467
899 477
899 487
899 497
904 417
904 1155
914 412
914 1155
924 409
924 1155
933 404
934 1155
942 409
944 1155
949 417
950 427
950 437
950 447
950 457
954 467
954 1155
955 477
955 487
960 496
963 506
964 1155
965 585
965 595
965 605
965 615
965 625
965 635
965 645
965 655
965 665
965 675
965 685
965 695
965 705
965 715
965 725
968 515
970 734
974 580
974 1155
975 523
975 743
983 750
984 580
984 1155
985 524
993 754
994 580
994 1155
995 524
1003 575
1003 754
1004 519
1004 1155
1013 575
1013 755
1014 521
1014 1155
1023 575
1023 759
1023 1160
1024 524
1033 575
1033 759
1033 1160
1034 524
1043 575
1043 760
1043 1160
1044 524
1052 570
1053 529
1053 764
1053 1160
1060 537
1060 560
1063 765
1063 1160
1065 546
1073 769
1073 1160
1083 769
1083 1160
1093 770
1093 1160
1103 774
1103 1160
1113 774
1113 1160
1123 774
1123 1160
1133 774
1133 1160
1143 774
1143 1160
1153 774
1153 1160
1163 774
1163 1160
1173 774
1173 1160
1182 1155
1183 774
1191 1150
1193 774
1201 1150
1203 774
1210 1145
1212 779
1219 1140
1221 784
1228 1135
1229 791
1230 801
1230 811
1230 821
1230 831
1230 841
1230 851
1230 861
1236 869
1237 1130
1245 874
1246 1125
1255 877
1255 1120
1264 882
1265 1115
1274 886
1275 1115
1283 891
1284 1110
1293 894
1293 1105
1302 899
1302 1100
1312 899
1312 1099
1322 899
1322 1094
1332 899
1332 1089
1342 899
1342 1084
1350 1075
1351 904
1359 1070
1361 904
1367 1064
1370 909
1375 1055
1380 912
1385 1050
1389 917
1390 1040
1395 925
1395 1030
1400 934
1400 1020
1405 943
1408 1013
1413 950
1413 1003
1415 990
1417 960
1420 970
1420 980
