424 962
424 972
424 982
424 992
424 1002
424 1012
429 952
429 1021
429 1031
434 942
434 1040
440 1048
442 934
445 1057
447 924
449 1067
457 919
457 1074
464 1082
466 914
469 1091
474 907
476 1099
484 902
484 1105
493 1110
494 897
502 889
502 1115
512 884
512 1119
521 1124
522 879
531 1125
532 874
541 1128
542 869
551 1130
552 864
561 1133
562 859
570 1138
572 854
580 1140
582 854
589 1145
590 846
598 839
598 1150
602 829
607 819
608 1150
614 807
617 1155
622 799
627 1159
632 794
637 1160
642 789
647 1160
652 784
656 1165
662 784
666 1165
671 779
675 1170
681 775
685 1172
691 770
695 1175
701 765
705 1175
711 764
715 1177
720 759
725 1180
729 754
735 1180
739 752
745 1182
749 749
755 1185
759 747
765 1187
769 744
775 1190
779 744
785 1190
789 742
795 1190
799 739
804 547
804 557
805 1190
809 566
809 739
812 539
815 1190
816 574
819 739
822 534
824 580
825 1190
829 739
832 529
834 580
835 1190
839 739
842 529
843 585
845 1190
849 739
852 529
852 590
855 1190
859 739
862 529
862 594
865 1190
869 727
869 737
872 529
872 595
874 657
874 667
874 677
874 687
874 697
874 707
874 717
875 1190
879 647
881 600
882 529
884 632
885 1190
889 412
889 467
889 477
889 487
889 606
889 616
890 521
894 421
894 431
894 441
894 451
895 511
895 1190
897 404
897 494
905 1190
906 399
915 1190
916 399
925 1190
926 399
935 1190
936 399
945 1190
946 399
950 435
950 445
950 455
950 465
950 475
950 485
950 495
950 505
954 406
955 420
955 514
955 1190
965 514
965 1190
975 514
975 590
975 600
975 610
975 620
975 630
975 640
975 650
975 660
975 670
975 680
975 690
975 700
975 710
975 720
975 730
975 740
975 1190
980 749
984 1185
985 514
985 585
989 754
994 1185
995 514
995 585
999 756
1004 1185
1005 514
1005 585
1008 761
1014 1185
1015 514
1015 580
1018 765
1024 1185
1025 517
1025 580
1028 769
1034 1185
1035 519
1035 580
1037 774
1044 575
1044 1185
1045 519
1047 774
1054 524
1054 575
1054 1185
1057 774
1063 570
1064 524
1064 1185
1067 774
1072 565
1074 526
1074 1185
1077 774
1081 560
1083 531
1084 1185
1085 550
1087 774
1088 540
1094 1182
1097 774
1104 1180
1107 774
1114 1180
1117 774
1123 1175
1126 779
1132 1170
1136 779
1142 1170
1145 784
1152 1170
1155 787
1161 1165
1164 792
1171 1165
1174 796
1181 1165
1183 801
1190 1160
1193 805
1200 1160
1202 810
1209 1155
1212 814
1219 822
1219 1152
1224 831
1225 841
1229 1150
1231 849
1238 1145
1241 849
1247 1140
1251 849
1256 1135
1261 849
1266 1135
1271 849
1275 1130
1280 854
1285 1125
1290 857
1295 1120
1299 862
1305 1120
1307 869
1315 1115
1316 874
1324 881
1325 1110
1330 889
1335 1110
1340 892
1345 1105
1348 899
1355 1100
1357 904
1364 912
1365 1100
1372 919
1374 1095
1379 927
1382 1089
1387 934
1390 1080
1394 942
1398 1073
1402 949
1405 959
1405 1065
1410 968
1413 1058
1415 977
1418 1048
1419 987
1420 997
1423 1038
1425 1006
1428 1028
1430 1015
