59 947
59 957
59 967
59 977
59 987
59 997
59 1007
64 937
64 1016
69 1025
72 929
75 1033
80 921
83 1040
84 832
84 842
84 852
84 862
84 872
84 882
84 892
84 902
89 792
89 802
89 812
89 822
92 1045
94 777
99 762
101 1050
107 754
111 1050
115 746
121 1050
123 739
130 731
131 1050
138 724
141 1050
145 716
151 1050
153 709
160 701
161 1050
168 694
171 1050
175 686
181 1050
185 684
191 1050
194 677
201 1050
202 669
211 1050
212 669
215 800
215 890
215 900
215 910
220 785
220 809
220 919
220 1045
221 664
225 760
225 770
225 890
228 925
228 1038
230 809
231 664
233 753
235 740
235 890
235 933
235 1030
240 725
240 809
240 942
240 1020
241 664
245 890
245 951
245 1000
245 1010
248 718
248 961
250 809
250 971
250 981
250 991
251 664
253 708
255 890
260 659
260 695
260 809
265 890
268 688
270 662
270 809
273 678
275 890
280 809
285 890
290 809
295 890
300 809
305 890
310 809
315 890
320 809
325 890
330 809
335 890
340 809
345 890
350 809
355 890
360 809
365 890
370 809
375 890
380 809
385 890
390 809
395 890
400 809
405 890
410 809
415 890
420 809
425 890
430 809
435 890
440 809
445 890
450 809
455 890
460 809
465 890
470 809
475 890
480 809
485 890
490 809
495 890
500 809
505 890
510 809
515 890
520 809
525 890
530 809
535 890
540 809
545 890
550 809
555 890
560 809
565 890
570 809
575 890
580 809
585 890
590 809
595 890
600 809
605 890
610 809
615 890
620 809
625 890
630 809
635 890
640 809
645 890
650 809
655 890
660 809
665 890
670 809
675 890
680 809
685 890
690 809
695 890
700 809
705 890
710 809
715 890
720 809
725 890
730 809
735 890
740 809
745 890
750 809
755 890
760 809
765 890
770 809
775 890
780 809
785 890
790 809
795 890
800 809
805 890
810 809
815 890
820 809
825 890
830 809
835 890
840 809
845 890
850 809
855 890
860 809
865 890
870 809
875 890
880 809
885 890
890 809
895 890
900 809
905 890
910 809
915 890
920 809
925 890
930 809
935 890
940 809
945 890
950 809
955 890
960 809
965 890
970 809
975 890
980 809
985 890
990 809
995 890
1000 809
1005 890
1010 809
1015 890
1020 809
1025 890
1030 809
1035 890
1040 809
1045 890
1050 809
1055 890
1060 809
1065 890
1070 809
1075 890
1080 809
1085 890
1090 809
1095 890
1100 809
1105 890
1110 809
1115 890
1120 809
1125 890
1130 809
1135 890
1140 809
1145 890
1150 809
1155 890
1160 809
1165 890
1170 809
1175 890
1180 809
1185 890
1188 815
1193 883
1195 823
1200 832
1200 842
1200 852
1200 862
1200 872
