129 697
129 707
134 647
134 657
134 667
134 677
134 687
134 716
134 726
139 547
139 557
139 567
139 577
139 587
139 597
139 607
139 617
139 627
139 637
139 735
142 745
144 537
150 752
152 529
157 760
160 521
165 767
170 516
174 772
178 509
182 779
185 501
191 784
193 494
199 790
200 486
208 479
208 795
215 471
217 800
223 464
225 807
232 459
234 812
241 454
242 819
249 447
251 824
259 442
259 830
265 838
269 439
275 842
278 434
282 850
288 434
290 857
295 426
299 862
303 419
307 869
310 411
314 877
318 404
324 880
328 404
329 889
335 897
337 399
342 905
347 394
352 909
357 394
361 914
364 382
369 372
369 920
374 352
374 362
375 928
379 342
380 937
384 947
387 334
392 954
396 329
399 962
405 324
409 965
415 324
415 973
424 317
424 978
429 987
432 309
434 297
434 996
439 282
439 1005
445 1013
447 274
453 1020
456 269
463 1020
465 264
473 1020
475 261
483 1020
484 227
484 237
484 247
489 217
493 1020
497 209
502 1025
506 204
512 1025
515 199
521 1020
525 199
531 1020
535 199
540 1015
545 202
550 1010
554 207
555 1000
560 990
564 211
568 983
570 219
575 975
578 225
585 233
585 975
593 240
593 968
597 250
602 259
603 963
605 269
610 278
610 950
615 940
620 282
623 933
628 289
633 928
637 294
640 920
646 299
650 915
654 306
655 316
660 325
660 335
660 910
662 345
669 905
670 352
677 899
679 357
687 894
689 361
695 369
697 890
704 374
706 885
712 380
716 888
717 389
726 394
726 890
735 399
736 890
744 404
746 890
753 409
755 885
762 414
765 885
771 419
773 878
780 870
781 419
790 865
791 419
799 860
800 424
809 429
809 857
817 435
819 855
822 444
829 855
831 449
839 855
840 454
849 855
850 454
859 852
860 454
869 850
870 454
877 844
880 454
885 835
889 459
893 828
898 818
899 461
905 810
909 464
915 805
918 469
925 805
928 470
935 478
935 488
935 805
940 497
940 507
945 516
945 805
951 524
955 805
960 529
965 805
970 529
975 805
979 524
985 805
988 519
995 805
997 514
1005 805
1006 519
1014 526
1015 805
1020 534
1025 543
1025 553
1025 805
1033 560
1035 805
1042 565
1045 807
1052 569
1055 810
1061 574
1065 810
1071 574
1075 810
1080 579
1085 810
1090 579
1095 810
1100 579
1105 810
1109 584
1115 810
1118 589
1125 810
1127 594
1135 810
1137 594
1145 810
1147 594
1154 815
1157 589
1164 815
1167 589
1174 815
1176 584
1184 815
1186 584
1194 815
1196 584
1204 815
1205 589
1214 815
1215 589
1224 815
1225 589
1234 815
1235 592
1244 815
1245 594
1254 599
1254 815
1263 820
1264 599
1273 820
1274 597
1283 820
1284 592
1292 584
1293 820
1302 579
1303 820
1312 579
1313 820
1322 579
1322 825
1332 579
1332 825
1342 579
1342 825
1352 579
1352 825
1362 579
1362 825
1372 579
1372 825
1382 579
1382 825
1392 579
1392 825
1402 579
1402 825
1412 579
1412 825
1422 579
1422 825
1431 584
1432 825
1441 584
1442 829
1451 584
1452 830
1461 584
1462 830
1470 589
1472 830
1478 595
1482 830
1488 599
1492 830
1498 599
1502 830
1507 594
1512 830
1515 586
1522 830
1525 581
1532 830
1533 574
1542 830
1543 574
1552 830
1553 574
1562 830
1563 574
1572 830
1573 574
1582 579
1582 830
1592 579
1592 830
1599 587
1601 835
1609 591
1611 835
1615 599
1621 835
1623 605
1630 613
1631 835
1638 620
1641 835
1648 624
1651 835
1657 629
1661 835
1667 629
1671 838
1677 629
1681 840
1687 629
1691 840
1696 634
1701 840
1706 634
1711 840
1716 634
1721 840
1726 634
1731 840
1735 639
1740 835
1743 645
1749 830
1752 650
1755 820
1760 657
1763 813
1767 665
1770 800
1775 672
1778 793
1782 680
1785 785
1787 689
1794 697
1794 780
1802 704
1802 774
1805 714
1810 723
1810 765
1815 732
1815 745
1815 755
