214 427
214 437
214 447
214 457
219 407
219 417
219 466
224 387
224 397
224 475
227 485
229 302
229 312
229 322
229 332
229 342
229 352
229 362
229 372
229 495
229 505
229 515
229 525
229 535
229 545
229 555
229 565
229 575
229 585
229 595
229 622
229 632
229 652
229 662
229 672
229 682
229 692
229 702
229 712
229 722
229 732
229 742
229 752
229 762
229 772
229 782
229 792
229 802
229 812
229 822
229 832
229 842
229 872
229 882
229 892
229 902
229 912
229 922
229 932
229 942
229 952
229 962
232 605
234 287
234 641
234 851
234 861
234 971
239 980
242 279
247 269
248 985
255 993
257 264
265 995
266 259
274 1000
276 255
284 1000
286 254
294 1000
296 254
303 1005
305 249
313 1005
315 249
323 1005
325 249
332 1010
335 249
342 1010
345 249
352 1010
355 249
362 1010
365 249
372 1010
375 246
382 1014
385 244
392 1015
395 244
402 1015
405 244
412 1015
415 244
422 1015
424 239
432 1015
434 239
442 1015
444 239
452 1015
454 239
462 1015
464 239
472 1015
474 239
482 1015
484 239
492 1015
494 239
502 1015
504 239
512 1015
514 239
522 1015
524 239
532 1015
534 239
542 1015
544 239
552 1015
554 239
562 1015
563 234
572 1015
573 234
582 1015
583 234
592 1015
593 234
602 1015
603 234
612 1015
613 234
622 1015
623 234
632 1015
633 234
642 1015
643 234
652 1015
653 234
662 229
662 1015
672 229
672 1015
682 229
682 1015
692 229
692 1015
702 229
702 1015
712 229
712 1015
722 229
722 1015
731 1010
732 229
740 1005
741 234
750 239
750 995
755 980
758 245
760 945
760 955
760 965
765 253
765 910
765 920
765 930
770 262
770 880
770 890
770 900
774 272
775 282
775 292
775 302
775 312
775 860
775 870
780 321
780 331
780 341
780 351
780 361
780 371
780 381
780 391
780 401
780 411
780 421
780 840
780 850
783 431
785 830
788 440
793 449
794 825
802 454
803 820
812 454
813 820
822 454
822 815
831 459
832 815
841 459
842 814
851 459
852 810
861 459
862 810
870 464
872 809
880 464
882 805
890 464
892 805
900 464
901 800
910 464
911 800
920 464
921 800
929 459
930 795
938 464
940 795
947 469
950 479
950 495
950 790
952 505
957 514
960 780
965 765
966 519
970 755
975 524
978 748
985 524
988 745
995 524
998 745
1005 524
1008 745
1015 524
1018 745
1025 524
1028 745
1035 524
1038 745
1045 524
1048 745
1055 524
1058 745
1065 524
1068 745
1075 524
1078 745
1085 524
1088 745
1095 524
1098 745
1105 524
1108 745
1115 524
1118 745
1125 521
1128 745
1135 519
1138 745
1145 519
1148 745
1155 519
1158 745
1165 519
1168 745
1175 519
1178 745
1185 519
1188 745
1195 519
1198 745
1205 519
1208 745
1215 519
1218 745
1225 519
1228 745
1235 519
1238 745
1245 519
1248 745
1255 519
1258 745
1265 519
1268 745
1275 519
1278 745
1285 519
1288 745
1295 519
1298 745
1305 519
1308 745
1315 519
1318 745
1325 519
1328 745
1335 519
1338 745
1345 519
1348 745
1355 519
1358 743
1365 519
1368 740
1375 519
1378 740
1385 519
1388 740
1395 519
1398 740
1405 519
1408 740
1415 519
1418 740
1425 519
1428 740
1435 519
1438 740
1445 519
1448 740
1455 519
1458 740
1465 519
1468 740
1475 519
1478 740
1485 519
1488 740
1495 519
1498 740
1505 519
1508 740
1515 519
1518 740
1525 519
1528 740
1535 519
1538 740
1545 519
1548 740
1555 519
1558 740
1565 519
1568 740
1575 519
1578 740
1585 519
1588 740
1595 519
1598 740
1605 519
1608 740
1615 519
1618 740
1625 519
1628 740
1635 519
1638 740
1645 519
1648 740
1655 519
1658 738
1665 519
1668 735
1675 519
1677 740
1684 524
1687 740
1694 524
1697 740
1704 524
1707 740
1714 524
1717 740
1724 524
1727 740
1734 524
1737 740
1744 524
1747 740
1754 524
1757 740
1764 524
1767 740
1774 522
1777 740
1784 519
1787 740
1794 521
1797 740
1804 524
1807 740
1813 529
1817 739
1822 534
1827 734
1831 539
1837 729
1840 544
1845 720
1848 550
1853 713
1855 558
1858 703
1860 567
1860 690
1865 576
1865 586
1865 596
1865 655
1865 665
1865 675
1870 605
1870 615
1870 625
1870 635
1870 645
