169 557
169 567
169 577
169 587
169 597
169 607
169 617
169 627
169 637
169 647
169 657
174 542
174 666
174 676
179 527
179 685
179 695
184 512
184 704
184 714
189 497
189 723
190 733
194 487
198 740
199 472
202 750
204 457
204 760
209 442
209 769
214 432
214 778
215 788
219 417
220 797
224 407
224 807
229 816
232 399
234 825
237 389
240 833
245 842
247 384
249 852
255 376
257 859
263 369
264 867
267 359
272 874
275 351
279 882
283 344
287 889
290 336
294 897
298 329
302 904
307 324
309 912
315 316
317 919
323 309
325 925
332 304
334 930
340 938
342 299
350 942
351 294
359 947
360 289
367 954
369 284
376 959
378 279
386 963
387 274
395 968
397 274
405 972
406 269
415 264
415 975
424 980
425 261
433 985
435 256
443 985
445 254
452 990
454 249
462 990
464 247
472 994
474 244
482 995
484 242
492 999
494 239
502 1000
503 234
512 1004
513 234
522 229
522 1005
532 229
532 1009
542 229
542 1010
552 224
552 1010
562 224
562 1014
572 224
572 1015
581 219
582 1015
591 219
592 1015
601 219
601 1020
611 219
611 1020
621 219
621 1020
630 214
631 1020
640 214
641 1020
650 214
651 1020
660 214
661 1020
670 214
671 1020
680 214
681 1020
690 214
691 1020
700 217
701 1020
710 219
711 1020
720 219
720 1015
729 224
730 1015
739 224
740 1010
748 229
750 1010
757 234
759 1005
767 234
768 1000
776 239
777 995
785 244
786 990
793 250
796 990
802 255
804 982
810 262
812 974
817 270
820 965
825 277
828 958
832 285
835 950
840 292
840 940
847 300
848 933
852 309
855 319
855 920
860 910
863 325
865 335
865 900
870 344
870 890
875 353
875 363
875 880
880 372
880 870
884 382
885 392
885 845
885 855
889 402
890 835
894 411
895 421
895 810
895 820
898 431
900 785
900 795
903 440
905 750
905 760
905 770
907 450
910 740
912 459
919 467
919 735
928 730
929 471
938 476
938 730
948 479
948 730
958 479
958 730
967 484
968 730
974 492
978 730
984 496
988 730
993 501
997 725
999 509
1007 725
1008 514
1017 725
1018 514
1027 509
1027 725
1037 504
1037 725
1047 499
1047 725
1057 499
1057 725
1067 499
1067 725
1077 499
1077 725
1087 499
1087 725
1097 499
1097 725
1107 499
1107 725
1117 499
1117 725
1127 499
1127 725
1137 499
1137 725
1147 499
1147 725
1157 499
1157 725
1167 499
1167 725
1177 499
1177 725
1187 499
1187 725
1196 720
1197 499
1206 720
1207 499
1216 720
1217 499
1226 720
1227 499
1236 720
1237 499
1246 720
1247 499
1256 720
1257 499
1266 720
1267 499
1276 720
1277 499
1286 720
1287 499
1296 720
1297 499
1306 720
1307 499
1316 720
1317 499
1326 720
1327 499
1336 720
1337 499
1346 720
1347 499
1356 720
1357 499
1366 494
1366 720
1375 715
1376 494
1385 715
1386 494
1395 715
1396 494
1405 715
1406 494
1415 715
1416 494
1425 715
1426 494
1435 499
1435 715
1443 708
1445 499
1453 703
1455 502
1463 698
1464 507
1473 693
1474 511
1483 690
1484 514
1493 690
1494 516
1503 690
1504 519
1513 690
1514 519
1523 690
1524 519
1533 690
1534 519
1543 690
1544 519
1553 690
1554 519
1563 688
1564 519
1573 685
1574 519
1583 685
1584 519
1593 683
1594 519
1603 524
1603 678
1613 524
1613 675
1622 529
1623 675
1632 529
1633 675
1642 529
1643 673
1652 529
1653 670
1662 529
1663 668
1672 529
1673 665
1681 534
1683 665
1690 539
1693 663
1700 539
1703 658
1709 544
1713 655
1719 544
1723 655
1729 544
1732 660
1739 544
1742 660
1748 539
1752 660
1758 539
1761 665
1768 539
1771 665
1778 539
1781 665
1788 539
1791 665
1797 534
1801 665
1807 534
1811 665
1816 529
1821 668
1826 529
1831 670
1836 529
1840 675
1845 524
1849 680
1855 524
1859 680
1864 519
1869 680
1874 519
1878 675
1883 524
1887 670
1893 525
1896 665
1900 533
1905 660
1910 534
1915 655
1919 539
1925 650
1927 545
1934 645
1937 549
1942 639
1944 557
1952 564
1952 635
1959 572
1961 630
1967 579
1971 630
1974 587
1979 622
1982 594
1985 604
1987 614
