64 147
69 137
69 156
69 166
74 175
77 129
79 184
84 193
85 121
85 203
90 212
93 114
97 220
102 109
106 225
111 234
112 109
116 243
122 109
124 250
130 258
132 109
138 265
141 114
145 273
151 114
153 280
160 288
161 114
168 295
170 119
175 303
179 313
179 323
180 122
184 332
187 130
192 139
192 339
199 147
199 347
204 356
209 151
209 365
215 159
215 373
220 382
225 162
227 390
232 170
235 397
240 177
242 405
248 184
250 412
257 189
257 420
265 195
265 427
270 405
270 415
273 201
278 210
280 407
285 218
287 415
293 224
296 420
300 232
304 426
309 237
314 430
317 244
317 440
324 252
325 447
332 259
332 455
340 462
342 254
347 470
352 254
355 477
362 249
362 485
364 512
364 522
367 494
369 531
372 249
374 540
374 550
377 560
382 244
382 569
386 579
392 244
394 585
400 593
402 244
408 600
411 249
415 608
421 249
423 615
430 355
430 623
431 249
432 365
438 348
440 254
440 627
442 369
445 340
449 632
450 254
452 369
453 333
457 639
458 260
460 315
460 325
462 369
465 268
465 645
468 308
470 290
472 369
473 275
474 650
482 369
483 655
492 369
492 660
497 669
502 364
506 674
511 369
516 678
520 374
524 685
530 377
533 690
539 382
542 695
547 389
551 700
554 397
561 700
562 404
565 655
565 665
570 674
570 695
571 409
575 655
575 683
579 416
584 660
585 424
590 668
593 430
598 675
600 438
605 447
605 683
610 580
612 455
613 690
615 589
617 464
619 575
620 598
620 698
625 607
626 469
628 705
629 575
634 476
634 612
635 713
638 486
638 580
640 722
642 619
643 495
644 732
648 580
649 627
650 503
652 739
656 749
657 585
658 510
659 631
662 520
664 755
665 639
666 590
667 765
670 527
673 645
674 537
674 773
676 590
679 782
680 545
682 650
684 582
684 791
685 554
685 564
690 573
690 657
691 799
699 662
699 805
705 813
709 664
713 820
718 669
720 828
727 674
728 835
735 843
736 679
743 850
744 686
752 855
753 691
760 699
762 855
768 705
771 860
775 713
781 863
783 720
791 865
792 725
801 865
802 729
805 739
810 748
811 865
818 755
820 870
825 763
830 772
830 870
835 781
835 791
840 800
840 810
840 870
845 819
848 863
850 828
850 838
850 848
