69 477
69 487
69 497
69 507
69 517
69 527
74 457
74 467
74 536
74 546
79 447
79 555
84 437
84 564
89 427
89 573
94 417
94 582
99 591
102 409
104 600
104 1082
104 1092
104 1102
107 399
109 1072
109 1111
110 608
115 391
116 1119
117 1064
118 615
119 1052
123 384
124 1042
124 1125
125 623
130 376
132 1034
133 630
133 1130
137 1024
138 369
140 638
143 1130
144 1007
145 361
148 645
149 987
149 997
153 354
153 1128
154 977
157 650
159 952
159 962
162 349
163 1123
164 897
164 907
164 917
164 927
164 937
165 657
169 747
169 757
169 767
169 777
169 787
169 797
169 807
169 817
169 827
169 837
169 847
169 857
169 867
169 877
169 887
170 341
170 1115
172 665
174 727
174 737
175 1105
179 712
180 336
182 669
183 1098
184 692
184 702
188 329
188 1088
189 682
190 1075
197 324
198 1068
203 1058
206 319
210 1045
215 314
215 1030
220 1010
220 1020
224 309
225 1000
230 990
233 304
235 955
235 965
235 975
239 1132
239 1142
239 1152
240 900
240 910
240 920
240 930
240 940
242 299
244 1122
244 1161
245 750
245 760
245 770
245 780
245 790
245 800
245 810
245 820
245 830
245 840
245 850
245 860
245 870
245 880
245 890
250 735
251 1169
252 294
252 1114
254 1102
255 715
255 725
259 1082
259 1092
259 1175
262 289
264 1067
265 715
268 1180
269 1057
272 289
274 992
274 1002
274 1012
274 1022
274 1032
274 1042
275 717
278 1180
279 937
279 947
279 957
279 967
279 977
281 284
284 722
284 772
284 782
284 792
284 802
284 812
284 822
284 832
284 842
284 852
284 862
284 872
284 882
284 892
284 902
284 912
284 922
288 1178
289 752
289 762
290 279
294 725
294 735
298 1173
300 276
305 1165
310 271
310 1155
318 1148
320 269
323 1138
325 1125
329 264
330 1105
330 1115
335 1090
339 264
340 1080
345 1070
348 259
350 995
350 1005
350 1015
350 1025
350 1035
350 1045
350 1055
355 940
355 950
355 960
355 970
355 980
358 259
360 775
360 785
360 795
360 805
360 815
360 825
360 835
360 845
360 855
360 865
360 875
360 885
360 895
360 905
360 915
360 925
364 1167
364 1177
364 1187
365 755
365 765
367 254
369 1157
369 1196
374 750
374 1147
376 1204
377 254
379 887
379 897
379 907
379 917
379 927
379 937
379 947
379 957
379 967
379 977
379 987
379 997
379 1007
379 1017
379 1027
379 1037
379 1047
379 1057
379 1067
379 1077
379 1127
379 1137
383 755
384 867
384 877
384 1086
384 1096
384 1106
384 1116
384 1210
386 249
389 832
389 842
389 852
393 755
393 1215
394 812
394 822
396 249
399 777
399 787
399 797
402 760
403 1215
405 244
413 1213
415 244
423 1208
424 239
430 1200
434 239
435 1190
440 1180
444 237
445 1160
445 1170
450 1150
454 234
455 890
455 900
455 910
455 920
455 930
455 940
455 950
455 960
455 970
455 980
455 990
455 1000
455 1010
455 1020
455 1030
455 1040
455 1050
455 1060
455 1135
457 1070
460 875
460 1080
460 1090
460 1100
460 1110
460 1120
464 234
465 835
465 845
465 855
465 865
470 820
474 234
475 780
475 790
475 800
475 810
483 229
484 775
493 229
494 775
503 229
504 775
509 1202
509 1212
509 1222
513 229
514 775
514 842
514 852
514 862
514 872
514 882
514 892
514 902
514 912
514 922
514 932
514 942
514 952
514 962
514 972
514 982
514 992
514 1192
514 1231
519 827
519 1001
519 1011
519 1021
519 1031
519 1041
519 1051
519 1061
519 1071
519 1081
519 1091
519 1101
519 1111
519 1121
519 1131
519 1141
519 1151
519 1161
519 1171
519 1181
521 1239
522 224
523 780
524 790
524 800
524 810
529 1245
532 224
538 1250
542 224
548 1250
552 224
558 1248
562 224
568 1243
572 219
575 1235
580 1225
582 219
585 1195
585 1205
585 1215
590 850
590 860
590 870
590 880
590 890
590 900
590 910
590 920
590 930
590 940
590 950
590 960
590 970
590 980
590 1185
592 219
592 990
595 830
595 840
595 1000
595 1010
595 1020
595 1030
595 1040
595 1050
595 1060
595 1070
595 1080
595 1090
595 1100
595 1110
595 1120
595 1130
595 1140
595 1150
595 1160
595 1170
600 795
600 805
600 815
602 219
605 785
612 219
615 785
622 219
625 785
632 219
635 785
642 219
645 785
652 219
655 785
662 219
665 785
672 219
674 790
677 800
682 219
685 807
689 817
692 219
694 826
694 836
694 846
694 856
699 865
702 219
702 875
704 885
707 895
709 905
712 219
712 915
714 925
719 934
719 944
722 219
724 953
724 963
724 973
724 1092
724 1102
724 1112
724 1122
724 1132
724 1142
724 1152
725 983
729 993
729 1003
729 1013
729 1023
729 1033
729 1043
729 1053
729 1063
729 1073
729 1083
729 1161
729 1171
729 1181
731 224
734 1190
737 1200
739 1210
739 1220
741 224
744 1229
750 1237
751 224
757 1245
760 785
761 224
765 795
765 805
767 815
767 1249
770 825
770 835
770 845
771 224
774 800
775 854
775 864
777 810
777 1250
780 229
780 873
780 883
784 818
784 828
785 892
785 902
787 1249
789 837
789 847
790 229
790 911
790 921
794 856
795 930
797 940
797 1244
800 229
800 950
800 960
800 970
800 1095
800 1105
800 1115
800 1125
800 1135
801 864
802 980
802 1145
804 874
805 990
805 1000
805 1010
805 1020
805 1030
805 1040
805 1050
805 1060
805 1070
805 1080
805 1155
805 1165
805 1175
805 1185
805 1235
806 884
809 894
810 229
810 1194
810 1225
811 904
814 914
815 1203
815 1213
819 234
819 923
819 933
819 943
819 953
824 962
824 972
829 234
829 981
829 991
829 1001
829 1011
829 1021
834 1030
834 1040
834 1050
834 1060
834 1070
834 1080
837 1090
839 234
839 1100
840 770
844 1109
844 1119
845 779
849 236
849 1128
850 770
850 788
850 1138
855 797
855 807
855 1147
859 239
859 775
859 1157
860 816
862 785
863 826
864 1166
869 239
869 793
870 834
871 1174
874 802
875 843
875 853
876 1183
878 244
879 811
879 821
880 862
880 872
884 830
884 882
884 1190
885 842
885 892
888 244
889 852
890 901
890 911
893 1195
894 861
895 920
895 930
895 940
897 249
897 950
899 870
900 960
902 880
902 970
902 1200
905 980
905 990
905 1000
905 1010
905 1020
907 249
907 889
910 1029
910 1039
910 1049
910 1059
910 1069
910 1079
912 1200
914 897
914 907
915 1088
915 1098
916 254
919 916
919 926
920 1107
921 1195
924 935
924 945
924 1117
926 254
929 954
929 1126
930 1190
931 964
933 1136
935 259
935 760
936 973
938 1183
940 769
940 983
940 1144
943 1173
944 993
945 259
945 760
945 778
945 1153
945 1163
949 1002
949 1012
950 787
950 797
954 264
954 1021
954 1031
955 760
955 806
955 816
959 1040
959 1050
960 825
962 835
964 264
964 765
964 1059
964 1069
967 844
969 774
969 1078
970 854
973 269
974 1087
975 782
978 860
979 792
979 802
979 1096
982 870
983 270
984 811
985 880
986 1104
987 890
990 900
991 819
991 1113
992 275
994 829
995 909
995 919
996 839
999 849
999 1120
1000 928
1000 938
1002 279
1004 858
1004 868
1005 947
1008 1125
1009 877
1009 887
1010 956
1011 284
1014 896
1015 965
1015 1133
1017 975
1020 289
1020 715
1020 985
1021 904
1022 995
1024 914
1025 724
1025 1005
1025 1137
1026 924
1027 1015
1029 934
1030 289
1030 715
1030 733
1030 1025
1031 944
1035 742
1035 1034
1035 1044
1035 1140
1036 953
1039 294
1039 710
1040 1053
1042 750
1044 960
1045 1062
1045 1140
1047 759
1047 970
1048 299
1048 705
1050 769
1050 779
1053 1069
1054 978
1054 1135
1057 304
1057 700
1058 785
1059 987
1062 795
1062 1074
1062 1129
1065 805
1066 309
1066 695
1067 815
1067 994
1069 1082
1070 825
1070 1115
1074 1002
1074 1091
1075 314
1075 690
1075 834
1075 844
1075 1101
1079 1011
1080 853
1080 863
1085 317
1085 685
1086 1019
1088 870
1092 880
1094 322
1094 1025
1095 680
1095 890
1097 900
1100 910
1100 1033
1102 329
1102 920
1104 675
1110 927
1110 1037
1111 334
1112 669
1114 937
1117 1045
1120 339
1122 664
1122 944
1127 1049
1128 345
1129 952
1130 655
1135 353
1135 960
1137 1050
1139 650
1140 969
1145 357
1147 644
1147 1049
1148 975
1152 365
1155 635
1157 980
1157 1044
1160 372
1163 628
1165 987
1165 1035
1167 380
1170 620
1170 996
1170 1025
1175 387
1175 1005
1175 1015
1178 613
1182 395
1185 605
1190 402
1190 595
1194 412
1198 588
1200 420
1203 578
1205 429
1208 568
1210 438
1213 558
1215 447
1218 548
1219 457
1220 467
1220 530
1224 477
1225 487
1225 497
1225 507
1225 517
