69 477
69 487
69 497
69 507
69 517
69 527
74 457
74 467
74 536
74 546
79 447
79 555
84 437
84 564
89 427
89 573
94 417
94 582
99 591
102 409
104 600
107 399
110 608
115 391
118 615
123 384
125 623
130 376
133 630
138 369
140 638
145 361
148 645
149 987
149 997
149 1007
153 354
154 977
157 650
159 952
159 962
159 1010
162 349
164 897
164 907
164 917
164 927
164 937
165 657
169 747
169 757
169 767
169 777
169 787
169 797
169 807
169 817
169 827
169 837
169 847
169 857
169 867
169 877
169 887
169 1010
170 341
172 665
174 727
174 737
178 1015
179 712
180 336
182 669
184 692
184 702
187 1020
188 329
189 682
197 324
197 1020
206 319
207 1024
215 314
216 1029
220 1010
224 309
225 1000
230 990
233 304
235 955
235 965
235 975
240 900
240 910
240 920
240 930
240 940
242 299
245 750
245 760
245 770
245 780
245 790
245 800
245 810
245 820
245 830
245 840
245 850
245 860
245 870
245 880
245 890
250 735
252 294
255 715
255 725
262 289
265 715
272 289
274 992
274 1002
274 1012
274 1022
274 1032
274 1042
274 1052
275 717
279 937
279 947
279 957
279 967
279 977
281 284
284 722
284 772
284 782
284 792
284 802
284 812
284 822
284 832
284 842
284 852
284 862
284 872
284 882
284 892
284 902
284 912
284 922
284 1055
289 752
289 762
290 279
293 1060
294 725
294 735
300 276
302 1065
310 271
312 1065
320 269
322 1065
329 264
331 1070
339 264
341 1073
348 259
349 1067
350 995
350 1005
350 1015
350 1025
350 1035
350 1045
350 1055
355 940
355 950
355 960
355 970
355 980
358 259
360 775
360 785
360 795
360 805
360 815
360 825
360 835
360 845
360 855
360 865
360 875
360 885
360 895
360 905
360 915
360 925
365 755
365 765
367 254
374 750
377 254
379 887
379 897
379 907
379 917
379 927
379 937
379 947
379 957
379 967
379 977
379 987
379 997
379 1007
379 1017
379 1027
379 1037
379 1047
379 1057
379 1067
379 1077
383 755
384 867
384 877
386 249
389 832
389 842
389 852
389 1080
393 755
394 812
394 822
396 249
398 1085
399 777
399 787
399 797
402 760
405 244
408 1085
415 244
417 1090
424 239
427 1090
434 239
437 1090
444 237
447 1090
454 234
455 890
455 900
455 910
455 920
455 930
455 940
455 950
455 960
455 970
455 980
455 990
455 1000
455 1010
455 1020
455 1030
455 1040
455 1050
455 1060
456 1095
457 1070
460 875
460 1080
464 234
465 835
465 845
465 855
465 865
470 820
474 234
475 780
475 790
475 800
475 810
483 229
484 775
493 229
494 775
503 229
504 775
513 229
514 775
514 842
514 852
514 862
514 872
514 882
514 892
514 902
514 912
514 922
514 932
514 942
514 952
514 962
514 972
514 982
514 992
519 827
519 1001
519 1011
519 1021
519 1031
519 1041
519 1051
519 1061
519 1071
519 1081
519 1091
519 1101
519 1111
522 224
523 780
524 790
524 800
524 810
529 1115
532 224
539 1115
542 224
548 1120
552 224
557 1125
562 224
566 1130
572 219
576 1130
582 219
586 1130
590 850
590 860
590 870
590 880
590 890
590 900
590 910
590 920
590 930
590 940
590 950
590 960
590 970
590 980
592 219
592 990
595 830
595 840
595 1000
595 1010
595 1020
595 1030
595 1040
595 1050
595 1060
595 1070
595 1080
595 1090
595 1100
595 1110
595 1120
600 795
600 805
600 815
602 219
605 785
612 219
615 785
622 219
625 785
632 219
635 785
642 219
645 785
652 219
655 785
662 219
665 785
672 219
674 790
677 800
682 219
685 807
689 817
692 219
694 826
694 836
694 846
694 856
699 865
702 219
702 875
704 885
707 895
709 905
712 219
712 915
714 925
719 934
719 944
722 219
724 953
724 963
724 973
724 1092
724 1102
724 1112
724 1122
725 983
729 993
729 1003
729 1013
729 1023
729 1033
729 1043
729 1053
729 1063
729 1073
729 1083
731 224
734 1122
741 224
744 1120
751 224
754 1120
760 785
761 224
763 1115
765 795
765 805
767 815
770 825
770 835
770 845
771 224
772 1110
774 800
775 854
775 864
777 810
780 229
780 873
780 883
782 1110
784 818
784 828
785 892
785 902
789 837
789 847
790 229
790 911
790 921
792 1109
794 856
795 930
797 940
800 229
800 950
800 960
800 970
800 1095
801 864
802 980
804 874
805 990
805 1000
805 1010
805 1020
805 1030
805 1040
805 1050
805 1060
805 1070
805 1080
806 884
809 894
810 229
811 904
814 914
819 234
819 923
819 933
819 943
819 953
824 962
824 972
829 234
829 981
829 991
829 1001
829 1011
829 1021
834 1030
834 1040
834 1050
834 1060
834 1070
834 1080
837 1090
839 234
840 770
845 779
846 1085
849 236
850 770
850 788
855 797
855 807
855 1080
859 239
859 775
860 816
862 785
863 826
865 1080
869 239
869 793
870 834
874 802
875 843
875 853
875 1075
878 244
879 811
879 821
880 862
880 872
884 830
884 882
885 842
885 892
885 1075
888 244
889 852
890 901
890 911
894 861
895 920
895 930
895 940
895 1075
897 249
897 950
899 870
900 960
902 880
902 970
905 980
905 990
905 1000
905 1010
905 1020
905 1075
907 249
907 889
910 1029
910 1039
910 1049
910 1059
914 897
914 907
916 254
919 916
919 926
924 935
924 945
926 254
929 954
931 964
935 259
935 760
936 973
940 769
940 983
944 993
945 259
945 760
945 778
949 1002
949 1012
950 787
950 797
954 264
954 1021
954 1031
955 760
955 806
955 816
959 1040
959 1050
960 825
962 835
964 264
964 765
967 844
969 774
969 1052
970 854
973 269
975 782
977 1045
978 860
979 792
979 802
982 870
983 270
984 811
985 880
986 1040
987 890
990 900
991 819
992 275
994 829
995 909
995 919
996 839
996 1040
999 849
1000 928
1000 938
1002 279
1004 858
1004 868
1005 947
1005 1035
1009 877
1009 887
1010 956
1011 284
1014 896
1014 1030
1015 965
1017 975
1020 289
1020 715
1020 985
1021 904
1022 995
1023 1025
1024 914
1025 724
1025 1005
1026 924
1027 1015
1029 934
1030 289
1030 715
1030 733
1031 944
1035 742
1036 953
1039 294
1039 710
1042 750
1044 960
1047 759
1047 970
1048 299
1048 705
1050 769
1050 779
1054 978
1057 304
1057 700
1058 785
1059 987
1062 795
1065 805
1066 309
1066 695
1067 815
1069 990
1070 825
1075 314
1075 690
1075 834
1075 844
1077 984
1080 853
1080 863
1085 317
1085 685
1085 975
1088 870
1092 880
1093 968
1094 322
1095 680
1095 890
1097 900
1100 910
1102 329
1102 920
1103 963
1104 675
1110 927
1110 955
1111 334
1112 669
1114 937
1120 339
1120 950
1122 664
1128 345
1130 655
1135 353
1139 650
1145 357
1147 644
1152 365
1155 635
1160 372
1163 628
1167 380
1170 620
1175 387
1178 613
1182 395
1185 605
1190 402
1190 595
1194 412
1198 588
1200 420
1203 578
1205 429
1208 568
1210 438
1213 558
1215 447
1218 548
1219 457
1220 467
1220 530
1224 477
1225 487
1225 497
1225 507
1225 517
