169 907
174 916
174 926
174 936
174 946
179 902
181 954
184 892
186 963
192 884
194 702
194 712
194 722
194 732
194 742
194 752
194 762
194 772
194 782
194 792
194 847
194 857
194 867
194 970
199 682
199 692
199 801
199 811
199 821
199 831
204 662
204 672
204 972
209 652
214 967
217 644
219 627
222 960
224 612
229 602
231 955
237 594
239 947
242 584
244 937
249 572
250 925
257 564
258 918
263 908
264 1052
265 556
265 890
270 705
270 715
270 725
270 735
270 745
270 755
270 765
270 775
270 785
270 855
270 865
270 875
272 1059
273 549
274 1047
275 685
275 695
275 794
275 804
275 814
275 824
275 834
275 844
279 1067
282 544
282 1039
283 678
284 762
284 772
284 782
284 799
284 809
284 819
284 829
284 839
284 849
286 859
287 1074
288 668
289 747
289 869
290 536
290 650
292 1034
294 727
294 737
294 878
294 888
294 1017
295 635
295 1080
299 712
299 897
299 907
299 1002
300 531
303 628
304 702
304 916
304 926
304 936
304 946
304 956
304 966
304 976
304 986
305 1080
308 524
308 618
309 692
314 682
314 1085
315 610
317 519
322 674
323 603
324 1085
327 519
327 664
333 598
333 1090
335 656
336 514
340 590
343 1088
345 651
346 514
350 590
350 641
350 1075
356 514
358 634
358 1068
360 590
360 770
360 780
360 790
360 800
360 810
360 820
360 830
360 840
362 850
363 1058
365 750
365 760
365 860
365 1040
366 514
367 629
367 870
370 590
370 735
370 880
370 1025
372 890
375 725
375 900
375 1005
375 1015
376 514
376 624
380 590
380 715
380 909
380 919
380 929
380 939
380 949
380 959
380 969
380 979
380 989
386 514
386 624
389 710
389 812
389 822
389 832
389 842
389 852
389 862
389 872
390 592
394 372
394 382
394 392
394 402
394 412
394 422
394 432
394 442
394 452
394 462
394 472
394 617
394 792
394 802
394 881
394 891
394 901
395 519
397 704
399 332
399 342
399 352
399 362
399 481
399 491
399 501
399 777
399 910
399 920
400 595
404 307
404 317
404 612
404 757
404 767
404 929
404 939
404 1117
405 695
409 287
409 297
409 747
409 948
409 1107
410 595
412 1124
414 267
414 277
414 609
414 957
415 690
417 739
417 1099
419 252
419 600
419 966
419 976
421 1129
422 729
422 1089
424 237
424 609
424 985
424 995
424 1005
424 1067
424 1077
425 685
427 1015
429 227
429 1025
429 1035
429 1045
429 1055
430 721
431 1133
434 217
435 685
438 714
439 202
441 1135
444 192
445 685
445 706
450 1140
452 184
453 699
455 685
457 174
460 1140
462 164
462 694
465 815
465 825
465 835
465 845
465 855
467 865
469 152
469 1145
470 800
470 875
470 885
470 895
475 780
475 790
475 904
475 914
477 144
477 1139
480 923
482 134
483 773
485 932
485 1125
490 126
490 765
490 941
490 951
490 1115
495 960
495 1105
497 970
498 119
499 760
500 980
500 990
500 1000
500 1070
500 1080
500 1090
502 1010
505 111
505 1020
505 1030
505 1040
505 1050
505 1060
509 757
509 807
509 817
509 827
509 837
509 847
509 857
509 867
509 877
509 887
509 897
509 907
509 917
513 104
514 787
514 797
514 926
514 936
519 755
519 777
519 945
520 96
522 955
524 965
524 1147
524 1157
527 769
527 975
528 89
529 755
529 985
529 1137
534 994
534 1160
537 84
537 1129
539 1003
542 1119
543 1165
544 1012
544 1022
544 1032
544 1042
544 1052
544 1062
545 76
547 1109
549 1071
549 1081
549 1091
553 1165
555 71
562 1170
563 64
572 59
572 1170
582 59
582 1170
585 810
585 820
585 830
585 840
585 850
585 860
585 870
585 880
585 890
585 900
585 910
590 919
590 929
591 54
592 1170
593 803
595 938
595 948
600 49
600 795
600 957
601 1165
604 967
605 1155
609 976
610 49
610 795
610 1145
613 986
615 996
615 1135
620 46
620 797
620 1005
620 1015
620 1025
620 1035
620 1045
620 1120
622 1055
625 1065
625 1075
625 1085
625 1095
625 1105
630 44
630 800
639 805
640 44
648 810
650 44
658 810
660 44
665 818
670 44
674 1042
674 1052
674 1062
674 1072
674 1082
674 1092
674 1102
674 1112
674 1122
675 822
679 49
679 832
679 1027
679 1131
684 1017
684 1140
684 1150
687 839
687 1160
689 49
692 1009
694 847
697 999
697 1160
699 51
699 856
702 989
704 865
704 875
704 885
704 977
707 1160
708 56
709 894
709 904
709 914
709 924
709 934
709 944
709 954
709 964
717 1160
718 59
727 64
727 1160
735 775
736 69
737 785
737 1160
744 770
745 74
747 789
747 1160
750 1050
750 1060
750 1070
750 1080
750 1090
750 1100
750 1110
753 80
754 770
754 797
755 1119
755 1129
757 1159
758 1043
760 805
760 1138
762 85
763 765
763 1033
765 814
765 824
765 1147
768 1023
770 92
770 833
773 765
773 1013
775 842
775 1000
777 100
780 851
780 861
780 871
780 980
780 990
783 765
783 881
785 107
785 891
785 901
785 911
785 921
785 931
785 941
785 951
785 961
785 971
792 115
792 770
797 779
800 122
804 787
804 997
804 1007
804 1017
804 1027
804 1037
804 1047
804 1057
804 1067
804 1077
804 1087
807 130
809 796
809 982
809 1096
814 805
814 815
814 942
814 952
814 962
814 972
814 1105
815 137
819 147
819 824
819 907
819 917
819 927
819 1114
820 695
821 834
824 844
824 854
824 864
824 874
824 884
824 894
825 155
825 704
825 1122
830 164
830 695
832 1130
834 709
835 173
839 700
840 182
842 715
842 1130
847 190
849 700
850 722
852 199
852 1130
854 732
855 209
858 705
860 218
860 620
860 740
862 1129
865 227
865 629
865 713
865 749
867 1119
869 237
870 247
870 620
870 722
870 758
875 256
875 632
875 1105
877 730
878 266
878 765
880 276
880 620
880 1005
880 1015
880 1025
880 1035
880 1045
880 1055
880 1065
882 739
882 775
882 1075
883 286
883 1098
885 296
885 540
885 634
885 785
885 985
885 995
887 795
887 1084
888 306
889 747
889 757
890 316
890 326
890 515
890 525
890 620
890 805
890 950
890 960
890 970
894 639
894 766
894 776
895 335
895 345
895 355
895 365
895 475
895 485
895 495
895 505
895 544
895 814
895 824
895 910
895 920
895 930
895 940
899 800
900 374
900 384
900 394
900 404
900 414
900 424
900 434
900 444
900 454
900 464
900 620
900 833
900 843
900 853
900 863
900 873
900 883
900 893
902 645
905 544
909 838
909 848
909 858
909 868
909 878
909 888
909 898
909 908
909 918
909 928
909 938
909 948
909 958
909 968
909 978
909 988
909 998
909 1008
909 1018
909 1028
910 620
910 652
910 1038
914 1048
915 544
915 1058
917 660
920 620
925 544
925 667
925 1055
929 677
930 622
933 1048
935 544
935 685
939 627
940 694
940 1040
945 547
945 703
947 634
950 1035
953 710
954 552
954 642
957 720
959 1030
960 730
962 649
962 740
964 556
965 750
966 659
967 1024
969 669
970 759
970 769
970 779
970 789
973 561
974 678
974 688
974 698
975 708
975 798
975 808
975 1015
979 718
979 728
979 738
979 748
979 764
979 774
980 569
980 817
980 827
981 784
983 1008
984 803
985 836
985 846
985 856
985 866
985 876
985 886
985 896
985 906
985 916
985 926
985 936
985 946
985 956
985 966
985 976
985 986
985 996
989 822
990 572
994 841
994 851
997 580
999 860
1004 869
1005 587
1009 878
1010 888
1012 595
1015 897
1020 602
1022 905
1025 611
1027 914
1030 620
1034 922
1035 629
1039 931
1040 638
1040 648
1045 657
1045 667
1049 927
1050 676
1050 686
1050 696
1053 706
1055 716
1055 726
1055 736
1055 746
1055 756
1055 766
1055 776
1057 919
1060 785
1060 795
1060 805
1062 815
1065 825
1065 910
1070 834
1073 903
1075 843
1080 852
1080 862
1080 895
1087 870
1088 888
