274 277
274 287
279 267
279 296
279 306
284 315
287 259
287 325
292 249
292 334
294 344
299 353
300 241
304 362
304 372
304 382
304 392
309 401
310 236
314 410
319 419
320 231
324 428
329 437
329 447
330 229
337 454
340 229
341 464
346 473
350 229
354 480
357 490
359 500
360 229
364 509
369 518
370 232
374 527
379 536
380 234
384 545
389 239
389 554
391 564
396 573
397 245
399 583
404 592
405 252
409 601
410 261
414 610
415 270
417 620
420 279
420 289
424 628
425 298
425 638
429 648
430 307
434 317
434 657
439 666
442 324
444 675
449 684
450 330
451 694
455 339
456 703
460 348
460 713
464 723
465 357
469 732
470 366
474 741
475 375
479 750
480 384
480 394
482 760
485 403
487 769
489 779
490 412
494 422
494 788
495 432
495 798
500 441
503 805
505 450
507 815
509 825
510 459
510 469
514 834
515 478
519 843
520 487
524 852
525 496
528 506
529 861
529 871
533 515
534 880
537 525
539 889
542 534
544 898
545 544
549 907
549 917
550 553
554 926
555 562
559 572
559 935
560 582
564 944
565 591
566 954
570 600
571 963
575 609
575 973
580 618
580 982
584 992
585 627
589 637
589 1001
590 647
594 1010
595 656
597 1020
600 665
602 1029
605 674
606 1039
609 1049
610 683
615 692
615 1057
619 702
619 1067
620 712
624 1076
624 1086
625 721
629 1095
630 730
634 1104
635 739
639 1113
640 748
644 1122
644 1132
645 757
645 767
649 1141
650 776
654 1150
655 785
659 1159
660 794
660 804
664 1168
665 813
665 1178
670 822
670 1187
674 1197
675 831
679 1206
680 840
684 1215
685 849
685 859
689 1224
691 1234
693 865
695 875
699 1240
699 1250
700 884
704 1259
705 893
705 903
709 1268
713 910
714 1277
717 920
719 1286
719 1296
720 930
724 1305
725 939
729 1314
730 948
734 1323
735 957
735 1333
739 967
740 977
740 1342
744 1352
745 986
749 1361
750 995
754 1370
755 1004
755 1014
757 1380
760 1023
762 1389
765 1032
766 1399
770 1041
771 1408
773 1051
775 1418
780 1059
783 1425
785 1068
785 1078
790 1087
790 1433
795 1096
798 1440
800 1105
802 1115
805 1448
807 1124
810 1134
813 1455
815 1143
820 1152
820 1463
825 1161
828 1470
830 1170
835 1179
835 1189
835 1478
840 1198
843 1485
845 1207
850 1216
852 1490
855 1225
860 1234
860 1497
865 1243
867 1505
870 1252
870 1262
875 1271
875 1512
880 1280
884 1517
885 1289
890 1298
892 1524
895 1307
895 1317
899 1532
900 1326
904 1541
905 1335
909 1550
910 1344
910 1354
914 1559
915 1363
915 1373
915 1383
916 1569
920 1392
920 1402
920 1412
920 1422
920 1432
920 1442
920 1452
920 1462
920 1472
920 1482
924 1575
925 1491
925 1501
925 1511
925 1521
925 1531
927 1585
930 1540
935 1549
936 1590
940 1558
940 1568
945 1577
