334 632
334 642
334 652
334 662
334 672
334 682
339 612
339 622
339 691
344 602
344 700
349 592
349 709
354 718
357 584
359 727
364 736
365 576
371 744
373 569
376 753
380 561
384 760
388 554
389 769
395 546
395 777
402 785
405 541
410 792
413 534
417 800
422 529
425 807
430 521
432 815
440 516
441 820
448 509
449 826
457 504
459 830
465 838
467 499
475 842
476 494
484 847
485 489
494 484
494 850
503 479
503 855
512 860
513 479
517 869
521 879
522 474
529 885
532 469
532 895
540 902
542 469
547 910
552 469
552 919
559 927
562 464
569 930
572 464
575 938
581 459
585 942
591 455
595 945
601 454
604 950
611 454
614 950
621 454
623 955
631 450
632 960
641 449
642 960
651 449
652 960
661 445
662 960
671 444
671 955
680 439
681 955
690 439
691 955
700 439
700 950
709 434
710 950
719 434
719 945
727 939
729 434
737 935
739 434
747 935
749 432
757 935
759 429
767 935
769 429
777 939
779 429
787 940
789 429
797 944
799 429
807 945
809 427
817 949
819 424
827 950
829 424
837 954
839 424
847 955
849 424
857 955
859 424
866 960
869 424
876 960
879 422
886 963
889 419
896 965
899 419
906 965
908 424
915 970
918 424
925 970
928 424
935 970
938 424
945 972
948 424
955 975
958 424
965 975
968 424
975 975
978 424
985 975
988 424
995 975
998 424
1005 977
1008 424
1015 980
1018 424
1025 980
1028 424
1035 980
1038 424
1044 985
1047 419
1054 985
1057 414
1064 985
1067 409
1074 985
1075 401
1083 394
1084 985
1092 389
1094 985
1102 384
1103 990
1110 376
1112 995
1119 1003
1120 371
1124 1012
1124 1022
1129 1031
1129 1041
1130 366
1136 1049
1138 359
1141 1058
1147 354
1149 1065
1154 1074
1155 346
1160 1082
1165 341
1167 1090
1173 334
1175 1097
1182 329
1182 1105
1192 324
1192 1109
1200 1115
1202 319
1210 1117
1212 314
1219 1122
1221 309
1229 302
1229 1125
1238 1130
1239 297
1248 1130
1249 294
1257 1135
1258 289
1267 284
1267 1135
1277 279
1277 1139
1287 279
1287 1140
1296 274
1297 1140
1305 269
1307 1140
1315 269
1317 1140
1324 264
1327 1140
1334 262
1337 1139
1344 259
1347 1135
1354 257
1357 1135
1364 254
1366 1130
1374 254
1375 1125
1384 254
1385 1125
1393 249
1394 1120
1403 249
1404 1117
1413 249
1414 1112
1422 254
1424 1107
1432 254
1434 1102
1442 254
1442 1095
1451 1090
1452 254
1460 1085
1462 254
1468 1078
1472 254
1475 1070
1482 254
1483 1063
1490 1055
1492 254
1498 1048
1502 254
1503 1038
1510 1030
1511 259
1515 1015
1521 259
1523 1008
1530 1000
1531 259
1539 995
1541 259
1549 992
1550 264
1559 990
1560 264
1569 990
1570 264
1579 990
1580 264
1589 990
1590 264
1599 990
1600 264
1609 990
1610 264
1619 269
1619 990
1628 264
1629 990
1637 269
1639 990
1647 269
1649 990
1657 269
1659 990
1666 274
1668 985
1676 274
1678 985
1686 274
1688 985
1696 274
1698 985
1706 274
1708 985
1715 279
1718 985
1725 279
1728 985
1735 282
1737 980
1745 284
1747 980
1755 284
1757 980
1765 284
1767 980
1775 284
1777 979
1784 289
1787 975
1794 289
1797 975
1804 289
1807 975
1813 294
1817 975
1823 294
1827 975
1833 294
1836 970
1842 299
1846 970
1852 299
1856 970
1861 304
1866 970
1871 304
1875 965
1881 304
1885 965
1890 309
1895 965
1900 309
1905 965
1909 314
1914 960
1919 314
1924 960
1929 316
1934 960
1939 319
1944 957
1948 324
1954 955
1958 324
1964 955
1967 329
1973 960
1977 329
1983 960
1986 334
1990 968
1996 334
1998 975
1999 985
2004 994
2005 339
2010 1002
2015 342
2017 1010
2024 347
2025 1017
2032 1025
2034 351
2040 1032
2043 356
2047 1040
2053 359
2055 1047
2063 360
2064 1052
2070 368
2074 1055
2080 369
2083 1060
2088 375
2092 1065
2097 380
2101 1070
2105 387
2111 1070
2115 389
2121 1070
2124 394
2131 1070
2132 400
2140 407
2141 1070
2149 412
2151 1070
2157 419
2161 1070
2166 424
2171 1070
2175 429
2180 1065
2185 432
2190 1065
2194 437
2199 1060
2202 444
2209 1060
2211 449
2218 1055
2219 456
2225 464
2227 1050
2235 467
2236 1045
2243 474
2245 1040
2252 479
2253 1033
2259 487
2260 1025
2267 494
2268 1018
2274 502
2275 1010
2283 1003
2284 506
2288 993
2290 514
2295 985
2298 520
2303 978
2305 528
2308 968
2313 535
2313 958
2320 543
2320 940
2320 950
2325 930
2328 550
2334 925
2335 558
2343 565
2343 920
2350 573
2352 915
2358 580
2362 914
2367 585
2372 910
2375 592
2382 600
2382 910
2387 609
2391 905
2394 617
2400 900
2402 624
2408 893
2409 632
2413 883
2414 641
2415 865
2418 651
2420 835
2420 845
2420 855
2425 659
2425 825
2430 668
2430 810
2435 800
2438 675
2440 685
2440 785
2445 694
2445 704
2445 775
2450 713
2450 723
2450 750
2450 760
2455 732
