659 1152
659 1162
664 1142
669 1165
672 1134
679 1165
682 1129
689 1165
692 1129
699 812
699 1165
702 1124
704 787
704 797
704 821
709 772
709 1165
712 1124
714 757
714 822
719 742
719 1165
722 1124
724 727
724 820
729 702
729 712
729 1165
732 1124
734 687
734 817
739 677
739 1165
742 1124
744 642
744 652
744 662
744 815
749 632
749 1165
752 1124
753 810
754 622
759 612
759 1165
762 1124
763 808
764 602
769 592
769 1165
772 1124
773 805
777 584
779 1165
782 800
782 1124
784 572
789 257
789 267
789 277
789 287
789 297
789 307
789 317
789 327
789 337
789 347
789 357
789 562
789 1165
791 795
792 1124
794 237
794 247
794 366
794 552
799 227
799 375
799 1165
800 790
802 385
802 544
802 1119
807 219
807 394
808 783
809 1165
810 536
812 1119
814 402
815 775
816 214
818 529
819 411
819 992
819 1002
819 1012
819 1022
819 1032
819 1042
819 1052
819 1062
819 1072
819 1165
822 1119
823 768
824 977
824 1081
825 209
825 521
826 419
829 967
829 1165
830 760
831 428
831 1089
832 1119
833 514
834 204
834 957
839 435
839 947
839 1095
839 1165
840 506
840 755
841 1114
843 199
844 932
845 443
848 499
848 1100
849 922
849 1165
850 452
850 750
851 1114
853 199
854 462
854 472
854 482
854 912
858 743
859 897
859 1165
862 194
864 872
864 882
868 740
869 862
869 1165
872 189
874 852
878 740
879 837
879 1165
882 189
884 822
888 740
889 812
889 1162
890 1030
890 1040
890 1050
890 1060
890 1070
892 189
892 1080
894 797
895 1090
897 1100
897 1154
898 740
899 782
900 1030
900 1110
900 1120
900 1130
900 1140
902 189
904 748
904 758
904 768
910 1030
912 189
920 1030
922 189
930 1030
931 194
939 201
940 1030
948 206
950 1030
958 210
960 1032
964 1102
964 1112
964 1122
964 1132
964 1142
964 1152
965 218
969 1037
969 1047
969 1057
969 1067
969 1077
969 1087
972 1159
975 222
980 1165
983 229
989 1170
992 234
999 1170
1002 234
1005 1125
1005 1135
1009 1170
1010 1110
1011 239
1015 665
1015 745
1015 755
1015 765
1015 1139
1017 775
1018 1103
1018 1175
1020 244
1022 784
1023 658
1023 1093
1025 669
1025 745
1025 794
1025 1139
1027 1180
1028 250
1030 650
1030 803
1030 1085
1035 669
1035 745
1035 812
1035 1139
1037 255
1037 1180
1038 1078
1040 650
1040 821
1040 831
1043 841
1044 674
1045 747
1045 851
1045 1070
1045 1139
1046 1185
1047 259
1048 861
1049 645
1050 871
1050 881
1050 891
1050 901
1050 1060
1054 267
1054 674
1054 752
1054 1134
1055 355
1055 910
1055 920
1056 1185
1057 365
1057 639
1058 1053
1060 275
1060 285
1060 295
1060 305
1060 315
1060 325
1060 335
1060 345
1060 929
1060 939
1060 949
1063 679
1064 755
1064 1134
1065 958
1065 1040
1066 1185
1067 369
1067 634
1073 680
1073 760
1073 965
1073 1033
1073 1129
1075 625
1076 374
1076 1185
1082 685
1083 760
1083 969
1083 1028
1083 1129
1085 615
1086 374
1086 1185
1090 692
1091 365
1092 1124
1093 608
1093 760
1093 969
1093 1025
1096 355
1096 1185
1099 697
1100 600
1102 765
1102 1119
1103 969
1103 1023
1104 337
1104 347
1105 590
1105 705
1106 1185
1109 327
1109 773
1110 580
1110 714
1112 1119
1113 969
1113 1020
1114 782
1115 565
1115 723
1115 733
1116 1185
1117 319
1120 550
1120 742
1121 1114
1122 789
1123 969
1123 1020
1124 752
1125 535
1126 314
1126 799
1126 1185
1131 808
1131 1114
1132 759
1133 969
1133 1020
1134 307
1135 535
1135 818
1136 1185
1140 1109
1141 764
1143 825
1143 969
1143 1020
1144 302
1144 540
1146 1185
1147 550
1147 835
1150 769
1150 1109
1152 559
1153 969
1153 1020
1154 299
1154 843
1156 1185
1159 567
1159 852
1159 1104
1160 769
1163 969
1163 1020
1164 299
1165 1180
1169 570
1169 855
1169 1104
1170 769
1172 1015
1173 969
1174 297
1175 1180
1178 860
1179 570
1179 1104
1180 769
1182 1015
1183 969
1184 294
1185 1180
1187 854
1188 1109
1189 570
1190 769
1190 815
1190 825
1192 1014
1193 969
1194 294
1194 1175
1195 834
1195 844
1197 1114
1199 570
1200 769
1200 815
1202 1010
1203 969
1203 1170
1204 292
1204 1122
1209 570
1210 769
1210 815
1211 1005
1212 964
1212 1129
1212 1164
1214 289
1219 570
1220 769
1220 815
1220 1000
1220 1135
1220 1150
1221 959
1224 289
1229 570
1229 774
1229 952
1230 815
1230 1000
1234 289
1237 944
1238 779
1239 570
1239 995
1240 815
1244 289
1245 936
1247 784
1247 989
1249 567
1249 922
1250 810
1254 291
1254 912
1256 789
1257 984
1259 565
1260 799
1262 904
1263 296
1265 975
1267 894
1268 560
1272 884
1273 300
1273 968
1277 555
1277 874
1278 958
1280 308
1284 852
1284 862
1285 545
1288 315
1288 953
1289 842
1292 325
1294 540
1294 827
1295 940
1299 802
1299 812
1300 332
1300 930
1302 534
1304 762
1304 772
1304 782
1304 792
1305 915
1307 340
1309 752
1310 525
1310 900
1312 349
1314 742
1315 880
1315 890
1318 518
1319 357
1320 865
1322 734
1323 508
1325 365
1325 855
1327 724
1328 498
1330 374
1330 845
1332 714
1333 488
1335 835
1338 380
1340 475
1340 825
1342 709
1345 388
1345 465
1345 815
1350 397
1350 407
1350 455
1350 701
1350 800
1355 416
1355 426
1355 436
1355 446
1355 765
1355 775
1355 785
1360 696
1360 745
1360 755
1365 735
1370 694
1373 728
1380 694
1383 723
1389 699
1393 718
1395 707
