4 622
4 632
4 642
9 612
9 651
9 661
9 671
9 681
14 690
14 700
17 604
19 709
21 719
25 596
26 728
30 586
30 738
39 577
40 742
47 750
49 567
52 759
57 559
59 767
65 551
67 774
73 544
74 782
80 536
82 789
89 527
91 794
99 517
99 800
105 808
109 507
113 815
119 502
120 823
127 494
129 828
135 486
137 835
145 481
146 840
153 474
154 846
160 466
161 854
170 461
171 858
178 454
179 865
187 449
188 870
195 441
197 875
203 434
205 882
212 429
215 885
220 421
224 890
228 414
233 895
235 406
240 903
245 401
248 910
253 394
257 915
260 386
266 920
269 377
275 925
277 369
281 933
285 361
290 938
294 352
300 940
304 347
309 945
312 339
318 950
321 334
326 325
327 955
331 315
337 959
339 307
341 969
349 297
351 970
354 287
360 975
364 277
369 980
372 269
379 980
380 261
388 254
388 985
394 242
397 990
402 234
406 995
407 224
415 216
416 995
423 209
426 995
427 199
434 187
435 1000
442 179
445 1000
449 1032
449 1042
449 1052
449 1062
449 1072
449 1082
449 1092
450 171
454 995
454 1007
454 1017
454 1101
458 164
464 152
464 1105
472 144
474 1105
477 134
482 1099
484 122
489 112
491 1104
497 104
499 1110
502 94
504 82
508 1115
512 74
514 57
514 1123
514 1197
514 1207
514 1217
514 1227
515 1133
519 47
523 1140
524 37
524 1150
524 1172
524 1182
524 1192
524 1230
524 1240
529 27
529 1159
529 1249
529 1259
529 1269
529 1279
529 1289
534 1298
534 1308
534 1318
534 1347
534 1357
537 19
539 1327
539 1337
539 1366
546 1374
547 19
554 1380
557 19
557 1390
560 1005
560 1015
560 1025
562 1399
566 24
566 1409
570 1007
570 1026
571 1418
575 29
577 1015
579 1425
580 38
580 48
584 1434
585 57
590 66
590 1442
594 1452
596 74
600 84
600 1220
602 1230
604 1455
605 1170
605 1180
605 1190
605 1200
605 1210
605 1240
605 1250
605 1260
605 1270
605 1280
605 1290
607 1300
607 1465
608 90
610 1155
610 1310
610 1320
612 100
612 1330
615 1340
617 1350
617 1469
618 1148
620 107
622 1359
624 117
624 1477
625 1140
625 1369
625 1379
630 125
630 1125
633 1385
634 1480
635 134
637 1395
639 1120
640 143
640 1405
640 1488
647 1114
648 150
648 1411
650 1492
653 1420
655 158
655 1100
659 1497
660 1090
660 1428
663 165
665 1080
668 1434
669 1500
670 173
675 1082
677 1439
678 180
678 1505
684 1447
685 188
685 1085
688 1505
690 197
690 990
690 1000
690 1010
692 1020
694 1451
695 1030
695 1080
697 205
697 1040
697 1510
700 992
700 1050
700 1060
700 1070
703 1456
705 212
707 1510
709 222
710 995
713 1459
717 229
717 1510
720 239
720 995
723 1459
726 1515
728 245
730 995
732 1454
735 253
736 1515
739 990
740 262
741 1449
746 1515
747 270
749 987
750 1444
755 277
756 1515
759 985
759 1437
762 285
766 1515
767 294
767 1429
768 980
775 1510
776 299
777 1429
778 978
784 306
785 1510
787 1429
788 973
790 314
795 965
795 1510
797 1429
800 317
804 327
804 960
804 1437
804 1505
805 1447
805 1457
812 334
812 954
814 1452
814 1502
821 339
822 949
824 1447
824 1500
825 349
830 940
832 1439
834 1497
835 352
839 1427
840 935
843 359
844 1417
844 1492
848 928
852 364
852 1409
854 1487
855 920
859 372
861 1404
864 1482
865 910
869 376
871 1404
874 1477
875 384
875 905
881 1404
882 1470
883 898
885 387
890 890
890 1409
891 1465
894 392
899 1402
900 885
900 1460
904 396
908 878
908 1453
909 1399
910 404
915 1445
918 873
919 409
919 1399
920 1435
925 865
925 1425
927 1405
928 414
930 1415
934 860
937 419
940 850
946 424
950 840
955 429
958 833
963 435
965 825
972 440
975 820
982 444
983 813
989 452
990 805
998 798
999 456
1005 464
1005 790
1013 783
1015 467
1023 474
1023 778
1030 770
1032 479
1038 763
1041 484
1045 755
1049 491
1055 499
1055 745
1064 740
1065 502
1070 730
1072 510
1079 725
1082 514
1085 524
1087 719
1095 527
1095 710
1100 700
1102 535
1105 690
1110 542
1110 675
1115 665
1117 550
1120 645
1120 655
1122 559
1128 638
1129 567
1130 610
1130 620
1135 575
1135 585
1135 595
