4 622
4 632
4 642
9 612
9 651
9 661
9 671
9 681
14 690
14 700
17 604
19 709
21 719
25 596
26 728
30 586
30 738
39 577
40 742
47 750
49 567
52 759
57 559
59 767
65 551
67 774
73 544
74 782
80 536
82 789
89 527
91 794
99 517
99 800
105 808
109 507
113 815
119 502
120 823
127 494
129 828
135 486
137 835
145 481
146 840
153 474
154 846
160 466
161 854
170 461
171 858
178 454
179 865
187 449
188 870
195 441
197 875
203 434
205 882
212 429
215 885
220 421
224 890
228 414
233 895
237 409
240 903
247 409
248 910
256 404
257 915
265 399
266 920
274 394
275 925
281 933
284 394
290 938
293 389
300 940
302 384
309 945
310 376
318 950
320 371
327 955
328 364
335 356
337 959
341 969
343 349
351 970
352 344
360 975
361 339
369 980
370 334
379 327
379 980
387 319
388 985
392 309
397 990
401 304
406 995
409 297
416 995
417 289
422 279
426 995
430 271
435 261
435 1000
443 254
445 1000
449 1032
449 1042
449 1052
449 1062
449 1072
449 1082
450 246
454 995
454 1007
454 1017
455 1090
458 239
465 1090
467 234
475 1092
476 229
484 222
485 1095
491 1103
492 214
499 1110
500 206
508 1115
510 201
514 1123
515 1133
520 199
523 1140
524 1150
524 1172
524 1182
529 194
529 1159
529 1191
529 1201
529 1211
529 1221
529 1231
529 1241
529 1251
529 1261
529 1271
529 1281
529 1291
534 1300
534 1310
534 1320
534 1347
534 1357
539 194
539 1329
539 1366
546 1374
549 194
554 1380
557 1390
559 194
560 1005
560 1015
560 1025
562 1399
566 1409
569 194
570 1007
570 1026
571 1418
577 1015
579 196
579 1425
584 1434
585 204
590 1442
594 209
594 1452
600 1220
602 1230
603 214
604 1455
605 1170
605 1180
605 1190
605 1200
605 1210
605 1240
605 1250
605 1260
605 1270
605 1280
605 1290
607 1300
607 1465
610 1155
610 1310
610 1320
612 219
612 1330
615 1340
617 1350
617 1469
618 1148
619 227
622 1359
624 1477
625 1140
625 1369
625 1379
627 234
630 1125
633 1385
634 1480
636 239
637 1395
639 1120
640 1405
640 1488
644 246
647 1114
648 1411
650 1490
653 251
653 1420
655 1100
659 1485
660 259
660 1090
660 1428
665 1080
668 265
668 1435
669 1482
670 1445
675 273
675 1082
675 1454
679 1477
680 1463
685 277
685 1085
690 990
690 1000
690 1010
692 285
692 1020
695 1030
695 1080
697 1040
700 992
700 1050
700 1060
700 1070
702 289
710 995
711 294
720 995
721 294
730 299
730 995
739 990
740 302
749 307
749 987
757 314
759 985
766 319
768 980
774 326
778 978
780 334
788 973
790 337
795 965
800 339
804 960
809 344
812 954
818 349
822 949
827 354
830 940
837 354
840 935
846 359
848 928
854 366
855 920
860 374
865 910
870 377
875 905
878 384
883 898
887 389
890 890
896 394
900 885
905 399
908 878
913 405
918 873
922 410
925 865
932 414
934 860
940 850
941 419
949 426
950 840
958 431
958 833
965 439
965 825
975 442
975 820
983 813
984 447
990 805
992 454
998 798
1001 459
1005 790
1010 464
1013 783
1018 470
1023 778
1027 475
1030 770
1035 482
1038 763
1044 487
1045 755
1052 494
1055 745
1061 499
1064 740
1069 506
1070 730
1075 514
1079 725
1085 517
1087 719
1092 525
1095 710
1100 532
1100 700
1105 690
1107 540
1110 675
1115 547
1115 665
1120 556
1120 645
1120 655
1126 564
1128 638
1130 610
1130 620
1134 571
1135 581
1135 591
1135 601
