109 592
109 642
114 577
114 601
114 611
114 621
114 631
119 547
119 557
119 567
119 645
127 539
129 517
129 527
129 645
129 655
129 665
132 675
134 502
137 684
139 492
144 482
144 692
144 702
149 472
149 711
154 462
156 719
162 454
165 620
165 630
166 715
167 444
167 640
170 610
170 650
170 660
170 670
172 434
174 721
175 600
175 679
177 424
180 688
181 729
183 593
184 412
185 697
188 583
189 735
192 404
193 704
195 570
199 735
200 396
200 560
202 709
205 550
208 389
208 730
211 714
212 379
213 543
215 738
219 367
220 535
220 719
225 525
225 742
227 359
230 719
233 518
235 351
235 745
240 510
240 719
243 344
245 747
248 503
249 724
250 336
255 750
258 329
258 498
259 722
265 321
265 490
265 750
269 719
270 311
273 483
274 745
275 301
278 473
278 714
283 294
283 740
285 465
287 709
289 282
292 735
293 458
295 701
297 274
300 450
301 730
304 692
305 266
308 443
310 725
312 684
315 261
315 430
318 718
320 676
323 254
323 423
325 710
328 669
330 246
330 410
333 703
335 661
338 239
338 403
340 690
343 654
345 231
345 395
345 680
350 646
353 224
353 388
355 670
360 216
360 380
360 641
363 663
365 631
368 209
368 373
370 655
373 624
374 197
375 365
378 648
380 616
382 189
383 358
385 635
388 609
389 592
390 181
390 350
393 628
395 340
397 584
398 174
398 618
403 333
404 162
404 562
404 572
405 610
410 325
412 154
412 554
413 603
415 315
420 146
420 546
420 595
423 308
428 139
428 298
428 539
428 588
434 127
435 285
435 531
435 580
440 275
442 119
443 524
443 573
449 270
450 516
450 565
451 114
457 264
458 509
458 558
460 109
465 255
465 550
467 504
469 492
470 106
470 540
473 248
478 533
479 491
480 104
480 240
480 501
480 511
480 521
488 233
490 104
495 225
499 99
500 215
509 97
509 210
517 204
519 94
525 195
528 89
533 188
537 84
543 183
547 84
550 170
555 160
556 79
563 153
565 74
570 145
574 69
579 140
583 64
587 134
592 59
595 120
602 59
603 113
609 67
613 108
617 74
620 100
625 90
626 79
