89 367
94 307
94 317
94 327
94 337
94 347
94 357
94 376
94 386
99 297
99 395
99 405
104 262
104 272
104 282
104 414
106 424
109 242
109 252
111 433
114 232
115 443
119 222
120 452
124 462
127 214
129 471
132 204
134 480
139 489
140 196
145 497
148 189
149 507
154 516
155 181
159 525
162 535
163 174
170 166
170 542
174 552
178 159
179 561
184 570
185 151
190 578
193 144
195 587
199 597
200 325
200 335
200 345
200 355
200 365
202 139
202 375
204 606
205 300
205 310
205 385
205 395
209 615
210 404
212 134
212 625
213 293
215 280
215 413
220 270
220 422
220 432
220 632
221 129
225 260
225 441
227 640
228 451
230 124
233 253
233 460
235 647
239 117
240 245
240 468
242 655
245 235
245 477
245 487
249 114
249 497
249 663
254 672
255 230
255 505
259 114
259 681
260 514
265 225
265 523
266 689
269 114
270 532
271 698
274 220
275 541
275 708
279 112
280 550
280 717
284 220
285 559
287 725
289 109
290 568
292 734
294 217
295 577
296 744
299 109
300 586
301 753
304 215
304 763
306 594
309 109
309 772
310 604
314 215
315 613
318 104
319 775
320 622
324 215
324 784
327 630
328 104
330 792
332 639
334 215
334 802
334 812
335 649
335 659
338 104
340 668
342 819
344 215
345 677
347 109
349 687
349 827
353 220
354 696
354 836
357 109
358 706
359 845
360 716
362 225
363 726
365 736
365 853
366 114
371 744
372 229
375 754
375 855
376 114
379 237
383 760
385 119
385 850
387 244
387 770
392 779
395 119
395 250
395 789
395 845
401 258
403 795
404 840
405 122
405 268
410 803
410 813
412 834
413 275
414 127
414 285
415 822
420 293
424 131
425 302
432 310
433 136
437 319
440 144
444 327
449 336
450 147
456 344
459 152
461 353
465 363
467 159
470 372
474 167
477 380
482 174
482 389
484 399
490 407
491 179
497 415
499 186
502 424
504 434
505 194
506 444
513 200
514 450
517 460
522 205
522 469
527 214
529 477
534 222
534 486
539 495
542 229
545 239
545 503
553 245
553 510
557 255
557 520
562 529
567 259
569 537
570 269
574 546
575 278
579 555
580 287
582 565
585 296
589 573
590 583
591 304
598 590
599 311
604 598
605 319
609 607
609 617
610 328
615 337
617 624
620 346
624 632
625 355
629 641
630 364
634 650
635 373
637 660
639 670
643 380
644 679
650 388
650 687
654 697
655 397
655 407
659 706
660 416
664 715
665 425
670 434
670 723
678 440
679 728
684 737
685 448
689 746
690 457
695 466
696 754
700 475
704 760
705 484
707 770
712 779
713 490
716 789
719 799
719 809
719 819
720 498
720 508
724 828
724 838
724 848
725 517
729 527
729 857
734 536
734 866
734 876
740 544
741 884
744 894
745 553
749 903
750 562
750 572
754 912
755 581
760 590
762 919
765 599
766 929
770 608
774 935
775 617
777 945
780 626
782 954
786 634
789 962
790 644
794 971
795 653
799 980
800 662
802 990
807 670
807 999
812 679
814 1007
815 689
819 1016
820 698
824 1025
825 707
829 1034
830 716
835 725
835 1042
840 734
842 1050
845 743
845 995
847 1005
850 752
850 1015
852 1025
852 1049
854 762
855 1035
859 1010
860 770
862 1020
865 779
867 1029
870 788
874 1037
875 797
875 807
875 817
880 826
882 1044
885 835
885 845
887 855
890 865
892 875
892 1039
895 990
897 884
897 1029
900 894
900 904
900 935
900 945
900 955
900 965
900 975
900 999
900 1009
900 1019
905 913
905 923
