104 862
104 872
109 797
109 807
109 817
109 827
109 837
109 847
109 881
109 891
109 901
109 911
109 921
114 772
114 782
114 930
114 940
119 757
119 949
121 959
124 737
124 747
126 968
129 727
130 978
134 717
135 987
139 707
142 995
144 697
147 1004
152 689
154 1012
157 679
159 1021
165 671
166 1029
170 661
174 1035
178 654
180 1043
185 646
190 1047
195 641
197 1055
203 634
205 1062
210 626
214 1067
218 619
222 1074
227 614
231 1079
235 606
239 1085
243 599
248 1090
250 591
255 1098
260 586
265 1102
268 579
274 1107
275 571
284 1110
285 566
293 559
293 1115
302 554
302 1120
310 1127
311 549
319 1132
320 544
327 1139
329 539
335 1145
339 537
345 1145
349 532
355 1145
359 529
364 1150
368 524
374 1150
378 524
383 1155
387 519
392 1160
397 514
402 1160
407 514
411 1165
417 509
421 1168
427 509
431 1170
436 504
440 1175
446 504
449 1180
455 499
459 1180
465 499
468 1185
474 494
478 1185
484 494
487 1190
493 489
497 1194
503 489
507 1195
513 489
517 1199
522 484
527 1200
532 484
537 1204
542 479
547 1205
552 479
557 1209
562 479
567 1210
571 474
577 1210
581 474
586 1215
591 470
596 1215
601 469
606 1215
611 465
615 1220
621 464
625 1220
631 460
635 1222
641 459
645 1225
651 455
655 1225
661 454
665 1227
671 454
675 1230
680 449
685 1230
690 446
695 1230
700 444
704 1235
710 441
714 1235
720 439
724 1235
730 436
734 1235
740 434
744 1235
750 434
754 1235
759 429
764 1235
769 429
774 1235
779 427
783 1240
789 424
793 1240
799 424
803 1240
809 424
813 1240
819 422
823 1240
829 419
833 1240
839 419
843 1240
849 419
853 1240
858 414
862 1235
868 414
872 1235
878 414
882 1235
888 414
892 1235
898 414
902 1235
907 409
912 1234
917 409
922 1230
927 409
932 1230
937 409
942 1229
946 404
952 1225
955 399
962 1225
964 394
972 1224
973 389
982 1220
983 389
992 384
992 1219
1002 379
1002 1215
1010 371
1012 1214
1018 364
1022 1210
1025 356
1032 1209
1035 351
1042 1205
1043 344
1052 339
1052 1204
1060 331
1062 1200
1068 324
1071 1195
1074 312
1080 1190
1082 304
1090 296
1090 1190
1099 1185
1100 291
1108 284
1109 1185
1118 284
1118 1180
1127 279
1128 1178
1137 274
1138 1175
1147 274
1148 1173
1157 274
1158 1170
1166 279
1168 1168
1176 279
1178 1165
1186 275
1188 1163
1196 274
1198 1160
1205 269
1208 1158
1215 269
1218 1153
1225 266
1228 1148
1235 264
1238 1143
1244 257
1248 1140
1252 249
1258 1140
1260 241
1268 234
1268 1140
1275 226
1277 1135
1285 221
1287 1135
1295 216
1297 1135
1305 211
1306 1130
1313 204
1316 1130
1320 196
1325 186
1326 1130
1333 179
1335 1125
1340 171
1345 1125
1348 164
1355 156
1355 1125
1363 149
1365 1120
1370 141
1375 205
1375 1120
1378 134
1380 195
1385 126
1385 209
1385 1120
1388 188
1395 121
1395 180
1395 209
1395 1120
1403 173
1404 204
1405 119
1405 1120
1410 165
1413 199
1414 124
1415 1120
1418 158
1422 130
1423 148
1423 199
1424 1115
1432 194
1434 1115
1442 194
1444 1115
1452 194
1454 1115
1462 194
1464 1115
1472 194
1474 1115
1482 194
1484 1115
1492 194
1494 1115
1502 194
1504 1115
1512 194
1514 1115
1522 194
1524 1115
1531 199
1534 1115
1541 199
1544 1115
1551 199
1554 1115
1560 204
1564 1115
1570 204
1574 1115
1579 209
1584 1115
1589 209
1594 1115
1599 209
1604 1115
1608 214
1614 1115
1618 215
1623 1120
1628 219
1633 1120
1638 219
1642 1125
1648 219
1652 1125
1658 219
1662 1125
1668 220
1671 1130
1678 224
1679 1136
1684 1145
1687 1155
1688 224
1697 229
1697 1159
1704 1167
1707 229
1714 1170
1717 229
1723 1175
1726 234
1732 1180
1736 234
1742 1180
1746 234
1752 1180
1755 239
1762 1180
1765 239
1771 1185
1775 239
1781 1185
1785 242
1791 1185
1795 244
1801 1188
1805 244
1811 1190
1814 249
1821 1190
1824 249
1831 1190
1834 249
1841 1190
1844 249
1851 1190
1853 254
1860 1195
1863 254
1870 1195
1873 254
1880 1195
1883 254
1890 1195
1893 254
1899 1200
1903 254
1909 1200
1913 254
1919 1200
1923 255
1929 1200
1933 259
1938 1205
1943 259
1948 1205
1953 259
1958 1205
1963 259
1968 1205
1973 259
1978 1205
1983 260
1988 1205
1993 264
1998 1205
2003 264
2008 1205
2013 264
2018 1205
2023 265
2028 1205
2033 269
2038 1205
2043 269
2048 1205
2053 270
2058 1205
2063 274
2068 1205
2073 274
2078 1205
2082 279
2088 1205
2092 279
2098 1205
2102 279
2108 1205
2111 284
2118 1205
2121 284
2128 1205
2131 284
2138 1205
2141 284
2148 1205
2150 289
2157 1210
2160 289
2167 1210
2169 294
2177 1209
2179 294
2187 1205
2189 296
2196 1200
2199 299
2206 1203
2209 299
2215 1208
2219 301
2225 1210
2229 304
2233 1203
2239 306
2240 1195
2249 309
2250 1190
2259 311
2260 1185
2269 314
2270 1180
2279 316
2280 1180
2289 319
2289 1175
2298 1170
2299 321
2307 1165
2309 324
2316 1160
2318 329
2325 1155
2327 334
2333 1148
2337 334
2343 1143
2346 339
2350 1135
2355 344
2358 1128
2363 350
2365 1120
2370 1110
2372 355
2377 364
2378 1103
2383 1093
2384 372
2390 380
2390 1080
2395 389
2395 1070
2403 395
2403 1063
2407 405
2408 1053
2413 1043
2415 412
2415 1015
2415 1025
2420 421
2420 1005
2425 995
2426 429
2430 439
2433 988
2435 448
2435 975
2440 457
2440 467
2440 960
2445 476
2445 925
2445 935
2445 945
2448 486
2450 496
2450 506
2450 516
2450 540
2450 550
2450 560
2450 570
2450 580
2450 910
2453 526
2455 589
2455 599
2455 609
2455 645
2455 655
2455 665
2455 675
2455 710
2455 720
2455 730
2455 740
2455 750
2455 760
2455 770
2455 895
2457 780
2460 618
2460 628
2460 684
2460 694
2460 790
2460 875
2460 885
2465 799
2465 809
2465 819
2465 829
2465 839
2465 849
2465 859
