104 827
104 837
104 847
104 857
104 867
104 877
104 887
104 897
109 807
109 817
109 906
114 792
114 915
117 925
119 782
122 934
124 772
126 944
129 762
131 953
134 752
139 742
139 960
144 732
145 968
149 722
150 977
154 712
157 985
162 704
165 992
169 692
172 1000
177 684
180 1007
185 676
187 1015
193 669
197 1019
202 664
204 1027
210 656
212 1034
218 649
221 1039
227 644
229 1045
236 639
238 1050
245 634
247 1055
254 629
255 1062
263 624
264 1067
272 1074
273 624
281 1079
282 619
289 1085
292 614
299 1085
302 609
308 1090
312 609
317 1095
321 604
326 1100
331 600
336 1103
341 599
345 1108
351 595
355 1112
361 594
364 1117
371 590
374 1120
381 589
383 1125
391 585
392 1130
401 584
402 1134
411 584
411 1139
420 579
421 1140
430 579
430 1145
439 574
440 1147
449 574
449 1152
459 572
459 1155
468 1160
469 569
478 1160
479 567
487 1165
489 564
497 1169
499 562
507 1170
509 559
517 1174
519 557
527 1175
529 554
536 1180
539 554
546 1180
549 552
555 1185
559 549
565 1185
569 549
574 1190
578 544
584 1190
588 544
593 1195
597 539
603 1195
607 539
613 1195
617 534
622 1200
627 534
632 1200
637 529
642 1200
647 529
651 1205
657 529
661 1205
666 524
671 1205
676 524
681 1208
686 524
691 1210
695 519
701 1210
705 519
711 1210
715 519
721 1210
725 519
731 1210
735 516
740 1215
745 514
750 1215
755 514
760 1215
765 514
770 1215
775 514
780 1215
785 514
789 1210
795 514
799 1210
805 514
809 1210
815 514
819 1210
825 514
829 1210
835 514
839 1207
845 514
849 1205
855 514
859 1205
865 514
868 1200
874 509
878 1200
884 509
888 1198
894 509
898 1195
904 509
907 1190
913 514
917 1189
923 514
927 1185
933 514
937 1184
943 514
947 1180
953 514
957 1179
963 514
967 1175
973 514
976 1170
982 509
985 1165
992 509
995 1165
1002 509
1004 1160
1012 509
1014 1160
1022 509
1023 1155
1032 509
1033 1155
1042 509
1042 1150
1051 1145
1052 509
1060 1140
1062 509
1070 1135
1072 509
1080 1135
1082 509
1090 1135
1092 509
1099 1130
1102 504
1109 1130
1112 504
1119 1127
1120 496
1129 1125
1130 491
1138 484
1139 1125
1145 476
1149 1122
1155 471
1159 1120
1163 464
1169 1120
1170 456
1178 449
1179 1120
1187 444
1189 1120
1195 436
1198 1115
1203 429
1208 1115
1212 424
1218 1115
1220 416
1228 409
1228 1115
1232 399
1237 389
1238 1115
1245 381
1247 1120
1253 374
1254 1128
1254 1138
1255 1148
1259 1158
1260 366
1260 1168
1265 1177
1268 359
1274 1182
1275 351
1280 341
1284 1182
1288 334
1292 324
1294 1177
1299 312
1299 1167
1300 1155
1305 1130
1305 1140
1307 304
1310 1120
1315 296
1319 1115
1323 289
1329 1115
1330 281
1338 274
1339 1115
1345 266
1349 1115
1353 259
1359 1115
1360 251
1368 244
1369 1115
1375 236
1379 1115
1385 231
1388 1120
1393 224
1398 1120
1402 219
1408 1120
1410 211
1418 1120
1420 206
1427 1125
1430 201
1437 1125
1440 199
1447 1125
1449 194
1456 1130
1459 194
1466 1130
1468 189
1474 1136
1478 189
1479 1145
1479 1155
1482 1165
1488 189
1490 1172
1497 184
1497 1180
1507 184
1507 1184
1517 184
1517 1185
1526 189
1527 1189
1536 189
1537 1190
1546 189
1547 1194
1556 189
1557 1195
1565 184
1567 1195
1575 184
1577 1199
1584 179
1587 1200
1594 179
1597 1200
1603 174
1606 1205
1613 174
1616 1205
1622 169
1626 1205
1632 169
1635 1210
1642 169
1645 1210
1651 164
1655 1212
1661 164
1665 1215
1671 164
1675 1215
1680 159
1685 1217
1690 159
1695 1220
1700 159
1705 1220
1710 156
1715 1220
1720 154
1724 1225
1730 154
1734 1225
1740 154
1744 1225
1750 154
1753 1230
1760 154
1763 1230
1770 154
1773 1230
1780 154
1783 1230
1790 154
1792 1235
1800 154
1802 1235
1810 154
1812 1235
1820 157
1822 1235
1830 159
1832 1235
1840 159
1842 1235
1850 159
1852 1239
1859 164
1862 1240
1869 164
1872 1240
1879 166
1882 1240
1889 169
1892 1240
1899 169
1902 1240
1908 174
1912 1240
1917 179
1922 1240
1927 179
1932 1239
1936 184
1942 1235
1946 184
1952 1235
1955 189
1962 1235
1964 194
1972 1234
1974 196
1982 1230
1983 201
1992 1229
1993 205
2002 1225
2003 209
2012 214
2012 1224
2021 219
2022 1220
2030 224
2032 1219
2040 227
2042 1214
2049 232
2050 1205
2059 236
2060 1200
2065 244
2069 1195
2075 247
2077 1189
2084 252
2085 1180
2093 1173
2094 256
2100 1165
2103 261
2108 1158
2110 269
2115 1145
2120 272
2120 1135
2127 280
2128 1128
2133 1118
2137 284
2138 1108
2143 1098
2144 292
2148 1088
2150 1075
2152 299
2155 1060
2160 1040
2160 1050
2161 304
2165 1025
2169 311
2170 1015
2175 319
2178 1008
2183 325
2185 1000
2190 333
2193 993
2198 340
2198 983
2205 348
2205 970
2210 357
2210 955
2215 940
2217 365
2220 920
2220 930
2222 374
2225 825
2225 835
2225 890
2225 900
2225 910
2227 845
2229 382
2230 392
2230 655
2230 665
2230 675
2230 685
2230 695
2230 705
2230 715
2230 725
2230 735
2230 745
2230 755
2230 765
2230 775
2230 810
2230 855
2230 865
2230 875
2232 785
2235 401
2235 640
2235 795
2238 411
2240 421
2243 431
2243 633
2245 441
2245 451
2248 461
2248 623
2253 613
2254 469
2258 603
2260 580
2260 590
2262 475
2265 565
2270 482
2270 555
2275 545
2277 490
2280 500
2280 530
2285 509
2285 519
