1224 557
1224 567
1224 577
1229 547
1229 586
1234 537
1234 595
1239 527
1240 603
1249 522
1250 607
1259 519
1259 612
1259 622
1264 631
1269 521
1269 640
1269 897
1269 907
1275 648
1277 889
1278 526
1279 910
1283 655
1285 534
1287 889
1289 910
1290 663
1293 540
1294 737
1294 747
1294 757
1294 767
1294 777
1294 787
1294 797
1294 807
1294 817
1294 827
1294 837
1294 847
1294 857
1294 867
1294 877
1297 550
1299 727
1299 910
1300 560
1300 667
1304 717
1309 672
1309 910
1310 564
1312 709
1319 675
1319 910
1320 564
1320 701
1329 675
1329 910
1330 564
1330 696
1330 740
1330 750
1330 760
1330 770
1330 780
1330 790
1330 800
1330 810
1330 820
1330 830
1332 840
1337 849
1338 680
1339 690
1339 735
1339 910
1340 564
1340 859
1345 868
1345 878
1347 904
1349 735
1350 564
1350 887
1359 735
1360 564
1369 735
1370 567
1379 572
1379 735
1388 730
1389 576
1397 725
1398 581
1405 589
1406 720
1413 595
1416 720
1420 603
1426 720
1429 730
1429 740
1430 607
1434 749
1436 759
1439 612
1439 769
1444 778
1447 619
1449 787
1449 797
1454 627
1454 806
1459 636
1464 810
1468 641
1473 650
1473 815
1480 658
1482 820
1485 667
1489 677
1491 825
1494 686
1495 696
1495 706
1495 716
1495 726
1495 736
1495 746
1498 756
1500 820
1503 765
1510 815
1513 769
1520 761
1520 805
1525 795
1528 754
1530 785
1535 746
1538 778
1540 736
1548 729
1548 773
1555 721
1555 765
1560 711
1565 701
1565 760
1573 694
1575 755
1582 689
1585 755
1591 694
1595 755
1600 699
1605 755
1608 705
1614 750
1617 710
1624 750
1625 717
1634 750
1635 719
1644 724
1644 750
1653 729
1654 750
1660 737
