449 862
449 872
449 882
449 892
449 902
454 627
454 637
454 647
454 657
454 667
454 911
454 921
457 854
459 562
459 572
459 582
459 592
459 602
459 612
459 676
459 930
459 940
464 552
464 842
464 949
466 684
469 532
469 542
469 832
469 958
470 968
474 522
475 977
476 688
477 824
479 507
479 987
484 497
485 693
486 819
487 994
493 700
494 492
494 1002
495 814
499 482
499 1011
499 1021
502 705
504 809
504 1030
507 1040
509 477
512 705
512 1049
513 804
514 1059
519 472
519 1068
522 709
523 804
524 1077
529 469
532 710
532 1084
533 804
536 1094
539 469
541 715
541 1103
543 804
549 469
549 1110
551 718
553 804
558 1115
559 469
560 723
563 805
567 1120
569 469
570 725
573 809
577 1120
578 474
579 730
583 809
587 479
587 1120
588 735
593 810
594 487
597 1120
598 735
600 495
602 815
605 504
607 740
607 1120
610 822
613 510
617 740
617 1120
619 327
619 827
620 518
624 312
624 336
624 346
625 527
625 537
626 745
626 1125
627 834
629 302
629 355
629 365
629 375
630 844
632 385
633 544
634 395
634 751
635 853
636 1125
637 294
637 405
641 759
642 414
642 539
643 860
645 286
646 424
646 1125
649 765
650 868
652 539
653 279
654 430
656 1125
658 770
658 875
660 271
662 539
663 435
664 778
665 788
665 883
665 1130
668 264
669 798
669 808
672 539
673 435
673 890
674 817
674 827
674 837
674 847
675 1130
677 259
679 856
679 866
679 876
680 898
681 534
682 440
684 885
685 1130
686 254
691 534
692 440
695 249
695 1130
701 530
702 444
705 246
705 1132
711 529
712 445
715 244
715 1135
720 524
722 445
725 241
725 1135
729 457
730 524
734 466
735 239
735 1135
739 475
740 521
742 485
744 1130
745 236
747 494
750 519
752 1124
755 231
756 499
759 217
759 509
762 1119
764 122
764 132
764 142
764 152
764 207
769 161
769 171
769 181
769 191
772 114
772 1114
780 1105
781 109
788 1098
790 104
798 1093
800 104
803 1083
810 104
813 1078
820 104
820 1070
829 1075
830 104
838 1080
840 107
845 1088
847 115
852 124
855 1092
859 132
865 1095
869 134
874 1100
878 139
884 1100
888 139
893 1105
898 139
902 1110
908 139
912 1110
918 139
921 1115
928 139
931 1115
938 139
941 1115
948 139
951 1115
958 139
961 1115
968 139
971 1115
978 139
981 1115
988 139
990 1120
998 139
1000 1120
1008 139
1010 1120
1018 139
1018 1113
1025 1105
1028 139
1033 1098
1038 139
1039 1090
1047 134
1049 1090
1054 117
1059 107
1059 1090
1068 1095
1069 102
1075 1103
1079 99
1083 1110
1089 99
1092 1115
1099 101
1100 1122
1108 106
1109 1127
1115 114
1117 1134
1123 120
1125 470
1125 480
1126 1139
1130 128
1130 460
1130 489
1135 137
1136 1143
1139 455
1139 494
1140 146
1145 155
1145 1148
1147 500
1149 455
1150 164
1152 509
1155 173
1155 183
1155 1150
1158 450
1162 509
1163 189
1164 1155
1167 444
1172 194
1172 434
1172 509
1173 1160
1180 425
1181 199
1182 509
1183 1160
1185 415
1190 204
1192 509
1192 1165
1193 408
1195 280
1198 210
1198 398
1200 289
1200 385
1202 220
1202 509
1202 1165
1205 298
1205 308
1205 318
1205 328
1205 375
1210 227
1210 285
1210 337
1210 347
1210 357
1212 509
1212 1165
1215 236
1219 290
1221 244
1222 509
1222 1165
1229 251
1229 290
1231 514
1231 1170
1235 259
1239 292
1240 268
1240 519
1241 1170
1245 277
1245 528
1245 538
1250 547
1250 557
1251 1170
1255 566
1261 574
1261 1170
1269 581
1270 1165
1273 591
1278 600
1278 1158
1285 608
1285 1150
1290 617
1290 1140
1295 626
1295 1125
1301 634
1303 1118
1308 1108
1309 641
1313 1098
1315 649
1318 1088
1323 655
1325 1080
1330 663
1330 1070
1335 1045
1335 1055
1338 670
1340 1035
1345 678
1348 1028
1353 685
1353 1018
1355 1005
1360 693
1360 840
1362 850
1363 998
1365 702
1368 833
1368 988
1370 857
1370 975
1372 710
1375 825
1375 866
1375 960
1380 717
1380 815
1380 940
1380 950
1381 874
1385 805
1385 884
1385 894
1385 904
1385 914
1385 924
1387 725
1390 790
1395 732
1395 742
1395 752
1395 762
1395 772
