474 842
474 852
474 862
474 872
474 882
474 892
474 902
474 912
474 922
474 932
479 832
479 941
479 951
484 960
489 827
489 969
494 978
499 552
499 562
499 572
499 582
499 592
499 602
499 612
499 622
499 632
499 824
499 987
504 542
504 641
504 651
504 996
509 532
509 660
509 822
509 1005
514 522
514 1014
515 668
519 512
519 819
519 1023
520 677
524 1032
527 504
527 685
529 819
532 1039
534 1049
536 499
536 690
539 819
539 1058
544 492
544 1067
544 1077
545 695
549 819
549 1086
552 484
554 700
556 1094
559 472
559 819
563 705
564 1100
568 814
569 467
570 1108
572 710
578 815
578 1115
579 464
582 710
587 820
588 1115
589 464
591 715
592 829
598 1115
599 466
599 837
601 718
607 844
608 471
608 1115
610 854
611 720
615 479
615 863
618 1115
620 488
621 723
623 870
625 497
628 1115
629 730
630 878
632 505
635 738
637 514
638 885
638 1115
640 524
640 747
644 317
644 327
644 337
644 347
644 357
645 893
648 530
648 1115
649 307
649 366
649 376
649 752
652 540
653 900
654 385
657 299
657 395
657 759
657 1110
660 908
662 289
662 404
662 544
666 764
667 1110
668 914
670 281
670 410
672 544
674 770
674 780
676 1105
677 919
678 274
679 415
679 789
679 799
681 809
682 544
684 819
684 829
684 839
684 849
686 1105
687 269
687 919
688 420
689 858
689 868
689 878
689 888
689 898
689 908
692 544
696 264
696 1105
698 420
702 544
706 264
706 1105
707 425
711 539
715 259
716 1105
717 425
721 539
725 259
726 1105
727 425
731 539
735 259
736 1105
737 425
739 435
739 445
739 455
741 535
744 464
744 474
745 256
746 1105
749 483
750 246
751 534
754 492
756 1105
758 239
759 501
759 511
759 521
764 227
766 1105
769 137
769 147
769 157
769 167
769 177
769 187
769 197
769 207
769 217
774 127
774 1097
780 1085
782 119
785 1075
787 109
794 1070
797 104
803 1065
807 104
813 1065
817 104
823 1065
826 109
830 1073
835 114
835 1082
844 1087
845 114
854 119
854 1090
862 125
863 1095
872 129
872 1100
881 134
882 1104
890 139
892 1105
900 139
902 1105
910 139
912 1105
920 139
922 1105
929 144
932 1105
939 144
942 1105
949 144
952 1105
959 144
962 1105
969 144
971 1100
979 144
981 1100
989 144
991 1100
999 144
1001 1100
1009 144
1010 1095
1019 144
1020 1095
1029 144
1030 1090
1039 144
1040 1090
1049 144
1050 1090
1059 144
1059 1095
1068 1100
1069 144
1078 1100
1079 142
1087 134
1087 1105
1096 129
1097 1105
1105 124
1106 1110
1110 440
1110 450
1110 460
1115 121
1115 469
1116 1113
1120 435
1125 119
1125 469
1125 1118
1129 430
1135 122
1135 469
1135 1122
1138 425
1142 1130
1143 475
1144 127
1147 420
1150 135
1150 483
1150 493
1150 1137
1155 144
1155 154
1157 420
1157 1145
1158 499
1160 163
1160 173
1167 419
1167 1149
1168 180
1168 500
1174 1157
1175 188
1177 415
1177 505
1182 1164
1183 195
1186 410
1187 509
1190 203
1190 1170
1195 405
1197 509
1198 209
1200 1170
1205 395
1207 214
1207 509
1210 385
1210 1170
1214 222
1217 509
1220 230
1220 380
1220 1170
1225 239
1225 290
1225 300
1227 509
1228 373
1230 248
1230 309
1230 1170
1233 283
1235 257
1235 365
1236 514
1240 266
1240 312
1240 524
1240 1170
1243 358
1244 322
1245 533
1248 348
1249 331
1250 542
1250 1170
1254 552
1258 1163
1259 561
1265 569
1265 1150
1273 575
1273 1143
1280 583
1280 1135
1288 589
1288 1128
1295 1120
1297 594
1303 1113
1306 599
1308 1103
1314 606
1315 1095
1318 616
1323 1088
1325 624
1330 1080
1333 630
1338 1073
1340 638
1343 1063
1345 647
1350 656
1350 1055
1356 664
1358 1048
1363 1038
1364 671
1370 679
1370 1030
1375 688
1375 1020
1380 697
1380 830
1380 840
1380 850
1380 1010
1385 859
1385 1000
1387 705
1388 823
1390 868
1390 990
1395 712
1395 815
1395 877
1395 980
1399 722
1400 732
1400 886
1400 896
1400 906
1400 916
1400 926
1400 936
1400 946
1400 956
1400 966
1403 808
1404 742
1408 798
1410 750
1410 775
1410 785
1415 759
