449 857
449 867
449 877
449 887
449 897
454 847
454 906
454 916
454 926
459 837
459 935
464 827
464 944
469 953
474 607
474 617
474 627
474 637
474 647
474 657
474 822
474 962
479 582
479 592
479 666
479 971
484 557
484 567
484 819
486 674
486 979
489 527
489 537
489 547
494 512
494 680
494 819
494 985
497 690
499 502
499 994
504 492
504 819
504 1003
505 697
509 1012
512 484
512 705
514 819
514 1021
519 1030
520 476
520 712
522 1040
524 819
527 1049
529 717
530 471
534 819
534 1057
534 1067
538 464
539 720
539 1076
539 1086
544 819
544 1095
547 459
548 725
549 1104
554 819
555 1112
557 459
558 725
559 1122
564 819
567 459
567 1129
568 725
571 1139
574 819
577 459
578 725
581 1143
584 819
587 459
588 725
590 1148
594 821
597 459
598 725
600 1152
603 826
607 459
607 730
610 1155
613 830
616 464
617 730
620 838
620 1155
625 469
627 730
628 845
630 1157
633 475
635 853
636 735
637 485
640 1160
642 494
643 860
645 504
646 738
649 297
649 307
649 317
650 513
650 523
650 868
650 1160
654 282
654 326
655 532
656 740
659 272
659 335
659 542
660 872
660 1160
662 345
664 551
665 881
666 740
667 264
667 354
669 364
669 750
669 760
669 770
669 780
670 1160
671 889
674 373
674 554
674 789
674 799
675 899
676 809
677 259
679 382
679 819
679 829
679 839
679 849
679 859
679 869
679 879
680 1160
683 549
684 391
687 254
689 400
690 541
690 1160
695 408
697 254
700 539
700 1155
705 412
707 254
709 534
710 1150
714 417
717 254
719 534
719 1145
724 420
727 254
728 529
728 1140
734 420
737 254
737 1135
738 529
739 429
739 439
739 449
739 459
739 469
741 479
746 488
747 254
747 524
747 1134
754 495
757 254
757 505
757 524
757 1129
764 177
764 187
764 197
764 207
764 217
764 227
764 237
765 512
767 524
767 1124
769 157
769 167
774 137
774 147
777 1119
779 122
784 112
787 1114
792 104
797 94
797 1109
805 1100
807 89
815 1095
817 84
825 1090
826 89
835 94
835 1085
845 97
845 1080
854 102
855 1080
861 1088
862 109
869 1095
872 109
875 1103
881 114
885 1107
890 119
895 1110
899 124
905 1110
909 126
915 1110
918 131
925 1110
928 135
935 1105
938 139
945 1105
948 139
955 1105
957 144
965 1105
967 144
974 1100
977 144
984 1097
987 144
994 1095
997 144
1004 1095
1007 144
1014 1095
1016 139
1024 1095
1026 139
1034 132
1034 1095
1042 124
1043 1090
1051 119
1052 1084
1057 1075
1060 114
1065 1082
1069 109
1072 1090
1078 104
1080 1097
1088 104
1089 1102
1097 1109
1098 104
1105 1115
1108 104
1114 1120
1117 109
1120 1128
1125 1137
1126 114
1130 430
1130 440
1130 450
1130 460
1130 470
1130 480
1130 490
1130 500
1134 121
1134 1142
1135 509
1135 519
1138 131
1140 425
1142 1149
1143 140
1145 519
1147 150
1149 1157
1150 160
1150 170
1150 180
1150 420
1154 524
1157 1164
1160 184
1160 415
1164 524
1166 1169
1170 187
1170 410
1174 524
1176 1170
1179 192
1180 405
1184 524
1185 395
1185 1175
1187 199
1190 385
1194 524
1194 1180
1197 199
1198 378
1204 524
1204 1180
1205 370
1206 204
1213 363
1213 529
1214 211
1214 1180
1218 353
1220 219
1220 280
1223 343
1223 530
1224 1180
1225 289
1225 330
1228 225
1230 280
1230 298
1230 308
1230 318
1232 535
1234 1180
1235 233
1238 273
1240 242
1240 542
1243 1175
1245 251
1245 261
1245 551
1245 561
1248 571
1252 1170
1255 579
1260 588
1261 1165
1268 595
1269 1157
1274 1147
1275 603
1275 1135
1283 610
1283 1128
1290 618
1290 1115
1295 1100
1298 625
1303 1093
1305 633
1310 642
1310 1085
1317 650
1318 1078
1325 657
1325 1070
1332 665
1333 1063
1337 674
1338 1053
1345 1045
1346 679
1350 1035
1354 686
1355 835
1358 1028
1360 694
1360 844
1363 828
1363 1018
1365 703
1368 850
1370 820
1370 1010
1373 710
1375 858
1375 990
1375 1000
1378 813
1380 718
1380 980
1383 865
1385 805
1385 960
1385 970
1388 725
1390 795
1390 873
1390 945
1392 735
1395 780
1395 882
1395 892
1395 902
1395 912
1395 922
1395 932
1397 744
1400 754
1400 764
