229 997
234 987
235 1005
242 979
244 1010
250 971
253 1015
258 964
262 1020
265 956
272 1020
273 949
279 937
282 1020
287 929
292 1020
295 921
299 772
302 1020
303 914
307 764
309 775
309 902
312 1020
314 892
315 756
319 775
322 884
322 1020
323 749
327 739
329 775
330 876
332 1020
335 731
335 866
339 775
342 1020
343 724
343 859
349 775
349 847
350 716
352 1020
355 706
357 839
359 775
360 696
362 1020
365 686
365 831
369 775
370 821
372 1020
373 679
375 783
375 811
379 667
379 793
382 1020
387 659
389 647
392 1020
397 639
399 622
402 1020
407 614
412 1020
414 602
419 472
419 592
422 1020
424 582
427 464
429 475
432 574
432 1020
435 456
438 470
439 562
441 1025
443 449
444 552
448 470
449 542
450 441
451 1025
454 532
458 434
458 470
461 1025
462 524
465 426
467 475
467 514
471 1025
472 504
473 419
474 483
474 493
480 411
481 1025
488 404
491 1025
495 396
501 1025
503 389
510 381
511 1025
518 374
521 1025
522 364
530 356
531 1025
535 346
541 1028
543 339
547 329
551 1025
552 319
560 311
561 1025
565 301
570 291
570 1020
574 272
578 1013
579 262
585 1005
587 254
592 244
595 1005
597 234
604 222
605 1005
609 212
609 1167
609 1177
609 1187
609 1197
614 202
614 1010
614 1147
614 1157
614 1206
619 192
619 1019
619 1029
619 1039
619 1049
619 1059
619 1069
619 1079
619 1089
619 1099
619 1109
619 1119
619 1129
621 1214
629 196
629 1220
630 206
630 216
635 225
635 235
639 1217
640 244
640 254
645 263
647 1209
650 272
650 282
650 292
652 1199
655 301
655 1165
655 1175
655 1185
660 310
660 320
660 1025
660 1035
660 1045
660 1055
660 1065
660 1075
660 1085
660 1095
660 1105
660 1115
660 1125
660 1135
660 1145
660 1155
665 329
668 1018
670 338
673 1008
675 347
679 357
680 1000
684 366
690 374
690 1000
695 383
695 475
695 485
695 495
700 392
700 504
700 514
700 1000
703 468
705 523
707 400
710 1000
713 465
713 530
715 407
717 540
720 1000
722 415
723 465
725 547
725 557
730 1000
732 419
732 565
733 465
739 427
740 572
740 1002
742 470
744 436
745 581
750 444
750 590
750 1005
752 470
755 599
760 447
760 1005
762 470
763 605
767 455
770 613
770 1007
772 464
775 622
779 1012
783 629
789 1015
792 634
798 1020
799 642
807 649
808 1020
810 750
810 760
810 770
812 780
814 657
815 790
817 800
818 743
818 1020
819 666
822 809
825 674
825 819
828 740
828 1020
830 828
830 838
833 680
835 847
837 1025
838 740
840 688
840 856
845 697
845 865
847 1025
848 740
850 874
852 705
855 883
855 893
857 745
857 1025
860 712
860 902
867 720
867 745
867 910
867 1025
872 919
875 929
877 724
877 749
877 1025
880 734
880 938
885 743
885 947
887 1025
892 955
897 1024
900 962
905 971
907 1020
911 979
917 1019
919 986
923 996
927 1015
930 1004
