<?xml version="1.0" encoding="UTF-8" standalone="no"?>
<!-- Created with CurveBenchmark -->
<svg
	xmlns:dc="http://purl.org/dc/elements/1.1/"
	xmlns:cc="http://creativecommons.org/ns#"
	xmlns:rdf="http://www.w3.org/1999/02/22-rdf-syntax-ns#"
	xmlns:svg="http://www.w3.org/2000/svg"
	xmlns="http://www.w3.org/2000/svg"
	xmlns:sodipodi="http://sodipodi.sourceforge.net/DTD/sodipodi-0.dtd"
	xmlns:inkscape="http://www.inkscape.org/namespaces/inkscape"
	width="1000"
	height="1000"
	id="svg2"
	version="1.1"
	sodipodi:docname="outliers-20/stretchdenoise-mc44.txt">
<defs
	id="defs4" />
<metadata
	id="metadata7">
	<rdf:RDF>
		<cc:Work
			rdf:about="">
			<dc:format>image/svg+xml</dc:format>
			<dc:type
				rdf:resource="http://purl.org/dc/dcmitype/StillImage" />
			<dc:title></dc:title>
		</cc:Work>
	</rdf:RDF>
</metadata>
<g
	inkscape:label="Layer 1"
	inkscape:groupmode="layer"
	id="layer1">
	<path style="fill:none;stroke:red;stroke-width:1px;stroke-linecap:butt;stroke-linejoin:miter;stroke-opacity:1" d="M 4.49062,205.883 4,218.884 z" id="boundary" inkscape:connector-curvature="0" />
	<path style="fill:none;stroke:red;stroke-width:1px;stroke-linecap:butt;stroke-linejoin:miter;stroke-opacity:1" d="M 4.49062,205.883 8.93732,190.733 z" id="boundary" inkscape:connector-curvature="0" />
	<path style="fill:none;stroke:red;stroke-width:1px;stroke-linecap:butt;stroke-linejoin:miter;stroke-opacity:1" d="M 4,218.884 4,234.584 z" id="boundary" inkscape:connector-curvature="0" />
	<path style="fill:none;stroke:red;stroke-width:1px;stroke-linecap:butt;stroke-linejoin:miter;stroke-opacity:1" d="M 4,234.584 5.96241,250.937 z" id="boundary" inkscape:connector-curvature="0" />
	<path style="fill:none;stroke:red;stroke-width:1px;stroke-linecap:butt;stroke-linejoin:miter;stroke-opacity:1" d="M 8.93732,190.733 10.3072,176.568 z" id="boundary" inkscape:connector-curvature="0" />
	<path style="fill:none;stroke:red;stroke-width:1px;stroke-linecap:butt;stroke-linejoin:miter;stroke-opacity:1" d="M 5.96241,250.937 9.39664,263.775 z" id="boundary" inkscape:connector-curvature="0" />
	<path style="fill:none;stroke:red;stroke-width:1px;stroke-linecap:butt;stroke-linejoin:miter;stroke-opacity:1" d="M 10.3072,176.568 9.88724,161.811 z" id="boundary" inkscape:connector-curvature="0" />
	<path style="fill:none;stroke:red;stroke-width:1px;stroke-linecap:butt;stroke-linejoin:miter;stroke-opacity:1" d="M 9.39664,263.775 13.3215,274.936 z" id="boundary" inkscape:connector-curvature="0" />
	<path style="fill:none;stroke:red;stroke-width:1px;stroke-linecap:butt;stroke-linejoin:miter;stroke-opacity:1" d="M 9.88724,161.811 12.8309,148.564 z" id="boundary" inkscape:connector-curvature="0" />
	<path style="fill:none;stroke:red;stroke-width:1px;stroke-linecap:butt;stroke-linejoin:miter;stroke-opacity:1" d="M 12.8309,148.564 16.2651,135.727 z" id="boundary" inkscape:connector-curvature="0" />
	<path style="fill:none;stroke:red;stroke-width:1px;stroke-linecap:butt;stroke-linejoin:miter;stroke-opacity:1" d="M 13.3215,274.936 17.7369,286.195 z" id="boundary" inkscape:connector-curvature="0" />
	<path style="fill:none;stroke:red;stroke-width:1px;stroke-linecap:butt;stroke-linejoin:miter;stroke-opacity:1" d="M 16.2651,135.727 20.1791,123.458 z" id="boundary" inkscape:connector-curvature="0" />
	<path style="fill:none;stroke:red;stroke-width:1px;stroke-linecap:butt;stroke-linejoin:miter;stroke-opacity:1" d="M 17.7369,286.195 22.6429,297.283 z" id="boundary" inkscape:connector-curvature="0" />
	<path style="fill:none;stroke:red;stroke-width:1px;stroke-linecap:butt;stroke-linejoin:miter;stroke-opacity:1" d="M 20.1791,123.458 24.5211,111.702 z" id="boundary" inkscape:connector-curvature="0" />
	<path style="fill:none;stroke:red;stroke-width:1px;stroke-linecap:butt;stroke-linejoin:miter;stroke-opacity:1" d="M 22.6429,297.283 27.549,307.585 z" id="boundary" inkscape:connector-curvature="0" />
	<path style="fill:none;stroke:red;stroke-width:1px;stroke-linecap:butt;stroke-linejoin:miter;stroke-opacity:1" d="M 24.5211,111.702 62.8553,94.058 z" id="boundary" inkscape:connector-curvature="0" />
	<path style="fill:none;stroke:red;stroke-width:1px;stroke-linecap:butt;stroke-linejoin:miter;stroke-opacity:1" d="M 27.549,307.585 32.9456,318.395 z" id="boundary" inkscape:connector-curvature="0" />
	<path style="fill:none;stroke:red;stroke-width:1px;stroke-linecap:butt;stroke-linejoin:miter;stroke-opacity:1" d="M 32.9456,318.395 37.8516,328.044 z" id="boundary" inkscape:connector-curvature="0" />
	<path style="fill:none;stroke:red;stroke-width:1px;stroke-linecap:butt;stroke-linejoin:miter;stroke-opacity:1" d="M 37.8516,328.044 40.3046,336.629 z" id="boundary" inkscape:connector-curvature="0" />
	<path style="fill:none;stroke:red;stroke-width:1px;stroke-linecap:butt;stroke-linejoin:miter;stroke-opacity:1" d="M 62.8553,94.058 96.352,33.1982 z" id="boundary" inkscape:connector-curvature="0" />
	<path style="fill:none;stroke:red;stroke-width:1px;stroke-linecap:butt;stroke-linejoin:miter;stroke-opacity:1" d="M 40.3046,336.629 40.3046,347.422 z" id="boundary" inkscape:connector-curvature="0" />
	<path style="fill:none;stroke:red;stroke-width:1px;stroke-linecap:butt;stroke-linejoin:miter;stroke-opacity:1" d="M 40.3046,347.422 40.3046,362.876 z" id="boundary" inkscape:connector-curvature="0" />
	<path style="fill:none;stroke:red;stroke-width:1px;stroke-linecap:butt;stroke-linejoin:miter;stroke-opacity:1" d="M 40.3046,362.876 45.2107,377.404 z" id="boundary" inkscape:connector-curvature="0" />
	<path style="fill:none;stroke:red;stroke-width:1px;stroke-linecap:butt;stroke-linejoin:miter;stroke-opacity:1" d="M 45.2107,377.404 54.0415,389.069 z" id="boundary" inkscape:connector-curvature="0" />
	<path style="fill:none;stroke:red;stroke-width:1px;stroke-linecap:butt;stroke-linejoin:miter;stroke-opacity:1" d="M 43.7389,580.827 51.5885,555.193 z" id="boundary" inkscape:connector-curvature="0" />
	<path style="fill:none;stroke:red;stroke-width:1px;stroke-linecap:butt;stroke-linejoin:miter;stroke-opacity:1" d="M 43.7389,580.827 67.7784,657.93 z" id="boundary" inkscape:connector-curvature="0" />
	<path style="fill:none;stroke:red;stroke-width:1px;stroke-linecap:butt;stroke-linejoin:miter;stroke-opacity:1" d="M 54.0415,389.069 62.3818,399.978 z" id="boundary" inkscape:connector-curvature="0" />
	<path style="fill:none;stroke:red;stroke-width:1px;stroke-linecap:butt;stroke-linejoin:miter;stroke-opacity:1" d="M 51.5885,555.193 55.5134,542.315 z" id="boundary" inkscape:connector-curvature="0" />
	<path style="fill:none;stroke:red;stroke-width:1px;stroke-linecap:butt;stroke-linejoin:miter;stroke-opacity:1" d="M 55.5134,542.315 59.4382,529.436 z" id="boundary" inkscape:connector-curvature="0" />
	<path style="fill:none;stroke:red;stroke-width:1px;stroke-linecap:butt;stroke-linejoin:miter;stroke-opacity:1" d="M 59.4382,529.436 63.363,516.681 z" id="boundary" inkscape:connector-curvature="0" />
	<path style="fill:none;stroke:red;stroke-width:1px;stroke-linecap:butt;stroke-linejoin:miter;stroke-opacity:1" d="M 62.3818,399.978 70.7221,410.819 z" id="boundary" inkscape:connector-curvature="0" />
	<path style="fill:none;stroke:red;stroke-width:1px;stroke-linecap:butt;stroke-linejoin:miter;stroke-opacity:1" d="M 63.363,516.681 67.2878,503.925 z" id="boundary" inkscape:connector-curvature="0" />
	<path style="fill:none;stroke:red;stroke-width:1px;stroke-linecap:butt;stroke-linejoin:miter;stroke-opacity:1" d="M 67.2878,503.925 71.2127,490.924 z" id="boundary" inkscape:connector-curvature="0" />
	<path style="fill:none;stroke:red;stroke-width:1px;stroke-linecap:butt;stroke-linejoin:miter;stroke-opacity:1" d="M 70.7221,410.819 76.6093,420.032 z" id="boundary" inkscape:connector-curvature="0" />
	<path style="fill:none;stroke:red;stroke-width:1px;stroke-linecap:butt;stroke-linejoin:miter;stroke-opacity:1" d="M 71.2127,490.924 75.1375,478.168 z" id="boundary" inkscape:connector-curvature="0" />
	<path style="fill:none;stroke:red;stroke-width:1px;stroke-linecap:butt;stroke-linejoin:miter;stroke-opacity:1" d="M 75.1375,478.168 78.5717,466.148 z" id="boundary" inkscape:connector-curvature="0" />
	<path style="fill:none;stroke:red;stroke-width:1px;stroke-linecap:butt;stroke-linejoin:miter;stroke-opacity:1" d="M 76.6093,420.032 78.0811,434.75 z" id="boundary" inkscape:connector-curvature="0" />
	<path style="fill:none;stroke:red;stroke-width:1px;stroke-linecap:butt;stroke-linejoin:miter;stroke-opacity:1" d="M 78.0811,434.75 78.5717,452.166 z" id="boundary" inkscape:connector-curvature="0" />
	<path style="fill:none;stroke:red;stroke-width:1px;stroke-linecap:butt;stroke-linejoin:miter;stroke-opacity:1" d="M 78.5717,466.148 78.5717,452.166 z" id="boundary" inkscape:connector-curvature="0" />
	<path style="fill:none;stroke:red;stroke-width:1px;stroke-linecap:butt;stroke-linejoin:miter;stroke-opacity:1" d="M 110.074,44.2371 120.716,17.4962 z" id="boundary" inkscape:connector-curvature="0" />
	<path style="fill:none;stroke:red;stroke-width:1px;stroke-linecap:butt;stroke-linejoin:miter;stroke-opacity:1" d="M 110.074,44.2371 96.352,33.1982 z" id="boundary" inkscape:connector-curvature="0" />
	<path style="fill:none;stroke:red;stroke-width:1px;stroke-linecap:butt;stroke-linejoin:miter;stroke-opacity:1" d="M 120.716,17.4962 131.528,14.5089 z" id="boundary" inkscape:connector-curvature="0" />
	<path style="fill:none;stroke:red;stroke-width:1px;stroke-linecap:butt;stroke-linejoin:miter;stroke-opacity:1" d="M 131.528,14.5089 142.356,12.0967 z" id="boundary" inkscape:connector-curvature="0" />
	<path style="fill:none;stroke:red;stroke-width:1px;stroke-linecap:butt;stroke-linejoin:miter;stroke-opacity:1" d="M 142.356,12.0967 153.147,9.8626 z" id="boundary" inkscape:connector-curvature="0" />
	<path style="fill:none;stroke:red;stroke-width:1px;stroke-linecap:butt;stroke-linejoin:miter;stroke-opacity:1" d="M 153.147,9.8626 163.935,7.82475 z" id="boundary" inkscape:connector-curvature="0" />
	<path style="fill:none;stroke:red;stroke-width:1px;stroke-linecap:butt;stroke-linejoin:miter;stroke-opacity:1" d="M 163.935,7.82475 174.73,6.00703 z" id="boundary" inkscape:connector-curvature="0" />
	<path style="fill:none;stroke:red;stroke-width:1px;stroke-linecap:butt;stroke-linejoin:miter;stroke-opacity:1" d="M 174.73,6.00703 185.523,4.62445 z" id="boundary" inkscape:connector-curvature="0" />
	<path style="fill:none;stroke:red;stroke-width:1px;stroke-linecap:butt;stroke-linejoin:miter;stroke-opacity:1" d="M 185.523,4.62445 196.317,4.00005 z" id="boundary" inkscape:connector-curvature="0" />
	<path style="fill:none;stroke:red;stroke-width:1px;stroke-linecap:butt;stroke-linejoin:miter;stroke-opacity:1" d="M 196.317,4.00005 207.11,4 z" id="boundary" inkscape:connector-curvature="0" />
	<path style="fill:none;stroke:red;stroke-width:1px;stroke-linecap:butt;stroke-linejoin:miter;stroke-opacity:1" d="M 207.11,4 217.903,4.08925 z" id="boundary" inkscape:connector-curvature="0" />
	<path style="fill:none;stroke:red;stroke-width:1px;stroke-linecap:butt;stroke-linejoin:miter;stroke-opacity:1" d="M 217.903,4.08925 228.696,5.20421 z" id="boundary" inkscape:connector-curvature="0" />
	<path style="fill:none;stroke:red;stroke-width:1px;stroke-linecap:butt;stroke-linejoin:miter;stroke-opacity:1" d="M 224.201,698.363 294.485,685.323 z" id="boundary" inkscape:connector-curvature="0" />
	<path style="fill:none;stroke:red;stroke-width:1px;stroke-linecap:butt;stroke-linejoin:miter;stroke-opacity:1" d="M 224.201,698.363 325.2,782.814 z" id="boundary" inkscape:connector-curvature="0" />
	<path style="fill:none;stroke:red;stroke-width:1px;stroke-linecap:butt;stroke-linejoin:miter;stroke-opacity:1" d="M 228.696,5.20421 239.49,6.49766 z" id="boundary" inkscape:connector-curvature="0" />
	<path style="fill:none;stroke:red;stroke-width:1px;stroke-linecap:butt;stroke-linejoin:miter;stroke-opacity:1" d="M 239.49,6.49766 250.283,8.54927 z" id="boundary" inkscape:connector-curvature="0" />
	<path style="fill:none;stroke:red;stroke-width:1px;stroke-linecap:butt;stroke-linejoin:miter;stroke-opacity:1" d="M 250.283,8.54927 261.076,11.0915 z" id="boundary" inkscape:connector-curvature="0" />
	<path style="fill:none;stroke:red;stroke-width:1px;stroke-linecap:butt;stroke-linejoin:miter;stroke-opacity:1" d="M 261.076,11.0915 271.869,14.3027 z" id="boundary" inkscape:connector-curvature="0" />
	<path style="fill:none;stroke:red;stroke-width:1px;stroke-linecap:butt;stroke-linejoin:miter;stroke-opacity:1" d="M 271.869,14.3027 282.663,18.4505 z" id="boundary" inkscape:connector-curvature="0" />
	<path style="fill:none;stroke:red;stroke-width:1px;stroke-linecap:butt;stroke-linejoin:miter;stroke-opacity:1" d="M 282.663,18.4505 293.456,22.9552 z" id="boundary" inkscape:connector-curvature="0" />
	<path style="fill:none;stroke:red;stroke-width:1px;stroke-linecap:butt;stroke-linejoin:miter;stroke-opacity:1" d="M 293.456,22.9552 304.249,28.0396 z" id="boundary" inkscape:connector-curvature="0" />
	<path style="fill:none;stroke:red;stroke-width:1px;stroke-linecap:butt;stroke-linejoin:miter;stroke-opacity:1" d="M 304.249,28.0396 315.043,33.3024 z" id="boundary" inkscape:connector-curvature="0" />
	<path style="fill:none;stroke:red;stroke-width:1px;stroke-linecap:butt;stroke-linejoin:miter;stroke-opacity:1" d="M 294.485,685.323 327.686,666.687 z" id="boundary" inkscape:connector-curvature="0" />
	<path style="fill:none;stroke:red;stroke-width:1px;stroke-linecap:butt;stroke-linejoin:miter;stroke-opacity:1" d="M 315.043,33.3024 325.836,38.8775 z" id="boundary" inkscape:connector-curvature="0" />
	<path style="fill:none;stroke:red;stroke-width:1px;stroke-linecap:butt;stroke-linejoin:miter;stroke-opacity:1" d="M 325.836,38.8775 336.629,44.7201 z" id="boundary" inkscape:connector-curvature="0" />
	<path style="fill:none;stroke:red;stroke-width:1px;stroke-linecap:butt;stroke-linejoin:miter;stroke-opacity:1" d="M 327.686,666.687 349.708,668.3 z" id="boundary" inkscape:connector-curvature="0" />
	<path style="fill:none;stroke:red;stroke-width:1px;stroke-linecap:butt;stroke-linejoin:miter;stroke-opacity:1" d="M 336.629,44.7201 347.422,50.7412 z" id="boundary" inkscape:connector-curvature="0" />
	<path style="fill:none;stroke:red;stroke-width:1px;stroke-linecap:butt;stroke-linejoin:miter;stroke-opacity:1" d="M 347.422,50.7412 358.216,56.8514 z" id="boundary" inkscape:connector-curvature="0" />
	<path style="fill:none;stroke:red;stroke-width:1px;stroke-linecap:butt;stroke-linejoin:miter;stroke-opacity:1" d="M 349.708,668.3 360.161,672.959 z" id="boundary" inkscape:connector-curvature="0" />
	<path style="fill:none;stroke:red;stroke-width:1px;stroke-linecap:butt;stroke-linejoin:miter;stroke-opacity:1" d="M 358.216,56.8514 369.009,63.3185 z" id="boundary" inkscape:connector-curvature="0" />
	<path style="fill:none;stroke:red;stroke-width:1px;stroke-linecap:butt;stroke-linejoin:miter;stroke-opacity:1" d="M 360.161,672.959 381.684,670.568 z" id="boundary" inkscape:connector-curvature="0" />
	<path style="fill:none;stroke:red;stroke-width:1px;stroke-linecap:butt;stroke-linejoin:miter;stroke-opacity:1" d="M 369.009,63.3185 376.368,72.8072 z" id="boundary" inkscape:connector-curvature="0" />
	<path style="fill:none;stroke:red;stroke-width:1px;stroke-linecap:butt;stroke-linejoin:miter;stroke-opacity:1" d="M 376.368,72.8072 380.293,83.3551 z" id="boundary" inkscape:connector-curvature="0" />
	<path style="fill:none;stroke:red;stroke-width:1px;stroke-linecap:butt;stroke-linejoin:miter;stroke-opacity:1" d="M 381.684,670.568 393.229,660.448 z" id="boundary" inkscape:connector-curvature="0" />
	<path style="fill:none;stroke:red;stroke-width:1px;stroke-linecap:butt;stroke-linejoin:miter;stroke-opacity:1" d="M 380.293,83.3551 384.213,93.7821 z" id="boundary" inkscape:connector-curvature="0" />
	<path style="fill:none;stroke:red;stroke-width:1px;stroke-linecap:butt;stroke-linejoin:miter;stroke-opacity:1" d="M 384.213,93.7821 388.133,104.209 z" id="boundary" inkscape:connector-curvature="0" />
	<path style="fill:none;stroke:red;stroke-width:1px;stroke-linecap:butt;stroke-linejoin:miter;stroke-opacity:1" d="M 388.133,104.209 395.971,125.187 z" id="boundary" inkscape:connector-curvature="0" />
	<path style="fill:none;stroke:red;stroke-width:1px;stroke-linecap:butt;stroke-linejoin:miter;stroke-opacity:1" d="M 393.229,660.448 399.861,650.135 z" id="boundary" inkscape:connector-curvature="0" />
	<path style="fill:none;stroke:red;stroke-width:1px;stroke-linecap:butt;stroke-linejoin:miter;stroke-opacity:1" d="M 395.971,125.187 399.896,135.735 z" id="boundary" inkscape:connector-curvature="0" />
	<path style="fill:none;stroke:red;stroke-width:1px;stroke-linecap:butt;stroke-linejoin:miter;stroke-opacity:1" d="M 399.896,135.735 403.863,146.39 z" id="boundary" inkscape:connector-curvature="0" />
	<path style="fill:none;stroke:red;stroke-width:1px;stroke-linecap:butt;stroke-linejoin:miter;stroke-opacity:1" d="M 399.861,650.135 400.898,637.369 z" id="boundary" inkscape:connector-curvature="0" />
	<path style="fill:none;stroke:red;stroke-width:1px;stroke-linecap:butt;stroke-linejoin:miter;stroke-opacity:1" d="M 400.898,637.369 401.879,625.84 z" id="boundary" inkscape:connector-curvature="0" />
	<path style="fill:none;stroke:red;stroke-width:1px;stroke-linecap:butt;stroke-linejoin:miter;stroke-opacity:1" d="M 401.879,625.84 403.024,612.675 z" id="boundary" inkscape:connector-curvature="0" />
	<path style="fill:none;stroke:red;stroke-width:1px;stroke-linecap:butt;stroke-linejoin:miter;stroke-opacity:1" d="M 403.863,146.39 412.151,167.221 z" id="boundary" inkscape:connector-curvature="0" />
	<path style="fill:none;stroke:red;stroke-width:1px;stroke-linecap:butt;stroke-linejoin:miter;stroke-opacity:1" d="M 403.024,612.675 405.314,595.177 z" id="boundary" inkscape:connector-curvature="0" />
	<path style="fill:none;stroke:red;stroke-width:1px;stroke-linecap:butt;stroke-linejoin:miter;stroke-opacity:1" d="M 405.314,595.177 408.257,581.113 z" id="boundary" inkscape:connector-curvature="0" />
	<path style="fill:none;stroke:red;stroke-width:1px;stroke-linecap:butt;stroke-linejoin:miter;stroke-opacity:1" d="M 408.257,581.113 411.201,566.722 z" id="boundary" inkscape:connector-curvature="0" />
	<path style="fill:none;stroke:red;stroke-width:1px;stroke-linecap:butt;stroke-linejoin:miter;stroke-opacity:1" d="M 412.151,167.221 417.381,189.971 z" id="boundary" inkscape:connector-curvature="0" />
	<path style="fill:none;stroke:red;stroke-width:1px;stroke-linecap:butt;stroke-linejoin:miter;stroke-opacity:1" d="M 411.201,566.722 414.144,552.004 z" id="boundary" inkscape:connector-curvature="0" />
	<path style="fill:none;stroke:red;stroke-width:1px;stroke-linecap:butt;stroke-linejoin:miter;stroke-opacity:1" d="M 414.144,552.004 417.088,538.758 z" id="boundary" inkscape:connector-curvature="0" />
	<path style="fill:none;stroke:red;stroke-width:1px;stroke-linecap:butt;stroke-linejoin:miter;stroke-opacity:1" d="M 420.032,493.867 416.107,513.001 z" id="boundary" inkscape:connector-curvature="0" />
	<path style="fill:none;stroke:red;stroke-width:1px;stroke-linecap:butt;stroke-linejoin:miter;stroke-opacity:1" d="M 420.032,493.867 430.825,491.035 z" id="boundary" inkscape:connector-curvature="0" />
	<path style="fill:none;stroke:red;stroke-width:1px;stroke-linecap:butt;stroke-linejoin:miter;stroke-opacity:1" d="M 416.107,513.001 417.088,522.077 z" id="boundary" inkscape:connector-curvature="0" />
	<path style="fill:none;stroke:red;stroke-width:1px;stroke-linecap:butt;stroke-linejoin:miter;stroke-opacity:1" d="M 417.088,538.758 417.088,532.543 z" id="boundary" inkscape:connector-curvature="0" />
	<path style="fill:none;stroke:red;stroke-width:1px;stroke-linecap:butt;stroke-linejoin:miter;stroke-opacity:1" d="M 417.381,189.971 418.678,203.664 z" id="boundary" inkscape:connector-curvature="0" />
	<path style="fill:none;stroke:red;stroke-width:1px;stroke-linecap:butt;stroke-linejoin:miter;stroke-opacity:1" d="M 417.088,522.077 417.088,532.543 z" id="boundary" inkscape:connector-curvature="0" />
	<path style="fill:none;stroke:red;stroke-width:1px;stroke-linecap:butt;stroke-linejoin:miter;stroke-opacity:1" d="M 418.678,203.664 419.567,215.448 z" id="boundary" inkscape:connector-curvature="0" />
	<path style="fill:none;stroke:red;stroke-width:1px;stroke-linecap:butt;stroke-linejoin:miter;stroke-opacity:1" d="M 419.567,215.448 420.511,227.226 z" id="boundary" inkscape:connector-curvature="0" />
	<path style="fill:none;stroke:red;stroke-width:1px;stroke-linecap:butt;stroke-linejoin:miter;stroke-opacity:1" d="M 420.511,227.226 422.472,250.689 z" id="boundary" inkscape:connector-curvature="0" />
	<path style="fill:none;stroke:red;stroke-width:1px;stroke-linecap:butt;stroke-linejoin:miter;stroke-opacity:1" d="M 422.472,250.689 424.446,274.242 z" id="boundary" inkscape:connector-curvature="0" />
	<path style="fill:none;stroke:red;stroke-width:1px;stroke-linecap:butt;stroke-linejoin:miter;stroke-opacity:1" d="M 424.446,274.242 426.411,297.871 z" id="boundary" inkscape:connector-curvature="0" />
	<path style="fill:none;stroke:red;stroke-width:1px;stroke-linecap:butt;stroke-linejoin:miter;stroke-opacity:1" d="M 426.411,297.871 427.391,309.645 z" id="boundary" inkscape:connector-curvature="0" />
	<path style="fill:none;stroke:red;stroke-width:1px;stroke-linecap:butt;stroke-linejoin:miter;stroke-opacity:1" d="M 430.825,491.035 441.618,489.207 z" id="boundary" inkscape:connector-curvature="0" />
	<path style="fill:none;stroke:red;stroke-width:1px;stroke-linecap:butt;stroke-linejoin:miter;stroke-opacity:1" d="M 427.391,309.645 428.38,321.459 z" id="boundary" inkscape:connector-curvature="0" />
	<path style="fill:none;stroke:red;stroke-width:1px;stroke-linecap:butt;stroke-linejoin:miter;stroke-opacity:1" d="M 428.38,321.459 429.349,333.195 z" id="boundary" inkscape:connector-curvature="0" />
	<path style="fill:none;stroke:red;stroke-width:1px;stroke-linecap:butt;stroke-linejoin:miter;stroke-opacity:1" d="M 429.349,333.195 430.334,344.969 z" id="boundary" inkscape:connector-curvature="0" />
	<path style="fill:none;stroke:red;stroke-width:1px;stroke-linecap:butt;stroke-linejoin:miter;stroke-opacity:1" d="M 430.334,344.969 431.806,358.379 z" id="boundary" inkscape:connector-curvature="0" />
	<path style="fill:none;stroke:red;stroke-width:1px;stroke-linecap:butt;stroke-linejoin:miter;stroke-opacity:1" d="M 431.806,358.379 435.731,370.186 z" id="boundary" inkscape:connector-curvature="0" />
	<path style="fill:none;stroke:red;stroke-width:1px;stroke-linecap:butt;stroke-linejoin:miter;stroke-opacity:1" d="M 435.731,370.186 440.637,382.648 z" id="boundary" inkscape:connector-curvature="0" />
	<path style="fill:none;stroke:red;stroke-width:1px;stroke-linecap:butt;stroke-linejoin:miter;stroke-opacity:1" d="M 441.618,489.207 452.411,487.423 z" id="boundary" inkscape:connector-curvature="0" />
	<path style="fill:none;stroke:red;stroke-width:1px;stroke-linecap:butt;stroke-linejoin:miter;stroke-opacity:1" d="M 440.637,382.648 445.543,395.305 z" id="boundary" inkscape:connector-curvature="0" />
	<path style="fill:none;stroke:red;stroke-width:1px;stroke-linecap:butt;stroke-linejoin:miter;stroke-opacity:1" d="M 445.543,395.305 449.958,406.295 z" id="boundary" inkscape:connector-curvature="0" />
	<path style="fill:none;stroke:red;stroke-width:1px;stroke-linecap:butt;stroke-linejoin:miter;stroke-opacity:1" d="M 452.411,487.423 463.205,483.587 z" id="boundary" inkscape:connector-curvature="0" />
	<path style="fill:none;stroke:red;stroke-width:1px;stroke-linecap:butt;stroke-linejoin:miter;stroke-opacity:1" d="M 449.958,406.295 453.883,416.475 z" id="boundary" inkscape:connector-curvature="0" />
	<path style="fill:none;stroke:red;stroke-width:1px;stroke-linecap:butt;stroke-linejoin:miter;stroke-opacity:1" d="M 453.883,416.475 458.299,427.685 z" id="boundary" inkscape:connector-curvature="0" />
	<path style="fill:none;stroke:red;stroke-width:1px;stroke-linecap:butt;stroke-linejoin:miter;stroke-opacity:1" d="M 458.299,427.685 462.714,438.797 z" id="boundary" inkscape:connector-curvature="0" />
	<path style="fill:none;stroke:red;stroke-width:1px;stroke-linecap:butt;stroke-linejoin:miter;stroke-opacity:1" d="M 463.205,483.587 471.447,470.839 z" id="boundary" inkscape:connector-curvature="0" />
	<path style="fill:none;stroke:red;stroke-width:1px;stroke-linecap:butt;stroke-linejoin:miter;stroke-opacity:1" d="M 462.714,438.797 467.13,450.253 z" id="boundary" inkscape:connector-curvature="0" />
	<path style="fill:none;stroke:red;stroke-width:1px;stroke-linecap:butt;stroke-linejoin:miter;stroke-opacity:1" d="M 467.13,450.253 471.054,461.046 z" id="boundary" inkscape:connector-curvature="0" />
	<path style="fill:none;stroke:red;stroke-width:1px;stroke-linecap:butt;stroke-linejoin:miter;stroke-opacity:1" d="M 471.447,470.839 471.054,461.046 z" id="boundary" inkscape:connector-curvature="0" />
	<path style="fill:none;stroke:red;stroke-width:1px;stroke-linecap:butt;stroke-linejoin:miter;stroke-opacity:1" d="M 529.086,477.811 532.38,461.12 z" id="boundary" inkscape:connector-curvature="0" />
	<path style="fill:none;stroke:red;stroke-width:1px;stroke-linecap:butt;stroke-linejoin:miter;stroke-opacity:1" d="M 529.086,477.811 536.795,494.96 z" id="boundary" inkscape:connector-curvature="0" />
	<path style="fill:none;stroke:red;stroke-width:1px;stroke-linecap:butt;stroke-linejoin:miter;stroke-opacity:1" d="M 532.38,461.12 536.305,448.487 z" id="boundary" inkscape:connector-curvature="0" />
	<path style="fill:none;stroke:red;stroke-width:1px;stroke-linecap:butt;stroke-linejoin:miter;stroke-opacity:1" d="M 536.795,494.96 547.589,498.796 z" id="boundary" inkscape:connector-curvature="0" />
	<path style="fill:none;stroke:red;stroke-width:1px;stroke-linecap:butt;stroke-linejoin:miter;stroke-opacity:1" d="M 536.305,448.487 540.229,436.222 z" id="boundary" inkscape:connector-curvature="0" />
	<path style="fill:none;stroke:red;stroke-width:1px;stroke-linecap:butt;stroke-linejoin:miter;stroke-opacity:1" d="M 540.229,436.222 548.079,411.323 z" id="boundary" inkscape:connector-curvature="0" />
	<path style="fill:none;stroke:red;stroke-width:1px;stroke-linecap:butt;stroke-linejoin:miter;stroke-opacity:1" d="M 547.589,498.796 558.382,501.204 z" id="boundary" inkscape:connector-curvature="0" />
	<path style="fill:none;stroke:red;stroke-width:1px;stroke-linecap:butt;stroke-linejoin:miter;stroke-opacity:1" d="M 548.079,411.323 555.992,334.549 z" id="boundary" inkscape:connector-curvature="0" />
	<path style="fill:none;stroke:red;stroke-width:1px;stroke-linecap:butt;stroke-linejoin:miter;stroke-opacity:1" d="M 558.382,501.204 568.684,505.073 z" id="boundary" inkscape:connector-curvature="0" />
	<path style="fill:none;stroke:red;stroke-width:1px;stroke-linecap:butt;stroke-linejoin:miter;stroke-opacity:1" d="M 556.092,149.055 556.91,129.594 z" id="boundary" inkscape:connector-curvature="0" />
	<path style="fill:none;stroke:red;stroke-width:1px;stroke-linecap:butt;stroke-linejoin:miter;stroke-opacity:1" d="M 556.092,149.055 557.401,166.226 z" id="boundary" inkscape:connector-curvature="0" />
	<path style="fill:none;stroke:red;stroke-width:1px;stroke-linecap:butt;stroke-linejoin:miter;stroke-opacity:1" d="M 556.91,129.594 559.363,115.367 z" id="boundary" inkscape:connector-curvature="0" />
	<path style="fill:none;stroke:red;stroke-width:1px;stroke-linecap:butt;stroke-linejoin:miter;stroke-opacity:1" d="M 557.401,166.226 560.344,178.328 z" id="boundary" inkscape:connector-curvature="0" />
	<path style="fill:none;stroke:red;stroke-width:1px;stroke-linecap:butt;stroke-linejoin:miter;stroke-opacity:1" d="M 558.382,279.883 565.741,255.189 z" id="boundary" inkscape:connector-curvature="0" />
	<path style="fill:none;stroke:red;stroke-width:1px;stroke-linecap:butt;stroke-linejoin:miter;stroke-opacity:1" d="M 558.382,279.883 555.992,334.549 z" id="boundary" inkscape:connector-curvature="0" />
	<path style="fill:none;stroke:red;stroke-width:1px;stroke-linecap:butt;stroke-linejoin:miter;stroke-opacity:1" d="M 559.363,115.367 569.175,91.6779 z" id="boundary" inkscape:connector-curvature="0" />
	<path style="fill:none;stroke:red;stroke-width:1px;stroke-linecap:butt;stroke-linejoin:miter;stroke-opacity:1" d="M 560.344,178.328 563.778,189.448 z" id="boundary" inkscape:connector-curvature="0" />
	<path style="fill:none;stroke:red;stroke-width:1px;stroke-linecap:butt;stroke-linejoin:miter;stroke-opacity:1" d="M 564.024,530.491 567.213,517.008 z" id="boundary" inkscape:connector-curvature="0" />
	<path style="fill:none;stroke:red;stroke-width:1px;stroke-linecap:butt;stroke-linejoin:miter;stroke-opacity:1" d="M 564.024,530.491 569.175,545.626 z" id="boundary" inkscape:connector-curvature="0" />
	<path style="fill:none;stroke:red;stroke-width:1px;stroke-linecap:butt;stroke-linejoin:miter;stroke-opacity:1" d="M 563.778,189.448 567.703,200.364 z" id="boundary" inkscape:connector-curvature="0" />
	<path style="fill:none;stroke:red;stroke-width:1px;stroke-linecap:butt;stroke-linejoin:miter;stroke-opacity:1" d="M 565.741,255.189 572.119,211.623 z" id="boundary" inkscape:connector-curvature="0" />
	<path style="fill:none;stroke:red;stroke-width:1px;stroke-linecap:butt;stroke-linejoin:miter;stroke-opacity:1" d="M 568.684,505.073 567.213,517.008 z" id="boundary" inkscape:connector-curvature="0" />
	<path style="fill:none;stroke:red;stroke-width:1px;stroke-linecap:butt;stroke-linejoin:miter;stroke-opacity:1" d="M 569.175,91.6779 577.515,80.7795 z" id="boundary" inkscape:connector-curvature="0" />
	<path style="fill:none;stroke:red;stroke-width:1px;stroke-linecap:butt;stroke-linejoin:miter;stroke-opacity:1" d="M 567.703,200.364 572.119,211.623 z" id="boundary" inkscape:connector-curvature="0" />
	<path style="fill:none;stroke:red;stroke-width:1px;stroke-linecap:butt;stroke-linejoin:miter;stroke-opacity:1" d="M 569.175,545.626 573.591,558.872 z" id="boundary" inkscape:connector-curvature="0" />
	<path style="fill:none;stroke:red;stroke-width:1px;stroke-linecap:butt;stroke-linejoin:miter;stroke-opacity:1" d="M 573.591,558.872 580.95,571.539 z" id="boundary" inkscape:connector-curvature="0" />
	<path style="fill:none;stroke:red;stroke-width:1px;stroke-linecap:butt;stroke-linejoin:miter;stroke-opacity:1" d="M 577.515,80.7795 587.818,70.4991 z" id="boundary" inkscape:connector-curvature="0" />
	<path style="fill:none;stroke:red;stroke-width:1px;stroke-linecap:butt;stroke-linejoin:miter;stroke-opacity:1" d="M 580.95,571.539 589.78,573.941 z" id="boundary" inkscape:connector-curvature="0" />
	<path style="fill:none;stroke:red;stroke-width:1px;stroke-linecap:butt;stroke-linejoin:miter;stroke-opacity:1" d="M 587.818,70.4991 598.611,61.9804 z" id="boundary" inkscape:connector-curvature="0" />
	<path style="fill:none;stroke:red;stroke-width:1px;stroke-linecap:butt;stroke-linejoin:miter;stroke-opacity:1" d="M 589.78,573.941 594.196,592.233 z" id="boundary" inkscape:connector-curvature="0" />
	<path style="fill:none;stroke:red;stroke-width:1px;stroke-linecap:butt;stroke-linejoin:miter;stroke-opacity:1" d="M 598.611,61.9804 609.405,55.0228 z" id="boundary" inkscape:connector-curvature="0" />
	<path style="fill:none;stroke:red;stroke-width:1px;stroke-linecap:butt;stroke-linejoin:miter;stroke-opacity:1" d="M 594.196,592.233 595.177,604.499 z" id="boundary" inkscape:connector-curvature="0" />
	<path style="fill:none;stroke:red;stroke-width:1px;stroke-linecap:butt;stroke-linejoin:miter;stroke-opacity:1" d="M 595.177,604.499 596.976,620.525 z" id="boundary" inkscape:connector-curvature="0" />
	<path style="fill:none;stroke:red;stroke-width:1px;stroke-linecap:butt;stroke-linejoin:miter;stroke-opacity:1" d="M 596.976,620.525 602.536,634.916 z" id="boundary" inkscape:connector-curvature="0" />
	<path style="fill:none;stroke:red;stroke-width:1px;stroke-linecap:butt;stroke-linejoin:miter;stroke-opacity:1" d="M 602.536,634.916 613.329,642.23 z" id="boundary" inkscape:connector-curvature="0" />
	<path style="fill:none;stroke:red;stroke-width:1px;stroke-linecap:butt;stroke-linejoin:miter;stroke-opacity:1" d="M 609.405,55.0228 620.198,49.1355 z" id="boundary" inkscape:connector-curvature="0" />
	<path style="fill:none;stroke:red;stroke-width:1px;stroke-linecap:butt;stroke-linejoin:miter;stroke-opacity:1" d="M 613.329,642.23 624.123,644.193 z" id="boundary" inkscape:connector-curvature="0" />
	<path style="fill:none;stroke:red;stroke-width:1px;stroke-linecap:butt;stroke-linejoin:miter;stroke-opacity:1" d="M 620.198,49.1355 630.991,44.0511 z" id="boundary" inkscape:connector-curvature="0" />
	<path style="fill:none;stroke:red;stroke-width:1px;stroke-linecap:butt;stroke-linejoin:miter;stroke-opacity:1" d="M 624.123,644.193 634.916,639.911 z" id="boundary" inkscape:connector-curvature="0" />
	<path style="fill:none;stroke:red;stroke-width:1px;stroke-linecap:butt;stroke-linejoin:miter;stroke-opacity:1" d="M 630.991,44.0511 641.784,39.6357 z" id="boundary" inkscape:connector-curvature="0" />
	<path style="fill:none;stroke:red;stroke-width:1px;stroke-linecap:butt;stroke-linejoin:miter;stroke-opacity:1" d="M 634.916,639.911 645.709,635.585 z" id="boundary" inkscape:connector-curvature="0" />
	<path style="fill:none;stroke:red;stroke-width:1px;stroke-linecap:butt;stroke-linejoin:miter;stroke-opacity:1" d="M 641.784,39.6357 652.578,35.6663 z" id="boundary" inkscape:connector-curvature="0" />
	<path style="fill:none;stroke:red;stroke-width:1px;stroke-linecap:butt;stroke-linejoin:miter;stroke-opacity:1" d="M 645.709,635.585 656.502,632.195 z" id="boundary" inkscape:connector-curvature="0" />
	<path style="fill:none;stroke:red;stroke-width:1px;stroke-linecap:butt;stroke-linejoin:miter;stroke-opacity:1" d="M 652.578,35.6663 663.371,32.7226 z" id="boundary" inkscape:connector-curvature="0" />
	<path style="fill:none;stroke:red;stroke-width:1px;stroke-linecap:butt;stroke-linejoin:miter;stroke-opacity:1" d="M 656.502,632.195 667.296,631.928 z" id="boundary" inkscape:connector-curvature="0" />
	<path style="fill:none;stroke:red;stroke-width:1px;stroke-linecap:butt;stroke-linejoin:miter;stroke-opacity:1" d="M 663.371,32.7226 674.164,31.34 z" id="boundary" inkscape:connector-curvature="0" />
	<path style="fill:none;stroke:red;stroke-width:1px;stroke-linecap:butt;stroke-linejoin:miter;stroke-opacity:1" d="M 667.296,631.928 678.089,631.17 z" id="boundary" inkscape:connector-curvature="0" />
	<path style="fill:none;stroke:red;stroke-width:1px;stroke-linecap:butt;stroke-linejoin:miter;stroke-opacity:1" d="M 674.164,31.34 684.957,30.9832 z" id="boundary" inkscape:connector-curvature="0" />
	<path style="fill:none;stroke:red;stroke-width:1px;stroke-linecap:butt;stroke-linejoin:miter;stroke-opacity:1" d="M 678.089,631.17 700.657,647.999 z" id="boundary" inkscape:connector-curvature="0" />
	<path style="fill:none;stroke:red;stroke-width:1px;stroke-linecap:butt;stroke-linejoin:miter;stroke-opacity:1" d="M 684.957,30.9832 695.751,31.2508 z" id="boundary" inkscape:connector-curvature="0" />
	<path style="fill:none;stroke:red;stroke-width:1px;stroke-linecap:butt;stroke-linejoin:miter;stroke-opacity:1" d="M 695.751,31.2508 706.544,31.4738 z" id="boundary" inkscape:connector-curvature="0" />
	<path style="fill:none;stroke:red;stroke-width:1px;stroke-linecap:butt;stroke-linejoin:miter;stroke-opacity:1" d="M 700.657,647.999 703.6,660.427 z" id="boundary" inkscape:connector-curvature="0" />
	<path style="fill:none;stroke:red;stroke-width:1px;stroke-linecap:butt;stroke-linejoin:miter;stroke-opacity:1" d="M 706.544,31.4738 717.337,31.4738 z" id="boundary" inkscape:connector-curvature="0" />
	<path style="fill:none;stroke:red;stroke-width:1px;stroke-linecap:butt;stroke-linejoin:miter;stroke-opacity:1" d="M 703.6,660.427 706.544,673.183 z" id="boundary" inkscape:connector-curvature="0" />
	<path style="fill:none;stroke:red;stroke-width:1px;stroke-linecap:butt;stroke-linejoin:miter;stroke-opacity:1" d="M 706.544,673.183 708.997,683.731 z" id="boundary" inkscape:connector-curvature="0" />
	<path style="fill:none;stroke:red;stroke-width:1px;stroke-linecap:butt;stroke-linejoin:miter;stroke-opacity:1" d="M 708.997,683.731 710.469,703.6 z" id="boundary" inkscape:connector-curvature="0" />
	<path style="fill:none;stroke:red;stroke-width:1px;stroke-linecap:butt;stroke-linejoin:miter;stroke-opacity:1" d="M 709.291,786.12 709.488,757.567 z" id="boundary" inkscape:connector-curvature="0" />
	<path style="fill:none;stroke:red;stroke-width:1px;stroke-linecap:butt;stroke-linejoin:miter;stroke-opacity:1" d="M 709.291,786.12 727.149,796.77 z" id="boundary" inkscape:connector-curvature="0" />
	<path style="fill:none;stroke:red;stroke-width:1px;stroke-linecap:butt;stroke-linejoin:miter;stroke-opacity:1" d="M 709.488,757.567 710.469,703.6 z" id="boundary" inkscape:connector-curvature="0" />
	<path style="fill:none;stroke:red;stroke-width:1px;stroke-linecap:butt;stroke-linejoin:miter;stroke-opacity:1" d="M 717.337,31.4738 728.131,30.7156 z" id="boundary" inkscape:connector-curvature="0" />
	<path style="fill:none;stroke:red;stroke-width:1px;stroke-linecap:butt;stroke-linejoin:miter;stroke-opacity:1" d="M 727.149,796.77 759.529,784.55 z" id="boundary" inkscape:connector-curvature="0" />
	<path style="fill:none;stroke:red;stroke-width:1px;stroke-linecap:butt;stroke-linejoin:miter;stroke-opacity:1" d="M 728.131,30.7156 738.924,28.5748 z" id="boundary" inkscape:connector-curvature="0" />
	<path style="fill:none;stroke:red;stroke-width:1px;stroke-linecap:butt;stroke-linejoin:miter;stroke-opacity:1" d="M 738.924,28.5748 749.717,24.2932 z" id="boundary" inkscape:connector-curvature="0" />
	<path style="fill:none;stroke:red;stroke-width:1px;stroke-linecap:butt;stroke-linejoin:miter;stroke-opacity:1" d="M 749.717,24.2932 760.51,18.7181 z" id="boundary" inkscape:connector-curvature="0" />
	<path style="fill:none;stroke:red;stroke-width:1px;stroke-linecap:butt;stroke-linejoin:miter;stroke-opacity:1" d="M 759.529,784.55 781.116,774.247 z" id="boundary" inkscape:connector-curvature="0" />
	<path style="fill:none;stroke:red;stroke-width:1px;stroke-linecap:butt;stroke-linejoin:miter;stroke-opacity:1" d="M 760.51,18.7181 771.304,13.1877 z" id="boundary" inkscape:connector-curvature="0" />
	<path style="fill:none;stroke:red;stroke-width:1px;stroke-linecap:butt;stroke-linejoin:miter;stroke-opacity:1" d="M 771.304,13.1877 782.097,9.39668 z" id="boundary" inkscape:connector-curvature="0" />
	<path style="fill:none;stroke:red;stroke-width:1px;stroke-linecap:butt;stroke-linejoin:miter;stroke-opacity:1" d="M 781.116,774.247 824.289,753.374 z" id="boundary" inkscape:connector-curvature="0" />
	<path style="fill:none;stroke:red;stroke-width:1px;stroke-linecap:butt;stroke-linejoin:miter;stroke-opacity:1" d="M 782.097,9.39668 792.89,8.41547 z" id="boundary" inkscape:connector-curvature="0" />
	<path style="fill:none;stroke:red;stroke-width:1px;stroke-linecap:butt;stroke-linejoin:miter;stroke-opacity:1" d="M 792.89,8.41547 803.683,10.9577 z" id="boundary" inkscape:connector-curvature="0" />
	<path style="fill:none;stroke:red;stroke-width:1px;stroke-linecap:butt;stroke-linejoin:miter;stroke-opacity:1" d="M 803.683,10.9577 814.477,16.2205 z" id="boundary" inkscape:connector-curvature="0" />
	<path style="fill:none;stroke:red;stroke-width:1px;stroke-linecap:butt;stroke-linejoin:miter;stroke-opacity:1" d="M 814.477,16.2205 825.27,23.535 z" id="boundary" inkscape:connector-curvature="0" />
	<path style="fill:none;stroke:red;stroke-width:1px;stroke-linecap:butt;stroke-linejoin:miter;stroke-opacity:1" d="M 824.289,753.374 867.462,732.546 z" id="boundary" inkscape:connector-curvature="0" />
	<path style="fill:none;stroke:red;stroke-width:1px;stroke-linecap:butt;stroke-linejoin:miter;stroke-opacity:1" d="M 825.27,23.535 836.063,31.6076 z" id="boundary" inkscape:connector-curvature="0" />
	<path style="fill:none;stroke:red;stroke-width:1px;stroke-linecap:butt;stroke-linejoin:miter;stroke-opacity:1" d="M 836.063,31.6076 846.857,40.4831 z" id="boundary" inkscape:connector-curvature="0" />
	<path style="fill:none;stroke:red;stroke-width:1px;stroke-linecap:butt;stroke-linejoin:miter;stroke-opacity:1" d="M 846.857,40.4831 857.65,50.6074 z" id="boundary" inkscape:connector-curvature="0" />
	<path style="fill:none;stroke:red;stroke-width:1px;stroke-linecap:butt;stroke-linejoin:miter;stroke-opacity:1" d="M 852.499,534.588 851.763,548.897 z" id="boundary" inkscape:connector-curvature="0" />
	<path style="fill:none;stroke:red;stroke-width:1px;stroke-linecap:butt;stroke-linejoin:miter;stroke-opacity:1" d="M 852.499,534.588 863.537,530.774 z" id="boundary" inkscape:connector-curvature="0" />
	<path style="fill:none;stroke:red;stroke-width:1px;stroke-linecap:butt;stroke-linejoin:miter;stroke-opacity:1" d="M 851.763,548.897 855.197,560.835 z" id="boundary" inkscape:connector-curvature="0" />
	<path style="fill:none;stroke:red;stroke-width:1px;stroke-linecap:butt;stroke-linejoin:miter;stroke-opacity:1" d="M 857.65,50.6074 867.953,61.3516 z" id="boundary" inkscape:connector-curvature="0" />
	<path style="fill:none;stroke:red;stroke-width:1px;stroke-linecap:butt;stroke-linejoin:miter;stroke-opacity:1" d="M 855.197,560.835 858.631,572.609 z" id="boundary" inkscape:connector-curvature="0" />
	<path style="fill:none;stroke:red;stroke-width:1px;stroke-linecap:butt;stroke-linejoin:miter;stroke-opacity:1" d="M 858.631,572.609 876.293,633.281 z" id="boundary" inkscape:connector-curvature="0" />
	<path style="fill:none;stroke:red;stroke-width:1px;stroke-linecap:butt;stroke-linejoin:miter;stroke-opacity:1" d="M 863.537,530.774 874.33,528.633 z" id="boundary" inkscape:connector-curvature="0" />
	<path style="fill:none;stroke:red;stroke-width:1px;stroke-linecap:butt;stroke-linejoin:miter;stroke-opacity:1" d="M 867.462,732.546 915.541,671.087 z" id="boundary" inkscape:connector-curvature="0" />
	<path style="fill:none;stroke:red;stroke-width:1px;stroke-linecap:butt;stroke-linejoin:miter;stroke-opacity:1" d="M 867.953,61.3516 877.765,72.1448 z" id="boundary" inkscape:connector-curvature="0" />
	<path style="fill:none;stroke:red;stroke-width:1px;stroke-linecap:butt;stroke-linejoin:miter;stroke-opacity:1" d="M 874.33,528.633 885.124,526.448 z" id="boundary" inkscape:connector-curvature="0" />
	<path style="fill:none;stroke:red;stroke-width:1px;stroke-linecap:butt;stroke-linejoin:miter;stroke-opacity:1" d="M 877.765,72.1448 887.577,83.1344 z" id="boundary" inkscape:connector-curvature="0" />
	<path style="fill:none;stroke:red;stroke-width:1px;stroke-linecap:butt;stroke-linejoin:miter;stroke-opacity:1" d="M 876.293,633.281 915.541,671.087 z" id="boundary" inkscape:connector-curvature="0" />
	<path style="fill:none;stroke:red;stroke-width:1px;stroke-linecap:butt;stroke-linejoin:miter;stroke-opacity:1" d="M 885.124,526.448 895.917,521.72 z" id="boundary" inkscape:connector-curvature="0" />
	<path style="fill:none;stroke:red;stroke-width:1px;stroke-linecap:butt;stroke-linejoin:miter;stroke-opacity:1" d="M 887.577,83.1344 897.389,94.1239 z" id="boundary" inkscape:connector-curvature="0" />
	<path style="fill:none;stroke:red;stroke-width:1px;stroke-linecap:butt;stroke-linejoin:miter;stroke-opacity:1" d="M 895.917,521.72 906.71,515.343 z" id="boundary" inkscape:connector-curvature="0" />
	<path style="fill:none;stroke:red;stroke-width:1px;stroke-linecap:butt;stroke-linejoin:miter;stroke-opacity:1" d="M 897.389,94.1239 907.201,104.868 z" id="boundary" inkscape:connector-curvature="0" />
	<path style="fill:none;stroke:red;stroke-width:1px;stroke-linecap:butt;stroke-linejoin:miter;stroke-opacity:1" d="M 906.71,515.343 917.503,508.92 z" id="boundary" inkscape:connector-curvature="0" />
	<path style="fill:none;stroke:red;stroke-width:1px;stroke-linecap:butt;stroke-linejoin:miter;stroke-opacity:1" d="M 907.201,104.868 917.503,115.144 z" id="boundary" inkscape:connector-curvature="0" />
	<path style="fill:none;stroke:red;stroke-width:1px;stroke-linecap:butt;stroke-linejoin:miter;stroke-opacity:1" d="M 917.503,115.144 928.297,124.287 z" id="boundary" inkscape:connector-curvature="0" />
	<path style="fill:none;stroke:red;stroke-width:1px;stroke-linecap:butt;stroke-linejoin:miter;stroke-opacity:1" d="M 917.503,508.92 928.297,502.498 z" id="boundary" inkscape:connector-curvature="0" />
	<path style="fill:none;stroke:red;stroke-width:1px;stroke-linecap:butt;stroke-linejoin:miter;stroke-opacity:1" d="M 928.297,124.287 939.09,132.181 z" id="boundary" inkscape:connector-curvature="0" />
	<path style="fill:none;stroke:red;stroke-width:1px;stroke-linecap:butt;stroke-linejoin:miter;stroke-opacity:1" d="M 928.297,502.498 936.637,495.339 z" id="boundary" inkscape:connector-curvature="0" />
	<path style="fill:none;stroke:red;stroke-width:1px;stroke-linecap:butt;stroke-linejoin:miter;stroke-opacity:1" d="M 939.09,132.181 949.883,140.209 z" id="boundary" inkscape:connector-curvature="0" />
	<path style="fill:none;stroke:red;stroke-width:1px;stroke-linecap:butt;stroke-linejoin:miter;stroke-opacity:1" d="M 936.637,495.339 942.034,483.025 z" id="boundary" inkscape:connector-curvature="0" />
	<path style="fill:none;stroke:red;stroke-width:1px;stroke-linecap:butt;stroke-linejoin:miter;stroke-opacity:1" d="M 942.034,483.025 946.94,470.858 z" id="boundary" inkscape:connector-curvature="0" />
	<path style="fill:none;stroke:red;stroke-width:1px;stroke-linecap:butt;stroke-linejoin:miter;stroke-opacity:1" d="M 949.883,140.209 960.677,149.308 z" id="boundary" inkscape:connector-curvature="0" />
	<path style="fill:none;stroke:red;stroke-width:1px;stroke-linecap:butt;stroke-linejoin:miter;stroke-opacity:1" d="M 946.94,470.858 952.816,471.164 z" id="boundary" inkscape:connector-curvature="0" />
	<path style="fill:none;stroke:red;stroke-width:1px;stroke-linecap:butt;stroke-linejoin:miter;stroke-opacity:1" d="M 951.846,458.986 956.752,446.721 z" id="boundary" inkscape:connector-curvature="0" />
	<path style="fill:none;stroke:red;stroke-width:1px;stroke-linecap:butt;stroke-linejoin:miter;stroke-opacity:1" d="M 951.846,458.986 952.816,471.164 z" id="boundary" inkscape:connector-curvature="0" />
	<path style="fill:none;stroke:red;stroke-width:1px;stroke-linecap:butt;stroke-linejoin:miter;stroke-opacity:1" d="M 956.752,446.721 961.658,434.75 z" id="boundary" inkscape:connector-curvature="0" />
	<path style="fill:none;stroke:red;stroke-width:1px;stroke-linecap:butt;stroke-linejoin:miter;stroke-opacity:1" d="M 960.677,149.308 969.998,159.889 z" id="boundary" inkscape:connector-curvature="0" />
	<path style="fill:none;stroke:red;stroke-width:1px;stroke-linecap:butt;stroke-linejoin:miter;stroke-opacity:1" d="M 961.658,434.75 966.564,422.779 z" id="boundary" inkscape:connector-curvature="0" />
	<path style="fill:none;stroke:red;stroke-width:1px;stroke-linecap:butt;stroke-linejoin:miter;stroke-opacity:1" d="M 966.564,422.779 971.47,410.612 z" id="boundary" inkscape:connector-curvature="0" />
	<path style="fill:none;stroke:red;stroke-width:1px;stroke-linecap:butt;stroke-linejoin:miter;stroke-opacity:1" d="M 969.998,159.889 976.866,171.214 z" id="boundary" inkscape:connector-curvature="0" />
	<path style="fill:none;stroke:red;stroke-width:1px;stroke-linecap:butt;stroke-linejoin:miter;stroke-opacity:1" d="M 968.526,310.464 968.036,330.497 z" id="boundary" inkscape:connector-curvature="0" />
	<path style="fill:none;stroke:red;stroke-width:1px;stroke-linecap:butt;stroke-linejoin:miter;stroke-opacity:1" d="M 968.526,310.464 972.942,298.853 z" id="boundary" inkscape:connector-curvature="0" />
	<path style="fill:none;stroke:red;stroke-width:1px;stroke-linecap:butt;stroke-linejoin:miter;stroke-opacity:1" d="M 968.036,330.497 970.489,344.315 z" id="boundary" inkscape:connector-curvature="0" />
	<path style="fill:none;stroke:red;stroke-width:1px;stroke-linecap:butt;stroke-linejoin:miter;stroke-opacity:1" d="M 970.489,344.315 973.432,356.09 z" id="boundary" inkscape:connector-curvature="0" />
	<path style="fill:none;stroke:red;stroke-width:1px;stroke-linecap:butt;stroke-linejoin:miter;stroke-opacity:1" d="M 971.47,410.612 976.376,398.641 z" id="boundary" inkscape:connector-curvature="0" />
	<path style="fill:none;stroke:red;stroke-width:1px;stroke-linecap:butt;stroke-linejoin:miter;stroke-opacity:1" d="M 972.942,298.853 979.81,288.305 z" id="boundary" inkscape:connector-curvature="0" />
	<path style="fill:none;stroke:red;stroke-width:1px;stroke-linecap:butt;stroke-linejoin:miter;stroke-opacity:1" d="M 973.432,356.09 976.866,367.782 z" id="boundary" inkscape:connector-curvature="0" />
	<path style="fill:none;stroke:red;stroke-width:1px;stroke-linecap:butt;stroke-linejoin:miter;stroke-opacity:1" d="M 976.866,171.214 982.263,182.285 z" id="boundary" inkscape:connector-curvature="0" />
	<path style="fill:none;stroke:red;stroke-width:1px;stroke-linecap:butt;stroke-linejoin:miter;stroke-opacity:1" d="M 976.376,398.641 979.81,390.105 z" id="boundary" inkscape:connector-curvature="0" />
	<path style="fill:none;stroke:red;stroke-width:1px;stroke-linecap:butt;stroke-linejoin:miter;stroke-opacity:1" d="M 976.866,367.782 980.791,380.17 z" id="boundary" inkscape:connector-curvature="0" />
	<path style="fill:none;stroke:red;stroke-width:1px;stroke-linecap:butt;stroke-linejoin:miter;stroke-opacity:1" d="M 979.81,288.305 987.169,277.897 z" id="boundary" inkscape:connector-curvature="0" />
	<path style="fill:none;stroke:red;stroke-width:1px;stroke-linecap:butt;stroke-linejoin:miter;stroke-opacity:1" d="M 980.791,380.17 979.81,390.105 z" id="boundary" inkscape:connector-curvature="0" />
	<path style="fill:none;stroke:red;stroke-width:1px;stroke-linecap:butt;stroke-linejoin:miter;stroke-opacity:1" d="M 982.263,182.285 986.679,193.25 z" id="boundary" inkscape:connector-curvature="0" />
	<path style="fill:none;stroke:red;stroke-width:1px;stroke-linecap:butt;stroke-linejoin:miter;stroke-opacity:1" d="M 987.169,277.897 992.566,268.067 z" id="boundary" inkscape:connector-curvature="0" />
	<path style="fill:none;stroke:red;stroke-width:1px;stroke-linecap:butt;stroke-linejoin:miter;stroke-opacity:1" d="M 986.679,193.25 990.113,203.839 z" id="boundary" inkscape:connector-curvature="0" />
	<path style="fill:none;stroke:red;stroke-width:1px;stroke-linecap:butt;stroke-linejoin:miter;stroke-opacity:1" d="M 990.113,203.839 993.056,215.777 z" id="boundary" inkscape:connector-curvature="0" />
	<path style="fill:none;stroke:red;stroke-width:1px;stroke-linecap:butt;stroke-linejoin:miter;stroke-opacity:1" d="M 992.566,268.067 995.509,257.642 z" id="boundary" inkscape:connector-curvature="0" />
	<path style="fill:none;stroke:red;stroke-width:1px;stroke-linecap:butt;stroke-linejoin:miter;stroke-opacity:1" d="M 993.056,215.777 995.509,231.149 z" id="boundary" inkscape:connector-curvature="0" />
	<path style="fill:none;stroke:red;stroke-width:1px;stroke-linecap:butt;stroke-linejoin:miter;stroke-opacity:1" d="M 995.509,231.149 996,246.358 z" id="boundary" inkscape:connector-curvature="0" />
	<path style="fill:none;stroke:red;stroke-width:1px;stroke-linecap:butt;stroke-linejoin:miter;stroke-opacity:1" d="M 995.509,257.642 996,246.358 z" id="boundary" inkscape:connector-curvature="0" />
	<path style="fill:none;stroke:red;stroke-width:1px;stroke-linecap:butt;stroke-linejoin:miter;stroke-opacity:1" d="M 446.277,759.176 487.832,764.194 z" id="boundary" inkscape:connector-curvature="0" />
	<path style="fill:none;stroke:red;stroke-width:1px;stroke-linecap:butt;stroke-linejoin:miter;stroke-opacity:1" d="M 487.832,764.194 538.886,756.497 z" id="boundary" inkscape:connector-curvature="0" />
	<path style="fill:none;stroke:red;stroke-width:1px;stroke-linecap:butt;stroke-linejoin:miter;stroke-opacity:1" d="M 538.886,756.497 537.058,770.845 z" id="boundary" inkscape:connector-curvature="0" />
	<path style="fill:none;stroke:red;stroke-width:1px;stroke-linecap:butt;stroke-linejoin:miter;stroke-opacity:1" d="M 537.058,770.845 614.923,792.102 z" id="boundary" inkscape:connector-curvature="0" />
	<path style="fill:none;stroke:red;stroke-width:1px;stroke-linecap:butt;stroke-linejoin:miter;stroke-opacity:1" d="M 325.2,782.814 387.555,751.001 z" id="boundary" inkscape:connector-curvature="0" />
	<path style="fill:none;stroke:red;stroke-width:1px;stroke-linecap:butt;stroke-linejoin:miter;stroke-opacity:1" d="M 387.555,751.001 390.342,786.106 z" id="boundary" inkscape:connector-curvature="0" />
	<path style="fill:none;stroke:red;stroke-width:1px;stroke-linecap:butt;stroke-linejoin:miter;stroke-opacity:1" d="M 390.342,786.106 429.769,787.52 z" id="boundary" inkscape:connector-curvature="0" />
	<path style="fill:none;stroke:red;stroke-width:1px;stroke-linecap:butt;stroke-linejoin:miter;stroke-opacity:1" d="M 429.769,787.52 453.427,793.593 z" id="boundary" inkscape:connector-curvature="0" />
	<path style="fill:none;stroke:red;stroke-width:1px;stroke-linecap:butt;stroke-linejoin:miter;stroke-opacity:1" d="M 453.427,793.593 476.062,796.98 z" id="boundary" inkscape:connector-curvature="0" />
	<path style="fill:none;stroke:red;stroke-width:1px;stroke-linecap:butt;stroke-linejoin:miter;stroke-opacity:1" d="M 476.062,796.98 483.574,793.738 z" id="boundary" inkscape:connector-curvature="0" />
	<path style="fill:none;stroke:red;stroke-width:1px;stroke-linecap:butt;stroke-linejoin:miter;stroke-opacity:1" d="M 483.574,793.738 531.618,796.326 z" id="boundary" inkscape:connector-curvature="0" />
	<path style="fill:none;stroke:red;stroke-width:1px;stroke-linecap:butt;stroke-linejoin:miter;stroke-opacity:1" d="M 531.618,796.326 557.762,797.633 z" id="boundary" inkscape:connector-curvature="0" />
	<path style="fill:none;stroke:red;stroke-width:1px;stroke-linecap:butt;stroke-linejoin:miter;stroke-opacity:1" d="M 557.762,797.633 577.37,797.633 z" id="boundary" inkscape:connector-curvature="0" />
	<path style="fill:none;stroke:red;stroke-width:1px;stroke-linecap:butt;stroke-linejoin:miter;stroke-opacity:1" d="M 577.37,797.633 594.364,794.365 z" id="boundary" inkscape:connector-curvature="0" />
	<path style="fill:none;stroke:red;stroke-width:1px;stroke-linecap:butt;stroke-linejoin:miter;stroke-opacity:1" d="M 594.364,794.365 614.923,792.102 z" id="boundary" inkscape:connector-curvature="0" />
	<path style="fill:none;stroke:red;stroke-width:1px;stroke-linecap:butt;stroke-linejoin:miter;stroke-opacity:1" d="M 837.466,316.995 887.111,280.893 z" id="boundary" inkscape:connector-curvature="0" />
	<path style="fill:none;stroke:red;stroke-width:1px;stroke-linecap:butt;stroke-linejoin:miter;stroke-opacity:1" d="M 837.466,316.995 826.568,266.167 z" id="boundary" inkscape:connector-curvature="0" />
	<path style="fill:none;stroke:red;stroke-width:1px;stroke-linecap:butt;stroke-linejoin:miter;stroke-opacity:1" d="M 826.568,266.167 783.714,248.009 z" id="boundary" inkscape:connector-curvature="0" />
	<path style="fill:none;stroke:red;stroke-width:1px;stroke-linecap:butt;stroke-linejoin:miter;stroke-opacity:1" d="M 783.714,248.009 682.969,308.111 z" id="boundary" inkscape:connector-curvature="0" />
	<circle cx="4.49062" cy="205.883" r="4" fill="#0" id="circle0"/>
	<circle cx="4" cy="218.884" r="4" fill="#0" id="circle1"/>
	<circle cx="4" cy="234.584" r="4" fill="#0" id="circle2"/>
	<circle cx="8.93732" cy="190.733" r="4" fill="#0" id="circle3"/>
	<circle cx="5.96241" cy="250.937" r="4" fill="#0" id="circle4"/>
	<circle cx="10.3072" cy="176.568" r="4" fill="#0" id="circle5"/>
	<circle cx="9.39664" cy="263.775" r="4" fill="#0" id="circle6"/>
	<circle cx="9.88724" cy="161.811" r="4" fill="#0" id="circle7"/>
	<circle cx="12.8309" cy="148.564" r="4" fill="#0" id="circle8"/>
	<circle cx="13.3215" cy="274.936" r="4" fill="#0" id="circle9"/>
	<circle cx="16.2651" cy="135.727" r="4" fill="#0" id="circle10"/>
	<circle cx="17.7369" cy="286.195" r="4" fill="#0" id="circle11"/>
	<circle cx="20.1791" cy="123.458" r="4" fill="#0" id="circle12"/>
	<circle cx="22.6429" cy="297.283" r="4" fill="#0" id="circle13"/>
	<circle cx="24.5211" cy="111.702" r="4" fill="#0" id="circle14"/>
	<circle cx="27.549" cy="307.585" r="4" fill="#0" id="circle15"/>
	<circle cx="29.5114" cy="100.256" r="4" fill="#0" id="circle16"/>
	<circle cx="32.9456" cy="318.395" r="4" fill="#0" id="circle17"/>
	<circle cx="35.0212" cy="627.225" r="4" fill="#0" id="circle18"/>
	<circle cx="34.908" cy="89.6103" r="4" fill="#0" id="circle19"/>
	<circle cx="35.8892" cy="606.461" r="4" fill="#0" id="circle20"/>
	<circle cx="37.8516" cy="328.044" r="4" fill="#0" id="circle21"/>
	<circle cx="62.8553" cy="94.058" r="4" fill="#0" id="circle22"/>
	<circle cx="39.814" cy="593.705" r="4" fill="#0" id="circle23"/>
	<circle cx="40.3046" cy="336.629" r="4" fill="#0" id="circle24"/>
	<circle cx="40.3046" cy="347.422" r="4" fill="#0" id="circle25"/>
	<circle cx="40.3046" cy="362.876" r="4" fill="#0" id="circle26"/>
	<circle cx="45.2107" cy="377.404" r="4" fill="#0" id="circle27"/>
	<circle cx="46.1919" cy="639.153" r="4" fill="#0" id="circle28"/>
	<circle cx="43.7389" cy="580.827" r="4" fill="#0" id="circle29"/>
	<circle cx="48.6449" cy="67.4718" r="4" fill="#0" id="circle30"/>
	<circle cx="47.6637" cy="567.949" r="4" fill="#0" id="circle31"/>
	<circle cx="54.0415" cy="389.069" r="4" fill="#0" id="circle32"/>
	<circle cx="51.5885" cy="555.193" r="4" fill="#0" id="circle33"/>
	<circle cx="56.9852" cy="648.474" r="4" fill="#0" id="circle34"/>
	<circle cx="56.9852" cy="56.8217" r="4" fill="#0" id="circle35"/>
	<circle cx="55.5134" cy="542.315" r="4" fill="#0" id="circle36"/>
	<circle cx="59.4382" cy="529.436" r="4" fill="#0" id="circle37"/>
	<circle cx="62.3818" cy="399.978" r="4" fill="#0" id="circle38"/>
	<circle cx="66.7972" cy="46.3703" r="4" fill="#0" id="circle39"/>
	<circle cx="63.363" cy="516.681" r="4" fill="#0" id="circle40"/>
	<circle cx="67.7784" cy="657.93" r="4" fill="#0" id="circle41"/>
	<circle cx="67.2878" cy="503.925" r="4" fill="#0" id="circle42"/>
	<circle cx="70.7221" cy="410.819" r="4" fill="#0" id="circle43"/>
	<circle cx="71.2127" cy="490.924" r="4" fill="#0" id="circle44"/>
	<circle cx="77.5905" cy="37.6287" r="4" fill="#0" id="circle45"/>
	<circle cx="75.1375" cy="478.168" r="4" fill="#0" id="circle46"/>
	<circle cx="78.5717" cy="667.34" r="4" fill="#0" id="circle47"/>
	<circle cx="76.6093" cy="420.032" r="4" fill="#0" id="circle48"/>
	<circle cx="78.0811" cy="434.75" r="4" fill="#0" id="circle49"/>
	<circle cx="78.5717" cy="466.148" r="4" fill="#0" id="circle50"/>
	<circle cx="78.5717" cy="452.166" r="4" fill="#0" id="circle51"/>
	<circle cx="88.3838" cy="30.894" r="4" fill="#0" id="circle52"/>
	<circle cx="89.365" cy="676.706" r="4" fill="#0" id="circle53"/>
	<circle cx="110.074" cy="44.2371" r="4" fill="#0" id="circle54"/>
	<circle cx="100.158" cy="686.117" r="4" fill="#0" id="circle55"/>
	<circle cx="109.97" cy="21.2604" r="4" fill="#0" id="circle56"/>
	<circle cx="110.952" cy="695.572" r="4" fill="#0" id="circle57"/>
	<circle cx="120.716" cy="17.4962" r="4" fill="#0" id="circle58"/>
	<circle cx="121.745" cy="704.894" r="4" fill="#0" id="circle59"/>
	<circle cx="131.528" cy="14.5089" r="4" fill="#0" id="circle60"/>
	<circle cx="132.538" cy="714.349" r="4" fill="#0" id="circle61"/>
	<circle cx="142.356" cy="12.0967" r="4" fill="#0" id="circle62"/>
	<circle cx="143.331" cy="723.76" r="4" fill="#0" id="circle63"/>
	<circle cx="153.147" cy="9.8626" r="4" fill="#0" id="circle64"/>
	<circle cx="154.125" cy="733.081" r="4" fill="#0" id="circle65"/>
	<circle cx="163.935" cy="7.82475" r="4" fill="#0" id="circle66"/>
	<circle cx="164.918" cy="742.537" r="4" fill="#0" id="circle67"/>
	<circle cx="174.73" cy="6.00703" r="4" fill="#0" id="circle68"/>
	<circle cx="175.711" cy="751.947" r="4" fill="#0" id="circle69"/>
	<circle cx="185.523" cy="4.62445" r="4" fill="#0" id="circle70"/>
	<circle cx="186.504" cy="761.313" r="4" fill="#0" id="circle71"/>
	<circle cx="196.317" cy="4.00005" r="4" fill="#0" id="circle72"/>
	<circle cx="197.298" cy="770.768" r="4" fill="#0" id="circle73"/>
	<circle cx="207.11" cy="4" r="4" fill="#0" id="circle74"/>
	<circle cx="208.091" cy="780.135" r="4" fill="#0" id="circle75"/>
	<circle cx="217.903" cy="4.08925" r="4" fill="#0" id="circle76"/>
	<circle cx="224.201" cy="698.363" r="4" fill="#0" id="circle77"/>
	<circle cx="228.696" cy="5.20421" r="4" fill="#0" id="circle78"/>
	<circle cx="228.696" cy="779.917" r="4" fill="#0" id="circle79"/>
	<circle cx="238.018" cy="769.39" r="4" fill="#0" id="circle80"/>
	<circle cx="239.49" cy="6.49766" r="4" fill="#0" id="circle81"/>
	<circle cx="247.339" cy="758.93" r="4" fill="#0" id="circle82"/>
	<circle cx="250.283" cy="8.54927" r="4" fill="#0" id="circle83"/>
	<circle cx="253.128" cy="653.608" r="4" fill="#0" id="circle84"/>
	<circle cx="251.264" cy="681.769" r="4" fill="#0" id="circle85"/>
	<circle cx="252.245" cy="688.882" r="4" fill="#0" id="circle86"/>
	<circle cx="252.245" cy="703.6" r="4" fill="#0" id="circle87"/>
	<circle cx="253.472" cy="749.962" r="4" fill="#0" id="circle88"/>
	<circle cx="253.227" cy="711.45" r="4" fill="#0" id="circle89"/>
	<circle cx="253.227" cy="725.923" r="4" fill="#0" id="circle90"/>
	<circle cx="254.208" cy="733.037" r="4" fill="#0" id="circle91"/>
	<circle cx="261.076" cy="11.0915" r="4" fill="#0" id="circle92"/>
	<circle cx="263.039" cy="644.951" r="4" fill="#0" id="circle93"/>
	<circle cx="271.869" cy="14.3027" r="4" fill="#0" id="circle94"/>
	<circle cx="273.832" cy="647.582" r="4" fill="#0" id="circle95"/>
	<circle cx="282.663" cy="18.4505" r="4" fill="#0" id="circle96"/>
	<circle cx="284.625" cy="651.463" r="4" fill="#0" id="circle97"/>
	<circle cx="293.456" cy="22.9552" r="4" fill="#0" id="circle98"/>
	<circle cx="295.418" cy="655.298" r="4" fill="#0" id="circle99"/>
	<circle cx="304.249" cy="28.0396" r="4" fill="#0" id="circle100"/>
	<circle cx="294.485" cy="685.323" r="4" fill="#0" id="circle101"/>
	<circle cx="315.043" cy="33.3024" r="4" fill="#0" id="circle102"/>
	<circle cx="317.005" cy="663.014" r="4" fill="#0" id="circle103"/>
	<circle cx="325.836" cy="38.8775" r="4" fill="#0" id="circle104"/>
	<circle cx="327.686" cy="666.687" r="4" fill="#0" id="circle105"/>
	<circle cx="336.629" cy="44.7201" r="4" fill="#0" id="circle106"/>
	<circle cx="338.591" cy="668.366" r="4" fill="#0" id="circle107"/>
	<circle cx="347.422" cy="50.7412" r="4" fill="#0" id="circle108"/>
	<circle cx="349.708" cy="668.3" r="4" fill="#0" id="circle109"/>
	<circle cx="358.216" cy="56.8514" r="4" fill="#0" id="circle110"/>
	<circle cx="360.161" cy="672.959" r="4" fill="#0" id="circle111"/>
	<circle cx="369.009" cy="63.3185" r="4" fill="#0" id="circle112"/>
	<circle cx="370.971" cy="674.922" r="4" fill="#0" id="circle113"/>
	<circle cx="376.368" cy="72.8072" r="4" fill="#0" id="circle114"/>
	<circle cx="381.684" cy="670.568" r="4" fill="#0" id="circle115"/>
	<circle cx="380.293" cy="83.3551" r="4" fill="#0" id="circle116"/>
	<circle cx="384.213" cy="93.7821" r="4" fill="#0" id="circle117"/>
	<circle cx="388.133" cy="104.209" r="4" fill="#0" id="circle118"/>
	<circle cx="393.229" cy="660.448" r="4" fill="#0" id="circle119"/>
	<circle cx="392.067" cy="114.754" r="4" fill="#0" id="circle120"/>
	<circle cx="395.971" cy="125.187" r="4" fill="#0" id="circle121"/>
	<circle cx="399.896" cy="135.735" r="4" fill="#0" id="circle122"/>
	<circle cx="399.861" cy="650.135" r="4" fill="#0" id="circle123"/>
	<circle cx="400.898" cy="637.369" r="4" fill="#0" id="circle124"/>
	<circle cx="401.879" cy="625.84" r="4" fill="#0" id="circle125"/>
	<circle cx="403.863" cy="146.39" r="4" fill="#0" id="circle126"/>
	<circle cx="403.024" cy="612.675" r="4" fill="#0" id="circle127"/>
	<circle cx="405.314" cy="595.177" r="4" fill="#0" id="circle128"/>
	<circle cx="407.767" cy="156.946" r="4" fill="#0" id="circle129"/>
	<circle cx="408.257" cy="581.113" r="4" fill="#0" id="circle130"/>
	<circle cx="412.151" cy="167.221" r="4" fill="#0" id="circle131"/>
	<circle cx="411.201" cy="566.722" r="4" fill="#0" id="circle132"/>
	<circle cx="414.144" cy="552.004" r="4" fill="#0" id="circle133"/>
	<circle cx="415.126" cy="176.529" r="4" fill="#0" id="circle134"/>
	<circle cx="420.032" cy="493.867" r="4" fill="#0" id="circle135"/>
	<circle cx="416.107" cy="513.001" r="4" fill="#0" id="circle136"/>
	<circle cx="417.088" cy="538.758" r="4" fill="#0" id="circle137"/>
	<circle cx="417.381" cy="189.971" r="4" fill="#0" id="circle138"/>
	<circle cx="417.088" cy="522.077" r="4" fill="#0" id="circle139"/>
	<circle cx="417.088" cy="532.543" r="4" fill="#0" id="circle140"/>
	<circle cx="418.678" cy="203.664" r="4" fill="#0" id="circle141"/>
	<circle cx="419.567" cy="215.448" r="4" fill="#0" id="circle142"/>
	<circle cx="420.511" cy="227.226" r="4" fill="#0" id="circle143"/>
	<circle cx="421.503" cy="238.999" r="4" fill="#0" id="circle144"/>
	<circle cx="422.472" cy="250.689" r="4" fill="#0" id="circle145"/>
	<circle cx="423.466" cy="262.548" r="4" fill="#0" id="circle146"/>
	<circle cx="424.446" cy="274.242" r="4" fill="#0" id="circle147"/>
	<circle cx="425.428" cy="286.097" r="4" fill="#0" id="circle148"/>
	<circle cx="426.411" cy="297.871" r="4" fill="#0" id="circle149"/>
	<circle cx="430.825" cy="491.035" r="4" fill="#0" id="circle150"/>
	<circle cx="427.391" cy="309.645" r="4" fill="#0" id="circle151"/>
	<circle cx="428.38" cy="321.459" r="4" fill="#0" id="circle152"/>
	<circle cx="429.349" cy="333.195" r="4" fill="#0" id="circle153"/>
	<circle cx="430.334" cy="344.969" r="4" fill="#0" id="circle154"/>
	<circle cx="431.806" cy="358.379" r="4" fill="#0" id="circle155"/>
	<circle cx="435.731" cy="370.186" r="4" fill="#0" id="circle156"/>
	<circle cx="441.618" cy="489.207" r="4" fill="#0" id="circle157"/>
	<circle cx="440.637" cy="382.648" r="4" fill="#0" id="circle158"/>
	<circle cx="445.543" cy="395.305" r="4" fill="#0" id="circle159"/>
	<circle cx="452.411" cy="487.423" r="4" fill="#0" id="circle160"/>
	<circle cx="449.958" cy="406.295" r="4" fill="#0" id="circle161"/>
	<circle cx="453.883" cy="416.475" r="4" fill="#0" id="circle162"/>
	<circle cx="458.299" cy="427.685" r="4" fill="#0" id="circle163"/>
	<circle cx="463.205" cy="483.587" r="4" fill="#0" id="circle164"/>
	<circle cx="462.714" cy="438.797" r="4" fill="#0" id="circle165"/>
	<circle cx="467.13" cy="450.253" r="4" fill="#0" id="circle166"/>
	<circle cx="471.447" cy="470.839" r="4" fill="#0" id="circle167"/>
	<circle cx="471.054" cy="461.046" r="4" fill="#0" id="circle168"/>
	<circle cx="529.086" cy="477.811" r="4" fill="#0" id="circle169"/>
	<circle cx="532.38" cy="461.12" r="4" fill="#0" id="circle170"/>
	<circle cx="536.795" cy="494.96" r="4" fill="#0" id="circle171"/>
	<circle cx="536.305" cy="448.487" r="4" fill="#0" id="circle172"/>
	<circle cx="540.229" cy="436.222" r="4" fill="#0" id="circle173"/>
	<circle cx="544.154" cy="423.957" r="4" fill="#0" id="circle174"/>
	<circle cx="547.589" cy="498.796" r="4" fill="#0" id="circle175"/>
	<circle cx="548.079" cy="411.323" r="4" fill="#0" id="circle176"/>
	<circle cx="551.513" cy="399.753" r="4" fill="#0" id="circle177"/>
	<circle cx="553.966" cy="371.462" r="4" fill="#0" id="circle178"/>
	<circle cx="553.476" cy="387.652" r="4" fill="#0" id="circle179"/>
	<circle cx="558.382" cy="501.204" r="4" fill="#0" id="circle180"/>
	<circle cx="554.948" cy="349.385" r="4" fill="#0" id="circle181"/>
	<circle cx="554.457" cy="362.14" r="4" fill="#0" id="circle182"/>
	<circle cx="556.092" cy="149.055" r="4" fill="#0" id="circle183"/>
	<circle cx="555.929" cy="327.308" r="4" fill="#0" id="circle184"/>
	<circle cx="555.438" cy="339.573" r="4" fill="#0" id="circle185"/>
	<circle cx="556.91" cy="129.594" r="4" fill="#0" id="circle186"/>
	<circle cx="557.401" cy="166.226" r="4" fill="#0" id="circle187"/>
	<circle cx="556.91" cy="305.231" r="4" fill="#0" id="circle188"/>
	<circle cx="556.419" cy="317.986" r="4" fill="#0" id="circle189"/>
	<circle cx="558.382" cy="279.883" r="4" fill="#0" id="circle190"/>
	<circle cx="557.401" cy="295.418" r="4" fill="#0" id="circle191"/>
	<circle cx="559.363" cy="115.367" r="4" fill="#0" id="circle192"/>
	<circle cx="560.344" cy="178.328" r="4" fill="#0" id="circle193"/>
	<circle cx="561.816" cy="266.963" r="4" fill="#0" id="circle194"/>
	<circle cx="563.288" cy="103.298" r="4" fill="#0" id="circle195"/>
	<circle cx="564.024" cy="530.491" r="4" fill="#0" id="circle196"/>
	<circle cx="563.778" cy="189.448" r="4" fill="#0" id="circle197"/>
	<circle cx="565.741" cy="255.189" r="4" fill="#0" id="circle198"/>
	<circle cx="568.684" cy="505.073" r="4" fill="#0" id="circle199"/>
	<circle cx="569.175" cy="91.6779" r="4" fill="#0" id="circle200"/>
	<circle cx="567.703" cy="200.364" r="4" fill="#0" id="circle201"/>
	<circle cx="567.213" cy="517.008" r="4" fill="#0" id="circle202"/>
	<circle cx="569.175" cy="545.626" r="4" fill="#0" id="circle203"/>
	<circle cx="569.666" cy="242.679" r="4" fill="#0" id="circle204"/>
	<circle cx="572.119" cy="211.623" r="4" fill="#0" id="circle205"/>
	<circle cx="573.1" cy="232.131" r="4" fill="#0" id="circle206"/>
	<circle cx="573.591" cy="558.872" r="4" fill="#0" id="circle207"/>
	<circle cx="577.515" cy="80.7795" r="4" fill="#0" id="circle208"/>
	<circle cx="575.553" cy="222.704" r="4" fill="#0" id="circle209"/>
	<circle cx="580.95" cy="571.539" r="4" fill="#0" id="circle210"/>
	<circle cx="587.818" cy="70.4991" r="4" fill="#0" id="circle211"/>
	<circle cx="589.78" cy="573.941" r="4" fill="#0" id="circle212"/>
	<circle cx="598.611" cy="61.9804" r="4" fill="#0" id="circle213"/>
	<circle cx="594.196" cy="592.233" r="4" fill="#0" id="circle214"/>
	<circle cx="595.177" cy="604.499" r="4" fill="#0" id="circle215"/>
	<circle cx="596.976" cy="620.525" r="4" fill="#0" id="circle216"/>
	<circle cx="602.536" cy="634.916" r="4" fill="#0" id="circle217"/>
	<circle cx="609.405" cy="55.0228" r="4" fill="#0" id="circle218"/>
	<circle cx="613.329" cy="642.23" r="4" fill="#0" id="circle219"/>
	<circle cx="620.198" cy="49.1355" r="4" fill="#0" id="circle220"/>
	<circle cx="624.123" cy="644.193" r="4" fill="#0" id="circle221"/>
	<circle cx="630.991" cy="44.0511" r="4" fill="#0" id="circle222"/>
	<circle cx="634.916" cy="639.911" r="4" fill="#0" id="circle223"/>
	<circle cx="641.784" cy="39.6357" r="4" fill="#0" id="circle224"/>
	<circle cx="645.709" cy="635.585" r="4" fill="#0" id="circle225"/>
	<circle cx="652.578" cy="35.6663" r="4" fill="#0" id="circle226"/>
	<circle cx="656.502" cy="632.195" r="4" fill="#0" id="circle227"/>
	<circle cx="663.371" cy="32.7226" r="4" fill="#0" id="circle228"/>
	<circle cx="667.296" cy="631.928" r="4" fill="#0" id="circle229"/>
	<circle cx="674.164" cy="31.34" r="4" fill="#0" id="circle230"/>
	<circle cx="678.089" cy="631.17" r="4" fill="#0" id="circle231"/>
	<circle cx="684.957" cy="30.9832" r="4" fill="#0" id="circle232"/>
	<circle cx="688.882" cy="630.991" r="4" fill="#0" id="circle233"/>
	<circle cx="695.751" cy="31.2508" r="4" fill="#0" id="circle234"/>
	<circle cx="696.732" cy="633.64" r="4" fill="#0" id="circle235"/>
	<circle cx="700.657" cy="647.999" r="4" fill="#0" id="circle236"/>
	<circle cx="706.544" cy="31.4738" r="4" fill="#0" id="circle237"/>
	<circle cx="703.6" cy="660.427" r="4" fill="#0" id="circle238"/>
	<circle cx="706.544" cy="673.183" r="4" fill="#0" id="circle239"/>
	<circle cx="708.997" cy="683.731" r="4" fill="#0" id="circle240"/>
	<circle cx="709.291" cy="786.12" r="4" fill="#0" id="circle241"/>
	<circle cx="709.978" cy="725.187" r="4" fill="#0" id="circle242"/>
	<circle cx="709.488" cy="735.98" r="4" fill="#0" id="circle243"/>
	<circle cx="709.488" cy="746.774" r="4" fill="#0" id="circle244"/>
	<circle cx="709.488" cy="757.567" r="4" fill="#0" id="circle245"/>
	<circle cx="709.488" cy="768.36" r="4" fill="#0" id="circle246"/>
	<circle cx="710.469" cy="692.807" r="4" fill="#0" id="circle247"/>
	<circle cx="710.469" cy="703.6" r="4" fill="#0" id="circle248"/>
	<circle cx="710.469" cy="714.394" r="4" fill="#0" id="circle249"/>
	<circle cx="716.356" cy="793.738" r="4" fill="#0" id="circle250"/>
	<circle cx="717.337" cy="31.4738" r="4" fill="#0" id="circle251"/>
	<circle cx="727.149" cy="796.77" r="4" fill="#0" id="circle252"/>
	<circle cx="728.131" cy="30.7156" r="4" fill="#0" id="circle253"/>
	<circle cx="737.943" cy="795.031" r="4" fill="#0" id="circle254"/>
	<circle cx="738.924" cy="28.5748" r="4" fill="#0" id="circle255"/>
	<circle cx="748.736" cy="789.813" r="4" fill="#0" id="circle256"/>
	<circle cx="749.717" cy="24.2932" r="4" fill="#0" id="circle257"/>
	<circle cx="759.529" cy="784.55" r="4" fill="#0" id="circle258"/>
	<circle cx="760.51" cy="18.7181" r="4" fill="#0" id="circle259"/>
	<circle cx="770.322" cy="779.421" r="4" fill="#0" id="circle260"/>
	<circle cx="771.304" cy="13.1877" r="4" fill="#0" id="circle261"/>
	<circle cx="781.116" cy="774.247" r="4" fill="#0" id="circle262"/>
	<circle cx="782.097" cy="9.39668" r="4" fill="#0" id="circle263"/>
	<circle cx="791.909" cy="768.984" r="4" fill="#0" id="circle264"/>
	<circle cx="792.89" cy="8.41547" r="4" fill="#0" id="circle265"/>
	<circle cx="802.702" cy="763.811" r="4" fill="#0" id="circle266"/>
	<circle cx="803.683" cy="10.9577" r="4" fill="#0" id="circle267"/>
	<circle cx="813.496" cy="758.548" r="4" fill="#0" id="circle268"/>
	<circle cx="814.477" cy="16.2205" r="4" fill="#0" id="circle269"/>
	<circle cx="824.289" cy="753.374" r="4" fill="#0" id="circle270"/>
	<circle cx="825.27" cy="23.535" r="4" fill="#0" id="circle271"/>
	<circle cx="835.082" cy="748.201" r="4" fill="#0" id="circle272"/>
	<circle cx="836.063" cy="31.6076" r="4" fill="#0" id="circle273"/>
	<circle cx="845.875" cy="742.938" r="4" fill="#0" id="circle274"/>
	<circle cx="846.857" cy="40.4831" r="4" fill="#0" id="circle275"/>
	<circle cx="852.499" cy="534.588" r="4" fill="#0" id="circle276"/>
	<circle cx="851.763" cy="548.897" r="4" fill="#0" id="circle277"/>
	<circle cx="856.669" cy="737.764" r="4" fill="#0" id="circle278"/>
	<circle cx="857.65" cy="50.6074" r="4" fill="#0" id="circle279"/>
	<circle cx="855.197" cy="560.835" r="4" fill="#0" id="circle280"/>
	<circle cx="858.631" cy="572.609" r="4" fill="#0" id="circle281"/>
	<circle cx="863.537" cy="530.774" r="4" fill="#0" id="circle282"/>
	<circle cx="862.065" cy="584.384" r="4" fill="#0" id="circle283"/>
	<circle cx="867.462" cy="732.546" r="4" fill="#0" id="circle284"/>
	<circle cx="867.953" cy="61.3516" r="4" fill="#0" id="circle285"/>
	<circle cx="865.99" cy="597.998" r="4" fill="#0" id="circle286"/>
	<circle cx="869.424" cy="609.732" r="4" fill="#0" id="circle287"/>
	<circle cx="874.33" cy="528.633" r="4" fill="#0" id="circle288"/>
	<circle cx="872.859" cy="621.67" r="4" fill="#0" id="circle289"/>
	<circle cx="877.765" cy="72.1448" r="4" fill="#0" id="circle290"/>
	<circle cx="878.255" cy="727.372" r="4" fill="#0" id="circle291"/>
	<circle cx="876.293" cy="633.281" r="4" fill="#0" id="circle292"/>
	<circle cx="883.161" cy="645.531" r="4" fill="#0" id="circle293"/>
	<circle cx="885.124" cy="526.448" r="4" fill="#0" id="circle294"/>
	<circle cx="887.577" cy="83.1344" r="4" fill="#0" id="circle295"/>
	<circle cx="889.048" cy="722.154" r="4" fill="#0" id="circle296"/>
	<circle cx="893.955" cy="653.96" r="4" fill="#0" id="circle297"/>
	<circle cx="895.917" cy="521.72" r="4" fill="#0" id="circle298"/>
	<circle cx="897.389" cy="94.1239" r="4" fill="#0" id="circle299"/>
	<circle cx="899.842" cy="716.891" r="4" fill="#0" id="circle300"/>
	<circle cx="904.748" cy="662.256" r="4" fill="#0" id="circle301"/>
	<circle cx="906.71" cy="515.343" r="4" fill="#0" id="circle302"/>
	<circle cx="907.201" cy="104.868" r="4" fill="#0" id="circle303"/>
	<circle cx="910.635" cy="711.718" r="4" fill="#0" id="circle304"/>
	<circle cx="915.541" cy="671.087" r="4" fill="#0" id="circle305"/>
	<circle cx="917.503" cy="115.144" r="4" fill="#0" id="circle306"/>
	<circle cx="917.503" cy="508.92" r="4" fill="#0" id="circle307"/>
	<circle cx="921.428" cy="706.544" r="4" fill="#0" id="circle308"/>
	<circle cx="925.844" cy="680.297" r="4" fill="#0" id="circle309"/>
	<circle cx="928.297" cy="124.287" r="4" fill="#0" id="circle310"/>
	<circle cx="928.297" cy="502.498" r="4" fill="#0" id="circle311"/>
	<circle cx="929.278" cy="698.891" r="4" fill="#0" id="circle312"/>
	<circle cx="933.203" cy="689.814" r="4" fill="#0" id="circle313"/>
	<circle cx="939.09" cy="132.181" r="4" fill="#0" id="circle314"/>
	<circle cx="936.637" cy="495.339" r="4" fill="#0" id="circle315"/>
	<circle cx="942.034" cy="483.025" r="4" fill="#0" id="circle316"/>
	<circle cx="949.883" cy="140.209" r="4" fill="#0" id="circle317"/>
	<circle cx="946.94" cy="470.858" r="4" fill="#0" id="circle318"/>
	<circle cx="951.846" cy="458.986" r="4" fill="#0" id="circle319"/>
	<circle cx="956.752" cy="446.721" r="4" fill="#0" id="circle320"/>
	<circle cx="960.677" cy="149.308" r="4" fill="#0" id="circle321"/>
	<circle cx="961.658" cy="434.75" r="4" fill="#0" id="circle322"/>
	<circle cx="966.564" cy="422.779" r="4" fill="#0" id="circle323"/>
	<circle cx="969.998" cy="159.889" r="4" fill="#0" id="circle324"/>
	<circle cx="968.526" cy="310.464" r="4" fill="#0" id="circle325"/>
	<circle cx="968.036" cy="330.497" r="4" fill="#0" id="circle326"/>
	<circle cx="970.489" cy="344.315" r="4" fill="#0" id="circle327"/>
	<circle cx="971.47" cy="410.612" r="4" fill="#0" id="circle328"/>
	<circle cx="972.942" cy="298.853" r="4" fill="#0" id="circle329"/>
	<circle cx="973.432" cy="356.09" r="4" fill="#0" id="circle330"/>
	<circle cx="976.866" cy="171.214" r="4" fill="#0" id="circle331"/>
	<circle cx="976.376" cy="398.641" r="4" fill="#0" id="circle332"/>
	<circle cx="976.866" cy="367.782" r="4" fill="#0" id="circle333"/>
	<circle cx="979.81" cy="288.305" r="4" fill="#0" id="circle334"/>
	<circle cx="980.791" cy="380.17" r="4" fill="#0" id="circle335"/>
	<circle cx="979.81" cy="390.105" r="4" fill="#0" id="circle336"/>
	<circle cx="982.263" cy="182.285" r="4" fill="#0" id="circle337"/>
	<circle cx="987.169" cy="277.897" r="4" fill="#0" id="circle338"/>
	<circle cx="986.679" cy="193.25" r="4" fill="#0" id="circle339"/>
	<circle cx="990.113" cy="203.839" r="4" fill="#0" id="circle340"/>
	<circle cx="992.566" cy="268.067" r="4" fill="#0" id="circle341"/>
	<circle cx="993.056" cy="215.777" r="4" fill="#0" id="circle342"/>
	<circle cx="995.509" cy="231.149" r="4" fill="#0" id="circle343"/>
	<circle cx="995.509" cy="257.642" r="4" fill="#0" id="circle344"/>
	<circle cx="996" cy="246.358" r="4" fill="#0" id="circle345"/>
	<circle cx="297.629" cy="723.776" r="4" fill="#0" id="circle346"/>
	<circle cx="303.512" cy="727.698" r="4" fill="#0" id="circle347"/>
	<circle cx="312.662" cy="732.273" r="4" fill="#0" id="circle348"/>
	<circle cx="328.349" cy="736.195" r="4" fill="#0" id="circle349"/>
	<circle cx="344.035" cy="740.116" r="4" fill="#0" id="circle350"/>
	<circle cx="359.068" cy="743.384" r="4" fill="#0" id="circle351"/>
	<circle cx="378.676" cy="746.652" r="4" fill="#0" id="circle352"/>
	<circle cx="397.63" cy="746.652" r="4" fill="#0" id="circle353"/>
	<circle cx="419.853" cy="747.306" r="4" fill="#0" id="circle354"/>
	<circle cx="446.277" cy="759.176" r="4" fill="#0" id="circle355"/>
	<circle cx="487.832" cy="764.194" r="4" fill="#0" id="circle356"/>
	<circle cx="513.317" cy="740.77" r="4" fill="#0" id="circle357"/>
	<circle cx="538.886" cy="756.497" r="4" fill="#0" id="circle358"/>
	<circle cx="537.058" cy="770.845" r="4" fill="#0" id="circle359"/>
	<circle cx="588.481" cy="734.234" r="4" fill="#0" id="circle360"/>
	<circle cx="606.782" cy="731.62" r="4" fill="#0" id="circle361"/>
	<circle cx="629.004" cy="723.123" r="4" fill="#0" id="circle362"/>
	<circle cx="651.88" cy="714.626" r="4" fill="#0" id="circle363"/>
	<circle cx="664.299" cy="706.129" r="4" fill="#0" id="circle364"/>
	<circle cx="290.44" cy="730.966" r="4" fill="#0" id="circle365"/>
	<circle cx="285.211" cy="742.077" r="4" fill="#0" id="circle366"/>
	<circle cx="280.636" cy="751.881" r="4" fill="#0" id="circle367"/>
	<circle cx="277.368" cy="765.607" r="4" fill="#0" id="circle368"/>
	<circle cx="288.479" cy="776.718" r="4" fill="#0" id="circle369"/>
	<circle cx="302.205" cy="782.601" r="4" fill="#0" id="circle370"/>
	<circle cx="325.2" cy="782.814" r="4" fill="#0" id="circle371"/>
	<circle cx="344.689" cy="793.712" r="4" fill="#0" id="circle372"/>
	<circle cx="387.555" cy="751.001" r="4" fill="#0" id="circle373"/>
	<circle cx="390.342" cy="786.106" r="4" fill="#0" id="circle374"/>
	<circle cx="429.769" cy="787.52" r="4" fill="#0" id="circle375"/>
	<circle cx="453.427" cy="793.593" r="4" fill="#0" id="circle376"/>
	<circle cx="476.062" cy="796.98" r="4" fill="#0" id="circle377"/>
	<circle cx="483.574" cy="793.738" r="4" fill="#0" id="circle378"/>
	<circle cx="531.618" cy="796.326" r="4" fill="#0" id="circle379"/>
	<circle cx="557.762" cy="797.633" r="4" fill="#0" id="circle380"/>
	<circle cx="577.37" cy="797.633" r="4" fill="#0" id="circle381"/>
	<circle cx="594.364" cy="794.365" r="4" fill="#0" id="circle382"/>
	<circle cx="660.377" cy="769.528" r="4" fill="#0" id="circle383"/>
	<circle cx="676.717" cy="761.032" r="4" fill="#0" id="circle384"/>
	<circle cx="686.521" cy="751.881" r="4" fill="#0" id="circle385"/>
	<circle cx="686.521" cy="734.888" r="4" fill="#0" id="circle386"/>
	<circle cx="678.678" cy="719.855" r="4" fill="#0" id="circle387"/>
	<circle cx="672.142" cy="710.704" r="4" fill="#0" id="circle388"/>
	<circle cx="614.923" cy="792.102" r="4" fill="#0" id="circle389"/>
	<circle cx="632.272" cy="785.215" r="4" fill="#0" id="circle390"/>
	<circle cx="646.652" cy="777.372" r="4" fill="#0" id="circle391"/>
	<circle cx="837.466" cy="316.995" r="4" fill="#0" id="circle392"/>
	<circle cx="780.834" cy="637.669" r="4" fill="#0" id="circle393"/>
	<circle cx="908.354" cy="160.783" r="4" fill="#0" id="circle394"/>
	<circle cx="336.541" cy="613.693" r="4" fill="#0" id="circle395"/>
	<circle cx="279.553" cy="443.649" r="4" fill="#0" id="circle396"/>
	<circle cx="477.578" cy="503.093" r="4" fill="#0" id="circle397"/>
	<circle cx="365.866" cy="411.452" r="4" fill="#0" id="circle398"/>
	<circle cx="948.612" cy="731.123" r="4" fill="#0" id="circle399"/>
	<circle cx="634.626" cy="573.271" r="4" fill="#0" id="circle400"/>
	<circle cx="144.47" cy="485.711" r="4" fill="#0" id="circle401"/>
	<circle cx="20.1702" cy="196.763" r="4" fill="#0" id="circle402"/>
	<circle cx="140.134" cy="642.221" r="4" fill="#0" id="circle403"/>
	<circle cx="159.426" cy="322.203" r="4" fill="#0" id="circle404"/>
	<circle cx="96.352" cy="33.1982" r="4" fill="#0" id="circle405"/>
	<circle cx="994.933" cy="177.216" r="4" fill="#0" id="circle406"/>
	<circle cx="512.829" cy="669.947" r="4" fill="#0" id="circle407"/>
	<circle cx="611.739" cy="238.941" r="4" fill="#0" id="circle408"/>
	<circle cx="636.452" cy="420.092" r="4" fill="#0" id="circle409"/>
	<circle cx="493.634" cy="776.027" r="4" fill="#0" id="circle410"/>
	<circle cx="294.177" cy="616.175" r="4" fill="#0" id="circle411"/>
	<circle cx="526.531" cy="615.029" r="4" fill="#0" id="circle412"/>
	<circle cx="401.027" cy="711.547" r="4" fill="#0" id="circle413"/>
	<circle cx="285.048" cy="283.723" r="4" fill="#0" id="circle414"/>
	<circle cx="805.263" cy="733.37" r="4" fill="#0" id="circle415"/>
	<circle cx="73.1972" cy="757.418" r="4" fill="#0" id="circle416"/>
	<circle cx="525.787" cy="72.2968" r="4" fill="#0" id="circle417"/>
	<circle cx="194.676" cy="530.359" r="4" fill="#0" id="circle418"/>
	<circle cx="887.111" cy="280.893" r="4" fill="#0" id="circle419"/>
	<circle cx="67.6579" cy="19.891" r="4" fill="#0" id="circle420"/>
	<circle cx="458.04" cy="54.075" r="4" fill="#0" id="circle421"/>
	<circle cx="240.374" cy="774.328" r="4" fill="#0" id="circle422"/>
	<circle cx="898.99" cy="679.318" r="4" fill="#0" id="circle423"/>
	<circle cx="268.532" cy="432.372" r="4" fill="#0" id="circle424"/>
	<circle cx="376.205" cy="607.359" r="4" fill="#0" id="circle425"/>
	<circle cx="512.435" cy="533.928" r="4" fill="#0" id="circle426"/>
	<circle cx="531.354" cy="35.1742" r="4" fill="#0" id="circle427"/>
	<circle cx="438.136" cy="743.535" r="4" fill="#0" id="circle428"/>
	<circle cx="927.363" cy="576.172" r="4" fill="#0" id="circle429"/>
	<circle cx="286.019" cy="590.125" r="4" fill="#0" id="circle430"/>
	<circle cx="638.859" cy="284.985" r="4" fill="#0" id="circle431"/>
	<circle cx="686.358" cy="135.723" r="4" fill="#0" id="circle432"/>
	<circle cx="440.584" cy="702.457" r="4" fill="#0" id="circle433"/>
	<circle cx="826.568" cy="266.167" r="4" fill="#0" id="circle434"/>
	<circle cx="231.136" cy="713.01" r="4" fill="#0" id="circle435"/>
	<circle cx="351.557" cy="548.964" r="4" fill="#0" id="circle436"/>
	<circle cx="952.816" cy="471.164" r="4" fill="#0" id="circle437"/>
	<circle cx="656.046" cy="685.474" r="4" fill="#0" id="circle438"/>
	<circle cx="440.043" cy="737.293" r="4" fill="#0" id="circle439"/>
	<circle cx="399.249" cy="650.626" r="4" fill="#0" id="circle440"/>
	<circle cx="682.745" cy="726.978" r="4" fill="#0" id="circle441"/>
	<circle cx="482.631" cy="175.286" r="4" fill="#0" id="circle442"/>
	<circle cx="946.65" cy="734.244" r="4" fill="#0" id="circle443"/>
	<circle cx="150.479" cy="703.24" r="4" fill="#0" id="circle444"/>
	<circle cx="639.952" cy="346.813" r="4" fill="#0" id="circle445"/>
	<circle cx="618.64" cy="227.058" r="4" fill="#0" id="circle446"/>
	<circle cx="783.714" cy="248.009" r="4" fill="#0" id="circle447"/>
	<circle cx="447.457" cy="183.446" r="4" fill="#0" id="circle448"/>
	<circle cx="190.033" cy="223.229" r="4" fill="#0" id="circle449"/>
	<circle cx="555.992" cy="334.549" r="4" fill="#0" id="circle450"/>
	<circle cx="172.25" cy="723.67" r="4" fill="#0" id="circle451"/>
	<circle cx="106.346" cy="104.058" r="4" fill="#0" id="circle452"/>
	<circle cx="495.481" cy="607.538" r="4" fill="#0" id="circle453"/>
	<circle cx="980.874" cy="746.05" r="4" fill="#0" id="circle454"/>
	<circle cx="682.969" cy="308.111" r="4" fill="#0" id="circle455"/>
	<circle cx="747.773" cy="296.584" r="4" fill="#0" id="circle456"/>
	<circle cx="295.807" cy="188.331" r="4" fill="#0" id="circle457"/>
	<circle cx="583.813" cy="197.974" r="4" fill="#0" id="circle458"/>
	<circle cx="155.171" cy="585.057" r="4" fill="#0" id="circle459"/>
	<circle cx="128.471" cy="633.724" r="4" fill="#0" id="circle460"/>
	<circle cx="166.789" cy="595.313" r="4" fill="#0" id="circle461"/>
	<circle cx="77.9336" cy="758.034" r="4" fill="#0" id="circle462"/>
	<circle cx="56.109" cy="417.93" r="4" fill="#0" id="circle463"/>
	<circle cx="178.801" cy="194.522" r="4" fill="#0" id="circle464"/>
	<circle cx="795.416" cy="585.459" r="4" fill="#0" id="circle465"/>
	<circle cx="655.311" cy="771.765" r="4" fill="#0" id="circle466"/>
	<circle cx="638.343" cy="606.951" r="4" fill="#0" id="circle467"/>
	<circle cx="96.7326" cy="111.063" r="4" fill="#0" id="circle468"/>
	<circle cx="520.048" cy="66.0877" r="4" fill="#0" id="circle469"/>
	</g>
</svg>