<?xml version="1.0" encoding="UTF-8" standalone="no"?>
<!-- Created with CurveBenchmark -->
<svg
	xmlns:dc="http://purl.org/dc/elements/1.1/"
	xmlns:cc="http://creativecommons.org/ns#"
	xmlns:rdf="http://www.w3.org/1999/02/22-rdf-syntax-ns#"
	xmlns:svg="http://www.w3.org/2000/svg"
	xmlns="http://www.w3.org/2000/svg"
	xmlns:sodipodi="http://sodipodi.sourceforge.net/DTD/sodipodi-0.dtd"
	xmlns:inkscape="http://www.inkscape.org/namespaces/inkscape"
	width="1000"
	height="1000"
	id="svg2"
	version="1.1"
	sodipodi:docname="outliers-20/stretchdenoise-mc20.txt">
<defs
	id="defs4" />
<metadata
	id="metadata7">
	<rdf:RDF>
		<cc:Work
			rdf:about="">
			<dc:format>image/svg+xml</dc:format>
			<dc:type
				rdf:resource="http://purl.org/dc/dcmitype/StillImage" />
			<dc:title></dc:title>
		</cc:Work>
	</rdf:RDF>
</metadata>
<g
	inkscape:label="Layer 1"
	inkscape:groupmode="layer"
	id="layer1">
	<path style="fill:none;stroke:red;stroke-width:1px;stroke-linecap:butt;stroke-linejoin:miter;stroke-opacity:1" d="M 4,964.95 15.0178,864.488 z" id="boundary" inkscape:connector-curvature="0" />
	<path style="fill:none;stroke:red;stroke-width:1px;stroke-linecap:butt;stroke-linejoin:miter;stroke-opacity:1" d="M 4,964.95 52.0776,996 z" id="boundary" inkscape:connector-curvature="0" />
	<path style="fill:none;stroke:red;stroke-width:1px;stroke-linecap:butt;stroke-linejoin:miter;stroke-opacity:1" d="M 15.0178,864.488 63.0953,795.376 z" id="boundary" inkscape:connector-curvature="0" />
	<path style="fill:none;stroke:red;stroke-width:1px;stroke-linecap:butt;stroke-linejoin:miter;stroke-opacity:1" d="M 52.0776,996 122.191,955.935 z" id="boundary" inkscape:connector-curvature="0" />
	<path style="fill:none;stroke:red;stroke-width:1px;stroke-linecap:butt;stroke-linejoin:miter;stroke-opacity:1" d="M 63.0953,795.376 132.207,718.753 z" id="boundary" inkscape:connector-curvature="0" />
	<path style="fill:none;stroke:red;stroke-width:1px;stroke-linecap:butt;stroke-linejoin:miter;stroke-opacity:1" d="M 122.191,955.935 185.856,861.193 z" id="boundary" inkscape:connector-curvature="0" />
	<path style="fill:none;stroke:red;stroke-width:1px;stroke-linecap:butt;stroke-linejoin:miter;stroke-opacity:1" d="M 132.207,718.753 154.242,658.656 z" id="boundary" inkscape:connector-curvature="0" />
	<path style="fill:none;stroke:red;stroke-width:1px;stroke-linecap:butt;stroke-linejoin:miter;stroke-opacity:1" d="M 140.22,484.375 168.265,358.171 z" id="boundary" inkscape:connector-curvature="0" />
	<path style="fill:none;stroke:red;stroke-width:1px;stroke-linecap:butt;stroke-linejoin:miter;stroke-opacity:1" d="M 140.22,484.375 242.159,553.538 z" id="boundary" inkscape:connector-curvature="0" />
	<path style="fill:none;stroke:red;stroke-width:1px;stroke-linecap:butt;stroke-linejoin:miter;stroke-opacity:1" d="M 154.242,658.656 242.159,553.538 z" id="boundary" inkscape:connector-curvature="0" />
	<path style="fill:none;stroke:red;stroke-width:1px;stroke-linecap:butt;stroke-linejoin:miter;stroke-opacity:1" d="M 168.265,358.171 190.3,215.141 z" id="boundary" inkscape:connector-curvature="0" />
	<path style="fill:none;stroke:red;stroke-width:1px;stroke-linecap:butt;stroke-linejoin:miter;stroke-opacity:1" d="M 190.3,215.141 244.388,97.7512 z" id="boundary" inkscape:connector-curvature="0" />
	<path style="fill:none;stroke:red;stroke-width:1px;stroke-linecap:butt;stroke-linejoin:miter;stroke-opacity:1" d="M 185.856,861.193 252.515,789.148 z" id="boundary" inkscape:connector-curvature="0" />
	<path style="fill:none;stroke:red;stroke-width:1px;stroke-linecap:butt;stroke-linejoin:miter;stroke-opacity:1" d="M 244.388,97.7512 360.575,15.6188 z" id="boundary" inkscape:connector-curvature="0" />
	<path style="fill:none;stroke:red;stroke-width:1px;stroke-linecap:butt;stroke-linejoin:miter;stroke-opacity:1" d="M 252.515,789.148 291.414,766.084 z" id="boundary" inkscape:connector-curvature="0" />
	<path style="fill:none;stroke:red;stroke-width:1px;stroke-linecap:butt;stroke-linejoin:miter;stroke-opacity:1" d="M 305.085,742.924 291.414,766.084 z" id="boundary" inkscape:connector-curvature="0" />
	<path style="fill:none;stroke:red;stroke-width:1px;stroke-linecap:butt;stroke-linejoin:miter;stroke-opacity:1" d="M 305.085,742.924 425.242,676.948 z" id="boundary" inkscape:connector-curvature="0" />
	<path style="fill:none;stroke:red;stroke-width:1px;stroke-linecap:butt;stroke-linejoin:miter;stroke-opacity:1" d="M 360.575,15.6188 526.843,4 z" id="boundary" inkscape:connector-curvature="0" />
	<path style="fill:none;stroke:red;stroke-width:1px;stroke-linecap:butt;stroke-linejoin:miter;stroke-opacity:1" d="M 394.63,332.129 394.63,429.687 z" id="boundary" inkscape:connector-curvature="0" />
	<path style="fill:none;stroke:red;stroke-width:1px;stroke-linecap:butt;stroke-linejoin:miter;stroke-opacity:1" d="M 394.63,332.129 456.73,217.945 z" id="boundary" inkscape:connector-curvature="0" />
	<path style="fill:none;stroke:red;stroke-width:1px;stroke-linecap:butt;stroke-linejoin:miter;stroke-opacity:1" d="M 394.63,429.687 504.808,469.751 z" id="boundary" inkscape:connector-curvature="0" />
	<path style="fill:none;stroke:red;stroke-width:1px;stroke-linecap:butt;stroke-linejoin:miter;stroke-opacity:1" d="M 456.73,217.945 532.853,200.918 z" id="boundary" inkscape:connector-curvature="0" />
	<path style="fill:none;stroke:red;stroke-width:1px;stroke-linecap:butt;stroke-linejoin:miter;stroke-opacity:1" d="M 504.808,469.751 635.018,406.449 z" id="boundary" inkscape:connector-curvature="0" />
	<path style="fill:none;stroke:red;stroke-width:1px;stroke-linecap:butt;stroke-linejoin:miter;stroke-opacity:1" d="M 526.843,4 657.053,23.2311 z" id="boundary" inkscape:connector-curvature="0" />
	<path style="fill:none;stroke:red;stroke-width:1px;stroke-linecap:butt;stroke-linejoin:miter;stroke-opacity:1" d="M 532.853,200.918 627.005,223.955 z" id="boundary" inkscape:connector-curvature="0" />
	<path style="fill:none;stroke:red;stroke-width:1px;stroke-linecap:butt;stroke-linejoin:miter;stroke-opacity:1" d="M 600.298,676.381 667.775,782.747 z" id="boundary" inkscape:connector-curvature="0" />
	<path style="fill:none;stroke:red;stroke-width:1px;stroke-linecap:butt;stroke-linejoin:miter;stroke-opacity:1" d="M 600.298,676.381 425.242,676.948 z" id="boundary" inkscape:connector-curvature="0" />
	<path style="fill:none;stroke:red;stroke-width:1px;stroke-linecap:butt;stroke-linejoin:miter;stroke-opacity:1" d="M 627.005,223.955 657.053,281.047 z" id="boundary" inkscape:connector-curvature="0" />
	<path style="fill:none;stroke:red;stroke-width:1px;stroke-linecap:butt;stroke-linejoin:miter;stroke-opacity:1" d="M 635.018,406.449 657.053,281.047 z" id="boundary" inkscape:connector-curvature="0" />
	<path style="fill:none;stroke:red;stroke-width:1px;stroke-linecap:butt;stroke-linejoin:miter;stroke-opacity:1" d="M 725.994,662.779 826.667,596.793 z" id="boundary" inkscape:connector-curvature="0" />
	<path style="fill:none;stroke:red;stroke-width:1px;stroke-linecap:butt;stroke-linejoin:miter;stroke-opacity:1" d="M 725.994,662.779 667.775,782.747 z" id="boundary" inkscape:connector-curvature="0" />
	<path style="fill:none;stroke:red;stroke-width:1px;stroke-linecap:butt;stroke-linejoin:miter;stroke-opacity:1" d="M 657.053,23.2311 769.234,80.5235 z" id="boundary" inkscape:connector-curvature="0" />
	<path style="fill:none;stroke:red;stroke-width:1px;stroke-linecap:butt;stroke-linejoin:miter;stroke-opacity:1" d="M 769.234,80.5235 785.631,199.971 z" id="boundary" inkscape:connector-curvature="0" />
	<path style="fill:none;stroke:red;stroke-width:1px;stroke-linecap:butt;stroke-linejoin:miter;stroke-opacity:1" d="M 826.667,596.793 858.918,408.876 z" id="boundary" inkscape:connector-curvature="0" />
	<path style="fill:none;stroke:red;stroke-width:1px;stroke-linecap:butt;stroke-linejoin:miter;stroke-opacity:1" d="M 847.36,252.2 858.918,408.876 z" id="boundary" inkscape:connector-curvature="0" />
	<path style="fill:none;stroke:red;stroke-width:1px;stroke-linecap:butt;stroke-linejoin:miter;stroke-opacity:1" d="M 847.36,252.2 785.631,199.971 z" id="boundary" inkscape:connector-curvature="0" />
	<circle cx="4" cy="964.95" r="4" fill="#0" id="circle0"/>
	<circle cx="15.0178" cy="864.488" r="4" fill="#0" id="circle1"/>
	<circle cx="52.0776" cy="996" r="4" fill="#0" id="circle2"/>
	<circle cx="63.0953" cy="795.376" r="4" fill="#0" id="circle3"/>
	<circle cx="122.191" cy="955.935" r="4" fill="#0" id="circle4"/>
	<circle cx="132.207" cy="718.753" r="4" fill="#0" id="circle5"/>
	<circle cx="140.22" cy="484.375" r="4" fill="#0" id="circle6"/>
	<circle cx="154.242" cy="658.656" r="4" fill="#0" id="circle7"/>
	<circle cx="168.265" cy="358.171" r="4" fill="#0" id="circle8"/>
	<circle cx="190.3" cy="215.141" r="4" fill="#0" id="circle9"/>
	<circle cx="185.856" cy="861.193" r="4" fill="#0" id="circle10"/>
	<circle cx="244.388" cy="97.7512" r="4" fill="#0" id="circle11"/>
	<circle cx="252.515" cy="789.148" r="4" fill="#0" id="circle12"/>
	<circle cx="305.085" cy="742.924" r="4" fill="#0" id="circle13"/>
	<circle cx="360.575" cy="15.6188" r="4" fill="#0" id="circle14"/>
	<circle cx="386.617" cy="738.785" r="4" fill="#0" id="circle15"/>
	<circle cx="394.63" cy="332.129" r="4" fill="#0" id="circle16"/>
	<circle cx="394.63" cy="429.687" r="4" fill="#0" id="circle17"/>
	<circle cx="456.73" cy="217.945" r="4" fill="#0" id="circle18"/>
	<circle cx="504.808" cy="469.751" r="4" fill="#0" id="circle19"/>
	<circle cx="526.843" cy="4" r="4" fill="#0" id="circle20"/>
	<circle cx="532.853" cy="200.918" r="4" fill="#0" id="circle21"/>
	<circle cx="600.298" cy="676.381" r="4" fill="#0" id="circle22"/>
	<circle cx="627.005" cy="223.955" r="4" fill="#0" id="circle23"/>
	<circle cx="635.018" cy="406.449" r="4" fill="#0" id="circle24"/>
	<circle cx="725.994" cy="662.779" r="4" fill="#0" id="circle25"/>
	<circle cx="657.053" cy="23.2311" r="4" fill="#0" id="circle26"/>
	<circle cx="657.053" cy="281.047" r="4" fill="#0" id="circle27"/>
	<circle cx="769.234" cy="80.5235" r="4" fill="#0" id="circle28"/>
	<circle cx="826.667" cy="596.793" r="4" fill="#0" id="circle29"/>
	<circle cx="847.36" cy="252.2" r="4" fill="#0" id="circle30"/>
	<circle cx="858.918" cy="408.876" r="4" fill="#0" id="circle31"/>
	<circle cx="724.362" cy="395.228" r="4" fill="#0" id="circle32"/>
	<circle cx="667.775" cy="782.747" r="4" fill="#0" id="circle33"/>
	<circle cx="785.631" cy="199.971" r="4" fill="#0" id="circle34"/>
	<circle cx="291.414" cy="766.084" r="4" fill="#0" id="circle35"/>
	<circle cx="242.159" cy="553.538" r="4" fill="#0" id="circle36"/>
	<circle cx="425.242" cy="676.948" r="4" fill="#0" id="circle37"/>
	</g>
</svg>