180 716
175 691
196 677
221 672
246 669
271 666
296 664
321 662
346 660
371 657
396 656
421 653
446 651
471 648
496 644
521 639
546 638
571 636
596 634
621 632
646 630
671 630
696 628
721 627
746 627
771 627
796 624
821 624
846 622
871 622
896 620
921 625
945 618
969 626
994 626
1019 625
1044 625
1069 624
1094 622
1119 621
1144 619
1169 617
1194 614
1219 611
1244 608
1269 605
1294 600
1319 596
1344 592
1369 588
1394 582
1419 578
1444 574
1469 572
1494 570
1519 571
1544 572
1569 576
1593 583
1613 598
1607 627
1584 638
1563 653
1538 654
1513 656
1488 654
1463 655
1438 655
1413 654
1388 656
1363 656
1338 656
1313 656
1288 656
1263 657
1238 658
1213 659
1188 661
1163 662
1140 672
1115 674
1090 676
1065 679
1040 682
1015 676
990 679
965 681
943 693
921 706
896 710
871 715
846 719
821 724
796 728
771 733
746 738
721 742
696 745
671 748
646 751
621 753
596 755
571 757
546 760
521 762
496 763
471 765
446 766
421 767
396 767
371 767
346 766
321 764
296 761
271 758
246 752
222 744
200 732
