337 545
356 562
376 577
394 595
413 612
433 627
453 643
472 660
492 675
510 693
531 707
551 722
571 738
592 752
613 766
638 772
661 782
686 780
711 779
736 776
761 777
785 784
809 793
830 807
851 821
872 835
893 849
914 863
933 880
957 887
977 903
997 919
1017 934
1037 949
1056 966
1076 982
1096 997
1116 1013
1136 1028
1155 1045
1174 1062
1196 1074
1215 1091
1236 1105
1255 1122
1275 1137
1298 1148
1315 1167
1338 1178
1357 1195
1380 1205
1399 1222
1421 1235
1442 1249
1462 1264
1485 1274
1505 1289
1528 1300
1548 1315
1571 1326
1593 1339
1615 1351
1637 1364
1660 1374
1681 1359
1689 1330
1669 1315
1651 1297
1631 1281
1611 1266
1592 1249
1572 1234
1550 1221
1531 1204
1511 1189
1491 1174
1470 1160
1449 1146
1428 1132
1407 1118
1386 1104
1366 1089
1345 1075
1323 1062
1302 1048
1280 1036
1259 1022
1237 1009
1215 996
1193 983
1171 970
1148 959
1127 945
1105 932
1084 918
1062 905
1039 894
1018 880
996 868
975 854
953 842
932 828
910 816
889 802
869 787
849 772
830 755
802 715
772 633
760 611
741 594
722 577
702 561
681 547
659 535
638 521
616 509
594 497
572 485
550 473
528 461
506 449
484 437
462 425
404 406
423 423
442 440
463 454
482 471
502 486
540 512
627 589
606 575
584 562
562 550
540 537
518 524
496 512
475 498
375 447
393 465
413 480
433 495
453 510
474 524
493 541
515 554
644 642
620 649
601 632
579 619
558 605
536 593
515 579
493 566
471 554
349 486
367 504
387 519
407 535
428 549
448 564
468 579
505 607
570 674
549 660
529 645
507 632
483 619
462 605
440 592
419 578
398 564
323 524
