247 762
296 771
338 774
372 777
397 778
424 781
457 785
495 790
535 790
557 802
515 805
474 804
438 802
412 803
387 801
362 802
337 803
312 803
287 803
245 806
267 818
299 825
324 828
349 831
374 834
399 840
424 837
449 843
474 847
499 849
524 851
549 851
574 850
599 847
624 845
649 840
671 827
696 821
719 810
741 797
763 785
785 773
810 771
835 773
860 774
885 778
910 775
935 777
959 784
984 781
1009 777
1034 778
1059 780
1084 781
1109 782
1134 785
1159 787
1184 788
1209 790
1234 789
1258 797
1283 796
1308 801
1333 799
1358 800
1383 805
1408 804
1433 804
1458 806
1483 803
1507 810
1532 809
1557 812
1582 813
1607 815
1632 814
1637 785
1641 744
1636 719
1611 716
1586 717
1561 719
1536 718
1511 720
1486 720
1461 720
1436 721
1411 724
1386 724
1361 725
1336 726
1311 725
1286 726
1261 727
1236 729
1211 729
1186 728
1161 730
1136 730
1111 730
1086 731
1061 730
1036 732
1011 731
986 732
961 728
936 732
911 733
886 733
861 735
836 735
811 733
786 733
761 727
739 715
718 701
696 689
674 677
651 667
628 657
603 652
578 647
553 645
528 645
503 645
478 647
453 650
428 652
403 655
378 657
353 659
328 661
294 667
250 674
274 682
314 683
340 683
365 686
390 685
419 688
447 691
486 693
529 699
553 708
506 709
466 708
432 711
407 710
373 713
338 714
297 716
249 717
273 725
318 730
356 732
397 733
424 736
461 737
442 754
409 756
383 754
357 757
318 759
272 762
