107 338
91 318
129 326
151 338
174 348
196 360
218 372
240 384
262 396
285 407
307 419
329 431
351 444
373 456
395 468
417 480
439 492
462 502
484 515
506 527
529 538
551 550
569 532
548 518
525 507
503 495
481 483
459 471
436 460
414 448
392 436
370 424
347 413
326 399
303 389
281 377
260 363
237 352
217 337
195 325
173 313
152 299
131 285
115 265
149 267
171 279
194 289
217 300
239 312
262 323
285 334
307 346
329 358
351 370
373 382
396 393
418 405
441 416
464 426
487 437
509 449
533 462
556 472
581 484
604 474
578 459
554 447
531 437
508 423
485 412
451 393
429 381
407 369
385 356
363 344
341 332
319 319
296 308
274 296
254 281
231 270
210 256
188 244
167 230
148 213
184 211
206 223
230 231
252 243
275 253
298 264
320 276
343 287
365 299
387 311
409 323
431 335
454 346
477 356
499 368
521 380
543 392
565 404
588 415
611 425
632 411
600 393
571 378
548 367
526 355
504 342
482 329
460 317
438 304
415 294
393 282
371 270
349 257
327 244
305 232
282 221
260 209
238 197
217 183
195 171
180 151
217 158
240 168
263 178
286 189
309 199
331 211
353 223
376 233
399 244
422 255
444 267
467 278
490 289
513 300
536 311
559 322
582 333
604 346
626 358
649 369
671 382
694 392
716 404
738 417
757 434
774 453
787 475
797 498
801 523
812 546
829 565
847 583
869 596
891 609
912 623
932 638
954 650
976 662
998 674
1020 686
1042 698
1064 710
1086 722
1108 734
1130 746
1153 756
1176 767
1199 778
1222 789
1245 800
1267 812
1291 821
1313 833
1336 843
1359 853
1382 863
1405 873
1428 884
1452 893
1474 905
1498 914
1521 924
1545 933
1568 943
1592 952
1616 960
1639 970
1663 979
1687 987
1710 997
1734 1006
1758 1015
1775 1034
1793 1052
1802 1076
1810 1100
1803 1126
1792 1149
1772 1166
1749 1178
1724 1184
1699 1184
1675 1175
1652 1165
1631 1151
1611 1136
1591 1120
1571 1105
1551 1090
1531 1074
1511 1059
1491 1044
1471 1028
1450 1014
1430 999
1410 984
1389 970
1369 955
1348 941
1328 926
1306 913
1286 898
1265 884
1244 870
1222 857
1201 843
1180 829
1159 815
1137 802
1116 788
1094 776
1073 762
1051 749
1029 737
1007 725
985 712
963 700
940 689
918 677
895 666
874 652
851 642
827 634
804 624
779 619
754 623
730 631
706 639
681 645
656 646
631 640
608 630
586 618
563 607
541 595
520 581
498 569
476 557
454 544
432 531
410 518
388 506
366 494
344 481
322 469
301 455
279 443
257 431
235 419
213 406
192 392
171 378
148 367
128 352
