112 672
157 675
190 671
215 668
240 665
265 663
294 654
327 650
352 654
377 654
402 656
427 656
452 655
477 656
489 679
464 680
439 681
414 682
389 684
366 695
342 688
317 691
292 695
267 699
242 701
217 705
183 711
140 719
116 726
164 728
203 726
232 725
257 724
282 723
307 722
332 722
357 721
382 721
407 722
432 721
457 721
482 722
507 722
532 723
557 723
582 721
607 718
631 711
654 701
676 688
698 675
722 666
747 663
772 662
797 662
822 663
847 663
872 664
897 665
922 667
947 668
972 670
997 672
1022 674
1047 675
1072 677
1097 679
1122 680
1147 682
1172 684
1197 686
1222 688
1247 690
1272 692
1297 695
1322 697
1347 700
1372 702
1397 705
1422 708
1447 711
1472 714
1497 718
1522 721
1547 725
1572 728
1597 733
1622 737
1647 740
1672 742
1697 746
1722 747
1747 744
1768 729
1780 704
1784 674
1782 649
1774 625
1759 605
1738 591
1713 586
1688 582
1663 581
1638 582
1613 581
1588 583
1563 586
1538 587
1513 589
1488 593
1463 595
1438 595
1413 597
1388 599
1363 600
1338 601
1313 603
1288 603
1263 604
1238 606
1213 606
1188 606
1163 609
1138 608
1113 608
1088 609
1063 609
1038 608
1013 610
988 608
963 611
938 612
913 611
888 611
863 612
838 610
813 608
788 604
763 598
739 590
716 580
696 565
679 546
659 530
638 516
615 505
592 495
567 491
543 483
518 482
494 489
469 491
444 494
419 497
394 501
369 504
344 509
319 514
294 519
269 524
244 531
219 537
193 543
158 555
134 562
110 570
181 566
211 561
236 557
261 554
285 547
310 546
335 542
360 541
385 540
410 538
435 537
460 536
485 534
497 556
467 560
439 562
414 566
389 569
364 575
326 580
292 583
267 588
242 591
213 596
180 603
140 612
117 623
163 623
200 618
231 614
257 611
282 608
311 600
347 594
372 599
397 598
424 598
454 598
480 597
495 617
468 619
442 620
417 622
392 625
367 626
342 629
308 633
275 637
250 640
225 644
200 648
171 654
135 662
