587 1286
599 1308
623 1316
648 1322
672 1329
697 1335
722 1341
746 1348
771 1352
796 1357
821 1362
846 1366
871 1370
896 1374
921 1379
946 1382
971 1386
996 1390
1021 1393
1046 1396
1071 1399
1096 1401
1121 1402
1146 1404
1171 1406
1196 1406
1221 1405
1246 1406
1271 1407
1296 1407
1321 1405
1346 1403
1371 1401
1396 1399
1421 1396
1446 1389
1471 1383
1496 1376
1520 1368
1544 1361
1568 1353
1592 1345
1615 1334
1638 1323
1662 1314
1686 1307
1710 1298
1734 1291
1759 1288
1784 1285
1809 1285
1834 1284
1859 1285
1884 1289
1909 1291
1934 1294
1959 1298
1984 1301
2009 1303
2034 1306
2059 1307
2084 1310
2109 1312
2134 1315
2159 1317
2184 1320
2209 1323
2234 1325
2259 1328
2284 1330
2309 1333
2334 1336
2359 1338
2384 1340
2409 1343
2434 1345
2459 1349
2484 1350
2509 1352
2534 1355
2559 1358
2584 1360
2609 1362
2634 1365
2659 1367
2684 1368
2709 1370
2734 1372
2759 1375
2784 1376
2809 1378
2834 1380
2859 1382
2884 1383
2909 1386
2934 1387
2959 1388
2984 1390
3009 1391
3034 1392
3059 1394
3084 1395
3109 1396
3134 1396
3159 1398
3184 1398
3209 1399
3234 1399
3259 1401
3284 1401
3309 1401
3334 1402
3359 1403
3384 1403
3409 1404
3434 1403
3459 1404
3484 1405
3509 1405
3534 1407
3559 1406
3584 1405
3609 1406
3634 1407
3659 1403
3684 1402
3709 1403
3734 1405
3759 1403
3784 1402
3809 1403
3834 1403
3859 1404
3884 1404
3909 1401
3931 1388
3953 1375
3968 1353
3968 1318
3960 1294
3941 1277
3917 1270
3892 1267
3867 1265
3842 1262
3817 1261
3792 1258
3767 1255
3742 1253
3717 1250
3692 1248
3667 1246
3642 1243
3617 1241
3592 1237
3567 1236
3542 1232
3517 1232
3492 1231
3467 1229
3442 1227
3417 1225
3392 1222
3367 1220
3342 1218
3317 1216
3292 1215
3267 1213
3242 1212
3217 1210
3192 1208
3167 1206
3142 1205
3117 1204
3092 1202
3067 1200
3042 1199
3017 1198
2992 1197
2967 1196
2942 1195
2917 1194
2892 1194
2867 1192
2842 1192
2817 1191
2792 1190
2767 1190
2742 1190
2717 1189
2692 1188
2667 1188
2642 1187
2617 1187
2592 1187
2567 1187
2542 1187
2517 1187
2492 1187
2467 1187
2442 1187
2417 1187
2392 1187
2367 1186
2342 1187
2317 1187
2292 1186
2267 1186
2242 1187
2217 1186
2192 1187
2167 1187
2142 1187
2117 1186
2092 1186
2067 1187
2042 1187
2017 1186
1992 1187
1967 1187
1942 1187
1917 1187
1892 1187
1867 1188
1842 1188
1817 1187
1792 1184
1767 1180
1742 1174
1718 1167
1694 1159
1671 1148
1648 1137
1626 1125
1604 1113
1582 1101
1559 1090
1536 1080
1513 1070
1489 1061
1465 1054
1441 1046
1417 1039
1392 1033
1367 1028
1342 1023
1317 1018
1292 1015
1267 1011
1242 1008
1217 1005
1192 1002
1167 999
1142 998
1117 997
1092 996
1067 996
1042 995
1017 995
992 995
967 995
942 997
917 997
892 998
867 999
842 1000
817 1000
792 1002
767 1002
742 1004
717 1007
692 1007
667 1009
642 1010
618 1017
626 1050
651 1053
676 1058
701 1058
726 1059
751 1063
776 1064
801 1065
826 1067
851 1070
876 1072
901 1075
926 1077
951 1080
976 1082
1001 1083
1026 1085
1051 1087
1076 1089
1101 1090
1126 1092
1151 1094
1176 1097
1201 1099
1226 1102
1251 1105
1279 1107
1267 1129
1242 1129
1217 1127
1192 1127
1167 1126
1142 1125
1117 1124
1092 1125
1067 1124
1042 1122
1017 1122
992 1121
967 1119
942 1119
917 1118
892 1116
867 1116
842 1114
817 1113
792 1112
767 1111
742 1107
717 1107
692 1106
667 1105
642 1104
617 1104
624 1136
649 1140
674 1142
699 1144
724 1145
749 1147
774 1151
799 1153
824 1154
849 1155
874 1160
899 1161
924 1162
949 1166
974 1169
999 1171
1024 1173
1049 1176
1074 1177
1099 1179
1124 1181
1149 1185
1174 1187
1199 1189
1224 1192
1249 1195
1276 1198
1262 1219
1237 1219
1212 1217
1187 1216
1162 1215
1137 1213
1112 1212
1087 1212
1062 1210
1037 1210
1012 1208
987 1206
962 1205
937 1204
912 1203
887 1201
862 1199
837 1198
812 1196
787 1194
762 1194
737 1191
712 1190
687 1190
662 1188
637 1185
612 1185
594 1203
613 1220
638 1223
663 1225
688 1226
713 1229
738 1232
763 1234
788 1236
813 1242
838 1242
863 1245
888 1248
913 1251
938 1253
963 1256
988 1257
1013 1262
1038 1265
1063 1265
1088 1269
1113 1272
1138 1274
1163 1276
1188 1278
1213 1282
1238 1285
1263 1287
1281 1309
1256 1311
1231 1310
1206 1309
1181 1307
1156 1306
1131 1304
1106 1303
1081 1302
1056 1300
1031 1299
1006 1297
981 1294
956 1293
931 1292
906 1290
881 1289
856 1286
831 1285
806 1283
781 1282
756 1281
731 1280
706 1277
681 1274
656 1274
631 1271
606 1269
