171 642
168 617
181 595
206 591
231 587
256 583
281 584
306 585
331 583
356 585
381 587
406 588
431 588
456 588
481 587
506 587
531 585
556 588
581 586
606 586
631 587
656 590
681 591
706 592
731 591
755 598
780 596
805 597
830 596
855 597
880 598
905 602
930 603
955 601
980 602
1010 609
1035 614
1060 616
1085 619
1110 618
1135 617
1160 617
1185 615
1210 613
1235 611
1260 610
1285 608
1310 604
1335 602
1360 602
1385 600
1410 601
1435 602
1460 602
1485 602
1510 601
1535 600
1560 599
1585 596
1610 594
1635 593
1660 594
1679 611
1686 649
1690 674
1669 689
1646 701
1608 700
1579 694
1598 677
1556 684
1531 685
1506 685
1481 685
1456 686
1431 690
1406 689
1381 694
1356 694
1331 694
1288 691
1263 689
1238 684
1213 683
1166 686
1141 686
1116 685
1091 684
1066 685
1041 691
1016 694
970 707
945 709
920 713
905 733
880 735
855 734
830 734
805 734
780 734
755 733
730 732
705 732
680 731
655 731
630 731
605 730
580 730
555 728
530 727
505 726
480 724
455 723
430 721
405 719
380 716
355 712
330 709
305 705
280 699
255 693
231 686
208 676
187 662
