334 730
329 705
348 687
373 684
398 682
423 683
448 683
473 683
498 683
523 682
548 682
573 680
598 680
623 681
648 680
673 681
698 682
723 684
748 686
773 688
798 691
823 692
848 690
873 691
897 700
922 702
947 704
972 703
997 701
1022 699
1047 698
1072 697
1097 696
1122 696
1147 696
1172 695
1197 695
1222 694
1247 694
1272 693
1297 693
1322 692
1347 692
1372 692
1397 691
1422 690
1447 690
1472 690
1497 689
1522 689
1547 690
1572 691
1597 692
1617 707
1621 732
1618 770
1593 774
1568 774
1543 774
1518 773
1493 773
1468 772
1443 772
1418 772
1393 771
1368 771
1343 770
1318 769
1293 769
1268 768
1243 768
1218 767
1193 766
1168 766
1143 765
1118 765
1093 764
1068 763
1043 761
1018 760
993 757
968 755
943 753
918 751
894 759
869 765
844 770
819 777
794 781
769 785
744 788
719 792
694 794
669 796
644 798
619 799
594 800
569 801
544 800
519 800
494 798
469 794
444 789
420 782
396 773
373 762
352 748
