343 624
324 607
344 590
367 579
391 572
416 566
441 562
466 559
491 556
516 555
541 554
566 552
591 552
616 551
641 551
666 551
691 551
716 551
741 550
766 550
791 552
816 551
841 551
866 550
891 551
916 549
941 550
966 549
991 550
1016 549
1041 549
1066 549
1091 550
1116 551
1141 552
1166 557
1191 560
1215 553
1240 554
1265 554
1290 554
1315 554
1340 553
1365 553
1390 552
1415 553
1440 552
1465 554
1490 554
1515 553
1540 553
1565 552
1590 558
1615 552
1640 553
1665 553
1690 554
1715 557
1738 567
1748 590
1748 615
1731 637
1711 664
1686 667
1661 664
1636 663
1611 661
1586 661
1561 659
1536 659
1511 657
1486 655
1461 656
1428 653
1403 652
1378 650
1353 650
1328 650
1303 649
1278 649
1253 646
1206 642
1181 637
1156 641
1132 648
1112 668
1087 672
1063 665
1038 669
1013 675
988 670
963 670
938 669
913 670
888 669
863 664
838 668
813 663
788 668
764 661
739 665
714 664
689 661
664 663
639 661
614 664
589 665
564 663
539 663
514 659
489 653
464 655
439 654
414 651
390 643
366 635
