207 1861
192 1881
215 1892
240 1889
265 1883
290 1878
315 1873
340 1869
365 1864
390 1860
415 1855
440 1850
465 1846
490 1841
515 1837
540 1832
565 1828
590 1824
615 1818
640 1815
665 1810
690 1805
715 1801
740 1797
765 1792
790 1787
815 1783
840 1778
865 1774
890 1769
915 1765
940 1761
965 1756
990 1752
1015 1749
1040 1744
1065 1740
1090 1736
1115 1733
1140 1729
1165 1725
1190 1723
1215 1719
1240 1716
1265 1712
1290 1709
1315 1706
1340 1703
1365 1700
1390 1697
1415 1694
1440 1692
1465 1688
1490 1686
1515 1683
1540 1680
1565 1677
1590 1673
1615 1670
1640 1667
1665 1663
1690 1661
1715 1657
1740 1653
1765 1651
1790 1646
1815 1643
1840 1639
1865 1636
1890 1633
1915 1630
1940 1625
1965 1621
1990 1617
2015 1613
2040 1609
2065 1605
2090 1601
2115 1596
2140 1592
2165 1589
2190 1584
2215 1580
2240 1576
2265 1571
2290 1568
2314 1560
2331 1540
2356 1546
2381 1545
2405 1538
2430 1534
2455 1530
2480 1526
2505 1520
2530 1515
2555 1512
2580 1508
2605 1502
2630 1499
2655 1495
2680 1492
2705 1487
2730 1484
2755 1480
2780 1475
2805 1471
2830 1467
2855 1465
2880 1459
2905 1453
2930 1451
2955 1450
2980 1447
3004 1438
3029 1435
3054 1430
3079 1425
3104 1423
3129 1417
3154 1414
3179 1408
3204 1403
3229 1399
3254 1397
3278 1390
3303 1385
3328 1381
3353 1376
3378 1375
3403 1370
3428 1366
3453 1360
3478 1360
3503 1353
3528 1346
3553 1344
3577 1337
3599 1325
3624 1329
3649 1323
3674 1321
3698 1312
3723 1309
3748 1303
3773 1297
3793 1282
3818 1286
3842 1277
3855 1254
3872 1216
3878 1191
3892 1170
3917 1174
3925 1147
3917 1112
3895 1099
3870 1101
3846 1094
3860 1071
3862 1044
3849 1022
3826 1012
3802 1003
3778 996
3753 995
3728 998
3710 1017
3693 1036
3679 1057
3659 1075
3639 1090
3616 1100
3592 1108
3567 1114
3542 1118
3517 1121
3492 1123
3467 1126
3442 1128
3417 1131
3392 1134
3367 1134
3342 1137
3317 1138
3293 1145
3268 1149
3243 1153
3218 1154
3193 1157
3168 1162
3143 1166
3118 1173
3093 1176
3069 1184
3044 1186
3019 1192
2995 1199
2971 1206
2946 1210
2922 1219
2898 1226
2873 1232
2848 1239
2824 1247
2801 1258
2776 1264
2752 1271
2727 1277
2702 1284
2678 1292
2654 1301
2630 1308
2605 1311
2580 1317
2555 1321
2530 1321
2505 1327
2482 1317
2462 1301
2440 1289
2418 1276
2398 1261
2373 1261
2348 1263
2323 1266
2303 1282
2293 1321
2283 1298
2277 1273
2257 1258
2232 1261
2207 1266
2182 1270
2157 1276
2133 1283
2109 1293
2085 1303
2061 1312
2037 1321
2012 1327
1987 1332
1962 1336
1938 1343
1913 1348
1888 1352
1863 1356
1838 1359
1813 1363
1788 1367
1763 1370
1738 1374
1713 1377
1688 1381
1663 1384
1638 1387
1613 1390
1588 1393
1563 1398
1538 1401
1513 1404
1488 1408
1463 1413
1438 1416
1413 1420
1388 1423
1363 1426
1338 1430
1313 1433
1288 1436
1263 1441
1238 1444
1213 1448
1188 1451
1163 1454
1138 1458
1113 1461
1088 1465
1063 1469
1038 1473
1013 1477
988 1482
963 1486
938 1491
913 1496
888 1502
863 1506
838 1511
813 1517
788 1522
763 1528
738 1533
713 1539
689 1546
664 1552
640 1560
616 1567
592 1575
568 1585
545 1595
522 1606
499 1616
477 1629
455 1641
433 1653
412 1667
392 1682
371 1696
351 1713
331 1729
311 1745
293 1763
275 1782
257 1801
239 1820
222 1839
