258 464
247 441
272 443
297 447
321 454
345 461
370 467
393 477
417 484
440 494
465 500
488 511
511 521
534 531
557 541
580 551
603 562
627 570
650 581
672 593
695 603
718 613
741 623
763 635
785 647
808 658
831 668
854 679
877 690
900 701
922 713
945 723
967 735
990 745
1012 757
1035 767
1058 778
1082 786
1104 799
1124 815
1147 825
1168 839
1189 853
1213 861
1235 873
1257 885
1279 897
1303 906
1325 919
1348 929
1370 942
1393 953
1416 963
1438 975
1461 985
1484 996
1504 1011
1527 1021
1549 1034
1572 1045
1595 1056
1618 1067
1641 1078
1662 1092
1684 1105
1694 1128
1688 1165
1669 1182
1648 1197
1623 1204
1598 1203
1580 1185
1571 1161
1552 1144
1530 1132
1507 1121
1483 1112
1460 1102
1436 1095
1419 1076
1397 1064
1374 1054
1353 1040
1331 1028
1310 1014
1288 1001
1267 987
1247 972
1227 957
1206 943
1186 928
1170 908
1146 901
1124 889
1100 880
1077 890
1065 913
1053 936
1039 957
1014 958
991 947
969 935
946 925
924 912
902 900
880 888
857 877
834 867
815 850
793 838
769 829
748 815
727 801
705 788
682 778
661 764
639 751
617 739
596 725
576 709
553 698
531 686
510 672
490 656
470 641
448 629
428 614
408 599
387 585
367 570
348 553
329 536
311 518
291 503
275 483
