947 850
947 825
956 800
963 773
974 750
987 728
1002 707
1018 687
1038 670
1060 657
1083 646
1107 639
1132 635
1157 635
1182 638
1206 645
1229 655
1251 667
1272 681
1290 699
1310 714
1328 732
1348 748
1366 766
1372 812
1358 833
1348 857
1336 880
1378 849
1396 831
1414 813
1368 872
1358 896
1378 911
1401 921
1425 928
1444 945
1467 955
1491 964
1516 970
1540 977
1563 987
1587 996
1610 1006
1634 1015
1657 1025
1680 1035
1703 1045
1726 1055
1750 1063
1773 1073
1796 1083
1819 1093
1843 1102
1866 1112
1889 1122
1990 1192
2015 1193
2040 1195
2025 1225
2000 1221
1975 1221
1955 1238
1908 1236
1885 1226
1860 1227
1836 1220
1813 1210
1790 1200
1766 1191
1743 1181
1720 1171
1696 1162
1673 1152
1650 1142
1627 1132
1603 1123
1580 1113
1557 1102
1533 1094
1510 1083
1487 1073
1465 1061
1442 1051
1418 1042
1394 1033
1370 1025
1346 1018
1323 1008
1239 1110
1257 1090
1275 1070
1291 1050
1298 1009
1274 1002
1249 996
1229 1012
1215 1034
1198 1055
1181 1076
1159 1090
1137 1078
1117 1062
1097 1046
1077 1030
1057 1014
1038 997
1020 979
1002 961
984 943
970 922
958 900
952 875
