394 512
399 537
404 562
414 585
423 609
429 634
439 657
453 683
461 707
473 729
485 751
496 774
511 794
525 815
539 836
559 852
580 866
601 880
623 892
626 867
647 883
671 891
696 893
720 901
744 909
768 916
792 923
816 931
839 941
863 948
887 956
911 964
935 971
960 976
984 983
1009 989
1033 997
1057 1004
1080 1014
1104 1021
1127 1031
1151 1040
1173 1052
1196 1063
1220 1071
1242 1083
1266 1092
1289 1102
1312 1112
1336 1120
1358 1132
1382 1141
1406 1150
1425 1167
1429 1194
1447 1213
1471 1221
1496 1227
1520 1235
1545 1239
1567 1251
1590 1261
1613 1271
1635 1283
1657 1295
1679 1308
1702 1318
1723 1332
1746 1343
1769 1353
1790 1367
1814 1375
1833 1392
1855 1404
1879 1413
1902 1423
1925 1433
1949 1441
1971 1453
1995 1461
2020 1456
2029 1483
2019 1507
2007 1532
2032 1534
2046 1502
2046 1449
2046 1424
2046 1399
2046 1374
2046 1349
2038 1325
2018 1310
1994 1302
1969 1296
1944 1291
1924 1275
1899 1272
1875 1265
1850 1261
1826 1252
1802 1244
1781 1230
1757 1223
1733 1214
1708 1212
1684 1204
1662 1192
1638 1184
1614 1176
1591 1166
1567 1157
1544 1147
1523 1133
1500 1123
1478 1110
1461 1129
1436 1129
1411 1123
1388 1113
1365 1103
1342 1093
1319 1083
1295 1074
1272 1064
1249 1054
1226 1044
1203 1033
1179 1024
1156 1014
1132 1005
1109 995
1085 986
1062 976
1038 967
1013 961
989 952
964 946
940 939
916 932
892 925
868 917
844 910
819 904
795 896
772 885
757 865
742 845
713 800
706 776
697 752
688 728
675 706
664 683
651 661
637 640
620 621
603 602
585 584
567 566
548 549
495 581
509 560
524 540
506 508
488 490
468 475
447 461
425 448
400 444
393 474
