340 375
335 350
343 325
361 307
381 285
391 261
416 256
441 257
478 263
458 279
481 290
506 286
531 285
553 297
578 299
600 311
617 330
638 344
656 362
673 381
688 401
701 423
712 446
723 469
733 492
739 517
746 541
753 565
761 589
774 611
790 631
811 645
831 660
854 670
876 682
899 693
921 705
944 716
966 728
988 740
1011 751
1033 763
1055 775
1077 787
1099 800
1122 810
1144 822
1165 836
1188 847
1210 859
1232 872
1254 884
1276 896
1298 908
1320 920
1343 931
1366 941
1388 953
1413 952
1436 963
1461 961
1486 962
1510 971
1533 981
1556 991
1579 1001
1602 1011
1625 1022
1648 1033
1671 1043
1693 1055
1716 1066
1738 1078
1760 1090
1782 1102
1803 1116
1823 1131
1844 1145
1863 1162
1882 1179
1907 1185
1932 1187
1956 1196
1973 1215
1984 1238
1982 1264
1969 1288
1953 1308
1929 1317
1904 1314
1881 1304
1860 1290
1839 1276
1815 1269
1795 1254
1772 1244
1749 1234
1725 1225
1701 1216
1678 1205
1655 1195
1633 1183
1611 1170
1589 1158
1568 1144
1546 1132
1524 1119
1502 1106
1480 1093
1459 1079
1439 1063
1422 1044
1411 1021
1389 1008
1375 987
1355 971
1333 958
1310 948
1288 936
1267 922
1244 911
1223 897
1200 887
1178 875
1157 861
1134 851
1114 836
1091 826
1068 815
1045 805
1023 792
1002 778
980 766
957 756
935 744
912 733
890 720
867 710
845 698
822 688
797 685
773 676
748 670
723 676
698 680
674 689
649 695
624 698
599 697
577 685
552 679
528 671
510 653
491 636
475 616
457 598
440 579
430 556
417 534
406 510
394 488
379 468
371 444
358 422
348 399
