51 178
48 153
52 128
61 104
77 84
97 67
119 54
143 45
168 39
193 37
218 36
243 38
268 41
293 45
318 51
342 58
365 68
389 77
413 84
434 98
456 110
478 122
500 135
522 148
544 160
568 167
593 172
618 174
643 174
668 174
693 172
718 171
743 170
768 169
793 169
818 168
843 167
868 167
893 167
918 168
943 169
968 170
993 171
1018 172
1043 174
1068 177
1093 180
1118 184
1143 189
1168 194
1193 199
1218 205
1243 211
1267 218
1272 243
1271 281
1246 285
1221 285
1196 284
1171 283
1146 282
1121 281
1096 279
1071 276
1046 273
1021 270
996 266
971 263
946 258
921 254
896 251
871 246
846 242
821 238
796 234
771 229
746 226
721 224
696 223
671 222
646 223
621 225
596 231
572 240
549 250
526 261
503 272
480 282
456 291
431 295
406 298
381 302
356 307
331 305
306 306
281 305
256 303
231 298
206 293
182 286
158 278
135 268
113 255
92 241
74 223
60 202
