1273 1325
1273 1350
1273 1375
1274 1400
1274 1425
1275 1450
1275 1475
1275 1500
1278 1525
1293 1545
1318 1549
1343 1552
1368 1555
1393 1556
1418 1557
1443 1558
1468 1557
1493 1556
1518 1553
1543 1554
1568 1554
1593 1553
1618 1551
1643 1550
1668 1545
1693 1541
1718 1535
1743 1529
1768 1523
1792 1514
1815 1504
1838 1493
1861 1483
1883 1470
1906 1458
1929 1447
1952 1437
1975 1426
1999 1417
2023 1408
2047 1401
2071 1394
2096 1390
2121 1386
2146 1384
2171 1381
2196 1379
2221 1379
2246 1378
2271 1378
2296 1378
2321 1379
2346 1380
2371 1380
2396 1380
2421 1380
2446 1380
2471 1379
2496 1379
2521 1379
2546 1378
2571 1377
2596 1377
2621 1377
2646 1377
2671 1376
2696 1376
2721 1375
2746 1376
2771 1376
2796 1372
2821 1375
2846 1375
2871 1375
2896 1373
2921 1375
2946 1375
2971 1374
2996 1376
3021 1376
3046 1376
3071 1376
3096 1376
3121 1375
3146 1376
3171 1376
3196 1377
3221 1377
3246 1377
3271 1377
3296 1379
3321 1380
3346 1382
3371 1382
3396 1385
3421 1385
3446 1380
3463 1361
3467 1317
3470 1269
3473 1236
3476 1205
3469 1181
3466 1156
3455 1133
3446 1109
3443 1084
3428 1064
3403 1069
3380 1079
3356 1086
3332 1094
3307 1098
3282 1105
3257 1109
3232 1113
3208 1121
3183 1126
3158 1131
3133 1135
3108 1136
3083 1139
3058 1141
3033 1144
3008 1144
2983 1147
2958 1149
2933 1152
2908 1153
2883 1156
2858 1156
2833 1158
2808 1159
2783 1161
2758 1161
2733 1164
2708 1164
2683 1166
2658 1167
2633 1169
2608 1171
2583 1172
2558 1173
2533 1174
2508 1175
2483 1176
2458 1177
2433 1179
2408 1180
2383 1181
2358 1183
2333 1185
2308 1187
2283 1189
2258 1190
2233 1190
2208 1191
2183 1191
2158 1191
2133 1189
2108 1187
2083 1183
2058 1179
2033 1174
2009 1167
1985 1160
1961 1151
1937 1142
1913 1133
1890 1122
1868 1109
1846 1097
1824 1084
1801 1074
1777 1065
1753 1058
1728 1053
1703 1050
1678 1048
1653 1048
1628 1048
1603 1049
1578 1052
1553 1051
1528 1052
1503 1052
1478 1054
1453 1055
1428 1056
1403 1057
1378 1057
1353 1060
1328 1063
1303 1068
1284 1086
1280 1111
1276 1139
1276 1164
1274 1196
1274 1221
1274 1246
1274 1271
1273 1296
