209 618
188 633
210 645
235 650
260 645
283 656
308 658
331 648
351 663
368 682
388 697
409 711
434 712
470 706
495 710
520 712
545 710
565 695
590 694
609 677
634 670
659 674
684 676
709 673
734 668
759 663
784 657
809 652
834 648
859 649
884 650
909 653
933 660
939 685
943 710
944 735
964 696
987 707
1012 701
1036 708
1059 697
1079 713
1104 713
1127 703
1151 694
1171 709
1183 685
1208 678
1233 674
1258 672
1283 670
1308 669
1333 666
1358 662
1371 684
1384 706
1398 727
1422 765
1397 766
1372 761
1347 766
1382 798
1359 788
1334 788
1310 796
1267 799
1243 807
1212 805
1187 808
1184 846
1169 826
1144 827
1121 837
1099 849
1074 849
1049 852
1024 852
1000 860
980 875
955 881
936 898
924 929
900 936
875 941
850 945
825 943
800 941
775 940
750 937
725 936
700 937
676 945
651 943
642 919
617 922
592 927
567 923
542 920
517 926
493 933
468 933
444 940
419 937
394 945
352 962
354 988
339 1010
314 1012
291 1022
266 1026
241 1030
214 1041
235 1055
258 1065
282 1074
306 1081
331 1086
356 1091
381 1093
406 1095
431 1095
456 1093
481 1089
506 1084
531 1078
555 1070
578 1060
601 1049
624 1039
645 1025
669 1018
694 1012
718 1005
743 1001
768 995
792 988
817 983
842 977
867 972
892 967
917 961
942 964
965 954
989 947
1014 942
1039 939
1064 933
1089 927
1114 921
1139 916
1164 911
1187 901
1212 897
1237 894
1262 890
1287 888
1312 885
1337 885
1362 884
1387 883
1412 885
1437 890
1462 890
1487 894
1512 894
1537 892
1561 885
1586 880
1605 860
1624 843
1639 821
1650 796
1658 768
1664 743
1657 719
1650 695
1641 671
1631 648
1611 633
1590 619
1568 607
1544 600
1519 597
1494 599
1469 604
1445 611
1420 617
1395 617
1372 628
1347 632
1322 635
1297 637
1272 638
1247 639
1222 639
1197 639
1172 638
1147 633
1122 631
1097 629
1072 627
1047 625
1022 623
997 625
972 623
947 620
922 619
897 617
872 615
847 612
822 611
797 609
772 607
747 605
722 603
697 601
672 599
647 596
622 595
598 588
575 578
551 570
526 565
501 560
476 556
451 555
426 554
401 555
376 557
351 562
326 567
302 575
278 584
254 594
231 605
