585 1412
584 1387
587 1358
593 1332
599 1307
609 1283
621 1259
633 1236
648 1215
663 1195
681 1176
699 1158
719 1142
740 1127
762 1114
785 1102
809 1094
832 1084
857 1078
882 1073
907 1069
932 1066
957 1064
982 1063
1007 1062
1032 1061
1057 1061
1082 1064
1107 1066
1132 1071
1157 1077
1181 1084
1205 1092
1229 1101
1252 1111
1274 1123
1296 1135
1318 1147
1339 1161
1360 1175
1382 1187
1405 1198
1427 1210
1451 1219
1475 1227
1500 1233
1525 1237
1550 1239
1575 1240
1600 1241
1625 1239
1650 1237
1675 1235
1700 1233
1725 1230
1750 1227
1775 1225
1800 1223
1825 1221
1850 1218
1875 1216
1900 1214
1925 1211
1950 1208
1975 1207
2000 1203
2025 1202
2050 1199
2075 1197
2100 1194
2125 1191
2150 1189
2175 1188
2200 1185
2225 1183
2250 1180
2275 1178
2300 1176
2325 1173
2350 1171
2375 1170
2400 1167
2425 1164
2450 1162
2475 1161
2500 1158
2525 1156
2550 1154
2575 1151
2600 1150
2625 1147
2650 1144
2675 1143
2700 1141
2725 1139
2750 1136
2775 1133
2800 1132
2825 1130
2850 1126
2875 1125
2900 1123
2925 1119
2950 1118
2975 1116
3000 1113
3025 1112
3050 1109
3075 1106
3100 1104
3125 1101
3150 1099
3175 1097
3200 1094
3225 1092
3250 1089
3275 1087
3300 1084
3325 1082
3350 1081
3375 1077
3400 1076
3425 1073
3450 1071
3475 1068
3500 1066
3525 1063
3550 1061
3575 1059
3600 1057
3625 1054
3650 1053
3675 1050
3700 1048
3725 1045
3750 1042
3775 1040
3800 1038
3825 1037
3850 1034
3875 1032
3900 1029
3925 1027
3950 1025
3975 1024
4000 1022
4025 1019
4050 1017
4074 1025
4091 1044
4108 1063
4119 1103
4106 1125
4091 1147
4073 1165
4049 1173
4024 1173
3999 1176
3974 1177
3949 1180
3924 1180
3899 1182
3874 1187
3849 1188
3824 1189
3799 1191
3774 1193
3749 1196
3724 1197
3699 1199
3674 1202
3649 1204
3624 1206
3599 1209
3574 1209
3549 1212
3524 1213
3499 1215
3474 1218
3449 1220
3424 1222
3399 1224
3374 1226
3349 1228
3324 1231
3299 1233
3274 1235
3249 1237
3224 1239
3199 1241
3174 1242
3149 1245
3124 1247
3099 1249
3074 1251
3049 1254
3024 1255
2999 1258
2974 1259
2949 1262
2924 1264
2899 1266
2874 1267
2849 1271
2824 1272
2799 1273
2774 1277
2749 1278
2724 1279
2699 1282
2674 1284
2649 1286
2624 1288
2599 1290
2574 1292
2549 1294
2524 1296
2499 1296
2474 1300
2449 1302
2424 1304
2399 1306
2374 1307
2349 1309
2324 1312
2299 1314
2274 1316
2249 1317
2224 1321
2199 1323
2174 1323
2149 1327
2124 1330
2099 1331
2074 1332
2049 1335
2024 1337
1999 1339
1974 1341
1949 1344
1924 1346
1899 1348
1874 1351
1849 1353
1824 1355
1799 1356
1774 1359
1749 1361
1724 1364
1699 1366
1674 1367
1649 1370
1624 1373
1599 1376
1574 1383
1549 1387
1525 1396
1502 1406
1480 1418
1458 1430
1438 1446
1418 1461
1398 1478
1379 1495
1361 1513
1341 1530
1321 1546
1301 1562
1280 1577
1259 1592
1237 1604
1214 1615
1191 1627
1168 1638
1145 1648
1122 1658
1099 1668
1075 1675
1050 1678
1025 1682
1000 1684
975 1686
950 1686
925 1686
900 1685
875 1682
850 1678
825 1674
801 1667
778 1657
754 1648
732 1636
711 1622
690 1608
672 1590
654 1572
637 1553
624 1531
612 1509
602 1486
593 1462
589 1437
