119 836
122 882
147 885
172 882
197 879
222 874
247 871
272 867
297 863
322 860
347 854
372 851
397 847
422 844
447 840
472 835
497 829
522 826
547 822
572 818
597 814
622 809
647 805
672 803
697 799
722 795
747 791
772 788
797 783
822 779
847 774
872 773
897 768
922 766
947 761
972 760
997 760
1022 761
1047 763
1072 768
1097 774
1122 779
1147 785
1172 789
1197 794
1222 797
1247 799
1272 799
1297 798
1322 794
1347 790
1372 783
1397 776
1419 763
1439 748
1458 731
1474 711
1485 687
1487 644
1478 620
1462 600
1442 584
1419 573
1395 564
1370 558
1345 554
1320 553
1295 555
1270 559
1245 565
1221 572
1197 582
1174 592
1151 603
1128 615
1107 629
1085 642
1063 655
1041 667
1017 677
993 686
969 695
944 701
919 707
894 711
869 716
844 720
819 724
794 727
769 731
744 735
719 740
694 744
669 747
644 751
619 756
594 760
569 765
544 768
519 772
494 775
469 779
444 782
419 786
394 790
369 794
344 799
319 802
294 805
269 809
244 813
219 817
194 821
169 825
144 830
