253 502
235 520
255 535
280 534
305 529
330 524
355 518
379 510
403 501
426 491
449 481
473 471
497 462
521 452
545 444
569 435
593 427
617 420
641 413
666 408
691 403
716 400
741 398
766 397
791 398
815 407
840 407
865 406
890 404
915 399
939 392
961 380
982 366
1001 349
1019 330
1031 284
1014 265
992 253
967 249
942 249
917 252
892 257
867 263
843 271
819 280
797 292
776 306
755 321
733 334
710 346
687 357
664 367
640 376
616 384
592 392
567 398
542 404
517 410
492 415
467 421
442 427
417 434
393 442
369 450
345 459
321 468
298 478
275 489
