192 126
192 136
194 258
194 268
194 278
194 288
194 298
194 308
194 326
194 336
195 146
195 346
196 356
198 234
198 244
200 118
200 155
200 220
202 165
202 175
202 185
202 195
202 205
204 362
207 350
209 113
209 324
209 334
216 342
218 329
218 354
219 109
223 363
229 106
231 356
233 334
233 344
239 103
241 327
249 100
251 327
259 98
261 327
269 95
271 329
279 94
281 331
289 92
291 335
299 90
301 330
309 88
311 326
316 80
321 325
326 76
331 325
336 74
341 329
346 68
351 331
354 60
361 335
362 54
371 339
372 54
380 61
381 341
385 70
391 343
395 72
401 345
405 76
411 345
415 80
421 88
421 345
431 90
431 343
441 92
441 340
451 94
451 337
461 96
461 333
471 98
471 330
481 100
481 327
491 102
491 325
501 106
501 325
511 110
511 327
519 333
521 114
522 343
522 353
526 363
527 164
527 174
527 184
527 194
527 204
527 214
529 148
530 119
533 350
535 332
536 127
537 137
537 218
545 329
547 220
555 327
557 222
565 327
567 224
575 327
577 226
580 336
580 346
580 356
587 230
588 363
591 298
591 308
593 266
593 276
593 286
593 318
593 348
594 328
596 235
597 338
601 258
602 243
