102 132
102 298
104 142
104 250
104 260
104 270
104 280
104 308
104 318
106 234
106 328
106 338
106 348
107 123
108 152
108 162
108 218
108 358
110 172
110 182
110 192
110 202
115 116
118 361
119 342
120 323
124 110
130 321
134 106
140 321
144 104
150 321
154 100
160 321
164 96
170 321
174 94
180 321
184 92
190 321
194 90
200 82
200 321
208 76
210 321
218 72
220 321
226 62
230 321
234 54
240 321
244 54
250 62
250 321
257 70
260 321
266 75
270 321
276 79
280 321
282 87
290 321
291 92
300 321
301 94
310 321
311 96
320 321
321 100
330 321
331 102
340 321
341 106
350 321
351 110
354 331
356 352
358 341
360 115
361 361
363 158
363 168
366 178
367 148
368 121
369 346
370 321
371 331
371 360
373 130
373 140
376 178
380 321
385 183
390 321
392 331
392 341
394 188
394 356
402 194
402 363
409 346
410 201
411 336
416 327
418 207
426 214
426 327
436 218
436 329
446 216
446 333
456 214
456 331
464 325
466 212
474 323
476 212
484 326
486 210
493 331
496 208
503 335
504 202
513 339
514 198
523 343
524 194
532 188
533 345
542 186
543 345
551 191
553 343
560 196
563 341
568 202
573 336
577 207
583 332
587 210
592 327
597 212
602 325
607 212
612 325
617 215
621 330
627 216
630 335
637 218
639 330
647 220
649 327
657 222
659 327
667 226
669 327
674 344
674 354
677 230
680 362
681 294
681 304
681 314
683 266
683 276
683 324
684 349
685 236
688 333
691 258
692 244
