118 246
118 256
122 338
124 358
125 264
126 238
126 348
128 274
128 284
128 294
128 320
128 330
130 304
132 340
134 359
136 234
138 329
144 228
148 327
154 226
158 327
164 224
168 329
174 222
178 331
184 218
188 333
194 218
197 328
204 216
207 324
214 216
217 323
224 216
227 327
234 214
237 331
244 214
247 333
252 204
256 338
262 204
266 341
271 199
276 343
279 193
286 345
289 190
296 345
299 192
306 343
309 196
316 341
318 201
326 339
328 204
334 333
336 211
344 329
346 214
354 208
354 327
362 200
364 323
370 192
374 324
376 128
376 138
378 186
380 332
380 342
380 358
382 146
384 120
386 156
386 166
388 184
389 337
389 347
394 116
399 332
402 110
409 329
412 108
419 327
422 104
429 327
432 100
439 329
440 339
442 98
444 349
446 359
452 96
454 347
455 322
455 332
462 94
465 321
472 90
475 321
482 84
485 321
490 78
495 321
500 76
505 321
510 68
515 321
518 62
524 54
525 321
533 59
535 321
541 65
545 321
546 74
555 321
556 77
565 82
565 321
573 88
575 321
583 90
585 321
593 94
595 321
603 96
605 321
613 98
615 321
623 100
625 321
633 104
635 321
643 106
645 321
653 110
655 321
661 116
665 321
666 331
666 341
668 351
668 361
671 120
671 156
671 166
671 176
671 186
671 196
671 206
671 216
672 226
675 144
675 236
677 246
677 256
677 266
677 312
677 322
677 332
677 342
678 128
678 276
679 286
679 296
