158 246
159 256
163 237
164 336
165 264
166 354
168 324
170 273
170 283
170 293
170 303
170 313
171 363
172 232
181 336
181 346
181 356
182 228
186 327
192 224
196 327
202 222
206 327
212 220
216 329
222 218
226 331
232 216
236 335
242 214
245 330
252 214
254 325
262 212
264 325
272 212
274 326
282 212
284 329
292 210
294 332
302 206
304 132
304 336
306 142
306 356
308 122
308 346
310 200
313 150
314 160
314 170
314 363
316 116
316 180
316 190
319 352
321 342
326 112
331 343
336 108
341 345
346 104
351 345
356 102
361 345
366 98
371 343
376 96
381 340
386 94
391 336
396 92
401 333
406 90
411 330
416 88
421 327
424 80
431 325
434 76
441 325
444 72
451 329
454 66
459 335
462 56
469 333
472 54
479 330
482 55
488 63
489 327
493 72
499 327
503 74
509 327
513 78
518 332
520 342
520 352
523 82
523 362
531 88
533 350
533 362
535 324
537 334
541 90
545 323
551 92
555 323
561 94
565 323
571 96
575 323
581 98
585 323
591 100
595 323
601 104
605 323
611 108
615 323
621 112
624 328
624 338
626 348
626 358
631 116
633 162
633 172
633 182
633 192
633 202
633 212
635 148
635 222
635 363
636 232
637 242
638 353
639 122
639 252
639 262
639 272
639 310
639 320
639 330
639 340
641 282
641 292
643 132
