196 244
196 254
201 263
202 236
202 334
204 344
204 354
206 272
206 282
206 292
206 314
206 324
208 302
209 363
211 231
218 357
219 334
219 344
221 227
227 327
231 224
237 327
241 222
247 327
251 220
257 329
261 218
262 128
262 138
264 337
264 347
264 357
267 147
268 120
270 157
271 215
272 167
272 177
272 187
272 197
272 363
276 114
277 336
277 346
285 329
286 110
295 325
296 106
305 325
306 104
315 327
316 100
325 329
326 98
335 333
336 96
345 335
346 94
355 339
356 92
365 341
366 90
375 345
376 88
384 80
385 345
394 76
395 345
404 72
405 345
414 66
415 343
422 56
425 339
432 54
435 336
442 55
445 333
449 63
454 72
455 329
464 74
465 327
474 77
475 325
483 82
485 325
491 88
495 329
501 90
503 335
511 92
513 333
521 94
523 330
531 96
533 328
541 98
543 327
551 100
553 327
561 104
563 329
566 339
566 349
568 359
571 106
578 363
579 350
581 110
581 324
583 334
590 342
591 114
592 352
595 362
597 160
597 170
597 180
597 190
597 200
597 210
598 220
599 148
599 230
600 119
601 240
602 250
603 314
603 324
603 346
603 356
605 260
605 270
605 280
605 290
605 300
605 334
607 127
607 137
