176 246
177 256
181 237
182 336
183 264
184 354
186 274
186 324
187 284
188 294
188 304
188 314
189 363
190 232
199 336
199 346
199 356
200 228
204 327
210 224
214 327
220 222
224 327
230 220
234 329
240 218
244 331
250 216
254 335
260 214
263 330
270 214
273 326
280 212
282 132
283 325
284 142
284 335
286 122
286 345
286 355
290 212
291 150
292 160
292 170
292 363
294 116
294 180
294 190
294 200
297 352
299 332
299 342
304 112
309 331
314 108
319 333
324 104
329 337
334 102
339 341
344 98
349 343
354 96
359 345
364 94
369 345
374 92
379 345
384 90
389 343
394 88
399 341
402 80
409 338
412 76
419 334
422 74
429 331
432 68
438 60
439 327
446 54
449 325
456 54
459 325
464 60
469 327
471 68
478 332
480 73
488 333
490 76
498 331
500 80
506 88
508 329
516 90
518 327
526 91
528 327
536 92
538 328
542 338
542 348
544 358
546 94
553 363
556 97
556 351
557 324
559 334
566 100
567 323
576 102
577 323
586 105
587 323
596 108
597 323
606 112
606 328
608 338
608 348
609 358
615 117
615 158
615 168
615 178
615 188
615 198
615 208
615 218
617 148
617 228
619 238
619 248
619 360
621 258
621 308
621 318
621 328
621 342
623 124
623 268
623 278
623 288
623 298
625 134
