164 64
164 74
164 84
164 94
164 104
166 48
169 113
170 36
172 123
177 132
178 28
178 142
178 152
180 162
180 172
180 182
180 192
180 266
182 202
182 212
182 222
182 232
182 242
182 252
185 275
188 24
193 128
193 138
193 148
193 158
193 168
193 178
193 188
193 198
193 208
193 218
193 228
193 238
193 248
193 258
195 273
198 20
203 126
206 136
206 146
206 156
206 166
206 176
206 186
206 196
206 206
206 216
208 20
208 226
208 236
208 246
208 256
208 266
213 275
217 184
217 194
217 204
217 214
218 23
219 164
219 174
219 224
219 234
219 244
219 254
221 148
222 264
223 130
223 274
225 114
227 28
227 100
233 90
234 36
235 78
237 46
237 56
237 66
