162 48
162 58
162 68
164 38
164 78
166 88
168 268
170 30
172 96
173 106
174 116
176 126
176 136
176 274
177 263
178 146
179 25
180 156
180 166
180 244
182 176
182 186
182 196
182 206
182 216
182 226
186 275
189 21
191 246
191 256
193 124
193 134
193 144
193 154
193 164
193 174
193 184
193 198
193 208
193 218
193 228
193 266
199 20
202 271
203 130
206 140
206 150
206 242
206 252
208 160
208 170
208 180
208 190
208 200
208 210
208 220
208 230
209 22
212 275
219 26
219 172
219 182
219 192
219 202
219 212
219 222
219 232
219 242
219 252
219 262
221 144
221 154
223 132
227 32
229 118
232 41
233 51
235 61
235 71
235 108
237 81
237 91
