164 60
164 70
164 80
166 44
166 90
166 100
169 110
170 34
176 118
176 128
176 268
178 28
178 138
178 148
179 158
180 168
180 178
180 188
182 198
182 208
182 218
182 228
182 238
182 248
182 258
184 275
187 23
193 132
193 142
193 152
193 162
193 172
193 182
193 192
193 202
193 212
193 222
193 232
193 242
193 252
193 262
194 273
197 20
201 126
206 162
206 172
206 182
206 192
206 202
207 20
207 212
208 134
208 144
208 222
208 232
208 242
208 252
208 262
208 272
217 24
217 200
218 275
219 166
219 176
219 186
219 210
219 220
219 230
219 240
219 250
219 260
221 148
223 126
223 136
225 108
227 28
227 266
229 96
233 36
233 84
235 46
235 74
237 56
