198 110
198 120
201 130
204 102
209 137
214 64
214 74
214 84
214 101
219 141
222 174
224 67
227 165
229 145
230 58
230 180
231 155
234 48
236 171
242 163
244 40
247 154
248 30
254 22
255 147
261 30
263 40
263 50
264 152
268 162
270 58
274 170
276 143
278 64
279 153
279 179
283 163
286 70
286 141
294 77
295 136
296 87
297 97
300 127
303 105
303 115
