144 66
144 134
146 76
146 124
148 86
148 96
148 106
153 139
154 63
163 136
164 67
171 130
172 73
179 122
180 79
188 117
190 76
190 127
192 137
194 147
195 67
200 58
204 149
206 50
214 147
216 46
222 141
224 52
232 143
234 52
240 44
240 172
242 143
244 156
245 181
248 36
251 148
255 178
257 31
263 172
266 26
269 164
275 21
279 167
283 27
285 175
288 36
291 50
292 183
299 56
301 174
303 148
305 158
309 58
312 143
317 64
321 138
327 68
331 134
337 70
340 129
344 78
348 121
350 86
352 111
356 94
