154 100
157 110
159 91
160 120
164 80
165 129
172 72
173 135
182 70
183 139
191 65
191 145
200 60
200 160
200 170
201 149
202 180
210 56
210 187
214 40
218 179
220 32
223 170
224 22
228 161
234 23
236 167
242 29
244 174
251 34
251 182
252 147
258 42
258 155
260 187
261 165
264 50
264 147
265 175
274 52
274 145
283 150
284 48
292 54
293 153
297 63
303 71
303 144
305 134
307 81
307 120
315 126
317 79
323 133
325 72
331 139
334 66
341 143
343 86
343 96
343 106
343 116
344 64
345 74
345 126
