118 96
120 106
126 88
126 114
132 122
134 82
138 130
142 74
147 135
152 70
157 139
162 68
167 143
171 63
176 148
181 60
186 152
188 162
190 172
191 56
195 181
196 42
203 187
204 34
208 24
212 181
217 172
218 23
227 175
228 26
234 183
238 30
244 149
244 187
246 36
247 159
251 169
251 179
254 42
254 147
263 47
264 147
271 54
274 147
281 52
284 145
291 48
293 150
301 50
303 153
308 58
313 153
315 66
320 145
321 74
323 132
325 120
326 83
335 121
336 84
342 129
344 78
350 135
352 72
360 139
362 68
370 143
372 64
375 96
375 106
376 116
377 84
378 126
379 74
380 141
