156 64
156 130
157 74
158 84
158 118
160 94
160 104
161 139
166 63
171 137
175 68
179 130
182 76
187 122
190 82
196 74
196 127
196 137
200 147
201 65
206 56
210 149
212 48
220 145
222 47
230 53
230 143
236 168
236 178
238 46
240 143
240 156
246 36
246 181
254 30
254 173
262 165
263 25
268 157
272 20
276 164
279 28
281 173
284 37
285 47
287 181
290 56
297 146
297 176
299 156
299 166
300 58
307 142
308 64
316 137
318 68
326 133
328 71
334 125
335 79
339 89
339 114
343 99
