72 94
78 102
80 88
85 110
89 83
93 117
98 78
100 125
108 76
109 130
117 71
119 133
127 68
129 135
137 64
138 140
147 60
148 144
157 58
158 147
167 56
168 147
176 40
177 53
177 152
182 161
186 36
188 169
191 27
196 176
199 20
205 181
209 22
215 183
217 28
224 177
226 145
227 30
229 155
229 165
236 145
237 34
246 39
246 145
256 40
256 143
265 45
266 143
273 51
276 143
282 56
286 143
291 51
296 141
301 48
305 146
311 46
315 147
321 50
325 149
329 56
335 149
337 62
343 142
344 70
348 133
350 78
351 118
358 84
361 117
368 82
371 121
377 77
380 126
387 73
389 131
396 68
399 135
406 66
409 139
416 62
419 139
421 88
421 98
421 108
423 118
425 76
426 63
426 128
