122 94
124 104
130 86
130 112
136 120
138 80
143 128
146 72
152 133
156 68
162 136
166 66
171 141
175 61
181 145
185 58
190 150
190 160
193 170
195 55
198 179
200 38
208 30
208 181
212 20
216 175
222 22
222 167
230 173
232 26
238 179
241 31
246 145
248 181
249 37
249 155
253 165
256 143
259 40
266 48
266 143
272 56
276 143
281 51
286 142
290 46
295 147
300 48
305 149
308 55
315 63
315 149
321 71
321 138
325 81
325 118
325 128
335 81
335 119
343 125
344 76
351 131
352 70
359 137
362 66
369 139
372 62
375 86
375 96
375 106
375 116
377 76
377 126
379 136
