182 66
184 76
184 86
184 118
184 128
184 138
186 96
186 106
192 63
194 137
199 71
202 130
205 79
210 136
212 68
212 146
216 58
221 49
222 149
228 172
229 182
231 48
231 144
232 160
239 150
239 178
241 43
247 35
247 168
253 27
253 160
259 152
261 21
268 157
269 27
271 37
272 167
273 47
278 56
278 175
286 182
287 146
288 60
289 156
291 166
295 140
296 66
303 134
305 71
311 128
313 77
315 87
317 114
319 97
