28 244
28 254
28 264
32 274
33 235
38 226
38 282
40 174
40 184
42 194
44 216
46 204
46 289
50 175
54 295
58 182
64 297
68 178
70 26
70 36
70 46
72 168
74 156
74 299
76 54
76 70
76 80
76 90
76 100
76 110
76 120
76 130
76 140
78 20
84 301
88 19
91 52
91 62
91 72
91 82
91 92
91 102
91 112
91 122
91 132
92 33
93 142
93 152
94 299
97 44
99 160
104 297
109 162
114 293
119 166
119 202
119 212
123 192
123 288
124 221
125 174
130 229
131 280
135 238
137 270
139 248
139 258
