22 254
24 242
24 264
26 274
28 232
32 180
32 282
33 223
34 190
37 200
38 172
38 210
39 290
48 172
48 295
57 177
58 298
60 158
64 26
66 36
68 46
68 299
70 154
72 20
74 136
75 54
76 64
76 74
76 84
76 94
76 104
76 114
76 124
78 299
82 19
87 30
88 299
89 40
89 50
89 60
89 70
89 80
89 90
89 100
89 110
91 120
91 130
91 140
91 150
92 160
98 297
102 162
108 293
111 167
113 198
113 208
115 218
116 287
117 175
117 188
120 227
123 278
125 236
127 246
127 268
129 256
