26 250
26 260
28 270
30 238
34 278
36 228
40 178
40 188
40 286
42 220
45 169
45 197
46 207
48 292
53 163
58 296
63 160
68 26
68 36
68 46
68 299
73 159
74 92
74 102
74 112
74 122
74 132
74 142
75 54
76 20
76 64
76 74
78 299
86 19
88 299
89 54
89 64
89 74
89 84
89 94
89 104
90 114
91 30
91 40
91 124
91 134
91 144
91 154
91 164
93 174
98 297
100 182
108 295
110 182
117 204
117 290
118 174
118 214
121 194
123 223
125 182
125 282
129 231
131 274
133 241
135 264
137 251
