66 74
70 60
74 50
74 81
80 40
84 81
86 32
94 24
94 81
97 70
98 362
100 342
100 352
102 186
102 196
102 206
102 216
102 226
102 236
102 246
102 256
102 266
102 276
102 286
102 296
102 306
102 316
102 326
104 20
105 76
106 176
108 86
108 365
110 96
110 106
110 116
110 150
110 160
112 126
112 136
114 20
118 365
124 20
128 365
134 20
137 104
137 114
137 124
137 134
137 144
137 154
137 164
138 365
139 88
141 174
143 74
144 20
145 184
145 194
147 56
147 204
147 214
147 224
147 234
147 244
147 254
147 264
147 274
147 284
147 294
147 304
147 314
147 324
147 334
147 344
148 354
148 365
154 20
156 51
164 20
166 51
173 25
174 43
