52 78
56 64
61 55
62 81
67 47
69 72
73 39
75 64
81 31
83 56
89 25
92 51
96 352
96 362
98 20
98 292
98 302
98 312
98 322
98 332
98 342
100 57
100 67
100 186
100 196
100 206
100 216
100 226
100 236
100 246
100 256
100 266
100 276
104 77
106 87
106 172
106 365
108 20
108 97
110 107
110 117
110 127
110 137
110 147
110 157
116 365
118 20
126 365
128 20
136 365
137 96
137 106
137 116
137 126
137 136
137 146
137 156
137 166
138 20
139 86
140 176
143 74
145 185
146 365
147 48
147 58
147 195
147 205
147 215
147 225
147 235
147 245
147 255
147 265
147 275
147 285
147 295
147 305
147 315
147 325
148 23
149 335
149 345
149 355
157 45
158 24
167 47
168 22
177 51
178 20
187 25
187 44
