78 30
78 40
84 22
84 48
94 20
94 51
94 362
96 61
96 196
96 206
96 216
96 226
96 236
96 246
96 256
96 266
96 276
96 318
96 328
96 338
96 348
97 286
98 71
98 182
98 296
98 306
102 81
102 172
104 20
104 91
104 101
104 365
106 111
106 121
106 131
106 141
106 151
106 161
114 20
114 365
124 20
124 365
131 94
131 104
131 114
131 124
131 134
131 144
131 154
131 164
133 84
133 174
134 20
134 365
138 183
139 193
139 203
139 213
139 223
139 233
139 243
139 253
139 263
139 273
139 283
139 293
139 303
139 313
139 323
139 333
139 343
141 353
143 25
143 81
149 33
153 81
154 42
158 52
161 62
163 72
