70 28
70 38
75 47
78 20
85 51
88 20
94 56
94 346
94 356
96 66
96 186
96 196
96 206
96 216
96 226
96 236
96 246
96 256
96 266
96 276
96 286
96 296
96 306
96 316
96 326
96 336
98 20
99 76
99 365
100 176
102 86
104 96
104 106
104 116
104 126
104 136
104 146
104 156
104 166
108 20
109 365
118 20
119 365
128 20
129 365
131 98
131 108
131 118
131 128
131 138
131 148
131 158
132 168
133 86
135 178
137 74
138 20
139 188
139 198
139 208
139 218
139 228
139 238
139 248
139 258
139 268
139 278
139 288
139 298
139 308
139 318
139 328
139 365
141 338
141 348
145 81
147 25
153 33
155 81
159 41
164 50
165 81
167 60
171 70
