60 30
60 40
65 21
66 48
75 20
76 51
85 24
85 46
92 356
93 53
94 63
94 73
94 224
94 234
94 244
94 254
94 316
94 326
94 336
94 346
95 20
96 184
96 194
96 204
96 214
96 264
96 274
96 284
96 294
96 304
97 365
100 81
100 174
102 91
104 101
104 111
104 121
104 131
104 141
104 151
104 161
105 20
107 365
115 20
117 365
125 20
127 365
131 104
131 114
131 124
131 134
131 144
131 154
131 164
133 88
135 20
135 174
137 74
137 365
139 184
139 194
141 58
141 204
141 214
141 224
141 234
141 244
141 254
141 264
141 274
141 284
141 294
141 304
141 314
141 324
141 334
141 344
143 354
145 20
150 63
153 26
154 73
160 34
160 81
166 42
170 81
171 51
176 60
179 70
180 81
