52 24
52 34
52 44
60 51
62 20
70 47
72 24
80 45
82 24
90 46
90 358
92 24
92 334
92 344
94 196
94 206
94 216
94 226
94 236
94 246
94 256
94 266
94 276
94 286
94 296
94 306
94 316
96 54
96 182
98 64
98 365
101 74
102 20
104 84
104 170
106 94
106 104
106 114
106 150
106 160
107 124
108 134
108 365
112 20
118 365
122 20
128 365
129 134
129 144
131 92
131 102
131 112
131 122
131 154
131 164
132 20
133 82
133 174
137 66
138 365
139 50
139 182
141 192
142 20
143 202
143 212
143 222
143 232
143 242
143 252
143 262
143 272
143 282
143 292
143 302
143 312
143 322
144 332
145 342
145 352
149 47
150 26
158 32
159 51
166 39
168 56
175 64
181 72
186 81
