112 76
114 66
114 86
118 46
118 56
120 26
122 36
124 89
130 23
134 87
140 22
144 90
144 100
144 110
144 120
146 130
146 140
150 25
150 150
150 252
152 160
154 170
154 180
154 190
154 240
156 200
156 226
158 32
158 210
158 259
166 39
168 259
171 48
173 192
173 202
173 212
173 222
173 232
173 242
175 168
175 178
176 57
178 252
180 159
181 66
183 239
185 229
186 167
186 177
186 187
186 216
186 259
188 197
189 72
196 259
197 78
201 228
201 246
203 206
203 216
205 192
207 82
207 164
207 174
216 252
217 82
217 175
220 185
220 242
224 195
224 228
224 259
226 205
226 215
227 80
234 259
237 78
241 166
241 176
241 186
241 226
241 236
241 246
243 156
243 196
243 206
243 216
247 80
251 169
254 179
256 189
257 80
260 254
262 197
264 240
266 207
266 217
266 227
267 80
269 259
274 88
279 97
279 259
280 187
281 107
283 197
283 207
283 217
283 227
283 237
283 247
285 117
285 174
287 127
287 137
287 147
287 158
