44 74
47 84
50 66
56 58
56 89
62 50
66 87
68 42
70 22
72 32
76 83
80 20
86 83
90 24
96 81
100 26
106 82
110 30
112 90
116 100
120 34
120 110
125 119
128 40
128 129
132 139
136 46
138 147
138 254
144 53
144 155
144 244
147 259
148 165
148 175
148 185
148 232
150 195
150 205
150 216
152 60
157 259
161 65
167 259
170 70
173 246
177 218
177 228
179 196
179 206
180 74
181 176
181 186
183 164
190 77
192 159
200 80
202 161
210 82
212 161
220 82
222 161
230 82
232 161
240 82
242 159
250 80
252 157
260 80
262 160
268 168
270 78
274 176
280 78
280 184
280 254
286 192
286 244
289 259
290 80
290 202
290 232
292 212
292 222
299 259
300 83
309 259
310 84
315 166
317 150
317 176
319 248
320 80
320 186
321 130
321 140
323 202
323 212
323 222
323 232
326 155
326 165
328 192
330 80
338 87
338 191
344 95
346 183
349 104
351 174
353 114
355 124
355 144
355 158
357 134
