134 66
134 76
135 86
136 44
136 54
138 22
138 32
145 89
148 25
148 108
150 98
150 118
150 128
150 138
152 148
154 158
154 248
154 258
156 168
156 178
156 188
158 22
158 198
158 208
158 218
158 228
158 238
164 259
168 25
173 34
174 259
175 174
175 190
175 200
175 210
175 220
175 230
177 160
177 240
179 42
184 250
185 50
187 159
188 232
189 259
190 59
190 169
190 179
190 189
190 218
192 199
196 67
199 259
202 75
209 259
211 80
219 216
219 226
219 236
219 246
219 256
221 78
221 158
221 168
221 178
221 188
221 198
230 183
231 80
235 192
241 80
242 254
244 197
246 207
246 240
248 217
248 227
249 86
251 259
254 95
259 104
261 114
261 168
261 178
261 188
261 259
262 125
262 145
263 135
263 155
263 198
263 208
263 218
263 228
265 238
265 248
