52 130
52 140
52 154
54 120
54 164
56 174
58 108
61 183
63 99
68 90
69 189
76 82
79 193
80 203
80 213
80 230
80 240
82 250
83 160
83 170
86 80
87 259
96 82
97 259
99 228
106 84
107 259
116 80
117 259
119 206
119 216
119 226
121 236
123 194
125 246
126 78
127 259
129 186
135 176
136 78
141 168
146 80
147 160
156 81
157 157
166 82
167 159
176 82
177 161
186 82
187 161
196 80
197 161
206 78
207 160
212 169
214 179
214 189
216 74
216 199
218 209
218 219
218 229
218 239
222 249
224 259
226 70
234 259
236 66
244 259
245 61
249 210
251 194
251 220
251 230
253 53
253 164
253 174
253 184
254 240
254 259
257 152
259 249
261 45
263 144
269 38
269 132
273 118
277 108
278 32
281 98
285 88
288 28
293 81
298 26
303 83
308 22
313 83
318 22
322 33
323 85
327 42
332 51
333 89
338 59
343 86
344 67
