48 128
48 138
48 152
50 162
52 112
52 172
57 103
57 181
62 92
63 189
70 84
73 193
78 202
78 232
79 154
79 164
79 174
79 212
79 242
80 80
80 222
81 184
82 252
90 81
90 259
99 86
100 259
109 82
110 259
113 212
113 222
115 202
115 232
118 242
119 79
120 193
120 259
125 184
129 78
131 176
137 168
139 78
143 160
149 80
153 157
159 82
163 159
169 82
173 161
179 82
183 161
189 82
193 161
199 80
203 161
209 78
213 159
216 169
216 179
218 189
219 74
220 199
220 209
220 219
222 229
222 239
226 249
228 259
229 70
238 259
239 65
248 60
248 259
251 196
251 206
251 216
251 226
253 168
253 178
253 236
255 158
256 52
257 246
258 259
260 149
264 44
266 141
271 130
272 38
275 118
279 108
281 33
283 98
288 89
290 28
294 81
300 26
304 81
310 24
314 83
320 21
324 85
327 29
327 39
333 47
334 89
339 55
344 89
345 63
351 71
351 81
