164 116
164 126
164 136
164 244
164 254
166 146
166 234
168 106
168 156
168 222
169 166
170 176
170 186
170 196
170 206
173 97
173 259
177 87
178 76
182 28
182 46
182 56
182 66
183 259
188 20
189 196
189 206
191 216
191 226
193 236
193 259
195 246
196 26
199 193
206 22
206 240
206 250
208 222
209 192
210 202
210 212
211 259
215 36
215 64
216 25
217 46
217 74
221 84
221 259
224 94
229 103
229 160
229 200
229 210
230 170
231 180
231 190
231 220
231 259
232 230
233 144
234 112
234 240
235 122
235 132
