134 66
134 76
135 86
136 44
136 54
138 22
138 32
145 89
148 25
150 98
150 108
150 118
150 128
150 138
153 148
154 250
155 158
156 168
156 178
156 188
158 22
158 198
158 232
159 259
160 208
160 218
168 25
169 259
173 34
175 194
175 204
175 214
175 224
177 162
177 172
177 182
177 234
177 244
178 43
181 53
184 254
186 62
187 159
187 243
190 186
190 224
191 71
192 168
192 196
192 206
193 259
199 78
203 259
209 81
213 259
219 78
219 238
219 248
221 158
221 168
221 178
221 188
221 202
221 212
221 222
229 78
230 183
235 192
239 80
244 197
244 250
248 85
248 207
248 217
248 227
248 237
249 259
253 94
259 102
259 259
261 112
261 170
261 180
262 190
263 122
263 132
263 142
263 152
263 200
263 210
263 220
265 230
267 240
267 250
