48 126
48 136
48 152
48 162
51 172
52 112
56 102
56 181
62 92
62 189
68 84
72 193
78 80
78 201
78 211
78 232
79 152
79 162
79 172
79 242
80 221
81 182
82 252
88 80
90 259
96 86
100 259
106 82
110 259
113 210
113 220
115 230
116 80
117 196
117 240
120 259
122 249
123 188
126 78
129 178
135 170
136 78
141 162
146 80
149 155
156 82
159 159
166 82
169 161
176 82
179 161
186 82
189 161
196 80
199 161
206 78
209 159
216 76
216 167
216 177
218 187
218 197
220 207
220 217
222 227
222 237
226 72
226 247
226 257
235 67
236 259
244 62
246 259
251 196
251 206
251 216
251 226
252 56
253 168
253 178
253 236
255 158
256 259
257 246
260 48
261 148
267 140
268 40
271 130
275 118
277 35
279 108
283 98
286 30
288 89
294 81
296 28
304 81
306 24
314 83
316 20
324 85
326 20
326 31
329 41
334 89
335 49
340 58
344 89
346 66
351 75
