112 74
113 84
116 58
118 46
120 24
122 34
122 89
130 23
132 87
140 22
142 84
142 94
142 104
144 114
144 124
144 134
147 144
148 254
150 25
150 154
152 164
152 174
152 184
152 242
154 194
156 204
156 214
156 224
157 259
158 32
166 39
167 259
172 47
173 188
173 198
173 208
173 218
173 228
173 238
173 248
175 162
175 172
178 55
178 257
183 237
184 63
184 167
184 184
184 224
186 194
186 204
186 214
188 259
192 69
198 259
199 77
201 220
201 230
201 240
203 198
203 208
205 188
207 162
207 172
208 82
216 177
216 250
218 82
220 187
220 240
221 259
224 197
224 220
224 230
226 207
228 80
231 259
238 78
239 248
241 152
241 162
241 172
241 182
241 214
241 224
241 234
243 192
243 202
248 80
251 171
254 181
258 80
258 191
260 252
263 200
264 210
264 220
264 230
264 240
268 81
268 259
274 89
278 259
279 98
280 187
281 197
281 207
281 217
281 227
282 108
283 237
283 247
285 118
285 128
285 172
287 138
287 148
287 158
