18 78
24 70
28 81
34 70
38 81
39 61
40 50
48 81
50 50
54 89
60 50
60 97
66 210
66 220
68 103
70 50
72 200
76 109
76 119
76 129
76 139
76 149
76 159
76 169
76 179
76 189
76 221
80 50
86 221
90 52
96 221
98 30
100 52
102 20
106 221
110 26
110 36
110 46
113 110
113 120
113 130
113 140
113 150
113 160
113 170
113 180
113 190
115 200
116 221
118 52
120 209
123 106
128 52
132 101
138 52
140 95
146 87
148 50
154 81
158 50
164 81
168 50
174 81
178 50
181 60
183 70
