34 56
34 66
34 76
42 50
43 81
52 50
53 81
62 30
62 40
63 81
67 21
67 49
68 90
72 100
76 16
77 50
80 106
84 23
87 50
90 109
90 210
90 220
92 29
96 200
97 50
100 112
100 122
100 132
100 142
100 152
100 162
100 172
100 182
100 221
107 50
110 221
112 59
118 67
120 221
128 70
130 221
137 98
137 108
137 118
137 128
137 138
137 148
137 158
137 168
137 178
137 188
138 70
138 198
140 221
141 88
142 208
148 70
149 81
158 70
159 81
