28 54
28 64
28 74
36 81
38 50
46 81
48 50
52 89
58 50
60 96
68 52
68 102
72 212
77 107
77 221
78 52
78 202
82 188
84 115
84 125
84 135
84 145
84 155
84 165
84 175
87 221
88 52
94 20
94 30
94 40
97 221
101 48
103 25
107 221
111 52
117 221
119 108
119 118
119 128
119 138
119 148
119 158
119 168
119 178
119 188
121 52
121 198
126 207
127 221
129 104
131 50
138 99
141 50
146 91
151 50
151 82
161 50
161 81
167 58
167 68
171 78
