52 314
52 324
52 334
54 302
54 344
56 292
58 354
64 284
65 362
70 200
70 210
72 278
74 188
74 220
74 367
80 180
80 228
82 276
84 369
88 235
90 176
92 276
94 371
97 240
100 174
102 276
104 371
106 245
110 172
112 277
114 371
116 247
120 172
122 280
124 369
126 250
130 170
132 276
134 365
136 253
140 166
142 274
144 363
146 158
146 251
148 261
154 361
156 118
156 156
158 108
158 128
162 98
162 138
164 38
164 48
164 58
164 363
166 154
167 68
167 89
170 78
172 30
174 363
180 24
184 363
190 22
194 365
200 20
204 367
210 23
214 368
219 28
224 369
227 34
234 371
237 34
244 371
247 34
254 371
257 34
264 371
267 30
274 371
276 24
284 371
286 22
292 365
296 20
300 357
303 342
305 148
305 302
305 330
306 22
307 254
307 264
307 312
308 274
310 139
310 293
311 156
314 129
315 27
315 248
317 76
319 86
319 114
320 161
321 66
321 96
323 34
324 243
325 46
325 56
328 167
332 235
335 175
338 227
341 183
344 219
345 193
346 209
