66 194
66 204
68 214
70 182
72 224
74 88
74 98
74 108
76 118
78 76
78 174
79 128
79 232
82 36
82 46
82 56
82 66
84 137
85 240
86 166
86 284
87 294
88 28
88 147
88 250
88 270
90 260
92 157
92 303
92 313
92 323
92 333
94 343
96 22
96 353
102 361
106 20
111 366
116 22
121 369
126 25
131 371
134 31
141 371
144 34
151 371
154 34
161 371
162 26
171 371
172 22
181 371
182 20
191 369
192 22
201 27
201 365
209 34
211 64
211 74
211 363
213 44
213 54
217 82
221 363
223 150
225 88
229 158
231 142
231 362
233 94
236 133
237 164
239 120
241 100
241 110
241 363
246 169
249 252
251 262
251 363
253 272
256 170
259 248
261 278
261 367
266 172
269 245
271 280
271 371
276 173
279 241
281 277
281 371
286 176
289 236
291 276
291 371
296 179
298 231
301 276
301 369
303 187
304 223
307 197
307 207
311 276
311 366
320 361
321 280
327 288
328 353
331 298
331 308
331 338
333 318
333 328
