50 320
52 310
52 330
52 340
54 300
54 350
58 290
61 358
66 206
66 282
68 196
68 216
69 365
72 184
74 224
75 277
79 233
79 369
80 178
85 276
89 237
89 371
90 176
95 276
98 242
99 371
100 172
105 276
108 245
109 371
110 172
115 278
118 249
119 371
120 170
125 278
128 251
129 368
130 168
135 274
138 160
138 251
139 364
145 272
148 156
148 251
148 262
149 363
156 118
158 38
158 48
158 58
158 106
158 128
158 154
159 361
161 138
162 68
162 94
166 30
166 78
167 146
169 363
174 24
179 363
184 22
189 365
194 20
199 367
204 22
209 367
213 27
219 369
221 33
229 369
231 34
239 371
241 34
249 371
251 34
259 371
261 34
269 371
270 28
279 371
280 24
289 371
290 22
299 368
300 20
304 151
305 258
307 268
307 296
307 362
309 142
309 278
309 306
310 23
311 316
312 353
313 132
313 252
313 326
313 336
314 155
317 82
317 120
319 28
319 92
319 108
321 72
322 247
323 160
325 62
326 36
327 52
331 242
332 165
337 234
339 173
343 226
345 181
349 191
349 214
351 201
