48 316
48 326
49 336
50 306
50 346
54 290
56 354
60 206
62 194
62 216
62 284
63 362
66 184
68 224
70 278
72 367
74 178
74 232
80 276
82 370
83 237
84 176
90 276
92 242
92 371
94 172
100 276
102 246
102 371
104 172
110 277
112 249
112 371
114 170
120 278
122 252
122 369
124 168
130 160
130 274
132 251
132 365
140 156
140 272
142 251
142 363
146 261
150 38
150 48
150 58
150 154
152 116
152 361
153 126
154 68
154 102
156 92
157 78
157 136
158 30
160 154
162 363
166 24
172 363
176 22
182 365
186 20
192 367
196 22
202 367
205 27
212 369
214 32
222 370
224 34
232 371
234 34
242 371
244 34
252 371
254 34
262 371
264 30
272 371
274 26
282 371
284 22
292 371
294 20
300 151
301 256
302 371
303 266
304 22
304 276
306 143
307 286
310 133
310 154
310 365
311 254
313 120
313 294
314 26
314 87
315 97
315 107
315 304
317 314
318 77
318 359
319 340
320 158
320 249
321 324
322 33
323 64
327 42
327 52
328 243
329 163
336 235
337 170
344 178
344 227
349 187
349 216
351 200
