52 194
52 204
54 214
57 185
57 224
62 176
64 232
70 168
71 240
72 42
74 52
76 62
77 33
78 92
78 102
78 112
78 162
79 246
80 72
81 122
82 82
85 26
86 131
86 156
88 251
88 284
89 294
90 141
90 274
92 261
92 312
92 322
94 332
95 22
96 342
97 352
102 361
105 20
110 367
115 22
120 371
125 26
130 371
134 31
140 371
144 34
150 371
154 34
160 371
164 32
170 369
174 32
180 369
182 26
190 367
192 22
200 365
202 20
210 365
212 22
220 363
222 26
227 150
228 79
230 33
230 363
231 89
232 69
233 142
235 42
235 52
236 98
237 154
239 134
240 108
240 361
242 118
247 156
250 251
250 363
251 261
251 271
257 160
260 253
260 364
261 274
263 168
270 251
270 367
271 278
273 170
280 247
280 371
281 280
283 172
290 245
290 371
291 276
293 172
300 241
300 371
301 276
303 174
309 236
310 371
311 276
313 178
318 231
320 369
321 276
322 183
323 222
325 193
328 213
329 203
329 364
331 280
337 358
338 288
343 297
343 350
345 307
347 317
347 327
347 337
