52 312
52 322
52 332
53 342
54 302
55 352
56 292
63 359
64 284
70 200
70 210
71 365
72 278
74 188
74 220
80 180
80 228
81 369
82 276
88 235
90 176
91 371
92 276
97 240
100 174
101 371
102 276
106 245
110 172
111 371
112 278
116 247
120 172
121 371
122 280
126 250
130 170
131 367
132 276
136 253
140 166
141 363
142 274
146 158
146 251
148 261
151 362
156 118
156 156
158 108
158 128
161 363
162 96
162 138
164 38
164 48
164 58
166 68
166 154
167 87
171 363
172 30
180 24
181 363
190 20
191 365
200 20
201 365
210 23
211 367
219 28
221 369
227 34
231 369
237 34
241 371
247 34
251 371
257 34
261 371
267 29
271 371
276 24
281 371
286 22
291 366
296 20
299 358
303 340
305 148
305 298
305 308
305 328
306 22
307 254
307 264
307 318
308 274
310 139
310 284
311 156
314 129
315 27
315 248
317 74
318 84
319 114
320 161
321 64
321 94
321 104
323 34
324 243
325 44
325 54
328 167
332 235
335 175
338 227
341 183
344 219
345 193
345 208
