62 316
62 326
64 302
64 336
64 346
66 290
69 355
74 282
76 363
82 276
86 194
86 204
86 367
87 214
91 185
91 224
92 276
96 369
97 232
99 178
102 276
106 237
106 371
109 176
112 276
115 242
116 371
119 173
122 279
125 245
126 371
129 172
132 280
135 249
136 367
139 170
142 276
145 251
146 363
149 169
150 260
150 270
156 363
158 160
162 108
162 118
164 128
166 98
166 361
168 138
168 156
174 90
174 146
176 363
180 44
180 54
180 82
182 64
184 34
186 363
192 26
196 364
202 22
206 365
212 20
216 367
222 22
226 371
232 26
236 371
240 32
246 371
250 34
256 371
260 34
266 371
270 30
276 371
278 24
286 367
288 22
296 363
298 20
303 352
307 336
308 23
309 154
309 310
309 320
311 252
311 262
311 296
313 142
313 272
315 162
315 282
317 28
317 244
318 133
319 64
321 74
322 37
323 47
323 120
323 168
324 84
325 94
325 108
325 236
330 176
331 228
336 184
337 218
339 194
339 204
