48 252
48 262
55 270
58 248
65 272
68 248
75 269
76 188
76 218
78 248
81 227
84 195
85 269
86 218
88 22
88 32
88 42
88 52
88 62
88 72
88 82
88 92
88 102
88 112
88 122
88 132
88 142
88 248
89 152
89 186
91 227
94 195
95 273
96 218
98 20
98 248
99 153
99 186
101 227
104 195
105 269
106 218
108 20
108 248
109 153
109 186
111 227
114 195
115 269
116 218
118 20
118 248
119 153
119 186
121 227
124 195
125 269
126 218
128 20
128 248
129 153
129 186
131 227
134 195
135 269
136 218
138 20
138 248
139 153
139 186
141 227
144 195
145 269
146 218
148 20
148 248
149 153
149 186
151 227
154 195
155 269
156 218
158 20
158 248
159 153
159 186
161 227
162 163
162 173
162 201
162 237
165 269
168 20
175 269
178 20
185 269
188 20
195 269
198 20
205 269
208 20
215 269
218 20
221 154
221 164
221 174
221 184
221 196
221 206
221 216
221 228
221 238
222 248
225 269
228 20
231 153
231 186
231 218
232 248
235 269
236 195
236 227
238 20
241 153
241 186
241 218
242 248
245 269
246 195
246 227
248 20
251 153
251 186
251 218
252 248
255 269
256 195
256 227
258 20
261 153
261 186
261 218
262 248
265 269
266 195
266 227
268 20
271 153
271 186
271 218
272 248
275 269
276 195
276 227
278 20
281 153
281 186
281 218
282 248
285 269
286 195
286 227
288 20
291 153
291 186
291 218
292 248
295 269
296 195
296 227
298 20
301 153
301 186
301 218
302 248
305 269
306 195
306 227
307 98
307 108
307 118
307 128
307 138
308 23
309 33
309 43
309 53
309 63
309 73
309 83
311 186
311 218
312 248
315 269
316 195
316 227
321 186
321 218
322 248
325 269
326 195
326 227
331 186
331 218
332 248
335 271
336 195
342 248
345 269
352 251
353 261
