78 252
78 262
86 269
88 188
88 218
88 248
93 227
96 195
96 273
98 218
98 248
101 186
103 227
106 195
106 269
108 218
108 248
111 186
113 227
116 195
116 269
118 218
118 248
121 186
123 227
126 195
126 269
128 218
128 248
131 186
133 227
134 22
134 32
134 42
134 52
134 62
134 72
134 82
134 92
134 102
134 112
134 122
134 132
134 142
134 152
136 195
136 269
138 218
138 248
141 186
143 227
144 20
144 153
146 195
146 269
148 218
148 248
151 186
153 227
154 20
154 153
156 195
156 269
158 218
158 248
161 186
163 227
164 20
164 153
166 195
166 254
166 269
168 218
171 186
173 227
174 20
174 153
174 248
176 195
176 269
178 218
181 186
182 254
183 227
184 20
184 153
186 195
186 269
188 218
190 248
191 186
193 227
194 20
194 153
196 163
196 173
196 196
196 206
196 237
196 269
204 20
206 269
214 20
216 269
224 20
226 269
234 20
236 269
243 154
243 164
243 174
243 184
243 196
243 206
243 216
243 228
243 238
244 20
244 248
246 272
253 153
253 186
253 218
254 20
254 248
256 269
258 195
258 227
263 153
263 186
263 218
264 20
264 248
266 269
268 195
268 227
273 153
273 186
273 218
274 21
274 248
276 269
277 31
277 41
277 51
277 61
277 71
277 81
277 91
277 101
277 111
277 121
277 131
277 141
278 195
278 227
283 186
283 218
284 248
286 269
288 195
294 248
296 269
304 248
306 270
314 248
316 271
323 253
323 263
