78 250
78 260
83 269
88 248
93 269
96 254
103 269
104 248
112 188
112 218
112 254
113 269
117 227
120 195
120 248
122 218
123 269
125 186
126 22
126 32
126 42
126 52
126 62
126 72
126 82
126 92
126 102
126 112
126 122
126 132
126 142
127 152
127 227
128 254
130 195
132 218
133 269
135 186
136 20
136 248
137 153
137 227
140 195
142 218
143 269
144 254
145 186
146 20
147 153
147 227
150 195
152 218
152 248
153 273
155 186
156 20
157 153
157 227
158 163
158 173
158 201
158 237
163 269
166 20
173 269
176 20
183 269
186 20
193 269
196 20
203 269
206 20
207 154
207 164
207 174
207 184
207 196
207 206
207 216
207 228
207 238
208 248
213 269
216 20
217 153
217 186
217 218
218 248
222 195
222 227
223 269
226 20
227 153
227 186
227 218
228 248
232 195
232 227
233 269
236 20
237 153
237 186
237 218
238 248
242 195
242 227
243 273
246 20
247 153
247 186
247 218
248 248
252 195
252 227
253 269
256 20
256 254
257 153
257 186
257 218
262 195
262 227
263 269
264 248
266 20
267 153
267 186
267 218
269 30
269 40
269 50
269 60
269 70
269 80
269 90
269 100
269 110
269 120
269 130
269 140
272 195
272 227
272 254
273 269
277 186
277 218
280 248
282 195
282 227
283 269
287 186
287 218
288 254
292 195
292 227
293 269
296 248
297 186
297 218
302 195
302 227
303 271
306 248
307 186
307 218
312 195
313 270
316 248
323 256
323 266
