30 246
35 255
40 246
46 254
52 246
52 262
54 272
56 282
62 246
62 290
67 299
72 246
72 432
73 307
77 441
78 424
79 315
82 246
85 323
86 418
87 445
91 331
92 246
92 410
97 339
97 447
98 402
100 349
102 246
104 359
106 369
106 390
107 447
108 379
112 246
117 447
122 246
127 449
132 246
137 449
142 246
147 449
152 104
152 114
152 124
152 134
152 144
152 154
152 246
154 86
154 164
154 174
156 184
157 449
158 68
158 194
161 204
162 58
162 246
165 214
166 48
167 449
170 223
172 233
172 246
174 42
177 448
180 34
187 447
190 30
197 447
200 31
205 40
207 447
213 410
215 40
216 420
217 445
219 402
225 40
225 425
227 394
227 440
233 384
235 40
239 374
245 40
245 366
249 356
252 28
253 346
257 336
262 30
263 326
270 36
271 318
276 44
280 313
286 44
288 307
296 46
296 301
305 296
306 49
310 287
311 58
313 68
316 93
316 275
317 78
319 103
319 113
319 123
321 133
321 143
321 153
321 163
321 260
323 173
323 183
323 193
324 247
325 203
325 213
325 223
325 233
