58 248
64 256
68 246
74 257
78 246
80 265
82 275
84 285
88 246
89 294
94 303
98 246
100 311
104 430
106 319
107 440
108 246
110 102
110 112
110 122
110 132
110 422
111 142
111 328
112 88
112 152
114 162
116 72
116 172
116 337
116 445
118 246
118 416
120 62
120 182
121 346
123 192
123 407
125 356
126 52
126 445
128 201
128 220
128 230
128 240
128 366
129 399
131 376
132 44
132 386
136 447
140 38
146 447
149 33
156 447
159 30
166 449
168 35
176 447
177 40
186 447
187 40
196 447
197 40
206 445
207 40
213 408
216 418
216 445
217 40
217 398
223 388
224 424
225 440
227 40
228 379
232 369
236 359
237 35
239 346
243 332
246 30
248 323
254 315
256 34
262 309
264 40
270 303
272 46
278 295
280 52
285 61
286 287
287 71
289 81
289 91
291 101
291 111
291 278
293 121
293 131
293 141
295 151
295 161
295 171
295 266
297 181
297 191
298 247
299 201
299 211
299 221
299 231
