72 110
74 84
74 94
74 120
74 130
74 210
74 220
74 230
74 240
74 250
75 140
76 150
76 182
76 192
77 260
78 68
78 160
78 170
80 270
82 58
82 280
88 48
88 288
94 296
96 40
101 304
104 34
109 310
114 30
117 317
122 326
124 28
124 336
126 346
126 432
128 356
130 36
130 366
131 423
131 441
134 376
138 386
139 417
140 38
141 445
142 396
144 406
150 38
151 447
160 38
161 447
170 38
171 447
180 38
181 449
190 38
191 447
200 34
201 447
208 28
211 447
215 378
215 388
216 398
218 30
219 364
221 445
222 406
223 354
227 35
227 344
227 415
231 443
232 335
235 41
235 422
237 326
240 437
243 48
243 318
244 193
245 203
245 213
245 223
245 233
245 243
248 57
248 183
249 308
251 172
253 66
255 76
255 156
255 246
255 300
257 86
257 146
259 96
259 106
259 122
259 132
260 291
265 246
265 278
267 268
273 258
275 246
283 252
