84 92
84 102
84 112
84 122
84 132
85 142
86 80
86 152
86 246
86 256
89 162
90 68
91 265
92 172
92 216
92 226
92 236
94 58
94 186
94 196
94 206
94 275
98 285
100 50
103 294
108 42
108 303
114 311
116 36
120 319
122 428
123 438
125 328
126 32
130 337
130 422
131 444
134 347
136 30
136 414
138 357
140 367
141 405
141 445
142 377
144 37
146 387
147 397
151 447
154 40
161 447
164 40
171 447
174 40
181 447
184 40
191 447
194 40
201 447
204 40
207 388
207 398
211 372
211 446
213 35
213 406
215 356
218 415
219 346
221 444
222 30
223 336
225 423
229 326
229 438
232 33
235 318
241 38
241 308
247 300
249 44
252 291
255 52
257 280
259 180
259 190
259 200
260 210
261 60
261 220
261 230
261 240
261 266
263 166
264 70
266 257
267 80
267 150
269 90
269 134
271 100
271 110
271 120
