72 248
77 257
82 246
86 262
90 272
92 246
92 282
96 98
96 108
96 118
96 128
96 138
96 292
98 86
98 148
100 76
100 158
102 168
102 246
102 300
104 66
105 178
107 309
109 57
109 188
110 230
110 240
112 198
112 208
112 218
113 317
114 48
116 428
117 438
118 326
122 40
124 334
124 422
126 443
128 344
130 412
131 35
132 354
136 364
136 402
136 446
138 374
140 384
141 31
142 394
146 447
151 28
156 37
156 447
166 40
166 447
176 40
176 449
186 40
186 447
196 40
196 447
206 40
206 447
213 398
213 408
216 40
216 445
217 388
217 418
221 378
225 364
226 34
226 423
226 441
229 348
231 336
231 432
235 324
236 30
241 316
246 34
249 308
255 39
257 300
263 45
265 292
269 53
271 284
274 62
276 275
277 72
279 148
279 158
279 168
279 178
279 264
280 82
280 247
281 92
281 132
281 188
281 198
281 208
283 102
283 112
283 122
283 218
283 228
