509 505
520 528
532 550
539 574
564 580
587 570
612 565
637 560
660 550
685 550
708 560
731 570
755 577
777 590
799 602
823 610
843 625
868 625
893 620
918 620
943 618
968 615
993 608
1018 605
1043 600
1068 595
1093 590
1118 585
1143 580
1167 589
1187 604
1207 619
1229 631
1249 646
1270 660
1293 670
1318 665
1343 665
1368 660
1391 650
1416 645
1441 645
1462 629
1442 614
1435 590
1430 565
1425 540
1440 520
1459 502
1471 480
1483 458
1492 434
1507 414
1510 388
1498 366
1486 344
1461 344
1436 350
1411 354
1388 364
1364 372
1339 379
1318 365
1298 350
1274 341
1252 329
1232 314
1208 305
1183 304
1158 309
1133 314
1108 319
1084 327
1059 334
1034 334
1009 334
984 334
959 334
934 334
909 334
884 334
859 334
835 327
815 312
803 290
780 279
757 269
732 264
707 264
682 264
657 264
632 264
607 264
589 282
589 307
594 332
604 355
592 394
574 412
554 427
535 446
517 464
499 482
