269 1257
269 1232
284 1207
304 1192
319 1167
331 1145
346 1125
364 1107
382 1089
386 1049
384 1024
381 999
374 975
364 952
359 927
383 919
408 919
432 909
457 909
482 909
507 909
532 909
552 924
572 939
590 957
614 966
638 975
658 990
678 1005
703 1009
728 1004
753 999
778 994
803 989
828 989
853 984
878 979
903 974
928 969
953 964
978 959
1001 949
1025 941
1049 934
1070 948
1090 964
1110 979
1130 994
1150 1009
1165 1029
1188 1039
1213 1034
1238 1034
1263 1029
1288 1029
1312 1019
1337 1019
1362 1014
1387 1019
1395 1043
1400 1068
1405 1093
1410 1118
1403 1158
1390 1180
1378 1208
1365 1230
1347 1249
1329 1267
1310 1285
1317 1309
1329 1331
1337 1355
1337 1390
1312 1395
1287 1400
1263 1408
1239 1415
1214 1420
1191 1430
1166 1430
1143 1420
1119 1412
1099 1397
1077 1385
1055 1372
1030 1370
1005 1370
980 1375
955 1380
930 1380
905 1380
880 1385
855 1385
830 1385
805 1385
780 1390
755 1395
730 1400
706 1410
681 1404
660 1390
637 1379
615 1367
591 1360
569 1347
547 1335
524 1325
499 1325
474 1330
449 1335
424 1337
399 1340
374 1340
349 1345
324 1345
299 1350
284 1330
284 1305
274 1282
