309 477
309 452
314 407
326 385
339 362
357 344
379 332
401 319
424 309
447 299
469 287
479 252
479 227
497 209
517 194
542 189
567 189
585 207
610 209
635 214
660 209
684 216
706 229
718 251
725 275
720 300
705 325
690 345
690 370
690 410
680 455
670 495
670 520
670 545
670 570
670 595
675 620
699 627
711 605
724 577
739 557
754 532
769 512
779 482
789 457
789 432
799 407
809 367
819 332
831 310
840 286
854 262
872 244
892 229
914 217
938 209
963 204
988 209
1013 209
1036 219
1056 234
1071 254
1083 276
1095 298
1095 323
1100 348
1110 371
1115 396
1122 420
1144 407
1154 367
1164 332
1169 292
1187 274
1199 252
1214 232
1234 217
1256 205
1281 199
1304 189
1329 189
1354 191
1376 204
1396 219
1414 237
1425 260
1435 283
1440 308
1445 333
1454 357
1455 382
1455 407
1460 432
1468 456
1486 474
1504 492
1520 512
1535 532
1547 554
1560 576
1570 599
1580 622
1592 644
1604 666
1612 690
1625 712
1630 737
1635 762
1640 787
1644 812
1645 837
1650 862
1654 887
1655 912
1655 937
1655 962
1655 1000
1632 1010
1617 990
1604 968
1594 945
1589 920
1588 895
1565 905
1560 930
1550 965
1540 995
1525 1025
1525 1050
1530 1075
1525 1100
1520 1125
1510 1155
1495 1180
1485 1205
1475 1250
1465 1275
1458 1303
1445 1325
1445 1350
1452 1374
1450 1400
1431 1420
1407 1429
1384 1440
1360 1432
1335 1435
1310 1435
1285 1435
1260 1435
1235 1435
1210 1435
1187 1425
1169 1407
1169 1382
1189 1367
1211 1354
1236 1354
1260 1346
1285 1347
1309 1339
1334 1337
1344 1307
1344 1282
1339 1257
1344 1211
1344 1186
1344 1161
1332 1139
1315 1120
1296 1103
1278 1085
1263 1065
1248 1045
1233 1025
1209 1032
1189 1047
1169 1062
1145 1070
1120 1070
1095 1075
1070 1080
1045 1085
1022 1095
999 1105
975 1097
950 1095
926 1105
902 1114
884 1132
864 1147
845 1165
830 1185
830 1210
825 1235
815 1280
820 1305
827 1329
830 1360
817 1394
797 1409
772 1410
749 1420
726 1430
701 1435
676 1440
651 1435
626 1435
601 1433
576 1430
551 1424
529 1412
509 1397
509 1372
527 1354
552 1349
577 1344
602 1339
624 1322
634 1292
644 1262
654 1235
649 1210
625 1202
603 1190
579 1182
555 1175
532 1165
509 1155
489 1140
465 1132
450 1112
432 1094
407 1090
392 1070
384 1046
374 1023
370 998
359 975
354 950
344 927
344 902
344 877
344 837
339 812
339 787
344 747
339 722
339 697
339 672
339 647
357 629
369 607
384 582
394 552
391 525
366 524
344 512
324 497
