274 457
269 432
284 412
299 382
309 337
329 322
349 307
373 299
398 294
423 289
448 284
463 264
474 217
492 199
507 179
529 167
554 171
578 164
598 149
621 159
636 179
659 189
684 189
703 206
715 228
715 253
737 265
740 290
747 314
755 338
740 370
754 391
755 440
735 460
740 485
745 510
745 535
733 558
710 570
720 593
730 616
725 655
732 679
744 701
769 699
793 706
818 709
838 694
858 679
873 659
885 636
904 619
926 605
939 582
957 564
972 544
992 529
1014 517
1034 502
1059 499
1080 513
1085 538
1107 524
1132 519
1157 519
1182 524
1205 534
1225 549
1245 564
1265 579
1280 599
1285 624
1290 649
1303 671
1310 695
1320 718
1329 742
1344 762
1355 785
1369 806
1380 829
1393 851
1408 871
1420 893
1425 918
1430 943
1435 968
1435 993
1433 1033
1420 1055
1427 1079
1435 1103
1440 1128
1440 1155
1433 1188
1420 1210
1404 1232
1380 1240
1363 1260
1343 1245
1323 1230
1308 1210
1299 1102
1314 1082
1333 1064
1356 1054
1359 1000
1342 1019
1324 1037
1309 1057
1290 1075
1275 1095
1275 1120
1280 1145
1285 1170
1285 1195
1285 1220
1292 1244
1307 1264
1320 1286
1334 1307
1335 1332
1335 1370
1335 1395
1342 1419
1350 1443
1355 1468
1360 1493
1365 1518
1374 1542
1380 1567
1384 1592
1379 1632
1357 1645
1334 1655
1309 1660
1284 1660
1259 1665
1234 1660
1211 1649
1194 1630
1184 1607
1202 1589
1220 1571
1242 1559
1267 1554
1289 1542
1289 1500
1284 1475
1279 1450
1269 1427
1259 1404
1254 1379
1237 1360
1219 1342
1209 1319
1204 1294
1204 1269
1194 1246
1184 1223
1174 1200
1164 1177
1140 1170
1128 1198
1115 1220
1105 1250
1103 1293
1090 1315
1075 1340
1060 1360
1050 1385
1040 1415
1034 1442
1022 1464
1013 1488
1000 1510
992 1539
967 1540
949 1522
949 1497
954 1467
954 1442
954 1417
959 1382
974 1357
979 1327
974 1302
989 1277
1001 1255
1019 1237
1029 1212
1039 1187
1051 1165
1040 1130
1015 1130
990 1125
965 1125
940 1127
915 1125
890 1130
890 1155
890 1180
892 1205
900 1229
923 1240
938 1260
935 1290
935 1315
930 1355
930 1380
925 1405
925 1430
925 1455
920 1490
920 1515
906 1545
881 1544
869 1522
869 1480
864 1455
859 1430
849 1407
844 1382
844 1357
826 1339
806 1324
799 1300
789 1277
801 1255
795 1215
780 1235
768 1263
755 1285
740 1305
735 1330
717 1369
699 1387
684 1407
665 1425
655 1465
645 1495
635 1525
625 1555
615 1580
605 1605
602 1639
582 1655
557 1655
532 1660
507 1665
484 1675
459 1680
434 1677
416 1659
401 1639
389 1617
404 1597
422 1579
446 1570
469 1559
489 1542
507 1524
525 1506
539 1477
554 1452
572 1434
590 1416
599 1387
604 1342
616 1320
629 1292
639 1257
649 1232
664 1207
679 1187
694 1167
709 1142
721 1120
726 1095
707 1075
682 1070
662 1055
637 1055
612 1060
590 1048
579 1025
564 1005
539 1005
514 1000
494 985
484 962
484 937
469 917
464 892
462 865
444 847
444 822
439 782
439 757
439 732
434 707
429 672
429 647
419 607
431 585
444 562
459 542
476 508
451 510
428 520
403 525
378 525
353 520
335 502
316 485
294 472
