209 212
209 187
224 167
249 164
274 164
299 159
324 159
349 159
374 159
399 159
424 159
449 159
474 159
499 159
524 159
549 154
574 154
599 154
624 154
649 154
674 154
699 149
724 149
749 149
774 149
799 149
824 149
849 149
874 149
899 149
924 149
949 149
974 149
999 149
1024 149
1049 149
1074 149
1099 149
1124 149
1147 139
1172 144
1197 144
1222 144
1247 149
1272 144
1297 144
1322 144
1347 144
1372 144
1397 144
1422 144
1447 144
1472 144
1497 144
1522 144
1547 149
1572 149
1597 149
1622 154
1647 154
1672 154
1697 154
1722 154
1747 154
1765 172
1770 197
1770 222
1775 247
1780 272
1780 297
1780 322
1780 347
1785 372
1785 397
1785 422
1785 447
1780 475
1780 500
1780 540
1780 565
1775 590
1770 635
1750 650
1725 650
1700 650
1675 650
1650 650
1625 650
1602 660
1577 660
1552 660
1527 660
1502 660
1477 660
1452 660
1427 660
1402 660
1377 660
1352 660
1327 660
1302 660
1277 660
1252 660
1227 660
1202 660
1177 660
1152 660
1127 655
1102 650
1077 650
1052 650
1027 650
1002 645
979 655
954 655
929 660
904 655
879 655
854 650
829 655
804 660
779 657
755 650
730 645
705 640
680 645
657 655
632 650
607 650
582 645
557 645
534 635
509 635
486 625
466 609
454 587
449 562
444 537
439 512
439 487
434 462
434 437
434 412
434 387
434 362
434 337
439 302
444 272
426 250
401 250
376 245
351 245
326 243
301 240
276 240
251 238
227 230
