99 507
99 532
124 507
136 485
156 470
179 480
202 490
220 508
240 523
262 535
287 540
310 550
333 560
358 565
383 570
408 570
431 560
453 548
477 540
497 525
522 530
534 552
559 552
578 535
600 520
605 485
605 459
601 434
576 431
552 424
527 420
505 408
484 394
459 389
440 372
425 352
407 334
387 319
380 295
403 283
423 268
441 250
453 228
455 193
450 168
435 148
423 126
411 104
396 84
376 69
351 64
326 64
301 70
279 82
257 94
239 112
224 132
224 157
229 182
218 229
203 249
179 257
174 287
174 312
162 339
138 349
109 317
114 342
109 372
94 392
118 399
133 379
157 370
173 444
148 440
124 432
120 461
111 485
