199 552
194 527
206 505
219 482
239 467
249 425
234 405
219 385
209 362
204 337
214 307
232 289
252 274
275 264
300 264
325 267
350 272
372 284
392 299
407 319
410 344
410 370
412 395
405 425
395 455
409 476
420 499
425 524
430 565
432 590
444 612
450 637
458 661
470 683
475 708
485 731
479 757
460 775
450 810
430 825
430 850
428 878
415 900
410 925
400 970
390 1000
407 1019
429 1031
453 1039
459 1072
434 1077
412 1090
387 1095
362 1095
337 1095
312 1089
287 1085
269 1067
269 1042
279 1007
274 982
269 957
264 932
276 910
289 885
289 860
274 840
255 823
249 798
239 775
234 750
232 725
229 700
219 677
214 652
209 627
209 602
204 577
