519 1060
553 1065
581 1065
609 1065
634 1065
659 1060
684 1055
708 1048
732 1040
757 1035
782 1030
807 1025
832 1020
857 1019
882 1015
907 1009
920 965
945 960
970 960
995 955
1020 955
1045 950
1070 945
1095 940
1120 935
1145 935
1170 930
1195 930
1219 922
1225 885
1218 861
1205 839
1182 829
1165 810
1190 805
1213 793
1233 778
1253 763
1275 750
1294 732
1318 723
1342 715
1365 705
1388 695
1411 685
1425 649
1402 639
1377 639
1352 639
1328 649
1303 654
1278 654
1253 659
1228 659
1203 659
1178 659
1153 659
1128 659
1104 651
1090 630
1115 625
1138 615
1145 581
1135 558
1114 544
1089 544
1068 530
1043 529
1018 529
993 524
968 524
943 524
920 513
915 488
910 463
900 440
923 428
935 392
917 374
892 379
872 394
847 399
822 399
797 399
797 435
822 440
847 445
862 474
866 505
864 544
839 544
814 549
789 546
764 544
739 544
714 544
689 549
670 566
655 586
637 604
616 619
596 635
581 655
569 677
559 712
549 757
539 782
534 807
529 832
529 857
529 882
529 907
547 925
572 930
595 940
620 945
645 950
670 955
674 980
668 1024
643 1029
620 1039
595 1044
567 1044
539 1044
509 1037
