499 1042
499 1017
517 999
542 1004
550 1028
573 1039
598 1039
623 1034
648 1029
672 1019
679 990
675 965
650 965
625 965
600 965
577 955
552 950
529 940
519 917
519 892
519 867
519 842
529 817
529 792
534 767
544 727
549 702
561 680
576 660
591 640
606 620
624 602
646 589
669 577
693 569
718 564
741 554
766 549
789 539
814 539
839 532
857 505
839 487
842 455
817 455
799 437
811 415
836 409
861 409
886 409
911 409
936 409
924 432
900 440
917 459
920 495
927 519
952 524
977 529
1002 534
1027 534
1052 534
1077 539
1092 559
1117 559
1142 559
1160 577
1160 602
1147 624
1123 633
1100 645
1117 664
1140 674
1165 674
1190 674
1215 674
1240 669
1265 669
1290 666
1314 657
1338 649
1361 639
1384 629
1409 624
1434 624
1453 648
1441 670
1421 685
1397 694
1373 703
1350 715
1328 728
1305 740
1283 753
1259 762
1235 770
1212 780
1188 788
1165 800
1165 825
1182 844
1207 849
1215 873
1227 895
1220 925
1195 930
1170 930
1145 930
1120 930
1095 930
1070 930
1045 930
1020 935
995 935
970 935
945 940
925 955
927 980
935 1004
915 1020
890 1025
865 1025
840 1025
815 1030
790 1030
765 1030
740 1035
715 1040
690 1045
665 1050
641 1060
618 1070
593 1070
568 1070
543 1065
519 1057
