506 1015
494 1037
506 1059
529 1070
554 1070
579 1070
604 1070
629 1065
654 1060
679 1055
704 1052
729 1050
754 1045
779 1040
804 1035
829 1030
854 1025
879 1020
904 1020
927 1009
935 965
960 960
985 960
1010 960
1035 960
1060 960
1085 960
1110 955
1135 950
1160 945
1183 935
1208 930
1231 920
1230 875
1228 850
1205 839
1182 849
1175 825
1195 810
1218 800
1241 790
1263 778
1283 763
1305 750
1325 735
1349 727
1369 712
1391 700
1415 690
1440 685
1459 667
1448 644
1423 644
1398 649
1373 654
1349 662
1324 667
1299 669
1274 674
1249 674
1224 674
1199 674
1174 674
1149 674
1124 671
1109 651
1095 630
1123 630
1148 625
1167 600
1158 576
1146 554
1126 539
1101 539
1076 539
1051 544
1026 544
1001 544
976 544
951 544
926 544
905 530
905 505
928 494
922 469
905 450
928 438
918 404
893 404
868 409
843 414
819 422
799 437
809 460
829 475
854 475
869 495
864 522
849 542
825 551
800 554
775 556
750 559
725 564
702 574
677 579
655 591
635 606
615 621
597 639
579 657
566 685
554 707
544 732
534 762
524 792
514 827
514 852
514 877
514 902
514 927
532 945
555 955
578 965
603 970
628 970
653 970
678 970
679 1007
659 1022
636 1034
611 1039
586 1045
555 1043
550 1018
529 1004
