249 887
249 862
264 842
286 829
311 824
336 824
361 819
374 792
386 770
404 752
429 749
454 742
464 702
469 677
484 657
506 644
531 639
555 631
579 624
604 624
629 624
654 624
679 624
704 624
729 624
754 626
779 629
804 629
829 624
854 624
879 624
903 631
928 634
953 634
969 592
969 567
969 542
969 517
969 492
988 459
1013 454
1038 449
1063 444
1088 439
1113 439
1138 434
1163 429
1188 429
1213 429
1238 429
1263 424
1288 419
1313 419
1338 419
1363 419
1388 419
1413 419
1438 419
1463 419
1488 419
1513 419
1538 419
1563 419
1588 419
1613 419
1638 419
1663 419
1688 419
1713 419
1738 419
1763 419
1788 419
1813 419
1838 420
1862 429
1887 434
1907 449
1915 473
1920 498
1920 523
1925 548
1925 573
1925 598
1920 630
1920 655
1925 680
1932 704
1957 709
1982 714
2005 724
2028 735
2048 750
2060 772
2070 795
2077 819
2085 843
2090 868
2090 893
2095 918
2104 942
2105 967
2105 992
2090 1012
2065 1010
2040 1010
2015 1015
2008 1048
1995 1070
1980 1095
1963 1118
1943 1133
1920 1145
1895 1150
1870 1150
1845 1145
1821 1138
1799 1126
1779 1111
1764 1091
1749 1071
1727 1059
1704 1070
1679 1072
1657 1084
1632 1089
1607 1090
1582 1085
1557 1079
1533 1070
1508 1075
1483 1075
1458 1080
1433 1080
1408 1075
1383 1075
1358 1075
1333 1075
1308 1075
1283 1075
1258 1075
1233 1075
1208 1075
1183 1075
1158 1075
1133 1075
1108 1075
1083 1075
1058 1075
1033 1070
1008 1070
983 1070
958 1070
933 1070
908 1070
883 1065
858 1065
833 1065
808 1065
783 1060
758 1060
748 1083
735 1105
720 1125
702 1149
682 1164
659 1175
636 1185
611 1190
586 1188
561 1183
537 1175
515 1163
495 1148
477 1130
457 1115
432 1120
407 1125
382 1120
359 1110
336 1099
316 1084
301 1064
289 1042
274 1022
274 997
274 972
274 947
261 909
