289 862
289 887
289 912
289 937
301 959
289 992
279 1037
304 1040
325 1010
325 985
344 1027
344 1052
354 1075
361 1099
374 1121
392 1139
412 1154
436 1163
461 1165
486 1160
511 1155
531 1140
551 1125
566 1105
575 1080
600 1080
625 1075
650 1075
675 1075
699 1082
721 1094
744 1105
764 1120
787 1130
812 1135
837 1130
862 1125
885 1115
905 1100
925 1085
950 1090
975 1090
1000 1095
1025 1095
1050 1095
1075 1095
1100 1095
1125 1095
1150 1095
1175 1095
1200 1095
1225 1095
1250 1095
1275 1095
1300 1095
1325 1095
1350 1095
1375 1095
1400 1095
1425 1090
1450 1085
1475 1085
1500 1090
1525 1090
1550 1090
1564 1111
1576 1133
1588 1155
1604 1175
1624 1190
1644 1205
1667 1215
1692 1220
1717 1220
1742 1215
1767 1209
1787 1194
1807 1179
1822 1159
1834 1137
1858 1130
1879 1144
1899 1160
1922 1170
1947 1175
1972 1180
1997 1175
2022 1169
2043 1155
2063 1138
2078 1118
2085 1090
2100 1055
2100 1015
2100 989
2095 964
2084 941
2100 919
2084 899
2053 891
2031 879
2010 865
2014 831
1999 811
1977 799
1952 799
1928 809
1905 798
1897 774
1882 754
1864 736
1840 729
1815 729
1790 729
1765 729
1740 729
1715 729
1690 729
1665 729
1640 729
1615 724
1590 724
1565 724
1540 724
1515 724
1490 724
1465 724
1440 719
1415 714
1395 699
1390 674
1390 649
1390 624
1390 599
1390 574
1408 556
1384 549
1359 544
1334 539
1309 536
1284 534
1259 529
1234 524
1209 524
1184 519
1159 519
1134 519
1109 516
1084 514
1059 514
1034 514
1009 514
984 511
959 509
934 509
909 509
884 509
859 509
834 509
809 509
784 514
759 514
734 519
709 519
684 519
659 519
634 519
609 519
584 519
559 519
534 519
509 524
484 524
459 524
434 524
410 531
386 539
361 539
339 552
324 572
324 597
324 622
329 647
329 672
319 697
319 722
324 747
329 772
317 814
299 832
