54 457
54 432
78 424
99 410
74 387
69 362
91 349
116 349
124 312
124 287
136 265
156 250
179 227
174 202
174 177
179 152
197 134
217 119
242 114
266 105
291 104
316 99
341 95
366 94
391 94
416 94
441 94
466 94
491 99
516 99
541 104
566 109
591 114
616 119
641 124
666 129
691 134
715 142
739 149
763 156
787 164
810 174
835 179
858 189
880 202
895 222
895 247
900 272
900 297
920 312
944 321
966 334
989 344
1012 354
1035 364
1058 374
1081 384
1104 394
1125 408
1149 416
1169 431
1191 444
1209 462
1220 485
1243 495
1266 485
1291 479
1314 489
1339 494
1363 501
1385 513
1405 529
1420 549
1425 585
1405 610
1429 617
1449 602
1471 589
1496 594
1505 618
1493 653
1473 668
1450 680
1428 695
1407 709
1392 729
1374 747
1354 762
1332 774
1308 783
1283 785
1258 785
1233 780
1209 787
1185 795
1161 805
1139 817
1115 825
1091 835
1066 840
1041 840
1029 862
1014 882
995 900
973 915
950 925
925 925
900 925
876 918
856 903
839 884
824 864
817 840
809 816
799 793
795 768
794 743
794 718
776 700
753 710
728 710
703 710
680 700
657 690
632 690
607 685
582 685
559 675
535 667
511 658
487 649
463 640
439 632
417 620
392 614
368 605
344 597
325 615
305 630
280 635
255 640
230 635
209 621
189 606
176 584
169 560
159 537
146 515
122 524
97 530
79 512
107 495
84 485
59 482
