214 407
209 382
221 360
241 345
266 344
291 339
316 339
341 339
366 339
391 334
416 334
441 330
466 329
491 329
516 329
541 329
566 329
591 329
616 329
641 329
666 329
691 329
716 329
741 329
766 329
791 329
816 329
841 329
866 329
891 329
916 329
941 329
966 329
991 329
1016 329
1041 329
1066 329
1091 329
1116 329
1141 329
1166 329
1191 329
1216 329
1241 329
1265 337
1275 365
1282 389
1290 413
1295 438
1315 453
1340 449
1365 449
1390 444
1415 449
1440 449
1465 454
1488 464
1510 477
1534 486
1556 499
1574 517
1590 537
1605 557
1620 577
1630 600
1640 623
1649 647
1655 672
1660 697
1665 722
1670 747
1670 772
1675 797
1670 845
1670 870
1665 895
1660 925
1650 970
1640 1000
1630 1025
1619 1052
1607 1074
1592 1094
1577 1114
1559 1132
1540 1150
1520 1165
1500 1180
1478 1193
1455 1205
1430 1210
1406 1220
1381 1225
1356 1225
1331 1225
1306 1220
1284 1207
1284 1182
1284 1157
1289 1122
1313 1114
1335 1127
1357 1139
1382 1139
1407 1134
1427 1119
1447 1104
1465 1086
1484 1067
1499 1047
1514 1027
1526 1005
1539 972
1549 947
1559 907
1564 882
1569 843
1569 818
1569 793
1569 768
1569 743
1564 718
1559 693
1554 668
1544 645
1539 620
1529 597
1514 577
1499 557
1480 540
1457 530
1432 530
1407 530
1383 538
1361 550
1343 568
1323 583
1298 588
1285 610
1285 635
1285 660
1285 685
1285 710
1285 735
1285 760
1285 785
1285 810
1285 835
1285 860
1285 885
1280 920
1280 945
1280 970
1280 995
1280 1030
1270 1060
1265 1105
1260 1150
1255 1190
1250 1235
1250 1260
1250 1285
1250 1310
1250 1335
1245 1360
1240 1385
1230 1410
1230 1435
1217 1464
1199 1482
1180 1500
1158 1513
1135 1525
1110 1530
1086 1540
1062 1549
1037 1555
1012 1560
987 1565
962 1569
937 1570
912 1575
887 1580
862 1580
837 1585
812 1585
787 1585
762 1590
737 1590
712 1590
687 1590
662 1590
637 1585
612 1585
587 1584
562 1580
537 1575
512 1574
487 1570
464 1560
439 1555
415 1547
391 1538
369 1525
346 1514
326 1499
311 1479
299 1457
294 1432
289 1407
289 1382
284 1357
279 1332
274 1307
269 1282
269 1257
264 1232
259 1207
259 1182
254 1157
254 1132
249 1107
249 1082
244 1057
244 1032
239 1007
239 982
239 957
234 932
234 907
234 882
234 857
229 832
229 807
224 782
224 757
224 732
224 707
224 682
219 657
219 632
219 607
214 582
214 557
214 532
214 507
214 482
214 457
214 432
