314 577
314 552
339 549
364 554
389 554
414 559
439 564
464 564
489 569
514 574
539 574
564 579
589 579
614 584
639 584
664 589
689 589
714 594
739 594
764 594
789 599
814 599
839 604
864 604
889 604
914 609
939 609
964 609
989 614
1014 614
1039 614
1064 614
1089 619
1114 619
1139 619
1164 619
1189 619
1214 619
1239 619
1264 624
1289 621
1314 622
1339 624
1364 621
1389 622
1414 624
1439 621
1464 622
1489 624
1514 621
1539 622
1564 624
1589 619
1614 619
1639 619
1664 619
1689 619
1714 616
1739 617
1764 614
1789 614
1814 614
1839 609
1864 609
1889 609
1914 607
1939 604
1964 604
1989 602
2014 599
2039 599
2064 594
2089 594
2114 594
2139 589
2164 589
2189 584
2214 584
2239 579
2264 579
2289 574
2314 574
2339 569
2364 569
2389 564
2414 562
2439 559
2464 554
2489 552
2514 549
2539 551
2540 576
2540 610
2545 635
2540 660
2540 695
2540 720
2535 765
2530 810
2525 845
2520 870
2515 895
2505 930
2495 955
2485 980
2474 1007
2459 1027
2444 1047
2425 1065
2405 1080
2383 1093
2361 1105
2336 1110
2311 1115
2286 1115
2261 1120
2238 1130
2215 1140
2190 1145
2165 1150
2140 1155
2115 1155
2090 1160
2065 1160
2040 1160
2015 1160
1990 1160
1965 1155
1940 1155
1915 1155
1890 1150
1865 1150
1840 1145
1815 1140
1790 1140
1765 1135
1740 1130
1715 1125
1690 1120
1665 1115
1665 1145
1670 1170
1670 1200
1675 1225
1675 1250
1680 1275
1680 1300
1680 1335
1685 1360
1685 1395
1690 1420
1690 1445
1690 1470
1695 1495
1695 1520
1695 1545
1700 1570
1700 1595
1700 1630
1705 1655
1705 1680
1705 1705
1705 1745
1710 1770
1710 1795
1710 1820
1710 1845
1710 1870
1710 1895
1710 1920
1710 1945
1710 1970
1710 1995
1710 2020
1710 2045
1710 2070
1710 2095
1705 2140
1705 2165
1705 2190
1700 2215
1695 2260
1690 2300
1685 2325
1680 2350
1670 2390
1660 2415
1648 2443
1633 2463
1614 2480
1590 2487
1565 2485
1542 2474
1520 2462
1496 2453
1472 2445
1447 2440
1422 2440
1397 2440
1372 2445
1348 2453
1325 2465
1302 2475
1277 2475
1252 2475
1230 2463
1212 2445
1197 2425
1184 2403
1174 2380
1164 2357
1159 2332
1154 2307
1149 2282
1144 2257
1139 2232
1139 2207
1134 2182
1129 2157
1129 2132
1124 2077
1124 2052
1124 2027
1124 2002
1124 1977
1124 1952
1124 1927
1124 1902
1124 1877
1124 1852
1124 1827
1124 1802
1124 1777
1129 1717
1129 1692
1129 1667
1134 1612
1134 1587
1139 1537
1139 1512
1144 1452
1149 1392
1154 1342
1159 1272
1164 1247
1164 1222
1169 1177
1174 1140
1159 1120
1134 1125
1109 1130
1084 1135
1059 1140
1034 1140
1009 1145
984 1145
959 1150
934 1150
909 1150
884 1150
859 1150
834 1145
809 1145
784 1145
759 1140
734 1140
709 1135
684 1130
660 1122
635 1120
611 1113
587 1105
562 1100
537 1094
513 1085
491 1073
469 1061
449 1046
431 1028
416 1008
401 988
386 968
374 946
364 923
354 900
349 875
339 852
334 827
329 802
324 777
319 752
319 727
314 702
314 677
314 652
314 627
314 602
