424 1697
448 1705
473 1705
498 1700
523 1700
548 1695
573 1695
598 1690
623 1688
648 1685
673 1683
698 1680
723 1678
748 1675
773 1673
798 1670
823 1668
848 1665
873 1660
898 1660
923 1655
948 1655
973 1650
998 1650
1023 1645
1048 1645
1073 1640
1098 1640
1123 1638
1148 1635
1173 1633
1198 1630
1223 1625
1248 1625
1273 1620
1269 1662
1264 1697
1259 1732
1254 1767
1249 1807
1234 1912
1229 1952
1219 2022
1214 2062
1204 2132
1199 2172
1189 2242
1184 2282
1174 2352
1169 2392
1164 2427
1164 2452
1188 2443
1206 2425
1226 2410
1246 2395
1266 2380
1286 2365
1308 2353
1330 2340
1354 2332
1378 2325
1403 2320
1428 2315
1453 2315
1478 2320
1503 2325
1526 2335
1549 2345
1569 2360
1589 2375
1606 2394
1624 2412
1639 2432
1654 2452
1655 2410
1655 2380
1650 2355
1645 2330
1640 2305
1640 2280
1635 2255
1630 2230
1625 2205
1625 2180
1620 2155
1615 2130
1610 2105
1610 2080
1605 2055
1600 2030
1595 2005
1595 1980
1590 1955
1585 1930
1580 1905
1580 1880
1575 1855
1570 1830
1565 1805
1565 1780
1560 1755
1555 1730
1550 1705
1545 1680
1545 1650
1540 1625
1565 1630
1590 1630
1615 1635
1640 1635
1665 1640
1690 1640
1715 1642
1740 1645
1765 1650
1790 1650
1815 1650
1840 1655
1865 1657
1890 1660
1915 1662
1940 1665
1965 1665
1990 1670
2015 1670
2040 1675
2065 1675
2090 1680
2115 1680
2140 1685
2165 1685
2190 1685
2215 1690
2240 1695
2265 1695
2290 1700
2315 1700
2340 1702
2365 1705
2402 1709
2387 1689
2367 1674
2349 1656
2330 1639
2315 1619
2304 1596
2292 1574
2285 1550
2280 1525
2275 1500
2275 1475
2275 1450
2280 1425
2290 1395
2300 1365
2313 1343
2325 1315
2340 1290
2355 1270
2370 1250
2385 1225
2405 1206
2381 1199
2356 1199
2331 1204
2306 1204
2281 1209
2256 1209
2231 1214
2206 1214
2181 1219
2156 1219
2131 1220
2106 1224
2081 1229
2056 1229
2031 1230
2006 1234
1981 1234
1956 1239
1931 1239
1906 1244
1881 1244
1856 1249
1831 1249
1806 1250
1781 1254
1756 1255
1731 1259
1706 1259
1681 1264
1656 1265
1631 1269
1606 1269
1581 1274
1556 1274
1535 1260
1540 1230
1545 1195
1550 1165
1555 1130
1560 1100
1565 1070
1570 1035
1575 1005
1580 970
1585 940
1590 910
1595 875
1600 845
1605 815
1610 780
1615 750
1620 715
1625 685
1630 655
1635 620
1640 590
1645 555
1650 525
1655 495
1662 439
1644 457
1627 479
1609 497
1590 516
1570 531
1550 546
1528 559
1505 569
1480 574
1455 579
1430 579
1405 579
1380 574
1355 569
1332 559
1310 547
1288 535
1268 520
1245 509
1225 494
1208 475
1188 460
1164 442
1164 467
1169 492
1174 517
1179 542
1179 567
1184 592
1189 617
1189 642
1194 667
1199 692
1199 717
1204 742
1209 767
1214 792
1214 817
1219 842
1224 867
1224 892
1229 917
1234 942
1239 967
1239 992
1244 1017
1249 1067
1254 1092
1259 1117
1264 1172
1269 1197
1274 1222
1274 1247
1274 1284
1249 1279
1224 1276
1199 1274
1174 1271
1149 1269
1124 1266
1099 1264
1074 1261
1049 1259
1024 1256
999 1254
974 1251
949 1249
924 1246
899 1244
874 1244
849 1239
824 1239
799 1234
774 1234
749 1229
724 1229
699 1224
674 1224
649 1219
624 1219
599 1214
574 1214
549 1209
524 1209
499 1204
474 1204
449 1199
424 1202
439 1222
457 1240
472 1260
484 1282
499 1302
509 1325
519 1348
529 1371
534 1396
539 1421
539 1446
534 1492
529 1517
520 1551
511 1575
499 1597
487 1619
472 1639
457 1659
442 1679
