39 1292
41 1264
62 1249
86 1240
110 1231
132 1219
156 1210
181 1204
204 1194
227 1184
252 1179
276 1170
301 1164
326 1159
351 1154
375 1146
400 1141
425 1136
450 1134
475 1129
500 1124
525 1124
550 1119
575 1119
600 1119
625 1119
650 1116
675 1119
700 1119
725 1119
750 1119
775 1124
782 1100
757 1089
736 1075
716 1060
696 1045
673 1035
655 1017
635 1002
615 987
596 970
576 954
559 935
540 918
520 903
505 883
485 868
470 848
455 828
439 808
422 789
407 769
389 751
376 729
361 709
349 687
334 667
319 647
307 625
294 603
284 580
269 560
283 529
308 529
333 534
358 534
383 534
408 539
433 539
458 544
483 549
508 554
533 555
557 564
582 569
607 574
630 584
655 589
678 599
701 609
725 617
747 629
770 639
793 649
816 659
829 627
824 602
819 577
819 552
814 527
814 502
814 477
814 452
814 427
814 402
819 372
819 347
824 302
829 272
834 247
839 222
849 182
859 147
869 117
879 82
901 94
916 114
936 129
951 149
966 169
984 187
1000 207
1015 227
1030 247
1045 267
1060 287
1072 309
1087 329
1102 349
1110 373
1125 393
1137 415
1149 437
1160 460
1170 483
1180 506
1190 529
1200 552
1210 575
1220 598
1229 622
1235 647
1245 670
1250 695
1255 720
1260 745
1265 770
1284 752
1289 727
1299 692
1304 667
1314 637
1324 607
1336 585
1344 557
1354 532
1366 510
1379 477
1389 452
1404 422
1419 397
1434 377
1444 352
1459 332
1474 312
1486 290
1501 270
1516 250
1531 230
1546 210
1561 190
1579 172
1594 152
1609 132
1629 117
1644 97
1662 79
1674 101
1680 126
1690 149
1695 174
1700 199
1710 222
1714 247
1719 272
1720 297
1725 322
1729 347
1730 372
1730 397
1735 422
1735 447
1735 472
1735 497
1730 530
1730 555
1725 585
1720 620
1715 650
1739 657
1761 645
1785 636
1807 624
1830 614
1853 604
1878 599
1901 589
1925 581
1949 574
1974 567
1999 562
2023 554
2048 549
2073 544
2098 544
2123 539
2148 539
2173 534
2198 534
2223 534
2248 529
2273 529
2280 555
2265 580
2250 610
2235 630
2223 658
2208 678
2193 698
2178 718
2163 738
2149 760
2132 779
2117 799
2102 819
2087 839
2069 857
2050 875
2032 894
2014 912
1996 930
1976 945
1961 965
1941 980
1921 995
1903 1013
1883 1028
1860 1040
1840 1055
1820 1070
1798 1083
1778 1098
1755 1110
1776 1124
1801 1119
1826 1119
1851 1119
1876 1119
1901 1119
1926 1119
1951 1119
1976 1119
2001 1119
2026 1124
2051 1124
2076 1129
2101 1134
2126 1139
2151 1144
2176 1149
2201 1154
2226 1159
2251 1164
2275 1172
2299 1179
2323 1186
2347 1194
2370 1204
2394 1211
2418 1220
2440 1232
2464 1241
2488 1250
2509 1264
2505 1295
2485 1310
2463 1325
2443 1340
2420 1350
2400 1365
2378 1378
2356 1390
2333 1400
2310 1410
2286 1420
2264 1432
2240 1440
2217 1450
2193 1458
2169 1467
2145 1475
2120 1480
2095 1485
2070 1490
2045 1495
2020 1500
1995 1505
2005 1528
2023 1546
2041 1564
2059 1582
2075 1602
2090 1622
2108 1640
2123 1660
2138 1680
2150 1702
2165 1722
2177 1744
2190 1766
2200 1789
2213 1811
2225 1833
2235 1856
2245 1879
2255 1902
2265 1925
2275 1948
2280 1973
2273 2010
2248 2005
2223 2000
2198 1995
2173 1990
2148 1985
2124 1977
2100 1970
2076 1963
2052 1955
2027 1949
2005 1937
1981 1930
1958 1920
1935 1910
1912 1900
1889 1890
1869 1875
1846 1865
1823 1855
1801 1843
1781 1828
1759 1815
1739 1800
1719 1785
1696 1775
1676 1759
1656 1744
1636 1729
1619 1710
1599 1695
1565 1680
1575 1703
1584 1727
1590 1752
1602 1774
1610 1798
1619 1822
1625 1847
1630 1872
1640 1895
1645 1920
1650 1945
1655 1970
1660 1995
1665 2020
1670 2045
1672 2070
1675 2095
1677 2120
1680 2145
1680 2170
1680 2195
1685 2220
1680 2260
1680 2285
1680 2310
1680 2335
1675 2360
1675 2385
1670 2410
1667 2444
1651 2464
1631 2449
1611 2434
1591 2419
1571 2404
1554 2385
1534 2370
1515 2353
1497 2335
1479 2317
1461 2299
1444 2280
1429 2260
1410 2243
1395 2223
1384 2200
1369 2180
1354 2160
1338 2140
1326 2118
1314 2096
1301 2074
1289 2052
1268 2038
1255 2060
1243 2083
1230 2105
1216 2130
1201 2150
1189 2172
1174 2192
1159 2212
1144 2232
1125 2250
1110 2270
1095 2290
1077 2309
1062 2329
1042 2344
1024 2362
1006 2380
986 2395
966 2410
946 2425
928 2443
908 2458
884 2467
879 2442
879 2417
874 2392
874 2367
869 2342
869 2317
869 2292
869 2267
864 2242
864 2217
869 2172
869 2147
869 2122
874 2097
874 2072
879 2037
884 2007
889 1977
894 1952
899 1927
909 1892
919 1857
929 1822
939 1792
951 1770
959 1742
969 1717
976 1680
954 1692
936 1710
916 1725
896 1740
876 1755
858 1773
836 1785
816 1800
796 1815
773 1825
753 1840
730 1850
708 1863
685 1875
663 1888
641 1900
617 1909
594 1920
571 1930
546 1935
524 1947
500 1955
475 1960
452 1970
427 1975
404 1985
379 1990
354 1995
329 2000
304 2005
279 2010
254 2007
264 1977
274 1947
284 1917
296 1895
305 1871
317 1849
326 1825
339 1802
351 1780
364 1757
376 1735
391 1715
404 1692
419 1672
434 1647
452 1629
467 1609
485 1591
500 1571
519 1552
537 1534
545 1502
520 1500
495 1495
470 1490
445 1485
421 1478
397 1470
372 1465
349 1455
325 1447
301 1440
278 1430
256 1418
232 1409
210 1397
186 1388
164 1375
144 1360
121 1350
99 1337
79 1322
59 1307
