24 1257
34 1297
58 1305
83 1310
108 1315
133 1320
158 1320
183 1325
208 1325
233 1325
258 1325
283 1328
308 1328
333 1330
358 1330
383 1335
408 1340
433 1335
458 1340
483 1335
508 1330
533 1323
557 1315
582 1310
607 1305
632 1299
656 1290
681 1285
704 1275
729 1270
752 1260
777 1255
802 1254
788 1279
764 1287
744 1302
721 1315
701 1330
679 1344
660 1361
642 1379
622 1394
604 1412
585 1431
567 1449
549 1467
537 1489
519 1507
504 1527
489 1547
476 1575
464 1597
449 1627
439 1652
429 1677
419 1702
404 1722
394 1747
381 1770
369 1792
354 1812
339 1842
324 1867
294 1912
284 1937
271 1960
259 1982
244 2002
259 2025
284 2020
308 2013
330 2000
354 1992
376 1980
398 1968
420 1955
440 1940
460 1925
480 1910
503 1898
523 1883
545 1865
568 1855
590 1840
614 1832
633 1815
653 1800
673 1783
688 1763
706 1745
720 1720
739 1702
754 1682
770 1660
789 1642
804 1622
816 1600
835 1575
854 1557
872 1539
869 1577
856 1615
851 1640
839 1662
829 1692
819 1732
814 1757
809 1782
804 1817
799 1857
799 1882
799 1907
799 1932
799 1967
804 1992
809 2017
814 2042
819 2067
824 2092
829 2117
834 2142
839 2167
844 2192
844 2232
849 2257
854 2282
854 2307
854 2332
859 2357
864 2382
864 2407
864 2432
869 2457
874 2482
898 2473
916 2455
928 2433
940 2410
953 2388
965 2360
975 2330
988 2308
995 2275
1005 2250
1015 2220
1028 2198
1035 2165
1048 2143
1060 2115
1075 2095
1075 2070
1080 2045
1085 2020
1085 1995
1090 1970
1090 1945
1090 1915
1095 1875
1095 1850
1095 1825
1095 1795
1100 1750
1105 1720
1123 1740
1129 1765
1134 1790
1144 1813
1145 1838
1154 1862
1166 1884
1174 1908
1184 1931
1196 1953
1208 1975
1219 1998
1232 2020
1244 2042
1256 2064
1271 2084
1289 2102
1304 2122
1322 2140
1342 2155
1362 2170
1380 2188
1399 2205
1416 2224
1434 2242
1452 2260
1470 2278
1489 2295
1504 2315
1519 2335
1539 2350
1554 2370
1574 2385
1585 2408
1604 2425
1619 2445
1636 2464
1654 2482
1672 2500
1675 2465
1675 2419
1675 2394
1670 2369
1665 2344
1662 2319
1655 2295
1650 2270
1639 2247
1630 2223
1625 2198
1620 2173
1615 2148
1607 2124
1600 2100
1600 2071
1587 2049
1580 2025
1570 2002
1555 1982
1542 1960
1527 1940
1515 1918
1500 1898
1485 1878
1476 1854
1461 1834
1446 1814
1434 1792
1420 1771
1407 1749
1400 1725
1432 1744
1450 1762
1470 1777
1490 1792
1510 1807
1530 1822
1550 1837
1572 1849
1594 1861
1615 1875
1638 1885
1660 1897
1682 1909
1706 1918
1730 1925
1754 1932
1778 1940
1803 1945
1828 1950
1853 1950
1878 1950
1903 1955
1928 1960
1953 1960
1978 1965
2003 1970
2028 1970
2051 1980
2076 1980
2099 1990
2124 1990
2149 1995
2174 2000
2197 2010
2222 2014
2247 2015
2271 2023
2296 2028
2302 2000
2285 1981
2270 1961
2251 1944
2233 1926
2218 1906
2196 1894
2181 1874
2161 1859
2139 1846
2117 1834
2100 1815
2079 1801
2060 1784
2040 1769
2024 1749
2005 1732
1985 1717
1965 1702
1943 1690
1918 1684
1895 1674
1872 1664
1849 1654
1826 1644
1801 1639
1778 1629
1755 1619
1732 1609
1708 1601
1685 1591
1661 1584
1640 1570
1668 1560
1694 1567
1719 1565
1744 1570
1769 1570
1794 1570
1819 1567
1844 1570
1869 1565
1894 1560
1919 1557
1944 1552
1969 1547
1994 1542
2018 1535
2041 1525
2066 1520
2086 1505
2110 1495
2133 1483
2155 1470
2175 1455
2198 1445
2221 1435
2241 1420
2265 1410
2288 1400
2311 1390
2334 1380
2357 1369
2378 1355
2401 1345
2424 1335
2449 1330
2472 1319
2494 1307
2516 1295
2531 1264
2511 1249
2486 1249
2463 1239
2438 1239
2415 1229
2390 1229
2365 1227
2340 1224
2315 1226
2290 1227
2265 1224
2240 1226
2215 1224
2190 1224
2167 1214
2142 1214
2117 1209
2092 1214
2067 1214
2042 1219
2018 1229
1993 1234
1968 1239
1944 1247
1920 1254
1897 1264
1872 1264
1849 1274
1824 1279
1800 1286
1776 1294
1745 1290
1764 1272
1788 1263
1808 1248
1830 1235
1850 1220
1870 1205
1890 1190
1905 1170
1925 1155
1945 1140
1960 1120
1980 1105
1999 1087
2014 1067
2029 1047
2044 1027
2056 1005
2070 980
2085 950
2098 928
2105 900
2118 878
2125 850
2140 830
2150 805
2163 783
2175 760
2190 740
2200 715
2213 693
2228 673
2240 645
2255 625
2268 603
2280 580
2290 555
2292 524
2267 529
2242 534
2222 549
2197 554
2176 569
2153 579
2133 594
2113 609
2089 617
2071 635
2049 647
2026 665
2004 677
1983 694
1959 702
1936 719
1914 732
1894 747
1874 762
1857 789
1839 807
1822 829
1804 847
1789 867
1777 889
1759 907
1744 927
1725 951
1710 971
1695 991
1677 1009
1670 985
1685 945
1700 905
1710 875
1720 850
1725 815
1735 790
1735 765
1740 730
1745 705
1745 680
1750 638
1750 613
1745 588
1745 563
1745 538
1737 514
1730 490
1725 465
1720 440
1715 415
1710 390
1705 365
1702 340
1700 315
1700 290
1695 265
1690 240
1690 206
1688 181
1685 156
1683 131
1680 106
1675 81
1662 59
1647 79
1629 97
1614 122
1599 142
1586 170
1564 222
1554 247
1544 277
1531 315
1509 367
1499 392
1484 422
1454 532
1454 557
1454 582
1454 607
1449 632
1449 657
1449 682
1449 707
1449 732
1444 772
1445 797
1425 812
1420 787
1415 762
1405 739
1402 714
1395 690
1385 667
1375 644
1365 621
1352 599
1340 577
1330 554
1319 531
1307 509
1290 490
1275 470
1258 451
1243 431
1228 411
1208 396
1188 381
1169 364
1150 347
1132 329
1114 311
1095 294
1078 275
1060 257
1045 237
1027 219
1009 201
994 181
975 164
960 144
945 124
929 104
910 87
894 67
874 52
869 87
869 112
874 167
879 192
879 217
889 240
894 265
899 290
909 313
914 338
920 363
929 387
934 412
939 437
939 462
944 487
959 507
969 530
980 553
992 575
1004 597
1019 617
1034 637
1046 659
1061 679
1074 701
1089 721
1107 739
1115 763
1125 812
1107 794
1087 779
1069 761
1049 746
1027 734
1007 719
985 707
963 694
943 679
919 671
897 659
874 649
850 642
828 630
803 625
780 614
755 612
731 604
706 604
681 604
656 599
631 599
606 594
581 589
556 584
531 581
507 574
482 574
457 569
432 564
408 555
383 549
358 544
333 539
309 532
284 529
259 524
244 545
261 564
274 586
292 604
306 625
325 642
345 657
363 675
381 693
403 705
425 717
443 735
463 750
481 768
500 785
519 802
537 820
557 835
579 847
601 860
624 870
647 880
671 888
693 900
717 909
742 914
765 925
789 932
813 940
836 950
860 957
889 970
872 989
847 984
822 979
797 984
772 984
747 984
722 984
697 984
672 989
647 994
622 999
597 1004
572 1009
547 1014
522 1019
499 1029
476 1039
453 1049
430 1059
410 1074
387 1084
367 1099
345 1111
323 1124
300 1134
277 1144
254 1154
231 1165
207 1174
185 1186
163 1199
139 1207
116 1219
93 1229
68 1234
48 1249
