314 577
314 552
339 554
363 561
387 569
410 579
433 590
455 602
479 611
501 624
521 639
544 649
565 663
587 675
609 687
631 699
653 711
675 724
695 739
718 750
740 762
762 774
782 789
805 799
828 809
851 819
873 831
895 843
919 851
941 864
965 872
989 879
1012 889
1037 894
1060 904
1085 909
1108 919
1133 924
1158 929
1183 934
1208 939
1233 944
1258 945
1283 949
1308 949
1333 954
1358 954
1383 954
1408 954
1433 954
1458 954
1483 949
1508 949
1533 949
1558 944
1583 939
1608 934
1633 929
1658 924
1683 919
1707 909
1732 904
1756 895
1781 889
1805 881
1829 872
1853 864
1876 854
1899 844
1922 834
1944 822
1968 814
1990 801
2012 789
2034 777
2056 765
2079 754
2101 740
2124 729
2147 719
2167 704
2189 692
2211 679
2234 667
2256 654
2279 642
2301 630
2324 619
2347 609
2370 599
2393 589
2417 579
2441 570
2466 564
2490 556
2514 549
2539 551
2540 576
2540 601
2540 626
2535 660
2530 705
2525 735
2520 765
2510 805
2500 835
2490 865
2482 894
2473 918
2460 940
2450 965
2438 993
2425 1015
2414 1047
2402 1069
2393 1093
2380 1115
2370 1140
2348 1155
2323 1155
2298 1155
2273 1155
2248 1150
2223 1150
2198 1150
2173 1150
2148 1150
2123 1145
2098 1150
2073 1150
2048 1150
2023 1150
1998 1153
1973 1155
1948 1160
1923 1160
1898 1165
1873 1170
1849 1177
1825 1185
1800 1190
1776 1200
1753 1210
1730 1220
1708 1233
1686 1245
1663 1255
1643 1270
1624 1287
1605 1305
1590 1325
1575 1345
1563 1373
1550 1395
1540 1425
1530 1460
1525 1485
1520 1515
1515 1560
1515 1585
1515 1610
1515 1635
1515 1660
1515 1685
1520 1710
1520 1735
1525 1760
1525 1785
1530 1810
1530 1835
1535 1860
1540 1885
1545 1910
1547 1935
1550 1960
1555 1985
1560 2010
1565 2035
1570 2060
1575 2085
1582 2109
1585 2134
1590 2159
1600 2182
1604 2207
1596 2240
1571 2235
1546 2230
1521 2225
1496 2223
1471 2220
1446 2218
1421 2218
1396 2215
1371 2215
1346 2218
1321 2220
1296 2224
1284 2202
1294 2132
1304 2042
1314 1972
1319 1922
1324 1862
1324 1837
1329 1797
1329 1772
1334 1707
1334 1682
1334 1657
1334 1632
1329 1573
1329 1548
1324 1523
1319 1498
1315 1473
1309 1448
1304 1423
1294 1400
1284 1377
1276 1353
1264 1331
1249 1311
1234 1291
1216 1273
1196 1258
1174 1245
1151 1235
1128 1225
1105 1215
1082 1205
1057 1200
1034 1190
1009 1185
984 1180
959 1175
934 1172
909 1170
884 1167
859 1165
834 1165
809 1165
784 1165
759 1165
734 1165
709 1165
684 1165
659 1170
634 1170
609 1172
584 1175
559 1175
539 1160
534 1135
524 1112
514 1089
504 1066
494 1043
484 1020
474 997
462 975
449 953
438 930
426 908
414 886
404 863
393 840
379 819
372 795
360 773
354 748
344 725
339 700
329 677
324 652
319 627
319 602
