404 1302
409 1262
414 1232
419 1197
429 1157
439 1117
449 1087
459 1057
469 1032
479 1007
491 985
500 961
512 939
524 912
536 890
518 870
494 862
489 837
509 822
534 824
557 834
579 822
594 802
609 777
627 759
642 739
660 721
679 697
697 679
709 642
704 617
699 592
721 579
743 591
755 613
780 606
800 591
820 576
840 561
862 549
882 534
904 522
926 509
949 497
959 467
954 442
976 429
998 441
1013 461
1038 459
1061 449
1084 439
1109 432
1133 424
1158 419
1183 414
1208 409
1233 404
1258 399
1283 399
1308 394
1333 394
1358 394
1383 389
1408 390
1429 337
1454 336
1465 359
1465 384
1488 394
1513 399
1538 404
1563 404
1588 409
1613 415
1638 420
1662 429
1687 434
1710 444
1733 454
1758 460
1778 444
1793 424
1818 425
1824 462
1805 480
1826 494
1848 506
1870 518
1892 530
1913 544
1935 557
1955 572
1977 584
1997 599
2015 617
2035 632
2055 616
2067 594
2092 594
2105 616
2095 640
2080 665
2090 688
2108 706
2126 724
2141 744
2159 762
2174 782
2189 802
2204 822
2216 844
2230 865
2244 886
2255 909
2268 931
2280 953
2290 976
2312 989
2337 989
2355 1007
2340 1030
2315 1035
2322 1059
2330 1083
2339 1107
2345 1132
2350 1157
2355 1182
2363 1206
2365 1231
2370 1256
2373 1281
2375 1306
2380 1331
2380 1356
2380 1381
2380 1406
2380 1431
2375 1475
2370 1520
2365 1555
2365 1580
2355 1610
2345 1655
2335 1690
2325 1720
2315 1750
2305 1775
2295 1800
2285 1825
2273 1853
2260 1875
2245 1900
2230 1925
2216 1950
2204 1972
2189 1992
2174 2012
2159 2032
2140 2050
2122 2074
2104 2092
2085 2110
2067 2129
2049 2147
2030 2165
2010 2180
1990 2195
1970 2210
1967 2249
1942 2255
1918 2248
1895 2260
1874 2275
1851 2285
1831 2300
1807 2309
1784 2320
1761 2330
1738 2340
1715 2350
1690 2355
1690 2385
1671 2405
1649 2392
1634 2372
1610 2380
1585 2385
1560 2390
1535 2390
1510 2395
1485 2400
1460 2400
1435 2402
1410 2405
1385 2405
1360 2405
1345 2425
1324 2455
1300 2448
1299 2423
1288 2400
1263 2395
1238 2390
1213 2385
1188 2380
1163 2375
1140 2385
1124 2405
1099 2400
1067 2349
1043 2340
1020 2330
997 2320
974 2310
949 2307
931 2325
906 2324
894 2302
894 2267
872 2255
852 2240
832 2225
810 2213
790 2198
772 2180
752 2195
727 2200
721 2160
717 2129
697 2114
682 2094
664 2076
646 2058
631 2038
613 2020
599 1999
585 1978
570 1958
559 1935
544 1915
531 1893
519 1871
509 1848
499 1825
489 1802
477 1780
469 1756
459 1733
451 1709
444 1685
439 1660
429 1637
424 1612
419 1587
414 1562
409 1512
404 1462
404 1437
404 1412
404 1352
404 1327
