404 2377
412 2425
435 2415
458 2405
481 2395
504 2385
527 2375
550 2365
573 2353
595 2340
618 2330
641 2320
663 2308
685 2295
708 2285
731 2275
753 2263
777 2254
799 2242
823 2233
847 2224
871 2215
894 2205
918 2198
942 2190
967 2185
992 2180
1017 2175
1042 2170
1067 2169
1092 2165
1112 2180
1132 2195
1154 2207
1176 2219
1199 2230
1222 2240
1245 2250
1268 2260
1292 2269
1317 2275
1340 2285
1364 2292
1388 2300
1413 2305
1438 2310
1463 2315
1488 2320
1513 2325
1538 2325
1563 2325
1588 2325
1613 2320
1638 2315
1661 2305
1683 2293
1708 2295
1733 2300
1757 2309
1782 2314
1807 2319
1832 2324
1857 2325
1882 2330
1907 2330
1932 2335
1957 2335
1982 2340
2007 2340
2032 2340
2057 2340
2082 2340
2107 2340
2132 2340
2157 2340
2182 2335
2207 2335
2232 2335
2257 2334
2282 2330
2307 2329
2332 2325
2357 2324
2365 2296
2350 2276
2335 2256
2322 2234
2307 2214
2292 2194
2277 2174
2265 2152
2250 2132
2237 2110
2225 2088
2210 2068
2198 2046
2185 2024
2174 2001
2160 1980
2149 1957
2135 1936
2125 1913
2113 1891
2100 1869
2090 1846
2080 1823
2068 1801
2059 1777
2047 1755
2039 1731
2027 1709
2015 1687
2005 1664
1997 1640
1985 1618
1977 1594
1965 1572
1955 1549
1947 1525
1938 1501
1929 1477
1917 1455
1908 1431
1900 1407
1890 1384
1880 1361
1870 1338
1860 1315
1850 1292
1840 1269
1832 1245
1823 1221
1814 1197
1805 1173
1784 1159
1760 1152
1736 1144
1714 1132
1694 1117
1674 1102
1656 1084
1638 1066
1623 1046
1608 1026
1595 1004
1585 981
1575 958
1567 934
1560 910
1555 885
1555 860
1555 835
1555 810
1560 775
1570 745
1580 720
1595 695
1610 667
1605 642
1600 617
1595 592
1590 567
1584 542
1579 517
1570 493
1565 468
1557 444
1550 420
1540 397
1530 374
1525 349
1515 326
1505 303
1495 280
1485 257
1473 235
1449 242
1444 272
1439 312
1434 342
1429 372
1414 437
1404 472
1394 507
1384 537
1374 562
1364 587
1354 612
1344 637
1335 661
1326 685
1314 707
1304 732
1291 760
1279 782
1284 807
1289 832
1289 857
1289 882
1281 920
1276 945
1264 967
1251 990
1239 1012
1220 1031
1200 1046
1180 1061
1158 1074
1134 1082
1109 1084
1084 1087
1059 1092
1044 1112
1029 1132
1014 1157
999 1182
984 1202
971 1230
956 1250
944 1272
929 1292
916 1315
904 1337
889 1362
874 1387
859 1412
844 1442
831 1465
819 1487
806 1510
794 1532
781 1555
769 1577
756 1600
744 1622
729 1647
719 1672
706 1695
694 1717
681 1740
669 1762
656 1790
644 1812
631 1840
619 1862
604 1887
594 1912
581 1940
569 1962
556 1990
547 2014
535 2036
526 2060
514 2082
504 2107
494 2132
484 2157
474 2182
464 2207
454 2232
444 2262
434 2292
424 2317
414 2347
