314 577
314 552
339 549
364 549
389 554
414 559
439 564
463 571
487 579
510 589
534 596
558 605
580 617
604 626
626 639
650 647
672 659
695 669
718 680
740 692
762 704
787 709
809 721
833 730
857 739
880 749
904 756
928 765
952 774
975 784
1000 789
1025 794
1050 799
1074 806
1099 811
1124 814
1149 819
1174 824
1199 826
1224 829
1249 834
1274 834
1299 836
1324 839
1349 839
1374 839
1399 839
1424 839
1449 839
1474 839
1499 836
1524 834
1549 832
1574 829
1599 826
1624 824
1649 819
1674 814
1699 809
1724 804
1749 799
1774 794
1797 784
1822 779
1847 774
1870 764
1893 754
1918 749
1940 736
1964 729
1987 719
2010 709
2034 697
2058 689
2080 676
2102 664
2126 655
2149 642
2173 634
2195 621
2219 612
2243 604
2266 594
2290 586
2312 574
2337 569
2362 564
2386 555
2411 554
2436 549
2461 545
2486 544
2511 545
2536 549
2540 574
2540 599
2540 624
2535 660
2530 705
2525 735
2520 765
2510 805
2500 835
2490 865
2482 894
2473 918
2460 940
2450 965
2438 993
2425 1015
2414 1047
2402 1069
2393 1093
2380 1115
2370 1140
2350 1160
2325 1165
2300 1170
2275 1170
2250 1175
2225 1180
2200 1180
2175 1185
2150 1190
2125 1190
2100 1195
2075 1200
2050 1200
2025 1205
2000 1205
1975 1210
1950 1210
1925 1215
1900 1215
1875 1215
1850 1220
1825 1220
1800 1220
1775 1225
1750 1225
1725 1225
1715 1255
1705 1290
1695 1335
1685 1380
1680 1405
1675 1430
1670 1455
1665 1480
1660 1510
1655 1535
1650 1565
1645 1595
1640 1630
1635 1665
1630 1705
1625 1745
1625 1770
1620 1795
1620 1820
1615 1850
1615 1875
1610 1915
1610 1940
1610 1965
1610 1990
1605 2035
1605 2065
1605 2095
1605 2125
1607 2150
1610 2175
1610 2200
1601 2243
1577 2235
1552 2230
1527 2229
1502 2224
1477 2220
1452 2219
1427 2215
1402 2215
1377 2219
1352 2215
1327 2220
1302 2225
1284 2207
1284 2182
1279 2157
1279 2132
1279 2107
1279 2082
1274 2057
1274 2032
1274 2007
1269 1982
1264 1925
1262 1900
1259 1875
1254 1850
1254 1825
1249 1800
1244 1775
1244 1750
1239 1725
1234 1700
1229 1675
1227 1650
1224 1625
1219 1600
1214 1575
1209 1550
1204 1525
1199 1500
1194 1475
1189 1450
1184 1425
1179 1400
1174 1375
1169 1350
1159 1327
1154 1302
1149 1277
1144 1252
1131 1230
1106 1230
1081 1225
1056 1225
1031 1225
1006 1223
981 1220
956 1220
931 1220
906 1215
881 1215
856 1210
831 1210
806 1208
781 1205
756 1200
731 1200
706 1195
681 1195
656 1190
631 1188
606 1185
581 1180
556 1179
539 1160
534 1135
524 1112
514 1089
504 1066
494 1043
484 1020
474 997
462 975
449 953
438 930
426 908
414 886
404 863
393 840
379 819
372 795
360 773
354 748
344 725
339 700
329 677
324 652
319 627
319 602
