224 822
224 797
239 777
257 759
282 759
304 747
299 722
294 697
294 672
294 647
294 622
294 597
294 572
294 547
294 522
304 487
314 462
324 417
329 387
334 357
344 332
356 310
371 290
386 270
399 247
417 229
435 211
454 192
472 174
490 156
509 137
529 122
551 110
575 101
600 96
625 94
650 94
675 94
700 99
723 109
746 119
771 124
794 134
814 149
833 166
858 169
880 156
904 147
929 144
954 144
978 151
1000 163
1020 178
1035 198
1050 218
1065 238
1077 260
1090 282
1095 307
1100 332
1104 357
1105 382
1105 407
1105 432
1100 470
1100 495
1100 520
1100 545
1100 570
1105 595
1105 620
1105 645
1105 670
1112 694
1135 704
1158 715
1170 737
1178 761
1175 805
1165 830
1153 858
1140 880
1135 905
1130 940
1123 968
1110 990
1090 1010
1065 1010
1065 1035
1060 1065
1055 1090
1050 1115
1035 1145
1020 1175
1010 1200
1010 1225
1010 1250
1010 1275
1005 1315
990 1350
972 1379
954 1397
935 1415
916 1435
896 1450
878 1468
858 1483
836 1495
816 1510
801 1530
779 1542
757 1554
733 1563
709 1570
684 1567
672 1545
654 1527
639 1507
624 1487
609 1467
591 1449
574 1430
551 1419
534 1400
514 1385
495 1368
475 1353
464 1330
454 1307
459 1282
449 1250
434 1230
415 1213
404 1190
389 1170
384 1145
384 1120
384 1095
382 1070
362 1055
342 1040
327 1020
312 1000
304 976
294 953
284 930
269 910
254 890
239 870
229 847
