249 807
254 832
264 855
269 880
279 903
289 926
297 950
304 974
314 997
326 1019
341 1039
361 1055
382 1069
384 1094
384 1119
384 1144
389 1169
403 1190
415 1212
433 1230
448 1250
459 1282
454 1307
454 1332
454 1357
459 1382
469 1405
484 1425
501 1444
519 1462
537 1480
557 1495
575 1513
594 1530
616 1543
636 1558
656 1573
678 1585
698 1600
723 1600
746 1590
770 1580
794 1572
816 1560
836 1545
859 1535
875 1515
895 1500
914 1482
929 1462
944 1442
959 1422
971 1400
985 1375
995 1350
1005 1315
1010 1275
1010 1250
1010 1225
1010 1200
1020 1175
1035 1145
1050 1115
1055 1090
1060 1065
1065 1035
1065 1010
1090 1010
1110 990
1123 968
1130 940
1135 905
1140 880
1140 855
1140 830
1140 805
1145 770
1150 740
1142 704
1117 704
1110 680
1105 655
1105 630
1105 605
1102 580
1100 555
1100 530
1100 505
1100 480
1100 455
1100 430
1100 405
1093 381
1084 357
1072 335
1060 313
1052 289
1037 269
1025 247
1007 229
989 211
967 199
947 184
924 174
899 169
874 169
851 179
831 164
811 149
791 134
768 124
743 119
718 114
693 109
668 109
643 114
618 114
593 114
568 119
544 127
521 140
499 152
477 164
457 179
439 197
419 212
404 232
389 257
374 277
359 297
346 325
334 347
324 372
324 397
314 422
309 452
304 477
294 522
294 547
294 572
294 597
294 622
294 647
294 672
294 697
291 745
267 754
249 772
