4 192
4 167
22 149
42 134
67 129
90 119
115 114
140 114
165 114
190 114
215 114
240 114
265 119
307 119
286 105
264 82
286 69
311 65
336 59
361 59
386 54
411 49
436 49
461 44
486 44
511 44
536 44
561 44
584 54
607 64
630 74
655 74
680 74
704 67
722 49
742 34
762 19
785 9
810 9
830 24
849 41
864 61
888 69
913 75
937 84
962 89
987 94
1012 99
1037 104
1062 109
1087 114
1109 126
1133 134
1156 144
1178 156
1190 178
1168 195
1143 200
1120 210
1095 215
1070 220
1045 225
1020 225
995 225
970 225
945 225
920 230
895 235
871 245
848 255
823 260
798 265
773 265
748 260
724 251
738 230
710 230
685 230
660 230
635 230
610 225
585 230
563 243
541 255
516 260
491 265
466 270
441 270
416 275
391 275
366 275
356 240
371 220
332 220
307 225
282 225
257 230
232 234
207 240
182 240
157 245
132 245
107 245
82 245
57 240
34 230
14 215
