4 167
4 142
19 122
39 107
61 95
85 104
110 109
134 116
159 121
178 104
193 84
216 74
240 66
264 59
287 49
312 44
337 39
362 34
387 29
412 24
437 24
462 19
487 14
512 14
537 9
562 9
587 4
612 4
637 4
659 16
677 34
700 44
725 44
750 44
775 44
800 44
825 49
839 17
855 37
867 59
892 64
917 69
942 74
967 79
992 84
1007 64
1032 64
1015 94
1015 140
1022 165
997 164
972 169
947 170
923 178
901 190
876 195
852 204
843 228
830 250
812 270
779 277
794 252
794 217
770 210
745 215
720 215
695 215
670 215
645 210
620 210
595 215
575 245
550 245
525 245
500 245
475 245
450 240
425 240
400 240
375 240
350 235
325 235
300 235
275 230
250 225
225 220
200 215
177 205
157 190
132 195
108 203
83 210
58 215
34 207
16 189
