4 187
4 162
19 132
34 112
58 104
81 114
106 119
131 124
156 129
178 141
203 144
219 107
214 82
238 74
263 74
288 69
311 59
336 54
361 50
386 49
411 44
436 39
461 39
486 34
511 29
536 34
560 42
584 49
609 44
632 34
657 29
682 29
707 24
732 24
757 19
782 14
807 9
832 9
857 9
882 9
900 27
908 51
920 73
945 74
970 74
995 74
1020 69
1045 69
1068 59
1091 49
1116 54
1128 76
1143 96
1155 118
1167 140
1180 162
1186 200
1168 218
1145 230
1122 245
1098 253
1074 262
1050 270
1025 275
1000 280
975 285
955 300
945 330
935 365
922 390
904 372
894 342
904 317
883 298
863 313
840 325
818 340
793 340
768 335
748 320
730 302
705 300
680 295
655 295
630 295
605 290
580 295
556 305
533 315
508 320
483 325
458 325
433 325
408 325
383 325
358 320
333 320
308 315
283 310
258 305
233 305
209 297
194 277
192 244
167 245
142 250
117 255
92 260
69 270
44 275
25 258
14 235
4 212
