4 327
4 302
14 272
29 247
44 227
62 209
82 194
104 182
128 174
153 175
177 184
199 196
219 211
239 226
259 241
281 254
301 269
321 284
339 302
363 309
364 272
382 254
402 239
424 227
448 219
468 204
493 199
511 180
534 167
558 159
573 139
595 126
617 114
639 102
664 99
689 99
714 99
739 99
764 104
789 106
814 109
839 114
862 124
885 134
908 144
928 129
939 102
954 82
974 52
992 34
1012 19
1037 24
1059 12
1084 14
1109 14
1134 16
1156 29
1178 41
1200 54
1225 54
1249 47
1274 42
1299 39
1324 34
1349 34
1374 34
1399 29
1424 29
1449 24
1474 17
1496 5
1520 12
1540 27
1562 39
1585 49
1608 60
1630 72
1630 100
1635 135
1624 162
1606 180
1588 198
1565 210
1543 223
1520 235
1498 248
1474 257
1450 265
1425 270
1400 275
1405 300
1400 325
1375 335
1360 355
1358 398
1353 423
1348 448
1328 463
1315 485
1299 507
1284 487
1301 450
1293 414
1269 407
1249 422
1230 440
1209 455
1199 432
1177 445
1154 455
1139 435
1114 440
1076 420
1051 419
1043 395
1018 395
993 390
968 395
943 395
918 395
895 405
883 433
870 455
855 475
835 490
813 503
793 520
770 530
748 543
723 550
699 557
674 560
649 565
624 565
599 560
574 560
549 555
524 552
502 540
482 525
467 505
467 469
453 445
428 440
403 440
378 435
353 435
328 435
303 440
280 450
255 455
230 460
205 465
181 475
156 480
131 485
106 488
81 485
61 470
39 457
14 400
4 377
4 352
