290 566
290 541
300 496
300 471
300 446
310 411
310 386
310 361
310 336
310 311
310 286
310 261
315 236
315 211
315 186
330 166
353 154
377 145
400 155
419 172
430 195
430 220
430 245
420 285
420 310
420 335
420 360
420 385
420 410
420 435
410 470
410 495
410 520
405 565
405 590
405 615
405 640
405 665
405 690
405 715
405 740
405 765
406 790
410 815
420 838
430 861
437 885
450 907
470 922
488 940
510 953
525 973
544 990
565 1004
588 1014
580 966
580 941
580 916
580 891
580 866
580 841
580 816
590 791
590 766
590 741
595 716
595 691
595 666
595 641
595 616
595 591
595 566
595 541
595 516
605 471
605 446
615 401
615 376
615 351
615 326
620 296
620 271
620 246
620 221
620 196
635 171
659 163
683 155
706 165
724 183
735 206
735 231
735 256
735 281
735 306
725 350
725 375
725 400
725 425
725 450
715 475
715 500
710 540
710 565
710 590
710 615
710 640
710 665
710 690
710 715
710 740
700 765
700 790
695 835
695 860
695 885
695 910
695 935
695 960
700 985
700 1010
700 1035
723 1045
748 1045
768 1030
780 986
780 961
780 936
790 896
795 861
805 831
805 806
815 761
815 736
820 701
820 676
830 631
835 591
845 566
845 541
860 511
870 484
860 461
860 436
870 391
870 366
875 336
875 311
875 286
875 261
885 236
885 211
885 186
900 166
923 154
947 145
970 155
989 172
1000 195
1000 220
1000 245
990 285
990 310
990 335
990 360
980 390
980 415
975 450
965 475
950 500
960 523
960 565
950 610
940 650
935 695
935 720
925 755
925 780
925 805
920 830
920 855
910 885
900 915
895 955
895 980
896 1005
920 991
940 976
960 956
979 938
990 911
1010 895
1020 861
1040 836
1055 796
1070 766
1080 741
1085 711
1095 676
1100 636
1110 591
1120 546
1120 521
1120 496
1120 471
1120 446
1120 421
1120 396
1120 371
1125 326
1125 301
1125 276
1135 246
1135 221
1135 196
1135 171
1150 141
1170 125
1193 115
1216 125
1240 133
1252 155
1255 180
1245 225
1245 250
1245 275
1240 305
1240 330
1240 355
1230 395
1230 420
1230 445
1230 470
1230 495
1230 520
1230 545
1230 570
1225 610
1225 635
1215 660
1205 700
1200 735
1190 765
1180 790
1165 830
1150 860
1138 893
1123 913
1110 935
1099 962
1080 980
1060 1005
1051 1030
1031 1045
1011 1060
996 1080
974 1092
950 1100
935 1120
935 1145
935 1170
935 1195
935 1220
935 1245
935 1270
935 1295
925 1320
925 1345
920 1375
920 1400
910 1425
910 1450
900 1480
895 1520
895 1545
885 1585
875 1615
875 1640
875 1665
870 1705
870 1730
870 1755
860 1800
860 1825
860 1850
855 1890
855 1915
855 1940
855 1965
845 2010
845 2035
835 2065
835 2090
830 2115
830 2140
820 2175
820 2200
805 2225
805 2250
805 2275
795 2315
790 2345
790 2370
780 2395
775 2425
775 2450
765 2480
755 2505
755 2530
740 2555
735 2580
725 2610
715 2635
710 2660
700 2690
695 2725
685 2765
675 2805
675 2830
675 2855
675 2880
685 2903
685 2928
675 2965
660 2995
650 3020
630 3035
607 3050
582 3050
557 3044
540 3025
524 3005
510 2984
510 2959
500 2936
500 2911
500 2886
500 2861
500 2836
510 2806
510 2781
510 2756
515 2716
515 2691
525 2651
525 2626
525 2601
525 2576
525 2551
525 2526
525 2501
525 2476
525 2451
525 2426
525 2401
525 2376
525 2351
525 2326
525 2301
525 2276
525 2251
525 2226
525 2201
530 2171
530 2146
540 2109
540 2084
540 2059
540 2034
540 2009
540 1984
540 1959
540 1934
540 1909
540 1884
540 1859
540 1834
540 1809
540 1784
530 1761
530 1736
530 1711
530 1686
530 1661
530 1636
530 1611
530 1586
540 1561
540 1536
540 1511
550 1471
555 1441
565 1401
570 1366
580 1321
590 1296
580 1273
580 1248
580 1223
580 1198
580 1173
569 1150
549 1135
526 1125
501 1119
486 1099
470 1079
453 1060
430 1050
410 1035
394 1015
380 994
366 973
351 953
333 935
325 911
315 888
310 863
300 840
297 815
290 791
290 766
290 741
290 716
290 691
290 666
290 641
290 616
290 591
