985 2121
985 2096
990 2056
990 2031
990 2006
990 1981
995 1951
995 1926
995 1901
995 1876
995 1851
1005 1821
1005 1796
1010 1761
1015 1726
1015 1701
1020 1661
1035 1641
1058 1629
1078 1614
1098 1599
1120 1586
1144 1578
1166 1565
1191 1564
1216 1565
1240 1573
1265 1575
1288 1585
1313 1585
1325 1556
1335 1526
1345 1486
1345 1446
1355 1406
1365 1366
1375 1326
1390 1301
1385 1276
1395 1236
1405 1196
1415 1156
1430 1136
1440 1106
1445 1066
1455 1026
1465 986
1475 946
1485 901
1495 861
1508 839
1515 811
1525 766
1535 736
1548 714
1555 686
1560 651
1570 621
1583 599
1590 571
1605 551
1618 529
1625 501
1635 466
1645 436
1660 416
1685 410
1710 415
1733 425
1755 438
1765 461
1758 488
1745 510
1735 545
1725 575
1715 615
1705 645
1695 675
1685 705
1675 735
1665 765
1655 795
1648 823
1635 845
1630 875
1620 905
1610 940
1595 975
1595 1000
1585 1030
1578 1058
1565 1080
1555 1110
1553 1138
1540 1160
1530 1190
1520 1220
1510 1250
1505 1275
1495 1315
1490 1340
1480 1375
1470 1420
1465 1445
1450 1475
1440 1520
1430 1560
1425 1590
1439 1611
1464 1615
1489 1620
1512 1630
1536 1639
1561 1645
1586 1645
1611 1650
1636 1655
1654 1673
1676 1685
1696 1700
1711 1720
1729 1738
1741 1760
1755 1781
1765 1804
1775 1827
1780 1852
1770 1890
1760 1920
1760 1945
1750 1975
1750 2000
1750 2025
1740 2055
1740 2080
1740 2105
1735 2145
1730 2170
1730 2195
1730 2220
1730 2245
1725 2280
1706 2300
1681 2300
1664 2281
1660 2256
1660 2231
1660 2206
1660 2181
1660 2156
1665 2131
1670 2096
1670 2071
1670 2046
1675 2021
1680 1986
1680 1961
1690 1921
1700 1891
1710 1849
1700 1826
1685 1806
1675 1783
1660 1763
1643 1744
1625 1726
1600 1720
1575 1715
1568 1748
1555 1770
1548 1798
1535 1820
1525 1855
1515 1885
1510 1915
1510 1940
1520 1963
1515 2000
1515 2025
1515 2050
1513 2098
1500 2120
1479 2135
1455 2126
1440 2106
1440 2081
1445 2051
1445 2026
1445 2001
1445 1976
1440 1951
1440 1926
1440 1901
1445 1876
1455 1841
1465 1811
1478 1789
1490 1761
1500 1721
1485 1691
1460 1685
1435 1680
1435 1705
1425 1730
1420 1765
1410 1810
1400 1835
1390 1875
1380 1900
1375 1925
1385 1948
1397 1970
1400 1995
1395 2020
1390 2055
1385 2085
1365 2105
1340 2106
1320 2091
1315 2066
1320 2041
1325 2009
1315 1986
1310 1961
1305 1936
1305 1911
1310 1881
1323 1859
1330 1821
1340 1796
1350 1756
1355 1731
1365 1699
1365 1674
1348 1655
1323 1650
1298 1654
1275 1640
1275 1665
1270 1695
1270 1720
1275 1745
1275 1770
1270 1805
1265 1840
1265 1865
1255 1895
1250 1925
1240 1960
1245 1985
1240 2015
1230 2050
1210 2070
1185 2071
1165 2056
1160 2031
1170 2001
1170 1971
1170 1941
1180 1906
1190 1861
1195 1826
1200 1791
1205 1756
1200 1731
1200 1706
1200 1681
1201 1635
1176 1640
1154 1652
1130 1660
1110 1675
1090 1690
1085 1715
1085 1740
1080 1770
1075 1805
1065 1850
1065 1875
1065 1900
1065 1925
1065 1950
1060 1990
1060 2015
1060 2040
1060 2065
1060 2090
1055 2115
1055 2140
1056 2165
1041 2205
1016 2209
996 2194
985 2171
985 2146
