995 521
995 496
1000 461
1000 436
1005 396
1005 371
1005 346
1005 321
1010 276
1025 256
1048 245
1073 240
1095 253
1110 273
1115 298
1110 340
1115 365
1115 390
1115 415
1115 440
1110 480
1110 505
1110 530
1110 555
1110 580
1110 605
1110 630
1110 655
1120 678
1132 700
1140 646
1140 621
1145 591
1150 561
1155 536
1160 511
1165 466
1170 431
1175 386
1180 351
1185 311
1185 286
1185 261
1185 236
1200 216
1225 210
1246 224
1255 248
1255 273
1255 298
1255 323
1250 365
1245 400
1240 445
1235 480
1230 520
1225 545
1220 575
1215 605
1210 635
1210 660
1205 685
1205 710
1200 750
1201 775
1221 790
1246 795
1266 810
1280 771
1280 746
1280 721
1280 696
1285 666
1295 626
1305 586
1310 561
1315 516
1320 481
1325 456
1325 431
1330 396
1343 374
1345 346
1355 316
1365 281
1365 256
1365 231
1380 211
1405 205
1426 219
1435 243
1435 268
1425 315
1415 345
1410 375
1400 405
1395 440
1395 465
1390 490
1385 525
1380 570
1375 595
1365 635
1355 675
1350 705
1350 730
1350 755
1355 780
1356 805
1379 793
1394 773
1399 748
1414 728
1432 710
1452 695
1465 671
1475 646
1485 621
1495 581
1500 556
1505 526
1510 491
1510 466
1510 441
1510 416
1510 391
1515 356
1515 331
1520 291
1520 266
1533 244
1553 229
1574 215
1599 215
1624 215
1649 221
1666 240
1681 260
1690 284
1695 309
1695 334
1695 359
1690 405
1685 445
1680 480
1675 505
1670 540
1660 575
1650 605
1640 630
1625 655
1615 680
1600 705
1589 732
1574 752
1559 772
1540 790
1525 810
1509 832
1490 850
1470 870
1450 885
1435 905
1420 925
1408 948
1395 970
1385 995
1373 1023
1360 1045
1345 1070
1335 1095
1325 1125
1325 1150
1325 1175
1320 1200
1320 1225
1310 1260
1300 1290
1290 1315
1290 1340
1285 1365
1275 1395
1275 1420
1275 1445
1270 1470
1265 1505
1265 1530
1260 1565
1260 1590
1260 1615
1260 1640
1260 1665
1260 1690
1260 1715
1260 1740
1255 1765
1250 1795
1250 1820
1245 1845
1245 1870
1245 1895
1245 1920
1240 1955
1235 2000
1235 2025
1230 2060
1230 2085
1230 2110
1225 2150
1215 2190
1200 2220
1188 2243
1166 2255
1143 2245
1128 2225
1120 2201
1120 2176
1120 2151
1120 2126
1120 2101
1125 2076
1125 2051
1125 2026
1125 2001
1120 1976
1120 1951
1120 1926
1120 1901
1120 1876
1125 1841
1125 1816
1125 1791
1125 1766
1125 1741
1120 1716
1120 1691
1120 1666
1120 1641
1120 1616
1120 1591
1120 1566
1120 1541
1125 1501
1130 1476
1135 1446
1145 1416
1145 1391
1150 1346
1150 1321
1150 1296
1150 1271
1145 1246
1145 1221
1145 1196
1145 1171
1145 1146
1150 1101
1155 1059
1150 1034
1150 1009
1145 984
1140 959
1133 935
1125 911
1115 888
1107 864
1095 842
1090 817
1070 802
1055 782
1040 762
1025 742
1013 720
1005 696
1000 671
995 646
995 621
995 596
995 571
995 546
