424 987
424 962
436 940
454 922
474 907
496 895
519 882
541 870
564 859
587 849
602 829
614 807
636 794
659 784
682 774
705 764
728 754
753 749
778 744
803 739
828 739
853 739
873 724
874 682
874 657
884 632
884 600
860 592
836 583
814 570
804 547
826 534
851 529
876 529
894 492
889 467
894 437
911 399
936 399
958 411
950 435
950 460
950 485
950 510
975 514
1000 514
1025 517
1050 522
1075 527
1073 565
1050 575
1025 580
1000 585
975 590
975 615
975 640
975 665
975 690
975 715
975 740
996 754
1018 766
1042 774
1067 774
1092 774
1117 774
1140 784
1164 791
1186 804
1209 814
1225 834
1245 849
1270 849
1293 859
1315 872
1334 889
1355 903
1373 921
1391 939
1406 959
1415 983
1425 1006
1424 1037
1412 1059
1394 1077
1376 1095
1352 1104
1327 1110
1304 1120
1281 1130
1256 1135
1234 1147
1210 1155
1185 1160
1160 1165
1135 1170
1112 1180
1087 1185
1062 1185
1037 1185
1012 1185
987 1185
962 1190
937 1190
912 1190
887 1190
862 1190
837 1190
812 1190
787 1190
762 1185
737 1180
712 1175
687 1174
663 1165
638 1160
613 1155
590 1145
567 1135
542 1130
519 1120
495 1113
475 1098
460 1078
445 1058
434 1035
424 1012
