424 1027
424 1002
434 977
449 957
467 939
487 924
507 909
525 891
547 879
569 867
593 859
618 854
622 829
634 807
656 794
680 786
704 779
729 774
754 767
778 759
803 759
828 754
849 732
864 707
876 685
884 649
884 624
884 599
877 575
852 575
827 575
802 575
784 557
804 542
828 534
853 529
878 524
894 482
894 457
894 432
894 407
918 400
925 424
938 446
947 470
955 494
965 517
987 529
1012 534
1037 534
1062 534
1080 552
1059 567
1039 582
1015 590
990 595
965 600
965 625
965 650
967 675
972 700
980 724
1005 729
1030 734
1053 744
1078 749
1103 754
1128 760
1152 769
1177 774
1202 779
1227 784
1249 796
1250 821
1268 839
1291 849
1313 861
1331 879
1349 897
1367 915
1387 930
1407 945
1431 954
1440 978
1440 1003
1435 1035
1425 1060
1408 1080
1388 1095
1365 1105
1345 1120
1323 1133
1301 1145
1279 1157
1259 1172
1235 1180
1213 1193
1189 1200
1164 1202
1140 1210
1115 1210
1090 1210
1065 1210
1040 1210
1015 1210
990 1210
965 1210
940 1210
915 1210
890 1210
865 1210
840 1210
815 1210
790 1210
765 1205
740 1200
715 1200
690 1195
666 1188
642 1179
618 1170
596 1158
572 1150
552 1135
529 1125
506 1114
485 1100
462 1090
444 1072
429 1052
