639 332
629 362
653 369
677 360
702 355
727 350
752 345
777 340
802 340
827 335
852 335
859 359
859 384
859 409
859 434
859 459
859 484
859 509
859 534
859 559
859 584
859 609
859 634
859 659
859 684
859 709
859 734
859 759
859 784
859 809
859 834
859 859
859 884
859 909
859 934
859 959
859 984
859 1009
859 1034
859 1059
859 1084
859 1109
859 1134
859 1159
859 1184
879 1200
904 1200
929 1200
954 1200
979 1197
980 1165
980 1140
980 1115
980 1090
980 1065
980 1040
980 1015
980 990
980 965
980 940
980 915
980 890
980 865
980 840
980 815
980 790
980 765
980 740
980 715
980 690
980 665
980 640
980 615
980 590
980 565
980 540
980 515
980 490
980 465
980 440
980 415
980 390
980 365
980 340
1004 347
1026 360
1051 360
1076 360
1101 360
1126 360
1135 319
1135 294
1135 269
1135 244
1135 219
1135 194
1135 169
1135 144
1130 119
1105 119
1080 119
1055 119
1030 119
1005 121
987 139
962 139
937 139
912 139
887 139
862 144
837 149
814 159
791 169
769 182
749 197
727 209
707 224
689 242
674 262
664 287
649 307
