134 862
134 837
159 834
184 834
209 834
234 834
259 834
284 834
309 834
334 834
359 834
384 834
409 834
434 834
459 834
484 834
509 834
534 834
559 834
584 834
609 834
634 834
659 834
684 834
709 834
734 834
759 834
784 834
809 834
834 834
859 834
884 834
909 834
929 817
941 795
959 772
969 727
974 689
969 664
962 640
954 616
941 594
929 572
964 584
985 598
1007 610
1027 625
1047 640
1062 660
1074 682
1085 705
1090 730
1100 753
1109 777
1115 802
1115 827
1120 852
1120 877
1115 915
1108 948
1095 970
1120 974
1125 999
1125 1024
1125 1049
1125 1074
1125 1099
1119 1125
1094 1125
1069 1125
1044 1125
1019 1125
994 1125
969 1125
944 1125
919 1125
909 1102
909 1077
909 1052
909 1027
909 1002
909 977
929 955
909 940
884 940
859 940
834 940
809 940
784 940
759 940
734 940
709 940
684 940
659 940
634 940
609 940
584 940
559 940
534 940
509 940
484 940
459 940
434 940
409 940
384 940
359 940
334 940
309 940
284 940
259 940
234 940
209 940
184 940
159 940
134 937
134 912
134 887
