144 147
144 122
169 119
194 119
219 119
244 119
269 119
284 139
309 139
334 139
359 139
384 139
409 139
434 144
457 154
480 164
500 179
523 190
544 204
565 218
583 236
598 256
610 278
622 300
634 322
643 346
643 375
620 365
595 360
570 355
545 350
520 345
495 340
470 337
445 335
420 335
420 360
420 385
420 410
420 435
420 460
420 485
420 510
420 535
420 560
420 585
420 610
420 635
420 660
420 685
420 710
420 735
420 760
420 785
420 810
420 835
420 860
420 885
420 910
420 935
411 980
386 980
361 980
336 980
311 980
299 958
299 933
299 908
299 883
299 858
299 833
299 808
299 783
299 758
299 733
299 708
299 683
299 658
299 633
299 608
299 583
299 558
299 533
299 508
299 483
299 458
299 433
299 408
299 383
299 358
281 340
266 360
241 360
216 360
191 360
166 360
144 347
144 322
144 297
144 272
144 247
144 222
144 197
144 172
