334 677
334 702
334 727
339 752
339 777
339 802
339 827
339 852
339 877
339 902
339 927
344 952
344 977
344 1002
344 1027
349 1052
361 1074
384 1085
409 1085
434 1090
459 1090
484 1095
509 1095
534 1095
559 1100
584 1100
609 1100
634 1100
659 1105
684 1105
709 1105
734 1105
759 1110
784 1110
809 1110
833 1103
857 1094
875 1075
888 1053
900 1025
910 995
925 965
935 940
950 920
963 898
987 890
1012 890
1037 885
1062 884
1084 872
1099 852
1119 837
1144 835
1169 835
1194 835
1219 830
1244 835
1269 835
1294 835
1319 830
1344 830
1369 835
1394 835
1417 825
1442 825
1467 830
1492 830
1517 830
1542 830
1567 830
1592 830
1617 830
1642 830
1667 830
1692 830
1717 830
1742 830
1767 830
1792 830
1817 830
1842 830
1867 830
1892 825
1917 824
1937 809
1950 785
1965 765
1978 743
2000 730
2007 690
2000 666
1987 644
1972 624
1954 606
1932 594
1907 589
1882 589
1857 589
1832 589
1807 589
1782 589
1757 584
1732 584
1707 589
1682 589
1657 589
1632 584
1607 589
1582 589
1557 589
1532 589
1507 589
1482 589
1457 589
1432 589
1407 584
1382 584
1357 589
1332 589
1307 589
1282 589
1257 589
1232 589
1207 589
1182 589
1157 589
1132 589
1107 584
1084 574
1061 564
1041 549
1016 549
991 549
966 549
943 539
918 536
905 514
900 489
892 465
885 441
875 418
870 393
870 368
861 344
846 324
826 309
801 309
776 309
751 314
726 314
701 314
676 314
651 319
626 319
601 319
576 324
551 324
526 324
501 329
476 329
451 329
426 334
401 334
376 339
356 355
344 377
344 402
339 427
334 457
339 482
339 507
339 532
339 557
339 582
339 607
339 632
