234 427
234 402
244 377
256 355
271 335
294 322
318 314
343 309
368 304
393 304
418 299
443 300
468 304
493 299
518 294
543 294
568 289
593 289
618 289
643 284
668 284
693 284
718 279
743 279
768 279
793 274
818 274
843 274
868 269
893 269
918 269
943 264
968 264
993 264
1018 264
1043 264
1068 259
1093 259
1118 259
1143 254
1168 254
1193 254
1218 249
1243 249
1268 244
1293 244
1318 244
1343 239
1368 239
1393 234
1418 234
1443 234
1468 229
1493 229
1518 229
1543 224
1568 224
1593 219
1618 219
1643 219
1668 214
1693 214
1718 214
1743 209
1768 209
1793 209
1818 204
1843 204
1868 204
1893 199
1918 199
1943 194
1968 195
1990 207
2008 225
2015 249
2025 272
2035 295
2044 342
2026 360
2006 375
1988 393
1968 410
1943 415
1918 410
1893 415
1870 425
1848 438
1826 450
1801 450
1776 455
1751 450
1726 450
1701 445
1678 435
1653 433
1629 440
1604 445
1579 450
1555 442
1531 433
1506 430
1481 435
1463 453
1443 468
1423 485
1400 495
1395 520
1382 544
1373 568
1353 585
1328 590
1303 590
1278 585
1254 577
1230 570
1205 570
1180 570
1155 570
1140 590
1130 635
1120 675
1112 719
1103 743
1090 765
1078 798
1065 820
1055 845
1045 870
1035 895
1015 910
994 925
969 930
944 930
919 930
894 930
869 930
844 930
819 930
794 930
769 930
744 930
719 930
694 925
669 925
644 925
619 925
594 925
569 920
544 920
519 920
494 920
469 915
444 915
419 915
394 910
369 910
344 910
319 905
296 894
279 875
269 852
269 827
264 802
269 777
264 752
264 727
259 702
259 677
259 652
254 627
249 602
249 577
244 552
244 527
239 502
239 477
234 452
