249 787
249 762
254 722
254 697
259 657
259 632
264 607
264 582
269 557
279 512
284 487
294 452
304 422
319 397
337 379
360 369
385 364
410 364
435 359
460 354
485 349
510 349
535 349
560 344
585 344
610 339
635 339
660 334
685 334
710 329
735 329
760 329
785 329
810 329
835 334
858 344
875 363
890 383
902 405
915 427
923 451
925 476
935 499
940 524
950 547
958 571
970 593
995 599
1020 604
1045 609
1068 620
1090 632
1114 639
1139 639
1164 639
1189 639
1214 639
1239 639
1264 639
1289 639
1314 639
1339 639
1364 639
1389 639
1414 639
1439 644
1464 644
1489 649
1514 649
1539 649
1564 649
1589 649
1614 649
1639 649
1664 649
1689 649
1713 656
1737 664
1762 669
1787 674
1809 686
1827 704
1835 728
1840 753
1845 778
1845 803
1835 835
1823 863
1801 875
1776 880
1752 889
1727 885
1702 885
1677 880
1652 885
1629 895
1604 895
1579 890
1554 890
1529 890
1504 890
1479 885
1454 885
1429 885
1404 885
1379 885
1354 885
1329 885
1304 885
1279 885
1254 885
1229 885
1204 885
1179 885
1154 885
1129 885
1104 885
1079 885
1062 904
1039 915
1014 915
989 915
964 917
944 932
925 950
915 975
905 1010
895 1040
885 1070
870 1090
855 1110
838 1133
813 1140
788 1145
763 1150
738 1145
713 1140
688 1135
663 1130
638 1130
613 1125
588 1120
563 1115
538 1110
513 1110
488 1105
463 1100
438 1095
413 1090
388 1085
363 1080
338 1075
314 1067
292 1055
274 1037
269 1012
264 987
264 962
259 937
254 912
249 887
249 862
249 837
249 812
