184 772
184 747
189 702
189 677
194 647
194 622
209 597
221 575
239 557
261 544
279 522
294 502
309 482
327 464
347 449
362 429
384 417
402 399
422 384
442 369
462 354
482 339
504 327
528 319
551 309
572 294
592 279
617 274
642 274
667 279
689 291
709 306
725 326
743 344
765 357
785 372
805 387
825 402
840 422
858 440
873 460
888 480
905 499
920 519
939 536
959 551
977 569
1000 579
1025 582
1050 584
1075 584
1100 587
1122 599
1144 611
1166 624
1191 629
1216 629
1241 629
1266 629
1291 629
1316 629
1341 625
1366 624
1391 619
1416 614
1441 609
1466 609
1491 609
1516 605
1541 599
1566 594
1591 590
1616 589
1641 589
1666 589
1691 584
1716 579
1741 574
1766 569
1791 569
1816 569
1841 564
1865 556
1890 554
1915 554
1940 551
1965 546
1989 539
2014 539
2039 539
2064 544
2088 551
2112 559
2134 571
2149 591
2155 616
2145 640
2128 663
2108 678
2086 690
2064 702
2040 710
2015 715
1990 715
1965 720
1940 720
1915 720
1890 720
1865 725
1840 730
1820 745
1803 768
1781 780
1756 785
1731 785
1706 785
1683 775
1663 760
1638 758
1618 773
1598 790
1573 795
1548 795
1523 795
1498 800
1473 800
1448 800
1426 788
1411 768
1389 755
1364 755
1339 755
1314 760
1289 765
1264 770
1239 775
1214 777
1190 785
1168 798
1153 818
1148 843
1133 863
1108 870
1083 875
1058 880
1033 885
1009 892
985 900
965 915
945 930
931 955
916 975
904 997
889 1017
874 1037
859 1057
841 1075
823 1093
803 1108
783 1123
763 1138
741 1150
718 1160
694 1167
669 1170
644 1170
619 1170
594 1170
570 1162
546 1153
524 1140
500 1132
478 1120
453 1115
431 1103
409 1090
394 1070
375 1053
355 1038
340 1018
322 1000
302 984
282 969
264 951
249 931
231 913
219 891
206 869
199 845
189 822
189 797
