104 1532
104 1507
122 1489
146 1480
158 1440
134 1432
149 1402
167 1384
191 1375
209 1352
209 1327
233 1319
258 1319
283 1319
299 1297
323 1289
348 1285
373 1284
389 1252
413 1244
431 1225
449 1207
467 1189
492 1184
517 1184
541 1175
566 1174
589 1184
614 1184
636 1170
661 1169
686 1169
711 1169
731 1154
754 1142
779 1139
804 1137
826 1124
851 1124
876 1124
900 1116
924 1109
949 1109
974 1087
998 1079
1023 1079
1048 1079
1070 1066
1095 1064
1120 1064
1145 1064
1155 1041
1179 1034
1204 1034
1229 1027
1253 1019
1276 1029
1299 1017
1321 1004
1346 1004
1371 1004
1395 996
1419 989
1444 989
1469 989
1491 975
1516 974
1541 974
1566 974
1586 959
1611 959
1630 941
1649 907
1664 887
1664 862
1679 842
1679 817
1697 799
1715 781
1724 742
1742 724
1766 715
1784 682
1802 664
1826 655
1849 644
1874 637
1892 619
1917 614
1942 614
1966 605
1991 599
2013 611
2038 614
2060 601
2082 614
2100 632
2122 644
2142 659
2164 671
2182 689
2205 699
2224 716
2242 734
2265 744
2275 767
2280 792
2292 814
2295 839
2308 861
2332 854
2357 854
2377 839
2397 824
2414 787
2432 769
2444 742
2468 734
2486 715
2498 690
2489 652
2507 634
2532 629
2554 617
2572 599
2581 575
2605 566
2627 554
2647 539
2665 521
2687 509
2712 509
2734 497
2759 494
2784 494
2809 494
2820 471
2844 464
2869 464
2894 464
2916 450
2941 449
2966 449
2989 437
3013 444
3038 449
3063 449
3083 434
3108 434
3133 434
3158 434
3183 430
3208 434
3233 434
3257 424
3282 419
3307 419
3332 419
3352 404
3377 404
3402 404
3424 392
3449 389
3474 389
3497 399
3520 389
3545 389
3570 389
3595 386
3617 374
3642 374
3667 374
3691 381
3715 374
3740 374
3764 367
3788 359
3813 359
3833 374
3857 364
3882 359
3907 359
3927 374
3952 374
3960 398
3954 432
3936 450
3912 459
3888 468
3865 480
3845 495
3824 510
3799 512
3780 530
3771 555
3751 570
3729 582
3705 590
3697 614
3679 632
3660 650
3684 659
3707 649
3732 644
3754 632
3779 629
3804 629
3829 629
3854 629
3876 615
3901 614
3926 614
3951 614
3971 599
3996 599
4021 599
4046 595
4055 571
4079 578
4103 569
4127 559
4152 554
4177 554
4202 554
4222 539
4247 539
4272 539
4313 509
4338 509
4363 509
4385 496
4404 479
4429 479
4454 457
4478 449
4503 449
4523 434
4547 424
4571 415
4594 404
4619 397
4637 379
4662 374
4687 374
4707 359
4729 347
4754 344
4776 330
4796 314
4821 314
4846 314
4871 310
4894 299
4919 299
4944 299
4967 289
4992 284
5017 284
5042 284
5067 284
5092 284
5112 299
5137 299
5160 309
5184 316
5202 334
5225 344
5250 344
5270 359
5294 366
5312 384
5335 394
5354 411
5370 431
5380 454
5385 479
5385 504
5400 524
5415 544
5415 569
5415 594
5419 632
5400 650
5400 675
5410 715
5392 734
5374 752
5355 770
5344 797
5325 815
5307 834
5289 852
5265 860
5258 898
5234 907
5210 915
5192 934
5174 952
5150 960
5128 975
5107 989
5082 990
5057 990
5032 990
5012 1005
4990 992
4965 990
4940 990
4920 1005
4895 1005
4870 1005
4850 990
4828 1005
4803 1005
4778 1005
4758 1020
4736 1008
4711 1005
4686 1005
4666 1020
4641 1019
4620 1005
4595 1005
4575 1020
4550 1020
4525 1020
4503 1008
4480 1020
4455 1020
4430 1020
4410 1035
4385 1035
4360 1035
4340 1050
4315 1050
4290 1050
4265 1050
4245 1065
4220 1065
4195 1065
4170 1070
4146 1080
4121 1080
4096 1085
4084 1107
4062 1095
4037 1095
4012 1095
3992 1110
3967 1110
3942 1110
3917 1114
3894 1125
3869 1125
3844 1125
3821 1135
3780 1145
3804 1154
3838 1154
3863 1155
3884 1169
3905 1183
3926 1169
3948 1181
3973 1184
3995 1197
4020 1192
4044 1201
4065 1235
4041 1260
4023 1278
4000 1290
3980 1305
3955 1305
3930 1310
3913 1335
3888 1335
3863 1335
3839 1342
3815 1350
3790 1350
3765 1355
3745 1380
3720 1380
3695 1380
3675 1395
3650 1395
3625 1395
3600 1400
3577 1410
3553 1418
3529 1425
3506 1435
3481 1440
3456 1440
3432 1449
3408 1458
3385 1470
3360 1470
3338 1483
3313 1485
3292 1499
3267 1500
3247 1515
3224 1505
3199 1500
3174 1500
3154 1515
3129 1515
3105 1507
3081 1500
3056 1503
3032 1495
3009 1485
2984 1485
2959 1482
2937 1470
2917 1455
2892 1459
2868 1450
2845 1440
2825 1425
2800 1427
2776 1418
2758 1400
2733 1398
2708 1395
2688 1380
2663 1380
2626 1395
2601 1395
2576 1395
2564 1417
2540 1410
2515 1410
2490 1410
2468 1423
2443 1425
2418 1425
2393 1425
2373 1440
2348 1440
2328 1455
2305 1465
2280 1470
2255 1470
2230 1470
2210 1485
2185 1485
2160 1485
2135 1485
2115 1500
2090 1500
2065 1500
2040 1505
2016 1515
1991 1515
1966 1520
1943 1530
1918 1530
1893 1530
1870 1540
1845 1545
1800 1550
1824 1559
1859 1566
1883 1574
1908 1574
1933 1580
1957 1589
1982 1589
2007 1594
2025 1612
2043 1630
2035 1665
2015 1680
1990 1680
1970 1695
1945 1695
1920 1695
1895 1695
1873 1710
1848 1710
1823 1710
1799 1717
1775 1725
1753 1740
1728 1743
1706 1755
1681 1755
1656 1755
1636 1770
1611 1770
1586 1770
1561 1770
1536 1769
1519 1750
1496 1740
1474 1727
1449 1727
1431 1709
1414 1690
1395 1673
1377 1655
1354 1645
1331 1635
1306 1635
1284 1647
1259 1650
1234 1650
1211 1660
1193 1678
1168 1680
1143 1680
1118 1680
1098 1695
1073 1695
1048 1695
1023 1698
1001 1710
976 1710
951 1710
931 1725
906 1725
881 1725
861 1740
836 1740
816 1725
791 1725
771 1740
746 1740
726 1725
701 1725
681 1740
656 1740
636 1725
611 1725
589 1737
567 1725
542 1725
517 1725
492 1725
472 1710
447 1710
427 1695
402 1695
377 1690
354 1680
334 1665
309 1665
285 1657
261 1648
239 1635
214 1631
196 1613
172 1604
154 1586
136 1568
126 1545
