49 582
44 557
59 537
83 529
108 524
128 509
144 487
159 467
177 449
195 431
215 416
237 404
260 394
283 384
308 384
333 384
358 384
383 384
408 390
432 399
454 411
472 429
497 429
517 414
537 399
558 380
540 362
522 344
505 325
484 311
462 299
441 285
418 275
394 267
370 260
345 260
320 260
295 260
270 260
246 270
223 280
200 290
175 295
150 300
126 293
102 285
84 267
79 242
94 222
118 214
143 219
168 219
193 214
213 199
238 194
263 189
288 184
313 184
338 184
363 184
388 189
413 194
436 204
459 214
482 224
502 239
525 249
545 264
565 279
584 296
599 316
617 334
630 356
654 364
679 364
699 342
709 312
724 287
739 262
757 244
775 226
795 211
817 199
835 181
859 172
883 164
908 159
933 159
958 160
979 174
1004 179
1028 186
1050 199
1070 214
1090 229
1110 244
1133 254
1158 249
1183 255
1198 275
1185 315
1162 325
1137 330
1112 325
1087 320
1067 305
1047 290
1027 275
1007 260
984 250
959 245
936 235
911 235
886 240
866 255
846 270
824 282
805 300
790 320
775 345
765 380
779 401
799 416
819 431
843 424
863 409
886 399
911 394
936 394
961 394
986 394
1006 409
1026 424
1046 439
1064 457
1079 477
1091 499
1105 520
1110 545
1117 569
1125 593
1137 615
1157 630
1178 644
1201 654
1214 692
1199 712
1175 720
1150 715
1127 705
1109 687
1089 672
1071 654
1059 632
1050 608
1044 583
1036 559
1029 535
1014 515
999 495
979 480
956 470
931 470
906 470
884 482
865 500
875 523
884 547
889 572
890 597
885 645
902 664
920 682
940 697
958 715
970 737
985 757
993 781
1000 805
1010 828
1010 853
1010 878
1010 903
1010 928
1022 950
1040 968
1058 986
1076 1004
1096 1019
1120 1027
1135 1047
1125 1080
1105 1095
1080 1090
1057 1080
1037 1065
1017 1050
999 1032
981 1014
964 995
951 973
939 951
934 926
934 901
934 876
934 851
929 826
919 803
912 779
897 759
877 744
856 730
844 752
829 772
810 790
790 805
809 822
824 842
830 867
845 887
845 912
845 937
830 965
820 1000
820 1025
820 1050
820 1075
825 1100
844 1117
862 1135
882 1150
895 1172
884 1202
862 1215
837 1210
817 1195
799 1177
779 1162
764 1142
749 1122
744 1097
744 1072
744 1047
744 1022
744 997
754 962
764 932
767 905
759 881
741 863
719 850
694 845
669 850
644 850
619 845
594 840
569 837
550 855
540 880
540 905
540 930
545 955
550 980
555 1005
560 1030
565 1055
555 1100
545 1130
530 1150
515 1170
493 1183
470 1195
447 1205
422 1210
397 1215
372 1210
354 1192
349 1167
364 1147
388 1139
413 1139
436 1129
459 1117
477 1099
486 1075
486 1044
479 1020
479 995
474 970
464 947
464 922
464 897
464 872
474 842
486 820
501 800
488 775
473 755
459 734
449 711
435 690
410 695
390 710
375 730
365 755
365 780
365 805
365 830
365 855
365 880
355 905
344 937
329 957
314 977
294 992
279 1012
260 1030
238 1043
218 1058
194 1067
172 1079
147 1075
129 1057
124 1032
139 1012
161 1000
185 991
205 976
225 961
240 941
259 922
277 904
286 880
289 852
289 827
289 802
289 777
289 752
299 717
309 687
329 672
344 652
362 634
386 625
411 619
424 597
424 572
429 547
439 517
434 490
414 475
391 465
366 460
341 460
316 460
291 460
268 470
247 484
229 502
211 520
199 542
180 560
160 575
140 590
117 600
92 605
67 600
