334 472
329 517
334 542
339 567
344 592
359 612
379 627
404 630
429 630
454 630
476 643
500 650
525 655
550 650
573 640
598 635
623 635
648 640
673 635
698 635
723 635
748 635
773 635
798 635
823 635
848 635
873 635
898 635
923 630
948 630
971 620
996 615
1021 615
1046 615
1071 610
1096 610
1121 610
1146 610
1171 610
1196 610
1221 610
1246 605
1271 605
1296 605
1321 605
1346 605
1371 605
1396 605
1421 600
1446 600
1471 600
1496 600
1521 595
1546 595
1571 595
1596 590
1621 590
1646 590
1671 585
1696 580
1714 562
1725 535
1730 503
1730 478
1718 456
1698 441
1674 434
1649 434
1624 429
1599 429
1574 429
1549 429
1524 429
1499 429
1474 429
1449 429
1424 429
1399 426
1374 424
1349 426
1324 424
1299 424
1274 424
1249 424
1224 426
1199 424
1174 429
1149 424
1124 424
1099 424
1074 424
1049 424
1024 429
999 424
974 424
950 417
925 414
900 414
875 414
850 414
825 414
800 414
775 414
750 414
725 414
700 414
675 414
650 414
625 414
600 414
577 404
555 392
530 389
505 389
480 391
458 404
433 409
408 409
384 417
361 430
346 450
