84 732
84 707
104 692
114 657
114 632
109 607
104 582
114 552
132 534
152 519
174 507
198 499
221 489
244 479
269 474
294 467
318 459
341 449
366 444
391 439
416 434
441 429
466 424
491 419
515 411
540 409
565 404
590 399
615 394
640 391
665 389
688 379
708 364
728 349
743 329
761 310
781 295
799 277
817 259
837 244
857 229
877 214
897 199
919 187
941 174
964 164
989 159
1014 154
1039 154
1064 154
1089 149
1114 144
1139 144
1164 139
1189 139
1214 139
1239 137
1264 134
1289 139
1314 139
1339 134
1364 134
1389 139
1414 139
1439 139
1464 144
1489 144
1514 144
1539 144
1564 149
1589 149
1614 154
1639 159
1664 159
1688 166
1712 174
1737 179
1762 184
1787 189
1812 194
1834 206
1856 219
1878 231
1898 246
1916 264
1934 282
1952 300
1970 318
1988 336
2006 354
2024 372
2039 392
2057 410
2075 428
2095 443
2119 451
2143 460
2167 469
2187 484
2209 496
2227 514
2240 536
2250 559
2255 584
2255 609
2260 634
2273 656
2274 687
2259 707
2240 725
2216 735
2191 740
2168 750
2144 757
2120 765
2108 788
2096 810
2084 832
2064 847
2042 860
2017 860
1992 860
1972 845
1950 832
1925 830
1900 835
1875 840
1850 845
1825 850
1800 850
1775 855
1750 855
1725 855
1700 855
1675 860
1650 865
1625 865
1600 865
1575 865
1550 865
1525 865
1500 870
1475 870
1450 870
1425 875
1410 895
1401 920
1381 935
1361 950
1338 960
1313 965
1288 965
1263 965
1239 956
1219 941
1201 923
1176 920
1151 920
1126 920
1101 920
1076 920
1051 920
1026 920
1001 920
976 920
951 920
926 920
901 920
876 920
851 920
826 920
801 920
776 920
751 920
726 915
701 910
676 910
651 905
626 900
601 895
578 885
554 892
535 910
515 925
492 935
467 940
442 935
417 930
395 917
375 902
355 887
336 870
313 860
288 860
263 855
238 850
215 840
192 830
174 812
159 792
140 775
117 765
94 755
