409 552
404 577
409 602
419 625
424 650
429 675
434 700
441 724
454 746
474 761
495 775
520 770
545 770
568 758
588 743
605 720
625 705
650 705
675 705
700 705
725 705
750 705
775 710
800 710
825 715
850 715
875 715
900 720
925 720
950 725
975 730
994 747
1014 762
1036 775
1059 785
1082 795
1107 800
1132 800
1157 800
1182 800
1207 795
1232 789
1254 777
1274 762
1296 750
1319 740
1344 740
1369 735
1394 735
1419 735
1444 730
1469 730
1494 735
1519 735
1544 740
1569 740
1594 740
1617 750
1637 765
1657 780
1680 790
1705 790
1730 785
1755 785
1780 785
1805 780
1828 768
1843 748
1861 730
1883 718
1907 710
1927 694
1922 654
1915 630
1915 605
1920 580
1925 555
1925 517
1925 492
1915 469
1900 449
1885 429
1865 414
1843 401
1821 389
1798 379
1775 369
1752 359
1727 354
1704 344
1680 337
1656 329
1634 317
1614 302
1594 287
1574 272
1556 254
1536 239
1516 224
1494 211
1472 199
1449 189
1428 175
1405 164
1382 154
1359 144
1335 137
1311 129
1286 124
1261 119
1236 119
1211 114
1186 109
1161 109
1136 104
1111 104
1086 99
1061 99
1036 99
1011 99
986 99
961 94
936 94
911 94
886 94
861 94
836 99
811 99
786 105
762 114
737 119
714 129
690 136
666 145
642 154
622 169
602 184
584 202
565 221
547 239
529 257
514 277
499 297
486 320
471 340
456 360
444 382
434 412
424 447
419 477
414 512
