652 1145
634 1127
654 1112
678 1104
703 1104
728 1104
753 1105
777 1114
802 1119
825 1129
851 1134
844 1110
829 1090
819 1067
819 1042
824 1002
829 972
829 947
829 922
839 897
849 862
861 840
874 812
886 790
891 750
866 750
841 750
816 755
791 760
768 770
744 777
722 790
704 772
714 747
724 722
729 692
739 667
749 642
761 620
774 592
784 567
794 537
809 512
827 494
815 453
804 430
794 407
794 382
794 357
794 332
794 307
804 277
819 257
834 237
852 219
874 207
896 194
920 186
944 179
969 184
990 198
1008 216
1020 238
1032 260
1047 280
1045 310
1035 335
1025 360
1015 395
1039 404
1064 404
1089 404
1099 362
1104 337
1114 307
1129 287
1151 275
1176 274
1201 274
1226 274
1251 274
1276 279
1300 287
1322 299
1340 317
1350 340
1355 365
1355 390
1350 415
1340 460
1330 490
1319 517
1304 537
1285 555
1263 570
1238 575
1215 585
1190 585
1165 585
1140 585
1120 600
1104 622
1080 630
1060 645
1040 660
1020 675
1043 685
1067 694
1089 706
1111 719
1130 736
1140 759
1163 769
1188 769
1213 775
1235 787
1223 823
1198 830
1177 844
1152 849
1131 835
1114 816
1104 793
1093 770
1070 760
1045 760
1045 785
1045 810
1045 835
1045 860
1050 885
1055 910
1060 935
1070 958
1095 964
1120 964
1145 967
1170 969
1195 969
1219 962
1237 944
1252 924
1264 897
1274 872
1289 852
1301 830
1314 792
1324 757
1336 735
1351 715
1374 704
1399 704
1413 725
1385 730
1361 740
1349 762
1339 787
1333 813
1325 837
1315 860
1305 885
1295 910
1293 953
1288 978
1275 1000
1260 1020
1238 1035
1213 1035
1188 1030
1163 1030
1138 1025
1113 1020
1088 1020
1063 1020
1040 1030
1040 1055
1040 1080
1040 1105
1064 1114
1089 1114
1114 1114
1139 1114
1164 1114
1189 1119
1212 1129
1196 1170
1171 1170
1146 1165
1121 1163
1096 1160
1071 1160
1046 1158
1021 1155
996 1155
989 1117
994 1075
993 1050
970 1040
945 1040
920 1040
895 1040
895 1065
895 1090
890 1125
877 1159
852 1160
827 1160
802 1160
777 1155
752 1150
727 1150
702 1145
677 1145
