74 617
69 647
79 670
84 695
91 719
96 744
109 766
119 789
133 810
145 832
160 852
178 870
196 888
214 906
236 918
258 930
281 940
304 950
329 955
354 960
379 965
404 965
429 960
454 962
479 957
504 955
529 950
554 945
577 935
600 925
623 913
645 900
670 895
693 885
715 870
738 858
760 845
779 827
794 807
805 780
815 748
794 734
769 737
747 749
722 754
697 754
673 764
650 774
627 784
603 794
579 802
555 811
530 816
505 819
480 819
455 819
430 824
407 814
382 814
359 804
334 801
314 786
299 766
280 749
265 729
262 704
247 684
240 660
250 615
263 593
270 565
283 543
303 528
318 508
336 490
356 475
379 465
402 454
424 442
448 433
470 420
494 412
518 403
543 398
567 390
590 380
615 375
640 370
665 365
690 360
715 360
740 360
765 360
790 355
815 352
840 350
865 350
890 350
915 345
940 345
965 345
990 340
1015 335
1040 332
1065 330
1090 330
1115 325
1140 325
1165 320
1190 315
1215 315
1240 310
1265 305
1290 305
1315 310
1339 302
1363 293
1385 280
1408 268
1428 253
1450 240
1473 228
1495 215
1514 197
1525 154
1505 139
1482 129
1457 124
1435 112
1413 99
1388 94
1364 86
1339 89
1314 89
1289 94
1264 94
1239 97
1214 99
1189 99
1164 94
1139 91
1114 86
1089 84
1064 84
1039 87
1014 89
989 94
964 99
941 109
916 114
891 120
867 129
842 134
817 139
792 144
767 144
742 149
717 154
694 164
669 167
644 169
621 179
596 179
571 184
548 194
524 202
499 209
475 216
450 219
427 229
405 241
383 254
363 269
339 277
317 289
294 299
271 310
249 322
227 334
209 352
189 367
169 382
149 397
134 422
119 447
104 472
94 502
89 527
79 562
79 587
