154 702
154 727
154 752
154 802
159 827
164 852
176 874
194 892
212 910
230 928
252 940
272 955
294 967
316 980
339 990
361 1003
383 1015
408 1020
431 1030
454 1040
479 1045
502 1055
527 1060
552 1065
577 1070
601 1078
626 1083
651 1085
676 1090
701 1095
726 1095
751 1100
776 1100
801 1095
826 1095
851 1090
876 1085
901 1080
926 1075
951 1070
976 1065
1001 1060
1026 1055
1051 1050
1075 1040
1100 1035
1125 1030
1150 1025
1175 1020
1200 1015
1225 1015
1250 1010
1275 1010
1300 1005
1325 1005
1350 1005
1375 1010
1400 1010
1425 1010
1450 1015
1475 1015
1500 1020
1524 1027
1524 1052
1536 1074
1559 1085
1584 1090
1609 1095
1634 1100
1659 1105
1682 1115
1707 1115
1732 1115
1757 1115
1782 1120
1807 1120
1832 1120
1857 1120
1882 1120
1907 1120
1932 1115
1957 1114
1981 1105
2006 1100
2029 1090
2052 1079
2072 1064
2090 1045
2105 1025
2118 1003
2130 980
2143 958
2150 925
2160 895
2173 873
2182 849
2190 820
2190 795
2190 770
2185 727
2180 702
2180 677
2175 652
2170 627
2164 602
2160 577
2160 552
2147 530
2138 506
2126 484
2114 462
2096 444
2076 429
2056 414
2033 404
2009 396
1985 389
1960 384
1937 374
1912 369
1887 364
1862 359
1837 354
1812 349
1787 344
1762 339
1737 334
1712 329
1687 324
1662 324
1637 319
1612 319
1587 314
1562 314
1537 314
1512 309
1487 309
1462 309
1437 309
1412 314
1387 314
1362 314
1337 314
1312 319
1287 319
1262 324
1237 329
1212 334
1205 310
1215 279
1192 269
1171 284
1151 299
1131 315
1111 330
1090 344
1065 349
1042 359
1020 371
996 379
971 384
948 394
923 399
900 409
875 414
850 416
825 419
800 419
777 429
752 429
727 429
702 434
677 439
652 444
627 449
602 454
577 459
552 464
527 464
502 469
477 474
452 479
428 489
403 494
379 502
355 509
332 519
309 529
286 540
264 552
242 564
222 579
204 597
189 617
176 640
164 662
