94 732
94 707
99 672
114 652
129 627
144 607
162 589
182 574
202 559
225 549
248 539
271 529
294 519
317 509
342 504
365 494
390 489
414 482
439 477
464 472
489 467
514 462
538 454
563 454
588 449
613 444
638 439
663 434
688 429
713 424
736 414
761 409
786 404
811 404
836 399
861 399
886 394
911 394
936 394
960 386
984 377
1009 374
1031 360
1056 359
1080 351
1094 327
1116 314
1140 306
1149 282
1167 264
1190 254
1204 232
1222 214
1242 199
1267 194
1279 172
1297 154
1320 144
1345 141
1365 126
1387 114
1409 102
1434 99
1459 99
1484 104
1507 114
1532 119
1555 129
1578 139
1601 149
1626 154
1650 162
1674 169
1697 179
1722 184
1745 194
1770 199
1794 206
1819 211
1844 214
1869 219
1894 224
1919 224
1944 229
1969 229
1994 234
2019 234
2044 239
2069 239
2094 244
2119 244
2144 249
2169 251
2194 254
2217 264
2239 276
2255 296
2269 317
2289 332
2309 347
2320 370
2330 393
2342 415
2350 439
2360 462
2368 486
2365 535
2365 560
2365 585
2355 610
2345 640
2335 665
2325 700
2315 735
2315 770
2305 805
2295 835
2285 860
2275 885
2265 915
2260 940
2251 965
2239 987
2224 1007
2204 1022
2184 1037
2162 1049
2138 1058
2114 1065
2089 1070
2064 1075
2039 1075
2014 1080
1989 1080
1964 1080
1939 1080
1914 1080
1889 1075
1864 1075
1839 1070
1814 1070
1789 1065
1764 1065
1739 1060
1714 1060
1689 1055
1664 1050
1639 1045
1614 1040
1604 1017
1604 992
1591 970
1566 970
1541 970
1516 970
1491 970
1466 970
1441 975
1416 975
1391 980
1366 985
1341 985
1316 990
1292 999
1267 1005
1242 1010
1218 1018
1194 1025
1171 1035
1147 1044
1122 1050
1099 1060
1076 1070
1051 1075
1028 1085
1004 1092
980 1100
955 1105
930 1110
905 1110
880 1115
855 1115
830 1115
805 1115
780 1115
755 1110
730 1110
705 1105
680 1102
655 1100
630 1095
605 1090
580 1085
555 1080
531 1073
507 1065
482 1060
457 1054
433 1045
409 1037
385 1030
362 1020
339 1010
315 1002
291 994
269 982
247 970
225 958
205 943
185 928
165 913
147 895
132 875
119 853
109 830
99 807
94 782
94 757
