50 381
50 356
63 334
78 314
98 299
122 290
147 290
172 290
197 295
217 310
232 330
240 354
235 395
220 415
199 430
174 435
149 431
127 419
115 396
115 371
140 345
165 348
150 380
165 400
190 395
205 366
200 341
180 325
155 325
120 330
98 343
85 365
85 390
95 413
107 435
122 455
142 470
164 482
188 490
213 490
238 484
258 469
279 455
299 438
314 418
332 400
347 380
362 360
374 338
386 315
400 291
413 269
425 241
444 223
456 200
471 180
486 160
505 141
528 129
548 114
569 100
592 90
617 85
642 80
667 75
692 70
717 70
742 70
766 79
788 91
810 103
830 118
850 133
865 153
880 173
885 198
883 238
870 260
857 284
839 302
819 317
794 320
769 322
744 325
719 320
696 310
676 294
661 274
650 251
650 226
650 201
665 181
684 163
706 150
731 145
756 149
781 155
801 170
819 188
820 225
805 250
783 263
758 265
733 259
715 241
715 216
740 210
755 230
780 225
774 195
751 185
726 180
704 192
685 210
685 235
695 258
710 278
734 285
759 290
795 285
818 274
833 254
845 231
845 193
838 169
820 151
800 136
778 124
757 110
732 105
707 105
682 109
657 114
632 120
607 125
583 133
560 145
538 160
519 177
504 197
489 217
474 237
455 255
443 283
430 305
418 333
403 353
390 375
375 395
359 417
344 437
329 457
310 475
290 490
270 505
250 520
225 525
200 525
175 521
150 515
127 504
107 489
89 471
75 450
61 429
50 406
