15 316
15 291
20 256
30 231
40 206
55 186
70 166
89 148
109 133
127 115
149 103
167 85
189 73
211 60
234 50
259 45
284 38
309 35
334 35
359 36
380 50
400 65
416 85
434 103
449 123
460 146
467 170
475 194
475 219
480 244
485 269
485 294
485 319
494 343
495 368
490 405
485 440
485 465
485 490
485 515
485 540
485 565
485 590
480 625
480 650
480 675
475 700
475 725
475 750
470 795
470 820
470 845
470 870
470 895
470 920
470 945
470 970
470 995
470 1020
470 1045
470 1070
470 1095
470 1120
471 1145
475 1170
476 1195
485 1219
490 1244
495 1269
510 1289
523 1311
538 1331
559 1345
584 1350
609 1350
634 1348
658 1340
680 1326
700 1311
719 1293
735 1271
750 1246
760 1208
760 1183
749 1160
729 1145
709 1130
681 1115
639 1100
614 1100
589 1102
569 1117
550 1135
550 1160
550 1185
555 1210
561 1235
579 1253
601 1265
624 1275
647 1265
667 1250
685 1226
686 1194
675 1171
650 1170
659 1212
641 1230
616 1228
594 1216
590 1191
595 1166
615 1150
636 1135
661 1130
686 1140
706 1155
720 1176
725 1201
714 1247
699 1267
681 1285
661 1300
637 1309
612 1305
589 1295
565 1288
548 1269
530 1251
524 1226
520 1201
515 1176
515 1151
515 1126
530 1106
549 1088
571 1075
594 1065
619 1065
644 1070
669 1075
692 1085
716 1094
736 1109
756 1124
774 1142
790 1162
795 1187
790 1230
784 1257
772 1279
757 1299
742 1319
722 1334
704 1352
684 1367
660 1375
636 1385
611 1385
586 1385
561 1383
539 1370
516 1359
501 1339
486 1319
475 1296
465 1273
456 1249
450 1224
440 1201
434 1176
430 1151
429 1126
425 1101
420 1076
415 1051
410 1026
410 1001
410 976
409 951
405 926
405 901
405 876
400 851
400 826
400 781
400 756
400 731
400 686
405 641
410 611
410 586
415 546
415 521
415 496
425 471
425 446
430 416
435 391
435 366
420 346
420 321
420 296
420 271
413 245
395 227
390 202
380 179
366 158
344 145
320 137
298 125
275 115
250 120
227 130
202 135
177 140
154 150
131 160
111 175
93 193
78 213
65 235
55 265
50 300
55 325
61 350
70 374
85 394
104 411
125 425
150 425
174 418
198 409
218 394
240 376
259 358
270 331
275 306
273 270
258 250
240 232
221 215
198 205
173 200
150 210
130 225
120 250
143 260
165 246
186 260
183 303
163 320
140 330
115 335
95 319
88 295
80 271
88 245
102 220
117 200
137 185
174 165
199 170
222 180
244 192
262 210
280 228
298 246
310 268
310 310
300 350
289 377
271 395
253 413
230 425
208 440
185 450
162 460
137 460
112 455
89 445
70 428
55 408
40 388
31 364
25 339
