100 971
100 946
110 906
110 866
120 836
120 796
130 766
140 726
155 706
168 684
170 656
185 636
198 614
210 586
225 566
235 536
250 516
265 496
278 474
296 455
305 426
325 406
345 386
365 371
384 353
406 340
429 330
454 323
479 320
504 318
528 310
553 310
578 310
603 310
626 320
646 335
664 353
675 376
682 400
685 425
690 460
695 485
695 510
695 535
690 560
685 590
675 625
665 665
655 705
645 745
638 793
625 815
623 843
610 865
595 885
580 905
560 925
545 950
527 969
504 980
481 990
458 1000
434 1007
409 1010
384 1010
360 1001
341 984
321 969
306 949
295 926
280 906
280 881
280 856
280 831
290 801
305 776
320 756
339 738
354 718
372 700
395 690
420 690
443 700
465 713
480 733
480 780
464 800
439 801
420 784
413 760
394 777
379 797
360 815
350 840
350 865
350 890
364 911
381 930
404 940
429 935
452 925
476 915
496 900
516 885
529 863
547 845
555 816
565 786
575 746
585 706
595 666
605 626
615 581
620 551
625 506
625 481
625 448
615 425
613 400
597 380
572 380
547 380
522 380
499 390
474 390
449 395
426 405
408 423
385 435
365 455
356 485
341 505
323 523
310 545
295 565
280 585
265 620
255 645
240 665
225 690
225 715
210 735
195 760
195 785
185 815
185 855
175 885
180 910
165 940
165 980
165 1020
170 1045
175 1090
180 1115
186 1140
190 1165
200 1188
205 1213
220 1233
230 1256
240 1279
253 1301
265 1323
280 1343
300 1358
305 1383
323 1401
341 1419
355 1440
361 1465
380 1482
400 1498
418 1516
433 1536
448 1556
466 1574
481 1594
504 1605
527 1615
547 1600
559 1578
577 1560
585 1531
595 1501
608 1479
615 1451
630 1431
643 1409
650 1381
660 1351
675 1331
690 1301
700 1271
715 1251
728 1229
735 1201
755 1181
765 1151
780 1131
795 1111
808 1089
823 1069
835 1041
850 1021
863 999
881 980
890 951
905 931
920 911
940 891
955 871
970 851
990 831
1010 811
1025 791
1045 776
1065 756
1085 740
1101 720
1121 705
1144 695
1165 681
1185 666
1210 660
1233 650
1256 640
1281 635
1305 626
1330 620
1353 610
1378 609
1402 600
1427 605
1452 605
1472 590
1497 595
1522 590
1547 595
1572 595
1597 590
1621 599
1645 590
1670 595
1695 590
1718 600
1741 590
1764 600
1787 590
1812 595
1837 590
1862 595
1887 590
1912 595
1937 590
1962 595
1987 590
2012 595
2037 590
2062 595
2087 590
2107 605
2132 600
2157 605
2182 605
2207 610
2232 615
2257 610
2277 625
2302 625
2327 630
2351 639
2376 640
2399 650
2422 660
2442 675
2464 687
2486 700
2510 708
2530 723
2552 735
2567 755
2587 770
2605 788
2627 800
2642 820
2657 840
2672 860
2690 878
2710 893
2722 915
2740 933
2755 953
2770 973
2782 995
2795 1017
2810 1037
2818 1061
2830 1083
2840 1120
2854 1141
2869 1161
2875 1186
2880 1220
2894 1241
2895 1266
2905 1289
2905 1314
2890 1350
2885 1385
2875 1415
2868 1443
2853 1463
2838 1483
2825 1505
2805 1520
2790 1540
2770 1555
2753 1575
2729 1582
2709 1597
2685 1605
2665 1620
2640 1620
2616 1630
2591 1635
2566 1635
2546 1650
2521 1645
2499 1657
2474 1655
2449 1660
2424 1655
2399 1655
2374 1655
2349 1655
2324 1650
2299 1647
2274 1645
2249 1640
2226 1629
2205 1615
2181 1608
2157 1599
2132 1594
2108 1585
2088 1570
2066 1558
2042 1549
2022 1534
2000 1522
1980 1507
1960 1492
1936 1485
1919 1466
1899 1451
1881 1433
1863 1415
1843 1400
1825 1382
1813 1360
1795 1342
1777 1324
1765 1302
1747 1284
1735 1262
1723 1240
1715 1216
1710 1191
1710 1166
1715 1131
1725 1106
1740 1081
1755 1056
1775 1036
1795 1020
1814 1003
1836 990
1860 981
1883 970
1908 964
1925 945
1949 938
1973 930
1996 920
2020 911
2045 905
2068 895
2091 885
2116 880
2141 875
2164 865
2189 865
2214 865
2239 865
2264 871
2288 880
2308 895
2328 910
2345 929
2365 944
2384 961
2399 981
2416 1000
2431 1020
2440 1044
2459 1061
2470 1084
2475 1109
2488 1131
2490 1156
2485 1195
2475 1235
2465 1260
2449 1282
2429 1297
2410 1315
2390 1330
2367 1340
2343 1348
2318 1355
2293 1355
2268 1354
2243 1350
2221 1338
2199 1326
2181 1308
2159 1296
2141 1278
2119 1266
2101 1248
2086 1228
2074 1206
2070 1181
2070 1156
2080 1131
2100 1115
2116 1095
2139 1083
2163 1075
2186 1065
2209 1055
2234 1050
2255 1064
2253 1108
2230 1120
2206 1130
2183 1140
2159 1147
2140 1165
2141 1190
2156 1210
2179 1221
2196 1240
2219 1251
2236 1270
2259 1280
2284 1285
2309 1285
2334 1278
2358 1270
2380 1251
2399 1233
2411 1210
2416 1185
2420 1150
2410 1127
2405 1102
2387 1084
2375 1062
2363 1040
2348 1020
2330 1002
2311 985
2291 969
2274 950
2251 940
2226 935
2201 935
2176 935
2151 940
2126 945
2103 955
2079 962
2055 970
2032 980
2008 988
1983 995
1959 1002
1940 1020
1916 1030
1893 1040
1869 1047
1849 1062
1829 1077
1810 1095
1795 1120
1785 1145
1780 1175
1785 1200
1790 1225
1800 1248
1820 1263
1830 1286
1849 1303
1864 1323
1879 1343
1899 1358
1918 1375
1933 1395
1950 1414
1970 1429
1993 1440
2015 1453
2037 1465
2057 1480
2077 1495
2101 1504
2121 1519
2144 1530
2169 1536
2194 1540
2217 1550
2241 1559
2261 1574
2286 1580
2311 1585
2336 1580
2359 1590
2382 1600
2405 1590
2430 1595
2455 1590
2480 1591
2505 1595
2528 1584
2553 1584
2574 1570
2599 1568
2623 1560
2648 1554
2672 1545
2692 1530
2716 1520
2736 1505
2751 1485
2770 1466
2785 1446
2800 1426
2813 1404
2820 1376
2830 1346
2835 1314
2835 1289
2825 1266
2825 1241
2815 1214
2808 1190
2793 1170
2785 1146
2779 1121
2764 1101
2755 1077
2745 1054
2730 1034
2716 1013
2704 991
2689 971
2670 954
2656 933
2638 915
2623 895
2603 880
2591 858
2571 843
2551 828
2533 810
2518 790
2498 775
2475 765
2451 758
2431 743
2409 730
2389 715
2364 710
2344 695
2319 695
2294 690
2270 681
2245 680
2220 675
2195 675
2170 670
2145 665
2120 667
2098 655
2073 659
2048 653
2023 659
1998 653
1973 660
1950 650
1927 660
1904 650
1881 660
1858 650
1835 660
1810 655
1785 660
1762 650
1739 660
1716 650
1693 660
1668 655
1643 659
1618 653
1593 659
1568 658
1543 655
1518 660
1493 655
1468 655
1447 669
1422 665
1397 670
1374 680
1349 680
1326 690
1302 699
1277 705
1253 713
1230 725
1205 730
1188 750
1164 757
1145 775
1125 790
1105 805
1085 825
1070 845
1050 860
1031 880
1019 902
1000 920
981 940
969 962
950 980
940 1010
925 1030
910 1050
895 1070
880 1095
868 1118
853 1138
840 1160
825 1180
815 1210
795 1230
788 1258
773 1278
760 1300
750 1330
739 1362
720 1380
710 1410
703 1438
690 1460
675 1480
668 1508
655 1530
645 1560
635 1590
615 1610
604 1637
589 1657
569 1672
547 1685
522 1685
497 1680
475 1667
453 1655
433 1639
418 1619
400 1601
385 1581
366 1564
351 1544
334 1525
319 1505
300 1488
291 1464
274 1445
255 1428
245 1405
231 1384
216 1364
201 1344
190 1321
175 1301
169 1276
156 1254
141 1234
135 1209
128 1185
120 1161
115 1136
110 1111
105 1066
100 1041
100 1001
