444 897
444 872
454 847
469 827
489 812
513 804
538 804
561 814
576 834
591 854
606 874
621 894
641 909
656 929
676 944
689 905
689 880
689 855
689 830
684 805
674 782
662 760
644 742
625 725
600 720
576 713
552 705
529 695
506 684
491 664
476 644
464 622
459 597
454 572
454 547
464 517
474 492
486 470
506 454
531 449
556 449
581 449
603 461
621 479
636 499
645 523
668 534
693 529
718 529
743 524
757 500
744 478
744 453
734 430
711 420
686 425
666 409
651 389
639 367
639 342
639 317
639 292
659 277
684 272
708 264
733 259
756 249
769 227
764 187
759 162
759 137
771 115
794 104
819 104
839 119
864 124
888 131
913 134
938 140
963 144
988 144
1013 144
1038 144
1060 131
1082 119
1106 110
1129 99
1143 120
1150 144
1160 167
1172 189
1195 199
1214 216
1229 236
1220 265
1225 290
1230 315
1230 340
1230 365
1228 398
1205 410
1183 423
1158 430
1135 440
1110 445
1110 470
1127 489
1147 504
1167 519
1192 519
1217 524
1242 529
1250 553
1259 577
1274 597
1292 615
1307 635
1325 653
1337 675
1352 695
1367 715
1385 733
1390 758
1385 795
1373 818
1350 830
1352 855
1365 877
1380 897
1385 922
1375 950
1363 978
1350 1000
1335 1025
1325 1050
1315 1080
1300 1110
1288 1133
1266 1145
1244 1157
1220 1165
1195 1170
1170 1170
1147 1159
1129 1141
1114 1121
1102 1099
1078 1090
1053 1088
1031 1100
1006 1105
981 1110
956 1110
931 1110
906 1110
881 1110
858 1100
835 1090
810 1085
794 1112
770 1120
745 1120
729 1152
705 1160
680 1165
655 1165
630 1165
607 1155
584 1145
564 1130
540 1123
520 1108
502 1090
490 1068
484 1043
479 1018
474 993
466 969
459 945
449 922
