459 927
459 902
469 867
479 842
494 817
516 805
541 809
563 821
583 836
605 848
627 860
647 875
662 895
674 872
674 847
674 822
679 797
679 772
674 747
652 735
629 725
604 720
581 710
558 700
538 685
516 673
494 660
484 637
489 612
489 587
494 562
504 532
514 507
526 485
544 467
568 459
593 459
613 475
625 497
633 521
648 541
673 539
698 534
723 529
748 529
772 519
764 482
752 460
739 438
721 420
696 425
671 423
649 410
639 387
634 362
634 337
644 307
659 282
677 264
699 252
724 249
749 244
769 217
774 177
774 152
774 127
784 97
806 84
830 92
852 104
875 114
900 119
923 129
948 129
973 129
998 129
1023 129
1047 119
1069 107
1094 106
1116 119
1128 141
1140 163
1152 185
1169 204
1185 224
1200 244
1205 275
1215 298
1220 323
1220 348
1218 378
1213 403
1194 420
1171 430
1148 440
1125 450
1125 475
1125 500
1130 525
1155 529
1180 529
1205 529
1220 549
1239 566
1257 584
1272 604
1290 622
1302 644
1317 664
1335 682
1355 697
1373 715
1388 735
1400 757
1405 782
1398 818
1378 833
1355 845
1374 862
1380 887
1375 935
1365 965
1355 1000
1345 1025
1337 1059
1328 1083
1315 1105
1301 1130
1286 1150
1266 1165
1241 1170
1216 1170
1191 1168
1166 1163
1144 1151
1126 1133
1111 1113
1093 1095
1070 1085
1045 1085
1025 1100
1001 1110
976 1115
951 1115
926 1115
901 1109
881 1094
860 1080
835 1080
810 1085
790 1100
768 1113
745 1125
720 1130
695 1135
670 1140
645 1140
620 1135
597 1125
575 1112
555 1097
536 1080
519 1061
504 1041
489 1021
476 999
464 977
459 952
