454 882
459 907
469 930
480 953
489 977
494 1002
504 1025
514 1048
519 1073
529 1096
544 1116
559 1136
583 1145
608 1145
633 1145
658 1145
683 1138
707 1130
730 1120
753 1110
776 1100
799 1090
822 1079
847 1075
862 1095
887 1095
912 1095
937 1095
962 1095
987 1090
1012 1090
1032 1075
1049 1094
1063 1115
1081 1133
1103 1145
1125 1157
1147 1169
1170 1180
1195 1180
1220 1175
1244 1167
1268 1158
1288 1143
1306 1125
1324 1107
1335 1080
1350 1055
1360 1030
1370 995
1380 955
1390 920
1387 895
1379 871
1365 850
1365 825
1384 807
1399 787
1390 746
1377 724
1362 704
1344 686
1332 664
1325 640
1315 617
1303 595
1283 579
1262 565
1254 541
1242 519
1217 524
1192 524
1170 512
1152 494
1132 479
1115 460
1115 435
1140 435
1165 430
1189 422
1209 407
1225 385
1238 363
1234 317
1225 293
1215 270
1233 241
1215 223
1194 209
1180 188
1162 170
1150 148
1135 128
1123 106
1099 99
1076 110
1056 125
1035 139
1010 144
985 149
960 149
935 149
910 149
890 134
870 119
847 109
822 104
797 104
772 109
754 127
759 152
769 175
769 200
749 234
724 234
699 234
676 245
656 260
641 280
629 302
629 327
629 352
634 377
646 399
669 410
689 425
706 444
726 459
749 470
766 489
759 517
750 541
726 549
701 549
676 549
651 549
626 544
608 526
596 504
581 484
556 479
531 479
509 492
494 512
481 540
469 562
459 592
454 627
459 652
477 670
499 682
521 695
546 700
571 700
596 705
621 705
646 708
650 733
659 757
659 782
659 807
659 832
659 857
651 889
633 871
618 851
603 831
584 814
563 800
538 799
514 807
494 822
471 835
459 857
