484 862
484 837
502 819
524 807
549 804
572 814
587 834
605 852
625 867
647 879
667 894
687 909
689 859
684 834
684 809
679 784
670 760
645 760
621 753
599 740
579 725
560 708
545 688
530 668
519 645
509 622
509 597
509 572
514 547
524 522
536 500
551 480
574 467
598 459
623 465
643 480
650 504
650 529
670 544
695 544
720 544
744 537
769 523
769 498
769 473
766 448
746 433
721 428
699 415
679 400
664 380
654 357
649 332
649 307
664 282
682 264
707 264
730 254
753 244
759 212
759 187
764 147
776 125
796 110
821 104
846 109
869 119
892 129
917 134
942 139
967 139
992 144
1017 144
1042 139
1067 139
1085 121
1110 122
1122 144
1140 162
1158 180
1173 200
1190 219
1210 234
1230 249
1220 285
1234 306
1249 326
1254 357
1235 375
1218 398
1203 418
1181 430
1158 440
1133 445
1110 455
1117 479
1129 501
1151 514
1176 514
1201 514
1225 522
1245 537
1260 557
1275 577
1290 597
1305 617
1320 637
1335 657
1354 674
1374 689
1393 706
1411 724
1423 746
1429 772
1414 792
1395 810
1397 835
1410 857
1415 882
1415 907
1415 932
1415 957
1405 990
1393 1018
1380 1040
1365 1060
1350 1080
1335 1105
1320 1125
1300 1140
1280 1155
1260 1170
1236 1178
1212 1169
1192 1154
1171 1140
1148 1130
1125 1120
1104 1106
1086 1088
1068 1070
1044 1077
1025 1095
1001 1105
976 1105
951 1105
926 1105
901 1105
878 1095
854 1087
830 1080
811 1110
791 1125
771 1140
748 1150
725 1160
700 1160
677 1170
652 1170
627 1165
604 1155
584 1140
565 1123
554 1100
544 1077
532 1055
527 1030
515 1008
504 985
494 962
489 937
484 912
484 887
