459 872
459 847
479 832
501 820
524 809
549 804
574 806
596 819
614 837
625 860
639 881
654 901
672 919
684 875
684 850
684 825
684 800
684 775
668 755
643 750
618 750
593 750
568 750
544 742
522 730
502 715
489 693
479 670
469 647
464 622
464 597
464 572
464 547
469 522
481 500
499 482
519 467
543 459
568 459
593 465
610 484
625 504
640 524
655 544
680 544
705 539
729 532
754 527
744 483
739 458
736 433
711 430
686 430
661 424
649 402
644 377
639 352
634 327
634 302
649 282
669 267
691 254
714 244
739 244
764 249
774 207
769 182
764 157
764 132
779 112
801 100
826 99
850 107
872 119
895 129
918 139
943 139
968 139
993 134
1015 121
1039 112
1063 104
1088 99
1113 94
1138 95
1162 104
1170 128
1170 153
1175 178
1199 186
1205 211
1215 234
1210 275
1217 299
1235 317
1240 342
1239 382
1220 400
1198 413
1174 422
1149 427
1125 435
1125 460
1127 485
1144 504
1160 524
1183 534
1208 534
1232 524
1255 534
1265 557
1270 582
1289 599
1309 614
1328 631
1343 651
1360 670
1374 691
1382 715
1390 739
1400 762
1398 788
1385 810
1370 835
1380 858
1395 878
1410 898
1415 923
1410 955
1402 984
1393 1008
1380 1030
1365 1060
1355 1085
1343 1108
1330 1130
1312 1154
1289 1165
1266 1175
1242 1184
1217 1185
1192 1185
1169 1175
1146 1164
1124 1152
1105 1135
1086 1118
1066 1103
1051 1083
1028 1093
1005 1105
980 1105
955 1110
930 1110
905 1110
880 1110
857 1100
834 1090
809 1090
789 1105
766 1115
743 1125
720 1135
695 1140
670 1140
645 1140
620 1145
595 1150
572 1139
554 1121
541 1099
534 1075
529 1050
524 1025
514 1002
499 982
479 967
464 947
459 922
459 897
