292 495
274 477
296 464
315 446
335 431
357 419
377 404
399 392
417 374
437 359
460 349
481 335
463 300
438 295
413 295
388 290
368 274
386 255
406 240
426 225
444 202
462 184
480 166
495 146
515 131
535 116
550 96
562 74
580 56
605 52
620 72
638 90
658 105
678 120
695 139
718 149
738 164
758 180
780 192
799 209
822 219
844 231
869 236
860 260
835 260
810 265
785 270
760 270
740 285
742 310
760 328
780 344
799 361
823 370
843 385
864 399
883 416
905 428
925 443
950 449
970 464
1002 479
978 488
953 490
928 490
903 490
878 490
853 490
828 490
803 490
780 500
780 525
790 548
810 563
830 578
853 589
873 605
895 617
915 632
934 649
953 666
975 678
995 693
974 710
949 715
924 717
899 720
874 725
849 730
824 732
800 740
775 740
750 745
730 760
725 790
725 815
725 840
735 863
740 888
745 920
755 943
764 967
775 990
789 1011
797 1035
805 1059
815 1082
820 1107
825 1132
812 1154
787 1160
762 1160
737 1160
712 1155
687 1155
662 1150
637 1150
612 1150
587 1150
569 1132
569 1107
569 1082
569 1057
569 1032
579 1000
579 975
574 950
574 925
574 900
574 875
564 852
555 828
547 804
535 782
517 764
495 752
470 747
446 740
421 740
396 740
371 740
346 740
324 727
339 707
354 687
366 665
384 642
399 622
414 602
429 582
449 567
464 547
466 508
442 500
417 499
392 495
367 495
342 495
317 495
