104 1762
109 1787
114 1812
139 1815
162 1805
187 1799
207 1784
228 1770
251 1760
274 1750
295 1735
318 1725
341 1715
349 1739
349 1764
349 1789
349 1814
354 1839
354 1864
354 1889
359 1914
359 1939
359 1964
364 1989
364 2014
364 2039
364 2064
364 2089
364 2114
364 2139
364 2164
364 2189
364 2214
364 2239
364 2264
364 2289
364 2314
364 2339
364 2364
366 2389
386 2405
411 2408
435 2400
445 2360
445 2335
445 2310
445 2285
445 2260
445 2235
445 2210
445 2185
450 2160
450 2135
450 2110
450 2085
450 2060
445 2035
445 2010
450 1985
450 1960
450 1935
450 1910
450 1885
450 1860
450 1835
450 1810
450 1785
450 1760
450 1735
450 1710
450 1685
450 1660
474 1667
498 1675
523 1680
548 1685
573 1690
598 1690
623 1685
646 1675
670 1665
695 1660
720 1660
745 1665
765 1650
760 1617
745 1597
732 1575
720 1553
705 1533
690 1513
675 1493
663 1471
650 1449
639 1426
624 1406
610 1385
596 1364
584 1342
570 1321
557 1299
545 1277
535 1254
520 1234
510 1211
500 1188
525 1185
546 1199
570 1207
594 1215
619 1215
642 1225
634 1186
622 1164
607 1144
595 1122
582 1100
567 1080
555 1058
545 1035
538 1011
529 987
517 965
505 943
500 918
485 898
477 874
470 850
490 835
513 845
538 850
563 855
585 835
585 810
575 787
565 764
554 741
542 719
530 697
520 674
510 651
500 628
492 604
485 580
478 556
470 532
460 509
455 484
450 459
442 435
433 411
425 387
420 362
415 337
410 312
405 287
400 262
400 237
395 212
376 195
364 217
364 242
364 267
359 302
359 327
354 357
354 382
349 412
344 457
339 487
334 512
324 537
314 572
304 597
294 622
284 647
276 680
264 702
251 725
239 747
229 777
219 802
206 830
194 852
209 872
234 870
257 860
282 855
307 850
299 882
294 907
284 942
274 977
264 1012
254 1037
244 1062
234 1087
224 1112
209 1137
194 1177
179 1202
165 1226
147 1244
132 1264
117 1284
99 1302
117 1320
142 1320
167 1320
192 1315
217 1310
242 1315
267 1320
274 1352
264 1377
254 1402
244 1427
234 1452
224 1487
214 1512
204 1547
194 1572
184 1597
174 1622
159 1642
149 1667
139 1692
126 1715
114 1737
