1064 897
1064 872
1082 854
1107 849
1129 837
1151 825
1176 819
1201 815
1226 814
1251 814
1276 814
1301 814
1314 792
1314 767
1329 747
1354 744
1379 742
1404 739
1429 739
1454 739
1475 753
1475 778
1480 803
1490 826
1500 849
1515 869
1540 869
1555 889
1570 909
1595 914
1614 931
1609 972
1585 980
1570 1000
1549 1015
1524 1015
1501 1004
1480 990
1455 990
1437 1009
1413 1018
1390 1030
1365 1030
1340 1027
1318 1015
1293 1015
1268 1015
1243 1015
1218 1015
1195 1025
1170 1025
1145 1025
1122 1035
1100 1023
1089 1000
1079 977
1079 952
1097 934
1122 929
1147 929
1138 905
1113 905
1088 905
