1104 887
1104 862
1122 844
1145 834
1170 831
1195 829
1220 829
1245 824
1270 821
1295 819
1320 819
1345 819
1359 792
1369 757
1384 737
1409 734
1434 734
1459 736
1484 739
1508 746
1515 770
1515 795
1530 815
1549 832
1561 854
1586 859
1611 859
1633 871
1638 896
1645 930
1630 955
1605 960
1609 992
1590 1010
1565 1015
1542 1005
1536 980
1511 980
1491 995
1466 995
1441 995
1426 1015
1401 1020
1376 1020
1351 1018
1327 1010
1304 1000
1279 1000
1254 1002
1232 1015
1207 1020
1182 1025
1157 1030
1139 1012
1124 992
1119 967
1119 942
1141 929
1166 929
1173 905
1148 905
1122 905
