954 897
949 872
967 854
989 842
1014 839
1039 839
1064 839
1089 839
1114 839
1139 834
1164 822
1169 792
1187 774
1212 769
1237 764
1262 764
1287 764
1312 769
1320 793
1320 818
1332 840
1350 858
1365 878
1385 893
1399 914
1423 921
1430 945
1418 978
1409 1002
1394 1022
1372 1034
1352 1019
1335 1000
1310 1000
1285 1000
1263 1013
1243 1028
1218 1030
1193 1030
1173 1015
1150 1005
1125 1005
1100 1005
1078 1018
1054 1027
1029 1030
1004 1025
979 1022
974 997
974 972
992 954
1017 949
1019 920
994 920
969 917
