1034 902
1029 877
1047 859
1062 839
1085 829
1110 824
1135 824
1160 824
1185 824
1210 819
1235 819
1260 814
1274 792
1286 770
1309 759
1334 759
1359 759
1384 759
1407 769
1415 793
1430 813
1445 833
1460 853
1475 873
1500 879
1520 894
1520 919
1533 958
1510 970
1510 995
1490 1025
1465 1025
1440 1023
1430 1000
1405 1000
1380 1000
1355 1005
1332 1020
1307 1020
1282 1020
1257 1020
1232 1015
1207 1010
1182 1010
1159 1020
1134 1020
1109 1020
1084 1020
1059 1015
1049 992
1049 967
1064 947
1088 939
1102 915
1077 915
1052 920
