84 822
84 797
94 772
109 752
127 734
150 724
173 714
196 704
219 694
242 684
266 675
290 666
314 657
338 649
361 639
384 629
407 619
432 614
456 605
481 599
505 591
529 584
554 579
577 569
602 564
625 554
650 549
673 539
698 534
721 524
746 519
769 509
794 502
818 494
843 489
867 479
892 474
917 469
942 464
966 455
991 449
1016 444
1041 439
1066 434
1091 429
1104 397
1119 377
1139 362
1159 347
1177 329
1197 314
1215 296
1237 284
1260 274
1285 269
1310 269
1335 269
1360 274
1384 281
1409 284
1434 286
1454 301
1476 314
1501 310
1525 301
1549 294
1574 289
1597 279
1622 274
1646 265
1671 259
1696 254
1721 249
1744 239
1769 234
1794 229
1819 224
1842 214
1867 209
1892 204
1914 192
1936 179
1961 174
1986 174
2011 174
2032 159
2056 150
2081 144
2106 140
2129 129
2154 122
2178 114
2203 109
2228 110
2248 125
2265 144
2275 167
2290 187
2295 212
2295 237
2290 280
2276 310
2258 328
2234 335
2209 340
2184 345
2159 345
2134 340
2114 355
2091 365
2066 363
2041 365
2019 377
2001 395
1976 400
1951 400
1926 400
1902 409
1878 418
1853 425
1829 432
1805 440
1780 445
1756 455
1731 460
1707 469
1682 475
1658 483
1633 490
1608 495
1583 500
1559 507
1535 515
1520 535
1506 575
1484 587
1460 595
1442 614
1424 632
1406 650
1384 662
1369 682
1344 687
1320 680
1295 680
1270 675
1246 668
1221 665
1196 670
1173 660
1153 645
1133 630
1108 635
1083 640
1058 645
1034 652
1009 657
985 665
960 670
935 675
910 680
885 685
862 695
837 700
813 708
788 713
763 720
738 725
715 735
690 740
665 745
641 755
616 760
592 769
567 775
543 783
518 790
493 795
469 802
445 810
421 820
397 829
372 835
347 840
324 850
299 855
276 865
251 870
228 880
205 890
180 895
157 905
132 905
112 890
94 872
89 847
