359 462
359 487
374 507
379 532
364 572
354 597
359 622
374 642
379 667
403 675
428 680
453 680
478 680
503 680
528 685
553 685
578 685
603 685
628 685
653 685
678 685
703 685
728 685
753 685
778 685
803 680
828 675
853 680
878 680
903 685
928 685
950 697
968 715
988 730
1008 745
1028 760
1051 770
1074 780
1099 785
1124 790
1149 795
1169 810
1194 812
1216 800
1239 790
1264 790
1287 780
1312 775
1335 765
1358 753
1380 740
1400 725
1415 705
1438 693
1463 690
1488 690
1513 685
1538 680
1563 685
1588 685
1613 690
1638 690
1663 690
1688 690
1713 695
1738 695
1763 695
1788 695
1813 695
1838 695
1863 695
1888 695
1913 695
1938 695
1963 690
1988 688
2010 670
2020 630
2025 588
2015 565
2015 540
2015 515
2025 492
2025 467
2015 444
2000 424
1977 414
1952 409
1927 409
1902 409
1877 414
1852 419
1827 419
1802 414
1777 414
1752 409
1727 409
1702 409
1677 409
1652 409
1627 409
1602 414
1577 414
1552 419
1527 414
1502 409
1477 409
1452 405
1432 390
1414 372
1396 354
1374 341
1352 329
1328 320
1304 311
1280 304
1255 302
1230 299
1205 294
1180 296
1155 299
1130 301
1105 306
1081 314
1056 320
1035 334
1012 344
992 359
972 374
956 394
931 399
906 399
881 404
856 409
831 404
806 404
781 404
756 404
731 404
706 399
681 405
656 409
631 404
606 404
581 399
556 399
531 399
506 399
481 399
456 399
431 399
406 404
384 417
374 442
