<?xml version="1.0" encoding="UTF-8" standalone="no"?>
<!-- Created with CurveBenchmark -->
<svg
	xmlns:dc="http://purl.org/dc/elements/1.1/"
	xmlns:cc="http://creativecommons.org/ns#"
	xmlns:rdf="http://www.w3.org/1999/02/22-rdf-syntax-ns#"
	xmlns:svg="http://www.w3.org/2000/svg"
	xmlns="http://www.w3.org/2000/svg"
	xmlns:sodipodi="http://sodipodi.sourceforge.net/DTD/sodipodi-0.dtd"
	xmlns:inkscape="http://www.inkscape.org/namespaces/inkscape"
	width="1000"
	height="1000"
	id="svg2"
	version="1.1"
	sodipodi:docname="multiple-curves/ccrust-mc36.txt">
<defs
	id="defs4" />
<metadata
	id="metadata7">
	<rdf:RDF>
		<cc:Work
			rdf:about="">
			<dc:format>image/svg+xml</dc:format>
			<dc:type
				rdf:resource="http://purl.org/dc/dcmitype/StillImage" />
			<dc:title></dc:title>
		</cc:Work>
	</rdf:RDF>
</metadata>
<g
	inkscape:label="Layer 1"
	inkscape:groupmode="layer"
	id="layer1">
	<path style="fill:none;stroke:red;stroke-width:1px;stroke-linecap:butt;stroke-linejoin:miter;stroke-opacity:1" d="M 25.6535,17.0984 38.5102,14.9556 z" id="boundary" inkscape:connector-curvature="0" />
	<path style="fill:none;stroke:red;stroke-width:1px;stroke-linecap:butt;stroke-linejoin:miter;stroke-opacity:1" d="M 76.7422,19.2734 63.8854,18.3068 z" id="boundary" inkscape:connector-curvature="0" />
	<path style="fill:none;stroke:red;stroke-width:1px;stroke-linecap:butt;stroke-linejoin:miter;stroke-opacity:1" d="M 63.8854,18.3068 51.0286,15.0201 z" id="boundary" inkscape:connector-curvature="0" />
	<path style="fill:none;stroke:red;stroke-width:1px;stroke-linecap:butt;stroke-linejoin:miter;stroke-opacity:1" d="M 216.813,4.67667 203.956,8.8817 z" id="boundary" inkscape:connector-curvature="0" />
	<path style="fill:none;stroke:red;stroke-width:1px;stroke-linecap:butt;stroke-linejoin:miter;stroke-opacity:1" d="M 63.8854,18.3068 61.5171,36.2144 z" id="boundary" inkscape:connector-curvature="0" />
	<path style="fill:none;stroke:red;stroke-width:1px;stroke-linecap:butt;stroke-linejoin:miter;stroke-opacity:1" d="M 38.5102,14.9556 51.0286,15.0201 z" id="boundary" inkscape:connector-curvature="0" />
	<path style="fill:none;stroke:red;stroke-width:1px;stroke-linecap:butt;stroke-linejoin:miter;stroke-opacity:1" d="M 4.67667,66.6082 4,43.9397 z" id="boundary" inkscape:connector-curvature="0" />
	<path style="fill:none;stroke:red;stroke-width:1px;stroke-linecap:butt;stroke-linejoin:miter;stroke-opacity:1" d="M 4,43.9397 13.1351,23.0435 z" id="boundary" inkscape:connector-curvature="0" />
	<path style="fill:none;stroke:red;stroke-width:1px;stroke-linecap:butt;stroke-linejoin:miter;stroke-opacity:1" d="M 13.1351,23.0435 25.6535,17.0984 z" id="boundary" inkscape:connector-curvature="0" />
	<path style="fill:none;stroke:red;stroke-width:1px;stroke-linecap:butt;stroke-linejoin:miter;stroke-opacity:1" d="M 54.412,52.5753 42.9086,63.5954 z" id="boundary" inkscape:connector-curvature="0" />
	<path style="fill:none;stroke:red;stroke-width:1px;stroke-linecap:butt;stroke-linejoin:miter;stroke-opacity:1" d="M 54.412,52.5753 61.5171,36.2144 z" id="boundary" inkscape:connector-curvature="0" />
	<path style="fill:none;stroke:red;stroke-width:1px;stroke-linecap:butt;stroke-linejoin:miter;stroke-opacity:1" d="M 42.9086,63.5954 30.0518,71.2321 z" id="boundary" inkscape:connector-curvature="0" />
	<path style="fill:none;stroke:red;stroke-width:1px;stroke-linecap:butt;stroke-linejoin:miter;stroke-opacity:1" d="M 76.7422,19.2734 89.5989,22.4635 z" id="boundary" inkscape:connector-curvature="0" />
	<path style="fill:none;stroke:red;stroke-width:1px;stroke-linecap:butt;stroke-linejoin:miter;stroke-opacity:1" d="M 102.117,25.8951 114.974,29.2785 z" id="boundary" inkscape:connector-curvature="0" />
	<path style="fill:none;stroke:red;stroke-width:1px;stroke-linecap:butt;stroke-linejoin:miter;stroke-opacity:1" d="M 102.117,25.8951 89.5989,22.4635 z" id="boundary" inkscape:connector-curvature="0" />
	<path style="fill:none;stroke:red;stroke-width:1px;stroke-linecap:butt;stroke-linejoin:miter;stroke-opacity:1" d="M 214.445,51.4959 201.588,61.9843 z" id="boundary" inkscape:connector-curvature="0" />
	<path style="fill:none;stroke:red;stroke-width:1px;stroke-linecap:butt;stroke-linejoin:miter;stroke-opacity:1" d="M 203.956,8.8817 191.438,15.5759 z" id="boundary" inkscape:connector-curvature="0" />
	<path style="fill:none;stroke:red;stroke-width:1px;stroke-linecap:butt;stroke-linejoin:miter;stroke-opacity:1" d="M 178.581,22.8501 191.438,15.5759 z" id="boundary" inkscape:connector-curvature="0" />
	<path style="fill:none;stroke:red;stroke-width:1px;stroke-linecap:butt;stroke-linejoin:miter;stroke-opacity:1" d="M 140.349,33.4352 127.492,31.8402 z" id="boundary" inkscape:connector-curvature="0" />
	<path style="fill:none;stroke:red;stroke-width:1px;stroke-linecap:butt;stroke-linejoin:miter;stroke-opacity:1" d="M 127.492,31.8402 114.974,29.2785 z" id="boundary" inkscape:connector-curvature="0" />
	<path style="fill:none;stroke:red;stroke-width:1px;stroke-linecap:butt;stroke-linejoin:miter;stroke-opacity:1" d="M 153.206,33.0485 166.063,29.2785 z" id="boundary" inkscape:connector-curvature="0" />
	<path style="fill:none;stroke:red;stroke-width:1px;stroke-linecap:butt;stroke-linejoin:miter;stroke-opacity:1" d="M 153.206,33.0485 140.349,33.4352 z" id="boundary" inkscape:connector-curvature="0" />
	<path style="fill:none;stroke:red;stroke-width:1px;stroke-linecap:butt;stroke-linejoin:miter;stroke-opacity:1" d="M 166.063,29.2785 178.581,22.8501 z" id="boundary" inkscape:connector-curvature="0" />
	<path style="fill:none;stroke:red;stroke-width:1px;stroke-linecap:butt;stroke-linejoin:miter;stroke-opacity:1" d="M 201.588,61.9843 192.115,78.6191 z" id="boundary" inkscape:connector-curvature="0" />
	<path style="fill:none;stroke:red;stroke-width:1px;stroke-linecap:butt;stroke-linejoin:miter;stroke-opacity:1" d="M 11.4434,79.8033 16.5184,91.1939 z" id="boundary" inkscape:connector-curvature="0" />
	<path style="fill:none;stroke:red;stroke-width:1px;stroke-linecap:butt;stroke-linejoin:miter;stroke-opacity:1" d="M 4.67667,66.6082 11.4434,79.8033 z" id="boundary" inkscape:connector-curvature="0" />
	<path style="fill:none;stroke:red;stroke-width:1px;stroke-linecap:butt;stroke-linejoin:miter;stroke-opacity:1" d="M 11.4434,79.8033 21.2551,75.3888 z" id="boundary" inkscape:connector-curvature="0" />
	<path style="fill:none;stroke:red;stroke-width:1px;stroke-linecap:butt;stroke-linejoin:miter;stroke-opacity:1" d="M 28.6985,103.567 16.5184,91.1939 z" id="boundary" inkscape:connector-curvature="0" />
	<path style="fill:none;stroke:red;stroke-width:1px;stroke-linecap:butt;stroke-linejoin:miter;stroke-opacity:1" d="M 21.2551,75.3888 30.0518,71.2321 z" id="boundary" inkscape:connector-curvature="0" />
	<path style="fill:none;stroke:red;stroke-width:1px;stroke-linecap:butt;stroke-linejoin:miter;stroke-opacity:1" d="M 43.9236,134.444 43.2469,149.162 z" id="boundary" inkscape:connector-curvature="0" />
	<path style="fill:none;stroke:red;stroke-width:1px;stroke-linecap:butt;stroke-linejoin:miter;stroke-opacity:1" d="M 38.5102,113.524 48.322,121.692 z" id="boundary" inkscape:connector-curvature="0" />
	<path style="fill:none;stroke:red;stroke-width:1px;stroke-linecap:butt;stroke-linejoin:miter;stroke-opacity:1" d="M 28.6985,103.567 38.5102,113.524 z" id="boundary" inkscape:connector-curvature="0" />
	<path style="fill:none;stroke:red;stroke-width:1px;stroke-linecap:butt;stroke-linejoin:miter;stroke-opacity:1" d="M 53.0587,171.573 43.2469,149.162 z" id="boundary" inkscape:connector-curvature="0" />
	<path style="fill:none;stroke:red;stroke-width:1px;stroke-linecap:butt;stroke-linejoin:miter;stroke-opacity:1" d="M 56.442,129.523 48.322,121.692 z" id="boundary" inkscape:connector-curvature="0" />
	<path style="fill:none;stroke:red;stroke-width:1px;stroke-linecap:butt;stroke-linejoin:miter;stroke-opacity:1" d="M 56.442,129.523 66.9304,136.531 z" id="boundary" inkscape:connector-curvature="0" />
	<path style="fill:none;stroke:red;stroke-width:1px;stroke-linecap:butt;stroke-linejoin:miter;stroke-opacity:1" d="M 92.3056,150.789 79.4488,144.216 z" id="boundary" inkscape:connector-curvature="0" />
	<path style="fill:none;stroke:red;stroke-width:1px;stroke-linecap:butt;stroke-linejoin:miter;stroke-opacity:1" d="M 79.4488,144.216 66.9304,136.531 z" id="boundary" inkscape:connector-curvature="0" />
	<path style="fill:none;stroke:red;stroke-width:1px;stroke-linecap:butt;stroke-linejoin:miter;stroke-opacity:1" d="M 185.348,105.009 184.671,126.55 z" id="boundary" inkscape:connector-curvature="0" />
	<path style="fill:none;stroke:red;stroke-width:1px;stroke-linecap:butt;stroke-linejoin:miter;stroke-opacity:1" d="M 188.393,90.5172 192.115,78.6191 z" id="boundary" inkscape:connector-curvature="0" />
	<path style="fill:none;stroke:red;stroke-width:1px;stroke-linecap:butt;stroke-linejoin:miter;stroke-opacity:1" d="M 185.348,105.009 188.393,90.5172 z" id="boundary" inkscape:connector-curvature="0" />
	<path style="fill:none;stroke:red;stroke-width:1px;stroke-linecap:butt;stroke-linejoin:miter;stroke-opacity:1" d="M 117.681,162.47 105.162,156.879 z" id="boundary" inkscape:connector-curvature="0" />
	<path style="fill:none;stroke:red;stroke-width:1px;stroke-linecap:butt;stroke-linejoin:miter;stroke-opacity:1" d="M 105.162,156.879 92.3056,150.789 z" id="boundary" inkscape:connector-curvature="0" />
	<path style="fill:none;stroke:red;stroke-width:1px;stroke-linecap:butt;stroke-linejoin:miter;stroke-opacity:1" d="M 186.025,145.046 191.438,162.244 z" id="boundary" inkscape:connector-curvature="0" />
	<path style="fill:none;stroke:red;stroke-width:1px;stroke-linecap:butt;stroke-linejoin:miter;stroke-opacity:1" d="M 127.831,166.586 117.681,162.47 z" id="boundary" inkscape:connector-curvature="0" />
	<path style="fill:none;stroke:red;stroke-width:1px;stroke-linecap:butt;stroke-linejoin:miter;stroke-opacity:1" d="M 191.438,162.244 200.573,178.823 z" id="boundary" inkscape:connector-curvature="0" />
	<path style="fill:none;stroke:red;stroke-width:1px;stroke-linecap:butt;stroke-linejoin:miter;stroke-opacity:1" d="M 184.671,126.55 186.025,145.046 z" id="boundary" inkscape:connector-curvature="0" />
	<path style="fill:none;stroke:red;stroke-width:1px;stroke-linecap:butt;stroke-linejoin:miter;stroke-opacity:1" d="M 65.5771,182.037 53.0587,171.573 z" id="boundary" inkscape:connector-curvature="0" />
	<path style="fill:none;stroke:red;stroke-width:1px;stroke-linecap:butt;stroke-linejoin:miter;stroke-opacity:1" d="M 216.813,4.67667 229.67,4 z" id="boundary" inkscape:connector-curvature="0" />
	<path style="fill:none;stroke:red;stroke-width:1px;stroke-linecap:butt;stroke-linejoin:miter;stroke-opacity:1" d="M 242.188,6.6664 255.045,11.4031 z" id="boundary" inkscape:connector-curvature="0" />
	<path style="fill:none;stroke:red;stroke-width:1px;stroke-linecap:butt;stroke-linejoin:miter;stroke-opacity:1" d="M 267.902,17.7187 255.045,11.4031 z" id="boundary" inkscape:connector-curvature="0" />
	<path style="fill:none;stroke:red;stroke-width:1px;stroke-linecap:butt;stroke-linejoin:miter;stroke-opacity:1" d="M 229.67,4 242.188,6.6664 z" id="boundary" inkscape:connector-curvature="0" />
	<path style="fill:none;stroke:red;stroke-width:1px;stroke-linecap:butt;stroke-linejoin:miter;stroke-opacity:1" d="M 214.445,51.4959 226.963,49.337 z" id="boundary" inkscape:connector-curvature="0" />
	<path style="fill:none;stroke:red;stroke-width:1px;stroke-linecap:butt;stroke-linejoin:miter;stroke-opacity:1" d="M 226.963,49.337 239.82,54.702 z" id="boundary" inkscape:connector-curvature="0" />
	<path style="fill:none;stroke:red;stroke-width:1px;stroke-linecap:butt;stroke-linejoin:miter;stroke-opacity:1" d="M 258.767,83.7022 250.985,67.454 z" id="boundary" inkscape:connector-curvature="0" />
	<path style="fill:none;stroke:red;stroke-width:1px;stroke-linecap:butt;stroke-linejoin:miter;stroke-opacity:1" d="M 250.985,67.454 239.82,54.702 z" id="boundary" inkscape:connector-curvature="0" />
	<path style="fill:none;stroke:red;stroke-width:1px;stroke-linecap:butt;stroke-linejoin:miter;stroke-opacity:1" d="M 267.902,17.7187 280.42,25.1701 z" id="boundary" inkscape:connector-curvature="0" />
	<path style="fill:none;stroke:red;stroke-width:1px;stroke-linecap:butt;stroke-linejoin:miter;stroke-opacity:1" d="M 306.134,18.1134 318.652,8.24531 z" id="boundary" inkscape:connector-curvature="0" />
	<path style="fill:none;stroke:red;stroke-width:1px;stroke-linecap:butt;stroke-linejoin:miter;stroke-opacity:1" d="M 318.652,8.24531 331.509,6.7228 z" id="boundary" inkscape:connector-curvature="0" />
	<path style="fill:none;stroke:red;stroke-width:1px;stroke-linecap:butt;stroke-linejoin:miter;stroke-opacity:1" d="M 331.509,6.7228 344.027,10.4767 z" id="boundary" inkscape:connector-curvature="0" />
	<path style="fill:none;stroke:red;stroke-width:1px;stroke-linecap:butt;stroke-linejoin:miter;stroke-opacity:1" d="M 356.884,19.3701 344.027,10.4767 z" id="boundary" inkscape:connector-curvature="0" />
	<path style="fill:none;stroke:red;stroke-width:1px;stroke-linecap:butt;stroke-linejoin:miter;stroke-opacity:1" d="M 366.357,32.6619 356.884,19.3701 z" id="boundary" inkscape:connector-curvature="0" />
	<path style="fill:none;stroke:red;stroke-width:1px;stroke-linecap:butt;stroke-linejoin:miter;stroke-opacity:1" d="M 364.666,75.856 358.237,89.1156 z" id="boundary" inkscape:connector-curvature="0" />
	<path style="fill:none;stroke:red;stroke-width:1px;stroke-linecap:butt;stroke-linejoin:miter;stroke-opacity:1" d="M 294.281,49.4553 292.939,33.0566 z" id="boundary" inkscape:connector-curvature="0" />
	<path style="fill:none;stroke:red;stroke-width:1px;stroke-linecap:butt;stroke-linejoin:miter;stroke-opacity:1" d="M 292.939,33.0566 306.134,18.1134 z" id="boundary" inkscape:connector-curvature="0" />
	<path style="fill:none;stroke:red;stroke-width:1px;stroke-linecap:butt;stroke-linejoin:miter;stroke-opacity:1" d="M 263.165,101.908 258.767,83.7022 z" id="boundary" inkscape:connector-curvature="0" />
	<path style="fill:none;stroke:red;stroke-width:1px;stroke-linecap:butt;stroke-linejoin:miter;stroke-opacity:1" d="M 280.42,25.1701 292.939,33.0566 z" id="boundary" inkscape:connector-curvature="0" />
	<path style="fill:none;stroke:red;stroke-width:1px;stroke-linecap:butt;stroke-linejoin:miter;stroke-opacity:1" d="M 369.741,60.7437 364.666,75.856 z" id="boundary" inkscape:connector-curvature="0" />
	<path style="fill:none;stroke:red;stroke-width:1px;stroke-linecap:butt;stroke-linejoin:miter;stroke-opacity:1" d="M 370.756,47.2103 369.741,60.7437 z" id="boundary" inkscape:connector-curvature="0" />
	<path style="fill:none;stroke:red;stroke-width:1px;stroke-linecap:butt;stroke-linejoin:miter;stroke-opacity:1" d="M 366.357,32.6619 370.756,47.2103 z" id="boundary" inkscape:connector-curvature="0" />
	<path style="fill:none;stroke:red;stroke-width:1px;stroke-linecap:butt;stroke-linejoin:miter;stroke-opacity:1" d="M 423.198,119.711 410.341,116.327 z" id="boundary" inkscape:connector-curvature="0" />
	<path style="fill:none;stroke:red;stroke-width:1px;stroke-linecap:butt;stroke-linejoin:miter;stroke-opacity:1" d="M 358.237,89.1156 351.132,100.555 z" id="boundary" inkscape:connector-curvature="0" />
	<path style="fill:none;stroke:red;stroke-width:1px;stroke-linecap:butt;stroke-linejoin:miter;stroke-opacity:1" d="M 210.385,123.731 211.4,112.122 z" id="boundary" inkscape:connector-curvature="0" />
	<path style="fill:none;stroke:red;stroke-width:1px;stroke-linecap:butt;stroke-linejoin:miter;stroke-opacity:1" d="M 231.023,99.169 238.805,118.994 z" id="boundary" inkscape:connector-curvature="0" />
	<path style="fill:none;stroke:red;stroke-width:1px;stroke-linecap:butt;stroke-linejoin:miter;stroke-opacity:1" d="M 231.023,99.169 218.505,98.4681 z" id="boundary" inkscape:connector-curvature="0" />
	<path style="fill:none;stroke:red;stroke-width:1px;stroke-linecap:butt;stroke-linejoin:miter;stroke-opacity:1" d="M 238.128,136.869 238.805,118.994 z" id="boundary" inkscape:connector-curvature="0" />
	<path style="fill:none;stroke:red;stroke-width:1px;stroke-linecap:butt;stroke-linejoin:miter;stroke-opacity:1" d="M 211.4,112.122 218.505,98.4681 z" id="boundary" inkscape:connector-curvature="0" />
	<path style="fill:none;stroke:red;stroke-width:1px;stroke-linecap:butt;stroke-linejoin:miter;stroke-opacity:1" d="M 233.392,148.147 227.64,155.188 z" id="boundary" inkscape:connector-curvature="0" />
	<path style="fill:none;stroke:red;stroke-width:1px;stroke-linecap:butt;stroke-linejoin:miter;stroke-opacity:1" d="M 227.64,155.188 216.813,150.161 z" id="boundary" inkscape:connector-curvature="0" />
	<path style="fill:none;stroke:red;stroke-width:1px;stroke-linecap:butt;stroke-linejoin:miter;stroke-opacity:1" d="M 216.813,150.161 211.738,136.587 z" id="boundary" inkscape:connector-curvature="0" />
	<path style="fill:none;stroke:red;stroke-width:1px;stroke-linecap:butt;stroke-linejoin:miter;stroke-opacity:1" d="M 263.165,143.128 258.09,160.504 z" id="boundary" inkscape:connector-curvature="0" />
	<path style="fill:none;stroke:red;stroke-width:1px;stroke-linecap:butt;stroke-linejoin:miter;stroke-opacity:1" d="M 238.128,136.869 233.392,148.147 z" id="boundary" inkscape:connector-curvature="0" />
	<path style="fill:none;stroke:red;stroke-width:1px;stroke-linecap:butt;stroke-linejoin:miter;stroke-opacity:1" d="M 211.738,136.587 210.385,123.731 z" id="boundary" inkscape:connector-curvature="0" />
	<path style="fill:none;stroke:red;stroke-width:1px;stroke-linecap:butt;stroke-linejoin:miter;stroke-opacity:1" d="M 333.539,113.75 321.359,119.163 z" id="boundary" inkscape:connector-curvature="0" />
	<path style="fill:none;stroke:red;stroke-width:1px;stroke-linecap:butt;stroke-linejoin:miter;stroke-opacity:1" d="M 361.959,104.953 351.132,100.555 z" id="boundary" inkscape:connector-curvature="0" />
	<path style="fill:none;stroke:red;stroke-width:1px;stroke-linecap:butt;stroke-linejoin:miter;stroke-opacity:1" d="M 333.539,113.75 351.132,100.555 z" id="boundary" inkscape:connector-curvature="0" />
	<path style="fill:none;stroke:red;stroke-width:1px;stroke-linecap:butt;stroke-linejoin:miter;stroke-opacity:1" d="M 372.109,106.757 384.966,109.802 z" id="boundary" inkscape:connector-curvature="0" />
	<path style="fill:none;stroke:red;stroke-width:1px;stroke-linecap:butt;stroke-linejoin:miter;stroke-opacity:1" d="M 372.109,106.757 361.959,104.953 z" id="boundary" inkscape:connector-curvature="0" />
	<path style="fill:none;stroke:red;stroke-width:1px;stroke-linecap:butt;stroke-linejoin:miter;stroke-opacity:1" d="M 397.484,113.089 384.966,109.802 z" id="boundary" inkscape:connector-curvature="0" />
	<path style="fill:none;stroke:red;stroke-width:1px;stroke-linecap:butt;stroke-linejoin:miter;stroke-opacity:1" d="M 265.195,129.482 263.165,143.128 z" id="boundary" inkscape:connector-curvature="0" />
	<path style="fill:none;stroke:red;stroke-width:1px;stroke-linecap:butt;stroke-linejoin:miter;stroke-opacity:1" d="M 264.518,118.994 265.195,129.482 z" id="boundary" inkscape:connector-curvature="0" />
	<path style="fill:none;stroke:red;stroke-width:1px;stroke-linecap:butt;stroke-linejoin:miter;stroke-opacity:1" d="M 264.518,118.994 263.165,101.908 z" id="boundary" inkscape:connector-curvature="0" />
	<path style="fill:none;stroke:red;stroke-width:1px;stroke-linecap:butt;stroke-linejoin:miter;stroke-opacity:1" d="M 397.484,113.089 410.341,116.327 z" id="boundary" inkscape:connector-curvature="0" />
	<path style="fill:none;stroke:red;stroke-width:1px;stroke-linecap:butt;stroke-linejoin:miter;stroke-opacity:1" d="M 249.97,176.986 258.09,160.504 z" id="boundary" inkscape:connector-curvature="0" />
	<path style="fill:none;stroke:red;stroke-width:1px;stroke-linecap:butt;stroke-linejoin:miter;stroke-opacity:1" d="M 65.5771,182.037 78.0955,189.795 z" id="boundary" inkscape:connector-curvature="0" />
	<path style="fill:none;stroke:red;stroke-width:1px;stroke-linecap:butt;stroke-linejoin:miter;stroke-opacity:1" d="M 90.9523,197.19 78.0955,189.795 z" id="boundary" inkscape:connector-curvature="0" />
	<path style="fill:none;stroke:red;stroke-width:1px;stroke-linecap:butt;stroke-linejoin:miter;stroke-opacity:1" d="M 90.9523,197.19 103.809,206.663 z" id="boundary" inkscape:connector-curvature="0" />
	<path style="fill:none;stroke:red;stroke-width:1px;stroke-linecap:butt;stroke-linejoin:miter;stroke-opacity:1" d="M 103.809,206.663 116.666,220.535 z" id="boundary" inkscape:connector-curvature="0" />
	<path style="fill:none;stroke:red;stroke-width:1px;stroke-linecap:butt;stroke-linejoin:miter;stroke-opacity:1" d="M 116.666,220.535 129.184,236.453 z" id="boundary" inkscape:connector-curvature="0" />
	<path style="fill:none;stroke:red;stroke-width:1px;stroke-linecap:butt;stroke-linejoin:miter;stroke-opacity:1" d="M 141.026,252.628 152.191,269.046 z" id="boundary" inkscape:connector-curvature="0" />
	<path style="fill:none;stroke:red;stroke-width:1px;stroke-linecap:butt;stroke-linejoin:miter;stroke-opacity:1" d="M 141.026,252.628 129.184,236.453 z" id="boundary" inkscape:connector-curvature="0" />
	<path style="fill:none;stroke:red;stroke-width:1px;stroke-linecap:butt;stroke-linejoin:miter;stroke-opacity:1" d="M 152.191,269.046 162.679,285.399 z" id="boundary" inkscape:connector-curvature="0" />
	<path style="fill:none;stroke:red;stroke-width:1px;stroke-linecap:butt;stroke-linejoin:miter;stroke-opacity:1" d="M 162.679,285.399 172.491,301.921 z" id="boundary" inkscape:connector-curvature="0" />
	<path style="fill:none;stroke:red;stroke-width:1px;stroke-linecap:butt;stroke-linejoin:miter;stroke-opacity:1" d="M 182.303,318.459 172.491,301.921 z" id="boundary" inkscape:connector-curvature="0" />
	<path style="fill:none;stroke:red;stroke-width:1px;stroke-linecap:butt;stroke-linejoin:miter;stroke-opacity:1" d="M 212.753,190.133 225.61,193.275 z" id="boundary" inkscape:connector-curvature="0" />
	<path style="fill:none;stroke:red;stroke-width:1px;stroke-linecap:butt;stroke-linejoin:miter;stroke-opacity:1" d="M 200.573,178.823 212.753,190.133 z" id="boundary" inkscape:connector-curvature="0" />
	<path style="fill:none;stroke:red;stroke-width:1px;stroke-linecap:butt;stroke-linejoin:miter;stroke-opacity:1" d="M 191.776,334.844 182.303,318.459 z" id="boundary" inkscape:connector-curvature="0" />
	<path style="fill:none;stroke:red;stroke-width:1px;stroke-linecap:butt;stroke-linejoin:miter;stroke-opacity:1" d="M 225.61,193.275 238.128,188.917 z" id="boundary" inkscape:connector-curvature="0" />
	<path style="fill:none;stroke:red;stroke-width:1px;stroke-linecap:butt;stroke-linejoin:miter;stroke-opacity:1" d="M 201.25,351.664 191.776,334.844 z" id="boundary" inkscape:connector-curvature="0" />
	<path style="fill:none;stroke:red;stroke-width:1px;stroke-linecap:butt;stroke-linejoin:miter;stroke-opacity:1" d="M 210.385,368.009 201.25,351.664 z" id="boundary" inkscape:connector-curvature="0" />
	<path style="fill:none;stroke:red;stroke-width:1px;stroke-linecap:butt;stroke-linejoin:miter;stroke-opacity:1" d="M 219.858,384.7 210.385,368.009 z" id="boundary" inkscape:connector-curvature="0" />
	<path style="fill:none;stroke:red;stroke-width:1px;stroke-linecap:butt;stroke-linejoin:miter;stroke-opacity:1" d="M 228.993,401.303 237.79,417.688 z" id="boundary" inkscape:connector-curvature="0" />
	<path style="fill:none;stroke:red;stroke-width:1px;stroke-linecap:butt;stroke-linejoin:miter;stroke-opacity:1" d="M 219.858,384.7 228.993,401.303 z" id="boundary" inkscape:connector-curvature="0" />
	<path style="fill:none;stroke:red;stroke-width:1px;stroke-linecap:butt;stroke-linejoin:miter;stroke-opacity:1" d="M 238.128,188.917 249.97,176.986 z" id="boundary" inkscape:connector-curvature="0" />
	<path style="fill:none;stroke:red;stroke-width:1px;stroke-linecap:butt;stroke-linejoin:miter;stroke-opacity:1" d="M 237.79,417.688 246.248,434.041 z" id="boundary" inkscape:connector-curvature="0" />
	<path style="fill:none;stroke:red;stroke-width:1px;stroke-linecap:butt;stroke-linejoin:miter;stroke-opacity:1" d="M 171.138,688.131 162.341,664.109 z" id="boundary" inkscape:connector-curvature="0" />
	<path style="fill:none;stroke:red;stroke-width:1px;stroke-linecap:butt;stroke-linejoin:miter;stroke-opacity:1" d="M 171.138,637.775 162.341,664.109 z" id="boundary" inkscape:connector-curvature="0" />
	<path style="fill:none;stroke:red;stroke-width:1px;stroke-linecap:butt;stroke-linejoin:miter;stroke-opacity:1" d="M 171.138,637.775 183.995,625.257 z" id="boundary" inkscape:connector-curvature="0" />
	<path style="fill:none;stroke:red;stroke-width:1px;stroke-linecap:butt;stroke-linejoin:miter;stroke-opacity:1" d="M 196.513,616.387 183.995,625.257 z" id="boundary" inkscape:connector-curvature="0" />
	<path style="fill:none;stroke:red;stroke-width:1px;stroke-linecap:butt;stroke-linejoin:miter;stroke-opacity:1" d="M 209.37,609.089 196.513,616.387 z" id="boundary" inkscape:connector-curvature="0" />
	<path style="fill:none;stroke:red;stroke-width:1px;stroke-linecap:butt;stroke-linejoin:miter;stroke-opacity:1" d="M 196.851,803.221 188.055,828.991 z" id="boundary" inkscape:connector-curvature="0" />
	<path style="fill:none;stroke:red;stroke-width:1px;stroke-linecap:butt;stroke-linejoin:miter;stroke-opacity:1" d="M 183.995,698.901 171.138,688.131 z" id="boundary" inkscape:connector-curvature="0" />
	<path style="fill:none;stroke:red;stroke-width:1px;stroke-linecap:butt;stroke-linejoin:miter;stroke-opacity:1" d="M 183.995,698.901 196.513,703.291 z" id="boundary" inkscape:connector-curvature="0" />
	<path style="fill:none;stroke:red;stroke-width:1px;stroke-linecap:butt;stroke-linejoin:miter;stroke-opacity:1" d="M 210.046,863.711 197.19,852.062 z" id="boundary" inkscape:connector-curvature="0" />
	<path style="fill:none;stroke:red;stroke-width:1px;stroke-linecap:butt;stroke-linejoin:miter;stroke-opacity:1" d="M 197.19,852.062 188.055,828.991 z" id="boundary" inkscape:connector-curvature="0" />
	<path style="fill:none;stroke:red;stroke-width:1px;stroke-linecap:butt;stroke-linejoin:miter;stroke-opacity:1" d="M 209.37,791.21 196.851,803.221 z" id="boundary" inkscape:connector-curvature="0" />
	<path style="fill:none;stroke:red;stroke-width:1px;stroke-linecap:butt;stroke-linejoin:miter;stroke-opacity:1" d="M 209.37,702.47 196.513,703.291 z" id="boundary" inkscape:connector-curvature="0" />
	<path style="fill:none;stroke:red;stroke-width:1px;stroke-linecap:butt;stroke-linejoin:miter;stroke-opacity:1" d="M 247.602,687.003 235.083,692.61 z" id="boundary" inkscape:connector-curvature="0" />
	<path style="fill:none;stroke:red;stroke-width:1px;stroke-linecap:butt;stroke-linejoin:miter;stroke-opacity:1" d="M 222.226,698.265 209.37,702.47 z" id="boundary" inkscape:connector-curvature="0" />
	<path style="fill:none;stroke:red;stroke-width:1px;stroke-linecap:butt;stroke-linejoin:miter;stroke-opacity:1" d="M 235.083,692.61 222.226,698.265 z" id="boundary" inkscape:connector-curvature="0" />
	<path style="fill:none;stroke:red;stroke-width:1px;stroke-linecap:butt;stroke-linejoin:miter;stroke-opacity:1" d="M 247.602,769.726 235.083,776.034 z" id="boundary" inkscape:connector-curvature="0" />
	<path style="fill:none;stroke:red;stroke-width:1px;stroke-linecap:butt;stroke-linejoin:miter;stroke-opacity:1" d="M 222.226,602.467 235.083,596.087 z" id="boundary" inkscape:connector-curvature="0" />
	<path style="fill:none;stroke:red;stroke-width:1px;stroke-linecap:butt;stroke-linejoin:miter;stroke-opacity:1" d="M 244.218,582.062 235.083,596.087 z" id="boundary" inkscape:connector-curvature="0" />
	<path style="fill:none;stroke:red;stroke-width:1px;stroke-linecap:butt;stroke-linejoin:miter;stroke-opacity:1" d="M 209.37,609.089 222.226,602.467 z" id="boundary" inkscape:connector-curvature="0" />
	<path style="fill:none;stroke:red;stroke-width:1px;stroke-linecap:butt;stroke-linejoin:miter;stroke-opacity:1" d="M 250.985,556.18 244.218,582.062 z" id="boundary" inkscape:connector-curvature="0" />
	<path style="fill:none;stroke:red;stroke-width:1px;stroke-linecap:butt;stroke-linejoin:miter;stroke-opacity:1" d="M 222.565,870.663 210.046,863.711 z" id="boundary" inkscape:connector-curvature="0" />
	<path style="fill:none;stroke:red;stroke-width:1px;stroke-linecap:butt;stroke-linejoin:miter;stroke-opacity:1" d="M 222.226,783.042 209.37,791.21 z" id="boundary" inkscape:connector-curvature="0" />
	<path style="fill:none;stroke:red;stroke-width:1px;stroke-linecap:butt;stroke-linejoin:miter;stroke-opacity:1" d="M 235.422,874.441 222.565,870.663 z" id="boundary" inkscape:connector-curvature="0" />
	<path style="fill:none;stroke:red;stroke-width:1px;stroke-linecap:butt;stroke-linejoin:miter;stroke-opacity:1" d="M 247.94,875.504 235.422,874.441 z" id="boundary" inkscape:connector-curvature="0" />
	<path style="fill:none;stroke:red;stroke-width:1px;stroke-linecap:butt;stroke-linejoin:miter;stroke-opacity:1" d="M 222.226,783.042 235.083,776.034 z" id="boundary" inkscape:connector-curvature="0" />
	<path style="fill:none;stroke:red;stroke-width:1px;stroke-linecap:butt;stroke-linejoin:miter;stroke-opacity:1" d="M 246.248,434.041 254.707,450.7 z" id="boundary" inkscape:connector-curvature="0" />
	<path style="fill:none;stroke:red;stroke-width:1px;stroke-linecap:butt;stroke-linejoin:miter;stroke-opacity:1" d="M 265.195,474.021 259.782,462.63 z" id="boundary" inkscape:connector-curvature="0" />
	<path style="fill:none;stroke:red;stroke-width:1px;stroke-linecap:butt;stroke-linejoin:miter;stroke-opacity:1" d="M 259.782,462.63 254.707,450.7 z" id="boundary" inkscape:connector-curvature="0" />
	<path style="fill:none;stroke:red;stroke-width:1px;stroke-linecap:butt;stroke-linejoin:miter;stroke-opacity:1" d="M 265.195,474.021 271.962,486.539 z" id="boundary" inkscape:connector-curvature="0" />
	<path style="fill:none;stroke:red;stroke-width:1px;stroke-linecap:butt;stroke-linejoin:miter;stroke-opacity:1" d="M 257.075,533.85 250.985,556.18 z" id="boundary" inkscape:connector-curvature="0" />
	<path style="fill:none;stroke:red;stroke-width:1px;stroke-linecap:butt;stroke-linejoin:miter;stroke-opacity:1" d="M 260.458,510.053 257.075,533.85 z" id="boundary" inkscape:connector-curvature="0" />
	<path style="fill:none;stroke:red;stroke-width:1px;stroke-linecap:butt;stroke-linejoin:miter;stroke-opacity:1" d="M 285.834,661.676 272.977,671.923 z" id="boundary" inkscape:connector-curvature="0" />
	<path style="fill:none;stroke:red;stroke-width:1px;stroke-linecap:butt;stroke-linejoin:miter;stroke-opacity:1" d="M 276.698,499.283 284.142,517.61 z" id="boundary" inkscape:connector-curvature="0" />
	<path style="fill:none;stroke:red;stroke-width:1px;stroke-linecap:butt;stroke-linejoin:miter;stroke-opacity:1" d="M 260.458,510.053 262.72,496.497 z" id="boundary" inkscape:connector-curvature="0" />
	<path style="fill:none;stroke:red;stroke-width:1px;stroke-linecap:butt;stroke-linejoin:miter;stroke-opacity:1" d="M 272.977,671.923 260.458,680.575 z" id="boundary" inkscape:connector-curvature="0" />
	<path style="fill:none;stroke:red;stroke-width:1px;stroke-linecap:butt;stroke-linejoin:miter;stroke-opacity:1" d="M 290.232,534.075 295.645,550.936 z" id="boundary" inkscape:connector-curvature="0" />
	<path style="fill:none;stroke:red;stroke-width:1px;stroke-linecap:butt;stroke-linejoin:miter;stroke-opacity:1" d="M 290.232,534.075 284.142,517.61 z" id="boundary" inkscape:connector-curvature="0" />
	<path style="fill:none;stroke:red;stroke-width:1px;stroke-linecap:butt;stroke-linejoin:miter;stroke-opacity:1" d="M 295.645,550.936 300.72,568.102 z" id="boundary" inkscape:connector-curvature="0" />
	<path style="fill:none;stroke:red;stroke-width:1px;stroke-linecap:butt;stroke-linejoin:miter;stroke-opacity:1" d="M 304.78,584.439 308.502,601.291 z" id="boundary" inkscape:connector-curvature="0" />
	<path style="fill:none;stroke:red;stroke-width:1px;stroke-linecap:butt;stroke-linejoin:miter;stroke-opacity:1" d="M 304.78,584.439 300.72,568.102 z" id="boundary" inkscape:connector-curvature="0" />
	<path style="fill:none;stroke:red;stroke-width:1px;stroke-linecap:butt;stroke-linejoin:miter;stroke-opacity:1" d="M 308.502,601.291 311.209,618.264 z" id="boundary" inkscape:connector-curvature="0" />
	<path style="fill:none;stroke:red;stroke-width:1px;stroke-linecap:butt;stroke-linejoin:miter;stroke-opacity:1" d="M 298.69,650.028 285.834,661.676 z" id="boundary" inkscape:connector-curvature="0" />
	<path style="fill:none;stroke:red;stroke-width:1px;stroke-linecap:butt;stroke-linejoin:miter;stroke-opacity:1" d="M 311.209,618.264 311.547,642.004 z" id="boundary" inkscape:connector-curvature="0" />
	<path style="fill:none;stroke:red;stroke-width:1px;stroke-linecap:butt;stroke-linejoin:miter;stroke-opacity:1" d="M 315.945,652.718 317.299,669.861 z" id="boundary" inkscape:connector-curvature="0" />
	<path style="fill:none;stroke:red;stroke-width:1px;stroke-linecap:butt;stroke-linejoin:miter;stroke-opacity:1" d="M 315.945,652.718 311.547,642.004 z" id="boundary" inkscape:connector-curvature="0" />
	<path style="fill:none;stroke:red;stroke-width:1px;stroke-linecap:butt;stroke-linejoin:miter;stroke-opacity:1" d="M 316.622,687.003 317.299,669.861 z" id="boundary" inkscape:connector-curvature="0" />
	<path style="fill:none;stroke:red;stroke-width:1px;stroke-linecap:butt;stroke-linejoin:miter;stroke-opacity:1" d="M 247.602,687.003 260.458,680.575 z" id="boundary" inkscape:connector-curvature="0" />
	<path style="fill:none;stroke:red;stroke-width:1px;stroke-linecap:butt;stroke-linejoin:miter;stroke-opacity:1" d="M 285.834,748.918 272.977,756.748 z" id="boundary" inkscape:connector-curvature="0" />
	<path style="fill:none;stroke:red;stroke-width:1px;stroke-linecap:butt;stroke-linejoin:miter;stroke-opacity:1" d="M 298.69,737.898 285.834,748.918 z" id="boundary" inkscape:connector-curvature="0" />
	<path style="fill:none;stroke:red;stroke-width:1px;stroke-linecap:butt;stroke-linejoin:miter;stroke-opacity:1" d="M 260.458,763.467 272.977,756.748 z" id="boundary" inkscape:connector-curvature="0" />
	<path style="fill:none;stroke:red;stroke-width:1px;stroke-linecap:butt;stroke-linejoin:miter;stroke-opacity:1" d="M 308.502,722.754 298.69,737.898 z" id="boundary" inkscape:connector-curvature="0" />
	<path style="fill:none;stroke:red;stroke-width:1px;stroke-linecap:butt;stroke-linejoin:miter;stroke-opacity:1" d="M 260.797,874.779 247.94,875.504 z" id="boundary" inkscape:connector-curvature="0" />
	<path style="fill:none;stroke:red;stroke-width:1px;stroke-linecap:butt;stroke-linejoin:miter;stroke-opacity:1" d="M 260.458,763.467 247.602,769.726 z" id="boundary" inkscape:connector-curvature="0" />
	<path style="fill:none;stroke:red;stroke-width:1px;stroke-linecap:butt;stroke-linejoin:miter;stroke-opacity:1" d="M 299.029,864.122 286.172,868.915 z" id="boundary" inkscape:connector-curvature="0" />
	<path style="fill:none;stroke:red;stroke-width:1px;stroke-linecap:butt;stroke-linejoin:miter;stroke-opacity:1" d="M 273.653,872.411 260.797,874.779 z" id="boundary" inkscape:connector-curvature="0" />
	<path style="fill:none;stroke:red;stroke-width:1px;stroke-linecap:butt;stroke-linejoin:miter;stroke-opacity:1" d="M 286.172,868.915 273.653,872.411 z" id="boundary" inkscape:connector-curvature="0" />
	<path style="fill:none;stroke:red;stroke-width:1px;stroke-linecap:butt;stroke-linejoin:miter;stroke-opacity:1" d="M 314.592,705.329 308.502,722.754 z" id="boundary" inkscape:connector-curvature="0" />
	<path style="fill:none;stroke:red;stroke-width:1px;stroke-linecap:butt;stroke-linejoin:miter;stroke-opacity:1" d="M 413.724,799.33 400.868,807.064 z" id="boundary" inkscape:connector-curvature="0" />
	<path style="fill:none;stroke:red;stroke-width:1px;stroke-linecap:butt;stroke-linejoin:miter;stroke-opacity:1" d="M 375.492,822.845 388.011,814.845 z" id="boundary" inkscape:connector-curvature="0" />
	<path style="fill:none;stroke:red;stroke-width:1px;stroke-linecap:butt;stroke-linejoin:miter;stroke-opacity:1" d="M 400.868,807.064 388.011,814.845 z" id="boundary" inkscape:connector-curvature="0" />
	<path style="fill:none;stroke:red;stroke-width:1px;stroke-linecap:butt;stroke-linejoin:miter;stroke-opacity:1" d="M 314.592,705.329 316.622,687.003 z" id="boundary" inkscape:connector-curvature="0" />
	<path style="fill:none;stroke:red;stroke-width:1px;stroke-linecap:butt;stroke-linejoin:miter;stroke-opacity:1" d="M 375.492,822.845 362.636,830.683 z" id="boundary" inkscape:connector-curvature="0" />
	<path style="fill:none;stroke:red;stroke-width:1px;stroke-linecap:butt;stroke-linejoin:miter;stroke-opacity:1" d="M 311.885,858.652 299.029,864.122 z" id="boundary" inkscape:connector-curvature="0" />
	<path style="fill:none;stroke:red;stroke-width:1px;stroke-linecap:butt;stroke-linejoin:miter;stroke-opacity:1" d="M 324.404,852.449 311.885,858.652 z" id="boundary" inkscape:connector-curvature="0" />
	<path style="fill:none;stroke:red;stroke-width:1px;stroke-linecap:butt;stroke-linejoin:miter;stroke-opacity:1" d="M 337.261,845.586 324.404,852.449 z" id="boundary" inkscape:connector-curvature="0" />
	<path style="fill:none;stroke:red;stroke-width:1px;stroke-linecap:butt;stroke-linejoin:miter;stroke-opacity:1" d="M 350.117,838.239 337.261,845.586 z" id="boundary" inkscape:connector-curvature="0" />
	<path style="fill:none;stroke:red;stroke-width:1px;stroke-linecap:butt;stroke-linejoin:miter;stroke-opacity:1" d="M 350.117,838.239 362.636,830.683 z" id="boundary" inkscape:connector-curvature="0" />
	<path style="fill:none;stroke:red;stroke-width:1px;stroke-linecap:butt;stroke-linejoin:miter;stroke-opacity:1" d="M 436.055,123.191 448.573,126.832 z" id="boundary" inkscape:connector-curvature="0" />
	<path style="fill:none;stroke:red;stroke-width:1px;stroke-linecap:butt;stroke-linejoin:miter;stroke-opacity:1" d="M 436.055,123.191 423.198,119.711 z" id="boundary" inkscape:connector-curvature="0" />
	<path style="fill:none;stroke:red;stroke-width:1px;stroke-linecap:butt;stroke-linejoin:miter;stroke-opacity:1" d="M 461.43,130.779 473.948,134.743 z" id="boundary" inkscape:connector-curvature="0" />
	<path style="fill:none;stroke:red;stroke-width:1px;stroke-linecap:butt;stroke-linejoin:miter;stroke-opacity:1" d="M 486.805,138.899 473.948,134.743 z" id="boundary" inkscape:connector-curvature="0" />
	<path style="fill:none;stroke:red;stroke-width:1px;stroke-linecap:butt;stroke-linejoin:miter;stroke-opacity:1" d="M 448.573,126.832 461.43,130.779 z" id="boundary" inkscape:connector-curvature="0" />
	<path style="fill:none;stroke:red;stroke-width:1px;stroke-linecap:butt;stroke-linejoin:miter;stroke-opacity:1" d="M 486.805,138.899 499.662,143.298 z" id="boundary" inkscape:connector-curvature="0" />
	<path style="fill:none;stroke:red;stroke-width:1px;stroke-linecap:butt;stroke-linejoin:miter;stroke-opacity:1" d="M 512.518,148.228 499.662,143.298 z" id="boundary" inkscape:connector-curvature="0" />
	<path style="fill:none;stroke:red;stroke-width:1px;stroke-linecap:butt;stroke-linejoin:miter;stroke-opacity:1" d="M 525.037,153.673 512.518,148.228 z" id="boundary" inkscape:connector-curvature="0" />
	<path style="fill:none;stroke:red;stroke-width:1px;stroke-linecap:butt;stroke-linejoin:miter;stroke-opacity:1" d="M 601.501,162.357 588.982,166.643 z" id="boundary" inkscape:connector-curvature="0" />
	<path style="fill:none;stroke:red;stroke-width:1px;stroke-linecap:butt;stroke-linejoin:miter;stroke-opacity:1" d="M 537.894,160.384 525.037,153.673 z" id="boundary" inkscape:connector-curvature="0" />
	<path style="fill:none;stroke:red;stroke-width:1px;stroke-linecap:butt;stroke-linejoin:miter;stroke-opacity:1" d="M 588.982,166.643 576.126,169.156 z" id="boundary" inkscape:connector-curvature="0" />
	<path style="fill:none;stroke:red;stroke-width:1px;stroke-linecap:butt;stroke-linejoin:miter;stroke-opacity:1" d="M 665.108,129.2 677.965,121.757 z" id="boundary" inkscape:connector-curvature="0" />
	<path style="fill:none;stroke:red;stroke-width:1px;stroke-linecap:butt;stroke-linejoin:miter;stroke-opacity:1" d="M 690.483,114.491 703.34,107.434 z" id="boundary" inkscape:connector-curvature="0" />
	<path style="fill:none;stroke:red;stroke-width:1px;stroke-linecap:butt;stroke-linejoin:miter;stroke-opacity:1" d="M 716.196,100.619 703.34,107.434 z" id="boundary" inkscape:connector-curvature="0" />
	<path style="fill:none;stroke:red;stroke-width:1px;stroke-linecap:butt;stroke-linejoin:miter;stroke-opacity:1" d="M 677.965,121.757 690.483,114.491 z" id="boundary" inkscape:connector-curvature="0" />
	<path style="fill:none;stroke:red;stroke-width:1px;stroke-linecap:butt;stroke-linejoin:miter;stroke-opacity:1" d="M 652.589,136.579 665.108,129.2 z" id="boundary" inkscape:connector-curvature="0" />
	<path style="fill:none;stroke:red;stroke-width:1px;stroke-linecap:butt;stroke-linejoin:miter;stroke-opacity:1" d="M 614.357,157 601.501,162.357 z" id="boundary" inkscape:connector-curvature="0" />
	<path style="fill:none;stroke:red;stroke-width:1px;stroke-linecap:butt;stroke-linejoin:miter;stroke-opacity:1" d="M 626.876,150.741 614.357,157 z" id="boundary" inkscape:connector-curvature="0" />
	<path style="fill:none;stroke:red;stroke-width:1px;stroke-linecap:butt;stroke-linejoin:miter;stroke-opacity:1" d="M 652.589,136.579 639.733,143.684 z" id="boundary" inkscape:connector-curvature="0" />
	<path style="fill:none;stroke:red;stroke-width:1px;stroke-linecap:butt;stroke-linejoin:miter;stroke-opacity:1" d="M 639.733,143.684 626.876,150.741 z" id="boundary" inkscape:connector-curvature="0" />
	<path style="fill:none;stroke:red;stroke-width:1px;stroke-linecap:butt;stroke-linejoin:miter;stroke-opacity:1" d="M 729.053,94.3356 716.196,100.619 z" id="boundary" inkscape:connector-curvature="0" />
	<path style="fill:none;stroke:red;stroke-width:1px;stroke-linecap:butt;stroke-linejoin:miter;stroke-opacity:1" d="M 551.427,473.457 550.074,493.08 z" id="boundary" inkscape:connector-curvature="0" />
	<path style="fill:none;stroke:red;stroke-width:1px;stroke-linecap:butt;stroke-linejoin:miter;stroke-opacity:1" d="M 552.78,455.13 551.427,473.457 z" id="boundary" inkscape:connector-curvature="0" />
	<path style="fill:none;stroke:red;stroke-width:1px;stroke-linecap:butt;stroke-linejoin:miter;stroke-opacity:1" d="M 563.269,169.639 576.126,169.156 z" id="boundary" inkscape:connector-curvature="0" />
	<path style="fill:none;stroke:red;stroke-width:1px;stroke-linecap:butt;stroke-linejoin:miter;stroke-opacity:1" d="M 550.412,166.836 563.269,169.639 z" id="boundary" inkscape:connector-curvature="0" />
	<path style="fill:none;stroke:red;stroke-width:1px;stroke-linecap:butt;stroke-linejoin:miter;stroke-opacity:1" d="M 550.412,166.836 537.894,160.384 z" id="boundary" inkscape:connector-curvature="0" />
	<path style="fill:none;stroke:red;stroke-width:1px;stroke-linecap:butt;stroke-linejoin:miter;stroke-opacity:1" d="M 621.462,548.334 608.606,547.319 z" id="boundary" inkscape:connector-curvature="0" />
	<path style="fill:none;stroke:red;stroke-width:1px;stroke-linecap:butt;stroke-linejoin:miter;stroke-opacity:1" d="M 550.074,493.08 548.72,510.11 z" id="boundary" inkscape:connector-curvature="0" />
	<path style="fill:none;stroke:red;stroke-width:1px;stroke-linecap:butt;stroke-linejoin:miter;stroke-opacity:1" d="M 557.517,538.812 545.337,536.444 z" id="boundary" inkscape:connector-curvature="0" />
	<path style="fill:none;stroke:red;stroke-width:1px;stroke-linecap:butt;stroke-linejoin:miter;stroke-opacity:1" d="M 570.374,541.462 557.517,538.812 z" id="boundary" inkscape:connector-curvature="0" />
	<path style="fill:none;stroke:red;stroke-width:1px;stroke-linecap:butt;stroke-linejoin:miter;stroke-opacity:1" d="M 582.892,543.694 570.374,541.462 z" id="boundary" inkscape:connector-curvature="0" />
	<path style="fill:none;stroke:red;stroke-width:1px;stroke-linecap:butt;stroke-linejoin:miter;stroke-opacity:1" d="M 595.749,545.627 582.892,543.694 z" id="boundary" inkscape:connector-curvature="0" />
	<path style="fill:none;stroke:red;stroke-width:1px;stroke-linecap:butt;stroke-linejoin:miter;stroke-opacity:1" d="M 724.655,504.358 723.302,520.373 z" id="boundary" inkscape:connector-curvature="0" />
	<path style="fill:none;stroke:red;stroke-width:1px;stroke-linecap:butt;stroke-linejoin:miter;stroke-opacity:1" d="M 723.302,520.373 710.445,526.575 z" id="boundary" inkscape:connector-curvature="0" />
	<path style="fill:none;stroke:red;stroke-width:1px;stroke-linecap:butt;stroke-linejoin:miter;stroke-opacity:1" d="M 710.445,526.575 697.588,532.271 z" id="boundary" inkscape:connector-curvature="0" />
	<path style="fill:none;stroke:red;stroke-width:1px;stroke-linecap:butt;stroke-linejoin:miter;stroke-opacity:1" d="M 723.302,520.373 730.407,532.384 z" id="boundary" inkscape:connector-curvature="0" />
	<path style="fill:none;stroke:red;stroke-width:1px;stroke-linecap:butt;stroke-linejoin:miter;stroke-opacity:1" d="M 741.572,554.488 730.407,532.384 z" id="boundary" inkscape:connector-curvature="0" />
	<path style="fill:none;stroke:red;stroke-width:1px;stroke-linecap:butt;stroke-linejoin:miter;stroke-opacity:1" d="M 725.332,477.742 724.655,504.358 z" id="boundary" inkscape:connector-curvature="0" />
	<path style="fill:none;stroke:red;stroke-width:1px;stroke-linecap:butt;stroke-linejoin:miter;stroke-opacity:1" d="M 608.606,547.319 595.749,545.627 z" id="boundary" inkscape:connector-curvature="0" />
	<path style="fill:none;stroke:red;stroke-width:1px;stroke-linecap:butt;stroke-linejoin:miter;stroke-opacity:1" d="M 697.588,532.271 685.07,541.567 z" id="boundary" inkscape:connector-curvature="0" />
	<path style="fill:none;stroke:red;stroke-width:1px;stroke-linecap:butt;stroke-linejoin:miter;stroke-opacity:1" d="M 685.07,541.567 672.213,542.485 z" id="boundary" inkscape:connector-curvature="0" />
	<path style="fill:none;stroke:red;stroke-width:1px;stroke-linecap:butt;stroke-linejoin:miter;stroke-opacity:1" d="M 672.213,542.485 659.356,546.255 z" id="boundary" inkscape:connector-curvature="0" />
	<path style="fill:none;stroke:red;stroke-width:1px;stroke-linecap:butt;stroke-linejoin:miter;stroke-opacity:1" d="M 690.145,564.356 685.07,541.567 z" id="boundary" inkscape:connector-curvature="0" />
	<path style="fill:none;stroke:red;stroke-width:1px;stroke-linecap:butt;stroke-linejoin:miter;stroke-opacity:1" d="M 725.332,477.742 728.715,452.593 z" id="boundary" inkscape:connector-curvature="0" />
	<path style="fill:none;stroke:red;stroke-width:1px;stroke-linecap:butt;stroke-linejoin:miter;stroke-opacity:1" d="M 732.437,433.541 728.715,452.593 z" id="boundary" inkscape:connector-curvature="0" />
	<path style="fill:none;stroke:red;stroke-width:1px;stroke-linecap:butt;stroke-linejoin:miter;stroke-opacity:1" d="M 779.804,75.5338 792.66,72.6338 z" id="boundary" inkscape:connector-curvature="0" />
	<path style="fill:none;stroke:red;stroke-width:1px;stroke-linecap:butt;stroke-linejoin:miter;stroke-opacity:1" d="M 792.66,72.6338 805.517,70.9905 z" id="boundary" inkscape:connector-curvature="0" />
	<path style="fill:none;stroke:red;stroke-width:1px;stroke-linecap:butt;stroke-linejoin:miter;stroke-opacity:1" d="M 818.035,70.2171 830.892,70.5554 z" id="boundary" inkscape:connector-curvature="0" />
	<path style="fill:none;stroke:red;stroke-width:1px;stroke-linecap:butt;stroke-linejoin:miter;stroke-opacity:1" d="M 843.411,72.1021 830.892,70.5554 z" id="boundary" inkscape:connector-curvature="0" />
	<path style="fill:none;stroke:red;stroke-width:1px;stroke-linecap:butt;stroke-linejoin:miter;stroke-opacity:1" d="M 805.517,70.9905 818.035,70.2171 z" id="boundary" inkscape:connector-curvature="0" />
	<path style="fill:none;stroke:red;stroke-width:1px;stroke-linecap:butt;stroke-linejoin:miter;stroke-opacity:1" d="M 843.411,72.1021 856.267,75.0988 z" id="boundary" inkscape:connector-curvature="0" />
	<path style="fill:none;stroke:red;stroke-width:1px;stroke-linecap:butt;stroke-linejoin:miter;stroke-opacity:1" d="M 741.572,88.7128 754.428,83.4122 z" id="boundary" inkscape:connector-curvature="0" />
	<path style="fill:none;stroke:red;stroke-width:1px;stroke-linecap:butt;stroke-linejoin:miter;stroke-opacity:1" d="M 741.572,88.7128 729.053,94.3356 z" id="boundary" inkscape:connector-curvature="0" />
	<path style="fill:none;stroke:red;stroke-width:1px;stroke-linecap:butt;stroke-linejoin:miter;stroke-opacity:1" d="M 754.428,83.4122 767.285,79.183 z" id="boundary" inkscape:connector-curvature="0" />
	<path style="fill:none;stroke:red;stroke-width:1px;stroke-linecap:butt;stroke-linejoin:miter;stroke-opacity:1" d="M 767.285,79.183 779.804,75.5338 z" id="boundary" inkscape:connector-curvature="0" />
	<path style="fill:none;stroke:red;stroke-width:1px;stroke-linecap:butt;stroke-linejoin:miter;stroke-opacity:1" d="M 856.267,75.0988 869.124,79.3038 z" id="boundary" inkscape:connector-curvature="0" />
	<path style="fill:none;stroke:red;stroke-width:1px;stroke-linecap:butt;stroke-linejoin:miter;stroke-opacity:1" d="M 894.499,92.4909 907.356,101.288 z" id="boundary" inkscape:connector-curvature="0" />
	<path style="fill:none;stroke:red;stroke-width:1px;stroke-linecap:butt;stroke-linejoin:miter;stroke-opacity:1" d="M 907.356,101.288 919.874,112.122 z" id="boundary" inkscape:connector-curvature="0" />
	<path style="fill:none;stroke:red;stroke-width:1px;stroke-linecap:butt;stroke-linejoin:miter;stroke-opacity:1" d="M 919.874,112.122 932.731,125.849 z" id="boundary" inkscape:connector-curvature="0" />
	<path style="fill:none;stroke:red;stroke-width:1px;stroke-linecap:butt;stroke-linejoin:miter;stroke-opacity:1" d="M 932.731,125.849 944.573,141.437 z" id="boundary" inkscape:connector-curvature="0" />
	<path style="fill:none;stroke:red;stroke-width:1px;stroke-linecap:butt;stroke-linejoin:miter;stroke-opacity:1" d="M 955.061,157.846 963.858,174.376 z" id="boundary" inkscape:connector-curvature="0" />
	<path style="fill:none;stroke:red;stroke-width:1px;stroke-linecap:butt;stroke-linejoin:miter;stroke-opacity:1" d="M 963.858,174.376 971.64,191.341 z" id="boundary" inkscape:connector-curvature="0" />
	<path style="fill:none;stroke:red;stroke-width:1px;stroke-linecap:butt;stroke-linejoin:miter;stroke-opacity:1" d="M 977.73,207.525 983.143,223.934 z" id="boundary" inkscape:connector-curvature="0" />
	<path style="fill:none;stroke:red;stroke-width:1px;stroke-linecap:butt;stroke-linejoin:miter;stroke-opacity:1" d="M 971.64,191.341 977.73,207.525 z" id="boundary" inkscape:connector-curvature="0" />
	<path style="fill:none;stroke:red;stroke-width:1px;stroke-linecap:butt;stroke-linejoin:miter;stroke-opacity:1" d="M 944.573,141.437 955.061,157.846 z" id="boundary" inkscape:connector-curvature="0" />
	<path style="fill:none;stroke:red;stroke-width:1px;stroke-linecap:butt;stroke-linejoin:miter;stroke-opacity:1" d="M 869.124,79.3038 881.981,85.0555 z" id="boundary" inkscape:connector-curvature="0" />
	<path style="fill:none;stroke:red;stroke-width:1px;stroke-linecap:butt;stroke-linejoin:miter;stroke-opacity:1" d="M 881.981,85.0555 894.499,92.4909 z" id="boundary" inkscape:connector-curvature="0" />
	<path style="fill:none;stroke:red;stroke-width:1px;stroke-linecap:butt;stroke-linejoin:miter;stroke-opacity:1" d="M 983.143,223.934 987.88,240.738 z" id="boundary" inkscape:connector-curvature="0" />
	<path style="fill:none;stroke:red;stroke-width:1px;stroke-linecap:butt;stroke-linejoin:miter;stroke-opacity:1" d="M 736.158,416.673 739.542,399.812 z" id="boundary" inkscape:connector-curvature="0" />
	<path style="fill:none;stroke:red;stroke-width:1px;stroke-linecap:butt;stroke-linejoin:miter;stroke-opacity:1" d="M 736.158,416.673 732.437,433.541 z" id="boundary" inkscape:connector-curvature="0" />
	<path style="fill:none;stroke:red;stroke-width:1px;stroke-linecap:butt;stroke-linejoin:miter;stroke-opacity:1" d="M 744.278,382.726 749.015,365.133 z" id="boundary" inkscape:connector-curvature="0" />
	<path style="fill:none;stroke:red;stroke-width:1px;stroke-linecap:butt;stroke-linejoin:miter;stroke-opacity:1" d="M 749.015,365.133 752.398,356.787 z" id="boundary" inkscape:connector-curvature="0" />
	<path style="fill:none;stroke:red;stroke-width:1px;stroke-linecap:butt;stroke-linejoin:miter;stroke-opacity:1" d="M 744.278,382.726 739.542,399.812 z" id="boundary" inkscape:connector-curvature="0" />
	<path style="fill:none;stroke:red;stroke-width:1px;stroke-linecap:butt;stroke-linejoin:miter;stroke-opacity:1" d="M 962.843,440.525 957.43,456.991 z" id="boundary" inkscape:connector-curvature="0" />
	<path style="fill:none;stroke:red;stroke-width:1px;stroke-linecap:butt;stroke-linejoin:miter;stroke-opacity:1" d="M 948.633,489.753 945.25,507.065 z" id="boundary" inkscape:connector-curvature="0" />
	<path style="fill:none;stroke:red;stroke-width:1px;stroke-linecap:butt;stroke-linejoin:miter;stroke-opacity:1" d="M 943.22,523.474 945.25,507.065 z" id="boundary" inkscape:connector-curvature="0" />
	<path style="fill:none;stroke:red;stroke-width:1px;stroke-linecap:butt;stroke-linejoin:miter;stroke-opacity:1" d="M 948.633,489.753 952.693,473.513 z" id="boundary" inkscape:connector-curvature="0" />
	<path style="fill:none;stroke:red;stroke-width:1px;stroke-linecap:butt;stroke-linejoin:miter;stroke-opacity:1" d="M 941.866,547.947 943.22,523.474 z" id="boundary" inkscape:connector-curvature="0" />
	<path style="fill:none;stroke:red;stroke-width:1px;stroke-linecap:butt;stroke-linejoin:miter;stroke-opacity:1" d="M 957.43,456.991 952.693,473.513 z" id="boundary" inkscape:connector-curvature="0" />
	<path style="fill:none;stroke:red;stroke-width:1px;stroke-linecap:butt;stroke-linejoin:miter;stroke-opacity:1" d="M 993.97,276.263 996,293.801 z" id="boundary" inkscape:connector-curvature="0" />
	<path style="fill:none;stroke:red;stroke-width:1px;stroke-linecap:butt;stroke-linejoin:miter;stroke-opacity:1" d="M 994.647,322.39 991.94,340.547 z" id="boundary" inkscape:connector-curvature="0" />
	<path style="fill:none;stroke:red;stroke-width:1px;stroke-linecap:butt;stroke-linejoin:miter;stroke-opacity:1" d="M 991.94,340.547 987.88,358.197 z" id="boundary" inkscape:connector-curvature="0" />
	<path style="fill:none;stroke:red;stroke-width:1px;stroke-linecap:butt;stroke-linejoin:miter;stroke-opacity:1" d="M 996,309.138 994.647,322.39 z" id="boundary" inkscape:connector-curvature="0" />
	<path style="fill:none;stroke:red;stroke-width:1px;stroke-linecap:butt;stroke-linejoin:miter;stroke-opacity:1" d="M 996,293.801 996,309.138 z" id="boundary" inkscape:connector-curvature="0" />
	<path style="fill:none;stroke:red;stroke-width:1px;stroke-linecap:butt;stroke-linejoin:miter;stroke-opacity:1" d="M 962.843,440.525 968.256,424.229 z" id="boundary" inkscape:connector-curvature="0" />
	<path style="fill:none;stroke:red;stroke-width:1px;stroke-linecap:butt;stroke-linejoin:miter;stroke-opacity:1" d="M 973.67,408.045 968.256,424.229 z" id="boundary" inkscape:connector-curvature="0" />
	<path style="fill:none;stroke:red;stroke-width:1px;stroke-linecap:butt;stroke-linejoin:miter;stroke-opacity:1" d="M 983.82,375.339 978.407,392.087 z" id="boundary" inkscape:connector-curvature="0" />
	<path style="fill:none;stroke:red;stroke-width:1px;stroke-linecap:butt;stroke-linejoin:miter;stroke-opacity:1" d="M 978.407,392.087 973.67,408.045 z" id="boundary" inkscape:connector-curvature="0" />
	<path style="fill:none;stroke:red;stroke-width:1px;stroke-linecap:butt;stroke-linejoin:miter;stroke-opacity:1" d="M 983.82,375.339 987.88,358.197 z" id="boundary" inkscape:connector-curvature="0" />
	<path style="fill:none;stroke:red;stroke-width:1px;stroke-linecap:butt;stroke-linejoin:miter;stroke-opacity:1" d="M 991.263,257.542 993.97,276.263 z" id="boundary" inkscape:connector-curvature="0" />
	<path style="fill:none;stroke:red;stroke-width:1px;stroke-linecap:butt;stroke-linejoin:miter;stroke-opacity:1" d="M 987.88,240.738 991.263,257.542 z" id="boundary" inkscape:connector-curvature="0" />
	<path style="fill:none;stroke:red;stroke-width:1px;stroke-linecap:butt;stroke-linejoin:miter;stroke-opacity:1" d="M 539.924,584.487 541.954,567.007 z" id="boundary" inkscape:connector-curvature="0" />
	<path style="fill:none;stroke:red;stroke-width:1px;stroke-linecap:butt;stroke-linejoin:miter;stroke-opacity:1" d="M 539.924,584.487 537.217,601.46 z" id="boundary" inkscape:connector-curvature="0" />
	<path style="fill:none;stroke:red;stroke-width:1px;stroke-linecap:butt;stroke-linejoin:miter;stroke-opacity:1" d="M 633.981,548.962 621.462,548.334 z" id="boundary" inkscape:connector-curvature="0" />
	<path style="fill:none;stroke:red;stroke-width:1px;stroke-linecap:butt;stroke-linejoin:miter;stroke-opacity:1" d="M 541.954,567.007 543.984,555.898 z" id="boundary" inkscape:connector-curvature="0" />
	<path style="fill:none;stroke:red;stroke-width:1px;stroke-linecap:butt;stroke-linejoin:miter;stroke-opacity:1" d="M 521.653,668.169 516.24,684.409 z" id="boundary" inkscape:connector-curvature="0" />
	<path style="fill:none;stroke:red;stroke-width:1px;stroke-linecap:butt;stroke-linejoin:miter;stroke-opacity:1" d="M 526.052,652.154 521.653,668.169 z" id="boundary" inkscape:connector-curvature="0" />
	<path style="fill:none;stroke:red;stroke-width:1px;stroke-linecap:butt;stroke-linejoin:miter;stroke-opacity:1" d="M 529.774,635.689 526.052,652.154 z" id="boundary" inkscape:connector-curvature="0" />
	<path style="fill:none;stroke:red;stroke-width:1px;stroke-linecap:butt;stroke-linejoin:miter;stroke-opacity:1" d="M 533.495,618.949 529.774,635.689 z" id="boundary" inkscape:connector-curvature="0" />
	<path style="fill:none;stroke:red;stroke-width:1px;stroke-linecap:butt;stroke-linejoin:miter;stroke-opacity:1" d="M 533.495,618.949 537.217,601.46 z" id="boundary" inkscape:connector-curvature="0" />
	<path style="fill:none;stroke:red;stroke-width:1px;stroke-linecap:butt;stroke-linejoin:miter;stroke-opacity:1" d="M 516.24,684.409 508.797,700.931 z" id="boundary" inkscape:connector-curvature="0" />
	<path style="fill:none;stroke:red;stroke-width:1px;stroke-linecap:butt;stroke-linejoin:miter;stroke-opacity:1" d="M 690.145,564.356 696.573,582.022 z" id="boundary" inkscape:connector-curvature="0" />
	<path style="fill:none;stroke:red;stroke-width:1px;stroke-linecap:butt;stroke-linejoin:miter;stroke-opacity:1" d="M 646.838,548.567 659.356,546.255 z" id="boundary" inkscape:connector-curvature="0" />
	<path style="fill:none;stroke:red;stroke-width:1px;stroke-linecap:butt;stroke-linejoin:miter;stroke-opacity:1" d="M 741.572,554.488 752.398,570.615 z" id="boundary" inkscape:connector-curvature="0" />
	<path style="fill:none;stroke:red;stroke-width:1px;stroke-linecap:butt;stroke-linejoin:miter;stroke-opacity:1" d="M 706.385,596.836 696.573,582.022 z" id="boundary" inkscape:connector-curvature="0" />
	<path style="fill:none;stroke:red;stroke-width:1px;stroke-linecap:butt;stroke-linejoin:miter;stroke-opacity:1" d="M 715.52,612.907 706.385,596.836 z" id="boundary" inkscape:connector-curvature="0" />
	<path style="fill:none;stroke:red;stroke-width:1px;stroke-linecap:butt;stroke-linejoin:miter;stroke-opacity:1" d="M 663.754,673.921 672.551,651.083 z" id="boundary" inkscape:connector-curvature="0" />
	<path style="fill:none;stroke:red;stroke-width:1px;stroke-linecap:butt;stroke-linejoin:miter;stroke-opacity:1" d="M 672.551,651.083 685.408,643.978 z" id="boundary" inkscape:connector-curvature="0" />
	<path style="fill:none;stroke:red;stroke-width:1px;stroke-linecap:butt;stroke-linejoin:miter;stroke-opacity:1" d="M 715.52,612.907 710.445,631.065 z" id="boundary" inkscape:connector-curvature="0" />
	<path style="fill:none;stroke:red;stroke-width:1px;stroke-linecap:butt;stroke-linejoin:miter;stroke-opacity:1" d="M 710.445,631.065 697.926,638.911 z" id="boundary" inkscape:connector-curvature="0" />
	<path style="fill:none;stroke:red;stroke-width:1px;stroke-linecap:butt;stroke-linejoin:miter;stroke-opacity:1" d="M 697.926,638.911 685.408,643.978 z" id="boundary" inkscape:connector-curvature="0" />
	<path style="fill:none;stroke:red;stroke-width:1px;stroke-linecap:butt;stroke-linejoin:miter;stroke-opacity:1" d="M 755.443,700.44 742.925,707.811 z" id="boundary" inkscape:connector-curvature="0" />
	<path style="fill:none;stroke:red;stroke-width:1px;stroke-linecap:butt;stroke-linejoin:miter;stroke-opacity:1" d="M 633.981,548.962 646.838,548.567 z" id="boundary" inkscape:connector-curvature="0" />
	<path style="fill:none;stroke:red;stroke-width:1px;stroke-linecap:butt;stroke-linejoin:miter;stroke-opacity:1" d="M 663.754,673.921 669.168,700.254 z" id="boundary" inkscape:connector-curvature="0" />
	<path style="fill:none;stroke:red;stroke-width:1px;stroke-linecap:butt;stroke-linejoin:miter;stroke-opacity:1" d="M 489.512,733.355 500,717.284 z" id="boundary" inkscape:connector-curvature="0" />
	<path style="fill:none;stroke:red;stroke-width:1px;stroke-linecap:butt;stroke-linejoin:miter;stroke-opacity:1" d="M 669.168,700.254 679.318,712.829 z" id="boundary" inkscape:connector-curvature="0" />
	<path style="fill:none;stroke:red;stroke-width:1px;stroke-linecap:butt;stroke-linejoin:miter;stroke-opacity:1" d="M 691.836,718.13 679.318,712.829 z" id="boundary" inkscape:connector-curvature="0" />
	<path style="fill:none;stroke:red;stroke-width:1px;stroke-linecap:butt;stroke-linejoin:miter;stroke-opacity:1" d="M 500,717.284 508.797,700.931 z" id="boundary" inkscape:connector-curvature="0" />
	<path style="fill:none;stroke:red;stroke-width:1px;stroke-linecap:butt;stroke-linejoin:miter;stroke-opacity:1" d="M 489.512,733.355 477.332,748.967 z" id="boundary" inkscape:connector-curvature="0" />
	<path style="fill:none;stroke:red;stroke-width:1px;stroke-linecap:butt;stroke-linejoin:miter;stroke-opacity:1" d="M 439.1,783.992 426.581,791.984 z" id="boundary" inkscape:connector-curvature="0" />
	<path style="fill:none;stroke:red;stroke-width:1px;stroke-linecap:butt;stroke-linejoin:miter;stroke-opacity:1" d="M 426.581,791.984 413.724,799.33 z" id="boundary" inkscape:connector-curvature="0" />
	<path style="fill:none;stroke:red;stroke-width:1px;stroke-linecap:butt;stroke-linejoin:miter;stroke-opacity:1" d="M 451.956,774.294 439.1,783.992 z" id="boundary" inkscape:connector-curvature="0" />
	<path style="fill:none;stroke:red;stroke-width:1px;stroke-linecap:butt;stroke-linejoin:miter;stroke-opacity:1" d="M 464.475,762.693 451.956,774.294 z" id="boundary" inkscape:connector-curvature="0" />
	<path style="fill:none;stroke:red;stroke-width:1px;stroke-linecap:butt;stroke-linejoin:miter;stroke-opacity:1" d="M 464.475,762.693 477.332,748.967 z" id="boundary" inkscape:connector-curvature="0" />
	<path style="fill:none;stroke:red;stroke-width:1px;stroke-linecap:butt;stroke-linejoin:miter;stroke-opacity:1" d="M 704.693,719.193 691.836,718.13 z" id="boundary" inkscape:connector-curvature="0" />
	<path style="fill:none;stroke:red;stroke-width:1px;stroke-linecap:butt;stroke-linejoin:miter;stroke-opacity:1" d="M 704.693,719.193 717.55,717.356 z" id="boundary" inkscape:connector-curvature="0" />
	<path style="fill:none;stroke:red;stroke-width:1px;stroke-linecap:butt;stroke-linejoin:miter;stroke-opacity:1" d="M 756.797,747.517 743.94,755.298 z" id="boundary" inkscape:connector-curvature="0" />
	<path style="fill:none;stroke:red;stroke-width:1px;stroke-linecap:butt;stroke-linejoin:miter;stroke-opacity:1" d="M 730.068,713.506 742.925,707.811 z" id="boundary" inkscape:connector-curvature="0" />
	<path style="fill:none;stroke:red;stroke-width:1px;stroke-linecap:butt;stroke-linejoin:miter;stroke-opacity:1" d="M 717.55,717.356 730.068,713.506 z" id="boundary" inkscape:connector-curvature="0" />
	<path style="fill:none;stroke:red;stroke-width:1px;stroke-linecap:butt;stroke-linejoin:miter;stroke-opacity:1" d="M 743.94,755.298 731.422,764.482 z" id="boundary" inkscape:connector-curvature="0" />
	<path style="fill:none;stroke:red;stroke-width:1px;stroke-linecap:butt;stroke-linejoin:miter;stroke-opacity:1" d="M 712.475,803.39 719.918,777.113 z" id="boundary" inkscape:connector-curvature="0" />
	<path style="fill:none;stroke:red;stroke-width:1px;stroke-linecap:butt;stroke-linejoin:miter;stroke-opacity:1" d="M 720.933,826.977 712.475,803.39 z" id="boundary" inkscape:connector-curvature="0" />
	<path style="fill:none;stroke:red;stroke-width:1px;stroke-linecap:butt;stroke-linejoin:miter;stroke-opacity:1" d="M 719.918,777.113 731.422,764.482 z" id="boundary" inkscape:connector-curvature="0" />
	<path style="fill:none;stroke:red;stroke-width:1px;stroke-linecap:butt;stroke-linejoin:miter;stroke-opacity:1" d="M 745.97,847.954 733.452,839.592 z" id="boundary" inkscape:connector-curvature="0" />
	<path style="fill:none;stroke:red;stroke-width:1px;stroke-linecap:butt;stroke-linejoin:miter;stroke-opacity:1" d="M 733.452,839.592 720.933,826.977 z" id="boundary" inkscape:connector-curvature="0" />
	<path style="fill:none;stroke:red;stroke-width:1px;stroke-linecap:butt;stroke-linejoin:miter;stroke-opacity:1" d="M 758.827,853.126 745.97,847.954 z" id="boundary" inkscape:connector-curvature="0" />
	<path style="fill:none;stroke:red;stroke-width:1px;stroke-linecap:butt;stroke-linejoin:miter;stroke-opacity:1" d="M 752.398,570.615 764.917,586.372 z" id="boundary" inkscape:connector-curvature="0" />
	<path style="fill:none;stroke:red;stroke-width:1px;stroke-linecap:butt;stroke-linejoin:miter;stroke-opacity:1" d="M 777.774,601.549 790.63,616.726 z" id="boundary" inkscape:connector-curvature="0" />
	<path style="fill:none;stroke:red;stroke-width:1px;stroke-linecap:butt;stroke-linejoin:miter;stroke-opacity:1" d="M 790.63,616.726 796.382,624.467 z" id="boundary" inkscape:connector-curvature="0" />
	<path style="fill:none;stroke:red;stroke-width:1px;stroke-linecap:butt;stroke-linejoin:miter;stroke-opacity:1" d="M 803.825,634.843 796.382,624.467 z" id="boundary" inkscape:connector-curvature="0" />
	<path style="fill:none;stroke:red;stroke-width:1px;stroke-linecap:butt;stroke-linejoin:miter;stroke-opacity:1" d="M 777.774,601.549 764.917,586.372 z" id="boundary" inkscape:connector-curvature="0" />
	<path style="fill:none;stroke:red;stroke-width:1px;stroke-linecap:butt;stroke-linejoin:miter;stroke-opacity:1" d="M 791.307,660.999 780.48,677.433 z" id="boundary" inkscape:connector-curvature="0" />
	<path style="fill:none;stroke:red;stroke-width:1px;stroke-linecap:butt;stroke-linejoin:miter;stroke-opacity:1" d="M 780.48,677.433 768.3,691.305 z" id="boundary" inkscape:connector-curvature="0" />
	<path style="fill:none;stroke:red;stroke-width:1px;stroke-linecap:butt;stroke-linejoin:miter;stroke-opacity:1" d="M 809.915,644.034 815.329,657.004 z" id="boundary" inkscape:connector-curvature="0" />
	<path style="fill:none;stroke:red;stroke-width:1px;stroke-linecap:butt;stroke-linejoin:miter;stroke-opacity:1" d="M 803.825,634.843 809.915,644.034 z" id="boundary" inkscape:connector-curvature="0" />
	<path style="fill:none;stroke:red;stroke-width:1px;stroke-linecap:butt;stroke-linejoin:miter;stroke-opacity:1" d="M 791.307,660.999 795.55,644.803 z" id="boundary" inkscape:connector-curvature="0" />
	<path style="fill:none;stroke:red;stroke-width:1px;stroke-linecap:butt;stroke-linejoin:miter;stroke-opacity:1" d="M 815.329,657.004 818.035,666.646 z" id="boundary" inkscape:connector-curvature="0" />
	<path style="fill:none;stroke:red;stroke-width:1px;stroke-linecap:butt;stroke-linejoin:miter;stroke-opacity:1" d="M 768.3,691.305 755.443,700.44 z" id="boundary" inkscape:connector-curvature="0" />
	<path style="fill:none;stroke:red;stroke-width:1px;stroke-linecap:butt;stroke-linejoin:miter;stroke-opacity:1" d="M 946.603,610.934 943.896,591.818 z" id="boundary" inkscape:connector-curvature="0" />
	<path style="fill:none;stroke:red;stroke-width:1px;stroke-linecap:butt;stroke-linejoin:miter;stroke-opacity:1" d="M 943.896,591.818 942.543,573.097 z" id="boundary" inkscape:connector-curvature="0" />
	<path style="fill:none;stroke:red;stroke-width:1px;stroke-linecap:butt;stroke-linejoin:miter;stroke-opacity:1" d="M 942.543,573.097 941.866,547.947 z" id="boundary" inkscape:connector-curvature="0" />
	<path style="fill:none;stroke:red;stroke-width:1px;stroke-linecap:butt;stroke-linejoin:miter;stroke-opacity:1" d="M 946.603,610.934 948.633,628.358 z" id="boundary" inkscape:connector-curvature="0" />
	<path style="fill:none;stroke:red;stroke-width:1px;stroke-linecap:butt;stroke-linejoin:miter;stroke-opacity:1" d="M 950.663,645.782 948.633,628.358 z" id="boundary" inkscape:connector-curvature="0" />
	<path style="fill:none;stroke:red;stroke-width:1px;stroke-linecap:butt;stroke-linejoin:miter;stroke-opacity:1" d="M 820.065,679.729 817.359,693.995 z" id="boundary" inkscape:connector-curvature="0" />
	<path style="fill:none;stroke:red;stroke-width:1px;stroke-linecap:butt;stroke-linejoin:miter;stroke-opacity:1" d="M 818.035,666.646 820.065,679.729 z" id="boundary" inkscape:connector-curvature="0" />
	<path style="fill:none;stroke:red;stroke-width:1px;stroke-linecap:butt;stroke-linejoin:miter;stroke-opacity:1" d="M 953.37,681.477 952.355,697.491 z" id="boundary" inkscape:connector-curvature="0" />
	<path style="fill:none;stroke:red;stroke-width:1px;stroke-linecap:butt;stroke-linejoin:miter;stroke-opacity:1" d="M 952.693,664.673 953.37,681.477 z" id="boundary" inkscape:connector-curvature="0" />
	<path style="fill:none;stroke:red;stroke-width:1px;stroke-linecap:butt;stroke-linejoin:miter;stroke-opacity:1" d="M 950.663,645.782 952.693,664.673 z" id="boundary" inkscape:connector-curvature="0" />
	<path style="fill:none;stroke:red;stroke-width:1px;stroke-linecap:butt;stroke-linejoin:miter;stroke-opacity:1" d="M 952.355,697.491 949.31,713.393 z" id="boundary" inkscape:connector-curvature="0" />
	<path style="fill:none;stroke:red;stroke-width:1px;stroke-linecap:butt;stroke-linejoin:miter;stroke-opacity:1" d="M 817.359,693.995 807.885,711.25 z" id="boundary" inkscape:connector-curvature="0" />
	<path style="fill:none;stroke:red;stroke-width:1px;stroke-linecap:butt;stroke-linejoin:miter;stroke-opacity:1" d="M 769.653,740.025 756.797,747.517 z" id="boundary" inkscape:connector-curvature="0" />
	<path style="fill:none;stroke:red;stroke-width:1px;stroke-linecap:butt;stroke-linejoin:miter;stroke-opacity:1" d="M 782.51,732.292 769.653,740.025 z" id="boundary" inkscape:connector-curvature="0" />
	<path style="fill:none;stroke:red;stroke-width:1px;stroke-linecap:butt;stroke-linejoin:miter;stroke-opacity:1" d="M 795.029,723.374 782.51,732.292 z" id="boundary" inkscape:connector-curvature="0" />
	<path style="fill:none;stroke:red;stroke-width:1px;stroke-linecap:butt;stroke-linejoin:miter;stroke-opacity:1" d="M 807.885,711.25 795.029,723.374 z" id="boundary" inkscape:connector-curvature="0" />
	<path style="fill:none;stroke:red;stroke-width:1px;stroke-linecap:butt;stroke-linejoin:miter;stroke-opacity:1" d="M 822.434,847.954 809.915,852.28 z" id="boundary" inkscape:connector-curvature="0" />
	<path style="fill:none;stroke:red;stroke-width:1px;stroke-linecap:butt;stroke-linejoin:miter;stroke-opacity:1" d="M 771.683,855.929 758.827,853.126 z" id="boundary" inkscape:connector-curvature="0" />
	<path style="fill:none;stroke:red;stroke-width:1px;stroke-linecap:butt;stroke-linejoin:miter;stroke-opacity:1" d="M 784.54,856.557 771.683,855.929 z" id="boundary" inkscape:connector-curvature="0" />
	<path style="fill:none;stroke:red;stroke-width:1px;stroke-linecap:butt;stroke-linejoin:miter;stroke-opacity:1" d="M 797.059,855.268 784.54,856.557 z" id="boundary" inkscape:connector-curvature="0" />
	<path style="fill:none;stroke:red;stroke-width:1px;stroke-linecap:butt;stroke-linejoin:miter;stroke-opacity:1" d="M 809.915,852.28 797.059,855.268 z" id="boundary" inkscape:connector-curvature="0" />
	<path style="fill:none;stroke:red;stroke-width:1px;stroke-linecap:butt;stroke-linejoin:miter;stroke-opacity:1" d="M 911.754,778.692 898.898,793.047 z" id="boundary" inkscape:connector-curvature="0" />
	<path style="fill:none;stroke:red;stroke-width:1px;stroke-linecap:butt;stroke-linejoin:miter;stroke-opacity:1" d="M 935.1,747.001 924.273,763.016 z" id="boundary" inkscape:connector-curvature="0" />
	<path style="fill:none;stroke:red;stroke-width:1px;stroke-linecap:butt;stroke-linejoin:miter;stroke-opacity:1" d="M 924.273,763.016 911.754,778.692 z" id="boundary" inkscape:connector-curvature="0" />
	<path style="fill:none;stroke:red;stroke-width:1px;stroke-linecap:butt;stroke-linejoin:miter;stroke-opacity:1" d="M 898.898,793.047 886.379,805.477 z" id="boundary" inkscape:connector-curvature="0" />
	<path style="fill:none;stroke:red;stroke-width:1px;stroke-linecap:butt;stroke-linejoin:miter;stroke-opacity:1" d="M 848.147,834.904 835.291,841.961 z" id="boundary" inkscape:connector-curvature="0" />
	<path style="fill:none;stroke:red;stroke-width:1px;stroke-linecap:butt;stroke-linejoin:miter;stroke-opacity:1" d="M 835.291,841.961 822.434,847.954 z" id="boundary" inkscape:connector-curvature="0" />
	<path style="fill:none;stroke:red;stroke-width:1px;stroke-linecap:butt;stroke-linejoin:miter;stroke-opacity:1" d="M 861.004,826.397 848.147,834.904 z" id="boundary" inkscape:connector-curvature="0" />
	<path style="fill:none;stroke:red;stroke-width:1px;stroke-linecap:butt;stroke-linejoin:miter;stroke-opacity:1" d="M 873.523,816.642 861.004,826.397 z" id="boundary" inkscape:connector-curvature="0" />
	<path style="fill:none;stroke:red;stroke-width:1px;stroke-linecap:butt;stroke-linejoin:miter;stroke-opacity:1" d="M 886.379,805.477 873.523,816.642 z" id="boundary" inkscape:connector-curvature="0" />
	<path style="fill:none;stroke:red;stroke-width:1px;stroke-linecap:butt;stroke-linejoin:miter;stroke-opacity:1" d="M 943.558,730.552 935.1,747.001 z" id="boundary" inkscape:connector-curvature="0" />
	<path style="fill:none;stroke:red;stroke-width:1px;stroke-linecap:butt;stroke-linejoin:miter;stroke-opacity:1" d="M 949.31,713.393 943.558,730.552 z" id="boundary" inkscape:connector-curvature="0" />
	<circle cx="4" cy="43.9397" r="4" fill="#0" id="circle0"/>
	<circle cx="4.67667" cy="66.6082" r="4" fill="#0" id="circle1"/>
	<circle cx="11.4434" cy="79.8033" r="4" fill="#0" id="circle2"/>
	<circle cx="13.1351" cy="23.0435" r="4" fill="#0" id="circle3"/>
	<circle cx="16.5184" cy="91.1939" r="4" fill="#0" id="circle4"/>
	<circle cx="21.2551" cy="75.3888" r="4" fill="#0" id="circle5"/>
	<circle cx="25.6535" cy="17.0984" r="4" fill="#0" id="circle6"/>
	<circle cx="28.6985" cy="103.567" r="4" fill="#0" id="circle7"/>
	<circle cx="30.0518" cy="71.2321" r="4" fill="#0" id="circle8"/>
	<circle cx="38.5102" cy="14.9556" r="4" fill="#0" id="circle9"/>
	<circle cx="38.5102" cy="113.524" r="4" fill="#0" id="circle10"/>
	<circle cx="42.9086" cy="63.5954" r="4" fill="#0" id="circle11"/>
	<circle cx="43.2469" cy="149.162" r="4" fill="#0" id="circle12"/>
	<circle cx="43.9236" cy="134.444" r="4" fill="#0" id="circle13"/>
	<circle cx="48.322" cy="121.692" r="4" fill="#0" id="circle14"/>
	<circle cx="51.0286" cy="15.0201" r="4" fill="#0" id="circle15"/>
	<circle cx="53.0587" cy="171.573" r="4" fill="#0" id="circle16"/>
	<circle cx="54.412" cy="52.5753" r="4" fill="#0" id="circle17"/>
	<circle cx="56.442" cy="129.523" r="4" fill="#0" id="circle18"/>
	<circle cx="61.5171" cy="36.2144" r="4" fill="#0" id="circle19"/>
	<circle cx="63.8854" cy="18.3068" r="4" fill="#0" id="circle20"/>
	<circle cx="65.5771" cy="182.037" r="4" fill="#0" id="circle21"/>
	<circle cx="66.9304" cy="136.531" r="4" fill="#0" id="circle22"/>
	<circle cx="76.7422" cy="19.2734" r="4" fill="#0" id="circle23"/>
	<circle cx="78.0955" cy="189.795" r="4" fill="#0" id="circle24"/>
	<circle cx="79.4488" cy="144.216" r="4" fill="#0" id="circle25"/>
	<circle cx="89.5989" cy="22.4635" r="4" fill="#0" id="circle26"/>
	<circle cx="90.9523" cy="197.19" r="4" fill="#0" id="circle27"/>
	<circle cx="92.3056" cy="150.789" r="4" fill="#0" id="circle28"/>
	<circle cx="102.117" cy="25.8951" r="4" fill="#0" id="circle29"/>
	<circle cx="103.809" cy="206.663" r="4" fill="#0" id="circle30"/>
	<circle cx="105.162" cy="156.879" r="4" fill="#0" id="circle31"/>
	<circle cx="114.974" cy="29.2785" r="4" fill="#0" id="circle32"/>
	<circle cx="116.666" cy="220.535" r="4" fill="#0" id="circle33"/>
	<circle cx="117.681" cy="162.47" r="4" fill="#0" id="circle34"/>
	<circle cx="127.492" cy="31.8402" r="4" fill="#0" id="circle35"/>
	<circle cx="127.831" cy="166.586" r="4" fill="#0" id="circle36"/>
	<circle cx="129.184" cy="236.453" r="4" fill="#0" id="circle37"/>
	<circle cx="140.349" cy="33.4352" r="4" fill="#0" id="circle38"/>
	<circle cx="141.026" cy="252.628" r="4" fill="#0" id="circle39"/>
	<circle cx="152.191" cy="269.046" r="4" fill="#0" id="circle40"/>
	<circle cx="153.206" cy="33.0485" r="4" fill="#0" id="circle41"/>
	<circle cx="162.679" cy="285.399" r="4" fill="#0" id="circle42"/>
	<circle cx="162.341" cy="664.109" r="4" fill="#0" id="circle43"/>
	<circle cx="166.063" cy="29.2785" r="4" fill="#0" id="circle44"/>
	<circle cx="171.138" cy="637.775" r="4" fill="#0" id="circle45"/>
	<circle cx="171.138" cy="688.131" r="4" fill="#0" id="circle46"/>
	<circle cx="172.491" cy="301.921" r="4" fill="#0" id="circle47"/>
	<circle cx="178.581" cy="22.8501" r="4" fill="#0" id="circle48"/>
	<circle cx="182.303" cy="318.459" r="4" fill="#0" id="circle49"/>
	<circle cx="183.995" cy="625.257" r="4" fill="#0" id="circle50"/>
	<circle cx="183.995" cy="698.901" r="4" fill="#0" id="circle51"/>
	<circle cx="184.671" cy="126.55" r="4" fill="#0" id="circle52"/>
	<circle cx="185.348" cy="105.009" r="4" fill="#0" id="circle53"/>
	<circle cx="186.025" cy="145.046" r="4" fill="#0" id="circle54"/>
	<circle cx="188.393" cy="90.5172" r="4" fill="#0" id="circle55"/>
	<circle cx="188.055" cy="828.991" r="4" fill="#0" id="circle56"/>
	<circle cx="191.438" cy="15.5759" r="4" fill="#0" id="circle57"/>
	<circle cx="191.438" cy="162.244" r="4" fill="#0" id="circle58"/>
	<circle cx="191.776" cy="334.844" r="4" fill="#0" id="circle59"/>
	<circle cx="192.115" cy="78.6191" r="4" fill="#0" id="circle60"/>
	<circle cx="196.513" cy="616.387" r="4" fill="#0" id="circle61"/>
	<circle cx="196.513" cy="703.291" r="4" fill="#0" id="circle62"/>
	<circle cx="196.851" cy="803.221" r="4" fill="#0" id="circle63"/>
	<circle cx="197.19" cy="852.062" r="4" fill="#0" id="circle64"/>
	<circle cx="200.573" cy="178.823" r="4" fill="#0" id="circle65"/>
	<circle cx="201.25" cy="351.664" r="4" fill="#0" id="circle66"/>
	<circle cx="201.588" cy="61.9843" r="4" fill="#0" id="circle67"/>
	<circle cx="203.956" cy="8.8817" r="4" fill="#0" id="circle68"/>
	<circle cx="209.37" cy="609.089" r="4" fill="#0" id="circle69"/>
	<circle cx="209.37" cy="702.47" r="4" fill="#0" id="circle70"/>
	<circle cx="209.37" cy="791.21" r="4" fill="#0" id="circle71"/>
	<circle cx="210.046" cy="863.711" r="4" fill="#0" id="circle72"/>
	<circle cx="210.385" cy="123.731" r="4" fill="#0" id="circle73"/>
	<circle cx="210.385" cy="368.009" r="4" fill="#0" id="circle74"/>
	<circle cx="211.4" cy="112.122" r="4" fill="#0" id="circle75"/>
	<circle cx="211.738" cy="136.587" r="4" fill="#0" id="circle76"/>
	<circle cx="212.753" cy="190.133" r="4" fill="#0" id="circle77"/>
	<circle cx="214.445" cy="51.4959" r="4" fill="#0" id="circle78"/>
	<circle cx="216.813" cy="4.67667" r="4" fill="#0" id="circle79"/>
	<circle cx="216.813" cy="150.161" r="4" fill="#0" id="circle80"/>
	<circle cx="218.505" cy="98.4681" r="4" fill="#0" id="circle81"/>
	<circle cx="219.858" cy="384.7" r="4" fill="#0" id="circle82"/>
	<circle cx="222.226" cy="602.467" r="4" fill="#0" id="circle83"/>
	<circle cx="222.226" cy="698.265" r="4" fill="#0" id="circle84"/>
	<circle cx="222.226" cy="783.042" r="4" fill="#0" id="circle85"/>
	<circle cx="222.565" cy="870.663" r="4" fill="#0" id="circle86"/>
	<circle cx="225.61" cy="193.275" r="4" fill="#0" id="circle87"/>
	<circle cx="226.963" cy="49.337" r="4" fill="#0" id="circle88"/>
	<circle cx="227.64" cy="155.188" r="4" fill="#0" id="circle89"/>
	<circle cx="228.993" cy="401.303" r="4" fill="#0" id="circle90"/>
	<circle cx="229.67" cy="4" r="4" fill="#0" id="circle91"/>
	<circle cx="231.023" cy="99.169" r="4" fill="#0" id="circle92"/>
	<circle cx="233.392" cy="148.147" r="4" fill="#0" id="circle93"/>
	<circle cx="235.083" cy="596.087" r="4" fill="#0" id="circle94"/>
	<circle cx="235.083" cy="692.61" r="4" fill="#0" id="circle95"/>
	<circle cx="235.083" cy="776.034" r="4" fill="#0" id="circle96"/>
	<circle cx="235.422" cy="874.441" r="4" fill="#0" id="circle97"/>
	<circle cx="237.79" cy="417.688" r="4" fill="#0" id="circle98"/>
	<circle cx="238.128" cy="136.869" r="4" fill="#0" id="circle99"/>
	<circle cx="238.128" cy="188.917" r="4" fill="#0" id="circle100"/>
	<circle cx="238.805" cy="118.994" r="4" fill="#0" id="circle101"/>
	<circle cx="239.82" cy="54.702" r="4" fill="#0" id="circle102"/>
	<circle cx="242.188" cy="6.6664" r="4" fill="#0" id="circle103"/>
	<circle cx="244.218" cy="582.062" r="4" fill="#0" id="circle104"/>
	<circle cx="246.248" cy="434.041" r="4" fill="#0" id="circle105"/>
	<circle cx="247.602" cy="687.003" r="4" fill="#0" id="circle106"/>
	<circle cx="247.602" cy="769.726" r="4" fill="#0" id="circle107"/>
	<circle cx="247.94" cy="875.504" r="4" fill="#0" id="circle108"/>
	<circle cx="249.97" cy="176.986" r="4" fill="#0" id="circle109"/>
	<circle cx="250.985" cy="67.454" r="4" fill="#0" id="circle110"/>
	<circle cx="250.985" cy="556.18" r="4" fill="#0" id="circle111"/>
	<circle cx="254.707" cy="450.7" r="4" fill="#0" id="circle112"/>
	<circle cx="255.045" cy="11.4031" r="4" fill="#0" id="circle113"/>
	<circle cx="257.075" cy="533.85" r="4" fill="#0" id="circle114"/>
	<circle cx="258.09" cy="160.504" r="4" fill="#0" id="circle115"/>
	<circle cx="258.767" cy="83.7022" r="4" fill="#0" id="circle116"/>
	<circle cx="259.782" cy="462.63" r="4" fill="#0" id="circle117"/>
	<circle cx="260.458" cy="510.053" r="4" fill="#0" id="circle118"/>
	<circle cx="260.458" cy="680.575" r="4" fill="#0" id="circle119"/>
	<circle cx="260.458" cy="763.467" r="4" fill="#0" id="circle120"/>
	<circle cx="260.797" cy="874.779" r="4" fill="#0" id="circle121"/>
	<circle cx="263.165" cy="101.908" r="4" fill="#0" id="circle122"/>
	<circle cx="263.165" cy="143.128" r="4" fill="#0" id="circle123"/>
	<circle cx="264.518" cy="118.994" r="4" fill="#0" id="circle124"/>
	<circle cx="262.72" cy="496.497" r="4" fill="#0" id="circle125"/>
	<circle cx="265.195" cy="129.482" r="4" fill="#0" id="circle126"/>
	<circle cx="265.195" cy="474.021" r="4" fill="#0" id="circle127"/>
	<circle cx="267.902" cy="17.7187" r="4" fill="#0" id="circle128"/>
	<circle cx="271.962" cy="486.539" r="4" fill="#0" id="circle129"/>
	<circle cx="272.977" cy="671.923" r="4" fill="#0" id="circle130"/>
	<circle cx="272.977" cy="756.748" r="4" fill="#0" id="circle131"/>
	<circle cx="273.653" cy="872.411" r="4" fill="#0" id="circle132"/>
	<circle cx="276.698" cy="499.283" r="4" fill="#0" id="circle133"/>
	<circle cx="280.42" cy="25.1701" r="4" fill="#0" id="circle134"/>
	<circle cx="284.142" cy="517.61" r="4" fill="#0" id="circle135"/>
	<circle cx="294.281" cy="49.4553" r="4" fill="#0" id="circle136"/>
	<circle cx="285.834" cy="661.676" r="4" fill="#0" id="circle137"/>
	<circle cx="285.834" cy="748.918" r="4" fill="#0" id="circle138"/>
	<circle cx="286.172" cy="868.915" r="4" fill="#0" id="circle139"/>
	<circle cx="290.232" cy="534.075" r="4" fill="#0" id="circle140"/>
	<circle cx="292.939" cy="33.0566" r="4" fill="#0" id="circle141"/>
	<circle cx="295.645" cy="550.936" r="4" fill="#0" id="circle142"/>
	<circle cx="298.69" cy="650.028" r="4" fill="#0" id="circle143"/>
	<circle cx="298.69" cy="737.898" r="4" fill="#0" id="circle144"/>
	<circle cx="299.029" cy="864.122" r="4" fill="#0" id="circle145"/>
	<circle cx="300.72" cy="568.102" r="4" fill="#0" id="circle146"/>
	<circle cx="304.78" cy="584.439" r="4" fill="#0" id="circle147"/>
	<circle cx="306.134" cy="18.1134" r="4" fill="#0" id="circle148"/>
	<circle cx="308.502" cy="601.291" r="4" fill="#0" id="circle149"/>
	<circle cx="308.502" cy="722.754" r="4" fill="#0" id="circle150"/>
	<circle cx="311.209" cy="618.264" r="4" fill="#0" id="circle151"/>
	<circle cx="311.547" cy="642.004" r="4" fill="#0" id="circle152"/>
	<circle cx="311.885" cy="858.652" r="4" fill="#0" id="circle153"/>
	<circle cx="314.592" cy="705.329" r="4" fill="#0" id="circle154"/>
	<circle cx="315.945" cy="652.718" r="4" fill="#0" id="circle155"/>
	<circle cx="316.622" cy="687.003" r="4" fill="#0" id="circle156"/>
	<circle cx="317.299" cy="669.861" r="4" fill="#0" id="circle157"/>
	<circle cx="318.652" cy="8.24531" r="4" fill="#0" id="circle158"/>
	<circle cx="321.359" cy="119.163" r="4" fill="#0" id="circle159"/>
	<circle cx="324.404" cy="852.449" r="4" fill="#0" id="circle160"/>
	<circle cx="331.509" cy="6.7228" r="4" fill="#0" id="circle161"/>
	<circle cx="333.539" cy="113.75" r="4" fill="#0" id="circle162"/>
	<circle cx="337.261" cy="845.586" r="4" fill="#0" id="circle163"/>
	<circle cx="344.027" cy="10.4767" r="4" fill="#0" id="circle164"/>
	<circle cx="350.117" cy="838.239" r="4" fill="#0" id="circle165"/>
	<circle cx="351.132" cy="100.555" r="4" fill="#0" id="circle166"/>
	<circle cx="356.884" cy="19.3701" r="4" fill="#0" id="circle167"/>
	<circle cx="358.237" cy="89.1156" r="4" fill="#0" id="circle168"/>
	<circle cx="361.959" cy="104.953" r="4" fill="#0" id="circle169"/>
	<circle cx="362.636" cy="830.683" r="4" fill="#0" id="circle170"/>
	<circle cx="364.666" cy="75.856" r="4" fill="#0" id="circle171"/>
	<circle cx="366.357" cy="32.6619" r="4" fill="#0" id="circle172"/>
	<circle cx="369.741" cy="60.7437" r="4" fill="#0" id="circle173"/>
	<circle cx="370.756" cy="47.2103" r="4" fill="#0" id="circle174"/>
	<circle cx="372.109" cy="106.757" r="4" fill="#0" id="circle175"/>
	<circle cx="375.492" cy="822.845" r="4" fill="#0" id="circle176"/>
	<circle cx="384.966" cy="109.802" r="4" fill="#0" id="circle177"/>
	<circle cx="388.011" cy="814.845" r="4" fill="#0" id="circle178"/>
	<circle cx="397.484" cy="113.089" r="4" fill="#0" id="circle179"/>
	<circle cx="400.868" cy="807.064" r="4" fill="#0" id="circle180"/>
	<circle cx="410.341" cy="116.327" r="4" fill="#0" id="circle181"/>
	<circle cx="413.724" cy="799.33" r="4" fill="#0" id="circle182"/>
	<circle cx="423.198" cy="119.711" r="4" fill="#0" id="circle183"/>
	<circle cx="426.581" cy="791.984" r="4" fill="#0" id="circle184"/>
	<circle cx="436.055" cy="123.191" r="4" fill="#0" id="circle185"/>
	<circle cx="439.1" cy="783.992" r="4" fill="#0" id="circle186"/>
	<circle cx="448.573" cy="126.832" r="4" fill="#0" id="circle187"/>
	<circle cx="451.956" cy="774.294" r="4" fill="#0" id="circle188"/>
	<circle cx="461.43" cy="130.779" r="4" fill="#0" id="circle189"/>
	<circle cx="464.475" cy="762.693" r="4" fill="#0" id="circle190"/>
	<circle cx="473.948" cy="134.743" r="4" fill="#0" id="circle191"/>
	<circle cx="477.332" cy="748.967" r="4" fill="#0" id="circle192"/>
	<circle cx="486.805" cy="138.899" r="4" fill="#0" id="circle193"/>
	<circle cx="489.512" cy="733.355" r="4" fill="#0" id="circle194"/>
	<circle cx="499.662" cy="143.298" r="4" fill="#0" id="circle195"/>
	<circle cx="500" cy="717.284" r="4" fill="#0" id="circle196"/>
	<circle cx="508.797" cy="700.931" r="4" fill="#0" id="circle197"/>
	<circle cx="512.518" cy="148.228" r="4" fill="#0" id="circle198"/>
	<circle cx="516.24" cy="684.409" r="4" fill="#0" id="circle199"/>
	<circle cx="521.653" cy="668.169" r="4" fill="#0" id="circle200"/>
	<circle cx="525.037" cy="153.673" r="4" fill="#0" id="circle201"/>
	<circle cx="526.052" cy="652.154" r="4" fill="#0" id="circle202"/>
	<circle cx="529.774" cy="635.689" r="4" fill="#0" id="circle203"/>
	<circle cx="533.495" cy="618.949" r="4" fill="#0" id="circle204"/>
	<circle cx="537.217" cy="601.46" r="4" fill="#0" id="circle205"/>
	<circle cx="537.894" cy="160.384" r="4" fill="#0" id="circle206"/>
	<circle cx="539.924" cy="584.487" r="4" fill="#0" id="circle207"/>
	<circle cx="541.954" cy="567.007" r="4" fill="#0" id="circle208"/>
	<circle cx="543.984" cy="555.898" r="4" fill="#0" id="circle209"/>
	<circle cx="545.337" cy="536.444" r="4" fill="#0" id="circle210"/>
	<circle cx="548.72" cy="510.11" r="4" fill="#0" id="circle211"/>
	<circle cx="550.412" cy="166.836" r="4" fill="#0" id="circle212"/>
	<circle cx="550.074" cy="493.08" r="4" fill="#0" id="circle213"/>
	<circle cx="551.427" cy="473.457" r="4" fill="#0" id="circle214"/>
	<circle cx="552.78" cy="455.13" r="4" fill="#0" id="circle215"/>
	<circle cx="557.517" cy="538.812" r="4" fill="#0" id="circle216"/>
	<circle cx="563.269" cy="169.639" r="4" fill="#0" id="circle217"/>
	<circle cx="570.374" cy="541.462" r="4" fill="#0" id="circle218"/>
	<circle cx="576.126" cy="169.156" r="4" fill="#0" id="circle219"/>
	<circle cx="582.892" cy="543.694" r="4" fill="#0" id="circle220"/>
	<circle cx="588.982" cy="166.643" r="4" fill="#0" id="circle221"/>
	<circle cx="595.749" cy="545.627" r="4" fill="#0" id="circle222"/>
	<circle cx="601.501" cy="162.357" r="4" fill="#0" id="circle223"/>
	<circle cx="608.606" cy="547.319" r="4" fill="#0" id="circle224"/>
	<circle cx="614.357" cy="157" r="4" fill="#0" id="circle225"/>
	<circle cx="621.462" cy="548.334" r="4" fill="#0" id="circle226"/>
	<circle cx="626.876" cy="150.741" r="4" fill="#0" id="circle227"/>
	<circle cx="633.981" cy="548.962" r="4" fill="#0" id="circle228"/>
	<circle cx="639.733" cy="143.684" r="4" fill="#0" id="circle229"/>
	<circle cx="646.838" cy="548.567" r="4" fill="#0" id="circle230"/>
	<circle cx="652.589" cy="136.579" r="4" fill="#0" id="circle231"/>
	<circle cx="659.356" cy="546.255" r="4" fill="#0" id="circle232"/>
	<circle cx="663.754" cy="673.921" r="4" fill="#0" id="circle233"/>
	<circle cx="665.108" cy="129.2" r="4" fill="#0" id="circle234"/>
	<circle cx="669.168" cy="700.254" r="4" fill="#0" id="circle235"/>
	<circle cx="672.213" cy="542.485" r="4" fill="#0" id="circle236"/>
	<circle cx="672.551" cy="651.083" r="4" fill="#0" id="circle237"/>
	<circle cx="677.965" cy="121.757" r="4" fill="#0" id="circle238"/>
	<circle cx="679.318" cy="712.829" r="4" fill="#0" id="circle239"/>
	<circle cx="685.07" cy="541.567" r="4" fill="#0" id="circle240"/>
	<circle cx="685.408" cy="643.978" r="4" fill="#0" id="circle241"/>
	<circle cx="690.483" cy="114.491" r="4" fill="#0" id="circle242"/>
	<circle cx="690.145" cy="564.356" r="4" fill="#0" id="circle243"/>
	<circle cx="691.836" cy="718.13" r="4" fill="#0" id="circle244"/>
	<circle cx="696.573" cy="582.022" r="4" fill="#0" id="circle245"/>
	<circle cx="697.588" cy="532.271" r="4" fill="#0" id="circle246"/>
	<circle cx="697.926" cy="638.911" r="4" fill="#0" id="circle247"/>
	<circle cx="703.34" cy="107.434" r="4" fill="#0" id="circle248"/>
	<circle cx="704.693" cy="719.193" r="4" fill="#0" id="circle249"/>
	<circle cx="706.385" cy="596.836" r="4" fill="#0" id="circle250"/>
	<circle cx="710.445" cy="526.575" r="4" fill="#0" id="circle251"/>
	<circle cx="710.445" cy="631.065" r="4" fill="#0" id="circle252"/>
	<circle cx="712.475" cy="803.39" r="4" fill="#0" id="circle253"/>
	<circle cx="715.52" cy="612.907" r="4" fill="#0" id="circle254"/>
	<circle cx="716.196" cy="100.619" r="4" fill="#0" id="circle255"/>
	<circle cx="717.55" cy="717.356" r="4" fill="#0" id="circle256"/>
	<circle cx="719.918" cy="777.113" r="4" fill="#0" id="circle257"/>
	<circle cx="720.933" cy="826.977" r="4" fill="#0" id="circle258"/>
	<circle cx="723.302" cy="520.373" r="4" fill="#0" id="circle259"/>
	<circle cx="724.655" cy="504.358" r="4" fill="#0" id="circle260"/>
	<circle cx="725.332" cy="477.742" r="4" fill="#0" id="circle261"/>
	<circle cx="729.053" cy="94.3356" r="4" fill="#0" id="circle262"/>
	<circle cx="728.715" cy="452.593" r="4" fill="#0" id="circle263"/>
	<circle cx="730.407" cy="532.384" r="4" fill="#0" id="circle264"/>
	<circle cx="730.068" cy="713.506" r="4" fill="#0" id="circle265"/>
	<circle cx="731.422" cy="764.482" r="4" fill="#0" id="circle266"/>
	<circle cx="732.437" cy="433.541" r="4" fill="#0" id="circle267"/>
	<circle cx="733.452" cy="839.592" r="4" fill="#0" id="circle268"/>
	<circle cx="736.158" cy="416.673" r="4" fill="#0" id="circle269"/>
	<circle cx="739.542" cy="399.812" r="4" fill="#0" id="circle270"/>
	<circle cx="741.572" cy="88.7128" r="4" fill="#0" id="circle271"/>
	<circle cx="741.572" cy="554.488" r="4" fill="#0" id="circle272"/>
	<circle cx="742.925" cy="707.811" r="4" fill="#0" id="circle273"/>
	<circle cx="743.94" cy="755.298" r="4" fill="#0" id="circle274"/>
	<circle cx="744.278" cy="382.726" r="4" fill="#0" id="circle275"/>
	<circle cx="745.97" cy="847.954" r="4" fill="#0" id="circle276"/>
	<circle cx="749.015" cy="365.133" r="4" fill="#0" id="circle277"/>
	<circle cx="752.398" cy="356.787" r="4" fill="#0" id="circle278"/>
	<circle cx="752.398" cy="570.615" r="4" fill="#0" id="circle279"/>
	<circle cx="754.428" cy="83.4122" r="4" fill="#0" id="circle280"/>
	<circle cx="755.443" cy="700.44" r="4" fill="#0" id="circle281"/>
	<circle cx="756.797" cy="747.517" r="4" fill="#0" id="circle282"/>
	<circle cx="758.827" cy="853.126" r="4" fill="#0" id="circle283"/>
	<circle cx="764.917" cy="586.372" r="4" fill="#0" id="circle284"/>
	<circle cx="767.285" cy="79.183" r="4" fill="#0" id="circle285"/>
	<circle cx="768.3" cy="691.305" r="4" fill="#0" id="circle286"/>
	<circle cx="769.653" cy="740.025" r="4" fill="#0" id="circle287"/>
	<circle cx="771.683" cy="855.929" r="4" fill="#0" id="circle288"/>
	<circle cx="777.774" cy="601.549" r="4" fill="#0" id="circle289"/>
	<circle cx="779.804" cy="75.5338" r="4" fill="#0" id="circle290"/>
	<circle cx="780.48" cy="677.433" r="4" fill="#0" id="circle291"/>
	<circle cx="782.51" cy="732.292" r="4" fill="#0" id="circle292"/>
	<circle cx="784.54" cy="856.557" r="4" fill="#0" id="circle293"/>
	<circle cx="790.63" cy="616.726" r="4" fill="#0" id="circle294"/>
	<circle cx="791.307" cy="660.999" r="4" fill="#0" id="circle295"/>
	<circle cx="792.66" cy="72.6338" r="4" fill="#0" id="circle296"/>
	<circle cx="795.029" cy="723.374" r="4" fill="#0" id="circle297"/>
	<circle cx="796.382" cy="624.467" r="4" fill="#0" id="circle298"/>
	<circle cx="797.059" cy="855.268" r="4" fill="#0" id="circle299"/>
	<circle cx="795.55" cy="644.803" r="4" fill="#0" id="circle300"/>
	<circle cx="803.825" cy="634.843" r="4" fill="#0" id="circle301"/>
	<circle cx="805.517" cy="70.9905" r="4" fill="#0" id="circle302"/>
	<circle cx="807.885" cy="711.25" r="4" fill="#0" id="circle303"/>
	<circle cx="809.915" cy="644.034" r="4" fill="#0" id="circle304"/>
	<circle cx="809.915" cy="852.28" r="4" fill="#0" id="circle305"/>
	<circle cx="815.329" cy="657.004" r="4" fill="#0" id="circle306"/>
	<circle cx="817.359" cy="693.995" r="4" fill="#0" id="circle307"/>
	<circle cx="818.035" cy="70.2171" r="4" fill="#0" id="circle308"/>
	<circle cx="818.035" cy="666.646" r="4" fill="#0" id="circle309"/>
	<circle cx="820.065" cy="679.729" r="4" fill="#0" id="circle310"/>
	<circle cx="822.434" cy="847.954" r="4" fill="#0" id="circle311"/>
	<circle cx="830.892" cy="70.5554" r="4" fill="#0" id="circle312"/>
	<circle cx="835.291" cy="841.961" r="4" fill="#0" id="circle313"/>
	<circle cx="843.411" cy="72.1021" r="4" fill="#0" id="circle314"/>
	<circle cx="848.147" cy="834.904" r="4" fill="#0" id="circle315"/>
	<circle cx="856.267" cy="75.0988" r="4" fill="#0" id="circle316"/>
	<circle cx="861.004" cy="826.397" r="4" fill="#0" id="circle317"/>
	<circle cx="869.124" cy="79.3038" r="4" fill="#0" id="circle318"/>
	<circle cx="873.523" cy="816.642" r="4" fill="#0" id="circle319"/>
	<circle cx="881.981" cy="85.0555" r="4" fill="#0" id="circle320"/>
	<circle cx="886.379" cy="805.477" r="4" fill="#0" id="circle321"/>
	<circle cx="894.499" cy="92.4909" r="4" fill="#0" id="circle322"/>
	<circle cx="898.898" cy="793.047" r="4" fill="#0" id="circle323"/>
	<circle cx="907.356" cy="101.288" r="4" fill="#0" id="circle324"/>
	<circle cx="911.754" cy="778.692" r="4" fill="#0" id="circle325"/>
	<circle cx="919.874" cy="112.122" r="4" fill="#0" id="circle326"/>
	<circle cx="924.273" cy="763.016" r="4" fill="#0" id="circle327"/>
	<circle cx="932.731" cy="125.849" r="4" fill="#0" id="circle328"/>
	<circle cx="935.1" cy="747.001" r="4" fill="#0" id="circle329"/>
	<circle cx="941.866" cy="547.947" r="4" fill="#0" id="circle330"/>
	<circle cx="942.543" cy="573.097" r="4" fill="#0" id="circle331"/>
	<circle cx="943.22" cy="523.474" r="4" fill="#0" id="circle332"/>
	<circle cx="943.558" cy="730.552" r="4" fill="#0" id="circle333"/>
	<circle cx="943.896" cy="591.818" r="4" fill="#0" id="circle334"/>
	<circle cx="944.573" cy="141.437" r="4" fill="#0" id="circle335"/>
	<circle cx="945.25" cy="507.065" r="4" fill="#0" id="circle336"/>
	<circle cx="946.603" cy="610.934" r="4" fill="#0" id="circle337"/>
	<circle cx="948.633" cy="489.753" r="4" fill="#0" id="circle338"/>
	<circle cx="948.633" cy="628.358" r="4" fill="#0" id="circle339"/>
	<circle cx="949.31" cy="713.393" r="4" fill="#0" id="circle340"/>
	<circle cx="950.663" cy="645.782" r="4" fill="#0" id="circle341"/>
	<circle cx="952.355" cy="697.491" r="4" fill="#0" id="circle342"/>
	<circle cx="952.693" cy="473.513" r="4" fill="#0" id="circle343"/>
	<circle cx="952.693" cy="664.673" r="4" fill="#0" id="circle344"/>
	<circle cx="953.37" cy="681.477" r="4" fill="#0" id="circle345"/>
	<circle cx="955.061" cy="157.846" r="4" fill="#0" id="circle346"/>
	<circle cx="957.43" cy="456.991" r="4" fill="#0" id="circle347"/>
	<circle cx="962.843" cy="440.525" r="4" fill="#0" id="circle348"/>
	<circle cx="963.858" cy="174.376" r="4" fill="#0" id="circle349"/>
	<circle cx="968.256" cy="424.229" r="4" fill="#0" id="circle350"/>
	<circle cx="971.64" cy="191.341" r="4" fill="#0" id="circle351"/>
	<circle cx="973.67" cy="408.045" r="4" fill="#0" id="circle352"/>
	<circle cx="977.73" cy="207.525" r="4" fill="#0" id="circle353"/>
	<circle cx="978.407" cy="392.087" r="4" fill="#0" id="circle354"/>
	<circle cx="983.143" cy="223.934" r="4" fill="#0" id="circle355"/>
	<circle cx="983.82" cy="375.339" r="4" fill="#0" id="circle356"/>
	<circle cx="987.88" cy="240.738" r="4" fill="#0" id="circle357"/>
	<circle cx="987.88" cy="358.197" r="4" fill="#0" id="circle358"/>
	<circle cx="991.263" cy="257.542" r="4" fill="#0" id="circle359"/>
	<circle cx="991.94" cy="340.547" r="4" fill="#0" id="circle360"/>
	<circle cx="993.97" cy="276.263" r="4" fill="#0" id="circle361"/>
	<circle cx="994.647" cy="322.39" r="4" fill="#0" id="circle362"/>
	<circle cx="996" cy="293.801" r="4" fill="#0" id="circle363"/>
	<circle cx="996" cy="309.138" r="4" fill="#0" id="circle364"/>
	</g>
</svg>