<?xml version="1.0" encoding="UTF-8" standalone="no"?>
<!-- Created with CurveBenchmark -->
<svg
	xmlns:dc="http://purl.org/dc/elements/1.1/"
	xmlns:cc="http://creativecommons.org/ns#"
	xmlns:rdf="http://www.w3.org/1999/02/22-rdf-syntax-ns#"
	xmlns:svg="http://www.w3.org/2000/svg"
	xmlns="http://www.w3.org/2000/svg"
	xmlns:sodipodi="http://sodipodi.sourceforge.net/DTD/sodipodi-0.dtd"
	xmlns:inkscape="http://www.inkscape.org/namespaces/inkscape"
	width="1000"
	height="1000"
	id="svg2"
	version="1.1"
	sodipodi:docname="multiple-curves/crawl-mc12.txt">
<defs
	id="defs4" />
<metadata
	id="metadata7">
	<rdf:RDF>
		<cc:Work
			rdf:about="">
			<dc:format>image/svg+xml</dc:format>
			<dc:type
				rdf:resource="http://purl.org/dc/dcmitype/StillImage" />
			<dc:title></dc:title>
		</cc:Work>
	</rdf:RDF>
</metadata>
<g
	inkscape:label="Layer 1"
	inkscape:groupmode="layer"
	id="layer1">
	<path style="fill:none;stroke:red;stroke-width:1px;stroke-linecap:butt;stroke-linejoin:miter;stroke-opacity:1" d="M 623.137,90.3109 610.478,90.3109 z" id="boundary" inkscape:connector-curvature="0" />
	<path style="fill:none;stroke:red;stroke-width:1px;stroke-linecap:butt;stroke-linejoin:miter;stroke-opacity:1" d="M 610.478,90.3109 589.763,91.4617 z" id="boundary" inkscape:connector-curvature="0" />
	<path style="fill:none;stroke:red;stroke-width:1px;stroke-linecap:butt;stroke-linejoin:miter;stroke-opacity:1" d="M 589.763,91.4617 569.049,90.3109 z" id="boundary" inkscape:connector-curvature="0" />
	<path style="fill:none;stroke:red;stroke-width:1px;stroke-linecap:butt;stroke-linejoin:miter;stroke-opacity:1" d="M 569.049,90.3109 548.334,90.3109 z" id="boundary" inkscape:connector-curvature="0" />
	<path style="fill:none;stroke:red;stroke-width:1px;stroke-linecap:butt;stroke-linejoin:miter;stroke-opacity:1" d="M 548.334,90.3109 547.183,73.0487 z" id="boundary" inkscape:connector-curvature="0" />
	<path style="fill:none;stroke:red;stroke-width:1px;stroke-linecap:butt;stroke-linejoin:miter;stroke-opacity:1" d="M 547.183,73.0487 547.183,54.6357 z" id="boundary" inkscape:connector-curvature="0" />
	<path style="fill:none;stroke:red;stroke-width:1px;stroke-linecap:butt;stroke-linejoin:miter;stroke-opacity:1" d="M 547.183,54.6357 543.731,33.9211 z" id="boundary" inkscape:connector-curvature="0" />
	<path style="fill:none;stroke:red;stroke-width:1px;stroke-linecap:butt;stroke-linejoin:miter;stroke-opacity:1" d="M 623.137,90.3109 619.684,67.2947 z" id="boundary" inkscape:connector-curvature="0" />
	<path style="fill:none;stroke:red;stroke-width:1px;stroke-linecap:butt;stroke-linejoin:miter;stroke-opacity:1" d="M 619.684,67.2947 619.684,51.1833 z" id="boundary" inkscape:connector-curvature="0" />
	<path style="fill:none;stroke:red;stroke-width:1px;stroke-linecap:butt;stroke-linejoin:miter;stroke-opacity:1" d="M 619.684,51.1833 621.986,33.9211 z" id="boundary" inkscape:connector-curvature="0" />
	<path style="fill:none;stroke:red;stroke-width:1px;stroke-linecap:butt;stroke-linejoin:miter;stroke-opacity:1" d="M 621.986,33.9211 636.947,18.9606 z" id="boundary" inkscape:connector-curvature="0" />
	<path style="fill:none;stroke:red;stroke-width:1px;stroke-linecap:butt;stroke-linejoin:miter;stroke-opacity:1" d="M 636.947,18.9606 655.36,4 z" id="boundary" inkscape:connector-curvature="0" />
	<path style="fill:none;stroke:red;stroke-width:1px;stroke-linecap:butt;stroke-linejoin:miter;stroke-opacity:1" d="M 655.36,4 677.225,6.30162 z" id="boundary" inkscape:connector-curvature="0" />
	<path style="fill:none;stroke:red;stroke-width:1px;stroke-linecap:butt;stroke-linejoin:miter;stroke-opacity:1" d="M 677.225,6.30162 697.94,16.6589 z" id="boundary" inkscape:connector-curvature="0" />
	<path style="fill:none;stroke:red;stroke-width:1px;stroke-linecap:butt;stroke-linejoin:miter;stroke-opacity:1" d="M 697.94,16.6589 709.448,39.6752 z" id="boundary" inkscape:connector-curvature="0" />
	<path style="fill:none;stroke:red;stroke-width:1px;stroke-linecap:butt;stroke-linejoin:miter;stroke-opacity:1" d="M 709.448,39.6752 722.107,61.5406 z" id="boundary" inkscape:connector-curvature="0" />
	<path style="fill:none;stroke:red;stroke-width:1px;stroke-linecap:butt;stroke-linejoin:miter;stroke-opacity:1" d="M 543.731,33.9211 517.262,33.9211 z" id="boundary" inkscape:connector-curvature="0" />
	<path style="fill:none;stroke:red;stroke-width:1px;stroke-linecap:butt;stroke-linejoin:miter;stroke-opacity:1" d="M 517.262,33.9211 496.548,33.9211 z" id="boundary" inkscape:connector-curvature="0" />
	<path style="fill:none;stroke:red;stroke-width:1px;stroke-linecap:butt;stroke-linejoin:miter;stroke-opacity:1" d="M 496.548,33.9211 496.548,60.3898 z" id="boundary" inkscape:connector-curvature="0" />
	<path style="fill:none;stroke:red;stroke-width:1px;stroke-linecap:butt;stroke-linejoin:miter;stroke-opacity:1" d="M 722.107,61.5406 734.766,85.7077 z" id="boundary" inkscape:connector-curvature="0" />
	<path style="fill:none;stroke:red;stroke-width:1px;stroke-linecap:butt;stroke-linejoin:miter;stroke-opacity:1" d="M 496.548,60.3898 468.928,61.5406 z" id="boundary" inkscape:connector-curvature="0" />
	<path style="fill:none;stroke:red;stroke-width:1px;stroke-linecap:butt;stroke-linejoin:miter;stroke-opacity:1" d="M 468.928,61.5406 439.007,60.3898 z" id="boundary" inkscape:connector-curvature="0" />
	<path style="fill:none;stroke:red;stroke-width:1px;stroke-linecap:butt;stroke-linejoin:miter;stroke-opacity:1" d="M 439.007,60.3898 410.237,61.5406 z" id="boundary" inkscape:connector-curvature="0" />
	<path style="fill:none;stroke:red;stroke-width:1px;stroke-linecap:butt;stroke-linejoin:miter;stroke-opacity:1" d="M 410.237,61.5406 386.07,61.5406 z" id="boundary" inkscape:connector-curvature="0" />
	<path style="fill:none;stroke:red;stroke-width:1px;stroke-linecap:butt;stroke-linejoin:miter;stroke-opacity:1" d="M 386.07,61.5406 360.752,61.5406 z" id="boundary" inkscape:connector-curvature="0" />
	<path style="fill:none;stroke:red;stroke-width:1px;stroke-linecap:butt;stroke-linejoin:miter;stroke-opacity:1" d="M 360.752,61.5406 358.45,36.2227 z" id="boundary" inkscape:connector-curvature="0" />
	<path style="fill:none;stroke:red;stroke-width:1px;stroke-linecap:butt;stroke-linejoin:miter;stroke-opacity:1" d="M 358.45,36.2227 334.283,36.2227 z" id="boundary" inkscape:connector-curvature="0" />
	<path style="fill:none;stroke:red;stroke-width:1px;stroke-linecap:butt;stroke-linejoin:miter;stroke-opacity:1" d="M 334.283,36.2227 310.116,39.6752 z" id="boundary" inkscape:connector-curvature="0" />
	<path style="fill:none;stroke:red;stroke-width:1px;stroke-linecap:butt;stroke-linejoin:miter;stroke-opacity:1" d="M 310.116,39.6752 310.116,64.993 z" id="boundary" inkscape:connector-curvature="0" />
	<path style="fill:none;stroke:red;stroke-width:1px;stroke-linecap:butt;stroke-linejoin:miter;stroke-opacity:1" d="M 310.116,64.993 310.116,90.3109 z" id="boundary" inkscape:connector-curvature="0" />
	<path style="fill:none;stroke:red;stroke-width:1px;stroke-linecap:butt;stroke-linejoin:miter;stroke-opacity:1" d="M 310.116,90.3109 285.949,88.0093 z" id="boundary" inkscape:connector-curvature="0" />
	<path style="fill:none;stroke:red;stroke-width:1px;stroke-linecap:butt;stroke-linejoin:miter;stroke-opacity:1" d="M 285.949,88.0093 261.782,90.3109 z" id="boundary" inkscape:connector-curvature="0" />
	<path style="fill:none;stroke:red;stroke-width:1px;stroke-linecap:butt;stroke-linejoin:miter;stroke-opacity:1" d="M 261.782,90.3109 235.313,90.3109 z" id="boundary" inkscape:connector-curvature="0" />
	<path style="fill:none;stroke:red;stroke-width:1px;stroke-linecap:butt;stroke-linejoin:miter;stroke-opacity:1" d="M 235.313,90.3109 233.012,60.3898 z" id="boundary" inkscape:connector-curvature="0" />
	<path style="fill:none;stroke:red;stroke-width:1px;stroke-linecap:butt;stroke-linejoin:miter;stroke-opacity:1" d="M 233.012,60.3898 235.313,36.2227 z" id="boundary" inkscape:connector-curvature="0" />
	<path style="fill:none;stroke:red;stroke-width:1px;stroke-linecap:butt;stroke-linejoin:miter;stroke-opacity:1" d="M 235.313,36.2227 222.654,22.413 z" id="boundary" inkscape:connector-curvature="0" />
	<path style="fill:none;stroke:red;stroke-width:1px;stroke-linecap:butt;stroke-linejoin:miter;stroke-opacity:1" d="M 222.654,22.413 207.694,9.75406 z" id="boundary" inkscape:connector-curvature="0" />
	<path style="fill:none;stroke:red;stroke-width:1px;stroke-linecap:butt;stroke-linejoin:miter;stroke-opacity:1" d="M 207.694,9.75406 177.773,6.30162 z" id="boundary" inkscape:connector-curvature="0" />
	<path style="fill:none;stroke:red;stroke-width:1px;stroke-linecap:butt;stroke-linejoin:miter;stroke-opacity:1" d="M 177.773,6.30162 160.51,22.413 z" id="boundary" inkscape:connector-curvature="0" />
	<path style="fill:none;stroke:red;stroke-width:1px;stroke-linecap:butt;stroke-linejoin:miter;stroke-opacity:1" d="M 160.51,22.413 147.852,43.1276 z" id="boundary" inkscape:connector-curvature="0" />
	<path style="fill:none;stroke:red;stroke-width:1px;stroke-linecap:butt;stroke-linejoin:miter;stroke-opacity:1" d="M 147.852,43.1276 135.193,63.8422 z" id="boundary" inkscape:connector-curvature="0" />
	<path style="fill:none;stroke:red;stroke-width:1px;stroke-linecap:butt;stroke-linejoin:miter;stroke-opacity:1" d="M 135.193,63.8422 121.383,85.7077 z" id="boundary" inkscape:connector-curvature="0" />
	<path style="fill:none;stroke:red;stroke-width:1px;stroke-linecap:butt;stroke-linejoin:miter;stroke-opacity:1" d="M 121.383,85.7077 109.875,106.422 z" id="boundary" inkscape:connector-curvature="0" />
	<path style="fill:none;stroke:red;stroke-width:1px;stroke-linecap:butt;stroke-linejoin:miter;stroke-opacity:1" d="M 109.875,106.422 99.5174,121.383 z" id="boundary" inkscape:connector-curvature="0" />
	<path style="fill:none;stroke:red;stroke-width:1px;stroke-linecap:butt;stroke-linejoin:miter;stroke-opacity:1" d="M 99.5174,121.383 100.668,139.796 z" id="boundary" inkscape:connector-curvature="0" />
	<path style="fill:none;stroke:red;stroke-width:1px;stroke-linecap:butt;stroke-linejoin:miter;stroke-opacity:1" d="M 100.668,139.796 100.668,160.51 z" id="boundary" inkscape:connector-curvature="0" />
	<path style="fill:none;stroke:red;stroke-width:1px;stroke-linecap:butt;stroke-linejoin:miter;stroke-opacity:1" d="M 100.668,160.51 100.668,177.773 z" id="boundary" inkscape:connector-curvature="0" />
	<path style="fill:none;stroke:red;stroke-width:1px;stroke-linecap:butt;stroke-linejoin:miter;stroke-opacity:1" d="M 100.668,177.773 100.668,201.94 z" id="boundary" inkscape:connector-curvature="0" />
	<path style="fill:none;stroke:red;stroke-width:1px;stroke-linecap:butt;stroke-linejoin:miter;stroke-opacity:1" d="M 100.668,201.94 100.668,222.654 z" id="boundary" inkscape:connector-curvature="0" />
	<path style="fill:none;stroke:red;stroke-width:1px;stroke-linecap:butt;stroke-linejoin:miter;stroke-opacity:1" d="M 100.668,222.654 102.97,242.218 z" id="boundary" inkscape:connector-curvature="0" />
	<path style="fill:none;stroke:red;stroke-width:1px;stroke-linecap:butt;stroke-linejoin:miter;stroke-opacity:1" d="M 102.97,242.218 114.478,257.179 z" id="boundary" inkscape:connector-curvature="0" />
	<path style="fill:none;stroke:red;stroke-width:1px;stroke-linecap:butt;stroke-linejoin:miter;stroke-opacity:1" d="M 114.478,257.179 123.684,270.988 z" id="boundary" inkscape:connector-curvature="0" />
	<path style="fill:none;stroke:red;stroke-width:1px;stroke-linecap:butt;stroke-linejoin:miter;stroke-opacity:1" d="M 123.684,270.988 120.232,289.401 z" id="boundary" inkscape:connector-curvature="0" />
	<path style="fill:none;stroke:red;stroke-width:1px;stroke-linecap:butt;stroke-linejoin:miter;stroke-opacity:1" d="M 120.232,289.401 114.478,311.267 z" id="boundary" inkscape:connector-curvature="0" />
	<path style="fill:none;stroke:red;stroke-width:1px;stroke-linecap:butt;stroke-linejoin:miter;stroke-opacity:1" d="M 114.478,311.267 108.724,336.585 z" id="boundary" inkscape:connector-curvature="0" />
	<path style="fill:none;stroke:red;stroke-width:1px;stroke-linecap:butt;stroke-linejoin:miter;stroke-opacity:1" d="M 108.724,336.585 105.271,367.657 z" id="boundary" inkscape:connector-curvature="0" />
	<path style="fill:none;stroke:red;stroke-width:1px;stroke-linecap:butt;stroke-linejoin:miter;stroke-opacity:1" d="M 105.271,367.657 105.271,399.879 z" id="boundary" inkscape:connector-curvature="0" />
	<path style="fill:none;stroke:red;stroke-width:1px;stroke-linecap:butt;stroke-linejoin:miter;stroke-opacity:1" d="M 105.271,399.879 105.271,424.046 z" id="boundary" inkscape:connector-curvature="0" />
	<path style="fill:none;stroke:red;stroke-width:1px;stroke-linecap:butt;stroke-linejoin:miter;stroke-opacity:1" d="M 105.271,424.046 102.97,448.213 z" id="boundary" inkscape:connector-curvature="0" />
	<path style="fill:none;stroke:red;stroke-width:1px;stroke-linecap:butt;stroke-linejoin:miter;stroke-opacity:1" d="M 102.97,448.213 105.271,470.079 z" id="boundary" inkscape:connector-curvature="0" />
	<path style="fill:none;stroke:red;stroke-width:1px;stroke-linecap:butt;stroke-linejoin:miter;stroke-opacity:1" d="M 105.271,470.079 105.271,498.849 z" id="boundary" inkscape:connector-curvature="0" />
	<path style="fill:none;stroke:red;stroke-width:1px;stroke-linecap:butt;stroke-linejoin:miter;stroke-opacity:1" d="M 105.271,498.849 102.97,526.469 z" id="boundary" inkscape:connector-curvature="0" />
	<path style="fill:none;stroke:red;stroke-width:1px;stroke-linecap:butt;stroke-linejoin:miter;stroke-opacity:1" d="M 102.97,526.469 105.271,552.937 z" id="boundary" inkscape:connector-curvature="0" />
	<path style="fill:none;stroke:red;stroke-width:1px;stroke-linecap:butt;stroke-linejoin:miter;stroke-opacity:1" d="M 105.271,552.937 106.422,580.557 z" id="boundary" inkscape:connector-curvature="0" />
	<path style="fill:none;stroke:red;stroke-width:1px;stroke-linecap:butt;stroke-linejoin:miter;stroke-opacity:1" d="M 106.422,580.557 105.271,604.724 z" id="boundary" inkscape:connector-curvature="0" />
	<path style="fill:none;stroke:red;stroke-width:1px;stroke-linecap:butt;stroke-linejoin:miter;stroke-opacity:1" d="M 105.271,604.724 105.271,634.645 z" id="boundary" inkscape:connector-curvature="0" />
	<path style="fill:none;stroke:red;stroke-width:1px;stroke-linecap:butt;stroke-linejoin:miter;stroke-opacity:1" d="M 105.271,634.645 106.422,661.114 z" id="boundary" inkscape:connector-curvature="0" />
	<path style="fill:none;stroke:red;stroke-width:1px;stroke-linecap:butt;stroke-linejoin:miter;stroke-opacity:1" d="M 106.422,661.114 82.2552,661.114 z" id="boundary" inkscape:connector-curvature="0" />
	<path style="fill:none;stroke:red;stroke-width:1px;stroke-linecap:butt;stroke-linejoin:miter;stroke-opacity:1" d="M 82.2552,661.114 58.0882,662.265 z" id="boundary" inkscape:connector-curvature="0" />
	<path style="fill:none;stroke:red;stroke-width:1px;stroke-linecap:butt;stroke-linejoin:miter;stroke-opacity:1" d="M 58.0882,662.265 43.1276,670.32 z" id="boundary" inkscape:connector-curvature="0" />
	<path style="fill:none;stroke:red;stroke-width:1px;stroke-linecap:butt;stroke-linejoin:miter;stroke-opacity:1" d="M 43.1276,670.32 28.1671,682.979 z" id="boundary" inkscape:connector-curvature="0" />
	<path style="fill:none;stroke:red;stroke-width:1px;stroke-linecap:butt;stroke-linejoin:miter;stroke-opacity:1" d="M 28.1671,682.979 13.2065,700.241 z" id="boundary" inkscape:connector-curvature="0" />
	<path style="fill:none;stroke:red;stroke-width:1px;stroke-linecap:butt;stroke-linejoin:miter;stroke-opacity:1" d="M 13.2065,700.241 6.30162,724.408 z" id="boundary" inkscape:connector-curvature="0" />
	<path style="fill:none;stroke:red;stroke-width:1px;stroke-linecap:butt;stroke-linejoin:miter;stroke-opacity:1" d="M 6.30162,724.408 7.45244,748.575 z" id="boundary" inkscape:connector-curvature="0" />
	<path style="fill:none;stroke:red;stroke-width:1px;stroke-linecap:butt;stroke-linejoin:miter;stroke-opacity:1" d="M 7.45244,748.575 7.45244,773.893 z" id="boundary" inkscape:connector-curvature="0" />
	<path style="fill:none;stroke:red;stroke-width:1px;stroke-linecap:butt;stroke-linejoin:miter;stroke-opacity:1" d="M 7.45244,773.893 7.45244,796.91 z" id="boundary" inkscape:connector-curvature="0" />
	<path style="fill:none;stroke:red;stroke-width:1px;stroke-linecap:butt;stroke-linejoin:miter;stroke-opacity:1" d="M 7.45244,796.91 6.30162,815.323 z" id="boundary" inkscape:connector-curvature="0" />
	<path style="fill:none;stroke:red;stroke-width:1px;stroke-linecap:butt;stroke-linejoin:miter;stroke-opacity:1" d="M 6.30162,815.323 6.30162,838.339 z" id="boundary" inkscape:connector-curvature="0" />
	<path style="fill:none;stroke:red;stroke-width:1px;stroke-linecap:butt;stroke-linejoin:miter;stroke-opacity:1" d="M 6.30162,838.339 6.30162,862.506 z" id="boundary" inkscape:connector-curvature="0" />
	<path style="fill:none;stroke:red;stroke-width:1px;stroke-linecap:butt;stroke-linejoin:miter;stroke-opacity:1" d="M 6.30162,862.506 6.30162,884.371 z" id="boundary" inkscape:connector-curvature="0" />
	<path style="fill:none;stroke:red;stroke-width:1px;stroke-linecap:butt;stroke-linejoin:miter;stroke-opacity:1" d="M 6.30162,884.371 7.45244,905.086 z" id="boundary" inkscape:connector-curvature="0" />
	<path style="fill:none;stroke:red;stroke-width:1px;stroke-linecap:butt;stroke-linejoin:miter;stroke-opacity:1" d="M 7.45244,905.086 4,926.951 z" id="boundary" inkscape:connector-curvature="0" />
	<path style="fill:none;stroke:red;stroke-width:1px;stroke-linecap:butt;stroke-linejoin:miter;stroke-opacity:1" d="M 4,926.951 4,951.118 z" id="boundary" inkscape:connector-curvature="0" />
	<path style="fill:none;stroke:red;stroke-width:1px;stroke-linecap:butt;stroke-linejoin:miter;stroke-opacity:1" d="M 4,951.118 12.0557,976.436 z" id="boundary" inkscape:connector-curvature="0" />
	<path style="fill:none;stroke:red;stroke-width:1px;stroke-linecap:butt;stroke-linejoin:miter;stroke-opacity:1" d="M 12.0557,976.436 24.7146,996 z" id="boundary" inkscape:connector-curvature="0" />
	<path style="fill:none;stroke:red;stroke-width:1px;stroke-linecap:butt;stroke-linejoin:miter;stroke-opacity:1" d="M 24.7146,996 45.4292,996 z" id="boundary" inkscape:connector-curvature="0" />
	<path style="fill:none;stroke:red;stroke-width:1px;stroke-linecap:butt;stroke-linejoin:miter;stroke-opacity:1" d="M 45.4292,996 73.0487,996 z" id="boundary" inkscape:connector-curvature="0" />
	<path style="fill:none;stroke:red;stroke-width:1px;stroke-linecap:butt;stroke-linejoin:miter;stroke-opacity:1" d="M 73.0487,996 97.2158,996 z" id="boundary" inkscape:connector-curvature="0" />
	<path style="fill:none;stroke:red;stroke-width:1px;stroke-linecap:butt;stroke-linejoin:miter;stroke-opacity:1" d="M 97.2158,996 123.684,994.849 z" id="boundary" inkscape:connector-curvature="0" />
	<path style="fill:none;stroke:red;stroke-width:1px;stroke-linecap:butt;stroke-linejoin:miter;stroke-opacity:1" d="M 123.684,994.849 149.002,994.849 z" id="boundary" inkscape:connector-curvature="0" />
	<path style="fill:none;stroke:red;stroke-width:1px;stroke-linecap:butt;stroke-linejoin:miter;stroke-opacity:1" d="M 149.002,994.849 177.773,994.849 z" id="boundary" inkscape:connector-curvature="0" />
	<path style="fill:none;stroke:red;stroke-width:1px;stroke-linecap:butt;stroke-linejoin:miter;stroke-opacity:1" d="M 177.773,994.849 201.94,994.849 z" id="boundary" inkscape:connector-curvature="0" />
	<path style="fill:none;stroke:red;stroke-width:1px;stroke-linecap:butt;stroke-linejoin:miter;stroke-opacity:1" d="M 201.94,994.849 226.107,994.849 z" id="boundary" inkscape:connector-curvature="0" />
	<path style="fill:none;stroke:red;stroke-width:1px;stroke-linecap:butt;stroke-linejoin:miter;stroke-opacity:1" d="M 226.107,994.849 252.575,992.548 z" id="boundary" inkscape:connector-curvature="0" />
	<path style="fill:none;stroke:red;stroke-width:1px;stroke-linecap:butt;stroke-linejoin:miter;stroke-opacity:1" d="M 252.575,992.548 276.742,992.548 z" id="boundary" inkscape:connector-curvature="0" />
	<path style="fill:none;stroke:red;stroke-width:1px;stroke-linecap:butt;stroke-linejoin:miter;stroke-opacity:1" d="M 276.742,992.548 300.91,992.548 z" id="boundary" inkscape:connector-curvature="0" />
	<path style="fill:none;stroke:red;stroke-width:1px;stroke-linecap:butt;stroke-linejoin:miter;stroke-opacity:1" d="M 300.91,992.548 322.775,992.548 z" id="boundary" inkscape:connector-curvature="0" />
	<path style="fill:none;stroke:red;stroke-width:1px;stroke-linecap:butt;stroke-linejoin:miter;stroke-opacity:1" d="M 322.775,992.548 349.244,992.548 z" id="boundary" inkscape:connector-curvature="0" />
	<path style="fill:none;stroke:red;stroke-width:1px;stroke-linecap:butt;stroke-linejoin:miter;stroke-opacity:1" d="M 349.244,992.548 375.712,994.849 z" id="boundary" inkscape:connector-curvature="0" />
	<path style="fill:none;stroke:red;stroke-width:1px;stroke-linecap:butt;stroke-linejoin:miter;stroke-opacity:1" d="M 375.712,994.849 405.633,996 z" id="boundary" inkscape:connector-curvature="0" />
	<path style="fill:none;stroke:red;stroke-width:1px;stroke-linecap:butt;stroke-linejoin:miter;stroke-opacity:1" d="M 405.633,996 429.8,994.849 z" id="boundary" inkscape:connector-curvature="0" />
	<path style="fill:none;stroke:red;stroke-width:1px;stroke-linecap:butt;stroke-linejoin:miter;stroke-opacity:1" d="M 429.8,994.849 453.968,994.849 z" id="boundary" inkscape:connector-curvature="0" />
	<path style="fill:none;stroke:red;stroke-width:1px;stroke-linecap:butt;stroke-linejoin:miter;stroke-opacity:1" d="M 453.968,994.849 479.285,992.548 z" id="boundary" inkscape:connector-curvature="0" />
	<path style="fill:none;stroke:red;stroke-width:1px;stroke-linecap:butt;stroke-linejoin:miter;stroke-opacity:1" d="M 479.285,992.548 508.056,996 z" id="boundary" inkscape:connector-curvature="0" />
	<path style="fill:none;stroke:red;stroke-width:1px;stroke-linecap:butt;stroke-linejoin:miter;stroke-opacity:1" d="M 508.056,996 535.675,994.849 z" id="boundary" inkscape:connector-curvature="0" />
	<path style="fill:none;stroke:red;stroke-width:1px;stroke-linecap:butt;stroke-linejoin:miter;stroke-opacity:1" d="M 535.675,994.849 565.596,992.548 z" id="boundary" inkscape:connector-curvature="0" />
	<path style="fill:none;stroke:red;stroke-width:1px;stroke-linecap:butt;stroke-linejoin:miter;stroke-opacity:1" d="M 565.596,992.548 593.216,992.548 z" id="boundary" inkscape:connector-curvature="0" />
	<path style="fill:none;stroke:red;stroke-width:1px;stroke-linecap:butt;stroke-linejoin:miter;stroke-opacity:1" d="M 593.216,992.548 623.137,991.397 z" id="boundary" inkscape:connector-curvature="0" />
	<path style="fill:none;stroke:red;stroke-width:1px;stroke-linecap:butt;stroke-linejoin:miter;stroke-opacity:1" d="M 623.137,991.397 647.304,991.397 z" id="boundary" inkscape:connector-curvature="0" />
	<path style="fill:none;stroke:red;stroke-width:1px;stroke-linecap:butt;stroke-linejoin:miter;stroke-opacity:1" d="M 647.304,991.397 676.074,991.397 z" id="boundary" inkscape:connector-curvature="0" />
	<path style="fill:none;stroke:red;stroke-width:1px;stroke-linecap:butt;stroke-linejoin:miter;stroke-opacity:1" d="M 676.074,991.397 701.392,991.397 z" id="boundary" inkscape:connector-curvature="0" />
	<path style="fill:none;stroke:red;stroke-width:1px;stroke-linecap:butt;stroke-linejoin:miter;stroke-opacity:1" d="M 701.392,991.397 727.861,991.397 z" id="boundary" inkscape:connector-curvature="0" />
	<path style="fill:none;stroke:red;stroke-width:1px;stroke-linecap:butt;stroke-linejoin:miter;stroke-opacity:1" d="M 727.861,991.397 755.48,991.397 z" id="boundary" inkscape:connector-curvature="0" />
	<path style="fill:none;stroke:red;stroke-width:1px;stroke-linecap:butt;stroke-linejoin:miter;stroke-opacity:1" d="M 755.48,991.397 778.497,991.397 z" id="boundary" inkscape:connector-curvature="0" />
	<path style="fill:none;stroke:red;stroke-width:1px;stroke-linecap:butt;stroke-linejoin:miter;stroke-opacity:1" d="M 778.497,991.397 800.362,991.397 z" id="boundary" inkscape:connector-curvature="0" />
	<path style="fill:none;stroke:red;stroke-width:1px;stroke-linecap:butt;stroke-linejoin:miter;stroke-opacity:1" d="M 800.362,991.397 826.831,991.397 z" id="boundary" inkscape:connector-curvature="0" />
	<path style="fill:none;stroke:red;stroke-width:1px;stroke-linecap:butt;stroke-linejoin:miter;stroke-opacity:1" d="M 826.831,991.397 848.696,985.643 z" id="boundary" inkscape:connector-curvature="0" />
	<path style="fill:none;stroke:red;stroke-width:1px;stroke-linecap:butt;stroke-linejoin:miter;stroke-opacity:1" d="M 848.696,985.643 857.903,959.174 z" id="boundary" inkscape:connector-curvature="0" />
	<path style="fill:none;stroke:red;stroke-width:1px;stroke-linecap:butt;stroke-linejoin:miter;stroke-opacity:1" d="M 857.903,959.174 862.506,925.8 z" id="boundary" inkscape:connector-curvature="0" />
	<path style="fill:none;stroke:red;stroke-width:1px;stroke-linecap:butt;stroke-linejoin:miter;stroke-opacity:1" d="M 862.506,925.8 857.903,892.427 z" id="boundary" inkscape:connector-curvature="0" />
	<path style="fill:none;stroke:red;stroke-width:1px;stroke-linecap:butt;stroke-linejoin:miter;stroke-opacity:1" d="M 857.903,892.427 860.204,863.657 z" id="boundary" inkscape:connector-curvature="0" />
	<path style="fill:none;stroke:red;stroke-width:1px;stroke-linecap:butt;stroke-linejoin:miter;stroke-opacity:1" d="M 860.204,863.657 857.903,841.791 z" id="boundary" inkscape:connector-curvature="0" />
	<path style="fill:none;stroke:red;stroke-width:1px;stroke-linecap:butt;stroke-linejoin:miter;stroke-opacity:1" d="M 857.903,841.791 860.204,818.775 z" id="boundary" inkscape:connector-curvature="0" />
	<path style="fill:none;stroke:red;stroke-width:1px;stroke-linecap:butt;stroke-linejoin:miter;stroke-opacity:1" d="M 860.204,818.775 857.903,793.457 z" id="boundary" inkscape:connector-curvature="0" />
	<path style="fill:none;stroke:red;stroke-width:1px;stroke-linecap:butt;stroke-linejoin:miter;stroke-opacity:1" d="M 857.903,793.457 857.903,772.742 z" id="boundary" inkscape:connector-curvature="0" />
	<path style="fill:none;stroke:red;stroke-width:1px;stroke-linecap:butt;stroke-linejoin:miter;stroke-opacity:1" d="M 857.903,772.742 857.903,746.274 z" id="boundary" inkscape:connector-curvature="0" />
	<path style="fill:none;stroke:red;stroke-width:1px;stroke-linecap:butt;stroke-linejoin:miter;stroke-opacity:1" d="M 857.903,746.274 857.903,716.353 z" id="boundary" inkscape:connector-curvature="0" />
	<path style="fill:none;stroke:red;stroke-width:1px;stroke-linecap:butt;stroke-linejoin:miter;stroke-opacity:1" d="M 857.903,716.353 850.998,691.035 z" id="boundary" inkscape:connector-curvature="0" />
	<path style="fill:none;stroke:red;stroke-width:1px;stroke-linecap:butt;stroke-linejoin:miter;stroke-opacity:1" d="M 850.998,691.035 832.585,671.471 z" id="boundary" inkscape:connector-curvature="0" />
	<path style="fill:none;stroke:red;stroke-width:1px;stroke-linecap:butt;stroke-linejoin:miter;stroke-opacity:1" d="M 832.585,671.471 811.87,661.114 z" id="boundary" inkscape:connector-curvature="0" />
	<path style="fill:none;stroke:red;stroke-width:1px;stroke-linecap:butt;stroke-linejoin:miter;stroke-opacity:1" d="M 811.87,661.114 784.251,658.812 z" id="boundary" inkscape:connector-curvature="0" />
	<path style="fill:none;stroke:red;stroke-width:1px;stroke-linecap:butt;stroke-linejoin:miter;stroke-opacity:1" d="M 784.251,658.812 761.234,658.812 z" id="boundary" inkscape:connector-curvature="0" />
	<path style="fill:none;stroke:red;stroke-width:1px;stroke-linecap:butt;stroke-linejoin:miter;stroke-opacity:1" d="M 761.234,658.812 757.782,634.645 z" id="boundary" inkscape:connector-curvature="0" />
	<path style="fill:none;stroke:red;stroke-width:1px;stroke-linecap:butt;stroke-linejoin:miter;stroke-opacity:1" d="M 757.782,634.645 760.084,613.93 z" id="boundary" inkscape:connector-curvature="0" />
	<path style="fill:none;stroke:red;stroke-width:1px;stroke-linecap:butt;stroke-linejoin:miter;stroke-opacity:1" d="M 760.084,613.93 761.234,593.216 z" id="boundary" inkscape:connector-curvature="0" />
	<path style="fill:none;stroke:red;stroke-width:1px;stroke-linecap:butt;stroke-linejoin:miter;stroke-opacity:1" d="M 761.234,593.216 760.084,567.898 z" id="boundary" inkscape:connector-curvature="0" />
	<path style="fill:none;stroke:red;stroke-width:1px;stroke-linecap:butt;stroke-linejoin:miter;stroke-opacity:1" d="M 760.084,567.898 757.782,539.128 z" id="boundary" inkscape:connector-curvature="0" />
	<path style="fill:none;stroke:red;stroke-width:1px;stroke-linecap:butt;stroke-linejoin:miter;stroke-opacity:1" d="M 757.782,539.128 757.782,513.81 z" id="boundary" inkscape:connector-curvature="0" />
	<path style="fill:none;stroke:red;stroke-width:1px;stroke-linecap:butt;stroke-linejoin:miter;stroke-opacity:1" d="M 757.782,513.81 757.782,485.039 z" id="boundary" inkscape:connector-curvature="0" />
	<path style="fill:none;stroke:red;stroke-width:1px;stroke-linecap:butt;stroke-linejoin:miter;stroke-opacity:1" d="M 757.782,485.039 757.782,459.722 z" id="boundary" inkscape:connector-curvature="0" />
	<path style="fill:none;stroke:red;stroke-width:1px;stroke-linecap:butt;stroke-linejoin:miter;stroke-opacity:1" d="M 757.782,459.722 757.782,427.499 z" id="boundary" inkscape:connector-curvature="0" />
	<path style="fill:none;stroke:red;stroke-width:1px;stroke-linecap:butt;stroke-linejoin:miter;stroke-opacity:1" d="M 757.782,427.499 757.782,403.332 z" id="boundary" inkscape:connector-curvature="0" />
	<path style="fill:none;stroke:red;stroke-width:1px;stroke-linecap:butt;stroke-linejoin:miter;stroke-opacity:1" d="M 757.782,403.332 755.48,380.316 z" id="boundary" inkscape:connector-curvature="0" />
	<path style="fill:none;stroke:red;stroke-width:1px;stroke-linecap:butt;stroke-linejoin:miter;stroke-opacity:1" d="M 755.48,380.316 749.726,354.998 z" id="boundary" inkscape:connector-curvature="0" />
	<path style="fill:none;stroke:red;stroke-width:1px;stroke-linecap:butt;stroke-linejoin:miter;stroke-opacity:1" d="M 749.726,354.998 746.274,330.831 z" id="boundary" inkscape:connector-curvature="0" />
	<path style="fill:none;stroke:red;stroke-width:1px;stroke-linecap:butt;stroke-linejoin:miter;stroke-opacity:1" d="M 746.274,330.831 746.274,310.116 z" id="boundary" inkscape:connector-curvature="0" />
	<path style="fill:none;stroke:red;stroke-width:1px;stroke-linecap:butt;stroke-linejoin:miter;stroke-opacity:1" d="M 746.274,310.116 740.52,289.401 z" id="boundary" inkscape:connector-curvature="0" />
	<path style="fill:none;stroke:red;stroke-width:1px;stroke-linecap:butt;stroke-linejoin:miter;stroke-opacity:1" d="M 740.52,289.401 734.766,267.536 z" id="boundary" inkscape:connector-curvature="0" />
	<path style="fill:none;stroke:red;stroke-width:1px;stroke-linecap:butt;stroke-linejoin:miter;stroke-opacity:1" d="M 734.766,85.7077 754.329,114.478 z" id="boundary" inkscape:connector-curvature="0" />
	<path style="fill:none;stroke:red;stroke-width:1px;stroke-linecap:butt;stroke-linejoin:miter;stroke-opacity:1" d="M 754.329,114.478 757.782,134.042 z" id="boundary" inkscape:connector-curvature="0" />
	<path style="fill:none;stroke:red;stroke-width:1px;stroke-linecap:butt;stroke-linejoin:miter;stroke-opacity:1" d="M 757.782,134.042 755.48,154.756 z" id="boundary" inkscape:connector-curvature="0" />
	<path style="fill:none;stroke:red;stroke-width:1px;stroke-linecap:butt;stroke-linejoin:miter;stroke-opacity:1" d="M 755.48,154.756 755.48,177.773 z" id="boundary" inkscape:connector-curvature="0" />
	<path style="fill:none;stroke:red;stroke-width:1px;stroke-linecap:butt;stroke-linejoin:miter;stroke-opacity:1" d="M 755.48,177.773 755.48,199.638 z" id="boundary" inkscape:connector-curvature="0" />
	<path style="fill:none;stroke:red;stroke-width:1px;stroke-linecap:butt;stroke-linejoin:miter;stroke-opacity:1" d="M 755.48,199.638 760.084,220.353 z" id="boundary" inkscape:connector-curvature="0" />
	<path style="fill:none;stroke:red;stroke-width:1px;stroke-linecap:butt;stroke-linejoin:miter;stroke-opacity:1" d="M 760.084,220.353 755.48,238.766 z" id="boundary" inkscape:connector-curvature="0" />
	<path style="fill:none;stroke:red;stroke-width:1px;stroke-linecap:butt;stroke-linejoin:miter;stroke-opacity:1" d="M 755.48,238.766 734.766,267.536 z" id="boundary" inkscape:connector-curvature="0" />
	<path style="fill:none;stroke:red;stroke-width:1px;stroke-linecap:butt;stroke-linejoin:miter;stroke-opacity:1" d="M 109.875,761.234 91.4617,769.29 z" id="boundary" inkscape:connector-curvature="0" />
	<path style="fill:none;stroke:red;stroke-width:1px;stroke-linecap:butt;stroke-linejoin:miter;stroke-opacity:1" d="M 109.875,761.234 130.589,757.782 z" id="boundary" inkscape:connector-curvature="0" />
	<path style="fill:none;stroke:red;stroke-width:1px;stroke-linecap:butt;stroke-linejoin:miter;stroke-opacity:1" d="M 91.4617,769.29 73.0487,779.647 z" id="boundary" inkscape:connector-curvature="0" />
	<path style="fill:none;stroke:red;stroke-width:1px;stroke-linecap:butt;stroke-linejoin:miter;stroke-opacity:1" d="M 130.589,757.782 157.058,760.084 z" id="boundary" inkscape:connector-curvature="0" />
	<path style="fill:none;stroke:red;stroke-width:1px;stroke-linecap:butt;stroke-linejoin:miter;stroke-opacity:1" d="M 73.0487,779.647 61.5406,803.814 z" id="boundary" inkscape:connector-curvature="0" />
	<path style="fill:none;stroke:red;stroke-width:1px;stroke-linecap:butt;stroke-linejoin:miter;stroke-opacity:1" d="M 61.5406,803.814 61.5406,836.037 z" id="boundary" inkscape:connector-curvature="0" />
	<path style="fill:none;stroke:red;stroke-width:1px;stroke-linecap:butt;stroke-linejoin:miter;stroke-opacity:1" d="M 61.5406,836.037 73.0487,860.204 z" id="boundary" inkscape:connector-curvature="0" />
	<path style="fill:none;stroke:red;stroke-width:1px;stroke-linecap:butt;stroke-linejoin:miter;stroke-opacity:1" d="M 73.0487,860.204 91.4617,872.863 z" id="boundary" inkscape:connector-curvature="0" />
	<path style="fill:none;stroke:red;stroke-width:1px;stroke-linecap:butt;stroke-linejoin:miter;stroke-opacity:1" d="M 91.4617,872.863 117.93,880.919 z" id="boundary" inkscape:connector-curvature="0" />
	<path style="fill:none;stroke:red;stroke-width:1px;stroke-linecap:butt;stroke-linejoin:miter;stroke-opacity:1" d="M 117.93,880.919 145.55,880.919 z" id="boundary" inkscape:connector-curvature="0" />
	<path style="fill:none;stroke:red;stroke-width:1px;stroke-linecap:butt;stroke-linejoin:miter;stroke-opacity:1" d="M 145.55,880.919 168.566,877.466 z" id="boundary" inkscape:connector-curvature="0" />
	<path style="fill:none;stroke:red;stroke-width:1px;stroke-linecap:butt;stroke-linejoin:miter;stroke-opacity:1" d="M 168.566,877.466 189.281,863.657 z" id="boundary" inkscape:connector-curvature="0" />
	<path style="fill:none;stroke:red;stroke-width:1px;stroke-linecap:butt;stroke-linejoin:miter;stroke-opacity:1" d="M 189.281,863.657 199.638,842.942 z" id="boundary" inkscape:connector-curvature="0" />
	<path style="fill:none;stroke:red;stroke-width:1px;stroke-linecap:butt;stroke-linejoin:miter;stroke-opacity:1" d="M 199.638,842.942 208.845,818.775 z" id="boundary" inkscape:connector-curvature="0" />
	<path style="fill:none;stroke:red;stroke-width:1px;stroke-linecap:butt;stroke-linejoin:miter;stroke-opacity:1" d="M 208.845,818.775 204.241,791.155 z" id="boundary" inkscape:connector-curvature="0" />
	<path style="fill:none;stroke:red;stroke-width:1px;stroke-linecap:butt;stroke-linejoin:miter;stroke-opacity:1" d="M 204.241,791.155 186.979,772.742 z" id="boundary" inkscape:connector-curvature="0" />
	<path style="fill:none;stroke:red;stroke-width:1px;stroke-linecap:butt;stroke-linejoin:miter;stroke-opacity:1" d="M 157.058,760.084 186.979,772.742 z" id="boundary" inkscape:connector-curvature="0" />
	<path style="fill:none;stroke:red;stroke-width:1px;stroke-linecap:butt;stroke-linejoin:miter;stroke-opacity:1" d="M 207.694,376.863 211.146,356.148 z" id="boundary" inkscape:connector-curvature="0" />
	<path style="fill:none;stroke:red;stroke-width:1px;stroke-linecap:butt;stroke-linejoin:miter;stroke-opacity:1" d="M 207.694,376.863 204.241,399.879 z" id="boundary" inkscape:connector-curvature="0" />
	<path style="fill:none;stroke:red;stroke-width:1px;stroke-linecap:butt;stroke-linejoin:miter;stroke-opacity:1" d="M 204.241,399.879 205.392,421.745 z" id="boundary" inkscape:connector-curvature="0" />
	<path style="fill:none;stroke:red;stroke-width:1px;stroke-linecap:butt;stroke-linejoin:miter;stroke-opacity:1" d="M 205.392,421.745 205.392,445.912 z" id="boundary" inkscape:connector-curvature="0" />
	<path style="fill:none;stroke:red;stroke-width:1px;stroke-linecap:butt;stroke-linejoin:miter;stroke-opacity:1" d="M 205.392,445.912 204.241,470.079 z" id="boundary" inkscape:connector-curvature="0" />
	<path style="fill:none;stroke:red;stroke-width:1px;stroke-linecap:butt;stroke-linejoin:miter;stroke-opacity:1" d="M 211.146,356.148 214.599,331.981 z" id="boundary" inkscape:connector-curvature="0" />
	<path style="fill:none;stroke:red;stroke-width:1px;stroke-linecap:butt;stroke-linejoin:miter;stroke-opacity:1" d="M 214.599,331.981 218.051,307.814 z" id="boundary" inkscape:connector-curvature="0" />
	<path style="fill:none;stroke:red;stroke-width:1px;stroke-linecap:butt;stroke-linejoin:miter;stroke-opacity:1" d="M 218.051,307.814 222.654,282.497 z" id="boundary" inkscape:connector-curvature="0" />
	<path style="fill:none;stroke:red;stroke-width:1px;stroke-linecap:butt;stroke-linejoin:miter;stroke-opacity:1" d="M 222.654,282.497 226.107,257.179 z" id="boundary" inkscape:connector-curvature="0" />
	<path style="fill:none;stroke:red;stroke-width:1px;stroke-linecap:butt;stroke-linejoin:miter;stroke-opacity:1" d="M 204.241,470.079 204.241,498.849 z" id="boundary" inkscape:connector-curvature="0" />
	<path style="fill:none;stroke:red;stroke-width:1px;stroke-linecap:butt;stroke-linejoin:miter;stroke-opacity:1" d="M 204.241,498.849 205.392,526.469 z" id="boundary" inkscape:connector-curvature="0" />
	<path style="fill:none;stroke:red;stroke-width:1px;stroke-linecap:butt;stroke-linejoin:miter;stroke-opacity:1" d="M 205.392,526.469 205.392,552.937 z" id="boundary" inkscape:connector-curvature="0" />
	<path style="fill:none;stroke:red;stroke-width:1px;stroke-linecap:butt;stroke-linejoin:miter;stroke-opacity:1" d="M 205.392,552.937 205.392,580.557 z" id="boundary" inkscape:connector-curvature="0" />
	<path style="fill:none;stroke:red;stroke-width:1px;stroke-linecap:butt;stroke-linejoin:miter;stroke-opacity:1" d="M 205.392,580.557 220.353,601.271 z" id="boundary" inkscape:connector-curvature="0" />
	<path style="fill:none;stroke:red;stroke-width:1px;stroke-linecap:butt;stroke-linejoin:miter;stroke-opacity:1" d="M 220.353,601.271 243.369,607.026 z" id="boundary" inkscape:connector-curvature="0" />
	<path style="fill:none;stroke:red;stroke-width:1px;stroke-linecap:butt;stroke-linejoin:miter;stroke-opacity:1" d="M 243.369,607.026 265.234,607.026 z" id="boundary" inkscape:connector-curvature="0" />
	<path style="fill:none;stroke:red;stroke-width:1px;stroke-linecap:butt;stroke-linejoin:miter;stroke-opacity:1" d="M 265.234,607.026 292.854,607.026 z" id="boundary" inkscape:connector-curvature="0" />
	<path style="fill:none;stroke:red;stroke-width:1px;stroke-linecap:butt;stroke-linejoin:miter;stroke-opacity:1" d="M 292.854,607.026 317.021,604.724 z" id="boundary" inkscape:connector-curvature="0" />
	<path style="fill:none;stroke:red;stroke-width:1px;stroke-linecap:butt;stroke-linejoin:miter;stroke-opacity:1" d="M 226.107,257.179 233.012,228.408 z" id="boundary" inkscape:connector-curvature="0" />
	<path style="fill:none;stroke:red;stroke-width:1px;stroke-linecap:butt;stroke-linejoin:miter;stroke-opacity:1" d="M 233.012,228.408 237.615,201.94 z" id="boundary" inkscape:connector-curvature="0" />
	<path style="fill:none;stroke:red;stroke-width:1px;stroke-linecap:butt;stroke-linejoin:miter;stroke-opacity:1" d="M 237.615,201.94 237.615,175.471 z" id="boundary" inkscape:connector-curvature="0" />
	<path style="fill:none;stroke:red;stroke-width:1px;stroke-linecap:butt;stroke-linejoin:miter;stroke-opacity:1" d="M 237.615,175.471 238.766,151.304 z" id="boundary" inkscape:connector-curvature="0" />
	<path style="fill:none;stroke:red;stroke-width:1px;stroke-linecap:butt;stroke-linejoin:miter;stroke-opacity:1" d="M 238.766,151.304 262.933,147.852 z" id="boundary" inkscape:connector-curvature="0" />
	<path style="fill:none;stroke:red;stroke-width:1px;stroke-linecap:butt;stroke-linejoin:miter;stroke-opacity:1" d="M 262.933,147.852 289.401,145.55 z" id="boundary" inkscape:connector-curvature="0" />
	<path style="fill:none;stroke:red;stroke-width:1px;stroke-linecap:butt;stroke-linejoin:miter;stroke-opacity:1" d="M 289.401,145.55 312.418,145.55 z" id="boundary" inkscape:connector-curvature="0" />
	<path style="fill:none;stroke:red;stroke-width:1px;stroke-linecap:butt;stroke-linejoin:miter;stroke-opacity:1" d="M 312.418,145.55 312.418,172.019 z" id="boundary" inkscape:connector-curvature="0" />
	<path style="fill:none;stroke:red;stroke-width:1px;stroke-linecap:butt;stroke-linejoin:miter;stroke-opacity:1" d="M 312.418,172.019 312.418,201.94 z" id="boundary" inkscape:connector-curvature="0" />
	<path style="fill:none;stroke:red;stroke-width:1px;stroke-linecap:butt;stroke-linejoin:miter;stroke-opacity:1" d="M 312.418,201.94 334.283,205.392 z" id="boundary" inkscape:connector-curvature="0" />
	<path style="fill:none;stroke:red;stroke-width:1px;stroke-linecap:butt;stroke-linejoin:miter;stroke-opacity:1" d="M 334.283,205.392 358.45,203.09 z" id="boundary" inkscape:connector-curvature="0" />
	<path style="fill:none;stroke:red;stroke-width:1px;stroke-linecap:butt;stroke-linejoin:miter;stroke-opacity:1" d="M 358.45,203.09 361.903,178.923 z" id="boundary" inkscape:connector-curvature="0" />
	<path style="fill:none;stroke:red;stroke-width:1px;stroke-linecap:butt;stroke-linejoin:miter;stroke-opacity:1" d="M 361.903,178.923 386.07,175.471 z" id="boundary" inkscape:connector-curvature="0" />
	<path style="fill:none;stroke:red;stroke-width:1px;stroke-linecap:butt;stroke-linejoin:miter;stroke-opacity:1" d="M 386.07,175.471 414.84,175.471 z" id="boundary" inkscape:connector-curvature="0" />
	<path style="fill:none;stroke:red;stroke-width:1px;stroke-linecap:butt;stroke-linejoin:miter;stroke-opacity:1" d="M 317.021,604.724 346.942,604.724 z" id="boundary" inkscape:connector-curvature="0" />
	<path style="fill:none;stroke:red;stroke-width:1px;stroke-linecap:butt;stroke-linejoin:miter;stroke-opacity:1" d="M 346.942,604.724 371.109,604.724 z" id="boundary" inkscape:connector-curvature="0" />
	<path style="fill:none;stroke:red;stroke-width:1px;stroke-linecap:butt;stroke-linejoin:miter;stroke-opacity:1" d="M 371.109,604.724 399.879,602.422 z" id="boundary" inkscape:connector-curvature="0" />
	<path style="fill:none;stroke:red;stroke-width:1px;stroke-linecap:butt;stroke-linejoin:miter;stroke-opacity:1" d="M 399.879,602.422 429.8,602.422 z" id="boundary" inkscape:connector-curvature="0" />
	<path style="fill:none;stroke:red;stroke-width:1px;stroke-linecap:butt;stroke-linejoin:miter;stroke-opacity:1" d="M 429.8,602.422 457.42,604.724 z" id="boundary" inkscape:connector-curvature="0" />
	<path style="fill:none;stroke:red;stroke-width:1px;stroke-linecap:butt;stroke-linejoin:miter;stroke-opacity:1" d="M 457.42,604.724 483.889,602.422 z" id="boundary" inkscape:connector-curvature="0" />
	<path style="fill:none;stroke:red;stroke-width:1px;stroke-linecap:butt;stroke-linejoin:miter;stroke-opacity:1" d="M 483.889,602.422 508.056,604.724 z" id="boundary" inkscape:connector-curvature="0" />
	<path style="fill:none;stroke:red;stroke-width:1px;stroke-linecap:butt;stroke-linejoin:miter;stroke-opacity:1" d="M 508.056,604.724 533.374,604.724 z" id="boundary" inkscape:connector-curvature="0" />
	<path style="fill:none;stroke:red;stroke-width:1px;stroke-linecap:butt;stroke-linejoin:miter;stroke-opacity:1" d="M 533.374,604.724 562.144,602.422 z" id="boundary" inkscape:connector-curvature="0" />
	<path style="fill:none;stroke:red;stroke-width:1px;stroke-linecap:butt;stroke-linejoin:miter;stroke-opacity:1" d="M 562.144,602.422 593.216,602.422 z" id="boundary" inkscape:connector-curvature="0" />
	<path style="fill:none;stroke:red;stroke-width:1px;stroke-linecap:butt;stroke-linejoin:miter;stroke-opacity:1" d="M 593.216,602.422 619.684,602.422 z" id="boundary" inkscape:connector-curvature="0" />
	<path style="fill:none;stroke:red;stroke-width:1px;stroke-linecap:butt;stroke-linejoin:miter;stroke-opacity:1" d="M 619.684,602.422 641.55,598.97 z" id="boundary" inkscape:connector-curvature="0" />
	<path style="fill:none;stroke:red;stroke-width:1px;stroke-linecap:butt;stroke-linejoin:miter;stroke-opacity:1" d="M 641.55,598.97 661.114,584.009 z" id="boundary" inkscape:connector-curvature="0" />
	<path style="fill:none;stroke:red;stroke-width:1px;stroke-linecap:butt;stroke-linejoin:miter;stroke-opacity:1" d="M 661.114,584.009 661.114,557.541 z" id="boundary" inkscape:connector-curvature="0" />
	<path style="fill:none;stroke:red;stroke-width:1px;stroke-linecap:butt;stroke-linejoin:miter;stroke-opacity:1" d="M 661.114,557.541 661.114,532.223 z" id="boundary" inkscape:connector-curvature="0" />
	<path style="fill:none;stroke:red;stroke-width:1px;stroke-linecap:butt;stroke-linejoin:miter;stroke-opacity:1" d="M 661.114,532.223 661.114,508.056 z" id="boundary" inkscape:connector-curvature="0" />
	<path style="fill:none;stroke:red;stroke-width:1px;stroke-linecap:butt;stroke-linejoin:miter;stroke-opacity:1" d="M 661.114,508.056 658.812,481.587 z" id="boundary" inkscape:connector-curvature="0" />
	<path style="fill:none;stroke:red;stroke-width:1px;stroke-linecap:butt;stroke-linejoin:miter;stroke-opacity:1" d="M 658.812,481.587 658.812,459.722 z" id="boundary" inkscape:connector-curvature="0" />
	<path style="fill:none;stroke:red;stroke-width:1px;stroke-linecap:butt;stroke-linejoin:miter;stroke-opacity:1" d="M 658.812,459.722 662.265,427.499 z" id="boundary" inkscape:connector-curvature="0" />
	<path style="fill:none;stroke:red;stroke-width:1px;stroke-linecap:butt;stroke-linejoin:miter;stroke-opacity:1" d="M 662.265,427.499 656.51,397.578 z" id="boundary" inkscape:connector-curvature="0" />
	<path style="fill:none;stroke:red;stroke-width:1px;stroke-linecap:butt;stroke-linejoin:miter;stroke-opacity:1" d="M 656.51,397.578 651.907,364.204 z" id="boundary" inkscape:connector-curvature="0" />
	<path style="fill:none;stroke:red;stroke-width:1px;stroke-linecap:butt;stroke-linejoin:miter;stroke-opacity:1" d="M 651.907,364.204 647.304,341.188 z" id="boundary" inkscape:connector-curvature="0" />
	<path style="fill:none;stroke:red;stroke-width:1px;stroke-linecap:butt;stroke-linejoin:miter;stroke-opacity:1" d="M 647.304,341.188 643.852,317.021 z" id="boundary" inkscape:connector-curvature="0" />
	<path style="fill:none;stroke:red;stroke-width:1px;stroke-linecap:butt;stroke-linejoin:miter;stroke-opacity:1" d="M 643.852,317.021 640.399,292.854 z" id="boundary" inkscape:connector-curvature="0" />
	<path style="fill:none;stroke:red;stroke-width:1px;stroke-linecap:butt;stroke-linejoin:miter;stroke-opacity:1" d="M 640.399,292.854 634.645,265.234 z" id="boundary" inkscape:connector-curvature="0" />
	<path style="fill:none;stroke:red;stroke-width:1px;stroke-linecap:butt;stroke-linejoin:miter;stroke-opacity:1" d="M 634.645,265.234 631.193,241.067 z" id="boundary" inkscape:connector-curvature="0" />
	<path style="fill:none;stroke:red;stroke-width:1px;stroke-linecap:butt;stroke-linejoin:miter;stroke-opacity:1" d="M 631.193,241.067 623.137,213.448 z" id="boundary" inkscape:connector-curvature="0" />
	<path style="fill:none;stroke:red;stroke-width:1px;stroke-linecap:butt;stroke-linejoin:miter;stroke-opacity:1" d="M 623.137,213.448 619.684,192.733 z" id="boundary" inkscape:connector-curvature="0" />
	<path style="fill:none;stroke:red;stroke-width:1px;stroke-linecap:butt;stroke-linejoin:miter;stroke-opacity:1" d="M 619.684,192.733 621.986,166.265 z" id="boundary" inkscape:connector-curvature="0" />
	<path style="fill:none;stroke:red;stroke-width:1px;stroke-linecap:butt;stroke-linejoin:miter;stroke-opacity:1" d="M 621.986,166.265 621.986,144.399 z" id="boundary" inkscape:connector-curvature="0" />
	<path style="fill:none;stroke:red;stroke-width:1px;stroke-linecap:butt;stroke-linejoin:miter;stroke-opacity:1" d="M 621.986,144.399 595.517,145.55 z" id="boundary" inkscape:connector-curvature="0" />
	<path style="fill:none;stroke:red;stroke-width:1px;stroke-linecap:butt;stroke-linejoin:miter;stroke-opacity:1" d="M 595.517,145.55 572.501,145.55 z" id="boundary" inkscape:connector-curvature="0" />
	<path style="fill:none;stroke:red;stroke-width:1px;stroke-linecap:butt;stroke-linejoin:miter;stroke-opacity:1" d="M 572.501,145.55 547.183,147.852 z" id="boundary" inkscape:connector-curvature="0" />
	<path style="fill:none;stroke:red;stroke-width:1px;stroke-linecap:butt;stroke-linejoin:miter;stroke-opacity:1" d="M 547.183,147.852 548.334,175.471 z" id="boundary" inkscape:connector-curvature="0" />
	<path style="fill:none;stroke:red;stroke-width:1px;stroke-linecap:butt;stroke-linejoin:miter;stroke-opacity:1" d="M 548.334,175.471 547.183,199.638 z" id="boundary" inkscape:connector-curvature="0" />
	<path style="fill:none;stroke:red;stroke-width:1px;stroke-linecap:butt;stroke-linejoin:miter;stroke-opacity:1" d="M 547.183,199.638 523.016,199.638 z" id="boundary" inkscape:connector-curvature="0" />
	<path style="fill:none;stroke:red;stroke-width:1px;stroke-linecap:butt;stroke-linejoin:miter;stroke-opacity:1" d="M 523.016,199.638 500,196.186 z" id="boundary" inkscape:connector-curvature="0" />
	<path style="fill:none;stroke:red;stroke-width:1px;stroke-linecap:butt;stroke-linejoin:miter;stroke-opacity:1" d="M 500,196.186 494.246,173.169 z" id="boundary" inkscape:connector-curvature="0" />
	<path style="fill:none;stroke:red;stroke-width:1px;stroke-linecap:butt;stroke-linejoin:miter;stroke-opacity:1" d="M 494.246,173.169 472.381,175.471 z" id="boundary" inkscape:connector-curvature="0" />
	<path style="fill:none;stroke:red;stroke-width:1px;stroke-linecap:butt;stroke-linejoin:miter;stroke-opacity:1" d="M 472.381,175.471 449.364,175.471 z" id="boundary" inkscape:connector-curvature="0" />
	<path style="fill:none;stroke:red;stroke-width:1px;stroke-linecap:butt;stroke-linejoin:miter;stroke-opacity:1" d="M 449.364,175.471 414.84,175.471 z" id="boundary" inkscape:connector-curvature="0" />
	<path style="fill:none;stroke:red;stroke-width:1px;stroke-linecap:butt;stroke-linejoin:miter;stroke-opacity:1" d="M 671.471,854.45 661.114,832.585 z" id="boundary" inkscape:connector-curvature="0" />
	<path style="fill:none;stroke:red;stroke-width:1px;stroke-linecap:butt;stroke-linejoin:miter;stroke-opacity:1" d="M 671.471,854.45 692.186,869.411 z" id="boundary" inkscape:connector-curvature="0" />
	<path style="fill:none;stroke:red;stroke-width:1px;stroke-linecap:butt;stroke-linejoin:miter;stroke-opacity:1" d="M 661.114,832.585 661.114,802.664 z" id="boundary" inkscape:connector-curvature="0" />
	<path style="fill:none;stroke:red;stroke-width:1px;stroke-linecap:butt;stroke-linejoin:miter;stroke-opacity:1" d="M 661.114,802.664 671.471,776.195 z" id="boundary" inkscape:connector-curvature="0" />
	<path style="fill:none;stroke:red;stroke-width:1px;stroke-linecap:butt;stroke-linejoin:miter;stroke-opacity:1" d="M 671.471,776.195 694.487,761.234 z" id="boundary" inkscape:connector-curvature="0" />
	<path style="fill:none;stroke:red;stroke-width:1px;stroke-linecap:butt;stroke-linejoin:miter;stroke-opacity:1" d="M 694.487,761.234 724.408,754.329 z" id="boundary" inkscape:connector-curvature="0" />
	<path style="fill:none;stroke:red;stroke-width:1px;stroke-linecap:butt;stroke-linejoin:miter;stroke-opacity:1" d="M 692.186,869.411 722.107,878.617 z" id="boundary" inkscape:connector-curvature="0" />
	<path style="fill:none;stroke:red;stroke-width:1px;stroke-linecap:butt;stroke-linejoin:miter;stroke-opacity:1" d="M 722.107,878.617 746.274,875.165 z" id="boundary" inkscape:connector-curvature="0" />
	<path style="fill:none;stroke:red;stroke-width:1px;stroke-linecap:butt;stroke-linejoin:miter;stroke-opacity:1" d="M 746.274,875.165 772.742,871.712 z" id="boundary" inkscape:connector-curvature="0" />
	<path style="fill:none;stroke:red;stroke-width:1px;stroke-linecap:butt;stroke-linejoin:miter;stroke-opacity:1" d="M 772.742,871.712 794.608,853.299 z" id="boundary" inkscape:connector-curvature="0" />
	<path style="fill:none;stroke:red;stroke-width:1px;stroke-linecap:butt;stroke-linejoin:miter;stroke-opacity:1" d="M 794.608,853.299 808.418,823.378 z" id="boundary" inkscape:connector-curvature="0" />
	<path style="fill:none;stroke:red;stroke-width:1px;stroke-linecap:butt;stroke-linejoin:miter;stroke-opacity:1" d="M 808.418,823.378 803.814,794.608 z" id="boundary" inkscape:connector-curvature="0" />
	<path style="fill:none;stroke:red;stroke-width:1px;stroke-linecap:butt;stroke-linejoin:miter;stroke-opacity:1" d="M 803.814,794.608 785.401,770.441 z" id="boundary" inkscape:connector-curvature="0" />
	<path style="fill:none;stroke:red;stroke-width:1px;stroke-linecap:butt;stroke-linejoin:miter;stroke-opacity:1" d="M 785.401,770.441 761.234,757.782 z" id="boundary" inkscape:connector-curvature="0" />
	<path style="fill:none;stroke:red;stroke-width:1px;stroke-linecap:butt;stroke-linejoin:miter;stroke-opacity:1" d="M 761.234,757.782 724.408,754.329 z" id="boundary" inkscape:connector-curvature="0" />
	<circle cx="238.766" cy="151.304" r="4" fill="#0" id="circle0"/>
	<circle cx="262.933" cy="147.852" r="4" fill="#0" id="circle1"/>
	<circle cx="289.401" cy="145.55" r="4" fill="#0" id="circle2"/>
	<circle cx="312.418" cy="145.55" r="4" fill="#0" id="circle3"/>
	<circle cx="312.418" cy="172.019" r="4" fill="#0" id="circle4"/>
	<circle cx="312.418" cy="201.94" r="4" fill="#0" id="circle5"/>
	<circle cx="334.283" cy="205.392" r="4" fill="#0" id="circle6"/>
	<circle cx="358.45" cy="203.09" r="4" fill="#0" id="circle7"/>
	<circle cx="361.903" cy="178.923" r="4" fill="#0" id="circle8"/>
	<circle cx="386.07" cy="175.471" r="4" fill="#0" id="circle9"/>
	<circle cx="414.84" cy="175.471" r="4" fill="#0" id="circle10"/>
	<circle cx="449.364" cy="175.471" r="4" fill="#0" id="circle11"/>
	<circle cx="472.381" cy="175.471" r="4" fill="#0" id="circle12"/>
	<circle cx="494.246" cy="173.169" r="4" fill="#0" id="circle13"/>
	<circle cx="500" cy="196.186" r="4" fill="#0" id="circle14"/>
	<circle cx="523.016" cy="199.638" r="4" fill="#0" id="circle15"/>
	<circle cx="547.183" cy="199.638" r="4" fill="#0" id="circle16"/>
	<circle cx="548.334" cy="175.471" r="4" fill="#0" id="circle17"/>
	<circle cx="547.183" cy="147.852" r="4" fill="#0" id="circle18"/>
	<circle cx="572.501" cy="145.55" r="4" fill="#0" id="circle19"/>
	<circle cx="595.517" cy="145.55" r="4" fill="#0" id="circle20"/>
	<circle cx="621.986" cy="144.399" r="4" fill="#0" id="circle21"/>
	<circle cx="621.986" cy="166.265" r="4" fill="#0" id="circle22"/>
	<circle cx="619.684" cy="192.733" r="4" fill="#0" id="circle23"/>
	<circle cx="237.615" cy="175.471" r="4" fill="#0" id="circle24"/>
	<circle cx="237.615" cy="201.94" r="4" fill="#0" id="circle25"/>
	<circle cx="233.012" cy="228.408" r="4" fill="#0" id="circle26"/>
	<circle cx="226.107" cy="257.179" r="4" fill="#0" id="circle27"/>
	<circle cx="222.654" cy="282.497" r="4" fill="#0" id="circle28"/>
	<circle cx="218.051" cy="307.814" r="4" fill="#0" id="circle29"/>
	<circle cx="214.599" cy="331.981" r="4" fill="#0" id="circle30"/>
	<circle cx="211.146" cy="356.148" r="4" fill="#0" id="circle31"/>
	<circle cx="207.694" cy="376.863" r="4" fill="#0" id="circle32"/>
	<circle cx="204.241" cy="399.879" r="4" fill="#0" id="circle33"/>
	<circle cx="205.392" cy="421.745" r="4" fill="#0" id="circle34"/>
	<circle cx="205.392" cy="445.912" r="4" fill="#0" id="circle35"/>
	<circle cx="204.241" cy="470.079" r="4" fill="#0" id="circle36"/>
	<circle cx="204.241" cy="498.849" r="4" fill="#0" id="circle37"/>
	<circle cx="205.392" cy="526.469" r="4" fill="#0" id="circle38"/>
	<circle cx="205.392" cy="552.937" r="4" fill="#0" id="circle39"/>
	<circle cx="205.392" cy="580.557" r="4" fill="#0" id="circle40"/>
	<circle cx="220.353" cy="601.271" r="4" fill="#0" id="circle41"/>
	<circle cx="243.369" cy="607.026" r="4" fill="#0" id="circle42"/>
	<circle cx="265.234" cy="607.026" r="4" fill="#0" id="circle43"/>
	<circle cx="292.854" cy="607.026" r="4" fill="#0" id="circle44"/>
	<circle cx="317.021" cy="604.724" r="4" fill="#0" id="circle45"/>
	<circle cx="346.942" cy="604.724" r="4" fill="#0" id="circle46"/>
	<circle cx="371.109" cy="604.724" r="4" fill="#0" id="circle47"/>
	<circle cx="399.879" cy="602.422" r="4" fill="#0" id="circle48"/>
	<circle cx="429.8" cy="602.422" r="4" fill="#0" id="circle49"/>
	<circle cx="457.42" cy="604.724" r="4" fill="#0" id="circle50"/>
	<circle cx="483.889" cy="602.422" r="4" fill="#0" id="circle51"/>
	<circle cx="508.056" cy="604.724" r="4" fill="#0" id="circle52"/>
	<circle cx="533.374" cy="604.724" r="4" fill="#0" id="circle53"/>
	<circle cx="562.144" cy="602.422" r="4" fill="#0" id="circle54"/>
	<circle cx="593.216" cy="602.422" r="4" fill="#0" id="circle55"/>
	<circle cx="619.684" cy="602.422" r="4" fill="#0" id="circle56"/>
	<circle cx="641.55" cy="598.97" r="4" fill="#0" id="circle57"/>
	<circle cx="661.114" cy="584.009" r="4" fill="#0" id="circle58"/>
	<circle cx="661.114" cy="557.541" r="4" fill="#0" id="circle59"/>
	<circle cx="661.114" cy="532.223" r="4" fill="#0" id="circle60"/>
	<circle cx="661.114" cy="508.056" r="4" fill="#0" id="circle61"/>
	<circle cx="658.812" cy="481.587" r="4" fill="#0" id="circle62"/>
	<circle cx="658.812" cy="459.722" r="4" fill="#0" id="circle63"/>
	<circle cx="662.265" cy="427.499" r="4" fill="#0" id="circle64"/>
	<circle cx="656.51" cy="397.578" r="4" fill="#0" id="circle65"/>
	<circle cx="623.137" cy="213.448" r="4" fill="#0" id="circle66"/>
	<circle cx="631.193" cy="241.067" r="4" fill="#0" id="circle67"/>
	<circle cx="634.645" cy="265.234" r="4" fill="#0" id="circle68"/>
	<circle cx="640.399" cy="292.854" r="4" fill="#0" id="circle69"/>
	<circle cx="643.852" cy="317.021" r="4" fill="#0" id="circle70"/>
	<circle cx="647.304" cy="341.188" r="4" fill="#0" id="circle71"/>
	<circle cx="651.907" cy="364.204" r="4" fill="#0" id="circle72"/>
	<circle cx="235.313" cy="90.3109" r="4" fill="#0" id="circle73"/>
	<circle cx="261.782" cy="90.3109" r="4" fill="#0" id="circle74"/>
	<circle cx="285.949" cy="88.0093" r="4" fill="#0" id="circle75"/>
	<circle cx="310.116" cy="90.3109" r="4" fill="#0" id="circle76"/>
	<circle cx="310.116" cy="64.993" r="4" fill="#0" id="circle77"/>
	<circle cx="310.116" cy="39.6752" r="4" fill="#0" id="circle78"/>
	<circle cx="334.283" cy="36.2227" r="4" fill="#0" id="circle79"/>
	<circle cx="358.45" cy="36.2227" r="4" fill="#0" id="circle80"/>
	<circle cx="360.752" cy="61.5406" r="4" fill="#0" id="circle81"/>
	<circle cx="386.07" cy="61.5406" r="4" fill="#0" id="circle82"/>
	<circle cx="410.237" cy="61.5406" r="4" fill="#0" id="circle83"/>
	<circle cx="439.007" cy="60.3898" r="4" fill="#0" id="circle84"/>
	<circle cx="468.928" cy="61.5406" r="4" fill="#0" id="circle85"/>
	<circle cx="496.548" cy="60.3898" r="4" fill="#0" id="circle86"/>
	<circle cx="496.548" cy="33.9211" r="4" fill="#0" id="circle87"/>
	<circle cx="517.262" cy="33.9211" r="4" fill="#0" id="circle88"/>
	<circle cx="543.731" cy="33.9211" r="4" fill="#0" id="circle89"/>
	<circle cx="547.183" cy="54.6357" r="4" fill="#0" id="circle90"/>
	<circle cx="547.183" cy="73.0487" r="4" fill="#0" id="circle91"/>
	<circle cx="548.334" cy="90.3109" r="4" fill="#0" id="circle92"/>
	<circle cx="569.049" cy="90.3109" r="4" fill="#0" id="circle93"/>
	<circle cx="589.763" cy="91.4617" r="4" fill="#0" id="circle94"/>
	<circle cx="610.478" cy="90.3109" r="4" fill="#0" id="circle95"/>
	<circle cx="623.137" cy="90.3109" r="4" fill="#0" id="circle96"/>
	<circle cx="621.986" cy="33.9211" r="4" fill="#0" id="circle97"/>
	<circle cx="619.684" cy="51.1833" r="4" fill="#0" id="circle98"/>
	<circle cx="619.684" cy="67.2947" r="4" fill="#0" id="circle99"/>
	<circle cx="235.313" cy="36.2227" r="4" fill="#0" id="circle100"/>
	<circle cx="233.012" cy="60.3898" r="4" fill="#0" id="circle101"/>
	<circle cx="207.694" cy="9.75406" r="4" fill="#0" id="circle102"/>
	<circle cx="222.654" cy="22.413" r="4" fill="#0" id="circle103"/>
	<circle cx="177.773" cy="6.30162" r="4" fill="#0" id="circle104"/>
	<circle cx="160.51" cy="22.413" r="4" fill="#0" id="circle105"/>
	<circle cx="147.852" cy="43.1276" r="4" fill="#0" id="circle106"/>
	<circle cx="135.193" cy="63.8422" r="4" fill="#0" id="circle107"/>
	<circle cx="121.383" cy="85.7077" r="4" fill="#0" id="circle108"/>
	<circle cx="109.875" cy="106.422" r="4" fill="#0" id="circle109"/>
	<circle cx="99.5174" cy="121.383" r="4" fill="#0" id="circle110"/>
	<circle cx="100.668" cy="139.796" r="4" fill="#0" id="circle111"/>
	<circle cx="100.668" cy="160.51" r="4" fill="#0" id="circle112"/>
	<circle cx="100.668" cy="177.773" r="4" fill="#0" id="circle113"/>
	<circle cx="100.668" cy="201.94" r="4" fill="#0" id="circle114"/>
	<circle cx="100.668" cy="222.654" r="4" fill="#0" id="circle115"/>
	<circle cx="102.97" cy="242.218" r="4" fill="#0" id="circle116"/>
	<circle cx="114.478" cy="257.179" r="4" fill="#0" id="circle117"/>
	<circle cx="123.684" cy="270.988" r="4" fill="#0" id="circle118"/>
	<circle cx="120.232" cy="289.401" r="4" fill="#0" id="circle119"/>
	<circle cx="114.478" cy="311.267" r="4" fill="#0" id="circle120"/>
	<circle cx="108.724" cy="336.585" r="4" fill="#0" id="circle121"/>
	<circle cx="105.271" cy="367.657" r="4" fill="#0" id="circle122"/>
	<circle cx="105.271" cy="399.879" r="4" fill="#0" id="circle123"/>
	<circle cx="105.271" cy="424.046" r="4" fill="#0" id="circle124"/>
	<circle cx="102.97" cy="448.213" r="4" fill="#0" id="circle125"/>
	<circle cx="105.271" cy="470.079" r="4" fill="#0" id="circle126"/>
	<circle cx="105.271" cy="498.849" r="4" fill="#0" id="circle127"/>
	<circle cx="102.97" cy="526.469" r="4" fill="#0" id="circle128"/>
	<circle cx="105.271" cy="552.937" r="4" fill="#0" id="circle129"/>
	<circle cx="106.422" cy="580.557" r="4" fill="#0" id="circle130"/>
	<circle cx="105.271" cy="604.724" r="4" fill="#0" id="circle131"/>
	<circle cx="105.271" cy="634.645" r="4" fill="#0" id="circle132"/>
	<circle cx="106.422" cy="661.114" r="4" fill="#0" id="circle133"/>
	<circle cx="82.2552" cy="661.114" r="4" fill="#0" id="circle134"/>
	<circle cx="58.0882" cy="662.265" r="4" fill="#0" id="circle135"/>
	<circle cx="43.1276" cy="670.32" r="4" fill="#0" id="circle136"/>
	<circle cx="28.1671" cy="682.979" r="4" fill="#0" id="circle137"/>
	<circle cx="13.2065" cy="700.241" r="4" fill="#0" id="circle138"/>
	<circle cx="6.30162" cy="724.408" r="4" fill="#0" id="circle139"/>
	<circle cx="7.45244" cy="748.575" r="4" fill="#0" id="circle140"/>
	<circle cx="7.45244" cy="773.893" r="4" fill="#0" id="circle141"/>
	<circle cx="7.45244" cy="796.91" r="4" fill="#0" id="circle142"/>
	<circle cx="6.30162" cy="815.323" r="4" fill="#0" id="circle143"/>
	<circle cx="6.30162" cy="838.339" r="4" fill="#0" id="circle144"/>
	<circle cx="6.30162" cy="862.506" r="4" fill="#0" id="circle145"/>
	<circle cx="6.30162" cy="884.371" r="4" fill="#0" id="circle146"/>
	<circle cx="7.45244" cy="905.086" r="4" fill="#0" id="circle147"/>
	<circle cx="4" cy="926.951" r="4" fill="#0" id="circle148"/>
	<circle cx="4" cy="951.118" r="4" fill="#0" id="circle149"/>
	<circle cx="12.0557" cy="976.436" r="4" fill="#0" id="circle150"/>
	<circle cx="24.7146" cy="996" r="4" fill="#0" id="circle151"/>
	<circle cx="45.4292" cy="996" r="4" fill="#0" id="circle152"/>
	<circle cx="73.0487" cy="996" r="4" fill="#0" id="circle153"/>
	<circle cx="97.2158" cy="996" r="4" fill="#0" id="circle154"/>
	<circle cx="123.684" cy="994.849" r="4" fill="#0" id="circle155"/>
	<circle cx="149.002" cy="994.849" r="4" fill="#0" id="circle156"/>
	<circle cx="177.773" cy="994.849" r="4" fill="#0" id="circle157"/>
	<circle cx="201.94" cy="994.849" r="4" fill="#0" id="circle158"/>
	<circle cx="226.107" cy="994.849" r="4" fill="#0" id="circle159"/>
	<circle cx="252.575" cy="992.548" r="4" fill="#0" id="circle160"/>
	<circle cx="276.742" cy="992.548" r="4" fill="#0" id="circle161"/>
	<circle cx="300.91" cy="992.548" r="4" fill="#0" id="circle162"/>
	<circle cx="322.775" cy="992.548" r="4" fill="#0" id="circle163"/>
	<circle cx="349.244" cy="992.548" r="4" fill="#0" id="circle164"/>
	<circle cx="375.712" cy="994.849" r="4" fill="#0" id="circle165"/>
	<circle cx="405.633" cy="996" r="4" fill="#0" id="circle166"/>
	<circle cx="429.8" cy="994.849" r="4" fill="#0" id="circle167"/>
	<circle cx="453.968" cy="994.849" r="4" fill="#0" id="circle168"/>
	<circle cx="479.285" cy="992.548" r="4" fill="#0" id="circle169"/>
	<circle cx="508.056" cy="996" r="4" fill="#0" id="circle170"/>
	<circle cx="535.675" cy="994.849" r="4" fill="#0" id="circle171"/>
	<circle cx="565.596" cy="992.548" r="4" fill="#0" id="circle172"/>
	<circle cx="593.216" cy="992.548" r="4" fill="#0" id="circle173"/>
	<circle cx="623.137" cy="991.397" r="4" fill="#0" id="circle174"/>
	<circle cx="647.304" cy="991.397" r="4" fill="#0" id="circle175"/>
	<circle cx="676.074" cy="991.397" r="4" fill="#0" id="circle176"/>
	<circle cx="701.392" cy="991.397" r="4" fill="#0" id="circle177"/>
	<circle cx="727.861" cy="991.397" r="4" fill="#0" id="circle178"/>
	<circle cx="755.48" cy="991.397" r="4" fill="#0" id="circle179"/>
	<circle cx="778.497" cy="991.397" r="4" fill="#0" id="circle180"/>
	<circle cx="800.362" cy="991.397" r="4" fill="#0" id="circle181"/>
	<circle cx="826.831" cy="991.397" r="4" fill="#0" id="circle182"/>
	<circle cx="848.696" cy="985.643" r="4" fill="#0" id="circle183"/>
	<circle cx="857.903" cy="959.174" r="4" fill="#0" id="circle184"/>
	<circle cx="761.234" cy="658.812" r="4" fill="#0" id="circle185"/>
	<circle cx="784.251" cy="658.812" r="4" fill="#0" id="circle186"/>
	<circle cx="811.87" cy="661.114" r="4" fill="#0" id="circle187"/>
	<circle cx="832.585" cy="671.471" r="4" fill="#0" id="circle188"/>
	<circle cx="850.998" cy="691.035" r="4" fill="#0" id="circle189"/>
	<circle cx="857.903" cy="716.353" r="4" fill="#0" id="circle190"/>
	<circle cx="857.903" cy="746.274" r="4" fill="#0" id="circle191"/>
	<circle cx="857.903" cy="772.742" r="4" fill="#0" id="circle192"/>
	<circle cx="857.903" cy="793.457" r="4" fill="#0" id="circle193"/>
	<circle cx="860.204" cy="818.775" r="4" fill="#0" id="circle194"/>
	<circle cx="857.903" cy="841.791" r="4" fill="#0" id="circle195"/>
	<circle cx="860.204" cy="863.657" r="4" fill="#0" id="circle196"/>
	<circle cx="857.903" cy="892.427" r="4" fill="#0" id="circle197"/>
	<circle cx="862.506" cy="925.8" r="4" fill="#0" id="circle198"/>
	<circle cx="734.766" cy="267.536" r="4" fill="#0" id="circle199"/>
	<circle cx="740.52" cy="289.401" r="4" fill="#0" id="circle200"/>
	<circle cx="746.274" cy="310.116" r="4" fill="#0" id="circle201"/>
	<circle cx="746.274" cy="330.831" r="4" fill="#0" id="circle202"/>
	<circle cx="749.726" cy="354.998" r="4" fill="#0" id="circle203"/>
	<circle cx="755.48" cy="380.316" r="4" fill="#0" id="circle204"/>
	<circle cx="757.782" cy="403.332" r="4" fill="#0" id="circle205"/>
	<circle cx="757.782" cy="427.499" r="4" fill="#0" id="circle206"/>
	<circle cx="757.782" cy="459.722" r="4" fill="#0" id="circle207"/>
	<circle cx="757.782" cy="485.039" r="4" fill="#0" id="circle208"/>
	<circle cx="757.782" cy="513.81" r="4" fill="#0" id="circle209"/>
	<circle cx="757.782" cy="539.128" r="4" fill="#0" id="circle210"/>
	<circle cx="760.084" cy="567.898" r="4" fill="#0" id="circle211"/>
	<circle cx="761.234" cy="593.216" r="4" fill="#0" id="circle212"/>
	<circle cx="760.084" cy="613.93" r="4" fill="#0" id="circle213"/>
	<circle cx="757.782" cy="634.645" r="4" fill="#0" id="circle214"/>
	<circle cx="636.947" cy="18.9606" r="4" fill="#0" id="circle215"/>
	<circle cx="655.36" cy="4" r="4" fill="#0" id="circle216"/>
	<circle cx="677.225" cy="6.30162" r="4" fill="#0" id="circle217"/>
	<circle cx="697.94" cy="16.6589" r="4" fill="#0" id="circle218"/>
	<circle cx="709.448" cy="39.6752" r="4" fill="#0" id="circle219"/>
	<circle cx="722.107" cy="61.5406" r="4" fill="#0" id="circle220"/>
	<circle cx="734.766" cy="85.7077" r="4" fill="#0" id="circle221"/>
	<circle cx="754.329" cy="114.478" r="4" fill="#0" id="circle222"/>
	<circle cx="757.782" cy="134.042" r="4" fill="#0" id="circle223"/>
	<circle cx="755.48" cy="154.756" r="4" fill="#0" id="circle224"/>
	<circle cx="755.48" cy="177.773" r="4" fill="#0" id="circle225"/>
	<circle cx="755.48" cy="199.638" r="4" fill="#0" id="circle226"/>
	<circle cx="760.084" cy="220.353" r="4" fill="#0" id="circle227"/>
	<circle cx="755.48" cy="238.766" r="4" fill="#0" id="circle228"/>
	<circle cx="91.4617" cy="769.29" r="4" fill="#0" id="circle229"/>
	<circle cx="109.875" cy="761.234" r="4" fill="#0" id="circle230"/>
	<circle cx="130.589" cy="757.782" r="4" fill="#0" id="circle231"/>
	<circle cx="157.058" cy="760.084" r="4" fill="#0" id="circle232"/>
	<circle cx="186.979" cy="772.742" r="4" fill="#0" id="circle233"/>
	<circle cx="204.241" cy="791.155" r="4" fill="#0" id="circle234"/>
	<circle cx="208.845" cy="818.775" r="4" fill="#0" id="circle235"/>
	<circle cx="199.638" cy="842.942" r="4" fill="#0" id="circle236"/>
	<circle cx="189.281" cy="863.657" r="4" fill="#0" id="circle237"/>
	<circle cx="168.566" cy="877.466" r="4" fill="#0" id="circle238"/>
	<circle cx="145.55" cy="880.919" r="4" fill="#0" id="circle239"/>
	<circle cx="117.93" cy="880.919" r="4" fill="#0" id="circle240"/>
	<circle cx="91.4617" cy="872.863" r="4" fill="#0" id="circle241"/>
	<circle cx="73.0487" cy="860.204" r="4" fill="#0" id="circle242"/>
	<circle cx="61.5406" cy="836.037" r="4" fill="#0" id="circle243"/>
	<circle cx="61.5406" cy="803.814" r="4" fill="#0" id="circle244"/>
	<circle cx="73.0487" cy="779.647" r="4" fill="#0" id="circle245"/>
	<circle cx="661.114" cy="802.664" r="4" fill="#0" id="circle246"/>
	<circle cx="671.471" cy="776.195" r="4" fill="#0" id="circle247"/>
	<circle cx="694.487" cy="761.234" r="4" fill="#0" id="circle248"/>
	<circle cx="661.114" cy="832.585" r="4" fill="#0" id="circle249"/>
	<circle cx="671.471" cy="854.45" r="4" fill="#0" id="circle250"/>
	<circle cx="692.186" cy="869.411" r="4" fill="#0" id="circle251"/>
	<circle cx="722.107" cy="878.617" r="4" fill="#0" id="circle252"/>
	<circle cx="746.274" cy="875.165" r="4" fill="#0" id="circle253"/>
	<circle cx="772.742" cy="871.712" r="4" fill="#0" id="circle254"/>
	<circle cx="794.608" cy="853.299" r="4" fill="#0" id="circle255"/>
	<circle cx="808.418" cy="823.378" r="4" fill="#0" id="circle256"/>
	<circle cx="803.814" cy="794.608" r="4" fill="#0" id="circle257"/>
	<circle cx="785.401" cy="770.441" r="4" fill="#0" id="circle258"/>
	<circle cx="761.234" cy="757.782" r="4" fill="#0" id="circle259"/>
	<circle cx="724.408" cy="754.329" r="4" fill="#0" id="circle260"/>
	</g>
</svg>