<?xml version="1.0" encoding="UTF-8" standalone="no"?>
<!-- Created with CurveBenchmark -->
<svg
	xmlns:dc="http://purl.org/dc/elements/1.1/"
	xmlns:cc="http://creativecommons.org/ns#"
	xmlns:rdf="http://www.w3.org/1999/02/22-rdf-syntax-ns#"
	xmlns:svg="http://www.w3.org/2000/svg"
	xmlns="http://www.w3.org/2000/svg"
	xmlns:sodipodi="http://sodipodi.sourceforge.net/DTD/sodipodi-0.dtd"
	xmlns:inkscape="http://www.inkscape.org/namespaces/inkscape"
	width="1000"
	height="1000"
	id="svg2"
	version="1.1"
	sodipodi:docname="multiple-curves/crust-mc37.txt">
<defs
	id="defs4" />
<metadata
	id="metadata7">
	<rdf:RDF>
		<cc:Work
			rdf:about="">
			<dc:format>image/svg+xml</dc:format>
			<dc:type
				rdf:resource="http://purl.org/dc/dcmitype/StillImage" />
			<dc:title></dc:title>
		</cc:Work>
	</rdf:RDF>
</metadata>
<g
	inkscape:label="Layer 1"
	inkscape:groupmode="layer"
	id="layer1">
	<path style="fill:none;stroke:red;stroke-width:1px;stroke-linecap:butt;stroke-linejoin:miter;stroke-opacity:1" d="M 218.4,15.7091 200.8,23.6364 z" id="boundary" inkscape:connector-curvature="0" />
	<path style="fill:none;stroke:red;stroke-width:1px;stroke-linecap:butt;stroke-linejoin:miter;stroke-opacity:1" d="M 148.8,62.64 134.4,80.1 z" id="boundary" inkscape:connector-curvature="0" />
	<path style="fill:none;stroke:red;stroke-width:1px;stroke-linecap:butt;stroke-linejoin:miter;stroke-opacity:1" d="M 115.2,116.4 123.2,98.2667 z" id="boundary" inkscape:connector-curvature="0" />
	<path style="fill:none;stroke:red;stroke-width:1px;stroke-linecap:butt;stroke-linejoin:miter;stroke-opacity:1" d="M 134.4,80.1 123.2,98.2667 z" id="boundary" inkscape:connector-curvature="0" />
	<path style="fill:none;stroke:red;stroke-width:1px;stroke-linecap:butt;stroke-linejoin:miter;stroke-opacity:1" d="M 156,143.2 144.8,162.88 z" id="boundary" inkscape:connector-curvature="0" />
	<path style="fill:none;stroke:red;stroke-width:1px;stroke-linecap:butt;stroke-linejoin:miter;stroke-opacity:1" d="M 109.6,137.067 115.2,116.4 z" id="boundary" inkscape:connector-curvature="0" />
	<path style="fill:none;stroke:red;stroke-width:1px;stroke-linecap:butt;stroke-linejoin:miter;stroke-opacity:1" d="M 109.6,137.067 105.867,161.067 z" id="boundary" inkscape:connector-curvature="0" />
	<path style="fill:none;stroke:red;stroke-width:1px;stroke-linecap:butt;stroke-linejoin:miter;stroke-opacity:1" d="M 105.867,161.067 104,183.2 z" id="boundary" inkscape:connector-curvature="0" />
	<path style="fill:none;stroke:red;stroke-width:1px;stroke-linecap:butt;stroke-linejoin:miter;stroke-opacity:1" d="M 144.8,162.88 138.4,185.067 z" id="boundary" inkscape:connector-curvature="0" />
	<path style="fill:none;stroke:red;stroke-width:1px;stroke-linecap:butt;stroke-linejoin:miter;stroke-opacity:1" d="M 138.4,185.067 135.821,199.639 z" id="boundary" inkscape:connector-curvature="0" />
	<path style="fill:none;stroke:red;stroke-width:1px;stroke-linecap:butt;stroke-linejoin:miter;stroke-opacity:1" d="M 165.6,46.6909 148.8,62.64 z" id="boundary" inkscape:connector-curvature="0" />
	<path style="fill:none;stroke:red;stroke-width:1px;stroke-linecap:butt;stroke-linejoin:miter;stroke-opacity:1" d="M 156,143.2 172,129.455 z" id="boundary" inkscape:connector-curvature="0" />
	<path style="fill:none;stroke:red;stroke-width:1px;stroke-linecap:butt;stroke-linejoin:miter;stroke-opacity:1" d="M 183.2,33.6727 200.8,23.6364 z" id="boundary" inkscape:connector-curvature="0" />
	<path style="fill:none;stroke:red;stroke-width:1px;stroke-linecap:butt;stroke-linejoin:miter;stroke-opacity:1" d="M 172,129.455 189.6,125.309 z" id="boundary" inkscape:connector-curvature="0" />
	<path style="fill:none;stroke:red;stroke-width:1px;stroke-linecap:butt;stroke-linejoin:miter;stroke-opacity:1" d="M 189.6,125.309 207.2,131.127 z" id="boundary" inkscape:connector-curvature="0" />
	<path style="fill:none;stroke:red;stroke-width:1px;stroke-linecap:butt;stroke-linejoin:miter;stroke-opacity:1" d="M 165.6,46.6909 183.2,33.6727 z" id="boundary" inkscape:connector-curvature="0" />
	<path style="fill:none;stroke:red;stroke-width:1px;stroke-linecap:butt;stroke-linejoin:miter;stroke-opacity:1" d="M 183.2,179.055 175.105,188.182 z" id="boundary" inkscape:connector-curvature="0" />
	<path style="fill:none;stroke:red;stroke-width:1px;stroke-linecap:butt;stroke-linejoin:miter;stroke-opacity:1" d="M 175.105,188.182 172.32,206.88 z" id="boundary" inkscape:connector-curvature="0" />
	<path style="fill:none;stroke:red;stroke-width:1px;stroke-linecap:butt;stroke-linejoin:miter;stroke-opacity:1" d="M 183.2,179.055 197.6,181.486 z" id="boundary" inkscape:connector-curvature="0" />
	<path style="fill:none;stroke:red;stroke-width:1px;stroke-linecap:butt;stroke-linejoin:miter;stroke-opacity:1" d="M 197.6,181.486 205.6,200.533 z" id="boundary" inkscape:connector-curvature="0" />
	<path style="fill:none;stroke:red;stroke-width:1px;stroke-linecap:butt;stroke-linejoin:miter;stroke-opacity:1" d="M 34.4,206.255 52,202.545 z" id="boundary" inkscape:connector-curvature="0" />
	<path style="fill:none;stroke:red;stroke-width:1px;stroke-linecap:butt;stroke-linejoin:miter;stroke-opacity:1" d="M 69.6,202.4 52,202.545 z" id="boundary" inkscape:connector-curvature="0" />
	<path style="fill:none;stroke:red;stroke-width:1px;stroke-linecap:butt;stroke-linejoin:miter;stroke-opacity:1" d="M 8,237.2 18.4,218.133 z" id="boundary" inkscape:connector-curvature="0" />
	<path style="fill:none;stroke:red;stroke-width:1px;stroke-linecap:butt;stroke-linejoin:miter;stroke-opacity:1" d="M 4,266 8,237.2 z" id="boundary" inkscape:connector-curvature="0" />
	<path style="fill:none;stroke:red;stroke-width:1px;stroke-linecap:butt;stroke-linejoin:miter;stroke-opacity:1" d="M 18.4,218.133 34.4,206.255 z" id="boundary" inkscape:connector-curvature="0" />
	<path style="fill:none;stroke:red;stroke-width:1px;stroke-linecap:butt;stroke-linejoin:miter;stroke-opacity:1" d="M 122.4,210.4 104.8,205.273 z" id="boundary" inkscape:connector-curvature="0" />
	<path style="fill:none;stroke:red;stroke-width:1px;stroke-linecap:butt;stroke-linejoin:miter;stroke-opacity:1" d="M 104.8,205.273 87.2,203.709 z" id="boundary" inkscape:connector-curvature="0" />
	<path style="fill:none;stroke:red;stroke-width:1px;stroke-linecap:butt;stroke-linejoin:miter;stroke-opacity:1" d="M 122.4,210.4 134.933,214.533 z" id="boundary" inkscape:connector-curvature="0" />
	<path style="fill:none;stroke:red;stroke-width:1px;stroke-linecap:butt;stroke-linejoin:miter;stroke-opacity:1" d="M 69.6,202.4 87.2,203.709 z" id="boundary" inkscape:connector-curvature="0" />
	<path style="fill:none;stroke:red;stroke-width:1px;stroke-linecap:butt;stroke-linejoin:miter;stroke-opacity:1" d="M 12,291.657 4,266 z" id="boundary" inkscape:connector-curvature="0" />
	<path style="fill:none;stroke:red;stroke-width:1px;stroke-linecap:butt;stroke-linejoin:miter;stroke-opacity:1" d="M 134.933,214.533 135.821,199.639 z" id="boundary" inkscape:connector-curvature="0" />
	<path style="fill:none;stroke:red;stroke-width:1px;stroke-linecap:butt;stroke-linejoin:miter;stroke-opacity:1" d="M 140,239.467 134.933,214.533 z" id="boundary" inkscape:connector-curvature="0" />
	<path style="fill:none;stroke:red;stroke-width:1px;stroke-linecap:butt;stroke-linejoin:miter;stroke-opacity:1" d="M 172.32,206.88 171.013,220.1 z" id="boundary" inkscape:connector-curvature="0" />
	<path style="fill:none;stroke:red;stroke-width:1px;stroke-linecap:butt;stroke-linejoin:miter;stroke-opacity:1" d="M 205.6,200.533 204.8,217.2 z" id="boundary" inkscape:connector-curvature="0" />
	<path style="fill:none;stroke:red;stroke-width:1px;stroke-linecap:butt;stroke-linejoin:miter;stroke-opacity:1" d="M 183.2,233.818 171.013,220.1 z" id="boundary" inkscape:connector-curvature="0" />
	<path style="fill:none;stroke:red;stroke-width:1px;stroke-linecap:butt;stroke-linejoin:miter;stroke-opacity:1" d="M 204.8,217.2 197.6,231.429 z" id="boundary" inkscape:connector-curvature="0" />
	<path style="fill:none;stroke:red;stroke-width:1px;stroke-linecap:butt;stroke-linejoin:miter;stroke-opacity:1" d="M 146.4,258.24 140,239.467 z" id="boundary" inkscape:connector-curvature="0" />
	<path style="fill:none;stroke:red;stroke-width:1px;stroke-linecap:butt;stroke-linejoin:miter;stroke-opacity:1" d="M 158.4,276.96 146.4,258.24 z" id="boundary" inkscape:connector-curvature="0" />
	<path style="fill:none;stroke:red;stroke-width:1px;stroke-linecap:butt;stroke-linejoin:miter;stroke-opacity:1" d="M 175.2,289.6 158.4,276.96 z" id="boundary" inkscape:connector-curvature="0" />
	<path style="fill:none;stroke:red;stroke-width:1px;stroke-linecap:butt;stroke-linejoin:miter;stroke-opacity:1" d="M 183.2,233.818 197.6,231.429 z" id="boundary" inkscape:connector-curvature="0" />
	<path style="fill:none;stroke:red;stroke-width:1px;stroke-linecap:butt;stroke-linejoin:miter;stroke-opacity:1" d="M 192.8,291.709 175.2,289.6 z" id="boundary" inkscape:connector-curvature="0" />
	<path style="fill:none;stroke:red;stroke-width:1px;stroke-linecap:butt;stroke-linejoin:miter;stroke-opacity:1" d="M 218.4,15.7091 236,10.1818 z" id="boundary" inkscape:connector-curvature="0" />
	<path style="fill:none;stroke:red;stroke-width:1px;stroke-linecap:butt;stroke-linejoin:miter;stroke-opacity:1" d="M 253.6,6.54545 236,10.1818 z" id="boundary" inkscape:connector-curvature="0" />
	<path style="fill:none;stroke:red;stroke-width:1px;stroke-linecap:butt;stroke-linejoin:miter;stroke-opacity:1" d="M 253.6,6.54545 271.2,4.8 z" id="boundary" inkscape:connector-curvature="0" />
	<path style="fill:none;stroke:red;stroke-width:1px;stroke-linecap:butt;stroke-linejoin:miter;stroke-opacity:1" d="M 271.2,4.8 288.8,4 z" id="boundary" inkscape:connector-curvature="0" />
	<path style="fill:none;stroke:red;stroke-width:1px;stroke-linecap:butt;stroke-linejoin:miter;stroke-opacity:1" d="M 222.4,146.2 207.2,131.127 z" id="boundary" inkscape:connector-curvature="0" />
	<path style="fill:none;stroke:red;stroke-width:1px;stroke-linecap:butt;stroke-linejoin:miter;stroke-opacity:1" d="M 232,164 222.4,146.2 z" id="boundary" inkscape:connector-curvature="0" />
	<path style="fill:none;stroke:red;stroke-width:1px;stroke-linecap:butt;stroke-linejoin:miter;stroke-opacity:1" d="M 232,164 236.8,180.4 z" id="boundary" inkscape:connector-curvature="0" />
	<path style="fill:none;stroke:red;stroke-width:1px;stroke-linecap:butt;stroke-linejoin:miter;stroke-opacity:1" d="M 274.953,176.724 287.2,169.091 z" id="boundary" inkscape:connector-curvature="0" />
	<path style="fill:none;stroke:red;stroke-width:1px;stroke-linecap:butt;stroke-linejoin:miter;stroke-opacity:1" d="M 274.953,176.724 273.316,198.003 z" id="boundary" inkscape:connector-curvature="0" />
	<path style="fill:none;stroke:red;stroke-width:1px;stroke-linecap:butt;stroke-linejoin:miter;stroke-opacity:1" d="M 304.8,165.673 287.2,169.091 z" id="boundary" inkscape:connector-curvature="0" />
	<path style="fill:none;stroke:red;stroke-width:1px;stroke-linecap:butt;stroke-linejoin:miter;stroke-opacity:1" d="M 240,199.2 236.8,180.4 z" id="boundary" inkscape:connector-curvature="0" />
	<path style="fill:none;stroke:red;stroke-width:1px;stroke-linecap:butt;stroke-linejoin:miter;stroke-opacity:1" d="M 288.8,4 306.4,5.23636 z" id="boundary" inkscape:connector-curvature="0" />
	<path style="fill:none;stroke:red;stroke-width:1px;stroke-linecap:butt;stroke-linejoin:miter;stroke-opacity:1" d="M 324,7.12727 306.4,5.23636 z" id="boundary" inkscape:connector-curvature="0" />
	<path style="fill:none;stroke:red;stroke-width:1px;stroke-linecap:butt;stroke-linejoin:miter;stroke-opacity:1" d="M 324,7.12727 341.6,10.1091 z" id="boundary" inkscape:connector-curvature="0" />
	<path style="fill:none;stroke:red;stroke-width:1px;stroke-linecap:butt;stroke-linejoin:miter;stroke-opacity:1" d="M 341.6,10.1091 359.2,13.9636 z" id="boundary" inkscape:connector-curvature="0" />
	<path style="fill:none;stroke:red;stroke-width:1px;stroke-linecap:butt;stroke-linejoin:miter;stroke-opacity:1" d="M 376.8,18.8364 359.2,13.9636 z" id="boundary" inkscape:connector-curvature="0" />
	<path style="fill:none;stroke:red;stroke-width:1px;stroke-linecap:butt;stroke-linejoin:miter;stroke-opacity:1" d="M 376.8,18.8364 394.4,24.3636 z" id="boundary" inkscape:connector-curvature="0" />
	<path style="fill:none;stroke:red;stroke-width:1px;stroke-linecap:butt;stroke-linejoin:miter;stroke-opacity:1" d="M 394.4,24.3636 412,30.7636 z" id="boundary" inkscape:connector-curvature="0" />
	<path style="fill:none;stroke:red;stroke-width:1px;stroke-linecap:butt;stroke-linejoin:miter;stroke-opacity:1" d="M 429.6,37.7455 412,30.7636 z" id="boundary" inkscape:connector-curvature="0" />
	<path style="fill:none;stroke:red;stroke-width:1px;stroke-linecap:butt;stroke-linejoin:miter;stroke-opacity:1" d="M 304.8,165.673 322.4,165.891 z" id="boundary" inkscape:connector-curvature="0" />
	<path style="fill:none;stroke:red;stroke-width:1px;stroke-linecap:butt;stroke-linejoin:miter;stroke-opacity:1" d="M 322.4,165.891 340,169.018 z" id="boundary" inkscape:connector-curvature="0" />
	<path style="fill:none;stroke:red;stroke-width:1px;stroke-linecap:butt;stroke-linejoin:miter;stroke-opacity:1" d="M 357.6,175.127 340,169.018 z" id="boundary" inkscape:connector-curvature="0" />
	<path style="fill:none;stroke:red;stroke-width:1px;stroke-linecap:butt;stroke-linejoin:miter;stroke-opacity:1" d="M 375.2,184.364 357.6,175.127 z" id="boundary" inkscape:connector-curvature="0" />
	<path style="fill:none;stroke:red;stroke-width:1px;stroke-linecap:butt;stroke-linejoin:miter;stroke-opacity:1" d="M 392.8,198.036 375.2,184.364 z" id="boundary" inkscape:connector-curvature="0" />
	<path style="fill:none;stroke:red;stroke-width:1px;stroke-linecap:butt;stroke-linejoin:miter;stroke-opacity:1" d="M 240,214.4 237.6,233.6 z" id="boundary" inkscape:connector-curvature="0" />
	<path style="fill:none;stroke:red;stroke-width:1px;stroke-linecap:butt;stroke-linejoin:miter;stroke-opacity:1" d="M 237.6,233.6 232,252.8 z" id="boundary" inkscape:connector-curvature="0" />
	<path style="fill:none;stroke:red;stroke-width:1px;stroke-linecap:butt;stroke-linejoin:miter;stroke-opacity:1" d="M 240,214.4 240,199.2 z" id="boundary" inkscape:connector-curvature="0" />
	<path style="fill:none;stroke:red;stroke-width:1px;stroke-linecap:butt;stroke-linejoin:miter;stroke-opacity:1" d="M 273.316,198.003 285.6,216.436 z" id="boundary" inkscape:connector-curvature="0" />
	<path style="fill:none;stroke:red;stroke-width:1px;stroke-linecap:butt;stroke-linejoin:miter;stroke-opacity:1" d="M 232,252.8 224,268.933 z" id="boundary" inkscape:connector-curvature="0" />
	<path style="fill:none;stroke:red;stroke-width:1px;stroke-linecap:butt;stroke-linejoin:miter;stroke-opacity:1" d="M 224,268.933 210.4,283.782 z" id="boundary" inkscape:connector-curvature="0" />
	<path style="fill:none;stroke:red;stroke-width:1px;stroke-linecap:butt;stroke-linejoin:miter;stroke-opacity:1" d="M 210.4,283.782 192.8,291.709 z" id="boundary" inkscape:connector-curvature="0" />
	<path style="fill:none;stroke:red;stroke-width:1px;stroke-linecap:butt;stroke-linejoin:miter;stroke-opacity:1" d="M 285.6,216.436 303.2,231.636 z" id="boundary" inkscape:connector-curvature="0" />
	<path style="fill:none;stroke:red;stroke-width:1px;stroke-linecap:butt;stroke-linejoin:miter;stroke-opacity:1" d="M 392.8,198.036 406.4,213.867 z" id="boundary" inkscape:connector-curvature="0" />
	<path style="fill:none;stroke:red;stroke-width:1px;stroke-linecap:butt;stroke-linejoin:miter;stroke-opacity:1" d="M 413.6,232.8 406.4,213.867 z" id="boundary" inkscape:connector-curvature="0" />
	<path style="fill:none;stroke:red;stroke-width:1px;stroke-linecap:butt;stroke-linejoin:miter;stroke-opacity:1" d="M 316,244.64 303.2,231.636 z" id="boundary" inkscape:connector-curvature="0" />
	<path style="fill:none;stroke:red;stroke-width:1px;stroke-linecap:butt;stroke-linejoin:miter;stroke-opacity:1" d="M 321.6,258 316,244.64 z" id="boundary" inkscape:connector-curvature="0" />
	<path style="fill:none;stroke:red;stroke-width:1px;stroke-linecap:butt;stroke-linejoin:miter;stroke-opacity:1" d="M 318.4,270.6 321.6,258 z" id="boundary" inkscape:connector-curvature="0" />
	<path style="fill:none;stroke:red;stroke-width:1px;stroke-linecap:butt;stroke-linejoin:miter;stroke-opacity:1" d="M 318.4,270.6 307.2,286.56 z" id="boundary" inkscape:connector-curvature="0" />
	<path style="fill:none;stroke:red;stroke-width:1px;stroke-linecap:butt;stroke-linejoin:miter;stroke-opacity:1" d="M 400.8,297.333 406.4,279.2 z" id="boundary" inkscape:connector-curvature="0" />
	<path style="fill:none;stroke:red;stroke-width:1px;stroke-linecap:butt;stroke-linejoin:miter;stroke-opacity:1" d="M 412.8,257.2 406.4,279.2 z" id="boundary" inkscape:connector-curvature="0" />
	<path style="fill:none;stroke:red;stroke-width:1px;stroke-linecap:butt;stroke-linejoin:miter;stroke-opacity:1" d="M 413.6,232.8 412.8,257.2 z" id="boundary" inkscape:connector-curvature="0" />
	<path style="fill:none;stroke:red;stroke-width:1px;stroke-linecap:butt;stroke-linejoin:miter;stroke-opacity:1" d="M 307.2,286.56 290.4,299.418 z" id="boundary" inkscape:connector-curvature="0" />
	<path style="fill:none;stroke:red;stroke-width:1px;stroke-linecap:butt;stroke-linejoin:miter;stroke-opacity:1" d="M 26.4,307.2 12,291.657 z" id="boundary" inkscape:connector-curvature="0" />
	<path style="fill:none;stroke:red;stroke-width:1px;stroke-linecap:butt;stroke-linejoin:miter;stroke-opacity:1" d="M 44,318.691 26.4,307.2 z" id="boundary" inkscape:connector-curvature="0" />
	<path style="fill:none;stroke:red;stroke-width:1px;stroke-linecap:butt;stroke-linejoin:miter;stroke-opacity:1" d="M 44,318.691 61.6,325.455 z" id="boundary" inkscape:connector-curvature="0" />
	<path style="fill:none;stroke:red;stroke-width:1px;stroke-linecap:butt;stroke-linejoin:miter;stroke-opacity:1" d="M 79.2,329.673 96.8,331.927 z" id="boundary" inkscape:connector-curvature="0" />
	<path style="fill:none;stroke:red;stroke-width:1px;stroke-linecap:butt;stroke-linejoin:miter;stroke-opacity:1" d="M 79.2,329.673 61.6,325.455 z" id="boundary" inkscape:connector-curvature="0" />
	<path style="fill:none;stroke:red;stroke-width:1px;stroke-linecap:butt;stroke-linejoin:miter;stroke-opacity:1" d="M 114.4,332.8 96.8,331.927 z" id="boundary" inkscape:connector-curvature="0" />
	<path style="fill:none;stroke:red;stroke-width:1px;stroke-linecap:butt;stroke-linejoin:miter;stroke-opacity:1" d="M 167.2,329.891 149.6,331.782 z" id="boundary" inkscape:connector-curvature="0" />
	<path style="fill:none;stroke:red;stroke-width:1px;stroke-linecap:butt;stroke-linejoin:miter;stroke-opacity:1" d="M 184.8,327.709 167.2,329.891 z" id="boundary" inkscape:connector-curvature="0" />
	<path style="fill:none;stroke:red;stroke-width:1px;stroke-linecap:butt;stroke-linejoin:miter;stroke-opacity:1" d="M 149.6,331.782 132,332.655 z" id="boundary" inkscape:connector-curvature="0" />
	<path style="fill:none;stroke:red;stroke-width:1px;stroke-linecap:butt;stroke-linejoin:miter;stroke-opacity:1" d="M 114.4,332.8 132,332.655 z" id="boundary" inkscape:connector-curvature="0" />
	<path style="fill:none;stroke:red;stroke-width:1px;stroke-linecap:butt;stroke-linejoin:miter;stroke-opacity:1" d="M 202.4,325.091 184.8,327.709 z" id="boundary" inkscape:connector-curvature="0" />
	<path style="fill:none;stroke:red;stroke-width:1px;stroke-linecap:butt;stroke-linejoin:miter;stroke-opacity:1" d="M 202.4,325.091 220,322.036 z" id="boundary" inkscape:connector-curvature="0" />
	<path style="fill:none;stroke:red;stroke-width:1px;stroke-linecap:butt;stroke-linejoin:miter;stroke-opacity:1" d="M 290.4,299.418 272.8,308.073 z" id="boundary" inkscape:connector-curvature="0" />
	<path style="fill:none;stroke:red;stroke-width:1px;stroke-linecap:butt;stroke-linejoin:miter;stroke-opacity:1" d="M 272.8,308.073 255.2,313.964 z" id="boundary" inkscape:connector-curvature="0" />
	<path style="fill:none;stroke:red;stroke-width:1px;stroke-linecap:butt;stroke-linejoin:miter;stroke-opacity:1" d="M 237.6,318.545 255.2,313.964 z" id="boundary" inkscape:connector-curvature="0" />
	<path style="fill:none;stroke:red;stroke-width:1px;stroke-linecap:butt;stroke-linejoin:miter;stroke-opacity:1" d="M 220,322.036 237.6,318.545 z" id="boundary" inkscape:connector-curvature="0" />
	<path style="fill:none;stroke:red;stroke-width:1px;stroke-linecap:butt;stroke-linejoin:miter;stroke-opacity:1" d="M 304.8,468.178 290.4,486.133 z" id="boundary" inkscape:connector-curvature="0" />
	<path style="fill:none;stroke:red;stroke-width:1px;stroke-linecap:butt;stroke-linejoin:miter;stroke-opacity:1" d="M 276.8,504.5 264,523.2 z" id="boundary" inkscape:connector-curvature="0" />
	<path style="fill:none;stroke:red;stroke-width:1px;stroke-linecap:butt;stroke-linejoin:miter;stroke-opacity:1" d="M 252,542.4 264,523.2 z" id="boundary" inkscape:connector-curvature="0" />
	<path style="fill:none;stroke:red;stroke-width:1px;stroke-linecap:butt;stroke-linejoin:miter;stroke-opacity:1" d="M 290.4,486.133 276.8,504.5 z" id="boundary" inkscape:connector-curvature="0" />
	<path style="fill:none;stroke:red;stroke-width:1px;stroke-linecap:butt;stroke-linejoin:miter;stroke-opacity:1" d="M 209.6,634.8 216.8,614.24 z" id="boundary" inkscape:connector-curvature="0" />
	<path style="fill:none;stroke:red;stroke-width:1px;stroke-linecap:butt;stroke-linejoin:miter;stroke-opacity:1" d="M 224.8,594.88 216.8,614.24 z" id="boundary" inkscape:connector-curvature="0" />
	<path style="fill:none;stroke:red;stroke-width:1px;stroke-linecap:butt;stroke-linejoin:miter;stroke-opacity:1" d="M 232.8,577.76 224.8,594.88 z" id="boundary" inkscape:connector-curvature="0" />
	<path style="fill:none;stroke:red;stroke-width:1px;stroke-linecap:butt;stroke-linejoin:miter;stroke-opacity:1" d="M 197.067,695.467 200,674 z" id="boundary" inkscape:connector-curvature="0" />
	<path style="fill:none;stroke:red;stroke-width:1px;stroke-linecap:butt;stroke-linejoin:miter;stroke-opacity:1" d="M 200,674 204,654.933 z" id="boundary" inkscape:connector-curvature="0" />
	<path style="fill:none;stroke:red;stroke-width:1px;stroke-linecap:butt;stroke-linejoin:miter;stroke-opacity:1" d="M 209.6,634.8 204,654.933 z" id="boundary" inkscape:connector-curvature="0" />
	<path style="fill:none;stroke:red;stroke-width:1px;stroke-linecap:butt;stroke-linejoin:miter;stroke-opacity:1" d="M 241.6,560.667 232.8,577.76 z" id="boundary" inkscape:connector-curvature="0" />
	<path style="fill:none;stroke:red;stroke-width:1px;stroke-linecap:butt;stroke-linejoin:miter;stroke-opacity:1" d="M 196.8,737.2 200,757.2 z" id="boundary" inkscape:connector-curvature="0" />
	<path style="fill:none;stroke:red;stroke-width:1px;stroke-linecap:butt;stroke-linejoin:miter;stroke-opacity:1" d="M 195.2,716.4 196.8,737.2 z" id="boundary" inkscape:connector-curvature="0" />
	<path style="fill:none;stroke:red;stroke-width:1px;stroke-linecap:butt;stroke-linejoin:miter;stroke-opacity:1" d="M 200,757.2 206.4,780.4 z" id="boundary" inkscape:connector-curvature="0" />
	<path style="fill:none;stroke:red;stroke-width:1px;stroke-linecap:butt;stroke-linejoin:miter;stroke-opacity:1" d="M 213.6,799.84 206.4,780.4 z" id="boundary" inkscape:connector-curvature="0" />
	<path style="fill:none;stroke:red;stroke-width:1px;stroke-linecap:butt;stroke-linejoin:miter;stroke-opacity:1" d="M 222.4,818.4 232.8,837.6 z" id="boundary" inkscape:connector-curvature="0" />
	<path style="fill:none;stroke:red;stroke-width:1px;stroke-linecap:butt;stroke-linejoin:miter;stroke-opacity:1" d="M 195.2,716.4 197.067,695.467 z" id="boundary" inkscape:connector-curvature="0" />
	<path style="fill:none;stroke:red;stroke-width:1px;stroke-linecap:butt;stroke-linejoin:miter;stroke-opacity:1" d="M 222.4,818.4 213.6,799.84 z" id="boundary" inkscape:connector-curvature="0" />
	<path style="fill:none;stroke:red;stroke-width:1px;stroke-linecap:butt;stroke-linejoin:miter;stroke-opacity:1" d="M 232.8,837.6 244.8,856.2 z" id="boundary" inkscape:connector-curvature="0" />
	<path style="fill:none;stroke:red;stroke-width:1px;stroke-linecap:butt;stroke-linejoin:miter;stroke-opacity:1" d="M 244.8,856.2 258.4,874.667 z" id="boundary" inkscape:connector-curvature="0" />
	<path style="fill:none;stroke:red;stroke-width:1px;stroke-linecap:butt;stroke-linejoin:miter;stroke-opacity:1" d="M 241.6,560.667 252,542.4 z" id="boundary" inkscape:connector-curvature="0" />
	<path style="fill:none;stroke:red;stroke-width:1px;stroke-linecap:butt;stroke-linejoin:miter;stroke-opacity:1" d="M 273.6,892.64 258.4,874.667 z" id="boundary" inkscape:connector-curvature="0" />
	<path style="fill:none;stroke:red;stroke-width:1px;stroke-linecap:butt;stroke-linejoin:miter;stroke-opacity:1" d="M 290.4,910.109 273.6,892.64 z" id="boundary" inkscape:connector-curvature="0" />
	<path style="fill:none;stroke:red;stroke-width:1px;stroke-linecap:butt;stroke-linejoin:miter;stroke-opacity:1" d="M 290.4,910.109 308,926.255 z" id="boundary" inkscape:connector-curvature="0" />
	<path style="fill:none;stroke:red;stroke-width:1px;stroke-linecap:butt;stroke-linejoin:miter;stroke-opacity:1" d="M 313.418,455.805 304.8,468.178 z" id="boundary" inkscape:connector-curvature="0" />
	<path style="fill:none;stroke:red;stroke-width:1px;stroke-linecap:butt;stroke-linejoin:miter;stroke-opacity:1" d="M 320.784,445.984 313.418,455.805 z" id="boundary" inkscape:connector-curvature="0" />
	<path style="fill:none;stroke:red;stroke-width:1px;stroke-linecap:butt;stroke-linejoin:miter;stroke-opacity:1" d="M 328.968,441.074 320.784,445.984 z" id="boundary" inkscape:connector-curvature="0" />
	<path style="fill:none;stroke:red;stroke-width:1px;stroke-linecap:butt;stroke-linejoin:miter;stroke-opacity:1" d="M 338.4,417.12 328.968,441.074 z" id="boundary" inkscape:connector-curvature="0" />
	<path style="fill:none;stroke:red;stroke-width:1px;stroke-linecap:butt;stroke-linejoin:miter;stroke-opacity:1" d="M 331.424,450.895 328.968,441.074 z" id="boundary" inkscape:connector-curvature="0" />
	<path style="fill:none;stroke:red;stroke-width:1px;stroke-linecap:butt;stroke-linejoin:miter;stroke-opacity:1" d="M 330.933,479.733 330.605,462.353 z" id="boundary" inkscape:connector-curvature="0" />
	<path style="fill:none;stroke:red;stroke-width:1px;stroke-linecap:butt;stroke-linejoin:miter;stroke-opacity:1" d="M 331.424,450.895 330.605,462.353 z" id="boundary" inkscape:connector-curvature="0" />
	<path style="fill:none;stroke:red;stroke-width:1px;stroke-linecap:butt;stroke-linejoin:miter;stroke-opacity:1" d="M 330.933,479.733 336,501 z" id="boundary" inkscape:connector-curvature="0" />
	<path style="fill:none;stroke:red;stroke-width:1px;stroke-linecap:butt;stroke-linejoin:miter;stroke-opacity:1" d="M 347.2,399.733 338.4,417.12 z" id="boundary" inkscape:connector-curvature="0" />
	<path style="fill:none;stroke:red;stroke-width:1px;stroke-linecap:butt;stroke-linejoin:miter;stroke-opacity:1" d="M 357.6,382.629 347.2,399.733 z" id="boundary" inkscape:connector-curvature="0" />
	<path style="fill:none;stroke:red;stroke-width:1px;stroke-linecap:butt;stroke-linejoin:miter;stroke-opacity:1" d="M 395.2,314.8 388,332 z" id="boundary" inkscape:connector-curvature="0" />
	<path style="fill:none;stroke:red;stroke-width:1px;stroke-linecap:butt;stroke-linejoin:miter;stroke-opacity:1" d="M 388,332 379.2,348.267 z" id="boundary" inkscape:connector-curvature="0" />
	<path style="fill:none;stroke:red;stroke-width:1px;stroke-linecap:butt;stroke-linejoin:miter;stroke-opacity:1" d="M 368.8,365.143 357.6,382.629 z" id="boundary" inkscape:connector-curvature="0" />
	<path style="fill:none;stroke:red;stroke-width:1px;stroke-linecap:butt;stroke-linejoin:miter;stroke-opacity:1" d="M 368.8,365.143 379.2,348.267 z" id="boundary" inkscape:connector-curvature="0" />
	<path style="fill:none;stroke:red;stroke-width:1px;stroke-linecap:butt;stroke-linejoin:miter;stroke-opacity:1" d="M 395.2,314.8 400.8,297.333 z" id="boundary" inkscape:connector-curvature="0" />
	<path style="fill:none;stroke:red;stroke-width:1px;stroke-linecap:butt;stroke-linejoin:miter;stroke-opacity:1" d="M 343.2,521.44 336,501 z" id="boundary" inkscape:connector-curvature="0" />
	<path style="fill:none;stroke:red;stroke-width:1px;stroke-linecap:butt;stroke-linejoin:miter;stroke-opacity:1" d="M 352,539.733 343.2,521.44 z" id="boundary" inkscape:connector-curvature="0" />
	<path style="fill:none;stroke:red;stroke-width:1px;stroke-linecap:butt;stroke-linejoin:miter;stroke-opacity:1" d="M 352,539.733 362.4,556.914 z" id="boundary" inkscape:connector-curvature="0" />
	<path style="fill:none;stroke:red;stroke-width:1px;stroke-linecap:butt;stroke-linejoin:miter;stroke-opacity:1" d="M 362.4,556.914 376.8,577.127 z" id="boundary" inkscape:connector-curvature="0" />
	<path style="fill:none;stroke:red;stroke-width:1px;stroke-linecap:butt;stroke-linejoin:miter;stroke-opacity:1" d="M 394.4,594.109 376.8,577.127 z" id="boundary" inkscape:connector-curvature="0" />
	<path style="fill:none;stroke:red;stroke-width:1px;stroke-linecap:butt;stroke-linejoin:miter;stroke-opacity:1" d="M 376.8,577.127 363.2,588.5 z" id="boundary" inkscape:connector-curvature="0" />
	<path style="fill:none;stroke:red;stroke-width:1px;stroke-linecap:butt;stroke-linejoin:miter;stroke-opacity:1" d="M 328,642.667 320,662 z" id="boundary" inkscape:connector-curvature="0" />
	<path style="fill:none;stroke:red;stroke-width:1px;stroke-linecap:butt;stroke-linejoin:miter;stroke-opacity:1" d="M 338.4,624 328,642.667 z" id="boundary" inkscape:connector-curvature="0" />
	<path style="fill:none;stroke:red;stroke-width:1px;stroke-linecap:butt;stroke-linejoin:miter;stroke-opacity:1" d="M 315.2,682 320,662 z" id="boundary" inkscape:connector-curvature="0" />
	<path style="fill:none;stroke:red;stroke-width:1px;stroke-linecap:butt;stroke-linejoin:miter;stroke-opacity:1" d="M 314.933,711.2 315.2,682 z" id="boundary" inkscape:connector-curvature="0" />
	<path style="fill:none;stroke:red;stroke-width:1px;stroke-linecap:butt;stroke-linejoin:miter;stroke-opacity:1" d="M 322.4,753.067 328,770.6 z" id="boundary" inkscape:connector-curvature="0" />
	<path style="fill:none;stroke:red;stroke-width:1px;stroke-linecap:butt;stroke-linejoin:miter;stroke-opacity:1" d="M 317.6,732.267 314.933,711.2 z" id="boundary" inkscape:connector-curvature="0" />
	<path style="fill:none;stroke:red;stroke-width:1px;stroke-linecap:butt;stroke-linejoin:miter;stroke-opacity:1" d="M 322.4,753.067 317.6,732.267 z" id="boundary" inkscape:connector-curvature="0" />
	<path style="fill:none;stroke:red;stroke-width:1px;stroke-linecap:butt;stroke-linejoin:miter;stroke-opacity:1" d="M 350.4,605.8 338.4,624 z" id="boundary" inkscape:connector-curvature="0" />
	<path style="fill:none;stroke:red;stroke-width:1px;stroke-linecap:butt;stroke-linejoin:miter;stroke-opacity:1" d="M 335.2,788 344,805.6 z" id="boundary" inkscape:connector-curvature="0" />
	<path style="fill:none;stroke:red;stroke-width:1px;stroke-linecap:butt;stroke-linejoin:miter;stroke-opacity:1" d="M 335.2,788 328,770.6 z" id="boundary" inkscape:connector-curvature="0" />
	<path style="fill:none;stroke:red;stroke-width:1px;stroke-linecap:butt;stroke-linejoin:miter;stroke-opacity:1" d="M 344,805.6 355.2,823.3 z" id="boundary" inkscape:connector-curvature="0" />
	<path style="fill:none;stroke:red;stroke-width:1px;stroke-linecap:butt;stroke-linejoin:miter;stroke-opacity:1" d="M 355.2,823.3 369.6,841.6 z" id="boundary" inkscape:connector-curvature="0" />
	<path style="fill:none;stroke:red;stroke-width:1px;stroke-linecap:butt;stroke-linejoin:miter;stroke-opacity:1" d="M 363.2,588.5 350.4,605.8 z" id="boundary" inkscape:connector-curvature="0" />
	<path style="fill:none;stroke:red;stroke-width:1px;stroke-linecap:butt;stroke-linejoin:miter;stroke-opacity:1" d="M 325.6,940.364 308,926.255 z" id="boundary" inkscape:connector-curvature="0" />
	<path style="fill:none;stroke:red;stroke-width:1px;stroke-linecap:butt;stroke-linejoin:miter;stroke-opacity:1" d="M 343.2,952.8 360.8,963.418 z" id="boundary" inkscape:connector-curvature="0" />
	<path style="fill:none;stroke:red;stroke-width:1px;stroke-linecap:butt;stroke-linejoin:miter;stroke-opacity:1" d="M 343.2,952.8 325.6,940.364 z" id="boundary" inkscape:connector-curvature="0" />
	<path style="fill:none;stroke:red;stroke-width:1px;stroke-linecap:butt;stroke-linejoin:miter;stroke-opacity:1" d="M 394.4,594.109 412,608.727 z" id="boundary" inkscape:connector-curvature="0" />
	<path style="fill:none;stroke:red;stroke-width:1px;stroke-linecap:butt;stroke-linejoin:miter;stroke-opacity:1" d="M 386.4,857.964 404,871.273 z" id="boundary" inkscape:connector-curvature="0" />
	<path style="fill:none;stroke:red;stroke-width:1px;stroke-linecap:butt;stroke-linejoin:miter;stroke-opacity:1" d="M 386.4,857.964 369.6,841.6 z" id="boundary" inkscape:connector-curvature="0" />
	<path style="fill:none;stroke:red;stroke-width:1px;stroke-linecap:butt;stroke-linejoin:miter;stroke-opacity:1" d="M 378.4,972.218 360.8,963.418 z" id="boundary" inkscape:connector-curvature="0" />
	<path style="fill:none;stroke:red;stroke-width:1px;stroke-linecap:butt;stroke-linejoin:miter;stroke-opacity:1" d="M 396,979.491 378.4,972.218 z" id="boundary" inkscape:connector-curvature="0" />
	<path style="fill:none;stroke:red;stroke-width:1px;stroke-linecap:butt;stroke-linejoin:miter;stroke-opacity:1" d="M 421.6,881.236 404,871.273 z" id="boundary" inkscape:connector-curvature="0" />
	<path style="fill:none;stroke:red;stroke-width:1px;stroke-linecap:butt;stroke-linejoin:miter;stroke-opacity:1" d="M 413.6,985.164 396,979.491 z" id="boundary" inkscape:connector-curvature="0" />
	<path style="fill:none;stroke:red;stroke-width:1px;stroke-linecap:butt;stroke-linejoin:miter;stroke-opacity:1" d="M 421.6,881.236 439.2,889.164 z" id="boundary" inkscape:connector-curvature="0" />
	<path style="fill:none;stroke:red;stroke-width:1px;stroke-linecap:butt;stroke-linejoin:miter;stroke-opacity:1" d="M 412,608.727 429.6,620.509 z" id="boundary" inkscape:connector-curvature="0" />
	<path style="fill:none;stroke:red;stroke-width:1px;stroke-linecap:butt;stroke-linejoin:miter;stroke-opacity:1" d="M 413.6,985.164 431.2,989.673 z" id="boundary" inkscape:connector-curvature="0" />
	<path style="fill:none;stroke:red;stroke-width:1px;stroke-linecap:butt;stroke-linejoin:miter;stroke-opacity:1" d="M 429.6,37.7455 447.2,46.0364 z" id="boundary" inkscape:connector-curvature="0" />
	<path style="fill:none;stroke:red;stroke-width:1px;stroke-linecap:butt;stroke-linejoin:miter;stroke-opacity:1" d="M 447.2,46.0364 464.8,55.9273 z" id="boundary" inkscape:connector-curvature="0" />
	<path style="fill:none;stroke:red;stroke-width:1px;stroke-linecap:butt;stroke-linejoin:miter;stroke-opacity:1" d="M 482.4,67.4182 464.8,55.9273 z" id="boundary" inkscape:connector-curvature="0" />
	<path style="fill:none;stroke:red;stroke-width:1px;stroke-linecap:butt;stroke-linejoin:miter;stroke-opacity:1" d="M 482.4,67.4182 500,81.3818 z" id="boundary" inkscape:connector-curvature="0" />
	<path style="fill:none;stroke:red;stroke-width:1px;stroke-linecap:butt;stroke-linejoin:miter;stroke-opacity:1" d="M 516.8,97.52 531.2,114.9 z" id="boundary" inkscape:connector-curvature="0" />
	<path style="fill:none;stroke:red;stroke-width:1px;stroke-linecap:butt;stroke-linejoin:miter;stroke-opacity:1" d="M 516.8,97.52 500,81.3818 z" id="boundary" inkscape:connector-curvature="0" />
	<path style="fill:none;stroke:red;stroke-width:1px;stroke-linecap:butt;stroke-linejoin:miter;stroke-opacity:1" d="M 531.2,114.9 542.4,132.4 z" id="boundary" inkscape:connector-curvature="0" />
	<path style="fill:none;stroke:red;stroke-width:1px;stroke-linecap:butt;stroke-linejoin:miter;stroke-opacity:1" d="M 542.4,132.4 551.2,149.76 z" id="boundary" inkscape:connector-curvature="0" />
	<path style="fill:none;stroke:red;stroke-width:1px;stroke-linecap:butt;stroke-linejoin:miter;stroke-opacity:1" d="M 551.2,149.76 558.4,168.6 z" id="boundary" inkscape:connector-curvature="0" />
	<path style="fill:none;stroke:red;stroke-width:1px;stroke-linecap:butt;stroke-linejoin:miter;stroke-opacity:1" d="M 563.2,186.4 566.133,206.667 z" id="boundary" inkscape:connector-curvature="0" />
	<path style="fill:none;stroke:red;stroke-width:1px;stroke-linecap:butt;stroke-linejoin:miter;stroke-opacity:1" d="M 563.2,186.4 558.4,168.6 z" id="boundary" inkscape:connector-curvature="0" />
	<path style="fill:none;stroke:red;stroke-width:1px;stroke-linecap:butt;stroke-linejoin:miter;stroke-opacity:1" d="M 566.133,206.667 568,227.2 z" id="boundary" inkscape:connector-curvature="0" />
	<path style="fill:none;stroke:red;stroke-width:1px;stroke-linecap:butt;stroke-linejoin:miter;stroke-opacity:1" d="M 568,227.2 566.4,248 z" id="boundary" inkscape:connector-curvature="0" />
	<path style="fill:none;stroke:red;stroke-width:1px;stroke-linecap:butt;stroke-linejoin:miter;stroke-opacity:1" d="M 566.4,248 565.492,264.295 z" id="boundary" inkscape:connector-curvature="0" />
	<path style="fill:none;stroke:red;stroke-width:1px;stroke-linecap:butt;stroke-linejoin:miter;stroke-opacity:1" d="M 563.855,280.663 561.4,291.303 z" id="boundary" inkscape:connector-curvature="0" />
	<path style="fill:none;stroke:red;stroke-width:1px;stroke-linecap:butt;stroke-linejoin:miter;stroke-opacity:1" d="M 561.4,291.303 556.8,305.8 z" id="boundary" inkscape:connector-curvature="0" />
	<path style="fill:none;stroke:red;stroke-width:1px;stroke-linecap:butt;stroke-linejoin:miter;stroke-opacity:1" d="M 563.855,280.663 565.492,264.295 z" id="boundary" inkscape:connector-curvature="0" />
	<path style="fill:none;stroke:red;stroke-width:1px;stroke-linecap:butt;stroke-linejoin:miter;stroke-opacity:1" d="M 533.6,361.92 541.6,344.32 z" id="boundary" inkscape:connector-curvature="0" />
	<path style="fill:none;stroke:red;stroke-width:1px;stroke-linecap:butt;stroke-linejoin:miter;stroke-opacity:1" d="M 549.6,326.24 541.6,344.32 z" id="boundary" inkscape:connector-curvature="0" />
	<path style="fill:none;stroke:red;stroke-width:1px;stroke-linecap:butt;stroke-linejoin:miter;stroke-opacity:1" d="M 556.8,305.8 549.6,326.24 z" id="boundary" inkscape:connector-curvature="0" />
	<path style="fill:none;stroke:red;stroke-width:1px;stroke-linecap:butt;stroke-linejoin:miter;stroke-opacity:1" d="M 589.6,267.564 576.95,276.571 z" id="boundary" inkscape:connector-curvature="0" />
	<path style="fill:none;stroke:red;stroke-width:1px;stroke-linecap:butt;stroke-linejoin:miter;stroke-opacity:1" d="M 563.855,280.663 576.95,276.571 z" id="boundary" inkscape:connector-curvature="0" />
	<path style="fill:none;stroke:red;stroke-width:1px;stroke-linecap:butt;stroke-linejoin:miter;stroke-opacity:1" d="M 607.2,261.673 589.6,267.564 z" id="boundary" inkscape:connector-curvature="0" />
	<path style="fill:none;stroke:red;stroke-width:1px;stroke-linecap:butt;stroke-linejoin:miter;stroke-opacity:1" d="M 533.6,361.92 525.6,380.8 z" id="boundary" inkscape:connector-curvature="0" />
	<path style="fill:none;stroke:red;stroke-width:1px;stroke-linecap:butt;stroke-linejoin:miter;stroke-opacity:1" d="M 512.295,434.526 517.205,445.166 z" id="boundary" inkscape:connector-curvature="0" />
	<path style="fill:none;stroke:red;stroke-width:1px;stroke-linecap:butt;stroke-linejoin:miter;stroke-opacity:1" d="M 513.932,414.884 512.295,434.526 z" id="boundary" inkscape:connector-curvature="0" />
	<path style="fill:none;stroke:red;stroke-width:1px;stroke-linecap:butt;stroke-linejoin:miter;stroke-opacity:1" d="M 519.2,399.733 513.932,414.884 z" id="boundary" inkscape:connector-curvature="0" />
	<path style="fill:none;stroke:red;stroke-width:1px;stroke-linecap:butt;stroke-linejoin:miter;stroke-opacity:1" d="M 517.205,445.166 518.024,461.534 z" id="boundary" inkscape:connector-curvature="0" />
	<path style="fill:none;stroke:red;stroke-width:1px;stroke-linecap:butt;stroke-linejoin:miter;stroke-opacity:1" d="M 531.118,436.982 517.205,445.166 z" id="boundary" inkscape:connector-curvature="0" />
	<path style="fill:none;stroke:red;stroke-width:1px;stroke-linecap:butt;stroke-linejoin:miter;stroke-opacity:1" d="M 524,474.286 518.024,461.534 z" id="boundary" inkscape:connector-curvature="0" />
	<path style="fill:none;stroke:red;stroke-width:1px;stroke-linecap:butt;stroke-linejoin:miter;stroke-opacity:1" d="M 525.6,380.8 519.2,399.733 z" id="boundary" inkscape:connector-curvature="0" />
	<path style="fill:none;stroke:red;stroke-width:1px;stroke-linecap:butt;stroke-linejoin:miter;stroke-opacity:1" d="M 524,474.286 538.4,485.091 z" id="boundary" inkscape:connector-curvature="0" />
	<path style="fill:none;stroke:red;stroke-width:1px;stroke-linecap:butt;stroke-linejoin:miter;stroke-opacity:1" d="M 559.2,418.109 541.6,428.8 z" id="boundary" inkscape:connector-curvature="0" />
	<path style="fill:none;stroke:red;stroke-width:1px;stroke-linecap:butt;stroke-linejoin:miter;stroke-opacity:1" d="M 541.6,428.8 531.118,436.982 z" id="boundary" inkscape:connector-curvature="0" />
	<path style="fill:none;stroke:red;stroke-width:1px;stroke-linecap:butt;stroke-linejoin:miter;stroke-opacity:1" d="M 594.4,405.382 576.8,410.036 z" id="boundary" inkscape:connector-curvature="0" />
	<path style="fill:none;stroke:red;stroke-width:1px;stroke-linecap:butt;stroke-linejoin:miter;stroke-opacity:1" d="M 559.2,418.109 576.8,410.036 z" id="boundary" inkscape:connector-curvature="0" />
	<path style="fill:none;stroke:red;stroke-width:1px;stroke-linecap:butt;stroke-linejoin:miter;stroke-opacity:1" d="M 556,489.164 538.4,485.091 z" id="boundary" inkscape:connector-curvature="0" />
	<path style="fill:none;stroke:red;stroke-width:1px;stroke-linecap:butt;stroke-linejoin:miter;stroke-opacity:1" d="M 573.6,490.327 556,489.164 z" id="boundary" inkscape:connector-curvature="0" />
	<path style="fill:none;stroke:red;stroke-width:1px;stroke-linecap:butt;stroke-linejoin:miter;stroke-opacity:1" d="M 591.2,487.855 573.6,490.327 z" id="boundary" inkscape:connector-curvature="0" />
	<path style="fill:none;stroke:red;stroke-width:1px;stroke-linecap:butt;stroke-linejoin:miter;stroke-opacity:1" d="M 624.8,257.745 607.2,261.673 z" id="boundary" inkscape:connector-curvature="0" />
	<path style="fill:none;stroke:red;stroke-width:1px;stroke-linecap:butt;stroke-linejoin:miter;stroke-opacity:1" d="M 642.4,255.564 624.8,257.745 z" id="boundary" inkscape:connector-curvature="0" />
	<path style="fill:none;stroke:red;stroke-width:1px;stroke-linecap:butt;stroke-linejoin:miter;stroke-opacity:1" d="M 712.8,263.564 695.2,258.836 z" id="boundary" inkscape:connector-curvature="0" />
	<path style="fill:none;stroke:red;stroke-width:1px;stroke-linecap:butt;stroke-linejoin:miter;stroke-opacity:1" d="M 642.4,255.564 660,255.2 z" id="boundary" inkscape:connector-curvature="0" />
	<path style="fill:none;stroke:red;stroke-width:1px;stroke-linecap:butt;stroke-linejoin:miter;stroke-opacity:1" d="M 660,255.2 677.6,256 z" id="boundary" inkscape:connector-curvature="0" />
	<path style="fill:none;stroke:red;stroke-width:1px;stroke-linecap:butt;stroke-linejoin:miter;stroke-opacity:1" d="M 695.2,258.836 677.6,256 z" id="boundary" inkscape:connector-curvature="0" />
	<path style="fill:none;stroke:red;stroke-width:1px;stroke-linecap:butt;stroke-linejoin:miter;stroke-opacity:1" d="M 712.8,263.564 730.4,270.255 z" id="boundary" inkscape:connector-curvature="0" />
	<path style="fill:none;stroke:red;stroke-width:1px;stroke-linecap:butt;stroke-linejoin:miter;stroke-opacity:1" d="M 748,279.491 730.4,270.255 z" id="boundary" inkscape:connector-curvature="0" />
	<path style="fill:none;stroke:red;stroke-width:1px;stroke-linecap:butt;stroke-linejoin:miter;stroke-opacity:1" d="M 748,279.491 765.6,292.364 z" id="boundary" inkscape:connector-curvature="0" />
	<path style="fill:none;stroke:red;stroke-width:1px;stroke-linecap:butt;stroke-linejoin:miter;stroke-opacity:1" d="M 780.8,309.2 765.6,292.364 z" id="boundary" inkscape:connector-curvature="0" />
	<path style="fill:none;stroke:red;stroke-width:1px;stroke-linecap:butt;stroke-linejoin:miter;stroke-opacity:1" d="M 780.8,309.2 791.2,326.08 z" id="boundary" inkscape:connector-curvature="0" />
	<path style="fill:none;stroke:red;stroke-width:1px;stroke-linecap:butt;stroke-linejoin:miter;stroke-opacity:1" d="M 798.4,343 804,361.867 z" id="boundary" inkscape:connector-curvature="0" />
	<path style="fill:none;stroke:red;stroke-width:1px;stroke-linecap:butt;stroke-linejoin:miter;stroke-opacity:1" d="M 798.4,343 791.2,326.08 z" id="boundary" inkscape:connector-curvature="0" />
	<path style="fill:none;stroke:red;stroke-width:1px;stroke-linecap:butt;stroke-linejoin:miter;stroke-opacity:1" d="M 594.4,405.382 612,407.127 z" id="boundary" inkscape:connector-curvature="0" />
	<path style="fill:none;stroke:red;stroke-width:1px;stroke-linecap:butt;stroke-linejoin:miter;stroke-opacity:1" d="M 622.4,466.667 608.8,480.509 z" id="boundary" inkscape:connector-curvature="0" />
	<path style="fill:none;stroke:red;stroke-width:1px;stroke-linecap:butt;stroke-linejoin:miter;stroke-opacity:1" d="M 608.8,480.509 591.2,487.855 z" id="boundary" inkscape:connector-curvature="0" />
	<path style="fill:none;stroke:red;stroke-width:1px;stroke-linecap:butt;stroke-linejoin:miter;stroke-opacity:1" d="M 612,407.127 624.8,420.8 z" id="boundary" inkscape:connector-curvature="0" />
	<path style="fill:none;stroke:red;stroke-width:1px;stroke-linecap:butt;stroke-linejoin:miter;stroke-opacity:1" d="M 629.6,446 624.8,420.8 z" id="boundary" inkscape:connector-curvature="0" />
	<path style="fill:none;stroke:red;stroke-width:1px;stroke-linecap:butt;stroke-linejoin:miter;stroke-opacity:1" d="M 629.6,446 622.4,466.667 z" id="boundary" inkscape:connector-curvature="0" />
	<path style="fill:none;stroke:red;stroke-width:1px;stroke-linecap:butt;stroke-linejoin:miter;stroke-opacity:1" d="M 805.6,451.733 800,472.6 z" id="boundary" inkscape:connector-curvature="0" />
	<path style="fill:none;stroke:red;stroke-width:1px;stroke-linecap:butt;stroke-linejoin:miter;stroke-opacity:1" d="M 800,472.6 792.8,491.04 z" id="boundary" inkscape:connector-curvature="0" />
	<path style="fill:none;stroke:red;stroke-width:1px;stroke-linecap:butt;stroke-linejoin:miter;stroke-opacity:1" d="M 809.867,406.293 808,382 z" id="boundary" inkscape:connector-curvature="0" />
	<path style="fill:none;stroke:red;stroke-width:1px;stroke-linecap:butt;stroke-linejoin:miter;stroke-opacity:1" d="M 808,382 804,361.867 z" id="boundary" inkscape:connector-curvature="0" />
	<path style="fill:none;stroke:red;stroke-width:1px;stroke-linecap:butt;stroke-linejoin:miter;stroke-opacity:1" d="M 809.867,406.293 809.333,429.6 z" id="boundary" inkscape:connector-curvature="0" />
	<path style="fill:none;stroke:red;stroke-width:1px;stroke-linecap:butt;stroke-linejoin:miter;stroke-opacity:1" d="M 805.6,451.733 809.333,429.6 z" id="boundary" inkscape:connector-curvature="0" />
	<path style="fill:none;stroke:red;stroke-width:1px;stroke-linecap:butt;stroke-linejoin:miter;stroke-opacity:1" d="M 784,508.533 772.8,526.8 z" id="boundary" inkscape:connector-curvature="0" />
	<path style="fill:none;stroke:red;stroke-width:1px;stroke-linecap:butt;stroke-linejoin:miter;stroke-opacity:1" d="M 772.8,526.8 760,544.2 z" id="boundary" inkscape:connector-curvature="0" />
	<path style="fill:none;stroke:red;stroke-width:1px;stroke-linecap:butt;stroke-linejoin:miter;stroke-opacity:1" d="M 745.6,560.72 760,544.2 z" id="boundary" inkscape:connector-curvature="0" />
	<path style="fill:none;stroke:red;stroke-width:1px;stroke-linecap:butt;stroke-linejoin:miter;stroke-opacity:1" d="M 745.6,560.72 728.8,577.236 z" id="boundary" inkscape:connector-curvature="0" />
	<path style="fill:none;stroke:red;stroke-width:1px;stroke-linecap:butt;stroke-linejoin:miter;stroke-opacity:1" d="M 784,508.533 792.8,491.04 z" id="boundary" inkscape:connector-curvature="0" />
	<path style="fill:none;stroke:red;stroke-width:1px;stroke-linecap:butt;stroke-linejoin:miter;stroke-opacity:1" d="M 447.2,629.964 464.8,637.236 z" id="boundary" inkscape:connector-curvature="0" />
	<path style="fill:none;stroke:red;stroke-width:1px;stroke-linecap:butt;stroke-linejoin:miter;stroke-opacity:1" d="M 464.8,637.236 482.4,642.764 z" id="boundary" inkscape:connector-curvature="0" />
	<path style="fill:none;stroke:red;stroke-width:1px;stroke-linecap:butt;stroke-linejoin:miter;stroke-opacity:1" d="M 500,646.473 482.4,642.764 z" id="boundary" inkscape:connector-curvature="0" />
	<path style="fill:none;stroke:red;stroke-width:1px;stroke-linecap:butt;stroke-linejoin:miter;stroke-opacity:1" d="M 500,646.473 517.6,648.8 z" id="boundary" inkscape:connector-curvature="0" />
	<path style="fill:none;stroke:red;stroke-width:1px;stroke-linecap:butt;stroke-linejoin:miter;stroke-opacity:1" d="M 447.2,629.964 429.6,620.509 z" id="boundary" inkscape:connector-curvature="0" />
	<path style="fill:none;stroke:red;stroke-width:1px;stroke-linecap:butt;stroke-linejoin:miter;stroke-opacity:1" d="M 535.2,650.036 552.8,649.455 z" id="boundary" inkscape:connector-curvature="0" />
	<path style="fill:none;stroke:red;stroke-width:1px;stroke-linecap:butt;stroke-linejoin:miter;stroke-opacity:1" d="M 570.4,648.145 552.8,649.455 z" id="boundary" inkscape:connector-curvature="0" />
	<path style="fill:none;stroke:red;stroke-width:1px;stroke-linecap:butt;stroke-linejoin:miter;stroke-opacity:1" d="M 588,645.673 570.4,648.145 z" id="boundary" inkscape:connector-curvature="0" />
	<path style="fill:none;stroke:red;stroke-width:1px;stroke-linecap:butt;stroke-linejoin:miter;stroke-opacity:1" d="M 517.6,648.8 535.2,650.036 z" id="boundary" inkscape:connector-curvature="0" />
	<path style="fill:none;stroke:red;stroke-width:1px;stroke-linecap:butt;stroke-linejoin:miter;stroke-opacity:1" d="M 623.2,637.164 605.6,642.036 z" id="boundary" inkscape:connector-curvature="0" />
	<path style="fill:none;stroke:red;stroke-width:1px;stroke-linecap:butt;stroke-linejoin:miter;stroke-opacity:1" d="M 640.8,631.127 623.2,637.164 z" id="boundary" inkscape:connector-curvature="0" />
	<path style="fill:none;stroke:red;stroke-width:1px;stroke-linecap:butt;stroke-linejoin:miter;stroke-opacity:1" d="M 588,645.673 605.6,642.036 z" id="boundary" inkscape:connector-curvature="0" />
	<path style="fill:none;stroke:red;stroke-width:1px;stroke-linecap:butt;stroke-linejoin:miter;stroke-opacity:1" d="M 662.4,741.9 650.4,759.429 z" id="boundary" inkscape:connector-curvature="0" />
	<path style="fill:none;stroke:red;stroke-width:1px;stroke-linecap:butt;stroke-linejoin:miter;stroke-opacity:1" d="M 639.2,777.829 628,796.914 z" id="boundary" inkscape:connector-curvature="0" />
	<path style="fill:none;stroke:red;stroke-width:1px;stroke-linecap:butt;stroke-linejoin:miter;stroke-opacity:1" d="M 650.4,759.429 639.2,777.829 z" id="boundary" inkscape:connector-curvature="0" />
	<path style="fill:none;stroke:red;stroke-width:1px;stroke-linecap:butt;stroke-linejoin:miter;stroke-opacity:1" d="M 628,796.914 617.6,814.8 z" id="boundary" inkscape:connector-curvature="0" />
	<path style="fill:none;stroke:red;stroke-width:1px;stroke-linecap:butt;stroke-linejoin:miter;stroke-opacity:1" d="M 492,900.436 474.4,898.764 z" id="boundary" inkscape:connector-curvature="0" />
	<path style="fill:none;stroke:red;stroke-width:1px;stroke-linecap:butt;stroke-linejoin:miter;stroke-opacity:1" d="M 474.4,898.764 456.8,894.909 z" id="boundary" inkscape:connector-curvature="0" />
	<path style="fill:none;stroke:red;stroke-width:1px;stroke-linecap:butt;stroke-linejoin:miter;stroke-opacity:1" d="M 439.2,889.164 456.8,894.909 z" id="boundary" inkscape:connector-curvature="0" />
	<path style="fill:none;stroke:red;stroke-width:1px;stroke-linecap:butt;stroke-linejoin:miter;stroke-opacity:1" d="M 544.8,891.345 527.2,897.236 z" id="boundary" inkscape:connector-curvature="0" />
	<path style="fill:none;stroke:red;stroke-width:1px;stroke-linecap:butt;stroke-linejoin:miter;stroke-opacity:1" d="M 527.2,897.236 509.6,900.145 z" id="boundary" inkscape:connector-curvature="0" />
	<path style="fill:none;stroke:red;stroke-width:1px;stroke-linecap:butt;stroke-linejoin:miter;stroke-opacity:1" d="M 492,900.436 509.6,900.145 z" id="boundary" inkscape:connector-curvature="0" />
	<path style="fill:none;stroke:red;stroke-width:1px;stroke-linecap:butt;stroke-linejoin:miter;stroke-opacity:1" d="M 554.4,984.945 536.8,989.964 z" id="boundary" inkscape:connector-curvature="0" />
	<path style="fill:none;stroke:red;stroke-width:1px;stroke-linecap:butt;stroke-linejoin:miter;stroke-opacity:1" d="M 431.2,989.673 448.8,992.8 z" id="boundary" inkscape:connector-curvature="0" />
	<path style="fill:none;stroke:red;stroke-width:1px;stroke-linecap:butt;stroke-linejoin:miter;stroke-opacity:1" d="M 466.4,994.836 484,996 z" id="boundary" inkscape:connector-curvature="0" />
	<path style="fill:none;stroke:red;stroke-width:1px;stroke-linecap:butt;stroke-linejoin:miter;stroke-opacity:1" d="M 466.4,994.836 448.8,992.8 z" id="boundary" inkscape:connector-curvature="0" />
	<path style="fill:none;stroke:red;stroke-width:1px;stroke-linecap:butt;stroke-linejoin:miter;stroke-opacity:1" d="M 501.6,995.127 484,996 z" id="boundary" inkscape:connector-curvature="0" />
	<path style="fill:none;stroke:red;stroke-width:1px;stroke-linecap:butt;stroke-linejoin:miter;stroke-opacity:1" d="M 519.2,993.382 536.8,989.964 z" id="boundary" inkscape:connector-curvature="0" />
	<path style="fill:none;stroke:red;stroke-width:1px;stroke-linecap:butt;stroke-linejoin:miter;stroke-opacity:1" d="M 519.2,993.382 501.6,995.127 z" id="boundary" inkscape:connector-curvature="0" />
	<path style="fill:none;stroke:red;stroke-width:1px;stroke-linecap:butt;stroke-linejoin:miter;stroke-opacity:1" d="M 594.4,849.511 579.2,867.12 z" id="boundary" inkscape:connector-curvature="0" />
	<path style="fill:none;stroke:red;stroke-width:1px;stroke-linecap:butt;stroke-linejoin:miter;stroke-opacity:1" d="M 579.2,867.12 562.4,881.236 z" id="boundary" inkscape:connector-curvature="0" />
	<path style="fill:none;stroke:red;stroke-width:1px;stroke-linecap:butt;stroke-linejoin:miter;stroke-opacity:1" d="M 594.4,849.511 607.2,831.429 z" id="boundary" inkscape:connector-curvature="0" />
	<path style="fill:none;stroke:red;stroke-width:1px;stroke-linecap:butt;stroke-linejoin:miter;stroke-opacity:1" d="M 562.4,881.236 544.8,891.345 z" id="boundary" inkscape:connector-curvature="0" />
	<path style="fill:none;stroke:red;stroke-width:1px;stroke-linecap:butt;stroke-linejoin:miter;stroke-opacity:1" d="M 607.2,831.429 617.6,814.8 z" id="boundary" inkscape:connector-curvature="0" />
	<path style="fill:none;stroke:red;stroke-width:1px;stroke-linecap:butt;stroke-linejoin:miter;stroke-opacity:1" d="M 653.6,882.4 644.8,899.733 z" id="boundary" inkscape:connector-curvature="0" />
	<path style="fill:none;stroke:red;stroke-width:1px;stroke-linecap:butt;stroke-linejoin:miter;stroke-opacity:1" d="M 572,977.745 554.4,984.945 z" id="boundary" inkscape:connector-curvature="0" />
	<path style="fill:none;stroke:red;stroke-width:1px;stroke-linecap:butt;stroke-linejoin:miter;stroke-opacity:1" d="M 589.6,967.345 572,977.745 z" id="boundary" inkscape:connector-curvature="0" />
	<path style="fill:none;stroke:red;stroke-width:1px;stroke-linecap:butt;stroke-linejoin:miter;stroke-opacity:1" d="M 644.8,899.733 634.4,917.714 z" id="boundary" inkscape:connector-curvature="0" />
	<path style="fill:none;stroke:red;stroke-width:1px;stroke-linecap:butt;stroke-linejoin:miter;stroke-opacity:1" d="M 589.6,967.345 607.2,952.582 z" id="boundary" inkscape:connector-curvature="0" />
	<path style="fill:none;stroke:red;stroke-width:1px;stroke-linecap:butt;stroke-linejoin:miter;stroke-opacity:1" d="M 622.4,935.3 634.4,917.714 z" id="boundary" inkscape:connector-curvature="0" />
	<path style="fill:none;stroke:red;stroke-width:1px;stroke-linecap:butt;stroke-linejoin:miter;stroke-opacity:1" d="M 622.4,935.3 607.2,952.582 z" id="boundary" inkscape:connector-curvature="0" />
	<path style="fill:none;stroke:red;stroke-width:1px;stroke-linecap:butt;stroke-linejoin:miter;stroke-opacity:1" d="M 693.6,604.436 676,615.055 z" id="boundary" inkscape:connector-curvature="0" />
	<path style="fill:none;stroke:red;stroke-width:1px;stroke-linecap:butt;stroke-linejoin:miter;stroke-opacity:1" d="M 676,615.055 658.4,623.709 z" id="boundary" inkscape:connector-curvature="0" />
	<path style="fill:none;stroke:red;stroke-width:1px;stroke-linecap:butt;stroke-linejoin:miter;stroke-opacity:1" d="M 693.6,604.436 711.2,592 z" id="boundary" inkscape:connector-curvature="0" />
	<path style="fill:none;stroke:red;stroke-width:1px;stroke-linecap:butt;stroke-linejoin:miter;stroke-opacity:1" d="M 658.4,623.709 640.8,631.127 z" id="boundary" inkscape:connector-curvature="0" />
	<path style="fill:none;stroke:red;stroke-width:1px;stroke-linecap:butt;stroke-linejoin:miter;stroke-opacity:1" d="M 711.2,592 728.8,577.236 z" id="boundary" inkscape:connector-curvature="0" />
	<path style="fill:none;stroke:red;stroke-width:1px;stroke-linecap:butt;stroke-linejoin:miter;stroke-opacity:1" d="M 816.8,619.418 799.2,631.127 z" id="boundary" inkscape:connector-curvature="0" />
	<path style="fill:none;stroke:red;stroke-width:1px;stroke-linecap:butt;stroke-linejoin:miter;stroke-opacity:1" d="M 746.4,667.127 728.8,680 z" id="boundary" inkscape:connector-curvature="0" />
	<path style="fill:none;stroke:red;stroke-width:1px;stroke-linecap:butt;stroke-linejoin:miter;stroke-opacity:1" d="M 781.6,642.764 799.2,631.127 z" id="boundary" inkscape:connector-curvature="0" />
	<path style="fill:none;stroke:red;stroke-width:1px;stroke-linecap:butt;stroke-linejoin:miter;stroke-opacity:1" d="M 781.6,642.764 764,654.691 z" id="boundary" inkscape:connector-curvature="0" />
	<path style="fill:none;stroke:red;stroke-width:1px;stroke-linecap:butt;stroke-linejoin:miter;stroke-opacity:1" d="M 746.4,667.127 764,654.691 z" id="boundary" inkscape:connector-curvature="0" />
	<path style="fill:none;stroke:red;stroke-width:1px;stroke-linecap:butt;stroke-linejoin:miter;stroke-opacity:1" d="M 869.6,586.109 887.2,575.636 z" id="boundary" inkscape:connector-curvature="0" />
	<path style="fill:none;stroke:red;stroke-width:1px;stroke-linecap:butt;stroke-linejoin:miter;stroke-opacity:1" d="M 869.6,586.109 852,597.164 z" id="boundary" inkscape:connector-curvature="0" />
	<path style="fill:none;stroke:red;stroke-width:1px;stroke-linecap:butt;stroke-linejoin:miter;stroke-opacity:1" d="M 834.4,608.218 852,597.164 z" id="boundary" inkscape:connector-curvature="0" />
	<path style="fill:none;stroke:red;stroke-width:1px;stroke-linecap:butt;stroke-linejoin:miter;stroke-opacity:1" d="M 904.8,568.436 918.4,571.333 z" id="boundary" inkscape:connector-curvature="0" />
	<path style="fill:none;stroke:red;stroke-width:1px;stroke-linecap:butt;stroke-linejoin:miter;stroke-opacity:1" d="M 918.4,571.333 920.8,588.8 z" id="boundary" inkscape:connector-curvature="0" />
	<path style="fill:none;stroke:red;stroke-width:1px;stroke-linecap:butt;stroke-linejoin:miter;stroke-opacity:1" d="M 916,600.96 920.8,588.8 z" id="boundary" inkscape:connector-curvature="0" />
	<path style="fill:none;stroke:red;stroke-width:1px;stroke-linecap:butt;stroke-linejoin:miter;stroke-opacity:1" d="M 887.2,575.636 904.8,568.436 z" id="boundary" inkscape:connector-curvature="0" />
	<path style="fill:none;stroke:red;stroke-width:1px;stroke-linecap:butt;stroke-linejoin:miter;stroke-opacity:1" d="M 916,600.96 903.2,613.818 z" id="boundary" inkscape:connector-curvature="0" />
	<path style="fill:none;stroke:red;stroke-width:1px;stroke-linecap:butt;stroke-linejoin:miter;stroke-opacity:1" d="M 816.8,619.418 834.4,608.218 z" id="boundary" inkscape:connector-curvature="0" />
	<path style="fill:none;stroke:red;stroke-width:1px;stroke-linecap:butt;stroke-linejoin:miter;stroke-opacity:1" d="M 832.8,659.927 815.2,671.418 z" id="boundary" inkscape:connector-curvature="0" />
	<path style="fill:none;stroke:red;stroke-width:1px;stroke-linecap:butt;stroke-linejoin:miter;stroke-opacity:1" d="M 850.4,648.364 832.8,659.927 z" id="boundary" inkscape:connector-curvature="0" />
	<path style="fill:none;stroke:red;stroke-width:1px;stroke-linecap:butt;stroke-linejoin:miter;stroke-opacity:1" d="M 903.2,613.818 885.6,625.745 z" id="boundary" inkscape:connector-curvature="0" />
	<path style="fill:none;stroke:red;stroke-width:1px;stroke-linecap:butt;stroke-linejoin:miter;stroke-opacity:1" d="M 868,637.018 850.4,648.364 z" id="boundary" inkscape:connector-curvature="0" />
	<path style="fill:none;stroke:red;stroke-width:1px;stroke-linecap:butt;stroke-linejoin:miter;stroke-opacity:1" d="M 885.6,625.745 868,637.018 z" id="boundary" inkscape:connector-curvature="0" />
	<path style="fill:none;stroke:red;stroke-width:1px;stroke-linecap:butt;stroke-linejoin:miter;stroke-opacity:1" d="M 815.2,671.418 797.6,683.418 z" id="boundary" inkscape:connector-curvature="0" />
	<path style="fill:none;stroke:red;stroke-width:1px;stroke-linecap:butt;stroke-linejoin:miter;stroke-opacity:1" d="M 676.8,724.32 693.6,708.073 z" id="boundary" inkscape:connector-curvature="0" />
	<path style="fill:none;stroke:red;stroke-width:1px;stroke-linecap:butt;stroke-linejoin:miter;stroke-opacity:1" d="M 662.4,741.9 676.8,724.32 z" id="boundary" inkscape:connector-curvature="0" />
	<path style="fill:none;stroke:red;stroke-width:1px;stroke-linecap:butt;stroke-linejoin:miter;stroke-opacity:1" d="M 711.2,693.455 728.8,680 z" id="boundary" inkscape:connector-curvature="0" />
	<path style="fill:none;stroke:red;stroke-width:1px;stroke-linecap:butt;stroke-linejoin:miter;stroke-opacity:1" d="M 744.8,724.655 728.8,740.889 z" id="boundary" inkscape:connector-curvature="0" />
	<path style="fill:none;stroke:red;stroke-width:1px;stroke-linecap:butt;stroke-linejoin:miter;stroke-opacity:1" d="M 693.6,708.073 711.2,693.455 z" id="boundary" inkscape:connector-curvature="0" />
	<path style="fill:none;stroke:red;stroke-width:1px;stroke-linecap:butt;stroke-linejoin:miter;stroke-opacity:1" d="M 728.8,740.889 715.2,758.2 z" id="boundary" inkscape:connector-curvature="0" />
	<path style="fill:none;stroke:red;stroke-width:1px;stroke-linecap:butt;stroke-linejoin:miter;stroke-opacity:1" d="M 661.6,864.64 653.6,882.4 z" id="boundary" inkscape:connector-curvature="0" />
	<path style="fill:none;stroke:red;stroke-width:1px;stroke-linecap:butt;stroke-linejoin:miter;stroke-opacity:1" d="M 669.6,846.72 677.6,828.64 z" id="boundary" inkscape:connector-curvature="0" />
	<path style="fill:none;stroke:red;stroke-width:1px;stroke-linecap:butt;stroke-linejoin:miter;stroke-opacity:1" d="M 669.6,846.72 661.6,864.64 z" id="boundary" inkscape:connector-curvature="0" />
	<path style="fill:none;stroke:red;stroke-width:1px;stroke-linecap:butt;stroke-linejoin:miter;stroke-opacity:1" d="M 715.2,758.2 704,775.733 z" id="boundary" inkscape:connector-curvature="0" />
	<path style="fill:none;stroke:red;stroke-width:1px;stroke-linecap:butt;stroke-linejoin:miter;stroke-opacity:1" d="M 694.4,793.067 704,775.733 z" id="boundary" inkscape:connector-curvature="0" />
	<path style="fill:none;stroke:red;stroke-width:1px;stroke-linecap:butt;stroke-linejoin:miter;stroke-opacity:1" d="M 685.6,811.04 677.6,828.64 z" id="boundary" inkscape:connector-curvature="0" />
	<path style="fill:none;stroke:red;stroke-width:1px;stroke-linecap:butt;stroke-linejoin:miter;stroke-opacity:1" d="M 694.4,793.067 685.6,811.04 z" id="boundary" inkscape:connector-curvature="0" />
	<path style="fill:none;stroke:red;stroke-width:1px;stroke-linecap:butt;stroke-linejoin:miter;stroke-opacity:1" d="M 762.4,709.673 744.8,724.655 z" id="boundary" inkscape:connector-curvature="0" />
	<path style="fill:none;stroke:red;stroke-width:1px;stroke-linecap:butt;stroke-linejoin:miter;stroke-opacity:1" d="M 780,696.073 762.4,709.673 z" id="boundary" inkscape:connector-curvature="0" />
	<path style="fill:none;stroke:red;stroke-width:1px;stroke-linecap:butt;stroke-linejoin:miter;stroke-opacity:1" d="M 797.6,683.418 780,696.073 z" id="boundary" inkscape:connector-curvature="0" />
	<circle cx="4" cy="266" r="4" fill="#0" id="circle0"/>
	<circle cx="8" cy="237.2" r="4" fill="#0" id="circle1"/>
	<circle cx="12" cy="291.657" r="4" fill="#0" id="circle2"/>
	<circle cx="18.4" cy="218.133" r="4" fill="#0" id="circle3"/>
	<circle cx="26.4" cy="307.2" r="4" fill="#0" id="circle4"/>
	<circle cx="34.4" cy="206.255" r="4" fill="#0" id="circle5"/>
	<circle cx="44" cy="318.691" r="4" fill="#0" id="circle6"/>
	<circle cx="52" cy="202.545" r="4" fill="#0" id="circle7"/>
	<circle cx="61.6" cy="325.455" r="4" fill="#0" id="circle8"/>
	<circle cx="69.6" cy="202.4" r="4" fill="#0" id="circle9"/>
	<circle cx="79.2" cy="329.673" r="4" fill="#0" id="circle10"/>
	<circle cx="87.2" cy="203.709" r="4" fill="#0" id="circle11"/>
	<circle cx="96.8" cy="331.927" r="4" fill="#0" id="circle12"/>
	<circle cx="104.8" cy="205.273" r="4" fill="#0" id="circle13"/>
	<circle cx="104" cy="183.2" r="4" fill="#0" id="circle14"/>
	<circle cx="105.867" cy="161.067" r="4" fill="#0" id="circle15"/>
	<circle cx="114.4" cy="332.8" r="4" fill="#0" id="circle16"/>
	<circle cx="109.6" cy="137.067" r="4" fill="#0" id="circle17"/>
	<circle cx="115.2" cy="116.4" r="4" fill="#0" id="circle18"/>
	<circle cx="122.4" cy="210.4" r="4" fill="#0" id="circle19"/>
	<circle cx="123.2" cy="98.2667" r="4" fill="#0" id="circle20"/>
	<circle cx="132" cy="332.655" r="4" fill="#0" id="circle21"/>
	<circle cx="134.4" cy="80.1" r="4" fill="#0" id="circle22"/>
	<circle cx="134.933" cy="214.533" r="4" fill="#0" id="circle23"/>
	<circle cx="138.4" cy="185.067" r="4" fill="#0" id="circle24"/>
	<circle cx="140" cy="239.467" r="4" fill="#0" id="circle25"/>
	<circle cx="148.8" cy="62.64" r="4" fill="#0" id="circle26"/>
	<circle cx="144.8" cy="162.88" r="4" fill="#0" id="circle27"/>
	<circle cx="149.6" cy="331.782" r="4" fill="#0" id="circle28"/>
	<circle cx="146.4" cy="258.24" r="4" fill="#0" id="circle29"/>
	<circle cx="156" cy="143.2" r="4" fill="#0" id="circle30"/>
	<circle cx="158.4" cy="276.96" r="4" fill="#0" id="circle31"/>
	<circle cx="165.6" cy="46.6909" r="4" fill="#0" id="circle32"/>
	<circle cx="167.2" cy="329.891" r="4" fill="#0" id="circle33"/>
	<circle cx="172" cy="129.455" r="4" fill="#0" id="circle34"/>
	<circle cx="175.2" cy="289.6" r="4" fill="#0" id="circle35"/>
	<circle cx="172.32" cy="206.88" r="4" fill="#0" id="circle36"/>
	<circle cx="183.2" cy="33.6727" r="4" fill="#0" id="circle37"/>
	<circle cx="183.2" cy="179.055" r="4" fill="#0" id="circle38"/>
	<circle cx="183.2" cy="233.818" r="4" fill="#0" id="circle39"/>
	<circle cx="184.8" cy="327.709" r="4" fill="#0" id="circle40"/>
	<circle cx="189.6" cy="125.309" r="4" fill="#0" id="circle41"/>
	<circle cx="192.8" cy="291.709" r="4" fill="#0" id="circle42"/>
	<circle cx="200.8" cy="23.6364" r="4" fill="#0" id="circle43"/>
	<circle cx="197.6" cy="181.486" r="4" fill="#0" id="circle44"/>
	<circle cx="197.6" cy="231.429" r="4" fill="#0" id="circle45"/>
	<circle cx="202.4" cy="325.091" r="4" fill="#0" id="circle46"/>
	<circle cx="195.2" cy="716.4" r="4" fill="#0" id="circle47"/>
	<circle cx="197.067" cy="695.467" r="4" fill="#0" id="circle48"/>
	<circle cx="196.8" cy="737.2" r="4" fill="#0" id="circle49"/>
	<circle cx="200" cy="757.2" r="4" fill="#0" id="circle50"/>
	<circle cx="207.2" cy="131.127" r="4" fill="#0" id="circle51"/>
	<circle cx="200" cy="674" r="4" fill="#0" id="circle52"/>
	<circle cx="210.4" cy="283.782" r="4" fill="#0" id="circle53"/>
	<circle cx="204" cy="654.933" r="4" fill="#0" id="circle54"/>
	<circle cx="205.6" cy="200.533" r="4" fill="#0" id="circle55"/>
	<circle cx="204.8" cy="217.2" r="4" fill="#0" id="circle56"/>
	<circle cx="206.4" cy="780.4" r="4" fill="#0" id="circle57"/>
	<circle cx="209.6" cy="634.8" r="4" fill="#0" id="circle58"/>
	<circle cx="218.4" cy="15.7091" r="4" fill="#0" id="circle59"/>
	<circle cx="213.6" cy="799.84" r="4" fill="#0" id="circle60"/>
	<circle cx="220" cy="322.036" r="4" fill="#0" id="circle61"/>
	<circle cx="216.8" cy="614.24" r="4" fill="#0" id="circle62"/>
	<circle cx="222.4" cy="146.2" r="4" fill="#0" id="circle63"/>
	<circle cx="222.4" cy="818.4" r="4" fill="#0" id="circle64"/>
	<circle cx="224" cy="268.933" r="4" fill="#0" id="circle65"/>
	<circle cx="224.8" cy="594.88" r="4" fill="#0" id="circle66"/>
	<circle cx="236" cy="10.1818" r="4" fill="#0" id="circle67"/>
	<circle cx="232.8" cy="837.6" r="4" fill="#0" id="circle68"/>
	<circle cx="232" cy="164" r="4" fill="#0" id="circle69"/>
	<circle cx="232" cy="252.8" r="4" fill="#0" id="circle70"/>
	<circle cx="237.6" cy="318.545" r="4" fill="#0" id="circle71"/>
	<circle cx="232.8" cy="577.76" r="4" fill="#0" id="circle72"/>
	<circle cx="236.8" cy="180.4" r="4" fill="#0" id="circle73"/>
	<circle cx="237.6" cy="233.6" r="4" fill="#0" id="circle74"/>
	<circle cx="241.6" cy="560.667" r="4" fill="#0" id="circle75"/>
	<circle cx="240" cy="199.2" r="4" fill="#0" id="circle76"/>
	<circle cx="240" cy="214.4" r="4" fill="#0" id="circle77"/>
	<circle cx="244.8" cy="856.2" r="4" fill="#0" id="circle78"/>
	<circle cx="253.6" cy="6.54545" r="4" fill="#0" id="circle79"/>
	<circle cx="255.2" cy="313.964" r="4" fill="#0" id="circle80"/>
	<circle cx="252" cy="542.4" r="4" fill="#0" id="circle81"/>
	<circle cx="258.4" cy="874.667" r="4" fill="#0" id="circle82"/>
	<circle cx="264" cy="523.2" r="4" fill="#0" id="circle83"/>
	<circle cx="271.2" cy="4.8" r="4" fill="#0" id="circle84"/>
	<circle cx="272.8" cy="308.073" r="4" fill="#0" id="circle85"/>
	<circle cx="273.6" cy="892.64" r="4" fill="#0" id="circle86"/>
	<circle cx="276.8" cy="504.5" r="4" fill="#0" id="circle87"/>
	<circle cx="285.6" cy="216.436" r="4" fill="#0" id="circle88"/>
	<circle cx="287.2" cy="169.091" r="4" fill="#0" id="circle89"/>
	<circle cx="288.8" cy="4" r="4" fill="#0" id="circle90"/>
	<circle cx="290.4" cy="299.418" r="4" fill="#0" id="circle91"/>
	<circle cx="290.4" cy="910.109" r="4" fill="#0" id="circle92"/>
	<circle cx="290.4" cy="486.133" r="4" fill="#0" id="circle93"/>
	<circle cx="303.2" cy="231.636" r="4" fill="#0" id="circle94"/>
	<circle cx="304.8" cy="165.673" r="4" fill="#0" id="circle95"/>
	<circle cx="306.4" cy="5.23636" r="4" fill="#0" id="circle96"/>
	<circle cx="304.8" cy="468.178" r="4" fill="#0" id="circle97"/>
	<circle cx="307.2" cy="286.56" r="4" fill="#0" id="circle98"/>
	<circle cx="308" cy="926.255" r="4" fill="#0" id="circle99"/>
	<circle cx="316" cy="244.64" r="4" fill="#0" id="circle100"/>
	<circle cx="322.4" cy="165.891" r="4" fill="#0" id="circle101"/>
	<circle cx="315.2" cy="682" r="4" fill="#0" id="circle102"/>
	<circle cx="314.933" cy="711.2" r="4" fill="#0" id="circle103"/>
	<circle cx="324" cy="7.12727" r="4" fill="#0" id="circle104"/>
	<circle cx="318.4" cy="270.6" r="4" fill="#0" id="circle105"/>
	<circle cx="317.6" cy="732.267" r="4" fill="#0" id="circle106"/>
	<circle cx="320" cy="662" r="4" fill="#0" id="circle107"/>
	<circle cx="325.6" cy="940.364" r="4" fill="#0" id="circle108"/>
	<circle cx="321.6" cy="258" r="4" fill="#0" id="circle109"/>
	<circle cx="322.4" cy="753.067" r="4" fill="#0" id="circle110"/>
	<circle cx="328" cy="642.667" r="4" fill="#0" id="circle111"/>
	<circle cx="328" cy="770.6" r="4" fill="#0" id="circle112"/>
	<circle cx="330.933" cy="479.733" r="4" fill="#0" id="circle113"/>
	<circle cx="340" cy="169.018" r="4" fill="#0" id="circle114"/>
	<circle cx="335.2" cy="788" r="4" fill="#0" id="circle115"/>
	<circle cx="341.6" cy="10.1091" r="4" fill="#0" id="circle116"/>
	<circle cx="336" cy="501" r="4" fill="#0" id="circle117"/>
	<circle cx="338.4" cy="624" r="4" fill="#0" id="circle118"/>
	<circle cx="338.4" cy="417.12" r="4" fill="#0" id="circle119"/>
	<circle cx="343.2" cy="952.8" r="4" fill="#0" id="circle120"/>
	<circle cx="343.2" cy="521.44" r="4" fill="#0" id="circle121"/>
	<circle cx="344" cy="805.6" r="4" fill="#0" id="circle122"/>
	<circle cx="347.2" cy="399.733" r="4" fill="#0" id="circle123"/>
	<circle cx="350.4" cy="605.8" r="4" fill="#0" id="circle124"/>
	<circle cx="352" cy="539.733" r="4" fill="#0" id="circle125"/>
	<circle cx="357.6" cy="175.127" r="4" fill="#0" id="circle126"/>
	<circle cx="355.2" cy="823.3" r="4" fill="#0" id="circle127"/>
	<circle cx="359.2" cy="13.9636" r="4" fill="#0" id="circle128"/>
	<circle cx="357.6" cy="382.629" r="4" fill="#0" id="circle129"/>
	<circle cx="360.8" cy="963.418" r="4" fill="#0" id="circle130"/>
	<circle cx="362.4" cy="556.914" r="4" fill="#0" id="circle131"/>
	<circle cx="363.2" cy="588.5" r="4" fill="#0" id="circle132"/>
	<circle cx="369.6" cy="841.6" r="4" fill="#0" id="circle133"/>
	<circle cx="368.8" cy="365.143" r="4" fill="#0" id="circle134"/>
	<circle cx="375.2" cy="184.364" r="4" fill="#0" id="circle135"/>
	<circle cx="376.8" cy="18.8364" r="4" fill="#0" id="circle136"/>
	<circle cx="376.8" cy="577.127" r="4" fill="#0" id="circle137"/>
	<circle cx="378.4" cy="972.218" r="4" fill="#0" id="circle138"/>
	<circle cx="379.2" cy="348.267" r="4" fill="#0" id="circle139"/>
	<circle cx="386.4" cy="857.964" r="4" fill="#0" id="circle140"/>
	<circle cx="392.8" cy="198.036" r="4" fill="#0" id="circle141"/>
	<circle cx="388" cy="332" r="4" fill="#0" id="circle142"/>
	<circle cx="394.4" cy="24.3636" r="4" fill="#0" id="circle143"/>
	<circle cx="394.4" cy="594.109" r="4" fill="#0" id="circle144"/>
	<circle cx="396" cy="979.491" r="4" fill="#0" id="circle145"/>
	<circle cx="395.2" cy="314.8" r="4" fill="#0" id="circle146"/>
	<circle cx="404" cy="871.273" r="4" fill="#0" id="circle147"/>
	<circle cx="400.8" cy="297.333" r="4" fill="#0" id="circle148"/>
	<circle cx="406.4" cy="213.867" r="4" fill="#0" id="circle149"/>
	<circle cx="412" cy="30.7636" r="4" fill="#0" id="circle150"/>
	<circle cx="406.4" cy="279.2" r="4" fill="#0" id="circle151"/>
	<circle cx="412" cy="608.727" r="4" fill="#0" id="circle152"/>
	<circle cx="413.6" cy="985.164" r="4" fill="#0" id="circle153"/>
	<circle cx="412.8" cy="257.2" r="4" fill="#0" id="circle154"/>
	<circle cx="413.6" cy="232.8" r="4" fill="#0" id="circle155"/>
	<circle cx="421.6" cy="881.236" r="4" fill="#0" id="circle156"/>
	<circle cx="429.6" cy="37.7455" r="4" fill="#0" id="circle157"/>
	<circle cx="429.6" cy="620.509" r="4" fill="#0" id="circle158"/>
	<circle cx="431.2" cy="989.673" r="4" fill="#0" id="circle159"/>
	<circle cx="439.2" cy="889.164" r="4" fill="#0" id="circle160"/>
	<circle cx="447.2" cy="46.0364" r="4" fill="#0" id="circle161"/>
	<circle cx="447.2" cy="629.964" r="4" fill="#0" id="circle162"/>
	<circle cx="448.8" cy="992.8" r="4" fill="#0" id="circle163"/>
	<circle cx="456.8" cy="894.909" r="4" fill="#0" id="circle164"/>
	<circle cx="464.8" cy="55.9273" r="4" fill="#0" id="circle165"/>
	<circle cx="464.8" cy="637.236" r="4" fill="#0" id="circle166"/>
	<circle cx="466.4" cy="994.836" r="4" fill="#0" id="circle167"/>
	<circle cx="474.4" cy="898.764" r="4" fill="#0" id="circle168"/>
	<circle cx="482.4" cy="67.4182" r="4" fill="#0" id="circle169"/>
	<circle cx="482.4" cy="642.764" r="4" fill="#0" id="circle170"/>
	<circle cx="484" cy="996" r="4" fill="#0" id="circle171"/>
	<circle cx="492" cy="900.436" r="4" fill="#0" id="circle172"/>
	<circle cx="500" cy="81.3818" r="4" fill="#0" id="circle173"/>
	<circle cx="500" cy="646.473" r="4" fill="#0" id="circle174"/>
	<circle cx="501.6" cy="995.127" r="4" fill="#0" id="circle175"/>
	<circle cx="509.6" cy="900.145" r="4" fill="#0" id="circle176"/>
	<circle cx="516.8" cy="97.52" r="4" fill="#0" id="circle177"/>
	<circle cx="517.6" cy="648.8" r="4" fill="#0" id="circle178"/>
	<circle cx="519.2" cy="993.382" r="4" fill="#0" id="circle179"/>
	<circle cx="519.2" cy="399.733" r="4" fill="#0" id="circle180"/>
	<circle cx="524" cy="474.286" r="4" fill="#0" id="circle181"/>
	<circle cx="527.2" cy="897.236" r="4" fill="#0" id="circle182"/>
	<circle cx="525.6" cy="380.8" r="4" fill="#0" id="circle183"/>
	<circle cx="531.2" cy="114.9" r="4" fill="#0" id="circle184"/>
	<circle cx="535.2" cy="650.036" r="4" fill="#0" id="circle185"/>
	<circle cx="536.8" cy="989.964" r="4" fill="#0" id="circle186"/>
	<circle cx="533.6" cy="361.92" r="4" fill="#0" id="circle187"/>
	<circle cx="538.4" cy="485.091" r="4" fill="#0" id="circle188"/>
	<circle cx="541.6" cy="428.8" r="4" fill="#0" id="circle189"/>
	<circle cx="544.8" cy="891.345" r="4" fill="#0" id="circle190"/>
	<circle cx="542.4" cy="132.4" r="4" fill="#0" id="circle191"/>
	<circle cx="541.6" cy="344.32" r="4" fill="#0" id="circle192"/>
	<circle cx="552.8" cy="649.455" r="4" fill="#0" id="circle193"/>
	<circle cx="549.6" cy="326.24" r="4" fill="#0" id="circle194"/>
	<circle cx="554.4" cy="984.945" r="4" fill="#0" id="circle195"/>
	<circle cx="551.2" cy="149.76" r="4" fill="#0" id="circle196"/>
	<circle cx="556" cy="489.164" r="4" fill="#0" id="circle197"/>
	<circle cx="559.2" cy="418.109" r="4" fill="#0" id="circle198"/>
	<circle cx="556.8" cy="305.8" r="4" fill="#0" id="circle199"/>
	<circle cx="562.4" cy="881.236" r="4" fill="#0" id="circle200"/>
	<circle cx="558.4" cy="168.6" r="4" fill="#0" id="circle201"/>
	<circle cx="563.2" cy="186.4" r="4" fill="#0" id="circle202"/>
	<circle cx="570.4" cy="648.145" r="4" fill="#0" id="circle203"/>
	<circle cx="572" cy="977.745" r="4" fill="#0" id="circle204"/>
	<circle cx="566.133" cy="206.667" r="4" fill="#0" id="circle205"/>
	<circle cx="566.4" cy="248" r="4" fill="#0" id="circle206"/>
	<circle cx="573.6" cy="490.327" r="4" fill="#0" id="circle207"/>
	<circle cx="568" cy="227.2" r="4" fill="#0" id="circle208"/>
	<circle cx="576.8" cy="410.036" r="4" fill="#0" id="circle209"/>
	<circle cx="579.2" cy="867.12" r="4" fill="#0" id="circle210"/>
	<circle cx="588" cy="645.673" r="4" fill="#0" id="circle211"/>
	<circle cx="589.6" cy="267.564" r="4" fill="#0" id="circle212"/>
	<circle cx="589.6" cy="967.345" r="4" fill="#0" id="circle213"/>
	<circle cx="591.2" cy="487.855" r="4" fill="#0" id="circle214"/>
	<circle cx="594.4" cy="405.382" r="4" fill="#0" id="circle215"/>
	<circle cx="594.4" cy="849.511" r="4" fill="#0" id="circle216"/>
	<circle cx="605.6" cy="642.036" r="4" fill="#0" id="circle217"/>
	<circle cx="607.2" cy="261.673" r="4" fill="#0" id="circle218"/>
	<circle cx="607.2" cy="952.582" r="4" fill="#0" id="circle219"/>
	<circle cx="608.8" cy="480.509" r="4" fill="#0" id="circle220"/>
	<circle cx="607.2" cy="831.429" r="4" fill="#0" id="circle221"/>
	<circle cx="612" cy="407.127" r="4" fill="#0" id="circle222"/>
	<circle cx="617.6" cy="814.8" r="4" fill="#0" id="circle223"/>
	<circle cx="623.2" cy="637.164" r="4" fill="#0" id="circle224"/>
	<circle cx="624.8" cy="257.745" r="4" fill="#0" id="circle225"/>
	<circle cx="622.4" cy="935.3" r="4" fill="#0" id="circle226"/>
	<circle cx="622.4" cy="466.667" r="4" fill="#0" id="circle227"/>
	<circle cx="624.8" cy="420.8" r="4" fill="#0" id="circle228"/>
	<circle cx="628" cy="796.914" r="4" fill="#0" id="circle229"/>
	<circle cx="629.6" cy="446" r="4" fill="#0" id="circle230"/>
	<circle cx="634.4" cy="917.714" r="4" fill="#0" id="circle231"/>
	<circle cx="640.8" cy="631.127" r="4" fill="#0" id="circle232"/>
	<circle cx="642.4" cy="255.564" r="4" fill="#0" id="circle233"/>
	<circle cx="639.2" cy="777.829" r="4" fill="#0" id="circle234"/>
	<circle cx="644.8" cy="899.733" r="4" fill="#0" id="circle235"/>
	<circle cx="650.4" cy="759.429" r="4" fill="#0" id="circle236"/>
	<circle cx="658.4" cy="623.709" r="4" fill="#0" id="circle237"/>
	<circle cx="653.6" cy="882.4" r="4" fill="#0" id="circle238"/>
	<circle cx="660" cy="255.2" r="4" fill="#0" id="circle239"/>
	<circle cx="662.4" cy="741.9" r="4" fill="#0" id="circle240"/>
	<circle cx="661.6" cy="864.64" r="4" fill="#0" id="circle241"/>
	<circle cx="669.6" cy="846.72" r="4" fill="#0" id="circle242"/>
	<circle cx="676" cy="615.055" r="4" fill="#0" id="circle243"/>
	<circle cx="677.6" cy="256" r="4" fill="#0" id="circle244"/>
	<circle cx="676.8" cy="724.32" r="4" fill="#0" id="circle245"/>
	<circle cx="677.6" cy="828.64" r="4" fill="#0" id="circle246"/>
	<circle cx="685.6" cy="811.04" r="4" fill="#0" id="circle247"/>
	<circle cx="693.6" cy="604.436" r="4" fill="#0" id="circle248"/>
	<circle cx="693.6" cy="708.073" r="4" fill="#0" id="circle249"/>
	<circle cx="695.2" cy="258.836" r="4" fill="#0" id="circle250"/>
	<circle cx="694.4" cy="793.067" r="4" fill="#0" id="circle251"/>
	<circle cx="704" cy="775.733" r="4" fill="#0" id="circle252"/>
	<circle cx="711.2" cy="592" r="4" fill="#0" id="circle253"/>
	<circle cx="711.2" cy="693.455" r="4" fill="#0" id="circle254"/>
	<circle cx="712.8" cy="263.564" r="4" fill="#0" id="circle255"/>
	<circle cx="715.2" cy="758.2" r="4" fill="#0" id="circle256"/>
	<circle cx="728.8" cy="577.236" r="4" fill="#0" id="circle257"/>
	<circle cx="728.8" cy="680" r="4" fill="#0" id="circle258"/>
	<circle cx="730.4" cy="270.255" r="4" fill="#0" id="circle259"/>
	<circle cx="728.8" cy="740.889" r="4" fill="#0" id="circle260"/>
	<circle cx="744.8" cy="724.655" r="4" fill="#0" id="circle261"/>
	<circle cx="745.6" cy="560.72" r="4" fill="#0" id="circle262"/>
	<circle cx="746.4" cy="667.127" r="4" fill="#0" id="circle263"/>
	<circle cx="748" cy="279.491" r="4" fill="#0" id="circle264"/>
	<circle cx="760" cy="544.2" r="4" fill="#0" id="circle265"/>
	<circle cx="762.4" cy="709.673" r="4" fill="#0" id="circle266"/>
	<circle cx="764" cy="654.691" r="4" fill="#0" id="circle267"/>
	<circle cx="765.6" cy="292.364" r="4" fill="#0" id="circle268"/>
	<circle cx="772.8" cy="526.8" r="4" fill="#0" id="circle269"/>
	<circle cx="780" cy="696.073" r="4" fill="#0" id="circle270"/>
	<circle cx="781.6" cy="642.764" r="4" fill="#0" id="circle271"/>
	<circle cx="780.8" cy="309.2" r="4" fill="#0" id="circle272"/>
	<circle cx="784" cy="508.533" r="4" fill="#0" id="circle273"/>
	<circle cx="791.2" cy="326.08" r="4" fill="#0" id="circle274"/>
	<circle cx="792.8" cy="491.04" r="4" fill="#0" id="circle275"/>
	<circle cx="797.6" cy="683.418" r="4" fill="#0" id="circle276"/>
	<circle cx="799.2" cy="631.127" r="4" fill="#0" id="circle277"/>
	<circle cx="798.4" cy="343" r="4" fill="#0" id="circle278"/>
	<circle cx="800" cy="472.6" r="4" fill="#0" id="circle279"/>
	<circle cx="804" cy="361.867" r="4" fill="#0" id="circle280"/>
	<circle cx="805.6" cy="451.733" r="4" fill="#0" id="circle281"/>
	<circle cx="808" cy="382" r="4" fill="#0" id="circle282"/>
	<circle cx="815.2" cy="671.418" r="4" fill="#0" id="circle283"/>
	<circle cx="809.867" cy="406.293" r="4" fill="#0" id="circle284"/>
	<circle cx="809.333" cy="429.6" r="4" fill="#0" id="circle285"/>
	<circle cx="816.8" cy="619.418" r="4" fill="#0" id="circle286"/>
	<circle cx="832.8" cy="659.927" r="4" fill="#0" id="circle287"/>
	<circle cx="834.4" cy="608.218" r="4" fill="#0" id="circle288"/>
	<circle cx="850.4" cy="648.364" r="4" fill="#0" id="circle289"/>
	<circle cx="852" cy="597.164" r="4" fill="#0" id="circle290"/>
	<circle cx="868" cy="637.018" r="4" fill="#0" id="circle291"/>
	<circle cx="869.6" cy="586.109" r="4" fill="#0" id="circle292"/>
	<circle cx="885.6" cy="625.745" r="4" fill="#0" id="circle293"/>
	<circle cx="887.2" cy="575.636" r="4" fill="#0" id="circle294"/>
	<circle cx="903.2" cy="613.818" r="4" fill="#0" id="circle295"/>
	<circle cx="904.8" cy="568.436" r="4" fill="#0" id="circle296"/>
	<circle cx="916" cy="600.96" r="4" fill="#0" id="circle297"/>
	<circle cx="918.4" cy="571.333" r="4" fill="#0" id="circle298"/>
	<circle cx="920.8" cy="588.8" r="4" fill="#0" id="circle299"/>
	<circle cx="328.968" cy="441.074" r="4" fill="#0" id="circle300"/>
	<circle cx="171.013" cy="220.1" r="4" fill="#0" id="circle301"/>
	<circle cx="175.105" cy="188.182" r="4" fill="#0" id="circle302"/>
	<circle cx="531.118" cy="436.982" r="4" fill="#0" id="circle303"/>
	<circle cx="135.821" cy="199.639" r="4" fill="#0" id="circle304"/>
	<circle cx="565.492" cy="264.295" r="4" fill="#0" id="circle305"/>
	<circle cx="561.4" cy="291.303" r="4" fill="#0" id="circle306"/>
	<circle cx="563.855" cy="280.663" r="4" fill="#0" id="circle307"/>
	<circle cx="576.95" cy="276.571" r="4" fill="#0" id="circle308"/>
	<circle cx="513.932" cy="414.884" r="4" fill="#0" id="circle309"/>
	<circle cx="512.295" cy="434.526" r="4" fill="#0" id="circle310"/>
	<circle cx="518.024" cy="461.534" r="4" fill="#0" id="circle311"/>
	<circle cx="517.205" cy="445.166" r="4" fill="#0" id="circle312"/>
	<circle cx="274.953" cy="176.724" r="4" fill="#0" id="circle313"/>
	<circle cx="273.316" cy="198.003" r="4" fill="#0" id="circle314"/>
	<circle cx="320.784" cy="445.984" r="4" fill="#0" id="circle315"/>
	<circle cx="331.424" cy="450.895" r="4" fill="#0" id="circle316"/>
	<circle cx="330.605" cy="462.353" r="4" fill="#0" id="circle317"/>
	<circle cx="313.418" cy="455.805" r="4" fill="#0" id="circle318"/>
	</g>
</svg>