<?xml version="1.0" encoding="UTF-8" standalone="no"?>
<!-- Created with CurveBenchmark -->
<svg
	xmlns:dc="http://purl.org/dc/elements/1.1/"
	xmlns:cc="http://creativecommons.org/ns#"
	xmlns:rdf="http://www.w3.org/1999/02/22-rdf-syntax-ns#"
	xmlns:svg="http://www.w3.org/2000/svg"
	xmlns="http://www.w3.org/2000/svg"
	xmlns:sodipodi="http://sodipodi.sourceforge.net/DTD/sodipodi-0.dtd"
	xmlns:inkscape="http://www.inkscape.org/namespaces/inkscape"
	width="1000"
	height="1000"
	id="svg2"
	version="1.1"
	sodipodi:docname="multiple-curves/discur-mc38.txt">
<defs
	id="defs4" />
<metadata
	id="metadata7">
	<rdf:RDF>
		<cc:Work
			rdf:about="">
			<dc:format>image/svg+xml</dc:format>
			<dc:type
				rdf:resource="http://purl.org/dc/dcmitype/StillImage" />
			<dc:title></dc:title>
		</cc:Work>
	</rdf:RDF>
</metadata>
<g
	inkscape:label="Layer 1"
	inkscape:groupmode="layer"
	id="layer1">
	<path style="fill:none;stroke:red;stroke-width:1px;stroke-linecap:butt;stroke-linejoin:miter;stroke-opacity:1" d="M 4,595.773 5.58853,623.22 z" id="boundary" inkscape:connector-curvature="0" />
	<path style="fill:none;stroke:red;stroke-width:1px;stroke-linecap:butt;stroke-linejoin:miter;stroke-opacity:1" d="M 4,595.773 6.77994,564.832 z" id="boundary" inkscape:connector-curvature="0" />
	<path style="fill:none;stroke:red;stroke-width:1px;stroke-linecap:butt;stroke-linejoin:miter;stroke-opacity:1" d="M 5.58853,623.22 8.7656,645.371 z" id="boundary" inkscape:connector-curvature="0" />
	<path style="fill:none;stroke:red;stroke-width:1px;stroke-linecap:butt;stroke-linejoin:miter;stroke-opacity:1" d="M 6.77994,564.832 9.55987,545.337 z" id="boundary" inkscape:connector-curvature="0" />
	<path style="fill:none;stroke:red;stroke-width:1px;stroke-linecap:butt;stroke-linejoin:miter;stroke-opacity:1" d="M 8.7656,645.371 14.7226,665.823 z" id="boundary" inkscape:connector-curvature="0" />
	<path style="fill:none;stroke:red;stroke-width:1px;stroke-linecap:butt;stroke-linejoin:miter;stroke-opacity:1" d="M 9.55987,545.337 13.5312,528.966 z" id="boundary" inkscape:connector-curvature="0" />
	<path style="fill:none;stroke:red;stroke-width:1px;stroke-linecap:butt;stroke-linejoin:miter;stroke-opacity:1" d="M 13.5312,528.966 18.2968,512.375 z" id="boundary" inkscape:connector-curvature="0" />
	<path style="fill:none;stroke:red;stroke-width:1px;stroke-linecap:butt;stroke-linejoin:miter;stroke-opacity:1" d="M 14.7226,665.823 20.2825,683.257 z" id="boundary" inkscape:connector-curvature="0" />
	<path style="fill:none;stroke:red;stroke-width:1px;stroke-linecap:butt;stroke-linejoin:miter;stroke-opacity:1" d="M 18.2968,512.375 24.2538,495.85 z" id="boundary" inkscape:connector-curvature="0" />
	<path style="fill:none;stroke:red;stroke-width:1px;stroke-linecap:butt;stroke-linejoin:miter;stroke-opacity:1" d="M 20.2825,683.257 26.2395,699.69 z" id="boundary" inkscape:connector-curvature="0" />
	<path style="fill:none;stroke:red;stroke-width:1px;stroke-linecap:butt;stroke-linejoin:miter;stroke-opacity:1" d="M 24.2538,495.85 31.0051,479.369 z" id="boundary" inkscape:connector-curvature="0" />
	<path style="fill:none;stroke:red;stroke-width:1px;stroke-linecap:butt;stroke-linejoin:miter;stroke-opacity:1" d="M 26.2395,699.69 31.7994,714.384 z" id="boundary" inkscape:connector-curvature="0" />
	<path style="fill:none;stroke:red;stroke-width:1px;stroke-linecap:butt;stroke-linejoin:miter;stroke-opacity:1" d="M 31.0051,479.369 38.5506,462.65 z" id="boundary" inkscape:connector-curvature="0" />
	<path style="fill:none;stroke:red;stroke-width:1px;stroke-linecap:butt;stroke-linejoin:miter;stroke-opacity:1" d="M 31.7994,714.384 38.5506,730.635 z" id="boundary" inkscape:connector-curvature="0" />
	<path style="fill:none;stroke:red;stroke-width:1px;stroke-linecap:butt;stroke-linejoin:miter;stroke-opacity:1" d="M 38.5506,462.65 47.2876,446.01 z" id="boundary" inkscape:connector-curvature="0" />
	<path style="fill:none;stroke:red;stroke-width:1px;stroke-linecap:butt;stroke-linejoin:miter;stroke-opacity:1" d="M 38.5506,730.635 46.4933,746.958 z" id="boundary" inkscape:connector-curvature="0" />
	<path style="fill:none;stroke:red;stroke-width:1px;stroke-linecap:butt;stroke-linejoin:miter;stroke-opacity:1" d="M 46.4933,746.958 54.0388,762.393 z" id="boundary" inkscape:connector-curvature="0" />
	<path style="fill:none;stroke:red;stroke-width:1px;stroke-linecap:butt;stroke-linejoin:miter;stroke-opacity:1" d="M 47.2876,446.01 56.8188,429.211 z" id="boundary" inkscape:connector-curvature="0" />
	<path style="fill:none;stroke:red;stroke-width:1px;stroke-linecap:butt;stroke-linejoin:miter;stroke-opacity:1" d="M 51.656,527.025 51.656,544.146 z" id="boundary" inkscape:connector-curvature="0" />
	<path style="fill:none;stroke:red;stroke-width:1px;stroke-linecap:butt;stroke-linejoin:miter;stroke-opacity:1" d="M 51.656,527.025 56.8188,512.093 z" id="boundary" inkscape:connector-curvature="0" />
	<path style="fill:none;stroke:red;stroke-width:1px;stroke-linecap:butt;stroke-linejoin:miter;stroke-opacity:1" d="M 51.656,544.146 56.0245,560.106 z" id="boundary" inkscape:connector-curvature="0" />
	<path style="fill:none;stroke:red;stroke-width:1px;stroke-linecap:butt;stroke-linejoin:miter;stroke-opacity:1" d="M 54.0388,762.393 62.7758,778.013 z" id="boundary" inkscape:connector-curvature="0" />
	<path style="fill:none;stroke:red;stroke-width:1px;stroke-linecap:butt;stroke-linejoin:miter;stroke-opacity:1" d="M 56.0245,560.106 69.527,576.746 z" id="boundary" inkscape:connector-curvature="0" />
	<path style="fill:none;stroke:red;stroke-width:1px;stroke-linecap:butt;stroke-linejoin:miter;stroke-opacity:1" d="M 56.8188,429.211 67.5414,412.606 z" id="boundary" inkscape:connector-curvature="0" />
	<path style="fill:none;stroke:red;stroke-width:1px;stroke-linecap:butt;stroke-linejoin:miter;stroke-opacity:1" d="M 56.8188,512.093 63.57,496.357 z" id="boundary" inkscape:connector-curvature="0" />
	<path style="fill:none;stroke:red;stroke-width:1px;stroke-linecap:butt;stroke-linejoin:miter;stroke-opacity:1" d="M 62.7758,778.013 73.1012,795.399 z" id="boundary" inkscape:connector-curvature="0" />
	<path style="fill:none;stroke:red;stroke-width:1px;stroke-linecap:butt;stroke-linejoin:miter;stroke-opacity:1" d="M 63.57,496.357 72.307,480.957 z" id="boundary" inkscape:connector-curvature="0" />
	<path style="fill:none;stroke:red;stroke-width:1px;stroke-linecap:butt;stroke-linejoin:miter;stroke-opacity:1" d="M 67.5414,412.606 79.8525,396.725 z" id="boundary" inkscape:connector-curvature="0" />
	<path style="fill:none;stroke:red;stroke-width:1px;stroke-linecap:butt;stroke-linejoin:miter;stroke-opacity:1" d="M 69.527,576.746 89.3837,587.31 z" id="boundary" inkscape:connector-curvature="0" />
	<path style="fill:none;stroke:red;stroke-width:1px;stroke-linecap:butt;stroke-linejoin:miter;stroke-opacity:1" d="M 72.307,480.957 83.0296,465.747 z" id="boundary" inkscape:connector-curvature="0" />
	<path style="fill:none;stroke:red;stroke-width:1px;stroke-linecap:butt;stroke-linejoin:miter;stroke-opacity:1" d="M 73.1012,795.399 84.6181,812.087 z" id="boundary" inkscape:connector-curvature="0" />
	<path style="fill:none;stroke:red;stroke-width:1px;stroke-linecap:butt;stroke-linejoin:miter;stroke-opacity:1" d="M 79.8525,396.725 94.5465,382.38 z" id="boundary" inkscape:connector-curvature="0" />
	<path style="fill:none;stroke:red;stroke-width:1px;stroke-linecap:butt;stroke-linejoin:miter;stroke-opacity:1" d="M 83.0296,465.747 97.3264,450.497 z" id="boundary" inkscape:connector-curvature="0" />
	<path style="fill:none;stroke:red;stroke-width:1px;stroke-linecap:butt;stroke-linejoin:miter;stroke-opacity:1" d="M 84.6181,812.087 97.3264,828.886 z" id="boundary" inkscape:connector-curvature="0" />
	<path style="fill:none;stroke:red;stroke-width:1px;stroke-linecap:butt;stroke-linejoin:miter;stroke-opacity:1" d="M 89.3837,587.31 110.829,592.989 z" id="boundary" inkscape:connector-curvature="0" />
	<path style="fill:none;stroke:red;stroke-width:1px;stroke-linecap:butt;stroke-linejoin:miter;stroke-opacity:1" d="M 94.5465,382.38 110.829,367.655 z" id="boundary" inkscape:connector-curvature="0" />
	<path style="fill:none;stroke:red;stroke-width:1px;stroke-linecap:butt;stroke-linejoin:miter;stroke-opacity:1" d="M 97.3264,450.497 116.389,435.247 z" id="boundary" inkscape:connector-curvature="0" />
	<path style="fill:none;stroke:red;stroke-width:1px;stroke-linecap:butt;stroke-linejoin:miter;stroke-opacity:1" d="M 97.3264,828.886 110.829,844.772 z" id="boundary" inkscape:connector-curvature="0" />
	<path style="fill:none;stroke:red;stroke-width:1px;stroke-linecap:butt;stroke-linejoin:miter;stroke-opacity:1" d="M 110.829,367.655 127.906,352.154 z" id="boundary" inkscape:connector-curvature="0" />
	<path style="fill:none;stroke:red;stroke-width:1px;stroke-linecap:butt;stroke-linejoin:miter;stroke-opacity:1" d="M 110.829,592.989 131.877,595.155 z" id="boundary" inkscape:connector-curvature="0" />
	<path style="fill:none;stroke:red;stroke-width:1px;stroke-linecap:butt;stroke-linejoin:miter;stroke-opacity:1" d="M 110.829,844.772 125.126,859.902 z" id="boundary" inkscape:connector-curvature="0" />
	<path style="fill:none;stroke:red;stroke-width:1px;stroke-linecap:butt;stroke-linejoin:miter;stroke-opacity:1" d="M 116.389,435.247 137.834,421.427 z" id="boundary" inkscape:connector-curvature="0" />
	<path style="fill:none;stroke:red;stroke-width:1px;stroke-linecap:butt;stroke-linejoin:miter;stroke-opacity:1" d="M 125.126,859.902 141.408,875.664 z" id="boundary" inkscape:connector-curvature="0" />
	<path style="fill:none;stroke:red;stroke-width:1px;stroke-linecap:butt;stroke-linejoin:miter;stroke-opacity:1" d="M 127.906,352.154 145.38,336.313 z" id="boundary" inkscape:connector-curvature="0" />
	<path style="fill:none;stroke:red;stroke-width:1px;stroke-linecap:butt;stroke-linejoin:miter;stroke-opacity:1" d="M 131.877,595.155 152.925,594.379 z" id="boundary" inkscape:connector-curvature="0" />
	<path style="fill:none;stroke:red;stroke-width:1px;stroke-linecap:butt;stroke-linejoin:miter;stroke-opacity:1" d="M 137.834,421.427 158.882,409.253 z" id="boundary" inkscape:connector-curvature="0" />
	<path style="fill:none;stroke:red;stroke-width:1px;stroke-linecap:butt;stroke-linejoin:miter;stroke-opacity:1" d="M 141.408,875.664 159.676,891.241 z" id="boundary" inkscape:connector-curvature="0" />
	<path style="fill:none;stroke:red;stroke-width:1px;stroke-linecap:butt;stroke-linejoin:miter;stroke-opacity:1" d="M 145.38,336.313 161.662,321.032 z" id="boundary" inkscape:connector-curvature="0" />
	<path style="fill:none;stroke:red;stroke-width:1px;stroke-linecap:butt;stroke-linejoin:miter;stroke-opacity:1" d="M 152.925,594.379 174.37,590.447 z" id="boundary" inkscape:connector-curvature="0" />
	<path style="fill:none;stroke:red;stroke-width:1px;stroke-linecap:butt;stroke-linejoin:miter;stroke-opacity:1" d="M 158.882,409.253 179.93,397.798 z" id="boundary" inkscape:connector-curvature="0" />
	<path style="fill:none;stroke:red;stroke-width:1px;stroke-linecap:butt;stroke-linejoin:miter;stroke-opacity:1" d="M 159.676,891.241 179.93,906.645 z" id="boundary" inkscape:connector-curvature="0" />
	<path style="fill:none;stroke:red;stroke-width:1px;stroke-linecap:butt;stroke-linejoin:miter;stroke-opacity:1" d="M 161.662,321.032 172.385,310.234 z" id="boundary" inkscape:connector-curvature="0" />
	<path style="fill:none;stroke:red;stroke-width:1px;stroke-linecap:butt;stroke-linejoin:miter;stroke-opacity:1" d="M 165.633,137.437 168.413,159.897 z" id="boundary" inkscape:connector-curvature="0" />
	<path style="fill:none;stroke:red;stroke-width:1px;stroke-linecap:butt;stroke-linejoin:miter;stroke-opacity:1" d="M 165.633,137.437 170.399,111.345 z" id="boundary" inkscape:connector-curvature="0" />
	<path style="fill:none;stroke:red;stroke-width:1px;stroke-linecap:butt;stroke-linejoin:miter;stroke-opacity:1" d="M 168.413,159.897 175.165,178.858 z" id="boundary" inkscape:connector-curvature="0" />
	<path style="fill:none;stroke:red;stroke-width:1px;stroke-linecap:butt;stroke-linejoin:miter;stroke-opacity:1" d="M 170.399,111.345 177.15,95.0318 z" id="boundary" inkscape:connector-curvature="0" />
	<path style="fill:none;stroke:red;stroke-width:1px;stroke-linecap:butt;stroke-linejoin:miter;stroke-opacity:1" d="M 172.385,310.234 183.902,297.998 z" id="boundary" inkscape:connector-curvature="0" />
	<path style="fill:none;stroke:red;stroke-width:1px;stroke-linecap:butt;stroke-linejoin:miter;stroke-opacity:1" d="M 174.37,590.447 195.418,583.153 z" id="boundary" inkscape:connector-curvature="0" />
	<path style="fill:none;stroke:red;stroke-width:1px;stroke-linecap:butt;stroke-linejoin:miter;stroke-opacity:1" d="M 175.165,178.858 182.71,196.345 z" id="boundary" inkscape:connector-curvature="0" />
	<path style="fill:none;stroke:red;stroke-width:1px;stroke-linecap:butt;stroke-linejoin:miter;stroke-opacity:1" d="M 177.15,95.0318 187.476,79.1024 z" id="boundary" inkscape:connector-curvature="0" />
	<path style="fill:none;stroke:red;stroke-width:1px;stroke-linecap:butt;stroke-linejoin:miter;stroke-opacity:1" d="M 179.93,397.798 200.978,386.484 z" id="boundary" inkscape:connector-curvature="0" />
	<path style="fill:none;stroke:red;stroke-width:1px;stroke-linecap:butt;stroke-linejoin:miter;stroke-opacity:1" d="M 179.93,906.645 201.375,920.545 z" id="boundary" inkscape:connector-curvature="0" />
	<path style="fill:none;stroke:red;stroke-width:1px;stroke-linecap:butt;stroke-linejoin:miter;stroke-opacity:1" d="M 182.71,196.345 190.653,211.039 z" id="boundary" inkscape:connector-curvature="0" />
	<path style="fill:none;stroke:red;stroke-width:1px;stroke-linecap:butt;stroke-linejoin:miter;stroke-opacity:1" d="M 183.902,297.998 197.404,294.066 z" id="boundary" inkscape:connector-curvature="0" />
	<path style="fill:none;stroke:red;stroke-width:1px;stroke-linecap:butt;stroke-linejoin:miter;stroke-opacity:1" d="M 187.476,79.1024 204.95,63.7907 z" id="boundary" inkscape:connector-curvature="0" />
	<path style="fill:none;stroke:red;stroke-width:1px;stroke-linecap:butt;stroke-linejoin:miter;stroke-opacity:1" d="M 190.653,211.039 204.95,221.982 z" id="boundary" inkscape:connector-curvature="0" />
	<path style="fill:none;stroke:red;stroke-width:1px;stroke-linecap:butt;stroke-linejoin:miter;stroke-opacity:1" d="M 191.674,265.205 193.036,279.964 z" id="boundary" inkscape:connector-curvature="0" />
	<path style="fill:none;stroke:red;stroke-width:1px;stroke-linecap:butt;stroke-linejoin:miter;stroke-opacity:1" d="M 191.674,265.205 196.213,238.485 z" id="boundary" inkscape:connector-curvature="0" />
	<path style="fill:none;stroke:red;stroke-width:1px;stroke-linecap:butt;stroke-linejoin:miter;stroke-opacity:1" d="M 195.418,583.153 216.466,572.298 z" id="boundary" inkscape:connector-curvature="0" />
	<path style="fill:none;stroke:red;stroke-width:1px;stroke-linecap:butt;stroke-linejoin:miter;stroke-opacity:1" d="M 197.404,294.066 206.538,302.953 z" id="boundary" inkscape:connector-curvature="0" />
	<path style="fill:none;stroke:red;stroke-width:1px;stroke-linecap:butt;stroke-linejoin:miter;stroke-opacity:1" d="M 200.978,386.484 222.423,374.702 z" id="boundary" inkscape:connector-curvature="0" />
	<path style="fill:none;stroke:red;stroke-width:1px;stroke-linecap:butt;stroke-linejoin:miter;stroke-opacity:1" d="M 201.375,920.545 222.423,932.454 z" id="boundary" inkscape:connector-curvature="0" />
	<path style="fill:none;stroke:red;stroke-width:1px;stroke-linecap:butt;stroke-linejoin:miter;stroke-opacity:1" d="M 204.95,63.7907 225.998,51.8943 z" id="boundary" inkscape:connector-curvature="0" />
	<path style="fill:none;stroke:red;stroke-width:1px;stroke-linecap:butt;stroke-linejoin:miter;stroke-opacity:1" d="M 204.95,221.982 212.059,217.712 z" id="boundary" inkscape:connector-curvature="0" />
	<path style="fill:none;stroke:red;stroke-width:1px;stroke-linecap:butt;stroke-linejoin:miter;stroke-opacity:1" d="M 206.538,302.953 213.687,313.367 z" id="boundary" inkscape:connector-curvature="0" />
	<path style="fill:none;stroke:red;stroke-width:1px;stroke-linecap:butt;stroke-linejoin:miter;stroke-opacity:1" d="M 213.687,313.367 225.203,328.696 z" id="boundary" inkscape:connector-curvature="0" />
	<path style="fill:none;stroke:red;stroke-width:1px;stroke-linecap:butt;stroke-linejoin:miter;stroke-opacity:1" d="M 222.423,932.454 243.472,942.466 z" id="boundary" inkscape:connector-curvature="0" />
	<path style="fill:none;stroke:red;stroke-width:1px;stroke-linecap:butt;stroke-linejoin:miter;stroke-opacity:1" d="M 225.203,328.696 236.72,343.284 z" id="boundary" inkscape:connector-curvature="0" />
	<path style="fill:none;stroke:red;stroke-width:1px;stroke-linecap:butt;stroke-linejoin:miter;stroke-opacity:1" d="M 225.998,51.8943 247.443,42.244 z" id="boundary" inkscape:connector-curvature="0" />
	<path style="fill:none;stroke:red;stroke-width:1px;stroke-linecap:butt;stroke-linejoin:miter;stroke-opacity:1" d="M 225.998,211.026 226.792,194.902 z" id="boundary" inkscape:connector-curvature="0" />
	<path style="fill:none;stroke:red;stroke-width:1px;stroke-linecap:butt;stroke-linejoin:miter;stroke-opacity:1" d="M 225.998,211.026 219.145,214.169 z" id="boundary" inkscape:connector-curvature="0" />
	<path style="fill:none;stroke:red;stroke-width:1px;stroke-linecap:butt;stroke-linejoin:miter;stroke-opacity:1" d="M 226.792,194.902 227.983,176.003 z" id="boundary" inkscape:connector-curvature="0" />
	<path style="fill:none;stroke:red;stroke-width:1px;stroke-linecap:butt;stroke-linejoin:miter;stroke-opacity:1" d="M 227.983,176.003 241.486,164.265 z" id="boundary" inkscape:connector-curvature="0" />
	<path style="fill:none;stroke:red;stroke-width:1px;stroke-linecap:butt;stroke-linejoin:miter;stroke-opacity:1" d="M 227.983,281.596 229.175,290.611 z" id="boundary" inkscape:connector-curvature="0" />
	<path style="fill:none;stroke:red;stroke-width:1px;stroke-linecap:butt;stroke-linejoin:miter;stroke-opacity:1" d="M 227.983,281.596 229.969,266.108 z" id="boundary" inkscape:connector-curvature="0" />
	<path style="fill:none;stroke:red;stroke-width:1px;stroke-linecap:butt;stroke-linejoin:miter;stroke-opacity:1" d="M 229.175,290.611 241.486,301.63 z" id="boundary" inkscape:connector-curvature="0" />
	<path style="fill:none;stroke:red;stroke-width:1px;stroke-linecap:butt;stroke-linejoin:miter;stroke-opacity:1" d="M 229.969,266.108 241.486,258.121 z" id="boundary" inkscape:connector-curvature="0" />
	<path style="fill:none;stroke:red;stroke-width:1px;stroke-linecap:butt;stroke-linejoin:miter;stroke-opacity:1" d="M 236.72,343.284 243.472,360.507 z" id="boundary" inkscape:connector-curvature="0" />
	<path style="fill:none;stroke:red;stroke-width:1px;stroke-linecap:butt;stroke-linejoin:miter;stroke-opacity:1" d="M 238.309,559.458 253.003,575.436 z" id="boundary" inkscape:connector-curvature="0" />
	<path style="fill:none;stroke:red;stroke-width:1px;stroke-linecap:butt;stroke-linejoin:miter;stroke-opacity:1" d="M 238.309,559.458 245.718,552.533 z" id="boundary" inkscape:connector-curvature="0" />
	<path style="fill:none;stroke:red;stroke-width:1px;stroke-linecap:butt;stroke-linejoin:miter;stroke-opacity:1" d="M 241.486,164.265 262.534,162.377 z" id="boundary" inkscape:connector-curvature="0" />
	<path style="fill:none;stroke:red;stroke-width:1px;stroke-linecap:butt;stroke-linejoin:miter;stroke-opacity:1" d="M 241.486,258.121 257.768,263.09 z" id="boundary" inkscape:connector-curvature="0" />
	<path style="fill:none;stroke:red;stroke-width:1px;stroke-linecap:butt;stroke-linejoin:miter;stroke-opacity:1" d="M 241.486,301.63 258.96,295.055 z" id="boundary" inkscape:connector-curvature="0" />
	<path style="fill:none;stroke:red;stroke-width:1px;stroke-linecap:butt;stroke-linejoin:miter;stroke-opacity:1" d="M 243.472,360.507 262.534,347.64 z" id="boundary" inkscape:connector-curvature="0" />
	<path style="fill:none;stroke:red;stroke-width:1px;stroke-linecap:butt;stroke-linejoin:miter;stroke-opacity:1" d="M 243.472,942.466 264.52,951.075 z" id="boundary" inkscape:connector-curvature="0" />
	<path style="fill:none;stroke:red;stroke-width:1px;stroke-linecap:butt;stroke-linejoin:miter;stroke-opacity:1" d="M 247.443,42.244 268.491,34.138 z" id="boundary" inkscape:connector-curvature="0" />
	<path style="fill:none;stroke:red;stroke-width:1px;stroke-linecap:butt;stroke-linejoin:miter;stroke-opacity:1" d="M 247.443,211.463 268.491,216.687 z" id="boundary" inkscape:connector-curvature="0" />
	<path style="fill:none;stroke:red;stroke-width:1px;stroke-linecap:butt;stroke-linejoin:miter;stroke-opacity:1" d="M 253.003,575.436 264.52,591.537 z" id="boundary" inkscape:connector-curvature="0" />
	<path style="fill:none;stroke:red;stroke-width:1px;stroke-linecap:butt;stroke-linejoin:miter;stroke-opacity:1" d="M 256.974,540.607 260.548,519.921 z" id="boundary" inkscape:connector-curvature="0" />
	<path style="fill:none;stroke:red;stroke-width:1px;stroke-linecap:butt;stroke-linejoin:miter;stroke-opacity:1" d="M 256.974,540.607 245.718,552.533 z" id="boundary" inkscape:connector-curvature="0" />
	<path style="fill:none;stroke:red;stroke-width:1px;stroke-linecap:butt;stroke-linejoin:miter;stroke-opacity:1" d="M 257.768,263.09 264.52,277.757 z" id="boundary" inkscape:connector-curvature="0" />
	<path style="fill:none;stroke:red;stroke-width:1px;stroke-linecap:butt;stroke-linejoin:miter;stroke-opacity:1" d="M 258.96,295.055 264.52,277.757 z" id="boundary" inkscape:connector-curvature="0" />
	<path style="fill:none;stroke:red;stroke-width:1px;stroke-linecap:butt;stroke-linejoin:miter;stroke-opacity:1" d="M 260.548,519.921 265.711,502.76 z" id="boundary" inkscape:connector-curvature="0" />
	<path style="fill:none;stroke:red;stroke-width:1px;stroke-linecap:butt;stroke-linejoin:miter;stroke-opacity:1" d="M 262.534,162.377 283.979,168.731 z" id="boundary" inkscape:connector-curvature="0" />
	<path style="fill:none;stroke:red;stroke-width:1px;stroke-linecap:butt;stroke-linejoin:miter;stroke-opacity:1" d="M 262.534,347.64 278.022,333.621 z" id="boundary" inkscape:connector-curvature="0" />
	<path style="fill:none;stroke:red;stroke-width:1px;stroke-linecap:butt;stroke-linejoin:miter;stroke-opacity:1" d="M 264.52,591.537 281.994,608.04 z" id="boundary" inkscape:connector-curvature="0" />
	<path style="fill:none;stroke:red;stroke-width:1px;stroke-linecap:butt;stroke-linejoin:miter;stroke-opacity:1" d="M 264.52,951.075 285.568,958.431 z" id="boundary" inkscape:connector-curvature="0" />
	<path style="fill:none;stroke:red;stroke-width:1px;stroke-linecap:butt;stroke-linejoin:miter;stroke-opacity:1" d="M 265.711,502.76 267.697,492.651 z" id="boundary" inkscape:connector-curvature="0" />
	<path style="fill:none;stroke:red;stroke-width:1px;stroke-linecap:butt;stroke-linejoin:miter;stroke-opacity:1" d="M 267.697,492.651 268.491,481.222 z" id="boundary" inkscape:connector-curvature="0" />
	<path style="fill:none;stroke:red;stroke-width:1px;stroke-linecap:butt;stroke-linejoin:miter;stroke-opacity:1" d="M 268.491,34.138 289.539,27.3117 z" id="boundary" inkscape:connector-curvature="0" />
	<path style="fill:none;stroke:red;stroke-width:1px;stroke-linecap:butt;stroke-linejoin:miter;stroke-opacity:1" d="M 268.491,216.687 285.568,229.254 z" id="boundary" inkscape:connector-curvature="0" />
	<path style="fill:none;stroke:red;stroke-width:1px;stroke-linecap:butt;stroke-linejoin:miter;stroke-opacity:1" d="M 268.491,481.222 270.874,468.999 z" id="boundary" inkscape:connector-curvature="0" />
	<path style="fill:none;stroke:red;stroke-width:1px;stroke-linecap:butt;stroke-linejoin:miter;stroke-opacity:1" d="M 269.285,416.71 271.668,439.435 z" id="boundary" inkscape:connector-curvature="0" />
	<path style="fill:none;stroke:red;stroke-width:1px;stroke-linecap:butt;stroke-linejoin:miter;stroke-opacity:1" d="M 271.271,454.707 270.874,468.999 z" id="boundary" inkscape:connector-curvature="0" />
	<path style="fill:none;stroke:red;stroke-width:1px;stroke-linecap:butt;stroke-linejoin:miter;stroke-opacity:1" d="M 271.271,454.707 271.668,439.435 z" id="boundary" inkscape:connector-curvature="0" />
	<path style="fill:none;stroke:red;stroke-width:1px;stroke-linecap:butt;stroke-linejoin:miter;stroke-opacity:1" d="M 278.022,333.621 289.539,318.768 z" id="boundary" inkscape:connector-curvature="0" />
	<path style="fill:none;stroke:red;stroke-width:1px;stroke-linecap:butt;stroke-linejoin:miter;stroke-opacity:1" d="M 278.022,545.69 299.467,549.882 z" id="boundary" inkscape:connector-curvature="0" />
	<path style="fill:none;stroke:red;stroke-width:1px;stroke-linecap:butt;stroke-linejoin:miter;stroke-opacity:1" d="M 282.391,481.196 299.07,480.163 z" id="boundary" inkscape:connector-curvature="0" />
	<path style="fill:none;stroke:red;stroke-width:1px;stroke-linecap:butt;stroke-linejoin:miter;stroke-opacity:1" d="M 281.994,608.04 303.042,618.048 z" id="boundary" inkscape:connector-curvature="0" />
	<path style="fill:none;stroke:red;stroke-width:1px;stroke-linecap:butt;stroke-linejoin:miter;stroke-opacity:1" d="M 283.979,168.731 304.63,177.547 z" id="boundary" inkscape:connector-curvature="0" />
	<path style="fill:none;stroke:red;stroke-width:1px;stroke-linecap:butt;stroke-linejoin:miter;stroke-opacity:1" d="M 285.568,229.254 296.29,245.06 z" id="boundary" inkscape:connector-curvature="0" />
	<path style="fill:none;stroke:red;stroke-width:1px;stroke-linecap:butt;stroke-linejoin:miter;stroke-opacity:1" d="M 285.568,958.431 307.013,965.063 z" id="boundary" inkscape:connector-curvature="0" />
	<path style="fill:none;stroke:red;stroke-width:1px;stroke-linecap:butt;stroke-linejoin:miter;stroke-opacity:1" d="M 289.539,27.3117 310.984,21.5533 z" id="boundary" inkscape:connector-curvature="0" />
	<path style="fill:none;stroke:red;stroke-width:1px;stroke-linecap:butt;stroke-linejoin:miter;stroke-opacity:1" d="M 289.539,318.768 298.276,303.042 z" id="boundary" inkscape:connector-curvature="0" />
	<path style="fill:none;stroke:red;stroke-width:1px;stroke-linecap:butt;stroke-linejoin:miter;stroke-opacity:1" d="M 296.29,245.06 302.247,263.209 z" id="boundary" inkscape:connector-curvature="0" />
	<path style="fill:none;stroke:red;stroke-width:1px;stroke-linecap:butt;stroke-linejoin:miter;stroke-opacity:1" d="M 298.276,303.042 302.247,287.514 z" id="boundary" inkscape:connector-curvature="0" />
	<path style="fill:none;stroke:red;stroke-width:1px;stroke-linecap:butt;stroke-linejoin:miter;stroke-opacity:1" d="M 299.07,480.163 320.515,480.044 z" id="boundary" inkscape:connector-curvature="0" />
	<path style="fill:none;stroke:red;stroke-width:1px;stroke-linecap:butt;stroke-linejoin:miter;stroke-opacity:1" d="M 299.467,549.882 320.515,550.615 z" id="boundary" inkscape:connector-curvature="0" />
	<path style="fill:none;stroke:red;stroke-width:1px;stroke-linecap:butt;stroke-linejoin:miter;stroke-opacity:1" d="M 302.247,263.209 302.247,287.514 z" id="boundary" inkscape:connector-curvature="0" />
	<path style="fill:none;stroke:red;stroke-width:1px;stroke-linecap:butt;stroke-linejoin:miter;stroke-opacity:1" d="M 303.042,618.048 324.487,621.066 z" id="boundary" inkscape:connector-curvature="0" />
	<path style="fill:none;stroke:red;stroke-width:1px;stroke-linecap:butt;stroke-linejoin:miter;stroke-opacity:1" d="M 304.63,177.547 326.075,184.974 z" id="boundary" inkscape:connector-curvature="0" />
	<path style="fill:none;stroke:red;stroke-width:1px;stroke-linecap:butt;stroke-linejoin:miter;stroke-opacity:1" d="M 307.013,965.063 328.061,970.756 z" id="boundary" inkscape:connector-curvature="0" />
	<path style="fill:none;stroke:red;stroke-width:1px;stroke-linecap:butt;stroke-linejoin:miter;stroke-opacity:1" d="M 310.984,21.5533 332.032,16.8848 z" id="boundary" inkscape:connector-curvature="0" />
	<path style="fill:none;stroke:red;stroke-width:1px;stroke-linecap:butt;stroke-linejoin:miter;stroke-opacity:1" d="M 316.544,690.088 326.075,705.695 z" id="boundary" inkscape:connector-curvature="0" />
	<path style="fill:none;stroke:red;stroke-width:1px;stroke-linecap:butt;stroke-linejoin:miter;stroke-opacity:1" d="M 320.515,480.044 341.564,483.34 z" id="boundary" inkscape:connector-curvature="0" />
	<path style="fill:none;stroke:red;stroke-width:1px;stroke-linecap:butt;stroke-linejoin:miter;stroke-opacity:1" d="M 320.515,550.615 341.564,545.558 z" id="boundary" inkscape:connector-curvature="0" />
	<path style="fill:none;stroke:red;stroke-width:1px;stroke-linecap:butt;stroke-linejoin:miter;stroke-opacity:1" d="M 324.487,621.066 345.535,621.19 z" id="boundary" inkscape:connector-curvature="0" />
	<path style="fill:none;stroke:red;stroke-width:1px;stroke-linecap:butt;stroke-linejoin:miter;stroke-opacity:1" d="M 326.075,184.974 347.123,187.917 z" id="boundary" inkscape:connector-curvature="0" />
	<path style="fill:none;stroke:red;stroke-width:1px;stroke-linecap:butt;stroke-linejoin:miter;stroke-opacity:1" d="M 326.075,705.695 336.798,721.576 z" id="boundary" inkscape:connector-curvature="0" />
	<path style="fill:none;stroke:red;stroke-width:1px;stroke-linecap:butt;stroke-linejoin:miter;stroke-opacity:1" d="M 328.061,970.756 349.109,975.706 z" id="boundary" inkscape:connector-curvature="0" />
	<path style="fill:none;stroke:red;stroke-width:1px;stroke-linecap:butt;stroke-linejoin:miter;stroke-opacity:1" d="M 332.032,16.8848 353.08,12.8958 z" id="boundary" inkscape:connector-curvature="0" />
	<path style="fill:none;stroke:red;stroke-width:1px;stroke-linecap:butt;stroke-linejoin:miter;stroke-opacity:1" d="M 336.798,721.576 348.315,736.87 z" id="boundary" inkscape:connector-curvature="0" />
	<path style="fill:none;stroke:red;stroke-width:1px;stroke-linecap:butt;stroke-linejoin:miter;stroke-opacity:1" d="M 341.564,483.34 361.023,493.189 z" id="boundary" inkscape:connector-curvature="0" />
	<path style="fill:none;stroke:red;stroke-width:1px;stroke-linecap:butt;stroke-linejoin:miter;stroke-opacity:1" d="M 341.564,545.558 361.817,536.278 z" id="boundary" inkscape:connector-curvature="0" />
	<path style="fill:none;stroke:red;stroke-width:1px;stroke-linecap:butt;stroke-linejoin:miter;stroke-opacity:1" d="M 345.535,621.19 366.583,620.47 z" id="boundary" inkscape:connector-curvature="0" />
	<path style="fill:none;stroke:red;stroke-width:1px;stroke-linecap:butt;stroke-linejoin:miter;stroke-opacity:1" d="M 347.123,187.917 368.569,186.24 z" id="boundary" inkscape:connector-curvature="0" />
	<path style="fill:none;stroke:red;stroke-width:1px;stroke-linecap:butt;stroke-linejoin:miter;stroke-opacity:1" d="M 348.315,736.87 361.023,751.366 z" id="boundary" inkscape:connector-curvature="0" />
	<path style="fill:none;stroke:red;stroke-width:1px;stroke-linecap:butt;stroke-linejoin:miter;stroke-opacity:1" d="M 349.109,975.706 370.157,979.934 z" id="boundary" inkscape:connector-curvature="0" />
	<path style="fill:none;stroke:red;stroke-width:1px;stroke-linecap:butt;stroke-linejoin:miter;stroke-opacity:1" d="M 353.08,12.8958 374.129,9.91287 z" id="boundary" inkscape:connector-curvature="0" />
	<path style="fill:none;stroke:red;stroke-width:1px;stroke-linecap:butt;stroke-linejoin:miter;stroke-opacity:1" d="M 361.023,493.189 372.143,509.472 z" id="boundary" inkscape:connector-curvature="0" />
	<path style="fill:none;stroke:red;stroke-width:1px;stroke-linecap:butt;stroke-linejoin:miter;stroke-opacity:1" d="M 361.023,751.366 376.114,766.496 z" id="boundary" inkscape:connector-curvature="0" />
	<path style="fill:none;stroke:red;stroke-width:1px;stroke-linecap:butt;stroke-linejoin:miter;stroke-opacity:1" d="M 361.817,536.278 374.129,523.76 z" id="boundary" inkscape:connector-curvature="0" />
	<path style="fill:none;stroke:red;stroke-width:1px;stroke-linecap:butt;stroke-linejoin:miter;stroke-opacity:1" d="M 366.583,620.47 387.631,619.91 z" id="boundary" inkscape:connector-curvature="0" />
	<path style="fill:none;stroke:red;stroke-width:1px;stroke-linecap:butt;stroke-linejoin:miter;stroke-opacity:1" d="M 368.569,186.24 389.617,182.273 z" id="boundary" inkscape:connector-curvature="0" />
	<path style="fill:none;stroke:red;stroke-width:1px;stroke-linecap:butt;stroke-linejoin:miter;stroke-opacity:1" d="M 370.157,979.934 391.602,983.729 z" id="boundary" inkscape:connector-curvature="0" />
	<path style="fill:none;stroke:red;stroke-width:1px;stroke-linecap:butt;stroke-linejoin:miter;stroke-opacity:1" d="M 372.143,509.472 374.129,523.76 z" id="boundary" inkscape:connector-curvature="0" />
	<path style="fill:none;stroke:red;stroke-width:1px;stroke-linecap:butt;stroke-linejoin:miter;stroke-opacity:1" d="M 373.334,285.965 376.114,309.674 z" id="boundary" inkscape:connector-curvature="0" />
	<path style="fill:none;stroke:red;stroke-width:1px;stroke-linecap:butt;stroke-linejoin:miter;stroke-opacity:1" d="M 373.334,285.965 378.1,258.695 z" id="boundary" inkscape:connector-curvature="0" />
	<path style="fill:none;stroke:red;stroke-width:1px;stroke-linecap:butt;stroke-linejoin:miter;stroke-opacity:1" d="M 374.129,9.91287 395.574,7.53007 z" id="boundary" inkscape:connector-curvature="0" />
	<path style="fill:none;stroke:red;stroke-width:1px;stroke-linecap:butt;stroke-linejoin:miter;stroke-opacity:1" d="M 376.114,309.674 382.865,329.252 z" id="boundary" inkscape:connector-curvature="0" />
	<path style="fill:none;stroke:red;stroke-width:1px;stroke-linecap:butt;stroke-linejoin:miter;stroke-opacity:1" d="M 376.114,766.496 395.574,780.661 z" id="boundary" inkscape:connector-curvature="0" />
	<path style="fill:none;stroke:red;stroke-width:1px;stroke-linecap:butt;stroke-linejoin:miter;stroke-opacity:1" d="M 378.1,258.695 385.645,240.93 z" id="boundary" inkscape:connector-curvature="0" />
	<path style="fill:none;stroke:red;stroke-width:1px;stroke-linecap:butt;stroke-linejoin:miter;stroke-opacity:1" d="M 382.865,329.252 393.588,345.217 z" id="boundary" inkscape:connector-curvature="0" />
	<path style="fill:none;stroke:red;stroke-width:1px;stroke-linecap:butt;stroke-linejoin:miter;stroke-opacity:1" d="M 385.645,240.93 399.148,224.409 z" id="boundary" inkscape:connector-curvature="0" />
	<path style="fill:none;stroke:red;stroke-width:1px;stroke-linecap:butt;stroke-linejoin:miter;stroke-opacity:1" d="M 387.631,619.91 409.076,619.601 z" id="boundary" inkscape:connector-curvature="0" />
	<path style="fill:none;stroke:red;stroke-width:1px;stroke-linecap:butt;stroke-linejoin:miter;stroke-opacity:1" d="M 389.617,182.273 410.665,176.621 z" id="boundary" inkscape:connector-curvature="0" />
	<path style="fill:none;stroke:red;stroke-width:1px;stroke-linecap:butt;stroke-linejoin:miter;stroke-opacity:1" d="M 391.602,983.729 412.65,986.985 z" id="boundary" inkscape:connector-curvature="0" />
	<path style="fill:none;stroke:red;stroke-width:1px;stroke-linecap:butt;stroke-linejoin:miter;stroke-opacity:1" d="M 393.588,345.217 410.665,358.684 z" id="boundary" inkscape:connector-curvature="0" />
	<path style="fill:none;stroke:red;stroke-width:1px;stroke-linecap:butt;stroke-linejoin:miter;stroke-opacity:1" d="M 395.574,7.53007 416.622,5.98567 z" id="boundary" inkscape:connector-curvature="0" />
	<path style="fill:none;stroke:red;stroke-width:1px;stroke-linecap:butt;stroke-linejoin:miter;stroke-opacity:1" d="M 395.574,780.661 416.622,789.927 z" id="boundary" inkscape:connector-curvature="0" />
	<path style="fill:none;stroke:red;stroke-width:1px;stroke-linecap:butt;stroke-linejoin:miter;stroke-opacity:1" d="M 399.148,224.409 418.607,213.642 z" id="boundary" inkscape:connector-curvature="0" />
	<path style="fill:none;stroke:red;stroke-width:1px;stroke-linecap:butt;stroke-linejoin:miter;stroke-opacity:1" d="M 409.076,619.601 430.124,618.683 z" id="boundary" inkscape:connector-curvature="0" />
	<path style="fill:none;stroke:red;stroke-width:1px;stroke-linecap:butt;stroke-linejoin:miter;stroke-opacity:1" d="M 410.665,176.621 432.11,169.561 z" id="boundary" inkscape:connector-curvature="0" />
	<path style="fill:none;stroke:red;stroke-width:1px;stroke-linecap:butt;stroke-linejoin:miter;stroke-opacity:1" d="M 410.665,358.684 432.11,363.362 z" id="boundary" inkscape:connector-curvature="0" />
	<path style="fill:none;stroke:red;stroke-width:1px;stroke-linecap:butt;stroke-linejoin:miter;stroke-opacity:1" d="M 412.65,986.985 434.096,989.844 z" id="boundary" inkscape:connector-curvature="0" />
	<path style="fill:none;stroke:red;stroke-width:1px;stroke-linecap:butt;stroke-linejoin:miter;stroke-opacity:1" d="M 415.033,288.745 415.43,273.521 z" id="boundary" inkscape:connector-curvature="0" />
	<path style="fill:none;stroke:red;stroke-width:1px;stroke-linecap:butt;stroke-linejoin:miter;stroke-opacity:1" d="M 415.033,288.745 415.43,301.321 z" id="boundary" inkscape:connector-curvature="0" />
	<path style="fill:none;stroke:red;stroke-width:1px;stroke-linecap:butt;stroke-linejoin:miter;stroke-opacity:1" d="M 415.43,273.521 428.139,264.123 z" id="boundary" inkscape:connector-curvature="0" />
	<path style="fill:none;stroke:red;stroke-width:1px;stroke-linecap:butt;stroke-linejoin:miter;stroke-opacity:1" d="M 415.43,301.321 428.139,312.705 z" id="boundary" inkscape:connector-curvature="0" />
	<path style="fill:none;stroke:red;stroke-width:1px;stroke-linecap:butt;stroke-linejoin:miter;stroke-opacity:1" d="M 416.622,5.98567 437.67,4.92665 z" id="boundary" inkscape:connector-curvature="0" />
	<path style="fill:none;stroke:red;stroke-width:1px;stroke-linecap:butt;stroke-linejoin:miter;stroke-opacity:1" d="M 416.622,789.927 437.67,792.31 z" id="boundary" inkscape:connector-curvature="0" />
	<path style="fill:none;stroke:red;stroke-width:1px;stroke-linecap:butt;stroke-linejoin:miter;stroke-opacity:1" d="M 418.607,213.642 439.656,213.091 z" id="boundary" inkscape:connector-curvature="0" />
	<path style="fill:none;stroke:red;stroke-width:1px;stroke-linecap:butt;stroke-linejoin:miter;stroke-opacity:1" d="M 428.139,264.123 444.421,266.783 z" id="boundary" inkscape:connector-curvature="0" />
	<path style="fill:none;stroke:red;stroke-width:1px;stroke-linecap:butt;stroke-linejoin:miter;stroke-opacity:1" d="M 428.139,312.705 445.613,308.513 z" id="boundary" inkscape:connector-curvature="0" />
	<path style="fill:none;stroke:red;stroke-width:1px;stroke-linecap:butt;stroke-linejoin:miter;stroke-opacity:1" d="M 430.124,618.683 451.172,616.777 z" id="boundary" inkscape:connector-curvature="0" />
	<path style="fill:none;stroke:red;stroke-width:1px;stroke-linecap:butt;stroke-linejoin:miter;stroke-opacity:1" d="M 432.11,169.561 453.158,161.622 z" id="boundary" inkscape:connector-curvature="0" />
	<path style="fill:none;stroke:red;stroke-width:1px;stroke-linecap:butt;stroke-linejoin:miter;stroke-opacity:1" d="M 432.11,363.362 453.158,356.615 z" id="boundary" inkscape:connector-curvature="0" />
	<path style="fill:none;stroke:red;stroke-width:1px;stroke-linecap:butt;stroke-linejoin:miter;stroke-opacity:1" d="M 434.096,989.844 455.144,992.245 z" id="boundary" inkscape:connector-curvature="0" />
	<path style="fill:none;stroke:red;stroke-width:1px;stroke-linecap:butt;stroke-linejoin:miter;stroke-opacity:1" d="M 437.67,4.92665 458.718,4 z" id="boundary" inkscape:connector-curvature="0" />
	<path style="fill:none;stroke:red;stroke-width:1px;stroke-linecap:butt;stroke-linejoin:miter;stroke-opacity:1" d="M 437.67,792.31 459.115,788.162 z" id="boundary" inkscape:connector-curvature="0" />
	<path style="fill:none;stroke:red;stroke-width:1px;stroke-linecap:butt;stroke-linejoin:miter;stroke-opacity:1" d="M 439.656,213.091 458.718,222.423 z" id="boundary" inkscape:connector-curvature="0" />
	<path style="fill:none;stroke:red;stroke-width:1px;stroke-linecap:butt;stroke-linejoin:miter;stroke-opacity:1" d="M 444.421,266.783 452.364,281.279 z" id="boundary" inkscape:connector-curvature="0" />
	<path style="fill:none;stroke:red;stroke-width:1px;stroke-linecap:butt;stroke-linejoin:miter;stroke-opacity:1" d="M 445.613,308.513 453.158,295.933 z" id="boundary" inkscape:connector-curvature="0" />
	<path style="fill:none;stroke:red;stroke-width:1px;stroke-linecap:butt;stroke-linejoin:miter;stroke-opacity:1" d="M 451.172,616.777 472.221,610.78 z" id="boundary" inkscape:connector-curvature="0" />
	<path style="fill:none;stroke:red;stroke-width:1px;stroke-linecap:butt;stroke-linejoin:miter;stroke-opacity:1" d="M 452.364,281.279 453.158,295.933 z" id="boundary" inkscape:connector-curvature="0" />
	<path style="fill:none;stroke:red;stroke-width:1px;stroke-linecap:butt;stroke-linejoin:miter;stroke-opacity:1" d="M 453.158,161.622 474.206,153.543 z" id="boundary" inkscape:connector-curvature="0" />
	<path style="fill:none;stroke:red;stroke-width:1px;stroke-linecap:butt;stroke-linejoin:miter;stroke-opacity:1" d="M 453.158,356.615 469.441,341.961 z" id="boundary" inkscape:connector-curvature="0" />
	<path style="fill:none;stroke:red;stroke-width:1px;stroke-linecap:butt;stroke-linejoin:miter;stroke-opacity:1" d="M 455.144,992.245 476.192,994.054 z" id="boundary" inkscape:connector-curvature="0" />
	<path style="fill:none;stroke:red;stroke-width:1px;stroke-linecap:butt;stroke-linejoin:miter;stroke-opacity:1" d="M 458.718,4 480.163,4.27799 z" id="boundary" inkscape:connector-curvature="0" />
	<path style="fill:none;stroke:red;stroke-width:1px;stroke-linecap:butt;stroke-linejoin:miter;stroke-opacity:1" d="M 458.718,222.423 472.221,237.078 z" id="boundary" inkscape:connector-curvature="0" />
	<path style="fill:none;stroke:red;stroke-width:1px;stroke-linecap:butt;stroke-linejoin:miter;stroke-opacity:1" d="M 459.115,788.162 480.163,778.847 z" id="boundary" inkscape:connector-curvature="0" />
	<path style="fill:none;stroke:red;stroke-width:1px;stroke-linecap:butt;stroke-linejoin:miter;stroke-opacity:1" d="M 469.441,341.961 476.589,333.135 z" id="boundary" inkscape:connector-curvature="0" />
	<path style="fill:none;stroke:red;stroke-width:1px;stroke-linecap:butt;stroke-linejoin:miter;stroke-opacity:1" d="M 472.221,237.078 480.163,252.05 z" id="boundary" inkscape:connector-curvature="0" />
	<path style="fill:none;stroke:red;stroke-width:1px;stroke-linecap:butt;stroke-linejoin:miter;stroke-opacity:1" d="M 472.221,610.78 490.489,599.224 z" id="boundary" inkscape:connector-curvature="0" />
	<path style="fill:none;stroke:red;stroke-width:1px;stroke-linecap:butt;stroke-linejoin:miter;stroke-opacity:1" d="M 474.206,153.543 495.254,145.697 z" id="boundary" inkscape:connector-curvature="0" />
	<path style="fill:none;stroke:red;stroke-width:1px;stroke-linecap:butt;stroke-linejoin:miter;stroke-opacity:1" d="M 476.192,994.054 497.24,995.334 z" id="boundary" inkscape:connector-curvature="0" />
	<path style="fill:none;stroke:red;stroke-width:1px;stroke-linecap:butt;stroke-linejoin:miter;stroke-opacity:1" d="M 476.589,333.135 483.34,322.541 z" id="boundary" inkscape:connector-curvature="0" />
	<path style="fill:none;stroke:red;stroke-width:1px;stroke-linecap:butt;stroke-linejoin:miter;stroke-opacity:1" d="M 480.163,4.27799 501.211,5.1914 z" id="boundary" inkscape:connector-curvature="0" />
	<path style="fill:none;stroke:red;stroke-width:1px;stroke-linecap:butt;stroke-linejoin:miter;stroke-opacity:1" d="M 480.163,252.05 484.929,268.412 z" id="boundary" inkscape:connector-curvature="0" />
	<path style="fill:none;stroke:red;stroke-width:1px;stroke-linecap:butt;stroke-linejoin:miter;stroke-opacity:1" d="M 480.163,778.847 501.211,765.305 z" id="boundary" inkscape:connector-curvature="0" />
	<path style="fill:none;stroke:red;stroke-width:1px;stroke-linecap:butt;stroke-linejoin:miter;stroke-opacity:1" d="M 483.34,322.541 486.517,310.984 z" id="boundary" inkscape:connector-curvature="0" />
	<path style="fill:none;stroke:red;stroke-width:1px;stroke-linecap:butt;stroke-linejoin:miter;stroke-opacity:1" d="M 484.929,268.412 487.709,282.391 z" id="boundary" inkscape:connector-curvature="0" />
	<path style="fill:none;stroke:red;stroke-width:1px;stroke-linecap:butt;stroke-linejoin:miter;stroke-opacity:1" d="M 486.517,310.984 487.709,298.011 z" id="boundary" inkscape:connector-curvature="0" />
	<path style="fill:none;stroke:red;stroke-width:1px;stroke-linecap:butt;stroke-linejoin:miter;stroke-opacity:1" d="M 487.709,282.391 487.709,298.011 z" id="boundary" inkscape:connector-curvature="0" />
	<path style="fill:none;stroke:red;stroke-width:1px;stroke-linecap:butt;stroke-linejoin:miter;stroke-opacity:1" d="M 490.489,599.224 502.006,584.256 z" id="boundary" inkscape:connector-curvature="0" />
	<path style="fill:none;stroke:red;stroke-width:1px;stroke-linecap:butt;stroke-linejoin:miter;stroke-opacity:1" d="M 492.871,425.081 492.474,444.598 z" id="boundary" inkscape:connector-curvature="0" />
	<path style="fill:none;stroke:red;stroke-width:1px;stroke-linecap:butt;stroke-linejoin:miter;stroke-opacity:1" d="M 492.871,425.081 496.843,399.704 z" id="boundary" inkscape:connector-curvature="0" />
	<path style="fill:none;stroke:red;stroke-width:1px;stroke-linecap:butt;stroke-linejoin:miter;stroke-opacity:1" d="M 492.474,444.598 494.857,464.675 z" id="boundary" inkscape:connector-curvature="0" />
	<path style="fill:none;stroke:red;stroke-width:1px;stroke-linecap:butt;stroke-linejoin:miter;stroke-opacity:1" d="M 495.254,145.697 516.699,138.668 z" id="boundary" inkscape:connector-curvature="0" />
	<path style="fill:none;stroke:red;stroke-width:1px;stroke-linecap:butt;stroke-linejoin:miter;stroke-opacity:1" d="M 494.857,464.675 498.431,478.733 z" id="boundary" inkscape:connector-curvature="0" />
	<path style="fill:none;stroke:red;stroke-width:1px;stroke-linecap:butt;stroke-linejoin:miter;stroke-opacity:1" d="M 496.843,399.704 501.211,373.467 z" id="boundary" inkscape:connector-curvature="0" />
	<path style="fill:none;stroke:red;stroke-width:1px;stroke-linecap:butt;stroke-linejoin:miter;stroke-opacity:1" d="M 497.24,995.334 518.288,996 z" id="boundary" inkscape:connector-curvature="0" />
	<path style="fill:none;stroke:red;stroke-width:1px;stroke-linecap:butt;stroke-linejoin:miter;stroke-opacity:1" d="M 498.431,478.733 502.006,495.166 z" id="boundary" inkscape:connector-curvature="0" />
	<path style="fill:none;stroke:red;stroke-width:1px;stroke-linecap:butt;stroke-linejoin:miter;stroke-opacity:1" d="M 501.211,5.1914 522.259,6.34309 z" id="boundary" inkscape:connector-curvature="0" />
	<path style="fill:none;stroke:red;stroke-width:1px;stroke-linecap:butt;stroke-linejoin:miter;stroke-opacity:1" d="M 501.211,373.467 504.388,354.801 z" id="boundary" inkscape:connector-curvature="0" />
	<path style="fill:none;stroke:red;stroke-width:1px;stroke-linecap:butt;stroke-linejoin:miter;stroke-opacity:1" d="M 501.211,765.305 520.671,749.062 z" id="boundary" inkscape:connector-curvature="0" />
	<path style="fill:none;stroke:red;stroke-width:1px;stroke-linecap:butt;stroke-linejoin:miter;stroke-opacity:1" d="M 502.006,495.166 505.977,511.934 z" id="boundary" inkscape:connector-curvature="0" />
	<path style="fill:none;stroke:red;stroke-width:1px;stroke-linecap:butt;stroke-linejoin:miter;stroke-opacity:1" d="M 502.006,584.256 508.757,567.89 z" id="boundary" inkscape:connector-curvature="0" />
	<path style="fill:none;stroke:red;stroke-width:1px;stroke-linecap:butt;stroke-linejoin:miter;stroke-opacity:1" d="M 504.388,354.801 505.58,340.452 z" id="boundary" inkscape:connector-curvature="0" />
	<path style="fill:none;stroke:red;stroke-width:1px;stroke-linecap:butt;stroke-linejoin:miter;stroke-opacity:1" d="M 505.58,340.452 509.154,324.134 z" id="boundary" inkscape:connector-curvature="0" />
	<path style="fill:none;stroke:red;stroke-width:1px;stroke-linecap:butt;stroke-linejoin:miter;stroke-opacity:1" d="M 505.977,511.934 508.757,530.957 z" id="boundary" inkscape:connector-curvature="0" />
	<path style="fill:none;stroke:red;stroke-width:1px;stroke-linecap:butt;stroke-linejoin:miter;stroke-opacity:1" d="M 508.757,530.957 510.742,552.353 z" id="boundary" inkscape:connector-curvature="0" />
	<path style="fill:none;stroke:red;stroke-width:1px;stroke-linecap:butt;stroke-linejoin:miter;stroke-opacity:1" d="M 508.757,567.89 510.742,552.353 z" id="boundary" inkscape:connector-curvature="0" />
	<path style="fill:none;stroke:red;stroke-width:1px;stroke-linecap:butt;stroke-linejoin:miter;stroke-opacity:1" d="M 509.154,324.134 514.714,311.823 z" id="boundary" inkscape:connector-curvature="0" />
	<path style="fill:none;stroke:red;stroke-width:1px;stroke-linecap:butt;stroke-linejoin:miter;stroke-opacity:1" d="M 514.714,311.823 519.479,299.556 z" id="boundary" inkscape:connector-curvature="0" />
	<path style="fill:none;stroke:red;stroke-width:1px;stroke-linecap:butt;stroke-linejoin:miter;stroke-opacity:1" d="M 516.699,138.668 537.748,133.068 z" id="boundary" inkscape:connector-curvature="0" />
	<path style="fill:none;stroke:red;stroke-width:1px;stroke-linecap:butt;stroke-linejoin:miter;stroke-opacity:1" d="M 518.288,996 539.733,995.007 z" id="boundary" inkscape:connector-curvature="0" />
	<path style="fill:none;stroke:red;stroke-width:1px;stroke-linecap:butt;stroke-linejoin:miter;stroke-opacity:1" d="M 519.479,299.556 523.848,286.561 z" id="boundary" inkscape:connector-curvature="0" />
	<path style="fill:none;stroke:red;stroke-width:1px;stroke-linecap:butt;stroke-linejoin:miter;stroke-opacity:1" d="M 520.671,749.062 536.953,733.181 z" id="boundary" inkscape:connector-curvature="0" />
	<path style="fill:none;stroke:red;stroke-width:1px;stroke-linecap:butt;stroke-linejoin:miter;stroke-opacity:1" d="M 522.259,6.34309 543.307,8.32434 z" id="boundary" inkscape:connector-curvature="0" />
	<path style="fill:none;stroke:red;stroke-width:1px;stroke-linecap:butt;stroke-linejoin:miter;stroke-opacity:1" d="M 523.848,286.561 529.408,274.21 z" id="boundary" inkscape:connector-curvature="0" />
	<path style="fill:none;stroke:red;stroke-width:1px;stroke-linecap:butt;stroke-linejoin:miter;stroke-opacity:1" d="M 529.408,274.21 533.776,265.402 z" id="boundary" inkscape:connector-curvature="0" />
	<path style="fill:none;stroke:red;stroke-width:1px;stroke-linecap:butt;stroke-linejoin:miter;stroke-opacity:1" d="M 533.776,265.402 544.499,248.317 z" id="boundary" inkscape:connector-curvature="0" />
	<path style="fill:none;stroke:red;stroke-width:1px;stroke-linecap:butt;stroke-linejoin:miter;stroke-opacity:1" d="M 536.953,733.181 551.25,717.075 z" id="boundary" inkscape:connector-curvature="0" />
	<path style="fill:none;stroke:red;stroke-width:1px;stroke-linecap:butt;stroke-linejoin:miter;stroke-opacity:1" d="M 537.748,133.068 558.796,129.852 z" id="boundary" inkscape:connector-curvature="0" />
	<path style="fill:none;stroke:red;stroke-width:1px;stroke-linecap:butt;stroke-linejoin:miter;stroke-opacity:1" d="M 539.733,995.007 560.781,993.216 z" id="boundary" inkscape:connector-curvature="0" />
	<path style="fill:none;stroke:red;stroke-width:1px;stroke-linecap:butt;stroke-linejoin:miter;stroke-opacity:1" d="M 543.307,8.32434 564.753,10.7071 z" id="boundary" inkscape:connector-curvature="0" />
	<path style="fill:none;stroke:red;stroke-width:1px;stroke-linecap:butt;stroke-linejoin:miter;stroke-opacity:1" d="M 544.499,248.317 559.987,232.881 z" id="boundary" inkscape:connector-curvature="0" />
	<path style="fill:none;stroke:red;stroke-width:1px;stroke-linecap:butt;stroke-linejoin:miter;stroke-opacity:1" d="M 551.25,717.075 563.561,701.883 z" id="boundary" inkscape:connector-curvature="0" />
	<path style="fill:none;stroke:red;stroke-width:1px;stroke-linecap:butt;stroke-linejoin:miter;stroke-opacity:1" d="M 558.796,129.852 579.844,129.891 z" id="boundary" inkscape:connector-curvature="0" />
	<path style="fill:none;stroke:red;stroke-width:1px;stroke-linecap:butt;stroke-linejoin:miter;stroke-opacity:1" d="M 559.987,232.881 579.844,220.482 z" id="boundary" inkscape:connector-curvature="0" />
	<path style="fill:none;stroke:red;stroke-width:1px;stroke-linecap:butt;stroke-linejoin:miter;stroke-opacity:1" d="M 560.781,993.216 581.829,989.487 z" id="boundary" inkscape:connector-curvature="0" />
	<path style="fill:none;stroke:red;stroke-width:1px;stroke-linecap:butt;stroke-linejoin:miter;stroke-opacity:1" d="M 563.561,701.883 575.078,686.629 z" id="boundary" inkscape:connector-curvature="0" />
	<path style="fill:none;stroke:red;stroke-width:1px;stroke-linecap:butt;stroke-linejoin:miter;stroke-opacity:1" d="M 564.753,10.7071 585.801,13.8092 z" id="boundary" inkscape:connector-curvature="0" />
	<path style="fill:none;stroke:red;stroke-width:1px;stroke-linecap:butt;stroke-linejoin:miter;stroke-opacity:1" d="M 575.078,686.629 583.815,675.112 z" id="boundary" inkscape:connector-curvature="0" />
	<path style="fill:none;stroke:red;stroke-width:1px;stroke-linecap:butt;stroke-linejoin:miter;stroke-opacity:1" d="M 579.844,129.891 601.289,134.039 z" id="boundary" inkscape:connector-curvature="0" />
	<path style="fill:none;stroke:red;stroke-width:1px;stroke-linecap:butt;stroke-linejoin:miter;stroke-opacity:1" d="M 579.844,220.482 601.289,209.053 z" id="boundary" inkscape:connector-curvature="0" />
	<path style="fill:none;stroke:red;stroke-width:1px;stroke-linecap:butt;stroke-linejoin:miter;stroke-opacity:1" d="M 581.829,989.487 603.275,984.165 z" id="boundary" inkscape:connector-curvature="0" />
	<path style="fill:none;stroke:red;stroke-width:1px;stroke-linecap:butt;stroke-linejoin:miter;stroke-opacity:1" d="M 585.801,13.8092 606.849,18.1644 z" id="boundary" inkscape:connector-curvature="0" />
	<path style="fill:none;stroke:red;stroke-width:1px;stroke-linecap:butt;stroke-linejoin:miter;stroke-opacity:1" d="M 601.289,134.039 618.366,142.56 z" id="boundary" inkscape:connector-curvature="0" />
	<path style="fill:none;stroke:red;stroke-width:1px;stroke-linecap:butt;stroke-linejoin:miter;stroke-opacity:1" d="M 601.289,209.053 618.366,196.054 z" id="boundary" inkscape:connector-curvature="0" />
	<path style="fill:none;stroke:red;stroke-width:1px;stroke-linecap:butt;stroke-linejoin:miter;stroke-opacity:1" d="M 603.275,984.165 624.323,976.801 z" id="boundary" inkscape:connector-curvature="0" />
	<path style="fill:none;stroke:red;stroke-width:1px;stroke-linecap:butt;stroke-linejoin:miter;stroke-opacity:1" d="M 606.849,18.1644 628.294,23.283 z" id="boundary" inkscape:connector-curvature="0" />
	<path style="fill:none;stroke:red;stroke-width:1px;stroke-linecap:butt;stroke-linejoin:miter;stroke-opacity:1" d="M 618.366,142.56 628.294,159.323 z" id="boundary" inkscape:connector-curvature="0" />
	<path style="fill:none;stroke:red;stroke-width:1px;stroke-linecap:butt;stroke-linejoin:miter;stroke-opacity:1" d="M 618.366,196.054 628.294,180.68 z" id="boundary" inkscape:connector-curvature="0" />
	<path style="fill:none;stroke:red;stroke-width:1px;stroke-linecap:butt;stroke-linejoin:miter;stroke-opacity:1" d="M 624.323,976.801 645.371,967.565 z" id="boundary" inkscape:connector-curvature="0" />
	<path style="fill:none;stroke:red;stroke-width:1px;stroke-linecap:butt;stroke-linejoin:miter;stroke-opacity:1" d="M 628.294,23.283 649.342,29.5357 z" id="boundary" inkscape:connector-curvature="0" />
	<path style="fill:none;stroke:red;stroke-width:1px;stroke-linecap:butt;stroke-linejoin:miter;stroke-opacity:1" d="M 628.294,159.323 628.294,180.68 z" id="boundary" inkscape:connector-curvature="0" />
	<path style="fill:none;stroke:red;stroke-width:1px;stroke-linecap:butt;stroke-linejoin:miter;stroke-opacity:1" d="M 645.371,967.565 666.419,956.768 z" id="boundary" inkscape:connector-curvature="0" />
	<path style="fill:none;stroke:red;stroke-width:1px;stroke-linecap:butt;stroke-linejoin:miter;stroke-opacity:1" d="M 649.342,29.5357 670.39,37.0503 z" id="boundary" inkscape:connector-curvature="0" />
	<path style="fill:none;stroke:red;stroke-width:1px;stroke-linecap:butt;stroke-linejoin:miter;stroke-opacity:1" d="M 666.419,956.768 687.864,944.103 z" id="boundary" inkscape:connector-curvature="0" />
	<path style="fill:none;stroke:red;stroke-width:1px;stroke-linecap:butt;stroke-linejoin:miter;stroke-opacity:1" d="M 670.39,37.0503 691.438,46.0564 z" id="boundary" inkscape:connector-curvature="0" />
	<path style="fill:none;stroke:red;stroke-width:1px;stroke-linecap:butt;stroke-linejoin:miter;stroke-opacity:1" d="M 687.864,944.103 708.912,931.029 z" id="boundary" inkscape:connector-curvature="0" />
	<path style="fill:none;stroke:red;stroke-width:1px;stroke-linecap:butt;stroke-linejoin:miter;stroke-opacity:1" d="M 691.438,46.0564 712.883,56.9776 z" id="boundary" inkscape:connector-curvature="0" />
	<path style="fill:none;stroke:red;stroke-width:1px;stroke-linecap:butt;stroke-linejoin:miter;stroke-opacity:1" d="M 708.912,931.029 729.96,918.643 z" id="boundary" inkscape:connector-curvature="0" />
	<path style="fill:none;stroke:red;stroke-width:1px;stroke-linecap:butt;stroke-linejoin:miter;stroke-opacity:1" d="M 712.883,56.9776 733.932,70.6743 z" id="boundary" inkscape:connector-curvature="0" />
	<path style="fill:none;stroke:red;stroke-width:1px;stroke-linecap:butt;stroke-linejoin:miter;stroke-opacity:1" d="M 729.96,918.643 751.008,905.97 z" id="boundary" inkscape:connector-curvature="0" />
	<path style="fill:none;stroke:red;stroke-width:1px;stroke-linecap:butt;stroke-linejoin:miter;stroke-opacity:1" d="M 733.932,70.6743 753.391,86.6038 z" id="boundary" inkscape:connector-curvature="0" />
	<path style="fill:none;stroke:red;stroke-width:1px;stroke-linecap:butt;stroke-linejoin:miter;stroke-opacity:1" d="M 751.008,905.97 772.454,892.666 z" id="boundary" inkscape:connector-curvature="0" />
	<path style="fill:none;stroke:red;stroke-width:1px;stroke-linecap:butt;stroke-linejoin:miter;stroke-opacity:1" d="M 753.391,86.6038 767.688,102.489 z" id="boundary" inkscape:connector-curvature="0" />
	<path style="fill:none;stroke:red;stroke-width:1px;stroke-linecap:butt;stroke-linejoin:miter;stroke-opacity:1" d="M 767.688,102.489 776.028,117.36 z" id="boundary" inkscape:connector-curvature="0" />
	<path style="fill:none;stroke:red;stroke-width:1px;stroke-linecap:butt;stroke-linejoin:miter;stroke-opacity:1" d="M 767.291,255.739 769.674,271.933 z" id="boundary" inkscape:connector-curvature="0" />
	<path style="fill:none;stroke:red;stroke-width:1px;stroke-linecap:butt;stroke-linejoin:miter;stroke-opacity:1" d="M 767.291,255.739 770.468,231.337 z" id="boundary" inkscape:connector-curvature="0" />
	<path style="fill:none;stroke:red;stroke-width:1px;stroke-linecap:butt;stroke-linejoin:miter;stroke-opacity:1" d="M 769.674,271.933 774.439,289.892 z" id="boundary" inkscape:connector-curvature="0" />
	<path style="fill:none;stroke:red;stroke-width:1px;stroke-linecap:butt;stroke-linejoin:miter;stroke-opacity:1" d="M 770.468,231.337 774.439,209.495 z" id="boundary" inkscape:connector-curvature="0" />
	<path style="fill:none;stroke:red;stroke-width:1px;stroke-linecap:butt;stroke-linejoin:miter;stroke-opacity:1" d="M 772.454,892.666 791.516,877.495 z" id="boundary" inkscape:connector-curvature="0" />
	<path style="fill:none;stroke:red;stroke-width:1px;stroke-linecap:butt;stroke-linejoin:miter;stroke-opacity:1" d="M 774.439,209.495 778.013,191.01 z" id="boundary" inkscape:connector-curvature="0" />
	<path style="fill:none;stroke:red;stroke-width:1px;stroke-linecap:butt;stroke-linejoin:miter;stroke-opacity:1" d="M 774.439,289.892 781.19,306.894 z" id="boundary" inkscape:connector-curvature="0" />
	<path style="fill:none;stroke:red;stroke-width:1px;stroke-linecap:butt;stroke-linejoin:miter;stroke-opacity:1" d="M 776.028,117.36 781.19,132.949 z" id="boundary" inkscape:connector-curvature="0" />
	<path style="fill:none;stroke:red;stroke-width:1px;stroke-linecap:butt;stroke-linejoin:miter;stroke-opacity:1" d="M 778.013,191.01 781.19,172.782 z" id="boundary" inkscape:connector-curvature="0" />
	<path style="fill:none;stroke:red;stroke-width:1px;stroke-linecap:butt;stroke-linejoin:miter;stroke-opacity:1" d="M 781.19,132.949 783.176,152.925 z" id="boundary" inkscape:connector-curvature="0" />
	<path style="fill:none;stroke:red;stroke-width:1px;stroke-linecap:butt;stroke-linejoin:miter;stroke-opacity:1" d="M 781.19,172.782 783.176,152.925 z" id="boundary" inkscape:connector-curvature="0" />
	<path style="fill:none;stroke:red;stroke-width:1px;stroke-linecap:butt;stroke-linejoin:miter;stroke-opacity:1" d="M 781.19,306.894 788.736,322.545 z" id="boundary" inkscape:connector-curvature="0" />
	<path style="fill:none;stroke:red;stroke-width:1px;stroke-linecap:butt;stroke-linejoin:miter;stroke-opacity:1" d="M 788.736,322.545 797.473,337.769 z" id="boundary" inkscape:connector-curvature="0" />
	<path style="fill:none;stroke:red;stroke-width:1px;stroke-linecap:butt;stroke-linejoin:miter;stroke-opacity:1" d="M 791.516,877.495 806.21,862.868 z" id="boundary" inkscape:connector-curvature="0" />
	<path style="fill:none;stroke:red;stroke-width:1px;stroke-linecap:butt;stroke-linejoin:miter;stroke-opacity:1" d="M 797.473,337.769 807.004,353.125 z" id="boundary" inkscape:connector-curvature="0" />
	<path style="fill:none;stroke:red;stroke-width:1px;stroke-linecap:butt;stroke-linejoin:miter;stroke-opacity:1" d="M 806.21,862.868 815.741,847.159 z" id="boundary" inkscape:connector-curvature="0" />
	<path style="fill:none;stroke:red;stroke-width:1px;stroke-linecap:butt;stroke-linejoin:miter;stroke-opacity:1" d="M 807.004,353.125 817.727,369.005 z" id="boundary" inkscape:connector-curvature="0" />
	<path style="fill:none;stroke:red;stroke-width:1px;stroke-linecap:butt;stroke-linejoin:miter;stroke-opacity:1" d="M 815.741,847.159 822.492,826.702 z" id="boundary" inkscape:connector-curvature="0" />
	<path style="fill:none;stroke:red;stroke-width:1px;stroke-linecap:butt;stroke-linejoin:miter;stroke-opacity:1" d="M 817.727,369.005 829.244,385.469 z" id="boundary" inkscape:connector-curvature="0" />
	<path style="fill:none;stroke:red;stroke-width:1px;stroke-linecap:butt;stroke-linejoin:miter;stroke-opacity:1" d="M 822.492,826.702 828.052,806.925 z" id="boundary" inkscape:connector-curvature="0" />
	<path style="fill:none;stroke:red;stroke-width:1px;stroke-linecap:butt;stroke-linejoin:miter;stroke-opacity:1" d="M 828.052,806.925 834.009,789.133 z" id="boundary" inkscape:connector-curvature="0" />
	<path style="fill:none;stroke:red;stroke-width:1px;stroke-linecap:butt;stroke-linejoin:miter;stroke-opacity:1" d="M 829.244,385.469 840.76,401.292 z" id="boundary" inkscape:connector-curvature="0" />
	<path style="fill:none;stroke:red;stroke-width:1px;stroke-linecap:butt;stroke-linejoin:miter;stroke-opacity:1" d="M 834.009,789.133 839.569,772.409 z" id="boundary" inkscape:connector-curvature="0" />
	<path style="fill:none;stroke:red;stroke-width:1px;stroke-linecap:butt;stroke-linejoin:miter;stroke-opacity:1" d="M 839.569,772.409 845.526,755.734 z" id="boundary" inkscape:connector-curvature="0" />
	<path style="fill:none;stroke:red;stroke-width:1px;stroke-linecap:butt;stroke-linejoin:miter;stroke-opacity:1" d="M 840.76,401.292 851.086,416.542 z" id="boundary" inkscape:connector-curvature="0" />
	<path style="fill:none;stroke:red;stroke-width:1px;stroke-linecap:butt;stroke-linejoin:miter;stroke-opacity:1" d="M 845.526,755.734 851.086,739.809 z" id="boundary" inkscape:connector-curvature="0" />
	<path style="fill:none;stroke:red;stroke-width:1px;stroke-linecap:butt;stroke-linejoin:miter;stroke-opacity:1" d="M 851.086,416.542 861.014,431.669 z" id="boundary" inkscape:connector-curvature="0" />
	<path style="fill:none;stroke:red;stroke-width:1px;stroke-linecap:butt;stroke-linejoin:miter;stroke-opacity:1" d="M 851.086,739.809 857.043,723.606 z" id="boundary" inkscape:connector-curvature="0" />
	<path style="fill:none;stroke:red;stroke-width:1px;stroke-linecap:butt;stroke-linejoin:miter;stroke-opacity:1" d="M 857.043,723.606 863,707.84 z" id="boundary" inkscape:connector-curvature="0" />
	<path style="fill:none;stroke:red;stroke-width:1px;stroke-linecap:butt;stroke-linejoin:miter;stroke-opacity:1" d="M 861.014,431.669 870.545,447.686 z" id="boundary" inkscape:connector-curvature="0" />
	<path style="fill:none;stroke:red;stroke-width:1px;stroke-linecap:butt;stroke-linejoin:miter;stroke-opacity:1" d="M 863,707.84 868.56,691.597 z" id="boundary" inkscape:connector-curvature="0" />
	<path style="fill:none;stroke:red;stroke-width:1px;stroke-linecap:butt;stroke-linejoin:miter;stroke-opacity:1" d="M 868.56,691.597 874.517,673.876 z" id="boundary" inkscape:connector-curvature="0" />
	<path style="fill:none;stroke:red;stroke-width:1px;stroke-linecap:butt;stroke-linejoin:miter;stroke-opacity:1" d="M 870.545,447.686 879.282,463.792 z" id="boundary" inkscape:connector-curvature="0" />
	<path style="fill:none;stroke:red;stroke-width:1px;stroke-linecap:butt;stroke-linejoin:miter;stroke-opacity:1" d="M 874.517,673.876 880.077,655.299 z" id="boundary" inkscape:connector-curvature="0" />
	<path style="fill:none;stroke:red;stroke-width:1px;stroke-linecap:butt;stroke-linejoin:miter;stroke-opacity:1" d="M 879.282,463.792 886.034,479.17 z" id="boundary" inkscape:connector-curvature="0" />
	<path style="fill:none;stroke:red;stroke-width:1px;stroke-linecap:butt;stroke-linejoin:miter;stroke-opacity:1" d="M 880.077,655.299 884.842,638.222 z" id="boundary" inkscape:connector-curvature="0" />
	<path style="fill:none;stroke:red;stroke-width:1px;stroke-linecap:butt;stroke-linejoin:miter;stroke-opacity:1" d="M 884.842,638.222 889.608,620.307 z" id="boundary" inkscape:connector-curvature="0" />
	<path style="fill:none;stroke:red;stroke-width:1px;stroke-linecap:butt;stroke-linejoin:miter;stroke-opacity:1" d="M 886.034,479.17 890.799,492.713 z" id="boundary" inkscape:connector-curvature="0" />
	<path style="fill:none;stroke:red;stroke-width:1px;stroke-linecap:butt;stroke-linejoin:miter;stroke-opacity:1" d="M 889.608,620.307 893.182,603.592 z" id="boundary" inkscape:connector-curvature="0" />
	<path style="fill:none;stroke:red;stroke-width:1px;stroke-linecap:butt;stroke-linejoin:miter;stroke-opacity:1" d="M 890.799,492.713 894.374,508.007 z" id="boundary" inkscape:connector-curvature="0" />
	<path style="fill:none;stroke:red;stroke-width:1px;stroke-linecap:butt;stroke-linejoin:miter;stroke-opacity:1" d="M 893.182,603.592 896.359,579.407 z" id="boundary" inkscape:connector-curvature="0" />
	<path style="fill:none;stroke:red;stroke-width:1px;stroke-linecap:butt;stroke-linejoin:miter;stroke-opacity:1" d="M 894.374,508.007 896.756,527.113 z" id="boundary" inkscape:connector-curvature="0" />
	<path style="fill:none;stroke:red;stroke-width:1px;stroke-linecap:butt;stroke-linejoin:miter;stroke-opacity:1" d="M 896.359,579.407 898.742,550.337 z" id="boundary" inkscape:connector-curvature="0" />
	<path style="fill:none;stroke:red;stroke-width:1px;stroke-linecap:butt;stroke-linejoin:miter;stroke-opacity:1" d="M 896.756,527.113 898.742,550.337 z" id="boundary" inkscape:connector-curvature="0" />
	<path style="fill:none;stroke:red;stroke-width:1px;stroke-linecap:butt;stroke-linejoin:miter;stroke-opacity:1" d="M 212.059,217.712 219.145,214.169 z" id="boundary" inkscape:connector-curvature="0" />
	<circle cx="4" cy="595.773" r="4" fill="#0" id="circle0"/>
	<circle cx="5.58853" cy="623.22" r="4" fill="#0" id="circle1"/>
	<circle cx="6.77994" cy="564.832" r="4" fill="#0" id="circle2"/>
	<circle cx="8.7656" cy="645.371" r="4" fill="#0" id="circle3"/>
	<circle cx="9.55987" cy="545.337" r="4" fill="#0" id="circle4"/>
	<circle cx="13.5312" cy="528.966" r="4" fill="#0" id="circle5"/>
	<circle cx="14.7226" cy="665.823" r="4" fill="#0" id="circle6"/>
	<circle cx="18.2968" cy="512.375" r="4" fill="#0" id="circle7"/>
	<circle cx="20.2825" cy="683.257" r="4" fill="#0" id="circle8"/>
	<circle cx="24.2538" cy="495.85" r="4" fill="#0" id="circle9"/>
	<circle cx="26.2395" cy="699.69" r="4" fill="#0" id="circle10"/>
	<circle cx="31.0051" cy="479.369" r="4" fill="#0" id="circle11"/>
	<circle cx="31.7994" cy="714.384" r="4" fill="#0" id="circle12"/>
	<circle cx="38.5506" cy="462.65" r="4" fill="#0" id="circle13"/>
	<circle cx="38.5506" cy="730.635" r="4" fill="#0" id="circle14"/>
	<circle cx="46.4933" cy="746.958" r="4" fill="#0" id="circle15"/>
	<circle cx="47.2876" cy="446.01" r="4" fill="#0" id="circle16"/>
	<circle cx="51.656" cy="527.025" r="4" fill="#0" id="circle17"/>
	<circle cx="51.656" cy="544.146" r="4" fill="#0" id="circle18"/>
	<circle cx="54.0388" cy="762.393" r="4" fill="#0" id="circle19"/>
	<circle cx="56.0245" cy="560.106" r="4" fill="#0" id="circle20"/>
	<circle cx="56.8188" cy="429.211" r="4" fill="#0" id="circle21"/>
	<circle cx="56.8188" cy="512.093" r="4" fill="#0" id="circle22"/>
	<circle cx="62.7758" cy="778.013" r="4" fill="#0" id="circle23"/>
	<circle cx="63.57" cy="496.357" r="4" fill="#0" id="circle24"/>
	<circle cx="67.5414" cy="412.606" r="4" fill="#0" id="circle25"/>
	<circle cx="69.527" cy="576.746" r="4" fill="#0" id="circle26"/>
	<circle cx="72.307" cy="480.957" r="4" fill="#0" id="circle27"/>
	<circle cx="73.1012" cy="795.399" r="4" fill="#0" id="circle28"/>
	<circle cx="79.8525" cy="396.725" r="4" fill="#0" id="circle29"/>
	<circle cx="83.0296" cy="465.747" r="4" fill="#0" id="circle30"/>
	<circle cx="84.6181" cy="812.087" r="4" fill="#0" id="circle31"/>
	<circle cx="89.3837" cy="587.31" r="4" fill="#0" id="circle32"/>
	<circle cx="94.5465" cy="382.38" r="4" fill="#0" id="circle33"/>
	<circle cx="97.3264" cy="450.497" r="4" fill="#0" id="circle34"/>
	<circle cx="97.3264" cy="828.886" r="4" fill="#0" id="circle35"/>
	<circle cx="110.829" cy="367.655" r="4" fill="#0" id="circle36"/>
	<circle cx="110.829" cy="592.989" r="4" fill="#0" id="circle37"/>
	<circle cx="110.829" cy="844.772" r="4" fill="#0" id="circle38"/>
	<circle cx="116.389" cy="435.247" r="4" fill="#0" id="circle39"/>
	<circle cx="125.126" cy="859.902" r="4" fill="#0" id="circle40"/>
	<circle cx="127.906" cy="352.154" r="4" fill="#0" id="circle41"/>
	<circle cx="131.877" cy="595.155" r="4" fill="#0" id="circle42"/>
	<circle cx="137.834" cy="421.427" r="4" fill="#0" id="circle43"/>
	<circle cx="141.408" cy="875.664" r="4" fill="#0" id="circle44"/>
	<circle cx="145.38" cy="336.313" r="4" fill="#0" id="circle45"/>
	<circle cx="152.925" cy="594.379" r="4" fill="#0" id="circle46"/>
	<circle cx="158.882" cy="409.253" r="4" fill="#0" id="circle47"/>
	<circle cx="159.676" cy="891.241" r="4" fill="#0" id="circle48"/>
	<circle cx="161.662" cy="321.032" r="4" fill="#0" id="circle49"/>
	<circle cx="165.633" cy="137.437" r="4" fill="#0" id="circle50"/>
	<circle cx="168.413" cy="159.897" r="4" fill="#0" id="circle51"/>
	<circle cx="170.399" cy="111.345" r="4" fill="#0" id="circle52"/>
	<circle cx="172.385" cy="310.234" r="4" fill="#0" id="circle53"/>
	<circle cx="174.37" cy="590.447" r="4" fill="#0" id="circle54"/>
	<circle cx="175.165" cy="178.858" r="4" fill="#0" id="circle55"/>
	<circle cx="177.15" cy="95.0318" r="4" fill="#0" id="circle56"/>
	<circle cx="179.93" cy="397.798" r="4" fill="#0" id="circle57"/>
	<circle cx="179.93" cy="906.645" r="4" fill="#0" id="circle58"/>
	<circle cx="182.71" cy="196.345" r="4" fill="#0" id="circle59"/>
	<circle cx="183.902" cy="297.998" r="4" fill="#0" id="circle60"/>
	<circle cx="187.476" cy="79.1024" r="4" fill="#0" id="circle61"/>
	<circle cx="190.653" cy="211.039" r="4" fill="#0" id="circle62"/>
	<circle cx="191.674" cy="265.205" r="4" fill="#0" id="circle63"/>
	<circle cx="193.036" cy="279.964" r="4" fill="#0" id="circle64"/>
	<circle cx="193.565" cy="259.357" r="4" fill="#0" id="circle65"/>
	<circle cx="195.418" cy="583.153" r="4" fill="#0" id="circle66"/>
	<circle cx="196.213" cy="238.485" r="4" fill="#0" id="circle67"/>
	<circle cx="197.404" cy="294.066" r="4" fill="#0" id="circle68"/>
	<circle cx="200.978" cy="386.484" r="4" fill="#0" id="circle69"/>
	<circle cx="201.375" cy="920.545" r="4" fill="#0" id="circle70"/>
	<circle cx="204.95" cy="63.7907" r="4" fill="#0" id="circle71"/>
	<circle cx="204.95" cy="221.982" r="4" fill="#0" id="circle72"/>
	<circle cx="206.538" cy="302.953" r="4" fill="#0" id="circle73"/>
	<circle cx="213.687" cy="313.367" r="4" fill="#0" id="circle74"/>
	<circle cx="216.466" cy="572.298" r="4" fill="#0" id="circle75"/>
	<circle cx="222.423" cy="374.702" r="4" fill="#0" id="circle76"/>
	<circle cx="222.423" cy="932.454" r="4" fill="#0" id="circle77"/>
	<circle cx="225.203" cy="328.696" r="4" fill="#0" id="circle78"/>
	<circle cx="225.998" cy="51.8943" r="4" fill="#0" id="circle79"/>
	<circle cx="225.998" cy="211.026" r="4" fill="#0" id="circle80"/>
	<circle cx="226.792" cy="194.902" r="4" fill="#0" id="circle81"/>
	<circle cx="227.983" cy="176.003" r="4" fill="#0" id="circle82"/>
	<circle cx="227.983" cy="281.596" r="4" fill="#0" id="circle83"/>
	<circle cx="229.175" cy="290.611" r="4" fill="#0" id="circle84"/>
	<circle cx="229.969" cy="266.108" r="4" fill="#0" id="circle85"/>
	<circle cx="236.72" cy="343.284" r="4" fill="#0" id="circle86"/>
	<circle cx="238.309" cy="559.458" r="4" fill="#0" id="circle87"/>
	<circle cx="241.486" cy="164.265" r="4" fill="#0" id="circle88"/>
	<circle cx="241.486" cy="258.121" r="4" fill="#0" id="circle89"/>
	<circle cx="241.486" cy="301.63" r="4" fill="#0" id="circle90"/>
	<circle cx="243.472" cy="360.507" r="4" fill="#0" id="circle91"/>
	<circle cx="243.472" cy="942.466" r="4" fill="#0" id="circle92"/>
	<circle cx="247.443" cy="42.244" r="4" fill="#0" id="circle93"/>
	<circle cx="247.443" cy="211.463" r="4" fill="#0" id="circle94"/>
	<circle cx="253.003" cy="575.436" r="4" fill="#0" id="circle95"/>
	<circle cx="256.974" cy="540.607" r="4" fill="#0" id="circle96"/>
	<circle cx="257.768" cy="263.09" r="4" fill="#0" id="circle97"/>
	<circle cx="258.96" cy="295.055" r="4" fill="#0" id="circle98"/>
	<circle cx="260.548" cy="519.921" r="4" fill="#0" id="circle99"/>
	<circle cx="262.534" cy="162.377" r="4" fill="#0" id="circle100"/>
	<circle cx="262.534" cy="347.64" r="4" fill="#0" id="circle101"/>
	<circle cx="264.52" cy="277.757" r="4" fill="#0" id="circle102"/>
	<circle cx="264.52" cy="591.537" r="4" fill="#0" id="circle103"/>
	<circle cx="264.52" cy="951.075" r="4" fill="#0" id="circle104"/>
	<circle cx="265.711" cy="502.76" r="4" fill="#0" id="circle105"/>
	<circle cx="267.697" cy="492.651" r="4" fill="#0" id="circle106"/>
	<circle cx="268.491" cy="34.138" r="4" fill="#0" id="circle107"/>
	<circle cx="268.491" cy="216.687" r="4" fill="#0" id="circle108"/>
	<circle cx="268.491" cy="481.222" r="4" fill="#0" id="circle109"/>
	<circle cx="269.285" cy="416.71" r="4" fill="#0" id="circle110"/>
	<circle cx="271.271" cy="454.707" r="4" fill="#0" id="circle111"/>
	<circle cx="270.874" cy="468.999" r="4" fill="#0" id="circle112"/>
	<circle cx="271.668" cy="439.435" r="4" fill="#0" id="circle113"/>
	<circle cx="278.022" cy="333.621" r="4" fill="#0" id="circle114"/>
	<circle cx="278.022" cy="545.69" r="4" fill="#0" id="circle115"/>
	<circle cx="282.391" cy="481.196" r="4" fill="#0" id="circle116"/>
	<circle cx="281.994" cy="608.04" r="4" fill="#0" id="circle117"/>
	<circle cx="283.979" cy="168.731" r="4" fill="#0" id="circle118"/>
	<circle cx="285.568" cy="229.254" r="4" fill="#0" id="circle119"/>
	<circle cx="285.568" cy="958.431" r="4" fill="#0" id="circle120"/>
	<circle cx="289.539" cy="27.3117" r="4" fill="#0" id="circle121"/>
	<circle cx="289.539" cy="318.768" r="4" fill="#0" id="circle122"/>
	<circle cx="296.29" cy="245.06" r="4" fill="#0" id="circle123"/>
	<circle cx="298.276" cy="303.042" r="4" fill="#0" id="circle124"/>
	<circle cx="299.07" cy="480.163" r="4" fill="#0" id="circle125"/>
	<circle cx="299.467" cy="549.882" r="4" fill="#0" id="circle126"/>
	<circle cx="302.247" cy="263.209" r="4" fill="#0" id="circle127"/>
	<circle cx="302.247" cy="287.514" r="4" fill="#0" id="circle128"/>
	<circle cx="303.042" cy="618.048" r="4" fill="#0" id="circle129"/>
	<circle cx="304.63" cy="177.547" r="4" fill="#0" id="circle130"/>
	<circle cx="307.013" cy="965.063" r="4" fill="#0" id="circle131"/>
	<circle cx="310.984" cy="21.5533" r="4" fill="#0" id="circle132"/>
	<circle cx="308.999" cy="177.547" r="4" fill="#0" id="circle133"/>
	<circle cx="316.544" cy="690.088" r="4" fill="#0" id="circle134"/>
	<circle cx="320.515" cy="480.044" r="4" fill="#0" id="circle135"/>
	<circle cx="320.515" cy="550.615" r="4" fill="#0" id="circle136"/>
	<circle cx="324.487" cy="621.066" r="4" fill="#0" id="circle137"/>
	<circle cx="326.075" cy="184.974" r="4" fill="#0" id="circle138"/>
	<circle cx="326.075" cy="705.695" r="4" fill="#0" id="circle139"/>
	<circle cx="328.061" cy="970.756" r="4" fill="#0" id="circle140"/>
	<circle cx="332.032" cy="16.8848" r="4" fill="#0" id="circle141"/>
	<circle cx="336.798" cy="721.576" r="4" fill="#0" id="circle142"/>
	<circle cx="341.564" cy="483.34" r="4" fill="#0" id="circle143"/>
	<circle cx="341.564" cy="545.558" r="4" fill="#0" id="circle144"/>
	<circle cx="345.535" cy="621.19" r="4" fill="#0" id="circle145"/>
	<circle cx="347.123" cy="187.917" r="4" fill="#0" id="circle146"/>
	<circle cx="348.315" cy="736.87" r="4" fill="#0" id="circle147"/>
	<circle cx="349.109" cy="975.706" r="4" fill="#0" id="circle148"/>
	<circle cx="353.08" cy="12.8958" r="4" fill="#0" id="circle149"/>
	<circle cx="361.023" cy="493.189" r="4" fill="#0" id="circle150"/>
	<circle cx="361.023" cy="751.366" r="4" fill="#0" id="circle151"/>
	<circle cx="361.817" cy="536.278" r="4" fill="#0" id="circle152"/>
	<circle cx="366.583" cy="620.47" r="4" fill="#0" id="circle153"/>
	<circle cx="368.569" cy="186.24" r="4" fill="#0" id="circle154"/>
	<circle cx="370.157" cy="979.934" r="4" fill="#0" id="circle155"/>
	<circle cx="372.143" cy="509.472" r="4" fill="#0" id="circle156"/>
	<circle cx="373.334" cy="285.965" r="4" fill="#0" id="circle157"/>
	<circle cx="374.129" cy="9.91287" r="4" fill="#0" id="circle158"/>
	<circle cx="374.129" cy="523.76" r="4" fill="#0" id="circle159"/>
	<circle cx="376.114" cy="309.674" r="4" fill="#0" id="circle160"/>
	<circle cx="376.114" cy="766.496" r="4" fill="#0" id="circle161"/>
	<circle cx="378.1" cy="258.695" r="4" fill="#0" id="circle162"/>
	<circle cx="382.865" cy="329.252" r="4" fill="#0" id="circle163"/>
	<circle cx="385.645" cy="240.93" r="4" fill="#0" id="circle164"/>
	<circle cx="387.631" cy="619.91" r="4" fill="#0" id="circle165"/>
	<circle cx="389.617" cy="182.273" r="4" fill="#0" id="circle166"/>
	<circle cx="391.602" cy="983.729" r="4" fill="#0" id="circle167"/>
	<circle cx="393.588" cy="345.217" r="4" fill="#0" id="circle168"/>
	<circle cx="395.574" cy="7.53007" r="4" fill="#0" id="circle169"/>
	<circle cx="395.574" cy="780.661" r="4" fill="#0" id="circle170"/>
	<circle cx="399.148" cy="224.409" r="4" fill="#0" id="circle171"/>
	<circle cx="409.076" cy="619.601" r="4" fill="#0" id="circle172"/>
	<circle cx="410.665" cy="176.621" r="4" fill="#0" id="circle173"/>
	<circle cx="410.665" cy="358.684" r="4" fill="#0" id="circle174"/>
	<circle cx="412.65" cy="986.985" r="4" fill="#0" id="circle175"/>
	<circle cx="415.033" cy="288.745" r="4" fill="#0" id="circle176"/>
	<circle cx="415.43" cy="273.521" r="4" fill="#0" id="circle177"/>
	<circle cx="415.43" cy="301.321" r="4" fill="#0" id="circle178"/>
	<circle cx="416.622" cy="5.98567" r="4" fill="#0" id="circle179"/>
	<circle cx="416.622" cy="789.927" r="4" fill="#0" id="circle180"/>
	<circle cx="418.607" cy="213.642" r="4" fill="#0" id="circle181"/>
	<circle cx="428.139" cy="264.123" r="4" fill="#0" id="circle182"/>
	<circle cx="428.139" cy="312.705" r="4" fill="#0" id="circle183"/>
	<circle cx="430.124" cy="618.683" r="4" fill="#0" id="circle184"/>
	<circle cx="432.11" cy="169.561" r="4" fill="#0" id="circle185"/>
	<circle cx="432.11" cy="363.362" r="4" fill="#0" id="circle186"/>
	<circle cx="434.096" cy="989.844" r="4" fill="#0" id="circle187"/>
	<circle cx="437.67" cy="4.92665" r="4" fill="#0" id="circle188"/>
	<circle cx="437.67" cy="792.31" r="4" fill="#0" id="circle189"/>
	<circle cx="439.656" cy="213.091" r="4" fill="#0" id="circle190"/>
	<circle cx="444.421" cy="266.783" r="4" fill="#0" id="circle191"/>
	<circle cx="445.613" cy="308.513" r="4" fill="#0" id="circle192"/>
	<circle cx="451.172" cy="616.777" r="4" fill="#0" id="circle193"/>
	<circle cx="452.364" cy="281.279" r="4" fill="#0" id="circle194"/>
	<circle cx="453.158" cy="161.622" r="4" fill="#0" id="circle195"/>
	<circle cx="453.158" cy="295.933" r="4" fill="#0" id="circle196"/>
	<circle cx="453.158" cy="356.615" r="4" fill="#0" id="circle197"/>
	<circle cx="455.144" cy="992.245" r="4" fill="#0" id="circle198"/>
	<circle cx="458.718" cy="4" r="4" fill="#0" id="circle199"/>
	<circle cx="458.718" cy="222.423" r="4" fill="#0" id="circle200"/>
	<circle cx="459.115" cy="788.162" r="4" fill="#0" id="circle201"/>
	<circle cx="469.441" cy="341.961" r="4" fill="#0" id="circle202"/>
	<circle cx="472.221" cy="237.078" r="4" fill="#0" id="circle203"/>
	<circle cx="472.221" cy="610.78" r="4" fill="#0" id="circle204"/>
	<circle cx="474.206" cy="153.543" r="4" fill="#0" id="circle205"/>
	<circle cx="476.192" cy="994.054" r="4" fill="#0" id="circle206"/>
	<circle cx="476.589" cy="333.135" r="4" fill="#0" id="circle207"/>
	<circle cx="480.163" cy="4.27799" r="4" fill="#0" id="circle208"/>
	<circle cx="480.163" cy="252.05" r="4" fill="#0" id="circle209"/>
	<circle cx="480.163" cy="778.847" r="4" fill="#0" id="circle210"/>
	<circle cx="483.34" cy="322.541" r="4" fill="#0" id="circle211"/>
	<circle cx="484.929" cy="268.412" r="4" fill="#0" id="circle212"/>
	<circle cx="486.517" cy="310.984" r="4" fill="#0" id="circle213"/>
	<circle cx="487.709" cy="282.391" r="4" fill="#0" id="circle214"/>
	<circle cx="487.709" cy="298.011" r="4" fill="#0" id="circle215"/>
	<circle cx="490.489" cy="599.224" r="4" fill="#0" id="circle216"/>
	<circle cx="492.871" cy="425.081" r="4" fill="#0" id="circle217"/>
	<circle cx="492.474" cy="444.598" r="4" fill="#0" id="circle218"/>
	<circle cx="495.254" cy="145.697" r="4" fill="#0" id="circle219"/>
	<circle cx="494.857" cy="464.675" r="4" fill="#0" id="circle220"/>
	<circle cx="496.843" cy="399.704" r="4" fill="#0" id="circle221"/>
	<circle cx="497.24" cy="995.334" r="4" fill="#0" id="circle222"/>
	<circle cx="498.431" cy="478.733" r="4" fill="#0" id="circle223"/>
	<circle cx="501.211" cy="5.1914" r="4" fill="#0" id="circle224"/>
	<circle cx="501.211" cy="373.467" r="4" fill="#0" id="circle225"/>
	<circle cx="501.211" cy="765.305" r="4" fill="#0" id="circle226"/>
	<circle cx="502.006" cy="495.166" r="4" fill="#0" id="circle227"/>
	<circle cx="502.006" cy="584.256" r="4" fill="#0" id="circle228"/>
	<circle cx="504.388" cy="354.801" r="4" fill="#0" id="circle229"/>
	<circle cx="505.58" cy="340.452" r="4" fill="#0" id="circle230"/>
	<circle cx="505.977" cy="511.934" r="4" fill="#0" id="circle231"/>
	<circle cx="508.757" cy="530.957" r="4" fill="#0" id="circle232"/>
	<circle cx="508.757" cy="567.89" r="4" fill="#0" id="circle233"/>
	<circle cx="509.154" cy="324.134" r="4" fill="#0" id="circle234"/>
	<circle cx="510.742" cy="552.353" r="4" fill="#0" id="circle235"/>
	<circle cx="514.714" cy="311.823" r="4" fill="#0" id="circle236"/>
	<circle cx="516.699" cy="138.668" r="4" fill="#0" id="circle237"/>
	<circle cx="518.288" cy="996" r="4" fill="#0" id="circle238"/>
	<circle cx="519.479" cy="299.556" r="4" fill="#0" id="circle239"/>
	<circle cx="520.671" cy="749.062" r="4" fill="#0" id="circle240"/>
	<circle cx="522.259" cy="6.34309" r="4" fill="#0" id="circle241"/>
	<circle cx="523.848" cy="286.561" r="4" fill="#0" id="circle242"/>
	<circle cx="529.408" cy="274.21" r="4" fill="#0" id="circle243"/>
	<circle cx="533.776" cy="265.402" r="4" fill="#0" id="circle244"/>
	<circle cx="536.953" cy="733.181" r="4" fill="#0" id="circle245"/>
	<circle cx="537.748" cy="133.068" r="4" fill="#0" id="circle246"/>
	<circle cx="539.733" cy="995.007" r="4" fill="#0" id="circle247"/>
	<circle cx="543.307" cy="8.32434" r="4" fill="#0" id="circle248"/>
	<circle cx="544.499" cy="248.317" r="4" fill="#0" id="circle249"/>
	<circle cx="551.25" cy="717.075" r="4" fill="#0" id="circle250"/>
	<circle cx="558.796" cy="129.852" r="4" fill="#0" id="circle251"/>
	<circle cx="559.987" cy="232.881" r="4" fill="#0" id="circle252"/>
	<circle cx="560.781" cy="993.216" r="4" fill="#0" id="circle253"/>
	<circle cx="563.561" cy="701.883" r="4" fill="#0" id="circle254"/>
	<circle cx="564.753" cy="10.7071" r="4" fill="#0" id="circle255"/>
	<circle cx="575.078" cy="686.629" r="4" fill="#0" id="circle256"/>
	<circle cx="579.844" cy="129.891" r="4" fill="#0" id="circle257"/>
	<circle cx="579.844" cy="220.482" r="4" fill="#0" id="circle258"/>
	<circle cx="581.829" cy="989.487" r="4" fill="#0" id="circle259"/>
	<circle cx="583.815" cy="675.112" r="4" fill="#0" id="circle260"/>
	<circle cx="585.801" cy="13.8092" r="4" fill="#0" id="circle261"/>
	<circle cx="601.289" cy="134.039" r="4" fill="#0" id="circle262"/>
	<circle cx="601.289" cy="209.053" r="4" fill="#0" id="circle263"/>
	<circle cx="603.275" cy="984.165" r="4" fill="#0" id="circle264"/>
	<circle cx="606.849" cy="18.1644" r="4" fill="#0" id="circle265"/>
	<circle cx="618.366" cy="142.56" r="4" fill="#0" id="circle266"/>
	<circle cx="618.366" cy="196.054" r="4" fill="#0" id="circle267"/>
	<circle cx="624.323" cy="976.801" r="4" fill="#0" id="circle268"/>
	<circle cx="628.294" cy="23.283" r="4" fill="#0" id="circle269"/>
	<circle cx="628.294" cy="159.323" r="4" fill="#0" id="circle270"/>
	<circle cx="628.294" cy="180.68" r="4" fill="#0" id="circle271"/>
	<circle cx="645.371" cy="967.565" r="4" fill="#0" id="circle272"/>
	<circle cx="649.342" cy="29.5357" r="4" fill="#0" id="circle273"/>
	<circle cx="666.419" cy="956.768" r="4" fill="#0" id="circle274"/>
	<circle cx="670.39" cy="37.0503" r="4" fill="#0" id="circle275"/>
	<circle cx="687.864" cy="944.103" r="4" fill="#0" id="circle276"/>
	<circle cx="691.438" cy="46.0564" r="4" fill="#0" id="circle277"/>
	<circle cx="708.912" cy="931.029" r="4" fill="#0" id="circle278"/>
	<circle cx="712.883" cy="56.9776" r="4" fill="#0" id="circle279"/>
	<circle cx="729.96" cy="918.643" r="4" fill="#0" id="circle280"/>
	<circle cx="733.932" cy="70.6743" r="4" fill="#0" id="circle281"/>
	<circle cx="751.008" cy="905.97" r="4" fill="#0" id="circle282"/>
	<circle cx="753.391" cy="86.6038" r="4" fill="#0" id="circle283"/>
	<circle cx="767.688" cy="102.489" r="4" fill="#0" id="circle284"/>
	<circle cx="767.291" cy="255.739" r="4" fill="#0" id="circle285"/>
	<circle cx="769.674" cy="271.933" r="4" fill="#0" id="circle286"/>
	<circle cx="770.468" cy="231.337" r="4" fill="#0" id="circle287"/>
	<circle cx="772.454" cy="892.666" r="4" fill="#0" id="circle288"/>
	<circle cx="774.439" cy="209.495" r="4" fill="#0" id="circle289"/>
	<circle cx="774.439" cy="289.892" r="4" fill="#0" id="circle290"/>
	<circle cx="776.028" cy="117.36" r="4" fill="#0" id="circle291"/>
	<circle cx="778.013" cy="191.01" r="4" fill="#0" id="circle292"/>
	<circle cx="781.19" cy="132.949" r="4" fill="#0" id="circle293"/>
	<circle cx="781.19" cy="172.782" r="4" fill="#0" id="circle294"/>
	<circle cx="781.19" cy="306.894" r="4" fill="#0" id="circle295"/>
	<circle cx="783.176" cy="152.925" r="4" fill="#0" id="circle296"/>
	<circle cx="788.736" cy="322.545" r="4" fill="#0" id="circle297"/>
	<circle cx="791.516" cy="877.495" r="4" fill="#0" id="circle298"/>
	<circle cx="797.473" cy="337.769" r="4" fill="#0" id="circle299"/>
	<circle cx="806.21" cy="862.868" r="4" fill="#0" id="circle300"/>
	<circle cx="807.004" cy="353.125" r="4" fill="#0" id="circle301"/>
	<circle cx="815.741" cy="847.159" r="4" fill="#0" id="circle302"/>
	<circle cx="817.727" cy="369.005" r="4" fill="#0" id="circle303"/>
	<circle cx="822.492" cy="826.702" r="4" fill="#0" id="circle304"/>
	<circle cx="828.052" cy="806.925" r="4" fill="#0" id="circle305"/>
	<circle cx="829.244" cy="385.469" r="4" fill="#0" id="circle306"/>
	<circle cx="834.009" cy="789.133" r="4" fill="#0" id="circle307"/>
	<circle cx="839.569" cy="772.409" r="4" fill="#0" id="circle308"/>
	<circle cx="840.76" cy="401.292" r="4" fill="#0" id="circle309"/>
	<circle cx="845.526" cy="755.734" r="4" fill="#0" id="circle310"/>
	<circle cx="851.086" cy="416.542" r="4" fill="#0" id="circle311"/>
	<circle cx="851.086" cy="739.809" r="4" fill="#0" id="circle312"/>
	<circle cx="857.043" cy="723.606" r="4" fill="#0" id="circle313"/>
	<circle cx="861.014" cy="431.669" r="4" fill="#0" id="circle314"/>
	<circle cx="863" cy="707.84" r="4" fill="#0" id="circle315"/>
	<circle cx="868.56" cy="691.597" r="4" fill="#0" id="circle316"/>
	<circle cx="870.545" cy="447.686" r="4" fill="#0" id="circle317"/>
	<circle cx="874.517" cy="673.876" r="4" fill="#0" id="circle318"/>
	<circle cx="879.282" cy="463.792" r="4" fill="#0" id="circle319"/>
	<circle cx="880.077" cy="655.299" r="4" fill="#0" id="circle320"/>
	<circle cx="884.842" cy="638.222" r="4" fill="#0" id="circle321"/>
	<circle cx="886.034" cy="479.17" r="4" fill="#0" id="circle322"/>
	<circle cx="889.608" cy="620.307" r="4" fill="#0" id="circle323"/>
	<circle cx="890.799" cy="492.713" r="4" fill="#0" id="circle324"/>
	<circle cx="893.182" cy="603.592" r="4" fill="#0" id="circle325"/>
	<circle cx="894.374" cy="508.007" r="4" fill="#0" id="circle326"/>
	<circle cx="896.359" cy="579.407" r="4" fill="#0" id="circle327"/>
	<circle cx="896.756" cy="527.113" r="4" fill="#0" id="circle328"/>
	<circle cx="898.742" cy="550.337" r="4" fill="#0" id="circle329"/>
	<circle cx="212.059" cy="217.712" r="4" fill="#0" id="circle330"/>
	<circle cx="219.145" cy="214.169" r="4" fill="#0" id="circle331"/>
	<circle cx="245.718" cy="552.533" r="4" fill="#0" id="circle332"/>
	<circle cx="251.918" cy="545.446" r="4" fill="#0" id="circle333"/>
	</g>
</svg>