<?xml version="1.0" encoding="UTF-8" standalone="no"?>
<!-- Created with CurveBenchmark -->
<svg
	xmlns:dc="http://purl.org/dc/elements/1.1/"
	xmlns:cc="http://creativecommons.org/ns#"
	xmlns:rdf="http://www.w3.org/1999/02/22-rdf-syntax-ns#"
	xmlns:svg="http://www.w3.org/2000/svg"
	xmlns="http://www.w3.org/2000/svg"
	xmlns:sodipodi="http://sodipodi.sourceforge.net/DTD/sodipodi-0.dtd"
	xmlns:inkscape="http://www.inkscape.org/namespaces/inkscape"
	width="1000"
	height="1000"
	id="svg2"
	version="1.1"
	sodipodi:docname="multiple-curves/gathan1-mc40.txt">
<defs
	id="defs4" />
<metadata
	id="metadata7">
	<rdf:RDF>
		<cc:Work
			rdf:about="">
			<dc:format>image/svg+xml</dc:format>
			<dc:type
				rdf:resource="http://purl.org/dc/dcmitype/StillImage" />
			<dc:title></dc:title>
		</cc:Work>
	</rdf:RDF>
</metadata>
<g
	inkscape:label="Layer 1"
	inkscape:groupmode="layer"
	id="layer1">
	<path style="fill:none;stroke:red;stroke-width:1px;stroke-linecap:butt;stroke-linejoin:miter;stroke-opacity:1" d="M 180.238,123.955 176.721,110.939 z" id="boundary" inkscape:connector-curvature="0" />
	<path style="fill:none;stroke:red;stroke-width:1px;stroke-linecap:butt;stroke-linejoin:miter;stroke-opacity:1" d="M 177.424,91.9433 176.721,110.939 z" id="boundary" inkscape:connector-curvature="0" />
	<path style="fill:none;stroke:red;stroke-width:1px;stroke-linecap:butt;stroke-linejoin:miter;stroke-opacity:1" d="M 187.626,137.234 180.238,123.955 z" id="boundary" inkscape:connector-curvature="0" />
	<path style="fill:none;stroke:red;stroke-width:1px;stroke-linecap:butt;stroke-linejoin:miter;stroke-opacity:1" d="M 177.424,91.9433 181.294,76.2894 z" id="boundary" inkscape:connector-curvature="0" />
	<path style="fill:none;stroke:red;stroke-width:1px;stroke-linecap:butt;stroke-linejoin:miter;stroke-opacity:1" d="M 188.681,63.3089 181.294,76.2894 z" id="boundary" inkscape:connector-curvature="0" />
	<path style="fill:none;stroke:red;stroke-width:1px;stroke-linecap:butt;stroke-linejoin:miter;stroke-opacity:1" d="M 190.625,195.45 184.727,205.101 z" id="boundary" inkscape:connector-curvature="0" />
	<path style="fill:none;stroke:red;stroke-width:1px;stroke-linecap:butt;stroke-linejoin:miter;stroke-opacity:1" d="M 177.22,215.825 184.727,205.101 z" id="boundary" inkscape:connector-curvature="0" />
	<path style="fill:none;stroke:red;stroke-width:1px;stroke-linecap:butt;stroke-linejoin:miter;stroke-opacity:1" d="M 204.511,216.119 193.305,211.535 z" id="boundary" inkscape:connector-curvature="0" />
	<path style="fill:none;stroke:red;stroke-width:1px;stroke-linecap:butt;stroke-linejoin:miter;stroke-opacity:1" d="M 187.626,137.234 197.123,150.267 z" id="boundary" inkscape:connector-curvature="0" />
	<path style="fill:none;stroke:red;stroke-width:1px;stroke-linecap:butt;stroke-linejoin:miter;stroke-opacity:1" d="M 198.179,184.46 190.625,195.45 z" id="boundary" inkscape:connector-curvature="0" />
	<path style="fill:none;stroke:red;stroke-width:1px;stroke-linecap:butt;stroke-linejoin:miter;stroke-opacity:1" d="M 212.953,56.0624 225.617,61.5149 z" id="boundary" inkscape:connector-curvature="0" />
	<path style="fill:none;stroke:red;stroke-width:1px;stroke-linecap:butt;stroke-linejoin:miter;stroke-opacity:1" d="M 212.953,56.0624 200.289,55.3589 z" id="boundary" inkscape:connector-curvature="0" />
	<path style="fill:none;stroke:red;stroke-width:1px;stroke-linecap:butt;stroke-linejoin:miter;stroke-opacity:1" d="M 225.617,61.5149 238.281,69.9574 z" id="boundary" inkscape:connector-curvature="0" />
	<path style="fill:none;stroke:red;stroke-width:1px;stroke-linecap:butt;stroke-linejoin:miter;stroke-opacity:1" d="M 238.281,69.9574 249.889,82.3047 z" id="boundary" inkscape:connector-curvature="0" />
	<path style="fill:none;stroke:red;stroke-width:1px;stroke-linecap:butt;stroke-linejoin:miter;stroke-opacity:1" d="M 239.336,127.261 249.889,114.809 z" id="boundary" inkscape:connector-curvature="0" />
	<path style="fill:none;stroke:red;stroke-width:1px;stroke-linecap:butt;stroke-linejoin:miter;stroke-opacity:1" d="M 204.511,174.962 198.179,184.46 z" id="boundary" inkscape:connector-curvature="0" />
	<path style="fill:none;stroke:red;stroke-width:1px;stroke-linecap:butt;stroke-linejoin:miter;stroke-opacity:1" d="M 208.732,162.861 204.511,174.962 z" id="boundary" inkscape:connector-curvature="0" />
	<path style="fill:none;stroke:red;stroke-width:1px;stroke-linecap:butt;stroke-linejoin:miter;stroke-opacity:1" d="M 208.732,162.861 219.285,153.591 z" id="boundary" inkscape:connector-curvature="0" />
	<path style="fill:none;stroke:red;stroke-width:1px;stroke-linecap:butt;stroke-linejoin:miter;stroke-opacity:1" d="M 219.285,153.591 228.783,140.98 z" id="boundary" inkscape:connector-curvature="0" />
	<path style="fill:none;stroke:red;stroke-width:1px;stroke-linecap:butt;stroke-linejoin:miter;stroke-opacity:1" d="M 267.83,243.733 254.43,238.881 z" id="boundary" inkscape:connector-curvature="0" />
	<path style="fill:none;stroke:red;stroke-width:1px;stroke-linecap:butt;stroke-linejoin:miter;stroke-opacity:1" d="M 239.336,127.261 228.783,140.98 z" id="boundary" inkscape:connector-curvature="0" />
	<path style="fill:none;stroke:red;stroke-width:1px;stroke-linecap:butt;stroke-linejoin:miter;stroke-opacity:1" d="M 188.681,63.3089 200.289,55.3589 z" id="boundary" inkscape:connector-curvature="0" />
	<path style="fill:none;stroke:red;stroke-width:1px;stroke-linecap:butt;stroke-linejoin:miter;stroke-opacity:1" d="M 82.0936,233.708 94.7574,231.597 z" id="boundary" inkscape:connector-curvature="0" />
	<path style="fill:none;stroke:red;stroke-width:1px;stroke-linecap:butt;stroke-linejoin:miter;stroke-opacity:1" d="M 107.421,229.838 94.7574,231.597 z" id="boundary" inkscape:connector-curvature="0" />
	<path style="fill:none;stroke:red;stroke-width:1px;stroke-linecap:butt;stroke-linejoin:miter;stroke-opacity:1" d="M 132.749,227.376 120.085,228.431 z" id="boundary" inkscape:connector-curvature="0" />
	<path style="fill:none;stroke:red;stroke-width:1px;stroke-linecap:butt;stroke-linejoin:miter;stroke-opacity:1" d="M 145.413,225.793 132.749,227.376 z" id="boundary" inkscape:connector-curvature="0" />
	<path style="fill:none;stroke:red;stroke-width:1px;stroke-linecap:butt;stroke-linejoin:miter;stroke-opacity:1" d="M 120.085,228.431 107.421,229.838 z" id="boundary" inkscape:connector-curvature="0" />
	<path style="fill:none;stroke:red;stroke-width:1px;stroke-linecap:butt;stroke-linejoin:miter;stroke-opacity:1" d="M 18.7745,257.628 31.4383,249.01 z" id="boundary" inkscape:connector-curvature="0" />
	<path style="fill:none;stroke:red;stroke-width:1px;stroke-linecap:butt;stroke-linejoin:miter;stroke-opacity:1" d="M 44.1021,243.557 31.4383,249.01 z" id="boundary" inkscape:connector-curvature="0" />
	<path style="fill:none;stroke:red;stroke-width:1px;stroke-linecap:butt;stroke-linejoin:miter;stroke-opacity:1" d="M 56.766,239.16 69.4298,236.17 z" id="boundary" inkscape:connector-curvature="0" />
	<path style="fill:none;stroke:red;stroke-width:1px;stroke-linecap:butt;stroke-linejoin:miter;stroke-opacity:1" d="M 82.0936,233.708 69.4298,236.17 z" id="boundary" inkscape:connector-curvature="0" />
	<path style="fill:none;stroke:red;stroke-width:1px;stroke-linecap:butt;stroke-linejoin:miter;stroke-opacity:1" d="M 44.1021,243.557 56.766,239.16 z" id="boundary" inkscape:connector-curvature="0" />
	<path style="fill:none;stroke:red;stroke-width:1px;stroke-linecap:butt;stroke-linejoin:miter;stroke-opacity:1" d="M 177.22,215.825 171.796,226.409 z" id="boundary" inkscape:connector-curvature="0" />
	<path style="fill:none;stroke:red;stroke-width:1px;stroke-linecap:butt;stroke-linejoin:miter;stroke-opacity:1" d="M 171.796,226.409 158.077,225.617 z" id="boundary" inkscape:connector-curvature="0" />
	<path style="fill:none;stroke:red;stroke-width:1px;stroke-linecap:butt;stroke-linejoin:miter;stroke-opacity:1" d="M 158.077,225.617 145.413,225.793 z" id="boundary" inkscape:connector-curvature="0" />
	<path style="fill:none;stroke:red;stroke-width:1px;stroke-linecap:butt;stroke-linejoin:miter;stroke-opacity:1" d="M 217.174,222.451 229.838,228.079 z" id="boundary" inkscape:connector-curvature="0" />
	<path style="fill:none;stroke:red;stroke-width:1px;stroke-linecap:butt;stroke-linejoin:miter;stroke-opacity:1" d="M 217.174,222.451 204.511,216.119 z" id="boundary" inkscape:connector-curvature="0" />
	<path style="fill:none;stroke:red;stroke-width:1px;stroke-linecap:butt;stroke-linejoin:miter;stroke-opacity:1" d="M 242.502,234.06 229.838,228.079 z" id="boundary" inkscape:connector-curvature="0" />
	<path style="fill:none;stroke:red;stroke-width:1px;stroke-linecap:butt;stroke-linejoin:miter;stroke-opacity:1" d="M 221.396,263.433 208.732,255.518 z" id="boundary" inkscape:connector-curvature="0" />
	<path style="fill:none;stroke:red;stroke-width:1px;stroke-linecap:butt;stroke-linejoin:miter;stroke-opacity:1" d="M 183.404,238.281 196.068,246.899 z" id="boundary" inkscape:connector-curvature="0" />
	<path style="fill:none;stroke:red;stroke-width:1px;stroke-linecap:butt;stroke-linejoin:miter;stroke-opacity:1" d="M 208.732,255.518 196.068,246.899 z" id="boundary" inkscape:connector-curvature="0" />
	<path style="fill:none;stroke:red;stroke-width:1px;stroke-linecap:butt;stroke-linejoin:miter;stroke-opacity:1" d="M 245.315,262.473 250.14,249.604 z" id="boundary" inkscape:connector-curvature="0" />
	<path style="fill:none;stroke:red;stroke-width:1px;stroke-linecap:butt;stroke-linejoin:miter;stroke-opacity:1" d="M 242.502,234.06 254.43,238.881 z" id="boundary" inkscape:connector-curvature="0" />
	<path style="fill:none;stroke:red;stroke-width:1px;stroke-linecap:butt;stroke-linejoin:miter;stroke-opacity:1" d="M 257.277,106.366 249.889,114.809 z" id="boundary" inkscape:connector-curvature="0" />
	<path style="fill:none;stroke:red;stroke-width:1px;stroke-linecap:butt;stroke-linejoin:miter;stroke-opacity:1" d="M 381.804,264.664 369.14,263.257 z" id="boundary" inkscape:connector-curvature="0" />
	<path style="fill:none;stroke:red;stroke-width:1px;stroke-linecap:butt;stroke-linejoin:miter;stroke-opacity:1" d="M 375.472,42.1674 362.809,44.9816 z" id="boundary" inkscape:connector-curvature="0" />
	<path style="fill:none;stroke:red;stroke-width:1px;stroke-linecap:butt;stroke-linejoin:miter;stroke-opacity:1" d="M 375.472,42.1674 388.136,40.0567 z" id="boundary" inkscape:connector-curvature="0" />
	<path style="fill:none;stroke:red;stroke-width:1px;stroke-linecap:butt;stroke-linejoin:miter;stroke-opacity:1" d="M 400.8,38.122 388.136,40.0567 z" id="boundary" inkscape:connector-curvature="0" />
	<path style="fill:none;stroke:red;stroke-width:1px;stroke-linecap:butt;stroke-linejoin:miter;stroke-opacity:1" d="M 413.464,37.2426 400.8,38.122 z" id="boundary" inkscape:connector-curvature="0" />
	<path style="fill:none;stroke:red;stroke-width:1px;stroke-linecap:butt;stroke-linejoin:miter;stroke-opacity:1" d="M 426.128,35.8355 413.464,37.2426 z" id="boundary" inkscape:connector-curvature="0" />
	<path style="fill:none;stroke:red;stroke-width:1px;stroke-linecap:butt;stroke-linejoin:miter;stroke-opacity:1" d="M 350.145,48.1475 362.809,44.9816 z" id="boundary" inkscape:connector-curvature="0" />
	<path style="fill:none;stroke:red;stroke-width:1px;stroke-linecap:butt;stroke-linejoin:miter;stroke-opacity:1" d="M 286.826,78.2241 299.489,69.078 z" id="boundary" inkscape:connector-curvature="0" />
	<path style="fill:none;stroke:red;stroke-width:1px;stroke-linecap:butt;stroke-linejoin:miter;stroke-opacity:1" d="M 286.826,78.2241 274.162,89.4809 z" id="boundary" inkscape:connector-curvature="0" />
	<path style="fill:none;stroke:red;stroke-width:1px;stroke-linecap:butt;stroke-linejoin:miter;stroke-opacity:1" d="M 312.153,62.0426 299.489,69.078 z" id="boundary" inkscape:connector-curvature="0" />
	<path style="fill:none;stroke:red;stroke-width:1px;stroke-linecap:butt;stroke-linejoin:miter;stroke-opacity:1" d="M 324.817,56.5901 337.481,52.017 z" id="boundary" inkscape:connector-curvature="0" />
	<path style="fill:none;stroke:red;stroke-width:1px;stroke-linecap:butt;stroke-linejoin:miter;stroke-opacity:1" d="M 350.145,48.1475 337.481,52.017 z" id="boundary" inkscape:connector-curvature="0" />
	<path style="fill:none;stroke:red;stroke-width:1px;stroke-linecap:butt;stroke-linejoin:miter;stroke-opacity:1" d="M 312.153,62.0426 324.817,56.5901 z" id="boundary" inkscape:connector-curvature="0" />
	<path style="fill:none;stroke:red;stroke-width:1px;stroke-linecap:butt;stroke-linejoin:miter;stroke-opacity:1" d="M 426.128,35.8355 438.791,35.6596 z" id="boundary" inkscape:connector-curvature="0" />
	<path style="fill:none;stroke:red;stroke-width:1px;stroke-linecap:butt;stroke-linejoin:miter;stroke-opacity:1" d="M 451.455,35.6596 438.791,35.6596 z" id="boundary" inkscape:connector-curvature="0" />
	<path style="fill:none;stroke:red;stroke-width:1px;stroke-linecap:butt;stroke-linejoin:miter;stroke-opacity:1" d="M 451.455,35.6596 464.119,35.6596 z" id="boundary" inkscape:connector-curvature="0" />
	<path style="fill:none;stroke:red;stroke-width:1px;stroke-linecap:butt;stroke-linejoin:miter;stroke-opacity:1" d="M 476.783,36.7149 464.119,35.6596 z" id="boundary" inkscape:connector-curvature="0" />
	<path style="fill:none;stroke:red;stroke-width:1px;stroke-linecap:butt;stroke-linejoin:miter;stroke-opacity:1" d="M 489.447,37.7702 476.783,36.7149 z" id="boundary" inkscape:connector-curvature="0" />
	<path style="fill:none;stroke:red;stroke-width:1px;stroke-linecap:butt;stroke-linejoin:miter;stroke-opacity:1" d="M 502.111,39.5291 514.774,41.4638 z" id="boundary" inkscape:connector-curvature="0" />
	<path style="fill:none;stroke:red;stroke-width:1px;stroke-linecap:butt;stroke-linejoin:miter;stroke-opacity:1" d="M 527.438,44.4539 514.774,41.4638 z" id="boundary" inkscape:connector-curvature="0" />
	<path style="fill:none;stroke:red;stroke-width:1px;stroke-linecap:butt;stroke-linejoin:miter;stroke-opacity:1" d="M 540.102,47.6199 552.766,52.3688 z" id="boundary" inkscape:connector-curvature="0" />
	<path style="fill:none;stroke:red;stroke-width:1px;stroke-linecap:butt;stroke-linejoin:miter;stroke-opacity:1" d="M 565.43,57.8213 552.766,52.3688 z" id="boundary" inkscape:connector-curvature="0" />
	<path style="fill:none;stroke:red;stroke-width:1px;stroke-linecap:butt;stroke-linejoin:miter;stroke-opacity:1" d="M 527.438,44.4539 540.102,47.6199 z" id="boundary" inkscape:connector-curvature="0" />
	<path style="fill:none;stroke:red;stroke-width:1px;stroke-linecap:butt;stroke-linejoin:miter;stroke-opacity:1" d="M 489.447,37.7702 502.111,39.5291 z" id="boundary" inkscape:connector-curvature="0" />
	<path style="fill:none;stroke:red;stroke-width:1px;stroke-linecap:butt;stroke-linejoin:miter;stroke-opacity:1" d="M 257.277,106.366 261.498,95.9535 z" id="boundary" inkscape:connector-curvature="0" />
	<path style="fill:none;stroke:red;stroke-width:1px;stroke-linecap:butt;stroke-linejoin:miter;stroke-opacity:1" d="M 261.498,95.9535 274.162,89.4809 z" id="boundary" inkscape:connector-curvature="0" />
	<path style="fill:none;stroke:red;stroke-width:1px;stroke-linecap:butt;stroke-linejoin:miter;stroke-opacity:1" d="M 280.494,247.603 267.83,243.733 z" id="boundary" inkscape:connector-curvature="0" />
	<path style="fill:none;stroke:red;stroke-width:1px;stroke-linecap:butt;stroke-linejoin:miter;stroke-opacity:1" d="M 293.157,250.065 280.494,247.603 z" id="boundary" inkscape:connector-curvature="0" />
	<path style="fill:none;stroke:red;stroke-width:1px;stroke-linecap:butt;stroke-linejoin:miter;stroke-opacity:1" d="M 305.821,253.055 293.157,250.065 z" id="boundary" inkscape:connector-curvature="0" />
	<path style="fill:none;stroke:red;stroke-width:1px;stroke-linecap:butt;stroke-linejoin:miter;stroke-opacity:1" d="M 318.485,255.342 305.821,253.055 z" id="boundary" inkscape:connector-curvature="0" />
	<path style="fill:none;stroke:red;stroke-width:1px;stroke-linecap:butt;stroke-linejoin:miter;stroke-opacity:1" d="M 331.149,257.452 343.813,259.387 z" id="boundary" inkscape:connector-curvature="0" />
	<path style="fill:none;stroke:red;stroke-width:1px;stroke-linecap:butt;stroke-linejoin:miter;stroke-opacity:1" d="M 331.149,257.452 318.485,255.342 z" id="boundary" inkscape:connector-curvature="0" />
	<path style="fill:none;stroke:red;stroke-width:1px;stroke-linecap:butt;stroke-linejoin:miter;stroke-opacity:1" d="M 369.14,263.257 356.477,262.729 z" id="boundary" inkscape:connector-curvature="0" />
	<path style="fill:none;stroke:red;stroke-width:1px;stroke-linecap:butt;stroke-linejoin:miter;stroke-opacity:1" d="M 356.477,262.729 343.813,259.387 z" id="boundary" inkscape:connector-curvature="0" />
	<path style="fill:none;stroke:red;stroke-width:1px;stroke-linecap:butt;stroke-linejoin:miter;stroke-opacity:1" d="M 516.085,251.213 526.809,249.068 z" id="boundary" inkscape:connector-curvature="0" />
	<path style="fill:none;stroke:red;stroke-width:1px;stroke-linecap:butt;stroke-linejoin:miter;stroke-opacity:1" d="M 516.085,251.213 508.443,253.583 z" id="boundary" inkscape:connector-curvature="0" />
	<path style="fill:none;stroke:red;stroke-width:1px;stroke-linecap:butt;stroke-linejoin:miter;stroke-opacity:1" d="M 534.852,247.46 526.809,249.068 z" id="boundary" inkscape:connector-curvature="0" />
	<path style="fill:none;stroke:red;stroke-width:1px;stroke-linecap:butt;stroke-linejoin:miter;stroke-opacity:1" d="M 546.434,243.733 534.852,247.46 z" id="boundary" inkscape:connector-curvature="0" />
	<path style="fill:none;stroke:red;stroke-width:1px;stroke-linecap:butt;stroke-linejoin:miter;stroke-opacity:1" d="M 546.434,243.733 559.098,240.743 z" id="boundary" inkscape:connector-curvature="0" />
	<path style="fill:none;stroke:red;stroke-width:1px;stroke-linecap:butt;stroke-linejoin:miter;stroke-opacity:1" d="M 495.779,256.397 483.115,259.387 z" id="boundary" inkscape:connector-curvature="0" />
	<path style="fill:none;stroke:red;stroke-width:1px;stroke-linecap:butt;stroke-linejoin:miter;stroke-opacity:1" d="M 536.936,272.051 530.026,258.183 z" id="boundary" inkscape:connector-curvature="0" />
	<path style="fill:none;stroke:red;stroke-width:1px;stroke-linecap:butt;stroke-linejoin:miter;stroke-opacity:1" d="M 470.451,262.026 483.115,259.387 z" id="boundary" inkscape:connector-curvature="0" />
	<path style="fill:none;stroke:red;stroke-width:1px;stroke-linecap:butt;stroke-linejoin:miter;stroke-opacity:1" d="M 470.451,262.026 457.787,264.136 z" id="boundary" inkscape:connector-curvature="0" />
	<path style="fill:none;stroke:red;stroke-width:1px;stroke-linecap:butt;stroke-linejoin:miter;stroke-opacity:1" d="M 495.779,256.397 508.443,253.583 z" id="boundary" inkscape:connector-curvature="0" />
	<path style="fill:none;stroke:red;stroke-width:1px;stroke-linecap:butt;stroke-linejoin:miter;stroke-opacity:1" d="M 575.983,274.338 563.319,278.735 z" id="boundary" inkscape:connector-curvature="0" />
	<path style="fill:none;stroke:red;stroke-width:1px;stroke-linecap:butt;stroke-linejoin:miter;stroke-opacity:1" d="M 571.762,237.05 559.098,240.743 z" id="boundary" inkscape:connector-curvature="0" />
	<path style="fill:none;stroke:red;stroke-width:1px;stroke-linecap:butt;stroke-linejoin:miter;stroke-opacity:1" d="M 565.43,57.8213 578.094,64.505 z" id="boundary" inkscape:connector-curvature="0" />
	<path style="fill:none;stroke:red;stroke-width:1px;stroke-linecap:butt;stroke-linejoin:miter;stroke-opacity:1" d="M 170.74,330.445 158.077,338.36 z" id="boundary" inkscape:connector-curvature="0" />
	<path style="fill:none;stroke:red;stroke-width:1px;stroke-linecap:butt;stroke-linejoin:miter;stroke-opacity:1" d="M 228.693,270.515 221.396,263.433 z" id="boundary" inkscape:connector-curvature="0" />
	<path style="fill:none;stroke:red;stroke-width:1px;stroke-linecap:butt;stroke-linejoin:miter;stroke-opacity:1" d="M 4,304.766 4.35177,288.233 z" id="boundary" inkscape:connector-curvature="0" />
	<path style="fill:none;stroke:red;stroke-width:1px;stroke-linecap:butt;stroke-linejoin:miter;stroke-opacity:1" d="M 4.35177,288.233 9.2766,269.589 z" id="boundary" inkscape:connector-curvature="0" />
	<path style="fill:none;stroke:red;stroke-width:1px;stroke-linecap:butt;stroke-linejoin:miter;stroke-opacity:1" d="M 9.2766,269.589 18.7745,257.628 z" id="boundary" inkscape:connector-curvature="0" />
	<path style="fill:none;stroke:red;stroke-width:1px;stroke-linecap:butt;stroke-linejoin:miter;stroke-opacity:1" d="M 196.068,312.857 183.404,321.827 z" id="boundary" inkscape:connector-curvature="0" />
	<path style="fill:none;stroke:red;stroke-width:1px;stroke-linecap:butt;stroke-linejoin:miter;stroke-opacity:1" d="M 208.732,303.535 196.068,312.857 z" id="boundary" inkscape:connector-curvature="0" />
	<path style="fill:none;stroke:red;stroke-width:1px;stroke-linecap:butt;stroke-linejoin:miter;stroke-opacity:1" d="M 221.396,293.861 208.732,303.535 z" id="boundary" inkscape:connector-curvature="0" />
	<path style="fill:none;stroke:red;stroke-width:1px;stroke-linecap:butt;stroke-linejoin:miter;stroke-opacity:1" d="M 221.396,293.861 233.004,284.335 z" id="boundary" inkscape:connector-curvature="0" />
	<path style="fill:none;stroke:red;stroke-width:1px;stroke-linecap:butt;stroke-linejoin:miter;stroke-opacity:1" d="M 250.14,280.703 259.387,285.77 z" id="boundary" inkscape:connector-curvature="0" />
	<path style="fill:none;stroke:red;stroke-width:1px;stroke-linecap:butt;stroke-linejoin:miter;stroke-opacity:1" d="M 272.051,291.926 259.387,285.77 z" id="boundary" inkscape:connector-curvature="0" />
	<path style="fill:none;stroke:red;stroke-width:1px;stroke-linecap:butt;stroke-linejoin:miter;stroke-opacity:1" d="M 354.718,284.011 354.159,273.196 z" id="boundary" inkscape:connector-curvature="0" />
	<path style="fill:none;stroke:red;stroke-width:1px;stroke-linecap:butt;stroke-linejoin:miter;stroke-opacity:1" d="M 394.468,265.895 381.804,264.664 z" id="boundary" inkscape:connector-curvature="0" />
	<path style="fill:none;stroke:red;stroke-width:1px;stroke-linecap:butt;stroke-linejoin:miter;stroke-opacity:1" d="M 407.132,267.478 394.468,265.895 z" id="boundary" inkscape:connector-curvature="0" />
	<path style="fill:none;stroke:red;stroke-width:1px;stroke-linecap:butt;stroke-linejoin:miter;stroke-opacity:1" d="M 352.255,300.545 354.718,284.011 z" id="boundary" inkscape:connector-curvature="0" />
	<path style="fill:none;stroke:red;stroke-width:1px;stroke-linecap:butt;stroke-linejoin:miter;stroke-opacity:1" d="M 297.379,302.304 284.715,297.379 z" id="boundary" inkscape:connector-curvature="0" />
	<path style="fill:none;stroke:red;stroke-width:1px;stroke-linecap:butt;stroke-linejoin:miter;stroke-opacity:1" d="M 284.715,297.379 272.051,291.926 z" id="boundary" inkscape:connector-curvature="0" />
	<path style="fill:none;stroke:red;stroke-width:1px;stroke-linecap:butt;stroke-linejoin:miter;stroke-opacity:1" d="M 322.706,310.746 310.043,306.877 z" id="boundary" inkscape:connector-curvature="0" />
	<path style="fill:none;stroke:red;stroke-width:1px;stroke-linecap:butt;stroke-linejoin:miter;stroke-opacity:1" d="M 310.043,306.877 297.379,302.304 z" id="boundary" inkscape:connector-curvature="0" />
	<path style="fill:none;stroke:red;stroke-width:1px;stroke-linecap:butt;stroke-linejoin:miter;stroke-opacity:1" d="M 335.37,313.736 322.706,310.746 z" id="boundary" inkscape:connector-curvature="0" />
	<path style="fill:none;stroke:red;stroke-width:1px;stroke-linecap:butt;stroke-linejoin:miter;stroke-opacity:1" d="M 8.22128,334.315 4,317.43 z" id="boundary" inkscape:connector-curvature="0" />
	<path style="fill:none;stroke:red;stroke-width:1px;stroke-linecap:butt;stroke-linejoin:miter;stroke-opacity:1" d="M 18.7745,345.22 8.22128,334.315 z" id="boundary" inkscape:connector-curvature="0" />
	<path style="fill:none;stroke:red;stroke-width:1px;stroke-linecap:butt;stroke-linejoin:miter;stroke-opacity:1" d="M 4,317.43 4,304.766 z" id="boundary" inkscape:connector-curvature="0" />
	<path style="fill:none;stroke:red;stroke-width:1px;stroke-linecap:butt;stroke-linejoin:miter;stroke-opacity:1" d="M 31.4383,353.311 18.7745,345.22 z" id="boundary" inkscape:connector-curvature="0" />
	<path style="fill:none;stroke:red;stroke-width:1px;stroke-linecap:butt;stroke-linejoin:miter;stroke-opacity:1" d="M 94.7574,361.401 82.0936,362.809 z" id="boundary" inkscape:connector-curvature="0" />
	<path style="fill:none;stroke:red;stroke-width:1px;stroke-linecap:butt;stroke-linejoin:miter;stroke-opacity:1" d="M 107.421,358.939 94.7574,361.401 z" id="boundary" inkscape:connector-curvature="0" />
	<path style="fill:none;stroke:red;stroke-width:1px;stroke-linecap:butt;stroke-linejoin:miter;stroke-opacity:1" d="M 56.766,362.281 44.1021,359.115 z" id="boundary" inkscape:connector-curvature="0" />
	<path style="fill:none;stroke:red;stroke-width:1px;stroke-linecap:butt;stroke-linejoin:miter;stroke-opacity:1" d="M 44.1021,359.115 31.4383,353.311 z" id="boundary" inkscape:connector-curvature="0" />
	<path style="fill:none;stroke:red;stroke-width:1px;stroke-linecap:butt;stroke-linejoin:miter;stroke-opacity:1" d="M 56.766,362.281 69.4298,362.809 z" id="boundary" inkscape:connector-curvature="0" />
	<path style="fill:none;stroke:red;stroke-width:1px;stroke-linecap:butt;stroke-linejoin:miter;stroke-opacity:1" d="M 82.0936,362.809 69.4298,362.809 z" id="boundary" inkscape:connector-curvature="0" />
	<path style="fill:none;stroke:red;stroke-width:1px;stroke-linecap:butt;stroke-linejoin:miter;stroke-opacity:1" d="M 107.421,358.939 120.085,355.421 z" id="boundary" inkscape:connector-curvature="0" />
	<path style="fill:none;stroke:red;stroke-width:1px;stroke-linecap:butt;stroke-linejoin:miter;stroke-opacity:1" d="M 335.37,313.736 348.788,315.168 z" id="boundary" inkscape:connector-curvature="0" />
	<path style="fill:none;stroke:red;stroke-width:1px;stroke-linecap:butt;stroke-linejoin:miter;stroke-opacity:1" d="M 348.788,315.168 360.698,318.309 z" id="boundary" inkscape:connector-curvature="0" />
	<path style="fill:none;stroke:red;stroke-width:1px;stroke-linecap:butt;stroke-linejoin:miter;stroke-opacity:1" d="M 373.362,319.013 360.698,318.309 z" id="boundary" inkscape:connector-curvature="0" />
	<path style="fill:none;stroke:red;stroke-width:1px;stroke-linecap:butt;stroke-linejoin:miter;stroke-opacity:1" d="M 386.026,319.716 373.362,319.013 z" id="boundary" inkscape:connector-curvature="0" />
	<path style="fill:none;stroke:red;stroke-width:1px;stroke-linecap:butt;stroke-linejoin:miter;stroke-opacity:1" d="M 398.689,320.068 386.026,319.716 z" id="boundary" inkscape:connector-curvature="0" />
	<path style="fill:none;stroke:red;stroke-width:1px;stroke-linecap:butt;stroke-linejoin:miter;stroke-opacity:1" d="M 407.777,319.844 398.689,320.068 z" id="boundary" inkscape:connector-curvature="0" />
	<path style="fill:none;stroke:red;stroke-width:1px;stroke-linecap:butt;stroke-linejoin:miter;stroke-opacity:1" d="M 132.749,350.672 120.085,355.421 z" id="boundary" inkscape:connector-curvature="0" />
	<path style="fill:none;stroke:red;stroke-width:1px;stroke-linecap:butt;stroke-linejoin:miter;stroke-opacity:1" d="M 145.413,344.868 158.077,338.36 z" id="boundary" inkscape:connector-curvature="0" />
	<path style="fill:none;stroke:red;stroke-width:1px;stroke-linecap:butt;stroke-linejoin:miter;stroke-opacity:1" d="M 132.749,350.672 145.413,344.868 z" id="boundary" inkscape:connector-curvature="0" />
	<path style="fill:none;stroke:red;stroke-width:1px;stroke-linecap:butt;stroke-linejoin:miter;stroke-opacity:1" d="M 170.74,330.445 183.404,321.827 z" id="boundary" inkscape:connector-curvature="0" />
	<path style="fill:none;stroke:red;stroke-width:1px;stroke-linecap:butt;stroke-linejoin:miter;stroke-opacity:1" d="M 419.796,267.83 432.46,268.393 z" id="boundary" inkscape:connector-curvature="0" />
	<path style="fill:none;stroke:red;stroke-width:1px;stroke-linecap:butt;stroke-linejoin:miter;stroke-opacity:1" d="M 445.123,265.719 432.46,268.393 z" id="boundary" inkscape:connector-curvature="0" />
	<path style="fill:none;stroke:red;stroke-width:1px;stroke-linecap:butt;stroke-linejoin:miter;stroke-opacity:1" d="M 434.57,294.213 432.46,282.604 z" id="boundary" inkscape:connector-curvature="0" />
	<path style="fill:none;stroke:red;stroke-width:1px;stroke-linecap:butt;stroke-linejoin:miter;stroke-opacity:1" d="M 462.467,306.439 449.063,309.12 z" id="boundary" inkscape:connector-curvature="0" />
	<path style="fill:none;stroke:red;stroke-width:1px;stroke-linecap:butt;stroke-linejoin:miter;stroke-opacity:1" d="M 419.796,267.83 407.132,267.478 z" id="boundary" inkscape:connector-curvature="0" />
	<path style="fill:none;stroke:red;stroke-width:1px;stroke-linecap:butt;stroke-linejoin:miter;stroke-opacity:1" d="M 419.037,320.38 407.777,319.844 z" id="boundary" inkscape:connector-curvature="0" />
	<path style="fill:none;stroke:red;stroke-width:1px;stroke-linecap:butt;stroke-linejoin:miter;stroke-opacity:1" d="M 428.688,320.916 419.037,320.38 z" id="boundary" inkscape:connector-curvature="0" />
	<path style="fill:none;stroke:red;stroke-width:1px;stroke-linecap:butt;stroke-linejoin:miter;stroke-opacity:1" d="M 436.681,313.209 428.688,320.916 z" id="boundary" inkscape:connector-curvature="0" />
	<path style="fill:none;stroke:red;stroke-width:1px;stroke-linecap:butt;stroke-linejoin:miter;stroke-opacity:1" d="M 434.57,294.213 436.195,302.686 z" id="boundary" inkscape:connector-curvature="0" />
	<path style="fill:none;stroke:red;stroke-width:1px;stroke-linecap:butt;stroke-linejoin:miter;stroke-opacity:1" d="M 436.195,302.686 436.681,313.209 z" id="boundary" inkscape:connector-curvature="0" />
	<path style="fill:none;stroke:red;stroke-width:1px;stroke-linecap:butt;stroke-linejoin:miter;stroke-opacity:1" d="M 449.063,334.857 436.681,329.39 z" id="boundary" inkscape:connector-curvature="0" />
	<path style="fill:none;stroke:red;stroke-width:1px;stroke-linecap:butt;stroke-linejoin:miter;stroke-opacity:1" d="M 445.123,265.719 457.787,264.136 z" id="boundary" inkscape:connector-curvature="0" />
	<path style="fill:none;stroke:red;stroke-width:1px;stroke-linecap:butt;stroke-linejoin:miter;stroke-opacity:1" d="M 512.664,295.092 500,298.962 z" id="boundary" inkscape:connector-curvature="0" />
	<path style="fill:none;stroke:red;stroke-width:1px;stroke-linecap:butt;stroke-linejoin:miter;stroke-opacity:1" d="M 537.991,286.474 525.328,291.047 z" id="boundary" inkscape:connector-curvature="0" />
	<path style="fill:none;stroke:red;stroke-width:1px;stroke-linecap:butt;stroke-linejoin:miter;stroke-opacity:1" d="M 525.328,291.047 512.664,295.092 z" id="boundary" inkscape:connector-curvature="0" />
	<path style="fill:none;stroke:red;stroke-width:1px;stroke-linecap:butt;stroke-linejoin:miter;stroke-opacity:1" d="M 550.655,283.308 537.991,286.474 z" id="boundary" inkscape:connector-curvature="0" />
	<path style="fill:none;stroke:red;stroke-width:1px;stroke-linecap:butt;stroke-linejoin:miter;stroke-opacity:1" d="M 563.319,278.735 550.655,283.308 z" id="boundary" inkscape:connector-curvature="0" />
	<path style="fill:none;stroke:red;stroke-width:1px;stroke-linecap:butt;stroke-linejoin:miter;stroke-opacity:1" d="M 460.859,338.074 449.063,334.857 z" id="boundary" inkscape:connector-curvature="0" />
	<path style="fill:none;stroke:red;stroke-width:1px;stroke-linecap:butt;stroke-linejoin:miter;stroke-opacity:1" d="M 462.467,306.439 474.672,306.701 z" id="boundary" inkscape:connector-curvature="0" />
	<path style="fill:none;stroke:red;stroke-width:1px;stroke-linecap:butt;stroke-linejoin:miter;stroke-opacity:1" d="M 474.672,306.701 487.336,302.831 z" id="boundary" inkscape:connector-curvature="0" />
	<path style="fill:none;stroke:red;stroke-width:1px;stroke-linecap:butt;stroke-linejoin:miter;stroke-opacity:1" d="M 487.336,302.831 500,298.962 z" id="boundary" inkscape:connector-curvature="0" />
	<path style="fill:none;stroke:red;stroke-width:1px;stroke-linecap:butt;stroke-linejoin:miter;stroke-opacity:1" d="M 575.983,351.376 563.319,352.255 z" id="boundary" inkscape:connector-curvature="0" />
	<path style="fill:none;stroke:red;stroke-width:1px;stroke-linecap:butt;stroke-linejoin:miter;stroke-opacity:1" d="M 525.328,477.487 512.664,489.447 z" id="boundary" inkscape:connector-curvature="0" />
	<path style="fill:none;stroke:red;stroke-width:1px;stroke-linecap:butt;stroke-linejoin:miter;stroke-opacity:1" d="M 474.672,338.712 460.859,338.074 z" id="boundary" inkscape:connector-curvature="0" />
	<path style="fill:none;stroke:red;stroke-width:1px;stroke-linecap:butt;stroke-linejoin:miter;stroke-opacity:1" d="M 525.328,348.738 512.664,346.803 z" id="boundary" inkscape:connector-curvature="0" />
	<path style="fill:none;stroke:red;stroke-width:1px;stroke-linecap:butt;stroke-linejoin:miter;stroke-opacity:1" d="M 512.664,346.803 500,344.34 z" id="boundary" inkscape:connector-curvature="0" />
	<path style="fill:none;stroke:red;stroke-width:1px;stroke-linecap:butt;stroke-linejoin:miter;stroke-opacity:1" d="M 474.672,338.712 487.336,341.35 z" id="boundary" inkscape:connector-curvature="0" />
	<path style="fill:none;stroke:red;stroke-width:1px;stroke-linecap:butt;stroke-linejoin:miter;stroke-opacity:1" d="M 500,344.34 487.336,341.35 z" id="boundary" inkscape:connector-curvature="0" />
	<path style="fill:none;stroke:red;stroke-width:1px;stroke-linecap:butt;stroke-linejoin:miter;stroke-opacity:1" d="M 506.332,533.243 498.241,518.292 z" id="boundary" inkscape:connector-curvature="0" />
	<path style="fill:none;stroke:red;stroke-width:1px;stroke-linecap:butt;stroke-linejoin:miter;stroke-opacity:1" d="M 518.996,535.529 506.332,533.243 z" id="boundary" inkscape:connector-curvature="0" />
	<path style="fill:none;stroke:red;stroke-width:1px;stroke-linecap:butt;stroke-linejoin:miter;stroke-opacity:1" d="M 503.166,502.462 498.241,518.292 z" id="boundary" inkscape:connector-curvature="0" />
	<path style="fill:none;stroke:red;stroke-width:1px;stroke-linecap:butt;stroke-linejoin:miter;stroke-opacity:1" d="M 503.166,502.462 512.664,489.447 z" id="boundary" inkscape:connector-curvature="0" />
	<path style="fill:none;stroke:red;stroke-width:1px;stroke-linecap:butt;stroke-linejoin:miter;stroke-opacity:1" d="M 531.66,532.891 518.996,535.529 z" id="boundary" inkscape:connector-curvature="0" />
	<path style="fill:none;stroke:red;stroke-width:1px;stroke-linecap:butt;stroke-linejoin:miter;stroke-opacity:1" d="M 563.319,447.586 550.655,457.963 z" id="boundary" inkscape:connector-curvature="0" />
	<path style="fill:none;stroke:red;stroke-width:1px;stroke-linecap:butt;stroke-linejoin:miter;stroke-opacity:1" d="M 550.655,351.728 537.991,350.145 z" id="boundary" inkscape:connector-curvature="0" />
	<path style="fill:none;stroke:red;stroke-width:1px;stroke-linecap:butt;stroke-linejoin:miter;stroke-opacity:1" d="M 550.655,457.963 537.991,467.637 z" id="boundary" inkscape:connector-curvature="0" />
	<path style="fill:none;stroke:red;stroke-width:1px;stroke-linecap:butt;stroke-linejoin:miter;stroke-opacity:1" d="M 574.928,436.259 563.319,447.586 z" id="boundary" inkscape:connector-curvature="0" />
	<path style="fill:none;stroke:red;stroke-width:1px;stroke-linecap:butt;stroke-linejoin:miter;stroke-opacity:1" d="M 583.37,425.424 574.928,436.259 z" id="boundary" inkscape:connector-curvature="0" />
	<path style="fill:none;stroke:red;stroke-width:1px;stroke-linecap:butt;stroke-linejoin:miter;stroke-opacity:1" d="M 537.991,350.145 525.328,348.738 z" id="boundary" inkscape:connector-curvature="0" />
	<path style="fill:none;stroke:red;stroke-width:1px;stroke-linecap:butt;stroke-linejoin:miter;stroke-opacity:1" d="M 544.323,527.438 531.66,532.891 z" id="boundary" inkscape:connector-curvature="0" />
	<path style="fill:none;stroke:red;stroke-width:1px;stroke-linecap:butt;stroke-linejoin:miter;stroke-opacity:1" d="M 537.991,467.637 525.328,477.487 z" id="boundary" inkscape:connector-curvature="0" />
	<path style="fill:none;stroke:red;stroke-width:1px;stroke-linecap:butt;stroke-linejoin:miter;stroke-opacity:1" d="M 556.987,519.172 544.323,527.438 z" id="boundary" inkscape:connector-curvature="0" />
	<path style="fill:none;stroke:red;stroke-width:1px;stroke-linecap:butt;stroke-linejoin:miter;stroke-opacity:1" d="M 569.651,508.794 556.987,519.172 z" id="boundary" inkscape:connector-curvature="0" />
	<path style="fill:none;stroke:red;stroke-width:1px;stroke-linecap:butt;stroke-linejoin:miter;stroke-opacity:1" d="M 582.315,496.834 569.651,508.794 z" id="boundary" inkscape:connector-curvature="0" />
	<path style="fill:none;stroke:red;stroke-width:1px;stroke-linecap:butt;stroke-linejoin:miter;stroke-opacity:1" d="M 563.319,352.255 550.655,351.728 z" id="boundary" inkscape:connector-curvature="0" />
	<path style="fill:none;stroke:red;stroke-width:1px;stroke-linecap:butt;stroke-linejoin:miter;stroke-opacity:1" d="M 590.757,72.0681 603.421,79.983 z" id="boundary" inkscape:connector-curvature="0" />
	<path style="fill:none;stroke:red;stroke-width:1px;stroke-linecap:butt;stroke-linejoin:miter;stroke-opacity:1" d="M 628.749,98.2752 616.085,88.7773 z" id="boundary" inkscape:connector-curvature="0" />
	<path style="fill:none;stroke:red;stroke-width:1px;stroke-linecap:butt;stroke-linejoin:miter;stroke-opacity:1" d="M 616.085,88.7773 603.421,79.983 z" id="boundary" inkscape:connector-curvature="0" />
	<path style="fill:none;stroke:red;stroke-width:1px;stroke-linecap:butt;stroke-linejoin:miter;stroke-opacity:1" d="M 641.413,107.597 628.749,98.2752 z" id="boundary" inkscape:connector-curvature="0" />
	<path style="fill:none;stroke:red;stroke-width:1px;stroke-linecap:butt;stroke-linejoin:miter;stroke-opacity:1" d="M 584.426,233.356 571.762,237.05 z" id="boundary" inkscape:connector-curvature="0" />
	<path style="fill:none;stroke:red;stroke-width:1px;stroke-linecap:butt;stroke-linejoin:miter;stroke-opacity:1" d="M 590.757,72.0681 578.094,64.505 z" id="boundary" inkscape:connector-curvature="0" />
	<path style="fill:none;stroke:red;stroke-width:1px;stroke-linecap:butt;stroke-linejoin:miter;stroke-opacity:1" d="M 752.221,75.7617 745.889,88.7773 z" id="boundary" inkscape:connector-curvature="0" />
	<path style="fill:none;stroke:red;stroke-width:1px;stroke-linecap:butt;stroke-linejoin:miter;stroke-opacity:1" d="M 654.077,117.974 641.413,107.597 z" id="boundary" inkscape:connector-curvature="0" />
	<path style="fill:none;stroke:red;stroke-width:1px;stroke-linecap:butt;stroke-linejoin:miter;stroke-opacity:1" d="M 739.557,103.904 733.226,120.085 z" id="boundary" inkscape:connector-curvature="0" />
	<path style="fill:none;stroke:red;stroke-width:1px;stroke-linecap:butt;stroke-linejoin:miter;stroke-opacity:1" d="M 666.74,128.528 654.077,117.974 z" id="boundary" inkscape:connector-curvature="0" />
	<path style="fill:none;stroke:red;stroke-width:1px;stroke-linecap:butt;stroke-linejoin:miter;stroke-opacity:1" d="M 679.404,139.609 666.74,128.528 z" id="boundary" inkscape:connector-curvature="0" />
	<path style="fill:none;stroke:red;stroke-width:1px;stroke-linecap:butt;stroke-linejoin:miter;stroke-opacity:1" d="M 745.889,88.7773 739.557,103.904 z" id="boundary" inkscape:connector-curvature="0" />
	<path style="fill:none;stroke:red;stroke-width:1px;stroke-linecap:butt;stroke-linejoin:miter;stroke-opacity:1" d="M 768.051,50.9617 778.604,38.2979 z" id="boundary" inkscape:connector-curvature="0" />
	<path style="fill:none;stroke:red;stroke-width:1px;stroke-linecap:butt;stroke-linejoin:miter;stroke-opacity:1" d="M 778.604,38.2979 791.268,27.3929 z" id="boundary" inkscape:connector-curvature="0" />
	<path style="fill:none;stroke:red;stroke-width:1px;stroke-linecap:butt;stroke-linejoin:miter;stroke-opacity:1" d="M 791.268,27.3929 803.932,19.8298 z" id="boundary" inkscape:connector-curvature="0" />
	<path style="fill:none;stroke:red;stroke-width:1px;stroke-linecap:butt;stroke-linejoin:miter;stroke-opacity:1" d="M 816.596,13.8496 803.932,19.8298 z" id="boundary" inkscape:connector-curvature="0" />
	<path style="fill:none;stroke:red;stroke-width:1px;stroke-linecap:butt;stroke-linejoin:miter;stroke-opacity:1" d="M 838.757,53.6 833.481,66.7915 z" id="boundary" inkscape:connector-curvature="0" />
	<path style="fill:none;stroke:red;stroke-width:1px;stroke-linecap:butt;stroke-linejoin:miter;stroke-opacity:1" d="M 830.315,82.8851 828.908,102.848 z" id="boundary" inkscape:connector-curvature="0" />
	<path style="fill:none;stroke:red;stroke-width:1px;stroke-linecap:butt;stroke-linejoin:miter;stroke-opacity:1" d="M 759.609,62.834 752.221,75.7617 z" id="boundary" inkscape:connector-curvature="0" />
	<path style="fill:none;stroke:red;stroke-width:1px;stroke-linecap:butt;stroke-linejoin:miter;stroke-opacity:1" d="M 828.908,102.848 832.426,116.216 z" id="boundary" inkscape:connector-curvature="0" />
	<path style="fill:none;stroke:red;stroke-width:1px;stroke-linecap:butt;stroke-linejoin:miter;stroke-opacity:1" d="M 759.609,62.834 768.051,50.9617 z" id="boundary" inkscape:connector-curvature="0" />
	<path style="fill:none;stroke:red;stroke-width:1px;stroke-linecap:butt;stroke-linejoin:miter;stroke-opacity:1" d="M 832.426,116.216 840.868,130.216 z" id="boundary" inkscape:connector-curvature="0" />
	<path style="fill:none;stroke:red;stroke-width:1px;stroke-linecap:butt;stroke-linejoin:miter;stroke-opacity:1" d="M 833.481,66.7915 830.315,82.8851 z" id="boundary" inkscape:connector-curvature="0" />
	<path style="fill:none;stroke:red;stroke-width:1px;stroke-linecap:butt;stroke-linejoin:miter;stroke-opacity:1" d="M 816.596,13.8496 829.26,9.45248 z" id="boundary" inkscape:connector-curvature="0" />
	<path style="fill:none;stroke:red;stroke-width:1px;stroke-linecap:butt;stroke-linejoin:miter;stroke-opacity:1" d="M 726.894,136.618 733.226,120.085 z" id="boundary" inkscape:connector-curvature="0" />
	<path style="fill:none;stroke:red;stroke-width:1px;stroke-linecap:butt;stroke-linejoin:miter;stroke-opacity:1" d="M 635.081,217.702 647.745,213.657 z" id="boundary" inkscape:connector-curvature="0" />
	<path style="fill:none;stroke:red;stroke-width:1px;stroke-linecap:butt;stroke-linejoin:miter;stroke-opacity:1" d="M 660.409,209.435 647.745,213.657 z" id="boundary" inkscape:connector-curvature="0" />
	<path style="fill:none;stroke:red;stroke-width:1px;stroke-linecap:butt;stroke-linejoin:miter;stroke-opacity:1" d="M 660.409,209.435 673.072,205.214 z" id="boundary" inkscape:connector-curvature="0" />
	<path style="fill:none;stroke:red;stroke-width:1px;stroke-linecap:butt;stroke-linejoin:miter;stroke-opacity:1" d="M 684.681,215.064 677.294,221.22 z" id="boundary" inkscape:connector-curvature="0" />
	<path style="fill:none;stroke:red;stroke-width:1px;stroke-linecap:butt;stroke-linejoin:miter;stroke-opacity:1" d="M 677.294,221.22 664.63,231.597 z" id="boundary" inkscape:connector-curvature="0" />
	<path style="fill:none;stroke:red;stroke-width:1px;stroke-linecap:butt;stroke-linejoin:miter;stroke-opacity:1" d="M 584.426,233.356 597.089,229.487 z" id="boundary" inkscape:connector-curvature="0" />
	<path style="fill:none;stroke:red;stroke-width:1px;stroke-linecap:butt;stroke-linejoin:miter;stroke-opacity:1" d="M 609.753,225.617 597.089,229.487 z" id="boundary" inkscape:connector-curvature="0" />
	<path style="fill:none;stroke:red;stroke-width:1px;stroke-linecap:butt;stroke-linejoin:miter;stroke-opacity:1" d="M 622.417,221.572 609.753,225.617 z" id="boundary" inkscape:connector-curvature="0" />
	<path style="fill:none;stroke:red;stroke-width:1px;stroke-linecap:butt;stroke-linejoin:miter;stroke-opacity:1" d="M 622.417,221.572 635.081,217.702 z" id="boundary" inkscape:connector-curvature="0" />
	<path style="fill:none;stroke:red;stroke-width:1px;stroke-linecap:butt;stroke-linejoin:miter;stroke-opacity:1" d="M 664.63,231.597 651.966,239.336 z" id="boundary" inkscape:connector-curvature="0" />
	<path style="fill:none;stroke:red;stroke-width:1px;stroke-linecap:butt;stroke-linejoin:miter;stroke-opacity:1" d="M 651.966,239.336 639.302,246.723 z" id="boundary" inkscape:connector-curvature="0" />
	<path style="fill:none;stroke:red;stroke-width:1px;stroke-linecap:butt;stroke-linejoin:miter;stroke-opacity:1" d="M 692.068,151.041 679.404,139.609 z" id="boundary" inkscape:connector-curvature="0" />
	<path style="fill:none;stroke:red;stroke-width:1px;stroke-linecap:butt;stroke-linejoin:miter;stroke-opacity:1" d="M 703.677,162.087 692.068,151.041 z" id="boundary" inkscape:connector-curvature="0" />
	<path style="fill:none;stroke:red;stroke-width:1px;stroke-linecap:butt;stroke-linejoin:miter;stroke-opacity:1" d="M 720.562,152.8 713.174,168.049 z" id="boundary" inkscape:connector-curvature="0" />
	<path style="fill:none;stroke:red;stroke-width:1px;stroke-linecap:butt;stroke-linejoin:miter;stroke-opacity:1" d="M 726.894,136.618 720.562,152.8 z" id="boundary" inkscape:connector-curvature="0" />
	<path style="fill:none;stroke:red;stroke-width:1px;stroke-linecap:butt;stroke-linejoin:miter;stroke-opacity:1" d="M 713.174,168.049 706.843,182.349 z" id="boundary" inkscape:connector-curvature="0" />
	<path style="fill:none;stroke:red;stroke-width:1px;stroke-linecap:butt;stroke-linejoin:miter;stroke-opacity:1" d="M 684.681,215.064 686.59,204.029 z" id="boundary" inkscape:connector-curvature="0" />
	<path style="fill:none;stroke:red;stroke-width:1px;stroke-linecap:butt;stroke-linejoin:miter;stroke-opacity:1" d="M 686.59,204.029 697.345,196.912 z" id="boundary" inkscape:connector-curvature="0" />
	<path style="fill:none;stroke:red;stroke-width:1px;stroke-linecap:butt;stroke-linejoin:miter;stroke-opacity:1" d="M 837.702,227.728 829.26,240.128 z" id="boundary" inkscape:connector-curvature="0" />
	<path style="fill:none;stroke:red;stroke-width:1px;stroke-linecap:butt;stroke-linejoin:miter;stroke-opacity:1" d="M 697.345,196.912 706.843,182.349 z" id="boundary" inkscape:connector-curvature="0" />
	<path style="fill:none;stroke:red;stroke-width:1px;stroke-linecap:butt;stroke-linejoin:miter;stroke-opacity:1" d="M 846.145,215.591 837.702,227.728 z" id="boundary" inkscape:connector-curvature="0" />
	<path style="fill:none;stroke:red;stroke-width:1px;stroke-linecap:butt;stroke-linejoin:miter;stroke-opacity:1" d="M 841.923,6.81418 854.587,5.40709 z" id="boundary" inkscape:connector-curvature="0" />
	<path style="fill:none;stroke:red;stroke-width:1px;stroke-linecap:butt;stroke-linejoin:miter;stroke-opacity:1" d="M 867.251,4.17589 879.915,4 z" id="boundary" inkscape:connector-curvature="0" />
	<path style="fill:none;stroke:red;stroke-width:1px;stroke-linecap:butt;stroke-linejoin:miter;stroke-opacity:1" d="M 878.86,32.8454 869.362,25.4582 z" id="boundary" inkscape:connector-curvature="0" />
	<path style="fill:none;stroke:red;stroke-width:1px;stroke-linecap:butt;stroke-linejoin:miter;stroke-opacity:1" d="M 854.587,5.40709 867.251,4.17589 z" id="boundary" inkscape:connector-curvature="0" />
	<path style="fill:none;stroke:red;stroke-width:1px;stroke-linecap:butt;stroke-linejoin:miter;stroke-opacity:1" d="M 869.362,25.4582 856.698,29.3277 z" id="boundary" inkscape:connector-curvature="0" />
	<path style="fill:none;stroke:red;stroke-width:1px;stroke-linecap:butt;stroke-linejoin:miter;stroke-opacity:1" d="M 838.757,53.6 846.145,40.6723 z" id="boundary" inkscape:connector-curvature="0" />
	<path style="fill:none;stroke:red;stroke-width:1px;stroke-linecap:butt;stroke-linejoin:miter;stroke-opacity:1" d="M 856.698,29.3277 846.145,40.6723 z" id="boundary" inkscape:connector-curvature="0" />
	<path style="fill:none;stroke:red;stroke-width:1px;stroke-linecap:butt;stroke-linejoin:miter;stroke-opacity:1" d="M 884.136,44.6298 888.006,59.2284 z" id="boundary" inkscape:connector-curvature="0" />
	<path style="fill:none;stroke:red;stroke-width:1px;stroke-linecap:butt;stroke-linejoin:miter;stroke-opacity:1" d="M 884.136,44.6298 878.86,32.8454 z" id="boundary" inkscape:connector-curvature="0" />
	<path style="fill:none;stroke:red;stroke-width:1px;stroke-linecap:butt;stroke-linejoin:miter;stroke-opacity:1" d="M 888.006,59.2284 890.82,76.4652 z" id="boundary" inkscape:connector-curvature="0" />
	<path style="fill:none;stroke:red;stroke-width:1px;stroke-linecap:butt;stroke-linejoin:miter;stroke-opacity:1" d="M 879.915,4 892.579,4 z" id="boundary" inkscape:connector-curvature="0" />
	<path style="fill:none;stroke:red;stroke-width:1px;stroke-linecap:butt;stroke-linejoin:miter;stroke-opacity:1" d="M 829.26,9.45248 841.923,6.81418 z" id="boundary" inkscape:connector-curvature="0" />
	<path style="fill:none;stroke:red;stroke-width:1px;stroke-linecap:butt;stroke-linejoin:miter;stroke-opacity:1" d="M 905.243,4 917.906,5.23121 z" id="boundary" inkscape:connector-curvature="0" />
	<path style="fill:none;stroke:red;stroke-width:1px;stroke-linecap:butt;stroke-linejoin:miter;stroke-opacity:1" d="M 917.906,5.23121 930.57,6.99007 z" id="boundary" inkscape:connector-curvature="0" />
	<path style="fill:none;stroke:red;stroke-width:1px;stroke-linecap:butt;stroke-linejoin:miter;stroke-opacity:1" d="M 943.234,10.5078 955.898,16.6638 z" id="boundary" inkscape:connector-curvature="0" />
	<path style="fill:none;stroke:red;stroke-width:1px;stroke-linecap:butt;stroke-linejoin:miter;stroke-opacity:1" d="M 930.57,6.99007 943.234,10.5078 z" id="boundary" inkscape:connector-curvature="0" />
	<path style="fill:none;stroke:red;stroke-width:1px;stroke-linecap:butt;stroke-linejoin:miter;stroke-opacity:1" d="M 955.898,16.6638 968.562,25.634 z" id="boundary" inkscape:connector-curvature="0" />
	<path style="fill:none;stroke:red;stroke-width:1px;stroke-linecap:butt;stroke-linejoin:miter;stroke-opacity:1" d="M 968.562,25.634 980.17,37.5591 z" id="boundary" inkscape:connector-curvature="0" />
	<path style="fill:none;stroke:red;stroke-width:1px;stroke-linecap:butt;stroke-linejoin:miter;stroke-opacity:1" d="M 980.17,37.5591 987.557,50.434 z" id="boundary" inkscape:connector-curvature="0" />
	<path style="fill:none;stroke:red;stroke-width:1px;stroke-linecap:butt;stroke-linejoin:miter;stroke-opacity:1" d="M 991.427,64.505 993.889,78.4 z" id="boundary" inkscape:connector-curvature="0" />
	<path style="fill:none;stroke:red;stroke-width:1px;stroke-linecap:butt;stroke-linejoin:miter;stroke-opacity:1" d="M 987.557,50.434 991.427,64.505 z" id="boundary" inkscape:connector-curvature="0" />
	<path style="fill:none;stroke:red;stroke-width:1px;stroke-linecap:butt;stroke-linejoin:miter;stroke-opacity:1" d="M 890.468,90.5362 890.82,76.4652 z" id="boundary" inkscape:connector-curvature="0" />
	<path style="fill:none;stroke:red;stroke-width:1px;stroke-linecap:butt;stroke-linejoin:miter;stroke-opacity:1" d="M 892.579,4 905.243,4 z" id="boundary" inkscape:connector-curvature="0" />
	<path style="fill:none;stroke:red;stroke-width:1px;stroke-linecap:butt;stroke-linejoin:miter;stroke-opacity:1" d="M 852.477,138.905 840.868,130.216 z" id="boundary" inkscape:connector-curvature="0" />
	<path style="fill:none;stroke:red;stroke-width:1px;stroke-linecap:butt;stroke-linejoin:miter;stroke-opacity:1" d="M 883.081,119.03 875.694,131.957 z" id="boundary" inkscape:connector-curvature="0" />
	<path style="fill:none;stroke:red;stroke-width:1px;stroke-linecap:butt;stroke-linejoin:miter;stroke-opacity:1" d="M 888.709,104.255 883.081,119.03 z" id="boundary" inkscape:connector-curvature="0" />
	<path style="fill:none;stroke:red;stroke-width:1px;stroke-linecap:butt;stroke-linejoin:miter;stroke-opacity:1" d="M 890.468,90.5362 888.709,104.255 z" id="boundary" inkscape:connector-curvature="0" />
	<path style="fill:none;stroke:red;stroke-width:1px;stroke-linecap:butt;stroke-linejoin:miter;stroke-opacity:1" d="M 865.14,139.609 875.694,131.957 z" id="boundary" inkscape:connector-curvature="0" />
	<path style="fill:none;stroke:red;stroke-width:1px;stroke-linecap:butt;stroke-linejoin:miter;stroke-opacity:1" d="M 855.643,202.611 846.145,215.591 z" id="boundary" inkscape:connector-curvature="0" />
	<path style="fill:none;stroke:red;stroke-width:1px;stroke-linecap:butt;stroke-linejoin:miter;stroke-opacity:1" d="M 867.251,189.736 855.643,202.611 z" id="boundary" inkscape:connector-curvature="0" />
	<path style="fill:none;stroke:red;stroke-width:1px;stroke-linecap:butt;stroke-linejoin:miter;stroke-opacity:1" d="M 879.915,177.952 867.251,189.736 z" id="boundary" inkscape:connector-curvature="0" />
	<path style="fill:none;stroke:red;stroke-width:1px;stroke-linecap:butt;stroke-linejoin:miter;stroke-opacity:1" d="M 892.579,169.685 879.915,177.952 z" id="boundary" inkscape:connector-curvature="0" />
	<path style="fill:none;stroke:red;stroke-width:1px;stroke-linecap:butt;stroke-linejoin:miter;stroke-opacity:1" d="M 852.477,138.905 865.14,139.609 z" id="boundary" inkscape:connector-curvature="0" />
	<path style="fill:none;stroke:red;stroke-width:1px;stroke-linecap:butt;stroke-linejoin:miter;stroke-opacity:1" d="M 994.945,115.864 991.779,125.889 z" id="boundary" inkscape:connector-curvature="0" />
	<path style="fill:none;stroke:red;stroke-width:1px;stroke-linecap:butt;stroke-linejoin:miter;stroke-opacity:1" d="M 991.779,125.889 981.226,138.553 z" id="boundary" inkscape:connector-curvature="0" />
	<path style="fill:none;stroke:red;stroke-width:1px;stroke-linecap:butt;stroke-linejoin:miter;stroke-opacity:1" d="M 981.226,138.553 968.562,147.348 z" id="boundary" inkscape:connector-curvature="0" />
	<path style="fill:none;stroke:red;stroke-width:1px;stroke-linecap:butt;stroke-linejoin:miter;stroke-opacity:1" d="M 996,105.311 994.945,115.864 z" id="boundary" inkscape:connector-curvature="0" />
	<path style="fill:none;stroke:red;stroke-width:1px;stroke-linecap:butt;stroke-linejoin:miter;stroke-opacity:1" d="M 968.562,147.348 955.898,151.921 z" id="boundary" inkscape:connector-curvature="0" />
	<path style="fill:none;stroke:red;stroke-width:1px;stroke-linecap:butt;stroke-linejoin:miter;stroke-opacity:1" d="M 892.579,169.685 905.243,163.881 z" id="boundary" inkscape:connector-curvature="0" />
	<path style="fill:none;stroke:red;stroke-width:1px;stroke-linecap:butt;stroke-linejoin:miter;stroke-opacity:1" d="M 917.906,160.363 905.243,163.881 z" id="boundary" inkscape:connector-curvature="0" />
	<path style="fill:none;stroke:red;stroke-width:1px;stroke-linecap:butt;stroke-linejoin:miter;stroke-opacity:1" d="M 943.234,155.087 930.57,157.549 z" id="boundary" inkscape:connector-curvature="0" />
	<path style="fill:none;stroke:red;stroke-width:1px;stroke-linecap:butt;stroke-linejoin:miter;stroke-opacity:1" d="M 930.57,157.549 917.906,160.363 z" id="boundary" inkscape:connector-curvature="0" />
	<path style="fill:none;stroke:red;stroke-width:1px;stroke-linecap:butt;stroke-linejoin:miter;stroke-opacity:1" d="M 955.898,151.921 943.234,155.087 z" id="boundary" inkscape:connector-curvature="0" />
	<path style="fill:none;stroke:red;stroke-width:1px;stroke-linecap:butt;stroke-linejoin:miter;stroke-opacity:1" d="M 996,93.7021 996,105.311 z" id="boundary" inkscape:connector-curvature="0" />
	<path style="fill:none;stroke:red;stroke-width:1px;stroke-linecap:butt;stroke-linejoin:miter;stroke-opacity:1" d="M 993.889,78.4 996,93.7021 z" id="boundary" inkscape:connector-curvature="0" />
	<path style="fill:none;stroke:red;stroke-width:1px;stroke-linecap:butt;stroke-linejoin:miter;stroke-opacity:1" d="M 588.647,269.413 601.311,263.609 z" id="boundary" inkscape:connector-curvature="0" />
	<path style="fill:none;stroke:red;stroke-width:1px;stroke-linecap:butt;stroke-linejoin:miter;stroke-opacity:1" d="M 588.647,269.413 575.983,274.338 z" id="boundary" inkscape:connector-curvature="0" />
	<path style="fill:none;stroke:red;stroke-width:1px;stroke-linecap:butt;stroke-linejoin:miter;stroke-opacity:1" d="M 613.974,258.156 601.311,263.609 z" id="boundary" inkscape:connector-curvature="0" />
	<path style="fill:none;stroke:red;stroke-width:1px;stroke-linecap:butt;stroke-linejoin:miter;stroke-opacity:1" d="M 626.638,252.528 613.974,258.156 z" id="boundary" inkscape:connector-curvature="0" />
	<path style="fill:none;stroke:red;stroke-width:1px;stroke-linecap:butt;stroke-linejoin:miter;stroke-opacity:1" d="M 649.855,277.504 637.191,287.529 z" id="boundary" inkscape:connector-curvature="0" />
	<path style="fill:none;stroke:red;stroke-width:1px;stroke-linecap:butt;stroke-linejoin:miter;stroke-opacity:1" d="M 617.14,312.505 610.989,321.988 z" id="boundary" inkscape:connector-curvature="0" />
	<path style="fill:none;stroke:red;stroke-width:1px;stroke-linecap:butt;stroke-linejoin:miter;stroke-opacity:1" d="M 606.7,335.929 610.989,321.988 z" id="boundary" inkscape:connector-curvature="0" />
	<path style="fill:none;stroke:red;stroke-width:1px;stroke-linecap:butt;stroke-linejoin:miter;stroke-opacity:1" d="M 617.14,312.505 625.583,299.911 z" id="boundary" inkscape:connector-curvature="0" />
	<path style="fill:none;stroke:red;stroke-width:1px;stroke-linecap:butt;stroke-linejoin:miter;stroke-opacity:1" d="M 637.191,287.529 625.583,299.911 z" id="boundary" inkscape:connector-curvature="0" />
	<path style="fill:none;stroke:red;stroke-width:1px;stroke-linecap:butt;stroke-linejoin:miter;stroke-opacity:1" d="M 626.638,252.528 639.302,246.723 z" id="boundary" inkscape:connector-curvature="0" />
	<path style="fill:none;stroke:red;stroke-width:1px;stroke-linecap:butt;stroke-linejoin:miter;stroke-opacity:1" d="M 649.855,277.504 662.519,270.996 z" id="boundary" inkscape:connector-curvature="0" />
	<path style="fill:none;stroke:red;stroke-width:1px;stroke-linecap:butt;stroke-linejoin:miter;stroke-opacity:1" d="M 662.519,270.996 675.183,266.599 z" id="boundary" inkscape:connector-curvature="0" />
	<path style="fill:none;stroke:red;stroke-width:1px;stroke-linecap:butt;stroke-linejoin:miter;stroke-opacity:1" d="M 687.847,265.719 700.511,266.247 z" id="boundary" inkscape:connector-curvature="0" />
	<path style="fill:none;stroke:red;stroke-width:1px;stroke-linecap:butt;stroke-linejoin:miter;stroke-opacity:1" d="M 687.847,265.719 675.183,266.599 z" id="boundary" inkscape:connector-curvature="0" />
	<path style="fill:none;stroke:red;stroke-width:1px;stroke-linecap:butt;stroke-linejoin:miter;stroke-opacity:1" d="M 713.174,269.413 700.511,266.247 z" id="boundary" inkscape:connector-curvature="0" />
	<path style="fill:none;stroke:red;stroke-width:1px;stroke-linecap:butt;stroke-linejoin:miter;stroke-opacity:1" d="M 663.574,329.742 673.072,314.967 z" id="boundary" inkscape:connector-curvature="0" />
	<path style="fill:none;stroke:red;stroke-width:1px;stroke-linecap:butt;stroke-linejoin:miter;stroke-opacity:1" d="M 685.736,307.932 673.072,314.967 z" id="boundary" inkscape:connector-curvature="0" />
	<path style="fill:none;stroke:red;stroke-width:1px;stroke-linecap:butt;stroke-linejoin:miter;stroke-opacity:1" d="M 698.4,304.062 711.064,300.545 z" id="boundary" inkscape:connector-curvature="0" />
	<path style="fill:none;stroke:red;stroke-width:1px;stroke-linecap:butt;stroke-linejoin:miter;stroke-opacity:1" d="M 725.838,332.028 713.174,336.777 z" id="boundary" inkscape:connector-curvature="0" />
	<path style="fill:none;stroke:red;stroke-width:1px;stroke-linecap:butt;stroke-linejoin:miter;stroke-opacity:1" d="M 685.736,307.932 698.4,304.062 z" id="boundary" inkscape:connector-curvature="0" />
	<path style="fill:none;stroke:red;stroke-width:1px;stroke-linecap:butt;stroke-linejoin:miter;stroke-opacity:1" d="M 722.672,294.424 711.064,300.545 z" id="boundary" inkscape:connector-curvature="0" />
	<path style="fill:none;stroke:red;stroke-width:1px;stroke-linecap:butt;stroke-linejoin:miter;stroke-opacity:1" d="M 713.174,336.777 700.511,340.999 z" id="boundary" inkscape:connector-curvature="0" />
	<path style="fill:none;stroke:red;stroke-width:1px;stroke-linecap:butt;stroke-linejoin:miter;stroke-opacity:1" d="M 575.983,351.376 588.647,349.969 z" id="boundary" inkscape:connector-curvature="0" />
	<path style="fill:none;stroke:red;stroke-width:1px;stroke-linecap:butt;stroke-linejoin:miter;stroke-opacity:1" d="M 601.311,365.974 598.848,382.156 z" id="boundary" inkscape:connector-curvature="0" />
	<path style="fill:none;stroke:red;stroke-width:1px;stroke-linecap:butt;stroke-linejoin:miter;stroke-opacity:1" d="M 602.366,347.77 601.311,365.974 z" id="boundary" inkscape:connector-curvature="0" />
	<path style="fill:none;stroke:red;stroke-width:1px;stroke-linecap:butt;stroke-linejoin:miter;stroke-opacity:1" d="M 595.33,396.579 598.848,382.156 z" id="boundary" inkscape:connector-curvature="0" />
	<path style="fill:none;stroke:red;stroke-width:1px;stroke-linecap:butt;stroke-linejoin:miter;stroke-opacity:1" d="M 606.7,335.929 602.366,347.77 z" id="boundary" inkscape:connector-curvature="0" />
	<path style="fill:none;stroke:red;stroke-width:1px;stroke-linecap:butt;stroke-linejoin:miter;stroke-opacity:1" d="M 593.923,484.381 582.315,496.834 z" id="boundary" inkscape:connector-curvature="0" />
	<path style="fill:none;stroke:red;stroke-width:1px;stroke-linecap:butt;stroke-linejoin:miter;stroke-opacity:1" d="M 589.702,412.409 583.37,425.424 z" id="boundary" inkscape:connector-curvature="0" />
	<path style="fill:none;stroke:red;stroke-width:1px;stroke-linecap:butt;stroke-linejoin:miter;stroke-opacity:1" d="M 617.14,460.742 605.532,472.562 z" id="boundary" inkscape:connector-curvature="0" />
	<path style="fill:none;stroke:red;stroke-width:1px;stroke-linecap:butt;stroke-linejoin:miter;stroke-opacity:1" d="M 605.532,472.562 593.923,484.381 z" id="boundary" inkscape:connector-curvature="0" />
	<path style="fill:none;stroke:red;stroke-width:1px;stroke-linecap:butt;stroke-linejoin:miter;stroke-opacity:1" d="M 589.702,412.409 595.33,396.579 z" id="boundary" inkscape:connector-curvature="0" />
	<path style="fill:none;stroke:red;stroke-width:1px;stroke-linecap:butt;stroke-linejoin:miter;stroke-opacity:1" d="M 655.132,377.583 656.539,367.03 z" id="boundary" inkscape:connector-curvature="0" />
	<path style="fill:none;stroke:red;stroke-width:1px;stroke-linecap:butt;stroke-linejoin:miter;stroke-opacity:1" d="M 655.132,377.583 654.077,390.247 z" id="boundary" inkscape:connector-curvature="0" />
	<path style="fill:none;stroke:red;stroke-width:1px;stroke-linecap:butt;stroke-linejoin:miter;stroke-opacity:1" d="M 656.539,367.03 662.067,349.24 z" id="boundary" inkscape:connector-curvature="0" />
	<path style="fill:none;stroke:red;stroke-width:1px;stroke-linecap:butt;stroke-linejoin:miter;stroke-opacity:1" d="M 662.067,349.24 675.183,348.913 z" id="boundary" inkscape:connector-curvature="0" />
	<path style="fill:none;stroke:red;stroke-width:1px;stroke-linecap:butt;stroke-linejoin:miter;stroke-opacity:1" d="M 687.847,345.22 675.183,348.913 z" id="boundary" inkscape:connector-curvature="0" />
	<path style="fill:none;stroke:red;stroke-width:1px;stroke-linecap:butt;stroke-linejoin:miter;stroke-opacity:1" d="M 687.847,345.22 700.511,340.999 z" id="boundary" inkscape:connector-curvature="0" />
	<path style="fill:none;stroke:red;stroke-width:1px;stroke-linecap:butt;stroke-linejoin:miter;stroke-opacity:1" d="M 637.191,434.57 627.694,447.867 z" id="boundary" inkscape:connector-curvature="0" />
	<path style="fill:none;stroke:red;stroke-width:1px;stroke-linecap:butt;stroke-linejoin:miter;stroke-opacity:1" d="M 627.694,447.867 617.14,460.742 z" id="boundary" inkscape:connector-curvature="0" />
	<path style="fill:none;stroke:red;stroke-width:1px;stroke-linecap:butt;stroke-linejoin:miter;stroke-opacity:1" d="M 650.911,407.923 644.579,421.906 z" id="boundary" inkscape:connector-curvature="0" />
	<path style="fill:none;stroke:red;stroke-width:1px;stroke-linecap:butt;stroke-linejoin:miter;stroke-opacity:1" d="M 644.579,421.906 637.191,434.57 z" id="boundary" inkscape:connector-curvature="0" />
	<path style="fill:none;stroke:red;stroke-width:1px;stroke-linecap:butt;stroke-linejoin:miter;stroke-opacity:1" d="M 650.911,407.923 654.077,390.247 z" id="boundary" inkscape:connector-curvature="0" />
	<path style="fill:none;stroke:red;stroke-width:1px;stroke-linecap:butt;stroke-linejoin:miter;stroke-opacity:1" d="M 723.728,276.536 729.004,285.77 z" id="boundary" inkscape:connector-curvature="0" />
	<path style="fill:none;stroke:red;stroke-width:1px;stroke-linecap:butt;stroke-linejoin:miter;stroke-opacity:1" d="M 729.004,285.77 722.672,294.424 z" id="boundary" inkscape:connector-curvature="0" />
	<path style="fill:none;stroke:red;stroke-width:1px;stroke-linecap:butt;stroke-linejoin:miter;stroke-opacity:1" d="M 800.766,275.217 811.319,263.186 z" id="boundary" inkscape:connector-curvature="0" />
	<path style="fill:none;stroke:red;stroke-width:1px;stroke-linecap:butt;stroke-linejoin:miter;stroke-opacity:1" d="M 723.728,276.536 713.174,269.413 z" id="boundary" inkscape:connector-curvature="0" />
	<path style="fill:none;stroke:red;stroke-width:1px;stroke-linecap:butt;stroke-linejoin:miter;stroke-opacity:1" d="M 776.494,299.313 763.83,310.218 z" id="boundary" inkscape:connector-curvature="0" />
	<path style="fill:none;stroke:red;stroke-width:1px;stroke-linecap:butt;stroke-linejoin:miter;stroke-opacity:1" d="M 763.83,310.218 751.166,319.365 z" id="boundary" inkscape:connector-curvature="0" />
	<path style="fill:none;stroke:red;stroke-width:1px;stroke-linecap:butt;stroke-linejoin:miter;stroke-opacity:1" d="M 801.821,296.148 790.213,289.701 z" id="boundary" inkscape:connector-curvature="0" />
	<path style="fill:none;stroke:red;stroke-width:1px;stroke-linecap:butt;stroke-linejoin:miter;stroke-opacity:1" d="M 814.485,298.61 801.821,296.148 z" id="boundary" inkscape:connector-curvature="0" />
	<path style="fill:none;stroke:red;stroke-width:1px;stroke-linecap:butt;stroke-linejoin:miter;stroke-opacity:1" d="M 776.494,299.313 790.213,289.701 z" id="boundary" inkscape:connector-curvature="0" />
	<path style="fill:none;stroke:red;stroke-width:1px;stroke-linecap:butt;stroke-linejoin:miter;stroke-opacity:1" d="M 814.485,298.61 827.149,302.479 z" id="boundary" inkscape:connector-curvature="0" />
	<path style="fill:none;stroke:red;stroke-width:1px;stroke-linecap:butt;stroke-linejoin:miter;stroke-opacity:1" d="M 811.319,263.186 822.928,256.221 z" id="boundary" inkscape:connector-curvature="0" />
	<path style="fill:none;stroke:red;stroke-width:1px;stroke-linecap:butt;stroke-linejoin:miter;stroke-opacity:1" d="M 822.928,256.221 835.591,261.146 z" id="boundary" inkscape:connector-curvature="0" />
	<path style="fill:none;stroke:red;stroke-width:1px;stroke-linecap:butt;stroke-linejoin:miter;stroke-opacity:1" d="M 835.591,261.146 848.255,263.784 z" id="boundary" inkscape:connector-curvature="0" />
	<path style="fill:none;stroke:red;stroke-width:1px;stroke-linecap:butt;stroke-linejoin:miter;stroke-opacity:1" d="M 848.255,263.784 860.919,266.774 z" id="boundary" inkscape:connector-curvature="0" />
	<path style="fill:none;stroke:red;stroke-width:1px;stroke-linecap:butt;stroke-linejoin:miter;stroke-opacity:1" d="M 865.14,318.485 852.477,311.45 z" id="boundary" inkscape:connector-curvature="0" />
	<path style="fill:none;stroke:red;stroke-width:1px;stroke-linecap:butt;stroke-linejoin:miter;stroke-opacity:1" d="M 886.247,275.393 873.583,270.644 z" id="boundary" inkscape:connector-curvature="0" />
	<path style="fill:none;stroke:red;stroke-width:1px;stroke-linecap:butt;stroke-linejoin:miter;stroke-opacity:1" d="M 898.911,281.725 886.247,275.393 z" id="boundary" inkscape:connector-curvature="0" />
	<path style="fill:none;stroke:red;stroke-width:1px;stroke-linecap:butt;stroke-linejoin:miter;stroke-opacity:1" d="M 860.919,266.774 873.583,270.644 z" id="boundary" inkscape:connector-curvature="0" />
	<path style="fill:none;stroke:red;stroke-width:1px;stroke-linecap:butt;stroke-linejoin:miter;stroke-opacity:1" d="M 827.149,302.479 839.813,306.525 z" id="boundary" inkscape:connector-curvature="0" />
	<path style="fill:none;stroke:red;stroke-width:1px;stroke-linecap:butt;stroke-linejoin:miter;stroke-opacity:1" d="M 852.477,311.45 839.813,306.525 z" id="boundary" inkscape:connector-curvature="0" />
	<path style="fill:none;stroke:red;stroke-width:1px;stroke-linecap:butt;stroke-linejoin:miter;stroke-opacity:1" d="M 911.574,291.047 924.238,301.424 z" id="boundary" inkscape:connector-curvature="0" />
	<path style="fill:none;stroke:red;stroke-width:1px;stroke-linecap:butt;stroke-linejoin:miter;stroke-opacity:1" d="M 936.902,313.209 924.238,301.424 z" id="boundary" inkscape:connector-curvature="0" />
	<path style="fill:none;stroke:red;stroke-width:1px;stroke-linecap:butt;stroke-linejoin:miter;stroke-opacity:1" d="M 898.911,281.725 911.574,291.047 z" id="boundary" inkscape:connector-curvature="0" />
	<path style="fill:none;stroke:red;stroke-width:1px;stroke-linecap:butt;stroke-linejoin:miter;stroke-opacity:1" d="M 725.838,332.028 738.502,326.928 z" id="boundary" inkscape:connector-curvature="0" />
	<path style="fill:none;stroke:red;stroke-width:1px;stroke-linecap:butt;stroke-linejoin:miter;stroke-opacity:1" d="M 886.247,341.174 893.634,354.366 z" id="boundary" inkscape:connector-curvature="0" />
	<path style="fill:none;stroke:red;stroke-width:1px;stroke-linecap:butt;stroke-linejoin:miter;stroke-opacity:1" d="M 876.749,328.405 865.14,318.485 z" id="boundary" inkscape:connector-curvature="0" />
	<path style="fill:none;stroke:red;stroke-width:1px;stroke-linecap:butt;stroke-linejoin:miter;stroke-opacity:1" d="M 738.502,326.928 751.166,319.365 z" id="boundary" inkscape:connector-curvature="0" />
	<path style="fill:none;stroke:red;stroke-width:1px;stroke-linecap:butt;stroke-linejoin:miter;stroke-opacity:1" d="M 876.749,328.405 886.247,341.174 z" id="boundary" inkscape:connector-curvature="0" />
	<path style="fill:none;stroke:red;stroke-width:1px;stroke-linecap:butt;stroke-linejoin:miter;stroke-opacity:1" d="M 893.634,354.366 899.966,367.733 z" id="boundary" inkscape:connector-curvature="0" />
	<path style="fill:none;stroke:red;stroke-width:1px;stroke-linecap:butt;stroke-linejoin:miter;stroke-opacity:1" d="M 906.298,381.804 899.966,367.733 z" id="boundary" inkscape:connector-curvature="0" />
	<path style="fill:none;stroke:red;stroke-width:1px;stroke-linecap:butt;stroke-linejoin:miter;stroke-opacity:1" d="M 920.017,406.868 912.63,394.468 z" id="boundary" inkscape:connector-curvature="0" />
	<path style="fill:none;stroke:red;stroke-width:1px;stroke-linecap:butt;stroke-linejoin:miter;stroke-opacity:1" d="M 912.63,394.468 906.298,381.804 z" id="boundary" inkscape:connector-curvature="0" />
	<path style="fill:none;stroke:red;stroke-width:1px;stroke-linecap:butt;stroke-linejoin:miter;stroke-opacity:1" d="M 920.017,406.868 930.57,419.444 z" id="boundary" inkscape:connector-curvature="0" />
	<path style="fill:none;stroke:red;stroke-width:1px;stroke-linecap:butt;stroke-linejoin:miter;stroke-opacity:1" d="M 959.064,336.848 968.562,349.617 z" id="boundary" inkscape:connector-curvature="0" />
	<path style="fill:none;stroke:red;stroke-width:1px;stroke-linecap:butt;stroke-linejoin:miter;stroke-opacity:1" d="M 959.064,336.848 948.511,324.395 z" id="boundary" inkscape:connector-curvature="0" />
	<path style="fill:none;stroke:red;stroke-width:1px;stroke-linecap:butt;stroke-linejoin:miter;stroke-opacity:1" d="M 968.562,349.617 975.949,361.401 z" id="boundary" inkscape:connector-curvature="0" />
	<path style="fill:none;stroke:red;stroke-width:1px;stroke-linecap:butt;stroke-linejoin:miter;stroke-opacity:1" d="M 981.226,373.362 985.095,387.433 z" id="boundary" inkscape:connector-curvature="0" />
	<path style="fill:none;stroke:red;stroke-width:1px;stroke-linecap:butt;stroke-linejoin:miter;stroke-opacity:1" d="M 981.226,373.362 975.949,361.401 z" id="boundary" inkscape:connector-curvature="0" />
	<path style="fill:none;stroke:red;stroke-width:1px;stroke-linecap:butt;stroke-linejoin:miter;stroke-opacity:1" d="M 955.898,431.228 943.234,428.238 z" id="boundary" inkscape:connector-curvature="0" />
	<path style="fill:none;stroke:red;stroke-width:1px;stroke-linecap:butt;stroke-linejoin:miter;stroke-opacity:1" d="M 943.234,428.238 930.57,419.444 z" id="boundary" inkscape:connector-curvature="0" />
	<path style="fill:none;stroke:red;stroke-width:1px;stroke-linecap:butt;stroke-linejoin:miter;stroke-opacity:1" d="M 985.799,409.594 979.115,423.489 z" id="boundary" inkscape:connector-curvature="0" />
	<path style="fill:none;stroke:red;stroke-width:1px;stroke-linecap:butt;stroke-linejoin:miter;stroke-opacity:1" d="M 979.115,423.489 968.562,429.821 z" id="boundary" inkscape:connector-curvature="0" />
	<path style="fill:none;stroke:red;stroke-width:1px;stroke-linecap:butt;stroke-linejoin:miter;stroke-opacity:1" d="M 968.562,429.821 955.898,431.228 z" id="boundary" inkscape:connector-curvature="0" />
	<path style="fill:none;stroke:red;stroke-width:1px;stroke-linecap:butt;stroke-linejoin:miter;stroke-opacity:1" d="M 985.095,387.433 985.799,409.594 z" id="boundary" inkscape:connector-curvature="0" />
	<path style="fill:none;stroke:red;stroke-width:1px;stroke-linecap:butt;stroke-linejoin:miter;stroke-opacity:1" d="M 936.902,313.209 948.511,324.395 z" id="boundary" inkscape:connector-curvature="0" />
	<circle cx="4.35177" cy="288.233" r="4" fill="#0" id="circle0"/>
	<circle cx="4" cy="304.766" r="4" fill="#0" id="circle1"/>
	<circle cx="4" cy="317.43" r="4" fill="#0" id="circle2"/>
	<circle cx="8.22128" cy="334.315" r="4" fill="#0" id="circle3"/>
	<circle cx="9.2766" cy="269.589" r="4" fill="#0" id="circle4"/>
	<circle cx="18.7745" cy="257.628" r="4" fill="#0" id="circle5"/>
	<circle cx="18.7745" cy="345.22" r="4" fill="#0" id="circle6"/>
	<circle cx="31.4383" cy="249.01" r="4" fill="#0" id="circle7"/>
	<circle cx="31.4383" cy="353.311" r="4" fill="#0" id="circle8"/>
	<circle cx="44.1021" cy="243.557" r="4" fill="#0" id="circle9"/>
	<circle cx="44.1021" cy="359.115" r="4" fill="#0" id="circle10"/>
	<circle cx="56.766" cy="239.16" r="4" fill="#0" id="circle11"/>
	<circle cx="56.766" cy="362.281" r="4" fill="#0" id="circle12"/>
	<circle cx="69.4298" cy="236.17" r="4" fill="#0" id="circle13"/>
	<circle cx="69.4298" cy="362.809" r="4" fill="#0" id="circle14"/>
	<circle cx="82.0936" cy="233.708" r="4" fill="#0" id="circle15"/>
	<circle cx="82.0936" cy="362.809" r="4" fill="#0" id="circle16"/>
	<circle cx="94.7574" cy="231.597" r="4" fill="#0" id="circle17"/>
	<circle cx="94.7574" cy="361.401" r="4" fill="#0" id="circle18"/>
	<circle cx="107.421" cy="229.838" r="4" fill="#0" id="circle19"/>
	<circle cx="107.421" cy="358.939" r="4" fill="#0" id="circle20"/>
	<circle cx="120.085" cy="228.431" r="4" fill="#0" id="circle21"/>
	<circle cx="120.085" cy="355.421" r="4" fill="#0" id="circle22"/>
	<circle cx="132.749" cy="227.376" r="4" fill="#0" id="circle23"/>
	<circle cx="132.749" cy="350.672" r="4" fill="#0" id="circle24"/>
	<circle cx="145.413" cy="225.793" r="4" fill="#0" id="circle25"/>
	<circle cx="145.413" cy="344.868" r="4" fill="#0" id="circle26"/>
	<circle cx="158.077" cy="225.617" r="4" fill="#0" id="circle27"/>
	<circle cx="158.077" cy="338.36" r="4" fill="#0" id="circle28"/>
	<circle cx="171.796" cy="226.409" r="4" fill="#0" id="circle29"/>
	<circle cx="170.74" cy="330.445" r="4" fill="#0" id="circle30"/>
	<circle cx="177.424" cy="91.9433" r="4" fill="#0" id="circle31"/>
	<circle cx="176.721" cy="110.939" r="4" fill="#0" id="circle32"/>
	<circle cx="180.238" cy="123.955" r="4" fill="#0" id="circle33"/>
	<circle cx="183.404" cy="238.281" r="4" fill="#0" id="circle34"/>
	<circle cx="183.404" cy="321.827" r="4" fill="#0" id="circle35"/>
	<circle cx="181.294" cy="76.2894" r="4" fill="#0" id="circle36"/>
	<circle cx="188.681" cy="63.3089" r="4" fill="#0" id="circle37"/>
	<circle cx="187.626" cy="137.234" r="4" fill="#0" id="circle38"/>
	<circle cx="196.068" cy="246.899" r="4" fill="#0" id="circle39"/>
	<circle cx="196.068" cy="312.857" r="4" fill="#0" id="circle40"/>
	<circle cx="197.123" cy="150.267" r="4" fill="#0" id="circle41"/>
	<circle cx="200.289" cy="55.3589" r="4" fill="#0" id="circle42"/>
	<circle cx="198.179" cy="184.46" r="4" fill="#0" id="circle43"/>
	<circle cx="204.511" cy="216.119" r="4" fill="#0" id="circle44"/>
	<circle cx="208.732" cy="162.861" r="4" fill="#0" id="circle45"/>
	<circle cx="204.511" cy="174.962" r="4" fill="#0" id="circle46"/>
	<circle cx="208.732" cy="255.518" r="4" fill="#0" id="circle47"/>
	<circle cx="208.732" cy="303.535" r="4" fill="#0" id="circle48"/>
	<circle cx="212.953" cy="56.0624" r="4" fill="#0" id="circle49"/>
	<circle cx="217.174" cy="222.451" r="4" fill="#0" id="circle50"/>
	<circle cx="219.285" cy="153.591" r="4" fill="#0" id="circle51"/>
	<circle cx="221.396" cy="263.433" r="4" fill="#0" id="circle52"/>
	<circle cx="221.396" cy="293.861" r="4" fill="#0" id="circle53"/>
	<circle cx="225.617" cy="61.5149" r="4" fill="#0" id="circle54"/>
	<circle cx="228.783" cy="140.98" r="4" fill="#0" id="circle55"/>
	<circle cx="229.838" cy="228.079" r="4" fill="#0" id="circle56"/>
	<circle cx="233.004" cy="284.335" r="4" fill="#0" id="circle57"/>
	<circle cx="238.281" cy="69.9574" r="4" fill="#0" id="circle58"/>
	<circle cx="239.336" cy="127.261" r="4" fill="#0" id="circle59"/>
	<circle cx="242.502" cy="234.06" r="4" fill="#0" id="circle60"/>
	<circle cx="249.889" cy="82.3047" r="4" fill="#0" id="circle61"/>
	<circle cx="249.889" cy="114.809" r="4" fill="#0" id="circle62"/>
	<circle cx="259.387" cy="285.77" r="4" fill="#0" id="circle63"/>
	<circle cx="261.498" cy="95.9535" r="4" fill="#0" id="circle64"/>
	<circle cx="257.277" cy="106.366" r="4" fill="#0" id="circle65"/>
	<circle cx="267.83" cy="243.733" r="4" fill="#0" id="circle66"/>
	<circle cx="272.051" cy="291.926" r="4" fill="#0" id="circle67"/>
	<circle cx="274.162" cy="89.4809" r="4" fill="#0" id="circle68"/>
	<circle cx="280.494" cy="247.603" r="4" fill="#0" id="circle69"/>
	<circle cx="284.715" cy="297.379" r="4" fill="#0" id="circle70"/>
	<circle cx="286.826" cy="78.2241" r="4" fill="#0" id="circle71"/>
	<circle cx="293.157" cy="250.065" r="4" fill="#0" id="circle72"/>
	<circle cx="297.379" cy="302.304" r="4" fill="#0" id="circle73"/>
	<circle cx="299.489" cy="69.078" r="4" fill="#0" id="circle74"/>
	<circle cx="305.821" cy="253.055" r="4" fill="#0" id="circle75"/>
	<circle cx="310.043" cy="306.877" r="4" fill="#0" id="circle76"/>
	<circle cx="312.153" cy="62.0426" r="4" fill="#0" id="circle77"/>
	<circle cx="318.485" cy="255.342" r="4" fill="#0" id="circle78"/>
	<circle cx="322.706" cy="310.746" r="4" fill="#0" id="circle79"/>
	<circle cx="324.817" cy="56.5901" r="4" fill="#0" id="circle80"/>
	<circle cx="331.149" cy="257.452" r="4" fill="#0" id="circle81"/>
	<circle cx="335.37" cy="313.736" r="4" fill="#0" id="circle82"/>
	<circle cx="337.481" cy="52.017" r="4" fill="#0" id="circle83"/>
	<circle cx="343.813" cy="259.387" r="4" fill="#0" id="circle84"/>
	<circle cx="348.788" cy="315.168" r="4" fill="#0" id="circle85"/>
	<circle cx="350.145" cy="48.1475" r="4" fill="#0" id="circle86"/>
	<circle cx="356.477" cy="262.729" r="4" fill="#0" id="circle87"/>
	<circle cx="352.255" cy="300.545" r="4" fill="#0" id="circle88"/>
	<circle cx="354.718" cy="284.011" r="4" fill="#0" id="circle89"/>
	<circle cx="360.698" cy="318.309" r="4" fill="#0" id="circle90"/>
	<circle cx="362.809" cy="44.9816" r="4" fill="#0" id="circle91"/>
	<circle cx="369.14" cy="263.257" r="4" fill="#0" id="circle92"/>
	<circle cx="373.362" cy="319.013" r="4" fill="#0" id="circle93"/>
	<circle cx="375.472" cy="42.1674" r="4" fill="#0" id="circle94"/>
	<circle cx="381.804" cy="264.664" r="4" fill="#0" id="circle95"/>
	<circle cx="386.026" cy="319.716" r="4" fill="#0" id="circle96"/>
	<circle cx="388.136" cy="40.0567" r="4" fill="#0" id="circle97"/>
	<circle cx="394.468" cy="265.895" r="4" fill="#0" id="circle98"/>
	<circle cx="398.689" cy="320.068" r="4" fill="#0" id="circle99"/>
	<circle cx="400.8" cy="38.122" r="4" fill="#0" id="circle100"/>
	<circle cx="407.132" cy="267.478" r="4" fill="#0" id="circle101"/>
	<circle cx="413.464" cy="37.2426" r="4" fill="#0" id="circle102"/>
	<circle cx="419.796" cy="267.83" r="4" fill="#0" id="circle103"/>
	<circle cx="426.128" cy="35.8355" r="4" fill="#0" id="circle104"/>
	<circle cx="432.46" cy="268.393" r="4" fill="#0" id="circle105"/>
	<circle cx="432.46" cy="282.604" r="4" fill="#0" id="circle106"/>
	<circle cx="436.681" cy="313.209" r="4" fill="#0" id="circle107"/>
	<circle cx="436.681" cy="329.39" r="4" fill="#0" id="circle108"/>
	<circle cx="438.791" cy="35.6596" r="4" fill="#0" id="circle109"/>
	<circle cx="434.57" cy="294.213" r="4" fill="#0" id="circle110"/>
	<circle cx="445.123" cy="265.719" r="4" fill="#0" id="circle111"/>
	<circle cx="451.455" cy="35.6596" r="4" fill="#0" id="circle112"/>
	<circle cx="457.787" cy="264.136" r="4" fill="#0" id="circle113"/>
	<circle cx="464.119" cy="35.6596" r="4" fill="#0" id="circle114"/>
	<circle cx="470.451" cy="262.026" r="4" fill="#0" id="circle115"/>
	<circle cx="474.672" cy="306.701" r="4" fill="#0" id="circle116"/>
	<circle cx="474.672" cy="338.712" r="4" fill="#0" id="circle117"/>
	<circle cx="476.783" cy="36.7149" r="4" fill="#0" id="circle118"/>
	<circle cx="483.115" cy="259.387" r="4" fill="#0" id="circle119"/>
	<circle cx="487.336" cy="302.831" r="4" fill="#0" id="circle120"/>
	<circle cx="487.336" cy="341.35" r="4" fill="#0" id="circle121"/>
	<circle cx="489.447" cy="37.7702" r="4" fill="#0" id="circle122"/>
	<circle cx="495.779" cy="256.397" r="4" fill="#0" id="circle123"/>
	<circle cx="500" cy="298.962" r="4" fill="#0" id="circle124"/>
	<circle cx="500" cy="344.34" r="4" fill="#0" id="circle125"/>
	<circle cx="502.111" cy="39.5291" r="4" fill="#0" id="circle126"/>
	<circle cx="498.241" cy="518.292" r="4" fill="#0" id="circle127"/>
	<circle cx="503.166" cy="502.462" r="4" fill="#0" id="circle128"/>
	<circle cx="506.332" cy="533.243" r="4" fill="#0" id="circle129"/>
	<circle cx="508.443" cy="253.583" r="4" fill="#0" id="circle130"/>
	<circle cx="512.664" cy="295.092" r="4" fill="#0" id="circle131"/>
	<circle cx="512.664" cy="346.803" r="4" fill="#0" id="circle132"/>
	<circle cx="512.664" cy="489.447" r="4" fill="#0" id="circle133"/>
	<circle cx="514.774" cy="41.4638" r="4" fill="#0" id="circle134"/>
	<circle cx="518.996" cy="535.529" r="4" fill="#0" id="circle135"/>
	<circle cx="525.328" cy="291.047" r="4" fill="#0" id="circle136"/>
	<circle cx="525.328" cy="348.738" r="4" fill="#0" id="circle137"/>
	<circle cx="525.328" cy="477.487" r="4" fill="#0" id="circle138"/>
	<circle cx="527.438" cy="44.4539" r="4" fill="#0" id="circle139"/>
	<circle cx="531.66" cy="532.891" r="4" fill="#0" id="circle140"/>
	<circle cx="537.991" cy="286.474" r="4" fill="#0" id="circle141"/>
	<circle cx="537.991" cy="350.145" r="4" fill="#0" id="circle142"/>
	<circle cx="537.991" cy="467.637" r="4" fill="#0" id="circle143"/>
	<circle cx="540.102" cy="47.6199" r="4" fill="#0" id="circle144"/>
	<circle cx="536.936" cy="272.051" r="4" fill="#0" id="circle145"/>
	<circle cx="544.323" cy="527.438" r="4" fill="#0" id="circle146"/>
	<circle cx="546.434" cy="243.733" r="4" fill="#0" id="circle147"/>
	<circle cx="550.655" cy="283.308" r="4" fill="#0" id="circle148"/>
	<circle cx="550.655" cy="351.728" r="4" fill="#0" id="circle149"/>
	<circle cx="550.655" cy="457.963" r="4" fill="#0" id="circle150"/>
	<circle cx="552.766" cy="52.3688" r="4" fill="#0" id="circle151"/>
	<circle cx="556.987" cy="519.172" r="4" fill="#0" id="circle152"/>
	<circle cx="559.098" cy="240.743" r="4" fill="#0" id="circle153"/>
	<circle cx="563.319" cy="278.735" r="4" fill="#0" id="circle154"/>
	<circle cx="563.319" cy="352.255" r="4" fill="#0" id="circle155"/>
	<circle cx="563.319" cy="447.586" r="4" fill="#0" id="circle156"/>
	<circle cx="565.43" cy="57.8213" r="4" fill="#0" id="circle157"/>
	<circle cx="569.651" cy="508.794" r="4" fill="#0" id="circle158"/>
	<circle cx="571.762" cy="237.05" r="4" fill="#0" id="circle159"/>
	<circle cx="575.983" cy="274.338" r="4" fill="#0" id="circle160"/>
	<circle cx="575.983" cy="351.376" r="4" fill="#0" id="circle161"/>
	<circle cx="574.928" cy="436.259" r="4" fill="#0" id="circle162"/>
	<circle cx="578.094" cy="64.505" r="4" fill="#0" id="circle163"/>
	<circle cx="582.315" cy="496.834" r="4" fill="#0" id="circle164"/>
	<circle cx="584.426" cy="233.356" r="4" fill="#0" id="circle165"/>
	<circle cx="583.37" cy="425.424" r="4" fill="#0" id="circle166"/>
	<circle cx="588.647" cy="269.413" r="4" fill="#0" id="circle167"/>
	<circle cx="588.647" cy="349.969" r="4" fill="#0" id="circle168"/>
	<circle cx="590.757" cy="72.0681" r="4" fill="#0" id="circle169"/>
	<circle cx="589.702" cy="412.409" r="4" fill="#0" id="circle170"/>
	<circle cx="593.923" cy="484.381" r="4" fill="#0" id="circle171"/>
	<circle cx="597.089" cy="229.487" r="4" fill="#0" id="circle172"/>
	<circle cx="595.33" cy="396.579" r="4" fill="#0" id="circle173"/>
	<circle cx="601.311" cy="263.609" r="4" fill="#0" id="circle174"/>
	<circle cx="602.366" cy="347.77" r="4" fill="#0" id="circle175"/>
	<circle cx="603.421" cy="79.983" r="4" fill="#0" id="circle176"/>
	<circle cx="598.848" cy="382.156" r="4" fill="#0" id="circle177"/>
	<circle cx="601.311" cy="365.974" r="4" fill="#0" id="circle178"/>
	<circle cx="605.532" cy="472.562" r="4" fill="#0" id="circle179"/>
	<circle cx="609.753" cy="225.617" r="4" fill="#0" id="circle180"/>
	<circle cx="613.974" cy="258.156" r="4" fill="#0" id="circle181"/>
	<circle cx="616.085" cy="88.7773" r="4" fill="#0" id="circle182"/>
	<circle cx="617.14" cy="460.742" r="4" fill="#0" id="circle183"/>
	<circle cx="617.14" cy="312.505" r="4" fill="#0" id="circle184"/>
	<circle cx="622.417" cy="221.572" r="4" fill="#0" id="circle185"/>
	<circle cx="626.638" cy="252.528" r="4" fill="#0" id="circle186"/>
	<circle cx="625.583" cy="299.911" r="4" fill="#0" id="circle187"/>
	<circle cx="628.749" cy="98.2752" r="4" fill="#0" id="circle188"/>
	<circle cx="627.694" cy="447.867" r="4" fill="#0" id="circle189"/>
	<circle cx="635.081" cy="217.702" r="4" fill="#0" id="circle190"/>
	<circle cx="637.191" cy="287.529" r="4" fill="#0" id="circle191"/>
	<circle cx="639.302" cy="246.723" r="4" fill="#0" id="circle192"/>
	<circle cx="637.191" cy="434.57" r="4" fill="#0" id="circle193"/>
	<circle cx="641.413" cy="107.597" r="4" fill="#0" id="circle194"/>
	<circle cx="647.745" cy="213.657" r="4" fill="#0" id="circle195"/>
	<circle cx="644.579" cy="421.906" r="4" fill="#0" id="circle196"/>
	<circle cx="649.855" cy="277.504" r="4" fill="#0" id="circle197"/>
	<circle cx="651.966" cy="239.336" r="4" fill="#0" id="circle198"/>
	<circle cx="654.077" cy="117.974" r="4" fill="#0" id="circle199"/>
	<circle cx="650.911" cy="407.923" r="4" fill="#0" id="circle200"/>
	<circle cx="654.077" cy="390.247" r="4" fill="#0" id="circle201"/>
	<circle cx="660.409" cy="209.435" r="4" fill="#0" id="circle202"/>
	<circle cx="656.539" cy="367.03" r="4" fill="#0" id="circle203"/>
	<circle cx="655.132" cy="377.583" r="4" fill="#0" id="circle204"/>
	<circle cx="662.519" cy="270.996" r="4" fill="#0" id="circle205"/>
	<circle cx="662.067" cy="349.24" r="4" fill="#0" id="circle206"/>
	<circle cx="664.63" cy="231.597" r="4" fill="#0" id="circle207"/>
	<circle cx="666.74" cy="128.528" r="4" fill="#0" id="circle208"/>
	<circle cx="663.574" cy="329.742" r="4" fill="#0" id="circle209"/>
	<circle cx="673.072" cy="205.214" r="4" fill="#0" id="circle210"/>
	<circle cx="673.072" cy="314.967" r="4" fill="#0" id="circle211"/>
	<circle cx="675.183" cy="266.599" r="4" fill="#0" id="circle212"/>
	<circle cx="675.183" cy="348.913" r="4" fill="#0" id="circle213"/>
	<circle cx="677.294" cy="221.22" r="4" fill="#0" id="circle214"/>
	<circle cx="679.404" cy="139.609" r="4" fill="#0" id="circle215"/>
	<circle cx="685.736" cy="307.932" r="4" fill="#0" id="circle216"/>
	<circle cx="687.847" cy="265.719" r="4" fill="#0" id="circle217"/>
	<circle cx="687.847" cy="345.22" r="4" fill="#0" id="circle218"/>
	<circle cx="684.681" cy="215.064" r="4" fill="#0" id="circle219"/>
	<circle cx="692.068" cy="151.041" r="4" fill="#0" id="circle220"/>
	<circle cx="697.345" cy="196.912" r="4" fill="#0" id="circle221"/>
	<circle cx="698.4" cy="304.062" r="4" fill="#0" id="circle222"/>
	<circle cx="700.511" cy="266.247" r="4" fill="#0" id="circle223"/>
	<circle cx="700.511" cy="340.999" r="4" fill="#0" id="circle224"/>
	<circle cx="703.677" cy="162.087" r="4" fill="#0" id="circle225"/>
	<circle cx="706.843" cy="182.349" r="4" fill="#0" id="circle226"/>
	<circle cx="711.064" cy="300.545" r="4" fill="#0" id="circle227"/>
	<circle cx="713.174" cy="269.413" r="4" fill="#0" id="circle228"/>
	<circle cx="713.174" cy="336.777" r="4" fill="#0" id="circle229"/>
	<circle cx="713.174" cy="168.049" r="4" fill="#0" id="circle230"/>
	<circle cx="720.562" cy="152.8" r="4" fill="#0" id="circle231"/>
	<circle cx="722.672" cy="294.424" r="4" fill="#0" id="circle232"/>
	<circle cx="723.728" cy="276.536" r="4" fill="#0" id="circle233"/>
	<circle cx="725.838" cy="332.028" r="4" fill="#0" id="circle234"/>
	<circle cx="726.894" cy="136.618" r="4" fill="#0" id="circle235"/>
	<circle cx="729.004" cy="285.77" r="4" fill="#0" id="circle236"/>
	<circle cx="733.226" cy="120.085" r="4" fill="#0" id="circle237"/>
	<circle cx="738.502" cy="326.928" r="4" fill="#0" id="circle238"/>
	<circle cx="739.557" cy="103.904" r="4" fill="#0" id="circle239"/>
	<circle cx="745.889" cy="88.7773" r="4" fill="#0" id="circle240"/>
	<circle cx="751.166" cy="319.365" r="4" fill="#0" id="circle241"/>
	<circle cx="752.221" cy="75.7617" r="4" fill="#0" id="circle242"/>
	<circle cx="759.609" cy="62.834" r="4" fill="#0" id="circle243"/>
	<circle cx="763.83" cy="310.218" r="4" fill="#0" id="circle244"/>
	<circle cx="768.051" cy="50.9617" r="4" fill="#0" id="circle245"/>
	<circle cx="776.494" cy="299.313" r="4" fill="#0" id="circle246"/>
	<circle cx="778.604" cy="38.2979" r="4" fill="#0" id="circle247"/>
	<circle cx="790.213" cy="289.701" r="4" fill="#0" id="circle248"/>
	<circle cx="791.268" cy="27.3929" r="4" fill="#0" id="circle249"/>
	<circle cx="800.766" cy="275.217" r="4" fill="#0" id="circle250"/>
	<circle cx="801.821" cy="296.148" r="4" fill="#0" id="circle251"/>
	<circle cx="803.932" cy="19.8298" r="4" fill="#0" id="circle252"/>
	<circle cx="811.319" cy="263.186" r="4" fill="#0" id="circle253"/>
	<circle cx="814.485" cy="298.61" r="4" fill="#0" id="circle254"/>
	<circle cx="816.596" cy="13.8496" r="4" fill="#0" id="circle255"/>
	<circle cx="822.928" cy="256.221" r="4" fill="#0" id="circle256"/>
	<circle cx="827.149" cy="302.479" r="4" fill="#0" id="circle257"/>
	<circle cx="829.26" cy="9.45248" r="4" fill="#0" id="circle258"/>
	<circle cx="829.26" cy="240.128" r="4" fill="#0" id="circle259"/>
	<circle cx="830.315" cy="82.8851" r="4" fill="#0" id="circle260"/>
	<circle cx="828.908" cy="102.848" r="4" fill="#0" id="circle261"/>
	<circle cx="832.426" cy="116.216" r="4" fill="#0" id="circle262"/>
	<circle cx="835.591" cy="261.146" r="4" fill="#0" id="circle263"/>
	<circle cx="833.481" cy="66.7915" r="4" fill="#0" id="circle264"/>
	<circle cx="837.702" cy="227.728" r="4" fill="#0" id="circle265"/>
	<circle cx="839.813" cy="306.525" r="4" fill="#0" id="circle266"/>
	<circle cx="841.923" cy="6.81418" r="4" fill="#0" id="circle267"/>
	<circle cx="838.757" cy="53.6" r="4" fill="#0" id="circle268"/>
	<circle cx="840.868" cy="130.216" r="4" fill="#0" id="circle269"/>
	<circle cx="846.145" cy="40.6723" r="4" fill="#0" id="circle270"/>
	<circle cx="846.145" cy="215.591" r="4" fill="#0" id="circle271"/>
	<circle cx="848.255" cy="263.784" r="4" fill="#0" id="circle272"/>
	<circle cx="852.477" cy="138.905" r="4" fill="#0" id="circle273"/>
	<circle cx="852.477" cy="311.45" r="4" fill="#0" id="circle274"/>
	<circle cx="854.587" cy="5.40709" r="4" fill="#0" id="circle275"/>
	<circle cx="856.698" cy="29.3277" r="4" fill="#0" id="circle276"/>
	<circle cx="855.643" cy="202.611" r="4" fill="#0" id="circle277"/>
	<circle cx="860.919" cy="266.774" r="4" fill="#0" id="circle278"/>
	<circle cx="865.14" cy="139.609" r="4" fill="#0" id="circle279"/>
	<circle cx="865.14" cy="318.485" r="4" fill="#0" id="circle280"/>
	<circle cx="867.251" cy="4.17589" r="4" fill="#0" id="circle281"/>
	<circle cx="867.251" cy="189.736" r="4" fill="#0" id="circle282"/>
	<circle cx="869.362" cy="25.4582" r="4" fill="#0" id="circle283"/>
	<circle cx="873.583" cy="270.644" r="4" fill="#0" id="circle284"/>
	<circle cx="875.694" cy="131.957" r="4" fill="#0" id="circle285"/>
	<circle cx="876.749" cy="328.405" r="4" fill="#0" id="circle286"/>
	<circle cx="879.915" cy="4" r="4" fill="#0" id="circle287"/>
	<circle cx="879.915" cy="177.952" r="4" fill="#0" id="circle288"/>
	<circle cx="878.86" cy="32.8454" r="4" fill="#0" id="circle289"/>
	<circle cx="883.081" cy="119.03" r="4" fill="#0" id="circle290"/>
	<circle cx="886.247" cy="275.393" r="4" fill="#0" id="circle291"/>
	<circle cx="884.136" cy="44.6298" r="4" fill="#0" id="circle292"/>
	<circle cx="886.247" cy="341.174" r="4" fill="#0" id="circle293"/>
	<circle cx="892.579" cy="4" r="4" fill="#0" id="circle294"/>
	<circle cx="888.006" cy="59.2284" r="4" fill="#0" id="circle295"/>
	<circle cx="888.709" cy="104.255" r="4" fill="#0" id="circle296"/>
	<circle cx="892.579" cy="169.685" r="4" fill="#0" id="circle297"/>
	<circle cx="890.82" cy="76.4652" r="4" fill="#0" id="circle298"/>
	<circle cx="890.468" cy="90.5362" r="4" fill="#0" id="circle299"/>
	<circle cx="893.634" cy="354.366" r="4" fill="#0" id="circle300"/>
	<circle cx="898.911" cy="281.725" r="4" fill="#0" id="circle301"/>
	<circle cx="899.966" cy="367.733" r="4" fill="#0" id="circle302"/>
	<circle cx="905.243" cy="4" r="4" fill="#0" id="circle303"/>
	<circle cx="905.243" cy="163.881" r="4" fill="#0" id="circle304"/>
	<circle cx="906.298" cy="381.804" r="4" fill="#0" id="circle305"/>
	<circle cx="911.574" cy="291.047" r="4" fill="#0" id="circle306"/>
	<circle cx="912.63" cy="394.468" r="4" fill="#0" id="circle307"/>
	<circle cx="917.906" cy="5.23121" r="4" fill="#0" id="circle308"/>
	<circle cx="917.906" cy="160.363" r="4" fill="#0" id="circle309"/>
	<circle cx="920.017" cy="406.868" r="4" fill="#0" id="circle310"/>
	<circle cx="924.238" cy="301.424" r="4" fill="#0" id="circle311"/>
	<circle cx="930.57" cy="6.99007" r="4" fill="#0" id="circle312"/>
	<circle cx="930.57" cy="157.549" r="4" fill="#0" id="circle313"/>
	<circle cx="930.57" cy="419.444" r="4" fill="#0" id="circle314"/>
	<circle cx="936.902" cy="313.209" r="4" fill="#0" id="circle315"/>
	<circle cx="943.234" cy="10.5078" r="4" fill="#0" id="circle316"/>
	<circle cx="943.234" cy="155.087" r="4" fill="#0" id="circle317"/>
	<circle cx="943.234" cy="428.238" r="4" fill="#0" id="circle318"/>
	<circle cx="948.511" cy="324.395" r="4" fill="#0" id="circle319"/>
	<circle cx="955.898" cy="16.6638" r="4" fill="#0" id="circle320"/>
	<circle cx="955.898" cy="151.921" r="4" fill="#0" id="circle321"/>
	<circle cx="955.898" cy="431.228" r="4" fill="#0" id="circle322"/>
	<circle cx="959.064" cy="336.848" r="4" fill="#0" id="circle323"/>
	<circle cx="968.562" cy="25.634" r="4" fill="#0" id="circle324"/>
	<circle cx="968.562" cy="147.348" r="4" fill="#0" id="circle325"/>
	<circle cx="968.562" cy="429.821" r="4" fill="#0" id="circle326"/>
	<circle cx="968.562" cy="349.617" r="4" fill="#0" id="circle327"/>
	<circle cx="975.949" cy="361.401" r="4" fill="#0" id="circle328"/>
	<circle cx="980.17" cy="37.5591" r="4" fill="#0" id="circle329"/>
	<circle cx="981.226" cy="138.553" r="4" fill="#0" id="circle330"/>
	<circle cx="979.115" cy="423.489" r="4" fill="#0" id="circle331"/>
	<circle cx="981.226" cy="373.362" r="4" fill="#0" id="circle332"/>
	<circle cx="985.095" cy="387.433" r="4" fill="#0" id="circle333"/>
	<circle cx="985.799" cy="409.594" r="4" fill="#0" id="circle334"/>
	<circle cx="987.557" cy="50.434" r="4" fill="#0" id="circle335"/>
	<circle cx="991.779" cy="125.889" r="4" fill="#0" id="circle336"/>
	<circle cx="991.427" cy="64.505" r="4" fill="#0" id="circle337"/>
	<circle cx="993.889" cy="78.4" r="4" fill="#0" id="circle338"/>
	<circle cx="996" cy="93.7021" r="4" fill="#0" id="circle339"/>
	<circle cx="996" cy="105.311" r="4" fill="#0" id="circle340"/>
	<circle cx="994.945" cy="115.864" r="4" fill="#0" id="circle341"/>
	<circle cx="686.59" cy="204.029" r="4" fill="#0" id="circle342"/>
	<circle cx="190.625" cy="195.45" r="4" fill="#0" id="circle343"/>
	<circle cx="193.305" cy="211.535" r="4" fill="#0" id="circle344"/>
	<circle cx="534.852" cy="247.46" r="4" fill="#0" id="circle345"/>
	<circle cx="530.026" cy="258.183" r="4" fill="#0" id="circle346"/>
	<circle cx="184.727" cy="205.101" r="4" fill="#0" id="circle347"/>
	<circle cx="177.22" cy="215.825" r="4" fill="#0" id="circle348"/>
	<circle cx="526.809" cy="249.068" r="4" fill="#0" id="circle349"/>
	<circle cx="516.085" cy="251.213" r="4" fill="#0" id="circle350"/>
	<circle cx="428.688" cy="320.916" r="4" fill="#0" id="circle351"/>
	<circle cx="407.777" cy="319.844" r="4" fill="#0" id="circle352"/>
	<circle cx="419.037" cy="320.38" r="4" fill="#0" id="circle353"/>
	<circle cx="354.159" cy="273.196" r="4" fill="#0" id="circle354"/>
	<circle cx="449.063" cy="309.12" r="4" fill="#0" id="circle355"/>
	<circle cx="462.467" cy="306.439" r="4" fill="#0" id="circle356"/>
	<circle cx="449.063" cy="334.857" r="4" fill="#0" id="circle357"/>
	<circle cx="460.859" cy="338.074" r="4" fill="#0" id="circle358"/>
	<circle cx="228.693" cy="270.515" r="4" fill="#0" id="circle359"/>
	<circle cx="239.953" cy="275.877" r="4" fill="#0" id="circle360"/>
	<circle cx="250.14" cy="280.703" r="4" fill="#0" id="circle361"/>
	<circle cx="254.43" cy="238.881" r="4" fill="#0" id="circle362"/>
	<circle cx="250.14" cy="249.604" r="4" fill="#0" id="circle363"/>
	<circle cx="245.315" cy="262.473" r="4" fill="#0" id="circle364"/>
	<circle cx="436.195" cy="302.686" r="4" fill="#0" id="circle365"/>
	<circle cx="606.7" cy="335.929" r="4" fill="#0" id="circle366"/>
	<circle cx="610.989" cy="321.988" r="4" fill="#0" id="circle367"/>
	</g>
</svg>