<?xml version="1.0" encoding="UTF-8" standalone="no"?>
<!-- Created with CurveBenchmark -->
<svg
	xmlns:dc="http://purl.org/dc/elements/1.1/"
	xmlns:cc="http://creativecommons.org/ns#"
	xmlns:rdf="http://www.w3.org/1999/02/22-rdf-syntax-ns#"
	xmlns:svg="http://www.w3.org/2000/svg"
	xmlns="http://www.w3.org/2000/svg"
	xmlns:sodipodi="http://sodipodi.sourceforge.net/DTD/sodipodi-0.dtd"
	xmlns:inkscape="http://www.inkscape.org/namespaces/inkscape"
	width="1000"
	height="1000"
	id="svg2"
	version="1.1"
	sodipodi:docname="multiple-curves/hnncrust-toilet075.png.txt">
<defs
	id="defs4" />
<metadata
	id="metadata7">
	<rdf:RDF>
		<cc:Work
			rdf:about="">
			<dc:format>image/svg+xml</dc:format>
			<dc:type
				rdf:resource="http://purl.org/dc/dcmitype/StillImage" />
			<dc:title></dc:title>
		</cc:Work>
	</rdf:RDF>
</metadata>
<g
	inkscape:label="Layer 1"
	inkscape:groupmode="layer"
	id="layer1">
	<path style="fill:none;stroke:red;stroke-width:1px;stroke-linecap:butt;stroke-linejoin:miter;stroke-opacity:1" d="M 4,403.725 4,464.658 z" id="boundary" inkscape:connector-curvature="0" />
	<path style="fill:none;stroke:red;stroke-width:1px;stroke-linecap:butt;stroke-linejoin:miter;stroke-opacity:1" d="M 4,403.725 8.87469,286.732 z" id="boundary" inkscape:connector-curvature="0" />
	<path style="fill:none;stroke:red;stroke-width:1px;stroke-linecap:butt;stroke-linejoin:miter;stroke-opacity:1" d="M 4,464.658 6.43735,525.592 z" id="boundary" inkscape:connector-curvature="0" />
	<path style="fill:none;stroke:red;stroke-width:1px;stroke-linecap:butt;stroke-linejoin:miter;stroke-opacity:1" d="M 6.43735,525.592 25.9361,584.088 z" id="boundary" inkscape:connector-curvature="0" />
	<path style="fill:none;stroke:red;stroke-width:1px;stroke-linecap:butt;stroke-linejoin:miter;stroke-opacity:1" d="M 8.87469,286.732 13.7494,174.614 z" id="boundary" inkscape:connector-curvature="0" />
	<path style="fill:none;stroke:red;stroke-width:1px;stroke-linecap:butt;stroke-linejoin:miter;stroke-opacity:1" d="M 13.7494,174.614 18.6241,91.7445 z" id="boundary" inkscape:connector-curvature="0" />
	<path style="fill:none;stroke:red;stroke-width:1px;stroke-linecap:butt;stroke-linejoin:miter;stroke-opacity:1" d="M 18.6241,91.7445 35.6855,30.8108 z" id="boundary" inkscape:connector-curvature="0" />
	<path style="fill:none;stroke:red;stroke-width:1px;stroke-linecap:butt;stroke-linejoin:miter;stroke-opacity:1" d="M 25.9361,584.088 60.059,635.273 z" id="boundary" inkscape:connector-curvature="0" />
	<path style="fill:none;stroke:red;stroke-width:1px;stroke-linecap:butt;stroke-linejoin:miter;stroke-opacity:1" d="M 35.6855,30.8108 94.1818,13.7494 z" id="boundary" inkscape:connector-curvature="0" />
	<path style="fill:none;stroke:red;stroke-width:1px;stroke-linecap:butt;stroke-linejoin:miter;stroke-opacity:1" d="M 60.059,635.273 108.806,671.833 z" id="boundary" inkscape:connector-curvature="0" />
	<path style="fill:none;stroke:red;stroke-width:1px;stroke-linecap:butt;stroke-linejoin:miter;stroke-opacity:1" d="M 94.1818,13.7494 155.115,11.312 z" id="boundary" inkscape:connector-curvature="0" />
	<path style="fill:none;stroke:red;stroke-width:1px;stroke-linecap:butt;stroke-linejoin:miter;stroke-opacity:1" d="M 108.806,671.833 155.115,713.268 z" id="boundary" inkscape:connector-curvature="0" />
	<path style="fill:none;stroke:red;stroke-width:1px;stroke-linecap:butt;stroke-linejoin:miter;stroke-opacity:1" d="M 155.115,11.312 216.049,4 z" id="boundary" inkscape:connector-curvature="0" />
	<path style="fill:none;stroke:red;stroke-width:1px;stroke-linecap:butt;stroke-linejoin:miter;stroke-opacity:1" d="M 155.115,713.268 184.364,766.889 z" id="boundary" inkscape:connector-curvature="0" />
	<path style="fill:none;stroke:red;stroke-width:1px;stroke-linecap:butt;stroke-linejoin:miter;stroke-opacity:1" d="M 184.364,766.889 213.612,820.511 z" id="boundary" inkscape:connector-curvature="0" />
	<path style="fill:none;stroke:red;stroke-width:1px;stroke-linecap:butt;stroke-linejoin:miter;stroke-opacity:1" d="M 213.612,820.511 255.047,866.821 z" id="boundary" inkscape:connector-curvature="0" />
	<path style="fill:none;stroke:red;stroke-width:1px;stroke-linecap:butt;stroke-linejoin:miter;stroke-opacity:1" d="M 216.049,4 272.108,28.3735 z" id="boundary" inkscape:connector-curvature="0" />
	<path style="fill:none;stroke:red;stroke-width:1px;stroke-linecap:butt;stroke-linejoin:miter;stroke-opacity:1" d="M 247.735,959.44 301.356,991.125 z" id="boundary" inkscape:connector-curvature="0" />
	<path style="fill:none;stroke:red;stroke-width:1px;stroke-linecap:butt;stroke-linejoin:miter;stroke-opacity:1" d="M 255.047,866.821 330.604,857.071 z" id="boundary" inkscape:connector-curvature="0" />
	<path style="fill:none;stroke:red;stroke-width:1px;stroke-linecap:butt;stroke-linejoin:miter;stroke-opacity:1" d="M 264.796,686.457 274.545,747.391 z" id="boundary" inkscape:connector-curvature="0" />
	<path style="fill:none;stroke:red;stroke-width:1px;stroke-linecap:butt;stroke-linejoin:miter;stroke-opacity:1" d="M 272.108,28.3735 284.295,89.3071 z" id="boundary" inkscape:connector-curvature="0" />
	<path style="fill:none;stroke:red;stroke-width:1px;stroke-linecap:butt;stroke-linejoin:miter;stroke-opacity:1" d="M 274.545,747.391 298.919,803.45 z" id="boundary" inkscape:connector-curvature="0" />
	<path style="fill:none;stroke:red;stroke-width:1px;stroke-linecap:butt;stroke-linejoin:miter;stroke-opacity:1" d="M 284.295,89.3071 294.044,150.241 z" id="boundary" inkscape:connector-curvature="0" />
	<path style="fill:none;stroke:red;stroke-width:1px;stroke-linecap:butt;stroke-linejoin:miter;stroke-opacity:1" d="M 284.295,486.595 298.919,389.101 z" id="boundary" inkscape:connector-curvature="0" />
	<path style="fill:none;stroke:red;stroke-width:1px;stroke-linecap:butt;stroke-linejoin:miter;stroke-opacity:1" d="M 284.295,486.595 342.791,506.093 z" id="boundary" inkscape:connector-curvature="0" />
	<path style="fill:none;stroke:red;stroke-width:1px;stroke-linecap:butt;stroke-linejoin:miter;stroke-opacity:1" d="M 294.044,150.241 298.919,211.174 z" id="boundary" inkscape:connector-curvature="0" />
	<path style="fill:none;stroke:red;stroke-width:1px;stroke-linecap:butt;stroke-linejoin:miter;stroke-opacity:1" d="M 298.919,211.174 303.794,272.108 z" id="boundary" inkscape:connector-curvature="0" />
	<path style="fill:none;stroke:red;stroke-width:1px;stroke-linecap:butt;stroke-linejoin:miter;stroke-opacity:1" d="M 298.919,389.101 303.794,272.108 z" id="boundary" inkscape:connector-curvature="0" />
	<path style="fill:none;stroke:red;stroke-width:1px;stroke-linecap:butt;stroke-linejoin:miter;stroke-opacity:1" d="M 298.919,803.45 335.479,754.703 z" id="boundary" inkscape:connector-curvature="0" />
	<path style="fill:none;stroke:red;stroke-width:1px;stroke-linecap:butt;stroke-linejoin:miter;stroke-opacity:1" d="M 301.356,991.125 362.29,996 z" id="boundary" inkscape:connector-curvature="0" />
	<path style="fill:none;stroke:red;stroke-width:1px;stroke-linecap:butt;stroke-linejoin:miter;stroke-opacity:1" d="M 342.791,506.093 403.725,506.093 z" id="boundary" inkscape:connector-curvature="0" />
	<path style="fill:none;stroke:red;stroke-width:1px;stroke-linecap:butt;stroke-linejoin:miter;stroke-opacity:1" d="M 362.29,996 423.224,996 z" id="boundary" inkscape:connector-curvature="0" />
	<path style="fill:none;stroke:red;stroke-width:1px;stroke-linecap:butt;stroke-linejoin:miter;stroke-opacity:1" d="M 403.725,506.093 464.658,506.093 z" id="boundary" inkscape:connector-curvature="0" />
	<path style="fill:none;stroke:red;stroke-width:1px;stroke-linecap:butt;stroke-linejoin:miter;stroke-opacity:1" d="M 423.224,996 484.157,996 z" id="boundary" inkscape:connector-curvature="0" />
	<path style="fill:none;stroke:red;stroke-width:1px;stroke-linecap:butt;stroke-linejoin:miter;stroke-opacity:1" d="M 464.658,506.093 525.592,506.093 z" id="boundary" inkscape:connector-curvature="0" />
	<path style="fill:none;stroke:red;stroke-width:1px;stroke-linecap:butt;stroke-linejoin:miter;stroke-opacity:1" d="M 484.157,996 545.091,996 z" id="boundary" inkscape:connector-curvature="0" />
	<path style="fill:none;stroke:red;stroke-width:1px;stroke-linecap:butt;stroke-linejoin:miter;stroke-opacity:1" d="M 525.592,506.093 586.526,506.093 z" id="boundary" inkscape:connector-curvature="0" />
	<path style="fill:none;stroke:red;stroke-width:1px;stroke-linecap:butt;stroke-linejoin:miter;stroke-opacity:1" d="M 545.091,996 606.025,991.125 z" id="boundary" inkscape:connector-curvature="0" />
	<path style="fill:none;stroke:red;stroke-width:1px;stroke-linecap:butt;stroke-linejoin:miter;stroke-opacity:1" d="M 576.776,808.324 586.526,869.258 z" id="boundary" inkscape:connector-curvature="0" />
	<path style="fill:none;stroke:red;stroke-width:1px;stroke-linecap:butt;stroke-linejoin:miter;stroke-opacity:1" d="M 576.776,808.324 593.838,747.391 z" id="boundary" inkscape:connector-curvature="0" />
	<path style="fill:none;stroke:red;stroke-width:1px;stroke-linecap:butt;stroke-linejoin:miter;stroke-opacity:1" d="M 586.526,506.093 647.459,506.093 z" id="boundary" inkscape:connector-curvature="0" />
	<path style="fill:none;stroke:red;stroke-width:1px;stroke-linecap:butt;stroke-linejoin:miter;stroke-opacity:1" d="M 586.526,869.258 627.961,915.568 z" id="boundary" inkscape:connector-curvature="0" />
	<path style="fill:none;stroke:red;stroke-width:1px;stroke-linecap:butt;stroke-linejoin:miter;stroke-opacity:1" d="M 593.838,747.391 627.961,693.769 z" id="boundary" inkscape:connector-curvature="0" />
	<path style="fill:none;stroke:red;stroke-width:1px;stroke-linecap:butt;stroke-linejoin:miter;stroke-opacity:1" d="M 606.025,991.125 664.521,974.064 z" id="boundary" inkscape:connector-curvature="0" />
	<path style="fill:none;stroke:red;stroke-width:1px;stroke-linecap:butt;stroke-linejoin:miter;stroke-opacity:1" d="M 627.961,693.769 669.396,647.459 z" id="boundary" inkscape:connector-curvature="0" />
	<path style="fill:none;stroke:red;stroke-width:1px;stroke-linecap:butt;stroke-linejoin:miter;stroke-opacity:1" d="M 627.961,915.568 664.521,974.064 z" id="boundary" inkscape:connector-curvature="0" />
	<path style="fill:none;stroke:red;stroke-width:1px;stroke-linecap:butt;stroke-linejoin:miter;stroke-opacity:1" d="M 647.459,506.093 708.393,506.093 z" id="boundary" inkscape:connector-curvature="0" />
	<path style="fill:none;stroke:red;stroke-width:1px;stroke-linecap:butt;stroke-linejoin:miter;stroke-opacity:1" d="M 669.396,647.459 705.956,596.275 z" id="boundary" inkscape:connector-curvature="0" />
	<path style="fill:none;stroke:red;stroke-width:1px;stroke-linecap:butt;stroke-linejoin:miter;stroke-opacity:1" d="M 705.956,596.275 708.393,506.093 z" id="boundary" inkscape:connector-curvature="0" />
	<circle cx="4" cy="403.725" r="4" fill="#0" id="circle0"/>
	<circle cx="4" cy="464.658" r="4" fill="#0" id="circle1"/>
	<circle cx="6.43735" cy="525.592" r="4" fill="#0" id="circle2"/>
	<circle cx="8.87469" cy="286.732" r="4" fill="#0" id="circle3"/>
	<circle cx="13.7494" cy="174.614" r="4" fill="#0" id="circle4"/>
	<circle cx="18.6241" cy="91.7445" r="4" fill="#0" id="circle5"/>
	<circle cx="25.9361" cy="584.088" r="4" fill="#0" id="circle6"/>
	<circle cx="35.6855" cy="30.8108" r="4" fill="#0" id="circle7"/>
	<circle cx="60.059" cy="635.273" r="4" fill="#0" id="circle8"/>
	<circle cx="94.1818" cy="13.7494" r="4" fill="#0" id="circle9"/>
	<circle cx="108.806" cy="671.833" r="4" fill="#0" id="circle10"/>
	<circle cx="155.115" cy="11.312" r="4" fill="#0" id="circle11"/>
	<circle cx="155.115" cy="713.268" r="4" fill="#0" id="circle12"/>
	<circle cx="184.364" cy="766.889" r="4" fill="#0" id="circle13"/>
	<circle cx="213.612" cy="820.511" r="4" fill="#0" id="circle14"/>
	<circle cx="216.049" cy="4" r="4" fill="#0" id="circle15"/>
	<circle cx="247.735" cy="959.44" r="4" fill="#0" id="circle16"/>
	<circle cx="255.047" cy="866.821" r="4" fill="#0" id="circle17"/>
	<circle cx="264.796" cy="686.457" r="4" fill="#0" id="circle18"/>
	<circle cx="272.108" cy="28.3735" r="4" fill="#0" id="circle19"/>
	<circle cx="274.545" cy="747.391" r="4" fill="#0" id="circle20"/>
	<circle cx="284.295" cy="89.3071" r="4" fill="#0" id="circle21"/>
	<circle cx="284.295" cy="486.595" r="4" fill="#0" id="circle22"/>
	<circle cx="294.044" cy="150.241" r="4" fill="#0" id="circle23"/>
	<circle cx="298.919" cy="211.174" r="4" fill="#0" id="circle24"/>
	<circle cx="298.919" cy="389.101" r="4" fill="#0" id="circle25"/>
	<circle cx="298.919" cy="803.45" r="4" fill="#0" id="circle26"/>
	<circle cx="301.356" cy="991.125" r="4" fill="#0" id="circle27"/>
	<circle cx="303.794" cy="272.108" r="4" fill="#0" id="circle28"/>
	<circle cx="330.604" cy="857.071" r="4" fill="#0" id="circle29"/>
	<circle cx="335.479" cy="754.703" r="4" fill="#0" id="circle30"/>
	<circle cx="342.791" cy="506.093" r="4" fill="#0" id="circle31"/>
	<circle cx="362.29" cy="996" r="4" fill="#0" id="circle32"/>
	<circle cx="403.725" cy="506.093" r="4" fill="#0" id="circle33"/>
	<circle cx="423.224" cy="996" r="4" fill="#0" id="circle34"/>
	<circle cx="464.658" cy="506.093" r="4" fill="#0" id="circle35"/>
	<circle cx="484.157" cy="996" r="4" fill="#0" id="circle36"/>
	<circle cx="525.592" cy="506.093" r="4" fill="#0" id="circle37"/>
	<circle cx="545.091" cy="996" r="4" fill="#0" id="circle38"/>
	<circle cx="576.776" cy="808.324" r="4" fill="#0" id="circle39"/>
	<circle cx="586.526" cy="506.093" r="4" fill="#0" id="circle40"/>
	<circle cx="586.526" cy="869.258" r="4" fill="#0" id="circle41"/>
	<circle cx="593.838" cy="747.391" r="4" fill="#0" id="circle42"/>
	<circle cx="606.025" cy="991.125" r="4" fill="#0" id="circle43"/>
	<circle cx="627.961" cy="693.769" r="4" fill="#0" id="circle44"/>
	<circle cx="627.961" cy="915.568" r="4" fill="#0" id="circle45"/>
	<circle cx="647.459" cy="506.093" r="4" fill="#0" id="circle46"/>
	<circle cx="664.521" cy="974.064" r="4" fill="#0" id="circle47"/>
	<circle cx="669.396" cy="647.459" r="4" fill="#0" id="circle48"/>
	<circle cx="705.956" cy="596.275" r="4" fill="#0" id="circle49"/>
	<circle cx="708.393" cy="506.093" r="4" fill="#0" id="circle50"/>
	</g>
</svg>