<?xml version="1.0" encoding="UTF-8" standalone="no"?>
<!-- Created with CurveBenchmark -->
<svg
	xmlns:dc="http://purl.org/dc/elements/1.1/"
	xmlns:cc="http://creativecommons.org/ns#"
	xmlns:rdf="http://www.w3.org/1999/02/22-rdf-syntax-ns#"
	xmlns:svg="http://www.w3.org/2000/svg"
	xmlns="http://www.w3.org/2000/svg"
	xmlns:sodipodi="http://sodipodi.sourceforge.net/DTD/sodipodi-0.dtd"
	xmlns:inkscape="http://www.inkscape.org/namespaces/inkscape"
	width="1000"
	height="1000"
	id="svg2"
	version="1.1"
	sodipodi:docname="multiple-curves/nncrust-mc17.txt">
<defs
	id="defs4" />
<metadata
	id="metadata7">
	<rdf:RDF>
		<cc:Work
			rdf:about="">
			<dc:format>image/svg+xml</dc:format>
			<dc:type
				rdf:resource="http://purl.org/dc/dcmitype/StillImage" />
			<dc:title></dc:title>
		</cc:Work>
	</rdf:RDF>
</metadata>
<g
	inkscape:label="Layer 1"
	inkscape:groupmode="layer"
	id="layer1">
	<path style="fill:none;stroke:red;stroke-width:1px;stroke-linecap:butt;stroke-linejoin:miter;stroke-opacity:1" d="M 66.7678,63.2842 91.6488,38.4275 z" id="boundary" inkscape:connector-curvature="0" />
	<path style="fill:none;stroke:red;stroke-width:1px;stroke-linecap:butt;stroke-linejoin:miter;stroke-opacity:1" d="M 49.8035,92.1434 66.7678,63.2842 z" id="boundary" inkscape:connector-curvature="0" />
	<path style="fill:none;stroke:red;stroke-width:1px;stroke-linecap:butt;stroke-linejoin:miter;stroke-opacity:1" d="M 24.717,186.037 29.1637,148.961 z" id="boundary" inkscape:connector-curvature="0" />
	<path style="fill:none;stroke:red;stroke-width:1px;stroke-linecap:butt;stroke-linejoin:miter;stroke-opacity:1" d="M 37.9286,121.863 49.8035,92.1434 z" id="boundary" inkscape:connector-curvature="0" />
	<path style="fill:none;stroke:red;stroke-width:1px;stroke-linecap:butt;stroke-linejoin:miter;stroke-opacity:1" d="M 29.1637,148.961 37.9286,121.863 z" id="boundary" inkscape:connector-curvature="0" />
	<path style="fill:none;stroke:red;stroke-width:1px;stroke-linecap:butt;stroke-linejoin:miter;stroke-opacity:1" d="M 91.6488,38.4275 120.488,21.8956 z" id="boundary" inkscape:connector-curvature="0" />
	<path style="fill:none;stroke:red;stroke-width:1px;stroke-linecap:butt;stroke-linejoin:miter;stroke-opacity:1" d="M 166.857,96.1837 145.086,124.135 z" id="boundary" inkscape:connector-curvature="0" />
	<path style="fill:none;stroke:red;stroke-width:1px;stroke-linecap:butt;stroke-linejoin:miter;stroke-opacity:1" d="M 149.327,12.2049 178.167,6.52801 z" id="boundary" inkscape:connector-curvature="0" />
	<path style="fill:none;stroke:red;stroke-width:1px;stroke-linecap:butt;stroke-linejoin:miter;stroke-opacity:1" d="M 195.696,89.8636 166.857,96.1837 z" id="boundary" inkscape:connector-curvature="0" />
	<path style="fill:none;stroke:red;stroke-width:1px;stroke-linecap:butt;stroke-linejoin:miter;stroke-opacity:1" d="M 178.167,6.52801 207.006,4 z" id="boundary" inkscape:connector-curvature="0" />
	<path style="fill:none;stroke:red;stroke-width:1px;stroke-linecap:butt;stroke-linejoin:miter;stroke-opacity:1" d="M 137.17,202.096 132.08,182.324 z" id="boundary" inkscape:connector-curvature="0" />
	<path style="fill:none;stroke:red;stroke-width:1px;stroke-linecap:butt;stroke-linejoin:miter;stroke-opacity:1" d="M 133.777,152.011 132.08,182.324 z" id="boundary" inkscape:connector-curvature="0" />
	<path style="fill:none;stroke:red;stroke-width:1px;stroke-linecap:butt;stroke-linejoin:miter;stroke-opacity:1" d="M 133.777,152.011 145.086,124.135 z" id="boundary" inkscape:connector-curvature="0" />
	<path style="fill:none;stroke:red;stroke-width:1px;stroke-linecap:butt;stroke-linejoin:miter;stroke-opacity:1" d="M 149.61,231.144 137.17,202.096 z" id="boundary" inkscape:connector-curvature="0" />
	<path style="fill:none;stroke:red;stroke-width:1px;stroke-linecap:butt;stroke-linejoin:miter;stroke-opacity:1" d="M 120.488,21.8956 149.327,12.2049 z" id="boundary" inkscape:connector-curvature="0" />
	<path style="fill:none;stroke:red;stroke-width:1px;stroke-linecap:butt;stroke-linejoin:miter;stroke-opacity:1" d="M 20.6815,222.379 24.717,186.037 z" id="boundary" inkscape:connector-curvature="0" />
	<path style="fill:none;stroke:red;stroke-width:1px;stroke-linecap:butt;stroke-linejoin:miter;stroke-opacity:1" d="M 10.5434,314.444 13.8958,280.623 z" id="boundary" inkscape:connector-curvature="0" />
	<path style="fill:none;stroke:red;stroke-width:1px;stroke-linecap:butt;stroke-linejoin:miter;stroke-opacity:1" d="M 20.6815,222.379 17.2887,250.936 z" id="boundary" inkscape:connector-curvature="0" />
	<path style="fill:none;stroke:red;stroke-width:1px;stroke-linecap:butt;stroke-linejoin:miter;stroke-opacity:1" d="M 13.8958,280.623 17.2887,250.936 z" id="boundary" inkscape:connector-curvature="0" />
	<path style="fill:none;stroke:red;stroke-width:1px;stroke-linecap:butt;stroke-linejoin:miter;stroke-opacity:1" d="M 6.01956,372.324 8.46098,342.982 z" id="boundary" inkscape:connector-curvature="0" />
	<path style="fill:none;stroke:red;stroke-width:1px;stroke-linecap:butt;stroke-linejoin:miter;stroke-opacity:1" d="M 10.5434,314.444 8.46098,342.982 z" id="boundary" inkscape:connector-curvature="0" />
	<path style="fill:none;stroke:red;stroke-width:1px;stroke-linecap:butt;stroke-linejoin:miter;stroke-opacity:1" d="M 120.771,344.104 111.252,374.775 z" id="boundary" inkscape:connector-curvature="0" />
	<path style="fill:none;stroke:red;stroke-width:1px;stroke-linecap:butt;stroke-linejoin:miter;stroke-opacity:1" d="M 4.64626,407.303 6.01956,372.324 z" id="boundary" inkscape:connector-curvature="0" />
	<path style="fill:none;stroke:red;stroke-width:1px;stroke-linecap:butt;stroke-linejoin:miter;stroke-opacity:1" d="M 149.61,231.144 172.512,254.412 z" id="boundary" inkscape:connector-curvature="0" />
	<path style="fill:none;stroke:red;stroke-width:1px;stroke-linecap:butt;stroke-linejoin:miter;stroke-opacity:1" d="M 144.238,345.869 120.771,344.104 z" id="boundary" inkscape:connector-curvature="0" />
	<path style="fill:none;stroke:red;stroke-width:1px;stroke-linecap:butt;stroke-linejoin:miter;stroke-opacity:1" d="M 201.351,267.739 172.512,254.412 z" id="boundary" inkscape:connector-curvature="0" />
	<path style="fill:none;stroke:red;stroke-width:1px;stroke-linecap:butt;stroke-linejoin:miter;stroke-opacity:1" d="M 144.238,345.869 173.077,354.784 z" id="boundary" inkscape:connector-curvature="0" />
	<path style="fill:none;stroke:red;stroke-width:1px;stroke-linecap:butt;stroke-linejoin:miter;stroke-opacity:1" d="M 113.954,399.499 111.252,374.775 z" id="boundary" inkscape:connector-curvature="0" />
	<path style="fill:none;stroke:red;stroke-width:1px;stroke-linecap:butt;stroke-linejoin:miter;stroke-opacity:1" d="M 118.226,432.386 113.954,399.499 z" id="boundary" inkscape:connector-curvature="0" />
	<path style="fill:none;stroke:red;stroke-width:1px;stroke-linecap:butt;stroke-linejoin:miter;stroke-opacity:1" d="M 201.917,359.59 173.077,354.784 z" id="boundary" inkscape:connector-curvature="0" />
	<path style="fill:none;stroke:red;stroke-width:1px;stroke-linecap:butt;stroke-linejoin:miter;stroke-opacity:1" d="M 201.351,267.739 230.19,280.063 z" id="boundary" inkscape:connector-curvature="0" />
	<path style="fill:none;stroke:red;stroke-width:1px;stroke-linecap:butt;stroke-linejoin:miter;stroke-opacity:1" d="M 195.696,89.8636 224.536,102.498 z" id="boundary" inkscape:connector-curvature="0" />
	<path style="fill:none;stroke:red;stroke-width:1px;stroke-linecap:butt;stroke-linejoin:miter;stroke-opacity:1" d="M 264.684,18.6747 235.845,8.59588 z" id="boundary" inkscape:connector-curvature="0" />
	<path style="fill:none;stroke:red;stroke-width:1px;stroke-linecap:butt;stroke-linejoin:miter;stroke-opacity:1" d="M 253.092,125.602 276.559,154.393 z" id="boundary" inkscape:connector-curvature="0" />
	<path style="fill:none;stroke:red;stroke-width:1px;stroke-linecap:butt;stroke-linejoin:miter;stroke-opacity:1" d="M 253.092,125.602 224.536,102.498 z" id="boundary" inkscape:connector-curvature="0" />
	<path style="fill:none;stroke:red;stroke-width:1px;stroke-linecap:butt;stroke-linejoin:miter;stroke-opacity:1" d="M 276.559,154.393 290.696,183.356 z" id="boundary" inkscape:connector-curvature="0" />
	<path style="fill:none;stroke:red;stroke-width:1px;stroke-linecap:butt;stroke-linejoin:miter;stroke-opacity:1" d="M 290.696,183.356 297.482,215.364 z" id="boundary" inkscape:connector-curvature="0" />
	<path style="fill:none;stroke:red;stroke-width:1px;stroke-linecap:butt;stroke-linejoin:miter;stroke-opacity:1" d="M 264.684,18.6747 293.524,35.1843 z" id="boundary" inkscape:connector-curvature="0" />
	<path style="fill:none;stroke:red;stroke-width:1px;stroke-linecap:butt;stroke-linejoin:miter;stroke-opacity:1" d="M 320.667,59.6728 341.872,88.8136 z" id="boundary" inkscape:connector-curvature="0" />
	<path style="fill:none;stroke:red;stroke-width:1px;stroke-linecap:butt;stroke-linejoin:miter;stroke-opacity:1" d="M 320.667,59.6728 293.524,35.1843 z" id="boundary" inkscape:connector-curvature="0" />
	<path style="fill:none;stroke:red;stroke-width:1px;stroke-linecap:butt;stroke-linejoin:miter;stroke-opacity:1" d="M 341.872,88.8136 356.292,118.183 z" id="boundary" inkscape:connector-curvature="0" />
	<path style="fill:none;stroke:red;stroke-width:1px;stroke-linecap:butt;stroke-linejoin:miter;stroke-opacity:1" d="M 356.292,118.183 366.47,147.887 z" id="boundary" inkscape:connector-curvature="0" />
	<path style="fill:none;stroke:red;stroke-width:1px;stroke-linecap:butt;stroke-linejoin:miter;stroke-opacity:1" d="M 366.47,147.887 373.539,177.659 z" id="boundary" inkscape:connector-curvature="0" />
	<path style="fill:none;stroke:red;stroke-width:1px;stroke-linecap:butt;stroke-linejoin:miter;stroke-opacity:1" d="M 373.539,177.659 378.345,208.336 z" id="boundary" inkscape:connector-curvature="0" />
	<path style="fill:none;stroke:red;stroke-width:1px;stroke-linecap:butt;stroke-linejoin:miter;stroke-opacity:1" d="M 378.345,208.336 381.314,241.664 z" id="boundary" inkscape:connector-curvature="0" />
	<path style="fill:none;stroke:red;stroke-width:1px;stroke-linecap:butt;stroke-linejoin:miter;stroke-opacity:1" d="M 230.19,280.063 259.03,295.192 z" id="boundary" inkscape:connector-curvature="0" />
	<path style="fill:none;stroke:red;stroke-width:1px;stroke-linecap:butt;stroke-linejoin:miter;stroke-opacity:1" d="M 297.999,275.802 304.679,305.861 z" id="boundary" inkscape:connector-curvature="0" />
	<path style="fill:none;stroke:red;stroke-width:1px;stroke-linecap:butt;stroke-linejoin:miter;stroke-opacity:1" d="M 299.502,249.939 297.999,275.802 z" id="boundary" inkscape:connector-curvature="0" />
	<path style="fill:none;stroke:red;stroke-width:1px;stroke-linecap:butt;stroke-linejoin:miter;stroke-opacity:1" d="M 297.482,215.364 299.502,249.939 z" id="boundary" inkscape:connector-curvature="0" />
	<path style="fill:none;stroke:red;stroke-width:1px;stroke-linecap:butt;stroke-linejoin:miter;stroke-opacity:1" d="M 267.941,320.89 259.03,295.192 z" id="boundary" inkscape:connector-curvature="0" />
	<path style="fill:none;stroke:red;stroke-width:1px;stroke-linecap:butt;stroke-linejoin:miter;stroke-opacity:1" d="M 230.756,358.365 259.595,347.588 z" id="boundary" inkscape:connector-curvature="0" />
	<path style="fill:none;stroke:red;stroke-width:1px;stroke-linecap:butt;stroke-linejoin:miter;stroke-opacity:1" d="M 267.941,320.89 259.595,347.588 z" id="boundary" inkscape:connector-curvature="0" />
	<path style="fill:none;stroke:red;stroke-width:1px;stroke-linecap:butt;stroke-linejoin:miter;stroke-opacity:1" d="M 301.339,372.657 295.786,402.452 z" id="boundary" inkscape:connector-curvature="0" />
	<path style="fill:none;stroke:red;stroke-width:1px;stroke-linecap:butt;stroke-linejoin:miter;stroke-opacity:1" d="M 201.917,359.59 230.756,358.365 z" id="boundary" inkscape:connector-curvature="0" />
	<path style="fill:none;stroke:red;stroke-width:1px;stroke-linecap:butt;stroke-linejoin:miter;stroke-opacity:1" d="M 381.314,241.664 383.023,286.012 z" id="boundary" inkscape:connector-curvature="0" />
	<path style="fill:none;stroke:red;stroke-width:1px;stroke-linecap:butt;stroke-linejoin:miter;stroke-opacity:1" d="M 380.544,362.334 382.707,328.096 z" id="boundary" inkscape:connector-curvature="0" />
	<path style="fill:none;stroke:red;stroke-width:1px;stroke-linecap:butt;stroke-linejoin:miter;stroke-opacity:1" d="M 383.023,286.012 382.707,328.096 z" id="boundary" inkscape:connector-curvature="0" />
	<path style="fill:none;stroke:red;stroke-width:1px;stroke-linecap:butt;stroke-linejoin:miter;stroke-opacity:1" d="M 381.314,241.664 423.242,249.084 z" id="boundary" inkscape:connector-curvature="0" />
	<path style="fill:none;stroke:red;stroke-width:1px;stroke-linecap:butt;stroke-linejoin:miter;stroke-opacity:1" d="M 304.679,342.599 304.679,305.861 z" id="boundary" inkscape:connector-curvature="0" />
	<path style="fill:none;stroke:red;stroke-width:1px;stroke-linecap:butt;stroke-linejoin:miter;stroke-opacity:1" d="M 301.339,372.657 304.679,342.599 z" id="boundary" inkscape:connector-curvature="0" />
	<path style="fill:none;stroke:red;stroke-width:1px;stroke-linecap:butt;stroke-linejoin:miter;stroke-opacity:1" d="M 373.256,434.123 377.574,400.007 z" id="boundary" inkscape:connector-curvature="0" />
	<path style="fill:none;stroke:red;stroke-width:1px;stroke-linecap:butt;stroke-linejoin:miter;stroke-opacity:1" d="M 380.544,362.334 377.574,400.007 z" id="boundary" inkscape:connector-curvature="0" />
	<path style="fill:none;stroke:red;stroke-width:1px;stroke-linecap:butt;stroke-linejoin:miter;stroke-opacity:1" d="M 207.006,4 235.845,8.59588 z" id="boundary" inkscape:connector-curvature="0" />
	<path style="fill:none;stroke:red;stroke-width:1px;stroke-linecap:butt;stroke-linejoin:miter;stroke-opacity:1" d="M 295.786,402.452 290.414,432.548 z" id="boundary" inkscape:connector-curvature="0" />
	<path style="fill:none;stroke:red;stroke-width:1px;stroke-linecap:butt;stroke-linejoin:miter;stroke-opacity:1" d="M 8.08399,495.787 4.87963,464.466 z" id="boundary" inkscape:connector-curvature="0" />
	<path style="fill:none;stroke:red;stroke-width:1px;stroke-linecap:butt;stroke-linejoin:miter;stroke-opacity:1" d="M 4.87963,464.466 4,433.749 z" id="boundary" inkscape:connector-curvature="0" />
	<path style="fill:none;stroke:red;stroke-width:1px;stroke-linecap:butt;stroke-linejoin:miter;stroke-opacity:1" d="M 8.08399,495.787 14.1786,527.896 z" id="boundary" inkscape:connector-curvature="0" />
	<path style="fill:none;stroke:red;stroke-width:1px;stroke-linecap:butt;stroke-linejoin:miter;stroke-opacity:1" d="M 23.7917,557.262 14.1786,527.896 z" id="boundary" inkscape:connector-curvature="0" />
	<path style="fill:none;stroke:red;stroke-width:1px;stroke-linecap:butt;stroke-linejoin:miter;stroke-opacity:1" d="M 23.7917,557.262 43.0178,586.694 z" id="boundary" inkscape:connector-curvature="0" />
	<path style="fill:none;stroke:red;stroke-width:1px;stroke-linecap:butt;stroke-linejoin:miter;stroke-opacity:1" d="M 4,433.749 4.64626,407.303 z" id="boundary" inkscape:connector-curvature="0" />
	<path style="fill:none;stroke:red;stroke-width:1px;stroke-linecap:butt;stroke-linejoin:miter;stroke-opacity:1" d="M 122.184,462.235 125.86,493.006 z" id="boundary" inkscape:connector-curvature="0" />
	<path style="fill:none;stroke:red;stroke-width:1px;stroke-linecap:butt;stroke-linejoin:miter;stroke-opacity:1" d="M 125.86,493.006 128.122,539.121 z" id="boundary" inkscape:connector-curvature="0" />
	<path style="fill:none;stroke:red;stroke-width:1px;stroke-linecap:butt;stroke-linejoin:miter;stroke-opacity:1" d="M 120.205,587.886 128.122,539.121 z" id="boundary" inkscape:connector-curvature="0" />
	<path style="fill:none;stroke:red;stroke-width:1px;stroke-linecap:butt;stroke-linejoin:miter;stroke-opacity:1" d="M 70.7262,604.364 43.0178,586.694 z" id="boundary" inkscape:connector-curvature="0" />
	<path style="fill:none;stroke:red;stroke-width:1px;stroke-linecap:butt;stroke-linejoin:miter;stroke-opacity:1" d="M 70.7262,604.364 99.5654,605.65 z" id="boundary" inkscape:connector-curvature="0" />
	<path style="fill:none;stroke:red;stroke-width:1px;stroke-linecap:butt;stroke-linejoin:miter;stroke-opacity:1" d="M 99.5654,605.65 84.2976,702.956 z" id="boundary" inkscape:connector-curvature="0" />
	<path style="fill:none;stroke:red;stroke-width:1px;stroke-linecap:butt;stroke-linejoin:miter;stroke-opacity:1" d="M 120.205,587.886 99.5654,605.65 z" id="boundary" inkscape:connector-curvature="0" />
	<path style="fill:none;stroke:red;stroke-width:1px;stroke-linecap:butt;stroke-linejoin:miter;stroke-opacity:1" d="M 245.175,640.572 238.673,669.688 z" id="boundary" inkscape:connector-curvature="0" />
	<path style="fill:none;stroke:red;stroke-width:1px;stroke-linecap:butt;stroke-linejoin:miter;stroke-opacity:1" d="M 122.184,462.235 118.226,432.386 z" id="boundary" inkscape:connector-curvature="0" />
	<path style="fill:none;stroke:red;stroke-width:1px;stroke-linecap:butt;stroke-linejoin:miter;stroke-opacity:1" d="M 61.3958,793.463 61.3958,766.422 z" id="boundary" inkscape:connector-curvature="0" />
	<path style="fill:none;stroke:red;stroke-width:1px;stroke-linecap:butt;stroke-linejoin:miter;stroke-opacity:1" d="M 69.8779,732.815 61.3958,766.422 z" id="boundary" inkscape:connector-curvature="0" />
	<path style="fill:none;stroke:red;stroke-width:1px;stroke-linecap:butt;stroke-linejoin:miter;stroke-opacity:1" d="M 84.2976,702.956 69.8779,732.815 z" id="boundary" inkscape:connector-curvature="0" />
	<path style="fill:none;stroke:red;stroke-width:1px;stroke-linecap:butt;stroke-linejoin:miter;stroke-opacity:1" d="M 65.3541,812.236 61.3958,793.463 z" id="boundary" inkscape:connector-curvature="0" />
	<path style="fill:none;stroke:red;stroke-width:1px;stroke-linecap:butt;stroke-linejoin:miter;stroke-opacity:1" d="M 72.4226,840.953 65.3541,812.236 z" id="boundary" inkscape:connector-curvature="0" />
	<path style="fill:none;stroke:red;stroke-width:1px;stroke-linecap:butt;stroke-linejoin:miter;stroke-opacity:1" d="M 85.4285,870.536 72.4226,840.953 z" id="boundary" inkscape:connector-curvature="0" />
	<path style="fill:none;stroke:red;stroke-width:1px;stroke-linecap:butt;stroke-linejoin:miter;stroke-opacity:1" d="M 201.068,788.072 216.619,760.173 z" id="boundary" inkscape:connector-curvature="0" />
	<path style="fill:none;stroke:red;stroke-width:1px;stroke-linecap:butt;stroke-linejoin:miter;stroke-opacity:1" d="M 226.515,729.027 232.452,698.784 z" id="boundary" inkscape:connector-curvature="0" />
	<path style="fill:none;stroke:red;stroke-width:1px;stroke-linecap:butt;stroke-linejoin:miter;stroke-opacity:1" d="M 226.515,729.027 216.619,760.173 z" id="boundary" inkscape:connector-curvature="0" />
	<path style="fill:none;stroke:red;stroke-width:1px;stroke-linecap:butt;stroke-linejoin:miter;stroke-opacity:1" d="M 201.068,788.072 183.256,817.148 z" id="boundary" inkscape:connector-curvature="0" />
	<path style="fill:none;stroke:red;stroke-width:1px;stroke-linecap:butt;stroke-linejoin:miter;stroke-opacity:1" d="M 108.613,886.142 137.452,873.552 z" id="boundary" inkscape:connector-curvature="0" />
	<path style="fill:none;stroke:red;stroke-width:1px;stroke-linecap:butt;stroke-linejoin:miter;stroke-opacity:1" d="M 108.613,886.142 85.4285,870.536 z" id="boundary" inkscape:connector-curvature="0" />
	<path style="fill:none;stroke:red;stroke-width:1px;stroke-linecap:butt;stroke-linejoin:miter;stroke-opacity:1" d="M 162.899,846.171 183.256,817.148 z" id="boundary" inkscape:connector-curvature="0" />
	<path style="fill:none;stroke:red;stroke-width:1px;stroke-linecap:butt;stroke-linejoin:miter;stroke-opacity:1" d="M 162.899,846.171 137.452,873.552 z" id="boundary" inkscape:connector-curvature="0" />
	<path style="fill:none;stroke:red;stroke-width:1px;stroke-linecap:butt;stroke-linejoin:miter;stroke-opacity:1" d="M 238.673,669.688 232.452,698.784 z" id="boundary" inkscape:connector-curvature="0" />
	<path style="fill:none;stroke:red;stroke-width:1px;stroke-linecap:butt;stroke-linejoin:miter;stroke-opacity:1" d="M 284.476,463.032 278.256,493.233 z" id="boundary" inkscape:connector-curvature="0" />
	<path style="fill:none;stroke:red;stroke-width:1px;stroke-linecap:butt;stroke-linejoin:miter;stroke-opacity:1" d="M 278.256,493.233 272.036,522.047 z" id="boundary" inkscape:connector-curvature="0" />
	<path style="fill:none;stroke:red;stroke-width:1px;stroke-linecap:butt;stroke-linejoin:miter;stroke-opacity:1" d="M 284.476,463.032 290.414,432.548 z" id="boundary" inkscape:connector-curvature="0" />
	<path style="fill:none;stroke:red;stroke-width:1px;stroke-linecap:butt;stroke-linejoin:miter;stroke-opacity:1" d="M 251.961,610.79 258.747,581.032 z" id="boundary" inkscape:connector-curvature="0" />
	<path style="fill:none;stroke:red;stroke-width:1px;stroke-linecap:butt;stroke-linejoin:miter;stroke-opacity:1" d="M 265.533,551.274 272.036,522.047 z" id="boundary" inkscape:connector-curvature="0" />
	<path style="fill:none;stroke:red;stroke-width:1px;stroke-linecap:butt;stroke-linejoin:miter;stroke-opacity:1" d="M 265.533,551.274 258.747,581.032 z" id="boundary" inkscape:connector-curvature="0" />
	<path style="fill:none;stroke:red;stroke-width:1px;stroke-linecap:butt;stroke-linejoin:miter;stroke-opacity:1" d="M 251.961,610.79 245.175,640.572 z" id="boundary" inkscape:connector-curvature="0" />
	<path style="fill:none;stroke:red;stroke-width:1px;stroke-linecap:butt;stroke-linejoin:miter;stroke-opacity:1" d="M 343.851,553.994 351.485,524.781 z" id="boundary" inkscape:connector-curvature="0" />
	<path style="fill:none;stroke:red;stroke-width:1px;stroke-linecap:butt;stroke-linejoin:miter;stroke-opacity:1" d="M 359.967,495.969 351.485,524.781 z" id="boundary" inkscape:connector-curvature="0" />
	<path style="fill:none;stroke:red;stroke-width:1px;stroke-linecap:butt;stroke-linejoin:miter;stroke-opacity:1" d="M 359.967,495.969 367.884,468.785 z" id="boundary" inkscape:connector-curvature="0" />
	<path style="fill:none;stroke:red;stroke-width:1px;stroke-linecap:butt;stroke-linejoin:miter;stroke-opacity:1" d="M 337.065,583.915 343.851,553.994 z" id="boundary" inkscape:connector-curvature="0" />
	<path style="fill:none;stroke:red;stroke-width:1px;stroke-linecap:butt;stroke-linejoin:miter;stroke-opacity:1" d="M 387.204,636.37 385.696,610.296 z" id="boundary" inkscape:connector-curvature="0" />
	<path style="fill:none;stroke:red;stroke-width:1px;stroke-linecap:butt;stroke-linejoin:miter;stroke-opacity:1" d="M 388.524,587.044 385.696,610.296 z" id="boundary" inkscape:connector-curvature="0" />
	<path style="fill:none;stroke:red;stroke-width:1px;stroke-linecap:butt;stroke-linejoin:miter;stroke-opacity:1" d="M 393.896,555.986 388.524,587.044 z" id="boundary" inkscape:connector-curvature="0" />
	<path style="fill:none;stroke:red;stroke-width:1px;stroke-linecap:butt;stroke-linejoin:miter;stroke-opacity:1" d="M 337.065,583.915 331.693,612.793 z" id="boundary" inkscape:connector-curvature="0" />
	<path style="fill:none;stroke:red;stroke-width:1px;stroke-linecap:butt;stroke-linejoin:miter;stroke-opacity:1" d="M 367.884,468.785 373.256,434.123 z" id="boundary" inkscape:connector-curvature="0" />
	<path style="fill:none;stroke:red;stroke-width:1px;stroke-linecap:butt;stroke-linejoin:miter;stroke-opacity:1" d="M 324.813,674.414 323.305,709.678 z" id="boundary" inkscape:connector-curvature="0" />
	<path style="fill:none;stroke:red;stroke-width:1px;stroke-linecap:butt;stroke-linejoin:miter;stroke-opacity:1" d="M 327.735,641.114 324.813,674.414 z" id="boundary" inkscape:connector-curvature="0" />
	<path style="fill:none;stroke:red;stroke-width:1px;stroke-linecap:butt;stroke-linejoin:miter;stroke-opacity:1" d="M 331.693,612.793 327.735,641.114 z" id="boundary" inkscape:connector-curvature="0" />
	<path style="fill:none;stroke:red;stroke-width:1px;stroke-linecap:butt;stroke-linejoin:miter;stroke-opacity:1" d="M 324.625,726.878 325.134,747.716 z" id="boundary" inkscape:connector-curvature="0" />
	<path style="fill:none;stroke:red;stroke-width:1px;stroke-linecap:butt;stroke-linejoin:miter;stroke-opacity:1" d="M 324.625,726.878 323.305,709.678 z" id="boundary" inkscape:connector-curvature="0" />
	<path style="fill:none;stroke:red;stroke-width:1px;stroke-linecap:butt;stroke-linejoin:miter;stroke-opacity:1" d="M 325.134,747.716 329.431,779.679 z" id="boundary" inkscape:connector-curvature="0" />
	<path style="fill:none;stroke:red;stroke-width:1px;stroke-linecap:butt;stroke-linejoin:miter;stroke-opacity:1" d="M 329.431,779.679 334.803,809.771 z" id="boundary" inkscape:connector-curvature="0" />
	<path style="fill:none;stroke:red;stroke-width:1px;stroke-linecap:butt;stroke-linejoin:miter;stroke-opacity:1" d="M 334.803,809.771 341.589,839.756 z" id="boundary" inkscape:connector-curvature="0" />
	<path style="fill:none;stroke:red;stroke-width:1px;stroke-linecap:butt;stroke-linejoin:miter;stroke-opacity:1" d="M 390.079,668.139 387.204,636.37 z" id="boundary" inkscape:connector-curvature="0" />
	<path style="fill:none;stroke:red;stroke-width:1px;stroke-linecap:butt;stroke-linejoin:miter;stroke-opacity:1" d="M 349.223,869.681 341.589,839.756 z" id="boundary" inkscape:connector-curvature="0" />
	<path style="fill:none;stroke:red;stroke-width:1px;stroke-linecap:butt;stroke-linejoin:miter;stroke-opacity:1" d="M 349.223,869.681 356.857,899.348 z" id="boundary" inkscape:connector-curvature="0" />
	<path style="fill:none;stroke:red;stroke-width:1px;stroke-linecap:butt;stroke-linejoin:miter;stroke-opacity:1" d="M 368.166,930.292 356.857,899.348 z" id="boundary" inkscape:connector-curvature="0" />
	<path style="fill:none;stroke:red;stroke-width:1px;stroke-linecap:butt;stroke-linejoin:miter;stroke-opacity:1" d="M 368.166,930.292 387.11,957.429 z" id="boundary" inkscape:connector-curvature="0" />
	<path style="fill:none;stroke:red;stroke-width:1px;stroke-linecap:butt;stroke-linejoin:miter;stroke-opacity:1" d="M 390.079,668.139 394.461,696.802 z" id="boundary" inkscape:connector-curvature="0" />
	<path style="fill:none;stroke:red;stroke-width:1px;stroke-linecap:butt;stroke-linejoin:miter;stroke-opacity:1" d="M 387.11,957.429 412.839,983.51 z" id="boundary" inkscape:connector-curvature="0" />
	<path style="fill:none;stroke:red;stroke-width:1px;stroke-linecap:butt;stroke-linejoin:miter;stroke-opacity:1" d="M 460.056,139.631 413.687,134.471 z" id="boundary" inkscape:connector-curvature="0" />
	<path style="fill:none;stroke:red;stroke-width:1px;stroke-linecap:butt;stroke-linejoin:miter;stroke-opacity:1" d="M 413.687,134.471 422.169,106.949 z" id="boundary" inkscape:connector-curvature="0" />
	<path style="fill:none;stroke:red;stroke-width:1px;stroke-linecap:butt;stroke-linejoin:miter;stroke-opacity:1" d="M 442.809,83.2941 422.169,106.949 z" id="boundary" inkscape:connector-curvature="0" />
	<path style="fill:none;stroke:red;stroke-width:1px;stroke-linecap:butt;stroke-linejoin:miter;stroke-opacity:1" d="M 409.635,186.471 409.883,168.928 z" id="boundary" inkscape:connector-curvature="0" />
	<path style="fill:none;stroke:red;stroke-width:1px;stroke-linecap:butt;stroke-linejoin:miter;stroke-opacity:1" d="M 411.143,207.959 378.345,208.336 z" id="boundary" inkscape:connector-curvature="0" />
	<path style="fill:none;stroke:red;stroke-width:1px;stroke-linecap:butt;stroke-linejoin:miter;stroke-opacity:1" d="M 409.635,186.471 411.143,207.959 z" id="boundary" inkscape:connector-curvature="0" />
	<path style="fill:none;stroke:red;stroke-width:1px;stroke-linecap:butt;stroke-linejoin:miter;stroke-opacity:1" d="M 409.883,168.928 411.553,148.889 z" id="boundary" inkscape:connector-curvature="0" />
	<path style="fill:none;stroke:red;stroke-width:1px;stroke-linecap:butt;stroke-linejoin:miter;stroke-opacity:1" d="M 411.553,148.889 413.687,134.471 z" id="boundary" inkscape:connector-curvature="0" />
	<path style="fill:none;stroke:red;stroke-width:1px;stroke-linecap:butt;stroke-linejoin:miter;stroke-opacity:1" d="M 460.056,139.631 463.053,158.716 z" id="boundary" inkscape:connector-curvature="0" />
	<path style="fill:none;stroke:red;stroke-width:1px;stroke-linecap:butt;stroke-linejoin:miter;stroke-opacity:1" d="M 442.809,83.2941 471.649,78.7925 z" id="boundary" inkscape:connector-curvature="0" />
	<path style="fill:none;stroke:red;stroke-width:1px;stroke-linecap:butt;stroke-linejoin:miter;stroke-opacity:1" d="M 500.488,93.1622 523.955,118.567 z" id="boundary" inkscape:connector-curvature="0" />
	<path style="fill:none;stroke:red;stroke-width:1px;stroke-linecap:butt;stroke-linejoin:miter;stroke-opacity:1" d="M 471.649,78.7925 500.488,93.1622 z" id="boundary" inkscape:connector-curvature="0" />
	<path style="fill:none;stroke:red;stroke-width:1px;stroke-linecap:butt;stroke-linejoin:miter;stroke-opacity:1" d="M 523.955,118.567 532.092,173.759 z" id="boundary" inkscape:connector-curvature="0" />
	<path style="fill:none;stroke:red;stroke-width:1px;stroke-linecap:butt;stroke-linejoin:miter;stroke-opacity:1" d="M 479,195.084 464.99,178.948 z" id="boundary" inkscape:connector-curvature="0" />
	<path style="fill:none;stroke:red;stroke-width:1px;stroke-linecap:butt;stroke-linejoin:miter;stroke-opacity:1" d="M 506.708,197.87 479,195.084 z" id="boundary" inkscape:connector-curvature="0" />
	<path style="fill:none;stroke:red;stroke-width:1px;stroke-linecap:butt;stroke-linejoin:miter;stroke-opacity:1" d="M 464.99,178.948 463.053,158.716 z" id="boundary" inkscape:connector-curvature="0" />
	<path style="fill:none;stroke:red;stroke-width:1px;stroke-linecap:butt;stroke-linejoin:miter;stroke-opacity:1" d="M 532.092,173.759 506.708,197.87 z" id="boundary" inkscape:connector-curvature="0" />
	<path style="fill:none;stroke:red;stroke-width:1px;stroke-linecap:butt;stroke-linejoin:miter;stroke-opacity:1" d="M 413.223,229.045 411.143,207.959 z" id="boundary" inkscape:connector-curvature="0" />
	<path style="fill:none;stroke:red;stroke-width:1px;stroke-linecap:butt;stroke-linejoin:miter;stroke-opacity:1" d="M 423.242,249.084 413.223,229.045 z" id="boundary" inkscape:connector-curvature="0" />
	<path style="fill:none;stroke:red;stroke-width:1px;stroke-linecap:butt;stroke-linejoin:miter;stroke-opacity:1" d="M 423.242,249.084 431.217,263.602 z" id="boundary" inkscape:connector-curvature="0" />
	<path style="fill:none;stroke:red;stroke-width:1px;stroke-linecap:butt;stroke-linejoin:miter;stroke-opacity:1" d="M 419.908,468.989 430.652,439.984 z" id="boundary" inkscape:connector-curvature="0" />
	<path style="fill:none;stroke:red;stroke-width:1px;stroke-linecap:butt;stroke-linejoin:miter;stroke-opacity:1" d="M 442.244,410.723 430.652,439.984 z" id="boundary" inkscape:connector-curvature="0" />
	<path style="fill:none;stroke:red;stroke-width:1px;stroke-linecap:butt;stroke-linejoin:miter;stroke-opacity:1" d="M 455.25,380.218 442.244,410.723 z" id="boundary" inkscape:connector-curvature="0" />
	<path style="fill:none;stroke:red;stroke-width:1px;stroke-linecap:butt;stroke-linejoin:miter;stroke-opacity:1" d="M 431.217,263.602 450.726,292.082 z" id="boundary" inkscape:connector-curvature="0" />
	<path style="fill:none;stroke:red;stroke-width:1px;stroke-linecap:butt;stroke-linejoin:miter;stroke-opacity:1" d="M 450.726,292.082 476.738,318.089 z" id="boundary" inkscape:connector-curvature="0" />
	<path style="fill:none;stroke:red;stroke-width:1px;stroke-linecap:butt;stroke-linejoin:miter;stroke-opacity:1" d="M 476.738,318.089 455.25,380.218 z" id="boundary" inkscape:connector-curvature="0" />
	<path style="fill:none;stroke:red;stroke-width:1px;stroke-linecap:butt;stroke-linejoin:miter;stroke-opacity:1" d="M 505.577,334.903 534.416,341.04 z" id="boundary" inkscape:connector-curvature="0" />
	<path style="fill:none;stroke:red;stroke-width:1px;stroke-linecap:butt;stroke-linejoin:miter;stroke-opacity:1" d="M 505.577,334.903 476.738,318.089 z" id="boundary" inkscape:connector-curvature="0" />
	<path style="fill:none;stroke:red;stroke-width:1px;stroke-linecap:butt;stroke-linejoin:miter;stroke-opacity:1" d="M 501.053,435.444 483.241,464.138 z" id="boundary" inkscape:connector-curvature="0" />
	<path style="fill:none;stroke:red;stroke-width:1px;stroke-linecap:butt;stroke-linejoin:miter;stroke-opacity:1" d="M 525.934,408.26 501.053,435.444 z" id="boundary" inkscape:connector-curvature="0" />
	<path style="fill:none;stroke:red;stroke-width:1px;stroke-linecap:butt;stroke-linejoin:miter;stroke-opacity:1" d="M 554.774,386.118 525.934,408.26 z" id="boundary" inkscape:connector-curvature="0" />
	<path style="fill:none;stroke:red;stroke-width:1px;stroke-linecap:butt;stroke-linejoin:miter;stroke-opacity:1" d="M 483.241,464.138 470.8,491.907 z" id="boundary" inkscape:connector-curvature="0" />
	<path style="fill:none;stroke:red;stroke-width:1px;stroke-linecap:butt;stroke-linejoin:miter;stroke-opacity:1" d="M 419.908,468.989 410.012,497.91 z" id="boundary" inkscape:connector-curvature="0" />
	<path style="fill:none;stroke:red;stroke-width:1px;stroke-linecap:butt;stroke-linejoin:miter;stroke-opacity:1" d="M 573.717,212.904 597.184,193.185 z" id="boundary" inkscape:connector-curvature="0" />
	<path style="fill:none;stroke:red;stroke-width:1px;stroke-linecap:butt;stroke-linejoin:miter;stroke-opacity:1" d="M 626.024,181.41 597.184,193.185 z" id="boundary" inkscape:connector-curvature="0" />
	<path style="fill:none;stroke:red;stroke-width:1px;stroke-linecap:butt;stroke-linejoin:miter;stroke-opacity:1" d="M 559.511,340.421 534.416,341.04 z" id="boundary" inkscape:connector-curvature="0" />
	<path style="fill:none;stroke:red;stroke-width:1px;stroke-linecap:butt;stroke-linejoin:miter;stroke-opacity:1" d="M 562.407,239.619 573.717,212.904 z" id="boundary" inkscape:connector-curvature="0" />
	<path style="fill:none;stroke:red;stroke-width:1px;stroke-linecap:butt;stroke-linejoin:miter;stroke-opacity:1" d="M 574.565,264.529 562.407,239.619 z" id="boundary" inkscape:connector-curvature="0" />
	<path style="fill:none;stroke:red;stroke-width:1px;stroke-linecap:butt;stroke-linejoin:miter;stroke-opacity:1" d="M 600.012,272.662 628.851,268.421 z" id="boundary" inkscape:connector-curvature="0" />
	<path style="fill:none;stroke:red;stroke-width:1px;stroke-linecap:butt;stroke-linejoin:miter;stroke-opacity:1" d="M 600.012,272.662 574.565,264.529 z" id="boundary" inkscape:connector-curvature="0" />
	<path style="fill:none;stroke:red;stroke-width:1px;stroke-linecap:butt;stroke-linejoin:miter;stroke-opacity:1" d="M 626.024,181.41 654.863,183.771 z" id="boundary" inkscape:connector-curvature="0" />
	<path style="fill:none;stroke:red;stroke-width:1px;stroke-linecap:butt;stroke-linejoin:miter;stroke-opacity:1" d="M 682.006,201.199 697.839,250.63 z" id="boundary" inkscape:connector-curvature="0" />
	<path style="fill:none;stroke:red;stroke-width:1px;stroke-linecap:butt;stroke-linejoin:miter;stroke-opacity:1" d="M 682.006,201.199 654.863,183.771 z" id="boundary" inkscape:connector-curvature="0" />
	<path style="fill:none;stroke:red;stroke-width:1px;stroke-linecap:butt;stroke-linejoin:miter;stroke-opacity:1" d="M 810.369,280.584 786.619,299.764 z" id="boundary" inkscape:connector-curvature="0" />
	<path style="fill:none;stroke:red;stroke-width:1px;stroke-linecap:butt;stroke-linejoin:miter;stroke-opacity:1" d="M 697.839,250.63 678.613,291.046 z" id="boundary" inkscape:connector-curvature="0" />
	<path style="fill:none;stroke:red;stroke-width:1px;stroke-linecap:butt;stroke-linejoin:miter;stroke-opacity:1" d="M 649.774,310.277 678.613,291.046 z" id="boundary" inkscape:connector-curvature="0" />
	<path style="fill:none;stroke:red;stroke-width:1px;stroke-linecap:butt;stroke-linejoin:miter;stroke-opacity:1" d="M 649.774,310.277 628.851,268.421 z" id="boundary" inkscape:connector-curvature="0" />
	<path style="fill:none;stroke:red;stroke-width:1px;stroke-linecap:butt;stroke-linejoin:miter;stroke-opacity:1" d="M 786.619,299.764 769.372,330.54 z" id="boundary" inkscape:connector-curvature="0" />
	<path style="fill:none;stroke:red;stroke-width:1px;stroke-linecap:butt;stroke-linejoin:miter;stroke-opacity:1" d="M 810.369,280.584 827.05,323.108 z" id="boundary" inkscape:connector-curvature="0" />
	<path style="fill:none;stroke:red;stroke-width:1px;stroke-linecap:butt;stroke-linejoin:miter;stroke-opacity:1" d="M 649.774,310.277 620.934,323.433 z" id="boundary" inkscape:connector-curvature="0" />
	<path style="fill:none;stroke:red;stroke-width:1px;stroke-linecap:butt;stroke-linejoin:miter;stroke-opacity:1" d="M 559.511,340.421 592.095,333.611 z" id="boundary" inkscape:connector-curvature="0" />
	<path style="fill:none;stroke:red;stroke-width:1px;stroke-linecap:butt;stroke-linejoin:miter;stroke-opacity:1" d="M 641.291,388.335 612.452,371.121 z" id="boundary" inkscape:connector-curvature="0" />
	<path style="fill:none;stroke:red;stroke-width:1px;stroke-linecap:butt;stroke-linejoin:miter;stroke-opacity:1" d="M 592.095,333.611 620.934,323.433 z" id="boundary" inkscape:connector-curvature="0" />
	<path style="fill:none;stroke:red;stroke-width:1px;stroke-linecap:butt;stroke-linejoin:miter;stroke-opacity:1" d="M 612.452,371.121 580.213,372.657 z" id="boundary" inkscape:connector-curvature="0" />
	<path style="fill:none;stroke:red;stroke-width:1px;stroke-linecap:butt;stroke-linejoin:miter;stroke-opacity:1" d="M 554.774,386.118 580.213,372.657 z" id="boundary" inkscape:connector-curvature="0" />
	<path style="fill:none;stroke:red;stroke-width:1px;stroke-linecap:butt;stroke-linejoin:miter;stroke-opacity:1" d="M 670.131,404.13 641.291,388.335 z" id="boundary" inkscape:connector-curvature="0" />
	<path style="fill:none;stroke:red;stroke-width:1px;stroke-linecap:butt;stroke-linejoin:miter;stroke-opacity:1" d="M 727.809,389.006 751.842,360.075 z" id="boundary" inkscape:connector-curvature="0" />
	<path style="fill:none;stroke:red;stroke-width:1px;stroke-linecap:butt;stroke-linejoin:miter;stroke-opacity:1" d="M 751.842,360.075 769.372,330.54 z" id="boundary" inkscape:connector-curvature="0" />
	<path style="fill:none;stroke:red;stroke-width:1px;stroke-linecap:butt;stroke-linejoin:miter;stroke-opacity:1" d="M 827.05,323.108 823.477,366.721 z" id="boundary" inkscape:connector-curvature="0" />
	<path style="fill:none;stroke:red;stroke-width:1px;stroke-linecap:butt;stroke-linejoin:miter;stroke-opacity:1" d="M 727.809,389.006 698.97,406.109 z" id="boundary" inkscape:connector-curvature="0" />
	<path style="fill:none;stroke:red;stroke-width:1px;stroke-linecap:butt;stroke-linejoin:miter;stroke-opacity:1" d="M 698.97,406.109 670.131,404.13 z" id="boundary" inkscape:connector-curvature="0" />
	<path style="fill:none;stroke:red;stroke-width:1px;stroke-linecap:butt;stroke-linejoin:miter;stroke-opacity:1" d="M 823.477,366.721 816.023,397.884 z" id="boundary" inkscape:connector-curvature="0" />
	<path style="fill:none;stroke:red;stroke-width:1px;stroke-linecap:butt;stroke-linejoin:miter;stroke-opacity:1" d="M 805.562,427.368 816.023,397.884 z" id="boundary" inkscape:connector-curvature="0" />
	<path style="fill:none;stroke:red;stroke-width:1px;stroke-linecap:butt;stroke-linejoin:miter;stroke-opacity:1" d="M 805.562,427.368 790.012,456.949 z" id="boundary" inkscape:connector-curvature="0" />
	<path style="fill:none;stroke:red;stroke-width:1px;stroke-linecap:butt;stroke-linejoin:miter;stroke-opacity:1" d="M 790.012,456.949 766.262,484.333 z" id="boundary" inkscape:connector-curvature="0" />
	<path style="fill:none;stroke:red;stroke-width:1px;stroke-linecap:butt;stroke-linejoin:miter;stroke-opacity:1" d="M 463.449,519.737 459.491,550.638 z" id="boundary" inkscape:connector-curvature="0" />
	<path style="fill:none;stroke:red;stroke-width:1px;stroke-linecap:butt;stroke-linejoin:miter;stroke-opacity:1" d="M 410.012,497.91 401.247,526.861 z" id="boundary" inkscape:connector-curvature="0" />
	<path style="fill:none;stroke:red;stroke-width:1px;stroke-linecap:butt;stroke-linejoin:miter;stroke-opacity:1" d="M 393.896,555.986 401.247,526.861 z" id="boundary" inkscape:connector-curvature="0" />
	<path style="fill:none;stroke:red;stroke-width:1px;stroke-linecap:butt;stroke-linejoin:miter;stroke-opacity:1" d="M 460.905,606.643 465.428,636.496 z" id="boundary" inkscape:connector-curvature="0" />
	<path style="fill:none;stroke:red;stroke-width:1px;stroke-linecap:butt;stroke-linejoin:miter;stroke-opacity:1" d="M 459.208,579.119 460.905,606.643 z" id="boundary" inkscape:connector-curvature="0" />
	<path style="fill:none;stroke:red;stroke-width:1px;stroke-linecap:butt;stroke-linejoin:miter;stroke-opacity:1" d="M 399.55,725.577 394.461,696.802 z" id="boundary" inkscape:connector-curvature="0" />
	<path style="fill:none;stroke:red;stroke-width:1px;stroke-linecap:butt;stroke-linejoin:miter;stroke-opacity:1" d="M 459.491,550.638 459.208,579.119 z" id="boundary" inkscape:connector-curvature="0" />
	<path style="fill:none;stroke:red;stroke-width:1px;stroke-linecap:butt;stroke-linejoin:miter;stroke-opacity:1" d="M 399.55,725.577 405.771,755.953 z" id="boundary" inkscape:connector-curvature="0" />
	<path style="fill:none;stroke:red;stroke-width:1px;stroke-linecap:butt;stroke-linejoin:miter;stroke-opacity:1" d="M 531.872,582.587 529.61,602.473 z" id="boundary" inkscape:connector-curvature="0" />
	<path style="fill:none;stroke:red;stroke-width:1px;stroke-linecap:butt;stroke-linejoin:miter;stroke-opacity:1" d="M 463.449,519.737 470.8,491.907 z" id="boundary" inkscape:connector-curvature="0" />
	<path style="fill:none;stroke:red;stroke-width:1px;stroke-linecap:butt;stroke-linejoin:miter;stroke-opacity:1" d="M 471.366,666.608 465.428,636.496 z" id="boundary" inkscape:connector-curvature="0" />
	<path style="fill:none;stroke:red;stroke-width:1px;stroke-linecap:butt;stroke-linejoin:miter;stroke-opacity:1" d="M 478.434,695.864 486.351,724.823 z" id="boundary" inkscape:connector-curvature="0" />
	<path style="fill:none;stroke:red;stroke-width:1px;stroke-linecap:butt;stroke-linejoin:miter;stroke-opacity:1" d="M 478.434,695.864 471.366,666.608 z" id="boundary" inkscape:connector-curvature="0" />
	<path style="fill:none;stroke:red;stroke-width:1px;stroke-linecap:butt;stroke-linejoin:miter;stroke-opacity:1" d="M 495.116,754.869 486.351,724.823 z" id="boundary" inkscape:connector-curvature="0" />
	<path style="fill:none;stroke:red;stroke-width:1px;stroke-linecap:butt;stroke-linejoin:miter;stroke-opacity:1" d="M 412.556,785.687 419.908,815.233 z" id="boundary" inkscape:connector-curvature="0" />
	<path style="fill:none;stroke:red;stroke-width:1px;stroke-linecap:butt;stroke-linejoin:miter;stroke-opacity:1" d="M 427.824,844.84 436.024,873.864 z" id="boundary" inkscape:connector-curvature="0" />
	<path style="fill:none;stroke:red;stroke-width:1px;stroke-linecap:butt;stroke-linejoin:miter;stroke-opacity:1" d="M 427.824,844.84 419.908,815.233 z" id="boundary" inkscape:connector-curvature="0" />
	<path style="fill:none;stroke:red;stroke-width:1px;stroke-linecap:butt;stroke-linejoin:miter;stroke-opacity:1" d="M 436.024,873.864 445.637,905.226 z" id="boundary" inkscape:connector-curvature="0" />
	<path style="fill:none;stroke:red;stroke-width:1px;stroke-linecap:butt;stroke-linejoin:miter;stroke-opacity:1" d="M 470.518,986.564 441.678,996 z" id="boundary" inkscape:connector-curvature="0" />
	<path style="fill:none;stroke:red;stroke-width:1px;stroke-linecap:butt;stroke-linejoin:miter;stroke-opacity:1" d="M 441.678,996 412.839,983.51 z" id="boundary" inkscape:connector-curvature="0" />
	<path style="fill:none;stroke:red;stroke-width:1px;stroke-linecap:butt;stroke-linejoin:miter;stroke-opacity:1" d="M 412.556,785.687 405.771,755.953 z" id="boundary" inkscape:connector-curvature="0" />
	<path style="fill:none;stroke:red;stroke-width:1px;stroke-linecap:butt;stroke-linejoin:miter;stroke-opacity:1" d="M 503.881,784.424 512.363,813.716 z" id="boundary" inkscape:connector-curvature="0" />
	<path style="fill:none;stroke:red;stroke-width:1px;stroke-linecap:butt;stroke-linejoin:miter;stroke-opacity:1" d="M 503.881,784.424 495.116,754.869 z" id="boundary" inkscape:connector-curvature="0" />
	<path style="fill:none;stroke:red;stroke-width:1px;stroke-linecap:butt;stroke-linejoin:miter;stroke-opacity:1" d="M 512.363,813.716 520.28,842.953 z" id="boundary" inkscape:connector-curvature="0" />
	<path style="fill:none;stroke:red;stroke-width:1px;stroke-linecap:butt;stroke-linejoin:miter;stroke-opacity:1" d="M 520.28,842.953 525.278,892.11 z" id="boundary" inkscape:connector-curvature="0" />
	<path style="fill:none;stroke:red;stroke-width:1px;stroke-linecap:butt;stroke-linejoin:miter;stroke-opacity:1" d="M 470.518,986.564 494.55,960.004 z" id="boundary" inkscape:connector-curvature="0" />
	<path style="fill:none;stroke:red;stroke-width:1px;stroke-linecap:butt;stroke-linejoin:miter;stroke-opacity:1" d="M 511.232,930.755 525.278,892.11 z" id="boundary" inkscape:connector-curvature="0" />
	<path style="fill:none;stroke:red;stroke-width:1px;stroke-linecap:butt;stroke-linejoin:miter;stroke-opacity:1" d="M 445.637,905.226 511.232,930.755 z" id="boundary" inkscape:connector-curvature="0" />
	<path style="fill:none;stroke:red;stroke-width:1px;stroke-linecap:butt;stroke-linejoin:miter;stroke-opacity:1" d="M 511.232,930.755 494.55,960.004 z" id="boundary" inkscape:connector-curvature="0" />
	<path style="fill:none;stroke:red;stroke-width:1px;stroke-linecap:butt;stroke-linejoin:miter;stroke-opacity:1" d="M 529.61,602.473 531.306,626.258 z" id="boundary" inkscape:connector-curvature="0" />
	<path style="fill:none;stroke:red;stroke-width:1px;stroke-linecap:butt;stroke-linejoin:miter;stroke-opacity:1" d="M 609.279,537.938 591.529,570.797 z" id="boundary" inkscape:connector-curvature="0" />
	<path style="fill:none;stroke:red;stroke-width:1px;stroke-linecap:butt;stroke-linejoin:miter;stroke-opacity:1" d="M 561.559,496.832 546.291,525.084 z" id="boundary" inkscape:connector-curvature="0" />
	<path style="fill:none;stroke:red;stroke-width:1px;stroke-linecap:butt;stroke-linejoin:miter;stroke-opacity:1" d="M 531.872,582.587 536.961,552.829 z" id="boundary" inkscape:connector-curvature="0" />
	<path style="fill:none;stroke:red;stroke-width:1px;stroke-linecap:butt;stroke-linejoin:miter;stroke-opacity:1" d="M 579.654,593.841 591.529,570.797 z" id="boundary" inkscape:connector-curvature="0" />
	<path style="fill:none;stroke:red;stroke-width:1px;stroke-linecap:butt;stroke-linejoin:miter;stroke-opacity:1" d="M 536.961,552.829 546.291,525.084 z" id="boundary" inkscape:connector-curvature="0" />
	<path style="fill:none;stroke:red;stroke-width:1px;stroke-linecap:butt;stroke-linejoin:miter;stroke-opacity:1" d="M 579.654,593.841 580.905,629.093 z" id="boundary" inkscape:connector-curvature="0" />
	<path style="fill:none;stroke:red;stroke-width:1px;stroke-linecap:butt;stroke-linejoin:miter;stroke-opacity:1" d="M 561.559,496.832 585.309,470.401 z" id="boundary" inkscape:connector-curvature="0" />
	<path style="fill:none;stroke:red;stroke-width:1px;stroke-linecap:butt;stroke-linejoin:miter;stroke-opacity:1" d="M 585.309,470.401 606.232,480.466 z" id="boundary" inkscape:connector-curvature="0" />
	<path style="fill:none;stroke:red;stroke-width:1px;stroke-linecap:butt;stroke-linejoin:miter;stroke-opacity:1" d="M 708.583,501.951 686.015,506.867 z" id="boundary" inkscape:connector-curvature="0" />
	<path style="fill:none;stroke:red;stroke-width:1px;stroke-linecap:butt;stroke-linejoin:miter;stroke-opacity:1" d="M 737.422,500.15 766.262,484.333 z" id="boundary" inkscape:connector-curvature="0" />
	<path style="fill:none;stroke:red;stroke-width:1px;stroke-linecap:butt;stroke-linejoin:miter;stroke-opacity:1" d="M 737.422,500.15 708.583,501.951 z" id="boundary" inkscape:connector-curvature="0" />
	<path style="fill:none;stroke:red;stroke-width:1px;stroke-linecap:butt;stroke-linejoin:miter;stroke-opacity:1" d="M 691.445,551.61 682.854,585.792 z" id="boundary" inkscape:connector-curvature="0" />
	<path style="fill:none;stroke:red;stroke-width:1px;stroke-linecap:butt;stroke-linejoin:miter;stroke-opacity:1" d="M 686.015,506.867 691.445,551.61 z" id="boundary" inkscape:connector-curvature="0" />
	<path style="fill:none;stroke:red;stroke-width:1px;stroke-linecap:butt;stroke-linejoin:miter;stroke-opacity:1" d="M 609.279,537.938 606.232,480.466 z" id="boundary" inkscape:connector-curvature="0" />
	<path style="fill:none;stroke:red;stroke-width:1px;stroke-linecap:butt;stroke-linejoin:miter;stroke-opacity:1" d="M 682.854,585.792 662.214,614.076 z" id="boundary" inkscape:connector-curvature="0" />
	<path style="fill:none;stroke:red;stroke-width:1px;stroke-linecap:butt;stroke-linejoin:miter;stroke-opacity:1" d="M 531.306,626.258 534.919,654.371 z" id="boundary" inkscape:connector-curvature="0" />
	<path style="fill:none;stroke:red;stroke-width:1px;stroke-linecap:butt;stroke-linejoin:miter;stroke-opacity:1" d="M 549.402,713.589 541.202,684.032 z" id="boundary" inkscape:connector-curvature="0" />
	<path style="fill:none;stroke:red;stroke-width:1px;stroke-linecap:butt;stroke-linejoin:miter;stroke-opacity:1" d="M 541.202,684.032 534.919,654.371 z" id="boundary" inkscape:connector-curvature="0" />
	<path style="fill:none;stroke:red;stroke-width:1px;stroke-linecap:butt;stroke-linejoin:miter;stroke-opacity:1" d="M 549.402,713.589 559.297,743.202 z" id="boundary" inkscape:connector-curvature="0" />
	<path style="fill:none;stroke:red;stroke-width:1px;stroke-linecap:butt;stroke-linejoin:miter;stroke-opacity:1" d="M 581.916,800.901 594.074,829.512 z" id="boundary" inkscape:connector-curvature="0" />
	<path style="fill:none;stroke:red;stroke-width:1px;stroke-linecap:butt;stroke-linejoin:miter;stroke-opacity:1" d="M 570.324,772.384 559.297,743.202 z" id="boundary" inkscape:connector-curvature="0" />
	<path style="fill:none;stroke:red;stroke-width:1px;stroke-linecap:butt;stroke-linejoin:miter;stroke-opacity:1" d="M 581.916,800.901 570.324,772.384 z" id="boundary" inkscape:connector-curvature="0" />
	<path style="fill:none;stroke:red;stroke-width:1px;stroke-linecap:butt;stroke-linejoin:miter;stroke-opacity:1" d="M 580.905,629.093 604.535,637.754 z" id="boundary" inkscape:connector-curvature="0" />
	<path style="fill:none;stroke:red;stroke-width:1px;stroke-linecap:butt;stroke-linejoin:miter;stroke-opacity:1" d="M 604.535,637.754 633.375,633.907 z" id="boundary" inkscape:connector-curvature="0" />
	<path style="fill:none;stroke:red;stroke-width:1px;stroke-linecap:butt;stroke-linejoin:miter;stroke-opacity:1" d="M 633.375,633.907 662.214,614.076 z" id="boundary" inkscape:connector-curvature="0" />
	<path style="fill:none;stroke:red;stroke-width:1px;stroke-linecap:butt;stroke-linejoin:miter;stroke-opacity:1" d="M 606.515,858.698 594.074,829.512 z" id="boundary" inkscape:connector-curvature="0" />
	<path style="fill:none;stroke:red;stroke-width:1px;stroke-linecap:butt;stroke-linejoin:miter;stroke-opacity:1" d="M 618.672,888.065 629.699,917.098 z" id="boundary" inkscape:connector-curvature="0" />
	<path style="fill:none;stroke:red;stroke-width:1px;stroke-linecap:butt;stroke-linejoin:miter;stroke-opacity:1" d="M 618.672,888.065 606.515,858.698 z" id="boundary" inkscape:connector-curvature="0" />
	<path style="fill:none;stroke:red;stroke-width:1px;stroke-linecap:butt;stroke-linejoin:miter;stroke-opacity:1" d="M 629.699,917.098 639.312,947.378 z" id="boundary" inkscape:connector-curvature="0" />
	<circle cx="827.05" cy="323.108" r="4" fill="#0" id="circle0"/>
	<circle cx="823.477" cy="366.721" r="4" fill="#0" id="circle1"/>
	<circle cx="810.369" cy="280.584" r="4" fill="#0" id="circle2"/>
	<circle cx="816.023" cy="397.884" r="4" fill="#0" id="circle3"/>
	<circle cx="805.562" cy="427.368" r="4" fill="#0" id="circle4"/>
	<circle cx="790.012" cy="456.949" r="4" fill="#0" id="circle5"/>
	<circle cx="786.619" cy="299.764" r="4" fill="#0" id="circle6"/>
	<circle cx="766.262" cy="484.333" r="4" fill="#0" id="circle7"/>
	<circle cx="769.372" cy="330.54" r="4" fill="#0" id="circle8"/>
	<circle cx="751.842" cy="360.075" r="4" fill="#0" id="circle9"/>
	<circle cx="737.422" cy="500.15" r="4" fill="#0" id="circle10"/>
	<circle cx="727.809" cy="389.006" r="4" fill="#0" id="circle11"/>
	<circle cx="708.583" cy="501.951" r="4" fill="#0" id="circle12"/>
	<circle cx="698.97" cy="406.109" r="4" fill="#0" id="circle13"/>
	<circle cx="697.839" cy="250.63" r="4" fill="#0" id="circle14"/>
	<circle cx="682.006" cy="201.199" r="4" fill="#0" id="circle15"/>
	<circle cx="686.015" cy="506.867" r="4" fill="#0" id="circle16"/>
	<circle cx="691.445" cy="551.61" r="4" fill="#0" id="circle17"/>
	<circle cx="678.613" cy="291.046" r="4" fill="#0" id="circle18"/>
	<circle cx="682.854" cy="585.792" r="4" fill="#0" id="circle19"/>
	<circle cx="670.131" cy="404.13" r="4" fill="#0" id="circle20"/>
	<circle cx="662.214" cy="614.076" r="4" fill="#0" id="circle21"/>
	<circle cx="654.863" cy="183.771" r="4" fill="#0" id="circle22"/>
	<circle cx="649.774" cy="310.277" r="4" fill="#0" id="circle23"/>
	<circle cx="641.291" cy="388.335" r="4" fill="#0" id="circle24"/>
	<circle cx="633.375" cy="633.907" r="4" fill="#0" id="circle25"/>
	<circle cx="639.312" cy="947.378" r="4" fill="#0" id="circle26"/>
	<circle cx="628.851" cy="268.421" r="4" fill="#0" id="circle27"/>
	<circle cx="626.024" cy="181.41" r="4" fill="#0" id="circle28"/>
	<circle cx="620.934" cy="323.433" r="4" fill="#0" id="circle29"/>
	<circle cx="629.699" cy="917.098" r="4" fill="#0" id="circle30"/>
	<circle cx="612.452" cy="371.121" r="4" fill="#0" id="circle31"/>
	<circle cx="618.672" cy="888.065" r="4" fill="#0" id="circle32"/>
	<circle cx="604.535" cy="637.754" r="4" fill="#0" id="circle33"/>
	<circle cx="609.279" cy="537.938" r="4" fill="#0" id="circle34"/>
	<circle cx="600.012" cy="272.662" r="4" fill="#0" id="circle35"/>
	<circle cx="606.232" cy="480.466" r="4" fill="#0" id="circle36"/>
	<circle cx="606.515" cy="858.698" r="4" fill="#0" id="circle37"/>
	<circle cx="597.184" cy="193.185" r="4" fill="#0" id="circle38"/>
	<circle cx="592.095" cy="333.611" r="4" fill="#0" id="circle39"/>
	<circle cx="594.074" cy="829.512" r="4" fill="#0" id="circle40"/>
	<circle cx="585.309" cy="470.401" r="4" fill="#0" id="circle41"/>
	<circle cx="591.529" cy="570.797" r="4" fill="#0" id="circle42"/>
	<circle cx="580.905" cy="629.093" r="4" fill="#0" id="circle43"/>
	<circle cx="581.916" cy="800.901" r="4" fill="#0" id="circle44"/>
	<circle cx="574.565" cy="264.529" r="4" fill="#0" id="circle45"/>
	<circle cx="579.654" cy="593.841" r="4" fill="#0" id="circle46"/>
	<circle cx="573.717" cy="212.904" r="4" fill="#0" id="circle47"/>
	<circle cx="559.511" cy="340.421" r="4" fill="#0" id="circle48"/>
	<circle cx="570.324" cy="772.384" r="4" fill="#0" id="circle49"/>
	<circle cx="561.559" cy="496.832" r="4" fill="#0" id="circle50"/>
	<circle cx="554.774" cy="386.118" r="4" fill="#0" id="circle51"/>
	<circle cx="562.407" cy="239.619" r="4" fill="#0" id="circle52"/>
	<circle cx="559.297" cy="743.202" r="4" fill="#0" id="circle53"/>
	<circle cx="549.402" cy="713.589" r="4" fill="#0" id="circle54"/>
	<circle cx="546.291" cy="525.084" r="4" fill="#0" id="circle55"/>
	<circle cx="534.416" cy="341.04" r="4" fill="#0" id="circle56"/>
	<circle cx="541.202" cy="684.032" r="4" fill="#0" id="circle57"/>
	<circle cx="532.092" cy="173.759" r="4" fill="#0" id="circle58"/>
	<circle cx="525.934" cy="408.26" r="4" fill="#0" id="circle59"/>
	<circle cx="536.961" cy="552.829" r="4" fill="#0" id="circle60"/>
	<circle cx="534.919" cy="654.371" r="4" fill="#0" id="circle61"/>
	<circle cx="531.872" cy="582.587" r="4" fill="#0" id="circle62"/>
	<circle cx="523.955" cy="118.567" r="4" fill="#0" id="circle63"/>
	<circle cx="531.306" cy="626.258" r="4" fill="#0" id="circle64"/>
	<circle cx="525.278" cy="892.11" r="4" fill="#0" id="circle65"/>
	<circle cx="529.61" cy="602.473" r="4" fill="#0" id="circle66"/>
	<circle cx="520.28" cy="842.953" r="4" fill="#0" id="circle67"/>
	<circle cx="506.708" cy="197.87" r="4" fill="#0" id="circle68"/>
	<circle cx="505.577" cy="334.903" r="4" fill="#0" id="circle69"/>
	<circle cx="511.232" cy="930.755" r="4" fill="#0" id="circle70"/>
	<circle cx="512.363" cy="813.716" r="4" fill="#0" id="circle71"/>
	<circle cx="500.488" cy="93.1622" r="4" fill="#0" id="circle72"/>
	<circle cx="501.053" cy="435.444" r="4" fill="#0" id="circle73"/>
	<circle cx="503.881" cy="784.424" r="4" fill="#0" id="circle74"/>
	<circle cx="494.55" cy="960.004" r="4" fill="#0" id="circle75"/>
	<circle cx="495.116" cy="754.869" r="4" fill="#0" id="circle76"/>
	<circle cx="479" cy="195.084" r="4" fill="#0" id="circle77"/>
	<circle cx="476.738" cy="318.089" r="4" fill="#0" id="circle78"/>
	<circle cx="483.241" cy="464.138" r="4" fill="#0" id="circle79"/>
	<circle cx="486.351" cy="724.823" r="4" fill="#0" id="circle80"/>
	<circle cx="471.649" cy="78.7925" r="4" fill="#0" id="circle81"/>
	<circle cx="470.518" cy="986.564" r="4" fill="#0" id="circle82"/>
	<circle cx="478.434" cy="695.864" r="4" fill="#0" id="circle83"/>
	<circle cx="470.8" cy="491.907" r="4" fill="#0" id="circle84"/>
	<circle cx="471.366" cy="666.608" r="4" fill="#0" id="circle85"/>
	<circle cx="465.428" cy="636.496" r="4" fill="#0" id="circle86"/>
	<circle cx="463.053" cy="158.716" r="4" fill="#0" id="circle87"/>
	<circle cx="463.449" cy="519.737" r="4" fill="#0" id="circle88"/>
	<circle cx="460.905" cy="606.643" r="4" fill="#0" id="circle89"/>
	<circle cx="450.726" cy="292.082" r="4" fill="#0" id="circle90"/>
	<circle cx="455.25" cy="380.218" r="4" fill="#0" id="circle91"/>
	<circle cx="459.491" cy="550.638" r="4" fill="#0" id="circle92"/>
	<circle cx="460.056" cy="139.631" r="4" fill="#0" id="circle93"/>
	<circle cx="459.208" cy="579.119" r="4" fill="#0" id="circle94"/>
	<circle cx="442.809" cy="83.2941" r="4" fill="#0" id="circle95"/>
	<circle cx="441.678" cy="996" r="4" fill="#0" id="circle96"/>
	<circle cx="445.637" cy="905.226" r="4" fill="#0" id="circle97"/>
	<circle cx="442.244" cy="410.723" r="4" fill="#0" id="circle98"/>
	<circle cx="436.024" cy="873.864" r="4" fill="#0" id="circle99"/>
	<circle cx="431.217" cy="263.602" r="4" fill="#0" id="circle100"/>
	<circle cx="430.652" cy="439.984" r="4" fill="#0" id="circle101"/>
	<circle cx="427.824" cy="844.84" r="4" fill="#0" id="circle102"/>
	<circle cx="422.169" cy="106.949" r="4" fill="#0" id="circle103"/>
	<circle cx="412.839" cy="983.51" r="4" fill="#0" id="circle104"/>
	<circle cx="419.908" cy="468.989" r="4" fill="#0" id="circle105"/>
	<circle cx="419.908" cy="815.233" r="4" fill="#0" id="circle106"/>
	<circle cx="413.687" cy="134.471" r="4" fill="#0" id="circle107"/>
	<circle cx="412.556" cy="785.687" r="4" fill="#0" id="circle108"/>
	<circle cx="410.012" cy="497.91" r="4" fill="#0" id="circle109"/>
	<circle cx="411.143" cy="207.959" r="4" fill="#0" id="circle110"/>
	<circle cx="409.635" cy="186.471" r="4" fill="#0" id="circle111"/>
	<circle cx="405.771" cy="755.953" r="4" fill="#0" id="circle112"/>
	<circle cx="401.247" cy="526.861" r="4" fill="#0" id="circle113"/>
	<circle cx="399.55" cy="725.577" r="4" fill="#0" id="circle114"/>
	<circle cx="387.11" cy="957.429" r="4" fill="#0" id="circle115"/>
	<circle cx="393.896" cy="555.986" r="4" fill="#0" id="circle116"/>
	<circle cx="394.461" cy="696.802" r="4" fill="#0" id="circle117"/>
	<circle cx="390.079" cy="668.139" r="4" fill="#0" id="circle118"/>
	<circle cx="388.524" cy="587.044" r="4" fill="#0" id="circle119"/>
	<circle cx="387.204" cy="636.37" r="4" fill="#0" id="circle120"/>
	<circle cx="385.696" cy="610.296" r="4" fill="#0" id="circle121"/>
	<circle cx="383.023" cy="286.012" r="4" fill="#0" id="circle122"/>
	<circle cx="382.707" cy="328.096" r="4" fill="#0" id="circle123"/>
	<circle cx="381.314" cy="241.664" r="4" fill="#0" id="circle124"/>
	<circle cx="380.544" cy="362.334" r="4" fill="#0" id="circle125"/>
	<circle cx="378.345" cy="208.336" r="4" fill="#0" id="circle126"/>
	<circle cx="377.574" cy="400.007" r="4" fill="#0" id="circle127"/>
	<circle cx="373.539" cy="177.659" r="4" fill="#0" id="circle128"/>
	<circle cx="368.166" cy="930.292" r="4" fill="#0" id="circle129"/>
	<circle cx="373.256" cy="434.123" r="4" fill="#0" id="circle130"/>
	<circle cx="367.884" cy="468.785" r="4" fill="#0" id="circle131"/>
	<circle cx="366.47" cy="147.887" r="4" fill="#0" id="circle132"/>
	<circle cx="359.967" cy="495.969" r="4" fill="#0" id="circle133"/>
	<circle cx="356.292" cy="118.183" r="4" fill="#0" id="circle134"/>
	<circle cx="356.857" cy="899.348" r="4" fill="#0" id="circle135"/>
	<circle cx="351.485" cy="524.781" r="4" fill="#0" id="circle136"/>
	<circle cx="349.223" cy="869.681" r="4" fill="#0" id="circle137"/>
	<circle cx="341.872" cy="88.8136" r="4" fill="#0" id="circle138"/>
	<circle cx="343.851" cy="553.994" r="4" fill="#0" id="circle139"/>
	<circle cx="341.589" cy="839.756" r="4" fill="#0" id="circle140"/>
	<circle cx="337.065" cy="583.915" r="4" fill="#0" id="circle141"/>
	<circle cx="334.803" cy="809.771" r="4" fill="#0" id="circle142"/>
	<circle cx="331.693" cy="612.793" r="4" fill="#0" id="circle143"/>
	<circle cx="320.667" cy="59.6728" r="4" fill="#0" id="circle144"/>
	<circle cx="329.431" cy="779.679" r="4" fill="#0" id="circle145"/>
	<circle cx="327.735" cy="641.114" r="4" fill="#0" id="circle146"/>
	<circle cx="325.134" cy="747.716" r="4" fill="#0" id="circle147"/>
	<circle cx="324.813" cy="674.414" r="4" fill="#0" id="circle148"/>
	<circle cx="323.305" cy="709.678" r="4" fill="#0" id="circle149"/>
	<circle cx="324.625" cy="726.878" r="4" fill="#0" id="circle150"/>
	<circle cx="293.524" cy="35.1843" r="4" fill="#0" id="circle151"/>
	<circle cx="299.502" cy="249.939" r="4" fill="#0" id="circle152"/>
	<circle cx="297.482" cy="215.364" r="4" fill="#0" id="circle153"/>
	<circle cx="295.786" cy="402.452" r="4" fill="#0" id="circle154"/>
	<circle cx="290.696" cy="183.356" r="4" fill="#0" id="circle155"/>
	<circle cx="290.414" cy="432.548" r="4" fill="#0" id="circle156"/>
	<circle cx="284.476" cy="463.032" r="4" fill="#0" id="circle157"/>
	<circle cx="276.559" cy="154.393" r="4" fill="#0" id="circle158"/>
	<circle cx="278.256" cy="493.233" r="4" fill="#0" id="circle159"/>
	<circle cx="264.684" cy="18.6747" r="4" fill="#0" id="circle160"/>
	<circle cx="272.036" cy="522.047" r="4" fill="#0" id="circle161"/>
	<circle cx="259.595" cy="347.588" r="4" fill="#0" id="circle162"/>
	<circle cx="259.03" cy="295.192" r="4" fill="#0" id="circle163"/>
	<circle cx="265.533" cy="551.274" r="4" fill="#0" id="circle164"/>
	<circle cx="253.092" cy="125.602" r="4" fill="#0" id="circle165"/>
	<circle cx="258.747" cy="581.032" r="4" fill="#0" id="circle166"/>
	<circle cx="251.961" cy="610.79" r="4" fill="#0" id="circle167"/>
	<circle cx="235.845" cy="8.59588" r="4" fill="#0" id="circle168"/>
	<circle cx="245.175" cy="640.572" r="4" fill="#0" id="circle169"/>
	<circle cx="230.756" cy="358.365" r="4" fill="#0" id="circle170"/>
	<circle cx="230.19" cy="280.063" r="4" fill="#0" id="circle171"/>
	<circle cx="238.673" cy="669.688" r="4" fill="#0" id="circle172"/>
	<circle cx="224.536" cy="102.498" r="4" fill="#0" id="circle173"/>
	<circle cx="232.452" cy="698.784" r="4" fill="#0" id="circle174"/>
	<circle cx="226.515" cy="729.027" r="4" fill="#0" id="circle175"/>
	<circle cx="216.619" cy="760.173" r="4" fill="#0" id="circle176"/>
	<circle cx="207.006" cy="4" r="4" fill="#0" id="circle177"/>
	<circle cx="201.917" cy="359.59" r="4" fill="#0" id="circle178"/>
	<circle cx="201.351" cy="267.739" r="4" fill="#0" id="circle179"/>
	<circle cx="195.696" cy="89.8636" r="4" fill="#0" id="circle180"/>
	<circle cx="201.068" cy="788.072" r="4" fill="#0" id="circle181"/>
	<circle cx="178.167" cy="6.52801" r="4" fill="#0" id="circle182"/>
	<circle cx="183.256" cy="817.148" r="4" fill="#0" id="circle183"/>
	<circle cx="173.077" cy="354.784" r="4" fill="#0" id="circle184"/>
	<circle cx="172.512" cy="254.412" r="4" fill="#0" id="circle185"/>
	<circle cx="166.857" cy="96.1837" r="4" fill="#0" id="circle186"/>
	<circle cx="162.899" cy="846.171" r="4" fill="#0" id="circle187"/>
	<circle cx="149.327" cy="12.2049" r="4" fill="#0" id="circle188"/>
	<circle cx="144.238" cy="345.869" r="4" fill="#0" id="circle189"/>
	<circle cx="149.61" cy="231.144" r="4" fill="#0" id="circle190"/>
	<circle cx="145.086" cy="124.135" r="4" fill="#0" id="circle191"/>
	<circle cx="137.452" cy="873.552" r="4" fill="#0" id="circle192"/>
	<circle cx="137.17" cy="202.096" r="4" fill="#0" id="circle193"/>
	<circle cx="133.777" cy="152.011" r="4" fill="#0" id="circle194"/>
	<circle cx="120.488" cy="21.8956" r="4" fill="#0" id="circle195"/>
	<circle cx="132.08" cy="182.324" r="4" fill="#0" id="circle196"/>
	<circle cx="128.122" cy="539.121" r="4" fill="#0" id="circle197"/>
	<circle cx="120.771" cy="344.104" r="4" fill="#0" id="circle198"/>
	<circle cx="125.86" cy="493.006" r="4" fill="#0" id="circle199"/>
	<circle cx="120.205" cy="587.886" r="4" fill="#0" id="circle200"/>
	<circle cx="122.184" cy="462.235" r="4" fill="#0" id="circle201"/>
	<circle cx="108.613" cy="886.142" r="4" fill="#0" id="circle202"/>
	<circle cx="118.226" cy="432.386" r="4" fill="#0" id="circle203"/>
	<circle cx="113.954" cy="399.499" r="4" fill="#0" id="circle204"/>
	<circle cx="99.5654" cy="605.65" r="4" fill="#0" id="circle205"/>
	<circle cx="111.252" cy="374.775" r="4" fill="#0" id="circle206"/>
	<circle cx="91.6488" cy="38.4275" r="4" fill="#0" id="circle207"/>
	<circle cx="85.4285" cy="870.536" r="4" fill="#0" id="circle208"/>
	<circle cx="84.2976" cy="702.956" r="4" fill="#0" id="circle209"/>
	<circle cx="70.7262" cy="604.364" r="4" fill="#0" id="circle210"/>
	<circle cx="66.7678" cy="63.2842" r="4" fill="#0" id="circle211"/>
	<circle cx="72.4226" cy="840.953" r="4" fill="#0" id="circle212"/>
	<circle cx="69.8779" cy="732.815" r="4" fill="#0" id="circle213"/>
	<circle cx="65.3541" cy="812.236" r="4" fill="#0" id="circle214"/>
	<circle cx="61.3958" cy="766.422" r="4" fill="#0" id="circle215"/>
	<circle cx="61.3958" cy="793.463" r="4" fill="#0" id="circle216"/>
	<circle cx="49.8035" cy="92.1434" r="4" fill="#0" id="circle217"/>
	<circle cx="43.0178" cy="586.694" r="4" fill="#0" id="circle218"/>
	<circle cx="37.9286" cy="121.863" r="4" fill="#0" id="circle219"/>
	<circle cx="29.1637" cy="148.961" r="4" fill="#0" id="circle220"/>
	<circle cx="23.7917" cy="557.262" r="4" fill="#0" id="circle221"/>
	<circle cx="24.717" cy="186.037" r="4" fill="#0" id="circle222"/>
	<circle cx="20.6815" cy="222.379" r="4" fill="#0" id="circle223"/>
	<circle cx="17.2887" cy="250.936" r="4" fill="#0" id="circle224"/>
	<circle cx="14.1786" cy="527.896" r="4" fill="#0" id="circle225"/>
	<circle cx="13.8958" cy="280.623" r="4" fill="#0" id="circle226"/>
	<circle cx="10.5434" cy="314.444" r="4" fill="#0" id="circle227"/>
	<circle cx="8.46098" cy="342.982" r="4" fill="#0" id="circle228"/>
	<circle cx="8.08399" cy="495.787" r="4" fill="#0" id="circle229"/>
	<circle cx="6.01956" cy="372.324" r="4" fill="#0" id="circle230"/>
	<circle cx="4.87963" cy="464.466" r="4" fill="#0" id="circle231"/>
	<circle cx="4.64626" cy="407.303" r="4" fill="#0" id="circle232"/>
	<circle cx="4" cy="433.749" r="4" fill="#0" id="circle233"/>
	<circle cx="297.999" cy="275.802" r="4" fill="#0" id="circle234"/>
	<circle cx="304.679" cy="305.861" r="4" fill="#0" id="circle235"/>
	<circle cx="304.679" cy="342.599" r="4" fill="#0" id="circle236"/>
	<circle cx="301.339" cy="372.657" r="4" fill="#0" id="circle237"/>
	<circle cx="267.941" cy="320.89" r="4" fill="#0" id="circle238"/>
	<circle cx="580.213" cy="372.657" r="4" fill="#0" id="circle239"/>
	<circle cx="464.99" cy="178.948" r="4" fill="#0" id="circle240"/>
	<circle cx="409.883" cy="168.928" r="4" fill="#0" id="circle241"/>
	<circle cx="411.553" cy="148.889" r="4" fill="#0" id="circle242"/>
	<circle cx="413.223" cy="229.045" r="4" fill="#0" id="circle243"/>
	<circle cx="423.242" cy="249.084" r="4" fill="#0" id="circle244"/>
	</g>
</svg>