<?xml version="1.0" encoding="UTF-8" standalone="no"?>
<!-- Created with CurveBenchmark -->
<svg
	xmlns:dc="http://purl.org/dc/elements/1.1/"
	xmlns:cc="http://creativecommons.org/ns#"
	xmlns:rdf="http://www.w3.org/1999/02/22-rdf-syntax-ns#"
	xmlns:svg="http://www.w3.org/2000/svg"
	xmlns="http://www.w3.org/2000/svg"
	xmlns:sodipodi="http://sodipodi.sourceforge.net/DTD/sodipodi-0.dtd"
	xmlns:inkscape="http://www.inkscape.org/namespaces/inkscape"
	width="1000"
	height="1000"
	id="svg2"
	version="1.1"
	sodipodi:docname="multiple-curves/vicur-mc31.txt">
<defs
	id="defs4" />
<metadata
	id="metadata7">
	<rdf:RDF>
		<cc:Work
			rdf:about="">
			<dc:format>image/svg+xml</dc:format>
			<dc:type
				rdf:resource="http://purl.org/dc/dcmitype/StillImage" />
			<dc:title></dc:title>
		</cc:Work>
	</rdf:RDF>
</metadata>
<g
	inkscape:label="Layer 1"
	inkscape:groupmode="layer"
	id="layer1">
	<path style="fill:none;stroke:red;stroke-width:1px;stroke-linecap:butt;stroke-linejoin:miter;stroke-opacity:1" d="M 25.5665,735.257 21.6422,660.763 z" id="boundary" inkscape:connector-curvature="0" />
	<path style="fill:none;stroke:red;stroke-width:1px;stroke-linecap:butt;stroke-linejoin:miter;stroke-opacity:1" d="M 21.6422,660.763 13.8022,550.977 z" id="boundary" inkscape:connector-curvature="0" />
	<path style="fill:none;stroke:red;stroke-width:1px;stroke-linecap:butt;stroke-linejoin:miter;stroke-opacity:1" d="M 13.8022,550.977 19.6801,441.191 z" id="boundary" inkscape:connector-curvature="0" />
	<path style="fill:none;stroke:red;stroke-width:1px;stroke-linecap:butt;stroke-linejoin:miter;stroke-opacity:1" d="M 19.6801,441.191 17.718,345.123 z" id="boundary" inkscape:connector-curvature="0" />
	<path style="fill:none;stroke:red;stroke-width:1px;stroke-linecap:butt;stroke-linejoin:miter;stroke-opacity:1" d="M 17.718,345.123 13.8022,264.743 z" id="boundary" inkscape:connector-curvature="0" />
	<path style="fill:none;stroke:red;stroke-width:1px;stroke-linecap:butt;stroke-linejoin:miter;stroke-opacity:1" d="M 13.8022,264.743 11.8401,203.968 z" id="boundary" inkscape:connector-curvature="0" />
	<path style="fill:none;stroke:red;stroke-width:1px;stroke-linecap:butt;stroke-linejoin:miter;stroke-opacity:1" d="M 11.8401,203.968 5.95367,170.637 z" id="boundary" inkscape:connector-curvature="0" />
	<path style="fill:none;stroke:red;stroke-width:1px;stroke-linecap:butt;stroke-linejoin:miter;stroke-opacity:1" d="M 5.95367,170.637 4,39.2845 z" id="boundary" inkscape:connector-curvature="0" />
	<path style="fill:none;stroke:red;stroke-width:1px;stroke-linecap:butt;stroke-linejoin:miter;stroke-opacity:1" d="M 4,39.2845 53.0109,35.3687 z" id="boundary" inkscape:connector-curvature="0" />
	<path style="fill:none;stroke:red;stroke-width:1px;stroke-linecap:butt;stroke-linejoin:miter;stroke-opacity:1" d="M 53.0109,35.3687 92.2197,123.588 z" id="boundary" inkscape:connector-curvature="0" />
	<path style="fill:none;stroke:red;stroke-width:1px;stroke-linecap:butt;stroke-linejoin:miter;stroke-opacity:1" d="M 92.2197,123.588 127.504,168.675 z" id="boundary" inkscape:connector-curvature="0" />
	<path style="fill:none;stroke:red;stroke-width:1px;stroke-linecap:butt;stroke-linejoin:miter;stroke-opacity:1" d="M 127.504,168.675 162.797,243.177 z" id="boundary" inkscape:connector-curvature="0" />
	<path style="fill:none;stroke:red;stroke-width:1px;stroke-linecap:butt;stroke-linejoin:miter;stroke-opacity:1" d="M 162.797,243.177 194.166,282.386 z" id="boundary" inkscape:connector-curvature="0" />
	<path style="fill:none;stroke:red;stroke-width:1px;stroke-linecap:butt;stroke-linejoin:miter;stroke-opacity:1" d="M 194.166,282.386 227.497,329.443 z" id="boundary" inkscape:connector-curvature="0" />
	<path style="fill:none;stroke:red;stroke-width:1px;stroke-linecap:butt;stroke-linejoin:miter;stroke-opacity:1" d="M 227.497,329.443 245.139,280.423 z" id="boundary" inkscape:connector-curvature="0" />
	<path style="fill:none;stroke:red;stroke-width:1px;stroke-linecap:butt;stroke-linejoin:miter;stroke-opacity:1" d="M 245.139,280.423 268.659,231.412 z" id="boundary" inkscape:connector-curvature="0" />
	<path style="fill:none;stroke:red;stroke-width:1px;stroke-linecap:butt;stroke-linejoin:miter;stroke-opacity:1" d="M 268.659,231.412 280.423,176.524 z" id="boundary" inkscape:connector-curvature="0" />
	<path style="fill:none;stroke:red;stroke-width:1px;stroke-linecap:butt;stroke-linejoin:miter;stroke-opacity:1" d="M 280.423,176.524 290.226,131.428 z" id="boundary" inkscape:connector-curvature="0" />
	<path style="fill:none;stroke:red;stroke-width:1px;stroke-linecap:butt;stroke-linejoin:miter;stroke-opacity:1" d="M 290.226,131.428 300.028,88.2954 z" id="boundary" inkscape:connector-curvature="0" />
	<path style="fill:none;stroke:red;stroke-width:1px;stroke-linecap:butt;stroke-linejoin:miter;stroke-opacity:1" d="M 300.028,88.2954 315.716,31.4444 z" id="boundary" inkscape:connector-curvature="0" />
	<path style="fill:none;stroke:red;stroke-width:1px;stroke-linecap:butt;stroke-linejoin:miter;stroke-opacity:1" d="M 315.716,31.4444 341.199,45.1709 z" id="boundary" inkscape:connector-curvature="0" />
	<path style="fill:none;stroke:red;stroke-width:1px;stroke-linecap:butt;stroke-linejoin:miter;stroke-opacity:1" d="M 341.199,45.1709 354.925,86.3418 z" id="boundary" inkscape:connector-curvature="0" />
	<path style="fill:none;stroke:red;stroke-width:1px;stroke-linecap:butt;stroke-linejoin:miter;stroke-opacity:1" d="M 354.925,86.3418 356.887,135.353 z" id="boundary" inkscape:connector-curvature="0" />
	<path style="fill:none;stroke:red;stroke-width:1px;stroke-linecap:butt;stroke-linejoin:miter;stroke-opacity:1" d="M 356.887,135.353 358.849,186.326 z" id="boundary" inkscape:connector-curvature="0" />
	<path style="fill:none;stroke:red;stroke-width:1px;stroke-linecap:butt;stroke-linejoin:miter;stroke-opacity:1" d="M 358.849,186.326 362.765,245.139 z" id="boundary" inkscape:connector-curvature="0" />
	<path style="fill:none;stroke:red;stroke-width:1px;stroke-linecap:butt;stroke-linejoin:miter;stroke-opacity:1" d="M 362.765,245.139 370.605,319.641 z" id="boundary" inkscape:connector-curvature="0" />
	<path style="fill:none;stroke:red;stroke-width:1px;stroke-linecap:butt;stroke-linejoin:miter;stroke-opacity:1" d="M 370.605,319.641 378.454,417.662 z" id="boundary" inkscape:connector-curvature="0" />
	<path style="fill:none;stroke:red;stroke-width:1px;stroke-linecap:butt;stroke-linejoin:miter;stroke-opacity:1" d="M 378.454,417.662 382.37,501.958 z" id="boundary" inkscape:connector-curvature="0" />
	<path style="fill:none;stroke:red;stroke-width:1px;stroke-linecap:butt;stroke-linejoin:miter;stroke-opacity:1" d="M 382.37,501.958 386.294,596.064 z" id="boundary" inkscape:connector-curvature="0" />
	<path style="fill:none;stroke:red;stroke-width:1px;stroke-linecap:butt;stroke-linejoin:miter;stroke-opacity:1" d="M 386.294,596.064 388.256,670.566 z" id="boundary" inkscape:connector-curvature="0" />
	<path style="fill:none;stroke:red;stroke-width:1px;stroke-linecap:butt;stroke-linejoin:miter;stroke-opacity:1" d="M 388.256,670.566 388.256,731.341 z" id="boundary" inkscape:connector-curvature="0" />
	<path style="fill:none;stroke:red;stroke-width:1px;stroke-linecap:butt;stroke-linejoin:miter;stroke-opacity:1" d="M 586.262,725.455 586.262,676.444 z" id="boundary" inkscape:connector-curvature="0" />
	<path style="fill:none;stroke:red;stroke-width:1px;stroke-linecap:butt;stroke-linejoin:miter;stroke-opacity:1" d="M 586.262,676.444 580.384,603.904 z" id="boundary" inkscape:connector-curvature="0" />
	<path style="fill:none;stroke:red;stroke-width:1px;stroke-linecap:butt;stroke-linejoin:miter;stroke-opacity:1" d="M 580.384,603.904 576.46,519.609 z" id="boundary" inkscape:connector-curvature="0" />
	<path style="fill:none;stroke:red;stroke-width:1px;stroke-linecap:butt;stroke-linejoin:miter;stroke-opacity:1" d="M 576.46,519.609 570.582,425.503 z" id="boundary" inkscape:connector-curvature="0" />
	<path style="fill:none;stroke:red;stroke-width:1px;stroke-linecap:butt;stroke-linejoin:miter;stroke-opacity:1" d="M 570.582,425.503 566.657,362.765 z" id="boundary" inkscape:connector-curvature="0" />
	<path style="fill:none;stroke:red;stroke-width:1px;stroke-linecap:butt;stroke-linejoin:miter;stroke-opacity:1" d="M 566.657,362.765 568.62,315.716 z" id="boundary" inkscape:connector-curvature="0" />
	<path style="fill:none;stroke:red;stroke-width:1px;stroke-linecap:butt;stroke-linejoin:miter;stroke-opacity:1" d="M 568.62,315.716 562.733,276.508 z" id="boundary" inkscape:connector-curvature="0" />
	<path style="fill:none;stroke:red;stroke-width:1px;stroke-linecap:butt;stroke-linejoin:miter;stroke-opacity:1" d="M 562.733,276.508 562.733,233.375 z" id="boundary" inkscape:connector-curvature="0" />
	<path style="fill:none;stroke:red;stroke-width:1px;stroke-linecap:butt;stroke-linejoin:miter;stroke-opacity:1" d="M 562.733,233.375 554.893,154.957 z" id="boundary" inkscape:connector-curvature="0" />
	<path style="fill:none;stroke:red;stroke-width:1px;stroke-linecap:butt;stroke-linejoin:miter;stroke-opacity:1" d="M 554.893,154.957 549.015,84.3796 z" id="boundary" inkscape:connector-curvature="0" />
	<path style="fill:none;stroke:red;stroke-width:1px;stroke-linecap:butt;stroke-linejoin:miter;stroke-opacity:1" d="M 549.015,84.3796 539.213,19.6801 z" id="boundary" inkscape:connector-curvature="0" />
	<path style="fill:none;stroke:red;stroke-width:1px;stroke-linecap:butt;stroke-linejoin:miter;stroke-opacity:1" d="M 539.213,19.6801 570.582,11.8401 z" id="boundary" inkscape:connector-curvature="0" />
	<path style="fill:none;stroke:red;stroke-width:1px;stroke-linecap:butt;stroke-linejoin:miter;stroke-opacity:1" d="M 570.582,11.8401 621.555,9.87793 z" id="boundary" inkscape:connector-curvature="0" />
	<path style="fill:none;stroke:red;stroke-width:1px;stroke-linecap:butt;stroke-linejoin:miter;stroke-opacity:1" d="M 621.555,9.87793 692.132,23.6044 z" id="boundary" inkscape:connector-curvature="0" />
	<path style="fill:none;stroke:red;stroke-width:1px;stroke-linecap:butt;stroke-linejoin:miter;stroke-opacity:1" d="M 692.132,23.6044 741.143,60.851 z" id="boundary" inkscape:connector-curvature="0" />
	<path style="fill:none;stroke:red;stroke-width:1px;stroke-linecap:butt;stroke-linejoin:miter;stroke-opacity:1" d="M 741.143,60.851 770.55,109.862 z" id="boundary" inkscape:connector-curvature="0" />
	<path style="fill:none;stroke:red;stroke-width:1px;stroke-linecap:butt;stroke-linejoin:miter;stroke-opacity:1" d="M 770.55,109.862 776.428,170.637 z" id="boundary" inkscape:connector-curvature="0" />
	<path style="fill:none;stroke:red;stroke-width:1px;stroke-linecap:butt;stroke-linejoin:miter;stroke-opacity:1" d="M 776.428,170.637 762.71,245.139 z" id="boundary" inkscape:connector-curvature="0" />
	<path style="fill:none;stroke:red;stroke-width:1px;stroke-linecap:butt;stroke-linejoin:miter;stroke-opacity:1" d="M 762.71,245.139 729.379,282.386 z" id="boundary" inkscape:connector-curvature="0" />
	<path style="fill:none;stroke:red;stroke-width:1px;stroke-linecap:butt;stroke-linejoin:miter;stroke-opacity:1" d="M 729.379,282.386 676.444,305.914 z" id="boundary" inkscape:connector-curvature="0" />
	<path style="fill:none;stroke:red;stroke-width:1px;stroke-linecap:butt;stroke-linejoin:miter;stroke-opacity:1" d="M 676.444,305.914 647.037,311.792 z" id="boundary" inkscape:connector-curvature="0" />
	<path style="fill:none;stroke:red;stroke-width:1px;stroke-linecap:butt;stroke-linejoin:miter;stroke-opacity:1" d="M 970.518,190.242 980.32,300.028 z" id="boundary" inkscape:connector-curvature="0" />
	<path style="fill:none;stroke:red;stroke-width:1px;stroke-linecap:butt;stroke-linejoin:miter;stroke-opacity:1" d="M 980.32,300.028 982.282,401.974 z" id="boundary" inkscape:connector-curvature="0" />
	<path style="fill:none;stroke:red;stroke-width:1px;stroke-linecap:butt;stroke-linejoin:miter;stroke-opacity:1" d="M 982.282,401.974 986.198,513.722 z" id="boundary" inkscape:connector-curvature="0" />
	<path style="fill:none;stroke:red;stroke-width:1px;stroke-linecap:butt;stroke-linejoin:miter;stroke-opacity:1" d="M 986.198,513.722 982.282,617.63 z" id="boundary" inkscape:connector-curvature="0" />
	<path style="fill:none;stroke:red;stroke-width:1px;stroke-linecap:butt;stroke-linejoin:miter;stroke-opacity:1" d="M 982.282,617.63 982.282,696.048 z" id="boundary" inkscape:connector-curvature="0" />
	<path style="fill:none;stroke:red;stroke-width:1px;stroke-linecap:butt;stroke-linejoin:miter;stroke-opacity:1" d="M 982.282,696.048 996,743.105 z" id="boundary" inkscape:connector-curvature="0" />
	<circle cx="25.5665" cy="735.257" r="4" fill="#0" id="circle0"/>
	<circle cx="21.6422" cy="660.763" r="4" fill="#0" id="circle1"/>
	<circle cx="13.8022" cy="550.977" r="4" fill="#0" id="circle2"/>
	<circle cx="19.6801" cy="441.191" r="4" fill="#0" id="circle3"/>
	<circle cx="17.718" cy="345.123" r="4" fill="#0" id="circle4"/>
	<circle cx="13.8022" cy="264.743" r="4" fill="#0" id="circle5"/>
	<circle cx="11.8401" cy="203.968" r="4" fill="#0" id="circle6"/>
	<circle cx="5.95367" cy="170.637" r="4" fill="#0" id="circle7"/>
	<circle cx="4" cy="39.2845" r="4" fill="#0" id="circle8"/>
	<circle cx="53.0109" cy="35.3687" r="4" fill="#0" id="circle9"/>
	<circle cx="92.2197" cy="123.588" r="4" fill="#0" id="circle10"/>
	<circle cx="127.504" cy="168.675" r="4" fill="#0" id="circle11"/>
	<circle cx="162.797" cy="243.177" r="4" fill="#0" id="circle12"/>
	<circle cx="194.166" cy="282.386" r="4" fill="#0" id="circle13"/>
	<circle cx="227.497" cy="329.443" r="4" fill="#0" id="circle14"/>
	<circle cx="245.139" cy="280.423" r="4" fill="#0" id="circle15"/>
	<circle cx="268.659" cy="231.412" r="4" fill="#0" id="circle16"/>
	<circle cx="280.423" cy="176.524" r="4" fill="#0" id="circle17"/>
	<circle cx="290.226" cy="131.428" r="4" fill="#0" id="circle18"/>
	<circle cx="300.028" cy="88.2954" r="4" fill="#0" id="circle19"/>
	<circle cx="315.716" cy="31.4444" r="4" fill="#0" id="circle20"/>
	<circle cx="341.199" cy="45.1709" r="4" fill="#0" id="circle21"/>
	<circle cx="354.925" cy="86.3418" r="4" fill="#0" id="circle22"/>
	<circle cx="356.887" cy="135.353" r="4" fill="#0" id="circle23"/>
	<circle cx="358.849" cy="186.326" r="4" fill="#0" id="circle24"/>
	<circle cx="362.765" cy="245.139" r="4" fill="#0" id="circle25"/>
	<circle cx="370.605" cy="319.641" r="4" fill="#0" id="circle26"/>
	<circle cx="378.454" cy="417.662" r="4" fill="#0" id="circle27"/>
	<circle cx="382.37" cy="501.958" r="4" fill="#0" id="circle28"/>
	<circle cx="386.294" cy="596.064" r="4" fill="#0" id="circle29"/>
	<circle cx="388.256" cy="670.566" r="4" fill="#0" id="circle30"/>
	<circle cx="388.256" cy="731.341" r="4" fill="#0" id="circle31"/>
	<circle cx="586.262" cy="725.455" r="4" fill="#0" id="circle32"/>
	<circle cx="586.262" cy="676.444" r="4" fill="#0" id="circle33"/>
	<circle cx="580.384" cy="603.904" r="4" fill="#0" id="circle34"/>
	<circle cx="576.46" cy="519.609" r="4" fill="#0" id="circle35"/>
	<circle cx="570.582" cy="425.503" r="4" fill="#0" id="circle36"/>
	<circle cx="566.657" cy="362.765" r="4" fill="#0" id="circle37"/>
	<circle cx="568.62" cy="315.716" r="4" fill="#0" id="circle38"/>
	<circle cx="562.733" cy="276.508" r="4" fill="#0" id="circle39"/>
	<circle cx="562.733" cy="233.375" r="4" fill="#0" id="circle40"/>
	<circle cx="554.893" cy="154.957" r="4" fill="#0" id="circle41"/>
	<circle cx="549.015" cy="84.3796" r="4" fill="#0" id="circle42"/>
	<circle cx="539.213" cy="19.6801" r="4" fill="#0" id="circle43"/>
	<circle cx="570.582" cy="11.8401" r="4" fill="#0" id="circle44"/>
	<circle cx="621.555" cy="9.87793" r="4" fill="#0" id="circle45"/>
	<circle cx="692.132" cy="23.6044" r="4" fill="#0" id="circle46"/>
	<circle cx="741.143" cy="60.851" r="4" fill="#0" id="circle47"/>
	<circle cx="770.55" cy="109.862" r="4" fill="#0" id="circle48"/>
	<circle cx="776.428" cy="170.637" r="4" fill="#0" id="circle49"/>
	<circle cx="762.71" cy="245.139" r="4" fill="#0" id="circle50"/>
	<circle cx="729.379" cy="282.386" r="4" fill="#0" id="circle51"/>
	<circle cx="676.444" cy="305.914" r="4" fill="#0" id="circle52"/>
	<circle cx="647.037" cy="311.792" r="4" fill="#0" id="circle53"/>
	<circle cx="956.791" cy="4" r="4" fill="#0" id="circle54"/>
	<circle cx="970.518" cy="190.242" r="4" fill="#0" id="circle55"/>
	<circle cx="980.32" cy="300.028" r="4" fill="#0" id="circle56"/>
	<circle cx="982.282" cy="401.974" r="4" fill="#0" id="circle57"/>
	<circle cx="986.198" cy="513.722" r="4" fill="#0" id="circle58"/>
	<circle cx="982.282" cy="617.63" r="4" fill="#0" id="circle59"/>
	<circle cx="982.282" cy="696.048" r="4" fill="#0" id="circle60"/>
	<circle cx="996" cy="743.105" r="4" fill="#0" id="circle61"/>
	</g>
</svg>